8.036e-01,5.644e-02,5.168e-02,6.271e-02,7.425e-02,4.620e-01,6.033e-01,4.390e-01,8.902e-01,7.085e-01,5.250e-01,1.361e-02,3.185e-01,5.756e-01,6.288e-01,8.767e-01,4.318e-01,7.853e-01,1.407e-02,6.645e-01,5.846e-01,1.603e-01,7.021e-01,9.020e-01,7.974e-01,6.911e-01,8.790e-01,6.597e-01,8.792e-01,4.782e-01,8.043e-01,2.497e-01,7.955e-01,3.146e-01,7.924e-02,4.050e-01,6.964e-01,8.255e-02,3.493e-01,3.899e-01,2.593e-01,4.231e-01,6.742e-01,4.131e-01,4.526e-02,1.154e-01,9.809e-01,8.280e-01,9.004e-01
5.581e-01,4.955e-01,2.177e-01,8.491e-01,7.291e-01,9.037e-01,1.404e+00,3.793e-01,9.437e-01,1.426e+00,1.013e+00,7.926e-01,5.591e-01,7.526e-01,4.987e-01,9.136e-01,9.033e-01,1.203e+00,9.406e-01,1.220e+00,1.371e+00,4.653e-01,6.303e-01,1.609e+00,1.160e+00,1.189e+00,6.879e-01,1.123e+00,6.935e-01,9.050e-01,1.451e+00,8.980e-01,1.413e+00,1.024e+00,6.591e-01,7.572e-01,1.452e+00,5.436e-01,4.577e-01,2.806e-01,3.278e-01,1.245e+00,5.311e-01,7.488e-01,4.324e-01,1.496e-01,1.371e+00,1.444e+00,7.726e-01
4.575e-01,4.935e-02,1.016e+00,3.031e-01,4.139e-01,4.680e-01,5.840e-01,9.824e-01,1.308e+00,1.263e+00,5.252e-01,4.697e-01,1.106e+00,7.610e-01,6.628e-01,6.579e-01,2.841e-01,6.953e-01,2.703e-01,6.495e-01,4.810e-01,6.495e-01,9.432e-01,1.502e+00,1.100e+00,9.187e-01,1.151e+00,1.189e+00,7.918e-01,6.585e-01,1.213e+00,3.506e-01,7.310e-01,9.007e-01,8.194e-01,1.105e+00,1.199e+00,3.164e-01,9.952e-01,9.967e-01,1.868e-01,4.241e-01,8.199e-01,1.022e+00,6.694e-01,6.234e-01,1.417e+00,8.280e-01,1.200e+00
6.280e-01,2.340e-01,7.723e-01,1.008e+00,7.597e-01,1.160e+00,1.018e+00,1.570e+00,1.906e+00,2.164e+00,1.346e+00,1.545e+00,1.952e+00,9.178e-01,1.660e+00,1.539e+00,1.037e+00,1.690e+00,1.270e+00,1.835e+00,1.921e+00,1.407e+00,1.934e+00,2.175e+00,1.883e+00,2.023e+00,1.933e+00,1.702e+00,1.584e+00,1.300e+00,2.331e+00,7.061e-01,1.181e+00,1.848e+00,1.560e+00,1.594e+00,1.569e+00,1.426e+00,1.240e+00,1.029e+00,9.651e-01,1.458e+00,8.515e-01,1.155e+00,1.424e+00,7.417e-01,1.640e+00,1.726e+00,1.556e+00
7.452e-01,1.511e-01,8.529e-01,8.384e-01,1.563e+00,1.606e+00,1.916e+00,2.340e+00,2.663e+00,2.788e+00,1.731e+00,1.817e+00,2.310e+00,1.939e+00,2.491e+00,2.227e+00,1.807e+00,2.601e+00,2.025e+00,1.832e+00,2.307e+00,1.908e+00,2.828e+00,2.561e+00,2.098e+00,2.377e+00,2.373e+00,1.799e+00,2.486e+00,1.333e+00,2.547e+00,1.410e+00,1.862e+00,1.972e+00,1.714e+00,2.555e+00,2.290e+00,1.579e+00,2.013e+00,1.438e+00,1.653e+00,1.671e+00,1.239e+00,1.709e+00,1.815e+00,9.239e-01,2.476e+00,2.386e+00,2.681e+00
2.519e-01,4.268e-02,4.293e-01,1.731e-01,4.145e-01,1.317e+00,1.430e+00,1.194e+00,1.634e+00,1.493e+00,1.159e+00,7.347e-01,1.085e+00,9.917e-01,7.197e-01,6.605e-01,6.318e-01,1.471e+00,4.106e-01,1.362e+00,8.686e-01,1.022e+00,8.498e-01,1.147e+00,1.530e+00,6.168e-01,1.519e+00,9.895e-01,1.502e+00,5.924e-01,1.258e+00,1.283e+00,1.039e+00,5.786e-01,7.947e-01,9.029e-01,1.191e+00,6.432e-01,1.155e+00,1.090e+00,1.267e+00,7.147e-01,1.079e+00,6.377e-01,8.933e-01,5.808e-01,1.006e+00,1.072e+00,1.052e+00
4.140e-01,2.016e-01,7.125e-01,8.388e-01,9.446e-01,1.999e+00,2.372e+00,2.076e+00,2.589e+00,3.038e+00,2.302e+00,2.760e+00,2.752e+00,2.396e+00,1.874e+00,1.983e+00,1.635e+00,3.101e+00,1.590e+00,3.374e+00,2.809e+00,2.027e+00,2.554e+00,2.378e+00,3.066e+00,2.216e+00,3.365e+00,2.702e+00,2.868e+00,2.007e+00,2.653e+00,1.920e+00,2.617e+00,1.885e+00,2.231e+00,2.449e+00,2.696e+00,2.608e+00,1.799e+00,2.044e+00,2.910e+00,1.846e+00,1.976e+00,1.528e+00,2.073e+00,1.506e+00,2.377e+00,3.020e+00,2.571e+00
6.808e-01,1.057e-01,7.373e-01,5.278e-01,4.970e-01,8.473e-01,1.145e+00,1.739e+00,2.285e+00,2.880e+00,1.378e+00,1.835e+00,2.711e+00,2.657e+00,2.185e+00,2.350e+00,1.881e+00,1.936e+00,1.332e+00,2.373e+00,2.171e+00,1.633e+00,2.128e+00,2.373e+00,2.818e+00,2.596e+00,3.299e+00,2.875e+00,1.866e+00,2.359e+00,2.288e+00,1.053e+00,2.660e+00,1.945e+00,1.728e+00,2.279e+00,2.609e+00,2.062e+00,1.813e+00,1.904e+00,2.398e+00,2.022e+00,2.072e+00,1.327e+00,1.544e+00,1.444e+00,2.823e+00,2.543e+00,2.111e+00
4.140e-01,1.056e-01,5.218e-01,3.057e-01,1.221e+00,1.211e+00,1.813e+00,1.494e+00,2.815e+00,2.770e+00,1.841e+00,1.461e+00,1.532e+00,2.520e+00,2.269e+00,1.372e+00,2.001e+00,2.382e+00,1.648e+00,1.432e+00,1.738e+00,1.484e+00,2.123e+00,1.879e+00,1.967e+00,1.892e+00,1.653e+00,1.886e+00,2.659e+00,1.548e+00,2.017e+00,2.040e+00,1.801e+00,1.623e+00,1.774e+00,1.847e+00,2.375e+00,1.669e+00,1.797e+00,1.315e+00,1.388e+00,1.652e+00,1.724e+00,2.121e+00,1.168e+00,1.571e+00,2.479e+00,1.856e+00,2.339e+00
1.435e-01,9.987e-02,5.489e-02,3.508e-01,1.003e+00,1.430e+00,1.817e+00,1.749e+00,2.201e+00,3.201e+00,2.358e+00,1.653e+00,2.489e+00,3.011e+00,2.420e+00,2.172e+00,2.356e+00,2.956e+00,2.634e+00,2.613e+00,2.241e+00,2.673e+00,2.437e+00,1.695e+00,2.994e+00,1.916e+00,3.040e+00,2.388e+00,2.502e+00,1.852e+00,2.572e+00,2.920e+00,3.094e+00,2.354e+00,1.452e+00,2.616e+00,2.598e+00,2.410e+00,2.534e+00,1.939e+00,3.494e+00,2.613e+00,2.338e+00,1.794e+00,1.580e+00,1.928e+00,2.514e+00,2.629e+00,1.747e+00
7.801e-01,4.535e-01,8.132e-01,1.132e+00,1.206e+00,1.842e+00,2.571e+00,1.863e+00,3.059e+00,4.062e+00,3.642e+00,3.183e+00,3.285e+00,3.921e+00,2.799e+00,3.058e+00,2.458e+00,4.153e+00,2.976e+00,3.828e+00,3.562e+00,3.026e+00,3.206e+00,3.304e+00,4.002e+00,3.816e+00,3.728e+00,4.528e+00,3.387e+00,3.660e+00,4.037e+00,3.204e+00,3.887e+00,3.171e+00,2.810e+00,3.081e+00,3.835e+00,3.991e+00,2.467e+00,3.034e+00,3.845e+00,2.988e+00,3.351e+00,2.999e+00,2.160e+00,2.992e+00,3.790e+00,4.529e+00,3.138e+00
6.054e-02,6.351e-02,2.217e-01,2.714e-01,7.981e-01,6.961e-01,1.150e+00,1.145e+00,1.340e+00,2.103e+00,1.929e+00,2.231e+00,2.371e+00,3.474e+00,2.641e+00,2.457e+00,2.645e+00,2.863e+00,2.933e+00,2.275e+00,2.329e+00,2.777e+00,1.963e+00,2.110e+00,2.541e+00,2.261e+00,2.650e+00,2.623e+00,2.748e+00,2.847e+00,2.703e+00,2.995e+00,2.670e+00,2.537e+00,2.178e+00,2.090e+00,2.455e+00,3.166e+00,2.422e+00,2.298e+00,3.542e+00,1.946e+00,2.315e+00,2.454e+00,1.974e+00,2.024e+00,2.497e+00,3.036e+00,2.595e+00
7.537e-01,3.469e-01,2.445e-01,6.608e-01,8.445e-01,1.680e+00,2.181e+00,1.673e+00,2.870e+00,3.412e+00,2.277e+00,1.964e+00,3.110e+00,3.429e+00,2.853e+00,3.513e+00,3.427e+00,3.513e+00,2.451e+00,3.297e+00,3.265e+00,2.534e+00,2.524e+00,3.409e+00,4.447e+00,2.900e+00,4.148e+00,3.650e+00,3.074e+00,3.880e+00,3.838e+00,3.920e+00,3.646e+00,2.682e+00,3.003e+00,2.896e+00,3.192e+00,2.493e+00,3.134e+00,2.879e+00,3.925e+00,3.026e+00,3.409e+00,2.906e+00,1.946e+00,1.525e+00,3.471e+00,4.114e+00,3.289e+00
6.864e-01,3.628e-01,7.823e-01,8.430e-01,8.635e-01,1.905e+00,2.523e+00,1.842e+00,3.459e+00,4.329e+00,3.354e+00,3.206e+00,3.730e+00,5.012e+00,3.889e+00,3.280e+00,4.347e+00,5.429e+00,3.898e+00,5.039e+00,3.956e+00,4.001e+00,3.179e+00,4.149e+00,5.648e+00,4.248e+00,5.094e+00,5.438e+00,4.573e+00,5.264e+00,4.909e+00,5.354e+00,5.169e+00,4.840e+00,4.461e+00,3.489e+00,5.018e+00,4.669e+00,4.287e+00,4.358e+00,4.845e+00,3.735e+00,4.821e+00,4.499e+00,2.824e+00,3.507e+00,4.771e+00,4.960e+00,4.703e+00
3.685e-01,2.940e-01,3.363e-01,1.010e+00,1.447e+00,2.162e+00,2.739e+00,2.485e+00,3.743e+00,4.649e+00,3.816e+00,4.237e+00,4.419e+00,5.187e+00,5.064e+00,4.809e+00,5.156e+00,5.877e+00,5.185e+00,4.793e+00,5.422e+00,5.105e+00,4.655e+00,4.410e+00,5.681e+00,5.437e+00,5.274e+00,5.511e+00,5.898e+00,5.261e+00,5.253e+00,4.834e+00,5.192e+00,4.808e+00,5.311e+00,4.373e+00,4.596e+00,6.233e+00,3.827e+00,4.293e+00,6.587e+00,4.334e+00,4.552e+00,3.847e+00,3.666e+00,3.824e+00,4.881e+00,5.740e+00,4.880e+00
1.155e-01,2.391e-01,4.620e-01,5.285e-01,6.644e-01,1.111e+00,1.539e+00,1.281e+00,2.720e+00,3.416e+00,2.640e+00,2.287e+00,3.035e+00,3.628e+00,2.813e+00,3.277e+00,3.939e+00,3.901e+00,3.061e+00,3.246e+00,3.134e+00,3.610e+00,3.157e+00,3.552e+00,4.901e+00,3.466e+00,4.045e+00,4.994e+00,3.407e+00,4.698e+00,3.664e+00,4.085e+00,4.182e+00,3.286e+00,4.320e+00,2.899e+00,3.782e+00,4.356e+00,2.861e+00,4.013e+00,4.430e+00,3.850e+00,4.450e+00,4.042e+00,2.383e+00,3.185e+00,3.516e+00,4.614e+00,3.648e+00
4.136e-01,3.116e-01,5.501e-01,7.112e-01,7.551e-01,1.484e+00,1.818e+00,1.334e+00,2.018e+00,2.755e+00,2.136e+00,1.474e+00,2.337e+00,2.395e+00,2.237e+00,2.687e+00,3.808e+00,4.579e+00,3.644e+00,3.715e+00,3.256e+00,4.470e+00,3.363e+00,3.987e+00,5.104e+00,3.672e+00,4.124e+00,4.471e+00,3.963e+00,3.649e+00,3.969e+00,4.392e+00,4.448e+00,4.136e+00,3.912e+00,3.879e+00,4.554e+00,3.521e+00,3.600e+00,4.475e+00,3.946e+00,3.538e+00,4.228e+00,3.667e+00,2.110e+00,2.973e+00,3.549e+00,3.957e+00,3.659e+00
5.619e-01,4.431e-01,2.218e-01,8.556e-01,9.720e-01,1.200e+00,1.817e+00,1.288e+00,2.145e+00,3.005e+00,2.247e+00,2.258e+00,2.443e+00,3.889e+00,3.454e+00,3.195e+00,4.254e+00,4.728e+00,4.840e+00,3.626e+00,4.124e+00,3.723e+00,2.921e+00,3.779e+00,4.434e+00,5.172e+00,3.768e+00,4.907e+00,3.421e+00,5.335e+00,4.278e+00,4.063e+00,5.004e+00,4.347e+00,4.016e+00,2.656e+00,4.067e+00,4.897e+00,3.910e+00,3.445e+00,4.282e+00,4.055e+00,3.978e+00,3.116e+00,3.072e+00,2.985e+00,4.337e+00,4.121e+00,4.006e+00
6.520e-01,9.459e-02,3.406e-01,4.353e-01,6.159e-01,1.032e+00,1.424e+00,1.373e+00,2.020e+00,2.706e+00,2.430e+00,2.067e+00,2.857e+00,3.241e+00,2.912e+00,3.747e+00,4.168e+00,5.130e+00,4.524e+00,4.282e+00,4.383e+00,5.284e+00,5.148e+00,5.027e+00,6.104e+00,4.699e+00,5.179e+00,5.498e+00,5.500e+00,5.318e+00,4.580e+00,4.395e+00,5.293e+00,4.758e+00,4.522e+00,4.733e+00,4.993e+00,5.516e+00,4.172e+00,5.507e+00,5.392e+00,4.625e+00,5.740e+00,5.439e+00,3.312e+00,4.199e+00,4.793e+00,5.784e+00,5.294e+00
1.013e-01,6.759e-02,7.871e-01,7.140e-01,6.569e-01,1.025e+00,1.018e+00,1.754e+00,2.025e+00,2.580e+00,1.824e+00,2.636e+00,3.296e+00,2.689e+00,3.124e+00,3.242e+00,3.435e+00,4.248e+00,4.535e+00,4.116e+00,4.781e+00,4.854e+00,4.638e+00,4.463e+00,5.955e+00,5.310e+00,4.692e+00,5.538e+00,5.508e+00,5.455e+00,5.185e+00,3.966e+00,4.510e+00,5.047e+00,5.940e+00,4.353e+00,3.826e+00,6.379e+00,4.803e+00,5.068e+00,5.238e+00,3.969e+00,4.490e+00,4.381e+00,4.684e+00,3.674e+00,5.102e+00,5.000e+00,4.653e+00
7.460e-02,1.517e-01,7.523e-01,5.076e-01,9.837e-01,1.543e+00,1.884e+00,1.724e+00,3.052e+00,3.249e+00,2.685e+00,2.339e+00,2.958e+00,3.627e+00,3.507e+00,3.199e+00,4.747e+00,5.638e+00,4.793e+00,4.245e+00,5.186e+00,5.736e+00,4.684e+00,5.047e+00,7.218e+00,5.627e+00,4.970e+00,7.422e+00,6.667e+00,6.706e+00,5.432e+00,6.663e+00,5.481e+00,5.780e+00,7.712e+00,4.453e+00,5.631e+00,7.011e+00,6.068e+00,6.470e+00,5.662e+00,4.504e+00,5.907e+00,5.876e+00,4.506e+00,4.860e+00,5.790e+00,5.787e+00,6.481e+00
3.940e-01,2.657e-01,7.244e-01,9.052e-01,1.144e+00,1.699e+00,2.011e+00,1.832e+00,2.475e+00,2.986e+00,2.458e+00,2.786e+00,3.336e+00,3.321e+00,3.589e+00,3.853e+00,4.681e+00,5.610e+00,5.483e+00,4.694e+00,5.656e+00,6.101e+00,5.378e+00,6.722e+00,7.201e+00,5.404e+00,6.027e+00,6.123e+00,7.700e+00,6.343e+00,6.822e+00,6.537e+00,5.384e+00,6.824e+00,7.128e+00,5.503e+00,6.310e+00,6.849e+00,5.952e+00,6.566e+00,6.630e+00,5.280e+00,5.647e+00,6.323e+00,5.617e+00,4.540e+00,6.403e+00,6.902e+00,6.602e+00
1.894e-01,4.375e-01,8.852e-01,1.049e+00,9.485e-01,1.219e+00,1.829e+00,1.425e+00,2.260e+00,3.602e+00,2.929e+00,2.985e+00,3.480e+00,3.982e+00,3.009e+00,3.295e+00,3.575e+00,4.922e+00,5.286e+00,4.532e+00,5.006e+00,4.971e+00,4.673e+00,5.809e+00,6.824e+00,5.757e+00,5.718e+00,6.619e+00,5.890e+00,6.689e+00,6.354e+00,5.901e+00,6.271e+00,6.316e+00,5.965e+00,5.264e+00,5.591e+00,7.456e+00,5.748e+00,5.539e+00,7.114e+00,5.394e+00,6.322e+00,5.811e+00,5.497e+00,5.826e+00,6.960e+00,6.906e+00,5.020e+00
2.707e-02,4.002e-01,9.211e-01,1.283e+00,1.193e+00,1.140e+00,1.243e+00,1.677e+00,2.189e+00,3.384e+00,2.242e+00,2.521e+00,3.051e+00,2.865e+00,3.246e+00,2.898e+00,4.222e+00,4.511e+00,5.335e+00,3.952e+00,4.978e+00,5.559e+00,4.608e+00,6.067e+00,6.830e+00,5.514e+00,5.013e+00,6.618e+00,6.473e+00,6.936e+00,6.670e+00,6.094e+00,6.116e+00,7.211e+00,6.986e+00,4.611e+00,6.230e+00,7.371e+00,6.008e+00,5.577e+00,5.790e+00,5.846e+00,5.717e+00,6.495e+00,6.267e+00,5.617e+00,6.573e+00,5.856e+00,6.002e+00
6.602e-01,4.921e-01,6.809e-01,1.406e+00,1.142e+00,1.932e+00,2.346e+00,2.119e+00,3.456e+00,4.700e+00,3.400e+00,3.454e+00,4.036e+00,4.178e+00,3.855e+00,3.847e+00,5.007e+00,6.288e+00,5.468e+00,6.044e+00,6.642e+00,5.890e+00,5.947e+00,6.792e+00,9.017e+00,6.527e+00,7.241e+00,8.776e+00,8.008e+00,8.628e+00,8.295e+00,7.775e+00,8.002e+00,8.346e+00,7.855e+00,6.525e+00,8.294e+00,8.763e+00,7.328e+00,7.132e+00,7.553e+00,6.520e+00,7.571e+00,7.290e+00,5.944e+00,6.253e+00,8.056e+00,8.089e+00,7.426e+00
3.633e-01,3.041e-01,9.354e-01,1.116e+00,1.257e+00,1.922e+00,2.102e+00,2.224e+00,3.249e+00,3.998e+00,3.297e+00,3.141e+00,3.853e+00,3.611e+00,3.932e+00,4.178e+00,5.081e+00,6.187e+00,6.215e+00,5.475e+00,6.621e+00,7.373e+00,6.666e+00,7.894e+00,9.129e+00,7.559e+00,7.187e+00,8.366e+00,1.034e+01,8.152e+00,8.988e+00,8.095e+00,7.064e+00,8.696e+00,8.798e+00,7.522e+00,8.274e+00,9.386e+00,8.297e+00,8.783e+00,8.302e+00,7.065e+00,7.373e+00,8.973e+00,7.831e+00,6.472e+00,8.814e+00,9.043e+00,8.235e+00
1.222e-01,3.004e-01,1.072e+00,8.997e-01,1.225e+00,1.528e+00,1.877e+00,1.889e+00,3.064e+00,4.035e+00,2.945e+00,2.668e+00,3.701e+00,3.886e+00,3.447e+00,3.286e+00,4.457e+00,4.843e+00,4.607e+00,4.185e+00,4.405e+00,5.576e+00,4.615e+00,6.207e+00,7.385e+00,4.575e+00,6.415e+00,6.986e+00,7.966e+00,6.669e+00,7.375e+00,8.294e+00,6.622e+00,7.814e+00,7.052e+00,6.818e+00,6.954e+00,6.930e+00,7.259e+00,7.110e+00,7.020e+00,5.545e+00,6.917e+00,7.302e+00,5.704e+00,6.207e+00,7.484e+00,8.079e+00,5.967e+00
4.783e-01,3.621e-01,8.572e-01,1.200e+00,1.180e+00,2.152e+00,2.387e+00,2.477e+00,3.905e+00,5.120e+00,3.862e+00,3.244e+00,4.483e+00,4.157e+00,4.015e+00,4.232e+00,4.928e+00,5.836e+00,4.876e+00,5.638e+00,5.448e+00,6.200e+00,5.836e+00,6.440e+00,8.628e+00,5.773e+00,7.240e+00,8.692e+00,8.577e+00,7.525e+00,8.013e+00,8.309e+00,7.602e+00,7.965e+00,7.657e+00,7.543e+00,7.943e+00,7.876e+00,7.347e+00,8.242e+00,7.999e+00,7.394e+00,7.711e+00,7.271e+00,6.698e+00,6.925e+00,7.585e+00,9.070e+00,6.099e+00
3.639e-02,2.659e-01,5.883e-01,7.439e-01,1.019e+00,1.309e+00,1.885e+00,1.425e+00,1.899e+00,3.131e+00,3.097e+00,2.919e+00,3.494e+00,3.845e+00,2.978e+00,3.712e+00,3.859e+00,5.165e+00,5.341e+00,4.588e+00,5.344e+00,6.147e+00,5.329e+00,6.137e+00,8.167e+00,5.810e+00,6.819e+00,8.988e+00,9.788e+00,8.645e+00,8.099e+00,9.296e+00,8.596e+00,9.806e+00,8.176e+00,9.172e+00,8.214e+00,9.304e+00,9.110e+00,1.043e+01,1.065e+01,7.593e+00,8.607e+00,8.110e+00,7.724e+00,8.241e+00,9.625e+00,1.114e+01,7.672e+00
4.452e-01,1.446e-01,3.149e-01,3.200e-01,7.228e-01,8.326e-01,1.322e+00,1.046e+00,2.038e+00,2.594e+00,2.347e+00,1.642e+00,1.996e+00,3.353e+00,3.080e+00,2.799e+00,3.744e+00,4.312e+00,4.084e+00,3.183e+00,3.750e+00,4.664e+00,3.971e+00,4.521e+00,5.981e+00,5.727e+00,5.055e+00,7.299e+00,8.106e+00,7.130e+00,6.379e+00,7.509e+00,7.605e+00,7.698e+00,7.412e+00,6.587e+00,7.279e+00,7.837e+00,7.213e+00,8.267e+00,6.985e+00,6.316e+00,6.824e+00,7.302e+00,6.566e+00,6.433e+00,8.457e+00,8.329e+00,7.018e+00
4.034e-01,1.855e-01,9.373e-01,6.680e-01,6.707e-01,8.338e-01,1.264e+00,1.665e+00,2.957e+00,4.260e+00,2.783e+00,2.814e+00,3.986e+00,4.614e+00,3.681e+00,3.575e+00,4.349e+00,4.447e+00,4.179e+00,4.474e+00,4.593e+00,5.109e+00,4.545e+00,5.343e+00,6.864e+00,5.460e+00,6.012e+00,7.999e+00,7.043e+00,7.530e+00,6.950e+00,6.842e+00,8.031e+00,7.910e+00,7.217e+00,7.231e+00,7.562e+00,7.792e+00,7.855e+00,8.581e+00,7.606e+00,6.992e+00,7.150e+00,7.354e+00,5.543e+00,7.171e+00,8.316e+00,8.611e+00,7.695e+00
2.889e-01,3.393e-01,7.002e-01,8.148e-01,1.169e+00,1.136e+00,1.900e+00,1.226e+00,2.150e+00,2.789e+00,1.894e+00,2.743e+00,2.437e+00,3.346e+00,2.793e+00,2.604e+00,4.007e+00,4.422e+00,4.285e+00,3.846e+00,5.106e+00,4.528e+00,4.309e+00,6.029e+00,6.183e+00,4.711e+00,5.283e+00,6.243e+00,7.994e+00,7.516e+00,7.009e+00,7.595e+00,7.720e+00,8.453e+00,9.081e+00,6.645e+00,7.675e+00,7.641e+00,7.592e+00,7.673e+00,6.896e+00,6.107e+00,6.207e+00,7.427e+00,6.788e+00,6.257e+00,8.712e+00,7.435e+00,8.722e+00
7.525e-02,3.571e-01,5.553e-01,1.178e+00,1.574e+00,1.641e+00,2.235e+00,2.006e+00,2.768e+00,4.072e+00,3.078e+00,3.687e+00,4.069e+00,4.312e+00,3.942e+00,3.710e+00,4.760e+00,5.793e+00,5.735e+00,5.421e+00,6.000e+00,5.596e+00,5.760e+00,5.841e+00,7.994e+00,6.545e+00,6.784e+00,8.152e+00,8.805e+00,8.530e+00,8.149e+00,9.511e+00,9.516e+00,1.033e+01,1.029e+01,9.850e+00,8.542e+00,9.900e+00,1.012e+01,1.024e+01,1.034e+01,8.351e+00,7.916e+00,9.735e+00,8.352e+00,7.695e+00,1.015e+01,1.063e+01,8.632e+00
3.171e-01,3.786e-01,7.860e-01,8.331e-01,1.158e+00,1.912e+00,2.511e+00,1.750e+00,3.063e+00,3.767e+00,3.122e+00,2.454e+00,2.966e+00,3.836e+00,3.318e+00,2.931e+00,4.200e+00,5.360e+00,4.497e+00,4.234e+00,4.687e+00,5.359e+00,3.960e+00,5.138e+00,7.428e+00,5.474e+00,5.655e+00,8.108e+00,8.223e+00,7.722e+00,7.746e+00,8.959e+00,8.943e+00,9.484e+00,8.911e+00,8.190e+00,8.291e+00,9.379e+00,9.027e+00,9.710e+00,9.098e+00,6.566e+00,7.923e+00,7.921e+00,6.529e+00,8.133e+00,9.383e+00,9.476e+00,7.317e+00
7.753e-01,3.191e-01,2.671e-01,8.822e-01,1.270e+00,2.184e+00,2.619e+00,2.237e+00,3.052e+00,3.556e+00,3.059e+00,2.789e+00,3.255e+00,4.086e+00,4.230e+00,4.114e+00,4.748e+00,5.750e+00,5.088e+00,4.452e+00,5.368e+00,5.368e+00,4.376e+00,5.512e+00,7.078e+00,6.204e+00,6.006e+00,7.564e+00,8.725e+00,8.155e+00,7.220e+00,8.388e+00,8.838e+00,9.609e+00,9.557e+00,8.684e+00,8.509e+00,1.004e+01,1.027e+01,1.017e+01,1.030e+01,7.993e+00,8.596e+00,8.414e+00,7.946e+00,7.660e+00,9.597e+00,9.864e+00,8.535e+00
1.532e-01,1.264e-02,2.900e-01,2.846e-01,5.066e-01,6.596e-01,7.109e-01,1.286e+00,1.746e+00,2.625e+00,1.876e+00,1.646e+00,3.093e+00,3.249e+00,3.373e+00,3.314e+00,3.824e+00,4.386e+00,5.099e+00,3.976e+00,4.946e+00,5.352e+00,5.023e+00,5.375e+00,7.492e+00,5.581e+00,6.465e+00,7.584e+00,8.625e+00,8.501e+00,7.851e+00,8.682e+00,8.854e+00,9.774e+00,9.595e+00,9.302e+00,7.327e+00,1.103e+01,1.137e+01,1.069e+01,1.032e+01,8.594e+00,9.485e+00,9.988e+00,8.534e+00,9.322e+00,1.046e+01,1.008e+01,9.026e+00
1.091e-01,1.489e-01,1.000e+00,4.897e-01,1.083e+00,1.462e+00,1.888e+00,1.868e+00,2.405e+00,2.899e+00,2.102e+00,1.671e+00,2.845e+00,2.753e+00,2.210e+00,2.766e+00,3.033e+00,4.182e+00,4.105e+00,3.592e+00,4.568e+00,4.932e+00,4.664e+00,5.520e+00,7.380e+00,4.889e+00,5.593e+00,7.694e+00,7.532e+00,7.520e+00,7.186e+00,8.247e+00,9.026e+00,8.286e+00,1.013e+01,8.843e+00,8.442e+00,1.049e+01,1.135e+01,1.124e+01,9.332e+00,8.179e+00,9.574e+00,9.501e+00,8.450e+00,8.521e+00,1.015e+01,1.080e+01,8.751e+00
4.971e-01,3.160e-01,9.410e-01,7.701e-01,1.073e+00,1.207e+00,1.689e+00,1.671e+00,2.670e+00,3.371e+00,1.965e+00,1.772e+00,2.888e+00,3.377e+00,3.108e+00,3.239e+00,4.947e+00,5.210e+00,4.852e+00,4.097e+00,4.728e+00,5.385e+00,4.850e+00,6.569e+00,7.231e+00,5.468e+00,6.108e+00,7.341e+00,6.816e+00,7.238e+00,6.438e+00,7.367e+00,7.460e+00,8.619e+00,8.718e+00,7.866e+00,8.501e+00,8.735e+00,9.880e+00,9.970e+00,8.959e+00,8.841e+00,8.687e+00,9.891e+00,7.234e+00,8.248e+00,9.130e+00,8.969e+00,9.407e+00
5.835e-01,1.398e-01,7.440e-01,4.473e-01,9.860e-01,1.229e+00,1.993e+00,1.975e+00,2.905e+00,4.083e+00,3.158e+00,2.816e+00,4.108e+00,5.076e+00,3.607e+00,4.149e+00,4.230e+00,5.073e+00,4.540e+00,4.680e+00,4.595e+00,5.308e+00,5.238e+00,5.896e+00,7.645e+00,5.784e+00,7.240e+00,7.438e+00,7.995e+00,7.400e+00,7.823e+00,8.478e+00,9.229e+00,8.900e+00,8.716e+00,1.047e+01,9.260e+00,1.053e+01,1.134e+01,1.151e+01,1.097e+01,8.104e+00,1.000e+01,1.059e+01,7.621e+00,8.989e+00,1.090e+01,1.236e+01,8.563e+00
3.251e-01,4.487e-01,9.664e-01,1.214e+00,1.104e+00,1.448e+00,1.726e+00,1.683e+00,2.965e+00,4.154e+00,2.988e+00,2.662e+00,3.798e+00,3.815e+00,3.746e+00,3.367e+00,4.477e+00,5.535e+00,5.777e+00,5.223e+00,5.511e+00,5.762e+00,5.217e+00,6.091e+00,8.124e+00,6.613e+00,6.486e+00,8.806e+00,8.293e+00,8.836e+00,9.284e+00,9.691e+00,9.435e+00,1.097e+01,1.070e+01,9.689e+00,9.612e+00,1.053e+01,1.176e+01,1.296e+01,1.041e+01,1.070e+01,9.937e+00,1.120e+01,8.895e+00,9.613e+00,1.080e+01,1.120e+01,9.736e+00
2.282e-01,4.329e-01,4.325e-01,9.615e-01,1.287e+00,2.043e+00,2.888e+00,1.957e+00,3.186e+00,4.712e+00,3.506e+00,3.339e+00,3.660e+00,4.576e+00,3.368e+00,3.394e+00,4.628e+00,5.505e+00,5.257e+00,5.408e+00,5.497e+00,5.706e+00,4.897e+00,5.631e+00,7.038e+00,5.110e+00,5.900e+00,6.110e+00,7.258e+00,6.521e+00,7.496e+00,7.066e+00,8.415e+00,7.851e+00,8.076e+00,7.548e+00,8.511e+00,9.714e+00,9.112e+00,9.773e+00,1.014e+01,1.022e+01,9.172e+00,9.687e+00,7.716e+00,8.994e+00,9.632e+00,9.371e+00,8.854e+00
5.548e-02,4.384e-01,1.037e+00,1.146e+00,1.242e+00,1.703e+00,2.402e+00,1.877e+00,3.401e+00,4.407e+00,3.247e+00,3.693e+00,3.827e+00,4.496e+00,3.760e+00,3.280e+00,4.408e+00,5.590e+00,5.623e+00,5.119e+00,6.150e+00,5.695e+00,5.363e+00,6.582e+00,7.993e+00,7.109e+00,6.858e+00,8.630e+00,9.023e+00,8.738e+00,8.202e+00,8.428e+00,8.692e+00,9.751e+00,1.091e+01,8.419e+00,9.233e+00,1.164e+01,1.070e+01,1.141e+01,1.100e+01,1.119e+01,1.070e+01,1.079e+01,9.442e+00,1.058e+01,1.242e+01,1.170e+01,1.064e+01
7.634e-01,3.769e-01,5.694e-01,1.090e+00,1.485e+00,2.282e+00,2.848e+00,2.459e+00,3.693e+00,4.629e+00,3.631e+00,3.496e+00,4.213e+00,4.992e+00,5.106e+00,5.221e+00,6.670e+00,7.703e+00,7.324e+00,6.541e+00,7.769e+00,8.026e+00,7.179e+00,8.421e+00,1.027e+01,8.414e+00,8.329e+00,1.036e+01,1.178e+01,1.049e+01,1.004e+01,1.019e+01,1.050e+01,1.164e+01,1.124e+01,1.043e+01,1.131e+01,1.290e+01,1.297e+01,1.385e+01,1.296e+01,1.242e+01,1.283e+01,1.429e+01,1.177e+01,1.138e+01,1.385e+01,1.494e+01,1.506e+01
7.384e-01,1.690e-01,8.633e-01,5.029e-01,6.887e-01,1.490e+00,1.927e+00,1.714e+00,2.621e+00,3.363e+00,2.677e+00,2.176e+00,3.574e+00,4.006e+00,3.229e+00,3.878e+00,4.720e+00,6.240e+00,5.416e+00,5.678e+00,5.428e+00,6.170e+00,5.884e+00,7.032e+00,8.991e+00,5.911e+00,7.506e+00,7.983e+00,8.673e+00,8.936e+00,8.806e+00,9.284e+00,1.025e+01,9.185e+00,9.236e+00,9.558e+00,8.479e+00,1.082e+01,1.168e+01,1.180e+01,1.055e+01,9.516e+00,1.191e+01,1.382e+01,8.717e+00,1.108e+01,1.167e+01,1.249e+01,1.175e+01
6.094e-01,2.060e-01,8.254e-01,7.948e-01,1.284e+00,1.573e+00,1.987e+00,2.336e+00,3.418e+00,4.262e+00,2.687e+00,2.488e+00,3.608e+00,4.254e+00,4.538e+00,4.113e+00,5.700e+00,6.234e+00,6.235e+00,5.063e+00,5.515e+00,6.477e+00,6.385e+00,7.377e+00,8.753e+00,7.169e+00,7.553e+00,8.433e+00,9.584e+00,8.885e+00,8.589e+00,8.790e+00,1.041e+01,1.081e+01,1.015e+01,9.607e+00,9.851e+00,1.105e+01,1.081e+01,1.211e+01,1.143e+01,1.172e+01,1.127e+01,1.370e+01,1.062e+01,1.113e+01,1.323e+01,1.326e+01,1.270e+01
5.798e-01,2.720e-01,9.179e-01,1.042e+00,1.486e+00,1.920e+00,2.520e+00,2.415e+00,3.513e+00,4.083e+00,3.234e+00,3.961e+00,3.834e+00,4.913e+00,4.553e+00,3.688e+00,5.090e+00,6.376e+00,5.721e+00,5.564e+00,6.442e+00,6.122e+00,5.707e+00,6.814e+00,8.227e+00,7.350e+00,6.945e+00,9.121e+00,1.026e+01,9.169e+00,8.600e+00,9.325e+00,8.914e+00,1.052e+01,1.069e+01,9.517e+00,1.052e+01,1.139e+01,1.180e+01,1.282e+01,1.131e+01,1.046e+01,1.036e+01,1.261e+01,1.072e+01,1.019e+01,1.313e+01,1.432e+01,1.303e+01
5.052e-01,4.898e-02,4.682e-01,2.542e-01,6.640e-01,1.108e+00,1.564e+00,1.385e+00,2.406e+00,3.023e+00,2.672e+00,1.945e+00,2.526e+00,3.334e+00,2.757e+00,2.766e+00,2.967e+00,4.119e+00,3.428e+00,3.578e+00,3.695e+00,4.292e+00,4.568e+00,4.800e+00,6.417e+00,4.293e+00,5.259e+00,6.309e+00,7.669e+00,6.366e+00,7.109e+00,7.270e+00,8.498e+00,7.968e+00,8.463e+00,8.407e+00,8.095e+00,1.029e+01,9.414e+00,1.054e+01,1.033e+01,9.613e+00,1.050e+01,1.193e+01,8.577e+00,1.069e+01,1.156e+01,1.243e+01,1.068e+01
1.432e-01,2.482e-01,5.087e-01,7.690e-01,1.183e+00,1.743e+00,2.208e+00,1.753e+00,2.538e+00,3.213e+00,3.120e+00,2.965e+00,3.379e+00,3.881e+00,3.383e+00,3.497e+00,4.001e+00,5.299e+00,4.649e+00,4.092e+00,4.209e+00,4.843e+00,4.203e+00,4.645e+00,6.090e+00,5.069e+00,5.670e+00,6.683e+00,7.419e+00,7.680e+00,7.017e+00,8.050e+00,7.794e+00,9.030e+00,8.559e+00,8.103e+00,7.672e+00,8.854e+00,9.201e+00,1.171e+01,1.132e+01,1.028e+01,9.816e+00,1.193e+01,9.310e+00,9.768e+00,1.122e+01,1.375e+01,1.251e+01
8.025e-01,1.897e-01,8.549e-01,5.953e-01,1.239e+00,1.766e+00,2.512e+00,2.222e+00,3.844e+00,4.315e+00,3.311e+00,2.811e+00,3.766e+00,4.701e+00,3.904e+00,3.786e+00,4.207e+00,5.506e+00,4.234e+00,4.623e+00,5.331e+00,5.086e+00,5.427e+00,5.911e+00,7.914e+00,6.071e+00,6.757e+00,8.168e+00,8.741e+00,8.027e+00,7.768e+00,8.272e+00,8.020e+00,8.980e+00,9.561e+00,9.064e+00,9.599e+00,1.054e+01,1.088e+01,1.202e+01,1.095e+01,9.844e+00,1.078e+01,1.217e+01,8.471e+00,9.907e+00,1.248e+01,1.266e+01,1.276e+01
