3.363e-02,3.115e-01,3.566e-01,7.203e-01,2.817e-01,4.650e-01,4.595e-02,8.998e-01,4.291e-01,6.637e-01,6.493e-02,7.674e-01,1.944e-01,5.728e-01,8.267e-02,7.317e-02,6.315e-01,7.221e-01,6.926e-01,5.616e-01,8.398e-01,2.332e-01,6.613e-01,1.228e-01,1.330e-01,4.130e-01,5.915e-01,9.637e-01,6.056e-02,3.274e-01,9.897e-01,1.969e-01,1.320e-01,3.035e-02,7.908e-01,8.886e-01,9.352e-01,4.902e-01,9.908e-01,4.124e-02,1.649e-02,3.539e-01,6.378e-01,1.969e-01,5.810e-02,8.001e-01,3.692e-01,6.700e-01,7.565e-01,5.760e-01,3.199e-01,6.135e-01,7.135e-01,4.409e-01,7.324e-01,9.570e-01,2.988e-01,6.416e-01,4.731e-01,7.548e-01,4.775e-01,6.383e-01,5.720e-01,6.103e-01,2.402e-01,6.164e-01,1.236e-01,3.474e-02
2.085e-02,3.435e-01,6.330e-01,8.534e-01,4.384e-01,3.946e-01,4.125e-01,1.144e+00,4.050e-01,4.742e-01,6.893e-01,1.344e+00,5.457e-01,1.163e+00,8.555e-02,7.149e-01,4.671e-01,1.264e+00,5.560e-01,4.870e-01,1.443e+00,6.183e-01,8.582e-01,9.142e-01,2.277e-01,9.510e-01,1.131e+00,9.877e-01,9.356e-01,6.880e-01,1.429e+00,8.335e-01,5.195e-01,4.975e-01,1.399e+00,1.258e+00,9.603e-01,1.000e+00,8.217e-01,4.838e-01,7.246e-01,4.312e-01,1.197e+00,2.454e-01,3.289e-01,9.625e-01,5.267e-01,1.385e+00,9.391e-01,4.731e-01,3.046e-01,6.279e-01,6.965e-01,8.918e-01,1.031e+00,1.301e+00,1.177e+00,1.253e+00,4.830e-01,1.438e+00,1.059e+00,1.111e+00,1.267e+00,1.060e+00,8.472e-01,1.364e+00,9.220e-01,5.414e-01
9.538e-03,1.550e-01,4.724e-01,5.006e-01,1.127e+00,4.518e-01,2.566e-01,9.229e-01,7.674e-01,1.060e+00,3.776e-01,1.587e+00,1.110e+00,1.045e+00,8.787e-01,6.843e-01,8.371e-01,1.082e+00,2.558e-01,1.021e+00,8.428e-01,7.528e-01,4.399e-01,1.074e+00,4.365e-01,7.419e-01,9.915e-01,6.515e-01,1.380e+00,1.074e+00,1.595e+00,6.822e-01,8.027e-01,8.526e-01,8.808e-01,8.749e-01,1.081e+00,9.905e-01,1.327e+00,4.894e-01,7.189e-01,3.775e-01,9.471e-01,8.425e-01,5.801e-01,5.169e-01,9.181e-01,1.213e+00,1.335e+00,4.151e-01,9.053e-01,4.194e-01,7.288e-01,6.459e-01,1.072e+00,1.454e+00,1.066e+00,1.466e+00,2.333e-01,7.667e-01,1.182e+00,6.745e-01,1.255e+00,1.191e+00,9.818e-01,7.682e-01,1.240e+00,6.610e-01
1.560e-02,1.783e-01,3.606e-01,1.303e+00,1.690e+00,1.252e+00,2.711e-01,1.488e+00,1.322e+00,1.395e+00,5.057e-01,1.785e+00,1.364e+00,1.284e+00,7.751e-01,1.307e+00,7.926e-01,1.038e+00,1.140e+00,8.931e-01,1.343e+00,8.167e-01,8.840e-01,8.822e-01,9.064e-01,1.258e+00,8.873e-01,1.211e+00,1.747e+00,8.231e-01,1.604e+00,1.360e+00,1.042e+00,5.022e-01,1.672e+00,8.831e-01,1.487e+00,1.578e+00,1.935e+00,5.533e-01,7.236e-01,3.121e-01,1.337e+00,9.672e-01,1.113e+00,1.364e+00,9.172e-01,1.818e+00,1.379e+00,9.427e-01,8.252e-01,1.118e+00,1.269e+00,5.850e-01,1.768e+00,1.257e+00,9.519e-01,1.436e+00,9.053e-01,6.994e-01,1.360e+00,1.463e+00,1.006e+00,9.397e-01,1.025e+00,7.732e-01,1.484e+00,1.333e+00
1.435e-03,1.144e-01,3.528e-01,8.938e-01,2.004e+00,1.547e+00,7.734e-01,1.937e+00,8.485e-01,1.073e+00,7.354e-01,1.979e+00,1.859e+00,1.370e+00,9.410e-01,1.958e+00,9.838e-01,1.665e+00,9.147e-01,6.772e-01,1.324e+00,1.103e+00,1.022e+00,1.664e+00,1.423e+00,1.261e+00,8.909e-01,1.703e+00,2.412e+00,1.081e+00,1.846e+00,1.496e+00,1.845e+00,1.421e+00,2.014e+00,1.117e+00,1.872e+00,2.109e+00,1.164e+00,1.382e+00,9.769e-01,6.401e-01,1.181e+00,1.312e+00,1.178e+00,1.492e+00,1.523e+00,1.606e+00,1.397e+00,9.748e-01,1.083e+00,8.324e-01,1.741e+00,6.497e-01,1.284e+00,1.113e+00,2.047e+00,1.265e+00,8.451e-01,9.481e-01,1.995e+00,1.419e+00,1.865e+00,1.557e+00,1.081e+00,8.709e-01,2.212e+00,1.559e+00
6.180e-03,7.744e-02,1.979e-01,6.286e-01,1.702e+00,2.002e+00,8.475e-01,2.031e+00,1.321e+00,1.490e+00,1.273e+00,2.372e+00,1.959e+00,1.024e+00,9.354e-01,1.483e+00,1.193e+00,2.171e+00,1.451e+00,7.185e-01,1.132e+00,1.653e+00,1.114e+00,1.547e+00,1.418e+00,1.072e+00,8.272e-01,2.248e+00,2.456e+00,9.713e-01,1.485e+00,1.856e+00,1.840e+00,2.030e+00,1.558e+00,8.775e-01,2.189e+00,2.072e+00,1.172e+00,1.557e+00,9.784e-01,8.273e-01,8.216e-01,1.935e+00,1.345e+00,1.933e+00,1.676e+00,1.424e+00,1.466e+00,1.729e+00,1.506e+00,1.614e+00,2.060e+00,8.653e-01,1.519e+00,1.339e+00,1.796e+00,1.026e+00,9.333e-01,6.090e-01,1.874e+00,1.865e+00,1.546e+00,1.381e+00,1.661e+00,1.085e+00,2.604e+00,1.364e+00
2.602e-02,2.515e-01,4.768e-01,1.396e+00,2.043e+00,1.489e+00,7.745e-01,2.684e+00,1.900e+00,2.598e+00,6.992e-01,2.943e+00,2.338e+00,2.092e+00,1.409e+00,1.971e+00,2.213e+00,1.910e+00,2.161e+00,1.659e+00,1.516e+00,1.652e+00,1.666e+00,1.549e+00,1.773e+00,2.263e+00,2.109e+00,2.069e+00,2.365e+00,1.647e+00,2.986e+00,1.871e+00,1.808e+00,1.131e+00,2.189e+00,1.687e+00,2.893e+00,2.375e+00,2.738e+00,1.425e+00,1.213e+00,1.170e+00,1.574e+00,1.932e+00,1.307e+00,2.372e+00,2.104e+00,2.762e+00,2.809e+00,2.104e+00,1.729e+00,2.013e+00,2.529e+00,8.178e-01,2.034e+00,2.703e+00,1.853e+00,2.445e+00,1.363e+00,1.611e+00,2.042e+00,1.896e+00,2.252e+00,1.483e+00,1.809e+00,1.407e+00,2.241e+00,1.510e+00
3.201e-02,3.940e-01,6.282e-01,1.189e+00,9.384e-01,1.342e+00,8.645e-01,2.929e+00,1.732e+00,1.841e+00,1.895e+00,2.992e+00,1.637e+00,1.990e+00,9.182e-01,1.618e+00,1.592e+00,3.169e+00,2.629e+00,1.271e+00,1.972e+00,2.252e+00,1.881e+00,1.572e+00,1.630e+00,2.450e+00,2.221e+00,3.208e+00,1.904e+00,1.715e+00,2.504e+00,2.556e+00,1.453e+00,1.607e+00,2.325e+00,2.667e+00,3.179e+00,2.012e+00,2.040e+00,2.142e+00,1.615e+00,1.414e+00,1.982e+00,2.059e+00,1.556e+00,2.647e+00,1.957e+00,2.916e+00,2.703e+00,2.308e+00,1.783e+00,2.508e+00,2.709e+00,1.857e+00,2.152e+00,2.681e+00,2.183e+00,2.423e+00,1.828e+00,2.188e+00,2.565e+00,2.944e+00,2.447e+00,1.654e+00,2.811e+00,2.526e+00,2.688e+00,1.742e+00
2.834e-02,3.564e-01,6.395e-01,1.662e+00,2.351e+00,1.993e+00,8.426e-01,3.038e+00,1.985e+00,2.726e+00,1.951e+00,3.401e+00,2.332e+00,2.332e+00,2.232e+00,2.498e+00,1.831e+00,3.594e+00,2.836e+00,1.973e+00,3.101e+00,2.678e+00,2.703e+00,2.429e+00,2.751e+00,2.358e+00,2.467e+00,3.606e+00,3.637e+00,2.650e+00,3.021e+00,2.244e+00,2.413e+00,2.415e+00,3.358e+00,2.247e+00,3.777e+00,3.390e+00,2.691e+00,2.065e+00,1.672e+00,1.292e+00,2.766e+00,2.209e+00,2.535e+00,3.176e+00,2.158e+00,3.246e+00,3.351e+00,2.190e+00,1.946e+00,2.518e+00,3.294e+00,2.010e+00,3.233e+00,2.589e+00,3.359e+00,3.099e+00,1.810e+00,2.553e+00,3.621e+00,2.607e+00,3.173e+00,2.234e+00,2.127e+00,1.850e+00,3.198e+00,2.960e+00
1.734e-02,2.298e-01,3.982e-01,1.058e+00,1.625e+00,2.065e+00,1.273e+00,3.312e+00,1.913e+00,2.599e+00,2.506e+00,4.235e+00,3.034e+00,2.131e+00,1.903e+00,2.344e+00,2.868e+00,3.705e+00,3.078e+00,1.282e+00,2.658e+00,3.076e+00,2.885e+00,2.290e+00,3.326e+00,3.273e+00,2.709e+00,3.569e+00,3.825e+00,2.699e+00,3.519e+00,3.662e+00,2.968e+00,2.835e+00,3.560e+00,2.901e+00,3.683e+00,3.121e+00,2.366e+00,3.236e+00,1.978e+00,2.419e+00,2.341e+00,3.413e+00,2.832e+00,4.018e+00,3.475e+00,3.839e+00,3.372e+00,3.203e+00,2.832e+00,3.165e+00,3.809e+00,2.142e+00,2.212e+00,3.501e+00,3.250e+00,3.247e+00,2.522e+00,2.128e+00,3.785e+00,2.996e+00,3.537e+00,2.128e+00,3.375e+00,3.180e+00,3.681e+00,2.217e+00
2.769e-02,3.523e-01,7.357e-01,1.610e+00,2.529e+00,2.222e+00,1.292e+00,3.958e+00,2.802e+00,3.830e+00,3.810e+00,5.839e+00,3.601e+00,3.505e+00,3.560e+00,3.311e+00,3.671e+00,5.530e+00,4.588e+00,3.335e+00,4.052e+00,3.997e+00,3.780e+00,3.912e+00,4.216e+00,3.625e+00,4.162e+00,4.396e+00,5.236e+00,4.165e+00,5.111e+00,3.824e+00,4.165e+00,4.121e+00,4.145e+00,3.354e+00,5.476e+00,4.610e+00,3.575e+00,3.477e+00,2.534e+00,2.482e+00,3.766e+00,4.137e+00,3.420e+00,4.731e+00,3.818e+00,4.689e+00,5.572e+00,4.262e+00,4.090e+00,4.275e+00,4.643e+00,3.349e+00,4.136e+00,4.369e+00,4.374e+00,4.803e+00,3.399e+00,3.412e+00,4.695e+00,3.482e+00,4.563e+00,3.407e+00,4.414e+00,3.295e+00,5.061e+00,4.277e+00
3.339e-03,1.708e-01,5.633e-01,1.221e+00,2.146e+00,2.000e+00,1.414e+00,3.534e+00,2.539e+00,3.005e+00,3.097e+00,4.950e+00,4.255e+00,3.092e+00,2.579e+00,3.865e+00,3.493e+00,4.565e+00,4.089e+00,2.276e+00,3.139e+00,3.640e+00,2.784e+00,3.528e+00,3.592e+00,4.063e+00,3.643e+00,4.614e+00,5.336e+00,3.326e+00,4.218e+00,4.360e+00,3.896e+00,3.761e+00,4.153e+00,3.057e+00,5.003e+00,4.495e+00,3.021e+00,3.815e+00,3.332e+00,2.606e+00,3.347e+00,4.415e+00,3.729e+00,4.290e+00,3.327e+00,5.019e+00,4.600e+00,3.882e+00,3.087e+00,3.946e+00,4.001e+00,3.423e+00,3.368e+00,3.865e+00,4.049e+00,4.867e+00,2.853e+00,2.999e+00,4.651e+00,4.192e+00,4.071e+00,3.300e+00,4.298e+00,3.238e+00,5.488e+00,3.651e+00
1.909e-02,2.149e-01,3.672e-01,1.119e+00,1.393e+00,1.295e+00,4.523e-01,1.908e+00,1.416e+00,1.696e+00,1.764e+00,2.934e+00,2.510e+00,1.949e+00,1.886e+00,2.480e+00,2.327e+00,3.129e+00,3.167e+00,2.275e+00,3.103e+00,1.900e+00,2.409e+00,2.147e+00,2.632e+00,2.675e+00,2.324e+00,2.823e+00,3.515e+00,2.010e+00,3.165e+00,2.355e+00,2.948e+00,2.621e+00,3.344e+00,2.377e+00,3.857e+00,3.755e+00,2.757e+00,2.068e+00,1.615e+00,2.058e+00,3.204e+00,3.054e+00,2.247e+00,3.377e+00,1.885e+00,3.315e+00,3.403e+00,2.633e+00,2.518e+00,2.562e+00,2.527e+00,3.156e+00,2.670e+00,2.494e+00,2.523e+00,3.707e+00,3.008e+00,2.246e+00,2.747e+00,2.443e+00,3.087e+00,2.575e+00,2.998e+00,1.852e+00,3.497e+00,2.451e+00
2.565e-02,2.804e-01,4.631e-01,1.350e+00,1.607e+00,1.994e+00,8.250e-01,2.824e+00,2.424e+00,3.171e+00,3.118e+00,4.457e+00,3.059e+00,2.778e+00,3.365e+00,2.606e+00,2.944e+00,5.517e+00,4.854e+00,3.053e+00,5.262e+00,4.491e+00,4.464e+00,3.168e+00,4.060e+00,3.783e+00,3.484e+00,4.547e+00,5.055e+00,4.050e+00,3.929e+00,4.163e+00,3.351e+00,4.581e+00,5.148e+00,3.582e+00,4.865e+00,4.705e+00,4.138e+00,3.223e+00,2.342e+00,3.131e+00,4.019e+00,4.266e+00,3.789e+00,5.849e+00,3.298e+00,5.120e+00,4.666e+00,3.768e+00,3.404e+00,3.989e+00,4.506e+00,3.993e+00,4.290e+00,4.111e+00,4.684e+00,5.584e+00,4.064e+00,3.212e+00,5.129e+00,4.237e+00,4.439e+00,3.383e+00,4.818e+00,4.073e+00,5.338e+00,3.145e+00
3.332e-02,4.117e-01,7.575e-01,1.272e+00,2.065e+00,2.175e+00,1.249e+00,3.492e+00,2.134e+00,3.248e+00,3.241e+00,5.260e+00,3.957e+00,3.047e+00,4.192e+00,3.400e+00,4.016e+00,5.874e+00,4.665e+00,3.676e+00,5.552e+00,4.266e+00,4.368e+00,4.683e+00,4.526e+00,4.032e+00,4.888e+00,5.905e+00,6.011e+00,4.332e+00,5.259e+00,3.759e+00,4.484e+00,5.662e+00,5.711e+00,4.369e+00,6.716e+00,5.766e+00,4.296e+00,4.256e+00,3.169e+00,3.885e+00,4.524e+00,5.443e+00,4.092e+00,6.054e+00,4.084e+00,5.188e+00,5.980e+00,4.199e+00,4.667e+00,4.038e+00,4.623e+00,4.370e+00,4.507e+00,5.465e+00,5.590e+00,5.521e+00,4.106e+00,4.214e+00,5.244e+00,4.441e+00,5.806e+00,4.421e+00,4.605e+00,3.943e+00,5.570e+00,4.286e+00
1.242e-02,1.474e-01,4.028e-01,7.945e-01,1.984e+00,1.616e+00,1.004e+00,2.895e+00,1.846e+00,2.567e+00,1.962e+00,4.084e+00,3.647e+00,2.535e+00,3.471e+00,3.159e+00,4.066e+00,4.229e+00,3.939e+00,3.298e+00,3.729e+00,3.278e+00,3.170e+00,4.230e+00,4.188e+00,4.378e+00,3.876e+00,5.441e+00,5.261e+00,3.686e+00,4.857e+00,4.048e+00,4.041e+00,4.361e+00,4.987e+00,3.682e+00,5.749e+00,4.515e+00,4.667e+00,4.019e+00,3.563e+00,3.701e+00,3.857e+00,5.439e+00,4.075e+00,5.420e+00,3.774e+00,5.047e+00,5.294e+00,3.976e+00,4.595e+00,3.231e+00,4.530e+00,3.725e+00,3.375e+00,4.869e+00,4.218e+00,4.627e+00,3.555e+00,3.164e+00,4.344e+00,4.455e+00,5.511e+00,4.201e+00,4.438e+00,3.109e+00,5.391e+00,3.502e+00
5.851e-03,1.172e-01,3.597e-01,1.084e+00,2.146e+00,1.966e+00,1.236e+00,2.985e+00,2.106e+00,2.889e+00,2.509e+00,4.228e+00,3.491e+00,2.788e+00,3.313e+00,3.360e+00,3.326e+00,4.583e+00,4.677e+00,3.346e+00,4.527e+00,3.922e+00,4.033e+00,4.661e+00,4.936e+00,4.597e+00,4.608e+00,4.914e+00,5.382e+00,4.327e+00,4.384e+00,4.661e+00,4.514e+00,4.532e+00,5.180e+00,3.391e+00,6.195e+00,5.301e+00,4.211e+00,4.117e+00,3.602e+00,3.197e+00,3.883e+00,5.308e+00,4.365e+00,5.628e+00,3.514e+00,5.295e+00,5.813e+00,4.749e+00,4.097e+00,3.676e+00,4.691e+00,3.931e+00,4.504e+00,5.091e+00,5.068e+00,5.401e+00,4.453e+00,3.878e+00,4.632e+00,4.629e+00,4.994e+00,3.532e+00,4.627e+00,3.228e+00,6.101e+00,3.783e+00
3.009e-02,4.118e-01,7.462e-01,1.534e+00,1.891e+00,1.616e+00,9.439e-01,2.988e+00,1.573e+00,2.239e+00,1.705e+00,3.679e+00,3.105e+00,3.006e+00,3.039e+00,3.196e+00,3.260e+00,5.231e+00,4.407e+00,4.091e+00,5.506e+00,3.534e+00,4.588e+00,4.695e+00,3.959e+00,4.968e+00,4.854e+00,6.267e+00,5.595e+00,5.034e+00,5.195e+00,4.403e+00,3.595e+00,4.691e+00,6.200e+00,4.862e+00,6.028e+00,5.495e+00,4.949e+00,4.057e+00,4.440e+00,4.071e+00,4.339e+00,4.574e+00,4.011e+00,6.280e+00,3.675e+00,5.896e+00,5.488e+00,4.486e+00,3.975e+00,3.854e+00,4.365e+00,4.457e+00,4.642e+00,5.276e+00,5.269e+00,6.315e+00,4.809e+00,4.596e+00,5.477e+00,5.762e+00,5.795e+00,5.080e+00,4.148e+00,4.050e+00,6.197e+00,3.544e+00
3.199e-02,2.970e-01,5.193e-01,1.013e+00,2.043e+00,1.770e+00,8.643e-01,3.313e+00,1.992e+00,2.817e+00,1.771e+00,4.122e+00,3.729e+00,2.976e+00,3.182e+00,3.274e+00,4.416e+00,5.734e+00,5.930e+00,4.930e+00,4.810e+00,4.664e+00,5.104e+00,4.534e+00,4.891e+00,5.882e+00,4.097e+00,6.452e+00,5.864e+00,5.252e+00,6.479e+00,5.254e+00,4.991e+00,5.881e+00,6.384e+00,5.182e+00,7.118e+00,5.537e+00,5.803e+00,4.598e+00,4.579e+00,5.202e+00,5.265e+00,5.633e+00,4.399e+00,6.550e+00,4.216e+00,5.843e+00,6.392e+00,5.379e+00,5.283e+00,4.682e+00,5.656e+00,5.451e+00,4.885e+00,5.480e+00,5.136e+00,7.173e+00,5.624e+00,4.844e+00,6.133e+00,5.275e+00,6.454e+00,6.546e+00,5.954e+00,4.086e+00,7.511e+00,3.877e+00
1.953e-02,3.194e-01,6.241e-01,1.053e+00,1.041e+00,8.864e-01,6.839e-01,1.845e+00,1.126e+00,1.920e+00,2.103e+00,3.385e+00,2.632e+00,2.436e+00,2.903e+00,2.501e+00,3.002e+00,4.548e+00,4.368e+00,4.691e+00,6.060e+00,4.210e+00,5.108e+00,4.356e+00,4.988e+00,5.380e+00,5.192e+00,5.323e+00,6.202e+00,4.975e+00,5.183e+00,4.433e+00,3.996e+00,5.320e+00,6.751e+00,4.642e+00,5.247e+00,4.934e+00,4.879e+00,4.287e+00,4.987e+00,5.033e+00,5.460e+00,4.912e+00,4.838e+00,5.649e+00,3.910e+00,5.919e+00,5.378e+00,4.590e+00,3.820e+00,3.937e+00,3.943e+00,4.775e+00,5.562e+00,5.057e+00,4.996e+00,6.635e+00,4.701e+00,5.139e+00,5.518e+00,5.048e+00,5.280e+00,5.756e+00,4.811e+00,4.715e+00,6.324e+00,4.247e+00
2.034e-02,2.953e-01,6.848e-01,1.622e+00,2.997e+00,2.721e+00,1.144e+00,3.747e+00,2.696e+00,3.304e+00,3.330e+00,5.285e+00,4.053e+00,3.559e+00,4.172e+00,3.951e+00,3.666e+00,6.702e+00,6.029e+00,4.740e+00,7.076e+00,6.378e+00,6.193e+00,5.881e+00,6.560e+00,6.511e+00,5.179e+00,7.635e+00,7.191e+00,5.915e+00,6.288e+00,6.349e+00,5.549e+00,6.995e+00,7.722e+00,5.566e+00,7.885e+00,7.004e+00,5.907e+00,5.852e+00,5.660e+00,4.320e+00,6.615e+00,6.093e+00,6.113e+00,7.117e+00,4.912e+00,6.930e+00,7.699e+00,6.297e+00,5.764e+00,5.500e+00,6.708e+00,6.034e+00,6.503e+00,5.609e+00,6.517e+00,7.745e+00,5.600e+00,4.960e+00,7.662e+00,6.333e+00,6.760e+00,6.415e+00,6.294e+00,4.829e+00,9.134e+00,6.335e+00
1.113e-02,1.364e-01,2.520e-01,1.081e+00,1.793e+00,1.675e+00,6.462e-01,2.374e+00,1.507e+00,1.666e+00,1.328e+00,2.509e+00,2.277e+00,1.698e+00,2.216e+00,2.365e+00,1.821e+00,3.059e+00,3.088e+00,2.826e+00,3.441e+00,2.940e+00,3.496e+00,3.674e+00,4.232e+00,4.329e+00,3.984e+00,5.522e+00,4.795e+00,3.869e+00,3.507e+00,3.841e+00,3.571e+00,3.968e+00,5.379e+00,3.553e+00,4.850e+00,4.445e+00,4.193e+00,3.641e+00,3.757e+00,3.633e+00,3.700e+00,4.848e+00,4.660e+00,4.677e+00,3.460e+00,4.698e+00,4.085e+00,3.652e+00,3.624e+00,2.803e+00,4.034e+00,3.286e+00,4.480e+00,3.783e+00,3.797e+00,3.910e+00,3.296e+00,3.169e+00,4.589e+00,5.156e+00,3.432e+00,3.681e+00,3.841e+00,3.034e+00,5.491e+00,3.832e+00
3.189e-02,3.954e-01,7.813e-01,1.630e+00,2.270e+00,1.693e+00,9.633e-01,3.626e+00,2.397e+00,3.357e+00,3.148e+00,5.594e+00,4.351e+00,4.134e+00,4.838e+00,4.195e+00,4.979e+00,6.810e+00,6.869e+00,6.322e+00,7.847e+00,6.287e+00,7.344e+00,6.761e+00,7.674e+00,8.576e+00,8.316e+00,8.405e+00,9.245e+00,8.389e+00,8.868e+00,7.224e+00,7.437e+00,8.116e+00,1.003e+01,8.100e+00,9.649e+00,8.735e+00,7.962e+00,6.582e+00,7.411e+00,7.706e+00,8.884e+00,8.541e+00,7.921e+00,9.522e+00,6.634e+00,8.868e+00,9.250e+00,7.842e+00,7.615e+00,5.964e+00,7.582e+00,7.631e+00,8.224e+00,7.874e+00,7.218e+00,1.035e+01,7.612e+00,6.667e+00,9.460e+00,7.564e+00,7.885e+00,8.929e+00,8.528e+00,6.856e+00,1.042e+01,6.748e+00
3.110e-03,1.695e-01,4.268e-01,4.827e-01,7.110e-01,8.307e-01,9.672e-01,2.254e+00,1.177e+00,1.608e+00,3.110e+00,3.726e+00,2.568e+00,2.409e+00,2.568e+00,2.758e+00,3.109e+00,4.704e+00,4.169e+00,3.607e+00,4.582e+00,3.822e+00,4.418e+00,5.257e+00,6.234e+00,5.813e+00,5.838e+00,6.411e+00,6.211e+00,5.383e+00,5.068e+00,4.924e+00,5.740e+00,5.310e+00,6.055e+00,4.819e+00,6.520e+00,5.746e+00,4.255e+00,4.814e+00,5.145e+00,4.428e+00,5.530e+00,6.080e+00,6.001e+00,6.008e+00,4.814e+00,5.908e+00,6.204e+00,5.496e+00,4.986e+00,3.891e+00,5.737e+00,6.027e+00,5.382e+00,4.874e+00,5.272e+00,6.420e+00,4.718e+00,5.329e+00,6.216e+00,5.469e+00,5.875e+00,4.824e+00,5.765e+00,4.760e+00,7.335e+00,4.540e+00
2.438e-02,2.783e-01,4.763e-01,1.495e+00,1.861e+00,1.617e+00,8.917e-01,3.308e+00,2.231e+00,3.083e+00,2.742e+00,4.646e+00,3.425e+00,3.103e+00,3.288e+00,3.218e+00,3.736e+00,4.773e+00,4.895e+00,3.962e+00,5.427e+00,4.654e+00,5.230e+00,4.425e+00,7.544e+00,6.863e+00,6.867e+00,6.561e+00,6.668e+00,6.244e+00,6.162e+00,5.814e+00,6.509e+00,5.603e+00,7.617e+00,6.007e+00,7.395e+00,6.567e+00,5.685e+00,5.432e+00,6.119e+00,4.801e+00,6.343e+00,6.397e+00,6.734e+00,7.658e+00,6.025e+00,7.031e+00,7.712e+00,7.063e+00,6.071e+00,5.418e+00,7.159e+00,5.699e+00,6.108e+00,6.066e+00,6.079e+00,7.999e+00,5.643e+00,5.728e+00,8.251e+00,5.478e+00,5.859e+00,5.561e+00,6.194e+00,5.722e+00,7.584e+00,6.084e+00
2.323e-02,3.381e-01,7.683e-01,1.685e+00,2.524e+00,2.191e+00,9.164e-01,3.380e+00,2.684e+00,3.242e+00,3.133e+00,5.150e+00,3.639e+00,3.223e+00,3.905e+00,3.149e+00,3.164e+00,5.885e+00,4.776e+00,4.083e+00,5.975e+00,5.141e+00,5.023e+00,4.789e+00,5.894e+00,6.096e+00,6.416e+00,6.812e+00,7.354e+00,6.324e+00,5.905e+00,6.896e+00,6.104e+00,6.555e+00,7.480e+00,5.803e+00,7.218e+00,6.484e+00,6.455e+00,5.563e+00,6.113e+00,4.681e+00,6.609e+00,5.929e+00,6.442e+00,8.086e+00,5.294e+00,7.509e+00,7.116e+00,5.975e+00,6.711e+00,5.606e+00,6.278e+00,5.980e+00,6.116e+00,7.264e+00,7.309e+00,8.341e+00,5.974e+00,5.834e+00,8.202e+00,6.056e+00,6.108e+00,6.324e+00,6.484e+00,5.503e+00,7.797e+00,6.193e+00
6.880e-03,1.482e-01,3.777e-01,1.181e+00,1.828e+00,1.804e+00,1.142e+00,3.220e+00,2.236e+00,2.816e+00,2.726e+00,4.491e+00,3.989e+00,2.969e+00,3.031e+00,3.717e+00,3.957e+00,5.042e+00,5.653e+00,3.540e+00,5.333e+00,5.174e+00,5.541e+00,5.357e+00,7.419e+00,8.180e+00,8.423e+00,8.281e+00,8.422e+00,7.928e+00,7.205e+00,8.582e+00,8.551e+00,6.902e+00,8.698e+00,7.362e+00,9.484e+00,8.055e+00,7.499e+00,7.017e+00,7.632e+00,6.921e+00,8.533e+00,7.812e+00,9.058e+00,9.704e+00,6.671e+00,8.654e+00,8.938e+00,8.393e+00,8.205e+00,6.283e+00,7.996e+00,8.284e+00,7.178e+00,8.194e+00,7.611e+00,1.083e+01,7.533e+00,7.578e+00,9.921e+00,7.085e+00,7.357e+00,7.533e+00,7.909e+00,6.798e+00,1.006e+01,6.478e+00
1.399e-02,2.728e-01,7.244e-01,1.295e+00,2.419e+00,1.851e+00,9.982e-01,2.679e+00,1.780e+00,2.511e+00,2.084e+00,4.350e+00,3.902e+00,2.698e+00,2.652e+00,3.344e+00,3.642e+00,4.540e+00,3.747e+00,3.670e+00,4.932e+00,3.841e+00,4.545e+00,4.861e+00,5.280e+00,5.902e+00,5.544e+00,7.197e+00,7.438e+00,6.666e+00,6.358e+00,6.195e+00,6.546e+00,6.200e+00,7.120e+00,5.645e+00,7.287e+00,6.535e+00,5.657e+00,5.098e+00,6.477e+00,5.383e+00,7.205e+00,6.191e+00,6.730e+00,6.552e+00,4.971e+00,7.424e+00,7.549e+00,5.879e+00,6.256e+00,4.546e+00,6.072e+00,7.167e+00,6.341e+00,6.445e+00,5.347e+00,7.792e+00,4.467e+00,5.424e+00,7.646e+00,5.365e+00,7.518e+00,6.898e+00,5.322e+00,5.042e+00,8.537e+00,5.389e+00
4.137e-03,1.328e-01,4.114e-01,7.048e-01,1.865e+00,1.709e+00,9.331e-01,2.279e+00,1.332e+00,1.728e+00,2.125e+00,3.470e+00,3.123e+00,2.331e+00,2.519e+00,2.962e+00,2.574e+00,5.063e+00,4.377e+00,3.929e+00,4.538e+00,3.968e+00,5.015e+00,5.121e+00,4.846e+00,5.481e+00,6.170e+00,6.966e+00,8.219e+00,8.631e+00,6.645e+00,7.319e+00,7.473e+00,8.360e+00,7.539e+00,6.561e+00,8.505e+00,7.639e+00,5.875e+00,5.753e+00,6.261e+00,6.892e+00,7.570e+00,6.811e+00,6.832e+00,7.614e+00,5.126e+00,7.301e+00,7.799e+00,7.100e+00,7.614e+00,5.116e+00,6.110e+00,8.245e+00,7.326e+00,7.474e+00,6.320e+00,8.772e+00,6.259e+00,6.069e+00,8.917e+00,6.007e+00,7.496e+00,8.130e+00,7.476e+00,5.574e+00,9.679e+00,5.472e+00
1.351e-02,2.545e-01,6.544e-01,1.117e+00,2.296e+00,1.634e+00,1.071e+00,3.030e+00,1.757e+00,2.722e+00,2.904e+00,4.805e+00,3.425e+00,3.419e+00,3.963e+00,3.387e+00,3.885e+00,5.554e+00,4.719e+00,4.342e+00,5.858e+00,4.792e+00,5.136e+00,6.012e+00,6.632e+00,6.241e+00,7.399e+00,7.925e+00,8.559e+00,9.982e+00,8.450e+00,8.283e+00,7.887e+00,7.815e+00,8.596e+00,8.221e+00,1.006e+01,7.507e+00,7.084e+00,7.457e+00,6.850e+00,7.089e+00,8.735e+00,8.301e+00,8.760e+00,8.498e+00,7.442e+00,8.544e+00,9.574e+00,8.311e+00,8.762e+00,5.753e+00,8.607e+00,8.222e+00,7.978e+00,9.221e+00,7.888e+00,9.808e+00,7.087e+00,7.383e+00,1.050e+01,6.851e+00,8.840e+00,9.105e+00,7.936e+00,6.723e+00,9.901e+00,7.122e+00
1.446e-02,2.377e-01,6.151e-01,1.320e+00,2.140e+00,2.000e+00,1.110e+00,3.226e+00,2.603e+00,3.211e+00,3.117e+00,5.055e+00,4.187e+00,3.297e+00,4.204e+00,3.744e+00,4.008e+00,5.918e+00,5.325e+00,4.861e+00,6.618e+00,5.632e+00,5.364e+00,5.598e+00,6.271e+00,7.041e+00,7.722e+00,8.835e+00,9.496e+00,8.372e+00,7.927e+00,9.056e+00,7.770e+00,8.352e+00,9.538e+00,8.243e+00,9.908e+00,8.207e+00,8.096e+00,8.471e+00,8.823e+00,7.407e+00,9.211e+00,9.324e+00,9.104e+00,9.673e+00,6.932e+00,9.604e+00,9.200e+00,8.391e+00,8.698e+00,6.571e+00,7.687e+00,8.658e+00,8.873e+00,9.833e+00,7.984e+00,1.031e+01,7.503e+00,7.119e+00,1.008e+01,8.453e+00,8.660e+00,9.223e+00,8.626e+00,7.389e+00,1.035e+01,7.898e+00
2.249e-02,2.827e-01,5.246e-01,1.398e+00,1.920e+00,2.098e+00,1.160e+00,3.453e+00,2.440e+00,2.993e+00,3.532e+00,4.965e+00,3.496e+00,3.253e+00,3.567e+00,3.580e+00,3.706e+00,5.989e+00,5.750e+00,5.108e+00,6.056e+00,5.115e+00,5.783e+00,5.986e+00,7.234e+00,6.887e+00,8.004e+00,9.194e+00,8.729e+00,8.519e+00,7.425e+00,9.674e+00,9.471e+00,8.707e+00,9.527e+00,8.279e+00,1.076e+01,9.357e+00,7.856e+00,8.140e+00,9.308e+00,7.647e+00,8.708e+00,9.903e+00,9.631e+00,9.894e+00,6.830e+00,9.933e+00,1.019e+01,9.581e+00,9.619e+00,7.212e+00,8.301e+00,9.263e+00,9.085e+00,1.031e+01,8.920e+00,9.604e+00,8.367e+00,8.585e+00,9.732e+00,9.144e+00,8.083e+00,9.121e+00,8.897e+00,6.787e+00,1.115e+01,9.010e+00
6.604e-03,9.150e-02,3.245e-01,1.033e+00,2.011e+00,1.814e+00,7.491e-01,2.176e+00,2.045e+00,2.480e+00,2.017e+00,3.480e+00,2.633e+00,1.872e+00,2.847e+00,2.204e+00,2.384e+00,3.829e+00,3.363e+00,3.296e+00,4.631e+00,4.077e+00,4.337e+00,4.624e+00,5.988e+00,5.779e+00,5.642e+00,6.847e+00,6.523e+00,6.229e+00,5.470e+00,6.689e+00,7.781e+00,7.125e+00,7.364e+00,6.510e+00,8.429e+00,7.689e+00,6.137e+00,6.554e+00,8.518e+00,5.014e+00,6.397e+00,7.666e+00,7.953e+00,8.516e+00,5.547e+00,7.609e+00,8.451e+00,7.448e+00,8.060e+00,5.483e+00,7.406e+00,7.344e+00,7.771e+00,8.238e+00,6.574e+00,7.811e+00,6.022e+00,6.657e+00,8.405e+00,6.360e+00,6.926e+00,6.954e+00,6.192e+00,5.951e+00,8.869e+00,7.540e+00
1.797e-02,2.354e-01,4.086e-01,7.897e-01,1.222e+00,1.678e+00,1.019e+00,2.544e+00,1.622e+00,2.328e+00,2.815e+00,3.692e+00,2.382e+00,2.171e+00,2.899e+00,2.311e+00,2.824e+00,5.111e+00,4.378e+00,3.484e+00,5.389e+00,4.721e+00,5.475e+00,5.394e+00,6.447e+00,5.902e+00,6.177e+00,8.140e+00,6.775e+00,7.160e+00,5.690e+00,6.561e+00,7.055e+00,7.698e+00,7.632e+00,7.312e+00,9.636e+00,7.632e+00,6.102e+00,6.785e+00,6.913e+00,5.960e+00,7.004e+00,7.368e+00,8.258e+00,8.607e+00,5.975e+00,8.155e+00,8.375e+00,7.867e+00,7.562e+00,5.834e+00,8.635e+00,8.629e+00,7.383e+00,8.265e+00,7.383e+00,8.072e+00,5.876e+00,7.136e+00,8.424e+00,7.248e+00,7.902e+00,6.687e+00,7.026e+00,6.605e+00,9.406e+00,7.035e+00
3.529e-03,1.201e-01,4.160e-01,7.250e-01,1.963e+00,1.631e+00,8.399e-01,2.252e+00,1.616e+00,2.330e+00,2.858e+00,3.948e+00,2.624e+00,2.233e+00,3.350e+00,2.400e+00,2.600e+00,5.040e+00,3.833e+00,4.307e+00,5.530e+00,5.111e+00,5.641e+00,5.317e+00,7.029e+00,6.035e+00,6.144e+00,7.232e+00,7.537e+00,8.124e+00,6.348e+00,7.393e+00,8.165e+00,8.912e+00,8.733e+00,8.125e+00,9.220e+00,8.886e+00,7.039e+00,8.224e+00,9.355e+00,7.078e+00,8.068e+00,8.377e+00,9.022e+00,9.133e+00,6.418e+00,9.009e+00,9.446e+00,9.389e+00,8.894e+00,6.601e+00,9.031e+00,8.999e+00,8.794e+00,9.292e+00,8.195e+00,9.463e+00,6.557e+00,8.262e+00,1.057e+01,7.373e+00,8.135e+00,9.052e+00,8.021e+00,7.761e+00,1.080e+01,9.244e+00
2.356e-02,2.810e-01,4.921e-01,1.017e+00,1.828e+00,1.768e+00,1.199e+00,3.167e+00,1.749e+00,3.152e+00,2.797e+00,4.775e+00,4.025e+00,2.943e+00,3.727e+00,3.589e+00,4.849e+00,5.752e+00,5.566e+00,4.490e+00,6.005e+00,5.297e+00,6.361e+00,5.657e+00,7.445e+00,7.377e+00,7.974e+00,9.055e+00,9.483e+00,9.808e+00,9.136e+00,8.855e+00,9.390e+00,9.359e+00,9.941e+00,1.014e+01,1.240e+01,1.078e+01,9.413e+00,1.001e+01,9.539e+00,9.693e+00,1.012e+01,9.633e+00,1.048e+01,1.194e+01,8.622e+00,1.037e+01,1.164e+01,1.137e+01,1.115e+01,8.888e+00,9.971e+00,1.096e+01,8.712e+00,1.135e+01,9.721e+00,1.237e+01,8.667e+00,1.039e+01,1.217e+01,8.449e+00,1.117e+01,1.053e+01,9.405e+00,8.988e+00,1.157e+01,9.764e+00
5.119e-03,1.254e-01,3.812e-01,1.129e+00,2.418e+00,2.071e+00,1.013e+00,2.849e+00,1.801e+00,2.330e+00,2.198e+00,4.085e+00,3.902e+00,2.819e+00,3.190e+00,3.741e+00,3.807e+00,4.470e+00,5.072e+00,3.542e+00,5.419e+00,5.217e+00,5.558e+00,6.009e+00,7.211e+00,7.457e+00,6.503e+00,8.151e+00,8.130e+00,7.495e+00,7.763e+00,8.252e+00,9.144e+00,7.828e+00,9.659e+00,8.371e+00,1.101e+01,1.055e+01,8.534e+00,8.191e+00,8.908e+00,8.836e+00,9.501e+00,9.960e+00,1.098e+01,1.037e+01,7.965e+00,9.457e+00,1.004e+01,9.738e+00,9.502e+00,6.702e+00,9.322e+00,9.681e+00,8.646e+00,8.991e+00,8.948e+00,1.036e+01,7.813e+00,8.316e+00,1.093e+01,8.905e+00,8.000e+00,9.780e+00,8.874e+00,8.364e+00,1.246e+01,9.618e+00
2.854e-02,2.759e-01,4.907e-01,7.896e-01,1.099e+00,1.019e+00,3.232e-01,1.576e+00,1.476e+00,2.210e+00,2.462e+00,3.714e+00,2.276e+00,2.363e+00,3.990e+00,1.911e+00,3.462e+00,5.422e+00,4.775e+00,5.868e+00,6.634e+00,4.359e+00,5.352e+00,5.487e+00,6.493e+00,6.013e+00,7.610e+00,7.440e+00,7.911e+00,8.177e+00,7.034e+00,6.870e+00,7.023e+00,7.960e+00,8.453e+00,8.194e+00,9.857e+00,9.654e+00,9.490e+00,8.052e+00,8.410e+00,8.942e+00,1.000e+01,9.903e+00,8.914e+00,1.063e+01,7.471e+00,8.764e+00,1.002e+01,1.066e+01,9.755e+00,7.501e+00,7.984e+00,1.008e+01,9.255e+00,9.729e+00,8.011e+00,1.132e+01,8.932e+00,8.479e+00,9.914e+00,9.176e+00,9.180e+00,9.383e+00,8.896e+00,9.063e+00,1.058e+01,8.825e+00
3.116e-02,4.355e-01,8.452e-01,1.278e+00,1.920e+00,1.523e+00,1.061e+00,3.166e+00,1.596e+00,2.524e+00,2.129e+00,3.951e+00,2.703e+00,3.139e+00,3.734e+00,2.880e+00,3.231e+00,6.008e+00,4.733e+00,5.137e+00,6.317e+00,4.757e+00,5.665e+00,5.909e+00,5.567e+00,6.383e+00,8.099e+00,8.656e+00,8.571e+00,9.463e+00,8.181e+00,8.258e+00,8.056e+00,8.763e+00,9.425e+00,1.029e+01,1.202e+01,1.050e+01,1.049e+01,9.912e+00,9.732e+00,1.128e+01,1.058e+01,1.066e+01,1.077e+01,1.240e+01,9.392e+00,1.111e+01,1.182e+01,1.030e+01,1.107e+01,7.822e+00,9.937e+00,1.095e+01,1.020e+01,1.299e+01,1.016e+01,1.210e+01,9.781e+00,1.096e+01,1.192e+01,1.057e+01,1.082e+01,1.152e+01,9.882e+00,1.001e+01,1.219e+01,9.282e+00
2.111e-03,5.359e-02,1.411e-01,3.987e-01,8.020e-01,1.130e+00,9.439e-01,1.934e+00,1.318e+00,2.132e+00,2.953e+00,3.968e+00,3.032e+00,2.120e+00,3.521e+00,2.632e+00,3.927e+00,4.734e+00,5.268e+00,4.104e+00,5.206e+00,4.700e+00,5.462e+00,5.487e+00,6.194e+00,6.475e+00,7.165e+00,7.537e+00,7.870e+00,7.516e+00,7.518e+00,7.999e+00,9.248e+00,8.557e+00,8.547e+00,8.525e+00,1.056e+01,9.606e+00,8.358e+00,1.028e+01,8.906e+00,1.018e+01,9.193e+00,1.153e+01,1.075e+01,1.165e+01,8.989e+00,9.315e+00,1.072e+01,9.575e+00,1.174e+01,8.147e+00,8.281e+00,1.052e+01,8.568e+00,1.152e+01,9.375e+00,1.147e+01,9.951e+00,1.036e+01,9.631e+00,9.561e+00,9.158e+00,1.051e+01,9.195e+00,9.696e+00,1.151e+01,1.056e+01
1.202e-02,1.381e-01,2.256e-01,7.050e-01,1.179e+00,1.080e+00,8.616e-01,2.483e+00,1.390e+00,2.135e+00,1.891e+00,2.926e+00,2.550e+00,2.415e+00,2.465e+00,2.889e+00,3.352e+00,4.065e+00,5.054e+00,3.421e+00,3.836e+00,3.920e+00,4.348e+00,4.670e+00,5.915e+00,5.773e+00,5.617e+00,7.287e+00,5.707e+00,7.663e+00,6.329e+00,7.042e+00,7.136e+00,6.320e+00,7.286e+00,8.230e+00,1.112e+01,8.246e+00,7.740e+00,9.286e+00,8.240e+00,9.580e+00,8.731e+00,1.080e+01,1.094e+01,1.026e+01,8.735e+00,9.647e+00,1.061e+01,1.012e+01,9.371e+00,8.136e+00,1.045e+01,1.097e+01,8.995e+00,1.070e+01,9.311e+00,1.073e+01,9.204e+00,1.046e+01,1.072e+01,9.738e+00,9.616e+00,9.670e+00,9.390e+00,8.518e+00,1.167e+01,1.028e+01
1.674e-02,2.780e-01,6.489e-01,1.498e+00,2.069e+00,2.000e+00,1.164e+00,3.038e+00,2.261e+00,2.733e+00,2.800e+00,4.830e+00,3.917e+00,3.058e+00,2.833e+00,3.530e+00,3.697e+00,5.068e+00,4.808e+00,4.566e+00,5.971e+00,4.758e+00,5.420e+00,5.615e+00,6.915e+00,7.490e+00,8.603e+00,8.582e+00,8.529e+00,7.732e+00,7.283e+00,8.907e+00,9.543e+00,8.234e+00,9.306e+00,9.339e+00,1.130e+01,1.106e+01,9.223e+00,9.999e+00,1.101e+01,1.034e+01,1.022e+01,1.221e+01,1.195e+01,1.170e+01,9.862e+00,1.178e+01,1.291e+01,1.223e+01,1.129e+01,9.621e+00,1.004e+01,1.238e+01,1.093e+01,1.207e+01,1.027e+01,1.355e+01,1.008e+01,1.104e+01,1.167e+01,1.111e+01,1.016e+01,1.208e+01,1.051e+01,9.948e+00,1.431e+01,1.147e+01
7.218e-03,1.423e-01,3.329e-01,4.024e-01,9.051e-01,9.268e-01,9.622e-01,2.370e+00,1.198e+00,1.660e+00,2.227e+00,3.143e+00,2.584e+00,2.635e+00,3.209e+00,2.922e+00,3.123e+00,5.272e+00,4.924e+00,4.024e+00,4.735e+00,4.273e+00,4.766e+00,5.096e+00,5.083e+00,5.535e+00,6.563e+00,7.286e+00,6.264e+00,7.222e+00,6.478e+00,6.819e+00,8.031e+00,8.353e+00,8.384e+00,8.722e+00,1.029e+01,9.377e+00,8.029e+00,8.911e+00,8.397e+00,1.017e+01,7.883e+00,1.142e+01,9.897e+00,1.168e+01,8.863e+00,9.861e+00,1.080e+01,1.059e+01,1.065e+01,8.724e+00,8.739e+00,1.139e+01,8.924e+00,1.069e+01,9.832e+00,1.116e+01,9.570e+00,1.101e+01,1.102e+01,1.060e+01,9.392e+00,1.110e+01,1.014e+01,9.856e+00,1.259e+01,1.041e+01
2.484e-02,3.499e-01,5.955e-01,1.309e+00,1.240e+00,1.241e+00,8.714e-01,2.816e+00,1.621e+00,2.129e+00,2.038e+00,3.213e+00,2.348e+00,2.364e+00,2.568e+00,2.602e+00,2.415e+00,4.308e+00,4.451e+00,3.267e+00,5.402e+00,4.691e+00,5.374e+00,4.798e+00,5.786e+00,6.750e+00,7.043e+00,8.537e+00,6.026e+00,7.865e+00,7.153e+00,7.713e+00,7.644e+00,7.367e+00,8.973e+00,1.028e+01,1.195e+01,9.466e+00,8.647e+00,1.078e+01,9.558e+00,9.562e+00,1.008e+01,1.140e+01,1.238e+01,1.106e+01,9.873e+00,1.102e+01,1.191e+01,1.095e+01,1.140e+01,8.965e+00,9.918e+00,1.226e+01,1.085e+01,1.327e+01,1.036e+01,1.259e+01,9.398e+00,1.225e+01,1.203e+01,1.064e+01,1.084e+01,1.079e+01,9.823e+00,1.107e+01,1.243e+01,1.273e+01
2.025e-03,1.144e-01,4.064e-01,7.179e-01,1.334e+00,1.017e+00,6.144e-01,1.845e+00,1.442e+00,1.630e+00,1.832e+00,2.944e+00,2.532e+00,2.170e+00,2.369e+00,2.459e+00,2.640e+00,3.740e+00,3.599e+00,3.130e+00,4.300e+00,3.717e+00,3.588e+00,4.547e+00,5.740e+00,5.610e+00,5.263e+00,6.561e+00,6.169e+00,7.030e+00,6.090e+00,8.109e+00,7.828e+00,6.957e+00,8.265e+00,8.091e+00,9.725e+00,8.735e+00,8.336e+00,9.905e+00,1.005e+01,8.007e+00,8.127e+00,1.166e+01,1.191e+01,1.068e+01,8.822e+00,1.086e+01,1.246e+01,1.065e+01,1.144e+01,8.869e+00,9.745e+00,1.163e+01,1.003e+01,1.349e+01,1.034e+01,1.149e+01,9.576e+00,1.246e+01,1.226e+01,1.078e+01,9.879e+00,1.091e+01,1.079e+01,9.752e+00,1.232e+01,1.073e+01
2.923e-02,3.224e-01,5.971e-01,1.047e+00,1.545e+00,1.270e+00,7.749e-01,2.442e+00,1.466e+00,2.135e+00,1.744e+00,3.628e+00,2.693e+00,2.900e+00,3.285e+00,2.668e+00,3.577e+00,4.916e+00,4.667e+00,4.903e+00,5.606e+00,3.853e+00,5.174e+00,5.778e+00,5.627e+00,5.871e+00,6.939e+00,7.859e+00,6.599e+00,7.485e+00,6.853e+00,7.501e+00,8.089e+00,7.941e+00,9.050e+00,8.261e+00,1.059e+01,9.232e+00,9.153e+00,8.649e+00,8.816e+00,9.620e+00,8.922e+00,1.194e+01,1.148e+01,1.196e+01,9.906e+00,1.197e+01,1.296e+01,1.137e+01,1.240e+01,8.964e+00,1.062e+01,1.282e+01,1.127e+01,1.438e+01,1.127e+01,1.225e+01,1.021e+01,1.174e+01,1.094e+01,1.170e+01,1.117e+01,1.234e+01,1.154e+01,1.077e+01,1.348e+01,1.050e+01
2.406e-02,3.693e-01,6.832e-01,9.533e-01,8.220e-01,1.247e+00,8.924e-01,2.454e+00,1.393e+00,1.685e+00,2.495e+00,3.732e+00,2.442e+00,2.254e+00,2.579e+00,2.088e+00,2.706e+00,4.498e+00,4.637e+00,3.718e+00,5.747e+00,4.886e+00,5.177e+00,5.355e+00,6.444e+00,7.119e+00,7.583e+00,7.672e+00,7.195e+00,8.511e+00,7.573e+00,9.266e+00,8.501e+00,8.118e+00,9.505e+00,9.719e+00,1.114e+01,9.193e+00,8.020e+00,9.940e+00,9.880e+00,1.090e+01,1.060e+01,1.320e+01,1.215e+01,1.109e+01,1.037e+01,1.097e+01,1.238e+01,1.161e+01,1.202e+01,9.120e+00,1.028e+01,1.297e+01,1.219e+01,1.395e+01,1.171e+01,1.370e+01,1.194e+01,1.128e+01,1.251e+01,1.188e+01,1.102e+01,1.332e+01,1.207e+01,1.124e+01,1.349e+01,1.225e+01
2.166e-02,2.700e-01,5.688e-01,1.022e+00,1.928e+00,1.567e+00,7.787e-01,2.411e+00,1.556e+00,2.435e+00,2.025e+00,3.824e+00,2.896e+00,2.280e+00,2.950e+00,2.461e+00,3.248e+00,4.135e+00,4.089e+00,3.818e+00,4.619e+00,3.919e+00,4.738e+00,4.862e+00,5.711e+00,5.610e+00,5.833e+00,5.907e+00,6.767e+00,6.874e+00,7.095e+00,6.611e+00,7.746e+00,6.843e+00,8.175e+00,7.688e+00,9.580e+00,8.297e+00,8.002e+00,7.942e+00,7.465e+00,8.938e+00,7.535e+00,1.094e+01,1.085e+01,1.060e+01,8.921e+00,1.013e+01,9.972e+00,1.025e+01,1.067e+01,9.020e+00,9.735e+00,1.053e+01,1.038e+01,1.238e+01,1.077e+01,1.158e+01,9.831e+00,1.069e+01,1.084e+01,9.138e+00,9.848e+00,1.124e+01,1.114e+01,8.802e+00,1.146e+01,1.050e+01
1.376e-02,1.789e-01,3.238e-01,9.114e-01,1.582e+00,1.967e+00,1.096e+00,3.082e+00,1.992e+00,2.596e+00,3.359e+00,4.514e+00,3.177e+00,2.607e+00,3.084e+00,2.971e+00,3.153e+00,5.581e+00,5.784e+00,4.529e+00,5.806e+00,5.666e+00,5.933e+00,4.743e+00,7.274e+00,6.829e+00,7.087e+00,6.836e+00,7.423e+00,7.121e+00,7.051e+00,8.215e+00,8.619e+00,8.068e+00,8.878e+00,8.835e+00,1.063e+01,9.753e+00,8.694e+00,1.078e+01,9.371e+00,1.080e+01,1.086e+01,1.294e+01,1.195e+01,1.240e+01,1.176e+01,1.163e+01,1.336e+01,1.369e+01,1.368e+01,1.168e+01,1.269e+01,1.383e+01,1.253e+01,1.464e+01,1.256e+01,1.494e+01,1.327e+01,1.295e+01,1.327e+01,1.239e+01,1.142e+01,1.330e+01,1.338e+01,1.289e+01,1.516e+01,1.397e+01
3.956e-03,1.652e-01,5.807e-01,9.407e-01,2.072e+00,1.308e+00,9.639e-01,2.569e+00,1.637e+00,2.165e+00,1.643e+00,3.355e+00,2.661e+00,2.746e+00,3.419e+00,2.738e+00,2.432e+00,4.986e+00,3.985e+00,4.580e+00,5.476e+00,4.680e+00,4.898e+00,5.327e+00,5.028e+00,5.959e+00,6.435e+00,6.968e+00,7.082e+00,7.040e+00,6.228e+00,6.847e+00,6.004e+00,7.350e+00,7.707e+00,7.806e+00,9.154e+00,8.504e+00,8.987e+00,9.190e+00,8.146e+00,8.797e+00,8.469e+00,1.036e+01,1.024e+01,1.055e+01,1.003e+01,1.150e+01,1.233e+01,1.143e+01,1.263e+01,9.790e+00,9.872e+00,1.225e+01,1.206e+01,1.354e+01,1.254e+01,1.347e+01,9.998e+00,1.130e+01,1.167e+01,1.128e+01,1.305e+01,1.212e+01,1.162e+01,1.098e+01,1.374e+01,1.239e+01
6.368e-04,1.311e-01,4.973e-01,1.081e+00,2.177e+00,1.411e+00,8.234e-01,2.227e+00,1.551e+00,2.268e+00,2.841e+00,4.463e+00,3.215e+00,2.637e+00,3.134e+00,3.001e+00,3.226e+00,4.477e+00,4.036e+00,4.305e+00,5.299e+00,4.314e+00,5.143e+00,5.161e+00,6.903e+00,6.677e+00,7.347e+00,6.713e+00,8.690e+00,8.653e+00,7.974e+00,8.470e+00,9.837e+00,8.259e+00,9.128e+00,9.766e+00,1.119e+01,1.103e+01,9.598e+00,9.801e+00,1.108e+01,1.129e+01,1.153e+01,1.182e+01,1.342e+01,1.179e+01,1.070e+01,1.210e+01,1.412e+01,1.392e+01,1.407e+01,1.128e+01,1.238e+01,1.548e+01,1.413e+01,1.384e+01,1.257e+01,1.501e+01,1.158e+01,1.289e+01,1.426e+01,1.129e+01,1.301e+01,1.379e+01,1.363e+01,1.224e+01,1.579e+01,1.524e+01
6.149e-03,1.711e-01,4.876e-01,5.528e-01,1.317e+00,1.085e+00,8.548e-01,1.873e+00,1.204e+00,2.160e+00,2.893e+00,4.117e+00,2.890e+00,2.253e+00,3.459e+00,2.408e+00,3.214e+00,4.940e+00,4.086e+00,3.897e+00,5.651e+00,4.770e+00,5.448e+00,5.046e+00,5.575e+00,5.558e+00,5.614e+00,6.020e+00,7.537e+00,7.737e+00,7.132e+00,7.147e+00,7.127e+00,8.127e+00,7.589e+00,8.409e+00,9.651e+00,9.413e+00,7.340e+00,9.443e+00,8.184e+00,8.588e+00,9.095e+00,1.007e+01,9.529e+00,9.579e+00,8.526e+00,9.618e+00,1.122e+01,1.053e+01,1.150e+01,9.637e+00,9.280e+00,1.193e+01,1.045e+01,1.221e+01,1.150e+01,1.266e+01,1.024e+01,1.092e+01,1.145e+01,9.925e+00,1.270e+01,1.126e+01,1.084e+01,9.761e+00,1.263e+01,1.252e+01
1.282e-02,1.542e-01,3.076e-01,5.014e-01,6.572e-01,5.630e-01,3.163e-01,1.544e+00,1.086e+00,1.122e+00,1.428e+00,2.162e+00,1.984e+00,1.682e+00,2.191e+00,2.107e+00,2.442e+00,3.442e+00,3.978e+00,3.258e+00,3.852e+00,3.374e+00,3.483e+00,3.634e+00,3.985e+00,4.979e+00,4.440e+00,6.378e+00,4.799e+00,5.403e+00,5.190e+00,5.896e+00,5.856e+00,6.149e+00,6.545e+00,7.727e+00,9.215e+00,8.127e+00,7.765e+00,8.167e+00,7.580e+00,8.463e+00,8.465e+00,9.758e+00,9.398e+00,8.637e+00,7.304e+00,9.576e+00,1.083e+01,1.001e+01,9.964e+00,8.677e+00,8.846e+00,1.208e+01,1.007e+01,1.110e+01,8.883e+00,1.088e+01,9.332e+00,9.389e+00,1.024e+01,9.668e+00,1.038e+01,1.053e+01,1.079e+01,9.590e+00,1.239e+01,1.095e+01
3.198e-02,3.352e-01,6.055e-01,1.601e+00,2.568e+00,2.277e+00,9.976e-01,3.463e+00,2.248e+00,2.880e+00,1.702e+00,4.122e+00,3.765e+00,3.255e+00,3.270e+00,3.694e+00,3.988e+00,5.102e+00,5.922e+00,5.302e+00,6.532e+00,5.557e+00,6.220e+00,6.147e+00,7.743e+00,8.157e+00,8.197e+00,9.163e+00,8.811e+00,8.493e+00,8.531e+00,8.985e+00,9.105e+00,8.981e+00,1.106e+01,9.080e+00,1.205e+01,1.107e+01,1.075e+01,1.085e+01,1.041e+01,1.106e+01,1.175e+01,1.338e+01,1.268e+01,1.337e+01,1.133e+01,1.244e+01,1.379e+01,1.501e+01,1.280e+01,1.151e+01,1.457e+01,1.588e+01,1.516e+01,1.546e+01,1.385e+01,1.754e+01,1.298e+01,1.246e+01,1.541e+01,1.480e+01,1.355e+01,1.627e+01,1.449e+01,1.333e+01,1.816e+01,1.416e+01
2.484e-02,3.798e-01,7.463e-01,1.530e+00,1.519e+00,1.285e+00,7.267e-01,2.748e+00,1.958e+00,2.424e+00,3.329e+00,4.656e+00,3.076e+00,3.580e+00,4.011e+00,3.339e+00,3.290e+00,5.848e+00,6.162e+00,4.448e+00,7.534e+00,5.914e+00,6.264e+00,6.104e+00,7.375e+00,7.513e+00,8.004e+00,7.963e+00,7.494e+00,8.949e+00,8.391e+00,8.923e+00,9.120e+00,8.995e+00,1.049e+01,1.085e+01,1.297e+01,1.133e+01,9.872e+00,1.115e+01,9.868e+00,1.064e+01,1.220e+01,1.332e+01,1.367e+01,1.318e+01,1.183e+01,1.321e+01,1.506e+01,1.393e+01,1.378e+01,1.221e+01,1.324e+01,1.566e+01,1.458e+01,1.625e+01,1.429e+01,1.745e+01,1.452e+01,1.491e+01,1.625e+01,1.379e+01,1.372e+01,1.418e+01,1.486e+01,1.464e+01,1.716e+01,1.604e+01
1.920e-02,2.084e-01,4.758e-01,1.310e+00,2.062e+00,1.604e+00,7.336e-01,2.824e+00,2.249e+00,2.642e+00,2.428e+00,4.215e+00,2.964e+00,3.151e+00,3.500e+00,2.947e+00,3.041e+00,5.320e+00,5.660e+00,5.487e+00,5.841e+00,5.156e+00,5.392e+00,5.381e+00,6.592e+00,6.936e+00,7.680e+00,7.783e+00,7.774e+00,9.157e+00,8.371e+00,9.485e+00,9.590e+00,9.032e+00,9.405e+00,1.082e+01,1.298e+01,1.049e+01,1.041e+01,1.036e+01,1.094e+01,1.166e+01,1.065e+01,1.320e+01,1.284e+01,1.305e+01,1.235e+01,1.327e+01,1.493e+01,1.505e+01,1.555e+01,1.306e+01,1.394e+01,1.560e+01,1.635e+01,1.668e+01,1.531e+01,1.762e+01,1.565e+01,1.512e+01,1.570e+01,1.519e+01,1.482e+01,1.637e+01,1.649e+01,1.433e+01,1.866e+01,1.788e+01
1.065e-02,1.838e-01,4.331e-01,1.161e+00,1.707e+00,1.554e+00,1.007e+00,2.614e+00,1.980e+00,2.964e+00,3.194e+00,4.809e+00,3.816e+00,3.150e+00,4.426e+00,3.550e+00,4.116e+00,5.383e+00,5.492e+00,4.258e+00,6.673e+00,5.523e+00,6.280e+00,5.949e+00,6.625e+00,6.680e+00,7.255e+00,8.172e+00,8.844e+00,9.402e+00,8.166e+00,8.642e+00,8.528e+00,9.383e+00,1.022e+01,1.001e+01,1.167e+01,1.140e+01,9.650e+00,1.085e+01,9.849e+00,1.151e+01,1.101e+01,1.393e+01,1.322e+01,1.318e+01,1.167e+01,1.291e+01,1.398e+01,1.378e+01,1.379e+01,1.209e+01,1.276e+01,1.492e+01,1.438e+01,1.618e+01,1.403e+01,1.664e+01,1.257e+01,1.350e+01,1.611e+01,1.467e+01,1.544e+01,1.503e+01,1.457e+01,1.461e+01,1.679e+01,1.558e+01
1.551e-02,2.135e-01,5.363e-01,1.383e+00,2.149e+00,1.804e+00,7.383e-01,2.603e+00,2.329e+00,2.793e+00,2.737e+00,4.356e+00,3.159e+00,2.638e+00,3.355e+00,2.876e+00,2.886e+00,4.839e+00,4.697e+00,4.329e+00,5.639e+00,4.927e+00,5.712e+00,5.590e+00,6.638e+00,7.076e+00,7.315e+00,7.822e+00,8.744e+00,8.576e+00,8.140e+00,8.375e+00,8.797e+00,8.462e+00,9.257e+00,8.895e+00,1.131e+01,1.028e+01,9.329e+00,8.285e+00,9.252e+00,9.948e+00,1.071e+01,1.148e+01,1.203e+01,1.124e+01,1.015e+01,1.165e+01,1.208e+01,1.192e+01,1.220e+01,1.045e+01,1.278e+01,1.417e+01,1.372e+01,1.401e+01,1.263e+01,1.459e+01,1.218e+01,1.282e+01,1.434e+01,1.367e+01,1.276e+01,1.425e+01,1.409e+01,1.127e+01,1.662e+01,1.464e+01
3.279e-03,1.591e-01,5.516e-01,9.135e-01,1.683e+00,1.526e+00,8.985e-01,2.292e+00,2.013e+00,2.261e+00,3.380e+00,4.404e+00,3.221e+00,2.687e+00,3.623e+00,3.199e+00,3.139e+00,5.515e+00,5.411e+00,5.277e+00,6.139e+00,5.284e+00,5.529e+00,6.308e+00,6.876e+00,7.362e+00,8.353e+00,8.596e+00,9.460e+00,8.463e+00,7.600e+00,9.370e+00,1.054e+01,9.941e+00,9.733e+00,8.821e+00,1.147e+01,1.043e+01,9.237e+00,9.626e+00,1.128e+01,1.084e+01,1.164e+01,1.335e+01,1.298e+01,1.279e+01,1.058e+01,1.248e+01,1.355e+01,1.362e+01,1.451e+01,1.177e+01,1.254e+01,1.597e+01,1.584e+01,1.569e+01,1.389e+01,1.676e+01,1.392e+01,1.519e+01,1.555e+01,1.505e+01,1.558e+01,1.706e+01,1.699e+01,1.415e+01,1.926e+01,1.712e+01
2.611e-02,3.374e-01,6.565e-01,1.350e+00,2.210e+00,2.132e+00,1.381e+00,3.682e+00,2.042e+00,2.822e+00,2.049e+00,4.316e+00,3.291e+00,2.932e+00,2.605e+00,3.041e+00,3.365e+00,4.512e+00,4.565e+00,3.987e+00,4.985e+00,4.733e+00,5.111e+00,5.444e+00,6.520e+00,6.591e+00,7.185e+00,8.363e+00,7.036e+00,8.009e+00,7.509e+00,8.665e+00,8.654e+00,7.451e+00,9.243e+00,8.896e+00,1.095e+01,9.697e+00,9.009e+00,9.203e+00,9.749e+00,1.084e+01,1.007e+01,1.330e+01,1.263e+01,1.132e+01,1.185e+01,1.245e+01,1.393e+01,1.386e+01,1.284e+01,1.092e+01,1.402e+01,1.453e+01,1.458e+01,1.629e+01,1.385e+01,1.614e+01,1.316e+01,1.416e+01,1.649e+01,1.606e+01,1.470e+01,1.645e+01,1.596e+01,1.459e+01,1.872e+01,1.578e+01
1.240e-02,1.961e-01,4.555e-01,6.506e-01,9.002e-01,9.277e-01,7.160e-01,1.847e+00,1.425e+00,1.946e+00,1.885e+00,2.918e+00,1.948e+00,1.908e+00,2.484e+00,1.630e+00,1.991e+00,4.272e+00,3.865e+00,3.763e+00,5.306e+00,4.921e+00,5.275e+00,4.349e+00,5.322e+00,5.974e+00,6.324e+00,6.889e+00,6.064e+00,7.566e+00,5.971e+00,7.466e+00,6.645e+00,7.645e+00,7.694e+00,8.345e+00,9.435e+00,7.964e+00,7.437e+00,8.170e+00,8.700e+00,9.308e+00,8.537e+00,1.066e+01,1.123e+01,1.006e+01,1.036e+01,1.156e+01,1.254e+01,1.208e+01,1.221e+01,1.074e+01,1.032e+01,1.313e+01,1.286e+01,1.404e+01,1.186e+01,1.430e+01,1.167e+01,1.343e+01,1.485e+01,1.365e+01,1.471e+01,1.383e+01,1.515e+01,1.338e+01,1.760e+01,1.381e+01
1.646e-03,1.628e-01,5.464e-01,7.702e-01,2.021e+00,1.738e+00,1.128e+00,2.662e+00,1.505e+00,2.060e+00,2.655e+00,4.217e+00,3.479e+00,2.445e+00,3.090e+00,3.093e+00,2.888e+00,4.479e+00,3.436e+00,3.543e+00,5.324e+00,4.698e+00,4.495e+00,4.964e+00,6.223e+00,5.720e+00,6.241e+00,6.594e+00,7.365e+00,6.458e+00,6.357e+00,6.429e+00,6.697e+00,6.932e+00,7.565e+00,8.204e+00,9.457e+00,9.269e+00,7.875e+00,9.151e+00,7.834e+00,8.871e+00,8.762e+00,1.089e+01,1.072e+01,9.392e+00,1.063e+01,1.012e+01,1.181e+01,1.133e+01,1.188e+01,1.038e+01,1.072e+01,1.238e+01,1.235e+01,1.258e+01,1.310e+01,1.437e+01,1.105e+01,1.326e+01,1.461e+01,1.494e+01,1.542e+01,1.478e+01,1.515e+01,1.328e+01,1.734e+01,1.506e+01
1.108e-02,1.230e-01,3.112e-01,5.002e-01,1.785e+00,1.413e+00,6.880e-01,2.389e+00,1.477e+00,2.426e+00,2.338e+00,3.775e+00,3.134e+00,2.197e+00,3.489e+00,2.624e+00,3.266e+00,4.876e+00,4.615e+00,4.410e+00,4.793e+00,4.832e+00,5.290e+00,4.868e+00,6.835e+00,6.248e+00,6.935e+00,6.690e+00,8.075e+00,8.340e+00,7.341e+00,7.286e+00,9.056e+00,8.593e+00,8.884e+00,9.243e+00,1.072e+01,1.035e+01,8.747e+00,1.001e+01,8.489e+00,1.046e+01,9.807e+00,1.211e+01,1.148e+01,1.119e+01,1.011e+01,1.013e+01,1.275e+01,1.299e+01,1.349e+01,1.013e+01,1.233e+01,1.497e+01,1.348e+01,1.362e+01,1.373e+01,1.697e+01,1.367e+01,1.362e+01,1.524e+01,1.425e+01,1.481e+01,1.600e+01,1.638e+01,1.548e+01,1.867e+01,1.613e+01
3.147e-02,4.113e-01,7.856e-01,1.542e+00,1.901e+00,2.011e+00,8.830e-01,3.194e+00,2.510e+00,2.958e+00,3.289e+00,4.498e+00,2.701e+00,2.829e+00,3.570e+00,2.665e+00,2.415e+00,5.692e+00,4.975e+00,4.330e+00,6.664e+00,5.911e+00,5.918e+00,5.160e+00,6.574e+00,6.579e+00,7.581e+00,8.459e+00,7.412e+00,7.750e+00,6.850e+00,8.286e+00,7.773e+00,8.386e+00,9.395e+00,9.691e+00,1.155e+01,9.723e+00,9.354e+00,1.040e+01,8.817e+00,9.447e+00,1.036e+01,1.222e+01,1.259e+01,1.163e+01,1.057e+01,1.275e+01,1.444e+01,1.272e+01,1.459e+01,1.238e+01,1.315e+01,1.559e+01,1.412e+01,1.602e+01,1.552e+01,1.703e+01,1.338e+01,1.484e+01,1.574e+01,1.678e+01,1.554e+01,1.799e+01,1.810e+01,1.677e+01,1.968e+01,1.868e+01
1.212e-02,1.521e-01,3.071e-01,1.078e+00,2.108e+00,2.347e+00,1.021e+00,3.146e+00,2.302e+00,2.915e+00,3.426e+00,4.577e+00,3.551e+00,2.427e+00,3.208e+00,3.299e+00,3.367e+00,5.995e+00,5.819e+00,4.392e+00,5.009e+00,5.096e+00,5.760e+00,5.599e+00,7.187e+00,6.652e+00,6.302e+00,8.136e+00,8.219e+00,7.717e+00,7.094e+00,7.581e+00,8.699e+00,8.268e+00,8.389e+00,7.415e+00,1.036e+01,9.961e+00,8.349e+00,9.008e+00,9.240e+00,8.922e+00,8.516e+00,1.056e+01,1.095e+01,1.212e+01,9.500e+00,9.800e+00,1.197e+01,1.202e+01,1.167e+01,1.105e+01,1.249e+01,1.285e+01,1.300e+01,1.267e+01,1.278e+01,1.599e+01,1.357e+01,1.400e+01,1.603e+01,1.566e+01,1.555e+01,1.516e+01,1.677e+01,1.451e+01,1.915e+01,1.621e+01
6.454e-03,6.905e-02,2.015e-01,9.746e-01,1.928e+00,1.436e+00,7.857e-01,2.379e+00,1.682e+00,2.676e+00,2.533e+00,4.206e+00,3.020e+00,2.804e+00,4.347e+00,2.929e+00,3.983e+00,4.976e+00,5.064e+00,4.926e+00,6.043e+00,4.661e+00,5.701e+00,5.844e+00,6.988e+00,6.798e+00,7.768e+00,7.413e+00,8.580e+00,8.419e+00,7.924e+00,7.746e+00,8.458e+00,7.853e+00,9.207e+00,8.899e+00,1.065e+01,1.088e+01,1.057e+01,1.033e+01,9.431e+00,1.079e+01,1.063e+01,1.202e+01,1.182e+01,1.334e+01,1.121e+01,1.230e+01,1.281e+01,1.410e+01,1.360e+01,1.085e+01,1.230e+01,1.343e+01,1.350e+01,1.409e+01,1.260e+01,1.615e+01,1.331e+01,1.334e+01,1.588e+01,1.572e+01,1.615e+01,1.487e+01,1.543e+01,1.623e+01,1.849e+01,1.626e+01
1.122e-02,1.545e-01,2.903e-01,5.255e-01,1.252e+00,1.229e+00,6.284e-01,1.660e+00,6.784e-01,1.185e+00,1.755e+00,2.865e+00,2.588e+00,1.784e+00,2.473e+00,2.494e+00,3.072e+00,3.649e+00,4.276e+00,4.157e+00,5.476e+00,4.440e+00,5.620e+00,5.638e+00,7.476e+00,6.899e+00,7.011e+00,7.619e+00,7.461e+00,7.309e+00,7.293e+00,7.371e+00,9.105e+00,8.529e+00,9.746e+00,8.426e+00,1.028e+01,9.875e+00,8.672e+00,1.001e+01,9.561e+00,1.021e+01,9.824e+00,1.268e+01,1.239e+01,1.154e+01,1.090e+01,1.075e+01,1.266e+01,1.319e+01,1.266e+01,1.114e+01,1.283e+01,1.501e+01,1.387e+01,1.446e+01,1.379e+01,1.632e+01,1.371e+01,1.537e+01,1.616e+01,1.669e+01,1.567e+01,1.773e+01,1.658e+01,1.533e+01,2.070e+01,1.785e+01
1.988e-02,2.642e-01,5.523e-01,1.148e+00,1.933e+00,1.604e+00,9.050e-01,2.573e+00,1.688e+00,2.646e+00,2.173e+00,3.985e+00,3.316e+00,2.880e+00,3.947e+00,3.106e+00,3.442e+00,4.938e+00,5.202e+00,4.866e+00,6.962e+00,5.811e+00,6.156e+00,5.965e+00,7.200e+00,7.248e+00,8.172e+00,7.884e+00,8.558e+00,8.540e+00,8.609e+00,8.340e+00,9.511e+00,9.331e+00,1.052e+01,9.571e+00,1.159e+01,1.037e+01,9.102e+00,9.887e+00,1.034e+01,1.017e+01,1.029e+01,1.185e+01,1.229e+01,1.211e+01,1.042e+01,1.166e+01,1.320e+01,1.241e+01,1.252e+01,1.088e+01,1.337e+01,1.346e+01,1.452e+01,1.556e+01,1.414e+01,1.630e+01,1.363e+01,1.485e+01,1.699e+01,1.530e+01,1.457e+01,1.824e+01,1.662e+01,1.491e+01,1.975e+01,1.762e+01
