6.022e-01,3.723e-01,2.960e-01,8.464e-01,1.900e-02,1.955e-01,5.179e-01,6.382e-01,4.701e-01,8.966e-01,4.698e-02,4.669e-01,7.720e-01,7.873e-01,2.748e-01,4.360e-01,4.701e-01,9.531e-01,5.399e-01,5.146e-01,5.674e-01,1.974e-01,9.957e-01,1.191e-02,9.884e-01,4.061e-01,5.033e-01,6.918e-02,8.874e-02,5.496e-02,8.267e-02,8.887e-01,2.340e-01,8.342e-01,7.449e-01,8.030e-01,6.158e-01,2.962e-01,4.681e-02,5.093e-01,4.636e-01,5.886e-01,8.088e-01,1.451e-02,4.551e-01,5.659e-01,2.749e-01,1.388e-02,4.273e-01,3.476e-01,7.694e-01,8.462e-01,9.355e-02,7.150e-01,1.889e-01,2.538e-01,6.842e-01,2.344e-01,8.022e-01,1.394e-01,9.377e-01,8.624e-03,1.480e-01,8.148e-01,1.197e-01,3.389e-01,7.957e-01,6.516e-01,6.338e-01,6.130e-01,5.148e-01,7.954e-02,6.347e-01,7.600e-01,5.402e-01,1.842e-01
3.056e-01,3.914e-01,4.734e-01,8.325e-01,4.414e-01,7.513e-01,9.174e-01,4.172e-01,7.003e-01,1.444e+00,7.940e-01,8.430e-01,1.326e+00,4.885e-01,8.631e-01,6.663e-01,8.813e-01,1.407e+00,9.979e-01,3.010e-01,8.716e-01,7.321e-01,9.901e-01,4.703e-01,1.490e+00,9.959e-01,6.058e-01,4.435e-01,4.854e-01,6.515e-01,5.999e-01,7.124e-01,1.671e-01,1.037e+00,5.128e-01,9.673e-01,1.162e+00,6.131e-01,1.876e-01,4.755e-01,7.992e-01,8.741e-01,1.209e+00,1.329e-02,3.887e-01,1.063e+00,4.869e-01,2.167e-01,7.786e-01,8.053e-01,1.109e+00,8.643e-01,3.116e-01,5.890e-01,5.048e-01,7.154e-01,1.047e+00,7.189e-01,4.921e-01,1.923e-01,1.282e+00,3.425e-01,6.810e-01,6.172e-01,6.881e-02,5.902e-01,1.337e+00,4.246e-01,1.283e+00,3.959e-01,2.875e-01,6.351e-01,3.372e-01,1.006e+00,9.807e-01,1.002e+00
3.714e-01,4.319e-01,1.258e+00,1.069e+00,5.610e-01,1.197e+00,1.294e+00,5.120e-01,1.738e+00,2.329e+00,1.555e+00,1.099e+00,1.790e+00,8.185e-01,9.532e-01,9.662e-01,1.268e+00,2.244e+00,1.961e+00,1.267e+00,1.116e+00,1.569e+00,1.517e+00,5.761e-01,2.217e+00,1.441e+00,1.376e+00,1.160e+00,1.225e+00,1.624e+00,1.580e+00,1.689e+00,7.017e-01,1.408e+00,8.454e-01,1.455e+00,1.704e+00,1.267e+00,2.340e-01,1.192e+00,1.394e+00,1.053e+00,1.953e+00,5.887e-01,8.922e-01,1.181e+00,9.985e-01,7.114e-01,1.648e+00,1.347e+00,1.250e+00,1.833e+00,9.970e-01,8.192e-01,1.273e+00,7.943e-01,1.281e+00,1.050e+00,9.995e-01,4.986e-01,2.321e+00,8.080e-01,1.628e+00,1.627e+00,1.072e+00,1.190e+00,2.216e+00,1.004e+00,2.347e+00,1.268e+00,5.622e-01,1.011e+00,5.837e-01,1.331e+00,1.877e+00,1.965e+00
8.269e-02,2.172e-01,9.165e-01,7.298e-01,8.906e-01,1.890e+00,1.037e+00,1.874e-01,1.472e+00,2.106e+00,2.122e+00,1.648e+00,1.445e+00,1.100e+00,6.898e-01,7.805e-01,1.151e+00,1.832e+00,1.722e+00,1.729e+00,1.559e+00,1.453e+00,1.502e+00,8.555e-01,1.899e+00,1.989e+00,1.471e+00,1.916e+00,1.049e+00,2.293e+00,1.486e+00,1.804e+00,1.026e+00,1.669e+00,1.197e+00,1.160e+00,2.138e+00,1.737e+00,9.000e-01,1.267e+00,1.798e+00,1.590e+00,2.069e+00,5.390e-01,8.344e-01,1.581e+00,9.109e-01,7.810e-01,1.662e+00,1.849e+00,1.061e+00,2.158e+00,1.066e+00,1.147e+00,1.352e+00,8.433e-01,1.759e+00,1.548e+00,6.750e-01,1.326e+00,1.820e+00,7.576e-01,2.243e+00,1.167e+00,1.751e+00,1.207e+00,2.456e+00,1.358e+00,2.360e+00,1.558e+00,1.186e+00,1.256e+00,6.230e-01,1.743e+00,1.867e+00,2.030e+00
5.456e-01,5.212e-01,1.149e+00,1.316e+00,1.171e+00,1.992e+00,1.987e+00,8.714e-01,1.992e+00,3.004e+00,2.385e+00,1.766e+00,2.732e+00,2.005e+00,1.692e+00,2.045e+00,1.873e+00,2.970e+00,2.078e+00,2.590e+00,2.342e+00,1.531e+00,2.369e+00,1.421e+00,2.601e+00,2.231e+00,1.992e+00,2.013e+00,1.293e+00,2.203e+00,2.176e+00,2.198e+00,1.459e+00,2.239e+00,2.248e+00,2.317e+00,2.843e+00,1.984e+00,6.683e-01,1.644e+00,1.978e+00,2.259e+00,2.720e+00,9.412e-01,1.260e+00,2.249e+00,1.116e+00,1.011e+00,1.949e+00,2.216e+00,2.208e+00,2.287e+00,1.624e+00,2.187e+00,1.857e+00,1.210e+00,2.505e+00,2.323e+00,2.179e+00,1.130e+00,2.527e+00,1.353e+00,2.136e+00,1.793e+00,1.452e+00,1.868e+00,2.945e+00,1.788e+00,3.297e+00,2.124e+00,1.175e+00,1.178e+00,1.372e+00,2.760e+00,2.457e+00,2.515e+00
1.332e-01,1.260e-01,8.410e-01,5.153e-01,6.164e-01,1.923e+00,1.627e+00,4.620e-01,1.635e+00,1.701e+00,2.485e+00,1.491e+00,1.494e+00,1.156e+00,6.332e-01,1.384e+00,1.406e+00,1.805e+00,1.882e+00,2.485e+00,2.047e+00,1.957e+00,1.413e+00,1.536e+00,1.553e+00,2.357e+00,1.776e+00,2.495e+00,1.287e+00,2.574e+00,2.183e+00,1.911e+00,1.252e+00,1.246e+00,2.024e+00,1.143e+00,1.880e+00,2.106e+00,1.243e+00,1.263e+00,1.467e+00,1.295e+00,1.834e+00,1.498e+00,1.156e+00,1.852e+00,1.088e+00,1.626e+00,2.309e+00,2.340e+00,1.573e+00,2.120e+00,1.127e+00,1.865e+00,1.342e+00,6.299e-01,1.864e+00,1.622e+00,1.944e+00,1.072e+00,2.291e+00,1.737e+00,2.461e+00,1.283e+00,2.257e+00,1.938e+00,2.615e+00,1.999e+00,2.209e+00,2.346e+00,9.551e-01,8.869e-01,1.529e+00,1.934e+00,2.081e+00,1.963e+00
8.646e-02,8.298e-02,3.427e-01,3.323e-01,7.553e-01,1.629e+00,1.375e+00,1.073e+00,1.929e+00,1.435e+00,2.095e+00,2.097e+00,1.959e+00,1.500e+00,9.708e-01,2.347e+00,1.625e+00,2.094e+00,1.188e+00,2.240e+00,2.675e+00,1.764e+00,1.574e+00,1.617e+00,1.288e+00,2.557e+00,1.680e+00,2.131e+00,1.555e+00,2.478e+00,1.742e+00,1.830e+00,1.697e+00,1.750e+00,2.320e+00,1.666e+00,1.796e+00,1.818e+00,1.536e+00,1.580e+00,1.732e+00,1.659e+00,1.930e+00,1.579e+00,1.077e+00,2.189e+00,1.200e+00,1.646e+00,2.455e+00,2.338e+00,1.806e+00,2.259e+00,1.487e+00,2.107e+00,2.084e+00,1.406e+00,2.302e+00,1.877e+00,2.239e+00,1.308e+00,1.918e+00,1.775e+00,2.697e+00,1.501e+00,2.183e+00,2.352e+00,2.390e+00,1.718e+00,2.029e+00,2.772e+00,1.146e+00,1.066e+00,1.768e+00,2.886e+00,1.661e+00,1.609e+00
1.284e-01,1.993e-01,3.000e-01,5.591e-01,8.911e-01,1.532e+00,1.036e+00,1.662e+00,2.404e+00,2.271e+00,2.565e+00,2.169e+00,2.612e+00,1.575e+00,1.200e+00,2.507e+00,1.991e+00,2.769e+00,1.553e+00,2.180e+00,2.611e+00,1.344e+00,2.044e+00,1.422e+00,2.431e+00,3.031e+00,1.368e+00,2.006e+00,1.162e+00,2.594e+00,1.643e+00,1.789e+00,2.024e+00,2.632e+00,1.750e+00,2.330e+00,2.088e+00,1.876e+00,1.385e+00,2.344e+00,2.664e+00,2.545e+00,2.057e+00,1.440e+00,1.473e+00,2.520e+00,1.471e+00,1.415e+00,2.668e+00,2.551e+00,1.575e+00,2.080e+00,1.605e+00,2.627e+00,2.240e+00,1.629e+00,3.161e+00,2.683e+00,1.689e+00,2.129e+00,1.700e+00,1.073e+00,3.207e+00,1.427e+00,1.904e+00,2.328e+00,2.838e+00,2.001e+00,2.928e+00,2.329e+00,2.182e+00,1.492e+00,2.120e+00,2.922e+00,2.057e+00,1.522e+00
5.367e-01,4.273e-01,8.944e-01,1.180e+00,1.098e+00,2.487e+00,2.288e+00,1.960e+00,3.452e+00,3.370e+00,4.654e+00,3.244e+00,3.984e+00,2.838e+00,2.237e+00,3.708e+00,2.825e+00,4.189e+00,3.495e+00,4.737e+00,3.895e+00,2.921e+00,3.685e+00,2.609e+00,3.593e+00,4.028e+00,2.445e+00,3.972e+00,2.513e+00,3.997e+00,3.235e+00,3.810e+00,2.884e+00,3.396e+00,3.880e+00,3.458e+00,3.189e+00,3.888e+00,1.821e+00,2.871e+00,3.704e+00,3.373e+00,3.188e+00,2.349e+00,2.262e+00,3.855e+00,2.847e+00,2.289e+00,4.185e+00,3.760e+00,3.263e+00,3.953e+00,2.420e+00,4.212e+00,2.625e+00,2.382e+00,4.763e+00,3.710e+00,4.045e+00,3.312e+00,3.396e+00,2.601e+00,4.042e+00,2.642e+00,3.376e+00,3.408e+00,5.200e+00,3.404e+00,5.007e+00,4.510e+00,2.920e+00,2.224e+00,3.712e+00,4.228e+00,3.476e+00,2.691e+00
3.066e-01,2.044e-01,2.823e-01,4.864e-01,2.194e-01,7.777e-01,1.086e+00,8.138e-01,1.261e+00,1.026e+00,2.209e+00,1.500e+00,2.398e+00,1.427e+00,1.280e+00,1.900e+00,1.726e+00,1.700e+00,1.533e+00,2.127e+00,2.110e+00,2.340e+00,1.973e+00,1.150e+00,1.750e+00,2.379e+00,1.901e+00,1.944e+00,1.337e+00,2.118e+00,2.068e+00,1.841e+00,1.417e+00,1.860e+00,2.571e+00,2.110e+00,1.506e+00,2.446e+00,1.358e+00,9.741e-01,1.370e+00,9.514e-01,1.624e+00,1.252e+00,1.158e+00,2.150e+00,1.860e+00,1.072e+00,2.105e+00,1.519e+00,2.313e+00,2.083e+00,1.791e+00,2.376e+00,1.252e+00,1.362e+00,1.779e+00,1.980e+00,2.972e+00,1.027e+00,1.906e+00,1.954e+00,2.224e+00,1.816e+00,2.093e+00,1.887e+00,2.470e+00,1.820e+00,1.896e+00,2.401e+00,1.212e+00,8.242e-01,2.519e+00,1.910e+00,1.198e+00,9.616e-01
5.376e-01,4.798e-01,1.042e+00,1.290e+00,9.435e-01,2.117e+00,1.775e+00,1.748e+00,3.060e+00,3.174e+00,3.953e+00,3.831e+00,4.548e+00,2.684e+00,2.442e+00,3.133e+00,3.666e+00,4.453e+00,3.022e+00,4.005e+00,3.841e+00,3.371e+00,3.924e+00,1.938e+00,4.302e+00,5.035e+00,3.460e+00,3.103e+00,2.186e+00,3.854e+00,3.647e+00,3.641e+00,2.556e+00,4.465e+00,3.103e+00,4.009e+00,3.962e+00,3.809e+00,2.962e+00,3.245e+00,3.253e+00,3.600e+00,3.876e+00,2.655e+00,2.276e+00,4.048e+00,2.820e+00,2.294e+00,3.703e+00,3.857e+00,3.242e+00,3.903e+00,3.322e+00,3.824e+00,3.610e+00,2.266e+00,4.170e+00,4.071e+00,3.969e+00,2.311e+00,4.139e+00,2.652e+00,4.954e+00,3.399e+00,3.493e+00,3.880e+00,4.472e+00,3.023e+00,3.951e+00,4.350e+00,3.033e+00,2.742e+00,3.940e+00,4.562e+00,3.357e+00,3.265e+00
3.661e-01,2.664e-01,7.067e-01,7.950e-01,7.277e-01,1.645e+00,1.377e+00,1.039e+00,1.995e+00,2.051e+00,2.829e+00,3.182e+00,3.604e+00,2.128e+00,2.227e+00,2.552e+00,2.553e+00,3.315e+00,2.401e+00,4.143e+00,3.520e+00,3.065e+00,2.907e+00,2.113e+00,2.809e+00,3.679e+00,3.480e+00,3.393e+00,2.208e+00,3.195e+00,2.781e+00,2.816e+00,2.490e+00,3.520e+00,2.898e+00,2.898e+00,3.723e+00,3.365e+00,2.916e+00,2.740e+00,2.445e+00,3.319e+00,3.382e+00,2.658e+00,2.560e+00,3.613e+00,2.446e+00,1.622e+00,2.695e+00,3.306e+00,2.451e+00,3.410e+00,2.757e+00,3.576e+00,2.911e+00,1.919e+00,3.085e+00,2.978e+00,3.147e+00,1.888e+00,3.449e+00,2.193e+00,3.933e+00,2.520e+00,2.766e+00,2.806e+00,3.542e+00,3.035e+00,2.903e+00,3.752e+00,2.291e+00,1.705e+00,3.190e+00,4.063e+00,2.879e+00,3.091e+00
4.765e-01,4.954e-01,9.311e-01,1.235e+00,7.504e-01,1.944e+00,1.827e+00,1.623e+00,3.010e+00,2.926e+00,3.901e+00,4.117e+00,4.595e+00,2.352e+00,3.033e+00,3.240e+00,3.215e+00,4.563e+00,4.659e+00,4.760e+00,4.236e+00,4.886e+00,4.580e+00,2.602e+00,4.967e+00,5.341e+00,3.408e+00,3.988e+00,3.414e+00,4.393e+00,3.215e+00,3.975e+00,3.270e+00,4.404e+00,3.758e+00,3.777e+00,3.898e+00,4.758e+00,3.019e+00,3.869e+00,4.086e+00,4.744e+00,4.382e+00,3.720e+00,3.522e+00,4.819e+00,3.561e+00,2.534e+00,4.101e+00,4.672e+00,3.495e+00,4.493e+00,2.812e+00,4.658e+00,3.333e+00,3.642e+00,4.444e+00,3.683e+00,4.085e+00,3.342e+00,5.159e+00,2.710e+00,5.202e+00,3.314e+00,3.628e+00,3.747e+00,5.312e+00,3.722e+00,4.590e+00,5.137e+00,3.682e+00,2.884e+00,3.896e+00,5.108e+00,4.103e+00,4.253e+00
3.592e-01,3.293e-01,1.075e+00,8.926e-01,5.072e-01,1.628e+00,1.748e+00,1.416e+00,3.032e+00,2.519e+00,3.970e+00,3.361e+00,4.262e+00,2.307e+00,3.098e+00,3.653e+00,3.074e+00,4.943e+00,5.049e+00,4.708e+00,4.032e+00,5.013e+00,4.150e+00,3.327e+00,4.468e+00,4.740e+00,3.746e+00,4.820e+00,3.708e+00,4.783e+00,4.329e+00,4.102e+00,3.778e+00,4.656e+00,4.309e+00,4.060e+00,3.681e+00,4.636e+00,2.782e+00,3.491e+00,4.193e+00,3.511e+00,4.358e+00,4.011e+00,4.059e+00,4.280e+00,4.188e+00,2.967e+00,4.457e+00,4.046e+00,4.080e+00,4.592e+00,4.008e+00,4.672e+00,4.122e+00,3.207e+00,3.896e+00,3.663e+00,4.867e+00,3.589e+00,5.542e+00,3.031e+00,5.156e+00,4.068e+00,4.802e+00,3.639e+00,5.321e+00,4.379e+00,5.091e+00,5.122e+00,3.177e+00,3.364e+00,4.923e+00,4.918e+00,4.482e+00,3.981e+00
5.591e-01,3.813e-01,5.683e-01,9.289e-01,2.804e-01,1.124e+00,1.450e+00,1.706e+00,2.524e+00,2.026e+00,3.208e+00,2.599e+00,3.542e+00,2.185e+00,2.517e+00,3.223e+00,3.053e+00,3.321e+00,3.495e+00,3.592e+00,4.109e+00,3.913e+00,3.784e+00,1.846e+00,4.099e+00,5.014e+00,3.280e+00,2.981e+00,2.631e+00,3.504e+00,2.771e+00,3.305e+00,2.876e+00,3.200e+00,4.568e+00,4.106e+00,2.859e+00,4.325e+00,2.606e+00,2.846e+00,3.326e+00,3.449e+00,3.216e+00,3.622e+00,2.770e+00,4.197e+00,3.159e+00,3.047e+00,4.053e+00,3.496e+00,3.624e+00,3.471e+00,2.835e+00,4.029e+00,2.570e+00,3.524e+00,3.835e+00,3.621e+00,4.455e+00,3.140e+00,3.687e+00,2.937e+00,4.137e+00,3.884e+00,3.256e+00,3.344e+00,4.257e+00,3.775e+00,4.275e+00,4.837e+00,2.945e+00,2.113e+00,4.692e+00,3.977e+00,2.710e+00,2.804e+00
7.205e-03,3.869e-02,4.332e-01,3.087e-01,6.873e-01,1.471e+00,7.091e-01,8.636e-01,1.928e+00,1.581e+00,2.992e+00,2.898e+00,3.123e+00,2.143e+00,2.433e+00,2.805e+00,3.644e+00,3.514e+00,3.273e+00,4.007e+00,4.167e+00,4.512e+00,3.681e+00,2.363e+00,4.025e+00,5.743e+00,3.748e+00,3.760e+00,2.774e+00,4.717e+00,3.863e+00,3.394e+00,3.624e+00,4.159e+00,4.480e+00,3.741e+00,3.781e+00,5.242e+00,3.286e+00,3.221e+00,4.024e+00,4.911e+00,4.188e+00,4.178e+00,3.148e+00,4.398e+00,3.241e+00,3.569e+00,3.341e+00,4.195e+00,3.687e+00,3.963e+00,4.042e+00,4.481e+00,4.497e+00,3.835e+00,3.560e+00,4.899e+00,4.017e+00,3.619e+00,4.448e+00,2.717e+00,5.402e+00,3.684e+00,4.068e+00,3.738e+00,4.046e+00,4.603e+00,4.542e+00,4.817e+00,4.303e+00,2.997e+00,4.524e+00,5.163e+00,3.477e+00,4.378e+00
1.477e-01,1.864e-01,7.281e-01,5.562e-01,5.006e-01,1.502e+00,1.383e+00,1.480e+00,2.700e+00,2.066e+00,3.273e+00,3.025e+00,3.321e+00,1.668e+00,2.354e+00,3.046e+00,3.678e+00,4.855e+00,4.388e+00,4.298e+00,4.579e+00,3.886e+00,4.113e+00,2.707e+00,4.085e+00,5.609e+00,3.013e+00,4.153e+00,3.152e+00,3.919e+00,3.752e+00,3.173e+00,2.999e+00,3.927e+00,3.988e+00,4.025e+00,3.079e+00,3.635e+00,3.828e+00,3.917e+00,4.093e+00,3.901e+00,3.642e+00,4.653e+00,3.035e+00,4.698e+00,3.025e+00,3.830e+00,3.909e+00,4.405e+00,3.474e+00,3.244e+00,3.301e+00,4.083e+00,4.592e+00,3.429e+00,4.070e+00,3.785e+00,4.480e+00,3.535e+00,5.045e+00,2.717e+00,5.122e+00,3.257e+00,4.157e+00,4.267e+00,4.181e+00,3.364e+00,4.746e+00,4.476e+00,3.806e+00,3.099e+00,4.399e+00,5.207e+00,4.430e+00,4.256e+00
2.879e-01,2.578e-01,6.062e-01,6.661e-01,5.082e-01,1.116e+00,1.152e+00,8.194e-01,1.671e+00,1.620e+00,2.302e+00,2.704e+00,3.045e+00,1.855e+00,2.847e+00,2.674e+00,2.852e+00,5.211e+00,4.923e+00,4.787e+00,4.729e+00,4.753e+00,4.756e+00,3.652e+00,3.800e+00,4.739e+00,3.947e+00,4.454e+00,3.654e+00,3.848e+00,4.279e+00,3.344e+00,3.614e+00,4.000e+00,4.366e+00,4.186e+00,4.034e+00,4.268e+00,3.038e+00,4.213e+00,3.987e+00,4.712e+00,4.735e+00,4.859e+00,3.874e+00,4.427e+00,3.300e+00,3.074e+00,2.846e+00,3.754e+00,4.556e+00,4.052e+00,3.907e+00,4.766e+00,4.532e+00,4.261e+00,3.838e+00,3.692e+00,5.040e+00,3.596e+00,5.218e+00,2.369e+00,4.680e+00,3.433e+00,4.061e+00,3.807e+00,3.920e+00,4.156e+00,4.372e+00,4.376e+00,4.280e+00,3.409e+00,4.400e+00,5.601e+00,4.882e+00,5.271e+00
1.238e-02,2.317e-02,6.809e-01,1.973e-01,3.666e-01,1.129e+00,1.121e+00,1.575e+00,2.913e+00,1.808e+00,3.097e+00,2.331e+00,3.217e+00,1.552e+00,2.177e+00,3.383e+00,3.511e+00,4.847e+00,5.396e+00,5.825e+00,5.942e+00,6.033e+00,4.726e+00,3.471e+00,4.256e+00,6.516e+00,4.580e+00,5.546e+00,4.340e+00,5.648e+00,4.911e+00,3.834e+00,4.477e+00,3.814e+00,5.421e+00,5.237e+00,3.601e+00,5.550e+00,4.422e+00,4.884e+00,4.932e+00,4.723e+00,4.723e+00,5.638e+00,4.541e+00,5.301e+00,4.543e+00,4.281e+00,5.209e+00,4.364e+00,4.847e+00,4.116e+00,5.008e+00,5.287e+00,4.875e+00,4.635e+00,4.877e+00,4.985e+00,5.411e+00,4.857e+00,5.761e+00,3.915e+00,6.230e+00,4.872e+00,4.750e+00,5.045e+00,5.036e+00,4.835e+00,5.455e+00,5.097e+00,5.416e+00,2.898e+00,5.107e+00,6.074e+00,5.464e+00,5.768e+00
5.791e-01,5.071e-01,1.150e+00,1.342e+00,7.983e-01,2.226e+00,2.100e+00,1.547e+00,2.867e+00,3.283e+00,4.560e+00,3.266e+00,4.490e+00,2.687e+00,2.879e+00,3.106e+00,4.382e+00,4.982e+00,5.497e+00,6.100e+00,5.498e+00,5.524e+00,6.451e+00,3.458e+00,6.139e+00,7.109e+00,5.222e+00,5.145e+00,3.399e+00,6.176e+00,5.021e+00,4.755e+00,3.638e+00,4.881e+00,6.313e+00,5.431e+00,5.154e+00,6.262e+00,4.194e+00,4.221e+00,5.336e+00,5.343e+00,5.560e+00,5.419e+00,3.889e+00,6.338e+00,4.844e+00,4.277e+00,5.342e+00,5.154e+00,5.639e+00,4.562e+00,4.660e+00,6.202e+00,4.319e+00,4.210e+00,6.202e+00,5.628e+00,6.505e+00,5.053e+00,6.326e+00,4.735e+00,6.573e+00,4.626e+00,5.369e+00,5.612e+00,6.506e+00,4.727e+00,6.647e+00,5.958e+00,5.195e+00,3.497e+00,5.526e+00,5.730e+00,6.047e+00,5.695e+00
3.702e-03,1.206e-01,6.476e-01,4.297e-01,9.994e-01,2.069e+00,1.780e+00,1.074e+00,2.281e+00,2.304e+00,3.687e+00,2.071e+00,3.192e+00,2.159e+00,2.690e+00,3.391e+00,3.400e+00,4.461e+00,5.400e+00,5.354e+00,6.798e+00,6.060e+00,6.175e+00,4.702e+00,5.149e+00,7.336e+00,4.872e+00,6.510e+00,3.973e+00,6.775e+00,5.684e+00,3.715e+00,4.682e+00,4.902e+00,7.349e+00,6.110e+00,5.060e+00,6.093e+00,4.268e+00,4.561e+00,5.627e+00,5.406e+00,5.955e+00,5.994e+00,4.516e+00,6.742e+00,4.774e+00,4.700e+00,5.894e+00,5.022e+00,6.540e+00,4.587e+00,5.163e+00,6.610e+00,5.027e+00,5.492e+00,6.223e+00,6.153e+00,6.733e+00,6.410e+00,5.939e+00,4.612e+00,6.719e+00,5.278e+00,5.856e+00,5.806e+00,5.829e+00,5.821e+00,7.357e+00,5.856e+00,5.559e+00,4.046e+00,5.934e+00,6.449e+00,6.739e+00,5.805e+00
4.692e-01,3.866e-01,5.189e-01,9.398e-01,7.634e-01,1.275e+00,1.304e+00,1.395e+00,2.260e+00,2.277e+00,3.385e+00,3.506e+00,4.495e+00,2.738e+00,3.774e+00,3.941e+00,3.837e+00,5.799e+00,5.106e+00,5.940e+00,6.007e+00,6.009e+00,6.629e+00,5.257e+00,5.061e+00,6.737e+00,4.881e+00,6.569e+00,4.658e+00,5.425e+00,5.376e+00,4.850e+00,4.863e+00,6.744e+00,7.091e+00,6.802e+00,5.502e+00,6.790e+00,4.974e+00,4.794e+00,5.566e+00,5.874e+00,5.992e+00,5.732e+00,4.892e+00,6.834e+00,5.555e+00,3.533e+00,5.055e+00,4.597e+00,7.085e+00,5.485e+00,5.540e+00,6.928e+00,6.002e+00,5.676e+00,6.468e+00,5.683e+00,6.791e+00,5.729e+00,6.847e+00,3.931e+00,6.275e+00,5.784e+00,5.184e+00,5.584e+00,6.360e+00,5.563e+00,6.722e+00,5.764e+00,5.538e+00,4.464e+00,6.423e+00,7.941e+00,6.832e+00,6.175e+00
2.063e-01,1.633e-01,7.783e-01,5.237e-01,6.560e-01,1.395e+00,1.397e+00,1.489e+00,2.828e+00,2.115e+00,3.459e+00,3.263e+00,4.208e+00,2.347e+00,3.434e+00,4.242e+00,4.200e+00,5.947e+00,4.575e+00,5.862e+00,6.779e+00,6.172e+00,6.281e+00,5.709e+00,5.087e+00,6.926e+00,6.866e+00,6.440e+00,5.828e+00,7.135e+00,6.128e+00,4.540e+00,4.958e+00,6.082e+00,7.340e+00,7.445e+00,6.688e+00,7.164e+00,5.241e+00,5.628e+00,5.697e+00,6.057e+00,7.412e+00,7.394e+00,5.493e+00,6.612e+00,6.416e+00,5.760e+00,6.146e+00,5.558e+00,7.637e+00,5.982e+00,6.597e+00,7.261e+00,7.142e+00,6.383e+00,6.768e+00,6.477e+00,7.637e+00,6.060e+00,6.838e+00,5.297e+00,7.598e+00,6.422e+00,6.999e+00,6.445e+00,6.517e+00,6.106e+00,7.151e+00,7.421e+00,5.118e+00,4.877e+00,7.199e+00,7.651e+00,7.157e+00,6.906e+00
5.780e-01,4.736e-01,7.808e-01,1.204e+00,1.011e+00,1.905e+00,1.848e+00,1.479e+00,2.373e+00,2.839e+00,3.098e+00,3.236e+00,4.012e+00,2.636e+00,2.981e+00,3.384e+00,3.419e+00,5.485e+00,4.822e+00,6.216e+00,6.325e+00,5.841e+00,6.852e+00,5.785e+00,5.472e+00,7.312e+00,5.867e+00,6.780e+00,5.556e+00,7.095e+00,5.440e+00,4.918e+00,5.126e+00,5.855e+00,7.231e+00,6.740e+00,7.019e+00,6.707e+00,4.770e+00,5.622e+00,6.221e+00,7.763e+00,7.245e+00,6.207e+00,5.938e+00,6.940e+00,5.974e+00,4.589e+00,6.280e+00,5.445e+00,7.721e+00,6.372e+00,5.095e+00,7.399e+00,6.249e+00,5.707e+00,7.307e+00,6.083e+00,6.872e+00,6.080e+00,7.411e+00,4.732e+00,7.356e+00,5.526e+00,6.175e+00,6.646e+00,7.348e+00,5.739e+00,7.015e+00,7.210e+00,6.140e+00,4.480e+00,6.532e+00,8.119e+00,7.873e+00,7.015e+00
5.481e-01,4.233e-01,1.032e+00,1.157e+00,7.441e-01,1.585e+00,1.367e+00,1.423e+00,2.718e+00,2.869e+00,3.557e+00,3.272e+00,4.026e+00,2.549e+00,3.023e+00,3.178e+00,4.241e+00,5.666e+00,5.661e+00,6.842e+00,6.211e+00,5.690e+00,7.028e+00,4.511e+00,6.517e+00,7.875e+00,6.176e+00,7.554e+00,5.544e+00,6.902e+00,5.280e+00,5.897e+00,5.038e+00,6.891e+00,7.705e+00,7.097e+00,6.831e+00,7.368e+00,6.414e+00,5.680e+00,7.300e+00,7.706e+00,7.267e+00,7.016e+00,6.222e+00,7.352e+00,6.637e+00,5.532e+00,6.087e+00,5.883e+00,7.711e+00,5.880e+00,5.776e+00,7.191e+00,6.858e+00,5.925e+00,8.002e+00,6.848e+00,7.360e+00,7.753e+00,8.518e+00,5.403e+00,6.994e+00,6.808e+00,6.128e+00,6.402e+00,7.962e+00,5.329e+00,8.693e+00,7.281e+00,7.329e+00,5.431e+00,6.913e+00,8.562e+00,8.611e+00,8.112e+00
2.453e-01,2.225e-01,4.861e-01,6.867e-01,8.807e-01,1.973e+00,1.524e+00,1.344e+00,2.316e+00,2.123e+00,3.206e+00,3.522e+00,3.594e+00,2.394e+00,2.948e+00,3.426e+00,3.582e+00,4.703e+00,4.416e+00,5.391e+00,6.153e+00,5.462e+00,5.396e+00,4.556e+00,5.134e+00,9.292e+00,6.724e+00,7.163e+00,5.530e+00,6.292e+00,5.302e+00,5.409e+00,6.265e+00,5.870e+00,7.103e+00,6.547e+00,6.667e+00,6.685e+00,6.239e+00,6.248e+00,6.363e+00,8.200e+00,6.474e+00,7.296e+00,6.757e+00,6.823e+00,5.508e+00,5.741e+00,5.545e+00,6.536e+00,6.886e+00,5.606e+00,5.108e+00,7.231e+00,6.841e+00,6.158e+00,7.120e+00,5.880e+00,6.379e+00,6.130e+00,7.651e+00,5.516e+00,7.769e+00,6.314e+00,6.443e+00,6.866e+00,7.137e+00,5.413e+00,6.889e+00,7.153e+00,6.270e+00,4.645e+00,7.547e+00,8.256e+00,6.475e+00,7.768e+00
2.602e-02,1.469e-01,4.625e-01,5.003e-01,7.593e-01,1.667e+00,9.348e-01,9.935e-01,2.083e+00,2.100e+00,3.559e+00,2.569e+00,3.069e+00,1.869e+00,2.685e+00,3.015e+00,3.500e+00,5.261e+00,5.178e+00,4.859e+00,6.624e+00,5.421e+00,5.685e+00,4.481e+00,5.026e+00,7.464e+00,5.647e+00,7.426e+00,4.835e+00,6.471e+00,6.038e+00,4.659e+00,5.802e+00,6.684e+00,6.940e+00,6.726e+00,5.698e+00,6.531e+00,5.725e+00,6.103e+00,6.755e+00,6.505e+00,6.344e+00,6.692e+00,6.059e+00,7.344e+00,5.958e+00,4.886e+00,5.661e+00,5.412e+00,6.817e+00,5.768e+00,5.233e+00,6.836e+00,6.063e+00,7.020e+00,7.295e+00,6.245e+00,6.083e+00,7.630e+00,6.758e+00,4.360e+00,6.850e+00,6.006e+00,6.111e+00,5.822e+00,6.880e+00,6.096e+00,7.737e+00,6.200e+00,6.552e+00,5.949e+00,7.485e+00,7.856e+00,6.762e+00,6.762e+00
3.523e-01,4.100e-01,6.688e-01,1.022e+00,9.931e-01,2.101e+00,1.938e+00,2.011e+00,3.281e+00,3.015e+00,4.630e+00,4.538e+00,5.248e+00,2.766e+00,3.900e+00,4.502e+00,4.234e+00,6.725e+00,5.775e+00,6.579e+00,6.921e+00,6.164e+00,6.766e+00,5.668e+00,5.944e+00,8.250e+00,7.077e+00,7.855e+00,6.579e+00,7.676e+00,6.691e+00,6.247e+00,6.237e+00,7.830e+00,7.865e+00,7.442e+00,7.462e+00,7.256e+00,6.823e+00,7.154e+00,7.854e+00,7.559e+00,7.584e+00,8.018e+00,7.576e+00,8.082e+00,7.440e+00,5.505e+00,7.040e+00,6.253e+00,8.396e+00,7.390e+00,6.900e+00,7.786e+00,7.404e+00,6.552e+00,9.207e+00,7.280e+00,7.689e+00,7.091e+00,8.285e+00,6.739e+00,8.719e+00,6.557e+00,7.132e+00,8.009e+00,8.321e+00,5.680e+00,7.905e+00,7.724e+00,6.487e+00,6.207e+00,8.881e+00,9.155e+00,7.861e+00,8.318e+00
4.123e-01,4.363e-01,5.935e-01,1.015e+00,9.227e-01,1.776e+00,1.928e+00,1.192e+00,1.999e+00,2.440e+00,3.075e+00,2.717e+00,3.650e+00,2.131e+00,3.288e+00,3.608e+00,3.655e+00,4.991e+00,4.406e+00,4.719e+00,5.979e+00,5.155e+00,5.572e+00,5.340e+00,4.973e+00,7.367e+00,5.570e+00,7.148e+00,6.222e+00,6.833e+00,6.768e+00,5.621e+00,6.598e+00,6.651e+00,8.027e+00,7.485e+00,7.022e+00,7.341e+00,6.369e+00,6.329e+00,6.936e+00,7.344e+00,7.456e+00,7.149e+00,7.153e+00,7.686e+00,6.696e+00,6.335e+00,6.739e+00,6.605e+00,8.124e+00,6.674e+00,5.319e+00,7.492e+00,6.981e+00,7.019e+00,8.536e+00,6.407e+00,6.881e+00,6.615e+00,8.467e+00,6.483e+00,7.157e+00,6.674e+00,6.737e+00,6.790e+00,7.724e+00,5.893e+00,8.858e+00,7.436e+00,5.525e+00,5.049e+00,7.953e+00,9.533e+00,7.926e+00,8.119e+00
4.451e-01,3.295e-01,9.488e-01,1.010e+00,1.001e+00,2.225e+00,1.825e+00,1.834e+00,3.300e+00,3.039e+00,4.353e+00,4.149e+00,5.131e+00,3.424e+00,3.930e+00,4.709e+00,4.562e+00,6.636e+00,6.546e+00,7.645e+00,7.959e+00,7.508e+00,7.286e+00,5.743e+00,6.711e+00,9.419e+00,8.714e+00,8.662e+00,7.149e+00,9.987e+00,8.857e+00,7.567e+00,8.047e+00,8.729e+00,9.417e+00,9.216e+00,8.849e+00,9.719e+00,7.811e+00,9.145e+00,8.575e+00,8.935e+00,9.977e+00,9.902e+00,9.646e+00,9.256e+00,9.271e+00,7.107e+00,8.212e+00,8.365e+00,9.927e+00,8.315e+00,9.417e+00,9.887e+00,9.092e+00,8.521e+00,9.785e+00,8.955e+00,9.581e+00,9.018e+00,1.062e+01,8.123e+00,1.031e+01,9.037e+00,9.411e+00,8.245e+00,9.143e+00,7.632e+00,9.984e+00,9.290e+00,8.365e+00,6.673e+00,9.936e+00,1.125e+01,8.989e+00,1.010e+01
1.114e-01,1.720e-01,6.952e-01,5.039e-01,4.438e-01,1.210e+00,1.054e+00,5.365e-01,1.605e+00,1.578e+00,2.711e+00,2.478e+00,2.670e+00,1.216e+00,2.196e+00,1.935e+00,2.550e+00,4.110e+00,4.467e+00,5.258e+00,4.905e+00,5.853e+00,5.591e+00,5.063e+00,4.411e+00,6.905e+00,5.394e+00,6.860e+00,5.670e+00,6.746e+00,7.808e+00,5.666e+00,5.472e+00,5.950e+00,6.045e+00,6.947e+00,7.116e+00,8.155e+00,6.216e+00,6.883e+00,5.929e+00,7.235e+00,7.215e+00,7.041e+00,6.307e+00,6.588e+00,6.871e+00,5.599e+00,5.944e+00,6.493e+00,7.946e+00,6.609e+00,6.802e+00,7.289e+00,7.015e+00,6.426e+00,7.569e+00,6.849e+00,7.644e+00,7.527e+00,8.953e+00,6.992e+00,7.918e+00,7.033e+00,6.596e+00,6.750e+00,6.983e+00,4.775e+00,8.105e+00,6.621e+00,7.025e+00,5.819e+00,6.519e+00,8.304e+00,8.322e+00,8.211e+00
2.916e-01,2.012e-01,5.158e-01,5.584e-01,2.311e-01,9.527e-01,9.860e-01,1.304e+00,2.320e+00,1.436e+00,2.673e+00,3.329e+00,3.319e+00,1.713e+00,2.390e+00,2.901e+00,2.658e+00,3.773e+00,3.697e+00,4.834e+00,4.205e+00,4.908e+00,5.047e+00,4.207e+00,3.993e+00,5.519e+00,5.060e+00,5.520e+00,6.127e+00,6.730e+00,6.664e+00,7.200e+00,6.724e+00,7.317e+00,7.405e+00,7.564e+00,6.498e+00,8.108e+00,7.582e+00,7.731e+00,6.467e+00,6.858e+00,7.171e+00,8.224e+00,7.371e+00,7.432e+00,7.509e+00,6.405e+00,7.532e+00,7.479e+00,7.583e+00,7.691e+00,7.238e+00,7.489e+00,7.839e+00,7.051e+00,8.311e+00,7.037e+00,7.687e+00,7.132e+00,9.019e+00,8.129e+00,8.794e+00,7.617e+00,8.234e+00,7.440e+00,7.474e+00,4.750e+00,8.432e+00,8.692e+00,5.915e+00,5.485e+00,7.468e+00,9.036e+00,7.964e+00,7.398e+00
2.401e-01,3.253e-01,1.010e+00,9.071e-01,7.652e-01,1.701e+00,1.293e+00,9.113e-01,2.407e+00,2.561e+00,3.691e+00,3.347e+00,4.119e+00,2.083e+00,3.037e+00,2.938e+00,3.772e+00,5.577e+00,5.220e+00,5.713e+00,6.014e+00,6.334e+00,6.299e+00,4.767e+00,5.292e+00,7.223e+00,6.309e+00,7.236e+00,6.487e+00,8.130e+00,8.289e+00,6.472e+00,6.957e+00,8.710e+00,8.173e+00,8.000e+00,8.513e+00,8.703e+00,7.447e+00,8.565e+00,7.748e+00,8.663e+00,8.963e+00,8.941e+00,8.160e+00,8.693e+00,7.684e+00,6.450e+00,7.003e+00,7.676e+00,9.103e+00,9.511e+00,8.568e+00,8.191e+00,9.349e+00,7.781e+00,8.102e+00,9.056e+00,8.269e+00,8.219e+00,9.851e+00,7.444e+00,1.034e+01,7.165e+00,8.328e+00,7.897e+00,8.131e+00,6.556e+00,9.893e+00,8.518e+00,8.356e+00,6.543e+00,8.176e+00,9.020e+00,8.609e+00,8.935e+00
3.603e-01,4.252e-01,7.007e-01,1.037e+00,1.119e+00,1.878e+00,1.740e+00,1.395e+00,2.674e+00,2.761e+00,3.757e+00,3.587e+00,4.189e+00,2.736e+00,3.798e+00,4.035e+00,4.282e+00,6.364e+00,5.720e+00,5.869e+00,6.747e+00,6.056e+00,7.651e+00,6.068e+00,6.162e+00,8.956e+00,6.010e+00,7.847e+00,7.741e+00,8.189e+00,8.690e+00,7.620e+00,8.423e+00,9.720e+00,1.139e+01,1.044e+01,9.752e+00,9.837e+00,9.531e+00,9.769e+00,1.012e+01,1.052e+01,1.061e+01,1.036e+01,9.045e+00,9.969e+00,9.069e+00,9.325e+00,9.125e+00,9.443e+00,1.185e+01,1.001e+01,9.073e+00,9.915e+00,1.174e+01,1.001e+01,1.064e+01,1.012e+01,1.095e+01,9.927e+00,1.168e+01,9.775e+00,1.137e+01,9.269e+00,1.023e+01,9.800e+00,9.701e+00,6.560e+00,1.257e+01,1.108e+01,9.819e+00,7.800e+00,9.542e+00,1.207e+01,1.114e+01,1.088e+01
2.800e-02,4.233e-02,1.863e-01,1.245e-01,3.485e-01,7.904e-01,9.262e-01,1.116e+00,1.781e+00,1.090e+00,2.913e+00,2.323e+00,3.182e+00,1.759e+00,3.037e+00,3.494e+00,4.125e+00,5.241e+00,4.588e+00,5.045e+00,6.623e+00,5.848e+00,6.453e+00,5.450e+00,4.835e+00,8.655e+00,6.710e+00,7.826e+00,6.870e+00,8.103e+00,8.648e+00,6.351e+00,7.735e+00,8.493e+00,1.030e+01,9.378e+00,8.150e+00,8.349e+00,8.660e+00,9.267e+00,9.671e+00,9.905e+00,8.884e+00,1.139e+01,9.323e+00,9.736e+00,9.455e+00,8.376e+00,8.717e+00,8.650e+00,1.144e+01,9.512e+00,9.491e+00,1.009e+01,1.121e+01,9.935e+00,9.032e+00,9.326e+00,1.117e+01,9.328e+00,1.096e+01,9.122e+00,1.103e+01,8.202e+00,9.652e+00,1.023e+01,8.175e+00,7.316e+00,1.139e+01,9.725e+00,9.120e+00,7.453e+00,1.121e+01,9.917e+00,9.550e+00,8.918e+00
2.871e-01,3.140e-01,6.289e-01,8.860e-01,1.232e+00,2.473e+00,2.076e+00,1.419e+00,2.530e+00,2.904e+00,4.385e+00,3.759e+00,4.400e+00,2.785e+00,3.900e+00,4.089e+00,3.899e+00,6.264e+00,6.196e+00,7.471e+00,7.713e+00,5.982e+00,6.934e+00,6.431e+00,6.095e+00,9.187e+00,7.670e+00,9.319e+00,7.182e+00,8.733e+00,8.027e+00,6.724e+00,7.566e+00,9.143e+00,1.025e+01,1.008e+01,1.064e+01,9.880e+00,9.911e+00,1.021e+01,9.521e+00,1.045e+01,1.072e+01,1.057e+01,1.011e+01,9.793e+00,9.712e+00,9.088e+00,8.790e+00,9.532e+00,1.187e+01,8.363e+00,9.185e+00,1.106e+01,1.062e+01,9.201e+00,1.159e+01,1.035e+01,1.035e+01,1.058e+01,1.145e+01,1.002e+01,1.110e+01,9.038e+00,9.196e+00,9.432e+00,9.668e+00,7.132e+00,1.196e+01,9.867e+00,1.035e+01,7.950e+00,1.061e+01,1.101e+01,1.146e+01,1.184e+01
1.288e-01,1.500e-01,9.013e-01,6.165e-01,8.866e-01,1.879e+00,1.165e+00,6.683e-01,2.097e+00,2.142e+00,3.140e+00,3.100e+00,3.035e+00,2.252e+00,3.003e+00,2.883e+00,3.676e+00,5.639e+00,5.848e+00,6.341e+00,6.327e+00,5.937e+00,6.481e+00,5.339e+00,5.547e+00,8.288e+00,7.086e+00,7.964e+00,6.256e+00,7.751e+00,8.084e+00,7.377e+00,7.762e+00,8.876e+00,9.714e+00,9.922e+00,9.910e+00,1.057e+01,1.150e+01,1.110e+01,1.025e+01,1.031e+01,1.024e+01,1.172e+01,1.019e+01,1.003e+01,1.008e+01,9.195e+00,9.529e+00,9.760e+00,1.192e+01,9.240e+00,9.800e+00,1.019e+01,1.095e+01,1.044e+01,1.128e+01,9.252e+00,1.092e+01,1.033e+01,1.238e+01,1.062e+01,1.143e+01,1.083e+01,1.002e+01,9.064e+00,8.900e+00,7.134e+00,1.240e+01,1.041e+01,1.050e+01,8.837e+00,1.031e+01,1.245e+01,1.256e+01,1.322e+01
1.569e-01,2.490e-01,8.048e-01,6.201e-01,5.888e-01,1.314e+00,1.474e+00,1.474e+00,2.797e+00,2.339e+00,3.275e+00,2.862e+00,3.807e+00,1.581e+00,3.217e+00,3.650e+00,3.331e+00,5.436e+00,5.615e+00,5.739e+00,6.566e+00,6.127e+00,6.172e+00,5.598e+00,5.429e+00,7.794e+00,5.877e+00,7.987e+00,7.589e+00,7.910e+00,7.264e+00,6.519e+00,7.579e+00,8.606e+00,9.590e+00,1.039e+01,8.591e+00,8.885e+00,9.926e+00,9.783e+00,1.008e+01,9.759e+00,1.084e+01,1.080e+01,1.006e+01,9.329e+00,1.041e+01,9.016e+00,1.071e+01,9.677e+00,1.157e+01,9.694e+00,8.978e+00,9.708e+00,1.050e+01,9.738e+00,1.065e+01,9.915e+00,1.019e+01,9.619e+00,1.144e+01,9.453e+00,1.154e+01,9.700e+00,9.791e+00,1.028e+01,9.583e+00,7.163e+00,1.241e+01,1.063e+01,9.369e+00,6.824e+00,1.012e+01,9.936e+00,1.171e+01,1.058e+01
1.924e-01,2.898e-01,6.675e-01,8.319e-01,9.467e-01,2.170e+00,1.573e+00,8.923e-01,2.120e+00,2.332e+00,3.950e+00,3.737e+00,3.839e+00,2.441e+00,3.245e+00,3.133e+00,3.747e+00,5.227e+00,4.965e+00,5.268e+00,5.915e+00,5.833e+00,6.741e+00,5.311e+00,5.753e+00,8.266e+00,6.455e+00,7.623e+00,6.361e+00,8.413e+00,9.205e+00,7.822e+00,7.849e+00,9.578e+00,9.292e+00,9.432e+00,9.594e+00,1.020e+01,1.003e+01,1.101e+01,9.960e+00,1.155e+01,1.116e+01,1.130e+01,1.013e+01,1.098e+01,1.009e+01,9.220e+00,9.343e+00,1.092e+01,1.184e+01,1.085e+01,1.009e+01,1.079e+01,1.156e+01,1.079e+01,1.167e+01,1.135e+01,1.181e+01,1.137e+01,1.275e+01,1.100e+01,1.264e+01,1.014e+01,1.098e+01,1.023e+01,9.977e+00,7.331e+00,1.385e+01,1.109e+01,1.092e+01,9.439e+00,1.085e+01,1.158e+01,1.117e+01,1.148e+01
4.929e-02,4.169e-02,5.360e-01,2.379e-01,4.494e-01,1.308e+00,1.242e+00,1.086e+00,2.331e+00,1.607e+00,3.859e+00,2.679e+00,3.513e+00,1.894e+00,2.578e+00,3.179e+00,3.290e+00,4.553e+00,4.967e+00,6.306e+00,6.315e+00,6.512e+00,6.184e+00,5.015e+00,4.587e+00,7.652e+00,6.413e+00,7.795e+00,6.603e+00,7.851e+00,7.728e+00,5.796e+00,6.672e+00,6.576e+00,7.811e+00,8.450e+00,6.502e+00,8.610e+00,7.824e+00,9.011e+00,8.801e+00,9.128e+00,9.312e+00,9.153e+00,8.922e+00,8.943e+00,1.049e+01,8.100e+00,9.364e+00,8.199e+00,9.758e+00,9.477e+00,8.315e+00,9.879e+00,8.777e+00,9.139e+00,1.083e+01,9.486e+00,9.919e+00,1.015e+01,1.023e+01,9.519e+00,9.929e+00,8.421e+00,8.923e+00,1.033e+01,9.203e+00,7.347e+00,1.112e+01,9.945e+00,9.153e+00,7.255e+00,1.057e+01,9.155e+00,9.458e+00,9.816e+00
5.754e-01,3.845e-01,4.701e-01,1.031e+00,6.013e-01,1.577e+00,1.325e+00,1.620e+00,2.324e+00,2.239e+00,3.312e+00,3.628e+00,3.870e+00,2.623e+00,2.783e+00,3.336e+00,4.098e+00,5.659e+00,4.812e+00,5.978e+00,6.066e+00,5.553e+00,6.650e+00,4.968e+00,5.757e+00,8.005e+00,5.638e+00,7.107e+00,5.543e+00,6.356e+00,6.549e+00,6.560e+00,6.347e+00,8.497e+00,9.154e+00,8.605e+00,8.376e+00,9.439e+00,1.002e+01,9.667e+00,1.023e+01,1.109e+01,9.474e+00,1.030e+01,9.239e+00,1.069e+01,9.332e+00,8.389e+00,9.465e+00,9.883e+00,1.094e+01,9.605e+00,8.387e+00,9.905e+00,1.065e+01,9.302e+00,1.113e+01,9.995e+00,1.157e+01,1.013e+01,1.145e+01,9.672e+00,1.067e+01,1.013e+01,9.017e+00,9.534e+00,9.039e+00,7.099e+00,1.216e+01,1.090e+01,1.158e+01,8.229e+00,1.048e+01,1.157e+01,1.071e+01,1.101e+01
5.267e-01,3.543e-01,4.820e-01,8.527e-01,2.063e-01,8.381e-01,1.116e+00,1.841e+00,2.544e+00,1.891e+00,2.765e+00,2.647e+00,3.544e+00,2.100e+00,2.448e+00,3.564e+00,3.715e+00,5.446e+00,5.047e+00,5.231e+00,6.053e+00,6.026e+00,6.994e+00,5.450e+00,5.271e+00,8.471e+00,6.182e+00,7.717e+00,6.210e+00,7.175e+00,6.035e+00,6.547e+00,6.830e+00,7.878e+00,1.005e+01,8.830e+00,6.739e+00,7.976e+00,8.988e+00,8.392e+00,1.022e+01,9.396e+00,9.592e+00,1.063e+01,9.876e+00,1.066e+01,1.042e+01,8.521e+00,1.155e+01,8.017e+00,1.172e+01,9.719e+00,8.750e+00,1.024e+01,1.068e+01,9.729e+00,1.070e+01,8.664e+00,1.191e+01,9.829e+00,1.097e+01,9.321e+00,1.107e+01,1.081e+01,1.064e+01,1.139e+01,1.018e+01,7.133e+00,1.213e+01,1.146e+01,1.061e+01,7.694e+00,1.192e+01,1.037e+01,1.114e+01,1.038e+01
3.451e-01,4.152e-01,1.162e+00,1.032e+00,6.952e-01,1.342e+00,1.387e+00,1.130e+00,2.607e+00,2.703e+00,3.271e+00,2.996e+00,3.847e+00,1.785e+00,3.153e+00,2.885e+00,3.565e+00,4.750e+00,3.939e+00,4.017e+00,4.499e+00,4.393e+00,4.987e+00,3.702e+00,5.244e+00,7.034e+00,4.949e+00,5.631e+00,5.144e+00,5.705e+00,6.198e+00,5.572e+00,5.240e+00,6.912e+00,6.345e+00,7.755e+00,7.881e+00,7.552e+00,7.436e+00,7.739e+00,7.663e+00,8.194e+00,8.817e+00,9.083e+00,7.994e+00,8.153e+00,8.106e+00,7.761e+00,8.211e+00,7.698e+00,9.738e+00,8.619e+00,7.766e+00,7.496e+00,9.883e+00,8.146e+00,9.356e+00,8.436e+00,8.611e+00,8.031e+00,1.016e+01,7.711e+00,9.369e+00,8.836e+00,7.946e+00,8.295e+00,7.927e+00,6.378e+00,1.079e+01,9.528e+00,8.325e+00,7.996e+00,9.302e+00,9.398e+00,9.455e+00,9.420e+00
4.903e-01,3.592e-01,8.015e-01,1.050e+00,8.266e-01,2.245e+00,1.898e+00,1.423e+00,2.555e+00,2.496e+00,3.723e+00,3.654e+00,3.885e+00,2.988e+00,3.123e+00,3.674e+00,3.803e+00,5.036e+00,5.034e+00,5.230e+00,5.976e+00,5.463e+00,6.159e+00,4.976e+00,5.945e+00,8.548e+00,6.485e+00,6.978e+00,5.601e+00,7.434e+00,6.223e+00,6.936e+00,7.415e+00,9.066e+00,1.023e+01,8.769e+00,8.617e+00,9.038e+00,9.985e+00,9.754e+00,9.666e+00,1.084e+01,1.033e+01,1.177e+01,1.101e+01,1.136e+01,9.785e+00,1.044e+01,1.121e+01,9.541e+00,1.177e+01,1.153e+01,9.487e+00,1.066e+01,1.209e+01,1.054e+01,1.184e+01,1.126e+01,1.158e+01,1.083e+01,1.225e+01,1.029e+01,1.234e+01,1.017e+01,1.152e+01,1.087e+01,1.080e+01,9.435e+00,1.221e+01,1.306e+01,1.051e+01,9.525e+00,1.220e+01,1.192e+01,1.182e+01,1.125e+01
5.016e-01,3.412e-01,1.038e+00,9.450e-01,6.957e-01,1.354e+00,1.479e+00,1.251e+00,2.585e+00,2.485e+00,2.875e+00,2.404e+00,3.469e+00,2.401e+00,2.788e+00,3.301e+00,3.189e+00,4.665e+00,4.522e+00,5.421e+00,5.798e+00,5.484e+00,6.596e+00,4.617e+00,5.220e+00,7.293e+00,5.988e+00,7.320e+00,5.925e+00,6.708e+00,6.617e+00,6.009e+00,6.803e+00,8.185e+00,8.941e+00,8.698e+00,7.778e+00,8.608e+00,8.037e+00,9.178e+00,8.611e+00,9.416e+00,1.018e+01,1.061e+01,1.047e+01,1.010e+01,9.355e+00,9.493e+00,1.015e+01,8.709e+00,1.107e+01,1.054e+01,9.086e+00,1.070e+01,1.115e+01,9.985e+00,1.147e+01,1.076e+01,1.112e+01,1.169e+01,1.147e+01,9.006e+00,1.010e+01,1.055e+01,9.129e+00,1.054e+01,1.019e+01,8.354e+00,1.317e+01,1.131e+01,1.068e+01,7.867e+00,1.036e+01,1.046e+01,1.188e+01,1.143e+01
1.683e-01,2.026e-01,3.514e-01,5.917e-01,6.831e-01,1.587e+00,1.102e+00,1.106e+00,1.855e+00,1.838e+00,3.018e+00,3.333e+00,3.508e+00,1.792e+00,2.580e+00,2.813e+00,3.505e+00,4.383e+00,3.504e+00,5.084e+00,6.060e+00,5.888e+00,6.163e+00,5.265e+00,4.828e+00,8.560e+00,7.053e+00,7.869e+00,6.156e+00,7.736e+00,8.028e+00,7.022e+00,7.981e+00,8.959e+00,8.696e+00,8.910e+00,9.508e+00,9.926e+00,1.052e+01,1.083e+01,1.091e+01,1.227e+01,1.156e+01,1.320e+01,1.250e+01,1.300e+01,1.187e+01,1.054e+01,1.257e+01,1.213e+01,1.359e+01,1.411e+01,1.133e+01,1.285e+01,1.343e+01,1.174e+01,1.485e+01,1.299e+01,1.339e+01,1.265e+01,1.326e+01,1.229e+01,1.376e+01,1.205e+01,1.156e+01,1.324e+01,1.174e+01,1.081e+01,1.448e+01,1.365e+01,1.319e+01,9.820e+00,1.385e+01,1.265e+01,1.315e+01,1.420e+01
4.868e-01,4.297e-01,1.168e+00,1.103e+00,8.878e-01,2.117e+00,2.492e+00,1.651e+00,3.379e+00,3.063e+00,4.865e+00,3.515e+00,4.958e+00,2.958e+00,3.873e+00,4.540e+00,4.523e+00,5.920e+00,6.271e+00,6.931e+00,7.414e+00,7.222e+00,7.751e+00,5.871e+00,6.759e+00,9.636e+00,7.207e+00,8.681e+00,7.255e+00,8.470e+00,8.818e+00,7.467e+00,7.274e+00,8.093e+00,1.036e+01,1.030e+01,9.088e+00,1.080e+01,9.544e+00,9.142e+00,9.697e+00,9.278e+00,1.051e+01,1.148e+01,1.025e+01,1.146e+01,1.103e+01,1.068e+01,1.159e+01,1.057e+01,1.369e+01,1.153e+01,1.131e+01,1.178e+01,1.219e+01,1.109e+01,1.395e+01,1.231e+01,1.467e+01,1.209e+01,1.343e+01,1.177e+01,1.274e+01,1.299e+01,1.179e+01,1.154e+01,1.194e+01,9.091e+00,1.455e+01,1.339e+01,1.122e+01,9.533e+00,1.233e+01,1.290e+01,1.271e+01,1.327e+01
4.571e-01,3.288e-01,5.343e-01,7.990e-01,2.326e-01,9.297e-01,1.186e+00,1.159e+00,1.738e+00,1.634e+00,2.536e+00,2.499e+00,3.353e+00,1.702e+00,2.123e+00,2.353e+00,2.913e+00,3.930e+00,4.023e+00,5.030e+00,4.536e+00,5.592e+00,5.439e+00,4.134e+00,4.349e+00,6.884e+00,5.698e+00,5.891e+00,5.309e+00,6.177e+00,6.393e+00,6.360e+00,6.739e+00,7.275e+00,8.071e+00,8.360e+00,7.525e+00,8.919e+00,9.464e+00,9.718e+00,8.846e+00,1.022e+01,9.744e+00,1.046e+01,1.055e+01,1.029e+01,1.057e+01,1.002e+01,1.164e+01,1.040e+01,1.241e+01,1.232e+01,1.002e+01,1.133e+01,1.184e+01,1.020e+01,1.206e+01,1.167e+01,1.250e+01,1.050e+01,1.265e+01,1.112e+01,1.242e+01,1.099e+01,1.093e+01,1.160e+01,1.112e+01,9.326e+00,1.178e+01,1.255e+01,1.209e+01,7.579e+00,1.186e+01,1.084e+01,1.210e+01,1.216e+01
2.865e-01,3.241e-01,6.417e-01,7.859e-01,6.512e-01,1.520e+00,1.637e+00,1.480e+00,2.336e+00,2.471e+00,3.480e+00,2.268e+00,3.803e+00,1.880e+00,2.658e+00,3.357e+00,2.987e+00,4.293e+00,4.055e+00,3.903e+00,4.073e+00,4.315e+00,4.220e+00,4.491e+00,5.095e+00,6.724e+00,5.069e+00,6.520e+00,4.822e+00,6.195e+00,6.541e+00,5.623e+00,6.453e+00,8.067e+00,7.153e+00,7.695e+00,7.070e+00,8.221e+00,7.725e+00,8.101e+00,8.081e+00,8.146e+00,8.056e+00,9.371e+00,1.032e+01,9.256e+00,9.105e+00,8.403e+00,9.927e+00,9.363e+00,1.127e+01,1.076e+01,1.092e+01,1.117e+01,1.134e+01,9.539e+00,1.114e+01,1.123e+01,1.077e+01,9.987e+00,1.160e+01,9.297e+00,1.192e+01,9.661e+00,9.785e+00,8.777e+00,1.031e+01,9.754e+00,1.216e+01,1.062e+01,9.652e+00,8.091e+00,1.087e+01,1.049e+01,1.148e+01,1.032e+01
2.545e-01,3.309e-01,1.117e+00,8.981e-01,6.991e-01,1.685e+00,1.544e+00,1.238e+00,2.806e+00,2.840e+00,3.858e+00,2.873e+00,3.886e+00,1.753e+00,2.929e+00,3.107e+00,3.895e+00,5.778e+00,5.837e+00,6.166e+00,6.305e+00,6.204e+00,6.068e+00,4.978e+00,5.685e+00,8.554e+00,6.593e+00,8.386e+00,7.503e+00,7.951e+00,8.977e+00,7.599e+00,8.495e+00,8.588e+00,9.104e+00,1.045e+01,9.416e+00,1.028e+01,1.111e+01,1.216e+01,1.086e+01,1.194e+01,1.136e+01,1.172e+01,1.257e+01,1.187e+01,1.180e+01,1.202e+01,1.337e+01,1.185e+01,1.437e+01,1.561e+01,1.322e+01,1.329e+01,1.446e+01,1.320e+01,1.577e+01,1.415e+01,1.451e+01,1.367e+01,1.614e+01,1.304e+01,1.612e+01,1.316e+01,1.206e+01,1.364e+01,1.292e+01,1.177e+01,1.722e+01,1.447e+01,1.353e+01,1.109e+01,1.528e+01,1.423e+01,1.587e+01,1.588e+01
9.408e-02,1.169e-01,7.456e-01,4.977e-01,1.021e+00,2.041e+00,1.573e+00,1.054e+00,2.689e+00,2.353e+00,4.412e+00,3.279e+00,4.024e+00,2.721e+00,3.063e+00,3.724e+00,4.003e+00,4.841e+00,5.277e+00,7.011e+00,5.927e+00,6.722e+00,6.308e+00,5.079e+00,5.376e+00,8.020e+00,6.198e+00,7.613e+00,5.597e+00,7.929e+00,8.368e+00,7.284e+00,7.626e+00,7.883e+00,9.282e+00,9.046e+00,9.469e+00,1.189e+01,1.060e+01,1.031e+01,1.035e+01,1.141e+01,1.153e+01,1.160e+01,1.083e+01,1.092e+01,1.119e+01,1.056e+01,1.165e+01,1.082e+01,1.419e+01,1.368e+01,1.290e+01,1.383e+01,1.246e+01,1.248e+01,1.474e+01,1.411e+01,1.480e+01,1.308e+01,1.435e+01,1.306e+01,1.509e+01,1.271e+01,1.111e+01,1.185e+01,1.151e+01,1.017e+01,1.671e+01,1.428e+01,1.379e+01,1.044e+01,1.292e+01,1.408e+01,1.450e+01,1.584e+01
1.744e-01,2.100e-01,9.349e-01,6.549e-01,6.430e-01,1.499e+00,1.226e+00,1.028e+00,2.628e+00,2.264e+00,3.769e+00,2.764e+00,3.553e+00,2.232e+00,2.884e+00,3.127e+00,3.332e+00,4.600e+00,4.819e+00,4.572e+00,5.395e+00,5.856e+00,6.626e+00,4.775e+00,5.644e+00,7.967e+00,5.595e+00,6.941e+00,6.251e+00,7.425e+00,7.378e+00,6.715e+00,7.393e+00,8.674e+00,9.332e+00,9.483e+00,7.506e+00,9.012e+00,8.076e+00,9.000e+00,8.879e+00,8.791e+00,9.373e+00,1.096e+01,9.873e+00,1.047e+01,1.009e+01,9.292e+00,1.118e+01,9.936e+00,1.251e+01,1.281e+01,1.099e+01,1.265e+01,1.266e+01,1.200e+01,1.343e+01,1.246e+01,1.363e+01,1.182e+01,1.321e+01,1.016e+01,1.372e+01,1.129e+01,1.246e+01,1.173e+01,1.137e+01,1.061e+01,1.322e+01,1.388e+01,1.033e+01,1.033e+01,1.257e+01,1.224e+01,1.214e+01,1.158e+01
4.204e-01,2.965e-01,9.450e-01,8.147e-01,4.265e-01,1.345e+00,1.577e+00,1.285e+00,2.692e+00,2.037e+00,3.119e+00,2.667e+00,3.344e+00,2.162e+00,2.251e+00,3.258e+00,3.033e+00,5.162e+00,4.913e+00,5.347e+00,5.516e+00,6.557e+00,6.664e+00,5.677e+00,4.801e+00,8.028e+00,6.764e+00,8.002e+00,7.215e+00,8.188e+00,8.292e+00,7.455e+00,7.522e+00,7.598e+00,8.950e+00,8.937e+00,7.756e+00,9.621e+00,8.814e+00,1.039e+01,1.007e+01,9.890e+00,1.059e+01,1.155e+01,1.163e+01,1.061e+01,1.179e+01,1.029e+01,1.265e+01,9.963e+00,1.437e+01,1.452e+01,1.362e+01,1.409e+01,1.382e+01,1.311e+01,1.589e+01,1.341e+01,1.523e+01,1.344e+01,1.644e+01,1.269e+01,1.504e+01,1.440e+01,1.441e+01,1.420e+01,1.367e+01,1.146e+01,1.631e+01,1.615e+01,1.268e+01,1.167e+01,1.490e+01,1.499e+01,1.491e+01,1.499e+01
4.155e-01,4.554e-01,1.227e+00,1.199e+00,8.594e-01,2.023e+00,1.853e+00,1.092e+00,2.628e+00,3.009e+00,3.686e+00,2.875e+00,3.845e+00,2.242e+00,2.901e+00,3.079e+00,3.717e+00,5.854e+00,5.952e+00,5.788e+00,6.551e+00,6.385e+00,7.040e+00,5.341e+00,5.994e+00,7.869e+00,7.044e+00,7.763e+00,6.710e+00,8.594e+00,7.101e+00,6.741e+00,6.909e+00,8.031e+00,9.419e+00,8.564e+00,7.972e+00,8.139e+00,7.860e+00,8.978e+00,9.542e+00,9.727e+00,1.039e+01,1.110e+01,1.107e+01,1.213e+01,1.090e+01,9.943e+00,1.202e+01,9.659e+00,1.323e+01,1.378e+01,1.180e+01,1.370e+01,1.387e+01,1.234e+01,1.582e+01,1.399e+01,1.371e+01,1.346e+01,1.477e+01,1.120e+01,1.455e+01,1.203e+01,1.400e+01,1.336e+01,1.380e+01,1.284e+01,1.597e+01,1.501e+01,1.274e+01,1.132e+01,1.409e+01,1.378e+01,1.371e+01,1.475e+01
1.969e-01,3.102e-01,4.734e-01,8.243e-01,1.220e+00,2.035e+00,1.463e+00,1.452e+00,2.440e+00,2.800e+00,3.812e+00,3.571e+00,4.571e+00,2.667e+00,3.765e+00,4.066e+00,4.651e+00,5.646e+00,4.867e+00,5.699e+00,6.697e+00,5.868e+00,6.732e+00,5.575e+00,6.238e+00,9.803e+00,6.899e+00,8.158e+00,6.454e+00,8.461e+00,8.448e+00,7.341e+00,9.164e+00,1.040e+01,1.066e+01,1.087e+01,1.032e+01,1.096e+01,1.090e+01,1.144e+01,1.182e+01,1.249e+01,1.123e+01,1.281e+01,1.217e+01,1.316e+01,1.225e+01,1.215e+01,1.340e+01,1.413e+01,1.495e+01,1.447e+01,1.396e+01,1.581e+01,1.725e+01,1.543e+01,1.756e+01,1.632e+01,1.617e+01,1.515e+01,1.754e+01,1.339e+01,1.708e+01,1.402e+01,1.383e+01,1.484e+01,1.466e+01,1.306e+01,1.773e+01,1.693e+01,1.487e+01,1.166e+01,1.570e+01,1.670e+01,1.661e+01,1.578e+01
4.011e-01,3.194e-01,8.320e-01,8.612e-01,5.336e-01,1.319e+00,1.302e+00,1.258e+00,2.412e+00,2.328e+00,3.597e+00,3.051e+00,4.012e+00,2.357e+00,3.304e+00,3.138e+00,3.885e+00,5.410e+00,5.907e+00,6.190e+00,6.161e+00,6.133e+00,6.695e+00,4.644e+00,6.243e+00,8.669e+00,5.687e+00,7.209e+00,6.721e+00,7.251e+00,6.992e+00,6.667e+00,7.243e+00,8.438e+00,9.348e+00,9.797e+00,7.866e+00,9.022e+00,8.727e+00,9.609e+00,9.258e+00,1.093e+01,9.617e+00,1.115e+01,1.093e+01,1.065e+01,9.875e+00,1.040e+01,1.147e+01,1.139e+01,1.309e+01,1.261e+01,1.159e+01,1.252e+01,1.352e+01,1.208e+01,1.311e+01,1.406e+01,1.509e+01,1.249e+01,1.488e+01,1.086e+01,1.443e+01,1.273e+01,1.249e+01,1.283e+01,1.290e+01,1.170e+01,1.512e+01,1.572e+01,1.359e+01,1.020e+01,1.360e+01,1.358e+01,1.306e+01,1.302e+01
4.277e-01,3.660e-01,7.905e-01,9.969e-01,6.557e-01,1.760e+00,1.511e+00,1.477e+00,2.513e+00,2.651e+00,3.945e+00,3.088e+00,4.240e+00,2.432e+00,2.628e+00,3.020e+00,4.234e+00,5.154e+00,5.524e+00,6.371e+00,6.434e+00,6.741e+00,6.742e+00,4.308e+00,6.350e+00,9.459e+00,6.950e+00,7.924e+00,5.900e+00,7.840e+00,7.009e+00,6.926e+00,6.983e+00,8.000e+00,9.251e+00,8.288e+00,8.066e+00,9.030e+00,8.828e+00,8.832e+00,9.398e+00,1.016e+01,9.216e+00,1.001e+01,1.031e+01,1.075e+01,9.689e+00,9.263e+00,1.107e+01,9.092e+00,1.262e+01,1.291e+01,1.248e+01,1.448e+01,1.277e+01,1.182e+01,1.642e+01,1.470e+01,1.368e+01,1.318e+01,1.565e+01,1.179e+01,1.550e+01,1.294e+01,1.319e+01,1.401e+01,1.431e+01,1.377e+01,1.652e+01,1.608e+01,1.394e+01,1.043e+01,1.447e+01,1.427e+01,1.418e+01,1.531e+01
2.981e-01,3.583e-01,8.402e-01,9.558e-01,1.167e+00,2.051e+00,1.756e+00,1.399e+00,2.509e+00,3.107e+00,3.815e+00,3.173e+00,4.403e+00,2.611e+00,3.830e+00,3.857e+00,4.520e+00,6.197e+00,5.668e+00,6.250e+00,6.674e+00,5.637e+00,7.432e+00,5.925e+00,6.805e+00,9.641e+00,7.019e+00,8.931e+00,6.451e+00,7.965e+00,8.242e+00,6.945e+00,8.204e+00,9.408e+00,9.428e+00,9.504e+00,8.951e+00,8.726e+00,8.658e+00,9.464e+00,9.960e+00,1.103e+01,1.115e+01,1.212e+01,1.179e+01,1.178e+01,1.005e+01,1.126e+01,1.130e+01,1.176e+01,1.316e+01,1.314e+01,1.321e+01,1.524e+01,1.563e+01,1.339e+01,1.771e+01,1.598e+01,1.664e+01,1.470e+01,1.755e+01,1.286e+01,1.565e+01,1.398e+01,1.457e+01,1.458e+01,1.543e+01,1.446e+01,1.887e+01,1.684e+01,1.462e+01,1.235e+01,1.596e+01,1.741e+01,1.683e+01,1.649e+01
3.031e-01,2.316e-01,5.710e-01,7.078e-01,6.529e-01,1.923e+00,1.672e+00,1.228e+00,2.163e+00,1.948e+00,3.304e+00,3.305e+00,3.509e+00,2.260e+00,2.803e+00,3.260e+00,4.031e+00,4.917e+00,5.035e+00,5.879e+00,7.135e+00,6.326e+00,7.111e+00,5.834e+00,5.911e+00,9.589e+00,6.760e+00,8.048e+00,7.061e+00,8.640e+00,8.097e+00,7.149e+00,7.957e+00,8.681e+00,1.100e+01,1.013e+01,9.670e+00,1.049e+01,1.157e+01,1.143e+01,1.059e+01,1.198e+01,1.207e+01,1.308e+01,1.219e+01,1.295e+01,1.109e+01,1.203e+01,1.298e+01,1.195e+01,1.410e+01,1.345e+01,1.221e+01,1.399e+01,1.498e+01,1.429e+01,1.674e+01,1.490e+01,1.722e+01,1.563e+01,1.801e+01,1.594e+01,1.681e+01,1.482e+01,1.556e+01,1.541e+01,1.447e+01,1.337e+01,1.906e+01,1.881e+01,1.516e+01,1.343e+01,1.653e+01,1.867e+01,1.612e+01,1.611e+01
1.125e-01,1.143e-01,5.928e-01,3.391e-01,2.098e-01,6.298e-01,6.743e-01,9.532e-01,1.737e+00,1.496e+00,2.267e+00,1.230e+00,2.268e+00,1.134e+00,1.997e+00,2.307e+00,2.752e+00,3.335e+00,3.557e+00,3.492e+00,4.288e+00,4.436e+00,4.577e+00,3.798e+00,4.651e+00,6.905e+00,5.677e+00,6.481e+00,4.877e+00,6.761e+00,7.307e+00,5.539e+00,6.423e+00,6.908e+00,7.038e+00,7.562e+00,6.904e+00,7.498e+00,7.283e+00,8.063e+00,8.892e+00,8.922e+00,9.841e+00,1.033e+01,1.069e+01,9.043e+00,1.070e+01,9.988e+00,1.069e+01,8.594e+00,1.195e+01,1.181e+01,1.177e+01,1.280e+01,1.264e+01,1.216e+01,1.522e+01,1.351e+01,1.457e+01,1.454e+01,1.580e+01,1.328e+01,1.409e+01,1.375e+01,1.280e+01,1.370e+01,1.316e+01,1.216e+01,1.712e+01,1.534e+01,1.352e+01,1.364e+01,1.511e+01,1.474e+01,1.367e+01,1.450e+01
2.988e-01,1.884e-01,5.819e-01,6.098e-01,8.213e-01,1.519e+00,1.297e+00,1.612e+00,2.809e+00,2.237e+00,3.622e+00,3.148e+00,3.788e+00,2.678e+00,2.594e+00,3.686e+00,4.187e+00,5.713e+00,4.935e+00,6.621e+00,6.754e+00,6.102e+00,7.002e+00,5.153e+00,5.292e+00,8.581e+00,5.484e+00,7.868e+00,6.990e+00,8.123e+00,7.713e+00,6.458e+00,6.626e+00,7.917e+00,9.423e+00,9.707e+00,8.183e+00,9.605e+00,9.240e+00,1.015e+01,1.078e+01,1.063e+01,1.029e+01,1.130e+01,1.024e+01,1.082e+01,1.140e+01,1.043e+01,1.224e+01,1.089e+01,1.435e+01,1.345e+01,1.246e+01,1.358e+01,1.525e+01,1.356e+01,1.638e+01,1.534e+01,1.608e+01,1.446e+01,1.687e+01,1.377e+01,1.610e+01,1.363e+01,1.433e+01,1.570e+01,1.442e+01,1.383e+01,1.622e+01,1.669e+01,1.536e+01,1.222e+01,1.570e+01,1.613e+01,1.617e+01,1.505e+01
4.692e-01,4.794e-01,6.746e-01,1.186e+00,8.251e-01,1.832e+00,1.554e+00,9.514e-01,1.728e+00,2.434e+00,2.607e+00,2.450e+00,2.733e+00,1.865e+00,2.217e+00,2.453e+00,3.169e+00,4.520e+00,4.686e+00,4.373e+00,5.517e+00,4.902e+00,5.204e+00,4.307e+00,5.252e+00,7.292e+00,4.432e+00,7.356e+00,6.406e+00,7.437e+00,7.426e+00,7.141e+00,6.982e+00,8.430e+00,8.885e+00,9.347e+00,8.119e+00,9.000e+00,9.787e+00,9.696e+00,1.077e+01,1.122e+01,1.216e+01,1.024e+01,1.174e+01,1.090e+01,1.160e+01,1.177e+01,1.269e+01,1.183e+01,1.475e+01,1.460e+01,1.271e+01,1.294e+01,1.456e+01,1.291e+01,1.598e+01,1.517e+01,1.473e+01,1.414e+01,1.692e+01,1.459e+01,1.520e+01,1.599e+01,1.515e+01,1.483e+01,1.479e+01,1.382e+01,1.934e+01,1.709e+01,1.534e+01,1.293e+01,1.508e+01,1.722e+01,1.654e+01,1.660e+01
5.708e-01,4.650e-01,6.453e-01,1.112e+00,4.883e-01,1.075e+00,1.149e+00,1.737e+00,2.502e+00,2.332e+00,2.508e+00,3.119e+00,3.782e+00,2.191e+00,2.587e+00,3.112e+00,3.142e+00,5.745e+00,5.280e+00,5.199e+00,5.745e+00,5.522e+00,6.573e+00,4.662e+00,5.278e+00,7.794e+00,5.753e+00,6.884e+00,6.028e+00,6.389e+00,6.252e+00,6.611e+00,7.015e+00,7.503e+00,7.781e+00,8.888e+00,7.233e+00,7.275e+00,8.408e+00,9.708e+00,9.045e+00,9.933e+00,9.105e+00,9.555e+00,1.052e+01,1.041e+01,9.641e+00,9.208e+00,1.105e+01,8.747e+00,1.159e+01,1.251e+01,1.138e+01,1.265e+01,1.371e+01,1.227e+01,1.575e+01,1.325e+01,1.506e+01,1.396e+01,1.686e+01,1.351e+01,1.637e+01,1.487e+01,1.544e+01,1.575e+01,1.553e+01,1.365e+01,1.788e+01,1.632e+01,1.576e+01,1.375e+01,1.578e+01,1.753e+01,1.652e+01,1.518e+01
4.871e-01,4.136e-01,1.065e+00,1.076e+00,8.626e-01,1.686e+00,1.813e+00,1.435e+00,2.784e+00,2.758e+00,3.178e+00,3.475e+00,4.289e+00,2.444e+00,3.292e+00,3.599e+00,4.124e+00,5.733e+00,5.085e+00,6.294e+00,6.436e+00,6.213e+00,7.101e+00,5.178e+00,5.584e+00,8.420e+00,6.307e+00,7.630e+00,6.758e+00,7.623e+00,8.997e+00,7.297e+00,8.258e+00,9.376e+00,9.722e+00,9.726e+00,9.797e+00,9.992e+00,1.031e+01,1.139e+01,1.004e+01,1.148e+01,1.197e+01,1.249e+01,1.141e+01,1.208e+01,1.077e+01,1.127e+01,1.191e+01,1.196e+01,1.365e+01,1.493e+01,1.302e+01,1.467e+01,1.553e+01,1.392e+01,1.742e+01,1.489e+01,1.666e+01,1.499e+01,1.847e+01,1.462e+01,1.755e+01,1.537e+01,1.472e+01,1.671e+01,1.474e+01,1.412e+01,1.963e+01,1.766e+01,1.623e+01,1.410e+01,1.589e+01,1.914e+01,1.802e+01,1.760e+01
4.209e-01,4.389e-01,8.531e-01,1.065e+00,6.246e-01,1.474e+00,1.510e+00,1.336e+00,2.405e+00,2.671e+00,3.712e+00,2.870e+00,3.965e+00,1.923e+00,2.626e+00,2.735e+00,3.707e+00,5.119e+00,4.533e+00,4.651e+00,4.974e+00,4.547e+00,5.672e+00,3.617e+00,5.324e+00,7.902e+00,4.857e+00,7.369e+00,5.452e+00,5.696e+00,6.960e+00,6.809e+00,7.354e+00,8.694e+00,7.471e+00,8.519e+00,7.523e+00,7.507e+00,9.128e+00,9.268e+00,8.938e+00,9.920e+00,9.433e+00,1.072e+01,1.040e+01,1.067e+01,9.218e+00,9.985e+00,1.000e+01,9.841e+00,1.177e+01,1.221e+01,9.386e+00,1.187e+01,1.349e+01,1.177e+01,1.578e+01,1.326e+01,1.317e+01,1.322e+01,1.533e+01,1.187e+01,1.457e+01,1.337e+01,1.414e+01,1.508e+01,1.525e+01,1.321e+01,1.823e+01,1.586e+01,1.567e+01,1.385e+01,1.574e+01,1.600e+01,1.588e+01,1.551e+01
4.992e-01,5.077e-01,1.107e+00,1.230e+00,9.074e-01,1.912e+00,2.176e+00,9.981e-01,2.141e+00,2.759e+00,3.298e+00,3.289e+00,4.194e+00,2.177e+00,3.363e+00,3.153e+00,4.029e+00,5.709e+00,5.037e+00,5.809e+00,5.333e+00,5.519e+00,6.367e+00,5.696e+00,5.553e+00,6.981e+00,5.447e+00,6.620e+00,5.738e+00,6.399e+00,6.147e+00,5.764e+00,5.024e+00,7.373e+00,8.104e+00,8.284e+00,7.900e+00,8.491e+00,8.630e+00,7.818e+00,7.981e+00,9.059e+00,9.378e+00,9.707e+00,9.243e+00,9.789e+00,9.054e+00,9.392e+00,1.119e+01,9.636e+00,1.254e+01,1.105e+01,1.071e+01,1.198e+01,1.185e+01,1.115e+01,1.319e+01,1.187e+01,1.406e+01,1.068e+01,1.465e+01,1.164e+01,1.423e+01,1.301e+01,1.230e+01,1.387e+01,1.399e+01,1.171e+01,1.697e+01,1.613e+01,1.354e+01,1.152e+01,1.414e+01,1.654e+01,1.728e+01,1.526e+01
3.117e-02,1.325e-01,8.234e-01,5.297e-01,8.976e-01,2.055e+00,1.463e+00,1.287e+00,2.727e+00,2.584e+00,3.776e+00,2.802e+00,3.276e+00,1.845e+00,2.223e+00,2.913e+00,3.610e+00,4.311e+00,4.314e+00,5.270e+00,4.994e+00,5.112e+00,5.186e+00,4.458e+00,5.320e+00,7.843e+00,5.251e+00,6.585e+00,5.991e+00,7.921e+00,8.116e+00,6.325e+00,7.603e+00,8.056e+00,8.122e+00,8.488e+00,8.814e+00,9.831e+00,9.775e+00,1.074e+01,9.736e+00,1.110e+01,1.037e+01,1.043e+01,1.031e+01,9.915e+00,9.932e+00,1.029e+01,1.085e+01,1.170e+01,1.201e+01,1.247e+01,1.212e+01,1.275e+01,1.303e+01,1.114e+01,1.531e+01,1.433e+01,1.384e+01,1.385e+01,1.653e+01,1.548e+01,1.673e+01,1.342e+01,1.374e+01,1.372e+01,1.578e+01,1.461e+01,1.979e+01,1.808e+01,1.586e+01,1.488e+01,1.588e+01,1.846e+01,1.786e+01,1.761e+01
5.399e-01,4.374e-01,5.112e-01,1.021e+00,4.797e-01,1.078e+00,1.251e+00,9.087e-01,1.466e+00,1.858e+00,2.534e+00,2.154e+00,3.051e+00,1.955e+00,2.600e+00,2.553e+00,2.841e+00,4.126e+00,4.390e+00,4.629e+00,5.206e+00,5.370e+00,5.124e+00,4.034e+00,4.782e+00,6.480e+00,5.713e+00,6.138e+00,5.553e+00,6.553e+00,7.003e+00,6.398e+00,6.510e+00,7.042e+00,7.578e+00,8.723e+00,7.575e+00,9.284e+00,8.257e+00,8.894e+00,7.752e+00,9.670e+00,1.047e+01,9.917e+00,1.035e+01,1.002e+01,1.022e+01,9.074e+00,1.007e+01,9.149e+00,1.253e+01,1.136e+01,1.123e+01,1.218e+01,1.082e+01,1.199e+01,1.486e+01,1.310e+01,1.333e+01,1.237e+01,1.416e+01,1.345e+01,1.336e+01,1.510e+01,1.353e+01,1.269e+01,1.524e+01,1.474e+01,1.839e+01,1.578e+01,1.532e+01,1.437e+01,1.576e+01,1.793e+01,1.694e+01,1.736e+01
2.534e-02,2.064e-01,4.012e-01,4.482e-01,6.355e-01,1.255e+00,1.341e+00,9.546e-01,1.670e+00,1.648e+00,2.966e+00,2.745e+00,3.712e+00,1.418e+00,3.031e+00,3.010e+00,3.564e+00,4.149e+00,3.239e+00,3.491e+00,4.645e+00,4.242e+00,4.170e+00,4.117e+00,4.251e+00,6.938e+00,5.498e+00,5.767e+00,5.076e+00,5.649e+00,6.182e+00,4.693e+00,5.771e+00,7.545e+00,8.077e+00,7.212e+00,7.942e+00,6.830e+00,8.780e+00,7.291e+00,8.356e+00,8.218e+00,8.836e+00,9.317e+00,9.019e+00,8.963e+00,8.659e+00,9.289e+00,9.962e+00,8.474e+00,1.161e+01,1.179e+01,1.116e+01,1.121e+01,1.256e+01,1.009e+01,1.321e+01,1.311e+01,1.345e+01,1.022e+01,1.381e+01,1.393e+01,1.558e+01,1.316e+01,1.241e+01,1.497e+01,1.419e+01,1.313e+01,1.765e+01,1.709e+01,1.300e+01,1.390e+01,1.674e+01,1.599e+01,1.678e+01,1.674e+01
1.411e-01,2.224e-01,3.793e-01,4.996e-01,7.589e-01,1.262e+00,1.456e+00,1.351e+00,2.220e+00,2.056e+00,3.141e+00,1.977e+00,3.062e+00,1.769e+00,2.815e+00,3.529e+00,3.108e+00,4.791e+00,4.725e+00,5.095e+00,5.747e+00,5.507e+00,6.004e+00,5.597e+00,4.913e+00,6.651e+00,5.480e+00,6.858e+00,6.180e+00,8.019e+00,8.203e+00,6.069e+00,7.296e+00,7.673e+00,9.094e+00,8.998e+00,8.989e+00,9.989e+00,9.023e+00,1.022e+01,1.054e+01,1.077e+01,1.171e+01,1.232e+01,1.108e+01,1.094e+01,1.179e+01,1.204e+01,1.260e+01,1.045e+01,1.455e+01,1.393e+01,1.315e+01,1.465e+01,1.402e+01,1.502e+01,1.885e+01,1.581e+01,1.655e+01,1.579e+01,1.656e+01,1.626e+01,1.682e+01,1.511e+01,1.493e+01,1.613e+01,1.617e+01,1.635e+01,2.147e+01,1.993e+01,1.744e+01,1.585e+01,1.872e+01,1.944e+01,2.005e+01,1.987e+01
4.757e-01,2.970e-01,3.498e-01,8.574e-01,6.325e-01,1.913e+00,1.609e+00,1.681e+00,2.238e+00,2.207e+00,3.596e+00,2.785e+00,3.570e+00,2.617e+00,1.835e+00,3.125e+00,3.955e+00,4.115e+00,4.045e+00,5.366e+00,5.244e+00,5.488e+00,6.398e+00,4.912e+00,5.703e+00,9.046e+00,6.063e+00,7.369e+00,5.192e+00,8.318e+00,6.710e+00,6.743e+00,6.863e+00,8.095e+00,9.634e+00,8.053e+00,7.878e+00,9.654e+00,8.977e+00,8.827e+00,1.041e+01,1.052e+01,1.024e+01,1.153e+01,1.117e+01,1.092e+01,1.058e+01,9.646e+00,1.243e+01,1.135e+01,1.395e+01,1.245e+01,1.187e+01,1.483e+01,1.287e+01,1.251e+01,1.554e+01,1.395e+01,1.620e+01,1.379e+01,1.680e+01,1.418e+01,1.752e+01,1.404e+01,1.505e+01,1.603e+01,1.617e+01,1.464e+01,1.854e+01,1.807e+01,1.688e+01,1.391e+01,1.804e+01,1.819e+01,1.734e+01,1.678e+01
2.465e-01,2.047e-01,6.600e-01,6.997e-01,6.630e-01,1.788e+00,1.176e+00,1.309e+00,2.579e+00,2.278e+00,3.549e+00,3.089e+00,3.232e+00,2.308e+00,2.452e+00,3.139e+00,2.923e+00,5.155e+00,5.422e+00,5.655e+00,5.342e+00,5.601e+00,6.080e+00,5.247e+00,5.129e+00,7.458e+00,5.976e+00,7.692e+00,6.638e+00,8.056e+00,7.314e+00,6.938e+00,7.523e+00,8.175e+00,9.058e+00,8.041e+00,8.099e+00,9.271e+00,8.786e+00,1.030e+01,1.063e+01,1.020e+01,9.840e+00,1.080e+01,1.173e+01,1.038e+01,1.065e+01,1.053e+01,1.247e+01,9.960e+00,1.213e+01,1.314e+01,1.283e+01,1.338e+01,1.389e+01,1.297e+01,1.533e+01,1.374e+01,1.423e+01,1.474e+01,1.590e+01,1.389e+01,1.649e+01,1.482e+01,1.498e+01,1.530e+01,1.618e+01,1.362e+01,1.951e+01,1.880e+01,1.716e+01,1.663e+01,1.864e+01,1.920e+01,1.870e+01,1.830e+01
2.505e-01,2.697e-01,3.993e-01,6.782e-01,6.161e-01,1.234e+00,1.046e+00,1.273e+00,2.102e+00,2.070e+00,3.169e+00,2.267e+00,3.065e+00,1.966e+00,2.698e+00,2.967e+00,3.253e+00,3.882e+00,4.624e+00,4.534e+00,5.510e+00,5.743e+00,6.341e+00,4.528e+00,5.634e+00,8.017e+00,4.489e+00,6.513e+00,5.782e+00,7.142e+00,7.010e+00,6.302e+00,7.234e+00,8.567e+00,9.634e+00,9.793e+00,7.881e+00,1.001e+01,8.862e+00,9.329e+00,1.007e+01,1.046e+01,1.063e+01,1.122e+01,1.069e+01,1.114e+01,1.094e+01,1.146e+01,1.332e+01,1.201e+01,1.436e+01,1.359e+01,1.279e+01,1.440e+01,1.403e+01,1.374e+01,1.721e+01,1.622e+01,1.627e+01,1.566e+01,1.639e+01,1.483e+01,1.666e+01,1.626e+01,1.462e+01,1.584e+01,1.598e+01,1.612e+01,1.981e+01,1.931e+01,1.757e+01,1.558e+01,1.792e+01,1.865e+01,1.874e+01,1.801e+01
4.985e-01,4.290e-01,5.957e-01,1.136e+00,9.417e-01,2.112e+00,1.715e+00,2.102e+00,3.018e+00,2.979e+00,3.623e+00,3.402e+00,4.200e+00,2.916e+00,2.567e+00,3.828e+00,3.850e+00,5.553e+00,5.657e+00,5.497e+00,6.338e+00,5.605e+00,6.175e+00,4.296e+00,6.221e+00,8.685e+00,5.357e+00,6.930e+00,5.324e+00,7.554e+00,6.610e+00,6.843e+00,7.848e+00,8.373e+00,9.341e+00,8.918e+00,8.111e+00,8.541e+00,9.506e+00,9.428e+00,1.073e+01,1.015e+01,9.725e+00,1.023e+01,1.050e+01,1.127e+01,1.003e+01,9.788e+00,1.259e+01,1.125e+01,1.242e+01,1.265e+01,1.147e+01,1.279e+01,1.330e+01,1.195e+01,1.526e+01,1.353e+01,1.578e+01,1.349e+01,1.591e+01,1.418e+01,1.693e+01,1.557e+01,1.597e+01,1.458e+01,1.643e+01,1.558e+01,1.987e+01,1.958e+01,1.857e+01,1.561e+01,1.832e+01,2.121e+01,2.001e+01,1.860e+01
1.688e-01,2.336e-01,2.916e-01,5.264e-01,4.961e-01,1.162e+00,1.272e+00,1.237e+00,1.683e+00,1.761e+00,2.922e+00,1.868e+00,3.223e+00,1.669e+00,2.502e+00,2.963e+00,3.442e+00,4.737e+00,4.450e+00,3.712e+00,5.560e+00,5.034e+00,5.333e+00,4.486e+00,5.414e+00,8.449e+00,5.354e+00,7.381e+00,5.840e+00,6.588e+00,7.351e+00,5.407e+00,7.358e+00,7.914e+00,7.834e+00,9.166e+00,7.778e+00,8.006e+00,9.244e+00,9.821e+00,9.693e+00,1.055e+01,9.924e+00,1.075e+01,1.110e+01,9.923e+00,9.717e+00,1.053e+01,1.049e+01,1.097e+01,1.371e+01,1.269e+01,1.180e+01,1.342e+01,1.395e+01,1.304e+01,1.654e+01,1.551e+01,1.591e+01,1.392e+01,1.686e+01,1.395e+01,1.684e+01,1.503e+01,1.476e+01,1.590e+01,1.521e+01,1.533e+01,2.011e+01,1.790e+01,1.687e+01,1.511e+01,1.918e+01,1.794e+01,1.983e+01,1.762e+01
5.117e-01,3.870e-01,9.208e-01,1.087e+00,1.011e+00,2.272e+00,2.149e+00,1.544e+00,3.107e+00,2.811e+00,4.102e+00,3.531e+00,3.976e+00,2.981e+00,2.882e+00,3.844e+00,3.335e+00,4.897e+00,4.538e+00,5.857e+00,6.686e+00,5.921e+00,7.541e+00,5.565e+00,5.547e+00,8.431e+00,6.562e+00,7.712e+00,6.952e+00,8.092e+00,7.169e+00,7.572e+00,7.357e+00,8.313e+00,1.069e+01,1.104e+01,9.344e+00,1.048e+01,9.988e+00,1.096e+01,1.033e+01,1.058e+01,1.158e+01,1.178e+01,1.031e+01,1.158e+01,1.180e+01,1.031e+01,1.303e+01,1.200e+01,1.501e+01,1.377e+01,1.173e+01,1.557e+01,1.351e+01,1.460e+01,1.646e+01,1.302e+01,1.652e+01,1.357e+01,1.582e+01,1.497e+01,1.765e+01,1.593e+01,1.629e+01,1.590e+01,1.600e+01,1.514e+01,2.105e+01,1.945e+01,1.643e+01,1.652e+01,1.894e+01,1.975e+01,1.983e+01,1.924e+01
