6.012e-01,4.454e-01,2.064e-01,2.976e-01,2.391e-01,9.707e-01,2.790e-01,5.821e-01,9.063e-01,8.750e-01,2.593e-01,6.119e-01,6.902e-01,7.315e-01,2.060e-01,5.226e-01,3.898e-01,6.987e-01,3.312e-01,8.848e-01,7.096e-02,9.440e-01,5.927e-01,8.798e-01,6.376e-02,4.407e-01,5.332e-01,8.233e-02,2.466e-01,9.076e-01,8.977e-01,8.640e-01,9.431e-01,3.736e-01,2.901e-01,3.563e-01,9.986e-01,9.984e-01,3.436e-01,8.950e-01,3.548e-02,7.933e-01,8.192e-01,7.602e-01,8.602e-01,5.824e-01,2.210e-02,4.756e-01,8.880e-01,7.432e-01,2.258e-01,9.327e-01,3.473e-01,3.754e-01,6.945e-01,4.890e-01,4.400e-01,5.349e-02,1.082e-01,6.094e-01,8.143e-02,9.408e-01,3.339e-01,3.099e-01,9.488e-01,1.116e-01,7.959e-01,6.711e-01,9.299e-01,8.624e-01,4.708e-01,4.715e-01,8.362e-02,7.765e-02,7.520e-01,5.678e-01,2.895e-01,5.215e-01,1.584e-01,6.317e-02,7.080e-01,8.335e-01,5.646e-01,4.459e-02,9.684e-02,9.951e-01,2.863e-01,7.601e-01,8.036e-01,6.725e-01,4.863e-01,4.265e-01,5.001e-01,7.089e-01,7.331e-01,2.985e-01,5.720e-01
4.044e-01,7.434e-01,4.565e-01,1.046e+00,8.699e-01,1.381e+00,4.100e-01,8.232e-01,1.001e+00,1.003e+00,4.284e-01,1.180e+00,8.990e-01,1.347e+00,1.817e-01,1.204e+00,1.059e+00,6.537e-01,4.198e-01,1.332e+00,7.226e-01,1.006e+00,1.206e+00,8.631e-01,3.341e-01,8.024e-01,1.137e+00,9.452e-01,1.999e-01,9.949e-01,6.346e-01,7.113e-01,8.099e-01,9.554e-01,5.402e-01,1.185e+00,1.665e+00,6.768e-01,3.534e-01,1.205e+00,6.833e-01,1.122e+00,1.034e+00,1.456e+00,1.013e+00,5.382e-01,4.010e-01,1.271e+00,9.487e-01,6.310e-01,2.452e-01,1.218e+00,5.191e-01,7.409e-01,9.014e-01,9.053e-01,1.002e+00,6.997e-01,1.036e+00,8.295e-01,9.791e-01,1.481e+00,9.692e-01,9.939e-01,8.466e-01,7.953e-01,1.096e+00,4.702e-01,1.404e+00,1.430e+00,4.021e-01,1.302e+00,4.168e-01,6.061e-02,9.935e-01,7.346e-01,5.735e-01,1.299e+00,3.413e-01,2.886e-01,6.561e-01,1.524e+00,4.507e-01,1.431e-01,3.548e-01,8.764e-01,3.222e-01,9.135e-01,9.562e-01,6.864e-01,1.034e+00,6.101e-01,3.940e-01,7.143e-01,1.306e+00,4.877e-01,4.630e-01
5.170e-01,5.668e-01,4.193e-01,1.370e+00,1.272e+00,1.539e+00,8.377e-01,8.363e-01,1.111e+00,1.506e+00,1.296e+00,1.470e+00,1.263e+00,1.147e+00,6.322e-01,1.091e+00,1.434e+00,1.238e+00,1.162e+00,1.266e+00,1.240e+00,1.602e+00,1.692e+00,1.721e+00,6.938e-01,1.417e+00,1.778e+00,9.431e-01,5.469e-01,1.932e+00,1.373e+00,1.463e+00,1.846e+00,9.769e-01,1.297e+00,1.167e+00,2.140e+00,1.538e+00,9.747e-01,1.262e+00,6.787e-01,9.549e-01,1.010e+00,1.830e+00,9.625e-01,8.461e-01,9.094e-01,9.554e-01,1.558e+00,1.509e+00,9.998e-01,1.804e+00,7.942e-01,1.218e+00,1.473e+00,1.012e+00,1.437e+00,9.877e-01,1.267e+00,1.095e+00,1.305e+00,1.429e+00,1.247e+00,7.294e-01,1.533e+00,5.100e-01,1.113e+00,1.467e+00,1.632e+00,1.327e+00,8.457e-01,8.972e-01,8.883e-01,3.718e-01,1.469e+00,9.228e-01,1.160e+00,1.114e+00,8.314e-01,8.211e-01,1.333e+00,1.440e+00,1.060e+00,2.464e-01,1.187e+00,1.456e+00,1.113e+00,1.778e+00,1.294e+00,1.644e+00,8.953e-01,1.095e+00,1.118e+00,1.330e+00,1.507e+00,1.168e+00,9.846e-01
4.327e-01,5.894e-01,3.833e-01,1.579e+00,1.221e+00,1.531e+00,7.858e-01,1.588e+00,1.296e+00,2.022e+00,9.252e-01,1.576e+00,1.164e+00,1.754e+00,9.214e-01,1.799e+00,1.629e+00,1.208e+00,1.415e+00,1.659e+00,1.129e+00,1.826e+00,2.095e+00,1.660e+00,4.259e-01,1.483e+00,1.339e+00,9.685e-01,8.130e-01,1.635e+00,1.624e+00,1.010e+00,1.839e+00,1.212e+00,1.147e+00,1.318e+00,1.949e+00,1.756e+00,1.470e+00,1.615e+00,1.146e+00,1.188e+00,1.285e+00,1.901e+00,9.641e-01,8.616e-01,1.450e+00,1.959e+00,1.407e+00,1.529e+00,1.345e+00,1.413e+00,1.446e+00,9.409e-01,1.354e+00,1.755e+00,1.083e+00,8.980e-01,1.389e+00,1.182e+00,1.638e+00,1.888e+00,9.753e-01,1.640e+00,1.430e+00,1.043e+00,1.625e+00,1.263e+00,1.852e+00,2.130e+00,1.183e+00,1.038e+00,1.390e+00,3.853e-01,1.098e+00,1.708e+00,1.216e+00,1.165e+00,1.302e+00,1.116e+00,1.457e+00,2.269e+00,1.534e+00,9.946e-01,1.172e+00,1.410e+00,1.239e+00,2.041e+00,1.855e+00,1.746e+00,1.843e+00,1.703e+00,8.246e-01,1.758e+00,1.836e+00,9.566e-01,1.153e+00
4.034e-01,3.483e-01,2.001e-01,7.791e-01,8.718e-01,1.732e+00,1.436e+00,1.356e+00,1.544e+00,1.507e+00,1.257e+00,1.681e+00,1.392e+00,9.859e-01,1.151e+00,1.203e+00,1.167e+00,1.173e+00,1.328e+00,1.639e+00,1.485e+00,1.968e+00,1.244e+00,1.522e+00,1.034e+00,1.630e+00,1.680e+00,7.587e-01,1.503e+00,1.482e+00,1.493e+00,1.130e+00,1.975e+00,7.046e-01,8.472e-01,6.446e-01,1.239e+00,1.292e+00,1.143e+00,1.961e+00,1.461e+00,8.932e-01,1.310e+00,1.703e+00,1.181e+00,1.155e+00,1.727e+00,1.537e+00,1.636e+00,1.101e+00,1.242e+00,1.861e+00,1.694e+00,1.194e+00,1.226e+00,1.168e+00,6.226e-01,1.151e+00,1.030e+00,1.244e+00,1.640e+00,1.985e+00,6.348e-01,1.020e+00,1.808e+00,7.235e-01,1.002e+00,1.152e+00,1.488e+00,1.903e+00,1.375e+00,1.476e+00,1.070e+00,7.358e-01,7.350e-01,1.737e+00,1.615e+00,1.108e+00,1.046e+00,6.141e-01,1.260e+00,2.115e+00,1.284e+00,1.314e+00,1.419e+00,1.636e+00,1.157e+00,1.444e+00,1.154e+00,1.470e+00,1.380e+00,1.174e+00,1.572e+00,2.017e+00,1.664e+00,1.475e+00,1.067e+00
5.326e-02,1.080e-01,1.002e-01,5.619e-01,5.023e-01,8.417e-01,9.169e-01,1.163e+00,1.097e+00,1.336e+00,6.053e-01,1.333e+00,4.895e-01,1.434e+00,1.219e+00,1.404e+00,1.114e+00,1.278e+00,1.313e+00,9.321e-01,7.016e-01,1.400e+00,1.493e+00,1.441e+00,4.375e-01,7.626e-01,6.828e-01,6.952e-01,6.235e-01,6.452e-01,1.365e+00,4.312e-01,1.337e+00,1.312e+00,5.737e-01,1.243e+00,1.096e+00,5.817e-01,1.126e+00,1.003e+00,1.313e+00,5.824e-01,1.273e+00,8.121e-01,9.456e-01,4.506e-01,9.244e-01,1.529e+00,1.503e+00,1.454e+00,1.023e+00,7.125e-01,1.101e+00,1.359e+00,1.396e+00,1.012e+00,9.315e-01,1.134e+00,8.720e-01,5.006e-01,8.146e-01,8.298e-01,1.050e+00,8.198e-01,6.153e-01,8.937e-01,4.524e-01,8.523e-01,8.601e-01,1.383e+00,5.976e-01,1.360e+00,8.401e-01,1.084e+00,7.875e-01,8.096e-01,1.410e+00,7.934e-01,1.500e+00,1.164e+00,1.050e+00,1.565e+00,1.272e+00,1.416e+00,1.562e+00,7.996e-01,1.240e+00,9.823e-01,8.592e-01,1.124e+00,7.009e-01,7.843e-01,1.097e+00,1.409e+00,9.234e-01,1.130e+00,5.557e-01
2.204e-01,3.969e-01,3.200e-01,1.432e+00,1.380e+00,1.956e+00,2.241e+00,2.539e+00,2.760e+00,2.783e+00,1.874e+00,3.344e+00,2.118e+00,2.958e+00,2.803e+00,2.614e+00,2.183e+00,2.042e+00,2.304e+00,2.648e+00,2.547e+00,3.281e+00,3.340e+00,3.183e+00,1.696e+00,2.280e+00,2.345e+00,2.181e+00,1.708e+00,2.303e+00,2.354e+00,1.818e+00,2.658e+00,2.810e+00,1.587e+00,2.604e+00,2.945e+00,1.649e+00,2.149e+00,2.749e+00,3.027e+00,1.735e+00,2.394e+00,3.134e+00,1.936e+00,1.949e+00,2.463e+00,3.046e+00,3.167e+00,2.720e+00,1.998e+00,2.478e+00,2.181e+00,2.323e+00,2.546e+00,2.109e+00,1.769e+00,2.272e+00,2.254e+00,1.499e+00,2.616e+00,2.237e+00,2.608e+00,1.688e+00,1.969e+00,1.663e+00,1.794e+00,1.803e+00,2.009e+00,3.059e+00,1.923e+00,2.997e+00,2.499e+00,1.449e+00,2.361e+00,2.256e+00,2.753e+00,2.547e+00,2.380e+00,1.971e+00,2.593e+00,3.658e+00,2.154e+00,2.605e+00,3.236e+00,2.446e+00,2.826e+00,2.915e+00,2.493e+00,2.495e+00,1.897e+00,2.164e+00,2.623e+00,2.945e+00,2.904e+00,2.979e+00,1.313e+00
7.072e-02,1.594e-01,1.798e-01,1.249e+00,1.271e+00,1.564e+00,2.017e+00,2.011e+00,2.478e+00,2.427e+00,2.295e+00,3.403e+00,2.152e+00,2.592e+00,2.649e+00,2.389e+00,2.586e+00,2.371e+00,2.568e+00,2.794e+00,2.609e+00,3.251e+00,3.049e+00,2.852e+00,2.209e+00,2.742e+00,2.245e+00,2.040e+00,2.109e+00,2.065e+00,2.374e+00,1.483e+00,2.814e+00,2.776e+00,1.538e+00,2.259e+00,2.301e+00,1.833e+00,2.882e+00,2.504e+00,2.935e+00,1.638e+00,2.015e+00,2.923e+00,1.347e+00,2.106e+00,3.371e+00,2.954e+00,3.303e+00,2.398e+00,2.822e+00,2.273e+00,2.901e+00,2.217e+00,2.125e+00,1.840e+00,1.766e+00,1.987e+00,2.358e+00,2.131e+00,3.201e+00,2.098e+00,2.703e+00,1.429e+00,2.717e+00,1.445e+00,1.879e+00,2.000e+00,2.305e+00,3.015e+00,1.905e+00,2.864e+00,2.755e+00,1.426e+00,1.653e+00,2.972e+00,3.221e+00,1.923e+00,2.470e+00,1.805e+00,2.435e+00,3.512e+00,2.478e+00,2.868e+00,3.612e+00,2.568e+00,2.403e+00,2.868e+00,2.423e+00,2.224e+00,2.103e+00,2.507e+00,2.711e+00,3.245e+00,2.595e+00,3.446e+00,2.163e+00
1.156e-01,1.885e-01,1.606e-01,8.694e-01,9.513e-01,1.515e+00,1.659e+00,1.565e+00,2.646e+00,1.986e+00,2.278e+00,3.084e+00,2.376e+00,2.650e+00,2.641e+00,2.962e+00,2.795e+00,2.798e+00,2.480e+00,2.654e+00,1.974e+00,3.542e+00,2.815e+00,3.232e+00,2.293e+00,2.897e+00,2.433e+00,1.521e+00,2.554e+00,2.280e+00,2.563e+00,1.672e+00,2.852e+00,3.145e+00,1.809e+00,2.723e+00,1.942e+00,1.383e+00,3.032e+00,2.994e+00,3.209e+00,1.532e+00,2.190e+00,2.689e+00,1.427e+00,2.130e+00,3.522e+00,3.181e+00,3.501e+00,2.348e+00,3.143e+00,2.295e+00,3.302e+00,3.064e+00,2.162e+00,1.571e+00,2.565e+00,1.802e+00,2.289e+00,1.879e+00,3.072e+00,2.033e+00,2.894e+00,1.562e+00,3.216e+00,1.592e+00,1.730e+00,2.589e+00,2.844e+00,3.305e+00,1.783e+00,2.660e+00,2.813e+00,1.684e+00,1.619e+00,2.998e+00,3.369e+00,2.249e+00,2.656e+00,1.521e+00,2.520e+00,3.877e+00,2.666e+00,2.675e+00,3.757e+00,2.834e+00,1.829e+00,2.220e+00,2.108e+00,2.085e+00,2.431e+00,2.623e+00,2.820e+00,2.793e+00,2.843e+00,2.795e+00,2.715e+00
3.394e-01,4.121e-01,3.341e-01,1.715e+00,1.566e+00,2.003e+00,1.875e+00,2.206e+00,2.242e+00,3.299e+00,2.281e+00,3.149e+00,2.070e+00,3.167e+00,2.648e+00,3.112e+00,3.147e+00,2.565e+00,3.118e+00,3.316e+00,2.794e+00,3.546e+00,3.658e+00,3.207e+00,1.669e+00,3.201e+00,2.316e+00,2.612e+00,2.515e+00,2.739e+00,3.152e+00,2.255e+00,3.951e+00,2.933e+00,2.640e+00,2.801e+00,2.983e+00,2.431e+00,3.218e+00,2.876e+00,3.095e+00,2.423e+00,2.574e+00,3.426e+00,2.065e+00,2.605e+00,3.584e+00,2.843e+00,3.094e+00,3.449e+00,2.535e+00,2.379e+00,3.230e+00,2.364e+00,2.589e+00,3.022e+00,2.473e+00,2.813e+00,2.974e+00,2.358e+00,2.921e+00,2.515e+00,2.805e+00,2.491e+00,2.588e+00,2.270e+00,2.738e+00,2.316e+00,2.493e+00,3.563e+00,2.181e+00,2.872e+00,2.709e+00,1.648e+00,2.635e+00,2.937e+00,2.832e+00,2.377e+00,3.340e+00,2.519e+00,2.899e+00,3.808e+00,2.852e+00,2.658e+00,2.998e+00,3.020e+00,3.396e+00,3.376e+00,3.199e+00,2.811e+00,2.901e+00,2.896e+00,3.164e+00,3.781e+00,3.570e+00,2.743e+00,1.945e+00
2.726e-01,4.766e-01,3.652e-01,1.565e+00,1.508e+00,1.950e+00,1.781e+00,1.886e+00,2.086e+00,2.400e+00,2.979e+00,3.221e+00,2.582e+00,2.452e+00,2.371e+00,2.746e+00,2.660e+00,2.275e+00,2.572e+00,3.115e+00,3.256e+00,3.358e+00,3.277e+00,2.956e+00,1.754e+00,2.957e+00,3.048e+00,2.403e+00,2.727e+00,2.448e+00,2.469e+00,2.167e+00,3.049e+00,3.075e+00,2.796e+00,2.857e+00,2.872e+00,2.725e+00,2.402e+00,3.026e+00,2.765e+00,2.384e+00,2.606e+00,3.684e+00,1.889e+00,2.408e+00,3.335e+00,2.626e+00,3.473e+00,2.266e+00,2.847e+00,2.459e+00,2.477e+00,2.422e+00,2.277e+00,2.970e+00,2.236e+00,2.264e+00,2.456e+00,2.418e+00,3.540e+00,2.963e+00,2.937e+00,2.709e+00,2.961e+00,1.915e+00,2.267e+00,2.583e+00,2.416e+00,3.450e+00,2.131e+00,3.272e+00,2.451e+00,1.482e+00,2.800e+00,2.828e+00,3.021e+00,2.679e+00,2.621e+00,1.627e+00,2.995e+00,3.423e+00,2.085e+00,2.317e+00,3.407e+00,2.628e+00,2.916e+00,3.358e+00,2.658e+00,2.227e+00,2.400e+00,2.825e+00,3.062e+00,3.134e+00,3.105e+00,2.757e+00,1.915e+00
4.941e-01,4.362e-01,2.424e-01,9.448e-01,8.393e-01,1.815e+00,1.662e+00,2.264e+00,2.661e+00,2.607e+00,2.089e+00,3.579e+00,2.979e+00,3.444e+00,3.344e+00,3.362e+00,2.914e+00,3.454e+00,2.821e+00,3.568e+00,2.167e+00,4.299e+00,3.558e+00,4.009e+00,1.656e+00,2.562e+00,2.728e+00,1.795e+00,2.726e+00,2.808e+00,3.328e+00,2.287e+00,3.654e+00,4.041e+00,2.725e+00,2.997e+00,2.828e+00,2.665e+00,2.605e+00,3.774e+00,3.082e+00,2.512e+00,3.826e+00,3.807e+00,2.695e+00,2.347e+00,3.052e+00,3.434e+00,3.754e+00,2.798e+00,3.400e+00,2.769e+00,3.286e+00,3.215e+00,2.792e+00,3.438e+00,2.005e+00,2.070e+00,2.547e+00,2.479e+00,3.191e+00,3.278e+00,2.860e+00,3.209e+00,2.944e+00,1.982e+00,2.887e+00,2.947e+00,2.807e+00,3.982e+00,2.653e+00,3.647e+00,2.825e+00,2.442e+00,3.479e+00,3.472e+00,2.856e+00,2.784e+00,3.024e+00,2.516e+00,3.086e+00,3.957e+00,2.412e+00,3.399e+00,3.446e+00,3.637e+00,2.822e+00,3.059e+00,2.997e+00,2.521e+00,2.826e+00,3.297e+00,3.514e+00,3.135e+00,3.059e+00,2.575e+00,2.674e+00
1.723e-01,2.404e-01,1.430e-01,5.397e-01,4.652e-01,9.489e-01,9.442e-01,1.333e+00,2.323e+00,2.020e+00,2.343e+00,2.983e+00,2.723e+00,3.825e+00,3.351e+00,3.621e+00,3.646e+00,3.934e+00,2.684e+00,3.914e+00,2.768e+00,3.844e+00,3.534e+00,3.379e+00,2.073e+00,3.732e+00,2.543e+00,2.333e+00,3.611e+00,2.795e+00,2.888e+00,2.142e+00,3.202e+00,4.734e+00,2.569e+00,4.501e+00,3.194e+00,2.780e+00,3.230e+00,3.189e+00,3.415e+00,3.371e+00,3.340e+00,3.801e+00,2.624e+00,3.518e+00,4.212e+00,3.299e+00,4.276e+00,2.916e+00,3.668e+00,1.721e+00,3.148e+00,3.040e+00,3.009e+00,3.205e+00,3.795e+00,1.968e+00,3.061e+00,2.817e+00,3.201e+00,2.389e+00,4.442e+00,3.236e+00,3.933e+00,2.390e+00,2.994e+00,3.148e+00,2.846e+00,4.254e+00,1.688e+00,4.088e+00,3.040e+00,2.593e+00,3.331e+00,3.229e+00,3.604e+00,3.557e+00,3.887e+00,1.806e+00,3.835e+00,4.088e+00,3.063e+00,3.550e+00,3.871e+00,3.056e+00,2.971e+00,3.264e+00,2.795e+00,2.129e+00,2.842e+00,3.418e+00,3.388e+00,3.639e+00,3.356e+00,3.088e+00,3.649e+00
3.067e-01,5.736e-01,4.284e-01,1.795e+00,1.722e+00,2.419e+00,2.394e+00,2.684e+00,3.511e+00,3.620e+00,3.645e+00,4.967e+00,3.807e+00,5.819e+00,5.214e+00,4.865e+00,5.339e+00,5.099e+00,4.404e+00,6.270e+00,5.119e+00,6.290e+00,5.876e+00,5.363e+00,3.950e+00,5.073e+00,4.872e+00,4.142e+00,4.599e+00,4.674e+00,4.642e+00,3.353e+00,4.985e+00,6.111e+00,4.174e+00,5.892e+00,4.593e+00,4.032e+00,5.198e+00,4.648e+00,4.936e+00,4.094e+00,4.997e+00,6.405e+00,3.645e+00,4.279e+00,5.781e+00,4.779e+00,5.912e+00,4.356e+00,4.626e+00,4.324e+00,4.526e+00,4.659e+00,4.773e+00,4.431e+00,4.753e+00,3.557e+00,5.143e+00,4.797e+00,5.026e+00,4.569e+00,6.227e+00,4.532e+00,5.520e+00,3.938e+00,4.320e+00,4.272e+00,4.610e+00,6.361e+00,3.439e+00,5.667e+00,4.402e+00,3.112e+00,5.181e+00,4.876e+00,5.124e+00,4.668e+00,4.921e+00,3.749e+00,5.599e+00,6.006e+00,4.145e+00,4.811e+00,5.697e+00,4.968e+00,4.444e+00,5.373e+00,4.602e+00,3.543e+00,4.873e+00,5.253e+00,5.527e+00,5.576e+00,5.382e+00,4.851e+00,3.990e+00
2.473e-01,1.912e-01,1.769e-01,1.076e+00,9.255e-01,9.693e-01,8.387e-01,1.072e+00,1.124e+00,2.073e+00,2.207e+00,1.905e+00,1.793e+00,3.008e+00,3.744e+00,2.829e+00,3.272e+00,3.017e+00,3.455e+00,3.601e+00,3.581e+00,4.252e+00,3.775e+00,3.658e+00,2.269e+00,3.006e+00,3.456e+00,2.676e+00,3.688e+00,3.258e+00,3.406e+00,2.939e+00,4.100e+00,3.983e+00,4.084e+00,4.223e+00,2.962e+00,3.729e+00,3.501e+00,2.596e+00,2.843e+00,2.518e+00,3.621e+00,4.494e+00,2.629e+00,3.017e+00,3.767e+00,1.807e+00,3.157e+00,3.421e+00,3.395e+00,2.702e+00,2.960e+00,3.166e+00,3.263e+00,3.619e+00,3.353e+00,1.927e+00,3.802e+00,3.399e+00,2.661e+00,2.623e+00,4.207e+00,3.422e+00,3.635e+00,3.038e+00,3.269e+00,3.086e+00,3.190e+00,3.400e+00,2.784e+00,2.949e+00,2.475e+00,1.925e+00,3.972e+00,2.677e+00,3.358e+00,2.609e+00,3.815e+00,3.064e+00,4.459e+00,3.558e+00,2.855e+00,2.523e+00,3.134e+00,3.348e+00,3.206e+00,4.055e+00,3.332e+00,3.074e+00,3.063e+00,3.475e+00,4.273e+00,3.956e+00,3.503e+00,2.845e+00,2.681e+00
3.280e-02,8.192e-02,1.163e-01,5.895e-01,7.837e-01,1.340e+00,1.830e+00,1.519e+00,2.623e+00,2.236e+00,3.176e+00,3.900e+00,3.158e+00,3.848e+00,4.869e+00,4.009e+00,4.885e+00,5.008e+00,4.244e+00,4.517e+00,4.456e+00,5.325e+00,4.446e+00,4.834e+00,4.128e+00,4.554e+00,4.137e+00,4.196e+00,5.535e+00,4.107e+00,4.520e+00,3.601e+00,5.131e+00,6.572e+00,4.431e+00,5.396e+00,3.888e+00,3.586e+00,4.009e+00,4.812e+00,5.778e+00,4.120e+00,5.511e+00,5.781e+00,4.363e+00,5.095e+00,5.742e+00,3.812e+00,5.517e+00,4.116e+00,5.589e+00,3.272e+00,5.233e+00,5.335e+00,4.088e+00,4.189e+00,4.206e+00,3.363e+00,4.883e+00,4.151e+00,4.604e+00,3.666e+00,5.898e+00,4.003e+00,5.213e+00,3.823e+00,3.579e+00,4.118e+00,4.216e+00,5.050e+00,3.081e+00,5.761e+00,4.061e+00,3.936e+00,4.716e+00,4.232e+00,6.001e+00,4.890e+00,5.635e+00,3.707e+00,5.483e+00,5.696e+00,3.748e+00,4.591e+00,5.546e+00,4.977e+00,3.997e+00,4.095e+00,3.770e+00,4.234e+00,2.974e+00,4.305e+00,6.490e+00,5.170e+00,4.389e+00,5.646e+00,4.720e+00
5.765e-01,5.391e-01,3.398e-01,1.258e+00,1.169e+00,2.121e+00,1.940e+00,2.421e+00,3.428e+00,3.461e+00,3.347e+00,4.613e+00,3.893e+00,5.187e+00,5.309e+00,4.867e+00,5.847e+00,6.076e+00,4.750e+00,6.015e+00,4.597e+00,7.437e+00,6.104e+00,5.991e+00,3.601e+00,4.686e+00,5.155e+00,4.495e+00,5.737e+00,5.262e+00,6.025e+00,5.064e+00,6.202e+00,7.405e+00,5.590e+00,6.286e+00,5.447e+00,4.618e+00,5.397e+00,5.360e+00,5.477e+00,4.763e+00,6.553e+00,7.118e+00,4.438e+00,5.351e+00,6.213e+00,4.754e+00,6.691e+00,4.907e+00,5.371e+00,4.967e+00,5.518e+00,5.398e+00,4.848e+00,5.038e+00,4.801e+00,3.900e+00,5.803e+00,4.718e+00,4.979e+00,4.563e+00,6.865e+00,5.106e+00,5.519e+00,4.069e+00,4.769e+00,5.463e+00,5.760e+00,5.963e+00,4.425e+00,6.462e+00,4.904e+00,4.313e+00,6.422e+00,5.741e+00,6.027e+00,5.565e+00,5.583e+00,4.913e+00,6.752e+00,6.529e+00,4.676e+00,4.743e+00,5.342e+00,5.826e+00,5.067e+00,5.714e+00,5.744e+00,4.878e+00,5.229e+00,5.813e+00,7.191e+00,6.306e+00,5.660e+00,5.359e+00,4.733e+00
3.022e-01,3.784e-01,2.389e-01,1.133e+00,9.635e-01,1.527e+00,1.600e+00,2.261e+00,2.735e+00,2.990e+00,2.145e+00,3.975e+00,2.942e+00,5.260e+00,4.713e+00,3.913e+00,5.077e+00,5.682e+00,4.315e+00,6.133e+00,4.361e+00,6.845e+00,5.256e+00,5.034e+00,3.921e+00,4.172e+00,4.214e+00,4.505e+00,5.071e+00,4.483e+00,5.269e+00,3.305e+00,4.597e+00,6.226e+00,4.614e+00,5.423e+00,4.149e+00,4.497e+00,5.555e+00,4.249e+00,4.657e+00,4.814e+00,5.483e+00,6.741e+00,3.960e+00,4.332e+00,5.435e+00,4.668e+00,5.560e+00,3.827e+00,4.109e+00,4.032e+00,5.282e+00,3.904e+00,4.801e+00,4.447e+00,3.972e+00,3.562e+00,5.206e+00,4.628e+00,4.102e+00,4.615e+00,5.889e+00,4.367e+00,5.452e+00,3.752e+00,5.091e+00,4.579e+00,5.314e+00,6.151e+00,4.320e+00,5.705e+00,4.583e+00,3.567e+00,5.277e+00,5.669e+00,4.827e+00,4.839e+00,5.305e+00,4.437e+00,6.019e+00,6.149e+00,4.463e+00,5.597e+00,4.508e+00,5.283e+00,4.451e+00,5.281e+00,5.328e+00,3.899e+00,5.776e+00,5.991e+00,5.595e+00,6.097e+00,5.379e+00,5.377e+00,4.169e+00
6.692e-02,3.393e-01,2.518e-01,1.024e+00,1.069e+00,1.687e+00,1.818e+00,1.884e+00,2.401e+00,2.212e+00,2.224e+00,3.268e+00,2.539e+00,3.414e+00,3.339e+00,3.194e+00,3.738e+00,3.655e+00,3.695e+00,4.316e+00,4.149e+00,4.033e+00,3.668e+00,4.097e+00,3.677e+00,4.449e+00,3.660e+00,3.534e+00,4.264e+00,3.832e+00,3.679e+00,2.592e+00,4.336e+00,4.651e+00,3.030e+00,4.649e+00,3.650e+00,2.775e+00,3.419e+00,4.020e+00,4.698e+00,4.036e+00,4.453e+00,4.790e+00,4.017e+00,4.121e+00,4.640e+00,4.258e+00,4.283e+00,2.974e+00,4.309e+00,3.003e+00,3.917e+00,3.552e+00,3.737e+00,4.250e+00,3.192e+00,3.572e+00,4.499e+00,3.191e+00,4.503e+00,3.872e+00,4.161e+00,3.488e+00,4.317e+00,3.258e+00,3.499e+00,2.958e+00,3.223e+00,4.670e+00,2.694e+00,5.390e+00,3.246e+00,3.375e+00,3.973e+00,3.866e+00,4.598e+00,4.435e+00,4.396e+00,2.847e+00,4.238e+00,5.284e+00,3.458e+00,4.143e+00,4.668e+00,3.595e+00,3.436e+00,3.959e+00,3.793e+00,3.202e+00,3.970e+00,3.711e+00,4.033e+00,4.429e+00,4.767e+00,4.964e+00,3.368e+00
4.033e-01,7.254e-01,5.133e-01,1.495e+00,1.499e+00,2.153e+00,1.472e+00,1.377e+00,2.217e+00,2.360e+00,3.069e+00,3.744e+00,3.370e+00,4.042e+00,4.015e+00,4.039e+00,5.634e+00,5.382e+00,4.573e+00,6.097e+00,5.788e+00,6.916e+00,4.947e+00,5.759e+00,5.367e+00,5.830e+00,5.561e+00,5.688e+00,6.721e+00,5.875e+00,5.655e+00,4.697e+00,6.102e+00,7.304e+00,6.624e+00,6.327e+00,4.988e+00,4.906e+00,5.401e+00,5.967e+00,5.777e+00,6.388e+00,6.698e+00,7.821e+00,5.325e+00,5.726e+00,6.099e+00,4.646e+00,5.594e+00,4.530e+00,5.992e+00,5.388e+00,5.848e+00,5.345e+00,5.568e+00,6.272e+00,5.026e+00,4.761e+00,6.419e+00,5.185e+00,5.675e+00,5.837e+00,6.548e+00,5.708e+00,6.881e+00,4.974e+00,5.647e+00,5.800e+00,6.496e+00,6.216e+00,4.505e+00,6.863e+00,4.585e+00,4.866e+00,6.654e+00,6.050e+00,5.960e+00,6.521e+00,5.788e+00,4.982e+00,6.575e+00,6.721e+00,4.495e+00,4.330e+00,5.202e+00,6.601e+00,4.629e+00,5.382e+00,5.166e+00,5.207e+00,5.274e+00,6.035e+00,6.950e+00,6.290e+00,5.950e+00,6.514e+00,5.079e+00
7.527e-02,1.555e-01,1.935e-01,1.359e+00,1.345e+00,1.683e+00,2.258e+00,2.386e+00,3.256e+00,2.903e+00,2.864e+00,4.515e+00,3.751e+00,5.182e+00,6.249e+00,4.534e+00,5.272e+00,5.842e+00,5.212e+00,6.153e+00,5.703e+00,8.296e+00,6.458e+00,7.403e+00,6.333e+00,6.031e+00,6.053e+00,5.112e+00,7.034e+00,6.021e+00,6.412e+00,4.322e+00,6.382e+00,8.231e+00,5.937e+00,6.897e+00,4.718e+00,5.190e+00,6.488e+00,6.547e+00,6.808e+00,5.589e+00,6.831e+00,7.781e+00,5.234e+00,5.349e+00,6.389e+00,6.240e+00,6.687e+00,5.459e+00,6.677e+00,6.134e+00,6.968e+00,5.937e+00,6.446e+00,6.665e+00,5.294e+00,4.108e+00,6.414e+00,5.473e+00,6.487e+00,6.002e+00,7.559e+00,6.022e+00,7.109e+00,5.213e+00,6.372e+00,6.091e+00,6.219e+00,6.803e+00,5.412e+00,6.479e+00,6.060e+00,5.835e+00,6.595e+00,6.743e+00,7.093e+00,5.649e+00,5.964e+00,6.299e+00,6.922e+00,7.612e+00,6.115e+00,6.290e+00,7.500e+00,6.657e+00,5.120e+00,6.539e+00,5.144e+00,6.032e+00,6.260e+00,7.181e+00,6.728e+00,7.452e+00,6.313e+00,7.295e+00,5.648e+00
4.426e-01,3.964e-01,2.045e-01,9.071e-01,7.810e-01,1.687e+00,1.312e+00,1.883e+00,2.195e+00,2.468e+00,2.206e+00,3.490e+00,2.774e+00,3.611e+00,3.709e+00,3.563e+00,4.779e+00,5.208e+00,4.425e+00,5.200e+00,4.024e+00,6.706e+00,4.732e+00,5.261e+00,5.027e+00,5.725e+00,4.377e+00,4.132e+00,6.236e+00,4.842e+00,6.338e+00,4.648e+00,6.196e+00,7.291e+00,5.378e+00,5.530e+00,4.837e+00,5.297e+00,5.634e+00,5.680e+00,5.225e+00,5.744e+00,7.349e+00,6.009e+00,4.952e+00,5.080e+00,5.886e+00,5.273e+00,6.537e+00,4.308e+00,6.344e+00,5.121e+00,5.996e+00,4.897e+00,5.145e+00,6.526e+00,3.807e+00,4.523e+00,5.416e+00,5.737e+00,5.840e+00,6.480e+00,6.099e+00,6.252e+00,6.001e+00,5.017e+00,5.182e+00,5.249e+00,6.053e+00,5.764e+00,4.442e+00,7.278e+00,5.031e+00,6.179e+00,5.916e+00,6.965e+00,6.204e+00,5.376e+00,5.929e+00,6.007e+00,6.298e+00,5.964e+00,5.294e+00,5.190e+00,5.478e+00,5.825e+00,4.115e+00,5.575e+00,4.972e+00,5.606e+00,5.915e+00,6.093e+00,6.394e+00,6.770e+00,4.749e+00,6.063e+00,5.692e+00
5.995e-01,6.381e-01,3.459e-01,1.212e+00,1.066e+00,2.375e+00,2.130e+00,2.983e+00,3.615e+00,3.593e+00,2.504e+00,4.532e+00,3.183e+00,4.826e+00,4.158e+00,4.252e+00,4.354e+00,4.964e+00,4.728e+00,5.677e+00,4.103e+00,6.833e+00,6.514e+00,6.713e+00,6.220e+00,6.333e+00,4.970e+00,5.651e+00,6.840e+00,5.639e+00,6.754e+00,5.271e+00,6.271e+00,8.036e+00,5.740e+00,6.481e+00,5.164e+00,5.496e+00,6.259e+00,6.982e+00,6.556e+00,6.889e+00,7.323e+00,6.801e+00,5.665e+00,6.128e+00,6.132e+00,7.092e+00,7.888e+00,4.939e+00,5.537e+00,4.910e+00,6.488e+00,5.546e+00,5.768e+00,6.794e+00,4.167e+00,4.606e+00,5.409e+00,6.131e+00,5.680e+00,7.687e+00,6.579e+00,6.220e+00,6.780e+00,5.771e+00,6.068e+00,4.785e+00,6.206e+00,7.255e+00,5.013e+00,8.248e+00,5.618e+00,5.861e+00,6.525e+00,7.318e+00,6.827e+00,6.571e+00,6.390e+00,5.678e+00,6.850e+00,7.392e+00,6.620e+00,6.149e+00,6.849e+00,6.943e+00,5.185e+00,6.271e+00,6.146e+00,6.213e+00,6.492e+00,7.154e+00,6.212e+00,7.585e+00,7.165e+00,6.865e+00,5.085e+00
6.674e-02,2.619e-01,2.169e-01,9.679e-01,1.006e+00,1.570e+00,1.981e+00,2.116e+00,2.867e+00,2.732e+00,2.608e+00,4.415e+00,3.264e+00,5.157e+00,5.516e+00,4.283e+00,5.655e+00,6.045e+00,5.392e+00,6.600e+00,5.823e+00,7.757e+00,6.506e+00,7.393e+00,7.763e+00,7.408e+00,6.763e+00,7.138e+00,8.143e+00,7.241e+00,6.740e+00,5.548e+00,7.482e+00,9.103e+00,7.618e+00,8.262e+00,5.845e+00,5.223e+00,7.863e+00,7.078e+00,7.772e+00,6.948e+00,8.584e+00,8.775e+00,6.035e+00,7.331e+00,7.876e+00,6.663e+00,7.605e+00,6.142e+00,6.558e+00,5.632e+00,7.027e+00,6.779e+00,6.713e+00,7.647e+00,6.022e+00,6.004e+00,8.253e+00,6.578e+00,6.359e+00,6.887e+00,8.111e+00,7.132e+00,7.283e+00,6.588e+00,6.286e+00,5.936e+00,6.805e+00,7.052e+00,6.236e+00,9.192e+00,6.605e+00,7.468e+00,7.974e+00,7.813e+00,8.024e+00,7.525e+00,7.777e+00,7.335e+00,7.941e+00,8.042e+00,6.976e+00,7.286e+00,7.838e+00,7.809e+00,6.102e+00,6.834e+00,6.495e+00,6.796e+00,6.599e+00,7.822e+00,7.740e+00,8.610e+00,7.659e+00,8.457e+00,6.460e+00
3.132e-01,5.769e-01,4.165e-01,1.390e+00,1.227e+00,1.555e+00,1.046e+00,1.362e+00,2.102e+00,2.384e+00,2.194e+00,2.969e+00,2.412e+00,3.685e+00,3.188e+00,3.595e+00,4.669e+00,4.468e+00,3.802e+00,4.594e+00,3.954e+00,6.145e+00,5.065e+00,5.166e+00,5.874e+00,6.365e+00,5.958e+00,6.282e+00,6.820e+00,5.697e+00,6.018e+00,5.347e+00,6.498e+00,7.077e+00,7.392e+00,6.662e+00,5.669e+00,5.386e+00,6.881e+00,6.023e+00,7.132e+00,6.057e+00,6.510e+00,7.452e+00,5.382e+00,6.171e+00,6.434e+00,5.073e+00,6.265e+00,5.393e+00,4.291e+00,4.429e+00,6.462e+00,6.010e+00,4.775e+00,6.021e+00,6.127e+00,4.985e+00,6.754e+00,5.467e+00,4.984e+00,6.303e+00,7.162e+00,5.827e+00,6.446e+00,6.178e+00,5.711e+00,5.653e+00,6.636e+00,6.001e+00,5.264e+00,6.279e+00,5.565e+00,5.491e+00,6.785e+00,6.599e+00,6.858e+00,6.405e+00,6.357e+00,6.087e+00,7.004e+00,6.887e+00,5.715e+00,4.770e+00,6.038e+00,6.948e+00,4.459e+00,6.449e+00,5.469e+00,6.923e+00,5.901e+00,7.184e+00,6.654e+00,6.787e+00,7.227e+00,6.362e+00,6.129e+00
1.761e-01,4.596e-01,3.908e-01,1.675e+00,1.608e+00,2.085e+00,2.264e+00,2.490e+00,2.976e+00,3.143e+00,3.093e+00,4.705e+00,3.494e+00,4.847e+00,5.399e+00,4.426e+00,5.363e+00,5.435e+00,5.107e+00,5.765e+00,5.688e+00,7.140e+00,6.720e+00,6.837e+00,6.661e+00,8.016e+00,7.803e+00,6.952e+00,8.270e+00,6.599e+00,6.345e+00,5.965e+00,8.361e+00,9.542e+00,8.305e+00,8.532e+00,6.802e+00,7.026e+00,7.355e+00,7.540e+00,8.639e+00,6.798e+00,8.653e+00,8.928e+00,6.990e+00,6.603e+00,8.066e+00,6.881e+00,8.089e+00,6.743e+00,7.235e+00,5.495e+00,6.976e+00,7.780e+00,6.958e+00,8.065e+00,6.037e+00,6.084e+00,8.100e+00,6.966e+00,6.866e+00,7.665e+00,8.575e+00,7.058e+00,8.068e+00,6.775e+00,6.344e+00,6.096e+00,7.587e+00,7.105e+00,6.588e+00,9.479e+00,6.581e+00,7.267e+00,8.048e+00,7.469e+00,8.278e+00,7.658e+00,8.085e+00,7.531e+00,8.211e+00,8.514e+00,7.215e+00,6.765e+00,8.786e+00,8.217e+00,5.913e+00,7.711e+00,6.664e+00,7.995e+00,6.000e+00,8.443e+00,8.143e+00,7.986e+00,7.531e+00,8.920e+00,7.342e+00
2.999e-01,3.040e-01,2.438e-01,9.033e-01,1.076e+00,1.735e+00,1.625e+00,1.209e+00,1.987e+00,1.955e+00,2.901e+00,3.381e+00,2.606e+00,3.395e+00,3.771e+00,2.939e+00,4.631e+00,5.263e+00,4.542e+00,5.124e+00,4.748e+00,6.358e+00,4.852e+00,5.686e+00,6.150e+00,6.709e+00,7.564e+00,6.556e+00,7.728e+00,6.414e+00,6.297e+00,5.838e+00,8.019e+00,8.374e+00,8.208e+00,6.729e+00,4.849e+00,6.319e+00,7.330e+00,6.403e+00,7.451e+00,6.629e+00,7.920e+00,8.074e+00,6.649e+00,6.139e+00,6.811e+00,5.632e+00,7.164e+00,5.867e+00,6.356e+00,5.188e+00,6.738e+00,7.291e+00,6.079e+00,6.932e+00,5.357e+00,5.749e+00,7.416e+00,6.948e+00,5.793e+00,7.609e+00,7.171e+00,5.329e+00,8.418e+00,5.500e+00,5.888e+00,7.210e+00,7.481e+00,6.636e+00,6.380e+00,8.071e+00,5.834e+00,6.445e+00,7.536e+00,7.273e+00,7.723e+00,6.547e+00,7.128e+00,6.602e+00,7.875e+00,7.066e+00,6.239e+00,5.862e+00,7.871e+00,7.465e+00,5.015e+00,6.808e+00,6.086e+00,6.670e+00,5.941e+00,7.850e+00,8.082e+00,7.096e+00,7.171e+00,8.361e+00,6.692e+00
2.187e-01,4.060e-01,2.915e-01,1.246e+00,1.247e+00,1.892e+00,1.654e+00,1.702e+00,1.850e+00,1.946e+00,1.657e+00,3.016e+00,2.510e+00,2.865e+00,3.241e+00,2.806e+00,4.134e+00,4.241e+00,3.796e+00,4.224e+00,3.837e+00,5.003e+00,4.379e+00,4.821e+00,4.820e+00,5.300e+00,6.003e+00,5.419e+00,6.575e+00,6.522e+00,5.626e+00,5.143e+00,7.028e+00,6.959e+00,5.973e+00,5.112e+00,4.613e+00,3.892e+00,5.334e+00,6.109e+00,6.522e+00,5.600e+00,6.924e+00,7.036e+00,5.409e+00,6.085e+00,6.181e+00,6.369e+00,5.474e+00,4.841e+00,5.454e+00,5.033e+00,6.880e+00,5.317e+00,5.126e+00,6.717e+00,4.844e+00,5.366e+00,6.832e+00,5.770e+00,6.354e+00,7.039e+00,5.896e+00,6.300e+00,5.136e+00,5.087e+00,5.763e+00,5.378e+00,5.145e+00,5.759e+00,5.525e+00,6.903e+00,5.792e+00,5.995e+00,5.705e+00,6.481e+00,6.613e+00,5.708e+00,5.549e+00,6.724e+00,5.994e+00,6.875e+00,5.529e+00,5.405e+00,6.227e+00,4.936e+00,4.557e+00,5.821e+00,5.319e+00,6.023e+00,5.762e+00,6.237e+00,6.219e+00,6.558e+00,6.949e+00,6.179e+00,5.531e+00
2.659e-01,3.087e-01,1.725e-01,8.626e-01,6.111e-01,9.263e-01,7.085e-01,1.456e+00,1.933e+00,2.180e+00,2.238e+00,3.211e+00,3.053e+00,4.565e+00,4.441e+00,3.991e+00,5.110e+00,5.631e+00,4.356e+00,5.789e+00,4.324e+00,6.596e+00,5.339e+00,5.995e+00,6.170e+00,6.715e+00,6.280e+00,6.042e+00,7.936e+00,6.902e+00,6.559e+00,5.456e+00,7.332e+00,9.053e+00,8.500e+00,7.280e+00,5.674e+00,6.965e+00,8.568e+00,7.152e+00,8.260e+00,6.833e+00,8.312e+00,8.796e+00,6.425e+00,7.345e+00,7.483e+00,6.090e+00,7.092e+00,5.760e+00,6.926e+00,5.062e+00,7.863e+00,7.162e+00,5.501e+00,7.955e+00,6.096e+00,5.067e+00,7.915e+00,6.519e+00,6.352e+00,7.844e+00,7.383e+00,7.412e+00,8.085e+00,7.217e+00,7.046e+00,7.316e+00,6.953e+00,7.694e+00,6.453e+00,7.360e+00,6.355e+00,6.866e+00,8.114e+00,8.499e+00,7.456e+00,7.133e+00,8.047e+00,7.382e+00,8.389e+00,7.560e+00,6.367e+00,7.038e+00,7.411e+00,8.637e+00,4.891e+00,7.087e+00,6.609e+00,6.992e+00,6.916e+00,9.246e+00,7.780e+00,7.608e+00,7.787e+00,7.091e+00,7.564e+00
5.380e-02,3.480e-01,2.793e-01,1.363e+00,1.316e+00,1.759e+00,1.843e+00,2.032e+00,2.829e+00,2.749e+00,3.068e+00,3.998e+00,3.419e+00,5.002e+00,5.469e+00,4.718e+00,5.539e+00,5.210e+00,5.262e+00,6.329e+00,6.006e+00,7.031e+00,6.884e+00,7.026e+00,7.132e+00,8.435e+00,8.012e+00,7.201e+00,9.542e+00,8.050e+00,7.882e+00,7.437e+00,9.330e+00,1.155e+01,9.511e+00,9.489e+00,7.054e+00,7.635e+00,8.886e+00,8.889e+00,1.074e+01,8.401e+00,9.673e+00,9.594e+00,8.478e+00,9.041e+00,9.235e+00,8.541e+00,9.257e+00,7.702e+00,9.075e+00,6.891e+00,9.044e+00,8.588e+00,7.393e+00,9.692e+00,8.146e+00,7.138e+00,9.719e+00,8.276e+00,8.899e+00,9.614e+00,1.024e+01,8.842e+00,9.772e+00,8.440e+00,8.196e+00,8.345e+00,8.489e+00,8.715e+00,7.247e+00,1.001e+01,7.449e+00,7.803e+00,8.725e+00,8.731e+00,9.226e+00,8.376e+00,8.804e+00,9.133e+00,9.634e+00,9.785e+00,8.206e+00,7.232e+00,9.877e+00,8.413e+00,6.865e+00,8.515e+00,8.189e+00,8.438e+00,8.584e+00,1.018e+01,9.262e+00,9.597e+00,1.054e+01,9.096e+00,7.863e+00
5.149e-01,6.707e-01,4.634e-01,1.581e+00,1.574e+00,2.349e+00,1.838e+00,1.855e+00,2.578e+00,2.667e+00,3.040e+00,3.996e+00,3.336e+00,3.602e+00,4.022e+00,3.671e+00,4.758e+00,4.492e+00,4.449e+00,5.482e+00,5.132e+00,6.747e+00,5.250e+00,6.273e+00,5.907e+00,6.546e+00,6.776e+00,5.965e+00,7.398e+00,7.418e+00,7.139e+00,7.401e+00,8.276e+00,9.264e+00,9.154e+00,6.938e+00,7.192e+00,6.790e+00,8.513e+00,7.742e+00,8.204e+00,6.701e+00,8.599e+00,9.556e+00,7.057e+00,7.847e+00,8.031e+00,6.779e+00,7.973e+00,6.628e+00,8.323e+00,7.582e+00,7.805e+00,8.135e+00,6.790e+00,7.813e+00,6.886e+00,7.031e+00,8.357e+00,6.833e+00,7.676e+00,8.282e+00,7.747e+00,7.764e+00,8.427e+00,6.914e+00,6.921e+00,8.415e+00,7.824e+00,7.597e+00,6.993e+00,9.209e+00,6.688e+00,7.072e+00,8.603e+00,8.477e+00,8.103e+00,7.387e+00,7.779e+00,8.617e+00,8.343e+00,8.404e+00,6.223e+00,6.413e+00,8.051e+00,9.237e+00,5.949e+00,7.956e+00,7.649e+00,7.597e+00,6.594e+00,8.658e+00,8.615e+00,8.529e+00,8.274e+00,7.889e+00,7.307e+00
5.133e-01,4.914e-01,3.478e-01,1.314e+00,1.341e+00,2.262e+00,1.951e+00,1.977e+00,2.997e+00,3.105e+00,3.389e+00,4.380e+00,3.784e+00,5.245e+00,5.300e+00,4.740e+00,6.248e+00,6.916e+00,5.911e+00,6.886e+00,5.671e+00,8.608e+00,6.618e+00,8.106e+00,7.702e+00,8.673e+00,8.806e+00,7.394e+00,1.001e+01,9.396e+00,1.029e+01,9.726e+00,1.095e+01,1.223e+01,1.278e+01,1.019e+01,7.938e+00,9.465e+00,1.073e+01,1.060e+01,1.123e+01,9.559e+00,1.190e+01,1.155e+01,1.087e+01,9.886e+00,1.062e+01,9.217e+00,1.078e+01,9.257e+00,1.045e+01,9.178e+00,1.095e+01,1.091e+01,9.827e+00,9.723e+00,1.045e+01,9.415e+00,1.052e+01,9.231e+00,9.145e+00,1.113e+01,1.110e+01,1.051e+01,1.226e+01,8.984e+00,8.866e+00,1.140e+01,1.130e+01,1.017e+01,9.514e+00,1.141e+01,9.089e+00,9.737e+00,1.064e+01,1.021e+01,1.002e+01,9.789e+00,1.099e+01,1.219e+01,1.203e+01,1.141e+01,8.988e+00,8.358e+00,1.166e+01,1.151e+01,7.799e+00,9.912e+00,1.031e+01,1.071e+01,9.770e+00,1.277e+01,1.112e+01,1.103e+01,1.126e+01,1.053e+01,1.015e+01
4.703e-01,5.882e-01,3.957e-01,1.353e+00,1.265e+00,2.067e+00,1.818e+00,2.203e+00,2.622e+00,2.995e+00,2.028e+00,3.831e+00,3.085e+00,4.989e+00,4.945e+00,3.927e+00,5.785e+00,6.060e+00,4.888e+00,6.480e+00,5.662e+00,7.326e+00,5.960e+00,6.810e+00,6.670e+00,6.798e+00,6.914e+00,7.582e+00,7.965e+00,8.951e+00,8.619e+00,7.984e+00,9.595e+00,1.170e+01,1.044e+01,8.619e+00,8.312e+00,7.720e+00,9.540e+00,9.002e+00,1.072e+01,9.523e+00,1.102e+01,1.165e+01,9.777e+00,1.003e+01,9.100e+00,7.699e+00,9.442e+00,8.194e+00,9.265e+00,8.620e+00,9.408e+00,8.768e+00,8.136e+00,9.427e+00,8.405e+00,8.259e+00,1.037e+01,7.676e+00,8.174e+00,9.471e+00,8.885e+00,9.693e+00,9.620e+00,7.936e+00,8.601e+00,9.540e+00,9.075e+00,9.450e+00,8.397e+00,1.054e+01,8.145e+00,9.283e+00,1.006e+01,9.247e+00,9.772e+00,8.777e+00,9.448e+00,1.034e+01,1.078e+01,9.580e+00,7.738e+00,8.394e+00,9.142e+00,9.997e+00,7.924e+00,9.074e+00,9.254e+00,9.462e+00,8.767e+00,1.011e+01,9.969e+00,1.120e+01,1.051e+01,9.829e+00,8.529e+00
4.881e-01,6.366e-01,3.906e-01,1.400e+00,1.158e+00,1.960e+00,1.441e+00,2.224e+00,2.839e+00,2.780e+00,2.563e+00,3.555e+00,2.908e+00,4.430e+00,3.718e+00,4.000e+00,4.823e+00,5.200e+00,3.841e+00,5.411e+00,4.347e+00,7.592e+00,6.453e+00,6.535e+00,6.641e+00,7.307e+00,6.799e+00,6.765e+00,8.753e+00,8.089e+00,8.230e+00,7.994e+00,7.482e+00,1.233e+01,1.036e+01,8.981e+00,7.232e+00,8.086e+00,9.931e+00,8.964e+00,9.216e+00,9.463e+00,1.028e+01,9.605e+00,7.897e+00,8.341e+00,8.876e+00,8.806e+00,1.107e+01,7.715e+00,8.398e+00,7.722e+00,8.817e+00,8.717e+00,8.067e+00,8.773e+00,7.908e+00,7.229e+00,7.891e+00,8.535e+00,8.570e+00,1.052e+01,1.070e+01,9.896e+00,1.025e+01,8.786e+00,7.421e+00,9.805e+00,1.007e+01,9.054e+00,8.300e+00,9.570e+00,8.837e+00,8.624e+00,9.111e+00,9.493e+00,9.376e+00,8.954e+00,8.821e+00,9.741e+00,1.135e+01,1.008e+01,9.044e+00,6.518e+00,9.919e+00,9.380e+00,6.729e+00,8.566e+00,8.766e+00,9.262e+00,8.408e+00,1.155e+01,9.531e+00,9.577e+00,9.417e+00,8.198e+00,8.498e+00
2.598e-01,2.223e-01,1.799e-01,9.649e-01,1.051e+00,1.831e+00,2.045e+00,2.028e+00,2.874e+00,2.965e+00,2.888e+00,4.015e+00,3.156e+00,4.966e+00,5.251e+00,4.236e+00,5.357e+00,5.958e+00,5.138e+00,6.421e+00,5.498e+00,7.837e+00,5.940e+00,6.760e+00,6.109e+00,7.371e+00,6.599e+00,5.866e+00,8.437e+00,7.288e+00,7.891e+00,7.163e+00,8.510e+00,1.079e+01,1.058e+01,8.691e+00,7.000e+00,8.133e+00,1.034e+01,7.596e+00,9.478e+00,8.795e+00,9.453e+00,1.036e+01,8.248e+00,7.983e+00,1.020e+01,8.143e+00,9.552e+00,7.519e+00,8.601e+00,7.680e+00,8.774e+00,9.430e+00,9.112e+00,8.678e+00,8.621e+00,7.745e+00,9.163e+00,7.850e+00,7.996e+00,9.805e+00,1.021e+01,8.693e+00,1.095e+01,8.302e+00,8.285e+00,9.819e+00,9.322e+00,9.688e+00,8.503e+00,9.857e+00,8.221e+00,8.169e+00,1.010e+01,9.926e+00,9.473e+00,8.664e+00,9.279e+00,9.065e+00,1.107e+01,9.458e+00,8.394e+00,7.811e+00,9.835e+00,1.020e+01,7.814e+00,9.150e+00,8.997e+00,8.199e+00,8.210e+00,1.113e+01,1.070e+01,1.025e+01,1.029e+01,8.597e+00,8.731e+00
1.524e-01,1.308e-01,1.148e-01,6.799e-01,7.093e-01,1.128e+00,1.394e+00,1.457e+00,2.347e+00,2.096e+00,2.756e+00,3.395e+00,2.981e+00,3.942e+00,4.634e+00,3.627e+00,4.610e+00,5.300e+00,4.527e+00,5.089e+00,4.794e+00,6.326e+00,5.388e+00,6.194e+00,6.735e+00,7.353e+00,7.258e+00,7.189e+00,9.254e+00,7.602e+00,8.069e+00,8.124e+00,9.622e+00,1.246e+01,1.161e+01,9.695e+00,6.951e+00,9.066e+00,1.008e+01,9.943e+00,1.247e+01,1.069e+01,1.165e+01,1.165e+01,1.122e+01,1.078e+01,1.050e+01,8.702e+00,1.054e+01,8.957e+00,1.100e+01,8.353e+00,1.096e+01,1.034e+01,8.385e+00,9.411e+00,9.579e+00,8.305e+00,1.008e+01,9.375e+00,9.814e+00,1.074e+01,1.112e+01,1.041e+01,1.207e+01,9.217e+00,9.613e+00,1.034e+01,1.047e+01,1.017e+01,1.012e+01,1.032e+01,9.531e+00,9.361e+00,9.379e+00,9.384e+00,1.125e+01,9.510e+00,1.029e+01,1.094e+01,1.228e+01,1.092e+01,9.795e+00,9.002e+00,1.199e+01,1.033e+01,7.732e+00,1.048e+01,9.809e+00,1.052e+01,8.856e+00,1.250e+01,1.072e+01,1.123e+01,1.117e+01,1.095e+01,1.139e+01
2.894e-01,6.436e-01,4.754e-01,1.840e+00,1.671e+00,2.269e+00,1.861e+00,2.278e+00,2.914e+00,3.314e+00,3.413e+00,4.620e+00,3.419e+00,4.618e+00,4.140e+00,4.859e+00,6.057e+00,5.704e+00,4.897e+00,5.610e+00,4.842e+00,6.813e+00,6.795e+00,6.157e+00,5.771e+00,6.976e+00,6.925e+00,7.401e+00,8.181e+00,7.076e+00,8.325e+00,8.084e+00,8.880e+00,1.219e+01,1.146e+01,9.632e+00,8.910e+00,9.551e+00,1.088e+01,9.764e+00,1.248e+01,9.862e+00,1.220e+01,1.198e+01,1.123e+01,9.997e+00,1.113e+01,9.428e+00,1.166e+01,8.744e+00,1.054e+01,9.446e+00,1.136e+01,1.126e+01,7.775e+00,9.266e+00,9.423e+00,9.821e+00,1.126e+01,8.928e+00,1.037e+01,1.097e+01,1.163e+01,1.096e+01,1.141e+01,1.018e+01,9.090e+00,1.045e+01,1.103e+01,1.066e+01,9.716e+00,1.117e+01,1.024e+01,9.612e+00,1.025e+01,9.968e+00,1.233e+01,1.029e+01,1.089e+01,1.111e+01,1.155e+01,1.161e+01,9.721e+00,8.399e+00,1.138e+01,1.075e+01,8.425e+00,1.016e+01,1.142e+01,1.032e+01,9.282e+00,1.240e+01,1.170e+01,1.206e+01,1.110e+01,9.425e+00,1.050e+01
4.683e-01,7.750e-01,5.618e-01,1.779e+00,1.755e+00,2.586e+00,1.919e+00,1.930e+00,3.160e+00,2.775e+00,3.326e+00,4.660e+00,4.087e+00,4.973e+00,4.559e+00,4.736e+00,6.365e+00,7.008e+00,5.454e+00,6.394e+00,5.501e+00,8.087e+00,6.706e+00,7.503e+00,7.357e+00,8.544e+00,8.705e+00,7.301e+00,9.029e+00,8.495e+00,8.528e+00,8.143e+00,9.468e+00,1.192e+01,1.082e+01,1.024e+01,8.546e+00,9.511e+00,9.512e+00,1.002e+01,1.174e+01,1.009e+01,1.251e+01,1.224e+01,1.148e+01,9.796e+00,1.003e+01,9.904e+00,1.171e+01,8.757e+00,9.772e+00,8.905e+00,1.056e+01,1.145e+01,8.800e+00,1.008e+01,9.175e+00,8.849e+00,1.140e+01,9.301e+00,1.006e+01,1.235e+01,1.169e+01,1.031e+01,1.222e+01,9.691e+00,9.311e+00,1.106e+01,1.197e+01,1.037e+01,9.198e+00,1.114e+01,8.970e+00,9.351e+00,1.068e+01,1.017e+01,1.095e+01,1.101e+01,1.011e+01,9.907e+00,1.212e+01,1.121e+01,1.003e+01,9.309e+00,1.052e+01,1.085e+01,7.569e+00,9.803e+00,9.866e+00,1.030e+01,9.656e+00,1.241e+01,1.135e+01,1.165e+01,1.167e+01,1.088e+01,1.073e+01
7.185e-02,4.547e-01,3.300e-01,1.003e+00,9.533e-01,1.377e+00,1.226e+00,1.427e+00,1.880e+00,1.950e+00,2.285e+00,3.572e+00,2.872e+00,4.534e+00,4.431e+00,3.823e+00,4.821e+00,5.223e+00,4.817e+00,6.321e+00,5.725e+00,7.277e+00,5.282e+00,6.380e+00,7.081e+00,7.708e+00,7.189e+00,7.438e+00,8.867e+00,7.728e+00,7.498e+00,7.755e+00,8.957e+00,1.247e+01,1.185e+01,9.747e+00,7.647e+00,9.290e+00,1.111e+01,9.361e+00,1.186e+01,1.129e+01,1.237e+01,1.226e+01,1.058e+01,1.018e+01,1.008e+01,9.080e+00,1.044e+01,8.371e+00,1.068e+01,8.988e+00,1.073e+01,9.900e+00,9.376e+00,1.085e+01,9.717e+00,9.685e+00,1.101e+01,9.094e+00,9.162e+00,1.172e+01,1.127e+01,1.052e+01,1.142e+01,1.021e+01,1.019e+01,1.061e+01,1.054e+01,1.067e+01,9.367e+00,1.286e+01,9.651e+00,1.011e+01,1.093e+01,1.142e+01,1.013e+01,1.120e+01,1.140e+01,1.113e+01,1.248e+01,9.965e+00,8.942e+00,9.916e+00,1.059e+01,1.129e+01,8.401e+00,9.530e+00,9.806e+00,9.246e+00,9.478e+00,1.170e+01,1.115e+01,1.187e+01,1.171e+01,1.131e+01,1.040e+01
2.297e-01,1.844e-01,1.872e-01,1.060e+00,9.833e-01,9.973e-01,1.100e+00,1.176e+00,1.594e+00,2.160e+00,2.618e+00,3.078e+00,2.954e+00,4.129e+00,4.493e+00,3.273e+00,4.346e+00,4.586e+00,4.002e+00,5.284e+00,4.648e+00,6.373e+00,5.760e+00,5.982e+00,5.901e+00,7.072e+00,6.746e+00,5.819e+00,7.415e+00,7.067e+00,6.185e+00,7.565e+00,7.940e+00,9.986e+00,1.085e+01,8.395e+00,6.852e+00,8.920e+00,1.003e+01,8.692e+00,9.908e+00,8.927e+00,1.088e+01,1.198e+01,9.449e+00,9.441e+00,9.554e+00,8.419e+00,9.718e+00,8.652e+00,8.727e+00,8.212e+00,9.024e+00,1.075e+01,8.871e+00,1.026e+01,8.653e+00,7.799e+00,1.108e+01,8.881e+00,8.133e+00,1.107e+01,1.081e+01,1.033e+01,1.104e+01,9.697e+00,9.042e+00,1.005e+01,1.022e+01,9.016e+00,9.410e+00,9.943e+00,9.657e+00,8.794e+00,1.177e+01,1.007e+01,9.535e+00,1.038e+01,9.832e+00,1.017e+01,1.225e+01,8.353e+00,8.813e+00,8.670e+00,9.711e+00,1.134e+01,7.734e+00,1.006e+01,9.072e+00,9.084e+00,7.838e+00,1.241e+01,1.126e+01,1.051e+01,1.042e+01,8.800e+00,9.915e+00
5.305e-02,4.521e-01,4.021e-01,1.457e+00,1.481e+00,1.803e+00,1.608e+00,1.399e+00,2.230e+00,2.226e+00,3.159e+00,3.928e+00,3.448e+00,4.491e+00,4.224e+00,4.413e+00,5.329e+00,5.424e+00,4.549e+00,5.695e+00,5.040e+00,7.189e+00,5.641e+00,6.309e+00,5.800e+00,6.230e+00,6.413e+00,6.200e+00,7.369e+00,7.154e+00,6.571e+00,7.165e+00,7.123e+00,1.031e+01,9.894e+00,8.359e+00,6.291e+00,6.327e+00,9.304e+00,8.968e+00,1.087e+01,9.853e+00,1.041e+01,1.161e+01,8.767e+00,1.010e+01,8.836e+00,9.156e+00,1.027e+01,8.315e+00,9.081e+00,9.311e+00,1.016e+01,9.576e+00,8.906e+00,8.852e+00,9.858e+00,9.602e+00,1.041e+01,8.387e+00,8.595e+00,1.057e+01,1.124e+01,9.529e+00,1.014e+01,9.269e+00,8.862e+00,9.734e+00,1.043e+01,9.164e+00,8.308e+00,1.105e+01,9.931e+00,8.930e+00,9.677e+00,1.056e+01,9.304e+00,1.181e+01,1.071e+01,9.752e+00,1.196e+01,9.105e+00,8.206e+00,9.111e+00,9.689e+00,9.822e+00,8.253e+00,8.659e+00,8.157e+00,8.222e+00,8.616e+00,1.051e+01,1.113e+01,9.975e+00,1.091e+01,9.470e+00,8.734e+00
5.842e-02,2.103e-01,2.101e-01,1.067e+00,1.025e+00,1.122e+00,1.331e+00,1.395e+00,1.963e+00,2.299e+00,3.048e+00,3.490e+00,2.928e+00,3.830e+00,3.944e+00,3.616e+00,4.839e+00,5.062e+00,4.207e+00,5.059e+00,4.776e+00,6.491e+00,5.012e+00,4.974e+00,5.589e+00,7.120e+00,6.671e+00,6.876e+00,8.015e+00,6.290e+00,6.971e+00,7.801e+00,8.118e+00,1.088e+01,1.110e+01,9.086e+00,7.738e+00,9.697e+00,1.020e+01,8.761e+00,1.148e+01,1.004e+01,1.156e+01,1.290e+01,1.084e+01,1.077e+01,1.133e+01,8.942e+00,1.113e+01,9.479e+00,9.906e+00,9.218e+00,1.080e+01,1.091e+01,8.416e+00,8.956e+00,1.028e+01,1.043e+01,1.072e+01,9.165e+00,8.939e+00,1.099e+01,1.200e+01,1.028e+01,1.222e+01,9.649e+00,8.898e+00,1.044e+01,1.112e+01,9.750e+00,1.043e+01,1.128e+01,1.020e+01,9.821e+00,1.002e+01,1.073e+01,1.153e+01,1.109e+01,1.175e+01,1.050e+01,1.276e+01,1.104e+01,9.821e+00,9.910e+00,1.127e+01,1.094e+01,8.977e+00,1.020e+01,1.018e+01,1.079e+01,8.884e+00,1.199e+01,1.172e+01,1.154e+01,1.079e+01,1.112e+01,1.115e+01
2.329e-01,3.890e-01,3.316e-01,1.458e+00,1.432e+00,1.826e+00,1.798e+00,1.815e+00,2.561e+00,2.539e+00,3.101e+00,3.964e+00,3.292e+00,3.727e+00,4.034e+00,3.767e+00,5.086e+00,5.551e+00,4.733e+00,5.450e+00,5.347e+00,7.898e+00,5.539e+00,6.626e+00,7.032e+00,8.262e+00,7.663e+00,7.247e+00,9.475e+00,8.205e+00,7.998e+00,8.593e+00,9.064e+00,1.212e+01,1.197e+01,9.639e+00,8.095e+00,9.481e+00,1.106e+01,1.001e+01,1.215e+01,1.113e+01,1.306e+01,1.351e+01,1.131e+01,1.212e+01,1.113e+01,1.090e+01,1.282e+01,1.074e+01,1.143e+01,1.040e+01,1.181e+01,1.206e+01,1.024e+01,1.042e+01,1.116e+01,1.063e+01,1.155e+01,1.076e+01,1.085e+01,1.268e+01,1.316e+01,1.164e+01,1.324e+01,1.135e+01,1.038e+01,1.220e+01,1.338e+01,1.001e+01,1.106e+01,1.238e+01,1.100e+01,1.153e+01,1.082e+01,1.249e+01,1.158e+01,1.289e+01,1.208e+01,1.236e+01,1.437e+01,1.221e+01,1.112e+01,1.014e+01,1.250e+01,1.215e+01,9.042e+00,1.127e+01,1.046e+01,1.136e+01,9.265e+00,1.327e+01,1.361e+01,1.250e+01,1.223e+01,1.246e+01,1.230e+01
6.003e-01,5.094e-01,3.073e-01,9.965e-01,1.110e+00,2.179e+00,2.065e+00,2.058e+00,3.190e+00,2.846e+00,2.826e+00,3.978e+00,3.797e+00,4.299e+00,5.170e+00,3.916e+00,5.186e+00,5.327e+00,4.787e+00,6.199e+00,5.627e+00,8.082e+00,6.457e+00,7.358e+00,7.667e+00,8.021e+00,7.493e+00,7.117e+00,9.042e+00,8.591e+00,7.763e+00,8.469e+00,8.895e+00,1.118e+01,9.654e+00,8.828e+00,7.978e+00,8.641e+00,9.508e+00,1.018e+01,1.166e+01,1.068e+01,1.282e+01,1.493e+01,1.165e+01,1.285e+01,1.078e+01,1.034e+01,1.219e+01,1.105e+01,1.033e+01,1.178e+01,1.133e+01,1.144e+01,9.925e+00,1.074e+01,9.880e+00,1.046e+01,1.241e+01,1.117e+01,1.018e+01,1.354e+01,1.380e+01,1.126e+01,1.291e+01,1.112e+01,1.044e+01,1.053e+01,1.247e+01,1.015e+01,1.088e+01,1.237e+01,1.135e+01,1.095e+01,1.202e+01,1.278e+01,1.327e+01,1.312e+01,1.157e+01,1.042e+01,1.416e+01,1.164e+01,1.169e+01,1.007e+01,1.122e+01,1.191e+01,9.542e+00,1.100e+01,1.046e+01,1.178e+01,9.726e+00,1.198e+01,1.440e+01,1.226e+01,1.287e+01,1.201e+01,1.067e+01
5.769e-01,6.268e-01,3.928e-01,1.189e+00,1.131e+00,2.054e+00,1.586e+00,1.904e+00,3.227e+00,3.023e+00,2.745e+00,4.443e+00,3.826e+00,5.047e+00,4.383e+00,4.583e+00,6.024e+00,6.156e+00,4.887e+00,6.143e+00,4.261e+00,7.135e+00,6.083e+00,7.045e+00,6.634e+00,7.378e+00,6.586e+00,6.370e+00,7.736e+00,8.526e+00,8.305e+00,8.213e+00,9.662e+00,1.189e+01,1.019e+01,9.045e+00,8.153e+00,7.464e+00,1.059e+01,1.070e+01,1.199e+01,1.032e+01,1.319e+01,1.405e+01,1.118e+01,1.357e+01,1.164e+01,1.157e+01,1.287e+01,1.094e+01,1.246e+01,1.213e+01,1.296e+01,1.235e+01,1.005e+01,1.030e+01,1.230e+01,1.112e+01,1.339e+01,1.061e+01,1.105e+01,1.276e+01,1.321e+01,1.243e+01,1.263e+01,1.052e+01,9.990e+00,1.080e+01,1.273e+01,1.126e+01,1.133e+01,1.390e+01,1.139e+01,1.259e+01,1.149e+01,1.320e+01,1.280e+01,1.260e+01,1.267e+01,1.256e+01,1.352e+01,1.257e+01,1.162e+01,1.040e+01,1.314e+01,1.241e+01,9.665e+00,1.073e+01,1.123e+01,1.205e+01,1.137e+01,1.248e+01,1.360e+01,1.181e+01,1.342e+01,1.249e+01,1.173e+01
1.733e-01,5.678e-01,4.121e-01,1.428e+00,1.382e+00,2.115e+00,2.101e+00,2.407e+00,2.763e+00,2.549e+00,2.426e+00,3.831e+00,2.765e+00,3.533e+00,3.362e+00,3.479e+00,4.263e+00,4.288e+00,3.762e+00,4.729e+00,4.765e+00,6.095e+00,5.007e+00,5.384e+00,4.934e+00,5.517e+00,5.614e+00,5.693e+00,6.401e+00,6.162e+00,6.603e+00,6.820e+00,7.229e+00,1.029e+01,9.959e+00,8.254e+00,8.157e+00,7.743e+00,1.006e+01,8.533e+00,1.252e+01,1.082e+01,1.172e+01,1.348e+01,1.185e+01,1.227e+01,1.110e+01,1.245e+01,1.227e+01,9.653e+00,1.197e+01,1.334e+01,1.195e+01,1.166e+01,1.016e+01,9.411e+00,1.117e+01,1.139e+01,1.288e+01,1.000e+01,1.164e+01,1.367e+01,1.286e+01,1.247e+01,1.363e+01,1.166e+01,1.048e+01,1.147e+01,1.381e+01,1.203e+01,1.163e+01,1.404e+01,1.150e+01,1.189e+01,1.118e+01,1.409e+01,1.241e+01,1.456e+01,1.114e+01,1.161e+01,1.438e+01,1.240e+01,1.116e+01,1.078e+01,1.328e+01,1.201e+01,1.129e+01,1.155e+01,1.184e+01,1.254e+01,1.112e+01,1.208e+01,1.459e+01,1.242e+01,1.475e+01,1.278e+01,1.080e+01
1.124e-01,3.948e-01,2.729e-01,9.741e-01,1.034e+00,1.880e+00,2.033e+00,2.181e+00,2.619e+00,2.320e+00,1.897e+00,3.808e+00,2.854e+00,4.135e+00,4.257e+00,3.597e+00,5.004e+00,5.344e+00,4.381e+00,5.686e+00,5.090e+00,6.908e+00,5.473e+00,6.300e+00,6.666e+00,6.699e+00,6.967e+00,7.196e+00,8.226e+00,7.512e+00,7.573e+00,6.863e+00,8.658e+00,1.146e+01,1.057e+01,8.653e+00,7.104e+00,8.049e+00,1.031e+01,1.069e+01,1.310e+01,1.071e+01,1.373e+01,1.391e+01,1.191e+01,1.204e+01,1.112e+01,1.241e+01,1.335e+01,1.012e+01,1.201e+01,1.241e+01,1.251e+01,1.217e+01,1.132e+01,1.156e+01,1.171e+01,1.194e+01,1.331e+01,1.009e+01,1.109e+01,1.207e+01,1.254e+01,1.292e+01,1.295e+01,1.156e+01,1.091e+01,1.197e+01,1.380e+01,1.178e+01,1.219e+01,1.437e+01,1.214e+01,1.271e+01,1.127e+01,1.311e+01,1.302e+01,1.369e+01,1.193e+01,1.312e+01,1.401e+01,1.250e+01,1.114e+01,1.131e+01,1.266e+01,1.189e+01,9.913e+00,1.098e+01,1.145e+01,1.165e+01,1.127e+01,1.315e+01,1.384e+01,1.340e+01,1.366e+01,1.317e+01,1.175e+01
3.265e-01,2.975e-01,2.354e-01,1.311e+00,1.272e+00,1.787e+00,1.846e+00,1.998e+00,2.733e+00,3.080e+00,2.878e+00,4.051e+00,3.658e+00,4.381e+00,4.548e+00,4.239e+00,5.966e+00,5.819e+00,4.802e+00,5.726e+00,4.743e+00,6.661e+00,5.917e+00,6.563e+00,6.188e+00,7.804e+00,7.081e+00,7.213e+00,8.802e+00,9.225e+00,7.725e+00,8.067e+00,9.728e+00,1.104e+01,1.068e+01,8.038e+00,7.113e+00,7.560e+00,1.069e+01,1.021e+01,1.281e+01,1.027e+01,1.240e+01,1.367e+01,1.016e+01,1.354e+01,1.178e+01,1.204e+01,1.273e+01,1.187e+01,1.293e+01,1.087e+01,1.346e+01,1.167e+01,1.057e+01,1.087e+01,1.267e+01,1.154e+01,1.420e+01,1.132e+01,1.056e+01,1.262e+01,1.298e+01,1.221e+01,1.264e+01,1.070e+01,1.174e+01,1.193e+01,1.291e+01,1.155e+01,1.209e+01,1.359e+01,1.303e+01,1.213e+01,1.135e+01,1.440e+01,1.245e+01,1.389e+01,1.349e+01,1.330e+01,1.398e+01,1.202e+01,1.209e+01,1.153e+01,1.288e+01,1.243e+01,1.154e+01,1.184e+01,1.192e+01,1.182e+01,1.108e+01,1.316e+01,1.473e+01,1.256e+01,1.413e+01,1.291e+01,1.279e+01
2.424e-02,2.456e-01,2.475e-01,1.450e+00,1.202e+00,1.276e+00,1.631e+00,2.290e+00,2.882e+00,3.358e+00,2.880e+00,4.292e+00,3.079e+00,5.322e+00,5.351e+00,4.987e+00,4.920e+00,4.820e+00,5.258e+00,5.462e+00,4.469e+00,7.029e+00,6.860e+00,7.084e+00,6.348e+00,7.185e+00,6.560e+00,6.942e+00,7.841e+00,7.111e+00,7.134e+00,7.784e+00,8.636e+00,1.063e+01,1.060e+01,9.582e+00,7.510e+00,8.144e+00,1.153e+01,9.578e+00,1.280e+01,9.930e+00,1.267e+01,1.452e+01,1.116e+01,1.369e+01,1.162e+01,1.339e+01,1.388e+01,1.348e+01,1.331e+01,1.187e+01,1.434e+01,1.333e+01,1.156e+01,1.082e+01,1.462e+01,1.234e+01,1.488e+01,1.298e+01,1.092e+01,1.404e+01,1.540e+01,1.392e+01,1.312e+01,1.390e+01,1.240e+01,1.199e+01,1.392e+01,1.282e+01,1.334e+01,1.553e+01,1.357e+01,1.283e+01,1.275e+01,1.426e+01,1.379e+01,1.575e+01,1.436e+01,1.531e+01,1.573e+01,1.359e+01,1.349e+01,1.375e+01,1.411e+01,1.399e+01,1.245e+01,1.367e+01,1.246e+01,1.346e+01,1.213e+01,1.429e+01,1.567e+01,1.334e+01,1.564e+01,1.374e+01,1.352e+01
4.703e-01,7.620e-01,5.025e-01,1.457e+00,1.344e+00,1.998e+00,1.442e+00,1.780e+00,2.533e+00,2.204e+00,2.302e+00,3.533e+00,3.108e+00,3.885e+00,3.528e+00,3.364e+00,3.989e+00,3.970e+00,3.538e+00,4.717e+00,3.926e+00,5.351e+00,5.390e+00,5.796e+00,5.597e+00,5.711e+00,6.826e+00,5.985e+00,6.367e+00,6.575e+00,5.673e+00,6.228e+00,7.545e+00,9.622e+00,9.060e+00,7.796e+00,6.117e+00,7.270e+00,8.194e+00,9.461e+00,1.053e+01,9.211e+00,1.124e+01,1.240e+01,1.082e+01,1.016e+01,8.701e+00,1.103e+01,1.234e+01,1.042e+01,1.167e+01,1.050e+01,1.141e+01,1.217e+01,9.169e+00,1.048e+01,1.062e+01,8.701e+00,1.236e+01,1.068e+01,1.019e+01,1.247e+01,1.166e+01,1.182e+01,1.244e+01,1.149e+01,1.140e+01,1.098e+01,1.283e+01,1.054e+01,1.162e+01,1.281e+01,1.077e+01,1.036e+01,1.158e+01,1.099e+01,1.184e+01,1.278e+01,9.759e+00,1.134e+01,1.358e+01,1.170e+01,1.058e+01,9.583e+00,1.229e+01,1.244e+01,7.963e+00,1.059e+01,1.052e+01,1.120e+01,1.015e+01,1.275e+01,1.289e+01,1.049e+01,1.265e+01,1.148e+01,1.188e+01
2.850e-01,3.447e-01,2.370e-01,8.634e-01,8.315e-01,1.316e+00,1.435e+00,1.687e+00,2.387e+00,2.084e+00,2.213e+00,3.214e+00,2.975e+00,3.408e+00,3.905e+00,3.160e+00,3.939e+00,4.080e+00,3.417e+00,4.420e+00,4.046e+00,5.673e+00,4.785e+00,5.476e+00,4.856e+00,5.303e+00,5.626e+00,5.286e+00,6.255e+00,6.609e+00,6.354e+00,7.700e+00,7.532e+00,9.833e+00,9.855e+00,7.733e+00,7.059e+00,7.218e+00,8.455e+00,9.071e+00,1.046e+01,8.680e+00,1.060e+01,1.182e+01,9.740e+00,1.084e+01,9.852e+00,1.020e+01,1.183e+01,9.695e+00,1.105e+01,1.112e+01,1.085e+01,1.208e+01,9.947e+00,1.032e+01,1.220e+01,1.028e+01,1.221e+01,9.285e+00,9.765e+00,1.199e+01,1.200e+01,1.244e+01,1.173e+01,1.037e+01,9.943e+00,1.161e+01,1.237e+01,1.032e+01,1.132e+01,1.315e+01,1.152e+01,1.148e+01,1.162e+01,1.221e+01,1.183e+01,1.270e+01,1.074e+01,1.235e+01,1.405e+01,1.186e+01,1.012e+01,1.033e+01,1.156e+01,1.222e+01,1.039e+01,1.128e+01,1.131e+01,1.165e+01,1.015e+01,1.188e+01,1.234e+01,1.197e+01,1.197e+01,1.176e+01,1.078e+01
1.468e-01,3.026e-01,1.930e-01,7.120e-01,7.561e-01,1.353e+00,1.162e+00,1.166e+00,2.126e+00,1.654e+00,2.492e+00,2.769e+00,2.672e+00,3.119e+00,3.122e+00,3.338e+00,4.293e+00,4.440e+00,3.394e+00,4.382e+00,3.981e+00,5.747e+00,4.490e+00,4.857e+00,6.563e+00,7.271e+00,6.074e+00,5.737e+00,8.260e+00,6.655e+00,7.502e+00,7.506e+00,7.123e+00,9.551e+00,9.869e+00,7.808e+00,7.007e+00,9.219e+00,9.458e+00,9.591e+00,1.119e+01,8.946e+00,1.083e+01,1.171e+01,1.057e+01,1.092e+01,1.098e+01,1.125e+01,1.263e+01,9.224e+00,1.074e+01,1.063e+01,1.274e+01,1.231e+01,1.021e+01,1.029e+01,1.352e+01,1.130e+01,1.222e+01,1.091e+01,1.093e+01,1.419e+01,1.316e+01,1.368e+01,1.373e+01,1.152e+01,1.109e+01,1.286e+01,1.362e+01,1.244e+01,1.181e+01,1.368e+01,1.196e+01,1.142e+01,1.114e+01,1.229e+01,1.348e+01,1.356e+01,1.214e+01,1.250e+01,1.368e+01,1.264e+01,1.172e+01,1.036e+01,1.239e+01,1.128e+01,8.848e+00,1.162e+01,1.127e+01,1.248e+01,1.110e+01,1.294e+01,1.404e+01,1.212e+01,1.297e+01,1.164e+01,1.277e+01
5.942e-01,7.536e-01,5.171e-01,1.702e+00,1.624e+00,2.576e+00,1.991e+00,2.252e+00,3.041e+00,3.184e+00,3.185e+00,4.238e+00,3.636e+00,4.508e+00,4.773e+00,4.573e+00,6.132e+00,6.537e+00,5.551e+00,6.112e+00,5.685e+00,8.178e+00,6.792e+00,7.317e+00,6.628e+00,7.396e+00,8.461e+00,8.285e+00,9.855e+00,9.281e+00,9.727e+00,1.042e+01,1.077e+01,1.299e+01,1.351e+01,1.002e+01,9.432e+00,1.028e+01,1.109e+01,1.157e+01,1.403e+01,1.195e+01,1.399e+01,1.609e+01,1.338e+01,1.394e+01,1.239e+01,1.228e+01,1.436e+01,1.183e+01,1.319e+01,1.268e+01,1.486e+01,1.524e+01,1.265e+01,1.273e+01,1.467e+01,1.311e+01,1.566e+01,1.224e+01,1.257e+01,1.705e+01,1.536e+01,1.516e+01,1.525e+01,1.308e+01,1.364e+01,1.570e+01,1.567e+01,1.407e+01,1.329e+01,1.661e+01,1.436e+01,1.365e+01,1.453e+01,1.550e+01,1.581e+01,1.628e+01,1.518e+01,1.502e+01,1.802e+01,1.494e+01,1.288e+01,1.344e+01,1.403e+01,1.532e+01,1.282e+01,1.467e+01,1.459e+01,1.453e+01,1.315e+01,1.524e+01,1.654e+01,1.583e+01,1.702e+01,1.432e+01,1.410e+01
4.769e-01,3.932e-01,2.700e-01,1.056e+00,1.153e+00,2.044e+00,2.098e+00,2.063e+00,3.390e+00,2.844e+00,3.327e+00,4.424e+00,3.851e+00,4.505e+00,5.334e+00,4.235e+00,5.874e+00,6.172e+00,5.201e+00,5.983e+00,5.316e+00,7.948e+00,6.609e+00,7.394e+00,6.910e+00,7.042e+00,7.739e+00,7.136e+00,8.890e+00,8.535e+00,8.587e+00,8.918e+00,9.904e+00,1.245e+01,1.097e+01,9.449e+00,7.784e+00,8.570e+00,1.074e+01,1.073e+01,1.323e+01,1.149e+01,1.377e+01,1.518e+01,1.256e+01,1.375e+01,1.247e+01,1.334e+01,1.496e+01,1.316e+01,1.499e+01,1.505e+01,1.541e+01,1.537e+01,1.345e+01,1.275e+01,1.539e+01,1.342e+01,1.637e+01,1.496e+01,1.407e+01,1.760e+01,1.767e+01,1.599e+01,1.669e+01,1.364e+01,1.383e+01,1.579e+01,1.682e+01,1.470e+01,1.586e+01,1.598e+01,1.637e+01,1.503e+01,1.464e+01,1.653e+01,1.813e+01,1.752e+01,1.410e+01,1.604e+01,1.890e+01,1.658e+01,1.525e+01,1.423e+01,1.658e+01,1.558e+01,1.373e+01,1.564e+01,1.513e+01,1.546e+01,1.403e+01,1.563e+01,1.855e+01,1.493e+01,1.661e+01,1.554e+01,1.556e+01
2.182e-01,3.978e-01,3.195e-01,1.434e+00,1.456e+00,2.016e+00,1.893e+00,1.827e+00,2.073e+00,2.183e+00,2.884e+00,3.316e+00,2.849e+00,2.949e+00,3.713e+00,3.131e+00,4.387e+00,4.494e+00,3.897e+00,4.632e+00,5.191e+00,6.114e+00,4.870e+00,4.936e+00,4.784e+00,6.555e+00,6.845e+00,5.381e+00,7.530e+00,6.514e+00,6.878e+00,7.265e+00,8.288e+00,1.102e+01,1.062e+01,8.324e+00,8.794e+00,1.019e+01,1.053e+01,8.758e+00,1.210e+01,1.028e+01,1.207e+01,1.328e+01,1.134e+01,1.073e+01,1.135e+01,1.126e+01,1.392e+01,1.095e+01,1.331e+01,1.213e+01,1.225e+01,1.331e+01,1.173e+01,1.214e+01,1.367e+01,1.243e+01,1.428e+01,1.235e+01,1.247e+01,1.606e+01,1.494e+01,1.471e+01,1.432e+01,1.341e+01,1.139e+01,1.465e+01,1.447e+01,1.286e+01,1.404e+01,1.446e+01,1.271e+01,1.412e+01,1.329e+01,1.383e+01,1.602e+01,1.433e+01,1.284e+01,1.416e+01,1.667e+01,1.321e+01,1.286e+01,1.249e+01,1.408e+01,1.389e+01,1.224e+01,1.373e+01,1.283e+01,1.353e+01,1.155e+01,1.439e+01,1.558e+01,1.419e+01,1.421e+01,1.290e+01,1.404e+01
4.074e-01,3.515e-01,2.381e-01,1.163e+00,1.154e+00,1.947e+00,1.952e+00,2.161e+00,3.053e+00,3.171e+00,2.720e+00,3.853e+00,3.345e+00,4.739e+00,5.021e+00,4.343e+00,5.324e+00,5.642e+00,5.446e+00,6.067e+00,4.959e+00,7.556e+00,5.555e+00,6.993e+00,6.692e+00,6.938e+00,6.397e+00,6.112e+00,7.861e+00,7.609e+00,7.466e+00,6.782e+00,8.235e+00,9.043e+00,9.664e+00,8.429e+00,6.275e+00,7.680e+00,9.735e+00,9.302e+00,1.070e+01,8.738e+00,1.228e+01,1.257e+01,9.914e+00,1.093e+01,1.062e+01,1.019e+01,1.119e+01,1.084e+01,1.144e+01,1.117e+01,1.259e+01,1.249e+01,1.069e+01,1.074e+01,1.297e+01,1.135e+01,1.434e+01,1.102e+01,1.106e+01,1.331e+01,1.442e+01,1.279e+01,1.462e+01,1.206e+01,1.287e+01,1.278e+01,1.436e+01,1.308e+01,1.299e+01,1.303e+01,1.280e+01,1.131e+01,1.337e+01,1.330e+01,1.326e+01,1.488e+01,1.423e+01,1.375e+01,1.527e+01,1.381e+01,1.242e+01,1.164e+01,1.340e+01,1.289e+01,1.091e+01,1.278e+01,1.335e+01,1.188e+01,1.246e+01,1.355e+01,1.480e+01,1.340e+01,1.438e+01,1.181e+01,1.337e+01
4.157e-02,4.659e-01,4.082e-01,1.640e+00,1.550e+00,1.815e+00,1.946e+00,2.150e+00,2.760e+00,2.775e+00,3.002e+00,4.477e+00,3.333e+00,5.382e+00,5.190e+00,4.409e+00,5.938e+00,6.080e+00,5.263e+00,6.319e+00,5.885e+00,7.405e+00,7.206e+00,6.987e+00,7.033e+00,7.644e+00,7.740e+00,7.269e+00,8.067e+00,7.718e+00,7.663e+00,7.956e+00,8.343e+00,1.215e+01,1.049e+01,1.048e+01,8.481e+00,8.784e+00,1.037e+01,9.218e+00,1.193e+01,1.037e+01,1.279e+01,1.412e+01,1.164e+01,1.228e+01,1.194e+01,1.286e+01,1.520e+01,1.149e+01,1.300e+01,1.307e+01,1.322e+01,1.404e+01,1.295e+01,1.154e+01,1.619e+01,1.444e+01,1.698e+01,1.367e+01,1.383e+01,1.647e+01,1.729e+01,1.679e+01,1.608e+01,1.502e+01,1.364e+01,1.466e+01,1.674e+01,1.524e+01,1.358e+01,1.885e+01,1.405e+01,1.618e+01,1.541e+01,1.535e+01,1.560e+01,1.670e+01,1.582e+01,1.649e+01,1.788e+01,1.539e+01,1.469e+01,1.492e+01,1.580e+01,1.540e+01,1.382e+01,1.450e+01,1.426e+01,1.446e+01,1.461e+01,1.532e+01,1.554e+01,1.559e+01,1.610e+01,1.569e+01,1.443e+01
5.786e-02,1.338e-01,1.780e-01,1.109e+00,1.238e+00,1.461e+00,1.662e+00,1.224e+00,1.738e+00,1.764e+00,2.253e+00,2.999e+00,2.292e+00,2.710e+00,3.691e+00,2.495e+00,4.745e+00,5.057e+00,4.810e+00,4.723e+00,5.046e+00,6.172e+00,4.449e+00,5.267e+00,6.103e+00,6.273e+00,6.932e+00,6.438e+00,7.849e+00,6.603e+00,7.199e+00,7.106e+00,8.800e+00,1.014e+01,1.079e+01,7.762e+00,6.718e+00,9.369e+00,1.078e+01,8.826e+00,1.258e+01,1.045e+01,1.242e+01,1.449e+01,1.369e+01,1.204e+01,1.183e+01,1.156e+01,1.215e+01,1.022e+01,1.327e+01,1.249e+01,1.487e+01,1.486e+01,1.185e+01,1.147e+01,1.391e+01,1.301e+01,1.731e+01,1.398e+01,1.366e+01,1.714e+01,1.545e+01,1.586e+01,1.731e+01,1.380e+01,1.364e+01,1.583e+01,1.807e+01,1.460e+01,1.439e+01,1.586e+01,1.491e+01,1.523e+01,1.417e+01,1.669e+01,1.587e+01,1.510e+01,1.535e+01,1.571e+01,1.839e+01,1.581e+01,1.462e+01,1.390e+01,1.578e+01,1.610e+01,1.262e+01,1.536e+01,1.547e+01,1.402e+01,1.377e+01,1.595e+01,1.687e+01,1.544e+01,1.603e+01,1.689e+01,1.543e+01
3.642e-01,4.426e-01,3.327e-01,1.554e+00,1.325e+00,1.846e+00,1.907e+00,2.620e+00,2.997e+00,3.420e+00,2.155e+00,4.047e+00,2.919e+00,5.135e+00,5.301e+00,4.306e+00,5.255e+00,5.402e+00,5.291e+00,5.943e+00,5.200e+00,7.852e+00,7.531e+00,8.204e+00,7.914e+00,8.121e+00,7.821e+00,8.073e+00,9.216e+00,8.822e+00,8.732e+00,8.154e+00,1.020e+01,1.242e+01,1.121e+01,9.742e+00,7.798e+00,8.981e+00,1.135e+01,1.110e+01,1.307e+01,1.079e+01,1.357e+01,1.428e+01,1.189e+01,1.244e+01,1.108e+01,1.359e+01,1.417e+01,1.357e+01,1.416e+01,1.373e+01,1.458e+01,1.474e+01,1.377e+01,1.464e+01,1.548e+01,1.459e+01,1.948e+01,1.491e+01,1.475e+01,1.800e+01,1.797e+01,1.837e+01,1.649e+01,1.660e+01,1.549e+01,1.711e+01,1.831e+01,1.681e+01,1.631e+01,1.846e+01,1.651e+01,1.708e+01,1.698e+01,1.771e+01,1.768e+01,1.793e+01,1.608e+01,1.936e+01,1.966e+01,1.695e+01,1.684e+01,1.548e+01,1.689e+01,1.700e+01,1.515e+01,1.741e+01,1.638e+01,1.700e+01,1.651e+01,1.831e+01,1.823e+01,1.556e+01,1.774e+01,1.677e+01,1.615e+01
1.216e-01,2.540e-01,1.948e-01,8.726e-01,9.144e-01,1.603e+00,2.024e+00,2.220e+00,3.285e+00,2.948e+00,3.092e+00,4.428e+00,3.279e+00,4.703e+00,4.567e+00,4.418e+00,5.461e+00,5.590e+00,4.427e+00,5.669e+00,4.720e+00,7.533e+00,5.737e+00,5.968e+00,5.934e+00,6.958e+00,6.294e+00,6.722e+00,8.010e+00,6.774e+00,7.889e+00,7.587e+00,8.286e+00,1.156e+01,1.001e+01,8.525e+00,7.694e+00,8.239e+00,1.111e+01,9.406e+00,1.250e+01,1.004e+01,1.168e+01,1.285e+01,1.024e+01,1.170e+01,1.173e+01,1.236e+01,1.455e+01,1.172e+01,1.214e+01,1.207e+01,1.397e+01,1.340e+01,1.177e+01,1.132e+01,1.477e+01,1.401e+01,1.564e+01,1.254e+01,1.336e+01,1.644e+01,1.713e+01,1.692e+01,1.566e+01,1.513e+01,1.196e+01,1.651e+01,1.709e+01,1.587e+01,1.492e+01,1.733e+01,1.559e+01,1.576e+01,1.461e+01,1.720e+01,1.638e+01,1.714e+01,1.535e+01,1.618e+01,1.893e+01,1.614e+01,1.466e+01,1.509e+01,1.550e+01,1.576e+01,1.456e+01,1.561e+01,1.564e+01,1.524e+01,1.509e+01,1.607e+01,1.795e+01,1.499e+01,1.695e+01,1.602e+01,1.548e+01
2.433e-01,3.040e-01,2.525e-01,1.221e+00,1.152e+00,1.500e+00,1.428e+00,1.572e+00,2.049e+00,2.098e+00,2.350e+00,2.951e+00,2.651e+00,3.132e+00,3.347e+00,3.034e+00,3.450e+00,4.018e+00,3.617e+00,3.820e+00,3.601e+00,5.123e+00,4.457e+00,5.043e+00,4.691e+00,5.439e+00,5.487e+00,4.575e+00,5.973e+00,5.725e+00,6.143e+00,5.907e+00,7.044e+00,9.169e+00,8.590e+00,7.236e+00,6.265e+00,8.049e+00,7.906e+00,8.333e+00,9.902e+00,8.167e+00,1.004e+01,1.120e+01,9.558e+00,9.310e+00,9.092e+00,8.944e+00,1.164e+01,9.858e+00,1.130e+01,1.109e+01,1.204e+01,1.111e+01,9.622e+00,9.923e+00,1.304e+01,1.209e+01,1.330e+01,1.074e+01,1.264e+01,1.483e+01,1.413e+01,1.522e+01,1.402e+01,1.164e+01,1.187e+01,1.423e+01,1.378e+01,1.382e+01,1.306e+01,1.502e+01,1.242e+01,1.278e+01,1.265e+01,1.401e+01,1.515e+01,1.414e+01,1.442e+01,1.357e+01,1.598e+01,1.325e+01,1.400e+01,1.398e+01,1.339e+01,1.255e+01,1.236e+01,1.336e+01,1.299e+01,1.320e+01,1.315e+01,1.296e+01,1.393e+01,1.338e+01,1.488e+01,1.286e+01,1.283e+01
5.658e-01,5.078e-01,2.607e-01,5.406e-01,5.089e-01,1.413e+00,1.159e+00,1.580e+00,2.434e+00,2.081e+00,1.443e+00,3.090e+00,2.429e+00,3.709e+00,3.707e+00,2.710e+00,3.178e+00,3.702e+00,3.643e+00,4.613e+00,3.207e+00,4.902e+00,3.914e+00,5.047e+00,4.391e+00,4.163e+00,4.961e+00,4.498e+00,4.633e+00,5.263e+00,5.426e+00,5.425e+00,7.001e+00,8.306e+00,7.423e+00,6.701e+00,6.623e+00,7.335e+00,9.231e+00,7.552e+00,1.107e+01,9.531e+00,1.176e+01,1.292e+01,1.151e+01,1.184e+01,8.719e+00,1.136e+01,1.145e+01,1.071e+01,1.174e+01,1.252e+01,1.188e+01,1.402e+01,1.111e+01,1.129e+01,1.419e+01,1.262e+01,1.674e+01,1.301e+01,1.285e+01,1.738e+01,1.657e+01,1.569e+01,1.542e+01,1.491e+01,1.456e+01,1.466e+01,1.726e+01,1.548e+01,1.554e+01,1.596e+01,1.521e+01,1.519e+01,1.596e+01,1.711e+01,1.629e+01,1.758e+01,1.410e+01,1.476e+01,1.810e+01,1.577e+01,1.436e+01,1.573e+01,1.539e+01,1.525e+01,1.445e+01,1.713e+01,1.629e+01,1.366e+01,1.410e+01,1.439e+01,1.777e+01,1.440e+01,1.753e+01,1.509e+01,1.538e+01
3.889e-01,5.191e-01,3.752e-01,1.654e+00,1.566e+00,2.205e+00,2.101e+00,2.401e+00,2.880e+00,3.346e+00,2.929e+00,3.934e+00,3.169e+00,4.652e+00,4.671e+00,4.067e+00,5.702e+00,5.719e+00,5.094e+00,6.180e+00,5.811e+00,7.309e+00,6.437e+00,6.159e+00,6.165e+00,7.215e+00,7.234e+00,7.368e+00,8.730e+00,7.244e+00,7.909e+00,7.111e+00,8.823e+00,1.050e+01,1.029e+01,8.427e+00,7.296e+00,9.069e+00,1.028e+01,9.099e+00,1.244e+01,1.108e+01,1.109e+01,1.402e+01,1.110e+01,1.228e+01,1.195e+01,1.206e+01,1.352e+01,1.115e+01,1.180e+01,1.241e+01,1.445e+01,1.215e+01,1.190e+01,1.119e+01,1.443e+01,1.319e+01,1.579e+01,1.355e+01,1.306e+01,1.761e+01,1.702e+01,1.725e+01,1.838e+01,1.509e+01,1.449e+01,1.517e+01,1.764e+01,1.718e+01,1.666e+01,1.755e+01,1.540e+01,1.520e+01,1.535e+01,1.818e+01,1.684e+01,1.846e+01,1.533e+01,1.614e+01,1.992e+01,1.736e+01,1.698e+01,1.600e+01,1.624e+01,1.665e+01,1.536e+01,1.722e+01,1.621e+01,1.648e+01,1.681e+01,1.660e+01,1.891e+01,1.600e+01,1.902e+01,1.751e+01,1.523e+01
5.392e-01,7.774e-01,5.057e-01,1.679e+00,1.557e+00,2.446e+00,1.829e+00,2.232e+00,3.232e+00,2.844e+00,2.978e+00,4.184e+00,3.870e+00,4.081e+00,3.995e+00,4.376e+00,5.044e+00,5.134e+00,4.664e+00,5.339e+00,4.591e+00,6.999e+00,5.798e+00,6.766e+00,6.527e+00,7.273e+00,7.108e+00,6.180e+00,8.178e+00,7.919e+00,7.654e+00,8.117e+00,8.493e+00,1.048e+01,1.005e+01,8.861e+00,8.141e+00,8.372e+00,1.009e+01,1.011e+01,1.268e+01,1.042e+01,1.222e+01,1.316e+01,1.114e+01,1.259e+01,1.111e+01,1.297e+01,1.350e+01,1.085e+01,1.355e+01,1.387e+01,1.382e+01,1.424e+01,1.178e+01,1.144e+01,1.536e+01,1.505e+01,1.714e+01,1.358e+01,1.435e+01,1.815e+01,1.719e+01,1.767e+01,1.720e+01,1.637e+01,1.515e+01,1.578e+01,1.908e+01,1.657e+01,1.632e+01,1.858e+01,1.724e+01,1.584e+01,1.512e+01,1.879e+01,1.720e+01,1.885e+01,1.697e+01,1.794e+01,1.883e+01,1.744e+01,1.609e+01,1.546e+01,1.642e+01,1.724e+01,1.480e+01,1.732e+01,1.625e+01,1.711e+01,1.615e+01,1.671e+01,1.710e+01,1.570e+01,1.803e+01,1.641e+01,1.707e+01
5.969e-01,6.082e-01,3.663e-01,1.312e+00,1.090e+00,2.040e+00,1.816e+00,2.701e+00,3.751e+00,3.851e+00,2.992e+00,4.978e+00,3.985e+00,6.269e+00,5.567e+00,5.402e+00,6.198e+00,6.461e+00,5.432e+00,7.056e+00,4.834e+00,8.812e+00,7.532e+00,8.113e+00,6.840e+00,7.745e+00,7.118e+00,6.967e+00,8.261e+00,8.568e+00,9.260e+00,8.398e+00,1.001e+01,1.376e+01,1.105e+01,1.053e+01,9.205e+00,8.928e+00,1.290e+01,1.076e+01,1.289e+01,1.154e+01,1.462e+01,1.376e+01,1.128e+01,1.266e+01,1.163e+01,1.233e+01,1.525e+01,1.294e+01,1.454e+01,1.353e+01,1.396e+01,1.455e+01,1.193e+01,1.295e+01,1.545e+01,1.456e+01,1.667e+01,1.373e+01,1.454e+01,1.726e+01,1.877e+01,1.890e+01,1.704e+01,1.705e+01,1.451e+01,1.614e+01,1.772e+01,1.733e+01,1.691e+01,1.868e+01,1.791e+01,1.885e+01,1.755e+01,1.806e+01,1.816e+01,1.765e+01,1.655e+01,1.980e+01,2.011e+01,1.819e+01,1.833e+01,1.702e+01,1.741e+01,1.820e+01,1.609e+01,1.766e+01,1.735e+01,1.722e+01,1.780e+01,1.698e+01,1.840e+01,1.651e+01,1.846e+01,1.597e+01,1.716e+01
6.525e-02,2.360e-01,2.043e-01,1.076e+00,9.697e-01,1.311e+00,1.346e+00,1.659e+00,2.430e+00,2.538e+00,2.179e+00,3.261e+00,2.491e+00,4.662e+00,4.135e+00,4.102e+00,5.674e+00,6.003e+00,4.501e+00,5.714e+00,4.739e+00,7.568e+00,6.103e+00,6.657e+00,7.813e+00,8.219e+00,6.860e+00,7.754e+00,9.067e+00,8.216e+00,7.761e+00,6.828e+00,8.402e+00,1.084e+01,1.066e+01,8.865e+00,6.542e+00,7.893e+00,1.125e+01,8.918e+00,1.156e+01,1.066e+01,1.121e+01,1.333e+01,9.191e+00,1.185e+01,1.149e+01,1.213e+01,1.306e+01,1.143e+01,1.110e+01,1.034e+01,1.251e+01,1.276e+01,1.219e+01,1.168e+01,1.514e+01,1.274e+01,1.551e+01,1.275e+01,1.116e+01,1.648e+01,1.550e+01,1.709e+01,1.668e+01,1.490e+01,1.419e+01,1.578e+01,1.849e+01,1.581e+01,1.670e+01,1.756e+01,1.652e+01,1.689e+01,1.539e+01,1.822e+01,1.774e+01,1.778e+01,1.621e+01,1.645e+01,1.926e+01,1.657e+01,1.760e+01,1.640e+01,1.547e+01,1.699e+01,1.438e+01,1.654e+01,1.487e+01,1.637e+01,1.502e+01,1.664e+01,1.843e+01,1.633e+01,1.816e+01,1.673e+01,1.644e+01
5.682e-01,6.193e-01,3.808e-01,1.505e+00,1.374e+00,2.241e+00,2.019e+00,2.581e+00,3.680e+00,3.506e+00,2.825e+00,4.280e+00,3.833e+00,4.776e+00,4.497e+00,4.422e+00,5.033e+00,5.177e+00,4.938e+00,6.452e+00,5.367e+00,7.728e+00,6.261e+00,7.462e+00,6.944e+00,8.264e+00,7.095e+00,7.319e+00,9.098e+00,8.708e+00,8.131e+00,7.862e+00,9.584e+00,1.182e+01,1.067e+01,9.146e+00,7.833e+00,9.611e+00,1.166e+01,1.134e+01,1.375e+01,1.212e+01,1.370e+01,1.520e+01,1.202e+01,1.428e+01,1.187e+01,1.387e+01,1.513e+01,1.349e+01,1.489e+01,1.402e+01,1.519e+01,1.472e+01,1.361e+01,1.458e+01,1.755e+01,1.581e+01,1.924e+01,1.491e+01,1.576e+01,1.925e+01,1.938e+01,1.994e+01,1.966e+01,1.711e+01,1.932e+01,2.005e+01,2.196e+01,1.981e+01,1.947e+01,2.120e+01,2.003e+01,1.889e+01,1.915e+01,2.106e+01,1.955e+01,2.125e+01,1.856e+01,2.049e+01,2.233e+01,2.077e+01,2.088e+01,1.993e+01,1.824e+01,2.029e+01,1.887e+01,2.110e+01,2.035e+01,1.766e+01,1.979e+01,1.964e+01,2.046e+01,2.003e+01,2.270e+01,1.928e+01,2.041e+01
4.610e-01,7.675e-01,5.560e-01,1.994e+00,1.739e+00,2.091e+00,1.487e+00,1.987e+00,2.698e+00,3.165e+00,2.743e+00,3.939e+00,3.650e+00,5.049e+00,4.198e+00,4.489e+00,5.489e+00,4.930e+00,4.118e+00,5.836e+00,4.849e+00,6.285e+00,5.674e+00,6.010e+00,5.629e+00,7.872e+00,6.876e+00,6.424e+00,7.448e+00,8.109e+00,7.162e+00,7.589e+00,9.076e+00,1.096e+01,1.071e+01,8.955e+00,8.037e+00,9.060e+00,1.036e+01,1.019e+01,1.249e+01,1.091e+01,1.243e+01,1.436e+01,1.159e+01,1.292e+01,1.152e+01,1.281e+01,1.396e+01,1.299e+01,1.397e+01,1.272e+01,1.416e+01,1.435e+01,1.277e+01,1.245e+01,1.771e+01,1.537e+01,1.784e+01,1.471e+01,1.489e+01,1.824e+01,1.775e+01,2.049e+01,1.799e+01,1.671e+01,1.675e+01,1.843e+01,2.044e+01,1.874e+01,1.909e+01,2.046e+01,1.833e+01,1.837e+01,1.829e+01,1.878e+01,1.775e+01,1.998e+01,1.808e+01,2.063e+01,2.124e+01,1.938e+01,2.000e+01,1.843e+01,1.638e+01,1.930e+01,1.775e+01,2.060e+01,1.808e+01,1.819e+01,1.850e+01,1.888e+01,1.995e+01,1.676e+01,2.169e+01,1.826e+01,2.094e+01
2.430e-01,5.135e-01,3.605e-01,1.023e+00,1.020e+00,1.585e+00,1.504e+00,1.650e+00,2.672e+00,2.375e+00,2.305e+00,3.838e+00,3.534e+00,4.898e+00,4.701e+00,4.189e+00,4.978e+00,5.036e+00,3.945e+00,5.998e+00,5.035e+00,6.920e+00,5.874e+00,6.513e+00,6.635e+00,7.181e+00,6.512e+00,6.670e+00,7.808e+00,7.099e+00,7.168e+00,6.993e+00,8.076e+00,1.157e+01,1.034e+01,9.694e+00,7.344e+00,8.001e+00,9.365e+00,1.004e+01,1.202e+01,1.076e+01,1.217e+01,1.261e+01,1.146e+01,1.139e+01,1.024e+01,1.092e+01,1.317e+01,1.087e+01,1.256e+01,1.214e+01,1.230e+01,1.251e+01,1.106e+01,1.091e+01,1.462e+01,1.271e+01,1.533e+01,1.272e+01,1.314e+01,1.472e+01,1.647e+01,1.767e+01,1.596e+01,1.525e+01,1.597e+01,1.439e+01,1.777e+01,1.705e+01,1.703e+01,1.853e+01,1.636e+01,1.739e+01,1.638e+01,1.616e+01,1.677e+01,1.701e+01,1.520e+01,1.893e+01,1.814e+01,1.767e+01,1.848e+01,1.664e+01,1.620e+01,1.790e+01,1.617e+01,1.778e+01,1.605e+01,1.614e+01,1.661e+01,1.674e+01,1.760e+01,1.663e+01,1.801e+01,1.592e+01,1.727e+01
6.606e-02,4.887e-01,3.593e-01,1.176e+00,9.942e-01,1.103e+00,9.458e-01,1.393e+00,2.035e+00,2.058e+00,1.855e+00,2.892e+00,2.380e+00,4.457e+00,3.540e+00,3.499e+00,4.347e+00,4.181e+00,3.445e+00,5.456e+00,4.670e+00,6.396e+00,6.006e+00,5.868e+00,6.730e+00,6.710e+00,6.080e+00,7.310e+00,7.495e+00,7.380e+00,6.134e+00,6.907e+00,6.710e+00,1.021e+01,9.339e+00,8.681e+00,6.652e+00,6.280e+00,9.643e+00,8.211e+00,9.771e+00,9.636e+00,9.924e+00,1.170e+01,7.758e+00,1.086e+01,9.523e+00,1.060e+01,1.093e+01,8.782e+00,8.913e+00,1.069e+01,1.050e+01,1.101e+01,1.062e+01,1.124e+01,1.377e+01,1.232e+01,1.488e+01,1.136e+01,1.159e+01,1.579e+01,1.529e+01,1.653e+01,1.479e+01,1.432e+01,1.412e+01,1.405e+01,1.666e+01,1.630e+01,1.594e+01,1.694e+01,1.646e+01,1.565e+01,1.616e+01,1.758e+01,1.619e+01,1.909e+01,1.525e+01,1.589e+01,1.792e+01,1.603e+01,1.732e+01,1.534e+01,1.450e+01,1.490e+01,1.490e+01,1.754e+01,1.498e+01,1.511e+01,1.687e+01,1.576e+01,1.677e+01,1.647e+01,1.870e+01,1.504e+01,1.401e+01
1.238e-02,2.476e-01,2.361e-01,9.142e-01,1.075e+00,1.571e+00,2.068e+00,1.827e+00,2.809e+00,2.264e+00,3.098e+00,3.959e+00,3.235e+00,3.940e+00,4.932e+00,3.818e+00,4.569e+00,4.550e+00,4.058e+00,5.070e+00,5.460e+00,6.333e+00,6.071e+00,6.040e+00,5.824e+00,6.671e+00,6.972e+00,6.828e+00,8.549e+00,6.824e+00,6.526e+00,7.297e+00,7.834e+00,1.132e+01,1.000e+01,9.119e+00,7.135e+00,8.032e+00,9.209e+00,9.276e+00,1.215e+01,1.003e+01,1.171e+01,1.240e+01,1.038e+01,1.143e+01,1.083e+01,1.158e+01,1.307e+01,1.039e+01,1.260e+01,1.167e+01,1.182e+01,1.267e+01,1.182e+01,1.104e+01,1.454e+01,1.301e+01,1.489e+01,1.284e+01,1.279e+01,1.450e+01,1.736e+01,1.575e+01,1.550e+01,1.485e+01,1.422e+01,1.523e+01,1.727e+01,1.553e+01,1.686e+01,1.868e+01,1.728e+01,1.579e+01,1.563e+01,1.729e+01,1.820e+01,1.915e+01,1.605e+01,1.866e+01,1.877e+01,1.666e+01,1.755e+01,1.580e+01,1.631e+01,1.639e+01,1.638e+01,1.849e+01,1.627e+01,1.688e+01,1.561e+01,1.681e+01,1.894e+01,1.698e+01,1.939e+01,1.621e+01,1.673e+01
2.624e-01,3.745e-01,2.657e-01,9.803e-01,1.095e+00,1.784e+00,1.665e+00,1.467e+00,2.276e+00,1.897e+00,2.527e+00,3.508e+00,3.463e+00,3.370e+00,3.774e+00,3.336e+00,4.728e+00,4.896e+00,3.954e+00,5.127e+00,4.672e+00,5.710e+00,4.130e+00,5.548e+00,5.548e+00,6.729e+00,6.239e+00,4.680e+00,6.711e+00,6.750e+00,5.956e+00,5.806e+00,7.896e+00,8.533e+00,9.027e+00,7.186e+00,6.674e+00,7.419e+00,8.825e+00,8.120e+00,9.861e+00,8.364e+00,1.008e+01,1.142e+01,1.009e+01,9.060e+00,1.017e+01,9.038e+00,9.577e+00,8.501e+00,1.039e+01,9.491e+00,1.136e+01,1.181e+01,8.919e+00,1.009e+01,1.115e+01,1.102e+01,1.442e+01,9.926e+00,1.278e+01,1.575e+01,1.386e+01,1.657e+01,1.576e+01,1.393e+01,1.291e+01,1.540e+01,1.528e+01,1.637e+01,1.594e+01,1.791e+01,1.659e+01,1.595e+01,1.737e+01,1.781e+01,1.782e+01,1.877e+01,1.562e+01,1.728e+01,1.799e+01,1.666e+01,1.771e+01,1.821e+01,1.586e+01,1.857e+01,1.464e+01,1.780e+01,1.615e+01,1.630e+01,1.653e+01,1.585e+01,1.886e+01,1.635e+01,1.874e+01,1.492e+01,1.651e+01
9.552e-02,1.146e-01,1.440e-01,1.222e+00,1.044e+00,1.157e+00,1.339e+00,1.750e+00,1.963e+00,2.824e+00,2.294e+00,3.263e+00,2.397e+00,4.329e+00,4.813e+00,4.007e+00,5.320e+00,5.154e+00,5.352e+00,5.379e+00,4.850e+00,6.848e+00,6.601e+00,6.831e+00,6.930e+00,7.442e+00,6.426e+00,6.729e+00,8.613e+00,7.559e+00,8.138e+00,7.426e+00,9.556e+00,1.163e+01,1.070e+01,8.866e+00,6.929e+00,7.916e+00,1.136e+01,9.363e+00,1.188e+01,1.007e+01,1.202e+01,1.172e+01,9.782e+00,1.165e+01,1.095e+01,1.130e+01,1.292e+01,1.084e+01,1.328e+01,1.084e+01,1.364e+01,1.316e+01,1.173e+01,1.286e+01,1.423e+01,1.220e+01,1.574e+01,1.366e+01,1.289e+01,1.536e+01,1.567e+01,1.761e+01,1.562e+01,1.532e+01,1.426e+01,1.502e+01,1.701e+01,1.576e+01,1.592e+01,1.786e+01,1.624e+01,1.760e+01,1.640e+01,1.771e+01,1.716e+01,1.731e+01,1.774e+01,2.035e+01,1.885e+01,1.572e+01,1.710e+01,1.669e+01,1.647e+01,1.810e+01,1.490e+01,1.722e+01,1.590e+01,1.629e+01,1.523e+01,1.766e+01,1.780e+01,1.713e+01,1.821e+01,1.672e+01,1.692e+01
8.873e-02,1.299e-01,1.529e-01,1.080e+00,1.120e+00,1.606e+00,2.035e+00,2.060e+00,2.933e+00,2.594e+00,3.184e+00,3.933e+00,2.981e+00,4.059e+00,4.967e+00,4.009e+00,4.431e+00,4.650e+00,4.593e+00,4.987e+00,4.875e+00,7.165e+00,5.968e+00,6.834e+00,6.601e+00,6.461e+00,6.482e+00,5.896e+00,7.559e+00,6.425e+00,7.032e+00,6.614e+00,7.662e+00,9.905e+00,9.320e+00,8.241e+00,5.884e+00,7.569e+00,1.049e+01,9.394e+00,1.174e+01,9.396e+00,1.200e+01,1.307e+01,1.094e+01,1.185e+01,1.060e+01,1.245e+01,1.319e+01,1.219e+01,1.390e+01,1.337e+01,1.394e+01,1.422e+01,1.209e+01,1.120e+01,1.430e+01,1.273e+01,1.572e+01,1.350e+01,1.423e+01,1.618e+01,1.690e+01,1.686e+01,1.694e+01,1.465e+01,1.593e+01,1.800e+01,1.789e+01,1.725e+01,1.720e+01,1.998e+01,1.855e+01,1.713e+01,1.792e+01,1.980e+01,2.074e+01,2.072e+01,1.811e+01,1.909e+01,1.992e+01,1.853e+01,1.874e+01,1.914e+01,1.851e+01,1.906e+01,1.672e+01,1.960e+01,1.737e+01,1.709e+01,1.639e+01,1.780e+01,2.100e+01,1.934e+01,2.024e+01,1.750e+01,1.870e+01
6.091e-02,3.204e-01,2.551e-01,1.243e+00,1.095e+00,1.355e+00,1.634e+00,2.130e+00,2.528e+00,2.572e+00,2.552e+00,3.542e+00,3.088e+00,4.687e+00,4.784e+00,3.991e+00,4.559e+00,4.765e+00,4.273e+00,5.574e+00,5.166e+00,6.318e+00,5.945e+00,6.095e+00,5.588e+00,6.556e+00,6.666e+00,6.235e+00,7.444e+00,6.715e+00,6.672e+00,6.511e+00,7.148e+00,9.776e+00,1.026e+01,8.963e+00,6.869e+00,8.643e+00,9.389e+00,8.473e+00,1.125e+01,9.535e+00,1.104e+01,1.367e+01,1.090e+01,1.097e+01,1.114e+01,1.169e+01,1.225e+01,1.027e+01,1.120e+01,1.042e+01,1.121e+01,1.251e+01,1.225e+01,1.166e+01,1.501e+01,1.232e+01,1.651e+01,1.237e+01,1.248e+01,1.594e+01,1.644e+01,1.761e+01,1.713e+01,1.508e+01,1.546e+01,1.695e+01,1.815e+01,1.776e+01,1.756e+01,1.838e+01,1.773e+01,1.612e+01,1.871e+01,1.925e+01,1.827e+01,1.983e+01,1.707e+01,1.862e+01,2.100e+01,1.795e+01,1.843e+01,1.974e+01,1.663e+01,1.958e+01,1.748e+01,1.929e+01,1.757e+01,1.722e+01,1.787e+01,1.993e+01,1.868e+01,1.843e+01,2.113e+01,1.681e+01,1.772e+01
5.734e-01,7.973e-01,4.771e-01,1.502e+00,1.310e+00,2.412e+00,1.684e+00,2.400e+00,3.405e+00,3.253e+00,2.443e+00,4.029e+00,3.521e+00,5.875e+00,5.457e+00,5.145e+00,6.160e+00,6.371e+00,5.457e+00,7.154e+00,5.663e+00,8.319e+00,7.042e+00,7.709e+00,7.081e+00,7.944e+00,7.332e+00,6.801e+00,9.316e+00,8.803e+00,8.631e+00,8.795e+00,9.136e+00,1.212e+01,1.103e+01,1.039e+01,8.221e+00,9.189e+00,1.079e+01,1.013e+01,1.092e+01,1.043e+01,1.181e+01,1.384e+01,1.140e+01,1.115e+01,1.210e+01,1.196e+01,1.255e+01,1.053e+01,1.209e+01,1.206e+01,1.323e+01,1.221e+01,1.288e+01,1.073e+01,1.427e+01,1.199e+01,1.519e+01,1.258e+01,1.244e+01,1.662e+01,1.625e+01,1.705e+01,1.775e+01,1.565e+01,1.431e+01,1.539e+01,1.852e+01,1.799e+01,1.650e+01,1.919e+01,1.703e+01,1.711e+01,1.869e+01,1.971e+01,1.969e+01,1.947e+01,1.846e+01,1.895e+01,2.121e+01,2.071e+01,1.934e+01,1.739e+01,1.692e+01,2.080e+01,1.628e+01,1.937e+01,1.857e+01,1.895e+01,1.865e+01,2.007e+01,1.855e+01,1.892e+01,1.990e+01,1.715e+01,1.818e+01
2.745e-01,5.014e-01,3.529e-01,1.309e+00,1.310e+00,2.125e+00,2.208e+00,2.447e+00,3.326e+00,3.263e+00,3.337e+00,5.095e+00,3.750e+00,5.250e+00,5.451e+00,4.817e+00,5.559e+00,5.580e+00,5.785e+00,6.721e+00,5.661e+00,7.977e+00,6.910e+00,7.724e+00,7.554e+00,7.930e+00,7.789e+00,7.717e+00,8.927e+00,7.958e+00,7.978e+00,8.856e+00,1.048e+01,1.274e+01,1.266e+01,1.061e+01,8.230e+00,9.322e+00,1.196e+01,1.055e+01,1.345e+01,1.200e+01,1.396e+01,1.616e+01,1.324e+01,1.367e+01,1.393e+01,1.427e+01,1.531e+01,1.319e+01,1.392e+01,1.479e+01,1.573e+01,1.658e+01,1.400e+01,1.411e+01,1.657e+01,1.563e+01,1.935e+01,1.615e+01,1.631e+01,2.049e+01,1.906e+01,2.080e+01,2.043e+01,1.866e+01,1.855e+01,1.845e+01,2.160e+01,2.020e+01,2.053e+01,2.351e+01,2.109e+01,2.132e+01,2.239e+01,2.506e+01,2.456e+01,2.547e+01,2.066e+01,2.355e+01,2.569e+01,2.472e+01,2.309e+01,2.384e+01,2.216e+01,2.595e+01,2.085e+01,2.467e+01,2.356e+01,2.218e+01,2.225e+01,2.338e+01,2.673e+01,2.348e+01,2.449e+01,2.216e+01,2.264e+01
4.571e-01,7.256e-01,4.843e-01,1.609e+00,1.591e+00,2.595e+00,2.102e+00,2.282e+00,2.913e+00,3.188e+00,3.309e+00,4.692e+00,3.702e+00,4.834e+00,4.406e+00,4.474e+00,5.823e+00,6.095e+00,4.965e+00,6.859e+00,6.057e+00,8.138e+00,6.343e+00,6.601e+00,7.316e+00,8.882e+00,7.648e+00,8.134e+00,9.968e+00,7.966e+00,7.681e+00,7.666e+00,9.068e+00,1.222e+01,1.127e+01,9.204e+00,8.050e+00,1.023e+01,1.149e+01,9.980e+00,1.214e+01,1.252e+01,1.215e+01,1.367e+01,1.144e+01,1.147e+01,1.195e+01,1.270e+01,1.384e+01,1.102e+01,1.203e+01,1.087e+01,1.360e+01,1.270e+01,1.193e+01,1.268e+01,1.303e+01,1.300e+01,1.607e+01,1.450e+01,1.309e+01,1.769e+01,1.650e+01,1.749e+01,1.778e+01,1.631e+01,1.513e+01,1.622e+01,1.856e+01,1.824e+01,1.698e+01,2.003e+01,1.761e+01,1.793e+01,1.789e+01,2.036e+01,1.915e+01,2.172e+01,1.849e+01,2.027e+01,2.190e+01,2.069e+01,2.079e+01,2.053e+01,1.748e+01,2.149e+01,1.777e+01,2.098e+01,1.798e+01,1.945e+01,1.879e+01,2.106e+01,2.259e+01,1.951e+01,1.963e+01,1.971e+01,2.008e+01
2.511e-01,2.913e-01,1.819e-01,8.238e-01,6.183e-01,9.241e-01,7.498e-01,1.355e+00,1.837e+00,2.006e+00,1.354e+00,2.641e+00,2.134e+00,4.052e+00,4.048e+00,3.226e+00,5.000e+00,5.456e+00,4.135e+00,5.010e+00,3.956e+00,6.696e+00,5.334e+00,5.519e+00,6.652e+00,7.047e+00,6.806e+00,7.151e+00,8.494e+00,7.689e+00,7.815e+00,8.105e+00,8.671e+00,1.138e+01,1.028e+01,9.013e+00,7.742e+00,9.305e+00,1.152e+01,1.015e+01,1.292e+01,1.078e+01,1.416e+01,1.468e+01,1.269e+01,1.378e+01,1.129e+01,1.211e+01,1.335e+01,1.237e+01,1.347e+01,1.269e+01,1.519e+01,1.327e+01,1.199e+01,1.158e+01,1.536e+01,1.480e+01,1.833e+01,1.501e+01,1.344e+01,1.760e+01,1.838e+01,1.902e+01,1.862e+01,1.680e+01,1.624e+01,1.772e+01,2.026e+01,1.855e+01,1.938e+01,2.211e+01,1.996e+01,1.940e+01,1.972e+01,2.180e+01,2.212e+01,2.291e+01,2.259e+01,2.423e+01,2.444e+01,2.088e+01,2.263e+01,2.263e+01,1.922e+01,2.182e+01,1.809e+01,2.189e+01,1.979e+01,2.212e+01,2.135e+01,2.150e+01,2.323e+01,2.151e+01,2.163e+01,2.144e+01,2.220e+01
3.685e-01,5.439e-01,3.219e-01,1.184e+00,1.028e+00,1.918e+00,1.430e+00,2.034e+00,2.689e+00,2.785e+00,1.952e+00,3.746e+00,3.005e+00,4.905e+00,4.252e+00,4.432e+00,5.544e+00,5.881e+00,4.935e+00,6.411e+00,4.574e+00,7.996e+00,5.484e+00,6.488e+00,6.237e+00,7.011e+00,5.955e+00,5.857e+00,7.708e+00,6.568e+00,7.721e+00,6.081e+00,8.081e+00,1.044e+01,9.452e+00,8.302e+00,6.235e+00,8.323e+00,1.021e+01,9.474e+00,1.077e+01,1.020e+01,1.228e+01,1.263e+01,1.070e+01,9.821e+00,1.034e+01,1.143e+01,1.237e+01,1.104e+01,1.257e+01,1.166e+01,1.337e+01,1.248e+01,1.129e+01,1.197e+01,1.288e+01,1.290e+01,1.514e+01,1.175e+01,1.202e+01,1.614e+01,1.532e+01,1.647e+01,1.766e+01,1.427e+01,1.493e+01,1.580e+01,1.869e+01,1.630e+01,1.658e+01,1.791e+01,1.733e+01,1.731e+01,1.746e+01,2.057e+01,1.865e+01,2.028e+01,1.820e+01,2.013e+01,2.129e+01,2.047e+01,2.020e+01,2.029e+01,1.752e+01,2.086e+01,1.734e+01,2.069e+01,1.928e+01,1.890e+01,2.162e+01,2.056e+01,2.181e+01,1.933e+01,2.006e+01,1.858e+01,1.926e+01
2.650e-01,5.099e-01,3.576e-01,1.095e+00,1.061e+00,1.693e+00,1.421e+00,1.601e+00,2.133e+00,1.979e+00,1.830e+00,2.866e+00,2.297e+00,4.084e+00,4.171e+00,3.212e+00,4.906e+00,5.486e+00,4.285e+00,5.204e+00,5.024e+00,6.585e+00,4.919e+00,5.524e+00,6.646e+00,6.845e+00,7.486e+00,6.841e+00,7.826e+00,7.124e+00,7.536e+00,6.883e+00,8.203e+00,1.125e+01,1.033e+01,9.770e+00,8.442e+00,1.030e+01,1.026e+01,9.774e+00,1.283e+01,1.103e+01,1.403e+01,1.596e+01,1.422e+01,1.250e+01,1.138e+01,1.145e+01,1.468e+01,1.299e+01,1.320e+01,1.318e+01,1.346e+01,1.501e+01,1.214e+01,1.177e+01,1.551e+01,1.523e+01,1.779e+01,1.388e+01,1.366e+01,1.834e+01,1.967e+01,1.898e+01,1.917e+01,1.733e+01,1.489e+01,1.727e+01,2.068e+01,1.852e+01,1.871e+01,2.092e+01,1.831e+01,1.921e+01,1.926e+01,1.931e+01,2.171e+01,2.215e+01,2.101e+01,2.177e+01,2.729e+01,2.453e+01,2.479e+01,2.337e+01,2.098e+01,2.238e+01,1.978e+01,2.339e+01,2.093e+01,2.339e+01,2.232e+01,2.158e+01,2.505e+01,2.148e+01,2.259e+01,2.300e+01,2.160e+01
1.108e-01,3.200e-01,2.387e-01,7.650e-01,8.577e-01,1.356e+00,1.297e+00,1.134e+00,1.593e+00,1.597e+00,1.710e+00,2.412e+00,2.140e+00,2.708e+00,3.244e+00,2.676e+00,4.239e+00,4.226e+00,3.818e+00,4.490e+00,4.761e+00,5.604e+00,4.302e+00,4.916e+00,6.084e+00,6.832e+00,6.144e+00,6.715e+00,8.366e+00,7.158e+00,6.041e+00,7.272e+00,7.457e+00,9.437e+00,9.033e+00,7.827e+00,6.830e+00,7.480e+00,8.504e+00,8.439e+00,1.085e+01,9.824e+00,1.166e+01,1.271e+01,1.054e+01,1.206e+01,1.027e+01,1.131e+01,1.134e+01,9.874e+00,1.091e+01,1.114e+01,1.199e+01,1.308e+01,1.140e+01,1.143e+01,1.304e+01,1.416e+01,1.624e+01,1.285e+01,1.271e+01,1.697e+01,1.592e+01,1.706e+01,1.621e+01,1.528e+01,1.445e+01,1.556e+01,1.809e+01,1.613e+01,1.701e+01,1.937e+01,1.703e+01,1.764e+01,1.729e+01,1.865e+01,1.960e+01,2.271e+01,1.814e+01,2.051e+01,2.241e+01,2.163e+01,2.111e+01,2.135e+01,1.787e+01,2.044e+01,1.944e+01,2.136e+01,2.007e+01,2.048e+01,1.924e+01,1.906e+01,2.286e+01,2.020e+01,2.044e+01,1.991e+01,1.944e+01
2.763e-01,2.630e-01,1.503e-01,6.113e-01,6.852e-01,1.604e+00,1.510e+00,1.589e+00,2.303e+00,2.331e+00,2.714e+00,3.451e+00,2.713e+00,3.994e+00,4.138e+00,3.761e+00,4.520e+00,5.213e+00,4.465e+00,5.497e+00,4.632e+00,6.676e+00,4.867e+00,5.491e+00,5.866e+00,7.033e+00,6.138e+00,5.761e+00,8.162e+00,5.465e+00,7.444e+00,6.692e+00,8.132e+00,9.535e+00,9.170e+00,8.213e+00,6.114e+00,9.229e+00,8.950e+00,9.877e+00,1.105e+01,9.487e+00,1.242e+01,1.249e+01,1.261e+01,1.160e+01,9.726e+00,1.077e+01,1.245e+01,1.103e+01,1.193e+01,1.052e+01,1.303e+01,1.229e+01,1.078e+01,1.060e+01,1.296e+01,1.183e+01,1.414e+01,1.272e+01,1.198e+01,1.612e+01,1.565e+01,1.689e+01,1.692e+01,1.447e+01,1.309e+01,1.484e+01,1.814e+01,1.584e+01,1.580e+01,1.901e+01,1.570e+01,1.738e+01,1.690e+01,1.863e+01,1.853e+01,2.061e+01,1.909e+01,2.059e+01,2.238e+01,2.089e+01,2.030e+01,2.192e+01,1.969e+01,2.148e+01,1.760e+01,2.178e+01,1.955e+01,2.082e+01,1.994e+01,2.133e+01,2.322e+01,2.075e+01,1.923e+01,2.103e+01,1.919e+01
9.445e-02,7.397e-02,1.310e-01,1.040e+00,1.008e+00,1.285e+00,1.680e+00,1.801e+00,2.447e+00,2.558e+00,2.536e+00,3.559e+00,2.660e+00,3.876e+00,4.135e+00,3.559e+00,4.736e+00,5.447e+00,4.330e+00,4.642e+00,4.491e+00,6.148e+00,5.521e+00,6.235e+00,6.668e+00,6.893e+00,5.832e+00,6.859e+00,8.112e+00,7.182e+00,7.389e+00,5.806e+00,7.789e+00,1.055e+01,9.345e+00,7.794e+00,6.247e+00,8.290e+00,1.014e+01,9.105e+00,1.194e+01,1.062e+01,1.116e+01,1.250e+01,1.081e+01,1.113e+01,1.053e+01,1.159e+01,1.214e+01,1.141e+01,1.218e+01,1.085e+01,1.345e+01,1.266e+01,1.192e+01,1.245e+01,1.408e+01,1.319e+01,1.641e+01,1.286e+01,1.399e+01,1.716e+01,1.739e+01,1.765e+01,1.719e+01,1.509e+01,1.582e+01,1.839e+01,1.749e+01,1.918e+01,1.692e+01,1.795e+01,1.969e+01,1.725e+01,1.820e+01,1.938e+01,2.150e+01,2.056e+01,1.830e+01,2.027e+01,2.202e+01,2.041e+01,2.168e+01,2.274e+01,2.064e+01,2.211e+01,2.046e+01,2.114e+01,1.949e+01,2.107e+01,1.943e+01,2.142e+01,2.262e+01,2.165e+01,2.254e+01,1.930e+01,2.139e+01
2.748e-01,6.463e-01,4.469e-01,1.535e+00,1.389e+00,1.870e+00,1.427e+00,1.793e+00,2.813e+00,2.556e+00,3.144e+00,3.893e+00,3.465e+00,4.683e+00,4.624e+00,4.543e+00,5.918e+00,5.553e+00,4.945e+00,6.098e+00,5.669e+00,7.556e+00,7.009e+00,6.885e+00,7.795e+00,8.583e+00,8.433e+00,8.239e+00,9.513e+00,8.258e+00,8.100e+00,9.068e+00,9.387e+00,1.249e+01,1.127e+01,1.082e+01,8.414e+00,9.025e+00,1.080e+01,1.063e+01,1.307e+01,1.160e+01,1.385e+01,1.508e+01,1.256e+01,1.383e+01,1.261e+01,1.318e+01,1.491e+01,1.175e+01,1.314e+01,1.326e+01,1.426e+01,1.483e+01,1.253e+01,1.214e+01,1.561e+01,1.430e+01,1.712e+01,1.502e+01,1.514e+01,1.701e+01,1.770e+01,1.921e+01,1.862e+01,1.629e+01,1.625e+01,1.731e+01,1.949e+01,1.779e+01,1.802e+01,2.121e+01,1.818e+01,1.693e+01,1.827e+01,2.004e+01,2.194e+01,2.183e+01,2.072e+01,2.231e+01,2.373e+01,2.148e+01,2.172e+01,2.150e+01,2.007e+01,2.351e+01,1.911e+01,2.355e+01,1.980e+01,2.262e+01,2.015e+01,2.176e+01,2.356e+01,2.224e+01,2.293e+01,2.130e+01,2.287e+01
2.466e-01,3.686e-01,2.918e-01,1.545e+00,1.282e+00,1.517e+00,1.566e+00,2.253e+00,2.797e+00,2.886e+00,2.162e+00,3.743e+00,3.202e+00,4.834e+00,4.560e+00,4.075e+00,5.065e+00,5.461e+00,4.107e+00,5.367e+00,4.214e+00,7.242e+00,6.500e+00,6.612e+00,5.827e+00,6.312e+00,5.991e+00,5.660e+00,6.780e+00,7.097e+00,7.037e+00,6.893e+00,7.076e+00,9.959e+00,9.731e+00,8.350e+00,6.697e+00,7.555e+00,9.608e+00,8.825e+00,9.899e+00,9.070e+00,1.040e+01,1.283e+01,9.651e+00,1.041e+01,1.079e+01,1.147e+01,1.270e+01,1.046e+01,1.068e+01,1.116e+01,1.254e+01,1.194e+01,1.186e+01,1.042e+01,1.440e+01,1.199e+01,1.523e+01,1.183e+01,1.200e+01,1.609e+01,1.547e+01,1.779e+01,1.591e+01,1.388e+01,1.377e+01,1.599e+01,1.803e+01,1.673e+01,1.637e+01,1.749e+01,1.821e+01,1.763e+01,1.735e+01,1.937e+01,1.828e+01,1.887e+01,1.702e+01,1.903e+01,2.169e+01,1.946e+01,1.950e+01,2.051e+01,1.826e+01,2.258e+01,1.992e+01,2.076e+01,1.983e+01,1.980e+01,2.133e+01,2.179e+01,2.080e+01,2.120e+01,2.092e+01,1.916e+01,1.993e+01
6.868e-02,3.429e-01,2.561e-01,7.555e-01,6.954e-01,1.020e+00,9.298e-01,1.150e+00,2.089e+00,1.781e+00,2.444e+00,3.326e+00,3.014e+00,4.462e+00,4.281e+00,4.083e+00,5.673e+00,6.045e+00,4.395e+00,5.549e+00,4.792e+00,7.022e+00,5.799e+00,5.979e+00,6.374e+00,6.996e+00,6.475e+00,6.569e+00,8.402e+00,7.289e+00,7.624e+00,7.403e+00,7.480e+00,1.192e+01,9.941e+00,9.311e+00,7.768e+00,8.122e+00,9.939e+00,8.645e+00,1.160e+01,9.971e+00,1.218e+01,1.266e+01,1.065e+01,1.138e+01,1.060e+01,1.094e+01,1.348e+01,9.503e+00,1.249e+01,1.156e+01,1.306e+01,1.283e+01,1.150e+01,1.126e+01,1.498e+01,1.329e+01,1.678e+01,1.318e+01,1.452e+01,1.652e+01,1.765e+01,1.748e+01,1.582e+01,1.567e+01,1.522e+01,1.674e+01,1.743e+01,1.788e+01,1.498e+01,1.955e+01,1.683e+01,1.705e+01,1.831e+01,1.901e+01,1.931e+01,2.067e+01,1.841e+01,1.949e+01,2.203e+01,1.881e+01,1.984e+01,2.114e+01,1.798e+01,2.050e+01,1.850e+01,2.162e+01,1.924e+01,2.015e+01,2.041e+01,1.984e+01,2.267e+01,1.967e+01,2.036e+01,1.909e+01,1.971e+01
5.470e-02,1.304e-01,1.227e-01,6.051e-01,5.552e-01,8.678e-01,1.311e+00,1.642e+00,2.281e+00,2.088e+00,1.704e+00,2.757e+00,2.370e+00,4.394e+00,4.997e+00,3.563e+00,3.678e+00,3.898e+00,3.997e+00,4.868e+00,4.507e+00,6.478e+00,5.929e+00,6.715e+00,6.532e+00,6.889e+00,6.307e+00,5.452e+00,7.227e+00,6.744e+00,6.732e+00,7.521e+00,8.013e+00,1.080e+01,9.747e+00,9.672e+00,7.197e+00,7.205e+00,9.945e+00,8.732e+00,1.181e+01,9.935e+00,1.123e+01,1.141e+01,1.045e+01,1.143e+01,9.570e+00,1.132e+01,1.266e+01,1.169e+01,1.177e+01,1.219e+01,1.197e+01,1.277e+01,1.184e+01,1.159e+01,1.531e+01,1.321e+01,1.689e+01,1.315e+01,1.362e+01,1.685e+01,1.806e+01,1.854e+01,1.678e+01,1.730e+01,1.570e+01,1.648e+01,1.832e+01,1.668e+01,1.715e+01,1.981e+01,1.682e+01,1.873e+01,1.966e+01,2.035e+01,1.855e+01,2.136e+01,1.873e+01,2.095e+01,2.351e+01,1.853e+01,2.149e+01,2.214e+01,2.011e+01,2.282e+01,2.195e+01,2.286e+01,2.055e+01,2.252e+01,2.291e+01,2.093e+01,2.382e+01,2.174e+01,2.330e+01,2.173e+01,2.143e+01
3.888e-01,6.237e-01,4.652e-01,1.745e+00,1.524e+00,1.794e+00,1.130e+00,1.476e+00,2.176e+00,2.314e+00,2.118e+00,3.245e+00,2.717e+00,3.874e+00,3.704e+00,3.537e+00,5.142e+00,4.994e+00,4.154e+00,4.699e+00,4.029e+00,6.086e+00,5.829e+00,5.695e+00,5.494e+00,6.797e+00,6.907e+00,5.534e+00,6.973e+00,7.021e+00,6.772e+00,7.170e+00,7.919e+00,1.034e+01,9.437e+00,8.668e+00,8.211e+00,8.815e+00,1.028e+01,8.056e+00,1.089e+01,9.448e+00,1.161e+01,1.325e+01,1.125e+01,1.091e+01,1.115e+01,1.178e+01,1.251e+01,1.112e+01,1.286e+01,1.294e+01,1.303e+01,1.427e+01,1.190e+01,1.124e+01,1.464e+01,1.350e+01,1.686e+01,1.436e+01,1.330e+01,1.774e+01,1.816e+01,1.727e+01,1.842e+01,1.533e+01,1.431e+01,1.586e+01,1.881e+01,1.659e+01,1.666e+01,1.894e+01,1.831e+01,1.761e+01,1.818e+01,1.985e+01,1.996e+01,2.058e+01,1.786e+01,2.103e+01,2.191e+01,2.091e+01,2.170e+01,2.077e+01,2.048e+01,2.293e+01,1.974e+01,2.250e+01,2.181e+01,2.313e+01,2.360e+01,2.130e+01,2.306e+01,2.177e+01,2.119e+01,2.050e+01,2.124e+01
5.401e-01,7.961e-01,5.501e-01,1.600e+00,1.602e+00,2.648e+00,2.198e+00,2.340e+00,3.204e+00,2.865e+00,2.579e+00,4.447e+00,3.500e+00,4.409e+00,4.207e+00,3.945e+00,5.186e+00,5.673e+00,4.711e+00,5.503e+00,4.808e+00,7.274e+00,6.214e+00,6.977e+00,6.851e+00,7.582e+00,8.264e+00,7.338e+00,8.131e+00,8.312e+00,7.764e+00,8.819e+00,9.590e+00,1.100e+01,1.051e+01,9.103e+00,8.753e+00,8.402e+00,9.752e+00,1.055e+01,1.223e+01,1.047e+01,1.315e+01,1.403e+01,1.190e+01,1.252e+01,1.077e+01,1.282e+01,1.297e+01,1.133e+01,1.179e+01,1.272e+01,1.299e+01,1.459e+01,1.217e+01,1.224e+01,1.439e+01,1.395e+01,1.702e+01,1.259e+01,1.297e+01,1.874e+01,1.687e+01,1.724e+01,1.791e+01,1.543e+01,1.542e+01,1.568e+01,1.894e+01,1.706e+01,1.768e+01,2.134e+01,1.844e+01,1.897e+01,1.951e+01,2.076e+01,1.928e+01,2.283e+01,1.923e+01,2.079e+01,2.336e+01,2.143e+01,2.200e+01,2.203e+01,2.023e+01,2.291e+01,1.996e+01,2.247e+01,2.028e+01,2.387e+01,2.245e+01,2.088e+01,2.540e+01,2.250e+01,2.293e+01,2.361e+01,2.242e+01
5.112e-01,7.858e-01,5.723e-01,1.919e+00,1.691e+00,2.269e+00,1.465e+00,1.904e+00,2.506e+00,2.864e+00,2.749e+00,3.663e+00,2.520e+00,3.802e+00,2.976e+00,3.743e+00,4.217e+00,4.517e+00,4.214e+00,4.344e+00,3.698e+00,5.807e+00,5.965e+00,6.209e+00,5.318e+00,5.827e+00,6.651e+00,6.715e+00,6.893e+00,7.103e+00,6.924e+00,7.561e+00,8.480e+00,1.112e+01,1.101e+01,8.731e+00,7.096e+00,7.971e+00,1.035e+01,9.914e+00,1.111e+01,1.050e+01,1.205e+01,1.318e+01,1.113e+01,1.162e+01,1.006e+01,1.152e+01,1.381e+01,1.128e+01,1.169e+01,1.113e+01,1.329e+01,1.383e+01,1.213e+01,1.196e+01,1.560e+01,1.299e+01,1.589e+01,1.288e+01,1.351e+01,1.624e+01,1.607e+01,1.752e+01,1.544e+01,1.478e+01,1.483e+01,1.739e+01,1.769e+01,1.675e+01,1.558e+01,2.023e+01,1.795e+01,1.788e+01,1.838e+01,1.838e+01,2.037e+01,1.998e+01,1.904e+01,2.130e+01,2.316e+01,2.008e+01,2.074e+01,2.163e+01,1.894e+01,2.240e+01,1.946e+01,2.217e+01,2.029e+01,2.141e+01,2.157e+01,2.195e+01,2.313e+01,2.422e+01,2.313e+01,2.104e+01,2.166e+01
3.981e-01,5.955e-01,3.702e-01,1.378e+00,1.281e+00,2.198e+00,1.957e+00,2.455e+00,2.907e+00,2.769e+00,2.049e+00,3.559e+00,2.774e+00,3.921e+00,4.157e+00,3.595e+00,4.327e+00,4.262e+00,3.916e+00,4.878e+00,4.400e+00,6.271e+00,5.963e+00,5.596e+00,5.822e+00,6.006e+00,6.331e+00,6.573e+00,7.929e+00,6.826e+00,7.352e+00,7.236e+00,7.101e+00,1.020e+01,9.203e+00,7.454e+00,6.816e+00,8.405e+00,9.026e+00,9.265e+00,1.133e+01,9.465e+00,1.198e+01,1.308e+01,1.121e+01,1.146e+01,1.046e+01,1.231e+01,1.262e+01,1.004e+01,1.124e+01,1.123e+01,1.335e+01,1.384e+01,1.127e+01,1.071e+01,1.390e+01,1.302e+01,1.665e+01,1.406e+01,1.460e+01,1.890e+01,1.827e+01,1.956e+01,1.683e+01,1.718e+01,1.563e+01,1.732e+01,1.914e+01,1.919e+01,1.797e+01,1.990e+01,1.843e+01,1.787e+01,1.948e+01,2.084e+01,2.061e+01,2.199e+01,1.904e+01,2.362e+01,2.521e+01,2.311e+01,2.254e+01,2.390e+01,1.966e+01,2.472e+01,2.264e+01,2.530e+01,2.346e+01,2.458e+01,2.530e+01,2.537e+01,2.739e+01,2.549e+01,2.669e+01,2.336e+01,2.349e+01
4.459e-02,3.099e-01,2.589e-01,1.182e+00,1.120e+00,1.401e+00,1.412e+00,1.567e+00,1.736e+00,2.120e+00,1.900e+00,3.205e+00,2.577e+00,4.112e+00,3.906e+00,3.362e+00,4.868e+00,4.957e+00,3.815e+00,5.186e+00,4.469e+00,6.282e+00,5.058e+00,4.989e+00,6.178e+00,6.828e+00,6.520e+00,6.863e+00,7.465e+00,6.664e+00,6.547e+00,6.210e+00,7.529e+00,1.036e+01,9.682e+00,7.991e+00,6.487e+00,7.709e+00,9.425e+00,8.157e+00,1.093e+01,9.546e+00,1.101e+01,1.229e+01,9.905e+00,9.582e+00,1.023e+01,9.442e+00,1.171e+01,9.576e+00,9.850e+00,1.081e+01,1.163e+01,1.149e+01,1.056e+01,1.074e+01,1.304e+01,1.296e+01,1.452e+01,1.287e+01,1.216e+01,1.586e+01,1.572e+01,1.690e+01,1.537e+01,1.479e+01,1.344e+01,1.437e+01,1.679e+01,1.657e+01,1.703e+01,1.744e+01,1.754e+01,1.737e+01,1.764e+01,1.900e+01,1.932e+01,1.868e+01,1.725e+01,2.102e+01,2.132e+01,1.974e+01,2.054e+01,2.163e+01,1.843e+01,2.247e+01,1.988e+01,2.245e+01,1.969e+01,2.166e+01,2.228e+01,2.233e+01,2.354e+01,2.144e+01,2.233e+01,2.099e+01,2.232e+01
3.846e-01,3.116e-01,1.725e-01,4.381e-01,6.199e-01,1.560e+00,1.421e+00,1.209e+00,2.341e+00,1.456e+00,2.529e+00,3.058e+00,3.292e+00,2.815e+00,4.144e+00,3.194e+00,3.670e+00,4.543e+00,3.702e+00,4.507e+00,4.178e+00,6.692e+00,4.182e+00,5.900e+00,5.988e+00,6.425e+00,6.886e+00,5.291e+00,8.152e+00,6.642e+00,6.248e+00,7.565e+00,8.247e+00,1.028e+01,1.057e+01,8.486e+00,6.161e+00,8.442e+00,8.857e+00,1.058e+01,1.170e+01,9.217e+00,1.260e+01,1.242e+01,1.111e+01,1.143e+01,9.915e+00,9.542e+00,1.194e+01,1.005e+01,1.250e+01,1.150e+01,1.239e+01,1.360e+01,1.054e+01,1.182e+01,1.302e+01,1.095e+01,1.450e+01,1.182e+01,1.200e+01,1.580e+01,1.415e+01,1.628e+01,1.677e+01,1.267e+01,1.343e+01,1.594e+01,1.828e+01,1.471e+01,1.656e+01,1.785e+01,1.642e+01,1.633e+01,1.625e+01,1.843e+01,1.749e+01,1.989e+01,1.769e+01,1.826e+01,2.110e+01,1.902e+01,1.930e+01,2.091e+01,1.871e+01,2.250e+01,1.820e+01,2.059e+01,1.968e+01,2.076e+01,2.094e+01,2.193e+01,2.425e+01,2.319e+01,2.112e+01,2.287e+01,2.297e+01
2.624e-01,2.318e-01,2.243e-01,1.178e+00,1.254e+00,1.830e+00,2.090e+00,1.973e+00,3.111e+00,2.737e+00,3.611e+00,4.414e+00,3.920e+00,4.276e+00,4.792e+00,4.279e+00,5.576e+00,6.550e+00,5.062e+00,5.797e+00,5.368e+00,8.747e+00,6.244e+00,7.308e+00,6.846e+00,7.782e+00,7.108e+00,6.192e+00,9.136e+00,7.961e+00,8.844e+00,8.698e+00,8.357e+00,1.197e+01,1.112e+01,9.379e+00,8.212e+00,9.155e+00,1.055e+01,9.980e+00,1.074e+01,9.828e+00,1.230e+01,1.338e+01,1.114e+01,1.145e+01,1.180e+01,1.202e+01,1.507e+01,1.082e+01,1.308e+01,1.266e+01,1.368e+01,1.314e+01,1.326e+01,1.137e+01,1.470e+01,1.286e+01,1.511e+01,1.307e+01,1.422e+01,1.638e+01,1.724e+01,1.795e+01,1.837e+01,1.492e+01,1.455e+01,1.858e+01,1.847e+01,1.717e+01,1.750e+01,1.993e+01,1.938e+01,1.874e+01,1.882e+01,2.147e+01,2.075e+01,2.223e+01,1.973e+01,2.108e+01,2.395e+01,2.073e+01,2.055e+01,2.233e+01,2.165e+01,2.285e+01,2.000e+01,2.307e+01,2.099e+01,2.314e+01,2.446e+01,2.537e+01,2.697e+01,2.441e+01,2.396e+01,2.448e+01,2.323e+01
3.719e-01,4.774e-01,2.944e-01,1.257e+00,1.062e+00,1.645e+00,1.463e+00,2.126e+00,2.369e+00,2.806e+00,2.474e+00,3.426e+00,2.913e+00,3.649e+00,3.924e+00,3.740e+00,4.233e+00,4.342e+00,4.327e+00,5.351e+00,4.822e+00,7.428e+00,5.458e+00,5.820e+00,5.786e+00,6.561e+00,6.108e+00,6.520e+00,8.014e+00,5.731e+00,7.058e+00,6.581e+00,7.581e+00,8.818e+00,9.769e+00,7.377e+00,6.230e+00,8.502e+00,9.189e+00,9.344e+00,1.041e+01,9.776e+00,1.101e+01,1.251e+01,9.187e+00,1.076e+01,1.036e+01,1.157e+01,1.170e+01,1.039e+01,1.077e+01,1.077e+01,1.274e+01,1.210e+01,1.151e+01,1.328e+01,1.465e+01,1.262e+01,1.586e+01,1.231e+01,1.180e+01,1.654e+01,1.636e+01,1.732e+01,1.642e+01,1.475e+01,1.617e+01,1.673e+01,1.864e+01,1.812e+01,1.936e+01,1.920e+01,1.798e+01,1.655e+01,1.926e+01,2.107e+01,1.934e+01,2.152e+01,1.960e+01,2.110e+01,2.342e+01,2.133e+01,2.180e+01,2.182e+01,1.868e+01,2.344e+01,2.147e+01,2.376e+01,1.983e+01,2.296e+01,2.301e+01,2.363e+01,2.478e+01,2.393e+01,2.450e+01,2.418e+01,2.300e+01
1.318e-01,2.097e-01,1.452e-01,9.369e-01,9.004e-01,1.461e+00,1.625e+00,1.909e+00,2.382e+00,2.387e+00,2.534e+00,3.426e+00,2.787e+00,3.766e+00,3.995e+00,3.575e+00,4.742e+00,4.971e+00,4.224e+00,4.932e+00,4.371e+00,6.174e+00,4.911e+00,5.054e+00,5.717e+00,6.696e+00,5.905e+00,6.050e+00,7.657e+00,6.447e+00,6.452e+00,6.733e+00,7.558e+00,1.012e+01,9.376e+00,7.970e+00,6.200e+00,7.496e+00,9.076e+00,8.684e+00,1.067e+01,9.398e+00,1.149e+01,1.219e+01,1.019e+01,1.096e+01,1.101e+01,1.062e+01,1.197e+01,9.972e+00,1.199e+01,1.048e+01,1.291e+01,1.352e+01,1.117e+01,1.187e+01,1.327e+01,1.206e+01,1.616e+01,1.370e+01,1.349e+01,1.726e+01,1.625e+01,1.699e+01,1.657e+01,1.409e+01,1.451e+01,1.702e+01,1.852e+01,1.728e+01,1.700e+01,1.924e+01,1.874e+01,1.554e+01,1.772e+01,1.985e+01,1.982e+01,1.985e+01,1.922e+01,1.843e+01,2.234e+01,1.944e+01,1.948e+01,2.036e+01,1.961e+01,2.117e+01,1.961e+01,2.087e+01,2.054e+01,2.092e+01,2.165e+01,2.226e+01,2.443e+01,2.285e+01,2.235e+01,2.155e+01,2.268e+01
