3.221e-01,6.993e-01,2.024e-01,2.537e-01,8.592e-01,4.391e-01,9.196e-01,1.811e-01,6.485e-01,6.296e-01,2.174e-01,4.378e-01,8.926e-01,1.255e-01,6.542e-01,2.609e-01,2.021e-01,6.754e-02,2.767e-01,8.066e-01,7.638e-01,4.501e-01,1.064e-01,2.997e-01,5.498e-01,9.642e-01,8.952e-01,3.805e-01,9.894e-01,6.747e-01,9.644e-01,5.888e-02,9.000e-01,9.926e-01,7.109e-01,6.179e-01,8.708e-01,5.725e-01,1.871e-01,8.010e-01,8.311e-01,9.586e-01,2.023e-01,6.793e-01,7.335e-01,1.516e-01,8.197e-01,4.128e-01,6.157e-01,7.193e-01,6.338e-01,9.540e-01,3.190e-01,7.113e-01,4.363e-01,2.524e-01,9.110e-02,3.843e-02,8.541e-01,2.952e-01,3.217e-01,6.252e-02,9.171e-01,1.012e-01,8.098e-01,8.121e-01,1.691e-01,3.600e-01,8.613e-01,5.534e-01,6.955e-01,9.543e-01,4.431e-01,9.276e-01,9.231e-01,2.400e-01,6.531e-01,3.475e-01,8.316e-01
2.479e-01,1.475e+00,7.714e-01,9.652e-01,8.432e-01,8.628e-01,1.575e+00,4.980e-01,7.304e-01,1.082e+00,1.006e+00,6.818e-01,1.608e+00,8.652e-01,8.309e-01,3.614e-01,1.059e+00,1.156e-01,1.075e+00,1.497e+00,1.344e+00,4.278e-01,4.175e-01,4.043e-01,1.236e+00,1.048e+00,1.322e+00,9.180e-01,1.453e+00,9.358e-01,9.276e-01,4.435e-01,1.279e+00,7.724e-01,1.222e+00,4.831e-01,1.448e+00,7.090e-01,1.141e+00,9.170e-01,1.585e+00,1.450e+00,1.970e-01,7.615e-01,1.249e+00,1.815e-01,1.061e+00,7.157e-01,1.195e+00,1.346e+00,1.324e+00,7.399e-01,4.118e-01,1.096e+00,8.143e-01,3.807e-01,1.462e-01,9.364e-01,7.754e-01,5.657e-01,9.541e-01,3.903e-01,1.501e+00,4.693e-01,6.904e-01,1.464e+00,3.540e-01,5.207e-01,1.058e+00,1.206e+00,1.031e+00,1.622e+00,6.694e-01,9.113e-01,1.044e+00,4.637e-01,5.139e-01,5.026e-01,1.300e+00
1.864e-01,1.227e+00,9.014e-01,1.750e+00,1.396e+00,1.683e+00,1.684e+00,1.124e+00,1.115e+00,1.010e+00,9.261e-01,7.173e-01,1.552e+00,1.607e+00,1.113e+00,5.723e-01,1.718e+00,2.719e-01,1.236e+00,1.280e+00,1.955e+00,7.349e-01,1.129e+00,8.124e-01,1.857e+00,8.817e-01,1.494e+00,1.095e+00,1.816e+00,9.712e-01,9.806e-01,4.203e-01,1.843e+00,1.334e+00,1.978e+00,9.504e-01,1.479e+00,1.105e+00,1.890e+00,1.079e+00,1.914e+00,1.331e+00,9.299e-01,1.229e+00,1.344e+00,3.937e-01,1.832e+00,6.508e-01,1.159e+00,1.675e+00,1.114e+00,1.447e+00,1.123e+00,1.726e+00,1.050e+00,1.083e+00,5.539e-01,1.126e+00,7.779e-01,1.190e+00,1.725e+00,1.064e+00,1.427e+00,6.203e-01,1.164e+00,2.009e+00,5.868e-01,4.836e-01,1.337e+00,1.757e+00,1.380e+00,1.838e+00,1.241e+00,1.522e+00,1.554e+00,1.302e+00,8.007e-01,1.114e+00,1.062e+00
3.182e-01,1.363e+00,6.590e-01,1.397e+00,1.079e+00,1.079e+00,1.907e+00,6.801e-01,1.676e+00,1.282e+00,1.340e+00,1.206e+00,2.099e+00,1.333e+00,1.011e+00,1.053e+00,1.368e+00,9.793e-01,1.471e+00,2.181e+00,2.171e+00,8.136e-01,1.065e+00,1.028e+00,1.646e+00,1.259e+00,1.922e+00,1.674e+00,1.612e+00,1.607e+00,1.146e+00,1.182e+00,1.723e+00,1.582e+00,1.288e+00,1.402e+00,2.390e+00,1.490e+00,1.482e+00,1.427e+00,2.375e+00,1.639e+00,1.137e+00,1.640e+00,1.567e+00,7.907e-01,1.880e+00,7.962e-01,1.328e+00,2.035e+00,1.339e+00,1.968e+00,8.863e-01,1.891e+00,1.547e+00,6.488e-01,4.074e-01,7.384e-01,9.818e-01,8.110e-01,1.775e+00,1.146e+00,1.610e+00,5.405e-01,1.712e+00,1.626e+00,1.017e+00,5.590e-01,1.951e+00,1.292e+00,1.741e+00,2.184e+00,1.479e+00,1.549e+00,1.628e+00,1.373e+00,9.722e-01,1.183e+00,2.018e+00
1.142e-01,7.138e-01,5.454e-01,1.394e+00,1.687e+00,2.129e+00,1.402e+00,1.577e+00,1.566e+00,1.691e+00,8.844e-01,9.087e-01,1.340e+00,2.316e+00,9.409e-01,1.718e+00,1.607e+00,7.908e-01,1.756e+00,1.659e+00,2.171e+00,1.087e+00,1.902e+00,1.338e+00,2.136e+00,1.330e+00,1.280e+00,1.844e+00,1.358e+00,1.774e+00,8.321e-01,1.317e+00,1.911e+00,1.785e+00,2.186e+00,1.053e+00,1.501e+00,1.393e+00,2.371e+00,1.881e+00,2.082e+00,1.470e+00,1.363e+00,1.339e+00,1.413e+00,8.797e-01,1.962e+00,1.052e+00,8.465e-01,2.095e+00,1.628e+00,2.304e+00,1.574e+00,2.143e+00,1.915e+00,1.025e+00,1.199e+00,1.490e+00,7.421e-01,1.411e+00,2.006e+00,1.661e+00,1.360e+00,1.009e+00,2.004e+00,1.909e+00,1.469e+00,6.596e-01,1.665e+00,1.224e+00,2.103e+00,1.459e+00,2.113e+00,1.765e+00,1.516e+00,1.993e+00,7.534e-01,1.947e+00,1.080e+00
1.921e-01,8.792e-01,5.412e-01,1.144e+00,1.453e+00,1.826e+00,2.088e+00,2.134e+00,1.597e+00,2.114e+00,1.558e+00,1.760e+00,1.461e+00,2.410e+00,1.217e+00,1.960e+00,1.370e+00,6.709e-01,1.651e+00,2.181e+00,2.289e+00,1.756e+00,1.906e+00,1.078e+00,2.103e+00,2.152e+00,1.723e+00,1.520e+00,2.005e+00,1.947e+00,1.731e+00,1.863e+00,1.960e+00,2.512e+00,2.466e+00,1.496e+00,2.082e+00,1.193e+00,2.274e+00,2.002e+00,2.137e+00,2.295e+00,1.309e+00,1.645e+00,1.787e+00,1.257e+00,2.443e+00,1.335e+00,1.826e+00,1.776e+00,2.359e+00,2.103e+00,1.486e+00,2.183e+00,2.388e+00,1.206e+00,1.190e+00,1.358e+00,1.638e+00,1.355e+00,2.021e+00,1.837e+00,1.516e+00,1.454e+00,1.812e+00,2.220e+00,1.567e+00,8.548e-01,1.770e+00,1.292e+00,2.652e+00,1.528e+00,2.526e+00,2.174e+00,2.155e+00,1.937e+00,1.651e+00,1.681e+00,1.197e+00
7.855e-02,7.456e-01,5.394e-01,1.476e+00,8.758e-01,1.294e+00,2.163e+00,1.826e+00,1.588e+00,1.528e+00,1.316e+00,1.803e+00,1.911e+00,2.541e+00,7.761e-01,1.592e+00,2.165e+00,1.668e+00,1.877e+00,2.492e+00,2.533e+00,1.358e+00,1.719e+00,1.490e+00,2.081e+00,1.055e+00,2.381e+00,1.900e+00,1.993e+00,1.602e+00,1.479e+00,1.797e+00,2.102e+00,1.997e+00,1.921e+00,1.974e+00,2.829e+00,1.886e+00,2.757e+00,1.243e+00,2.940e+00,1.665e+00,1.507e+00,2.002e+00,1.529e+00,1.284e+00,2.600e+00,8.606e-01,1.324e+00,2.696e+00,1.818e+00,2.471e+00,1.672e+00,2.187e+00,2.170e+00,1.728e+00,1.463e+00,1.664e+00,1.254e+00,1.646e+00,2.913e+00,1.634e+00,1.364e+00,8.614e-01,1.953e+00,1.993e+00,1.216e+00,6.642e-01,2.212e+00,2.087e+00,2.453e+00,1.699e+00,2.479e+00,1.473e+00,2.231e+00,2.382e+00,1.447e+00,2.220e+00,1.803e+00
2.002e-01,5.332e-01,2.238e-01,4.636e-01,1.130e+00,1.081e+00,1.560e+00,2.215e+00,1.877e+00,2.238e+00,9.311e-01,1.471e+00,1.496e+00,1.824e+00,1.563e+00,2.125e+00,1.376e+00,1.497e+00,1.491e+00,2.170e+00,1.783e+00,1.680e+00,1.434e+00,1.638e+00,1.683e+00,1.529e+00,1.805e+00,2.080e+00,2.471e+00,2.311e+00,1.539e+00,1.848e+00,2.421e+00,2.231e+00,2.217e+00,1.556e+00,2.216e+00,1.758e+00,1.909e+00,1.656e+00,2.571e+00,2.132e+00,7.360e-01,1.841e+00,1.828e+00,7.868e-01,2.759e+00,1.142e+00,1.865e+00,2.566e+00,1.866e+00,2.495e+00,2.149e+00,1.489e+00,2.050e+00,1.847e+00,1.604e+00,1.870e+00,1.545e+00,1.347e+00,1.732e+00,1.203e+00,1.497e+00,1.593e+00,2.593e+00,1.834e+00,9.057e-01,1.517e+00,2.161e+00,1.960e+00,2.073e+00,1.807e+00,2.231e+00,1.645e+00,1.958e+00,1.977e+00,2.048e+00,2.691e+00,1.945e+00
3.019e-01,6.559e-01,4.235e-01,1.550e+00,1.767e+00,1.871e+00,2.191e+00,2.711e+00,3.143e+00,2.598e+00,2.472e+00,2.210e+00,2.179e+00,2.608e+00,2.563e+00,2.869e+00,2.052e+00,2.609e+00,2.453e+00,2.885e+00,2.965e+00,3.121e+00,3.141e+00,2.511e+00,3.149e+00,2.827e+00,3.128e+00,3.115e+00,3.485e+00,3.785e+00,2.760e+00,2.701e+00,4.008e+00,3.944e+00,3.232e+00,2.834e+00,3.430e+00,2.826e+00,3.221e+00,2.530e+00,3.246e+00,2.731e+00,2.270e+00,3.821e+00,2.573e+00,1.622e+00,4.072e+00,2.045e+00,2.941e+00,2.949e+00,2.364e+00,4.022e+00,2.930e+00,3.144e+00,3.109e+00,3.215e+00,1.916e+00,1.633e+00,2.810e+00,1.965e+00,2.821e+00,3.050e+00,2.092e+00,1.865e+00,4.004e+00,2.536e+00,2.266e+00,2.046e+00,3.252e+00,3.026e+00,3.855e+00,2.768e+00,4.099e+00,3.789e+00,3.768e+00,3.413e+00,3.720e+00,3.755e+00,2.724e+00
2.620e-01,1.246e+00,8.385e-01,1.854e+00,2.167e+00,2.555e+00,2.823e+00,3.138e+00,2.763e+00,3.786e+00,3.011e+00,3.202e+00,2.814e+00,4.316e+00,2.823e+00,3.110e+00,2.994e+00,2.489e+00,3.826e+00,3.557e+00,3.611e+00,3.592e+00,3.261e+00,3.088e+00,3.865e+00,3.497e+00,3.430e+00,3.328e+00,4.095e+00,4.088e+00,3.242e+00,3.516e+00,4.948e+00,4.126e+00,4.823e+00,3.035e+00,3.877e+00,3.679e+00,4.936e+00,3.723e+00,4.093e+00,3.159e+00,2.201e+00,4.183e+00,3.260e+00,2.320e+00,4.833e+00,2.441e+00,3.210e+00,4.563e+00,3.558e+00,4.062e+00,3.813e+00,3.840e+00,3.667e+00,4.087e+00,3.178e+00,3.261e+00,2.727e+00,2.796e+00,4.214e+00,2.851e+00,3.307e+00,2.458e+00,4.688e+00,3.619e+00,2.938e+00,2.487e+00,3.979e+00,3.952e+00,4.699e+00,3.078e+00,4.405e+00,4.295e+00,3.978e+00,3.631e+00,3.524e+00,4.790e+00,3.116e+00
2.199e-01,9.880e-01,4.957e-01,9.574e-01,1.283e+00,1.442e+00,1.641e+00,1.929e+00,2.188e+00,2.747e+00,2.377e+00,2.632e+00,2.150e+00,3.068e+00,2.167e+00,3.283e+00,1.683e+00,1.657e+00,2.589e+00,2.491e+00,2.260e+00,2.186e+00,1.963e+00,2.305e+00,2.307e+00,2.342e+00,2.700e+00,3.155e+00,3.174e+00,3.890e+00,1.758e+00,3.235e+00,3.225e+00,3.074e+00,2.903e+00,1.910e+00,3.277e+00,2.813e+00,3.009e+00,3.443e+00,3.262e+00,2.990e+00,1.988e+00,3.279e+00,2.772e+00,1.442e+00,3.064e+00,1.941e+00,3.226e+00,3.704e+00,2.552e+00,3.456e+00,2.813e+00,3.111e+00,2.622e+00,2.905e+00,2.020e+00,2.238e+00,1.978e+00,1.501e+00,2.188e+00,2.486e+00,3.015e+00,2.880e+00,3.443e+00,2.446e+00,2.716e+00,2.010e+00,3.468e+00,2.865e+00,2.957e+00,2.780e+00,2.969e+00,2.598e+00,2.783e+00,2.355e+00,2.725e+00,3.838e+00,2.702e+00
1.062e-01,6.731e-01,5.391e-01,1.274e+00,1.225e+00,1.687e+00,2.469e+00,2.962e+00,1.863e+00,2.804e+00,2.423e+00,3.306e+00,2.352e+00,4.392e+00,2.423e+00,2.851e+00,2.498e+00,2.224e+00,3.557e+00,3.307e+00,2.824e+00,3.790e+00,2.829e+00,2.293e+00,3.192e+00,2.731e+00,3.861e+00,2.906e+00,3.819e+00,3.863e+00,2.927e+00,3.708e+00,3.722e+00,3.958e+00,4.589e+00,3.326e+00,3.605e+00,3.037e+00,4.397e+00,3.625e+00,4.048e+00,3.064e+00,2.597e+00,4.093e+00,3.029e+00,2.449e+00,4.560e+00,2.068e+00,3.705e+00,4.009e+00,3.527e+00,3.676e+00,3.286e+00,3.811e+00,3.853e+00,3.659e+00,3.317e+00,3.077e+00,3.020e+00,2.786e+00,4.209e+00,2.841e+00,2.605e+00,2.709e+00,4.098e+00,3.619e+00,2.702e+00,1.803e+00,3.301e+00,3.783e+00,4.522e+00,2.729e+00,4.466e+00,3.662e+00,3.567e+00,3.849e+00,3.175e+00,3.843e+00,2.283e+00
4.676e-02,6.221e-01,4.201e-01,8.401e-01,5.819e-01,9.321e-01,1.646e+00,1.654e+00,1.116e+00,1.921e+00,1.800e+00,2.080e+00,1.964e+00,2.755e+00,1.720e+00,2.229e+00,2.249e+00,1.367e+00,2.246e+00,2.790e+00,2.738e+00,2.687e+00,2.244e+00,1.939e+00,2.175e+00,2.527e+00,2.490e+00,1.872e+00,2.705e+00,2.619e+00,1.972e+00,2.421e+00,2.590e+00,2.106e+00,2.677e+00,2.134e+00,3.036e+00,1.950e+00,2.776e+00,2.252e+00,3.175e+00,1.709e+00,1.429e+00,2.831e+00,2.452e+00,1.507e+00,2.727e+00,1.577e+00,2.609e+00,2.922e+00,2.785e+00,2.129e+00,1.887e+00,2.220e+00,2.213e+00,2.914e+00,2.090e+00,2.175e+00,1.635e+00,2.298e+00,3.394e+00,2.220e+00,1.801e+00,1.766e+00,2.694e+00,1.978e+00,2.230e+00,1.513e+00,2.232e+00,2.208e+00,3.459e+00,1.552e+00,2.408e+00,2.698e+00,2.696e+00,2.010e+00,2.724e+00,2.904e+00,1.844e+00
3.678e-02,7.233e-01,6.185e-01,1.295e+00,1.506e+00,2.070e+00,1.312e+00,1.864e+00,1.412e+00,2.310e+00,1.735e+00,1.994e+00,2.039e+00,4.113e+00,2.994e+00,3.915e+00,3.169e+00,1.602e+00,3.874e+00,3.352e+00,3.186e+00,3.438e+00,3.305e+00,3.108e+00,3.112e+00,3.190e+00,3.543e+00,2.871e+00,3.367e+00,4.248e+00,2.031e+00,3.557e+00,3.771e+00,2.632e+00,4.612e+00,2.727e+00,2.926e+00,3.008e+00,4.584e+00,4.165e+00,3.697e+00,2.604e+00,3.029e+00,3.267e+00,3.126e+00,2.332e+00,3.141e+00,2.960e+00,2.968e+00,4.557e+00,3.593e+00,3.180e+00,3.165e+00,4.146e+00,3.164e+00,4.241e+00,2.974e+00,3.347e+00,2.488e+00,3.117e+00,3.912e+00,3.142e+00,3.023e+00,3.390e+00,4.011e+00,3.655e+00,3.997e+00,2.139e+00,3.360e+00,3.549e+00,4.679e+00,2.378e+00,3.486e+00,4.246e+00,3.276e+00,3.637e+00,3.111e+00,4.150e+00,2.469e+00
6.728e-02,7.455e-01,4.628e-01,1.083e+00,8.320e-01,1.270e+00,1.582e+00,2.154e+00,2.221e+00,2.314e+00,2.148e+00,2.178e+00,1.942e+00,2.941e+00,2.649e+00,3.815e+00,2.777e+00,2.231e+00,2.896e+00,3.137e+00,2.483e+00,3.051e+00,2.949e+00,2.471e+00,3.090e+00,1.980e+00,3.787e+00,4.121e+00,3.512e+00,3.674e+00,1.806e+00,3.424e+00,3.123e+00,3.172e+00,2.775e+00,2.235e+00,3.556e+00,3.354e+00,3.779e+00,2.780e+00,3.436e+00,3.358e+00,2.292e+00,2.947e+00,2.805e+00,2.341e+00,2.940e+00,2.288e+00,3.876e+00,4.093e+00,3.262e+00,3.623e+00,3.085e+00,3.309e+00,3.223e+00,2.920e+00,2.728e+00,2.713e+00,2.364e+00,2.537e+00,2.675e+00,3.056e+00,2.535e+00,3.858e+00,3.699e+00,2.815e+00,3.449e+00,2.372e+00,4.005e+00,3.214e+00,3.656e+00,2.605e+00,4.144e+00,3.224e+00,3.328e+00,3.245e+00,3.643e+00,4.221e+00,3.161e+00
9.779e-02,1.095e+00,7.841e-01,1.548e+00,1.190e+00,1.816e+00,2.719e+00,2.792e+00,1.787e+00,2.970e+00,2.790e+00,3.413e+00,2.889e+00,4.902e+00,3.574e+00,3.880e+00,4.262e+00,3.460e+00,5.463e+00,5.429e+00,4.257e+00,5.378e+00,4.949e+00,3.129e+00,5.260e+00,4.567e+00,6.348e+00,4.541e+00,4.983e+00,4.671e+00,4.325e+00,5.303e+00,4.718e+00,5.222e+00,6.152e+00,4.204e+00,4.649e+00,5.141e+00,6.197e+00,4.870e+00,4.899e+00,4.711e+00,3.370e+00,5.091e+00,4.615e+00,4.219e+00,5.213e+00,3.248e+00,5.335e+00,6.301e+00,5.503e+00,4.137e+00,4.169e+00,5.507e+00,5.221e+00,5.004e+00,4.515e+00,4.210e+00,4.606e+00,5.071e+00,6.037e+00,4.286e+00,3.502e+00,4.914e+00,6.046e+00,4.842e+00,4.862e+00,2.730e+00,5.461e+00,4.797e+00,6.334e+00,3.710e+00,6.559e+00,5.716e+00,4.895e+00,4.934e+00,5.265e+00,5.737e+00,3.970e+00
1.414e-01,5.937e-01,3.131e-01,7.323e-01,1.084e+00,1.380e+00,1.684e+00,1.849e+00,1.532e+00,2.518e+00,2.313e+00,2.676e+00,1.892e+00,3.480e+00,2.584e+00,2.976e+00,2.981e+00,2.865e+00,4.277e+00,4.076e+00,3.263e+00,4.827e+00,3.755e+00,2.261e+00,3.486e+00,3.972e+00,4.375e+00,3.561e+00,3.582e+00,4.667e+00,2.791e+00,3.763e+00,3.361e+00,4.618e+00,4.272e+00,2.899e+00,3.316e+00,4.102e+00,5.012e+00,4.172e+00,3.925e+00,3.689e+00,2.895e+00,3.630e+00,3.623e+00,3.318e+00,3.743e+00,2.804e+00,4.386e+00,3.825e+00,4.186e+00,4.116e+00,3.045e+00,4.254e+00,4.558e+00,3.627e+00,3.592e+00,2.886e+00,3.271e+00,3.293e+00,3.515e+00,3.111e+00,3.549e+00,4.078e+00,5.015e+00,3.642e+00,3.833e+00,3.042e+00,3.985e+00,3.704e+00,5.439e+00,2.285e+00,5.191e+00,4.326e+00,4.209e+00,3.785e+00,4.148e+00,4.297e+00,3.232e+00
1.145e-01,5.460e-01,2.689e-01,4.180e-01,8.120e-01,1.035e+00,1.676e+00,2.132e+00,1.483e+00,2.273e+00,1.984e+00,2.186e+00,1.729e+00,2.964e+00,2.995e+00,3.778e+00,3.090e+00,3.588e+00,4.843e+00,5.347e+00,3.560e+00,5.097e+00,4.489e+00,3.277e+00,4.420e+00,4.831e+00,5.537e+00,4.468e+00,4.250e+00,4.690e+00,3.430e+00,4.529e+00,3.693e+00,5.033e+00,4.682e+00,3.849e+00,3.917e+00,4.759e+00,4.844e+00,3.567e+00,4.113e+00,4.669e+00,2.718e+00,3.529e+00,4.025e+00,3.462e+00,3.849e+00,4.201e+00,4.523e+00,4.542e+00,4.911e+00,4.098e+00,3.896e+00,4.173e+00,4.432e+00,4.435e+00,4.196e+00,3.161e+00,5.021e+00,3.732e+00,4.290e+00,3.690e+00,3.544e+00,4.733e+00,4.905e+00,4.047e+00,4.767e+00,2.964e+00,4.546e+00,3.959e+00,5.647e+00,2.461e+00,5.965e+00,4.433e+00,5.343e+00,4.417e+00,5.270e+00,5.458e+00,4.406e+00
3.786e-02,4.656e-01,4.054e-01,1.095e+00,7.598e-01,1.118e+00,1.704e+00,1.936e+00,1.627e+00,1.714e+00,2.054e+00,2.018e+00,2.244e+00,3.354e+00,2.699e+00,3.112e+00,3.208e+00,3.778e+00,5.617e+00,5.289e+00,4.513e+00,5.348e+00,4.381e+00,3.528e+00,4.271e+00,4.139e+00,6.159e+00,4.417e+00,4.958e+00,5.268e+00,3.191e+00,3.947e+00,4.378e+00,4.228e+00,5.131e+00,4.642e+00,4.183e+00,4.945e+00,5.812e+00,3.232e+00,5.468e+00,3.960e+00,4.043e+00,4.751e+00,3.923e+00,3.598e+00,4.729e+00,4.391e+00,4.647e+00,5.166e+00,4.911e+00,4.335e+00,4.490e+00,4.852e+00,3.966e+00,4.861e+00,4.075e+00,3.191e+00,4.575e+00,3.751e+00,5.452e+00,3.915e+00,3.671e+00,3.568e+00,5.032e+00,4.513e+00,4.432e+00,2.635e+00,4.385e+00,4.612e+00,5.685e+00,2.807e+00,5.563e+00,4.130e+00,5.592e+00,4.925e+00,5.185e+00,5.735e+00,4.712e+00
1.197e-01,4.314e-01,3.462e-01,8.603e-01,1.159e+00,1.389e+00,1.615e+00,2.412e+00,1.837e+00,2.590e+00,2.241e+00,2.614e+00,2.173e+00,3.704e+00,3.652e+00,3.740e+00,3.886e+00,4.558e+00,5.833e+00,6.363e+00,5.040e+00,7.108e+00,6.433e+00,4.260e+00,6.424e+00,6.040e+00,6.656e+00,6.099e+00,5.282e+00,5.779e+00,4.233e+00,5.507e+00,5.234e+00,7.335e+00,6.671e+00,5.387e+00,5.090e+00,7.073e+00,6.711e+00,4.923e+00,5.521e+00,5.551e+00,3.732e+00,5.296e+00,5.818e+00,4.310e+00,6.427e+00,4.264e+00,5.943e+00,6.262e+00,6.059e+00,5.946e+00,5.744e+00,5.461e+00,5.812e+00,6.511e+00,6.058e+00,4.052e+00,5.951e+00,5.923e+00,6.229e+00,4.926e+00,4.883e+00,6.501e+00,7.406e+00,5.005e+00,5.441e+00,4.373e+00,6.523e+00,5.166e+00,6.607e+00,3.986e+00,7.582e+00,6.006e+00,6.402e+00,6.077e+00,6.888e+00,7.655e+00,5.132e+00
2.502e-01,5.671e-01,2.485e-01,5.542e-01,1.226e+00,1.091e+00,1.403e+00,1.217e+00,1.119e+00,1.768e+00,1.292e+00,2.062e+00,1.905e+00,2.919e+00,2.798e+00,2.879e+00,3.329e+00,3.665e+00,4.984e+00,5.263e+00,4.836e+00,5.403e+00,4.723e+00,3.082e+00,5.372e+00,5.283e+00,6.085e+00,4.108e+00,4.685e+00,5.491e+00,4.746e+00,4.910e+00,4.325e+00,6.097e+00,6.424e+00,4.351e+00,3.865e+00,6.414e+00,6.444e+00,5.136e+00,4.661e+00,4.756e+00,3.771e+00,4.963e+00,5.095e+00,4.202e+00,4.912e+00,3.758e+00,5.197e+00,6.377e+00,4.998e+00,4.938e+00,4.013e+00,5.745e+00,5.626e+00,5.845e+00,4.908e+00,3.722e+00,5.574e+00,5.480e+00,4.774e+00,3.891e+00,4.856e+00,5.710e+00,6.785e+00,4.862e+00,4.555e+00,4.258e+00,5.595e+00,5.006e+00,5.703e+00,3.316e+00,5.872e+00,5.604e+00,4.983e+00,5.360e+00,5.508e+00,6.472e+00,4.566e+00
1.487e-01,1.233e+00,9.203e-01,1.808e+00,1.988e+00,2.692e+00,3.114e+00,3.348e+00,1.967e+00,3.318e+00,2.768e+00,3.593e+00,3.177e+00,5.648e+00,3.087e+00,4.215e+00,4.490e+00,3.324e+00,5.664e+00,6.288e+00,6.350e+00,6.420e+00,6.642e+00,3.983e+00,6.887e+00,6.085e+00,7.092e+00,5.147e+00,6.518e+00,7.768e+00,5.354e+00,6.569e+00,6.206e+00,7.453e+00,8.286e+00,5.570e+00,6.375e+00,6.190e+00,9.202e+00,6.420e+00,6.868e+00,6.498e+00,5.066e+00,6.157e+00,6.143e+00,5.039e+00,7.556e+00,4.397e+00,6.386e+00,7.876e+00,6.915e+00,7.275e+00,5.446e+00,7.733e+00,7.553e+00,7.041e+00,6.765e+00,6.003e+00,6.641e+00,6.292e+00,6.969e+00,6.110e+00,6.012e+00,6.864e+00,7.415e+00,6.382e+00,5.151e+00,5.494e+00,5.923e+00,6.744e+00,7.431e+00,4.326e+00,7.285e+00,6.038e+00,7.081e+00,7.521e+00,6.533e+00,7.841e+00,4.521e+00
2.254e-01,5.249e-01,2.668e-01,8.709e-01,1.024e+00,1.004e+00,1.935e+00,2.273e+00,2.219e+00,2.542e+00,2.520e+00,3.329e+00,2.905e+00,4.212e+00,4.077e+00,4.578e+00,3.631e+00,4.208e+00,5.333e+00,5.789e+00,4.778e+00,6.267e+00,5.934e+00,4.555e+00,5.704e+00,5.342e+00,7.944e+00,5.680e+00,6.536e+00,7.418e+00,5.051e+00,6.814e+00,6.351e+00,6.774e+00,7.060e+00,6.178e+00,6.102e+00,6.916e+00,6.666e+00,5.635e+00,6.148e+00,5.868e+00,4.838e+00,6.575e+00,5.452e+00,4.910e+00,6.829e+00,4.439e+00,6.999e+00,7.648e+00,5.865e+00,6.273e+00,5.607e+00,6.556e+00,6.079e+00,7.221e+00,5.716e+00,4.584e+00,6.166e+00,5.976e+00,6.260e+00,5.644e+00,5.316e+00,6.465e+00,7.519e+00,5.638e+00,5.691e+00,4.917e+00,6.237e+00,6.345e+00,7.404e+00,4.955e+00,7.164e+00,7.247e+00,6.963e+00,6.910e+00,7.064e+00,7.776e+00,5.426e+00
1.254e-01,1.019e+00,6.295e-01,1.399e+00,8.709e-01,1.347e+00,2.143e+00,2.263e+00,2.247e+00,2.444e+00,2.669e+00,2.820e+00,2.681e+00,3.790e+00,2.930e+00,3.851e+00,3.059e+00,3.420e+00,5.461e+00,5.521e+00,5.344e+00,4.843e+00,4.984e+00,4.254e+00,5.322e+00,4.739e+00,7.014e+00,5.598e+00,6.278e+00,6.488e+00,4.611e+00,6.596e+00,5.428e+00,6.275e+00,6.902e+00,5.101e+00,5.829e+00,5.956e+00,6.683e+00,5.443e+00,6.072e+00,6.540e+00,5.274e+00,5.752e+00,6.021e+00,5.277e+00,6.262e+00,4.337e+00,7.182e+00,7.083e+00,6.343e+00,5.376e+00,5.119e+00,6.690e+00,5.480e+00,5.229e+00,4.845e+00,4.601e+00,4.810e+00,5.011e+00,6.331e+00,5.890e+00,4.792e+00,6.628e+00,6.153e+00,6.251e+00,5.590e+00,4.094e+00,5.522e+00,5.125e+00,6.000e+00,4.742e+00,6.637e+00,5.497e+00,5.834e+00,5.845e+00,5.877e+00,7.035e+00,5.378e+00
6.960e-02,4.133e-01,3.418e-01,1.082e+00,1.053e+00,1.404e+00,1.767e+00,2.328e+00,1.875e+00,2.043e+00,1.355e+00,2.020e+00,1.956e+00,3.261e+00,2.467e+00,2.901e+00,3.296e+00,3.443e+00,4.704e+00,4.899e+00,4.901e+00,5.284e+00,5.594e+00,3.443e+00,6.257e+00,4.663e+00,7.428e+00,6.051e+00,5.980e+00,6.861e+00,4.155e+00,6.094e+00,5.829e+00,7.034e+00,7.270e+00,5.967e+00,4.938e+00,6.956e+00,7.681e+00,4.708e+00,6.214e+00,6.555e+00,4.339e+00,5.371e+00,5.279e+00,5.786e+00,6.800e+00,3.732e+00,6.538e+00,7.840e+00,5.563e+00,6.563e+00,5.892e+00,6.803e+00,6.853e+00,5.291e+00,6.962e+00,5.283e+00,5.758e+00,5.998e+00,6.208e+00,5.394e+00,4.538e+00,6.149e+00,7.568e+00,5.590e+00,5.333e+00,5.060e+00,5.942e+00,5.397e+00,5.648e+00,4.470e+00,6.805e+00,5.737e+00,6.491e+00,6.638e+00,6.320e+00,8.310e+00,5.184e+00
2.358e-02,3.563e-01,2.862e-01,6.420e-01,6.073e-01,9.510e-01,1.354e+00,2.190e+00,1.676e+00,2.422e+00,2.325e+00,2.299e+00,2.004e+00,3.300e+00,3.057e+00,3.255e+00,2.891e+00,3.710e+00,5.416e+00,5.181e+00,4.924e+00,5.712e+00,5.219e+00,3.511e+00,5.379e+00,5.542e+00,6.488e+00,5.293e+00,5.872e+00,6.681e+00,5.638e+00,6.959e+00,6.111e+00,6.482e+00,7.952e+00,4.971e+00,5.110e+00,6.697e+00,7.599e+00,5.792e+00,5.755e+00,5.607e+00,4.564e+00,6.314e+00,5.865e+00,5.433e+00,6.273e+00,5.051e+00,6.686e+00,7.348e+00,6.340e+00,4.660e+00,5.088e+00,6.147e+00,6.140e+00,6.312e+00,6.209e+00,4.920e+00,6.147e+00,5.578e+00,6.715e+00,5.603e+00,5.007e+00,5.965e+00,7.469e+00,5.783e+00,5.312e+00,4.916e+00,5.957e+00,5.479e+00,5.810e+00,4.157e+00,6.888e+00,6.366e+00,5.472e+00,5.823e+00,6.440e+00,7.534e+00,5.521e+00
1.679e-01,1.002e+00,6.985e-01,1.589e+00,1.220e+00,1.657e+00,2.511e+00,2.612e+00,2.239e+00,2.617e+00,2.955e+00,2.968e+00,2.523e+00,3.840e+00,3.614e+00,4.154e+00,3.929e+00,3.247e+00,5.167e+00,5.673e+00,5.812e+00,6.297e+00,5.814e+00,4.482e+00,6.663e+00,6.003e+00,8.847e+00,7.388e+00,7.953e+00,7.313e+00,6.829e+00,7.981e+00,8.147e+00,8.404e+00,8.911e+00,6.771e+00,7.350e+00,8.327e+00,9.758e+00,6.617e+00,7.504e+00,8.504e+00,6.698e+00,6.750e+00,7.654e+00,7.677e+00,7.077e+00,6.307e+00,7.918e+00,8.648e+00,8.588e+00,6.689e+00,6.975e+00,8.661e+00,7.574e+00,7.610e+00,7.925e+00,6.379e+00,7.616e+00,7.193e+00,8.159e+00,6.723e+00,7.340e+00,8.413e+00,7.793e+00,8.516e+00,7.789e+00,6.408e+00,7.721e+00,7.247e+00,7.313e+00,5.693e+00,9.004e+00,8.566e+00,8.257e+00,7.641e+00,7.865e+00,9.196e+00,6.466e+00
2.962e-01,9.045e-01,4.731e-01,1.138e+00,1.477e+00,1.601e+00,2.295e+00,2.464e+00,2.508e+00,2.885e+00,3.067e+00,3.068e+00,2.770e+00,3.728e+00,3.537e+00,3.782e+00,2.884e+00,3.757e+00,4.995e+00,5.505e+00,4.675e+00,6.270e+00,6.445e+00,3.905e+00,6.762e+00,6.401e+00,8.545e+00,8.330e+00,7.831e+00,8.489e+00,6.974e+00,8.073e+00,8.108e+00,9.876e+00,9.047e+00,7.202e+00,7.607e+00,8.607e+00,8.543e+00,7.466e+00,7.764e+00,8.202e+00,6.467e+00,7.087e+00,7.744e+00,7.409e+00,7.480e+00,5.733e+00,7.683e+00,8.205e+00,7.718e+00,8.036e+00,7.434e+00,8.887e+00,7.797e+00,7.558e+00,7.670e+00,5.541e+00,8.259e+00,7.369e+00,7.761e+00,7.655e+00,7.035e+00,7.562e+00,9.085e+00,8.097e+00,7.838e+00,6.384e+00,8.146e+00,7.060e+00,8.264e+00,6.661e+00,9.761e+00,9.230e+00,8.673e+00,7.373e+00,7.592e+00,9.134e+00,6.281e+00
8.397e-02,2.853e-01,3.423e-01,1.514e+00,1.571e+00,2.056e+00,1.402e+00,2.486e+00,2.653e+00,2.630e+00,1.897e+00,2.255e+00,2.089e+00,3.962e+00,3.451e+00,4.157e+00,3.995e+00,4.180e+00,5.637e+00,5.793e+00,5.919e+00,6.094e+00,7.038e+00,5.334e+00,6.256e+00,5.449e+00,6.860e+00,6.553e+00,6.970e+00,8.421e+00,4.963e+00,8.116e+00,6.656e+00,8.809e+00,8.670e+00,6.846e+00,6.236e+00,8.156e+00,8.478e+00,6.711e+00,6.840e+00,6.690e+00,7.084e+00,6.394e+00,7.041e+00,7.107e+00,8.125e+00,4.764e+00,6.647e+00,7.907e+00,6.464e+00,8.541e+00,7.754e+00,8.252e+00,7.542e+00,6.792e+00,6.932e+00,6.099e+00,5.574e+00,7.501e+00,7.597e+00,7.153e+00,5.872e+00,8.017e+00,9.198e+00,7.223e+00,6.985e+00,6.317e+00,6.676e+00,6.251e+00,8.072e+00,5.884e+00,7.970e+00,7.592e+00,7.772e+00,7.968e+00,7.732e+00,8.936e+00,6.512e+00
2.004e-01,6.131e-01,4.653e-01,1.273e+00,1.805e+00,2.107e+00,2.200e+00,2.757e+00,2.184e+00,2.964e+00,2.658e+00,3.173e+00,2.743e+00,4.874e+00,3.834e+00,4.409e+00,3.554e+00,3.652e+00,5.882e+00,5.566e+00,4.926e+00,6.298e+00,6.028e+00,4.743e+00,5.884e+00,6.564e+00,7.825e+00,6.074e+00,7.243e+00,9.328e+00,5.918e+00,7.483e+00,8.438e+00,9.064e+00,9.755e+00,7.255e+00,7.275e+00,7.704e+00,8.977e+00,7.148e+00,7.222e+00,7.335e+00,6.341e+00,7.377e+00,6.485e+00,7.231e+00,7.565e+00,5.760e+00,6.815e+00,8.790e+00,6.518e+00,8.187e+00,7.820e+00,9.030e+00,7.083e+00,8.183e+00,7.738e+00,5.964e+00,7.805e+00,6.351e+00,8.418e+00,7.802e+00,5.608e+00,6.400e+00,9.351e+00,7.380e+00,7.450e+00,5.613e+00,7.143e+00,6.910e+00,8.976e+00,5.949e+00,8.559e+00,8.190e+00,9.233e+00,6.909e+00,7.557e+00,9.156e+00,6.355e+00
1.564e-01,7.784e-01,4.466e-01,1.223e+00,7.426e-01,9.534e-01,1.628e+00,1.613e+00,2.199e+00,2.124e+00,2.672e+00,2.819e+00,2.699e+00,3.574e+00,3.098e+00,3.678e+00,3.355e+00,4.367e+00,5.506e+00,5.716e+00,5.066e+00,5.234e+00,5.444e+00,4.655e+00,5.458e+00,5.606e+00,7.770e+00,7.051e+00,7.542e+00,9.781e+00,6.088e+00,9.304e+00,8.667e+00,1.030e+01,9.009e+00,8.371e+00,9.008e+00,9.918e+00,8.801e+00,7.167e+00,8.570e+00,8.810e+00,7.637e+00,7.539e+00,7.897e+00,8.424e+00,8.055e+00,5.785e+00,7.770e+00,8.928e+00,6.863e+00,9.726e+00,9.147e+00,9.727e+00,8.315e+00,8.677e+00,7.751e+00,6.700e+00,8.164e+00,7.222e+00,8.536e+00,8.080e+00,7.585e+00,8.141e+00,9.812e+00,7.987e+00,8.161e+00,7.562e+00,7.766e+00,8.041e+00,9.530e+00,7.690e+00,8.828e+00,7.821e+00,9.272e+00,7.609e+00,8.227e+00,1.021e+01,8.635e+00
1.278e-01,1.067e+00,6.409e-01,1.200e+00,7.367e-01,1.168e+00,2.642e+00,2.256e+00,1.527e+00,2.323e+00,2.747e+00,3.423e+00,3.039e+00,4.514e+00,3.299e+00,4.470e+00,4.593e+00,4.587e+00,6.693e+00,7.788e+00,6.872e+00,6.918e+00,6.770e+00,4.557e+00,6.781e+00,7.053e+00,9.480e+00,7.026e+00,8.179e+00,8.878e+00,7.179e+00,9.122e+00,8.536e+00,1.067e+01,1.024e+01,8.457e+00,9.808e+00,1.053e+01,1.093e+01,7.740e+00,9.965e+00,9.079e+00,7.718e+00,7.232e+00,8.374e+00,9.045e+00,8.640e+00,6.794e+00,9.374e+00,1.026e+01,9.407e+00,8.336e+00,8.193e+00,9.519e+00,8.981e+00,9.794e+00,8.019e+00,7.355e+00,9.439e+00,8.390e+00,9.223e+00,8.294e+00,8.566e+00,9.174e+00,9.589e+00,8.886e+00,8.445e+00,7.835e+00,9.133e+00,8.592e+00,1.058e+01,6.142e+00,9.827e+00,8.574e+00,1.006e+01,8.502e+00,9.403e+00,1.081e+01,9.010e+00
3.240e-02,2.983e-01,4.070e-01,1.339e+00,1.030e+00,1.494e+00,1.565e+00,2.279e+00,1.818e+00,1.850e+00,2.062e+00,2.475e+00,1.617e+00,3.426e+00,2.671e+00,3.412e+00,3.579e+00,3.362e+00,4.016e+00,4.146e+00,4.338e+00,4.942e+00,5.137e+00,3.222e+00,5.299e+00,4.059e+00,6.205e+00,5.319e+00,5.719e+00,6.464e+00,5.178e+00,6.827e+00,7.394e+00,9.282e+00,7.611e+00,6.270e+00,7.837e+00,8.422e+00,9.250e+00,5.379e+00,6.833e+00,7.518e+00,6.413e+00,6.205e+00,5.881e+00,7.113e+00,7.512e+00,4.702e+00,7.227e+00,7.939e+00,6.032e+00,7.992e+00,7.577e+00,7.724e+00,7.518e+00,8.214e+00,7.269e+00,6.494e+00,7.797e+00,6.976e+00,6.983e+00,7.115e+00,6.304e+00,8.253e+00,7.931e+00,6.879e+00,6.455e+00,6.527e+00,7.753e+00,7.046e+00,7.821e+00,5.475e+00,8.510e+00,7.227e+00,7.269e+00,7.243e+00,8.281e+00,9.498e+00,6.377e+00
2.720e-01,1.096e+00,5.445e-01,8.285e-01,1.236e+00,1.212e+00,2.292e+00,1.713e+00,1.178e+00,1.897e+00,1.313e+00,2.201e+00,2.474e+00,3.180e+00,2.790e+00,2.982e+00,3.467e+00,2.448e+00,4.219e+00,5.012e+00,3.958e+00,5.202e+00,4.626e+00,3.338e+00,4.854e+00,4.234e+00,7.397e+00,5.527e+00,6.571e+00,6.570e+00,5.391e+00,5.993e+00,6.775e+00,8.896e+00,7.805e+00,6.719e+00,8.218e+00,7.753e+00,9.533e+00,6.065e+00,6.842e+00,7.780e+00,6.371e+00,5.736e+00,6.626e+00,7.710e+00,7.492e+00,5.530e+00,6.384e+00,8.183e+00,7.847e+00,8.003e+00,7.673e+00,8.187e+00,7.119e+00,6.852e+00,7.934e+00,6.827e+00,7.415e+00,7.409e+00,7.574e+00,5.975e+00,6.281e+00,7.121e+00,7.989e+00,7.766e+00,6.247e+00,6.349e+00,7.992e+00,7.576e+00,7.698e+00,6.160e+00,8.055e+00,7.004e+00,8.164e+00,6.751e+00,8.094e+00,7.950e+00,6.410e+00
1.566e-01,8.241e-01,4.431e-01,8.576e-01,9.728e-01,1.285e+00,2.329e+00,2.616e+00,1.936e+00,2.866e+00,2.589e+00,3.269e+00,2.839e+00,4.456e+00,4.029e+00,4.826e+00,3.956e+00,4.079e+00,6.226e+00,6.701e+00,5.026e+00,6.672e+00,6.762e+00,5.267e+00,6.750e+00,7.219e+00,9.859e+00,8.112e+00,8.459e+00,9.830e+00,7.513e+00,1.012e+01,1.030e+01,1.240e+01,1.208e+01,1.004e+01,1.194e+01,1.140e+01,1.270e+01,9.477e+00,9.889e+00,1.106e+01,8.908e+00,8.791e+00,9.135e+00,1.164e+01,1.066e+01,7.937e+00,9.584e+00,1.227e+01,9.854e+00,1.052e+01,1.037e+01,1.182e+01,1.010e+01,1.013e+01,1.159e+01,8.957e+00,1.108e+01,9.728e+00,1.182e+01,1.087e+01,7.633e+00,1.045e+01,1.179e+01,9.736e+00,1.051e+01,9.185e+00,1.084e+01,9.257e+00,1.138e+01,8.723e+00,1.221e+01,1.076e+01,1.144e+01,9.203e+00,1.145e+01,1.273e+01,9.850e+00
2.712e-01,8.723e-01,5.345e-01,1.129e+00,1.662e+00,1.841e+00,2.193e+00,2.210e+00,1.736e+00,2.508e+00,2.357e+00,2.498e+00,1.994e+00,3.269e+00,2.730e+00,2.825e+00,2.505e+00,2.439e+00,4.199e+00,4.334e+00,4.212e+00,5.049e+00,5.333e+00,3.812e+00,5.694e+00,6.080e+00,6.899e+00,5.524e+00,6.509e+00,7.496e+00,7.180e+00,7.823e+00,9.158e+00,1.077e+01,9.803e+00,7.647e+00,9.575e+00,8.939e+00,1.132e+01,8.217e+00,7.070e+00,9.130e+00,7.651e+00,6.798e+00,7.884e+00,9.145e+00,9.327e+00,6.222e+00,7.444e+00,9.251e+00,8.843e+00,9.244e+00,8.581e+00,9.611e+00,9.032e+00,8.092e+00,9.250e+00,7.188e+00,8.733e+00,7.288e+00,8.771e+00,7.939e+00,7.187e+00,7.661e+00,9.543e+00,8.162e+00,7.858e+00,8.197e+00,8.458e+00,8.339e+00,9.116e+00,5.991e+00,9.337e+00,8.835e+00,9.046e+00,7.249e+00,8.714e+00,9.517e+00,7.157e+00
4.833e-02,1.008e+00,6.497e-01,9.237e-01,7.237e-01,1.192e+00,1.871e+00,2.061e+00,1.363e+00,2.793e+00,2.719e+00,2.763e+00,2.445e+00,3.935e+00,3.578e+00,3.643e+00,3.891e+00,2.753e+00,5.373e+00,5.270e+00,4.542e+00,6.380e+00,5.318e+00,3.590e+00,5.319e+00,4.998e+00,7.387e+00,6.119e+00,6.837e+00,7.292e+00,5.169e+00,6.813e+00,7.978e+00,8.278e+00,9.151e+00,6.968e+00,9.580e+00,1.024e+01,1.183e+01,7.199e+00,8.312e+00,8.752e+00,7.452e+00,6.990e+00,7.716e+00,9.894e+00,8.912e+00,7.008e+00,8.244e+00,1.014e+01,8.841e+00,7.478e+00,8.946e+00,9.449e+00,8.580e+00,8.649e+00,9.607e+00,8.601e+00,8.190e+00,8.697e+00,1.007e+01,8.243e+00,7.884e+00,9.710e+00,9.847e+00,8.350e+00,8.221e+00,9.118e+00,8.926e+00,8.178e+00,1.029e+01,7.263e+00,9.476e+00,1.008e+01,8.917e+00,7.562e+00,9.346e+00,1.032e+01,8.500e+00
2.022e-01,1.070e+00,6.397e-01,1.461e+00,1.627e+00,2.040e+00,2.599e+00,2.643e+00,2.312e+00,3.122e+00,2.452e+00,2.847e+00,2.565e+00,3.971e+00,2.953e+00,3.781e+00,3.904e+00,3.269e+00,5.448e+00,5.755e+00,5.789e+00,5.845e+00,6.163e+00,4.176e+00,6.148e+00,5.790e+00,8.489e+00,7.049e+00,7.910e+00,8.243e+00,6.111e+00,8.387e+00,8.936e+00,9.522e+00,9.137e+00,7.761e+00,9.392e+00,1.105e+01,1.207e+01,8.032e+00,9.803e+00,1.086e+01,9.211e+00,7.934e+00,8.777e+00,1.042e+01,9.913e+00,7.577e+00,8.780e+00,1.079e+01,1.001e+01,9.574e+00,1.036e+01,1.078e+01,1.001e+01,8.068e+00,9.994e+00,8.544e+00,8.648e+00,8.955e+00,1.067e+01,8.464e+00,9.083e+00,1.015e+01,1.113e+01,9.223e+00,8.814e+00,8.557e+00,8.783e+00,8.647e+00,1.008e+01,7.597e+00,1.042e+01,1.023e+01,1.016e+01,8.768e+00,9.879e+00,1.115e+01,8.632e+00
2.664e-01,9.099e-01,6.225e-01,1.560e+00,1.947e+00,2.228e+00,2.877e+00,2.991e+00,2.110e+00,2.939e+00,2.335e+00,3.688e+00,2.784e+00,4.895e+00,3.262e+00,4.172e+00,4.209e+00,3.433e+00,5.547e+00,5.809e+00,6.252e+00,6.327e+00,6.073e+00,4.856e+00,6.877e+00,6.691e+00,9.590e+00,7.787e+00,9.427e+00,9.470e+00,7.476e+00,8.808e+00,9.390e+00,1.173e+01,1.105e+01,8.822e+00,9.986e+00,1.076e+01,1.292e+01,9.865e+00,1.053e+01,1.076e+01,9.802e+00,9.164e+00,9.901e+00,1.046e+01,1.082e+01,6.792e+00,9.761e+00,1.163e+01,1.023e+01,1.168e+01,1.039e+01,1.266e+01,1.050e+01,1.032e+01,1.137e+01,8.753e+00,9.089e+00,9.674e+00,1.102e+01,9.768e+00,8.972e+00,1.020e+01,1.147e+01,1.124e+01,1.059e+01,8.671e+00,1.054e+01,9.865e+00,1.055e+01,7.496e+00,1.132e+01,1.020e+01,1.179e+01,8.545e+00,1.031e+01,1.234e+01,8.446e+00
3.027e-01,1.435e+00,7.992e-01,1.747e+00,1.505e+00,1.697e+00,2.876e+00,2.127e+00,2.355e+00,2.611e+00,2.698e+00,3.291e+00,3.797e+00,4.571e+00,3.290e+00,3.951e+00,4.177e+00,4.313e+00,6.273e+00,6.770e+00,5.848e+00,5.750e+00,6.298e+00,4.797e+00,5.922e+00,5.879e+00,9.059e+00,7.086e+00,8.202e+00,9.465e+00,6.563e+00,8.960e+00,9.368e+00,1.132e+01,9.989e+00,9.192e+00,1.234e+01,1.130e+01,1.272e+01,1.031e+01,1.167e+01,1.092e+01,1.077e+01,1.082e+01,1.026e+01,1.153e+01,1.235e+01,8.512e+00,9.269e+00,1.263e+01,1.063e+01,1.194e+01,1.132e+01,1.292e+01,1.093e+01,1.069e+01,1.180e+01,9.640e+00,1.098e+01,9.597e+00,1.330e+01,1.124e+01,1.010e+01,9.559e+00,1.278e+01,1.086e+01,1.064e+01,8.851e+00,1.120e+01,1.061e+01,1.173e+01,1.024e+01,1.180e+01,1.059e+01,1.213e+01,9.287e+00,1.206e+01,1.259e+01,1.088e+01
4.367e-02,3.396e-01,2.905e-01,7.899e-01,1.076e+00,1.528e+00,1.826e+00,2.566e+00,1.662e+00,2.729e+00,2.275e+00,2.736e+00,2.256e+00,4.099e+00,2.615e+00,3.374e+00,3.382e+00,4.243e+00,6.376e+00,6.679e+00,6.119e+00,7.120e+00,6.665e+00,4.761e+00,6.393e+00,7.242e+00,8.042e+00,7.331e+00,7.096e+00,8.390e+00,6.382e+00,8.871e+00,9.105e+00,1.199e+01,1.139e+01,9.201e+00,1.119e+01,1.205e+01,1.393e+01,1.090e+01,1.222e+01,1.151e+01,1.108e+01,1.112e+01,1.194e+01,1.208e+01,1.301e+01,9.074e+00,1.017e+01,1.239e+01,1.225e+01,1.082e+01,1.093e+01,1.234e+01,1.218e+01,1.126e+01,1.302e+01,1.010e+01,1.091e+01,1.050e+01,1.429e+01,1.149e+01,1.024e+01,1.099e+01,1.345e+01,1.057e+01,1.149e+01,1.040e+01,1.192e+01,9.782e+00,1.214e+01,9.511e+00,1.262e+01,1.103e+01,1.176e+01,1.006e+01,1.260e+01,1.334e+01,1.126e+01
9.962e-02,6.293e-01,3.604e-01,9.477e-01,6.994e-01,9.418e-01,1.543e+00,1.681e+00,2.002e+00,2.048e+00,2.296e+00,1.940e+00,2.335e+00,2.661e+00,2.300e+00,2.795e+00,2.664e+00,3.543e+00,4.423e+00,5.004e+00,4.852e+00,5.043e+00,5.198e+00,4.142e+00,5.745e+00,4.984e+00,6.538e+00,6.683e+00,6.392e+00,7.532e+00,5.143e+00,6.778e+00,6.936e+00,8.717e+00,7.987e+00,7.148e+00,9.010e+00,9.698e+00,1.036e+01,7.990e+00,9.790e+00,9.385e+00,8.981e+00,9.455e+00,1.055e+01,1.073e+01,1.010e+01,8.590e+00,8.663e+00,1.098e+01,9.070e+00,9.299e+00,9.804e+00,1.024e+01,9.958e+00,9.878e+00,1.124e+01,8.841e+00,9.937e+00,8.949e+00,1.199e+01,1.048e+01,8.710e+00,9.615e+00,1.137e+01,8.106e+00,9.355e+00,8.824e+00,9.219e+00,9.111e+00,9.116e+00,9.010e+00,1.012e+01,1.055e+01,1.010e+01,9.602e+00,1.078e+01,1.178e+01,9.515e+00
3.103e-01,1.321e+00,8.532e-01,1.899e+00,1.845e+00,2.127e+00,2.557e+00,2.778e+00,2.868e+00,3.121e+00,2.945e+00,2.968e+00,2.674e+00,3.858e+00,4.277e+00,4.212e+00,4.109e+00,3.340e+00,5.058e+00,5.218e+00,5.138e+00,5.599e+00,5.166e+00,4.871e+00,6.141e+00,5.537e+00,7.571e+00,6.584e+00,7.513e+00,7.302e+00,5.670e+00,7.098e+00,7.829e+00,8.652e+00,9.014e+00,7.198e+00,7.997e+00,9.564e+00,1.078e+01,8.577e+00,8.651e+00,9.663e+00,8.727e+00,8.560e+00,9.530e+00,9.262e+00,9.658e+00,7.701e+00,9.372e+00,9.746e+00,9.378e+00,9.643e+00,8.913e+00,1.113e+01,9.841e+00,8.944e+00,9.710e+00,8.022e+00,8.788e+00,8.825e+00,1.029e+01,9.184e+00,8.410e+00,1.042e+01,1.039e+01,9.698e+00,9.613e+00,8.534e+00,8.942e+00,9.721e+00,9.030e+00,8.146e+00,1.068e+01,1.104e+01,9.982e+00,9.545e+00,1.054e+01,1.070e+01,8.767e+00
2.464e-02,2.874e-01,3.646e-01,1.090e+00,9.766e-01,1.363e+00,1.356e+00,2.430e+00,1.901e+00,1.886e+00,1.519e+00,1.967e+00,1.724e+00,3.144e+00,2.663e+00,3.542e+00,2.816e+00,2.784e+00,3.833e+00,4.293e+00,4.620e+00,4.708e+00,5.627e+00,4.111e+00,5.633e+00,3.931e+00,6.819e+00,6.533e+00,7.054e+00,6.950e+00,4.934e+00,7.233e+00,7.850e+00,9.122e+00,8.717e+00,7.459e+00,9.529e+00,1.070e+01,1.108e+01,8.089e+00,1.034e+01,1.011e+01,9.803e+00,9.552e+00,1.060e+01,1.101e+01,1.216e+01,8.792e+00,1.006e+01,1.182e+01,1.054e+01,1.063e+01,1.128e+01,1.072e+01,1.044e+01,1.077e+01,1.112e+01,9.726e+00,1.033e+01,1.074e+01,1.202e+01,1.106e+01,9.691e+00,1.193e+01,1.147e+01,9.325e+00,9.993e+00,9.706e+00,1.032e+01,9.828e+00,1.014e+01,9.116e+00,1.155e+01,1.125e+01,1.151e+01,1.066e+01,1.163e+01,1.307e+01,1.041e+01
6.615e-02,6.467e-01,5.069e-01,9.953e-01,1.354e+00,1.892e+00,1.914e+00,2.916e+00,1.867e+00,2.739e+00,1.995e+00,2.374e+00,2.203e+00,3.929e+00,2.694e+00,3.641e+00,3.271e+00,2.992e+00,4.985e+00,5.573e+00,5.566e+00,6.043e+00,5.971e+00,3.353e+00,5.617e+00,5.704e+00,6.909e+00,6.476e+00,6.961e+00,7.992e+00,5.014e+00,7.128e+00,7.577e+00,1.012e+01,9.960e+00,7.889e+00,9.517e+00,1.073e+01,1.258e+01,9.721e+00,1.108e+01,9.875e+00,1.049e+01,8.798e+00,1.154e+01,1.134e+01,1.247e+01,9.610e+00,1.163e+01,1.199e+01,1.204e+01,1.146e+01,1.130e+01,1.145e+01,1.203e+01,1.131e+01,1.171e+01,9.546e+00,1.049e+01,1.116e+01,1.159e+01,1.154e+01,1.077e+01,1.145e+01,1.295e+01,1.041e+01,9.640e+00,1.042e+01,1.071e+01,1.060e+01,1.069e+01,9.296e+00,1.203e+01,1.194e+01,1.132e+01,1.099e+01,1.266e+01,1.261e+01,1.000e+01
2.304e-01,5.129e-01,2.601e-01,7.972e-01,1.345e+00,1.314e+00,1.636e+00,1.727e+00,1.818e+00,2.375e+00,2.140e+00,2.421e+00,2.500e+00,3.503e+00,3.291e+00,3.129e+00,3.513e+00,4.568e+00,6.431e+00,6.117e+00,5.525e+00,6.804e+00,6.138e+00,5.083e+00,6.440e+00,7.211e+00,8.644e+00,7.518e+00,8.090e+00,9.916e+00,7.402e+00,8.629e+00,1.005e+01,1.291e+01,1.209e+01,9.300e+00,1.109e+01,1.230e+01,1.378e+01,1.092e+01,1.165e+01,1.126e+01,1.112e+01,1.186e+01,1.297e+01,1.479e+01,1.374e+01,1.131e+01,1.244e+01,1.492e+01,1.261e+01,1.362e+01,1.357e+01,1.449e+01,1.213e+01,1.417e+01,1.500e+01,1.188e+01,1.346e+01,1.212e+01,1.543e+01,1.358e+01,1.151e+01,1.238e+01,1.636e+01,1.249e+01,1.256e+01,1.153e+01,1.355e+01,1.251e+01,1.269e+01,1.167e+01,1.407e+01,1.352e+01,1.436e+01,1.122e+01,1.470e+01,1.626e+01,1.392e+01
1.590e-01,9.453e-01,7.181e-01,1.796e+00,1.922e+00,2.440e+00,2.373e+00,3.004e+00,2.660e+00,2.847e+00,2.009e+00,2.275e+00,2.849e+00,4.245e+00,3.465e+00,4.110e+00,4.243e+00,3.198e+00,4.972e+00,5.431e+00,5.644e+00,5.863e+00,6.521e+00,4.463e+00,6.416e+00,4.908e+00,7.706e+00,7.430e+00,7.898e+00,8.251e+00,5.932e+00,7.068e+00,8.862e+00,9.741e+00,1.011e+01,7.172e+00,1.038e+01,9.952e+00,1.316e+01,9.994e+00,1.125e+01,9.786e+00,1.077e+01,9.454e+00,1.082e+01,1.190e+01,1.325e+01,8.721e+00,1.100e+01,1.340e+01,1.191e+01,1.263e+01,1.162e+01,1.283e+01,1.178e+01,1.148e+01,1.263e+01,1.090e+01,1.074e+01,1.094e+01,1.329e+01,1.300e+01,1.041e+01,1.218e+01,1.339e+01,1.126e+01,1.124e+01,1.039e+01,1.200e+01,1.057e+01,1.086e+01,9.342e+00,1.307e+01,1.293e+01,1.189e+01,1.108e+01,1.241e+01,1.385e+01,1.050e+01
8.597e-02,4.056e-01,2.849e-01,9.219e-01,8.511e-01,1.208e+00,1.549e+00,2.402e+00,2.240e+00,2.246e+00,2.334e+00,2.578e+00,2.009e+00,3.274e+00,2.997e+00,4.498e+00,3.522e+00,4.156e+00,4.604e+00,5.590e+00,4.916e+00,5.163e+00,5.497e+00,3.603e+00,5.086e+00,5.561e+00,6.671e+00,6.471e+00,6.691e+00,8.194e+00,5.580e+00,8.336e+00,7.677e+00,1.081e+01,8.396e+00,7.646e+00,9.679e+00,1.078e+01,9.700e+00,7.923e+00,9.500e+00,9.632e+00,9.129e+00,8.890e+00,1.066e+01,1.023e+01,1.081e+01,8.950e+00,1.023e+01,1.155e+01,9.868e+00,1.308e+01,1.238e+01,1.196e+01,1.143e+01,1.230e+01,1.018e+01,9.375e+00,1.214e+01,1.089e+01,1.135e+01,1.176e+01,1.135e+01,1.155e+01,1.306e+01,9.689e+00,1.138e+01,1.054e+01,1.270e+01,9.784e+00,1.209e+01,1.013e+01,1.261e+01,1.174e+01,1.184e+01,9.091e+00,1.294e+01,1.391e+01,1.266e+01
1.986e-01,1.144e+00,7.124e-01,1.704e+00,1.335e+00,1.833e+00,2.565e+00,2.420e+00,2.506e+00,2.776e+00,3.091e+00,2.768e+00,2.598e+00,3.596e+00,3.012e+00,3.617e+00,3.631e+00,4.003e+00,5.309e+00,6.190e+00,5.200e+00,5.624e+00,6.314e+00,3.824e+00,6.158e+00,6.210e+00,7.568e+00,6.992e+00,6.391e+00,7.197e+00,5.484e+00,7.644e+00,7.956e+00,1.061e+01,9.474e+00,8.316e+00,1.001e+01,1.071e+01,1.237e+01,9.580e+00,1.040e+01,9.951e+00,1.015e+01,9.425e+00,1.104e+01,1.238e+01,1.241e+01,9.277e+00,1.068e+01,1.302e+01,1.253e+01,1.170e+01,1.243e+01,1.311e+01,1.262e+01,1.182e+01,1.283e+01,1.024e+01,1.216e+01,1.127e+01,1.401e+01,1.184e+01,1.153e+01,1.204e+01,1.405e+01,1.124e+01,1.230e+01,1.056e+01,1.373e+01,1.117e+01,1.192e+01,1.111e+01,1.349e+01,1.335e+01,1.278e+01,1.122e+01,1.324e+01,1.371e+01,1.218e+01
1.382e-01,1.214e+00,7.546e-01,1.351e+00,1.139e+00,1.611e+00,2.120e+00,2.073e+00,1.821e+00,2.628e+00,2.509e+00,2.466e+00,2.703e+00,3.615e+00,2.900e+00,3.222e+00,3.607e+00,2.857e+00,5.204e+00,5.699e+00,5.489e+00,5.996e+00,5.933e+00,4.055e+00,5.957e+00,5.958e+00,7.872e+00,6.952e+00,6.985e+00,7.676e+00,4.721e+00,7.096e+00,7.831e+00,8.822e+00,8.669e+00,6.987e+00,8.489e+00,9.222e+00,1.083e+01,7.889e+00,9.451e+00,9.940e+00,8.025e+00,7.940e+00,9.972e+00,9.188e+00,1.052e+01,7.313e+00,1.014e+01,1.065e+01,1.163e+01,1.045e+01,9.717e+00,1.104e+01,1.041e+01,9.615e+00,1.081e+01,8.801e+00,8.951e+00,9.431e+00,1.108e+01,9.541e+00,9.391e+00,1.074e+01,1.203e+01,9.446e+00,9.927e+00,9.832e+00,1.025e+01,8.442e+00,9.990e+00,8.889e+00,1.080e+01,9.850e+00,1.068e+01,8.897e+00,1.070e+01,1.111e+01,9.397e+00
9.675e-02,6.515e-01,4.358e-01,8.844e-01,8.895e-01,1.137e+00,1.370e+00,1.503e+00,1.424e+00,1.994e+00,2.288e+00,2.094e+00,1.933e+00,2.991e+00,2.866e+00,3.303e+00,3.386e+00,3.646e+00,5.233e+00,5.342e+00,4.645e+00,5.648e+00,5.885e+00,4.082e+00,5.584e+00,5.781e+00,7.416e+00,6.093e+00,6.368e+00,7.428e+00,5.114e+00,7.189e+00,7.616e+00,9.214e+00,8.607e+00,7.134e+00,8.684e+00,1.040e+01,1.188e+01,8.263e+00,9.330e+00,9.379e+00,9.677e+00,9.137e+00,1.037e+01,1.074e+01,1.159e+01,9.880e+00,1.159e+01,1.278e+01,1.243e+01,1.302e+01,1.309e+01,1.265e+01,1.200e+01,1.307e+01,1.318e+01,1.119e+01,1.261e+01,1.145e+01,1.407e+01,1.217e+01,1.291e+01,1.329e+01,1.413e+01,1.056e+01,1.188e+01,1.226e+01,1.374e+01,1.272e+01,1.161e+01,1.021e+01,1.332e+01,1.295e+01,1.305e+01,1.130e+01,1.409e+01,1.418e+01,1.260e+01
3.470e-02,8.241e-02,2.488e-01,1.024e+00,1.367e+00,1.824e+00,1.832e+00,2.910e+00,1.944e+00,2.977e+00,2.532e+00,3.096e+00,2.017e+00,4.478e+00,3.001e+00,3.412e+00,3.480e+00,3.951e+00,5.745e+00,5.366e+00,5.068e+00,7.141e+00,6.684e+00,4.598e+00,6.251e+00,5.652e+00,7.668e+00,7.074e+00,7.124e+00,7.597e+00,5.822e+00,7.261e+00,9.178e+00,1.140e+01,1.041e+01,8.254e+00,9.761e+00,1.105e+01,1.261e+01,8.266e+00,9.935e+00,9.971e+00,9.503e+00,9.641e+00,1.094e+01,1.243e+01,1.361e+01,9.264e+00,1.196e+01,1.253e+01,1.332e+01,1.363e+01,1.417e+01,1.268e+01,1.248e+01,1.389e+01,1.465e+01,1.294e+01,1.350e+01,1.260e+01,1.578e+01,1.338e+01,1.213e+01,1.428e+01,1.529e+01,1.238e+01,1.246e+01,1.288e+01,1.481e+01,1.237e+01,1.418e+01,1.079e+01,1.512e+01,1.498e+01,1.463e+01,1.278e+01,1.534e+01,1.615e+01,1.270e+01
5.727e-02,2.945e-01,3.891e-01,1.599e+00,9.779e-01,1.408e+00,1.592e+00,1.705e+00,1.745e+00,1.194e+00,1.781e+00,2.315e+00,1.936e+00,3.463e+00,2.275e+00,3.443e+00,3.300e+00,2.780e+00,4.105e+00,4.252e+00,5.066e+00,4.550e+00,4.709e+00,3.599e+00,4.266e+00,3.800e+00,6.982e+00,5.538e+00,6.774e+00,6.817e+00,5.064e+00,6.693e+00,7.945e+00,9.557e+00,8.855e+00,8.707e+00,1.074e+01,1.121e+01,1.282e+01,9.185e+00,1.155e+01,9.558e+00,1.265e+01,9.851e+00,1.071e+01,1.292e+01,1.328e+01,9.581e+00,1.153e+01,1.343e+01,1.244e+01,1.426e+01,1.386e+01,1.493e+01,1.306e+01,1.494e+01,1.316e+01,1.133e+01,1.267e+01,1.289e+01,1.538e+01,1.390e+01,1.353e+01,1.433e+01,1.432e+01,1.216e+01,1.378e+01,1.334e+01,1.503e+01,1.367e+01,1.402e+01,1.237e+01,1.447e+01,1.410e+01,1.411e+01,1.207e+01,1.474e+01,1.556e+01,1.329e+01
1.143e-01,4.521e-01,2.620e-01,7.212e-01,1.179e+00,1.461e+00,1.725e+00,2.439e+00,2.049e+00,2.917e+00,2.518e+00,2.827e+00,2.069e+00,3.610e+00,2.568e+00,3.727e+00,3.042e+00,3.547e+00,5.018e+00,5.261e+00,5.409e+00,6.035e+00,5.794e+00,4.356e+00,5.916e+00,5.805e+00,7.363e+00,7.417e+00,7.941e+00,8.860e+00,7.240e+00,8.881e+00,9.065e+00,1.139e+01,1.007e+01,8.011e+00,9.887e+00,1.219e+01,1.227e+01,9.523e+00,1.011e+01,1.088e+01,1.046e+01,9.948e+00,1.188e+01,1.254e+01,1.200e+01,1.007e+01,1.156e+01,1.308e+01,1.354e+01,1.459e+01,1.449e+01,1.453e+01,1.340e+01,1.348e+01,1.449e+01,1.200e+01,1.479e+01,1.314e+01,1.575e+01,1.356e+01,1.424e+01,1.408e+01,1.611e+01,1.328e+01,1.323e+01,1.484e+01,1.479e+01,1.393e+01,1.509e+01,1.256e+01,1.476e+01,1.520e+01,1.438e+01,1.199e+01,1.451e+01,1.620e+01,1.482e+01
2.556e-01,1.489e+00,8.829e-01,1.486e+00,1.555e+00,1.828e+00,2.753e+00,2.706e+00,2.240e+00,3.064e+00,2.608e+00,2.928e+00,3.306e+00,3.986e+00,3.108e+00,3.843e+00,4.215e+00,4.161e+00,5.539e+00,6.696e+00,5.880e+00,5.304e+00,5.843e+00,4.410e+00,6.101e+00,6.937e+00,8.067e+00,6.808e+00,7.343e+00,8.507e+00,5.721e+00,8.216e+00,9.314e+00,1.136e+01,1.021e+01,8.620e+00,1.134e+01,1.249e+01,1.250e+01,1.035e+01,1.210e+01,1.245e+01,1.025e+01,1.145e+01,1.298e+01,1.230e+01,1.381e+01,1.013e+01,1.229e+01,1.483e+01,1.380e+01,1.457e+01,1.472e+01,1.499e+01,1.507e+01,1.482e+01,1.554e+01,1.286e+01,1.527e+01,1.301e+01,1.824e+01,1.427e+01,1.462e+01,1.404e+01,1.695e+01,1.255e+01,1.418e+01,1.444e+01,1.672e+01,1.526e+01,1.492e+01,1.519e+01,1.549e+01,1.516e+01,1.617e+01,1.235e+01,1.671e+01,1.707e+01,1.655e+01
8.971e-02,3.601e-01,3.746e-01,1.288e+00,1.502e+00,1.953e+00,1.646e+00,2.795e+00,2.503e+00,2.632e+00,2.152e+00,2.404e+00,2.427e+00,4.313e+00,4.191e+00,4.827e+00,4.091e+00,3.808e+00,5.349e+00,5.450e+00,4.956e+00,6.391e+00,6.027e+00,4.457e+00,6.081e+00,5.436e+00,7.175e+00,6.795e+00,6.961e+00,8.528e+00,6.167e+00,8.401e+00,8.762e+00,1.048e+01,1.072e+01,8.341e+00,9.957e+00,1.176e+01,1.276e+01,1.060e+01,1.099e+01,9.721e+00,1.121e+01,1.123e+01,1.123e+01,1.175e+01,1.293e+01,9.976e+00,1.220e+01,1.399e+01,1.335e+01,1.452e+01,1.334e+01,1.441e+01,1.448e+01,1.459e+01,1.566e+01,1.257e+01,1.449e+01,1.326e+01,1.680e+01,1.509e+01,1.263e+01,1.442e+01,1.799e+01,1.249e+01,1.489e+01,1.524e+01,1.594e+01,1.390e+01,1.536e+01,1.396e+01,1.642e+01,1.640e+01,1.507e+01,1.369e+01,1.596e+01,1.545e+01,1.515e+01
9.045e-02,8.795e-01,5.956e-01,1.233e+00,7.457e-01,1.218e+00,1.992e+00,2.091e+00,1.694e+00,1.919e+00,2.177e+00,2.319e+00,2.218e+00,3.446e+00,3.071e+00,3.577e+00,3.222e+00,3.321e+00,5.611e+00,5.639e+00,4.841e+00,5.308e+00,5.472e+00,3.987e+00,5.580e+00,5.319e+00,8.169e+00,6.564e+00,7.843e+00,8.353e+00,6.327e+00,8.352e+00,8.262e+00,1.068e+01,1.058e+01,8.321e+00,9.948e+00,1.061e+01,1.219e+01,9.577e+00,1.069e+01,1.095e+01,1.133e+01,9.805e+00,1.119e+01,1.367e+01,1.215e+01,9.749e+00,1.184e+01,1.394e+01,1.187e+01,1.217e+01,1.357e+01,1.439e+01,1.241e+01,1.295e+01,1.476e+01,1.319e+01,1.470e+01,1.210e+01,1.691e+01,1.479e+01,1.228e+01,1.424e+01,1.623e+01,1.395e+01,1.428e+01,1.298e+01,1.479e+01,1.404e+01,1.386e+01,1.360e+01,1.494e+01,1.537e+01,1.430e+01,1.288e+01,1.527e+01,1.618e+01,1.456e+01
8.845e-02,7.207e-01,4.702e-01,1.202e+00,6.912e-01,1.003e+00,2.005e+00,2.129e+00,1.945e+00,1.933e+00,1.883e+00,2.599e+00,2.819e+00,3.629e+00,2.818e+00,3.822e+00,3.721e+00,3.762e+00,4.904e+00,5.644e+00,5.022e+00,5.055e+00,5.797e+00,4.826e+00,5.719e+00,4.851e+00,8.681e+00,7.654e+00,7.625e+00,7.671e+00,5.510e+00,7.999e+00,8.529e+00,9.656e+00,8.512e+00,7.822e+00,1.082e+01,9.931e+00,1.016e+01,7.855e+00,1.028e+01,1.063e+01,8.943e+00,8.734e+00,1.014e+01,1.153e+01,1.157e+01,8.322e+00,1.103e+01,1.362e+01,1.173e+01,1.348e+01,1.345e+01,1.317e+01,1.153e+01,1.297e+01,1.489e+01,1.238e+01,1.398e+01,1.175e+01,1.802e+01,1.415e+01,1.267e+01,1.468e+01,1.516e+01,1.219e+01,1.363e+01,1.353e+01,1.482e+01,1.383e+01,1.299e+01,1.327e+01,1.556e+01,1.289e+01,1.461e+01,1.249e+01,1.453e+01,1.707e+01,1.365e+01
2.706e-02,3.441e-01,2.092e-01,5.020e-01,3.276e-01,6.078e-01,1.458e+00,1.732e+00,1.360e+00,2.214e+00,2.841e+00,2.944e+00,2.139e+00,3.333e+00,2.566e+00,3.421e+00,3.105e+00,3.815e+00,4.726e+00,4.794e+00,4.130e+00,5.224e+00,5.900e+00,4.053e+00,5.278e+00,6.307e+00,8.285e+00,6.747e+00,7.228e+00,8.595e+00,6.422e+00,8.657e+00,9.195e+00,1.075e+01,9.477e+00,8.285e+00,1.116e+01,1.138e+01,1.271e+01,1.001e+01,1.073e+01,1.151e+01,1.025e+01,1.153e+01,1.196e+01,1.318e+01,1.358e+01,1.053e+01,1.293e+01,1.426e+01,1.449e+01,1.469e+01,1.394e+01,1.570e+01,1.434e+01,1.552e+01,1.771e+01,1.411e+01,1.649e+01,1.416e+01,1.919e+01,1.661e+01,1.515e+01,1.701e+01,1.928e+01,1.478e+01,1.734e+01,1.787e+01,1.795e+01,1.709e+01,1.706e+01,1.603e+01,1.755e+01,1.735e+01,1.784e+01,1.419e+01,1.868e+01,1.979e+01,1.710e+01
1.295e-01,5.149e-01,4.648e-01,1.586e+00,1.850e+00,2.454e+00,2.683e+00,3.939e+00,3.229e+00,4.021e+00,3.738e+00,4.280e+00,3.153e+00,5.930e+00,4.786e+00,6.469e+00,5.071e+00,4.899e+00,6.833e+00,6.954e+00,6.718e+00,7.995e+00,8.045e+00,5.937e+00,7.621e+00,7.898e+00,1.001e+01,8.531e+00,9.343e+00,1.085e+01,8.419e+00,1.053e+01,1.141e+01,1.226e+01,1.213e+01,9.233e+00,1.147e+01,1.267e+01,1.438e+01,1.127e+01,1.128e+01,1.269e+01,1.076e+01,1.288e+01,1.226e+01,1.391e+01,1.379e+01,1.103e+01,1.276e+01,1.546e+01,1.403e+01,1.419e+01,1.379e+01,1.655e+01,1.360e+01,1.620e+01,1.591e+01,1.356e+01,1.496e+01,1.449e+01,1.880e+01,1.612e+01,1.418e+01,1.579e+01,1.953e+01,1.435e+01,1.745e+01,1.478e+01,1.811e+01,1.602e+01,1.756e+01,1.525e+01,1.767e+01,1.601e+01,1.757e+01,1.420e+01,1.660e+01,1.900e+01,1.620e+01
3.179e-01,1.172e+00,5.257e-01,9.016e-01,1.328e+00,1.332e+00,2.552e+00,2.691e+00,2.555e+00,3.061e+00,2.427e+00,2.631e+00,3.097e+00,3.446e+00,3.829e+00,4.215e+00,3.815e+00,4.263e+00,5.154e+00,6.333e+00,4.659e+00,5.502e+00,6.023e+00,3.989e+00,5.611e+00,6.317e+00,8.483e+00,6.887e+00,7.616e+00,9.002e+00,6.781e+00,8.459e+00,9.490e+00,1.096e+01,1.073e+01,8.304e+00,1.086e+01,1.135e+01,1.209e+01,9.762e+00,1.045e+01,1.056e+01,9.486e+00,9.714e+00,1.092e+01,1.156e+01,1.222e+01,9.398e+00,1.143e+01,1.386e+01,1.200e+01,1.286e+01,1.222e+01,1.348e+01,1.352e+01,1.332e+01,1.362e+01,1.170e+01,1.406e+01,1.323e+01,1.687e+01,1.438e+01,1.437e+01,1.435e+01,1.754e+01,1.396e+01,1.371e+01,1.573e+01,1.685e+01,1.572e+01,1.587e+01,1.500e+01,1.751e+01,1.597e+01,1.654e+01,1.327e+01,1.580e+01,1.642e+01,1.637e+01
6.259e-02,4.843e-01,3.541e-01,7.782e-01,8.739e-01,1.234e+00,1.453e+00,1.816e+00,1.355e+00,1.841e+00,2.100e+00,2.179e+00,1.658e+00,3.033e+00,1.947e+00,2.968e+00,2.229e+00,2.763e+00,4.296e+00,4.097e+00,3.891e+00,4.332e+00,4.600e+00,3.260e+00,4.844e+00,5.094e+00,6.512e+00,5.482e+00,6.064e+00,7.603e+00,5.819e+00,7.804e+00,8.314e+00,1.038e+01,9.673e+00,7.721e+00,9.593e+00,1.050e+01,1.220e+01,9.677e+00,9.676e+00,1.031e+01,1.055e+01,1.110e+01,1.041e+01,1.198e+01,1.222e+01,9.580e+00,1.067e+01,1.208e+01,1.291e+01,1.348e+01,1.272e+01,1.440e+01,1.252e+01,1.299e+01,1.426e+01,1.208e+01,1.576e+01,1.323e+01,1.650e+01,1.579e+01,1.433e+01,1.434e+01,1.692e+01,1.373e+01,1.624e+01,1.426e+01,1.593e+01,1.381e+01,1.485e+01,1.548e+01,1.674e+01,1.474e+01,1.520e+01,1.266e+01,1.653e+01,1.686e+01,1.465e+01
2.037e-01,6.159e-01,4.247e-01,1.334e+00,1.788e+00,2.179e+00,2.554e+00,3.279e+00,2.613e+00,3.489e+00,2.814e+00,3.727e+00,2.877e+00,5.145e+00,3.660e+00,4.828e+00,3.716e+00,3.826e+00,5.667e+00,6.059e+00,5.853e+00,6.339e+00,5.705e+00,4.452e+00,5.815e+00,6.241e+00,7.051e+00,6.370e+00,6.850e+00,7.762e+00,6.545e+00,8.493e+00,8.933e+00,1.086e+01,1.026e+01,8.128e+00,1.067e+01,1.029e+01,1.180e+01,9.413e+00,1.030e+01,9.201e+00,8.950e+00,1.010e+01,1.077e+01,1.103e+01,1.375e+01,1.007e+01,1.132e+01,1.308e+01,1.339e+01,1.448e+01,1.342e+01,1.321e+01,1.346e+01,1.488e+01,1.589e+01,1.310e+01,1.537e+01,1.407e+01,1.870e+01,1.523e+01,1.558e+01,1.588e+01,1.813e+01,1.573e+01,1.596e+01,1.581e+01,1.814e+01,1.526e+01,1.752e+01,1.394e+01,1.886e+01,1.714e+01,1.604e+01,1.487e+01,1.614e+01,1.878e+01,1.635e+01
1.366e-01,6.131e-01,3.576e-01,7.310e-01,7.612e-01,9.788e-01,1.547e+00,2.154e+00,1.830e+00,2.658e+00,2.431e+00,2.710e+00,1.951e+00,3.129e+00,3.091e+00,3.401e+00,2.750e+00,3.737e+00,5.671e+00,5.780e+00,5.609e+00,5.662e+00,6.118e+00,4.636e+00,6.101e+00,7.221e+00,8.180e+00,6.702e+00,7.802e+00,8.654e+00,6.619e+00,9.604e+00,9.265e+00,1.132e+01,1.091e+01,8.654e+00,9.677e+00,1.102e+01,1.158e+01,9.721e+00,9.866e+00,1.108e+01,8.763e+00,9.448e+00,1.124e+01,1.263e+01,1.273e+01,9.202e+00,1.189e+01,1.368e+01,1.242e+01,1.230e+01,1.349e+01,1.332e+01,1.269e+01,1.370e+01,1.538e+01,1.298e+01,1.465e+01,1.213e+01,1.678e+01,1.468e+01,1.474e+01,1.563e+01,1.737e+01,1.461e+01,1.631e+01,1.627e+01,1.658e+01,1.554e+01,1.454e+01,1.427e+01,1.584e+01,1.627e+01,1.459e+01,1.324e+01,1.671e+01,1.922e+01,1.600e+01
1.454e-01,6.359e-01,4.575e-01,1.329e+00,1.377e+00,1.667e+00,1.655e+00,1.990e+00,2.153e+00,2.081e+00,1.741e+00,1.737e+00,2.420e+00,3.113e+00,2.533e+00,2.980e+00,3.023e+00,3.377e+00,4.708e+00,5.111e+00,5.124e+00,4.988e+00,5.780e+00,3.998e+00,5.453e+00,5.115e+00,6.696e+00,6.755e+00,6.798e+00,7.810e+00,5.910e+00,7.328e+00,8.401e+00,9.588e+00,8.998e+00,7.841e+00,9.817e+00,1.010e+01,1.101e+01,8.592e+00,9.899e+00,9.174e+00,9.635e+00,9.123e+00,1.044e+01,1.092e+01,1.225e+01,9.108e+00,9.881e+00,1.196e+01,1.214e+01,1.430e+01,1.283e+01,1.347e+01,1.255e+01,1.262e+01,1.461e+01,1.135e+01,1.397e+01,1.267e+01,1.754e+01,1.496e+01,1.336e+01,1.407e+01,1.697e+01,1.503e+01,1.534e+01,1.693e+01,1.659e+01,1.600e+01,1.529e+01,1.449e+01,1.749e+01,1.661e+01,1.587e+01,1.388e+01,1.629e+01,1.809e+01,1.612e+01
2.184e-01,5.831e-01,2.231e-01,4.090e-01,8.479e-01,7.905e-01,1.944e+00,1.932e+00,1.368e+00,2.285e+00,1.889e+00,2.724e+00,1.872e+00,2.739e+00,2.170e+00,2.599e+00,2.803e+00,3.591e+00,4.590e+00,5.167e+00,4.534e+00,5.208e+00,5.253e+00,3.635e+00,5.392e+00,6.276e+00,8.122e+00,6.302e+00,6.766e+00,7.606e+00,6.395e+00,7.973e+00,8.779e+00,1.106e+01,9.972e+00,7.554e+00,1.016e+01,1.173e+01,1.169e+01,8.518e+00,8.853e+00,1.093e+01,8.318e+00,8.969e+00,1.033e+01,1.208e+01,1.144e+01,9.109e+00,1.083e+01,1.265e+01,1.198e+01,1.265e+01,1.217e+01,1.271e+01,1.300e+01,1.187e+01,1.544e+01,1.161e+01,1.559e+01,1.263e+01,1.701e+01,1.424e+01,1.422e+01,1.539e+01,1.705e+01,1.424e+01,1.470e+01,1.771e+01,1.692e+01,1.576e+01,1.571e+01,1.499e+01,1.837e+01,1.730e+01,1.750e+01,1.451e+01,1.674e+01,1.827e+01,1.772e+01
3.023e-01,1.253e+00,8.001e-01,1.707e+00,2.061e+00,2.396e+00,2.793e+00,3.273e+00,3.010e+00,3.664e+00,3.699e+00,3.648e+00,3.213e+00,4.601e+00,3.713e+00,4.718e+00,3.950e+00,4.597e+00,6.214e+00,6.777e+00,6.574e+00,6.654e+00,7.325e+00,5.434e+00,7.368e+00,7.894e+00,9.121e+00,8.247e+00,8.651e+00,9.701e+00,7.553e+00,9.934e+00,1.078e+01,1.324e+01,1.111e+01,8.999e+00,1.195e+01,1.223e+01,1.281e+01,1.025e+01,1.096e+01,1.270e+01,1.005e+01,1.099e+01,1.201e+01,1.165e+01,1.390e+01,1.020e+01,1.228e+01,1.290e+01,1.330e+01,1.435e+01,1.392e+01,1.438e+01,1.383e+01,1.486e+01,1.520e+01,1.328e+01,1.576e+01,1.347e+01,1.883e+01,1.652e+01,1.687e+01,1.629e+01,1.818e+01,1.625e+01,1.850e+01,1.864e+01,1.927e+01,1.886e+01,1.719e+01,1.824e+01,2.010e+01,1.850e+01,1.892e+01,1.578e+01,1.969e+01,2.165e+01,1.759e+01
1.909e-01,4.719e-01,2.468e-01,8.367e-01,9.991e-01,1.028e+00,1.845e+00,2.038e+00,2.045e+00,2.062e+00,2.115e+00,2.310e+00,2.550e+00,3.212e+00,3.325e+00,3.851e+00,3.291e+00,3.598e+00,4.228e+00,4.854e+00,4.161e+00,5.066e+00,4.653e+00,4.029e+00,5.025e+00,5.069e+00,7.056e+00,5.903e+00,6.928e+00,7.978e+00,6.464e+00,7.519e+00,8.864e+00,1.067e+01,9.918e+00,8.839e+00,1.102e+01,1.125e+01,1.184e+01,8.822e+00,1.077e+01,9.374e+00,1.036e+01,1.090e+01,1.081e+01,1.185e+01,1.223e+01,9.770e+00,1.092e+01,1.322e+01,1.158e+01,1.312e+01,1.278e+01,1.380e+01,1.343e+01,1.501e+01,1.458e+01,1.324e+01,1.540e+01,1.441e+01,1.837e+01,1.508e+01,1.409e+01,1.530e+01,1.888e+01,1.509e+01,1.722e+01,1.891e+01,1.935e+01,1.855e+01,1.939e+01,1.832e+01,1.886e+01,1.934e+01,1.883e+01,1.613e+01,1.817e+01,2.016e+01,1.952e+01
3.058e-01,1.029e+00,6.712e-01,1.635e+00,1.698e+00,1.730e+00,1.935e+00,2.046e+00,2.550e+00,2.104e+00,2.096e+00,1.824e+00,2.495e+00,2.564e+00,3.069e+00,2.819e+00,2.975e+00,3.033e+00,3.970e+00,4.050e+00,4.244e+00,4.301e+00,5.254e+00,3.770e+00,5.187e+00,4.515e+00,7.850e+00,7.326e+00,7.711e+00,6.993e+00,6.070e+00,6.742e+00,9.167e+00,9.654e+00,8.731e+00,7.116e+00,9.799e+00,1.118e+01,1.076e+01,8.287e+00,9.512e+00,1.073e+01,9.983e+00,9.484e+00,1.171e+01,1.170e+01,1.273e+01,1.038e+01,1.187e+01,1.292e+01,1.309e+01,1.488e+01,1.465e+01,1.454e+01,1.262e+01,1.400e+01,1.343e+01,1.265e+01,1.409e+01,1.459e+01,1.800e+01,1.578e+01,1.650e+01,1.686e+01,1.821e+01,1.545e+01,1.741e+01,1.855e+01,1.996e+01,1.937e+01,1.648e+01,1.910e+01,2.006e+01,1.942e+01,1.877e+01,1.533e+01,1.850e+01,1.953e+01,1.900e+01
9.234e-02,1.015e+00,8.357e-01,1.667e+00,1.378e+00,2.018e+00,2.765e+00,3.379e+00,2.217e+00,3.052e+00,3.349e+00,3.430e+00,2.659e+00,4.645e+00,3.600e+00,4.229e+00,4.094e+00,4.256e+00,6.502e+00,6.571e+00,6.157e+00,7.226e+00,6.899e+00,4.595e+00,8.006e+00,6.777e+00,9.368e+00,8.531e+00,8.927e+00,8.585e+00,7.530e+00,8.367e+00,9.188e+00,1.145e+01,1.141e+01,8.556e+00,9.823e+00,1.152e+01,1.286e+01,8.772e+00,1.054e+01,1.087e+01,9.772e+00,1.072e+01,1.173e+01,1.234e+01,1.280e+01,1.096e+01,1.286e+01,1.480e+01,1.347e+01,1.393e+01,1.447e+01,1.470e+01,1.245e+01,1.489e+01,1.545e+01,1.147e+01,1.598e+01,1.442e+01,1.752e+01,1.550e+01,1.546e+01,1.608e+01,1.692e+01,1.583e+01,1.594e+01,1.513e+01,1.868e+01,1.756e+01,1.577e+01,1.628e+01,2.014e+01,1.771e+01,1.824e+01,1.599e+01,1.831e+01,2.011e+01,1.789e+01
2.382e-01,5.576e-01,3.621e-01,1.427e+00,1.787e+00,1.976e+00,1.931e+00,1.947e+00,2.195e+00,2.200e+00,1.948e+00,2.722e+00,2.438e+00,3.882e+00,2.356e+00,3.526e+00,2.875e+00,3.534e+00,4.669e+00,4.933e+00,5.311e+00,4.842e+00,5.685e+00,4.755e+00,6.852e+00,6.057e+00,7.542e+00,7.130e+00,6.435e+00,7.911e+00,6.297e+00,8.610e+00,8.741e+00,1.111e+01,9.700e+00,8.471e+00,9.894e+00,1.064e+01,1.078e+01,9.314e+00,9.481e+00,9.513e+00,9.231e+00,9.965e+00,1.039e+01,1.064e+01,1.120e+01,7.924e+00,9.862e+00,1.302e+01,1.121e+01,1.444e+01,1.279e+01,1.374e+01,1.300e+01,1.213e+01,1.493e+01,1.166e+01,1.460e+01,1.257e+01,1.836e+01,1.457e+01,1.489e+01,1.473e+01,1.707e+01,1.413e+01,1.720e+01,1.647e+01,1.747e+01,1.795e+01,1.551e+01,1.657e+01,1.808e+01,1.678e+01,1.728e+01,1.552e+01,1.718e+01,2.085e+01,1.767e+01
1.837e-01,7.367e-01,4.269e-01,9.757e-01,1.392e+00,1.723e+00,2.167e+00,2.995e+00,2.500e+00,3.436e+00,3.031e+00,3.400e+00,2.594e+00,4.323e+00,3.780e+00,4.863e+00,3.240e+00,3.234e+00,5.271e+00,5.648e+00,5.656e+00,6.501e+00,5.887e+00,4.655e+00,6.279e+00,6.061e+00,7.089e+00,6.476e+00,7.647e+00,8.453e+00,6.586e+00,8.754e+00,8.763e+00,9.884e+00,9.652e+00,8.160e+00,1.018e+01,1.066e+01,1.096e+01,8.502e+00,9.587e+00,1.007e+01,9.048e+00,1.032e+01,1.075e+01,1.169e+01,1.303e+01,1.019e+01,1.222e+01,1.348e+01,1.320e+01,1.462e+01,1.404e+01,1.423e+01,1.366e+01,1.445e+01,1.534e+01,1.287e+01,1.535e+01,1.393e+01,1.769e+01,1.477e+01,1.465e+01,1.584e+01,1.713e+01,1.340e+01,1.574e+01,1.635e+01,1.690e+01,1.556e+01,1.677e+01,1.576e+01,1.787e+01,1.743e+01,1.735e+01,1.565e+01,1.776e+01,1.911e+01,1.780e+01
2.915e-01,1.367e+00,8.882e-01,1.972e+00,2.100e+00,2.524e+00,3.374e+00,3.505e+00,3.014e+00,3.497e+00,3.237e+00,3.289e+00,3.418e+00,4.583e+00,3.607e+00,4.557e+00,4.670e+00,4.606e+00,5.764e+00,6.694e+00,6.199e+00,5.775e+00,6.604e+00,4.516e+00,6.686e+00,6.926e+00,8.229e+00,6.480e+00,7.623e+00,8.530e+00,7.100e+00,8.162e+00,9.947e+00,1.116e+01,1.021e+01,8.333e+00,1.134e+01,1.198e+01,1.314e+01,9.699e+00,1.088e+01,1.152e+01,9.976e+00,1.086e+01,1.116e+01,1.206e+01,1.364e+01,1.007e+01,1.181e+01,1.377e+01,1.366e+01,1.465e+01,1.416e+01,1.500e+01,1.384e+01,1.506e+01,1.431e+01,1.298e+01,1.626e+01,1.419e+01,1.860e+01,1.656e+01,1.584e+01,1.675e+01,1.948e+01,1.518e+01,1.721e+01,1.848e+01,1.959e+01,2.028e+01,1.909e+01,1.833e+01,1.986e+01,2.134e+01,2.084e+01,1.798e+01,2.123e+01,2.246e+01,1.942e+01
1.950e-01,8.957e-01,5.912e-01,1.378e+00,1.511e+00,1.779e+00,1.743e+00,1.963e+00,2.238e+00,2.453e+00,2.451e+00,1.948e+00,2.586e+00,3.267e+00,3.450e+00,3.516e+00,3.610e+00,3.952e+00,5.659e+00,5.841e+00,5.587e+00,6.021e+00,6.529e+00,4.274e+00,6.511e+00,6.397e+00,7.384e+00,6.656e+00,6.629e+00,7.984e+00,6.172e+00,7.320e+00,8.657e+00,1.005e+01,9.809e+00,7.307e+00,9.154e+00,1.080e+01,1.154e+01,8.812e+00,9.631e+00,9.554e+00,8.629e+00,1.019e+01,1.071e+01,1.032e+01,1.177e+01,1.013e+01,1.071e+01,1.200e+01,1.207e+01,1.173e+01,1.131e+01,1.253e+01,1.231e+01,1.277e+01,1.367e+01,1.165e+01,1.524e+01,1.292e+01,1.729e+01,1.431e+01,1.411e+01,1.470e+01,1.736e+01,1.413e+01,1.616e+01,1.607e+01,1.800e+01,1.696e+01,1.626e+01,1.622e+01,1.793e+01,1.949e+01,1.956e+01,1.657e+01,1.898e+01,2.004e+01,1.791e+01
1.623e-02,5.038e-01,5.385e-01,1.301e+00,8.869e-01,1.366e+00,1.440e+00,1.861e+00,1.396e+00,1.519e+00,1.909e+00,1.746e+00,1.810e+00,2.992e+00,2.581e+00,2.643e+00,3.687e+00,4.024e+00,5.797e+00,5.891e+00,6.204e+00,6.359e+00,6.846e+00,3.827e+00,6.856e+00,6.201e+00,8.333e+00,6.603e+00,7.209e+00,8.261e+00,5.495e+00,7.103e+00,7.564e+00,9.699e+00,9.654e+00,7.263e+00,8.057e+00,1.080e+01,1.162e+01,7.573e+00,9.397e+00,9.807e+00,9.115e+00,9.075e+00,1.031e+01,1.089e+01,1.200e+01,9.173e+00,1.226e+01,1.263e+01,1.176e+01,1.159e+01,1.186e+01,1.222e+01,1.127e+01,1.234e+01,1.306e+01,9.644e+00,1.244e+01,1.258e+01,1.425e+01,1.338e+01,1.277e+01,1.485e+01,1.615e+01,1.267e+01,1.354e+01,1.360e+01,1.582e+01,1.422e+01,1.399e+01,1.444e+01,1.617e+01,1.649e+01,1.808e+01,1.545e+01,1.768e+01,1.790e+01,1.514e+01
1.670e-01,3.702e-01,2.119e-01,6.729e-01,1.524e+00,1.771e+00,1.866e+00,2.744e+00,2.159e+00,2.976e+00,2.397e+00,2.681e+00,2.238e+00,4.010e+00,3.630e+00,4.405e+00,3.666e+00,4.325e+00,5.607e+00,6.084e+00,5.048e+00,7.000e+00,6.896e+00,4.812e+00,7.245e+00,7.234e+00,8.278e+00,7.539e+00,6.935e+00,8.662e+00,7.059e+00,8.742e+00,9.413e+00,1.197e+01,1.038e+01,8.694e+00,9.820e+00,1.111e+01,1.227e+01,9.448e+00,9.405e+00,1.116e+01,8.851e+00,9.838e+00,1.129e+01,1.117e+01,1.210e+01,9.298e+00,1.134e+01,1.232e+01,1.331e+01,1.404e+01,1.284e+01,1.375e+01,1.355e+01,1.363e+01,1.477e+01,1.272e+01,1.543e+01,1.389e+01,1.706e+01,1.415e+01,1.457e+01,1.615e+01,1.800e+01,1.473e+01,1.679e+01,1.681e+01,1.883e+01,1.815e+01,1.791e+01,1.587e+01,1.916e+01,1.924e+01,1.923e+01,1.787e+01,2.037e+01,2.221e+01,1.776e+01
2.669e-01,1.151e+00,5.911e-01,8.630e-01,1.292e+00,1.367e+00,1.869e+00,1.791e+00,1.769e+00,2.442e+00,2.543e+00,2.295e+00,2.261e+00,2.935e+00,3.315e+00,3.628e+00,3.110e+00,3.414e+00,5.671e+00,5.787e+00,4.911e+00,6.029e+00,5.897e+00,4.424e+00,6.155e+00,6.629e+00,8.651e+00,7.462e+00,8.065e+00,8.891e+00,6.616e+00,8.012e+00,9.363e+00,1.076e+01,9.989e+00,8.507e+00,9.674e+00,1.157e+01,1.156e+01,9.078e+00,1.025e+01,1.224e+01,9.856e+00,9.515e+00,1.064e+01,1.221e+01,1.116e+01,1.022e+01,1.138e+01,1.270e+01,1.236e+01,1.293e+01,1.317e+01,1.427e+01,1.239e+01,1.349e+01,1.511e+01,1.172e+01,1.598e+01,1.290e+01,1.752e+01,1.601e+01,1.610e+01,1.646e+01,1.783e+01,1.615e+01,1.788e+01,1.898e+01,1.920e+01,1.918e+01,1.760e+01,1.891e+01,2.053e+01,2.046e+01,2.086e+01,1.756e+01,2.280e+01,2.167e+01,2.036e+01
9.921e-02,6.011e-01,5.260e-01,1.625e+00,1.241e+00,1.763e+00,2.420e+00,2.901e+00,2.535e+00,2.685e+00,3.016e+00,3.159e+00,2.732e+00,4.382e+00,3.319e+00,3.825e+00,4.045e+00,4.275e+00,5.195e+00,5.390e+00,4.979e+00,6.127e+00,6.349e+00,4.225e+00,6.477e+00,5.819e+00,8.668e+00,7.598e+00,7.531e+00,8.627e+00,6.747e+00,8.717e+00,1.001e+01,1.186e+01,1.090e+01,9.276e+00,1.115e+01,1.203e+01,1.368e+01,9.597e+00,1.131e+01,1.080e+01,1.062e+01,1.058e+01,1.054e+01,1.159e+01,1.247e+01,9.165e+00,1.158e+01,1.280e+01,1.210e+01,1.376e+01,1.253e+01,1.407e+01,1.416e+01,1.413e+01,1.505e+01,1.253e+01,1.540e+01,1.459e+01,1.793e+01,1.538e+01,1.524e+01,1.600e+01,1.810e+01,1.511e+01,1.747e+01,1.872e+01,1.931e+01,2.097e+01,1.870e+01,1.873e+01,2.156e+01,2.170e+01,2.087e+01,2.046e+01,2.180e+01,2.315e+01,2.123e+01
1.562e-01,5.673e-01,3.443e-01,1.109e+00,1.476e+00,1.880e+00,1.968e+00,2.943e+00,2.786e+00,3.484e+00,2.927e+00,3.364e+00,2.423e+00,4.556e+00,3.826e+00,4.781e+00,3.551e+00,4.311e+00,6.034e+00,5.829e+00,5.059e+00,6.325e+00,6.569e+00,5.325e+00,6.495e+00,6.155e+00,8.384e+00,8.200e+00,7.609e+00,8.563e+00,6.843e+00,1.006e+01,9.153e+00,1.113e+01,1.024e+01,8.353e+00,1.011e+01,1.187e+01,1.204e+01,1.070e+01,1.025e+01,1.214e+01,1.047e+01,1.031e+01,1.193e+01,1.270e+01,1.258e+01,1.061e+01,1.178e+01,1.277e+01,1.357e+01,1.381e+01,1.353e+01,1.484e+01,1.443e+01,1.286e+01,1.515e+01,1.272e+01,1.447e+01,1.338e+01,1.837e+01,1.515e+01,1.582e+01,1.707e+01,1.792e+01,1.509e+01,1.819e+01,1.704e+01,1.805e+01,1.877e+01,1.631e+01,1.714e+01,1.949e+01,2.014e+01,1.743e+01,1.788e+01,1.949e+01,2.091e+01,1.848e+01
