3.390e-01,6.542e-01,3.400e-01,2.093e-01,1.200e-01,8.714e-01,5.418e-01,3.723e-01,6.950e-01,8.193e-03,4.858e-01,3.244e-01,9.739e-01,7.947e-01,6.483e-01,1.058e-02,1.134e-02,4.648e-01,1.250e-01,3.746e-01,8.227e-01,2.336e-01,7.564e-01,3.622e-01,1.735e-01,3.802e-01,4.005e-01,3.408e-01,2.244e-01,1.923e-01,5.219e-01,6.729e-01,8.013e-02,3.857e-01,3.886e-01,2.834e-01,1.731e-01,5.645e-01,4.568e-01,1.745e-01,8.649e-02,3.804e-01,8.989e-01,7.639e-01,4.033e-01,3.537e-01,9.346e-01,5.175e-01,9.398e-01,9.500e-01,2.358e-01,1.423e-01,4.040e-01,2.792e-01,6.011e-01,5.830e-01,4.628e-01,9.057e-01,3.804e-01,8.339e-01,1.660e-01,8.449e-01,3.414e-01,2.587e-01,7.078e-01,7.181e-01,3.023e-01,4.452e-02,7.262e-01,2.694e-01,2.333e-02,3.330e-01,6.812e-01,6.579e-01,4.544e-01,3.989e-01,3.486e-01,4.257e-01
2.142e-01,6.937e-01,8.854e-01,9.736e-01,7.667e-01,6.246e-01,3.717e-01,5.609e-01,1.179e+00,7.749e-02,6.632e-01,3.668e-01,1.287e+00,8.123e-01,1.123e+00,6.744e-01,8.857e-01,7.379e-01,2.756e-01,3.357e-01,1.080e+00,1.139e+00,7.892e-01,3.103e-01,9.671e-01,9.273e-01,7.103e-01,8.480e-01,2.063e-01,8.536e-01,1.127e+00,9.253e-01,1.264e-01,5.364e-01,6.607e-01,3.668e-01,2.717e-01,9.435e-01,6.202e-01,7.774e-01,8.689e-01,1.012e+00,7.185e-01,5.273e-01,8.364e-01,5.425e-01,8.126e-01,1.136e+00,1.257e+00,1.534e+00,1.617e-01,7.799e-01,4.814e-01,8.274e-01,4.112e-01,5.292e-01,4.245e-01,1.413e+00,1.052e+00,9.446e-01,2.971e-01,6.058e-01,4.544e-01,1.903e-01,1.432e+00,7.017e-01,1.121e+00,7.953e-01,7.934e-01,6.370e-01,4.752e-01,6.961e-01,1.095e+00,9.830e-01,8.289e-01,1.240e+00,1.147e+00,7.401e-01
1.696e-01,3.933e-01,8.739e-01,9.636e-01,9.006e-01,9.389e-01,1.187e+00,4.167e-01,1.129e+00,6.394e-01,8.517e-01,9.378e-01,8.492e-01,1.191e+00,5.831e-01,3.796e-01,9.808e-01,7.986e-01,3.431e-01,5.064e-01,9.542e-01,3.886e-01,8.536e-01,4.838e-01,1.042e+00,3.735e-01,4.865e-01,1.009e+00,4.218e-01,8.944e-01,6.231e-01,1.348e+00,6.471e-01,8.080e-01,1.096e+00,8.136e-01,7.706e-01,1.053e+00,4.094e-01,1.241e+00,6.591e-01,5.674e-01,1.272e+00,1.037e+00,9.220e-01,8.593e-01,1.086e+00,1.198e+00,1.262e+00,1.513e+00,5.574e-01,7.247e-01,6.525e-01,1.061e+00,1.165e+00,1.017e+00,8.293e-01,1.133e+00,6.859e-01,1.200e+00,9.327e-01,7.700e-01,6.522e-01,7.247e-01,1.294e+00,9.929e-01,1.003e+00,7.942e-01,1.383e+00,2.999e-01,5.468e-01,3.889e-01,7.182e-01,1.087e+00,6.023e-01,9.329e-01,1.097e+00,7.182e-01
3.147e-01,8.158e-01,9.499e-01,1.759e+00,1.167e+00,1.624e+00,1.234e+00,1.442e+00,1.570e+00,5.098e-01,1.029e+00,1.433e+00,2.234e+00,1.701e+00,2.108e+00,7.356e-01,1.600e+00,1.559e+00,1.080e+00,6.941e-01,1.503e+00,1.659e+00,2.016e+00,1.371e+00,1.160e+00,1.004e+00,1.425e+00,1.590e+00,6.374e-01,9.904e-01,1.313e+00,2.040e+00,8.547e-01,8.046e-01,9.526e-01,1.243e+00,7.115e-01,1.415e+00,1.349e+00,1.078e+00,8.435e-01,1.327e+00,1.262e+00,1.839e+00,1.570e+00,1.710e+00,1.430e+00,2.234e+00,1.820e+00,2.737e+00,7.460e-01,1.748e+00,1.308e+00,1.744e+00,1.006e+00,1.585e+00,1.554e+00,1.904e+00,1.975e+00,1.888e+00,1.299e+00,1.832e+00,8.445e-01,1.090e+00,1.588e+00,1.586e+00,1.965e+00,1.578e+00,1.689e+00,7.095e-01,1.342e+00,1.608e+00,2.109e+00,1.670e+00,1.309e+00,1.609e+00,1.209e+00,1.291e+00
7.721e-02,2.511e-01,6.476e-01,8.533e-01,1.682e+00,1.572e+00,8.124e-01,7.226e-01,8.714e-01,8.653e-01,6.901e-01,7.094e-01,1.276e+00,1.200e+00,7.853e-01,1.385e+00,1.755e+00,1.511e+00,5.571e-01,1.145e+00,1.159e+00,1.247e+00,1.002e+00,1.345e+00,1.579e+00,5.235e-01,1.312e+00,9.770e-01,6.247e-01,1.065e+00,6.979e-01,1.309e+00,5.027e-01,1.115e+00,1.524e+00,7.048e-01,1.092e+00,1.622e+00,1.287e+00,9.074e-01,6.427e-01,8.578e-01,1.518e+00,1.120e+00,9.963e-01,1.389e+00,1.238e+00,1.009e+00,1.576e+00,1.890e+00,4.687e-01,1.528e+00,1.291e+00,8.740e-01,1.581e+00,1.347e+00,1.555e+00,1.222e+00,1.155e+00,1.529e+00,1.342e+00,7.782e-01,1.393e+00,1.036e+00,1.298e+00,1.399e+00,1.896e+00,1.009e+00,1.567e+00,1.049e+00,1.366e+00,7.044e-01,1.364e+00,1.516e+00,1.413e+00,1.076e+00,1.413e+00,9.894e-01
1.310e-01,3.879e-01,9.792e-01,1.144e+00,1.505e+00,1.577e+00,1.158e+00,1.152e+00,1.317e+00,1.634e+00,1.370e+00,1.367e+00,1.725e+00,1.993e+00,1.100e+00,1.143e+00,1.916e+00,1.418e+00,1.184e+00,1.566e+00,1.346e+00,1.780e+00,1.539e+00,9.458e-01,1.898e+00,7.332e-01,1.054e+00,2.187e+00,9.060e-01,1.990e+00,1.290e+00,1.626e+00,1.659e+00,1.213e+00,1.788e+00,9.922e-01,1.556e+00,1.559e+00,1.415e+00,1.610e+00,1.317e+00,9.738e-01,1.754e+00,1.610e+00,1.269e+00,1.376e+00,2.113e+00,2.272e+00,2.037e+00,2.239e+00,1.285e+00,1.697e+00,1.230e+00,1.759e+00,2.153e+00,1.610e+00,2.093e+00,1.909e+00,1.793e+00,1.700e+00,1.882e+00,1.069e+00,1.315e+00,1.620e+00,2.486e+00,2.097e+00,2.512e+00,2.095e+00,2.401e+00,8.180e-01,2.015e+00,1.174e+00,1.513e+00,1.774e+00,1.613e+00,2.135e+00,1.746e+00,1.007e+00
2.635e-01,5.873e-01,4.789e-01,8.972e-01,1.227e+00,1.880e+00,1.589e+00,2.237e+00,1.842e+00,1.618e+00,1.549e+00,1.824e+00,2.212e+00,2.450e+00,1.636e+00,2.005e+00,1.971e+00,2.188e+00,1.632e+00,1.542e+00,1.431e+00,2.313e+00,2.190e+00,1.549e+00,1.951e+00,1.138e+00,1.513e+00,1.569e+00,1.131e+00,1.672e+00,1.852e+00,2.186e+00,8.688e-01,1.097e+00,2.056e+00,1.180e+00,1.246e+00,1.952e+00,2.563e+00,1.484e+00,1.234e+00,1.350e+00,1.651e+00,2.471e+00,1.800e+00,2.400e+00,2.133e+00,2.539e+00,2.717e+00,2.342e+00,1.652e+00,2.167e+00,1.518e+00,1.724e+00,2.444e+00,2.018e+00,2.214e+00,1.760e+00,2.246e+00,2.194e+00,1.518e+00,1.749e+00,1.287e+00,2.157e+00,1.797e+00,2.151e+00,2.281e+00,1.574e+00,2.062e+00,1.208e+00,1.985e+00,2.199e+00,2.465e+00,2.389e+00,1.857e+00,1.548e+00,1.595e+00,1.296e+00
1.416e-01,4.381e-01,9.017e-01,1.411e+00,1.583e+00,1.609e+00,1.843e+00,2.788e+00,2.914e+00,2.505e+00,1.928e+00,2.381e+00,2.930e+00,2.884e+00,2.267e+00,2.154e+00,2.630e+00,3.039e+00,1.940e+00,2.298e+00,2.222e+00,3.147e+00,2.975e+00,2.089e+00,2.651e+00,1.830e+00,1.453e+00,2.591e+00,1.239e+00,2.133e+00,2.294e+00,2.472e+00,1.808e+00,2.007e+00,2.879e+00,2.375e+00,1.601e+00,2.989e+00,2.265e+00,2.510e+00,2.446e+00,1.901e+00,2.082e+00,3.167e+00,2.953e+00,2.977e+00,2.681e+00,3.341e+00,2.982e+00,3.469e+00,2.224e+00,2.555e+00,1.936e+00,2.918e+00,2.717e+00,2.795e+00,3.067e+00,2.148e+00,2.583e+00,2.378e+00,1.780e+00,1.582e+00,1.618e+00,2.313e+00,2.438e+00,2.238e+00,2.944e+00,2.153e+00,2.549e+00,1.551e+00,2.396e+00,2.471e+00,3.052e+00,3.166e+00,2.370e+00,2.537e+00,2.992e+00,1.626e+00
2.021e-01,6.474e-01,1.067e+00,1.729e+00,2.193e+00,2.276e+00,1.822e+00,2.783e+00,3.154e+00,2.348e+00,2.064e+00,2.631e+00,3.952e+00,3.875e+00,3.339e+00,3.559e+00,3.454e+00,3.988e+00,3.003e+00,2.285e+00,3.123e+00,3.652e+00,3.129e+00,2.762e+00,3.640e+00,1.871e+00,2.177e+00,3.131e+00,1.769e+00,3.064e+00,2.684e+00,3.406e+00,1.760e+00,2.640e+00,2.938e+00,2.334e+00,1.990e+00,3.772e+00,3.089e+00,2.943e+00,2.436e+00,2.988e+00,2.331e+00,3.115e+00,2.884e+00,3.336e+00,2.963e+00,4.353e+00,4.177e+00,3.955e+00,2.102e+00,3.761e+00,2.421e+00,3.179e+00,3.586e+00,3.228e+00,3.244e+00,2.639e+00,3.290e+00,3.279e+00,2.261e+00,1.924e+00,2.215e+00,3.164e+00,3.722e+00,3.427e+00,3.861e+00,3.476e+00,3.580e+00,2.824e+00,3.679e+00,3.396e+00,3.645e+00,3.655e+00,2.846e+00,3.655e+00,3.610e+00,2.135e+00
2.846e-01,8.098e-01,1.225e+00,1.457e+00,1.263e+00,1.351e+00,1.685e+00,1.939e+00,2.773e+00,2.256e+00,2.904e+00,2.069e+00,3.551e+00,3.057e+00,3.108e+00,2.793e+00,2.457e+00,3.251e+00,2.177e+00,1.424e+00,2.830e+00,2.593e+00,2.251e+00,2.157e+00,3.391e+00,1.915e+00,1.445e+00,2.711e+00,2.179e+00,2.838e+00,2.920e+00,2.656e+00,1.621e+00,2.271e+00,2.233e+00,1.754e+00,2.271e+00,2.863e+00,2.793e+00,3.603e+00,2.108e+00,2.190e+00,2.408e+00,3.128e+00,2.299e+00,2.904e+00,2.721e+00,3.912e+00,3.887e+00,3.643e+00,2.217e+00,2.338e+00,1.896e+00,2.594e+00,2.792e+00,2.970e+00,2.176e+00,2.438e+00,2.520e+00,2.740e+00,2.156e+00,2.276e+00,1.302e+00,2.975e+00,3.889e+00,2.921e+00,2.767e+00,2.764e+00,3.108e+00,1.959e+00,2.753e+00,3.038e+00,2.690e+00,3.510e+00,2.014e+00,3.206e+00,3.502e+00,2.390e+00
1.221e-01,4.371e-01,6.434e-01,8.094e-01,1.407e+00,1.444e+00,9.374e-01,2.011e+00,2.116e+00,2.432e+00,2.496e+00,1.913e+00,3.859e+00,2.785e+00,3.694e+00,3.592e+00,3.017e+00,4.176e+00,2.518e+00,2.950e+00,2.756e+00,3.821e+00,2.358e+00,3.023e+00,3.537e+00,2.262e+00,1.953e+00,3.501e+00,2.421e+00,3.117e+00,3.327e+00,2.399e+00,2.301e+00,2.578e+00,3.177e+00,2.029e+00,3.150e+00,3.844e+00,3.419e+00,3.345e+00,2.341e+00,2.926e+00,2.379e+00,3.402e+00,2.426e+00,3.618e+00,3.442e+00,4.092e+00,4.204e+00,3.258e+00,2.555e+00,2.645e+00,2.739e+00,2.608e+00,3.232e+00,3.273e+00,3.016e+00,2.783e+00,2.746e+00,2.859e+00,2.817e+00,2.008e+00,1.706e+00,3.324e+00,4.042e+00,3.769e+00,4.059e+00,3.227e+00,3.405e+00,2.606e+00,4.144e+00,3.152e+00,3.613e+00,3.441e+00,2.675e+00,3.659e+00,4.206e+00,2.867e+00
2.592e-01,6.258e-01,5.980e-01,9.483e-01,9.666e-01,1.577e+00,1.203e+00,2.119e+00,2.171e+00,1.904e+00,1.911e+00,2.457e+00,3.637e+00,3.292e+00,3.220e+00,3.192e+00,2.343e+00,4.013e+00,2.563e+00,2.081e+00,3.068e+00,3.221e+00,3.178e+00,2.277e+00,3.001e+00,1.705e+00,1.660e+00,3.769e+00,1.700e+00,2.970e+00,2.939e+00,2.415e+00,2.666e+00,2.253e+00,3.065e+00,2.725e+00,2.188e+00,2.921e+00,2.752e+00,2.949e+00,2.007e+00,2.857e+00,2.161e+00,3.132e+00,2.744e+00,2.577e+00,3.230e+00,4.091e+00,3.649e+00,3.758e+00,2.731e+00,2.809e+00,2.137e+00,2.744e+00,3.603e+00,3.145e+00,2.904e+00,3.034e+00,2.774e+00,2.753e+00,2.317e+00,2.666e+00,1.899e+00,2.997e+00,3.601e+00,3.833e+00,3.296e+00,3.288e+00,3.341e+00,2.878e+00,3.895e+00,3.733e+00,3.167e+00,3.292e+00,2.123e+00,3.715e+00,3.293e+00,2.663e+00
1.222e-01,4.661e-01,8.629e-01,1.043e+00,1.541e+00,1.287e+00,6.309e-01,1.233e+00,2.054e+00,1.710e+00,1.938e+00,1.289e+00,3.805e+00,2.735e+00,3.746e+00,3.738e+00,2.686e+00,4.068e+00,2.580e+00,2.868e+00,3.950e+00,2.836e+00,2.882e+00,4.000e+00,3.275e+00,1.913e+00,2.057e+00,3.501e+00,2.303e+00,3.183e+00,2.840e+00,2.603e+00,2.211e+00,3.488e+00,2.506e+00,2.924e+00,3.312e+00,4.554e+00,3.305e+00,2.957e+00,2.679e+00,3.626e+00,2.988e+00,2.967e+00,2.409e+00,3.065e+00,3.450e+00,3.555e+00,3.604e+00,3.847e+00,2.318e+00,2.558e+00,3.013e+00,2.574e+00,3.233e+00,3.763e+00,3.222e+00,2.712e+00,2.628e+00,3.490e+00,3.039e+00,1.779e+00,2.136e+00,2.512e+00,3.860e+00,3.044e+00,3.706e+00,3.092e+00,3.836e+00,2.963e+00,3.533e+00,3.309e+00,3.661e+00,3.442e+00,2.812e+00,3.486e+00,4.919e+00,3.304e+00
8.333e-02,2.756e-01,8.424e-01,1.375e+00,1.295e+00,1.414e+00,1.424e+00,1.745e+00,1.885e+00,2.510e+00,2.514e+00,2.691e+00,3.706e+00,4.161e+00,3.956e+00,4.124e+00,3.336e+00,5.298e+00,2.936e+00,3.310e+00,4.179e+00,3.284e+00,3.691e+00,4.122e+00,4.192e+00,2.523e+00,2.374e+00,4.953e+00,3.245e+00,4.622e+00,3.765e+00,3.441e+00,4.739e+00,3.195e+00,4.474e+00,4.339e+00,4.089e+00,3.873e+00,3.542e+00,4.720e+00,3.088e+00,3.426e+00,2.967e+00,4.085e+00,3.485e+00,4.183e+00,3.945e+00,5.416e+00,4.362e+00,5.375e+00,3.772e+00,3.823e+00,3.387e+00,3.563e+00,4.118e+00,4.298e+00,4.168e+00,3.857e+00,3.923e+00,3.629e+00,3.955e+00,3.961e+00,3.003e+00,4.210e+00,4.491e+00,4.620e+00,5.032e+00,4.227e+00,4.960e+00,3.434e+00,5.579e+00,4.070e+00,4.395e+00,3.897e+00,3.242e+00,4.281e+00,4.883e+00,4.629e+00
1.620e-01,5.029e-01,1.120e+00,1.329e+00,1.480e+00,1.395e+00,1.287e+00,1.407e+00,2.088e+00,2.215e+00,2.500e+00,1.883e+00,3.513e+00,3.545e+00,4.316e+00,3.855e+00,3.791e+00,4.562e+00,3.197e+00,3.591e+00,4.014e+00,3.303e+00,3.877e+00,4.170e+00,4.469e+00,3.192e+00,2.265e+00,4.014e+00,3.924e+00,4.302e+00,4.219e+00,3.233e+00,3.764e+00,3.731e+00,4.444e+00,3.907e+00,4.320e+00,4.848e+00,3.652e+00,4.496e+00,3.276e+00,3.519e+00,3.730e+00,3.840e+00,3.340e+00,4.509e+00,4.452e+00,5.446e+00,4.847e+00,4.787e+00,3.866e+00,3.916e+00,3.976e+00,3.229e+00,4.049e+00,4.479e+00,4.139e+00,3.912e+00,4.135e+00,4.060e+00,4.016e+00,3.922e+00,3.234e+00,3.626e+00,5.107e+00,4.027e+00,5.015e+00,3.865e+00,4.769e+00,3.173e+00,4.707e+00,3.489e+00,4.768e+00,4.083e+00,4.116e+00,4.288e+00,5.520e+00,4.098e+00
2.733e-03,1.768e-01,7.504e-01,1.214e+00,1.543e+00,1.206e+00,1.429e+00,2.262e+00,2.359e+00,2.507e+00,2.130e+00,2.338e+00,3.125e+00,2.836e+00,3.636e+00,4.704e+00,4.506e+00,4.998e+00,3.739e+00,3.419e+00,3.947e+00,4.588e+00,4.312e+00,3.870e+00,5.059e+00,3.413e+00,2.934e+00,4.357e+00,3.621e+00,3.677e+00,4.590e+00,2.731e+00,3.713e+00,3.652e+00,4.818e+00,4.350e+00,4.196e+00,4.898e+00,4.183e+00,4.057e+00,3.713e+00,3.540e+00,3.392e+00,4.003e+00,4.363e+00,4.459e+00,4.015e+00,5.700e+00,4.771e+00,4.445e+00,4.782e+00,3.772e+00,3.882e+00,4.069e+00,3.985e+00,4.272e+00,3.853e+00,3.271e+00,3.635e+00,4.119e+00,3.802e+00,3.509e+00,3.516e+00,3.708e+00,4.351e+00,4.077e+00,5.197e+00,3.577e+00,3.593e+00,3.072e+00,4.542e+00,4.324e+00,4.443e+00,4.982e+00,4.478e+00,4.452e+00,5.386e+00,3.675e+00
4.800e-02,1.221e-01,1.935e-01,2.768e-01,1.020e+00,1.091e+00,6.968e-01,1.048e+00,1.296e+00,1.287e+00,1.151e+00,1.624e+00,2.492e+00,2.744e+00,2.740e+00,4.454e+00,3.703e+00,5.144e+00,3.151e+00,3.157e+00,4.376e+00,3.792e+00,3.583e+00,4.067e+00,3.963e+00,2.238e+00,2.920e+00,4.183e+00,3.075e+00,3.944e+00,3.595e+00,2.903e+00,3.585e+00,3.347e+00,4.603e+00,3.412e+00,3.712e+00,4.020e+00,3.245e+00,3.938e+00,2.565e+00,3.745e+00,2.540e+00,3.404e+00,3.017e+00,3.791e+00,3.130e+00,4.042e+00,4.341e+00,3.469e+00,3.484e+00,3.792e+00,3.367e+00,3.339e+00,3.617e+00,3.077e+00,2.664e+00,2.891e+00,2.449e+00,3.667e+00,3.039e+00,2.750e+00,3.465e+00,3.215e+00,3.958e+00,4.748e+00,4.580e+00,3.373e+00,3.399e+00,4.106e+00,4.894e+00,4.014e+00,3.441e+00,3.660e+00,3.683e+00,4.004e+00,4.340e+00,3.524e+00
2.492e-01,6.537e-01,7.616e-01,1.034e+00,1.693e+00,2.132e+00,9.011e-01,1.764e+00,1.942e+00,1.670e+00,1.535e+00,2.108e+00,3.845e+00,3.596e+00,3.638e+00,4.613e+00,3.884e+00,5.758e+00,3.665e+00,3.872e+00,5.289e+00,5.367e+00,4.645e+00,4.644e+00,4.520e+00,3.443e+00,4.087e+00,5.268e+00,2.922e+00,4.697e+00,4.477e+00,3.149e+00,4.101e+00,4.279e+00,4.415e+00,4.430e+00,4.240e+00,4.948e+00,4.167e+00,4.032e+00,3.260e+00,4.725e+00,4.024e+00,3.819e+00,3.946e+00,3.406e+00,4.376e+00,5.918e+00,5.597e+00,4.804e+00,3.676e+00,4.430e+00,4.075e+00,4.362e+00,4.584e+00,4.041e+00,4.407e+00,4.507e+00,3.962e+00,4.782e+00,3.560e+00,3.745e+00,3.952e+00,3.977e+00,5.458e+00,6.137e+00,6.338e+00,4.738e+00,5.106e+00,4.204e+00,5.995e+00,4.444e+00,4.262e+00,4.634e+00,4.589e+00,5.248e+00,5.592e+00,3.968e+00
1.737e-01,4.943e-01,6.334e-01,1.262e+00,1.339e+00,1.758e+00,1.171e+00,2.519e+00,2.193e+00,2.603e+00,2.460e+00,2.390e+00,4.231e+00,3.866e+00,4.372e+00,4.673e+00,4.684e+00,6.119e+00,4.436e+00,5.191e+00,6.379e+00,5.914e+00,6.249e+00,6.311e+00,5.903e+00,4.343e+00,4.513e+00,6.632e+00,4.533e+00,5.988e+00,5.958e+00,3.865e+00,5.345e+00,4.832e+00,5.657e+00,5.119e+00,4.938e+00,5.180e+00,5.455e+00,5.243e+00,4.310e+00,5.169e+00,4.630e+00,6.253e+00,4.705e+00,5.457e+00,5.598e+00,6.842e+00,5.687e+00,6.121e+00,5.493e+00,5.458e+00,4.903e+00,5.422e+00,4.294e+00,4.899e+00,5.850e+00,4.903e+00,5.022e+00,5.426e+00,4.974e+00,5.395e+00,4.569e+00,5.431e+00,6.215e+00,6.645e+00,7.403e+00,4.982e+00,5.046e+00,4.648e+00,6.488e+00,5.966e+00,6.265e+00,5.327e+00,6.355e+00,5.500e+00,6.081e+00,5.067e+00
1.407e-01,4.069e-01,8.158e-01,1.008e+00,1.810e+00,1.830e+00,1.175e+00,1.318e+00,1.683e+00,1.615e+00,1.487e+00,1.399e+00,2.487e+00,3.054e+00,2.208e+00,3.743e+00,3.349e+00,3.931e+00,2.857e+00,3.602e+00,5.124e+00,3.724e+00,4.181e+00,4.946e+00,5.153e+00,3.130e+00,3.757e+00,4.668e+00,3.538e+00,4.852e+00,3.636e+00,3.703e+00,3.179e+00,4.552e+00,4.367e+00,4.024e+00,3.740e+00,4.855e+00,4.009e+00,3.359e+00,3.514e+00,4.472e+00,3.878e+00,3.432e+00,3.603e+00,4.159e+00,4.292e+00,5.371e+00,4.745e+00,4.857e+00,3.228e+00,4.181e+00,3.405e+00,3.695e+00,4.045e+00,3.263e+00,3.951e+00,3.664e+00,3.929e+00,4.340e+00,3.339e+00,3.001e+00,4.327e+00,4.071e+00,4.340e+00,4.754e+00,5.721e+00,4.226e+00,4.634e+00,4.024e+00,4.332e+00,3.401e+00,4.060e+00,4.108e+00,5.276e+00,4.015e+00,4.610e+00,3.601e+00
1.541e-01,3.805e-01,3.579e-01,4.121e-01,3.383e-01,5.480e-01,3.362e-01,6.942e-01,8.821e-01,8.067e-01,1.162e+00,8.909e-01,2.109e+00,1.960e+00,2.698e+00,2.886e+00,2.207e+00,4.017e+00,2.302e+00,3.639e+00,5.595e+00,3.851e+00,5.015e+00,4.798e+00,3.848e+00,4.164e+00,3.786e+00,5.312e+00,3.070e+00,4.690e+00,4.658e+00,3.312e+00,4.146e+00,4.434e+00,4.328e+00,4.670e+00,4.548e+00,4.285e+00,3.711e+00,4.388e+00,3.688e+00,4.742e+00,4.329e+00,4.551e+00,4.224e+00,3.567e+00,4.173e+00,4.804e+00,4.677e+00,4.830e+00,4.513e+00,4.000e+00,4.156e+00,3.780e+00,3.158e+00,3.974e+00,4.737e+00,4.452e+00,4.231e+00,3.932e+00,3.772e+00,4.581e+00,3.210e+00,3.680e+00,4.751e+00,5.329e+00,5.761e+00,4.046e+00,4.267e+00,4.065e+00,4.760e+00,4.319e+00,4.860e+00,3.610e+00,4.974e+00,3.555e+00,5.791e+00,4.456e+00
3.121e-02,7.977e-02,5.390e-01,1.350e+00,1.854e+00,2.120e+00,1.599e+00,2.491e+00,2.103e+00,2.566e+00,1.556e+00,2.651e+00,3.381e+00,3.652e+00,3.269e+00,4.381e+00,4.786e+00,5.551e+00,4.543e+00,4.843e+00,6.149e+00,6.518e+00,7.476e+00,6.238e+00,5.608e+00,4.078e+00,4.627e+00,6.885e+00,4.254e+00,5.263e+00,5.042e+00,5.291e+00,5.956e+00,5.598e+00,6.384e+00,6.165e+00,5.700e+00,6.038e+00,5.326e+00,4.833e+00,4.851e+00,5.410e+00,4.785e+00,6.344e+00,5.961e+00,5.376e+00,6.063e+00,7.038e+00,5.794e+00,6.896e+00,5.715e+00,6.050e+00,5.095e+00,6.660e+00,5.841e+00,5.983e+00,6.575e+00,4.919e+00,5.005e+00,6.140e+00,5.488e+00,4.749e+00,5.523e+00,5.013e+00,5.256e+00,6.878e+00,7.941e+00,5.755e+00,5.756e+00,5.266e+00,6.869e+00,5.571e+00,5.824e+00,5.859e+00,6.429e+00,6.250e+00,6.464e+00,4.893e+00
6.041e-02,1.730e-01,3.125e-01,9.157e-01,1.286e+00,1.704e+00,1.347e+00,2.811e+00,2.330e+00,3.060e+00,2.405e+00,2.794e+00,4.209e+00,3.943e+00,4.213e+00,5.011e+00,4.716e+00,5.953e+00,5.148e+00,4.879e+00,5.784e+00,6.337e+00,6.862e+00,6.383e+00,5.799e+00,4.322e+00,4.687e+00,7.396e+00,4.673e+00,5.839e+00,5.792e+00,4.752e+00,6.261e+00,5.841e+00,5.704e+00,5.507e+00,5.882e+00,5.948e+00,6.211e+00,5.328e+00,4.877e+00,5.486e+00,4.445e+00,6.263e+00,5.079e+00,5.845e+00,5.955e+00,7.287e+00,6.406e+00,6.343e+00,5.852e+00,5.786e+00,5.808e+00,6.506e+00,6.595e+00,6.272e+00,5.803e+00,5.277e+00,5.014e+00,6.525e+00,5.930e+00,4.751e+00,5.247e+00,5.847e+00,6.382e+00,7.629e+00,7.928e+00,6.413e+00,6.156e+00,5.512e+00,6.889e+00,7.137e+00,6.147e+00,5.737e+00,6.618e+00,6.182e+00,6.853e+00,4.651e+00
3.362e-01,7.692e-01,7.281e-01,7.333e-01,1.187e+00,1.671e+00,1.534e+00,1.949e+00,2.355e+00,1.797e+00,2.150e+00,2.183e+00,3.332e+00,3.684e+00,3.254e+00,4.482e+00,3.049e+00,5.508e+00,2.599e+00,4.105e+00,6.183e+00,5.009e+00,5.914e+00,6.443e+00,7.266e+00,6.242e+00,5.533e+00,7.224e+00,4.226e+00,6.583e+00,6.347e+00,5.712e+00,5.475e+00,5.890e+00,6.687e+00,6.211e+00,5.727e+00,6.331e+00,6.086e+00,5.814e+00,5.136e+00,6.396e+00,5.671e+00,6.472e+00,5.854e+00,6.122e+00,6.180e+00,7.430e+00,7.150e+00,8.274e+00,5.358e+00,5.728e+00,5.919e+00,5.857e+00,6.347e+00,5.967e+00,5.595e+00,6.797e+00,5.976e+00,5.956e+00,4.836e+00,6.702e+00,6.231e+00,6.458e+00,6.521e+00,8.251e+00,7.580e+00,5.272e+00,6.912e+00,7.054e+00,6.587e+00,5.669e+00,6.813e+00,5.368e+00,7.014e+00,5.244e+00,6.894e+00,6.501e+00
7.819e-02,3.423e-01,6.115e-01,1.144e+00,1.425e+00,1.439e+00,6.096e-01,1.911e+00,2.090e+00,2.276e+00,2.189e+00,2.060e+00,4.679e+00,3.278e+00,5.127e+00,4.525e+00,3.860e+00,5.846e+00,3.837e+00,4.023e+00,5.282e+00,5.594e+00,5.636e+00,6.294e+00,6.151e+00,5.048e+00,4.696e+00,7.295e+00,5.226e+00,5.894e+00,5.698e+00,4.503e+00,5.718e+00,5.701e+00,5.473e+00,5.753e+00,6.423e+00,6.963e+00,5.913e+00,5.363e+00,5.047e+00,6.441e+00,5.198e+00,6.558e+00,5.220e+00,6.335e+00,6.408e+00,7.621e+00,6.097e+00,7.514e+00,5.411e+00,5.786e+00,6.237e+00,6.491e+00,6.265e+00,6.503e+00,5.989e+00,5.625e+00,5.159e+00,6.359e+00,5.919e+00,5.430e+00,5.962e+00,5.713e+00,6.741e+00,7.059e+00,7.610e+00,6.116e+00,6.579e+00,6.765e+00,6.955e+00,5.716e+00,7.090e+00,5.642e+00,6.217e+00,6.879e+00,7.301e+00,6.091e+00
2.542e-01,6.198e-01,9.971e-01,1.329e+00,1.837e+00,2.140e+00,1.977e+00,2.451e+00,3.008e+00,2.709e+00,2.615e+00,2.758e+00,4.196e+00,4.958e+00,4.320e+00,5.585e+00,5.116e+00,6.918e+00,4.647e+00,5.379e+00,7.785e+00,6.131e+00,7.417e+00,7.486e+00,7.606e+00,6.488e+00,6.581e+00,8.071e+00,6.456e+00,8.275e+00,7.502e+00,6.508e+00,6.901e+00,7.638e+00,7.827e+00,7.859e+00,7.132e+00,7.936e+00,6.977e+00,7.057e+00,6.589e+00,7.697e+00,6.412e+00,7.740e+00,6.912e+00,8.038e+00,7.566e+00,8.946e+00,8.796e+00,9.102e+00,7.428e+00,7.821e+00,6.762e+00,7.977e+00,8.132e+00,7.337e+00,7.083e+00,7.144e+00,7.263e+00,7.499e+00,6.589e+00,7.093e+00,7.825e+00,7.489e+00,7.646e+00,9.126e+00,9.225e+00,7.235e+00,8.181e+00,7.373e+00,7.997e+00,6.886e+00,8.256e+00,7.154e+00,8.420e+00,7.527e+00,8.478e+00,6.800e+00
2.459e-01,5.883e-01,6.232e-01,1.138e+00,1.401e+00,1.959e+00,1.314e+00,2.550e+00,2.446e+00,2.369e+00,2.115e+00,2.281e+00,4.128e+00,3.399e+00,3.944e+00,3.758e+00,3.465e+00,4.945e+00,3.480e+00,3.810e+00,5.255e+00,5.024e+00,5.939e+00,5.728e+00,5.520e+00,4.779e+00,4.891e+00,6.994e+00,5.380e+00,5.812e+00,5.542e+00,5.331e+00,5.740e+00,6.158e+00,6.024e+00,6.412e+00,5.895e+00,6.699e+00,5.935e+00,5.101e+00,5.452e+00,6.708e+00,5.622e+00,6.957e+00,5.502e+00,6.551e+00,6.879e+00,6.923e+00,6.422e+00,7.544e+00,6.121e+00,6.485e+00,5.748e+00,6.855e+00,6.133e+00,7.064e+00,6.074e+00,5.806e+00,6.246e+00,5.824e+00,5.585e+00,5.673e+00,6.147e+00,6.196e+00,6.097e+00,7.343e+00,7.354e+00,6.192e+00,6.656e+00,5.983e+00,6.717e+00,5.661e+00,7.629e+00,5.744e+00,6.583e+00,6.426e+00,6.799e+00,5.654e+00
1.468e-01,4.352e-01,8.426e-01,1.128e+00,1.548e+00,1.686e+00,1.335e+00,2.239e+00,2.674e+00,2.528e+00,2.106e+00,2.646e+00,4.118e+00,4.179e+00,4.332e+00,4.658e+00,4.632e+00,6.240e+00,4.473e+00,5.249e+00,7.052e+00,6.351e+00,7.076e+00,6.357e+00,6.662e+00,5.636e+00,5.640e+00,9.179e+00,6.146e+00,8.543e+00,7.466e+00,6.584e+00,7.293e+00,8.023e+00,8.178e+00,7.511e+00,7.929e+00,8.086e+00,6.283e+00,7.338e+00,7.337e+00,8.428e+00,6.824e+00,8.417e+00,6.635e+00,7.637e+00,8.590e+00,9.431e+00,8.839e+00,7.979e+00,7.738e+00,8.588e+00,7.117e+00,8.151e+00,7.966e+00,7.561e+00,7.914e+00,7.363e+00,7.269e+00,7.686e+00,6.927e+00,6.084e+00,7.544e+00,7.256e+00,8.744e+00,9.040e+00,9.734e+00,8.694e+00,7.835e+00,7.605e+00,9.015e+00,7.335e+00,8.492e+00,6.788e+00,8.180e+00,8.242e+00,8.901e+00,7.013e+00
1.509e-01,3.741e-01,3.787e-01,8.143e-01,1.389e+00,1.782e+00,9.182e-01,1.553e+00,1.252e+00,1.601e+00,1.645e+00,1.764e+00,3.038e+00,3.132e+00,3.064e+00,4.359e+00,3.748e+00,5.496e+00,3.050e+00,3.875e+00,6.554e+00,5.734e+00,6.632e+00,6.713e+00,7.302e+00,6.365e+00,6.873e+00,8.517e+00,7.040e+00,8.648e+00,7.734e+00,7.548e+00,8.211e+00,8.571e+00,8.983e+00,7.399e+00,7.935e+00,6.503e+00,8.014e+00,7.879e+00,6.683e+00,8.708e+00,7.017e+00,9.309e+00,7.460e+00,8.301e+00,8.368e+00,9.302e+00,9.217e+00,9.428e+00,7.155e+00,9.145e+00,7.709e+00,8.272e+00,8.316e+00,8.142e+00,8.328e+00,8.434e+00,8.050e+00,8.472e+00,7.029e+00,8.682e+00,9.415e+00,9.103e+00,8.607e+00,1.029e+01,1.109e+01,8.859e+00,7.590e+00,9.081e+00,1.006e+01,7.943e+00,9.016e+00,6.635e+00,8.826e+00,8.113e+00,8.793e+00,8.586e+00
1.062e-02,1.479e-01,4.512e-01,8.688e-01,8.877e-01,8.449e-01,1.109e+00,2.187e+00,2.329e+00,2.684e+00,2.484e+00,2.382e+00,3.790e+00,3.416e+00,4.253e+00,4.665e+00,3.669e+00,4.848e+00,4.437e+00,3.461e+00,4.975e+00,4.552e+00,5.376e+00,5.709e+00,6.870e+00,5.143e+00,4.714e+00,7.678e+00,5.754e+00,7.634e+00,7.676e+00,6.121e+00,6.564e+00,7.119e+00,6.157e+00,6.832e+00,7.842e+00,7.649e+00,7.905e+00,6.797e+00,6.855e+00,7.699e+00,6.307e+00,8.839e+00,6.295e+00,7.434e+00,7.739e+00,9.551e+00,8.126e+00,8.096e+00,7.951e+00,7.553e+00,7.122e+00,7.828e+00,8.001e+00,7.894e+00,7.522e+00,6.430e+00,7.373e+00,7.629e+00,7.351e+00,6.798e+00,7.418e+00,7.741e+00,8.919e+00,7.974e+00,8.403e+00,7.703e+00,7.348e+00,7.883e+00,8.072e+00,7.721e+00,8.513e+00,6.234e+00,7.022e+00,7.223e+00,8.597e+00,6.975e+00
1.555e-01,3.353e-01,2.870e-01,6.390e-01,4.349e-01,8.629e-01,6.039e-01,1.003e+00,9.847e-01,1.089e+00,1.417e+00,1.555e+00,2.778e+00,2.566e+00,3.275e+00,2.950e+00,2.598e+00,4.687e+00,2.211e+00,3.651e+00,5.780e+00,4.088e+00,5.838e+00,6.426e+00,5.345e+00,5.155e+00,5.091e+00,7.946e+00,4.882e+00,6.939e+00,6.703e+00,7.298e+00,7.897e+00,6.681e+00,7.251e+00,7.266e+00,7.386e+00,6.730e+00,6.914e+00,6.944e+00,6.364e+00,7.958e+00,6.132e+00,8.767e+00,6.477e+00,7.538e+00,7.080e+00,8.197e+00,7.616e+00,9.045e+00,6.732e+00,7.548e+00,7.108e+00,7.488e+00,6.463e+00,7.431e+00,7.192e+00,7.811e+00,6.554e+00,6.645e+00,6.590e+00,7.186e+00,7.667e+00,6.393e+00,7.360e+00,8.606e+00,9.099e+00,7.485e+00,7.710e+00,8.113e+00,8.525e+00,7.352e+00,8.362e+00,5.720e+00,7.243e+00,6.701e+00,8.236e+00,8.114e+00
3.046e-01,5.934e-01,8.103e-01,1.332e+00,1.627e+00,2.542e+00,1.932e+00,2.062e+00,1.869e+00,2.572e+00,2.612e+00,2.774e+00,3.873e+00,4.171e+00,4.069e+00,4.462e+00,4.537e+00,6.029e+00,4.174e+00,4.397e+00,6.207e+00,5.729e+00,6.975e+00,6.629e+00,6.894e+00,5.769e+00,6.215e+00,8.411e+00,6.971e+00,8.364e+00,8.647e+00,8.992e+00,9.074e+00,9.396e+00,9.264e+00,9.056e+00,9.836e+00,8.616e+00,9.574e+00,9.206e+00,7.926e+00,9.346e+00,8.962e+00,1.114e+01,7.895e+00,9.012e+00,9.856e+00,1.183e+01,1.113e+01,1.066e+01,9.282e+00,1.015e+01,8.782e+00,9.466e+00,9.979e+00,1.078e+01,1.076e+01,9.776e+00,9.347e+00,1.005e+01,8.640e+00,9.432e+00,9.602e+00,9.780e+00,1.090e+01,1.136e+01,1.195e+01,9.887e+00,1.039e+01,9.165e+00,1.130e+01,9.476e+00,9.912e+00,8.202e+00,9.560e+00,9.128e+00,1.075e+01,9.455e+00
1.290e-01,3.081e-01,6.362e-01,9.079e-01,1.148e+00,1.383e+00,1.604e+00,1.746e+00,1.983e+00,2.404e+00,2.501e+00,2.167e+00,3.061e+00,3.498e+00,3.055e+00,4.417e+00,3.295e+00,4.309e+00,3.696e+00,2.991e+00,4.474e+00,3.526e+00,4.317e+00,4.672e+00,5.407e+00,4.043e+00,4.793e+00,6.368e+00,5.569e+00,6.745e+00,6.921e+00,6.045e+00,6.960e+00,7.219e+00,5.784e+00,6.657e+00,7.383e+00,7.792e+00,8.364e+00,6.701e+00,7.151e+00,7.701e+00,6.518e+00,8.893e+00,6.271e+00,6.934e+00,7.299e+00,8.863e+00,8.378e+00,7.598e+00,7.679e+00,7.342e+00,6.739e+00,8.444e+00,8.899e+00,8.510e+00,7.888e+00,6.486e+00,6.796e+00,8.014e+00,7.843e+00,6.469e+00,8.090e+00,7.538e+00,8.640e+00,7.895e+00,8.448e+00,7.621e+00,7.815e+00,6.657e+00,7.565e+00,7.994e+00,8.699e+00,7.384e+00,7.233e+00,6.800e+00,8.518e+00,7.141e+00
1.777e-01,5.913e-01,1.128e+00,1.714e+00,2.167e+00,2.058e+00,1.351e+00,1.763e+00,2.089e+00,1.952e+00,2.262e+00,1.863e+00,3.841e+00,2.819e+00,4.308e+00,4.615e+00,4.972e+00,5.864e+00,3.716e+00,4.951e+00,6.890e+00,6.732e+00,6.925e+00,7.204e+00,7.193e+00,6.450e+00,6.771e+00,8.257e+00,6.381e+00,7.459e+00,8.104e+00,7.140e+00,7.527e+00,9.325e+00,9.066e+00,7.466e+00,9.225e+00,9.724e+00,9.066e+00,8.380e+00,7.247e+00,9.933e+00,8.636e+00,1.044e+01,9.010e+00,9.012e+00,8.330e+00,1.104e+01,1.028e+01,9.546e+00,8.100e+00,8.448e+00,9.260e+00,8.970e+00,8.122e+00,8.422e+00,9.611e+00,8.614e+00,8.641e+00,9.610e+00,8.016e+00,8.688e+00,9.272e+00,8.699e+00,9.654e+00,1.042e+01,1.233e+01,8.672e+00,8.675e+00,8.302e+00,9.401e+00,7.812e+00,1.013e+01,8.008e+00,9.667e+00,7.894e+00,1.100e+01,8.121e+00
8.859e-02,3.207e-01,8.468e-01,1.646e+00,2.077e+00,2.132e+00,1.855e+00,2.237e+00,2.268e+00,2.437e+00,2.376e+00,2.833e+00,3.773e+00,4.005e+00,3.885e+00,4.706e+00,4.614e+00,5.962e+00,3.667e+00,4.212e+00,5.544e+00,5.392e+00,5.498e+00,6.374e+00,6.706e+00,5.441e+00,6.134e+00,7.645e+00,5.830e+00,7.743e+00,7.460e+00,7.394e+00,7.568e+00,8.608e+00,9.163e+00,8.082e+00,8.385e+00,8.338e+00,8.867e+00,8.241e+00,7.498e+00,9.417e+00,7.531e+00,1.002e+01,7.710e+00,8.669e+00,8.134e+00,9.807e+00,9.978e+00,9.305e+00,7.654e+00,9.667e+00,8.492e+00,8.452e+00,8.691e+00,9.067e+00,8.699e+00,8.674e+00,8.512e+00,8.820e+00,8.416e+00,8.652e+00,9.480e+00,9.686e+00,9.309e+00,1.124e+01,1.074e+01,8.940e+00,8.687e+00,7.708e+00,1.015e+01,8.759e+00,9.993e+00,7.304e+00,8.482e+00,8.093e+00,9.280e+00,8.293e+00
1.911e-01,5.409e-01,1.074e+00,1.939e+00,1.705e+00,1.955e+00,1.778e+00,2.249e+00,2.295e+00,2.213e+00,2.211e+00,2.601e+00,3.688e+00,3.217e+00,3.749e+00,3.813e+00,3.927e+00,4.563e+00,3.682e+00,3.928e+00,5.249e+00,4.812e+00,5.781e+00,5.944e+00,6.452e+00,5.184e+00,6.041e+00,8.550e+00,5.645e+00,7.271e+00,7.826e+00,7.357e+00,8.386e+00,7.987e+00,7.238e+00,8.873e+00,9.113e+00,9.386e+00,9.909e+00,7.776e+00,8.616e+00,1.036e+01,8.589e+00,1.089e+01,8.282e+00,8.642e+00,9.336e+00,1.035e+01,8.971e+00,1.074e+01,9.202e+00,9.226e+00,8.704e+00,1.074e+01,8.627e+00,1.058e+01,9.994e+00,8.436e+00,8.883e+00,9.381e+00,9.806e+00,8.476e+00,9.815e+00,8.910e+00,1.081e+01,1.012e+01,1.129e+01,8.865e+00,9.700e+00,7.626e+00,9.649e+00,9.370e+00,1.160e+01,8.122e+00,9.209e+00,9.207e+00,9.887e+00,9.049e+00
2.783e-01,5.383e-01,6.458e-01,1.276e+00,1.456e+00,2.195e+00,1.832e+00,2.468e+00,2.620e+00,2.177e+00,1.763e+00,2.506e+00,3.752e+00,4.348e+00,3.615e+00,4.272e+00,3.611e+00,5.670e+00,4.007e+00,4.664e+00,7.209e+00,5.649e+00,7.560e+00,7.070e+00,6.771e+00,6.238e+00,6.212e+00,7.547e+00,5.369e+00,6.433e+00,6.644e+00,7.197e+00,7.105e+00,8.570e+00,8.189e+00,8.993e+00,8.513e+00,9.038e+00,9.023e+00,7.483e+00,8.100e+00,9.635e+00,8.541e+00,9.572e+00,8.752e+00,8.061e+00,8.232e+00,1.024e+01,9.666e+00,1.144e+01,8.572e+00,9.108e+00,8.501e+00,9.556e+00,8.432e+00,9.948e+00,1.026e+01,8.297e+00,8.976e+00,8.994e+00,7.907e+00,9.641e+00,9.705e+00,9.287e+00,8.653e+00,1.073e+01,1.061e+01,7.502e+00,9.761e+00,8.071e+00,9.945e+00,8.310e+00,1.047e+01,7.905e+00,9.726e+00,8.522e+00,9.611e+00,7.910e+00
1.534e-01,4.921e-01,1.064e+00,1.549e+00,1.801e+00,1.871e+00,1.949e+00,2.941e+00,3.242e+00,3.212e+00,2.754e+00,2.851e+00,4.056e+00,3.971e+00,3.536e+00,4.070e+00,4.478e+00,5.331e+00,4.090e+00,3.971e+00,5.599e+00,6.186e+00,6.100e+00,5.505e+00,6.292e+00,5.369e+00,5.250e+00,7.220e+00,5.870e+00,7.326e+00,7.478e+00,7.514e+00,7.455e+00,9.061e+00,9.256e+00,8.883e+00,9.617e+00,1.082e+01,1.058e+01,9.709e+00,9.910e+00,1.202e+01,9.977e+00,1.207e+01,9.460e+00,9.618e+00,1.022e+01,1.188e+01,1.144e+01,1.146e+01,1.011e+01,1.050e+01,9.111e+00,1.122e+01,9.870e+00,1.074e+01,1.030e+01,9.217e+00,9.895e+00,9.671e+00,8.956e+00,9.850e+00,1.101e+01,1.045e+01,1.083e+01,1.182e+01,1.150e+01,1.020e+01,1.059e+01,8.135e+00,1.198e+01,1.058e+01,1.168e+01,9.977e+00,9.338e+00,1.096e+01,1.163e+01,9.001e+00
2.382e-01,7.313e-01,1.037e+00,1.405e+00,1.222e+00,1.272e+00,1.248e+00,2.093e+00,2.874e+00,2.064e+00,2.454e+00,2.451e+00,4.401e+00,3.758e+00,4.710e+00,4.949e+00,4.006e+00,5.970e+00,4.078e+00,4.201e+00,6.668e+00,5.476e+00,5.526e+00,6.184e+00,7.314e+00,5.798e+00,5.581e+00,8.423e+00,6.052e+00,8.482e+00,8.104e+00,7.372e+00,7.648e+00,8.792e+00,8.110e+00,8.599e+00,9.469e+00,1.023e+01,9.865e+00,9.688e+00,1.012e+01,1.242e+01,8.788e+00,1.147e+01,9.527e+00,1.013e+01,9.525e+00,1.221e+01,1.112e+01,1.177e+01,9.617e+00,9.563e+00,9.295e+00,1.119e+01,8.853e+00,9.867e+00,1.021e+01,9.024e+00,1.005e+01,9.232e+00,8.676e+00,1.007e+01,9.868e+00,1.007e+01,1.240e+01,1.020e+01,1.066e+01,9.982e+00,8.954e+00,9.812e+00,1.204e+01,9.942e+00,1.144e+01,8.435e+00,1.004e+01,1.119e+01,1.188e+01,1.056e+01
1.673e-01,4.377e-01,4.819e-01,1.159e+00,1.162e+00,1.665e+00,1.293e+00,2.440e+00,2.070e+00,1.976e+00,1.651e+00,2.383e+00,3.353e+00,4.155e+00,3.471e+00,4.366e+00,3.520e+00,5.188e+00,4.082e+00,4.548e+00,6.202e+00,5.366e+00,6.630e+00,6.564e+00,5.984e+00,5.388e+00,5.687e+00,7.571e+00,4.836e+00,7.419e+00,7.023e+00,6.870e+00,7.702e+00,7.831e+00,6.906e+00,7.862e+00,7.120e+00,7.973e+00,8.592e+00,7.210e+00,8.416e+00,9.421e+00,7.354e+00,9.705e+00,7.650e+00,7.423e+00,7.935e+00,1.009e+01,9.370e+00,1.005e+01,8.187e+00,9.051e+00,8.038e+00,9.223e+00,8.491e+00,8.380e+00,9.366e+00,7.952e+00,9.113e+00,9.033e+00,7.232e+00,8.258e+00,8.514e+00,8.993e+00,9.347e+00,9.490e+00,1.072e+01,8.619e+00,9.604e+00,7.828e+00,9.752e+00,9.483e+00,1.020e+01,7.674e+00,9.586e+00,7.871e+00,9.855e+00,7.533e+00
1.141e-01,2.305e-01,3.552e-01,6.164e-01,1.303e+00,1.632e+00,1.338e+00,1.775e+00,1.724e+00,2.249e+00,2.161e+00,2.241e+00,3.322e+00,3.499e+00,3.500e+00,5.027e+00,4.320e+00,6.002e+00,3.710e+00,4.484e+00,6.010e+00,4.876e+00,5.459e+00,6.690e+00,6.784e+00,5.080e+00,5.989e+00,8.044e+00,6.068e+00,8.166e+00,7.363e+00,7.696e+00,8.193e+00,8.231e+00,8.566e+00,7.893e+00,9.807e+00,9.616e+00,9.709e+00,9.414e+00,9.337e+00,1.159e+01,9.980e+00,1.225e+01,7.849e+00,1.054e+01,1.056e+01,1.082e+01,1.095e+01,1.129e+01,1.097e+01,1.079e+01,1.002e+01,1.105e+01,9.612e+00,1.072e+01,1.016e+01,8.654e+00,9.332e+00,9.537e+00,8.862e+00,9.628e+00,1.058e+01,1.071e+01,1.151e+01,1.130e+01,1.101e+01,9.252e+00,1.142e+01,9.364e+00,1.254e+01,1.151e+01,1.118e+01,9.785e+00,1.067e+01,1.013e+01,1.101e+01,1.125e+01
6.329e-03,1.839e-01,4.972e-01,9.869e-01,1.451e+00,1.368e+00,1.011e+00,2.170e+00,1.696e+00,2.043e+00,1.538e+00,2.113e+00,2.690e+00,2.763e+00,2.821e+00,3.694e+00,4.120e+00,4.582e+00,3.155e+00,4.544e+00,5.259e+00,5.668e+00,5.924e+00,5.830e+00,6.562e+00,5.432e+00,5.740e+00,8.580e+00,5.771e+00,8.764e+00,8.042e+00,7.786e+00,8.133e+00,8.484e+00,9.817e+00,7.676e+00,9.332e+00,9.969e+00,9.790e+00,9.145e+00,1.063e+01,1.365e+01,1.091e+01,1.393e+01,8.994e+00,1.056e+01,1.148e+01,1.204e+01,1.189e+01,1.193e+01,1.177e+01,1.284e+01,1.107e+01,1.223e+01,1.047e+01,1.003e+01,1.135e+01,9.835e+00,1.089e+01,1.001e+01,9.309e+00,1.157e+01,1.191e+01,1.193e+01,1.166e+01,1.239e+01,1.258e+01,1.139e+01,1.106e+01,9.327e+00,1.401e+01,1.163e+01,1.310e+01,1.002e+01,1.133e+01,1.106e+01,1.225e+01,1.116e+01
1.726e-01,5.396e-01,1.097e+00,1.430e+00,2.066e+00,2.081e+00,1.253e+00,1.893e+00,2.310e+00,2.622e+00,2.545e+00,2.060e+00,4.218e+00,4.006e+00,4.117e+00,4.590e+00,4.466e+00,6.124e+00,3.582e+00,4.647e+00,7.270e+00,5.673e+00,6.619e+00,7.260e+00,7.226e+00,6.131e+00,6.127e+00,8.123e+00,6.247e+00,8.258e+00,7.814e+00,8.143e+00,8.180e+00,9.538e+00,8.623e+00,8.989e+00,9.369e+00,1.009e+01,9.041e+00,9.701e+00,1.035e+01,1.248e+01,1.214e+01,1.250e+01,9.778e+00,1.020e+01,1.132e+01,1.279e+01,1.260e+01,1.519e+01,1.171e+01,1.366e+01,1.076e+01,1.195e+01,1.114e+01,1.269e+01,1.172e+01,1.065e+01,1.104e+01,1.080e+01,9.227e+00,1.188e+01,1.136e+01,1.231e+01,1.367e+01,1.249e+01,1.369e+01,1.229e+01,1.253e+01,9.930e+00,1.439e+01,1.197e+01,1.239e+01,1.090e+01,1.223e+01,1.164e+01,1.416e+01,1.265e+01
3.100e-01,7.032e-01,8.024e-01,9.412e-01,7.611e-01,1.250e+00,1.063e+00,1.265e+00,1.752e+00,1.314e+00,1.752e+00,1.871e+00,3.183e+00,2.816e+00,3.683e+00,3.057e+00,3.168e+00,5.168e+00,2.600e+00,4.189e+00,5.584e+00,5.282e+00,6.239e+00,5.393e+00,5.112e+00,5.287e+00,4.649e+00,7.373e+00,5.812e+00,7.197e+00,7.862e+00,7.533e+00,7.658e+00,8.503e+00,9.651e+00,8.798e+00,9.087e+00,1.005e+01,9.184e+00,9.501e+00,1.021e+01,1.306e+01,1.127e+01,1.368e+01,9.648e+00,9.871e+00,1.213e+01,1.308e+01,1.218e+01,1.334e+01,1.193e+01,1.223e+01,9.820e+00,1.177e+01,1.075e+01,1.135e+01,1.181e+01,1.186e+01,9.550e+00,1.139e+01,8.895e+00,1.268e+01,1.134e+01,1.145e+01,1.210e+01,1.188e+01,1.227e+01,1.117e+01,1.124e+01,9.600e+00,1.426e+01,1.124e+01,1.273e+01,1.050e+01,1.018e+01,1.245e+01,1.438e+01,1.272e+01
8.157e-02,3.528e-01,7.187e-01,1.016e+00,8.821e-01,8.098e-01,1.242e+00,1.844e+00,2.089e+00,2.198e+00,2.414e+00,2.429e+00,3.242e+00,3.485e+00,3.428e+00,4.719e+00,3.153e+00,5.184e+00,3.614e+00,3.702e+00,6.132e+00,5.889e+00,6.146e+00,5.451e+00,7.029e+00,6.190e+00,5.530e+00,8.217e+00,5.586e+00,8.243e+00,8.717e+00,7.968e+00,7.923e+00,9.131e+00,9.168e+00,9.804e+00,9.721e+00,1.031e+01,1.065e+01,1.026e+01,9.802e+00,1.318e+01,1.011e+01,1.249e+01,1.014e+01,9.780e+00,1.084e+01,1.254e+01,1.212e+01,1.239e+01,1.171e+01,1.145e+01,9.108e+00,1.245e+01,1.094e+01,1.188e+01,1.169e+01,1.058e+01,1.079e+01,9.747e+00,9.576e+00,1.175e+01,1.019e+01,1.224e+01,1.264e+01,1.314e+01,1.211e+01,1.130e+01,1.233e+01,1.011e+01,1.332e+01,1.148e+01,1.252e+01,9.289e+00,1.049e+01,1.187e+01,1.320e+01,1.150e+01
3.358e-01,8.567e-01,9.708e-01,1.285e+00,1.127e+00,1.679e+00,1.422e+00,2.688e+00,3.088e+00,2.363e+00,2.225e+00,2.646e+00,4.279e+00,4.237e+00,4.054e+00,3.750e+00,3.430e+00,5.003e+00,3.738e+00,4.200e+00,6.180e+00,5.251e+00,6.221e+00,4.831e+00,6.113e+00,5.053e+00,4.372e+00,7.720e+00,4.526e+00,7.318e+00,7.264e+00,6.664e+00,7.171e+00,7.708e+00,8.473e+00,7.590e+00,7.851e+00,9.000e+00,9.000e+00,8.533e+00,9.556e+00,1.158e+01,1.020e+01,1.193e+01,9.654e+00,1.029e+01,1.168e+01,1.335e+01,1.147e+01,1.230e+01,1.159e+01,1.175e+01,9.911e+00,1.107e+01,1.027e+01,1.066e+01,1.222e+01,1.042e+01,9.745e+00,1.027e+01,9.077e+00,1.198e+01,1.063e+01,1.172e+01,1.314e+01,1.159e+01,1.180e+01,1.113e+01,1.154e+01,8.878e+00,1.258e+01,1.230e+01,1.236e+01,1.068e+01,1.059e+01,1.269e+01,1.291e+01,1.103e+01
1.213e-01,3.804e-01,9.568e-01,1.627e+00,1.976e+00,1.982e+00,1.822e+00,1.932e+00,2.158e+00,1.884e+00,1.752e+00,2.636e+00,3.070e+00,3.722e+00,3.770e+00,4.307e+00,4.338e+00,5.075e+00,3.427e+00,3.635e+00,4.670e+00,4.483e+00,5.583e+00,5.022e+00,6.110e+00,5.122e+00,5.169e+00,6.972e+00,6.158e+00,7.541e+00,7.273e+00,7.159e+00,7.093e+00,8.138e+00,8.935e+00,8.140e+00,8.279e+00,7.998e+00,8.397e+00,8.232e+00,8.546e+00,1.077e+01,9.077e+00,9.742e+00,8.310e+00,1.028e+01,1.109e+01,1.172e+01,1.173e+01,1.220e+01,1.004e+01,1.228e+01,1.053e+01,1.043e+01,1.131e+01,1.079e+01,1.067e+01,1.049e+01,9.973e+00,1.089e+01,1.009e+01,1.044e+01,1.136e+01,1.162e+01,1.217e+01,1.081e+01,1.229e+01,1.153e+01,1.080e+01,8.707e+00,1.242e+01,1.112e+01,1.136e+01,8.980e+00,1.016e+01,1.128e+01,1.204e+01,1.095e+01
6.461e-02,2.231e-01,7.101e-01,1.233e+00,1.515e+00,1.618e+00,1.681e+00,2.642e+00,2.671e+00,2.875e+00,2.174e+00,2.947e+00,3.717e+00,3.757e+00,3.595e+00,4.194e+00,4.060e+00,5.691e+00,4.014e+00,4.405e+00,5.321e+00,5.672e+00,5.946e+00,6.137e+00,5.963e+00,5.100e+00,5.177e+00,7.580e+00,4.489e+00,7.498e+00,7.397e+00,7.217e+00,7.813e+00,8.239e+00,7.584e+00,8.619e+00,8.748e+00,9.685e+00,9.526e+00,8.649e+00,9.647e+00,1.089e+01,9.091e+00,1.168e+01,9.016e+00,9.998e+00,1.057e+01,1.315e+01,1.184e+01,1.249e+01,1.180e+01,1.121e+01,1.070e+01,1.223e+01,1.214e+01,1.088e+01,1.245e+01,1.032e+01,9.846e+00,1.148e+01,1.012e+01,1.041e+01,1.096e+01,1.151e+01,1.294e+01,1.139e+01,1.156e+01,1.142e+01,1.284e+01,1.024e+01,1.250e+01,1.212e+01,1.188e+01,1.093e+01,1.092e+01,1.154e+01,1.376e+01,1.033e+01
4.251e-02,3.188e-01,7.851e-01,1.213e+00,1.304e+00,1.122e+00,1.167e+00,2.314e+00,2.252e+00,2.589e+00,2.426e+00,2.303e+00,3.577e+00,3.512e+00,4.130e+00,4.554e+00,4.214e+00,5.383e+00,4.116e+00,5.053e+00,5.894e+00,6.092e+00,6.368e+00,6.532e+00,6.407e+00,5.727e+00,5.262e+00,8.378e+00,5.957e+00,7.747e+00,7.809e+00,6.665e+00,7.852e+00,8.508e+00,7.921e+00,8.149e+00,8.277e+00,9.580e+00,8.559e+00,8.240e+00,9.852e+00,1.144e+01,9.527e+00,1.086e+01,8.803e+00,1.037e+01,1.127e+01,1.381e+01,1.242e+01,1.321e+01,1.283e+01,1.254e+01,1.169e+01,1.224e+01,1.275e+01,1.157e+01,1.206e+01,1.102e+01,1.069e+01,1.191e+01,1.129e+01,1.143e+01,1.074e+01,1.298e+01,1.399e+01,1.205e+01,1.415e+01,1.314e+01,1.359e+01,9.695e+00,1.304e+01,1.312e+01,1.374e+01,1.119e+01,1.297e+01,1.124e+01,1.541e+01,1.164e+01
2.684e-01,5.809e-01,8.068e-01,8.432e-01,1.292e+00,1.795e+00,1.494e+00,1.717e+00,2.007e+00,2.176e+00,2.214e+00,2.366e+00,3.400e+00,3.762e+00,3.497e+00,4.514e+00,4.215e+00,5.784e+00,3.445e+00,5.059e+00,7.011e+00,5.799e+00,6.912e+00,6.297e+00,7.586e+00,5.957e+00,5.923e+00,9.307e+00,6.633e+00,8.957e+00,8.449e+00,8.132e+00,8.909e+00,8.528e+00,1.032e+01,8.538e+00,9.464e+00,9.985e+00,9.488e+00,9.402e+00,1.023e+01,1.242e+01,1.153e+01,1.365e+01,1.059e+01,1.209e+01,1.346e+01,1.434e+01,1.341e+01,1.465e+01,1.464e+01,1.328e+01,1.157e+01,1.431e+01,1.416e+01,1.189e+01,1.302e+01,1.242e+01,1.086e+01,1.308e+01,1.204e+01,1.356e+01,1.331e+01,1.359e+01,1.455e+01,1.403e+01,1.515e+01,1.285e+01,1.398e+01,1.231e+01,1.523e+01,1.449e+01,1.418e+01,1.241e+01,1.385e+01,1.299e+01,1.564e+01,1.498e+01
1.428e-01,3.886e-01,4.766e-01,7.752e-01,1.220e+00,1.439e+00,5.866e-01,1.493e+00,1.507e+00,1.768e+00,1.727e+00,1.370e+00,3.453e+00,2.887e+00,3.463e+00,3.743e+00,3.081e+00,5.298e+00,2.892e+00,4.296e+00,5.949e+00,5.065e+00,6.021e+00,6.655e+00,5.315e+00,4.833e+00,4.898e+00,6.655e+00,5.502e+00,6.902e+00,6.449e+00,5.658e+00,6.633e+00,8.382e+00,7.798e+00,7.811e+00,8.299e+00,9.558e+00,8.603e+00,7.902e+00,9.334e+00,1.209e+01,1.134e+01,1.213e+01,8.633e+00,9.661e+00,1.211e+01,1.146e+01,1.108e+01,1.300e+01,1.179e+01,1.220e+01,1.181e+01,1.119e+01,1.149e+01,1.119e+01,1.242e+01,1.044e+01,1.081e+01,1.244e+01,1.084e+01,1.284e+01,1.171e+01,1.298e+01,1.294e+01,1.272e+01,1.252e+01,1.128e+01,1.290e+01,9.759e+00,1.375e+01,1.274e+01,1.274e+01,1.164e+01,1.151e+01,1.184e+01,1.428e+01,1.300e+01
3.368e-01,8.843e-01,1.120e+00,1.252e+00,1.480e+00,1.865e+00,1.283e+00,2.104e+00,2.564e+00,2.127e+00,2.223e+00,2.126e+00,3.888e+00,4.256e+00,3.829e+00,4.276e+00,4.132e+00,5.676e+00,3.610e+00,4.731e+00,6.342e+00,5.600e+00,6.294e+00,6.416e+00,6.486e+00,5.764e+00,5.669e+00,7.880e+00,5.884e+00,8.634e+00,7.895e+00,7.510e+00,8.323e+00,8.503e+00,8.521e+00,8.709e+00,9.180e+00,9.949e+00,8.924e+00,8.947e+00,9.867e+00,1.175e+01,1.007e+01,1.194e+01,8.817e+00,1.032e+01,1.240e+01,1.263e+01,1.190e+01,1.411e+01,1.236e+01,1.270e+01,1.156e+01,1.195e+01,1.260e+01,1.186e+01,1.283e+01,1.165e+01,1.242e+01,1.286e+01,1.138e+01,1.167e+01,1.297e+01,1.232e+01,1.524e+01,1.306e+01,1.323e+01,1.203e+01,1.434e+01,1.152e+01,1.333e+01,1.309e+01,1.350e+01,1.115e+01,1.282e+01,1.261e+01,1.415e+01,1.327e+01
2.224e-01,5.101e-01,9.001e-01,1.099e+00,1.055e+00,1.411e+00,1.987e+00,2.257e+00,2.832e+00,2.804e+00,2.781e+00,2.888e+00,3.603e+00,4.081e+00,3.096e+00,4.319e+00,3.825e+00,5.350e+00,3.873e+00,3.889e+00,6.079e+00,4.695e+00,5.607e+00,5.438e+00,6.476e+00,4.231e+00,4.435e+00,7.549e+00,5.346e+00,7.510e+00,7.070e+00,7.200e+00,7.078e+00,7.926e+00,8.333e+00,8.080e+00,7.917e+00,8.876e+00,8.464e+00,8.723e+00,9.041e+00,1.123e+01,9.584e+00,1.207e+01,8.087e+00,9.081e+00,1.062e+01,1.179e+01,1.130e+01,1.262e+01,1.313e+01,1.138e+01,1.044e+01,1.284e+01,1.290e+01,1.133e+01,1.154e+01,1.021e+01,1.104e+01,1.305e+01,1.076e+01,1.189e+01,1.151e+01,1.309e+01,1.363e+01,1.428e+01,1.263e+01,1.207e+01,1.384e+01,1.115e+01,1.343e+01,1.440e+01,1.274e+01,1.144e+01,1.258e+01,1.125e+01,1.424e+01,1.296e+01
9.247e-02,2.725e-01,5.588e-01,1.251e+00,1.583e+00,1.856e+00,1.161e+00,2.043e+00,1.984e+00,2.028e+00,1.594e+00,2.585e+00,3.876e+00,4.217e+00,4.474e+00,4.965e+00,4.493e+00,6.049e+00,4.240e+00,4.442e+00,6.552e+00,5.854e+00,6.950e+00,6.899e+00,7.521e+00,6.452e+00,6.235e+00,8.582e+00,6.435e+00,8.031e+00,7.648e+00,8.262e+00,8.837e+00,8.685e+00,9.532e+00,9.188e+00,9.397e+00,1.009e+01,9.305e+00,9.100e+00,9.452e+00,1.272e+01,1.027e+01,1.211e+01,9.615e+00,1.146e+01,1.290e+01,1.434e+01,1.291e+01,1.561e+01,1.414e+01,1.465e+01,1.279e+01,1.360e+01,1.396e+01,1.474e+01,1.431e+01,1.309e+01,1.449e+01,1.404e+01,1.299e+01,1.566e+01,1.469e+01,1.491e+01,1.538e+01,1.662e+01,1.572e+01,1.451e+01,1.675e+01,1.330e+01,1.736e+01,1.459e+01,1.630e+01,1.305e+01,1.390e+01,1.430e+01,1.644e+01,1.535e+01
2.658e-01,6.753e-01,1.196e+00,1.433e+00,1.833e+00,2.117e+00,1.586e+00,1.686e+00,2.126e+00,2.451e+00,2.739e+00,2.352e+00,4.049e+00,3.766e+00,4.486e+00,4.783e+00,4.802e+00,5.970e+00,3.949e+00,5.088e+00,7.085e+00,6.116e+00,7.292e+00,6.728e+00,7.701e+00,6.608e+00,6.574e+00,9.439e+00,7.477e+00,8.653e+00,8.361e+00,7.785e+00,8.877e+00,9.936e+00,1.037e+01,9.525e+00,1.139e+01,1.097e+01,1.001e+01,1.006e+01,1.028e+01,1.297e+01,1.168e+01,1.266e+01,1.085e+01,1.306e+01,1.372e+01,1.437e+01,1.426e+01,1.601e+01,1.551e+01,1.437e+01,1.371e+01,1.425e+01,1.650e+01,1.535e+01,1.509e+01,1.470e+01,1.490e+01,1.632e+01,1.501e+01,1.612e+01,1.497e+01,1.568e+01,1.712e+01,1.782e+01,1.717e+01,1.546e+01,1.753e+01,1.419e+01,1.698e+01,1.608e+01,1.674e+01,1.403e+01,1.573e+01,1.584e+01,1.801e+01,1.598e+01
1.240e-01,4.741e-01,9.729e-01,1.262e+00,1.766e+00,1.560e+00,1.509e+00,2.571e+00,3.181e+00,3.028e+00,2.907e+00,2.832e+00,4.824e+00,4.767e+00,4.813e+00,6.216e+00,4.640e+00,7.261e+00,4.304e+00,5.565e+00,8.037e+00,6.693e+00,7.479e+00,7.849e+00,8.578e+00,6.690e+00,6.054e+00,9.193e+00,5.709e+00,8.867e+00,8.507e+00,8.153e+00,8.294e+00,9.216e+00,9.299e+00,9.603e+00,9.787e+00,1.143e+01,9.972e+00,1.009e+01,9.832e+00,1.260e+01,1.006e+01,1.250e+01,1.036e+01,1.132e+01,1.220e+01,1.315e+01,1.233e+01,1.490e+01,1.399e+01,1.288e+01,1.172e+01,1.353e+01,1.462e+01,1.459e+01,1.534e+01,1.288e+01,1.407e+01,1.466e+01,1.291e+01,1.468e+01,1.350e+01,1.417e+01,1.555e+01,1.631e+01,1.520e+01,1.325e+01,1.644e+01,1.474e+01,1.674e+01,1.603e+01,1.590e+01,1.364e+01,1.425e+01,1.385e+01,1.819e+01,1.644e+01
3.053e-01,8.269e-01,1.308e+00,1.934e+00,2.162e+00,2.542e+00,2.330e+00,3.180e+00,3.238e+00,3.253e+00,3.231e+00,3.159e+00,4.595e+00,4.772e+00,4.158e+00,5.385e+00,4.851e+00,5.899e+00,4.408e+00,4.645e+00,6.981e+00,5.860e+00,7.058e+00,6.398e+00,7.161e+00,5.184e+00,5.933e+00,8.822e+00,5.946e+00,8.381e+00,7.594e+00,8.162e+00,7.775e+00,8.088e+00,8.314e+00,8.051e+00,9.701e+00,9.283e+00,1.022e+01,8.901e+00,1.024e+01,1.171e+01,1.144e+01,1.237e+01,9.969e+00,1.155e+01,1.243e+01,1.379e+01,1.278e+01,1.462e+01,1.392e+01,1.314e+01,1.262e+01,1.392e+01,1.428e+01,1.427e+01,1.469e+01,1.339e+01,1.376e+01,1.655e+01,1.259e+01,1.461e+01,1.415e+01,1.464e+01,1.632e+01,1.555e+01,1.606e+01,1.510e+01,1.624e+01,1.212e+01,1.654e+01,1.732e+01,1.465e+01,1.459e+01,1.538e+01,1.431e+01,1.767e+01,1.595e+01
1.258e-01,4.702e-01,8.205e-01,1.632e+00,1.629e+00,1.632e+00,1.575e+00,2.667e+00,2.852e+00,2.543e+00,2.658e+00,2.831e+00,4.651e+00,4.235e+00,5.639e+00,5.940e+00,5.711e+00,7.206e+00,5.329e+00,5.253e+00,6.785e+00,6.888e+00,7.094e+00,8.047e+00,7.707e+00,6.814e+00,6.691e+00,8.689e+00,7.682e+00,8.711e+00,9.692e+00,8.773e+00,9.354e+00,1.054e+01,1.022e+01,1.056e+01,1.125e+01,1.272e+01,1.189e+01,1.100e+01,1.171e+01,1.496e+01,1.206e+01,1.434e+01,1.045e+01,1.295e+01,1.376e+01,1.592e+01,1.549e+01,1.563e+01,1.618e+01,1.633e+01,1.538e+01,1.654e+01,1.557e+01,1.639e+01,1.595e+01,1.538e+01,1.680e+01,1.867e+01,1.502e+01,1.722e+01,1.774e+01,1.722e+01,1.878e+01,1.862e+01,1.840e+01,1.729e+01,1.907e+01,1.448e+01,2.041e+01,1.969e+01,1.882e+01,1.692e+01,1.722e+01,1.544e+01,2.088e+01,1.825e+01
2.715e-01,6.953e-01,8.902e-01,1.671e+00,1.576e+00,2.095e+00,1.389e+00,1.914e+00,1.883e+00,1.409e+00,1.561e+00,2.383e+00,3.506e+00,3.310e+00,3.564e+00,3.936e+00,4.181e+00,5.447e+00,3.636e+00,3.977e+00,6.691e+00,6.311e+00,7.411e+00,6.213e+00,6.206e+00,5.551e+00,6.441e+00,8.735e+00,5.403e+00,7.226e+00,7.297e+00,7.662e+00,7.655e+00,8.075e+00,8.662e+00,8.598e+00,9.107e+00,9.702e+00,9.162e+00,8.327e+00,9.009e+00,1.243e+01,1.097e+01,1.196e+01,9.836e+00,1.020e+01,1.146e+01,1.340e+01,1.187e+01,1.435e+01,1.319e+01,1.304e+01,1.199e+01,1.448e+01,1.316e+01,1.340e+01,1.331e+01,1.359e+01,1.355e+01,1.631e+01,1.239e+01,1.592e+01,1.551e+01,1.368e+01,1.607e+01,1.670e+01,1.666e+01,1.504e+01,1.622e+01,1.330e+01,1.716e+01,1.654e+01,1.560e+01,1.364e+01,1.569e+01,1.331e+01,1.707e+01,1.602e+01
2.741e-01,6.691e-01,6.727e-01,1.041e+00,1.407e+00,2.058e+00,9.538e-01,2.079e+00,2.120e+00,2.072e+00,1.967e+00,2.153e+00,4.359e+00,3.676e+00,4.281e+00,4.506e+00,3.820e+00,5.562e+00,4.392e+00,4.825e+00,6.929e+00,6.168e+00,6.883e+00,6.597e+00,6.599e+00,5.934e+00,6.546e+00,9.053e+00,6.009e+00,8.125e+00,7.947e+00,6.615e+00,7.705e+00,9.077e+00,7.813e+00,8.160e+00,9.396e+00,1.007e+01,9.724e+00,8.241e+00,9.441e+00,1.279e+01,1.110e+01,1.209e+01,9.270e+00,1.043e+01,1.254e+01,1.387e+01,1.337e+01,1.402e+01,1.374e+01,1.320e+01,1.242e+01,1.385e+01,1.409e+01,1.269e+01,1.332e+01,1.345e+01,1.321e+01,1.601e+01,1.222e+01,1.531e+01,1.489e+01,1.579e+01,1.663e+01,1.605e+01,1.691e+01,1.550e+01,1.695e+01,1.278e+01,1.613e+01,1.588e+01,1.632e+01,1.346e+01,1.552e+01,1.397e+01,1.779e+01,1.376e+01
3.314e-01,8.480e-01,1.252e+00,1.581e+00,2.029e+00,2.484e+00,1.547e+00,2.011e+00,2.538e+00,2.587e+00,2.860e+00,2.511e+00,4.886e+00,4.398e+00,4.584e+00,5.102e+00,4.656e+00,6.258e+00,4.364e+00,5.322e+00,7.986e+00,5.890e+00,7.002e+00,7.302e+00,7.178e+00,5.619e+00,6.545e+00,9.469e+00,5.550e+00,8.775e+00,8.023e+00,7.897e+00,8.241e+00,9.078e+00,8.590e+00,8.538e+00,1.084e+01,1.039e+01,1.031e+01,9.740e+00,1.027e+01,1.274e+01,1.170e+01,1.292e+01,9.552e+00,1.103e+01,1.226e+01,1.308e+01,1.395e+01,1.539e+01,1.432e+01,1.383e+01,1.395e+01,1.379e+01,1.410e+01,1.471e+01,1.468e+01,1.393e+01,1.471e+01,1.577e+01,1.516e+01,1.716e+01,1.569e+01,1.619e+01,1.867e+01,1.777e+01,1.755e+01,1.576e+01,1.694e+01,1.288e+01,1.892e+01,1.743e+01,1.700e+01,1.395e+01,1.680e+01,1.498e+01,1.853e+01,1.686e+01
5.011e-02,3.408e-01,1.151e+00,1.400e+00,1.375e+00,1.012e+00,1.525e+00,1.895e+00,2.602e+00,2.772e+00,2.805e+00,2.572e+00,3.544e+00,4.105e+00,3.715e+00,4.720e+00,4.179e+00,5.271e+00,3.989e+00,4.045e+00,5.789e+00,5.411e+00,5.263e+00,4.956e+00,6.903e+00,5.304e+00,4.900e+00,8.054e+00,6.511e+00,8.741e+00,8.320e+00,7.179e+00,7.873e+00,8.713e+00,9.505e+00,8.057e+00,9.869e+00,9.912e+00,1.043e+01,1.050e+01,1.044e+01,1.307e+01,1.086e+01,1.291e+01,9.924e+00,1.022e+01,1.157e+01,1.423e+01,1.331e+01,1.349e+01,1.300e+01,1.253e+01,1.173e+01,1.363e+01,1.348e+01,1.280e+01,1.357e+01,1.351e+01,1.403e+01,1.628e+01,1.244e+01,1.701e+01,1.659e+01,1.702e+01,1.837e+01,1.699e+01,1.726e+01,1.644e+01,1.564e+01,1.212e+01,1.858e+01,1.665e+01,1.629e+01,1.380e+01,1.458e+01,1.442e+01,1.947e+01,1.524e+01
2.739e-01,6.327e-01,1.005e+00,1.317e+00,1.387e+00,1.849e+00,1.766e+00,1.935e+00,2.185e+00,1.966e+00,1.857e+00,2.482e+00,2.878e+00,3.701e+00,3.010e+00,3.773e+00,4.181e+00,5.059e+00,3.536e+00,4.466e+00,6.250e+00,5.945e+00,7.262e+00,5.452e+00,7.017e+00,6.169e+00,5.890e+00,8.431e+00,6.229e+00,7.985e+00,8.248e+00,7.620e+00,9.064e+00,8.453e+00,9.574e+00,8.647e+00,8.178e+00,8.980e+00,9.182e+00,9.575e+00,9.222e+00,1.182e+01,1.022e+01,1.201e+01,9.228e+00,9.960e+00,1.230e+01,1.293e+01,1.107e+01,1.290e+01,1.242e+01,1.228e+01,1.110e+01,1.356e+01,1.355e+01,1.445e+01,1.380e+01,1.306e+01,1.321e+01,1.493e+01,1.226e+01,1.587e+01,1.589e+01,1.560e+01,1.710e+01,1.699e+01,1.713e+01,1.476e+01,1.601e+01,1.286e+01,1.607e+01,1.620e+01,1.686e+01,1.393e+01,1.572e+01,1.466e+01,1.662e+01,1.563e+01
3.157e-01,8.661e-01,1.172e+00,1.431e+00,1.494e+00,1.747e+00,1.573e+00,2.125e+00,2.722e+00,2.213e+00,2.667e+00,2.394e+00,4.050e+00,3.996e+00,4.123e+00,4.760e+00,3.946e+00,5.660e+00,3.743e+00,4.135e+00,6.383e+00,5.565e+00,6.012e+00,6.021e+00,7.162e+00,6.347e+00,6.057e+00,7.947e+00,6.025e+00,8.084e+00,8.470e+00,6.834e+00,7.055e+00,8.632e+00,8.682e+00,8.760e+00,9.471e+00,1.002e+01,9.984e+00,8.854e+00,9.043e+00,1.186e+01,1.041e+01,1.091e+01,8.511e+00,9.534e+00,1.094e+01,1.294e+01,1.221e+01,1.233e+01,1.250e+01,1.216e+01,1.186e+01,1.231e+01,1.309e+01,1.324e+01,1.269e+01,1.336e+01,1.405e+01,1.528e+01,1.270e+01,1.569e+01,1.516e+01,1.464e+01,1.634e+01,1.784e+01,1.631e+01,1.458e+01,1.641e+01,1.282e+01,1.618e+01,1.641e+01,1.652e+01,1.470e+01,1.529e+01,1.338e+01,1.748e+01,1.557e+01
1.789e-01,3.589e-01,6.936e-01,1.467e+00,1.575e+00,2.085e+00,2.163e+00,2.817e+00,2.691e+00,2.732e+00,2.182e+00,2.938e+00,3.592e+00,4.224e+00,3.336e+00,3.391e+00,3.355e+00,5.194e+00,3.008e+00,3.990e+00,5.599e+00,5.075e+00,6.696e+00,6.182e+00,6.090e+00,5.970e+00,5.978e+00,7.991e+00,6.041e+00,7.470e+00,7.153e+00,8.853e+00,8.540e+00,9.179e+00,9.379e+00,9.560e+00,9.490e+00,9.760e+00,9.542e+00,9.174e+00,1.082e+01,1.163e+01,1.050e+01,1.366e+01,1.005e+01,1.106e+01,1.187e+01,1.248e+01,1.317e+01,1.562e+01,1.363e+01,1.434e+01,1.294e+01,1.426e+01,1.380e+01,1.391e+01,1.521e+01,1.332e+01,1.498e+01,1.522e+01,1.361e+01,1.761e+01,1.705e+01,1.848e+01,1.749e+01,1.845e+01,1.750e+01,1.580e+01,1.793e+01,1.445e+01,1.894e+01,1.820e+01,1.860e+01,1.525e+01,1.823e+01,1.428e+01,1.892e+01,1.733e+01
2.296e-01,6.755e-01,1.307e+00,1.490e+00,2.197e+00,2.209e+00,1.626e+00,1.752e+00,2.216e+00,2.011e+00,1.954e+00,2.151e+00,3.104e+00,4.281e+00,3.142e+00,4.447e+00,4.121e+00,4.994e+00,3.141e+00,4.955e+00,5.902e+00,5.261e+00,6.046e+00,5.106e+00,5.891e+00,4.494e+00,4.387e+00,6.631e+00,4.182e+00,6.841e+00,6.274e+00,6.562e+00,6.171e+00,6.621e+00,8.049e+00,6.690e+00,7.164e+00,8.253e+00,7.597e+00,7.407e+00,8.515e+00,9.502e+00,9.583e+00,9.680e+00,7.770e+00,7.397e+00,1.028e+01,1.070e+01,9.975e+00,1.145e+01,1.028e+01,1.097e+01,9.318e+00,1.058e+01,1.144e+01,1.201e+01,1.311e+01,1.240e+01,1.242e+01,1.362e+01,1.083e+01,1.436e+01,1.393e+01,1.301e+01,1.599e+01,1.542e+01,1.608e+01,1.302e+01,1.503e+01,1.142e+01,1.639e+01,1.502e+01,1.474e+01,1.402e+01,1.514e+01,1.178e+01,1.695e+01,1.486e+01
2.751e-01,7.829e-01,1.215e+00,2.051e+00,1.791e+00,2.050e+00,1.693e+00,2.680e+00,2.927e+00,2.262e+00,2.225e+00,2.811e+00,4.467e+00,4.045e+00,4.809e+00,5.044e+00,4.998e+00,6.587e+00,4.735e+00,5.101e+00,8.164e+00,7.237e+00,8.966e+00,7.778e+00,7.860e+00,7.398e+00,7.387e+00,1.005e+01,6.422e+00,8.615e+00,9.748e+00,9.020e+00,9.480e+00,1.034e+01,9.781e+00,1.114e+01,1.088e+01,1.206e+01,1.118e+01,9.705e+00,1.188e+01,1.326e+01,1.262e+01,1.428e+01,1.157e+01,1.100e+01,1.378e+01,1.607e+01,1.411e+01,1.673e+01,1.606e+01,1.507e+01,1.446e+01,1.561e+01,1.513e+01,1.676e+01,1.755e+01,1.633e+01,1.668e+01,1.853e+01,1.565e+01,1.923e+01,1.814e+01,1.679e+01,1.987e+01,1.988e+01,2.046e+01,1.757e+01,2.006e+01,1.654e+01,2.063e+01,2.005e+01,2.103e+01,1.847e+01,1.994e+01,1.641e+01,2.208e+01,1.940e+01
6.376e-03,2.660e-01,6.677e-01,1.157e+00,9.883e-01,5.571e-01,4.276e-01,1.352e+00,1.642e+00,1.149e+00,1.175e+00,1.519e+00,2.880e+00,2.263e+00,3.958e+00,4.180e+00,3.608e+00,4.718e+00,3.662e+00,4.540e+00,5.871e+00,5.579e+00,6.253e+00,6.616e+00,6.889e+00,6.365e+00,5.657e+00,8.242e+00,6.118e+00,7.952e+00,7.916e+00,6.574e+00,7.438e+00,9.205e+00,8.558e+00,9.139e+00,9.156e+00,9.981e+00,8.892e+00,8.125e+00,9.644e+00,1.255e+01,9.293e+00,1.083e+01,8.759e+00,1.071e+01,1.255e+01,1.273e+01,1.197e+01,1.242e+01,1.318e+01,1.230e+01,1.172e+01,1.313e+01,1.304e+01,1.333e+01,1.364e+01,1.359e+01,1.516e+01,1.594e+01,1.306e+01,1.675e+01,1.680e+01,1.637e+01,1.786e+01,1.764e+01,1.835e+01,1.599e+01,1.991e+01,1.484e+01,1.919e+01,1.795e+01,1.883e+01,1.509e+01,1.931e+01,1.644e+01,2.090e+01,1.755e+01
2.598e-01,7.020e-01,7.772e-01,8.906e-01,1.401e+00,1.584e+00,9.415e-01,1.661e+00,2.160e+00,1.427e+00,1.648e+00,1.759e+00,3.509e+00,2.842e+00,3.801e+00,4.099e+00,4.058e+00,5.388e+00,3.256e+00,4.581e+00,6.098e+00,5.644e+00,6.218e+00,6.513e+00,6.484e+00,5.692e+00,5.491e+00,7.620e+00,4.483e+00,6.720e+00,7.159e+00,6.976e+00,6.637e+00,8.139e+00,8.402e+00,7.264e+00,8.392e+00,1.021e+01,8.662e+00,8.154e+00,8.875e+00,1.203e+01,9.811e+00,1.137e+01,8.051e+00,9.476e+00,1.063e+01,1.184e+01,1.162e+01,1.271e+01,1.223e+01,1.194e+01,1.187e+01,1.147e+01,1.215e+01,1.116e+01,1.186e+01,1.284e+01,1.234e+01,1.430e+01,1.132e+01,1.553e+01,1.431e+01,1.453e+01,1.528e+01,1.803e+01,1.648e+01,1.403e+01,1.700e+01,1.532e+01,1.767e+01,1.749e+01,1.673e+01,1.531e+01,1.836e+01,1.502e+01,1.914e+01,1.742e+01
5.287e-02,3.691e-01,7.633e-01,1.064e+00,1.196e+00,8.517e-01,1.052e+00,1.982e+00,2.171e+00,2.246e+00,2.436e+00,1.752e+00,3.149e+00,3.255e+00,3.855e+00,5.187e+00,4.258e+00,4.678e+00,4.245e+00,3.913e+00,5.763e+00,5.161e+00,5.943e+00,6.104e+00,7.264e+00,5.719e+00,5.154e+00,7.518e+00,6.950e+00,7.916e+00,8.096e+00,7.446e+00,7.670e+00,8.983e+00,8.783e+00,8.537e+00,9.264e+00,1.012e+01,1.027e+01,8.555e+00,1.064e+01,1.234e+01,1.004e+01,1.147e+01,9.555e+00,1.110e+01,1.155e+01,1.421e+01,1.206e+01,1.317e+01,1.372e+01,1.294e+01,1.272e+01,1.265e+01,1.342e+01,1.351e+01,1.318e+01,1.308e+01,1.370e+01,1.544e+01,1.259e+01,1.598e+01,1.513e+01,1.530e+01,1.681e+01,1.613e+01,1.660e+01,1.635e+01,1.578e+01,1.450e+01,1.795e+01,1.760e+01,1.797e+01,1.558e+01,1.802e+01,1.556e+01,1.973e+01,1.758e+01
1.537e-03,2.544e-01,1.078e+00,2.101e+00,1.722e+00,1.355e+00,1.997e+00,2.971e+00,3.313e+00,2.861e+00,2.418e+00,3.186e+00,3.932e+00,4.527e+00,4.344e+00,4.011e+00,4.747e+00,5.512e+00,4.161e+00,3.926e+00,5.171e+00,5.565e+00,6.155e+00,6.315e+00,6.550e+00,5.470e+00,5.192e+00,8.052e+00,6.191e+00,8.053e+00,7.296e+00,8.975e+00,7.959e+00,8.470e+00,9.324e+00,9.097e+00,9.764e+00,1.083e+01,9.865e+00,9.775e+00,1.093e+01,1.250e+01,1.027e+01,1.309e+01,1.038e+01,1.257e+01,1.105e+01,1.491e+01,1.238e+01,1.474e+01,1.357e+01,1.410e+01,1.216e+01,1.501e+01,1.272e+01,1.338e+01,1.303e+01,1.253e+01,1.388e+01,1.482e+01,1.203e+01,1.594e+01,1.603e+01,1.616e+01,1.694e+01,1.599e+01,1.692e+01,1.574e+01,1.759e+01,1.533e+01,2.069e+01,1.751e+01,1.887e+01,1.541e+01,1.832e+01,1.669e+01,2.004e+01,1.772e+01
1.569e-01,3.677e-01,3.197e-01,9.904e-01,6.020e-01,1.136e+00,1.174e+00,1.861e+00,1.756e+00,1.658e+00,1.881e+00,2.186e+00,3.238e+00,3.510e+00,4.027e+00,3.442e+00,3.602e+00,5.145e+00,3.858e+00,4.046e+00,5.826e+00,5.394e+00,6.216e+00,6.770e+00,6.642e+00,5.722e+00,5.371e+00,7.636e+00,6.004e+00,7.873e+00,7.094e+00,7.828e+00,7.025e+00,7.521e+00,8.189e+00,7.607e+00,8.997e+00,9.922e+00,9.507e+00,9.374e+00,8.897e+00,1.293e+01,1.036e+01,1.313e+01,8.909e+00,1.122e+01,1.112e+01,1.394e+01,1.146e+01,1.311e+01,1.294e+01,1.317e+01,1.162e+01,1.260e+01,1.206e+01,1.245e+01,1.376e+01,1.245e+01,1.409e+01,1.442e+01,1.218e+01,1.798e+01,1.648e+01,1.654e+01,1.772e+01,1.809e+01,1.703e+01,1.581e+01,1.840e+01,1.537e+01,2.049e+01,1.868e+01,1.958e+01,1.629e+01,1.937e+01,1.635e+01,2.118e+01,1.930e+01
2.852e-01,6.825e-01,9.673e-01,1.133e+00,1.174e+00,1.667e+00,1.200e+00,1.631e+00,1.891e+00,1.896e+00,1.892e+00,2.075e+00,3.209e+00,3.033e+00,2.836e+00,3.311e+00,3.661e+00,5.194e+00,3.124e+00,4.314e+00,6.775e+00,6.227e+00,6.878e+00,6.237e+00,6.563e+00,6.092e+00,6.134e+00,8.657e+00,4.511e+00,6.910e+00,7.090e+00,6.958e+00,8.499e+00,8.046e+00,8.275e+00,8.688e+00,8.783e+00,9.157e+00,8.529e+00,8.330e+00,9.494e+00,1.048e+01,9.486e+00,1.124e+01,1.005e+01,9.366e+00,1.013e+01,1.250e+01,1.174e+01,1.468e+01,1.246e+01,1.166e+01,1.168e+01,1.360e+01,1.318e+01,1.288e+01,1.344e+01,1.469e+01,1.399e+01,1.529e+01,1.342e+01,1.723e+01,1.676e+01,1.515e+01,1.860e+01,1.993e+01,1.865e+01,1.647e+01,1.853e+01,1.611e+01,1.939e+01,1.938e+01,1.767e+01,1.823e+01,2.202e+01,1.732e+01,2.209e+01,1.988e+01
2.470e-01,6.626e-01,1.032e+00,1.553e+00,1.857e+00,2.064e+00,1.625e+00,1.754e+00,2.048e+00,1.988e+00,2.545e+00,2.406e+00,3.973e+00,3.478e+00,4.088e+00,4.589e+00,3.832e+00,5.625e+00,2.809e+00,4.207e+00,5.652e+00,5.161e+00,6.132e+00,6.879e+00,7.462e+00,5.668e+00,5.879e+00,8.410e+00,6.409e+00,8.758e+00,8.880e+00,8.355e+00,7.835e+00,8.767e+00,1.003e+01,9.281e+00,1.066e+01,1.064e+01,1.139e+01,9.606e+00,9.134e+00,1.293e+01,1.177e+01,1.385e+01,1.025e+01,1.224e+01,1.418e+01,1.383e+01,1.275e+01,1.506e+01,1.336e+01,1.371e+01,1.283e+01,1.313e+01,1.377e+01,1.443e+01,1.511e+01,1.454e+01,1.463e+01,1.612e+01,1.449e+01,1.773e+01,1.782e+01,1.755e+01,1.930e+01,1.778e+01,1.833e+01,1.531e+01,1.878e+01,1.433e+01,2.014e+01,1.770e+01,1.934e+01,1.693e+01,1.782e+01,1.834e+01,2.101e+01,2.016e+01
7.548e-02,2.874e-01,6.607e-01,1.015e+00,9.815e-01,9.651e-01,1.218e+00,1.689e+00,1.695e+00,1.986e+00,2.058e+00,1.813e+00,2.536e+00,2.344e+00,3.067e+00,3.662e+00,3.831e+00,4.029e+00,3.742e+00,4.045e+00,4.837e+00,4.881e+00,5.102e+00,4.793e+00,5.235e+00,4.215e+00,4.218e+00,6.527e+00,5.279e+00,6.641e+00,7.638e+00,6.776e+00,7.318e+00,8.496e+00,8.063e+00,7.555e+00,8.716e+00,9.374e+00,1.003e+01,9.082e+00,1.067e+01,1.199e+01,1.093e+01,1.308e+01,9.784e+00,1.069e+01,1.257e+01,1.453e+01,1.304e+01,1.275e+01,1.464e+01,1.325e+01,1.152e+01,1.351e+01,1.267e+01,1.371e+01,1.473e+01,1.325e+01,1.328e+01,1.598e+01,1.267e+01,1.596e+01,1.532e+01,1.645e+01,1.886e+01,1.659e+01,1.816e+01,1.660e+01,1.769e+01,1.343e+01,1.991e+01,2.000e+01,1.850e+01,1.883e+01,1.987e+01,1.720e+01,2.391e+01,1.938e+01
2.958e-02,1.542e-01,7.626e-01,1.185e+00,1.463e+00,1.356e+00,1.633e+00,2.276e+00,2.638e+00,2.949e+00,2.481e+00,2.579e+00,3.708e+00,4.322e+00,3.943e+00,4.489e+00,3.755e+00,5.173e+00,3.814e+00,4.061e+00,5.276e+00,4.501e+00,5.757e+00,5.834e+00,6.266e+00,4.767e+00,4.198e+00,7.056e+00,5.439e+00,6.975e+00,6.591e+00,6.981e+00,7.866e+00,8.131e+00,7.742e+00,7.467e+00,8.221e+00,9.219e+00,8.510e+00,8.363e+00,8.596e+00,9.514e+00,8.471e+00,1.056e+01,8.879e+00,9.553e+00,9.818e+00,1.163e+01,1.027e+01,1.153e+01,1.070e+01,1.091e+01,1.073e+01,1.139e+01,1.247e+01,1.266e+01,1.274e+01,1.137e+01,1.324e+01,1.399e+01,1.186e+01,1.418e+01,1.486e+01,1.497e+01,1.653e+01,1.572e+01,1.630e+01,1.457e+01,1.629e+01,1.391e+01,1.704e+01,1.641e+01,1.748e+01,1.654e+01,1.789e+01,1.574e+01,2.107e+01,1.711e+01
2.142e-01,4.856e-01,3.989e-01,8.491e-01,1.332e+00,1.942e+00,1.275e+00,2.392e+00,2.334e+00,2.504e+00,2.497e+00,2.469e+00,4.683e+00,4.188e+00,4.882e+00,5.371e+00,4.095e+00,6.457e+00,4.609e+00,5.305e+00,7.157e+00,5.898e+00,6.670e+00,7.858e+00,7.055e+00,5.897e+00,6.449e+00,9.138e+00,6.257e+00,8.352e+00,8.195e+00,7.996e+00,8.182e+00,9.121e+00,7.843e+00,8.550e+00,9.657e+00,1.085e+01,1.018e+01,8.799e+00,1.061e+01,1.250e+01,1.065e+01,1.288e+01,8.236e+00,1.048e+01,1.201e+01,1.291e+01,1.215e+01,1.275e+01,1.238e+01,1.243e+01,1.253e+01,1.326e+01,1.284e+01,1.468e+01,1.357e+01,1.265e+01,1.397e+01,1.547e+01,1.310e+01,1.521e+01,1.470e+01,1.521e+01,1.677e+01,1.797e+01,1.722e+01,1.629e+01,1.713e+01,1.464e+01,1.911e+01,1.872e+01,1.928e+01,1.817e+01,1.996e+01,1.609e+01,2.290e+01,2.144e+01
1.039e-01,2.340e-01,3.699e-01,4.736e-01,1.096e+00,1.296e+00,1.101e+00,1.440e+00,1.551e+00,1.770e+00,1.633e+00,1.674e+00,2.467e+00,2.604e+00,2.243e+00,3.750e+00,2.994e+00,4.402e+00,2.900e+00,3.593e+00,5.117e+00,4.586e+00,4.801e+00,4.667e+00,5.122e+00,4.195e+00,4.730e+00,6.149e+00,4.644e+00,6.620e+00,6.665e+00,6.212e+00,6.442e+00,7.948e+00,7.748e+00,7.247e+00,8.279e+00,8.847e+00,9.270e+00,8.389e+00,8.357e+00,1.167e+01,1.021e+01,1.168e+01,9.440e+00,9.201e+00,1.076e+01,1.206e+01,1.125e+01,1.206e+01,1.334e+01,1.236e+01,1.129e+01,1.212e+01,1.391e+01,1.324e+01,1.418e+01,1.240e+01,1.268e+01,1.552e+01,1.285e+01,1.515e+01,1.532e+01,1.588e+01,1.712e+01,1.798e+01,1.768e+01,1.588e+01,1.704e+01,1.505e+01,1.880e+01,1.894e+01,1.794e+01,1.743e+01,1.945e+01,1.656e+01,2.354e+01,2.189e+01
