3.991e-01,1.521e-01,5.986e-01,4.030e-01,5.074e-01,9.394e-01,1.467e-01,7.875e-02,6.796e-01,3.406e-01,9.809e-02,2.582e-01,2.441e-01,8.379e-01,6.074e-01,7.770e-01,2.729e-01,5.586e-01,9.099e-01,6.522e-01,5.146e-01,6.703e-01,3.246e-01,3.576e-01,7.145e-02,7.273e-01,4.595e-01,3.676e-01,4.678e-01,4.137e-01,2.849e-03,3.746e-01,6.835e-01,6.174e-01,9.978e-01,2.293e-01,2.377e-01,2.954e-01,7.722e-01,2.762e-01,4.916e-01,7.055e-01,1.481e-01,1.654e-01,8.136e-01,5.197e-01,8.234e-01,2.900e-02,6.438e-01,5.514e-02,5.564e-02,4.640e-02,4.290e-01,2.396e-01,7.288e-02,7.882e-01,8.574e-01,1.664e-01,8.518e-01,5.877e-01,4.077e-02,5.076e-01,6.761e-01,8.032e-01,3.983e-01,3.712e-01,7.417e-02,8.061e-01,7.619e-02,2.426e-01,3.248e-01,3.481e-01,1.485e-01,7.628e-02
3.586e-01,1.014e+00,1.380e+00,7.870e-01,1.234e+00,1.718e+00,8.293e-01,2.770e-01,1.209e+00,4.514e-01,1.561e-01,1.002e+00,6.535e-01,8.714e-01,1.348e+00,1.504e+00,1.077e+00,5.904e-01,1.471e+00,1.541e+00,7.882e-01,1.525e+00,1.226e+00,1.041e+00,3.767e-01,6.667e-01,1.100e+00,5.121e-01,9.625e-01,4.231e-01,8.886e-01,6.520e-01,1.154e+00,1.222e+00,1.317e+00,6.908e-01,2.727e-01,8.519e-01,1.166e+00,9.893e-01,1.353e+00,1.578e+00,8.627e-01,2.598e-01,8.143e-01,1.195e+00,9.659e-01,5.617e-01,6.043e-01,8.440e-01,1.023e-01,7.902e-01,5.848e-01,1.168e+00,1.869e-01,1.177e+00,9.552e-01,4.162e-01,1.400e+00,1.416e+00,2.034e-01,5.858e-01,6.997e-01,1.264e+00,4.297e-01,7.871e-01,5.481e-01,1.246e+00,5.323e-01,1.112e+00,4.710e-01,5.231e-01,1.037e+00,5.699e-01
3.923e-01,1.499e-01,6.785e-01,8.611e-01,1.029e+00,1.511e+00,4.464e-01,5.321e-01,9.210e-01,6.291e-01,6.200e-01,1.209e+00,1.158e+00,1.491e+00,1.308e+00,1.714e+00,1.189e+00,7.516e-01,1.198e+00,1.233e+00,7.388e-01,1.521e+00,9.865e-01,9.194e-01,6.083e-01,7.699e-01,1.341e+00,7.138e-01,7.798e-01,6.741e-01,7.805e-01,5.593e-01,7.072e-01,1.584e+00,1.170e+00,9.009e-01,5.511e-01,4.846e-01,1.518e+00,3.517e-01,1.004e+00,1.607e+00,9.921e-01,4.961e-01,9.974e-01,6.533e-01,1.527e+00,6.271e-01,1.397e+00,9.055e-01,9.428e-01,1.949e-01,5.051e-01,8.348e-01,7.183e-01,1.625e+00,1.093e+00,1.111e+00,1.820e+00,1.416e+00,8.499e-01,5.325e-01,1.102e+00,9.487e-01,1.233e+00,8.351e-01,9.519e-01,1.436e+00,2.658e-01,9.705e-01,6.468e-01,3.873e-01,7.267e-01,5.132e-01
8.812e-03,4.784e-01,5.039e-01,8.868e-01,9.622e-01,1.600e+00,8.532e-01,3.586e-01,1.064e+00,3.373e-01,1.112e+00,1.702e+00,9.564e-01,8.416e-01,1.561e+00,1.252e+00,1.750e+00,1.104e+00,8.904e-01,1.487e+00,9.788e-01,1.045e+00,1.380e+00,1.240e+00,1.049e+00,2.188e-01,1.006e+00,1.200e+00,1.282e+00,6.476e-01,1.281e+00,1.036e+00,8.411e-01,9.494e-01,6.960e-01,9.877e-01,8.552e-01,4.211e-01,1.534e+00,1.234e+00,9.527e-01,1.056e+00,1.335e+00,8.952e-01,6.359e-01,1.002e+00,4.773e-01,1.136e+00,7.112e-01,1.243e+00,1.234e+00,8.257e-01,3.457e-01,1.437e+00,1.027e+00,8.457e-01,6.819e-01,5.506e-01,1.128e+00,1.583e+00,1.127e+00,7.552e-01,6.843e-01,6.017e-01,5.877e-01,5.404e-01,1.173e+00,1.288e+00,1.026e+00,1.571e+00,1.225e+00,1.983e-01,7.956e-01,1.224e+00
3.341e-01,6.216e-01,1.030e+00,1.311e+00,2.039e+00,3.055e+00,1.643e+00,5.747e-01,1.945e+00,1.532e+00,1.776e+00,2.844e+00,1.730e+00,2.470e+00,2.521e+00,2.722e+00,2.391e+00,1.723e+00,1.917e+00,2.682e+00,1.640e+00,2.085e+00,2.011e+00,2.068e+00,1.319e+00,1.331e+00,2.414e+00,1.583e+00,2.420e+00,1.389e+00,1.486e+00,2.115e+00,1.898e+00,1.833e+00,2.116e+00,1.366e+00,1.556e+00,1.400e+00,2.453e+00,1.618e+00,2.012e+00,2.836e+00,2.058e+00,1.378e+00,2.125e+00,1.501e+00,1.730e+00,1.997e+00,2.002e+00,2.381e+00,1.621e+00,1.584e+00,8.579e-01,2.638e+00,1.951e+00,1.995e+00,1.960e+00,1.868e+00,2.213e+00,2.874e+00,1.809e+00,1.318e+00,1.453e+00,1.664e+00,1.221e+00,1.813e+00,1.789e+00,2.512e+00,1.962e+00,2.038e+00,1.946e+00,1.032e+00,1.851e+00,1.529e+00
4.659e-02,6.253e-01,7.060e-01,9.021e-01,1.124e+00,1.939e+00,1.806e+00,1.287e+00,1.813e+00,1.353e+00,1.025e+00,2.555e+00,1.373e+00,1.107e+00,1.580e+00,1.914e+00,1.877e+00,1.628e+00,9.960e-01,1.962e+00,1.855e+00,1.809e+00,1.465e+00,1.549e+00,1.760e+00,1.152e+00,1.718e+00,1.008e+00,1.676e+00,8.341e-01,1.381e+00,1.666e+00,1.460e+00,1.807e+00,1.604e+00,1.385e+00,1.548e+00,7.354e-01,2.241e+00,1.155e+00,1.697e+00,1.742e+00,1.784e+00,1.107e+00,8.249e-01,1.234e+00,1.121e+00,1.685e+00,1.342e+00,2.359e+00,1.729e+00,1.776e+00,1.303e+00,1.662e+00,1.514e+00,1.471e+00,1.289e+00,8.987e-01,2.248e+00,2.418e+00,1.152e+00,8.810e-01,1.394e+00,1.558e+00,1.345e+00,8.046e-01,2.133e+00,1.337e+00,1.224e+00,2.162e+00,1.775e+00,1.114e+00,1.600e+00,1.468e+00
1.495e-02,6.640e-01,6.968e-01,9.787e-01,1.499e+00,2.343e+00,2.541e+00,1.046e+00,2.474e+00,1.949e+00,1.608e+00,3.273e+00,1.946e+00,1.623e+00,1.944e+00,2.773e+00,2.866e+00,2.271e+00,1.214e+00,2.298e+00,2.267e+00,1.806e+00,2.021e+00,2.228e+00,2.473e+00,2.005e+00,2.182e+00,1.946e+00,2.372e+00,1.506e+00,1.605e+00,2.839e+00,2.009e+00,2.323e+00,1.766e+00,2.018e+00,2.451e+00,1.976e+00,2.429e+00,1.642e+00,2.818e+00,2.690e+00,2.143e+00,2.179e+00,1.411e+00,1.504e+00,2.035e+00,2.578e+00,2.330e+00,3.115e+00,2.451e+00,2.532e+00,1.148e+00,2.669e+00,2.026e+00,2.239e+00,1.878e+00,1.381e+00,2.576e+00,2.872e+00,2.327e+00,1.566e+00,1.329e+00,2.047e+00,1.970e+00,1.780e+00,2.552e+00,1.896e+00,1.983e+00,2.585e+00,2.142e+00,1.921e+00,2.480e+00,1.693e+00
2.431e-01,4.866e-01,7.580e-01,7.893e-01,1.350e+00,2.301e+00,1.997e+00,2.030e+00,2.999e+00,2.195e+00,1.559e+00,3.567e+00,1.897e+00,2.324e+00,1.707e+00,2.637e+00,2.278e+00,1.949e+00,2.203e+00,2.192e+00,2.733e+00,2.400e+00,1.589e+00,1.650e+00,2.068e+00,2.119e+00,2.531e+00,1.579e+00,2.229e+00,1.447e+00,1.040e+00,3.088e+00,2.956e+00,2.195e+00,3.203e+00,1.267e+00,2.580e+00,1.726e+00,3.004e+00,1.669e+00,2.265e+00,2.829e+00,1.817e+00,1.940e+00,2.069e+00,2.136e+00,1.971e+00,2.460e+00,2.186e+00,3.034e+00,1.588e+00,2.075e+00,1.680e+00,2.724e+00,2.676e+00,2.376e+00,2.232e+00,2.101e+00,2.320e+00,3.041e+00,1.864e+00,2.157e+00,2.531e+00,2.331e+00,1.591e+00,1.594e+00,1.987e+00,2.586e+00,1.913e+00,2.006e+00,2.759e+00,1.747e+00,2.737e+00,1.491e+00
2.781e-01,4.871e-01,8.362e-01,8.480e-01,1.593e+00,2.237e+00,2.110e+00,1.345e+00,2.679e+00,2.953e+00,1.593e+00,3.872e+00,2.459e+00,2.820e+00,1.854e+00,3.805e+00,2.909e+00,2.521e+00,2.540e+00,2.910e+00,2.294e+00,2.525e+00,2.150e+00,2.686e+00,2.488e+00,2.853e+00,3.139e+00,2.667e+00,2.121e+00,1.624e+00,2.011e+00,3.134e+00,2.547e+00,2.866e+00,3.323e+00,1.911e+00,2.455e+00,3.152e+00,3.315e+00,1.627e+00,3.547e+00,4.121e+00,2.094e+00,2.142e+00,2.709e+00,1.724e+00,3.483e+00,3.369e+00,3.692e+00,3.128e+00,2.537e+00,2.654e+00,1.531e+00,2.888e+00,2.776e+00,3.062e+00,2.347e+00,2.804e+00,3.405e+00,3.172e+00,2.462e+00,2.262e+00,2.837e+00,3.258e+00,2.589e+00,2.659e+00,2.922e+00,3.130e+00,1.752e+00,2.178e+00,2.928e+00,2.798e+00,3.085e+00,1.445e+00
3.595e-01,5.117e-01,9.030e-01,9.760e-01,1.308e+00,2.456e+00,1.890e+00,1.694e+00,3.178e+00,2.487e+00,2.423e+00,3.854e+00,2.382e+00,2.666e+00,2.762e+00,3.196e+00,3.180e+00,3.115e+00,3.592e+00,3.064e+00,3.141e+00,2.428e+00,2.249e+00,3.055e+00,3.112e+00,2.823e+00,3.274e+00,3.553e+00,2.355e+00,1.798e+00,1.688e+00,4.181e+00,3.840e+00,3.179e+00,3.727e+00,2.209e+00,3.005e+00,2.925e+00,4.563e+00,2.520e+00,3.258e+00,3.776e+00,2.655e+00,2.639e+00,3.072e+00,3.028e+00,2.853e+00,3.732e+00,3.920e+00,2.976e+00,2.429e+00,2.514e+00,2.836e+00,2.911e+00,3.304e+00,2.821e+00,2.524e+00,2.650e+00,3.243e+00,3.182e+00,2.623e+00,3.235e+00,3.285e+00,3.614e+00,2.749e+00,2.770e+00,2.540e+00,3.303e+00,2.230e+00,3.224e+00,4.345e+00,3.241e+00,2.728e+00,1.973e+00
1.282e-01,6.323e-01,8.095e-01,8.478e-01,1.328e+00,1.869e+00,1.933e+00,1.219e+00,2.301e+00,1.990e+00,2.303e+00,3.609e+00,2.786e+00,2.797e+00,2.351e+00,3.609e+00,3.558e+00,2.399e+00,3.070e+00,2.447e+00,2.547e+00,2.197e+00,2.819e+00,3.725e+00,3.369e+00,2.178e+00,3.502e+00,3.243e+00,1.856e+00,1.566e+00,2.196e+00,3.602e+00,2.900e+00,3.696e+00,2.994e+00,2.537e+00,2.559e+00,3.680e+00,4.088e+00,2.186e+00,3.955e+00,4.196e+00,3.084e+00,2.351e+00,2.276e+00,2.763e+00,2.902e+00,4.194e+00,4.173e+00,3.597e+00,2.493e+00,2.473e+00,2.155e+00,3.435e+00,2.862e+00,3.356e+00,1.903e+00,3.274e+00,3.569e+00,3.528e+00,3.220e+00,2.829e+00,2.804e+00,3.540e+00,2.880e+00,3.433e+00,2.838e+00,3.218e+00,1.945e+00,3.144e+00,3.223e+00,3.113e+00,2.967e+00,1.835e+00
2.842e-01,2.393e-01,5.891e-01,9.246e-01,1.245e+00,2.343e+00,2.299e+00,1.246e+00,2.747e+00,2.363e+00,2.698e+00,4.536e+00,2.823e+00,3.704e+00,3.459e+00,4.241e+00,4.311e+00,3.719e+00,3.097e+00,3.072e+00,3.252e+00,2.102e+00,2.885e+00,4.244e+00,3.879e+00,3.435e+00,3.925e+00,4.145e+00,2.691e+00,2.286e+00,1.864e+00,4.402e+00,3.939e+00,3.976e+00,4.205e+00,3.378e+00,3.272e+00,4.091e+00,4.617e+00,2.282e+00,4.064e+00,4.292e+00,3.239e+00,3.390e+00,3.539e+00,3.575e+00,3.176e+00,4.158e+00,5.441e+00,4.289e+00,3.756e+00,3.474e+00,3.686e+00,3.966e+00,3.144e+00,3.948e+00,2.661e+00,3.689e+00,4.577e+00,4.585e+00,3.445e+00,3.294e+00,3.188e+00,4.367e+00,3.950e+00,3.905e+00,3.923e+00,3.692e+00,2.630e+00,3.993e+00,4.073e+00,4.161e+00,3.180e+00,2.741e+00
1.497e-01,6.907e-01,8.434e-01,8.470e-01,1.318e+00,2.173e+00,1.848e+00,1.660e+00,2.704e+00,2.264e+00,1.813e+00,4.124e+00,2.350e+00,3.350e+00,2.797e+00,3.293e+00,3.917e+00,2.654e+00,2.882e+00,3.525e+00,2.934e+00,2.492e+00,2.760e+00,2.758e+00,2.770e+00,2.392e+00,3.155e+00,2.877e+00,2.464e+00,2.286e+00,2.703e+00,3.924e+00,3.555e+00,2.703e+00,4.203e+00,2.077e+00,3.058e+00,3.526e+00,3.917e+00,2.948e+00,3.718e+00,3.684e+00,2.500e+00,2.609e+00,3.226e+00,3.268e+00,3.096e+00,3.809e+00,3.514e+00,3.965e+00,2.428e+00,2.758e+00,2.642e+00,3.875e+00,3.786e+00,3.316e+00,2.222e+00,3.003e+00,3.500e+00,4.139e+00,3.041e+00,2.717e+00,3.914e+00,3.997e+00,3.114e+00,2.517e+00,3.814e+00,3.270e+00,2.837e+00,3.278e+00,3.964e+00,3.441e+00,3.616e+00,2.413e+00
3.366e-01,6.088e-01,1.011e+00,9.019e-01,1.249e+00,2.016e+00,1.671e+00,1.346e+00,2.369e+00,1.846e+00,1.309e+00,3.667e+00,2.375e+00,4.164e+00,2.912e+00,4.535e+00,4.493e+00,2.687e+00,3.446e+00,3.357e+00,3.603e+00,3.015e+00,3.481e+00,3.045e+00,3.472e+00,3.372e+00,3.458e+00,3.400e+00,2.351e+00,2.429e+00,3.076e+00,3.740e+00,3.575e+00,3.529e+00,4.687e+00,3.397e+00,2.746e+00,4.320e+00,4.297e+00,2.605e+00,4.271e+00,3.708e+00,3.076e+00,3.405e+00,3.143e+00,3.551e+00,4.132e+00,4.193e+00,4.432e+00,4.707e+00,2.602e+00,3.011e+00,3.205e+00,4.066e+00,3.453e+00,4.132e+00,2.846e+00,3.542e+00,5.166e+00,4.840e+00,3.862e+00,3.195e+00,4.323e+00,5.063e+00,3.988e+00,3.301e+00,4.010e+00,4.086e+00,2.924e+00,3.916e+00,3.144e+00,4.328e+00,4.185e+00,2.885e+00
2.843e-01,6.670e-01,1.025e+00,1.262e+00,1.660e+00,2.562e+00,1.798e+00,1.562e+00,3.026e+00,2.199e+00,2.771e+00,4.863e+00,3.361e+00,4.329e+00,4.808e+00,5.102e+00,5.652e+00,4.109e+00,5.221e+00,4.687e+00,3.562e+00,4.180e+00,4.591e+00,4.254e+00,4.531e+00,3.226e+00,5.180e+00,5.077e+00,3.287e+00,2.942e+00,3.768e+00,5.166e+00,4.908e+00,5.290e+00,5.047e+00,4.166e+00,3.599e+00,5.327e+00,5.454e+00,4.199e+00,5.243e+00,5.478e+00,4.143e+00,4.721e+00,4.814e+00,4.324e+00,4.499e+00,5.503e+00,5.502e+00,4.764e+00,4.357e+00,4.056e+00,3.783e+00,5.746e+00,4.399e+00,5.470e+00,3.423e+00,5.301e+00,5.847e+00,5.873e+00,5.074e+00,4.930e+00,4.495e+00,5.349e+00,4.563e+00,4.502e+00,5.039e+00,5.432e+00,3.779e+00,5.619e+00,4.858e+00,4.629e+00,4.443e+00,3.712e+00
1.745e-02,6.654e-01,7.204e-01,9.786e-01,1.534e+00,2.195e+00,1.895e+00,1.519e+00,2.334e+00,1.682e+00,2.534e+00,4.481e+00,2.835e+00,3.272e+00,3.980e+00,4.830e+00,5.096e+00,3.791e+00,4.129e+00,3.543e+00,3.116e+00,4.376e+00,3.925e+00,3.813e+00,4.173e+00,2.839e+00,5.169e+00,3.456e+00,2.907e+00,2.856e+00,3.645e+00,4.707e+00,4.722e+00,4.980e+00,4.395e+00,3.885e+00,3.537e+00,4.425e+00,4.959e+00,3.852e+00,4.500e+00,5.385e+00,4.284e+00,3.696e+00,4.090e+00,4.236e+00,3.289e+00,4.812e+00,4.461e+00,4.579e+00,4.274e+00,3.890e+00,3.555e+00,5.900e+00,4.109e+00,4.490e+00,3.039e+00,5.466e+00,4.576e+00,5.353e+00,4.320e+00,4.189e+00,3.672e+00,4.233e+00,3.058e+00,3.866e+00,4.626e+00,4.740e+00,3.789e+00,5.217e+00,3.983e+00,3.815e+00,4.306e+00,4.006e+00
2.144e-02,1.507e-02,5.361e-02,2.201e-01,5.531e-01,9.283e-01,1.419e+00,1.245e+00,1.840e+00,2.081e+00,1.730e+00,2.953e+00,1.978e+00,2.787e+00,2.117e+00,3.321e+00,3.596e+00,3.459e+00,3.328e+00,2.923e+00,3.693e+00,3.671e+00,3.371e+00,2.774e+00,4.266e+00,3.599e+00,3.716e+00,3.704e+00,2.703e+00,3.066e+00,3.113e+00,4.125e+00,4.226e+00,4.404e+00,4.159e+00,2.980e+00,3.949e+00,4.082e+00,4.187e+00,3.046e+00,4.215e+00,4.311e+00,3.460e+00,3.573e+00,4.227e+00,2.799e+00,4.064e+00,5.358e+00,4.009e+00,4.003e+00,3.414e+00,3.778e+00,3.260e+00,4.382e+00,4.243e+00,4.455e+00,3.268e+00,4.299e+00,4.789e+00,4.262e+00,4.431e+00,4.442e+00,4.351e+00,4.383e+00,3.037e+00,3.765e+00,3.477e+00,3.657e+00,3.478e+00,4.179e+00,4.221e+00,4.602e+00,4.245e+00,2.647e+00
3.238e-01,4.951e-01,9.173e-01,9.696e-01,1.459e+00,2.127e+00,1.411e+00,1.577e+00,2.266e+00,1.891e+00,1.647e+00,3.640e+00,2.552e+00,3.815e+00,2.936e+00,4.071e+00,4.392e+00,2.881e+00,3.772e+00,4.171e+00,4.124e+00,5.067e+00,3.873e+00,3.733e+00,3.820e+00,4.258e+00,4.124e+00,3.865e+00,2.955e+00,4.160e+00,3.670e+00,3.719e+00,4.367e+00,5.324e+00,5.123e+00,3.117e+00,3.682e+00,4.781e+00,4.594e+00,3.352e+00,5.188e+00,5.666e+00,4.162e+00,3.122e+00,4.403e+00,3.674e+00,4.663e+00,4.714e+00,4.825e+00,4.575e+00,3.041e+00,3.844e+00,3.312e+00,4.971e+00,5.275e+00,5.170e+00,3.275e+00,4.652e+00,5.644e+00,5.498e+00,4.446e+00,3.778e+00,4.891e+00,5.147e+00,4.406e+00,4.423e+00,4.505e+00,4.684e+00,4.004e+00,4.319e+00,4.585e+00,4.164e+00,5.159e+00,2.947e+00
1.824e-01,9.000e-01,1.098e+00,9.048e-01,1.545e+00,2.099e+00,1.473e+00,1.059e+00,2.077e+00,1.518e+00,2.220e+00,4.099e+00,2.780e+00,4.345e+00,4.019e+00,4.841e+00,5.442e+00,3.148e+00,5.406e+00,4.705e+00,4.392e+00,4.896e+00,4.994e+00,5.369e+00,4.256e+00,4.181e+00,5.753e+00,4.159e+00,3.691e+00,3.704e+00,4.322e+00,5.494e+00,5.436e+00,5.452e+00,6.153e+00,4.714e+00,4.034e+00,6.040e+00,5.207e+00,4.519e+00,6.272e+00,5.723e+00,5.319e+00,3.612e+00,4.711e+00,5.627e+00,4.524e+00,6.006e+00,5.583e+00,5.427e+00,3.912e+00,4.387e+00,4.230e+00,6.127e+00,4.858e+00,5.064e+00,3.200e+00,6.132e+00,5.878e+00,6.063e+00,4.755e+00,4.874e+00,4.865e+00,5.826e+00,4.713e+00,4.890e+00,5.239e+00,5.391e+00,5.168e+00,5.643e+00,4.979e+00,5.456e+00,5.769e+00,4.257e+00
2.909e-01,8.827e-01,1.234e+00,1.318e+00,1.937e+00,2.969e+00,2.420e+00,1.666e+00,3.264e+00,2.200e+00,2.478e+00,4.665e+00,3.009e+00,3.748e+00,4.575e+00,5.212e+00,5.475e+00,4.119e+00,5.682e+00,5.877e+00,6.328e+00,6.985e+00,6.352e+00,5.881e+00,5.584e+00,6.697e+00,6.700e+00,5.732e+00,5.146e+00,5.041e+00,4.983e+00,6.080e+00,6.642e+00,7.596e+00,6.443e+00,6.335e+00,5.252e+00,6.682e+00,5.835e+00,4.604e+00,7.174e+00,6.606e+00,6.258e+00,5.717e+00,5.742e+00,5.155e+00,5.489e+00,6.404e+00,6.478e+00,5.851e+00,4.983e+00,6.991e+00,5.181e+00,7.177e+00,6.340e+00,6.780e+00,5.238e+00,6.744e+00,8.335e+00,7.268e+00,5.785e+00,5.850e+00,4.518e+00,6.393e+00,5.809e+00,6.287e+00,5.417e+00,6.084e+00,5.924e+00,7.058e+00,6.452e+00,5.624e+00,7.294e+00,4.678e+00
1.312e-01,5.065e-01,6.712e-01,9.339e-01,1.402e+00,2.282e+00,1.930e+00,1.834e+00,2.894e+00,2.532e+00,2.595e+00,5.221e+00,3.070e+00,4.496e+00,4.618e+00,5.295e+00,6.264e+00,4.842e+00,5.897e+00,6.308e+00,6.601e+00,7.191e+00,6.701e+00,6.438e+00,6.518e+00,6.983e+00,7.779e+00,6.262e+00,5.098e+00,5.728e+00,6.013e+00,7.127e+00,8.057e+00,7.782e+00,8.257e+00,6.014e+00,6.574e+00,7.347e+00,7.021e+00,6.095e+00,7.785e+00,8.086e+00,6.973e+00,5.486e+00,7.524e+00,6.330e+00,6.143e+00,8.298e+00,7.009e+00,6.477e+00,6.439e+00,7.622e+00,6.294e+00,8.219e+00,7.867e+00,6.890e+00,5.648e+00,7.743e+00,8.775e+00,8.521e+00,6.811e+00,6.947e+00,6.399e+00,7.883e+00,6.901e+00,6.979e+00,7.288e+00,7.385e+00,7.133e+00,7.299e+00,8.034e+00,7.207e+00,8.575e+00,6.065e+00
3.032e-01,5.763e-01,9.284e-01,9.066e-01,1.220e+00,2.197e+00,2.048e+00,2.089e+00,3.175e+00,2.110e+00,1.508e+00,3.846e+00,2.342e+00,2.951e+00,2.246e+00,4.043e+00,4.214e+00,3.528e+00,3.161e+00,3.366e+00,5.046e+00,5.463e+00,4.650e+00,4.185e+00,4.757e+00,5.971e+00,5.534e+00,3.471e+00,3.324e+00,4.433e+00,5.021e+00,5.675e+00,6.020e+00,5.536e+00,6.614e+00,4.168e+00,5.584e+00,5.117e+00,6.199e+00,4.317e+00,5.877e+00,6.015e+00,4.371e+00,4.192e+00,5.618e+00,5.016e+00,5.035e+00,5.828e+00,4.720e+00,4.803e+00,4.115e+00,5.205e+00,4.529e+00,6.622e+00,5.715e+00,5.403e+00,4.986e+00,5.245e+00,6.281e+00,6.003e+00,4.718e+00,4.680e+00,5.439e+00,5.393e+00,4.932e+00,4.325e+00,5.072e+00,5.661e+00,4.167e+00,4.286e+00,5.531e+00,4.650e+00,6.610e+00,4.155e+00
3.066e-01,8.936e-01,1.250e+00,1.361e+00,2.032e+00,3.034e+00,1.786e+00,9.465e-01,2.447e+00,1.773e+00,2.404e+00,3.711e+00,2.588e+00,3.870e+00,4.434e+00,4.158e+00,4.782e+00,3.328e+00,4.371e+00,4.757e+00,3.781e+00,4.619e+00,5.747e+00,5.205e+00,4.612e+00,4.177e+00,5.724e+00,4.322e+00,4.572e+00,4.458e+00,5.385e+00,5.713e+00,5.410e+00,5.445e+00,5.830e+00,4.474e+00,3.998e+00,5.390e+00,6.001e+00,5.664e+00,5.351e+00,6.340e+00,5.591e+00,4.692e+00,5.664e+00,4.832e+00,4.881e+00,6.118e+00,5.208e+00,5.528e+00,4.374e+00,5.079e+00,4.519e+00,6.964e+00,5.498e+00,5.724e+00,5.073e+00,5.707e+00,6.741e+00,7.114e+00,5.520e+00,4.785e+00,4.821e+00,6.065e+00,4.739e+00,5.281e+00,5.320e+00,6.332e+00,5.326e+00,5.682e+00,5.072e+00,4.397e+00,5.598e+00,4.146e+00
1.381e-01,8.640e-02,2.701e-01,4.730e-01,8.764e-01,1.376e+00,1.445e+00,8.712e-01,1.745e+00,2.276e+00,1.780e+00,3.743e+00,2.176e+00,3.539e+00,2.828e+00,5.102e+00,4.489e+00,4.272e+00,4.665e+00,4.081e+00,4.703e+00,5.395e+00,5.282e+00,6.567e+00,5.578e+00,7.465e+00,6.600e+00,5.417e+00,4.462e+00,4.753e+00,5.963e+00,6.741e+00,5.851e+00,6.238e+00,7.350e+00,6.609e+00,4.901e+00,6.514e+00,6.308e+00,4.943e+00,6.579e+00,7.355e+00,7.055e+00,5.469e+00,6.663e+00,5.368e+00,6.617e+00,7.887e+00,7.225e+00,6.105e+00,6.507e+00,6.583e+00,5.753e+00,6.935e+00,6.228e+00,5.623e+00,5.678e+00,7.087e+00,8.393e+00,7.479e+00,6.169e+00,6.146e+00,6.004e+00,7.272e+00,5.810e+00,5.833e+00,6.268e+00,7.605e+00,6.073e+00,6.423e+00,5.652e+00,6.949e+00,6.595e+00,4.818e+00
2.480e-01,2.995e-01,5.730e-01,7.851e-01,8.500e-01,1.845e+00,1.276e+00,1.695e+00,2.621e+00,1.635e+00,1.906e+00,3.233e+00,2.022e+00,3.043e+00,2.997e+00,3.102e+00,3.908e+00,3.696e+00,4.395e+00,4.104e+00,4.893e+00,4.889e+00,4.656e+00,4.146e+00,5.419e+00,5.760e+00,5.247e+00,4.650e+00,4.774e+00,4.642e+00,5.092e+00,6.587e+00,6.112e+00,5.744e+00,6.592e+00,4.897e+00,5.667e+00,4.874e+00,6.138e+00,4.846e+00,5.776e+00,6.015e+00,5.579e+00,5.228e+00,5.910e+00,5.086e+00,4.876e+00,6.339e+00,4.628e+00,4.746e+00,5.018e+00,5.451e+00,4.903e+00,6.144e+00,6.398e+00,5.694e+00,5.326e+00,5.116e+00,6.974e+00,6.658e+00,5.200e+00,5.638e+00,5.851e+00,6.043e+00,4.997e+00,4.359e+00,5.241e+00,5.754e+00,5.012e+00,5.560e+00,6.386e+00,5.195e+00,6.034e+00,4.244e+00
3.009e-01,5.492e-01,9.554e-01,1.327e+00,1.545e+00,2.449e+00,1.301e+00,1.442e+00,2.419e+00,1.568e+00,1.767e+00,4.359e+00,2.684e+00,3.859e+00,4.043e+00,4.681e+00,5.566e+00,4.039e+00,4.042e+00,5.182e+00,4.622e+00,6.209e+00,5.638e+00,5.409e+00,4.996e+00,7.227e+00,6.784e+00,6.179e+00,4.442e+00,6.253e+00,6.900e+00,6.467e+00,6.004e+00,7.273e+00,7.819e+00,6.368e+00,5.611e+00,6.943e+00,6.678e+00,5.986e+00,6.718e+00,7.647e+00,6.429e+00,5.362e+00,7.914e+00,5.664e+00,6.681e+00,6.339e+00,6.833e+00,6.349e+00,6.201e+00,6.570e+00,5.312e+00,8.046e+00,7.235e+00,6.898e+00,5.290e+00,6.234e+00,8.907e+00,8.714e+00,7.026e+00,5.475e+00,6.836e+00,7.507e+00,6.342e+00,5.600e+00,7.468e+00,7.089e+00,5.648e+00,6.695e+00,6.367e+00,5.995e+00,7.002e+00,4.858e+00
3.871e-01,6.106e-01,1.082e+00,1.107e+00,1.780e+00,2.668e+00,1.791e+00,1.310e+00,2.486e+00,2.475e+00,2.385e+00,4.156e+00,2.796e+00,3.846e+00,4.198e+00,4.529e+00,4.484e+00,4.025e+00,5.438e+00,5.634e+00,5.130e+00,6.602e+00,6.099e+00,6.768e+00,5.139e+00,7.547e+00,9.313e+00,6.167e+00,5.996e+00,5.904e+00,6.606e+00,8.307e+00,7.811e+00,7.480e+00,9.046e+00,7.225e+00,6.265e+00,7.882e+00,7.556e+00,6.555e+00,7.898e+00,8.141e+00,7.638e+00,6.054e+00,9.185e+00,6.804e+00,6.974e+00,8.759e+00,7.258e+00,6.124e+00,6.984e+00,8.176e+00,6.212e+00,8.928e+00,7.343e+00,6.550e+00,6.504e+00,8.234e+00,9.263e+00,9.080e+00,7.217e+00,6.562e+00,6.625e+00,7.566e+00,6.947e+00,7.219e+00,6.951e+00,8.008e+00,6.441e+00,7.125e+00,7.825e+00,7.726e+00,8.049e+00,4.926e+00
6.383e-02,4.929e-01,5.685e-01,7.898e-01,1.037e+00,1.660e+00,1.188e+00,1.185e+00,2.080e+00,1.681e+00,2.101e+00,4.018e+00,2.427e+00,3.736e+00,3.304e+00,4.676e+00,5.045e+00,3.858e+00,5.091e+00,4.696e+00,4.915e+00,5.729e+00,5.916e+00,5.975e+00,5.691e+00,5.883e+00,6.647e+00,6.879e+00,4.950e+00,5.900e+00,7.108e+00,6.479e+00,6.594e+00,6.885e+00,7.571e+00,6.674e+00,4.861e+00,7.996e+00,7.330e+00,6.313e+00,7.539e+00,7.202e+00,6.741e+00,5.770e+00,6.811e+00,6.284e+00,5.684e+00,7.716e+00,7.126e+00,6.105e+00,6.567e+00,6.894e+00,5.118e+00,8.840e+00,7.512e+00,6.381e+00,5.813e+00,7.301e+00,8.054e+00,8.381e+00,7.027e+00,6.561e+00,6.986e+00,7.907e+00,5.794e+00,6.774e+00,6.803e+00,8.491e+00,5.980e+00,6.797e+00,7.216e+00,6.270e+00,7.841e+00,5.539e+00
1.316e-01,6.565e-01,8.395e-01,1.161e+00,1.693e+00,2.679e+00,2.204e+00,1.865e+00,2.936e+00,2.626e+00,2.463e+00,5.026e+00,2.923e+00,3.783e+00,2.983e+00,5.419e+00,5.407e+00,4.297e+00,4.996e+00,5.190e+00,6.581e+00,7.209e+00,6.252e+00,6.844e+00,6.495e+00,8.208e+00,7.971e+00,6.565e+00,6.152e+00,7.363e+00,7.429e+00,8.010e+00,7.622e+00,8.677e+00,9.594e+00,7.484e+00,6.837e+00,7.715e+00,9.014e+00,6.433e+00,8.634e+00,8.394e+00,8.661e+00,5.548e+00,8.184e+00,6.724e+00,6.987e+00,9.407e+00,7.985e+00,8.161e+00,7.372e+00,7.589e+00,6.624e+00,9.067e+00,8.747e+00,6.869e+00,6.068e+00,8.195e+00,9.570e+00,9.289e+00,7.967e+00,6.720e+00,8.137e+00,8.796e+00,6.642e+00,7.123e+00,7.578e+00,8.049e+00,6.786e+00,7.224e+00,8.621e+00,7.609e+00,9.267e+00,6.179e+00
1.205e-01,6.975e-01,8.761e-01,8.102e-01,1.409e+00,1.723e+00,1.572e+00,1.087e+00,1.868e+00,2.061e+00,2.273e+00,4.016e+00,3.064e+00,3.965e+00,3.143e+00,4.506e+00,4.721e+00,2.641e+00,4.302e+00,4.147e+00,4.157e+00,4.113e+00,5.664e+00,6.485e+00,4.833e+00,5.884e+00,7.739e+00,6.501e+00,4.439e+00,6.334e+00,7.229e+00,8.154e+00,6.540e+00,7.447e+00,7.930e+00,7.910e+00,5.326e+00,9.179e+00,8.058e+00,6.572e+00,7.559e+00,8.251e+00,7.932e+00,5.733e+00,7.549e+00,6.569e+00,7.313e+00,8.710e+00,8.075e+00,7.338e+00,7.016e+00,7.148e+00,6.338e+00,8.909e+00,8.094e+00,6.547e+00,5.663e+00,8.178e+00,8.589e+00,9.341e+00,8.685e+00,5.681e+00,7.171e+00,8.862e+00,6.847e+00,8.190e+00,6.701e+00,7.326e+00,5.863e+00,6.767e+00,7.220e+00,7.357e+00,8.025e+00,5.112e+00
1.358e-01,6.826e-01,8.740e-01,1.022e+00,1.349e+00,2.066e+00,1.866e+00,1.261e+00,2.267e+00,2.125e+00,1.844e+00,4.060e+00,2.655e+00,3.374e+00,2.901e+00,4.747e+00,4.797e+00,3.788e+00,3.956e+00,4.537e+00,4.828e+00,5.691e+00,6.067e+00,7.071e+00,5.684e+00,7.992e+00,8.162e+00,6.967e+00,5.909e+00,8.310e+00,9.127e+00,9.326e+00,8.071e+00,8.840e+00,9.892e+00,9.597e+00,7.258e+00,1.010e+01,9.561e+00,8.061e+00,8.898e+00,9.386e+00,9.433e+00,7.814e+00,9.929e+00,7.519e+00,9.431e+00,1.034e+01,9.152e+00,8.618e+00,8.950e+00,9.245e+00,8.276e+00,1.118e+01,9.716e+00,7.906e+00,7.633e+00,9.501e+00,1.080e+01,1.185e+01,1.052e+01,7.370e+00,9.136e+00,1.086e+01,7.965e+00,9.048e+00,8.817e+00,8.949e+00,7.063e+00,8.629e+00,8.244e+00,8.513e+00,9.486e+00,6.228e+00
1.323e-01,7.931e-01,9.390e-01,7.469e-01,1.605e+00,2.305e+00,2.253e+00,1.447e+00,2.252e+00,2.942e+00,1.653e+00,4.631e+00,2.460e+00,4.169e+00,3.692e+00,5.214e+00,5.118e+00,4.281e+00,4.455e+00,5.607e+00,5.394e+00,6.634e+00,6.325e+00,6.064e+00,5.878e+00,7.434e+00,8.588e+00,5.762e+00,5.662e+00,6.256e+00,8.201e+00,8.746e+00,9.218e+00,8.044e+00,1.024e+01,8.092e+00,8.028e+00,9.470e+00,8.626e+00,7.494e+00,8.367e+00,9.779e+00,8.202e+00,7.297e+00,9.909e+00,7.354e+00,8.274e+00,1.025e+01,8.367e+00,8.287e+00,7.809e+00,9.416e+00,8.196e+00,1.071e+01,8.675e+00,7.721e+00,7.854e+00,9.876e+00,1.030e+01,1.100e+01,8.487e+00,7.731e+00,8.415e+00,9.855e+00,7.985e+00,8.495e+00,9.378e+00,9.202e+00,7.298e+00,8.652e+00,8.513e+00,9.035e+00,1.024e+01,6.675e+00
1.450e-01,4.422e-01,6.746e-01,1.159e+00,1.541e+00,2.373e+00,1.794e+00,1.541e+00,2.515e+00,2.126e+00,2.256e+00,4.441e+00,2.906e+00,3.941e+00,3.542e+00,4.495e+00,4.926e+00,3.236e+00,3.820e+00,4.465e+00,4.058e+00,4.944e+00,5.110e+00,5.919e+00,5.398e+00,6.888e+00,7.160e+00,6.887e+00,5.670e+00,7.146e+00,7.793e+00,8.771e+00,7.428e+00,8.683e+00,9.104e+00,8.762e+00,7.368e+00,1.023e+01,9.159e+00,7.880e+00,8.281e+00,9.213e+00,8.903e+00,8.585e+00,8.932e+00,7.702e+00,7.731e+00,9.065e+00,9.858e+00,8.973e+00,8.832e+00,7.691e+00,7.002e+00,1.041e+01,9.290e+00,7.738e+00,7.432e+00,9.052e+00,1.015e+01,1.073e+01,9.908e+00,6.785e+00,9.141e+00,9.462e+00,9.241e+00,8.399e+00,9.547e+00,9.669e+00,6.905e+00,8.788e+00,8.223e+00,7.582e+00,9.193e+00,5.882e+00
1.684e-02,4.171e-01,4.353e-01,7.601e-01,1.168e+00,1.936e+00,1.961e+00,9.336e-01,2.240e+00,2.004e+00,2.182e+00,3.452e+00,2.233e+00,3.205e+00,2.857e+00,4.043e+00,4.408e+00,3.642e+00,3.752e+00,3.726e+00,4.579e+00,4.124e+00,5.572e+00,5.299e+00,6.112e+00,6.288e+00,7.380e+00,6.507e+00,6.144e+00,7.100e+00,7.547e+00,9.329e+00,8.249e+00,9.045e+00,9.510e+00,9.292e+00,8.422e+00,9.806e+00,9.681e+00,8.549e+00,8.093e+00,8.779e+00,9.572e+00,9.208e+00,9.788e+00,7.309e+00,7.565e+00,1.044e+01,8.862e+00,8.636e+00,9.798e+00,8.636e+00,7.424e+00,1.068e+01,9.829e+00,7.687e+00,8.212e+00,9.404e+00,1.001e+01,1.108e+01,1.085e+01,7.789e+00,8.898e+00,1.019e+01,7.988e+00,8.782e+00,7.912e+00,9.419e+00,7.339e+00,9.197e+00,8.563e+00,8.826e+00,9.246e+00,6.816e+00
8.393e-02,2.610e-01,4.225e-01,6.181e-01,1.211e+00,1.741e+00,2.371e+00,1.714e+00,2.460e+00,2.917e+00,1.527e+00,4.511e+00,2.639e+00,3.587e+00,2.397e+00,5.171e+00,4.409e+00,3.489e+00,3.845e+00,4.315e+00,5.559e+00,5.812e+00,5.360e+00,6.198e+00,6.062e+00,8.311e+00,8.236e+00,6.500e+00,6.343e+00,7.397e+00,7.687e+00,9.105e+00,8.438e+00,9.265e+00,1.129e+01,1.062e+01,9.122e+00,1.055e+01,9.455e+00,7.712e+00,9.394e+00,1.016e+01,9.941e+00,8.911e+00,1.070e+01,7.881e+00,9.540e+00,1.113e+01,9.660e+00,1.004e+01,1.014e+01,1.021e+01,8.397e+00,1.100e+01,1.009e+01,8.073e+00,8.294e+00,1.121e+01,1.176e+01,1.212e+01,1.065e+01,7.612e+00,8.739e+00,1.126e+01,9.782e+00,9.467e+00,8.737e+00,1.006e+01,7.891e+00,9.134e+00,9.307e+00,9.738e+00,1.078e+01,7.593e+00
2.281e-01,2.186e-01,4.695e-01,5.896e-01,8.156e-01,1.665e+00,1.293e+00,1.483e+00,2.239e+00,1.675e+00,1.361e+00,3.616e+00,1.744e+00,3.192e+00,2.587e+00,3.226e+00,3.399e+00,2.923e+00,3.215e+00,3.786e+00,4.010e+00,4.312e+00,3.970e+00,4.994e+00,4.037e+00,6.528e+00,5.407e+00,5.265e+00,4.976e+00,6.473e+00,6.229e+00,7.671e+00,7.272e+00,7.404e+00,9.343e+00,9.362e+00,8.469e+00,9.531e+00,7.979e+00,7.384e+00,8.057e+00,9.087e+00,7.901e+00,8.198e+00,9.095e+00,7.832e+00,7.808e+00,8.482e+00,8.509e+00,8.629e+00,8.477e+00,8.174e+00,7.680e+00,1.016e+01,8.873e+00,8.323e+00,7.543e+00,9.797e+00,9.935e+00,1.103e+01,8.769e+00,7.135e+00,8.094e+00,9.868e+00,9.097e+00,8.312e+00,8.373e+00,8.962e+00,7.076e+00,8.461e+00,8.758e+00,7.616e+00,8.249e+00,6.485e+00
3.262e-01,1.313e-01,5.537e-01,9.298e-01,9.875e-01,1.786e+00,8.574e-01,1.547e+00,2.324e+00,1.231e+00,1.916e+00,3.567e+00,2.339e+00,3.554e+00,3.644e+00,4.055e+00,4.790e+00,3.463e+00,4.580e+00,4.219e+00,5.043e+00,5.741e+00,5.501e+00,5.773e+00,5.101e+00,7.630e+00,7.796e+00,6.924e+00,5.912e+00,8.387e+00,7.291e+00,9.300e+00,8.754e+00,9.632e+00,1.089e+01,1.094e+01,9.883e+00,1.078e+01,1.012e+01,1.036e+01,9.202e+00,1.084e+01,1.073e+01,1.062e+01,1.188e+01,1.009e+01,9.664e+00,1.081e+01,1.011e+01,1.017e+01,1.098e+01,9.196e+00,8.756e+00,1.131e+01,1.147e+01,9.472e+00,9.071e+00,1.222e+01,1.228e+01,1.225e+01,1.237e+01,8.583e+00,9.587e+00,1.076e+01,1.090e+01,1.010e+01,8.233e+00,1.152e+01,9.395e+00,1.022e+01,1.024e+01,9.735e+00,9.914e+00,7.798e+00
3.667e-01,5.519e-01,9.648e-01,1.082e+00,1.577e+00,2.779e+00,2.108e+00,1.040e+00,2.564e+00,2.355e+00,1.639e+00,4.145e+00,2.037e+00,3.637e+00,3.810e+00,4.877e+00,4.527e+00,4.396e+00,4.093e+00,5.154e+00,4.705e+00,5.475e+00,4.856e+00,5.830e+00,5.142e+00,7.960e+00,7.022e+00,6.534e+00,5.530e+00,6.376e+00,6.351e+00,7.551e+00,6.805e+00,7.131e+00,8.610e+00,8.525e+00,6.961e+00,9.539e+00,8.265e+00,7.576e+00,9.259e+00,9.136e+00,8.175e+00,7.202e+00,9.129e+00,7.873e+00,8.361e+00,8.275e+00,8.552e+00,8.989e+00,9.404e+00,9.077e+00,6.621e+00,9.812e+00,8.910e+00,7.416e+00,8.233e+00,7.880e+00,1.048e+01,1.126e+01,8.191e+00,6.709e+00,7.154e+00,9.900e+00,8.677e+00,8.029e+00,8.604e+00,9.946e+00,8.331e+00,8.094e+00,8.587e+00,8.879e+00,8.254e+00,6.639e+00
2.976e-01,3.489e-01,7.125e-01,9.071e-01,1.251e+00,2.241e+00,1.935e+00,1.496e+00,2.635e+00,2.628e+00,2.313e+00,4.542e+00,2.748e+00,4.108e+00,3.368e+00,5.313e+00,4.737e+00,4.613e+00,5.513e+00,5.002e+00,5.678e+00,6.159e+00,5.794e+00,7.201e+00,6.395e+00,8.554e+00,8.837e+00,7.011e+00,6.649e+00,7.702e+00,7.974e+00,1.055e+01,9.390e+00,1.018e+01,1.172e+01,1.104e+01,9.975e+00,1.181e+01,1.208e+01,9.579e+00,1.121e+01,1.157e+01,1.183e+01,1.049e+01,1.231e+01,9.892e+00,1.028e+01,1.270e+01,1.177e+01,1.102e+01,1.162e+01,1.128e+01,1.040e+01,1.151e+01,1.106e+01,9.641e+00,1.018e+01,1.266e+01,1.294e+01,1.356e+01,1.127e+01,1.020e+01,1.099e+01,1.185e+01,1.102e+01,1.053e+01,9.940e+00,1.224e+01,9.569e+00,1.123e+01,1.057e+01,1.106e+01,1.068e+01,8.613e+00
1.147e-01,5.662e-01,7.100e-01,6.520e-01,1.062e+00,1.477e+00,1.150e+00,1.219e+00,1.745e+00,1.841e+00,1.627e+00,3.250e+00,2.176e+00,3.310e+00,2.581e+00,4.212e+00,4.388e+00,2.932e+00,4.016e+00,3.710e+00,4.328e+00,4.980e+00,5.101e+00,4.995e+00,5.353e+00,6.543e+00,6.428e+00,5.808e+00,4.681e+00,6.154e+00,8.055e+00,8.387e+00,7.831e+00,7.776e+00,9.167e+00,9.088e+00,8.147e+00,1.032e+01,1.061e+01,7.869e+00,1.101e+01,1.046e+01,1.044e+01,9.459e+00,1.051e+01,8.783e+00,9.385e+00,1.194e+01,1.009e+01,1.052e+01,9.459e+00,9.031e+00,9.437e+00,1.109e+01,1.055e+01,9.064e+00,9.773e+00,1.157e+01,1.102e+01,1.197e+01,1.009e+01,8.890e+00,1.002e+01,1.061e+01,1.077e+01,9.313e+00,8.321e+00,1.103e+01,8.640e+00,9.524e+00,1.069e+01,1.037e+01,1.053e+01,8.531e+00
1.587e-01,6.112e-01,8.093e-01,1.054e+00,1.724e+00,2.520e+00,2.062e+00,8.955e-01,2.437e+00,1.917e+00,1.938e+00,3.468e+00,2.215e+00,3.042e+00,2.515e+00,4.236e+00,4.241e+00,3.103e+00,3.635e+00,4.021e+00,4.884e+00,5.281e+00,4.584e+00,4.793e+00,4.584e+00,6.492e+00,6.248e+00,6.085e+00,5.776e+00,6.993e+00,5.924e+00,7.324e+00,7.140e+00,7.884e+00,8.210e+00,8.114e+00,7.767e+00,8.853e+00,8.108e+00,7.389e+00,9.640e+00,9.359e+00,9.451e+00,8.548e+00,1.032e+01,7.668e+00,8.799e+00,1.036e+01,9.237e+00,9.400e+00,8.672e+00,8.777e+00,6.872e+00,1.056e+01,1.027e+01,7.960e+00,7.594e+00,9.909e+00,1.019e+01,1.091e+01,1.086e+01,8.387e+00,8.177e+00,9.415e+00,7.641e+00,9.106e+00,7.219e+00,9.532e+00,8.010e+00,8.513e+00,8.341e+00,8.629e+00,9.118e+00,6.235e+00
7.207e-02,5.320e-01,6.231e-01,5.551e-01,1.203e+00,1.744e+00,2.003e+00,1.703e+00,2.344e+00,2.257e+00,2.123e+00,4.170e+00,2.635e+00,3.626e+00,3.184e+00,4.043e+00,4.491e+00,3.314e+00,4.216e+00,4.412e+00,5.286e+00,5.672e+00,5.972e+00,7.095e+00,6.320e+00,7.564e+00,7.515e+00,6.147e+00,5.989e+00,6.828e+00,7.261e+00,8.564e+00,8.810e+00,9.357e+00,9.680e+00,8.746e+00,8.743e+00,9.720e+00,9.285e+00,7.845e+00,1.097e+01,1.220e+01,1.182e+01,9.684e+00,1.144e+01,9.894e+00,9.289e+00,1.266e+01,1.069e+01,1.161e+01,1.032e+01,1.046e+01,1.060e+01,1.198e+01,1.174e+01,1.060e+01,9.436e+00,1.234e+01,1.243e+01,1.325e+01,1.129e+01,9.572e+00,9.722e+00,1.158e+01,1.114e+01,1.111e+01,1.012e+01,1.181e+01,9.970e+00,1.048e+01,1.020e+01,1.065e+01,1.193e+01,8.349e+00
2.086e-01,6.969e-01,9.830e-01,1.225e+00,1.683e+00,2.702e+00,2.487e+00,2.347e+00,3.491e+00,2.402e+00,2.461e+00,4.706e+00,3.193e+00,3.412e+00,3.541e+00,4.397e+00,4.954e+00,3.443e+00,4.194e+00,4.242e+00,4.926e+00,4.913e+00,4.557e+00,5.316e+00,5.155e+00,5.982e+00,6.398e+00,5.423e+00,5.346e+00,5.801e+00,6.098e+00,8.383e+00,8.065e+00,8.140e+00,8.663e+00,8.671e+00,9.238e+00,9.505e+00,9.332e+00,7.912e+00,9.374e+00,1.001e+01,1.054e+01,9.782e+00,9.830e+00,9.539e+00,9.172e+00,1.010e+01,1.053e+01,1.091e+01,1.019e+01,8.345e+00,8.081e+00,1.076e+01,1.034e+01,9.204e+00,9.787e+00,1.100e+01,1.089e+01,1.245e+01,1.036e+01,8.339e+00,9.349e+00,1.080e+01,1.074e+01,8.805e+00,8.642e+00,1.070e+01,9.097e+00,1.073e+01,1.021e+01,9.250e+00,9.592e+00,7.421e+00
1.423e-01,3.898e-01,5.569e-01,7.434e-01,9.080e-01,1.778e+00,1.649e+00,1.513e+00,2.332e+00,1.590e+00,1.678e+00,3.513e+00,1.949e+00,2.625e+00,2.367e+00,3.457e+00,3.730e+00,3.019e+00,3.672e+00,3.866e+00,5.519e+00,5.074e+00,5.164e+00,6.496e+00,5.510e+00,8.133e+00,7.474e+00,6.129e+00,6.300e+00,7.353e+00,6.701e+00,9.027e+00,8.494e+00,8.840e+00,1.010e+01,9.340e+00,8.649e+00,9.025e+00,9.315e+00,8.072e+00,9.583e+00,1.029e+01,1.176e+01,1.121e+01,1.128e+01,9.178e+00,8.986e+00,1.143e+01,1.083e+01,1.060e+01,1.040e+01,1.161e+01,1.001e+01,1.049e+01,1.204e+01,9.917e+00,1.060e+01,1.165e+01,1.176e+01,1.381e+01,1.125e+01,9.888e+00,9.384e+00,1.183e+01,1.093e+01,1.040e+01,9.705e+00,1.249e+01,1.045e+01,1.054e+01,1.014e+01,1.055e+01,1.191e+01,8.371e+00
6.014e-02,2.134e-01,2.935e-01,4.563e-01,6.078e-01,1.194e+00,1.736e+00,9.277e-01,1.842e+00,1.841e+00,1.546e+00,2.893e+00,1.887e+00,2.507e+00,2.318e+00,3.586e+00,3.875e+00,3.408e+00,3.433e+00,3.454e+00,4.759e+00,4.381e+00,4.420e+00,5.499e+00,5.086e+00,6.765e+00,6.095e+00,5.723e+00,4.945e+00,6.077e+00,6.462e+00,8.366e+00,7.548e+00,8.109e+00,8.708e+00,9.836e+00,8.875e+00,9.772e+00,8.686e+00,7.574e+00,1.048e+01,9.685e+00,1.073e+01,1.054e+01,1.094e+01,9.409e+00,9.823e+00,1.269e+01,1.078e+01,1.085e+01,1.154e+01,1.075e+01,1.009e+01,1.138e+01,1.129e+01,8.889e+00,9.671e+00,1.260e+01,1.091e+01,1.273e+01,1.221e+01,9.196e+00,8.858e+00,1.089e+01,1.215e+01,1.013e+01,9.275e+00,1.183e+01,1.062e+01,1.056e+01,1.114e+01,1.199e+01,1.075e+01,9.698e+00
1.273e-02,5.234e-01,5.688e-01,7.082e-01,9.926e-01,1.423e+00,1.318e+00,9.429e-01,1.477e+00,1.364e+00,1.937e+00,3.423e+00,2.294e+00,3.204e+00,3.650e+00,4.713e+00,5.032e+00,3.645e+00,5.229e+00,4.732e+00,5.321e+00,6.314e+00,6.144e+00,6.738e+00,6.456e+00,7.654e+00,8.807e+00,6.818e+00,5.914e+00,7.089e+00,7.301e+00,8.712e+00,8.543e+00,9.694e+00,9.770e+00,1.014e+01,8.555e+00,1.099e+01,1.004e+01,9.315e+00,1.096e+01,1.066e+01,1.224e+01,1.045e+01,1.082e+01,1.101e+01,9.327e+00,1.287e+01,1.168e+01,1.217e+01,1.259e+01,1.161e+01,1.003e+01,1.257e+01,1.193e+01,9.805e+00,9.963e+00,1.415e+01,1.263e+01,1.367e+01,1.248e+01,1.001e+01,1.069e+01,1.195e+01,1.280e+01,1.210e+01,1.134e+01,1.270e+01,1.203e+01,1.116e+01,1.159e+01,1.215e+01,1.173e+01,9.298e+00
1.167e-01,1.351e-01,3.484e-01,9.135e-01,1.401e+00,2.147e+00,2.172e+00,1.655e+00,2.722e+00,2.418e+00,2.946e+00,4.990e+00,3.458e+00,4.509e+00,3.870e+00,4.848e+00,5.674e+00,4.034e+00,4.252e+00,4.676e+00,5.372e+00,5.451e+00,5.673e+00,6.782e+00,6.520e+00,7.519e+00,7.479e+00,7.608e+00,5.387e+00,6.442e+00,6.512e+00,8.173e+00,8.163e+00,9.252e+00,9.146e+00,8.660e+00,9.070e+00,1.018e+01,8.670e+00,7.152e+00,1.085e+01,1.193e+01,1.105e+01,9.743e+00,1.169e+01,9.551e+00,9.879e+00,1.306e+01,1.277e+01,1.268e+01,1.163e+01,1.021e+01,9.568e+00,1.341e+01,1.213e+01,1.200e+01,9.535e+00,1.335e+01,1.293e+01,1.446e+01,1.296e+01,1.080e+01,1.032e+01,1.247e+01,1.261e+01,1.187e+01,1.183e+01,1.202e+01,1.068e+01,1.137e+01,1.155e+01,1.123e+01,1.150e+01,8.456e+00
6.864e-02,5.921e-01,6.611e-01,4.794e-01,1.122e+00,1.467e+00,1.369e+00,6.293e-01,1.240e+00,1.583e+00,1.285e+00,3.331e+00,1.730e+00,2.954e+00,2.302e+00,4.014e+00,3.819e+00,2.826e+00,3.039e+00,3.557e+00,3.652e+00,4.586e+00,4.219e+00,5.425e+00,4.410e+00,6.161e+00,5.409e+00,5.202e+00,4.301e+00,5.317e+00,6.479e+00,6.198e+00,7.053e+00,7.565e+00,8.519e+00,8.778e+00,8.136e+00,9.971e+00,8.673e+00,7.053e+00,9.582e+00,1.094e+01,1.028e+01,9.470e+00,1.020e+01,9.451e+00,8.836e+00,1.286e+01,1.172e+01,1.129e+01,1.033e+01,1.163e+01,9.889e+00,1.196e+01,1.171e+01,1.027e+01,9.778e+00,1.388e+01,1.141e+01,1.367e+01,1.102e+01,9.813e+00,1.046e+01,1.091e+01,1.256e+01,1.096e+01,9.746e+00,1.353e+01,1.055e+01,1.049e+01,1.064e+01,1.116e+01,1.175e+01,8.520e+00
2.554e-01,1.004e-01,4.134e-01,8.659e-01,9.873e-01,2.018e+00,1.482e+00,9.096e-01,2.092e+00,2.147e+00,1.935e+00,3.280e+00,2.034e+00,3.695e+00,2.992e+00,4.498e+00,4.695e+00,4.728e+00,4.243e+00,4.501e+00,5.333e+00,5.302e+00,5.672e+00,5.649e+00,5.922e+00,7.262e+00,6.358e+00,6.588e+00,5.538e+00,7.221e+00,7.357e+00,8.180e+00,7.897e+00,8.395e+00,9.087e+00,9.088e+00,8.777e+00,9.469e+00,1.021e+01,8.514e+00,1.090e+01,1.094e+01,1.126e+01,1.059e+01,1.231e+01,9.241e+00,1.153e+01,1.431e+01,1.292e+01,1.281e+01,1.269e+01,1.180e+01,1.125e+01,1.353e+01,1.405e+01,1.266e+01,1.200e+01,1.406e+01,1.440e+01,1.578e+01,1.386e+01,1.341e+01,1.258e+01,1.342e+01,1.164e+01,1.133e+01,1.197e+01,1.426e+01,1.193e+01,1.252e+01,1.238e+01,1.246e+01,1.183e+01,9.783e+00
6.305e-02,6.608e-02,1.720e-01,3.010e-01,4.705e-01,8.833e-01,1.599e+00,1.672e+00,2.177e+00,1.878e+00,1.799e+00,3.555e+00,2.474e+00,3.441e+00,2.618e+00,3.969e+00,4.773e+00,3.314e+00,3.426e+00,3.127e+00,5.010e+00,4.569e+00,4.971e+00,5.799e+00,6.765e+00,8.445e+00,7.600e+00,6.649e+00,6.150e+00,7.950e+00,7.937e+00,1.059e+01,9.685e+00,8.777e+00,1.061e+01,1.030e+01,9.917e+00,1.096e+01,1.099e+01,8.344e+00,1.066e+01,1.120e+01,1.260e+01,1.247e+01,1.235e+01,1.107e+01,1.116e+01,1.501e+01,1.231e+01,1.376e+01,1.353e+01,1.276e+01,1.262e+01,1.383e+01,1.380e+01,1.220e+01,1.267e+01,1.504e+01,1.403e+01,1.652e+01,1.476e+01,1.143e+01,1.374e+01,1.386e+01,1.476e+01,1.289e+01,1.181e+01,1.371e+01,1.264e+01,1.261e+01,1.310e+01,1.375e+01,1.458e+01,1.016e+01
8.442e-02,1.540e-01,2.702e-01,5.700e-01,6.900e-01,1.473e+00,1.795e+00,2.039e+00,2.799e+00,2.482e+00,1.833e+00,4.284e+00,2.477e+00,3.443e+00,2.472e+00,4.359e+00,4.353e+00,3.967e+00,4.520e+00,4.122e+00,5.647e+00,5.463e+00,5.381e+00,5.309e+00,6.216e+00,7.378e+00,8.300e+00,5.683e+00,5.651e+00,6.198e+00,6.773e+00,9.714e+00,8.536e+00,8.453e+00,1.084e+01,9.527e+00,1.010e+01,1.009e+01,1.090e+01,9.129e+00,1.147e+01,1.081e+01,1.109e+01,1.206e+01,1.201e+01,9.820e+00,1.037e+01,1.449e+01,1.187e+01,1.302e+01,1.396e+01,1.409e+01,1.166e+01,1.305e+01,1.415e+01,1.305e+01,1.309e+01,1.595e+01,1.468e+01,1.627e+01,1.357e+01,1.449e+01,1.320e+01,1.260e+01,1.339e+01,1.237e+01,1.233e+01,1.499e+01,1.317e+01,1.226e+01,1.381e+01,1.332e+01,1.367e+01,1.128e+01
2.458e-01,1.071e-01,4.232e-01,8.687e-01,1.017e+00,1.803e+00,8.238e-01,1.238e+00,2.061e+00,1.404e+00,1.898e+00,3.312e+00,2.130e+00,3.860e+00,2.901e+00,4.047e+00,4.488e+00,3.143e+00,4.482e+00,4.170e+00,5.072e+00,5.342e+00,5.074e+00,4.557e+00,5.083e+00,6.402e+00,6.818e+00,6.323e+00,5.202e+00,7.152e+00,6.620e+00,7.736e+00,7.492e+00,8.004e+00,9.497e+00,8.148e+00,7.742e+00,9.567e+00,9.587e+00,8.252e+00,9.297e+00,9.608e+00,1.089e+01,1.084e+01,1.180e+01,9.577e+00,9.444e+00,1.319e+01,1.183e+01,1.239e+01,1.297e+01,1.272e+01,1.069e+01,1.421e+01,1.553e+01,1.245e+01,1.252e+01,1.644e+01,1.455e+01,1.641e+01,1.452e+01,1.361e+01,1.475e+01,1.380e+01,1.389e+01,1.265e+01,1.163e+01,1.623e+01,1.475e+01,1.285e+01,1.401e+01,1.168e+01,1.442e+01,1.140e+01
2.095e-01,6.026e-01,8.996e-01,1.039e+00,1.613e+00,2.338e+00,2.336e+00,1.266e+00,2.460e+00,2.465e+00,2.233e+00,4.599e+00,3.056e+00,3.823e+00,4.161e+00,6.064e+00,5.924e+00,5.041e+00,5.041e+00,5.319e+00,5.636e+00,7.279e+00,6.645e+00,7.435e+00,6.659e+00,8.625e+00,8.367e+00,7.119e+00,5.654e+00,7.636e+00,8.764e+00,9.386e+00,8.803e+00,1.095e+01,1.045e+01,1.139e+01,9.666e+00,1.241e+01,1.124e+01,9.306e+00,1.243e+01,1.331e+01,1.273e+01,1.143e+01,1.295e+01,1.108e+01,1.197e+01,1.463e+01,1.502e+01,1.457e+01,1.379e+01,1.427e+01,1.302e+01,1.612e+01,1.466e+01,1.475e+01,1.326e+01,1.793e+01,1.717e+01,1.780e+01,1.505e+01,1.366e+01,1.410e+01,1.557e+01,1.607e+01,1.354e+01,1.466e+01,1.751e+01,1.448e+01,1.571e+01,1.405e+01,1.385e+01,1.523e+01,1.196e+01
3.436e-01,3.230e-01,7.802e-01,1.213e+00,1.679e+00,2.668e+00,1.927e+00,1.621e+00,2.980e+00,2.652e+00,3.217e+00,5.365e+00,3.622e+00,5.202e+00,4.319e+00,6.011e+00,5.823e+00,4.355e+00,6.188e+00,5.258e+00,5.957e+00,6.230e+00,6.682e+00,8.146e+00,7.390e+00,9.026e+00,9.965e+00,8.968e+00,7.413e+00,7.921e+00,8.482e+00,1.127e+01,9.682e+00,1.050e+01,1.251e+01,1.186e+01,9.818e+00,1.271e+01,1.264e+01,9.802e+00,1.268e+01,1.296e+01,1.367e+01,1.308e+01,1.358e+01,1.222e+01,1.232e+01,1.644e+01,1.484e+01,1.502e+01,1.443e+01,1.496e+01,1.328e+01,1.693e+01,1.623e+01,1.464e+01,1.433e+01,1.903e+01,1.835e+01,1.971e+01,1.636e+01,1.579e+01,1.584e+01,1.608e+01,1.697e+01,1.532e+01,1.500e+01,1.972e+01,1.487e+01,1.528e+01,1.676e+01,1.511e+01,1.702e+01,1.243e+01
2.465e-01,1.451e-01,5.056e-01,1.147e+00,1.373e+00,2.506e+00,2.040e+00,1.695e+00,2.687e+00,2.667e+00,2.665e+00,5.271e+00,3.301e+00,5.408e+00,3.826e+00,5.685e+00,5.784e+00,4.271e+00,5.180e+00,5.354e+00,6.122e+00,5.522e+00,5.993e+00,7.168e+00,7.173e+00,7.783e+00,7.813e+00,7.247e+00,6.515e+00,6.646e+00,7.280e+00,9.165e+00,8.202e+00,8.895e+00,1.090e+01,1.007e+01,9.292e+00,1.024e+01,1.094e+01,7.915e+00,1.128e+01,1.169e+01,1.235e+01,1.101e+01,1.139e+01,1.079e+01,1.017e+01,1.507e+01,1.295e+01,1.392e+01,1.372e+01,1.245e+01,1.154e+01,1.372e+01,1.457e+01,1.280e+01,1.182e+01,1.619e+01,1.600e+01,1.701e+01,1.453e+01,1.306e+01,1.469e+01,1.425e+01,1.625e+01,1.318e+01,1.480e+01,1.658e+01,1.422e+01,1.347e+01,1.412e+01,1.349e+01,1.489e+01,1.190e+01
1.961e-01,2.103e-01,5.023e-01,8.702e-01,1.018e+00,1.855e+00,1.564e+00,2.289e+00,2.657e+00,2.485e+00,2.063e+00,4.498e+00,2.765e+00,3.692e+00,2.274e+00,4.391e+00,3.936e+00,3.363e+00,4.174e+00,3.858e+00,4.895e+00,5.493e+00,4.761e+00,5.480e+00,5.304e+00,6.034e+00,6.671e+00,5.538e+00,4.187e+00,5.096e+00,6.005e+00,6.305e+00,6.515e+00,7.226e+00,8.886e+00,6.428e+00,6.741e+00,8.136e+00,9.525e+00,6.638e+00,9.466e+00,9.190e+00,8.851e+00,8.805e+00,1.019e+01,8.322e+00,8.873e+00,1.197e+01,1.142e+01,1.089e+01,1.000e+01,1.165e+01,1.002e+01,1.298e+01,1.380e+01,1.200e+01,1.181e+01,1.593e+01,1.546e+01,1.550e+01,1.252e+01,1.431e+01,1.451e+01,1.317e+01,1.322e+01,1.148e+01,1.286e+01,1.669e+01,1.180e+01,1.243e+01,1.336e+01,1.071e+01,1.367e+01,1.028e+01
3.622e-01,7.372e-01,1.170e+00,1.266e+00,1.596e+00,2.573e+00,1.683e+00,7.708e-01,2.243e+00,1.438e+00,2.183e+00,3.376e+00,2.461e+00,3.391e+00,4.229e+00,4.526e+00,4.919e+00,3.794e+00,4.553e+00,4.399e+00,4.285e+00,5.092e+00,5.485e+00,6.287e+00,5.410e+00,6.863e+00,7.105e+00,6.511e+00,5.747e+00,6.185e+00,7.166e+00,8.224e+00,7.789e+00,8.312e+00,9.096e+00,1.003e+01,8.358e+00,9.764e+00,9.960e+00,8.483e+00,1.070e+01,1.055e+01,1.123e+01,1.091e+01,1.186e+01,1.035e+01,1.011e+01,1.274e+01,1.202e+01,1.275e+01,1.245e+01,1.212e+01,1.152e+01,1.380e+01,1.245e+01,1.267e+01,1.365e+01,1.636e+01,1.621e+01,1.608e+01,1.459e+01,1.334e+01,1.354e+01,1.536e+01,1.535e+01,1.345e+01,1.301e+01,1.652e+01,1.351e+01,1.562e+01,1.354e+01,1.359e+01,1.397e+01,1.190e+01
2.508e-01,1.013e-01,3.844e-01,5.692e-01,9.817e-01,1.916e+00,2.163e+00,1.374e+00,2.777e+00,2.436e+00,1.575e+00,3.321e+00,1.889e+00,3.003e+00,2.050e+00,3.829e+00,3.547e+00,3.611e+00,3.480e+00,3.680e+00,5.482e+00,5.073e+00,4.675e+00,5.156e+00,6.101e+00,8.088e+00,6.093e+00,5.498e+00,6.395e+00,7.494e+00,6.189e+00,8.722e+00,7.569e+00,8.615e+00,9.803e+00,8.900e+00,9.180e+00,9.471e+00,9.925e+00,8.120e+00,1.236e+01,1.179e+01,1.240e+01,1.234e+01,1.274e+01,9.954e+00,1.088e+01,1.476e+01,1.290e+01,1.456e+01,1.395e+01,1.416e+01,1.231e+01,1.415e+01,1.575e+01,1.493e+01,1.488e+01,1.861e+01,1.652e+01,1.880e+01,1.652e+01,1.558e+01,1.459e+01,1.614e+01,1.706e+01,1.379e+01,1.474e+01,1.787e+01,1.602e+01,1.473e+01,1.507e+01,1.415e+01,1.595e+01,1.427e+01
8.108e-02,7.380e-01,8.710e-01,9.557e-01,1.607e+00,2.041e+00,1.790e+00,1.434e+00,2.432e+00,2.225e+00,2.366e+00,4.821e+00,3.128e+00,3.401e+00,3.401e+00,4.555e+00,4.967e+00,3.079e+00,4.547e+00,4.866e+00,4.828e+00,5.500e+00,5.756e+00,6.896e+00,5.919e+00,7.274e+00,7.862e+00,7.405e+00,6.655e+00,7.042e+00,7.866e+00,8.440e+00,8.410e+00,9.067e+00,9.428e+00,9.301e+00,8.016e+00,1.043e+01,9.801e+00,7.491e+00,1.102e+01,1.129e+01,1.164e+01,1.030e+01,1.083e+01,1.037e+01,9.488e+00,1.346e+01,1.177e+01,1.165e+01,1.267e+01,1.241e+01,1.057e+01,1.304e+01,1.437e+01,1.212e+01,1.242e+01,1.645e+01,1.522e+01,1.626e+01,1.481e+01,1.291e+01,1.394e+01,1.395e+01,1.604e+01,1.435e+01,1.310e+01,1.721e+01,1.356e+01,1.434e+01,1.508e+01,1.385e+01,1.675e+01,1.186e+01
2.960e-01,8.047e-01,1.177e+00,1.037e+00,1.446e+00,2.086e+00,1.621e+00,1.625e+00,2.498e+00,1.961e+00,1.819e+00,4.033e+00,2.822e+00,3.689e+00,3.323e+00,4.831e+00,4.740e+00,3.198e+00,5.223e+00,4.599e+00,5.333e+00,6.160e+00,6.207e+00,6.581e+00,6.001e+00,7.312e+00,8.729e+00,6.403e+00,5.415e+00,6.207e+00,7.597e+00,8.834e+00,8.381e+00,9.301e+00,1.098e+01,9.960e+00,9.456e+00,1.059e+01,1.049e+01,9.847e+00,1.070e+01,1.162e+01,1.135e+01,1.012e+01,1.124e+01,1.086e+01,1.015e+01,1.432e+01,1.228e+01,1.317e+01,1.207e+01,1.294e+01,1.158e+01,1.469e+01,1.369e+01,1.333e+01,1.231e+01,1.844e+01,1.720e+01,1.699e+01,1.572e+01,1.436e+01,1.448e+01,1.558e+01,1.706e+01,1.387e+01,1.358e+01,1.719e+01,1.380e+01,1.490e+01,1.487e+01,1.384e+01,1.571e+01,1.294e+01
3.220e-01,5.841e-01,9.687e-01,1.060e+00,1.478e+00,2.442e+00,1.802e+00,1.350e+00,2.549e+00,2.449e+00,2.433e+00,4.840e+00,2.923e+00,4.459e+00,3.811e+00,5.107e+00,5.158e+00,4.070e+00,4.665e+00,4.777e+00,5.063e+00,4.810e+00,6.170e+00,6.681e+00,5.797e+00,6.220e+00,7.101e+00,6.941e+00,5.450e+00,6.095e+00,6.932e+00,7.257e+00,7.446e+00,8.034e+00,9.487e+00,8.598e+00,7.356e+00,8.947e+00,1.031e+01,7.750e+00,1.095e+01,1.087e+01,1.078e+01,9.439e+00,1.130e+01,9.748e+00,9.230e+00,1.358e+01,1.291e+01,1.361e+01,1.259e+01,1.259e+01,1.199e+01,1.386e+01,1.282e+01,1.399e+01,1.311e+01,1.633e+01,1.656e+01,1.683e+01,1.440e+01,1.328e+01,1.476e+01,1.602e+01,1.504e+01,1.408e+01,1.401e+01,1.700e+01,1.350e+01,1.463e+01,1.519e+01,1.410e+01,1.465e+01,1.238e+01
2.528e-01,1.868e-01,4.823e-01,7.060e-01,9.800e-01,1.683e+00,9.119e-01,5.597e-01,1.541e+00,1.282e+00,1.937e+00,2.634e+00,1.850e+00,3.466e+00,3.664e+00,3.811e+00,4.482e+00,3.740e+00,4.926e+00,4.628e+00,4.962e+00,5.852e+00,5.895e+00,6.365e+00,6.104e+00,8.200e+00,8.064e+00,7.079e+00,6.765e+00,8.237e+00,8.724e+00,1.037e+01,9.322e+00,9.218e+00,1.056e+01,1.100e+01,9.662e+00,1.205e+01,1.075e+01,1.017e+01,1.108e+01,1.179e+01,1.256e+01,1.145e+01,1.291e+01,1.241e+01,1.109e+01,1.397e+01,1.261e+01,1.251e+01,1.455e+01,1.293e+01,1.177e+01,1.634e+01,1.518e+01,1.275e+01,1.550e+01,1.760e+01,1.794e+01,1.847e+01,1.641e+01,1.619e+01,1.730e+01,1.670e+01,1.738e+01,1.529e+01,1.614e+01,1.974e+01,1.592e+01,1.685e+01,1.799e+01,1.486e+01,1.641e+01,1.471e+01
5.644e-02,6.623e-01,7.822e-01,9.828e-01,1.546e+00,2.087e+00,2.035e+00,1.006e+00,1.962e+00,1.852e+00,2.071e+00,3.703e+00,2.600e+00,2.811e+00,3.341e+00,4.442e+00,4.614e+00,3.479e+00,3.542e+00,4.038e+00,4.408e+00,5.081e+00,5.670e+00,5.311e+00,5.881e+00,6.822e+00,7.266e+00,6.641e+00,4.821e+00,5.478e+00,7.655e+00,7.721e+00,7.286e+00,8.847e+00,7.690e+00,9.690e+00,8.162e+00,9.165e+00,9.035e+00,6.693e+00,1.011e+01,1.065e+01,9.668e+00,8.711e+00,1.029e+01,8.091e+00,8.708e+00,1.249e+01,1.142e+01,1.074e+01,1.113e+01,1.144e+01,9.860e+00,1.308e+01,1.231e+01,1.188e+01,1.183e+01,1.462e+01,1.563e+01,1.535e+01,1.473e+01,1.290e+01,1.331e+01,1.444e+01,1.430e+01,1.314e+01,1.382e+01,1.600e+01,1.218e+01,1.474e+01,1.379e+01,1.416e+01,1.502e+01,1.118e+01
1.950e-01,9.931e-02,3.558e-01,7.884e-01,1.055e+00,1.834e+00,1.487e+00,1.081e+00,2.256e+00,2.108e+00,2.455e+00,4.135e+00,2.579e+00,3.906e+00,3.660e+00,4.664e+00,4.989e+00,4.062e+00,5.077e+00,4.850e+00,5.768e+00,5.826e+00,6.085e+00,6.635e+00,6.717e+00,9.005e+00,8.664e+00,7.634e+00,6.460e+00,6.892e+00,7.959e+00,9.784e+00,8.618e+00,8.708e+00,1.087e+01,1.024e+01,9.152e+00,1.041e+01,1.021e+01,8.208e+00,1.063e+01,1.057e+01,1.150e+01,1.237e+01,1.285e+01,9.834e+00,1.068e+01,1.334e+01,1.097e+01,1.142e+01,1.162e+01,1.344e+01,1.125e+01,1.297e+01,1.377e+01,1.195e+01,1.285e+01,1.695e+01,1.591e+01,1.632e+01,1.545e+01,1.477e+01,1.426e+01,1.627e+01,1.670e+01,1.543e+01,1.420e+01,1.792e+01,1.482e+01,1.648e+01,1.593e+01,1.581e+01,1.655e+01,1.483e+01
2.745e-01,7.595e-01,1.067e+00,9.747e-01,1.412e+00,2.227e+00,1.602e+00,1.202e+00,2.314e+00,1.648e+00,1.440e+00,3.794e+00,2.149e+00,3.265e+00,3.394e+00,4.127e+00,4.406e+00,3.145e+00,3.996e+00,4.591e+00,4.315e+00,5.389e+00,4.745e+00,5.963e+00,4.353e+00,7.106e+00,6.485e+00,5.274e+00,5.140e+00,6.209e+00,6.612e+00,8.162e+00,7.619e+00,8.700e+00,9.811e+00,9.596e+00,8.408e+00,9.911e+00,8.284e+00,7.723e+00,1.110e+01,1.147e+01,1.165e+01,1.135e+01,1.168e+01,1.042e+01,9.991e+00,1.203e+01,1.221e+01,1.255e+01,1.232e+01,1.177e+01,1.139e+01,1.393e+01,1.330e+01,1.277e+01,1.251e+01,1.738e+01,1.540e+01,1.705e+01,1.497e+01,1.420e+01,1.475e+01,1.733e+01,1.834e+01,1.538e+01,1.744e+01,1.853e+01,1.543e+01,1.670e+01,1.645e+01,1.614e+01,1.594e+01,1.474e+01
1.715e-01,2.640e-01,5.123e-01,7.555e-01,1.339e+00,1.900e+00,1.628e+00,1.074e+00,1.887e+00,1.942e+00,1.686e+00,2.937e+00,2.046e+00,2.418e+00,2.415e+00,3.308e+00,3.081e+00,2.634e+00,3.083e+00,3.685e+00,3.656e+00,5.087e+00,3.936e+00,4.458e+00,4.508e+00,6.783e+00,6.524e+00,4.846e+00,5.181e+00,6.479e+00,5.987e+00,7.626e+00,6.378e+00,8.106e+00,8.339e+00,8.332e+00,7.850e+00,9.199e+00,8.763e+00,7.011e+00,1.038e+01,1.005e+01,1.009e+01,1.024e+01,1.105e+01,7.730e+00,8.704e+00,1.105e+01,1.083e+01,1.075e+01,1.106e+01,1.178e+01,9.377e+00,1.203e+01,1.233e+01,1.178e+01,1.234e+01,1.601e+01,1.376e+01,1.592e+01,1.334e+01,1.376e+01,1.343e+01,1.404e+01,1.553e+01,1.402e+01,1.443e+01,1.611e+01,1.462e+01,1.535e+01,1.512e+01,1.411e+01,1.521e+01,1.303e+01
1.318e-01,7.180e-01,8.938e-01,9.769e-01,1.748e+00,2.502e+00,2.439e+00,1.137e+00,2.372e+00,2.257e+00,1.734e+00,3.685e+00,2.416e+00,3.415e+00,3.123e+00,4.005e+00,4.546e+00,3.136e+00,3.255e+00,4.709e+00,5.189e+00,5.186e+00,5.660e+00,4.901e+00,4.722e+00,5.977e+00,5.762e+00,4.424e+00,5.590e+00,5.900e+00,5.944e+00,6.778e+00,6.287e+00,7.327e+00,7.910e+00,7.408e+00,7.828e+00,8.144e+00,6.993e+00,6.733e+00,9.250e+00,9.087e+00,9.184e+00,9.437e+00,9.630e+00,7.928e+00,9.239e+00,1.140e+01,9.878e+00,1.238e+01,9.642e+00,1.090e+01,9.314e+00,1.213e+01,1.274e+01,1.291e+01,1.156e+01,1.456e+01,1.501e+01,1.477e+01,1.327e+01,1.168e+01,1.235e+01,1.395e+01,1.491e+01,1.297e+01,1.414e+01,1.523e+01,1.481e+01,1.470e+01,1.495e+01,1.401e+01,1.674e+01,1.175e+01
6.689e-02,7.920e-01,8.489e-01,5.604e-01,1.231e+00,1.801e+00,1.994e+00,1.311e+00,1.891e+00,2.134e+00,1.388e+00,3.293e+00,1.884e+00,2.593e+00,2.903e+00,3.306e+00,3.211e+00,2.818e+00,3.610e+00,4.371e+00,3.793e+00,4.802e+00,4.264e+00,5.530e+00,4.287e+00,5.726e+00,6.292e+00,4.615e+00,4.821e+00,5.852e+00,5.900e+00,7.277e+00,6.831e+00,7.659e+00,7.556e+00,8.186e+00,7.066e+00,9.183e+00,8.056e+00,7.663e+00,1.091e+01,1.073e+01,1.050e+01,9.076e+00,1.004e+01,8.818e+00,8.668e+00,1.271e+01,1.038e+01,1.151e+01,1.122e+01,1.254e+01,1.077e+01,1.283e+01,1.317e+01,1.148e+01,1.157e+01,1.505e+01,1.444e+01,1.658e+01,1.426e+01,1.299e+01,1.323e+01,1.441e+01,1.549e+01,1.384e+01,1.541e+01,1.734e+01,1.547e+01,1.510e+01,1.459e+01,1.536e+01,1.613e+01,1.417e+01
3.148e-01,8.420e-01,1.240e+00,1.387e+00,2.097e+00,3.163e+00,2.498e+00,1.701e+00,3.205e+00,2.737e+00,2.492e+00,5.123e+00,3.409e+00,5.051e+00,4.165e+00,5.862e+00,5.934e+00,4.360e+00,5.839e+00,6.257e+00,6.592e+00,7.528e+00,7.452e+00,8.297e+00,6.817e+00,8.982e+00,8.908e+00,6.837e+00,7.227e+00,7.842e+00,8.214e+00,1.015e+01,9.025e+00,1.072e+01,1.161e+01,1.029e+01,9.901e+00,1.168e+01,1.093e+01,9.786e+00,1.353e+01,1.318e+01,1.325e+01,1.193e+01,1.273e+01,1.077e+01,1.166e+01,1.588e+01,1.466e+01,1.537e+01,1.409e+01,1.438e+01,1.262e+01,1.606e+01,1.635e+01,1.573e+01,1.431e+01,1.917e+01,1.929e+01,2.024e+01,1.722e+01,1.660e+01,1.741e+01,1.826e+01,1.967e+01,1.644e+01,1.796e+01,2.076e+01,1.921e+01,1.922e+01,1.894e+01,1.803e+01,1.938e+01,1.586e+01
8.720e-03,6.297e-02,7.828e-02,2.015e-01,2.636e-01,7.300e-01,1.246e+00,1.613e+00,1.897e+00,1.942e+00,1.209e+00,3.658e+00,1.899e+00,3.230e+00,2.302e+00,3.399e+00,4.243e+00,3.348e+00,3.345e+00,3.812e+00,4.778e+00,4.587e+00,4.245e+00,5.013e+00,5.087e+00,6.811e+00,5.117e+00,5.528e+00,5.016e+00,6.308e+00,6.695e+00,7.693e+00,7.149e+00,7.835e+00,9.697e+00,9.088e+00,8.577e+00,8.834e+00,8.316e+00,6.850e+00,9.828e+00,9.231e+00,9.809e+00,9.933e+00,1.078e+01,9.132e+00,9.738e+00,1.322e+01,1.151e+01,1.214e+01,1.234e+01,1.097e+01,1.093e+01,1.250e+01,1.334e+01,1.233e+01,1.103e+01,1.558e+01,1.441e+01,1.543e+01,1.502e+01,1.268e+01,1.531e+01,1.525e+01,1.591e+01,1.287e+01,1.594e+01,1.612e+01,1.514e+01,1.748e+01,1.743e+01,1.787e+01,1.699e+01,1.538e+01
3.750e-01,2.399e-01,7.007e-01,9.423e-01,1.062e+00,2.141e+00,1.685e+00,1.867e+00,2.874e+00,2.282e+00,2.311e+00,3.739e+00,2.682e+00,3.831e+00,3.353e+00,4.671e+00,4.908e+00,4.505e+00,5.534e+00,4.545e+00,6.100e+00,6.197e+00,5.623e+00,6.279e+00,6.653e+00,8.149e+00,8.035e+00,6.546e+00,6.043e+00,7.078e+00,7.392e+00,9.934e+00,9.070e+00,9.425e+00,1.010e+01,9.442e+00,9.488e+00,1.029e+01,1.094e+01,8.826e+00,1.097e+01,1.048e+01,1.100e+01,1.001e+01,1.103e+01,1.070e+01,1.094e+01,1.343e+01,1.176e+01,1.222e+01,1.379e+01,1.102e+01,1.123e+01,1.365e+01,1.537e+01,1.278e+01,1.349e+01,1.602e+01,1.674e+01,1.617e+01,1.559e+01,1.563e+01,1.709e+01,1.648e+01,1.710e+01,1.487e+01,1.642e+01,1.842e+01,1.722e+01,1.855e+01,1.908e+01,1.823e+01,1.830e+01,1.468e+01
1.700e-02,7.605e-01,7.771e-01,5.819e-01,1.249e+00,1.665e+00,1.895e+00,1.906e+00,2.494e+00,2.181e+00,1.814e+00,4.681e+00,2.657e+00,3.593e+00,2.752e+00,4.979e+00,4.875e+00,3.274e+00,4.137e+00,3.672e+00,4.490e+00,5.065e+00,4.725e+00,5.085e+00,5.462e+00,6.001e+00,6.984e+00,5.802e+00,5.467e+00,6.156e+00,6.782e+00,7.695e+00,8.343e+00,8.227e+00,9.930e+00,8.850e+00,8.116e+00,9.693e+00,1.010e+01,7.389e+00,1.092e+01,1.059e+01,1.059e+01,9.650e+00,1.099e+01,9.984e+00,8.876e+00,1.345e+01,1.159e+01,1.223e+01,1.199e+01,1.211e+01,1.109e+01,1.430e+01,1.367e+01,1.178e+01,1.164e+01,1.667e+01,1.473e+01,1.659e+01,1.415e+01,1.431e+01,1.545e+01,1.514e+01,1.514e+01,1.427e+01,1.455e+01,1.777e+01,1.371e+01,1.751e+01,1.799e+01,1.733e+01,1.793e+01,1.582e+01
3.292e-01,7.365e-01,1.083e+00,7.201e-01,1.513e+00,2.061e+00,1.470e+00,6.115e-01,1.905e+00,1.523e+00,1.195e+00,2.530e+00,1.656e+00,2.660e+00,2.782e+00,3.067e+00,2.894e+00,2.160e+00,3.499e+00,3.638e+00,2.964e+00,4.073e+00,3.962e+00,5.062e+00,3.727e+00,5.923e+00,6.380e+00,4.667e+00,5.715e+00,6.679e+00,5.657e+00,7.887e+00,7.374e+00,7.822e+00,8.723e+00,7.845e+00,6.995e+00,8.927e+00,7.490e+00,7.750e+00,8.496e+00,1.008e+01,1.013e+01,8.866e+00,1.063e+01,8.416e+00,9.083e+00,1.113e+01,9.566e+00,1.059e+01,1.052e+01,1.065e+01,9.926e+00,1.251e+01,1.213e+01,1.146e+01,1.040e+01,1.386e+01,1.284e+01,1.503e+01,1.393e+01,1.182e+01,1.234e+01,1.406e+01,1.342e+01,1.322e+01,1.492e+01,1.519e+01,1.418e+01,1.485e+01,1.372e+01,1.511e+01,1.557e+01,1.304e+01
2.319e-01,2.891e-01,6.186e-01,8.703e-01,1.480e+00,2.235e+00,1.799e+00,1.598e+00,2.161e+00,2.596e+00,1.971e+00,4.165e+00,2.625e+00,4.033e+00,3.298e+00,4.560e+00,4.512e+00,3.596e+00,4.251e+00,4.884e+00,4.756e+00,5.853e+00,4.679e+00,5.365e+00,5.327e+00,7.252e+00,7.348e+00,5.359e+00,5.782e+00,6.620e+00,6.858e+00,8.082e+00,7.565e+00,7.982e+00,9.895e+00,8.217e+00,8.643e+00,9.231e+00,9.003e+00,7.706e+00,9.844e+00,1.035e+01,1.058e+01,1.025e+01,1.156e+01,9.180e+00,1.015e+01,1.271e+01,1.149e+01,1.290e+01,1.218e+01,1.202e+01,1.087e+01,1.297e+01,1.403e+01,1.226e+01,1.309e+01,1.691e+01,1.570e+01,1.619e+01,1.497e+01,1.351e+01,1.562e+01,1.578e+01,1.617e+01,1.490e+01,1.724e+01,1.696e+01,1.664e+01,1.725e+01,1.746e+01,1.703e+01,1.830e+01,1.512e+01
