2.523e-01,1.964e-01,4.642e-01,5.510e-01,2.895e-01,6.164e-01,6.748e-01,2.289e-01,2.741e-01,9.026e-01,2.147e-01,6.448e-01,1.715e-01,8.675e-01,4.313e-01,8.361e-01,2.559e-01,3.090e-03,8.547e-01,5.930e-01,5.026e-01,7.801e-02,9.931e-01,3.675e-01,6.640e-01,1.528e-01,8.744e-01,3.467e-01,6.960e-01,9.065e-01,9.603e-01,5.861e-01,3.760e-01,3.372e-01,4.007e-01,4.551e-01,7.887e-01,6.763e-01,3.962e-01,5.018e-01,9.984e-01,4.568e-01,4.329e-01,4.396e-01,8.893e-01,2.454e-01,6.914e-01,8.169e-01,2.304e-01,9.301e-01,3.287e-01,9.547e-01,1.887e-01,8.939e-01,1.998e-01,6.697e-02,7.360e-01,3.538e-01,6.662e-01,3.462e-01,7.162e-01,6.607e-01,8.747e-01,9.422e-01,5.343e-01,5.700e-01,1.390e-01,8.738e-01,5.130e-01,3.626e-01,3.168e-02,6.794e-01,7.410e-01,3.206e-01,6.702e-01,8.429e-01,8.552e-01,6.464e-02,5.652e-01,5.620e-01,7.962e-01,8.804e-01,8.507e-01,9.860e-01,7.898e-01,3.117e-01,8.345e-01,3.471e-01,8.842e-01,2.017e-01
2.182e-01,6.323e-01,1.327e+00,8.423e-01,8.087e-01,1.070e+00,9.380e-01,3.313e-01,3.883e-01,1.679e+00,4.962e-01,1.501e+00,1.014e+00,1.302e+00,4.518e-01,1.143e+00,4.005e-01,2.641e-01,9.394e-01,8.451e-01,5.467e-01,4.100e-01,1.447e+00,1.139e+00,1.539e+00,2.706e-01,1.200e+00,7.247e-01,7.709e-01,1.348e+00,1.809e+00,1.506e+00,8.846e-01,3.987e-01,1.194e+00,1.175e+00,6.827e-01,1.122e+00,1.152e+00,9.205e-01,1.783e+00,8.918e-01,1.198e+00,1.057e+00,8.218e-01,4.778e-01,1.597e+00,1.049e+00,3.059e-01,1.351e+00,9.822e-01,1.724e+00,4.142e-01,1.326e+00,7.345e-01,3.293e-01,1.623e+00,7.829e-01,1.196e+00,1.289e+00,8.737e-01,6.685e-01,9.561e-01,1.125e+00,4.790e-01,1.207e+00,8.979e-01,1.258e+00,9.877e-01,3.549e-01,5.180e-01,7.547e-01,8.178e-01,1.190e+00,1.460e+00,9.297e-01,1.627e+00,8.512e-01,5.133e-01,9.461e-01,7.545e-01,8.772e-01,9.048e-01,1.767e+00,7.153e-01,9.274e-01,1.421e+00,4.261e-01,8.218e-01,7.775e-01
2.197e-01,5.329e-01,1.794e+00,8.686e-01,7.663e-01,1.015e+00,1.795e+00,6.321e-01,7.391e-01,2.153e+00,1.204e+00,2.116e+00,1.286e+00,1.745e+00,6.378e-01,1.297e+00,5.640e-01,7.326e-01,1.620e+00,1.413e+00,5.804e-01,5.734e-01,1.550e+00,1.470e+00,2.052e+00,4.991e-01,1.866e+00,1.260e+00,7.999e-01,1.854e+00,2.442e+00,2.146e+00,1.526e+00,5.420e-01,1.997e+00,1.193e+00,1.229e+00,1.761e+00,1.754e+00,1.243e+00,2.489e+00,1.726e+00,1.043e+00,1.617e+00,1.270e+00,1.003e+00,2.238e+00,1.852e+00,7.415e-01,1.879e+00,1.806e+00,2.244e+00,1.264e+00,1.457e+00,6.301e-01,1.042e+00,1.642e+00,1.448e+00,1.185e+00,1.745e+00,1.089e+00,1.071e+00,1.884e+00,1.241e+00,9.478e-01,1.216e+00,1.345e+00,1.625e+00,1.694e+00,1.029e+00,1.056e+00,9.174e-01,8.289e-01,1.343e+00,1.341e+00,1.817e+00,1.541e+00,1.434e+00,9.200e-01,1.548e+00,1.238e+00,1.490e+00,1.381e+00,2.320e+00,1.608e+00,1.750e+00,1.365e+00,1.348e+00,1.423e+00,1.235e+00
2.276e-01,2.978e-01,1.151e+00,1.284e+00,5.275e-01,8.866e-01,1.517e+00,1.163e+00,1.509e+00,1.926e+00,8.632e-01,2.317e+00,1.638e+00,1.463e+00,8.441e-01,1.175e+00,1.073e+00,1.363e+00,1.536e+00,1.135e+00,1.006e+00,1.061e+00,1.796e+00,1.046e+00,1.628e+00,8.353e-01,1.654e+00,1.337e+00,1.074e+00,2.034e+00,2.494e+00,1.428e+00,1.068e+00,5.302e-01,1.381e+00,8.414e-01,1.689e+00,2.218e+00,1.496e+00,1.636e+00,2.641e+00,1.820e+00,6.842e-01,1.506e+00,1.381e+00,9.960e-01,2.392e+00,2.275e+00,9.955e-01,2.259e+00,1.560e+00,2.409e+00,1.373e+00,1.427e+00,1.001e+00,1.672e+00,1.753e+00,1.538e+00,1.685e+00,1.317e+00,1.576e+00,1.798e+00,2.485e+00,2.027e+00,1.174e+00,1.140e+00,8.370e-01,2.008e+00,2.032e+00,1.352e+00,8.231e-01,1.567e+00,1.694e+00,1.153e+00,9.399e-01,2.237e+00,1.929e+00,1.234e+00,1.501e+00,1.370e+00,1.740e+00,2.269e+00,1.841e+00,2.445e+00,1.890e+00,1.262e+00,1.575e+00,1.892e+00,1.887e+00,1.034e+00
5.881e-02,2.092e-01,8.244e-01,4.513e-01,3.291e-01,1.081e+00,1.633e+00,9.844e-01,8.780e-01,1.231e+00,9.503e-01,2.120e+00,1.673e+00,1.563e+00,6.761e-01,7.019e-01,9.787e-01,8.463e-01,8.787e-01,1.478e+00,3.376e-01,1.429e+00,1.218e+00,1.327e+00,1.432e+00,8.506e-01,1.290e+00,1.476e+00,4.165e-01,1.170e+00,2.063e+00,1.253e+00,8.996e-01,8.913e-01,1.417e+00,1.315e+00,9.867e-01,1.550e+00,1.624e+00,9.474e-01,1.635e+00,1.757e+00,7.008e-01,1.703e+00,1.464e+00,1.266e+00,1.558e+00,1.073e+00,8.628e-01,1.459e+00,1.626e+00,1.246e+00,9.468e-01,1.034e+00,5.279e-01,1.143e+00,1.498e+00,9.035e-01,1.392e+00,1.098e+00,1.360e+00,6.901e-01,1.589e+00,7.507e-01,1.455e+00,9.251e-01,1.124e+00,1.046e+00,1.056e+00,9.104e-01,1.501e+00,8.700e-01,5.399e-01,9.165e-01,7.746e-01,1.197e+00,8.857e-01,1.304e+00,1.250e+00,1.742e+00,1.036e+00,1.342e+00,9.034e-01,1.301e+00,1.280e+00,1.460e+00,1.431e+00,1.713e+00,9.990e-01,7.273e-01
1.269e-01,2.082e-01,6.180e-01,8.020e-01,3.406e-01,1.298e+00,1.329e+00,1.266e+00,1.563e+00,1.641e+00,1.320e+00,2.323e+00,1.753e+00,1.139e+00,6.927e-01,1.381e+00,1.131e+00,1.805e+00,9.998e-01,1.184e+00,1.091e+00,9.139e-01,2.134e+00,1.662e+00,1.106e+00,1.540e+00,1.380e+00,1.512e+00,8.691e-01,1.239e+00,1.761e+00,1.698e+00,9.397e-01,9.319e-01,1.133e+00,1.493e+00,1.105e+00,1.452e+00,1.092e+00,1.583e+00,1.735e+00,1.436e+00,1.465e+00,1.088e+00,1.258e+00,1.575e+00,1.923e+00,1.958e+00,8.374e-01,1.697e+00,1.053e+00,1.805e+00,1.044e+00,1.760e+00,7.662e-01,1.038e+00,2.003e+00,1.790e+00,1.976e+00,1.293e+00,1.638e+00,1.059e+00,1.922e+00,1.378e+00,1.509e+00,1.636e+00,1.039e+00,1.543e+00,1.195e+00,1.168e+00,6.496e-01,1.966e+00,1.997e+00,9.092e-01,1.406e+00,1.325e+00,1.717e+00,9.577e-01,1.450e+00,9.107e-01,1.734e+00,1.663e+00,1.517e+00,1.530e+00,1.697e+00,1.511e+00,1.364e+00,1.408e+00,1.960e+00,1.532e+00
1.049e-01,1.103e-01,6.422e-01,6.440e-01,2.379e-01,9.683e-01,1.515e+00,1.265e+00,1.789e+00,2.201e+00,1.242e+00,2.375e+00,2.227e+00,2.226e+00,1.426e+00,1.003e+00,1.085e+00,1.419e+00,1.641e+00,2.128e+00,1.509e+00,2.180e+00,1.590e+00,1.873e+00,2.108e+00,1.264e+00,1.942e+00,1.521e+00,7.599e-01,1.914e+00,2.201e+00,1.227e+00,1.732e+00,1.305e+00,1.200e+00,1.250e+00,1.349e+00,2.050e+00,2.228e+00,1.986e+00,2.391e+00,2.633e+00,1.432e+00,1.952e+00,1.476e+00,1.830e+00,2.581e+00,2.252e+00,1.548e+00,1.757e+00,1.607e+00,2.192e+00,1.303e+00,1.310e+00,7.689e-01,2.134e+00,2.464e+00,1.890e+00,1.888e+00,1.471e+00,1.651e+00,1.334e+00,1.952e+00,1.303e+00,1.799e+00,1.222e+00,1.570e+00,2.091e+00,1.369e+00,1.438e+00,1.257e+00,1.468e+00,1.300e+00,1.504e+00,1.150e+00,1.648e+00,1.727e+00,1.405e+00,2.078e+00,1.778e+00,2.128e+00,1.823e+00,1.418e+00,1.870e+00,1.641e+00,2.310e+00,1.890e+00,1.905e+00,2.248e+00,1.683e+00
5.859e-02,3.799e-01,7.920e-01,3.954e-01,4.728e-01,9.273e-01,7.475e-01,1.368e+00,1.684e+00,2.451e+00,1.684e+00,2.101e+00,2.502e+00,1.657e+00,1.353e+00,1.172e+00,1.216e+00,1.527e+00,1.726e+00,1.738e+00,2.052e+00,1.708e+00,1.555e+00,2.014e+00,1.974e+00,1.534e+00,1.927e+00,1.429e+00,1.415e+00,1.353e+00,2.307e+00,1.875e+00,1.920e+00,1.782e+00,1.810e+00,2.309e+00,1.184e+00,1.620e+00,1.721e+00,1.825e+00,1.864e+00,2.003e+00,2.067e+00,1.336e+00,1.337e+00,1.968e+00,1.986e+00,2.128e+00,1.153e+00,1.822e+00,1.063e+00,2.056e+00,1.061e+00,1.528e+00,1.139e+00,1.870e+00,2.362e+00,2.026e+00,1.455e+00,1.515e+00,1.292e+00,1.328e+00,1.538e+00,1.205e+00,1.201e+00,1.942e+00,2.490e+00,1.707e+00,1.028e+00,6.690e-01,1.369e+00,1.317e+00,1.061e+00,1.804e+00,1.915e+00,1.449e+00,2.242e+00,1.660e+00,1.973e+00,1.345e+00,1.291e+00,1.150e+00,1.351e+00,1.533e+00,1.152e+00,1.882e+00,1.884e+00,6.107e-01,1.830e+00,2.298e+00
3.875e-02,3.523e-01,1.332e+00,9.338e-01,5.611e-01,1.245e+00,2.005e+00,1.957e+00,2.680e+00,3.345e+00,2.299e+00,3.584e+00,3.897e+00,2.841e+00,1.573e+00,1.713e+00,2.026e+00,2.872e+00,2.240e+00,3.164e+00,2.594e+00,3.632e+00,1.951e+00,3.131e+00,3.375e+00,1.996e+00,2.839e+00,3.314e+00,2.113e+00,2.438e+00,3.706e+00,2.943e+00,2.935e+00,2.655e+00,2.684e+00,2.884e+00,2.818e+00,2.994e+00,3.753e+00,2.785e+00,3.282e+00,3.536e+00,2.136e+00,3.105e+00,2.069e+00,2.450e+00,4.013e+00,2.918e+00,1.838e+00,3.702e+00,3.363e+00,3.505e+00,2.895e+00,2.538e+00,1.645e+00,3.139e+00,3.651e+00,2.423e+00,2.895e+00,2.458e+00,2.912e+00,2.760e+00,3.189e+00,2.267e+00,2.467e+00,2.094e+00,2.548e+00,2.587e+00,3.131e+00,2.405e+00,3.328e+00,1.951e+00,1.315e+00,2.239e+00,1.816e+00,2.637e+00,3.130e+00,2.976e+00,2.871e+00,2.649e+00,2.883e+00,2.745e+00,1.917e+00,2.601e+00,2.625e+00,3.015e+00,2.696e+00,3.338e+00,2.903e+00,2.101e+00
2.115e-01,5.850e-01,1.313e+00,1.312e+00,8.135e-01,1.469e+00,1.446e+00,1.308e+00,2.053e+00,3.489e+00,2.117e+00,3.315e+00,3.436e+00,3.100e+00,1.345e+00,1.957e+00,1.569e+00,2.706e+00,2.467e+00,3.075e+00,2.790e+00,2.733e+00,3.305e+00,3.277e+00,2.910e+00,1.659e+00,2.388e+00,2.661e+00,2.055e+00,3.393e+00,3.149e+00,2.432e+00,2.476e+00,1.908e+00,2.092e+00,2.557e+00,2.878e+00,3.197e+00,3.759e+00,3.150e+00,3.580e+00,3.426e+00,2.388e+00,3.117e+00,1.585e+00,1.671e+00,3.839e+00,3.118e+00,2.199e+00,3.014e+00,2.308e+00,3.830e+00,2.457e+00,3.176e+00,2.525e+00,2.122e+00,3.895e+00,2.776e+00,2.944e+00,2.966e+00,2.672e+00,3.093e+00,2.552e+00,3.188e+00,2.733e+00,2.244e+00,1.890e+00,2.844e+00,2.952e+00,2.520e+00,2.116e+00,2.479e+00,2.853e+00,2.982e+00,2.128e+00,2.041e+00,3.753e+00,2.057e+00,2.117e+00,1.913e+00,3.172e+00,2.881e+00,2.574e+00,3.617e+00,2.426e+00,2.523e+00,2.936e+00,2.674e+00,3.020e+00,1.744e+00
1.778e-01,2.102e-01,1.036e+00,1.029e+00,4.100e-01,1.213e+00,1.943e+00,1.651e+00,2.503e+00,3.448e+00,2.577e+00,4.341e+00,4.285e+00,3.734e+00,2.161e+00,2.625e+00,2.098e+00,3.935e+00,3.391e+00,3.455e+00,3.587e+00,3.978e+00,3.254e+00,3.552e+00,3.001e+00,2.003e+00,3.017e+00,3.267e+00,2.390e+00,4.236e+00,3.323e+00,3.185e+00,3.258e+00,3.063e+00,2.260e+00,2.695e+00,3.670e+00,3.719e+00,4.271e+00,3.888e+00,4.511e+00,4.499e+00,2.127e+00,3.380e+00,2.206e+00,3.186e+00,3.945e+00,4.416e+00,2.964e+00,3.249e+00,3.365e+00,4.133e+00,3.453e+00,3.368e+00,2.376e+00,3.194e+00,4.048e+00,3.751e+00,3.593e+00,3.368e+00,2.911e+00,4.156e+00,3.608e+00,3.362e+00,3.241e+00,2.958e+00,2.616e+00,2.941e+00,4.013e+00,3.376e+00,3.218e+00,3.119e+00,2.682e+00,2.824e+00,2.182e+00,2.613e+00,4.171e+00,2.587e+00,3.512e+00,2.807e+00,4.137e+00,3.232e+00,3.156e+00,3.573e+00,3.698e+00,3.448e+00,3.052e+00,3.576e+00,3.854e+00,2.236e+00
4.026e-02,1.629e-01,6.553e-01,7.864e-01,3.014e-01,8.920e-01,1.293e+00,1.484e+00,2.132e+00,2.557e+00,1.748e+00,4.122e+00,3.516e+00,3.353e+00,1.813e+00,1.915e+00,2.325e+00,3.634e+00,2.429e+00,3.207e+00,3.271e+00,3.485e+00,2.916e+00,3.159e+00,3.296e+00,1.694e+00,2.416e+00,2.616e+00,1.686e+00,3.267e+00,2.700e+00,2.451e+00,2.628e+00,2.171e+00,1.730e+00,2.688e+00,3.297e+00,3.288e+00,3.585e+00,3.368e+00,3.336e+00,3.946e+00,2.340e+00,3.123e+00,2.307e+00,2.611e+00,3.316e+00,3.492e+00,3.193e+00,2.564e+00,2.427e+00,3.577e+00,2.488e+00,2.270e+00,2.484e+00,3.643e+00,3.299e+00,2.933e+00,2.626e+00,2.773e+00,2.116e+00,2.728e+00,3.369e+00,2.714e+00,3.132e+00,2.791e+00,2.746e+00,2.484e+00,2.860e+00,2.253e+00,3.198e+00,2.071e+00,2.258e+00,3.175e+00,1.572e+00,2.620e+00,3.724e+00,2.240e+00,3.128e+00,2.794e+00,3.642e+00,3.272e+00,2.587e+00,2.963e+00,2.369e+00,3.302e+00,2.824e+00,3.586e+00,3.236e+00,2.644e+00
2.204e-01,2.710e-01,1.234e+00,1.108e+00,4.961e-01,1.809e+00,2.558e+00,2.485e+00,3.236e+00,4.179e+00,3.351e+00,6.080e+00,6.076e+00,4.863e+00,3.427e+00,3.946e+00,3.964e+00,6.001e+00,4.671e+00,4.790e+00,5.314e+00,5.011e+00,5.111e+00,4.651e+00,4.863e+00,2.995e+00,4.220e+00,5.050e+00,3.526e+00,5.587e+00,4.507e+00,5.009e+00,4.380e+00,4.401e+00,3.597e+00,4.626e+00,4.988e+00,5.370e+00,5.267e+00,5.354e+00,5.813e+00,6.190e+00,4.301e+00,4.196e+00,4.068e+00,4.959e+00,4.990e+00,6.200e+00,4.540e+00,4.853e+00,4.066e+00,5.793e+00,3.885e+00,4.170e+00,3.061e+00,4.831e+00,5.537e+00,5.577e+00,4.263e+00,4.512e+00,4.277e+00,4.701e+00,6.143e+00,4.946e+00,5.122e+00,5.350e+00,4.739e+00,3.829e+00,5.025e+00,4.112e+00,4.992e+00,3.805e+00,4.287e+00,4.786e+00,3.177e+00,4.042e+00,5.407e+00,3.694e+00,5.610e+00,4.075e+00,5.794e+00,5.297e+00,4.344e+00,4.568e+00,4.954e+00,5.064e+00,4.074e+00,4.736e+00,5.572e+00,4.037e+00
4.621e-02,7.002e-02,4.208e-01,4.989e-01,1.618e-01,9.713e-01,1.253e+00,1.241e+00,1.712e+00,2.163e+00,2.078e+00,4.157e+00,4.151e+00,3.639e+00,2.411e+00,2.743e+00,3.087e+00,5.283e+00,3.320e+00,3.566e+00,4.112e+00,3.858e+00,4.459e+00,3.962e+00,3.449e+00,2.534e+00,2.602e+00,3.925e+00,2.248e+00,4.799e+00,2.502e+00,4.017e+00,3.191e+00,3.434e+00,1.962e+00,3.420e+00,4.083e+00,3.964e+00,4.083e+00,4.574e+00,4.058e+00,4.668e+00,3.368e+00,3.298e+00,2.492e+00,3.854e+00,3.505e+00,4.990e+00,3.913e+00,2.942e+00,2.772e+00,3.932e+00,3.274e+00,3.083e+00,2.924e+00,3.233e+00,4.056e+00,4.478e+00,3.196e+00,4.295e+00,2.732e+00,3.953e+00,4.343e+00,3.405e+00,4.392e+00,4.408e+00,3.799e+00,3.045e+00,3.456e+00,3.185e+00,4.196e+00,3.134e+00,4.083e+00,3.709e+00,2.110e+00,3.044e+00,4.005e+00,2.798e+00,4.526e+00,2.898e+00,4.489e+00,4.209e+00,3.573e+00,3.666e+00,3.996e+00,4.099e+00,3.341e+00,4.344e+00,3.622e+00,3.279e+00
9.056e-02,3.620e-01,1.141e+00,8.995e-01,5.439e-01,1.101e+00,1.402e+00,1.775e+00,2.318e+00,2.975e+00,2.573e+00,4.328e+00,4.446e+00,2.953e+00,2.972e+00,3.482e+00,4.150e+00,5.168e+00,3.661e+00,3.390e+00,4.404e+00,4.269e+00,4.023e+00,3.706e+00,4.305e+00,3.191e+00,3.253e+00,4.374e+00,3.935e+00,3.959e+00,3.903e+00,4.552e+00,3.482e+00,3.813e+00,3.089e+00,4.339e+00,4.414e+00,4.299e+00,4.499e+00,4.722e+00,4.371e+00,4.430e+00,4.261e+00,3.881e+00,3.484e+00,4.089e+00,4.319e+00,4.842e+00,3.254e+00,4.583e+00,3.355e+00,5.193e+00,3.576e+00,3.709e+00,3.654e+00,4.364e+00,4.474e+00,4.597e+00,3.108e+00,4.391e+00,3.486e+00,4.328e+00,5.362e+00,4.337e+00,4.361e+00,5.154e+00,4.104e+00,3.124e+00,4.910e+00,3.325e+00,4.494e+00,2.799e+00,4.213e+00,4.670e+00,2.697e+00,4.024e+00,4.750e+00,3.383e+00,4.589e+00,2.780e+00,4.869e+00,4.278e+00,3.406e+00,3.999e+00,3.944e+00,3.778e+00,3.438e+00,3.970e+00,4.256e+00,3.862e+00
2.523e-02,2.776e-01,7.279e-01,3.267e-01,3.660e-01,9.061e-01,1.002e+00,1.175e+00,1.333e+00,1.983e+00,1.721e+00,2.759e+00,2.586e+00,2.241e+00,1.334e+00,2.036e+00,2.251e+00,2.922e+00,2.573e+00,3.313e+00,2.561e+00,2.509e+00,2.434e+00,3.312e+00,2.998e+00,1.874e+00,2.365e+00,2.897e+00,2.002e+00,3.014e+00,3.102e+00,3.220e+00,2.440e+00,2.207e+00,2.117e+00,3.384e+00,3.202e+00,2.948e+00,2.576e+00,3.010e+00,2.954e+00,3.369e+00,2.757e+00,2.268e+00,1.855e+00,2.574e+00,2.637e+00,3.493e+00,2.653e+00,2.560e+00,1.845e+00,2.848e+00,2.347e+00,2.384e+00,2.261e+00,2.935e+00,2.819e+00,3.307e+00,2.083e+00,2.752e+00,1.900e+00,1.935e+00,2.385e+00,1.713e+00,3.235e+00,2.730e+00,3.085e+00,2.314e+00,1.774e+00,1.350e+00,3.195e+00,2.080e+00,2.384e+00,2.915e+00,2.605e+00,2.529e+00,3.178e+00,2.983e+00,2.516e+00,2.570e+00,2.786e+00,2.972e+00,2.930e+00,2.607e+00,2.656e+00,2.825e+00,3.089e+00,2.395e+00,2.752e+00,3.147e+00
2.078e-01,2.215e-01,1.011e+00,8.508e-01,3.999e-01,1.160e+00,1.838e+00,1.901e+00,2.091e+00,2.706e+00,2.152e+00,3.894e+00,3.674e+00,3.144e+00,3.102e+00,2.870e+00,4.081e+00,4.576e+00,4.430e+00,4.156e+00,4.572e+00,3.944e+00,4.279e+00,3.222e+00,4.085e+00,3.290e+00,4.108e+00,4.069e+00,3.796e+00,4.804e+00,5.025e+00,4.680e+00,3.542e+00,4.198e+00,3.028e+00,4.042e+00,5.094e+00,4.535e+00,4.565e+00,4.201e+00,4.312e+00,5.007e+00,3.496e+00,3.849e+00,4.231e+00,4.749e+00,3.748e+00,5.705e+00,3.596e+00,4.784e+00,3.743e+00,4.780e+00,3.619e+00,3.711e+00,3.476e+00,4.502e+00,4.074e+00,4.850e+00,3.242e+00,4.552e+00,3.181e+00,4.093e+00,6.033e+00,4.371e+00,4.838e+00,4.904e+00,4.470e+00,3.722e+00,4.545e+00,3.317e+00,4.432e+00,2.777e+00,3.924e+00,4.953e+00,3.282e+00,5.219e+00,4.344e+00,3.073e+00,5.467e+00,3.392e+00,5.075e+00,4.450e+00,4.212e+00,4.152e+00,4.556e+00,4.312e+00,4.425e+00,4.128e+00,4.248e+00,3.680e+00
5.751e-02,2.290e-01,8.663e-01,7.578e-01,3.806e-01,8.443e-01,1.332e+00,1.117e+00,1.782e+00,2.408e+00,1.764e+00,4.054e+00,3.616e+00,3.379e+00,2.585e+00,3.038e+00,3.566e+00,5.544e+00,3.667e+00,5.035e+00,5.350e+00,5.640e+00,4.272e+00,4.781e+00,4.786e+00,3.442e+00,4.061e+00,4.687e+00,3.546e+00,5.537e+00,4.013e+00,5.099e+00,3.858e+00,4.489e+00,2.689e+00,4.033e+00,5.312e+00,3.976e+00,5.357e+00,4.945e+00,4.395e+00,5.334e+00,3.800e+00,4.664e+00,3.732e+00,5.326e+00,4.327e+00,5.881e+00,4.020e+00,4.884e+00,4.575e+00,5.158e+00,4.658e+00,4.563e+00,4.614e+00,4.413e+00,4.521e+00,5.118e+00,4.499e+00,5.287e+00,3.397e+00,4.704e+00,5.251e+00,4.175e+00,5.064e+00,4.982e+00,3.786e+00,3.882e+00,5.547e+00,3.991e+00,5.668e+00,2.904e+00,3.518e+00,4.841e+00,3.244e+00,4.298e+00,5.945e+00,3.246e+00,5.110e+00,3.441e+00,6.338e+00,3.963e+00,3.690e+00,4.165e+00,4.742e+00,5.311e+00,4.425e+00,4.927e+00,4.520e+00,3.834e+00
3.702e-02,3.994e-01,9.081e-01,8.435e-01,5.522e-01,1.574e+00,1.516e+00,1.679e+00,2.312e+00,2.978e+00,2.207e+00,3.602e+00,3.919e+00,2.965e+00,2.561e+00,2.885e+00,3.756e+00,4.615e+00,4.512e+00,5.902e+00,4.895e+00,5.301e+00,4.656e+00,5.625e+00,4.540e+00,3.903e+00,4.149e+00,4.995e+00,4.240e+00,4.822e+00,5.983e+00,5.054e+00,4.022e+00,5.055e+00,2.681e+00,5.305e+00,4.987e+00,4.320e+00,5.976e+00,5.422e+00,5.041e+00,6.163e+00,5.283e+00,4.809e+00,3.796e+00,5.283e+00,5.205e+00,6.000e+00,3.798e+00,5.475e+00,4.344e+00,4.901e+00,4.958e+00,4.722e+00,4.918e+00,4.814e+00,5.545e+00,6.184e+00,5.191e+00,5.629e+00,3.948e+00,3.774e+00,4.702e+00,3.706e+00,6.296e+00,5.424e+00,4.227e+00,4.314e+00,4.958e+00,4.293e+00,4.802e+00,4.192e+00,4.578e+00,5.545e+00,4.417e+00,4.748e+00,5.254e+00,4.438e+00,5.567e+00,3.207e+00,5.686e+00,4.620e+00,4.340e+00,4.963e+00,4.412e+00,5.536e+00,5.443e+00,4.587e+00,4.705e+00,4.711e+00
2.008e-01,3.942e-01,1.002e+00,7.381e-01,5.492e-01,1.779e+00,1.901e+00,1.716e+00,1.763e+00,2.491e+00,1.940e+00,3.924e+00,3.325e+00,2.896e+00,2.430e+00,2.961e+00,3.424e+00,4.040e+00,4.302e+00,5.654e+00,5.016e+00,4.795e+00,5.190e+00,5.626e+00,4.935e+00,3.518e+00,4.762e+00,4.415e+00,4.927e+00,4.930e+00,5.715e+00,5.321e+00,4.296e+00,5.801e+00,3.556e+00,5.947e+00,4.824e+00,4.361e+00,5.005e+00,4.705e+00,4.939e+00,6.058e+00,4.994e+00,4.816e+00,5.481e+00,5.915e+00,3.660e+00,5.877e+00,4.303e+00,5.724e+00,4.955e+00,4.922e+00,4.688e+00,4.869e+00,5.123e+00,4.054e+00,5.201e+00,5.641e+00,5.549e+00,4.603e+00,3.845e+00,3.517e+00,5.312e+00,3.991e+00,5.767e+00,5.965e+00,4.630e+00,3.555e+00,4.845e+00,3.945e+00,5.625e+00,4.344e+00,4.128e+00,5.043e+00,4.303e+00,5.036e+00,5.136e+00,3.975e+00,6.451e+00,3.609e+00,5.129e+00,4.381e+00,4.402e+00,4.874e+00,4.893e+00,5.544e+00,4.674e+00,4.574e+00,4.746e+00,4.263e+00
1.905e-01,4.394e-01,1.335e+00,9.508e-01,6.458e-01,1.752e+00,2.190e+00,1.869e+00,2.497e+00,3.776e+00,2.912e+00,4.914e+00,4.308e+00,4.428e+00,2.659e+00,3.575e+00,3.742e+00,5.303e+00,4.425e+00,5.917e+00,5.966e+00,5.647e+00,6.402e+00,6.503e+00,6.145e+00,4.627e+00,5.067e+00,5.380e+00,4.797e+00,6.373e+00,6.090e+00,6.421e+00,5.688e+00,5.712e+00,4.081e+00,6.501e+00,6.721e+00,5.731e+00,6.859e+00,5.901e+00,6.145e+00,7.049e+00,5.502e+00,6.370e+00,5.043e+00,5.925e+00,5.732e+00,6.835e+00,5.385e+00,5.789e+00,5.337e+00,6.889e+00,5.425e+00,5.898e+00,5.141e+00,5.234e+00,6.572e+00,5.894e+00,5.616e+00,5.524e+00,5.066e+00,5.634e+00,6.310e+00,5.227e+00,6.247e+00,5.934e+00,5.279e+00,4.602e+00,5.151e+00,4.625e+00,6.888e+00,5.066e+00,5.210e+00,5.412e+00,4.921e+00,6.000e+00,6.215e+00,4.838e+00,6.440e+00,5.038e+00,5.977e+00,6.037e+00,5.645e+00,6.181e+00,6.103e+00,6.263e+00,5.477e+00,6.885e+00,6.246e+00,5.195e+00
1.085e-01,1.919e-01,1.010e+00,5.890e-01,3.467e-01,1.361e+00,2.172e+00,1.769e+00,2.138e+00,2.987e+00,2.495e+00,4.638e+00,4.641e+00,4.093e+00,3.237e+00,3.036e+00,3.883e+00,5.180e+00,4.875e+00,5.841e+00,5.725e+00,5.908e+00,5.796e+00,5.939e+00,5.298e+00,4.590e+00,5.052e+00,5.635e+00,4.351e+00,6.842e+00,6.323e+00,6.324e+00,4.811e+00,5.614e+00,4.495e+00,5.889e+00,6.118e+00,5.889e+00,7.646e+00,5.870e+00,6.485e+00,8.141e+00,5.512e+00,6.619e+00,5.852e+00,6.830e+00,5.156e+00,7.164e+00,5.365e+00,5.859e+00,5.395e+00,6.035e+00,5.690e+00,5.249e+00,4.812e+00,5.652e+00,5.760e+00,7.289e+00,5.199e+00,5.834e+00,5.175e+00,5.211e+00,7.437e+00,5.541e+00,6.685e+00,6.056e+00,5.983e+00,4.161e+00,6.274e+00,5.669e+00,6.234e+00,4.283e+00,4.690e+00,5.833e+00,4.607e+00,5.888e+00,5.497e+00,4.884e+00,6.791e+00,5.212e+00,6.318e+00,5.675e+00,5.047e+00,5.517e+00,5.984e+00,6.655e+00,5.891e+00,6.594e+00,5.970e+00,4.970e+00
1.920e-01,3.554e-01,8.815e-01,7.401e-01,4.971e-01,8.645e-01,9.566e-01,1.049e+00,1.131e+00,1.956e+00,1.397e+00,3.432e+00,2.591e+00,2.805e+00,2.130e+00,2.834e+00,3.135e+00,4.427e+00,3.777e+00,4.230e+00,5.127e+00,4.049e+00,5.534e+00,5.437e+00,5.075e+00,4.192e+00,4.805e+00,4.563e+00,3.599e+00,7.020e+00,5.085e+00,5.754e+00,3.570e+00,4.056e+00,4.036e+00,5.204e+00,5.750e+00,5.360e+00,5.243e+00,5.502e+00,5.882e+00,6.129e+00,4.998e+00,5.259e+00,4.637e+00,5.715e+00,3.734e+00,7.043e+00,4.446e+00,5.122e+00,3.505e+00,5.756e+00,4.728e+00,5.446e+00,5.184e+00,4.717e+00,4.072e+00,6.057e+00,4.564e+00,5.436e+00,4.237e+00,5.173e+00,6.440e+00,4.570e+00,5.890e+00,6.191e+00,5.208e+00,4.108e+00,5.162e+00,3.724e+00,6.057e+00,4.334e+00,4.407e+00,4.795e+00,4.642e+00,5.298e+00,6.315e+00,4.450e+00,5.449e+00,4.838e+00,5.193e+00,5.829e+00,5.422e+00,5.968e+00,5.515e+00,5.358e+00,5.296e+00,5.232e+00,5.576e+00,5.523e+00
9.482e-02,3.900e-01,9.974e-01,8.216e-01,5.496e-01,1.094e+00,1.254e+00,1.046e+00,1.632e+00,2.403e+00,1.455e+00,3.114e+00,3.501e+00,2.865e+00,2.469e+00,2.986e+00,3.499e+00,4.575e+00,3.722e+00,4.565e+00,4.715e+00,4.961e+00,4.640e+00,6.242e+00,5.804e+00,3.901e+00,4.584e+00,5.693e+00,5.349e+00,6.083e+00,5.884e+00,6.398e+00,4.699e+00,5.983e+00,3.932e+00,5.730e+00,5.250e+00,5.393e+00,6.490e+00,5.620e+00,5.875e+00,5.859e+00,5.401e+00,5.344e+00,3.855e+00,4.897e+00,4.973e+00,5.932e+00,4.222e+00,6.343e+00,5.071e+00,5.683e+00,5.166e+00,5.841e+00,5.298e+00,4.798e+00,5.652e+00,5.667e+00,5.361e+00,5.912e+00,5.089e+00,5.472e+00,5.867e+00,5.177e+00,6.144e+00,6.465e+00,4.875e+00,4.942e+00,5.810e+00,4.456e+00,6.663e+00,4.614e+00,4.706e+00,5.546e+00,4.794e+00,4.829e+00,5.481e+00,5.477e+00,6.498e+00,3.924e+00,5.602e+00,4.989e+00,4.590e+00,6.166e+00,5.687e+00,5.461e+00,5.741e+00,5.647e+00,4.636e+00,4.043e+00
1.438e-01,2.692e-01,7.499e-01,7.410e-01,4.054e-01,1.517e+00,1.586e+00,1.904e+00,2.772e+00,3.818e+00,3.193e+00,4.674e+00,5.085e+00,4.265e+00,3.245e+00,3.670e+00,4.100e+00,6.623e+00,5.211e+00,6.916e+00,7.361e+00,6.253e+00,6.809e+00,8.874e+00,7.544e+00,5.750e+00,6.915e+00,7.943e+00,6.947e+00,8.644e+00,7.369e+00,8.126e+00,6.630e+00,7.401e+00,6.046e+00,8.285e+00,6.839e+00,6.953e+00,9.362e+00,8.221e+00,7.663e+00,8.638e+00,8.314e+00,7.614e+00,6.920e+00,7.590e+00,5.800e+00,9.339e+00,7.138e+00,8.757e+00,5.880e+00,7.902e+00,7.366e+00,8.677e+00,7.250e+00,6.148e+00,7.720e+00,9.199e+00,6.902e+00,7.687e+00,7.654e+00,7.739e+00,8.263e+00,7.420e+00,8.661e+00,8.235e+00,7.877e+00,6.710e+00,8.408e+00,6.512e+00,7.948e+00,6.204e+00,6.203e+00,7.553e+00,6.712e+00,6.442e+00,8.139e+00,6.337e+00,9.130e+00,5.586e+00,8.752e+00,6.553e+00,6.727e+00,7.613e+00,7.469e+00,8.516e+00,7.422e+00,7.240e+00,7.666e+00,6.922e+00
3.450e-02,3.299e-01,7.316e-01,4.163e-01,4.241e-01,9.625e-01,9.122e-01,9.494e-01,1.414e+00,2.139e+00,1.328e+00,2.561e+00,2.607e+00,2.409e+00,2.253e+00,2.157e+00,2.822e+00,3.783e+00,2.895e+00,4.549e+00,4.793e+00,4.729e+00,4.634e+00,5.627e+00,5.547e+00,4.969e+00,4.766e+00,5.015e+00,3.953e+00,6.642e+00,5.211e+00,5.538e+00,4.991e+00,5.619e+00,4.171e+00,5.829e+00,5.319e+00,5.393e+00,6.238e+00,5.365e+00,5.636e+00,6.476e+00,5.846e+00,5.799e+00,4.731e+00,6.380e+00,4.156e+00,6.606e+00,5.191e+00,5.844e+00,4.413e+00,5.896e+00,5.260e+00,6.170e+00,5.053e+00,4.586e+00,5.439e+00,6.427e+00,5.488e+00,5.433e+00,4.640e+00,5.025e+00,5.437e+00,4.152e+00,5.633e+00,6.031e+00,5.702e+00,4.415e+00,5.199e+00,4.588e+00,6.414e+00,4.148e+00,4.120e+00,5.972e+00,5.638e+00,5.024e+00,5.996e+00,4.394e+00,5.802e+00,3.936e+00,6.156e+00,4.473e+00,4.757e+00,5.532e+00,5.302e+00,6.403e+00,5.346e+00,5.163e+00,5.931e+00,5.379e+00
9.596e-04,1.021e-01,3.709e-01,5.410e-01,1.927e-01,1.461e+00,1.566e+00,1.986e+00,2.339e+00,2.297e+00,2.479e+00,3.903e+00,4.572e+00,2.748e+00,2.675e+00,3.181e+00,4.175e+00,5.458e+00,4.394e+00,5.697e+00,5.054e+00,5.736e+00,5.144e+00,6.805e+00,5.233e+00,4.547e+00,5.034e+00,6.441e+00,6.361e+00,7.025e+00,6.654e+00,6.153e+00,4.620e+00,6.724e+00,4.382e+00,7.508e+00,5.803e+00,6.363e+00,7.236e+00,6.605e+00,6.591e+00,7.603e+00,6.396e+00,6.090e+00,5.658e+00,6.881e+00,5.160e+00,7.247e+00,5.543e+00,7.228e+00,5.409e+00,6.061e+00,6.947e+00,5.999e+00,6.457e+00,5.676e+00,6.615e+00,8.020e+00,6.404e+00,5.957e+00,6.318e+00,5.551e+00,6.643e+00,4.681e+00,7.875e+00,7.109e+00,5.476e+00,5.037e+00,6.394e+00,5.556e+00,7.068e+00,6.274e+00,6.284e+00,5.970e+00,4.653e+00,5.312e+00,6.285e+00,6.743e+00,7.259e+00,4.166e+00,6.022e+00,6.783e+00,6.254e+00,6.274e+00,6.616e+00,6.276e+00,5.740e+00,6.814e+00,6.290e+00,5.680e+00
5.187e-02,2.794e-01,6.639e-01,3.278e-01,3.620e-01,1.312e+00,1.230e+00,1.641e+00,1.648e+00,2.057e+00,2.128e+00,3.946e+00,4.083e+00,2.596e+00,2.214e+00,3.112e+00,3.512e+00,4.919e+00,3.504e+00,4.091e+00,4.679e+00,3.954e+00,4.932e+00,5.442e+00,4.927e+00,3.945e+00,4.682e+00,5.939e+00,6.094e+00,7.694e+00,6.034e+00,7.339e+00,5.208e+00,6.190e+00,5.028e+00,7.825e+00,5.935e+00,6.832e+00,6.510e+00,5.765e+00,6.538e+00,6.865e+00,6.295e+00,5.814e+00,5.562e+00,7.067e+00,4.153e+00,7.070e+00,6.442e+00,6.624e+00,4.907e+00,6.317e+00,5.503e+00,5.609e+00,5.652e+00,5.933e+00,6.074e+00,7.987e+00,5.128e+00,5.469e+00,6.385e+00,5.097e+00,6.973e+00,5.435e+00,5.998e+00,7.339e+00,7.070e+00,4.786e+00,5.233e+00,4.163e+00,7.193e+00,5.978e+00,5.585e+00,6.035e+00,5.937e+00,5.175e+00,6.169e+00,6.786e+00,6.947e+00,5.243e+00,5.057e+00,6.423e+00,7.132e+00,5.874e+00,6.367e+00,6.498e+00,5.303e+00,5.944e+00,6.494e+00,6.319e+00
1.082e-01,1.895e-01,1.062e+00,4.391e-01,3.318e-01,1.199e+00,2.000e+00,1.409e+00,2.041e+00,3.072e+00,2.553e+00,4.524e+00,4.313e+00,4.079e+00,2.735e+00,3.331e+00,3.064e+00,5.071e+00,4.128e+00,4.976e+00,5.168e+00,5.019e+00,4.852e+00,6.609e+00,6.293e+00,4.208e+00,5.673e+00,6.546e+00,6.142e+00,8.846e+00,7.032e+00,7.090e+00,6.724e+00,7.766e+00,6.267e+00,7.649e+00,6.506e+00,7.562e+00,8.660e+00,7.161e+00,8.579e+00,8.006e+00,6.534e+00,6.943e+00,6.219e+00,7.296e+00,5.988e+00,8.804e+00,6.971e+00,7.723e+00,6.066e+00,7.576e+00,7.005e+00,7.672e+00,5.300e+00,5.836e+00,6.624e+00,8.577e+00,6.698e+00,6.488e+00,6.693e+00,6.997e+00,8.020e+00,5.672e+00,6.972e+00,7.777e+00,7.336e+00,5.622e+00,7.886e+00,6.655e+00,8.676e+00,6.657e+00,4.572e+00,6.535e+00,6.263e+00,6.173e+00,7.153e+00,7.118e+00,7.709e+00,5.535e+00,7.644e+00,6.602e+00,6.924e+00,6.968e+00,7.099e+00,8.314e+00,6.045e+00,7.879e+00,7.413e+00,6.412e+00
6.186e-02,3.293e-01,1.335e+00,1.030e+00,5.461e-01,1.244e+00,1.863e+00,1.752e+00,2.895e+00,3.874e+00,2.935e+00,4.825e+00,4.633e+00,4.086e+00,3.320e+00,4.011e+00,4.458e+00,6.823e+00,5.676e+00,7.315e+00,7.049e+00,6.896e+00,7.047e+00,9.329e+00,8.485e+00,6.630e+00,7.432e+00,8.044e+00,7.018e+00,1.142e+01,8.679e+00,9.443e+00,8.300e+00,8.221e+00,6.452e+00,9.133e+00,8.486e+00,9.598e+00,1.075e+01,1.057e+01,1.049e+01,1.134e+01,9.990e+00,9.880e+00,7.725e+00,9.542e+00,8.583e+00,1.225e+01,9.166e+00,9.775e+00,7.488e+00,1.002e+01,9.904e+00,9.503e+00,9.038e+00,7.988e+00,8.987e+00,1.143e+01,8.973e+00,9.356e+00,7.600e+00,9.115e+00,9.893e+00,6.953e+00,9.667e+00,8.984e+00,9.409e+00,8.297e+00,1.001e+01,8.504e+00,1.013e+01,7.990e+00,8.677e+00,9.281e+00,8.205e+00,8.683e+00,9.870e+00,8.403e+00,9.350e+00,6.356e+00,1.008e+01,8.736e+00,9.413e+00,9.626e+00,9.634e+00,1.083e+01,8.593e+00,1.004e+01,1.054e+01,9.650e+00
1.068e-01,2.720e-01,8.118e-01,9.282e-01,4.310e-01,1.085e+00,1.220e+00,1.277e+00,2.131e+00,2.800e+00,2.085e+00,3.723e+00,3.973e+00,2.916e+00,1.945e+00,2.959e+00,2.727e+00,4.923e+00,3.508e+00,4.357e+00,5.082e+00,4.349e+00,5.273e+00,6.463e+00,5.304e+00,4.476e+00,4.800e+00,6.415e+00,5.760e+00,8.854e+00,7.492e+00,7.346e+00,6.435e+00,7.106e+00,6.129e+00,7.924e+00,7.260e+00,8.280e+00,8.959e+00,7.196e+00,9.549e+00,7.973e+00,6.620e+00,7.583e+00,5.046e+00,6.542e+00,6.124e+00,8.902e+00,7.039e+00,7.923e+00,5.718e+00,8.227e+00,7.270e+00,8.373e+00,5.999e+00,5.838e+00,6.297e+00,9.326e+00,6.963e+00,6.844e+00,7.791e+00,7.674e+00,8.303e+00,7.100e+00,6.976e+00,7.742e+00,6.187e+00,5.419e+00,8.367e+00,7.352e+00,7.902e+00,7.898e+00,6.069e+00,7.538e+00,6.695e+00,6.316e+00,7.986e+00,7.110e+00,7.013e+00,5.636e+00,7.787e+00,7.460e+00,7.873e+00,8.083e+00,7.096e+00,7.455e+00,6.181e+00,7.374e+00,8.104e+00,6.206e+00
6.119e-02,6.731e-02,3.799e-01,4.455e-01,1.493e-01,7.477e-01,1.021e+00,1.280e+00,1.940e+00,2.427e+00,1.957e+00,3.829e+00,3.866e+00,3.347e+00,2.369e+00,3.004e+00,3.193e+00,5.413e+00,4.251e+00,6.061e+00,6.040e+00,5.432e+00,4.886e+00,6.227e+00,5.789e+00,3.551e+00,4.988e+00,6.334e+00,6.671e+00,9.215e+00,6.924e+00,8.222e+00,7.809e+00,8.264e+00,5.789e+00,9.256e+00,8.008e+00,8.464e+00,8.875e+00,8.217e+00,9.122e+00,9.550e+00,7.809e+00,7.814e+00,7.841e+00,8.738e+00,6.308e+00,1.025e+01,9.394e+00,8.520e+00,6.614e+00,8.441e+00,8.201e+00,7.573e+00,8.594e+00,7.504e+00,7.311e+00,1.028e+01,6.936e+00,7.263e+00,7.599e+00,7.659e+00,8.423e+00,6.547e+00,8.163e+00,7.833e+00,7.969e+00,7.116e+00,8.674e+00,6.924e+00,9.062e+00,7.678e+00,7.157e+00,8.588e+00,6.397e+00,7.727e+00,9.514e+00,7.441e+00,9.070e+00,5.921e+00,8.258e+00,8.381e+00,9.737e+00,7.103e+00,7.794e+00,9.500e+00,6.182e+00,8.375e+00,9.280e+00,7.974e+00
5.957e-02,2.386e-01,1.064e+00,6.823e-01,4.026e-01,1.278e+00,1.947e+00,1.760e+00,2.367e+00,3.047e+00,2.449e+00,3.897e+00,4.469e+00,3.454e+00,2.879e+00,3.015e+00,3.788e+00,5.257e+00,4.361e+00,5.416e+00,5.082e+00,5.456e+00,4.987e+00,6.691e+00,6.536e+00,4.935e+00,5.453e+00,7.177e+00,6.066e+00,8.143e+00,7.654e+00,8.055e+00,7.923e+00,9.174e+00,6.293e+00,8.944e+00,7.294e+00,8.127e+00,8.461e+00,7.657e+00,9.237e+00,8.702e+00,7.403e+00,7.610e+00,6.949e+00,7.829e+00,7.156e+00,1.026e+01,8.067e+00,8.886e+00,6.800e+00,8.005e+00,8.393e+00,8.988e+00,7.551e+00,6.629e+00,7.495e+00,8.449e+00,7.335e+00,8.051e+00,7.176e+00,8.792e+00,8.142e+00,6.424e+00,8.193e+00,7.800e+00,8.885e+00,7.091e+00,8.333e+00,6.829e+00,9.143e+00,7.239e+00,6.786e+00,7.994e+00,7.708e+00,8.337e+00,7.469e+00,7.524e+00,9.634e+00,5.715e+00,8.517e+00,6.977e+00,7.790e+00,7.990e+00,8.925e+00,8.937e+00,7.516e+00,8.221e+00,7.741e+00,6.771e+00
2.053e-01,1.933e-01,9.730e-01,1.115e+00,3.990e-01,1.337e+00,2.085e+00,1.633e+00,2.329e+00,2.888e+00,2.026e+00,3.782e+00,3.366e+00,3.277e+00,1.736e+00,2.838e+00,2.999e+00,4.486e+00,3.722e+00,5.013e+00,4.741e+00,4.286e+00,4.984e+00,6.399e+00,5.539e+00,4.342e+00,5.460e+00,6.800e+00,6.374e+00,8.755e+00,8.354e+00,8.465e+00,6.780e+00,8.348e+00,7.225e+00,9.031e+00,9.185e+00,9.139e+00,9.496e+00,7.952e+00,1.036e+01,9.552e+00,7.125e+00,8.973e+00,7.699e+00,7.400e+00,7.455e+00,9.898e+00,8.021e+00,9.444e+00,6.960e+00,8.504e+00,8.601e+00,9.619e+00,7.703e+00,8.086e+00,6.559e+00,8.884e+00,8.158e+00,8.458e+00,9.033e+00,8.597e+00,1.049e+01,7.869e+00,9.194e+00,7.934e+00,7.926e+00,7.420e+00,9.088e+00,7.447e+00,9.162e+00,8.721e+00,7.297e+00,7.889e+00,7.372e+00,8.609e+00,8.240e+00,9.203e+00,9.334e+00,7.215e+00,7.940e+00,9.383e+00,9.642e+00,8.824e+00,8.737e+00,9.409e+00,8.097e+00,9.874e+00,9.313e+00,6.923e+00
8.572e-03,3.723e-01,1.349e+00,8.138e-01,5.668e-01,1.048e+00,1.729e+00,1.468e+00,2.033e+00,3.010e+00,2.109e+00,4.681e+00,4.772e+00,4.137e+00,3.002e+00,3.012e+00,3.945e+00,5.989e+00,5.003e+00,6.716e+00,5.979e+00,6.155e+00,6.247e+00,7.568e+00,7.488e+00,4.119e+00,5.626e+00,6.847e+00,6.047e+00,1.051e+01,7.559e+00,8.366e+00,7.552e+00,8.236e+00,7.278e+00,9.320e+00,8.278e+00,9.901e+00,1.058e+01,1.006e+01,1.160e+01,1.193e+01,9.687e+00,1.036e+01,7.987e+00,8.953e+00,8.382e+00,1.211e+01,9.798e+00,9.802e+00,7.427e+00,9.738e+00,8.943e+00,7.924e+00,9.306e+00,8.570e+00,7.925e+00,1.110e+01,8.552e+00,1.021e+01,7.624e+00,7.826e+00,1.107e+01,7.632e+00,9.706e+00,9.535e+00,1.018e+01,8.084e+00,9.211e+00,7.796e+00,1.093e+01,8.054e+00,8.723e+00,9.812e+00,6.423e+00,8.190e+00,9.572e+00,9.755e+00,1.004e+01,7.243e+00,8.795e+00,9.692e+00,9.431e+00,1.034e+01,9.281e+00,1.185e+01,7.763e+00,1.018e+01,1.009e+01,9.360e+00
1.952e-01,4.335e-01,1.121e+00,6.979e-01,5.910e-01,1.561e+00,1.670e+00,1.257e+00,1.422e+00,2.686e+00,2.416e+00,3.932e+00,3.234e+00,3.235e+00,1.647e+00,2.729e+00,2.671e+00,4.268e+00,3.621e+00,4.698e+00,4.654e+00,3.278e+00,5.431e+00,4.980e+00,4.114e+00,3.648e+00,4.333e+00,5.084e+00,5.240e+00,7.907e+00,6.285e+00,6.649e+00,5.574e+00,7.155e+00,5.412e+00,9.005e+00,8.017e+00,7.204e+00,8.176e+00,6.460e+00,8.474e+00,8.172e+00,6.968e+00,8.018e+00,7.540e+00,7.694e+00,6.518e+00,9.448e+00,8.205e+00,7.986e+00,5.719e+00,7.175e+00,7.156e+00,8.347e+00,7.008e+00,6.020e+00,6.119e+00,8.674e+00,7.520e+00,7.512e+00,6.313e+00,6.580e+00,8.763e+00,7.187e+00,7.245e+00,8.166e+00,7.219e+00,6.181e+00,6.568e+00,6.940e+00,7.626e+00,7.510e+00,7.177e+00,7.709e+00,6.727e+00,6.820e+00,7.785e+00,7.075e+00,7.703e+00,5.465e+00,7.057e+00,7.383e+00,8.785e+00,8.226e+00,7.244e+00,9.135e+00,7.220e+00,8.107e+00,8.169e+00,6.297e+00
4.570e-02,2.262e-01,1.081e+00,3.583e-01,3.589e-01,1.111e+00,1.849e+00,1.444e+00,1.453e+00,2.078e+00,2.094e+00,3.663e+00,3.207e+00,2.791e+00,2.664e+00,2.707e+00,3.775e+00,4.737e+00,4.373e+00,5.671e+00,5.234e+00,5.207e+00,5.466e+00,6.608e+00,6.084e+00,5.406e+00,5.643e+00,7.044e+00,6.104e+00,7.885e+00,8.851e+00,8.286e+00,6.642e+00,8.004e+00,6.364e+00,9.794e+00,8.064e+00,7.630e+00,1.001e+01,7.517e+00,9.256e+00,9.322e+00,8.476e+00,9.334e+00,9.039e+00,9.413e+00,6.761e+00,1.051e+01,8.648e+00,9.743e+00,6.894e+00,8.312e+00,8.804e+00,9.206e+00,8.036e+00,7.595e+00,6.327e+00,1.052e+01,7.248e+00,8.624e+00,8.478e+00,8.821e+00,9.662e+00,7.504e+00,9.224e+00,8.877e+00,8.174e+00,6.917e+00,8.467e+00,6.953e+00,9.100e+00,7.652e+00,7.219e+00,8.772e+00,8.217e+00,9.193e+00,8.248e+00,8.970e+00,1.000e+01,7.401e+00,8.189e+00,7.946e+00,8.850e+00,9.525e+00,8.743e+00,9.797e+00,8.766e+00,8.548e+00,7.893e+00,8.693e+00
9.985e-02,4.963e-01,1.133e+00,6.440e-01,6.450e-01,1.499e+00,1.535e+00,1.522e+00,1.788e+00,2.914e+00,2.002e+00,3.909e+00,3.965e+00,3.673e+00,3.032e+00,3.106e+00,3.968e+00,4.824e+00,4.435e+00,6.332e+00,5.418e+00,5.846e+00,5.807e+00,8.310e+00,7.520e+00,5.240e+00,6.191e+00,7.043e+00,6.993e+00,9.443e+00,8.347e+00,9.260e+00,7.757e+00,9.383e+00,8.347e+00,1.181e+01,9.184e+00,1.060e+01,1.186e+01,1.089e+01,1.271e+01,1.183e+01,1.170e+01,1.213e+01,1.088e+01,1.091e+01,9.115e+00,1.306e+01,1.069e+01,1.152e+01,8.570e+00,1.054e+01,1.030e+01,1.111e+01,1.090e+01,9.100e+00,8.622e+00,1.248e+01,1.047e+01,1.182e+01,1.008e+01,9.671e+00,1.190e+01,8.568e+00,1.113e+01,1.074e+01,1.199e+01,9.709e+00,1.010e+01,8.224e+00,1.106e+01,9.755e+00,1.033e+01,1.040e+01,9.348e+00,1.102e+01,1.086e+01,1.218e+01,1.184e+01,9.042e+00,9.611e+00,1.053e+01,1.068e+01,1.166e+01,1.043e+01,1.242e+01,1.145e+01,1.168e+01,1.080e+01,1.067e+01
9.150e-02,4.049e-01,1.131e+00,8.993e-01,5.854e-01,1.714e+00,1.877e+00,2.315e+00,2.695e+00,3.173e+00,2.468e+00,4.347e+00,4.650e+00,2.826e+00,2.592e+00,2.670e+00,3.233e+00,4.510e+00,3.450e+00,4.321e+00,4.756e+00,4.920e+00,5.303e+00,6.594e+00,6.060e+00,4.836e+00,5.580e+00,5.844e+00,5.551e+00,7.215e+00,7.092e+00,7.543e+00,6.547e+00,7.143e+00,6.939e+00,9.280e+00,6.867e+00,8.228e+00,8.584e+00,8.184e+00,1.049e+01,8.851e+00,8.789e+00,9.052e+00,8.235e+00,9.361e+00,7.265e+00,1.041e+01,7.554e+00,8.979e+00,7.522e+00,9.642e+00,7.581e+00,9.153e+00,8.328e+00,7.762e+00,7.859e+00,9.240e+00,9.171e+00,8.541e+00,8.755e+00,7.550e+00,9.652e+00,7.964e+00,7.918e+00,9.764e+00,9.509e+00,7.338e+00,8.090e+00,6.382e+00,9.052e+00,9.181e+00,7.422e+00,7.543e+00,7.953e+00,7.821e+00,9.024e+00,8.357e+00,1.082e+01,6.960e+00,7.247e+00,8.293e+00,9.295e+00,9.034e+00,8.246e+00,9.904e+00,8.208e+00,8.074e+00,8.993e+00,8.139e+00
2.317e-01,5.729e-01,1.505e+00,1.084e+00,8.010e-01,2.225e+00,2.420e+00,1.821e+00,2.205e+00,3.564e+00,2.870e+00,4.394e+00,4.043e+00,3.560e+00,2.247e+00,3.292e+00,3.154e+00,3.970e+00,3.712e+00,4.779e+00,3.749e+00,3.922e+00,5.089e+00,6.537e+00,5.527e+00,4.238e+00,5.110e+00,6.499e+00,5.838e+00,6.834e+00,7.742e+00,7.117e+00,5.473e+00,5.940e+00,6.079e+00,9.271e+00,7.019e+00,7.444e+00,9.907e+00,8.209e+00,1.003e+01,9.158e+00,9.646e+00,1.006e+01,8.338e+00,7.469e+00,7.707e+00,9.301e+00,8.138e+00,9.720e+00,6.432e+00,9.625e+00,8.445e+00,9.957e+00,7.305e+00,6.247e+00,8.269e+00,9.839e+00,8.620e+00,8.676e+00,9.819e+00,8.446e+00,9.093e+00,7.926e+00,9.132e+00,8.876e+00,7.908e+00,7.726e+00,8.661e+00,7.376e+00,8.411e+00,8.487e+00,7.959e+00,7.930e+00,8.071e+00,7.850e+00,9.281e+00,9.134e+00,8.789e+00,6.763e+00,8.381e+00,8.798e+00,9.720e+00,9.820e+00,7.755e+00,9.818e+00,9.729e+00,8.893e+00,8.833e+00,8.243e+00
1.228e-01,4.194e-01,8.790e-01,6.793e-01,5.534e-01,1.585e+00,1.525e+00,1.548e+00,1.749e+00,2.474e+00,1.657e+00,3.750e+00,3.905e+00,3.172e+00,3.059e+00,3.300e+00,3.877e+00,3.934e+00,4.122e+00,5.014e+00,4.581e+00,5.776e+00,5.292e+00,7.751e+00,6.587e+00,5.129e+00,5.615e+00,6.282e+00,6.100e+00,8.154e+00,7.978e+00,8.292e+00,6.443e+00,7.987e+00,6.510e+00,1.019e+01,7.786e+00,9.088e+00,9.725e+00,9.824e+00,1.240e+01,1.143e+01,1.090e+01,1.187e+01,9.587e+00,9.566e+00,8.814e+00,1.116e+01,9.087e+00,9.437e+00,8.123e+00,1.006e+01,9.533e+00,1.076e+01,9.366e+00,8.408e+00,8.785e+00,1.050e+01,1.100e+01,1.049e+01,9.581e+00,9.669e+00,1.081e+01,7.942e+00,1.110e+01,1.103e+01,1.032e+01,8.701e+00,1.037e+01,8.930e+00,1.136e+01,1.028e+01,9.023e+00,9.352e+00,9.564e+00,9.686e+00,1.027e+01,1.017e+01,1.174e+01,7.938e+00,8.958e+00,1.029e+01,1.095e+01,1.044e+01,8.941e+00,1.093e+01,1.116e+01,1.002e+01,1.051e+01,9.124e+00
2.094e-02,3.427e-01,1.247e+00,7.333e-01,5.191e-01,8.500e-01,1.421e+00,1.488e+00,1.901e+00,2.697e+00,2.316e+00,4.414e+00,4.561e+00,3.358e+00,2.536e+00,3.103e+00,3.903e+00,6.373e+00,4.528e+00,5.471e+00,6.162e+00,5.330e+00,5.963e+00,5.964e+00,5.938e+00,4.767e+00,5.138e+00,6.760e+00,5.286e+00,9.624e+00,7.283e+00,8.651e+00,6.974e+00,7.463e+00,7.426e+00,8.501e+00,9.052e+00,9.049e+00,1.013e+01,9.443e+00,1.129e+01,1.236e+01,9.857e+00,1.063e+01,1.020e+01,1.012e+01,8.918e+00,1.380e+01,1.015e+01,1.005e+01,8.384e+00,1.125e+01,9.663e+00,1.120e+01,9.180e+00,9.382e+00,8.919e+00,1.225e+01,9.797e+00,1.064e+01,8.597e+00,1.012e+01,1.247e+01,9.415e+00,1.019e+01,1.027e+01,1.182e+01,9.104e+00,1.173e+01,9.489e+00,1.191e+01,9.286e+00,9.206e+00,1.018e+01,1.009e+01,1.058e+01,1.136e+01,1.021e+01,1.046e+01,7.178e+00,1.037e+01,1.039e+01,1.151e+01,9.908e+00,1.058e+01,1.225e+01,1.011e+01,1.169e+01,1.113e+01,9.734e+00
4.519e-02,2.747e-01,6.926e-01,3.865e-01,3.683e-01,1.133e+00,1.249e+00,1.069e+00,1.428e+00,2.255e+00,1.843e+00,3.278e+00,3.583e+00,3.124e+00,2.683e+00,2.941e+00,3.421e+00,4.368e+00,4.059e+00,5.033e+00,4.941e+00,5.644e+00,5.116e+00,6.837e+00,5.534e+00,5.364e+00,5.292e+00,6.371e+00,6.338e+00,9.382e+00,8.311e+00,7.811e+00,6.971e+00,9.591e+00,6.715e+00,1.023e+01,8.905e+00,9.628e+00,1.143e+01,9.515e+00,1.248e+01,1.133e+01,1.056e+01,1.220e+01,1.030e+01,1.115e+01,1.002e+01,1.314e+01,1.055e+01,1.032e+01,8.817e+00,1.082e+01,1.113e+01,1.273e+01,1.056e+01,1.039e+01,8.653e+00,1.238e+01,1.200e+01,1.132e+01,1.045e+01,1.109e+01,1.261e+01,8.327e+00,1.156e+01,1.131e+01,1.089e+01,9.187e+00,1.138e+01,9.297e+00,1.175e+01,1.199e+01,1.023e+01,1.054e+01,1.120e+01,1.060e+01,1.043e+01,1.228e+01,1.140e+01,8.557e+00,1.094e+01,1.100e+01,1.174e+01,1.221e+01,1.109e+01,1.120e+01,1.196e+01,1.160e+01,1.187e+01,1.071e+01
2.212e-01,2.180e-01,6.324e-01,8.973e-01,3.627e-01,1.282e+00,1.392e+00,1.327e+00,2.304e+00,3.248e+00,2.182e+00,3.254e+00,3.832e+00,3.425e+00,2.382e+00,3.106e+00,2.826e+00,4.816e+00,4.023e+00,5.743e+00,5.959e+00,5.118e+00,6.302e+00,7.389e+00,6.318e+00,5.203e+00,5.696e+00,7.089e+00,7.515e+00,1.111e+01,7.880e+00,8.932e+00,8.385e+00,9.507e+00,7.975e+00,1.114e+01,1.003e+01,1.121e+01,1.234e+01,1.101e+01,1.388e+01,1.335e+01,1.231e+01,1.366e+01,1.118e+01,1.192e+01,1.117e+01,1.417e+01,1.338e+01,1.214e+01,9.115e+00,1.333e+01,1.192e+01,1.323e+01,1.087e+01,1.012e+01,1.114e+01,1.469e+01,1.241e+01,1.126e+01,1.260e+01,1.144e+01,1.376e+01,1.045e+01,1.151e+01,1.179e+01,1.207e+01,1.042e+01,1.282e+01,1.196e+01,1.278e+01,1.279e+01,1.232e+01,1.158e+01,1.097e+01,1.084e+01,1.277e+01,1.228e+01,1.216e+01,9.041e+00,1.254e+01,1.356e+01,1.384e+01,1.287e+01,1.153e+01,1.397e+01,1.178e+01,1.399e+01,1.459e+01,1.137e+01
1.902e-01,3.232e-01,8.906e-01,1.105e+00,5.074e-01,1.411e+00,1.555e+00,2.178e+00,2.736e+00,3.466e+00,2.566e+00,4.094e+00,4.217e+00,3.410e+00,2.556e+00,2.502e+00,3.122e+00,4.451e+00,4.280e+00,4.779e+00,5.084e+00,4.343e+00,5.325e+00,5.015e+00,4.483e+00,4.041e+00,4.496e+00,5.255e+00,5.287e+00,7.092e+00,6.674e+00,5.711e+00,5.702e+00,7.015e+00,4.843e+00,9.014e+00,7.889e+00,7.557e+00,8.230e+00,7.814e+00,1.049e+01,1.031e+01,8.667e+00,1.063e+01,1.001e+01,9.616e+00,9.761e+00,1.216e+01,1.079e+01,9.458e+00,7.381e+00,1.013e+01,1.016e+01,1.050e+01,8.703e+00,1.066e+01,9.472e+00,1.110e+01,1.039e+01,1.002e+01,9.889e+00,9.468e+00,1.091e+01,7.970e+00,9.763e+00,1.032e+01,9.721e+00,9.315e+00,9.652e+00,9.137e+00,8.998e+00,1.061e+01,1.004e+01,9.800e+00,8.611e+00,1.042e+01,9.541e+00,1.032e+01,1.180e+01,7.594e+00,9.278e+00,1.140e+01,1.137e+01,1.120e+01,8.699e+00,1.114e+01,1.020e+01,1.052e+01,1.158e+01,9.300e+00
1.672e-02,3.895e-01,8.407e-01,5.371e-01,5.033e-01,1.134e+00,1.053e+00,1.190e+00,1.405e+00,1.968e+00,1.594e+00,3.414e+00,3.520e+00,2.434e+00,2.291e+00,3.083e+00,3.736e+00,4.620e+00,3.790e+00,4.970e+00,4.696e+00,5.018e+00,4.478e+00,6.708e+00,5.783e+00,4.146e+00,5.182e+00,6.393e+00,7.315e+00,8.910e+00,8.216e+00,8.818e+00,6.611e+00,8.531e+00,7.362e+00,9.879e+00,7.893e+00,9.560e+00,1.064e+01,9.622e+00,1.227e+01,1.087e+01,1.072e+01,1.172e+01,9.736e+00,1.171e+01,1.056e+01,1.264e+01,1.045e+01,1.105e+01,1.009e+01,1.149e+01,1.103e+01,1.192e+01,1.130e+01,1.108e+01,9.400e+00,1.270e+01,1.230e+01,1.201e+01,1.108e+01,1.013e+01,1.353e+01,8.804e+00,1.171e+01,1.216e+01,1.231e+01,1.029e+01,1.297e+01,9.275e+00,1.344e+01,1.125e+01,9.501e+00,1.117e+01,1.114e+01,1.090e+01,1.257e+01,1.281e+01,1.184e+01,8.853e+00,1.198e+01,1.205e+01,1.297e+01,1.178e+01,1.029e+01,1.194e+01,1.128e+01,1.179e+01,1.222e+01,1.061e+01
1.693e-01,2.217e-01,1.086e+00,9.193e-01,4.137e-01,9.393e-01,1.739e+00,1.444e+00,1.780e+00,2.468e+00,1.907e+00,2.912e+00,3.018e+00,2.680e+00,2.685e+00,2.636e+00,3.521e+00,3.740e+00,4.151e+00,4.109e+00,3.431e+00,4.052e+00,3.988e+00,5.415e+00,5.286e+00,4.121e+00,4.882e+00,6.108e+00,6.717e+00,7.761e+00,8.021e+00,6.856e+00,5.765e+00,7.163e+00,6.215e+00,8.760e+00,7.388e+00,8.713e+00,1.033e+01,8.713e+00,1.108e+01,9.380e+00,9.446e+00,1.117e+01,1.024e+01,1.025e+01,1.152e+01,1.317e+01,9.983e+00,1.145e+01,8.715e+00,1.183e+01,1.192e+01,1.200e+01,1.056e+01,1.080e+01,9.700e+00,1.246e+01,1.079e+01,1.124e+01,1.105e+01,1.124e+01,1.324e+01,9.154e+00,1.046e+01,1.148e+01,1.130e+01,1.043e+01,1.237e+01,1.008e+01,1.090e+01,1.155e+01,1.136e+01,1.031e+01,1.028e+01,1.182e+01,1.061e+01,1.253e+01,1.194e+01,9.354e+00,1.102e+01,1.219e+01,1.200e+01,1.251e+01,1.143e+01,1.189e+01,1.190e+01,1.294e+01,1.071e+01,1.035e+01
3.028e-03,2.466e-01,8.771e-01,5.021e-01,3.709e-01,9.277e-01,1.333e+00,1.352e+00,1.497e+00,1.798e+00,1.572e+00,2.768e+00,3.198e+00,2.122e+00,1.746e+00,2.052e+00,3.044e+00,4.376e+00,3.354e+00,4.735e+00,4.515e+00,4.291e+00,5.104e+00,6.077e+00,5.811e+00,4.625e+00,5.001e+00,6.590e+00,6.430e+00,8.526e+00,8.253e+00,8.019e+00,6.814e+00,7.876e+00,7.288e+00,9.963e+00,8.352e+00,8.590e+00,1.050e+01,8.335e+00,1.140e+01,1.094e+01,9.824e+00,1.048e+01,1.061e+01,9.753e+00,9.159e+00,1.356e+01,1.059e+01,1.177e+01,9.651e+00,1.104e+01,1.134e+01,1.199e+01,9.763e+00,9.829e+00,9.674e+00,1.249e+01,1.175e+01,1.153e+01,1.124e+01,1.043e+01,1.315e+01,9.250e+00,1.126e+01,1.153e+01,1.098e+01,1.001e+01,1.138e+01,9.915e+00,1.160e+01,1.130e+01,9.863e+00,1.035e+01,1.087e+01,1.145e+01,1.038e+01,1.156e+01,1.301e+01,8.564e+00,9.659e+00,1.120e+01,1.219e+01,1.087e+01,1.127e+01,1.274e+01,1.053e+01,1.270e+01,1.132e+01,1.020e+01
1.553e-01,5.605e-01,1.643e+00,1.110e+00,8.027e-01,1.692e+00,2.110e+00,2.128e+00,2.795e+00,4.215e+00,3.252e+00,5.295e+00,5.075e+00,4.443e+00,3.314e+00,4.007e+00,4.570e+00,6.731e+00,6.108e+00,7.652e+00,7.470e+00,6.848e+00,7.422e+00,9.244e+00,7.671e+00,6.729e+00,7.534e+00,8.495e+00,7.894e+00,1.154e+01,1.042e+01,1.082e+01,8.716e+00,1.068e+01,8.734e+00,1.228e+01,1.089e+01,1.110e+01,1.252e+01,1.083e+01,1.346e+01,1.356e+01,1.126e+01,1.309e+01,1.137e+01,1.303e+01,1.186e+01,1.655e+01,1.244e+01,1.406e+01,1.167e+01,1.392e+01,1.487e+01,1.519e+01,1.361e+01,1.300e+01,1.194e+01,1.609e+01,1.389e+01,1.471e+01,1.260e+01,1.311e+01,1.628e+01,1.109e+01,1.388e+01,1.449e+01,1.396e+01,1.242e+01,1.381e+01,1.237e+01,1.360e+01,1.382e+01,1.233e+01,1.382e+01,1.357e+01,1.490e+01,1.487e+01,1.475e+01,1.460e+01,1.129e+01,1.398e+01,1.379e+01,1.457e+01,1.407e+01,1.385e+01,1.605e+01,1.293e+01,1.542e+01,1.379e+01,1.358e+01
8.019e-02,2.050e-01,8.842e-01,9.232e-01,3.790e-01,1.612e+00,2.069e+00,2.503e+00,3.149e+00,3.392e+00,2.978e+00,4.862e+00,5.033e+00,3.433e+00,3.187e+00,3.410e+00,4.346e+00,6.041e+00,4.656e+00,5.874e+00,6.245e+00,6.500e+00,6.116e+00,7.211e+00,6.405e+00,6.125e+00,6.493e+00,7.433e+00,7.233e+00,9.778e+00,8.339e+00,8.821e+00,7.552e+00,8.973e+00,7.095e+00,1.025e+01,8.928e+00,9.962e+00,1.153e+01,1.026e+01,1.170e+01,1.247e+01,1.113e+01,1.199e+01,1.110e+01,1.258e+01,1.046e+01,1.435e+01,1.195e+01,1.380e+01,1.117e+01,1.413e+01,1.444e+01,1.360e+01,1.280e+01,1.271e+01,1.179e+01,1.502e+01,1.431e+01,1.359e+01,1.351e+01,1.262e+01,1.519e+01,9.914e+00,1.325e+01,1.365e+01,1.251e+01,1.135e+01,1.375e+01,1.099e+01,1.362e+01,1.268e+01,1.181e+01,1.198e+01,1.193e+01,1.309e+01,1.410e+01,1.332e+01,1.449e+01,1.011e+01,1.263e+01,1.352e+01,1.349e+01,1.278e+01,1.348e+01,1.509e+01,1.211e+01,1.543e+01,1.428e+01,1.368e+01
1.531e-01,4.381e-01,1.079e+00,1.140e+00,6.379e-01,1.441e+00,1.621e+00,1.715e+00,2.192e+00,3.147e+00,1.902e+00,5.308e+00,4.723e+00,4.450e+00,2.818e+00,3.087e+00,3.658e+00,5.276e+00,4.774e+00,5.825e+00,6.194e+00,6.097e+00,6.699e+00,6.828e+00,6.570e+00,4.226e+00,5.509e+00,5.821e+00,6.199e+00,9.123e+00,8.180e+00,7.697e+00,7.435e+00,7.511e+00,5.994e+00,9.242e+00,8.917e+00,9.164e+00,1.089e+01,9.628e+00,1.208e+01,1.148e+01,9.695e+00,1.208e+01,1.018e+01,1.111e+01,1.002e+01,1.325e+01,1.238e+01,1.024e+01,1.099e+01,1.290e+01,1.115e+01,1.195e+01,1.155e+01,1.210e+01,1.122e+01,1.258e+01,1.305e+01,1.206e+01,1.139e+01,1.130e+01,1.330e+01,1.034e+01,1.149e+01,1.215e+01,1.230e+01,1.005e+01,1.245e+01,1.006e+01,1.269e+01,1.177e+01,1.050e+01,1.140e+01,1.085e+01,1.236e+01,1.208e+01,1.143e+01,1.378e+01,1.076e+01,1.217e+01,1.300e+01,1.333e+01,1.336e+01,1.047e+01,1.278e+01,1.178e+01,1.353e+01,1.259e+01,1.100e+01
1.824e-01,2.193e-01,7.865e-01,9.752e-01,3.899e-01,1.222e+00,1.682e+00,1.889e+00,2.245e+00,2.825e+00,2.410e+00,4.562e+00,4.411e+00,3.659e+00,2.392e+00,3.333e+00,3.890e+00,5.526e+00,4.971e+00,5.932e+00,6.041e+00,5.846e+00,5.739e+00,6.688e+00,5.804e+00,4.348e+00,5.622e+00,6.651e+00,7.200e+00,9.086e+00,8.096e+00,8.196e+00,7.224e+00,8.256e+00,5.960e+00,9.262e+00,9.089e+00,8.787e+00,9.903e+00,9.224e+00,1.119e+01,1.111e+01,8.908e+00,1.148e+01,1.002e+01,1.003e+01,9.585e+00,1.289e+01,1.124e+01,1.117e+01,1.013e+01,1.333e+01,1.304e+01,1.310e+01,1.234e+01,1.083e+01,1.134e+01,1.308e+01,1.318e+01,1.199e+01,1.103e+01,1.244e+01,1.279e+01,1.032e+01,1.121e+01,1.253e+01,1.160e+01,9.716e+00,1.452e+01,1.213e+01,1.338e+01,1.249e+01,1.110e+01,1.104e+01,1.166e+01,1.226e+01,1.200e+01,1.076e+01,1.394e+01,1.045e+01,1.220e+01,1.313e+01,1.250e+01,1.116e+01,1.221e+01,1.288e+01,1.252e+01,1.416e+01,1.278e+01,1.059e+01
1.946e-01,3.110e-01,9.530e-01,1.196e+00,5.119e-01,1.133e+00,1.469e+00,2.080e+00,2.487e+00,2.807e+00,1.738e+00,3.838e+00,3.546e+00,2.743e+00,2.565e+00,2.660e+00,3.593e+00,4.212e+00,4.029e+00,4.310e+00,4.905e+00,4.699e+00,4.726e+00,5.494e+00,5.785e+00,4.129e+00,5.318e+00,5.181e+00,6.417e+00,7.448e+00,8.065e+00,7.508e+00,7.056e+00,8.050e+00,6.611e+00,9.862e+00,8.735e+00,8.900e+00,9.796e+00,9.427e+00,1.216e+01,1.047e+01,9.991e+00,1.177e+01,1.131e+01,1.100e+01,1.130e+01,1.524e+01,1.165e+01,1.226e+01,1.117e+01,1.464e+01,1.416e+01,1.455e+01,1.457e+01,1.391e+01,1.233e+01,1.382e+01,1.570e+01,1.455e+01,1.266e+01,1.328e+01,1.554e+01,1.159e+01,1.225e+01,1.452e+01,1.417e+01,1.281e+01,1.535e+01,1.217e+01,1.358e+01,1.438e+01,1.317e+01,1.261e+01,1.280e+01,1.544e+01,1.351e+01,1.328e+01,1.617e+01,1.222e+01,1.288e+01,1.451e+01,1.528e+01,1.455e+01,1.333e+01,1.485e+01,1.425e+01,1.559e+01,1.449e+01,1.305e+01
2.260e-01,5.646e-01,1.769e+00,9.042e-01,7.987e-01,1.564e+00,2.184e+00,1.555e+00,1.842e+00,3.395e+00,2.537e+00,4.345e+00,4.169e+00,3.611e+00,2.601e+00,3.396e+00,3.165e+00,4.849e+00,4.654e+00,5.078e+00,5.197e+00,4.753e+00,5.387e+00,5.865e+00,5.963e+00,4.406e+00,6.260e+00,6.330e+00,5.939e+00,9.897e+00,8.655e+00,9.095e+00,7.288e+00,7.086e+00,6.469e+00,9.255e+00,8.331e+00,8.348e+00,1.058e+01,9.290e+00,1.198e+01,1.119e+01,1.017e+01,1.162e+01,1.058e+01,1.078e+01,9.738e+00,1.381e+01,1.041e+01,1.117e+01,1.087e+01,1.384e+01,1.313e+01,1.330e+01,1.192e+01,1.205e+01,1.193e+01,1.411e+01,1.467e+01,1.427e+01,1.237e+01,1.261e+01,1.470e+01,1.097e+01,1.206e+01,1.448e+01,1.320e+01,1.181e+01,1.477e+01,1.246e+01,1.346e+01,1.380e+01,1.142e+01,1.281e+01,1.264e+01,1.395e+01,1.378e+01,1.141e+01,1.424e+01,1.117e+01,1.161e+01,1.383e+01,1.506e+01,1.258e+01,1.297e+01,1.444e+01,1.296e+01,1.282e+01,1.489e+01,1.282e+01
8.742e-02,1.671e-01,9.904e-01,4.147e-01,2.996e-01,1.034e+00,1.750e+00,1.245e+00,1.547e+00,2.287e+00,2.106e+00,3.564e+00,2.450e+00,2.900e+00,2.017e+00,2.733e+00,3.117e+00,4.651e+00,3.953e+00,5.584e+00,4.585e+00,3.824e+00,4.550e+00,6.029e+00,5.948e+00,3.881e+00,5.705e+00,5.761e+00,6.216e+00,8.653e+00,7.591e+00,8.312e+00,7.113e+00,7.266e+00,6.277e+00,9.088e+00,7.462e+00,7.991e+00,9.399e+00,8.413e+00,9.866e+00,1.011e+01,9.641e+00,1.067e+01,1.023e+01,1.044e+01,9.440e+00,1.352e+01,1.133e+01,1.129e+01,1.018e+01,1.401e+01,1.350e+01,1.281e+01,1.402e+01,1.319e+01,1.127e+01,1.466e+01,1.289e+01,1.377e+01,1.292e+01,1.126e+01,1.431e+01,1.006e+01,1.286e+01,1.440e+01,1.361e+01,1.211e+01,1.431e+01,1.156e+01,1.384e+01,1.350e+01,1.173e+01,1.330e+01,1.273e+01,1.482e+01,1.393e+01,1.213e+01,1.337e+01,1.098e+01,1.322e+01,1.398e+01,1.501e+01,1.204e+01,1.320e+01,1.627e+01,1.186e+01,1.534e+01,1.345e+01,1.417e+01
1.540e-01,1.610e-01,4.673e-01,7.045e-01,2.753e-01,1.587e+00,1.648e+00,1.936e+00,2.062e+00,2.091e+00,1.948e+00,4.721e+00,3.630e+00,3.065e+00,2.985e+00,3.580e+00,4.324e+00,5.245e+00,3.797e+00,4.824e+00,5.608e+00,5.699e+00,6.160e+00,6.465e+00,5.882e+00,6.157e+00,5.635e+00,6.695e+00,7.061e+00,8.822e+00,7.881e+00,8.581e+00,7.620e+00,9.619e+00,7.300e+00,1.105e+01,9.757e+00,9.597e+00,1.017e+01,9.405e+00,1.246e+01,1.191e+01,1.082e+01,1.285e+01,1.329e+01,1.386e+01,1.086e+01,1.536e+01,1.291e+01,1.216e+01,1.198e+01,1.475e+01,1.398e+01,1.550e+01,1.337e+01,1.466e+01,1.376e+01,1.452e+01,1.668e+01,1.470e+01,1.453e+01,1.327e+01,1.652e+01,1.246e+01,1.394e+01,1.628e+01,1.626e+01,1.155e+01,1.470e+01,1.349e+01,1.583e+01,1.523e+01,1.354e+01,1.338e+01,1.481e+01,1.585e+01,1.444e+01,1.352e+01,1.696e+01,1.224e+01,1.513e+01,1.588e+01,1.631e+01,1.442e+01,1.476e+01,1.567e+01,1.399e+01,1.537e+01,1.679e+01,1.337e+01
2.152e-02,4.464e-01,1.203e+00,8.360e-01,6.226e-01,1.419e+00,1.572e+00,1.473e+00,2.169e+00,3.265e+00,2.546e+00,4.324e+00,4.717e+00,3.810e+00,2.287e+00,2.610e+00,3.159e+00,5.838e+00,4.084e+00,5.416e+00,5.467e+00,4.729e+00,5.997e+00,6.848e+00,5.340e+00,4.428e+00,4.863e+00,6.075e+00,4.684e+00,8.640e+00,6.821e+00,8.215e+00,6.255e+00,7.418e+00,6.665e+00,8.697e+00,7.908e+00,8.149e+00,1.069e+01,9.462e+00,1.159e+01,1.182e+01,1.067e+01,1.176e+01,9.271e+00,1.094e+01,1.203e+01,1.385e+01,1.151e+01,1.068e+01,1.037e+01,1.432e+01,1.426e+01,1.442e+01,1.357e+01,1.287e+01,1.355e+01,1.483e+01,1.661e+01,1.715e+01,1.298e+01,1.355e+01,1.667e+01,1.193e+01,1.503e+01,1.510e+01,1.469e+01,1.324e+01,1.648e+01,1.448e+01,1.459e+01,1.376e+01,1.416e+01,1.432e+01,1.296e+01,1.423e+01,1.554e+01,1.381e+01,1.582e+01,1.177e+01,1.543e+01,1.618e+01,1.475e+01,1.404e+01,1.380e+01,1.694e+01,1.482e+01,1.519e+01,1.514e+01,1.377e+01
1.342e-01,4.502e-01,1.019e+00,7.670e-01,6.001e-01,1.156e+00,1.067e+00,1.055e+00,1.606e+00,2.604e+00,1.426e+00,2.739e+00,3.001e+00,2.622e+00,2.635e+00,2.901e+00,3.337e+00,4.348e+00,3.935e+00,5.005e+00,5.090e+00,4.526e+00,5.437e+00,6.347e+00,6.529e+00,5.124e+00,5.926e+00,6.234e+00,5.772e+00,9.491e+00,8.063e+00,8.893e+00,6.971e+00,6.607e+00,6.534e+00,9.801e+00,8.337e+00,9.172e+00,1.138e+01,1.043e+01,1.251e+01,1.145e+01,1.268e+01,1.244e+01,1.122e+01,1.260e+01,1.190e+01,1.538e+01,1.194e+01,1.237e+01,1.074e+01,1.484e+01,1.360e+01,1.428e+01,1.275e+01,1.270e+01,1.239e+01,1.621e+01,1.549e+01,1.568e+01,1.388e+01,1.282e+01,1.631e+01,1.139e+01,1.461e+01,1.458e+01,1.471e+01,1.366e+01,1.545e+01,1.239e+01,1.326e+01,1.368e+01,1.354e+01,1.391e+01,1.398e+01,1.572e+01,1.534e+01,1.435e+01,1.533e+01,1.080e+01,1.505e+01,1.576e+01,1.642e+01,1.513e+01,1.252e+01,1.599e+01,1.487e+01,1.566e+01,1.497e+01,1.563e+01
1.796e-01,3.008e-01,8.462e-01,1.116e+00,4.842e-01,1.607e+00,1.753e+00,1.858e+00,2.834e+00,3.421e+00,2.110e+00,5.104e+00,5.046e+00,4.039e+00,3.441e+00,3.991e+00,4.054e+00,5.928e+00,4.404e+00,5.567e+00,6.415e+00,6.332e+00,5.812e+00,6.338e+00,6.881e+00,4.304e+00,5.801e+00,6.832e+00,6.482e+00,8.497e+00,6.720e+00,7.669e+00,7.174e+00,7.959e+00,6.390e+00,9.518e+00,8.267e+00,8.700e+00,1.067e+01,1.018e+01,1.249e+01,1.123e+01,1.108e+01,1.128e+01,1.088e+01,1.088e+01,1.002e+01,1.373e+01,1.101e+01,1.173e+01,9.618e+00,1.295e+01,1.086e+01,1.265e+01,1.139e+01,1.276e+01,1.256e+01,1.427e+01,1.485e+01,1.513e+01,1.252e+01,1.199e+01,1.564e+01,1.171e+01,1.357e+01,1.478e+01,1.383e+01,1.347e+01,1.591e+01,1.311e+01,1.244e+01,1.281e+01,1.271e+01,1.305e+01,1.199e+01,1.388e+01,1.415e+01,1.322e+01,1.611e+01,1.206e+01,1.417e+01,1.496e+01,1.320e+01,1.324e+01,1.286e+01,1.551e+01,1.206e+01,1.464e+01,1.475e+01,1.363e+01
2.024e-01,5.755e-01,1.641e+00,1.276e+00,8.333e-01,1.775e+00,2.099e+00,1.875e+00,2.710e+00,4.189e+00,3.217e+00,5.208e+00,5.112e+00,4.350e+00,2.490e+00,3.948e+00,3.617e+00,6.810e+00,5.509e+00,7.215e+00,7.286e+00,6.207e+00,7.720e+00,9.028e+00,7.115e+00,5.660e+00,6.748e+00,7.889e+00,6.980e+00,1.064e+01,8.462e+00,1.035e+01,8.059e+00,8.296e+00,7.595e+00,1.001e+01,9.382e+00,9.699e+00,1.208e+01,1.064e+01,1.286e+01,1.258e+01,1.146e+01,1.225e+01,1.037e+01,1.166e+01,1.115e+01,1.481e+01,1.054e+01,1.269e+01,1.159e+01,1.499e+01,1.432e+01,1.356e+01,1.334e+01,1.183e+01,1.227e+01,1.553e+01,1.518e+01,1.615e+01,1.453e+01,1.335e+01,1.614e+01,1.225e+01,1.431e+01,1.505e+01,1.402e+01,1.328e+01,1.592e+01,1.332e+01,1.453e+01,1.482e+01,1.247e+01,1.317e+01,1.426e+01,1.454e+01,1.540e+01,1.395e+01,1.571e+01,1.153e+01,1.426e+01,1.504e+01,1.502e+01,1.439e+01,1.457e+01,1.579e+01,1.348e+01,1.553e+01,1.562e+01,1.471e+01
1.874e-01,1.895e-01,7.033e-01,7.036e-01,3.252e-01,1.350e+00,1.713e+00,1.672e+00,2.141e+00,2.702e+00,2.008e+00,3.641e+00,3.574e+00,3.129e+00,3.103e+00,3.260e+00,3.464e+00,3.853e+00,4.135e+00,4.469e+00,4.520e+00,5.421e+00,4.473e+00,6.633e+00,5.179e+00,4.795e+00,5.216e+00,5.746e+00,6.868e+00,7.214e+00,7.482e+00,7.025e+00,5.231e+00,7.573e+00,5.442e+00,8.276e+00,6.615e+00,7.494e+00,9.305e+00,8.884e+00,9.998e+00,9.387e+00,9.533e+00,1.081e+01,9.725e+00,1.065e+01,9.781e+00,1.065e+01,9.529e+00,1.019e+01,8.174e+00,1.113e+01,1.120e+01,1.171e+01,1.215e+01,1.196e+01,1.118e+01,1.338e+01,1.437e+01,1.298e+01,1.343e+01,1.373e+01,1.565e+01,1.124e+01,1.342e+01,1.401e+01,1.308e+01,1.367e+01,1.556e+01,1.331e+01,1.399e+01,1.420e+01,1.340e+01,1.211e+01,1.327e+01,1.407e+01,1.433e+01,1.499e+01,1.500e+01,1.204e+01,1.439e+01,1.463e+01,1.434e+01,1.385e+01,1.331e+01,1.407e+01,1.552e+01,1.429e+01,1.369e+01,1.450e+01
1.435e-01,2.943e-01,1.047e+00,6.094e-01,4.454e-01,1.262e+00,1.760e+00,1.567e+00,1.937e+00,3.022e+00,2.342e+00,3.858e+00,4.128e+00,3.478e+00,2.706e+00,2.870e+00,3.150e+00,4.242e+00,4.541e+00,4.939e+00,4.469e+00,4.369e+00,4.195e+00,5.022e+00,4.389e+00,3.375e+00,4.466e+00,5.028e+00,4.624e+00,7.346e+00,6.227e+00,6.933e+00,5.757e+00,6.601e+00,5.400e+00,7.495e+00,7.136e+00,7.385e+00,8.078e+00,7.666e+00,9.903e+00,9.751e+00,8.337e+00,9.118e+00,8.721e+00,9.836e+00,9.779e+00,1.204e+01,1.007e+01,8.794e+00,9.327e+00,1.122e+01,1.078e+01,1.128e+01,1.116e+01,1.185e+01,1.071e+01,1.211e+01,1.317e+01,1.415e+01,1.152e+01,1.225e+01,1.596e+01,1.174e+01,1.417e+01,1.538e+01,1.366e+01,1.284e+01,1.397e+01,1.392e+01,1.358e+01,1.384e+01,1.205e+01,1.366e+01,1.286e+01,1.386e+01,1.389e+01,1.288e+01,1.525e+01,1.168e+01,1.359e+01,1.487e+01,1.469e+01,1.325e+01,1.270e+01,1.499e+01,1.342e+01,1.323e+01,1.399e+01,1.372e+01
1.542e-02,3.072e-01,7.860e-01,6.576e-01,4.364e-01,1.597e+00,1.673e+00,1.800e+00,2.336e+00,2.705e+00,2.032e+00,4.723e+00,4.193e+00,3.374e+00,2.365e+00,2.883e+00,3.163e+00,4.265e+00,2.722e+00,3.920e+00,4.276e+00,5.059e+00,4.455e+00,6.112e+00,5.381e+00,4.427e+00,4.874e+00,5.623e+00,5.282e+00,7.234e+00,6.697e+00,7.083e+00,6.023e+00,7.180e+00,5.808e+00,8.858e+00,6.701e+00,7.984e+00,9.223e+00,7.804e+00,9.983e+00,9.874e+00,9.151e+00,1.117e+01,9.198e+00,1.053e+01,9.593e+00,1.119e+01,1.012e+01,1.066e+01,9.660e+00,1.355e+01,1.234e+01,1.276e+01,1.114e+01,1.238e+01,1.271e+01,1.381e+01,1.505e+01,1.413e+01,1.397e+01,1.203e+01,1.592e+01,1.164e+01,1.433e+01,1.547e+01,1.468e+01,1.195e+01,1.552e+01,1.406e+01,1.512e+01,1.500e+01,1.322e+01,1.356e+01,1.400e+01,1.506e+01,1.470e+01,1.644e+01,1.557e+01,1.238e+01,1.439e+01,1.665e+01,1.498e+01,1.441e+01,1.296e+01,1.580e+01,1.350e+01,1.583e+01,1.504e+01,1.545e+01
3.953e-02,1.143e-01,6.831e-01,7.533e-01,2.544e-01,8.937e-01,1.380e+00,1.779e+00,2.170e+00,2.153e+00,1.922e+00,4.257e+00,3.973e+00,2.670e+00,2.803e+00,3.073e+00,4.090e+00,5.574e+00,4.676e+00,5.527e+00,6.144e+00,6.009e+00,6.112e+00,8.033e+00,7.103e+00,5.771e+00,6.741e+00,7.726e+00,8.463e+00,1.055e+01,9.750e+00,9.207e+00,7.660e+00,9.208e+00,7.305e+00,1.037e+01,8.336e+00,1.026e+01,1.160e+01,1.024e+01,1.273e+01,1.213e+01,1.066e+01,1.242e+01,1.061e+01,1.222e+01,9.830e+00,1.361e+01,1.184e+01,1.263e+01,1.151e+01,1.334e+01,1.405e+01,1.325e+01,1.425e+01,1.329e+01,1.241e+01,1.618e+01,1.603e+01,1.474e+01,1.487e+01,1.527e+01,1.738e+01,1.381e+01,1.586e+01,1.727e+01,1.622e+01,1.354e+01,1.835e+01,1.593e+01,1.816e+01,1.603e+01,1.433e+01,1.483e+01,1.691e+01,1.819e+01,1.540e+01,1.683e+01,1.660e+01,1.378e+01,1.575e+01,1.748e+01,1.660e+01,1.627e+01,1.509e+01,1.756e+01,1.534e+01,1.676e+01,1.666e+01,1.572e+01
7.238e-02,3.206e-01,1.173e+00,5.473e-01,4.760e-01,1.632e+00,2.139e+00,2.133e+00,2.451e+00,3.163e+00,2.906e+00,5.080e+00,5.268e+00,3.637e+00,3.507e+00,3.882e+00,4.682e+00,6.274e+00,5.357e+00,6.570e+00,6.862e+00,6.561e+00,6.325e+00,6.857e+00,6.562e+00,5.264e+00,6.440e+00,7.508e+00,7.316e+00,9.393e+00,8.330e+00,9.140e+00,7.282e+00,9.509e+00,7.251e+00,1.088e+01,9.041e+00,9.716e+00,1.142e+01,1.022e+01,1.264e+01,1.320e+01,1.226e+01,1.255e+01,1.261e+01,1.446e+01,1.220e+01,1.526e+01,1.288e+01,1.361e+01,1.233e+01,1.441e+01,1.492e+01,1.436e+01,1.456e+01,1.538e+01,1.314e+01,1.717e+01,1.756e+01,1.707e+01,1.586e+01,1.422e+01,1.883e+01,1.326e+01,1.768e+01,1.842e+01,1.654e+01,1.523e+01,1.875e+01,1.530e+01,1.727e+01,1.515e+01,1.464e+01,1.628e+01,1.653e+01,1.841e+01,1.703e+01,1.812e+01,1.825e+01,1.373e+01,1.708e+01,1.781e+01,1.775e+01,1.642e+01,1.480e+01,1.963e+01,1.596e+01,1.841e+01,1.709e+01,1.728e+01
9.133e-02,4.045e-01,9.967e-01,5.188e-01,5.334e-01,1.213e+00,1.391e+00,9.036e-01,1.357e+00,2.528e+00,1.474e+00,3.586e+00,3.350e+00,3.732e+00,2.081e+00,2.889e+00,2.768e+00,3.966e+00,3.543e+00,4.981e+00,4.314e+00,4.685e+00,4.457e+00,5.968e+00,5.753e+00,3.052e+00,4.276e+00,5.110e+00,4.964e+00,7.164e+00,5.598e+00,7.126e+00,6.540e+00,6.755e+00,5.532e+00,7.853e+00,7.434e+00,7.791e+00,8.936e+00,8.173e+00,1.026e+01,1.000e+01,9.093e+00,9.762e+00,8.442e+00,9.469e+00,9.499e+00,1.147e+01,9.895e+00,9.286e+00,1.046e+01,1.229e+01,1.139e+01,1.113e+01,1.090e+01,1.163e+01,1.248e+01,1.156e+01,1.490e+01,1.538e+01,1.361e+01,1.204e+01,1.465e+01,1.098e+01,1.455e+01,1.392e+01,1.549e+01,1.385e+01,1.396e+01,1.275e+01,1.616e+01,1.348e+01,1.319e+01,1.352e+01,1.474e+01,1.651e+01,1.545e+01,1.607e+01,1.572e+01,1.259e+01,1.459e+01,1.577e+01,1.576e+01,1.394e+01,1.378e+01,1.701e+01,1.504e+01,1.502e+01,1.559e+01,1.479e+01
5.968e-02,6.318e-02,1.782e-01,3.508e-01,1.173e-01,8.663e-01,9.421e-01,1.149e+00,1.488e+00,1.633e+00,1.133e+00,3.034e+00,2.932e+00,2.654e+00,2.511e+00,2.443e+00,3.248e+00,3.846e+00,3.094e+00,4.248e+00,4.584e+00,4.838e+00,4.530e+00,5.579e+00,5.468e+00,4.265e+00,4.633e+00,5.156e+00,5.168e+00,7.492e+00,5.579e+00,6.551e+00,5.994e+00,7.477e+00,5.386e+00,8.174e+00,6.966e+00,8.093e+00,8.704e+00,8.926e+00,1.003e+01,1.083e+01,1.022e+01,1.140e+01,1.034e+01,1.038e+01,8.964e+00,1.211e+01,1.130e+01,1.017e+01,9.359e+00,1.194e+01,1.171e+01,1.229e+01,1.202e+01,1.200e+01,1.099e+01,1.246e+01,1.394e+01,1.314e+01,1.290e+01,1.272e+01,1.572e+01,1.121e+01,1.423e+01,1.450e+01,1.554e+01,1.404e+01,1.628e+01,1.410e+01,1.612e+01,1.420e+01,1.547e+01,1.460e+01,1.490e+01,1.640e+01,1.524e+01,1.620e+01,1.629e+01,1.213e+01,1.563e+01,1.582e+01,1.519e+01,1.514e+01,1.354e+01,1.724e+01,1.501e+01,1.714e+01,1.666e+01,1.551e+01
8.866e-03,3.729e-01,1.309e+00,8.236e-01,5.634e-01,1.236e+00,1.746e+00,1.528e+00,1.958e+00,2.667e+00,2.403e+00,3.659e+00,3.958e+00,2.536e+00,2.253e+00,2.789e+00,3.658e+00,4.867e+00,4.248e+00,5.389e+00,4.438e+00,4.674e+00,5.069e+00,6.794e+00,5.883e+00,4.532e+00,5.094e+00,6.902e+00,6.482e+00,8.808e+00,8.079e+00,8.466e+00,7.062e+00,7.987e+00,6.757e+00,1.018e+01,8.416e+00,9.750e+00,1.094e+01,9.566e+00,1.243e+01,1.181e+01,1.081e+01,1.272e+01,9.951e+00,1.078e+01,1.124e+01,1.394e+01,1.206e+01,1.247e+01,1.109e+01,1.301e+01,1.335e+01,1.370e+01,1.273e+01,1.246e+01,1.280e+01,1.537e+01,1.556e+01,1.598e+01,1.402e+01,1.389e+01,1.780e+01,1.380e+01,1.558e+01,1.648e+01,1.587e+01,1.619e+01,1.854e+01,1.764e+01,1.723e+01,1.648e+01,1.873e+01,1.732e+01,1.720e+01,1.773e+01,1.638e+01,1.929e+01,1.796e+01,1.381e+01,1.706e+01,1.775e+01,1.756e+01,1.776e+01,1.602e+01,1.907e+01,1.631e+01,1.708e+01,1.808e+01,1.700e+01
2.463e-01,4.400e-01,1.152e+00,9.023e-01,6.234e-01,1.460e+00,1.725e+00,1.147e+00,1.245e+00,2.517e+00,1.793e+00,3.454e+00,3.112e+00,3.358e+00,2.689e+00,3.004e+00,3.384e+00,3.924e+00,4.293e+00,5.074e+00,4.402e+00,4.899e+00,5.756e+00,7.083e+00,6.083e+00,4.967e+00,5.815e+00,5.974e+00,6.502e+00,1.012e+01,8.577e+00,8.473e+00,6.807e+00,8.399e+00,7.499e+00,1.003e+01,8.721e+00,1.053e+01,1.139e+01,1.013e+01,1.278e+01,1.170e+01,1.050e+01,1.289e+01,1.155e+01,1.211e+01,1.151e+01,1.458e+01,1.211e+01,1.186e+01,1.075e+01,1.335e+01,1.371e+01,1.458e+01,1.359e+01,1.231e+01,1.169e+01,1.538e+01,1.581e+01,1.641e+01,1.463e+01,1.577e+01,1.822e+01,1.337e+01,1.756e+01,1.587e+01,1.602e+01,1.621e+01,1.996e+01,1.649e+01,1.771e+01,1.704e+01,1.932e+01,1.655e+01,1.793e+01,1.981e+01,1.659e+01,2.124e+01,1.800e+01,1.411e+01,1.753e+01,1.930e+01,1.849e+01,2.073e+01,1.736e+01,1.795e+01,1.894e+01,1.949e+01,1.762e+01,1.789e+01
2.278e-01,5.812e-01,1.701e+00,1.007e+00,8.181e-01,1.653e+00,2.124e+00,1.236e+00,1.681e+00,3.273e+00,2.255e+00,4.130e+00,3.668e+00,3.830e+00,2.606e+00,3.643e+00,3.526e+00,4.910e+00,5.150e+00,6.257e+00,5.549e+00,5.163e+00,6.516e+00,7.211e+00,6.459e+00,4.568e+00,5.727e+00,6.188e+00,6.409e+00,8.807e+00,8.620e+00,8.886e+00,7.455e+00,8.120e+00,6.867e+00,1.009e+01,9.146e+00,8.788e+00,1.098e+01,8.783e+00,1.198e+01,1.103e+01,9.815e+00,1.098e+01,9.585e+00,1.073e+01,1.041e+01,1.346e+01,1.038e+01,1.158e+01,1.135e+01,1.427e+01,1.378e+01,1.334e+01,1.287e+01,1.209e+01,1.310e+01,1.561e+01,1.566e+01,1.662e+01,1.359e+01,1.317e+01,1.675e+01,1.322e+01,1.615e+01,1.676e+01,1.525e+01,1.423e+01,1.764e+01,1.667e+01,1.675e+01,1.658e+01,1.682e+01,1.596e+01,1.646e+01,1.981e+01,1.668e+01,1.753e+01,1.734e+01,1.412e+01,1.707e+01,1.976e+01,1.736e+01,1.863e+01,1.683e+01,1.878e+01,1.685e+01,1.891e+01,1.688e+01,1.684e+01
7.333e-03,2.434e-01,5.925e-01,5.006e-01,3.407e-01,9.776e-01,1.090e+00,1.559e+00,1.947e+00,2.371e+00,1.711e+00,3.502e+00,3.782e+00,3.175e+00,2.355e+00,2.499e+00,3.622e+00,5.280e+00,4.020e+00,6.057e+00,5.879e+00,5.769e+00,5.287e+00,8.045e+00,7.032e+00,5.515e+00,6.340e+00,7.938e+00,7.511e+00,1.005e+01,8.656e+00,9.174e+00,7.574e+00,9.550e+00,8.092e+00,1.120e+01,9.465e+00,9.955e+00,1.168e+01,1.009e+01,1.287e+01,1.176e+01,1.084e+01,1.239e+01,1.096e+01,1.197e+01,1.066e+01,1.489e+01,1.160e+01,1.338e+01,1.210e+01,1.407e+01,1.434e+01,1.458e+01,1.381e+01,1.455e+01,1.318e+01,1.540e+01,1.729e+01,1.721e+01,1.509e+01,1.390e+01,1.730e+01,1.376e+01,1.635e+01,1.792e+01,1.750e+01,1.600e+01,1.781e+01,1.679e+01,1.891e+01,1.731e+01,1.547e+01,1.641e+01,1.786e+01,1.991e+01,1.750e+01,1.987e+01,1.956e+01,1.583e+01,1.722e+01,1.951e+01,1.792e+01,1.800e+01,1.745e+01,2.104e+01,1.826e+01,1.969e+01,1.841e+01,1.646e+01
8.321e-02,1.682e-01,6.043e-01,8.953e-01,3.145e-01,1.279e+00,1.588e+00,2.074e+00,2.691e+00,2.911e+00,2.207e+00,4.756e+00,4.866e+00,3.745e+00,2.739e+00,3.244e+00,4.148e+00,6.022e+00,4.640e+00,6.142e+00,6.434e+00,6.021e+00,5.804e+00,6.332e+00,5.768e+00,4.426e+00,5.324e+00,6.465e+00,5.976e+00,8.437e+00,8.284e+00,7.572e+00,6.415e+00,8.180e+00,6.112e+00,1.040e+01,9.755e+00,8.982e+00,1.124e+01,9.296e+00,1.259e+01,1.235e+01,1.030e+01,1.183e+01,1.093e+01,1.146e+01,1.114e+01,1.446e+01,1.165e+01,1.236e+01,1.124e+01,1.369e+01,1.335e+01,1.336e+01,1.282e+01,1.366e+01,1.231e+01,1.497e+01,1.610e+01,1.561e+01,1.416e+01,1.522e+01,1.849e+01,1.407e+01,1.695e+01,1.706e+01,1.510e+01,1.672e+01,1.879e+01,1.779e+01,1.806e+01,1.768e+01,1.835e+01,1.745e+01,1.794e+01,2.041e+01,1.935e+01,2.019e+01,1.981e+01,1.660e+01,1.835e+01,2.040e+01,1.843e+01,1.883e+01,1.758e+01,2.047e+01,1.812e+01,2.030e+01,1.933e+01,1.789e+01
1.205e-03,3.599e-01,7.806e-01,6.030e-01,4.740e-01,6.161e-01,5.510e-01,8.128e-01,1.236e+00,1.819e+00,8.522e-01,2.303e+00,2.791e+00,1.894e+00,1.582e+00,1.318e+00,1.572e+00,2.713e+00,1.855e+00,2.589e+00,3.239e+00,3.602e+00,3.651e+00,4.079e+00,4.083e+00,2.994e+00,2.975e+00,3.684e+00,4.137e+00,6.457e+00,5.041e+00,5.461e+00,5.413e+00,5.376e+00,5.284e+00,6.846e+00,5.552e+00,6.979e+00,7.861e+00,7.097e+00,9.379e+00,8.115e+00,7.965e+00,9.536e+00,8.309e+00,9.594e+00,9.896e+00,1.174e+01,9.254e+00,9.064e+00,8.907e+00,1.203e+01,1.072e+01,1.104e+01,1.105e+01,1.102e+01,1.098e+01,1.279e+01,1.394e+01,1.287e+01,1.275e+01,1.247e+01,1.551e+01,1.269e+01,1.192e+01,1.459e+01,1.520e+01,1.402e+01,1.683e+01,1.441e+01,1.529e+01,1.560e+01,1.633e+01,1.534e+01,1.657e+01,1.756e+01,1.626e+01,1.798e+01,1.710e+01,1.273e+01,1.574e+01,1.663e+01,1.697e+01,1.664e+01,1.344e+01,1.806e+01,1.530e+01,1.757e+01,1.524e+01,1.650e+01
3.178e-02,3.851e-01,9.977e-01,9.232e-01,5.546e-01,1.544e+00,1.558e+00,1.595e+00,2.069e+00,2.506e+00,2.124e+00,4.035e+00,3.513e+00,2.660e+00,1.434e+00,2.416e+00,2.869e+00,5.252e+00,3.496e+00,5.533e+00,5.365e+00,4.483e+00,6.353e+00,7.355e+00,5.465e+00,5.021e+00,5.296e+00,6.177e+00,4.997e+00,8.259e+00,7.879e+00,8.640e+00,6.611e+00,7.873e+00,7.431e+00,1.045e+01,8.770e+00,8.374e+00,1.082e+01,9.624e+00,1.259e+01,1.138e+01,1.094e+01,1.224e+01,1.079e+01,1.175e+01,1.126e+01,1.493e+01,1.150e+01,1.208e+01,1.136e+01,1.415e+01,1.411e+01,1.492e+01,1.431e+01,1.224e+01,1.254e+01,1.580e+01,1.758e+01,1.758e+01,1.446e+01,1.368e+01,1.864e+01,1.429e+01,1.722e+01,1.851e+01,1.725e+01,1.569e+01,1.993e+01,1.896e+01,1.798e+01,1.959e+01,1.933e+01,1.784e+01,2.022e+01,2.180e+01,1.856e+01,2.044e+01,2.197e+01,1.723e+01,1.971e+01,2.161e+01,1.945e+01,2.010e+01,1.764e+01,2.318e+01,2.097e+01,2.183e+01,2.108e+01,2.068e+01
1.098e-01,4.628e-01,1.077e+00,8.431e-01,6.302e-01,1.605e+00,1.702e+00,2.035e+00,2.516e+00,3.436e+00,2.273e+00,5.131e+00,5.314e+00,4.336e+00,3.437e+00,3.554e+00,4.342e+00,5.674e+00,4.820e+00,6.265e+00,6.531e+00,6.748e+00,5.835e+00,6.593e+00,6.532e+00,4.734e+00,5.564e+00,6.736e+00,5.866e+00,8.518e+00,7.273e+00,7.779e+00,6.841e+00,8.705e+00,6.437e+00,9.870e+00,9.148e+00,8.968e+00,9.515e+00,1.014e+01,1.155e+01,1.202e+01,1.099e+01,1.124e+01,1.117e+01,1.216e+01,1.099e+01,1.351e+01,1.201e+01,1.155e+01,9.434e+00,1.375e+01,1.307e+01,1.342e+01,1.390e+01,1.417e+01,1.238e+01,1.449e+01,1.591e+01,1.518e+01,1.401e+01,1.308e+01,1.567e+01,1.198e+01,1.605e+01,1.720e+01,1.534e+01,1.478e+01,1.767e+01,1.423e+01,1.671e+01,1.638e+01,1.554e+01,1.705e+01,1.639e+01,1.859e+01,1.820e+01,1.806e+01,2.019e+01,1.493e+01,1.656e+01,1.827e+01,1.879e+01,1.626e+01,1.475e+01,2.077e+01,1.836e+01,1.829e+01,1.880e+01,1.793e+01
3.265e-02,4.654e-01,1.063e+00,6.901e-01,6.098e-01,8.333e-01,8.238e-01,1.061e+00,1.305e+00,2.352e+00,1.833e+00,3.590e+00,3.592e+00,2.922e+00,2.088e+00,2.137e+00,2.562e+00,4.259e+00,3.586e+00,4.493e+00,4.576e+00,4.820e+00,5.078e+00,7.257e+00,5.767e+00,4.381e+00,5.108e+00,6.098e+00,7.030e+00,1.003e+01,7.670e+00,8.242e+00,7.478e+00,8.780e+00,7.222e+00,1.025e+01,7.599e+00,9.735e+00,1.064e+01,9.611e+00,1.217e+01,1.229e+01,1.056e+01,1.336e+01,1.083e+01,1.073e+01,9.971e+00,1.370e+01,1.300e+01,1.133e+01,1.027e+01,1.395e+01,1.493e+01,1.444e+01,1.529e+01,1.251e+01,1.405e+01,1.683e+01,1.687e+01,1.628e+01,1.408e+01,1.629e+01,1.700e+01,1.302e+01,1.626e+01,1.742e+01,1.691e+01,1.670e+01,2.162e+01,1.899e+01,1.812e+01,1.906e+01,1.955e+01,1.794e+01,1.887e+01,2.170e+01,1.835e+01,2.245e+01,2.062e+01,1.602e+01,1.865e+01,2.053e+01,2.032e+01,2.058e+01,1.807e+01,2.096e+01,1.948e+01,2.096e+01,1.983e+01,2.004e+01
2.893e-02,1.615e-01,8.338e-01,2.768e-01,2.640e-01,1.142e+00,1.624e+00,1.164e+00,1.604e+00,2.216e+00,2.176e+00,3.856e+00,3.117e+00,2.833e+00,2.454e+00,3.117e+00,3.156e+00,4.132e+00,3.798e+00,4.631e+00,4.568e+00,4.645e+00,4.929e+00,6.480e+00,5.300e+00,4.671e+00,4.914e+00,5.579e+00,6.063e+00,7.395e+00,7.235e+00,7.113e+00,6.196e+00,8.111e+00,6.491e+00,9.912e+00,7.955e+00,8.063e+00,1.067e+01,9.127e+00,1.192e+01,1.064e+01,1.088e+01,1.171e+01,1.094e+01,1.193e+01,1.138e+01,1.333e+01,1.082e+01,1.072e+01,1.095e+01,1.304e+01,1.343e+01,1.350e+01,1.284e+01,1.415e+01,1.198e+01,1.420e+01,1.686e+01,1.603e+01,1.422e+01,1.194e+01,1.667e+01,1.247e+01,1.576e+01,1.746e+01,1.553e+01,1.272e+01,1.635e+01,1.546e+01,1.616e+01,1.658e+01,1.464e+01,1.553e+01,1.672e+01,1.867e+01,1.665e+01,1.827e+01,1.875e+01,1.561e+01,1.701e+01,1.905e+01,1.843e+01,1.851e+01,1.589e+01,2.025e+01,1.771e+01,1.959e+01,1.935e+01,1.668e+01
2.147e-01,4.362e-01,9.359e-01,7.857e-01,5.864e-01,1.581e+00,1.565e+00,1.423e+00,1.893e+00,2.998e+00,1.873e+00,3.643e+00,3.684e+00,3.645e+00,2.523e+00,3.493e+00,3.557e+00,4.821e+00,4.681e+00,6.724e+00,6.138e+00,5.848e+00,5.915e+00,7.905e+00,6.760e+00,5.102e+00,6.303e+00,7.333e+00,7.617e+00,1.023e+01,9.147e+00,9.207e+00,7.397e+00,9.600e+00,7.257e+00,1.168e+01,9.554e+00,9.663e+00,1.191e+01,1.011e+01,1.278e+01,1.217e+01,1.190e+01,1.242e+01,1.161e+01,1.252e+01,1.245e+01,1.532e+01,1.188e+01,1.353e+01,1.132e+01,1.432e+01,1.486e+01,1.512e+01,1.375e+01,1.237e+01,1.303e+01,1.538e+01,1.623e+01,1.536e+01,1.415e+01,1.494e+01,1.782e+01,1.308e+01,1.580e+01,1.738e+01,1.547e+01,1.580e+01,1.807e+01,1.675e+01,1.858e+01,1.806e+01,1.720e+01,1.658e+01,1.888e+01,2.100e+01,2.086e+01,2.105e+01,2.055e+01,1.748e+01,1.780e+01,2.134e+01,1.936e+01,1.919e+01,1.929e+01,2.284e+01,2.071e+01,2.129e+01,2.073e+01,1.947e+01
6.259e-03,1.549e-02,4.492e-01,9.582e-02,7.368e-02,1.189e+00,1.669e+00,1.961e+00,2.270e+00,2.734e+00,3.042e+00,3.984e+00,3.861e+00,3.357e+00,2.739e+00,3.024e+00,4.129e+00,5.697e+00,5.182e+00,7.487e+00,6.677e+00,6.037e+00,6.048e+00,8.018e+00,6.672e+00,6.070e+00,6.499e+00,8.068e+00,8.051e+00,9.519e+00,9.862e+00,9.434e+00,8.536e+00,9.788e+00,7.834e+00,1.204e+01,1.031e+01,1.009e+01,1.229e+01,1.022e+01,1.189e+01,1.200e+01,1.158e+01,1.223e+01,1.219e+01,1.313e+01,1.020e+01,1.505e+01,1.348e+01,1.333e+01,1.004e+01,1.374e+01,1.375e+01,1.489e+01,1.483e+01,1.452e+01,1.235e+01,1.836e+01,1.586e+01,1.571e+01,1.601e+01,1.511e+01,1.806e+01,1.454e+01,1.797e+01,1.847e+01,1.690e+01,1.597e+01,2.009e+01,1.710e+01,1.877e+01,1.912e+01,1.851e+01,1.825e+01,2.073e+01,2.226e+01,1.951e+01,2.164e+01,2.270e+01,1.942e+01,2.030e+01,2.238e+01,2.251e+01,2.128e+01,2.000e+01,2.310e+01,2.236e+01,2.257e+01,2.168e+01,2.320e+01
5.439e-02,1.653e-01,4.226e-01,5.034e-01,2.499e-01,9.656e-01,9.568e-01,1.695e+00,2.265e+00,2.795e+00,2.393e+00,3.290e+00,4.215e+00,2.995e+00,2.423e+00,2.417e+00,2.961e+00,4.774e+00,4.227e+00,5.087e+00,5.645e+00,5.034e+00,5.349e+00,6.006e+00,4.650e+00,4.695e+00,4.434e+00,5.726e+00,5.473e+00,7.738e+00,6.516e+00,6.109e+00,6.204e+00,8.298e+00,5.554e+00,9.156e+00,8.242e+00,7.723e+00,8.859e+00,8.838e+00,1.034e+01,1.091e+01,9.459e+00,1.023e+01,9.432e+00,1.068e+01,9.503e+00,1.266e+01,1.167e+01,1.071e+01,8.375e+00,1.150e+01,1.189e+01,1.260e+01,1.176e+01,1.137e+01,1.165e+01,1.401e+01,1.498e+01,1.351e+01,1.287e+01,1.398e+01,1.466e+01,1.303e+01,1.475e+01,1.573e+01,1.543e+01,1.338e+01,1.632e+01,1.597e+01,1.686e+01,1.578e+01,1.717e+01,1.496e+01,1.731e+01,1.866e+01,1.783e+01,1.941e+01,1.989e+01,1.577e+01,1.894e+01,2.083e+01,1.857e+01,1.959e+01,1.737e+01,2.125e+01,1.991e+01,2.041e+01,1.955e+01,1.881e+01
1.535e-01,2.390e-01,9.469e-01,9.473e-01,4.183e-01,1.353e+00,1.802e+00,1.912e+00,2.508e+00,3.106e+00,2.305e+00,3.423e+00,4.069e+00,2.780e+00,2.769e+00,2.823e+00,3.504e+00,4.700e+00,4.793e+00,6.157e+00,5.629e+00,5.334e+00,6.096e+00,7.060e+00,6.045e+00,5.377e+00,5.586e+00,6.902e+00,6.359e+00,8.800e+00,8.476e+00,8.365e+00,7.390e+00,8.576e+00,7.478e+00,1.064e+01,9.494e+00,9.942e+00,1.042e+01,9.683e+00,1.311e+01,1.284e+01,1.087e+01,1.198e+01,1.102e+01,1.096e+01,1.006e+01,1.386e+01,1.142e+01,1.204e+01,1.028e+01,1.411e+01,1.336e+01,1.366e+01,1.333e+01,1.354e+01,1.240e+01,1.628e+01,1.528e+01,1.560e+01,1.418e+01,1.220e+01,1.519e+01,1.317e+01,1.555e+01,1.579e+01,1.407e+01,1.367e+01,1.517e+01,1.545e+01,1.378e+01,1.652e+01,1.626e+01,1.593e+01,1.603e+01,1.912e+01,1.565e+01,1.732e+01,2.058e+01,1.460e+01,1.693e+01,2.090e+01,1.916e+01,1.886e+01,1.727e+01,1.986e+01,1.829e+01,1.905e+01,2.035e+01,1.785e+01
1.386e-01,4.230e-01,1.089e+00,7.818e-01,5.883e-01,1.441e+00,1.692e+00,1.795e+00,2.268e+00,3.454e+00,2.427e+00,4.350e+00,4.208e+00,4.120e+00,3.050e+00,2.903e+00,3.727e+00,4.499e+00,4.467e+00,6.010e+00,5.842e+00,6.117e+00,5.775e+00,6.877e+00,6.651e+00,5.013e+00,5.690e+00,6.296e+00,6.704e+00,8.021e+00,8.142e+00,7.506e+00,7.264e+00,7.894e+00,6.481e+00,9.597e+00,8.089e+00,8.569e+00,1.062e+01,9.069e+00,1.073e+01,1.046e+01,9.754e+00,1.153e+01,1.017e+01,1.049e+01,9.999e+00,1.216e+01,1.080e+01,1.101e+01,9.602e+00,1.285e+01,1.213e+01,1.226e+01,1.178e+01,1.175e+01,1.219e+01,1.359e+01,1.416e+01,1.376e+01,1.387e+01,1.345e+01,1.595e+01,1.242e+01,1.470e+01,1.462e+01,1.446e+01,1.375e+01,1.683e+01,1.518e+01,1.579e+01,1.523e+01,1.546e+01,1.527e+01,1.630e+01,2.029e+01,1.678e+01,1.797e+01,1.902e+01,1.634e+01,1.875e+01,1.938e+01,1.859e+01,1.876e+01,1.723e+01,2.092e+01,1.906e+01,1.987e+01,1.885e+01,2.006e+01
6.423e-02,4.190e-01,1.412e+00,1.075e+00,6.460e-01,1.805e+00,2.358e+00,2.551e+00,2.839e+00,3.291e+00,2.710e+00,5.778e+00,5.358e+00,4.001e+00,3.228e+00,3.415e+00,4.545e+00,6.227e+00,4.300e+00,5.335e+00,5.475e+00,5.963e+00,6.365e+00,6.935e+00,6.609e+00,5.531e+00,5.797e+00,7.182e+00,5.730e+00,8.920e+00,8.066e+00,8.628e+00,6.438e+00,7.482e+00,7.290e+00,9.580e+00,8.251e+00,9.091e+00,9.517e+00,9.798e+00,1.177e+01,1.185e+01,1.034e+01,1.199e+01,1.131e+01,1.231e+01,1.165e+01,1.436e+01,1.169e+01,1.161e+01,1.088e+01,1.390e+01,1.301e+01,1.330e+01,1.301e+01,1.477e+01,1.345e+01,1.460e+01,1.609e+01,1.629e+01,1.530e+01,1.555e+01,1.998e+01,1.429e+01,1.753e+01,1.908e+01,1.816e+01,1.752e+01,1.976e+01,1.766e+01,1.945e+01,1.831e+01,1.892e+01,1.748e+01,1.888e+01,2.227e+01,1.970e+01,2.191e+01,2.277e+01,1.934e+01,1.997e+01,2.322e+01,2.172e+01,2.154e+01,2.099e+01,2.404e+01,2.124e+01,2.327e+01,2.259e+01,2.344e+01
1.472e-01,3.572e-01,1.269e+00,8.772e-01,5.523e-01,1.305e+00,1.851e+00,1.818e+00,2.343e+00,3.396e+00,2.671e+00,4.245e+00,4.370e+00,3.439e+00,2.771e+00,3.299e+00,3.546e+00,4.967e+00,5.102e+00,5.972e+00,5.377e+00,5.128e+00,5.226e+00,7.109e+00,6.328e+00,4.795e+00,6.230e+00,7.392e+00,7.053e+00,1.039e+01,9.206e+00,8.801e+00,7.552e+00,8.781e+00,7.647e+00,1.051e+01,8.737e+00,1.028e+01,1.110e+01,1.085e+01,1.355e+01,1.318e+01,1.180e+01,1.216e+01,1.144e+01,1.169e+01,1.117e+01,1.452e+01,1.263e+01,1.246e+01,9.516e+00,1.321e+01,1.420e+01,1.398e+01,1.389e+01,1.376e+01,1.206e+01,1.600e+01,1.620e+01,1.643e+01,1.501e+01,1.605e+01,1.776e+01,1.331e+01,1.817e+01,1.680e+01,1.696e+01,1.803e+01,2.087e+01,1.723e+01,1.798e+01,1.688e+01,1.867e+01,1.862e+01,1.974e+01,2.172e+01,2.051e+01,2.246e+01,2.212e+01,1.767e+01,2.112e+01,2.294e+01,2.178e+01,2.195e+01,2.034e+01,2.361e+01,2.229e+01,2.248e+01,2.367e+01,2.307e+01
1.845e-01,1.933e-01,6.692e-01,6.718e-01,3.227e-01,1.336e+00,1.686e+00,1.941e+00,2.455e+00,3.288e+00,2.664e+00,4.048e+00,4.502e+00,3.890e+00,2.962e+00,3.440e+00,4.077e+00,5.466e+00,5.095e+00,7.016e+00,6.537e+00,6.018e+00,5.849e+00,7.556e+00,7.392e+00,5.052e+00,6.320e+00,8.326e+00,7.641e+00,9.829e+00,8.663e+00,8.569e+00,8.558e+00,1.015e+01,7.941e+00,1.236e+01,1.043e+01,1.032e+01,1.154e+01,1.110e+01,1.353e+01,1.306e+01,1.268e+01,1.289e+01,1.246e+01,1.222e+01,1.147e+01,1.617e+01,1.357e+01,1.454e+01,1.057e+01,1.467e+01,1.504e+01,1.540e+01,1.442e+01,1.317e+01,1.321e+01,1.564e+01,1.670e+01,1.544e+01,1.590e+01,1.626e+01,1.831e+01,1.418e+01,1.658e+01,1.674e+01,1.709e+01,1.640e+01,1.864e+01,1.635e+01,1.872e+01,1.755e+01,1.671e+01,1.732e+01,1.811e+01,2.184e+01,2.087e+01,2.068e+01,2.308e+01,1.832e+01,2.137e+01,2.152e+01,2.257e+01,2.097e+01,2.078e+01,2.578e+01,2.170e+01,2.308e+01,2.464e+01,2.276e+01
1.538e-01,5.596e-01,1.440e+00,1.325e+00,8.049e-01,1.533e+00,1.791e+00,1.763e+00,2.203e+00,3.244e+00,2.249e+00,4.484e+00,4.580e+00,3.488e+00,2.762e+00,3.212e+00,4.214e+00,5.014e+00,4.498e+00,5.685e+00,5.483e+00,5.760e+00,6.491e+00,7.902e+00,7.435e+00,5.151e+00,6.038e+00,7.337e+00,7.786e+00,9.784e+00,9.136e+00,8.177e+00,6.785e+00,8.040e+00,8.072e+00,9.496e+00,8.241e+00,1.084e+01,1.179e+01,1.032e+01,1.294e+01,1.251e+01,1.105e+01,1.375e+01,1.130e+01,1.071e+01,1.127e+01,1.292e+01,1.196e+01,1.226e+01,1.114e+01,1.422e+01,1.210e+01,1.448e+01,1.303e+01,1.309e+01,1.351e+01,1.536e+01,1.545e+01,1.534e+01,1.382e+01,1.360e+01,1.729e+01,1.389e+01,1.602e+01,1.583e+01,1.578e+01,1.549e+01,1.934e+01,1.715e+01,1.658e+01,1.535e+01,1.695e+01,1.687e+01,1.671e+01,1.934e+01,1.715e+01,2.027e+01,1.871e+01,1.676e+01,1.888e+01,2.098e+01,1.802e+01,2.031e+01,1.824e+01,2.145e+01,2.107e+01,2.244e+01,2.119e+01,1.958e+01
1.186e-01,4.036e-01,1.172e+00,1.021e+00,5.993e-01,1.374e+00,1.597e+00,1.964e+00,2.869e+00,3.956e+00,3.101e+00,5.446e+00,5.289e+00,4.327e+00,2.996e+00,3.957e+00,4.154e+00,6.986e+00,5.240e+00,6.652e+00,7.603e+00,6.426e+00,6.904e+00,7.762e+00,7.107e+00,5.468e+00,6.506e+00,7.521e+00,6.614e+00,1.067e+01,8.470e+00,9.482e+00,8.189e+00,8.618e+00,6.758e+00,1.065e+01,1.027e+01,9.937e+00,1.144e+01,1.100e+01,1.270e+01,1.252e+01,1.118e+01,1.274e+01,1.019e+01,1.244e+01,1.173e+01,1.546e+01,1.330e+01,1.234e+01,1.155e+01,1.458e+01,1.389e+01,1.471e+01,1.433e+01,1.371e+01,1.319e+01,1.622e+01,1.713e+01,1.698e+01,1.532e+01,1.753e+01,1.899e+01,1.551e+01,1.731e+01,1.793e+01,1.673e+01,1.714e+01,2.068e+01,1.845e+01,1.973e+01,1.812e+01,1.879e+01,1.900e+01,2.034e+01,2.236e+01,2.272e+01,2.180e+01,2.232e+01,1.929e+01,2.213e+01,2.276e+01,2.306e+01,2.263e+01,2.023e+01,2.660e+01,2.266e+01,2.538e+01,2.450e+01,2.436e+01
1.191e-01,4.943e-01,1.254e+00,7.449e-01,6.641e-01,1.694e+00,1.749e+00,1.783e+00,2.178e+00,3.511e+00,2.976e+00,5.164e+00,5.151e+00,4.248e+00,3.072e+00,3.513e+00,3.839e+00,6.001e+00,4.763e+00,6.242e+00,6.316e+00,5.653e+00,7.059e+00,8.182e+00,7.405e+00,5.181e+00,6.127e+00,7.600e+00,7.538e+00,1.046e+01,8.182e+00,8.773e+00,8.098e+00,9.390e+00,8.335e+00,1.101e+01,8.108e+00,1.009e+01,1.121e+01,1.049e+01,1.267e+01,1.268e+01,1.197e+01,1.235e+01,1.206e+01,1.252e+01,1.098e+01,1.504e+01,1.359e+01,1.271e+01,1.088e+01,1.432e+01,1.308e+01,1.445e+01,1.411e+01,1.373e+01,1.434e+01,1.607e+01,1.613e+01,1.558e+01,1.557e+01,1.463e+01,1.808e+01,1.355e+01,1.663e+01,1.687e+01,1.778e+01,1.738e+01,1.898e+01,1.680e+01,1.880e+01,1.799e+01,1.933e+01,1.879e+01,1.952e+01,2.120e+01,2.041e+01,2.159e+01,2.289e+01,1.710e+01,2.242e+01,2.228e+01,2.235e+01,2.228e+01,2.113e+01,2.617e+01,2.188e+01,2.452e+01,2.634e+01,2.537e+01
8.828e-02,3.582e-01,1.136e+00,6.281e-01,5.139e-01,9.244e-01,1.383e+00,8.677e-01,1.033e+00,1.846e+00,1.260e+00,2.571e+00,2.394e+00,2.371e+00,1.673e+00,2.208e+00,2.820e+00,3.831e+00,3.698e+00,5.154e+00,4.328e+00,4.037e+00,4.938e+00,5.882e+00,5.833e+00,3.865e+00,4.925e+00,5.841e+00,5.507e+00,7.830e+00,7.386e+00,7.641e+00,6.445e+00,7.251e+00,6.588e+00,9.272e+00,7.924e+00,7.648e+00,9.688e+00,8.272e+00,1.101e+01,1.041e+01,9.712e+00,9.874e+00,1.018e+01,9.637e+00,9.163e+00,1.265e+01,9.479e+00,1.061e+01,9.522e+00,1.201e+01,1.219e+01,1.176e+01,1.315e+01,1.176e+01,1.140e+01,1.306e+01,1.471e+01,1.577e+01,1.295e+01,1.223e+01,1.511e+01,1.227e+01,1.511e+01,1.581e+01,1.542e+01,1.366e+01,1.658e+01,1.500e+01,1.529e+01,1.518e+01,1.493e+01,1.518e+01,1.668e+01,1.958e+01,1.613e+01,1.659e+01,1.927e+01,1.570e+01,1.661e+01,2.039e+01,1.926e+01,1.853e+01,1.855e+01,2.139e+01,1.904e+01,2.200e+01,2.113e+01,2.110e+01
2.163e-01,3.116e-01,1.343e+00,1.076e+00,5.388e-01,1.242e+00,2.051e+00,1.685e+00,2.625e+00,3.735e+00,2.374e+00,3.987e+00,3.747e+00,3.694e+00,3.053e+00,3.305e+00,3.523e+00,4.985e+00,4.945e+00,6.101e+00,5.775e+00,5.410e+00,4.882e+00,6.381e+00,6.835e+00,4.477e+00,6.564e+00,6.483e+00,6.473e+00,8.548e+00,8.231e+00,7.320e+00,6.900e+00,7.705e+00,6.029e+00,8.846e+00,7.822e+00,7.593e+00,1.040e+01,8.720e+00,1.083e+01,1.050e+01,1.009e+01,1.030e+01,1.041e+01,1.013e+01,1.060e+01,1.424e+01,1.051e+01,1.249e+01,1.072e+01,1.453e+01,1.445e+01,1.415e+01,1.392e+01,1.361e+01,1.296e+01,1.481e+01,1.551e+01,1.626e+01,1.442e+01,1.442e+01,1.765e+01,1.278e+01,1.658e+01,1.780e+01,1.522e+01,1.727e+01,1.982e+01,1.677e+01,1.618e+01,1.819e+01,1.791e+01,1.902e+01,1.911e+01,2.196e+01,1.994e+01,2.036e+01,2.259e+01,1.756e+01,2.176e+01,2.166e+01,2.011e+01,2.100e+01,1.952e+01,2.378e+01,2.117e+01,2.424e+01,2.492e+01,2.506e+01
