8.284e-01,6.773e-01,1.226e-01,4.876e-01,3.687e-01,9.527e-01,8.421e-01,9.176e-01,9.307e-01,5.506e-02,4.099e-01,5.495e-01,7.051e-01,4.924e-01,7.982e-01,8.506e-01,7.440e-01,6.842e-01,2.023e-02,3.332e-02,2.515e-01,5.553e-01,5.858e-01,9.240e-01,4.978e-01,9.988e-01,5.508e-01,5.049e-01,2.269e-02,5.237e-01,8.321e-01,2.564e-01,5.811e-01,6.264e-01,1.085e-01,1.128e-01,8.278e-01,5.712e-01,3.273e-01,6.360e-01,8.609e-01,8.798e-01,7.139e-01,2.612e-01,1.140e-01,4.010e-01,9.734e-01,5.939e-01,5.986e-01,3.751e-01,6.382e-01,5.893e-01
7.129e-01,9.663e-01,1.017e+00,4.369e-01,1.084e+00,1.062e+00,1.398e+00,1.622e+00,1.218e+00,2.991e-01,7.369e-01,1.082e+00,1.386e+00,5.983e-01,7.060e-01,8.448e-01,7.224e-01,1.472e+00,8.642e-01,9.131e-01,2.320e-01,1.090e+00,5.939e-01,1.153e+00,1.230e+00,1.124e+00,1.419e+00,1.274e+00,8.991e-01,9.239e-01,1.607e+00,1.140e+00,5.537e-01,1.175e+00,5.932e-01,1.280e-01,1.026e+00,1.328e+00,7.581e-01,1.519e+00,1.033e+00,1.624e+00,7.347e-01,8.096e-01,9.949e-01,5.448e-01,1.090e+00,6.171e-01,8.564e-01,1.270e+00,8.223e-01,8.864e-01
8.154e-01,1.003e+00,1.180e+00,1.078e+00,1.234e+00,1.338e+00,1.677e+00,2.450e+00,1.651e+00,9.184e-01,1.611e+00,1.573e+00,2.347e+00,1.225e+00,1.357e+00,1.131e+00,1.530e+00,2.321e+00,1.737e+00,1.107e+00,1.126e+00,1.984e+00,1.029e+00,1.909e+00,2.118e+00,1.609e+00,1.986e+00,1.702e+00,1.289e+00,1.558e+00,1.645e+00,1.817e+00,1.518e+00,1.937e+00,8.911e-01,6.327e-01,1.898e+00,1.320e+00,1.729e+00,1.860e+00,1.898e+00,1.764e+00,1.223e+00,1.617e+00,1.873e+00,9.159e-01,1.476e+00,9.240e-01,1.711e+00,2.074e+00,1.801e+00,9.773e-01
8.189e-01,8.644e-01,6.787e-01,1.512e+00,1.160e+00,1.514e+00,1.449e+00,1.934e+00,2.086e+00,4.854e-01,1.167e+00,1.479e+00,1.701e+00,1.135e+00,1.558e+00,1.661e+00,1.256e+00,1.719e+00,9.412e-01,1.090e+00,8.057e-01,1.687e+00,1.552e+00,1.769e+00,1.437e+00,1.930e+00,1.725e+00,1.603e+00,1.154e+00,1.666e+00,1.788e+00,1.577e+00,1.148e+00,1.299e+00,1.123e+00,8.237e-01,1.793e+00,1.298e+00,1.636e+00,2.189e+00,1.691e+00,1.476e+00,1.020e+00,1.367e+00,1.130e+00,1.588e+00,2.142e+00,1.343e+00,1.915e+00,1.276e+00,2.031e+00,1.614e+00
1.634e-02,2.521e-01,7.331e-01,9.833e-01,1.149e+00,1.367e+00,1.626e+00,1.828e+00,1.487e+00,8.558e-01,1.968e+00,1.470e+00,1.649e+00,1.672e+00,1.084e+00,1.304e+00,9.446e-01,1.523e+00,1.969e+00,2.096e+00,1.000e+00,1.416e+00,1.514e+00,1.863e+00,2.151e+00,9.537e-01,1.553e+00,2.197e+00,1.942e+00,1.683e+00,1.862e+00,1.876e+00,8.485e-01,1.365e+00,1.157e+00,1.208e+00,1.761e+00,7.960e-01,2.191e+00,2.400e+00,1.826e+00,1.391e+00,1.054e+00,1.372e+00,1.387e+00,1.705e+00,1.962e+00,1.482e+00,2.202e+00,1.460e+00,1.705e+00,1.734e+00
6.392e-01,6.961e-01,7.154e-01,1.380e+00,1.192e+00,1.857e+00,2.042e+00,2.954e+00,2.506e+00,1.732e+00,2.380e+00,1.800e+00,2.671e+00,1.962e+00,1.806e+00,2.024e+00,2.258e+00,1.976e+00,2.580e+00,1.963e+00,1.259e+00,2.371e+00,2.413e+00,3.023e+00,2.999e+00,1.952e+00,2.297e+00,2.493e+00,2.370e+00,2.359e+00,2.929e+00,2.364e+00,1.988e+00,2.293e+00,1.875e+00,1.253e+00,2.298e+00,1.858e+00,2.656e+00,2.839e+00,3.041e+00,2.393e+00,1.652e+00,1.897e+00,2.012e+00,2.222e+00,2.908e+00,1.922e+00,2.783e+00,1.842e+00,2.217e+00,2.286e+00
7.648e-01,6.561e-01,2.732e-01,1.199e+00,7.769e-01,1.467e+00,1.847e+00,2.112e+00,2.545e+00,8.270e-01,2.001e+00,2.061e+00,1.665e+00,1.751e+00,2.112e+00,1.996e+00,1.911e+00,1.367e+00,1.304e+00,1.834e+00,9.876e-01,1.541e+00,2.493e+00,2.415e+00,2.206e+00,2.190e+00,2.224e+00,1.862e+00,1.451e+00,1.985e+00,1.953e+00,2.011e+00,1.783e+00,1.491e+00,1.038e+00,1.103e+00,2.578e+00,1.859e+00,1.788e+00,2.003e+00,2.633e+00,2.106e+00,1.265e+00,1.803e+00,1.051e+00,1.890e+00,2.272e+00,1.978e+00,2.211e+00,1.835e+00,2.426e+00,2.444e+00
2.423e-02,9.284e-02,2.649e-01,6.927e-01,5.315e-01,6.695e-01,9.137e-01,1.660e+00,1.797e+00,1.245e+00,1.320e+00,1.793e+00,1.729e+00,1.720e+00,1.126e+00,1.075e+00,9.323e-01,1.467e+00,1.728e+00,1.378e+00,1.419e+00,1.062e+00,1.474e+00,1.995e+00,1.429e+00,1.696e+00,1.319e+00,1.984e+00,1.846e+00,1.673e+00,1.483e+00,2.174e+00,1.118e+00,1.096e+00,1.008e+00,1.324e+00,1.839e+00,8.535e-01,2.244e+00,1.646e+00,1.932e+00,1.239e+00,8.203e-01,1.884e+00,8.889e-01,1.895e+00,1.958e+00,1.256e+00,2.167e+00,1.261e+00,2.309e+00,1.618e+00
6.679e-01,7.909e-01,9.277e-01,1.008e+00,1.208e+00,1.738e+00,2.162e+00,3.265e+00,2.936e+00,2.804e+00,2.586e+00,3.355e+00,3.306e+00,3.436e+00,2.090e+00,2.371e+00,2.090e+00,3.273e+00,2.996e+00,2.439e+00,2.342e+00,2.439e+00,2.222e+00,4.198e+00,3.521e+00,2.652e+00,2.856e+00,3.898e+00,2.983e+00,2.709e+00,3.454e+00,3.350e+00,2.901e+00,3.192e+00,2.281e+00,1.901e+00,3.302e+00,1.871e+00,3.501e+00,3.528e+00,3.675e+00,3.374e+00,2.368e+00,2.444e+00,2.345e+00,3.112e+00,3.350e+00,2.659e+00,3.751e+00,2.674e+00,2.992e+00,2.339e+00
7.850e-01,8.551e-01,6.614e-01,9.470e-01,1.019e+00,1.442e+00,1.721e+00,2.564e+00,2.641e+00,2.481e+00,2.466e+00,3.223e+00,3.347e+00,2.245e+00,1.808e+00,2.597e+00,2.639e+00,2.251e+00,1.842e+00,1.588e+00,2.035e+00,2.436e+00,2.017e+00,3.645e+00,2.513e+00,3.385e+00,2.761e+00,3.172e+00,2.892e+00,2.970e+00,3.336e+00,3.128e+00,2.214e+00,2.638e+00,2.389e+00,2.065e+00,3.259e+00,2.344e+00,3.156e+00,2.933e+00,2.828e+00,2.610e+00,2.251e+00,2.547e+00,1.742e+00,2.211e+00,2.942e+00,2.548e+00,3.265e+00,2.649e+00,2.460e+00,2.538e+00
3.995e-01,6.676e-01,9.577e-01,5.746e-01,1.184e+00,1.451e+00,2.199e+00,3.111e+00,3.007e+00,2.888e+00,3.237e+00,3.659e+00,3.923e+00,3.684e+00,2.067e+00,3.125e+00,3.090e+00,3.260e+00,3.301e+00,3.482e+00,2.158e+00,3.155e+00,3.195e+00,4.086e+00,4.426e+00,2.917e+00,3.468e+00,4.823e+00,3.897e+00,3.397e+00,4.594e+00,4.229e+00,3.472e+00,3.682e+00,3.343e+00,2.540e+00,3.905e+00,3.069e+00,4.129e+00,4.599e+00,3.803e+00,4.189e+00,2.621e+00,2.859e+00,2.799e+00,3.612e+00,3.762e+00,2.791e+00,4.173e+00,3.617e+00,2.682e+00,3.653e+00
4.907e-01,4.945e-01,3.573e-01,9.358e-01,7.161e-01,1.116e+00,1.236e+00,1.801e+00,2.113e+00,2.033e+00,2.291e+00,2.746e+00,2.889e+00,2.874e+00,2.155e+00,3.100e+00,3.536e+00,2.094e+00,2.123e+00,1.799e+00,2.598e+00,3.345e+00,2.575e+00,2.914e+00,3.049e+00,3.385e+00,2.479e+00,3.794e+00,2.894e+00,3.203e+00,3.902e+00,3.011e+00,3.423e+00,3.169e+00,3.227e+00,3.033e+00,3.160e+00,2.829e+00,3.025e+00,3.557e+00,2.430e+00,2.974e+00,2.953e+00,2.236e+00,1.857e+00,2.792e+00,2.701e+00,2.384e+00,3.311e+00,3.340e+00,2.656e+00,2.644e+00
6.717e-01,8.545e-01,1.037e+00,1.118e+00,1.253e+00,1.493e+00,1.868e+00,2.591e+00,2.187e+00,1.786e+00,2.334e+00,2.531e+00,3.171e+00,3.213e+00,1.970e+00,2.890e+00,2.961e+00,3.345e+00,3.194e+00,2.237e+00,2.078e+00,3.370e+00,2.545e+00,3.084e+00,3.884e+00,3.038e+00,3.181e+00,3.329e+00,3.186e+00,2.944e+00,3.731e+00,2.986e+00,3.427e+00,3.160e+00,2.326e+00,2.158e+00,3.571e+00,3.202e+00,2.776e+00,3.612e+00,3.464e+00,3.769e+00,3.059e+00,2.365e+00,2.748e+00,2.207e+00,2.866e+00,2.532e+00,3.521e+00,3.682e+00,2.659e+00,2.429e+00
6.647e-01,6.263e-01,3.285e-01,9.567e-01,9.301e-01,1.833e+00,2.007e+00,2.515e+00,2.560e+00,2.358e+00,2.945e+00,2.740e+00,3.257e+00,3.868e+00,2.568e+00,3.736e+00,4.214e+00,2.432e+00,3.085e+00,2.521e+00,2.889e+00,3.401e+00,3.801e+00,4.337e+00,4.569e+00,3.324e+00,2.887e+00,3.516e+00,4.502e+00,4.021e+00,4.318e+00,3.315e+00,3.127e+00,2.994e+00,2.766e+00,2.562e+00,4.444e+00,3.645e+00,3.468e+00,3.649e+00,4.333e+00,4.029e+00,4.054e+00,2.330e+00,2.167e+00,2.751e+00,3.699e+00,4.058e+00,4.032e+00,3.226e+00,2.546e+00,3.964e+00
6.950e-01,8.451e-01,8.800e-01,8.284e-01,1.062e+00,1.350e+00,1.924e+00,3.137e+00,2.884e+00,2.801e+00,2.845e+00,3.398e+00,4.042e+00,3.176e+00,3.099e+00,3.410e+00,3.584e+00,3.536e+00,3.849e+00,2.871e+00,3.168e+00,3.431e+00,3.008e+00,4.469e+00,4.007e+00,4.011e+00,4.067e+00,4.529e+00,4.342e+00,4.104e+00,4.304e+00,4.712e+00,4.258e+00,3.683e+00,2.928e+00,2.764e+00,4.722e+00,4.030e+00,3.799e+00,3.940e+00,4.247e+00,4.379e+00,3.290e+00,3.990e+00,2.784e+00,2.884e+00,3.758e+00,3.467e+00,4.858e+00,4.175e+00,3.753e+00,3.814e+00
7.506e-01,6.138e-01,1.416e-01,1.124e+00,8.307e-01,1.798e+00,1.878e+00,2.103e+00,2.636e+00,1.439e+00,2.097e+00,2.507e+00,2.184e+00,3.925e+00,3.473e+00,4.128e+00,4.232e+00,3.232e+00,3.558e+00,2.921e+00,3.725e+00,3.799e+00,3.763e+00,4.205e+00,4.838e+00,3.601e+00,3.231e+00,3.896e+00,4.391e+00,4.459e+00,4.060e+00,3.990e+00,3.653e+00,3.258e+00,2.921e+00,3.375e+00,5.006e+00,4.305e+00,3.539e+00,3.690e+00,4.411e+00,4.749e+00,4.338e+00,3.289e+00,1.685e+00,3.650e+00,4.218e+00,5.076e+00,4.482e+00,3.642e+00,3.988e+00,5.064e+00
6.448e-01,6.822e-01,5.576e-01,6.354e-01,7.048e-01,1.048e+00,1.522e+00,2.333e+00,2.402e+00,2.359e+00,2.607e+00,3.204e+00,3.666e+00,4.085e+00,2.772e+00,3.949e+00,5.789e+00,4.572e+00,4.519e+00,3.098e+00,4.431e+00,5.153e+00,4.260e+00,4.630e+00,5.301e+00,4.723e+00,4.519e+00,4.828e+00,4.737e+00,5.211e+00,5.086e+00,4.868e+00,5.125e+00,4.238e+00,4.191e+00,3.864e+00,5.144e+00,4.876e+00,4.318e+00,4.574e+00,4.369e+00,5.193e+00,4.547e+00,4.056e+00,3.727e+00,3.469e+00,3.766e+00,3.742e+00,4.756e+00,5.414e+00,4.033e+00,4.135e+00
2.700e-02,2.359e-01,7.045e-01,5.842e-01,7.422e-01,7.068e-01,1.162e+00,2.241e+00,2.088e+00,3.390e+00,2.945e+00,3.669e+00,3.913e+00,4.311e+00,2.949e+00,3.814e+00,5.774e+00,4.936e+00,6.051e+00,4.149e+00,5.868e+00,5.807e+00,3.938e+00,5.369e+00,6.294e+00,4.721e+00,4.733e+00,5.881e+00,5.836e+00,6.229e+00,5.607e+00,5.995e+00,5.305e+00,5.107e+00,4.961e+00,5.001e+00,5.756e+00,5.087e+00,5.589e+00,5.471e+00,4.849e+00,5.332e+00,5.273e+00,4.970e+00,4.478e+00,4.598e+00,3.734e+00,4.573e+00,6.262e+00,5.852e+00,5.114e+00,5.023e+00
7.740e-01,7.144e-01,4.935e-01,1.604e+00,9.977e-01,1.662e+00,1.989e+00,3.026e+00,3.597e+00,3.573e+00,3.450e+00,4.158e+00,3.759e+00,4.144e+00,4.080e+00,4.767e+00,6.154e+00,4.238e+00,5.341e+00,4.340e+00,5.932e+00,5.670e+00,5.783e+00,6.393e+00,6.371e+00,5.088e+00,5.707e+00,5.626e+00,6.518e+00,6.343e+00,5.587e+00,6.563e+00,5.941e+00,5.784e+00,5.115e+00,4.705e+00,6.701e+00,5.909e+00,5.511e+00,5.077e+00,6.012e+00,5.765e+00,5.234e+00,5.147e+00,4.155e+00,5.382e+00,4.889e+00,6.327e+00,6.408e+00,5.959e+00,5.372e+00,6.689e+00
2.471e-01,2.568e-01,4.188e-01,1.164e+00,6.040e-01,7.540e-01,1.273e+00,2.126e+00,2.554e+00,2.793e+00,3.223e+00,3.849e+00,3.660e+00,4.934e+00,3.487e+00,4.210e+00,5.941e+00,4.301e+00,4.602e+00,4.244e+00,6.298e+00,5.837e+00,5.945e+00,5.789e+00,6.372e+00,5.513e+00,5.518e+00,5.054e+00,5.772e+00,6.570e+00,4.721e+00,5.958e+00,5.813e+00,4.627e+00,4.603e+00,4.635e+00,6.623e+00,4.932e+00,5.309e+00,4.998e+00,5.859e+00,5.816e+00,5.369e+00,4.995e+00,4.759e+00,4.326e+00,3.507e+00,5.639e+00,5.627e+00,6.816e+00,5.239e+00,4.771e+00
5.608e-01,5.950e-01,4.461e-01,5.430e-01,6.141e-01,9.406e-01,1.280e+00,1.910e+00,2.053e+00,1.894e+00,2.107e+00,2.430e+00,2.894e+00,3.567e+00,3.304e+00,3.801e+00,4.787e+00,3.564e+00,4.270e+00,3.672e+00,4.703e+00,5.339e+00,4.947e+00,4.917e+00,5.476e+00,4.470e+00,4.912e+00,5.208e+00,5.584e+00,5.111e+00,5.067e+00,5.278e+00,5.028e+00,4.777e+00,3.925e+00,4.048e+00,5.481e+00,5.286e+00,3.803e+00,4.799e+00,4.740e+00,5.961e+00,4.601e+00,3.876e+00,3.412e+00,4.632e+00,3.772e+00,4.369e+00,4.950e+00,5.854e+00,3.976e+00,5.519e+00
1.323e-01,2.143e-01,4.592e-01,8.752e-01,8.198e-01,1.288e+00,1.865e+00,2.421e+00,2.295e+00,2.203e+00,3.549e+00,2.873e+00,3.523e+00,3.873e+00,2.540e+00,3.934e+00,5.142e+00,4.083e+00,5.162e+00,4.674e+00,4.875e+00,6.056e+00,6.227e+00,6.310e+00,6.932e+00,4.843e+00,5.704e+00,5.612e+00,6.416e+00,6.809e+00,6.022e+00,6.181e+00,5.066e+00,5.194e+00,4.950e+00,5.562e+00,7.108e+00,5.631e+00,6.311e+00,5.765e+00,5.917e+00,6.226e+00,5.331e+00,5.122e+00,5.093e+00,4.951e+00,5.472e+00,5.691e+00,6.434e+00,7.030e+00,4.648e+00,7.035e+00
3.143e-02,3.540e-01,8.862e-01,9.936e-01,1.237e+00,1.232e+00,1.705e+00,2.624e+00,2.624e+00,2.136e+00,2.368e+00,2.855e+00,3.041e+00,3.758e+00,3.156e+00,3.136e+00,4.299e+00,4.135e+00,5.699e+00,4.999e+00,5.936e+00,5.356e+00,6.186e+00,6.410e+00,5.945e+00,4.788e+00,6.436e+00,6.811e+00,6.759e+00,7.107e+00,6.288e+00,6.596e+00,4.891e+00,5.339e+00,5.258e+00,4.645e+00,6.294e+00,5.403e+00,5.760e+00,6.315e+00,5.559e+00,6.416e+00,5.349e+00,5.325e+00,5.690e+00,6.105e+00,5.132e+00,5.048e+00,6.517e+00,6.854e+00,6.376e+00,6.489e+00
3.803e-01,5.066e-01,6.839e-01,1.010e+00,1.141e+00,1.754e+00,2.046e+00,2.900e+00,2.565e+00,2.918e+00,3.691e+00,3.372e+00,4.349e+00,4.676e+00,2.965e+00,4.322e+00,6.228e+00,4.349e+00,5.978e+00,4.422e+00,5.857e+00,6.379e+00,6.145e+00,6.499e+00,7.408e+00,5.640e+00,5.653e+00,7.632e+00,7.941e+00,8.212e+00,8.435e+00,7.166e+00,6.526e+00,6.794e+00,6.068e+00,6.331e+00,7.594e+00,6.872e+00,7.612e+00,7.606e+00,6.388e+00,7.094e+00,7.560e+00,5.283e+00,5.995e+00,6.060e+00,6.584e+00,5.671e+00,8.103e+00,7.803e+00,5.722e+00,7.873e+00
2.896e-01,3.056e-01,3.946e-01,1.214e+00,9.113e-01,1.577e+00,2.089e+00,3.178e+00,3.439e+00,3.484e+00,3.785e+00,4.067e+00,4.031e+00,4.908e+00,3.758e+00,4.358e+00,5.874e+00,4.442e+00,6.441e+00,5.259e+00,6.639e+00,6.244e+00,6.993e+00,7.554e+00,8.319e+00,6.517e+00,7.382e+00,7.698e+00,8.416e+00,7.996e+00,7.804e+00,7.937e+00,6.516e+00,7.598e+00,6.238e+00,6.002e+00,8.621e+00,6.342e+00,7.295e+00,7.015e+00,7.198e+00,8.090e+00,7.293e+00,6.773e+00,5.617e+00,7.594e+00,6.601e+00,6.725e+00,8.391e+00,8.581e+00,7.740e+00,8.136e+00
7.198e-01,8.848e-01,9.427e-01,1.044e+00,1.360e+00,1.937e+00,2.750e+00,3.664e+00,3.674e+00,3.098e+00,3.592e+00,4.182e+00,4.152e+00,4.691e+00,3.396e+00,4.273e+00,5.484e+00,5.086e+00,5.921e+00,4.794e+00,4.637e+00,5.291e+00,5.280e+00,6.487e+00,7.275e+00,6.596e+00,7.038e+00,6.730e+00,6.445e+00,6.888e+00,7.346e+00,6.778e+00,5.772e+00,5.871e+00,5.467e+00,5.028e+00,7.597e+00,6.322e+00,6.268e+00,7.123e+00,7.063e+00,8.016e+00,6.730e+00,6.374e+00,5.901e+00,5.781e+00,5.846e+00,6.141e+00,7.903e+00,7.258e+00,6.822e+00,6.277e+00
2.260e-01,3.342e-01,5.931e-01,1.023e+00,7.565e-01,8.386e-01,1.451e+00,2.207e+00,2.315e+00,1.818e+00,2.348e+00,2.518e+00,2.408e+00,3.120e+00,3.394e+00,2.987e+00,4.479e+00,3.060e+00,4.616e+00,3.806e+00,5.159e+00,5.019e+00,5.353e+00,4.909e+00,5.766e+00,5.100e+00,6.372e+00,6.134e+00,6.849e+00,6.569e+00,5.353e+00,6.316e+00,5.515e+00,5.647e+00,4.795e+00,5.760e+00,7.041e+00,5.740e+00,5.133e+00,5.632e+00,5.375e+00,6.435e+00,6.044e+00,5.536e+00,5.274e+00,6.242e+00,4.438e+00,5.716e+00,6.043e+00,8.022e+00,6.819e+00,6.624e+00
1.730e-01,4.777e-01,8.656e-01,8.361e-01,1.180e+00,1.200e+00,1.910e+00,2.479e+00,2.717e+00,2.803e+00,3.076e+00,3.546e+00,3.377e+00,3.941e+00,2.859e+00,4.178e+00,5.346e+00,4.349e+00,5.659e+00,5.248e+00,5.846e+00,6.161e+00,6.771e+00,7.253e+00,7.829e+00,6.964e+00,8.472e+00,7.757e+00,9.457e+00,9.712e+00,8.065e+00,8.422e+00,6.270e+00,7.341e+00,7.030e+00,6.814e+00,9.135e+00,8.503e+00,7.735e+00,7.641e+00,7.539e+00,9.014e+00,7.949e+00,7.472e+00,7.116e+00,6.631e+00,6.612e+00,8.377e+00,8.959e+00,9.960e+00,7.755e+00,9.002e+00
3.624e-01,4.684e-01,6.664e-01,1.375e+00,9.544e-01,1.119e+00,1.589e+00,3.043e+00,3.202e+00,3.244e+00,3.411e+00,3.884e+00,4.496e+00,3.755e+00,3.510e+00,4.343e+00,5.902e+00,4.757e+00,5.426e+00,4.500e+00,6.367e+00,6.965e+00,6.202e+00,7.072e+00,6.971e+00,7.547e+00,8.209e+00,7.992e+00,8.743e+00,9.230e+00,7.964e+00,8.545e+00,6.875e+00,8.170e+00,7.608e+00,8.292e+00,8.593e+00,7.398e+00,7.996e+00,8.057e+00,6.683e+00,8.574e+00,7.428e+00,8.600e+00,7.273e+00,7.754e+00,6.442e+00,7.331e+00,9.330e+00,1.038e+01,8.958e+00,8.135e+00
8.858e-02,3.949e-01,1.008e+00,1.101e+00,1.273e+00,1.370e+00,2.285e+00,3.298e+00,3.223e+00,3.426e+00,3.761e+00,3.921e+00,3.846e+00,3.912e+00,3.065e+00,3.857e+00,4.777e+00,4.450e+00,6.203e+00,5.533e+00,5.232e+00,5.817e+00,6.153e+00,7.131e+00,7.451e+00,5.792e+00,8.593e+00,8.396e+00,9.076e+00,1.001e+01,8.293e+00,9.065e+00,6.502e+00,8.414e+00,7.731e+00,7.998e+00,9.666e+00,8.603e+00,8.664e+00,8.958e+00,8.026e+00,9.100e+00,7.924e+00,8.046e+00,8.059e+00,8.243e+00,6.765e+00,8.355e+00,9.676e+00,1.042e+01,9.453e+00,9.318e+00
2.696e-01,4.775e-01,8.927e-01,1.416e+00,1.319e+00,1.644e+00,2.213e+00,3.658e+00,3.526e+00,3.180e+00,3.379e+00,3.858e+00,4.284e+00,4.865e+00,3.374e+00,3.841e+00,5.026e+00,4.262e+00,6.192e+00,4.729e+00,6.013e+00,6.355e+00,6.507e+00,7.186e+00,7.381e+00,6.785e+00,7.125e+00,8.804e+00,8.792e+00,9.719e+00,9.436e+00,9.405e+00,7.013e+00,8.503e+00,7.188e+00,8.172e+00,9.400e+00,9.031e+00,9.076e+00,8.886e+00,8.777e+00,9.170e+00,8.728e+00,7.668e+00,7.421e+00,8.927e+00,7.767e+00,7.746e+00,1.017e+01,1.036e+01,1.001e+01,9.394e+00
5.424e-01,6.104e-01,5.869e-01,5.961e-01,7.633e-01,1.097e+00,1.344e+00,1.822e+00,1.524e+00,1.386e+00,2.210e+00,2.108e+00,2.978e+00,2.801e+00,2.434e+00,3.085e+00,3.809e+00,4.039e+00,4.512e+00,4.097e+00,4.761e+00,4.788e+00,5.248e+00,5.539e+00,5.357e+00,5.283e+00,6.719e+00,6.835e+00,5.957e+00,8.216e+00,7.344e+00,7.497e+00,6.832e+00,7.281e+00,6.073e+00,7.420e+00,8.943e+00,7.648e+00,7.332e+00,8.806e+00,7.389e+00,8.951e+00,8.572e+00,6.960e+00,7.739e+00,7.330e+00,6.341e+00,7.751e+00,9.372e+00,9.828e+00,8.314e+00,8.185e+00
3.398e-02,3.732e-01,1.083e+00,1.132e+00,1.348e+00,1.376e+00,2.310e+00,3.350e+00,3.097e+00,2.986e+00,4.301e+00,4.254e+00,4.940e+00,5.288e+00,3.164e+00,4.606e+00,6.043e+00,5.130e+00,6.950e+00,5.367e+00,5.338e+00,6.634e+00,5.523e+00,5.381e+00,8.406e+00,6.267e+00,6.525e+00,8.326e+00,8.476e+00,8.848e+00,8.827e+00,9.044e+00,7.803e+00,8.743e+00,7.419e+00,8.327e+00,9.676e+00,9.345e+00,9.458e+00,9.259e+00,8.569e+00,9.318e+00,8.283e+00,8.423e+00,7.288e+00,7.602e+00,7.224e+00,7.513e+00,1.040e+01,1.029e+01,9.078e+00,9.860e+00
7.344e-01,7.700e-01,6.186e-01,1.025e+00,9.664e-01,1.491e+00,1.982e+00,2.857e+00,3.141e+00,3.298e+00,3.516e+00,4.113e+00,4.279e+00,4.555e+00,3.663e+00,4.811e+00,6.058e+00,4.896e+00,5.682e+00,5.091e+00,6.355e+00,5.987e+00,7.078e+00,7.534e+00,7.702e+00,7.390e+00,7.997e+00,7.940e+00,8.669e+00,9.523e+00,8.745e+00,8.840e+00,8.479e+00,9.219e+00,7.572e+00,7.530e+00,1.016e+01,9.198e+00,8.972e+00,9.066e+00,9.073e+00,9.985e+00,9.816e+00,8.673e+00,7.795e+00,7.376e+00,7.616e+00,8.785e+00,1.118e+01,1.049e+01,8.791e+00,9.214e+00
3.648e-01,5.574e-01,8.029e-01,1.317e+00,1.368e+00,1.862e+00,2.477e+00,3.611e+00,3.872e+00,3.537e+00,3.746e+00,4.362e+00,4.380e+00,4.891e+00,3.100e+00,4.607e+00,5.748e+00,5.297e+00,6.854e+00,5.988e+00,6.608e+00,6.700e+00,7.620e+00,8.046e+00,7.894e+00,6.858e+00,8.093e+00,8.483e+00,9.518e+00,9.646e+00,9.450e+00,9.707e+00,7.949e+00,1.009e+01,9.075e+00,9.851e+00,1.007e+01,9.597e+00,1.063e+01,1.086e+01,1.048e+01,1.129e+01,1.062e+01,1.008e+01,9.030e+00,1.068e+01,9.678e+00,1.073e+01,1.230e+01,1.228e+01,1.085e+01,1.127e+01
5.068e-01,6.390e-01,6.511e-01,7.680e-01,8.682e-01,1.059e+00,1.320e+00,2.519e+00,2.754e+00,2.934e+00,2.282e+00,3.345e+00,3.702e+00,4.026e+00,2.578e+00,3.502e+00,4.448e+00,3.619e+00,4.405e+00,3.694e+00,5.185e+00,5.366e+00,5.481e+00,5.787e+00,6.105e+00,6.321e+00,6.726e+00,7.773e+00,8.100e+00,7.605e+00,8.934e+00,8.179e+00,7.263e+00,1.022e+01,8.686e+00,9.019e+00,9.642e+00,9.793e+00,9.038e+00,1.009e+01,9.721e+00,1.103e+01,1.133e+01,8.932e+00,8.715e+00,1.049e+01,8.208e+00,8.703e+00,1.158e+01,1.144e+01,9.980e+00,1.040e+01
5.945e-01,8.454e-01,9.700e-01,7.567e-01,1.187e+00,1.237e+00,1.685e+00,2.117e+00,2.143e+00,1.782e+00,2.006e+00,2.853e+00,2.813e+00,3.548e+00,2.819e+00,3.458e+00,4.694e+00,3.828e+00,4.465e+00,3.429e+00,4.735e+00,5.364e+00,4.680e+00,5.287e+00,6.011e+00,5.585e+00,5.705e+00,6.250e+00,7.089e+00,7.257e+00,7.755e+00,6.523e+00,6.185e+00,7.402e+00,6.511e+00,7.802e+00,8.307e+00,8.370e+00,6.981e+00,8.718e+00,7.585e+00,9.977e+00,1.047e+01,7.359e+00,7.712e+00,8.387e+00,6.887e+00,8.591e+00,9.833e+00,1.088e+01,8.387e+00,9.028e+00
5.025e-01,7.459e-01,1.127e+00,1.182e+00,1.366e+00,1.565e+00,2.290e+00,3.115e+00,2.998e+00,3.345e+00,4.045e+00,4.610e+00,4.657e+00,5.001e+00,3.898e+00,4.895e+00,5.609e+00,4.979e+00,6.296e+00,5.635e+00,6.691e+00,6.875e+00,6.445e+00,7.105e+00,8.033e+00,7.314e+00,7.604e+00,8.752e+00,8.527e+00,9.440e+00,9.678e+00,9.812e+00,8.685e+00,9.936e+00,8.039e+00,9.890e+00,1.203e+01,1.114e+01,9.881e+00,1.085e+01,1.130e+01,1.240e+01,1.226e+01,1.020e+01,9.519e+00,1.072e+01,8.447e+00,1.025e+01,1.262e+01,1.276e+01,1.068e+01,1.144e+01
5.800e-01,6.468e-01,6.331e-01,9.407e-01,1.076e+00,1.717e+00,1.979e+00,2.735e+00,2.396e+00,2.552e+00,3.074e+00,3.246e+00,3.856e+00,3.716e+00,2.927e+00,3.871e+00,4.856e+00,4.769e+00,6.198e+00,4.620e+00,6.204e+00,5.492e+00,5.376e+00,6.555e+00,6.345e+00,6.531e+00,7.198e+00,8.261e+00,8.651e+00,1.001e+01,8.016e+00,8.690e+00,7.052e+00,8.536e+00,7.386e+00,8.946e+00,1.072e+01,9.940e+00,1.008e+01,9.707e+00,1.076e+01,1.167e+01,1.099e+01,1.067e+01,9.304e+00,9.987e+00,9.168e+00,9.841e+00,1.218e+01,1.127e+01,1.115e+01,1.232e+01
3.502e-01,3.381e-01,2.295e-01,7.747e-01,5.377e-01,8.788e-01,1.075e+00,1.987e+00,2.190e+00,2.047e+00,2.229e+00,2.626e+00,3.074e+00,2.624e+00,1.953e+00,2.609e+00,3.276e+00,2.564e+00,3.267e+00,2.560e+00,3.908e+00,3.611e+00,4.174e+00,4.249e+00,4.155e+00,5.176e+00,4.947e+00,5.986e+00,7.203e+00,6.916e+00,6.453e+00,7.084e+00,5.352e+00,7.654e+00,5.908e+00,7.629e+00,8.539e+00,7.383e+00,8.101e+00,8.240e+00,8.582e+00,8.489e+00,8.692e+00,8.574e+00,6.560e+00,8.989e+00,6.848e+00,6.502e+00,9.882e+00,9.554e+00,9.154e+00,1.014e+01
3.967e-01,3.267e-01,2.285e-01,1.122e+00,6.474e-01,1.275e+00,1.310e+00,2.303e+00,2.284e+00,2.418e+00,2.666e+00,2.520e+00,3.468e+00,3.707e+00,3.263e+00,4.194e+00,5.897e+00,4.547e+00,6.792e+00,4.851e+00,6.703e+00,6.657e+00,6.571e+00,6.431e+00,7.553e+00,6.785e+00,7.207e+00,7.803e+00,8.302e+00,9.718e+00,9.398e+00,9.039e+00,8.380e+00,1.029e+01,8.453e+00,9.468e+00,1.035e+01,1.046e+01,9.924e+00,1.061e+01,1.146e+01,1.228e+01,1.263e+01,1.138e+01,9.764e+00,1.143e+01,9.132e+00,1.005e+01,1.325e+01,1.295e+01,1.163e+01,1.235e+01
1.591e-01,2.144e-01,3.737e-01,1.182e+00,9.110e-01,1.403e+00,1.917e+00,2.585e+00,3.184e+00,3.293e+00,3.607e+00,4.340e+00,3.550e+00,4.908e+00,3.568e+00,4.415e+00,5.393e+00,4.471e+00,6.089e+00,5.477e+00,6.530e+00,5.689e+00,6.704e+00,7.575e+00,8.308e+00,6.780e+00,7.415e+00,8.202e+00,9.159e+00,1.049e+01,9.075e+00,9.150e+00,8.129e+00,1.024e+01,8.608e+00,9.725e+00,1.168e+01,1.021e+01,1.072e+01,1.107e+01,1.118e+01,1.286e+01,1.368e+01,1.190e+01,9.931e+00,1.180e+01,1.033e+01,1.202e+01,1.342e+01,1.321e+01,1.306e+01,1.271e+01
5.138e-01,5.712e-01,6.660e-01,1.343e+00,1.101e+00,1.592e+00,2.153e+00,2.680e+00,3.054e+00,2.384e+00,3.346e+00,3.926e+00,3.385e+00,4.850e+00,3.448e+00,4.369e+00,6.041e+00,5.105e+00,6.010e+00,5.586e+00,7.143e+00,7.356e+00,7.509e+00,7.390e+00,8.458e+00,7.339e+00,7.652e+00,7.996e+00,8.656e+00,9.566e+00,9.015e+00,1.002e+01,8.711e+00,1.014e+01,8.552e+00,9.859e+00,1.140e+01,1.044e+01,1.058e+01,1.100e+01,1.150e+01,1.306e+01,1.289e+01,1.146e+01,9.932e+00,1.203e+01,1.064e+01,1.223e+01,1.201e+01,1.430e+01,1.176e+01,1.328e+01
6.678e-01,8.828e-01,1.124e+00,1.096e+00,1.266e+00,1.455e+00,2.288e+00,3.494e+00,3.205e+00,3.454e+00,4.148e+00,4.388e+00,5.011e+00,4.014e+00,3.898e+00,4.371e+00,5.766e+00,4.655e+00,5.687e+00,4.789e+00,5.137e+00,6.056e+00,5.156e+00,6.485e+00,6.952e+00,6.333e+00,6.621e+00,7.535e+00,7.048e+00,8.237e+00,7.973e+00,7.685e+00,7.295e+00,8.082e+00,7.124e+00,8.041e+00,9.384e+00,8.984e+00,8.499e+00,9.306e+00,9.167e+00,1.081e+01,1.128e+01,1.125e+01,1.035e+01,9.605e+00,9.324e+00,9.940e+00,1.206e+01,1.200e+01,1.122e+01,1.189e+01
7.977e-01,8.605e-01,7.158e-01,1.263e+00,1.127e+00,1.592e+00,2.034e+00,3.197e+00,3.673e+00,3.552e+00,3.364e+00,4.627e+00,4.546e+00,4.726e+00,3.343e+00,4.777e+00,5.714e+00,4.835e+00,5.283e+00,4.633e+00,6.105e+00,6.270e+00,6.245e+00,7.077e+00,7.597e+00,8.249e+00,8.074e+00,8.186e+00,8.667e+00,9.183e+00,9.979e+00,9.538e+00,8.337e+00,1.015e+01,8.536e+00,9.084e+00,1.050e+01,9.666e+00,9.681e+00,1.082e+01,1.072e+01,1.233e+01,1.255e+01,1.134e+01,9.773e+00,1.123e+01,1.045e+01,1.203e+01,1.303e+01,1.427e+01,1.213e+01,1.224e+01
2.030e-01,3.041e-01,4.709e-01,6.704e-01,6.636e-01,8.864e-01,1.315e+00,2.313e+00,2.222e+00,2.607e+00,2.514e+00,2.739e+00,3.364e+00,3.966e+00,2.368e+00,3.488e+00,5.388e+00,4.137e+00,5.881e+00,4.062e+00,5.472e+00,6.096e+00,5.870e+00,6.242e+00,7.373e+00,6.862e+00,6.556e+00,6.758e+00,8.621e+00,8.816e+00,7.965e+00,7.660e+00,7.112e+00,7.721e+00,7.288e+00,8.614e+00,9.420e+00,9.219e+00,8.972e+00,9.628e+00,1.095e+01,1.189e+01,1.228e+01,1.094e+01,1.015e+01,1.116e+01,1.007e+01,1.160e+01,1.299e+01,1.423e+01,1.172e+01,1.398e+01
2.361e-01,3.014e-01,2.939e-01,9.237e-01,7.550e-01,1.085e+00,1.339e+00,1.981e+00,2.710e+00,2.759e+00,2.798e+00,3.508e+00,3.326e+00,3.619e+00,2.839e+00,4.329e+00,5.025e+00,4.379e+00,5.104e+00,4.654e+00,4.934e+00,5.461e+00,5.276e+00,6.015e+00,6.295e+00,6.317e+00,7.219e+00,7.603e+00,7.739e+00,8.645e+00,8.188e+00,8.299e+00,7.259e+00,8.517e+00,8.525e+00,8.641e+00,9.350e+00,9.286e+00,9.408e+00,1.050e+01,1.008e+01,1.167e+01,1.167e+01,1.186e+01,1.012e+01,1.158e+01,1.160e+01,1.181e+01,1.313e+01,1.322e+01,1.234e+01,1.460e+01
3.081e-01,4.990e-01,8.879e-01,1.506e+00,1.171e+00,1.195e+00,1.446e+00,2.419e+00,2.374e+00,2.625e+00,3.066e+00,3.235e+00,3.699e+00,3.429e+00,3.177e+00,3.947e+00,5.713e+00,4.813e+00,5.114e+00,4.038e+00,5.798e+00,6.169e+00,5.135e+00,6.010e+00,6.818e+00,5.976e+00,6.770e+00,6.305e+00,7.805e+00,8.381e+00,7.009e+00,8.457e+00,6.982e+00,8.660e+00,7.679e+00,8.239e+00,9.800e+00,8.739e+00,9.422e+00,9.804e+00,1.025e+01,1.014e+01,1.169e+01,1.130e+01,9.502e+00,1.018e+01,9.818e+00,1.152e+01,1.282e+01,1.425e+01,1.138e+01,1.342e+01
3.580e-01,6.385e-01,9.553e-01,1.031e+00,1.408e+00,1.735e+00,2.413e+00,3.382e+00,3.454e+00,2.771e+00,2.923e+00,3.509e+00,3.475e+00,3.902e+00,3.185e+00,3.726e+00,3.839e+00,3.916e+00,5.495e+00,4.856e+00,4.346e+00,4.524e+00,5.413e+00,6.195e+00,6.345e+00,5.171e+00,6.607e+00,7.803e+00,7.515e+00,8.179e+00,8.249e+00,7.750e+00,6.971e+00,8.320e+00,7.400e+00,8.092e+00,9.350e+00,9.534e+00,8.867e+00,1.007e+01,1.112e+01,1.151e+01,1.126e+01,1.097e+01,9.618e+00,1.190e+01,1.112e+01,1.182e+01,1.357e+01,1.403e+01,1.322e+01,1.505e+01
3.198e-01,5.635e-01,9.859e-01,1.166e+00,1.224e+00,1.263e+00,1.699e+00,2.821e+00,2.707e+00,2.879e+00,2.965e+00,3.749e+00,4.040e+00,3.898e+00,2.308e+00,3.429e+00,3.743e+00,4.550e+00,4.921e+00,4.216e+00,5.233e+00,5.637e+00,5.385e+00,6.593e+00,6.862e+00,6.989e+00,7.676e+00,8.035e+00,8.894e+00,9.252e+00,9.043e+00,9.287e+00,7.194e+00,9.868e+00,8.172e+00,9.270e+00,1.024e+01,9.006e+00,1.029e+01,1.115e+01,1.017e+01,1.296e+01,1.216e+01,1.181e+01,1.025e+01,1.212e+01,1.103e+01,1.095e+01,1.342e+01,1.574e+01,1.358e+01,1.304e+01
8.243e-01,7.302e-01,3.957e-01,1.356e+00,1.019e+00,1.984e+00,2.347e+00,3.152e+00,3.318e+00,2.310e+00,3.574e+00,3.375e+00,4.042e+00,4.395e+00,3.913e+00,4.783e+00,5.641e+00,4.602e+00,5.615e+00,4.689e+00,5.204e+00,5.614e+00,6.289e+00,6.249e+00,7.520e+00,6.850e+00,6.884e+00,7.536e+00,8.574e+00,8.655e+00,8.498e+00,8.117e+00,7.936e+00,8.643e+00,7.083e+00,8.737e+00,1.049e+01,9.116e+00,8.865e+00,1.020e+01,1.087e+01,1.250e+01,1.270e+01,1.202e+01,9.569e+00,1.151e+01,1.171e+01,1.180e+01,1.339e+01,1.463e+01,1.404e+01,1.489e+01
3.358e-01,5.124e-01,6.281e-01,4.707e-01,9.073e-01,1.177e+00,1.467e+00,1.998e+00,2.061e+00,2.508e+00,2.719e+00,3.264e+00,3.741e+00,4.277e+00,2.555e+00,4.210e+00,4.826e+00,4.604e+00,4.611e+00,4.185e+00,5.178e+00,5.536e+00,5.242e+00,6.025e+00,6.239e+00,6.442e+00,6.943e+00,7.712e+00,8.437e+00,8.701e+00,8.853e+00,8.668e+00,7.115e+00,8.269e+00,7.813e+00,9.078e+00,9.599e+00,8.544e+00,8.828e+00,1.118e+01,9.494e+00,1.252e+01,1.250e+01,1.097e+01,1.005e+01,1.202e+01,1.104e+01,1.235e+01,1.377e+01,1.650e+01,1.357e+01,1.510e+01
