5.439e-01,1.963e-01,5.854e-01,8.970e-01,3.156e-01,8.997e-01,9.416e-02,9.797e-01,2.549e-02,6.806e-01,6.848e-01,6.387e-01,2.720e-01,2.639e-01,5.927e-01,3.737e-01,6.062e-01,7.690e-01,9.808e-01,3.192e-01,6.239e-01,7.051e-01,5.837e-01,5.319e-01,9.419e-02,5.511e-02,8.962e-01,8.339e-01,3.961e-01,7.818e-01,5.574e-02,7.132e-01,1.191e-02,1.753e-01,4.252e-02,7.589e-01,5.658e-01,6.819e-01,6.781e-01,8.746e-01,5.474e-01,5.456e-01,9.607e-01,6.666e-01,5.320e-01,6.282e-01,2.750e-01,1.728e-01,9.911e-01,2.555e-01,2.573e-01,5.774e-01,3.357e-01
1.212e-01,7.778e-01,6.218e-01,8.703e-01,1.020e+00,2.133e-01,9.849e-01,8.771e-01,4.095e-01,1.724e-01,1.150e+00,6.050e-01,6.833e-01,2.180e-01,3.784e-01,4.924e-01,7.959e-01,7.834e-01,9.945e-01,3.052e-01,3.215e-01,3.316e-01,9.811e-01,4.306e-01,8.307e-01,9.658e-01,5.297e-01,8.329e-01,9.022e-02,7.529e-01,4.682e-02,8.160e-01,8.634e-01,7.853e-01,1.696e-01,9.396e-01,3.673e-01,7.881e-01,1.695e-01,1.134e+00,3.201e-01,8.388e-01,1.120e+00,1.731e-01,9.859e-01,7.478e-01,7.960e-01,4.175e-01,7.482e-01,8.034e-01,5.808e-01,4.482e-01,4.812e-01
4.123e-01,7.214e-01,1.471e+00,2.045e+00,1.340e+00,9.823e-01,1.676e+00,2.193e+00,4.031e-01,1.350e+00,1.592e+00,9.506e-01,1.160e+00,1.059e+00,1.511e+00,1.512e+00,1.689e+00,1.790e+00,1.364e+00,9.436e-01,8.472e-01,1.490e+00,1.479e+00,1.296e+00,1.497e+00,8.242e-01,9.449e-01,1.914e+00,3.114e-01,1.983e+00,1.011e+00,1.164e+00,8.392e-01,8.840e-01,4.100e-01,2.105e+00,6.202e-01,1.819e+00,1.319e+00,1.756e+00,9.843e-01,1.200e+00,1.888e+00,9.788e-01,1.841e+00,1.624e+00,1.247e+00,1.103e+00,1.833e+00,1.122e+00,1.202e+00,1.217e+00,7.455e-01
4.341e-01,7.696e-01,1.239e+00,2.621e+00,1.965e+00,1.806e+00,1.680e+00,2.047e+00,1.161e+00,1.750e+00,2.214e+00,1.562e+00,1.761e+00,1.592e+00,2.104e+00,1.465e+00,1.771e+00,2.431e+00,1.970e+00,1.239e+00,1.538e+00,1.765e+00,1.881e+00,1.481e+00,1.752e+00,1.390e+00,1.421e+00,2.231e+00,9.708e-01,1.936e+00,1.184e+00,2.033e+00,1.453e+00,1.782e+00,4.142e-01,2.337e+00,1.098e+00,1.738e+00,1.380e+00,1.721e+00,8.493e-01,1.314e+00,1.963e+00,1.166e+00,2.379e+00,2.251e+00,1.571e+00,1.711e+00,2.200e+00,2.007e+00,1.888e+00,1.506e+00,1.002e+00
2.919e-01,7.715e-01,1.250e+00,2.593e+00,2.110e+00,2.066e+00,2.123e+00,2.918e+00,1.382e+00,2.436e+00,2.180e+00,2.377e+00,2.712e+00,1.677e+00,2.253e+00,2.353e+00,2.265e+00,2.474e+00,1.799e+00,1.989e+00,1.609e+00,2.345e+00,2.155e+00,2.237e+00,2.313e+00,1.761e+00,1.363e+00,2.372e+00,9.143e-01,2.563e+00,2.079e+00,2.813e+00,1.791e+00,1.973e+00,7.322e-01,2.700e+00,1.670e+00,2.209e+00,1.609e+00,1.960e+00,1.272e+00,2.222e+00,2.862e+00,1.606e+00,3.259e+00,2.787e+00,2.228e+00,2.404e+00,2.934e+00,2.523e+00,2.306e+00,1.575e+00,1.373e+00
8.088e-03,2.286e-01,4.465e-01,8.259e-01,6.677e-01,7.036e-01,1.222e+00,1.293e+00,8.400e-01,1.601e+00,7.128e-01,9.632e-01,1.370e+00,8.577e-01,1.184e+00,1.694e+00,8.342e-01,1.017e+00,6.232e-01,1.251e+00,5.273e-01,7.415e-01,1.504e+00,1.279e+00,1.684e+00,1.174e+00,1.064e+00,1.185e+00,5.906e-01,1.208e+00,1.570e+00,9.311e-01,7.325e-01,7.767e-01,8.636e-01,1.563e+00,1.112e+00,1.596e+00,9.490e-01,1.364e+00,4.307e-01,1.257e+00,7.742e-01,6.774e-01,1.632e+00,1.511e+00,1.101e+00,1.009e+00,1.571e+00,9.289e-01,1.401e+00,8.174e-01,1.194e+00
4.680e-01,5.026e-01,8.105e-01,1.240e+00,8.123e-01,1.008e+00,9.925e-01,2.144e+00,1.098e+00,1.833e+00,1.364e+00,1.625e+00,1.289e+00,1.488e+00,1.591e+00,1.679e+00,1.203e+00,1.956e+00,1.848e+00,1.178e+00,7.891e-01,1.662e+00,1.580e+00,1.081e+00,1.300e+00,1.072e+00,2.092e+00,1.599e+00,8.714e-01,2.274e+00,8.919e-01,1.774e+00,1.251e+00,6.737e-01,1.011e+00,2.305e+00,1.487e+00,1.614e+00,1.327e+00,2.236e+00,7.865e-01,1.667e+00,1.994e+00,1.037e+00,2.180e+00,1.483e+00,1.559e+00,9.962e-01,1.560e+00,1.608e+00,1.729e+00,1.229e+00,1.046e+00
5.975e-02,2.570e-01,4.986e-01,1.178e+00,9.339e-01,9.093e-01,1.125e+00,2.398e+00,2.074e+00,2.246e+00,1.715e+00,1.874e+00,2.150e+00,1.841e+00,1.825e+00,1.649e+00,1.279e+00,1.842e+00,1.347e+00,1.328e+00,1.552e+00,2.199e+00,1.399e+00,1.912e+00,1.617e+00,1.279e+00,2.100e+00,1.760e+00,1.447e+00,2.158e+00,1.723e+00,2.005e+00,1.718e+00,1.069e+00,1.214e+00,2.844e+00,1.543e+00,1.421e+00,1.693e+00,1.970e+00,9.473e-01,1.887e+00,2.204e+00,1.037e+00,2.878e+00,1.789e+00,2.043e+00,1.433e+00,2.157e+00,1.977e+00,2.711e+00,1.345e+00,8.530e-01
3.154e-01,7.186e-01,8.011e-01,1.912e+00,1.694e+00,1.694e+00,1.487e+00,2.725e+00,2.320e+00,2.515e+00,2.932e+00,2.621e+00,2.814e+00,2.021e+00,2.795e+00,2.716e+00,2.145e+00,3.058e+00,2.630e+00,1.701e+00,2.299e+00,2.464e+00,2.525e+00,2.479e+00,2.722e+00,2.625e+00,3.134e+00,2.457e+00,2.158e+00,3.366e+00,1.947e+00,2.885e+00,2.230e+00,2.289e+00,1.505e+00,3.567e+00,2.500e+00,1.946e+00,2.372e+00,3.313e+00,1.872e+00,2.652e+00,3.025e+00,2.126e+00,3.276e+00,2.855e+00,3.077e+00,1.875e+00,3.522e+00,2.998e+00,2.703e+00,2.296e+00,2.171e+00
1.115e-01,5.438e-01,8.009e-01,1.893e+00,1.613e+00,1.620e+00,1.941e+00,2.179e+00,1.670e+00,3.440e+00,2.889e+00,2.001e+00,3.401e+00,2.002e+00,2.563e+00,3.260e+00,1.967e+00,3.292e+00,1.766e+00,2.006e+00,2.197e+00,2.029e+00,2.554e+00,3.158e+00,3.246e+00,2.745e+00,2.861e+00,2.259e+00,2.223e+00,2.520e+00,3.258e+00,2.840e+00,1.870e+00,2.050e+00,1.510e+00,3.145e+00,2.034e+00,2.909e+00,2.281e+00,2.418e+00,1.676e+00,2.819e+00,1.860e+00,1.657e+00,3.858e+00,3.759e+00,2.272e+00,2.145e+00,3.747e+00,2.892e+00,2.782e+00,2.684e+00,2.409e+00
2.174e-01,3.700e-01,1.012e+00,1.910e+00,1.263e+00,1.228e+00,1.478e+00,1.799e+00,1.214e+00,2.408e+00,3.228e+00,1.710e+00,2.323e+00,2.000e+00,3.497e+00,2.801e+00,2.641e+00,3.238e+00,2.099e+00,1.592e+00,2.058e+00,2.305e+00,2.505e+00,3.176e+00,3.571e+00,2.075e+00,2.785e+00,2.928e+00,1.961e+00,3.369e+00,2.702e+00,2.169e+00,2.056e+00,2.101e+00,1.280e+00,3.572e+00,1.951e+00,2.088e+00,3.104e+00,2.415e+00,2.071e+00,2.563e+00,1.666e+00,1.807e+00,2.906e+00,3.242e+00,2.950e+00,1.838e+00,3.328e+00,2.363e+00,2.695e+00,3.032e+00,2.458e+00
2.752e-01,1.543e-01,6.900e-01,1.760e+00,1.119e+00,1.739e+00,1.222e+00,2.501e+00,2.029e+00,3.027e+00,2.441e+00,3.076e+00,2.722e+00,2.555e+00,3.853e+00,2.835e+00,1.962e+00,3.424e+00,2.865e+00,2.634e+00,2.547e+00,2.569e+00,2.605e+00,3.263e+00,2.718e+00,2.743e+00,3.348e+00,2.789e+00,2.480e+00,3.828e+00,3.162e+00,2.826e+00,1.881e+00,1.783e+00,1.473e+00,3.722e+00,2.505e+00,2.624e+00,2.910e+00,3.134e+00,2.399e+00,2.421e+00,2.479e+00,2.443e+00,3.540e+00,3.854e+00,3.210e+00,2.292e+00,4.273e+00,3.143e+00,2.951e+00,3.223e+00,2.639e+00
4.874e-01,4.840e-01,7.335e-01,1.125e+00,7.689e-01,1.166e+00,7.737e-01,2.698e+00,1.437e+00,2.445e+00,2.696e+00,3.187e+00,3.285e+00,2.005e+00,3.316e+00,2.440e+00,2.456e+00,3.117e+00,3.090e+00,2.968e+00,2.947e+00,3.323e+00,3.299e+00,3.792e+00,2.966e+00,2.443e+00,3.960e+00,2.816e+00,2.610e+00,4.266e+00,3.142e+00,3.274e+00,2.695e+00,1.150e+00,1.935e+00,3.609e+00,2.787e+00,3.358e+00,2.636e+00,3.824e+00,3.181e+00,4.131e+00,3.965e+00,2.633e+00,4.494e+00,3.455e+00,3.160e+00,2.336e+00,4.151e+00,2.726e+00,3.122e+00,3.869e+00,2.822e+00
2.596e-01,5.961e-01,7.659e-01,1.155e+00,1.017e+00,1.045e+00,1.439e+00,3.026e+00,1.864e+00,3.017e+00,2.549e+00,3.147e+00,3.527e+00,2.775e+00,3.783e+00,3.897e+00,2.286e+00,3.553e+00,3.517e+00,3.023e+00,3.389e+00,3.457e+00,3.347e+00,3.753e+00,3.137e+00,3.611e+00,4.487e+00,3.320e+00,3.150e+00,4.528e+00,4.073e+00,3.900e+00,3.107e+00,1.531e+00,3.044e+00,4.521e+00,3.310e+00,3.672e+00,2.823e+00,4.558e+00,3.506e+00,4.181e+00,4.107e+00,3.237e+00,5.464e+00,4.441e+00,3.762e+00,3.128e+00,5.072e+00,4.049e+00,3.698e+00,3.917e+00,3.461e+00
3.431e-01,3.489e-01,8.122e-01,1.974e+00,1.405e+00,1.963e+00,1.464e+00,3.223e+00,2.483e+00,3.510e+00,2.891e+00,3.289e+00,3.314e+00,2.982e+00,4.859e+00,3.820e+00,3.215e+00,4.009e+00,3.720e+00,3.276e+00,3.597e+00,3.506e+00,3.771e+00,4.257e+00,3.180e+00,3.099e+00,4.134e+00,3.336e+00,3.555e+00,4.908e+00,4.053e+00,4.046e+00,2.952e+00,2.203e+00,2.847e+00,5.352e+00,3.975e+00,3.333e+00,3.842e+00,4.026e+00,2.802e+00,3.952e+00,3.455e+00,3.544e+00,5.376e+00,4.487e+00,3.819e+00,3.571e+00,4.949e+00,4.367e+00,4.166e+00,3.688e+00,2.838e+00
2.356e-01,3.701e-01,6.162e-01,1.680e+00,1.326e+00,1.717e+00,1.359e+00,2.845e+00,2.334e+00,3.683e+00,3.410e+00,3.611e+00,3.947e+00,3.169e+00,4.883e+00,4.871e+00,3.404e+00,4.802e+00,4.656e+00,4.091e+00,4.673e+00,3.862e+00,3.672e+00,5.607e+00,4.316e+00,4.151e+00,5.463e+00,4.893e+00,4.304e+00,4.817e+00,5.261e+00,5.108e+00,4.390e+00,2.980e+00,3.103e+00,6.255e+00,3.919e+00,3.789e+00,4.511e+00,4.528e+00,4.279e+00,4.706e+00,3.837e+00,3.955e+00,6.354e+00,5.665e+00,4.258e+00,4.251e+00,6.239e+00,5.383e+00,4.662e+00,5.388e+00,4.200e+00
3.093e-01,4.831e-01,6.306e-01,1.283e+00,1.071e+00,1.335e+00,1.056e+00,2.734e+00,2.005e+00,2.410e+00,2.720e+00,3.075e+00,3.295e+00,2.457e+00,3.897e+00,3.798e+00,3.230e+00,3.585e+00,4.064e+00,3.356e+00,3.647e+00,4.233e+00,4.114e+00,4.571e+00,4.820e+00,3.313e+00,5.209e+00,4.748e+00,3.211e+00,4.930e+00,3.959e+00,3.869e+00,4.496e+00,2.732e+00,3.368e+00,5.117e+00,4.281e+00,3.666e+00,4.063e+00,4.886e+00,4.133e+00,4.389e+00,5.063e+00,4.452e+00,5.486e+00,4.069e+00,4.455e+00,4.075e+00,5.647e+00,4.271e+00,4.206e+00,4.435e+00,3.711e+00
2.056e-01,1.423e-01,8.184e-01,1.207e+00,6.095e-01,8.991e-01,1.226e+00,2.234e+00,1.115e+00,3.008e+00,2.622e+00,2.389e+00,3.080e+00,2.583e+00,4.239e+00,3.510e+00,3.023e+00,4.179e+00,3.154e+00,3.471e+00,3.778e+00,4.351e+00,4.364e+00,5.277e+00,4.619e+00,2.850e+00,4.713e+00,4.209e+00,3.282e+00,4.722e+00,4.547e+00,3.130e+00,4.101e+00,1.827e+00,3.001e+00,4.517e+00,3.848e+00,4.546e+00,4.009e+00,3.801e+00,4.224e+00,4.347e+00,4.042e+00,3.832e+00,5.941e+00,4.589e+00,4.394e+00,4.010e+00,5.307e+00,3.518e+00,3.900e+00,5.092e+00,3.691e+00
2.792e-01,3.017e-01,8.112e-01,1.355e+00,8.940e-01,1.418e+00,1.549e+00,3.186e+00,1.803e+00,3.666e+00,2.768e+00,3.651e+00,4.025e+00,3.085e+00,5.349e+00,5.084e+00,4.199e+00,4.652e+00,4.737e+00,5.231e+00,4.672e+00,5.015e+00,5.929e+00,6.081e+00,5.770e+00,3.869e+00,6.134e+00,5.248e+00,3.844e+00,6.166e+00,5.738e+00,5.349e+00,5.423e+00,2.841e+00,4.243e+00,6.531e+00,4.834e+00,5.909e+00,5.137e+00,5.571e+00,4.398e+00,6.075e+00,4.478e+00,4.659e+00,7.824e+00,6.028e+00,5.140e+00,5.635e+00,6.054e+00,5.425e+00,5.563e+00,6.698e+00,5.228e+00
5.010e-01,3.577e-01,9.200e-01,2.196e+00,1.464e+00,2.278e+00,1.291e+00,2.752e+00,1.714e+00,3.282e+00,3.306e+00,3.103e+00,3.473e+00,2.915e+00,5.043e+00,4.399e+00,3.853e+00,4.836e+00,4.537e+00,4.631e+00,5.867e+00,5.522e+00,5.982e+00,5.819e+00,5.631e+00,4.637e+00,6.090e+00,5.790e+00,4.404e+00,5.349e+00,5.618e+00,5.194e+00,6.035e+00,3.877e+00,3.721e+00,5.632e+00,5.638e+00,5.524e+00,4.920e+00,5.568e+00,4.810e+00,5.854e+00,5.383e+00,5.336e+00,7.296e+00,6.093e+00,6.266e+00,5.468e+00,7.489e+00,5.683e+00,5.278e+00,5.666e+00,4.649e+00
1.202e-01,2.941e-01,7.235e-01,1.666e+00,1.254e+00,1.609e+00,1.749e+00,2.963e+00,2.319e+00,3.636e+00,2.606e+00,3.222e+00,3.684e+00,2.901e+00,4.391e+00,3.976e+00,2.630e+00,3.774e+00,3.447e+00,4.358e+00,5.281e+00,4.257e+00,5.321e+00,5.493e+00,4.813e+00,4.704e+00,5.830e+00,4.740e+00,4.486e+00,5.565e+00,6.182e+00,4.454e+00,4.453e+00,3.499e+00,3.487e+00,5.248e+00,4.985e+00,5.443e+00,4.482e+00,5.247e+00,3.173e+00,5.642e+00,4.019e+00,4.380e+00,6.781e+00,6.497e+00,5.144e+00,5.063e+00,6.463e+00,5.000e+00,5.917e+00,4.833e+00,4.820e+00
1.659e-01,7.292e-01,1.066e+00,1.987e+00,1.724e+00,1.600e+00,2.301e+00,3.204e+00,2.086e+00,3.637e+00,3.327e+00,3.733e+00,4.031e+00,3.161e+00,5.127e+00,4.943e+00,3.661e+00,4.846e+00,4.549e+00,4.786e+00,4.514e+00,4.907e+00,5.948e+00,6.418e+00,6.470e+00,5.179e+00,5.874e+00,6.012e+00,4.347e+00,6.859e+00,6.489e+00,5.613e+00,5.361e+00,3.798e+00,3.962e+00,6.856e+00,5.277e+00,6.175e+00,4.668e+00,6.669e+00,4.826e+00,6.333e+00,5.165e+00,4.621e+00,8.118e+00,6.584e+00,6.053e+00,5.716e+00,7.506e+00,6.539e+00,5.706e+00,6.491e+00,5.619e+00
1.617e-01,2.971e-01,4.161e-01,6.266e-01,5.063e-01,5.486e-01,6.940e-01,1.674e+00,1.370e+00,1.634e+00,1.895e+00,1.452e+00,1.854e+00,1.581e+00,3.408e+00,3.519e+00,2.698e+00,2.706e+00,3.606e+00,3.272e+00,5.622e+00,3.710e+00,5.709e+00,5.613e+00,4.355e+00,4.882e+00,6.101e+00,5.393e+00,4.918e+00,5.213e+00,4.935e+00,4.741e+00,5.690e+00,3.904e+00,4.596e+00,5.719e+00,5.485e+00,4.859e+00,5.403e+00,5.872e+00,3.714e+00,5.732e+00,3.960e+00,4.794e+00,6.089e+00,5.353e+00,5.391e+00,5.690e+00,6.402e+00,5.468e+00,4.914e+00,5.003e+00,5.397e+00
4.518e-01,3.852e-01,8.599e-01,1.699e+00,1.075e+00,1.540e+00,1.147e+00,2.738e+00,1.901e+00,2.962e+00,2.859e+00,3.015e+00,2.830e+00,2.774e+00,4.869e+00,4.093e+00,3.421e+00,4.542e+00,5.256e+00,4.558e+00,6.226e+00,5.617e+00,6.551e+00,7.333e+00,6.482e+00,5.405e+00,7.649e+00,7.750e+00,6.293e+00,7.319e+00,6.329e+00,6.457e+00,7.252e+00,4.718e+00,5.534e+00,8.223e+00,6.636e+00,6.965e+00,5.699e+00,7.707e+00,6.326e+00,7.192e+00,6.306e+00,6.047e+00,9.181e+00,7.396e+00,7.159e+00,7.359e+00,9.180e+00,7.890e+00,6.076e+00,7.724e+00,6.769e+00
4.795e-01,7.747e-01,1.165e+00,2.342e+00,1.760e+00,1.740e+00,1.670e+00,2.568e+00,1.960e+00,2.909e+00,3.715e+00,2.635e+00,3.111e+00,2.980e+00,4.778e+00,4.339e+00,3.321e+00,4.948e+00,4.653e+00,3.157e+00,4.711e+00,4.202e+00,4.696e+00,5.273e+00,6.263e+00,5.096e+00,6.274e+00,6.624e+00,5.383e+00,6.867e+00,5.071e+00,4.749e+00,5.281e+00,4.655e+00,4.489e+00,7.360e+00,5.418e+00,5.399e+00,5.031e+00,6.277e+00,5.222e+00,6.004e+00,5.267e+00,5.203e+00,6.597e+00,5.610e+00,5.830e+00,5.416e+00,7.335e+00,5.819e+00,5.104e+00,5.913e+00,5.498e+00
2.060e-01,3.924e-01,5.628e-01,1.470e+00,1.189e+00,1.376e+00,1.316e+00,2.113e+00,1.748e+00,2.772e+00,2.396e+00,2.353e+00,3.266e+00,3.054e+00,4.821e+00,4.269e+00,3.540e+00,4.407e+00,4.447e+00,4.147e+00,5.668e+00,5.750e+00,6.303e+00,6.887e+00,6.506e+00,4.223e+00,7.534e+00,7.802e+00,6.853e+00,7.968e+00,6.690e+00,6.670e+00,7.357e+00,5.229e+00,6.539e+00,8.264e+00,7.252e+00,6.459e+00,5.812e+00,7.158e+00,6.233e+00,7.236e+00,5.886e+00,5.956e+00,9.674e+00,7.184e+00,5.858e+00,8.638e+00,7.553e+00,7.647e+00,7.091e+00,7.972e+00,6.818e+00
6.533e-02,6.771e-01,8.574e-01,1.382e+00,1.307e+00,9.211e-01,2.058e+00,3.285e+00,2.636e+00,3.884e+00,3.670e+00,3.289e+00,3.920e+00,3.134e+00,5.144e+00,5.437e+00,3.886e+00,5.244e+00,4.835e+00,4.466e+00,5.919e+00,5.219e+00,6.396e+00,8.405e+00,7.376e+00,6.357e+00,8.219e+00,8.437e+00,8.033e+00,9.472e+00,7.745e+00,7.057e+00,7.937e+00,6.372e+00,6.693e+00,9.498e+00,8.679e+00,7.691e+00,7.326e+00,8.010e+00,6.363e+00,8.698e+00,6.520e+00,6.976e+00,1.026e+01,7.844e+00,7.677e+00,7.909e+00,9.471e+00,8.014e+00,8.073e+00,7.471e+00,7.648e+00
4.547e-01,6.642e-01,1.407e+00,2.237e+00,1.514e+00,1.696e+00,2.180e+00,3.780e+00,2.173e+00,3.905e+00,3.396e+00,3.106e+00,4.084e+00,3.745e+00,5.153e+00,5.313e+00,3.759e+00,5.016e+00,4.403e+00,4.348e+00,5.366e+00,6.219e+00,6.515e+00,6.396e+00,7.391e+00,5.024e+00,8.090e+00,8.650e+00,7.293e+00,9.899e+00,7.860e+00,7.306e+00,7.557e+00,6.451e+00,6.480e+00,9.102e+00,7.816e+00,7.809e+00,7.129e+00,8.880e+00,6.733e+00,8.520e+00,7.079e+00,6.831e+00,1.028e+01,8.515e+00,6.977e+00,8.066e+00,8.523e+00,8.062e+00,8.588e+00,8.346e+00,7.880e+00
2.880e-01,3.263e-01,8.254e-01,1.185e+00,7.656e-01,1.113e+00,1.246e+00,2.756e+00,1.155e+00,2.498e+00,1.641e+00,2.344e+00,2.378e+00,1.698e+00,3.204e+00,3.429e+00,3.205e+00,3.101e+00,3.276e+00,4.093e+00,4.039e+00,4.267e+00,5.157e+00,6.149e+00,5.910e+00,4.176e+00,5.567e+00,7.203e+00,6.886e+00,7.856e+00,6.887e+00,6.337e+00,7.495e+00,5.569e+00,5.610e+00,8.469e+00,7.919e+00,7.503e+00,6.462e+00,7.157e+00,5.685e+00,8.382e+00,6.479e+00,6.210e+00,8.743e+00,7.178e+00,6.460e+00,7.500e+00,7.822e+00,7.085e+00,6.478e+00,6.138e+00,5.842e+00
4.298e-01,3.045e-01,1.077e+00,2.335e+00,1.446e+00,2.053e+00,1.542e+00,3.338e+00,2.195e+00,3.768e+00,2.939e+00,2.596e+00,3.334e+00,2.940e+00,3.902e+00,4.004e+00,3.042e+00,4.483e+00,3.805e+00,3.964e+00,5.869e+00,5.761e+00,5.605e+00,6.587e+00,5.735e+00,4.865e+00,6.991e+00,8.329e+00,7.814e+00,8.356e+00,8.018e+00,8.854e+00,9.085e+00,6.959e+00,6.756e+00,9.097e+00,8.125e+00,7.925e+00,7.534e+00,8.458e+00,6.849e+00,7.687e+00,6.902e+00,6.436e+00,1.027e+01,9.131e+00,7.733e+00,8.740e+00,9.755e+00,9.456e+00,8.209e+00,8.157e+00,7.278e+00
2.404e-01,3.574e-01,9.251e-01,2.106e+00,1.450e+00,1.594e+00,1.521e+00,2.579e+00,2.044e+00,2.817e+00,2.539e+00,2.289e+00,3.283e+00,3.081e+00,4.210e+00,3.209e+00,2.644e+00,3.729e+00,3.114e+00,3.334e+00,4.845e+00,4.580e+00,4.385e+00,5.045e+00,5.271e+00,3.805e+00,5.402e+00,6.149e+00,6.076e+00,7.068e+00,7.109e+00,4.789e+00,5.779e+00,5.071e+00,4.930e+00,7.221e+00,6.390e+00,6.163e+00,5.878e+00,6.251e+00,4.486e+00,6.608e+00,6.136e+00,6.386e+00,7.254e+00,6.198e+00,4.958e+00,7.024e+00,6.587e+00,5.933e+00,7.425e+00,5.871e+00,5.364e+00
1.818e-01,3.254e-01,7.501e-01,1.624e+00,1.181e+00,1.398e+00,1.526e+00,2.974e+00,2.405e+00,3.610e+00,2.989e+00,2.652e+00,3.588e+00,3.207e+00,4.886e+00,4.975e+00,3.537e+00,4.788e+00,4.488e+00,4.074e+00,6.568e+00,5.615e+00,5.670e+00,7.114e+00,5.627e+00,4.555e+00,7.259e+00,6.807e+00,7.016e+00,7.565e+00,7.728e+00,7.161e+00,8.172e+00,6.083e+00,6.832e+00,9.680e+00,7.758e+00,6.750e+00,7.103e+00,7.975e+00,5.835e+00,7.534e+00,6.803e+00,7.159e+00,9.466e+00,8.686e+00,6.859e+00,8.326e+00,8.745e+00,8.718e+00,8.312e+00,8.276e+00,7.326e+00
3.016e-03,5.633e-02,3.982e-01,1.333e+00,9.728e-01,1.222e+00,1.052e+00,1.782e+00,1.671e+00,2.230e+00,1.706e+00,1.843e+00,2.581e+00,2.258e+00,3.210e+00,2.818e+00,2.283e+00,2.820e+00,2.326e+00,2.842e+00,3.633e+00,3.693e+00,3.331e+00,4.877e+00,5.220e+00,3.136e+00,5.063e+00,6.742e+00,6.938e+00,7.752e+00,7.118e+00,6.030e+00,6.977e+00,6.612e+00,6.334e+00,8.384e+00,7.889e+00,5.763e+00,6.456e+00,7.009e+00,6.282e+00,7.063e+00,5.569e+00,6.032e+00,7.840e+00,7.884e+00,5.477e+00,8.381e+00,6.753e+00,7.833e+00,7.216e+00,6.654e+00,6.239e+00
2.111e-01,6.722e-01,6.594e-01,1.524e+00,1.452e+00,1.452e+00,1.675e+00,2.510e+00,1.943e+00,2.629e+00,2.681e+00,3.254e+00,3.581e+00,2.446e+00,4.330e+00,3.562e+00,3.401e+00,3.561e+00,3.978e+00,4.907e+00,5.011e+00,4.701e+00,7.048e+00,6.250e+00,7.493e+00,5.636e+00,6.898e+00,7.280e+00,6.532e+00,8.810e+00,7.730e+00,7.726e+00,9.907e+00,8.188e+00,8.261e+00,8.918e+00,9.413e+00,9.023e+00,6.898e+00,9.035e+00,5.851e+00,9.968e+00,7.770e+00,7.388e+00,9.849e+00,8.515e+00,9.068e+00,1.004e+01,8.731e+00,9.727e+00,8.950e+00,8.224e+00,9.021e+00
1.048e-01,5.073e-01,9.488e-01,2.072e+00,1.624e+00,1.370e+00,1.782e+00,2.706e+00,2.233e+00,2.562e+00,2.584e+00,2.384e+00,2.681e+00,2.743e+00,3.954e+00,3.592e+00,2.790e+00,3.789e+00,3.940e+00,2.995e+00,5.391e+00,4.628e+00,4.903e+00,6.122e+00,5.750e+00,5.017e+00,7.009e+00,8.414e+00,7.375e+00,8.135e+00,7.459e+00,7.330e+00,9.084e+00,7.857e+00,7.936e+00,1.090e+01,9.616e+00,7.200e+00,8.457e+00,8.395e+00,7.077e+00,7.950e+00,7.859e+00,8.392e+00,8.903e+00,9.740e+00,7.868e+00,1.089e+01,1.004e+01,9.868e+00,8.905e+00,8.493e+00,8.584e+00
2.938e-01,2.056e-01,5.396e-01,1.124e+00,7.541e-01,1.484e+00,1.177e+00,2.583e+00,1.717e+00,3.285e+00,2.345e+00,3.330e+00,3.567e+00,3.240e+00,5.367e+00,5.129e+00,3.592e+00,4.593e+00,4.799e+00,5.204e+00,5.310e+00,5.315e+00,6.738e+00,7.428e+00,7.219e+00,5.968e+00,7.886e+00,8.548e+00,8.432e+00,9.753e+00,9.266e+00,8.244e+00,9.932e+00,7.715e+00,8.994e+00,1.110e+01,1.226e+01,9.596e+00,9.607e+00,1.048e+01,9.097e+00,1.087e+01,8.835e+00,1.012e+01,1.171e+01,1.024e+01,9.766e+00,1.177e+01,1.144e+01,1.144e+01,9.430e+00,1.024e+01,1.025e+01
2.419e-01,7.498e-01,1.029e+00,1.747e+00,1.508e+00,1.328e+00,1.930e+00,3.073e+00,2.115e+00,3.415e+00,3.683e+00,3.410e+00,3.930e+00,3.116e+00,4.826e+00,4.985e+00,3.382e+00,5.245e+00,4.594e+00,3.827e+00,5.134e+00,5.006e+00,5.838e+00,7.033e+00,7.022e+00,6.145e+00,7.717e+00,7.831e+00,7.343e+00,9.335e+00,7.594e+00,7.434e+00,8.420e+00,7.539e+00,7.960e+00,1.066e+01,1.018e+01,8.485e+00,8.733e+00,1.073e+01,9.132e+00,9.958e+00,8.428e+00,7.875e+00,1.117e+01,9.977e+00,1.007e+01,1.083e+01,1.056e+01,1.125e+01,7.751e+00,1.084e+01,9.671e+00
2.103e-01,7.513e-01,1.075e+00,1.892e+00,1.631e+00,1.501e+00,2.131e+00,3.486e+00,2.193e+00,3.409e+00,3.373e+00,3.156e+00,3.982e+00,2.591e+00,4.588e+00,5.175e+00,4.403e+00,4.347e+00,4.725e+00,4.972e+00,5.737e+00,5.380e+00,6.510e+00,7.804e+00,8.143e+00,6.039e+00,7.651e+00,9.136e+00,7.288e+00,8.633e+00,8.869e+00,7.977e+00,1.020e+01,7.951e+00,8.797e+00,1.251e+01,1.201e+01,9.874e+00,9.397e+00,1.084e+01,9.638e+00,1.205e+01,9.507e+00,9.225e+00,1.281e+01,1.162e+01,1.127e+01,1.213e+01,1.295e+01,1.232e+01,1.028e+01,1.014e+01,1.013e+01
5.887e-02,6.298e-01,6.703e-01,1.652e+00,1.574e+00,1.137e+00,1.505e+00,1.772e+00,1.463e+00,1.871e+00,2.407e+00,2.615e+00,3.041e+00,2.538e+00,4.500e+00,2.677e+00,3.236e+00,3.906e+00,3.939e+00,4.431e+00,5.163e+00,5.063e+00,6.775e+00,6.418e+00,6.440e+00,4.950e+00,5.952e+00,7.100e+00,6.371e+00,8.300e+00,7.485e+00,6.992e+00,8.979e+00,7.627e+00,7.265e+00,9.510e+00,1.004e+01,9.041e+00,8.165e+00,9.776e+00,8.605e+00,1.042e+01,9.079e+00,9.037e+00,1.199e+01,1.060e+01,9.825e+00,1.251e+01,9.994e+00,1.170e+01,1.044e+01,1.052e+01,9.292e+00
4.403e-01,7.028e-01,9.650e-01,2.189e+00,1.750e+00,2.029e+00,1.637e+00,2.978e+00,2.321e+00,3.517e+00,3.744e+00,3.270e+00,4.036e+00,2.824e+00,4.826e+00,4.386e+00,3.949e+00,5.427e+00,5.184e+00,4.951e+00,6.363e+00,5.651e+00,7.251e+00,6.686e+00,7.956e+00,6.332e+00,8.126e+00,7.610e+00,7.413e+00,8.655e+00,7.766e+00,7.825e+00,1.015e+01,7.782e+00,8.499e+00,1.038e+01,1.063e+01,1.047e+01,8.314e+00,1.146e+01,9.217e+00,1.115e+01,9.543e+00,9.691e+00,1.275e+01,1.214e+01,1.063e+01,1.172e+01,1.245e+01,1.238e+01,1.009e+01,1.061e+01,1.016e+01
1.223e-01,4.606e-01,7.624e-01,1.651e+00,1.388e+00,1.540e+00,1.814e+00,3.027e+00,2.307e+00,3.198e+00,2.547e+00,3.064e+00,3.428e+00,2.583e+00,4.458e+00,4.095e+00,3.439e+00,4.083e+00,3.990e+00,4.206e+00,5.387e+00,5.454e+00,6.481e+00,7.680e+00,7.169e+00,5.092e+00,7.133e+00,7.864e+00,6.823e+00,8.712e+00,7.422e+00,6.151e+00,7.825e+00,7.328e+00,7.527e+00,9.285e+00,1.056e+01,8.695e+00,8.205e+00,9.929e+00,9.060e+00,1.056e+01,9.573e+00,9.035e+00,1.301e+01,9.525e+00,1.083e+01,1.180e+01,1.049e+01,1.111e+01,9.594e+00,1.006e+01,9.825e+00
2.676e-01,7.566e-01,9.556e-01,1.746e+00,1.552e+00,1.578e+00,2.002e+00,3.506e+00,2.295e+00,3.282e+00,2.683e+00,3.020e+00,4.108e+00,2.557e+00,3.822e+00,4.480e+00,3.610e+00,3.624e+00,3.989e+00,4.544e+00,5.172e+00,5.304e+00,6.735e+00,7.299e+00,7.960e+00,5.913e+00,8.123e+00,9.676e+00,8.495e+00,9.864e+00,8.717e+00,8.406e+00,1.009e+01,9.048e+00,8.893e+00,1.083e+01,1.109e+01,9.987e+00,9.147e+00,1.120e+01,8.639e+00,1.172e+01,1.114e+01,1.076e+01,1.297e+01,1.167e+01,1.012e+01,1.296e+01,1.213e+01,1.129e+01,1.275e+01,9.905e+00,1.062e+01
6.963e-04,3.422e-01,4.389e-01,7.213e-01,7.300e-01,7.008e-01,1.279e+00,1.785e+00,1.330e+00,2.609e+00,2.508e+00,2.540e+00,3.495e+00,2.619e+00,4.651e+00,4.831e+00,3.420e+00,4.243e+00,4.207e+00,4.462e+00,5.311e+00,4.868e+00,6.507e+00,7.721e+00,7.908e+00,6.212e+00,8.054e+00,8.559e+00,7.307e+00,9.637e+00,9.084e+00,7.218e+00,8.748e+00,6.907e+00,8.511e+00,1.006e+01,1.076e+01,8.688e+00,9.734e+00,1.011e+01,9.389e+00,1.054e+01,8.386e+00,9.792e+00,1.189e+01,1.163e+01,1.062e+01,1.330e+01,1.120e+01,1.161e+01,1.033e+01,1.129e+01,1.117e+01
2.652e-01,4.426e-01,9.185e-01,1.328e+00,9.368e-01,1.096e+00,1.589e+00,3.314e+00,1.843e+00,2.870e+00,1.846e+00,3.153e+00,2.812e+00,2.905e+00,4.169e+00,4.490e+00,3.161e+00,3.752e+00,4.420e+00,4.670e+00,4.061e+00,4.388e+00,5.307e+00,5.378e+00,5.847e+00,5.540e+00,6.819e+00,8.166e+00,6.003e+00,8.349e+00,7.822e+00,7.702e+00,9.249e+00,7.537e+00,7.996e+00,1.084e+01,1.008e+01,8.846e+00,8.965e+00,1.040e+01,8.024e+00,9.379e+00,9.400e+00,9.756e+00,1.049e+01,1.046e+01,1.031e+01,1.139e+01,1.096e+01,1.219e+01,1.156e+01,1.006e+01,9.717e+00
1.654e-01,1.949e-01,2.733e-01,6.980e-01,5.263e-01,7.330e-01,5.965e-01,1.275e+00,1.124e+00,1.472e+00,1.683e+00,2.350e+00,1.913e+00,2.102e+00,4.427e+00,2.725e+00,2.719e+00,3.085e+00,4.036e+00,3.818e+00,5.028e+00,4.534e+00,6.098e+00,6.922e+00,5.438e+00,4.462e+00,6.282e+00,7.270e+00,6.518e+00,7.995e+00,7.261e+00,6.763e+00,8.851e+00,6.541e+00,7.820e+00,9.694e+00,1.090e+01,7.641e+00,8.458e+00,9.951e+00,9.412e+00,1.034e+01,9.407e+00,1.037e+01,1.255e+01,1.190e+01,1.266e+01,1.422e+01,1.152e+01,1.294e+01,1.212e+01,1.293e+01,1.186e+01
9.122e-02,6.196e-01,8.243e-01,1.942e+00,1.764e+00,1.767e+00,2.176e+00,3.673e+00,2.993e+00,4.085e+00,3.634e+00,3.609e+00,4.793e+00,3.327e+00,4.934e+00,4.696e+00,3.673e+00,4.296e+00,3.935e+00,4.812e+00,5.913e+00,5.663e+00,7.159e+00,7.012e+00,7.638e+00,6.704e+00,7.483e+00,7.386e+00,7.256e+00,8.896e+00,8.721e+00,8.584e+00,9.785e+00,7.812e+00,8.516e+00,1.094e+01,1.025e+01,9.496e+00,8.481e+00,1.169e+01,7.449e+00,1.186e+01,9.455e+00,8.566e+00,1.285e+01,1.233e+01,1.292e+01,1.274e+01,1.264e+01,1.324e+01,1.333e+01,1.186e+01,1.061e+01
7.441e-02,6.489e-02,2.158e-01,4.161e-01,2.541e-01,5.281e-01,7.309e-01,1.224e+00,1.349e+00,2.456e+00,2.068e+00,2.021e+00,2.416e+00,2.546e+00,4.644e+00,4.031e+00,2.518e+00,3.680e+00,4.087e+00,3.770e+00,4.548e+00,3.550e+00,5.515e+00,5.546e+00,5.562e+00,5.071e+00,6.509e+00,5.730e+00,6.753e+00,7.022e+00,7.106e+00,5.929e+00,6.968e+00,4.579e+00,6.752e+00,7.907e+00,7.934e+00,7.762e+00,6.284e+00,8.435e+00,6.543e+00,7.901e+00,5.488e+00,7.778e+00,1.111e+01,1.062e+01,1.085e+01,1.059e+01,1.036e+01,1.128e+01,9.089e+00,1.113e+01,9.357e+00
9.916e-02,1.084e-01,4.216e-01,1.150e+00,8.412e-01,1.396e+00,1.211e+00,2.145e+00,1.670e+00,3.018e+00,2.538e+00,3.317e+00,3.420e+00,2.589e+00,4.630e+00,3.908e+00,3.213e+00,4.100e+00,3.961e+00,4.708e+00,5.184e+00,5.163e+00,6.328e+00,7.288e+00,7.663e+00,5.441e+00,7.892e+00,8.276e+00,7.176e+00,9.131e+00,8.481e+00,7.357e+00,9.277e+00,8.072e+00,8.298e+00,1.047e+01,1.172e+01,9.459e+00,9.916e+00,1.062e+01,9.898e+00,1.135e+01,9.731e+00,1.058e+01,1.279e+01,1.273e+01,1.372e+01,1.512e+01,1.394e+01,1.371e+01,1.341e+01,1.464e+01,1.247e+01
4.684e-01,3.183e-01,9.663e-01,1.679e+00,9.762e-01,1.649e+00,1.222e+00,2.495e+00,1.139e+00,3.019e+00,2.833e+00,2.818e+00,3.231e+00,2.422e+00,4.536e+00,4.236e+00,3.645e+00,4.475e+00,4.133e+00,4.213e+00,4.965e+00,4.993e+00,5.665e+00,6.448e+00,6.245e+00,4.022e+00,6.327e+00,6.283e+00,5.490e+00,7.679e+00,7.364e+00,6.353e+00,7.537e+00,6.501e+00,6.909e+00,9.396e+00,9.715e+00,8.845e+00,8.636e+00,1.024e+01,8.910e+00,1.029e+01,8.985e+00,9.869e+00,1.222e+01,1.106e+01,1.222e+01,1.278e+01,1.167e+01,1.355e+01,1.208e+01,1.451e+01,1.152e+01
4.490e-01,2.876e-01,1.073e+00,2.124e+00,1.290e+00,2.162e+00,1.706e+00,3.290e+00,1.876e+00,4.232e+00,3.568e+00,3.840e+00,4.416e+00,3.667e+00,6.576e+00,5.890e+00,4.687e+00,5.823e+00,5.312e+00,5.712e+00,6.377e+00,5.879e+00,7.169e+00,8.151e+00,7.638e+00,5.958e+00,8.103e+00,8.275e+00,8.358e+00,1.031e+01,9.538e+00,8.734e+00,9.778e+00,7.503e+00,8.548e+00,1.097e+01,1.069e+01,9.862e+00,9.391e+00,1.079e+01,8.754e+00,1.088e+01,8.409e+00,9.538e+00,1.304e+01,1.279e+01,1.142e+01,1.263e+01,1.253e+01,1.423e+01,1.162e+01,1.297e+01,1.181e+01
4.585e-01,8.434e-01,1.394e+00,2.058e+00,1.481e+00,1.228e+00,2.013e+00,3.728e+00,2.550e+00,3.752e+00,4.188e+00,3.196e+00,3.932e+00,3.640e+00,5.596e+00,5.456e+00,4.371e+00,5.489e+00,5.634e+00,4.858e+00,6.349e+00,5.922e+00,6.836e+00,7.398e+00,8.353e+00,6.312e+00,9.387e+00,9.726e+00,8.700e+00,1.036e+01,8.814e+00,7.788e+00,9.825e+00,9.052e+00,8.777e+00,1.214e+01,1.120e+01,1.043e+01,9.315e+00,1.200e+01,9.607e+00,1.203e+01,1.054e+01,1.097e+01,1.477e+01,1.252e+01,1.342e+01,1.303e+01,1.372e+01,1.476e+01,1.487e+01,1.501e+01,1.311e+01
2.209e-02,6.663e-01,9.041e-01,1.524e+00,1.394e+00,7.185e-01,1.849e+00,2.576e+00,2.003e+00,2.883e+00,3.039e+00,2.131e+00,3.440e+00,3.032e+00,3.763e+00,4.485e+00,3.303e+00,4.837e+00,3.763e+00,3.708e+00,4.412e+00,4.744e+00,5.015e+00,5.959e+00,5.986e+00,4.762e+00,6.555e+00,7.076e+00,6.877e+00,7.860e+00,6.806e+00,7.339e+00,9.119e+00,7.308e+00,7.553e+00,9.775e+00,9.322e+00,8.596e+00,8.379e+00,1.033e+01,8.835e+00,9.625e+00,8.564e+00,8.436e+00,1.358e+01,1.050e+01,1.221e+01,1.225e+01,1.120e+01,1.456e+01,1.198e+01,1.420e+01,1.189e+01
1.258e-01,1.649e-01,5.623e-01,8.775e-01,5.370e-01,8.005e-01,1.194e+00,1.973e+00,1.487e+00,2.516e+00,1.881e+00,2.145e+00,2.405e+00,2.363e+00,4.329e+00,4.044e+00,2.839e+00,3.479e+00,3.439e+00,3.858e+00,3.839e+00,3.419e+00,4.968e+00,5.333e+00,5.221e+00,4.237e+00,5.637e+00,6.064e+00,6.012e+00,7.473e+00,7.463e+00,5.718e+00,7.007e+00,6.032e+00,6.835e+00,8.532e+00,8.689e+00,7.569e+00,7.552e+00,9.000e+00,7.383e+00,8.584e+00,7.306e+00,8.097e+00,1.020e+01,9.792e+00,9.906e+00,1.066e+01,1.128e+01,1.197e+01,1.144e+01,1.240e+01,1.145e+01
