9.534e-01,1.874e-01,1.478e-01,1.138e-01,2.980e-01,9.028e-01,8.705e-01,1.459e-01,7.153e-01,8.187e-01,5.122e-01,6.025e-01,6.845e-01,8.509e-01,1.212e-01,8.085e-01,2.468e-01,1.697e-01,1.602e-01,7.775e-02,7.404e-01,5.407e-01,8.009e-01,3.644e-01,8.690e-01,1.618e-01,6.705e-01,8.710e-01,7.745e-01,3.581e-01,6.201e-01,8.234e-01,5.366e-01,3.658e-01,9.611e-01,9.843e-01,7.106e-01,1.244e-01,7.613e-01,7.083e-01,6.296e-01,1.435e-02,6.000e-01,3.289e-01,2.050e-01,1.384e-01,8.900e-01,1.088e-01,1.025e-01,6.232e-01,7.489e-01,9.960e-01,3.933e-01,6.451e-01,8.846e-01,2.254e-01,1.172e-01,7.547e-01,9.726e-01,5.242e-01,2.922e-01,6.426e-02,2.789e-01,9.906e-01,5.892e-01,1.796e-01,4.302e-01
5.494e-01,3.931e-01,9.668e-01,6.546e-01,3.656e-01,5.553e-01,7.475e-01,2.583e-01,6.795e-01,1.116e+00,8.046e-01,4.843e-01,6.787e-01,7.695e-01,9.029e-01,4.836e-01,5.010e-01,6.997e-01,2.807e-01,3.231e-01,7.008e-01,5.366e-01,1.235e+00,1.065e+00,1.275e+00,6.349e-01,1.088e+00,1.279e+00,1.153e+00,9.358e-01,5.211e-01,1.211e+00,6.559e-01,1.065e+00,9.629e-01,6.440e-01,4.667e-01,9.886e-01,8.789e-01,1.326e+00,9.036e-01,1.670e-01,1.269e+00,1.175e+00,3.139e-01,3.150e-01,1.075e+00,8.640e-01,1.007e-01,4.954e-01,1.285e+00,1.260e+00,4.779e-01,9.438e-01,8.648e-01,9.867e-01,9.765e-01,1.050e+00,1.345e+00,3.127e-01,7.469e-01,8.819e-01,4.578e-01,1.333e+00,9.777e-01,6.260e-01,1.091e+00
1.957e-01,1.976e-01,7.106e-01,6.797e-01,1.001e+00,2.824e-01,7.183e-01,1.958e-01,3.009e-01,1.079e+00,1.143e+00,6.788e-01,8.695e-01,4.582e-01,1.015e+00,1.081e+00,9.437e-01,1.195e+00,2.893e-01,4.425e-01,5.666e-01,4.567e-01,1.047e+00,9.819e-01,1.217e+00,5.855e-01,5.453e-01,1.129e+00,1.286e+00,1.468e+00,4.380e-01,1.534e+00,1.095e+00,1.292e+00,1.102e+00,3.577e-01,1.096e+00,6.789e-01,8.721e-01,1.411e+00,6.566e-01,3.240e-01,1.440e+00,1.552e+00,1.104e+00,3.286e-01,1.331e+00,8.507e-01,7.284e-01,9.859e-01,1.381e+00,1.427e+00,1.168e+00,1.309e+00,9.979e-01,1.081e+00,8.447e-01,8.130e-01,1.184e+00,8.421e-01,1.094e+00,1.160e+00,1.116e+00,8.727e-01,1.269e+00,1.255e+00,1.535e+00
9.525e-01,2.627e-01,4.263e-01,8.986e-01,1.221e+00,1.139e+00,1.617e+00,7.194e-01,1.111e+00,1.819e+00,1.439e+00,1.572e+00,1.364e+00,1.520e+00,6.990e-01,1.619e+00,1.344e+00,9.204e-01,2.614e-01,7.568e-01,1.512e+00,1.112e+00,2.043e+00,7.632e-01,2.217e+00,1.203e+00,1.282e+00,1.449e+00,2.043e+00,1.719e+00,1.390e+00,2.109e+00,1.222e+00,1.126e+00,1.894e+00,1.244e+00,1.873e+00,1.306e+00,1.169e+00,1.167e+00,1.480e+00,2.572e-01,1.436e+00,1.541e+00,8.952e-01,5.230e-01,2.225e+00,8.731e-01,7.947e-01,1.337e+00,1.754e+00,1.563e+00,8.926e-01,1.300e+00,1.249e+00,1.272e+00,7.217e-01,1.527e+00,2.225e+00,7.874e-01,8.807e-01,1.390e+00,1.469e+00,1.287e+00,1.895e+00,1.461e+00,1.104e+00
6.009e-01,2.314e-01,4.728e-01,5.875e-01,1.354e+00,1.465e+00,1.733e+00,4.182e-01,7.892e-01,1.529e+00,1.504e+00,1.590e+00,1.614e+00,1.616e+00,8.732e-01,1.640e+00,8.375e-01,9.208e-01,8.993e-01,9.172e-01,1.628e+00,1.169e+00,1.810e+00,1.612e+00,1.941e+00,9.797e-01,1.498e+00,1.806e+00,1.386e+00,1.474e+00,1.235e+00,1.766e+00,1.483e+00,1.268e+00,1.812e+00,1.235e+00,1.830e+00,1.627e+00,9.464e-01,1.498e+00,1.444e+00,8.987e-01,1.241e+00,1.819e+00,1.180e+00,1.138e+00,1.512e+00,9.158e-01,7.138e-01,1.726e+00,1.185e+00,2.026e+00,1.237e+00,9.706e-01,1.783e+00,1.211e+00,8.190e-01,1.956e+00,1.744e+00,1.198e+00,1.236e+00,1.803e+00,9.840e-01,1.288e+00,1.156e+00,1.274e+00,1.014e+00
5.754e-01,1.689e-01,2.921e-01,7.618e-01,1.156e+00,1.324e+00,1.827e+00,1.589e+00,9.745e-01,1.968e+00,1.741e+00,2.103e+00,1.804e+00,1.494e+00,9.861e-01,1.943e+00,1.750e+00,1.135e+00,3.817e-01,8.115e-01,2.205e+00,1.741e+00,2.370e+00,1.060e+00,2.524e+00,1.880e+00,1.203e+00,1.251e+00,2.255e+00,2.494e+00,2.155e+00,2.235e+00,1.869e+00,1.333e+00,1.717e+00,1.128e+00,2.178e+00,1.576e+00,9.983e-01,1.702e+00,2.071e+00,5.914e-01,1.355e+00,1.860e+00,1.469e+00,1.222e+00,2.740e+00,8.425e-01,1.253e+00,2.037e+00,1.866e+00,1.958e+00,1.223e+00,1.333e+00,1.413e+00,1.181e+00,1.296e+00,1.996e+00,1.917e+00,1.071e+00,8.123e-01,1.570e+00,1.827e+00,1.675e+00,2.149e+00,1.909e+00,8.467e-01
3.714e-01,1.842e-01,4.228e-01,5.048e-01,1.053e+00,1.162e+00,2.350e+00,6.029e-01,6.314e-01,1.641e+00,2.018e+00,2.179e+00,1.707e+00,2.015e+00,1.526e+00,1.599e+00,9.442e-01,1.240e+00,7.399e-01,1.162e+00,1.741e+00,1.437e+00,2.524e+00,2.240e+00,2.230e+00,1.583e+00,1.989e+00,1.726e+00,1.881e+00,1.660e+00,1.742e+00,2.223e+00,1.530e+00,2.002e+00,2.397e+00,1.418e+00,2.196e+00,2.098e+00,1.240e+00,2.331e+00,1.512e+00,1.085e+00,1.484e+00,1.604e+00,1.933e+00,1.313e+00,1.882e+00,1.286e+00,1.338e+00,2.448e+00,1.436e+00,2.125e+00,1.837e+00,1.469e+00,2.094e+00,1.031e+00,1.452e+00,2.553e+00,1.932e+00,1.954e+00,1.347e+00,1.541e+00,1.254e+00,1.581e+00,1.638e+00,1.564e+00,1.451e+00
2.858e-01,2.879e-01,7.980e-01,1.118e+00,1.651e+00,1.491e+00,2.159e+00,2.307e+00,1.724e+00,2.451e+00,2.926e+00,3.316e+00,2.858e+00,2.770e+00,2.510e+00,2.112e+00,2.302e+00,2.230e+00,1.237e+00,1.663e+00,2.930e+00,2.893e+00,3.875e+00,2.248e+00,3.795e+00,2.829e+00,2.363e+00,2.278e+00,3.116e+00,3.400e+00,2.931e+00,3.624e+00,2.528e+00,2.935e+00,2.890e+00,1.312e+00,3.411e+00,2.673e+00,1.318e+00,2.312e+00,3.187e+00,1.537e+00,1.895e+00,3.274e+00,2.023e+00,2.692e+00,3.754e+00,1.755e+00,2.038e+00,2.749e+00,2.827e+00,3.485e+00,1.689e+00,2.290e+00,1.982e+00,1.894e+00,2.251e+00,2.702e+00,2.446e+00,1.597e+00,2.228e+00,3.498e+00,2.902e+00,2.365e+00,2.694e+00,2.532e+00,2.361e+00
7.287e-01,2.547e-01,5.991e-01,9.819e-01,1.521e+00,1.290e+00,2.175e+00,1.410e+00,1.141e+00,2.672e+00,3.159e+00,2.984e+00,2.593e+00,2.310e+00,1.641e+00,2.829e+00,2.232e+00,1.987e+00,8.781e-01,1.501e+00,2.782e+00,2.236e+00,3.356e+00,2.521e+00,3.664e+00,2.325e+00,1.801e+00,2.489e+00,3.665e+00,3.156e+00,3.008e+00,3.738e+00,2.280e+00,2.404e+00,3.388e+00,2.220e+00,3.056e+00,1.975e+00,1.795e+00,2.440e+00,2.212e+00,8.519e-01,2.515e+00,2.969e+00,3.004e+00,1.921e+00,3.739e+00,1.280e+00,1.976e+00,3.299e+00,3.367e+00,3.504e+00,2.425e+00,2.507e+00,2.280e+00,2.158e+00,2.570e+00,2.315e+00,3.353e+00,1.826e+00,1.641e+00,2.283e+00,3.264e+00,2.046e+00,3.155e+00,3.110e+00,2.345e+00
3.752e-01,7.665e-02,7.570e-02,2.200e-01,8.794e-01,1.176e+00,2.225e+00,1.111e+00,1.031e+00,1.702e+00,3.518e+00,3.499e+00,3.172e+00,3.012e+00,2.250e+00,1.977e+00,1.284e+00,2.192e+00,1.511e+00,2.231e+00,2.933e+00,2.991e+00,3.227e+00,3.385e+00,3.407e+00,2.638e+00,2.987e+00,2.659e+00,2.807e+00,1.878e+00,3.434e+00,3.745e+00,2.206e+00,2.387e+00,4.009e+00,2.058e+00,3.652e+00,2.479e+00,1.743e+00,2.408e+00,2.830e+00,1.348e+00,1.703e+00,2.461e+00,3.130e+00,2.179e+00,3.410e+00,1.357e+00,2.192e+00,3.528e+00,2.081e+00,2.842e+00,2.682e+00,2.324e+00,3.047e+00,1.198e+00,2.364e+00,2.442e+00,2.133e+00,2.579e+00,2.079e+00,1.887e+00,2.838e+00,1.697e+00,2.692e+00,2.264e+00,2.614e+00
3.918e-01,1.649e-01,3.345e-01,4.361e-01,6.788e-01,9.894e-01,1.790e+00,1.724e+00,1.401e+00,1.997e+00,4.215e+00,4.044e+00,3.998e+00,4.037e+00,3.086e+00,2.512e+00,2.395e+00,2.877e+00,2.196e+00,2.294e+00,3.310e+00,4.049e+00,4.436e+00,3.674e+00,4.125e+00,3.401e+00,3.333e+00,3.486e+00,3.851e+00,2.423e+00,4.058e+00,4.955e+00,2.287e+00,3.256e+00,4.510e+00,2.514e+00,3.653e+00,3.200e+00,1.865e+00,2.724e+00,3.082e+00,1.560e+00,2.703e+00,2.942e+00,3.815e+00,3.072e+00,4.122e+00,2.215e+00,3.058e+00,3.861e+00,3.788e+00,4.271e+00,2.746e+00,2.900e+00,3.249e+00,1.770e+00,3.858e+00,3.087e+00,3.145e+00,2.239e+00,2.724e+00,3.137e+00,4.421e+00,2.981e+00,3.343e+00,2.749e+00,2.882e+00
8.505e-01,3.513e-01,8.805e-01,1.122e+00,2.026e+00,1.854e+00,3.424e+00,2.129e+00,1.890e+00,3.447e+00,4.737e+00,5.581e+00,4.194e+00,4.713e+00,3.471e+00,4.614e+00,3.457e+00,3.489e+00,2.394e+00,2.350e+00,4.688e+00,4.557e+00,6.184e+00,4.903e+00,5.559e+00,4.322e+00,3.572e+00,3.854e+00,5.310e+00,4.707e+00,5.126e+00,5.999e+00,4.189e+00,5.302e+00,5.559e+00,3.174e+00,5.718e+00,3.744e+00,3.309e+00,4.327e+00,4.270e+00,1.889e+00,3.459e+00,4.763e+00,5.035e+00,3.785e+00,6.106e+00,2.407e+00,4.224e+00,5.143e+00,5.323e+00,5.816e+00,3.729e+00,4.581e+00,4.207e+00,3.473e+00,4.370e+00,4.228e+00,4.761e+00,4.247e+00,3.174e+00,3.996e+00,5.225e+00,3.483e+00,4.360e+00,4.675e+00,4.105e+00
9.347e-01,4.022e-01,9.014e-01,1.104e+00,1.569e+00,1.689e+00,2.282e+00,1.649e+00,1.557e+00,2.663e+00,3.096e+00,3.096e+00,3.459e+00,3.176e+00,3.235e+00,3.631e+00,2.511e+00,2.637e+00,1.868e+00,2.162e+00,3.349e+00,3.331e+00,4.429e+00,2.757e+00,4.378e+00,2.852e+00,2.794e+00,3.153e+00,4.237e+00,4.073e+00,3.529e+00,4.916e+00,3.518e+00,3.579e+00,3.908e+00,2.283e+00,3.975e+00,3.164e+00,2.886e+00,3.011e+00,4.160e+00,1.599e+00,2.941e+00,4.210e+00,3.031e+00,1.944e+00,4.996e+00,2.350e+00,2.322e+00,3.547e+00,3.307e+00,4.459e+00,3.035e+00,2.922e+00,3.474e+00,2.237e+00,2.709e+00,3.111e+00,3.402e+00,2.196e+00,2.208e+00,2.896e+00,4.012e+00,3.248e+00,3.446e+00,3.572e+00,3.098e+00
6.879e-01,3.939e-01,9.809e-01,1.181e+00,1.769e+00,1.723e+00,2.847e+00,1.920e+00,1.769e+00,3.114e+00,4.652e+00,4.877e+00,4.387e+00,5.142e+00,3.861e+00,4.727e+00,3.574e+00,4.268e+00,2.669e+00,3.171e+00,4.454e+00,5.339e+00,6.160e+00,5.469e+00,5.413e+00,4.204e+00,4.227e+00,4.339e+00,5.497e+00,3.970e+00,4.802e+00,5.835e+00,3.633e+00,5.422e+00,5.802e+00,3.194e+00,5.016e+00,4.736e+00,2.835e+00,3.857e+00,5.009e+00,2.024e+00,4.446e+00,4.891e+00,4.661e+00,4.239e+00,5.695e+00,3.704e+00,4.313e+00,5.040e+00,5.274e+00,6.100e+00,3.901e+00,3.928e+00,4.566e+00,3.351e+00,4.756e+00,4.201e+00,4.592e+00,3.664e+00,3.913e+00,4.664e+00,5.313e+00,4.081e+00,4.566e+00,4.164e+00,4.232e+00
6.011e-01,2.607e-01,6.903e-01,9.318e-01,1.915e+00,1.665e+00,2.421e+00,1.588e+00,1.412e+00,2.835e+00,4.430e+00,4.345e+00,4.158e+00,3.927e+00,3.927e+00,5.033e+00,3.128e+00,4.332e+00,3.395e+00,3.801e+00,4.747e+00,4.709e+00,5.055e+00,5.579e+00,5.494e+00,4.455e+00,3.363e+00,4.375e+00,5.746e+00,4.438e+00,5.275e+00,5.707e+00,4.422e+00,5.014e+00,5.246e+00,3.794e+00,5.370e+00,4.229e+00,2.728e+00,4.208e+00,4.355e+00,2.606e+00,4.034e+00,4.993e+00,4.720e+00,3.581e+00,5.416e+00,2.752e+00,4.134e+00,4.952e+00,4.706e+00,5.457e+00,4.238e+00,3.820e+00,4.453e+00,3.336e+00,4.813e+00,3.163e+00,4.264e+00,3.817e+00,3.822e+00,4.580e+00,5.648e+00,2.966e+00,4.761e+00,4.709e+00,4.774e+00
8.029e-01,3.064e-01,7.045e-01,7.705e-01,1.314e+00,1.276e+00,2.111e+00,1.013e+00,1.225e+00,2.208e+00,3.179e+00,3.059e+00,3.214e+00,3.380e+00,3.475e+00,4.893e+00,3.232e+00,3.464e+00,3.040e+00,3.331e+00,3.413e+00,4.257e+00,4.846e+00,4.746e+00,4.949e+00,3.104e+00,2.989e+00,3.985e+00,4.981e+00,4.013e+00,3.838e+00,5.215e+00,4.253e+00,5.001e+00,5.132e+00,3.212e+00,4.247e+00,3.943e+00,3.015e+00,4.129e+00,4.502e+00,1.983e+00,4.237e+00,4.289e+00,4.160e+00,3.158e+00,5.088e+00,2.678e+00,3.676e+00,4.621e+00,3.585e+00,4.764e+00,4.135e+00,3.813e+00,4.528e+00,2.403e+00,3.337e+00,3.230e+00,4.189e+00,3.504e+00,3.648e+00,3.389e+00,4.244e+00,3.852e+00,4.008e+00,4.073e+00,4.905e+00
6.807e-01,2.028e-01,4.927e-01,1.035e+00,2.134e+00,1.520e+00,3.052e+00,1.090e+00,1.247e+00,2.634e+00,3.730e+00,3.758e+00,3.575e+00,4.031e+00,3.852e+00,5.212e+00,3.783e+00,4.377e+00,3.191e+00,3.840e+00,4.265e+00,5.091e+00,5.792e+00,5.557e+00,6.145e+00,3.694e+00,4.115e+00,4.182e+00,5.458e+00,4.941e+00,4.441e+00,6.337e+00,4.465e+00,5.853e+00,6.351e+00,3.748e+00,5.765e+00,5.185e+00,3.520e+00,4.556e+00,4.371e+00,2.558e+00,5.321e+00,5.025e+00,4.924e+00,3.607e+00,5.463e+00,3.634e+00,4.758e+00,6.044e+00,3.788e+00,5.397e+00,5.210e+00,4.670e+00,5.290e+00,2.749e+00,3.707e+00,3.983e+00,4.866e+00,4.358e+00,4.841e+00,5.160e+00,5.273e+00,3.725e+00,4.393e+00,4.722e+00,5.502e+00
4.895e-02,1.897e-01,6.985e-01,1.129e+00,1.592e+00,8.766e-01,2.128e+00,1.903e+00,1.169e+00,2.484e+00,3.467e+00,3.910e+00,2.954e+00,3.369e+00,3.108e+00,4.386e+00,3.805e+00,3.990e+00,2.913e+00,2.917e+00,3.891e+00,4.990e+00,5.365e+00,4.992e+00,6.061e+00,4.701e+00,2.986e+00,3.163e+00,5.607e+00,5.597e+00,5.096e+00,5.579e+00,3.894e+00,5.195e+00,5.651e+00,3.259e+00,4.818e+00,4.300e+00,2.653e+00,3.713e+00,4.767e+00,2.120e+00,4.243e+00,5.046e+00,4.907e+00,4.696e+00,5.654e+00,3.291e+00,4.548e+00,4.719e+00,4.613e+00,4.793e+00,3.665e+00,4.488e+00,4.138e+00,3.392e+00,4.469e+00,3.832e+00,4.211e+00,3.910e+00,3.717e+00,5.078e+00,5.679e+00,3.497e+00,4.804e+00,4.682e+00,5.231e+00
3.371e-01,7.013e-02,1.295e-01,6.313e-01,1.346e+00,1.140e+00,2.406e+00,1.150e+00,8.321e-01,1.986e+00,3.493e+00,3.852e+00,3.395e+00,3.757e+00,2.973e+00,4.497e+00,3.768e+00,3.978e+00,3.844e+00,3.285e+00,4.671e+00,5.925e+00,6.048e+00,5.930e+00,6.542e+00,4.743e+00,4.492e+00,4.626e+00,5.895e+00,4.848e+00,5.654e+00,6.457e+00,4.042e+00,5.249e+00,6.267e+00,4.329e+00,5.578e+00,6.122e+00,3.243e+00,5.419e+00,4.309e+00,2.926e+00,5.398e+00,4.725e+00,5.265e+00,5.087e+00,5.143e+00,3.676e+00,5.016e+00,5.764e+00,4.218e+00,5.134e+00,4.572e+00,5.150e+00,6.044e+00,3.613e+00,4.765e+00,4.755e+00,5.226e+00,5.002e+00,4.779e+00,5.489e+00,5.771e+00,4.068e+00,5.316e+00,4.889e+00,5.585e+00
5.283e-01,3.304e-01,8.240e-01,9.128e-01,1.216e+00,1.153e+00,2.294e+00,1.301e+00,1.376e+00,2.220e+00,3.101e+00,3.893e+00,2.833e+00,3.673e+00,2.754e+00,3.624e+00,2.981e+00,3.163e+00,3.082e+00,3.198e+00,4.394e+00,5.899e+00,6.711e+00,5.111e+00,6.109e+00,4.671e+00,4.814e+00,4.037e+00,6.286e+00,5.055e+00,5.682e+00,5.697e+00,4.465e+00,5.845e+00,6.236e+00,3.576e+00,5.881e+00,5.624e+00,3.483e+00,5.486e+00,5.525e+00,2.696e+00,4.543e+00,5.532e+00,5.110e+00,5.094e+00,6.036e+00,4.098e+00,4.426e+00,4.690e+00,4.698e+00,5.177e+00,3.472e+00,4.913e+00,5.940e+00,4.340e+00,4.685e+00,5.374e+00,5.027e+00,4.725e+00,3.655e+00,4.779e+00,5.587e+00,4.111e+00,4.767e+00,5.195e+00,5.272e+00
9.301e-01,3.392e-01,6.318e-01,4.601e-01,8.715e-01,1.721e+00,1.995e+00,1.226e+00,1.187e+00,1.947e+00,2.169e+00,2.328e+00,2.521e+00,2.452e+00,2.385e+00,3.430e+00,2.251e+00,2.518e+00,2.564e+00,2.894e+00,4.929e+00,5.468e+00,5.822e+00,5.152e+00,5.006e+00,3.510e+00,4.002e+00,4.713e+00,5.312e+00,4.849e+00,5.362e+00,5.052e+00,4.419e+00,5.350e+00,4.517e+00,3.561e+00,5.516e+00,5.473e+00,3.921e+00,5.822e+00,4.955e+00,3.148e+00,4.801e+00,4.412e+00,4.017e+00,4.327e+00,4.774e+00,3.168e+00,3.794e+00,5.136e+00,3.436e+00,5.051e+00,3.754e+00,4.608e+00,5.386e+00,3.590e+00,3.808e+00,4.105e+00,4.903e+00,4.192e+00,3.743e+00,4.397e+00,4.673e+00,4.188e+00,4.429e+00,4.157e+00,4.484e+00
7.393e-01,2.917e-01,6.656e-01,1.019e+00,1.381e+00,1.124e+00,1.901e+00,1.628e+00,1.662e+00,2.473e+00,3.499e+00,3.562e+00,3.359e+00,3.644e+00,3.549e+00,4.638e+00,3.583e+00,3.783e+00,3.330e+00,4.027e+00,4.885e+00,6.237e+00,6.995e+00,5.869e+00,6.498e+00,5.432e+00,4.100e+00,5.488e+00,7.709e+00,6.284e+00,6.673e+00,7.501e+00,5.569e+00,6.806e+00,7.290e+00,4.947e+00,6.923e+00,5.687e+00,4.433e+00,4.855e+00,6.161e+00,3.858e+00,5.960e+00,6.084e+00,6.245e+00,5.428e+00,7.174e+00,4.677e+00,5.499e+00,5.993e+00,5.200e+00,6.075e+00,5.005e+00,5.975e+00,6.164e+00,5.090e+00,5.413e+00,4.983e+00,6.363e+00,4.958e+00,4.767e+00,5.725e+00,7.607e+00,5.013e+00,6.477e+00,6.177e+00,6.383e+00
3.847e-01,3.567e-01,1.064e+00,9.208e-01,1.004e+00,8.024e-01,1.760e+00,1.179e+00,8.286e-01,2.349e+00,3.318e+00,3.032e+00,2.883e+00,2.878e+00,3.407e+00,4.332e+00,3.224e+00,3.664e+00,3.010e+00,3.086e+00,3.793e+00,4.455e+00,5.368e+00,6.070e+00,6.249e+00,4.657e+00,3.967e+00,4.355e+00,6.196e+00,5.560e+00,4.991e+00,6.475e+00,4.847e+00,5.497e+00,5.458e+00,4.548e+00,4.984e+00,4.520e+00,3.490e+00,4.917e+00,4.345e+00,2.692e+00,5.146e+00,5.687e+00,5.137e+00,3.958e+00,6.141e+00,3.919e+00,4.713e+00,5.077e+00,5.478e+00,5.447e+00,4.329e+00,4.405e+00,4.790e+00,3.838e+00,5.295e+00,4.407e+00,5.242e+00,4.382e+00,3.732e+00,4.478e+00,5.363e+00,4.865e+00,4.806e+00,5.387e+00,5.480e+00
2.901e-01,2.168e-01,6.458e-01,7.826e-01,1.473e+00,1.189e+00,1.833e+00,1.502e+00,1.311e+00,2.211e+00,3.617e+00,3.686e+00,3.494e+00,4.029e+00,4.375e+00,5.684e+00,3.949e+00,5.184e+00,4.629e+00,5.094e+00,5.921e+00,7.614e+00,7.743e+00,8.663e+00,8.847e+00,6.505e+00,6.117e+00,6.597e+00,9.109e+00,7.541e+00,7.686e+00,8.219e+00,6.491e+00,8.885e+00,7.693e+00,5.843e+00,8.113e+00,7.795e+00,4.798e+00,6.677e+00,6.717e+00,5.601e+00,7.994e+00,7.630e+00,7.159e+00,7.460e+00,7.948e+00,5.892e+00,6.995e+00,7.669e+00,6.458e+00,7.667e+00,6.745e+00,6.817e+00,7.928e+00,5.497e+00,6.780e+00,4.966e+00,6.619e+00,6.500e+00,6.656e+00,8.296e+00,8.743e+00,5.922e+00,7.168e+00,6.786e+00,8.470e+00
9.375e-01,2.717e-01,4.883e-01,5.575e-01,1.173e+00,1.660e+00,2.789e+00,1.712e+00,1.630e+00,2.653e+00,4.300e+00,4.987e+00,4.403e+00,5.481e+00,5.008e+00,7.085e+00,4.621e+00,5.683e+00,5.247e+00,5.205e+00,7.193e+00,9.109e+00,9.442e+00,1.040e+01,1.028e+01,8.024e+00,7.657e+00,8.333e+00,1.055e+01,9.550e+00,9.793e+00,1.051e+01,8.032e+00,1.115e+01,9.834e+00,8.237e+00,1.054e+01,9.456e+00,7.475e+00,8.522e+00,9.140e+00,6.814e+00,9.052e+00,8.570e+00,9.394e+00,8.373e+00,1.083e+01,6.814e+00,9.522e+00,9.424e+00,8.289e+00,9.366e+00,8.333e+00,8.617e+00,9.581e+00,6.437e+00,8.856e+00,7.014e+00,9.130e+00,8.568e+00,7.760e+00,9.305e+00,1.052e+01,8.155e+00,8.701e+00,8.047e+00,9.581e+00
8.939e-01,4.207e-01,9.810e-01,1.011e+00,1.211e+00,1.380e+00,2.583e+00,1.761e+00,1.669e+00,2.838e+00,4.483e+00,4.630e+00,4.485e+00,4.708e+00,4.720e+00,5.207e+00,3.933e+00,4.932e+00,3.983e+00,3.787e+00,5.600e+00,6.663e+00,7.274e+00,7.408e+00,8.030e+00,6.368e+00,6.309e+00,6.587e+00,8.044e+00,7.118e+00,7.521e+00,9.440e+00,6.608e+00,7.938e+00,8.154e+00,6.219e+00,7.774e+00,6.784e+00,5.468e+00,6.750e+00,7.535e+00,3.747e+00,6.510e+00,7.522e+00,7.108e+00,5.279e+00,8.851e+00,5.034e+00,6.685e+00,6.712e+00,6.912e+00,6.572e+00,5.421e+00,7.221e+00,6.492e+00,5.223e+00,6.705e+00,5.733e+00,6.483e+00,6.671e+00,5.505e+00,6.937e+00,8.151e+00,6.008e+00,6.629e+00,6.673e+00,7.259e+00
3.924e-01,1.436e-01,3.394e-01,4.063e-01,8.452e-01,8.727e-01,1.322e+00,1.172e+00,1.064e+00,1.545e+00,2.857e+00,3.356e+00,3.009e+00,3.408e+00,3.523e+00,4.763e+00,3.132e+00,3.861e+00,4.068e+00,3.552e+00,4.514e+00,5.789e+00,5.849e+00,6.660e+00,7.116e+00,5.875e+00,5.400e+00,6.181e+00,8.764e+00,7.632e+00,6.992e+00,7.688e+00,6.875e+00,8.701e+00,6.839e+00,5.936e+00,7.416e+00,7.501e+00,5.602e+00,6.352e+00,7.410e+00,5.846e+00,7.042e+00,7.121e+00,7.076e+00,6.557e+00,8.894e+00,5.560e+00,7.061e+00,6.169e+00,6.688e+00,6.856e+00,6.099e+00,6.617e+00,7.474e+00,5.557e+00,6.928e+00,5.545e+00,6.709e+00,6.362e+00,5.809e+00,7.811e+00,8.014e+00,6.126e+00,6.894e+00,6.205e+00,7.810e+00
3.599e-01,3.171e-01,9.301e-01,8.592e-01,9.971e-01,6.352e-01,1.744e+00,1.104e+00,1.159e+00,1.950e+00,2.890e+00,3.001e+00,2.548e+00,3.231e+00,3.962e+00,3.691e+00,2.682e+00,4.005e+00,2.748e+00,3.029e+00,4.615e+00,5.219e+00,6.067e+00,6.222e+00,5.538e+00,4.486e+00,4.892e+00,6.182e+00,7.748e+00,7.076e+00,6.532e+00,7.742e+00,6.576e+00,9.141e+00,7.284e+00,5.152e+00,7.220e+00,7.050e+00,6.512e+00,6.064e+00,7.194e+00,4.537e+00,7.443e+00,6.827e+00,6.729e+00,5.240e+00,8.165e+00,5.391e+00,6.478e+00,6.557e+00,6.075e+00,6.518e+00,5.786e+00,8.229e+00,6.292e+00,5.706e+00,6.634e+00,4.731e+00,6.608e+00,6.020e+00,6.369e+00,8.311e+00,7.747e+00,5.460e+00,6.021e+00,6.452e+00,7.822e+00
2.228e-01,2.190e-01,7.268e-01,9.965e-01,1.882e+00,1.341e+00,2.468e+00,1.600e+00,1.220e+00,2.614e+00,4.379e+00,4.723e+00,4.286e+00,4.758e+00,5.096e+00,6.336e+00,4.099e+00,5.536e+00,4.573e+00,5.180e+00,6.366e+00,7.668e+00,8.412e+00,8.707e+00,8.020e+00,6.791e+00,6.516e+00,7.772e+00,1.046e+01,9.178e+00,9.216e+00,9.789e+00,8.616e+00,1.080e+01,1.021e+01,7.706e+00,1.020e+01,9.683e+00,6.792e+00,7.944e+00,9.283e+00,6.350e+00,8.850e+00,9.938e+00,8.894e+00,7.387e+00,1.044e+01,7.503e+00,8.879e+00,8.844e+00,8.060e+00,9.652e+00,8.804e+00,9.307e+00,9.533e+00,7.721e+00,9.343e+00,7.183e+00,8.458e+00,8.150e+00,8.301e+00,9.434e+00,1.000e+01,8.165e+00,9.008e+00,1.001e+01,9.308e+00
4.025e-01,2.212e-01,5.179e-01,6.214e-01,9.011e-01,1.110e+00,1.622e+00,1.349e+00,1.027e+00,2.020e+00,3.505e+00,3.286e+00,3.362e+00,3.128e+00,2.745e+00,3.947e+00,3.486e+00,3.908e+00,3.917e+00,3.841e+00,5.355e+00,6.781e+00,6.660e+00,7.514e+00,8.176e+00,5.841e+00,6.512e+00,6.839e+00,8.828e+00,8.003e+00,7.686e+00,9.729e+00,7.109e+00,7.491e+00,8.632e+00,7.120e+00,8.475e+00,8.055e+00,5.460e+00,7.220e+00,7.846e+00,5.483e+00,8.630e+00,8.614e+00,7.433e+00,7.401e+00,8.976e+00,6.447e+00,7.234e+00,8.012e+00,7.338e+00,7.456e+00,6.742e+00,7.799e+00,8.123e+00,6.728e+00,7.340e+00,7.394e+00,8.224e+00,6.785e+00,6.672e+00,9.122e+00,7.674e+00,7.240e+00,7.774e+00,8.169e+00,8.313e+00
6.002e-01,2.935e-01,7.475e-01,1.018e+00,1.492e+00,1.285e+00,2.791e+00,2.013e+00,1.733e+00,2.883e+00,4.777e+00,4.696e+00,4.362e+00,4.626e+00,4.588e+00,4.730e+00,4.009e+00,5.115e+00,3.849e+00,3.999e+00,5.048e+00,6.426e+00,7.065e+00,7.583e+00,8.900e+00,7.015e+00,6.453e+00,7.253e+00,9.154e+00,7.728e+00,8.764e+00,9.881e+00,7.747e+00,9.008e+00,9.407e+00,7.415e+00,9.156e+00,7.554e+00,6.020e+00,8.033e+00,8.041e+00,5.635e+00,8.416e+00,8.126e+00,7.983e+00,7.308e+00,9.914e+00,6.781e+00,7.670e+00,8.358e+00,8.199e+00,7.624e+00,7.165e+00,8.398e+00,8.111e+00,6.196e+00,7.912e+00,6.960e+00,7.240e+00,7.404e+00,7.509e+00,1.014e+01,8.973e+00,7.922e+00,8.927e+00,7.639e+00,9.292e+00
2.010e-01,2.174e-01,7.178e-01,7.249e-01,1.002e+00,4.261e-01,1.463e+00,5.795e-01,6.813e-01,1.590e+00,2.574e+00,2.195e+00,2.166e+00,2.667e+00,3.072e+00,3.609e+00,2.572e+00,3.289e+00,2.260e+00,3.221e+00,2.828e+00,4.212e+00,5.154e+00,5.743e+00,5.392e+00,3.966e+00,4.789e+00,5.765e+00,7.485e+00,6.473e+00,5.557e+00,8.414e+00,6.785e+00,8.269e+00,8.145e+00,6.611e+00,7.824e+00,7.245e+00,6.417e+00,6.169e+00,7.960e+00,5.429e+00,8.433e+00,7.641e+00,7.063e+00,5.602e+00,8.223e+00,6.877e+00,7.367e+00,7.674e+00,7.318e+00,7.517e+00,6.979e+00,7.346e+00,7.267e+00,6.572e+00,6.942e+00,6.177e+00,7.620e+00,5.982e+00,6.791e+00,8.691e+00,7.203e+00,7.277e+00,7.047e+00,7.187e+00,7.753e+00
3.944e-01,2.903e-01,8.466e-01,1.214e+00,1.759e+00,1.131e+00,2.451e+00,1.418e+00,1.287e+00,2.858e+00,4.609e+00,4.178e+00,4.110e+00,4.077e+00,4.641e+00,5.343e+00,4.035e+00,5.363e+00,4.418e+00,5.130e+00,5.989e+00,7.065e+00,7.800e+00,8.738e+00,9.524e+00,7.123e+00,6.733e+00,7.532e+00,1.003e+01,8.504e+00,9.091e+00,1.079e+01,8.165e+00,9.583e+00,1.057e+01,9.057e+00,1.062e+01,9.768e+00,7.086e+00,8.376e+00,9.045e+00,6.765e+00,9.886e+00,9.593e+00,9.161e+00,7.711e+00,9.966e+00,7.349e+00,7.892e+00,9.892e+00,8.549e+00,9.583e+00,8.582e+00,9.560e+00,9.409e+00,8.532e+00,9.475e+00,6.827e+00,9.184e+00,8.302e+00,8.693e+00,1.057e+01,1.088e+01,7.456e+00,1.020e+01,9.842e+00,1.036e+01
2.777e-01,5.577e-02,1.029e-01,4.127e-01,1.163e+00,1.252e+00,2.007e+00,1.344e+00,8.199e-01,1.911e+00,3.424e+00,3.761e+00,3.446e+00,3.484e+00,3.197e+00,4.987e+00,3.706e+00,4.179e+00,4.454e+00,4.147e+00,5.465e+00,6.724e+00,6.514e+00,7.216e+00,7.964e+00,5.785e+00,6.022e+00,6.329e+00,8.625e+00,8.595e+00,8.900e+00,1.031e+01,8.171e+00,9.398e+00,1.046e+01,9.767e+00,1.057e+01,1.003e+01,7.680e+00,8.827e+00,1.017e+01,7.216e+00,9.883e+00,1.071e+01,8.539e+00,8.250e+00,9.414e+00,7.753e+00,9.623e+00,1.063e+01,9.227e+00,9.698e+00,8.427e+00,9.642e+00,9.349e+00,8.775e+00,9.382e+00,7.953e+00,9.277e+00,8.521e+00,8.959e+00,1.111e+01,9.952e+00,8.274e+00,9.019e+00,1.028e+01,8.920e+00
2.406e-02,7.600e-02,3.058e-01,5.965e-01,1.327e+00,1.107e+00,1.898e+00,1.407e+00,7.299e-01,2.033e+00,3.615e+00,4.202e+00,3.355e+00,3.580e+00,3.323e+00,5.539e+00,3.567e+00,4.486e+00,4.191e+00,4.470e+00,5.655e+00,6.716e+00,6.483e+00,8.019e+00,6.894e+00,6.704e+00,4.969e+00,6.419e+00,8.518e+00,7.664e+00,9.039e+00,8.656e+00,8.242e+00,9.040e+00,9.725e+00,8.908e+00,1.059e+01,8.328e+00,6.626e+00,8.546e+00,9.705e+00,7.068e+00,8.407e+00,9.788e+00,9.772e+00,8.090e+00,9.568e+00,6.481e+00,9.143e+00,9.081e+00,8.763e+00,8.493e+00,7.645e+00,8.861e+00,8.102e+00,9.146e+00,9.678e+00,7.336e+00,8.333e+00,8.323e+00,8.258e+00,1.045e+01,9.797e+00,7.013e+00,9.496e+00,1.002e+01,8.701e+00
7.895e-01,3.425e-01,8.359e-01,1.006e+00,1.976e+00,1.920e+00,2.869e+00,1.345e+00,1.311e+00,2.906e+00,4.218e+00,4.194e+00,4.188e+00,4.311e+00,3.556e+00,4.952e+00,3.262e+00,4.134e+00,2.966e+00,3.630e+00,5.286e+00,5.911e+00,6.600e+00,6.750e+00,6.051e+00,5.037e+00,5.518e+00,6.642e+00,7.364e+00,7.001e+00,7.083e+00,8.432e+00,6.685e+00,8.397e+00,7.901e+00,7.883e+00,1.069e+01,8.718e+00,7.216e+00,9.086e+00,8.690e+00,7.376e+00,8.138e+00,9.331e+00,8.309e+00,6.947e+00,8.975e+00,7.082e+00,8.017e+00,9.059e+00,8.358e+00,9.538e+00,7.883e+00,7.576e+00,7.868e+00,7.655e+00,8.614e+00,8.244e+00,8.968e+00,6.947e+00,7.474e+00,1.024e+01,8.537e+00,6.853e+00,8.686e+00,7.952e+00,7.919e+00
5.473e-01,3.698e-01,9.483e-01,7.626e-01,1.223e+00,1.337e+00,2.320e+00,8.480e-01,1.095e+00,2.279e+00,4.069e+00,3.566e+00,3.961e+00,4.236e+00,3.916e+00,4.701e+00,3.396e+00,4.634e+00,4.100e+00,4.126e+00,5.169e+00,6.842e+00,7.162e+00,8.516e+00,8.102e+00,5.490e+00,6.808e+00,7.834e+00,8.460e+00,7.807e+00,7.967e+00,9.746e+00,7.634e+00,9.383e+00,1.001e+01,8.362e+00,1.024e+01,1.004e+01,7.707e+00,9.625e+00,1.068e+01,6.649e+00,1.057e+01,9.831e+00,9.317e+00,8.607e+00,1.002e+01,7.893e+00,8.152e+00,9.928e+00,8.594e+00,1.002e+01,8.344e+00,9.935e+00,1.035e+01,7.947e+00,9.022e+00,7.903e+00,9.661e+00,8.489e+00,9.500e+00,1.148e+01,9.441e+00,8.883e+00,9.682e+00,8.960e+00,1.085e+01
8.183e-01,2.978e-01,6.342e-01,1.007e+00,1.539e+00,1.397e+00,2.740e+00,1.405e+00,1.533e+00,2.829e+00,4.162e+00,4.028e+00,3.715e+00,4.208e+00,4.137e+00,4.907e+00,3.145e+00,4.778e+00,3.463e+00,4.205e+00,5.014e+00,5.958e+00,6.664e+00,7.555e+00,8.616e+00,6.720e+00,6.353e+00,7.146e+00,9.941e+00,8.961e+00,8.327e+00,1.008e+01,7.094e+00,9.378e+00,9.890e+00,8.878e+00,1.045e+01,9.612e+00,7.659e+00,8.690e+00,1.085e+01,8.657e+00,1.069e+01,1.010e+01,9.113e+00,8.552e+00,1.128e+01,8.333e+00,9.104e+00,9.795e+00,9.625e+00,9.795e+00,9.449e+00,9.486e+00,1.043e+01,8.741e+00,9.617e+00,7.488e+00,1.075e+01,8.337e+00,9.426e+00,1.136e+01,1.047e+01,9.151e+00,1.094e+01,9.351e+00,1.034e+01
5.526e-01,1.753e-01,4.582e-01,5.524e-01,1.543e+00,1.317e+00,2.540e+00,1.017e+00,1.136e+00,2.150e+00,3.378e+00,3.855e+00,3.019e+00,3.417e+00,2.759e+00,3.624e+00,2.405e+00,3.335e+00,2.553e+00,2.885e+00,4.620e+00,5.312e+00,6.055e+00,6.520e+00,6.783e+00,5.107e+00,5.832e+00,6.198e+00,7.128e+00,7.776e+00,7.453e+00,8.483e+00,6.885e+00,8.482e+00,9.012e+00,7.968e+00,1.122e+01,7.683e+00,7.741e+00,9.540e+00,8.770e+00,7.990e+00,8.516e+00,9.977e+00,9.552e+00,7.795e+00,1.025e+01,6.373e+00,9.095e+00,9.558e+00,8.967e+00,9.369e+00,9.212e+00,9.416e+00,8.807e+00,8.732e+00,8.959e+00,7.692e+00,9.455e+00,8.653e+00,8.865e+00,1.116e+01,8.755e+00,7.651e+00,9.312e+00,9.218e+00,9.436e+00
5.215e-01,2.661e-01,6.802e-01,7.570e-01,1.522e+00,1.549e+00,2.609e+00,1.788e+00,1.595e+00,2.544e+00,4.246e+00,4.304e+00,3.966e+00,3.920e+00,3.341e+00,3.941e+00,3.277e+00,4.188e+00,3.400e+00,4.168e+00,5.818e+00,7.438e+00,7.471e+00,7.150e+00,7.639e+00,5.729e+00,6.240e+00,6.848e+00,8.276e+00,8.952e+00,9.362e+00,8.916e+00,7.308e+00,9.904e+00,1.025e+01,8.903e+00,1.274e+01,1.078e+01,8.714e+00,1.292e+01,1.208e+01,9.358e+00,1.045e+01,1.201e+01,1.049e+01,1.100e+01,1.153e+01,8.653e+00,1.031e+01,1.133e+01,1.035e+01,1.187e+01,9.640e+00,1.145e+01,1.129e+01,1.020e+01,1.117e+01,9.703e+00,1.169e+01,1.032e+01,1.098e+01,1.395e+01,1.151e+01,8.910e+00,1.265e+01,1.093e+01,1.239e+01
3.676e-01,1.419e-01,3.586e-01,7.493e-01,1.047e+00,8.006e-01,2.224e+00,1.720e+00,1.241e+00,2.044e+00,3.398e+00,3.997e+00,3.487e+00,4.236e+00,4.572e+00,4.850e+00,3.613e+00,4.094e+00,3.304e+00,4.188e+00,4.936e+00,6.545e+00,7.497e+00,5.684e+00,6.210e+00,5.770e+00,4.925e+00,5.109e+00,7.897e+00,7.539e+00,7.862e+00,8.512e+00,6.484e+00,9.277e+00,8.435e+00,7.029e+00,1.084e+01,9.504e+00,7.282e+00,1.042e+01,1.137e+01,7.940e+00,9.867e+00,1.053e+01,9.841e+00,7.804e+00,1.000e+01,7.993e+00,1.051e+01,9.828e+00,1.009e+01,9.917e+00,9.056e+00,9.764e+00,9.966e+00,8.999e+00,1.044e+01,8.325e+00,1.083e+01,8.498e+00,9.620e+00,1.158e+01,1.167e+01,8.457e+00,1.063e+01,1.010e+01,9.780e+00
5.356e-01,1.519e-01,2.555e-01,2.624e-01,8.108e-01,1.166e+00,2.145e+00,8.819e-01,9.488e-01,1.626e+00,2.753e+00,3.359e+00,2.764e+00,3.630e+00,3.590e+00,4.926e+00,2.917e+00,3.821e+00,4.007e+00,3.638e+00,4.900e+00,5.852e+00,6.236e+00,7.055e+00,6.431e+00,5.029e+00,5.368e+00,6.933e+00,7.777e+00,7.092e+00,8.147e+00,8.783e+00,7.320e+00,9.892e+00,9.324e+00,9.443e+00,1.044e+01,8.842e+00,8.435e+00,1.042e+01,1.008e+01,9.093e+00,1.008e+01,1.115e+01,9.135e+00,9.679e+00,1.030e+01,7.462e+00,9.774e+00,1.047e+01,9.107e+00,1.003e+01,9.563e+00,1.044e+01,1.011e+01,9.038e+00,1.071e+01,8.577e+00,1.141e+01,9.784e+00,1.003e+01,1.246e+01,1.104e+01,7.962e+00,1.043e+01,1.105e+01,1.167e+01
8.234e-01,3.217e-01,7.095e-01,1.080e+00,1.620e+00,1.639e+00,2.606e+00,1.998e+00,1.670e+00,2.839e+00,4.193e+00,4.697e+00,4.390e+00,4.679e+00,4.086e+00,5.569e+00,4.627e+00,5.195e+00,4.329e+00,4.015e+00,6.133e+00,7.705e+00,7.561e+00,7.046e+00,8.023e+00,6.303e+00,5.833e+00,6.266e+00,8.873e+00,8.661e+00,8.514e+00,1.003e+01,7.640e+00,9.205e+00,1.004e+01,8.802e+00,1.168e+01,1.124e+01,8.280e+00,1.091e+01,1.215e+01,8.050e+00,1.180e+01,1.278e+01,1.101e+01,1.021e+01,1.248e+01,8.816e+00,1.044e+01,1.146e+01,1.123e+01,1.211e+01,1.028e+01,1.218e+01,1.267e+01,1.084e+01,1.173e+01,1.018e+01,1.282e+01,9.492e+00,1.152e+01,1.369e+01,1.197e+01,1.036e+01,1.266e+01,1.113e+01,1.276e+01
8.491e-01,4.304e-01,9.484e-01,1.188e+00,1.476e+00,1.740e+00,2.867e+00,1.762e+00,1.622e+00,3.043e+00,4.201e+00,4.363e+00,4.130e+00,4.218e+00,3.593e+00,4.302e+00,3.319e+00,3.818e+00,3.068e+00,4.114e+00,6.087e+00,6.884e+00,7.647e+00,6.586e+00,7.292e+00,5.918e+00,6.418e+00,7.067e+00,8.451e+00,8.017e+00,9.264e+00,9.381e+00,7.867e+00,9.377e+00,1.028e+01,8.371e+00,1.133e+01,1.005e+01,8.940e+00,1.106e+01,1.246e+01,8.401e+00,1.083e+01,1.451e+01,1.136e+01,1.032e+01,1.298e+01,9.498e+00,1.054e+01,1.141e+01,1.026e+01,1.015e+01,1.061e+01,1.107e+01,1.232e+01,1.174e+01,1.148e+01,1.114e+01,1.332e+01,9.630e+00,1.048e+01,1.322e+01,1.249e+01,1.016e+01,1.229e+01,1.260e+01,1.207e+01
1.262e-01,1.723e-01,5.772e-01,8.844e-01,1.405e+00,7.265e-01,1.520e+00,1.248e+00,1.233e+00,1.961e+00,3.293e+00,3.908e+00,2.996e+00,3.823e+00,3.465e+00,5.044e+00,3.727e+00,4.195e+00,4.153e+00,3.782e+00,4.672e+00,6.110e+00,6.758e+00,7.279e+00,8.070e+00,5.858e+00,5.699e+00,6.456e+00,9.024e+00,9.025e+00,8.562e+00,1.062e+01,8.086e+00,9.994e+00,1.092e+01,1.072e+01,1.208e+01,1.025e+01,9.128e+00,9.452e+00,1.238e+01,9.207e+00,1.109e+01,1.504e+01,1.108e+01,1.149e+01,1.323e+01,9.922e+00,1.163e+01,1.163e+01,1.199e+01,1.317e+01,1.210e+01,1.205e+01,1.271e+01,1.285e+01,1.265e+01,1.065e+01,1.463e+01,1.057e+01,1.233e+01,1.519e+01,1.341e+01,1.117e+01,1.254e+01,1.358e+01,1.503e+01
4.390e-01,2.155e-01,5.962e-01,5.547e-01,9.294e-01,7.893e-01,1.594e+00,1.399e+00,1.297e+00,1.725e+00,3.214e+00,3.595e+00,3.164e+00,3.827e+00,3.341e+00,3.820e+00,3.224e+00,4.011e+00,2.708e+00,2.823e+00,4.081e+00,5.836e+00,5.949e+00,5.953e+00,6.029e+00,4.494e+00,5.459e+00,5.472e+00,6.832e+00,6.156e+00,5.906e+00,7.337e+00,5.806e+00,8.600e+00,7.215e+00,6.173e+00,8.939e+00,8.406e+00,7.315e+00,8.804e+00,9.365e+00,7.648e+00,9.679e+00,1.071e+01,8.883e+00,9.748e+00,1.158e+01,9.301e+00,9.484e+00,1.008e+01,1.012e+01,1.052e+01,9.503e+00,9.619e+00,1.139e+01,9.055e+00,1.026e+01,9.199e+00,1.176e+01,9.099e+00,9.884e+00,1.218e+01,1.021e+01,1.016e+01,1.032e+01,9.039e+00,1.139e+01
4.894e-01,1.102e-01,1.274e-01,5.987e-01,1.269e+00,1.525e+00,2.512e+00,1.818e+00,1.273e+00,2.289e+00,3.631e+00,4.704e+00,3.786e+00,4.131e+00,3.515e+00,5.389e+00,3.669e+00,3.691e+00,3.869e+00,4.440e+00,5.842e+00,6.759e+00,7.068e+00,6.245e+00,6.815e+00,5.836e+00,5.349e+00,5.938e+00,8.532e+00,7.968e+00,8.547e+00,8.762e+00,8.552e+00,9.282e+00,9.410e+00,7.522e+00,1.053e+01,9.187e+00,8.904e+00,9.504e+00,1.216e+01,8.907e+00,1.052e+01,1.221e+01,1.072e+01,1.012e+01,1.323e+01,9.310e+00,1.192e+01,1.214e+01,1.166e+01,1.217e+01,1.116e+01,1.094e+01,1.300e+01,1.141e+01,1.252e+01,1.061e+01,1.442e+01,1.041e+01,1.144e+01,1.390e+01,1.242e+01,1.029e+01,1.187e+01,1.336e+01,1.229e+01
7.067e-01,1.669e-01,2.399e-01,7.051e-01,1.144e+00,1.141e+00,2.318e+00,1.040e+00,1.052e+00,2.219e+00,3.599e+00,4.073e+00,3.600e+00,4.416e+00,3.893e+00,5.182e+00,3.280e+00,4.008e+00,3.590e+00,4.053e+00,5.566e+00,6.370e+00,7.287e+00,7.031e+00,6.637e+00,6.241e+00,5.496e+00,6.233e+00,8.579e+00,6.969e+00,8.669e+00,9.100e+00,7.586e+00,9.294e+00,8.991e+00,8.732e+00,1.098e+01,9.443e+00,8.302e+00,1.006e+01,1.020e+01,8.604e+00,1.055e+01,1.189e+01,1.113e+01,1.017e+01,1.252e+01,1.096e+01,1.133e+01,1.282e+01,1.257e+01,1.280e+01,1.081e+01,1.168e+01,1.352e+01,1.203e+01,1.258e+01,1.130e+01,1.434e+01,1.293e+01,1.108e+01,1.422e+01,1.325e+01,1.060e+01,1.358e+01,1.262e+01,1.290e+01
4.109e-01,3.209e-01,8.965e-01,1.121e+00,1.751e+00,1.513e+00,2.670e+00,1.874e+00,1.499e+00,2.729e+00,3.893e+00,4.008e+00,3.738e+00,4.125e+00,4.234e+00,4.626e+00,3.846e+00,4.883e+00,3.963e+00,4.548e+00,5.587e+00,7.307e+00,7.788e+00,7.115e+00,7.805e+00,6.412e+00,6.272e+00,6.200e+00,9.171e+00,8.022e+00,7.856e+00,9.417e+00,7.032e+00,9.512e+00,9.029e+00,8.084e+00,1.076e+01,1.116e+01,7.132e+00,1.086e+01,1.097e+01,9.162e+00,1.194e+01,1.258e+01,1.012e+01,1.124e+01,1.150e+01,1.165e+01,1.115e+01,1.325e+01,1.245e+01,1.363e+01,1.130e+01,1.239e+01,1.400e+01,1.188e+01,1.290e+01,1.160e+01,1.400e+01,1.128e+01,1.206e+01,1.509e+01,1.270e+01,1.153e+01,1.331e+01,1.253e+01,1.296e+01
8.959e-01,3.950e-01,8.350e-01,8.228e-01,9.925e-01,1.549e+00,2.502e+00,1.636e+00,1.453e+00,2.794e+00,3.811e+00,3.783e+00,3.622e+00,3.838e+00,3.511e+00,4.336e+00,2.977e+00,3.725e+00,3.026e+00,3.650e+00,5.384e+00,6.250e+00,7.183e+00,6.803e+00,7.796e+00,5.444e+00,6.194e+00,6.309e+00,8.720e+00,8.252e+00,8.090e+00,9.403e+00,6.982e+00,8.338e+00,9.717e+00,9.478e+00,1.072e+01,9.646e+00,7.831e+00,9.998e+00,1.080e+01,7.761e+00,1.034e+01,1.225e+01,1.042e+01,9.678e+00,1.238e+01,9.816e+00,1.016e+01,1.382e+01,1.355e+01,1.507e+01,1.248e+01,1.351e+01,1.372e+01,1.185e+01,1.452e+01,1.185e+01,1.515e+01,1.280e+01,1.189e+01,1.372e+01,1.291e+01,1.221e+01,1.388e+01,1.402e+01,1.484e+01
5.093e-01,2.277e-01,4.965e-01,5.138e-01,9.565e-01,1.239e+00,1.862e+00,9.284e-01,8.879e-01,1.917e+00,3.086e+00,3.495e+00,3.053e+00,3.406e+00,3.231e+00,4.605e+00,2.718e+00,3.693e+00,3.911e+00,4.153e+00,5.408e+00,6.353e+00,6.587e+00,6.904e+00,6.728e+00,5.698e+00,6.171e+00,7.100e+00,9.743e+00,7.884e+00,8.861e+00,8.309e+00,8.617e+00,1.042e+01,9.681e+00,9.333e+00,1.053e+01,1.100e+01,9.044e+00,1.116e+01,1.182e+01,9.955e+00,1.185e+01,1.388e+01,1.167e+01,1.135e+01,1.308e+01,1.112e+01,1.201e+01,1.381e+01,1.322e+01,1.451e+01,1.367e+01,1.437e+01,1.580e+01,1.435e+01,1.547e+01,1.263e+01,1.573e+01,1.375e+01,1.341e+01,1.564e+01,1.388e+01,1.212e+01,1.477e+01,1.565e+01,1.637e+01
6.460e-01,1.657e-01,3.687e-01,7.702e-01,1.922e+00,1.744e+00,3.070e+00,1.735e+00,1.512e+00,2.773e+00,4.594e+00,4.897e+00,4.546e+00,4.703e+00,4.613e+00,5.869e+00,3.791e+00,5.132e+00,4.354e+00,4.547e+00,6.195e+00,7.280e+00,7.752e+00,8.086e+00,8.887e+00,6.872e+00,6.632e+00,7.867e+00,1.027e+01,9.740e+00,9.553e+00,1.059e+01,8.472e+00,1.063e+01,1.055e+01,9.250e+00,1.257e+01,1.107e+01,8.319e+00,1.210e+01,1.253e+01,1.015e+01,1.181e+01,1.278e+01,1.208e+01,1.116e+01,1.357e+01,1.032e+01,1.182e+01,1.380e+01,1.310e+01,1.375e+01,1.420e+01,1.481e+01,1.434e+01,1.299e+01,1.408e+01,1.172e+01,1.478e+01,1.378e+01,1.366e+01,1.768e+01,1.402e+01,1.220e+01,1.533e+01,1.413e+01,1.601e+01
3.597e-01,2.403e-01,7.125e-01,8.371e-01,1.687e+00,1.309e+00,2.101e+00,1.118e+00,1.096e+00,2.108e+00,3.449e+00,3.706e+00,3.623e+00,3.868e+00,4.037e+00,4.978e+00,3.240e+00,4.214e+00,3.795e+00,4.296e+00,4.873e+00,6.149e+00,6.495e+00,6.742e+00,6.541e+00,5.851e+00,5.924e+00,6.811e+00,8.812e+00,7.933e+00,7.253e+00,8.762e+00,8.305e+00,9.939e+00,8.693e+00,6.840e+00,1.046e+01,9.474e+00,6.374e+00,9.784e+00,1.147e+01,8.505e+00,1.079e+01,1.170e+01,1.120e+01,8.919e+00,1.152e+01,9.024e+00,1.048e+01,1.077e+01,1.146e+01,1.104e+01,1.207e+01,1.156e+01,1.282e+01,1.230e+01,1.245e+01,1.065e+01,1.256e+01,1.061e+01,1.227e+01,1.555e+01,1.227e+01,1.061e+01,1.189e+01,1.255e+01,1.266e+01
7.348e-01,2.230e-01,5.047e-01,1.045e+00,2.096e+00,1.769e+00,3.013e+00,1.957e+00,1.753e+00,2.897e+00,4.090e+00,5.152e+00,4.107e+00,4.641e+00,3.422e+00,4.861e+00,3.685e+00,3.764e+00,3.220e+00,3.165e+00,5.146e+00,6.204e+00,7.255e+00,5.386e+00,6.948e+00,5.719e+00,5.451e+00,5.950e+00,8.564e+00,8.594e+00,8.191e+00,8.987e+00,7.549e+00,9.510e+00,9.802e+00,8.726e+00,1.195e+01,1.040e+01,8.029e+00,1.033e+01,1.203e+01,9.029e+00,1.028e+01,1.285e+01,1.107e+01,1.054e+01,1.297e+01,1.013e+01,1.083e+01,1.199e+01,1.233e+01,1.391e+01,1.224e+01,1.290e+01,1.467e+01,1.262e+01,1.396e+01,1.240e+01,1.537e+01,1.170e+01,1.244e+01,1.573e+01,1.421e+01,1.163e+01,1.372e+01,1.404e+01,1.408e+01
6.360e-01,2.529e-01,5.441e-01,7.609e-01,1.525e+00,1.750e+00,2.461e+00,1.429e+00,1.174e+00,2.370e+00,3.467e+00,4.192e+00,3.651e+00,3.960e+00,2.715e+00,4.836e+00,3.485e+00,4.024e+00,3.591e+00,2.991e+00,5.417e+00,6.384e+00,6.131e+00,7.154e+00,7.412e+00,5.944e+00,5.774e+00,6.098e+00,7.419e+00,7.959e+00,8.093e+00,8.980e+00,7.299e+00,8.795e+00,8.974e+00,9.331e+00,1.156e+01,1.038e+01,8.489e+00,1.041e+01,1.208e+01,8.766e+00,1.074e+01,1.274e+01,1.083e+01,1.049e+01,1.190e+01,1.015e+01,1.125e+01,1.276e+01,1.352e+01,1.357e+01,1.179e+01,1.323e+01,1.412e+01,1.434e+01,1.476e+01,1.279e+01,1.466e+01,1.309e+01,1.363e+01,1.836e+01,1.376e+01,1.203e+01,1.410e+01,1.376e+01,1.541e+01
5.996e-01,2.738e-01,6.504e-01,1.071e+00,1.607e+00,1.434e+00,2.262e+00,1.898e+00,1.585e+00,2.660e+00,3.980e+00,3.893e+00,4.009e+00,3.684e+00,3.678e+00,3.954e+00,3.279e+00,4.026e+00,3.021e+00,4.039e+00,5.431e+00,6.531e+00,7.031e+00,5.817e+00,7.812e+00,5.626e+00,6.763e+00,6.542e+00,9.694e+00,7.821e+00,8.289e+00,9.291e+00,8.158e+00,9.291e+00,9.612e+00,8.043e+00,1.089e+01,1.005e+01,7.732e+00,1.071e+01,1.177e+01,9.369e+00,1.187e+01,1.408e+01,1.055e+01,1.118e+01,1.319e+01,1.049e+01,9.643e+00,1.242e+01,1.176e+01,1.329e+01,1.277e+01,1.347e+01,1.508e+01,1.444e+01,1.413e+01,1.166e+01,1.503e+01,1.272e+01,1.360e+01,1.663e+01,1.501e+01,1.172e+01,1.442e+01,1.606e+01,1.637e+01
3.102e-01,1.984e-01,5.850e-01,6.734e-01,1.045e+00,7.822e-01,1.234e+00,9.725e-01,7.750e-01,1.819e+00,3.409e+00,3.301e+00,3.413e+00,3.681e+00,3.251e+00,4.940e+00,3.628e+00,4.652e+00,3.866e+00,3.728e+00,4.583e+00,6.594e+00,6.000e+00,7.119e+00,7.051e+00,5.568e+00,5.568e+00,6.468e+00,8.811e+00,7.999e+00,7.726e+00,9.359e+00,7.499e+00,9.391e+00,1.026e+01,8.900e+00,9.767e+00,1.009e+01,8.421e+00,9.264e+00,1.192e+01,8.849e+00,1.224e+01,1.302e+01,1.117e+01,1.095e+01,1.254e+01,1.074e+01,1.165e+01,1.255e+01,1.308e+01,1.379e+01,1.267e+01,1.285e+01,1.472e+01,1.396e+01,1.541e+01,1.187e+01,1.561e+01,1.216e+01,1.355e+01,1.708e+01,1.486e+01,1.298e+01,1.502e+01,1.485e+01,1.608e+01
5.338e-01,1.913e-01,4.204e-01,4.600e-01,8.330e-01,9.863e-01,1.365e+00,1.217e+00,1.093e+00,1.597e+00,2.368e+00,2.924e+00,2.463e+00,3.148e+00,2.698e+00,4.090e+00,3.014e+00,3.635e+00,3.060e+00,2.665e+00,3.988e+00,5.280e+00,5.090e+00,5.716e+00,5.629e+00,4.469e+00,4.274e+00,4.662e+00,6.259e+00,6.411e+00,6.628e+00,7.733e+00,5.919e+00,8.051e+00,8.109e+00,8.691e+00,9.684e+00,8.230e+00,7.414e+00,8.701e+00,1.082e+01,7.988e+00,1.044e+01,1.229e+01,8.915e+00,9.861e+00,1.077e+01,9.637e+00,1.061e+01,1.167e+01,1.234e+01,1.271e+01,1.219e+01,1.194e+01,1.361e+01,1.332e+01,1.438e+01,1.159e+01,1.580e+01,1.240e+01,1.425e+01,1.690e+01,1.333e+01,1.241e+01,1.394e+01,1.317e+01,1.558e+01
6.832e-01,2.804e-01,5.908e-01,9.390e-01,1.121e+00,1.068e+00,2.090e+00,1.091e+00,1.095e+00,2.288e+00,3.294e+00,3.611e+00,3.012e+00,3.568e+00,2.720e+00,4.692e+00,3.796e+00,3.719e+00,3.298e+00,4.070e+00,5.429e+00,6.724e+00,7.423e+00,7.891e+00,7.982e+00,6.517e+00,6.565e+00,6.999e+00,9.807e+00,8.418e+00,8.148e+00,9.664e+00,7.957e+00,9.483e+00,9.663e+00,8.897e+00,1.110e+01,1.156e+01,7.674e+00,1.038e+01,1.100e+01,9.039e+00,1.224e+01,1.237e+01,1.080e+01,1.072e+01,1.265e+01,1.153e+01,1.166e+01,1.364e+01,1.360e+01,1.393e+01,1.415e+01,1.417e+01,1.638e+01,1.496e+01,1.570e+01,1.359e+01,1.859e+01,1.479e+01,1.443e+01,1.916e+01,1.525e+01,1.498e+01,1.761e+01,1.674e+01,1.780e+01
6.680e-01,2.956e-01,7.826e-01,1.181e+00,1.652e+00,1.027e+00,1.927e+00,1.040e+00,1.053e+00,2.522e+00,3.333e+00,3.705e+00,3.268e+00,4.089e+00,3.646e+00,6.081e+00,4.038e+00,4.223e+00,3.347e+00,3.550e+00,4.293e+00,5.421e+00,6.565e+00,6.676e+00,7.132e+00,5.669e+00,5.319e+00,6.207e+00,9.320e+00,7.446e+00,6.768e+00,9.331e+00,8.006e+00,9.331e+00,8.873e+00,8.355e+00,9.700e+00,8.955e+00,7.553e+00,8.312e+00,1.028e+01,8.088e+00,1.111e+01,1.237e+01,1.053e+01,9.538e+00,1.261e+01,1.018e+01,1.060e+01,1.242e+01,1.281e+01,1.291e+01,1.311e+01,1.176e+01,1.340e+01,1.419e+01,1.373e+01,1.127e+01,1.592e+01,1.316e+01,1.240e+01,1.553e+01,1.349e+01,1.272e+01,1.588e+01,1.524e+01,1.615e+01
2.087e-01,1.853e-01,5.343e-01,4.863e-01,1.001e+00,9.597e-01,1.543e+00,6.302e-01,5.900e-01,1.523e+00,3.079e+00,3.122e+00,3.236e+00,3.354e+00,3.401e+00,4.665e+00,3.240e+00,4.114e+00,4.508e+00,4.170e+00,5.268e+00,6.883e+00,6.850e+00,7.968e+00,7.371e+00,5.991e+00,6.548e+00,8.015e+00,8.933e+00,7.288e+00,7.995e+00,9.308e+00,7.990e+00,9.358e+00,9.851e+00,8.302e+00,9.622e+00,1.001e+01,7.812e+00,9.930e+00,1.014e+01,8.645e+00,1.121e+01,1.195e+01,1.102e+01,1.052e+01,1.149e+01,9.383e+00,1.084e+01,1.213e+01,1.154e+01,1.311e+01,1.289e+01,1.277e+01,1.577e+01,1.459e+01,1.402e+01,1.167e+01,1.583e+01,1.309e+01,1.462e+01,1.763e+01,1.478e+01,1.395e+01,1.499e+01,1.666e+01,1.769e+01
1.455e-01,2.067e-01,6.497e-01,8.101e-01,1.312e+00,9.793e-01,1.999e+00,1.334e+00,1.077e+00,2.214e+00,4.223e+00,4.040e+00,3.926e+00,3.950e+00,4.086e+00,3.975e+00,3.088e+00,4.708e+00,4.053e+00,3.790e+00,5.150e+00,6.165e+00,6.284e+00,7.662e+00,8.020e+00,7.030e+00,6.128e+00,6.902e+00,9.121e+00,8.848e+00,9.100e+00,1.031e+01,7.153e+00,9.523e+00,1.014e+01,9.185e+00,1.102e+01,1.048e+01,7.742e+00,9.889e+00,1.059e+01,9.503e+00,1.122e+01,1.281e+01,1.080e+01,1.053e+01,1.191e+01,1.153e+01,1.202e+01,1.338e+01,1.315e+01,1.298e+01,1.392e+01,1.326e+01,1.405e+01,1.472e+01,1.632e+01,1.231e+01,1.637e+01,1.377e+01,1.433e+01,1.980e+01,1.696e+01,1.489e+01,1.831e+01,1.635e+01,1.805e+01
2.669e-01,8.173e-02,1.333e-01,2.687e-01,3.518e-01,4.753e-01,7.203e-01,7.967e-01,6.517e-01,8.895e-01,1.686e+00,2.314e+00,1.788e+00,2.570e+00,1.612e+00,3.278e+00,2.565e+00,2.623e+00,2.517e+00,2.690e+00,3.526e+00,5.443e+00,5.101e+00,4.625e+00,4.440e+00,3.654e+00,4.245e+00,4.639e+00,6.409e+00,5.659e+00,6.242e+00,5.835e+00,5.459e+00,7.686e+00,7.799e+00,6.818e+00,8.107e+00,8.155e+00,6.793e+00,8.333e+00,1.062e+01,7.147e+00,9.707e+00,1.093e+01,8.518e+00,9.417e+00,9.856e+00,8.639e+00,1.016e+01,1.011e+01,1.163e+01,1.190e+01,1.023e+01,1.151e+01,1.225e+01,1.327e+01,1.241e+01,1.025e+01,1.513e+01,1.167e+01,1.402e+01,1.587e+01,1.347e+01,1.330e+01,1.548e+01,1.624e+01,1.613e+01
4.349e-01,2.054e-01,4.767e-01,6.611e-01,1.253e+00,1.359e+00,2.019e+00,1.186e+00,9.662e-01,2.196e+00,3.835e+00,3.628e+00,3.728e+00,3.553e+00,2.886e+00,3.736e+00,2.584e+00,3.814e+00,3.002e+00,3.230e+00,5.184e+00,5.944e+00,6.213e+00,7.441e+00,7.617e+00,5.916e+00,6.855e+00,7.545e+00,9.342e+00,8.439e+00,8.753e+00,1.016e+01,7.892e+00,8.901e+00,1.024e+01,9.636e+00,1.141e+01,1.051e+01,8.028e+00,9.590e+00,1.185e+01,8.814e+00,1.221e+01,1.425e+01,1.152e+01,1.091e+01,1.311e+01,1.130e+01,1.114e+01,1.377e+01,1.323e+01,1.424e+01,1.447e+01,1.522e+01,1.566e+01,1.462e+01,1.580e+01,1.293e+01,1.689e+01,1.505e+01,1.413e+01,1.947e+01,1.623e+01,1.572e+01,1.968e+01,1.909e+01,2.011e+01
1.632e-01,2.997e-01,8.655e-01,7.116e-01,7.723e-01,6.681e-01,1.306e+00,8.894e-01,9.856e-01,1.648e+00,3.494e+00,3.566e+00,3.509e+00,4.375e+00,3.982e+00,4.472e+00,3.384e+00,4.733e+00,4.191e+00,4.483e+00,5.727e+00,8.042e+00,7.990e+00,8.381e+00,7.853e+00,5.996e+00,7.382e+00,7.545e+00,9.323e+00,9.324e+00,8.696e+00,1.019e+01,7.174e+00,1.114e+01,1.067e+01,9.257e+00,1.228e+01,1.286e+01,9.365e+00,1.121e+01,1.279e+01,1.015e+01,1.225e+01,1.354e+01,1.122e+01,1.130e+01,1.242e+01,1.103e+01,1.219e+01,1.285e+01,1.310e+01,1.492e+01,1.347e+01,1.355e+01,1.551e+01,1.457e+01,1.520e+01,1.206e+01,1.708e+01,1.266e+01,1.565e+01,1.907e+01,1.607e+01,1.501e+01,1.858e+01,1.742e+01,1.886e+01
6.718e-01,3.328e-01,7.874e-01,1.008e+00,1.127e+00,1.175e+00,2.396e+00,1.521e+00,1.169e+00,2.745e+00,4.363e+00,4.648e+00,4.239e+00,4.453e+00,4.513e+00,5.413e+00,3.663e+00,4.542e+00,3.936e+00,3.953e+00,6.098e+00,6.574e+00,7.888e+00,8.120e+00,8.201e+00,7.490e+00,6.824e+00,8.162e+00,1.085e+01,9.125e+00,9.848e+00,1.096e+01,8.820e+00,1.018e+01,9.643e+00,9.245e+00,1.114e+01,1.081e+01,9.316e+00,1.023e+01,1.078e+01,8.310e+00,1.097e+01,1.222e+01,1.075e+01,9.673e+00,1.405e+01,1.084e+01,1.154e+01,1.306e+01,1.414e+01,1.479e+01,1.420e+01,1.399e+01,1.567e+01,1.524e+01,1.661e+01,1.328e+01,1.762e+01,1.528e+01,1.438e+01,1.924e+01,1.638e+01,1.598e+01,2.098e+01,1.970e+01,2.130e+01
8.440e-01,2.748e-01,5.363e-01,6.169e-01,1.447e+00,1.876e+00,2.437e+00,1.202e+00,1.115e+00,2.338e+00,3.374e+00,3.959e+00,3.670e+00,4.066e+00,2.769e+00,5.678e+00,3.793e+00,4.039e+00,3.783e+00,3.741e+00,5.506e+00,7.058e+00,6.961e+00,7.655e+00,7.567e+00,5.527e+00,6.523e+00,6.901e+00,8.592e+00,6.936e+00,7.545e+00,9.091e+00,7.956e+00,8.919e+00,9.588e+00,8.211e+00,1.028e+01,9.171e+00,7.270e+00,9.507e+00,1.128e+01,7.837e+00,1.174e+01,1.290e+01,1.111e+01,1.045e+01,1.199e+01,9.884e+00,1.059e+01,1.331e+01,1.207e+01,1.327e+01,1.326e+01,1.347e+01,1.534e+01,1.350e+01,1.385e+01,1.201e+01,1.548e+01,1.392e+01,1.354e+01,1.729e+01,1.416e+01,1.384e+01,1.576e+01,1.834e+01,1.908e+01
