3.432e-01,7.431e-01,9.491e-01,7.258e-01,7.735e-01,8.904e-01,8.954e-01,8.360e-01,4.227e-01,6.675e-01,9.402e-01,6.145e-01,3.680e-01,4.536e-01,7.434e-02,2.453e-01,1.798e-01,2.855e-02,7.377e-03,2.970e-02,4.678e-01,9.995e-01,7.570e-01,5.441e-01,8.219e-01,7.626e-01,1.998e-01,7.806e-01,4.046e-01,9.364e-01,8.790e-01,1.769e-03,9.664e-01,2.162e-01,1.624e-01,4.146e-01,4.989e-01,2.534e-01,9.390e-01,5.846e-01,9.804e-01,5.858e-02,7.123e-01,4.363e-01,3.567e-01,5.570e-01,6.919e-02,3.214e-01,8.268e-01,7.348e-01,5.867e-01,1.211e-01
2.409e-01,5.883e-01,7.972e-01,8.542e-01,1.448e+00,9.164e-01,1.156e+00,1.266e+00,1.258e+00,1.087e+00,1.237e+00,7.926e-01,6.854e-01,9.114e-01,5.464e-01,7.711e-01,8.621e-01,5.913e-01,4.767e-01,6.400e-01,6.056e-01,1.113e+00,1.047e+00,6.308e-01,1.468e+00,1.459e+00,1.057e+00,1.378e+00,9.266e-01,9.335e-01,1.218e+00,5.467e-01,8.652e-01,4.841e-01,1.838e-01,1.094e+00,1.187e+00,2.616e-01,1.562e+00,5.911e-01,1.266e+00,3.757e-01,1.016e+00,1.108e+00,6.668e-01,1.261e+00,8.754e-01,3.706e-01,1.276e+00,7.219e-01,6.269e-01,5.308e-01
1.844e-01,4.219e-01,1.040e+00,5.266e-01,1.606e+00,1.538e+00,1.608e+00,1.194e+00,7.060e-01,1.483e+00,1.148e+00,9.407e-01,5.464e-01,1.141e+00,5.907e-01,1.286e+00,8.516e-01,5.793e-01,1.003e+00,6.699e-01,7.739e-01,1.211e+00,1.560e+00,1.034e+00,1.167e+00,1.112e+00,1.118e+00,1.367e+00,6.836e-01,7.055e-01,1.608e+00,7.664e-01,9.921e-01,7.505e-01,1.095e+00,1.005e+00,1.421e+00,4.933e-01,9.232e-01,5.906e-01,1.661e+00,9.475e-01,1.343e+00,1.168e+00,1.012e+00,1.271e+00,1.250e+00,3.459e-01,1.410e+00,5.951e-01,7.643e-01,9.666e-01
4.902e-04,7.538e-03,2.507e-01,1.015e+00,1.192e+00,8.426e-01,9.754e-01,9.359e-01,1.047e+00,1.162e+00,1.038e+00,1.189e+00,2.388e-01,7.304e-01,6.969e-01,1.513e+00,9.515e-01,7.403e-01,1.360e+00,7.209e-01,8.238e-01,3.955e-01,7.151e-01,8.006e-01,4.633e-01,5.207e-01,1.220e+00,1.357e+00,7.056e-01,7.385e-01,7.221e-01,4.395e-01,8.963e-01,1.118e+00,1.168e+00,4.215e-01,6.161e-01,5.948e-01,3.570e-01,1.004e+00,5.422e-01,7.242e-01,9.708e-01,6.059e-01,8.008e-01,1.365e+00,9.050e-01,2.774e-01,6.384e-01,8.972e-02,7.736e-01,1.055e+00
2.151e-01,4.823e-01,6.669e-01,7.959e-01,1.329e+00,1.006e+00,1.444e+00,1.189e+00,1.577e+00,1.283e+00,1.626e+00,1.373e+00,8.673e-01,6.460e-01,8.981e-01,8.997e-01,1.063e+00,8.105e-01,7.260e-01,9.193e-01,9.453e-01,1.292e+00,1.292e+00,1.392e+00,1.394e+00,8.477e-01,1.274e+00,1.107e+00,8.199e-01,1.689e+00,1.372e+00,8.736e-01,1.403e+00,8.572e-01,6.259e-01,1.245e+00,1.017e+00,9.935e-01,1.083e+00,1.016e+00,1.361e+00,8.134e-01,1.719e+00,1.354e+00,5.572e-01,1.211e+00,1.177e+00,6.158e-01,1.440e+00,8.542e-01,1.470e+00,4.887e-01
1.512e-01,3.353e-01,6.247e-01,4.879e-01,1.221e+00,1.385e+00,1.722e+00,1.307e+00,1.416e+00,1.565e+00,1.953e+00,2.107e+00,1.169e+00,7.610e-01,1.270e+00,1.640e+00,1.041e+00,1.647e+00,1.772e+00,1.768e+00,1.033e+00,1.901e+00,2.102e+00,1.353e+00,1.214e+00,1.485e+00,2.080e+00,1.745e+00,1.555e+00,1.612e+00,1.726e+00,1.110e+00,2.100e+00,1.139e+00,1.561e+00,1.692e+00,1.483e+00,1.280e+00,1.086e+00,1.401e+00,1.722e+00,1.113e+00,2.496e+00,1.393e+00,6.202e-01,1.941e+00,2.206e+00,5.430e-01,2.022e+00,9.761e-01,2.101e+00,1.446e+00
1.055e-01,2.659e-01,4.948e-01,8.213e-01,1.259e+00,1.033e+00,2.155e+00,1.916e+00,1.998e+00,1.915e+00,1.814e+00,1.454e+00,8.888e-01,1.125e+00,1.694e+00,1.914e+00,1.691e+00,1.641e+00,2.324e+00,2.080e+00,1.218e+00,2.063e+00,1.812e+00,1.107e+00,1.929e+00,1.456e+00,1.913e+00,1.801e+00,1.475e+00,1.748e+00,1.483e+00,7.994e-01,1.846e+00,1.392e+00,1.858e+00,1.264e+00,1.897e+00,1.233e+00,1.304e+00,1.912e+00,1.455e+00,7.247e-01,2.071e+00,1.604e+00,1.383e+00,2.740e+00,2.320e+00,1.037e+00,1.973e+00,1.332e+00,1.539e+00,1.764e+00
2.442e-01,5.819e-01,1.224e+00,1.124e+00,2.606e+00,2.041e+00,2.941e+00,3.106e+00,3.033e+00,3.061e+00,3.353e+00,2.070e+00,1.840e+00,2.200e+00,2.035e+00,3.076e+00,2.901e+00,2.439e+00,2.995e+00,2.461e+00,1.893e+00,3.045e+00,3.263e+00,2.755e+00,3.360e+00,2.110e+00,3.258e+00,3.241e+00,1.746e+00,3.200e+00,3.480e+00,1.799e+00,2.923e+00,2.572e+00,2.843e+00,2.307e+00,2.774e+00,2.099e+00,2.621e+00,2.244e+00,3.320e+00,2.442e+00,3.540e+00,3.429e+00,2.401e+00,2.990e+00,2.817e+00,1.280e+00,3.483e+00,1.452e+00,2.096e+00,1.935e+00
2.966e-01,6.803e-01,9.804e-01,1.102e+00,1.751e+00,1.524e+00,2.049e+00,2.109e+00,3.070e+00,2.934e+00,3.480e+00,2.457e+00,2.130e+00,1.915e+00,1.409e+00,2.196e+00,2.403e+00,1.940e+00,2.218e+00,2.748e+00,2.029e+00,3.119e+00,2.876e+00,2.171e+00,3.065e+00,2.406e+00,2.296e+00,3.029e+00,1.701e+00,2.611e+00,2.499e+00,1.490e+00,2.551e+00,2.148e+00,2.563e+00,2.248e+00,1.830e+00,1.826e+00,2.789e+00,2.069e+00,2.561e+00,1.878e+00,3.505e+00,2.196e+00,1.315e+00,2.636e+00,2.662e+00,1.751e+00,3.048e+00,1.337e+00,2.870e+00,2.265e+00
2.510e-02,7.877e-02,5.894e-01,3.752e-01,1.449e+00,1.380e+00,1.860e+00,1.477e+00,1.834e+00,3.018e+00,2.964e+00,1.735e+00,1.724e+00,2.332e+00,2.254e+00,2.240e+00,2.370e+00,2.026e+00,2.500e+00,2.481e+00,2.172e+00,2.295e+00,2.623e+00,1.749e+00,2.794e+00,2.359e+00,2.775e+00,3.008e+00,1.347e+00,2.186e+00,2.078e+00,1.822e+00,2.137e+00,2.491e+00,3.450e+00,2.339e+00,2.362e+00,1.651e+00,1.910e+00,2.194e+00,2.203e+00,2.240e+00,3.355e+00,2.549e+00,1.593e+00,2.705e+00,3.495e+00,1.568e+00,2.807e+00,1.271e+00,2.566e+00,2.244e+00
1.695e-02,8.782e-02,4.656e-01,6.385e-01,1.659e+00,1.404e+00,1.801e+00,2.294e+00,2.581e+00,2.643e+00,4.015e+00,2.981e+00,2.239e+00,2.691e+00,2.575e+00,3.209e+00,2.997e+00,3.508e+00,3.880e+00,3.719e+00,1.925e+00,3.073e+00,3.470e+00,2.661e+00,2.662e+00,3.257e+00,3.589e+00,4.080e+00,2.923e+00,2.999e+00,2.780e+00,1.929e+00,3.463e+00,3.210e+00,3.668e+00,2.303e+00,2.585e+00,2.726e+00,3.039e+00,2.872e+00,3.138e+00,2.816e+00,3.948e+00,2.902e+00,1.968e+00,2.964e+00,3.195e+00,2.003e+00,3.805e+00,1.589e+00,2.802e+00,2.715e+00
3.105e-01,6.776e-01,1.017e+00,1.014e+00,1.400e+00,1.338e+00,1.819e+00,2.024e+00,2.070e+00,2.780e+00,3.534e+00,2.470e+00,2.345e+00,3.001e+00,2.813e+00,2.330e+00,3.333e+00,2.495e+00,2.144e+00,2.940e+00,3.068e+00,2.819e+00,2.895e+00,2.151e+00,3.472e+00,2.432e+00,2.952e+00,3.268e+00,1.596e+00,3.555e+00,2.574e+00,1.520e+00,3.513e+00,2.952e+00,3.259e+00,2.302e+00,2.157e+00,2.103e+00,3.562e+00,3.240e+00,3.161e+00,2.673e+00,4.198e+00,3.071e+00,2.097e+00,2.963e+00,3.281e+00,2.606e+00,3.224e+00,2.141e+00,2.960e+00,1.970e+00
1.263e-01,2.988e-01,5.058e-01,8.501e-01,1.270e+00,9.101e-01,2.056e+00,2.194e+00,2.801e+00,2.510e+00,2.905e+00,2.199e+00,2.434e+00,2.775e+00,3.176e+00,3.101e+00,3.611e+00,2.733e+00,3.049e+00,3.835e+00,3.076e+00,3.302e+00,3.306e+00,2.871e+00,3.992e+00,1.889e+00,3.095e+00,3.209e+00,2.274e+00,3.065e+00,2.808e+00,1.900e+00,3.405e+00,3.209e+00,3.581e+00,1.909e+00,2.232e+00,2.966e+00,3.007e+00,3.222e+00,2.610e+00,2.534e+00,4.192e+00,2.839e+00,2.237e+00,3.149e+00,3.702e+00,2.931e+00,3.723e+00,2.820e+00,2.701e+00,3.095e+00
3.847e-02,1.074e-01,1.937e-01,2.822e-01,6.111e-01,4.764e-01,1.449e+00,1.235e+00,1.537e+00,1.338e+00,1.943e+00,2.050e+00,1.630e+00,2.951e+00,3.220e+00,2.295e+00,3.127e+00,2.856e+00,2.954e+00,3.931e+00,2.376e+00,2.518e+00,2.857e+00,2.279e+00,2.674e+00,2.026e+00,2.982e+00,1.886e+00,2.930e+00,2.139e+00,2.162e+00,1.639e+00,2.888e+00,2.735e+00,2.511e+00,2.120e+00,2.742e+00,2.227e+00,3.082e+00,3.518e+00,2.558e+00,1.921e+00,3.541e+00,2.058e+00,2.415e+00,3.310e+00,3.827e+00,2.909e+00,3.199e+00,2.866e+00,2.315e+00,2.622e+00
2.776e-01,6.229e-01,1.271e+00,1.331e+00,2.333e+00,2.205e+00,2.964e+00,2.457e+00,2.476e+00,2.994e+00,3.003e+00,3.236e+00,2.379e+00,3.146e+00,4.103e+00,3.936e+00,3.869e+00,3.704e+00,3.801e+00,3.954e+00,3.604e+00,4.375e+00,4.257e+00,3.432e+00,3.819e+00,2.680e+00,4.097e+00,4.009e+00,3.457e+00,2.872e+00,4.103e+00,2.851e+00,4.660e+00,3.486e+00,4.685e+00,3.079e+00,3.621e+00,3.148e+00,4.059e+00,3.665e+00,3.530e+00,3.496e+00,5.264e+00,3.089e+00,2.767e+00,4.110e+00,4.971e+00,3.179e+00,4.567e+00,3.594e+00,3.404e+00,4.202e+00
4.390e-02,1.552e-01,5.831e-01,6.886e-01,2.001e+00,1.550e+00,2.326e+00,1.924e+00,2.741e+00,3.198e+00,3.540e+00,2.884e+00,2.622e+00,3.446e+00,3.819e+00,3.584e+00,4.365e+00,4.278e+00,3.674e+00,4.705e+00,3.810e+00,4.046e+00,4.777e+00,3.998e+00,4.641e+00,3.425e+00,5.266e+00,4.804e+00,3.265e+00,3.092e+00,3.547e+00,3.213e+00,4.155e+00,4.363e+00,4.356e+00,4.514e+00,4.465e+00,3.304e+00,3.589e+00,4.369e+00,3.771e+00,3.757e+00,5.225e+00,4.082e+00,3.259e+00,4.685e+00,5.430e+00,3.201e+00,5.439e+00,3.246e+00,4.256e+00,3.678e+00
2.026e-01,4.697e-01,7.568e-01,6.413e-01,1.190e+00,1.139e+00,2.070e+00,2.358e+00,2.066e+00,2.595e+00,3.781e+00,2.286e+00,2.220e+00,3.677e+00,3.972e+00,3.002e+00,4.748e+00,4.922e+00,4.767e+00,4.649e+00,3.153e+00,4.629e+00,4.101e+00,3.726e+00,4.299e+00,4.266e+00,5.279e+00,4.375e+00,3.920e+00,3.938e+00,4.134e+00,2.742e+00,4.718e+00,4.270e+00,4.945e+00,3.324e+00,4.966e+00,3.543e+00,4.515e+00,4.724e+00,4.626e+00,3.170e+00,5.402e+00,4.265e+00,3.583e+00,4.268e+00,5.001e+00,3.518e+00,5.767e+00,4.425e+00,3.298e+00,3.087e+00
2.578e-01,6.030e-01,8.092e-01,1.572e+00,2.117e+00,1.399e+00,2.934e+00,3.033e+00,3.776e+00,3.149e+00,4.361e+00,3.154e+00,2.823e+00,3.541e+00,4.387e+00,3.848e+00,5.520e+00,5.856e+00,5.274e+00,5.457e+00,4.859e+00,5.231e+00,5.481e+00,5.499e+00,6.244e+00,4.003e+00,6.186e+00,6.187e+00,4.974e+00,5.456e+00,4.588e+00,3.425e+00,6.292e+00,5.192e+00,5.523e+00,3.639e+00,5.191e+00,5.623e+00,4.366e+00,6.004e+00,5.148e+00,4.301e+00,6.145e+00,5.592e+00,4.585e+00,5.760e+00,5.439e+00,4.832e+00,7.526e+00,5.784e+00,5.024e+00,4.031e+00
1.271e-01,3.111e-01,4.521e-01,6.395e-01,9.659e-01,6.776e-01,1.614e+00,2.125e+00,2.092e+00,1.904e+00,2.279e+00,1.171e+00,1.691e+00,2.025e+00,2.936e+00,2.599e+00,3.815e+00,4.627e+00,4.227e+00,4.231e+00,3.465e+00,4.160e+00,4.324e+00,3.979e+00,4.907e+00,2.818e+00,5.211e+00,4.835e+00,3.476e+00,4.090e+00,4.010e+00,3.249e+00,5.156e+00,3.729e+00,5.395e+00,3.150e+00,3.989e+00,4.330e+00,4.146e+00,3.943e+00,3.565e+00,3.756e+00,4.009e+00,4.907e+00,3.989e+00,4.626e+00,4.662e+00,3.885e+00,5.774e+00,4.779e+00,2.844e+00,3.775e+00
1.124e-01,2.655e-01,5.522e-01,3.913e-01,1.214e+00,1.231e+00,2.125e+00,1.865e+00,1.985e+00,2.422e+00,3.483e+00,3.029e+00,2.464e+00,3.353e+00,4.434e+00,3.077e+00,4.571e+00,5.053e+00,4.450e+00,6.068e+00,3.878e+00,5.221e+00,5.324e+00,5.193e+00,4.652e+00,4.533e+00,6.148e+00,4.617e+00,4.515e+00,5.102e+00,4.654e+00,3.961e+00,6.332e+00,4.997e+00,5.760e+00,5.131e+00,5.402e+00,5.338e+00,4.907e+00,5.301e+00,4.424e+00,4.790e+00,6.654e+00,5.546e+00,4.553e+00,5.995e+00,6.597e+00,4.462e+00,6.599e+00,5.901e+00,4.894e+00,4.588e+00
1.675e-01,3.956e-01,9.546e-01,1.050e+00,1.961e+00,1.722e+00,2.030e+00,1.895e+00,2.095e+00,3.229e+00,3.399e+00,2.159e+00,1.983e+00,3.573e+00,3.489e+00,3.341e+00,4.024e+00,4.223e+00,4.094e+00,3.826e+00,3.940e+00,4.755e+00,4.539e+00,4.056e+00,4.533e+00,3.921e+00,5.864e+00,5.790e+00,3.780e+00,3.747e+00,4.266e+00,4.008e+00,5.376e+00,4.955e+00,6.011e+00,5.157e+00,5.126e+00,3.572e+00,4.359e+00,4.623e+00,4.239e+00,4.880e+00,5.560e+00,4.203e+00,5.055e+00,4.929e+00,6.085e+00,3.982e+00,5.600e+00,4.020e+00,4.087e+00,4.748e+00
1.142e-01,3.013e-01,5.006e-01,1.010e+00,1.609e+00,1.238e+00,2.106e+00,2.372e+00,2.697e+00,2.907e+00,4.190e+00,3.024e+00,2.814e+00,3.638e+00,4.924e+00,3.783e+00,4.366e+00,5.404e+00,5.052e+00,5.677e+00,4.342e+00,5.586e+00,6.098e+00,5.851e+00,6.065e+00,5.811e+00,7.148e+00,6.354e+00,5.655e+00,5.781e+00,4.836e+00,4.703e+00,7.024e+00,5.672e+00,7.645e+00,5.609e+00,6.021e+00,5.779e+00,6.323e+00,5.804e+00,4.470e+00,6.248e+00,6.816e+00,5.731e+00,4.886e+00,7.016e+00,7.571e+00,5.434e+00,7.468e+00,6.298e+00,5.644e+00,5.638e+00
2.433e-01,5.352e-01,8.219e-01,1.510e+00,1.824e+00,1.628e+00,2.711e+00,2.409e+00,2.889e+00,2.875e+00,4.122e+00,3.473e+00,2.359e+00,3.016e+00,4.192e+00,3.546e+00,4.462e+00,5.196e+00,5.206e+00,5.432e+00,4.462e+00,5.400e+00,6.248e+00,6.342e+00,6.245e+00,5.328e+00,6.989e+00,6.703e+00,5.114e+00,5.711e+00,5.359e+00,5.064e+00,7.801e+00,5.303e+00,6.931e+00,4.823e+00,5.273e+00,5.673e+00,4.770e+00,6.352e+00,4.800e+00,5.327e+00,6.875e+00,5.676e+00,4.973e+00,6.166e+00,7.124e+00,6.080e+00,7.322e+00,6.686e+00,6.012e+00,5.271e+00
1.518e-01,3.844e-01,9.545e-01,9.417e-01,2.106e+00,1.856e+00,2.192e+00,2.575e+00,3.045e+00,3.878e+00,4.888e+00,3.473e+00,3.566e+00,4.921e+00,4.739e+00,4.687e+00,5.297e+00,5.352e+00,5.291e+00,5.701e+00,4.566e+00,5.653e+00,6.437e+00,5.468e+00,6.851e+00,6.590e+00,7.303e+00,7.577e+00,5.414e+00,5.564e+00,6.418e+00,4.963e+00,7.825e+00,6.091e+00,7.410e+00,5.727e+00,5.217e+00,4.854e+00,6.318e+00,6.194e+00,5.763e+00,6.286e+00,7.873e+00,6.180e+00,5.434e+00,6.419e+00,7.350e+00,5.690e+00,7.819e+00,5.344e+00,5.984e+00,6.521e+00
2.401e-01,5.305e-01,8.087e-01,6.253e-01,9.635e-01,9.832e-01,1.520e+00,1.897e+00,2.247e+00,2.681e+00,3.363e+00,2.021e+00,2.575e+00,3.766e+00,3.687e+00,3.050e+00,4.446e+00,4.615e+00,4.011e+00,4.589e+00,4.379e+00,5.447e+00,5.748e+00,5.255e+00,6.756e+00,5.704e+00,6.881e+00,6.790e+00,5.240e+00,6.015e+00,6.515e+00,4.675e+00,7.773e+00,5.478e+00,7.595e+00,6.254e+00,5.266e+00,5.746e+00,6.858e+00,6.596e+00,6.273e+00,6.991e+00,7.556e+00,6.640e+00,6.811e+00,6.699e+00,7.450e+00,7.190e+00,7.631e+00,6.485e+00,5.625e+00,6.316e+00
2.587e-01,5.818e-01,8.153e-01,1.196e+00,1.698e+00,1.536e+00,1.996e+00,2.112e+00,2.628e+00,2.544e+00,4.182e+00,3.894e+00,2.964e+00,3.289e+00,3.956e+00,3.442e+00,4.344e+00,5.251e+00,4.226e+00,5.337e+00,4.534e+00,4.825e+00,6.606e+00,6.259e+00,6.722e+00,7.069e+00,8.156e+00,8.156e+00,6.187e+00,6.957e+00,7.178e+00,5.273e+00,8.596e+00,5.711e+00,7.773e+00,6.275e+00,5.489e+00,6.774e+00,7.173e+00,7.288e+00,6.591e+00,6.877e+00,7.912e+00,7.773e+00,5.305e+00,7.378e+00,7.444e+00,7.752e+00,8.640e+00,7.451e+00,6.994e+00,6.586e+00
3.252e-01,7.270e-01,1.329e+00,1.353e+00,2.349e+00,2.320e+00,3.189e+00,2.924e+00,3.520e+00,4.524e+00,5.800e+00,4.258e+00,3.358e+00,4.534e+00,4.900e+00,4.094e+00,5.637e+00,5.856e+00,5.620e+00,6.609e+00,5.303e+00,7.232e+00,7.136e+00,6.939e+00,6.924e+00,7.335e+00,8.956e+00,8.432e+00,6.418e+00,7.701e+00,7.517e+00,6.455e+00,9.033e+00,7.501e+00,1.029e+01,8.193e+00,7.938e+00,7.116e+00,8.354e+00,7.284e+00,6.904e+00,8.368e+00,9.627e+00,7.783e+00,7.148e+00,8.654e+00,9.669e+00,7.908e+00,9.106e+00,8.102e+00,8.523e+00,7.387e+00
1.337e-04,3.722e-02,2.028e-01,6.552e-01,1.361e+00,7.713e-01,1.921e+00,1.992e+00,2.682e+00,2.541e+00,2.915e+00,2.257e+00,2.283e+00,2.887e+00,4.173e+00,3.042e+00,4.438e+00,4.080e+00,3.539e+00,4.347e+00,3.574e+00,3.744e+00,3.970e+00,4.054e+00,4.947e+00,4.126e+00,6.385e+00,6.195e+00,4.337e+00,6.020e+00,5.818e+00,5.078e+00,6.006e+00,5.665e+00,7.159e+00,5.487e+00,5.080e+00,5.419e+00,6.658e+00,5.527e+00,4.821e+00,5.438e+00,6.925e+00,6.700e+00,5.036e+00,6.232e+00,6.903e+00,6.091e+00,6.102e+00,5.320e+00,5.368e+00,5.644e+00
3.404e-01,7.987e-01,1.469e+00,1.430e+00,2.722e+00,2.354e+00,2.841e+00,2.528e+00,2.824e+00,3.397e+00,4.371e+00,3.567e+00,2.464e+00,3.439e+00,3.527e+00,3.279e+00,3.888e+00,4.408e+00,3.865e+00,4.396e+00,4.013e+00,5.172e+00,5.855e+00,5.242e+00,5.859e+00,6.484e+00,7.709e+00,9.106e+00,6.646e+00,7.135e+00,7.305e+00,6.913e+00,8.555e+00,6.568e+00,8.691e+00,8.321e+00,7.318e+00,7.382e+00,8.399e+00,6.623e+00,7.266e+00,7.096e+00,8.184e+00,7.357e+00,7.047e+00,8.354e+00,9.089e+00,8.608e+00,8.722e+00,7.372e+00,7.914e+00,7.029e+00
1.842e-01,4.391e-01,1.000e+00,8.840e-01,2.137e+00,1.784e+00,2.372e+00,2.100e+00,2.323e+00,3.083e+00,4.177e+00,3.435e+00,2.608e+00,3.931e+00,4.497e+00,3.228e+00,5.196e+00,5.722e+00,4.323e+00,5.162e+00,4.672e+00,5.080e+00,5.857e+00,5.733e+00,5.968e+00,6.295e+00,8.240e+00,8.272e+00,6.446e+00,7.443e+00,7.433e+00,6.106e+00,8.181e+00,7.560e+00,9.131e+00,8.453e+00,7.345e+00,7.303e+00,8.713e+00,7.541e+00,7.740e+00,7.868e+00,8.729e+00,8.455e+00,7.726e+00,8.192e+00,8.766e+00,8.649e+00,9.541e+00,7.470e+00,7.502e+00,6.435e+00
2.957e-01,6.436e-01,8.301e-01,6.993e-01,9.597e-01,9.865e-01,1.405e+00,1.219e+00,1.394e+00,1.581e+00,2.038e+00,1.564e+00,1.758e+00,2.308e+00,2.660e+00,2.030e+00,2.813e+00,3.031e+00,2.464e+00,2.929e+00,3.214e+00,4.084e+00,4.569e+00,4.599e+00,5.317e+00,4.463e+00,6.446e+00,5.665e+00,5.024e+00,5.459e+00,5.997e+00,6.280e+00,7.037e+00,5.926e+00,7.236e+00,8.180e+00,6.642e+00,6.023e+00,7.462e+00,6.164e+00,5.797e+00,6.094e+00,6.532e+00,6.187e+00,6.926e+00,7.397e+00,8.720e+00,7.621e+00,7.737e+00,7.015e+00,6.520e+00,6.150e+00
3.396e-01,7.611e-01,1.430e+00,1.620e+00,2.589e+00,2.516e+00,3.377e+00,3.413e+00,3.927e+00,4.604e+00,5.319e+00,4.005e+00,3.141e+00,4.492e+00,3.911e+00,4.876e+00,5.726e+00,6.182e+00,6.166e+00,7.071e+00,5.697e+00,7.186e+00,8.666e+00,7.834e+00,8.336e+00,7.639e+00,9.195e+00,9.537e+00,6.555e+00,8.662e+00,8.782e+00,7.704e+00,1.076e+01,8.925e+00,1.176e+01,1.050e+01,9.815e+00,8.636e+00,1.013e+01,9.406e+00,8.001e+00,9.701e+00,1.103e+01,1.007e+01,9.813e+00,1.168e+01,1.151e+01,9.779e+00,1.194e+01,9.566e+00,9.196e+00,9.917e+00
3.355e-01,7.801e-01,1.132e+00,1.181e+00,2.158e+00,1.855e+00,2.463e+00,2.299e+00,2.605e+00,2.764e+00,3.504e+00,2.918e+00,2.239e+00,2.375e+00,2.829e+00,2.581e+00,3.044e+00,3.257e+00,2.943e+00,4.001e+00,3.047e+00,4.846e+00,5.378e+00,5.073e+00,5.468e+00,5.970e+00,7.237e+00,6.089e+00,4.849e+00,6.284e+00,6.008e+00,6.734e+00,8.240e+00,5.724e+00,7.829e+00,9.385e+00,8.504e+00,6.251e+00,8.435e+00,6.555e+00,6.015e+00,7.335e+00,8.034e+00,7.194e+00,6.584e+00,8.486e+00,9.747e+00,7.012e+00,8.243e+00,7.820e+00,7.539e+00,6.936e+00
7.401e-02,1.850e-01,4.075e-01,7.807e-01,1.407e+00,1.110e+00,1.789e+00,2.186e+00,2.622e+00,2.772e+00,3.638e+00,2.647e+00,2.689e+00,3.227e+00,3.942e+00,3.659e+00,4.410e+00,5.140e+00,4.285e+00,4.884e+00,4.587e+00,5.098e+00,5.940e+00,5.744e+00,6.366e+00,5.704e+00,8.650e+00,8.452e+00,6.170e+00,8.129e+00,7.007e+00,6.971e+00,9.376e+00,8.800e+00,1.128e+01,1.042e+01,9.277e+00,8.820e+00,9.288e+00,8.486e+00,7.874e+00,9.680e+00,9.437e+00,9.082e+00,8.799e+00,9.973e+00,1.084e+01,1.015e+01,1.116e+01,9.208e+00,8.436e+00,9.277e+00
2.265e-01,5.118e-01,1.133e+00,1.170e+00,2.052e+00,2.081e+00,2.806e+00,3.035e+00,2.978e+00,3.748e+00,4.864e+00,3.946e+00,3.143e+00,4.582e+00,4.662e+00,4.677e+00,5.648e+00,6.271e+00,6.121e+00,6.050e+00,4.949e+00,6.095e+00,6.308e+00,5.404e+00,6.008e+00,6.159e+00,8.226e+00,9.004e+00,7.009e+00,7.288e+00,7.537e+00,6.390e+00,8.751e+00,8.314e+00,1.123e+01,8.388e+00,8.523e+00,9.275e+00,1.004e+01,9.242e+00,9.204e+00,9.030e+00,1.072e+01,8.492e+00,8.851e+00,1.024e+01,1.075e+01,9.652e+00,1.069e+01,8.081e+00,8.586e+00,8.929e+00
5.695e-03,5.754e-02,2.422e-01,4.579e-01,1.050e+00,5.940e-01,1.315e+00,1.904e+00,2.806e+00,3.152e+00,3.793e+00,1.523e+00,2.530e+00,3.517e+00,3.376e+00,2.970e+00,4.653e+00,4.384e+00,4.408e+00,5.097e+00,3.903e+00,5.011e+00,5.300e+00,5.452e+00,6.585e+00,5.658e+00,7.174e+00,6.768e+00,4.684e+00,6.325e+00,6.336e+00,5.921e+00,7.231e+00,7.232e+00,9.895e+00,8.867e+00,8.095e+00,7.436e+00,7.980e+00,7.202e+00,6.425e+00,9.289e+00,9.788e+00,8.630e+00,7.711e+00,8.381e+00,1.001e+01,8.984e+00,9.570e+00,8.362e+00,7.227e+00,8.519e+00
2.741e-01,6.064e-01,8.780e-01,1.035e+00,1.270e+00,1.230e+00,1.831e+00,2.144e+00,2.287e+00,2.696e+00,3.337e+00,2.047e+00,2.198e+00,2.976e+00,2.693e+00,2.848e+00,3.779e+00,3.666e+00,3.887e+00,4.245e+00,3.562e+00,5.177e+00,5.287e+00,5.206e+00,6.050e+00,5.972e+00,6.986e+00,6.777e+00,5.226e+00,6.601e+00,6.935e+00,6.391e+00,8.522e+00,7.113e+00,1.014e+01,9.348e+00,9.160e+00,8.445e+00,9.216e+00,8.240e+00,7.176e+00,1.002e+01,1.168e+01,8.919e+00,9.696e+00,9.506e+00,1.132e+01,1.080e+01,1.085e+01,1.032e+01,8.735e+00,9.361e+00
1.541e-02,4.008e-02,4.206e-01,5.234e-01,1.184e+00,1.113e+00,2.116e+00,2.159e+00,2.281e+00,2.501e+00,3.285e+00,2.791e+00,2.436e+00,3.764e+00,4.346e+00,3.901e+00,4.761e+00,5.164e+00,5.268e+00,5.845e+00,4.349e+00,5.244e+00,5.970e+00,5.770e+00,5.771e+00,5.290e+00,7.295e+00,7.643e+00,6.309e+00,7.223e+00,7.334e+00,6.845e+00,8.708e+00,8.113e+00,1.062e+01,7.825e+00,8.049e+00,9.455e+00,8.845e+00,8.684e+00,7.095e+00,9.882e+00,1.026e+01,8.685e+00,9.983e+00,9.514e+00,1.053e+01,1.111e+01,9.840e+00,9.527e+00,8.637e+00,9.266e+00
3.580e-02,1.146e-01,1.791e-01,9.270e-01,1.136e+00,8.507e-01,1.121e+00,1.765e+00,2.736e+00,2.891e+00,3.754e+00,2.548e+00,2.427e+00,2.928e+00,2.596e+00,3.170e+00,3.796e+00,4.121e+00,3.918e+00,5.105e+00,3.809e+00,4.096e+00,5.359e+00,4.887e+00,5.659e+00,5.350e+00,7.251e+00,7.371e+00,4.685e+00,6.245e+00,5.477e+00,6.167e+00,7.611e+00,7.359e+00,9.372e+00,9.356e+00,8.147e+00,7.788e+00,8.916e+00,7.837e+00,6.394e+00,9.502e+00,9.144e+00,8.667e+00,8.716e+00,1.057e+01,1.060e+01,9.247e+00,9.720e+00,8.180e+00,9.232e+00,9.808e+00
2.575e-01,5.590e-01,9.761e-01,1.274e+00,1.798e+00,1.787e+00,2.091e+00,2.442e+00,2.931e+00,3.623e+00,5.366e+00,4.160e+00,3.309e+00,4.694e+00,4.464e+00,4.206e+00,6.048e+00,6.264e+00,5.559e+00,6.595e+00,5.442e+00,6.285e+00,6.972e+00,7.142e+00,6.748e+00,7.247e+00,1.015e+01,9.919e+00,7.238e+00,8.535e+00,8.209e+00,8.344e+00,1.062e+01,9.730e+00,1.280e+01,1.162e+01,1.127e+01,1.120e+01,1.289e+01,1.151e+01,1.047e+01,1.159e+01,1.336e+01,1.149e+01,1.088e+01,1.201e+01,1.373e+01,1.348e+01,1.373e+01,1.185e+01,1.166e+01,1.211e+01
2.734e-01,6.432e-01,8.690e-01,1.177e+00,1.708e+00,1.439e+00,2.291e+00,2.372e+00,2.941e+00,2.879e+00,3.707e+00,2.731e+00,2.533e+00,3.235e+00,3.580e+00,3.336e+00,4.299e+00,4.498e+00,4.731e+00,5.125e+00,3.529e+00,5.824e+00,5.466e+00,5.365e+00,5.984e+00,6.533e+00,7.497e+00,6.701e+00,6.244e+00,5.936e+00,6.985e+00,6.196e+00,7.801e+00,6.483e+00,8.801e+00,8.160e+00,8.849e+00,7.853e+00,8.670e+00,7.591e+00,7.180e+00,7.978e+00,1.005e+01,8.874e+00,8.574e+00,8.991e+00,1.080e+01,1.004e+01,1.005e+01,9.943e+00,8.639e+00,9.736e+00
2.347e-01,5.326e-01,9.560e-01,1.487e+00,2.003e+00,1.678e+00,2.501e+00,2.521e+00,2.841e+00,3.358e+00,4.362e+00,3.045e+00,2.606e+00,4.081e+00,4.684e+00,3.964e+00,4.627e+00,4.872e+00,5.162e+00,5.161e+00,4.620e+00,5.703e+00,6.517e+00,6.624e+00,7.219e+00,7.015e+00,8.468e+00,8.377e+00,6.636e+00,7.637e+00,7.550e+00,7.328e+00,9.837e+00,8.262e+00,1.155e+01,1.023e+01,9.768e+00,9.365e+00,1.068e+01,1.033e+01,8.677e+00,1.212e+01,1.324e+01,1.090e+01,1.117e+01,1.200e+01,1.371e+01,1.322e+01,1.309e+01,1.164e+01,1.173e+01,1.308e+01
7.581e-02,2.029e-01,6.014e-01,6.278e-01,1.676e+00,1.232e+00,2.492e+00,2.605e+00,3.233e+00,3.336e+00,4.317e+00,2.437e+00,2.627e+00,3.933e+00,4.380e+00,3.734e+00,5.623e+00,5.431e+00,5.435e+00,6.062e+00,4.089e+00,5.971e+00,6.562e+00,7.224e+00,7.112e+00,6.237e+00,7.945e+00,6.863e+00,5.743e+00,7.069e+00,7.233e+00,6.871e+00,8.413e+00,7.745e+00,1.019e+01,9.380e+00,9.936e+00,8.894e+00,9.319e+00,8.780e+00,7.741e+00,1.031e+01,1.192e+01,1.088e+01,1.019e+01,1.094e+01,1.150e+01,1.130e+01,1.263e+01,1.045e+01,1.012e+01,1.081e+01
3.233e-01,7.658e-01,1.447e+00,1.395e+00,2.923e+00,2.422e+00,3.527e+00,3.071e+00,3.422e+00,4.026e+00,4.845e+00,3.769e+00,3.261e+00,4.730e+00,5.592e+00,4.481e+00,5.687e+00,6.124e+00,5.745e+00,6.096e+00,5.375e+00,6.439e+00,6.880e+00,6.269e+00,7.159e+00,6.092e+00,8.935e+00,8.778e+00,7.468e+00,7.220e+00,7.658e+00,7.680e+00,9.456e+00,7.918e+00,1.053e+01,9.725e+00,1.011e+01,8.903e+00,1.035e+01,8.769e+00,8.540e+00,1.009e+01,1.212e+01,1.041e+01,1.051e+01,1.073e+01,1.294e+01,1.212e+01,1.221e+01,1.171e+01,1.129e+01,1.093e+01
1.737e-01,3.948e-01,9.410e-01,6.997e-01,1.901e+00,1.768e+00,3.040e+00,2.953e+00,2.890e+00,3.118e+00,3.929e+00,3.054e+00,2.885e+00,4.278e+00,5.147e+00,4.659e+00,5.972e+00,6.397e+00,6.023e+00,6.406e+00,4.889e+00,6.558e+00,7.049e+00,6.881e+00,6.961e+00,5.781e+00,8.466e+00,8.150e+00,6.464e+00,7.401e+00,8.408e+00,7.025e+00,9.656e+00,8.265e+00,1.017e+01,8.942e+00,1.011e+01,9.706e+00,9.988e+00,1.013e+01,8.974e+00,1.110e+01,1.341e+01,1.275e+01,1.299e+01,1.174e+01,1.322e+01,1.309e+01,1.400e+01,1.234e+01,1.160e+01,1.283e+01
3.319e-01,7.501e-01,9.936e-01,1.450e+00,1.656e+00,1.483e+00,1.729e+00,2.184e+00,2.803e+00,3.241e+00,4.865e+00,3.816e+00,3.171e+00,4.582e+00,4.385e+00,3.573e+00,5.189e+00,5.778e+00,4.924e+00,5.794e+00,5.182e+00,5.417e+00,6.392e+00,5.597e+00,6.965e+00,7.208e+00,8.077e+00,8.587e+00,6.565e+00,7.394e+00,7.279e+00,6.403e+00,9.523e+00,7.976e+00,1.051e+01,1.007e+01,8.763e+00,9.228e+00,1.196e+01,1.088e+01,9.637e+00,1.166e+01,1.369e+01,1.226e+01,1.210e+01,1.302e+01,1.397e+01,1.481e+01,1.412e+01,1.121e+01,1.237e+01,1.395e+01
4.073e-02,9.778e-02,2.730e-01,4.974e-01,8.165e-01,7.222e-01,1.522e+00,1.553e+00,1.752e+00,1.893e+00,2.715e+00,2.063e+00,1.727e+00,2.825e+00,3.696e+00,2.778e+00,4.052e+00,4.851e+00,4.129e+00,4.510e+00,3.555e+00,4.565e+00,4.997e+00,5.204e+00,5.045e+00,4.997e+00,6.319e+00,6.256e+00,5.469e+00,5.706e+00,5.789e+00,5.184e+00,7.358e+00,6.492e+00,8.862e+00,7.851e+00,8.529e+00,8.546e+00,8.060e+00,8.498e+00,6.959e+00,1.036e+01,1.080e+01,9.485e+00,1.012e+01,1.099e+01,1.219e+01,1.243e+01,1.263e+01,1.088e+01,1.127e+01,1.167e+01
1.760e-02,9.490e-02,4.325e-01,1.312e+00,2.297e+00,1.650e+00,2.405e+00,2.534e+00,3.121e+00,2.994e+00,4.121e+00,3.582e+00,2.287e+00,3.086e+00,4.239e+00,3.991e+00,4.123e+00,4.770e+00,5.001e+00,4.950e+00,3.283e+00,4.781e+00,5.603e+00,5.752e+00,5.347e+00,6.563e+00,8.837e+00,8.162e+00,6.555e+00,7.120e+00,7.802e+00,7.797e+00,8.721e+00,8.260e+00,1.148e+01,1.119e+01,9.765e+00,8.965e+00,1.086e+01,9.030e+00,8.174e+00,1.190e+01,1.309e+01,1.143e+01,1.165e+01,1.282e+01,1.424e+01,1.401e+01,1.285e+01,1.161e+01,1.314e+01,1.458e+01
5.899e-02,1.542e-01,4.660e-01,1.017e+00,1.643e+00,1.256e+00,1.773e+00,2.102e+00,2.922e+00,3.299e+00,4.172e+00,2.720e+00,2.500e+00,3.024e+00,2.942e+00,3.318e+00,4.488e+00,4.538e+00,4.212e+00,5.210e+00,4.218e+00,4.660e+00,5.164e+00,5.432e+00,5.562e+00,5.223e+00,7.458e+00,7.816e+00,4.899e+00,6.802e+00,5.888e+00,5.383e+00,7.654e+00,7.499e+00,9.673e+00,8.855e+00,8.404e+00,9.783e+00,8.262e+00,9.006e+00,8.291e+00,1.059e+01,1.226e+01,1.211e+01,1.151e+01,1.183e+01,1.150e+01,1.257e+01,1.378e+01,1.192e+01,1.298e+01,1.312e+01
1.244e-01,2.695e-01,6.728e-01,3.516e-01,1.279e+00,1.451e+00,2.565e+00,1.886e+00,2.142e+00,2.545e+00,3.273e+00,2.668e+00,2.022e+00,2.266e+00,3.576e+00,2.689e+00,3.704e+00,4.874e+00,4.176e+00,4.904e+00,3.841e+00,5.445e+00,5.993e+00,5.885e+00,5.597e+00,5.348e+00,6.339e+00,6.907e+00,5.272e+00,6.787e+00,6.128e+00,6.367e+00,8.705e+00,6.615e+00,9.303e+00,8.155e+00,9.047e+00,9.345e+00,8.229e+00,8.909e+00,7.326e+00,1.014e+01,1.153e+01,1.083e+01,1.097e+01,1.154e+01,1.221e+01,1.246e+01,1.351e+01,1.243e+01,1.337e+01,1.229e+01
3.147e-01,7.118e-01,1.327e+00,8.879e-01,2.050e+00,1.967e+00,3.072e+00,2.636e+00,3.229e+00,4.167e+00,5.041e+00,3.337e+00,3.459e+00,4.590e+00,4.949e+00,3.704e+00,5.354e+00,4.922e+00,4.951e+00,6.034e+00,4.984e+00,6.223e+00,6.641e+00,6.107e+00,7.435e+00,6.659e+00,7.165e+00,7.849e+00,5.848e+00,7.162e+00,7.739e+00,7.558e+00,8.954e+00,8.078e+00,1.178e+01,9.847e+00,1.073e+01,9.807e+00,1.135e+01,9.548e+00,9.114e+00,1.089e+01,1.325e+01,1.179e+01,1.004e+01,1.198e+01,1.452e+01,1.424e+01,1.411e+01,1.288e+01,1.286e+01,1.387e+01
2.127e-01,4.753e-01,9.506e-01,1.118e+00,1.911e+00,1.709e+00,2.259e+00,2.504e+00,2.826e+00,3.208e+00,4.155e+00,2.948e+00,2.848e+00,3.520e+00,3.967e+00,3.965e+00,4.820e+00,5.322e+00,5.111e+00,5.307e+00,4.722e+00,5.580e+00,6.249e+00,6.278e+00,6.399e+00,5.414e+00,7.937e+00,8.294e+00,6.174e+00,7.186e+00,7.368e+00,7.451e+00,9.079e+00,8.122e+00,1.122e+01,9.124e+00,9.605e+00,1.043e+01,1.075e+01,9.311e+00,8.240e+00,1.152e+01,1.239e+01,1.142e+01,1.187e+01,1.234e+01,1.410e+01,1.473e+01,1.591e+01,1.359e+01,1.436e+01,1.528e+01
