7.702e-01,2.688e-01,5.711e-01,9.324e-01,6.487e-01,7.156e-01,6.771e-01,1.440e-01,7.570e-01,6.962e-01,1.766e-01,6.826e-01,8.507e-01,2.835e-01,7.106e-01,3.671e-01,6.631e-01,6.154e-01,3.479e-01,2.673e-01,6.290e-01,5.406e-01,3.569e-01,4.264e-01,8.878e-01,6.090e-01,9.723e-01,8.434e-01,9.510e-01,1.295e-01,4.084e-01,7.336e-01,7.839e-01,3.104e-01,2.059e-01,1.751e-01,1.980e-01,6.883e-01,3.989e-02,8.377e-01,6.936e-01,4.110e-01,1.480e-01,4.825e-01,5.940e-01,7.937e-02,7.232e-02,4.049e-01,6.779e-02,4.696e-01,6.242e-01,3.412e-01,4.282e-01,3.588e-02,8.841e-01,2.710e-01,5.403e-01,2.150e-01,6.271e-01,1.702e-01,3.603e-01,6.848e-01,1.652e-01,6.841e-01,8.713e-01,9.873e-02,8.818e-01,8.588e-01,3.185e-01,8.651e-01,6.848e-01,9.730e-01,6.855e-02,9.700e-01,2.440e-02,3.740e-01,1.994e-01,7.160e-01,3.057e-01
3.804e-01,6.939e-01,4.031e-01,1.155e+00,1.276e+00,8.222e-01,5.465e-01,9.002e-01,9.547e-01,5.936e-01,9.530e-01,1.266e+00,1.125e+00,9.399e-01,1.265e+00,7.031e-01,4.986e-01,8.724e-01,5.710e-01,9.816e-01,4.948e-01,8.692e-01,1.064e+00,4.360e-01,9.056e-01,4.722e-01,7.398e-01,6.038e-01,6.937e-01,9.195e-02,1.065e+00,1.030e+00,7.543e-01,8.933e-01,1.801e-01,6.766e-01,1.654e-01,8.809e-01,5.932e-01,6.980e-01,4.535e-01,1.191e+00,1.557e-01,3.010e-01,5.350e-01,2.192e-01,8.313e-01,1.028e+00,2.190e-01,7.707e-01,1.068e+00,6.361e-01,1.133e+00,5.747e-01,9.459e-01,3.854e-01,7.037e-01,1.073e+00,1.153e+00,2.818e-01,1.136e+00,8.598e-01,5.971e-01,1.072e+00,8.196e-01,4.489e-01,1.146e+00,1.373e+00,7.839e-01,4.415e-01,4.073e-01,1.468e+00,1.021e+00,9.147e-01,5.292e-01,9.843e-01,1.098e+00,1.108e+00,6.558e-01
1.456e-01,1.421e-01,2.331e-01,9.235e-01,3.268e-01,2.523e-01,2.897e-01,8.690e-01,5.501e-01,4.368e-01,8.737e-01,1.007e+00,8.050e-01,8.841e-01,4.730e-01,6.615e-01,5.303e-01,6.776e-01,1.018e+00,5.974e-01,6.700e-01,7.692e-01,9.947e-01,3.457e-01,6.353e-01,4.534e-01,9.823e-01,6.396e-01,2.838e-01,1.016e+00,7.189e-01,3.606e-01,6.897e-01,1.035e+00,4.282e-01,1.006e+00,5.409e-01,4.565e-01,1.031e+00,5.824e-01,3.753e-01,7.214e-01,6.636e-02,2.733e-01,1.088e+00,6.954e-01,3.637e-01,7.678e-01,1.176e-01,6.336e-01,4.099e-01,1.013e+00,3.083e-01,8.414e-01,2.621e-01,1.037e+00,2.218e-01,9.457e-01,8.207e-01,3.821e-01,7.888e-01,5.939e-01,1.051e+00,6.056e-01,4.280e-01,5.855e-01,6.631e-01,9.281e-01,3.172e-01,5.949e-01,5.443e-01,7.944e-01,6.188e-01,1.226e+00,5.176e-01,7.372e-01,1.096e+00,5.661e-01,5.146e-01
4.895e-02,2.303e-01,1.328e-01,7.095e-01,7.280e-01,1.094e+00,4.958e-01,7.549e-01,8.705e-01,7.264e-01,1.441e+00,8.022e-01,9.722e-01,6.921e-01,1.334e+00,1.331e+00,1.172e+00,9.074e-01,8.500e-01,9.230e-01,1.047e+00,1.247e+00,8.027e-01,5.550e-01,5.399e-01,1.048e+00,1.449e+00,7.690e-01,5.258e-01,1.039e+00,1.033e+00,1.288e+00,4.448e-01,1.190e+00,5.951e-01,7.026e-01,8.293e-01,9.683e-01,1.317e+00,5.277e-01,4.218e-01,1.287e+00,8.774e-01,2.514e-01,7.431e-01,9.712e-01,1.219e+00,1.049e+00,7.525e-01,8.776e-01,7.871e-01,1.497e+00,1.366e+00,1.350e+00,6.744e-01,1.560e+00,3.404e-01,9.721e-01,1.394e+00,8.808e-01,9.014e-01,1.263e+00,1.468e+00,9.891e-01,5.594e-01,1.328e+00,7.327e-01,1.478e+00,5.329e-01,1.236e+00,9.845e-01,1.058e+00,7.112e-01,1.428e+00,9.674e-01,1.223e+00,1.101e+00,7.497e-01,1.272e+00
7.197e-02,7.292e-02,1.115e-01,4.961e-01,1.321e+00,1.465e+00,7.955e-01,5.861e-01,1.066e+00,7.604e-01,1.874e+00,8.865e-01,8.943e-01,5.298e-01,9.629e-01,1.655e+00,1.743e+00,9.940e-01,9.836e-01,7.791e-01,9.524e-01,9.629e-01,1.258e+00,7.981e-01,1.186e+00,8.805e-01,2.027e+00,7.899e-01,1.288e+00,1.331e+00,1.050e+00,1.516e+00,6.899e-01,1.413e+00,7.446e-01,1.196e+00,1.072e+00,1.078e+00,1.724e+00,4.818e-01,4.383e-01,1.678e+00,7.809e-01,4.153e-01,9.185e-01,1.480e+00,8.251e-01,1.178e+00,6.580e-01,9.245e-01,8.512e-01,1.460e+00,1.615e+00,1.952e+00,5.788e-01,1.523e+00,1.113e+00,8.144e-01,1.415e+00,1.550e+00,8.597e-01,1.101e+00,1.126e+00,1.625e+00,1.131e+00,1.214e+00,6.532e-01,1.274e+00,5.930e-01,1.163e+00,1.052e+00,1.105e+00,1.308e+00,1.364e+00,1.631e+00,1.339e+00,1.103e+00,7.174e-01,1.497e+00
3.244e-01,1.451e-01,2.903e-01,7.063e-01,1.053e+00,1.881e+00,1.166e+00,8.127e-01,1.834e+00,1.160e+00,1.634e+00,1.317e+00,1.424e+00,1.082e+00,1.290e+00,1.426e+00,1.555e+00,1.725e+00,9.614e-01,1.155e+00,1.033e+00,1.516e+00,1.938e+00,1.271e+00,2.101e+00,9.960e-01,1.678e+00,1.360e+00,1.495e+00,1.021e+00,1.333e+00,1.672e+00,9.704e-01,1.497e+00,5.294e-01,1.940e+00,1.608e+00,1.521e+00,1.460e+00,1.188e+00,1.185e+00,2.123e+00,1.240e+00,7.926e-01,1.434e+00,9.794e-01,9.222e-01,1.363e+00,5.418e-01,1.257e+00,1.483e+00,1.654e+00,1.238e+00,1.691e+00,1.276e+00,1.383e+00,1.762e+00,8.861e-01,1.781e+00,9.703e-01,1.546e+00,9.000e-01,1.371e+00,1.723e+00,1.934e+00,1.609e+00,1.313e+00,1.965e+00,6.103e-01,1.516e+00,1.555e+00,1.602e+00,1.295e+00,1.635e+00,1.941e+00,1.137e+00,1.695e+00,1.679e+00,1.618e+00
7.562e-01,4.674e-01,7.072e-01,1.824e+00,1.255e+00,2.032e+00,1.892e+00,2.006e+00,2.245e+00,1.674e+00,2.620e+00,2.657e+00,2.330e+00,2.624e+00,2.431e+00,2.361e+00,1.972e+00,2.778e+00,2.251e+00,2.517e+00,2.320e+00,2.936e+00,2.839e+00,2.137e+00,3.146e+00,1.805e+00,2.896e+00,2.441e+00,2.406e+00,1.894e+00,2.161e+00,2.082e+00,1.554e+00,2.223e+00,1.450e+00,2.756e+00,1.997e+00,2.664e+00,2.194e+00,2.142e+00,1.673e+00,2.484e+00,2.013e+00,1.305e+00,3.050e+00,1.976e+00,2.098e+00,2.122e+00,1.230e+00,2.464e+00,1.848e+00,2.363e+00,1.696e+00,2.773e+00,2.265e+00,2.510e+00,2.126e+00,1.979e+00,2.536e+00,1.212e+00,2.891e+00,2.638e+00,2.584e+00,2.598e+00,2.110e+00,2.018e+00,2.310e+00,3.745e+00,9.857e-01,3.172e+00,2.064e+00,2.526e+00,1.398e+00,3.617e+00,2.175e+00,2.191e+00,2.261e+00,2.959e+00,2.230e+00
4.237e-01,4.117e-01,4.603e-01,1.450e+00,1.985e+00,2.718e+00,1.756e+00,2.156e+00,3.408e+00,1.903e+00,3.533e+00,2.363e+00,2.322e+00,2.831e+00,3.404e+00,3.242e+00,3.156e+00,3.491e+00,2.387e+00,2.424e+00,2.235e+00,3.436e+00,3.896e+00,2.480e+00,2.904e+00,2.615e+00,3.573e+00,2.937e+00,2.557e+00,2.922e+00,2.969e+00,3.693e+00,2.055e+00,3.447e+00,1.860e+00,3.370e+00,2.581e+00,2.866e+00,3.045e+00,2.476e+00,1.611e+00,3.451e+00,2.039e+00,1.430e+00,2.937e+00,2.183e+00,2.880e+00,2.673e+00,2.033e+00,2.343e+00,2.108e+00,3.174e+00,3.216e+00,3.575e+00,2.534e+00,3.031e+00,3.182e+00,2.541e+00,3.275e+00,2.628e+00,2.596e+00,2.696e+00,2.938e+00,3.227e+00,2.939e+00,3.467e+00,2.620e+00,4.112e+00,1.306e+00,3.378e+00,2.737e+00,3.129e+00,3.113e+00,3.320e+00,3.465e+00,3.117e+00,2.827e+00,2.906e+00,3.649e+00
2.553e-01,1.129e-01,2.960e-01,9.572e-01,4.113e-01,7.783e-01,1.053e+00,1.895e+00,2.556e+00,1.604e+00,2.174e+00,2.603e+00,2.227e+00,3.339e+00,2.855e+00,2.358e+00,1.943e+00,2.560e+00,2.861e+00,2.428e+00,2.219e+00,3.472e+00,3.209e+00,2.580e+00,2.624e+00,1.948e+00,2.398e+00,2.334e+00,2.167e+00,3.035e+00,2.536e+00,2.693e+00,2.069e+00,2.784e+00,2.631e+00,3.022e+00,2.385e+00,2.069e+00,1.981e+00,2.324e+00,1.097e+00,1.704e+00,2.188e+00,1.862e+00,2.833e+00,2.377e+00,2.702e+00,1.565e+00,2.457e+00,2.648e+00,1.005e+00,1.868e+00,2.014e+00,2.900e+00,2.430e+00,2.479e+00,2.584e+00,2.266e+00,2.604e+00,1.880e+00,2.480e+00,2.206e+00,2.586e+00,2.085e+00,2.034e+00,2.873e+00,2.124e+00,3.095e+00,8.983e-01,2.605e+00,2.266e+00,2.613e+00,1.861e+00,2.838e+00,2.242e+00,2.433e+00,2.054e+00,2.311e+00,2.794e+00
2.153e-01,9.623e-02,1.983e-01,5.642e-01,1.249e+00,2.329e+00,1.550e+00,1.380e+00,2.734e+00,2.428e+00,3.011e+00,1.876e+00,2.724e+00,2.295e+00,3.072e+00,3.301e+00,3.220e+00,3.018e+00,2.886e+00,3.106e+00,2.394e+00,3.228e+00,3.341e+00,2.721e+00,3.354e+00,2.994e+00,3.615e+00,2.385e+00,2.691e+00,2.896e+00,3.297e+00,3.413e+00,2.012e+00,3.318e+00,1.963e+00,3.294e+00,2.930e+00,2.896e+00,2.307e+00,2.123e+00,1.871e+00,2.824e+00,3.344e+00,1.727e+00,2.452e+00,2.723e+00,3.136e+00,2.192e+00,2.316e+00,2.961e+00,1.728e+00,2.377e+00,2.997e+00,3.467e+00,2.331e+00,2.903e+00,2.938e+00,2.427e+00,2.938e+00,3.132e+00,2.393e+00,2.606e+00,2.907e+00,3.334e+00,2.620e+00,3.376e+00,2.602e+00,3.967e+00,1.530e+00,3.562e+00,2.904e+00,2.645e+00,2.107e+00,2.699e+00,3.055e+00,3.263e+00,2.632e+00,2.776e+00,3.442e+00
5.550e-01,3.432e-01,4.461e-01,8.977e-01,1.595e+00,2.291e+00,1.433e+00,8.272e-01,2.270e+00,2.103e+00,2.339e+00,1.697e+00,2.590e+00,1.583e+00,2.808e+00,2.830e+00,2.575e+00,3.114e+00,2.299e+00,2.955e+00,1.916e+00,2.382e+00,3.433e+00,1.942e+00,3.314e+00,2.294e+00,2.815e+00,2.536e+00,2.351e+00,1.789e+00,2.912e+00,2.979e+00,2.426e+00,2.433e+00,9.003e-01,2.462e+00,2.949e+00,2.890e+00,1.715e+00,1.676e+00,2.257e+00,3.324e+00,3.124e+00,2.241e+00,2.152e+00,2.324e+00,1.802e+00,2.738e+00,1.916e+00,2.703e+00,2.243e+00,2.044e+00,3.154e+00,2.466e+00,2.343e+00,2.180e+00,2.940e+00,2.124e+00,2.768e+00,2.236e+00,2.189e+00,2.340e+00,2.573e+00,2.799e+00,3.216e+00,3.063e+00,2.871e+00,3.061e+00,1.716e+00,3.320e+00,2.555e+00,3.269e+00,2.330e+00,2.788e+00,2.290e+00,2.696e+00,2.410e+00,3.259e+00,2.936e+00
5.897e-01,7.605e-01,5.618e-01,1.487e+00,2.537e+00,2.997e+00,1.913e+00,2.009e+00,3.670e+00,2.457e+00,3.593e+00,3.730e+00,3.744e+00,3.482e+00,4.365e+00,3.682e+00,4.106e+00,4.674e+00,3.392e+00,4.229e+00,3.206e+00,4.656e+00,4.839e+00,2.955e+00,4.510e+00,3.344e+00,3.694e+00,4.026e+00,3.426e+00,3.110e+00,4.130e+00,4.432e+00,2.852e+00,4.488e+00,1.970e+00,3.922e+00,3.508e+00,4.085e+00,2.664e+00,3.266e+00,2.477e+00,4.845e+00,3.494e+00,2.851e+00,3.274e+00,2.837e+00,3.695e+00,3.215e+00,3.153e+00,3.860e+00,3.641e+00,2.923e+00,4.654e+00,3.997e+00,3.737e+00,2.946e+00,4.043e+00,3.901e+00,4.268e+00,3.693e+00,3.888e+00,3.246e+00,3.437e+00,3.922e+00,4.488e+00,4.242e+00,3.675e+00,5.327e+00,2.133e+00,4.436e+00,3.380e+00,4.358e+00,4.124e+00,3.615e+00,3.547e+00,3.857e+00,3.314e+00,4.650e+00,4.326e+00
6.193e-01,6.703e-01,6.229e-01,1.754e+00,1.551e+00,1.921e+00,1.307e+00,1.700e+00,2.910e+00,2.743e+00,2.573e+00,3.142e+00,3.961e+00,3.581e+00,3.864e+00,3.056e+00,3.695e+00,3.409e+00,4.224e+00,4.384e+00,3.317e+00,4.394e+00,4.146e+00,2.480e+00,3.915e+00,3.637e+00,3.479e+00,3.249e+00,3.021e+00,3.024e+00,4.544e+00,3.850e+00,3.605e+00,3.941e+00,2.690e+00,3.420e+00,2.873e+00,2.856e+00,2.056e+00,3.309e+00,2.816e+00,3.586e+00,3.167e+00,3.065e+00,3.076e+00,3.478e+00,4.043e+00,2.778e+00,3.361e+00,3.674e+00,2.648e+00,2.556e+00,3.950e+00,3.470e+00,2.926e+00,3.496e+00,3.001e+00,3.749e+00,3.858e+00,3.265e+00,3.049e+00,3.244e+00,3.938e+00,3.455e+00,3.189e+00,3.386e+00,3.780e+00,4.114e+00,2.580e+00,3.359e+00,3.956e+00,4.011e+00,2.556e+00,4.086e+00,2.446e+00,3.886e+00,3.714e+00,3.969e+00,3.177e+00
3.878e-01,6.836e-01,4.428e-01,1.446e+00,2.285e+00,2.268e+00,1.497e+00,1.877e+00,2.562e+00,1.774e+00,3.301e+00,2.905e+00,2.791e+00,4.005e+00,4.139e+00,3.203e+00,3.756e+00,4.386e+00,3.435e+00,4.082e+00,3.292e+00,3.984e+00,4.136e+00,2.320e+00,4.257e+00,3.886e+00,3.881e+00,3.684e+00,3.882e+00,3.113e+00,4.195e+00,3.674e+00,2.612e+00,3.753e+00,2.932e+00,3.144e+00,2.929e+00,3.650e+00,3.299e+00,3.485e+00,2.597e+00,4.160e+00,2.759e+00,2.276e+00,3.168e+00,3.558e+00,3.941e+00,2.997e+00,3.496e+00,3.523e+00,2.842e+00,2.915e+00,4.577e+00,3.804e+00,3.195e+00,3.577e+00,3.282e+00,4.413e+00,3.928e+00,3.445e+00,3.150e+00,4.011e+00,3.780e+00,4.028e+00,3.471e+00,3.329e+00,2.932e+00,4.315e+00,2.856e+00,3.955e+00,3.119e+00,3.582e+00,3.546e+00,4.149e+00,3.725e+00,4.209e+00,3.315e+00,4.490e+00,3.823e+00
3.616e-01,3.882e-01,4.219e-01,1.375e+00,1.630e+00,1.818e+00,1.356e+00,2.029e+00,2.750e+00,2.146e+00,3.161e+00,2.727e+00,3.025e+00,4.191e+00,3.792e+00,3.423e+00,4.616e+00,5.350e+00,4.736e+00,4.610e+00,3.402e+00,5.022e+00,5.128e+00,3.332e+00,4.687e+00,4.484e+00,5.078e+00,4.734e+00,4.409e+00,4.778e+00,5.435e+00,4.056e+00,3.949e+00,5.250e+00,3.718e+00,4.074e+00,4.126e+00,3.506e+00,3.896e+00,4.082e+00,3.650e+00,4.708e+00,3.486e+00,3.187e+00,4.127e+00,4.038e+00,4.583e+00,3.942e+00,3.674e+00,4.367e+00,2.732e+00,2.992e+00,4.734e+00,4.027e+00,3.093e+00,4.464e+00,3.775e+00,5.664e+00,3.653e+00,4.657e+00,3.285e+00,4.261e+00,4.633e+00,4.572e+00,4.049e+00,4.360e+00,3.890e+00,5.283e+00,3.133e+00,4.370e+00,3.629e+00,3.749e+00,4.513e+00,4.314e+00,4.555e+00,4.837e+00,4.208e+00,4.779e+00,4.264e+00
7.086e-01,6.154e-01,6.408e-01,1.575e+00,1.892e+00,2.415e+00,1.681e+00,1.897e+00,3.824e+00,3.122e+00,3.129e+00,3.154e+00,4.017e+00,4.280e+00,5.112e+00,4.796e+00,5.318e+00,5.531e+00,5.105e+00,5.152e+00,4.050e+00,6.338e+00,4.917e+00,4.923e+00,5.084e+00,5.581e+00,6.152e+00,5.386e+00,5.866e+00,4.717e+00,6.568e+00,6.001e+00,4.665e+00,5.679e+00,4.820e+00,3.966e+00,5.407e+00,4.333e+00,4.442e+00,5.013e+00,4.254e+00,4.653e+00,5.182e+00,3.844e+00,3.772e+00,4.084e+00,5.459e+00,4.811e+00,4.411e+00,5.557e+00,3.555e+00,3.411e+00,5.443e+00,4.353e+00,4.353e+00,5.232e+00,4.582e+00,5.288e+00,4.938e+00,4.579e+00,4.387e+00,4.768e+00,5.461e+00,5.244e+00,5.338e+00,5.949e+00,4.753e+00,5.965e+00,3.901e+00,5.050e+00,5.211e+00,5.047e+00,4.028e+00,4.892e+00,4.609e+00,5.094e+00,5.052e+00,5.301e+00,5.319e+00
7.530e-01,5.691e-01,6.818e-01,1.677e+00,2.248e+00,2.273e+00,1.739e+00,1.658e+00,2.762e+00,2.208e+00,3.036e+00,2.746e+00,2.991e+00,3.007e+00,3.245e+00,3.848e+00,4.710e+00,5.073e+00,4.616e+00,4.082e+00,3.435e+00,5.547e+00,5.019e+00,3.634e+00,4.977e+00,4.293e+00,5.432e+00,5.181e+00,5.671e+00,3.812e+00,5.698e+00,4.787e+00,4.753e+00,4.962e+00,3.863e+00,3.560e+00,4.181e+00,3.753e+00,4.368e+00,3.824e+00,4.228e+00,4.651e+00,3.757e+00,4.010e+00,4.021e+00,4.030e+00,4.114e+00,4.865e+00,4.072e+00,4.168e+00,3.001e+00,3.367e+00,5.213e+00,4.265e+00,3.431e+00,4.385e+00,3.911e+00,4.366e+00,4.436e+00,4.560e+00,4.043e+00,4.290e+00,4.666e+00,4.503e+00,4.349e+00,4.840e+00,3.981e+00,4.681e+00,3.529e+00,4.702e+00,4.687e+00,4.289e+00,4.665e+00,5.214e+00,3.785e+00,3.982e+00,3.931e+00,5.023e+00,4.005e+00
3.794e-01,1.955e-01,3.877e-01,1.128e+00,9.252e-01,1.720e+00,1.322e+00,1.426e+00,2.332e+00,1.886e+00,2.488e+00,3.111e+00,3.108e+00,4.244e+00,3.755e+00,3.536e+00,4.165e+00,6.325e+00,5.053e+00,5.435e+00,4.607e+00,6.109e+00,5.587e+00,3.606e+00,6.748e+00,5.125e+00,4.820e+00,6.611e+00,5.796e+00,3.905e+00,5.634e+00,4.892e+00,4.315e+00,4.867e+00,4.379e+00,4.571e+00,6.155e+00,4.672e+00,4.875e+00,5.350e+00,5.505e+00,5.070e+00,5.534e+00,4.923e+00,4.945e+00,4.965e+00,4.653e+00,5.270e+00,5.473e+00,5.495e+00,3.984e+00,4.480e+00,5.549e+00,4.956e+00,4.696e+00,5.338e+00,4.530e+00,5.641e+00,5.825e+00,3.832e+00,4.899e+00,5.139e+00,6.161e+00,3.915e+00,5.379e+00,6.184e+00,3.872e+00,4.992e+00,4.385e+00,5.890e+00,5.357e+00,5.237e+00,4.100e+00,6.089e+00,4.636e+00,4.710e+00,4.259e+00,6.688e+00,5.276e+00
6.374e-01,7.111e-01,5.956e-01,1.495e+00,1.832e+00,1.470e+00,1.277e+00,1.491e+00,1.873e+00,1.390e+00,2.121e+00,2.989e+00,2.629e+00,3.335e+00,2.808e+00,2.979e+00,4.001e+00,4.624e+00,4.275e+00,5.014e+00,4.514e+00,4.968e+00,4.361e+00,3.040e+00,4.890e+00,4.695e+00,5.070e+00,5.569e+00,4.982e+00,3.533e+00,4.719e+00,4.037e+00,4.198e+00,4.955e+00,3.598e+00,3.955e+00,3.783e+00,4.529e+00,3.907e+00,4.794e+00,4.322e+00,4.011e+00,4.280e+00,4.070e+00,4.097e+00,3.471e+00,4.929e+00,4.996e+00,3.745e+00,4.449e+00,3.708e+00,3.155e+00,4.346e+00,4.065e+00,3.767e+00,4.116e+00,4.105e+00,4.908e+00,3.891e+00,4.411e+00,4.393e+00,4.317e+00,4.221e+00,4.433e+00,4.951e+00,4.092e+00,4.456e+00,4.656e+00,3.638e+00,4.494e+00,4.193e+00,3.924e+00,4.060e+00,4.831e+00,3.874e+00,4.138e+00,3.750e+00,5.820e+00,4.398e+00
5.908e-01,6.986e-01,6.450e-01,2.002e+00,1.864e+00,2.731e+00,1.958e+00,2.343e+00,3.130e+00,2.838e+00,3.650e+00,4.092e+00,4.414e+00,5.019e+00,4.735e+00,4.644e+00,5.607e+00,6.547e+00,5.984e+00,7.124e+00,5.641e+00,7.401e+00,5.957e+00,5.271e+00,7.490e+00,6.426e+00,7.204e+00,7.246e+00,6.778e+00,5.096e+00,6.994e+00,6.029e+00,5.238e+00,7.127e+00,4.908e+00,5.195e+00,6.008e+00,6.538e+00,5.710e+00,6.270e+00,5.937e+00,5.992e+00,6.616e+00,5.386e+00,5.756e+00,5.640e+00,6.891e+00,6.411e+00,5.644e+00,6.868e+00,4.857e+00,4.986e+00,6.392e+00,5.528e+00,5.573e+00,6.395e+00,5.403e+00,6.841e+00,6.637e+00,5.536e+00,6.366e+00,6.563e+00,7.357e+00,6.483e+00,6.199e+00,6.323e+00,6.017e+00,7.171e+00,4.660e+00,6.708e+00,6.101e+00,5.542e+00,5.308e+00,7.227e+00,5.607e+00,6.328e+00,6.096e+00,7.602e+00,5.970e+00
5.616e-01,6.402e-01,5.643e-01,1.546e+00,1.444e+00,1.289e+00,1.014e+00,1.558e+00,2.192e+00,1.483e+00,1.926e+00,2.583e+00,2.441e+00,3.051e+00,3.079e+00,2.834e+00,3.048e+00,4.676e+00,3.675e+00,4.081e+00,4.285e+00,5.206e+00,4.803e+00,4.037e+00,5.335e+00,4.837e+00,5.046e+00,6.104e+00,5.133e+00,3.641e+00,4.982e+00,5.488e+00,4.166e+00,5.533e+00,4.126e+00,4.362e+00,4.418e+00,4.464e+00,5.376e+00,4.679e+00,4.485e+00,3.865e+00,4.330e+00,3.858e+00,4.123e+00,3.946e+00,4.768e+00,5.275e+00,4.139e+00,5.214e+00,3.758e+00,3.919e+00,4.693e+00,4.210e+00,4.687e+00,4.059e+00,3.927e+00,5.476e+00,4.835e+00,3.633e+00,5.075e+00,4.831e+00,5.176e+00,4.086e+00,5.302e+00,5.799e+00,4.310e+00,4.885e+00,3.691e+00,4.382e+00,4.912e+00,5.065e+00,4.542e+00,5.023e+00,4.593e+00,4.592e+00,4.034e+00,5.778e+00,4.708e+00
1.007e-01,1.891e-01,1.547e-01,6.406e-01,9.738e-01,1.489e+00,1.034e+00,1.523e+00,2.278e+00,1.420e+00,2.633e+00,2.389e+00,2.262e+00,3.652e+00,3.789e+00,2.978e+00,3.144e+00,5.235e+00,3.578e+00,4.718e+00,4.094e+00,5.943e+00,5.581e+00,4.363e+00,5.755e+00,5.518e+00,5.028e+00,6.805e+00,5.006e+00,4.474e+00,5.045e+00,5.923e+00,3.936e+00,5.892e+00,4.544e+00,5.092e+00,4.880e+00,6.035e+00,4.946e+00,4.528e+00,4.528e+00,5.160e+00,5.778e+00,4.898e+00,4.946e+00,5.003e+00,5.836e+00,5.363e+00,6.033e+00,5.571e+00,3.945e+00,4.247e+00,6.452e+00,5.195e+00,5.780e+00,4.975e+00,5.607e+00,6.305e+00,5.885e+00,4.753e+00,5.155e+00,5.638e+00,5.546e+00,4.697e+00,5.419e+00,5.850e+00,4.316e+00,5.253e+00,3.758e+00,5.672e+00,4.914e+00,5.302e+00,5.732e+00,5.332e+00,5.751e+00,5.426e+00,4.098e+00,6.109e+00,5.506e+00
7.087e-01,7.559e-01,6.415e-01,1.578e+00,2.520e+00,2.996e+00,1.877e+00,1.546e+00,3.505e+00,3.053e+00,3.397e+00,4.033e+00,4.619e+00,3.664e+00,4.710e+00,4.702e+00,5.148e+00,5.672e+00,5.164e+00,6.789e+00,5.506e+00,7.305e+00,6.950e+00,6.332e+00,8.726e+00,6.560e+00,7.713e+00,7.963e+00,7.489e+00,5.043e+00,6.971e+00,9.069e+00,6.231e+00,7.874e+00,5.435e+00,6.301e+00,7.097e+00,8.118e+00,6.179e+00,6.138e+00,6.706e+00,7.083e+00,8.640e+00,6.938e+00,5.423e+00,6.754e+00,7.385e+00,7.579e+00,6.899e+00,8.269e+00,6.547e+00,5.913e+00,8.077e+00,7.341e+00,7.269e+00,6.195e+00,7.262e+00,7.069e+00,8.564e+00,6.802e+00,7.738e+00,6.483e+00,6.705e+00,7.423e+00,8.399e+00,7.296e+00,6.706e+00,7.642e+00,5.919e+00,7.080e+00,7.053e+00,8.407e+00,6.407e+00,6.555e+00,6.681e+00,7.436e+00,6.226e+00,7.986e+00,7.725e+00
7.626e-01,4.093e-01,6.854e-01,1.710e+00,1.833e+00,2.425e+00,1.795e+00,1.898e+00,3.107e+00,2.498e+00,3.371e+00,3.148e+00,3.473e+00,4.186e+00,4.513e+00,4.593e+00,5.281e+00,6.491e+00,5.199e+00,5.764e+00,5.155e+00,7.362e+00,6.244e+00,6.704e+00,8.058e+00,8.039e+00,8.181e+00,8.381e+00,7.714e+00,5.293e+00,7.122e+00,8.249e+00,5.998e+00,8.155e+00,5.873e+00,5.884e+00,6.600e+00,7.908e+00,6.898e+00,6.709e+00,6.597e+00,6.706e+00,7.575e+00,5.785e+00,6.733e+00,5.992e+00,7.071e+00,6.683e+00,7.060e+00,7.073e+00,5.633e+00,6.390e+00,8.108e+00,7.192e+00,7.153e+00,7.141e+00,6.687e+00,7.429e+00,8.017e+00,6.386e+00,6.513e+00,7.344e+00,7.054e+00,7.299e+00,7.444e+00,7.104e+00,6.237e+00,7.618e+00,5.367e+00,8.467e+00,7.467e+00,7.155e+00,6.187e+00,7.585e+00,6.255e+00,7.207e+00,6.342e+00,8.270e+00,7.277e+00
6.113e-01,4.707e-01,6.043e-01,1.691e+00,1.851e+00,2.122e+00,1.831e+00,2.079e+00,2.948e+00,2.896e+00,3.567e+00,3.723e+00,4.044e+00,3.616e+00,3.851e+00,4.498e+00,4.819e+00,5.537e+00,5.785e+00,5.745e+00,5.745e+00,7.178e+00,6.446e+00,6.524e+00,8.062e+00,7.673e+00,9.070e+00,7.348e+00,7.612e+00,6.807e+00,7.894e+00,7.945e+00,7.293e+00,8.637e+00,6.760e+00,7.388e+00,6.653e+00,7.831e+00,7.402e+00,6.044e+00,6.416e+00,6.910e+00,8.068e+00,5.953e+00,6.399e+00,7.192e+00,7.319e+00,7.230e+00,6.675e+00,7.795e+00,5.373e+00,6.275e+00,7.260e+00,8.367e+00,6.630e+00,7.330e+00,6.470e+00,7.371e+00,7.706e+00,6.790e+00,7.530e+00,7.322e+00,6.805e+00,7.557e+00,7.366e+00,8.385e+00,7.015e+00,7.944e+00,5.315e+00,7.742e+00,7.664e+00,7.777e+00,6.933e+00,7.578e+00,7.211e+00,7.083e+00,6.600e+00,8.065e+00,7.971e+00
7.169e-01,2.952e-01,6.210e-01,1.450e+00,1.589e+00,1.997e+00,1.849e+00,1.595e+00,2.239e+00,2.034e+00,3.114e+00,2.958e+00,2.956e+00,4.086e+00,3.898e+00,4.159e+00,4.352e+00,5.463e+00,4.874e+00,5.364e+00,5.390e+00,5.775e+00,5.902e+00,4.615e+00,6.479e+00,7.297e+00,7.772e+00,7.627e+00,6.769e+00,5.458e+00,6.611e+00,5.680e+00,6.120e+00,5.656e+00,5.686e+00,5.471e+00,6.338e+00,6.934e+00,6.648e+00,5.686e+00,6.123e+00,6.594e+00,7.119e+00,5.694e+00,6.339e+00,6.986e+00,5.716e+00,6.361e+00,6.268e+00,6.601e+00,4.871e+00,5.361e+00,6.647e+00,7.165e+00,5.293e+00,6.808e+00,5.695e+00,6.091e+00,6.239e+00,5.909e+00,6.114e+00,6.905e+00,6.103e+00,6.962e+00,7.174e+00,6.407e+00,5.775e+00,5.622e+00,4.841e+00,7.100e+00,7.062e+00,5.716e+00,5.111e+00,7.748e+00,5.825e+00,5.866e+00,5.141e+00,8.230e+00,6.207e+00
4.173e-01,3.872e-01,3.685e-01,8.808e-01,1.808e+00,1.676e+00,1.403e+00,1.480e+00,2.686e+00,2.325e+00,3.074e+00,2.797e+00,3.208e+00,4.000e+00,4.327e+00,3.908e+00,4.553e+00,5.502e+00,5.228e+00,5.754e+00,4.862e+00,6.464e+00,6.734e+00,5.839e+00,7.227e+00,7.496e+00,8.309e+00,7.726e+00,7.507e+00,6.431e+00,8.258e+00,8.090e+00,7.249e+00,7.995e+00,7.346e+00,7.086e+00,7.052e+00,7.691e+00,7.389e+00,6.669e+00,6.850e+00,7.927e+00,8.395e+00,6.620e+00,6.789e+00,7.881e+00,8.154e+00,7.611e+00,7.479e+00,8.620e+00,5.684e+00,6.081e+00,8.750e+00,9.182e+00,6.595e+00,7.779e+00,7.244e+00,8.596e+00,7.876e+00,7.856e+00,6.945e+00,8.432e+00,6.407e+00,7.951e+00,8.580e+00,7.720e+00,7.178e+00,7.633e+00,6.216e+00,7.662e+00,7.396e+00,8.111e+00,7.414e+00,7.325e+00,7.554e+00,8.310e+00,5.661e+00,8.219e+00,7.594e+00
5.349e-01,3.800e-01,4.459e-01,1.009e+00,1.811e+00,2.308e+00,1.594e+00,1.077e+00,2.112e+00,1.765e+00,2.705e+00,2.268e+00,2.499e+00,3.181e+00,3.585e+00,3.196e+00,4.143e+00,5.035e+00,3.927e+00,5.323e+00,4.770e+00,5.543e+00,5.497e+00,5.574e+00,7.766e+00,7.362e+00,8.975e+00,8.609e+00,8.517e+00,5.616e+00,7.561e+00,8.343e+00,7.511e+00,7.949e+00,6.687e+00,6.830e+00,7.613e+00,8.357e+00,8.278e+00,7.769e+00,7.914e+00,8.938e+00,8.414e+00,6.562e+00,7.205e+00,8.511e+00,8.221e+00,7.868e+00,8.012e+00,8.992e+00,7.093e+00,7.587e+00,8.862e+00,8.649e+00,7.064e+00,7.916e+00,8.108e+00,8.277e+00,8.273e+00,6.917e+00,7.944e+00,9.424e+00,7.164e+00,8.530e+00,8.807e+00,8.258e+00,7.504e+00,8.080e+00,6.667e+00,8.404e+00,8.047e+00,7.942e+00,7.455e+00,7.954e+00,8.046e+00,8.748e+00,5.930e+00,8.608e+00,8.577e+00
1.051e-01,1.884e-01,1.491e-01,5.732e-01,7.104e-01,1.570e+00,8.951e-01,1.192e+00,2.166e+00,1.372e+00,2.040e+00,1.631e+00,2.001e+00,2.856e+00,2.954e+00,3.099e+00,3.589e+00,5.532e+00,4.084e+00,4.941e+00,4.323e+00,6.130e+00,5.912e+00,4.393e+00,5.607e+00,6.545e+00,6.155e+00,7.948e+00,7.516e+00,5.632e+00,8.295e+00,7.240e+00,6.914e+00,8.443e+00,5.948e+00,7.469e+00,7.421e+00,7.685e+00,7.187e+00,7.271e+00,7.710e+00,8.095e+00,7.932e+00,6.284e+00,7.032e+00,6.923e+00,7.759e+00,8.508e+00,7.031e+00,7.450e+00,7.086e+00,7.348e+00,7.424e+00,7.617e+00,6.002e+00,7.663e+00,7.379e+00,8.274e+00,6.857e+00,6.337e+00,7.394e+00,7.604e+00,8.015e+00,5.558e+00,8.630e+00,9.078e+00,7.147e+00,7.725e+00,6.233e+00,8.251e+00,7.926e+00,7.465e+00,7.597e+00,8.221e+00,7.269e+00,6.743e+00,6.337e+00,7.724e+00,7.331e+00
5.916e-01,6.177e-01,5.766e-01,1.558e+00,1.364e+00,1.905e+00,1.489e+00,1.660e+00,2.095e+00,1.978e+00,2.593e+00,3.020e+00,3.255e+00,4.042e+00,3.971e+00,3.786e+00,4.252e+00,6.179e+00,5.064e+00,6.623e+00,5.520e+00,6.791e+00,6.120e+00,5.418e+00,7.483e+00,7.736e+00,8.065e+00,8.992e+00,8.764e+00,6.759e+00,9.730e+00,8.248e+00,7.300e+00,9.103e+00,6.915e+00,7.664e+00,8.410e+00,9.735e+00,8.582e+00,9.250e+00,9.116e+00,9.430e+00,9.374e+00,7.726e+00,8.032e+00,8.412e+00,8.977e+00,1.007e+01,8.053e+00,9.743e+00,8.015e+00,8.523e+00,8.563e+00,8.812e+00,7.695e+00,9.120e+00,8.242e+00,1.043e+01,9.000e+00,7.317e+00,8.615e+00,1.002e+01,8.871e+00,8.418e+00,1.007e+01,8.785e+00,8.906e+00,9.533e+00,7.103e+00,9.735e+00,8.452e+00,8.770e+00,8.182e+00,9.969e+00,8.241e+00,8.727e+00,7.014e+00,9.824e+00,8.279e+00
6.709e-01,5.834e-01,6.048e-01,1.464e+00,1.959e+00,1.841e+00,1.452e+00,1.318e+00,2.101e+00,2.013e+00,2.494e+00,3.285e+00,3.291e+00,2.614e+00,2.817e+00,3.041e+00,3.685e+00,3.649e+00,3.723e+00,4.461e+00,4.066e+00,5.302e+00,4.710e+00,5.000e+00,6.250e+00,6.310e+00,7.054e+00,6.822e+00,6.591e+00,5.156e+00,7.115e+00,7.659e+00,6.950e+00,7.836e+00,5.431e+00,7.437e+00,6.329e+00,7.494e+00,6.563e+00,7.444e+00,6.603e+00,8.149e+00,7.343e+00,6.166e+00,6.598e+00,7.650e+00,7.309e+00,6.753e+00,7.090e+00,8.181e+00,7.305e+00,6.203e+00,7.822e+00,8.043e+00,6.470e+00,6.507e+00,7.379e+00,7.950e+00,7.762e+00,6.781e+00,7.862e+00,7.654e+00,6.520e+00,8.279e+00,7.917e+00,7.032e+00,7.633e+00,8.063e+00,5.059e+00,7.003e+00,7.120e+00,7.966e+00,7.438e+00,7.288e+00,6.268e+00,7.489e+00,6.409e+00,7.719e+00,7.222e+00
5.986e-01,4.205e-01,4.898e-01,1.060e+00,1.252e+00,1.792e+00,1.252e+00,1.131e+00,2.517e+00,1.883e+00,2.199e+00,2.644e+00,2.830e+00,3.275e+00,4.185e+00,3.258e+00,3.842e+00,5.557e+00,4.037e+00,4.853e+00,4.642e+00,6.623e+00,5.445e+00,5.195e+00,6.725e+00,6.650e+00,6.844e+00,7.758e+00,6.826e+00,5.350e+00,7.024e+00,8.857e+00,7.577e+00,7.530e+00,6.792e+00,6.278e+00,7.328e+00,7.774e+00,7.419e+00,8.044e+00,7.879e+00,7.540e+00,8.553e+00,7.134e+00,6.352e+00,7.631e+00,8.058e+00,7.689e+00,8.318e+00,7.845e+00,6.619e+00,6.374e+00,9.142e+00,8.015e+00,7.431e+00,7.011e+00,7.377e+00,7.671e+00,8.707e+00,7.288e+00,7.789e+00,8.717e+00,7.688e+00,7.203e+00,7.956e+00,8.343e+00,7.360e+00,7.587e+00,5.843e+00,8.028e+00,7.260e+00,8.553e+00,7.090e+00,8.014e+00,7.130e+00,7.265e+00,5.390e+00,8.197e+00,8.230e+00
4.230e-01,4.653e-01,4.223e-01,1.224e+00,2.028e+00,2.688e+00,1.648e+00,1.706e+00,3.002e+00,1.785e+00,3.292e+00,2.289e+00,2.433e+00,3.783e+00,4.211e+00,4.104e+00,4.792e+00,6.391e+00,4.391e+00,5.082e+00,4.511e+00,6.908e+00,6.256e+00,4.824e+00,6.303e+00,8.350e+00,8.331e+00,8.768e+00,8.444e+00,6.409e+00,9.243e+00,9.207e+00,9.626e+00,8.615e+00,7.529e+00,8.658e+00,8.949e+00,9.282e+00,9.736e+00,1.059e+01,1.036e+01,1.060e+01,1.001e+01,7.526e+00,8.366e+00,9.900e+00,9.419e+00,1.027e+01,9.506e+00,7.856e+00,9.428e+00,8.561e+00,1.105e+01,1.063e+01,7.884e+00,9.261e+00,9.199e+00,9.024e+00,9.411e+00,9.700e+00,9.134e+00,9.766e+00,9.362e+00,9.838e+00,9.543e+00,9.692e+00,8.831e+00,8.970e+00,7.846e+00,9.050e+00,9.776e+00,9.605e+00,9.256e+00,1.093e+01,9.720e+00,8.366e+00,8.575e+00,9.713e+00,9.969e+00
7.462e-01,4.072e-01,6.715e-01,1.627e+00,1.171e+00,1.574e+00,1.654e+00,1.920e+00,2.276e+00,2.178e+00,2.738e+00,2.766e+00,3.002e+00,3.916e+00,3.700e+00,3.580e+00,3.425e+00,4.985e+00,4.359e+00,5.262e+00,4.473e+00,4.952e+00,5.484e+00,5.690e+00,7.635e+00,6.866e+00,7.904e+00,7.479e+00,7.518e+00,5.366e+00,7.296e+00,8.369e+00,8.341e+00,8.543e+00,6.694e+00,8.848e+00,8.704e+00,8.814e+00,9.395e+00,1.011e+01,8.995e+00,7.809e+00,9.572e+00,6.541e+00,9.108e+00,9.749e+00,9.115e+00,7.873e+00,8.677e+00,9.868e+00,7.956e+00,8.566e+00,8.191e+00,9.648e+00,8.097e+00,8.080e+00,8.649e+00,9.032e+00,8.611e+00,7.440e+00,9.334e+00,9.939e+00,8.581e+00,9.446e+00,8.693e+00,8.908e+00,8.805e+00,9.982e+00,6.997e+00,9.593e+00,8.550e+00,9.294e+00,7.246e+00,1.020e+01,7.422e+00,9.674e+00,7.568e+00,9.659e+00,9.669e+00
2.214e-01,3.058e-01,2.410e-01,7.508e-01,1.015e+00,1.390e+00,1.144e+00,1.443e+00,2.203e+00,2.021e+00,2.547e+00,2.215e+00,2.689e+00,3.487e+00,3.880e+00,3.638e+00,3.141e+00,4.584e+00,4.107e+00,5.027e+00,4.462e+00,5.042e+00,5.244e+00,5.076e+00,6.180e+00,6.110e+00,6.303e+00,6.067e+00,6.410e+00,5.681e+00,6.974e+00,8.204e+00,7.553e+00,7.618e+00,7.247e+00,8.885e+00,8.620e+00,8.190e+00,9.142e+00,8.792e+00,8.770e+00,7.581e+00,9.620e+00,7.091e+00,7.841e+00,9.194e+00,9.631e+00,8.706e+00,9.457e+00,8.729e+00,7.959e+00,7.757e+00,7.971e+00,9.091e+00,7.871e+00,8.245e+00,8.221e+00,8.983e+00,7.812e+00,7.721e+00,8.542e+00,9.077e+00,8.922e+00,8.607e+00,7.777e+00,8.703e+00,8.367e+00,8.907e+00,7.112e+00,7.930e+00,8.976e+00,9.000e+00,8.139e+00,9.724e+00,8.527e+00,8.902e+00,7.800e+00,8.722e+00,1.029e+01
6.999e-01,6.039e-01,6.828e-01,1.893e+00,1.635e+00,1.966e+00,1.687e+00,2.059e+00,2.844e+00,2.926e+00,3.279e+00,3.907e+00,4.319e+00,3.963e+00,4.251e+00,4.201e+00,4.908e+00,5.219e+00,5.725e+00,5.773e+00,5.109e+00,7.155e+00,5.978e+00,5.588e+00,7.180e+00,6.541e+00,7.633e+00,7.667e+00,8.284e+00,6.701e+00,8.835e+00,9.077e+00,8.343e+00,9.289e+00,7.156e+00,9.151e+00,9.052e+00,8.478e+00,9.039e+00,9.873e+00,9.339e+00,9.844e+00,9.622e+00,7.757e+00,9.250e+00,1.083e+01,9.592e+00,9.161e+00,1.039e+01,9.744e+00,9.471e+00,8.487e+00,9.871e+00,1.048e+01,7.727e+00,9.080e+00,7.785e+00,1.076e+01,8.635e+00,9.484e+00,9.920e+00,9.514e+00,1.036e+01,9.381e+00,8.717e+00,9.862e+00,9.355e+00,1.141e+01,8.146e+00,9.582e+00,9.948e+00,1.043e+01,8.401e+00,1.046e+01,7.551e+00,9.605e+00,8.109e+00,8.579e+00,9.418e+00
6.510e-01,2.590e-01,5.299e-01,1.125e+00,8.996e-01,1.422e+00,9.902e-01,6.768e-01,1.958e+00,1.825e+00,1.568e+00,2.675e+00,2.937e+00,3.009e+00,3.501e+00,3.150e+00,3.779e+00,4.388e+00,3.769e+00,4.165e+00,4.162e+00,5.483e+00,4.185e+00,4.344e+00,6.045e+00,5.948e+00,5.885e+00,6.958e+00,7.243e+00,4.701e+00,6.931e+00,7.330e+00,6.754e+00,7.059e+00,7.168e+00,7.256e+00,8.402e+00,8.310e+00,9.540e+00,9.767e+00,9.368e+00,8.296e+00,8.326e+00,8.287e+00,8.068e+00,9.147e+00,8.782e+00,8.261e+00,1.002e+01,9.857e+00,8.852e+00,9.269e+00,7.423e+00,9.121e+00,8.312e+00,9.130e+00,8.100e+00,9.530e+00,9.259e+00,6.801e+00,9.283e+00,8.971e+00,8.821e+00,8.015e+00,9.224e+00,8.495e+00,8.131e+00,8.492e+00,8.718e+00,9.329e+00,1.041e+01,9.299e+00,8.305e+00,1.061e+01,6.503e+00,7.968e+00,7.234e+00,8.199e+00,8.581e+00
4.180e-01,2.318e-01,4.130e-01,1.123e+00,1.253e+00,1.662e+00,1.280e+00,1.574e+00,2.865e+00,2.139e+00,2.712e+00,3.433e+00,3.468e+00,4.250e+00,3.917e+00,3.528e+00,4.242e+00,5.798e+00,5.000e+00,5.676e+00,4.725e+00,5.948e+00,6.638e+00,5.047e+00,7.844e+00,6.112e+00,6.746e+00,7.525e+00,7.328e+00,6.401e+00,7.895e+00,8.338e+00,8.245e+00,8.957e+00,7.438e+00,9.746e+00,9.447e+00,9.373e+00,9.629e+00,1.001e+01,9.741e+00,9.055e+00,9.500e+00,9.255e+00,9.896e+00,9.814e+00,1.059e+01,9.100e+00,9.907e+00,1.090e+01,9.126e+00,9.538e+00,8.600e+00,9.834e+00,8.483e+00,9.009e+00,1.049e+01,1.112e+01,1.001e+01,8.915e+00,9.884e+00,1.029e+01,1.042e+01,9.388e+00,1.058e+01,9.847e+00,1.030e+01,1.017e+01,7.882e+00,9.322e+00,9.500e+00,1.075e+01,1.007e+01,1.076e+01,9.030e+00,1.003e+01,8.358e+00,9.700e+00,1.067e+01
7.692e-01,3.344e-01,6.588e-01,1.519e+00,1.264e+00,2.305e+00,1.677e+00,1.621e+00,3.385e+00,3.008e+00,2.918e+00,3.342e+00,4.177e+00,3.960e+00,4.480e+00,4.096e+00,5.226e+00,5.833e+00,5.531e+00,5.895e+00,5.153e+00,7.003e+00,6.352e+00,5.996e+00,7.150e+00,6.659e+00,7.232e+00,7.964e+00,7.271e+00,6.228e+00,8.139e+00,9.546e+00,8.802e+00,9.716e+00,7.130e+00,8.979e+00,8.974e+00,8.634e+00,1.052e+01,1.089e+01,1.004e+01,1.056e+01,1.042e+01,9.789e+00,1.124e+01,1.089e+01,1.142e+01,9.813e+00,1.130e+01,1.169e+01,9.949e+00,9.532e+00,1.032e+01,1.094e+01,8.578e+00,9.823e+00,1.062e+01,1.181e+01,9.660e+00,9.969e+00,1.004e+01,1.178e+01,1.218e+01,1.004e+01,1.087e+01,1.107e+01,1.117e+01,1.093e+01,8.347e+00,1.122e+01,1.151e+01,1.069e+01,9.072e+00,1.149e+01,8.343e+00,1.027e+01,8.790e+00,9.949e+00,1.078e+01
4.272e-01,5.367e-01,4.441e-01,1.341e+00,2.212e+00,2.343e+00,1.616e+00,1.586e+00,2.224e+00,2.037e+00,3.353e+00,2.614e+00,2.851e+00,2.437e+00,3.146e+00,3.790e+00,4.215e+00,4.181e+00,4.011e+00,4.362e+00,3.880e+00,5.059e+00,4.989e+00,4.664e+00,5.443e+00,5.898e+00,7.845e+00,6.090e+00,6.648e+00,5.716e+00,7.093e+00,7.637e+00,7.582e+00,7.925e+00,6.539e+00,7.234e+00,7.405e+00,8.531e+00,1.010e+01,8.451e+00,8.919e+00,1.021e+01,9.981e+00,8.907e+00,8.900e+00,1.024e+01,9.712e+00,9.970e+00,8.815e+00,1.003e+01,9.306e+00,9.224e+00,9.138e+00,1.139e+01,7.235e+00,9.308e+00,9.218e+00,1.042e+01,8.896e+00,1.029e+01,9.897e+00,1.011e+01,9.766e+00,1.046e+01,1.018e+01,8.653e+00,9.927e+00,9.294e+00,8.665e+00,9.281e+00,9.503e+00,8.651e+00,9.122e+00,1.008e+01,8.115e+00,8.618e+00,8.156e+00,8.442e+00,9.427e+00
1.573e-01,5.406e-01,2.389e-01,9.595e-01,1.732e+00,1.901e+00,1.141e+00,1.408e+00,2.392e+00,2.192e+00,3.000e+00,2.873e+00,3.319e+00,3.313e+00,4.231e+00,3.760e+00,3.699e+00,4.819e+00,4.312e+00,5.534e+00,4.126e+00,5.762e+00,5.557e+00,4.878e+00,6.604e+00,5.406e+00,6.636e+00,6.532e+00,7.595e+00,6.017e+00,8.109e+00,8.816e+00,7.611e+00,8.803e+00,7.453e+00,9.036e+00,9.571e+00,9.507e+00,1.060e+01,9.948e+00,1.052e+01,1.089e+01,1.199e+01,1.007e+01,9.823e+00,1.168e+01,1.222e+01,1.136e+01,1.126e+01,1.293e+01,1.067e+01,1.075e+01,1.080e+01,1.190e+01,1.016e+01,1.060e+01,1.147e+01,1.289e+01,1.134e+01,1.047e+01,1.106e+01,1.187e+01,1.191e+01,1.065e+01,1.148e+01,1.068e+01,1.112e+01,1.114e+01,1.030e+01,9.913e+00,1.035e+01,1.203e+01,1.104e+01,1.226e+01,1.004e+01,1.099e+01,9.484e+00,9.946e+00,1.138e+01
2.330e-01,6.004e-01,3.023e-01,1.109e+00,2.247e+00,2.571e+00,1.604e+00,1.680e+00,2.803e+00,2.183e+00,3.533e+00,3.290e+00,3.402e+00,3.967e+00,4.384e+00,4.687e+00,5.296e+00,6.012e+00,5.169e+00,6.186e+00,5.121e+00,7.655e+00,6.425e+00,6.548e+00,7.495e+00,8.141e+00,8.453e+00,8.459e+00,8.634e+00,6.674e+00,9.678e+00,1.016e+01,8.202e+00,9.418e+00,8.099e+00,9.045e+00,9.658e+00,9.067e+00,1.025e+01,9.946e+00,9.497e+00,1.144e+01,1.139e+01,9.372e+00,8.932e+00,1.153e+01,1.112e+01,1.069e+01,1.093e+01,1.105e+01,9.702e+00,9.759e+00,1.112e+01,1.238e+01,9.721e+00,1.048e+01,1.072e+01,1.127e+01,1.066e+01,9.984e+00,1.049e+01,1.041e+01,1.055e+01,1.149e+01,1.145e+01,1.138e+01,9.491e+00,1.015e+01,8.591e+00,1.003e+01,1.053e+01,1.050e+01,1.051e+01,1.117e+01,1.009e+01,9.751e+00,9.255e+00,1.136e+01,1.064e+01
2.998e-01,1.658e-01,2.976e-01,8.670e-01,1.510e+00,2.007e+00,1.373e+00,1.235e+00,2.324e+00,1.775e+00,2.788e+00,2.518e+00,2.569e+00,2.554e+00,2.783e+00,3.704e+00,3.941e+00,3.786e+00,3.732e+00,4.223e+00,4.124e+00,4.975e+00,4.879e+00,4.939e+00,5.665e+00,6.127e+00,7.241e+00,6.743e+00,7.543e+00,5.961e+00,7.449e+00,7.825e+00,7.173e+00,8.385e+00,6.429e+00,8.373e+00,8.692e+00,8.878e+00,9.468e+00,9.422e+00,9.245e+00,1.054e+01,1.103e+01,1.049e+01,1.046e+01,1.159e+01,1.069e+01,1.081e+01,1.050e+01,1.103e+01,1.091e+01,1.105e+01,9.256e+00,1.252e+01,8.997e+00,1.021e+01,1.148e+01,1.106e+01,1.046e+01,1.084e+01,1.095e+01,1.087e+01,1.102e+01,1.101e+01,1.272e+01,1.018e+01,1.032e+01,1.025e+01,9.578e+00,1.093e+01,1.142e+01,9.726e+00,1.018e+01,1.188e+01,8.408e+00,9.164e+00,8.903e+00,1.033e+01,1.018e+01
5.677e-01,5.484e-01,5.089e-01,1.228e+00,1.610e+00,2.012e+00,1.734e+00,1.616e+00,2.211e+00,1.629e+00,2.745e+00,3.164e+00,2.822e+00,3.654e+00,3.458e+00,3.559e+00,4.268e+00,5.907e+00,4.715e+00,5.773e+00,4.935e+00,6.794e+00,6.133e+00,5.141e+00,6.797e+00,6.227e+00,6.650e+00,7.639e+00,6.993e+00,5.731e+00,7.557e+00,7.434e+00,7.365e+00,7.333e+00,6.858e+00,7.930e+00,7.727e+00,8.263e+00,8.715e+00,9.073e+00,9.838e+00,1.119e+01,1.035e+01,1.199e+01,1.048e+01,1.064e+01,1.142e+01,1.169e+01,1.109e+01,1.138e+01,9.964e+00,9.833e+00,1.028e+01,1.179e+01,1.052e+01,1.029e+01,1.272e+01,1.179e+01,1.021e+01,1.027e+01,1.102e+01,1.206e+01,1.188e+01,1.127e+01,1.203e+01,1.032e+01,1.126e+01,1.004e+01,9.669e+00,1.070e+01,1.070e+01,1.084e+01,1.203e+01,1.224e+01,1.059e+01,8.497e+00,9.223e+00,1.233e+01,1.046e+01
5.372e-01,2.678e-01,4.462e-01,9.393e-01,1.342e+00,1.472e+00,1.415e+00,1.449e+00,2.591e+00,1.932e+00,2.380e+00,2.552e+00,2.637e+00,4.102e+00,3.592e+00,3.573e+00,4.342e+00,5.716e+00,4.991e+00,5.233e+00,4.575e+00,6.671e+00,5.932e+00,5.904e+00,7.440e+00,7.940e+00,7.817e+00,8.431e+00,9.497e+00,6.175e+00,9.046e+00,9.279e+00,9.033e+00,9.234e+00,8.591e+00,9.599e+00,9.582e+00,9.506e+00,1.106e+01,1.216e+01,1.206e+01,1.106e+01,1.190e+01,1.138e+01,1.220e+01,1.276e+01,1.334e+01,1.310e+01,1.293e+01,1.198e+01,1.205e+01,1.206e+01,1.266e+01,1.418e+01,1.162e+01,1.199e+01,1.363e+01,1.365e+01,1.159e+01,1.251e+01,1.160e+01,1.296e+01,1.263e+01,1.334e+01,1.384e+01,1.036e+01,1.194e+01,1.199e+01,1.272e+01,1.187e+01,1.317e+01,1.223e+01,1.177e+01,1.351e+01,1.100e+01,1.083e+01,1.067e+01,1.282e+01,1.204e+01
7.986e-02,4.351e-01,1.908e-01,8.781e-01,1.228e+00,1.130e+00,7.683e-01,1.614e+00,2.443e+00,1.693e+00,2.469e+00,2.298e+00,2.490e+00,3.153e+00,3.547e+00,3.306e+00,3.223e+00,4.792e+00,4.110e+00,4.204e+00,2.860e+00,5.482e+00,5.231e+00,4.525e+00,5.041e+00,5.401e+00,5.791e+00,5.507e+00,5.505e+00,5.346e+00,7.460e+00,6.840e+00,6.849e+00,7.088e+00,6.463e+00,7.368e+00,7.315e+00,7.200e+00,8.799e+00,8.518e+00,7.932e+00,9.005e+00,8.965e+00,8.681e+00,8.725e+00,9.170e+00,9.884e+00,1.088e+01,1.044e+01,9.908e+00,8.529e+00,9.588e+00,9.502e+00,1.141e+01,9.673e+00,1.028e+01,1.067e+01,1.120e+01,1.059e+01,8.874e+00,9.414e+00,9.842e+00,9.960e+00,1.004e+01,1.081e+01,1.104e+01,9.083e+00,9.244e+00,9.796e+00,1.034e+01,9.940e+00,1.045e+01,1.121e+01,1.014e+01,8.493e+00,8.387e+00,8.974e+00,9.794e+00,1.011e+01
1.732e-01,1.423e-01,2.280e-01,8.462e-01,1.399e+00,1.702e+00,1.042e+00,1.051e+00,1.967e+00,1.819e+00,2.683e+00,2.712e+00,2.962e+00,3.213e+00,3.149e+00,4.028e+00,4.600e+00,5.364e+00,4.972e+00,5.291e+00,4.777e+00,6.002e+00,5.839e+00,4.477e+00,6.776e+00,6.853e+00,6.850e+00,7.703e+00,8.202e+00,6.334e+00,8.723e+00,8.101e+00,8.016e+00,8.796e+00,6.807e+00,8.983e+00,9.494e+00,9.003e+00,1.002e+01,1.007e+01,1.002e+01,1.041e+01,9.883e+00,9.198e+00,9.501e+00,1.116e+01,1.044e+01,1.083e+01,1.131e+01,1.105e+01,9.893e+00,1.063e+01,1.021e+01,1.198e+01,8.857e+00,1.149e+01,1.096e+01,1.230e+01,1.031e+01,1.009e+01,1.057e+01,9.758e+00,1.123e+01,1.056e+01,1.133e+01,1.141e+01,1.085e+01,9.855e+00,1.061e+01,1.109e+01,1.099e+01,1.124e+01,1.064e+01,1.215e+01,8.700e+00,9.562e+00,9.966e+00,1.120e+01,1.060e+01
4.851e-02,1.309e-01,8.695e-02,4.406e-01,1.317e+00,2.367e+00,1.427e+00,1.177e+00,2.407e+00,1.907e+00,2.955e+00,2.375e+00,2.672e+00,3.048e+00,3.447e+00,3.474e+00,3.943e+00,4.914e+00,3.848e+00,4.572e+00,4.311e+00,5.358e+00,5.499e+00,5.161e+00,6.774e+00,5.640e+00,6.021e+00,6.247e+00,7.556e+00,5.659e+00,7.585e+00,8.540e+00,7.707e+00,8.904e+00,6.562e+00,8.423e+00,8.533e+00,9.004e+00,1.085e+01,9.709e+00,1.015e+01,1.117e+01,1.058e+01,9.555e+00,1.055e+01,1.230e+01,1.150e+01,1.106e+01,1.210e+01,1.177e+01,1.148e+01,1.156e+01,1.064e+01,1.369e+01,1.018e+01,1.161e+01,1.159e+01,1.233e+01,1.113e+01,1.168e+01,1.191e+01,1.195e+01,1.218e+01,1.153e+01,1.251e+01,1.157e+01,1.137e+01,1.173e+01,1.141e+01,1.257e+01,1.263e+01,1.215e+01,1.188e+01,1.344e+01,1.033e+01,1.060e+01,1.137e+01,1.153e+01,1.237e+01
1.786e-01,1.597e-01,2.366e-01,8.603e-01,1.347e+00,1.366e+00,9.258e-01,1.213e+00,1.755e+00,1.526e+00,2.612e+00,1.776e+00,2.148e+00,2.863e+00,2.888e+00,3.934e+00,4.238e+00,5.146e+00,4.567e+00,4.594e+00,4.112e+00,5.206e+00,5.652e+00,4.959e+00,5.637e+00,7.069e+00,7.514e+00,7.375e+00,6.623e+00,5.644e+00,7.847e+00,6.974e+00,7.088e+00,7.847e+00,6.808e+00,7.656e+00,8.479e+00,7.848e+00,1.083e+01,8.648e+00,9.513e+00,9.914e+00,9.743e+00,9.783e+00,1.038e+01,1.052e+01,1.133e+01,1.169e+01,1.050e+01,1.220e+01,9.900e+00,1.173e+01,1.033e+01,1.310e+01,9.770e+00,1.222e+01,1.211e+01,1.292e+01,1.107e+01,1.136e+01,1.097e+01,1.196e+01,1.207e+01,1.214e+01,1.328e+01,1.060e+01,1.164e+01,1.014e+01,1.158e+01,1.095e+01,1.217e+01,1.142e+01,1.125e+01,1.291e+01,1.003e+01,1.066e+01,1.015e+01,1.245e+01,1.123e+01
1.588e-01,4.884e-01,2.717e-01,1.115e+00,1.207e+00,1.163e+00,1.034e+00,1.961e+00,2.191e+00,1.450e+00,2.688e+00,2.892e+00,2.547e+00,3.667e+00,3.399e+00,3.262e+00,3.260e+00,4.489e+00,4.081e+00,4.565e+00,4.071e+00,5.609e+00,5.450e+00,4.413e+00,4.640e+00,5.422e+00,5.125e+00,6.519e+00,5.600e+00,5.569e+00,7.145e+00,7.136e+00,6.183e+00,7.674e+00,5.792e+00,7.694e+00,6.858e+00,7.280e+00,9.726e+00,9.028e+00,8.030e+00,1.006e+01,8.812e+00,9.503e+00,1.046e+01,1.075e+01,1.119e+01,1.082e+01,1.117e+01,1.235e+01,1.071e+01,1.121e+01,1.060e+01,1.260e+01,1.054e+01,1.117e+01,1.235e+01,1.380e+01,1.016e+01,1.049e+01,1.192e+01,1.210e+01,1.291e+01,1.113e+01,1.269e+01,1.089e+01,1.171e+01,1.100e+01,1.110e+01,1.106e+01,1.166e+01,1.113e+01,1.125e+01,1.237e+01,9.855e+00,1.019e+01,1.058e+01,1.177e+01,1.112e+01
5.272e-01,4.156e-01,5.092e-01,1.386e+00,1.363e+00,1.796e+00,1.428e+00,1.474e+00,1.817e+00,1.799e+00,2.663e+00,2.813e+00,2.908e+00,3.021e+00,3.143e+00,3.765e+00,4.041e+00,5.362e+00,4.617e+00,5.405e+00,5.369e+00,5.883e+00,5.910e+00,5.002e+00,6.960e+00,6.774e+00,7.459e+00,7.697e+00,7.068e+00,5.810e+00,7.333e+00,7.687e+00,8.174e+00,8.290e+00,6.503e+00,8.457e+00,8.409e+00,9.332e+00,9.836e+00,9.761e+00,1.006e+01,1.009e+01,1.101e+01,1.069e+01,1.068e+01,1.157e+01,1.113e+01,1.194e+01,1.141e+01,1.186e+01,1.121e+01,1.159e+01,1.017e+01,1.341e+01,1.050e+01,1.165e+01,1.252e+01,1.310e+01,1.149e+01,1.204e+01,1.364e+01,1.179e+01,1.384e+01,1.213e+01,1.321e+01,1.200e+01,1.209e+01,1.172e+01,1.171e+01,1.320e+01,1.234e+01,1.211e+01,1.266e+01,1.334e+01,9.862e+00,1.051e+01,1.204e+01,1.267e+01,1.221e+01
1.523e-01,3.853e-01,2.127e-01,8.426e-01,1.655e+00,2.121e+00,1.125e+00,1.072e+00,2.275e+00,1.746e+00,2.599e+00,2.812e+00,2.866e+00,2.373e+00,3.068e+00,3.679e+00,4.084e+00,3.966e+00,3.594e+00,4.445e+00,3.859e+00,6.238e+00,4.530e+00,5.564e+00,5.852e+00,6.332e+00,6.796e+00,7.149e+00,6.857e+00,4.606e+00,7.194e+00,8.707e+00,6.926e+00,8.223e+00,6.423e+00,7.891e+00,8.022e+00,7.737e+00,9.442e+00,9.695e+00,8.799e+00,1.082e+01,1.074e+01,1.065e+01,1.023e+01,1.149e+01,1.152e+01,1.100e+01,1.188e+01,1.352e+01,1.246e+01,1.199e+01,1.283e+01,1.447e+01,1.224e+01,1.246e+01,1.397e+01,1.366e+01,1.395e+01,1.170e+01,1.481e+01,1.394e+01,1.350e+01,1.235e+01,1.422e+01,1.256e+01,1.167e+01,1.235e+01,1.328e+01,1.152e+01,1.372e+01,1.435e+01,1.192e+01,1.332e+01,1.142e+01,1.125e+01,1.236e+01,1.242e+01,1.237e+01
1.170e-01,1.677e-01,1.339e-01,4.376e-01,9.746e-01,1.202e+00,1.021e+00,1.333e+00,2.250e+00,1.276e+00,2.124e+00,2.519e+00,2.150e+00,3.676e+00,2.906e+00,2.864e+00,4.178e+00,5.201e+00,4.535e+00,4.729e+00,4.167e+00,6.316e+00,5.893e+00,5.394e+00,6.705e+00,6.306e+00,6.487e+00,7.292e+00,7.874e+00,5.871e+00,7.619e+00,8.490e+00,8.549e+00,8.833e+00,7.874e+00,9.049e+00,9.600e+00,8.746e+00,1.032e+01,1.088e+01,1.090e+01,1.052e+01,1.164e+01,1.133e+01,1.117e+01,1.297e+01,1.296e+01,1.198e+01,1.372e+01,1.213e+01,1.281e+01,1.244e+01,1.360e+01,1.733e+01,1.290e+01,1.459e+01,1.473e+01,1.556e+01,1.416e+01,1.436e+01,1.585e+01,1.274e+01,1.548e+01,1.369e+01,1.560e+01,1.397e+01,1.377e+01,1.316e+01,1.560e+01,1.402e+01,1.530e+01,1.339e+01,1.353e+01,1.605e+01,1.199e+01,1.163e+01,1.317e+01,1.486e+01,1.440e+01
3.856e-01,6.861e-01,4.957e-01,1.739e+00,1.806e+00,2.145e+00,1.298e+00,1.992e+00,3.096e+00,2.811e+00,3.280e+00,3.361e+00,4.168e+00,4.532e+00,4.874e+00,3.948e+00,4.494e+00,6.062e+00,5.583e+00,6.559e+00,5.025e+00,7.394e+00,6.909e+00,6.240e+00,8.103e+00,8.702e+00,8.801e+00,8.429e+00,8.426e+00,7.056e+00,1.038e+01,9.740e+00,9.187e+00,1.040e+01,8.695e+00,1.024e+01,9.524e+00,1.036e+01,1.068e+01,1.052e+01,1.103e+01,1.182e+01,1.115e+01,1.073e+01,1.118e+01,1.212e+01,1.319e+01,1.238e+01,1.233e+01,1.283e+01,1.185e+01,1.210e+01,1.411e+01,1.586e+01,1.338e+01,1.502e+01,1.454e+01,1.600e+01,1.513e+01,1.280e+01,1.467e+01,1.537e+01,1.520e+01,1.370e+01,1.479e+01,1.365e+01,1.394e+01,1.359e+01,1.411e+01,1.325e+01,1.495e+01,1.517e+01,1.439e+01,1.595e+01,1.417e+01,1.324e+01,1.393e+01,1.406e+01,1.399e+01
1.738e-01,4.189e-01,2.122e-01,7.487e-01,1.774e+00,2.049e+00,1.158e+00,1.464e+00,2.960e+00,1.858e+00,2.910e+00,2.682e+00,2.823e+00,3.847e+00,4.298e+00,3.765e+00,4.508e+00,5.476e+00,4.215e+00,4.936e+00,4.250e+00,6.324e+00,6.080e+00,4.831e+00,6.299e+00,6.879e+00,6.648e+00,7.545e+00,7.784e+00,6.303e+00,8.824e+00,9.307e+00,7.853e+00,8.941e+00,7.483e+00,8.754e+00,8.102e+00,9.153e+00,1.074e+01,1.164e+01,1.015e+01,1.190e+01,1.042e+01,1.073e+01,1.045e+01,1.296e+01,1.239e+01,1.221e+01,1.278e+01,1.331e+01,1.267e+01,1.300e+01,1.398e+01,1.676e+01,1.337e+01,1.445e+01,1.570e+01,1.591e+01,1.532e+01,1.425e+01,1.675e+01,1.545e+01,1.660e+01,1.340e+01,1.711e+01,1.557e+01,1.408e+01,1.388e+01,1.513e+01,1.534e+01,1.542e+01,1.569e+01,1.477e+01,1.547e+01,1.394e+01,1.276e+01,1.277e+01,1.413e+01,1.384e+01
7.192e-01,4.837e-01,6.036e-01,1.287e+00,1.324e+00,2.009e+00,1.655e+00,1.637e+00,2.865e+00,2.260e+00,2.352e+00,2.600e+00,3.042e+00,3.901e+00,3.793e+00,3.036e+00,3.727e+00,5.962e+00,4.392e+00,5.205e+00,4.055e+00,5.700e+00,5.856e+00,4.756e+00,7.787e+00,6.615e+00,6.984e+00,7.325e+00,7.905e+00,5.168e+00,8.036e+00,7.893e+00,8.185e+00,7.753e+00,6.769e+00,8.768e+00,9.102e+00,9.225e+00,9.582e+00,1.133e+01,1.191e+01,1.021e+01,1.083e+01,1.033e+01,1.084e+01,1.088e+01,1.249e+01,1.205e+01,1.193e+01,1.190e+01,1.204e+01,1.183e+01,1.224e+01,1.501e+01,1.160e+01,1.328e+01,1.454e+01,1.384e+01,1.414e+01,1.357e+01,1.436e+01,1.471e+01,1.536e+01,1.400e+01,1.532e+01,1.210e+01,1.560e+01,1.410e+01,1.457e+01,1.384e+01,1.392e+01,1.485e+01,1.266e+01,1.592e+01,1.227e+01,1.277e+01,1.251e+01,1.432e+01,1.471e+01
6.814e-01,6.266e-01,6.163e-01,1.489e+00,2.183e+00,2.333e+00,1.582e+00,1.721e+00,3.172e+00,2.463e+00,2.961e+00,2.341e+00,3.083e+00,3.665e+00,4.178e+00,3.343e+00,4.199e+00,5.427e+00,4.248e+00,5.001e+00,4.197e+00,5.933e+00,6.423e+00,5.371e+00,7.225e+00,7.282e+00,8.245e+00,7.426e+00,8.238e+00,7.137e+00,9.019e+00,9.082e+00,8.311e+00,8.976e+00,7.948e+00,9.444e+00,8.287e+00,1.010e+01,1.088e+01,1.150e+01,1.111e+01,1.122e+01,1.068e+01,1.189e+01,1.139e+01,1.266e+01,1.298e+01,1.391e+01,1.283e+01,1.278e+01,1.216e+01,1.255e+01,1.341e+01,1.498e+01,1.363e+01,1.383e+01,1.702e+01,1.651e+01,1.523e+01,1.505e+01,1.524e+01,1.609e+01,1.636e+01,1.575e+01,1.765e+01,1.471e+01,1.493e+01,1.419e+01,1.537e+01,1.439e+01,1.477e+01,1.539e+01,1.638e+01,1.626e+01,1.516e+01,1.399e+01,1.450e+01,1.437e+01,1.511e+01
7.368e-01,3.539e-01,5.830e-01,1.171e+00,1.109e+00,1.729e+00,1.539e+00,1.091e+00,1.943e+00,2.180e+00,2.290e+00,2.581e+00,3.097e+00,2.949e+00,3.456e+00,3.355e+00,3.695e+00,4.892e+00,4.596e+00,5.836e+00,5.310e+00,6.277e+00,5.718e+00,5.797e+00,7.874e+00,6.906e+00,7.660e+00,7.869e+00,7.496e+00,5.326e+00,6.920e+00,8.677e+00,8.226e+00,8.274e+00,7.073e+00,8.291e+00,8.104e+00,9.937e+00,1.026e+01,1.028e+01,1.070e+01,9.678e+00,1.245e+01,1.160e+01,1.160e+01,1.251e+01,1.318e+01,1.285e+01,1.338e+01,1.413e+01,1.176e+01,1.243e+01,1.213e+01,1.520e+01,1.392e+01,1.361e+01,1.539e+01,1.525e+01,1.469e+01,1.413e+01,1.513e+01,1.549e+01,1.458e+01,1.383e+01,1.548e+01,1.387e+01,1.438e+01,1.332e+01,1.486e+01,1.480e+01,1.529e+01,1.574e+01,1.390e+01,1.666e+01,1.247e+01,1.408e+01,1.327e+01,1.472e+01,1.545e+01
2.934e-01,3.331e-01,3.433e-01,1.124e+00,1.168e+00,1.718e+00,1.295e+00,1.878e+00,2.957e+00,2.240e+00,2.979e+00,3.007e+00,3.268e+00,4.278e+00,4.385e+00,4.007e+00,3.852e+00,5.882e+00,4.915e+00,5.666e+00,4.916e+00,6.531e+00,6.707e+00,5.834e+00,7.636e+00,8.349e+00,8.439e+00,8.072e+00,7.699e+00,6.697e+00,8.882e+00,8.145e+00,8.540e+00,8.874e+00,8.118e+00,9.078e+00,9.128e+00,1.139e+01,1.115e+01,1.057e+01,1.070e+01,1.070e+01,1.178e+01,1.265e+01,1.230e+01,1.184e+01,1.270e+01,1.273e+01,1.321e+01,1.289e+01,1.119e+01,1.376e+01,1.193e+01,1.478e+01,1.314e+01,1.414e+01,1.590e+01,1.564e+01,1.667e+01,1.573e+01,1.661e+01,1.571e+01,1.579e+01,1.565e+01,1.822e+01,1.589e+01,1.635e+01,1.390e+01,1.530e+01,1.535e+01,1.594e+01,1.627e+01,1.554e+01,1.656e+01,1.394e+01,1.454e+01,1.402e+01,1.591e+01,1.448e+01
6.670e-01,6.137e-01,6.616e-01,1.832e+00,1.944e+00,2.528e+00,1.816e+00,2.102e+00,3.588e+00,2.494e+00,3.163e+00,3.594e+00,3.566e+00,4.065e+00,4.307e+00,3.455e+00,4.004e+00,4.835e+00,4.043e+00,4.423e+00,4.322e+00,5.933e+00,5.802e+00,6.304e+00,7.478e+00,6.792e+00,8.548e+00,7.363e+00,7.795e+00,6.327e+00,7.954e+00,9.323e+00,8.663e+00,8.892e+00,7.525e+00,8.840e+00,9.013e+00,8.918e+00,1.145e+01,1.087e+01,9.987e+00,1.200e+01,1.102e+01,1.072e+01,1.174e+01,1.310e+01,1.274e+01,1.221e+01,1.284e+01,1.417e+01,1.215e+01,1.404e+01,1.400e+01,1.647e+01,1.424e+01,1.501e+01,1.635e+01,1.582e+01,1.684e+01,1.461e+01,1.867e+01,1.632e+01,1.745e+01,1.703e+01,1.913e+01,1.772e+01,1.617e+01,1.511e+01,1.629e+01,1.582e+01,1.563e+01,1.713e+01,1.539e+01,1.691e+01,1.571e+01,1.540e+01,1.504e+01,1.735e+01,1.560e+01
5.585e-01,6.416e-01,5.636e-01,1.628e+00,2.204e+00,2.919e+00,1.810e+00,1.804e+00,3.147e+00,2.661e+00,3.400e+00,3.473e+00,3.942e+00,3.403e+00,3.863e+00,3.854e+00,5.144e+00,5.005e+00,4.640e+00,5.369e+00,4.550e+00,6.160e+00,5.736e+00,5.112e+00,6.606e+00,5.568e+00,6.851e+00,6.604e+00,6.104e+00,5.092e+00,6.732e+00,7.653e+00,6.038e+00,7.831e+00,5.662e+00,7.570e+00,7.812e+00,6.700e+00,8.665e+00,8.096e+00,8.462e+00,9.655e+00,9.505e+00,9.420e+00,9.483e+00,1.071e+01,1.189e+01,1.035e+01,1.034e+01,1.235e+01,1.095e+01,1.076e+01,1.152e+01,1.480e+01,1.134e+01,1.302e+01,1.416e+01,1.401e+01,1.407e+01,1.462e+01,1.550e+01,1.571e+01,1.579e+01,1.513e+01,1.720e+01,1.434e+01,1.515e+01,1.413e+01,1.459e+01,1.326e+01,1.473e+01,1.465e+01,1.451e+01,1.603e+01,1.465e+01,1.517e+01,1.387e+01,1.618e+01,1.532e+01
6.553e-01,4.494e-01,5.871e-01,1.455e+00,1.613e+00,1.956e+00,1.327e+00,1.545e+00,3.076e+00,2.601e+00,2.897e+00,3.133e+00,3.757e+00,4.170e+00,4.867e+00,4.603e+00,5.557e+00,6.619e+00,5.752e+00,5.841e+00,5.705e+00,7.741e+00,6.616e+00,5.824e+00,7.032e+00,8.829e+00,8.418e+00,9.582e+00,9.002e+00,7.596e+00,1.047e+01,1.033e+01,9.319e+00,1.045e+01,9.367e+00,1.034e+01,1.055e+01,9.918e+00,1.246e+01,1.276e+01,1.196e+01,1.240e+01,1.184e+01,1.200e+01,1.196e+01,1.343e+01,1.386e+01,1.388e+01,1.477e+01,1.406e+01,1.315e+01,1.402e+01,1.440e+01,1.652e+01,1.377e+01,1.604e+01,1.576e+01,1.724e+01,1.643e+01,1.510e+01,1.771e+01,1.932e+01,1.956e+01,1.633e+01,2.005e+01,1.886e+01,1.752e+01,1.643e+01,1.681e+01,1.798e+01,1.868e+01,1.663e+01,1.705e+01,1.876e+01,1.672e+01,1.701e+01,1.445e+01,1.810e+01,1.733e+01
1.713e-01,3.735e-01,2.290e-01,8.833e-01,1.291e+00,1.915e+00,1.448e+00,1.596e+00,1.762e+00,1.882e+00,3.087e+00,2.133e+00,2.636e+00,3.493e+00,3.484e+00,4.425e+00,4.764e+00,5.780e+00,5.201e+00,6.140e+00,4.504e+00,6.688e+00,5.614e+00,5.000e+00,6.281e+00,6.357e+00,6.717e+00,7.029e+00,7.286e+00,5.153e+00,8.182e+00,7.118e+00,6.983e+00,7.617e+00,6.458e+00,7.273e+00,7.450e+00,8.663e+00,9.942e+00,1.037e+01,9.936e+00,9.643e+00,1.071e+01,1.092e+01,1.096e+01,1.248e+01,1.229e+01,1.320e+01,1.212e+01,1.205e+01,1.094e+01,1.128e+01,1.218e+01,1.431e+01,1.146e+01,1.306e+01,1.347e+01,1.507e+01,1.371e+01,1.410e+01,1.543e+01,1.604e+01,1.773e+01,1.619e+01,1.737e+01,1.645e+01,1.500e+01,1.407e+01,1.531e+01,1.532e+01,1.424e+01,1.407e+01,1.455e+01,1.694e+01,1.448e+01,1.384e+01,1.448e+01,1.497e+01,1.408e+01
4.072e-02,1.215e-01,1.583e-01,8.474e-01,1.264e+00,1.311e+00,9.744e-01,1.415e+00,1.936e+00,1.737e+00,2.696e+00,2.760e+00,2.773e+00,3.503e+00,2.729e+00,3.610e+00,4.860e+00,5.325e+00,5.568e+00,5.598e+00,5.131e+00,6.511e+00,5.883e+00,5.170e+00,7.213e+00,6.716e+00,8.281e+00,7.422e+00,8.139e+00,7.635e+00,8.612e+00,8.153e+00,8.416e+00,9.293e+00,7.834e+00,8.331e+00,8.293e+00,8.337e+00,9.123e+00,9.422e+00,9.307e+00,8.818e+00,9.370e+00,9.112e+00,8.544e+00,1.042e+01,1.058e+01,1.112e+01,1.026e+01,1.070e+01,9.151e+00,9.867e+00,1.186e+01,1.314e+01,1.032e+01,1.293e+01,1.270e+01,1.374e+01,1.392e+01,1.371e+01,1.520e+01,1.559e+01,1.595e+01,1.505e+01,1.724e+01,1.620e+01,1.575e+01,1.409e+01,1.410e+01,1.332e+01,1.399e+01,1.496e+01,1.491e+01,1.605e+01,1.668e+01,1.510e+01,1.371e+01,1.539e+01,1.600e+01
1.889e-01,3.554e-01,3.049e-01,1.248e+00,1.504e+00,2.088e+00,1.404e+00,2.132e+00,3.238e+00,2.514e+00,3.404e+00,3.164e+00,3.519e+00,3.852e+00,3.868e+00,3.593e+00,3.970e+00,4.501e+00,4.409e+00,4.568e+00,3.579e+00,5.176e+00,5.594e+00,4.317e+00,5.727e+00,5.557e+00,6.617e+00,6.119e+00,6.252e+00,6.009e+00,7.668e+00,7.468e+00,6.925e+00,8.220e+00,5.852e+00,7.735e+00,7.433e+00,7.539e+00,8.986e+00,9.038e+00,8.230e+00,9.953e+00,8.896e+00,8.030e+00,8.999e+00,9.985e+00,1.009e+01,1.007e+01,1.025e+01,1.090e+01,9.719e+00,1.177e+01,1.144e+01,1.445e+01,1.032e+01,1.314e+01,1.343e+01,1.399e+01,1.499e+01,1.351e+01,1.561e+01,1.463e+01,1.608e+01,1.462e+01,1.823e+01,1.643e+01,1.580e+01,1.510e+01,1.523e+01,1.466e+01,1.580e+01,1.573e+01,1.554e+01,1.611e+01,1.421e+01,1.635e+01,1.409e+01,1.543e+01,1.619e+01
3.624e-01,2.047e-01,3.525e-01,9.586e-01,1.163e+00,1.653e+00,1.572e+00,1.823e+00,2.398e+00,1.438e+00,2.868e+00,2.307e+00,2.024e+00,4.418e+00,3.659e+00,3.171e+00,3.618e+00,6.032e+00,4.517e+00,5.349e+00,4.675e+00,6.225e+00,6.730e+00,5.701e+00,7.637e+00,7.138e+00,7.653e+00,8.812e+00,8.191e+00,5.680e+00,7.483e+00,7.562e+00,7.918e+00,7.872e+00,6.975e+00,8.087e+00,8.296e+00,8.837e+00,1.080e+01,9.966e+00,1.023e+01,1.071e+01,1.130e+01,1.181e+01,1.312e+01,1.280e+01,1.286e+01,1.236e+01,1.317e+01,1.365e+01,1.120e+01,1.331e+01,1.405e+01,1.571e+01,1.475e+01,1.436e+01,1.809e+01,1.665e+01,1.647e+01,1.609e+01,1.839e+01,1.807e+01,1.875e+01,1.736e+01,2.080e+01,1.921e+01,1.769e+01,1.532e+01,1.819e+01,1.731e+01,1.850e+01,1.777e+01,1.727e+01,1.998e+01,1.829e+01,1.850e+01,1.771e+01,2.070e+01,1.827e+01
1.833e-01,3.946e-01,2.151e-01,6.976e-01,1.148e+00,1.680e+00,1.055e+00,1.457e+00,2.908e+00,2.078e+00,2.461e+00,2.643e+00,3.079e+00,3.595e+00,4.001e+00,3.768e+00,4.084e+00,5.890e+00,4.706e+00,5.310e+00,4.170e+00,6.749e+00,6.690e+00,5.073e+00,6.610e+00,6.142e+00,5.760e+00,8.278e+00,7.159e+00,5.178e+00,8.420e+00,9.512e+00,8.311e+00,8.471e+00,6.585e+00,8.133e+00,9.084e+00,7.083e+00,9.237e+00,9.877e+00,9.807e+00,9.715e+00,9.527e+00,9.836e+00,8.878e+00,1.107e+01,1.094e+01,1.087e+01,1.172e+01,1.184e+01,1.125e+01,1.111e+01,1.305e+01,1.334e+01,1.173e+01,1.204e+01,1.417e+01,1.460e+01,1.628e+01,1.381e+01,1.745e+01,1.595e+01,1.791e+01,1.483e+01,2.003e+01,1.921e+01,1.787e+01,1.550e+01,1.697e+01,1.556e+01,1.724e+01,1.741e+01,1.572e+01,1.787e+01,1.555e+01,1.804e+01,1.431e+01,1.723e+01,1.658e+01
4.956e-01,3.723e-01,4.435e-01,1.120e+00,1.730e+00,2.643e+00,1.838e+00,1.674e+00,3.024e+00,2.420e+00,3.423e+00,2.894e+00,3.357e+00,4.458e+00,4.782e+00,3.980e+00,4.593e+00,6.293e+00,4.841e+00,6.291e+00,5.134e+00,6.347e+00,6.535e+00,5.618e+00,8.306e+00,8.299e+00,8.610e+00,8.476e+00,8.374e+00,6.377e+00,8.583e+00,9.220e+00,9.214e+00,9.010e+00,7.701e+00,9.280e+00,9.469e+00,1.110e+01,1.142e+01,1.196e+01,1.176e+01,1.218e+01,1.234e+01,1.242e+01,1.279e+01,1.371e+01,1.365e+01,1.281e+01,1.391e+01,1.281e+01,1.257e+01,1.305e+01,1.391e+01,1.548e+01,1.282e+01,1.351e+01,1.616e+01,1.548e+01,1.533e+01,1.475e+01,1.578e+01,1.809e+01,1.778e+01,1.824e+01,1.935e+01,1.724e+01,1.831e+01,1.530e+01,1.693e+01,1.793e+01,1.786e+01,1.686e+01,1.629e+01,1.932e+01,1.664e+01,1.687e+01,1.460e+01,1.797e+01,1.832e+01
6.897e-01,4.377e-01,6.075e-01,1.465e+00,1.236e+00,2.274e+00,1.630e+00,1.607e+00,2.833e+00,2.233e+00,2.696e+00,2.497e+00,3.034e+00,3.326e+00,3.976e+00,4.027e+00,4.498e+00,6.228e+00,4.896e+00,5.676e+00,5.236e+00,7.787e+00,6.567e+00,6.349e+00,7.139e+00,8.193e+00,8.327e+00,9.140e+00,8.021e+00,6.618e+00,9.199e+00,1.003e+01,9.889e+00,9.581e+00,8.174e+00,9.625e+00,9.241e+00,9.924e+00,1.053e+01,1.124e+01,1.167e+01,1.162e+01,1.201e+01,1.106e+01,1.055e+01,1.159e+01,1.209e+01,1.284e+01,1.200e+01,1.245e+01,1.193e+01,1.274e+01,1.319e+01,1.460e+01,1.362e+01,1.370e+01,1.474e+01,1.402e+01,1.485e+01,1.293e+01,1.612e+01,1.608e+01,1.631e+01,1.490e+01,1.748e+01,1.657e+01,1.744e+01,1.524e+01,1.527e+01,1.697e+01,1.759e+01,1.785e+01,1.646e+01,1.883e+01,1.673e+01,1.617e+01,1.626e+01,1.796e+01,1.742e+01
5.376e-01,2.195e-01,4.368e-01,9.035e-01,7.960e-01,1.714e+00,1.512e+00,1.621e+00,2.969e+00,2.278e+00,2.454e+00,3.180e+00,3.402e+00,4.871e+00,4.401e+00,3.826e+00,4.758e+00,6.443e+00,5.313e+00,6.203e+00,5.710e+00,7.331e+00,6.666e+00,5.968e+00,7.930e+00,8.101e+00,7.155e+00,8.885e+00,7.860e+00,5.999e+00,8.528e+00,8.825e+00,8.914e+00,9.325e+00,8.417e+00,1.034e+01,9.485e+00,1.006e+01,1.102e+01,1.259e+01,1.158e+01,9.948e+00,1.169e+01,1.105e+01,1.209e+01,1.225e+01,1.331e+01,1.148e+01,1.314e+01,1.322e+01,1.229e+01,1.228e+01,1.268e+01,1.504e+01,1.359e+01,1.322e+01,1.479e+01,1.494e+01,1.508e+01,1.424e+01,1.684e+01,1.682e+01,1.739e+01,1.558e+01,1.832e+01,1.626e+01,1.795e+01,1.568e+01,1.569e+01,1.737e+01,1.864e+01,1.643e+01,1.640e+01,1.939e+01,1.664e+01,1.717e+01,1.477e+01,1.861e+01,1.742e+01
3.296e-01,3.387e-01,2.931e-01,6.964e-01,9.792e-01,1.116e+00,9.562e-01,1.322e+00,2.192e+00,1.340e+00,1.878e+00,2.191e+00,2.039e+00,3.034e+00,3.181e+00,3.121e+00,3.620e+00,4.822e+00,3.753e+00,4.287e+00,4.029e+00,6.321e+00,5.041e+00,5.292e+00,5.403e+00,6.710e+00,7.002e+00,7.296e+00,7.048e+00,5.813e+00,7.259e+00,7.060e+00,7.351e+00,7.675e+00,6.831e+00,7.543e+00,7.686e+00,9.101e+00,9.377e+00,9.264e+00,9.230e+00,8.936e+00,1.023e+01,9.842e+00,1.022e+01,1.010e+01,1.142e+01,1.107e+01,1.131e+01,1.096e+01,1.000e+01,1.079e+01,1.115e+01,1.301e+01,1.223e+01,1.241e+01,1.442e+01,1.401e+01,1.394e+01,1.460e+01,1.549e+01,1.395e+01,1.459e+01,1.521e+01,1.816e+01,1.618e+01,1.539e+01,1.414e+01,1.442e+01,1.535e+01,1.550e+01,1.700e+01,1.634e+01,1.678e+01,1.481e+01,1.513e+01,1.484e+01,1.617e+01,1.550e+01
7.218e-01,5.244e-01,6.288e-01,1.453e+00,2.052e+00,2.022e+00,1.696e+00,1.579e+00,2.721e+00,2.545e+00,3.012e+00,3.184e+00,3.585e+00,3.576e+00,3.723e+00,3.673e+00,4.515e+00,4.522e+00,4.759e+00,4.923e+00,3.918e+00,5.448e+00,5.343e+00,5.110e+00,6.473e+00,6.693e+00,7.547e+00,6.475e+00,7.290e+00,5.497e+00,7.893e+00,8.067e+00,8.990e+00,8.414e+00,7.139e+00,8.350e+00,7.292e+00,8.292e+00,8.977e+00,9.667e+00,9.401e+00,1.035e+01,9.533e+00,8.837e+00,9.667e+00,1.064e+01,1.099e+01,9.855e+00,1.031e+01,1.108e+01,1.052e+01,9.806e+00,1.141e+01,1.378e+01,1.071e+01,1.193e+01,1.366e+01,1.320e+01,1.397e+01,1.443e+01,1.459e+01,1.550e+01,1.393e+01,1.512e+01,1.675e+01,1.449e+01,1.597e+01,1.350e+01,1.439e+01,1.524e+01,1.592e+01,1.700e+01,1.552e+01,1.731e+01,1.490e+01,1.700e+01,1.476e+01,1.612e+01,1.631e+01
6.189e-02,5.671e-01,1.715e-01,8.082e-01,1.024e+00,9.255e-01,8.417e-01,1.455e+00,1.458e+00,1.318e+00,1.929e+00,2.136e+00,2.116e+00,3.164e+00,2.964e+00,2.931e+00,2.496e+00,4.124e+00,3.666e+00,4.605e+00,3.711e+00,5.288e+00,4.598e+00,4.952e+00,5.991e+00,6.291e+00,6.323e+00,5.905e+00,7.635e+00,5.135e+00,7.991e+00,7.219e+00,6.616e+00,7.418e+00,7.287e+00,7.847e+00,7.925e+00,8.805e+00,9.560e+00,9.108e+00,9.174e+00,8.950e+00,1.080e+01,9.425e+00,9.189e+00,1.124e+01,1.188e+01,1.146e+01,1.067e+01,1.267e+01,1.110e+01,1.234e+01,1.030e+01,1.403e+01,1.250e+01,1.269e+01,1.484e+01,1.500e+01,1.382e+01,1.274e+01,1.617e+01,1.457e+01,1.554e+01,1.533e+01,1.806e+01,1.517e+01,1.492e+01,1.360e+01,1.644e+01,1.449e+01,1.463e+01,1.567e+01,1.551e+01,1.720e+01,1.623e+01,1.611e+01,1.580e+01,1.701e+01,1.733e+01
5.059e-01,3.555e-01,4.181e-01,8.616e-01,1.120e+00,1.719e+00,1.563e+00,1.411e+00,2.283e+00,1.669e+00,2.107e+00,2.387e+00,2.398e+00,3.824e+00,3.142e+00,2.989e+00,3.981e+00,5.470e+00,4.333e+00,5.066e+00,4.076e+00,5.882e+00,5.625e+00,4.935e+00,6.910e+00,5.425e+00,5.934e+00,6.802e+00,7.568e+00,4.598e+00,6.734e+00,6.912e+00,6.925e+00,6.829e+00,6.078e+00,6.414e+00,6.842e+00,7.503e+00,8.369e+00,8.850e+00,8.661e+00,7.907e+00,8.612e+00,9.195e+00,9.874e+00,9.764e+00,1.044e+01,9.813e+00,1.058e+01,1.084e+01,9.440e+00,9.678e+00,1.099e+01,1.179e+01,1.100e+01,1.154e+01,1.414e+01,1.349e+01,1.302e+01,1.450e+01,1.621e+01,1.536e+01,1.571e+01,1.474e+01,1.814e+01,1.589e+01,1.559e+01,1.486e+01,1.569e+01,1.551e+01,1.495e+01,1.693e+01,1.386e+01,1.683e+01,1.640e+01,1.664e+01,1.524e+01,1.891e+01,1.724e+01
9.633e-03,1.257e-02,1.055e-01,6.166e-01,7.345e-01,1.462e+00,8.934e-01,1.145e+00,2.172e+00,2.093e+00,2.247e+00,2.196e+00,2.887e+00,3.295e+00,2.863e+00,3.575e+00,4.488e+00,4.658e+00,4.934e+00,5.061e+00,4.276e+00,5.518e+00,4.776e+00,5.353e+00,5.941e+00,7.568e+00,8.237e+00,6.901e+00,7.598e+00,6.697e+00,8.680e+00,7.006e+00,8.663e+00,8.755e+00,7.151e+00,8.910e+00,9.644e+00,8.460e+00,9.711e+00,1.053e+01,1.048e+01,1.107e+01,1.182e+01,1.029e+01,1.094e+01,1.251e+01,1.201e+01,1.305e+01,1.188e+01,1.183e+01,1.238e+01,1.200e+01,1.237e+01,1.606e+01,1.177e+01,1.527e+01,1.517e+01,1.562e+01,1.461e+01,1.621e+01,1.611e+01,1.503e+01,1.790e+01,1.706e+01,2.017e+01,1.889e+01,1.836e+01,1.538e+01,1.815e+01,1.661e+01,1.876e+01,1.666e+01,1.814e+01,1.912e+01,1.752e+01,1.785e+01,2.015e+01,2.093e+01,2.026e+01
5.712e-01,3.848e-01,5.570e-01,1.540e+00,1.097e+00,1.937e+00,1.700e+00,2.223e+00,3.298e+00,2.870e+00,3.162e+00,3.398e+00,3.925e+00,4.646e+00,4.378e+00,3.937e+00,4.600e+00,5.842e+00,5.714e+00,6.102e+00,5.027e+00,7.615e+00,6.936e+00,6.729e+00,8.653e+00,7.348e+00,7.567e+00,8.206e+00,8.207e+00,6.311e+00,8.750e+00,1.050e+01,9.393e+00,9.928e+00,7.827e+00,9.628e+00,8.555e+00,9.328e+00,1.063e+01,1.215e+01,1.117e+01,1.062e+01,1.148e+01,1.087e+01,1.138e+01,1.316e+01,1.307e+01,1.173e+01,1.315e+01,1.310e+01,1.174e+01,1.197e+01,1.230e+01,1.454e+01,1.258e+01,1.222e+01,1.405e+01,1.487e+01,1.514e+01,1.351e+01,1.613e+01,1.557e+01,1.672e+01,1.591e+01,1.707e+01,1.684e+01,1.772e+01,1.553e+01,1.574e+01,1.687e+01,1.824e+01,1.794e+01,1.647e+01,1.852e+01,1.613e+01,1.931e+01,1.678e+01,2.065e+01,1.909e+01
6.556e-01,6.398e-01,6.579e-01,1.860e+00,2.132e+00,2.346e+00,1.939e+00,2.137e+00,2.846e+00,2.275e+00,3.604e+00,3.670e+00,3.464e+00,3.646e+00,3.896e+00,4.366e+00,4.235e+00,5.238e+00,4.888e+00,5.505e+00,4.810e+00,6.450e+00,5.722e+00,4.804e+00,6.387e+00,5.773e+00,7.615e+00,7.216e+00,7.915e+00,6.138e+00,8.049e+00,8.023e+00,8.511e+00,8.729e+00,7.553e+00,9.736e+00,9.055e+00,9.955e+00,1.157e+01,1.125e+01,1.123e+01,1.123e+01,1.137e+01,1.064e+01,1.131e+01,1.233e+01,1.257e+01,1.309e+01,1.178e+01,1.306e+01,1.203e+01,1.213e+01,1.254e+01,1.601e+01,1.308e+01,1.481e+01,1.469e+01,1.492e+01,1.515e+01,1.369e+01,1.696e+01,1.610e+01,1.620e+01,1.583e+01,1.754e+01,1.646e+01,1.817e+01,1.541e+01,1.698e+01,1.696e+01,1.829e+01,1.847e+01,1.741e+01,2.159e+01,1.787e+01,1.783e+01,1.658e+01,2.102e+01,2.022e+01
6.312e-02,2.393e-01,1.124e-01,5.312e-01,1.144e+00,1.515e+00,1.196e+00,1.412e+00,1.962e+00,1.822e+00,2.730e+00,2.886e+00,2.897e+00,3.580e+00,3.352e+00,3.628e+00,4.250e+00,4.182e+00,4.336e+00,5.128e+00,4.413e+00,5.580e+00,4.889e+00,4.793e+00,6.106e+00,5.334e+00,5.717e+00,6.148e+00,6.649e+00,5.235e+00,6.908e+00,7.758e+00,6.278e+00,7.969e+00,6.547e+00,7.847e+00,7.293e+00,7.724e+00,9.171e+00,9.460e+00,8.137e+00,8.522e+00,9.314e+00,9.256e+00,9.808e+00,1.181e+01,1.211e+01,9.511e+00,1.105e+01,1.294e+01,1.042e+01,1.141e+01,1.131e+01,1.393e+01,1.201e+01,1.187e+01,1.443e+01,1.445e+01,1.340e+01,1.399e+01,1.672e+01,1.575e+01,1.748e+01,1.565e+01,1.800e+01,1.586e+01,1.592e+01,1.513e+01,1.462e+01,1.591e+01,1.545e+01,1.664e+01,1.574e+01,1.847e+01,1.688e+01,1.767e+01,1.492e+01,1.928e+01,1.892e+01
6.935e-01,4.859e-01,5.759e-01,1.262e+00,1.549e+00,1.768e+00,1.581e+00,1.369e+00,2.126e+00,2.022e+00,2.644e+00,3.241e+00,3.288e+00,3.857e+00,3.897e+00,3.728e+00,4.743e+00,5.773e+00,5.288e+00,5.905e+00,5.460e+00,6.537e+00,6.063e+00,4.875e+00,7.295e+00,7.588e+00,7.875e+00,8.441e+00,8.847e+00,6.711e+00,9.260e+00,8.842e+00,9.815e+00,9.324e+00,7.927e+00,9.052e+00,9.765e+00,1.033e+01,1.133e+01,1.222e+01,1.209e+01,1.217e+01,1.284e+01,1.207e+01,1.208e+01,1.437e+01,1.308e+01,1.251e+01,1.386e+01,1.415e+01,1.323e+01,1.331e+01,1.321e+01,1.626e+01,1.354e+01,1.411e+01,1.543e+01,1.548e+01,1.604e+01,1.602e+01,1.703e+01,1.740e+01,1.653e+01,1.700e+01,2.039e+01,1.728e+01,1.724e+01,1.636e+01,1.631e+01,1.757e+01,1.823e+01,1.842e+01,1.596e+01,2.122e+01,1.583e+01,1.795e+01,1.593e+01,2.140e+01,2.067e+01
