8.240e-01,1.208e-01,8.941e-01,2.348e-01,5.342e-01,6.564e-01,4.436e-01,5.865e-01,3.453e-01,9.456e-03,9.585e-01,2.973e-01,6.085e-02,6.211e-01,1.550e-01,9.212e-01,1.329e-01,7.447e-01,1.217e-01,1.788e-01,4.526e-02,5.599e-01,5.096e-01,1.284e-01,2.098e-01,8.973e-01,6.675e-01,7.958e-01,5.179e-01,6.597e-01,5.982e-01,7.038e-01,8.320e-01,6.938e-01,6.239e-01,3.905e-02,4.634e-01,7.739e-01,7.430e-01,7.575e-01,9.961e-01,4.176e-01,3.237e-01,7.803e-01,8.208e-02,4.522e-01,5.090e-01,6.220e-01,7.009e-01,3.059e-01,4.182e-01,4.889e-01,5.753e-01,8.702e-01,5.849e-02,3.518e-01,3.644e-02,4.852e-01,1.755e-02,7.974e-02,4.927e-01,2.005e-01,7.987e-01,6.228e-01,6.074e-01,1.054e-01,5.822e-01,8.967e-01,8.690e-01,8.942e-01,4.635e-01,8.322e-03,1.528e-01,7.396e-01,8.205e-01,9.893e-01,9.511e-02,4.684e-01,4.319e-01,8.513e-01,1.658e-01,6.613e-01,3.322e-01,1.906e-01,7.598e-01,2.647e-01
4.750e-01,4.345e-01,7.172e-01,1.610e-01,1.009e+00,1.378e+00,5.218e-01,1.069e+00,2.680e-01,9.289e-02,1.039e+00,5.228e-01,4.040e-02,1.067e+00,3.313e-01,7.188e-01,9.627e-01,8.793e-01,2.095e-01,3.839e-01,9.394e-01,3.550e-01,3.181e-01,5.159e-01,5.075e-01,1.333e+00,6.580e-01,1.033e+00,5.586e-01,4.328e-01,5.693e-01,1.080e+00,1.252e+00,7.409e-01,1.310e+00,2.220e-01,9.883e-01,1.035e+00,7.433e-01,5.982e-01,1.411e+00,7.311e-01,1.127e+00,8.019e-01,6.048e-01,1.126e+00,6.270e-01,1.304e+00,1.303e+00,1.132e+00,9.926e-01,6.975e-01,6.845e-01,1.143e+00,6.265e-01,7.333e-01,6.052e-01,3.690e-01,1.977e-01,3.560e-01,4.484e-01,9.665e-01,7.358e-01,9.944e-01,5.106e-01,2.386e-01,1.334e+00,1.068e+00,1.221e+00,7.165e-01,9.314e-01,5.436e-01,7.618e-01,1.031e+00,8.092e-01,1.527e+00,3.321e-01,4.587e-01,9.076e-01,1.278e+00,1.046e+00,1.179e+00,1.154e+00,1.009e+00,8.935e-01,2.341e-01
6.068e-01,3.746e-01,1.297e+00,9.049e-01,1.728e+00,1.341e+00,8.736e-01,1.784e+00,4.240e-01,8.440e-02,1.181e+00,1.103e+00,4.988e-01,1.869e+00,3.556e-01,1.693e+00,1.588e+00,1.883e+00,9.239e-01,1.344e+00,9.672e-01,1.285e+00,3.979e-01,6.100e-01,1.327e+00,1.546e+00,1.061e+00,1.787e+00,9.359e-01,1.022e+00,1.426e+00,1.618e+00,1.921e+00,1.182e+00,1.677e+00,6.058e-01,1.769e+00,1.288e+00,1.332e+00,1.429e+00,1.398e+00,1.673e+00,1.384e+00,8.813e-01,1.036e+00,1.218e+00,1.630e+00,2.011e+00,2.211e+00,1.034e+00,1.508e+00,1.417e+00,1.227e+00,1.924e+00,1.414e+00,6.827e-01,5.899e-01,1.156e+00,2.801e-01,1.089e+00,1.107e+00,1.455e+00,1.297e+00,1.518e+00,1.079e+00,2.314e-01,2.112e+00,1.839e+00,1.909e+00,1.159e+00,1.178e+00,1.017e+00,1.108e+00,1.633e+00,1.058e+00,1.760e+00,8.198e-01,7.335e-01,1.154e+00,2.186e+00,1.111e+00,2.102e+00,1.706e+00,8.846e-01,1.726e+00,2.820e-01
9.052e-02,2.170e-01,4.123e-01,4.820e-01,1.444e+00,1.247e+00,1.260e+00,1.551e+00,6.026e-01,3.870e-01,5.456e-01,8.017e-01,5.153e-01,1.537e+00,4.854e-01,1.549e+00,1.577e+00,1.521e+00,9.786e-01,1.250e+00,1.155e+00,8.917e-01,6.885e-01,1.152e+00,1.273e+00,9.086e-01,1.274e+00,1.429e+00,8.026e-01,8.261e-01,6.382e-01,1.527e+00,8.209e-01,8.164e-01,1.657e+00,7.473e-01,1.718e+00,1.442e+00,5.667e-01,7.365e-01,8.950e-01,1.274e+00,9.889e-01,5.709e-01,1.389e+00,6.831e-01,1.587e+00,1.330e+00,1.502e+00,1.171e+00,9.218e-01,1.269e+00,8.969e-01,1.078e+00,1.346e+00,7.769e-01,8.155e-01,7.796e-01,2.779e-01,5.740e-01,9.059e-01,1.109e+00,1.112e+00,7.851e-01,1.131e+00,8.676e-01,1.148e+00,1.028e+00,1.148e+00,8.361e-01,1.204e+00,1.378e+00,1.531e+00,7.860e-01,6.054e-01,1.693e+00,4.820e-01,9.840e-01,1.039e+00,1.572e+00,1.011e+00,1.849e+00,1.405e+00,1.536e+00,1.669e+00,4.300e-01
7.261e-01,2.667e-01,8.989e-01,2.886e-01,1.135e+00,1.437e+00,1.378e+00,1.712e+00,6.408e-01,1.120e+00,2.021e+00,6.696e-01,9.581e-01,1.597e+00,4.234e-01,1.680e+00,1.274e+00,1.476e+00,1.321e+00,1.279e+00,8.414e-01,1.513e+00,9.412e-01,1.485e+00,8.830e-01,2.031e+00,1.901e+00,1.344e+00,9.372e-01,9.397e-01,1.275e+00,1.373e+00,2.049e+00,1.638e+00,1.734e+00,1.178e+00,1.718e+00,2.182e+00,1.209e+00,1.715e+00,1.482e+00,1.681e+00,7.922e-01,1.693e+00,1.005e+00,1.252e+00,1.124e+00,1.267e+00,1.958e+00,8.896e-01,1.224e+00,1.168e+00,1.227e+00,1.392e+00,1.234e+00,8.106e-01,7.572e-01,8.716e-01,1.583e-01,1.026e+00,9.691e-01,9.518e-01,1.595e+00,1.445e+00,9.010e-01,8.433e-01,2.017e+00,1.405e+00,1.216e+00,1.656e+00,1.331e+00,1.021e+00,1.334e+00,1.852e+00,1.271e+00,2.277e+00,1.123e+00,1.099e+00,1.730e+00,1.339e+00,1.482e+00,1.546e+00,1.427e+00,1.659e+00,1.890e+00,1.324e+00
3.747e-01,3.962e-01,1.005e+00,8.041e-01,1.988e+00,1.987e+00,2.017e+00,2.594e+00,1.378e+00,1.423e+00,2.297e+00,2.023e+00,1.836e+00,2.777e+00,8.046e-01,2.253e+00,2.503e+00,3.064e+00,2.250e+00,2.668e+00,2.480e+00,2.221e+00,1.493e+00,1.949e+00,2.399e+00,2.852e+00,2.897e+00,2.503e+00,1.591e+00,1.204e+00,2.461e+00,2.514e+00,2.449e+00,2.131e+00,2.374e+00,2.120e+00,2.780e+00,3.191e+00,2.282e+00,2.412e+00,2.326e+00,2.800e+00,2.324e+00,2.187e+00,2.027e+00,2.253e+00,2.291e+00,3.099e+00,3.102e+00,2.046e+00,2.117e+00,2.698e+00,2.450e+00,2.418e+00,2.698e+00,1.936e+00,1.917e+00,2.242e+00,5.981e-01,2.123e+00,2.123e+00,2.105e+00,2.124e+00,2.609e+00,1.376e+00,1.585e+00,3.343e+00,2.751e+00,2.563e+00,2.147e+00,1.968e+00,2.658e+00,2.967e+00,2.803e+00,1.786e+00,2.992e+00,1.578e+00,1.360e+00,2.109e+00,2.906e+00,2.874e+00,2.860e+00,2.847e+00,2.665e+00,2.505e+00,1.512e+00
7.475e-01,3.236e-01,9.985e-01,4.054e-01,1.468e+00,1.892e+00,1.993e+00,2.381e+00,1.810e+00,2.079e+00,3.393e+00,1.576e+00,2.054e+00,3.014e+00,1.342e+00,2.606e+00,2.320e+00,2.813e+00,2.256e+00,2.397e+00,2.165e+00,2.441e+00,1.977e+00,1.904e+00,2.078e+00,3.446e+00,3.662e+00,2.569e+00,2.044e+00,1.817e+00,2.025e+00,2.237e+00,3.032e+00,2.304e+00,2.198e+00,2.466e+00,3.002e+00,3.618e+00,2.997e+00,2.256e+00,2.605e+00,2.832e+00,2.068e+00,2.401e+00,2.489e+00,2.633e+00,2.028e+00,2.686e+00,3.392e+00,2.040e+00,2.139e+00,2.232e+00,3.059e+00,2.707e+00,2.564e+00,2.725e+00,1.866e+00,2.299e+00,1.057e+00,2.262e+00,1.856e+00,1.438e+00,2.072e+00,2.351e+00,1.918e+00,2.214e+00,2.940e+00,3.265e+00,3.060e+00,2.801e+00,1.791e+00,2.073e+00,2.756e+00,3.040e+00,2.507e+00,3.784e+00,2.022e+00,1.569e+00,2.607e+00,2.406e+00,2.938e+00,2.810e+00,2.967e+00,3.077e+00,2.977e+00,2.279e+00
8.123e-01,3.098e-01,1.450e+00,1.018e+00,2.177e+00,1.990e+00,2.315e+00,3.009e+00,1.673e+00,1.780e+00,3.522e+00,2.957e+00,2.968e+00,3.357e+00,1.614e+00,3.524e+00,2.751e+00,3.481e+00,3.161e+00,3.642e+00,3.100e+00,2.999e+00,2.242e+00,2.675e+00,3.382e+00,3.989e+00,3.792e+00,3.117e+00,2.164e+00,2.739e+00,3.277e+00,3.166e+00,3.926e+00,2.617e+00,2.757e+00,2.526e+00,3.353e+00,3.600e+00,2.966e+00,3.447e+00,2.650e+00,4.206e+00,3.052e+00,2.464e+00,3.262e+00,2.347e+00,3.357e+00,3.478e+00,4.380e+00,2.326e+00,3.129e+00,3.515e+00,3.751e+00,2.914e+00,2.970e+00,2.976e+00,2.619e+00,3.383e+00,8.937e-01,2.521e+00,2.357e+00,2.559e+00,2.672e+00,3.179e+00,2.791e+00,2.705e+00,3.590e+00,3.319e+00,3.067e+00,3.077e+00,2.746e+00,2.720e+00,3.732e+00,3.729e+00,3.168e+00,4.156e+00,2.026e+00,2.010e+00,2.827e+00,4.006e+00,2.767e+00,3.889e+00,3.828e+00,2.778e+00,4.210e+00,1.941e+00
6.929e-01,1.698e-01,1.092e+00,6.897e-01,1.355e+00,1.150e+00,1.391e+00,1.972e+00,1.922e+00,2.132e+00,2.656e+00,2.386e+00,2.880e+00,3.050e+00,2.004e+00,3.370e+00,2.312e+00,2.765e+00,2.906e+00,2.996e+00,2.551e+00,2.950e+00,2.347e+00,1.862e+00,2.165e+00,2.776e+00,2.874e+00,2.909e+00,1.992e+00,3.017e+00,2.140e+00,2.617e+00,3.641e+00,2.111e+00,2.535e+00,1.854e+00,2.465e+00,2.712e+00,2.991e+00,2.778e+00,2.147e+00,3.329e+00,1.864e+00,1.785e+00,2.637e+00,2.167e+00,2.452e+00,2.127e+00,3.940e+00,2.129e+00,2.829e+00,2.532e+00,3.426e+00,2.081e+00,1.905e+00,2.861e+00,2.054e+00,2.759e+00,1.031e+00,2.408e+00,1.736e+00,2.033e+00,2.357e+00,2.089e+00,2.703e+00,1.787e+00,2.436e+00,2.459e+00,2.090e+00,2.618e+00,2.535e+00,1.431e+00,2.718e+00,2.600e+00,2.971e+00,3.436e+00,2.034e+00,1.640e+00,2.920e+00,3.184e+00,2.392e+00,2.691e+00,3.428e+00,1.767e+00,4.007e+00,2.258e+00
1.830e-01,1.084e-01,3.593e-01,2.533e-01,5.919e-01,5.788e-01,5.814e-01,8.166e-01,1.301e+00,2.164e+00,1.948e+00,2.904e+00,2.103e+00,1.945e+00,1.913e+00,1.795e+00,1.497e+00,2.481e+00,2.413e+00,2.696e+00,2.779e+00,1.703e+00,2.454e+00,1.189e+00,2.060e+00,2.287e+00,2.189e+00,2.010e+00,2.097e+00,2.455e+00,1.554e+00,1.910e+00,2.234e+00,1.174e+00,2.100e+00,1.050e+00,1.633e+00,2.153e+00,2.623e+00,2.462e+00,2.008e+00,2.800e+00,2.531e+00,9.533e-01,2.368e+00,1.782e+00,1.936e+00,2.149e+00,3.255e+00,2.327e+00,1.967e+00,2.484e+00,2.382e+00,1.625e+00,1.145e+00,2.633e+00,2.510e+00,2.213e+00,1.121e+00,2.233e+00,1.736e+00,2.241e+00,1.408e+00,1.422e+00,1.953e+00,1.377e+00,1.479e+00,1.534e+00,1.970e+00,1.859e+00,2.672e+00,1.584e+00,2.866e+00,2.246e+00,2.510e+00,2.037e+00,1.601e+00,1.209e+00,2.232e+00,2.895e+00,2.081e+00,1.694e+00,2.665e+00,1.621e+00,2.734e+00,1.576e+00
2.558e-01,2.549e-01,4.065e-01,1.315e-01,7.385e-01,1.111e+00,8.832e-01,1.142e+00,1.305e+00,1.359e+00,2.988e+00,2.102e+00,1.896e+00,2.660e+00,2.150e+00,1.646e+00,2.184e+00,2.380e+00,2.139e+00,2.540e+00,2.937e+00,1.403e+00,2.247e+00,1.807e+00,2.226e+00,3.220e+00,3.241e+00,1.796e+00,2.496e+00,2.417e+00,1.776e+00,2.093e+00,2.272e+00,1.292e+00,2.197e+00,1.706e+00,1.678e+00,2.470e+00,2.724e+00,2.185e+00,2.681e+00,3.066e+00,2.506e+00,1.975e+00,2.571e+00,2.938e+00,1.878e+00,2.427e+00,2.665e+00,2.783e+00,1.895e+00,2.061e+00,2.841e+00,1.875e+00,1.956e+00,3.583e+00,2.898e+00,2.579e+00,1.640e+00,1.800e+00,1.502e+00,2.334e+00,1.079e+00,2.408e+00,1.625e+00,2.625e+00,1.786e+00,2.331e+00,2.488e+00,1.956e+00,1.712e+00,2.415e+00,3.379e+00,2.179e+00,2.875e+00,2.487e+00,1.582e+00,1.851e+00,1.729e+00,2.382e+00,2.746e+00,2.145e+00,2.717e+00,2.548e+00,2.352e+00,2.170e+00
3.871e-01,3.443e-01,6.046e-01,3.093e-01,1.538e+00,1.897e+00,1.811e+00,2.095e+00,2.182e+00,2.458e+00,2.919e+00,3.515e+00,3.021e+00,4.019e+00,2.540e+00,3.928e+00,3.752e+00,4.103e+00,3.826e+00,3.761e+00,4.216e+00,2.999e+00,3.223e+00,3.216e+00,3.475e+00,4.100e+00,3.947e+00,3.610e+00,2.778e+00,3.170e+00,2.912e+00,3.572e+00,3.510e+00,2.328e+00,3.855e+00,2.992e+00,3.624e+00,4.089e+00,3.425e+00,2.777e+00,3.801e+00,3.938e+00,4.146e+00,2.822e+00,4.271e+00,3.514e+00,3.386e+00,3.564e+00,4.348e+00,3.823e+00,3.314e+00,3.275e+00,3.858e+00,3.281e+00,2.589e+00,4.448e+00,4.097e+00,3.246e+00,1.559e+00,2.657e+00,2.535e+00,3.691e+00,3.223e+00,2.507e+00,3.434e+00,3.058e+00,3.271e+00,3.330e+00,3.010e+00,3.478e+00,4.063e+00,3.217e+00,4.585e+00,2.894e+00,3.801e+00,4.414e+00,2.278e+00,2.621e+00,3.844e+00,4.397e+00,3.334e+00,3.387e+00,4.451e+00,4.186e+00,4.589e+00,3.153e+00
6.663e-02,3.642e-01,2.764e-01,9.586e-02,9.659e-01,1.386e+00,9.794e-01,1.354e+00,1.553e+00,2.587e+00,2.880e+00,2.804e+00,2.206e+00,3.941e+00,3.070e+00,2.963e+00,3.427e+00,3.962e+00,3.990e+00,3.539e+00,3.671e+00,2.837e+00,3.344e+00,3.060e+00,3.371e+00,4.177e+00,4.266e+00,2.803e+00,3.543e+00,2.737e+00,2.370e+00,3.407e+00,2.832e+00,2.584e+00,3.984e+00,2.534e+00,3.017e+00,3.864e+00,4.307e+00,3.674e+00,3.702e+00,4.591e+00,4.190e+00,2.933e+00,3.593e+00,4.029e+00,2.928e+00,3.440e+00,4.509e+00,3.999e+00,2.339e+00,3.124e+00,3.504e+00,3.699e+00,2.448e+00,4.023e+00,4.132e+00,3.092e+00,2.342e+00,3.804e+00,2.865e+00,4.048e+00,2.660e+00,3.238e+00,2.195e+00,3.063e+00,2.977e+00,3.033e+00,3.432e+00,2.849e+00,3.598e+00,3.883e+00,4.564e+00,2.661e+00,4.109e+00,3.655e+00,3.024e+00,2.402e+00,3.286e+00,3.487e+00,4.483e+00,3.079e+00,4.011e+00,4.167e+00,3.668e+00,3.616e+00
1.982e-01,5.669e-02,5.112e-01,4.857e-01,7.824e-01,5.855e-01,1.040e+00,1.502e+00,1.252e+00,2.305e+00,3.534e+00,2.662e+00,2.770e+00,4.080e+00,2.721e+00,3.619e+00,3.407e+00,4.280e+00,4.806e+00,4.775e+00,3.115e+00,3.893e+00,3.281e+00,3.206e+00,3.815e+00,4.531e+00,4.448e+00,2.935e+00,3.307e+00,4.133e+00,3.738e+00,3.164e+00,4.193e+00,2.762e+00,3.250e+00,3.743e+00,3.055e+00,3.170e+00,4.474e+00,4.093e+00,3.499e+00,4.658e+00,3.370e+00,2.520e+00,3.914e+00,3.690e+00,2.954e+00,3.584e+00,4.015e+00,2.737e+00,2.763e+00,2.672e+00,4.232e+00,3.555e+00,3.622e+00,4.042e+00,4.012e+00,4.024e+00,2.518e+00,4.007e+00,2.269e+00,3.382e+00,2.724e+00,3.512e+00,2.498e+00,3.956e+00,3.439e+00,3.778e+00,3.450e+00,3.465e+00,3.120e+00,3.022e+00,4.724e+00,3.627e+00,4.431e+00,3.808e+00,3.449e+00,3.387e+00,3.645e+00,2.949e+00,3.474e+00,3.240e+00,3.947e+00,3.415e+00,4.295e+00,3.427e+00
4.826e-01,9.233e-02,6.967e-01,4.675e-01,1.171e+00,1.204e+00,1.781e+00,1.886e+00,1.464e+00,2.164e+00,3.141e+00,2.165e+00,2.447e+00,4.214e+00,3.425e+00,4.590e+00,3.761e+00,5.168e+00,5.657e+00,4.468e+00,3.469e+00,4.532e+00,3.952e+00,4.213e+00,4.787e+00,4.660e+00,5.796e+00,3.575e+00,4.034e+00,4.343e+00,4.222e+00,4.406e+00,3.930e+00,3.860e+00,4.273e+00,3.907e+00,4.004e+00,4.322e+00,5.109e+00,5.480e+00,3.937e+00,5.345e+00,3.272e+00,4.423e+00,3.571e+00,4.362e+00,3.788e+00,4.059e+00,4.127e+00,3.047e+00,2.458e+00,3.140e+00,4.817e+00,4.466e+00,3.591e+00,4.046e+00,4.266e+00,4.213e+00,2.939e+00,4.451e+00,3.147e+00,4.226e+00,4.641e+00,4.550e+00,2.922e+00,4.784e+00,3.631e+00,3.892e+00,3.858e+00,3.839e+00,3.533e+00,3.858e+00,5.739e+00,4.048e+00,5.432e+00,4.807e+00,3.695e+00,4.477e+00,4.374e+00,3.938e+00,4.222e+00,3.684e+00,4.451e+00,4.892e+00,4.975e+00,4.304e+00
4.306e-02,1.392e-01,5.481e-01,6.792e-01,1.206e+00,9.778e-01,1.494e+00,2.005e+00,1.693e+00,2.714e+00,3.614e+00,2.895e+00,3.008e+00,3.971e+00,2.958e+00,3.907e+00,3.995e+00,5.045e+00,5.541e+00,5.148e+00,4.333e+00,4.351e+00,3.398e+00,3.470e+00,4.995e+00,4.844e+00,6.014e+00,3.178e+00,4.271e+00,4.220e+00,3.769e+00,3.382e+00,4.185e+00,3.192e+00,3.297e+00,3.710e+00,4.514e+00,4.453e+00,5.396e+00,5.121e+00,3.637e+00,5.807e+00,3.691e+00,3.148e+00,4.097e+00,4.148e+00,3.685e+00,4.297e+00,4.592e+00,3.506e+00,3.194e+00,3.684e+00,4.760e+00,3.800e+00,4.473e+00,4.375e+00,3.992e+00,4.833e+00,3.115e+00,4.920e+00,3.689e+00,4.404e+00,3.174e+00,4.071e+00,2.534e+00,3.838e+00,4.352e+00,3.845e+00,4.530e+00,3.751e+00,2.755e+00,4.092e+00,5.391e+00,4.747e+00,4.164e+00,3.664e+00,3.720e+00,2.962e+00,3.738e+00,4.555e+00,4.701e+00,3.483e+00,4.630e+00,4.962e+00,4.891e+00,4.454e+00
1.827e-01,1.251e-01,3.703e-01,3.116e-01,9.055e-01,8.368e-01,9.804e-01,1.261e+00,1.242e+00,1.888e+00,2.293e+00,2.182e+00,2.137e+00,3.361e+00,2.837e+00,4.071e+00,4.059e+00,4.134e+00,4.874e+00,4.001e+00,3.605e+00,4.191e+00,3.900e+00,4.187e+00,4.882e+00,4.243e+00,4.902e+00,2.747e+00,3.623e+00,4.665e+00,2.656e+00,3.392e+00,4.148e+00,3.027e+00,3.977e+00,3.270e+00,4.224e+00,4.134e+00,4.351e+00,4.739e+00,3.713e+00,5.333e+00,3.537e+00,2.889e+00,3.745e+00,3.906e+00,4.306e+00,3.989e+00,4.389e+00,3.454e+00,2.691e+00,3.626e+00,4.042e+00,3.965e+00,3.141e+00,4.273e+00,4.447e+00,4.776e+00,2.771e+00,3.882e+00,3.239e+00,4.741e+00,3.271e+00,3.434e+00,3.375e+00,4.039e+00,3.401e+00,3.360e+00,3.963e+00,4.112e+00,3.171e+00,4.069e+00,4.317e+00,3.206e+00,3.939e+00,3.554e+00,3.464e+00,2.921e+00,3.987e+00,4.682e+00,4.078e+00,3.346e+00,4.627e+00,4.183e+00,5.660e+00,4.158e+00
1.592e-01,2.093e-01,4.673e-01,4.316e-01,1.329e+00,1.454e+00,1.854e+00,2.120e+00,1.728e+00,3.061e+00,3.146e+00,2.928e+00,2.657e+00,3.776e+00,2.578e+00,4.046e+00,4.138e+00,6.198e+00,6.120e+00,5.328e+00,5.296e+00,5.510e+00,4.956e+00,5.032e+00,5.976e+00,5.052e+00,5.801e+00,3.811e+00,4.663e+00,5.320e+00,4.648e+00,4.178e+00,5.330e+00,3.733e+00,4.906e+00,5.125e+00,5.677e+00,5.989e+00,5.735e+00,6.000e+00,4.803e+00,5.310e+00,4.058e+00,3.755e+00,3.934e+00,4.864e+00,4.257e+00,5.855e+00,5.637e+00,4.510e+00,3.095e+00,4.712e+00,4.639e+00,4.643e+00,4.453e+00,4.949e+00,4.967e+00,5.033e+00,3.488e+00,5.432e+00,4.558e+00,4.786e+00,4.435e+00,4.701e+00,3.153e+00,4.979e+00,4.860e+00,4.778e+00,5.216e+00,5.424e+00,4.297e+00,4.824e+00,6.431e+00,5.436e+00,4.311e+00,4.618e+00,4.843e+00,4.490e+00,5.657e+00,5.250e+00,5.661e+00,4.342e+00,5.718e+00,6.011e+00,5.651e+00,4.298e+00
1.326e-01,3.623e-01,8.090e-01,8.787e-01,2.120e+00,1.904e+00,2.057e+00,2.738e+00,1.600e+00,2.229e+00,3.332e+00,3.345e+00,2.846e+00,4.242e+00,3.184e+00,4.250e+00,4.383e+00,5.889e+00,6.347e+00,5.706e+00,6.487e+00,5.617e+00,4.294e+00,5.338e+00,6.881e+00,5.829e+00,6.330e+00,4.005e+00,5.631e+00,5.282e+00,4.768e+00,4.775e+00,5.613e+00,4.460e+00,5.438e+00,4.706e+00,6.272e+00,6.579e+00,5.866e+00,6.401e+00,4.461e+00,7.312e+00,5.247e+00,4.827e+00,4.820e+00,5.429e+00,5.498e+00,6.201e+00,7.173e+00,4.920e+00,3.968e+00,5.400e+00,5.646e+00,5.151e+00,5.116e+00,5.247e+00,5.371e+00,5.575e+00,4.363e+00,5.439e+00,4.972e+00,5.984e+00,4.359e+00,6.267e+00,4.410e+00,5.379e+00,5.333e+00,4.793e+00,5.685e+00,4.984e+00,4.614e+00,6.112e+00,7.322e+00,5.702e+00,4.913e+00,5.041e+00,4.401e+00,5.039e+00,5.230e+00,6.988e+00,6.361e+00,6.043e+00,6.478e+00,6.508e+00,6.234e+00,4.490e+00
5.653e-01,3.449e-01,9.938e-01,6.016e-01,1.657e+00,1.636e+00,1.484e+00,2.228e+00,1.215e+00,1.837e+00,3.620e+00,2.717e+00,2.531e+00,4.042e+00,3.695e+00,4.276e+00,3.895e+00,5.116e+00,5.680e+00,4.944e+00,5.745e+00,5.361e+00,4.823e+00,5.955e+00,6.847e+00,6.280e+00,5.680e+00,4.646e+00,5.946e+00,6.260e+00,5.247e+00,4.845e+00,6.517e+00,4.791e+00,6.181e+00,4.826e+00,6.341e+00,5.743e+00,6.367e+00,6.897e+00,4.432e+00,7.146e+00,5.414e+00,4.657e+00,5.014e+00,5.701e+00,5.511e+00,6.172e+00,6.799e+00,5.150e+00,4.429e+00,5.113e+00,5.841e+00,6.008e+00,4.044e+00,6.204e+00,5.146e+00,5.550e+00,4.704e+00,4.904e+00,4.429e+00,5.533e+00,4.759e+00,6.039e+00,4.966e+00,5.862e+00,4.644e+00,4.824e+00,5.533e+00,5.104e+00,4.981e+00,5.553e+00,7.552e+00,5.120e+00,5.987e+00,5.844e+00,5.054e+00,5.410e+00,5.630e+00,6.253e+00,6.230e+00,5.732e+00,7.077e+00,5.869e+00,6.896e+00,4.780e+00
6.532e-01,1.177e-01,1.189e+00,9.548e-01,1.634e+00,1.238e+00,1.769e+00,2.177e+00,2.375e+00,2.339e+00,2.884e+00,3.070e+00,3.149e+00,4.735e+00,3.388e+00,5.368e+00,4.343e+00,6.203e+00,6.237e+00,5.626e+00,5.778e+00,7.070e+00,5.436e+00,5.861e+00,6.989e+00,6.077e+00,5.857e+00,6.102e+00,5.626e+00,6.495e+00,6.107e+00,5.419e+00,6.918e+00,5.219e+00,5.560e+00,5.944e+00,5.850e+00,6.106e+00,7.700e+00,6.748e+00,5.093e+00,6.447e+00,4.713e+00,4.952e+00,4.873e+00,6.454e+00,6.186e+00,6.763e+00,6.323e+00,4.338e+00,5.042e+00,5.426e+00,6.945e+00,6.319e+00,4.688e+00,5.791e+00,5.618e+00,7.388e+00,4.599e+00,6.169e+00,4.666e+00,5.458e+00,5.691e+00,5.863e+00,5.668e+00,5.321e+00,5.152e+00,5.614e+00,6.183e+00,5.825e+00,4.908e+00,5.689e+00,6.730e+00,5.096e+00,5.888e+00,6.325e+00,5.469e+00,5.381e+00,5.819e+00,6.288e+00,6.243e+00,5.839e+00,7.026e+00,4.781e+00,7.514e+00,5.781e+00
1.109e-01,1.397e-01,2.386e-01,2.149e-01,9.496e-01,1.054e+00,1.374e+00,1.673e+00,1.416e+00,2.294e+00,2.579e+00,2.241e+00,2.622e+00,3.538e+00,3.288e+00,4.441e+00,3.859e+00,5.173e+00,6.180e+00,4.869e+00,6.099e+00,7.291e+00,4.998e+00,7.046e+00,8.173e+00,6.448e+00,6.040e+00,6.114e+00,6.106e+00,7.231e+00,5.778e+00,5.119e+00,7.063e+00,5.038e+00,6.262e+00,6.781e+00,7.379e+00,6.838e+00,7.175e+00,7.116e+00,4.915e+00,6.035e+00,4.994e+00,4.618e+00,5.541e+00,6.091e+00,5.958e+00,6.326e+00,6.497e+00,5.044e+00,5.292e+00,5.597e+00,6.312e+00,6.145e+00,4.421e+00,6.392e+00,6.019e+00,6.949e+00,5.402e+00,6.870e+00,4.886e+00,5.356e+00,5.956e+00,6.125e+00,6.359e+00,6.640e+00,5.076e+00,5.678e+00,6.120e+00,5.839e+00,5.924e+00,6.297e+00,7.896e+00,6.134e+00,6.510e+00,7.207e+00,5.894e+00,6.166e+00,7.118e+00,6.117e+00,6.067e+00,6.558e+00,7.257e+00,6.317e+00,7.980e+00,5.840e+00
6.589e-01,1.434e-01,1.147e+00,8.555e-01,1.531e+00,1.161e+00,1.533e+00,2.087e+00,1.957e+00,2.488e+00,3.378e+00,3.116e+00,2.895e+00,4.608e+00,3.464e+00,5.439e+00,4.989e+00,6.397e+00,6.882e+00,5.827e+00,6.116e+00,7.383e+00,5.546e+00,6.530e+00,8.604e+00,6.875e+00,7.547e+00,5.874e+00,7.973e+00,7.888e+00,6.085e+00,5.627e+00,7.435e+00,5.356e+00,7.051e+00,6.253e+00,8.596e+00,7.655e+00,7.438e+00,7.760e+00,6.052e+00,8.247e+00,5.646e+00,5.753e+00,5.813e+00,6.895e+00,6.376e+00,7.062e+00,7.498e+00,6.249e+00,5.713e+00,6.189e+00,7.268e+00,6.937e+00,5.837e+00,7.740e+00,5.759e+00,7.883e+00,5.606e+00,6.852e+00,6.308e+00,7.041e+00,6.173e+00,6.271e+00,7.127e+00,5.928e+00,6.790e+00,6.443e+00,7.423e+00,6.654e+00,6.428e+00,6.815e+00,8.408e+00,6.836e+00,6.214e+00,5.806e+00,5.409e+00,6.381e+00,6.863e+00,8.640e+00,6.200e+00,6.173e+00,7.221e+00,7.566e+00,8.969e+00,6.857e+00
3.351e-01,2.260e-01,8.000e-01,6.916e-01,1.548e+00,1.418e+00,1.711e+00,2.241e+00,1.746e+00,2.685e+00,3.453e+00,3.338e+00,2.760e+00,4.243e+00,2.769e+00,4.677e+00,4.808e+00,6.327e+00,6.281e+00,5.484e+00,6.133e+00,6.821e+00,5.406e+00,7.085e+00,9.162e+00,7.549e+00,7.839e+00,6.048e+00,7.816e+00,7.802e+00,6.894e+00,6.075e+00,7.118e+00,5.580e+00,6.906e+00,7.568e+00,9.656e+00,8.655e+00,8.106e+00,7.707e+00,6.364e+00,8.112e+00,7.164e+00,5.246e+00,6.931e+00,6.582e+00,7.015e+00,8.020e+00,8.007e+00,6.764e+00,6.043e+00,7.255e+00,7.372e+00,8.087e+00,6.170e+00,8.474e+00,6.101e+00,7.782e+00,5.819e+00,7.907e+00,6.975e+00,7.417e+00,5.956e+00,6.507e+00,7.136e+00,7.021e+00,7.019e+00,7.320e+00,8.137e+00,6.965e+00,6.651e+00,7.842e+00,8.291e+00,7.014e+00,5.854e+00,6.544e+00,6.245e+00,6.332e+00,7.048e+00,8.809e+00,7.302e+00,7.453e+00,7.736e+00,8.145e+00,8.676e+00,6.688e+00
5.855e-01,3.872e-01,1.099e+00,7.712e-01,2.166e+00,2.159e+00,2.195e+00,2.811e+00,2.453e+00,3.239e+00,4.131e+00,4.129e+00,3.450e+00,5.721e+00,4.022e+00,5.531e+00,5.265e+00,6.528e+00,6.239e+00,5.775e+00,5.961e+00,5.754e+00,5.294e+00,5.635e+00,7.397e+00,6.924e+00,7.079e+00,6.196e+00,6.922e+00,6.483e+00,5.846e+00,6.274e+00,6.016e+00,5.160e+00,6.611e+00,5.884e+00,7.083e+00,7.683e+00,7.374e+00,6.718e+00,5.874e+00,7.364e+00,6.327e+00,5.436e+00,6.860e+00,6.390e+00,6.871e+00,6.747e+00,8.227e+00,6.295e+00,4.935e+00,5.861e+00,6.936e+00,6.536e+00,5.029e+00,6.590e+00,6.482e+00,6.597e+00,4.681e+00,6.548e+00,5.077e+00,6.645e+00,6.034e+00,6.106e+00,5.819e+00,5.570e+00,5.306e+00,6.058e+00,6.543e+00,6.365e+00,6.648e+00,6.512e+00,7.415e+00,5.564e+00,6.862e+00,6.864e+00,5.483e+00,5.404e+00,6.769e+00,6.901e+00,7.143e+00,6.787e+00,7.479e+00,6.889e+00,7.901e+00,6.513e+00
5.248e-01,2.644e-01,1.006e+00,7.403e-01,1.755e+00,1.638e+00,1.942e+00,2.559e+00,2.086e+00,3.017e+00,3.459e+00,2.777e+00,2.914e+00,4.672e+00,3.138e+00,5.125e+00,5.093e+00,6.337e+00,6.468e+00,5.276e+00,5.593e+00,6.842e+00,5.557e+00,6.479e+00,8.453e+00,7.551e+00,7.401e+00,6.213e+00,8.248e+00,8.062e+00,6.910e+00,6.067e+00,7.970e+00,5.768e+00,7.254e+00,7.242e+00,9.240e+00,8.943e+00,7.990e+00,8.329e+00,6.600e+00,7.899e+00,6.197e+00,6.578e+00,6.136e+00,7.490e+00,7.730e+00,7.949e+00,9.067e+00,6.706e+00,5.283e+00,6.484e+00,7.909e+00,7.798e+00,5.865e+00,7.743e+00,6.440e+00,8.043e+00,5.977e+00,7.617e+00,6.441e+00,7.117e+00,7.206e+00,6.776e+00,7.096e+00,6.955e+00,7.085e+00,7.102e+00,7.828e+00,7.802e+00,6.628e+00,7.198e+00,8.282e+00,6.532e+00,6.931e+00,6.860e+00,6.621e+00,6.343e+00,8.137e+00,8.389e+00,8.056e+00,7.267e+00,8.100e+00,8.617e+00,8.717e+00,7.261e+00
5.096e-01,2.141e-01,1.039e+00,8.296e-01,1.685e+00,1.520e+00,1.950e+00,2.471e+00,2.591e+00,3.554e+00,4.213e+00,3.981e+00,3.706e+00,5.246e+00,3.739e+00,4.979e+00,4.622e+00,7.096e+00,6.924e+00,6.712e+00,6.462e+00,7.777e+00,6.764e+00,6.578e+00,8.797e+00,7.675e+00,8.767e+00,7.511e+00,8.684e+00,9.970e+00,8.014e+00,8.059e+00,8.350e+00,6.817e+00,8.072e+00,8.231e+00,9.070e+00,9.396e+00,9.305e+00,1.007e+01,7.451e+00,8.572e+00,6.736e+00,5.917e+00,6.853e+00,7.141e+00,7.442e+00,8.411e+00,9.004e+00,7.862e+00,6.499e+00,8.561e+00,8.851e+00,8.270e+00,6.108e+00,8.699e+00,7.174e+00,8.493e+00,6.917e+00,9.373e+00,7.606e+00,7.093e+00,6.524e+00,8.028e+00,7.351e+00,7.409e+00,7.290e+00,8.054e+00,8.159e+00,7.834e+00,7.861e+00,8.422e+00,9.716e+00,7.534e+00,7.696e+00,8.120e+00,6.507e+00,7.581e+00,8.625e+00,8.821e+00,9.214e+00,8.633e+00,9.132e+00,7.617e+00,9.905e+00,7.437e+00
5.594e-01,1.360e-01,8.526e-01,5.388e-01,1.116e+00,9.659e-01,1.140e+00,1.568e+00,1.767e+00,2.071e+00,2.424e+00,2.572e+00,2.614e+00,3.403e+00,2.568e+00,3.847e+00,2.733e+00,4.152e+00,4.157e+00,3.470e+00,3.810e+00,4.924e+00,4.138e+00,4.637e+00,6.112e+00,5.612e+00,5.379e+00,6.104e+00,7.183e+00,7.762e+00,5.775e+00,6.477e+00,5.960e+00,4.585e+00,5.809e+00,6.218e+00,7.589e+00,6.486e+00,6.730e+00,6.766e+00,5.776e+00,6.261e+00,5.340e+00,4.808e+00,5.123e+00,5.440e+00,6.020e+00,6.231e+00,7.689e+00,6.266e+00,5.498e+00,5.891e+00,7.125e+00,6.347e+00,4.311e+00,7.349e+00,5.415e+00,6.723e+00,4.898e+00,6.827e+00,5.549e+00,5.979e+00,5.925e+00,5.433e+00,6.477e+00,6.004e+00,5.079e+00,6.628e+00,6.139e+00,5.784e+00,6.870e+00,5.513e+00,7.256e+00,5.557e+00,6.639e+00,6.680e+00,4.625e+00,5.737e+00,6.336e+00,7.262e+00,6.236e+00,7.299e+00,6.774e+00,6.402e+00,7.264e+00,5.264e+00
4.860e-01,2.540e-01,1.036e+00,7.794e-01,1.472e+00,1.267e+00,1.261e+00,1.782e+00,1.957e+00,1.703e+00,1.988e+00,2.769e+00,2.482e+00,4.316e+00,3.150e+00,5.335e+00,4.612e+00,6.425e+00,6.311e+00,5.127e+00,6.135e+00,7.165e+00,5.146e+00,6.428e+00,8.090e+00,6.859e+00,6.801e+00,7.685e+00,8.302e+00,8.691e+00,9.030e+00,7.528e+00,8.772e+00,6.321e+00,7.514e+00,8.296e+00,9.159e+00,7.561e+00,9.641e+00,8.981e+00,7.338e+00,7.752e+00,7.173e+00,6.987e+00,5.915e+00,8.591e+00,8.130e+00,8.896e+00,6.731e+00,7.144e+00,7.593e+00,7.506e+00,9.228e+00,9.199e+00,6.231e+00,7.384e+00,7.530e+00,8.961e+00,6.888e+00,8.812e+00,6.740e+00,7.536e+00,7.503e+00,6.737e+00,7.514e+00,6.805e+00,7.453e+00,6.840e+00,7.975e+00,7.111e+00,7.137e+00,7.336e+00,8.898e+00,6.773e+00,6.883e+00,8.174e+00,6.066e+00,7.590e+00,7.847e+00,9.378e+00,8.687e+00,7.799e+00,9.503e+00,8.082e+00,9.469e+00,7.727e+00
4.941e-01,3.802e-01,1.054e+00,7.921e-01,2.104e+00,2.052e+00,2.094e+00,2.701e+00,2.236e+00,2.515e+00,2.781e+00,3.405e+00,3.091e+00,4.731e+00,3.181e+00,5.123e+00,4.959e+00,6.305e+00,6.197e+00,5.611e+00,6.708e+00,7.682e+00,5.615e+00,7.105e+00,8.425e+00,8.124e+00,7.449e+00,9.018e+00,8.513e+00,1.043e+01,9.341e+00,9.070e+00,9.772e+00,7.108e+00,9.188e+00,9.672e+00,1.064e+01,1.003e+01,1.009e+01,1.052e+01,8.058e+00,8.897e+00,7.369e+00,8.144e+00,6.995e+00,9.189e+00,9.706e+00,1.008e+01,8.838e+00,8.080e+00,8.582e+00,8.674e+00,1.012e+01,1.022e+01,6.855e+00,9.715e+00,8.528e+00,9.527e+00,7.497e+00,9.153e+00,7.684e+00,8.908e+00,8.424e+00,8.757e+00,9.672e+00,7.736e+00,8.623e+00,8.798e+00,8.090e+00,8.371e+00,8.941e+00,9.095e+00,1.091e+01,8.274e+00,8.259e+00,9.748e+00,6.612e+00,8.740e+00,1.037e+01,1.070e+01,9.754e+00,9.491e+00,1.036e+01,8.943e+00,1.059e+01,8.211e+00
5.750e-01,1.028e-01,8.939e-01,5.978e-01,1.107e+00,8.979e-01,1.163e+00,1.543e+00,1.787e+00,2.582e+00,3.226e+00,3.641e+00,3.116e+00,4.228e+00,3.957e+00,5.146e+00,4.490e+00,5.816e+00,6.655e+00,5.627e+00,6.354e+00,6.727e+00,5.835e+00,6.803e+00,8.598e+00,7.929e+00,7.069e+00,6.413e+00,9.125e+00,8.840e+00,8.894e+00,7.603e+00,9.430e+00,5.651e+00,8.380e+00,8.302e+00,9.707e+00,8.538e+00,1.006e+01,9.895e+00,7.379e+00,1.059e+01,8.493e+00,7.921e+00,7.720e+00,8.929e+00,9.189e+00,9.215e+00,8.982e+00,8.138e+00,7.766e+00,8.205e+00,1.012e+01,9.692e+00,6.904e+00,9.901e+00,9.285e+00,1.025e+01,7.156e+00,8.919e+00,7.640e+00,8.697e+00,7.278e+00,7.701e+00,9.625e+00,8.542e+00,7.500e+00,7.733e+00,8.331e+00,8.553e+00,9.183e+00,8.725e+00,1.022e+01,8.483e+00,8.751e+00,7.186e+00,6.893e+00,7.834e+00,8.464e+00,1.107e+01,8.278e+00,7.814e+00,8.647e+00,9.464e+00,1.064e+01,8.393e+00
8.169e-01,4.036e-01,1.397e+00,8.010e-01,1.816e+00,1.726e+00,1.427e+00,2.348e+00,1.367e+00,1.381e+00,2.959e+00,1.970e+00,2.027e+00,4.249e+00,3.042e+00,5.290e+00,4.666e+00,5.789e+00,6.243e+00,4.877e+00,5.207e+00,7.324e+00,4.638e+00,5.975e+00,8.196e+00,7.253e+00,6.894e+00,6.219e+00,7.623e+00,8.404e+00,7.147e+00,7.662e+00,9.214e+00,6.779e+00,7.578e+00,7.663e+00,9.865e+00,8.373e+00,8.640e+00,8.961e+00,7.679e+00,9.289e+00,6.550e+00,8.079e+00,6.014e+00,8.789e+00,8.720e+00,8.740e+00,9.202e+00,7.448e+00,6.998e+00,7.440e+00,9.248e+00,8.618e+00,7.197e+00,7.340e+00,7.909e+00,9.350e+00,6.644e+00,8.736e+00,6.910e+00,7.735e+00,7.435e+00,9.199e+00,8.168e+00,7.889e+00,8.016e+00,8.767e+00,8.785e+00,7.845e+00,7.549e+00,7.805e+00,8.557e+00,8.591e+00,7.566e+00,8.057e+00,5.884e+00,7.495e+00,8.393e+00,9.837e+00,8.493e+00,9.106e+00,8.654e+00,8.843e+00,9.866e+00,6.761e+00
1.813e-01,1.408e-01,2.803e-01,2.263e-01,1.117e+00,1.264e+00,1.675e+00,1.861e+00,1.474e+00,2.806e+00,3.139e+00,2.945e+00,2.796e+00,3.665e+00,2.540e+00,3.827e+00,3.916e+00,4.543e+00,4.940e+00,4.623e+00,4.954e+00,5.413e+00,4.879e+00,6.560e+00,7.464e+00,6.538e+00,6.472e+00,5.960e+00,7.706e+00,7.574e+00,7.738e+00,7.341e+00,9.091e+00,6.378e+00,8.171e+00,9.530e+00,1.024e+01,9.506e+00,7.807e+00,8.547e+00,6.805e+00,9.454e+00,7.996e+00,7.623e+00,8.176e+00,7.528e+00,8.749e+00,8.362e+00,8.323e+00,8.722e+00,7.361e+00,8.852e+00,9.300e+00,8.251e+00,6.948e+00,8.010e+00,8.776e+00,8.149e+00,6.435e+00,9.150e+00,6.950e+00,6.913e+00,6.853e+00,7.923e+00,8.963e+00,7.515e+00,7.453e+00,7.139e+00,7.978e+00,8.151e+00,9.571e+00,9.563e+00,9.541e+00,8.058e+00,6.683e+00,7.657e+00,6.288e+00,7.453e+00,8.662e+00,8.234e+00,9.335e+00,9.048e+00,8.596e+00,9.308e+00,1.072e+01,7.882e+00
3.306e-01,2.281e-01,6.422e-01,3.919e-01,9.452e-01,9.040e-01,7.437e-01,1.351e+00,1.381e+00,2.121e+00,2.890e+00,2.207e+00,2.109e+00,3.610e+00,2.973e+00,3.448e+00,3.206e+00,4.323e+00,4.548e+00,4.113e+00,4.692e+00,5.248e+00,4.351e+00,5.460e+00,7.131e+00,6.494e+00,6.683e+00,6.604e+00,9.008e+00,8.677e+00,7.757e+00,7.947e+00,8.379e+00,6.337e+00,7.276e+00,9.324e+00,9.623e+00,9.214e+00,9.755e+00,9.511e+00,7.159e+00,9.340e+00,7.672e+00,7.209e+00,7.301e+00,8.241e+00,7.869e+00,8.511e+00,9.153e+00,8.386e+00,8.324e+00,7.706e+00,1.083e+01,9.159e+00,7.346e+00,8.956e+00,8.040e+00,8.962e+00,8.029e+00,9.683e+00,7.412e+00,7.849e+00,6.802e+00,8.396e+00,8.875e+00,7.313e+00,7.739e+00,7.467e+00,8.810e+00,7.515e+00,8.605e+00,8.898e+00,9.486e+00,8.556e+00,7.278e+00,8.375e+00,6.397e+00,7.477e+00,8.682e+00,8.169e+00,1.026e+01,9.153e+00,8.695e+00,9.156e+00,9.883e+00,9.088e+00
5.371e-02,1.921e-01,5.629e-01,6.337e-01,1.123e+00,7.893e-01,8.772e-01,1.659e+00,1.816e+00,2.560e+00,3.362e+00,3.515e+00,3.470e+00,4.790e+00,3.913e+00,5.088e+00,5.315e+00,5.529e+00,6.663e+00,6.027e+00,6.151e+00,6.417e+00,5.012e+00,6.054e+00,7.752e+00,7.003e+00,6.982e+00,6.125e+00,7.874e+00,8.494e+00,6.946e+00,6.896e+00,9.257e+00,6.115e+00,7.591e+00,9.111e+00,9.836e+00,8.205e+00,9.231e+00,8.932e+00,7.389e+00,1.075e+01,8.579e+00,7.243e+00,8.282e+00,9.144e+00,8.994e+00,8.990e+00,9.557e+00,8.228e+00,8.301e+00,7.689e+00,1.028e+01,8.042e+00,7.369e+00,9.181e+00,9.514e+00,1.030e+01,7.371e+00,9.284e+00,6.958e+00,8.697e+00,6.390e+00,8.121e+00,8.969e+00,7.763e+00,7.610e+00,7.412e+00,8.752e+00,7.545e+00,8.766e+00,8.547e+00,9.981e+00,8.637e+00,8.292e+00,7.663e+00,6.843e+00,6.979e+00,7.831e+00,9.726e+00,9.362e+00,8.245e+00,9.804e+00,8.861e+00,1.118e+01,9.319e+00
3.901e-01,7.880e-02,5.297e-01,2.559e-01,4.657e-01,6.017e-01,6.883e-01,7.367e-01,1.727e+00,1.681e+00,2.349e+00,2.947e+00,2.556e+00,3.155e+00,2.958e+00,3.395e+00,3.478e+00,4.874e+00,4.784e+00,3.754e+00,5.432e+00,4.952e+00,5.030e+00,5.371e+00,6.796e+00,5.489e+00,6.001e+00,4.869e+00,6.667e+00,7.563e+00,7.733e+00,7.142e+00,7.839e+00,4.879e+00,6.896e+00,9.342e+00,8.637e+00,9.667e+00,9.083e+00,9.312e+00,7.797e+00,9.370e+00,8.186e+00,8.578e+00,7.654e+00,9.173e+00,8.379e+00,8.482e+00,9.706e+00,8.378e+00,8.139e+00,8.283e+00,1.061e+01,8.668e+00,5.878e+00,9.933e+00,9.569e+00,9.005e+00,7.590e+00,9.128e+00,8.164e+00,8.245e+00,7.077e+00,8.701e+00,9.653e+00,9.211e+00,6.514e+00,7.448e+00,7.888e+00,8.220e+00,8.852e+00,9.365e+00,9.278e+00,8.308e+00,8.258e+00,7.169e+00,7.041e+00,8.054e+00,8.604e+00,9.581e+00,9.401e+00,8.770e+00,9.148e+00,9.081e+00,1.018e+01,8.556e+00
2.815e-01,3.568e-01,7.017e-01,5.510e-01,1.713e+00,1.698e+00,1.474e+00,1.931e+00,1.283e+00,1.678e+00,2.028e+00,2.342e+00,1.414e+00,3.178e+00,2.034e+00,3.503e+00,3.647e+00,5.059e+00,4.490e+00,4.095e+00,5.542e+00,5.115e+00,4.130e+00,5.752e+00,6.831e+00,6.118e+00,5.437e+00,5.576e+00,7.108e+00,6.425e+00,6.745e+00,6.372e+00,7.390e+00,5.369e+00,7.229e+00,7.643e+00,9.611e+00,9.389e+00,8.767e+00,8.196e+00,6.755e+00,8.505e+00,7.996e+00,6.839e+00,7.144e+00,8.127e+00,8.170e+00,9.162e+00,8.737e+00,7.777e+00,7.502e+00,8.025e+00,8.675e+00,8.153e+00,7.186e+00,8.098e+00,8.261e+00,8.284e+00,7.066e+00,8.061e+00,7.884e+00,7.481e+00,6.776e+00,8.084e+00,7.898e+00,7.091e+00,7.299e+00,7.141e+00,8.047e+00,7.452e+00,7.683e+00,9.335e+00,8.893e+00,7.995e+00,6.585e+00,6.372e+00,6.349e+00,6.882e+00,7.587e+00,8.949e+00,9.520e+00,8.616e+00,7.880e+00,9.650e+00,9.343e+00,7.719e+00
2.827e-01,3.122e-01,6.779e-01,5.603e-01,1.726e+00,1.657e+00,1.635e+00,2.111e+00,1.466e+00,1.455e+00,1.926e+00,1.735e+00,1.846e+00,3.901e+00,3.012e+00,4.985e+00,4.992e+00,5.739e+00,6.416e+00,4.977e+00,6.673e+00,8.075e+00,5.145e+00,7.813e+00,9.561e+00,7.169e+00,7.717e+00,7.722e+00,9.844e+00,9.814e+00,8.281e+00,8.537e+00,1.010e+01,8.069e+00,9.743e+00,1.126e+01,1.305e+01,1.318e+01,1.096e+01,1.232e+01,9.197e+00,1.140e+01,9.499e+00,1.138e+01,9.570e+00,1.172e+01,1.141e+01,1.094e+01,1.254e+01,1.006e+01,1.093e+01,1.011e+01,1.259e+01,1.044e+01,1.024e+01,1.053e+01,1.154e+01,1.161e+01,1.009e+01,1.203e+01,1.008e+01,1.070e+01,1.060e+01,1.113e+01,1.185e+01,1.093e+01,9.593e+00,9.845e+00,1.106e+01,1.046e+01,1.149e+01,1.239e+01,1.267e+01,1.140e+01,1.022e+01,1.028e+01,8.948e+00,1.161e+01,1.127e+01,1.202e+01,1.267e+01,1.245e+01,1.218e+01,1.265e+01,1.419e+01,1.074e+01
6.561e-01,2.069e-01,1.146e+00,8.400e-01,1.819e+00,1.570e+00,1.997e+00,2.518e+00,1.396e+00,2.445e+00,3.099e+00,2.967e+00,2.539e+00,4.261e+00,2.192e+00,5.329e+00,4.324e+00,5.724e+00,5.879e+00,5.222e+00,4.087e+00,6.015e+00,4.014e+00,5.617e+00,6.994e+00,6.948e+00,6.934e+00,6.291e+00,7.151e+00,7.334e+00,7.990e+00,7.682e+00,8.363e+00,6.137e+00,7.143e+00,8.685e+00,1.003e+01,9.096e+00,9.515e+00,1.036e+01,7.998e+00,1.039e+01,8.915e+00,8.140e+00,8.499e+00,7.489e+00,9.012e+00,8.928e+00,9.214e+00,7.820e+00,8.340e+00,8.366e+00,1.053e+01,9.705e+00,8.368e+00,8.876e+00,8.538e+00,1.009e+01,6.455e+00,9.889e+00,8.800e+00,8.138e+00,8.333e+00,8.609e+00,9.476e+00,7.787e+00,9.023e+00,8.827e+00,9.103e+00,9.213e+00,9.672e+00,1.001e+01,1.045e+01,1.003e+01,8.511e+00,8.105e+00,7.113e+00,7.822e+00,8.950e+00,9.814e+00,8.611e+00,8.835e+00,8.577e+00,1.113e+01,1.061e+01,9.362e+00
3.671e-02,3.222e-01,3.249e-01,2.864e-01,1.288e+00,1.588e+00,1.511e+00,1.776e+00,2.081e+00,2.616e+00,2.806e+00,3.589e+00,3.155e+00,4.279e+00,3.751e+00,4.327e+00,4.257e+00,5.812e+00,6.385e+00,5.316e+00,7.102e+00,5.971e+00,5.216e+00,6.344e+00,7.294e+00,7.191e+00,6.776e+00,6.200e+00,8.119e+00,7.670e+00,7.283e+00,6.860e+00,7.959e+00,6.594e+00,8.415e+00,8.690e+00,9.549e+00,1.115e+01,1.051e+01,1.129e+01,9.033e+00,1.149e+01,1.120e+01,1.004e+01,8.827e+00,1.020e+01,8.660e+00,9.950e+00,1.166e+01,8.970e+00,1.000e+01,1.014e+01,1.247e+01,1.016e+01,9.004e+00,1.130e+01,1.163e+01,1.075e+01,9.006e+00,1.002e+01,9.159e+00,9.823e+00,9.685e+00,1.042e+01,1.026e+01,1.057e+01,9.028e+00,8.539e+00,9.641e+00,9.027e+00,1.078e+01,1.126e+01,1.310e+01,1.066e+01,1.050e+01,8.950e+00,8.285e+00,1.064e+01,1.058e+01,1.072e+01,1.274e+01,9.917e+00,1.146e+01,1.190e+01,1.087e+01,1.052e+01
4.546e-01,4.019e-01,9.930e-01,6.555e-01,1.676e+00,1.733e+00,1.521e+00,2.279e+00,1.683e+00,2.327e+00,3.203e+00,3.072e+00,2.411e+00,4.332e+00,2.859e+00,4.203e+00,4.916e+00,6.119e+00,5.655e+00,4.905e+00,6.162e+00,6.300e+00,5.101e+00,6.365e+00,8.320e+00,8.017e+00,7.152e+00,7.862e+00,9.882e+00,9.859e+00,9.966e+00,8.702e+00,1.090e+01,7.349e+00,9.502e+00,1.210e+01,1.332e+01,1.322e+01,1.306e+01,1.331e+01,1.107e+01,1.363e+01,1.303e+01,1.313e+01,1.169e+01,1.411e+01,1.208e+01,1.416e+01,1.497e+01,1.073e+01,1.342e+01,1.213e+01,1.574e+01,1.406e+01,1.247e+01,1.434e+01,1.367e+01,1.380e+01,1.184e+01,1.270e+01,1.167e+01,1.196e+01,1.204e+01,1.219e+01,1.375e+01,1.258e+01,1.215e+01,1.326e+01,1.379e+01,1.267e+01,1.392e+01,1.304e+01,1.438e+01,1.455e+01,1.212e+01,1.059e+01,1.161e+01,1.343e+01,1.475e+01,1.399e+01,1.524e+01,1.287e+01,1.510e+01,1.540e+01,1.463e+01,1.295e+01
8.879e-02,6.509e-02,5.423e-01,7.822e-01,1.584e+00,1.129e+00,1.923e+00,2.237e+00,1.426e+00,2.341e+00,2.574e+00,2.466e+00,2.456e+00,3.543e+00,2.195e+00,3.608e+00,4.058e+00,4.959e+00,4.998e+00,4.713e+00,4.822e+00,6.003e+00,4.851e+00,6.567e+00,7.975e+00,6.164e+00,6.974e+00,6.175e+00,8.321e+00,8.539e+00,7.867e+00,7.236e+00,8.379e+00,5.951e+00,8.479e+00,1.037e+01,1.112e+01,1.185e+01,9.662e+00,1.145e+01,7.946e+00,1.174e+01,9.708e+00,9.375e+00,9.932e+00,1.027e+01,1.123e+01,1.137e+01,1.274e+01,9.308e+00,1.029e+01,1.086e+01,1.219e+01,1.065e+01,9.575e+00,1.164e+01,1.108e+01,1.233e+01,9.402e+00,1.222e+01,1.027e+01,9.380e+00,9.658e+00,1.015e+01,1.138e+01,1.108e+01,8.778e+00,1.024e+01,1.033e+01,1.034e+01,1.109e+01,1.195e+01,1.235e+01,1.161e+01,1.031e+01,8.891e+00,1.007e+01,1.150e+01,1.049e+01,1.093e+01,1.131e+01,1.096e+01,1.177e+01,1.165e+01,1.349e+01,1.086e+01
2.752e-01,2.372e-01,8.761e-01,8.287e-01,1.644e+00,1.373e+00,1.707e+00,2.377e+00,2.025e+00,2.826e+00,3.102e+00,3.533e+00,3.489e+00,4.364e+00,3.121e+00,4.989e+00,5.128e+00,5.801e+00,6.732e+00,5.724e+00,6.669e+00,7.422e+00,4.763e+00,6.370e+00,8.427e+00,7.006e+00,7.492e+00,6.954e+00,8.260e+00,8.547e+00,7.548e+00,7.795e+00,9.838e+00,7.007e+00,7.717e+00,9.747e+00,1.145e+01,1.132e+01,9.991e+00,1.108e+01,8.158e+00,1.247e+01,9.925e+00,1.105e+01,1.005e+01,1.268e+01,1.214e+01,1.193e+01,1.393e+01,9.903e+00,1.169e+01,1.002e+01,1.296e+01,1.083e+01,1.044e+01,1.120e+01,1.182e+01,1.284e+01,9.959e+00,1.175e+01,1.080e+01,1.087e+01,9.741e+00,1.114e+01,1.148e+01,9.505e+00,1.115e+01,1.151e+01,1.168e+01,1.119e+01,1.133e+01,1.125e+01,1.238e+01,1.196e+01,1.065e+01,9.047e+00,9.193e+00,1.096e+01,1.184e+01,1.252e+01,1.211e+01,1.154e+01,1.306e+01,1.269e+01,1.364e+01,1.229e+01
2.086e-01,3.248e-01,8.256e-01,8.504e-01,2.117e+00,1.945e+00,2.320e+00,3.001e+00,2.308e+00,3.473e+00,3.897e+00,3.904e+00,3.698e+00,4.691e+00,3.610e+00,4.780e+00,5.059e+00,6.068e+00,6.356e+00,6.014e+00,6.997e+00,6.806e+00,5.679e+00,7.207e+00,9.316e+00,8.058e+00,8.415e+00,7.887e+00,9.606e+00,9.363e+00,8.539e+00,8.311e+00,9.595e+00,7.309e+00,8.696e+00,1.026e+01,1.201e+01,1.240e+01,1.181e+01,1.245e+01,8.616e+00,1.300e+01,1.134e+01,1.047e+01,1.183e+01,1.184e+01,1.197e+01,1.302e+01,1.461e+01,1.046e+01,1.248e+01,1.196e+01,1.499e+01,1.270e+01,1.114e+01,1.357e+01,1.208e+01,1.415e+01,1.092e+01,1.261e+01,1.100e+01,1.145e+01,1.025e+01,1.177e+01,1.289e+01,1.108e+01,1.125e+01,1.123e+01,1.290e+01,1.188e+01,1.171e+01,1.319e+01,1.372e+01,1.290e+01,1.143e+01,1.090e+01,1.089e+01,1.152e+01,1.232e+01,1.224e+01,1.359e+01,1.260e+01,1.365e+01,1.383e+01,1.407e+01,1.307e+01
7.429e-01,4.498e-01,1.381e+00,8.384e-01,1.914e+00,1.839e+00,1.370e+00,2.241e+00,1.915e+00,1.976e+00,3.044e+00,3.560e+00,2.646e+00,4.023e+00,2.879e+00,4.556e+00,3.931e+00,5.649e+00,5.303e+00,5.212e+00,5.829e+00,5.768e+00,4.701e+00,4.882e+00,6.764e+00,6.375e+00,6.324e+00,6.430e+00,6.991e+00,8.225e+00,7.180e+00,7.506e+00,8.259e+00,6.310e+00,7.212e+00,7.578e+00,9.202e+00,8.594e+00,9.097e+00,9.436e+00,8.252e+00,1.056e+01,9.806e+00,8.164e+00,9.591e+00,1.017e+01,9.752e+00,1.157e+01,1.210e+01,9.614e+00,1.140e+01,1.094e+01,1.218e+01,1.200e+01,9.606e+00,1.135e+01,1.052e+01,1.164e+01,1.021e+01,1.084e+01,1.051e+01,9.994e+00,9.589e+00,1.006e+01,1.025e+01,9.833e+00,1.111e+01,1.204e+01,1.204e+01,1.085e+01,1.079e+01,9.726e+00,1.154e+01,1.131e+01,1.077e+01,8.877e+00,8.880e+00,1.090e+01,1.020e+01,1.192e+01,1.182e+01,1.121e+01,1.189e+01,1.083e+01,1.284e+01,9.738e+00
3.411e-02,9.012e-03,1.720e-01,2.276e-01,4.574e-01,4.528e-01,1.005e+00,1.238e+00,1.669e+00,2.534e+00,2.617e+00,1.781e+00,2.659e+00,3.307e+00,2.890e+00,3.361e+00,3.162e+00,4.465e+00,5.167e+00,4.313e+00,5.026e+00,5.706e+00,4.534e+00,5.491e+00,6.451e+00,5.722e+00,5.561e+00,5.709e+00,7.593e+00,7.356e+00,7.961e+00,6.311e+00,9.103e+00,6.292e+00,7.049e+00,9.968e+00,9.610e+00,8.977e+00,9.755e+00,9.096e+00,7.247e+00,1.025e+01,8.376e+00,9.875e+00,9.389e+00,1.112e+01,9.610e+00,1.112e+01,1.117e+01,9.537e+00,1.051e+01,1.010e+01,1.274e+01,1.082e+01,9.750e+00,1.128e+01,1.087e+01,1.213e+01,1.103e+01,1.185e+01,9.318e+00,8.813e+00,9.782e+00,1.120e+01,1.085e+01,1.056e+01,9.109e+00,9.413e+00,1.157e+01,1.081e+01,1.072e+01,9.988e+00,1.141e+01,1.067e+01,1.047e+01,8.545e+00,1.056e+01,1.133e+01,1.175e+01,9.433e+00,1.297e+01,1.127e+01,1.203e+01,1.222e+01,1.223e+01,1.155e+01
6.001e-01,1.695e-01,1.032e+00,7.364e-01,1.429e+00,1.205e+00,1.500e+00,2.043e+00,1.577e+00,2.492e+00,3.873e+00,2.995e+00,2.463e+00,4.191e+00,3.397e+00,4.555e+00,4.166e+00,5.568e+00,5.732e+00,5.167e+00,4.795e+00,5.676e+00,4.459e+00,4.873e+00,7.926e+00,7.523e+00,8.089e+00,6.967e+00,9.630e+00,8.998e+00,7.817e+00,7.755e+00,8.194e+00,6.395e+00,7.161e+00,8.451e+00,1.109e+01,1.004e+01,1.082e+01,1.165e+01,8.545e+00,1.209e+01,9.793e+00,1.052e+01,1.085e+01,1.103e+01,1.095e+01,1.233e+01,1.335e+01,1.030e+01,1.142e+01,1.072e+01,1.405e+01,1.227e+01,1.087e+01,1.384e+01,1.067e+01,1.368e+01,1.057e+01,1.171e+01,1.180e+01,1.163e+01,1.059e+01,1.155e+01,1.175e+01,1.045e+01,1.083e+01,1.214e+01,1.303e+01,1.219e+01,1.125e+01,1.250e+01,1.347e+01,1.303e+01,1.282e+01,8.874e+00,1.008e+01,1.210e+01,1.155e+01,1.171e+01,1.227e+01,1.213e+01,1.198e+01,1.433e+01,1.270e+01,1.225e+01
5.569e-01,1.632e-01,8.852e-01,6.115e-01,1.360e+00,1.138e+00,1.297e+00,1.772e+00,1.355e+00,1.898e+00,2.801e+00,2.376e+00,2.040e+00,3.470e+00,3.160e+00,4.515e+00,3.719e+00,5.074e+00,5.526e+00,4.587e+00,5.422e+00,6.572e+00,4.957e+00,6.495e+00,8.827e+00,7.721e+00,7.539e+00,7.100e+00,9.221e+00,9.578e+00,7.852e+00,8.030e+00,9.136e+00,7.462e+00,8.210e+00,9.855e+00,1.220e+01,1.112e+01,1.145e+01,1.148e+01,8.863e+00,1.267e+01,1.096e+01,9.687e+00,1.086e+01,1.137e+01,1.243e+01,1.368e+01,1.493e+01,1.083e+01,1.335e+01,1.271e+01,1.476e+01,1.302e+01,1.083e+01,1.448e+01,1.275e+01,1.559e+01,1.271e+01,1.341e+01,1.265e+01,1.285e+01,1.107e+01,1.392e+01,1.422e+01,1.277e+01,1.122e+01,1.249e+01,1.419e+01,1.275e+01,1.217e+01,1.374e+01,1.305e+01,1.342e+01,1.397e+01,1.023e+01,1.102e+01,1.305e+01,1.323e+01,1.353e+01,1.422e+01,1.464e+01,1.324e+01,1.384e+01,1.437e+01,1.486e+01
4.219e-01,3.108e-01,9.780e-01,8.013e-01,1.886e+00,1.797e+00,1.938e+00,2.422e+00,2.380e+00,2.151e+00,3.034e+00,3.481e+00,3.349e+00,4.312e+00,3.373e+00,4.685e+00,4.618e+00,5.728e+00,5.852e+00,5.473e+00,6.466e+00,5.801e+00,5.076e+00,5.514e+00,7.392e+00,7.022e+00,6.920e+00,6.462e+00,7.761e+00,8.546e+00,7.811e+00,7.091e+00,7.952e+00,6.247e+00,8.113e+00,8.657e+00,9.317e+00,1.144e+01,1.028e+01,1.158e+01,9.107e+00,1.114e+01,1.034e+01,1.112e+01,1.031e+01,1.082e+01,1.116e+01,1.156e+01,1.432e+01,1.025e+01,1.196e+01,1.229e+01,1.453e+01,1.169e+01,1.073e+01,1.422e+01,1.139e+01,1.366e+01,1.068e+01,1.178e+01,1.135e+01,1.194e+01,1.221e+01,1.279e+01,1.305e+01,1.220e+01,1.095e+01,1.097e+01,1.133e+01,1.166e+01,1.217e+01,1.210e+01,1.407e+01,1.283e+01,1.293e+01,1.007e+01,1.121e+01,1.304e+01,1.239e+01,1.267e+01,1.402e+01,1.157e+01,1.404e+01,1.325e+01,1.334e+01,1.207e+01
1.397e-01,7.324e-02,4.662e-01,4.772e-01,7.949e-01,4.989e-01,8.030e-01,1.302e+00,6.815e-01,1.392e+00,2.001e+00,1.251e+00,1.693e+00,2.642e+00,2.462e+00,3.363e+00,3.103e+00,4.132e+00,4.867e+00,3.590e+00,3.780e+00,5.587e+00,4.007e+00,5.771e+00,7.521e+00,5.831e+00,6.140e+00,5.203e+00,7.458e+00,7.948e+00,6.987e+00,6.731e+00,7.442e+00,5.888e+00,7.641e+00,9.293e+00,1.060e+01,1.043e+01,9.665e+00,1.151e+01,7.785e+00,1.126e+01,9.851e+00,1.032e+01,1.043e+01,1.024e+01,1.045e+01,1.137e+01,1.463e+01,1.065e+01,1.267e+01,1.338e+01,1.465e+01,1.297e+01,1.110e+01,1.485e+01,1.161e+01,1.332e+01,1.270e+01,1.375e+01,1.248e+01,1.202e+01,1.199e+01,1.338e+01,1.430e+01,1.404e+01,1.256e+01,1.317e+01,1.323e+01,1.276e+01,1.271e+01,1.306e+01,1.383e+01,1.391e+01,1.345e+01,9.726e+00,1.226e+01,1.356e+01,1.279e+01,1.211e+01,1.359e+01,1.351e+01,1.336e+01,1.378e+01,1.460e+01,1.291e+01
5.883e-01,9.321e-02,8.024e-01,5.192e-01,1.242e+00,1.093e+00,1.463e+00,1.666e+00,1.424e+00,1.614e+00,2.309e+00,1.628e+00,1.844e+00,3.587e+00,2.381e+00,4.606e+00,3.364e+00,4.462e+00,4.849e+00,4.356e+00,3.411e+00,5.090e+00,4.007e+00,4.926e+00,5.803e+00,5.316e+00,6.314e+00,5.767e+00,6.900e+00,7.300e+00,6.518e+00,7.456e+00,7.036e+00,6.509e+00,6.194e+00,8.465e+00,8.999e+00,8.447e+00,8.594e+00,9.643e+00,7.478e+00,1.085e+01,8.430e+00,9.391e+00,9.701e+00,9.519e+00,9.615e+00,1.193e+01,1.187e+01,1.000e+01,1.308e+01,1.216e+01,1.397e+01,1.294e+01,1.221e+01,1.360e+01,1.118e+01,1.392e+01,1.257e+01,1.212e+01,1.216e+01,1.160e+01,1.211e+01,1.206e+01,1.276e+01,1.060e+01,1.318e+01,1.248e+01,1.349e+01,1.324e+01,1.213e+01,1.217e+01,1.314e+01,1.212e+01,1.285e+01,9.314e+00,1.098e+01,1.305e+01,1.289e+01,1.083e+01,1.379e+01,1.319e+01,1.308e+01,1.392e+01,1.503e+01,1.359e+01
2.370e-01,2.222e-01,3.970e-01,1.582e-01,8.078e-01,1.082e+00,1.071e+00,1.353e+00,7.843e-01,1.646e+00,2.282e+00,1.322e+00,1.472e+00,2.498e+00,1.624e+00,2.176e+00,2.735e+00,3.216e+00,3.506e+00,3.238e+00,3.563e+00,4.395e+00,3.941e+00,5.386e+00,5.856e+00,5.802e+00,5.087e+00,4.835e+00,7.151e+00,6.655e+00,6.881e+00,5.722e+00,7.227e+00,5.514e+00,7.429e+00,7.887e+00,8.262e+00,8.608e+00,7.757e+00,9.345e+00,7.022e+00,9.224e+00,8.432e+00,8.488e+00,7.345e+00,9.496e+00,9.484e+00,1.035e+01,1.048e+01,9.534e+00,9.932e+00,1.130e+01,1.161e+01,1.091e+01,9.341e+00,1.208e+01,9.972e+00,1.247e+01,1.060e+01,1.125e+01,1.043e+01,9.130e+00,9.000e+00,1.067e+01,1.173e+01,1.074e+01,1.018e+01,1.012e+01,1.049e+01,1.103e+01,1.078e+01,1.130e+01,1.156e+01,1.004e+01,1.016e+01,9.247e+00,9.910e+00,1.184e+01,1.156e+01,9.436e+00,1.192e+01,1.070e+01,1.197e+01,1.138e+01,1.131e+01,1.226e+01
2.441e-01,1.379e-01,6.439e-01,5.590e-01,9.209e-01,6.535e-01,6.955e-01,1.177e+00,1.293e+00,1.479e+00,2.335e+00,2.437e+00,2.354e+00,3.392e+00,3.554e+00,4.085e+00,3.265e+00,4.760e+00,5.529e+00,4.491e+00,4.752e+00,5.550e+00,4.404e+00,5.027e+00,7.195e+00,5.510e+00,6.890e+00,5.436e+00,7.374e+00,8.192e+00,6.138e+00,7.315e+00,7.051e+00,5.514e+00,6.707e+00,7.254e+00,8.295e+00,8.132e+00,8.898e+00,1.050e+01,7.865e+00,1.077e+01,8.567e+00,9.238e+00,9.466e+00,9.670e+00,9.449e+00,1.091e+01,1.207e+01,1.063e+01,1.235e+01,1.286e+01,1.507e+01,1.210e+01,1.164e+01,1.445e+01,1.133e+01,1.422e+01,1.309e+01,1.400e+01,1.324e+01,1.250e+01,1.131e+01,1.317e+01,1.385e+01,1.205e+01,1.288e+01,1.227e+01,1.357e+01,1.193e+01,1.262e+01,1.245e+01,1.425e+01,1.269e+01,1.418e+01,9.630e+00,1.159e+01,1.327e+01,1.354e+01,1.192e+01,1.271e+01,1.392e+01,1.378e+01,1.403e+01,1.426e+01,1.299e+01
7.522e-01,2.879e-01,1.316e+00,8.639e-01,1.753e+00,1.662e+00,1.805e+00,2.362e+00,1.809e+00,1.813e+00,3.628e+00,2.643e+00,2.541e+00,4.394e+00,2.744e+00,4.580e+00,4.407e+00,5.932e+00,5.755e+00,5.124e+00,5.894e+00,6.714e+00,4.697e+00,6.271e+00,7.618e+00,7.779e+00,7.074e+00,6.327e+00,8.230e+00,7.750e+00,7.475e+00,6.173e+00,7.958e+00,6.117e+00,7.759e+00,8.392e+00,9.641e+00,1.141e+01,1.096e+01,1.171e+01,8.973e+00,1.105e+01,9.987e+00,1.072e+01,9.178e+00,1.195e+01,1.072e+01,1.247e+01,1.341e+01,9.835e+00,1.261e+01,1.186e+01,1.440e+01,1.369e+01,1.204e+01,1.512e+01,1.321e+01,1.583e+01,1.192e+01,1.232e+01,1.383e+01,1.224e+01,1.235e+01,1.319e+01,1.301e+01,1.220e+01,1.242e+01,1.222e+01,1.321e+01,1.334e+01,1.080e+01,1.398e+01,1.516e+01,1.374e+01,1.399e+01,1.102e+01,1.205e+01,1.373e+01,1.338e+01,1.223e+01,1.473e+01,1.361e+01,1.400e+01,1.573e+01,1.359e+01,1.378e+01
3.040e-01,1.794e-01,8.096e-01,8.154e-01,1.690e+00,1.273e+00,1.593e+00,2.149e+00,1.686e+00,1.948e+00,2.803e+00,2.754e+00,2.619e+00,4.468e+00,3.353e+00,4.868e+00,4.044e+00,5.378e+00,5.695e+00,5.165e+00,4.653e+00,5.956e+00,4.258e+00,4.974e+00,7.267e+00,6.766e+00,6.902e+00,6.903e+00,8.496e+00,8.911e+00,7.499e+00,8.236e+00,7.631e+00,6.667e+00,8.158e+00,8.979e+00,1.045e+01,9.685e+00,1.000e+01,1.040e+01,8.766e+00,1.099e+01,9.563e+00,9.119e+00,9.762e+00,1.040e+01,1.092e+01,1.078e+01,1.339e+01,1.068e+01,1.227e+01,1.233e+01,1.476e+01,1.353e+01,1.202e+01,1.491e+01,1.425e+01,1.505e+01,1.300e+01,1.414e+01,1.392e+01,1.181e+01,1.291e+01,1.342e+01,1.404e+01,1.410e+01,1.277e+01,1.422e+01,1.337e+01,1.336e+01,1.381e+01,1.269e+01,1.524e+01,1.395e+01,1.515e+01,1.263e+01,1.225e+01,1.414e+01,1.479e+01,1.299e+01,1.440e+01,1.581e+01,1.422e+01,1.644e+01,1.513e+01,1.354e+01
2.806e-01,6.012e-02,7.444e-01,7.250e-01,1.022e+00,5.245e-01,8.743e-01,1.386e+00,6.634e-01,1.228e+00,2.215e+00,2.063e+00,1.820e+00,3.624e+00,2.463e+00,4.265e+00,4.322e+00,5.294e+00,5.647e+00,4.711e+00,3.831e+00,6.207e+00,4.333e+00,5.695e+00,7.760e+00,6.124e+00,6.078e+00,5.470e+00,6.945e+00,7.906e+00,7.062e+00,6.091e+00,7.275e+00,5.304e+00,7.361e+00,8.442e+00,9.033e+00,8.727e+00,8.138e+00,1.037e+01,7.718e+00,1.004e+01,8.824e+00,8.814e+00,8.741e+00,1.006e+01,1.029e+01,1.098e+01,1.162e+01,8.912e+00,1.059e+01,1.042e+01,1.202e+01,1.236e+01,1.043e+01,1.409e+01,1.270e+01,1.418e+01,1.157e+01,1.348e+01,1.274e+01,1.172e+01,1.231e+01,1.129e+01,1.239e+01,1.316e+01,1.298e+01,1.411e+01,1.279e+01,1.254e+01,1.233e+01,1.212e+01,1.378e+01,1.324e+01,1.399e+01,9.542e+00,1.222e+01,1.371e+01,1.382e+01,1.211e+01,1.148e+01,1.221e+01,1.324e+01,1.426e+01,1.440e+01,1.213e+01
5.595e-01,3.697e-01,9.838e-01,6.433e-01,1.938e+00,1.927e+00,1.798e+00,2.390e+00,2.091e+00,2.124e+00,2.860e+00,2.730e+00,2.560e+00,5.073e+00,3.609e+00,5.567e+00,4.924e+00,6.179e+00,6.049e+00,4.893e+00,6.249e+00,7.161e+00,5.277e+00,7.203e+00,8.454e+00,6.856e+00,7.280e+00,7.463e+00,8.123e+00,8.119e+00,7.520e+00,8.650e+00,8.730e+00,6.176e+00,8.369e+00,9.297e+00,1.072e+01,1.110e+01,1.071e+01,1.088e+01,8.574e+00,1.167e+01,9.869e+00,1.003e+01,1.102e+01,1.198e+01,1.049e+01,1.262e+01,1.416e+01,1.086e+01,1.394e+01,1.270e+01,1.530e+01,1.410e+01,1.185e+01,1.593e+01,1.446e+01,1.584e+01,1.460e+01,1.568e+01,1.530e+01,1.427e+01,1.326e+01,1.294e+01,1.600e+01,1.427e+01,1.493e+01,1.483e+01,1.443e+01,1.412e+01,1.364e+01,1.609e+01,1.525e+01,1.440e+01,1.492e+01,1.344e+01,1.318e+01,1.455e+01,1.515e+01,1.319e+01,1.400e+01,1.664e+01,1.543e+01,1.670e+01,1.669e+01,1.503e+01
4.611e-01,3.300e-01,9.692e-01,6.737e-01,1.660e+00,1.548e+00,1.554e+00,2.371e+00,1.876e+00,2.864e+00,3.095e+00,2.403e+00,2.707e+00,4.722e+00,3.600e+00,5.247e+00,4.585e+00,5.634e+00,6.457e+00,5.361e+00,4.975e+00,6.756e+00,4.756e+00,5.499e+00,7.293e+00,7.243e+00,7.218e+00,7.117e+00,8.983e+00,8.729e+00,8.130e+00,8.451e+00,9.305e+00,6.992e+00,8.943e+00,9.732e+00,1.110e+01,1.161e+01,1.142e+01,1.279e+01,9.231e+00,1.252e+01,1.029e+01,1.143e+01,9.914e+00,1.238e+01,1.101e+01,1.241e+01,1.493e+01,1.096e+01,1.354e+01,1.306e+01,1.610e+01,1.423e+01,1.390e+01,1.611e+01,1.419e+01,1.754e+01,1.469e+01,1.583e+01,1.532e+01,1.432e+01,1.451e+01,1.411e+01,1.571e+01,1.535e+01,1.539e+01,1.456e+01,1.443e+01,1.501e+01,1.588e+01,1.427e+01,1.679e+01,1.670e+01,1.644e+01,1.381e+01,1.374e+01,1.544e+01,1.693e+01,1.414e+01,1.606e+01,1.639e+01,1.676e+01,1.758e+01,1.707e+01,1.574e+01
7.031e-01,4.629e-01,1.298e+00,7.423e-01,1.898e+00,2.059e+00,1.855e+00,2.757e+00,2.097e+00,2.593e+00,4.034e+00,3.386e+00,3.402e+00,4.157e+00,3.196e+00,4.618e+00,4.480e+00,5.071e+00,5.709e+00,5.406e+00,6.144e+00,6.246e+00,5.103e+00,6.201e+00,7.853e+00,8.224e+00,7.797e+00,6.666e+00,8.290e+00,9.048e+00,8.839e+00,8.332e+00,1.113e+01,7.731e+00,8.908e+00,1.046e+01,1.160e+01,1.128e+01,1.057e+01,1.136e+01,9.071e+00,1.329e+01,1.107e+01,1.046e+01,1.070e+01,1.163e+01,1.197e+01,1.493e+01,1.458e+01,1.147e+01,1.455e+01,1.485e+01,1.651e+01,1.581e+01,1.294e+01,1.685e+01,1.486e+01,1.790e+01,1.420e+01,1.672e+01,1.480e+01,1.609e+01,1.388e+01,1.605e+01,1.686e+01,1.477e+01,1.701e+01,1.429e+01,1.565e+01,1.529e+01,1.436e+01,1.532e+01,1.711e+01,1.812e+01,1.678e+01,1.377e+01,1.360e+01,1.587e+01,1.513e+01,1.654e+01,1.725e+01,1.686e+01,1.742e+01,1.715e+01,1.857e+01,1.540e+01
1.664e-01,8.188e-02,5.739e-01,6.217e-01,1.006e+00,7.457e-01,1.126e+00,1.427e+00,1.498e+00,1.481e+00,2.031e+00,2.688e+00,2.650e+00,3.314e+00,2.874e+00,4.252e+00,3.197e+00,4.959e+00,5.966e+00,5.140e+00,5.642e+00,6.329e+00,4.488e+00,5.830e+00,8.076e+00,6.481e+00,6.397e+00,6.148e+00,7.687e+00,7.591e+00,8.482e+00,8.310e+00,8.606e+00,7.128e+00,6.797e+00,9.468e+00,1.016e+01,1.009e+01,1.063e+01,1.159e+01,8.454e+00,1.247e+01,1.072e+01,1.067e+01,1.078e+01,1.041e+01,1.007e+01,1.174e+01,1.353e+01,1.034e+01,1.304e+01,1.258e+01,1.495e+01,1.295e+01,1.233e+01,1.414e+01,1.313e+01,1.593e+01,1.369e+01,1.581e+01,1.585e+01,1.447e+01,1.395e+01,1.442e+01,1.494e+01,1.469e+01,1.490e+01,1.441e+01,1.450e+01,1.337e+01,1.521e+01,1.591e+01,1.661e+01,1.624e+01,1.520e+01,1.152e+01,1.246e+01,1.439e+01,1.456e+01,1.499e+01,1.492e+01,1.554e+01,1.603e+01,1.634e+01,1.636e+01,1.380e+01
8.493e-02,2.121e-02,4.665e-01,6.537e-01,1.187e+00,8.080e-01,1.553e+00,1.846e+00,1.569e+00,2.473e+00,2.635e+00,3.286e+00,3.372e+00,3.803e+00,3.014e+00,4.343e+00,4.026e+00,4.748e+00,5.803e+00,5.017e+00,5.121e+00,5.603e+00,4.122e+00,5.626e+00,6.985e+00,5.910e+00,6.203e+00,5.871e+00,7.217e+00,7.558e+00,7.602e+00,7.841e+00,7.454e+00,6.083e+00,7.322e+00,9.785e+00,9.960e+00,1.033e+01,9.329e+00,1.053e+01,7.373e+00,1.201e+01,9.710e+00,1.110e+01,1.084e+01,1.164e+01,1.193e+01,1.216e+01,1.406e+01,1.065e+01,1.329e+01,1.207e+01,1.438e+01,1.269e+01,1.229e+01,1.449e+01,1.387e+01,1.572e+01,1.289e+01,1.371e+01,1.487e+01,1.568e+01,1.357e+01,1.411e+01,1.576e+01,1.465e+01,1.446e+01,1.417e+01,1.479e+01,1.517e+01,1.507e+01,1.569e+01,1.703e+01,1.601e+01,1.577e+01,1.205e+01,1.224e+01,1.589e+01,1.686e+01,1.574e+01,1.583e+01,1.622e+01,1.704e+01,1.566e+01,1.670e+01,1.551e+01
7.763e-01,4.087e-01,1.047e+00,4.280e-01,1.723e+00,1.999e+00,1.607e+00,2.059e+00,1.810e+00,1.508e+00,2.438e+00,2.089e+00,1.953e+00,3.804e+00,2.641e+00,4.456e+00,3.752e+00,4.281e+00,3.992e+00,3.365e+00,4.368e+00,4.977e+00,4.110e+00,5.314e+00,6.333e+00,6.127e+00,5.455e+00,6.305e+00,6.537e+00,6.614e+00,5.828e+00,6.840e+00,6.662e+00,5.701e+00,7.071e+00,7.718e+00,8.890e+00,9.190e+00,8.804e+00,8.843e+00,7.556e+00,9.460e+00,8.836e+00,8.421e+00,9.276e+00,8.781e+00,1.022e+01,1.061e+01,1.195e+01,9.673e+00,1.059e+01,1.114e+01,1.229e+01,1.126e+01,9.529e+00,1.455e+01,1.178e+01,1.480e+01,1.140e+01,1.373e+01,1.444e+01,1.377e+01,1.410e+01,1.319e+01,1.572e+01,1.392e+01,1.240e+01,1.466e+01,1.405e+01,1.457e+01,1.407e+01,1.556e+01,1.562e+01,1.476e+01,1.647e+01,1.327e+01,1.340e+01,1.457e+01,1.514e+01,1.436e+01,1.381e+01,1.597e+01,1.652e+01,1.537e+01,1.579e+01,1.484e+01
1.280e-03,2.766e-01,3.889e-01,3.942e-01,1.064e+00,9.648e-01,7.173e-01,1.345e+00,1.019e+00,1.241e+00,1.976e+00,1.349e+00,1.651e+00,3.335e+00,2.936e+00,3.045e+00,2.995e+00,3.706e+00,4.559e+00,3.900e+00,4.755e+00,4.823e+00,3.687e+00,5.204e+00,5.922e+00,5.520e+00,4.967e+00,4.604e+00,7.018e+00,6.161e+00,6.299e+00,6.353e+00,7.104e+00,5.269e+00,6.750e+00,7.135e+00,7.580e+00,8.349e+00,8.485e+00,9.232e+00,6.825e+00,1.046e+01,8.695e+00,9.683e+00,8.643e+00,1.084e+01,9.027e+00,1.010e+01,1.251e+01,9.574e+00,1.227e+01,1.066e+01,1.332e+01,1.216e+01,1.169e+01,1.420e+01,1.268e+01,1.471e+01,1.434e+01,1.402e+01,1.409e+01,1.393e+01,1.274e+01,1.402e+01,1.500e+01,1.523e+01,1.501e+01,1.442e+01,1.458e+01,1.354e+01,1.369e+01,1.502e+01,1.621e+01,1.412e+01,1.621e+01,1.244e+01,1.312e+01,1.611e+01,1.569e+01,1.341e+01,1.451e+01,1.711e+01,1.536e+01,1.655e+01,1.465e+01,1.459e+01
5.297e-01,3.608e-01,9.953e-01,5.675e-01,1.402e+00,1.526e+00,1.325e+00,2.029e+00,1.511e+00,1.658e+00,3.359e+00,2.123e+00,2.243e+00,4.384e+00,3.022e+00,4.092e+00,4.440e+00,5.055e+00,5.140e+00,4.190e+00,5.337e+00,5.700e+00,4.266e+00,6.245e+00,7.670e+00,7.795e+00,6.598e+00,6.540e+00,8.604e+00,7.532e+00,8.600e+00,7.317e+00,9.516e+00,6.793e+00,8.072e+00,1.086e+01,1.104e+01,1.131e+01,1.163e+01,1.142e+01,9.284e+00,1.242e+01,1.201e+01,1.219e+01,1.134e+01,1.321e+01,1.167e+01,1.394e+01,1.483e+01,1.091e+01,1.347e+01,1.283e+01,1.670e+01,1.509e+01,1.388e+01,1.803e+01,1.475e+01,1.742e+01,1.468e+01,1.527e+01,1.631e+01,1.527e+01,1.547e+01,1.755e+01,1.840e+01,1.713e+01,1.703e+01,1.807e+01,1.863e+01,1.667e+01,1.674e+01,1.837e+01,1.964e+01,1.810e+01,1.837e+01,1.519e+01,1.568e+01,1.810e+01,1.874e+01,1.699e+01,1.817e+01,1.882e+01,1.877e+01,1.961e+01,1.682e+01,1.917e+01
3.519e-01,1.950e-01,7.603e-01,6.298e-01,1.380e+00,1.279e+00,1.479e+00,1.742e+00,2.022e+00,2.522e+00,2.269e+00,3.216e+00,2.397e+00,3.698e+00,2.112e+00,3.671e+00,3.446e+00,4.800e+00,4.465e+00,4.370e+00,4.643e+00,4.849e+00,3.732e+00,3.900e+00,5.085e+00,4.986e+00,5.193e+00,5.421e+00,6.043e+00,5.408e+00,5.667e+00,5.940e+00,6.541e+00,5.609e+00,6.100e+00,7.474e+00,8.260e+00,9.066e+00,8.157e+00,8.142e+00,7.213e+00,9.604e+00,9.102e+00,9.234e+00,8.921e+00,9.260e+00,8.641e+00,1.075e+01,1.194e+01,8.369e+00,1.119e+01,1.083e+01,1.142e+01,1.024e+01,1.068e+01,1.254e+01,1.181e+01,1.353e+01,1.092e+01,1.322e+01,1.398e+01,1.429e+01,1.328e+01,1.329e+01,1.450e+01,1.336e+01,1.553e+01,1.560e+01,1.599e+01,1.385e+01,1.529e+01,1.622e+01,1.624e+01,1.599e+01,1.530e+01,1.188e+01,1.273e+01,1.611e+01,1.590e+01,1.616e+01,1.459e+01,1.687e+01,1.572e+01,1.496e+01,1.448e+01,1.529e+01
6.966e-01,2.276e-01,8.847e-01,3.552e-01,1.194e+00,1.522e+00,1.754e+00,2.087e+00,2.317e+00,3.597e+00,4.180e+00,3.334e+00,3.234e+00,4.439e+00,3.270e+00,4.515e+00,4.017e+00,5.725e+00,5.832e+00,5.319e+00,5.428e+00,5.941e+00,5.340e+00,5.267e+00,6.754e+00,7.448e+00,7.068e+00,6.871e+00,8.854e+00,8.522e+00,7.858e+00,7.457e+00,8.792e+00,6.645e+00,7.795e+00,9.779e+00,1.021e+01,1.135e+01,1.139e+01,1.158e+01,9.486e+00,1.209e+01,1.008e+01,1.056e+01,9.929e+00,1.224e+01,1.073e+01,1.267e+01,1.478e+01,1.112e+01,1.331e+01,1.267e+01,1.628e+01,1.472e+01,1.248e+01,1.576e+01,1.494e+01,1.609e+01,1.279e+01,1.483e+01,1.555e+01,1.419e+01,1.507e+01,1.557e+01,1.616e+01,1.543e+01,1.672e+01,1.786e+01,1.648e+01,1.705e+01,1.595e+01,1.698e+01,2.019e+01,1.874e+01,1.823e+01,1.583e+01,1.528e+01,1.804e+01,1.949e+01,1.498e+01,1.808e+01,1.774e+01,1.936e+01,1.817e+01,1.626e+01,1.846e+01
2.874e-01,8.137e-02,6.289e-01,6.068e-01,1.139e+00,8.349e-01,1.159e+00,1.470e+00,1.561e+00,1.569e+00,2.452e+00,3.071e+00,2.859e+00,4.145e+00,3.493e+00,5.046e+00,3.991e+00,5.632e+00,6.570e+00,5.684e+00,6.228e+00,6.644e+00,5.181e+00,6.622e+00,7.831e+00,7.405e+00,6.844e+00,6.382e+00,7.963e+00,9.234e+00,8.730e+00,8.110e+00,9.176e+00,6.465e+00,8.254e+00,9.784e+00,9.317e+00,9.795e+00,1.033e+01,1.130e+01,8.662e+00,1.224e+01,1.055e+01,9.746e+00,8.850e+00,1.062e+01,1.119e+01,1.212e+01,1.207e+01,9.974e+00,1.154e+01,1.236e+01,1.516e+01,1.303e+01,1.064e+01,1.474e+01,1.392e+01,1.580e+01,1.388e+01,1.493e+01,1.440e+01,1.420e+01,1.349e+01,1.494e+01,1.725e+01,1.599e+01,1.535e+01,1.498e+01,1.566e+01,1.483e+01,1.490e+01,1.645e+01,1.839e+01,1.632e+01,1.702e+01,1.629e+01,1.441e+01,1.744e+01,1.702e+01,1.656e+01,1.513e+01,1.641e+01,1.852e+01,1.671e+01,1.690e+01,1.717e+01
8.066e-01,4.484e-01,1.296e+00,6.829e-01,1.908e+00,1.969e+00,1.469e+00,2.149e+00,1.127e+00,1.348e+00,3.076e+00,3.015e+00,1.738e+00,4.164e+00,2.975e+00,4.636e+00,4.561e+00,5.927e+00,5.505e+00,5.213e+00,5.392e+00,6.233e+00,5.407e+00,6.443e+00,8.497e+00,7.799e+00,7.039e+00,7.314e+00,8.915e+00,9.514e+00,8.101e+00,8.122e+00,9.169e+00,6.663e+00,9.255e+00,8.850e+00,1.072e+01,1.081e+01,9.768e+00,1.250e+01,1.052e+01,1.178e+01,1.124e+01,1.117e+01,1.077e+01,1.254e+01,1.117e+01,1.429e+01,1.470e+01,1.175e+01,1.499e+01,1.463e+01,1.579e+01,1.539e+01,1.340e+01,1.681e+01,1.498e+01,1.676e+01,1.453e+01,1.488e+01,1.665e+01,1.666e+01,1.624e+01,1.553e+01,1.789e+01,1.606e+01,1.839e+01,1.766e+01,1.928e+01,1.767e+01,1.742e+01,1.893e+01,2.059e+01,1.917e+01,1.920e+01,1.588e+01,1.498e+01,2.026e+01,1.958e+01,1.820e+01,1.808e+01,1.921e+01,2.005e+01,1.916e+01,1.933e+01,1.641e+01
5.460e-01,4.115e-01,8.126e-01,3.064e-01,1.524e+00,2.092e+00,1.986e+00,2.362e+00,1.739e+00,2.896e+00,4.035e+00,3.176e+00,2.689e+00,3.652e+00,2.655e+00,3.766e+00,4.251e+00,5.597e+00,5.741e+00,5.113e+00,6.635e+00,6.737e+00,5.632e+00,7.250e+00,8.938e+00,8.601e+00,7.783e+00,6.475e+00,9.391e+00,8.608e+00,8.079e+00,7.425e+00,9.760e+00,7.031e+00,9.198e+00,1.063e+01,1.181e+01,1.351e+01,1.093e+01,1.232e+01,1.005e+01,1.260e+01,1.119e+01,1.198e+01,1.065e+01,1.192e+01,1.171e+01,1.392e+01,1.533e+01,1.179e+01,1.263e+01,1.487e+01,1.541e+01,1.413e+01,1.356e+01,1.785e+01,1.531e+01,1.739e+01,1.345e+01,1.719e+01,1.724e+01,1.601e+01,1.584e+01,1.723e+01,1.782e+01,1.735e+01,1.768e+01,1.840e+01,1.833e+01,1.910e+01,1.903e+01,2.083e+01,2.101e+01,2.132e+01,1.957e+01,1.615e+01,1.815e+01,2.074e+01,2.004e+01,1.799e+01,1.958e+01,1.985e+01,1.982e+01,2.119e+01,1.916e+01,1.733e+01
4.706e-01,2.721e-01,9.818e-01,7.161e-01,1.590e+00,1.563e+00,1.798e+00,2.349e+00,1.958e+00,2.555e+00,3.502e+00,3.552e+00,3.491e+00,4.613e+00,2.938e+00,5.180e+00,4.808e+00,5.934e+00,6.522e+00,5.775e+00,5.767e+00,6.723e+00,4.610e+00,6.095e+00,7.809e+00,7.322e+00,7.603e+00,6.852e+00,7.818e+00,8.467e+00,7.827e+00,7.936e+00,8.263e+00,7.425e+00,7.511e+00,1.006e+01,1.084e+01,1.137e+01,9.812e+00,1.054e+01,8.992e+00,1.128e+01,9.469e+00,1.043e+01,1.079e+01,1.024e+01,9.742e+00,1.204e+01,1.439e+01,9.849e+00,1.289e+01,1.283e+01,1.407e+01,1.208e+01,1.199e+01,1.429e+01,1.309e+01,1.447e+01,1.218e+01,1.485e+01,1.449e+01,1.561e+01,1.526e+01,1.656e+01,1.533e+01,1.437e+01,1.646e+01,1.716e+01,1.603e+01,1.581e+01,1.699e+01,1.754e+01,1.907e+01,1.831e+01,1.857e+01,1.567e+01,1.519e+01,1.776e+01,1.799e+01,1.700e+01,1.759e+01,1.916e+01,1.883e+01,1.774e+01,1.790e+01,1.759e+01
6.410e-01,2.265e-01,1.152e+00,9.008e-01,2.001e+00,1.713e+00,2.065e+00,2.505e+00,2.324e+00,2.896e+00,3.302e+00,3.615e+00,2.917e+00,5.396e+00,3.293e+00,6.017e+00,5.302e+00,7.733e+00,7.165e+00,6.524e+00,6.654e+00,7.749e+00,6.389e+00,7.452e+00,9.061e+00,7.815e+00,8.304e+00,8.298e+00,9.982e+00,1.034e+01,9.540e+00,9.395e+00,9.470e+00,7.116e+00,9.107e+00,1.119e+01,1.168e+01,1.154e+01,1.209e+01,1.202e+01,1.014e+01,1.204e+01,1.108e+01,1.084e+01,1.177e+01,1.174e+01,1.191e+01,1.395e+01,1.467e+01,1.166e+01,1.333e+01,1.426e+01,1.489e+01,1.541e+01,1.405e+01,1.647e+01,1.413e+01,1.674e+01,1.436e+01,1.672e+01,1.656e+01,1.559e+01,1.569e+01,1.429e+01,1.676e+01,1.590e+01,1.648e+01,1.867e+01,1.874e+01,1.776e+01,1.960e+01,1.875e+01,2.017e+01,1.881e+01,1.845e+01,1.616e+01,1.738e+01,1.990e+01,1.846e+01,1.869e+01,1.895e+01,1.892e+01,1.929e+01,2.015e+01,2.013e+01,1.760e+01
4.805e-03,7.979e-02,7.036e-02,1.049e-01,6.438e-01,7.998e-01,1.237e+00,1.384e+00,1.162e+00,2.764e+00,2.431e+00,1.975e+00,2.117e+00,2.589e+00,2.118e+00,2.863e+00,3.247e+00,3.663e+00,4.428e+00,3.949e+00,3.483e+00,4.547e+00,4.190e+00,4.659e+00,5.463e+00,5.542e+00,5.084e+00,4.672e+00,6.052e+00,6.687e+00,5.684e+00,6.146e+00,8.278e+00,5.598e+00,6.496e+00,8.670e+00,9.602e+00,9.152e+00,8.497e+00,9.632e+00,7.651e+00,1.066e+01,8.292e+00,8.996e+00,9.122e+00,9.748e+00,8.594e+00,1.102e+01,1.257e+01,8.766e+00,1.179e+01,1.216e+01,1.360e+01,1.211e+01,1.231e+01,1.537e+01,1.405e+01,1.481e+01,1.232e+01,1.460e+01,1.497e+01,1.371e+01,1.377e+01,1.434e+01,1.599e+01,1.568e+01,1.731e+01,1.802e+01,1.609e+01,1.630e+01,1.725e+01,1.937e+01,2.006e+01,1.994e+01,1.830e+01,1.557e+01,1.754e+01,1.901e+01,1.851e+01,1.592e+01,1.824e+01,1.926e+01,1.863e+01,1.988e+01,1.840e+01,1.779e+01
4.512e-01,2.106e-01,7.046e-01,4.573e-01,1.481e+00,1.647e+00,2.032e+00,2.240e+00,1.689e+00,2.396e+00,3.421e+00,3.229e+00,3.148e+00,3.836e+00,2.697e+00,4.577e+00,4.448e+00,5.474e+00,5.861e+00,5.211e+00,6.233e+00,6.481e+00,5.168e+00,7.344e+00,7.981e+00,7.276e+00,7.035e+00,6.017e+00,7.249e+00,7.904e+00,7.698e+00,6.597e+00,8.294e+00,5.880e+00,8.002e+00,9.056e+00,9.596e+00,1.091e+01,9.352e+00,1.101e+01,8.328e+00,1.075e+01,1.030e+01,9.808e+00,9.999e+00,1.051e+01,1.075e+01,1.141e+01,1.308e+01,9.836e+00,1.306e+01,1.275e+01,1.241e+01,1.324e+01,1.133e+01,1.425e+01,1.430e+01,1.538e+01,1.310e+01,1.435e+01,1.511e+01,1.415e+01,1.453e+01,1.444e+01,1.623e+01,1.509e+01,1.645e+01,1.612e+01,1.666e+01,1.708e+01,1.653e+01,1.912e+01,1.962e+01,1.943e+01,1.877e+01,1.695e+01,1.784e+01,1.965e+01,1.919e+01,1.882e+01,1.881e+01,1.880e+01,2.070e+01,2.101e+01,1.953e+01,1.860e+01
5.657e-01,1.683e-01,7.333e-01,3.771e-01,1.230e+00,1.378e+00,1.728e+00,2.037e+00,2.295e+00,3.133e+00,3.626e+00,3.128e+00,3.406e+00,4.763e+00,3.831e+00,5.782e+00,4.770e+00,6.165e+00,7.110e+00,5.611e+00,6.256e+00,6.738e+00,5.301e+00,6.379e+00,7.678e+00,6.762e+00,7.702e+00,6.111e+00,8.195e+00,8.101e+00,7.060e+00,7.619e+00,8.298e+00,6.028e+00,6.816e+00,8.773e+00,9.583e+00,9.588e+00,9.994e+00,9.640e+00,7.942e+00,1.208e+01,8.888e+00,1.043e+01,1.047e+01,1.120e+01,9.926e+00,1.244e+01,1.308e+01,1.046e+01,1.286e+01,1.146e+01,1.584e+01,1.380e+01,1.314e+01,1.685e+01,1.373e+01,1.667e+01,1.379e+01,1.502e+01,1.515e+01,1.634e+01,1.498e+01,1.520e+01,1.616e+01,1.503e+01,1.712e+01,1.789e+01,1.759e+01,1.802e+01,1.643e+01,1.710e+01,2.041e+01,2.089e+01,1.992e+01,1.754e+01,1.817e+01,2.128e+01,2.110e+01,1.764e+01,1.823e+01,2.013e+01,2.135e+01,2.286e+01,1.992e+01,1.987e+01
3.225e-01,2.854e-01,6.831e-01,5.420e-01,1.650e+00,1.680e+00,1.746e+00,2.105e+00,2.122e+00,2.544e+00,2.933e+00,3.747e+00,3.141e+00,5.028e+00,3.545e+00,5.659e+00,4.678e+00,6.234e+00,6.888e+00,6.205e+00,6.533e+00,6.824e+00,5.243e+00,6.525e+00,8.151e+00,7.807e+00,7.053e+00,6.988e+00,8.141e+00,8.026e+00,7.715e+00,8.636e+00,8.243e+00,7.046e+00,7.400e+00,8.585e+00,9.418e+00,1.023e+01,1.040e+01,9.851e+00,9.123e+00,1.169e+01,1.031e+01,9.995e+00,1.089e+01,1.132e+01,1.103e+01,1.263e+01,1.395e+01,1.090e+01,1.321e+01,1.203e+01,1.589e+01,1.281e+01,1.281e+01,1.550e+01,1.489e+01,1.664e+01,1.364e+01,1.543e+01,1.611e+01,1.646e+01,1.516e+01,1.679e+01,1.691e+01,1.589e+01,1.711e+01,1.693e+01,1.741e+01,1.706e+01,1.720e+01,1.901e+01,2.027e+01,1.861e+01,2.133e+01,1.775e+01,1.671e+01,2.088e+01,1.956e+01,1.957e+01,1.907e+01,2.152e+01,1.984e+01,2.091e+01,2.021e+01,1.921e+01
2.980e-01,2.595e-01,6.304e-01,4.806e-01,1.428e+00,1.422e+00,1.459e+00,1.935e+00,1.945e+00,2.360e+00,2.999e+00,3.174e+00,3.027e+00,4.646e+00,4.037e+00,5.393e+00,5.037e+00,5.983e+00,7.022e+00,5.945e+00,7.149e+00,7.335e+00,5.374e+00,6.912e+00,8.847e+00,8.211e+00,7.782e+00,7.756e+00,9.808e+00,9.981e+00,9.164e+00,8.655e+00,1.013e+01,7.656e+00,9.404e+00,1.063e+01,1.176e+01,1.186e+01,1.150e+01,1.186e+01,9.511e+00,1.292e+01,1.075e+01,1.221e+01,1.187e+01,1.320e+01,1.277e+01,1.395e+01,1.494e+01,1.209e+01,1.464e+01,1.407e+01,1.672e+01,1.520e+01,1.330e+01,1.660e+01,1.554e+01,1.751e+01,1.554e+01,1.638e+01,1.608e+01,1.733e+01,1.649e+01,1.750e+01,1.873e+01,1.690e+01,1.816e+01,1.793e+01,1.871e+01,1.788e+01,1.844e+01,1.968e+01,2.266e+01,2.108e+01,2.181e+01,1.963e+01,1.944e+01,2.376e+01,2.251e+01,2.125e+01,2.253e+01,2.331e+01,2.404e+01,2.331e+01,2.181e+01,2.136e+01
1.048e-01,6.876e-02,1.848e-01,2.334e-01,1.023e+00,1.166e+00,1.819e+00,1.760e+00,1.419e+00,2.448e+00,2.416e+00,2.172e+00,2.453e+00,2.819e+00,2.302e+00,3.215e+00,2.697e+00,4.081e+00,4.984e+00,4.270e+00,4.810e+00,5.877e+00,4.608e+00,6.243e+00,7.037e+00,6.486e+00,6.655e+00,5.975e+00,7.712e+00,8.184e+00,6.925e+00,7.494e+00,7.990e+00,6.498e+00,7.754e+00,1.015e+01,1.020e+01,1.197e+01,9.836e+00,1.194e+01,8.743e+00,1.199e+01,1.015e+01,1.037e+01,9.803e+00,1.105e+01,1.074e+01,1.216e+01,1.438e+01,1.000e+01,1.239e+01,1.310e+01,1.577e+01,1.249e+01,1.236e+01,1.644e+01,1.398e+01,1.699e+01,1.345e+01,1.533e+01,1.724e+01,1.448e+01,1.432e+01,1.614e+01,1.713e+01,1.683e+01,1.632e+01,1.709e+01,1.571e+01,1.664e+01,1.822e+01,2.084e+01,2.173e+01,2.052e+01,2.081e+01,1.798e+01,1.966e+01,2.317e+01,2.063e+01,1.891e+01,2.143e+01,2.262e+01,2.091e+01,2.242e+01,2.078e+01,2.079e+01
7.266e-01,2.219e-01,1.066e+00,6.668e-01,1.800e+00,1.898e+00,2.383e+00,2.567e+00,1.925e+00,2.336e+00,3.511e+00,2.620e+00,2.650e+00,4.167e+00,3.057e+00,4.955e+00,4.610e+00,5.980e+00,5.980e+00,4.894e+00,5.390e+00,5.893e+00,5.291e+00,6.559e+00,7.595e+00,6.462e+00,8.142e+00,5.699e+00,7.693e+00,7.797e+00,7.353e+00,7.730e+00,8.110e+00,5.934e+00,7.119e+00,8.608e+00,9.892e+00,9.685e+00,9.076e+00,1.045e+01,8.138e+00,1.121e+01,8.976e+00,1.039e+01,9.490e+00,1.010e+01,9.892e+00,1.163e+01,1.223e+01,9.174e+00,1.142e+01,1.154e+01,1.253e+01,1.073e+01,1.110e+01,1.358e+01,1.114e+01,1.359e+01,1.130e+01,1.267e+01,1.340e+01,1.380e+01,1.187e+01,1.237e+01,1.429e+01,1.452e+01,1.460e+01,1.533e+01,1.621e+01,1.521e+01,1.486e+01,1.740e+01,1.692e+01,1.625e+01,1.672e+01,1.417e+01,1.551e+01,1.932e+01,1.648e+01,1.915e+01,1.820e+01,1.893e+01,1.835e+01,1.909e+01,1.856e+01,1.811e+01
5.700e-01,3.133e-01,8.880e-01,5.011e-01,1.651e+00,1.911e+00,2.037e+00,2.362e+00,2.403e+00,2.561e+00,3.076e+00,3.013e+00,3.110e+00,4.177e+00,3.157e+00,4.980e+00,4.067e+00,5.590e+00,5.922e+00,5.138e+00,6.326e+00,6.710e+00,4.871e+00,6.005e+00,7.481e+00,7.216e+00,7.537e+00,7.349e+00,7.803e+00,8.628e+00,8.642e+00,8.836e+00,9.663e+00,6.963e+00,7.603e+00,1.015e+01,1.068e+01,1.185e+01,1.142e+01,1.161e+01,9.164e+00,1.172e+01,1.013e+01,1.117e+01,1.160e+01,1.118e+01,1.103e+01,1.283e+01,1.387e+01,1.044e+01,1.416e+01,1.321e+01,1.645e+01,1.283e+01,1.273e+01,1.632e+01,1.426e+01,1.667e+01,1.409e+01,1.581e+01,1.584e+01,1.488e+01,1.469e+01,1.493e+01,1.686e+01,1.549e+01,1.609e+01,1.660e+01,1.610e+01,1.717e+01,1.671e+01,1.916e+01,1.939e+01,1.951e+01,1.973e+01,1.664e+01,1.778e+01,2.013e+01,2.001e+01,1.867e+01,2.020e+01,2.174e+01,2.116e+01,2.113e+01,2.175e+01,1.850e+01
6.603e-02,2.661e-01,5.407e-01,5.442e-01,1.232e+00,1.082e+00,9.804e-01,1.538e+00,1.322e+00,1.390e+00,1.932e+00,1.971e+00,2.109e+00,3.470e+00,2.680e+00,3.312e+00,3.495e+00,3.969e+00,4.617e+00,4.164e+00,4.706e+00,4.788e+00,3.564e+00,4.585e+00,5.400e+00,4.945e+00,4.911e+00,4.489e+00,5.671e+00,5.902e+00,5.892e+00,5.875e+00,6.974e+00,4.708e+00,6.111e+00,6.932e+00,6.549e+00,7.949e+00,7.641e+00,8.754e+00,6.494e+00,9.197e+00,7.999e+00,8.728e+00,8.204e+00,9.594e+00,8.495e+00,1.005e+01,1.172e+01,8.084e+00,1.101e+01,1.031e+01,1.316e+01,1.134e+01,1.038e+01,1.244e+01,1.229e+01,1.323e+01,1.188e+01,1.266e+01,1.270e+01,1.290e+01,1.183e+01,1.353e+01,1.398e+01,1.302e+01,1.590e+01,1.521e+01,1.446e+01,1.379e+01,1.421e+01,1.638e+01,1.823e+01,1.667e+01,1.863e+01,1.593e+01,1.725e+01,1.997e+01,1.730e+01,1.630e+01,1.887e+01,1.887e+01,1.923e+01,1.977e+01,1.878e+01,1.787e+01
3.511e-01,2.081e-01,8.749e-01,8.241e-01,1.736e+00,1.452e+00,1.759e+00,2.164e+00,1.390e+00,1.479e+00,2.330e+00,2.867e+00,2.215e+00,3.830e+00,2.650e+00,4.780e+00,4.185e+00,6.132e+00,6.272e+00,5.471e+00,6.431e+00,6.704e+00,4.637e+00,6.777e+00,9.110e+00,7.479e+00,7.526e+00,7.292e+00,9.173e+00,8.851e+00,1.033e+01,8.832e+00,9.531e+00,7.406e+00,8.637e+00,1.105e+01,1.195e+01,1.174e+01,1.152e+01,1.245e+01,9.476e+00,1.287e+01,1.247e+01,1.225e+01,1.174e+01,1.252e+01,1.325e+01,1.409e+01,1.462e+01,1.174e+01,1.380e+01,1.379e+01,1.666e+01,1.528e+01,1.355e+01,1.622e+01,1.502e+01,1.751e+01,1.509e+01,1.687e+01,1.736e+01,1.569e+01,1.517e+01,1.610e+01,1.797e+01,1.684e+01,1.770e+01,1.719e+01,1.797e+01,1.689e+01,1.821e+01,1.888e+01,2.017e+01,1.977e+01,1.980e+01,1.748e+01,1.990e+01,2.346e+01,2.112e+01,2.104e+01,2.290e+01,2.246e+01,2.292e+01,2.467e+01,2.144e+01,2.102e+01
3.495e-01,2.134e-01,5.106e-01,3.099e-01,1.248e+00,1.473e+00,1.623e+00,1.797e+00,2.441e+00,2.800e+00,3.126e+00,3.370e+00,3.049e+00,3.999e+00,3.577e+00,4.363e+00,4.175e+00,5.595e+00,5.389e+00,4.602e+00,5.893e+00,5.252e+00,5.684e+00,5.594e+00,7.506e+00,6.196e+00,7.206e+00,6.345e+00,8.182e+00,8.811e+00,6.659e+00,8.033e+00,8.229e+00,5.783e+00,7.365e+00,9.486e+00,1.066e+01,1.094e+01,9.751e+00,1.007e+01,9.257e+00,1.156e+01,9.881e+00,9.874e+00,1.068e+01,1.137e+01,9.773e+00,1.306e+01,1.466e+01,1.110e+01,1.342e+01,1.349e+01,1.530e+01,1.171e+01,1.220e+01,1.665e+01,1.403e+01,1.550e+01,1.401e+01,1.454e+01,1.488e+01,1.551e+01,1.447e+01,1.493e+01,1.749e+01,1.654e+01,1.507e+01,1.596e+01,1.753e+01,1.647e+01,1.674e+01,1.769e+01,1.866e+01,1.813e+01,1.804e+01,1.537e+01,1.570e+01,1.851e+01,1.918e+01,1.943e+01,2.093e+01,2.236e+01,2.083e+01,2.139e+01,2.196e+01,1.979e+01
1.782e-01,2.585e-01,3.733e-01,2.244e-01,1.090e+00,1.330e+00,1.269e+00,1.546e+00,1.484e+00,2.096e+00,2.873e+00,3.033e+00,2.747e+00,3.898e+00,3.612e+00,4.611e+00,4.269e+00,5.744e+00,6.778e+00,5.771e+00,7.205e+00,6.855e+00,5.478e+00,7.332e+00,8.493e+00,7.524e+00,7.161e+00,6.432e+00,8.647e+00,8.857e+00,8.638e+00,8.268e+00,9.651e+00,7.322e+00,9.117e+00,1.062e+01,1.113e+01,1.167e+01,1.167e+01,1.209e+01,9.530e+00,1.251e+01,1.127e+01,1.086e+01,1.141e+01,1.176e+01,1.117e+01,1.288e+01,1.396e+01,1.209e+01,1.341e+01,1.396e+01,1.708e+01,1.305e+01,1.216e+01,1.644e+01,1.618e+01,1.744e+01,1.476e+01,1.582e+01,1.563e+01,1.589e+01,1.343e+01,1.768e+01,1.726e+01,1.725e+01,1.618e+01,1.552e+01,1.681e+01,1.686e+01,1.745e+01,2.024e+01,2.078e+01,2.115e+01,2.019e+01,1.804e+01,1.846e+01,2.078e+01,2.006e+01,1.943e+01,2.319e+01,2.378e+01,2.353e+01,2.459e+01,2.292e+01,2.187e+01
6.012e-01,3.296e-01,1.143e+00,8.417e-01,2.112e+00,2.085e+00,2.376e+00,2.957e+00,2.228e+00,2.618e+00,4.170e+00,3.629e+00,3.584e+00,4.625e+00,3.544e+00,4.683e+00,3.976e+00,5.799e+00,6.158e+00,5.818e+00,6.646e+00,6.335e+00,5.277e+00,6.328e+00,7.961e+00,7.391e+00,7.471e+00,6.195e+00,8.323e+00,7.869e+00,7.947e+00,7.856e+00,8.223e+00,6.814e+00,8.343e+00,8.746e+00,1.019e+01,1.161e+01,1.030e+01,1.168e+01,8.551e+00,1.269e+01,1.112e+01,1.070e+01,1.069e+01,1.077e+01,1.050e+01,1.182e+01,1.575e+01,1.096e+01,1.299e+01,1.369e+01,1.524e+01,1.276e+01,1.192e+01,1.512e+01,1.440e+01,1.450e+01,1.290e+01,1.469e+01,1.466e+01,1.425e+01,1.360e+01,1.541e+01,1.528e+01,1.643e+01,1.540e+01,1.623e+01,1.555e+01,1.544e+01,1.640e+01,1.786e+01,1.960e+01,1.931e+01,1.780e+01,1.731e+01,1.752e+01,1.998e+01,1.751e+01,1.928e+01,2.155e+01,2.187e+01,2.193e+01,2.209e+01,2.071e+01,1.997e+01
7.889e-02,2.916e-01,3.505e-01,2.387e-01,1.001e+00,1.275e+00,1.163e+00,1.545e+00,1.472e+00,2.555e+00,2.607e+00,2.694e+00,2.319e+00,2.972e+00,2.860e+00,3.348e+00,3.346e+00,4.842e+00,5.423e+00,4.312e+00,5.578e+00,5.363e+00,4.647e+00,5.452e+00,7.420e+00,6.061e+00,7.132e+00,5.318e+00,8.008e+00,7.678e+00,7.247e+00,8.179e+00,8.148e+00,6.215e+00,7.316e+00,9.831e+00,1.068e+01,1.191e+01,1.056e+01,1.186e+01,8.252e+00,1.187e+01,1.027e+01,1.007e+01,9.946e+00,1.128e+01,1.103e+01,1.299e+01,1.487e+01,1.199e+01,1.371e+01,1.326e+01,1.576e+01,1.373e+01,1.248e+01,1.571e+01,1.453e+01,1.588e+01,1.407e+01,1.640e+01,1.688e+01,1.605e+01,1.321e+01,1.580e+01,1.644e+01,1.576e+01,1.745e+01,1.634e+01,1.741e+01,1.749e+01,1.673e+01,2.080e+01,2.097e+01,2.066e+01,1.941e+01,1.730e+01,1.783e+01,2.046e+01,2.051e+01,2.065e+01,2.336e+01,2.330e+01,2.319e+01,2.312e+01,2.307e+01,2.188e+01
5.957e-01,4.005e-01,1.075e+00,6.289e-01,1.766e+00,1.832e+00,1.588e+00,2.264e+00,1.855e+00,1.952e+00,2.472e+00,2.849e+00,2.783e+00,4.277e+00,2.822e+00,4.794e+00,4.258e+00,5.352e+00,5.760e+00,4.711e+00,5.842e+00,6.495e+00,4.563e+00,5.985e+00,6.806e+00,6.056e+00,5.881e+00,6.299e+00,6.859e+00,7.617e+00,7.025e+00,7.850e+00,8.882e+00,6.843e+00,7.812e+00,8.758e+00,9.853e+00,1.023e+01,9.263e+00,1.008e+01,8.826e+00,1.143e+01,9.725e+00,1.156e+01,1.058e+01,1.108e+01,9.937e+00,1.178e+01,1.476e+01,1.065e+01,1.427e+01,1.343e+01,1.545e+01,1.319e+01,1.253e+01,1.649e+01,1.481e+01,1.575e+01,1.430e+01,1.594e+01,1.618e+01,1.666e+01,1.589e+01,1.632e+01,1.827e+01,1.656e+01,1.808e+01,1.810e+01,1.792e+01,1.767e+01,1.803e+01,1.867e+01,1.940e+01,1.875e+01,1.897e+01,1.623e+01,1.714e+01,2.082e+01,2.136e+01,1.930e+01,1.985e+01,2.311e+01,2.244e+01,2.173e+01,2.248e+01,2.034e+01
