4.692e-01,4.291e-01,3.939e-01,6.370e-01,1.821e-01,1.931e-01,1.823e-01,9.538e-01,3.661e-01,5.172e-01,3.775e-01,6.230e-01,9.905e-01,4.397e-01,9.172e-01,2.136e-02,5.788e-01,8.550e-01,9.124e-01,7.243e-01,3.891e-01,7.857e-01,3.371e-02,5.036e-01,8.204e-01,7.681e-01,8.685e-01,7.734e-01,4.879e-02,5.279e-01,1.170e-01,2.111e-01,4.365e-01,9.822e-01,9.282e-01,3.654e-01,1.643e-01,4.457e-01,2.818e-01,4.610e-01,9.230e-01,9.867e-01,7.805e-01,2.509e-01,9.984e-01,2.476e-01,6.384e-01,1.619e-01,6.506e-01,8.794e-02,9.399e-01,6.969e-01,6.617e-01,6.949e-01,2.733e-01,6.486e-01,8.975e-03,7.504e-01,3.850e-02,5.167e-01,6.311e-01,9.138e-01,7.750e-01,1.581e-01,5.214e-01,4.746e-01,2.591e-02,6.643e-01,8.758e-01
3.889e-01,9.422e-01,3.989e-01,5.693e-01,8.293e-01,1.026e+00,4.150e-01,1.589e+00,9.896e-01,8.221e-01,4.882e-01,1.018e+00,1.278e+00,1.095e+00,1.732e+00,9.792e-01,1.105e+00,1.510e+00,8.232e-01,1.368e+00,3.341e-01,1.194e+00,8.316e-01,4.337e-01,1.129e+00,9.605e-01,1.425e+00,9.087e-01,4.654e-01,4.638e-01,4.246e-01,4.270e-01,6.562e-01,1.373e+00,8.266e-01,8.727e-01,4.436e-01,5.339e-01,3.983e-01,1.218e+00,1.530e+00,1.606e+00,9.893e-01,3.282e-01,1.665e+00,8.867e-01,1.381e+00,6.232e-01,6.131e-01,2.592e-01,1.108e+00,7.776e-01,9.688e-01,1.260e+00,1.153e+00,8.108e-01,9.649e-02,1.166e+00,9.115e-01,1.014e+00,1.458e+00,1.325e+00,1.051e+00,8.856e-01,1.079e+00,1.335e+00,1.644e-01,1.107e+00,9.294e-01
1.701e-01,6.659e-01,4.105e-01,1.054e+00,1.212e+00,1.649e+00,9.839e-01,1.673e+00,7.578e-01,1.308e+00,6.461e-01,1.065e+00,8.065e-01,1.580e+00,1.207e+00,1.410e+00,7.753e-01,1.620e+00,8.181e-01,1.871e+00,6.734e-01,8.939e-01,1.335e+00,5.785e-01,1.322e+00,1.036e+00,1.069e+00,1.164e+00,1.124e+00,6.920e-01,5.475e-01,3.274e-01,1.309e+00,1.402e+00,1.116e+00,1.516e+00,1.207e+00,1.260e+00,7.370e-01,9.371e-01,1.719e+00,1.257e+00,1.027e+00,2.581e-01,1.138e+00,1.376e+00,1.539e+00,5.660e-01,1.262e+00,8.905e-01,8.828e-01,6.483e-01,1.375e+00,1.283e+00,1.017e+00,6.088e-01,9.672e-01,9.705e-01,1.018e+00,1.037e+00,1.383e+00,9.394e-01,1.368e+00,1.377e+00,1.117e+00,1.524e+00,9.022e-01,1.619e+00,1.413e+00
6.405e-02,2.208e-01,2.317e-01,8.614e-01,1.550e+00,1.697e+00,1.546e+00,9.221e-01,4.434e-01,1.683e+00,7.738e-01,8.997e-01,4.832e-01,9.026e-01,4.273e-01,1.267e+00,5.444e-01,1.193e+00,6.964e-01,1.374e+00,5.534e-01,1.350e+00,1.566e+00,1.095e+00,1.540e+00,8.089e-01,1.192e+00,8.793e-01,1.239e+00,1.438e+00,8.659e-01,5.791e-01,1.666e+00,1.404e+00,1.201e+00,1.714e+00,1.515e+00,1.408e+00,1.403e+00,9.951e-01,1.554e+00,7.922e-01,5.903e-01,5.941e-01,1.144e+00,1.409e+00,1.398e+00,6.027e-01,1.660e+00,7.440e-01,1.332e+00,8.430e-01,1.381e+00,6.245e-01,1.355e+00,1.014e+00,1.056e+00,7.208e-01,1.411e+00,9.918e-01,8.791e-01,9.547e-01,1.378e+00,9.593e-01,6.803e-01,1.187e+00,9.705e-01,1.580e+00,1.395e+00
3.713e-01,6.165e-01,4.757e-01,1.050e+00,1.247e+00,1.791e+00,1.049e+00,1.738e+00,7.360e-01,1.545e+00,8.837e-01,1.874e+00,1.317e+00,1.660e+00,1.337e+00,1.345e+00,1.276e+00,2.470e+00,1.794e+00,2.114e+00,1.404e+00,2.026e+00,1.903e+00,8.890e-01,2.323e+00,1.952e+00,1.830e+00,1.194e+00,1.215e+00,1.793e+00,8.066e-01,6.422e-01,1.609e+00,2.498e+00,1.321e+00,1.752e+00,1.263e+00,1.811e+00,1.378e+00,1.199e+00,1.748e+00,2.250e+00,1.395e+00,4.812e-01,1.579e+00,1.446e+00,1.831e+00,1.069e+00,1.693e+00,7.195e-01,2.044e+00,1.340e+00,1.668e+00,1.209e+00,1.228e+00,1.402e+00,1.415e+00,1.519e+00,1.636e+00,1.526e+00,1.550e+00,1.665e+00,1.921e+00,1.187e+00,1.947e+00,2.178e+00,9.109e-01,1.669e+00,2.181e+00
4.433e-01,5.675e-01,4.446e-01,8.302e-01,7.021e-01,1.142e+00,1.174e+00,1.540e+00,9.197e-01,1.575e+00,7.889e-01,1.384e+00,1.343e+00,1.651e+00,2.072e+00,8.365e-01,1.927e+00,1.824e+00,1.922e+00,2.343e+00,1.460e+00,1.919e+00,1.454e+00,1.233e+00,1.952e+00,1.642e+00,1.767e+00,1.940e+00,1.382e+00,1.298e+00,7.185e-01,4.593e-01,1.203e+00,2.538e+00,1.779e+00,1.750e+00,1.203e+00,1.994e+00,1.704e+00,1.360e+00,1.514e+00,2.227e+00,1.327e+00,8.146e-01,2.097e+00,9.673e-01,1.303e+00,1.535e+00,1.852e+00,9.343e-01,1.801e+00,1.181e+00,1.208e+00,1.196e+00,1.414e+00,1.411e+00,1.033e+00,1.198e+00,8.634e-01,1.960e+00,1.120e+00,1.505e+00,1.777e+00,1.359e+00,1.426e+00,1.639e+00,1.042e+00,1.172e+00,2.149e+00
2.628e-01,4.861e-01,2.823e-01,5.952e-01,1.227e+00,1.494e+00,1.186e+00,2.072e+00,1.143e+00,2.379e+00,1.457e+00,1.811e+00,1.511e+00,1.195e+00,2.098e+00,1.812e+00,1.576e+00,2.555e+00,1.676e+00,1.925e+00,1.187e+00,2.900e+00,2.438e+00,1.615e+00,2.491e+00,1.814e+00,1.828e+00,1.301e+00,1.295e+00,2.228e+00,1.566e+00,7.939e-01,2.246e+00,2.170e+00,1.707e+00,2.455e+00,1.981e+00,2.145e+00,2.369e+00,1.603e+00,1.465e+00,2.088e+00,1.030e+00,1.020e+00,2.131e+00,1.991e+00,2.223e+00,1.953e+00,2.123e+00,7.708e-01,1.903e+00,1.409e+00,1.984e+00,1.136e+00,2.070e+00,2.128e+00,1.908e+00,1.476e+00,1.906e+00,2.108e+00,1.632e+00,1.761e+00,2.479e+00,1.534e+00,1.530e+00,2.115e+00,1.560e+00,2.163e+00,2.310e+00
2.046e-01,4.752e-01,3.290e-01,8.191e-01,1.058e+00,1.364e+00,1.217e+00,1.734e+00,1.683e+00,2.229e+00,1.559e+00,1.636e+00,1.161e+00,2.126e+00,2.330e+00,1.870e+00,1.766e+00,2.488e+00,1.403e+00,2.808e+00,1.612e+00,2.213e+00,2.291e+00,1.527e+00,1.858e+00,1.303e+00,2.198e+00,2.362e+00,1.501e+00,1.504e+00,1.006e+00,7.280e-01,2.170e+00,1.826e+00,1.805e+00,2.348e+00,2.463e+00,2.396e+00,2.353e+00,1.449e+00,1.916e+00,1.951e+00,1.363e+00,1.641e+00,2.279e+00,1.545e+00,1.837e+00,1.890e+00,2.455e+00,1.741e+00,1.880e+00,1.160e+00,1.974e+00,1.782e+00,1.558e+00,1.517e+00,1.835e+00,1.286e+00,1.787e+00,2.551e+00,1.626e+00,1.383e+00,1.804e+00,2.321e+00,1.925e+00,2.464e+00,1.309e+00,1.936e+00,1.795e+00
5.217e-02,3.290e-01,1.791e-01,5.679e-01,1.228e+00,1.502e+00,1.184e+00,1.272e+00,1.778e+00,2.842e+00,2.230e+00,1.761e+00,1.478e+00,1.864e+00,2.357e+00,1.991e+00,1.730e+00,3.211e+00,1.813e+00,2.730e+00,2.178e+00,2.682e+00,2.608e+00,1.810e+00,2.634e+00,1.577e+00,2.707e+00,1.701e+00,1.761e+00,1.901e+00,1.924e+00,1.593e+00,2.355e+00,1.906e+00,2.006e+00,2.668e+00,2.580e+00,2.156e+00,2.715e+00,1.379e+00,1.864e+00,1.891e+00,1.272e+00,1.501e+00,2.063e+00,1.607e+00,1.824e+00,2.614e+00,2.189e+00,1.707e+00,2.296e+00,1.993e+00,1.894e+00,1.799e+00,2.155e+00,1.762e+00,2.299e+00,1.880e+00,2.688e+00,2.386e+00,2.417e+00,1.285e+00,1.905e+00,2.488e+00,2.466e+00,3.045e+00,1.132e+00,2.148e+00,1.744e+00
6.204e-02,3.267e-01,2.370e-01,7.305e-01,1.139e+00,1.733e+00,1.619e+00,1.651e+00,2.058e+00,4.229e+00,2.856e+00,3.053e+00,2.456e+00,2.803e+00,3.872e+00,2.756e+00,3.514e+00,4.301e+00,3.450e+00,4.670e+00,3.306e+00,4.051e+00,3.928e+00,2.203e+00,3.387e+00,2.245e+00,3.478e+00,2.905e+00,3.225e+00,2.816e+00,2.171e+00,1.612e+00,3.215e+00,2.812e+00,3.560e+00,3.947e+00,3.242e+00,3.842e+00,3.905e+00,1.841e+00,2.489e+00,3.419e+00,1.935e+00,1.999e+00,3.291e+00,2.658e+00,2.165e+00,3.529e+00,3.186e+00,2.434e+00,3.128e+00,2.773e+00,2.330e+00,2.874e+00,2.607e+00,2.551e+00,3.702e+00,1.993e+00,3.108e+00,3.897e+00,2.638e+00,1.736e+00,3.439e+00,4.112e+00,3.368e+00,4.523e+00,2.475e+00,2.916e+00,2.764e+00
1.273e-01,5.003e-01,2.230e-01,5.642e-01,1.375e+00,1.718e+00,1.384e+00,1.623e+00,1.269e+00,2.726e+00,2.584e+00,2.384e+00,2.609e+00,2.070e+00,2.966e+00,2.729e+00,2.529e+00,2.894e+00,2.914e+00,2.897e+00,1.576e+00,3.281e+00,2.800e+00,1.887e+00,3.116e+00,2.091e+00,2.630e+00,2.149e+00,2.505e+00,2.566e+00,2.477e+00,1.087e+00,2.245e+00,2.415e+00,2.597e+00,2.961e+00,2.851e+00,2.871e+00,3.355e+00,2.058e+00,2.781e+00,2.305e+00,2.064e+00,1.651e+00,3.086e+00,2.857e+00,2.162e+00,2.813e+00,2.213e+00,1.769e+00,2.666e+00,2.371e+00,1.789e+00,1.972e+00,2.876e+00,2.385e+00,2.904e+00,2.316e+00,3.223e+00,2.806e+00,2.533e+00,2.156e+00,3.323e+00,3.033e+00,2.460e+00,2.978e+00,1.885e+00,2.680e+00,2.480e+00
4.998e-02,2.171e-01,6.702e-02,1.832e-01,8.612e-01,1.042e+00,9.400e-01,1.387e+00,1.545e+00,2.762e+00,2.055e+00,2.373e+00,2.183e+00,2.000e+00,2.923e+00,1.969e+00,2.287e+00,2.999e+00,2.340e+00,2.421e+00,2.708e+00,3.811e+00,2.988e+00,2.415e+00,2.700e+00,2.284e+00,3.054e+00,1.616e+00,2.184e+00,2.588e+00,2.540e+00,1.590e+00,2.944e+00,2.413e+00,2.246e+00,2.731e+00,2.734e+00,3.224e+00,3.698e+00,1.946e+00,1.569e+00,2.862e+00,1.324e+00,2.422e+00,2.971e+00,2.553e+00,2.409e+00,3.574e+00,2.482e+00,1.344e+00,2.277e+00,2.096e+00,2.401e+00,1.992e+00,2.238e+00,2.112e+00,3.099e+00,2.442e+00,3.348e+00,3.318e+00,2.007e+00,1.508e+00,2.806e+00,3.206e+00,2.533e+00,2.794e+00,1.867e+00,2.995e+00,2.719e+00
4.463e-01,4.678e-01,5.855e-01,1.527e+00,1.715e+00,2.127e+00,2.036e+00,2.703e+00,2.193e+00,5.216e+00,4.427e+00,4.524e+00,5.257e+00,4.377e+00,5.128e+00,3.752e+00,4.116e+00,5.638e+00,5.957e+00,6.070e+00,4.716e+00,6.709e+00,5.499e+00,4.719e+00,5.452e+00,4.800e+00,5.622e+00,4.060e+00,4.501e+00,5.064e+00,4.910e+00,3.076e+00,5.716e+00,5.218e+00,5.494e+00,6.014e+00,5.409e+00,5.984e+00,6.392e+00,3.068e+00,5.425e+00,5.128e+00,4.084e+00,4.633e+00,5.816e+00,5.414e+00,4.009e+00,6.011e+00,5.139e+00,3.106e+00,5.332e+00,5.236e+00,4.597e+00,4.819e+00,4.462e+00,4.066e+00,5.964e+00,5.264e+00,6.184e+00,5.889e+00,4.093e+00,4.058e+00,6.556e+00,6.096e+00,4.657e+00,6.061e+00,4.266e+00,6.200e+00,5.153e+00
3.964e-01,8.831e-01,4.161e-01,7.516e-01,1.571e+00,1.907e+00,1.339e+00,2.620e+00,2.427e+00,4.173e+00,3.078e+00,3.735e+00,3.659e+00,3.802e+00,5.526e+00,3.415e+00,4.028e+00,5.821e+00,4.173e+00,4.899e+00,3.886e+00,5.867e+00,4.579e+00,3.514e+00,4.057e+00,3.146e+00,5.332e+00,3.168e+00,3.160e+00,4.255e+00,3.367e+00,2.933e+00,4.175e+00,4.020e+00,3.867e+00,4.996e+00,4.339e+00,4.126e+00,4.458e+00,3.613e+00,4.347e+00,4.815e+00,2.815e+00,3.326e+00,4.684e+00,3.675e+00,3.874e+00,4.649e+00,4.265e+00,2.624e+00,4.063e+00,4.380e+00,3.786e+00,3.512e+00,3.751e+00,3.884e+00,3.911e+00,3.854e+00,4.737e+00,5.039e+00,4.206e+00,3.927e+00,4.475e+00,4.925e+00,4.753e+00,4.922e+00,2.888e+00,4.451e+00,4.228e+00
3.901e-01,4.780e-01,4.423e-01,9.729e-01,1.090e+00,1.548e+00,1.229e+00,2.096e+00,1.698e+00,3.963e+00,3.652e+00,3.962e+00,4.302e+00,3.809e+00,5.460e+00,3.388e+00,4.539e+00,5.694e+00,5.883e+00,5.163e+00,5.115e+00,6.397e+00,4.639e+00,3.736e+00,5.036e+00,3.830e+00,5.950e+00,3.726e+00,4.017e+00,4.473e+00,4.450e+00,3.141e+00,4.336e+00,4.618e+00,4.500e+00,4.964e+00,4.495e+00,4.942e+00,5.601e+00,3.939e+00,5.165e+00,4.841e+00,3.580e+00,3.385e+00,5.039e+00,4.661e+00,4.084e+00,5.249e+00,4.296e+00,3.325e+00,4.420e+00,5.008e+00,3.478e+00,4.043e+00,4.257e+00,3.839e+00,5.201e+00,4.889e+00,5.130e+00,5.112e+00,4.637e+00,4.119e+00,6.006e+00,5.537e+00,5.791e+00,5.350e+00,3.985e+00,5.010e+00,5.491e+00
1.507e-02,1.464e-01,1.305e-01,4.830e-01,9.686e-01,1.346e+00,1.109e+00,1.027e+00,1.206e+00,3.171e+00,2.807e+00,3.193e+00,3.605e+00,3.655e+00,4.249e+00,3.369e+00,4.331e+00,4.661e+00,5.660e+00,5.784e+00,4.726e+00,6.574e+00,5.203e+00,3.928e+00,4.681e+00,4.297e+00,6.054e+00,3.401e+00,3.983e+00,4.636e+00,4.926e+00,3.643e+00,4.218e+00,4.313e+00,4.126e+00,5.424e+00,4.486e+00,4.892e+00,5.632e+00,4.387e+00,5.002e+00,4.805e+00,3.074e+00,3.926e+00,4.642e+00,5.462e+00,4.225e+00,5.428e+00,4.628e+00,3.742e+00,4.547e+00,5.037e+00,3.553e+00,4.766e+00,4.875e+00,3.398e+00,4.852e+00,5.423e+00,5.783e+00,4.888e+00,3.734e+00,4.266e+00,5.399e+00,5.723e+00,5.435e+00,5.201e+00,5.081e+00,5.601e+00,5.405e+00
6.788e-02,4.641e-01,2.125e-01,6.235e-01,1.586e+00,2.138e+00,1.563e+00,1.730e+00,1.325e+00,3.111e+00,2.222e+00,3.037e+00,2.985e+00,3.538e+00,4.024e+00,3.314e+00,3.998e+00,4.713e+00,5.203e+00,5.198e+00,4.459e+00,6.855e+00,5.538e+00,3.895e+00,5.233e+00,4.462e+00,5.917e+00,3.210e+00,3.879e+00,4.663e+00,5.175e+00,3.825e+00,4.545e+00,5.061e+00,4.180e+00,5.648e+00,4.358e+00,4.804e+00,6.125e+00,5.110e+00,5.255e+00,5.167e+00,3.549e+00,3.847e+00,4.687e+00,5.965e+00,5.460e+00,5.372e+00,4.512e+00,3.467e+00,4.350e+00,5.125e+00,4.062e+00,3.923e+00,5.187e+00,4.197e+00,4.948e+00,5.656e+00,5.856e+00,4.971e+00,4.014e+00,4.397e+00,5.970e+00,5.610e+00,5.524e+00,5.594e+00,4.556e+00,5.220e+00,6.094e+00
9.213e-02,4.658e-01,1.758e-01,4.010e-01,9.367e-01,1.212e+00,9.925e-01,1.024e+00,1.093e+00,1.890e+00,1.345e+00,1.160e+00,1.355e+00,2.118e+00,3.072e+00,1.841e+00,2.483e+00,3.082e+00,3.170e+00,4.032e+00,3.424e+00,3.769e+00,3.600e+00,3.005e+00,3.017e+00,2.521e+00,4.175e+00,2.261e+00,2.520e+00,2.745e+00,3.029e+00,3.182e+00,2.486e+00,3.476e+00,2.326e+00,4.066e+00,2.635e+00,2.412e+00,3.387e+00,3.997e+00,4.058e+00,2.988e+00,1.798e+00,2.049e+00,2.901e+00,2.923e+00,2.846e+00,3.619e+00,2.767e+00,2.476e+00,2.859e+00,3.219e+00,2.466e+00,2.494e+00,4.135e+00,2.840e+00,2.864e+00,3.534e+00,2.725e+00,3.500e+00,3.087e+00,2.969e+00,3.602e+00,3.200e+00,3.795e+00,3.414e+00,3.110e+00,2.950e+00,3.608e+00
7.952e-02,1.446e-01,1.622e-01,5.992e-01,1.336e+00,1.556e+00,1.590e+00,8.591e-01,1.180e+00,2.892e+00,2.576e+00,2.328e+00,3.037e+00,2.864e+00,2.865e+00,2.273e+00,2.587e+00,3.213e+00,4.082e+00,4.054e+00,3.560e+00,5.398e+00,4.896e+00,4.298e+00,3.990e+00,4.007e+00,5.155e+00,2.895e+00,3.393e+00,3.863e+00,5.220e+00,3.767e+00,4.534e+00,4.604e+00,3.535e+00,4.519e+00,4.233e+00,4.507e+00,5.331e+00,2.974e+00,4.561e+00,3.644e+00,3.739e+00,4.503e+00,4.820e+00,4.692e+00,3.181e+00,4.850e+00,3.654e+00,2.357e+00,4.139e+00,4.717e+00,3.410e+00,3.028e+00,4.926e+00,3.803e+00,4.236e+00,4.681e+00,5.658e+00,4.813e+00,3.234e+00,3.343e+00,5.366e+00,5.071e+00,4.090e+00,4.719e+00,3.563e+00,4.362e+00,4.096e+00
2.339e-01,7.998e-01,3.838e-01,9.336e-01,2.027e+00,2.468e+00,1.697e+00,2.417e+00,1.437e+00,3.506e+00,2.655e+00,3.539e+00,3.648e+00,2.965e+00,3.855e+00,3.852e+00,3.644e+00,4.378e+00,5.114e+00,5.968e+00,4.175e+00,7.112e+00,6.318e+00,3.805e+00,5.405e+00,4.977e+00,5.481e+00,3.190e+00,4.497e+00,4.874e+00,4.807e+00,3.882e+00,5.509e+00,5.760e+00,4.174e+00,5.816e+00,4.232e+00,4.691e+00,5.597e+00,5.495e+00,6.903e+00,6.007e+00,3.897e+00,4.557e+00,5.618e+00,7.294e+00,5.761e+00,4.919e+00,3.991e+00,2.939e+00,5.698e+00,5.248e+00,5.163e+00,5.055e+00,6.097e+00,5.077e+00,6.007e+00,5.587e+00,6.023e+00,6.131e+00,4.348e+00,5.030e+00,7.617e+00,5.192e+00,5.127e+00,7.059e+00,4.984e+00,6.223e+00,4.969e+00
1.508e-01,2.107e-01,1.837e-01,4.303e-01,5.993e-01,9.592e-01,1.025e+00,8.519e-01,1.178e+00,2.531e+00,1.823e+00,1.930e+00,2.056e+00,2.284e+00,3.204e+00,1.871e+00,3.249e+00,3.481e+00,4.327e+00,4.776e+00,4.006e+00,6.421e+00,5.002e+00,3.853e+00,4.851e+00,4.132e+00,5.267e+00,3.731e+00,3.264e+00,3.576e+00,4.700e+00,4.054e+00,4.408e+00,4.308e+00,4.423e+00,5.330e+00,4.124e+00,4.644e+00,5.050e+00,4.736e+00,5.330e+00,4.219e+00,3.635e+00,4.280e+00,4.549e+00,4.452e+00,3.714e+00,4.209e+00,3.838e+00,3.515e+00,4.063e+00,4.850e+00,4.076e+00,3.755e+00,5.031e+00,4.371e+00,4.103e+00,4.864e+00,4.033e+00,4.966e+00,3.220e+00,4.055e+00,5.387e+00,4.620e+00,5.423e+00,5.495e+00,3.952e+00,3.557e+00,5.161e+00
4.477e-01,8.078e-01,4.964e-01,1.024e+00,1.702e+00,2.242e+00,1.932e+00,2.836e+00,2.358e+00,4.133e+00,2.934e+00,3.563e+00,3.709e+00,3.895e+00,4.904e+00,3.198e+00,4.059e+00,5.244e+00,5.134e+00,6.118e+00,4.828e+00,7.467e+00,6.732e+00,5.208e+00,5.955e+00,5.815e+00,7.222e+00,4.547e+00,4.544e+00,5.467e+00,5.491e+00,4.238e+00,6.553e+00,6.461e+00,5.557e+00,6.627e+00,5.851e+00,6.504e+00,7.048e+00,5.201e+00,6.196e+00,6.654e+00,4.914e+00,5.467e+00,6.335e+00,6.480e+00,5.461e+00,6.579e+00,6.060e+00,3.724e+00,5.744e+00,6.211e+00,5.744e+00,4.490e+00,6.507e+00,5.750e+00,5.664e+00,6.062e+00,6.834e+00,7.437e+00,5.064e+00,4.836e+00,7.214e+00,6.264e+00,6.132e+00,6.926e+00,4.851e+00,6.145e+00,6.561e+00
3.990e-02,4.636e-01,1.808e-01,4.546e-01,9.490e-01,1.400e+00,8.433e-01,1.833e+00,1.160e+00,2.400e+00,1.715e+00,2.223e+00,2.006e+00,2.155e+00,3.210e+00,2.672e+00,2.866e+00,3.488e+00,3.855e+00,4.504e+00,3.881e+00,6.409e+00,5.818e+00,4.348e+00,6.102e+00,5.025e+00,5.786e+00,3.815e+00,4.198e+00,4.552e+00,4.846e+00,3.613e+00,6.118e+00,4.688e+00,4.893e+00,5.759e+00,5.117e+00,5.309e+00,5.277e+00,5.741e+00,6.301e+00,5.468e+00,4.218e+00,4.690e+00,4.286e+00,6.498e+00,5.455e+00,5.114e+00,4.643e+00,4.625e+00,3.925e+00,4.973e+00,5.487e+00,4.332e+00,6.229e+00,4.710e+00,5.315e+00,5.527e+00,5.426e+00,6.152e+00,4.583e+00,4.965e+00,6.273e+00,5.133e+00,6.003e+00,6.886e+00,4.553e+00,5.630e+00,6.010e+00
2.702e-02,3.262e-01,2.326e-01,8.574e-01,1.812e+00,2.278e+00,1.824e+00,2.191e+00,2.127e+00,4.579e+00,3.721e+00,4.075e+00,3.723e+00,4.045e+00,4.737e+00,4.362e+00,4.354e+00,5.707e+00,5.741e+00,6.861e+00,5.447e+00,8.625e+00,8.014e+00,6.899e+00,7.039e+00,6.658e+00,8.245e+00,5.993e+00,5.497e+00,7.174e+00,6.870e+00,5.217e+00,8.009e+00,6.541e+00,6.270e+00,8.017e+00,8.167e+00,8.696e+00,8.933e+00,6.280e+00,7.242e+00,7.388e+00,5.266e+00,7.197e+00,6.841e+00,8.366e+00,6.749e+00,7.070e+00,7.341e+00,5.878e+00,7.093e+00,7.174e+00,7.224e+00,5.524e+00,8.239e+00,6.276e+00,8.162e+00,6.985e+00,8.288e+00,9.054e+00,6.180e+00,5.979e+00,7.957e+00,7.817e+00,8.242e+00,7.997e+00,7.002e+00,8.726e+00,7.553e+00
8.818e-02,1.843e-01,2.822e-01,9.653e-01,1.343e+00,1.756e+00,1.473e+00,1.739e+00,1.511e+00,3.768e+00,2.909e+00,3.133e+00,2.925e+00,3.572e+00,4.005e+00,3.102e+00,3.340e+00,4.989e+00,5.009e+00,5.886e+00,5.469e+00,6.788e+00,6.207e+00,5.700e+00,6.361e+00,6.074e+00,7.413e+00,5.020e+00,5.560e+00,6.595e+00,5.582e+00,4.696e+00,6.843e+00,6.294e+00,5.142e+00,6.672e+00,6.875e+00,6.849e+00,7.040e+00,5.751e+00,6.402e+00,6.155e+00,4.252e+00,6.247e+00,4.992e+00,6.367e+00,6.249e+00,6.263e+00,5.885e+00,5.532e+00,6.118e+00,6.302e+00,6.651e+00,4.759e+00,6.558e+00,5.528e+00,7.376e+00,6.299e+00,6.644e+00,7.259e+00,5.156e+00,5.645e+00,7.273e+00,6.541e+00,6.994e+00,7.181e+00,5.315e+00,7.197e+00,6.204e+00
1.794e-01,6.046e-01,3.066e-01,7.047e-01,1.171e+00,1.590e+00,1.175e+00,2.014e+00,1.353e+00,2.588e+00,2.083e+00,2.599e+00,3.086e+00,3.829e+00,4.269e+00,3.208e+00,3.645e+00,4.208e+00,4.815e+00,6.064e+00,4.268e+00,7.136e+00,5.884e+00,5.470e+00,6.128e+00,6.949e+00,7.916e+00,5.770e+00,5.137e+00,6.491e+00,5.965e+00,4.731e+00,6.778e+00,6.361e+00,5.305e+00,7.559e+00,7.010e+00,7.097e+00,6.588e+00,7.484e+00,7.538e+00,7.156e+00,4.867e+00,7.548e+00,6.191e+00,7.357e+00,6.927e+00,6.675e+00,6.416e+00,5.796e+00,6.179e+00,6.942e+00,7.683e+00,5.714e+00,7.216e+00,6.130e+00,6.553e+00,7.480e+00,6.579e+00,7.978e+00,4.966e+00,7.529e+00,7.069e+00,6.925e+00,6.909e+00,7.318e+00,6.549e+00,7.501e+00,7.410e+00
1.146e-01,3.162e-01,1.320e-01,3.150e-01,9.726e-01,1.165e+00,1.273e+00,9.539e-01,1.772e+00,2.633e+00,2.155e+00,2.207e+00,2.231e+00,3.210e+00,3.991e+00,2.297e+00,3.396e+00,3.795e+00,3.977e+00,5.017e+00,4.725e+00,6.120e+00,6.097e+00,6.415e+00,5.553e+00,5.507e+00,8.890e+00,6.756e+00,5.419e+00,6.695e+00,5.831e+00,5.578e+00,6.687e+00,6.818e+00,5.036e+00,6.726e+00,7.506e+00,8.042e+00,7.676e+00,6.879e+00,6.233e+00,6.149e+00,5.092e+00,7.246e+00,6.746e+00,5.590e+00,5.493e+00,6.417e+00,6.557e+00,6.442e+00,6.642e+00,6.824e+00,6.466e+00,4.390e+00,8.306e+00,6.404e+00,6.056e+00,6.212e+00,7.650e+00,8.728e+00,5.890e+00,6.101e+00,7.086e+00,7.557e+00,8.087e+00,7.351e+00,5.301e+00,6.793e+00,6.489e+00
4.251e-01,4.309e-01,4.907e-01,1.112e+00,1.024e+00,1.620e+00,1.567e+00,2.371e+00,1.829e+00,4.424e+00,3.026e+00,3.948e+00,3.838e+00,3.506e+00,4.778e+00,2.856e+00,4.547e+00,5.316e+00,5.953e+00,6.226e+00,5.349e+00,7.994e+00,5.793e+00,4.955e+00,6.968e+00,6.586e+00,7.663e+00,7.116e+00,6.033e+00,7.661e+00,5.669e+00,4.976e+00,7.279e+00,7.583e+00,7.392e+00,8.671e+00,7.207e+00,8.933e+00,9.093e+00,8.000e+00,7.118e+00,8.678e+00,6.072e+00,6.775e+00,7.703e+00,7.995e+00,7.570e+00,6.721e+00,6.870e+00,6.492e+00,8.039e+00,8.619e+00,7.570e+00,6.672e+00,7.314e+00,7.242e+00,7.549e+00,7.159e+00,7.544e+00,9.233e+00,5.679e+00,6.111e+00,8.769e+00,7.747e+00,7.897e+00,8.577e+00,6.832e+00,7.836e+00,8.305e+00
2.319e-01,7.882e-01,3.001e-01,5.297e-01,1.214e+00,1.651e+00,1.106e+00,1.695e+00,1.889e+00,2.558e+00,2.032e+00,2.370e+00,2.555e+00,3.275e+00,4.399e+00,2.638e+00,3.690e+00,4.451e+00,4.283e+00,5.352e+00,5.232e+00,6.581e+00,5.552e+00,4.880e+00,5.849e+00,5.420e+00,7.711e+00,4.757e+00,4.940e+00,5.981e+00,5.717e+00,5.211e+00,6.721e+00,6.805e+00,5.249e+00,6.257e+00,6.222e+00,6.439e+00,6.243e+00,7.321e+00,7.059e+00,7.449e+00,4.975e+00,6.052e+00,6.387e+00,6.311e+00,6.916e+00,6.430e+00,5.745e+00,5.915e+00,5.906e+00,6.985e+00,5.957e+00,5.566e+00,8.143e+00,5.914e+00,5.780e+00,6.853e+00,6.827e+00,7.664e+00,6.212e+00,5.684e+00,6.377e+00,6.380e+00,7.553e+00,7.823e+00,5.119e+00,7.255e+00,6.674e+00
4.814e-03,2.370e-01,1.261e-01,4.586e-01,1.041e+00,1.350e+00,1.266e+00,1.556e+00,1.187e+00,3.200e+00,2.456e+00,2.428e+00,2.753e+00,2.385e+00,3.429e+00,3.127e+00,3.353e+00,3.612e+00,4.913e+00,5.915e+00,3.902e+00,7.188e+00,6.570e+00,4.544e+00,6.011e+00,5.832e+00,6.898e+00,6.032e+00,5.949e+00,7.584e+00,6.968e+00,5.873e+00,7.573e+00,7.413e+00,7.278e+00,9.336e+00,7.328e+00,8.144e+00,8.853e+00,8.760e+00,9.038e+00,7.682e+00,6.971e+00,6.831e+00,7.058e+00,9.359e+00,7.367e+00,6.821e+00,6.885e+00,7.244e+00,7.576e+00,8.981e+00,7.452e+00,7.103e+00,8.986e+00,7.593e+00,7.902e+00,7.549e+00,8.313e+00,8.615e+00,5.569e+00,6.406e+00,1.025e+01,8.089e+00,7.474e+00,9.510e+00,8.028e+00,8.114e+00,7.354e+00
7.387e-03,5.267e-01,1.372e-01,3.947e-01,1.425e+00,1.772e+00,1.227e+00,1.523e+00,1.797e+00,3.595e+00,3.139e+00,3.087e+00,3.660e+00,3.389e+00,4.272e+00,3.577e+00,3.638e+00,4.663e+00,4.868e+00,5.688e+00,3.870e+00,7.411e+00,6.250e+00,5.242e+00,6.303e+00,6.084e+00,7.585e+00,6.526e+00,5.968e+00,7.876e+00,8.197e+00,6.549e+00,8.964e+00,8.427e+00,7.563e+00,9.755e+00,9.209e+00,9.513e+00,9.128e+00,8.856e+00,9.599e+00,8.151e+00,7.932e+00,9.346e+00,8.548e+00,8.840e+00,8.566e+00,7.162e+00,6.984e+00,7.832e+00,8.276e+00,9.653e+00,8.878e+00,7.468e+00,1.031e+01,8.046e+00,8.501e+00,8.672e+00,9.296e+00,1.013e+01,7.192e+00,7.624e+00,9.883e+00,9.094e+00,8.684e+00,1.091e+01,7.865e+00,9.536e+00,7.677e+00
2.757e-01,3.754e-01,4.194e-01,1.169e+00,1.483e+00,1.904e+00,2.059e+00,1.962e+00,1.612e+00,3.549e+00,2.833e+00,2.967e+00,3.320e+00,3.590e+00,3.978e+00,3.253e+00,4.120e+00,4.028e+00,5.462e+00,6.448e+00,4.636e+00,6.901e+00,6.078e+00,5.821e+00,6.151e+00,6.140e+00,7.551e+00,7.056e+00,5.848e+00,8.083e+00,7.151e+00,5.639e+00,8.187e+00,9.105e+00,7.529e+00,1.001e+01,8.548e+00,9.907e+00,9.973e+00,9.379e+00,9.012e+00,8.413e+00,7.131e+00,8.070e+00,8.893e+00,9.348e+00,8.216e+00,7.855e+00,9.151e+00,8.545e+00,9.043e+00,8.467e+00,7.385e+00,7.582e+00,1.024e+01,7.174e+00,8.496e+00,8.287e+00,8.328e+00,9.687e+00,6.608e+00,6.777e+00,9.365e+00,9.004e+00,8.510e+00,9.063e+00,9.100e+00,1.040e+01,8.920e+00
4.557e-01,8.598e-01,5.504e-01,1.230e+00,2.045e+00,2.489e+00,1.860e+00,2.631e+00,1.703e+00,3.162e+00,2.651e+00,3.580e+00,3.610e+00,4.146e+00,4.439e+00,3.399e+00,3.609e+00,4.808e+00,4.584e+00,4.728e+00,4.005e+00,7.403e+00,5.948e+00,6.114e+00,6.869e+00,6.215e+00,8.159e+00,6.610e+00,5.256e+00,8.033e+00,7.609e+00,5.654e+00,8.857e+00,9.848e+00,7.100e+00,8.955e+00,9.169e+00,1.061e+01,8.894e+00,9.277e+00,9.304e+00,8.644e+00,8.323e+00,8.657e+00,8.681e+00,8.122e+00,8.446e+00,7.334e+00,8.254e+00,8.092e+00,7.642e+00,8.762e+00,9.079e+00,6.745e+00,9.679e+00,7.734e+00,7.298e+00,9.235e+00,9.947e+00,9.661e+00,6.846e+00,8.161e+00,9.375e+00,9.443e+00,8.806e+00,9.196e+00,7.534e+00,9.498e+00,9.854e+00
2.163e-01,2.186e-01,2.000e-01,3.791e-01,4.588e-01,7.314e-01,6.003e-01,9.526e-01,1.489e+00,2.860e+00,2.768e+00,2.871e+00,2.855e+00,2.805e+00,4.083e+00,2.672e+00,3.936e+00,4.591e+00,5.016e+00,5.438e+00,4.429e+00,6.182e+00,4.574e+00,4.024e+00,5.443e+00,4.891e+00,6.976e+00,5.844e+00,4.997e+00,6.987e+00,5.344e+00,5.104e+00,6.301e+00,7.310e+00,6.072e+00,7.663e+00,7.852e+00,7.730e+00,7.628e+00,8.020e+00,7.483e+00,7.981e+00,6.112e+00,7.086e+00,7.233e+00,6.655e+00,7.769e+00,5.952e+00,7.145e+00,8.115e+00,8.409e+00,8.534e+00,6.909e+00,6.527e+00,8.368e+00,7.112e+00,7.658e+00,7.305e+00,7.040e+00,8.286e+00,7.010e+00,7.036e+00,8.385e+00,7.963e+00,8.714e+00,9.478e+00,5.953e+00,8.237e+00,7.060e+00
2.724e-02,2.552e-01,2.497e-01,9.706e-01,1.874e+00,2.277e+00,1.882e+00,1.836e+00,1.342e+00,3.763e+00,2.433e+00,2.721e+00,2.811e+00,2.881e+00,2.723e+00,2.924e+00,2.567e+00,4.103e+00,4.314e+00,5.250e+00,4.154e+00,6.698e+00,6.823e+00,5.593e+00,6.489e+00,7.001e+00,8.403e+00,5.733e+00,6.097e+00,8.557e+00,7.392e+00,5.796e+00,9.661e+00,9.070e+00,7.027e+00,1.002e+01,9.032e+00,9.764e+00,9.640e+00,9.397e+00,8.438e+00,8.889e+00,7.444e+00,8.844e+00,8.162e+00,1.034e+01,9.975e+00,9.050e+00,8.215e+00,7.613e+00,8.995e+00,1.053e+01,9.762e+00,6.616e+00,1.091e+01,8.792e+00,9.001e+00,9.545e+00,1.093e+01,9.894e+00,7.621e+00,7.214e+00,9.901e+00,9.178e+00,7.976e+00,1.093e+01,8.919e+00,1.089e+01,9.352e+00
1.389e-01,5.495e-01,1.822e-01,3.711e-01,1.432e+00,1.977e+00,1.622e+00,2.033e+00,2.290e+00,3.456e+00,2.693e+00,3.172e+00,2.867e+00,3.785e+00,4.724e+00,3.566e+00,4.256e+00,5.011e+00,4.618e+00,6.092e+00,4.837e+00,7.012e+00,6.327e+00,4.342e+00,5.580e+00,5.225e+00,7.396e+00,5.770e+00,5.556e+00,7.355e+00,6.636e+00,5.824e+00,7.656e+00,9.176e+00,6.149e+00,1.017e+01,8.874e+00,9.965e+00,8.888e+00,9.969e+00,9.205e+00,9.494e+00,7.710e+00,8.466e+00,8.678e+00,8.423e+00,9.299e+00,8.690e+00,8.445e+00,8.201e+00,9.479e+00,9.542e+00,8.825e+00,7.394e+00,1.028e+01,7.979e+00,8.253e+00,8.660e+00,9.558e+00,1.024e+01,7.442e+00,7.805e+00,1.002e+01,9.220e+00,9.389e+00,1.113e+01,8.060e+00,9.333e+00,8.627e+00
2.105e-01,2.775e-01,3.587e-01,1.013e+00,1.096e+00,1.421e+00,1.180e+00,1.201e+00,8.756e-01,2.860e+00,2.448e+00,2.652e+00,3.180e+00,3.045e+00,3.372e+00,2.398e+00,2.963e+00,3.890e+00,4.710e+00,4.584e+00,4.392e+00,6.380e+00,4.718e+00,4.433e+00,5.608e+00,4.778e+00,5.790e+00,4.589e+00,4.901e+00,5.667e+00,6.128e+00,4.749e+00,7.393e+00,7.127e+00,6.383e+00,8.239e+00,7.524e+00,8.976e+00,7.402e+00,8.400e+00,9.745e+00,7.893e+00,7.656e+00,8.073e+00,7.756e+00,8.087e+00,9.015e+00,6.706e+00,6.386e+00,7.052e+00,7.928e+00,9.659e+00,7.522e+00,6.982e+00,8.533e+00,7.057e+00,7.787e+00,8.567e+00,8.351e+00,9.096e+00,6.926e+00,6.986e+00,8.575e+00,7.613e+00,8.153e+00,9.318e+00,6.757e+00,8.506e+00,8.627e+00
2.261e-01,5.484e-01,3.936e-01,1.059e+00,1.726e+00,2.355e+00,2.063e+00,1.860e+00,1.390e+00,2.896e+00,1.599e+00,2.786e+00,2.290e+00,4.130e+00,4.001e+00,2.791e+00,3.884e+00,4.467e+00,4.917e+00,6.222e+00,5.569e+00,7.759e+00,7.380e+00,6.469e+00,7.180e+00,7.584e+00,1.022e+01,7.266e+00,6.688e+00,8.719e+00,7.580e+00,6.084e+00,9.858e+00,1.052e+01,7.120e+00,1.036e+01,9.986e+00,1.157e+01,1.060e+01,1.244e+01,1.178e+01,1.147e+01,9.639e+00,1.061e+01,1.017e+01,1.056e+01,1.198e+01,9.596e+00,9.587e+00,9.899e+00,9.425e+00,1.178e+01,1.082e+01,8.201e+00,1.198e+01,9.469e+00,9.331e+00,1.140e+01,1.103e+01,1.263e+01,8.652e+00,1.033e+01,1.164e+01,1.067e+01,1.038e+01,1.169e+01,1.013e+01,1.056e+01,1.253e+01
3.805e-01,5.730e-01,5.091e-01,1.222e+00,1.312e+00,1.643e+00,1.338e+00,2.566e+00,1.831e+00,3.770e+00,2.811e+00,2.691e+00,2.989e+00,3.209e+00,4.482e+00,2.970e+00,3.302e+00,5.162e+00,4.584e+00,5.252e+00,4.394e+00,7.107e+00,6.165e+00,6.000e+00,6.888e+00,6.107e+00,8.651e+00,7.192e+00,5.489e+00,7.925e+00,7.102e+00,5.801e+00,9.364e+00,8.612e+00,7.172e+00,1.058e+01,1.001e+01,1.044e+01,9.335e+00,1.068e+01,1.079e+01,9.096e+00,8.740e+00,9.319e+00,9.811e+00,9.095e+00,1.047e+01,8.840e+00,9.974e+00,1.031e+01,9.115e+00,1.089e+01,9.387e+00,8.584e+00,1.140e+01,9.545e+00,9.127e+00,9.834e+00,9.592e+00,1.162e+01,8.968e+00,1.009e+01,1.043e+01,9.896e+00,1.097e+01,1.131e+01,9.273e+00,1.040e+01,1.048e+01
1.830e-01,6.092e-01,2.588e-01,5.423e-01,1.264e+00,1.642e+00,1.167e+00,2.141e+00,1.917e+00,3.438e+00,2.666e+00,3.085e+00,3.255e+00,2.925e+00,4.198e+00,3.231e+00,3.727e+00,4.488e+00,4.396e+00,5.178e+00,4.257e+00,7.581e+00,6.238e+00,5.592e+00,7.117e+00,6.324e+00,7.694e+00,5.855e+00,5.288e+00,7.123e+00,7.559e+00,5.611e+00,9.509e+00,8.712e+00,7.889e+00,1.002e+01,9.407e+00,9.976e+00,9.689e+00,1.132e+01,1.144e+01,1.079e+01,9.216e+00,1.068e+01,9.782e+00,1.167e+01,1.124e+01,1.040e+01,1.096e+01,1.046e+01,9.062e+00,1.101e+01,1.030e+01,9.181e+00,1.171e+01,8.588e+00,1.091e+01,1.134e+01,1.100e+01,1.227e+01,9.899e+00,9.741e+00,1.049e+01,9.785e+00,1.067e+01,1.203e+01,1.052e+01,1.172e+01,1.032e+01
1.781e-01,6.833e-01,2.850e-01,6.239e-01,1.346e+00,1.719e+00,1.316e+00,1.928e+00,1.588e+00,2.644e+00,2.450e+00,2.511e+00,2.952e+00,3.587e+00,4.587e+00,3.032e+00,3.481e+00,4.208e+00,4.717e+00,5.146e+00,4.742e+00,6.755e+00,5.516e+00,5.046e+00,5.903e+00,5.211e+00,7.059e+00,6.227e+00,5.812e+00,6.806e+00,6.860e+00,6.112e+00,7.232e+00,9.076e+00,6.523e+00,1.027e+01,8.812e+00,1.001e+01,1.001e+01,1.229e+01,1.245e+01,9.762e+00,9.747e+00,9.059e+00,1.039e+01,9.924e+00,1.141e+01,9.823e+00,8.872e+00,1.020e+01,1.046e+01,1.203e+01,9.777e+00,8.470e+00,1.093e+01,1.003e+01,9.816e+00,1.081e+01,1.112e+01,1.225e+01,8.991e+00,9.267e+00,1.144e+01,1.018e+01,1.069e+01,1.135e+01,9.668e+00,1.013e+01,1.070e+01
1.832e-02,4.922e-01,2.610e-01,8.329e-01,1.554e+00,2.282e+00,1.904e+00,2.099e+00,1.904e+00,3.545e+00,2.559e+00,3.309e+00,2.937e+00,4.027e+00,4.110e+00,3.474e+00,3.853e+00,4.235e+00,4.675e+00,6.088e+00,4.582e+00,6.558e+00,6.679e+00,5.210e+00,5.599e+00,5.796e+00,7.242e+00,7.196e+00,6.312e+00,7.631e+00,6.596e+00,5.443e+00,8.965e+00,9.578e+00,7.274e+00,1.105e+01,9.681e+00,1.128e+01,1.061e+01,1.156e+01,1.045e+01,1.109e+01,9.730e+00,1.124e+01,1.254e+01,1.164e+01,1.163e+01,1.025e+01,1.089e+01,1.078e+01,1.057e+01,1.178e+01,1.056e+01,7.619e+00,1.185e+01,1.041e+01,1.108e+01,1.098e+01,1.203e+01,1.324e+01,9.381e+00,8.538e+00,1.156e+01,1.113e+01,1.057e+01,1.297e+01,1.157e+01,1.234e+01,1.082e+01
1.502e-02,1.062e-01,1.431e-01,5.252e-01,7.822e-01,1.154e+00,1.080e+00,1.095e+00,1.154e+00,3.053e+00,2.433e+00,2.345e+00,2.561e+00,3.024e+00,3.910e+00,2.547e+00,3.341e+00,4.215e+00,4.504e+00,5.091e+00,4.974e+00,6.541e+00,5.305e+00,5.080e+00,5.923e+00,5.253e+00,6.914e+00,6.288e+00,6.014e+00,7.316e+00,7.345e+00,6.378e+00,8.729e+00,9.779e+00,7.484e+00,1.077e+01,9.885e+00,1.080e+01,9.979e+00,1.188e+01,1.114e+01,1.045e+01,1.009e+01,1.113e+01,1.078e+01,1.104e+01,1.112e+01,1.043e+01,1.071e+01,1.149e+01,1.082e+01,1.243e+01,1.005e+01,9.805e+00,1.293e+01,1.067e+01,1.148e+01,1.189e+01,1.181e+01,1.225e+01,9.987e+00,9.190e+00,1.207e+01,1.052e+01,1.157e+01,1.233e+01,1.187e+01,1.230e+01,1.084e+01
4.641e-01,6.551e-01,5.757e-01,1.291e+00,1.176e+00,1.540e+00,1.217e+00,2.480e+00,1.810e+00,4.017e+00,3.383e+00,3.251e+00,3.697e+00,2.963e+00,4.782e+00,3.414e+00,4.198e+00,5.312e+00,5.560e+00,5.954e+00,4.275e+00,7.420e+00,5.436e+00,5.251e+00,7.197e+00,6.306e+00,8.214e+00,7.608e+00,5.480e+00,8.021e+00,6.836e+00,5.155e+00,8.316e+00,8.550e+00,7.920e+00,9.612e+00,9.257e+00,1.038e+01,9.926e+00,1.085e+01,1.080e+01,1.071e+01,9.876e+00,1.040e+01,1.160e+01,1.093e+01,1.186e+01,9.851e+00,1.052e+01,1.135e+01,1.125e+01,1.309e+01,1.100e+01,1.013e+01,1.266e+01,1.130e+01,1.065e+01,1.227e+01,1.124e+01,1.180e+01,9.650e+00,1.096e+01,1.201e+01,1.004e+01,1.182e+01,1.285e+01,1.240e+01,1.244e+01,1.135e+01
3.186e-01,3.987e-01,4.818e-01,1.235e+00,1.008e+00,1.565e+00,1.603e+00,2.149e+00,1.744e+00,3.943e+00,3.377e+00,3.350e+00,4.095e+00,4.420e+00,5.189e+00,3.326e+00,4.575e+00,5.190e+00,6.551e+00,7.129e+00,5.584e+00,8.134e+00,6.569e+00,6.651e+00,7.485e+00,7.477e+00,8.890e+00,7.944e+00,6.393e+00,7.855e+00,7.742e+00,5.897e+00,8.798e+00,9.732e+00,7.938e+00,1.123e+01,1.019e+01,1.233e+01,1.130e+01,1.243e+01,1.251e+01,1.180e+01,1.055e+01,1.233e+01,1.285e+01,1.153e+01,1.299e+01,1.159e+01,1.221e+01,1.229e+01,1.198e+01,1.325e+01,1.170e+01,1.108e+01,1.274e+01,1.151e+01,1.264e+01,1.378e+01,1.197e+01,1.429e+01,9.709e+00,1.262e+01,1.364e+01,1.280e+01,1.218e+01,1.277e+01,1.266e+01,1.246e+01,1.308e+01
1.647e-01,6.344e-01,3.479e-01,9.357e-01,1.804e+00,2.288e+00,1.540e+00,2.014e+00,2.055e+00,3.866e+00,3.086e+00,3.512e+00,3.535e+00,4.196e+00,4.441e+00,3.620e+00,3.459e+00,5.496e+00,4.798e+00,6.407e+00,4.813e+00,7.086e+00,6.916e+00,5.595e+00,6.287e+00,6.036e+00,8.111e+00,6.701e+00,6.296e+00,8.358e+00,7.181e+00,6.715e+00,9.218e+00,1.005e+01,7.642e+00,1.192e+01,1.039e+01,1.128e+01,1.014e+01,1.191e+01,1.275e+01,1.183e+01,1.042e+01,1.160e+01,1.248e+01,1.214e+01,1.197e+01,1.177e+01,1.263e+01,1.274e+01,1.305e+01,1.462e+01,1.325e+01,1.069e+01,1.427e+01,1.215e+01,1.241e+01,1.349e+01,1.391e+01,1.339e+01,1.079e+01,1.202e+01,1.344e+01,1.291e+01,1.347e+01,1.532e+01,1.309e+01,1.392e+01,1.244e+01
2.554e-01,3.120e-01,3.048e-01,7.045e-01,7.712e-01,1.101e+00,1.088e+00,1.879e+00,1.493e+00,3.488e+00,3.106e+00,3.030e+00,3.715e+00,3.628e+00,5.127e+00,3.266e+00,4.272e+00,5.050e+00,5.895e+00,6.057e+00,5.004e+00,7.522e+00,5.903e+00,5.680e+00,6.171e+00,5.902e+00,7.699e+00,7.086e+00,5.677e+00,8.000e+00,7.256e+00,5.788e+00,8.379e+00,8.703e+00,7.614e+00,1.164e+01,9.732e+00,1.066e+01,1.052e+01,1.213e+01,1.212e+01,1.104e+01,9.430e+00,1.125e+01,1.182e+01,1.150e+01,1.183e+01,1.170e+01,1.205e+01,1.180e+01,1.207e+01,1.345e+01,1.076e+01,1.009e+01,1.284e+01,1.064e+01,1.251e+01,1.225e+01,1.141e+01,1.324e+01,1.003e+01,1.199e+01,1.264e+01,1.182e+01,1.250e+01,1.327e+01,1.361e+01,1.272e+01,1.215e+01
4.352e-01,4.318e-01,3.798e-01,6.787e-01,6.742e-01,8.670e-01,6.881e-01,1.979e+00,1.377e+00,2.500e+00,2.077e+00,2.835e+00,3.242e+00,3.035e+00,3.763e+00,2.037e+00,2.752e+00,3.937e+00,4.112e+00,4.276e+00,4.138e+00,6.058e+00,4.807e+00,4.678e+00,5.020e+00,5.512e+00,6.601e+00,5.099e+00,4.580e+00,6.776e+00,5.013e+00,4.422e+00,7.043e+00,7.972e+00,5.520e+00,8.468e+00,7.729e+00,9.147e+00,8.067e+00,1.016e+01,9.590e+00,1.068e+01,8.621e+00,1.041e+01,1.167e+01,9.126e+00,1.102e+01,1.112e+01,1.115e+01,1.003e+01,1.155e+01,1.264e+01,1.087e+01,9.556e+00,1.120e+01,1.134e+01,1.045e+01,1.258e+01,1.140e+01,1.110e+01,8.924e+00,1.128e+01,1.230e+01,1.097e+01,1.072e+01,1.203e+01,1.137e+01,1.198e+01,1.126e+01
3.947e-01,5.008e-01,3.871e-01,8.264e-01,1.335e+00,1.571e+00,1.501e+00,2.152e+00,1.665e+00,3.482e+00,2.693e+00,3.152e+00,3.211e+00,2.652e+00,3.874e+00,2.744e+00,3.495e+00,4.113e+00,4.344e+00,4.374e+00,3.729e+00,7.333e+00,4.798e+00,5.019e+00,6.782e+00,5.865e+00,6.792e+00,6.137e+00,5.087e+00,7.206e+00,6.730e+00,5.215e+00,8.804e+00,8.919e+00,7.778e+00,9.306e+00,8.981e+00,1.074e+01,9.671e+00,1.133e+01,1.078e+01,1.042e+01,9.760e+00,1.229e+01,1.188e+01,1.079e+01,1.239e+01,1.103e+01,1.324e+01,1.169e+01,1.246e+01,1.324e+01,1.323e+01,1.119e+01,1.301e+01,1.243e+01,1.245e+01,1.352e+01,1.230e+01,1.268e+01,1.078e+01,1.128e+01,1.356e+01,1.191e+01,1.204e+01,1.356e+01,1.244e+01,1.357e+01,1.218e+01
2.769e-01,4.316e-01,3.008e-01,6.906e-01,1.384e+00,1.745e+00,1.491e+00,1.632e+00,1.485e+00,3.475e+00,2.976e+00,3.367e+00,3.451e+00,2.842e+00,4.117e+00,3.394e+00,4.440e+00,4.768e+00,6.041e+00,6.512e+00,5.272e+00,8.686e+00,6.888e+00,6.110e+00,8.193e+00,7.409e+00,8.869e+00,6.611e+00,6.495e+00,8.735e+00,7.414e+00,6.056e+00,8.934e+00,9.121e+00,7.987e+00,1.026e+01,9.680e+00,1.074e+01,1.079e+01,1.210e+01,1.208e+01,1.201e+01,9.559e+00,1.113e+01,1.114e+01,1.247e+01,1.227e+01,1.166e+01,1.269e+01,1.258e+01,1.401e+01,1.390e+01,1.271e+01,1.156e+01,1.508e+01,1.291e+01,1.401e+01,1.384e+01,1.308e+01,1.346e+01,1.128e+01,1.270e+01,1.357e+01,1.207e+01,1.386e+01,1.445e+01,1.351e+01,1.529e+01,1.265e+01
2.224e-01,7.142e-01,3.528e-01,7.909e-01,1.469e+00,1.970e+00,1.238e+00,1.714e+00,1.439e+00,2.275e+00,2.163e+00,2.764e+00,3.079e+00,3.893e+00,3.772e+00,3.216e+00,3.551e+00,4.254e+00,4.482e+00,5.381e+00,3.625e+00,6.144e+00,5.409e+00,4.879e+00,5.289e+00,5.392e+00,7.129e+00,5.611e+00,4.494e+00,6.790e+00,6.402e+00,5.053e+00,6.891e+00,8.056e+00,5.897e+00,9.116e+00,8.777e+00,9.634e+00,8.500e+00,1.025e+01,1.099e+01,1.098e+01,1.076e+01,1.049e+01,1.128e+01,1.196e+01,1.180e+01,1.120e+01,1.280e+01,1.183e+01,1.229e+01,1.427e+01,1.220e+01,1.209e+01,1.425e+01,1.148e+01,1.157e+01,1.454e+01,1.434e+01,1.309e+01,1.173e+01,1.170e+01,1.266e+01,1.199e+01,1.273e+01,1.361e+01,1.320e+01,1.470e+01,1.299e+01
2.840e-01,3.847e-01,4.102e-01,1.007e+00,7.951e-01,1.282e+00,1.426e+00,2.131e+00,1.880e+00,3.306e+00,3.089e+00,2.649e+00,3.372e+00,4.014e+00,4.936e+00,3.166e+00,4.198e+00,4.592e+00,5.831e+00,6.829e+00,5.583e+00,7.505e+00,6.013e+00,6.155e+00,7.053e+00,6.895e+00,8.210e+00,8.426e+00,6.584e+00,7.770e+00,7.512e+00,6.074e+00,9.063e+00,9.775e+00,7.779e+00,1.122e+01,1.062e+01,1.136e+01,1.107e+01,1.249e+01,1.162e+01,1.036e+01,9.328e+00,1.237e+01,1.169e+01,1.148e+01,1.252e+01,1.181e+01,1.126e+01,1.227e+01,1.340e+01,1.449e+01,1.444e+01,1.239e+01,1.665e+01,1.343e+01,1.400e+01,1.530e+01,1.203e+01,1.471e+01,1.195e+01,1.216e+01,1.442e+01,1.332e+01,1.291e+01,1.487e+01,1.467e+01,1.558e+01,1.476e+01
2.669e-01,7.490e-01,4.081e-01,9.927e-01,1.820e+00,2.269e+00,2.015e+00,2.525e+00,2.297e+00,4.242e+00,2.984e+00,2.951e+00,3.431e+00,3.521e+00,4.469e+00,3.520e+00,3.972e+00,4.860e+00,4.974e+00,6.530e+00,3.940e+00,7.550e+00,6.739e+00,5.897e+00,7.248e+00,6.801e+00,8.528e+00,7.293e+00,6.041e+00,8.931e+00,8.071e+00,6.334e+00,9.596e+00,9.880e+00,8.376e+00,1.244e+01,1.046e+01,1.140e+01,1.017e+01,1.167e+01,1.127e+01,1.061e+01,1.030e+01,1.104e+01,1.157e+01,1.167e+01,1.178e+01,1.181e+01,1.290e+01,1.224e+01,1.275e+01,1.445e+01,1.414e+01,1.323e+01,1.755e+01,1.268e+01,1.225e+01,1.521e+01,1.392e+01,1.377e+01,1.179e+01,1.159e+01,1.516e+01,1.401e+01,1.372e+01,1.624e+01,1.412e+01,1.594e+01,1.408e+01
2.812e-01,6.132e-01,3.365e-01,7.703e-01,1.735e+00,2.079e+00,1.621e+00,2.413e+00,1.904e+00,3.782e+00,3.062e+00,3.237e+00,3.771e+00,3.636e+00,4.711e+00,3.485e+00,3.678e+00,5.249e+00,5.035e+00,5.302e+00,4.832e+00,7.960e+00,6.407e+00,5.518e+00,6.856e+00,6.163e+00,7.929e+00,5.693e+00,5.528e+00,7.699e+00,7.875e+00,6.043e+00,8.876e+00,8.859e+00,6.653e+00,1.016e+01,8.834e+00,9.594e+00,9.317e+00,1.051e+01,1.218e+01,1.075e+01,1.063e+01,1.131e+01,1.159e+01,1.189e+01,1.218e+01,1.129e+01,1.092e+01,1.041e+01,1.192e+01,1.346e+01,1.186e+01,1.130e+01,1.339e+01,1.259e+01,1.208e+01,1.371e+01,1.383e+01,1.481e+01,1.097e+01,1.246e+01,1.426e+01,1.238e+01,1.235e+01,1.500e+01,1.249e+01,1.423e+01,1.315e+01
4.365e-02,2.452e-01,2.314e-01,7.810e-01,1.273e+00,1.817e+00,1.312e+00,1.427e+00,1.008e+00,3.231e+00,2.349e+00,3.084e+00,2.953e+00,3.375e+00,3.710e+00,2.980e+00,3.575e+00,4.675e+00,5.128e+00,5.489e+00,4.953e+00,7.083e+00,6.006e+00,5.731e+00,7.199e+00,6.805e+00,8.140e+00,5.935e+00,6.172e+00,8.322e+00,6.913e+00,5.563e+00,8.237e+00,8.440e+00,7.328e+00,9.055e+00,8.649e+00,1.083e+01,9.104e+00,1.027e+01,9.636e+00,1.016e+01,7.877e+00,9.831e+00,9.764e+00,9.732e+00,1.077e+01,1.060e+01,1.199e+01,1.148e+01,1.162e+01,1.356e+01,1.216e+01,1.147e+01,1.360e+01,1.332e+01,1.321e+01,1.391e+01,1.390e+01,1.307e+01,1.060e+01,1.292e+01,1.417e+01,1.374e+01,1.335e+01,1.472e+01,1.367e+01,1.525e+01,1.390e+01
3.651e-02,6.026e-01,1.115e-01,1.726e-01,1.190e+00,1.710e+00,9.754e-01,1.261e+00,1.419e+00,2.688e+00,2.437e+00,3.361e+00,3.587e+00,3.691e+00,4.641e+00,3.641e+00,4.729e+00,4.759e+00,5.596e+00,5.733e+00,4.549e+00,7.755e+00,6.453e+00,5.348e+00,6.316e+00,6.131e+00,8.543e+00,6.227e+00,5.346e+00,7.467e+00,7.271e+00,5.666e+00,7.738e+00,8.869e+00,6.369e+00,9.656e+00,8.509e+00,1.032e+01,1.002e+01,1.184e+01,1.133e+01,1.208e+01,9.954e+00,1.110e+01,1.241e+01,1.249e+01,1.229e+01,1.127e+01,1.143e+01,1.182e+01,1.214e+01,1.371e+01,1.073e+01,1.241e+01,1.526e+01,1.374e+01,1.323e+01,1.521e+01,1.506e+01,1.482e+01,1.252e+01,1.350e+01,1.403e+01,1.446e+01,1.468e+01,1.497e+01,1.392e+01,1.522e+01,1.457e+01
3.030e-01,7.725e-01,3.983e-01,7.844e-01,1.188e+00,1.745e+00,1.231e+00,2.010e+00,2.170e+00,3.060e+00,2.631e+00,2.955e+00,3.459e+00,3.769e+00,4.115e+00,2.898e+00,3.634e+00,4.428e+00,4.627e+00,5.717e+00,3.834e+00,6.616e+00,5.532e+00,4.512e+00,6.004e+00,5.947e+00,7.274e+00,6.251e+00,4.771e+00,6.435e+00,6.207e+00,5.375e+00,7.278e+00,7.905e+00,6.603e+00,9.767e+00,7.566e+00,9.736e+00,8.372e+00,1.081e+01,1.044e+01,1.015e+01,9.504e+00,1.118e+01,1.168e+01,1.066e+01,1.086e+01,1.158e+01,1.227e+01,1.174e+01,1.347e+01,1.409e+01,1.281e+01,1.361e+01,1.418e+01,1.456e+01,1.379e+01,1.665e+01,1.589e+01,1.543e+01,1.326e+01,1.410e+01,1.471e+01,1.630e+01,1.395e+01,1.789e+01,1.412e+01,1.607e+01,1.604e+01
1.997e-01,2.129e-01,3.712e-01,1.144e+00,1.432e+00,1.950e+00,1.855e+00,1.544e+00,1.265e+00,3.481e+00,3.162e+00,2.971e+00,3.402e+00,3.975e+00,4.118e+00,3.213e+00,3.784e+00,4.741e+00,5.574e+00,5.935e+00,4.921e+00,6.583e+00,5.993e+00,5.513e+00,6.673e+00,6.690e+00,9.133e+00,7.222e+00,6.772e+00,8.899e+00,7.223e+00,5.726e+00,8.980e+00,9.596e+00,7.663e+00,1.131e+01,1.042e+01,1.175e+01,1.060e+01,1.201e+01,1.171e+01,1.096e+01,9.884e+00,1.126e+01,1.123e+01,1.189e+01,1.243e+01,1.257e+01,1.336e+01,1.272e+01,1.383e+01,1.599e+01,1.347e+01,1.243e+01,1.639e+01,1.545e+01,1.480e+01,1.662e+01,1.725e+01,1.690e+01,1.509e+01,1.485e+01,1.658e+01,1.672e+01,1.569e+01,1.646e+01,1.634e+01,1.856e+01,1.725e+01
1.500e-01,6.871e-01,2.488e-01,4.640e-01,9.975e-01,1.469e+00,1.010e+00,1.753e+00,1.930e+00,3.065e+00,2.233e+00,2.702e+00,2.535e+00,3.497e+00,4.808e+00,2.955e+00,3.878e+00,4.798e+00,4.432e+00,5.899e+00,4.491e+00,6.185e+00,6.169e+00,5.183e+00,4.932e+00,4.791e+00,7.443e+00,6.217e+00,5.039e+00,6.747e+00,5.967e+00,5.969e+00,7.039e+00,8.575e+00,6.409e+00,1.008e+01,8.660e+00,1.019e+01,8.918e+00,1.078e+01,1.099e+01,1.091e+01,9.753e+00,9.599e+00,1.101e+01,1.047e+01,1.133e+01,1.057e+01,1.221e+01,1.182e+01,1.219e+01,1.426e+01,1.211e+01,1.138e+01,1.455e+01,1.351e+01,1.291e+01,1.424e+01,1.456e+01,1.634e+01,1.428e+01,1.318e+01,1.627e+01,1.524e+01,1.472e+01,1.656e+01,1.428e+01,1.639e+01,1.577e+01
1.640e-01,4.786e-01,2.460e-01,5.277e-01,9.610e-01,1.391e+00,8.280e-01,1.918e+00,2.031e+00,3.152e+00,2.922e+00,3.098e+00,3.220e+00,3.795e+00,4.615e+00,2.830e+00,3.243e+00,5.094e+00,4.495e+00,5.009e+00,5.256e+00,6.103e+00,5.635e+00,4.884e+00,5.286e+00,5.595e+00,7.616e+00,4.743e+00,4.929e+00,6.955e+00,6.477e+00,5.257e+00,8.545e+00,8.639e+00,6.155e+00,9.322e+00,8.453e+00,9.736e+00,8.991e+00,9.786e+00,1.036e+01,1.090e+01,9.395e+00,1.018e+01,1.022e+01,1.057e+01,1.133e+01,1.149e+01,1.100e+01,1.079e+01,1.156e+01,1.402e+01,1.254e+01,1.106e+01,1.406e+01,1.312e+01,1.284e+01,1.514e+01,1.553e+01,1.578e+01,1.360e+01,1.290e+01,1.458e+01,1.605e+01,1.460e+01,1.693e+01,1.435e+01,1.634e+01,1.555e+01
2.436e-01,7.546e-01,3.569e-01,7.530e-01,1.392e+00,1.861e+00,1.245e+00,2.323e+00,2.230e+00,3.467e+00,3.390e+00,3.672e+00,4.122e+00,4.724e+00,5.548e+00,4.294e+00,4.710e+00,5.670e+00,5.808e+00,6.986e+00,4.776e+00,8.377e+00,7.247e+00,6.116e+00,7.017e+00,6.705e+00,9.081e+00,7.128e+00,5.818e+00,7.870e+00,7.298e+00,5.856e+00,8.497e+00,7.829e+00,7.468e+00,1.050e+01,9.722e+00,1.019e+01,9.471e+00,1.161e+01,1.147e+01,1.000e+01,9.097e+00,1.156e+01,1.194e+01,1.208e+01,1.163e+01,1.251e+01,1.328e+01,1.204e+01,1.328e+01,1.490e+01,1.336e+01,1.357e+01,1.605e+01,1.547e+01,1.453e+01,1.683e+01,1.703e+01,1.662e+01,1.581e+01,1.648e+01,1.690e+01,1.762e+01,1.596e+01,1.782e+01,1.683e+01,1.908e+01,1.745e+01
3.411e-02,4.033e-02,6.083e-02,2.784e-01,1.021e+00,1.288e+00,1.001e+00,5.243e-01,1.096e+00,2.171e+00,2.503e+00,2.700e+00,2.801e+00,2.982e+00,2.803e+00,2.489e+00,2.848e+00,3.648e+00,4.633e+00,4.401e+00,4.267e+00,6.511e+00,5.705e+00,5.515e+00,6.106e+00,6.018e+00,7.509e+00,5.182e+00,4.778e+00,7.052e+00,6.737e+00,5.066e+00,7.802e+00,7.418e+00,5.759e+00,8.051e+00,8.135e+00,9.219e+00,9.026e+00,9.864e+00,1.020e+01,9.120e+00,9.325e+00,1.185e+01,1.101e+01,9.925e+00,1.065e+01,1.100e+01,1.027e+01,1.015e+01,1.210e+01,1.224e+01,1.139e+01,9.648e+00,1.327e+01,1.362e+01,1.316e+01,1.521e+01,1.490e+01,1.477e+01,1.205e+01,1.520e+01,1.436e+01,1.439e+01,1.397e+01,1.650e+01,1.482e+01,1.608e+01,1.569e+01
3.000e-01,6.941e-01,3.974e-01,8.485e-01,1.323e+00,1.880e+00,1.477e+00,1.923e+00,1.716e+00,2.843e+00,2.258e+00,2.849e+00,3.114e+00,3.586e+00,3.797e+00,3.071e+00,3.793e+00,4.131e+00,4.888e+00,6.181e+00,3.590e+00,6.236e+00,5.680e+00,4.751e+00,5.969e+00,6.050e+00,7.246e+00,6.327e+00,5.094e+00,6.883e+00,5.743e+00,4.601e+00,7.136e+00,7.952e+00,6.163e+00,9.275e+00,8.206e+00,9.396e+00,8.643e+00,1.035e+01,1.069e+01,1.079e+01,9.107e+00,1.114e+01,1.090e+01,1.081e+01,1.107e+01,1.047e+01,1.100e+01,1.103e+01,1.138e+01,1.262e+01,1.167e+01,1.113e+01,1.400e+01,1.297e+01,1.293e+01,1.475e+01,1.389e+01,1.561e+01,1.173e+01,1.535e+01,1.532e+01,1.398e+01,1.470e+01,1.738e+01,1.589e+01,1.566e+01,1.478e+01
2.004e-01,4.823e-01,3.450e-01,8.941e-01,1.371e+00,1.966e+00,1.671e+00,2.361e+00,1.976e+00,4.097e+00,2.948e+00,3.577e+00,3.698e+00,4.489e+00,5.100e+00,3.684e+00,4.537e+00,5.589e+00,5.637e+00,7.099e+00,5.442e+00,8.005e+00,6.374e+00,5.753e+00,6.353e+00,6.670e+00,7.738e+00,6.659e+00,5.770e+00,8.420e+00,7.215e+00,6.487e+00,8.108e+00,9.224e+00,7.504e+00,1.113e+01,9.275e+00,1.047e+01,9.875e+00,1.108e+01,1.058e+01,1.139e+01,8.836e+00,1.007e+01,1.077e+01,1.133e+01,1.104e+01,1.185e+01,1.276e+01,1.096e+01,1.321e+01,1.410e+01,1.276e+01,1.365e+01,1.450e+01,1.400e+01,1.384e+01,1.419e+01,1.460e+01,1.602e+01,1.242e+01,1.364e+01,1.659e+01,1.577e+01,1.536e+01,1.768e+01,1.774e+01,1.874e+01,1.649e+01
4.188e-01,5.382e-01,5.300e-01,1.340e+00,1.812e+00,2.345e+00,2.364e+00,2.820e+00,1.716e+00,4.558e+00,3.389e+00,3.787e+00,4.144e+00,4.224e+00,5.379e+00,3.879e+00,4.809e+00,5.489e+00,6.268e+00,6.808e+00,5.324e+00,9.284e+00,7.590e+00,7.208e+00,8.533e+00,7.931e+00,9.930e+00,8.499e+00,7.473e+00,9.747e+00,8.763e+00,6.652e+00,1.065e+01,1.082e+01,9.374e+00,1.196e+01,1.150e+01,1.376e+01,1.195e+01,1.337e+01,1.338e+01,1.204e+01,1.113e+01,1.267e+01,1.338e+01,1.316e+01,1.393e+01,1.273e+01,1.538e+01,1.415e+01,1.397e+01,1.632e+01,1.512e+01,1.339e+01,1.689e+01,1.707e+01,1.579e+01,1.760e+01,1.702e+01,1.821e+01,1.467e+01,1.702e+01,1.896e+01,1.831e+01,1.793e+01,1.911e+01,1.883e+01,1.977e+01,1.992e+01
7.427e-02,8.314e-02,7.737e-02,2.163e-01,5.554e-01,7.770e-01,1.001e+00,1.380e+00,1.507e+00,2.882e+00,2.664e+00,2.359e+00,2.918e+00,2.791e+00,3.819e+00,2.861e+00,3.493e+00,3.637e+00,4.711e+00,5.558e+00,3.968e+00,6.792e+00,6.656e+00,5.976e+00,5.781e+00,6.330e+00,8.046e+00,6.041e+00,4.841e+00,7.398e+00,7.722e+00,5.554e+00,9.074e+00,8.338e+00,6.982e+00,1.055e+01,9.242e+00,9.866e+00,9.238e+00,1.007e+01,1.018e+01,9.028e+00,9.272e+00,1.118e+01,1.038e+01,1.196e+01,1.055e+01,1.214e+01,1.341e+01,1.143e+01,1.237e+01,1.250e+01,1.281e+01,1.187e+01,1.582e+01,1.319e+01,1.420e+01,1.515e+01,1.468e+01,1.565e+01,1.323e+01,1.389e+01,1.673e+01,1.692e+01,1.546e+01,1.944e+01,1.833e+01,1.878e+01,1.723e+01
4.632e-01,5.072e-01,5.796e-01,1.382e+00,1.196e+00,1.662e+00,1.577e+00,2.327e+00,1.786e+00,4.302e+00,3.058e+00,3.673e+00,3.842e+00,4.019e+00,5.018e+00,2.791e+00,4.064e+00,5.430e+00,5.330e+00,5.599e+00,4.925e+00,7.083e+00,5.236e+00,4.932e+00,6.541e+00,5.720e+00,7.513e+00,6.413e+00,5.792e+00,6.797e+00,6.020e+00,4.500e+00,7.988e+00,7.872e+00,7.732e+00,9.692e+00,8.888e+00,1.046e+01,9.753e+00,1.013e+01,1.146e+01,1.052e+01,9.410e+00,1.013e+01,1.038e+01,1.055e+01,1.132e+01,1.036e+01,1.125e+01,1.130e+01,1.202e+01,1.417e+01,1.277e+01,1.240e+01,1.393e+01,1.427e+01,1.426e+01,1.509e+01,1.445e+01,1.621e+01,1.339e+01,1.563e+01,1.711e+01,1.645e+01,1.703e+01,1.852e+01,1.832e+01,1.827e+01,1.960e+01
2.169e-01,7.766e-01,3.039e-01,6.456e-01,1.711e+00,2.060e+00,1.410e+00,2.190e+00,1.662e+00,3.091e+00,2.556e+00,3.142e+00,3.611e+00,3.626e+00,4.428e+00,3.492e+00,3.522e+00,4.514e+00,4.511e+00,5.095e+00,3.860e+00,7.160e+00,6.778e+00,5.856e+00,6.395e+00,6.466e+00,8.846e+00,6.429e+00,5.880e+00,7.912e+00,7.493e+00,5.688e+00,9.140e+00,8.876e+00,6.682e+00,1.012e+01,9.372e+00,1.041e+01,9.528e+00,1.160e+01,1.199e+01,9.988e+00,1.013e+01,1.169e+01,1.194e+01,1.173e+01,1.198e+01,1.266e+01,1.226e+01,1.168e+01,1.287e+01,1.388e+01,1.293e+01,1.178e+01,1.602e+01,1.458e+01,1.442e+01,1.641e+01,1.605e+01,1.582e+01,1.414e+01,1.597e+01,1.646e+01,1.691e+01,1.674e+01,1.957e+01,1.762e+01,1.880e+01,1.827e+01
3.852e-01,7.472e-01,5.665e-01,1.361e+00,1.508e+00,1.981e+00,1.765e+00,2.516e+00,1.519e+00,3.308e+00,1.995e+00,2.450e+00,2.579e+00,3.104e+00,3.767e+00,2.757e+00,3.415e+00,3.996e+00,4.380e+00,5.797e+00,3.836e+00,7.265e+00,5.873e+00,5.725e+00,7.268e+00,7.112e+00,8.244e+00,7.600e+00,5.977e+00,8.211e+00,6.794e+00,5.622e+00,8.656e+00,9.259e+00,7.923e+00,9.758e+00,9.406e+00,1.066e+01,9.656e+00,1.189e+01,1.103e+01,1.183e+01,1.012e+01,1.083e+01,1.106e+01,1.135e+01,1.195e+01,9.913e+00,1.197e+01,1.224e+01,1.132e+01,1.319e+01,1.236e+01,1.225e+01,1.377e+01,1.367e+01,1.299e+01,1.424e+01,1.340e+01,1.465e+01,1.156e+01,1.393e+01,1.520e+01,1.400e+01,1.400e+01,1.656e+01,1.439e+01,1.656e+01,1.627e+01
