1.274e-01,6.890e-01,7.130e-02,7.213e-01,1.941e-01,1.438e-01,9.651e-01,6.289e-01,5.278e-01,7.078e-01,1.371e-01,7.408e-01,1.291e-01,8.770e-01,4.237e-01,1.392e-01,1.629e-01,8.700e-01,7.895e-01,8.820e-01,1.380e-01,1.184e-01,8.470e-01,6.082e-01,5.720e-01,5.192e-01,1.906e-01,9.813e-01,4.750e-01,5.774e-01,8.372e-01,7.895e-01,1.764e-01,9.271e-01,4.722e-01,8.075e-01,7.026e-01,9.985e-01,6.458e-02,7.391e-01,6.013e-01,5.432e-01,7.001e-01,2.971e-01,4.924e-01,7.665e-02,7.949e-01,2.232e-01,8.288e-01,9.977e-01,4.041e-01,3.805e-01,1.454e-01,3.030e-02,6.822e-01,6.009e-01,7.165e-01,9.720e-01,4.121e-01,3.126e-03,9.980e-01,5.769e-02,8.705e-01,2.025e-01,5.469e-01,7.222e-01,1.254e-01,8.758e-01,4.179e-01,4.461e-01,8.852e-01,2.868e-01,2.341e-01,8.715e-01,9.897e-01,1.435e-01,7.683e-01,7.929e-01
2.634e-02,1.009e+00,6.792e-01,2.316e-01,9.260e-01,2.998e-01,6.238e-01,8.759e-01,5.773e-01,4.173e-01,3.375e-01,2.712e-01,5.557e-01,2.148e-01,6.531e-01,3.878e-01,8.636e-01,6.319e-01,9.614e-01,6.460e-01,5.704e-01,4.240e-01,7.451e-01,1.733e-01,6.142e-01,3.084e-01,5.522e-01,1.005e+00,3.949e-01,5.117e-01,6.219e-01,6.856e-01,4.934e-02,1.177e+00,3.679e-01,5.236e-01,5.982e-01,2.218e-01,4.226e-02,9.186e-01,7.977e-01,1.086e+00,3.786e-01,2.139e-01,2.025e-01,2.850e-01,9.730e-01,6.993e-01,3.204e-01,1.150e+00,7.523e-01,2.328e-01,2.107e-01,1.285e-01,7.223e-01,8.409e-01,8.247e-01,2.185e-01,7.114e-01,6.040e-01,9.237e-01,8.418e-01,8.168e-01,1.013e+00,1.068e+00,1.108e+00,7.857e-01,6.523e-01,1.503e-01,1.048e+00,8.704e-01,3.187e-01,8.490e-01,8.778e-01,8.207e-01,8.802e-01,2.513e-01,4.802e-01
9.963e-02,7.445e-01,7.817e-01,6.147e-01,7.064e-01,3.879e-01,1.803e+00,1.217e+00,9.294e-01,7.612e-01,9.917e-01,6.429e-01,7.648e-01,7.086e-01,1.071e+00,1.026e+00,7.695e-01,1.620e+00,1.179e+00,1.605e+00,3.670e-01,6.611e-01,1.634e+00,1.475e+00,8.265e-01,5.504e-01,6.801e-01,1.338e+00,7.222e-01,1.202e+00,8.809e-01,1.248e+00,7.132e-01,1.453e+00,1.293e+00,1.052e+00,8.371e-01,1.136e+00,8.828e-01,1.591e+00,9.297e-01,9.646e-01,1.195e+00,1.261e+00,9.398e-01,2.212e-01,9.924e-01,6.944e-01,9.463e-01,1.103e+00,6.817e-01,6.447e-01,3.573e-01,5.101e-01,1.464e+00,8.540e-01,1.066e+00,8.356e-01,1.048e+00,9.268e-01,1.295e+00,5.585e-01,1.171e+00,6.387e-01,7.739e-01,1.439e+00,1.248e+00,1.532e+00,1.083e+00,6.107e-01,1.152e+00,3.713e-01,6.593e-01,8.874e-01,1.405e+00,1.082e+00,8.156e-01,7.127e-01
1.176e-01,7.867e-01,5.061e-01,9.624e-01,5.886e-01,6.110e-01,2.375e+00,1.222e+00,8.707e-01,1.497e+00,1.184e+00,9.411e-01,1.028e+00,1.284e+00,1.227e+00,1.184e+00,6.735e-01,2.259e+00,1.255e+00,1.462e+00,9.983e-01,7.955e-01,2.282e+00,1.635e+00,1.154e+00,6.447e-01,1.162e+00,2.176e+00,1.536e+00,1.623e+00,1.300e+00,1.896e+00,1.418e+00,1.522e+00,1.101e+00,1.034e+00,1.333e+00,1.619e+00,1.228e+00,1.604e+00,9.939e-01,1.195e+00,1.221e+00,1.673e+00,1.164e+00,6.619e-01,1.492e+00,9.995e-01,1.699e+00,1.944e+00,1.115e+00,1.336e+00,5.109e-01,9.754e-01,2.160e+00,1.715e+00,1.764e+00,1.427e+00,1.729e+00,7.130e-01,1.841e+00,8.460e-01,1.498e+00,7.820e-01,7.423e-01,1.895e+00,1.290e+00,1.803e+00,1.365e+00,1.306e+00,2.005e+00,1.062e+00,1.359e+00,1.648e+00,1.634e+00,1.245e+00,1.248e+00,8.912e-01
5.790e-02,1.171e+00,8.794e-01,6.756e-01,1.578e+00,1.396e+00,2.119e+00,1.865e+00,1.837e+00,2.311e+00,1.606e+00,1.491e+00,1.920e+00,1.304e+00,1.738e+00,1.962e+00,1.516e+00,2.634e+00,2.374e+00,2.106e+00,1.608e+00,1.632e+00,2.278e+00,1.486e+00,1.550e+00,1.124e+00,1.709e+00,2.752e+00,2.410e+00,1.943e+00,1.975e+00,2.186e+00,1.275e+00,1.768e+00,1.836e+00,1.334e+00,1.927e+00,1.927e+00,1.779e+00,2.132e+00,2.147e+00,2.334e+00,1.205e+00,1.582e+00,1.662e+00,1.786e+00,2.106e+00,1.856e+00,2.202e+00,2.474e+00,2.295e+00,1.692e+00,1.149e+00,1.055e+00,2.895e+00,2.303e+00,1.886e+00,1.207e+00,2.662e+00,1.242e+00,2.188e+00,2.064e+00,2.233e+00,2.233e+00,1.708e+00,2.821e+00,2.569e+00,1.938e+00,1.987e+00,2.801e+00,2.256e+00,1.099e+00,2.274e+00,2.131e+00,2.020e+00,1.749e+00,1.233e+00,9.105e-01
6.765e-02,8.854e-01,1.004e+00,6.521e-01,1.160e+00,1.288e+00,2.976e+00,1.741e+00,2.287e+00,2.364e+00,2.370e+00,1.092e+00,1.528e+00,1.160e+00,2.066e+00,2.271e+00,1.654e+00,2.429e+00,2.386e+00,2.476e+00,1.955e+00,2.076e+00,3.019e+00,1.854e+00,1.536e+00,1.002e+00,1.791e+00,2.318e+00,2.145e+00,2.421e+00,1.517e+00,2.507e+00,2.230e+00,2.608e+00,2.031e+00,2.082e+00,2.091e+00,2.223e+00,2.392e+00,2.918e+00,1.779e+00,1.918e+00,1.931e+00,2.799e+00,1.812e+00,1.538e+00,1.649e+00,1.581e+00,2.109e+00,2.256e+00,1.679e+00,1.609e+00,1.074e+00,1.794e+00,3.245e+00,2.084e+00,2.361e+00,1.716e+00,2.715e+00,1.385e+00,1.994e+00,1.975e+00,1.781e+00,1.576e+00,1.177e+00,2.627e+00,2.943e+00,2.366e+00,1.833e+00,1.955e+00,2.570e+00,1.678e+00,2.551e+00,2.014e+00,2.026e+00,2.314e+00,1.328e+00,1.707e+00
1.113e-01,9.273e-01,3.649e-01,9.251e-01,8.016e-01,1.238e+00,3.387e+00,1.734e+00,2.666e+00,3.338e+00,2.327e+00,1.751e+00,1.783e+00,2.563e+00,2.216e+00,2.514e+00,1.270e+00,2.734e+00,2.841e+00,2.675e+00,2.726e+00,2.121e+00,3.028e+00,2.260e+00,1.596e+00,1.272e+00,1.660e+00,2.454e+00,2.597e+00,3.100e+00,1.947e+00,2.526e+00,2.929e+00,2.794e+00,2.089e+00,2.532e+00,2.875e+00,2.927e+00,2.204e+00,2.606e+00,2.457e+00,2.585e+00,2.030e+00,2.882e+00,2.532e+00,1.839e+00,2.764e+00,1.549e+00,2.691e+00,2.832e+00,1.952e+00,1.929e+00,1.383e+00,1.579e+00,3.261e+00,3.060e+00,3.007e+00,2.172e+00,2.713e+00,1.025e+00,2.769e+00,1.791e+00,2.272e+00,2.245e+00,1.627e+00,3.112e+00,2.454e+00,2.896e+00,2.494e+00,2.812e+00,3.303e+00,1.806e+00,2.765e+00,2.687e+00,2.783e+00,1.604e+00,1.998e+00,2.173e+00
1.227e-01,1.411e+00,6.716e-01,1.023e+00,1.459e+00,1.670e+00,3.066e+00,2.971e+00,2.928e+00,3.757e+00,3.129e+00,3.012e+00,2.365e+00,2.321e+00,2.677e+00,3.255e+00,2.243e+00,3.406e+00,4.275e+00,3.506e+00,2.886e+00,2.968e+00,3.164e+00,2.439e+00,2.657e+00,2.259e+00,2.844e+00,3.607e+00,3.163e+00,3.816e+00,3.364e+00,3.119e+00,2.529e+00,2.972e+00,2.745e+00,2.959e+00,2.998e+00,3.069e+00,2.921e+00,3.913e+00,3.562e+00,3.027e+00,2.044e+00,3.397e+00,2.435e+00,2.660e+00,3.128e+00,2.484e+00,3.962e+00,3.760e+00,3.483e+00,2.582e+00,1.853e+00,2.211e+00,4.365e+00,3.332e+00,3.042e+00,2.870e+00,3.599e+00,1.435e+00,2.904e+00,2.736e+00,3.045e+00,2.804e+00,2.133e+00,4.057e+00,3.769e+00,3.189e+00,3.053e+00,3.596e+00,3.486e+00,1.916e+00,3.272e+00,3.581e+00,2.929e+00,2.194e+00,2.837e+00,2.429e+00
9.762e-02,1.057e+00,8.621e-01,8.672e-01,1.235e+00,1.336e+00,3.701e+00,2.713e+00,3.025e+00,4.117e+00,3.943e+00,2.773e+00,2.592e+00,3.326e+00,2.913e+00,3.513e+00,2.895e+00,3.760e+00,3.892e+00,4.334e+00,3.127e+00,3.304e+00,4.124e+00,3.814e+00,2.860e+00,2.078e+00,2.552e+00,3.479e+00,3.584e+00,3.999e+00,2.651e+00,3.213e+00,3.341e+00,3.060e+00,3.747e+00,3.593e+00,3.160e+00,3.005e+00,3.596e+00,4.579e+00,3.481e+00,3.493e+00,3.021e+00,4.089e+00,2.781e+00,2.783e+00,3.185e+00,2.202e+00,3.967e+00,4.030e+00,3.165e+00,3.092e+00,2.166e+00,2.496e+00,4.428e+00,3.629e+00,3.265e+00,2.929e+00,3.611e+00,1.831e+00,3.227e+00,3.208e+00,2.759e+00,2.763e+00,2.129e+00,4.874e+00,4.254e+00,4.460e+00,4.037e+00,3.310e+00,4.080e+00,2.223e+00,3.627e+00,3.286e+00,4.075e+00,3.142e+00,2.835e+00,2.927e+00
9.834e-02,5.796e-01,5.238e-01,7.175e-01,5.211e-01,6.513e-01,2.723e+00,1.639e+00,1.881e+00,3.513e+00,2.750e+00,2.138e+00,2.247e+00,2.850e+00,2.368e+00,2.859e+00,1.951e+00,3.263e+00,3.065e+00,3.118e+00,1.954e+00,2.927e+00,3.357e+00,2.970e+00,2.086e+00,1.889e+00,2.167e+00,2.345e+00,2.306e+00,3.475e+00,1.963e+00,2.216e+00,2.688e+00,2.491e+00,3.081e+00,2.799e+00,2.697e+00,2.458e+00,3.103e+00,3.328e+00,2.647e+00,2.300e+00,2.851e+00,3.044e+00,2.823e+00,2.029e+00,2.776e+00,1.484e+00,2.957e+00,2.885e+00,2.230e+00,3.024e+00,1.842e+00,2.368e+00,2.956e+00,2.313e+00,3.127e+00,2.588e+00,2.228e+00,1.421e+00,3.072e+00,2.237e+00,1.989e+00,1.984e+00,1.412e+00,3.725e+00,2.986e+00,3.656e+00,3.586e+00,1.787e+00,3.450e+00,2.005e+00,2.683e+00,2.606e+00,3.513e+00,2.494e+00,2.842e+00,3.088e+00
1.045e-01,1.016e+00,6.729e-01,7.685e-01,1.114e+00,1.198e+00,2.725e+00,2.469e+00,2.682e+00,3.827e+00,3.507e+00,3.632e+00,3.229e+00,3.812e+00,2.974e+00,3.608e+00,3.575e+00,3.335e+00,4.355e+00,4.059e+00,2.871e+00,3.312e+00,4.108e+00,3.409e+00,3.111e+00,2.468e+00,3.099e+00,3.674e+00,3.283e+00,3.906e+00,3.502e+00,3.464e+00,2.896e+00,3.517e+00,3.619e+00,3.899e+00,3.705e+00,3.713e+00,3.665e+00,4.392e+00,4.179e+00,3.487e+00,2.914e+00,3.465e+00,3.076e+00,2.703e+00,3.332e+00,2.407e+00,3.874e+00,4.533e+00,3.536e+00,3.695e+00,2.795e+00,2.437e+00,4.302e+00,3.623e+00,3.372e+00,2.863e+00,3.789e+00,2.307e+00,2.984e+00,3.488e+00,3.044e+00,2.683e+00,2.777e+00,4.568e+00,4.793e+00,4.330e+00,4.341e+00,3.556e+00,4.063e+00,2.528e+00,4.097e+00,4.017e+00,3.775e+00,3.660e+00,3.052e+00,3.673e+00
1.708e-02,5.140e-01,6.433e-01,2.157e-01,9.779e-01,1.196e+00,2.103e+00,1.759e+00,2.657e+00,3.350e+00,3.226e+00,2.941e+00,3.135e+00,3.135e+00,2.493e+00,3.130e+00,3.187e+00,3.084e+00,4.177e+00,4.000e+00,2.964e+00,3.560e+00,3.766e+00,3.331e+00,3.227e+00,2.249e+00,2.767e+00,2.683e+00,3.826e+00,3.756e+00,2.278e+00,3.319e+00,2.804e+00,3.609e+00,4.023e+00,3.468e+00,3.044e+00,3.596e+00,3.883e+00,4.246e+00,3.303e+00,3.675e+00,3.425e+00,3.682e+00,2.688e+00,2.743e+00,2.669e+00,1.877e+00,3.089e+00,3.741e+00,3.258e+00,2.865e+00,3.099e+00,2.574e+00,4.226e+00,3.388e+00,2.779e+00,2.287e+00,3.738e+00,2.749e+00,2.886e+00,3.389e+00,2.120e+00,3.088e+00,2.746e+00,3.772e+00,5.124e+00,3.661e+00,3.655e+00,3.048e+00,3.516e+00,2.332e+00,4.266e+00,2.997e+00,3.703e+00,3.187e+00,2.624e+00,3.206e+00
1.026e-01,7.883e-01,7.730e-01,6.660e-01,7.423e-01,7.454e-01,2.588e+00,2.115e+00,2.159e+00,2.967e+00,3.298e+00,2.739e+00,2.742e+00,3.198e+00,3.215e+00,3.372e+00,3.303e+00,3.413e+00,4.299e+00,4.573e+00,2.699e+00,3.549e+00,4.578e+00,4.279e+00,3.722e+00,2.324e+00,3.265e+00,3.785e+00,3.442e+00,4.468e+00,3.060e+00,3.603e+00,3.436e+00,3.822e+00,4.261e+00,3.709e+00,3.233e+00,3.470e+00,3.832e+00,4.807e+00,3.157e+00,3.527e+00,4.196e+00,4.596e+00,3.101e+00,2.169e+00,2.546e+00,1.971e+00,3.564e+00,3.619e+00,3.415e+00,3.605e+00,2.867e+00,2.579e+00,3.853e+00,3.115e+00,3.132e+00,3.130e+00,4.001e+00,2.236e+00,3.056e+00,2.923e+00,2.734e+00,2.727e+00,2.880e+00,4.608e+00,4.739e+00,4.689e+00,4.141e+00,2.771e+00,3.928e+00,2.877e+00,4.119e+00,3.237e+00,4.137e+00,3.598e+00,2.986e+00,3.785e+00
3.772e-02,9.206e-01,6.077e-01,3.257e-01,1.220e+00,1.124e+00,1.982e+00,2.251e+00,2.622e+00,3.202e+00,2.898e+00,3.003e+00,3.038e+00,3.660e+00,3.351e+00,3.561e+00,3.565e+00,3.989e+00,5.147e+00,4.857e+00,3.670e+00,3.906e+00,3.355e+00,4.141e+00,3.463e+00,2.484e+00,3.602e+00,3.801e+00,4.509e+00,4.731e+00,3.495e+00,3.350e+00,3.592e+00,3.680e+00,4.696e+00,3.446e+00,3.388e+00,3.803e+00,3.268e+00,4.537e+00,3.784e+00,4.962e+00,3.357e+00,4.042e+00,3.052e+00,2.849e+00,3.648e+00,2.819e+00,3.275e+00,3.945e+00,4.590e+00,2.771e+00,2.942e+00,2.783e+00,4.147e+00,4.418e+00,2.745e+00,2.366e+00,4.532e+00,3.106e+00,4.164e+00,3.609e+00,3.165e+00,4.299e+00,4.015e+00,4.528e+00,5.554e+00,4.461e+00,4.554e+00,3.748e+00,3.353e+00,1.873e+00,4.028e+00,3.969e+00,4.596e+00,3.135e+00,3.197e+00,3.606e+00
7.203e-02,9.899e-01,5.235e-01,5.345e-01,8.303e-01,8.302e-01,1.974e+00,2.067e+00,2.157e+00,2.845e+00,3.033e+00,3.028e+00,2.419e+00,3.310e+00,3.465e+00,3.079e+00,4.473e+00,3.625e+00,4.443e+00,4.079e+00,4.150e+00,4.245e+00,3.558e+00,3.813e+00,3.454e+00,2.530e+00,4.328e+00,3.561e+00,4.326e+00,4.104e+00,4.026e+00,3.727e+00,3.835e+00,4.623e+00,4.041e+00,4.326e+00,3.403e+00,3.759e+00,3.696e+00,4.901e+00,4.083e+00,4.196e+00,3.472e+00,4.564e+00,2.748e+00,3.112e+00,3.698e+00,3.071e+00,3.363e+00,4.825e+00,4.030e+00,2.998e+00,3.246e+00,3.157e+00,4.325e+00,4.588e+00,3.423e+00,3.337e+00,4.329e+00,2.980e+00,3.769e+00,4.333e+00,3.455e+00,2.889e+00,3.627e+00,4.088e+00,5.268e+00,4.630e+00,4.474e+00,3.897e+00,3.934e+00,2.516e+00,4.637e+00,4.617e+00,3.619e+00,4.008e+00,3.887e+00,4.189e+00
8.691e-02,6.496e-01,3.855e-01,5.548e-01,8.001e-01,9.986e-01,1.873e+00,1.895e+00,2.213e+00,3.472e+00,2.585e+00,3.028e+00,3.079e+00,3.492e+00,3.472e+00,3.744e+00,3.659e+00,4.779e+00,5.218e+00,4.779e+00,3.143e+00,4.447e+00,3.974e+00,4.395e+00,3.813e+00,2.736e+00,3.915e+00,4.140e+00,4.134e+00,5.126e+00,4.110e+00,3.361e+00,4.200e+00,3.791e+00,5.258e+00,4.292e+00,4.007e+00,4.134e+00,4.313e+00,4.777e+00,4.213e+00,4.141e+00,4.061e+00,4.743e+00,3.957e+00,3.585e+00,4.096e+00,2.747e+00,4.105e+00,4.149e+00,4.339e+00,4.344e+00,3.964e+00,3.232e+00,3.995e+00,3.402e+00,3.774e+00,3.809e+00,4.191e+00,2.328e+00,4.411e+00,3.401e+00,3.765e+00,3.869e+00,4.011e+00,5.076e+00,5.530e+00,5.009e+00,5.169e+00,4.216e+00,4.485e+00,3.190e+00,4.228e+00,3.956e+00,4.752e+00,3.615e+00,3.906e+00,4.085e+00
1.176e-01,1.261e+00,8.282e-01,7.733e-01,1.371e+00,1.378e+00,2.473e+00,2.404e+00,2.763e+00,3.011e+00,2.568e+00,2.820e+00,2.527e+00,2.703e+00,3.257e+00,3.160e+00,4.711e+00,5.542e+00,5.842e+00,5.535e+00,4.383e+00,5.079e+00,4.450e+00,4.842e+00,4.286e+00,2.931e+00,3.924e+00,4.887e+00,5.371e+00,5.272e+00,4.755e+00,4.677e+00,3.972e+00,5.203e+00,5.658e+00,4.784e+00,4.191e+00,5.082e+00,4.667e+00,5.858e+00,4.490e+00,4.426e+00,4.332e+00,5.498e+00,3.401e+00,3.826e+00,4.604e+00,3.329e+00,3.910e+00,4.937e+00,4.821e+00,3.120e+00,4.140e+00,3.777e+00,5.002e+00,4.152e+00,4.443e+00,3.988e+00,4.447e+00,3.392e+00,4.995e+00,4.075e+00,4.230e+00,4.339e+00,4.283e+00,4.493e+00,5.902e+00,5.414e+00,4.889e+00,5.076e+00,4.595e+00,3.070e+00,4.912e+00,5.044e+00,4.932e+00,3.613e+00,4.415e+00,4.272e+00
5.214e-02,4.392e-01,2.128e-01,4.750e-01,5.682e-01,8.685e-01,2.230e+00,1.599e+00,2.142e+00,3.669e+00,2.912e+00,3.151e+00,3.577e+00,4.512e+00,3.997e+00,4.085e+00,5.107e+00,6.031e+00,6.231e+00,5.782e+00,5.568e+00,5.519e+00,5.930e+00,6.734e+00,5.246e+00,3.582e+00,5.031e+00,5.313e+00,6.260e+00,6.447e+00,5.875e+00,5.309e+00,6.170e+00,5.369e+00,6.746e+00,5.696e+00,5.289e+00,6.045e+00,6.128e+00,5.444e+00,5.141e+00,5.027e+00,5.145e+00,6.756e+00,4.991e+00,4.621e+00,5.329e+00,3.456e+00,4.774e+00,5.401e+00,5.622e+00,6.016e+00,5.520e+00,4.680e+00,4.719e+00,5.879e+00,5.204e+00,4.490e+00,5.605e+00,4.015e+00,5.496e+00,5.180e+00,4.696e+00,4.740e+00,4.873e+00,6.571e+00,6.869e+00,7.153e+00,6.986e+00,5.942e+00,5.720e+00,5.039e+00,6.758e+00,5.572e+00,6.256e+00,5.036e+00,4.777e+00,5.611e+00
1.231e-01,1.183e+00,4.825e-01,7.934e-01,1.018e+00,1.187e+00,2.591e+00,2.369e+00,3.055e+00,3.933e+00,3.315e+00,3.380e+00,2.861e+00,4.048e+00,4.073e+00,3.687e+00,4.888e+00,5.313e+00,6.681e+00,6.595e+00,5.819e+00,5.838e+00,5.764e+00,6.266e+00,5.954e+00,4.344e+00,5.650e+00,5.139e+00,6.833e+00,6.197e+00,5.518e+00,6.073e+00,5.412e+00,5.850e+00,7.311e+00,6.044e+00,5.278e+00,6.284e+00,6.041e+00,6.215e+00,5.154e+00,6.007e+00,6.337e+00,7.208e+00,4.984e+00,4.430e+00,5.050e+00,3.849e+00,4.981e+00,5.684e+00,5.893e+00,5.296e+00,5.289e+00,4.392e+00,5.470e+00,6.211e+00,4.884e+00,4.885e+00,5.999e+00,3.836e+00,5.255e+00,5.134e+00,5.187e+00,4.539e+00,5.605e+00,6.589e+00,7.221e+00,7.169e+00,6.808e+00,6.305e+00,5.498e+00,4.655e+00,6.298e+00,5.357e+00,6.933e+00,5.023e+00,5.339e+00,5.953e+00
6.153e-02,6.892e-01,5.697e-01,5.325e-01,7.144e-01,5.708e-01,2.221e+00,1.624e+00,1.544e+00,2.774e+00,2.421e+00,2.510e+00,3.022e+00,3.733e+00,3.249e+00,3.292e+00,3.942e+00,5.056e+00,4.832e+00,5.102e+00,4.327e+00,4.581e+00,5.394e+00,5.424e+00,3.998e+00,2.646e+00,5.071e+00,4.730e+00,4.663e+00,5.745e+00,4.312e+00,4.779e+00,4.839e+00,4.322e+00,5.549e+00,4.864e+00,4.680e+00,4.757e+00,4.446e+00,4.853e+00,4.390e+00,4.850e+00,4.976e+00,5.205e+00,4.348e+00,3.709e+00,5.300e+00,3.038e+00,4.287e+00,4.703e+00,5.123e+00,4.776e+00,3.839e+00,3.882e+00,5.003e+00,5.565e+00,4.189e+00,3.856e+00,4.305e+00,3.956e+00,4.925e+00,4.461e+00,3.933e+00,4.619e+00,4.922e+00,5.072e+00,5.981e+00,6.397e+00,6.100e+00,5.005e+00,5.379e+00,3.939e+00,5.360e+00,4.743e+00,6.200e+00,4.879e+00,4.387e+00,4.935e+00
9.626e-02,7.076e-01,6.861e-01,8.241e-01,1.055e+00,1.357e+00,3.085e+00,2.197e+00,2.448e+00,3.773e+00,3.044e+00,3.208e+00,3.960e+00,4.091e+00,4.655e+00,4.571e+00,4.980e+00,7.336e+00,6.677e+00,6.556e+00,5.943e+00,6.843e+00,6.823e+00,7.785e+00,6.538e+00,4.764e+00,6.992e+00,6.482e+00,7.691e+00,8.174e+00,6.433e+00,6.912e+00,7.286e+00,6.192e+00,8.159e+00,5.736e+00,5.992e+00,7.190e+00,6.845e+00,6.351e+00,5.421e+00,6.731e+00,6.834e+00,8.708e+00,6.314e+00,5.182e+00,6.219e+00,4.890e+00,5.346e+00,6.522e+00,7.050e+00,6.567e+00,6.424e+00,5.112e+00,7.217e+00,7.341e+00,6.005e+00,5.210e+00,6.743e+00,4.717e+00,7.464e+00,5.568e+00,5.828e+00,6.061e+00,5.875e+00,6.613e+00,8.097e+00,8.191e+00,8.288e+00,7.433e+00,6.205e+00,5.360e+00,7.667e+00,6.073e+00,7.089e+00,5.881e+00,6.670e+00,6.339e+00
3.205e-03,6.385e-01,5.693e-01,2.395e-01,9.801e-01,9.947e-01,1.722e+00,1.281e+00,1.980e+00,3.245e+00,2.358e+00,2.114e+00,2.844e+00,2.775e+00,2.785e+00,2.719e+00,4.089e+00,4.610e+00,4.511e+00,4.735e+00,4.852e+00,5.991e+00,6.041e+00,5.559e+00,5.607e+00,4.468e+00,5.277e+00,5.167e+00,6.012e+00,6.114e+00,4.146e+00,6.006e+00,4.998e+00,5.264e+00,6.315e+00,5.080e+00,5.589e+00,5.409e+00,5.901e+00,5.153e+00,4.702e+00,5.353e+00,6.105e+00,6.626e+00,5.437e+00,5.277e+00,5.321e+00,3.553e+00,4.258e+00,5.800e+00,5.302e+00,5.575e+00,5.264e+00,3.795e+00,5.850e+00,6.498e+00,5.230e+00,4.712e+00,4.627e+00,3.733e+00,5.389e+00,5.646e+00,4.659e+00,5.826e+00,5.408e+00,5.207e+00,6.119e+00,6.325e+00,6.250e+00,6.343e+00,6.075e+00,4.747e+00,6.930e+00,5.037e+00,6.665e+00,5.225e+00,5.193e+00,5.342e+00
9.950e-02,5.498e-01,5.596e-01,7.599e-01,5.768e-01,7.309e-01,2.863e+00,1.656e+00,1.809e+00,3.296e+00,2.639e+00,2.624e+00,3.493e+00,3.840e+00,3.855e+00,3.873e+00,3.798e+00,5.760e+00,5.193e+00,5.186e+00,4.530e+00,5.703e+00,7.405e+00,7.579e+00,6.690e+00,4.809e+00,6.075e+00,6.571e+00,6.250e+00,8.112e+00,5.149e+00,7.073e+00,7.402e+00,6.475e+00,7.571e+00,6.076e+00,6.707e+00,6.746e+00,6.493e+00,5.326e+00,5.018e+00,6.329e+00,6.582e+00,8.392e+00,7.111e+00,4.957e+00,6.222e+00,4.012e+00,4.971e+00,6.821e+00,5.442e+00,7.502e+00,5.937e+00,5.156e+00,6.092e+00,7.317e+00,6.469e+00,5.487e+00,6.255e+00,4.170e+00,6.501e+00,5.206e+00,5.940e+00,5.342e+00,6.159e+00,6.899e+00,7.137e+00,7.891e+00,8.040e+00,6.238e+00,6.485e+00,5.645e+00,6.949e+00,6.244e+00,7.146e+00,5.745e+00,6.224e+00,6.089e+00
3.239e-02,5.655e-01,3.483e-01,2.669e-01,8.520e-01,9.875e-01,1.304e+00,1.185e+00,1.860e+00,2.404e+00,1.424e+00,1.483e+00,2.018e+00,1.929e+00,3.013e+00,2.673e+00,3.021e+00,3.547e+00,4.207e+00,4.284e+00,4.457e+00,5.061e+00,5.265e+00,5.708e+00,5.707e+00,3.977e+00,5.618e+00,6.009e+00,5.710e+00,6.210e+00,5.213e+00,6.197e+00,5.542e+00,5.135e+00,6.561e+00,5.199e+00,6.593e+00,6.262e+00,5.352e+00,3.666e+00,4.886e+00,6.255e+00,5.728e+00,6.905e+00,6.367e+00,5.014e+00,5.289e+00,4.597e+00,4.009e+00,5.179e+00,5.396e+00,6.022e+00,4.738e+00,3.811e+00,5.101e+00,6.290e+00,5.252e+00,4.364e+00,5.208e+00,3.806e+00,4.463e+00,4.911e+00,6.020e+00,5.369e+00,6.003e+00,5.862e+00,5.475e+00,6.935e+00,7.690e+00,6.772e+00,5.103e+00,5.173e+00,6.319e+00,5.508e+00,6.250e+00,4.684e+00,5.224e+00,5.381e+00
6.074e-02,6.486e-01,5.385e-01,4.367e-01,8.278e-01,1.013e+00,2.121e+00,1.714e+00,2.346e+00,3.265e+00,2.662e+00,2.391e+00,2.514e+00,3.004e+00,3.365e+00,3.404e+00,4.052e+00,5.260e+00,5.604e+00,5.502e+00,4.625e+00,5.393e+00,6.386e+00,6.239e+00,5.532e+00,4.675e+00,5.878e+00,6.548e+00,6.207e+00,7.515e+00,5.393e+00,6.346e+00,6.359e+00,6.355e+00,7.055e+00,7.221e+00,6.442e+00,6.343e+00,6.417e+00,6.058e+00,4.968e+00,5.240e+00,5.927e+00,7.738e+00,5.656e+00,6.200e+00,5.530e+00,3.980e+00,5.636e+00,5.837e+00,5.702e+00,6.383e+00,4.858e+00,5.811e+00,5.858e+00,6.659e+00,5.914e+00,6.125e+00,6.287e+00,4.824e+00,5.708e+00,6.795e+00,5.822e+00,5.098e+00,5.571e+00,6.794e+00,7.093e+00,7.732e+00,6.864e+00,5.836e+00,6.802e+00,5.780e+00,6.987e+00,6.071e+00,6.991e+00,5.417e+00,5.184e+00,5.866e+00
8.991e-02,1.328e+00,1.151e+00,7.695e-01,1.444e+00,1.309e+00,3.086e+00,2.559e+00,2.698e+00,3.577e+00,3.464e+00,2.535e+00,2.964e+00,3.269e+00,4.410e+00,4.163e+00,4.901e+00,5.601e+00,6.329e+00,6.582e+00,5.432e+00,6.048e+00,8.008e+00,7.201e+00,6.905e+00,5.273e+00,7.394e+00,8.370e+00,7.366e+00,8.315e+00,6.658e+00,8.804e+00,7.982e+00,7.017e+00,8.477e+00,7.945e+00,8.358e+00,7.466e+00,7.599e+00,7.577e+00,6.487e+00,7.021e+00,7.460e+00,9.191e+00,6.988e+00,6.157e+00,6.588e+00,6.044e+00,6.521e+00,7.353e+00,7.446e+00,8.414e+00,5.358e+00,6.766e+00,7.375e+00,8.184e+00,6.486e+00,6.637e+00,7.905e+00,5.836e+00,5.887e+00,7.604e+00,7.327e+00,6.268e+00,7.048e+00,8.310e+00,8.932e+00,9.620e+00,8.987e+00,7.916e+00,8.428e+00,7.036e+00,7.882e+00,7.987e+00,9.000e+00,7.582e+00,6.305e+00,7.844e+00
4.132e-02,4.290e-01,4.268e-01,4.741e-01,6.247e-01,7.862e-01,1.747e+00,1.141e+00,1.136e+00,1.706e+00,1.607e+00,1.765e+00,2.156e+00,2.147e+00,1.985e+00,2.202e+00,3.359e+00,4.459e+00,4.084e+00,4.157e+00,4.064e+00,4.060e+00,5.828e+00,5.593e+00,5.427e+00,4.261e+00,5.973e+00,7.433e+00,7.413e+00,7.673e+00,5.630e+00,7.801e+00,6.893e+00,6.276e+00,6.615e+00,6.798e+00,7.220e+00,6.584e+00,6.048e+00,5.660e+00,4.845e+00,5.766e+00,5.709e+00,8.316e+00,5.959e+00,5.433e+00,6.325e+00,5.800e+00,5.644e+00,7.049e+00,6.189e+00,7.018e+00,5.427e+00,5.855e+00,6.718e+00,7.337e+00,5.773e+00,5.996e+00,6.915e+00,6.007e+00,5.996e+00,6.883e+00,5.987e+00,5.157e+00,5.998e+00,5.663e+00,7.422e+00,8.215e+00,7.141e+00,7.428e+00,7.018e+00,6.282e+00,6.697e+00,6.654e+00,7.240e+00,5.577e+00,5.611e+00,6.423e+00
1.112e-01,1.365e+00,1.069e+00,9.609e-01,1.320e+00,1.035e+00,3.368e+00,2.301e+00,2.104e+00,3.441e+00,2.775e+00,2.970e+00,4.022e+00,3.900e+00,4.438e+00,4.170e+00,5.052e+00,6.548e+00,6.055e+00,5.651e+00,5.833e+00,6.114e+00,7.316e+00,7.038e+00,6.443e+00,4.711e+00,7.888e+00,8.797e+00,8.271e+00,8.747e+00,7.226e+00,9.017e+00,8.435e+00,8.475e+00,8.976e+00,8.747e+00,8.978e+00,8.638e+00,8.317e+00,7.886e+00,7.440e+00,8.709e+00,7.824e+00,9.918e+00,7.809e+00,6.432e+00,9.278e+00,7.462e+00,6.600e+00,9.379e+00,7.812e+00,8.697e+00,6.652e+00,7.125e+00,8.508e+00,8.883e+00,8.056e+00,7.462e+00,8.122e+00,7.531e+00,7.852e+00,8.270e+00,8.278e+00,6.923e+00,8.503e+00,8.743e+00,9.024e+00,1.008e+01,1.012e+01,9.762e+00,9.615e+00,7.634e+00,8.428e+00,8.415e+00,8.998e+00,7.893e+00,8.335e+00,8.411e+00
1.131e-01,1.388e+00,1.089e+00,8.971e-01,1.544e+00,1.208e+00,2.731e+00,2.826e+00,2.143e+00,3.051e+00,2.850e+00,2.793e+00,2.747e+00,2.359e+00,3.301e+00,3.386e+00,3.940e+00,5.380e+00,5.037e+00,5.057e+00,4.374e+00,5.371e+00,6.282e+00,6.127e+00,6.051e+00,5.202e+00,7.232e+00,7.876e+00,7.668e+00,8.995e+00,6.975e+00,7.870e+00,7.655e+00,7.368e+00,8.254e+00,7.759e+00,7.458e+00,6.779e+00,6.628e+00,7.443e+00,6.753e+00,7.343e+00,6.618e+00,8.966e+00,7.385e+00,6.832e+00,7.496e+00,6.741e+00,7.061e+00,8.291e+00,6.868e+00,8.334e+00,5.996e+00,6.072e+00,8.465e+00,8.823e+00,7.213e+00,7.565e+00,7.172e+00,6.134e+00,7.371e+00,8.293e+00,7.360e+00,6.237e+00,7.531e+00,7.628e+00,8.741e+00,9.282e+00,8.409e+00,8.737e+00,8.515e+00,6.065e+00,7.665e+00,7.482e+00,8.059e+00,6.406e+00,7.619e+00,7.389e+00
1.249e-01,1.340e+00,8.039e-01,9.156e-01,1.403e+00,1.502e+00,3.156e+00,2.326e+00,3.272e+00,4.770e+00,3.352e+00,3.547e+00,3.615e+00,4.395e+00,3.681e+00,3.943e+00,4.528e+00,5.135e+00,6.062e+00,5.779e+00,4.827e+00,5.681e+00,7.265e+00,6.264e+00,6.826e+00,5.405e+00,6.524e+00,8.190e+00,8.076e+00,8.960e+00,7.186e+00,9.267e+00,8.338e+00,8.364e+00,9.658e+00,8.898e+00,9.797e+00,9.462e+00,7.935e+00,7.667e+00,7.694e+00,8.953e+00,7.103e+00,9.426e+00,9.124e+00,6.973e+00,8.563e+00,6.810e+00,6.705e+00,1.015e+01,7.398e+00,9.527e+00,7.047e+00,6.525e+00,9.022e+00,9.162e+00,8.230e+00,8.320e+00,8.104e+00,6.811e+00,8.187e+00,8.632e+00,8.054e+00,6.617e+00,9.149e+00,9.165e+00,9.673e+00,1.015e+01,9.561e+00,9.028e+00,9.691e+00,7.202e+00,8.520e+00,8.493e+00,9.789e+00,7.827e+00,7.198e+00,8.798e+00
7.919e-02,9.770e-01,5.376e-01,6.144e-01,9.637e-01,1.092e+00,2.024e+00,1.535e+00,2.160e+00,2.756e+00,2.138e+00,2.330e+00,2.597e+00,2.880e+00,2.896e+00,2.825e+00,3.120e+00,3.024e+00,4.340e+00,4.019e+00,3.603e+00,3.554e+00,5.281e+00,4.148e+00,4.715e+00,3.588e+00,5.184e+00,6.490e+00,5.868e+00,6.512e+00,6.159e+00,7.118e+00,6.670e+00,6.621e+00,6.576e+00,7.047e+00,7.202e+00,7.285e+00,6.509e+00,5.577e+00,5.461e+00,6.936e+00,5.926e+00,8.201e+00,6.126e+00,4.890e+00,5.758e+00,5.099e+00,5.513e+00,7.881e+00,6.997e+00,7.128e+00,4.981e+00,4.936e+00,6.586e+00,7.034e+00,6.361e+00,6.198e+00,6.877e+00,5.582e+00,5.805e+00,7.251e+00,6.787e+00,5.137e+00,6.477e+00,7.031e+00,6.575e+00,7.562e+00,7.004e+00,7.885e+00,7.191e+00,6.577e+00,7.170e+00,6.407e+00,6.373e+00,5.884e+00,5.204e+00,6.846e+00
9.658e-02,6.170e-01,1.826e-01,7.504e-01,5.737e-01,8.501e-01,2.497e+00,1.685e+00,2.065e+00,3.785e+00,2.688e+00,3.599e+00,4.048e+00,4.959e+00,3.719e+00,3.945e+00,4.679e+00,6.261e+00,6.540e+00,6.122e+00,5.607e+00,5.755e+00,6.658e+00,7.551e+00,7.133e+00,5.028e+00,6.754e+00,8.375e+00,9.382e+00,9.510e+00,8.320e+00,9.274e+00,9.498e+00,8.472e+00,1.031e+01,8.594e+00,8.845e+00,9.972e+00,9.195e+00,7.677e+00,8.118e+00,9.970e+00,8.385e+00,1.121e+01,8.123e+00,7.452e+00,8.894e+00,7.113e+00,7.575e+00,1.048e+01,8.966e+00,1.022e+01,8.675e+00,7.320e+00,8.912e+00,1.031e+01,9.361e+00,8.743e+00,8.929e+00,8.394e+00,9.008e+00,8.721e+00,8.999e+00,8.200e+00,9.239e+00,9.513e+00,1.006e+01,1.135e+01,1.063e+01,1.000e+01,9.716e+00,8.956e+00,9.381e+00,8.997e+00,1.060e+01,7.534e+00,8.794e+00,9.592e+00
8.413e-02,7.962e-01,4.379e-01,7.637e-01,8.963e-01,1.151e+00,2.902e+00,2.241e+00,2.491e+00,3.754e+00,3.307e+00,3.076e+00,2.833e+00,3.809e+00,3.456e+00,3.510e+00,4.689e+00,6.304e+00,6.173e+00,6.417e+00,6.364e+00,6.264e+00,7.409e+00,8.213e+00,7.327e+00,5.759e+00,7.067e+00,7.769e+00,9.468e+00,9.536e+00,7.965e+00,9.482e+00,9.985e+00,8.787e+00,1.098e+01,8.851e+00,8.324e+00,9.516e+00,9.224e+00,8.525e+00,7.721e+00,8.915e+00,8.347e+00,1.203e+01,8.446e+00,8.553e+00,8.710e+00,6.676e+00,8.511e+00,9.982e+00,9.293e+00,9.534e+00,8.318e+00,8.712e+00,8.991e+00,1.197e+01,9.556e+00,8.420e+00,8.381e+00,8.396e+00,8.652e+00,9.985e+00,8.821e+00,7.408e+00,8.733e+00,9.211e+00,1.057e+01,1.168e+01,1.057e+01,9.984e+00,9.038e+00,8.254e+00,9.976e+00,9.459e+00,1.054e+01,7.733e+00,9.382e+00,9.189e+00
3.083e-03,1.451e-01,2.062e-01,8.563e-02,5.524e-01,8.503e-01,1.126e+00,1.280e+00,1.753e+00,2.309e+00,2.176e+00,2.083e+00,2.096e+00,2.370e+00,2.616e+00,2.682e+00,3.721e+00,4.658e+00,5.093e+00,5.410e+00,4.807e+00,5.243e+00,5.517e+00,6.617e+00,6.208e+00,4.706e+00,6.038e+00,7.486e+00,8.385e+00,8.326e+00,7.142e+00,8.893e+00,8.897e+00,7.727e+00,1.166e+01,8.683e+00,8.353e+00,1.027e+01,9.748e+00,8.780e+00,7.236e+00,9.223e+00,7.688e+00,1.094e+01,8.171e+00,8.395e+00,8.528e+00,7.238e+00,7.472e+00,9.126e+00,9.002e+00,9.428e+00,8.550e+00,8.525e+00,9.222e+00,9.694e+00,8.095e+00,9.705e+00,8.731e+00,9.297e+00,7.303e+00,9.543e+00,8.685e+00,7.475e+00,9.294e+00,8.879e+00,1.013e+01,1.064e+01,1.051e+01,9.656e+00,8.893e+00,8.308e+00,9.616e+00,8.235e+00,9.475e+00,7.450e+00,8.355e+00,8.386e+00
1.115e-01,1.167e+00,6.997e-01,8.425e-01,1.076e+00,1.186e+00,2.577e+00,1.996e+00,2.507e+00,3.684e+00,3.088e+00,3.438e+00,3.476e+00,3.940e+00,3.652e+00,3.397e+00,5.451e+00,5.800e+00,6.776e+00,6.856e+00,6.323e+00,6.639e+00,8.897e+00,7.815e+00,8.224e+00,5.914e+00,7.900e+00,9.628e+00,9.747e+00,9.816e+00,8.481e+00,1.116e+01,9.123e+00,1.021e+01,1.270e+01,1.095e+01,1.109e+01,1.258e+01,1.131e+01,1.034e+01,8.773e+00,1.026e+01,9.704e+00,1.206e+01,9.720e+00,9.341e+00,1.004e+01,7.562e+00,8.619e+00,1.174e+01,9.813e+00,1.098e+01,9.271e+00,8.977e+00,1.080e+01,1.168e+01,1.064e+01,1.104e+01,1.035e+01,9.815e+00,9.280e+00,1.058e+01,9.742e+00,8.848e+00,1.088e+01,1.092e+01,1.156e+01,1.243e+01,1.200e+01,1.102e+01,1.098e+01,9.988e+00,1.264e+01,1.075e+01,1.153e+01,9.846e+00,1.006e+01,1.071e+01
2.055e-02,7.482e-01,7.867e-01,4.322e-01,1.258e+00,1.386e+00,2.689e+00,1.877e+00,2.525e+00,3.617e+00,2.890e+00,2.255e+00,3.375e+00,3.410e+00,4.460e+00,4.165e+00,5.185e+00,6.835e+00,6.790e+00,6.556e+00,6.808e+00,6.990e+00,7.424e+00,8.297e+00,7.805e+00,6.308e+00,8.249e+00,9.683e+00,1.085e+01,1.014e+01,8.545e+00,1.074e+01,1.064e+01,1.023e+01,1.311e+01,1.048e+01,1.164e+01,1.213e+01,1.202e+01,1.039e+01,8.124e+00,1.062e+01,9.143e+00,1.415e+01,1.130e+01,9.356e+00,1.111e+01,1.028e+01,9.005e+00,1.213e+01,1.129e+01,1.079e+01,1.029e+01,1.004e+01,1.012e+01,1.201e+01,1.015e+01,1.120e+01,1.229e+01,1.108e+01,1.110e+01,1.112e+01,1.085e+01,8.721e+00,1.116e+01,1.183e+01,1.231e+01,1.277e+01,1.358e+01,1.182e+01,1.075e+01,1.030e+01,1.162e+01,1.057e+01,1.238e+01,1.042e+01,1.041e+01,1.037e+01
9.387e-02,1.244e+00,7.540e-01,6.504e-01,1.110e+00,7.082e-01,2.110e+00,2.121e+00,1.766e+00,2.368e+00,2.115e+00,2.789e+00,3.110e+00,3.310e+00,3.513e+00,3.392e+00,4.773e+00,5.470e+00,6.327e+00,5.794e+00,5.719e+00,5.689e+00,6.983e+00,6.895e+00,6.753e+00,5.572e+00,7.191e+00,8.021e+00,7.182e+00,8.453e+00,8.424e+00,9.468e+00,8.482e+00,8.364e+00,1.039e+01,9.291e+00,1.057e+01,1.036e+01,1.019e+01,8.813e+00,8.719e+00,9.675e+00,8.185e+00,1.151e+01,9.678e+00,8.295e+00,1.017e+01,7.849e+00,7.842e+00,1.143e+01,1.064e+01,9.972e+00,8.202e+00,7.839e+00,9.118e+00,1.145e+01,9.280e+00,9.451e+00,8.604e+00,9.839e+00,9.592e+00,9.724e+00,1.026e+01,8.751e+00,1.120e+01,9.886e+00,1.105e+01,1.104e+01,1.154e+01,1.071e+01,1.078e+01,9.225e+00,1.010e+01,1.046e+01,1.113e+01,9.906e+00,1.040e+01,1.023e+01
7.596e-02,1.021e+00,6.263e-01,5.826e-01,1.185e+00,1.026e+00,1.579e+00,1.748e+00,1.762e+00,2.913e+00,1.757e+00,2.702e+00,3.171e+00,2.996e+00,3.532e+00,3.148e+00,3.584e+00,5.555e+00,5.713e+00,5.065e+00,4.533e+00,5.358e+00,5.929e+00,6.289e+00,6.340e+00,5.433e+00,7.051e+00,7.062e+00,8.117e+00,8.085e+00,7.771e+00,9.499e+00,8.826e+00,8.676e+00,1.171e+01,8.950e+00,9.836e+00,1.200e+01,1.103e+01,8.209e+00,8.678e+00,1.086e+01,8.539e+00,1.110e+01,1.026e+01,9.116e+00,1.015e+01,8.366e+00,7.914e+00,1.076e+01,1.065e+01,1.106e+01,9.345e+00,8.753e+00,9.126e+00,1.132e+01,9.350e+00,1.052e+01,9.763e+00,1.081e+01,9.493e+00,1.014e+01,1.110e+01,9.226e+00,1.110e+01,9.675e+00,1.161e+01,1.051e+01,1.219e+01,1.004e+01,1.022e+01,8.765e+00,9.986e+00,1.115e+01,1.073e+01,8.466e+00,1.031e+01,9.565e+00
3.417e-02,6.429e-01,3.759e-01,2.753e-01,8.809e-01,1.127e+00,2.000e+00,1.626e+00,2.611e+00,3.249e+00,2.448e+00,2.963e+00,3.656e+00,4.068e+00,4.154e+00,4.112e+00,4.110e+00,4.637e+00,6.051e+00,5.222e+00,5.357e+00,5.584e+00,5.259e+00,6.007e+00,5.920e+00,4.920e+00,6.811e+00,7.245e+00,7.905e+00,8.655e+00,7.268e+00,8.298e+00,8.792e+00,8.295e+00,9.964e+00,8.320e+00,9.814e+00,1.085e+01,1.031e+01,8.009e+00,8.130e+00,1.176e+01,8.571e+00,1.181e+01,9.971e+00,8.640e+00,9.309e+00,8.086e+00,7.070e+00,1.133e+01,1.072e+01,9.264e+00,9.330e+00,7.498e+00,1.035e+01,1.149e+01,1.037e+01,9.684e+00,1.104e+01,9.820e+00,1.018e+01,1.034e+01,1.043e+01,9.960e+00,1.081e+01,9.957e+00,1.122e+01,1.082e+01,1.195e+01,1.080e+01,1.020e+01,9.486e+00,1.115e+01,1.029e+01,9.633e+00,8.316e+00,1.070e+01,9.988e+00
1.102e-02,5.868e-01,5.861e-01,3.450e-01,1.080e+00,1.151e+00,1.608e+00,1.469e+00,1.643e+00,2.877e+00,2.192e+00,2.337e+00,3.118e+00,2.739e+00,3.123e+00,3.218e+00,4.192e+00,4.797e+00,4.644e+00,4.346e+00,4.305e+00,5.158e+00,6.544e+00,6.024e+00,5.863e+00,4.641e+00,5.851e+00,7.479e+00,7.346e+00,7.815e+00,7.064e+00,8.913e+00,8.780e+00,7.905e+00,1.085e+01,8.151e+00,9.423e+00,1.029e+01,1.000e+01,8.791e+00,8.656e+00,9.195e+00,7.397e+00,1.020e+01,1.085e+01,9.385e+00,9.928e+00,7.904e+00,7.634e+00,1.059e+01,9.339e+00,1.067e+01,9.525e+00,8.966e+00,9.323e+00,1.051e+01,1.003e+01,9.977e+00,9.995e+00,8.966e+00,8.019e+00,1.048e+01,1.001e+01,8.900e+00,9.991e+00,1.021e+01,1.103e+01,1.080e+01,1.152e+01,1.016e+01,1.020e+01,8.705e+00,1.067e+01,1.036e+01,9.474e+00,8.325e+00,9.579e+00,8.325e+00
9.098e-02,1.172e+00,7.302e-01,6.959e-01,1.186e+00,1.220e+00,2.763e+00,1.905e+00,2.671e+00,3.213e+00,2.444e+00,2.545e+00,2.886e+00,3.417e+00,3.354e+00,3.318e+00,3.683e+00,4.178e+00,4.945e+00,4.437e+00,4.471e+00,4.508e+00,5.760e+00,5.560e+00,5.554e+00,3.999e+00,5.307e+00,6.842e+00,6.307e+00,7.198e+00,5.983e+00,7.399e+00,7.516e+00,7.614e+00,8.113e+00,7.433e+00,9.136e+00,9.497e+00,7.892e+00,7.502e+00,7.164e+00,1.017e+01,6.900e+00,9.848e+00,1.030e+01,8.475e+00,9.314e+00,8.224e+00,8.175e+00,1.100e+01,9.305e+00,9.341e+00,8.624e+00,7.991e+00,8.772e+00,1.060e+01,8.948e+00,9.024e+00,8.699e+00,8.931e+00,8.762e+00,8.492e+00,8.906e+00,7.802e+00,9.974e+00,9.279e+00,1.145e+01,1.044e+01,1.019e+01,8.154e+00,9.935e+00,9.629e+00,1.033e+01,1.009e+01,9.531e+00,8.486e+00,1.011e+01,9.913e+00
1.147e-02,8.749e-01,7.703e-01,2.106e-01,1.084e+00,7.300e-01,1.392e+00,1.549e+00,1.614e+00,2.829e+00,2.328e+00,2.436e+00,2.989e+00,2.881e+00,2.867e+00,2.958e+00,4.270e+00,4.093e+00,4.700e+00,4.290e+00,4.241e+00,5.292e+00,5.812e+00,5.245e+00,5.796e+00,4.680e+00,6.125e+00,6.903e+00,6.751e+00,7.569e+00,6.637e+00,8.407e+00,7.721e+00,7.301e+00,9.537e+00,8.232e+00,9.406e+00,9.100e+00,9.284e+00,8.146e+00,8.733e+00,1.112e+01,8.324e+00,1.022e+01,1.117e+01,9.890e+00,1.095e+01,9.014e+00,8.013e+00,1.196e+01,9.693e+00,1.122e+01,9.645e+00,8.475e+00,9.877e+00,1.232e+01,9.779e+00,1.063e+01,9.258e+00,9.893e+00,9.163e+00,1.112e+01,1.009e+01,9.413e+00,1.233e+01,1.105e+01,1.227e+01,1.118e+01,1.136e+01,9.472e+00,1.148e+01,1.088e+01,1.085e+01,1.080e+01,1.116e+01,9.911e+00,1.137e+01,1.132e+01
4.735e-02,5.820e-01,2.775e-01,5.102e-01,7.689e-01,1.213e+00,2.317e+00,1.485e+00,2.341e+00,3.854e+00,2.397e+00,2.396e+00,2.919e+00,3.062e+00,3.548e+00,3.563e+00,3.529e+00,5.101e+00,5.200e+00,4.431e+00,5.066e+00,5.537e+00,6.042e+00,5.978e+00,5.535e+00,5.075e+00,6.248e+00,7.092e+00,7.831e+00,8.522e+00,6.850e+00,8.738e+00,8.952e+00,8.067e+00,9.772e+00,8.625e+00,9.820e+00,1.035e+01,1.017e+01,7.684e+00,8.305e+00,9.992e+00,9.183e+00,1.171e+01,1.200e+01,1.060e+01,1.038e+01,8.995e+00,8.421e+00,1.115e+01,9.463e+00,1.126e+01,9.984e+00,9.364e+00,1.024e+01,1.133e+01,1.113e+01,1.112e+01,1.078e+01,9.920e+00,9.420e+00,1.119e+01,1.122e+01,8.947e+00,1.060e+01,1.120e+01,1.147e+01,1.205e+01,1.215e+01,1.002e+01,1.259e+01,1.038e+01,1.197e+01,1.123e+01,9.991e+00,7.543e+00,1.078e+01,1.005e+01
5.123e-02,6.540e-01,6.592e-01,5.527e-01,7.461e-01,6.699e-01,2.451e+00,1.847e+00,1.397e+00,2.452e+00,2.453e+00,2.394e+00,3.158e+00,3.120e+00,3.384e+00,3.506e+00,3.423e+00,4.971e+00,5.106e+00,4.662e+00,4.566e+00,4.610e+00,5.039e+00,5.496e+00,4.927e+00,4.104e+00,6.068e+00,5.645e+00,6.752e+00,7.454e+00,5.868e+00,7.852e+00,7.852e+00,6.373e+00,9.748e+00,6.560e+00,7.953e+00,8.835e+00,8.183e+00,8.167e+00,7.495e+00,8.722e+00,7.608e+00,9.837e+00,1.001e+01,7.490e+00,9.326e+00,8.274e+00,6.838e+00,9.626e+00,9.585e+00,8.948e+00,8.178e+00,9.297e+00,9.141e+00,9.378e+00,9.071e+00,8.339e+00,8.984e+00,9.256e+00,8.173e+00,8.585e+00,8.727e+00,8.717e+00,9.186e+00,9.801e+00,1.063e+01,1.115e+01,1.121e+01,9.478e+00,1.016e+01,7.121e+00,9.004e+00,8.957e+00,9.736e+00,7.488e+00,9.774e+00,8.369e+00
6.254e-02,6.326e-01,3.453e-01,6.287e-01,7.151e-01,9.548e-01,2.312e+00,1.444e+00,1.764e+00,3.015e+00,2.005e+00,2.118e+00,2.739e+00,3.208e+00,3.141e+00,3.153e+00,2.777e+00,5.194e+00,5.129e+00,4.736e+00,4.439e+00,4.479e+00,5.619e+00,5.712e+00,5.053e+00,4.165e+00,5.454e+00,6.324e+00,6.489e+00,7.125e+00,5.889e+00,7.006e+00,7.327e+00,6.873e+00,8.890e+00,6.485e+00,8.173e+00,9.657e+00,9.327e+00,7.242e+00,6.459e+00,9.488e+00,8.625e+00,1.092e+01,1.049e+01,1.085e+01,1.080e+01,9.374e+00,9.446e+00,1.082e+01,1.106e+01,1.092e+01,9.234e+00,9.786e+00,9.809e+00,1.160e+01,1.034e+01,1.022e+01,1.060e+01,1.083e+01,9.554e+00,1.090e+01,1.149e+01,9.900e+00,1.104e+01,1.131e+01,1.262e+01,1.117e+01,1.197e+01,9.209e+00,1.129e+01,1.090e+01,1.135e+01,1.097e+01,1.104e+01,8.097e+00,1.101e+01,1.025e+01
2.604e-02,2.575e-01,2.741e-01,2.810e-01,6.579e-01,9.794e-01,1.502e+00,1.620e+00,1.842e+00,2.742e+00,2.522e+00,2.288e+00,2.284e+00,2.542e+00,3.087e+00,3.238e+00,3.829e+00,4.622e+00,5.003e+00,5.322e+00,4.854e+00,5.595e+00,5.732e+00,6.517e+00,6.213e+00,5.523e+00,6.620e+00,7.392e+00,8.169e+00,8.089e+00,7.950e+00,8.671e+00,9.313e+00,6.972e+00,1.139e+01,9.134e+00,9.707e+00,1.085e+01,1.139e+01,9.343e+00,8.525e+00,1.012e+01,9.425e+00,1.276e+01,1.144e+01,1.216e+01,1.115e+01,1.153e+01,1.119e+01,1.296e+01,1.247e+01,1.397e+01,1.143e+01,1.066e+01,1.171e+01,1.258e+01,1.066e+01,1.273e+01,1.122e+01,1.129e+01,9.724e+00,1.267e+01,1.215e+01,1.112e+01,1.166e+01,1.256e+01,1.359e+01,1.350e+01,1.439e+01,1.242e+01,1.320e+01,1.266e+01,1.133e+01,1.197e+01,1.292e+01,1.061e+01,1.350e+01,1.267e+01
2.920e-02,5.712e-01,5.648e-01,4.141e-01,1.012e+00,1.166e+00,2.002e+00,1.856e+00,1.931e+00,3.033e+00,2.606e+00,2.564e+00,2.843e+00,2.715e+00,2.897e+00,3.392e+00,4.106e+00,4.666e+00,4.568e+00,4.383e+00,4.114e+00,4.942e+00,5.141e+00,5.034e+00,4.803e+00,4.060e+00,5.748e+00,7.290e+00,6.813e+00,7.656e+00,6.923e+00,7.388e+00,7.655e+00,6.742e+00,8.954e+00,8.352e+00,9.696e+00,8.852e+00,9.662e+00,8.192e+00,8.238e+00,9.243e+00,7.656e+00,1.123e+01,1.044e+01,1.039e+01,1.066e+01,9.354e+00,9.570e+00,1.292e+01,1.037e+01,1.073e+01,8.892e+00,8.741e+00,1.114e+01,1.079e+01,1.144e+01,1.112e+01,9.776e+00,9.954e+00,1.052e+01,1.159e+01,1.106e+01,9.866e+00,1.046e+01,1.102e+01,1.138e+01,1.160e+01,1.172e+01,1.145e+01,1.250e+01,9.185e+00,1.115e+01,1.057e+01,1.005e+01,9.577e+00,1.109e+01,9.670e+00
2.707e-02,6.856e-01,9.247e-01,4.502e-01,1.347e+00,1.521e+00,2.656e+00,2.478e+00,2.624e+00,4.119e+00,3.786e+00,3.337e+00,4.167e+00,3.370e+00,4.419e+00,4.806e+00,5.205e+00,6.621e+00,6.629e+00,6.016e+00,5.346e+00,6.590e+00,6.867e+00,7.143e+00,6.700e+00,5.626e+00,7.116e+00,7.301e+00,8.404e+00,8.825e+00,7.413e+00,8.565e+00,9.162e+00,8.334e+00,1.070e+01,8.873e+00,8.884e+00,9.050e+00,1.068e+01,9.686e+00,8.588e+00,8.883e+00,9.336e+00,1.269e+01,1.049e+01,1.139e+01,1.150e+01,1.023e+01,1.126e+01,1.274e+01,1.094e+01,1.305e+01,1.123e+01,1.113e+01,1.216e+01,1.205e+01,1.206e+01,1.120e+01,1.258e+01,1.012e+01,1.099e+01,1.357e+01,1.263e+01,1.037e+01,1.076e+01,1.258e+01,1.283e+01,1.347e+01,1.363e+01,1.209e+01,1.271e+01,1.172e+01,1.210e+01,1.180e+01,1.140e+01,1.019e+01,1.261e+01,1.039e+01
1.000e-01,6.168e-01,2.696e-01,6.150e-01,7.334e-01,8.981e-01,2.135e+00,1.813e+00,2.154e+00,2.875e+00,2.125e+00,3.336e+00,3.462e+00,4.199e+00,3.445e+00,3.633e+00,4.054e+00,5.488e+00,6.176e+00,5.709e+00,5.133e+00,5.163e+00,5.739e+00,7.160e+00,6.267e+00,5.085e+00,6.340e+00,7.203e+00,8.377e+00,9.159e+00,7.642e+00,8.770e+00,8.354e+00,8.398e+00,1.045e+01,7.792e+00,9.511e+00,1.134e+01,9.055e+00,7.858e+00,7.945e+00,1.136e+01,8.636e+00,1.179e+01,1.226e+01,1.099e+01,1.272e+01,1.095e+01,1.063e+01,1.300e+01,1.257e+01,1.311e+01,1.244e+01,1.067e+01,1.238e+01,1.398e+01,1.172e+01,1.195e+01,1.242e+01,1.239e+01,1.256e+01,1.301e+01,1.249e+01,1.116e+01,1.350e+01,1.178e+01,1.377e+01,1.398e+01,1.457e+01,1.241e+01,1.316e+01,1.133e+01,1.191e+01,1.230e+01,1.344e+01,1.027e+01,1.312e+01,1.177e+01
6.652e-03,2.366e-01,2.309e-01,1.375e-01,3.926e-01,4.022e-01,6.394e-01,1.205e+00,7.551e-01,2.214e+00,1.906e+00,2.263e+00,2.608e+00,2.525e+00,3.170e+00,3.095e+00,4.258e+00,4.618e+00,4.883e+00,4.231e+00,4.211e+00,5.364e+00,4.398e+00,5.758e+00,5.939e+00,4.225e+00,6.207e+00,6.991e+00,6.985e+00,7.528e+00,6.897e+00,6.845e+00,7.896e+00,6.491e+00,1.000e+01,7.207e+00,8.025e+00,8.771e+00,8.879e+00,7.935e+00,7.359e+00,9.363e+00,8.407e+00,1.157e+01,9.731e+00,1.093e+01,1.026e+01,1.044e+01,9.019e+00,1.141e+01,1.170e+01,1.213e+01,1.097e+01,1.033e+01,1.073e+01,1.132e+01,1.305e+01,1.110e+01,1.092e+01,1.120e+01,1.077e+01,1.265e+01,1.182e+01,1.005e+01,1.245e+01,1.175e+01,1.224e+01,1.320e+01,1.384e+01,1.212e+01,1.245e+01,1.182e+01,1.150e+01,1.160e+01,1.184e+01,1.033e+01,1.280e+01,1.158e+01
9.733e-03,3.480e-01,6.896e-01,3.397e-01,9.245e-01,1.365e+00,3.038e+00,1.629e+00,2.591e+00,3.308e+00,2.983e+00,2.140e+00,3.148e+00,2.796e+00,3.201e+00,3.832e+00,3.850e+00,4.633e+00,4.591e+00,4.706e+00,5.295e+00,5.781e+00,7.081e+00,6.095e+00,5.607e+00,4.880e+00,6.884e+00,7.887e+00,7.442e+00,8.973e+00,6.286e+00,8.950e+00,8.838e+00,8.081e+00,9.337e+00,9.280e+00,1.014e+01,9.714e+00,9.818e+00,8.103e+00,7.745e+00,9.214e+00,8.758e+00,1.228e+01,1.151e+01,1.044e+01,1.128e+01,9.595e+00,1.004e+01,1.267e+01,1.098e+01,1.319e+01,1.073e+01,1.137e+01,1.282e+01,1.295e+01,1.339e+01,1.204e+01,1.276e+01,1.103e+01,1.128e+01,1.381e+01,1.197e+01,1.095e+01,1.293e+01,1.235e+01,1.285e+01,1.335e+01,1.382e+01,1.411e+01,1.376e+01,1.268e+01,1.328e+01,1.222e+01,1.235e+01,1.118e+01,1.133e+01,1.179e+01
6.951e-02,1.189e+00,9.421e-01,5.842e-01,1.487e+00,1.159e+00,2.489e+00,2.290e+00,2.419e+00,3.326e+00,2.669e+00,2.825e+00,3.654e+00,3.751e+00,4.019e+00,4.044e+00,4.657e+00,5.187e+00,6.017e+00,5.805e+00,5.047e+00,5.444e+00,6.986e+00,7.202e+00,6.959e+00,5.011e+00,6.842e+00,9.738e+00,8.484e+00,9.249e+00,7.844e+00,9.086e+00,8.734e+00,9.614e+00,1.115e+01,8.807e+00,1.025e+01,1.114e+01,1.041e+01,8.956e+00,8.408e+00,1.219e+01,1.028e+01,1.302e+01,1.326e+01,1.113e+01,1.307e+01,1.169e+01,1.088e+01,1.430e+01,1.264e+01,1.459e+01,1.280e+01,1.173e+01,1.352e+01,1.406e+01,1.464e+01,1.339e+01,1.426e+01,1.275e+01,1.147e+01,1.517e+01,1.520e+01,1.153e+01,1.531e+01,1.536e+01,1.477e+01,1.515e+01,1.535e+01,1.455e+01,1.517e+01,1.369e+01,1.338e+01,1.453e+01,1.398e+01,1.182e+01,1.301e+01,1.360e+01
3.920e-02,6.809e-01,9.383e-01,5.450e-01,1.192e+00,1.396e+00,2.897e+00,2.373e+00,2.331e+00,3.100e+00,3.355e+00,2.454e+00,3.146e+00,2.648e+00,3.854e+00,4.180e+00,4.310e+00,5.759e+00,6.041e+00,5.918e+00,5.380e+00,5.931e+00,7.076e+00,7.425e+00,7.173e+00,5.591e+00,7.739e+00,9.193e+00,9.551e+00,1.046e+01,7.949e+00,1.021e+01,1.039e+01,8.409e+00,1.136e+01,9.665e+00,1.054e+01,1.103e+01,1.105e+01,1.039e+01,8.697e+00,1.194e+01,1.017e+01,1.479e+01,1.303e+01,1.345e+01,1.261e+01,1.306e+01,1.249e+01,1.452e+01,1.430e+01,1.560e+01,1.362e+01,1.530e+01,1.618e+01,1.539e+01,1.496e+01,1.557e+01,1.724e+01,1.363e+01,1.426e+01,1.695e+01,1.602e+01,1.412e+01,1.529e+01,1.567e+01,1.590e+01,1.782e+01,1.746e+01,1.564e+01,1.580e+01,1.567e+01,1.475e+01,1.617e+01,1.449e+01,1.348e+01,1.555e+01,1.511e+01
1.088e-01,1.069e+00,5.545e-01,9.020e-01,1.083e+00,1.351e+00,2.842e+00,2.527e+00,2.648e+00,4.368e+00,3.614e+00,3.944e+00,3.884e+00,4.710e+00,4.917e+00,4.798e+00,5.472e+00,5.927e+00,6.486e+00,6.320e+00,5.937e+00,6.702e+00,7.518e+00,7.357e+00,7.251e+00,5.512e+00,9.020e+00,9.898e+00,9.217e+00,1.004e+01,8.909e+00,9.757e+00,1.017e+01,8.986e+00,1.098e+01,1.087e+01,1.208e+01,1.117e+01,1.134e+01,1.025e+01,1.051e+01,1.303e+01,1.134e+01,1.387e+01,1.361e+01,1.413e+01,1.462e+01,1.352e+01,1.293e+01,1.675e+01,1.368e+01,1.581e+01,1.281e+01,1.323e+01,1.657e+01,1.629e+01,1.532e+01,1.590e+01,1.593e+01,1.293e+01,1.331e+01,1.648e+01,1.702e+01,1.400e+01,1.565e+01,1.668e+01,1.683e+01,1.732e+01,1.768e+01,1.522e+01,1.767e+01,1.525e+01,1.564e+01,1.705e+01,1.498e+01,1.349e+01,1.718e+01,1.621e+01
5.398e-02,8.248e-01,9.681e-01,5.656e-01,1.198e+00,9.735e-01,2.250e+00,1.992e+00,1.463e+00,2.442e+00,2.147e+00,1.992e+00,2.815e+00,1.700e+00,2.867e+00,3.053e+00,2.985e+00,5.560e+00,4.805e+00,4.066e+00,3.928e+00,4.760e+00,5.310e+00,5.791e+00,5.802e+00,4.693e+00,5.938e+00,5.782e+00,6.679e+00,7.457e+00,5.691e+00,7.616e+00,7.617e+00,6.767e+00,1.014e+01,7.347e+00,8.164e+00,9.289e+00,1.005e+01,8.222e+00,7.648e+00,1.023e+01,8.761e+00,1.153e+01,1.107e+01,1.165e+01,1.082e+01,1.005e+01,9.124e+00,1.214e+01,1.054e+01,1.307e+01,1.263e+01,1.218e+01,1.409e+01,1.347e+01,1.342e+01,1.347e+01,1.431e+01,1.185e+01,1.291e+01,1.342e+01,1.361e+01,1.138e+01,1.392e+01,1.441e+01,1.413e+01,1.414e+01,1.541e+01,1.259e+01,1.449e+01,1.234e+01,1.314e+01,1.397e+01,1.289e+01,1.147e+01,1.443e+01,1.175e+01
4.710e-02,3.583e-01,3.439e-01,4.518e-01,4.097e-01,8.046e-01,2.001e+00,1.123e+00,1.676e+00,2.486e+00,2.414e+00,2.078e+00,2.254e+00,2.673e+00,2.971e+00,2.754e+00,3.758e+00,3.775e+00,4.213e+00,3.993e+00,4.797e+00,4.767e+00,6.414e+00,6.231e+00,6.356e+00,5.212e+00,6.386e+00,7.282e+00,7.491e+00,7.673e+00,7.176e+00,9.368e+00,9.362e+00,8.906e+00,1.049e+01,9.653e+00,1.016e+01,1.125e+01,1.110e+01,8.616e+00,7.401e+00,1.012e+01,8.892e+00,1.349e+01,1.132e+01,1.008e+01,1.061e+01,9.975e+00,9.857e+00,1.368e+01,1.205e+01,1.379e+01,1.257e+01,1.406e+01,1.321e+01,1.512e+01,1.391e+01,1.516e+01,1.544e+01,1.367e+01,1.287e+01,1.503e+01,1.483e+01,1.071e+01,1.417e+01,1.459e+01,1.357e+01,1.473e+01,1.587e+01,1.452e+01,1.417e+01,1.472e+01,1.520e+01,1.538e+01,1.269e+01,1.426e+01,1.301e+01,1.464e+01
1.128e-01,1.466e+00,7.832e-01,8.154e-01,1.466e+00,1.457e+00,2.425e+00,2.116e+00,2.962e+00,4.205e+00,2.859e+00,3.530e+00,3.510e+00,4.104e+00,4.071e+00,3.630e+00,5.393e+00,5.812e+00,6.305e+00,5.661e+00,5.327e+00,6.077e+00,6.542e+00,6.028e+00,6.385e+00,4.922e+00,6.794e+00,8.209e+00,8.538e+00,8.024e+00,7.768e+00,8.324e+00,7.940e+00,8.964e+00,9.286e+00,9.305e+00,8.759e+00,9.536e+00,8.849e+00,8.721e+00,8.047e+00,1.050e+01,8.770e+00,1.085e+01,1.082e+01,1.113e+01,1.198e+01,1.042e+01,1.067e+01,1.407e+01,1.176e+01,1.369e+01,1.157e+01,1.279e+01,1.553e+01,1.461e+01,1.464e+01,1.543e+01,1.475e+01,1.326e+01,1.417e+01,1.629e+01,1.513e+01,1.344e+01,1.649e+01,1.601e+01,1.632e+01,1.609e+01,1.455e+01,1.516e+01,1.649e+01,1.414e+01,1.541e+01,1.541e+01,1.451e+01,1.369e+01,1.448e+01,1.636e+01
4.258e-02,4.205e-01,5.584e-01,3.519e-01,5.993e-01,8.155e-01,2.182e+00,1.708e+00,1.886e+00,2.610e+00,2.544e+00,2.234e+00,2.884e+00,2.711e+00,3.633e+00,3.764e+00,3.412e+00,5.241e+00,5.704e+00,5.155e+00,4.660e+00,5.612e+00,5.808e+00,6.730e+00,6.613e+00,4.876e+00,6.619e+00,7.230e+00,7.167e+00,8.823e+00,6.928e+00,8.277e+00,8.929e+00,7.538e+00,9.645e+00,8.038e+00,9.260e+00,9.545e+00,9.620e+00,8.366e+00,7.619e+00,1.061e+01,8.289e+00,1.217e+01,1.078e+01,1.046e+01,1.110e+01,9.959e+00,1.003e+01,1.286e+01,1.179e+01,1.262e+01,1.063e+01,1.173e+01,1.343e+01,1.360e+01,1.205e+01,1.510e+01,1.389e+01,1.345e+01,1.334e+01,1.257e+01,1.352e+01,1.368e+01,1.414e+01,1.428e+01,1.508e+01,1.482e+01,1.482e+01,1.230e+01,1.359e+01,1.452e+01,1.397e+01,1.330e+01,1.363e+01,1.343e+01,1.437e+01,1.470e+01
1.239e-01,1.134e+00,8.160e-01,8.856e-01,1.208e+00,1.230e+00,2.678e+00,1.886e+00,2.278e+00,3.182e+00,2.068e+00,2.238e+00,2.540e+00,2.592e+00,3.318e+00,3.117e+00,4.031e+00,5.953e+00,5.757e+00,5.283e+00,5.022e+00,5.664e+00,6.476e+00,6.425e+00,6.455e+00,5.625e+00,6.528e+00,7.567e+00,8.160e+00,8.040e+00,7.666e+00,9.946e+00,8.709e+00,8.167e+00,1.090e+01,8.632e+00,9.982e+00,1.065e+01,1.063e+01,8.859e+00,9.224e+00,1.101e+01,9.679e+00,1.201e+01,1.262e+01,1.188e+01,1.330e+01,1.162e+01,1.066e+01,1.479e+01,1.222e+01,1.589e+01,1.347e+01,1.493e+01,1.655e+01,1.520e+01,1.629e+01,1.638e+01,1.660e+01,1.420e+01,1.535e+01,1.734e+01,1.709e+01,1.543e+01,1.618e+01,1.708e+01,1.540e+01,1.818e+01,1.783e+01,1.732e+01,1.813e+01,1.510e+01,1.561e+01,1.736e+01,1.560e+01,1.527e+01,1.645e+01,1.593e+01
1.086e-01,1.132e+00,7.207e-01,7.292e-01,9.340e-01,8.901e-01,2.349e+00,1.853e+00,2.131e+00,2.844e+00,2.360e+00,2.458e+00,2.523e+00,3.068e+00,3.843e+00,3.235e+00,4.522e+00,5.780e+00,5.951e+00,5.386e+00,5.213e+00,5.774e+00,6.380e+00,6.696e+00,6.833e+00,5.198e+00,7.141e+00,7.317e+00,7.523e+00,8.320e+00,7.285e+00,8.765e+00,8.618e+00,9.120e+00,1.048e+01,9.783e+00,1.042e+01,1.072e+01,1.015e+01,9.338e+00,8.523e+00,1.076e+01,8.794e+00,1.240e+01,1.191e+01,1.094e+01,1.246e+01,1.043e+01,1.045e+01,1.441e+01,1.146e+01,1.292e+01,1.236e+01,1.312e+01,1.491e+01,1.550e+01,1.502e+01,1.746e+01,1.665e+01,1.472e+01,1.645e+01,1.517e+01,1.597e+01,1.471e+01,1.654e+01,1.746e+01,1.642e+01,1.632e+01,1.783e+01,1.523e+01,1.672e+01,1.539e+01,1.632e+01,1.669e+01,1.544e+01,1.555e+01,1.656e+01,1.606e+01
2.582e-02,3.865e-01,7.359e-01,2.668e-01,7.615e-01,9.547e-01,2.657e+00,2.004e+00,2.362e+00,2.589e+00,3.274e+00,2.286e+00,2.784e+00,3.141e+00,3.912e+00,4.195e+00,4.545e+00,4.441e+00,5.215e+00,5.508e+00,4.957e+00,5.190e+00,6.043e+00,6.536e+00,5.434e+00,3.730e+00,6.495e+00,7.817e+00,6.945e+00,8.675e+00,6.280e+00,8.287e+00,8.769e+00,7.964e+00,1.021e+01,8.858e+00,1.033e+01,9.816e+00,9.742e+00,9.333e+00,8.084e+00,1.054e+01,8.630e+00,1.259e+01,1.146e+01,1.093e+01,1.109e+01,1.004e+01,1.002e+01,1.236e+01,1.140e+01,1.243e+01,1.116e+01,1.239e+01,1.346e+01,1.295e+01,1.427e+01,1.374e+01,1.567e+01,1.342e+01,1.357e+01,1.433e+01,1.546e+01,1.246e+01,1.519e+01,1.576e+01,1.596e+01,1.727e+01,1.734e+01,1.391e+01,1.514e+01,1.362e+01,1.586e+01,1.578e+01,1.403e+01,1.371e+01,1.335e+01,1.361e+01
8.997e-02,1.338e+00,8.967e-01,8.103e-01,1.378e+00,1.024e+00,2.237e+00,2.062e+00,1.765e+00,2.628e+00,2.292e+00,2.082e+00,2.316e+00,2.530e+00,2.730e+00,2.467e+00,3.567e+00,4.461e+00,4.771e+00,4.885e+00,4.283e+00,4.233e+00,6.003e+00,5.957e+00,6.593e+00,5.464e+00,6.115e+00,7.913e+00,8.476e+00,7.831e+00,7.008e+00,9.026e+00,8.053e+00,7.642e+00,1.062e+01,8.455e+00,1.031e+01,1.029e+01,1.052e+01,9.478e+00,7.514e+00,1.114e+01,9.531e+00,1.279e+01,1.218e+01,1.104e+01,1.171e+01,1.196e+01,1.110e+01,1.467e+01,1.309e+01,1.420e+01,1.239e+01,1.173e+01,1.419e+01,1.498e+01,1.394e+01,1.552e+01,1.639e+01,1.440e+01,1.491e+01,1.624e+01,1.599e+01,1.422e+01,1.614e+01,1.781e+01,1.664e+01,1.686e+01,1.814e+01,1.698e+01,1.710e+01,1.641e+01,1.698e+01,1.622e+01,1.600e+01,1.467e+01,1.634e+01,1.584e+01
1.167e-02,5.105e-01,3.709e-01,2.854e-01,5.722e-01,4.495e-01,1.291e+00,8.712e-01,7.859e-01,1.616e+00,1.175e+00,9.996e-01,1.917e+00,2.051e+00,2.421e+00,2.212e+00,2.875e+00,3.759e+00,3.980e+00,3.803e+00,4.157e+00,4.001e+00,5.133e+00,5.624e+00,5.846e+00,3.953e+00,5.429e+00,6.947e+00,5.890e+00,6.808e+00,5.933e+00,7.028e+00,6.848e+00,5.837e+00,7.452e+00,6.165e+00,8.020e+00,7.692e+00,7.487e+00,5.580e+00,5.367e+00,8.624e+00,7.808e+00,1.085e+01,9.346e+00,9.555e+00,1.010e+01,1.003e+01,8.350e+00,1.198e+01,1.130e+01,1.170e+01,1.055e+01,1.110e+01,1.300e+01,1.333e+01,1.343e+01,1.301e+01,1.408e+01,1.257e+01,1.310e+01,1.430e+01,1.603e+01,1.420e+01,1.519e+01,1.665e+01,1.397e+01,1.665e+01,1.681e+01,1.630e+01,1.564e+01,1.608e+01,1.545e+01,1.570e+01,1.413e+01,1.403e+01,1.459e+01,1.530e+01
3.044e-02,6.355e-01,6.515e-01,3.081e-01,1.093e+00,1.020e+00,1.627e+00,2.182e+00,2.017e+00,3.292e+00,3.029e+00,3.155e+00,3.332e+00,3.029e+00,3.399e+00,3.685e+00,4.748e+00,5.376e+00,5.841e+00,5.612e+00,4.765e+00,5.965e+00,6.025e+00,6.960e+00,6.592e+00,4.963e+00,6.246e+00,7.244e+00,8.432e+00,9.001e+00,8.013e+00,8.186e+00,8.657e+00,8.342e+00,1.076e+01,8.158e+00,9.020e+00,9.413e+00,1.027e+01,8.858e+00,8.336e+00,1.070e+01,9.219e+00,1.252e+01,1.194e+01,1.080e+01,1.141e+01,1.004e+01,1.041e+01,1.309e+01,1.228e+01,1.305e+01,1.166e+01,1.119e+01,1.287e+01,1.316e+01,1.333e+01,1.364e+01,1.325e+01,1.358e+01,1.429e+01,1.558e+01,1.534e+01,1.348e+01,1.533e+01,1.698e+01,1.639e+01,1.720e+01,1.736e+01,1.569e+01,1.608e+01,1.462e+01,1.683e+01,1.685e+01,1.396e+01,1.428e+01,1.562e+01,1.632e+01
3.708e-03,4.175e-01,6.191e-01,1.453e-01,8.952e-01,1.073e+00,2.210e+00,2.145e+00,2.434e+00,2.918e+00,3.367e+00,3.137e+00,3.743e+00,3.568e+00,4.299e+00,4.592e+00,5.236e+00,4.917e+00,5.979e+00,5.722e+00,5.653e+00,6.072e+00,6.174e+00,6.580e+00,5.646e+00,4.031e+00,6.539e+00,7.161e+00,6.962e+00,8.048e+00,6.592e+00,7.975e+00,8.109e+00,7.989e+00,1.063e+01,8.521e+00,9.413e+00,1.020e+01,1.036e+01,9.439e+00,8.534e+00,9.895e+00,8.446e+00,1.136e+01,1.044e+01,1.018e+01,1.108e+01,9.232e+00,9.411e+00,1.182e+01,1.048e+01,1.177e+01,1.168e+01,1.173e+01,1.393e+01,1.334e+01,1.307e+01,1.373e+01,1.469e+01,1.274e+01,1.271e+01,1.386e+01,1.519e+01,1.413e+01,1.611e+01,1.592e+01,1.610e+01,1.744e+01,1.771e+01,1.640e+01,1.571e+01,1.287e+01,1.706e+01,1.664e+01,1.373e+01,1.545e+01,1.542e+01,1.448e+01
1.102e-02,1.299e-01,4.081e-01,3.208e-01,5.223e-01,9.573e-01,2.090e+00,1.400e+00,1.776e+00,3.180e+00,3.144e+00,2.711e+00,3.358e+00,3.656e+00,3.924e+00,3.967e+00,4.987e+00,5.308e+00,5.764e+00,5.724e+00,5.928e+00,6.266e+00,7.463e+00,7.558e+00,7.073e+00,5.432e+00,7.234e+00,7.721e+00,8.236e+00,8.196e+00,7.300e+00,9.340e+00,8.825e+00,7.685e+00,1.131e+01,8.736e+00,1.016e+01,1.137e+01,1.145e+01,9.263e+00,7.421e+00,9.967e+00,9.333e+00,1.299e+01,1.202e+01,1.096e+01,1.192e+01,1.112e+01,1.042e+01,1.331e+01,1.262e+01,1.396e+01,1.265e+01,1.214e+01,1.352e+01,1.437e+01,1.280e+01,1.410e+01,1.474e+01,1.383e+01,1.397e+01,1.554e+01,1.493e+01,1.312e+01,1.569e+01,1.779e+01,1.740e+01,1.844e+01,1.981e+01,1.707e+01,1.676e+01,1.629e+01,1.917e+01,1.764e+01,1.643e+01,1.762e+01,1.775e+01,1.675e+01
6.450e-02,9.042e-01,8.107e-01,6.796e-01,1.201e+00,1.452e+00,2.870e+00,2.307e+00,2.558e+00,3.252e+00,3.369e+00,3.049e+00,3.471e+00,3.399e+00,4.299e+00,4.125e+00,5.316e+00,5.834e+00,6.235e+00,6.332e+00,6.157e+00,6.312e+00,7.791e+00,7.571e+00,7.191e+00,4.988e+00,7.640e+00,8.771e+00,8.780e+00,8.866e+00,8.390e+00,1.019e+01,9.318e+00,8.691e+00,1.069e+01,9.720e+00,1.042e+01,1.152e+01,1.140e+01,9.296e+00,9.267e+00,1.097e+01,9.655e+00,1.304e+01,1.104e+01,1.170e+01,1.145e+01,1.005e+01,1.062e+01,1.304e+01,1.295e+01,1.424e+01,1.183e+01,1.303e+01,1.546e+01,1.553e+01,1.433e+01,1.566e+01,1.713e+01,1.422e+01,1.431e+01,1.698e+01,1.721e+01,1.721e+01,1.784e+01,1.813e+01,1.887e+01,1.989e+01,2.124e+01,1.946e+01,1.896e+01,1.823e+01,2.034e+01,1.926e+01,1.703e+01,1.697e+01,1.820e+01,1.734e+01
1.210e-02,8.327e-01,1.141e+00,2.517e-01,1.434e+00,1.282e+00,2.681e+00,2.437e+00,2.669e+00,3.323e+00,3.501e+00,2.983e+00,3.883e+00,3.144e+00,3.834e+00,4.485e+00,4.459e+00,4.876e+00,5.732e+00,4.866e+00,4.685e+00,5.283e+00,5.692e+00,5.763e+00,5.788e+00,4.536e+00,6.370e+00,6.458e+00,6.413e+00,7.892e+00,6.395e+00,7.816e+00,8.102e+00,7.635e+00,9.500e+00,8.233e+00,8.675e+00,9.446e+00,9.977e+00,8.559e+00,8.493e+00,1.075e+01,7.889e+00,1.156e+01,1.074e+01,1.140e+01,1.135e+01,1.022e+01,1.006e+01,1.301e+01,1.165e+01,1.362e+01,1.232e+01,1.202e+01,1.434e+01,1.396e+01,1.488e+01,1.406e+01,1.483e+01,1.393e+01,1.343e+01,1.544e+01,1.602e+01,1.385e+01,1.665e+01,1.794e+01,1.845e+01,1.792e+01,1.807e+01,1.747e+01,1.775e+01,1.703e+01,1.730e+01,1.733e+01,1.545e+01,1.614e+01,1.668e+01,1.664e+01
1.132e-01,9.797e-01,5.015e-01,7.045e-01,8.708e-01,7.011e-01,1.978e+00,1.758e+00,1.781e+00,2.929e+00,1.746e+00,2.598e+00,2.857e+00,3.047e+00,2.838e+00,2.910e+00,2.988e+00,4.939e+00,5.283e+00,4.935e+00,3.920e+00,4.570e+00,4.885e+00,5.291e+00,5.075e+00,4.009e+00,5.776e+00,6.381e+00,6.735e+00,7.942e+00,6.397e+00,6.505e+00,6.435e+00,7.114e+00,8.303e+00,7.167e+00,8.218e+00,8.493e+00,7.718e+00,7.540e+00,7.165e+00,9.709e+00,8.752e+00,9.753e+00,1.071e+01,9.178e+00,1.007e+01,9.313e+00,8.465e+00,1.050e+01,1.029e+01,1.080e+01,1.034e+01,1.010e+01,1.230e+01,1.179e+01,1.247e+01,1.395e+01,1.320e+01,1.296e+01,1.347e+01,1.322e+01,1.507e+01,1.396e+01,1.546e+01,1.604e+01,1.579e+01,1.774e+01,1.692e+01,1.569e+01,1.719e+01,1.507e+01,1.732e+01,1.687e+01,1.547e+01,1.454e+01,1.587e+01,1.701e+01
3.204e-02,8.557e-01,9.597e-01,3.105e-01,1.210e+00,1.158e+00,2.703e+00,2.209e+00,2.714e+00,3.070e+00,3.187e+00,2.788e+00,3.450e+00,3.525e+00,4.481e+00,4.447e+00,5.200e+00,5.492e+00,6.310e+00,5.622e+00,5.988e+00,6.133e+00,6.801e+00,7.182e+00,6.343e+00,5.046e+00,7.351e+00,7.574e+00,7.752e+00,9.034e+00,8.059e+00,9.209e+00,1.005e+01,1.025e+01,1.138e+01,9.736e+00,1.069e+01,1.174e+01,1.161e+01,9.998e+00,9.722e+00,1.239e+01,9.761e+00,1.355e+01,1.320e+01,1.213e+01,1.309e+01,1.178e+01,1.120e+01,1.486e+01,1.355e+01,1.508e+01,1.379e+01,1.573e+01,1.507e+01,1.700e+01,1.646e+01,1.650e+01,1.754e+01,1.673e+01,1.513e+01,1.721e+01,1.835e+01,1.551e+01,1.832e+01,1.845e+01,2.011e+01,1.954e+01,2.129e+01,1.865e+01,1.958e+01,1.832e+01,2.187e+01,2.151e+01,1.843e+01,1.819e+01,1.897e+01,1.952e+01
1.227e-01,1.172e+00,8.604e-01,9.178e-01,1.162e+00,9.273e-01,2.625e+00,1.872e+00,1.948e+00,2.971e+00,2.504e+00,3.000e+00,3.577e+00,4.196e+00,3.381e+00,3.175e+00,4.422e+00,5.427e+00,5.300e+00,5.543e+00,4.032e+00,4.577e+00,7.878e+00,7.545e+00,7.457e+00,5.397e+00,6.224e+00,9.217e+00,8.925e+00,9.395e+00,7.646e+00,1.084e+01,1.001e+01,9.874e+00,1.227e+01,1.037e+01,1.189e+01,1.266e+01,1.134e+01,1.043e+01,9.503e+00,1.277e+01,1.064e+01,1.393e+01,1.415e+01,1.356e+01,1.330e+01,1.175e+01,1.210e+01,1.619e+01,1.338e+01,1.651e+01,1.475e+01,1.372e+01,1.529e+01,1.655e+01,1.512e+01,1.717e+01,1.706e+01,1.661e+01,1.546e+01,1.684e+01,1.660e+01,1.580e+01,1.839e+01,1.930e+01,1.965e+01,2.030e+01,2.014e+01,1.717e+01,2.090e+01,1.977e+01,2.129e+01,2.018e+01,2.048e+01,1.770e+01,1.824e+01,1.972e+01
7.120e-03,2.630e-01,4.842e-01,1.444e-01,8.083e-01,1.240e+00,1.992e+00,2.062e+00,2.692e+00,3.533e+00,3.743e+00,3.140e+00,2.853e+00,3.297e+00,3.254e+00,3.974e+00,4.637e+00,4.637e+00,5.981e+00,5.769e+00,4.817e+00,5.397e+00,5.789e+00,6.080e+00,5.714e+00,4.870e+00,5.801e+00,7.241e+00,7.376e+00,7.964e+00,6.974e+00,7.356e+00,7.788e+00,7.565e+00,1.037e+01,9.046e+00,9.331e+00,9.712e+00,1.036e+01,9.798e+00,7.594e+00,8.957e+00,7.936e+00,1.207e+01,1.038e+01,1.123e+01,1.092e+01,1.009e+01,1.111e+01,1.298e+01,1.210e+01,1.324e+01,1.110e+01,1.426e+01,1.459e+01,1.373e+01,1.362e+01,1.468e+01,1.596e+01,1.371e+01,1.422e+01,1.650e+01,1.518e+01,1.351e+01,1.581e+01,1.773e+01,1.801e+01,1.842e+01,1.942e+01,1.702e+01,1.716e+01,1.588e+01,2.135e+01,2.011e+01,1.860e+01,1.677e+01,1.797e+01,1.794e+01
9.382e-02,9.856e-01,5.073e-01,6.483e-01,8.319e-01,8.716e-01,1.943e+00,1.354e+00,1.987e+00,2.352e+00,1.982e+00,2.289e+00,2.446e+00,3.621e+00,3.813e+00,2.926e+00,5.199e+00,4.966e+00,5.567e+00,5.486e+00,5.355e+00,4.961e+00,6.412e+00,6.862e+00,6.582e+00,4.281e+00,6.347e+00,8.992e+00,9.164e+00,8.224e+00,8.571e+00,9.394e+00,9.713e+00,9.284e+00,1.093e+01,9.682e+00,9.983e+00,1.155e+01,9.553e+00,9.121e+00,7.975e+00,1.083e+01,8.479e+00,1.203e+01,1.055e+01,1.001e+01,1.062e+01,1.089e+01,9.918e+00,1.323e+01,1.119e+01,1.311e+01,1.103e+01,1.168e+01,1.277e+01,1.376e+01,1.358e+01,1.490e+01,1.490e+01,1.441e+01,1.447e+01,1.460e+01,1.565e+01,1.324e+01,1.693e+01,1.715e+01,1.777e+01,1.876e+01,1.910e+01,1.732e+01,1.734e+01,1.764e+01,2.067e+01,1.885e+01,1.801e+01,1.777e+01,1.805e+01,2.044e+01
1.051e-01,7.292e-01,3.470e-01,8.714e-01,7.732e-01,1.157e+00,2.685e+00,2.016e+00,2.108e+00,3.787e+00,2.709e+00,3.032e+00,3.126e+00,3.404e+00,3.255e+00,3.749e+00,3.466e+00,5.559e+00,5.539e+00,4.766e+00,4.465e+00,4.983e+00,6.061e+00,6.293e+00,6.066e+00,4.785e+00,5.935e+00,7.129e+00,7.080e+00,8.481e+00,7.727e+00,8.333e+00,8.935e+00,7.000e+00,9.640e+00,8.603e+00,9.999e+00,1.022e+01,1.021e+01,8.164e+00,8.999e+00,1.085e+01,8.208e+00,1.185e+01,1.146e+01,1.197e+01,1.204e+01,1.011e+01,1.066e+01,1.369e+01,1.219e+01,1.401e+01,1.186e+01,1.250e+01,1.388e+01,1.456e+01,1.418e+01,1.544e+01,1.434e+01,1.318e+01,1.400e+01,1.440e+01,1.596e+01,1.504e+01,1.499e+01,1.850e+01,1.700e+01,1.879e+01,1.871e+01,1.680e+01,1.813e+01,1.875e+01,2.012e+01,1.947e+01,1.771e+01,1.713e+01,1.966e+01,1.999e+01
9.754e-02,5.671e-01,5.794e-01,6.186e-01,6.380e-01,8.507e-01,2.779e+00,2.176e+00,2.447e+00,3.048e+00,3.407e+00,3.236e+00,2.922e+00,3.820e+00,3.312e+00,3.629e+00,4.465e+00,5.440e+00,5.824e+00,6.405e+00,5.021e+00,5.565e+00,6.971e+00,7.715e+00,6.936e+00,4.756e+00,6.544e+00,8.008e+00,7.650e+00,8.874e+00,7.166e+00,8.559e+00,8.734e+00,8.818e+00,1.088e+01,9.751e+00,9.788e+00,1.106e+01,1.094e+01,9.397e+00,7.967e+00,1.094e+01,9.606e+00,1.289e+01,1.040e+01,1.130e+01,1.158e+01,9.911e+00,1.131e+01,1.395e+01,1.260e+01,1.410e+01,1.183e+01,1.372e+01,1.505e+01,1.435e+01,1.485e+01,1.566e+01,1.499e+01,1.456e+01,1.343e+01,1.613e+01,1.624e+01,1.427e+01,1.635e+01,1.723e+01,1.794e+01,1.847e+01,2.043e+01,1.767e+01,1.816e+01,1.788e+01,2.066e+01,2.004e+01,1.954e+01,1.684e+01,1.956e+01,2.048e+01
2.609e-02,3.934e-01,6.817e-01,3.483e-01,1.035e+00,1.493e+00,3.043e+00,2.159e+00,3.059e+00,3.609e+00,3.534e+00,3.123e+00,3.708e+00,3.837e+00,4.190e+00,4.581e+00,4.541e+00,5.847e+00,6.102e+00,5.888e+00,5.713e+00,6.064e+00,6.296e+00,6.948e+00,5.525e+00,4.522e+00,6.346e+00,6.747e+00,8.023e+00,8.596e+00,6.805e+00,8.167e+00,8.942e+00,8.088e+00,1.065e+01,8.433e+00,9.105e+00,1.043e+01,1.014e+01,9.306e+00,8.547e+00,1.083e+01,8.252e+00,1.168e+01,1.134e+01,1.190e+01,1.255e+01,1.012e+01,1.068e+01,1.282e+01,1.203e+01,1.272e+01,1.142e+01,1.335e+01,1.511e+01,1.553e+01,1.365e+01,1.444e+01,1.532e+01,1.413e+01,1.483e+01,1.535e+01,1.583e+01,1.517e+01,1.626e+01,1.741e+01,1.879e+01,1.914e+01,1.930e+01,1.672e+01,1.669e+01,1.589e+01,2.163e+01,1.941e+01,1.784e+01,1.937e+01,2.032e+01,2.074e+01
3.182e-02,5.455e-01,3.067e-01,2.833e-01,4.811e-01,3.224e-01,1.478e+00,1.070e+00,1.291e+00,2.167e+00,1.765e+00,1.559e+00,1.745e+00,2.559e+00,1.856e+00,1.901e+00,2.224e+00,2.922e+00,3.152e+00,3.643e+00,3.415e+00,3.570e+00,5.462e+00,5.363e+00,5.053e+00,3.914e+00,4.896e+00,6.020e+00,5.506e+00,6.823e+00,4.885e+00,6.394e+00,6.835e+00,6.516e+00,7.298e+00,7.131e+00,7.541e+00,6.722e+00,7.076e+00,6.321e+00,6.295e+00,8.810e+00,7.765e+00,9.722e+00,1.026e+01,9.729e+00,1.029e+01,7.519e+00,9.140e+00,1.143e+01,9.789e+00,1.163e+01,9.264e+00,1.058e+01,1.254e+01,1.379e+01,1.247e+01,1.286e+01,1.307e+01,1.129e+01,1.232e+01,1.457e+01,1.424e+01,1.403e+01,1.515e+01,1.732e+01,1.596e+01,1.861e+01,1.764e+01,1.540e+01,1.742e+01,1.783e+01,2.031e+01,1.814e+01,1.923e+01,1.650e+01,1.941e+01,2.005e+01
1.988e-02,1.388e-01,1.618e-01,1.969e-01,3.291e-01,7.949e-01,1.383e+00,8.950e-01,1.717e+00,2.459e+00,2.162e+00,2.098e+00,2.301e+00,2.738e+00,2.972e+00,2.878e+00,3.965e+00,3.889e+00,4.503e+00,4.129e+00,4.340e+00,4.418e+00,4.665e+00,4.821e+00,4.384e+00,3.534e+00,5.117e+00,5.336e+00,6.641e+00,6.330e+00,6.299e+00,6.973e+00,7.463e+00,7.357e+00,8.650e+00,7.447e+00,8.095e+00,8.878e+00,9.294e+00,7.896e+00,7.182e+00,8.307e+00,7.639e+00,1.063e+01,9.842e+00,9.698e+00,9.438e+00,9.015e+00,8.995e+00,1.119e+01,1.064e+01,1.190e+01,1.115e+01,1.179e+01,1.190e+01,1.191e+01,1.350e+01,1.366e+01,1.414e+01,1.390e+01,1.261e+01,1.461e+01,1.499e+01,1.272e+01,1.409e+01,1.563e+01,1.659e+01,1.678e+01,1.676e+01,1.526e+01,1.621e+01,1.476e+01,1.902e+01,1.763e+01,1.586e+01,1.518e+01,1.575e+01,1.763e+01
