6.989e-01,8.126e-01,3.173e-01,4.274e-01,3.847e-01,6.613e-01,6.685e-01,8.724e-01,5.252e-02,1.433e-01,8.231e-01,1.728e-01,8.625e-01,9.416e-01,9.464e-01,6.381e-01,7.997e-01,5.540e-02,7.140e-01,5.615e-01,8.527e-01,7.429e-02,5.360e-01,7.234e-01,9.917e-01,7.895e-01,6.639e-01,1.801e-01,5.279e-02,6.667e-01,5.844e-01,9.161e-01,1.235e-01,1.279e-01,7.211e-01,7.883e-01,8.861e-01,1.107e-01,9.807e-01,4.817e-01,2.180e-02,4.287e-01,1.560e-01,5.916e-01,8.381e-01,1.355e-01,6.661e-02,2.353e-01,3.334e-02,8.157e-01,4.096e-01,8.098e-02,3.750e-01,5.140e-01,1.115e-01,8.376e-01,4.940e-02,8.660e-01,9.120e-01,7.432e-01,3.575e-01,5.792e-01,5.801e-01,4.304e-01,8.950e-02,4.252e-01,9.360e-01,7.070e-01,8.077e-01,3.459e-01,4.769e-01,2.431e-01,4.249e-01,2.456e-01,8.797e-01,2.099e-01,6.109e-01,2.589e-01,8.900e-01,3.573e-01,4.769e-01,5.777e-01,4.499e-01,4.066e-01,6.248e-02,1.105e-02,3.444e-01
1.024e-01,5.252e-01,9.092e-01,6.485e-01,2.473e-01,3.784e-01,6.907e-01,1.070e+00,9.301e-01,6.442e-01,2.150e-01,2.310e-01,4.093e-01,4.031e-01,2.026e-01,4.784e-01,9.455e-01,3.465e-01,9.470e-01,1.778e-01,1.300e-01,7.110e-01,1.582e-01,1.123e-01,3.830e-01,8.779e-01,5.708e-01,1.552e-01,1.232e-01,1.035e-01,9.887e-01,6.566e-01,2.134e-01,1.883e-01,4.625e-01,4.001e-01,1.040e+00,6.732e-01,5.333e-01,8.942e-01,9.744e-01,3.261e-01,4.041e-01,1.065e+00,2.807e-01,8.067e-01,8.854e-02,2.494e-01,4.707e-02,3.230e-01,5.204e-01,2.906e-01,9.035e-01,9.385e-01,7.626e-01,9.956e-01,9.699e-01,4.306e-01,1.648e-01,4.177e-01,5.576e-02,9.017e-01,2.368e-01,8.317e-02,3.172e-01,4.746e-01,8.749e-01,7.413e-01,8.816e-01,5.183e-01,7.768e-01,4.404e-02,9.749e-01,4.029e-01,6.784e-01,6.966e-01,9.798e-01,1.319e-01,5.646e-01,4.810e-01,6.205e-01,7.987e-01,7.269e-01,7.809e-01,1.998e-02,9.755e-01,1.541e-01
1.548e-01,4.794e-01,1.158e+00,9.600e-01,7.521e-01,1.127e+00,1.303e+00,1.416e+00,9.356e-01,9.681e-01,9.568e-01,9.687e-01,1.281e+00,4.243e-01,1.229e+00,1.206e+00,1.306e+00,7.144e-01,1.335e+00,5.080e-01,6.410e-01,1.421e+00,4.615e-01,8.763e-01,5.539e-01,8.863e-01,1.190e+00,2.947e-01,9.457e-01,3.682e-01,1.328e+00,1.192e+00,1.082e+00,5.814e-01,1.382e+00,1.025e+00,1.863e+00,1.357e+00,7.366e-01,1.704e+00,1.075e+00,1.242e+00,4.019e-01,1.730e+00,8.839e-01,9.995e-01,3.544e-01,3.461e-01,6.015e-01,9.066e-01,5.898e-01,2.365e-01,8.156e-01,1.321e+00,7.613e-01,1.714e+00,1.159e+00,6.790e-01,3.729e-01,9.891e-01,3.091e-01,1.699e+00,8.767e-01,1.875e-01,9.830e-01,1.130e+00,1.104e+00,6.741e-01,9.156e-01,1.259e+00,6.794e-01,1.005e+00,1.275e+00,7.512e-01,1.462e+00,1.485e+00,8.727e-01,8.980e-01,6.136e-01,1.163e+00,1.134e+00,1.526e+00,9.433e-01,1.316e+00,6.434e-01,1.194e+00,9.139e-01
5.159e-01,6.540e-01,5.172e-01,8.468e-01,1.361e+00,1.056e+00,1.353e+00,1.309e+00,6.574e-01,4.888e-01,1.188e+00,1.393e+00,1.800e+00,1.210e+00,1.240e+00,1.658e+00,1.207e+00,3.658e-01,1.397e+00,6.429e-01,9.005e-01,1.056e+00,6.091e-01,1.292e+00,1.768e+00,1.402e+00,1.695e+00,3.651e-01,1.359e+00,1.189e+00,1.114e+00,1.922e+00,1.023e+00,6.714e-01,1.493e+00,1.154e+00,1.264e+00,1.079e+00,1.841e+00,1.341e+00,1.257e+00,1.158e+00,3.269e-01,1.288e+00,1.755e+00,9.790e-01,3.283e-01,3.725e-01,6.203e-01,1.688e+00,1.205e+00,7.832e-01,5.856e-01,8.581e-01,9.634e-01,1.277e+00,9.166e-01,9.442e-01,1.637e+00,9.192e-01,1.267e+00,1.066e+00,1.095e+00,5.192e-01,7.207e-01,1.563e+00,1.653e+00,7.157e-01,1.377e+00,8.104e-01,5.055e-01,1.398e+00,1.497e+00,6.573e-01,1.550e+00,9.513e-01,1.494e+00,8.367e-01,1.559e+00,1.531e+00,1.277e+00,1.399e+00,1.274e+00,7.472e-01,6.542e-01,6.454e-01,9.444e-01
4.540e-01,7.781e-01,8.350e-01,9.225e-01,1.181e+00,1.870e+00,1.385e+00,2.331e+00,1.807e+00,7.649e-01,1.490e+00,1.058e+00,1.678e+00,1.525e+00,1.451e+00,1.883e+00,2.183e+00,8.481e-01,1.613e+00,8.672e-01,1.345e+00,1.391e+00,5.810e-01,1.463e+00,1.720e+00,1.978e+00,1.602e+00,5.262e-01,1.873e+00,1.076e+00,1.421e+00,2.251e+00,9.817e-01,1.351e+00,1.791e+00,1.044e+00,1.535e+00,1.049e+00,2.075e+00,1.671e+00,1.912e+00,1.102e+00,1.380e+00,2.367e+00,1.667e+00,1.304e+00,1.081e+00,8.982e-01,9.674e-01,1.694e+00,1.605e+00,7.321e-01,1.504e+00,1.785e+00,1.042e+00,1.567e+00,1.729e+00,1.609e+00,2.111e+00,1.311e+00,1.107e+00,1.688e+00,9.362e-01,1.052e+00,7.741e-01,1.595e+00,1.833e+00,1.322e+00,1.445e+00,1.056e+00,8.476e-01,1.916e+00,1.724e+00,1.143e+00,1.950e+00,1.193e+00,1.870e+00,1.264e+00,2.151e+00,2.131e+00,1.976e+00,1.411e+00,2.057e+00,1.142e+00,1.391e+00,1.418e+00,8.019e-01
2.550e-01,5.577e-01,8.356e-01,8.197e-01,8.815e-01,1.388e+00,1.919e+00,2.174e+00,2.076e+00,1.711e+00,1.930e+00,1.202e+00,2.048e+00,1.595e+00,1.850e+00,2.147e+00,1.947e+00,1.460e+00,1.336e+00,1.323e+00,8.206e-01,1.489e+00,4.183e-01,1.610e+00,1.745e+00,1.926e+00,1.961e+00,1.071e+00,1.413e+00,1.200e+00,1.864e+00,1.772e+00,8.419e-01,1.464e+00,1.949e+00,1.123e+00,1.628e+00,1.430e+00,2.066e+00,2.335e+00,2.348e+00,9.681e-01,8.641e-01,2.342e+00,2.063e+00,1.755e+00,1.388e+00,1.138e+00,7.437e-01,1.703e+00,1.974e+00,1.062e+00,1.715e+00,1.598e+00,1.886e+00,2.329e+00,2.185e+00,1.236e+00,1.373e+00,1.293e+00,1.062e+00,1.685e+00,1.121e+00,1.099e+00,1.558e+00,1.710e+00,2.260e+00,1.704e+00,1.517e+00,1.767e+00,8.239e-01,1.697e+00,1.983e+00,1.252e+00,2.077e+00,1.383e+00,1.921e+00,1.651e+00,1.367e+00,2.278e+00,1.687e+00,1.383e+00,2.118e+00,1.693e+00,1.242e+00,1.693e+00,1.080e+00
3.342e-01,5.722e-01,9.447e-01,1.134e+00,1.607e+00,1.937e+00,2.500e+00,2.747e+00,3.034e+00,2.441e+00,3.468e+00,2.985e+00,3.817e+00,2.533e+00,2.757e+00,3.134e+00,3.219e+00,2.191e+00,2.032e+00,2.537e+00,1.966e+00,2.516e+00,1.447e+00,2.863e+00,3.035e+00,3.204e+00,3.488e+00,1.609e+00,3.272e+00,2.636e+00,2.338e+00,2.582e+00,2.022e+00,2.384e+00,3.449e+00,2.533e+00,3.100e+00,2.175e+00,3.210e+00,3.966e+00,3.596e+00,1.782e+00,1.767e+00,3.474e+00,3.383e+00,2.514e+00,2.358e+00,1.368e+00,1.536e+00,3.112e+00,3.205e+00,1.477e+00,2.180e+00,2.374e+00,2.249e+00,3.156e+00,2.835e+00,2.371e+00,2.563e+00,2.325e+00,1.984e+00,2.428e+00,1.913e+00,1.363e+00,2.436e+00,3.388e+00,2.999e+00,1.760e+00,2.630e+00,2.947e+00,1.581e+00,3.351e+00,2.823e+00,1.894e+00,3.341e+00,2.168e+00,2.325e+00,2.506e+00,2.345e+00,3.743e+00,2.774e+00,2.556e+00,3.233e+00,2.931e+00,1.765e+00,2.598e+00,2.195e+00
1.179e-01,3.039e-01,5.267e-01,6.174e-01,8.453e-01,8.565e-01,1.631e+00,2.603e+00,2.374e+00,2.044e+00,3.335e+00,2.390e+00,2.657e+00,2.636e+00,1.819e+00,2.327e+00,2.385e+00,2.632e+00,1.851e+00,2.082e+00,1.976e+00,1.654e+00,1.745e+00,1.914e+00,2.829e+00,2.823e+00,2.578e+00,1.643e+00,2.351e+00,2.304e+00,1.823e+00,2.273e+00,1.885e+00,2.053e+00,2.640e+00,1.967e+00,2.654e+00,2.130e+00,2.815e+00,3.391e+00,3.106e+00,1.628e+00,1.929e+00,3.147e+00,3.302e+00,2.344e+00,2.082e+00,1.296e+00,1.020e+00,2.398e+00,2.585e+00,1.599e+00,2.206e+00,1.646e+00,2.110e+00,2.788e+00,2.490e+00,1.843e+00,1.808e+00,1.482e+00,1.788e+00,2.022e+00,2.017e+00,1.403e+00,2.688e+00,2.548e+00,2.475e+00,1.650e+00,2.723e+00,2.384e+00,1.326e+00,2.668e+00,2.571e+00,1.879e+00,2.276e+00,1.892e+00,2.577e+00,2.140e+00,1.930e+00,2.809e+00,2.277e+00,1.666e+00,3.141e+00,2.425e+00,1.061e+00,1.926e+00,1.699e+00
1.863e-01,5.889e-01,1.117e+00,9.199e-01,8.080e-01,1.966e+00,1.736e+00,3.328e+00,3.229e+00,2.214e+00,3.412e+00,1.782e+00,2.899e+00,2.822e+00,2.998e+00,2.981e+00,3.664e+00,3.252e+00,2.622e+00,2.265e+00,2.401e+00,2.952e+00,1.350e+00,2.180e+00,2.601e+00,3.272e+00,2.928e+00,1.856e+00,2.579e+00,2.578e+00,3.018e+00,3.029e+00,2.275e+00,2.893e+00,2.719e+00,2.405e+00,3.450e+00,2.079e+00,3.213e+00,4.207e+00,3.228e+00,2.265e+00,2.482e+00,4.513e+00,2.825e+00,2.600e+00,2.460e+00,1.574e+00,1.617e+00,2.783e+00,3.089e+00,1.559e+00,3.291e+00,2.548e+00,2.194e+00,2.996e+00,2.987e+00,2.669e+00,2.550e+00,1.872e+00,1.997e+00,3.639e+00,2.219e+00,1.567e+00,2.823e+00,2.994e+00,2.654e+00,2.694e+00,2.281e+00,3.235e+00,2.127e+00,3.690e+00,2.863e+00,2.431e+00,2.863e+00,2.818e+00,2.476e+00,2.467e+00,3.068e+00,3.080e+00,3.386e+00,2.015e+00,3.188e+00,3.203e+00,2.751e+00,2.628e+00,1.804e+00
3.603e-01,4.390e-01,4.109e-01,5.385e-01,7.431e-01,1.107e+00,1.389e+00,2.402e+00,1.951e+00,1.838e+00,3.721e+00,2.553e+00,3.743e+00,3.591e+00,3.016e+00,2.567e+00,2.612e+00,3.023e+00,2.225e+00,3.221e+00,3.357e+00,2.266e+00,2.713e+00,2.408e+00,3.579e+00,2.738e+00,2.946e+00,2.631e+00,2.338e+00,2.914e+00,2.651e+00,2.889e+00,2.446e+00,2.513e+00,3.511e+00,3.427e+00,3.922e+00,2.661e+00,2.963e+00,3.963e+00,2.982e+00,2.575e+00,2.223e+00,4.053e+00,3.766e+00,2.403e+00,2.101e+00,1.962e+00,1.868e+00,2.686e+00,3.063e+00,2.306e+00,2.787e+00,2.124e+00,2.111e+00,3.033e+00,2.844e+00,2.380e+00,3.103e+00,2.106e+00,2.636e+00,3.451e+00,2.846e+00,1.436e+00,3.111e+00,2.725e+00,2.814e+00,2.101e+00,2.834e+00,3.235e+00,1.626e+00,3.232e+00,2.962e+00,2.909e+00,3.200e+00,2.521e+00,2.658e+00,2.731e+00,2.839e+00,2.884e+00,2.600e+00,1.899e+00,3.564e+00,3.246e+00,1.737e+00,2.038e+00,2.156e+00
3.828e-01,5.200e-01,4.110e-01,5.950e-01,9.271e-01,1.174e+00,1.038e+00,1.654e+00,1.856e+00,1.149e+00,2.948e+00,2.986e+00,3.503e+00,3.321e+00,1.986e+00,2.111e+00,3.168e+00,1.949e+00,1.563e+00,3.189e+00,3.210e+00,1.857e+00,2.320e+00,2.662e+00,2.736e+00,2.421e+00,2.806e+00,2.252e+00,2.400e+00,2.991e+00,2.179e+00,2.173e+00,1.750e+00,2.397e+00,3.578e+00,3.242e+00,3.676e+00,2.398e+00,2.698e+00,2.863e+00,2.661e+00,2.025e+00,2.238e+00,3.574e+00,2.661e+00,2.132e+00,1.812e+00,2.228e+00,1.502e+00,2.085e+00,3.401e+00,1.753e+00,2.792e+00,2.294e+00,2.072e+00,2.515e+00,2.271e+00,2.840e+00,2.848e+00,2.014e+00,2.158e+00,2.423e+00,1.621e+00,1.762e+00,1.758e+00,2.320e+00,2.960e+00,1.982e+00,2.489e+00,2.966e+00,1.473e+00,2.715e+00,2.755e+00,2.232e+00,2.682e+00,2.174e+00,2.216e+00,1.755e+00,2.875e+00,2.599e+00,2.904e+00,2.674e+00,3.331e+00,2.776e+00,1.600e+00,2.684e+00,2.091e+00
9.517e-02,5.112e-01,1.319e+00,1.137e+00,1.044e+00,1.541e+00,1.976e+00,2.516e+00,2.266e+00,1.969e+00,2.934e+00,3.762e+00,3.783e+00,3.252e+00,2.720e+00,3.503e+00,3.478e+00,2.841e+00,3.148e+00,2.887e+00,2.812e+00,2.679e+00,2.121e+00,2.497e+00,2.604e+00,3.192e+00,3.455e+00,2.932e+00,2.872e+00,2.324e+00,3.818e+00,3.303e+00,2.569e+00,2.763e+00,3.915e+00,3.113e+00,4.310e+00,4.395e+00,3.031e+00,4.068e+00,3.788e+00,2.971e+00,2.446e+00,4.644e+00,3.703e+00,3.514e+00,2.321e+00,2.367e+00,1.578e+00,1.960e+00,3.473e+00,2.313e+00,3.303e+00,2.965e+00,3.314e+00,4.079e+00,3.967e+00,2.852e+00,2.277e+00,2.127e+00,1.850e+00,3.679e+00,2.804e+00,2.039e+00,2.953e+00,3.242e+00,4.085e+00,2.592e+00,2.644e+00,4.491e+00,2.132e+00,3.246e+00,3.957e+00,3.461e+00,3.337e+00,3.227e+00,3.319e+00,2.647e+00,2.735e+00,3.746e+00,3.179e+00,3.587e+00,3.829e+00,3.655e+00,1.896e+00,3.672e+00,2.383e+00
1.920e-03,7.842e-02,4.506e-01,4.095e-01,5.467e-01,1.501e+00,1.333e+00,2.323e+00,2.567e+00,1.950e+00,3.606e+00,2.627e+00,3.798e+00,3.680e+00,2.734e+00,2.583e+00,3.456e+00,3.119e+00,2.039e+00,3.780e+00,3.708e+00,2.805e+00,2.572e+00,3.026e+00,2.332e+00,2.998e+00,3.335e+00,3.186e+00,3.506e+00,2.786e+00,2.876e+00,2.236e+00,2.716e+00,3.148e+00,3.906e+00,3.104e+00,3.574e+00,3.275e+00,3.042e+00,3.806e+00,3.097e+00,2.321e+00,3.023e+00,4.958e+00,3.142e+00,2.576e+00,3.185e+00,2.262e+00,1.923e+00,2.117e+00,3.269e+00,2.085e+00,3.008e+00,2.744e+00,2.715e+00,3.072e+00,2.841e+00,3.135e+00,2.602e+00,2.172e+00,2.277e+00,3.146e+00,2.625e+00,2.634e+00,3.643e+00,2.504e+00,3.519e+00,3.101e+00,2.405e+00,4.374e+00,1.558e+00,4.330e+00,3.477e+00,2.926e+00,3.166e+00,3.247e+00,2.119e+00,3.434e+00,2.865e+00,3.614e+00,3.454e+00,2.349e+00,4.166e+00,3.152e+00,3.078e+00,3.138e+00,3.032e+00
5.215e-01,9.204e-01,9.871e-01,1.054e+00,1.203e+00,1.549e+00,1.519e+00,2.535e+00,1.986e+00,1.203e+00,2.446e+00,2.167e+00,3.176e+00,4.021e+00,2.402e+00,2.770e+00,3.928e+00,2.144e+00,3.524e+00,3.044e+00,3.413e+00,3.157e+00,2.157e+00,2.731e+00,3.303e+00,3.529e+00,2.964e+00,2.089e+00,3.278e+00,2.567e+00,2.906e+00,3.817e+00,2.606e+00,2.766e+00,3.081e+00,3.112e+00,3.985e+00,3.222e+00,3.547e+00,3.959e+00,2.817e+00,2.870e+00,2.505e+00,4.483e+00,3.077e+00,2.471e+00,2.228e+00,2.261e+00,2.168e+00,2.699e+00,3.248e+00,1.994e+00,3.616e+00,2.931e+00,2.941e+00,3.102e+00,2.673e+00,3.253e+00,3.071e+00,2.338e+00,3.107e+00,3.978e+00,2.765e+00,2.350e+00,2.750e+00,2.787e+00,4.265e+00,2.673e+00,3.040e+00,3.307e+00,2.532e+00,3.340e+00,3.937e+00,3.167e+00,3.594e+00,2.761e+00,3.566e+00,2.446e+00,3.379e+00,3.563e+00,2.955e+00,2.738e+00,3.525e+00,3.435e+00,2.326e+00,2.543e+00,2.107e+00
2.178e-01,5.795e-01,8.024e-01,6.922e-01,5.264e-01,7.573e-01,1.370e+00,2.355e+00,1.984e+00,1.633e+00,2.719e+00,2.794e+00,3.052e+00,4.272e+00,2.816e+00,3.121e+00,4.059e+00,2.842e+00,3.966e+00,4.062e+00,3.564e+00,3.315e+00,3.084e+00,2.643e+00,3.834e+00,5.034e+00,3.830e+00,3.691e+00,4.251e+00,3.193e+00,4.114e+00,4.176e+00,3.240e+00,3.824e+00,3.256e+00,2.970e+00,4.385e+00,4.192e+00,4.538e+00,4.837e+00,4.210e+00,3.314e+00,3.049e+00,5.328e+00,4.600e+00,3.308e+00,3.409e+00,2.409e+00,1.934e+00,2.140e+00,3.920e+00,2.731e+00,3.990e+00,3.104e+00,3.627e+00,4.175e+00,3.706e+00,4.220e+00,2.647e+00,2.985e+00,3.212e+00,3.467e+00,3.827e+00,3.149e+00,3.741e+00,3.745e+00,5.697e+00,3.424e+00,4.095e+00,5.085e+00,2.921e+00,3.419e+00,5.051e+00,4.611e+00,3.372e+00,3.418e+00,4.676e+00,2.870e+00,3.292e+00,4.584e+00,2.802e+00,3.589e+00,4.817e+00,3.940e+00,2.033e+00,3.475e+00,2.381e+00
2.966e-01,5.742e-01,6.995e-01,7.920e-01,9.729e-01,9.499e-01,1.564e+00,2.535e+00,2.268e+00,1.852e+00,3.695e+00,2.931e+00,3.668e+00,4.123e+00,2.856e+00,3.173e+00,3.937e+00,4.039e+00,3.466e+00,4.339e+00,3.942e+00,3.641e+00,2.904e+00,3.069e+00,4.495e+00,4.666e+00,3.938e+00,3.468e+00,2.926e+00,3.970e+00,4.433e+00,3.782e+00,3.618e+00,3.373e+00,3.935e+00,3.537e+00,4.422e+00,4.208e+00,4.692e+00,5.020e+00,4.119e+00,3.174e+00,3.355e+00,5.087e+00,4.110e+00,3.939e+00,2.958e+00,3.017e+00,2.260e+00,3.156e+00,4.870e+00,3.093e+00,4.299e+00,3.246e+00,3.984e+00,4.252e+00,3.151e+00,4.049e+00,3.044e+00,2.118e+00,3.291e+00,4.461e+00,3.872e+00,2.570e+00,4.386e+00,3.694e+00,5.149e+00,4.195e+00,4.203e+00,4.231e+00,2.371e+00,3.797e+00,4.565e+00,3.832e+00,3.706e+00,3.484e+00,3.990e+00,2.726e+00,4.505e+00,3.647e+00,4.517e+00,3.691e+00,4.087e+00,4.507e+00,2.698e+00,3.601e+00,3.621e+00
3.645e-01,4.928e-01,3.916e-01,6.328e-01,1.021e+00,9.626e-01,1.554e+00,2.389e+00,1.638e+00,1.462e+00,2.956e+00,2.449e+00,3.181e+00,3.403e+00,3.061e+00,3.159e+00,3.618e+00,3.927e+00,3.675e+00,4.254e+00,4.168e+00,4.026e+00,3.312e+00,2.776e+00,5.306e+00,5.446e+00,3.923e+00,4.354e+00,3.573e+00,3.538e+00,4.371e+00,4.597e+00,4.008e+00,3.407e+00,3.407e+00,2.981e+00,3.533e+00,4.264e+00,5.689e+00,4.678e+00,5.230e+00,3.539e+00,3.732e+00,5.228e+00,5.448e+00,4.290e+00,3.232e+00,2.526e+00,2.199e+00,3.479e+00,4.628e+00,3.196e+00,3.116e+00,3.520e+00,3.868e+00,3.940e+00,3.658e+00,3.618e+00,3.423e+00,2.513e+00,3.224e+00,4.436e+00,4.888e+00,3.113e+00,4.866e+00,3.969e+00,5.643e+00,4.341e+00,4.800e+00,4.102e+00,2.238e+00,3.617e+00,4.616e+00,4.777e+00,3.725e+00,3.641e+00,4.453e+00,3.422e+00,4.389e+00,4.894e+00,3.595e+00,3.193e+00,4.824e+00,3.443e+00,2.275e+00,3.536e+00,3.495e+00
2.230e-01,3.836e-01,4.953e-01,6.659e-01,1.018e+00,1.027e+00,1.520e+00,1.931e+00,2.040e+00,1.649e+00,2.902e+00,2.593e+00,3.511e+00,3.242e+00,2.387e+00,2.599e+00,3.463e+00,3.712e+00,3.319e+00,4.652e+00,3.570e+00,3.555e+00,2.888e+00,2.978e+00,4.598e+00,4.227e+00,3.753e+00,3.865e+00,3.385e+00,3.528e+00,3.646e+00,3.352e+00,3.589e+00,2.902e+00,4.311e+00,3.809e+00,4.056e+00,3.836e+00,4.527e+00,4.246e+00,4.393e+00,3.426e+00,3.252e+00,4.650e+00,4.628e+00,3.897e+00,2.552e+00,3.028e+00,2.205e+00,3.476e+00,4.387e+00,3.452e+00,3.496e+00,3.073e+00,4.059e+00,3.582e+00,3.220e+00,3.757e+00,2.997e+00,2.330e+00,2.874e+00,4.770e+00,3.499e+00,2.568e+00,4.104e+00,3.228e+00,4.345e+00,3.945e+00,4.362e+00,4.252e+00,2.725e+00,3.281e+00,3.692e+00,3.951e+00,3.927e+00,3.234e+00,3.887e+00,3.095e+00,4.172e+00,4.062e+00,4.156e+00,3.443e+00,4.341e+00,4.146e+00,2.767e+00,3.733e+00,3.243e+00
2.467e-01,3.112e-01,2.120e-01,2.332e-01,3.178e-01,1.315e+00,1.161e+00,2.691e+00,2.462e+00,1.892e+00,4.019e+00,2.408e+00,3.691e+00,4.760e+00,3.507e+00,3.239e+00,4.310e+00,5.230e+00,4.662e+00,6.741e+00,5.174e+00,4.227e+00,4.584e+00,3.789e+00,6.595e+00,5.641e+00,4.485e+00,5.391e+00,4.272e+00,4.475e+00,5.047e+00,5.034e+00,5.463e+00,4.899e+00,5.904e+00,4.377e+00,5.482e+00,5.609e+00,6.295e+00,6.571e+00,5.317e+00,4.936e+00,5.056e+00,6.465e+00,6.324e+00,4.522e+00,5.181e+00,4.500e+00,3.271e+00,4.482e+00,6.033e+00,4.342e+00,5.898e+00,4.045e+00,4.779e+00,5.156e+00,4.542e+00,5.563e+00,4.131e+00,3.772e+00,3.941e+00,6.362e+00,4.945e+00,3.800e+00,5.761e+00,4.231e+00,5.486e+00,5.615e+00,5.277e+00,5.933e+00,3.750e+00,5.330e+00,4.810e+00,6.635e+00,5.542e+00,3.940e+00,4.923e+00,4.561e+00,5.897e+00,5.655e+00,5.501e+00,4.351e+00,5.321e+00,6.682e+00,4.083e+00,4.231e+00,4.343e+00
2.682e-01,5.203e-01,6.868e-01,6.901e-01,7.247e-01,9.805e-01,1.432e+00,1.859e+00,1.526e+00,1.329e+00,2.233e+00,1.863e+00,2.522e+00,3.012e+00,2.202e+00,2.469e+00,3.018e+00,2.984e+00,3.497e+00,4.589e+00,3.079e+00,3.006e+00,3.092e+00,3.153e+00,4.795e+00,3.987e+00,3.219e+00,3.984e+00,3.208e+00,3.570e+00,4.164e+00,3.905e+00,3.904e+00,3.315e+00,3.852e+00,3.816e+00,3.814e+00,4.872e+00,4.544e+00,4.393e+00,4.211e+00,4.171e+00,2.954e+00,4.809e+00,4.171e+00,3.683e+00,3.355e+00,3.518e+00,2.871e+00,3.094e+00,4.118e+00,3.903e+00,4.594e+00,3.455e+00,4.659e+00,3.878e+00,3.273e+00,4.643e+00,3.068e+00,2.904e+00,3.344e+00,4.944e+00,3.769e+00,2.918e+00,4.224e+00,3.492e+00,5.275e+00,3.770e+00,4.159e+00,4.242e+00,2.713e+00,3.509e+00,3.779e+00,4.058e+00,4.398e+00,2.833e+00,4.498e+00,2.737e+00,4.009e+00,4.389e+00,4.106e+00,4.017e+00,3.627e+00,4.394e+00,2.812e+00,3.633e+00,3.268e+00
3.834e-01,6.089e-01,7.899e-01,9.764e-01,1.356e+00,1.542e+00,2.172e+00,2.869e+00,2.284e+00,2.071e+00,3.890e+00,3.686e+00,5.032e+00,5.563e+00,4.610e+00,4.588e+00,4.987e+00,4.429e+00,5.525e+00,6.647e+00,5.577e+00,5.554e+00,5.102e+00,5.255e+00,7.621e+00,7.252e+00,6.115e+00,6.326e+00,6.495e+00,6.094e+00,7.060e+00,7.108e+00,6.036e+00,6.299e+00,6.684e+00,6.004e+00,6.615e+00,7.124e+00,7.586e+00,7.793e+00,6.866e+00,6.470e+00,4.433e+00,8.844e+00,7.907e+00,5.793e+00,6.006e+00,4.554e+00,4.681e+00,5.076e+00,6.305e+00,5.477e+00,5.966e+00,5.389e+00,6.903e+00,6.346e+00,6.106e+00,7.085e+00,5.620e+00,5.343e+00,6.178e+00,7.600e+00,6.793e+00,4.959e+00,6.546e+00,6.177e+00,8.567e+00,6.130e+00,6.398e+00,7.915e+00,3.875e+00,6.368e+00,7.690e+00,7.507e+00,7.050e+00,5.864e+00,6.820e+00,5.447e+00,6.571e+00,7.294e+00,5.688e+00,5.816e+00,7.016e+00,6.239e+00,5.210e+00,5.417e+00,5.595e+00
4.552e-02,4.027e-01,1.040e+00,9.857e-01,1.204e+00,2.100e+00,2.177e+00,3.632e+00,3.397e+00,2.493e+00,4.137e+00,3.053e+00,4.905e+00,5.051e+00,4.407e+00,4.210e+00,4.590e+00,4.682e+00,4.401e+00,5.688e+00,4.883e+00,5.189e+00,4.274e+00,4.345e+00,6.501e+00,5.866e+00,6.160e+00,6.122e+00,5.176e+00,4.845e+00,6.199e+00,5.688e+00,5.440e+00,6.242e+00,6.895e+00,4.660e+00,5.911e+00,6.552e+00,6.527e+00,6.895e+00,6.647e+00,5.344e+00,4.927e+00,8.493e+00,6.442e+00,4.896e+00,4.712e+00,4.132e+00,3.794e+00,4.177e+00,6.090e+00,4.966e+00,6.249e+00,4.728e+00,5.845e+00,5.412e+00,6.074e+00,4.963e+00,5.417e+00,3.858e+00,5.679e+00,6.468e+00,5.798e+00,3.722e+00,6.310e+00,4.965e+00,6.868e+00,5.886e+00,5.467e+00,6.774e+00,3.009e+00,6.570e+00,6.451e+00,6.574e+00,6.478e+00,5.755e+00,5.439e+00,5.845e+00,5.836e+00,5.914e+00,6.149e+00,4.807e+00,6.723e+00,6.145e+00,4.910e+00,5.374e+00,4.266e+00
6.958e-01,1.105e+00,1.031e+00,1.164e+00,1.374e+00,1.944e+00,2.350e+00,3.518e+00,2.816e+00,2.167e+00,4.085e+00,3.195e+00,4.647e+00,4.996e+00,4.041e+00,4.195e+00,5.033e+00,4.770e+00,5.062e+00,6.046e+00,4.930e+00,4.543e+00,4.473e+00,4.952e+00,7.527e+00,6.775e+00,6.209e+00,5.902e+00,4.299e+00,5.260e+00,6.652e+00,6.121e+00,5.783e+00,5.022e+00,6.428e+00,5.779e+00,6.665e+00,6.481e+00,7.184e+00,7.132e+00,7.051e+00,5.515e+00,5.381e+00,7.809e+00,7.672e+00,5.503e+00,4.792e+00,4.725e+00,3.267e+00,5.534e+00,6.881e+00,5.239e+00,6.311e+00,5.514e+00,6.084e+00,5.960e+00,5.948e+00,6.089e+00,5.542e+00,4.667e+00,5.054e+00,7.034e+00,6.120e+00,4.552e+00,6.155e+00,5.794e+00,6.938e+00,5.769e+00,6.881e+00,6.229e+00,4.538e+00,5.501e+00,6.450e+00,6.552e+00,6.430e+00,5.306e+00,7.040e+00,4.861e+00,6.251e+00,6.301e+00,5.912e+00,5.102e+00,6.761e+00,6.099e+00,4.273e+00,5.302e+00,4.505e+00
2.340e-01,4.074e-01,7.535e-01,8.631e-01,1.176e+00,1.416e+00,1.602e+00,2.341e+00,1.831e+00,1.555e+00,3.077e+00,3.248e+00,4.197e+00,4.586e+00,3.259e+00,3.662e+00,4.690e+00,4.526e+00,5.772e+00,6.320e+00,5.538e+00,5.443e+00,5.118e+00,5.857e+00,7.502e+00,7.593e+00,6.146e+00,6.949e+00,6.797e+00,5.917e+00,7.070e+00,6.526e+00,7.476e+00,5.761e+00,7.882e+00,6.273e+00,6.674e+00,8.037e+00,8.083e+00,8.326e+00,6.679e+00,6.833e+00,5.905e+00,8.245e+00,7.938e+00,6.132e+00,6.508e+00,5.161e+00,5.187e+00,5.974e+00,6.319e+00,5.213e+00,6.415e+00,6.382e+00,7.344e+00,5.857e+00,5.598e+00,6.696e+00,5.872e+00,5.615e+00,5.480e+00,8.535e+00,7.176e+00,5.510e+00,7.869e+00,6.417e+00,7.591e+00,6.940e+00,6.758e+00,7.687e+00,4.703e+00,7.264e+00,7.142e+00,7.912e+00,7.826e+00,6.613e+00,6.508e+00,6.874e+00,6.512e+00,6.978e+00,6.243e+00,6.227e+00,6.464e+00,7.074e+00,5.353e+00,6.007e+00,6.607e+00
7.892e-02,9.510e-02,2.450e-01,4.781e-01,1.029e+00,1.203e+00,1.226e+00,1.828e+00,2.051e+00,1.458e+00,2.856e+00,2.936e+00,3.769e+00,3.472e+00,2.648e+00,2.781e+00,3.624e+00,3.531e+00,3.495e+00,5.114e+00,4.450e+00,4.162e+00,4.125e+00,4.758e+00,6.193e+00,6.388e+00,5.950e+00,6.159e+00,5.822e+00,5.378e+00,5.520e+00,5.449e+00,6.086e+00,4.841e+00,6.777e+00,5.111e+00,5.672e+00,5.707e+00,7.156e+00,7.236e+00,6.879e+00,5.130e+00,5.330e+00,7.179e+00,6.669e+00,5.076e+00,6.268e+00,4.125e+00,4.640e+00,4.818e+00,5.851e+00,4.822e+00,4.955e+00,5.994e+00,6.015e+00,4.933e+00,5.839e+00,5.374e+00,5.242e+00,5.506e+00,4.593e+00,6.837e+00,5.592e+00,5.121e+00,6.622e+00,5.697e+00,5.880e+00,5.880e+00,6.291e+00,6.188e+00,3.645e+00,5.945e+00,6.524e+00,6.755e+00,6.803e+00,5.713e+00,5.038e+00,6.122e+00,5.392e+00,5.771e+00,5.728e+00,4.564e+00,6.462e+00,5.080e+00,4.340e+00,5.498e+00,5.364e+00
3.372e-01,5.276e-01,6.753e-01,7.657e-01,1.008e+00,1.659e+00,1.850e+00,2.893e+00,2.129e+00,1.772e+00,3.325e+00,2.274e+00,3.327e+00,3.429e+00,3.140e+00,3.314e+00,3.241e+00,3.972e+00,3.745e+00,4.826e+00,4.046e+00,3.621e+00,3.793e+00,3.976e+00,6.411e+00,5.687e+00,5.409e+00,5.061e+00,4.478e+00,4.601e+00,6.299e+00,6.642e+00,5.618e+00,5.079e+00,5.978e+00,4.971e+00,5.250e+00,6.351e+00,6.617e+00,7.463e+00,7.131e+00,5.758e+00,5.284e+00,7.689e+00,6.315e+00,5.210e+00,6.120e+00,4.874e+00,4.993e+00,4.673e+00,6.327e+00,5.466e+00,5.481e+00,5.548e+00,6.265e+00,5.981e+00,6.160e+00,5.629e+00,5.473e+00,4.469e+00,4.252e+00,7.420e+00,5.362e+00,4.921e+00,6.543e+00,5.580e+00,6.195e+00,5.759e+00,6.362e+00,5.919e+00,3.359e+00,5.667e+00,5.905e+00,6.255e+00,7.286e+00,5.235e+00,5.919e+00,5.071e+00,6.342e+00,5.831e+00,5.954e+00,5.025e+00,6.129e+00,5.484e+00,4.381e+00,4.735e+00,5.181e+00
5.553e-01,7.871e-01,7.345e-01,1.004e+00,1.494e+00,1.782e+00,1.976e+00,3.017e+00,2.491e+00,1.834e+00,3.976e+00,4.328e+00,5.244e+00,5.896e+00,4.254e+00,4.523e+00,5.258e+00,4.382e+00,6.299e+00,7.409e+00,5.968e+00,5.195e+00,5.663e+00,5.657e+00,8.373e+00,8.525e+00,8.226e+00,7.421e+00,8.630e+00,7.043e+00,7.792e+00,8.782e+00,8.726e+00,7.074e+00,8.917e+00,7.388e+00,8.268e+00,8.557e+00,9.949e+00,1.023e+01,8.718e+00,7.968e+00,7.155e+00,9.767e+00,9.283e+00,6.136e+00,8.007e+00,5.915e+00,6.644e+00,6.335e+00,7.953e+00,7.079e+00,7.945e+00,6.996e+00,7.909e+00,7.147e+00,7.941e+00,8.167e+00,8.096e+00,7.647e+00,6.406e+00,8.696e+00,7.736e+00,6.561e+00,8.484e+00,8.195e+00,8.952e+00,7.535e+00,8.609e+00,8.716e+00,5.838e+00,8.034e+00,8.402e+00,9.404e+00,8.872e+00,7.547e+00,8.387e+00,7.007e+00,7.606e+00,8.494e+00,7.464e+00,7.848e+00,9.283e+00,8.382e+00,5.676e+00,6.551e+00,5.778e+00
2.066e-01,3.208e-01,4.963e-01,6.980e-01,1.126e+00,1.150e+00,1.651e+00,2.240e+00,2.374e+00,1.969e+00,3.532e+00,2.847e+00,3.826e+00,3.976e+00,2.865e+00,3.146e+00,4.571e+00,4.392e+00,4.325e+00,5.782e+00,4.596e+00,4.848e+00,4.404e+00,5.253e+00,7.282e+00,6.640e+00,6.609e+00,6.547e+00,6.285e+00,6.829e+00,6.129e+00,7.169e+00,8.198e+00,6.602e+00,8.009e+00,6.790e+00,6.340e+00,7.506e+00,9.787e+00,9.109e+00,7.306e+00,6.828e+00,6.598e+00,9.169e+00,7.617e+00,5.746e+00,7.320e+00,5.339e+00,5.243e+00,7.336e+00,6.708e+00,6.074e+00,6.766e+00,6.215e+00,8.434e+00,5.615e+00,6.189e+00,6.969e+00,6.821e+00,5.996e+00,6.263e+00,8.555e+00,7.492e+00,6.279e+00,8.309e+00,6.704e+00,7.865e+00,7.782e+00,7.247e+00,6.884e+00,4.891e+00,7.635e+00,6.388e+00,7.128e+00,8.183e+00,7.003e+00,5.522e+00,6.937e+00,6.156e+00,7.504e+00,7.755e+00,6.300e+00,7.312e+00,7.632e+00,6.188e+00,5.946e+00,6.592e+00
2.265e-01,4.813e-01,9.325e-01,9.126e-01,1.078e+00,2.015e+00,2.047e+00,2.604e+00,2.354e+00,1.867e+00,3.171e+00,2.761e+00,4.134e+00,4.335e+00,3.355e+00,3.321e+00,4.449e+00,3.523e+00,3.805e+00,5.852e+00,4.662e+00,4.316e+00,4.294e+00,5.937e+00,5.743e+00,5.694e+00,6.765e+00,7.057e+00,6.622e+00,6.390e+00,7.342e+00,7.236e+00,8.207e+00,7.165e+00,8.983e+00,7.808e+00,7.623e+00,8.391e+00,9.129e+00,9.270e+00,7.842e+00,7.635e+00,7.164e+00,1.071e+01,7.767e+00,6.427e+00,8.265e+00,7.366e+00,6.787e+00,6.704e+00,7.785e+00,7.430e+00,7.824e+00,8.068e+00,9.453e+00,7.100e+00,7.366e+00,7.660e+00,7.286e+00,7.377e+00,6.450e+00,9.420e+00,7.313e+00,7.883e+00,8.689e+00,7.000e+00,8.152e+00,7.989e+00,8.103e+00,7.852e+00,5.354e+00,8.011e+00,8.625e+00,7.752e+00,9.393e+00,8.588e+00,8.046e+00,7.868e+00,6.182e+00,7.644e+00,7.968e+00,7.289e+00,8.743e+00,7.210e+00,7.114e+00,7.162e+00,6.579e+00
6.330e-01,8.095e-01,5.242e-01,7.228e-01,1.054e+00,1.889e+00,1.520e+00,2.863e+00,2.329e+00,1.453e+00,3.317e+00,2.256e+00,3.474e+00,4.042e+00,3.552e+00,3.559e+00,4.549e+00,3.467e+00,3.896e+00,4.086e+00,4.348e+00,3.880e+00,3.475e+00,5.188e+00,6.245e+00,7.294e+00,6.675e+00,6.150e+00,5.867e+00,6.565e+00,7.760e+00,8.305e+00,7.743e+00,6.265e+00,6.609e+00,6.291e+00,6.648e+00,6.671e+00,8.997e+00,8.890e+00,7.215e+00,6.259e+00,7.046e+00,8.952e+00,7.657e+00,5.214e+00,7.402e+00,5.222e+00,5.775e+00,6.705e+00,7.511e+00,6.448e+00,6.799e+00,7.759e+00,7.362e+00,5.471e+00,7.088e+00,7.463e+00,7.926e+00,5.940e+00,6.765e+00,8.631e+00,7.355e+00,7.811e+00,8.038e+00,8.078e+00,8.268e+00,7.712e+00,8.017e+00,6.638e+00,5.940e+00,7.687e+00,7.585e+00,6.704e+00,8.870e+00,7.163e+00,6.663e+00,7.634e+00,6.235e+00,7.456e+00,7.253e+00,5.329e+00,7.852e+00,6.359e+00,6.276e+00,6.041e+00,5.861e+00
1.209e-01,2.311e-01,4.969e-01,6.594e-01,1.149e+00,1.637e+00,1.326e+00,2.756e+00,2.057e+00,1.289e+00,3.148e+00,2.906e+00,3.168e+00,3.676e+00,2.865e+00,3.350e+00,4.287e+00,4.266e+00,4.413e+00,4.996e+00,5.001e+00,4.613e+00,4.591e+00,5.022e+00,7.488e+00,7.466e+00,6.718e+00,6.589e+00,6.762e+00,6.125e+00,7.957e+00,8.458e+00,8.573e+00,7.841e+00,8.600e+00,5.681e+00,7.502e+00,8.458e+00,9.722e+00,9.915e+00,9.199e+00,8.344e+00,8.031e+00,1.020e+01,9.081e+00,7.047e+00,8.383e+00,6.381e+00,6.920e+00,6.985e+00,8.344e+00,6.947e+00,7.484e+00,7.689e+00,8.086e+00,6.724e+00,8.111e+00,7.425e+00,7.583e+00,6.309e+00,6.265e+00,8.902e+00,8.047e+00,7.318e+00,8.823e+00,7.379e+00,7.575e+00,7.889e+00,8.391e+00,7.622e+00,5.460e+00,8.222e+00,8.358e+00,8.526e+00,8.939e+00,7.963e+00,8.151e+00,8.007e+00,7.152e+00,7.776e+00,7.846e+00,6.801e+00,8.166e+00,7.218e+00,6.119e+00,7.319e+00,6.406e+00
8.688e-02,2.716e-01,7.947e-01,9.142e-01,1.299e+00,1.331e+00,1.881e+00,2.469e+00,2.060e+00,1.929e+00,3.690e+00,4.152e+00,4.849e+00,5.200e+00,3.802e+00,4.201e+00,4.391e+00,4.394e+00,5.381e+00,6.258e+00,5.093e+00,4.920e+00,4.918e+00,5.263e+00,6.961e+00,6.344e+00,6.670e+00,6.585e+00,7.039e+00,6.605e+00,7.729e+00,8.224e+00,8.808e+00,7.393e+00,8.625e+00,7.462e+00,8.256e+00,9.114e+00,8.828e+00,9.731e+00,8.347e+00,9.109e+00,5.755e+00,1.061e+01,8.726e+00,6.535e+00,8.029e+00,6.317e+00,6.298e+00,6.992e+00,7.479e+00,7.675e+00,8.418e+00,6.959e+00,8.728e+00,7.425e+00,8.597e+00,8.543e+00,7.649e+00,7.007e+00,7.476e+00,9.362e+00,7.889e+00,6.692e+00,8.675e+00,7.328e+00,8.708e+00,7.585e+00,7.268e+00,8.661e+00,5.766e+00,8.232e+00,9.069e+00,8.899e+00,8.275e+00,8.330e+00,8.442e+00,6.970e+00,6.726e+00,8.128e+00,7.748e+00,7.273e+00,8.590e+00,8.018e+00,6.802e+00,6.549e+00,6.992e+00
4.537e-01,5.632e-01,3.278e-01,4.660e-01,6.335e-01,1.023e+00,1.188e+00,2.113e+00,1.373e+00,1.142e+00,2.610e+00,1.939e+00,2.495e+00,3.478e+00,2.309e+00,2.667e+00,3.323e+00,3.383e+00,4.123e+00,4.806e+00,3.898e+00,3.039e+00,4.364e+00,5.047e+00,7.483e+00,6.757e+00,5.858e+00,6.375e+00,5.317e+00,6.205e+00,7.572e+00,7.640e+00,9.129e+00,7.463e+00,8.587e+00,6.637e+00,6.840e+00,9.283e+00,9.950e+00,8.757e+00,7.487e+00,8.350e+00,7.860e+00,9.292e+00,9.143e+00,6.413e+00,7.971e+00,6.597e+00,6.261e+00,7.301e+00,8.401e+00,7.423e+00,8.280e+00,7.340e+00,9.201e+00,6.225e+00,7.627e+00,8.250e+00,7.960e+00,6.375e+00,7.440e+00,9.489e+00,9.082e+00,7.490e+00,8.751e+00,7.725e+00,8.233e+00,7.712e+00,8.531e+00,6.682e+00,6.547e+00,7.395e+00,8.056e+00,7.709e+00,9.735e+00,7.262e+00,8.001e+00,8.314e+00,6.667e+00,7.990e+00,8.164e+00,6.521e+00,7.861e+00,8.274e+00,6.001e+00,6.877e+00,6.932e+00
1.720e-01,5.848e-01,1.242e+00,1.264e+00,1.599e+00,2.304e+00,2.528e+00,4.012e+00,3.688e+00,2.607e+00,4.623e+00,4.021e+00,4.616e+00,4.560e+00,4.006e+00,4.382e+00,5.813e+00,5.082e+00,4.859e+00,6.253e+00,5.209e+00,5.414e+00,5.009e+00,6.208e+00,7.761e+00,8.258e+00,7.740e+00,7.195e+00,7.900e+00,7.928e+00,8.590e+00,8.805e+00,9.764e+00,9.233e+00,1.018e+01,8.742e+00,9.016e+00,9.610e+00,1.193e+01,1.050e+01,1.052e+01,9.745e+00,8.570e+00,1.288e+01,1.128e+01,8.595e+00,9.566e+00,7.398e+00,7.175e+00,9.295e+00,9.759e+00,8.506e+00,9.839e+00,9.386e+00,1.065e+01,8.540e+00,1.061e+01,1.077e+01,9.456e+00,8.871e+00,8.470e+00,1.081e+01,9.702e+00,8.783e+00,1.031e+01,9.933e+00,1.027e+01,9.549e+00,9.678e+00,9.107e+00,6.674e+00,9.174e+00,1.080e+01,9.721e+00,9.822e+00,1.079e+01,9.913e+00,8.737e+00,8.784e+00,1.015e+01,1.050e+01,9.268e+00,1.196e+01,9.214e+00,8.521e+00,8.636e+00,9.086e+00
5.162e-01,7.614e-01,7.397e-01,9.383e-01,1.269e+00,1.427e+00,1.831e+00,2.534e+00,2.327e+00,1.832e+00,3.845e+00,3.707e+00,4.642e+00,5.175e+00,3.603e+00,3.452e+00,5.394e+00,3.970e+00,4.798e+00,7.233e+00,5.743e+00,5.058e+00,5.895e+00,6.698e+00,8.630e+00,8.117e+00,7.646e+00,7.720e+00,7.272e+00,8.224e+00,8.872e+00,8.729e+00,9.897e+00,8.987e+00,1.116e+01,9.512e+00,1.068e+01,1.086e+01,1.251e+01,1.170e+01,9.851e+00,1.001e+01,8.580e+00,1.228e+01,1.147e+01,8.092e+00,9.488e+00,8.261e+00,7.820e+00,9.159e+00,1.078e+01,8.801e+00,1.057e+01,9.572e+00,1.051e+01,9.243e+00,9.583e+00,1.149e+01,9.727e+00,9.714e+00,9.619e+00,1.152e+01,1.060e+01,9.465e+00,1.043e+01,1.042e+01,1.067e+01,9.559e+00,1.137e+01,9.795e+00,8.225e+00,9.435e+00,1.197e+01,9.952e+00,1.187e+01,1.026e+01,9.803e+00,9.580e+00,9.149e+00,9.649e+00,1.053e+01,1.009e+01,1.175e+01,1.033e+01,7.992e+00,9.309e+00,9.086e+00
5.314e-01,8.319e-01,8.348e-01,9.721e-01,1.197e+00,1.347e+00,1.500e+00,2.500e+00,1.934e+00,1.400e+00,3.039e+00,3.232e+00,4.312e+00,4.759e+00,3.097e+00,3.521e+00,4.300e+00,3.255e+00,5.097e+00,5.260e+00,4.963e+00,4.255e+00,4.880e+00,4.858e+00,6.826e+00,6.964e+00,7.178e+00,6.105e+00,6.434e+00,6.296e+00,7.805e+00,8.273e+00,8.356e+00,6.766e+00,7.714e+00,8.231e+00,8.491e+00,9.121e+00,9.979e+00,1.065e+01,8.551e+00,8.834e+00,7.277e+00,1.120e+01,8.881e+00,6.492e+00,9.109e+00,6.400e+00,6.988e+00,7.586e+00,7.824e+00,7.814e+00,8.087e+00,8.047e+00,8.822e+00,6.988e+00,8.325e+00,9.267e+00,8.322e+00,8.008e+00,7.602e+00,9.071e+00,8.428e+00,7.209e+00,9.277e+00,9.039e+00,8.583e+00,8.344e+00,8.495e+00,8.226e+00,7.743e+00,9.574e+00,9.461e+00,8.126e+00,9.465e+00,8.944e+00,8.146e+00,7.859e+00,8.652e+00,8.587e+00,8.600e+00,7.924e+00,8.593e+00,7.736e+00,7.447e+00,6.509e+00,6.892e+00
1.571e-01,3.944e-01,7.252e-01,6.807e-01,7.366e-01,1.307e+00,1.411e+00,2.713e+00,2.320e+00,1.790e+00,3.397e+00,2.917e+00,3.610e+00,4.380e+00,3.600e+00,3.704e+00,5.079e+00,4.983e+00,5.294e+00,5.738e+00,5.264e+00,5.334e+00,4.281e+00,4.909e+00,6.547e+00,8.253e+00,6.641e+00,6.601e+00,7.960e+00,6.970e+00,8.824e+00,8.457e+00,9.299e+00,8.703e+00,8.918e+00,8.260e+00,9.422e+00,9.699e+00,1.208e+01,1.226e+01,9.716e+00,1.044e+01,9.336e+00,1.340e+01,1.094e+01,9.055e+00,9.797e+00,8.056e+00,8.453e+00,8.164e+00,9.968e+00,8.371e+00,8.860e+00,8.219e+00,1.052e+01,9.122e+00,9.354e+00,1.060e+01,9.887e+00,8.249e+00,7.481e+00,1.198e+01,1.128e+01,9.163e+00,1.106e+01,9.775e+00,9.736e+00,1.018e+01,9.467e+00,9.748e+00,8.695e+00,9.255e+00,1.055e+01,9.841e+00,9.939e+00,1.103e+01,1.018e+01,8.664e+00,9.654e+00,9.573e+00,1.024e+01,9.306e+00,1.110e+01,9.774e+00,9.377e+00,8.624e+00,8.081e+00
3.957e-01,7.645e-01,1.208e+00,1.155e+00,1.215e+00,2.019e+00,1.904e+00,3.524e+00,2.735e+00,2.081e+00,4.472e+00,4.163e+00,5.018e+00,5.905e+00,4.659e+00,4.641e+00,6.654e+00,5.598e+00,6.517e+00,7.228e+00,6.759e+00,6.347e+00,6.087e+00,6.346e+00,8.759e+00,8.824e+00,8.285e+00,8.056e+00,8.335e+00,8.032e+00,8.863e+00,9.430e+00,1.043e+01,1.008e+01,1.039e+01,9.960e+00,1.070e+01,1.185e+01,1.320e+01,1.324e+01,1.054e+01,1.267e+01,9.719e+00,1.483e+01,1.264e+01,8.893e+00,1.028e+01,9.137e+00,9.093e+00,9.884e+00,1.106e+01,9.217e+00,1.181e+01,9.887e+00,1.144e+01,9.392e+00,1.069e+01,1.112e+01,1.107e+01,1.032e+01,9.401e+00,1.232e+01,1.128e+01,9.408e+00,1.184e+01,1.079e+01,1.118e+01,1.040e+01,1.039e+01,1.070e+01,9.215e+00,1.152e+01,1.158e+01,1.215e+01,1.160e+01,1.238e+01,1.100e+01,9.862e+00,1.052e+01,1.094e+01,1.074e+01,1.112e+01,1.190e+01,1.163e+01,9.514e+00,8.636e+00,9.587e+00
6.698e-01,1.046e+00,1.235e+00,1.412e+00,1.773e+00,2.265e+00,2.596e+00,3.975e+00,3.004e+00,2.391e+00,5.076e+00,4.885e+00,5.975e+00,6.586e+00,4.677e+00,5.371e+00,6.393e+00,5.236e+00,6.302e+00,6.676e+00,6.746e+00,5.669e+00,5.526e+00,7.089e+00,8.017e+00,9.314e+00,8.938e+00,8.087e+00,8.367e+00,8.436e+00,1.042e+01,1.065e+01,1.141e+01,9.328e+00,1.102e+01,1.126e+01,1.145e+01,1.298e+01,1.485e+01,1.417e+01,1.180e+01,1.267e+01,1.106e+01,1.572e+01,1.320e+01,1.004e+01,1.204e+01,9.725e+00,1.026e+01,1.092e+01,1.304e+01,1.109e+01,1.214e+01,1.207e+01,1.340e+01,1.123e+01,1.176e+01,1.327e+01,1.227e+01,1.101e+01,1.131e+01,1.448e+01,1.362e+01,1.208e+01,1.412e+01,1.317e+01,1.315e+01,1.198e+01,1.245e+01,1.168e+01,1.063e+01,1.270e+01,1.489e+01,1.169e+01,1.449e+01,1.378e+01,1.163e+01,1.144e+01,1.231e+01,1.233e+01,1.352e+01,1.209e+01,1.364e+01,1.217e+01,1.112e+01,1.003e+01,1.150e+01
5.042e-01,7.732e-01,8.659e-01,9.909e-01,1.283e+00,1.940e+00,1.796e+00,2.712e+00,2.135e+00,1.459e+00,3.282e+00,3.021e+00,4.176e+00,4.962e+00,4.147e+00,4.339e+00,5.877e+00,4.850e+00,6.024e+00,6.866e+00,5.811e+00,6.001e+00,5.015e+00,5.851e+00,7.643e+00,7.949e+00,7.243e+00,7.371e+00,6.777e+00,7.067e+00,9.146e+00,8.461e+00,1.022e+01,8.397e+00,8.385e+00,7.649e+00,9.300e+00,1.045e+01,1.262e+01,1.168e+01,1.011e+01,1.161e+01,9.553e+00,1.289e+01,1.210e+01,9.065e+00,1.006e+01,8.649e+00,8.870e+00,9.356e+00,1.218e+01,9.885e+00,1.054e+01,9.979e+00,1.129e+01,8.240e+00,9.132e+00,1.047e+01,9.341e+00,8.749e+00,8.684e+00,1.167e+01,1.188e+01,1.004e+01,1.176e+01,9.999e+00,1.039e+01,1.055e+01,9.124e+00,9.617e+00,8.785e+00,1.083e+01,1.143e+01,1.066e+01,1.064e+01,1.133e+01,1.053e+01,8.219e+00,1.039e+01,1.144e+01,1.123e+01,1.010e+01,9.473e+00,1.073e+01,1.033e+01,9.506e+00,9.143e+00
3.641e-01,6.367e-01,7.592e-01,7.498e-01,8.424e-01,1.882e+00,1.782e+00,2.822e+00,3.213e+00,2.297e+00,3.946e+00,3.157e+00,4.578e+00,4.779e+00,3.989e+00,3.818e+00,5.617e+00,5.066e+00,4.534e+00,7.251e+00,5.686e+00,5.274e+00,5.167e+00,5.735e+00,8.224e+00,7.767e+00,7.492e+00,8.086e+00,6.165e+00,7.617e+00,9.196e+00,8.961e+00,9.826e+00,8.833e+00,9.447e+00,8.711e+00,9.645e+00,1.049e+01,1.238e+01,1.256e+01,1.231e+01,1.156e+01,1.033e+01,1.392e+01,1.165e+01,9.876e+00,1.168e+01,1.040e+01,1.020e+01,1.052e+01,1.430e+01,1.158e+01,1.215e+01,1.174e+01,1.194e+01,1.038e+01,1.135e+01,1.197e+01,1.092e+01,9.546e+00,1.063e+01,1.393e+01,1.120e+01,1.164e+01,1.261e+01,1.113e+01,1.097e+01,1.168e+01,1.182e+01,1.024e+01,1.014e+01,1.094e+01,1.268e+01,1.150e+01,1.389e+01,1.184e+01,1.115e+01,1.030e+01,1.094e+01,1.197e+01,1.249e+01,1.069e+01,1.071e+01,1.209e+01,1.055e+01,1.055e+01,9.795e+00
5.521e-01,1.006e+00,1.277e+00,1.338e+00,1.458e+00,1.531e+00,2.185e+00,3.051e+00,2.712e+00,2.260e+00,4.052e+00,3.645e+00,4.777e+00,5.054e+00,3.551e+00,3.824e+00,5.725e+00,4.554e+00,4.965e+00,5.696e+00,5.241e+00,5.274e+00,4.544e+00,5.959e+00,7.034e+00,7.318e+00,8.019e+00,6.944e+00,6.271e+00,7.743e+00,9.114e+00,9.036e+00,1.067e+01,8.399e+00,1.019e+01,9.744e+00,1.152e+01,1.116e+01,1.385e+01,1.445e+01,1.122e+01,1.223e+01,1.021e+01,1.482e+01,1.220e+01,9.583e+00,1.087e+01,1.050e+01,9.331e+00,1.152e+01,1.347e+01,1.098e+01,1.170e+01,1.142e+01,1.311e+01,1.101e+01,1.131e+01,1.096e+01,1.181e+01,1.055e+01,1.068e+01,1.357e+01,1.248e+01,1.124e+01,1.347e+01,1.188e+01,1.092e+01,1.196e+01,1.259e+01,1.079e+01,1.152e+01,1.196e+01,1.304e+01,1.083e+01,1.284e+01,1.331e+01,1.103e+01,1.066e+01,1.052e+01,1.088e+01,1.232e+01,1.167e+01,1.170e+01,1.229e+01,1.034e+01,1.019e+01,9.780e+00
1.373e-01,3.181e-01,6.920e-01,8.356e-01,1.232e+00,1.367e+00,1.942e+00,2.797e+00,2.235e+00,1.959e+00,3.849e+00,3.312e+00,3.990e+00,4.791e+00,4.001e+00,4.137e+00,5.207e+00,4.674e+00,4.770e+00,5.904e+00,5.025e+00,5.432e+00,4.603e+00,5.483e+00,6.638e+00,6.761e+00,7.126e+00,7.081e+00,6.977e+00,7.288e+00,8.171e+00,8.411e+00,9.794e+00,8.856e+00,8.282e+00,8.671e+00,9.702e+00,1.095e+01,1.367e+01,1.366e+01,1.057e+01,1.306e+01,9.608e+00,1.524e+01,1.375e+01,9.870e+00,1.123e+01,1.134e+01,1.066e+01,1.038e+01,1.338e+01,1.202e+01,1.178e+01,1.105e+01,1.375e+01,1.014e+01,1.122e+01,1.140e+01,1.180e+01,1.136e+01,1.070e+01,1.211e+01,1.289e+01,1.210e+01,1.451e+01,1.177e+01,1.154e+01,1.182e+01,1.072e+01,1.082e+01,1.011e+01,1.261e+01,1.322e+01,1.126e+01,1.104e+01,1.389e+01,1.150e+01,1.075e+01,1.113e+01,1.241e+01,1.168e+01,1.221e+01,1.196e+01,1.203e+01,1.139e+01,1.007e+01,1.105e+01
4.457e-01,9.241e-01,1.477e+00,1.527e+00,1.748e+00,1.897e+00,2.385e+00,3.154e+00,2.659e+00,2.135e+00,3.433e+00,3.815e+00,5.102e+00,4.261e+00,3.931e+00,3.977e+00,4.943e+00,4.042e+00,5.225e+00,6.041e+00,5.439e+00,5.759e+00,5.399e+00,5.092e+00,8.083e+00,7.905e+00,7.560e+00,7.086e+00,6.303e+00,6.057e+00,8.278e+00,7.584e+00,8.215e+00,7.537e+00,9.144e+00,7.788e+00,8.790e+00,1.046e+01,1.179e+01,1.095e+01,1.044e+01,1.043e+01,8.784e+00,1.318e+01,1.244e+01,9.921e+00,8.634e+00,8.480e+00,8.902e+00,9.547e+00,1.205e+01,1.020e+01,9.786e+00,1.042e+01,1.159e+01,9.336e+00,1.089e+01,1.017e+01,1.122e+01,9.976e+00,9.673e+00,1.204e+01,1.243e+01,9.498e+00,1.175e+01,1.010e+01,1.057e+01,1.049e+01,1.142e+01,1.075e+01,8.437e+00,1.078e+01,1.271e+01,1.094e+01,1.239e+01,1.155e+01,9.378e+00,1.039e+01,1.119e+01,1.125e+01,1.116e+01,1.105e+01,1.152e+01,1.122e+01,8.618e+00,9.786e+00,9.981e+00
2.624e-01,4.426e-01,5.882e-01,5.750e-01,6.321e-01,1.344e+00,1.245e+00,2.497e+00,1.886e+00,1.458e+00,3.269e+00,3.105e+00,3.492e+00,4.303e+00,3.591e+00,3.479e+00,4.155e+00,3.996e+00,4.577e+00,5.782e+00,4.834e+00,3.896e+00,4.886e+00,5.183e+00,6.886e+00,7.354e+00,6.649e+00,6.871e+00,7.417e+00,7.075e+00,8.919e+00,8.416e+00,9.702e+00,8.730e+00,8.739e+00,8.952e+00,9.650e+00,1.079e+01,1.157e+01,1.276e+01,1.060e+01,1.268e+01,9.942e+00,1.442e+01,1.339e+01,1.003e+01,1.130e+01,1.164e+01,1.182e+01,9.742e+00,1.354e+01,1.248e+01,1.201e+01,1.083e+01,1.276e+01,1.013e+01,1.148e+01,1.277e+01,1.236e+01,1.070e+01,1.072e+01,1.306e+01,1.285e+01,1.175e+01,1.298e+01,1.179e+01,1.112e+01,1.157e+01,1.128e+01,1.001e+01,1.042e+01,1.167e+01,1.220e+01,1.212e+01,1.217e+01,1.323e+01,1.347e+01,1.002e+01,1.109e+01,1.243e+01,1.169e+01,1.212e+01,1.212e+01,1.193e+01,1.113e+01,1.027e+01,1.083e+01
3.859e-01,8.046e-01,1.070e+00,1.013e+00,9.991e-01,1.504e+00,1.540e+00,3.021e+00,2.374e+00,1.636e+00,3.118e+00,2.589e+00,3.416e+00,4.359e+00,3.393e+00,3.686e+00,5.028e+00,4.235e+00,5.360e+00,5.110e+00,4.745e+00,5.020e+00,4.296e+00,4.950e+00,6.733e+00,7.431e+00,6.235e+00,6.270e+00,6.032e+00,6.543e+00,8.044e+00,8.190e+00,9.091e+00,7.145e+00,7.749e+00,7.498e+00,9.032e+00,9.781e+00,1.164e+01,1.231e+01,9.535e+00,1.047e+01,8.197e+00,1.289e+01,1.085e+01,9.586e+00,1.059e+01,9.716e+00,9.272e+00,1.054e+01,1.280e+01,9.988e+00,1.213e+01,1.101e+01,1.136e+01,1.052e+01,1.048e+01,1.210e+01,1.077e+01,1.032e+01,1.095e+01,1.320e+01,1.293e+01,1.159e+01,1.207e+01,1.154e+01,1.049e+01,1.297e+01,1.112e+01,9.738e+00,1.007e+01,1.220e+01,1.287e+01,1.198e+01,1.184e+01,1.268e+01,1.148e+01,1.050e+01,1.091e+01,1.168e+01,1.240e+01,1.156e+01,1.076e+01,1.172e+01,1.085e+01,9.861e+00,1.083e+01
6.653e-01,8.295e-01,5.488e-01,7.136e-01,9.850e-01,1.966e+00,1.382e+00,3.187e+00,2.300e+00,1.443e+00,4.417e+00,3.391e+00,4.377e+00,5.268e+00,4.188e+00,3.834e+00,5.193e+00,4.477e+00,4.670e+00,6.546e+00,6.192e+00,4.382e+00,5.690e+00,6.131e+00,8.184e+00,8.245e+00,7.480e+00,7.620e+00,7.059e+00,7.954e+00,9.145e+00,8.631e+00,9.657e+00,9.794e+00,1.053e+01,9.850e+00,1.025e+01,1.083e+01,1.343e+01,1.270e+01,1.062e+01,1.182e+01,1.102e+01,1.543e+01,1.367e+01,1.112e+01,1.225e+01,1.285e+01,1.189e+01,1.139e+01,1.399e+01,1.288e+01,1.299e+01,1.215e+01,1.374e+01,1.150e+01,1.154e+01,1.467e+01,1.385e+01,1.128e+01,1.157e+01,1.500e+01,1.511e+01,1.323e+01,1.357e+01,1.195e+01,1.131e+01,1.263e+01,1.285e+01,1.192e+01,1.036e+01,1.300e+01,1.446e+01,1.204e+01,1.417e+01,1.409e+01,1.344e+01,1.191e+01,1.355e+01,1.188e+01,1.438e+01,1.273e+01,1.332e+01,1.303e+01,1.139e+01,1.147e+01,1.207e+01
6.649e-01,8.540e-01,4.855e-01,5.667e-01,6.261e-01,1.598e+00,1.229e+00,2.279e+00,1.953e+00,1.290e+00,3.209e+00,2.177e+00,3.639e+00,4.838e+00,3.620e+00,3.112e+00,5.256e+00,3.979e+00,4.535e+00,6.554e+00,5.370e+00,4.501e+00,4.902e+00,5.227e+00,7.435e+00,6.678e+00,6.762e+00,7.038e+00,5.106e+00,6.150e+00,7.113e+00,7.479e+00,8.431e+00,7.874e+00,7.985e+00,8.329e+00,9.177e+00,9.811e+00,1.195e+01,1.130e+01,9.971e+00,1.099e+01,9.273e+00,1.310e+01,1.135e+01,7.743e+00,1.001e+01,1.041e+01,9.393e+00,9.680e+00,1.319e+01,1.000e+01,1.226e+01,1.074e+01,1.197e+01,9.902e+00,9.853e+00,1.194e+01,1.143e+01,1.155e+01,1.005e+01,1.204e+01,1.219e+01,1.145e+01,1.289e+01,1.048e+01,9.917e+00,1.065e+01,1.087e+01,9.840e+00,1.030e+01,1.164e+01,1.278e+01,1.082e+01,1.192e+01,1.226e+01,1.057e+01,1.020e+01,1.148e+01,1.077e+01,1.139e+01,1.034e+01,1.131e+01,1.215e+01,9.591e+00,9.568e+00,1.048e+01
9.118e-02,4.353e-01,7.419e-01,5.847e-01,4.990e-01,1.530e+00,1.527e+00,2.494e+00,2.908e+00,1.935e+00,2.774e+00,1.636e+00,3.175e+00,4.097e+00,3.591e+00,3.332e+00,5.011e+00,4.224e+00,3.927e+00,6.267e+00,4.588e+00,5.305e+00,4.092e+00,5.077e+00,6.675e+00,7.129e+00,6.137e+00,7.044e+00,5.587e+00,6.107e+00,8.346e+00,7.014e+00,8.204e+00,8.706e+00,7.455e+00,7.626e+00,7.599e+00,1.000e+01,1.189e+01,1.168e+01,1.067e+01,1.068e+01,8.969e+00,1.394e+01,1.043e+01,9.725e+00,1.165e+01,1.198e+01,1.101e+01,1.018e+01,1.379e+01,1.220e+01,1.385e+01,1.263e+01,1.354e+01,1.149e+01,1.187e+01,1.339e+01,1.224e+01,1.128e+01,1.184e+01,1.299e+01,1.374e+01,1.244e+01,1.363e+01,1.125e+01,1.178e+01,1.301e+01,1.133e+01,1.152e+01,9.989e+00,1.240e+01,1.354e+01,1.200e+01,1.202e+01,1.334e+01,1.250e+01,1.151e+01,1.273e+01,1.212e+01,1.298e+01,1.182e+01,1.137e+01,1.225e+01,1.155e+01,1.129e+01,1.276e+01
2.854e-01,5.715e-01,7.857e-01,7.768e-01,7.827e-01,9.607e-01,1.552e+00,1.996e+00,1.699e+00,1.555e+00,2.467e+00,2.414e+00,3.152e+00,3.596e+00,2.790e+00,2.812e+00,3.554e+00,3.235e+00,3.917e+00,5.208e+00,4.021e+00,3.893e+00,3.993e+00,4.471e+00,6.541e+00,6.545e+00,5.194e+00,5.817e+00,5.201e+00,5.646e+00,7.392e+00,6.660e+00,6.819e+00,6.173e+00,7.221e+00,6.472e+00,8.141e+00,8.821e+00,9.272e+00,1.038e+01,8.814e+00,9.280e+00,6.569e+00,1.110e+01,1.007e+01,8.759e+00,9.572e+00,9.985e+00,1.006e+01,9.805e+00,1.175e+01,1.187e+01,1.150e+01,1.050e+01,1.178e+01,1.130e+01,1.126e+01,1.277e+01,1.097e+01,1.003e+01,1.166e+01,1.305e+01,1.268e+01,1.122e+01,1.132e+01,1.067e+01,1.144e+01,1.214e+01,1.214e+01,1.040e+01,9.845e+00,1.027e+01,1.190e+01,1.145e+01,1.234e+01,1.148e+01,1.196e+01,1.011e+01,1.092e+01,1.117e+01,1.171e+01,1.155e+01,1.041e+01,1.148e+01,9.621e+00,9.734e+00,1.075e+01
5.358e-01,9.849e-01,1.389e+00,1.356e+00,1.379e+00,1.880e+00,2.006e+00,3.214e+00,1.879e+00,1.524e+00,3.261e+00,3.107e+00,4.033e+00,4.035e+00,3.803e+00,3.798e+00,4.797e+00,4.193e+00,5.185e+00,5.812e+00,5.608e+00,5.325e+00,5.761e+00,5.776e+00,8.427e+00,8.274e+00,8.510e+00,8.203e+00,6.813e+00,7.591e+00,9.849e+00,9.843e+00,1.097e+01,9.374e+00,1.040e+01,9.106e+00,9.545e+00,1.228e+01,1.351e+01,1.250e+01,1.190e+01,1.215e+01,1.028e+01,1.557e+01,1.284e+01,1.116e+01,1.233e+01,1.168e+01,1.186e+01,1.268e+01,1.420e+01,1.361e+01,1.422e+01,1.444e+01,1.543e+01,1.349e+01,1.464e+01,1.456e+01,1.543e+01,1.358e+01,1.347e+01,1.623e+01,1.688e+01,1.447e+01,1.619e+01,1.355e+01,1.293e+01,1.466e+01,1.440e+01,1.312e+01,1.107e+01,1.432e+01,1.639e+01,1.362e+01,1.435e+01,1.641e+01,1.441e+01,1.364e+01,1.465e+01,1.349e+01,1.516e+01,1.422e+01,1.410e+01,1.349e+01,1.171e+01,1.313e+01,1.474e+01
5.788e-01,8.203e-01,9.190e-01,9.555e-01,1.061e+00,2.189e+00,2.264e+00,3.334e+00,2.881e+00,2.400e+00,4.383e+00,2.952e+00,4.387e+00,4.611e+00,4.581e+00,4.189e+00,5.456e+00,4.920e+00,4.955e+00,6.351e+00,5.142e+00,5.063e+00,4.495e+00,5.482e+00,7.632e+00,7.537e+00,6.810e+00,6.358e+00,6.465e+00,7.121e+00,8.441e+00,8.939e+00,8.679e+00,8.432e+00,9.242e+00,9.421e+00,1.035e+01,1.039e+01,1.305e+01,1.342e+01,1.006e+01,1.183e+01,9.963e+00,1.527e+01,1.439e+01,1.033e+01,1.230e+01,1.245e+01,1.241e+01,1.294e+01,1.462e+01,1.357e+01,1.360e+01,1.360e+01,1.562e+01,1.385e+01,1.419e+01,1.572e+01,1.518e+01,1.423e+01,1.366e+01,1.643e+01,1.676e+01,1.570e+01,1.539e+01,1.426e+01,1.342e+01,1.548e+01,1.390e+01,1.358e+01,1.332e+01,1.379e+01,1.537e+01,1.311e+01,1.541e+01,1.528e+01,1.406e+01,1.407e+01,1.596e+01,1.491e+01,1.553e+01,1.551e+01,1.428e+01,1.655e+01,1.452e+01,1.241e+01,1.474e+01
1.481e-01,2.822e-01,5.586e-01,5.987e-01,7.835e-01,1.319e+00,1.681e+00,2.402e+00,2.336e+00,2.059e+00,3.571e+00,2.975e+00,4.219e+00,4.124e+00,3.680e+00,3.480e+00,3.769e+00,4.190e+00,4.092e+00,5.872e+00,4.476e+00,4.216e+00,4.695e+00,5.503e+00,6.979e+00,7.235e+00,7.277e+00,7.554e+00,6.415e+00,6.800e+00,8.501e+00,7.303e+00,8.707e+00,7.481e+00,8.902e+00,8.672e+00,8.501e+00,1.035e+01,1.131e+01,1.214e+01,9.977e+00,1.098e+01,9.277e+00,1.404e+01,1.338e+01,1.031e+01,1.172e+01,1.272e+01,1.237e+01,1.144e+01,1.447e+01,1.480e+01,1.407e+01,1.424e+01,1.584e+01,1.288e+01,1.439e+01,1.465e+01,1.494e+01,1.344e+01,1.433e+01,1.558e+01,1.666e+01,1.511e+01,1.611e+01,1.377e+01,1.245e+01,1.488e+01,1.427e+01,1.398e+01,1.209e+01,1.392e+01,1.612e+01,1.353e+01,1.537e+01,1.604e+01,1.417e+01,1.507e+01,1.525e+01,1.435e+01,1.481e+01,1.505e+01,1.358e+01,1.465e+01,1.368e+01,1.344e+01,1.503e+01
4.419e-01,8.785e-01,1.217e+00,1.193e+00,1.203e+00,1.445e+00,1.839e+00,2.909e+00,2.145e+00,1.742e+00,3.537e+00,3.393e+00,4.190e+00,4.596e+00,2.996e+00,3.071e+00,5.091e+00,4.205e+00,4.434e+00,6.146e+00,5.716e+00,4.855e+00,5.355e+00,5.657e+00,6.960e+00,6.803e+00,6.703e+00,6.790e+00,5.452e+00,6.477e+00,8.342e+00,7.682e+00,9.156e+00,6.839e+00,8.793e+00,8.576e+00,1.040e+01,1.059e+01,1.107e+01,1.156e+01,9.599e+00,1.057e+01,9.253e+00,1.281e+01,1.211e+01,9.697e+00,9.621e+00,1.097e+01,1.035e+01,1.116e+01,1.433e+01,1.182e+01,1.305e+01,1.370e+01,1.424e+01,1.182e+01,1.333e+01,1.276e+01,1.365e+01,1.293e+01,1.268e+01,1.445e+01,1.431e+01,1.362e+01,1.553e+01,1.307e+01,1.226e+01,1.371e+01,1.349e+01,1.102e+01,1.120e+01,1.270e+01,1.470e+01,1.254e+01,1.368e+01,1.572e+01,1.340e+01,1.228e+01,1.344e+01,1.402e+01,1.333e+01,1.428e+01,1.402e+01,1.469e+01,1.142e+01,1.215e+01,1.406e+01
2.343e-01,5.163e-01,9.447e-01,8.484e-01,7.685e-01,1.154e+00,1.399e+00,2.491e+00,1.470e+00,1.414e+00,2.755e+00,2.836e+00,3.302e+00,4.055e+00,3.084e+00,3.279e+00,4.221e+00,4.324e+00,5.356e+00,5.339e+00,5.210e+00,4.833e+00,4.906e+00,4.740e+00,7.417e+00,7.970e+00,6.719e+00,6.478e+00,6.716e+00,6.110e+00,8.873e+00,8.641e+00,9.706e+00,8.401e+00,9.233e+00,8.034e+00,9.462e+00,1.189e+01,1.176e+01,1.222e+01,1.007e+01,1.115e+01,1.111e+01,1.478e+01,1.418e+01,1.068e+01,1.180e+01,1.091e+01,1.179e+01,1.118e+01,1.343e+01,1.235e+01,1.227e+01,1.324e+01,1.578e+01,1.327e+01,1.474e+01,1.484e+01,1.526e+01,1.311e+01,1.275e+01,1.565e+01,1.788e+01,1.529e+01,1.565e+01,1.331e+01,1.273e+01,1.370e+01,1.441e+01,1.310e+01,1.277e+01,1.268e+01,1.670e+01,1.433e+01,1.616e+01,1.556e+01,1.327e+01,1.370e+01,1.394e+01,1.421e+01,1.316e+01,1.477e+01,1.426e+01,1.604e+01,1.360e+01,1.173e+01,1.332e+01
1.005e-01,3.752e-01,7.566e-01,7.905e-01,9.780e-01,9.394e-01,1.306e+00,1.905e+00,2.040e+00,1.541e+00,2.307e+00,2.622e+00,3.220e+00,3.477e+00,2.565e+00,2.605e+00,4.299e+00,3.609e+00,3.967e+00,5.265e+00,4.599e+00,4.926e+00,4.211e+00,4.820e+00,6.724e+00,7.014e+00,5.617e+00,6.222e+00,6.540e+00,6.343e+00,6.624e+00,6.636e+00,7.929e+00,7.076e+00,7.617e+00,7.939e+00,7.646e+00,8.982e+00,1.090e+01,1.028e+01,1.041e+01,9.825e+00,8.738e+00,1.168e+01,1.080e+01,9.759e+00,1.030e+01,9.145e+00,1.112e+01,1.111e+01,1.268e+01,1.078e+01,1.172e+01,1.220e+01,1.303e+01,1.190e+01,1.299e+01,1.329e+01,1.371e+01,1.213e+01,1.293e+01,1.426e+01,1.429e+01,1.302e+01,1.413e+01,1.301e+01,1.148e+01,1.245e+01,1.321e+01,1.051e+01,1.022e+01,1.224e+01,1.482e+01,1.298e+01,1.432e+01,1.370e+01,1.233e+01,1.171e+01,1.201e+01,1.273e+01,1.164e+01,1.346e+01,1.218e+01,1.344e+01,1.200e+01,1.008e+01,1.197e+01
3.710e-01,5.391e-01,5.281e-01,6.655e-01,9.440e-01,1.417e+00,1.486e+00,2.340e+00,2.014e+00,1.539e+00,3.507e+00,2.842e+00,4.311e+00,4.591e+00,3.712e+00,3.364e+00,4.745e+00,4.523e+00,4.158e+00,6.311e+00,5.522e+00,4.989e+00,4.818e+00,5.191e+00,6.881e+00,6.683e+00,7.271e+00,7.159e+00,6.255e+00,7.645e+00,8.032e+00,8.095e+00,8.997e+00,7.865e+00,8.748e+00,8.146e+00,8.780e+00,8.961e+00,1.103e+01,1.054e+01,9.580e+00,1.037e+01,9.022e+00,1.347e+01,1.182e+01,9.584e+00,1.100e+01,1.088e+01,1.084e+01,1.124e+01,1.452e+01,1.262e+01,1.268e+01,1.340e+01,1.602e+01,1.372e+01,1.654e+01,1.450e+01,1.623e+01,1.386e+01,1.501e+01,1.610e+01,1.609e+01,1.556e+01,1.643e+01,1.390e+01,1.249e+01,1.598e+01,1.470e+01,1.344e+01,1.215e+01,1.359e+01,1.638e+01,1.419e+01,1.447e+01,1.647e+01,1.463e+01,1.503e+01,1.611e+01,1.470e+01,1.431e+01,1.503e+01,1.414e+01,1.549e+01,1.432e+01,1.307e+01,1.452e+01
1.346e-01,5.279e-01,1.226e+00,1.098e+00,1.083e+00,1.505e+00,1.765e+00,2.493e+00,2.328e+00,1.825e+00,2.870e+00,3.053e+00,3.532e+00,3.903e+00,2.782e+00,3.355e+00,4.627e+00,3.633e+00,4.702e+00,5.170e+00,4.231e+00,4.599e+00,4.030e+00,4.337e+00,5.789e+00,5.799e+00,5.967e+00,5.114e+00,5.528e+00,5.047e+00,6.939e+00,6.797e+00,8.783e+00,7.707e+00,7.660e+00,6.997e+00,8.565e+00,1.032e+01,1.072e+01,1.113e+01,9.762e+00,1.143e+01,9.055e+00,1.318e+01,1.119e+01,1.014e+01,1.126e+01,1.093e+01,1.117e+01,1.183e+01,1.445e+01,1.246e+01,1.378e+01,1.265e+01,1.505e+01,1.320e+01,1.451e+01,1.450e+01,1.485e+01,1.363e+01,1.483e+01,1.514e+01,1.698e+01,1.467e+01,1.631e+01,1.344e+01,1.230e+01,1.382e+01,1.339e+01,1.304e+01,1.304e+01,1.477e+01,1.613e+01,1.422e+01,1.415e+01,1.540e+01,1.498e+01,1.336e+01,1.531e+01,1.493e+01,1.414e+01,1.517e+01,1.322e+01,1.627e+01,1.286e+01,1.204e+01,1.449e+01
4.443e-01,5.834e-01,5.438e-01,6.547e-01,8.760e-01,1.527e+00,1.203e+00,2.187e+00,1.565e+00,1.094e+00,2.955e+00,2.336e+00,3.224e+00,3.568e+00,2.941e+00,2.909e+00,4.134e+00,3.796e+00,3.841e+00,4.465e+00,4.346e+00,3.838e+00,3.662e+00,4.393e+00,5.813e+00,5.486e+00,5.745e+00,5.373e+00,4.591e+00,5.654e+00,6.656e+00,7.084e+00,8.009e+00,7.043e+00,8.195e+00,7.610e+00,8.116e+00,8.776e+00,1.097e+01,1.050e+01,8.557e+00,1.038e+01,8.791e+00,1.323e+01,1.209e+01,9.368e+00,1.018e+01,1.155e+01,9.979e+00,1.186e+01,1.397e+01,1.204e+01,1.213e+01,1.360e+01,1.536e+01,1.273e+01,1.438e+01,1.401e+01,1.574e+01,1.397e+01,1.543e+01,1.577e+01,1.671e+01,1.595e+01,1.618e+01,1.427e+01,1.101e+01,1.572e+01,1.444e+01,1.320e+01,1.322e+01,1.549e+01,1.674e+01,1.471e+01,1.508e+01,1.620e+01,1.424e+01,1.552e+01,1.638e+01,1.427e+01,1.382e+01,1.514e+01,1.452e+01,1.610e+01,1.483e+01,1.207e+01,1.523e+01
6.440e-01,1.105e+00,1.308e+00,1.298e+00,1.319e+00,2.017e+00,2.068e+00,3.344e+00,2.525e+00,1.795e+00,3.527e+00,2.825e+00,4.082e+00,4.341e+00,2.943e+00,3.152e+00,4.695e+00,3.564e+00,4.774e+00,5.621e+00,4.926e+00,4.215e+00,4.452e+00,4.912e+00,6.044e+00,6.639e+00,7.054e+00,5.769e+00,6.896e+00,6.347e+00,7.985e+00,7.890e+00,9.564e+00,7.681e+00,9.883e+00,8.158e+00,9.392e+00,9.852e+00,1.177e+01,1.206e+01,8.937e+00,1.077e+01,9.583e+00,1.342e+01,1.114e+01,9.446e+00,1.040e+01,1.197e+01,1.113e+01,1.143e+01,1.392e+01,1.198e+01,1.201e+01,1.129e+01,1.516e+01,1.274e+01,1.336e+01,1.383e+01,1.571e+01,1.324e+01,1.356e+01,1.558e+01,1.601e+01,1.465e+01,1.649e+01,1.420e+01,1.180e+01,1.582e+01,1.566e+01,1.289e+01,1.323e+01,1.544e+01,1.492e+01,1.372e+01,1.581e+01,1.578e+01,1.504e+01,1.548e+01,1.631e+01,1.488e+01,1.499e+01,1.536e+01,1.543e+01,1.689e+01,1.301e+01,1.258e+01,1.345e+01
3.203e-01,7.036e-01,9.070e-01,9.798e-01,1.242e+00,1.715e+00,1.875e+00,2.942e+00,3.048e+00,1.963e+00,3.412e+00,3.497e+00,4.307e+00,4.910e+00,3.287e+00,3.981e+00,4.919e+00,3.439e+00,4.746e+00,5.450e+00,4.234e+00,4.179e+00,4.386e+00,4.841e+00,7.089e+00,6.838e+00,7.138e+00,6.160e+00,6.113e+00,5.875e+00,7.086e+00,7.798e+00,8.073e+00,8.540e+00,8.651e+00,8.096e+00,7.765e+00,9.722e+00,1.106e+01,1.044e+01,9.553e+00,9.529e+00,8.827e+00,1.273e+01,1.085e+01,8.444e+00,1.008e+01,1.003e+01,8.831e+00,1.061e+01,1.305e+01,1.154e+01,1.268e+01,1.157e+01,1.357e+01,1.162e+01,1.368e+01,1.324e+01,1.447e+01,1.164e+01,1.466e+01,1.423e+01,1.456e+01,1.364e+01,1.348e+01,1.348e+01,1.224e+01,1.422e+01,1.359e+01,1.179e+01,1.092e+01,1.403e+01,1.536e+01,1.320e+01,1.492e+01,1.360e+01,1.408e+01,1.397e+01,1.542e+01,1.415e+01,1.309e+01,1.379e+01,1.406e+01,1.439e+01,1.156e+01,1.152e+01,1.395e+01
5.473e-01,9.610e-01,1.044e+00,9.579e-01,8.206e-01,1.683e+00,1.734e+00,2.638e+00,2.213e+00,1.572e+00,2.665e+00,2.079e+00,3.140e+00,3.645e+00,2.797e+00,3.101e+00,4.140e+00,2.882e+00,3.567e+00,3.926e+00,3.553e+00,3.197e+00,2.985e+00,4.359e+00,5.017e+00,5.625e+00,5.194e+00,5.320e+00,4.525e+00,5.197e+00,7.076e+00,6.313e+00,7.142e+00,6.850e+00,7.292e+00,7.227e+00,7.425e+00,9.004e+00,1.080e+01,9.797e+00,8.072e+00,9.820e+00,8.183e+00,1.177e+01,1.011e+01,8.452e+00,9.522e+00,1.032e+01,9.659e+00,1.020e+01,1.190e+01,1.110e+01,1.205e+01,1.155e+01,1.384e+01,1.094e+01,1.252e+01,1.265e+01,1.502e+01,1.193e+01,1.405e+01,1.512e+01,1.674e+01,1.607e+01,1.640e+01,1.417e+01,1.233e+01,1.578e+01,1.333e+01,1.269e+01,1.297e+01,1.512e+01,1.527e+01,1.226e+01,1.553e+01,1.458e+01,1.468e+01,1.518e+01,1.648e+01,1.469e+01,1.428e+01,1.440e+01,1.429e+01,1.626e+01,1.400e+01,1.352e+01,1.348e+01
3.780e-01,7.428e-01,1.027e+00,1.019e+00,1.034e+00,1.216e+00,1.840e+00,2.410e+00,2.139e+00,1.951e+00,3.336e+00,3.507e+00,4.945e+00,5.440e+00,4.229e+00,4.037e+00,5.355e+00,4.633e+00,5.591e+00,6.981e+00,5.867e+00,5.854e+00,5.264e+00,5.059e+00,7.328e+00,7.459e+00,7.030e+00,7.685e+00,6.022e+00,6.844e+00,9.334e+00,8.434e+00,1.004e+01,8.545e+00,8.810e+00,9.380e+00,1.064e+01,1.180e+01,1.255e+01,1.239e+01,1.091e+01,1.214e+01,9.923e+00,1.510e+01,1.312e+01,1.122e+01,1.092e+01,1.234e+01,1.157e+01,1.152e+01,1.600e+01,1.368e+01,1.432e+01,1.484e+01,1.669e+01,1.468e+01,1.580e+01,1.619e+01,1.666e+01,1.429e+01,1.743e+01,1.780e+01,2.034e+01,1.773e+01,2.082e+01,1.627e+01,1.529e+01,1.743e+01,1.706e+01,1.481e+01,1.665e+01,1.692e+01,2.006e+01,1.591e+01,1.787e+01,1.843e+01,1.774e+01,1.674e+01,1.786e+01,1.766e+01,1.694e+01,1.699e+01,1.685e+01,1.921e+01,1.676e+01,1.617e+01,1.663e+01
2.829e-01,3.952e-01,4.292e-01,4.917e-01,7.126e-01,1.592e+00,9.763e-01,2.587e+00,1.593e+00,9.251e-01,2.923e+00,1.833e+00,2.879e+00,3.560e+00,2.879e+00,2.572e+00,3.259e+00,3.525e+00,3.648e+00,5.106e+00,4.753e+00,3.577e+00,4.468e+00,4.323e+00,5.633e+00,5.529e+00,5.070e+00,6.170e+00,5.653e+00,5.888e+00,7.593e+00,7.417e+00,8.966e+00,7.483e+00,8.334e+00,7.972e+00,7.671e+00,8.987e+00,1.107e+01,9.828e+00,8.295e+00,1.046e+01,8.940e+00,1.305e+01,1.077e+01,9.838e+00,1.106e+01,1.177e+01,1.115e+01,1.128e+01,1.253e+01,1.361e+01,1.263e+01,1.311e+01,1.447e+01,1.187e+01,1.378e+01,1.517e+01,1.541e+01,1.360e+01,1.541e+01,1.632e+01,1.798e+01,1.735e+01,1.808e+01,1.362e+01,1.334e+01,1.745e+01,1.620e+01,1.436e+01,1.334e+01,1.631e+01,1.763e+01,1.339e+01,1.658e+01,1.649e+01,1.591e+01,1.700e+01,1.737e+01,1.592e+01,1.703e+01,1.576e+01,1.624e+01,1.564e+01,1.540e+01,1.420e+01,1.502e+01
1.023e-01,5.148e-01,1.106e+00,1.044e+00,1.106e+00,1.199e+00,1.857e+00,2.110e+00,2.303e+00,1.924e+00,2.313e+00,2.970e+00,4.015e+00,4.095e+00,3.346e+00,3.738e+00,4.565e+00,4.070e+00,5.124e+00,5.600e+00,4.355e+00,5.496e+00,4.133e+00,5.469e+00,7.107e+00,7.548e+00,6.529e+00,7.017e+00,6.090e+00,6.538e+00,9.414e+00,8.120e+00,9.526e+00,7.767e+00,8.895e+00,8.826e+00,9.294e+00,1.114e+01,1.209e+01,1.228e+01,1.051e+01,1.168e+01,9.475e+00,1.414e+01,1.377e+01,1.201e+01,1.173e+01,1.238e+01,1.240e+01,1.214e+01,1.578e+01,1.390e+01,1.381e+01,1.488e+01,1.688e+01,1.223e+01,1.551e+01,1.443e+01,1.486e+01,1.394e+01,1.542e+01,1.822e+01,1.847e+01,1.751e+01,1.853e+01,1.525e+01,1.447e+01,1.875e+01,1.569e+01,1.383e+01,1.427e+01,1.555e+01,2.016e+01,1.531e+01,1.848e+01,1.731e+01,1.692e+01,1.643e+01,1.738e+01,1.698e+01,1.593e+01,1.628e+01,1.655e+01,1.861e+01,1.581e+01,1.665e+01,1.634e+01
1.592e-01,5.691e-01,1.054e+00,1.091e+00,1.369e+00,1.519e+00,1.577e+00,2.685e+00,2.307e+00,1.376e+00,2.618e+00,2.852e+00,3.512e+00,3.872e+00,2.518e+00,3.049e+00,4.214e+00,3.156e+00,4.207e+00,4.950e+00,4.506e+00,4.586e+00,4.637e+00,5.572e+00,7.100e+00,7.038e+00,6.801e+00,6.775e+00,6.979e+00,7.126e+00,7.793e+00,7.992e+00,9.049e+00,8.183e+00,9.861e+00,8.305e+00,8.924e+00,1.052e+01,1.256e+01,1.260e+01,1.051e+01,1.141e+01,8.957e+00,1.497e+01,1.195e+01,9.895e+00,1.211e+01,1.148e+01,1.170e+01,1.238e+01,1.358e+01,1.290e+01,1.390e+01,1.456e+01,1.570e+01,1.417e+01,1.548e+01,1.564e+01,1.740e+01,1.636e+01,1.672e+01,1.648e+01,1.796e+01,1.775e+01,1.777e+01,1.720e+01,1.396e+01,1.822e+01,1.699e+01,1.459e+01,1.446e+01,1.694e+01,1.969e+01,1.680e+01,1.896e+01,1.878e+01,1.662e+01,1.828e+01,1.832e+01,1.697e+01,1.646e+01,1.771e+01,1.784e+01,1.818e+01,1.792e+01,1.436e+01,1.637e+01
6.316e-01,8.978e-01,8.959e-01,1.056e+00,1.288e+00,1.540e+00,1.876e+00,2.927e+00,1.937e+00,1.666e+00,3.451e+00,2.559e+00,3.939e+00,3.985e+00,3.558e+00,3.226e+00,4.178e+00,4.075e+00,5.142e+00,6.170e+00,5.203e+00,4.893e+00,5.527e+00,5.386e+00,8.517e+00,8.301e+00,7.643e+00,6.744e+00,6.828e+00,7.004e+00,8.882e+00,8.622e+00,1.021e+01,8.051e+00,9.380e+00,7.802e+00,9.041e+00,1.061e+01,1.179e+01,1.174e+01,1.068e+01,1.120e+01,9.866e+00,1.385e+01,1.313e+01,8.895e+00,1.125e+01,1.036e+01,1.133e+01,1.156e+01,1.389e+01,1.225e+01,1.257e+01,1.381e+01,1.499e+01,1.451e+01,1.545e+01,1.534e+01,1.794e+01,1.446e+01,1.638e+01,1.685e+01,1.987e+01,1.845e+01,2.054e+01,1.667e+01,1.613e+01,1.868e+01,2.026e+01,1.636e+01,1.725e+01,1.841e+01,2.092e+01,1.622e+01,2.060e+01,1.910e+01,1.902e+01,1.860e+01,2.039e+01,1.807e+01,1.690e+01,1.728e+01,1.876e+01,1.985e+01,1.830e+01,1.667e+01,1.817e+01
4.384e-01,6.937e-01,7.953e-01,8.226e-01,9.303e-01,1.766e+00,1.779e+00,2.406e+00,1.981e+00,1.546e+00,2.583e+00,2.104e+00,3.803e+00,3.685e+00,3.273e+00,3.028e+00,3.547e+00,3.444e+00,4.046e+00,5.759e+00,4.470e+00,3.986e+00,4.273e+00,4.897e+00,6.299e+00,6.204e+00,5.977e+00,7.042e+00,5.793e+00,6.017e+00,7.810e+00,6.791e+00,8.787e+00,6.852e+00,8.711e+00,7.666e+00,8.371e+00,1.033e+01,1.174e+01,1.063e+01,9.883e+00,1.160e+01,9.091e+00,1.366e+01,1.238e+01,1.057e+01,1.140e+01,1.168e+01,1.206e+01,1.112e+01,1.512e+01,1.330e+01,1.354e+01,1.370e+01,1.639e+01,1.421e+01,1.627e+01,1.507e+01,1.730e+01,1.548e+01,1.497e+01,1.740e+01,1.864e+01,1.760e+01,1.767e+01,1.545e+01,1.430e+01,1.881e+01,1.758e+01,1.544e+01,1.581e+01,1.550e+01,2.114e+01,1.681e+01,1.954e+01,1.721e+01,1.718e+01,1.935e+01,1.833e+01,1.719e+01,1.672e+01,1.727e+01,1.781e+01,1.768e+01,1.686e+01,1.618e+01,1.642e+01
1.925e-01,3.481e-01,7.726e-01,7.256e-01,7.323e-01,1.265e+00,1.781e+00,2.039e+00,2.158e+00,2.192e+00,3.743e+00,3.177e+00,4.232e+00,4.489e+00,3.501e+00,3.251e+00,5.178e+00,4.923e+00,4.509e+00,6.706e+00,5.184e+00,5.122e+00,4.346e+00,5.656e+00,6.093e+00,6.536e+00,6.823e+00,7.122e+00,6.369e+00,6.790e+00,7.837e+00,7.043e+00,9.425e+00,7.610e+00,9.357e+00,8.854e+00,1.009e+01,1.057e+01,1.211e+01,1.336e+01,9.502e+00,1.112e+01,1.001e+01,1.422e+01,1.290e+01,1.060e+01,1.110e+01,1.342e+01,1.237e+01,1.247e+01,1.507e+01,1.407e+01,1.397e+01,1.363e+01,1.695e+01,1.440e+01,1.428e+01,1.535e+01,1.656e+01,1.493e+01,1.527e+01,1.815e+01,1.882e+01,1.757e+01,1.933e+01,1.542e+01,1.441e+01,1.807e+01,1.787e+01,1.688e+01,1.614e+01,1.692e+01,1.927e+01,1.683e+01,1.791e+01,1.917e+01,1.878e+01,1.831e+01,1.863e+01,1.742e+01,1.679e+01,1.792e+01,1.767e+01,1.947e+01,1.735e+01,1.722e+01,1.826e+01
5.128e-01,7.694e-01,8.875e-01,9.326e-01,1.069e+00,1.868e+00,1.631e+00,2.612e+00,2.543e+00,1.805e+00,3.654e+00,3.259e+00,4.655e+00,4.991e+00,3.892e+00,3.588e+00,5.283e+00,3.833e+00,5.180e+00,6.582e+00,5.548e+00,4.997e+00,5.096e+00,6.096e+00,7.276e+00,8.189e+00,7.787e+00,7.045e+00,8.008e+00,7.626e+00,9.388e+00,8.941e+00,1.013e+01,8.383e+00,9.719e+00,8.635e+00,1.055e+01,9.975e+00,1.151e+01,1.273e+01,1.017e+01,1.154e+01,1.016e+01,1.489e+01,1.327e+01,1.006e+01,1.245e+01,1.222e+01,1.244e+01,1.180e+01,1.483e+01,1.378e+01,1.339e+01,1.423e+01,1.587e+01,1.400e+01,1.600e+01,1.640e+01,1.775e+01,1.458e+01,1.634e+01,1.861e+01,1.914e+01,1.899e+01,1.908e+01,1.647e+01,1.568e+01,1.903e+01,1.850e+01,1.730e+01,1.758e+01,1.803e+01,2.086e+01,1.697e+01,2.095e+01,1.960e+01,1.831e+01,1.966e+01,1.894e+01,1.921e+01,1.797e+01,1.800e+01,1.904e+01,2.022e+01,1.841e+01,1.824e+01,1.646e+01
3.758e-01,7.785e-01,9.042e-01,9.596e-01,1.135e+00,1.500e+00,1.733e+00,2.873e+00,2.338e+00,1.555e+00,2.728e+00,2.571e+00,3.336e+00,4.307e+00,2.994e+00,3.303e+00,4.749e+00,3.622e+00,4.467e+00,5.255e+00,4.559e+00,4.487e+00,4.407e+00,4.810e+00,7.223e+00,6.711e+00,6.071e+00,6.301e+00,5.412e+00,5.579e+00,7.406e+00,7.916e+00,8.448e+00,7.920e+00,7.954e+00,7.847e+00,8.779e+00,9.488e+00,1.151e+01,1.061e+01,1.052e+01,1.110e+01,9.175e+00,1.340e+01,1.243e+01,1.062e+01,1.044e+01,1.177e+01,1.045e+01,1.162e+01,1.522e+01,1.240e+01,1.355e+01,1.417e+01,1.623e+01,1.297e+01,1.610e+01,1.426e+01,1.619e+01,1.437e+01,1.550e+01,1.624e+01,1.734e+01,1.666e+01,1.772e+01,1.495e+01,1.342e+01,1.634e+01,1.573e+01,1.455e+01,1.511e+01,1.568e+01,2.038e+01,1.748e+01,1.619e+01,1.864e+01,1.971e+01,1.867e+01,1.861e+01,1.849e+01,1.603e+01,1.628e+01,1.709e+01,1.832e+01,1.567e+01,1.657e+01,1.752e+01
1.253e-01,3.844e-01,9.492e-01,1.047e+00,1.396e+00,1.342e+00,1.820e+00,2.437e+00,2.175e+00,1.832e+00,3.195e+00,3.382e+00,4.260e+00,3.794e+00,3.552e+00,3.720e+00,4.555e+00,4.451e+00,4.711e+00,5.278e+00,4.826e+00,5.559e+00,4.211e+00,5.022e+00,6.000e+00,7.331e+00,7.343e+00,6.895e+00,6.476e+00,6.512e+00,9.041e+00,8.126e+00,9.512e+00,6.772e+00,7.599e+00,8.140e+00,9.222e+00,9.966e+00,1.191e+01,1.223e+01,1.049e+01,1.140e+01,9.340e+00,1.335e+01,1.258e+01,9.883e+00,1.016e+01,1.044e+01,1.095e+01,1.141e+01,1.484e+01,1.264e+01,1.199e+01,1.331e+01,1.566e+01,1.260e+01,1.472e+01,1.292e+01,1.659e+01,1.444e+01,1.431e+01,1.629e+01,1.868e+01,1.830e+01,2.035e+01,1.712e+01,1.496e+01,1.840e+01,1.808e+01,1.695e+01,1.586e+01,1.951e+01,2.121e+01,1.747e+01,1.828e+01,2.007e+01,1.904e+01,1.975e+01,2.055e+01,1.991e+01,1.776e+01,1.799e+01,1.897e+01,1.836e+01,1.878e+01,1.711e+01,1.805e+01
1.153e-01,5.139e-01,1.057e+00,8.973e-01,7.984e-01,1.289e+00,1.412e+00,2.105e+00,2.161e+00,1.483e+00,1.787e+00,2.016e+00,2.504e+00,2.585e+00,2.358e+00,2.439e+00,3.431e+00,2.095e+00,3.581e+00,4.001e+00,2.880e+00,3.604e+00,3.530e+00,3.832e+00,5.305e+00,6.014e+00,5.624e+00,4.645e+00,5.527e+00,4.456e+00,6.505e+00,6.112e+00,7.329e+00,6.980e+00,7.226e+00,6.638e+00,7.830e+00,9.019e+00,1.046e+01,1.099e+01,9.651e+00,1.020e+01,8.097e+00,1.290e+01,1.089e+01,8.215e+00,1.094e+01,1.003e+01,1.051e+01,1.019e+01,1.276e+01,1.145e+01,1.220e+01,1.289e+01,1.427e+01,1.276e+01,1.434e+01,1.360e+01,1.437e+01,1.467e+01,1.301e+01,1.350e+01,1.622e+01,1.499e+01,1.529e+01,1.416e+01,1.168e+01,1.475e+01,1.592e+01,1.402e+01,1.560e+01,1.516e+01,1.964e+01,1.602e+01,1.760e+01,1.794e+01,1.854e+01,1.750e+01,1.824e+01,1.719e+01,1.601e+01,1.726e+01,1.664e+01,1.750e+01,1.552e+01,1.627e+01,1.544e+01
4.857e-01,6.377e-01,5.317e-01,7.895e-01,1.315e+00,1.956e+00,1.582e+00,3.128e+00,2.319e+00,1.469e+00,3.645e+00,2.760e+00,4.359e+00,5.377e+00,3.966e+00,3.932e+00,5.433e+00,4.887e+00,5.583e+00,6.495e+00,6.505e+00,5.924e+00,5.437e+00,6.421e+00,8.667e+00,8.708e+00,7.417e+00,7.496e+00,7.780e+00,7.344e+00,9.528e+00,9.628e+00,1.091e+01,9.124e+00,9.977e+00,8.378e+00,9.293e+00,1.138e+01,1.317e+01,1.290e+01,1.053e+01,1.224e+01,1.079e+01,1.433e+01,1.387e+01,1.007e+01,1.170e+01,1.178e+01,1.328e+01,1.303e+01,1.560e+01,1.345e+01,1.449e+01,1.398e+01,1.615e+01,1.245e+01,1.503e+01,1.461e+01,1.774e+01,1.515e+01,1.478e+01,1.731e+01,1.923e+01,1.804e+01,1.915e+01,1.615e+01,1.468e+01,1.908e+01,1.836e+01,1.616e+01,1.593e+01,1.920e+01,2.190e+01,1.987e+01,2.217e+01,2.118e+01,2.248e+01,2.254e+01,2.197e+01,2.154e+01,2.004e+01,1.929e+01,2.177e+01,2.150e+01,2.002e+01,1.917e+01,2.008e+01
5.975e-01,7.533e-01,5.340e-01,6.231e-01,7.344e-01,1.778e+00,1.783e+00,3.021e+00,2.132e+00,1.753e+00,3.716e+00,2.717e+00,4.043e+00,4.784e+00,3.819e+00,3.814e+00,4.615e+00,4.468e+00,4.792e+00,6.069e+00,5.367e+00,3.979e+00,4.841e+00,5.591e+00,6.901e+00,7.483e+00,6.773e+00,7.732e+00,6.559e+00,6.697e+00,8.142e+00,7.802e+00,9.435e+00,7.196e+00,8.155e+00,7.903e+00,8.007e+00,1.050e+01,1.205e+01,1.085e+01,9.838e+00,1.146e+01,9.201e+00,1.328e+01,1.259e+01,9.225e+00,1.144e+01,1.130e+01,1.088e+01,1.115e+01,1.415e+01,1.266e+01,1.322e+01,1.367e+01,1.605e+01,1.312e+01,1.615e+01,1.437e+01,1.743e+01,1.490e+01,1.548e+01,1.710e+01,1.946e+01,1.949e+01,1.998e+01,1.585e+01,1.545e+01,1.942e+01,1.889e+01,1.713e+01,1.751e+01,1.983e+01,2.104e+01,1.865e+01,2.039e+01,1.982e+01,2.038e+01,2.225e+01,2.054e+01,2.104e+01,1.855e+01,1.970e+01,1.977e+01,2.071e+01,1.901e+01,1.906e+01,1.923e+01
4.482e-02,3.040e-01,7.184e-01,5.917e-01,5.085e-01,1.016e+00,1.352e+00,2.030e+00,2.136e+00,1.770e+00,2.948e+00,2.410e+00,3.159e+00,3.952e+00,3.160e+00,3.099e+00,4.904e+00,4.547e+00,3.983e+00,5.346e+00,4.388e+00,4.860e+00,3.294e+00,4.722e+00,4.893e+00,6.193e+00,5.184e+00,5.876e+00,5.132e+00,5.787e+00,8.004e+00,6.546e+00,7.766e+00,6.599e+00,6.614e+00,7.574e+00,8.251e+00,8.594e+00,9.979e+00,1.029e+01,8.005e+00,9.729e+00,7.637e+00,1.128e+01,9.920e+00,8.450e+00,9.124e+00,1.069e+01,1.006e+01,1.001e+01,1.297e+01,1.061e+01,1.221e+01,1.184e+01,1.389e+01,1.152e+01,1.240e+01,1.297e+01,1.294e+01,1.214e+01,1.307e+01,1.430e+01,1.570e+01,1.586e+01,1.663e+01,1.477e+01,1.358e+01,1.770e+01,1.512e+01,1.451e+01,1.477e+01,1.516e+01,1.785e+01,1.548e+01,1.594e+01,1.838e+01,1.840e+01,1.833e+01,1.786e+01,1.767e+01,1.639e+01,1.714e+01,1.777e+01,1.956e+01,1.826e+01,1.695e+01,1.732e+01
3.916e-01,8.273e-01,9.696e-01,7.958e-01,5.640e-01,1.440e+00,1.058e+00,2.770e+00,2.604e+00,1.541e+00,3.200e+00,2.144e+00,3.406e+00,4.377e+00,2.865e+00,2.635e+00,5.287e+00,4.237e+00,4.485e+00,5.566e+00,5.171e+00,4.649e+00,4.492e+00,4.977e+00,6.404e+00,7.166e+00,6.450e+00,5.951e+00,6.161e+00,6.749e+00,7.950e+00,7.435e+00,8.790e+00,8.238e+00,8.336e+00,9.234e+00,9.154e+00,9.496e+00,1.136e+01,1.123e+01,9.714e+00,1.158e+01,9.906e+00,1.419e+01,1.184e+01,9.409e+00,1.086e+01,1.104e+01,1.104e+01,1.212e+01,1.403e+01,1.291e+01,1.410e+01,1.415e+01,1.574e+01,1.228e+01,1.519e+01,1.559e+01,1.639e+01,1.416e+01,1.497e+01,1.603e+01,1.672e+01,1.663e+01,1.730e+01,1.557e+01,1.400e+01,1.817e+01,1.797e+01,1.631e+01,1.682e+01,1.769e+01,1.945e+01,1.746e+01,1.968e+01,2.118e+01,1.945e+01,1.971e+01,2.133e+01,1.999e+01,1.926e+01,1.956e+01,2.058e+01,2.064e+01,2.052e+01,1.746e+01,1.957e+01
2.632e-01,4.680e-01,8.105e-01,9.290e-01,1.351e+00,2.208e+00,2.060e+00,2.971e+00,2.666e+00,1.902e+00,3.592e+00,3.570e+00,4.732e+00,5.080e+00,4.194e+00,4.401e+00,5.035e+00,3.769e+00,4.833e+00,6.047e+00,5.164e+00,4.974e+00,4.930e+00,5.993e+00,7.162e+00,6.864e+00,7.273e+00,7.193e+00,7.520e+00,6.770e+00,8.743e+00,9.017e+00,9.991e+00,9.410e+00,9.866e+00,8.610e+00,9.886e+00,1.174e+01,1.267e+01,1.267e+01,1.092e+01,1.216e+01,9.549e+00,1.504e+01,1.350e+01,1.064e+01,1.208e+01,1.217e+01,1.133e+01,1.278e+01,1.549e+01,1.280e+01,1.416e+01,1.308e+01,1.578e+01,1.381e+01,1.635e+01,1.530e+01,1.793e+01,1.432e+01,1.586e+01,1.640e+01,1.798e+01,1.672e+01,1.848e+01,1.596e+01,1.468e+01,1.751e+01,1.556e+01,1.613e+01,1.546e+01,1.900e+01,1.982e+01,1.790e+01,1.892e+01,1.973e+01,1.920e+01,2.027e+01,2.010e+01,2.148e+01,1.843e+01,1.942e+01,2.098e+01,2.118e+01,1.964e+01,1.807e+01,1.906e+01
5.065e-01,7.678e-01,7.839e-01,7.996e-01,8.675e-01,1.804e+00,1.544e+00,2.578e+00,2.504e+00,1.737e+00,3.154e+00,2.424e+00,4.173e+00,4.089e+00,3.968e+00,3.245e+00,4.970e+00,4.100e+00,4.747e+00,6.727e+00,5.457e+00,5.272e+00,5.294e+00,4.875e+00,7.938e+00,7.665e+00,6.916e+00,7.365e+00,6.838e+00,7.176e+00,7.809e+00,7.924e+00,8.832e+00,8.311e+00,8.605e+00,8.388e+00,8.597e+00,9.560e+00,1.186e+01,1.068e+01,1.061e+01,1.122e+01,9.012e+00,1.387e+01,1.188e+01,9.145e+00,1.136e+01,1.007e+01,1.045e+01,1.207e+01,1.357e+01,1.268e+01,1.301e+01,1.411e+01,1.474e+01,1.265e+01,1.493e+01,1.534e+01,1.614e+01,1.496e+01,1.608e+01,1.544e+01,1.705e+01,1.581e+01,1.816e+01,1.665e+01,1.496e+01,1.844e+01,1.819e+01,1.626e+01,1.759e+01,1.795e+01,1.960e+01,1.791e+01,1.999e+01,2.016e+01,1.909e+01,2.105e+01,2.236e+01,2.211e+01,1.996e+01,2.070e+01,2.090e+01,2.113e+01,2.180e+01,1.948e+01,1.902e+01
6.903e-01,1.084e+00,1.336e+00,1.260e+00,1.092e+00,1.849e+00,2.313e+00,3.536e+00,2.408e+00,2.334e+00,4.529e+00,3.390e+00,4.658e+00,4.884e+00,4.360e+00,3.857e+00,5.001e+00,4.235e+00,5.054e+00,6.570e+00,5.613e+00,4.729e+00,5.869e+00,5.482e+00,7.993e+00,7.582e+00,7.917e+00,7.086e+00,6.564e+00,7.430e+00,8.698e+00,8.907e+00,1.037e+01,9.149e+00,1.040e+01,8.380e+00,1.053e+01,1.185e+01,1.306e+01,1.346e+01,1.104e+01,1.243e+01,9.611e+00,1.580e+01,1.336e+01,1.024e+01,1.242e+01,1.185e+01,1.176e+01,1.199e+01,1.480e+01,1.332e+01,1.474e+01,1.377e+01,1.613e+01,1.581e+01,1.618e+01,1.631e+01,1.739e+01,1.577e+01,1.635e+01,1.780e+01,2.085e+01,1.866e+01,2.031e+01,1.570e+01,1.564e+01,1.843e+01,1.922e+01,1.798e+01,1.748e+01,1.974e+01,2.293e+01,1.976e+01,2.208e+01,2.089e+01,2.161e+01,2.128e+01,2.298e+01,2.230e+01,2.180e+01,2.121e+01,2.321e+01,2.252e+01,2.104e+01,2.170e+01,2.146e+01
2.855e-01,6.019e-01,1.055e+00,1.034e+00,1.197e+00,2.175e+00,2.283e+00,3.593e+00,3.493e+00,2.684e+00,4.331e+00,3.157e+00,4.675e+00,4.551e+00,3.935e+00,3.991e+00,5.263e+00,5.085e+00,5.074e+00,6.558e+00,5.193e+00,5.229e+00,5.362e+00,6.262e+00,8.502e+00,7.986e+00,8.293e+00,8.233e+00,7.036e+00,7.174e+00,8.799e+00,8.718e+00,1.006e+01,8.623e+00,1.001e+01,9.144e+00,9.941e+00,1.059e+01,1.254e+01,1.364e+01,1.176e+01,1.120e+01,1.051e+01,1.499e+01,1.276e+01,9.571e+00,1.188e+01,1.143e+01,1.083e+01,1.255e+01,1.397e+01,1.335e+01,1.384e+01,1.371e+01,1.551e+01,1.385e+01,1.549e+01,1.522e+01,1.712e+01,1.438e+01,1.486e+01,1.670e+01,1.909e+01,1.740e+01,1.936e+01,1.673e+01,1.486e+01,1.894e+01,1.840e+01,1.642e+01,1.628e+01,1.922e+01,1.901e+01,1.778e+01,2.076e+01,2.027e+01,1.982e+01,2.129e+01,2.110e+01,2.074e+01,2.034e+01,1.933e+01,2.095e+01,2.157e+01,2.199e+01,1.912e+01,1.967e+01
5.922e-01,8.814e-01,1.107e+00,1.273e+00,1.593e+00,1.871e+00,2.197e+00,2.910e+00,2.071e+00,1.892e+00,3.841e+00,4.104e+00,5.507e+00,5.403e+00,4.685e+00,4.661e+00,5.099e+00,4.651e+00,6.190e+00,6.841e+00,6.161e+00,5.853e+00,5.903e+00,6.569e+00,9.160e+00,9.164e+00,9.021e+00,8.647e+00,7.582e+00,7.618e+00,1.078e+01,9.928e+00,1.112e+01,9.260e+00,1.136e+01,1.002e+01,1.120e+01,1.302e+01,1.395e+01,1.466e+01,1.101e+01,1.244e+01,1.078e+01,1.586e+01,1.422e+01,1.017e+01,1.130e+01,1.128e+01,1.166e+01,1.134e+01,1.393e+01,1.357e+01,1.380e+01,1.448e+01,1.625e+01,1.445e+01,1.652e+01,1.597e+01,1.874e+01,1.541e+01,1.563e+01,1.741e+01,2.028e+01,1.699e+01,1.882e+01,1.686e+01,1.607e+01,1.837e+01,1.818e+01,1.766e+01,1.645e+01,1.709e+01,2.126e+01,1.921e+01,2.143e+01,2.057e+01,2.042e+01,2.213e+01,2.287e+01,2.176e+01,2.038e+01,2.118e+01,2.326e+01,2.245e+01,2.254e+01,2.069e+01,2.203e+01
1.017e-01,5.079e-01,1.312e+00,1.130e+00,1.100e+00,1.996e+00,2.040e+00,3.495e+00,3.387e+00,2.577e+00,3.942e+00,3.239e+00,4.273e+00,4.019e+00,4.202e+00,4.025e+00,4.875e+00,4.842e+00,5.647e+00,6.563e+00,4.852e+00,5.621e+00,5.366e+00,5.503e+00,7.891e+00,8.526e+00,7.862e+00,7.043e+00,7.570e+00,6.968e+00,9.429e+00,8.632e+00,9.880e+00,7.947e+00,9.051e+00,8.575e+00,9.913e+00,1.035e+01,1.137e+01,1.382e+01,1.133e+01,1.086e+01,8.963e+00,1.405e+01,1.228e+01,9.498e+00,1.165e+01,1.062e+01,1.106e+01,1.169e+01,1.419e+01,1.312e+01,1.387e+01,1.501e+01,1.467e+01,1.429e+01,1.579e+01,1.526e+01,1.558e+01,1.547e+01,1.522e+01,1.681e+01,1.798e+01,1.701e+01,1.862e+01,1.827e+01,1.445e+01,1.968e+01,1.957e+01,1.762e+01,1.698e+01,2.035e+01,2.279e+01,2.022e+01,2.195e+01,2.132e+01,2.121e+01,2.200e+01,2.395e+01,2.319e+01,2.160e+01,2.137e+01,2.401e+01,2.232e+01,2.315e+01,2.201e+01,2.254e+01
6.783e-01,1.145e+00,1.345e+00,1.338e+00,1.316e+00,1.943e+00,2.563e+00,3.867e+00,2.802e+00,2.465e+00,4.507e+00,3.898e+00,5.240e+00,5.571e+00,4.457e+00,4.525e+00,5.866e+00,5.203e+00,5.728e+00,6.998e+00,6.484e+00,5.634e+00,5.804e+00,5.837e+00,8.036e+00,8.790e+00,8.434e+00,7.905e+00,7.121e+00,7.180e+00,9.905e+00,9.716e+00,1.052e+01,8.810e+00,1.001e+01,9.597e+00,1.056e+01,1.229e+01,1.425e+01,1.387e+01,1.264e+01,1.285e+01,1.186e+01,1.682e+01,1.515e+01,1.239e+01,1.288e+01,1.303e+01,1.267e+01,1.348e+01,1.778e+01,1.493e+01,1.451e+01,1.545e+01,1.775e+01,1.597e+01,1.788e+01,1.677e+01,1.887e+01,1.643e+01,1.746e+01,1.916e+01,2.093e+01,1.933e+01,2.109e+01,1.786e+01,1.690e+01,2.078e+01,2.037e+01,1.707e+01,1.710e+01,1.918e+01,2.260e+01,2.016e+01,2.073e+01,2.148e+01,2.149e+01,2.097e+01,2.320e+01,2.196e+01,2.009e+01,2.150e+01,2.365e+01,2.258e+01,2.062e+01,2.061e+01,2.143e+01
4.699e-01,9.198e-01,1.034e+00,1.003e+00,9.548e-01,1.292e+00,1.666e+00,3.163e+00,2.353e+00,1.696e+00,3.390e+00,3.139e+00,3.252e+00,4.323e+00,3.107e+00,3.547e+00,5.009e+00,4.572e+00,5.717e+00,6.750e+00,5.068e+00,4.610e+00,5.583e+00,5.140e+00,8.452e+00,8.305e+00,6.735e+00,7.373e+00,6.524e+00,7.067e+00,8.132e+00,8.367e+00,9.090e+00,7.245e+00,8.393e+00,7.354e+00,8.766e+00,9.901e+00,1.179e+01,1.096e+01,1.009e+01,1.027e+01,8.381e+00,1.164e+01,1.162e+01,9.987e+00,1.022e+01,1.015e+01,9.780e+00,1.076e+01,1.389e+01,1.188e+01,1.362e+01,1.324e+01,1.407e+01,1.317e+01,1.456e+01,1.461e+01,1.516e+01,1.424e+01,1.452e+01,1.608e+01,1.730e+01,1.693e+01,1.739e+01,1.573e+01,1.489e+01,1.809e+01,1.813e+01,1.568e+01,1.479e+01,1.669e+01,1.900e+01,1.765e+01,1.858e+01,1.856e+01,1.969e+01,1.818e+01,1.990e+01,2.010e+01,1.915e+01,2.056e+01,2.136e+01,2.168e+01,2.045e+01,2.044e+01,2.035e+01
6.602e-01,1.129e+00,1.408e+00,1.386e+00,1.428e+00,2.506e+00,2.726e+00,3.527e+00,3.290e+00,2.589e+00,3.994e+00,2.925e+00,5.037e+00,5.031e+00,5.029e+00,4.349e+00,6.309e+00,4.650e+00,5.448e+00,7.492e+00,5.746e+00,6.330e+00,5.301e+00,6.823e+00,8.380e+00,8.486e+00,7.925e+00,7.883e+00,7.823e+00,7.930e+00,9.766e+00,9.131e+00,9.562e+00,9.087e+00,9.815e+00,9.428e+00,1.067e+01,1.037e+01,1.318e+01,1.394e+01,1.187e+01,1.263e+01,9.198e+00,1.560e+01,1.326e+01,1.012e+01,1.169e+01,1.133e+01,1.178e+01,1.131e+01,1.428e+01,1.227e+01,1.351e+01,1.391e+01,1.447e+01,1.309e+01,1.395e+01,1.464e+01,1.509e+01,1.494e+01,1.363e+01,1.602e+01,1.634e+01,1.608e+01,1.677e+01,1.490e+01,1.439e+01,1.632e+01,1.571e+01,1.540e+01,1.466e+01,1.614e+01,1.972e+01,1.742e+01,1.845e+01,1.839e+01,1.916e+01,1.764e+01,1.885e+01,1.951e+01,1.783e+01,1.883e+01,2.118e+01,1.908e+01,2.084e+01,1.966e+01,1.896e+01
1.787e-01,3.542e-01,6.955e-01,8.596e-01,1.284e+00,1.241e+00,1.355e+00,2.085e+00,1.946e+00,1.447e+00,3.070e+00,3.694e+00,4.369e+00,4.601e+00,3.582e+00,3.743e+00,4.793e+00,4.185e+00,5.917e+00,6.810e+00,5.361e+00,5.617e+00,5.878e+00,5.259e+00,8.551e+00,7.808e+00,8.229e+00,7.521e+00,7.921e+00,7.099e+00,8.689e+00,9.093e+00,1.104e+01,9.420e+00,9.821e+00,9.319e+00,1.002e+01,1.244e+01,1.369e+01,1.324e+01,1.097e+01,1.347e+01,1.060e+01,1.481e+01,1.382e+01,9.403e+00,1.162e+01,1.063e+01,1.226e+01,1.246e+01,1.462e+01,1.373e+01,1.406e+01,1.290e+01,1.580e+01,1.366e+01,1.655e+01,1.590e+01,1.899e+01,1.600e+01,1.742e+01,1.731e+01,2.064e+01,1.827e+01,2.015e+01,1.838e+01,1.623e+01,1.925e+01,1.857e+01,1.788e+01,1.769e+01,2.113e+01,2.130e+01,1.955e+01,2.153e+01,2.175e+01,2.164e+01,2.215e+01,2.432e+01,2.406e+01,2.159e+01,2.331e+01,2.441e+01,2.545e+01,2.494e+01,2.168e+01,2.278e+01
