7.706e-01,5.396e-01,3.255e-01,7.735e-01,6.870e-01,9.762e-01,8.553e-01,9.247e-01,3.952e-01,4.110e-01,3.925e-01,4.080e-01,4.639e-01,3.529e-01,8.584e-01,1.105e-01,9.810e-01,1.923e-01,2.382e-01,5.101e-01,3.899e-01,5.251e-01,6.866e-01,9.733e-01,8.931e-01,9.646e-01,4.391e-02,9.191e-02,5.855e-01,5.260e-01,6.863e-02,1.199e-02,5.250e-01,2.327e-01,8.282e-01,7.623e-01,8.326e-01,4.402e-01,3.998e-01,3.356e-03,1.174e-01,4.751e-01,9.320e-01,3.933e-02,1.142e-01,9.611e-01,1.293e-01,9.744e-01,2.711e-01,7.298e-01,5.333e-03,5.084e-01,1.199e-01,8.958e-01,2.960e-01,6.692e-01,2.548e-01,4.984e-01,1.978e-01,9.391e-02,1.068e-01,9.835e-01,5.218e-02,1.948e-01,9.723e-01,5.974e-01,5.571e-01,8.408e-01,4.032e-01
7.325e-01,1.451e+00,1.167e+00,9.039e-01,1.313e+00,1.347e+00,1.510e+00,1.764e+00,1.137e+00,8.790e-01,6.217e-01,1.210e+00,1.148e+00,1.043e+00,1.012e+00,1.020e+00,9.975e-01,2.697e-01,1.014e+00,1.294e+00,7.772e-01,1.237e+00,1.587e+00,1.616e+00,1.492e+00,1.108e+00,1.668e-01,2.269e-01,1.003e+00,6.951e-01,9.785e-01,7.015e-01,8.844e-01,6.637e-01,1.605e+00,1.267e+00,1.608e+00,8.269e-01,8.389e-01,3.554e-01,7.539e-01,4.923e-01,1.510e+00,2.015e-01,7.014e-01,1.152e+00,5.692e-01,1.520e+00,7.602e-01,1.067e+00,2.235e-01,6.482e-01,7.846e-01,1.768e+00,8.244e-01,7.811e-01,1.031e+00,5.655e-01,9.442e-01,4.363e-01,6.815e-01,1.918e+00,7.216e-01,6.960e-01,1.739e+00,1.505e+00,1.354e+00,9.498e-01,3.992e-01
5.878e-02,6.366e-01,6.726e-01,8.605e-01,8.765e-01,9.738e-01,5.151e-01,1.583e+00,1.182e+00,5.180e-01,8.537e-01,9.137e-01,8.009e-01,1.166e+00,9.505e-01,1.384e+00,9.746e-01,4.094e-01,9.349e-01,1.109e+00,9.185e-01,9.780e-01,1.388e+00,9.268e-01,8.002e-01,2.535e-01,9.805e-01,7.014e-01,4.787e-01,2.438e-01,1.084e+00,1.353e+00,9.848e-01,1.211e+00,8.937e-01,1.098e+00,1.420e+00,9.475e-01,4.362e-01,8.871e-01,1.182e+00,2.715e-01,8.460e-01,9.526e-01,1.063e+00,1.068e+00,6.243e-01,7.852e-01,6.663e-01,5.631e-01,2.826e-01,4.692e-01,8.735e-01,6.533e-01,1.236e+00,5.845e-01,5.387e-01,1.785e-01,1.262e+00,9.285e-01,6.441e-01,1.405e+00,8.785e-01,1.298e+00,1.477e+00,6.929e-01,1.565e+00,5.204e-01,8.043e-01
5.784e-01,9.285e-01,7.712e-01,1.241e+00,1.817e+00,2.209e+00,1.264e+00,2.091e+00,1.241e+00,6.639e-01,1.180e+00,1.051e+00,9.235e-01,1.333e+00,1.618e+00,1.802e+00,1.288e+00,1.162e+00,1.018e+00,1.302e+00,1.103e+00,1.345e+00,1.435e+00,2.092e+00,1.191e+00,1.080e+00,1.391e+00,5.718e-01,1.132e+00,1.038e+00,1.041e+00,9.722e-01,1.268e+00,1.061e+00,1.591e+00,1.871e+00,1.820e+00,1.573e+00,1.390e+00,1.409e+00,1.608e+00,1.442e+00,1.702e+00,9.256e-01,1.040e+00,1.611e+00,8.363e-01,1.972e+00,1.623e+00,1.635e+00,8.045e-01,1.412e+00,9.014e-01,1.215e+00,1.092e+00,1.759e+00,1.062e+00,1.297e+00,1.593e+00,1.289e+00,7.342e-01,2.051e+00,8.747e-01,1.546e+00,1.896e+00,1.685e+00,1.477e+00,9.831e-01,8.971e-01
6.790e-01,1.283e+00,1.033e+00,9.562e-01,2.075e+00,1.907e+00,2.374e+00,2.444e+00,1.409e+00,1.439e+00,9.032e-01,1.267e+00,1.847e+00,2.067e+00,1.399e+00,1.402e+00,1.540e+00,1.380e+00,1.691e+00,1.339e+00,1.075e+00,1.555e+00,2.193e+00,1.926e+00,1.436e+00,2.074e+00,1.085e+00,1.155e+00,1.869e+00,1.009e+00,1.339e+00,1.351e+00,1.271e+00,1.092e+00,2.513e+00,2.017e+00,2.459e+00,1.354e+00,1.341e+00,8.624e-01,1.143e+00,7.881e-01,2.035e+00,1.260e+00,1.708e+00,1.526e+00,9.051e-01,2.529e+00,1.116e+00,2.097e+00,9.762e-01,9.626e-01,9.632e-01,1.940e+00,1.066e+00,1.814e+00,1.484e+00,1.248e+00,1.632e+00,1.437e+00,1.405e+00,2.281e+00,1.637e+00,1.748e+00,2.098e+00,2.551e+00,1.603e+00,1.750e+00,5.946e-01
6.356e-01,9.128e-01,7.185e-01,1.048e+00,1.754e+00,2.289e+00,2.383e+00,2.469e+00,1.223e+00,1.261e+00,1.154e+00,1.004e+00,1.953e+00,1.724e+00,1.435e+00,2.100e+00,2.110e+00,2.076e+00,1.547e+00,1.583e+00,1.286e+00,1.889e+00,1.991e+00,2.678e+00,1.259e+00,1.836e+00,2.057e+00,8.914e-01,1.802e+00,1.498e+00,1.619e+00,1.830e+00,1.462e+00,1.449e+00,1.869e+00,2.014e+00,2.817e+00,1.771e+00,1.738e+00,1.581e+00,1.524e+00,1.402e+00,2.151e+00,1.776e+00,2.098e+00,1.616e+00,1.577e+00,2.770e+00,2.024e+00,2.297e+00,1.439e+00,1.920e+00,7.989e-01,2.330e+00,1.045e+00,2.643e+00,2.016e+00,1.621e+00,1.504e+00,1.350e+00,1.758e+00,1.922e+00,1.180e+00,1.657e+00,2.473e+00,2.164e+00,1.477e+00,1.385e+00,1.373e+00
7.696e-01,8.717e-01,6.378e-01,9.753e-01,1.839e+00,2.047e+00,3.087e+00,3.200e+00,1.915e+00,2.298e+00,1.128e+00,1.059e+00,2.932e+00,2.097e+00,2.068e+00,1.484e+00,3.080e+00,2.470e+00,2.319e+00,1.516e+00,1.620e+00,2.160e+00,2.453e+00,2.803e+00,2.236e+00,3.206e+00,1.849e+00,1.525e+00,2.356e+00,1.767e+00,1.714e+00,1.960e+00,2.265e+00,2.021e+00,2.757e+00,2.277e+00,2.786e+00,1.642e+00,2.280e+00,1.291e+00,1.075e+00,1.864e+00,3.084e+00,2.580e+00,2.148e+00,2.301e+00,1.904e+00,3.585e+00,1.481e+00,2.409e+00,1.391e+00,1.462e+00,6.885e-01,2.668e+00,1.412e+00,3.392e+00,2.019e+00,1.924e+00,1.564e+00,1.594e+00,1.820e+00,2.323e+00,1.667e+00,2.094e+00,3.177e+00,3.302e+00,2.213e+00,2.554e+00,1.342e+00
3.225e-03,8.512e-01,8.426e-01,6.279e-01,1.577e+00,1.257e+00,1.865e+00,3.499e+00,2.554e+00,1.959e+00,1.606e+00,1.406e+00,2.586e+00,2.811e+00,2.193e+00,2.682e+00,2.116e+00,2.231e+00,2.220e+00,1.714e+00,1.702e+00,2.216e+00,2.344e+00,1.550e+00,2.090e+00,2.112e+00,2.212e+00,2.472e+00,2.403e+00,1.021e+00,2.522e+00,2.578e+00,2.132e+00,2.442e+00,2.703e+00,2.193e+00,2.324e+00,1.540e+00,1.894e+00,2.078e+00,1.399e+00,1.457e+00,2.045e+00,2.323e+00,2.881e+00,1.644e+00,1.486e+00,2.852e+00,1.390e+00,2.158e+00,1.801e+00,7.906e-01,1.624e+00,2.421e+00,2.247e+00,2.162e+00,1.764e+00,9.431e-01,2.197e+00,1.921e+00,2.112e+00,2.707e+00,2.846e+00,2.793e+00,2.952e+00,3.430e+00,2.243e+00,2.270e+00,1.485e+00
6.515e-01,1.230e+00,1.068e+00,1.610e+00,2.620e+00,3.109e+00,2.891e+00,4.095e+00,3.431e+00,2.917e+00,2.607e+00,2.554e+00,3.435e+00,3.691e+00,3.523e+00,3.787e+00,3.869e+00,3.132e+00,3.032e+00,2.829e+00,2.288e+00,3.134e+00,3.506e+00,3.792e+00,2.943e+00,3.459e+00,4.110e+00,2.477e+00,2.665e+00,2.649e+00,2.709e+00,3.026e+00,3.399e+00,3.428e+00,3.810e+00,3.431e+00,3.849e+00,3.306e+00,3.369e+00,2.661e+00,3.100e+00,2.897e+00,3.613e+00,3.533e+00,3.300e+00,3.191e+00,2.424e+00,4.805e+00,3.500e+00,3.594e+00,2.975e+00,3.092e+00,2.359e+00,3.713e+00,2.313e+00,4.162e+00,3.195e+00,2.684e+00,2.872e+00,2.902e+00,2.687e+00,3.685e+00,3.118e+00,3.951e+00,4.658e+00,3.810e+00,3.275e+00,3.256e+00,2.886e+00
2.139e-01,5.947e-01,5.488e-01,7.442e-01,1.413e+00,1.662e+00,1.978e+00,2.569e+00,2.486e+00,2.882e+00,1.898e+00,2.529e+00,2.728e+00,3.629e+00,2.329e+00,2.667e+00,3.189e+00,2.635e+00,2.920e+00,2.487e+00,2.172e+00,2.344e+00,3.329e+00,2.439e+00,2.465e+00,3.383e+00,3.428e+00,2.897e+00,2.527e+00,2.294e+00,2.535e+00,2.496e+00,2.648e+00,2.676e+00,3.472e+00,2.595e+00,3.325e+00,2.847e+00,2.518e+00,1.810e+00,2.231e+00,2.382e+00,3.333e+00,3.683e+00,2.755e+00,2.603e+00,2.033e+00,3.426e+00,3.192e+00,3.207e+00,2.696e+00,3.098e+00,2.271e+00,3.480e+00,2.363e+00,3.537e+00,3.499e+00,2.419e+00,2.310e+00,2.574e+00,2.761e+00,2.757e+00,2.513e+00,3.061e+00,3.314e+00,2.749e+00,3.089e+00,2.874e+00,3.114e+00
3.045e-01,2.613e-01,1.995e-01,5.175e-01,1.090e+00,1.096e+00,2.019e+00,2.728e+00,2.579e+00,3.065e+00,2.208e+00,2.054e+00,3.642e+00,3.102e+00,2.652e+00,1.911e+00,4.133e+00,2.698e+00,2.906e+00,2.071e+00,2.105e+00,2.892e+00,2.844e+00,2.382e+00,3.376e+00,4.654e+00,3.564e+00,3.545e+00,2.632e+00,2.881e+00,2.145e+00,2.338e+00,3.310e+00,3.584e+00,4.192e+00,2.974e+00,2.864e+00,2.555e+00,3.260e+00,1.699e+00,2.057e+00,2.761e+00,3.452e+00,3.789e+00,2.611e+00,2.820e+00,1.829e+00,3.872e+00,2.311e+00,3.076e+00,3.221e+00,3.052e+00,2.193e+00,4.004e+00,2.227e+00,4.151e+00,2.965e+00,2.297e+00,1.852e+00,2.527e+00,2.647e+00,3.343e+00,2.987e+00,3.581e+00,4.034e+00,3.879e+00,3.054e+00,3.475e+00,2.693e+00
4.570e-01,8.048e-01,6.957e-01,1.059e+00,1.595e+00,1.978e+00,2.297e+00,3.437e+00,3.025e+00,2.719e+00,2.623e+00,2.510e+00,4.625e+00,3.344e+00,3.169e+00,3.537e+00,4.655e+00,3.204e+00,3.337e+00,2.650e+00,2.974e+00,3.671e+00,3.277e+00,4.033e+00,3.794e+00,4.598e+00,4.872e+00,3.678e+00,3.271e+00,3.474e+00,3.044e+00,3.787e+00,3.820e+00,4.937e+00,4.000e+00,3.719e+00,4.033e+00,2.962e+00,4.538e+00,3.109e+00,3.522e+00,3.046e+00,3.914e+00,3.675e+00,3.394e+00,3.724e+00,3.083e+00,5.299e+00,2.958e+00,3.636e+00,3.530e+00,3.505e+00,2.877e+00,5.210e+00,2.214e+00,5.056e+00,3.486e+00,2.525e+00,2.169e+00,2.914e+00,2.834e+00,4.693e+00,3.417e+00,3.792e+00,5.374e+00,4.658e+00,3.236e+00,3.566e+00,3.103e+00
1.036e-01,9.437e-01,8.949e-01,6.771e-01,1.186e+00,1.198e+00,1.428e+00,2.826e+00,2.165e+00,1.773e+00,1.593e+00,1.981e+00,2.894e+00,3.056e+00,2.779e+00,3.119e+00,3.411e+00,2.268e+00,3.116e+00,2.810e+00,3.227e+00,3.338e+00,3.225e+00,2.561e+00,2.804e+00,3.115e+00,2.979e+00,3.574e+00,3.227e+00,1.937e+00,3.595e+00,3.055e+00,2.982e+00,3.251e+00,3.092e+00,2.794e+00,3.888e+00,2.133e+00,2.609e+00,2.692e+00,2.655e+00,2.073e+00,3.065e+00,2.639e+00,3.032e+00,2.428e+00,2.376e+00,3.415e+00,2.733e+00,2.600e+00,2.436e+00,2.566e+00,2.316e+00,4.431e+00,2.376e+00,3.475e+00,3.558e+00,1.429e+00,2.654e+00,2.706e+00,2.614e+00,3.483e+00,2.363e+00,2.629e+00,3.524e+00,4.125e+00,2.998e+00,2.534e+00,2.223e+00
1.691e-01,6.487e-01,5.888e-01,5.569e-01,9.723e-01,1.314e+00,1.860e+00,2.668e+00,2.467e+00,2.603e+00,1.884e+00,2.135e+00,3.086e+00,3.733e+00,3.606e+00,3.027e+00,4.163e+00,3.400e+00,3.426e+00,2.990e+00,3.068e+00,4.247e+00,3.505e+00,2.828e+00,3.465e+00,4.104e+00,4.399e+00,3.632e+00,3.572e+00,3.242e+00,3.245e+00,2.816e+00,3.920e+00,3.680e+00,3.765e+00,2.777e+00,4.163e+00,3.258e+00,3.493e+00,3.107e+00,2.468e+00,3.371e+00,3.605e+00,3.712e+00,3.396e+00,2.375e+00,3.276e+00,4.032e+00,3.769e+00,3.096e+00,3.492e+00,3.844e+00,3.101e+00,5.097e+00,2.900e+00,4.331e+00,4.689e+00,2.571e+00,2.509e+00,3.389e+00,3.312e+00,2.938e+00,3.147e+00,3.499e+00,4.681e+00,4.541e+00,3.945e+00,3.136e+00,3.262e+00
5.930e-01,8.196e-01,6.314e-01,8.483e-01,1.528e+00,1.699e+00,2.208e+00,2.648e+00,2.554e+00,2.644e+00,1.758e+00,2.057e+00,3.285e+00,3.209e+00,4.369e+00,3.002e+00,4.384e+00,3.089e+00,3.715e+00,2.386e+00,2.681e+00,4.164e+00,3.571e+00,3.701e+00,4.254e+00,4.776e+00,4.533e+00,3.282e+00,3.295e+00,3.667e+00,2.627e+00,3.206e+00,4.151e+00,3.514e+00,4.711e+00,3.787e+00,4.003e+00,3.707e+00,4.020e+00,2.628e+00,2.634e+00,3.739e+00,4.435e+00,3.542e+00,2.942e+00,2.993e+00,3.359e+00,5.072e+00,3.573e+00,3.451e+00,3.559e+00,2.997e+00,3.304e+00,4.457e+00,2.760e+00,4.318e+00,3.692e+00,3.127e+00,2.251e+00,3.195e+00,2.390e+00,4.124e+00,3.239e+00,3.529e+00,4.761e+00,5.183e+00,4.220e+00,3.956e+00,2.438e+00
1.585e-02,3.339e-01,3.937e-01,7.405e-01,1.183e+00,1.306e+00,1.502e+00,3.108e+00,3.003e+00,2.987e+00,2.496e+00,2.704e+00,3.434e+00,4.357e+00,4.359e+00,4.193e+00,5.367e+00,4.336e+00,4.229e+00,3.275e+00,4.450e+00,4.901e+00,4.758e+00,4.029e+00,4.647e+00,4.918e+00,5.314e+00,5.296e+00,4.379e+00,4.004e+00,4.080e+00,4.888e+00,4.370e+00,4.923e+00,5.459e+00,5.100e+00,5.572e+00,4.263e+00,3.798e+00,3.618e+00,3.866e+00,3.629e+00,4.417e+00,4.983e+00,4.764e+00,4.141e+00,3.169e+00,4.893e+00,4.833e+00,4.611e+00,4.540e+00,3.737e+00,4.518e+00,5.838e+00,3.874e+00,5.407e+00,4.768e+00,2.855e+00,3.401e+00,4.216e+00,3.898e+00,5.082e+00,4.291e+00,4.540e+00,4.951e+00,5.836e+00,5.378e+00,5.164e+00,3.876e+00
3.318e-01,8.965e-01,8.043e-01,9.495e-01,1.862e+00,2.105e+00,2.785e+00,3.454e+00,2.771e+00,3.034e+00,1.980e+00,2.653e+00,4.225e+00,4.346e+00,3.930e+00,4.143e+00,6.154e+00,5.403e+00,5.054e+00,3.876e+00,5.372e+00,5.827e+00,5.497e+00,5.792e+00,5.071e+00,6.075e+00,5.522e+00,5.712e+00,5.259e+00,4.179e+00,5.424e+00,5.883e+00,4.582e+00,5.692e+00,5.691e+00,5.236e+00,7.304e+00,4.550e+00,4.335e+00,4.232e+00,4.529e+00,3.406e+00,5.106e+00,5.285e+00,5.255e+00,5.044e+00,4.949e+00,6.780e+00,5.613e+00,5.214e+00,4.243e+00,3.915e+00,4.781e+00,7.432e+00,3.087e+00,6.425e+00,6.124e+00,4.006e+00,3.744e+00,4.556e+00,4.704e+00,5.655e+00,4.323e+00,4.829e+00,5.335e+00,7.303e+00,5.025e+00,5.832e+00,3.618e+00
6.495e-01,1.287e+00,1.047e+00,9.323e-01,1.546e+00,1.658e+00,2.176e+00,3.220e+00,2.890e+00,3.017e+00,2.320e+00,3.228e+00,4.141e+00,4.477e+00,3.742e+00,3.278e+00,4.748e+00,4.029e+00,4.409e+00,3.687e+00,4.856e+00,5.775e+00,4.972e+00,4.932e+00,5.649e+00,5.979e+00,5.277e+00,5.523e+00,5.240e+00,4.972e+00,4.929e+00,4.550e+00,5.046e+00,5.921e+00,6.317e+00,5.134e+00,6.206e+00,4.393e+00,4.985e+00,3.876e+00,3.307e+00,4.425e+00,5.857e+00,4.149e+00,4.555e+00,5.198e+00,4.864e+00,6.696e+00,4.882e+00,5.075e+00,3.841e+00,4.374e+00,5.317e+00,7.609e+00,4.111e+00,5.886e+00,5.510e+00,3.681e+00,3.564e+00,3.903e+00,4.088e+00,6.417e+00,5.242e+00,4.635e+00,6.089e+00,7.205e+00,5.141e+00,5.465e+00,4.324e+00
5.559e-02,9.658e-01,9.403e-01,8.627e-01,1.512e+00,1.871e+00,1.680e+00,3.378e+00,2.966e+00,2.401e+00,2.471e+00,2.634e+00,3.194e+00,3.813e+00,4.049e+00,5.024e+00,4.550e+00,4.223e+00,4.285e+00,4.143e+00,5.004e+00,5.891e+00,5.153e+00,5.466e+00,5.235e+00,3.989e+00,5.630e+00,5.083e+00,4.171e+00,4.747e+00,5.421e+00,5.667e+00,4.323e+00,5.492e+00,5.247e+00,5.896e+00,5.964e+00,4.702e+00,4.199e+00,4.660e+00,4.540e+00,4.015e+00,4.932e+00,5.055e+00,5.852e+00,4.244e+00,4.109e+00,5.310e+00,6.122e+00,5.467e+00,4.512e+00,4.280e+00,5.497e+00,6.766e+00,3.909e+00,5.552e+00,5.213e+00,3.518e+00,3.835e+00,4.293e+00,4.651e+00,5.860e+00,4.466e+00,4.922e+00,5.938e+00,6.803e+00,5.628e+00,4.443e+00,3.956e+00
2.023e-02,2.511e-01,2.957e-01,6.190e-01,1.085e+00,1.290e+00,1.767e+00,3.296e+00,2.653e+00,2.547e+00,1.919e+00,1.814e+00,3.379e+00,3.492e+00,3.223e+00,3.193e+00,4.460e+00,4.257e+00,3.804e+00,3.995e+00,5.024e+00,4.740e+00,4.791e+00,4.845e+00,5.048e+00,5.148e+00,4.784e+00,5.558e+00,4.827e+00,3.741e+00,5.165e+00,4.880e+00,4.707e+00,5.834e+00,4.431e+00,4.879e+00,5.762e+00,3.552e+00,4.120e+00,4.381e+00,3.399e+00,3.684e+00,4.976e+00,5.483e+00,5.156e+00,5.188e+00,4.105e+00,6.123e+00,4.678e+00,5.146e+00,3.746e+00,3.723e+00,4.864e+00,6.346e+00,3.591e+00,5.946e+00,4.508e+00,3.886e+00,3.269e+00,4.683e+00,4.247e+00,5.200e+00,4.505e+00,4.397e+00,5.522e+00,6.510e+00,4.790e+00,4.854e+00,4.606e+00
3.110e-01,3.168e-01,2.914e-01,9.961e-01,1.655e+00,2.023e+00,1.869e+00,2.972e+00,1.930e+00,2.072e+00,2.152e+00,1.897e+00,3.263e+00,3.507e+00,3.771e+00,3.669e+00,5.186e+00,4.657e+00,4.375e+00,4.160e+00,5.788e+00,6.196e+00,5.366e+00,6.745e+00,6.456e+00,6.920e+00,6.157e+00,7.192e+00,5.584e+00,5.337e+00,6.401e+00,6.605e+00,5.381e+00,6.780e+00,6.354e+00,6.512e+00,7.285e+00,5.629e+00,4.725e+00,5.058e+00,4.729e+00,5.137e+00,7.062e+00,6.226e+00,6.383e+00,6.721e+00,5.281e+00,7.679e+00,6.118e+00,6.177e+00,5.289e+00,5.245e+00,5.863e+00,7.030e+00,4.950e+00,7.031e+00,5.499e+00,5.209e+00,4.871e+00,5.967e+00,5.121e+00,7.713e+00,5.064e+00,5.374e+00,6.057e+00,7.780e+00,6.201e+00,6.190e+00,5.324e+00
2.327e-01,4.196e-01,3.466e-01,4.836e-01,1.181e+00,1.306e+00,1.998e+00,2.710e+00,2.452e+00,2.885e+00,1.656e+00,1.959e+00,2.889e+00,3.492e+00,3.302e+00,2.426e+00,4.136e+00,4.267e+00,3.602e+00,3.447e+00,4.558e+00,5.538e+00,5.195e+00,5.832e+00,6.259e+00,6.534e+00,4.566e+00,6.074e+00,5.803e+00,5.101e+00,4.902e+00,4.517e+00,4.964e+00,6.515e+00,5.805e+00,4.987e+00,6.147e+00,4.460e+00,4.331e+00,3.856e+00,4.038e+00,4.678e+00,6.665e+00,5.488e+00,5.820e+00,5.867e+00,4.904e+00,6.867e+00,5.323e+00,5.260e+00,4.942e+00,5.142e+00,5.406e+00,6.272e+00,4.531e+00,6.842e+00,5.502e+00,4.485e+00,4.080e+00,5.850e+00,4.485e+00,6.045e+00,4.637e+00,4.457e+00,6.051e+00,6.997e+00,6.076e+00,6.533e+00,5.236e+00
4.534e-01,9.208e-01,7.647e-01,8.576e-01,1.833e+00,2.109e+00,2.651e+00,3.295e+00,2.040e+00,2.311e+00,2.159e+00,2.193e+00,3.912e+00,3.643e+00,3.427e+00,4.158e+00,5.605e+00,5.277e+00,4.736e+00,4.424e+00,6.204e+00,7.518e+00,7.160e+00,8.470e+00,7.298e+00,7.939e+00,6.290e+00,8.089e+00,6.895e+00,6.925e+00,7.611e+00,7.291e+00,5.668e+00,7.764e+00,8.044e+00,7.204e+00,8.986e+00,5.784e+00,5.063e+00,5.843e+00,5.649e+00,4.698e+00,7.288e+00,6.463e+00,8.362e+00,6.744e+00,6.387e+00,9.274e+00,7.904e+00,7.290e+00,6.696e+00,6.281e+00,6.633e+00,9.613e+00,5.356e+00,8.432e+00,7.580e+00,5.580e+00,5.504e+00,6.111e+00,6.722e+00,9.150e+00,5.951e+00,6.033e+00,6.852e+00,9.437e+00,6.897e+00,7.275e+00,5.819e+00
1.404e-01,1.173e-01,9.402e-02,4.484e-01,8.704e-01,1.282e+00,1.299e+00,2.126e+00,2.001e+00,2.026e+00,1.699e+00,1.662e+00,2.832e+00,3.247e+00,3.923e+00,3.177e+00,4.238e+00,4.100e+00,3.869e+00,3.845e+00,5.045e+00,6.178e+00,5.460e+00,7.426e+00,7.300e+00,6.959e+00,6.579e+00,7.796e+00,6.282e+00,6.586e+00,6.616e+00,5.733e+00,5.710e+00,7.383e+00,5.822e+00,6.265e+00,6.724e+00,5.463e+00,5.524e+00,5.996e+00,5.008e+00,5.587e+00,7.471e+00,6.107e+00,6.566e+00,6.572e+00,6.694e+00,8.409e+00,7.032e+00,6.057e+00,6.525e+00,6.189e+00,6.543e+00,7.731e+00,4.888e+00,7.443e+00,6.333e+00,5.487e+00,4.370e+00,6.920e+00,5.566e+00,7.805e+00,4.838e+00,5.016e+00,6.977e+00,7.821e+00,6.495e+00,6.438e+00,5.995e+00
7.412e-01,5.705e-01,4.519e-01,1.541e+00,1.628e+00,2.439e+00,1.851e+00,2.974e+00,2.413e+00,2.465e+00,2.631e+00,2.433e+00,3.184e+00,3.301e+00,4.264e+00,3.482e+00,5.908e+00,3.942e+00,4.111e+00,4.005e+00,5.498e+00,6.852e+00,5.882e+00,7.701e+00,7.427e+00,7.237e+00,6.597e+00,6.878e+00,5.812e+00,7.439e+00,6.575e+00,6.614e+00,5.775e+00,8.012e+00,7.622e+00,8.061e+00,8.674e+00,6.665e+00,5.051e+00,4.432e+00,6.517e+00,5.459e+00,8.605e+00,5.789e+00,6.973e+00,7.881e+00,5.408e+00,7.977e+00,7.748e+00,6.429e+00,5.784e+00,6.624e+00,6.019e+00,8.329e+00,4.788e+00,8.412e+00,6.499e+00,4.450e+00,5.616e+00,6.076e+00,5.841e+00,8.102e+00,4.474e+00,5.635e+00,7.593e+00,7.576e+00,7.235e+00,7.319e+00,5.806e+00
7.092e-01,1.254e+00,1.093e+00,1.756e+00,2.406e+00,3.141e+00,3.017e+00,4.896e+00,3.977e+00,3.708e+00,3.021e+00,3.465e+00,4.660e+00,5.129e+00,5.483e+00,5.319e+00,6.145e+00,4.936e+00,5.645e+00,5.583e+00,6.190e+00,6.626e+00,7.386e+00,8.061e+00,8.410e+00,8.706e+00,8.208e+00,7.329e+00,7.949e+00,8.036e+00,8.045e+00,8.448e+00,8.007e+00,8.235e+00,8.890e+00,8.296e+00,9.132e+00,7.703e+00,7.103e+00,6.890e+00,6.298e+00,6.902e+00,9.798e+00,8.483e+00,8.014e+00,8.739e+00,6.899e+00,1.023e+01,8.630e+00,8.160e+00,6.804e+00,6.742e+00,7.483e+00,9.767e+00,6.323e+00,9.308e+00,7.508e+00,7.038e+00,6.170e+00,7.055e+00,7.055e+00,9.797e+00,6.575e+00,6.950e+00,9.978e+00,9.220e+00,9.164e+00,7.987e+00,7.361e+00
3.687e-01,4.367e-01,4.122e-01,1.247e+00,1.814e+00,2.418e+00,2.080e+00,3.534e+00,2.770e+00,2.660e+00,2.589e+00,2.544e+00,3.835e+00,4.956e+00,4.781e+00,4.179e+00,6.029e+00,5.605e+00,4.682e+00,4.648e+00,5.936e+00,6.859e+00,6.100e+00,6.637e+00,6.234e+00,7.473e+00,8.027e+00,8.311e+00,7.906e+00,7.043e+00,6.665e+00,6.501e+00,7.522e+00,8.721e+00,7.753e+00,7.397e+00,8.977e+00,6.613e+00,5.901e+00,7.429e+00,6.102e+00,5.769e+00,6.935e+00,7.229e+00,7.601e+00,7.128e+00,6.678e+00,9.379e+00,7.531e+00,7.465e+00,6.470e+00,7.225e+00,6.983e+00,8.737e+00,4.680e+00,8.796e+00,7.728e+00,6.376e+00,5.654e+00,7.654e+00,6.433e+00,7.960e+00,6.615e+00,6.797e+00,8.161e+00,9.163e+00,6.402e+00,7.487e+00,6.298e+00
6.677e-02,7.763e-01,7.528e-01,6.729e-01,1.662e+00,1.585e+00,2.452e+00,3.417e+00,2.963e+00,3.253e+00,2.027e+00,2.730e+00,4.203e+00,4.765e+00,3.963e+00,3.654e+00,5.089e+00,4.901e+00,5.354e+00,4.600e+00,5.666e+00,6.289e+00,6.676e+00,6.954e+00,7.822e+00,8.140e+00,7.565e+00,8.500e+00,7.885e+00,7.971e+00,8.431e+00,8.088e+00,7.582e+00,8.696e+00,8.983e+00,8.495e+00,8.773e+00,6.780e+00,7.131e+00,7.569e+00,6.428e+00,6.025e+00,8.450e+00,8.810e+00,7.724e+00,7.449e+00,7.480e+00,9.769e+00,8.157e+00,7.776e+00,6.678e+00,6.692e+00,8.164e+00,9.813e+00,5.525e+00,8.909e+00,7.876e+00,7.446e+00,5.725e+00,8.361e+00,7.461e+00,8.932e+00,7.365e+00,7.069e+00,9.211e+00,9.611e+00,8.751e+00,7.113e+00,7.086e+00
3.502e-01,4.359e-01,3.959e-01,9.661e-01,1.251e+00,1.554e+00,1.511e+00,2.654e+00,2.054e+00,1.843e+00,1.744e+00,1.722e+00,3.040e+00,3.035e+00,3.240e+00,2.744e+00,4.570e+00,3.786e+00,3.457e+00,3.813e+00,5.565e+00,5.167e+00,5.443e+00,6.574e+00,5.701e+00,6.253e+00,5.274e+00,6.657e+00,7.975e+00,7.785e+00,6.718e+00,7.383e+00,7.599e+00,7.942e+00,7.648e+00,7.562e+00,8.831e+00,5.195e+00,5.596e+00,7.409e+00,6.288e+00,5.421e+00,7.428e+00,7.242e+00,7.312e+00,7.270e+00,5.733e+00,8.476e+00,7.212e+00,6.593e+00,6.434e+00,6.344e+00,6.540e+00,9.292e+00,4.405e+00,8.918e+00,6.308e+00,5.939e+00,5.124e+00,7.048e+00,6.023e+00,8.446e+00,6.557e+00,5.457e+00,7.552e+00,7.878e+00,8.140e+00,7.279e+00,6.827e+00
1.328e-01,6.472e-01,6.156e-01,8.144e-01,1.809e+00,2.165e+00,2.232e+00,3.481e+00,2.803e+00,2.440e+00,2.749e+00,2.400e+00,4.261e+00,4.608e+00,5.015e+00,5.421e+00,5.829e+00,5.966e+00,5.077e+00,4.231e+00,6.144e+00,7.957e+00,6.783e+00,8.320e+00,7.635e+00,7.823e+00,8.939e+00,8.506e+00,8.200e+00,1.020e+01,8.977e+00,9.635e+00,7.665e+00,1.010e+01,9.951e+00,9.061e+00,1.127e+01,8.163e+00,7.030e+00,9.276e+00,7.792e+00,7.268e+00,9.378e+00,7.541e+00,9.912e+00,7.173e+00,8.084e+00,1.117e+01,1.001e+01,8.623e+00,8.549e+00,7.205e+00,8.445e+00,1.184e+01,6.151e+00,1.039e+01,9.384e+00,7.161e+00,6.192e+00,8.026e+00,8.022e+00,1.053e+01,8.750e+00,8.021e+00,9.236e+00,1.097e+01,8.962e+00,8.478e+00,7.527e+00
2.361e-01,9.188e-01,8.121e-01,6.171e-01,1.584e+00,1.387e+00,2.028e+00,2.960e+00,3.071e+00,2.988e+00,2.238e+00,2.736e+00,4.155e+00,4.105e+00,4.495e+00,3.737e+00,5.598e+00,4.573e+00,5.308e+00,4.284e+00,6.041e+00,7.704e+00,6.941e+00,8.326e+00,8.806e+00,8.738e+00,7.938e+00,9.520e+00,8.104e+00,1.017e+01,9.185e+00,9.460e+00,8.697e+00,1.108e+01,1.086e+01,9.817e+00,9.727e+00,8.245e+00,7.657e+00,8.887e+00,8.384e+00,7.027e+00,1.011e+01,9.199e+00,1.019e+01,9.198e+00,7.997e+00,1.205e+01,9.986e+00,9.215e+00,8.980e+00,7.653e+00,9.489e+00,1.129e+01,6.184e+00,9.966e+00,9.356e+00,7.555e+00,7.405e+00,9.116e+00,8.535e+00,1.205e+01,8.502e+00,9.084e+00,1.071e+01,1.219e+01,9.776e+00,1.007e+01,6.798e+00
4.348e-01,3.958e-01,2.913e-01,7.602e-01,1.267e+00,1.661e+00,1.774e+00,2.702e+00,1.821e+00,1.764e+00,2.075e+00,1.639e+00,3.520e+00,3.329e+00,4.113e+00,3.637e+00,5.454e+00,4.559e+00,4.116e+00,3.664e+00,5.053e+00,6.575e+00,5.030e+00,6.646e+00,6.550e+00,7.051e+00,6.748e+00,7.623e+00,7.132e+00,7.936e+00,8.016e+00,8.351e+00,7.517e+00,9.368e+00,8.533e+00,8.424e+00,9.724e+00,7.399e+00,6.994e+00,8.867e+00,7.084e+00,6.844e+00,9.502e+00,7.217e+00,8.546e+00,7.859e+00,7.898e+00,1.071e+01,9.591e+00,8.233e+00,8.923e+00,6.734e+00,7.644e+00,1.113e+01,5.218e+00,8.871e+00,7.949e+00,7.345e+00,5.995e+00,7.827e+00,7.597e+00,1.010e+01,6.517e+00,7.445e+00,9.129e+00,9.891e+00,7.922e+00,8.781e+00,6.036e+00
2.758e-01,8.147e-01,7.363e-01,7.840e-01,1.659e+00,1.767e+00,2.957e+00,4.053e+00,2.964e+00,3.034e+00,1.993e+00,2.009e+00,4.330e+00,4.177e+00,3.840e+00,3.528e+00,5.597e+00,5.110e+00,4.502e+00,3.576e+00,4.869e+00,5.950e+00,5.165e+00,6.390e+00,6.987e+00,8.027e+00,6.670e+00,7.791e+00,8.022e+00,7.795e+00,8.809e+00,9.055e+00,8.300e+00,1.011e+01,9.265e+00,8.127e+00,9.017e+00,7.221e+00,7.129e+00,8.670e+00,6.751e+00,6.593e+00,9.460e+00,8.830e+00,9.437e+00,8.701e+00,8.639e+00,1.138e+01,8.408e+00,7.658e+00,8.309e+00,5.908e+00,6.907e+00,1.072e+01,5.862e+00,9.270e+00,9.129e+00,7.333e+00,7.694e+00,7.911e+00,9.527e+00,9.132e+00,7.890e+00,7.593e+00,1.074e+01,9.821e+00,8.819e+00,9.219e+00,6.914e+00
4.041e-01,2.889e-01,2.170e-01,7.283e-01,1.088e+00,1.254e+00,1.778e+00,3.213e+00,2.594e+00,2.708e+00,1.915e+00,1.922e+00,3.356e+00,3.939e+00,4.693e+00,3.197e+00,5.396e+00,4.842e+00,4.175e+00,3.762e+00,5.799e+00,6.365e+00,5.904e+00,6.684e+00,7.711e+00,8.118e+00,6.182e+00,7.771e+00,8.028e+00,7.694e+00,7.840e+00,7.764e+00,7.830e+00,1.012e+01,9.901e+00,9.450e+00,1.027e+01,8.154e+00,7.799e+00,7.742e+00,7.092e+00,7.358e+00,1.046e+01,7.810e+00,9.333e+00,1.054e+01,8.099e+00,1.175e+01,9.073e+00,8.899e+00,8.511e+00,6.833e+00,8.376e+00,1.058e+01,7.324e+00,1.037e+01,7.820e+00,6.898e+00,7.861e+00,8.622e+00,8.085e+00,9.662e+00,7.205e+00,7.109e+00,9.980e+00,1.105e+01,8.971e+00,1.077e+01,7.251e+00
6.326e-01,9.310e-01,7.248e-01,8.073e-01,1.540e+00,1.504e+00,2.399e+00,3.194e+00,2.764e+00,2.844e+00,2.217e+00,2.144e+00,3.618e+00,3.225e+00,3.966e+00,3.063e+00,4.576e+00,3.028e+00,3.925e+00,3.642e+00,3.933e+00,5.602e+00,5.770e+00,6.495e+00,7.578e+00,7.855e+00,5.990e+00,7.301e+00,6.960e+00,8.867e+00,7.213e+00,7.772e+00,7.552e+00,8.299e+00,1.033e+01,8.592e+00,7.801e+00,7.376e+00,6.374e+00,7.395e+00,6.264e+00,6.802e+00,9.307e+00,8.846e+00,8.871e+00,7.231e+00,7.075e+00,9.973e+00,7.728e+00,8.503e+00,8.653e+00,7.257e+00,7.099e+00,1.028e+01,5.826e+00,9.230e+00,7.216e+00,7.754e+00,6.006e+00,7.730e+00,7.796e+00,1.077e+01,7.805e+00,7.453e+00,9.580e+00,9.856e+00,9.360e+00,8.231e+00,7.125e+00
1.351e-01,9.361e-01,9.024e-01,8.414e-01,1.495e+00,1.464e+00,2.016e+00,3.275e+00,2.651e+00,2.637e+00,1.984e+00,2.550e+00,3.908e+00,3.731e+00,3.148e+00,3.336e+00,4.783e+00,3.676e+00,4.345e+00,3.359e+00,4.751e+00,5.487e+00,5.209e+00,6.214e+00,6.509e+00,6.612e+00,5.573e+00,7.410e+00,6.941e+00,7.452e+00,8.261e+00,8.582e+00,7.596e+00,1.006e+01,9.848e+00,9.931e+00,9.992e+00,8.153e+00,7.694e+00,8.844e+00,8.640e+00,7.484e+00,1.079e+01,9.065e+00,9.542e+00,1.013e+01,9.155e+00,1.149e+01,9.088e+00,8.475e+00,9.334e+00,7.651e+00,8.056e+00,1.038e+01,7.047e+00,1.008e+01,8.980e+00,7.088e+00,8.372e+00,9.016e+00,9.244e+00,1.105e+01,7.068e+00,7.765e+00,1.043e+01,1.051e+01,9.487e+00,9.335e+00,7.232e+00
6.638e-01,1.031e+00,8.537e-01,1.379e+00,2.075e+00,2.569e+00,2.067e+00,3.557e+00,2.222e+00,2.025e+00,2.419e+00,2.442e+00,3.312e+00,3.834e+00,3.735e+00,3.922e+00,5.162e+00,4.796e+00,3.921e+00,4.044e+00,5.979e+00,6.487e+00,6.189e+00,7.610e+00,6.935e+00,7.794e+00,6.186e+00,7.748e+00,8.898e+00,9.370e+00,8.293e+00,8.740e+00,8.578e+00,1.041e+01,1.118e+01,1.083e+01,1.247e+01,9.945e+00,8.196e+00,1.089e+01,8.837e+00,9.123e+00,1.210e+01,1.029e+01,1.121e+01,1.078e+01,9.766e+00,1.355e+01,1.152e+01,1.111e+01,1.067e+01,9.154e+00,8.886e+00,1.334e+01,8.135e+00,1.250e+01,1.092e+01,9.486e+00,8.986e+00,1.050e+01,1.046e+01,1.308e+01,9.548e+00,9.101e+00,1.130e+01,1.282e+01,1.114e+01,1.110e+01,9.255e+00
2.720e-02,5.803e-01,5.955e-01,7.007e-01,1.409e+00,1.584e+00,1.964e+00,3.374e+00,2.626e+00,2.480e+00,2.311e+00,2.258e+00,3.641e+00,3.811e+00,3.374e+00,4.276e+00,4.901e+00,4.701e+00,4.305e+00,4.289e+00,5.381e+00,5.870e+00,5.700e+00,7.003e+00,7.422e+00,7.168e+00,7.100e+00,7.747e+00,7.156e+00,7.785e+00,8.655e+00,9.493e+00,7.559e+00,1.012e+01,8.966e+00,9.939e+00,9.713e+00,8.653e+00,8.164e+00,9.780e+00,7.757e+00,7.547e+00,1.050e+01,9.378e+00,1.021e+01,9.926e+00,8.376e+00,1.162e+01,1.068e+01,1.008e+01,9.130e+00,6.260e+00,8.717e+00,1.149e+01,6.572e+00,9.546e+00,8.896e+00,8.071e+00,7.668e+00,8.749e+00,9.821e+00,1.102e+01,7.760e+00,7.933e+00,1.135e+01,9.848e+00,9.157e+00,9.202e+00,7.565e+00
1.133e-01,9.023e-01,8.736e-01,9.054e-01,1.798e+00,1.862e+00,2.069e+00,3.192e+00,2.300e+00,1.947e+00,1.628e+00,1.681e+00,2.912e+00,2.984e+00,3.342e+00,3.580e+00,3.953e+00,3.879e+00,4.336e+00,4.141e+00,4.933e+00,5.981e+00,5.812e+00,7.146e+00,7.460e+00,7.036e+00,7.034e+00,7.545e+00,7.194e+00,8.715e+00,9.717e+00,9.914e+00,8.888e+00,1.061e+01,1.069e+01,1.129e+01,1.035e+01,9.961e+00,9.215e+00,1.179e+01,8.741e+00,9.663e+00,1.189e+01,1.117e+01,1.101e+01,1.087e+01,1.128e+01,1.429e+01,1.179e+01,1.169e+01,9.897e+00,8.163e+00,1.019e+01,1.191e+01,7.982e+00,1.132e+01,9.918e+00,1.007e+01,9.991e+00,1.111e+01,1.095e+01,1.293e+01,9.430e+00,1.016e+01,1.257e+01,1.256e+01,1.076e+01,9.772e+00,8.013e+00
6.365e-01,5.349e-01,4.470e-01,1.465e+00,1.937e+00,2.461e+00,2.403e+00,4.369e+00,3.550e+00,3.416e+00,2.759e+00,2.556e+00,3.705e+00,4.986e+00,5.763e+00,3.948e+00,6.140e+00,5.041e+00,4.786e+00,4.586e+00,5.608e+00,6.841e+00,7.237e+00,7.343e+00,7.523e+00,8.156e+00,7.094e+00,8.284e+00,8.204e+00,7.933e+00,7.675e+00,6.800e+00,8.940e+00,9.396e+00,9.873e+00,9.419e+00,1.049e+01,8.547e+00,8.421e+00,1.056e+01,7.707e+00,9.936e+00,1.180e+01,1.013e+01,9.912e+00,1.061e+01,1.041e+01,1.389e+01,1.094e+01,1.045e+01,1.013e+01,9.490e+00,9.086e+00,1.120e+01,8.645e+00,1.287e+01,1.048e+01,8.236e+00,9.057e+00,1.001e+01,9.739e+00,1.193e+01,8.476e+00,9.700e+00,1.144e+01,1.179e+01,1.095e+01,1.120e+01,8.974e+00
6.023e-01,5.501e-01,4.420e-01,1.146e+00,1.048e+00,1.604e+00,1.512e+00,2.462e+00,2.160e+00,2.324e+00,1.940e+00,2.389e+00,3.149e+00,3.468e+00,4.147e+00,3.143e+00,5.094e+00,3.424e+00,3.983e+00,3.525e+00,4.226e+00,4.965e+00,4.954e+00,5.456e+00,6.597e+00,7.119e+00,6.861e+00,6.458e+00,7.158e+00,8.492e+00,6.956e+00,7.938e+00,8.636e+00,9.545e+00,9.972e+00,9.591e+00,1.055e+01,9.578e+00,8.823e+00,1.023e+01,8.497e+00,9.898e+00,1.246e+01,1.030e+01,9.257e+00,1.023e+01,1.028e+01,1.343e+01,1.101e+01,1.098e+01,9.581e+00,8.420e+00,9.807e+00,1.145e+01,8.122e+00,1.152e+01,1.021e+01,1.005e+01,8.632e+00,9.834e+00,9.526e+00,1.073e+01,8.614e+00,8.258e+00,1.209e+01,9.704e+00,1.075e+01,9.728e+00,9.382e+00
5.735e-02,2.081e-01,2.456e-01,7.492e-01,1.533e+00,1.789e+00,1.509e+00,2.053e+00,1.447e+00,1.309e+00,1.628e+00,1.461e+00,2.859e+00,3.451e+00,3.004e+00,3.087e+00,3.660e+00,4.257e+00,3.427e+00,3.325e+00,5.153e+00,5.825e+00,5.142e+00,6.217e+00,5.052e+00,5.873e+00,6.263e+00,6.470e+00,7.136e+00,6.817e+00,6.505e+00,7.151e+00,7.252e+00,9.602e+00,7.760e+00,8.793e+00,9.735e+00,6.991e+00,7.752e+00,8.921e+00,8.206e+00,8.179e+00,1.096e+01,9.093e+00,1.067e+01,9.920e+00,9.353e+00,1.191e+01,9.385e+00,1.034e+01,9.866e+00,8.668e+00,8.975e+00,1.003e+01,6.745e+00,1.190e+01,8.700e+00,8.056e+00,9.008e+00,1.049e+01,8.928e+00,1.035e+01,8.444e+00,7.941e+00,1.079e+01,1.068e+01,9.656e+00,8.813e+00,7.738e+00
7.444e-01,1.023e+00,8.077e-01,1.141e+00,1.786e+00,2.164e+00,2.904e+00,3.698e+00,3.073e+00,3.472e+00,2.454e+00,2.890e+00,4.246e+00,4.629e+00,4.808e+00,3.865e+00,6.110e+00,5.228e+00,5.373e+00,5.292e+00,6.450e+00,8.239e+00,8.595e+00,9.318e+00,9.559e+00,9.785e+00,8.020e+00,9.316e+00,8.842e+00,9.997e+00,9.166e+00,8.481e+00,9.224e+00,1.126e+01,1.152e+01,1.135e+01,1.255e+01,9.722e+00,8.528e+00,9.542e+00,8.213e+00,9.660e+00,1.391e+01,1.120e+01,1.289e+01,1.183e+01,1.094e+01,1.562e+01,1.296e+01,1.223e+01,1.184e+01,1.026e+01,1.091e+01,1.440e+01,9.109e+00,1.343e+01,1.228e+01,1.046e+01,9.682e+00,1.201e+01,1.152e+01,1.373e+01,1.001e+01,1.053e+01,1.352e+01,1.379e+01,1.279e+01,1.152e+01,1.035e+01
1.137e-01,6.188e-01,6.440e-01,1.109e+00,1.966e+00,2.352e+00,2.115e+00,3.543e+00,2.682e+00,2.227e+00,2.652e+00,2.095e+00,3.389e+00,4.004e+00,3.794e+00,4.348e+00,4.956e+00,4.836e+00,3.909e+00,4.142e+00,5.180e+00,6.175e+00,6.214e+00,6.741e+00,6.212e+00,6.783e+00,7.059e+00,7.127e+00,7.380e+00,8.404e+00,7.756e+00,8.370e+00,7.938e+00,9.901e+00,1.010e+01,1.023e+01,1.065e+01,9.588e+00,9.170e+00,1.137e+01,9.691e+00,9.682e+00,1.195e+01,1.228e+01,1.330e+01,1.156e+01,1.124e+01,1.425e+01,1.381e+01,1.351e+01,1.266e+01,1.117e+01,1.139e+01,1.401e+01,8.894e+00,1.479e+01,1.135e+01,1.084e+01,1.171e+01,1.301e+01,1.230e+01,1.327e+01,1.069e+01,1.183e+01,1.371e+01,1.313e+01,1.299e+01,1.072e+01,1.016e+01
7.109e-01,6.034e-01,4.481e-01,1.119e+00,1.602e+00,1.770e+00,1.876e+00,2.460e+00,2.211e+00,2.604e+00,2.232e+00,2.427e+00,2.913e+00,3.464e+00,3.010e+00,2.073e+00,4.706e+00,3.252e+00,3.146e+00,2.916e+00,3.765e+00,5.009e+00,5.172e+00,6.068e+00,6.403e+00,7.609e+00,5.523e+00,7.486e+00,6.819e+00,7.930e+00,6.631e+00,6.711e+00,7.113e+00,9.257e+00,1.051e+01,9.411e+00,9.724e+00,9.469e+00,8.078e+00,9.107e+00,8.653e+00,8.887e+00,1.160e+01,1.023e+01,1.071e+01,1.156e+01,1.027e+01,1.399e+01,1.122e+01,1.150e+01,1.146e+01,9.972e+00,1.003e+01,1.156e+01,7.961e+00,1.321e+01,1.062e+01,9.524e+00,1.038e+01,1.117e+01,1.175e+01,1.231e+01,9.682e+00,1.067e+01,1.186e+01,1.154e+01,1.076e+01,1.233e+01,8.769e+00
4.516e-01,4.694e-01,4.334e-01,1.283e+00,1.770e+00,2.100e+00,1.864e+00,3.141e+00,2.167e+00,1.807e+00,1.917e+00,1.447e+00,2.483e+00,3.266e+00,3.789e+00,3.097e+00,4.065e+00,3.616e+00,3.375e+00,3.657e+00,4.638e+00,5.428e+00,5.753e+00,6.476e+00,5.845e+00,5.916e+00,5.561e+00,6.674e+00,6.297e+00,7.084e+00,6.909e+00,7.338e+00,7.694e+00,9.432e+00,9.229e+00,9.473e+00,9.897e+00,8.702e+00,7.708e+00,1.082e+01,7.668e+00,9.381e+00,1.164e+01,1.012e+01,1.143e+01,1.154e+01,1.137e+01,1.478e+01,1.068e+01,1.220e+01,1.098e+01,8.911e+00,9.844e+00,1.162e+01,9.199e+00,1.277e+01,1.002e+01,9.547e+00,1.034e+01,1.179e+01,1.078e+01,1.246e+01,9.396e+00,1.088e+01,1.160e+01,1.137e+01,1.169e+01,1.055e+01,9.929e+00
2.335e-01,1.021e+00,9.014e-01,5.594e-01,1.632e+00,1.450e+00,2.497e+00,2.905e+00,2.340e+00,2.529e+00,1.375e+00,2.117e+00,3.511e+00,3.845e+00,3.138e+00,3.088e+00,3.866e+00,4.324e+00,4.157e+00,3.041e+00,4.667e+00,5.741e+00,5.687e+00,6.209e+00,6.044e+00,5.918e+00,5.777e+00,6.356e+00,7.133e+00,7.657e+00,6.045e+00,7.332e+00,6.711e+00,9.042e+00,8.432e+00,8.940e+00,9.876e+00,7.316e+00,7.016e+00,9.431e+00,7.690e+00,8.201e+00,1.115e+01,9.362e+00,1.067e+01,9.830e+00,9.533e+00,1.298e+01,9.800e+00,1.130e+01,9.822e+00,8.450e+00,9.937e+00,1.125e+01,7.449e+00,1.234e+01,1.113e+01,9.000e+00,9.467e+00,1.140e+01,1.083e+01,1.262e+01,9.911e+00,9.971e+00,1.125e+01,1.179e+01,1.229e+01,1.035e+01,8.206e+00
6.462e-01,7.058e-01,5.783e-01,1.197e+00,1.581e+00,1.810e+00,2.324e+00,3.829e+00,3.445e+00,3.560e+00,2.750e+00,2.817e+00,3.982e+00,4.976e+00,5.365e+00,3.377e+00,6.285e+00,4.696e+00,4.953e+00,5.238e+00,6.275e+00,7.323e+00,7.453e+00,7.260e+00,8.633e+00,8.903e+00,7.252e+00,8.759e+00,8.673e+00,9.554e+00,8.405e+00,8.324e+00,1.003e+01,1.171e+01,1.199e+01,1.187e+01,1.201e+01,1.007e+01,9.267e+00,1.061e+01,8.925e+00,1.027e+01,1.395e+01,1.252e+01,1.318e+01,1.325e+01,1.151e+01,1.623e+01,1.348e+01,1.399e+01,1.335e+01,1.180e+01,1.279e+01,1.624e+01,9.617e+00,1.535e+01,1.243e+01,1.126e+01,1.180e+01,1.393e+01,1.299e+01,1.436e+01,1.144e+01,1.169e+01,1.554e+01,1.472e+01,1.505e+01,1.263e+01,1.137e+01
3.074e-01,7.361e-01,6.201e-01,6.003e-01,1.257e+00,1.335e+00,1.716e+00,2.673e+00,2.141e+00,2.051e+00,1.600e+00,1.924e+00,3.224e+00,3.141e+00,3.117e+00,2.919e+00,4.386e+00,3.883e+00,3.805e+00,3.991e+00,5.458e+00,5.367e+00,5.502e+00,6.698e+00,7.023e+00,7.537e+00,5.695e+00,7.741e+00,7.980e+00,8.707e+00,8.746e+00,8.559e+00,8.162e+00,1.039e+01,1.037e+01,1.054e+01,1.097e+01,9.134e+00,9.011e+00,1.116e+01,9.166e+00,9.108e+00,1.184e+01,1.106e+01,1.202e+01,1.244e+01,1.187e+01,1.555e+01,1.376e+01,1.396e+01,1.245e+01,1.157e+01,1.245e+01,1.652e+01,8.825e+00,1.527e+01,1.268e+01,1.176e+01,1.221e+01,1.374e+01,1.285e+01,1.527e+01,1.143e+01,1.070e+01,1.408e+01,1.429e+01,1.333e+01,1.155e+01,1.188e+01
5.877e-01,1.022e+00,8.630e-01,1.277e+00,2.077e+00,2.458e+00,2.455e+00,3.478e+00,3.075e+00,3.115e+00,2.277e+00,2.936e+00,3.661e+00,4.525e+00,4.642e+00,3.932e+00,5.209e+00,4.815e+00,4.967e+00,4.735e+00,5.864e+00,6.935e+00,7.545e+00,8.509e+00,8.390e+00,8.450e+00,7.608e+00,8.092e+00,8.408e+00,9.398e+00,7.901e+00,8.216e+00,9.046e+00,1.071e+01,1.062e+01,1.072e+01,1.101e+01,9.435e+00,8.903e+00,1.056e+01,8.579e+00,1.023e+01,1.339e+01,1.180e+01,1.241e+01,1.244e+01,1.211e+01,1.597e+01,1.383e+01,1.465e+01,1.292e+01,1.287e+01,1.367e+01,1.616e+01,9.829e+00,1.631e+01,1.328e+01,1.238e+01,1.225e+01,1.477e+01,1.209e+01,1.688e+01,1.173e+01,1.150e+01,1.575e+01,1.444e+01,1.495e+01,1.241e+01,1.130e+01
7.297e-01,5.286e-01,3.443e-01,9.051e-01,9.640e-01,1.356e+00,1.450e+00,2.363e+00,2.071e+00,1.908e+00,1.632e+00,1.783e+00,2.921e+00,3.139e+00,4.693e+00,3.204e+00,4.888e+00,3.690e+00,3.816e+00,3.072e+00,4.513e+00,6.159e+00,5.397e+00,6.269e+00,6.780e+00,7.066e+00,6.363e+00,6.781e+00,7.671e+00,8.005e+00,6.791e+00,7.353e+00,8.148e+00,9.237e+00,9.997e+00,9.484e+00,1.007e+01,8.725e+00,8.603e+00,1.000e+01,8.205e+00,9.563e+00,1.210e+01,9.861e+00,1.068e+01,1.173e+01,1.242e+01,1.520e+01,1.252e+01,1.321e+01,1.280e+01,1.214e+01,1.317e+01,1.556e+01,8.884e+00,1.579e+01,1.214e+01,1.153e+01,1.174e+01,1.306e+01,1.207e+01,1.502e+01,1.095e+01,1.043e+01,1.433e+01,1.361e+01,1.359e+01,1.311e+01,9.980e+00
4.992e-01,8.099e-01,7.178e-01,1.253e+00,1.987e+00,2.214e+00,2.575e+00,3.597e+00,2.420e+00,2.608e+00,2.288e+00,2.220e+00,3.691e+00,3.879e+00,3.412e+00,3.136e+00,5.018e+00,3.942e+00,4.209e+00,4.272e+00,4.986e+00,5.726e+00,5.978e+00,6.479e+00,6.988e+00,7.670e+00,6.330e+00,7.185e+00,7.446e+00,8.091e+00,8.158e+00,8.309e+00,7.204e+00,9.075e+00,9.874e+00,9.969e+00,1.105e+01,9.491e+00,8.616e+00,9.638e+00,8.829e+00,9.500e+00,1.287e+01,1.159e+01,1.136e+01,1.236e+01,1.151e+01,1.535e+01,1.298e+01,1.383e+01,1.223e+01,1.221e+01,1.307e+01,1.612e+01,9.921e+00,1.591e+01,1.223e+01,1.208e+01,1.281e+01,1.492e+01,1.319e+01,1.467e+01,1.078e+01,1.246e+01,1.504e+01,1.423e+01,1.406e+01,1.155e+01,1.067e+01
4.584e-01,4.568e-01,4.205e-01,1.215e+00,1.341e+00,1.888e+00,1.842e+00,2.702e+00,2.347e+00,2.495e+00,2.062e+00,2.376e+00,2.979e+00,3.904e+00,3.835e+00,3.451e+00,4.894e+00,4.017e+00,4.230e+00,3.849e+00,5.154e+00,6.043e+00,6.397e+00,6.434e+00,5.967e+00,5.875e+00,6.712e+00,7.173e+00,6.922e+00,9.015e+00,7.707e+00,8.818e+00,9.056e+00,1.091e+01,1.073e+01,1.055e+01,1.082e+01,9.528e+00,8.114e+00,1.051e+01,8.387e+00,8.752e+00,1.182e+01,1.203e+01,1.233e+01,1.065e+01,1.109e+01,1.390e+01,1.256e+01,1.286e+01,1.188e+01,1.129e+01,1.212e+01,1.513e+01,9.517e+00,1.386e+01,1.221e+01,1.228e+01,1.154e+01,1.328e+01,1.235e+01,1.341e+01,1.144e+01,1.180e+01,1.459e+01,1.305e+01,1.400e+01,1.167e+01,1.090e+01
5.236e-01,1.134e+00,9.470e-01,9.509e-01,1.645e+00,1.803e+00,1.973e+00,3.317e+00,2.527e+00,2.070e+00,2.109e+00,1.953e+00,3.162e+00,2.817e+00,3.945e+00,3.661e+00,4.694e+00,3.294e+00,3.953e+00,4.628e+00,4.958e+00,6.113e+00,5.382e+00,7.388e+00,7.759e+00,6.928e+00,5.668e+00,7.609e+00,6.078e+00,6.605e+00,8.285e+00,7.314e+00,6.959e+00,8.653e+00,8.872e+00,1.010e+01,9.228e+00,9.002e+00,8.689e+00,9.867e+00,8.218e+00,9.174e+00,1.173e+01,1.048e+01,1.075e+01,1.159e+01,1.109e+01,1.483e+01,1.264e+01,1.345e+01,1.252e+01,1.193e+01,1.270e+01,1.660e+01,1.007e+01,1.519e+01,1.273e+01,1.271e+01,1.330e+01,1.514e+01,1.355e+01,1.651e+01,1.106e+01,1.266e+01,1.496e+01,1.496e+01,1.311e+01,1.160e+01,1.024e+01
4.566e-01,8.976e-01,7.739e-01,9.930e-01,1.611e+00,1.652e+00,1.677e+00,2.749e+00,2.158e+00,2.218e+00,1.828e+00,2.360e+00,2.651e+00,3.964e+00,3.620e+00,2.792e+00,4.290e+00,3.824e+00,4.074e+00,3.629e+00,4.645e+00,6.178e+00,6.159e+00,6.173e+00,6.947e+00,7.083e+00,6.218e+00,7.953e+00,7.635e+00,7.995e+00,7.528e+00,7.120e+00,7.360e+00,8.856e+00,9.936e+00,9.562e+00,1.001e+01,8.021e+00,7.264e+00,9.771e+00,8.564e+00,8.408e+00,1.106e+01,9.778e+00,1.059e+01,1.066e+01,1.093e+01,1.381e+01,1.192e+01,1.212e+01,1.167e+01,1.125e+01,1.263e+01,1.425e+01,9.343e+00,1.412e+01,1.325e+01,1.116e+01,1.205e+01,1.417e+01,1.361e+01,1.494e+01,1.077e+01,1.198e+01,1.349e+01,1.368e+01,1.325e+01,1.086e+01,1.026e+01
4.280e-01,5.037e-01,4.449e-01,1.078e+00,1.643e+00,1.977e+00,2.527e+00,4.147e+00,2.801e+00,2.712e+00,2.400e+00,1.723e+00,3.836e+00,3.821e+00,4.246e+00,3.489e+00,5.820e+00,5.054e+00,4.530e+00,4.587e+00,5.732e+00,7.355e+00,6.216e+00,6.824e+00,7.032e+00,7.316e+00,6.747e+00,8.225e+00,7.620e+00,7.515e+00,8.555e+00,7.993e+00,8.959e+00,1.066e+01,9.826e+00,9.924e+00,1.023e+01,8.346e+00,8.100e+00,1.013e+01,7.437e+00,9.256e+00,1.196e+01,1.160e+01,1.167e+01,1.181e+01,1.236e+01,1.526e+01,1.282e+01,1.387e+01,1.195e+01,1.190e+01,1.304e+01,1.654e+01,1.007e+01,1.615e+01,1.338e+01,1.285e+01,1.398e+01,1.513e+01,1.444e+01,1.526e+01,1.258e+01,1.300e+01,1.608e+01,1.550e+01,1.342e+01,1.295e+01,1.069e+01
5.484e-01,7.274e-01,6.210e-01,1.138e+00,1.665e+00,1.849e+00,2.476e+00,4.033e+00,2.740e+00,2.671e+00,2.559e+00,2.069e+00,4.143e+00,3.920e+00,4.063e+00,3.478e+00,5.492e+00,4.313e+00,4.178e+00,3.985e+00,5.038e+00,6.300e+00,5.944e+00,6.532e+00,7.411e+00,7.573e+00,6.463e+00,7.444e+00,7.642e+00,8.356e+00,7.902e+00,8.623e+00,7.865e+00,1.007e+01,9.559e+00,9.889e+00,1.104e+01,8.747e+00,8.855e+00,1.081e+01,8.645e+00,9.823e+00,1.331e+01,1.090e+01,1.189e+01,1.090e+01,1.010e+01,1.508e+01,1.235e+01,1.262e+01,1.225e+01,1.075e+01,1.164e+01,1.590e+01,9.961e+00,1.531e+01,1.396e+01,1.196e+01,1.284e+01,1.560e+01,1.376e+01,1.628e+01,1.184e+01,1.302e+01,1.650e+01,1.379e+01,1.453e+01,1.315e+01,1.073e+01
4.278e-02,8.387e-01,8.095e-01,6.232e-01,1.200e+00,1.375e+00,1.943e+00,3.462e+00,3.033e+00,2.571e+00,2.371e+00,2.138e+00,3.934e+00,3.555e+00,4.451e+00,4.333e+00,5.241e+00,4.429e+00,4.364e+00,3.811e+00,5.243e+00,7.053e+00,5.427e+00,6.414e+00,6.559e+00,6.261e+00,6.662e+00,7.148e+00,6.733e+00,8.284e+00,7.912e+00,7.849e+00,8.316e+00,1.008e+01,9.889e+00,9.676e+00,9.747e+00,8.546e+00,8.253e+00,9.966e+00,8.005e+00,9.924e+00,1.121e+01,1.079e+01,1.177e+01,1.023e+01,1.163e+01,1.438e+01,1.198e+01,1.233e+01,1.180e+01,1.095e+01,1.153e+01,1.516e+01,1.000e+01,1.521e+01,1.435e+01,1.258e+01,1.291e+01,1.548e+01,1.498e+01,1.512e+01,1.336e+01,1.307e+01,1.653e+01,1.623e+01,1.362e+01,1.176e+01,1.104e+01
5.073e-01,7.793e-01,6.368e-01,1.047e+00,2.113e+00,2.360e+00,2.425e+00,3.050e+00,2.525e+00,2.502e+00,1.891e+00,2.281e+00,3.616e+00,4.243e+00,4.625e+00,3.874e+00,5.706e+00,5.544e+00,4.766e+00,4.152e+00,5.795e+00,6.568e+00,6.538e+00,7.248e+00,6.892e+00,8.319e+00,7.195e+00,7.307e+00,7.767e+00,7.638e+00,7.324e+00,7.375e+00,7.247e+00,9.272e+00,1.002e+01,9.673e+00,1.157e+01,9.457e+00,8.910e+00,9.961e+00,9.423e+00,8.608e+00,1.123e+01,9.991e+00,1.054e+01,1.146e+01,1.075e+01,1.512e+01,1.213e+01,1.330e+01,1.065e+01,1.110e+01,1.192e+01,1.528e+01,9.633e+00,1.587e+01,1.341e+01,1.367e+01,1.401e+01,1.590e+01,1.449e+01,1.566e+01,1.248e+01,1.422e+01,1.568e+01,1.666e+01,1.298e+01,1.316e+01,1.034e+01
3.557e-01,5.166e-01,4.555e-01,8.390e-01,1.451e+00,1.669e+00,2.367e+00,3.463e+00,2.790e+00,3.048e+00,2.641e+00,2.487e+00,4.011e+00,4.655e+00,4.576e+00,4.125e+00,5.776e+00,4.920e+00,4.723e+00,4.150e+00,4.892e+00,6.583e+00,6.132e+00,6.380e+00,7.371e+00,8.051e+00,8.017e+00,8.164e+00,7.639e+00,8.251e+00,7.526e+00,8.507e+00,8.577e+00,9.653e+00,1.010e+01,1.043e+01,1.061e+01,9.112e+00,7.709e+00,9.847e+00,7.661e+00,9.304e+00,1.206e+01,1.102e+01,1.241e+01,1.178e+01,1.104e+01,1.533e+01,1.348e+01,1.388e+01,1.401e+01,1.147e+01,1.328e+01,1.666e+01,1.069e+01,1.495e+01,1.442e+01,1.279e+01,1.466e+01,1.698e+01,1.736e+01,1.770e+01,1.414e+01,1.507e+01,1.729e+01,1.544e+01,1.579e+01,1.299e+01,1.215e+01
2.407e-01,3.405e-01,3.216e-01,7.068e-01,8.652e-01,1.106e+00,1.341e+00,2.312e+00,2.290e+00,2.124e+00,1.791e+00,1.668e+00,2.581e+00,2.996e+00,3.912e+00,2.894e+00,4.226e+00,3.054e+00,3.499e+00,3.257e+00,3.945e+00,5.338e+00,5.381e+00,6.043e+00,6.875e+00,6.855e+00,6.155e+00,6.946e+00,6.592e+00,8.282e+00,7.367e+00,7.633e+00,7.754e+00,8.854e+00,9.138e+00,9.077e+00,9.960e+00,8.761e+00,7.519e+00,9.935e+00,8.188e+00,1.010e+01,1.267e+01,1.036e+01,1.168e+01,1.083e+01,1.112e+01,1.495e+01,1.331e+01,1.249e+01,1.326e+01,1.142e+01,1.220e+01,1.483e+01,9.739e+00,1.452e+01,1.330e+01,1.338e+01,1.323e+01,1.653e+01,1.648e+01,1.667e+01,1.234e+01,1.294e+01,1.687e+01,1.296e+01,1.567e+01,1.380e+01,1.276e+01
1.876e-01,8.348e-01,8.129e-01,1.019e+00,1.325e+00,1.770e+00,1.735e+00,2.934e+00,2.744e+00,2.378e+00,2.351e+00,2.677e+00,3.984e+00,4.035e+00,4.208e+00,4.276e+00,5.909e+00,4.905e+00,4.722e+00,4.323e+00,5.761e+00,6.826e+00,5.886e+00,7.027e+00,6.832e+00,7.249e+00,8.021e+00,7.550e+00,7.769e+00,9.390e+00,8.114e+00,9.409e+00,9.270e+00,1.140e+01,1.074e+01,1.033e+01,1.161e+01,1.010e+01,9.018e+00,1.200e+01,9.565e+00,1.052e+01,1.241e+01,1.082e+01,1.214e+01,1.284e+01,1.302e+01,1.598e+01,1.394e+01,1.385e+01,1.299e+01,1.250e+01,1.379e+01,1.771e+01,9.867e+00,1.669e+01,1.481e+01,1.471e+01,1.468e+01,1.664e+01,1.584e+01,1.867e+01,1.408e+01,1.466e+01,1.722e+01,1.570e+01,1.541e+01,1.416e+01,1.206e+01
6.696e-01,6.999e-01,5.566e-01,1.301e+00,1.788e+00,2.393e+00,2.356e+00,3.317e+00,2.056e+00,2.051e+00,1.989e+00,1.568e+00,2.798e+00,3.251e+00,3.684e+00,2.967e+00,4.537e+00,4.364e+00,3.431e+00,4.040e+00,4.875e+00,5.709e+00,5.219e+00,6.304e+00,6.547e+00,6.499e+00,6.204e+00,6.247e+00,7.033e+00,8.202e+00,6.771e+00,7.552e+00,8.191e+00,1.031e+01,9.716e+00,1.058e+01,1.084e+01,9.358e+00,8.564e+00,1.090e+01,9.038e+00,1.017e+01,1.286e+01,1.128e+01,1.216e+01,1.161e+01,1.022e+01,1.428e+01,1.206e+01,1.335e+01,1.113e+01,1.133e+01,1.145e+01,1.402e+01,9.950e+00,1.486e+01,1.270e+01,1.414e+01,1.406e+01,1.655e+01,1.586e+01,1.607e+01,1.308e+01,1.475e+01,1.832e+01,1.491e+01,1.590e+01,1.303e+01,1.312e+01
3.447e-01,5.864e-01,5.562e-01,1.152e+00,1.787e+00,2.175e+00,2.358e+00,3.763e+00,2.674e+00,2.369e+00,2.317e+00,2.053e+00,3.814e+00,4.161e+00,4.645e+00,4.800e+00,6.119e+00,5.497e+00,4.999e+00,4.861e+00,6.793e+00,7.704e+00,6.833e+00,8.067e+00,7.784e+00,7.935e+00,7.587e+00,8.766e+00,7.819e+00,7.883e+00,9.354e+00,9.914e+00,7.847e+00,1.097e+01,9.895e+00,1.082e+01,1.224e+01,9.761e+00,8.109e+00,1.029e+01,8.935e+00,9.348e+00,1.293e+01,1.088e+01,1.329e+01,1.219e+01,1.163e+01,1.605e+01,1.369e+01,1.395e+01,1.235e+01,1.164e+01,1.250e+01,1.754e+01,9.798e+00,1.563e+01,1.361e+01,1.333e+01,1.436e+01,1.694e+01,1.558e+01,1.762e+01,1.326e+01,1.393e+01,1.738e+01,1.665e+01,1.526e+01,1.521e+01,1.331e+01
6.071e-01,1.200e+00,1.060e+00,1.482e+00,1.795e+00,2.213e+00,2.004e+00,3.952e+00,2.713e+00,2.347e+00,2.257e+00,2.508e+00,3.082e+00,3.781e+00,3.513e+00,3.457e+00,4.842e+00,4.496e+00,4.114e+00,4.257e+00,6.170e+00,6.644e+00,5.839e+00,6.838e+00,7.068e+00,6.141e+00,5.398e+00,7.071e+00,7.503e+00,8.228e+00,8.028e+00,8.741e+00,7.834e+00,1.025e+01,1.001e+01,9.842e+00,1.102e+01,9.572e+00,8.081e+00,1.111e+01,8.868e+00,1.043e+01,1.316e+01,1.153e+01,1.236e+01,1.272e+01,1.207e+01,1.485e+01,1.256e+01,1.313e+01,1.126e+01,1.124e+01,1.318e+01,1.487e+01,1.086e+01,1.603e+01,1.357e+01,1.285e+01,1.434e+01,1.480e+01,1.494e+01,1.612e+01,1.411e+01,1.483e+01,1.730e+01,1.675e+01,1.735e+01,1.549e+01,1.296e+01
5.686e-01,9.245e-01,7.333e-01,9.216e-01,1.840e+00,1.968e+00,1.971e+00,2.537e+00,1.806e+00,1.994e+00,1.425e+00,2.087e+00,2.476e+00,3.463e+00,3.552e+00,3.112e+00,3.573e+00,3.261e+00,3.588e+00,3.164e+00,3.976e+00,4.340e+00,5.137e+00,5.565e+00,5.160e+00,5.788e+00,5.081e+00,5.996e+00,7.003e+00,7.255e+00,6.254e+00,6.572e+00,6.942e+00,7.192e+00,9.249e+00,9.245e+00,9.309e+00,8.400e+00,7.671e+00,9.503e+00,7.469e+00,8.584e+00,1.088e+01,9.677e+00,1.002e+01,1.029e+01,1.025e+01,1.372e+01,1.240e+01,1.332e+01,1.157e+01,1.138e+01,1.173e+01,1.447e+01,9.517e+00,1.461e+01,1.224e+01,1.299e+01,1.343e+01,1.622e+01,1.342e+01,1.715e+01,1.235e+01,1.299e+01,1.555e+01,1.578e+01,1.512e+01,1.363e+01,1.236e+01
6.573e-01,6.579e-01,4.674e-01,9.553e-01,1.413e+00,1.897e+00,1.838e+00,2.515e+00,2.056e+00,2.385e+00,1.719e+00,2.281e+00,3.209e+00,3.380e+00,3.846e+00,2.751e+00,5.403e+00,4.224e+00,4.417e+00,4.211e+00,5.773e+00,6.084e+00,6.108e+00,7.521e+00,7.220e+00,8.224e+00,5.915e+00,7.800e+00,7.457e+00,8.073e+00,7.572e+00,7.132e+00,8.078e+00,9.213e+00,9.391e+00,8.720e+00,9.518e+00,8.746e+00,8.697e+00,1.048e+01,7.855e+00,9.624e+00,1.159e+01,1.002e+01,1.027e+01,1.215e+01,1.180e+01,1.475e+01,1.279e+01,1.279e+01,1.148e+01,1.140e+01,1.170e+01,1.513e+01,9.343e+00,1.535e+01,1.326e+01,1.267e+01,1.247e+01,1.522e+01,1.423e+01,1.704e+01,1.145e+01,1.380e+01,1.638e+01,1.701e+01,1.522e+01,1.667e+01,1.313e+01
9.466e-02,1.043e-01,8.880e-02,2.946e-01,6.514e-01,7.943e-01,1.114e+00,1.712e+00,2.101e+00,2.081e+00,1.580e+00,1.611e+00,3.016e+00,2.757e+00,3.842e+00,2.715e+00,4.277e+00,3.567e+00,3.764e+00,3.103e+00,4.370e+00,5.725e+00,5.231e+00,6.566e+00,7.018e+00,7.269e+00,6.933e+00,7.175e+00,6.813e+00,8.661e+00,6.900e+00,7.184e+00,8.398e+00,9.987e+00,9.292e+00,9.123e+00,9.059e+00,8.678e+00,8.704e+00,9.898e+00,7.781e+00,9.177e+00,1.132e+01,9.923e+00,1.033e+01,1.099e+01,1.107e+01,1.540e+01,1.233e+01,1.205e+01,1.217e+01,1.088e+01,1.186e+01,1.449e+01,9.743e+00,1.434e+01,1.234e+01,1.269e+01,1.338e+01,1.529e+01,1.377e+01,1.547e+01,1.312e+01,1.403e+01,1.649e+01,1.574e+01,1.585e+01,1.582e+01,1.270e+01
4.631e-01,6.226e-01,5.455e-01,1.045e+00,1.146e+00,1.482e+00,1.610e+00,3.136e+00,2.928e+00,2.526e+00,2.261e+00,2.356e+00,3.553e+00,4.141e+00,5.299e+00,4.015e+00,5.930e+00,4.323e+00,4.820e+00,4.726e+00,5.745e+00,7.215e+00,6.235e+00,7.027e+00,8.288e+00,8.098e+00,7.642e+00,8.663e+00,7.398e+00,7.890e+00,8.525e+00,8.536e+00,8.284e+00,1.030e+01,9.552e+00,9.462e+00,1.071e+01,1.005e+01,8.760e+00,1.051e+01,8.447e+00,1.014e+01,1.307e+01,1.118e+01,1.155e+01,1.196e+01,1.241e+01,1.621e+01,1.354e+01,1.335e+01,1.212e+01,1.141e+01,1.327e+01,1.697e+01,1.086e+01,1.514e+01,1.444e+01,1.423e+01,1.430e+01,1.725e+01,1.544e+01,1.754e+01,1.291e+01,1.548e+01,1.834e+01,1.755e+01,1.697e+01,1.647e+01,1.484e+01
