9.938e-01,3.950e-01,9.525e-01,4.336e-01,3.331e-01,9.605e-01,8.471e-01,7.363e-01,6.098e-01,7.146e-01,3.948e-01,9.888e-01,9.141e-01,3.651e-01,1.662e-01,8.374e-01,2.592e-01,9.741e-01,3.468e-01,4.733e-01,5.211e-01,1.469e-01,9.256e-02,1.519e-01,8.352e-01,8.489e-02,2.189e-01,8.017e-01,9.579e-01,5.019e-01,2.336e-01,7.419e-02,5.479e-01,9.603e-01,2.929e-01,5.552e-02,3.655e-01,4.830e-01,9.761e-01,7.477e-01,3.349e-01,8.348e-01,1.716e-01,1.993e-02,3.814e-01,9.002e-01,5.383e-01,4.176e-01,5.446e-01,4.862e-01,5.906e-01,8.838e-01,5.129e-01,7.527e-01,9.374e-01,1.781e-01,1.141e-01,2.796e-01,6.998e-01,7.754e-02,9.707e-01,8.427e-01,6.740e-01,1.412e-01,7.526e-01,1.384e-01,4.289e-01
1.785e-01,9.560e-01,3.311e-01,6.000e-01,7.425e-02,5.028e-01,1.124e+00,8.712e-01,3.538e-01,4.968e-01,3.604e-01,9.671e-01,1.808e-01,3.861e-01,6.181e-02,5.602e-01,3.231e-01,5.855e-01,2.719e-01,3.947e-01,2.545e-01,5.130e-01,6.092e-01,6.067e-01,1.624e-01,1.267e-01,5.105e-01,1.125e+00,4.722e-01,1.982e-01,1.018e+00,5.420e-01,1.658e-01,1.019e+00,2.970e-01,1.266e-02,8.287e-01,3.631e-01,2.635e-01,7.121e-01,4.800e-01,3.679e-01,4.365e-01,8.096e-01,2.371e-01,9.711e-01,4.956e-01,3.069e-01,7.186e-01,6.287e-01,9.289e-01,4.605e-01,2.655e-01,1.092e+00,1.120e+00,2.371e-01,7.553e-01,7.351e-01,9.291e-01,1.842e-01,1.133e+00,6.158e-01,9.089e-01,2.061e-01,3.707e-01,7.440e-01,8.681e-01
9.209e-01,7.032e-01,1.771e+00,7.023e-01,5.951e-01,1.701e+00,1.675e+00,1.697e+00,6.998e-01,1.501e+00,9.063e-01,1.897e+00,1.289e+00,7.318e-01,9.168e-01,1.474e+00,4.046e-01,1.143e+00,1.365e+00,1.135e+00,5.596e-01,9.840e-01,4.563e-01,1.244e+00,9.411e-01,3.958e-01,1.112e+00,1.238e+00,1.349e+00,5.789e-01,7.319e-01,1.195e+00,1.228e+00,1.559e+00,9.840e-01,2.274e-01,1.301e+00,6.256e-01,1.279e+00,9.408e-01,1.148e+00,1.254e+00,3.369e-01,6.574e-01,6.966e-01,1.765e+00,1.338e+00,5.612e-01,1.515e+00,1.601e+00,1.094e+00,1.614e+00,1.462e+00,1.598e+00,1.660e+00,9.842e-01,1.050e+00,1.350e+00,1.307e+00,1.107e+00,1.808e+00,1.758e+00,1.633e+00,6.231e-01,1.765e+00,4.444e-01,8.837e-01
6.237e-01,3.899e-01,1.083e+00,1.132e+00,4.699e-01,1.873e+00,1.099e+00,1.227e+00,1.431e+00,1.531e+00,1.325e+00,1.231e+00,9.586e-01,8.849e-01,1.008e+00,1.147e+00,9.044e-01,1.589e+00,1.445e+00,7.964e-01,7.165e-01,6.548e-01,5.266e-01,1.215e+00,1.284e+00,1.081e+00,1.271e+00,1.218e+00,9.784e-01,8.929e-01,7.962e-01,1.055e+00,1.673e+00,1.013e+00,6.752e-01,6.272e-01,1.363e+00,1.288e+00,1.201e+00,7.211e-01,1.103e+00,1.650e+00,7.475e-01,5.068e-01,5.684e-01,1.097e+00,1.007e+00,1.164e+00,1.583e+00,1.189e+00,1.421e+00,1.461e+00,1.543e+00,1.096e+00,1.582e+00,7.170e-01,8.902e-01,8.922e-01,1.235e+00,1.031e+00,1.527e+00,1.641e+00,1.302e+00,1.080e+00,1.901e+00,1.110e+00,1.101e+00
1.853e-01,7.494e-01,5.409e-01,7.854e-01,4.742e-01,1.131e+00,1.236e+00,1.625e+00,7.613e-01,9.687e-01,1.563e+00,1.511e+00,4.581e-01,8.361e-01,1.299e+00,1.061e+00,1.331e+00,1.535e+00,1.022e+00,7.108e-01,7.686e-01,1.085e+00,9.759e-01,9.450e-01,1.053e+00,8.485e-01,1.296e+00,1.590e+00,1.322e+00,8.434e-01,1.796e+00,1.419e+00,1.015e+00,1.561e+00,1.415e+00,3.218e-01,2.030e+00,9.226e-01,6.272e-01,9.342e-01,1.568e+00,1.494e+00,1.033e+00,1.359e+00,4.806e-01,1.033e+00,1.658e+00,7.779e-01,1.096e+00,1.062e+00,1.276e+00,8.095e-01,1.226e+00,2.028e+00,1.282e+00,6.821e-01,9.374e-01,1.110e+00,1.619e+00,8.733e-01,1.647e+00,1.564e+00,1.115e+00,9.189e-01,1.483e+00,1.747e+00,1.372e+00
3.348e-01,2.307e-01,8.889e-01,3.012e-01,5.108e-01,1.480e+00,1.657e+00,2.020e+00,1.206e+00,1.504e+00,1.223e+00,2.227e+00,1.377e+00,8.465e-01,1.650e+00,1.766e+00,1.399e+00,1.401e+00,1.601e+00,1.231e+00,6.934e-01,1.170e+00,6.430e-01,1.567e+00,1.366e+00,1.197e+00,9.788e-01,1.160e+00,1.778e+00,1.494e+00,1.442e+00,1.652e+00,1.248e+00,1.516e+00,1.510e+00,9.204e-01,2.364e+00,5.133e-01,9.258e-01,8.990e-01,1.765e+00,2.069e+00,9.178e-01,9.339e-01,6.512e-01,1.002e+00,2.153e+00,4.089e-01,1.774e+00,1.301e+00,7.789e-01,1.526e+00,1.522e+00,2.321e+00,9.906e-01,1.251e+00,6.210e-01,1.477e+00,1.777e+00,1.694e+00,1.349e+00,2.268e+00,1.416e+00,1.178e+00,1.405e+00,9.940e-01,1.380e+00
4.758e-01,3.818e-01,1.066e+00,1.038e+00,6.650e-01,1.905e+00,1.976e+00,1.931e+00,2.017e+00,1.862e+00,2.658e+00,1.686e+00,9.815e-01,1.913e+00,2.170e+00,2.229e+00,2.312e+00,2.244e+00,2.147e+00,1.244e+00,1.811e+00,1.551e+00,1.372e+00,2.025e+00,2.400e+00,2.139e+00,2.030e+00,1.878e+00,2.145e+00,1.550e+00,1.928e+00,1.843e+00,2.667e+00,1.974e+00,1.922e+00,1.052e+00,2.869e+00,1.550e+00,1.689e+00,1.277e+00,2.195e+00,2.140e+00,1.834e+00,1.660e+00,7.866e-01,1.502e+00,2.073e+00,1.309e+00,2.164e+00,1.592e+00,2.239e+00,2.359e+00,2.076e+00,2.530e+00,2.260e+00,1.587e+00,1.142e+00,1.723e+00,2.371e+00,1.938e+00,2.365e+00,2.162e+00,1.604e+00,1.668e+00,2.825e+00,2.276e+00,2.054e+00
8.604e-01,1.039e+00,1.029e+00,1.311e+00,4.814e-01,2.037e+00,2.718e+00,2.782e+00,3.361e+00,2.229e+00,2.801e+00,3.286e+00,1.714e+00,2.493e+00,1.510e+00,3.159e+00,2.313e+00,3.461e+00,2.630e+00,1.433e+00,1.867e+00,1.941e+00,1.545e+00,2.956e+00,2.880e+00,2.222e+00,2.297e+00,2.831e+00,3.237e+00,2.130e+00,2.222e+00,1.715e+00,3.145e+00,3.287e+00,1.542e+00,1.849e+00,3.398e+00,2.141e+00,2.045e+00,2.103e+00,2.709e+00,3.197e+00,2.754e+00,2.303e+00,1.777e+00,2.670e+00,2.260e+00,2.094e+00,3.028e+00,2.043e+00,3.537e+00,3.415e+00,2.118e+00,2.938e+00,3.607e+00,1.345e+00,1.301e+00,2.151e+00,3.397e+00,2.072e+00,2.985e+00,2.976e+00,2.819e+00,1.854e+00,2.460e+00,2.790e+00,3.449e+00
3.331e-02,6.051e-01,2.647e-01,7.452e-01,2.464e-01,1.072e+00,1.396e+00,1.670e+00,1.764e+00,1.217e+00,2.463e+00,2.549e+00,1.414e+00,2.209e+00,1.184e+00,1.793e+00,2.283e+00,1.865e+00,1.581e+00,1.254e+00,1.287e+00,2.023e+00,1.754e+00,2.471e+00,1.680e+00,1.587e+00,2.115e+00,2.220e+00,1.710e+00,1.444e+00,2.048e+00,1.723e+00,2.284e+00,2.278e+00,1.292e+00,1.222e+00,2.324e+00,1.942e+00,1.181e+00,1.106e+00,2.259e+00,2.060e+00,2.245e+00,2.219e+00,1.736e+00,1.860e+00,1.895e+00,1.764e+00,1.713e+00,1.416e+00,2.434e+00,1.998e+00,1.630e+00,2.203e+00,1.792e+00,1.521e+00,1.305e+00,2.255e+00,2.534e+00,2.030e+00,1.936e+00,2.364e+00,2.256e+00,1.386e+00,1.418e+00,2.425e+00,2.853e+00
2.803e-01,4.892e-01,5.596e-01,1.013e+00,3.402e-01,1.449e+00,1.107e+00,1.257e+00,1.519e+00,2.061e+00,2.769e+00,2.763e+00,2.077e+00,2.325e+00,1.639e+00,1.425e+00,2.401e+00,1.731e+00,1.706e+00,2.006e+00,1.815e+00,2.058e+00,2.039e+00,2.614e+00,2.269e+00,1.813e+00,2.090e+00,2.048e+00,1.291e+00,1.875e+00,2.208e+00,1.898e+00,2.376e+00,2.301e+00,1.056e+00,9.372e-01,2.675e+00,2.759e+00,1.784e+00,1.745e+00,2.231e+00,2.198e+00,1.928e+00,1.956e+00,1.904e+00,2.433e+00,1.864e+00,2.476e+00,1.572e+00,1.896e+00,2.574e+00,1.708e+00,2.350e+00,2.115e+00,1.854e+00,2.106e+00,1.856e+00,2.638e+00,2.273e+00,1.962e+00,2.005e+00,2.273e+00,2.308e+00,1.942e+00,2.485e+00,2.012e+00,2.626e+00
1.520e-01,2.149e-01,5.487e-01,7.392e-01,3.152e-01,1.500e+00,1.384e+00,1.685e+00,2.117e+00,1.926e+00,2.842e+00,2.865e+00,2.054e+00,2.409e+00,2.470e+00,2.771e+00,3.194e+00,2.339e+00,2.945e+00,2.081e+00,2.438e+00,2.795e+00,1.751e+00,3.517e+00,2.283e+00,2.888e+00,2.075e+00,2.707e+00,2.318e+00,2.327e+00,2.502e+00,2.207e+00,2.937e+00,3.080e+00,2.150e+00,1.584e+00,2.994e+00,2.527e+00,2.431e+00,2.173e+00,2.524e+00,2.573e+00,2.193e+00,2.015e+00,2.769e+00,2.278e+00,2.135e+00,2.332e+00,2.526e+00,2.168e+00,2.604e+00,2.360e+00,2.327e+00,3.086e+00,2.761e+00,2.076e+00,1.654e+00,2.620e+00,3.355e+00,3.050e+00,1.805e+00,3.336e+00,2.483e+00,2.279e+00,2.799e+00,2.092e+00,3.243e+00
7.177e-01,1.084e+00,1.168e+00,1.116e+00,6.286e-01,1.953e+00,2.617e+00,2.673e+00,2.203e+00,2.093e+00,3.027e+00,3.704e+00,2.884e+00,2.808e+00,2.814e+00,2.991e+00,3.150e+00,2.818e+00,2.641e+00,2.117e+00,2.110e+00,2.999e+00,2.750e+00,3.089e+00,2.890e+00,2.642e+00,3.342e+00,3.696e+00,3.318e+00,2.266e+00,3.063e+00,2.658e+00,3.444e+00,4.099e+00,2.125e+00,1.349e+00,3.661e+00,2.470e+00,2.986e+00,2.411e+00,3.218e+00,2.880e+00,2.533e+00,2.693e+00,2.491e+00,3.340e+00,2.787e+00,2.423e+00,2.951e+00,2.633e+00,3.119e+00,3.269e+00,3.084e+00,3.931e+00,3.436e+00,2.804e+00,2.664e+00,2.975e+00,4.003e+00,2.656e+00,3.417e+00,3.602e+00,3.528e+00,1.853e+00,3.551e+00,2.964e+00,3.495e+00
1.408e-01,3.880e-01,7.735e-01,5.069e-01,5.154e-01,1.362e+00,1.747e+00,2.184e+00,1.601e+00,2.234e+00,2.792e+00,3.392e+00,2.773e+00,2.415e+00,3.086e+00,3.115e+00,2.895e+00,2.662e+00,2.862e+00,2.466e+00,1.904e+00,3.159e+00,3.039e+00,3.528e+00,3.329e+00,3.289e+00,3.449e+00,3.105e+00,2.766e+00,2.620e+00,3.472e+00,3.138e+00,2.774e+00,3.783e+00,2.062e+00,1.745e+00,4.714e+00,2.720e+00,2.788e+00,2.255e+00,3.127e+00,3.416e+00,2.458e+00,3.125e+00,2.844e+00,3.039e+00,2.854e+00,2.057e+00,2.683e+00,3.098e+00,2.527e+00,3.151e+00,3.154e+00,3.948e+00,2.558e+00,3.177e+00,2.884e+00,2.980e+00,3.703e+00,2.658e+00,2.405e+00,3.525e+00,3.072e+00,2.812e+00,3.931e+00,2.505e+00,3.082e+00
4.813e-01,4.460e-01,1.305e+00,6.513e-01,6.889e-01,1.886e+00,2.427e+00,2.980e+00,2.637e+00,2.450e+00,3.777e+00,4.176e+00,3.009e+00,3.402e+00,4.713e+00,5.029e+00,4.256e+00,4.010e+00,4.967e+00,2.883e+00,3.395e+00,4.605e+00,3.312e+00,4.871e+00,4.372e+00,4.315e+00,4.135e+00,4.603e+00,4.706e+00,3.173e+00,3.546e+00,3.902e+00,4.281e+00,5.048e+00,3.655e+00,2.277e+00,5.412e+00,2.918e+00,3.613e+00,3.494e+00,4.692e+00,3.856e+00,3.989e+00,3.595e+00,4.494e+00,3.681e+00,4.000e+00,3.003e+00,3.711e+00,3.787e+00,4.261e+00,4.327e+00,4.335e+00,4.675e+00,4.495e+00,3.927e+00,3.559e+00,3.960e+00,4.908e+00,4.627e+00,3.943e+00,4.740e+00,4.134e+00,3.516e+00,5.321e+00,3.650e+00,4.853e+00
1.234e-01,9.092e-01,7.739e-01,6.507e-01,4.012e-01,1.144e+00,2.019e+00,2.518e+00,1.911e+00,1.689e+00,3.121e+00,3.828e+00,2.290e+00,2.982e+00,3.391e+00,3.601e+00,3.677e+00,3.830e+00,3.460e+00,2.192e+00,2.739e+00,3.782e+00,3.867e+00,4.523e+00,3.649e+00,3.554e+00,4.201e+00,4.735e+00,4.079e+00,2.808e+00,3.934e+00,4.034e+00,3.871e+00,4.600e+00,3.051e+00,2.549e+00,4.621e+00,3.182e+00,3.023e+00,3.287e+00,4.678e+00,3.036e+00,3.878e+00,4.533e+00,4.024e+00,3.583e+00,3.292e+00,2.770e+00,3.165e+00,3.259e+00,4.600e+00,3.939e+00,3.248e+00,4.317e+00,3.793e+00,3.621e+00,3.218e+00,3.755e+00,4.625e+00,3.985e+00,3.831e+00,4.182e+00,3.825e+00,2.551e+00,3.665e+00,3.915e+00,5.053e+00
7.749e-01,6.667e-01,1.104e+00,7.238e-01,4.200e-01,1.451e+00,1.567e+00,1.540e+00,1.276e+00,1.813e+00,2.218e+00,3.211e+00,3.201e+00,2.476e+00,2.803e+00,3.719e+00,3.560e+00,3.314e+00,2.740e+00,2.783e+00,2.792e+00,3.904e+00,3.845e+00,3.484e+00,3.656e+00,3.556e+00,4.423e+00,4.449e+00,3.663e+00,2.838e+00,3.631e+00,3.846e+00,3.874e+00,4.371e+00,2.650e+00,2.213e+00,4.117e+00,3.232e+00,3.709e+00,2.755e+00,3.152e+00,3.446e+00,2.890e+00,3.394e+00,3.903e+00,3.452e+00,2.633e+00,2.774e+00,3.007e+00,3.460e+00,4.094e+00,3.622e+00,3.693e+00,4.053e+00,3.138e+00,3.558e+00,3.673e+00,3.891e+00,4.089e+00,2.980e+00,3.833e+00,3.563e+00,3.694e+00,3.025e+00,4.478e+00,3.205e+00,4.383e+00
8.744e-01,1.097e+00,1.524e+00,1.442e+00,8.173e-01,2.756e+00,3.044e+00,3.347e+00,2.911e+00,3.106e+00,4.004e+00,4.932e+00,3.841e+00,3.552e+00,4.646e+00,4.680e+00,5.491e+00,4.866e+00,4.507e+00,3.619e+00,4.228e+00,4.770e+00,4.509e+00,5.282e+00,4.914e+00,4.841e+00,4.989e+00,5.621e+00,5.346e+00,4.067e+00,5.599e+00,5.620e+00,5.643e+00,5.852e+00,3.978e+00,3.622e+00,6.096e+00,4.917e+00,5.257e+00,4.271e+00,5.245e+00,5.255e+00,4.053e+00,4.700e+00,5.061e+00,4.706e+00,4.284e+00,4.137e+00,4.790e+00,4.724e+00,5.092e+00,5.242e+00,5.036e+00,5.992e+00,5.490e+00,5.062e+00,3.943e+00,5.374e+00,6.209e+00,4.946e+00,5.712e+00,6.353e+00,5.412e+00,4.475e+00,6.366e+00,4.531e+00,5.877e+00
6.666e-01,7.981e-01,1.227e+00,1.274e+00,5.224e-01,2.308e+00,2.129e+00,2.178e+00,2.147e+00,2.781e+00,3.219e+00,4.149e+00,3.945e+00,3.121e+00,4.011e+00,3.897e+00,4.573e+00,3.882e+00,4.351e+00,4.463e+00,3.735e+00,4.999e+00,4.332e+00,4.878e+00,4.028e+00,5.264e+00,4.794e+00,5.134e+00,3.805e+00,4.189e+00,5.292e+00,4.778e+00,4.906e+00,5.810e+00,3.304e+00,3.555e+00,5.146e+00,5.192e+00,5.332e+00,4.360e+00,4.375e+00,4.753e+00,3.094e+00,4.176e+00,5.398e+00,4.339e+00,3.158e+00,4.048e+00,4.580e+00,5.080e+00,4.304e+00,4.227e+00,5.112e+00,5.182e+00,5.493e+00,5.341e+00,4.651e+00,4.933e+00,6.013e+00,4.893e+00,4.252e+00,5.764e+00,5.352e+00,4.492e+00,5.798e+00,3.840e+00,5.235e+00
3.177e-01,3.431e-01,5.787e-01,9.845e-01,3.094e-01,1.890e+00,2.210e+00,2.275e+00,3.429e+00,2.966e+00,3.898e+00,4.446e+00,3.804e+00,3.943e+00,3.884e+00,4.316e+00,5.431e+00,4.572e+00,4.592e+00,4.076e+00,5.206e+00,5.603e+00,5.038e+00,6.334e+00,5.351e+00,5.901e+00,5.442e+00,4.970e+00,5.490e+00,5.179e+00,5.423e+00,5.360e+00,6.690e+00,5.507e+00,4.082e+00,4.638e+00,5.839e+00,5.417e+00,5.474e+00,4.739e+00,5.137e+00,5.854e+00,5.460e+00,5.663e+00,5.358e+00,4.942e+00,4.299e+00,4.644e+00,5.566e+00,4.404e+00,6.508e+00,5.905e+00,4.806e+00,5.013e+00,5.152e+00,5.395e+00,3.653e+00,5.991e+00,6.213e+00,5.769e+00,5.154e+00,5.950e+00,5.350e+00,5.470e+00,5.692e+00,4.658e+00,6.647e+00
8.477e-01,1.144e+00,1.024e+00,1.516e+00,6.673e-01,2.325e+00,2.448e+00,2.782e+00,2.714e+00,2.567e+00,3.480e+00,3.951e+00,2.826e+00,2.873e+00,3.304e+00,3.856e+00,4.121e+00,4.874e+00,3.598e+00,3.306e+00,3.576e+00,4.875e+00,4.195e+00,4.463e+00,4.510e+00,5.307e+00,4.611e+00,5.418e+00,4.987e+00,4.812e+00,6.176e+00,4.904e+00,4.566e+00,5.860e+00,3.911e+00,3.896e+00,5.492e+00,5.238e+00,5.076e+00,4.856e+00,4.360e+00,5.605e+00,4.549e+00,5.567e+00,4.339e+00,4.030e+00,3.873e+00,4.326e+00,4.778e+00,3.900e+00,5.544e+00,5.098e+00,4.773e+00,5.452e+00,5.613e+00,4.361e+00,3.596e+00,3.806e+00,6.446e+00,4.348e+00,4.960e+00,5.241e+00,4.281e+00,4.334e+00,5.309e+00,4.789e+00,5.856e+00
1.023e-01,7.117e-01,2.795e-01,6.645e-01,2.001e-01,7.288e-01,1.152e+00,1.388e+00,1.326e+00,1.007e+00,2.182e+00,2.257e+00,1.496e+00,2.038e+00,1.593e+00,2.991e+00,3.369e+00,3.163e+00,2.261e+00,2.300e+00,3.013e+00,5.008e+00,3.943e+00,4.168e+00,2.862e+00,4.611e+00,4.458e+00,4.178e+00,3.734e+00,3.123e+00,5.854e+00,5.491e+00,4.664e+00,5.245e+00,3.483e+00,3.867e+00,4.724e+00,4.463e+00,4.434e+00,2.750e+00,3.123e+00,4.371e+00,4.120e+00,5.755e+00,4.502e+00,3.127e+00,2.397e+00,4.103e+00,3.952e+00,3.439e+00,5.186e+00,4.011e+00,4.072e+00,4.404e+00,4.626e+00,3.600e+00,2.846e+00,4.700e+00,5.294e+00,3.781e+00,4.908e+00,3.811e+00,3.823e+00,4.061e+00,4.389e+00,4.512e+00,5.218e+00
8.760e-01,9.998e-01,1.473e+00,1.135e+00,6.943e-01,2.122e+00,2.340e+00,2.819e+00,2.271e+00,2.164e+00,2.693e+00,3.625e+00,2.572e+00,2.295e+00,2.781e+00,3.806e+00,3.360e+00,4.156e+00,3.490e+00,2.875e+00,2.919e+00,4.279e+00,3.428e+00,4.076e+00,3.235e+00,4.026e+00,5.237e+00,4.496e+00,5.112e+00,3.258e+00,4.617e+00,4.870e+00,5.235e+00,6.040e+00,4.610e+00,3.728e+00,4.885e+00,3.525e+00,4.848e+00,3.357e+00,3.810e+00,4.478e+00,3.132e+00,4.081e+00,4.238e+00,4.128e+00,3.859e+00,3.722e+00,5.002e+00,4.192e+00,4.789e+00,4.729e+00,4.210e+00,5.626e+00,5.072e+00,3.398e+00,3.965e+00,4.655e+00,5.793e+00,3.668e+00,4.557e+00,4.502e+00,4.787e+00,3.656e+00,5.296e+00,4.659e+00,5.465e+00
2.492e-01,7.034e-01,8.371e-01,7.292e-01,3.726e-01,1.552e+00,2.150e+00,2.231e+00,1.915e+00,2.288e+00,2.761e+00,3.787e+00,2.997e+00,2.760e+00,3.684e+00,4.192e+00,4.553e+00,3.600e+00,4.352e+00,4.194e+00,4.835e+00,7.180e+00,5.904e+00,6.580e+00,4.340e+00,6.702e+00,6.879e+00,5.309e+00,6.712e+00,5.153e+00,7.449e+00,8.455e+00,7.015e+00,8.066e+00,6.250e+00,6.217e+00,6.772e+00,6.014e+00,7.586e+00,5.928e+00,4.815e+00,6.753e+00,6.298e+00,7.900e+00,7.154e+00,5.385e+00,5.656e+00,5.848e+00,7.441e+00,5.686e+00,6.623e+00,6.424e+00,6.961e+00,7.207e+00,6.770e+00,6.630e+00,5.280e+00,8.001e+00,8.303e+00,6.530e+00,7.458e+00,6.388e+00,6.212e+00,6.981e+00,7.734e+00,5.917e+00,7.505e+00
2.840e-01,4.572e-01,1.031e+00,7.636e-01,3.896e-01,1.404e+00,1.216e+00,1.283e+00,9.912e-01,1.367e+00,1.968e+00,2.037e+00,1.664e+00,1.873e+00,2.250e+00,2.298e+00,2.896e+00,2.680e+00,2.869e+00,2.894e+00,3.234e+00,4.390e+00,4.194e+00,4.636e+00,3.538e+00,4.810e+00,5.761e+00,4.277e+00,4.753e+00,4.104e+00,5.395e+00,5.970e+00,5.482e+00,4.822e+00,4.608e+00,4.836e+00,4.092e+00,5.013e+00,5.732e+00,4.891e+00,3.970e+00,5.059e+00,4.931e+00,6.625e+00,4.973e+00,3.901e+00,3.552e+00,3.546e+00,5.068e+00,4.715e+00,4.616e+00,5.308e+00,4.717e+00,4.236e+00,4.651e+00,5.886e+00,3.777e+00,5.863e+00,5.455e+00,5.583e+00,5.823e+00,5.609e+00,4.233e+00,5.327e+00,5.459e+00,4.390e+00,5.239e+00
3.025e-01,2.129e-01,8.589e-01,6.768e-01,4.673e-01,1.756e+00,1.682e+00,2.113e+00,2.194e+00,1.871e+00,2.586e+00,3.024e+00,2.723e+00,2.511e+00,3.479e+00,4.109e+00,3.784e+00,3.862e+00,4.053e+00,2.922e+00,3.238e+00,5.036e+00,4.883e+00,5.633e+00,5.455e+00,6.669e+00,7.076e+00,5.128e+00,5.804e+00,5.006e+00,6.588e+00,7.137e+00,6.360e+00,6.471e+00,5.459e+00,6.139e+00,5.977e+00,5.659e+00,7.226e+00,5.306e+00,5.465e+00,7.037e+00,6.016e+00,7.150e+00,6.442e+00,4.972e+00,5.188e+00,5.008e+00,6.427e+00,5.046e+00,4.689e+00,6.835e+00,5.721e+00,6.588e+00,5.984e+00,6.473e+00,4.488e+00,6.085e+00,6.831e+00,6.584e+00,6.484e+00,7.324e+00,6.062e+00,6.568e+00,6.657e+00,5.576e+00,6.129e+00
1.227e-01,5.879e-01,7.702e-01,5.617e-01,4.004e-01,1.084e+00,1.603e+00,1.650e+00,9.913e-01,1.596e+00,2.001e+00,2.432e+00,2.268e+00,2.021e+00,3.633e+00,3.429e+00,3.451e+00,3.006e+00,3.434e+00,2.982e+00,3.112e+00,5.594e+00,4.792e+00,4.736e+00,4.079e+00,6.456e+00,6.142e+00,5.035e+00,5.444e+00,4.960e+00,7.311e+00,6.973e+00,6.038e+00,6.049e+00,4.737e+00,4.426e+00,6.593e+00,4.931e+00,5.962e+00,4.666e+00,4.914e+00,4.832e+00,5.593e+00,7.007e+00,6.063e+00,4.269e+00,3.552e+00,5.254e+00,5.712e+00,5.032e+00,5.202e+00,5.878e+00,6.524e+00,5.530e+00,6.162e+00,6.644e+00,5.876e+00,5.911e+00,6.347e+00,5.816e+00,6.346e+00,4.963e+00,5.184e+00,5.433e+00,7.072e+00,5.452e+00,6.398e+00
6.202e-01,1.050e+00,1.174e+00,9.209e-01,4.548e-01,1.752e+00,2.266e+00,2.321e+00,1.634e+00,2.463e+00,2.458e+00,4.053e+00,3.140e+00,2.510e+00,3.539e+00,4.097e+00,4.151e+00,3.854e+00,4.074e+00,4.283e+00,4.338e+00,6.541e+00,5.463e+00,5.923e+00,5.494e+00,6.845e+00,7.929e+00,6.793e+00,7.165e+00,6.498e+00,8.777e+00,8.622e+00,7.774e+00,8.041e+00,7.049e+00,6.619e+00,7.339e+00,6.329e+00,8.039e+00,7.456e+00,5.977e+00,8.234e+00,7.036e+00,8.602e+00,6.707e+00,6.625e+00,5.339e+00,5.995e+00,7.052e+00,6.485e+00,7.202e+00,6.660e+00,8.111e+00,7.987e+00,7.937e+00,7.388e+00,5.452e+00,8.939e+00,7.567e+00,7.691e+00,9.349e+00,7.783e+00,6.821e+00,7.714e+00,7.444e+00,6.558e+00,7.481e+00
3.210e-01,3.826e-01,1.046e+00,8.965e-01,6.608e-01,1.836e+00,1.803e+00,2.452e+00,2.271e+00,2.293e+00,3.474e+00,3.285e+00,2.492e+00,2.761e+00,4.646e+00,4.431e+00,4.853e+00,4.625e+00,4.963e+00,3.630e+00,4.472e+00,6.091e+00,5.015e+00,5.703e+00,4.974e+00,6.961e+00,7.446e+00,6.410e+00,7.960e+00,5.764e+00,8.422e+00,8.411e+00,8.077e+00,8.476e+00,7.995e+00,7.328e+00,7.028e+00,6.881e+00,8.461e+00,6.769e+00,6.573e+00,7.464e+00,6.104e+00,7.583e+00,7.036e+00,6.262e+00,5.439e+00,6.762e+00,7.332e+00,6.170e+00,7.135e+00,7.142e+00,8.328e+00,8.120e+00,8.638e+00,6.676e+00,5.541e+00,7.483e+00,8.842e+00,7.397e+00,8.294e+00,7.557e+00,6.878e+00,7.781e+00,8.357e+00,7.327e+00,7.384e+00
9.040e-01,1.082e+00,1.352e+00,1.134e+00,5.295e-01,1.820e+00,2.109e+00,2.271e+00,1.986e+00,2.425e+00,3.131e+00,3.945e+00,2.909e+00,2.789e+00,2.842e+00,3.890e+00,3.854e+00,3.946e+00,3.490e+00,3.312e+00,3.936e+00,5.062e+00,4.425e+00,5.599e+00,4.606e+00,5.889e+00,6.756e+00,6.571e+00,6.530e+00,6.060e+00,8.386e+00,7.563e+00,7.130e+00,8.626e+00,7.346e+00,6.031e+00,7.067e+00,6.290e+00,8.548e+00,6.392e+00,6.025e+00,7.079e+00,6.218e+00,7.852e+00,7.291e+00,7.584e+00,5.419e+00,7.149e+00,7.191e+00,6.409e+00,7.348e+00,7.089e+00,6.558e+00,8.753e+00,8.748e+00,5.782e+00,6.166e+00,8.257e+00,8.053e+00,6.319e+00,8.025e+00,7.676e+00,7.063e+00,6.221e+00,6.817e+00,6.537e+00,7.649e+00
6.342e-01,2.898e-01,1.424e+00,4.004e-01,6.331e-01,1.793e+00,2.279e+00,2.368e+00,1.803e+00,2.387e+00,2.849e+00,3.639e+00,3.144e+00,2.659e+00,3.673e+00,4.382e+00,3.934e+00,3.148e+00,3.878e+00,3.375e+00,3.905e+00,5.507e+00,3.901e+00,5.367e+00,4.639e+00,6.194e+00,5.458e+00,5.091e+00,6.552e+00,6.757e+00,7.895e+00,7.476e+00,6.350e+00,7.611e+00,7.044e+00,5.296e+00,6.347e+00,5.158e+00,7.322e+00,6.324e+00,6.058e+00,7.060e+00,6.328e+00,7.888e+00,5.990e+00,6.008e+00,5.672e+00,6.137e+00,6.933e+00,5.761e+00,6.233e+00,6.835e+00,6.253e+00,7.065e+00,6.605e+00,6.811e+00,4.879e+00,7.214e+00,7.479e+00,7.018e+00,6.597e+00,7.268e+00,6.321e+00,5.958e+00,7.195e+00,5.473e+00,6.737e+00
9.349e-01,1.003e+00,1.602e+00,8.627e-01,5.601e-01,2.005e+00,2.523e+00,2.855e+00,2.222e+00,2.616e+00,2.313e+00,4.450e+00,3.614e+00,2.507e+00,2.919e+00,4.221e+00,2.701e+00,3.824e+00,3.753e+00,3.165e+00,2.562e+00,5.319e+00,4.374e+00,5.585e+00,4.998e+00,6.037e+00,6.424e+00,5.744e+00,6.522e+00,6.670e+00,8.607e+00,8.656e+00,7.027e+00,9.118e+00,5.647e+00,6.471e+00,7.942e+00,6.158e+00,7.540e+00,6.702e+00,7.040e+00,8.183e+00,7.277e+00,9.236e+00,7.220e+00,6.958e+00,5.893e+00,7.497e+00,7.624e+00,7.215e+00,7.704e+00,7.867e+00,7.504e+00,7.026e+00,8.078e+00,7.859e+00,6.425e+00,7.754e+00,8.095e+00,6.369e+00,8.421e+00,7.522e+00,7.612e+00,5.924e+00,7.362e+00,6.703e+00,7.453e+00
4.478e-01,3.059e-01,8.103e-01,4.973e-01,4.078e-01,1.204e+00,1.323e+00,1.832e+00,1.892e+00,1.896e+00,2.882e+00,3.472e+00,3.062e+00,2.849e+00,3.308e+00,3.711e+00,3.717e+00,4.113e+00,3.826e+00,3.399e+00,3.786e+00,5.719e+00,5.743e+00,6.184e+00,5.856e+00,7.201e+00,7.807e+00,6.528e+00,6.973e+00,6.823e+00,9.864e+00,9.936e+00,9.058e+00,9.681e+00,7.745e+00,8.844e+00,8.617e+00,8.266e+00,9.577e+00,7.911e+00,8.933e+00,8.794e+00,8.385e+00,1.092e+01,8.797e+00,8.447e+00,6.357e+00,8.633e+00,7.749e+00,7.868e+00,8.714e+00,9.205e+00,8.423e+00,8.686e+00,9.596e+00,9.001e+00,6.748e+00,9.536e+00,9.254e+00,8.542e+00,9.890e+00,8.924e+00,9.646e+00,8.134e+00,7.995e+00,9.101e+00,8.643e+00
9.103e-01,3.729e-01,1.132e+00,5.378e-01,6.483e-01,1.541e+00,2.097e+00,2.216e+00,2.200e+00,1.817e+00,3.109e+00,3.105e+00,2.875e+00,2.854e+00,3.781e+00,4.748e+00,4.380e+00,4.756e+00,3.957e+00,3.470e+00,4.272e+00,5.226e+00,5.057e+00,4.857e+00,4.985e+00,6.955e+00,6.450e+00,6.087e+00,7.076e+00,6.826e+00,8.600e+00,7.944e+00,8.276e+00,9.396e+00,8.197e+00,6.996e+00,8.363e+00,7.122e+00,8.216e+00,7.534e+00,7.568e+00,7.971e+00,7.035e+00,9.044e+00,8.020e+00,6.471e+00,5.973e+00,7.130e+00,8.129e+00,7.056e+00,8.122e+00,8.020e+00,7.513e+00,8.569e+00,8.305e+00,7.807e+00,6.249e+00,7.588e+00,9.696e+00,6.840e+00,7.495e+00,7.813e+00,7.597e+00,6.763e+00,7.819e+00,8.598e+00,8.434e+00
4.087e-01,3.599e-01,1.038e+00,6.747e-01,4.224e-01,1.548e+00,1.577e+00,1.861e+00,1.826e+00,2.110e+00,2.568e+00,3.106e+00,2.635e+00,2.379e+00,3.722e+00,4.072e+00,4.159e+00,4.289e+00,4.578e+00,4.171e+00,5.007e+00,6.814e+00,5.285e+00,6.407e+00,5.189e+00,8.097e+00,7.233e+00,6.078e+00,6.917e+00,7.044e+00,9.887e+00,9.382e+00,9.327e+00,1.008e+01,9.128e+00,8.637e+00,8.981e+00,7.856e+00,9.463e+00,8.455e+00,8.691e+00,8.617e+00,8.000e+00,9.598e+00,8.396e+00,7.735e+00,6.709e+00,9.556e+00,9.576e+00,7.332e+00,1.013e+01,8.719e+00,8.627e+00,8.654e+00,9.962e+00,9.629e+00,7.100e+00,8.528e+00,1.022e+01,8.359e+00,8.540e+00,8.741e+00,8.561e+00,8.710e+00,8.997e+00,9.562e+00,9.400e+00
3.578e-01,3.019e-01,1.191e+00,8.463e-01,5.944e-01,2.056e+00,2.298e+00,2.506e+00,2.585e+00,2.986e+00,3.281e+00,3.599e+00,2.610e+00,2.925e+00,4.018e+00,4.789e+00,4.413e+00,4.561e+00,4.887e+00,4.333e+00,4.214e+00,5.422e+00,4.524e+00,5.470e+00,5.466e+00,6.730e+00,6.862e+00,5.945e+00,6.699e+00,7.036e+00,9.089e+00,8.386e+00,8.701e+00,7.932e+00,8.877e+00,8.276e+00,1.022e+01,7.019e+00,7.821e+00,7.184e+00,8.918e+00,9.467e+00,7.199e+00,8.796e+00,7.530e+00,7.539e+00,6.998e+00,7.553e+00,8.541e+00,8.090e+00,9.326e+00,8.171e+00,9.694e+00,8.991e+00,9.717e+00,8.471e+00,7.584e+00,9.443e+00,8.677e+00,8.227e+00,8.710e+00,8.583e+00,9.160e+00,8.742e+00,8.296e+00,8.963e+00,8.880e+00
6.068e-01,7.625e-01,9.015e-01,1.156e+00,3.679e-01,1.867e+00,1.828e+00,1.887e+00,2.171e+00,2.089e+00,2.159e+00,2.948e+00,2.269e+00,2.074e+00,2.345e+00,2.562e+00,2.869e+00,3.438e+00,3.026e+00,2.705e+00,3.512e+00,4.321e+00,4.755e+00,5.568e+00,5.073e+00,6.268e+00,6.917e+00,5.190e+00,6.016e+00,6.629e+00,8.510e+00,9.494e+00,8.438e+00,8.588e+00,7.881e+00,8.916e+00,9.185e+00,7.644e+00,1.030e+01,8.123e+00,9.470e+00,9.478e+00,8.672e+00,1.137e+01,7.711e+00,8.370e+00,7.970e+00,8.577e+00,9.339e+00,8.104e+00,8.401e+00,8.408e+00,8.461e+00,9.778e+00,1.007e+01,9.178e+00,7.236e+00,1.040e+01,8.623e+00,8.573e+00,9.815e+00,9.742e+00,1.028e+01,7.369e+00,7.776e+00,8.853e+00,9.291e+00
8.032e-01,4.946e-01,1.071e+00,1.035e+00,6.423e-01,2.257e+00,2.180e+00,2.333e+00,2.411e+00,2.475e+00,3.090e+00,3.520e+00,3.271e+00,2.812e+00,4.868e+00,5.385e+00,5.457e+00,5.494e+00,4.834e+00,4.056e+00,5.298e+00,6.389e+00,6.289e+00,6.548e+00,6.763e+00,8.996e+00,8.856e+00,8.108e+00,8.262e+00,8.390e+00,1.084e+01,1.049e+01,9.972e+00,1.063e+01,9.958e+00,9.380e+00,1.200e+01,9.276e+00,1.157e+01,9.678e+00,1.090e+01,1.097e+01,1.111e+01,1.111e+01,9.523e+00,8.883e+00,9.512e+00,1.064e+01,1.119e+01,8.919e+00,1.118e+01,1.023e+01,1.076e+01,1.250e+01,1.208e+01,1.106e+01,9.415e+00,1.090e+01,1.171e+01,9.948e+00,1.128e+01,1.175e+01,9.921e+00,1.002e+01,1.078e+01,1.129e+01,1.165e+01
8.229e-01,4.283e-01,8.393e-01,8.483e-01,5.122e-01,1.473e+00,1.331e+00,1.915e+00,2.378e+00,1.785e+00,2.965e+00,3.069e+00,2.509e+00,2.580e+00,2.630e+00,3.630e+00,3.756e+00,4.698e+00,3.399e+00,2.989e+00,3.836e+00,4.790e+00,4.029e+00,4.278e+00,4.993e+00,5.957e+00,6.191e+00,5.525e+00,6.731e+00,6.395e+00,7.721e+00,6.834e+00,7.705e+00,7.220e+00,6.941e+00,7.054e+00,6.905e+00,8.427e+00,8.253e+00,8.212e+00,8.328e+00,9.353e+00,8.180e+00,9.277e+00,7.227e+00,7.938e+00,6.256e+00,8.482e+00,8.332e+00,7.150e+00,9.535e+00,8.175e+00,7.978e+00,8.298e+00,9.716e+00,7.712e+00,6.351e+00,7.937e+00,9.234e+00,7.663e+00,8.966e+00,9.066e+00,7.963e+00,7.434e+00,8.049e+00,7.778e+00,9.221e+00
4.385e-01,1.035e+00,8.249e-01,1.037e+00,3.139e-01,1.374e+00,1.947e+00,2.188e+00,2.229e+00,1.689e+00,2.489e+00,3.070e+00,2.286e+00,2.500e+00,3.421e+00,4.617e+00,3.552e+00,4.536e+00,4.656e+00,3.370e+00,3.864e+00,5.932e+00,4.751e+00,5.274e+00,4.666e+00,7.047e+00,7.104e+00,6.828e+00,6.567e+00,5.823e+00,8.243e+00,7.055e+00,8.092e+00,8.954e+00,8.071e+00,7.296e+00,9.255e+00,8.440e+00,9.247e+00,9.846e+00,9.271e+00,9.664e+00,8.960e+00,9.561e+00,9.139e+00,9.032e+00,7.499e+00,9.081e+00,1.046e+01,7.842e+00,1.094e+01,8.970e+00,1.019e+01,1.064e+01,1.187e+01,9.109e+00,8.508e+00,9.038e+00,1.099e+01,8.677e+00,1.023e+01,1.019e+01,9.503e+00,9.580e+00,9.865e+00,1.041e+01,9.866e+00
6.727e-01,4.072e-01,1.102e+00,5.906e-01,4.328e-01,1.306e+00,1.439e+00,1.685e+00,1.727e+00,1.862e+00,2.581e+00,3.070e+00,2.616e+00,2.543e+00,3.289e+00,3.716e+00,3.580e+00,3.615e+00,3.798e+00,2.982e+00,3.963e+00,5.047e+00,4.447e+00,5.099e+00,5.209e+00,6.381e+00,6.587e+00,5.505e+00,7.138e+00,6.861e+00,8.540e+00,8.805e+00,8.111e+00,8.671e+00,8.223e+00,7.991e+00,8.244e+00,7.514e+00,9.354e+00,8.786e+00,9.458e+00,9.719e+00,9.486e+00,1.085e+01,9.813e+00,9.676e+00,8.077e+00,9.935e+00,1.074e+01,8.479e+00,1.077e+01,9.214e+00,9.819e+00,9.599e+00,1.065e+01,1.023e+01,9.142e+00,1.032e+01,1.010e+01,8.766e+00,1.041e+01,1.078e+01,9.622e+00,8.421e+00,1.028e+01,8.857e+00,1.075e+01
5.327e-01,7.420e-01,1.315e+00,1.307e+00,6.226e-01,2.436e+00,2.677e+00,2.614e+00,2.677e+00,2.544e+00,2.929e+00,3.207e+00,2.732e+00,2.704e+00,3.999e+00,4.064e+00,4.578e+00,4.655e+00,4.582e+00,3.944e+00,4.561e+00,5.564e+00,5.217e+00,5.884e+00,5.488e+00,7.722e+00,8.162e+00,6.813e+00,7.867e+00,7.870e+00,1.032e+01,9.682e+00,1.031e+01,9.243e+00,9.935e+00,1.007e+01,1.031e+01,9.274e+00,1.071e+01,1.057e+01,1.061e+01,1.247e+01,1.046e+01,1.197e+01,9.934e+00,1.025e+01,9.894e+00,1.045e+01,1.326e+01,1.052e+01,1.250e+01,1.177e+01,1.161e+01,1.233e+01,1.311e+01,1.266e+01,1.048e+01,1.123e+01,1.276e+01,1.017e+01,1.256e+01,1.276e+01,1.100e+01,1.017e+01,1.189e+01,1.111e+01,1.246e+01
7.774e-01,9.361e-01,1.596e+00,8.790e-01,7.401e-01,2.052e+00,2.786e+00,3.032e+00,2.237e+00,2.961e+00,3.999e+00,5.061e+00,4.163e+00,3.743e+00,4.489e+00,5.034e+00,5.132e+00,4.706e+00,4.738e+00,4.717e+00,4.865e+00,7.023e+00,6.530e+00,7.102e+00,5.909e+00,7.952e+00,8.727e+00,7.586e+00,8.308e+00,7.906e+00,1.131e+01,1.097e+01,9.818e+00,1.209e+01,9.452e+00,9.127e+00,1.096e+01,9.807e+00,1.156e+01,1.017e+01,1.079e+01,1.185e+01,1.066e+01,1.291e+01,1.120e+01,1.160e+01,1.060e+01,1.139e+01,1.237e+01,1.125e+01,1.245e+01,1.134e+01,1.171e+01,1.372e+01,1.309e+01,1.288e+01,1.067e+01,1.336e+01,1.420e+01,9.929e+00,1.280e+01,1.245e+01,1.219e+01,9.521e+00,1.274e+01,1.094e+01,1.315e+01
3.090e-01,4.102e-01,4.200e-01,7.257e-01,4.674e-01,1.201e+00,1.454e+00,1.842e+00,2.029e+00,1.686e+00,3.463e+00,3.011e+00,2.341e+00,2.923e+00,3.093e+00,3.651e+00,4.712e+00,4.042e+00,3.393e+00,3.433e+00,4.345e+00,5.670e+00,4.654e+00,4.848e+00,5.430e+00,6.874e+00,7.211e+00,5.653e+00,7.479e+00,7.166e+00,9.631e+00,8.563e+00,9.290e+00,8.858e+00,9.109e+00,8.461e+00,8.460e+00,8.905e+00,9.203e+00,9.787e+00,9.430e+00,1.086e+01,9.453e+00,1.125e+01,9.786e+00,9.604e+00,8.732e+00,1.067e+01,1.039e+01,9.318e+00,1.108e+01,9.645e+00,1.010e+01,1.029e+01,1.049e+01,1.124e+01,8.213e+00,9.809e+00,1.124e+01,9.471e+00,1.074e+01,1.116e+01,9.645e+00,1.054e+01,1.059e+01,1.083e+01,1.092e+01
6.603e-01,8.892e-01,8.525e-01,8.169e-01,4.645e-01,1.673e+00,2.872e+00,2.444e+00,2.332e+00,2.227e+00,2.470e+00,3.302e+00,2.741e+00,2.613e+00,3.793e+00,4.775e+00,4.709e+00,4.771e+00,3.849e+00,3.812e+00,4.293e+00,5.598e+00,5.766e+00,5.301e+00,6.176e+00,8.085e+00,7.738e+00,7.386e+00,8.462e+00,8.798e+00,1.153e+01,1.028e+01,9.162e+00,9.831e+00,1.012e+01,1.028e+01,1.139e+01,9.341e+00,1.104e+01,1.051e+01,1.089e+01,1.252e+01,1.096e+01,1.387e+01,1.112e+01,1.086e+01,1.018e+01,1.184e+01,1.300e+01,1.165e+01,1.322e+01,1.138e+01,1.305e+01,1.356e+01,1.397e+01,1.314e+01,1.103e+01,1.183e+01,1.393e+01,1.101e+01,1.371e+01,1.347e+01,1.175e+01,1.150e+01,1.205e+01,1.185e+01,1.282e+01
3.726e-02,2.802e-01,8.546e-01,7.360e-01,5.258e-01,1.762e+00,1.946e+00,2.141e+00,1.877e+00,2.592e+00,3.132e+00,3.270e+00,2.591e+00,2.686e+00,4.483e+00,4.196e+00,4.803e+00,3.647e+00,4.390e+00,3.685e+00,3.996e+00,4.948e+00,4.324e+00,5.289e+00,4.886e+00,5.801e+00,6.256e+00,5.662e+00,5.788e+00,5.579e+00,7.692e+00,8.058e+00,7.403e+00,6.865e+00,8.102e+00,7.509e+00,9.674e+00,6.761e+00,8.456e+00,7.080e+00,8.688e+00,8.704e+00,7.565e+00,8.582e+00,7.692e+00,8.734e+00,7.877e+00,8.783e+00,8.668e+00,9.252e+00,9.199e+00,9.248e+00,9.635e+00,1.126e+01,1.039e+01,1.001e+01,8.801e+00,1.041e+01,9.928e+00,9.420e+00,1.034e+01,1.027e+01,9.748e+00,8.963e+00,1.017e+01,8.977e+00,9.969e+00
7.898e-01,9.278e-01,1.540e+00,1.152e+00,5.665e-01,2.371e+00,2.666e+00,2.812e+00,2.535e+00,2.883e+00,2.412e+00,3.928e+00,2.785e+00,2.297e+00,2.676e+00,3.787e+00,2.841e+00,4.113e+00,4.036e+00,3.876e+00,3.238e+00,4.612e+00,4.255e+00,5.346e+00,4.881e+00,6.107e+00,6.710e+00,5.679e+00,6.267e+00,6.771e+00,8.622e+00,7.936e+00,7.643e+00,8.283e+00,8.647e+00,8.962e+00,9.845e+00,8.004e+00,9.667e+00,9.277e+00,9.583e+00,1.232e+01,9.623e+00,1.079e+01,1.056e+01,1.183e+01,1.188e+01,1.122e+01,1.399e+01,1.182e+01,1.367e+01,1.202e+01,1.227e+01,1.420e+01,1.409e+01,1.227e+01,1.156e+01,1.230e+01,1.356e+01,1.029e+01,1.362e+01,1.371e+01,1.226e+01,1.133e+01,1.198e+01,1.069e+01,1.339e+01
5.534e-01,8.950e-01,9.896e-01,7.635e-01,5.068e-01,1.744e+00,2.920e+00,2.981e+00,2.749e+00,2.361e+00,3.405e+00,4.236e+00,2.897e+00,3.361e+00,4.205e+00,6.018e+00,5.227e+00,5.266e+00,4.997e+00,4.033e+00,4.987e+00,6.730e+00,5.546e+00,6.532e+00,5.876e+00,7.708e+00,7.161e+00,7.381e+00,8.301e+00,8.133e+00,1.081e+01,9.815e+00,8.823e+00,1.030e+01,9.127e+00,8.931e+00,1.112e+01,8.559e+00,9.437e+00,9.812e+00,1.054e+01,1.137e+01,1.137e+01,1.304e+01,1.133e+01,1.025e+01,1.117e+01,1.144e+01,1.287e+01,1.221e+01,1.399e+01,1.291e+01,1.218e+01,1.325e+01,1.330e+01,1.353e+01,1.123e+01,1.315e+01,1.426e+01,1.107e+01,1.329e+01,1.341e+01,1.229e+01,1.130e+01,1.229e+01,1.288e+01,1.404e+01
6.126e-01,4.899e-01,1.400e+00,6.808e-01,6.056e-01,1.710e+00,2.274e+00,2.191e+00,1.902e+00,1.986e+00,2.655e+00,2.880e+00,2.778e+00,2.640e+00,4.020e+00,4.047e+00,3.898e+00,4.084e+00,4.236e+00,3.502e+00,4.357e+00,5.683e+00,5.442e+00,5.773e+00,4.779e+00,6.877e+00,6.906e+00,6.234e+00,6.835e+00,5.905e+00,8.931e+00,8.788e+00,8.814e+00,9.414e+00,8.487e+00,8.412e+00,9.104e+00,8.342e+00,1.008e+01,9.026e+00,9.753e+00,8.834e+00,8.683e+00,1.100e+01,9.558e+00,1.003e+01,9.376e+00,1.096e+01,1.199e+01,1.102e+01,1.271e+01,1.231e+01,1.160e+01,1.270e+01,1.292e+01,1.252e+01,1.011e+01,1.169e+01,1.417e+01,1.077e+01,1.282e+01,1.186e+01,1.202e+01,1.006e+01,1.143e+01,1.206e+01,1.161e+01
7.537e-01,4.617e-01,1.448e+00,7.831e-01,6.918e-01,2.089e+00,2.221e+00,2.599e+00,2.239e+00,2.738e+00,3.067e+00,3.940e+00,3.470e+00,2.835e+00,4.831e+00,5.064e+00,4.547e+00,4.943e+00,5.091e+00,4.160e+00,4.133e+00,5.733e+00,5.634e+00,6.187e+00,6.752e+00,7.950e+00,8.382e+00,7.389e+00,7.880e+00,7.902e+00,1.108e+01,1.124e+01,1.041e+01,1.092e+01,1.018e+01,1.067e+01,1.201e+01,1.022e+01,1.170e+01,1.170e+01,1.196e+01,1.261e+01,1.023e+01,1.330e+01,1.228e+01,1.195e+01,1.086e+01,1.213e+01,1.271e+01,1.373e+01,1.350e+01,1.346e+01,1.402e+01,1.428e+01,1.436e+01,1.498e+01,1.205e+01,1.397e+01,1.430e+01,1.217e+01,1.529e+01,1.497e+01,1.397e+01,1.300e+01,1.438e+01,1.344e+01,1.288e+01
1.747e-01,9.500e-01,3.499e-01,1.174e+00,2.017e-01,1.285e+00,1.970e+00,1.632e+00,2.160e+00,1.477e+00,2.583e+00,2.303e+00,2.056e+00,2.642e+00,3.645e+00,3.727e+00,4.603e+00,4.268e+00,3.795e+00,2.777e+00,4.531e+00,5.636e+00,5.688e+00,5.902e+00,4.740e+00,7.197e+00,6.651e+00,6.524e+00,6.147e+00,5.967e+00,9.248e+00,9.080e+00,7.739e+00,8.461e+00,7.070e+00,8.306e+00,8.634e+00,8.850e+00,1.015e+01,8.700e+00,8.549e+00,9.168e+00,9.593e+00,1.210e+01,1.056e+01,9.923e+00,9.310e+00,1.102e+01,1.285e+01,1.271e+01,1.447e+01,1.278e+01,1.119e+01,1.337e+01,1.373e+01,1.364e+01,1.135e+01,1.287e+01,1.415e+01,1.040e+01,1.400e+01,1.355e+01,1.220e+01,1.107e+01,1.325e+01,1.152e+01,1.474e+01
7.682e-01,6.325e-01,1.090e+00,6.574e-01,5.441e-01,1.773e+00,2.042e+00,2.712e+00,2.381e+00,2.080e+00,2.552e+00,4.214e+00,3.555e+00,2.606e+00,3.551e+00,4.552e+00,4.197e+00,4.551e+00,4.109e+00,3.205e+00,3.904e+00,5.761e+00,5.069e+00,5.506e+00,5.451e+00,6.473e+00,7.772e+00,6.465e+00,8.026e+00,7.246e+00,9.217e+00,9.913e+00,9.143e+00,9.130e+00,8.576e+00,8.625e+00,8.856e+00,7.464e+00,9.450e+00,8.905e+00,9.103e+00,1.183e+01,9.827e+00,1.159e+01,1.087e+01,1.063e+01,9.989e+00,1.036e+01,1.226e+01,1.161e+01,1.324e+01,1.250e+01,1.151e+01,1.424e+01,1.181e+01,1.194e+01,1.029e+01,1.352e+01,1.290e+01,1.152e+01,1.496e+01,1.387e+01,1.278e+01,1.110e+01,1.284e+01,1.138e+01,1.365e+01
6.745e-01,8.659e-01,1.011e+00,1.233e+00,6.555e-01,2.027e+00,2.128e+00,2.586e+00,2.481e+00,2.183e+00,3.675e+00,3.573e+00,2.433e+00,3.051e+00,4.114e+00,4.874e+00,4.854e+00,5.324e+00,4.623e+00,3.569e+00,4.474e+00,5.422e+00,5.214e+00,5.807e+00,6.210e+00,7.467e+00,7.777e+00,7.155e+00,6.951e+00,7.335e+00,9.709e+00,9.053e+00,8.925e+00,9.160e+00,9.724e+00,8.357e+00,1.044e+01,8.934e+00,9.747e+00,9.806e+00,1.028e+01,1.066e+01,9.975e+00,1.195e+01,1.095e+01,1.045e+01,9.787e+00,1.142e+01,1.189e+01,1.314e+01,1.400e+01,1.238e+01,1.245e+01,1.458e+01,1.333e+01,1.347e+01,1.175e+01,1.327e+01,1.445e+01,1.304e+01,1.444e+01,1.512e+01,1.410e+01,1.324e+01,1.414e+01,1.378e+01,1.560e+01
5.654e-02,6.682e-01,8.158e-01,7.735e-01,3.124e-01,1.201e+00,1.406e+00,1.941e+00,1.763e+00,1.431e+00,2.757e+00,3.031e+00,2.037e+00,2.673e+00,2.990e+00,4.028e+00,3.751e+00,3.486e+00,4.063e+00,2.692e+00,3.254e+00,5.280e+00,4.242e+00,5.160e+00,3.702e+00,5.386e+00,7.377e+00,6.131e+00,6.272e+00,4.464e+00,7.970e+00,8.049e+00,8.898e+00,8.643e+00,8.213e+00,8.046e+00,8.385e+00,7.389e+00,8.232e+00,6.984e+00,9.080e+00,9.157e+00,8.876e+00,1.017e+01,1.038e+01,1.044e+01,8.623e+00,1.157e+01,1.080e+01,1.173e+01,1.268e+01,1.057e+01,1.240e+01,1.339e+01,1.336e+01,1.232e+01,1.062e+01,1.213e+01,1.326e+01,1.186e+01,1.340e+01,1.282e+01,1.361e+01,1.138e+01,1.130e+01,1.259e+01,1.424e+01
1.910e-01,1.913e-01,9.632e-01,8.256e-01,4.902e-01,2.039e+00,2.011e+00,2.426e+00,2.651e+00,2.984e+00,3.154e+00,3.756e+00,3.130e+00,2.770e+00,3.891e+00,4.185e+00,3.806e+00,3.657e+00,4.363e+00,3.146e+00,3.195e+00,4.852e+00,4.248e+00,5.934e+00,4.924e+00,7.020e+00,5.918e+00,5.060e+00,5.541e+00,6.445e+00,8.794e+00,8.899e+00,8.632e+00,8.616e+00,7.092e+00,7.877e+00,1.047e+01,8.470e+00,8.670e+00,8.754e+00,9.593e+00,1.041e+01,8.901e+00,1.129e+01,1.057e+01,9.786e+00,9.155e+00,1.086e+01,1.191e+01,1.140e+01,1.283e+01,1.135e+01,1.236e+01,1.445e+01,1.281e+01,1.337e+01,1.135e+01,1.285e+01,1.396e+01,1.227e+01,1.349e+01,1.320e+01,1.277e+01,1.102e+01,1.321e+01,1.281e+01,1.365e+01
1.319e-01,7.479e-01,4.636e-01,5.255e-01,3.940e-01,7.753e-01,1.791e+00,2.141e+00,1.751e+00,1.635e+00,3.276e+00,3.401e+00,2.595e+00,3.005e+00,4.295e+00,4.094e+00,4.600e+00,4.486e+00,3.965e+00,3.107e+00,4.307e+00,6.009e+00,5.750e+00,5.926e+00,6.050e+00,7.966e+00,7.950e+00,6.765e+00,7.753e+00,7.454e+00,9.839e+00,9.092e+00,8.320e+00,9.527e+00,8.186e+00,7.500e+00,8.927e+00,8.183e+00,9.664e+00,9.598e+00,9.627e+00,9.125e+00,9.902e+00,1.238e+01,9.497e+00,9.040e+00,9.174e+00,1.072e+01,1.100e+01,1.154e+01,1.330e+01,1.089e+01,1.222e+01,1.439e+01,1.372e+01,1.429e+01,1.192e+01,1.300e+01,1.483e+01,1.375e+01,1.492e+01,1.333e+01,1.320e+01,1.150e+01,1.388e+01,1.372e+01,1.558e+01
6.040e-01,3.264e-01,6.941e-01,6.966e-01,3.958e-01,1.199e+00,1.464e+00,1.375e+00,1.899e+00,1.826e+00,2.814e+00,2.463e+00,2.331e+00,2.642e+00,3.794e+00,4.236e+00,4.622e+00,4.219e+00,3.869e+00,3.099e+00,5.358e+00,5.698e+00,4.912e+00,5.180e+00,5.148e+00,6.503e+00,5.650e+00,5.946e+00,6.486e+00,6.271e+00,8.756e+00,8.757e+00,8.656e+00,8.838e+00,8.135e+00,7.694e+00,1.002e+01,8.091e+00,9.353e+00,8.935e+00,1.008e+01,9.713e+00,1.045e+01,1.186e+01,1.090e+01,1.101e+01,1.017e+01,1.272e+01,1.228e+01,1.214e+01,1.568e+01,1.236e+01,1.281e+01,1.297e+01,1.355e+01,1.433e+01,1.293e+01,1.361e+01,1.499e+01,1.224e+01,1.549e+01,1.378e+01,1.348e+01,1.191e+01,1.426e+01,1.407e+01,1.441e+01
8.339e-01,5.352e-01,1.406e+00,1.148e+00,6.749e-01,2.366e+00,2.262e+00,2.534e+00,2.773e+00,2.978e+00,3.650e+00,4.127e+00,3.423e+00,3.383e+00,4.179e+00,4.583e+00,4.764e+00,5.414e+00,4.868e+00,4.433e+00,5.143e+00,6.134e+00,6.418e+00,7.121e+00,7.484e+00,8.293e+00,8.348e+00,6.699e+00,6.970e+00,7.871e+00,9.987e+00,1.062e+01,9.922e+00,9.782e+00,8.609e+00,9.422e+00,1.100e+01,1.002e+01,1.057e+01,1.033e+01,1.124e+01,1.285e+01,1.152e+01,1.395e+01,1.242e+01,1.189e+01,1.154e+01,1.286e+01,1.377e+01,1.497e+01,1.623e+01,1.394e+01,1.391e+01,1.602e+01,1.529e+01,1.738e+01,1.465e+01,1.646e+01,1.692e+01,1.579e+01,1.905e+01,1.742e+01,1.631e+01,1.551e+01,1.617e+01,1.554e+01,1.810e+01
4.005e-01,1.831e-01,1.066e+00,4.090e-01,3.890e-01,1.296e+00,1.176e+00,1.851e+00,1.730e+00,1.500e+00,1.560e+00,2.460e+00,1.676e+00,1.504e+00,1.920e+00,3.051e+00,1.912e+00,2.811e+00,3.127e+00,1.868e+00,1.961e+00,3.544e+00,2.234e+00,3.875e+00,3.495e+00,4.124e+00,5.306e+00,3.947e+00,5.520e+00,5.193e+00,6.030e+00,6.618e+00,6.702e+00,5.643e+00,6.866e+00,7.127e+00,7.916e+00,5.635e+00,7.270e+00,6.812e+00,8.050e+00,9.664e+00,8.615e+00,8.966e+00,7.805e+00,8.686e+00,8.481e+00,8.831e+00,1.044e+01,9.910e+00,1.129e+01,1.091e+01,1.062e+01,1.155e+01,1.183e+01,1.232e+01,1.165e+01,1.278e+01,1.193e+01,1.275e+01,1.401e+01,1.258e+01,1.199e+01,1.086e+01,1.394e+01,1.219e+01,1.446e+01
5.623e-01,3.628e-01,7.618e-01,9.828e-01,4.804e-01,1.738e+00,1.191e+00,1.678e+00,1.923e+00,1.852e+00,2.254e+00,2.557e+00,2.457e+00,1.856e+00,2.871e+00,2.697e+00,3.076e+00,3.804e+00,3.077e+00,2.755e+00,2.646e+00,3.922e+00,4.020e+00,4.076e+00,4.885e+00,6.799e+00,6.684e+00,5.075e+00,6.149e+00,6.482e+00,7.872e+00,7.440e+00,7.681e+00,7.744e+00,6.825e+00,7.862e+00,8.019e+00,7.851e+00,9.153e+00,8.985e+00,9.208e+00,1.012e+01,8.776e+00,1.076e+01,9.528e+00,9.137e+00,8.994e+00,1.080e+01,1.195e+01,1.113e+01,1.189e+01,1.043e+01,1.246e+01,1.345e+01,1.254e+01,1.305e+01,1.266e+01,1.162e+01,1.533e+01,1.271e+01,1.503e+01,1.422e+01,1.205e+01,1.306e+01,1.359e+01,1.359e+01,1.432e+01
5.778e-01,3.338e-01,9.304e-01,9.256e-01,5.999e-01,1.998e+00,1.993e+00,2.597e+00,3.009e+00,2.560e+00,3.526e+00,3.811e+00,2.921e+00,3.017e+00,3.928e+00,4.339e+00,4.815e+00,5.120e+00,4.393e+00,3.214e+00,4.866e+00,5.379e+00,5.294e+00,6.621e+00,6.135e+00,7.067e+00,7.916e+00,6.882e+00,7.678e+00,7.245e+00,9.688e+00,9.748e+00,1.005e+01,9.085e+00,9.034e+00,9.401e+00,1.085e+01,9.642e+00,1.094e+01,9.876e+00,1.100e+01,1.208e+01,1.111e+01,1.242e+01,1.035e+01,1.135e+01,1.086e+01,1.169e+01,1.229e+01,1.254e+01,1.404e+01,1.333e+01,1.227e+01,1.565e+01,1.470e+01,1.440e+01,1.309e+01,1.561e+01,1.596e+01,1.595e+01,1.835e+01,1.620e+01,1.541e+01,1.501e+01,1.580e+01,1.496e+01,1.750e+01
6.419e-01,4.652e-01,1.045e+00,6.893e-01,3.888e-01,1.439e+00,1.777e+00,1.819e+00,2.134e+00,2.172e+00,2.961e+00,3.451e+00,2.960e+00,2.929e+00,2.864e+00,3.763e+00,3.857e+00,3.844e+00,3.592e+00,3.542e+00,3.777e+00,4.904e+00,4.160e+00,5.161e+00,4.750e+00,6.473e+00,6.531e+00,5.999e+00,6.372e+00,6.817e+00,9.069e+00,7.809e+00,8.749e+00,8.647e+00,7.809e+00,8.119e+00,8.383e+00,8.420e+00,9.402e+00,8.678e+00,9.364e+00,9.511e+00,8.876e+00,9.783e+00,9.244e+00,9.901e+00,8.947e+00,1.090e+01,1.109e+01,1.134e+01,1.353e+01,1.194e+01,1.212e+01,1.396e+01,1.406e+01,1.274e+01,1.221e+01,1.272e+01,1.497e+01,1.353e+01,1.650e+01,1.377e+01,1.432e+01,1.282e+01,1.356e+01,1.362e+01,1.590e+01
6.966e-01,4.189e-01,1.510e+00,1.036e+00,7.361e-01,2.608e+00,2.580e+00,2.683e+00,2.508e+00,2.871e+00,2.883e+00,3.617e+00,3.373e+00,2.616e+00,4.016e+00,4.059e+00,4.038e+00,4.050e+00,4.140e+00,3.574e+00,3.651e+00,5.232e+00,4.728e+00,5.959e+00,5.584e+00,7.341e+00,7.089e+00,6.207e+00,6.324e+00,6.610e+00,8.743e+00,8.411e+00,8.734e+00,8.099e+00,7.756e+00,7.993e+00,9.829e+00,8.483e+00,1.001e+01,9.226e+00,9.633e+00,1.074e+01,9.694e+00,1.061e+01,8.862e+00,1.047e+01,9.817e+00,1.035e+01,1.294e+01,1.193e+01,1.443e+01,1.314e+01,1.298e+01,1.456e+01,1.356e+01,1.586e+01,1.329e+01,1.363e+01,1.513e+01,1.429e+01,1.686e+01,1.614e+01,1.431e+01,1.276e+01,1.720e+01,1.382e+01,1.665e+01
9.289e-01,6.029e-01,9.852e-01,6.118e-01,5.695e-01,1.322e+00,1.584e+00,2.031e+00,1.775e+00,1.834e+00,2.968e+00,3.453e+00,2.413e+00,2.523e+00,3.305e+00,3.917e+00,4.124e+00,4.531e+00,3.620e+00,3.481e+00,4.583e+00,5.295e+00,4.964e+00,4.938e+00,5.156e+00,5.995e+00,6.538e+00,6.029e+00,6.912e+00,6.375e+00,8.654e+00,9.017e+00,7.910e+00,9.652e+00,9.124e+00,8.178e+00,9.347e+00,8.505e+00,1.010e+01,8.996e+00,1.036e+01,1.046e+01,9.328e+00,1.191e+01,1.062e+01,1.049e+01,1.090e+01,1.205e+01,1.156e+01,1.237e+01,1.383e+01,9.854e+00,1.300e+01,1.604e+01,1.468e+01,1.268e+01,1.217e+01,1.475e+01,1.545e+01,1.436e+01,1.740e+01,1.462e+01,1.474e+01,1.385e+01,1.575e+01,1.494e+01,1.674e+01
7.229e-01,6.661e-01,1.335e+00,7.988e-01,6.777e-01,1.768e+00,2.035e+00,2.238e+00,1.542e+00,2.453e+00,2.797e+00,3.323e+00,2.486e+00,2.261e+00,3.601e+00,4.038e+00,4.492e+00,4.667e+00,3.819e+00,4.120e+00,5.068e+00,5.747e+00,5.898e+00,5.791e+00,5.340e+00,6.652e+00,7.783e+00,6.504e+00,7.389e+00,6.216e+00,9.333e+00,9.832e+00,9.154e+00,9.111e+00,9.704e+00,9.477e+00,1.065e+01,8.359e+00,1.026e+01,9.367e+00,8.976e+00,1.121e+01,9.018e+00,1.250e+01,1.011e+01,1.056e+01,9.880e+00,9.551e+00,1.261e+01,1.287e+01,1.419e+01,1.166e+01,1.335e+01,1.573e+01,1.349e+01,1.437e+01,1.189e+01,1.504e+01,1.584e+01,1.382e+01,1.690e+01,1.570e+01,1.412e+01,1.477e+01,1.702e+01,1.588e+01,1.773e+01
7.454e-01,1.083e+00,1.623e+00,1.529e+00,7.812e-01,2.771e+00,2.804e+00,3.141e+00,2.708e+00,3.316e+00,4.072e+00,4.923e+00,3.819e+00,3.675e+00,4.596e+00,5.198e+00,5.637e+00,5.496e+00,5.025e+00,4.434e+00,5.548e+00,7.318e+00,7.050e+00,7.766e+00,6.866e+00,8.653e+00,9.460e+00,7.881e+00,8.150e+00,7.438e+00,1.112e+01,1.124e+01,1.126e+01,1.051e+01,9.238e+00,8.971e+00,1.136e+01,1.033e+01,1.092e+01,1.029e+01,1.104e+01,1.161e+01,1.111e+01,1.323e+01,1.198e+01,1.191e+01,1.088e+01,1.282e+01,1.338e+01,1.297e+01,1.445e+01,1.382e+01,1.374e+01,1.630e+01,1.464e+01,1.479e+01,1.357e+01,1.597e+01,1.708e+01,1.550e+01,1.918e+01,1.638e+01,1.571e+01,1.572e+01,1.789e+01,1.680e+01,1.872e+01
5.838e-01,5.017e-01,1.275e+00,9.045e-01,7.177e-01,2.110e+00,2.457e+00,2.554e+00,2.249e+00,2.656e+00,3.215e+00,3.372e+00,2.553e+00,2.699e+00,4.044e+00,4.217e+00,4.324e+00,4.143e+00,4.395e+00,4.032e+00,4.621e+00,5.341e+00,4.373e+00,5.144e+00,5.522e+00,6.368e+00,6.281e+00,5.538e+00,6.657e+00,6.319e+00,8.106e+00,7.718e+00,8.012e+00,7.615e+00,8.116e+00,7.488e+00,9.519e+00,8.270e+00,9.046e+00,9.283e+00,1.030e+01,1.098e+01,9.495e+00,1.070e+01,8.981e+00,1.060e+01,1.047e+01,9.884e+00,1.219e+01,1.197e+01,1.374e+01,1.102e+01,1.201e+01,1.484e+01,1.394e+01,1.469e+01,1.242e+01,1.393e+01,1.460e+01,1.495e+01,1.750e+01,1.463e+01,1.390e+01,1.488e+01,1.664e+01,1.483e+01,1.820e+01
2.355e-01,1.406e-01,3.341e-01,4.807e-01,2.825e-01,8.727e-01,1.141e+00,1.315e+00,1.967e+00,1.778e+00,3.648e+00,3.135e+00,2.747e+00,3.407e+00,3.630e+00,3.904e+00,5.051e+00,4.101e+00,3.948e+00,3.872e+00,4.715e+00,5.667e+00,5.471e+00,5.860e+00,5.503e+00,7.197e+00,6.632e+00,5.683e+00,5.888e+00,5.989e+00,8.200e+00,7.638e+00,7.853e+00,8.303e+00,6.857e+00,7.801e+00,9.021e+00,9.381e+00,9.528e+00,8.724e+00,9.070e+00,9.461e+00,9.084e+00,1.121e+01,1.066e+01,8.857e+00,8.362e+00,1.035e+01,1.032e+01,1.114e+01,1.269e+01,1.017e+01,1.149e+01,1.357e+01,1.246e+01,1.404e+01,1.123e+01,1.251e+01,1.402e+01,1.340e+01,1.469e+01,1.355e+01,1.314e+01,1.418e+01,1.598e+01,1.419e+01,1.806e+01
