3.395e-01,5.258e-01,5.052e-01,7.258e-01,8.931e-01,7.011e-01,2.348e-01,1.198e-01,6.774e-02,3.194e-02,6.437e-02,9.029e-01,6.513e-01,5.528e-02,4.601e-01,9.080e-01,1.453e-03,4.991e-01,5.457e-01,2.234e-01,3.279e-01,4.736e-01,8.757e-01,9.319e-02,4.317e-02,8.860e-01,8.913e-01,5.992e-01,9.892e-01,1.144e-01,2.399e-01,7.189e-01,6.995e-01,8.129e-01,8.499e-01,2.326e-01,8.642e-01,6.237e-01,3.351e-01,2.002e-01,7.680e-01,7.906e-01,1.171e-01,2.806e-03,7.228e-01,4.203e-01,8.713e-01,1.922e-01,5.639e-01,9.199e-01,4.289e-01,2.010e-01,9.041e-01,1.729e-01,6.461e-01,7.543e-01,8.040e-01,5.887e-02,5.716e-01
3.182e-01,1.082e+00,1.205e+00,1.562e+00,1.809e+00,1.605e+00,6.991e-01,8.793e-01,9.106e-02,6.226e-01,3.702e-01,9.724e-01,1.115e+00,8.280e-01,6.825e-01,1.222e+00,7.926e-01,1.411e+00,6.654e-01,3.968e-01,8.669e-01,9.175e-01,1.167e+00,4.273e-01,9.329e-01,1.043e+00,9.258e-01,1.177e+00,1.005e+00,6.809e-01,1.131e+00,1.493e+00,1.553e+00,1.214e+00,1.412e+00,5.865e-01,1.288e+00,8.188e-01,8.400e-01,6.674e-01,9.262e-01,9.690e-01,7.074e-01,2.200e-01,1.345e+00,7.513e-01,1.028e+00,3.363e-01,1.388e+00,1.091e+00,7.282e-01,6.631e-01,1.267e+00,1.150e+00,8.717e-01,1.286e+00,7.791e-01,7.636e-01,1.002e+00
7.693e-02,7.034e-01,1.517e+00,1.298e+00,1.514e+00,1.624e+00,1.369e+00,9.397e-01,1.037e+00,1.155e+00,9.518e-01,9.908e-01,1.424e+00,1.247e+00,1.118e+00,1.276e+00,7.931e-01,1.556e+00,1.228e+00,1.184e+00,1.437e+00,8.854e-01,5.432e-01,3.978e-01,1.783e+00,9.666e-01,7.689e-01,1.083e+00,1.059e+00,8.454e-01,1.239e+00,1.612e+00,1.803e+00,1.241e+00,1.781e+00,5.967e-01,7.281e-01,4.018e-01,6.389e-01,1.382e+00,1.091e+00,4.339e-01,9.789e-01,9.403e-01,1.203e+00,1.021e+00,7.770e-01,9.535e-01,1.414e+00,1.015e+00,9.234e-01,1.351e+00,7.405e-01,1.423e+00,4.297e-01,1.254e+00,5.596e-01,1.135e+00,1.109e+00
1.595e-01,4.451e-01,1.132e+00,1.351e+00,1.847e+00,2.102e+00,1.643e+00,7.854e-01,1.574e+00,1.345e+00,1.353e+00,1.584e+00,1.500e+00,1.453e+00,1.689e+00,2.081e+00,3.475e-01,1.550e+00,2.097e+00,1.608e+00,1.444e+00,9.040e-01,1.525e+00,8.648e-01,1.654e+00,1.075e+00,1.814e+00,9.185e-01,1.928e+00,6.994e-01,6.963e-01,1.666e+00,1.824e+00,1.962e+00,2.436e+00,8.635e-01,1.025e+00,6.464e-01,9.605e-01,1.448e+00,1.654e+00,8.597e-01,6.615e-01,1.269e+00,1.658e+00,1.809e+00,1.725e+00,1.434e+00,1.356e+00,1.823e+00,8.850e-01,1.729e+00,1.256e+00,1.251e+00,1.166e+00,1.653e+00,1.506e+00,1.077e+00,1.215e+00
1.762e-01,6.141e-01,8.203e-01,1.280e+00,1.918e+00,2.585e+00,1.704e+00,1.125e+00,1.361e+00,1.470e+00,9.725e-01,1.599e+00,1.095e+00,1.143e+00,1.239e+00,2.417e+00,1.143e+00,2.155e+00,1.868e+00,1.088e+00,1.662e+00,7.827e-01,1.987e+00,9.590e-01,1.338e+00,1.294e+00,1.856e+00,1.767e+00,2.218e+00,6.621e-01,1.618e+00,1.601e+00,1.732e+00,1.455e+00,1.655e+00,8.079e-01,1.922e+00,1.380e+00,1.847e+00,9.571e-01,1.906e+00,1.446e+00,1.152e+00,9.044e-01,1.887e+00,2.107e+00,1.865e+00,1.717e+00,1.260e+00,1.774e+00,1.391e+00,1.413e+00,2.003e+00,1.206e+00,2.020e+00,1.837e+00,1.215e+00,1.516e+00,1.392e+00
1.520e-01,6.092e-01,8.859e-01,1.202e+00,1.714e+00,2.685e+00,1.787e+00,1.963e+00,1.699e+00,1.547e+00,1.606e+00,1.873e+00,2.044e+00,1.596e+00,1.149e+00,2.066e+00,1.541e+00,1.951e+00,2.516e+00,1.062e+00,1.755e+00,1.483e+00,2.163e+00,1.468e+00,1.326e+00,1.407e+00,2.213e+00,1.544e+00,2.596e+00,7.723e-01,2.064e+00,1.963e+00,1.852e+00,2.245e+00,2.256e+00,1.071e+00,1.626e+00,1.449e+00,1.801e+00,1.294e+00,2.104e+00,1.481e+00,1.510e+00,1.728e+00,2.409e+00,2.298e+00,2.373e+00,1.706e+00,1.791e+00,1.866e+00,1.279e+00,1.487e+00,2.623e+00,1.801e+00,2.246e+00,2.400e+00,1.230e+00,1.880e+00,1.309e+00
2.751e-01,4.298e-01,7.273e-01,1.156e+00,1.701e+00,2.132e+00,2.314e+00,1.112e+00,2.412e+00,1.738e+00,1.530e+00,1.897e+00,2.028e+00,1.973e+00,1.581e+00,2.528e+00,5.406e-01,1.687e+00,2.438e+00,2.182e+00,1.484e+00,1.375e+00,2.039e+00,1.805e+00,1.118e+00,1.987e+00,2.777e+00,1.762e+00,2.700e+00,1.450e+00,1.768e+00,1.614e+00,2.044e+00,2.568e+00,2.354e+00,1.558e+00,1.484e+00,1.093e+00,1.439e+00,1.600e+00,2.321e+00,1.773e+00,9.836e-01,1.198e+00,2.383e+00,2.152e+00,2.318e+00,2.329e+00,1.259e+00,2.846e+00,1.928e+00,1.712e+00,2.604e+00,1.761e+00,2.688e+00,2.238e+00,2.571e+00,1.382e+00,1.222e+00
8.082e-02,6.025e-01,1.214e+00,1.135e+00,1.378e+00,1.632e+00,1.582e+00,1.763e+00,2.284e+00,2.032e+00,1.977e+00,1.885e+00,2.293e+00,2.160e+00,1.568e+00,2.119e+00,1.385e+00,1.853e+00,1.489e+00,1.757e+00,2.243e+00,1.869e+00,1.368e+00,8.728e-01,1.639e+00,1.587e+00,1.962e+00,2.114e+00,2.128e+00,1.367e+00,1.615e+00,2.058e+00,2.644e+00,1.718e+00,2.633e+00,9.977e-01,9.023e-01,6.058e-01,1.750e+00,2.295e+00,1.326e+00,1.135e+00,1.485e+00,1.369e+00,2.283e+00,1.677e+00,1.282e+00,2.096e+00,2.238e+00,2.101e+00,1.789e+00,1.830e+00,2.129e+00,2.019e+00,1.222e+00,2.335e+00,9.867e-01,1.909e+00,1.652e+00
1.455e-01,5.876e-01,7.845e-01,1.091e+00,1.430e+00,1.844e+00,1.518e+00,1.392e+00,1.858e+00,1.433e+00,1.389e+00,1.987e+00,1.706e+00,2.292e+00,1.441e+00,2.384e+00,1.147e+00,1.888e+00,2.560e+00,2.112e+00,1.920e+00,1.571e+00,2.362e+00,1.743e+00,1.883e+00,1.415e+00,1.809e+00,1.541e+00,1.963e+00,1.849e+00,2.107e+00,1.617e+00,2.124e+00,2.443e+00,2.102e+00,1.825e+00,1.245e+00,1.249e+00,2.072e+00,1.378e+00,1.853e+00,1.302e+00,1.297e+00,1.426e+00,2.594e+00,1.645e+00,1.868e+00,1.618e+00,2.080e+00,2.225e+00,1.907e+00,1.409e+00,2.161e+00,1.731e+00,2.683e+00,2.391e+00,1.553e+00,2.239e+00,1.635e+00
2.197e-01,7.175e-01,8.397e-01,1.334e+00,1.864e+00,2.574e+00,1.758e+00,2.004e+00,2.423e+00,2.421e+00,2.126e+00,3.529e+00,2.493e+00,3.550e+00,2.742e+00,3.900e+00,2.097e+00,2.569e+00,3.642e+00,2.314e+00,2.989e+00,2.239e+00,3.984e+00,2.553e+00,2.710e+00,2.609e+00,2.908e+00,2.447e+00,3.780e+00,2.454e+00,2.817e+00,2.693e+00,3.730e+00,2.924e+00,3.735e+00,2.721e+00,2.643e+00,2.383e+00,3.923e+00,2.338e+00,3.096e+00,2.379e+00,2.652e+00,2.516e+00,4.412e+00,2.471e+00,3.138e+00,2.376e+00,3.174e+00,3.019e+00,2.957e+00,2.320e+00,3.702e+00,2.442e+00,4.335e+00,3.296e+00,2.590e+00,3.807e+00,2.744e+00
2.070e-01,5.071e-01,8.536e-01,9.850e-01,1.407e+00,1.953e+00,2.150e+00,1.787e+00,3.380e+00,2.595e+00,2.752e+00,3.977e+00,3.494e+00,4.102e+00,2.998e+00,3.997e+00,2.038e+00,2.743e+00,4.084e+00,3.845e+00,3.425e+00,2.562e+00,3.528e+00,3.024e+00,2.588e+00,3.240e+00,3.304e+00,3.156e+00,4.491e+00,2.978e+00,3.090e+00,3.210e+00,4.014e+00,3.298e+00,4.282e+00,2.676e+00,2.811e+00,2.505e+00,4.391e+00,3.307e+00,3.247e+00,3.076e+00,2.761e+00,2.586e+00,4.152e+00,2.745e+00,3.477e+00,3.467e+00,3.374e+00,4.412e+00,4.372e+00,2.703e+00,3.857e+00,2.947e+00,4.473e+00,3.705e+00,2.874e+00,4.267e+00,3.132e+00
4.055e-03,2.099e-01,8.803e-01,6.396e-01,9.682e-01,1.917e+00,2.089e+00,1.848e+00,2.827e+00,2.195e+00,2.375e+00,3.330e+00,3.346e+00,3.793e+00,2.540e+00,2.626e+00,2.346e+00,2.363e+00,4.147e+00,3.351e+00,3.367e+00,2.710e+00,2.696e+00,2.210e+00,2.502e+00,2.649e+00,2.421e+00,2.898e+00,3.860e+00,1.890e+00,3.000e+00,3.392e+00,3.627e+00,3.066e+00,4.183e+00,2.022e+00,1.837e+00,2.120e+00,3.618e+00,3.515e+00,2.771e+00,2.731e+00,2.395e+00,3.442e+00,3.449e+00,2.354e+00,3.510e+00,3.449e+00,2.736e+00,3.007e+00,3.175e+00,2.284e+00,3.616e+00,2.743e+00,3.161e+00,3.201e+00,2.648e+00,3.085e+00,2.569e+00
1.341e-01,3.776e-01,7.972e-01,8.339e-01,1.228e+00,2.070e+00,1.850e+00,2.137e+00,3.223e+00,2.475e+00,2.920e+00,4.241e+00,4.613e+00,5.145e+00,3.455e+00,4.429e+00,2.597e+00,3.438e+00,4.581e+00,4.212e+00,3.823e+00,3.409e+00,4.123e+00,2.978e+00,3.142e+00,3.731e+00,3.938e+00,3.626e+00,5.317e+00,2.714e+00,3.032e+00,4.463e+00,4.638e+00,4.045e+00,5.231e+00,3.095e+00,3.206e+00,3.320e+00,5.147e+00,4.332e+00,3.497e+00,3.590e+00,3.787e+00,4.275e+00,4.482e+00,3.410e+00,4.780e+00,3.636e+00,4.523e+00,4.049e+00,3.898e+00,2.814e+00,5.065e+00,3.696e+00,4.638e+00,4.768e+00,3.154e+00,4.423e+00,4.036e+00
3.045e-02,1.544e-01,5.264e-01,4.043e-01,6.214e-01,1.316e+00,1.435e+00,1.708e+00,2.414e+00,2.171e+00,2.370e+00,2.961e+00,3.734e+00,4.107e+00,3.397e+00,3.720e+00,2.176e+00,3.019e+00,3.929e+00,3.087e+00,3.225e+00,2.653e+00,2.956e+00,2.939e+00,3.161e+00,3.464e+00,3.087e+00,2.692e+00,5.085e+00,2.480e+00,2.267e+00,4.181e+00,3.999e+00,3.398e+00,4.563e+00,3.271e+00,2.753e+00,3.298e+00,4.486e+00,3.930e+00,3.355e+00,3.393e+00,3.635e+00,3.975e+00,4.327e+00,2.759e+00,3.869e+00,3.455e+00,3.599e+00,3.270e+00,3.009e+00,3.055e+00,4.253e+00,3.374e+00,3.725e+00,3.850e+00,2.741e+00,4.062e+00,3.708e+00
1.682e-01,6.424e-01,9.492e-01,1.188e+00,1.589e+00,2.099e+00,1.954e+00,1.945e+00,2.896e+00,2.303e+00,2.407e+00,3.708e+00,3.967e+00,4.901e+00,3.772e+00,4.794e+00,3.246e+00,4.380e+00,5.038e+00,4.736e+00,4.476e+00,4.259e+00,4.736e+00,3.535e+00,3.456e+00,4.084e+00,3.762e+00,4.411e+00,4.792e+00,3.579e+00,3.873e+00,4.990e+00,5.375e+00,4.839e+00,4.962e+00,3.578e+00,3.367e+00,3.493e+00,5.980e+00,4.922e+00,3.668e+00,4.213e+00,3.717e+00,3.715e+00,5.443e+00,3.579e+00,5.205e+00,4.157e+00,4.649e+00,4.205e+00,4.554e+00,3.625e+00,5.005e+00,4.536e+00,5.272e+00,5.317e+00,4.100e+00,4.094e+00,4.505e+00
1.929e-01,5.527e-01,6.320e-01,9.551e-01,1.443e+00,1.986e+00,1.898e+00,1.192e+00,2.173e+00,2.084e+00,1.527e+00,2.963e+00,2.754e+00,3.794e+00,3.385e+00,4.830e+00,3.121e+00,4.822e+00,5.025e+00,3.981e+00,3.693e+00,2.995e+00,3.807e+00,4.036e+00,3.463e+00,4.533e+00,3.044e+00,4.476e+00,5.342e+00,3.142e+00,3.940e+00,4.301e+00,4.624e+00,4.446e+00,3.995e+00,4.364e+00,4.419e+00,4.010e+00,5.453e+00,3.506e+00,4.608e+00,4.638e+00,4.289e+00,3.569e+00,5.490e+00,3.111e+00,4.656e+00,3.970e+00,3.750e+00,4.190e+00,4.487e+00,3.844e+00,4.663e+00,4.198e+00,5.377e+00,4.418e+00,4.174e+00,4.667e+00,4.035e+00
2.114e-01,4.044e-01,9.758e-01,1.071e+00,1.600e+00,2.254e+00,1.855e+00,1.212e+00,2.270e+00,1.934e+00,1.763e+00,3.324e+00,3.123e+00,3.618e+00,3.212e+00,4.007e+00,2.766e+00,3.383e+00,5.105e+00,4.007e+00,3.998e+00,3.236e+00,3.797e+00,2.736e+00,2.948e+00,4.395e+00,3.470e+00,3.997e+00,4.758e+00,2.370e+00,2.557e+00,3.998e+00,4.286e+00,4.036e+00,4.538e+00,3.707e+00,3.237e+00,2.893e+00,4.162e+00,3.660e+00,3.684e+00,4.160e+00,3.790e+00,3.859e+00,4.519e+00,3.018e+00,5.195e+00,3.595e+00,3.777e+00,3.505e+00,3.274e+00,3.408e+00,5.103e+00,3.271e+00,4.468e+00,4.164e+00,3.820e+00,3.821e+00,3.471e+00
2.633e-01,4.115e-01,6.706e-01,7.782e-01,1.261e+00,1.905e+00,1.795e+00,1.471e+00,2.962e+00,2.240e+00,2.210e+00,4.288e+00,3.306e+00,3.895e+00,3.533e+00,4.714e+00,3.408e+00,5.018e+00,6.279e+00,4.570e+00,4.641e+00,4.191e+00,4.583e+00,3.606e+00,2.957e+00,5.417e+00,4.195e+00,5.360e+00,5.919e+00,3.619e+00,4.211e+00,4.883e+00,5.742e+00,5.188e+00,4.976e+00,3.739e+00,4.515e+00,4.256e+00,6.149e+00,4.818e+00,4.700e+00,5.494e+00,4.193e+00,3.751e+00,6.176e+00,3.681e+00,5.762e+00,4.643e+00,4.505e+00,4.928e+00,5.712e+00,4.330e+00,5.982e+00,3.846e+00,6.210e+00,4.876e+00,5.187e+00,5.101e+00,5.000e+00
3.170e-01,6.311e-01,9.071e-01,1.241e+00,1.818e+00,2.567e+00,1.954e+00,1.743e+00,2.630e+00,2.180e+00,2.225e+00,4.128e+00,3.662e+00,4.166e+00,3.690e+00,5.056e+00,3.787e+00,4.662e+00,7.073e+00,5.260e+00,5.484e+00,4.392e+00,5.447e+00,5.205e+00,3.764e+00,6.018e+00,4.249e+00,5.936e+00,6.827e+00,3.739e+00,4.539e+00,5.228e+00,6.148e+00,5.814e+00,5.267e+00,5.368e+00,4.813e+00,4.197e+00,6.112e+00,4.938e+00,5.038e+00,5.276e+00,4.950e+00,4.525e+00,6.345e+00,4.723e+00,6.558e+00,4.347e+00,4.919e+00,5.343e+00,5.137e+00,4.816e+00,6.975e+00,4.734e+00,6.414e+00,5.620e+00,5.769e+00,5.922e+00,4.589e+00
3.705e-02,1.160e-01,6.892e-01,6.555e-01,1.159e+00,2.138e+00,2.117e+00,1.597e+00,3.044e+00,2.404e+00,2.554e+00,3.507e+00,3.483e+00,4.021e+00,3.723e+00,4.574e+00,3.270e+00,4.363e+00,6.838e+00,5.630e+00,6.238e+00,3.867e+00,4.304e+00,5.409e+00,4.530e+00,5.611e+00,4.483e+00,4.977e+00,6.668e+00,3.778e+00,3.731e+00,5.891e+00,5.892e+00,5.278e+00,5.041e+00,5.640e+00,4.562e+00,4.526e+00,6.341e+00,5.201e+00,5.456e+00,5.166e+00,5.455e+00,4.842e+00,6.536e+00,5.208e+00,6.667e+00,5.224e+00,5.281e+00,5.563e+00,4.830e+00,5.101e+00,6.407e+00,4.487e+00,6.213e+00,5.151e+00,4.968e+00,6.201e+00,4.668e+00
2.062e-01,5.746e-01,6.667e-01,1.109e+00,1.450e+00,1.575e+00,1.273e+00,9.283e-01,1.437e+00,1.584e+00,1.622e+00,2.935e+00,3.196e+00,4.360e+00,3.640e+00,4.465e+00,3.569e+00,4.600e+00,6.451e+00,5.328e+00,5.262e+00,4.824e+00,5.127e+00,6.557e+00,5.018e+00,6.673e+00,4.857e+00,5.657e+00,6.589e+00,5.469e+00,4.705e+00,6.369e+00,6.468e+00,5.967e+00,5.712e+00,7.264e+00,6.584e+00,4.918e+00,6.710e+00,5.189e+00,6.346e+00,5.796e+00,6.118e+00,4.579e+00,6.986e+00,5.257e+00,7.280e+00,3.809e+00,5.963e+00,5.745e+00,5.947e+00,5.935e+00,6.136e+00,6.082e+00,7.471e+00,5.601e+00,7.120e+00,7.021e+00,4.914e+00
6.648e-02,5.872e-01,1.136e+00,1.103e+00,1.421e+00,1.781e+00,1.758e+00,1.280e+00,1.845e+00,2.007e+00,1.855e+00,2.858e+00,3.121e+00,3.902e+00,3.271e+00,3.654e+00,3.620e+00,4.549e+00,5.566e+00,4.654e+00,4.982e+00,4.341e+00,4.582e+00,6.052e+00,5.144e+00,5.773e+00,3.887e+00,6.202e+00,6.031e+00,4.915e+00,4.836e+00,6.408e+00,6.940e+00,5.681e+00,5.623e+00,5.055e+00,5.499e+00,4.639e+00,6.871e+00,5.735e+00,5.863e+00,5.527e+00,5.613e+00,3.969e+00,5.928e+00,4.805e+00,5.686e+00,4.863e+00,5.658e+00,5.467e+00,5.501e+00,5.077e+00,5.315e+00,5.801e+00,5.738e+00,4.552e+00,6.076e+00,5.658e+00,4.469e+00
1.136e-02,5.129e-01,1.214e+00,1.206e+00,1.607e+00,2.288e+00,2.424e+00,2.134e+00,3.363e+00,2.948e+00,2.672e+00,3.618e+00,3.535e+00,4.945e+00,3.840e+00,4.553e+00,3.644e+00,4.425e+00,5.947e+00,5.213e+00,5.761e+00,4.935e+00,5.853e+00,5.784e+00,5.865e+00,5.775e+00,4.864e+00,5.958e+00,5.851e+00,5.855e+00,4.932e+00,5.846e+00,7.414e+00,5.723e+00,6.276e+00,5.769e+00,4.806e+00,4.335e+00,6.793e+00,6.632e+00,5.210e+00,5.608e+00,5.351e+00,5.039e+00,7.031e+00,4.720e+00,6.341e+00,5.950e+00,5.643e+00,5.232e+00,5.735e+00,5.414e+00,6.575e+00,5.340e+00,7.131e+00,6.242e+00,6.286e+00,6.334e+00,5.385e+00
2.962e-02,2.765e-01,7.702e-01,9.837e-01,1.522e+00,2.331e+00,2.256e+00,1.872e+00,3.226e+00,2.761e+00,2.760e+00,3.365e+00,3.834e+00,4.747e+00,4.263e+00,5.353e+00,3.118e+00,5.455e+00,6.404e+00,5.144e+00,5.313e+00,4.830e+00,6.634e+00,7.563e+00,7.128e+00,6.672e+00,6.483e+00,6.808e+00,8.095e+00,7.507e+00,4.808e+00,7.347e+00,8.736e+00,7.487e+00,7.523e+00,7.067e+00,6.743e+00,6.701e+00,8.884e+00,7.435e+00,7.202e+00,7.809e+00,6.714e+00,5.777e+00,7.400e+00,6.639e+00,7.861e+00,7.359e+00,6.614e+00,7.456e+00,6.176e+00,7.239e+00,8.334e+00,6.381e+00,7.758e+00,7.370e+00,7.858e+00,7.706e+00,6.641e+00
2.530e-01,6.063e-01,1.015e+00,1.377e+00,1.999e+00,2.680e+00,2.247e+00,2.020e+00,3.091e+00,2.667e+00,2.750e+00,4.083e+00,3.701e+00,4.085e+00,3.811e+00,4.847e+00,3.770e+00,4.929e+00,6.488e+00,4.990e+00,5.891e+00,5.098e+00,5.195e+00,5.620e+00,5.461e+00,6.561e+00,6.545e+00,6.465e+00,7.486e+00,5.006e+00,5.531e+00,6.812e+00,8.128e+00,6.336e+00,6.586e+00,6.168e+00,6.848e+00,5.419e+00,8.426e+00,6.329e+00,6.603e+00,6.770e+00,6.064e+00,4.771e+00,8.313e+00,6.418e+00,8.221e+00,5.864e+00,6.219e+00,7.134e+00,6.430e+00,6.403e+00,8.013e+00,6.197e+00,7.421e+00,6.554e+00,7.316e+00,6.998e+00,5.326e+00
3.686e-02,7.273e-02,4.707e-01,3.123e-01,6.215e-01,1.532e+00,1.730e+00,1.394e+00,2.267e+00,1.865e+00,1.981e+00,3.073e+00,3.603e+00,4.005e+00,3.505e+00,3.972e+00,3.666e+00,4.987e+00,6.881e+00,4.753e+00,4.868e+00,4.639e+00,4.910e+00,5.908e+00,5.157e+00,6.998e+00,5.975e+00,6.480e+00,7.524e+00,5.819e+00,5.220e+00,6.889e+00,7.725e+00,6.739e+00,6.735e+00,6.248e+00,6.212e+00,6.569e+00,7.722e+00,6.860e+00,6.035e+00,7.139e+00,6.539e+00,6.399e+00,7.267e+00,6.140e+00,8.266e+00,6.350e+00,5.793e+00,5.756e+00,6.438e+00,6.432e+00,7.623e+00,6.499e+00,8.020e+00,6.851e+00,7.619e+00,7.740e+00,6.038e+00
3.455e-02,3.334e-01,1.002e+00,9.515e-01,1.451e+00,2.228e+00,2.325e+00,1.433e+00,2.777e+00,2.235e+00,1.944e+00,2.317e+00,2.658e+00,2.991e+00,3.112e+00,4.321e+00,3.026e+00,4.096e+00,5.301e+00,4.786e+00,5.322e+00,3.822e+00,4.582e+00,5.630e+00,5.128e+00,5.404e+00,5.599e+00,6.073e+00,6.594e+00,5.581e+00,4.759e+00,5.733e+00,7.339e+00,6.298e+00,5.065e+00,6.013e+00,5.459e+00,4.825e+00,6.991e+00,6.102e+00,6.126e+00,5.938e+00,5.867e+00,4.651e+00,6.417e+00,6.256e+00,6.290e+00,6.003e+00,5.460e+00,6.434e+00,4.700e+00,6.294e+00,6.145e+00,5.582e+00,6.096e+00,5.701e+00,6.041e+00,6.037e+00,4.499e+00
2.461e-01,5.582e-01,7.174e-01,1.104e+00,1.617e+00,2.054e+00,2.039e+00,1.066e+00,2.233e+00,1.697e+00,1.458e+00,2.971e+00,3.345e+00,4.178e+00,3.311e+00,4.704e+00,3.671e+00,5.758e+00,6.708e+00,5.682e+00,5.005e+00,5.380e+00,6.237e+00,6.702e+00,6.413e+00,7.891e+00,7.549e+00,8.364e+00,7.955e+00,7.991e+00,7.016e+00,8.385e+00,9.560e+00,8.696e+00,7.420e+00,7.971e+00,8.289e+00,8.095e+00,9.207e+00,7.634e+00,7.684e+00,9.759e+00,7.912e+00,6.341e+00,9.093e+00,6.912e+00,1.028e+01,8.146e+00,7.168e+00,7.523e+00,8.055e+00,7.500e+00,8.979e+00,7.932e+00,9.739e+00,7.862e+00,9.282e+00,7.744e+00,7.457e+00
2.475e-01,4.613e-01,1.139e+00,1.269e+00,1.860e+00,2.644e+00,2.254e+00,1.984e+00,3.477e+00,2.648e+00,3.080e+00,4.680e+00,4.803e+00,5.192e+00,4.408e+00,5.413e+00,3.427e+00,5.052e+00,7.150e+00,5.947e+00,6.336e+00,5.648e+00,6.431e+00,6.482e+00,7.168e+00,7.589e+00,8.882e+00,7.314e+00,9.371e+00,7.807e+00,6.170e+00,9.452e+00,1.057e+01,9.304e+00,1.022e+01,8.517e+00,8.221e+00,8.841e+00,1.025e+01,8.333e+00,8.796e+00,9.331e+00,8.839e+00,8.747e+00,1.053e+01,8.772e+00,1.109e+01,8.959e+00,9.224e+00,8.977e+00,7.525e+00,8.601e+00,9.822e+00,7.987e+00,9.360e+00,8.938e+00,9.773e+00,9.529e+00,7.334e+00
2.928e-01,9.053e-01,1.566e+00,1.648e+00,2.058e+00,2.627e+00,1.881e+00,2.156e+00,2.216e+00,1.856e+00,2.269e+00,3.347e+00,3.674e+00,3.361e+00,3.188e+00,3.636e+00,3.197e+00,3.900e+00,6.104e+00,4.406e+00,5.778e+00,5.381e+00,5.880e+00,6.344e+00,6.616e+00,6.461e+00,7.474e+00,7.070e+00,7.937e+00,8.312e+00,7.238e+00,9.321e+00,1.102e+01,8.829e+00,9.323e+00,8.141e+00,7.092e+00,7.538e+00,8.893e+00,8.142e+00,8.255e+00,8.904e+00,7.359e+00,7.131e+00,9.818e+00,8.367e+00,9.888e+00,8.223e+00,8.029e+00,8.200e+00,6.944e+00,8.251e+00,9.035e+00,8.320e+00,8.420e+00,8.565e+00,8.906e+00,7.990e+00,6.293e+00
2.884e-01,5.748e-01,1.187e+00,1.153e+00,1.499e+00,1.732e+00,1.915e+00,1.190e+00,2.354e+00,1.984e+00,1.936e+00,2.924e+00,3.430e+00,3.439e+00,3.063e+00,3.615e+00,1.634e+00,2.780e+00,3.908e+00,3.846e+00,4.063e+00,2.991e+00,3.069e+00,3.871e+00,4.376e+00,4.955e+00,5.746e+00,4.270e+00,5.716e+00,5.286e+00,4.890e+00,6.840e+00,7.661e+00,5.972e+00,6.743e+00,6.371e+00,4.921e+00,5.882e+00,6.581e+00,5.608e+00,6.085e+00,5.600e+00,6.337e+00,5.260e+00,8.071e+00,6.452e+00,7.381e+00,6.142e+00,5.958e+00,6.867e+00,6.008e+00,6.060e+00,6.821e+00,6.092e+00,6.484e+00,6.720e+00,6.156e+00,6.230e+00,4.579e+00
2.321e-01,9.137e-01,1.079e+00,1.375e+00,1.709e+00,2.261e+00,1.437e+00,2.323e+00,2.168e+00,1.962e+00,2.334e+00,3.788e+00,4.084e+00,4.614e+00,3.295e+00,4.408e+00,4.244e+00,5.689e+00,6.877e+00,4.927e+00,5.394e+00,5.747e+00,6.684e+00,6.948e+00,6.205e+00,7.071e+00,6.542e+00,7.551e+00,7.946e+00,7.526e+00,7.529e+00,9.416e+00,1.056e+01,9.475e+00,8.808e+00,8.316e+00,8.404e+00,8.374e+00,9.407e+00,8.105e+00,8.370e+00,9.749e+00,8.824e+00,7.445e+00,1.134e+01,8.060e+00,8.963e+00,7.852e+00,9.517e+00,8.035e+00,8.324e+00,7.338e+00,9.503e+00,8.732e+00,9.836e+00,9.245e+00,9.034e+00,9.266e+00,7.834e+00
3.304e-01,5.143e-01,8.347e-01,9.182e-01,1.272e+00,1.739e+00,1.965e+00,1.276e+00,2.668e+00,1.863e+00,1.900e+00,3.939e+00,4.163e+00,4.952e+00,4.125e+00,5.014e+00,2.651e+00,4.894e+00,7.103e+00,5.858e+00,5.419e+00,5.080e+00,6.051e+00,6.544e+00,6.540e+00,7.316e+00,6.754e+00,7.200e+00,8.630e+00,8.552e+00,7.317e+00,9.597e+00,1.102e+01,9.486e+00,9.092e+00,1.001e+01,7.964e+00,9.338e+00,9.488e+00,8.489e+00,9.712e+00,1.021e+01,8.760e+00,7.942e+00,1.113e+01,8.883e+00,1.011e+01,8.929e+00,7.980e+00,9.009e+00,9.066e+00,8.083e+00,1.024e+01,8.693e+00,9.644e+00,9.153e+00,1.036e+01,9.558e+00,8.853e+00
2.238e-01,7.561e-01,9.862e-01,1.283e+00,1.761e+00,2.178e+00,1.750e+00,1.360e+00,2.019e+00,1.883e+00,1.775e+00,3.411e+00,3.650e+00,4.468e+00,3.820e+00,4.875e+00,3.494e+00,5.853e+00,6.555e+00,5.369e+00,5.223e+00,4.559e+00,5.655e+00,6.241e+00,6.115e+00,6.622e+00,6.658e+00,7.324e+00,8.290e+00,7.701e+00,7.098e+00,9.253e+00,1.068e+01,1.028e+01,8.609e+00,9.012e+00,8.331e+00,9.511e+00,1.071e+01,8.829e+00,8.951e+00,1.034e+01,9.627e+00,8.407e+00,1.145e+01,8.799e+00,9.853e+00,9.517e+00,8.628e+00,9.795e+00,8.178e+00,8.535e+00,9.296e+00,8.896e+00,9.869e+00,9.127e+00,9.811e+00,9.379e+00,8.183e+00
2.604e-01,8.529e-01,1.028e+00,1.424e+00,1.965e+00,2.634e+00,1.853e+00,1.927e+00,2.273e+00,2.361e+00,1.871e+00,3.378e+00,2.821e+00,3.610e+00,3.092e+00,4.533e+00,2.848e+00,4.711e+00,5.184e+00,3.543e+00,4.798e+00,4.020e+00,4.919e+00,5.020e+00,5.599e+00,5.820e+00,6.879e+00,6.175e+00,7.404e+00,7.178e+00,6.931e+00,8.307e+00,9.919e+00,8.658e+00,8.439e+00,8.468e+00,8.537e+00,9.354e+00,9.951e+00,7.691e+00,8.652e+00,8.617e+00,9.976e+00,7.607e+00,1.245e+01,8.852e+00,8.995e+00,8.648e+00,8.519e+00,9.109e+00,8.777e+00,9.207e+00,8.519e+00,8.469e+00,9.634e+00,9.239e+00,9.825e+00,9.683e+00,7.097e+00
3.028e-01,4.795e-01,8.167e-01,8.278e-01,1.133e+00,1.365e+00,1.122e+00,6.593e-01,1.374e+00,1.263e+00,1.349e+00,3.369e+00,2.827e+00,3.184e+00,3.120e+00,3.220e+00,2.103e+00,3.324e+00,5.348e+00,3.955e+00,4.599e+00,3.807e+00,4.693e+00,5.485e+00,5.474e+00,5.943e+00,5.843e+00,5.704e+00,7.301e+00,6.769e+00,5.131e+00,8.354e+00,9.440e+00,7.321e+00,8.597e+00,8.534e+00,9.251e+00,1.004e+01,8.817e+00,8.480e+00,9.142e+00,9.894e+00,8.644e+00,7.392e+00,1.053e+01,8.244e+00,1.005e+01,8.777e+00,7.788e+00,8.798e+00,8.299e+00,7.921e+00,8.049e+00,7.880e+00,8.291e+00,7.595e+00,1.075e+01,9.089e+00,7.427e+00
5.017e-02,5.857e-01,1.158e+00,1.504e+00,2.194e+00,3.161e+00,2.865e+00,2.461e+00,3.571e+00,3.297e+00,3.102e+00,3.749e+00,3.862e+00,4.799e+00,3.886e+00,4.978e+00,3.802e+00,5.414e+00,6.803e+00,5.342e+00,5.681e+00,4.461e+00,6.077e+00,7.045e+00,6.882e+00,6.708e+00,7.032e+00,7.590e+00,8.596e+00,8.439e+00,8.626e+00,9.224e+00,1.203e+01,9.282e+00,9.440e+00,9.155e+00,8.963e+00,1.010e+01,1.126e+01,9.509e+00,9.827e+00,1.153e+01,1.006e+01,8.613e+00,1.310e+01,9.996e+00,1.137e+01,1.078e+01,8.815e+00,9.160e+00,9.759e+00,9.716e+00,1.177e+01,9.998e+00,1.090e+01,9.302e+00,1.080e+01,1.125e+01,8.606e+00
1.624e-01,6.976e-01,1.008e+00,1.374e+00,1.877e+00,2.319e+00,1.864e+00,1.791e+00,2.613e+00,2.275e+00,2.168e+00,3.429e+00,3.277e+00,4.264e+00,3.503e+00,4.515e+00,3.153e+00,4.845e+00,5.549e+00,4.929e+00,5.463e+00,4.895e+00,5.725e+00,5.436e+00,6.478e+00,5.923e+00,6.232e+00,7.088e+00,7.214e+00,7.275e+00,6.274e+00,8.068e+00,9.419e+00,7.819e+00,7.946e+00,8.043e+00,7.712e+00,8.779e+00,9.532e+00,8.707e+00,7.546e+00,9.333e+00,7.654e+00,6.904e+00,1.051e+01,8.055e+00,9.389e+00,9.959e+00,7.994e+00,8.840e+00,8.042e+00,8.527e+00,8.641e+00,8.418e+00,9.128e+00,8.767e+00,9.932e+00,8.908e+00,8.159e+00
6.263e-02,3.412e-01,5.516e-01,8.921e-01,1.276e+00,1.621e+00,1.684e+00,1.555e+00,2.539e+00,2.591e+00,2.136e+00,3.236e+00,2.975e+00,4.541e+00,3.235e+00,3.685e+00,3.258e+00,3.257e+00,4.689e+00,4.544e+00,5.158e+00,4.469e+00,5.326e+00,5.865e+00,5.762e+00,6.060e+00,6.116e+00,6.617e+00,6.505e+00,6.948e+00,5.516e+00,7.678e+00,9.524e+00,6.946e+00,8.465e+00,8.125e+00,7.275e+00,7.945e+00,9.779e+00,8.744e+00,7.446e+00,9.731e+00,9.510e+00,8.379e+00,1.139e+01,7.336e+00,9.895e+00,1.006e+01,8.316e+00,8.165e+00,8.802e+00,8.342e+00,9.568e+00,8.341e+00,1.028e+01,8.800e+00,9.933e+00,9.748e+00,7.146e+00
1.398e-01,5.108e-01,8.760e-01,1.015e+00,1.358e+00,1.736e+00,1.816e+00,1.505e+00,2.443e+00,2.373e+00,2.149e+00,3.456e+00,3.473e+00,4.669e+00,4.085e+00,4.545e+00,3.330e+00,4.817e+00,6.399e+00,4.967e+00,5.244e+00,4.767e+00,5.297e+00,6.311e+00,6.444e+00,6.750e+00,6.502e+00,6.809e+00,8.118e+00,8.598e+00,7.362e+00,9.149e+00,1.096e+01,8.781e+00,9.397e+00,9.459e+00,8.398e+00,9.519e+00,1.035e+01,9.677e+00,9.827e+00,1.081e+01,9.879e+00,9.509e+00,1.333e+01,9.093e+00,1.131e+01,1.025e+01,9.504e+00,9.290e+00,9.951e+00,1.061e+01,1.040e+01,1.047e+01,1.118e+01,9.310e+00,1.145e+01,1.102e+01,9.161e+00
8.539e-02,2.412e-01,7.572e-01,8.884e-01,1.344e+00,1.912e+00,2.186e+00,1.424e+00,2.904e+00,2.282e+00,2.288e+00,2.759e+00,3.531e+00,4.064e+00,3.802e+00,4.774e+00,3.278e+00,4.565e+00,6.089e+00,5.491e+00,5.353e+00,4.794e+00,5.494e+00,6.482e+00,6.512e+00,7.046e+00,7.609e+00,7.479e+00,8.150e+00,7.549e+00,6.678e+00,8.762e+00,1.023e+01,9.517e+00,8.883e+00,9.557e+00,8.385e+00,9.428e+00,1.064e+01,1.044e+01,8.974e+00,1.088e+01,1.121e+01,9.476e+00,1.360e+01,1.042e+01,1.144e+01,1.162e+01,9.996e+00,1.066e+01,9.969e+00,9.984e+00,1.050e+01,1.146e+01,1.212e+01,1.062e+01,1.142e+01,1.096e+01,8.600e+00
1.350e-01,3.542e-01,4.169e-01,5.579e-01,7.072e-01,9.906e-01,1.433e+00,1.584e+00,2.616e+00,2.153e+00,2.107e+00,3.321e+00,3.223e+00,4.534e+00,3.767e+00,4.509e+00,3.720e+00,4.318e+00,6.360e+00,5.375e+00,5.692e+00,4.992e+00,5.066e+00,6.341e+00,5.103e+00,6.481e+00,6.014e+00,6.254e+00,7.046e+00,7.271e+00,6.694e+00,7.550e+00,9.845e+00,8.970e+00,8.108e+00,9.891e+00,7.288e+00,9.161e+00,1.100e+01,9.701e+00,8.869e+00,1.105e+01,1.166e+01,1.060e+01,1.438e+01,8.957e+00,1.147e+01,1.087e+01,8.991e+00,1.010e+01,1.045e+01,9.567e+00,1.117e+01,1.051e+01,1.327e+01,1.014e+01,1.198e+01,1.179e+01,8.282e+00
1.603e-01,8.099e-01,1.276e+00,1.661e+00,2.237e+00,2.773e+00,2.523e+00,1.795e+00,2.564e+00,2.489e+00,2.050e+00,2.903e+00,3.293e+00,4.233e+00,3.055e+00,4.083e+00,2.795e+00,5.013e+00,5.384e+00,4.576e+00,4.591e+00,3.872e+00,4.863e+00,6.049e+00,5.958e+00,5.896e+00,6.672e+00,6.222e+00,6.523e+00,7.435e+00,6.781e+00,8.594e+00,1.050e+01,9.247e+00,7.998e+00,8.607e+00,8.303e+00,1.020e+01,1.075e+01,9.554e+00,9.863e+00,1.115e+01,1.213e+01,1.057e+01,1.454e+01,1.086e+01,1.270e+01,1.095e+01,9.648e+00,1.082e+01,1.112e+01,1.045e+01,1.229e+01,1.121e+01,1.299e+01,1.052e+01,1.241e+01,1.150e+01,9.911e+00
6.367e-02,4.102e-01,9.118e-01,9.760e-01,1.488e+00,2.544e+00,2.007e+00,1.797e+00,2.413e+00,2.226e+00,1.971e+00,3.273e+00,2.714e+00,3.563e+00,3.141e+00,3.911e+00,3.145e+00,3.667e+00,5.878e+00,4.269e+00,5.711e+00,4.051e+00,5.227e+00,5.734e+00,6.589e+00,5.881e+00,6.543e+00,6.225e+00,7.195e+00,7.135e+00,6.994e+00,8.329e+00,1.021e+01,8.121e+00,8.232e+00,9.501e+00,8.589e+00,9.864e+00,1.041e+01,9.039e+00,9.282e+00,1.081e+01,1.159e+01,1.005e+01,1.433e+01,1.044e+01,1.166e+01,1.118e+01,9.286e+00,1.103e+01,1.029e+01,1.019e+01,1.108e+01,1.117e+01,1.236e+01,9.689e+00,1.201e+01,1.128e+01,9.198e+00
9.019e-02,4.040e-01,1.013e+00,1.026e+00,1.438e+00,2.027e+00,1.900e+00,1.488e+00,2.384e+00,2.010e+00,2.072e+00,2.564e+00,2.876e+00,3.113e+00,3.287e+00,3.884e+00,2.761e+00,3.939e+00,5.728e+00,4.493e+00,5.187e+00,3.922e+00,4.480e+00,5.309e+00,5.806e+00,5.857e+00,5.654e+00,5.671e+00,6.611e+00,6.216e+00,5.586e+00,7.155e+00,8.359e+00,6.931e+00,6.727e+00,7.869e+00,6.928e+00,7.921e+00,8.487e+00,8.569e+00,7.470e+00,8.564e+00,9.094e+00,8.464e+00,1.209e+01,1.002e+01,1.085e+01,9.375e+00,8.273e+00,9.541e+00,1.009e+01,1.012e+01,1.056e+01,1.075e+01,1.139e+01,8.887e+00,1.076e+01,1.002e+01,9.470e+00
2.206e-01,5.402e-01,1.205e+00,1.259e+00,1.819e+00,2.560e+00,2.806e+00,1.735e+00,3.602e+00,2.933e+00,2.575e+00,4.521e+00,3.809e+00,5.062e+00,3.936e+00,4.704e+00,3.015e+00,4.569e+00,7.458e+00,6.111e+00,6.309e+00,5.077e+00,6.526e+00,7.150e+00,7.178e+00,7.715e+00,7.159e+00,8.116e+00,8.693e+00,9.154e+00,7.452e+00,9.263e+00,1.123e+01,9.282e+00,1.005e+01,1.010e+01,9.141e+00,1.117e+01,1.123e+01,1.067e+01,1.058e+01,1.245e+01,1.176e+01,1.062e+01,1.432e+01,1.129e+01,1.391e+01,1.296e+01,1.028e+01,1.273e+01,1.400e+01,1.153e+01,1.421e+01,1.139e+01,1.479e+01,1.222e+01,1.542e+01,1.371e+01,1.132e+01
5.451e-02,3.960e-01,1.087e+00,1.247e+00,1.837e+00,2.565e+00,2.785e+00,1.530e+00,3.286e+00,2.648e+00,2.556e+00,3.244e+00,3.578e+00,4.591e+00,3.654e+00,4.845e+00,3.327e+00,5.294e+00,6.948e+00,5.925e+00,5.091e+00,4.030e+00,4.557e+00,6.071e+00,5.605e+00,6.392e+00,6.312e+00,6.077e+00,6.987e+00,6.652e+00,6.217e+00,7.082e+00,8.630e+00,8.473e+00,7.392e+00,8.475e+00,7.769e+00,8.654e+00,9.307e+00,8.582e+00,8.628e+00,1.011e+01,1.073e+01,9.912e+00,1.274e+01,1.012e+01,1.236e+01,1.071e+01,1.001e+01,1.173e+01,1.121e+01,1.116e+01,1.153e+01,1.231e+01,1.482e+01,9.934e+00,1.348e+01,1.300e+01,9.875e+00
1.859e-01,3.090e-01,5.020e-01,7.840e-01,1.151e+00,1.633e+00,1.457e+00,1.432e+00,2.150e+00,1.542e+00,1.827e+00,2.624e+00,3.334e+00,3.475e+00,2.873e+00,3.903e+00,3.177e+00,5.039e+00,6.363e+00,4.910e+00,4.892e+00,5.412e+00,5.795e+00,6.851e+00,5.881e+00,7.376e+00,7.636e+00,7.928e+00,8.472e+00,7.422e+00,6.342e+00,8.693e+00,1.029e+01,9.777e+00,8.652e+00,9.381e+00,9.291e+00,1.045e+01,1.007e+01,1.023e+01,9.527e+00,1.195e+01,1.097e+01,1.038e+01,1.282e+01,1.125e+01,1.206e+01,1.181e+01,1.055e+01,1.085e+01,1.094e+01,1.099e+01,1.286e+01,1.171e+01,1.305e+01,1.130e+01,1.433e+01,1.180e+01,1.029e+01
1.078e-01,3.089e-01,3.507e-01,7.752e-01,1.255e+00,2.224e+00,1.511e+00,1.791e+00,2.167e+00,1.615e+00,2.003e+00,3.378e+00,3.128e+00,3.953e+00,3.326e+00,4.095e+00,3.366e+00,4.209e+00,6.476e+00,4.613e+00,5.387e+00,5.043e+00,6.203e+00,6.020e+00,6.417e+00,5.820e+00,6.822e+00,6.210e+00,7.320e+00,7.038e+00,6.292e+00,8.550e+00,9.121e+00,8.583e+00,8.653e+00,8.960e+00,8.628e+00,1.068e+01,1.154e+01,9.494e+00,9.730e+00,1.256e+01,1.114e+01,1.086e+01,1.506e+01,1.113e+01,1.420e+01,1.253e+01,1.200e+01,1.241e+01,1.227e+01,1.128e+01,1.375e+01,1.362e+01,1.660e+01,1.259e+01,1.534e+01,1.295e+01,1.210e+01
2.474e-01,5.072e-01,1.063e+00,9.524e-01,1.382e+00,2.055e+00,2.440e+00,1.483e+00,3.206e+00,2.407e+00,2.115e+00,4.053e+00,4.085e+00,4.924e+00,4.161e+00,5.323e+00,3.259e+00,4.940e+00,6.407e+00,5.866e+00,6.026e+00,5.056e+00,5.353e+00,5.990e+00,6.652e+00,7.016e+00,6.597e+00,7.240e+00,8.305e+00,8.194e+00,8.245e+00,9.605e+00,1.106e+01,9.472e+00,9.416e+00,1.100e+01,9.039e+00,1.040e+01,1.089e+01,1.022e+01,1.123e+01,1.159e+01,1.182e+01,1.082e+01,1.467e+01,1.091e+01,1.347e+01,1.272e+01,1.097e+01,1.274e+01,1.355e+01,1.197e+01,1.437e+01,1.305e+01,1.557e+01,1.337e+01,1.524e+01,1.294e+01,1.240e+01
2.942e-01,8.263e-01,1.358e+00,1.645e+00,2.168e+00,2.429e+00,1.866e+00,1.363e+00,1.976e+00,1.957e+00,1.981e+00,3.043e+00,3.117e+00,3.243e+00,3.310e+00,3.907e+00,2.426e+00,3.600e+00,4.916e+00,3.885e+00,4.257e+00,3.572e+00,4.631e+00,4.846e+00,5.264e+00,5.288e+00,5.990e+00,5.851e+00,6.906e+00,6.891e+00,6.024e+00,8.599e+00,9.962e+00,7.998e+00,9.094e+00,8.538e+00,8.642e+00,1.004e+01,9.595e+00,9.525e+00,9.601e+00,1.145e+01,1.077e+01,9.555e+00,1.347e+01,1.058e+01,1.249e+01,1.121e+01,9.825e+00,1.132e+01,1.182e+01,1.085e+01,1.263e+01,1.312e+01,1.325e+01,1.066e+01,1.381e+01,1.250e+01,1.177e+01
2.512e-01,7.116e-01,8.703e-01,1.367e+00,1.821e+00,2.226e+00,1.874e+00,2.159e+00,2.801e+00,2.736e+00,2.599e+00,3.500e+00,4.012e+00,4.725e+00,3.704e+00,5.091e+00,3.572e+00,4.579e+00,5.266e+00,4.540e+00,5.184e+00,5.146e+00,5.987e+00,6.285e+00,5.368e+00,6.997e+00,7.901e+00,6.735e+00,7.956e+00,7.445e+00,7.210e+00,8.221e+00,1.051e+01,8.479e+00,8.797e+00,9.432e+00,9.751e+00,9.543e+00,1.011e+01,1.017e+01,9.162e+00,1.050e+01,1.148e+01,1.017e+01,1.504e+01,1.078e+01,1.274e+01,1.071e+01,1.128e+01,1.157e+01,1.222e+01,1.256e+01,1.443e+01,1.403e+01,1.550e+01,1.312e+01,1.611e+01,1.313e+01,1.201e+01
2.865e-01,9.023e-01,1.326e+00,1.610e+00,2.084e+00,2.754e+00,2.494e+00,2.227e+00,2.862e+00,2.527e+00,2.721e+00,4.285e+00,4.794e+00,5.530e+00,3.778e+00,4.554e+00,3.179e+00,4.276e+00,6.523e+00,5.540e+00,5.516e+00,4.760e+00,5.899e+00,6.640e+00,6.645e+00,6.737e+00,6.743e+00,6.316e+00,8.365e+00,6.938e+00,7.972e+00,8.484e+00,9.865e+00,8.795e+00,9.365e+00,9.043e+00,8.726e+00,9.155e+00,1.034e+01,9.769e+00,8.949e+00,9.706e+00,1.079e+01,1.015e+01,1.370e+01,1.061e+01,1.210e+01,1.039e+01,1.089e+01,1.159e+01,1.236e+01,1.086e+01,1.507e+01,1.344e+01,1.610e+01,1.276e+01,1.600e+01,1.464e+01,1.247e+01
1.618e-01,4.548e-01,1.018e+00,1.196e+00,1.673e+00,2.088e+00,2.241e+00,1.385e+00,2.899e+00,2.400e+00,2.516e+00,3.764e+00,4.038e+00,5.041e+00,4.446e+00,5.173e+00,3.365e+00,5.732e+00,7.341e+00,6.152e+00,5.757e+00,5.138e+00,5.941e+00,7.584e+00,7.657e+00,7.579e+00,7.770e+00,7.497e+00,9.223e+00,7.805e+00,7.391e+00,9.206e+00,1.119e+01,1.039e+01,9.255e+00,1.020e+01,9.375e+00,9.879e+00,1.154e+01,1.059e+01,9.989e+00,1.114e+01,1.067e+01,1.030e+01,1.434e+01,1.123e+01,1.232e+01,1.153e+01,1.037e+01,1.285e+01,1.160e+01,1.141e+01,1.307e+01,1.241e+01,1.479e+01,1.350e+01,1.523e+01,1.429e+01,1.218e+01
4.685e-03,2.769e-01,3.864e-01,8.495e-01,1.423e+00,2.455e+00,2.251e+00,1.791e+00,2.546e+00,2.397e+00,1.926e+00,2.897e+00,2.735e+00,4.177e+00,2.737e+00,3.816e+00,3.126e+00,4.665e+00,5.987e+00,4.478e+00,4.599e+00,3.638e+00,4.616e+00,6.027e+00,5.205e+00,5.461e+00,6.346e+00,6.532e+00,7.398e+00,7.119e+00,8.172e+00,8.783e+00,1.071e+01,9.426e+00,7.905e+00,9.200e+00,8.341e+00,1.036e+01,1.026e+01,8.307e+00,9.781e+00,1.064e+01,1.080e+01,9.297e+00,1.365e+01,1.056e+01,1.091e+01,1.096e+01,1.013e+01,1.077e+01,1.109e+01,1.073e+01,1.263e+01,1.182e+01,1.375e+01,1.182e+01,1.419e+01,1.280e+01,1.111e+01
1.922e-01,5.423e-01,1.022e+00,9.584e-01,1.171e+00,1.468e+00,1.891e+00,1.688e+00,2.635e+00,2.128e+00,2.023e+00,2.987e+00,3.842e+00,4.332e+00,3.193e+00,3.800e+00,2.836e+00,4.447e+00,5.537e+00,4.934e+00,4.858e+00,4.679e+00,4.264e+00,5.474e+00,5.139e+00,6.215e+00,5.665e+00,6.764e+00,7.426e+00,7.433e+00,7.142e+00,8.510e+00,1.030e+01,9.021e+00,8.588e+00,9.538e+00,8.006e+00,9.878e+00,9.161e+00,1.032e+01,9.486e+00,1.117e+01,1.086e+01,1.036e+01,1.380e+01,9.903e+00,1.259e+01,1.159e+01,9.900e+00,1.104e+01,1.197e+01,1.167e+01,1.522e+01,1.369e+01,1.417e+01,1.329e+01,1.698e+01,1.360e+01,1.338e+01
7.617e-02,2.148e-01,3.611e-01,4.469e-01,8.273e-01,1.661e+00,1.791e+00,1.674e+00,2.877e+00,2.359e+00,2.022e+00,3.530e+00,2.885e+00,4.035e+00,3.170e+00,4.265e+00,3.780e+00,4.269e+00,6.458e+00,5.368e+00,6.267e+00,4.743e+00,5.064e+00,6.041e+00,5.391e+00,6.597e+00,6.095e+00,7.348e+00,8.082e+00,7.030e+00,7.514e+00,7.291e+00,9.489e+00,8.469e+00,7.958e+00,1.000e+01,8.045e+00,8.805e+00,1.046e+01,9.551e+00,9.018e+00,1.017e+01,1.058e+01,1.012e+01,1.430e+01,1.068e+01,1.185e+01,1.119e+01,1.025e+01,1.274e+01,1.254e+01,1.187e+01,1.485e+01,1.279e+01,1.602e+01,1.387e+01,1.698e+01,1.546e+01,1.276e+01
1.151e-01,6.861e-01,9.216e-01,1.221e+00,1.628e+00,2.353e+00,1.552e+00,2.071e+00,2.063e+00,1.846e+00,2.110e+00,3.239e+00,3.664e+00,4.377e+00,3.422e+00,4.315e+00,3.475e+00,5.088e+00,6.360e+00,4.934e+00,5.721e+00,5.163e+00,5.777e+00,6.044e+00,6.162e+00,5.820e+00,5.621e+00,6.774e+00,7.350e+00,7.318e+00,6.589e+00,9.359e+00,9.656e+00,9.020e+00,8.485e+00,8.957e+00,7.752e+00,9.814e+00,1.031e+01,9.237e+00,8.888e+00,1.080e+01,1.114e+01,1.031e+01,1.358e+01,1.091e+01,1.203e+01,1.146e+01,1.079e+01,1.158e+01,1.249e+01,1.171e+01,1.444e+01,1.433e+01,1.487e+01,1.354e+01,1.514e+01,1.381e+01,1.399e+01
3.004e-01,6.463e-01,1.275e+00,1.427e+00,1.916e+00,2.140e+00,2.116e+00,9.443e-01,2.515e+00,1.853e+00,1.870e+00,3.460e+00,3.733e+00,4.462e+00,4.051e+00,5.008e+00,2.410e+00,5.152e+00,7.021e+00,6.398e+00,6.060e+00,4.640e+00,5.972e+00,6.937e+00,7.054e+00,7.436e+00,6.982e+00,6.801e+00,7.926e+00,8.351e+00,6.696e+00,9.119e+00,1.053e+01,9.761e+00,8.962e+00,9.933e+00,8.574e+00,1.122e+01,1.130e+01,1.021e+01,9.889e+00,1.208e+01,1.178e+01,1.094e+01,1.506e+01,1.190e+01,1.443e+01,1.264e+01,1.117e+01,1.374e+01,1.386e+01,1.395e+01,1.758e+01,1.479e+01,1.818e+01,1.527e+01,1.915e+01,1.617e+01,1.567e+01
