9.916e-01,6.093e-01,3.588e-03,5.009e-01,6.305e-01,2.824e-01,3.487e-01,3.694e-01,5.568e-01,3.787e-01,5.429e-02,5.827e-01,2.832e-01,2.601e-01,1.831e-01,3.925e-02,5.678e-01,2.655e-02,7.024e-01,7.629e-01,3.734e-01,3.149e-01,6.443e-01,8.554e-01,7.858e-01,3.235e-01,9.372e-01,3.953e-02,3.645e-01,9.033e-01,7.706e-01,4.961e-01,6.065e-01,5.581e-01,7.469e-01,1.710e-01,4.939e-01,6.129e-01,8.057e-01,5.739e-01,9.379e-01,2.140e-01,8.392e-01,1.722e-01,5.210e-01,8.374e-01,9.036e-03,8.068e-01,3.603e-01,2.567e-01,3.056e-01,7.843e-01,5.140e-01,5.942e-01,6.552e-01,4.236e-01,9.443e-01,1.340e-01,3.020e-01,3.291e-01,2.252e-01,5.726e-02,6.964e-01,3.802e-01,5.145e-01,2.239e-01,8.644e-01,8.144e-01,7.937e-02,8.177e-01,8.298e-01,8.569e-01,7.129e-01,5.015e-01,7.295e-01,9.047e-01,1.689e-01,8.010e-01,1.172e-01
7.409e-01,1.369e+00,9.759e-02,1.356e+00,7.658e-01,2.848e-01,1.076e+00,1.152e+00,7.497e-01,6.852e-01,6.034e-01,1.109e+00,1.055e+00,4.912e-01,8.603e-01,3.799e-02,9.741e-01,6.541e-01,1.458e+00,1.420e+00,1.043e+00,2.495e-01,1.313e+00,6.458e-01,7.392e-01,1.014e+00,1.590e+00,6.114e-01,4.715e-01,1.310e+00,1.333e+00,4.993e-01,1.229e+00,9.600e-01,8.618e-01,8.881e-01,9.272e-01,5.846e-01,1.436e+00,1.312e+00,8.260e-01,9.084e-01,1.214e+00,4.282e-01,1.091e+00,1.240e+00,4.583e-01,8.368e-01,7.117e-01,4.231e-01,7.533e-01,1.486e+00,1.334e+00,1.200e+00,1.442e+00,5.971e-01,7.509e-01,7.976e-01,7.207e-01,1.096e+00,4.657e-01,9.997e-02,1.284e+00,1.179e+00,1.313e+00,3.286e-01,1.250e+00,9.991e-01,8.806e-02,1.550e+00,1.431e+00,6.653e-01,7.746e-01,1.258e+00,9.676e-01,1.675e+00,6.301e-01,1.282e+00,7.553e-01
8.146e-01,5.011e-01,4.244e-02,1.307e+00,1.213e+00,8.493e-01,1.118e+00,1.203e+00,6.408e-01,4.671e-01,8.726e-01,1.344e+00,1.199e+00,1.153e+00,2.032e-01,7.473e-02,8.801e-01,7.925e-01,1.344e+00,1.426e+00,3.756e-01,1.119e+00,9.203e-01,1.219e+00,8.656e-01,8.654e-01,1.131e+00,1.006e+00,3.065e-01,1.106e+00,1.477e+00,9.473e-01,1.014e+00,8.610e-01,8.323e-01,1.019e+00,9.341e-01,5.851e-01,1.647e+00,1.251e+00,1.719e+00,4.280e-01,1.278e+00,7.901e-01,5.741e-01,1.403e+00,5.716e-01,8.017e-01,3.096e-01,8.074e-01,1.059e+00,1.480e+00,1.269e+00,1.029e+00,9.156e-01,6.273e-01,1.721e+00,8.214e-01,1.189e+00,5.437e-01,5.055e-01,1.087e-01,6.842e-01,5.169e-01,4.902e-01,1.094e+00,9.977e-01,1.119e+00,6.685e-01,1.474e+00,1.259e+00,1.390e+00,8.961e-01,1.264e+00,1.363e+00,1.154e+00,2.036e-01,1.286e+00,8.280e-01
1.683e-01,8.691e-01,1.092e-01,2.536e+00,1.036e+00,1.451e+00,1.424e+00,2.459e+00,1.052e+00,1.302e+00,1.741e+00,1.587e+00,2.127e+00,1.408e+00,1.286e+00,5.824e-01,9.954e-01,1.236e+00,2.110e+00,2.196e+00,1.251e+00,1.611e+00,1.468e+00,9.883e-01,7.364e-01,2.106e+00,1.971e+00,1.613e+00,1.222e+00,1.707e+00,2.035e+00,1.572e+00,1.886e+00,1.403e+00,9.553e-01,2.036e+00,1.228e+00,5.112e-01,2.138e+00,1.766e+00,1.131e+00,1.067e+00,1.730e+00,8.179e-01,9.273e-01,1.464e+00,9.358e-01,1.359e+00,5.753e-01,9.344e-01,1.750e+00,2.143e+00,1.653e+00,1.637e+00,1.243e+00,1.254e+00,1.777e+00,1.971e+00,1.351e+00,1.958e+00,6.395e-01,7.225e-01,1.092e+00,1.610e+00,9.332e-01,1.171e+00,1.798e+00,1.288e+00,8.531e-01,2.057e+00,1.260e+00,1.087e+00,8.343e-01,2.036e+00,1.223e+00,1.869e+00,5.400e-01,1.884e+00,1.461e+00
6.075e-01,1.146e+00,1.029e-01,2.434e+00,1.791e+00,1.945e+00,1.735e+00,2.624e+00,1.252e+00,1.626e+00,1.880e+00,1.660e+00,2.614e+00,1.482e+00,1.830e+00,1.117e+00,1.149e+00,1.108e+00,2.876e+00,2.375e+00,2.213e+00,2.344e+00,1.962e+00,1.246e+00,1.792e+00,2.492e+00,2.641e+00,1.961e+00,1.958e+00,2.030e+00,3.012e+00,2.360e+00,2.414e+00,2.348e+00,1.426e+00,2.391e+00,1.769e+00,1.166e+00,3.190e+00,2.372e+00,2.023e+00,1.601e+00,2.130e+00,1.500e+00,1.588e+00,1.829e+00,9.378e-01,2.103e+00,8.383e-01,1.494e+00,1.876e+00,2.594e+00,2.104e+00,2.288e+00,2.308e+00,1.467e+00,2.417e+00,2.528e+00,1.946e+00,2.013e+00,1.059e+00,1.144e+00,1.884e+00,2.352e+00,1.222e+00,1.077e+00,2.418e+00,2.355e+00,1.388e+00,2.400e+00,1.733e+00,1.767e+00,1.546e+00,2.757e+00,2.296e+00,2.730e+00,1.035e+00,2.429e+00,2.170e+00
5.836e-01,7.554e-01,4.855e-02,1.345e+00,7.055e-01,1.227e+00,1.302e+00,1.848e+00,1.269e+00,1.455e+00,1.144e+00,1.458e+00,1.211e+00,7.397e-01,1.292e+00,1.258e+00,7.430e-01,8.091e-01,1.923e+00,1.407e+00,1.544e+00,1.126e+00,1.165e+00,1.633e+00,1.302e+00,1.216e+00,1.576e+00,7.451e-01,1.649e+00,2.185e+00,1.333e+00,1.592e+00,1.862e+00,1.898e+00,1.043e+00,1.294e+00,1.482e+00,1.263e+00,2.210e+00,1.461e+00,1.079e+00,7.401e-01,2.027e+00,1.066e+00,1.399e+00,1.742e+00,6.909e-01,1.278e+00,1.022e+00,1.418e+00,1.631e+00,1.472e+00,1.479e+00,1.725e+00,1.612e+00,1.543e+00,1.744e+00,1.942e+00,6.768e-01,1.449e+00,9.611e-01,1.363e+00,1.301e+00,1.424e+00,9.115e-01,8.841e-01,1.400e+00,1.476e+00,1.058e+00,1.391e+00,1.140e+00,1.185e+00,1.320e+00,1.674e+00,1.733e+00,1.708e+00,1.134e+00,2.014e+00,1.156e+00
3.289e-01,2.937e-01,4.500e-02,1.415e+00,1.492e+00,1.573e+00,1.758e+00,2.245e+00,1.054e+00,1.745e+00,1.757e+00,1.371e+00,2.198e+00,1.371e+00,1.575e+00,1.630e+00,8.072e-01,1.723e+00,2.770e+00,2.189e+00,1.869e+00,2.637e+00,1.603e+00,1.908e+00,1.910e+00,2.462e+00,1.587e+00,2.224e+00,1.510e+00,1.323e+00,2.339e+00,2.772e+00,2.458e+00,2.615e+00,9.815e-01,2.324e+00,1.946e+00,1.086e+00,2.489e+00,2.303e+00,2.039e+00,1.777e+00,1.830e+00,2.223e+00,1.769e+00,1.876e+00,1.226e+00,1.438e+00,5.998e-01,2.328e+00,1.969e+00,2.211e+00,1.986e+00,1.931e+00,1.989e+00,1.529e+00,2.566e+00,2.043e+00,1.936e+00,1.308e+00,1.770e+00,1.240e+00,1.686e+00,1.532e+00,1.227e+00,1.963e+00,1.981e+00,1.952e+00,1.777e+00,1.932e+00,1.746e+00,1.819e+00,1.564e+00,2.067e+00,1.968e+00,2.459e+00,6.951e-01,2.421e+00,2.468e+00
5.357e-01,8.132e-01,6.899e-02,1.894e+00,1.125e+00,1.463e+00,1.684e+00,3.181e+00,1.555e+00,2.617e+00,2.447e+00,1.875e+00,2.470e+00,1.222e+00,2.735e+00,1.820e+00,1.615e+00,2.469e+00,3.707e+00,3.347e+00,2.872e+00,2.429e+00,2.729e+00,2.949e+00,2.383e+00,3.332e+00,2.369e+00,2.086e+00,2.676e+00,2.581e+00,2.763e+00,3.136e+00,2.704e+00,2.842e+00,1.517e+00,2.941e+00,2.708e+00,2.126e+00,2.486e+00,2.561e+00,1.788e+00,2.258e+00,2.671e+00,2.547e+00,2.864e+00,2.883e+00,1.394e+00,1.978e+00,1.794e+00,2.685e+00,2.998e+00,2.433e+00,2.130e+00,2.758e+00,2.151e+00,2.304e+00,3.276e+00,2.196e+00,2.316e+00,2.646e+00,1.572e+00,2.230e+00,1.972e+00,2.368e+00,1.926e+00,2.087e+00,2.847e+00,2.204e+00,1.492e+00,2.207e+00,2.771e+00,2.479e+00,2.517e+00,2.940e+00,2.114e+00,2.948e+00,1.029e+00,3.526e+00,2.509e+00
8.638e-01,5.447e-01,4.188e-02,2.041e+00,1.956e+00,2.463e+00,2.180e+00,3.144e+00,2.080e+00,2.491e+00,3.283e+00,2.783e+00,3.152e+00,2.673e+00,2.940e+00,3.157e+00,1.468e+00,2.733e+00,4.258e+00,3.311e+00,3.459e+00,3.361e+00,2.166e+00,3.635e+00,2.925e+00,3.307e+00,2.868e+00,3.071e+00,3.220e+00,3.384e+00,3.469e+00,4.123e+00,3.189e+00,3.814e+00,2.248e+00,2.958e+00,2.794e+00,2.118e+00,4.675e+00,2.874e+00,3.629e+00,2.217e+00,3.546e+00,2.780e+00,3.166e+00,3.195e+00,1.557e+00,2.817e+00,1.932e+00,3.584e+00,3.808e+00,3.126e+00,3.156e+00,3.539e+00,2.861e+00,2.482e+00,4.410e+00,3.137e+00,2.324e+00,2.754e+00,2.147e+00,2.740e+00,2.528e+00,3.184e+00,1.378e+00,3.049e+00,3.623e+00,3.704e+00,2.672e+00,2.864e+00,2.299e+00,3.431e+00,2.646e+00,3.141e+00,4.146e+00,3.162e+00,1.846e+00,3.498e+00,3.003e+00
6.297e-01,8.268e-01,6.865e-02,1.648e+00,1.334e+00,1.476e+00,1.897e+00,2.814e+00,1.601e+00,2.798e+00,2.635e+00,2.263e+00,3.389e+00,2.453e+00,3.117e+00,2.841e+00,1.731e+00,2.730e+00,4.121e+00,3.675e+00,3.620e+00,2.552e+00,2.601e+00,3.716e+00,2.893e+00,3.026e+00,2.633e+00,2.513e+00,3.299e+00,3.162e+00,2.834e+00,3.620e+00,3.071e+00,3.415e+00,2.199e+00,2.729e+00,2.812e+00,2.709e+00,3.181e+00,3.215e+00,3.130e+00,3.113e+00,3.385e+00,2.757e+00,3.503e+00,3.724e+00,1.433e+00,2.570e+00,1.963e+00,3.768e+00,3.302e+00,3.461e+00,2.891e+00,3.265e+00,3.353e+00,2.118e+00,4.254e+00,2.312e+00,2.840e+00,3.047e+00,1.826e+00,2.337e+00,2.854e+00,3.203e+00,2.068e+00,2.527e+00,2.946e+00,2.674e+00,2.166e+00,2.790e+00,3.516e+00,2.903e+00,3.398e+00,2.856e+00,3.717e+00,3.794e+00,1.771e+00,3.412e+00,3.461e+00
8.711e-01,1.279e+00,1.152e-01,2.450e+00,1.812e+00,1.888e+00,2.643e+00,3.277e+00,1.872e+00,2.567e+00,3.483e+00,3.053e+00,4.105e+00,2.554e+00,3.336e+00,2.612e+00,2.323e+00,2.705e+00,4.772e+00,3.653e+00,3.358e+00,3.499e+00,2.655e+00,3.977e+00,3.034e+00,3.069e+00,2.932e+00,3.407e+00,3.448e+00,4.001e+00,3.592e+00,3.583e+00,4.444e+00,3.920e+00,2.447e+00,2.965e+00,3.304e+00,2.418e+00,4.326e+00,3.960e+00,3.411e+00,2.713e+00,4.279e+00,3.423e+00,3.615e+00,3.878e+00,2.511e+00,3.288e+00,2.260e+00,3.413e+00,3.329e+00,4.156e+00,3.788e+00,3.482e+00,4.142e+00,2.682e+00,4.458e+00,3.933e+00,2.717e+00,3.172e+00,2.308e+00,2.769e+00,3.274e+00,3.589e+00,2.622e+00,2.893e+00,3.730e+00,3.229e+00,2.473e+00,4.034e+00,4.041e+00,3.451e+00,2.948e+00,3.545e+00,3.695e+00,4.029e+00,2.263e+00,4.038e+00,3.606e+00
9.592e-01,8.049e-01,5.650e-02,1.850e+00,1.673e+00,1.581e+00,1.707e+00,2.314e+00,1.526e+00,1.791e+00,3.069e+00,2.894e+00,3.765e+00,3.344e+00,3.076e+00,2.241e+00,2.527e+00,2.959e+00,4.168e+00,3.309e+00,2.794e+00,3.583e+00,2.673e+00,4.001e+00,2.991e+00,2.949e+00,3.123e+00,3.862e+00,3.592e+00,3.694e+00,4.113e+00,3.729e+00,3.703e+00,3.530e+00,2.768e+00,2.346e+00,3.283e+00,2.441e+00,3.853e+00,3.520e+00,3.423e+00,2.186e+00,4.110e+00,2.605e+00,3.471e+00,3.758e+00,2.622e+00,3.058e+00,1.961e+00,2.838e+00,3.085e+00,3.578e+00,2.974e+00,3.083e+00,3.838e+00,2.844e+00,4.707e+00,3.594e+00,2.816e+00,3.501e+00,1.705e+00,2.469e+00,3.251e+00,3.512e+00,2.158e+00,3.319e+00,3.642e+00,3.127e+00,2.061e+00,3.315e+00,3.333e+00,3.653e+00,2.889e+00,3.458e+00,4.060e+00,3.869e+00,2.495e+00,3.212e+00,2.964e+00
9.584e-01,1.060e+00,8.813e-02,2.765e+00,2.136e+00,2.425e+00,2.271e+00,3.859e+00,1.922e+00,2.857e+00,4.015e+00,3.062e+00,5.322e+00,3.284e+00,4.707e+00,3.006e+00,3.583e+00,3.972e+00,5.726e+00,4.980e+00,3.778e+00,4.713e+00,3.509e+00,5.067e+00,4.640e+00,4.918e+00,4.519e+00,4.231e+00,4.815e+00,4.821e+00,5.168e+00,4.584e+00,5.407e+00,4.368e+00,3.093e+00,4.475e+00,4.211e+00,3.920e+00,4.938e+00,4.925e+00,4.172e+00,3.068e+00,5.485e+00,4.066e+00,4.044e+00,4.168e+00,3.273e+00,4.668e+00,2.614e+00,4.202e+00,4.768e+00,4.318e+00,4.004e+00,4.365e+00,4.565e+00,3.548e+00,5.971e+00,5.025e+00,3.765e+00,4.702e+00,2.573e+00,4.211e+00,4.191e+00,4.640e+00,2.538e+00,3.350e+00,4.701e+00,4.151e+00,3.175e+00,4.131e+00,5.002e+00,4.574e+00,4.176e+00,4.604e+00,4.517e+00,4.894e+00,2.839e+00,5.495e+00,3.976e+00
9.072e-01,9.491e-01,7.389e-02,1.796e+00,1.668e+00,1.774e+00,2.405e+00,2.934e+00,2.019e+00,2.644e+00,3.662e+00,3.473e+00,4.981e+00,4.909e+00,5.238e+00,4.710e+00,4.037e+00,4.633e+00,5.858e+00,4.618e+00,4.334e+00,4.224e+00,3.486e+00,5.825e+00,4.981e+00,4.323e+00,4.695e+00,5.020e+00,4.776e+00,5.727e+00,5.214e+00,5.246e+00,5.768e+00,5.715e+00,3.550e+00,4.235e+00,4.866e+00,4.222e+00,5.787e+00,5.554e+00,4.896e+00,3.530e+00,5.983e+00,4.604e+00,5.278e+00,4.782e+00,4.288e+00,4.250e+00,3.423e+00,5.198e+00,5.543e+00,4.461e+00,5.407e+00,5.387e+00,5.560e+00,4.340e+00,6.579e+00,5.487e+00,3.907e+00,4.809e+00,3.263e+00,4.235e+00,5.584e+00,5.744e+00,3.495e+00,4.962e+00,5.080e+00,4.695e+00,4.367e+00,4.239e+00,5.021e+00,4.945e+00,4.947e+00,4.603e+00,6.650e+00,5.302e+00,4.635e+00,5.457e+00,4.474e+00
1.905e-01,9.319e-01,1.037e-01,1.534e+00,8.283e-01,8.091e-01,1.501e+00,2.018e+00,8.659e-01,1.255e+00,1.770e+00,1.967e+00,2.722e+00,2.660e+00,3.387e+00,2.402e+00,2.604e+00,2.713e+00,3.592e+00,3.248e+00,2.872e+00,2.331e+00,3.488e+00,2.897e+00,2.475e+00,3.041e+00,2.960e+00,3.515e+00,3.215e+00,3.912e+00,3.927e+00,3.309e+00,3.153e+00,3.428e+00,2.051e+00,3.496e+00,3.230e+00,3.154e+00,3.756e+00,3.620e+00,2.645e+00,2.193e+00,3.955e+00,2.548e+00,3.465e+00,2.698e+00,3.448e+00,2.223e+00,2.677e+00,3.052e+00,3.587e+00,2.580e+00,2.958e+00,3.850e+00,3.869e+00,3.390e+00,3.306e+00,3.570e+00,3.367e+00,3.758e+00,1.362e+00,2.839e+00,3.223e+00,3.946e+00,2.426e+00,2.609e+00,3.089e+00,2.565e+00,2.813e+00,2.239e+00,3.153e+00,2.471e+00,3.130e+00,3.832e+00,4.287e+00,3.109e+00,3.295e+00,3.435e+00,3.044e+00
5.801e-01,1.137e+00,8.368e-02,1.975e+00,9.872e-01,1.640e+00,1.977e+00,3.148e+00,2.165e+00,3.139e+00,2.975e+00,2.887e+00,3.782e+00,3.755e+00,5.160e+00,5.256e+00,2.945e+00,4.595e+00,5.541e+00,5.443e+00,5.480e+00,4.123e+00,4.634e+00,5.517e+00,3.915e+00,4.495e+00,4.947e+00,4.382e+00,5.835e+00,5.952e+00,4.758e+00,6.601e+00,4.833e+00,6.203e+00,3.565e+00,4.711e+00,5.042e+00,4.398e+00,5.820e+00,5.590e+00,4.794e+00,4.272e+00,5.816e+00,3.947e+00,6.051e+00,5.165e+00,4.423e+00,3.924e+00,3.834e+00,5.678e+00,5.415e+00,4.481e+00,4.807e+00,6.427e+00,5.667e+00,4.910e+00,6.233e+00,5.055e+00,4.340e+00,6.342e+00,3.235e+00,5.219e+00,5.249e+00,6.496e+00,3.386e+00,4.785e+00,5.095e+00,4.475e+00,4.522e+00,3.876e+00,4.445e+00,4.498e+00,5.062e+00,4.874e+00,6.697e+00,5.240e+00,4.938e+00,5.387e+00,4.931e+00
1.226e-01,1.093e-01,1.620e-02,7.021e-01,5.295e-01,1.057e+00,1.358e+00,2.084e+00,1.221e+00,2.262e+00,2.822e+00,1.831e+00,3.156e+00,2.382e+00,3.790e+00,3.550e+00,3.283e+00,3.698e+00,4.316e+00,3.342e+00,3.905e+00,3.910e+00,2.242e+00,5.137e+00,3.201e+00,3.128e+00,2.909e+00,3.573e+00,4.386e+00,4.101e+00,3.357e+00,3.840e+00,4.425e+00,3.924e+00,2.080e+00,3.493e+00,3.815e+00,3.437e+00,3.594e+00,3.832e+00,2.793e+00,3.464e+00,4.770e+00,3.847e+00,3.932e+00,3.134e+00,3.353e+00,3.264e+00,3.079e+00,4.509e+00,4.127e+00,2.769e+00,3.629e+00,3.534e+00,3.931e+00,3.052e+00,5.007e+00,3.703e+00,2.952e+00,3.470e+00,3.243e+00,4.501e+00,3.446e+00,3.680e+00,2.485e+00,3.321e+00,3.911e+00,3.254e+00,3.715e+00,3.316e+00,4.530e+00,3.967e+00,3.946e+00,2.969e+00,4.414e+00,3.813e+00,2.849e+00,3.999e+00,4.075e+00
2.635e-01,5.242e-01,5.664e-02,1.127e+00,7.021e-01,7.296e-01,9.887e-01,1.582e+00,6.974e-01,1.223e+00,2.124e+00,1.563e+00,3.180e+00,2.791e+00,3.686e+00,3.201e+00,3.619e+00,3.760e+00,4.626e+00,4.374e+00,3.987e+00,4.114e+00,3.004e+00,5.146e+00,3.167e+00,3.966e+00,4.017e+00,3.469e+00,4.928e+00,5.274e+00,3.971e+00,4.184e+00,4.752e+00,4.395e+00,2.470e+00,4.925e+00,4.493e+00,3.600e+00,5.115e+00,4.942e+00,4.358e+00,3.801e+00,5.079e+00,3.797e+00,4.287e+00,3.792e+00,4.850e+00,3.832e+00,3.538e+00,4.766e+00,4.590e+00,3.483e+00,4.682e+00,5.363e+00,4.629e+00,3.632e+00,5.178e+00,4.254e+00,4.543e+00,4.727e+00,3.459e+00,4.596e+00,4.771e+00,5.013e+00,2.654e+00,3.738e+00,4.582e+00,3.824e+00,4.109e+00,3.639e+00,4.775e+00,4.702e+00,4.121e+00,4.283e+00,5.627e+00,4.370e+00,3.898e+00,4.896e+00,4.660e+00
3.349e-01,7.740e-01,6.726e-02,1.790e+00,1.001e+00,1.776e+00,1.686e+00,3.126e+00,1.657e+00,2.620e+00,3.073e+00,2.196e+00,3.366e+00,1.945e+00,4.297e+00,3.464e+00,2.336e+00,3.037e+00,5.676e+00,4.907e+00,4.514e+00,4.335e+00,4.164e+00,4.661e+00,3.360e+00,4.340e+00,4.085e+00,4.074e+00,5.320e+00,5.860e+00,4.303e+00,4.534e+00,4.753e+00,5.042e+00,3.291e+00,4.627e+00,4.643e+00,3.820e+00,5.429e+00,4.805e+00,3.480e+00,3.289e+00,5.735e+00,3.587e+00,4.846e+00,3.922e+00,3.751e+00,3.888e+00,3.415e+00,4.947e+00,4.912e+00,4.057e+00,3.773e+00,5.074e+00,4.159e+00,4.710e+00,5.369e+00,5.180e+00,3.707e+00,4.827e+00,2.916e+00,5.459e+00,4.034e+00,5.410e+00,3.297e+00,3.617e+00,4.881e+00,4.463e+00,3.575e+00,3.458e+00,3.874e+00,4.278e+00,3.791e+00,4.736e+00,4.620e+00,4.501e+00,3.258e+00,5.549e+00,4.419e+00
5.107e-01,1.147e+00,1.003e-01,2.383e+00,1.022e+00,1.372e+00,1.734e+00,3.392e+00,1.704e+00,2.972e+00,2.956e+00,2.432e+00,3.786e+00,2.741e+00,4.362e+00,3.038e+00,3.296e+00,3.850e+00,5.994e+00,5.919e+00,5.416e+00,4.746e+00,5.395e+00,5.728e+00,3.401e+00,5.258e+00,5.566e+00,4.861e+00,5.877e+00,6.200e+00,5.455e+00,5.058e+00,5.553e+00,5.593e+00,3.904e+00,5.462e+00,5.149e+00,4.644e+00,4.926e+00,5.493e+00,3.951e+00,5.032e+00,6.515e+00,4.336e+00,5.709e+00,5.599e+00,4.666e+00,4.344e+00,4.175e+00,5.826e+00,5.617e+00,5.280e+00,3.936e+00,5.288e+00,5.445e+00,5.090e+00,6.352e+00,4.750e+00,5.518e+00,6.441e+00,3.710e+00,5.032e+00,4.985e+00,5.442e+00,4.272e+00,4.721e+00,6.398e+00,4.276e+00,3.463e+00,5.085e+00,5.712e+00,5.280e+00,4.707e+00,5.739e+00,5.377e+00,5.833e+00,3.859e+00,6.398e+00,5.976e+00
7.610e-01,5.646e-01,3.302e-02,1.649e+00,1.142e+00,1.395e+00,1.292e+00,2.182e+00,1.576e+00,2.241e+00,2.370e+00,2.068e+00,3.591e+00,3.740e+00,3.973e+00,4.182e+00,3.264e+00,4.142e+00,5.769e+00,5.906e+00,5.452e+00,5.889e+00,4.052e+00,6.987e+00,3.968e+00,5.888e+00,6.248e+00,4.965e+00,5.638e+00,6.995e+00,5.415e+00,5.586e+00,6.292e+00,6.095e+00,4.355e+00,5.897e+00,5.878e+00,4.829e+00,6.764e+00,6.238e+00,5.824e+00,5.461e+00,6.492e+00,4.384e+00,5.874e+00,5.381e+00,5.717e+00,5.343e+00,3.773e+00,6.915e+00,6.422e+00,6.201e+00,5.462e+00,6.491e+00,5.359e+00,5.372e+00,7.584e+00,5.448e+00,5.156e+00,6.543e+00,5.264e+00,5.382e+00,6.455e+00,6.461e+00,4.491e+00,6.046e+00,7.169e+00,5.649e+00,5.064e+00,4.978e+00,5.358e+00,5.881e+00,5.620e+00,5.049e+00,7.528e+00,6.147e+00,4.680e+00,6.434e+00,6.289e+00
4.831e-01,1.186e+00,1.242e-01,2.017e+00,1.191e+00,8.715e-01,1.875e+00,2.520e+00,1.185e+00,1.794e+00,2.623e+00,2.481e+00,4.015e+00,3.598e+00,3.968e+00,2.769e+00,3.722e+00,4.138e+00,5.410e+00,5.332e+00,4.224e+00,5.524e+00,5.155e+00,5.438e+00,4.668e+00,5.542e+00,6.736e+00,5.424e+00,4.799e+00,6.814e+00,6.508e+00,4.725e+00,6.373e+00,5.292e+00,4.584e+00,6.061e+00,5.727e+00,4.634e+00,5.706e+00,6.835e+00,4.480e+00,5.180e+00,6.171e+00,5.460e+00,5.727e+00,5.682e+00,6.242e+00,4.740e+00,3.528e+00,6.107e+00,5.730e+00,6.406e+00,6.160e+00,6.009e+00,5.522e+00,5.456e+00,6.800e+00,5.942e+00,5.372e+00,6.176e+00,4.955e+00,5.241e+00,6.398e+00,6.962e+00,6.023e+00,6.397e+00,6.084e+00,5.168e+00,4.085e+00,5.335e+00,6.541e+00,5.854e+00,5.133e+00,5.926e+00,6.262e+00,5.587e+00,5.400e+00,7.070e+00,6.119e+00
3.519e-01,6.339e-01,5.962e-02,1.664e+00,9.926e-01,1.277e+00,1.099e+00,2.227e+00,1.148e+00,2.065e+00,3.146e+00,2.112e+00,3.832e+00,3.292e+00,3.809e+00,3.129e+00,3.012e+00,2.873e+00,4.713e+00,4.271e+00,4.534e+00,4.596e+00,3.848e+00,5.552e+00,3.134e+00,3.906e+00,4.887e+00,5.205e+00,5.474e+00,6.179e+00,5.477e+00,4.362e+00,5.033e+00,4.592e+00,4.197e+00,4.529e+00,4.720e+00,4.532e+00,4.794e+00,4.910e+00,4.428e+00,4.280e+00,5.621e+00,4.839e+00,5.651e+00,5.509e+00,4.818e+00,4.669e+00,4.103e+00,5.366e+00,4.801e+00,5.612e+00,5.098e+00,5.160e+00,4.522e+00,4.671e+00,6.739e+00,5.627e+00,5.398e+00,5.446e+00,3.677e+00,4.465e+00,4.437e+00,6.391e+00,4.294e+00,4.542e+00,6.419e+00,4.801e+00,4.039e+00,5.033e+00,5.622e+00,5.902e+00,5.040e+00,4.582e+00,6.254e+00,5.059e+00,4.338e+00,5.718e+00,5.396e+00
2.311e-01,3.223e-01,2.581e-02,6.931e-01,7.741e-01,9.500e-01,1.111e+00,1.473e+00,1.094e+00,1.931e+00,2.297e+00,1.899e+00,3.836e+00,3.955e+00,4.233e+00,4.131e+00,3.014e+00,3.732e+00,4.677e+00,4.284e+00,4.536e+00,4.693e+00,3.806e+00,5.701e+00,4.770e+00,4.554e+00,5.917e+00,5.319e+00,5.705e+00,6.051e+00,6.248e+00,5.170e+00,5.722e+00,6.016e+00,5.157e+00,4.829e+00,5.483e+00,5.939e+00,5.469e+00,6.050e+00,4.780e+00,5.395e+00,6.936e+00,4.751e+00,6.065e+00,5.757e+00,5.322e+00,5.213e+00,4.293e+00,6.313e+00,5.408e+00,6.126e+00,5.889e+00,5.757e+00,5.573e+00,5.097e+00,7.265e+00,6.206e+00,4.959e+00,6.348e+00,4.508e+00,5.018e+00,6.168e+00,7.096e+00,4.863e+00,6.277e+00,6.239e+00,5.662e+00,5.471e+00,4.187e+00,5.820e+00,6.033e+00,6.129e+00,5.133e+00,7.286e+00,5.875e+00,6.095e+00,5.923e+00,6.443e+00
8.353e-01,9.928e-01,7.195e-02,2.305e+00,1.559e+00,1.984e+00,1.882e+00,2.981e+00,1.841e+00,2.715e+00,2.678e+00,2.500e+00,3.925e+00,3.669e+00,4.357e+00,4.488e+00,3.371e+00,3.966e+00,6.239e+00,6.257e+00,5.552e+00,5.967e+00,5.421e+00,6.625e+00,4.590e+00,5.345e+00,7.697e+00,6.200e+00,7.906e+00,8.758e+00,7.606e+00,7.749e+00,6.907e+00,7.491e+00,5.747e+00,6.896e+00,7.019e+00,6.634e+00,7.775e+00,7.580e+00,6.687e+00,6.168e+00,8.036e+00,4.980e+00,7.033e+00,7.048e+00,6.177e+00,6.257e+00,5.781e+00,7.839e+00,7.036e+00,7.525e+00,7.256e+00,8.160e+00,6.006e+00,6.791e+00,9.298e+00,7.245e+00,7.006e+00,7.485e+00,5.427e+00,7.095e+00,6.239e+00,8.674e+00,5.914e+00,6.782e+00,8.091e+00,7.663e+00,6.330e+00,6.464e+00,6.608e+00,7.448e+00,6.898e+00,6.527e+00,8.579e+00,7.804e+00,6.361e+00,8.215e+00,7.719e+00
5.447e-01,1.050e+00,8.137e-02,1.819e+00,8.518e-01,1.158e+00,1.342e+00,2.694e+00,1.640e+00,2.537e+00,3.101e+00,2.483e+00,3.604e+00,2.900e+00,4.033e+00,3.050e+00,3.013e+00,3.727e+00,4.849e+00,4.650e+00,5.302e+00,4.135e+00,3.977e+00,5.746e+00,4.199e+00,5.418e+00,7.066e+00,4.530e+00,6.740e+00,7.082e+00,6.829e+00,4.870e+00,5.811e+00,5.404e+00,5.009e+00,5.368e+00,5.163e+00,6.682e+00,5.887e+00,5.438e+00,4.271e+00,6.198e+00,6.765e+00,5.154e+00,6.058e+00,6.772e+00,4.978e+00,5.641e+00,5.244e+00,6.407e+00,5.929e+00,6.365e+00,5.937e+00,5.954e+00,5.585e+00,4.411e+00,6.994e+00,5.041e+00,4.908e+00,7.578e+00,4.684e+00,5.199e+00,6.006e+00,6.550e+00,4.970e+00,5.904e+00,6.818e+00,5.526e+00,4.381e+00,5.489e+00,6.780e+00,6.260e+00,6.264e+00,6.418e+00,6.725e+00,6.424e+00,5.558e+00,6.352e+00,7.164e+00
2.235e-01,3.899e-01,3.464e-02,5.781e-01,4.207e-01,5.088e-01,8.169e-01,1.195e+00,6.663e-01,1.266e+00,2.128e+00,1.911e+00,3.262e+00,2.737e+00,3.489e+00,2.600e+00,2.925e+00,3.152e+00,4.619e+00,4.103e+00,4.600e+00,5.037e+00,4.444e+00,6.733e+00,4.188e+00,4.839e+00,8.070e+00,6.172e+00,8.723e+00,8.977e+00,8.312e+00,5.411e+00,7.118e+00,6.719e+00,6.418e+00,5.843e+00,7.407e+00,8.275e+00,6.905e+00,6.749e+00,5.346e+00,6.919e+00,8.391e+00,6.420e+00,7.372e+00,8.137e+00,7.754e+00,6.934e+00,7.101e+00,7.797e+00,6.602e+00,8.257e+00,6.310e+00,6.647e+00,7.304e+00,6.977e+00,8.871e+00,7.358e+00,7.206e+00,8.865e+00,6.046e+00,6.591e+00,7.079e+00,8.324e+00,7.074e+00,7.652e+00,7.721e+00,6.374e+00,6.212e+00,5.989e+00,7.829e+00,8.151e+00,7.952e+00,7.375e+00,8.639e+00,8.028e+00,7.825e+00,7.838e+00,8.982e+00
1.930e-01,9.920e-01,9.996e-02,1.743e+00,1.140e+00,1.424e+00,1.853e+00,2.945e+00,1.507e+00,2.415e+00,2.872e+00,2.198e+00,3.181e+00,2.446e+00,3.993e+00,3.451e+00,3.005e+00,4.337e+00,5.992e+00,5.218e+00,5.686e+00,5.354e+00,4.633e+00,5.558e+00,4.005e+00,5.635e+00,7.180e+00,5.251e+00,7.920e+00,7.180e+00,7.725e+00,6.800e+00,6.958e+00,7.218e+00,5.750e+00,6.733e+00,8.068e+00,5.364e+00,8.264e+00,7.299e+00,5.004e+00,7.072e+00,7.629e+00,6.124e+00,6.848e+00,6.886e+00,6.407e+00,6.097e+00,5.912e+00,7.270e+00,6.697e+00,6.598e+00,7.139e+00,7.684e+00,6.372e+00,5.841e+00,8.515e+00,7.065e+00,6.697e+00,7.330e+00,6.083e+00,6.484e+00,7.282e+00,7.857e+00,6.117e+00,7.584e+00,7.125e+00,6.717e+00,6.551e+00,5.485e+00,6.350e+00,7.615e+00,6.510e+00,7.651e+00,7.586e+00,7.787e+00,6.427e+00,7.240e+00,8.397e+00
3.220e-01,9.249e-01,8.444e-02,1.241e+00,8.944e-01,6.913e-01,1.564e+00,2.454e+00,1.243e+00,2.584e+00,3.030e+00,2.355e+00,4.100e+00,2.980e+00,4.642e+00,3.525e+00,2.872e+00,4.318e+00,5.860e+00,5.622e+00,5.492e+00,5.063e+00,5.732e+00,6.584e+00,4.976e+00,6.021e+00,7.453e+00,6.473e+00,9.107e+00,9.317e+00,9.348e+00,7.468e+00,7.848e+00,7.909e+00,7.043e+00,6.833e+00,8.215e+00,8.159e+00,7.904e+00,8.021e+00,6.174e+00,7.661e+00,9.457e+00,7.971e+00,8.888e+00,9.171e+00,7.711e+00,7.626e+00,6.670e+00,8.954e+00,7.189e+00,8.426e+00,7.630e+00,8.259e+00,7.711e+00,6.582e+00,9.891e+00,7.361e+00,8.440e+00,8.781e+00,6.899e+00,7.518e+00,7.699e+00,8.604e+00,7.931e+00,8.809e+00,8.727e+00,7.009e+00,6.255e+00,6.952e+00,8.410e+00,8.370e+00,8.391e+00,8.589e+00,8.272e+00,8.857e+00,7.906e+00,8.397e+00,9.314e+00
8.929e-01,1.021e+00,8.038e-02,2.228e+00,1.856e+00,2.272e+00,2.246e+00,2.964e+00,1.895e+00,2.496e+00,3.550e+00,3.359e+00,5.110e+00,4.456e+00,4.760e+00,4.257e+00,3.820e+00,3.865e+00,5.815e+00,4.771e+00,5.285e+00,5.787e+00,4.102e+00,6.540e+00,5.362e+00,5.048e+00,7.863e+00,6.098e+00,8.444e+00,9.489e+00,9.887e+00,7.695e+00,8.268e+00,8.470e+00,6.671e+00,6.619e+00,7.916e+00,7.557e+00,9.414e+00,8.316e+00,6.702e+00,6.823e+00,9.529e+00,7.166e+00,7.089e+00,8.002e+00,7.172e+00,8.538e+00,6.517e+00,8.452e+00,7.699e+00,8.546e+00,7.815e+00,8.065e+00,8.893e+00,6.158e+00,1.038e+01,8.612e+00,6.913e+00,8.261e+00,6.580e+00,7.181e+00,7.486e+00,8.243e+00,6.391e+00,8.359e+00,8.710e+00,7.626e+00,7.104e+00,7.178e+00,7.721e+00,8.244e+00,8.625e+00,8.625e+00,1.026e+01,8.281e+00,7.906e+00,7.755e+00,8.146e+00
8.762e-02,2.591e-01,4.435e-02,1.527e+00,8.356e-01,1.588e+00,1.414e+00,2.701e+00,1.238e+00,2.474e+00,2.625e+00,2.068e+00,3.763e+00,3.460e+00,4.323e+00,4.251e+00,3.721e+00,4.357e+00,5.400e+00,5.367e+00,5.268e+00,6.184e+00,4.684e+00,6.487e+00,4.395e+00,5.352e+00,7.280e+00,5.915e+00,7.757e+00,8.079e+00,8.297e+00,7.169e+00,7.451e+00,7.012e+00,5.927e+00,6.793e+00,7.501e+00,7.421e+00,7.878e+00,8.171e+00,5.661e+00,6.971e+00,8.420e+00,6.836e+00,6.838e+00,6.845e+00,7.301e+00,6.198e+00,5.205e+00,8.226e+00,6.923e+00,6.441e+00,6.840e+00,7.336e+00,7.349e+00,6.839e+00,9.472e+00,7.122e+00,6.684e+00,8.417e+00,6.121e+00,7.590e+00,6.861e+00,8.075e+00,6.174e+00,7.910e+00,6.760e+00,6.729e+00,7.308e+00,6.373e+00,7.166e+00,7.595e+00,7.519e+00,7.170e+00,9.033e+00,7.268e+00,6.384e+00,7.701e+00,8.957e+00
8.096e-01,1.358e+00,1.112e-01,2.693e+00,1.826e+00,2.340e+00,2.296e+00,3.546e+00,2.222e+00,2.887e+00,3.830e+00,3.379e+00,5.075e+00,4.467e+00,5.232e+00,4.566e+00,4.458e+00,5.079e+00,6.342e+00,5.809e+00,6.723e+00,6.440e+00,5.288e+00,7.467e+00,6.111e+00,6.650e+00,1.049e+01,6.774e+00,9.984e+00,1.083e+01,1.149e+01,9.351e+00,1.031e+01,9.726e+00,8.904e+00,8.757e+00,9.218e+00,9.750e+00,1.145e+01,9.682e+00,8.556e+00,9.474e+00,1.148e+01,9.580e+00,9.427e+00,1.066e+01,8.590e+00,1.012e+01,8.285e+00,1.135e+01,9.766e+00,1.026e+01,1.046e+01,9.977e+00,1.006e+01,7.767e+00,1.198e+01,9.934e+00,9.518e+00,1.058e+01,9.357e+00,9.738e+00,9.398e+00,1.067e+01,7.987e+00,1.067e+01,1.097e+01,9.384e+00,8.418e+00,9.779e+00,1.008e+01,1.080e+01,1.003e+01,1.054e+01,1.247e+01,9.542e+00,9.467e+00,1.020e+01,1.069e+01
4.134e-01,1.159e+00,9.932e-02,1.329e+00,8.325e-01,6.154e-01,1.675e+00,2.450e+00,1.290e+00,2.414e+00,2.920e+00,2.466e+00,3.836e+00,3.245e+00,4.536e+00,3.588e+00,4.022e+00,4.945e+00,5.509e+00,5.055e+00,5.396e+00,5.293e+00,5.427e+00,6.665e+00,5.457e+00,5.439e+00,8.441e+00,5.990e+00,8.767e+00,8.521e+00,9.400e+00,7.973e+00,8.578e+00,8.044e+00,7.525e+00,8.013e+00,9.221e+00,9.158e+00,7.765e+00,9.184e+00,7.124e+00,8.970e+00,9.656e+00,8.570e+00,9.286e+00,9.957e+00,7.911e+00,7.848e+00,8.208e+00,9.484e+00,7.162e+00,9.239e+00,9.858e+00,8.886e+00,8.951e+00,8.202e+00,1.051e+01,8.159e+00,8.477e+00,9.748e+00,8.030e+00,8.330e+00,8.286e+00,1.070e+01,9.105e+00,9.564e+00,8.574e+00,7.633e+00,7.268e+00,7.939e+00,9.813e+00,9.766e+00,8.799e+00,8.730e+00,1.029e+01,9.304e+00,8.563e+00,1.001e+01,9.900e+00
8.364e-01,9.913e-01,8.203e-02,2.424e+00,1.708e+00,1.970e+00,1.816e+00,3.024e+00,1.723e+00,2.462e+00,3.832e+00,2.974e+00,4.716e+00,3.937e+00,4.562e+00,3.946e+00,4.099e+00,4.210e+00,6.228e+00,5.803e+00,6.020e+00,6.383e+00,4.794e+00,7.181e+00,4.629e+00,5.573e+00,8.584e+00,6.537e+00,8.900e+00,9.556e+00,9.884e+00,7.597e+00,8.610e+00,9.236e+00,8.069e+00,7.414e+00,9.263e+00,8.378e+00,1.049e+01,9.229e+00,8.509e+00,8.126e+00,1.090e+01,9.766e+00,8.805e+00,9.182e+00,8.209e+00,9.740e+00,7.646e+00,9.955e+00,8.480e+00,9.966e+00,8.966e+00,9.122e+00,9.539e+00,7.461e+00,1.203e+01,9.216e+00,9.057e+00,9.187e+00,8.176e+00,9.085e+00,8.361e+00,9.591e+00,8.240e+00,9.896e+00,1.071e+01,8.559e+00,8.164e+00,9.209e+00,9.456e+00,1.067e+01,9.531e+00,1.010e+01,1.081e+01,9.710e+00,8.077e+00,9.449e+00,1.035e+01
2.865e-01,8.636e-01,7.576e-02,1.189e+00,8.129e-01,7.206e-01,1.428e+00,2.365e+00,1.386e+00,2.235e+00,3.278e+00,2.479e+00,3.498e+00,3.167e+00,4.424e+00,3.200e+00,2.970e+00,4.168e+00,5.225e+00,4.151e+00,4.737e+00,4.659e+00,4.405e+00,5.843e+00,4.188e+00,5.763e+00,6.011e+00,6.067e+00,7.194e+00,7.812e+00,9.365e+00,7.135e+00,8.212e+00,7.926e+00,8.590e+00,6.781e+00,9.517e+00,7.844e+00,9.667e+00,7.978e+00,6.624e+00,8.287e+00,9.399e+00,9.371e+00,9.704e+00,9.388e+00,7.822e+00,7.844e+00,6.556e+00,9.459e+00,7.023e+00,8.323e+00,8.966e+00,7.972e+00,9.134e+00,7.756e+00,1.013e+01,8.788e+00,8.368e+00,8.298e+00,8.374e+00,7.768e+00,8.494e+00,8.990e+00,9.016e+00,1.012e+01,9.500e+00,7.142e+00,7.070e+00,7.333e+00,7.707e+00,8.985e+00,8.364e+00,9.612e+00,9.604e+00,9.075e+00,7.387e+00,8.397e+00,8.703e+00
2.316e-01,2.213e-01,4.090e-02,1.613e+00,9.404e-01,1.459e+00,1.292e+00,2.708e+00,1.269e+00,2.360e+00,3.128e+00,2.346e+00,4.134e+00,3.530e+00,4.323e+00,3.815e+00,3.785e+00,4.922e+00,5.557e+00,5.992e+00,4.671e+00,5.513e+00,4.673e+00,6.437e+00,4.654e+00,5.214e+00,7.235e+00,5.829e+00,7.608e+00,8.003e+00,8.211e+00,6.768e+00,6.972e+00,7.683e+00,7.594e+00,8.120e+00,8.544e+00,9.395e+00,9.469e+00,9.502e+00,7.961e+00,8.453e+00,1.131e+01,8.990e+00,8.374e+00,8.686e+00,7.276e+00,8.544e+00,6.794e+00,9.900e+00,8.489e+00,8.949e+00,8.941e+00,8.160e+00,8.758e+00,8.098e+00,1.155e+01,8.792e+00,8.786e+00,8.828e+00,7.506e+00,1.050e+01,8.002e+00,9.714e+00,7.407e+00,9.501e+00,8.798e+00,8.008e+00,7.831e+00,7.527e+00,8.976e+00,9.807e+00,8.963e+00,9.663e+00,1.017e+01,9.722e+00,7.568e+00,9.416e+00,9.724e+00
9.383e-01,1.370e+00,1.230e-01,2.370e+00,1.914e+00,1.836e+00,2.566e+00,3.410e+00,1.761e+00,2.455e+00,2.998e+00,3.231e+00,3.904e+00,3.519e+00,3.708e+00,3.072e+00,3.341e+00,3.969e+00,5.971e+00,4.907e+00,5.264e+00,5.585e+00,4.643e+00,6.139e+00,4.847e+00,5.870e+00,8.052e+00,5.324e+00,7.333e+00,8.305e+00,9.670e+00,7.273e+00,8.497e+00,8.707e+00,7.502e+00,8.179e+00,9.792e+00,9.213e+00,1.153e+01,1.025e+01,8.002e+00,9.495e+00,1.051e+01,9.387e+00,9.351e+00,1.085e+01,8.717e+00,8.243e+00,7.379e+00,1.002e+01,8.330e+00,9.614e+00,1.050e+01,8.822e+00,1.042e+01,8.677e+00,1.072e+01,9.716e+00,8.748e+00,1.027e+01,7.956e+00,7.810e+00,9.645e+00,1.025e+01,9.390e+00,1.097e+01,9.586e+00,8.880e+00,7.751e+00,8.406e+00,9.022e+00,1.015e+01,9.320e+00,1.109e+01,1.172e+01,1.009e+01,8.029e+00,1.005e+01,1.144e+01
7.689e-01,7.049e-01,5.182e-02,1.697e+00,1.458e+00,1.548e+00,1.399e+00,2.128e+00,1.341e+00,1.842e+00,2.858e+00,2.339e+00,3.605e+00,3.081e+00,3.067e+00,3.019e+00,3.221e+00,3.771e+00,4.763e+00,4.675e+00,5.200e+00,5.436e+00,3.405e+00,6.185e+00,3.428e+00,4.351e+00,6.778e+00,4.882e+00,6.904e+00,7.263e+00,8.191e+00,6.215e+00,7.688e+00,7.280e+00,7.678e+00,7.233e+00,8.666e+00,9.261e+00,1.127e+01,1.004e+01,9.002e+00,9.415e+00,1.179e+01,9.607e+00,9.139e+00,1.026e+01,8.277e+00,9.334e+00,6.635e+00,1.119e+01,8.056e+00,8.755e+00,9.971e+00,7.714e+00,1.009e+01,7.776e+00,1.161e+01,9.468e+00,9.518e+00,9.374e+00,8.652e+00,9.524e+00,8.950e+00,9.184e+00,7.741e+00,9.747e+00,1.048e+01,9.024e+00,8.244e+00,9.631e+00,9.296e+00,1.009e+01,8.713e+00,9.854e+00,1.199e+01,9.586e+00,8.091e+00,8.784e+00,1.122e+01
5.966e-01,1.141e+00,1.044e-01,2.454e+00,1.680e+00,2.168e+00,2.532e+00,3.579e+00,1.982e+00,3.148e+00,3.463e+00,3.114e+00,5.486e+00,4.473e+00,5.548e+00,5.025e+00,4.702e+00,5.640e+00,6.753e+00,6.338e+00,6.474e+00,7.583e+00,5.415e+00,7.936e+00,6.061e+00,6.855e+00,9.537e+00,7.068e+00,8.704e+00,9.455e+00,1.059e+01,9.047e+00,1.076e+01,1.078e+01,9.077e+00,9.711e+00,1.134e+01,1.180e+01,1.420e+01,1.324e+01,1.048e+01,1.163e+01,1.441e+01,1.247e+01,1.174e+01,1.258e+01,1.088e+01,1.190e+01,8.925e+00,1.451e+01,1.022e+01,1.221e+01,1.255e+01,1.027e+01,1.378e+01,1.064e+01,1.453e+01,1.326e+01,1.139e+01,1.243e+01,1.121e+01,1.172e+01,1.277e+01,1.227e+01,1.018e+01,1.289e+01,1.231e+01,1.017e+01,1.098e+01,1.073e+01,1.200e+01,1.123e+01,1.245e+01,1.375e+01,1.451e+01,1.290e+01,1.061e+01,1.187e+01,1.346e+01
5.358e-01,4.678e-01,4.409e-02,1.859e+00,1.068e+00,1.604e+00,1.596e+00,3.077e+00,1.785e+00,2.895e+00,3.318e+00,2.687e+00,4.400e+00,3.858e+00,5.040e+00,4.521e+00,3.631e+00,5.043e+00,6.325e+00,6.433e+00,5.363e+00,5.410e+00,4.820e+00,7.309e+00,4.784e+00,6.318e+00,6.569e+00,5.850e+00,8.081e+00,8.766e+00,8.020e+00,8.074e+00,8.566e+00,8.211e+00,8.142e+00,8.321e+00,9.204e+00,1.054e+01,1.179e+01,1.142e+01,9.939e+00,9.636e+00,1.301e+01,1.056e+01,1.066e+01,1.062e+01,8.648e+00,1.075e+01,8.238e+00,1.366e+01,1.047e+01,9.639e+00,1.085e+01,1.015e+01,1.062e+01,1.011e+01,1.288e+01,1.008e+01,1.007e+01,1.064e+01,9.167e+00,1.194e+01,9.940e+00,1.090e+01,8.759e+00,1.147e+01,1.126e+01,1.033e+01,8.692e+00,9.260e+00,1.048e+01,9.686e+00,1.025e+01,1.073e+01,1.194e+01,1.060e+01,8.887e+00,1.058e+01,1.145e+01
7.694e-03,7.664e-02,3.747e-02,1.564e+00,1.238e+00,1.983e+00,1.437e+00,2.646e+00,1.113e+00,2.090e+00,3.120e+00,2.165e+00,4.286e+00,3.734e+00,4.293e+00,3.950e+00,4.000e+00,4.463e+00,5.244e+00,4.768e+00,5.352e+00,6.731e+00,4.237e+00,6.492e+00,4.887e+00,5.321e+00,8.046e+00,6.112e+00,8.123e+00,7.929e+00,8.791e+00,7.331e+00,8.326e+00,8.420e+00,7.466e+00,8.263e+00,9.484e+00,1.016e+01,1.077e+01,1.081e+01,9.100e+00,9.525e+00,1.212e+01,1.085e+01,1.001e+01,1.034e+01,9.034e+00,1.068e+01,8.526e+00,1.188e+01,9.968e+00,9.173e+00,1.048e+01,9.688e+00,1.093e+01,8.982e+00,1.263e+01,1.094e+01,1.007e+01,1.105e+01,9.299e+00,1.179e+01,9.875e+00,1.098e+01,9.106e+00,1.161e+01,1.125e+01,1.012e+01,9.011e+00,9.654e+00,1.077e+01,1.114e+01,1.089e+01,1.112e+01,1.221e+01,1.025e+01,9.490e+00,1.150e+01,1.171e+01
4.115e-01,6.759e-01,6.193e-02,1.574e+00,1.103e+00,1.428e+00,1.733e+00,2.519e+00,1.652e+00,2.654e+00,3.350e+00,2.663e+00,4.159e+00,3.532e+00,4.347e+00,4.067e+00,2.397e+00,3.522e+00,6.006e+00,5.217e+00,5.578e+00,5.698e+00,4.989e+00,6.809e+00,4.258e+00,5.569e+00,6.252e+00,6.336e+00,7.829e+00,8.943e+00,8.107e+00,7.243e+00,8.518e+00,8.351e+00,8.010e+00,7.428e+00,8.844e+00,9.452e+00,1.130e+01,1.054e+01,9.268e+00,9.904e+00,1.263e+01,1.097e+01,1.167e+01,1.190e+01,9.230e+00,1.059e+01,8.321e+00,1.375e+01,9.102e+00,1.164e+01,1.149e+01,9.727e+00,1.148e+01,1.130e+01,1.191e+01,1.079e+01,1.005e+01,1.056e+01,9.492e+00,1.041e+01,9.748e+00,1.212e+01,1.031e+01,1.158e+01,1.179e+01,9.799e+00,8.217e+00,9.885e+00,1.083e+01,1.032e+01,9.995e+00,1.066e+01,1.213e+01,1.071e+01,9.802e+00,1.032e+01,1.199e+01
1.121e-01,8.060e-01,9.966e-02,1.452e+00,8.495e-01,1.095e+00,2.129e+00,2.988e+00,1.568e+00,2.615e+00,3.934e+00,3.308e+00,4.943e+00,4.549e+00,6.194e+00,5.193e+00,5.185e+00,6.369e+00,7.585e+00,6.796e+00,6.590e+00,6.813e+00,6.564e+00,8.132e+00,6.128e+00,6.634e+00,9.139e+00,7.994e+00,9.960e+00,1.097e+01,1.086e+01,8.680e+00,9.987e+00,1.020e+01,9.201e+00,9.788e+00,1.140e+01,1.086e+01,1.252e+01,1.268e+01,9.328e+00,1.093e+01,1.518e+01,1.301e+01,1.276e+01,1.153e+01,1.161e+01,1.107e+01,1.089e+01,1.391e+01,1.086e+01,1.151e+01,1.312e+01,1.187e+01,1.347e+01,1.205e+01,1.411e+01,1.165e+01,1.135e+01,1.236e+01,1.051e+01,1.375e+01,1.186e+01,1.339e+01,1.154e+01,1.399e+01,1.192e+01,1.077e+01,1.037e+01,1.096e+01,1.296e+01,1.251e+01,1.231e+01,1.315e+01,1.348e+01,1.219e+01,1.170e+01,1.274e+01,1.293e+01
5.643e-03,2.739e-01,3.088e-02,7.863e-01,5.866e-01,1.272e+00,1.194e+00,1.724e+00,1.100e+00,1.959e+00,2.690e+00,1.938e+00,3.428e+00,2.781e+00,3.777e+00,3.829e+00,2.505e+00,3.009e+00,4.674e+00,3.457e+00,4.858e+00,5.441e+00,3.602e+00,5.941e+00,4.712e+00,4.417e+00,6.086e+00,4.874e+00,8.632e+00,8.320e+00,8.702e+00,7.701e+00,8.543e+00,8.257e+00,9.154e+00,7.699e+00,9.512e+00,9.762e+00,1.099e+01,1.033e+01,8.675e+00,1.074e+01,1.289e+01,1.230e+01,1.126e+01,1.205e+01,9.824e+00,1.145e+01,1.006e+01,1.365e+01,9.201e+00,1.166e+01,1.300e+01,1.132e+01,1.278e+01,1.216e+01,1.259e+01,1.177e+01,1.053e+01,1.126e+01,1.050e+01,1.256e+01,1.012e+01,1.264e+01,1.031e+01,1.303e+01,1.162e+01,1.085e+01,9.997e+00,1.051e+01,1.181e+01,1.221e+01,1.101e+01,1.199e+01,1.296e+01,1.141e+01,1.220e+01,1.149e+01,1.201e+01
1.829e-01,6.136e-01,8.512e-02,2.129e+00,1.081e+00,1.728e+00,1.905e+00,2.964e+00,1.677e+00,2.391e+00,3.208e+00,2.976e+00,4.212e+00,4.563e+00,4.516e+00,4.357e+00,4.127e+00,5.149e+00,5.685e+00,5.526e+00,5.859e+00,5.901e+00,4.744e+00,7.329e+00,4.488e+00,5.934e+00,9.176e+00,7.138e+00,8.986e+00,9.297e+00,9.833e+00,7.957e+00,8.895e+00,8.786e+00,8.147e+00,7.784e+00,9.609e+00,9.077e+00,1.073e+01,9.033e+00,7.879e+00,9.388e+00,1.209e+01,1.026e+01,1.069e+01,1.095e+01,1.046e+01,1.025e+01,9.825e+00,1.206e+01,1.035e+01,1.168e+01,1.208e+01,1.072e+01,1.115e+01,1.001e+01,1.329e+01,1.154e+01,1.135e+01,1.148e+01,9.398e+00,1.076e+01,1.064e+01,1.136e+01,9.247e+00,1.297e+01,1.169e+01,8.772e+00,1.023e+01,1.077e+01,1.177e+01,1.224e+01,1.249e+01,1.179e+01,1.255e+01,1.103e+01,1.167e+01,1.038e+01,1.167e+01
4.030e-01,2.634e-01,1.895e-02,6.083e-01,6.596e-01,6.121e-01,9.385e-01,1.598e+00,1.066e+00,1.564e+00,2.798e+00,2.301e+00,3.461e+00,3.262e+00,4.069e+00,3.289e+00,3.617e+00,5.083e+00,4.771e+00,4.556e+00,4.133e+00,4.140e+00,3.553e+00,6.411e+00,4.338e+00,4.721e+00,6.372e+00,5.141e+00,7.754e+00,7.468e+00,8.216e+00,6.789e+00,6.762e+00,7.716e+00,8.170e+00,6.828e+00,8.997e+00,9.720e+00,1.133e+01,9.583e+00,9.001e+00,9.604e+00,1.309e+01,1.228e+01,1.132e+01,1.185e+01,1.078e+01,1.191e+01,1.069e+01,1.379e+01,1.017e+01,1.069e+01,1.196e+01,1.092e+01,1.267e+01,1.123e+01,1.379e+01,1.119e+01,1.299e+01,1.103e+01,9.823e+00,1.289e+01,1.066e+01,1.128e+01,1.004e+01,1.312e+01,1.200e+01,1.038e+01,9.550e+00,1.040e+01,1.300e+01,1.340e+01,1.306e+01,1.270e+01,1.278e+01,1.260e+01,1.199e+01,1.127e+01,1.297e+01
5.885e-01,9.306e-01,8.537e-02,2.350e+00,1.147e+00,1.705e+00,2.085e+00,3.331e+00,1.945e+00,3.160e+00,2.875e+00,2.956e+00,4.883e+00,4.094e+00,4.726e+00,4.250e+00,3.764e+00,5.352e+00,5.599e+00,6.170e+00,5.236e+00,5.997e+00,5.297e+00,7.444e+00,5.596e+00,6.298e+00,8.816e+00,5.969e+00,8.890e+00,9.487e+00,9.146e+00,9.081e+00,9.455e+00,8.711e+00,8.427e+00,8.402e+00,9.114e+00,1.058e+01,1.120e+01,1.119e+01,9.435e+00,1.069e+01,1.351e+01,1.217e+01,1.149e+01,1.294e+01,1.183e+01,1.287e+01,9.991e+00,1.490e+01,1.172e+01,1.243e+01,1.217e+01,1.224e+01,1.308e+01,1.165e+01,1.388e+01,1.184e+01,1.258e+01,1.361e+01,1.046e+01,1.309e+01,1.152e+01,1.206e+01,1.034e+01,1.376e+01,1.291e+01,1.054e+01,9.739e+00,1.227e+01,1.389e+01,1.268e+01,1.334e+01,1.288e+01,1.351e+01,1.270e+01,1.259e+01,1.286e+01,1.288e+01
6.766e-01,1.238e+00,9.319e-02,2.147e+00,1.274e+00,1.485e+00,1.821e+00,2.892e+00,1.856e+00,2.921e+00,3.632e+00,2.936e+00,5.158e+00,4.367e+00,5.811e+00,4.932e+00,4.063e+00,4.688e+00,6.839e+00,6.638e+00,6.167e+00,6.220e+00,6.137e+00,7.389e+00,5.462e+00,6.108e+00,8.098e+00,7.447e+00,8.537e+00,9.836e+00,1.019e+01,8.449e+00,9.117e+00,9.368e+00,8.791e+00,8.925e+00,9.572e+00,1.031e+01,1.123e+01,1.159e+01,9.025e+00,1.023e+01,1.351e+01,1.050e+01,1.175e+01,1.203e+01,1.193e+01,1.347e+01,1.045e+01,1.474e+01,1.082e+01,1.241e+01,1.332e+01,1.317e+01,1.394e+01,1.202e+01,1.417e+01,1.461e+01,1.180e+01,1.473e+01,1.015e+01,1.235e+01,1.147e+01,1.433e+01,1.265e+01,1.368e+01,1.505e+01,1.188e+01,1.042e+01,1.239e+01,1.376e+01,1.414e+01,1.282e+01,1.285e+01,1.445e+01,1.217e+01,1.223e+01,1.359e+01,1.297e+01
9.866e-01,1.434e+00,9.607e-02,2.434e+00,1.791e+00,2.215e+00,2.231e+00,3.882e+00,2.253e+00,3.525e+00,3.727e+00,3.311e+00,5.064e+00,3.938e+00,5.533e+00,4.368e+00,4.091e+00,4.912e+00,7.385e+00,6.357e+00,6.800e+00,6.440e+00,5.542e+00,7.527e+00,5.913e+00,6.902e+00,9.029e+00,6.131e+00,1.024e+01,1.025e+01,1.082e+01,9.482e+00,1.010e+01,1.063e+01,9.689e+00,9.293e+00,1.207e+01,1.137e+01,1.367e+01,1.245e+01,1.001e+01,1.116e+01,1.452e+01,1.275e+01,1.234e+01,1.371e+01,1.231e+01,1.433e+01,1.190e+01,1.695e+01,1.262e+01,1.340e+01,1.410e+01,1.472e+01,1.540e+01,1.260e+01,1.609e+01,1.502e+01,1.312e+01,1.523e+01,1.145e+01,1.387e+01,1.347e+01,1.396e+01,1.305e+01,1.533e+01,1.569e+01,1.294e+01,1.163e+01,1.249e+01,1.469e+01,1.477e+01,1.482e+01,1.605e+01,1.519e+01,1.544e+01,1.338e+01,1.489e+01,1.551e+01
7.110e-01,1.287e+00,1.295e-01,2.894e+00,1.669e+00,2.065e+00,2.874e+00,4.199e+00,2.488e+00,3.419e+00,4.074e+00,3.912e+00,5.205e+00,4.488e+00,5.396e+00,4.788e+00,4.008e+00,6.394e+00,7.407e+00,7.622e+00,6.490e+00,6.595e+00,5.899e+00,8.062e+00,5.251e+00,7.084e+00,8.962e+00,6.943e+00,7.658e+00,9.136e+00,9.738e+00,8.133e+00,9.032e+00,9.775e+00,9.209e+00,9.329e+00,1.117e+01,1.035e+01,1.369e+01,1.296e+01,1.043e+01,1.160e+01,1.463e+01,1.227e+01,1.236e+01,1.314e+01,1.138e+01,1.263e+01,1.036e+01,1.708e+01,1.293e+01,1.397e+01,1.446e+01,1.353e+01,1.551e+01,1.395e+01,1.648e+01,1.454e+01,1.265e+01,1.571e+01,1.234e+01,1.275e+01,1.281e+01,1.423e+01,1.341e+01,1.633e+01,1.503e+01,1.236e+01,1.247e+01,1.282e+01,1.344e+01,1.448e+01,1.374e+01,1.459e+01,1.524e+01,1.448e+01,1.311e+01,1.492e+01,1.520e+01
3.521e-01,4.790e-01,4.868e-02,1.054e+00,8.605e-01,7.926e-01,9.722e-01,1.453e+00,9.067e-01,1.052e+00,3.011e+00,2.399e+00,3.574e+00,3.303e+00,3.975e+00,3.293e+00,3.309e+00,4.377e+00,5.628e+00,5.396e+00,5.081e+00,5.622e+00,4.702e+00,6.667e+00,3.819e+00,4.864e+00,6.612e+00,6.058e+00,8.208e+00,8.084e+00,7.962e+00,7.146e+00,8.220e+00,8.030e+00,9.246e+00,7.822e+00,9.722e+00,9.971e+00,1.191e+01,1.167e+01,1.070e+01,1.031e+01,1.439e+01,1.227e+01,1.217e+01,1.259e+01,1.219e+01,1.406e+01,1.220e+01,1.558e+01,1.267e+01,1.249e+01,1.512e+01,1.461e+01,1.528e+01,1.468e+01,1.503e+01,1.499e+01,1.359e+01,1.535e+01,1.226e+01,1.435e+01,1.302e+01,1.440e+01,1.211e+01,1.565e+01,1.565e+01,1.305e+01,1.154e+01,1.392e+01,1.512e+01,1.584e+01,1.343e+01,1.422e+01,1.534e+01,1.284e+01,1.528e+01,1.399e+01,1.484e+01
9.721e-01,1.290e+00,8.929e-02,1.687e+00,1.687e+00,1.260e+00,1.917e+00,2.263e+00,1.386e+00,2.055e+00,2.243e+00,2.157e+00,3.820e+00,2.991e+00,4.050e+00,3.648e+00,3.443e+00,4.034e+00,5.462e+00,5.630e+00,5.357e+00,5.901e+00,5.488e+00,5.786e+00,5.579e+00,5.592e+00,9.836e+00,6.194e+00,8.652e+00,9.479e+00,1.192e+01,8.728e+00,9.814e+00,1.026e+01,9.803e+00,8.601e+00,1.073e+01,1.099e+01,1.355e+01,1.337e+01,1.015e+01,1.175e+01,1.517e+01,1.389e+01,1.225e+01,1.295e+01,1.240e+01,1.398e+01,1.142e+01,1.666e+01,1.194e+01,1.471e+01,1.620e+01,1.482e+01,1.606e+01,1.345e+01,1.655e+01,1.517e+01,1.421e+01,1.604e+01,1.380e+01,1.368e+01,1.421e+01,1.453e+01,1.518e+01,1.810e+01,1.590e+01,1.382e+01,1.346e+01,1.525e+01,1.621e+01,1.595e+01,1.538e+01,1.609e+01,1.577e+01,1.485e+01,1.547e+01,1.551e+01,1.665e+01
7.741e-01,9.265e-01,5.549e-02,1.366e+00,1.426e+00,1.390e+00,1.366e+00,1.816e+00,1.091e+00,1.727e+00,2.232e+00,1.842e+00,3.937e+00,2.536e+00,3.487e+00,2.952e+00,3.580e+00,3.789e+00,5.436e+00,5.087e+00,5.231e+00,6.373e+00,4.483e+00,6.318e+00,4.800e+00,5.001e+00,8.665e+00,5.294e+00,8.750e+00,8.588e+00,9.055e+00,7.011e+00,9.573e+00,8.023e+00,8.408e+00,7.921e+00,9.012e+00,9.432e+00,1.131e+01,1.043e+01,8.850e+00,1.039e+01,1.229e+01,1.079e+01,9.931e+00,1.178e+01,1.104e+01,1.268e+01,9.009e+00,1.506e+01,9.296e+00,1.185e+01,1.378e+01,1.238e+01,1.557e+01,1.231e+01,1.344e+01,1.378e+01,1.267e+01,1.484e+01,1.230e+01,1.271e+01,1.309e+01,1.364e+01,1.194e+01,1.301e+01,1.264e+01,1.078e+01,1.132e+01,1.343e+01,1.509e+01,1.433e+01,1.244e+01,1.360e+01,1.448e+01,1.361e+01,1.317e+01,1.385e+01,1.498e+01
8.485e-01,8.239e-01,3.919e-02,1.767e+00,1.270e+00,1.967e+00,1.674e+00,2.830e+00,1.898e+00,2.609e+00,2.815e+00,2.633e+00,4.136e+00,3.297e+00,4.603e+00,4.126e+00,3.404e+00,4.299e+00,5.756e+00,5.459e+00,4.601e+00,6.026e+00,4.824e+00,6.237e+00,5.675e+00,5.291e+00,8.757e+00,5.695e+00,8.656e+00,9.309e+00,9.471e+00,8.484e+00,9.069e+00,9.166e+00,8.680e+00,7.596e+00,9.486e+00,9.909e+00,1.201e+01,1.192e+01,8.979e+00,1.021e+01,1.383e+01,1.206e+01,1.180e+01,1.254e+01,1.056e+01,1.335e+01,1.104e+01,1.478e+01,1.137e+01,1.335e+01,1.485e+01,1.447e+01,1.576e+01,1.415e+01,1.536e+01,1.468e+01,1.278e+01,1.564e+01,1.267e+01,1.514e+01,1.406e+01,1.507e+01,1.294e+01,1.710e+01,1.483e+01,1.283e+01,1.241e+01,1.390e+01,1.552e+01,1.531e+01,1.398e+01,1.527e+01,1.488e+01,1.486e+01,1.483e+01,1.540e+01,1.364e+01
6.302e-01,7.442e-01,7.117e-02,1.499e+00,1.472e+00,1.213e+00,1.527e+00,1.773e+00,8.739e-01,1.161e+00,2.316e+00,2.380e+00,4.046e+00,3.650e+00,3.296e+00,2.664e+00,3.482e+00,3.993e+00,4.704e+00,4.457e+00,3.912e+00,5.682e+00,3.946e+00,5.881e+00,4.379e+00,4.719e+00,8.159e+00,5.807e+00,7.460e+00,8.439e+00,9.488e+00,6.930e+00,8.755e+00,8.224e+00,8.209e+00,8.337e+00,1.002e+01,9.267e+00,1.194e+01,1.130e+01,9.523e+00,9.705e+00,1.239e+01,1.202e+01,9.942e+00,1.126e+01,1.164e+01,1.265e+01,9.742e+00,1.310e+01,1.029e+01,1.342e+01,1.375e+01,1.260e+01,1.637e+01,1.353e+01,1.535e+01,1.479e+01,1.444e+01,1.453e+01,1.296e+01,1.347e+01,1.393e+01,1.370e+01,1.330e+01,1.602e+01,1.326e+01,1.099e+01,1.133e+01,1.365e+01,1.526e+01,1.499e+01,1.376e+01,1.587e+01,1.545e+01,1.530e+01,1.449e+01,1.453e+01,1.409e+01
4.098e-01,9.685e-01,1.145e-01,2.040e+00,1.581e+00,1.687e+00,2.478e+00,2.973e+00,1.623e+00,2.080e+00,3.464e+00,3.315e+00,4.474e+00,3.941e+00,4.580e+00,4.001e+00,3.304e+00,4.809e+00,6.193e+00,5.386e+00,5.748e+00,6.668e+00,5.730e+00,7.398e+00,5.810e+00,6.933e+00,8.963e+00,7.407e+00,9.806e+00,1.091e+01,1.144e+01,9.327e+00,1.035e+01,1.029e+01,1.020e+01,9.958e+00,1.118e+01,1.157e+01,1.449e+01,1.314e+01,1.101e+01,1.182e+01,1.479e+01,1.448e+01,1.300e+01,1.464e+01,1.310e+01,1.437e+01,1.235e+01,1.734e+01,1.321e+01,1.454e+01,1.597e+01,1.567e+01,1.652e+01,1.479e+01,1.624e+01,1.645e+01,1.553e+01,1.644e+01,1.490e+01,1.570e+01,1.497e+01,1.596e+01,1.424e+01,1.864e+01,1.698e+01,1.476e+01,1.397e+01,1.376e+01,1.647e+01,1.648e+01,1.438e+01,1.774e+01,1.722e+01,1.573e+01,1.713e+01,1.695e+01,1.683e+01
3.042e-01,1.056e+00,1.170e-01,2.383e+00,1.575e+00,1.963e+00,2.252e+00,3.634e+00,1.635e+00,2.809e+00,3.357e+00,2.662e+00,4.810e+00,3.466e+00,5.256e+00,4.193e+00,4.021e+00,5.025e+00,6.852e+00,6.621e+00,5.769e+00,6.317e+00,6.136e+00,6.714e+00,5.749e+00,6.756e+00,8.705e+00,6.984e+00,9.001e+00,9.860e+00,1.073e+01,8.711e+00,9.339e+00,9.223e+00,9.264e+00,1.002e+01,1.005e+01,1.079e+01,1.322e+01,1.248e+01,9.634e+00,1.104e+01,1.453e+01,1.308e+01,1.177e+01,1.252e+01,1.157e+01,1.258e+01,1.111e+01,1.644e+01,1.282e+01,1.394e+01,1.560e+01,1.471e+01,1.568e+01,1.582e+01,1.643e+01,1.730e+01,1.531e+01,1.673e+01,1.424e+01,1.634e+01,1.416e+01,1.682e+01,1.561e+01,1.793e+01,1.527e+01,1.482e+01,1.369e+01,1.470e+01,1.728e+01,1.742e+01,1.553e+01,1.726e+01,1.658e+01,1.646e+01,1.539e+01,1.787e+01,1.729e+01
4.684e-01,8.975e-01,7.390e-02,1.731e+00,1.241e+00,1.383e+00,1.318e+00,2.634e+00,1.476e+00,2.299e+00,3.513e+00,2.485e+00,4.475e+00,3.918e+00,5.560e+00,4.333e+00,4.092e+00,4.658e+00,6.258e+00,5.931e+00,6.387e+00,5.249e+00,5.382e+00,7.053e+00,4.575e+00,6.508e+00,7.670e+00,6.997e+00,8.413e+00,9.149e+00,9.516e+00,6.990e+00,8.729e+00,7.712e+00,7.829e+00,8.848e+00,8.850e+00,1.114e+01,1.230e+01,1.084e+01,9.751e+00,1.038e+01,1.436e+01,1.186e+01,1.253e+01,1.203e+01,1.130e+01,1.276e+01,1.124e+01,1.555e+01,1.263e+01,1.213e+01,1.481e+01,1.330e+01,1.521e+01,1.474e+01,1.475e+01,1.523e+01,1.512e+01,1.704e+01,1.328e+01,1.397e+01,1.430e+01,1.613e+01,1.370e+01,1.610e+01,1.694e+01,1.328e+01,1.272e+01,1.468e+01,1.698e+01,1.637e+01,1.459e+01,1.517e+01,1.730e+01,1.478e+01,1.486e+01,1.584e+01,1.602e+01
2.884e-01,9.907e-01,8.702e-02,1.710e+00,1.080e+00,1.512e+00,1.734e+00,2.494e+00,1.370e+00,2.145e+00,2.280e+00,1.937e+00,3.627e+00,2.542e+00,4.023e+00,3.410e+00,3.205e+00,3.783e+00,5.619e+00,4.938e+00,4.731e+00,5.919e+00,5.003e+00,5.715e+00,4.700e+00,5.533e+00,7.927e+00,5.982e+00,8.463e+00,9.407e+00,9.905e+00,7.819e+00,9.512e+00,8.760e+00,8.963e+00,8.783e+00,1.021e+01,9.069e+00,1.224e+01,1.101e+01,8.196e+00,1.006e+01,1.328e+01,1.109e+01,1.133e+01,1.147e+01,1.108e+01,1.213e+01,9.886e+00,1.521e+01,1.059e+01,1.231e+01,1.483e+01,1.345e+01,1.545e+01,1.331e+01,1.376e+01,1.551e+01,1.474e+01,1.544e+01,1.473e+01,1.432e+01,1.421e+01,1.539e+01,1.516e+01,1.652e+01,1.536e+01,1.323e+01,1.287e+01,1.507e+01,1.629e+01,1.556e+01,1.507e+01,1.583e+01,1.563e+01,1.649e+01,1.480e+01,1.634e+01,1.552e+01
3.410e-01,1.018e+00,1.035e-01,1.779e+00,1.494e+00,1.509e+00,1.788e+00,2.204e+00,1.256e+00,1.532e+00,2.979e+00,2.421e+00,3.853e+00,3.283e+00,3.887e+00,3.109e+00,3.471e+00,3.625e+00,4.783e+00,3.863e+00,4.482e+00,4.606e+00,3.718e+00,4.377e+00,4.406e+00,4.545e+00,7.115e+00,5.599e+00,6.610e+00,6.990e+00,9.291e+00,6.083e+00,7.484e+00,7.385e+00,8.118e+00,7.531e+00,8.113e+00,9.074e+00,1.156e+01,1.039e+01,8.368e+00,9.789e+00,1.325e+01,1.104e+01,1.018e+01,1.089e+01,1.034e+01,1.381e+01,1.165e+01,1.535e+01,1.029e+01,1.218e+01,1.552e+01,1.355e+01,1.750e+01,1.319e+01,1.372e+01,1.505e+01,1.362e+01,1.611e+01,1.314e+01,1.440e+01,1.440e+01,1.501e+01,1.575e+01,1.702e+01,1.600e+01,1.334e+01,1.336e+01,1.499e+01,1.795e+01,1.802e+01,1.539e+01,1.665e+01,1.640e+01,1.507e+01,1.507e+01,1.599e+01,1.697e+01
7.046e-01,7.701e-01,6.943e-02,2.063e+00,1.834e+00,2.104e+00,2.329e+00,3.175e+00,1.743e+00,2.627e+00,2.690e+00,2.594e+00,4.221e+00,3.280e+00,3.745e+00,3.285e+00,3.386e+00,4.436e+00,5.955e+00,5.477e+00,5.027e+00,6.825e+00,5.345e+00,6.671e+00,5.805e+00,6.400e+00,9.752e+00,6.772e+00,8.970e+00,9.738e+00,1.167e+01,8.784e+00,1.073e+01,1.058e+01,1.018e+01,9.192e+00,1.100e+01,1.089e+01,1.343e+01,1.298e+01,9.730e+00,1.192e+01,1.516e+01,1.427e+01,1.223e+01,1.381e+01,1.232e+01,1.430e+01,1.071e+01,1.606e+01,1.149e+01,1.427e+01,1.504e+01,1.409e+01,1.592e+01,1.416e+01,1.599e+01,1.582e+01,1.522e+01,1.538e+01,1.535e+01,1.552e+01,1.571e+01,1.537e+01,1.542e+01,1.885e+01,1.657e+01,1.415e+01,1.452e+01,1.644e+01,1.807e+01,1.827e+01,1.620e+01,1.852e+01,1.754e+01,1.667e+01,1.700e+01,1.655e+01,1.789e+01
8.669e-01,1.253e+00,9.153e-02,1.633e+00,1.195e+00,8.115e-01,1.821e+00,2.655e+00,1.466e+00,2.283e+00,2.320e+00,2.300e+00,3.040e+00,2.172e+00,3.402e+00,2.080e+00,3.469e+00,4.056e+00,5.317e+00,5.104e+00,4.980e+00,5.307e+00,5.462e+00,6.544e+00,4.495e+00,5.966e+00,8.142e+00,5.951e+00,6.818e+00,8.489e+00,9.886e+00,6.235e+00,8.000e+00,7.976e+00,7.675e+00,8.112e+00,9.231e+00,9.696e+00,1.089e+01,1.058e+01,7.473e+00,1.051e+01,1.277e+01,1.197e+01,1.155e+01,1.254e+01,1.090e+01,1.156e+01,1.043e+01,1.439e+01,1.039e+01,1.342e+01,1.344e+01,1.186e+01,1.410e+01,1.372e+01,1.388e+01,1.443e+01,1.444e+01,1.535e+01,1.433e+01,1.441e+01,1.502e+01,1.567e+01,1.652e+01,1.708e+01,1.585e+01,1.340e+01,1.272e+01,1.503e+01,1.808e+01,1.694e+01,1.604e+01,1.709e+01,1.707e+01,1.587e+01,1.553e+01,1.636e+01,1.588e+01
7.309e-01,8.881e-01,6.505e-02,1.456e+00,1.410e+00,1.357e+00,1.889e+00,2.510e+00,1.671e+00,2.503e+00,3.539e+00,2.828e+00,4.231e+00,3.801e+00,4.545e+00,4.267e+00,4.024e+00,4.881e+00,6.113e+00,5.190e+00,6.010e+00,6.187e+00,4.384e+00,7.433e+00,4.916e+00,5.325e+00,8.014e+00,6.309e+00,8.568e+00,8.585e+00,9.264e+00,8.544e+00,9.190e+00,9.090e+00,8.772e+00,8.462e+00,1.052e+01,1.030e+01,1.193e+01,1.132e+01,1.013e+01,1.124e+01,1.288e+01,1.239e+01,1.199e+01,1.219e+01,1.143e+01,1.244e+01,1.118e+01,1.469e+01,1.106e+01,1.288e+01,1.447e+01,1.217e+01,1.520e+01,1.322e+01,1.510e+01,1.410e+01,1.490e+01,1.470e+01,1.285e+01,1.529e+01,1.539e+01,1.554e+01,1.590e+01,1.718e+01,1.630e+01,1.383e+01,1.273e+01,1.599e+01,1.663e+01,1.751e+01,1.544e+01,1.581e+01,1.727e+01,1.603e+01,1.564e+01,1.559e+01,1.688e+01
7.295e-01,7.205e-01,6.426e-02,1.784e+00,1.515e+00,1.815e+00,2.170e+00,3.018e+00,1.716e+00,2.364e+00,3.303e+00,3.079e+00,4.106e+00,3.520e+00,4.233e+00,3.584e+00,3.537e+00,4.305e+00,6.597e+00,5.509e+00,5.265e+00,6.310e+00,5.181e+00,7.148e+00,5.329e+00,5.654e+00,8.161e+00,6.259e+00,8.871e+00,9.463e+00,1.059e+01,8.445e+00,9.569e+00,1.019e+01,1.009e+01,8.506e+00,1.131e+01,9.531e+00,1.269e+01,1.193e+01,9.297e+00,1.086e+01,1.434e+01,1.329e+01,1.220e+01,1.367e+01,1.272e+01,1.356e+01,1.188e+01,1.573e+01,1.219e+01,1.326e+01,1.533e+01,1.430e+01,1.661e+01,1.524e+01,1.606e+01,1.607e+01,1.668e+01,1.605e+01,1.411e+01,1.589e+01,1.578e+01,1.648e+01,1.568e+01,2.013e+01,1.794e+01,1.583e+01,1.441e+01,1.715e+01,1.859e+01,1.940e+01,1.682e+01,1.915e+01,1.707e+01,1.784e+01,1.922e+01,1.751e+01,1.784e+01
3.703e-01,7.651e-01,7.735e-02,2.159e+00,1.129e+00,1.713e+00,1.707e+00,2.917e+00,1.718e+00,2.390e+00,3.530e+00,2.769e+00,4.463e+00,3.906e+00,4.757e+00,4.155e+00,3.984e+00,5.016e+00,6.731e+00,6.155e+00,5.308e+00,6.342e+00,4.503e+00,6.887e+00,4.648e+00,5.897e+00,8.133e+00,6.262e+00,8.994e+00,9.268e+00,9.600e+00,8.723e+00,9.878e+00,9.580e+00,9.858e+00,9.473e+00,1.171e+01,9.231e+00,1.337e+01,1.308e+01,1.019e+01,1.131e+01,1.460e+01,1.200e+01,1.120e+01,1.268e+01,1.183e+01,1.416e+01,1.186e+01,1.664e+01,1.330e+01,1.407e+01,1.627e+01,1.567e+01,1.639e+01,1.592e+01,1.723e+01,1.746e+01,1.534e+01,1.751e+01,1.483e+01,1.714e+01,1.646e+01,1.846e+01,1.742e+01,2.078e+01,1.872e+01,1.701e+01,1.458e+01,1.753e+01,1.943e+01,1.956e+01,1.664e+01,1.900e+01,1.867e+01,1.953e+01,1.853e+01,1.913e+01,1.880e+01
4.104e-01,7.345e-01,8.632e-02,2.228e+00,1.379e+00,1.840e+00,2.125e+00,3.434e+00,1.808e+00,2.699e+00,3.251e+00,2.725e+00,3.447e+00,2.933e+00,3.729e+00,3.306e+00,2.646e+00,3.903e+00,6.035e+00,5.427e+00,5.108e+00,5.412e+00,4.829e+00,5.667e+00,4.162e+00,5.603e+00,6.418e+00,5.221e+00,7.300e+00,8.129e+00,8.826e+00,7.526e+00,7.347e+00,8.292e+00,7.711e+00,8.483e+00,9.214e+00,7.882e+00,1.176e+01,1.061e+01,8.011e+00,1.026e+01,1.277e+01,1.157e+01,1.088e+01,1.185e+01,1.022e+01,1.169e+01,1.045e+01,1.480e+01,1.200e+01,1.250e+01,1.456e+01,1.365e+01,1.483e+01,1.467e+01,1.474e+01,1.539e+01,1.542e+01,1.551e+01,1.465e+01,1.572e+01,1.553e+01,1.605e+01,1.609e+01,1.894e+01,1.752e+01,1.526e+01,1.450e+01,1.608e+01,1.810e+01,1.913e+01,1.602e+01,1.869e+01,1.814e+01,1.709e+01,1.725e+01,1.762e+01,1.761e+01
5.527e-01,1.232e+00,1.116e-01,1.756e+00,1.030e+00,7.574e-01,1.839e+00,2.657e+00,1.509e+00,2.482e+00,3.089e+00,2.661e+00,4.038e+00,3.073e+00,4.197e+00,3.355e+00,3.413e+00,5.117e+00,6.146e+00,6.433e+00,5.919e+00,5.650e+00,5.671e+00,7.056e+00,4.781e+00,6.212e+00,9.067e+00,6.140e+00,8.303e+00,9.630e+00,8.980e+00,7.575e+00,8.626e+00,8.670e+00,8.699e+00,8.054e+00,9.133e+00,9.982e+00,1.109e+01,1.038e+01,9.040e+00,1.133e+01,1.221e+01,1.128e+01,1.225e+01,1.385e+01,1.214e+01,1.238e+01,1.083e+01,1.738e+01,1.175e+01,1.383e+01,1.545e+01,1.484e+01,1.604e+01,1.355e+01,1.465e+01,1.503e+01,1.468e+01,1.720e+01,1.409e+01,1.528e+01,1.474e+01,1.608e+01,1.740e+01,1.840e+01,1.783e+01,1.455e+01,1.322e+01,1.756e+01,1.988e+01,1.919e+01,1.645e+01,1.739e+01,1.807e+01,1.736e+01,1.661e+01,1.883e+01,1.884e+01
2.697e-01,7.493e-01,1.000e-01,2.138e+00,1.168e+00,1.512e+00,2.003e+00,2.823e+00,1.354e+00,1.967e+00,3.196e+00,2.606e+00,4.047e+00,3.274e+00,4.226e+00,3.863e+00,3.329e+00,4.193e+00,5.279e+00,5.342e+00,4.792e+00,5.733e+00,4.727e+00,6.081e+00,4.154e+00,5.288e+00,8.629e+00,6.462e+00,8.202e+00,9.503e+00,9.709e+00,7.814e+00,8.810e+00,9.074e+00,7.710e+00,7.874e+00,9.152e+00,8.310e+00,1.108e+01,1.105e+01,8.685e+00,9.479e+00,1.169e+01,1.227e+01,1.019e+01,1.091e+01,1.169e+01,1.253e+01,1.089e+01,1.456e+01,1.179e+01,1.317e+01,1.403e+01,1.427e+01,1.587e+01,1.378e+01,1.480e+01,1.505e+01,1.388e+01,1.684e+01,1.397e+01,1.472e+01,1.477e+01,1.676e+01,1.601e+01,1.954e+01,1.659e+01,1.438e+01,1.555e+01,1.658e+01,1.899e+01,1.965e+01,1.681e+01,1.785e+01,1.769e+01,1.642e+01,1.847e+01,1.902e+01,1.843e+01
5.416e-01,9.578e-01,6.762e-02,1.907e+00,9.726e-01,1.414e+00,1.472e+00,2.914e+00,1.713e+00,2.916e+00,3.220e+00,2.523e+00,4.784e+00,3.972e+00,5.343e+00,4.394e+00,4.225e+00,5.198e+00,6.358e+00,6.126e+00,6.124e+00,6.437e+00,5.185e+00,7.752e+00,5.265e+00,6.479e+00,7.633e+00,5.687e+00,8.253e+00,8.485e+00,8.523e+00,8.001e+00,9.508e+00,9.107e+00,8.663e+00,8.869e+00,1.051e+01,1.000e+01,1.141e+01,1.246e+01,9.946e+00,1.078e+01,1.325e+01,1.259e+01,1.163e+01,1.247e+01,1.144e+01,1.370e+01,1.003e+01,1.611e+01,1.216e+01,1.275e+01,1.463e+01,1.401e+01,1.663e+01,1.478e+01,1.624e+01,1.660e+01,1.502e+01,1.763e+01,1.543e+01,1.601e+01,1.657e+01,1.701e+01,1.681e+01,1.887e+01,1.901e+01,1.564e+01,1.601e+01,1.865e+01,1.939e+01,2.146e+01,1.782e+01,1.997e+01,2.070e+01,1.924e+01,1.963e+01,1.952e+01,1.989e+01
5.597e-01,3.625e-01,3.414e-02,1.755e+00,1.468e+00,1.962e+00,1.811e+00,3.048e+00,1.675e+00,3.011e+00,2.872e+00,2.486e+00,4.174e+00,3.720e+00,4.189e+00,4.054e+00,3.247e+00,4.182e+00,5.992e+00,5.840e+00,5.659e+00,6.188e+00,5.397e+00,7.036e+00,5.116e+00,5.923e+00,8.713e+00,6.871e+00,9.204e+00,9.607e+00,1.070e+01,8.619e+00,8.728e+00,9.025e+00,8.121e+00,8.159e+00,9.097e+00,9.425e+00,1.017e+01,1.034e+01,7.663e+00,1.010e+01,1.217e+01,1.063e+01,1.028e+01,1.148e+01,1.117e+01,1.251e+01,1.034e+01,1.533e+01,1.111e+01,1.256e+01,1.302e+01,1.303e+01,1.439e+01,1.236e+01,1.502e+01,1.372e+01,1.362e+01,1.501e+01,1.267e+01,1.283e+01,1.253e+01,1.335e+01,1.399e+01,1.725e+01,1.661e+01,1.301e+01,1.378e+01,1.585e+01,1.795e+01,1.898e+01,1.747e+01,1.692e+01,1.843e+01,1.568e+01,1.634e+01,1.636e+01,1.744e+01
1.217e-01,5.161e-01,5.485e-02,7.984e-01,5.872e-01,5.321e-01,1.092e+00,1.746e+00,9.329e-01,1.875e+00,2.370e+00,1.956e+00,3.748e+00,3.274e+00,4.239e+00,3.390e+00,3.714e+00,4.993e+00,5.283e+00,5.305e+00,5.554e+00,5.197e+00,4.355e+00,7.045e+00,4.283e+00,5.684e+00,7.293e+00,5.641e+00,7.866e+00,8.169e+00,9.026e+00,6.955e+00,7.772e+00,8.123e+00,7.811e+00,7.958e+00,9.880e+00,9.739e+00,1.026e+01,1.070e+01,8.231e+00,1.055e+01,1.221e+01,1.028e+01,1.063e+01,1.144e+01,1.073e+01,1.214e+01,9.938e+00,1.480e+01,1.152e+01,1.110e+01,1.235e+01,1.243e+01,1.501e+01,1.282e+01,1.433e+01,1.434e+01,1.441e+01,1.584e+01,1.358e+01,1.445e+01,1.459e+01,1.499e+01,1.629e+01,1.753e+01,1.674e+01,1.466e+01,1.400e+01,1.622e+01,1.916e+01,2.107e+01,1.885e+01,1.739e+01,2.064e+01,1.791e+01,1.876e+01,1.820e+01,1.879e+01
9.478e-01,1.239e+00,9.644e-02,2.663e+00,1.645e+00,2.101e+00,2.469e+00,3.863e+00,2.247e+00,3.450e+00,3.878e+00,3.268e+00,5.016e+00,3.570e+00,5.288e+00,4.553e+00,3.555e+00,4.432e+00,7.486e+00,6.909e+00,6.178e+00,7.300e+00,6.026e+00,8.100e+00,5.852e+00,7.241e+00,8.972e+00,7.257e+00,9.871e+00,1.050e+01,1.071e+01,9.180e+00,1.116e+01,1.021e+01,1.037e+01,9.437e+00,1.180e+01,1.131e+01,1.352e+01,1.332e+01,1.037e+01,1.122e+01,1.495e+01,1.254e+01,1.184e+01,1.300e+01,1.211e+01,1.397e+01,1.074e+01,1.630e+01,1.316e+01,1.563e+01,1.599e+01,1.499e+01,1.647e+01,1.651e+01,1.745e+01,1.818e+01,1.546e+01,1.822e+01,1.526e+01,1.618e+01,1.669e+01,1.898e+01,1.858e+01,2.126e+01,1.994e+01,1.666e+01,1.731e+01,1.885e+01,2.141e+01,2.337e+01,1.907e+01,2.178e+01,2.152e+01,2.170e+01,2.139e+01,2.174e+01,2.240e+01
7.525e-01,5.330e-01,1.534e-02,1.115e+00,9.575e-01,1.271e+00,1.344e+00,2.207e+00,1.741e+00,2.296e+00,2.655e+00,2.220e+00,2.618e+00,2.618e+00,3.988e+00,4.045e+00,2.688e+00,3.878e+00,5.039e+00,4.699e+00,5.180e+00,4.988e+00,4.280e+00,5.933e+00,4.168e+00,5.069e+00,7.820e+00,5.576e+00,7.789e+00,7.837e+00,8.090e+00,7.854e+00,7.662e+00,8.556e+00,7.062e+00,6.804e+00,8.371e+00,9.176e+00,1.009e+01,9.050e+00,8.241e+00,8.950e+00,1.063e+01,9.760e+00,9.664e+00,9.776e+00,8.973e+00,1.131e+01,1.057e+01,1.343e+01,1.039e+01,1.176e+01,1.217e+01,1.234e+01,1.330e+01,1.209e+01,1.315e+01,1.246e+01,1.173e+01,1.533e+01,1.260e+01,1.344e+01,1.366e+01,1.475e+01,1.371e+01,1.694e+01,1.556e+01,1.253e+01,1.358e+01,1.532e+01,1.660e+01,1.803e+01,1.624e+01,1.746e+01,1.834e+01,1.605e+01,1.702e+01,1.590e+01,1.684e+01
3.503e-01,8.706e-01,1.067e-01,2.543e+00,1.783e+00,2.416e+00,2.516e+00,3.732e+00,1.882e+00,2.714e+00,4.051e+00,3.462e+00,5.162e+00,4.252e+00,4.983e+00,4.013e+00,3.848e+00,4.702e+00,6.391e+00,5.058e+00,5.407e+00,6.085e+00,4.323e+00,6.530e+00,5.012e+00,6.003e+00,7.024e+00,6.321e+00,8.253e+00,8.478e+00,9.854e+00,7.846e+00,8.776e+00,9.126e+00,7.434e+00,8.324e+00,9.891e+00,9.328e+00,1.195e+01,1.113e+01,8.387e+00,9.296e+00,1.346e+01,1.146e+01,1.087e+01,1.122e+01,1.113e+01,1.232e+01,1.061e+01,1.289e+01,1.178e+01,1.200e+01,1.385e+01,1.312e+01,1.456e+01,1.301e+01,1.382e+01,1.536e+01,1.315e+01,1.572e+01,1.227e+01,1.488e+01,1.497e+01,1.558e+01,1.390e+01,1.694e+01,1.688e+01,1.464e+01,1.508e+01,1.509e+01,1.760e+01,1.895e+01,1.791e+01,1.926e+01,2.115e+01,1.867e+01,1.918e+01,1.838e+01,1.873e+01
1.207e-01,9.487e-01,1.090e-01,2.132e+00,1.363e+00,1.815e+00,1.845e+00,3.052e+00,1.546e+00,2.340e+00,3.608e+00,2.811e+00,4.893e+00,3.959e+00,4.927e+00,3.725e+00,3.581e+00,4.697e+00,5.973e+00,5.053e+00,5.485e+00,5.559e+00,4.166e+00,6.353e+00,4.812e+00,6.596e+00,8.202e+00,6.348e+00,8.878e+00,9.245e+00,9.659e+00,6.943e+00,8.673e+00,7.795e+00,6.859e+00,8.201e+00,9.221e+00,9.240e+00,1.119e+01,1.034e+01,7.945e+00,9.474e+00,1.215e+01,1.139e+01,1.102e+01,1.071e+01,1.104e+01,1.294e+01,1.032e+01,1.273e+01,1.135e+01,1.230e+01,1.396e+01,1.364e+01,1.418e+01,1.338e+01,1.389e+01,1.424e+01,1.422e+01,1.586e+01,1.283e+01,1.436e+01,1.524e+01,1.622e+01,1.466e+01,1.665e+01,1.691e+01,1.387e+01,1.428e+01,1.714e+01,1.873e+01,1.945e+01,1.876e+01,1.979e+01,2.221e+01,1.976e+01,2.090e+01,1.881e+01,1.982e+01
7.773e-01,1.282e+00,1.142e-01,1.898e+00,1.354e+00,9.178e-01,1.922e+00,2.741e+00,1.505e+00,1.970e+00,3.353e+00,3.093e+00,3.608e+00,3.212e+00,4.329e+00,3.332e+00,4.011e+00,5.353e+00,6.237e+00,6.214e+00,6.388e+00,5.868e+00,5.677e+00,7.451e+00,4.083e+00,6.309e+00,9.332e+00,6.938e+00,8.796e+00,9.926e+00,1.027e+01,7.844e+00,8.274e+00,9.050e+00,7.598e+00,8.545e+00,1.018e+01,9.539e+00,1.139e+01,1.070e+01,9.198e+00,1.027e+01,1.207e+01,1.177e+01,1.166e+01,1.193e+01,1.178e+01,1.288e+01,1.275e+01,1.500e+01,1.271e+01,1.389e+01,1.447e+01,1.514e+01,1.525e+01,1.322e+01,1.550e+01,1.442e+01,1.410e+01,1.859e+01,1.456e+01,1.501e+01,1.536e+01,1.684e+01,1.653e+01,1.965e+01,1.866e+01,1.479e+01,1.532e+01,1.892e+01,2.042e+01,2.201e+01,1.972e+01,2.157e+01,2.194e+01,2.097e+01,2.151e+01,2.145e+01,2.091e+01
5.576e-01,5.654e-01,4.452e-02,1.795e+00,9.677e-01,1.552e+00,1.568e+00,2.646e+00,1.676e+00,2.455e+00,2.607e+00,2.241e+00,3.071e+00,3.113e+00,3.522e+00,3.747e+00,3.388e+00,4.036e+00,5.345e+00,5.019e+00,5.196e+00,5.520e+00,3.972e+00,6.339e+00,3.729e+00,4.828e+00,6.745e+00,4.816e+00,6.945e+00,7.553e+00,7.333e+00,7.013e+00,7.423e+00,8.269e+00,6.385e+00,6.784e+00,8.185e+00,7.449e+00,9.990e+00,9.696e+00,7.461e+00,8.471e+00,1.098e+01,9.619e+00,9.264e+00,9.621e+00,9.660e+00,9.888e+00,8.555e+00,1.244e+01,1.017e+01,1.019e+01,1.202e+01,1.170e+01,1.178e+01,1.101e+01,1.273e+01,1.268e+01,1.228e+01,1.341e+01,1.242e+01,1.282e+01,1.282e+01,1.258e+01,1.330e+01,1.668e+01,1.629e+01,1.398e+01,1.359e+01,1.646e+01,1.705e+01,1.825e+01,1.650e+01,1.827e+01,1.911e+01,1.736e+01,1.770e+01,1.772e+01,1.912e+01
8.204e-01,1.249e+00,1.112e-01,2.766e+00,2.006e+00,2.098e+00,2.278e+00,3.283e+00,1.784e+00,2.360e+00,3.524e+00,2.818e+00,4.919e+00,3.301e+00,4.201e+00,2.873e+00,3.396e+00,3.812e+00,6.423e+00,5.543e+00,4.733e+00,6.461e+00,5.019e+00,6.314e+00,5.247e+00,6.771e+00,8.986e+00,6.840e+00,8.275e+00,1.005e+01,1.041e+01,7.068e+00,9.898e+00,8.856e+00,8.151e+00,8.870e+00,8.778e+00,8.644e+00,1.156e+01,1.114e+01,8.582e+00,9.643e+00,1.274e+01,1.257e+01,1.091e+01,1.157e+01,1.136e+01,1.348e+01,1.035e+01,1.373e+01,1.092e+01,1.360e+01,1.389e+01,1.340e+01,1.478e+01,1.232e+01,1.387e+01,1.424e+01,1.389e+01,1.539e+01,1.371e+01,1.450e+01,1.518e+01,1.534e+01,1.575e+01,1.746e+01,1.751e+01,1.465e+01,1.247e+01,1.701e+01,1.787e+01,1.901e+01,1.641e+01,1.821e+01,1.751e+01,1.915e+01,1.755e+01,2.027e+01,1.886e+01
2.487e-01,7.062e-01,8.215e-02,2.010e+00,1.247e+00,1.909e+00,2.166e+00,3.063e+00,1.828e+00,2.804e+00,3.371e+00,2.759e+00,4.693e+00,3.921e+00,5.006e+00,4.942e+00,2.979e+00,4.488e+00,6.781e+00,6.243e+00,5.925e+00,5.994e+00,4.910e+00,6.816e+00,4.976e+00,6.303e+00,8.136e+00,6.494e+00,8.427e+00,9.482e+00,9.025e+00,8.072e+00,9.288e+00,9.890e+00,7.903e+00,8.984e+00,8.997e+00,8.941e+00,1.254e+01,1.158e+01,8.790e+00,1.027e+01,1.356e+01,1.124e+01,1.041e+01,1.146e+01,1.101e+01,1.218e+01,1.044e+01,1.426e+01,1.220e+01,1.262e+01,1.421e+01,1.316e+01,1.545e+01,1.328e+01,1.406e+01,1.503e+01,1.420e+01,1.731e+01,1.317e+01,1.445e+01,1.662e+01,1.588e+01,1.449e+01,1.969e+01,1.796e+01,1.503e+01,1.497e+01,1.755e+01,1.914e+01,2.141e+01,1.823e+01,2.163e+01,2.089e+01,2.041e+01,2.080e+01,2.051e+01,2.276e+01
