9.426e-01,2.836e-02,6.619e-01,3.012e-02,3.005e-01,5.479e-01,8.661e-01,8.330e-01,2.493e-01,1.992e-01,5.780e-01,3.632e-01,9.767e-01,7.519e-01,3.173e-01,8.659e-01,5.555e-01,8.888e-02,4.657e-03,7.150e-01,3.650e-01,8.604e-02,7.016e-01,6.304e-01,6.097e-01,9.464e-01,4.269e-01,6.413e-01,8.713e-01,2.603e-01,3.283e-01,9.654e-01,8.572e-01,7.179e-01,7.408e-01,5.391e-01,9.668e-01,3.459e-02,1.624e-01,2.634e-01,4.567e-01,5.923e-01,2.302e-01,3.364e-01,3.903e-01,3.008e-03,4.428e-01,9.246e-01,6.080e-02,2.534e-01,9.225e-01
3.137e-01,1.327e-01,5.530e-01,5.772e-01,8.954e-01,7.441e-01,3.193e-01,1.136e+00,2.545e-01,6.925e-01,5.200e-01,9.426e-01,7.681e-01,1.029e+00,7.688e-01,9.636e-01,7.880e-01,8.136e-01,4.939e-01,6.114e-01,1.830e-01,4.318e-01,1.158e+00,3.049e-01,6.617e-01,4.199e-01,5.202e-01,6.437e-01,6.063e-01,1.060e-01,5.658e-01,1.273e+00,1.074e+00,5.613e-01,2.708e-01,2.539e-01,9.084e-01,3.939e-01,7.629e-02,3.484e-01,8.800e-01,1.060e+00,5.222e-01,9.174e-01,3.363e-01,6.426e-02,3.714e-01,6.975e-01,1.933e-01,7.197e-01,3.271e-01
2.457e-01,5.004e-02,6.826e-01,1.046e+00,9.550e-01,1.297e+00,1.035e+00,1.282e+00,2.835e-01,4.978e-01,9.524e-01,5.193e-01,8.202e-01,4.736e-01,8.442e-01,1.399e+00,8.482e-01,1.255e+00,8.946e-01,4.261e-01,7.129e-01,3.921e-01,1.097e+00,7.094e-01,9.225e-01,7.762e-01,1.181e+00,8.759e-01,1.041e+00,3.277e-01,1.078e+00,1.551e+00,1.180e+00,5.528e-01,8.856e-01,3.652e-01,1.370e+00,1.121e+00,7.429e-01,8.032e-01,8.804e-01,9.591e-01,4.811e-01,7.045e-01,5.302e-01,4.556e-01,2.839e-01,5.565e-01,4.974e-01,3.705e-01,5.283e-01
4.830e-01,6.749e-02,7.630e-01,1.642e+00,1.503e+00,1.475e+00,1.810e+00,1.386e+00,5.262e-01,1.521e+00,1.675e+00,6.627e-01,1.620e+00,1.399e+00,1.058e+00,2.003e+00,1.815e+00,1.179e+00,1.213e+00,1.206e+00,7.734e-01,7.595e-01,1.822e+00,1.495e+00,1.788e+00,1.869e+00,1.936e+00,1.341e+00,2.009e+00,6.626e-01,1.267e+00,2.180e+00,2.158e+00,1.645e+00,1.517e+00,8.952e-01,2.272e+00,9.057e-01,1.316e+00,1.534e+00,1.781e+00,2.014e+00,6.523e-01,9.023e-01,6.865e-01,1.181e+00,9.679e-01,1.639e+00,7.614e-01,1.282e+00,7.229e-01
2.167e-01,1.083e-01,7.063e-01,1.226e+00,2.153e+00,2.228e+00,1.375e+00,2.156e+00,9.773e-01,1.160e+00,1.563e+00,1.184e+00,1.626e+00,1.498e+00,1.358e+00,2.203e+00,2.074e+00,1.696e+00,1.679e+00,7.423e-01,1.408e+00,8.242e-01,1.747e+00,1.224e+00,1.181e+00,1.668e+00,1.337e+00,1.209e+00,2.090e+00,3.918e-01,1.227e+00,2.618e+00,1.534e+00,1.202e+00,1.773e+00,7.938e-01,2.424e+00,1.249e+00,1.246e+00,1.059e+00,1.477e+00,2.175e+00,9.240e-01,1.070e+00,1.384e+00,1.161e+00,9.331e-01,1.051e+00,1.151e+00,9.915e-01,1.271e+00
9.420e-01,7.357e-02,8.553e-01,9.284e-01,1.540e+00,1.925e+00,2.766e+00,2.473e+00,1.784e+00,2.240e+00,2.409e+00,1.119e+00,2.896e+00,2.391e+00,1.117e+00,2.201e+00,2.125e+00,8.597e-01,1.157e+00,1.620e+00,1.529e+00,1.500e+00,2.276e+00,1.697e+00,1.912e+00,2.461e+00,2.348e+00,2.280e+00,2.729e+00,1.161e+00,1.277e+00,2.330e+00,2.613e+00,2.025e+00,2.739e+00,1.818e+00,3.125e+00,8.130e-01,1.533e+00,2.095e+00,2.311e+00,2.896e+00,1.555e+00,1.554e+00,1.864e+00,1.067e+00,2.076e+00,1.889e+00,7.966e-01,1.578e+00,1.950e+00
8.714e-01,8.617e-02,1.074e+00,1.088e+00,1.262e+00,1.935e+00,3.010e+00,2.641e+00,1.526e+00,1.819e+00,2.754e+00,1.355e+00,3.216e+00,2.188e+00,2.082e+00,2.342e+00,2.379e+00,1.835e+00,1.598e+00,1.676e+00,2.147e+00,1.462e+00,2.521e+00,1.997e+00,2.677e+00,2.151e+00,3.139e+00,2.911e+00,2.808e+00,1.131e+00,2.435e+00,2.294e+00,2.888e+00,2.131e+00,3.011e+00,1.662e+00,2.875e+00,1.831e+00,2.116e+00,2.680e+00,2.608e+00,2.857e+00,1.968e+00,2.459e+00,2.441e+00,1.600e+00,2.427e+00,1.951e+00,1.245e+00,1.759e+00,2.432e+00
6.659e-01,8.187e-02,9.029e-01,1.353e+00,1.405e+00,1.666e+00,2.466e+00,2.318e+00,1.548e+00,1.738e+00,2.702e+00,1.705e+00,2.941e+00,2.863e+00,2.698e+00,2.433e+00,3.137e+00,1.766e+00,1.817e+00,2.063e+00,2.013e+00,2.089e+00,3.163e+00,2.148e+00,2.847e+00,2.992e+00,3.634e+00,2.441e+00,3.561e+00,1.534e+00,2.464e+00,2.653e+00,2.912e+00,2.784e+00,2.455e+00,1.341e+00,3.284e+00,1.592e+00,2.426e+00,2.294e+00,2.839e+00,3.018e+00,2.408e+00,2.617e+00,2.488e+00,2.638e+00,2.741e+00,2.562e+00,1.714e+00,2.522e+00,1.911e+00
3.390e-01,1.212e-01,5.940e-01,1.152e+00,1.465e+00,1.451e+00,2.134e+00,2.136e+00,1.937e+00,2.953e+00,3.168e+00,2.523e+00,2.944e+00,3.439e+00,2.988e+00,2.756e+00,3.725e+00,2.147e+00,2.367e+00,2.363e+00,1.727e+00,2.528e+00,2.992e+00,1.897e+00,2.927e+00,2.289e+00,3.650e+00,2.354e+00,3.152e+00,1.228e+00,2.857e+00,3.095e+00,2.685e+00,2.924e+00,3.256e+00,2.161e+00,3.348e+00,1.951e+00,2.746e+00,2.638e+00,2.911e+00,3.163e+00,2.663e+00,2.961e+00,2.508e+00,2.924e+00,3.075e+00,2.728e+00,2.168e+00,2.740e+00,1.665e+00
7.172e-01,4.821e-02,9.440e-01,1.712e+00,1.977e+00,2.407e+00,3.555e+00,2.678e+00,2.229e+00,3.279e+00,4.857e+00,2.955e+00,4.486e+00,4.403e+00,3.865e+00,4.010e+00,4.818e+00,3.217e+00,3.440e+00,3.196e+00,3.128e+00,2.962e+00,3.685e+00,3.460e+00,4.267e+00,3.727e+00,5.256e+00,3.312e+00,4.431e+00,2.368e+00,3.726e+00,4.622e+00,3.821e+00,4.592e+00,5.141e+00,3.354e+00,5.412e+00,2.774e+00,3.873e+00,3.746e+00,3.795e+00,4.362e+00,3.239e+00,3.706e+00,4.051e+00,4.582e+00,4.418e+00,4.171e+00,3.181e+00,3.100e+00,3.173e+00
7.027e-01,1.097e-01,9.843e-01,1.024e+00,2.068e+00,2.392e+00,2.194e+00,2.677e+00,1.480e+00,1.596e+00,3.532e+00,2.317e+00,3.218e+00,2.930e+00,3.547e+00,3.188e+00,4.072e+00,3.269e+00,3.200e+00,2.646e+00,2.979e+00,2.233e+00,3.139e+00,3.184e+00,2.904e+00,2.918e+00,3.580e+00,2.423e+00,3.482e+00,1.991e+00,2.905e+00,4.234e+00,3.233e+00,3.376e+00,4.156e+00,2.466e+00,4.486e+00,2.175e+00,2.217e+00,2.231e+00,2.788e+00,3.288e+00,2.488e+00,2.511e+00,3.610e+00,3.019e+00,2.579e+00,2.601e+00,2.175e+00,2.235e+00,3.657e+00
3.193e-01,8.782e-02,4.506e-01,5.134e-01,1.009e+00,1.183e+00,1.484e+00,1.961e+00,1.909e+00,2.224e+00,2.817e+00,2.945e+00,2.687e+00,4.226e+00,3.383e+00,2.479e+00,3.275e+00,2.855e+00,2.985e+00,2.452e+00,1.907e+00,2.982e+00,2.899e+00,1.673e+00,3.036e+00,2.253e+00,3.396e+00,2.290e+00,2.957e+00,2.421e+00,2.446e+00,3.763e+00,2.428e+00,3.113e+00,3.687e+00,2.625e+00,4.223e+00,1.587e+00,2.101e+00,2.036e+00,2.592e+00,3.256e+00,2.959e+00,3.321e+00,3.272e+00,3.556e+00,3.876e+00,2.544e+00,2.701e+00,2.917e+00,2.371e+00
8.197e-01,7.508e-02,1.002e+00,1.086e+00,1.355e+00,1.777e+00,2.354e+00,2.122e+00,1.237e+00,1.867e+00,3.265e+00,2.309e+00,4.011e+00,3.742e+00,3.204e+00,3.584e+00,3.840e+00,3.128e+00,2.788e+00,3.024e+00,2.788e+00,2.757e+00,3.281e+00,2.784e+00,4.014e+00,3.202e+00,3.526e+00,2.670e+00,3.766e+00,2.279e+00,3.447e+00,4.252e+00,3.450e+00,4.004e+00,3.945e+00,2.749e+00,4.452e+00,2.291e+00,2.573e+00,2.638e+00,2.832e+00,3.622e+00,3.097e+00,3.570e+00,3.322e+00,3.876e+00,3.392e+00,3.601e+00,2.331e+00,2.164e+00,3.495e+00
2.815e-01,1.927e-02,3.385e-01,7.177e-01,8.034e-01,7.964e-01,1.333e+00,8.430e-01,6.481e-01,9.561e-01,1.874e+00,9.310e-01,1.882e+00,2.041e+00,2.591e+00,1.928e+00,3.224e+00,2.329e+00,2.697e+00,2.459e+00,2.500e+00,1.491e+00,2.237e+00,1.978e+00,2.609e+00,2.066e+00,2.840e+00,2.045e+00,2.680e+00,2.057e+00,2.449e+00,2.199e+00,2.552e+00,2.789e+00,2.336e+00,1.629e+00,2.409e+00,1.176e+00,2.600e+00,2.268e+00,2.045e+00,2.349e+00,1.598e+00,2.211e+00,2.825e+00,2.467e+00,2.321e+00,2.711e+00,1.546e+00,1.869e+00,2.208e+00
4.487e-01,1.011e-01,6.393e-01,1.286e+00,1.968e+00,2.012e+00,2.530e+00,2.509e+00,2.245e+00,3.126e+00,3.979e+00,2.896e+00,3.982e+00,4.747e+00,4.061e+00,3.884e+00,5.673e+00,4.372e+00,4.315e+00,4.007e+00,4.088e+00,4.287e+00,4.077e+00,3.284e+00,4.270e+00,4.604e+00,5.452e+00,3.277e+00,5.466e+00,3.242e+00,3.608e+00,5.480e+00,4.766e+00,4.911e+00,4.934e+00,3.890e+00,6.005e+00,2.899e+00,3.872e+00,4.117e+00,3.984e+00,5.281e+00,4.198e+00,4.510e+00,4.895e+00,5.053e+00,5.311e+00,5.001e+00,2.952e+00,4.095e+00,3.569e+00
7.795e-01,1.168e-01,1.040e+00,1.654e+00,2.097e+00,2.184e+00,2.517e+00,2.433e+00,1.363e+00,2.290e+00,3.206e+00,2.091e+00,3.754e+00,4.203e+00,3.759e+00,4.622e+00,5.268e+00,5.053e+00,4.899e+00,4.829e+00,3.943e+00,3.908e+00,4.447e+00,4.451e+00,5.084e+00,5.346e+00,4.766e+00,3.684e+00,6.130e+00,3.447e+00,3.945e+00,5.878e+00,5.167e+00,5.548e+00,5.608e+00,3.630e+00,6.346e+00,2.492e+00,3.212e+00,3.770e+00,4.386e+00,5.462e+00,3.428e+00,4.682e+00,4.612e+00,4.954e+00,4.750e+00,5.031e+00,3.474e+00,3.727e+00,4.369e+00
6.949e-01,4.693e-02,7.050e-01,6.986e-01,1.055e+00,1.537e+00,2.264e+00,2.066e+00,1.744e+00,2.148e+00,2.904e+00,1.856e+00,2.951e+00,3.413e+00,3.244e+00,3.449e+00,4.387e+00,4.212e+00,5.091e+00,4.693e+00,4.573e+00,3.803e+00,3.516e+00,3.401e+00,4.132e+00,4.100e+00,5.423e+00,3.771e+00,5.606e+00,3.234e+00,3.919e+00,5.066e+00,4.242e+00,4.967e+00,5.891e+00,3.906e+00,5.811e+00,3.095e+00,4.068e+00,4.022e+00,4.285e+00,4.555e+00,3.990e+00,4.731e+00,5.333e+00,4.400e+00,4.855e+00,4.418e+00,3.495e+00,3.203e+00,3.826e+00
3.121e-01,8.824e-02,7.431e-01,1.808e+00,1.861e+00,1.816e+00,1.994e+00,1.872e+00,1.040e+00,1.950e+00,2.841e+00,1.718e+00,3.009e+00,3.372e+00,3.329e+00,3.757e+00,4.830e+00,5.410e+00,4.710e+00,4.600e+00,4.910e+00,3.906e+00,4.109e+00,3.903e+00,4.744e+00,5.308e+00,5.677e+00,3.506e+00,6.007e+00,3.637e+00,4.157e+00,5.633e+00,5.612e+00,5.000e+00,4.593e+00,2.929e+00,5.416e+00,3.360e+00,4.246e+00,4.599e+00,4.112e+00,5.094e+00,3.929e+00,5.328e+00,4.504e+00,4.626e+00,4.855e+00,6.159e+00,3.530e+00,3.951e+00,3.026e+00
1.828e-01,1.626e-02,2.696e-01,3.788e-01,5.642e-01,8.886e-01,1.202e+00,1.246e+00,1.458e+00,1.804e+00,2.407e+00,1.898e+00,2.440e+00,2.972e+00,2.562e+00,2.684e+00,3.607e+00,4.116e+00,4.901e+00,3.886e+00,4.881e+00,5.279e+00,3.024e+00,3.138e+00,4.628e+00,4.386e+00,5.057e+00,3.005e+00,5.830e+00,3.750e+00,3.856e+00,5.185e+00,4.527e+00,4.587e+00,5.955e+00,3.809e+00,5.941e+00,4.190e+00,4.081e+00,4.029e+00,4.016e+00,3.735e+00,5.374e+00,4.746e+00,4.692e+00,4.908e+00,4.909e+00,4.741e+00,4.071e+00,3.274e+00,3.312e+00
5.682e-01,1.268e-01,8.580e-01,1.638e+00,2.105e+00,2.228e+00,3.077e+00,2.986e+00,2.378e+00,3.186e+00,4.473e+00,3.013e+00,4.888e+00,5.572e+00,5.151e+00,4.765e+00,6.720e+00,6.168e+00,6.459e+00,6.785e+00,7.132e+00,6.511e+00,6.808e+00,5.628e+00,6.913e+00,7.225e+00,7.750e+00,5.942e+00,8.152e+00,5.884e+00,5.334e+00,7.756e+00,7.310e+00,7.445e+00,8.086e+00,5.647e+00,8.382e+00,4.139e+00,5.343e+00,5.895e+00,6.162e+00,7.786e+00,6.224e+00,7.451e+00,7.123e+00,6.560e+00,7.760e+00,7.261e+00,4.819e+00,5.982e+00,6.254e+00
9.081e-01,4.991e-02,1.007e+00,1.303e+00,1.706e+00,2.064e+00,2.668e+00,2.257e+00,1.573e+00,2.189e+00,4.033e+00,2.673e+00,3.987e+00,4.593e+00,4.577e+00,4.817e+00,5.830e+00,5.948e+00,6.459e+00,6.031e+00,6.185e+00,5.408e+00,5.045e+00,5.998e+00,6.464e+00,6.454e+00,7.028e+00,5.482e+00,8.299e+00,5.610e+00,5.541e+00,8.156e+00,6.105e+00,7.502e+00,8.176e+00,5.744e+00,8.022e+00,4.409e+00,4.938e+00,5.159e+00,5.397e+00,6.861e+00,5.956e+00,6.626e+00,7.176e+00,6.877e+00,6.774e+00,7.029e+00,6.217e+00,5.154e+00,5.869e+00
7.021e-01,2.243e-02,6.691e-01,8.031e-01,1.334e+00,1.755e+00,2.682e+00,2.161e+00,1.736e+00,1.697e+00,3.732e+00,1.923e+00,3.699e+00,3.448e+00,3.590e+00,2.945e+00,4.269e+00,3.882e+00,5.189e+00,4.481e+00,5.697e+00,5.429e+00,4.842e+00,4.976e+00,6.138e+00,6.064e+00,6.715e+00,5.264e+00,7.400e+00,5.575e+00,4.858e+00,5.608e+00,5.950e+00,6.152e+00,7.888e+00,5.111e+00,6.884e+00,3.560e+00,4.986e+00,5.083e+00,5.461e+00,5.725e+00,5.199e+00,5.282e+00,6.051e+00,5.909e+00,5.845e+00,4.901e+00,4.865e+00,4.479e+00,5.573e+00
4.402e-01,1.324e-01,8.314e-01,1.369e+00,2.000e+00,2.116e+00,2.279e+00,2.731e+00,1.931e+00,2.379e+00,3.531e+00,2.628e+00,3.431e+00,3.989e+00,4.232e+00,3.625e+00,5.359e+00,4.943e+00,5.997e+00,5.458e+00,6.737e+00,5.625e+00,6.487e+00,5.276e+00,5.804e+00,6.012e+00,7.513e+00,5.576e+00,8.524e+00,5.073e+00,6.012e+00,7.696e+00,6.077e+00,6.350e+00,7.734e+00,5.410e+00,8.141e+00,4.648e+00,6.459e+00,5.689e+00,6.022e+00,7.352e+00,6.996e+00,7.252e+00,7.241e+00,6.335e+00,7.095e+00,6.369e+00,5.652e+00,6.047e+00,6.039e+00
1.391e-01,9.681e-02,3.848e-01,1.154e+00,1.949e+00,1.862e+00,2.439e+00,2.299e+00,2.036e+00,2.591e+00,4.155e+00,2.872e+00,4.431e+00,4.976e+00,4.592e+00,3.827e+00,5.725e+00,5.031e+00,6.612e+00,5.922e+00,6.753e+00,6.576e+00,6.132e+00,6.874e+00,7.435e+00,7.739e+00,7.634e+00,6.463e+00,9.568e+00,6.946e+00,6.434e+00,8.045e+00,6.445e+00,9.017e+00,9.100e+00,7.477e+00,8.309e+00,4.820e+00,5.806e+00,5.757e+00,7.528e+00,8.737e+00,6.693e+00,7.590e+00,8.030e+00,7.844e+00,7.993e+00,6.554e+00,6.403e+00,6.303e+00,6.754e+00
1.133e-01,4.938e-02,4.969e-01,9.322e-01,9.915e-01,1.177e+00,9.284e-01,1.413e+00,1.102e+00,1.397e+00,2.578e+00,2.423e+00,2.686e+00,3.619e+00,3.493e+00,3.252e+00,4.170e+00,4.475e+00,5.081e+00,4.899e+00,5.636e+00,5.814e+00,5.172e+00,4.705e+00,6.042e+00,6.842e+00,6.477e+00,5.053e+00,8.347e+00,6.597e+00,6.780e+00,8.690e+00,5.907e+00,6.766e+00,7.288e+00,5.784e+00,7.706e+00,4.862e+00,5.886e+00,4.767e+00,5.744e+00,6.701e+00,7.207e+00,7.177e+00,6.726e+00,7.144e+00,7.041e+00,6.725e+00,6.276e+00,5.262e+00,4.911e+00
8.569e-01,7.072e-02,1.011e+00,1.338e+00,2.246e+00,2.625e+00,2.804e+00,2.854e+00,2.169e+00,2.699e+00,4.401e+00,2.916e+00,4.425e+00,4.833e+00,4.483e+00,5.298e+00,6.306e+00,5.848e+00,6.649e+00,6.984e+00,7.096e+00,6.489e+00,6.922e+00,7.623e+00,7.141e+00,9.138e+00,9.027e+00,6.073e+00,1.078e+01,6.593e+00,8.512e+00,1.049e+01,7.010e+00,9.775e+00,1.026e+01,7.859e+00,1.048e+01,6.308e+00,7.583e+00,5.975e+00,7.825e+00,8.800e+00,8.211e+00,8.945e+00,8.244e+00,8.519e+00,7.880e+00,8.719e+00,7.169e+00,6.488e+00,7.821e+00
9.112e-02,7.775e-02,6.009e-01,1.828e+00,2.179e+00,2.162e+00,2.477e+00,2.189e+00,1.509e+00,2.216e+00,4.114e+00,2.464e+00,3.792e+00,4.140e+00,4.656e+00,3.740e+00,5.573e+00,5.322e+00,5.867e+00,5.422e+00,6.398e+00,5.031e+00,6.338e+00,6.649e+00,6.546e+00,7.336e+00,8.640e+00,7.118e+00,9.684e+00,7.039e+00,7.928e+00,9.974e+00,7.377e+00,8.592e+00,8.848e+00,7.066e+00,9.095e+00,6.126e+00,7.418e+00,6.943e+00,7.205e+00,8.824e+00,7.823e+00,8.034e+00,8.408e+00,7.993e+00,8.424e+00,8.358e+00,7.552e+00,7.425e+00,7.187e+00
3.109e-01,7.101e-02,7.025e-01,1.301e+00,1.397e+00,1.744e+00,2.432e+00,2.238e+00,1.889e+00,2.537e+00,3.693e+00,2.803e+00,3.416e+00,4.236e+00,4.423e+00,4.028e+00,5.048e+00,4.960e+00,5.790e+00,4.493e+00,4.930e+00,5.144e+00,4.857e+00,5.067e+00,6.201e+00,5.433e+00,6.936e+00,6.884e+00,8.421e+00,5.923e+00,6.918e+00,8.055e+00,6.943e+00,7.444e+00,8.585e+00,5.615e+00,8.280e+00,5.215e+00,5.956e+00,6.432e+00,6.991e+00,6.698e+00,6.766e+00,7.742e+00,7.923e+00,7.430e+00,8.185e+00,7.822e+00,7.951e+00,6.060e+00,5.844e+00
8.173e-01,3.153e-02,6.998e-01,7.505e-01,1.081e+00,1.323e+00,2.057e+00,1.818e+00,1.706e+00,2.008e+00,3.731e+00,2.717e+00,3.411e+00,4.533e+00,4.410e+00,3.875e+00,5.331e+00,4.610e+00,5.053e+00,5.328e+00,4.412e+00,4.535e+00,4.484e+00,5.133e+00,5.249e+00,6.320e+00,7.137e+00,4.998e+00,8.333e+00,5.408e+00,5.898e+00,7.907e+00,6.723e+00,8.204e+00,7.529e+00,5.551e+00,8.466e+00,5.027e+00,5.109e+00,5.170e+00,6.271e+00,6.855e+00,6.481e+00,7.128e+00,7.500e+00,7.239e+00,7.942e+00,7.822e+00,6.111e+00,5.976e+00,5.389e+00
6.934e-01,1.437e-01,1.034e+00,1.526e+00,1.963e+00,2.218e+00,2.777e+00,3.069e+00,2.171e+00,2.863e+00,3.900e+00,3.044e+00,4.587e+00,5.261e+00,4.474e+00,4.676e+00,5.686e+00,5.187e+00,5.811e+00,6.338e+00,6.227e+00,6.114e+00,7.135e+00,6.421e+00,7.240e+00,8.439e+00,8.994e+00,7.673e+00,1.061e+01,7.848e+00,8.852e+00,1.038e+01,8.445e+00,1.034e+01,9.615e+00,8.564e+00,1.026e+01,6.240e+00,8.480e+00,7.436e+00,9.568e+00,9.836e+00,8.917e+00,1.013e+01,8.916e+00,8.870e+00,9.552e+00,9.820e+00,7.846e+00,7.554e+00,7.504e+00
2.827e-01,1.149e-01,6.629e-01,1.509e+00,1.948e+00,1.761e+00,1.702e+00,1.786e+00,1.011e+00,2.118e+00,2.903e+00,2.401e+00,2.735e+00,3.573e+00,3.036e+00,3.107e+00,3.631e+00,4.269e+00,4.778e+00,4.047e+00,4.511e+00,3.800e+00,4.497e+00,5.306e+00,5.498e+00,5.999e+00,6.970e+00,5.997e+00,8.211e+00,6.104e+00,8.149e+00,1.058e+01,6.940e+00,8.406e+00,8.472e+00,7.734e+00,8.807e+00,6.494e+00,7.152e+00,6.024e+00,7.527e+00,8.260e+00,7.965e+00,8.345e+00,7.222e+00,7.443e+00,7.405e+00,8.164e+00,8.329e+00,6.864e+00,5.538e+00
7.104e-02,4.463e-02,1.938e-01,5.452e-01,1.410e+00,1.454e+00,1.781e+00,1.721e+00,1.684e+00,1.646e+00,2.664e+00,1.773e+00,2.735e+00,3.049e+00,3.262e+00,2.393e+00,4.486e+00,4.103e+00,5.461e+00,4.078e+00,6.364e+00,4.827e+00,4.200e+00,4.441e+00,5.695e+00,6.532e+00,6.852e+00,6.268e+00,9.520e+00,6.338e+00,8.342e+00,9.161e+00,8.169e+00,8.011e+00,9.798e+00,6.854e+00,8.947e+00,6.250e+00,8.609e+00,7.460e+00,8.782e+00,8.203e+00,8.253e+00,9.628e+00,8.959e+00,8.200e+00,9.518e+00,8.006e+00,8.404e+00,7.418e+00,5.845e+00
7.639e-01,4.938e-02,8.998e-01,8.089e-01,1.178e+00,1.631e+00,1.968e+00,2.077e+00,1.403e+00,1.394e+00,3.717e+00,2.793e+00,3.551e+00,4.091e+00,4.570e+00,3.765e+00,4.824e+00,4.416e+00,4.406e+00,4.673e+00,4.326e+00,3.792e+00,5.110e+00,5.399e+00,5.111e+00,5.813e+00,6.598e+00,5.015e+00,8.038e+00,5.706e+00,7.956e+00,8.904e+00,7.369e+00,8.333e+00,8.868e+00,6.182e+00,1.062e+01,5.173e+00,6.643e+00,6.230e+00,7.509e+00,7.797e+00,8.494e+00,9.424e+00,8.681e+00,8.684e+00,9.180e+00,8.580e+00,8.138e+00,7.183e+00,7.445e+00
5.125e-01,1.195e-01,6.545e-01,5.894e-01,1.552e+00,1.784e+00,2.087e+00,2.616e+00,2.197e+00,2.417e+00,3.690e+00,3.091e+00,3.999e+00,4.760e+00,4.541e+00,3.887e+00,5.693e+00,5.746e+00,5.405e+00,5.601e+00,6.439e+00,6.234e+00,6.134e+00,5.269e+00,6.490e+00,7.380e+00,7.818e+00,7.257e+00,9.767e+00,7.017e+00,8.324e+00,1.053e+01,8.827e+00,8.643e+00,1.150e+01,8.174e+00,1.126e+01,5.879e+00,7.820e+00,8.933e+00,8.166e+00,9.532e+00,1.027e+01,1.082e+01,9.222e+00,9.698e+00,1.073e+01,9.194e+00,9.672e+00,8.797e+00,7.968e+00
8.059e-01,1.113e-01,9.596e-01,1.068e+00,1.487e+00,1.645e+00,2.055e+00,2.203e+00,1.413e+00,2.012e+00,3.659e+00,2.753e+00,3.385e+00,4.067e+00,4.546e+00,4.017e+00,5.460e+00,5.937e+00,6.071e+00,6.301e+00,6.604e+00,5.928e+00,6.519e+00,6.911e+00,7.069e+00,7.906e+00,8.592e+00,7.336e+00,1.102e+01,7.596e+00,9.717e+00,1.150e+01,9.243e+00,9.735e+00,1.175e+01,8.820e+00,1.137e+01,6.809e+00,8.717e+00,9.100e+00,9.460e+00,1.072e+01,1.079e+01,1.197e+01,9.905e+00,1.013e+01,1.121e+01,1.062e+01,1.069e+01,9.440e+00,8.158e+00
5.643e-01,2.869e-02,5.119e-01,3.204e-01,8.866e-01,1.390e+00,2.318e+00,2.048e+00,2.010e+00,1.955e+00,3.197e+00,2.042e+00,3.693e+00,3.684e+00,3.608e+00,3.044e+00,4.515e+00,3.459e+00,4.573e+00,4.813e+00,5.956e+00,4.702e+00,5.496e+00,4.607e+00,5.487e+00,5.709e+00,6.747e+00,6.320e+00,7.967e+00,6.634e+00,8.125e+00,8.439e+00,7.578e+00,7.997e+00,9.833e+00,7.896e+00,1.077e+01,5.391e+00,8.786e+00,8.169e+00,8.257e+00,8.352e+00,1.049e+01,9.768e+00,9.201e+00,8.480e+00,9.553e+00,9.167e+00,8.617e+00,7.339e+00,8.277e+00
1.749e-01,1.116e-01,4.316e-01,1.281e+00,1.832e+00,1.470e+00,1.684e+00,1.780e+00,1.605e+00,2.534e+00,3.248e+00,2.646e+00,3.725e+00,4.605e+00,4.057e+00,4.165e+00,6.025e+00,5.543e+00,5.480e+00,5.930e+00,6.222e+00,5.541e+00,5.510e+00,6.138e+00,6.504e+00,8.149e+00,7.528e+00,6.164e+00,1.062e+01,7.007e+00,9.083e+00,1.119e+01,8.872e+00,1.035e+01,1.019e+01,8.529e+00,1.126e+01,7.648e+00,9.573e+00,9.830e+00,1.002e+01,1.157e+01,1.216e+01,1.176e+01,1.024e+01,1.140e+01,1.108e+01,1.238e+01,1.104e+01,9.464e+00,6.563e+00
1.096e-01,6.639e-02,5.419e-01,9.924e-01,1.245e+00,1.489e+00,1.580e+00,1.739e+00,1.315e+00,1.728e+00,3.261e+00,2.320e+00,2.679e+00,3.123e+00,4.332e+00,3.272e+00,4.855e+00,4.867e+00,5.996e+00,4.484e+00,5.523e+00,4.763e+00,4.486e+00,4.645e+00,5.759e+00,5.096e+00,6.866e+00,5.689e+00,8.148e+00,6.246e+00,8.166e+00,9.279e+00,7.936e+00,7.905e+00,9.598e+00,7.511e+00,1.047e+01,7.949e+00,8.962e+00,9.044e+00,8.499e+00,8.533e+00,1.084e+01,9.609e+00,9.860e+00,8.969e+00,9.026e+00,8.929e+00,9.532e+00,7.515e+00,6.660e+00
2.236e-02,6.372e-02,2.798e-01,6.327e-01,1.018e+00,1.177e+00,1.596e+00,1.676e+00,1.562e+00,1.798e+00,3.053e+00,2.212e+00,3.340e+00,3.530e+00,3.628e+00,3.147e+00,4.637e+00,5.060e+00,5.336e+00,5.339e+00,6.172e+00,5.948e+00,5.156e+00,5.242e+00,6.333e+00,7.239e+00,8.133e+00,7.373e+00,9.854e+00,7.042e+00,8.743e+00,9.737e+00,8.831e+00,9.217e+00,1.129e+01,8.150e+00,1.085e+01,7.398e+00,1.049e+01,1.092e+01,9.945e+00,1.040e+01,1.172e+01,1.283e+01,1.101e+01,1.130e+01,1.204e+01,1.137e+01,1.178e+01,9.165e+00,8.070e+00
8.750e-01,4.375e-02,6.785e-01,2.126e-01,7.724e-01,1.050e+00,1.695e+00,1.598e+00,1.369e+00,1.455e+00,2.925e+00,2.489e+00,3.053e+00,3.669e+00,3.355e+00,3.048e+00,4.080e+00,3.921e+00,4.507e+00,4.335e+00,4.632e+00,4.130e+00,3.729e+00,5.061e+00,5.438e+00,6.252e+00,5.816e+00,4.899e+00,8.291e+00,5.620e+00,7.067e+00,8.612e+00,6.348e+00,7.738e+00,8.763e+00,7.153e+00,8.796e+00,5.726e+00,8.045e+00,7.428e+00,8.243e+00,8.941e+00,9.818e+00,9.485e+00,9.180e+00,9.183e+00,1.013e+01,9.759e+00,9.303e+00,6.946e+00,6.703e+00
2.054e-01,1.166e-01,4.495e-01,5.485e-01,1.236e+00,1.215e+00,1.011e+00,1.741e+00,1.330e+00,1.685e+00,2.699e+00,2.397e+00,2.975e+00,3.514e+00,3.537e+00,3.252e+00,4.414e+00,4.263e+00,4.511e+00,5.134e+00,5.076e+00,5.684e+00,5.907e+00,5.822e+00,5.872e+00,7.052e+00,6.432e+00,6.061e+00,9.740e+00,6.734e+00,8.507e+00,1.058e+01,8.122e+00,9.179e+00,1.098e+01,8.838e+00,1.161e+01,7.397e+00,8.447e+00,9.534e+00,9.716e+00,1.152e+01,1.273e+01,1.258e+01,1.067e+01,1.151e+01,1.158e+01,1.090e+01,1.146e+01,9.465e+00,9.720e+00
8.348e-01,4.905e-02,9.540e-01,1.290e+00,1.987e+00,2.604e+00,3.225e+00,2.966e+00,2.160e+00,2.474e+00,3.886e+00,2.275e+00,3.896e+00,4.071e+00,3.208e+00,3.964e+00,4.230e+00,4.514e+00,5.720e+00,5.300e+00,6.225e+00,5.458e+00,5.949e+00,6.298e+00,6.762e+00,8.170e+00,7.598e+00,7.747e+00,1.064e+01,7.259e+00,7.132e+00,1.024e+01,8.564e+00,9.081e+00,1.211e+01,8.223e+00,1.192e+01,6.423e+00,8.339e+00,9.282e+00,9.973e+00,1.136e+01,1.042e+01,1.141e+01,1.033e+01,1.110e+01,1.182e+01,9.987e+00,1.081e+01,9.150e+00,8.598e+00
3.448e-01,6.958e-02,4.417e-01,5.829e-01,1.003e+00,1.131e+00,1.640e+00,1.595e+00,1.354e+00,1.744e+00,2.600e+00,1.917e+00,3.201e+00,3.537e+00,3.329e+00,3.076e+00,4.332e+00,3.882e+00,4.601e+00,5.169e+00,5.393e+00,5.086e+00,5.101e+00,4.879e+00,5.929e+00,7.038e+00,7.392e+00,6.938e+00,8.714e+00,7.042e+00,8.499e+00,1.012e+01,8.030e+00,9.908e+00,1.114e+01,9.869e+00,1.089e+01,7.105e+00,8.976e+00,9.467e+00,9.940e+00,1.103e+01,1.199e+01,1.237e+01,9.840e+00,1.204e+01,1.150e+01,1.072e+01,1.045e+01,1.021e+01,9.592e+00
3.905e-01,1.054e-01,7.427e-01,1.669e+00,2.337e+00,2.393e+00,2.741e+00,2.840e+00,2.383e+00,3.109e+00,4.069e+00,3.090e+00,4.072e+00,5.082e+00,4.219e+00,4.105e+00,5.556e+00,5.112e+00,6.155e+00,5.007e+00,6.178e+00,6.531e+00,6.102e+00,5.031e+00,6.781e+00,7.343e+00,8.512e+00,6.854e+00,9.917e+00,6.713e+00,7.421e+00,1.041e+01,8.616e+00,8.722e+00,1.091e+01,7.785e+00,1.158e+01,7.135e+00,9.487e+00,9.217e+00,9.544e+00,1.042e+01,1.160e+01,1.168e+01,1.054e+01,1.174e+01,1.156e+01,1.069e+01,1.088e+01,1.018e+01,9.187e+00
8.707e-01,1.110e-01,1.050e+00,1.169e+00,2.203e+00,2.360e+00,2.182e+00,2.702e+00,1.620e+00,1.783e+00,3.837e+00,2.928e+00,4.399e+00,4.924e+00,4.747e+00,4.769e+00,6.145e+00,5.974e+00,5.925e+00,6.244e+00,6.916e+00,6.158e+00,6.599e+00,6.369e+00,7.133e+00,8.436e+00,7.765e+00,7.482e+00,1.109e+01,7.780e+00,8.146e+00,1.159e+01,9.552e+00,9.752e+00,1.104e+01,8.226e+00,1.178e+01,7.503e+00,9.708e+00,1.058e+01,9.714e+00,1.241e+01,1.281e+01,1.391e+01,1.270e+01,1.276e+01,1.400e+01,1.346e+01,1.209e+01,1.121e+01,1.169e+01
9.957e-03,1.346e-02,4.247e-01,1.070e+00,1.202e+00,1.748e+00,2.265e+00,1.944e+00,1.538e+00,1.624e+00,3.329e+00,1.821e+00,3.184e+00,3.431e+00,4.105e+00,3.282e+00,4.523e+00,5.346e+00,5.522e+00,4.983e+00,5.944e+00,4.467e+00,4.821e+00,5.264e+00,5.439e+00,5.732e+00,6.397e+00,5.935e+00,7.891e+00,6.846e+00,7.504e+00,9.587e+00,7.668e+00,8.666e+00,1.087e+01,8.617e+00,1.120e+01,6.728e+00,8.500e+00,1.002e+01,9.760e+00,1.105e+01,1.170e+01,1.204e+01,1.124e+01,1.238e+01,1.230e+01,1.020e+01,1.063e+01,1.012e+01,1.068e+01
8.727e-01,1.032e-01,8.391e-01,8.976e-01,1.310e+00,1.431e+00,2.186e+00,2.055e+00,1.560e+00,2.487e+00,3.889e+00,2.865e+00,4.256e+00,5.034e+00,4.646e+00,4.210e+00,5.937e+00,5.732e+00,6.101e+00,6.294e+00,6.439e+00,6.454e+00,5.898e+00,5.559e+00,6.922e+00,6.666e+00,7.945e+00,6.295e+00,8.689e+00,7.744e+00,6.896e+00,9.217e+00,8.603e+00,9.680e+00,1.034e+01,9.094e+00,1.182e+01,5.725e+00,8.061e+00,9.976e+00,9.432e+00,1.070e+01,1.208e+01,1.181e+01,1.108e+01,1.286e+01,1.258e+01,1.272e+01,9.941e+00,1.081e+01,1.286e+01
3.870e-01,1.438e-02,3.690e-01,3.371e-01,6.110e-01,8.876e-01,1.468e+00,1.141e+00,1.095e+00,1.357e+00,2.757e+00,1.696e+00,2.480e+00,2.535e+00,3.034e+00,2.315e+00,3.809e+00,4.173e+00,4.668e+00,4.601e+00,6.068e+00,4.955e+00,4.633e+00,4.866e+00,5.152e+00,5.312e+00,6.991e+00,6.018e+00,8.585e+00,6.540e+00,7.544e+00,9.491e+00,7.821e+00,8.402e+00,1.098e+01,8.489e+00,1.089e+01,7.096e+00,9.786e+00,1.020e+01,9.203e+00,1.014e+01,1.298e+01,1.263e+01,1.043e+01,1.235e+01,1.193e+01,1.165e+01,1.178e+01,1.081e+01,1.027e+01
4.635e-01,2.158e-02,6.952e-01,1.110e+00,1.460e+00,1.776e+00,1.734e+00,1.736e+00,1.317e+00,1.713e+00,3.475e+00,2.550e+00,2.832e+00,4.093e+00,4.588e+00,4.392e+00,5.509e+00,5.811e+00,6.932e+00,5.764e+00,6.061e+00,5.985e+00,5.765e+00,6.255e+00,7.012e+00,7.397e+00,7.511e+00,7.043e+00,9.993e+00,8.558e+00,8.823e+00,1.142e+01,9.160e+00,1.017e+01,1.233e+01,1.010e+01,1.277e+01,6.789e+00,1.020e+01,1.047e+01,1.049e+01,1.103e+01,1.155e+01,1.239e+01,1.198e+01,1.245e+01,1.333e+01,1.271e+01,1.359e+01,1.071e+01,1.244e+01
4.381e-01,8.828e-02,8.184e-01,1.234e+00,1.947e+00,2.389e+00,2.671e+00,2.817e+00,1.895e+00,2.032e+00,3.256e+00,2.235e+00,3.682e+00,3.824e+00,3.618e+00,3.456e+00,4.586e+00,5.108e+00,5.576e+00,3.935e+00,6.174e+00,4.712e+00,4.728e+00,4.805e+00,5.820e+00,6.241e+00,6.997e+00,5.712e+00,8.592e+00,5.660e+00,7.094e+00,8.196e+00,7.531e+00,7.172e+00,8.580e+00,5.751e+00,1.001e+01,6.788e+00,8.517e+00,8.312e+00,8.488e+00,9.245e+00,1.062e+01,1.139e+01,1.054e+01,1.088e+01,1.123e+01,1.089e+01,9.860e+00,1.015e+01,1.105e+01
1.732e-02,4.287e-02,2.371e-01,9.325e-01,1.386e+00,1.564e+00,2.288e+00,2.070e+00,2.412e+00,2.927e+00,3.909e+00,2.962e+00,3.468e+00,4.666e+00,4.322e+00,3.625e+00,5.332e+00,5.214e+00,5.787e+00,4.963e+00,5.702e+00,5.453e+00,4.880e+00,5.631e+00,5.884e+00,6.269e+00,7.643e+00,6.194e+00,8.822e+00,6.536e+00,7.549e+00,9.212e+00,7.400e+00,9.454e+00,1.081e+01,8.949e+00,1.137e+01,6.920e+00,9.040e+00,1.018e+01,9.894e+00,1.051e+01,1.193e+01,1.210e+01,1.059e+01,1.193e+01,1.258e+01,1.199e+01,1.201e+01,1.092e+01,1.106e+01
