1.958e-01,1.649e-01,7.962e-02,1.949e-01,3.120e-01,2.789e-01,5.005e-01,2.528e-01,6.593e-01,7.392e-01,1.171e-01,8.807e-01,4.951e-01,4.461e-01,3.870e-01,7.345e-01,6.586e-01,7.357e-01,4.688e-01,2.348e-02,1.209e-01,6.355e-01,9.447e-01,6.773e-02,4.609e-01,3.069e-01,3.352e-02,3.029e-01,4.331e-01,6.544e-01,7.075e-02,8.235e-01,6.304e-02,4.570e-01,1.077e-01,6.302e-01,6.647e-01,4.121e-01,7.540e-01,7.164e-01,9.757e-01,6.242e-01,8.809e-01,4.150e-01,9.585e-01,3.435e-01,5.715e-01,6.936e-01
8.979e-02,8.965e-01,2.281e-01,3.816e-01,1.530e-01,6.480e-01,1.216e+00,4.749e-01,4.909e-01,1.114e+00,9.176e-01,1.080e+00,1.091e+00,7.233e-01,8.055e-01,5.273e-01,9.901e-01,8.635e-01,6.256e-01,2.477e-02,9.621e-02,5.882e-01,1.050e+00,4.722e-02,1.125e+00,1.008e+00,7.938e-01,9.766e-01,5.093e-01,8.928e-01,8.773e-01,4.394e-01,1.250e-01,1.104e+00,9.737e-01,4.502e-01,1.113e+00,2.521e-01,1.281e+00,8.571e-01,8.939e-01,9.143e-01,1.027e+00,6.071e-01,9.804e-01,6.539e-01,5.598e-01,9.243e-01
2.055e-02,1.314e-01,6.792e-02,6.099e-01,8.211e-01,5.984e-01,1.151e+00,5.082e-01,9.880e-01,9.144e-01,9.219e-01,7.024e-01,7.414e-01,6.215e-01,8.809e-01,1.014e+00,8.288e-01,4.000e-01,4.910e-01,7.228e-01,7.666e-01,1.739e-01,2.026e-01,7.100e-02,7.470e-01,2.656e-01,9.896e-01,1.054e+00,3.101e-01,6.512e-01,1.073e+00,1.002e+00,3.404e-01,5.877e-01,3.250e-01,6.742e-01,9.057e-01,6.168e-01,1.182e+00,1.100e+00,9.439e-01,4.794e-01,3.624e-01,8.482e-01,8.967e-01,1.038e+00,2.105e-01,7.458e-01
1.120e-01,4.727e-01,1.430e-01,1.193e+00,1.293e+00,1.040e+00,1.758e+00,5.992e-01,7.690e-01,1.285e+00,8.920e-01,1.218e+00,1.304e+00,1.065e+00,1.114e+00,7.897e-01,1.303e+00,1.712e+00,1.381e+00,5.970e-01,6.905e-01,6.835e-01,1.283e+00,5.767e-01,1.443e+00,1.286e+00,9.061e-01,1.418e+00,5.096e-01,9.582e-01,1.476e+00,7.830e-01,1.139e+00,1.129e+00,1.370e+00,9.544e-01,9.631e-01,1.074e+00,1.962e+00,9.474e-01,1.463e+00,8.073e-01,1.534e+00,7.208e-01,1.687e+00,8.938e-01,1.137e+00,1.189e+00
1.946e-01,9.192e-01,2.655e-01,7.405e-01,8.633e-01,1.052e+00,2.142e+00,7.926e-01,1.513e+00,2.520e+00,1.810e+00,1.700e+00,1.709e+00,1.842e+00,1.731e+00,1.270e+00,1.945e+00,1.864e+00,1.716e+00,9.450e-01,9.083e-01,1.446e+00,2.273e+00,6.590e-01,2.033e+00,1.396e+00,1.365e+00,1.556e+00,1.135e+00,2.012e+00,2.096e+00,1.827e+00,6.789e-01,1.731e+00,1.718e+00,1.728e+00,1.851e+00,1.214e+00,2.589e+00,1.505e+00,1.761e+00,2.279e+00,2.494e+00,1.536e+00,2.245e+00,1.122e+00,1.289e+00,2.424e+00
1.711e-02,5.980e-01,1.560e-01,5.933e-01,6.135e-01,9.028e-01,1.549e+00,1.155e+00,1.361e+00,1.731e+00,1.394e+00,1.682e+00,1.405e+00,1.233e+00,1.387e+00,7.847e-01,1.741e+00,1.694e+00,1.071e+00,7.419e-01,9.432e-01,1.357e+00,1.167e+00,1.071e+00,1.814e+00,1.294e+00,1.135e+00,1.892e+00,6.329e-01,1.152e+00,2.295e+00,1.018e+00,1.518e+00,1.189e+00,1.285e+00,1.754e+00,1.298e+00,1.684e+00,2.432e+00,1.518e+00,1.153e+00,1.697e+00,1.892e+00,1.103e+00,2.072e+00,8.722e-01,1.211e+00,2.160e+00
1.483e-01,3.778e-01,1.464e-01,1.261e+00,1.573e+00,1.244e+00,2.334e+00,1.107e+00,2.164e+00,2.546e+00,1.558e+00,2.381e+00,2.022e+00,1.702e+00,1.852e+00,1.517e+00,2.068e+00,2.739e+00,2.540e+00,2.018e+00,1.954e+00,1.379e+00,2.136e+00,1.310e+00,2.579e+00,1.622e+00,1.512e+00,2.275e+00,1.207e+00,2.373e+00,2.367e+00,1.671e+00,1.862e+00,2.223e+00,1.568e+00,2.689e+00,2.180e+00,2.517e+00,3.386e+00,2.685e+00,2.475e+00,2.000e+00,2.804e+00,1.459e+00,2.619e+00,2.189e+00,1.580e+00,2.815e+00
1.100e-01,8.891e-01,2.391e-01,8.269e-01,7.772e-01,1.109e+00,2.079e+00,1.406e+00,2.302e+00,3.220e+00,2.163e+00,3.098e+00,2.501e+00,2.433e+00,2.461e+00,1.191e+00,2.345e+00,3.144e+00,2.362e+00,1.380e+00,1.762e+00,2.237e+00,2.803e+00,2.116e+00,2.771e+00,2.307e+00,1.566e+00,2.514e+00,2.106e+00,3.012e+00,3.054e+00,1.518e+00,2.002e+00,2.819e+00,2.501e+00,2.962e+00,2.076e+00,2.654e+00,3.529e+00,2.948e+00,2.526e+00,2.249e+00,3.111e+00,2.116e+00,2.443e+00,2.596e+00,1.648e+00,3.318e+00
1.715e-01,9.150e-01,2.812e-01,1.541e+00,1.837e+00,1.650e+00,3.170e+00,1.494e+00,3.165e+00,4.940e+00,3.628e+00,3.471e+00,3.152e+00,3.741e+00,3.411e+00,2.589e+00,3.359e+00,4.009e+00,3.376e+00,2.190e+00,2.437e+00,2.433e+00,3.784e+00,2.065e+00,3.847e+00,2.585e+00,2.772e+00,3.520e+00,2.685e+00,3.813e+00,4.897e+00,3.183e+00,2.825e+00,3.338e+00,3.848e+00,3.389e+00,2.487e+00,3.393e+00,4.574e+00,3.141e+00,3.695e+00,3.237e+00,3.823e+00,3.654e+00,3.297e+00,3.047e+00,2.099e+00,4.036e+00
8.271e-02,7.522e-01,2.056e-01,9.898e-01,1.012e+00,1.175e+00,2.087e+00,1.395e+00,2.102e+00,3.084e+00,2.699e+00,3.772e+00,2.494e+00,2.632e+00,3.038e+00,2.015e+00,3.144e+00,3.593e+00,2.916e+00,1.486e+00,1.888e+00,2.935e+00,3.220e+00,2.081e+00,3.105e+00,2.474e+00,2.441e+00,2.899e+00,1.847e+00,3.291e+00,3.321e+00,2.049e+00,3.130e+00,2.883e+00,2.653e+00,3.227e+00,2.757e+00,3.091e+00,4.058e+00,2.925e+00,2.529e+00,2.501e+00,2.968e+00,2.908e+00,3.266e+00,2.364e+00,2.061e+00,3.522e+00
1.372e-01,3.901e-01,1.334e-01,7.162e-01,8.372e-01,7.621e-01,1.485e+00,6.522e-01,1.511e+00,2.162e+00,2.427e+00,3.274e+00,2.340e+00,1.913e+00,2.500e+00,2.504e+00,2.476e+00,2.920e+00,2.645e+00,2.383e+00,2.018e+00,1.855e+00,3.291e+00,1.838e+00,2.752e+00,1.443e+00,2.352e+00,2.301e+00,1.563e+00,3.093e+00,2.048e+00,1.965e+00,2.549e+00,3.093e+00,1.876e+00,2.516e+00,3.245e+00,2.973e+00,3.400e+00,2.484e+00,2.507e+00,2.553e+00,2.627e+00,2.774e+00,2.607e+00,1.975e+00,1.847e+00,2.470e+00
1.093e-01,7.168e-01,2.076e-01,1.235e+00,1.364e+00,1.338e+00,2.421e+00,1.306e+00,2.404e+00,3.795e+00,3.521e+00,4.307e+00,3.429e+00,3.936e+00,3.894e+00,3.826e+00,4.196e+00,5.018e+00,3.517e+00,3.527e+00,2.735e+00,3.389e+00,4.249e+00,3.326e+00,4.818e+00,2.562e+00,3.935e+00,3.854e+00,2.501e+00,4.746e+00,5.091e+00,3.605e+00,4.613e+00,3.816e+00,4.038e+00,3.987e+00,4.256e+00,4.213e+00,4.841e+00,3.481e+00,3.394e+00,3.656e+00,4.112e+00,4.121e+00,4.285e+00,2.680e+00,3.208e+00,4.207e+00
9.330e-03,4.182e-01,1.272e-01,1.405e+00,1.601e+00,1.317e+00,2.316e+00,1.399e+00,2.187e+00,2.772e+00,2.424e+00,3.157e+00,3.521e+00,3.173e+00,3.927e+00,2.354e+00,3.265e+00,3.918e+00,3.271e+00,3.118e+00,2.600e+00,3.469e+00,3.034e+00,3.834e+00,3.589e+00,3.181e+00,3.644e+00,3.438e+00,2.341e+00,4.029e+00,5.012e+00,2.645e+00,4.346e+00,3.162e+00,3.752e+00,3.821e+00,2.888e+00,3.496e+00,4.755e+00,4.113e+00,2.655e+00,2.537e+00,3.309e+00,2.970e+00,3.307e+00,2.778e+00,2.641e+00,3.824e+00
1.033e-01,3.295e-01,1.307e-01,1.002e+00,1.332e+00,1.165e+00,2.071e+00,1.377e+00,2.290e+00,2.578e+00,2.577e+00,3.254e+00,2.901e+00,3.257e+00,4.040e+00,3.190e+00,3.932e+00,4.023e+00,2.681e+00,2.909e+00,2.415e+00,2.805e+00,3.018e+00,3.209e+00,3.753e+00,1.996e+00,3.071e+00,3.404e+00,1.903e+00,3.686e+00,4.150e+00,2.693e+00,3.587e+00,3.713e+00,2.412e+00,3.437e+00,3.390e+00,3.739e+00,4.875e+00,3.961e+00,3.527e+00,3.924e+00,3.982e+00,3.705e+00,4.079e+00,2.047e+00,2.948e+00,4.071e+00
1.235e-01,4.632e-01,1.414e-01,4.538e-01,5.501e-01,6.255e-01,1.375e+00,7.526e-01,1.864e+00,2.773e+00,2.332e+00,3.102e+00,2.414e+00,3.197e+00,4.314e+00,2.685e+00,3.615e+00,4.110e+00,3.334e+00,3.414e+00,2.812e+00,3.121e+00,3.561e+00,3.118e+00,4.223e+00,2.177e+00,3.240e+00,2.982e+00,2.309e+00,4.611e+00,3.957e+00,2.726e+00,3.750e+00,4.090e+00,3.195e+00,3.484e+00,3.867e+00,3.048e+00,4.427e+00,3.943e+00,3.490e+00,4.143e+00,4.381e+00,3.680e+00,3.713e+00,3.294e+00,2.426e+00,3.923e+00
1.495e-01,2.685e-01,9.857e-02,9.044e-01,1.217e+00,9.687e-01,1.676e+00,1.242e+00,2.465e+00,3.726e+00,2.659e+00,3.407e+00,3.232e+00,4.550e+00,4.646e+00,3.975e+00,4.372e+00,5.750e+00,4.384e+00,3.616e+00,2.671e+00,4.928e+00,4.367e+00,4.786e+00,4.338e+00,3.977e+00,3.502e+00,4.254e+00,3.880e+00,5.664e+00,5.823e+00,3.651e+00,5.097e+00,4.700e+00,4.854e+00,4.202e+00,3.637e+00,4.739e+00,5.133e+00,4.700e+00,4.703e+00,5.082e+00,5.727e+00,4.465e+00,4.870e+00,2.438e+00,4.261e+00,5.815e+00
1.077e-02,1.923e-01,7.776e-02,5.911e-01,9.071e-01,8.244e-01,1.587e+00,1.291e+00,2.455e+00,2.996e+00,2.591e+00,2.883e+00,2.460e+00,3.169e+00,3.619e+00,3.211e+00,4.279e+00,4.406e+00,3.143e+00,3.883e+00,3.379e+00,3.659e+00,3.234e+00,3.850e+00,4.776e+00,2.779e+00,3.593e+00,4.171e+00,2.733e+00,4.925e+00,5.386e+00,4.517e+00,4.310e+00,3.555e+00,3.257e+00,3.841e+00,4.193e+00,3.803e+00,4.058e+00,4.262e+00,3.202e+00,4.217e+00,4.170e+00,4.082e+00,4.467e+00,2.850e+00,2.880e+00,4.293e+00
3.405e-02,7.006e-01,1.799e-01,5.346e-01,4.928e-01,7.649e-01,1.470e+00,7.838e-01,1.248e+00,2.290e+00,2.976e+00,3.181e+00,2.732e+00,3.036e+00,4.545e+00,3.551e+00,3.925e+00,4.809e+00,4.343e+00,4.174e+00,3.181e+00,3.946e+00,3.658e+00,4.170e+00,4.540e+00,3.070e+00,4.489e+00,4.897e+00,2.819e+00,5.014e+00,4.606e+00,3.337e+00,5.360e+00,4.596e+00,4.008e+00,3.208e+00,4.764e+00,3.529e+00,5.083e+00,4.400e+00,3.885e+00,4.923e+00,4.888e+00,4.568e+00,4.372e+00,3.580e+00,3.971e+00,4.268e+00
1.247e-01,5.976e-01,1.715e-01,5.901e-01,5.903e-01,7.607e-01,1.368e+00,8.675e-01,1.702e+00,2.756e+00,2.561e+00,3.020e+00,2.881e+00,3.084e+00,3.993e+00,3.459e+00,3.797e+00,4.983e+00,4.782e+00,4.812e+00,3.124e+00,4.207e+00,4.476e+00,4.845e+00,5.148e+00,3.862e+00,3.603e+00,5.091e+00,3.918e+00,5.593e+00,5.119e+00,3.940e+00,4.835e+00,5.034e+00,4.893e+00,3.875e+00,4.701e+00,3.982e+00,4.913e+00,4.638e+00,5.492e+00,5.270e+00,5.601e+00,5.117e+00,4.877e+00,3.494e+00,3.980e+00,4.501e+00
5.278e-02,2.178e-01,7.884e-02,6.729e-01,9.482e-01,7.559e-01,1.455e+00,8.369e-01,1.811e+00,2.757e+00,2.472e+00,2.712e+00,2.463e+00,3.152e+00,3.574e+00,3.404e+00,4.015e+00,4.439e+00,3.859e+00,4.752e+00,3.533e+00,4.272e+00,4.030e+00,4.459e+00,5.119e+00,3.732e+00,4.211e+00,4.142e+00,3.305e+00,5.240e+00,5.324e+00,4.958e+00,4.969e+00,4.417e+00,4.266e+00,4.437e+00,4.333e+00,4.328e+00,4.599e+00,4.048e+00,3.321e+00,4.362e+00,4.334e+00,4.577e+00,4.963e+00,3.241e+00,3.543e+00,5.058e+00
1.227e-01,7.796e-01,2.344e-01,1.102e+00,1.182e+00,1.310e+00,2.360e+00,1.576e+00,2.761e+00,3.738e+00,3.003e+00,3.986e+00,3.233e+00,3.925e+00,4.397e+00,3.486e+00,4.623e+00,5.261e+00,3.797e+00,3.082e+00,3.424e+00,3.920e+00,4.881e+00,4.384e+00,4.995e+00,3.911e+00,3.807e+00,4.625e+00,3.351e+00,5.894e+00,5.269e+00,3.648e+00,4.764e+00,5.237e+00,4.097e+00,4.318e+00,4.155e+00,4.874e+00,5.329e+00,5.531e+00,5.588e+00,4.616e+00,5.488e+00,4.958e+00,4.915e+00,3.663e+00,3.618e+00,5.460e+00
8.357e-03,4.127e-02,3.869e-02,4.776e-01,7.253e-01,4.706e-01,1.037e+00,4.978e-01,1.505e+00,2.061e+00,2.204e+00,2.112e+00,1.728e+00,2.617e+00,3.407e+00,3.797e+00,3.421e+00,4.148e+00,3.807e+00,5.494e+00,4.058e+00,4.027e+00,3.433e+00,5.162e+00,5.404e+00,4.053e+00,4.131e+00,5.100e+00,4.224e+00,6.292e+00,5.298e+00,5.596e+00,5.311e+00,5.227e+00,4.437e+00,3.891e+00,5.380e+00,5.096e+00,4.617e+00,5.302e+00,4.570e+00,5.224e+00,5.341e+00,5.610e+00,4.700e+00,4.715e+00,3.626e+00,4.981e+00
1.625e-02,7.560e-01,2.050e-01,1.294e+00,1.441e+00,1.419e+00,2.558e+00,1.378e+00,1.914e+00,2.751e+00,2.596e+00,2.492e+00,2.944e+00,2.638e+00,3.417e+00,1.840e+00,3.117e+00,4.066e+00,4.047e+00,3.784e+00,3.365e+00,3.580e+00,4.489e+00,5.645e+00,4.511e+00,4.482e+00,3.858e+00,5.520e+00,3.447e+00,4.802e+00,5.424e+00,3.567e+00,5.768e+00,3.960e+00,5.299e+00,4.687e+00,3.263e+00,5.054e+00,6.374e+00,4.688e+00,4.905e+00,4.215e+00,5.866e+00,5.129e+00,4.375e+00,4.041e+00,3.847e+00,5.633e+00
6.852e-02,5.388e-01,1.420e-01,4.708e-01,4.850e-01,7.103e-01,1.331e+00,8.231e-01,1.488e+00,2.557e+00,2.777e+00,3.468e+00,3.237e+00,3.893e+00,4.803e+00,4.035e+00,4.618e+00,5.290e+00,4.605e+00,5.132e+00,3.047e+00,5.220e+00,5.509e+00,6.761e+00,6.022e+00,4.694e+00,5.381e+00,5.133e+00,5.052e+00,6.737e+00,6.785e+00,5.029e+00,7.115e+00,5.969e+00,5.998e+00,6.016e+00,6.003e+00,6.380e+00,7.225e+00,6.216e+00,5.218e+00,6.434e+00,6.799e+00,6.486e+00,5.581e+00,4.132e+00,5.329e+00,6.657e+00
1.053e-01,5.406e-01,1.652e-01,1.062e+00,1.160e+00,1.031e+00,1.814e+00,1.026e+00,1.922e+00,2.946e+00,2.558e+00,3.111e+00,3.220e+00,4.043e+00,5.049e+00,3.612e+00,4.682e+00,5.442e+00,4.230e+00,4.876e+00,4.068e+00,4.842e+00,5.789e+00,7.460e+00,6.398e+00,6.388e+00,5.615e+00,6.783e+00,6.342e+00,7.231e+00,7.765e+00,6.485e+00,7.939e+00,7.352e+00,7.008e+00,6.000e+00,5.413e+00,6.967e+00,7.355e+00,7.219e+00,6.676e+00,5.844e+00,8.158e+00,7.684e+00,5.814e+00,5.880e+00,5.320e+00,7.505e+00
5.963e-02,3.858e-01,1.102e-01,1.067e+00,1.299e+00,1.021e+00,1.924e+00,9.494e-01,1.908e+00,3.151e+00,2.752e+00,3.005e+00,2.734e+00,4.361e+00,4.308e+00,3.633e+00,4.633e+00,5.939e+00,4.249e+00,4.653e+00,3.928e+00,4.736e+00,5.535e+00,6.746e+00,6.162e+00,6.264e+00,5.483e+00,5.970e+00,6.002e+00,8.216e+00,7.450e+00,6.453e+00,7.212e+00,6.591e+00,6.487e+00,5.342e+00,5.928e+00,7.391e+00,6.160e+00,6.923e+00,6.093e+00,6.939e+00,8.808e+00,6.745e+00,5.576e+00,4.721e+00,5.361e+00,7.921e+00
9.622e-02,5.378e-01,1.566e-01,1.074e+00,1.287e+00,1.106e+00,2.122e+00,9.441e-01,1.911e+00,3.103e+00,2.771e+00,2.799e+00,3.019e+00,3.259e+00,4.106e+00,2.599e+00,3.462e+00,4.298e+00,4.289e+00,5.286e+00,3.808e+00,4.052e+00,5.428e+00,6.017e+00,5.676e+00,5.135e+00,5.303e+00,5.842e+00,4.951e+00,6.498e+00,6.602e+00,5.421e+00,7.044e+00,6.321e+00,6.565e+00,6.078e+00,5.216e+00,6.524e+00,6.883e+00,6.127e+00,5.878e+00,6.709e+00,8.156e+00,6.762e+00,5.955e+00,5.352e+00,4.655e+00,6.787e+00
1.422e-01,6.651e-01,1.913e-01,1.159e+00,1.212e+00,1.138e+00,2.039e+00,9.675e-01,1.687e+00,2.631e+00,2.094e+00,2.956e+00,3.243e+00,3.455e+00,3.937e+00,2.622e+00,3.943e+00,4.838e+00,4.182e+00,3.904e+00,2.917e+00,4.248e+00,5.419e+00,5.740e+00,5.283e+00,4.746e+00,4.433e+00,5.294e+00,4.287e+00,7.098e+00,6.344e+00,5.160e+00,6.358e+00,6.175e+00,5.537e+00,5.415e+00,5.418e+00,5.829e+00,6.396e+00,6.817e+00,6.413e+00,5.298e+00,7.384e+00,6.113e+00,6.016e+00,4.757e+00,5.391e+00,5.799e+00
1.684e-02,4.772e-01,1.343e-01,6.729e-01,7.604e-01,8.330e-01,1.579e+00,1.140e+00,2.078e+00,2.987e+00,2.751e+00,3.266e+00,3.000e+00,3.732e+00,4.709e+00,3.273e+00,4.751e+00,5.627e+00,4.922e+00,4.959e+00,4.410e+00,5.655e+00,5.973e+00,8.003e+00,6.690e+00,6.410e+00,6.170e+00,7.734e+00,6.706e+00,9.800e+00,9.209e+00,8.563e+00,1.015e+01,8.606e+00,7.283e+00,7.557e+00,7.500e+00,8.867e+00,8.911e+00,9.454e+00,8.133e+00,7.867e+00,9.484e+00,9.421e+00,7.683e+00,7.676e+00,7.409e+00,8.305e+00
1.617e-01,3.678e-01,1.282e-01,3.976e-01,6.303e-01,6.419e-01,1.369e+00,9.024e-01,2.036e+00,2.867e+00,2.822e+00,3.690e+00,2.739e+00,3.233e+00,3.979e+00,3.391e+00,3.633e+00,4.165e+00,4.323e+00,4.726e+00,3.451e+00,5.375e+00,6.336e+00,6.898e+00,5.314e+00,5.742e+00,4.852e+00,5.501e+00,6.472e+00,8.763e+00,7.593e+00,7.692e+00,8.410e+00,7.589e+00,6.619e+00,7.512e+00,7.004e+00,8.408e+00,8.367e+00,7.023e+00,7.543e+00,7.561e+00,8.451e+00,8.910e+00,6.537e+00,6.121e+00,6.439e+00,8.365e+00
1.732e-01,4.992e-01,1.632e-01,8.931e-01,1.111e+00,9.965e-01,1.972e+00,9.190e-01,2.260e+00,3.552e+00,3.018e+00,3.737e+00,3.582e+00,3.365e+00,4.757e+00,3.650e+00,4.100e+00,5.467e+00,5.830e+00,5.457e+00,4.342e+00,5.243e+00,6.320e+00,6.191e+00,5.895e+00,5.878e+00,6.029e+00,6.689e+00,5.412e+00,8.874e+00,8.966e+00,7.599e+00,9.736e+00,8.441e+00,7.983e+00,6.974e+00,7.592e+00,8.008e+00,8.822e+00,8.708e+00,8.075e+00,9.169e+00,1.025e+01,8.484e+00,7.620e+00,6.532e+00,7.139e+00,8.335e+00
5.317e-02,8.415e-01,2.108e-01,9.775e-01,8.942e-01,1.039e+00,2.043e+00,8.669e-01,1.659e+00,3.009e+00,2.847e+00,3.126e+00,3.213e+00,3.528e+00,4.225e+00,3.026e+00,4.198e+00,6.156e+00,5.603e+00,4.755e+00,4.140e+00,4.506e+00,5.898e+00,6.524e+00,5.876e+00,6.699e+00,5.217e+00,8.032e+00,5.980e+00,8.908e+00,7.166e+00,7.153e+00,8.726e+00,9.718e+00,7.731e+00,5.795e+00,6.999e+00,8.328e+00,7.393e+00,9.091e+00,8.548e+00,7.689e+00,1.063e+01,8.946e+00,7.208e+00,7.455e+00,7.174e+00,9.053e+00
8.994e-02,5.280e-01,1.622e-01,7.058e-01,9.268e-01,9.288e-01,1.977e+00,1.106e+00,2.422e+00,3.322e+00,2.872e+00,3.056e+00,2.774e+00,3.717e+00,4.320e+00,3.017e+00,4.464e+00,5.811e+00,4.809e+00,5.197e+00,4.460e+00,3.870e+00,5.135e+00,6.387e+00,6.207e+00,4.772e+00,4.520e+00,6.466e+00,5.743e+00,7.834e+00,7.809e+00,7.847e+00,8.395e+00,9.060e+00,7.230e+00,6.979e+00,6.933e+00,8.317e+00,8.749e+00,8.444e+00,8.280e+00,8.431e+00,9.401e+00,8.849e+00,7.254e+00,8.306e+00,7.053e+00,9.055e+00
1.706e-01,6.668e-01,2.116e-01,1.457e+00,1.726e+00,1.510e+00,2.729e+00,1.473e+00,2.593e+00,3.691e+00,2.822e+00,3.842e+00,3.442e+00,3.913e+00,4.526e+00,3.450e+00,4.871e+00,5.726e+00,5.542e+00,5.131e+00,3.751e+00,5.732e+00,6.250e+00,6.884e+00,6.727e+00,7.516e+00,5.977e+00,7.714e+00,6.974e+00,8.791e+00,8.983e+00,8.775e+00,9.625e+00,9.302e+00,8.834e+00,8.500e+00,7.678e+00,9.154e+00,9.700e+00,9.271e+00,9.505e+00,9.037e+00,1.122e+01,9.718e+00,8.481e+00,7.795e+00,7.550e+00,1.109e+01
2.308e-02,1.712e-01,6.645e-02,9.860e-01,1.321e+00,9.189e-01,1.875e+00,7.792e-01,1.766e+00,2.413e+00,2.475e+00,2.469e+00,2.734e+00,3.585e+00,4.665e+00,3.638e+00,3.910e+00,5.092e+00,4.986e+00,6.638e+00,4.621e+00,4.623e+00,5.000e+00,6.913e+00,6.167e+00,5.943e+00,6.086e+00,7.358e+00,5.944e+00,9.377e+00,8.940e+00,8.221e+00,9.837e+00,1.005e+01,8.524e+00,7.564e+00,8.716e+00,9.881e+00,9.544e+00,9.562e+00,1.005e+01,1.043e+01,1.242e+01,9.637e+00,9.564e+00,8.610e+00,7.852e+00,1.005e+01
1.816e-01,8.757e-01,2.645e-01,1.388e+00,1.620e+00,1.596e+00,2.988e+00,1.507e+00,2.709e+00,3.879e+00,3.344e+00,3.943e+00,3.653e+00,3.605e+00,4.818e+00,3.853e+00,4.727e+00,6.150e+00,5.682e+00,5.935e+00,5.089e+00,5.026e+00,6.652e+00,7.668e+00,7.104e+00,6.759e+00,5.921e+00,8.274e+00,6.736e+00,8.653e+00,8.366e+00,7.765e+00,9.783e+00,9.491e+00,8.693e+00,8.817e+00,8.858e+00,1.110e+01,1.104e+01,9.630e+00,1.042e+01,1.053e+01,1.239e+01,1.003e+01,9.389e+00,9.393e+00,8.361e+00,1.135e+01
1.647e-01,7.673e-01,2.142e-01,5.359e-01,5.489e-01,7.932e-01,1.676e+00,8.899e-01,2.124e+00,3.541e+00,2.507e+00,3.269e+00,2.778e+00,3.448e+00,3.831e+00,2.912e+00,3.814e+00,4.853e+00,4.526e+00,4.442e+00,3.274e+00,4.785e+00,5.385e+00,5.352e+00,5.774e+00,5.527e+00,5.031e+00,6.361e+00,5.782e+00,8.495e+00,8.151e+00,8.689e+00,8.980e+00,8.261e+00,7.963e+00,7.723e+00,7.983e+00,8.686e+00,8.173e+00,8.142e+00,9.540e+00,8.306e+00,1.082e+01,1.031e+01,8.381e+00,8.749e+00,8.122e+00,1.022e+01
1.016e-01,3.482e-01,1.148e-01,8.576e-01,1.034e+00,8.791e-01,1.586e+00,9.582e-01,1.752e+00,2.494e+00,2.198e+00,2.995e+00,2.399e+00,2.731e+00,3.233e+00,2.678e+00,3.612e+00,4.883e+00,4.986e+00,3.880e+00,3.299e+00,4.978e+00,5.668e+00,6.493e+00,5.127e+00,6.011e+00,4.208e+00,6.030e+00,5.491e+00,7.632e+00,6.229e+00,6.114e+00,7.658e+00,6.279e+00,6.593e+00,6.240e+00,6.010e+00,9.038e+00,8.064e+00,7.511e+00,9.605e+00,7.617e+00,1.026e+01,8.452e+00,6.988e+00,6.323e+00,6.498e+00,9.237e+00
2.605e-02,6.827e-01,1.879e-01,1.046e+00,1.171e+00,1.268e+00,2.262e+00,1.451e+00,2.038e+00,2.703e+00,2.317e+00,2.705e+00,2.535e+00,3.502e+00,4.270e+00,2.813e+00,4.335e+00,4.744e+00,3.842e+00,4.723e+00,3.637e+00,4.783e+00,4.474e+00,6.728e+00,6.556e+00,5.777e+00,5.023e+00,6.387e+00,5.542e+00,7.264e+00,8.882e+00,7.705e+00,8.587e+00,7.845e+00,7.534e+00,8.068e+00,7.719e+00,1.012e+01,1.038e+01,9.734e+00,9.593e+00,9.572e+00,1.188e+01,9.821e+00,9.732e+00,8.119e+00,8.534e+00,1.207e+01
1.283e-01,5.714e-01,1.779e-01,6.296e-01,7.695e-01,8.739e-01,1.795e+00,1.083e+00,2.546e+00,3.835e+00,3.095e+00,3.889e+00,3.250e+00,3.958e+00,4.724e+00,4.152e+00,4.609e+00,5.383e+00,5.480e+00,4.962e+00,3.498e+00,5.781e+00,5.711e+00,5.926e+00,6.085e+00,5.694e+00,5.587e+00,6.413e+00,5.894e+00,8.944e+00,8.945e+00,8.087e+00,8.704e+00,8.780e+00,8.020e+00,7.630e+00,8.183e+00,9.179e+00,9.478e+00,1.045e+01,1.032e+01,1.006e+01,1.081e+01,1.064e+01,9.050e+00,8.108e+00,8.329e+00,1.131e+01
7.351e-02,2.101e-01,9.530e-02,1.025e+00,1.365e+00,1.089e+00,2.041e+00,1.303e+00,2.633e+00,3.288e+00,2.852e+00,3.730e+00,2.913e+00,3.704e+00,4.304e+00,3.834e+00,4.681e+00,5.750e+00,5.131e+00,5.466e+00,4.562e+00,4.550e+00,5.491e+00,6.347e+00,6.270e+00,5.543e+00,6.232e+00,6.865e+00,5.937e+00,8.204e+00,8.213e+00,8.412e+00,9.746e+00,9.706e+00,8.011e+00,9.022e+00,8.830e+00,1.188e+01,1.064e+01,1.147e+01,1.113e+01,1.133e+01,1.327e+01,1.170e+01,1.139e+01,1.012e+01,9.619e+00,1.395e+01
4.275e-02,6.392e-01,1.756e-01,8.531e-01,8.473e-01,1.001e+00,1.771e+00,1.069e+00,1.638e+00,2.350e+00,2.292e+00,2.713e+00,2.453e+00,2.509e+00,3.567e+00,2.357e+00,3.546e+00,4.058e+00,3.723e+00,4.675e+00,3.754e+00,3.617e+00,4.786e+00,5.767e+00,5.792e+00,5.767e+00,5.146e+00,6.655e+00,5.209e+00,6.684e+00,7.294e+00,6.900e+00,7.909e+00,8.002e+00,7.540e+00,6.977e+00,7.194e+00,9.388e+00,8.933e+00,8.945e+00,9.932e+00,9.697e+00,1.177e+01,1.043e+01,9.800e+00,8.498e+00,7.819e+00,1.280e+01
1.017e-01,6.384e-01,2.000e-01,1.174e+00,1.455e+00,1.408e+00,2.590e+00,1.492e+00,2.370e+00,2.947e+00,2.187e+00,2.650e+00,2.418e+00,2.893e+00,3.245e+00,2.755e+00,4.241e+00,4.747e+00,3.847e+00,3.957e+00,3.408e+00,3.714e+00,4.008e+00,4.937e+00,5.438e+00,5.822e+00,4.996e+00,7.273e+00,5.288e+00,7.097e+00,7.691e+00,7.500e+00,6.931e+00,7.699e+00,6.497e+00,7.045e+00,8.076e+00,9.318e+00,8.993e+00,9.073e+00,9.052e+00,9.205e+00,1.268e+01,9.753e+00,1.092e+01,8.837e+00,8.334e+00,1.279e+01
1.903e-02,3.866e-01,1.008e-01,3.053e-01,2.967e-01,5.393e-01,1.013e+00,8.139e-01,1.599e+00,2.538e+00,2.201e+00,2.925e+00,2.081e+00,2.816e+00,2.991e+00,3.633e+00,4.085e+00,4.967e+00,4.750e+00,5.308e+00,3.825e+00,5.189e+00,5.646e+00,6.178e+00,6.129e+00,6.707e+00,5.452e+00,7.195e+00,6.011e+00,9.150e+00,7.712e+00,8.697e+00,9.714e+00,8.757e+00,8.162e+00,7.892e+00,8.722e+00,1.075e+01,9.270e+00,9.670e+00,1.129e+01,9.513e+00,1.216e+01,1.182e+01,1.109e+01,9.218e+00,1.049e+01,1.453e+01
5.842e-02,4.838e-01,1.257e-01,9.345e-01,9.648e-01,9.802e-01,1.614e+00,1.000e+00,1.376e+00,2.306e+00,2.446e+00,3.424e+00,3.092e+00,3.263e+00,4.567e+00,2.887e+00,4.589e+00,5.971e+00,4.992e+00,4.602e+00,3.948e+00,4.612e+00,5.267e+00,6.474e+00,6.020e+00,5.700e+00,6.267e+00,7.138e+00,5.152e+00,7.344e+00,8.674e+00,7.663e+00,1.064e+01,9.545e+00,7.671e+00,7.363e+00,7.573e+00,9.331e+00,9.535e+00,1.003e+01,1.003e+01,1.130e+01,1.373e+01,1.140e+01,1.175e+01,8.783e+00,1.126e+01,1.401e+01
7.746e-02,4.197e-01,1.340e-01,7.048e-01,9.128e-01,9.389e-01,1.720e+00,1.385e+00,2.656e+00,3.667e+00,2.963e+00,3.456e+00,3.234e+00,4.421e+00,4.898e+00,4.140e+00,5.155e+00,6.644e+00,5.290e+00,5.390e+00,4.666e+00,5.595e+00,6.165e+00,8.267e+00,6.775e+00,6.218e+00,5.759e+00,7.934e+00,6.891e+00,9.209e+00,9.731e+00,8.888e+00,1.047e+01,1.003e+01,9.336e+00,8.777e+00,8.445e+00,1.196e+01,1.095e+01,1.149e+01,1.204e+01,1.214e+01,1.407e+01,1.274e+01,1.224e+01,1.165e+01,1.116e+01,1.553e+01
1.128e-01,3.388e-01,1.157e-01,8.445e-01,1.031e+00,8.699e-01,1.535e+00,1.017e+00,1.926e+00,2.783e+00,2.716e+00,3.432e+00,2.817e+00,3.034e+00,3.620e+00,2.878e+00,3.476e+00,4.055e+00,3.318e+00,3.618e+00,3.412e+00,4.131e+00,5.414e+00,6.184e+00,4.925e+00,5.438e+00,5.193e+00,5.891e+00,6.112e+00,7.978e+00,8.069e+00,8.025e+00,9.200e+00,8.507e+00,7.246e+00,7.878e+00,7.760e+00,1.052e+01,9.928e+00,9.331e+00,9.333e+00,9.145e+00,9.997e+00,1.047e+01,8.911e+00,9.268e+00,9.961e+00,1.166e+01
1.258e-01,7.783e-01,2.308e-01,1.483e+00,1.670e+00,1.473e+00,2.745e+00,1.204e+00,2.375e+00,3.888e+00,3.425e+00,3.697e+00,3.778e+00,4.390e+00,5.350e+00,4.034e+00,4.793e+00,6.350e+00,6.232e+00,5.735e+00,4.305e+00,5.644e+00,6.253e+00,7.629e+00,7.005e+00,7.844e+00,6.807e+00,8.288e+00,7.624e+00,9.857e+00,9.937e+00,8.801e+00,1.060e+01,9.979e+00,9.766e+00,8.370e+00,8.232e+00,1.107e+01,1.154e+01,1.061e+01,1.267e+01,1.178e+01,1.338e+01,1.243e+01,1.039e+01,1.042e+01,1.026e+01,1.506e+01
