6.841e-01,1.071e-02,9.335e-01,5.048e-01,1.567e-01,8.524e-01,2.870e-01,2.920e-01,1.889e-01,1.550e-01,1.555e-01,9.664e-02,3.262e-01,1.778e-01,7.288e-01,4.360e-02,8.974e-01,4.921e-01,4.812e-01,8.507e-01,4.945e-01,4.747e-01,5.663e-01,2.550e-01,4.699e-01,8.180e-01,9.430e-02,6.163e-01,6.840e-01,2.708e-01,4.473e-01,3.687e-01,6.627e-01,8.326e-01,3.658e-01,3.614e-01,3.917e-01,3.999e-01,2.608e-01,4.275e-01,3.761e-01,6.117e-02,8.322e-01,3.846e-01,7.377e-01,9.682e-01,4.967e-01,9.649e-01,4.325e-01,1.542e-01,2.376e-01,9.603e-01,7.093e-01,2.067e-01,8.057e-01,5.052e-01,1.055e-01,9.234e-01,8.164e-01,7.264e-01,7.267e-01,9.325e-01,9.096e-01,5.089e-01,1.823e-01,8.790e-02,8.340e-01,8.444e-01,4.398e-01,3.693e-01,1.404e-01,5.252e-01,1.583e-01,3.580e-01,4.326e-01,6.427e-01,1.946e-02,1.485e-01,2.473e-01
2.239e-01,3.923e-01,1.062e+00,4.175e-01,8.244e-02,9.611e-01,5.559e-01,7.473e-01,8.146e-01,1.272e-01,5.516e-01,9.448e-01,2.938e-01,5.303e-01,5.556e-01,3.031e-01,5.325e-01,8.361e-01,4.854e-01,1.045e+00,7.969e-01,2.785e-01,4.512e-01,4.146e-01,5.264e-01,1.215e+00,1.883e-01,3.701e-01,8.706e-01,1.279e-01,4.018e-01,2.421e-01,8.082e-01,3.076e-01,6.800e-01,1.043e+00,1.745e-01,6.369e-01,3.206e-01,4.403e-01,6.310e-01,2.426e-01,4.277e-01,4.736e-01,6.578e-01,8.819e-01,3.756e-01,9.989e-01,1.134e+00,4.814e-01,1.053e+00,1.031e+00,1.043e+00,1.047e+00,5.770e-01,1.001e+00,4.090e-01,4.815e-01,7.719e-01,7.243e-01,1.166e+00,8.817e-01,1.048e+00,6.895e-01,6.080e-01,7.038e-01,8.576e-01,7.864e-01,5.333e-01,5.873e-01,1.152e-01,5.768e-01,8.133e-01,3.298e-01,6.343e-01,1.038e+00,4.159e-01,4.604e-01,2.010e-01
6.420e-01,3.015e-01,2.315e+00,7.381e-01,9.830e-01,1.699e+00,1.106e+00,1.615e+00,1.480e+00,5.448e-01,1.311e+00,1.251e+00,4.970e-01,9.090e-01,1.159e+00,8.207e-01,1.172e+00,1.352e+00,1.489e+00,1.808e+00,1.301e+00,6.111e-01,8.520e-01,1.167e+00,1.378e+00,1.907e+00,9.420e-01,9.764e-01,1.639e+00,5.488e-01,1.529e+00,1.168e+00,1.596e+00,1.480e+00,9.560e-01,1.035e+00,6.090e-01,1.245e+00,7.521e-01,1.086e+00,1.496e+00,5.726e-01,1.291e+00,8.809e-01,1.282e+00,1.494e+00,1.315e+00,1.964e+00,1.155e+00,1.134e+00,1.653e+00,1.822e+00,1.807e+00,1.822e+00,1.387e+00,1.529e+00,1.036e+00,1.854e+00,2.045e+00,1.439e+00,1.567e+00,1.955e+00,2.190e+00,1.473e+00,9.396e-01,8.242e-01,2.041e+00,1.867e+00,1.135e+00,1.459e+00,2.927e-01,1.302e+00,1.583e+00,1.203e+00,1.196e+00,1.676e+00,1.011e+00,1.291e+00,6.812e-01
2.540e-01,1.096e-01,1.367e+00,7.176e-01,9.721e-01,1.421e+00,9.289e-01,1.270e+00,1.604e+00,8.691e-01,1.127e+00,1.276e+00,1.010e+00,6.668e-01,1.292e+00,1.422e+00,6.782e-01,1.471e+00,1.405e+00,1.010e+00,7.257e-01,8.297e-01,1.303e+00,1.716e+00,1.317e+00,1.470e+00,1.662e+00,8.991e-01,1.825e+00,1.311e+00,1.983e+00,9.204e-01,1.475e+00,1.346e+00,5.993e-01,6.512e-01,8.565e-01,1.120e+00,8.163e-01,1.080e+00,1.355e+00,8.689e-01,8.319e-01,5.081e-01,1.088e+00,8.472e-01,1.342e+00,1.218e+00,6.149e-01,1.188e+00,1.134e+00,1.155e+00,1.936e+00,1.324e+00,1.636e+00,1.400e+00,1.081e+00,1.201e+00,1.588e+00,1.739e+00,1.306e+00,1.434e+00,1.720e+00,1.820e+00,8.471e-01,1.117e+00,1.343e+00,1.636e+00,1.032e+00,1.837e+00,8.212e-01,1.318e+00,2.005e+00,1.555e+00,1.154e+00,1.109e+00,1.167e+00,1.866e+00,4.635e-01
2.605e-01,3.049e-02,1.080e+00,3.968e-01,1.205e+00,1.144e+00,7.272e-01,1.250e+00,1.556e+00,5.327e-01,7.909e-01,1.250e+00,9.367e-01,6.362e-01,1.356e+00,1.212e+00,9.893e-01,1.006e+00,1.924e+00,1.382e+00,9.884e-01,9.134e-01,1.432e+00,1.035e+00,1.691e+00,1.555e+00,1.814e+00,1.414e+00,1.156e+00,7.932e-01,1.666e+00,7.491e-01,1.685e+00,1.328e+00,5.847e-01,8.100e-01,1.346e+00,1.133e+00,1.324e+00,1.104e+00,1.265e+00,5.276e-01,1.212e+00,5.577e-01,7.250e-01,1.157e+00,1.665e+00,1.660e+00,4.090e-01,9.072e-01,1.710e+00,1.653e+00,1.806e+00,1.129e+00,1.388e+00,8.156e-01,1.523e+00,1.509e+00,1.503e+00,1.051e+00,1.175e+00,1.288e+00,1.864e+00,1.072e+00,1.168e+00,1.090e+00,1.469e+00,1.091e+00,8.587e-01,1.258e+00,8.127e-01,8.662e-01,1.866e+00,1.905e+00,8.839e-01,1.201e+00,1.299e+00,1.753e+00,5.638e-01
6.778e-01,2.846e-01,2.230e+00,9.428e-01,1.026e+00,2.894e+00,1.516e+00,2.607e+00,2.164e+00,1.142e+00,1.852e+00,1.583e+00,1.443e+00,9.358e-01,2.073e+00,2.104e+00,2.158e+00,2.277e+00,2.043e+00,2.348e+00,2.304e+00,1.439e+00,2.158e+00,2.307e+00,1.996e+00,2.588e+00,2.035e+00,1.907e+00,2.619e+00,1.363e+00,2.827e+00,2.009e+00,2.839e+00,1.939e+00,1.748e+00,1.584e+00,9.656e-01,1.458e+00,1.670e+00,1.822e+00,2.466e+00,1.736e+00,2.392e+00,1.161e+00,1.756e+00,1.812e+00,2.353e+00,3.024e+00,1.940e+00,2.165e+00,2.238e+00,2.346e+00,3.131e+00,2.417e+00,2.242e+00,2.095e+00,1.813e+00,2.474e+00,2.451e+00,1.986e+00,2.633e+00,2.735e+00,2.474e+00,2.620e+00,1.898e+00,1.833e+00,2.827e+00,2.841e+00,1.308e+00,2.656e+00,1.311e+00,2.349e+00,2.915e+00,2.349e+00,2.247e+00,2.127e+00,1.621e+00,2.523e+00,1.559e+00
6.461e-01,2.945e-01,1.482e+00,7.990e-01,5.619e-01,2.565e+00,1.600e+00,2.628e+00,1.875e+00,8.230e-01,1.519e+00,1.901e+00,2.150e+00,1.050e+00,2.404e+00,2.369e+00,2.366e+00,2.198e+00,2.034e+00,3.161e+00,2.269e+00,1.654e+00,3.190e+00,2.582e+00,2.201e+00,2.875e+00,2.108e+00,2.876e+00,2.754e+00,1.706e+00,2.922e+00,1.835e+00,3.324e+00,2.364e+00,2.546e+00,2.706e+00,1.901e+00,1.453e+00,1.992e+00,2.469e+00,2.065e+00,2.112e+00,3.047e+00,1.141e+00,1.926e+00,2.890e+00,2.896e+00,3.641e+00,2.252e+00,1.713e+00,2.171e+00,2.445e+00,3.321e+00,2.488e+00,2.269e+00,1.970e+00,1.983e+00,2.641e+00,2.134e+00,1.671e+00,2.718e+00,2.326e+00,2.511e+00,2.337e+00,2.321e+00,2.419e+00,2.490e+00,2.312e+00,1.120e+00,2.578e+00,1.367e+00,1.946e+00,3.298e+00,2.545e+00,2.338e+00,2.545e+00,1.975e+00,2.426e+00,1.847e+00
3.289e-01,1.748e-01,1.411e+00,4.904e-01,1.169e+00,2.166e+00,1.549e+00,3.743e+00,2.944e+00,1.315e+00,1.904e+00,2.788e+00,2.012e+00,1.308e+00,2.293e+00,3.088e+00,3.006e+00,2.731e+00,3.346e+00,3.224e+00,2.520e+00,2.322e+00,3.458e+00,3.079e+00,3.031e+00,2.760e+00,2.597e+00,2.828e+00,2.856e+00,1.549e+00,3.256e+00,2.427e+00,3.868e+00,2.345e+00,2.376e+00,2.571e+00,2.926e+00,2.245e+00,2.874e+00,2.828e+00,2.651e+00,2.864e+00,2.947e+00,1.079e+00,1.993e+00,3.033e+00,3.929e+00,4.340e+00,2.083e+00,2.328e+00,2.537e+00,2.846e+00,3.391e+00,2.921e+00,2.983e+00,2.218e+00,3.075e+00,3.313e+00,2.836e+00,2.213e+00,2.587e+00,2.450e+00,2.539e+00,2.980e+00,2.646e+00,2.613e+00,2.814e+00,2.531e+00,1.494e+00,3.493e+00,1.701e+00,2.343e+00,4.218e+00,3.200e+00,2.984e+00,2.894e+00,2.825e+00,3.729e+00,2.789e+00
2.682e-01,1.912e-01,8.219e-01,6.211e-01,6.051e-01,1.735e+00,1.179e+00,2.700e+00,3.086e+00,1.608e+00,2.219e+00,3.269e+00,2.119e+00,1.896e+00,2.783e+00,3.223e+00,3.115e+00,3.275e+00,3.334e+00,3.237e+00,2.543e+00,2.731e+00,3.388e+00,3.005e+00,2.533e+00,2.650e+00,2.838e+00,2.510e+00,3.423e+00,2.251e+00,3.064e+00,2.200e+00,3.643e+00,2.476e+00,2.244e+00,2.579e+00,3.282e+00,2.196e+00,2.990e+00,2.706e+00,2.772e+00,2.524e+00,2.612e+00,7.513e-01,2.122e+00,3.323e+00,3.983e+00,4.314e+00,1.956e+00,2.522e+00,1.827e+00,2.644e+00,3.032e+00,2.532e+00,2.951e+00,2.273e+00,2.309e+00,2.791e+00,2.250e+00,2.399e+00,2.829e+00,2.346e+00,2.876e+00,3.611e+00,2.823e+00,3.112e+00,2.230e+00,2.233e+00,1.929e+00,3.150e+00,2.475e+00,2.270e+00,4.137e+00,3.362e+00,2.629e+00,2.777e+00,2.604e+00,3.598e+00,2.416e+00
5.897e-01,2.973e-01,1.655e+00,8.889e-01,8.808e-01,2.623e+00,1.262e+00,3.033e+00,3.301e+00,2.199e+00,2.938e+00,3.436e+00,2.085e+00,1.877e+00,3.079e+00,3.297e+00,3.535e+00,3.824e+00,3.665e+00,3.894e+00,3.798e+00,3.641e+00,3.175e+00,3.564e+00,3.137e+00,4.018e+00,2.769e+00,2.717e+00,3.772e+00,2.256e+00,3.599e+00,2.676e+00,4.200e+00,2.339e+00,2.918e+00,2.712e+00,2.956e+00,2.733e+00,3.507e+00,2.433e+00,3.950e+00,2.665e+00,3.095e+00,1.415e+00,2.405e+00,3.234e+00,4.618e+00,5.161e+00,3.243e+00,2.870e+00,2.916e+00,3.636e+00,4.113e+00,2.925e+00,4.083e+00,2.547e+00,3.217e+00,3.769e+00,3.180e+00,3.241e+00,3.866e+00,3.566e+00,3.608e+00,3.890e+00,3.045e+00,3.750e+00,3.672e+00,3.307e+00,2.148e+00,3.387e+00,2.503e+00,3.027e+00,4.525e+00,4.222e+00,3.264e+00,3.515e+00,2.884e+00,3.651e+00,2.450e+00
1.768e-01,1.476e-01,8.326e-01,5.290e-01,5.320e-01,1.615e+00,1.029e+00,1.857e+00,1.823e+00,1.558e+00,2.720e+00,2.555e+00,2.453e+00,1.951e+00,2.133e+00,2.829e+00,2.377e+00,3.211e+00,2.167e+00,3.227e+00,2.397e+00,2.931e+00,2.277e+00,3.751e+00,1.965e+00,3.327e+00,2.870e+00,2.137e+00,2.959e+00,2.176e+00,3.857e+00,2.155e+00,3.253e+00,2.649e+00,2.903e+00,2.347e+00,2.651e+00,1.743e+00,2.187e+00,2.668e+00,3.506e+00,2.850e+00,3.053e+00,1.273e+00,2.364e+00,2.390e+00,3.624e+00,3.361e+00,2.397e+00,2.096e+00,2.249e+00,2.285e+00,3.808e+00,2.940e+00,3.267e+00,2.240e+00,2.146e+00,3.031e+00,2.120e+00,2.898e+00,2.529e+00,2.992e+00,2.796e+00,2.717e+00,2.187e+00,3.794e+00,2.734e+00,2.813e+00,1.658e+00,2.892e+00,1.996e+00,2.151e+00,3.572e+00,3.803e+00,2.448e+00,3.158e+00,2.248e+00,2.580e+00,1.900e+00
4.441e-01,6.175e-02,9.145e-01,4.842e-01,3.747e-01,1.524e+00,7.172e-01,2.121e+00,2.251e+00,1.529e+00,2.270e+00,3.062e+00,1.789e+00,2.711e+00,2.326e+00,3.367e+00,3.989e+00,4.037e+00,3.517e+00,3.264e+00,2.651e+00,3.188e+00,2.856e+00,3.319e+00,2.465e+00,2.389e+00,2.393e+00,2.196e+00,2.963e+00,2.382e+00,2.977e+00,2.828e+00,3.146e+00,2.960e+00,2.189e+00,1.948e+00,2.895e+00,1.749e+00,3.298e+00,2.576e+00,3.497e+00,3.231e+00,3.235e+00,1.118e+00,2.263e+00,3.206e+00,4.300e+00,4.309e+00,2.363e+00,2.941e+00,1.507e+00,2.557e+00,2.886e+00,2.673e+00,3.313e+00,2.367e+00,2.157e+00,3.192e+00,2.042e+00,2.833e+00,3.253e+00,3.551e+00,2.941e+00,3.764e+00,2.901e+00,2.549e+00,2.735e+00,2.783e+00,2.365e+00,2.846e+00,2.375e+00,2.484e+00,3.269e+00,3.328e+00,3.286e+00,2.810e+00,2.521e+00,2.978e+00,2.911e+00
6.753e-01,3.203e-01,1.673e+00,1.100e+00,7.205e-01,2.717e+00,1.438e+00,2.465e+00,2.848e+00,1.879e+00,2.841e+00,3.507e+00,3.192e+00,2.985e+00,4.090e+00,4.343e+00,3.655e+00,5.031e+00,3.806e+00,5.115e+00,3.350e+00,3.773e+00,3.661e+00,4.859e+00,3.831e+00,4.696e+00,3.258e+00,3.181e+00,4.164e+00,3.345e+00,4.557e+00,3.272e+00,4.359e+00,4.217e+00,3.894e+00,3.688e+00,3.321e+00,3.308e+00,3.891e+00,3.280e+00,4.909e+00,3.476e+00,3.681e+00,1.786e+00,2.926e+00,4.097e+00,5.179e+00,5.814e+00,3.485e+00,3.429e+00,3.133e+00,3.977e+00,4.733e+00,3.948e+00,4.991e+00,3.137e+00,3.166e+00,4.375e+00,3.286e+00,4.192e+00,4.226e+00,4.267e+00,4.148e+00,4.394e+00,3.536e+00,4.670e+00,3.898e+00,3.812e+00,2.932e+00,3.995e+00,2.726e+00,3.620e+00,5.413e+00,4.969e+00,3.550e+00,4.067e+00,3.064e+00,3.691e+00,2.249e+00
2.306e-01,2.349e-01,1.142e+00,6.451e-01,5.753e-01,1.658e+00,1.253e+00,2.767e+00,2.422e+00,1.543e+00,2.459e+00,3.695e+00,3.063e+00,3.675e+00,3.650e+00,4.570e+00,4.323e+00,5.584e+00,4.031e+00,4.758e+00,3.024e+00,3.647e+00,4.137e+00,5.514e+00,3.967e+00,4.563e+00,3.104e+00,3.120e+00,3.622e+00,3.701e+00,4.787e+00,3.710e+00,3.931e+00,4.405e+00,3.789e+00,3.781e+00,3.797e+00,3.940e+00,3.668e+00,4.157e+00,4.677e+00,4.997e+00,4.112e+00,1.666e+00,3.677e+00,4.482e+00,5.734e+00,5.808e+00,3.704e+00,3.467e+00,3.355e+00,3.462e+00,5.106e+00,5.153e+00,5.067e+00,3.780e+00,3.919e+00,4.430e+00,3.844e+00,5.083e+00,3.591e+00,4.083e+00,3.432e+00,4.787e+00,3.367e+00,4.596e+00,3.631e+00,3.747e+00,3.431e+00,4.452e+00,2.817e+00,3.712e+00,5.641e+00,4.775e+00,4.002e+00,4.520e+00,3.484e+00,4.535e+00,3.818e+00
5.302e-01,5.224e-02,1.629e+00,5.835e-01,9.306e-01,2.048e+00,1.217e+00,2.980e+00,2.637e+00,1.952e+00,3.062e+00,3.286e+00,2.184e+00,3.253e+00,4.053e+00,5.240e+00,5.112e+00,5.262e+00,4.630e+00,4.810e+00,4.087e+00,3.732e+00,4.318e+00,5.208e+00,3.905e+00,3.727e+00,3.089e+00,3.041e+00,4.390e+00,3.885e+00,5.319e+00,4.653e+00,4.139e+00,4.649e+00,3.792e+00,2.605e+00,3.804e+00,3.539e+00,4.868e+00,3.363e+00,4.832e+00,4.686e+00,4.501e+00,1.898e+00,3.076e+00,4.805e+00,6.397e+00,6.511e+00,3.971e+00,4.306e+00,2.790e+00,3.994e+00,4.771e+00,4.651e+00,5.099e+00,3.738e+00,3.598e+00,5.291e+00,3.843e+00,4.555e+00,4.488e+00,4.851e+00,3.923e+00,5.489e+00,3.613e+00,3.921e+00,4.670e+00,3.879e+00,3.072e+00,4.617e+00,3.059e+00,3.988e+00,5.262e+00,5.019e+00,4.682e+00,3.747e+00,3.955e+00,4.894e+00,3.971e+00
4.394e-01,1.370e-01,1.719e+00,5.232e-01,9.818e-01,1.773e+00,1.277e+00,2.629e+00,2.254e+00,1.468e+00,2.833e+00,2.645e+00,1.949e+00,2.376e+00,2.501e+00,3.579e+00,3.928e+00,3.592e+00,3.136e+00,4.568e+00,3.165e+00,3.542e+00,2.909e+00,4.121e+00,3.410e+00,3.634e+00,2.732e+00,2.633e+00,3.633e+00,2.291e+00,4.002e+00,3.109e+00,3.709e+00,3.695e+00,3.739e+00,2.900e+00,3.731e+00,2.734e+00,3.588e+00,3.667e+00,4.146e+00,3.192e+00,4.109e+00,1.747e+00,2.899e+00,3.830e+00,4.416e+00,4.679e+00,2.731e+00,3.075e+00,2.966e+00,3.680e+00,3.853e+00,4.432e+00,3.846e+00,3.042e+00,3.366e+00,4.346e+00,3.142e+00,3.624e+00,3.172e+00,4.271e+00,3.485e+00,3.877e+00,2.757e+00,3.362e+00,3.708e+00,3.592e+00,2.877e+00,4.012e+00,2.602e+00,2.915e+00,4.558e+00,4.013e+00,2.988e+00,4.167e+00,3.339e+00,4.126e+00,3.403e+00
3.160e-01,9.858e-02,1.251e+00,5.573e-01,1.036e+00,2.068e+00,1.449e+00,2.567e+00,2.574e+00,1.728e+00,3.055e+00,3.127e+00,2.476e+00,2.650e+00,3.712e+00,4.526e+00,4.338e+00,4.424e+00,3.962e+00,4.644e+00,4.474e+00,3.792e+00,4.649e+00,4.610e+00,3.460e+00,3.876e+00,3.710e+00,3.463e+00,4.788e+00,4.557e+00,5.696e+00,3.723e+00,4.813e+00,4.378e+00,4.244e+00,2.893e+00,4.015e+00,2.741e+00,5.013e+00,3.770e+00,4.130e+00,4.286e+00,4.807e+00,2.143e+00,2.925e+00,4.767e+00,6.174e+00,6.035e+00,3.609e+00,4.245e+00,3.356e+00,3.731e+00,5.108e+00,5.067e+00,3.904e+00,3.127e+00,3.750e+00,4.593e+00,3.338e+00,3.454e+00,4.509e+00,4.871e+00,4.919e+00,4.592e+00,4.453e+00,4.392e+00,4.829e+00,3.943e+00,2.863e+00,4.014e+00,3.378e+00,3.699e+00,5.462e+00,5.904e+00,3.600e+00,4.235e+00,3.966e+00,5.214e+00,3.311e+00
1.543e-01,3.575e-01,1.646e+00,5.479e-01,8.934e-01,2.097e+00,1.566e+00,3.048e+00,2.480e+00,1.376e+00,2.813e+00,3.124e+00,2.683e+00,3.201e+00,4.109e+00,5.146e+00,4.712e+00,5.451e+00,4.610e+00,5.808e+00,4.850e+00,4.111e+00,4.755e+00,5.581e+00,4.948e+00,5.004e+00,4.175e+00,3.423e+00,4.456e+00,4.195e+00,6.540e+00,4.585e+00,5.299e+00,4.736e+00,5.291e+00,4.709e+00,4.712e+00,4.770e+00,4.675e+00,4.854e+00,5.789e+00,5.107e+00,4.865e+00,3.165e+00,3.742e+00,5.220e+00,6.339e+00,6.568e+00,4.886e+00,4.253e+00,4.513e+00,5.303e+00,6.766e+00,7.065e+00,5.597e+00,4.682e+00,5.135e+00,5.764e+00,4.768e+00,5.281e+00,4.529e+00,5.642e+00,4.398e+00,5.363e+00,4.534e+00,5.221e+00,5.471e+00,4.214e+00,3.679e+00,6.074e+00,3.865e+00,5.136e+00,6.990e+00,6.267e+00,4.878e+00,5.555e+00,4.765e+00,6.509e+00,4.355e+00
4.831e-02,1.623e-01,7.004e-01,2.410e-01,7.305e-01,1.120e+00,8.462e-01,2.217e+00,2.502e+00,1.346e+00,2.116e+00,2.866e+00,1.655e+00,2.523e+00,3.131e+00,3.308e+00,3.718e+00,4.160e+00,4.604e+00,4.725e+00,4.611e+00,3.618e+00,4.315e+00,3.544e+00,4.567e+00,4.070e+00,4.168e+00,3.291e+00,3.667e+00,3.935e+00,4.876e+00,3.723e+00,4.922e+00,3.700e+00,3.661e+00,4.375e+00,3.826e+00,3.834e+00,4.053e+00,4.058e+00,4.447e+00,3.781e+00,3.667e+00,2.814e+00,2.956e+00,4.417e+00,6.198e+00,6.067e+00,3.900e+00,4.021e+00,3.702e+00,3.923e+00,5.341e+00,5.257e+00,3.826e+00,3.413e+00,4.944e+00,4.294e+00,4.030e+00,3.149e+00,4.199e+00,4.157e+00,4.686e+00,4.021e+00,5.312e+00,4.013e+00,4.257e+00,3.309e+00,3.893e+00,4.070e+00,3.600e+00,4.807e+00,6.076e+00,5.671e+00,3.698e+00,4.946e+00,3.860e+00,5.727e+00,3.429e+00
3.057e-02,2.074e-01,5.445e-01,3.256e-01,1.943e-01,1.228e+00,9.007e-01,1.615e+00,1.578e+00,1.270e+00,2.332e+00,2.307e+00,2.046e+00,2.594e+00,3.258e+00,3.794e+00,3.450e+00,4.228e+00,3.348e+00,5.150e+00,4.993e+00,4.401e+00,4.729e+00,5.008e+00,4.702e+00,4.918e+00,4.209e+00,4.064e+00,4.476e+00,4.695e+00,5.809e+00,3.839e+00,4.248e+00,4.403e+00,4.511e+00,5.258e+00,3.583e+00,3.684e+00,4.432e+00,4.911e+00,5.411e+00,4.028e+00,4.178e+00,3.498e+00,3.139e+00,4.552e+00,6.321e+00,5.541e+00,4.471e+00,4.158e+00,3.544e+00,3.646e+00,5.355e+00,5.658e+00,4.581e+00,4.205e+00,4.403e+00,4.577e+00,3.869e+00,4.210e+00,4.837e+00,4.782e+00,4.281e+00,4.715e+00,4.569e+00,5.070e+00,4.430e+00,3.415e+00,3.964e+00,5.189e+00,3.714e+00,4.830e+00,6.575e+00,5.955e+00,4.030e+00,5.589e+00,4.401e+00,5.051e+00,4.218e+00
2.888e-01,9.843e-02,8.050e-01,5.840e-01,4.006e-01,1.219e+00,9.977e-01,1.956e+00,2.172e+00,1.666e+00,2.806e+00,3.653e+00,2.779e+00,3.665e+00,3.408e+00,4.194e+00,4.565e+00,5.406e+00,4.160e+00,5.151e+00,4.763e+00,5.307e+00,5.229e+00,6.484e+00,5.026e+00,5.038e+00,4.768e+00,4.407e+00,5.098e+00,5.972e+00,6.660e+00,4.318e+00,4.871e+00,6.123e+00,4.359e+00,4.754e+00,4.719e+00,4.429e+00,5.505e+00,5.406e+00,6.009e+00,5.273e+00,5.126e+00,3.832e+00,4.236e+00,5.947e+00,7.446e+00,6.817e+00,4.742e+00,4.802e+00,4.021e+00,3.697e+00,5.796e+00,5.782e+00,5.114e+00,4.661e+00,4.518e+00,5.793e+00,4.902e+00,5.150e+00,5.744e+00,6.349e+00,5.415e+00,5.548e+00,5.113e+00,5.362e+00,5.092e+00,4.294e+00,5.040e+00,5.354e+00,3.912e+00,4.815e+00,7.119e+00,7.092e+00,5.148e+00,6.159e+00,4.946e+00,5.110e+00,5.005e+00
4.193e-02,8.366e-02,9.247e-01,4.155e-01,1.084e+00,1.592e+00,1.055e+00,2.422e+00,2.678e+00,1.908e+00,2.877e+00,3.127e+00,2.347e+00,2.516e+00,3.203e+00,4.369e+00,3.909e+00,4.554e+00,4.166e+00,4.993e+00,5.064e+00,5.719e+00,4.847e+00,6.891e+00,5.644e+00,5.752e+00,5.175e+00,4.336e+00,5.546e+00,6.010e+00,6.841e+00,4.363e+00,5.463e+00,5.516e+00,4.644e+00,4.487e+00,4.712e+00,4.688e+00,6.295e+00,4.982e+00,6.708e+00,5.105e+00,4.759e+00,4.623e+00,3.183e+00,5.205e+00,7.535e+00,6.628e+00,4.691e+00,4.946e+00,5.458e+00,5.253e+00,6.475e+00,6.468e+00,5.322e+00,4.140e+00,6.233e+00,6.701e+00,4.982e+00,5.188e+00,6.045e+00,6.173e+00,5.095e+00,5.697e+00,5.904e+00,5.305e+00,5.882e+00,5.243e+00,4.543e+00,6.173e+00,4.470e+00,5.063e+00,7.795e+00,7.692e+00,5.057e+00,6.211e+00,5.743e+00,6.213e+00,4.792e+00
2.645e-01,3.219e-02,1.117e+00,4.423e-01,7.883e-01,1.469e+00,1.247e+00,2.566e+00,2.259e+00,1.583e+00,2.961e+00,2.975e+00,2.519e+00,2.726e+00,2.807e+00,4.197e+00,4.231e+00,4.513e+00,4.225e+00,5.375e+00,4.986e+00,5.731e+00,6.114e+00,7.102e+00,5.950e+00,6.123e+00,5.949e+00,4.808e+00,6.173e+00,6.419e+00,8.210e+00,5.329e+00,6.845e+00,6.782e+00,5.050e+00,5.657e+00,6.217e+00,5.062e+00,6.371e+00,6.402e+00,7.089e+00,6.305e+00,5.822e+00,5.965e+00,3.891e+00,5.964e+00,7.608e+00,6.972e+00,4.975e+00,4.970e+00,4.764e+00,6.101e+00,6.924e+00,7.175e+00,6.040e+00,5.006e+00,6.293e+00,7.658e+00,5.670e+00,5.894e+00,6.604e+00,6.868e+00,5.609e+00,6.544e+00,6.557e+00,5.339e+00,6.853e+00,5.759e+00,4.830e+00,7.573e+00,5.079e+00,5.723e+00,8.538e+00,8.102e+00,6.536e+00,7.637e+00,6.193e+00,6.571e+00,6.103e+00
5.418e-01,5.423e-02,1.119e+00,6.695e-01,7.859e-01,1.788e+00,1.144e+00,1.811e+00,1.794e+00,1.453e+00,2.564e+00,2.904e+00,2.840e+00,2.684e+00,3.823e+00,4.657e+00,4.571e+00,4.503e+00,4.282e+00,6.156e+00,4.667e+00,5.069e+00,5.710e+00,6.139e+00,5.445e+00,6.421e+00,5.701e+00,5.569e+00,5.919e+00,5.543e+00,7.386e+00,4.454e+00,6.309e+00,5.881e+00,6.076e+00,5.094e+00,5.770e+00,4.159e+00,6.117e+00,5.241e+00,5.414e+00,5.462e+00,6.139e+00,3.984e+00,4.245e+00,6.512e+00,8.131e+00,6.534e+00,5.603e+00,4.167e+00,4.461e+00,6.228e+00,7.974e+00,6.799e+00,6.227e+00,5.202e+00,6.080e+00,6.171e+00,4.840e+00,5.267e+00,6.565e+00,6.136e+00,6.372e+00,5.345e+00,5.593e+00,4.998e+00,5.788e+00,5.203e+00,4.835e+00,5.744e+00,4.724e+00,4.700e+00,7.437e+00,7.446e+00,5.791e+00,6.313e+00,5.354e+00,6.421e+00,4.119e+00
5.285e-01,7.076e-02,1.230e+00,8.015e-01,6.419e-01,1.960e+00,1.184e+00,2.295e+00,2.152e+00,1.646e+00,2.329e+00,2.657e+00,2.346e+00,2.257e+00,3.102e+00,3.524e+00,3.657e+00,4.034e+00,3.389e+00,3.821e+00,3.685e+00,3.935e+00,4.789e+00,5.007e+00,4.693e+00,5.851e+00,4.887e+00,4.684e+00,4.997e+00,4.986e+00,6.764e+00,4.309e+00,5.606e+00,4.527e+00,3.943e+00,4.476e+00,4.986e+00,4.124e+00,5.237e+00,4.420e+00,5.544e+00,5.000e+00,5.028e+00,2.985e+00,3.471e+00,4.611e+00,6.452e+00,6.100e+00,4.452e+00,4.098e+00,4.005e+00,4.582e+00,5.700e+00,5.501e+00,5.306e+00,4.513e+00,4.992e+00,5.356e+00,4.687e+00,5.394e+00,5.390e+00,5.486e+00,4.552e+00,5.466e+00,4.103e+00,5.001e+00,5.156e+00,5.017e+00,4.190e+00,5.287e+00,4.595e+00,4.278e+00,6.820e+00,6.024e+00,5.755e+00,5.018e+00,4.374e+00,5.807e+00,4.670e+00
5.183e-01,2.194e-02,8.236e-01,7.573e-01,7.033e-01,2.282e+00,1.119e+00,2.174e+00,1.947e+00,1.176e+00,1.620e+00,2.267e+00,3.048e+00,2.146e+00,3.476e+00,3.559e+00,3.816e+00,4.075e+00,3.802e+00,4.476e+00,4.031e+00,4.366e+00,6.046e+00,5.874e+00,5.557e+00,6.319e+00,6.655e+00,5.400e+00,5.324e+00,6.190e+00,7.621e+00,5.241e+00,6.191e+00,6.879e+00,4.438e+00,5.562e+00,4.719e+00,4.916e+00,5.208e+00,6.179e+00,5.894e+00,6.017e+00,5.384e+00,4.875e+00,4.685e+00,6.039e+00,7.395e+00,7.187e+00,5.133e+00,5.016e+00,5.081e+00,5.183e+00,7.908e+00,5.829e+00,5.549e+00,5.461e+00,6.160e+00,6.925e+00,6.172e+00,5.334e+00,6.414e+00,6.051e+00,4.847e+00,5.882e+00,6.407e+00,5.384e+00,6.344e+00,4.988e+00,5.305e+00,5.927e+00,4.585e+00,6.067e+00,7.861e+00,7.634e+00,5.939e+00,6.582e+00,5.030e+00,6.013e+00,5.572e+00
2.663e-01,2.814e-01,1.428e+00,7.506e-01,1.097e+00,2.494e+00,1.753e+00,3.499e+00,3.433e+00,1.745e+00,3.021e+00,4.324e+00,3.762e+00,3.938e+00,5.278e+00,6.429e+00,5.583e+00,6.589e+00,6.118e+00,7.191e+00,5.772e+00,5.825e+00,8.463e+00,8.341e+00,7.514e+00,8.406e+00,7.496e+00,7.307e+00,7.632e+00,8.249e+00,1.028e+01,6.890e+00,9.150e+00,8.545e+00,6.712e+00,7.947e+00,7.602e+00,6.972e+00,8.801e+00,8.085e+00,8.132e+00,8.948e+00,7.842e+00,6.156e+00,5.128e+00,8.868e+00,1.030e+01,1.008e+01,6.812e+00,6.592e+00,6.775e+00,8.086e+00,9.904e+00,9.301e+00,8.451e+00,7.600e+00,8.907e+00,8.755e+00,6.826e+00,8.282e+00,8.555e+00,7.917e+00,7.218e+00,8.378e+00,8.323e+00,7.987e+00,8.391e+00,7.392e+00,6.274e+00,9.662e+00,6.747e+00,7.728e+00,1.150e+01,1.024e+01,8.496e+00,9.435e+00,8.024e+00,9.078e+00,7.037e+00
2.057e-01,7.703e-02,1.033e+00,4.458e-01,1.121e+00,1.646e+00,1.217e+00,2.688e+00,2.667e+00,1.601e+00,2.750e+00,3.371e+00,2.806e+00,2.655e+00,3.111e+00,4.295e+00,4.488e+00,4.687e+00,4.684e+00,5.463e+00,5.118e+00,5.760e+00,5.289e+00,6.034e+00,6.046e+00,6.078e+00,6.688e+00,6.875e+00,6.068e+00,7.282e+00,8.672e+00,5.456e+00,8.535e+00,6.993e+00,6.044e+00,6.908e+00,7.801e+00,5.594e+00,7.737e+00,7.212e+00,7.377e+00,6.766e+00,7.566e+00,4.940e+00,4.804e+00,7.541e+00,8.384e+00,8.605e+00,6.222e+00,6.709e+00,6.419e+00,6.120e+00,8.537e+00,7.816e+00,6.867e+00,7.096e+00,7.816e+00,8.617e+00,6.066e+00,6.249e+00,6.611e+00,8.642e+00,7.023e+00,6.022e+00,6.928e+00,8.124e+00,7.525e+00,6.805e+00,6.016e+00,8.329e+00,6.446e+00,6.756e+00,9.711e+00,1.007e+01,7.277e+00,8.374e+00,7.173e+00,7.838e+00,6.523e+00
2.923e-01,1.498e-01,7.555e-01,6.958e-01,4.551e-01,1.744e+00,1.186e+00,2.267e+00,2.000e+00,1.408e+00,2.140e+00,3.178e+00,3.423e+00,3.011e+00,3.951e+00,5.226e+00,4.867e+00,5.735e+00,4.652e+00,6.740e+00,5.501e+00,6.660e+00,7.265e+00,8.312e+00,7.396e+00,7.670e+00,6.933e+00,7.193e+00,8.241e+00,8.858e+00,1.029e+01,6.414e+00,8.871e+00,8.602e+00,7.108e+00,8.397e+00,7.401e+00,7.045e+00,8.577e+00,8.205e+00,8.275e+00,8.758e+00,7.734e+00,6.976e+00,6.106e+00,9.468e+00,1.035e+01,9.212e+00,7.504e+00,7.188e+00,6.948e+00,7.271e+00,1.016e+01,9.099e+00,8.475e+00,8.087e+00,8.843e+00,9.244e+00,6.919e+00,8.582e+00,8.889e+00,9.510e+00,7.903e+00,8.189e+00,8.170e+00,7.847e+00,8.037e+00,7.343e+00,7.129e+00,9.624e+00,6.830e+00,8.614e+00,1.092e+01,1.078e+01,9.009e+00,9.718e+00,7.837e+00,9.166e+00,7.292e+00
2.972e-01,5.538e-02,5.138e-01,4.572e-01,4.977e-01,1.312e+00,8.723e-01,1.449e+00,1.422e+00,1.233e+00,2.189e+00,2.834e+00,3.098e+00,3.056e+00,4.061e+00,4.965e+00,4.588e+00,5.082e+00,4.079e+00,6.053e+00,5.138e+00,5.727e+00,5.739e+00,7.007e+00,6.577e+00,6.716e+00,5.974e+00,6.526e+00,6.506e+00,7.777e+00,9.362e+00,6.453e+00,7.342e+00,8.130e+00,7.509e+00,6.660e+00,7.257e+00,7.021e+00,8.668e+00,6.412e+00,8.529e+00,7.810e+00,7.931e+00,5.713e+00,5.102e+00,8.961e+00,9.827e+00,9.638e+00,7.901e+00,7.248e+00,6.848e+00,6.535e+00,8.396e+00,8.417e+00,8.033e+00,6.850e+00,7.774e+00,8.987e+00,6.261e+00,7.250e+00,8.764e+00,9.457e+00,8.128e+00,7.450e+00,6.782e+00,8.160e+00,7.468e+00,6.399e+00,6.398e+00,8.098e+00,6.235e+00,6.546e+00,9.617e+00,1.074e+01,8.809e+00,7.734e+00,6.700e+00,7.763e+00,6.284e+00
5.193e-01,3.607e-01,1.559e+00,6.322e-01,6.341e-01,1.797e+00,1.194e+00,2.522e+00,2.758e+00,1.401e+00,2.490e+00,3.576e+00,1.805e+00,3.095e+00,3.721e+00,3.874e+00,5.429e+00,4.921e+00,4.995e+00,6.067e+00,6.023e+00,5.347e+00,5.950e+00,5.706e+00,6.711e+00,7.568e+00,6.154e+00,7.409e+00,7.448e+00,8.088e+00,8.487e+00,6.640e+00,9.819e+00,7.507e+00,6.290e+00,7.736e+00,8.363e+00,7.640e+00,9.122e+00,6.807e+00,7.654e+00,7.587e+00,8.381e+00,5.519e+00,5.537e+00,9.286e+00,1.006e+01,1.077e+01,8.902e+00,8.278e+00,7.856e+00,8.186e+00,9.754e+00,1.034e+01,7.543e+00,8.293e+00,9.101e+00,9.267e+00,6.887e+00,7.538e+00,9.782e+00,9.225e+00,9.032e+00,7.832e+00,8.337e+00,7.397e+00,8.661e+00,8.423e+00,7.595e+00,7.955e+00,7.778e+00,7.292e+00,1.034e+01,9.972e+00,9.681e+00,9.670e+00,7.943e+00,9.917e+00,7.766e+00
2.680e-01,1.054e-01,1.150e+00,6.169e-01,7.625e-01,2.081e+00,1.230e+00,2.729e+00,2.444e+00,2.013e+00,2.770e+00,3.128e+00,2.451e+00,3.025e+00,4.236e+00,5.531e+00,4.808e+00,5.363e+00,4.455e+00,5.725e+00,5.335e+00,5.145e+00,6.124e+00,7.083e+00,6.529e+00,6.813e+00,5.621e+00,7.165e+00,7.075e+00,7.478e+00,8.589e+00,6.787e+00,7.646e+00,7.461e+00,6.187e+00,6.821e+00,6.166e+00,6.386e+00,8.637e+00,6.998e+00,7.965e+00,8.532e+00,7.706e+00,5.413e+00,5.189e+00,8.541e+00,1.020e+01,9.931e+00,8.204e+00,8.009e+00,6.796e+00,6.483e+00,9.183e+00,8.509e+00,8.431e+00,8.433e+00,8.322e+00,8.134e+00,6.105e+00,8.063e+00,9.086e+00,8.772e+00,7.985e+00,8.170e+00,7.085e+00,8.121e+00,6.793e+00,7.118e+00,7.227e+00,9.257e+00,6.397e+00,7.471e+00,1.054e+01,9.265e+00,8.741e+00,7.747e+00,7.392e+00,8.675e+00,7.483e+00
3.485e-01,9.545e-02,6.929e-01,5.993e-01,6.485e-01,1.983e+00,1.011e+00,1.907e+00,2.391e+00,1.406e+00,2.284e+00,3.058e+00,2.907e+00,3.216e+00,4.442e+00,4.743e+00,4.934e+00,5.200e+00,4.534e+00,5.339e+00,5.294e+00,5.307e+00,6.735e+00,6.198e+00,5.610e+00,6.851e+00,6.218e+00,6.214e+00,6.996e+00,7.480e+00,8.438e+00,6.293e+00,8.608e+00,8.791e+00,6.140e+00,7.121e+00,7.515e+00,6.600e+00,9.421e+00,7.931e+00,8.191e+00,8.300e+00,7.733e+00,6.716e+00,5.280e+00,8.481e+00,1.011e+01,1.052e+01,6.727e+00,8.215e+00,7.097e+00,7.874e+00,9.759e+00,9.158e+00,8.413e+00,7.098e+00,7.872e+00,8.262e+00,6.171e+00,7.701e+00,9.658e+00,8.196e+00,8.180e+00,8.319e+00,8.571e+00,8.116e+00,8.002e+00,6.327e+00,7.159e+00,8.291e+00,6.650e+00,7.232e+00,1.011e+01,9.975e+00,8.357e+00,9.381e+00,7.384e+00,8.438e+00,8.348e+00
1.347e-01,3.572e-01,1.090e+00,3.519e-01,7.135e-01,1.345e+00,1.074e+00,2.054e+00,2.091e+00,1.061e+00,2.320e+00,3.314e+00,2.232e+00,3.007e+00,3.601e+00,3.988e+00,4.280e+00,4.604e+00,4.362e+00,5.643e+00,5.303e+00,4.850e+00,6.000e+00,5.956e+00,5.540e+00,7.412e+00,5.867e+00,6.376e+00,7.136e+00,7.740e+00,8.401e+00,6.765e+00,9.073e+00,8.745e+00,7.963e+00,8.087e+00,8.111e+00,8.233e+00,9.503e+00,8.079e+00,8.361e+00,9.578e+00,8.451e+00,7.610e+00,6.134e+00,9.432e+00,1.078e+01,1.124e+01,9.589e+00,8.813e+00,8.670e+00,9.411e+00,1.195e+01,1.100e+01,9.088e+00,8.461e+00,9.522e+00,1.016e+01,7.690e+00,8.062e+00,1.085e+01,8.966e+00,9.651e+00,9.164e+00,9.535e+00,9.204e+00,9.061e+00,7.614e+00,7.276e+00,8.732e+00,7.089e+00,7.733e+00,1.031e+01,1.115e+01,9.773e+00,1.109e+01,8.243e+00,8.779e+00,8.800e+00
1.051e-01,2.022e-01,1.227e+00,4.364e-01,8.195e-01,1.780e+00,1.221e+00,2.884e+00,2.325e+00,1.560e+00,2.318e+00,2.927e+00,1.955e+00,2.272e+00,2.792e+00,4.556e+00,4.140e+00,4.623e+00,4.302e+00,5.196e+00,5.535e+00,5.404e+00,6.077e+00,6.521e+00,6.537e+00,5.575e+00,4.872e+00,4.912e+00,6.506e+00,6.341e+00,8.180e+00,5.962e+00,7.598e+00,7.017e+00,7.039e+00,6.980e+00,6.646e+00,6.755e+00,9.423e+00,6.995e+00,8.428e+00,8.113e+00,6.862e+00,7.455e+00,5.372e+00,7.810e+00,9.413e+00,9.329e+00,7.297e+00,8.014e+00,7.239e+00,7.693e+00,9.281e+00,8.599e+00,8.482e+00,6.866e+00,8.248e+00,8.888e+00,6.812e+00,7.982e+00,9.384e+00,9.679e+00,8.375e+00,8.776e+00,8.125e+00,6.534e+00,8.582e+00,6.282e+00,7.261e+00,9.322e+00,6.055e+00,8.053e+00,9.946e+00,9.964e+00,9.347e+00,9.328e+00,7.651e+00,8.792e+00,7.641e+00
5.343e-01,2.051e-01,1.980e+00,8.822e-01,1.369e+00,2.568e+00,1.622e+00,3.304e+00,3.480e+00,2.046e+00,3.045e+00,3.717e+00,2.348e+00,3.045e+00,4.865e+00,5.291e+00,5.525e+00,5.285e+00,5.488e+00,6.059e+00,5.865e+00,4.981e+00,7.128e+00,6.390e+00,6.437e+00,7.177e+00,6.448e+00,7.038e+00,8.139e+00,8.152e+00,9.046e+00,7.324e+00,8.430e+00,8.285e+00,6.845e+00,7.839e+00,8.023e+00,7.915e+00,9.681e+00,8.537e+00,8.795e+00,9.401e+00,8.692e+00,5.803e+00,6.789e+00,1.010e+01,1.062e+01,1.107e+01,8.606e+00,9.567e+00,7.581e+00,8.099e+00,1.099e+01,9.681e+00,8.633e+00,8.672e+00,9.697e+00,1.043e+01,8.055e+00,9.124e+00,1.060e+01,9.363e+00,9.370e+00,1.023e+01,9.256e+00,8.742e+00,8.726e+00,7.993e+00,8.003e+00,1.022e+01,7.893e+00,8.578e+00,1.110e+01,1.145e+01,9.212e+00,9.971e+00,8.717e+00,1.055e+01,8.969e+00
1.784e-01,3.358e-01,1.684e+00,7.620e-01,1.220e+00,2.512e+00,1.554e+00,2.889e+00,3.039e+00,1.857e+00,2.938e+00,3.118e+00,2.416e+00,2.198e+00,3.507e+00,4.201e+00,3.123e+00,4.382e+00,4.393e+00,5.083e+00,5.181e+00,4.702e+00,5.177e+00,6.571e+00,6.192e+00,6.578e+00,6.543e+00,5.707e+00,6.583e+00,6.908e+00,8.560e+00,6.087e+00,8.526e+00,7.591e+00,6.455e+00,7.602e+00,7.443e+00,7.362e+00,8.678e+00,7.812e+00,9.836e+00,8.293e+00,7.173e+00,8.184e+00,5.378e+00,7.503e+00,9.677e+00,1.060e+01,8.195e+00,8.364e+00,8.515e+00,7.744e+00,1.083e+01,9.730e+00,8.185e+00,7.797e+00,8.969e+00,1.010e+01,7.400e+00,7.935e+00,9.712e+00,8.690e+00,8.575e+00,8.298e+00,9.124e+00,8.845e+00,8.025e+00,7.258e+00,7.140e+00,9.374e+00,7.070e+00,8.401e+00,1.152e+01,1.083e+01,9.900e+00,9.832e+00,7.869e+00,9.090e+00,7.475e+00
1.333e-01,1.120e-01,1.242e+00,3.000e-01,1.228e+00,1.883e+00,1.161e+00,3.231e+00,3.076e+00,1.817e+00,2.740e+00,3.153e+00,1.829e+00,2.270e+00,3.248e+00,4.734e+00,4.796e+00,4.433e+00,4.676e+00,5.168e+00,5.546e+00,5.264e+00,5.334e+00,5.389e+00,5.614e+00,5.630e+00,5.760e+00,6.738e+00,6.501e+00,6.514e+00,7.601e+00,6.545e+00,8.490e+00,7.252e+00,7.200e+00,6.835e+00,8.980e+00,6.841e+00,1.175e+01,8.943e+00,8.997e+00,1.028e+01,8.544e+00,7.077e+00,6.749e+00,9.812e+00,1.084e+01,1.204e+01,8.656e+00,1.060e+01,7.580e+00,9.058e+00,1.113e+01,1.104e+01,9.275e+00,9.968e+00,9.626e+00,1.101e+01,7.668e+00,8.661e+00,9.114e+00,9.497e+00,9.768e+00,8.710e+00,9.176e+00,1.006e+01,9.475e+00,8.328e+00,9.089e+00,1.054e+01,8.628e+00,9.191e+00,1.196e+01,1.259e+01,9.581e+00,1.078e+01,8.623e+00,1.120e+01,9.521e+00
6.812e-01,3.825e-02,1.165e+00,5.612e-01,5.646e-01,1.459e+00,6.353e-01,1.488e+00,1.473e+00,1.140e+00,1.579e+00,1.880e+00,1.386e+00,1.847e+00,2.987e+00,3.067e+00,4.079e+00,3.320e+00,3.167e+00,4.141e+00,3.650e+00,3.852e+00,4.525e+00,4.250e+00,4.351e+00,5.847e+00,3.872e+00,5.205e+00,6.105e+00,6.324e+00,6.208e+00,6.336e+00,7.726e+00,7.585e+00,6.785e+00,6.061e+00,8.343e+00,7.557e+00,1.058e+01,7.640e+00,8.665e+00,1.023e+01,9.237e+00,7.929e+00,6.718e+00,9.382e+00,9.736e+00,1.177e+01,8.633e+00,9.950e+00,7.533e+00,9.921e+00,1.106e+01,1.057e+01,9.965e+00,8.642e+00,9.468e+00,1.056e+01,7.677e+00,8.630e+00,9.812e+00,8.470e+00,9.865e+00,9.957e+00,8.314e+00,9.117e+00,8.606e+00,8.475e+00,7.947e+00,8.686e+00,8.129e+00,8.554e+00,9.690e+00,1.061e+01,1.058e+01,1.082e+01,6.941e+00,9.706e+00,9.758e+00
3.734e-01,2.147e-01,1.660e+00,7.705e-01,1.180e+00,2.568e+00,1.676e+00,3.077e+00,2.996e+00,1.586e+00,2.919e+00,3.789e+00,3.319e+00,3.554e+00,4.334e+00,5.913e+00,5.477e+00,6.094e+00,5.682e+00,6.676e+00,5.713e+00,5.728e+00,7.186e+00,7.295e+00,7.242e+00,7.117e+00,7.396e+00,6.256e+00,7.334e+00,7.655e+00,9.912e+00,7.750e+00,9.168e+00,9.396e+00,8.294e+00,7.567e+00,8.582e+00,7.848e+00,1.132e+01,1.011e+01,1.106e+01,1.193e+01,9.736e+00,9.140e+00,7.666e+00,1.081e+01,1.171e+01,1.306e+01,9.365e+00,1.024e+01,8.027e+00,1.124e+01,1.239e+01,1.247e+01,1.035e+01,9.537e+00,1.074e+01,1.101e+01,8.785e+00,9.318e+00,1.215e+01,1.095e+01,1.131e+01,1.017e+01,1.121e+01,1.011e+01,1.023e+01,8.703e+00,9.640e+00,1.198e+01,8.875e+00,9.768e+00,1.304e+01,1.286e+01,1.054e+01,1.147e+01,9.343e+00,1.220e+01,9.850e+00
5.861e-03,3.414e-01,1.523e+00,3.350e-01,9.842e-01,1.272e+00,1.460e+00,2.904e+00,2.545e+00,1.293e+00,2.812e+00,3.297e+00,2.144e+00,2.777e+00,2.611e+00,3.560e+00,2.698e+00,4.075e+00,3.992e+00,4.963e+00,4.222e+00,4.297e+00,4.444e+00,6.519e+00,6.005e+00,7.001e+00,6.728e+00,6.023e+00,6.978e+00,6.866e+00,9.017e+00,6.925e+00,8.535e+00,7.968e+00,6.166e+00,7.803e+00,8.181e+00,7.676e+00,9.270e+00,9.305e+00,1.056e+01,1.025e+01,8.953e+00,9.859e+00,7.711e+00,9.832e+00,1.101e+01,1.210e+01,8.320e+00,9.644e+00,8.733e+00,9.718e+00,1.162e+01,1.195e+01,9.398e+00,9.624e+00,9.651e+00,1.247e+01,8.926e+00,9.576e+00,9.963e+00,9.093e+00,9.715e+00,9.781e+00,9.894e+00,1.051e+01,1.039e+01,8.501e+00,9.137e+00,1.084e+01,9.313e+00,1.008e+01,1.294e+01,1.233e+01,1.234e+01,1.183e+01,9.319e+00,1.179e+01,9.612e+00
3.501e-01,1.610e-01,1.373e+00,5.445e-01,7.645e-01,1.622e+00,1.358e+00,2.940e+00,2.654e+00,1.882e+00,3.254e+00,3.463e+00,2.613e+00,3.420e+00,4.027e+00,4.845e+00,5.181e+00,5.231e+00,4.277e+00,6.276e+00,4.856e+00,5.094e+00,5.844e+00,6.693e+00,6.234e+00,7.538e+00,5.409e+00,5.867e+00,6.824e+00,6.666e+00,8.206e+00,7.070e+00,8.338e+00,8.409e+00,7.801e+00,8.032e+00,9.323e+00,8.357e+00,1.158e+01,9.386e+00,1.038e+01,1.192e+01,1.113e+01,7.926e+00,8.834e+00,1.050e+01,1.123e+01,1.368e+01,8.605e+00,1.068e+01,8.560e+00,1.112e+01,1.252e+01,1.228e+01,1.076e+01,9.694e+00,1.079e+01,1.246e+01,9.073e+00,1.088e+01,1.020e+01,9.877e+00,1.009e+01,1.152e+01,9.471e+00,1.183e+01,1.098e+01,9.473e+00,1.053e+01,1.060e+01,9.916e+00,1.022e+01,1.353e+01,1.213e+01,1.132e+01,1.260e+01,1.005e+01,1.235e+01,1.088e+01
4.331e-01,1.273e-01,1.383e+00,6.014e-01,9.593e-01,1.620e+00,1.068e+00,2.491e+00,2.548e+00,1.533e+00,2.514e+00,3.447e+00,2.527e+00,2.983e+00,3.590e+00,4.770e+00,5.337e+00,5.395e+00,5.059e+00,5.819e+00,4.970e+00,5.831e+00,6.325e+00,6.446e+00,6.040e+00,7.356e+00,5.822e+00,5.800e+00,7.084e+00,7.251e+00,8.789e+00,6.796e+00,9.436e+00,8.056e+00,8.168e+00,6.871e+00,9.785e+00,7.803e+00,1.147e+01,8.842e+00,9.404e+00,1.174e+01,1.001e+01,9.284e+00,7.371e+00,1.124e+01,1.135e+01,1.289e+01,9.353e+00,9.291e+00,8.923e+00,1.268e+01,1.318e+01,1.308e+01,1.123e+01,9.304e+00,1.143e+01,1.255e+01,8.825e+00,1.081e+01,1.139e+01,1.136e+01,1.117e+01,1.089e+01,1.062e+01,1.002e+01,1.197e+01,1.040e+01,9.650e+00,1.139e+01,1.026e+01,1.023e+01,1.212e+01,1.315e+01,1.090e+01,1.200e+01,1.000e+01,1.195e+01,9.347e+00
3.685e-01,3.848e-01,1.818e+00,8.836e-01,9.777e-01,2.742e+00,1.610e+00,2.955e+00,3.280e+00,2.032e+00,3.475e+00,4.041e+00,3.126e+00,3.661e+00,4.180e+00,5.544e+00,4.869e+00,5.943e+00,4.804e+00,6.553e+00,5.582e+00,6.074e+00,5.920e+00,6.931e+00,6.902e+00,7.815e+00,6.587e+00,6.372e+00,7.539e+00,7.386e+00,8.980e+00,7.401e+00,8.461e+00,8.747e+00,7.690e+00,8.341e+00,8.474e+00,7.308e+00,1.137e+01,1.036e+01,1.204e+01,1.161e+01,1.094e+01,1.054e+01,8.441e+00,1.160e+01,1.164e+01,1.522e+01,9.266e+00,1.172e+01,9.638e+00,1.150e+01,1.259e+01,1.304e+01,1.161e+01,1.038e+01,1.197e+01,1.336e+01,9.677e+00,1.133e+01,1.249e+01,1.256e+01,1.170e+01,1.276e+01,1.125e+01,1.392e+01,1.135e+01,9.537e+00,1.093e+01,1.193e+01,1.069e+01,1.195e+01,1.499e+01,1.316e+01,1.218e+01,1.283e+01,1.120e+01,1.287e+01,1.127e+01
1.628e-01,9.137e-02,1.238e+00,4.501e-01,1.260e+00,1.712e+00,1.374e+00,2.982e+00,2.841e+00,1.678e+00,2.906e+00,3.587e+00,3.053e+00,3.703e+00,4.560e+00,5.321e+00,4.794e+00,5.825e+00,5.559e+00,5.747e+00,5.118e+00,5.011e+00,5.950e+00,6.886e+00,6.432e+00,7.048e+00,6.558e+00,6.864e+00,6.120e+00,7.410e+00,9.291e+00,6.730e+00,9.409e+00,8.298e+00,7.362e+00,7.989e+00,9.738e+00,8.170e+00,1.018e+01,9.063e+00,1.046e+01,1.059e+01,1.028e+01,8.317e+00,7.436e+00,9.859e+00,1.201e+01,1.385e+01,9.438e+00,1.049e+01,9.784e+00,1.114e+01,1.325e+01,1.271e+01,1.108e+01,9.131e+00,1.138e+01,1.282e+01,9.226e+00,1.063e+01,1.019e+01,1.085e+01,1.062e+01,1.142e+01,1.046e+01,1.229e+01,1.111e+01,9.506e+00,9.920e+00,1.114e+01,1.064e+01,1.068e+01,1.397e+01,1.368e+01,1.256e+01,1.235e+01,1.000e+01,1.194e+01,9.771e+00
3.295e-01,1.075e-01,9.943e-01,3.922e-01,8.705e-01,1.919e+00,1.034e+00,2.132e+00,2.185e+00,1.542e+00,2.958e+00,2.834e+00,2.734e+00,3.131e+00,3.978e+00,4.388e+00,4.835e+00,4.596e+00,4.178e+00,6.280e+00,5.456e+00,5.346e+00,5.865e+00,6.420e+00,6.945e+00,8.208e+00,6.650e+00,6.682e+00,6.670e+00,6.663e+00,9.176e+00,7.219e+00,8.783e+00,8.523e+00,7.602e+00,7.944e+00,8.726e+00,8.306e+00,1.124e+01,9.628e+00,1.130e+01,1.160e+01,1.147e+01,9.637e+00,8.767e+00,1.160e+01,1.207e+01,1.484e+01,1.039e+01,1.099e+01,1.093e+01,1.291e+01,1.343e+01,1.350e+01,1.219e+01,1.038e+01,1.185e+01,1.317e+01,1.022e+01,1.213e+01,1.358e+01,1.241e+01,1.237e+01,1.243e+01,1.067e+01,1.253e+01,1.204e+01,1.053e+01,1.194e+01,1.137e+01,1.197e+01,1.113e+01,1.450e+01,1.355e+01,1.307e+01,1.400e+01,1.106e+01,1.334e+01,1.141e+01
3.259e-01,1.873e-01,1.651e+00,5.415e-01,9.451e-01,1.514e+00,9.954e-01,2.553e+00,2.905e+00,2.017e+00,3.375e+00,3.713e+00,1.993e+00,3.816e+00,3.941e+00,4.518e+00,5.206e+00,5.932e+00,5.249e+00,5.400e+00,5.335e+00,5.131e+00,4.931e+00,6.417e+00,5.371e+00,6.514e+00,5.080e+00,4.460e+00,6.496e+00,6.689e+00,7.991e+00,7.268e+00,8.055e+00,7.998e+00,7.367e+00,6.691e+00,8.855e+00,9.173e+00,1.132e+01,9.743e+00,1.204e+01,1.268e+01,1.005e+01,9.911e+00,8.560e+00,1.098e+01,1.241e+01,1.451e+01,1.011e+01,1.161e+01,9.084e+00,1.278e+01,1.332e+01,1.453e+01,1.182e+01,9.640e+00,1.165e+01,1.390e+01,1.054e+01,1.222e+01,1.297e+01,1.169e+01,1.245e+01,1.288e+01,1.162e+01,1.209e+01,1.078e+01,1.071e+01,1.103e+01,1.233e+01,1.098e+01,1.100e+01,1.390e+01,1.411e+01,1.305e+01,1.359e+01,1.082e+01,1.374e+01,1.182e+01
2.248e-01,2.481e-01,1.075e+00,5.442e-01,5.007e-01,2.011e+00,1.271e+00,2.644e+00,2.636e+00,1.788e+00,3.085e+00,3.499e+00,2.640e+00,3.471e+00,3.964e+00,4.910e+00,4.819e+00,5.607e+00,4.686e+00,5.695e+00,5.323e+00,4.931e+00,5.330e+00,6.219e+00,5.520e+00,6.471e+00,6.250e+00,5.596e+00,6.948e+00,6.809e+00,8.375e+00,7.073e+00,8.054e+00,7.778e+00,8.074e+00,7.586e+00,7.472e+00,7.232e+00,1.023e+01,9.327e+00,1.077e+01,1.171e+01,1.090e+01,9.045e+00,9.158e+00,1.145e+01,1.234e+01,1.490e+01,1.033e+01,1.217e+01,1.004e+01,1.219e+01,1.402e+01,1.458e+01,1.257e+01,1.051e+01,1.126e+01,1.315e+01,1.134e+01,1.112e+01,1.375e+01,1.266e+01,1.258e+01,1.418e+01,1.182e+01,1.295e+01,1.203e+01,1.023e+01,1.190e+01,1.205e+01,1.154e+01,1.250e+01,1.435e+01,1.331e+01,1.428e+01,1.381e+01,1.191e+01,1.353e+01,1.167e+01
5.632e-01,5.259e-02,1.115e+00,7.833e-01,6.230e-01,2.294e+00,1.271e+00,2.991e+00,2.414e+00,1.723e+00,2.245e+00,3.268e+00,3.151e+00,2.854e+00,3.600e+00,4.867e+00,4.796e+00,5.591e+00,4.741e+00,5.249e+00,4.729e+00,5.371e+00,5.883e+00,6.371e+00,5.966e+00,6.323e+00,6.501e+00,6.442e+00,6.650e+00,6.709e+00,8.760e+00,6.904e+00,8.240e+00,7.833e+00,7.821e+00,7.613e+00,8.263e+00,6.948e+00,1.128e+01,9.890e+00,1.064e+01,1.291e+01,1.078e+01,9.384e+00,9.542e+00,1.151e+01,1.266e+01,1.429e+01,1.111e+01,1.306e+01,8.850e+00,1.339e+01,1.506e+01,1.275e+01,1.240e+01,1.141e+01,1.231e+01,1.448e+01,1.124e+01,1.177e+01,1.324e+01,1.327e+01,1.233e+01,1.344e+01,1.241e+01,1.425e+01,1.218e+01,1.120e+01,1.254e+01,1.329e+01,1.116e+01,1.310e+01,1.496e+01,1.493e+01,1.413e+01,1.294e+01,1.139e+01,1.457e+01,1.136e+01
2.775e-01,2.105e-01,7.874e-01,3.846e-01,2.900e-01,1.315e+00,8.758e-01,1.464e+00,1.357e+00,1.062e+00,1.902e+00,2.196e+00,1.705e+00,2.454e+00,3.528e+00,3.789e+00,3.734e+00,3.799e+00,3.434e+00,5.042e+00,4.502e+00,3.709e+00,5.201e+00,4.930e+00,5.219e+00,6.192e+00,4.171e+00,5.472e+00,4.900e+00,5.778e+00,6.568e+00,5.983e+00,6.829e+00,6.933e+00,7.744e+00,7.020e+00,7.218e+00,7.189e+00,9.853e+00,7.920e+00,9.082e+00,1.028e+01,1.021e+01,8.646e+00,6.936e+00,1.001e+01,1.012e+01,1.292e+01,9.558e+00,1.078e+01,8.990e+00,1.145e+01,1.163e+01,1.208e+01,1.110e+01,9.470e+00,1.176e+01,1.263e+01,9.600e+00,1.014e+01,1.208e+01,1.032e+01,1.084e+01,1.194e+01,1.080e+01,1.149e+01,1.090e+01,9.457e+00,9.964e+00,1.174e+01,1.002e+01,1.044e+01,1.357e+01,1.238e+01,1.157e+01,1.161e+01,1.092e+01,1.164e+01,9.441e+00
2.015e-01,3.084e-01,1.143e+00,4.351e-01,7.043e-01,1.386e+00,1.247e+00,2.044e+00,2.085e+00,1.221e+00,2.572e+00,3.351e+00,2.566e+00,3.257e+00,3.456e+00,4.123e+00,3.493e+00,4.720e+00,4.283e+00,5.826e+00,5.047e+00,5.049e+00,5.179e+00,6.539e+00,6.170e+00,6.672e+00,5.581e+00,5.984e+00,6.336e+00,7.004e+00,8.384e+00,6.592e+00,7.728e+00,8.182e+00,8.348e+00,7.809e+00,7.224e+00,8.239e+00,1.044e+01,8.677e+00,1.042e+01,1.085e+01,9.513e+00,9.310e+00,8.144e+00,1.128e+01,1.186e+01,1.391e+01,1.008e+01,1.185e+01,1.052e+01,1.233e+01,1.369e+01,1.441e+01,1.310e+01,9.899e+00,1.234e+01,1.530e+01,1.171e+01,1.147e+01,1.330e+01,1.431e+01,1.399e+01,1.432e+01,1.156e+01,1.255e+01,1.269e+01,1.048e+01,1.175e+01,1.254e+01,1.062e+01,1.207e+01,1.480e+01,1.534e+01,1.350e+01,1.449e+01,1.324e+01,1.195e+01,1.122e+01
3.737e-01,3.602e-01,1.426e+00,6.898e-01,6.571e-01,2.110e+00,1.497e+00,2.678e+00,2.658e+00,1.470e+00,2.698e+00,3.426e+00,2.730e+00,3.307e+00,4.199e+00,4.553e+00,4.303e+00,5.071e+00,4.504e+00,6.413e+00,4.944e+00,4.338e+00,6.131e+00,6.150e+00,6.278e+00,6.712e+00,5.049e+00,5.281e+00,6.243e+00,6.242e+00,7.397e+00,6.802e+00,7.973e+00,8.346e+00,6.926e+00,7.580e+00,7.494e+00,7.884e+00,1.022e+01,8.897e+00,1.002e+01,1.148e+01,1.013e+01,9.598e+00,8.576e+00,1.174e+01,1.190e+01,1.561e+01,1.099e+01,1.221e+01,1.020e+01,1.354e+01,1.456e+01,1.518e+01,1.321e+01,1.154e+01,1.170e+01,1.367e+01,1.207e+01,1.165e+01,1.332e+01,1.290e+01,1.383e+01,1.321e+01,1.260e+01,1.377e+01,1.188e+01,1.167e+01,1.338e+01,1.276e+01,1.019e+01,1.269e+01,1.596e+01,1.362e+01,1.435e+01,1.433e+01,1.221e+01,1.436e+01,1.162e+01
2.415e-01,1.039e-02,6.377e-01,4.396e-01,8.299e-01,1.437e+00,7.808e-01,1.489e+00,1.855e+00,1.250e+00,1.780e+00,2.563e+00,2.023e+00,2.181e+00,3.122e+00,3.877e+00,3.571e+00,3.839e+00,3.985e+00,4.172e+00,4.382e+00,4.243e+00,5.832e+00,4.893e+00,5.510e+00,5.784e+00,5.860e+00,5.568e+00,6.289e+00,7.185e+00,8.447e+00,7.112e+00,8.068e+00,8.343e+00,6.724e+00,6.754e+00,8.748e+00,7.705e+00,1.185e+01,9.604e+00,1.025e+01,1.277e+01,1.016e+01,9.804e+00,8.617e+00,1.157e+01,1.193e+01,1.524e+01,1.131e+01,1.338e+01,9.745e+00,1.323e+01,1.389e+01,1.436e+01,1.246e+01,1.200e+01,1.385e+01,1.539e+01,1.219e+01,1.250e+01,1.477e+01,1.416e+01,1.432e+01,1.400e+01,1.439e+01,1.465e+01,1.338e+01,1.184e+01,1.262e+01,1.333e+01,1.116e+01,1.295e+01,1.490e+01,1.515e+01,1.494e+01,1.435e+01,1.373e+01,1.562e+01,1.252e+01
5.772e-01,2.277e-01,1.834e+00,6.989e-01,7.863e-01,2.041e+00,1.556e+00,3.361e+00,2.379e+00,1.667e+00,2.787e+00,3.642e+00,2.858e+00,3.744e+00,3.978e+00,5.228e+00,5.834e+00,6.354e+00,5.320e+00,7.212e+00,5.919e+00,5.965e+00,6.893e+00,7.426e+00,7.477e+00,8.021e+00,6.039e+00,7.399e+00,7.386e+00,8.367e+00,9.623e+00,8.678e+00,1.023e+01,1.034e+01,1.022e+01,9.577e+00,1.011e+01,9.062e+00,1.202e+01,1.100e+01,1.115e+01,1.315e+01,1.188e+01,9.848e+00,9.716e+00,1.320e+01,1.383e+01,1.713e+01,1.175e+01,1.355e+01,1.125e+01,1.267e+01,1.466e+01,1.732e+01,1.504e+01,1.358e+01,1.513e+01,1.755e+01,1.369e+01,1.323e+01,1.409e+01,1.525e+01,1.463e+01,1.404e+01,1.336e+01,1.389e+01,1.463e+01,1.319e+01,1.425e+01,1.434e+01,1.100e+01,1.452e+01,1.622e+01,1.611e+01,1.535e+01,1.554e+01,1.389e+01,1.517e+01,1.357e+01
4.699e-01,3.477e-01,2.116e+00,9.112e-01,1.048e+00,2.794e+00,1.678e+00,3.566e+00,3.507e+00,1.955e+00,3.170e+00,3.631e+00,2.404e+00,3.140e+00,4.559e+00,5.240e+00,5.635e+00,5.603e+00,5.096e+00,5.709e+00,5.852e+00,5.266e+00,7.023e+00,6.996e+00,6.616e+00,8.187e+00,6.879e+00,7.227e+00,8.696e+00,8.448e+00,1.001e+01,8.166e+00,9.948e+00,8.741e+00,7.127e+00,8.556e+00,9.575e+00,9.068e+00,1.177e+01,1.041e+01,1.144e+01,1.284e+01,1.128e+01,1.026e+01,9.127e+00,1.335e+01,1.230e+01,1.551e+01,1.189e+01,1.351e+01,1.131e+01,1.415e+01,1.602e+01,1.629e+01,1.510e+01,1.462e+01,1.520e+01,1.644e+01,1.383e+01,1.533e+01,1.652e+01,1.466e+01,1.470e+01,1.623e+01,1.439e+01,1.476e+01,1.405e+01,1.449e+01,1.421e+01,1.613e+01,1.392e+01,1.464e+01,1.700e+01,1.612e+01,1.552e+01,1.483e+01,1.448e+01,1.743e+01,1.514e+01
9.199e-02,2.611e-01,1.183e+00,6.699e-01,9.627e-01,2.271e+00,1.330e+00,2.552e+00,2.867e+00,1.819e+00,2.786e+00,3.278e+00,2.755e+00,2.710e+00,3.411e+00,4.817e+00,3.686e+00,4.814e+00,4.327e+00,5.905e+00,4.934e+00,5.504e+00,5.447e+00,7.206e+00,7.209e+00,7.395e+00,7.311e+00,6.624e+00,7.165e+00,7.391e+00,8.658e+00,6.892e+00,8.724e+00,8.710e+00,8.432e+00,8.870e+00,8.785e+00,8.082e+00,1.141e+01,9.628e+00,1.175e+01,1.121e+01,1.040e+01,1.024e+01,8.427e+00,1.047e+01,1.223e+01,1.419e+01,1.133e+01,1.331e+01,1.131e+01,1.311e+01,1.555e+01,1.558e+01,1.360e+01,1.385e+01,1.665e+01,1.771e+01,1.383e+01,1.331e+01,1.583e+01,1.494e+01,1.473e+01,1.531e+01,1.689e+01,1.570e+01,1.399e+01,1.460e+01,1.547e+01,1.553e+01,1.318e+01,1.444e+01,1.735e+01,1.784e+01,1.639e+01,1.491e+01,1.545e+01,1.640e+01,1.334e+01
4.591e-01,3.513e-01,1.986e+00,6.272e-01,9.260e-01,1.692e+00,1.206e+00,2.821e+00,2.912e+00,1.813e+00,3.385e+00,3.914e+00,2.179e+00,3.189e+00,2.895e+00,3.833e+00,4.553e+00,5.058e+00,4.569e+00,6.119e+00,5.447e+00,5.800e+00,4.614e+00,6.096e+00,6.250e+00,6.995e+00,6.028e+00,5.713e+00,7.243e+00,6.275e+00,8.770e+00,6.901e+00,9.129e+00,8.591e+00,7.748e+00,8.624e+00,9.915e+00,8.500e+00,1.211e+01,1.018e+01,1.187e+01,1.125e+01,9.754e+00,9.838e+00,9.477e+00,1.194e+01,1.263e+01,1.550e+01,1.075e+01,1.350e+01,1.060e+01,1.264e+01,1.418e+01,1.594e+01,1.423e+01,1.434e+01,1.487e+01,1.768e+01,1.469e+01,1.470e+01,1.513e+01,1.591e+01,1.584e+01,1.427e+01,1.457e+01,1.555e+01,1.447e+01,1.333e+01,1.604e+01,1.441e+01,1.227e+01,1.408e+01,1.621e+01,1.723e+01,1.676e+01,1.713e+01,1.479e+01,1.613e+01,1.540e+01
3.799e-01,1.368e-01,1.173e+00,5.310e-01,5.408e-01,1.698e+00,9.036e-01,2.524e+00,2.448e+00,1.762e+00,2.695e+00,3.391e+00,2.263e+00,3.154e+00,3.073e+00,4.686e+00,5.147e+00,5.278e+00,4.412e+00,5.298e+00,4.404e+00,5.254e+00,4.456e+00,5.869e+00,5.623e+00,5.397e+00,4.980e+00,5.043e+00,6.161e+00,6.403e+00,7.200e+00,6.540e+00,7.948e+00,7.895e+00,7.470e+00,7.115e+00,8.977e+00,7.561e+00,1.130e+01,8.695e+00,1.079e+01,1.099e+01,1.018e+01,9.450e+00,8.088e+00,1.098e+01,1.129e+01,1.459e+01,1.105e+01,1.356e+01,1.025e+01,1.251e+01,1.467e+01,1.458e+01,1.408e+01,1.320e+01,1.520e+01,1.710e+01,1.349e+01,1.413e+01,1.564e+01,1.493e+01,1.515e+01,1.508e+01,1.445e+01,1.528e+01,1.317e+01,1.398e+01,1.496e+01,1.451e+01,1.327e+01,1.503e+01,1.592e+01,1.626e+01,1.586e+01,1.449e+01,1.402e+01,1.640e+01,1.515e+01
4.433e-01,2.374e-01,1.898e+00,8.443e-01,1.046e+00,2.396e+00,1.760e+00,3.228e+00,2.813e+00,1.803e+00,2.896e+00,3.041e+00,2.625e+00,2.901e+00,4.442e+00,5.065e+00,4.228e+00,5.007e+00,4.146e+00,5.455e+00,4.304e+00,4.084e+00,5.818e+00,7.442e+00,6.448e+00,7.387e+00,5.461e+00,6.546e+00,6.710e+00,8.184e+00,8.724e+00,7.480e+00,8.592e+00,8.831e+00,7.869e+00,7.850e+00,8.738e+00,8.733e+00,1.046e+01,8.608e+00,1.090e+01,1.122e+01,1.103e+01,8.621e+00,7.491e+00,1.076e+01,1.097e+01,1.488e+01,1.025e+01,1.147e+01,1.081e+01,1.164e+01,1.308e+01,1.440e+01,1.321e+01,1.186e+01,1.421e+01,1.600e+01,1.307e+01,1.426e+01,1.406e+01,1.333e+01,1.288e+01,1.464e+01,1.388e+01,1.416e+01,1.341e+01,1.364e+01,1.253e+01,1.530e+01,1.330e+01,1.306e+01,1.653e+01,1.534e+01,1.583e+01,1.434e+01,1.365e+01,1.446e+01,1.316e+01
3.330e-01,1.103e-01,8.887e-01,5.177e-01,8.075e-01,1.699e+00,1.100e+00,2.441e+00,2.199e+00,1.104e+00,1.633e+00,2.880e+00,2.715e+00,2.762e+00,3.759e+00,4.393e+00,4.414e+00,4.530e+00,4.361e+00,5.669e+00,4.313e+00,4.725e+00,6.568e+00,6.254e+00,7.090e+00,7.719e+00,6.608e+00,7.156e+00,6.544e+00,7.328e+00,8.476e+00,7.050e+00,8.340e+00,8.816e+00,7.878e+00,9.012e+00,9.889e+00,8.775e+00,1.221e+01,1.043e+01,1.138e+01,1.263e+01,1.063e+01,9.494e+00,8.330e+00,1.163e+01,1.298e+01,1.520e+01,1.146e+01,1.315e+01,1.118e+01,1.245e+01,1.525e+01,1.660e+01,1.458e+01,1.364e+01,1.506e+01,1.686e+01,1.439e+01,1.563e+01,1.629e+01,1.520e+01,1.654e+01,1.524e+01,1.583e+01,1.627e+01,1.308e+01,1.384e+01,1.571e+01,1.553e+01,1.431e+01,1.520e+01,1.886e+01,1.693e+01,1.786e+01,1.642e+01,1.602e+01,1.682e+01,1.625e+01
6.579e-01,4.069e-02,1.041e+00,6.239e-01,4.485e-01,1.829e+00,1.020e+00,2.024e+00,1.756e+00,1.339e+00,2.076e+00,2.697e+00,2.296e+00,2.702e+00,3.552e+00,4.443e+00,5.153e+00,4.561e+00,4.078e+00,5.643e+00,4.717e+00,5.082e+00,6.287e+00,6.621e+00,6.303e+00,6.795e+00,5.398e+00,6.841e+00,6.458e+00,7.945e+00,8.054e+00,7.162e+00,8.798e+00,9.065e+00,8.440e+00,7.556e+00,9.063e+00,8.160e+00,1.246e+01,8.795e+00,1.039e+01,1.208e+01,1.198e+01,9.090e+00,8.090e+00,1.199e+01,1.211e+01,1.550e+01,1.121e+01,1.254e+01,1.036e+01,1.395e+01,1.466e+01,1.557e+01,1.429e+01,1.214e+01,1.553e+01,1.580e+01,1.386e+01,1.520e+01,1.750e+01,1.605e+01,1.599e+01,1.627e+01,1.492e+01,1.527e+01,1.432e+01,1.524e+01,1.500e+01,1.640e+01,1.410e+01,1.354e+01,1.797e+01,1.641e+01,1.815e+01,1.786e+01,1.582e+01,1.596e+01,1.643e+01
3.967e-01,9.970e-02,1.404e+00,6.974e-01,1.094e+00,2.378e+00,1.387e+00,2.714e+00,2.809e+00,1.951e+00,2.939e+00,3.299e+00,2.429e+00,2.803e+00,4.081e+00,5.193e+00,5.055e+00,5.281e+00,5.288e+00,5.932e+00,6.542e+00,6.149e+00,7.033e+00,7.373e+00,7.291e+00,7.548e+00,8.114e+00,7.430e+00,8.510e+00,9.481e+00,1.073e+01,8.331e+00,9.198e+00,9.504e+00,7.223e+00,7.643e+00,8.113e+00,7.225e+00,1.159e+01,1.073e+01,1.134e+01,1.263e+01,1.149e+01,1.151e+01,8.927e+00,1.320e+01,1.436e+01,1.672e+01,1.199e+01,1.408e+01,1.147e+01,1.335e+01,1.587e+01,1.646e+01,1.403e+01,1.507e+01,1.609e+01,1.789e+01,1.449e+01,1.425e+01,1.699e+01,1.761e+01,1.687e+01,1.702e+01,1.737e+01,1.678e+01,1.681e+01,1.620e+01,1.616e+01,1.689e+01,1.481e+01,1.781e+01,1.883e+01,1.847e+01,1.863e+01,1.709e+01,1.784e+01,1.804e+01,1.654e+01
5.126e-01,1.636e-01,1.473e+00,8.278e-01,7.896e-01,2.090e+00,1.424e+00,2.199e+00,2.339e+00,1.737e+00,2.895e+00,3.245e+00,2.580e+00,3.064e+00,3.930e+00,4.633e+00,4.592e+00,5.009e+00,4.260e+00,5.856e+00,5.510e+00,5.525e+00,6.946e+00,7.232e+00,6.608e+00,7.774e+00,6.277e+00,6.730e+00,7.909e+00,8.811e+00,9.290e+00,6.755e+00,8.633e+00,8.964e+00,8.049e+00,8.485e+00,9.304e+00,7.744e+00,1.218e+01,9.953e+00,1.132e+01,1.168e+01,1.143e+01,1.067e+01,8.091e+00,1.148e+01,1.274e+01,1.483e+01,1.154e+01,1.340e+01,1.144e+01,1.327e+01,1.529e+01,1.625e+01,1.418e+01,1.309e+01,1.552e+01,1.759e+01,1.435e+01,1.510e+01,1.746e+01,1.589e+01,1.707e+01,1.716e+01,1.774e+01,1.703e+01,1.596e+01,1.676e+01,1.637e+01,1.725e+01,1.455e+01,1.646e+01,1.931e+01,1.845e+01,1.950e+01,1.746e+01,1.644e+01,1.842e+01,1.759e+01
7.129e-02,2.796e-01,1.082e+00,3.156e-01,8.032e-01,1.700e+00,1.283e+00,2.860e+00,2.443e+00,1.461e+00,2.831e+00,3.569e+00,2.576e+00,3.260e+00,3.207e+00,4.276e+00,4.609e+00,4.900e+00,4.817e+00,6.119e+00,5.569e+00,5.356e+00,6.372e+00,6.583e+00,6.962e+00,8.058e+00,6.744e+00,6.859e+00,6.118e+00,6.682e+00,8.658e+00,6.787e+00,9.015e+00,7.820e+00,8.737e+00,8.925e+00,8.572e+00,8.238e+00,1.110e+01,9.480e+00,1.113e+01,1.135e+01,1.117e+01,1.025e+01,8.248e+00,1.114e+01,1.242e+01,1.403e+01,1.129e+01,1.268e+01,1.165e+01,1.414e+01,1.609e+01,1.659e+01,1.495e+01,1.285e+01,1.695e+01,1.695e+01,1.492e+01,1.311e+01,1.651e+01,1.535e+01,1.691e+01,1.627e+01,1.691e+01,1.647e+01,1.589e+01,1.583e+01,1.617e+01,1.709e+01,1.406e+01,1.613e+01,1.895e+01,1.856e+01,1.762e+01,1.760e+01,1.619e+01,1.674e+01,1.753e+01
5.340e-01,1.121e-01,1.001e+00,8.352e-01,3.876e-01,2.037e+00,1.164e+00,2.166e+00,2.298e+00,1.769e+00,2.485e+00,2.888e+00,2.581e+00,2.645e+00,3.753e+00,4.066e+00,4.316e+00,4.862e+00,4.067e+00,5.249e+00,4.857e+00,4.719e+00,6.294e+00,5.442e+00,5.265e+00,6.285e+00,5.297e+00,6.054e+00,7.070e+00,7.273e+00,7.801e+00,6.175e+00,8.520e+00,7.245e+00,6.075e+00,7.251e+00,7.668e+00,6.581e+00,8.824e+00,8.980e+00,8.383e+00,1.021e+01,9.220e+00,8.407e+00,7.535e+00,9.886e+00,1.029e+01,1.288e+01,1.044e+01,1.145e+01,8.160e+00,1.129e+01,1.250e+01,1.243e+01,1.173e+01,1.158e+01,1.314e+01,1.357e+01,1.267e+01,1.415e+01,1.517e+01,1.349e+01,1.420e+01,1.549e+01,1.729e+01,1.632e+01,1.378e+01,1.379e+01,1.496e+01,1.565e+01,1.475e+01,1.510e+01,1.752e+01,1.556e+01,1.773e+01,1.635e+01,1.412e+01,1.697e+01,1.580e+01
6.190e-02,1.222e-01,6.066e-01,2.281e-01,3.289e-01,8.909e-01,5.456e-01,1.141e+00,1.006e+00,1.010e+00,1.644e+00,1.375e+00,1.277e+00,1.752e+00,2.937e+00,3.329e+00,2.961e+00,3.407e+00,2.570e+00,4.140e+00,3.893e+00,3.303e+00,3.652e+00,4.722e+00,4.271e+00,4.536e+00,3.273e+00,3.706e+00,5.039e+00,5.542e+00,6.523e+00,5.721e+00,6.125e+00,6.826e+00,5.993e+00,5.951e+00,6.533e+00,7.053e+00,9.479e+00,7.506e+00,9.067e+00,9.976e+00,8.254e+00,8.578e+00,7.086e+00,1.030e+01,9.711e+00,1.355e+01,9.735e+00,1.194e+01,9.750e+00,1.106e+01,1.235e+01,1.354e+01,1.232e+01,1.143e+01,1.286e+01,1.295e+01,1.264e+01,1.393e+01,1.359e+01,1.376e+01,1.279e+01,1.380e+01,1.477e+01,1.551e+01,1.374e+01,1.338e+01,1.489e+01,1.453e+01,1.326e+01,1.509e+01,1.611e+01,1.457e+01,1.698e+01,1.616e+01,1.453e+01,1.622e+01,1.526e+01
4.924e-01,1.330e-01,1.271e+00,7.865e-01,8.845e-01,2.151e+00,1.132e+00,2.146e+00,2.479e+00,1.459e+00,2.095e+00,2.644e+00,2.192e+00,1.969e+00,3.156e+00,3.600e+00,3.982e+00,3.802e+00,3.663e+00,4.195e+00,3.996e+00,4.096e+00,4.937e+00,4.408e+00,4.866e+00,5.586e+00,5.361e+00,6.082e+00,6.109e+00,6.491e+00,7.371e+00,5.877e+00,9.013e+00,7.495e+00,6.597e+00,6.735e+00,8.757e+00,6.935e+00,1.063e+01,8.382e+00,8.438e+00,9.842e+00,9.777e+00,8.150e+00,7.473e+00,1.072e+01,9.756e+00,1.320e+01,9.511e+00,1.124e+01,9.824e+00,1.205e+01,1.456e+01,1.346e+01,1.345e+01,1.285e+01,1.381e+01,1.469e+01,1.234e+01,1.364e+01,1.431e+01,1.463e+01,1.584e+01,1.435e+01,1.486e+01,1.570e+01,1.480e+01,1.643e+01,1.585e+01,1.594e+01,1.467e+01,1.588e+01,1.784e+01,1.750e+01,1.771e+01,1.658e+01,1.488e+01,1.751e+01,1.709e+01
1.522e-01,1.928e-01,6.493e-01,4.495e-01,2.122e-01,9.073e-01,7.167e-01,1.073e+00,1.064e+00,6.128e-01,1.017e+00,1.523e+00,1.351e+00,1.389e+00,2.574e+00,2.891e+00,2.964e+00,2.978e+00,2.174e+00,3.256e+00,3.425e+00,3.153e+00,4.590e+00,4.394e+00,4.402e+00,4.721e+00,3.492e+00,3.672e+00,5.155e+00,6.117e+00,6.650e+00,4.562e+00,6.252e+00,6.344e+00,5.938e+00,5.745e+00,7.253e+00,6.694e+00,9.551e+00,6.441e+00,7.301e+00,8.981e+00,7.686e+00,8.277e+00,6.202e+00,8.739e+00,8.692e+00,1.173e+01,9.381e+00,1.089e+01,9.408e+00,1.140e+01,1.246e+01,1.270e+01,1.064e+01,1.140e+01,1.294e+01,1.432e+01,1.245e+01,1.313e+01,1.338e+01,1.372e+01,1.358e+01,1.416e+01,1.499e+01,1.553e+01,1.369e+01,1.558e+01,1.467e+01,1.438e+01,1.391e+01,1.532e+01,1.728e+01,1.599e+01,1.712e+01,1.484e+01,1.542e+01,1.780e+01,1.641e+01
1.445e-01,3.466e-01,1.140e+00,7.165e-01,9.108e-01,2.148e+00,1.257e+00,2.566e+00,3.446e+00,1.861e+00,2.765e+00,3.740e+00,2.625e+00,3.142e+00,4.633e+00,4.859e+00,4.484e+00,5.423e+00,5.194e+00,6.056e+00,5.994e+00,5.327e+00,6.568e+00,6.099e+00,7.205e+00,7.689e+00,7.336e+00,7.319e+00,7.861e+00,8.385e+00,9.705e+00,7.776e+00,1.035e+01,9.376e+00,7.943e+00,9.490e+00,9.410e+00,1.003e+01,1.315e+01,1.058e+01,1.179e+01,1.299e+01,1.222e+01,1.136e+01,9.977e+00,1.343e+01,1.389e+01,1.830e+01,1.265e+01,1.628e+01,1.248e+01,1.545e+01,1.721e+01,1.752e+01,1.641e+01,1.587e+01,1.751e+01,1.831e+01,1.745e+01,1.667e+01,1.872e+01,1.743e+01,1.851e+01,1.924e+01,1.899e+01,2.060e+01,1.824e+01,1.816e+01,1.952e+01,1.960e+01,1.967e+01,2.088e+01,2.451e+01,2.183e+01,2.199e+01,2.088e+01,2.037e+01,2.176e+01,2.094e+01
2.544e-02,1.618e-01,7.773e-01,2.153e-01,8.782e-01,1.509e+00,1.051e+00,2.917e+00,2.529e+00,1.172e+00,1.735e+00,2.530e+00,1.958e+00,1.746e+00,2.960e+00,4.044e+00,3.584e+00,3.568e+00,3.751e+00,4.539e+00,3.972e+00,4.049e+00,5.414e+00,5.687e+00,6.040e+00,6.040e+00,5.309e+00,6.019e+00,6.475e+00,6.746e+00,7.847e+00,7.000e+00,8.818e+00,8.064e+00,6.617e+00,7.373e+00,8.582e+00,8.153e+00,1.071e+01,8.764e+00,9.489e+00,1.154e+01,9.823e+00,1.009e+01,7.308e+00,1.174e+01,1.104e+01,1.452e+01,1.145e+01,1.337e+01,1.083e+01,1.329e+01,1.421e+01,1.364e+01,1.339e+01,1.367e+01,1.635e+01,1.692e+01,1.420e+01,1.436e+01,1.608e+01,1.462e+01,1.477e+01,1.623e+01,1.762e+01,1.692e+01,1.508e+01,1.614e+01,1.717e+01,1.827e+01,1.723e+01,1.662e+01,2.049e+01,1.884e+01,1.957e+01,1.634e+01,1.730e+01,1.833e+01,1.844e+01
6.327e-01,7.470e-02,1.091e+00,8.159e-01,3.975e-01,1.752e+00,1.081e+00,1.755e+00,1.931e+00,1.547e+00,2.235e+00,2.485e+00,2.338e+00,2.593e+00,3.879e+00,3.935e+00,3.870e+00,4.610e+00,4.028e+00,5.032e+00,4.881e+00,4.836e+00,5.448e+00,5.787e+00,5.941e+00,6.703e+00,6.211e+00,6.792e+00,6.449e+00,7.639e+00,8.622e+00,6.589e+00,8.612e+00,8.216e+00,7.017e+00,7.903e+00,8.536e+00,7.381e+00,1.052e+01,8.947e+00,1.021e+01,1.015e+01,9.632e+00,8.934e+00,7.332e+00,1.064e+01,1.180e+01,1.499e+01,1.020e+01,1.230e+01,9.602e+00,1.208e+01,1.370e+01,1.572e+01,1.431e+01,1.396e+01,1.454e+01,1.628e+01,1.513e+01,1.444e+01,1.517e+01,1.616e+01,1.576e+01,1.624e+01,1.646e+01,1.825e+01,1.479e+01,1.570e+01,1.671e+01,1.745e+01,1.663e+01,1.716e+01,2.126e+01,1.866e+01,2.048e+01,1.804e+01,1.794e+01,1.734e+01,1.921e+01
3.169e-01,1.160e-01,8.286e-01,4.975e-01,5.417e-01,1.132e+00,7.555e-01,1.986e+00,2.266e+00,1.518e+00,2.073e+00,3.101e+00,1.853e+00,2.711e+00,3.296e+00,3.555e+00,4.298e+00,4.628e+00,4.566e+00,4.756e+00,5.108e+00,5.010e+00,5.649e+00,4.998e+00,5.831e+00,6.202e+00,5.405e+00,5.963e+00,6.328e+00,7.152e+00,8.228e+00,6.529e+00,8.255e+00,7.305e+00,6.322e+00,7.508e+00,8.245e+00,8.152e+00,1.091e+01,9.150e+00,1.005e+01,1.188e+01,1.024e+01,9.884e+00,8.523e+00,1.186e+01,1.226e+01,1.544e+01,1.131e+01,1.319e+01,1.033e+01,1.338e+01,1.429e+01,1.411e+01,1.353e+01,1.321e+01,1.430e+01,1.534e+01,1.349e+01,1.463e+01,1.483e+01,1.535e+01,1.497e+01,1.632e+01,1.573e+01,1.731e+01,1.510e+01,1.540e+01,1.601e+01,1.577e+01,1.621e+01,1.759e+01,1.942e+01,1.896e+01,1.965e+01,1.788e+01,1.650e+01,1.874e+01,1.768e+01
5.892e-01,3.123e-01,1.620e+00,6.850e-01,6.131e-01,1.669e+00,1.322e+00,2.443e+00,2.111e+00,1.319e+00,2.699e+00,3.883e+00,2.980e+00,3.955e+00,4.085e+00,4.620e+00,4.857e+00,5.491e+00,4.406e+00,6.294e+00,4.568e+00,5.008e+00,5.690e+00,6.681e+00,5.553e+00,7.186e+00,4.924e+00,6.124e+00,5.936e+00,6.314e+00,7.444e+00,5.756e+00,6.555e+00,7.886e+00,6.716e+00,7.106e+00,7.072e+00,6.520e+00,9.501e+00,8.465e+00,8.942e+00,9.678e+00,9.797e+00,8.051e+00,7.592e+00,1.069e+01,1.098e+01,1.287e+01,9.181e+00,1.034e+01,8.894e+00,1.129e+01,1.285e+01,1.296e+01,1.258e+01,1.200e+01,1.221e+01,1.436e+01,1.306e+01,1.298e+01,1.264e+01,1.346e+01,1.391e+01,1.394e+01,1.507e+01,1.654e+01,1.542e+01,1.547e+01,1.613e+01,1.533e+01,1.481e+01,1.701e+01,1.858e+01,1.815e+01,1.873e+01,1.787e+01,1.678e+01,1.664e+01,1.962e+01
6.299e-01,3.826e-01,1.757e+00,1.071e+00,5.416e-01,2.868e+00,1.816e+00,2.963e+00,2.367e+00,1.373e+00,2.514e+00,3.280e+00,3.406e+00,2.913e+00,4.254e+00,4.751e+00,4.812e+00,5.360e+00,3.812e+00,5.792e+00,4.445e+00,4.099e+00,6.467e+00,6.441e+00,4.977e+00,6.615e+00,5.203e+00,5.818e+00,6.912e+00,7.105e+00,8.224e+00,6.461e+00,8.165e+00,8.184e+00,7.144e+00,7.275e+00,7.963e+00,7.040e+00,9.213e+00,8.853e+00,8.532e+00,1.143e+01,1.003e+01,7.733e+00,8.356e+00,1.099e+01,1.016e+01,1.318e+01,1.020e+01,1.130e+01,8.451e+00,1.121e+01,1.421e+01,1.339e+01,1.210e+01,1.165e+01,1.180e+01,1.378e+01,1.165e+01,1.420e+01,1.538e+01,1.299e+01,1.375e+01,1.443e+01,1.480e+01,1.426e+01,1.472e+01,1.531e+01,1.418e+01,1.530e+01,1.505e+01,1.545e+01,1.887e+01,1.832e+01,1.783e+01,1.790e+01,1.602e+01,1.737e+01,1.788e+01
5.726e-01,1.275e-01,1.627e+00,7.546e-01,1.239e+00,2.179e+00,1.538e+00,2.505e+00,2.650e+00,1.614e+00,2.733e+00,3.243e+00,2.522e+00,3.083e+00,4.252e+00,4.426e+00,4.970e+00,4.816e+00,4.913e+00,5.998e+00,5.500e+00,4.993e+00,5.913e+00,6.180e+00,6.703e+00,7.103e+00,6.286e+00,7.283e+00,7.110e+00,8.397e+00,8.752e+00,6.170e+00,8.752e+00,7.762e+00,6.820e+00,7.610e+00,8.394e+00,7.350e+00,1.026e+01,8.300e+00,9.174e+00,9.935e+00,1.097e+01,8.145e+00,7.817e+00,1.120e+01,1.167e+01,1.397e+01,1.091e+01,1.257e+01,1.121e+01,1.276e+01,1.498e+01,1.515e+01,1.244e+01,1.292e+01,1.565e+01,1.743e+01,1.491e+01,1.362e+01,1.513e+01,1.607e+01,1.596e+01,1.587e+01,1.795e+01,1.736e+01,1.501e+01,1.738e+01,1.597e+01,1.553e+01,1.571e+01,1.683e+01,1.994e+01,1.936e+01,1.891e+01,1.644e+01,1.912e+01,2.005e+01,1.767e+01
5.937e-01,3.503e-01,1.892e+00,1.047e+00,1.099e+00,2.730e+00,1.660e+00,3.405e+00,3.876e+00,1.954e+00,3.099e+00,4.264e+00,3.400e+00,3.709e+00,5.380e+00,5.646e+00,5.964e+00,6.350e+00,5.950e+00,7.492e+00,6.214e+00,6.445e+00,7.510e+00,7.422e+00,7.824e+00,8.948e+00,7.717e+00,7.718e+00,8.409e+00,7.911e+00,9.887e+00,6.938e+00,9.982e+00,8.997e+00,7.818e+00,9.610e+00,9.523e+00,8.807e+00,1.165e+01,1.026e+01,1.130e+01,1.104e+01,1.183e+01,9.498e+00,9.172e+00,1.201e+01,1.330e+01,1.549e+01,1.055e+01,1.340e+01,1.125e+01,1.452e+01,1.560e+01,1.537e+01,1.445e+01,1.328e+01,1.435e+01,1.611e+01,1.330e+01,1.458e+01,1.563e+01,1.386e+01,1.511e+01,1.630e+01,1.501e+01,1.611e+01,1.603e+01,1.543e+01,1.530e+01,1.720e+01,1.625e+01,1.726e+01,2.015e+01,1.910e+01,1.846e+01,1.826e+01,1.787e+01,2.000e+01,1.767e+01
2.577e-02,1.725e-01,4.426e-01,3.622e-01,6.221e-01,1.730e+00,9.659e-01,2.457e+00,2.420e+00,1.558e+00,2.423e+00,3.639e+00,3.098e+00,3.418e+00,4.062e+00,5.055e+00,4.954e+00,5.494e+00,4.580e+00,5.474e+00,5.268e+00,5.449e+00,6.878e+00,7.052e+00,6.782e+00,7.895e+00,6.790e+00,7.197e+00,6.789e+00,8.014e+00,9.688e+00,7.082e+00,8.638e+00,8.535e+00,6.915e+00,8.081e+00,8.054e+00,8.233e+00,1.160e+01,9.912e+00,1.027e+01,1.298e+01,1.077e+01,9.547e+00,8.833e+00,1.199e+01,1.277e+01,1.578e+01,1.185e+01,1.246e+01,1.133e+01,1.297e+01,1.465e+01,1.453e+01,1.289e+01,1.355e+01,1.579e+01,1.585e+01,1.421e+01,1.518e+01,1.563e+01,1.627e+01,1.518e+01,1.666e+01,1.815e+01,1.916e+01,1.661e+01,1.591e+01,1.754e+01,1.707e+01,1.780e+01,1.841e+01,2.144e+01,1.916e+01,2.056e+01,1.922e+01,2.024e+01,2.054e+01,2.150e+01
5.890e-01,2.580e-01,1.765e+00,7.627e-01,9.160e-01,1.961e+00,1.066e+00,2.356e+00,2.839e+00,1.859e+00,2.983e+00,3.402e+00,1.909e+00,2.801e+00,4.035e+00,4.068e+00,4.874e+00,4.802e+00,4.836e+00,5.428e+00,5.780e+00,5.491e+00,5.436e+00,5.791e+00,5.653e+00,7.424e+00,6.186e+00,6.338e+00,7.147e+00,7.040e+00,8.536e+00,6.560e+00,8.292e+00,7.362e+00,6.887e+00,7.615e+00,9.333e+00,7.711e+00,1.091e+01,9.553e+00,1.116e+01,1.106e+01,1.070e+01,9.614e+00,8.923e+00,1.224e+01,1.257e+01,1.513e+01,1.102e+01,1.306e+01,1.080e+01,1.436e+01,1.607e+01,1.605e+01,1.544e+01,1.398e+01,1.564e+01,1.778e+01,1.415e+01,1.603e+01,1.627e+01,1.657e+01,1.687e+01,1.826e+01,1.753e+01,1.825e+01,1.788e+01,1.761e+01,1.782e+01,1.780e+01,1.782e+01,1.842e+01,2.066e+01,2.075e+01,2.064e+01,2.009e+01,2.059e+01,2.074e+01,2.193e+01
3.402e-01,7.426e-02,9.405e-01,4.710e-01,7.499e-01,1.515e+00,1.053e+00,2.221e+00,2.297e+00,1.672e+00,2.792e+00,3.152e+00,2.582e+00,2.934e+00,3.644e+00,4.343e+00,4.260e+00,4.582e+00,4.060e+00,5.653e+00,4.674e+00,5.029e+00,5.359e+00,6.653e+00,6.317e+00,7.324e+00,6.645e+00,6.718e+00,6.583e+00,7.354e+00,8.813e+00,7.307e+00,8.328e+00,9.222e+00,8.338e+00,7.880e+00,8.761e+00,7.941e+00,1.110e+01,9.103e+00,1.042e+01,1.047e+01,9.751e+00,8.633e+00,7.403e+00,1.141e+01,1.234e+01,1.451e+01,1.025e+01,1.146e+01,1.026e+01,1.138e+01,1.350e+01,1.400e+01,1.228e+01,1.148e+01,1.342e+01,1.525e+01,1.305e+01,1.364e+01,1.510e+01,1.534e+01,1.485e+01,1.454e+01,1.698e+01,1.568e+01,1.603e+01,1.613e+01,1.654e+01,1.603e+01,1.616e+01,1.610e+01,1.966e+01,1.882e+01,1.908e+01,1.791e+01,1.781e+01,1.738e+01,1.993e+01
