7.741e-01,2.556e-01,1.005e-02,7.412e-01,4.090e-01,1.689e-01,3.562e-01,9.999e-01,7.417e-01,4.850e-01,2.781e-02,4.666e-01,6.598e-01,8.503e-01,4.050e-01,4.740e-01,9.677e-01,1.165e-01,4.759e-01,8.571e-02,7.250e-01,5.893e-01,7.651e-01,8.081e-01,6.854e-01,3.247e-01,6.324e-01,2.608e-01,4.539e-01,9.073e-01,8.079e-01,8.316e-01,6.056e-01,2.674e-01,6.567e-01,5.904e-01,9.847e-02,3.832e-01,5.481e-01,6.154e-02,3.773e-01,8.568e-03,5.883e-01,7.630e-01,5.597e-01,7.049e-01,1.638e-01,5.278e-01,4.743e-02,1.503e-01,6.979e-02,1.460e-01,6.633e-01,5.428e-01,9.396e-01,1.502e-01
7.264e-01,3.082e-01,1.769e-01,9.450e-01,8.025e-01,1.994e-01,1.077e+00,1.243e+00,1.647e+00,8.638e-01,3.051e-01,4.436e-01,7.266e-01,1.665e+00,9.906e-01,5.173e-01,1.857e+00,2.678e-01,5.083e-01,4.622e-01,1.254e+00,1.453e+00,1.137e+00,1.675e+00,9.458e-01,1.288e+00,7.823e-01,8.026e-01,9.591e-01,1.334e+00,1.728e+00,1.319e+00,1.486e+00,4.461e-01,1.511e+00,1.016e+00,2.710e-01,1.090e+00,1.225e+00,1.003e+00,1.069e+00,3.043e-01,9.688e-01,8.553e-01,1.244e+00,1.364e+00,6.885e-01,1.389e+00,8.793e-01,3.467e-01,3.491e-01,1.966e-01,1.600e+00,6.887e-01,1.501e+00,7.784e-01
5.478e-01,2.170e-01,9.807e-01,7.970e-01,1.449e+00,6.834e-01,1.235e+00,1.211e+00,1.563e+00,5.711e-01,7.528e-01,6.080e-01,1.242e+00,1.947e+00,1.312e+00,1.233e+00,1.720e+00,8.063e-01,1.220e+00,6.899e-01,1.041e+00,1.498e+00,1.516e+00,1.836e+00,6.495e-01,1.720e+00,1.032e+00,8.749e-01,7.767e-01,1.871e+00,1.381e+00,1.019e+00,1.465e+00,5.067e-01,1.580e+00,1.488e+00,4.238e-01,1.518e+00,1.069e+00,1.505e+00,1.562e+00,9.640e-01,1.345e+00,1.194e+00,9.661e-01,1.728e+00,1.237e+00,1.730e+00,9.187e-01,2.280e-01,5.915e-01,2.403e-01,1.142e+00,5.379e-01,1.142e+00,7.950e-01
2.773e-02,6.238e-02,7.362e-01,1.047e+00,1.311e+00,1.097e+00,1.822e+00,6.645e-01,1.647e+00,1.171e+00,1.521e+00,1.141e+00,9.409e-01,2.027e+00,1.565e+00,1.401e+00,1.210e+00,9.093e-01,1.061e+00,9.999e-01,7.999e-01,1.820e+00,1.318e+00,1.439e+00,9.224e-01,1.981e+00,8.470e-01,8.908e-01,7.103e-01,1.591e+00,1.747e+00,1.494e+00,1.899e+00,6.205e-01,1.576e+00,1.483e+00,1.201e+00,1.680e+00,1.070e+00,2.273e+00,1.673e+00,1.243e+00,1.568e+00,8.606e-01,1.032e+00,1.900e+00,1.801e+00,2.019e+00,1.001e+00,4.156e-01,8.928e-01,2.502e-01,1.218e+00,7.338e-01,1.426e+00,8.809e-01
2.515e-01,1.095e-01,7.565e-01,1.144e+00,1.632e+00,1.212e+00,1.972e+00,1.205e+00,1.608e+00,1.587e+00,2.373e+00,1.753e+00,2.008e+00,2.745e+00,1.917e+00,1.666e+00,1.170e+00,1.595e+00,1.609e+00,1.767e+00,1.389e+00,2.526e+00,1.754e+00,1.806e+00,1.571e+00,2.370e+00,1.094e+00,8.656e-01,9.945e-01,2.714e+00,1.870e+00,2.066e+00,2.413e+00,7.242e-01,2.323e+00,2.386e+00,1.369e+00,2.438e+00,1.086e+00,2.726e+00,1.622e+00,1.762e+00,1.834e+00,1.910e+00,1.209e+00,2.056e+00,2.545e+00,2.014e+00,1.055e+00,1.267e+00,1.374e+00,3.577e-01,1.911e+00,1.102e+00,1.565e+00,1.539e+00
5.296e-01,1.912e-01,7.216e-01,1.341e+00,1.571e+00,2.180e+00,2.028e+00,1.941e+00,2.467e+00,1.574e+00,2.026e+00,1.919e+00,2.422e+00,2.942e+00,1.828e+00,2.722e+00,1.617e+00,1.353e+00,1.690e+00,2.117e+00,2.179e+00,2.898e+00,2.778e+00,2.727e+00,1.798e+00,2.555e+00,1.610e+00,1.191e+00,1.108e+00,3.447e+00,2.043e+00,2.604e+00,2.675e+00,1.438e+00,2.832e+00,3.022e+00,1.979e+00,2.204e+00,1.355e+00,2.418e+00,1.672e+00,2.418e+00,2.036e+00,2.423e+00,2.076e+00,2.428e+00,2.688e+00,2.326e+00,1.478e+00,1.811e+00,2.058e+00,6.447e-01,2.160e+00,1.161e+00,2.468e+00,1.887e+00
6.036e-01,2.567e-01,5.995e-01,9.028e-01,1.387e+00,9.668e-01,2.445e+00,2.656e+00,2.768e+00,1.777e+00,1.763e+00,2.025e+00,2.119e+00,2.852e+00,1.728e+00,1.788e+00,2.244e+00,1.403e+00,1.508e+00,2.558e+00,2.248e+00,3.242e+00,2.201e+00,3.363e+00,1.646e+00,2.739e+00,2.064e+00,1.629e+00,1.312e+00,3.746e+00,2.532e+00,2.002e+00,2.523e+00,9.901e-01,2.675e+00,3.271e+00,1.390e+00,2.312e+00,1.713e+00,2.739e+00,2.273e+00,1.744e+00,1.873e+00,1.957e+00,1.798e+00,2.076e+00,2.511e+00,2.712e+00,2.040e+00,1.936e+00,1.807e+00,4.416e-01,2.598e+00,1.143e+00,1.988e+00,1.826e+00
2.032e-02,1.476e-02,4.032e-01,3.307e-01,6.110e-01,7.142e-01,1.424e+00,1.789e+00,1.405e+00,1.577e+00,1.563e+00,1.929e+00,1.094e+00,1.747e+00,1.312e+00,1.407e+00,8.962e-01,1.679e+00,1.687e+00,2.366e+00,1.148e+00,2.210e+00,1.586e+00,1.992e+00,1.320e+00,1.479e+00,2.129e+00,9.577e-01,5.775e-01,2.806e+00,1.125e+00,1.483e+00,1.480e+00,5.338e-01,1.078e+00,2.037e+00,1.388e+00,1.062e+00,1.047e+00,2.518e+00,1.376e+00,1.396e+00,1.677e+00,1.005e+00,1.149e+00,1.894e+00,1.774e+00,1.767e+00,1.079e+00,1.367e+00,2.019e+00,1.167e+00,1.663e+00,1.187e+00,9.813e-01,6.674e-01
3.878e-01,1.344e-01,2.506e-01,5.017e-01,7.769e-01,1.305e+00,1.763e+00,2.451e+00,2.337e+00,2.377e+00,2.638e+00,2.165e+00,2.282e+00,3.023e+00,1.249e+00,2.691e+00,2.275e+00,2.048e+00,2.158e+00,3.403e+00,2.958e+00,3.786e+00,2.390e+00,3.353e+00,2.589e+00,2.530e+00,2.112e+00,1.539e+00,1.786e+00,4.456e+00,1.924e+00,2.216e+00,2.911e+00,2.057e+00,2.721e+00,3.141e+00,2.541e+00,1.792e+00,1.440e+00,3.103e+00,2.021e+00,2.057e+00,2.298e+00,2.949e+00,2.161e+00,2.103e+00,2.643e+00,2.119e+00,2.035e+00,3.297e+00,2.375e+00,7.977e-01,2.367e+00,1.915e+00,1.814e+00,2.106e+00
7.838e-02,9.413e-02,4.498e-01,6.776e-01,1.011e+00,8.801e-01,1.948e+00,1.699e+00,2.265e+00,2.431e+00,3.273e+00,2.084e+00,1.527e+00,3.129e+00,2.470e+00,2.293e+00,3.043e+00,2.743e+00,2.639e+00,3.171e+00,2.991e+00,4.103e+00,2.446e+00,3.141e+00,2.872e+00,3.423e+00,2.628e+00,1.745e+00,2.661e+00,3.825e+00,2.962e+00,3.126e+00,3.330e+00,2.466e+00,2.808e+00,2.488e+00,3.081e+00,1.932e+00,1.741e+00,3.739e+00,2.701e+00,2.353e+00,2.673e+00,2.555e+00,2.667e+00,2.653e+00,3.388e+00,2.767e+00,2.239e+00,2.672e+00,3.030e+00,1.367e+00,2.989e+00,2.493e+00,2.009e+00,2.311e+00
1.584e-01,5.829e-02,2.099e-01,4.329e-01,6.418e-01,8.889e-01,1.676e+00,1.850e+00,1.635e+00,1.651e+00,3.033e+00,2.470e+00,2.096e+00,2.792e+00,2.249e+00,2.112e+00,2.324e+00,2.178e+00,2.471e+00,2.834e+00,2.987e+00,3.669e+00,2.545e+00,2.894e+00,2.329e+00,3.290e+00,2.933e+00,1.884e+00,1.533e+00,3.572e+00,2.297e+00,2.428e+00,2.315e+00,1.981e+00,2.798e+00,2.911e+00,2.942e+00,2.251e+00,1.628e+00,2.975e+00,2.245e+00,2.524e+00,2.276e+00,2.774e+00,1.859e+00,2.303e+00,2.937e+00,2.786e+00,2.521e+00,3.255e+00,3.086e+00,1.682e+00,2.036e+00,1.802e+00,1.625e+00,1.882e+00
1.448e-01,1.131e-01,8.384e-01,8.325e-01,1.369e+00,1.728e+00,2.173e+00,2.247e+00,2.834e+00,1.966e+00,2.446e+00,3.021e+00,1.948e+00,3.346e+00,3.041e+00,3.564e+00,3.270e+00,2.330e+00,3.268e+00,3.346e+00,3.146e+00,4.243e+00,3.698e+00,4.200e+00,3.033e+00,4.153e+00,3.673e+00,2.667e+00,1.888e+00,4.160e+00,2.549e+00,3.973e+00,3.684e+00,2.251e+00,3.147e+00,3.090e+00,3.238e+00,2.758e+00,2.791e+00,4.513e+00,2.798e+00,2.905e+00,3.282e+00,2.993e+00,3.390e+00,3.650e+00,3.994e+00,3.460e+00,3.227e+00,2.482e+00,3.312e+00,2.491e+00,3.451e+00,2.459e+00,3.152e+00,2.822e+00
6.321e-01,2.121e-01,4.967e-01,1.316e+00,1.327e+00,1.079e+00,1.811e+00,2.142e+00,1.830e+00,2.606e+00,3.317e+00,3.626e+00,2.581e+00,3.540e+00,4.032e+00,3.964e+00,3.145e+00,3.725e+00,4.096e+00,3.304e+00,3.114e+00,4.376e+00,3.476e+00,4.085e+00,3.977e+00,4.077e+00,3.959e+00,2.516e+00,2.429e+00,4.602e+00,2.936e+00,4.660e+00,4.292e+00,2.554e+00,3.298e+00,3.502e+00,4.241e+00,3.512e+00,2.459e+00,4.481e+00,2.864e+00,2.264e+00,4.433e+00,4.461e+00,3.188e+00,3.819e+00,4.571e+00,2.951e+00,2.204e+00,3.275e+00,3.535e+00,3.073e+00,3.842e+00,3.447e+00,3.415e+00,3.218e+00
7.578e-01,3.139e-01,4.931e-01,1.715e+00,1.602e+00,1.445e+00,2.893e+00,2.898e+00,3.258e+00,3.147e+00,2.993e+00,3.084e+00,2.606e+00,4.886e+00,3.850e+00,3.691e+00,3.353e+00,3.449e+00,3.237e+00,3.387e+00,3.356e+00,4.803e+00,3.755e+00,4.870e+00,3.738e+00,4.102e+00,4.105e+00,2.770e+00,2.951e+00,5.466e+00,4.387e+00,4.201e+00,5.296e+00,2.755e+00,4.665e+00,4.875e+00,3.715e+00,4.380e+00,2.694e+00,5.381e+00,3.630e+00,2.285e+00,4.627e+00,3.790e+00,3.984e+00,4.727e+00,4.486e+00,4.535e+00,3.195e+00,3.579e+00,3.833e+00,2.161e+00,4.377e+00,2.938e+00,3.807e+00,3.418e+00
5.495e-01,2.264e-01,9.982e-01,1.380e+00,1.924e+00,1.603e+00,2.480e+00,2.255e+00,2.759e+00,2.497e+00,3.663e+00,3.406e+00,2.978e+00,4.258e+00,5.359e+00,4.725e+00,4.972e+00,3.934e+00,5.000e+00,4.075e+00,4.426e+00,5.866e+00,4.893e+00,4.985e+00,4.679e+00,5.870e+00,4.715e+00,3.444e+00,2.945e+00,5.891e+00,4.055e+00,4.981e+00,5.742e+00,3.354e+00,4.763e+00,4.211e+00,4.710e+00,4.737e+00,3.429e+00,5.635e+00,4.380e+00,3.410e+00,5.576e+00,5.566e+00,4.647e+00,4.233e+00,5.431e+00,4.031e+00,3.799e+00,4.210e+00,4.634e+00,3.022e+00,4.949e+00,3.962e+00,4.445e+00,4.703e+00
2.947e-01,1.202e-01,8.934e-01,1.205e+00,1.629e+00,2.001e+00,2.776e+00,2.473e+00,2.843e+00,2.238e+00,3.695e+00,4.032e+00,3.026e+00,4.668e+00,5.372e+00,5.133e+00,5.565e+00,4.109e+00,5.281e+00,4.917e+00,4.811e+00,5.999e+00,5.859e+00,5.398e+00,5.484e+00,6.642e+00,6.920e+00,4.743e+00,3.310e+00,7.009e+00,5.141e+00,4.915e+00,6.168e+00,4.249e+00,6.153e+00,5.872e+00,5.188e+00,6.292e+00,3.823e+00,6.434e+00,4.752e+00,4.544e+00,6.250e+00,6.061e+00,5.474e+00,5.573e+00,6.567e+00,5.634e+00,5.515e+00,5.045e+00,6.217e+00,4.210e+00,5.144e+00,4.516e+00,5.351e+00,5.275e+00
6.485e-01,2.263e-01,7.134e-01,1.003e+00,1.281e+00,1.175e+00,1.856e+00,2.430e+00,2.379e+00,2.502e+00,3.302e+00,2.685e+00,2.218e+00,4.055e+00,4.164e+00,3.937e+00,5.336e+00,4.884e+00,5.099e+00,4.627e+00,4.523e+00,5.635e+00,4.719e+00,4.295e+00,5.961e+00,4.875e+00,6.339e+00,3.489e+00,4.608e+00,7.274e+00,5.101e+00,4.836e+00,5.629e+00,4.175e+00,5.494e+00,4.831e+00,4.510e+00,4.090e+00,2.805e+00,5.270e+00,4.947e+00,4.125e+00,5.931e+00,5.520e+00,4.851e+00,5.266e+00,5.536e+00,5.139e+00,3.912e+00,4.729e+00,5.944e+00,3.057e+00,5.412e+00,4.669e+00,4.405e+00,4.695e+00
1.351e-01,1.029e-01,3.965e-01,6.323e-01,8.332e-01,1.084e+00,1.888e+00,2.040e+00,2.405e+00,2.141e+00,2.836e+00,2.707e+00,1.957e+00,4.146e+00,4.489e+00,3.786e+00,4.950e+00,4.519e+00,4.920e+00,4.292e+00,4.983e+00,6.337e+00,5.279e+00,4.890e+00,5.279e+00,5.887e+00,6.333e+00,4.938e+00,4.249e+00,6.589e+00,5.023e+00,4.347e+00,5.594e+00,4.439e+00,5.815e+00,5.148e+00,4.925e+00,5.655e+00,3.841e+00,6.537e+00,4.922e+00,3.756e+00,6.173e+00,5.902e+00,5.101e+00,5.464e+00,5.095e+00,5.669e+00,5.858e+00,5.805e+00,5.840e+00,4.037e+00,5.913e+00,4.076e+00,4.503e+00,5.460e+00
4.023e-01,1.373e-01,3.057e-01,8.672e-01,8.696e-01,1.388e+00,1.682e+00,2.067e+00,2.067e+00,2.173e+00,2.904e+00,3.141e+00,2.356e+00,3.577e+00,3.638e+00,3.961e+00,5.057e+00,3.557e+00,5.201e+00,4.911e+00,5.143e+00,5.862e+00,5.580e+00,4.156e+00,5.969e+00,5.593e+00,5.701e+00,4.931e+00,3.315e+00,7.289e+00,4.770e+00,4.735e+00,5.805e+00,3.708e+00,5.690e+00,4.820e+00,5.252e+00,4.659e+00,3.776e+00,5.458e+00,4.496e+00,4.164e+00,6.276e+00,6.701e+00,4.891e+00,5.192e+00,5.539e+00,4.443e+00,4.896e+00,5.491e+00,5.490e+00,4.636e+00,5.000e+00,4.614e+00,5.197e+00,5.353e+00
5.130e-01,1.855e-01,6.414e-01,1.318e+00,1.465e+00,1.951e+00,1.942e+00,2.327e+00,2.465e+00,2.602e+00,3.661e+00,3.147e+00,2.930e+00,4.708e+00,4.819e+00,4.467e+00,4.549e+00,4.466e+00,5.117e+00,4.984e+00,5.469e+00,6.629e+00,6.035e+00,5.095e+00,6.201e+00,5.850e+00,6.195e+00,4.091e+00,4.472e+00,6.767e+00,5.268e+00,5.590e+00,5.805e+00,4.262e+00,5.996e+00,5.635e+00,5.519e+00,5.388e+00,3.668e+00,6.377e+00,4.959e+00,4.636e+00,6.638e+00,6.855e+00,5.934e+00,6.044e+00,5.823e+00,5.055e+00,4.545e+00,5.316e+00,6.735e+00,4.623e+00,5.586e+00,4.555e+00,4.721e+00,5.777e+00
1.198e-01,5.272e-02,4.652e-01,3.295e-01,9.164e-01,8.406e-01,1.350e+00,1.903e+00,1.508e+00,2.007e+00,2.652e+00,2.590e+00,2.039e+00,3.185e+00,2.827e+00,2.822e+00,2.317e+00,3.670e+00,3.538e+00,4.144e+00,4.321e+00,5.219e+00,3.759e+00,4.122e+00,5.024e+00,4.070e+00,5.028e+00,3.959e+00,3.745e+00,6.089e+00,3.877e+00,4.966e+00,5.053e+00,3.050e+00,4.511e+00,5.378e+00,4.334e+00,4.285e+00,2.793e+00,5.796e+00,4.357e+00,3.565e+00,4.989e+00,5.363e+00,4.083e+00,4.975e+00,5.377e+00,4.138e+00,4.195e+00,4.372e+00,5.476e+00,4.373e+00,4.559e+00,3.851e+00,3.251e+00,5.437e+00
6.865e-01,2.633e-01,6.470e-01,1.210e+00,1.429e+00,8.565e-01,2.117e+00,2.093e+00,2.209e+00,1.729e+00,2.432e+00,2.754e+00,2.405e+00,3.818e+00,4.193e+00,3.384e+00,3.841e+00,3.772e+00,4.362e+00,3.749e+00,4.833e+00,6.278e+00,6.036e+00,5.281e+00,5.449e+00,5.732e+00,5.655e+00,5.564e+00,4.767e+00,6.301e+00,6.609e+00,5.750e+00,6.064e+00,3.742e+00,6.132e+00,6.161e+00,6.250e+00,6.197e+00,3.722e+00,5.892e+00,6.766e+00,4.412e+00,6.857e+00,6.710e+00,4.940e+00,6.025e+00,5.954e+00,6.306e+00,4.812e+00,5.445e+00,6.506e+00,5.219e+00,5.091e+00,4.405e+00,5.349e+00,6.242e+00
4.426e-01,1.494e-01,5.698e-01,1.081e+00,1.349e+00,1.571e+00,2.286e+00,2.388e+00,2.437e+00,2.873e+00,3.937e+00,3.159e+00,2.663e+00,3.827e+00,3.454e+00,3.699e+00,3.873e+00,3.879e+00,4.695e+00,4.440e+00,4.979e+00,6.533e+00,5.054e+00,4.802e+00,5.989e+00,5.225e+00,5.439e+00,4.376e+00,4.225e+00,7.268e+00,5.367e+00,4.849e+00,5.854e+00,4.165e+00,5.079e+00,4.832e+00,5.491e+00,4.647e+00,3.740e+00,6.431e+00,5.872e+00,4.091e+00,5.883e+00,6.029e+00,4.872e+00,4.820e+00,5.626e+00,4.897e+00,4.581e+00,5.623e+00,5.596e+00,3.351e+00,5.390e+00,4.461e+00,4.365e+00,4.904e+00
5.930e-01,2.020e-01,5.518e-01,1.015e+00,1.183e+00,1.190e+00,1.980e+00,2.710e+00,2.392e+00,2.993e+00,3.663e+00,3.039e+00,2.513e+00,4.495e+00,3.984e+00,3.813e+00,4.431e+00,4.796e+00,5.329e+00,4.724e+00,5.209e+00,6.710e+00,5.495e+00,5.830e+00,6.230e+00,6.008e+00,6.250e+00,4.591e+00,5.046e+00,8.220e+00,6.304e+00,5.712e+00,6.775e+00,4.523e+00,5.496e+00,5.916e+00,6.051e+00,5.254e+00,3.583e+00,7.341e+00,5.613e+00,4.916e+00,7.289e+00,6.610e+00,5.045e+00,5.683e+00,5.803e+00,6.348e+00,5.326e+00,6.509e+00,6.928e+00,4.899e+00,5.467e+00,5.180e+00,4.868e+00,5.847e+00
6.229e-01,2.350e-01,5.561e-01,1.211e+00,1.412e+00,1.683e+00,2.259e+00,2.472e+00,2.836e+00,2.588e+00,3.050e+00,2.658e+00,2.686e+00,3.988e+00,3.255e+00,3.750e+00,4.377e+00,3.247e+00,4.309e+00,4.418e+00,5.481e+00,6.845e+00,5.825e+00,5.635e+00,7.325e+00,6.354e+00,5.554e+00,6.339e+00,4.770e+00,8.358e+00,6.695e+00,6.035e+00,7.979e+00,4.745e+00,6.375e+00,6.409e+00,6.356e+00,6.645e+00,4.553e+00,6.878e+00,6.934e+00,5.490e+00,7.162e+00,7.449e+00,5.923e+00,6.680e+00,6.292e+00,6.182e+00,6.193e+00,6.872e+00,6.476e+00,5.487e+00,6.295e+00,6.077e+00,6.456e+00,6.351e+00
5.656e-02,2.257e-02,8.497e-01,7.263e-01,1.454e+00,1.172e+00,2.371e+00,1.978e+00,1.943e+00,2.454e+00,3.803e+00,3.621e+00,2.655e+00,4.299e+00,4.430e+00,4.042e+00,4.076e+00,4.538e+00,5.802e+00,4.993e+00,5.386e+00,7.371e+00,6.342e+00,5.728e+00,7.309e+00,6.973e+00,7.557e+00,7.370e+00,5.846e+00,8.415e+00,7.064e+00,6.357e+00,7.688e+00,4.593e+00,7.461e+00,6.527e+00,7.508e+00,7.492e+00,5.832e+00,9.000e+00,8.832e+00,5.791e+00,8.642e+00,8.059e+00,6.057e+00,7.029e+00,8.154e+00,7.386e+00,7.107e+00,7.379e+00,7.310e+00,6.177e+00,6.550e+00,6.131e+00,5.753e+00,7.050e+00
1.173e-01,1.055e-01,3.621e-01,6.230e-01,1.042e+00,7.162e-01,1.855e+00,1.791e+00,1.980e+00,2.001e+00,2.364e+00,1.908e+00,1.792e+00,3.298e+00,3.629e+00,2.185e+00,3.318e+00,4.010e+00,3.594e+00,4.081e+00,4.369e+00,6.169e+00,4.976e+00,5.109e+00,6.343e+00,5.859e+00,6.856e+00,6.275e+00,6.597e+00,8.330e+00,7.751e+00,6.223e+00,8.198e+00,4.656e+00,7.112e+00,7.054e+00,5.688e+00,7.901e+00,4.644e+00,8.086e+00,7.009e+00,6.008e+00,7.097e+00,7.147e+00,6.318e+00,6.283e+00,7.561e+00,7.401e+00,6.497e+00,7.134e+00,8.051e+00,5.629e+00,7.466e+00,6.425e+00,6.127e+00,7.005e+00
3.194e-01,1.427e-01,9.529e-01,8.040e-01,1.488e+00,1.522e+00,2.288e+00,2.421e+00,2.730e+00,2.091e+00,3.590e+00,3.043e+00,2.848e+00,4.636e+00,4.630e+00,4.537e+00,5.419e+00,4.615e+00,5.003e+00,4.702e+00,5.215e+00,6.577e+00,6.225e+00,7.191e+00,6.563e+00,7.406e+00,7.775e+00,7.290e+00,6.303e+00,8.683e+00,7.814e+00,6.381e+00,7.911e+00,5.954e+00,7.873e+00,7.148e+00,7.256e+00,8.122e+00,5.001e+00,8.275e+00,7.055e+00,6.284e+00,7.843e+00,7.592e+00,6.790e+00,7.426e+00,7.761e+00,8.134e+00,7.467e+00,7.785e+00,8.548e+00,7.168e+00,6.340e+00,6.236e+00,7.132e+00,7.128e+00
5.182e-01,1.743e-01,4.603e-01,1.170e+00,1.289e+00,1.040e+00,1.858e+00,1.740e+00,1.610e+00,1.805e+00,2.583e+00,2.350e+00,2.495e+00,3.216e+00,3.874e+00,2.973e+00,3.029e+00,4.252e+00,3.976e+00,3.744e+00,4.574e+00,5.813e+00,5.018e+00,5.487e+00,6.340e+00,6.068e+00,6.758e+00,6.600e+00,6.448e+00,9.578e+00,8.175e+00,7.653e+00,8.172e+00,4.531e+00,7.709e+00,7.890e+00,7.369e+00,7.881e+00,5.086e+00,8.175e+00,7.361e+00,6.172e+00,8.878e+00,8.784e+00,6.388e+00,7.289e+00,8.687e+00,7.260e+00,6.834e+00,7.149e+00,8.295e+00,6.927e+00,7.456e+00,5.885e+00,6.718e+00,8.130e+00
6.848e-01,2.456e-01,2.886e-01,1.388e+00,1.224e+00,1.543e+00,1.999e+00,2.382e+00,2.487e+00,2.910e+00,3.301e+00,2.621e+00,2.709e+00,4.716e+00,3.436e+00,3.711e+00,4.101e+00,3.865e+00,4.284e+00,4.630e+00,5.112e+00,6.256e+00,6.154e+00,5.721e+00,6.922e+00,5.609e+00,6.436e+00,6.363e+00,6.261e+00,8.496e+00,8.290e+00,6.507e+00,8.294e+00,5.192e+00,8.665e+00,7.045e+00,7.100e+00,7.051e+00,4.896e+00,7.324e+00,7.241e+00,6.387e+00,7.801e+00,7.799e+00,7.628e+00,7.741e+00,8.232e+00,7.397e+00,6.373e+00,7.559e+00,7.795e+00,7.234e+00,7.052e+00,6.842e+00,6.812e+00,7.091e+00
4.556e-01,1.910e-01,1.467e-01,1.319e+00,9.287e-01,1.658e+00,2.258e+00,2.484e+00,2.840e+00,3.024e+00,2.979e+00,2.855e+00,2.330e+00,4.398e+00,4.572e+00,4.209e+00,3.950e+00,4.938e+00,4.888e+00,4.536e+00,5.571e+00,7.536e+00,6.417e+00,5.669e+00,7.443e+00,6.332e+00,7.496e+00,8.000e+00,7.929e+00,1.051e+01,9.739e+00,8.990e+00,1.020e+01,7.726e+00,9.738e+00,9.454e+00,8.908e+00,9.398e+00,6.371e+00,1.052e+01,9.502e+00,7.136e+00,1.054e+01,1.010e+01,1.027e+01,1.035e+01,9.525e+00,9.615e+00,8.714e+00,1.063e+01,1.012e+01,8.105e+00,1.044e+01,8.466e+00,8.866e+00,9.050e+00
6.835e-01,2.557e-01,3.379e-01,1.348e+00,1.158e+00,1.793e+00,1.881e+00,2.081e+00,2.693e+00,2.406e+00,2.981e+00,3.019e+00,2.552e+00,4.113e+00,4.328e+00,4.964e+00,4.990e+00,4.412e+00,5.202e+00,4.475e+00,6.068e+00,7.203e+00,6.943e+00,6.510e+00,7.856e+00,7.406e+00,6.670e+00,7.916e+00,7.716e+00,9.644e+00,9.688e+00,9.371e+00,1.083e+01,8.105e+00,9.275e+00,9.501e+00,9.795e+00,8.929e+00,6.172e+00,8.947e+00,8.597e+00,7.830e+00,1.040e+01,1.050e+01,1.027e+01,9.691e+00,9.562e+00,8.734e+00,8.305e+00,9.792e+00,1.024e+01,9.044e+00,9.212e+00,8.171e+00,9.884e+00,1.062e+01
3.249e-01,1.453e-01,6.606e-01,7.113e-01,1.290e+00,7.956e-01,1.678e+00,1.759e+00,1.809e+00,1.716e+00,2.630e+00,2.520e+00,2.327e+00,3.661e+00,3.811e+00,3.030e+00,3.819e+00,3.905e+00,4.779e+00,3.793e+00,4.734e+00,6.142e+00,5.371e+00,5.151e+00,5.637e+00,6.177e+00,5.829e+00,6.079e+00,5.420e+00,8.484e+00,7.062e+00,6.667e+00,9.124e+00,5.782e+00,7.929e+00,7.856e+00,7.819e+00,7.704e+00,6.039e+00,8.856e+00,7.267e+00,6.056e+00,8.552e+00,8.669e+00,7.869e+00,8.502e+00,7.545e+00,7.014e+00,7.633e+00,7.865e+00,8.291e+00,7.362e+00,7.759e+00,5.643e+00,7.582e+00,8.328e+00
6.348e-01,2.439e-01,5.814e-01,1.089e+00,1.368e+00,1.467e+00,2.482e+00,3.052e+00,2.943e+00,2.362e+00,2.501e+00,3.044e+00,2.799e+00,4.109e+00,3.922e+00,3.800e+00,3.725e+00,3.897e+00,3.965e+00,4.963e+00,5.306e+00,6.371e+00,5.268e+00,6.755e+00,6.484e+00,6.089e+00,7.424e+00,6.081e+00,5.863e+00,9.765e+00,7.866e+00,7.819e+00,9.289e+00,5.386e+00,8.994e+00,1.033e+01,7.830e+00,7.682e+00,6.638e+00,9.266e+00,7.833e+00,7.699e+00,9.929e+00,8.625e+00,8.510e+00,8.865e+00,9.534e+00,8.201e+00,7.935e+00,7.234e+00,1.033e+01,7.469e+00,8.187e+00,6.539e+00,8.209e+00,9.596e+00
6.996e-02,6.330e-02,8.342e-01,5.098e-01,1.339e+00,1.170e+00,1.838e+00,1.913e+00,2.149e+00,2.280e+00,3.566e+00,2.902e+00,2.491e+00,4.487e+00,4.673e+00,4.296e+00,5.207e+00,5.543e+00,5.843e+00,5.268e+00,5.439e+00,7.313e+00,6.788e+00,6.661e+00,8.438e+00,7.780e+00,8.364e+00,7.645e+00,7.604e+00,1.057e+01,9.397e+00,8.046e+00,1.144e+01,8.122e+00,1.100e+01,1.064e+01,1.067e+01,1.029e+01,8.115e+00,1.166e+01,9.814e+00,9.755e+00,1.207e+01,1.091e+01,1.094e+01,1.162e+01,1.153e+01,9.577e+00,1.083e+01,9.947e+00,1.159e+01,9.578e+00,1.156e+01,9.065e+00,1.028e+01,1.059e+01
4.892e-01,1.652e-01,7.876e-02,5.345e-01,4.214e-01,5.295e-01,6.089e-01,1.103e+00,1.085e+00,1.108e+00,1.157e+00,1.349e+00,1.054e+00,1.871e+00,2.031e+00,2.185e+00,3.230e+00,2.675e+00,3.065e+00,2.559e+00,3.694e+00,4.038e+00,3.199e+00,3.192e+00,6.272e+00,3.960e+00,5.518e+00,5.154e+00,5.165e+00,6.989e+00,6.118e+00,5.688e+00,6.958e+00,5.491e+00,7.057e+00,6.518e+00,5.798e+00,6.707e+00,5.459e+00,7.288e+00,7.265e+00,6.250e+00,8.429e+00,7.844e+00,7.449e+00,7.724e+00,7.326e+00,6.360e+00,7.424e+00,6.982e+00,7.666e+00,6.230e+00,7.645e+00,7.213e+00,7.385e+00,7.913e+00
6.899e-01,2.407e-01,7.562e-01,1.330e+00,1.444e+00,1.083e+00,2.332e+00,2.689e+00,2.467e+00,2.759e+00,3.269e+00,3.196e+00,2.443e+00,4.660e+00,4.326e+00,3.956e+00,4.688e+00,5.141e+00,5.323e+00,5.078e+00,5.541e+00,7.196e+00,6.313e+00,7.202e+00,8.863e+00,7.157e+00,9.736e+00,8.406e+00,8.682e+00,1.109e+01,1.118e+01,9.230e+00,1.176e+01,8.400e+00,1.162e+01,1.231e+01,1.229e+01,1.187e+01,9.449e+00,1.417e+01,1.275e+01,1.107e+01,1.445e+01,1.194e+01,1.248e+01,1.394e+01,1.213e+01,1.229e+01,1.208e+01,1.193e+01,1.376e+01,1.213e+01,1.165e+01,1.151e+01,1.253e+01,1.217e+01
5.141e-01,2.135e-01,4.014e-01,9.250e-01,1.081e+00,1.430e+00,1.706e+00,2.316e+00,2.600e+00,2.578e+00,3.533e+00,2.945e+00,2.714e+00,4.272e+00,4.192e+00,4.568e+00,5.437e+00,4.444e+00,4.675e+00,5.244e+00,5.810e+00,6.814e+00,5.961e+00,7.186e+00,8.111e+00,7.219e+00,7.394e+00,7.123e+00,7.361e+00,9.296e+00,9.083e+00,8.571e+00,9.710e+00,7.994e+00,1.006e+01,9.686e+00,1.038e+01,1.033e+01,8.203e+00,1.164e+01,8.941e+00,9.690e+00,1.115e+01,1.129e+01,1.190e+01,1.120e+01,1.071e+01,9.797e+00,1.120e+01,1.133e+01,1.155e+01,1.151e+01,1.109e+01,1.048e+01,1.075e+01,1.177e+01
5.349e-01,1.920e-01,3.639e-01,1.173e+00,1.026e+00,1.324e+00,1.563e+00,2.000e+00,2.008e+00,2.353e+00,3.447e+00,3.313e+00,2.370e+00,4.458e+00,4.581e+00,4.304e+00,5.004e+00,5.030e+00,5.650e+00,4.812e+00,6.269e+00,7.005e+00,6.422e+00,6.058e+00,9.192e+00,7.124e+00,9.719e+00,8.555e+00,8.690e+00,1.048e+01,1.003e+01,9.893e+00,1.107e+01,8.505e+00,1.094e+01,1.045e+01,1.119e+01,1.053e+01,9.740e+00,1.237e+01,1.123e+01,9.359e+00,1.252e+01,1.273e+01,1.303e+01,1.369e+01,1.227e+01,1.102e+01,1.093e+01,1.097e+01,1.264e+01,1.158e+01,1.163e+01,1.109e+01,1.153e+01,1.177e+01
6.725e-01,2.666e-01,8.946e-01,9.813e-01,1.596e+00,8.737e-01,1.934e+00,2.587e+00,2.481e+00,2.517e+00,3.087e+00,2.721e+00,2.425e+00,4.548e+00,4.453e+00,3.784e+00,5.219e+00,4.788e+00,5.216e+00,4.913e+00,5.619e+00,6.796e+00,5.843e+00,7.052e+00,8.178e+00,7.083e+00,8.832e+00,7.168e+00,7.975e+00,1.081e+01,9.956e+00,8.528e+00,1.081e+01,7.553e+00,1.007e+01,1.001e+01,9.603e+00,1.089e+01,8.986e+00,1.364e+01,1.149e+01,9.820e+00,1.232e+01,1.256e+01,1.292e+01,1.289e+01,1.168e+01,1.197e+01,1.192e+01,1.095e+01,1.239e+01,1.128e+01,1.167e+01,1.138e+01,1.125e+01,1.277e+01
2.174e-01,7.399e-02,3.991e-01,2.811e-01,6.520e-01,8.648e-01,1.291e+00,1.699e+00,1.608e+00,1.459e+00,2.351e+00,2.162e+00,2.134e+00,3.161e+00,3.348e+00,3.347e+00,4.015e+00,3.009e+00,3.853e+00,3.886e+00,4.460e+00,5.562e+00,5.080e+00,5.829e+00,6.499e+00,6.408e+00,6.784e+00,6.728e+00,5.976e+00,7.977e+00,7.736e+00,6.529e+00,8.403e+00,6.094e+00,8.376e+00,8.337e+00,8.353e+00,9.319e+00,8.224e+00,1.055e+01,9.962e+00,9.455e+00,1.044e+01,1.148e+01,1.027e+01,1.013e+01,1.021e+01,1.084e+01,1.141e+01,1.141e+01,1.095e+01,9.882e+00,9.393e+00,1.067e+01,1.008e+01,1.162e+01
5.121e-01,2.021e-01,3.483e-01,1.147e+00,1.168e+00,1.571e+00,2.135e+00,2.382e+00,2.642e+00,2.599e+00,3.459e+00,2.703e+00,2.577e+00,4.369e+00,3.535e+00,3.520e+00,4.529e+00,4.615e+00,4.665e+00,5.004e+00,6.264e+00,7.829e+00,6.501e+00,6.346e+00,8.699e+00,7.062e+00,7.927e+00,7.652e+00,7.672e+00,9.953e+00,9.202e+00,8.279e+00,9.595e+00,6.958e+00,9.829e+00,9.840e+00,9.443e+00,9.325e+00,8.205e+00,1.065e+01,9.921e+00,9.951e+00,1.150e+01,1.127e+01,1.008e+01,1.058e+01,1.100e+01,1.080e+01,1.119e+01,1.078e+01,1.223e+01,9.422e+00,1.102e+01,1.064e+01,1.057e+01,1.178e+01
3.463e-01,1.592e-01,3.402e-01,9.052e-01,1.042e+00,1.004e+00,1.557e+00,1.438e+00,1.878e+00,1.861e+00,2.907e+00,2.397e+00,2.178e+00,3.614e+00,3.449e+00,3.296e+00,4.123e+00,4.338e+00,4.423e+00,3.958e+00,4.984e+00,6.043e+00,5.097e+00,4.566e+00,6.341e+00,6.156e+00,5.700e+00,6.698e+00,6.643e+00,7.681e+00,7.867e+00,6.396e+00,8.272e+00,6.853e+00,9.299e+00,7.845e+00,8.716e+00,8.369e+00,5.934e+00,8.690e+00,8.436e+00,7.655e+00,9.960e+00,1.042e+01,9.311e+00,9.513e+00,9.813e+00,8.960e+00,1.010e+01,1.020e+01,9.826e+00,9.583e+00,9.280e+00,8.370e+00,9.822e+00,1.141e+01
5.383e-01,2.007e-01,2.859e-01,1.094e+00,1.036e+00,1.620e+00,2.078e+00,2.733e+00,2.655e+00,2.689e+00,3.179e+00,3.386e+00,2.581e+00,3.780e+00,4.292e+00,4.141e+00,4.053e+00,4.365e+00,4.725e+00,4.764e+00,5.758e+00,7.468e+00,6.345e+00,6.829e+00,7.530e+00,6.729e+00,8.110e+00,7.097e+00,7.528e+00,9.803e+00,9.214e+00,9.286e+00,1.035e+01,8.051e+00,9.725e+00,1.047e+01,1.069e+01,1.064e+01,8.857e+00,1.300e+01,1.127e+01,1.085e+01,1.255e+01,1.290e+01,1.292e+01,1.205e+01,1.256e+01,1.185e+01,1.275e+01,1.331e+01,1.401e+01,1.151e+01,1.327e+01,1.246e+01,1.256e+01,1.437e+01
7.151e-01,2.990e-01,2.470e-01,1.560e+00,1.377e+00,9.972e-01,2.158e+00,2.147e+00,2.523e+00,3.125e+00,3.696e+00,3.211e+00,2.831e+00,5.204e+00,5.007e+00,4.091e+00,5.870e+00,4.578e+00,5.599e+00,5.330e+00,6.850e+00,8.270e+00,6.410e+00,6.682e+00,9.952e+00,8.125e+00,7.693e+00,7.885e+00,6.666e+00,9.871e+00,9.035e+00,8.871e+00,1.094e+01,6.763e+00,1.028e+01,9.386e+00,9.906e+00,1.088e+01,9.627e+00,1.267e+01,1.139e+01,9.695e+00,1.373e+01,1.409e+01,1.273e+01,1.405e+01,1.260e+01,1.222e+01,1.361e+01,1.338e+01,1.373e+01,1.180e+01,1.252e+01,1.386e+01,1.332e+01,1.498e+01
4.284e-01,1.796e-01,7.581e-01,9.356e-01,1.352e+00,1.644e+00,1.809e+00,2.260e+00,2.634e+00,2.388e+00,3.111e+00,2.763e+00,2.300e+00,4.264e+00,4.377e+00,4.426e+00,5.488e+00,4.768e+00,5.239e+00,5.180e+00,5.688e+00,7.129e+00,6.429e+00,6.429e+00,8.541e+00,6.802e+00,8.709e+00,7.438e+00,8.226e+00,1.069e+01,9.636e+00,9.529e+00,1.086e+01,7.969e+00,1.053e+01,9.781e+00,1.016e+01,1.063e+01,8.467e+00,1.281e+01,1.119e+01,1.110e+01,1.307e+01,1.251e+01,1.361e+01,1.387e+01,1.401e+01,1.284e+01,1.301e+01,1.262e+01,1.461e+01,1.213e+01,1.305e+01,1.354e+01,1.331e+01,1.425e+01
2.519e-01,1.300e-01,1.446e-01,1.128e+00,9.850e-01,1.640e+00,2.016e+00,2.056e+00,2.436e+00,2.630e+00,3.218e+00,2.764e+00,2.397e+00,4.123e+00,3.159e+00,3.143e+00,2.968e+00,2.930e+00,3.334e+00,3.926e+00,4.513e+00,5.656e+00,4.646e+00,5.263e+00,5.744e+00,5.526e+00,5.130e+00,5.208e+00,4.913e+00,7.374e+00,6.828e+00,7.862e+00,8.663e+00,5.635e+00,8.343e+00,8.301e+00,8.830e+00,8.119e+00,7.607e+00,1.055e+01,7.961e+00,9.113e+00,9.857e+00,9.861e+00,1.096e+01,1.214e+01,1.259e+01,1.152e+01,1.119e+01,1.201e+01,1.235e+01,1.122e+01,1.119e+01,1.243e+01,1.157e+01,1.217e+01
2.062e-01,9.111e-02,8.749e-01,1.047e+00,1.418e+00,1.742e+00,2.554e+00,2.466e+00,2.696e+00,2.470e+00,3.415e+00,3.905e+00,2.210e+00,3.697e+00,4.295e+00,4.351e+00,4.489e+00,3.892e+00,5.169e+00,4.757e+00,5.194e+00,6.628e+00,5.449e+00,5.592e+00,6.626e+00,6.545e+00,7.959e+00,6.711e+00,5.907e+00,8.449e+00,7.150e+00,6.956e+00,7.689e+00,5.896e+00,7.331e+00,7.267e+00,8.402e+00,8.546e+00,7.181e+00,1.125e+01,1.009e+01,8.379e+00,1.054e+01,1.032e+01,9.940e+00,1.052e+01,1.171e+01,1.135e+01,1.110e+01,1.001e+01,1.196e+01,9.577e+00,9.691e+00,1.129e+01,1.105e+01,1.193e+01
2.171e-01,1.174e-01,7.273e-01,7.137e-01,1.199e+00,1.605e+00,1.536e+00,1.609e+00,2.351e+00,1.813e+00,2.585e+00,1.784e+00,2.122e+00,3.413e+00,3.039e+00,3.703e+00,3.804e+00,3.444e+00,3.724e+00,3.820e+00,4.585e+00,5.682e+00,5.120e+00,5.957e+00,5.684e+00,6.076e+00,5.901e+00,5.965e+00,6.532e+00,7.390e+00,7.401e+00,6.227e+00,8.099e+00,7.182e+00,8.625e+00,8.417e+00,8.576e+00,8.150e+00,7.676e+00,1.001e+01,8.533e+00,8.072e+00,1.042e+01,1.050e+01,1.036e+01,1.035e+01,1.088e+01,1.022e+01,1.115e+01,1.110e+01,1.237e+01,8.993e+00,9.611e+00,1.053e+01,1.173e+01,1.302e+01
4.586e-01,1.576e-01,2.724e-01,6.186e-01,6.006e-01,4.608e-01,9.457e-01,1.634e+00,1.272e+00,1.666e+00,2.145e+00,2.239e+00,1.585e+00,2.874e+00,3.997e+00,3.188e+00,4.094e+00,4.007e+00,4.344e+00,3.766e+00,4.106e+00,5.019e+00,5.019e+00,5.717e+00,7.195e+00,5.904e+00,7.298e+00,6.376e+00,6.277e+00,7.494e+00,8.133e+00,6.892e+00,8.894e+00,6.643e+00,7.737e+00,7.827e+00,8.779e+00,8.959e+00,6.933e+00,9.948e+00,9.395e+00,8.362e+00,1.091e+01,1.029e+01,1.179e+01,1.144e+01,1.086e+01,1.139e+01,1.087e+01,1.172e+01,1.382e+01,1.198e+01,1.086e+01,1.264e+01,1.302e+01,1.283e+01
4.840e-01,1.939e-01,9.070e-01,1.133e+00,1.646e+00,1.864e+00,1.986e+00,2.241e+00,2.621e+00,2.057e+00,2.896e+00,2.431e+00,2.834e+00,4.187e+00,3.818e+00,4.067e+00,4.255e+00,3.967e+00,4.436e+00,4.681e+00,5.277e+00,6.412e+00,6.569e+00,6.954e+00,7.127e+00,7.196e+00,6.890e+00,7.412e+00,6.451e+00,8.991e+00,8.542e+00,7.549e+00,9.391e+00,5.770e+00,9.310e+00,9.205e+00,9.703e+00,9.621e+00,8.175e+00,1.016e+01,9.883e+00,1.029e+01,1.112e+01,1.112e+01,1.036e+01,1.139e+01,1.144e+01,1.098e+01,1.143e+01,1.134e+01,1.319e+01,1.228e+01,1.162e+01,1.225e+01,1.340e+01,1.412e+01
3.221e-01,1.544e-01,2.865e-01,1.029e+00,1.116e+00,1.130e+00,2.114e+00,2.071e+00,2.366e+00,2.866e+00,3.345e+00,2.538e+00,2.204e+00,4.213e+00,3.576e+00,3.121e+00,4.246e+00,4.467e+00,4.520e+00,5.251e+00,5.988e+00,7.676e+00,5.858e+00,6.007e+00,8.224e+00,6.555e+00,7.825e+00,7.112e+00,7.765e+00,9.925e+00,9.713e+00,8.398e+00,1.014e+01,6.897e+00,1.010e+01,9.760e+00,9.132e+00,9.958e+00,8.587e+00,1.222e+01,1.111e+01,1.017e+01,1.179e+01,1.231e+01,1.230e+01,1.198e+01,1.343e+01,1.309e+01,1.327e+01,1.375e+01,1.471e+01,1.236e+01,1.381e+01,1.422e+01,1.346e+01,1.610e+01
3.957e-01,1.521e-01,5.720e-01,9.370e-01,1.067e+00,1.126e+00,1.797e+00,1.770e+00,2.122e+00,2.141e+00,3.386e+00,2.364e+00,2.309e+00,4.138e+00,3.887e+00,3.872e+00,4.534e+00,3.933e+00,4.223e+00,3.863e+00,4.912e+00,6.154e+00,5.532e+00,6.130e+00,6.228e+00,6.451e+00,6.124e+00,5.916e+00,5.659e+00,7.638e+00,7.688e+00,6.144e+00,7.662e+00,6.126e+00,7.753e+00,7.520e+00,8.816e+00,9.166e+00,6.541e+00,9.872e+00,9.414e+00,8.647e+00,1.046e+01,1.092e+01,9.940e+00,1.122e+01,1.157e+01,1.182e+01,1.193e+01,1.187e+01,1.325e+01,1.223e+01,1.133e+01,1.331e+01,1.316e+01,1.452e+01
7.150e-01,2.639e-01,3.814e-01,1.366e+00,1.323e+00,1.823e+00,2.247e+00,2.857e+00,2.970e+00,3.115e+00,4.080e+00,3.540e+00,2.980e+00,4.691e+00,3.988e+00,4.317e+00,4.890e+00,4.428e+00,4.914e+00,5.213e+00,5.706e+00,7.152e+00,6.013e+00,5.639e+00,7.261e+00,6.171e+00,7.289e+00,5.951e+00,7.642e+00,8.915e+00,7.803e+00,8.133e+00,7.963e+00,6.491e+00,8.591e+00,7.643e+00,8.775e+00,8.247e+00,7.337e+00,9.937e+00,9.209e+00,8.618e+00,9.957e+00,1.116e+01,1.068e+01,1.120e+01,1.261e+01,1.088e+01,1.034e+01,1.120e+01,1.321e+01,9.891e+00,1.270e+01,1.341e+01,1.399e+01,1.347e+01
5.777e-01,2.406e-01,8.891e-01,1.539e+00,1.836e+00,1.948e+00,3.185e+00,3.310e+00,3.644e+00,3.478e+00,4.106e+00,4.195e+00,3.341e+00,5.727e+00,4.762e+00,5.235e+00,5.112e+00,4.832e+00,5.347e+00,5.453e+00,5.401e+00,7.844e+00,6.731e+00,8.555e+00,7.938e+00,7.887e+00,8.115e+00,7.639e+00,7.177e+00,9.708e+00,9.383e+00,9.033e+00,1.034e+01,7.365e+00,9.727e+00,1.008e+01,1.067e+01,1.091e+01,8.760e+00,1.357e+01,1.135e+01,1.002e+01,1.279e+01,1.225e+01,1.214e+01,1.431e+01,1.348e+01,1.439e+01,1.352e+01,1.463e+01,1.566e+01,1.327e+01,1.444e+01,1.488e+01,1.768e+01,1.656e+01
4.236e-01,1.432e-01,4.928e-01,6.427e-01,1.040e+00,1.371e+00,1.942e+00,2.640e+00,2.374e+00,2.368e+00,2.907e+00,3.070e+00,2.499e+00,3.782e+00,3.607e+00,3.903e+00,3.844e+00,4.480e+00,4.798e+00,4.976e+00,5.007e+00,6.309e+00,5.198e+00,5.164e+00,6.754e+00,5.629e+00,6.677e+00,5.441e+00,5.863e+00,8.393e+00,6.954e+00,6.355e+00,7.690e+00,6.097e+00,7.851e+00,8.638e+00,7.669e+00,7.747e+00,6.945e+00,9.899e+00,9.314e+00,8.218e+00,1.003e+01,1.056e+01,1.036e+01,1.080e+01,1.040e+01,1.064e+01,1.076e+01,1.169e+01,1.277e+01,8.843e+00,1.193e+01,1.164e+01,1.352e+01,1.418e+01
