1.909e-01,1.355e-01,9.419e-01,9.673e-01,5.344e-01,4.525e-01,2.223e-01,3.657e-01,1.782e-01,3.688e-01,9.356e-03,4.901e-01,8.068e-01,8.397e-01,9.690e-01,4.381e-01,1.255e-01,4.232e-01,2.937e-01,4.254e-01,5.655e-01,5.955e-01,5.351e-01,2.590e-01,7.299e-01,8.316e-01,1.514e-01,5.697e-02,6.917e-01,9.955e-01,4.897e-01,3.667e-01,4.555e-01,9.090e-01,5.746e-01,5.131e-01,6.381e-01,1.314e-01,1.822e-01,6.956e-01,3.558e-01,8.330e-01,6.578e-01,7.938e-01,8.139e-02,8.387e-01,8.107e-01,2.587e-01,1.537e-01,3.184e-01,6.851e-01,1.731e-01,8.381e-01,4.959e-01,4.736e-01,6.598e-01,6.629e-01,7.576e-01,1.280e-01,2.158e-01,7.345e-01,2.400e-01,9.341e-01,6.435e-01,3.913e-01,4.241e-01,4.678e-01,6.938e-02,8.602e-01,6.654e-01,8.672e-01,5.368e-01,8.671e-01,5.663e-01,9.658e-01,9.547e-01,4.754e-01,9.477e-01,2.045e-01,2.411e-01,1.810e-01,9.318e-01,2.787e-01,5.415e-01,1.903e-01,1.072e-01,5.397e-01,1.415e-01,1.990e-01,8.601e-02,4.736e-01,2.466e-01,6.361e-01,3.358e-02
2.267e-02,6.123e-01,3.755e-01,3.480e-01,3.259e-01,6.819e-01,6.620e-01,9.491e-01,3.967e-01,5.756e-01,5.623e-01,5.512e-01,1.073e+00,9.722e-01,9.835e-01,5.019e-01,7.646e-01,3.099e-01,4.639e-01,8.930e-01,1.606e-01,1.948e-01,6.301e-01,7.854e-01,9.800e-01,3.664e-01,1.258e-01,2.386e-01,3.481e-01,3.709e-01,8.812e-01,9.871e-01,1.028e+00,9.588e-01,3.836e-01,3.363e-01,2.673e-01,5.666e-01,8.396e-01,7.829e-01,7.798e-01,6.795e-01,2.517e-01,8.330e-01,8.838e-01,2.538e-01,9.830e-01,2.344e-01,3.893e-01,1.891e-01,4.397e-01,2.085e-01,2.530e-01,3.278e-01,1.028e+00,2.793e-01,1.998e-01,1.893e-01,1.509e-01,5.558e-02,1.906e-01,5.212e-01,9.250e-01,1.001e-01,8.128e-01,4.172e-01,5.925e-01,8.903e-01,9.081e-01,8.453e-01,6.679e-01,3.883e-01,2.881e-01,8.669e-01,8.640e-01,1.975e-01,2.772e-01,6.184e-01,9.250e-01,3.183e-01,7.698e-02,8.767e-01,9.837e-01,6.451e-01,1.010e+00,9.870e-01,5.600e-01,6.788e-01,7.689e-01,8.875e-01,5.348e-01,2.212e-01,1.386e-01,4.504e-01
3.937e-02,6.226e-01,1.409e+00,1.050e+00,1.283e+00,9.489e-01,8.416e-01,1.285e+00,1.272e+00,1.491e+00,1.352e+00,1.194e+00,1.826e+00,1.232e+00,1.798e+00,9.349e-01,1.199e+00,6.451e-01,1.435e+00,1.911e+00,4.613e-01,1.067e+00,1.129e+00,1.661e+00,2.004e+00,1.071e+00,8.119e-01,7.691e-01,7.588e-01,1.011e+00,1.262e+00,1.951e+00,1.541e+00,1.048e+00,9.021e-01,6.116e-01,4.545e-01,1.203e+00,8.761e-01,1.245e+00,1.577e+00,1.257e+00,9.532e-01,1.696e+00,1.259e+00,1.258e+00,1.105e+00,1.147e+00,6.268e-01,9.022e-01,1.096e+00,1.015e+00,3.804e-01,1.248e+00,1.551e+00,4.630e-01,8.088e-01,8.189e-01,5.871e-01,8.112e-01,5.991e-01,1.199e+00,1.473e+00,6.869e-01,1.066e+00,1.070e+00,1.134e+00,1.151e+00,1.871e+00,1.337e+00,9.919e-01,1.135e+00,7.815e-01,1.760e+00,1.506e+00,1.149e+00,1.257e+00,8.574e-01,1.356e+00,5.555e-01,9.434e-01,9.720e-01,1.744e+00,9.262e-01,1.498e+00,1.643e+00,9.574e-01,1.288e+00,1.595e+00,1.468e+00,1.289e+00,1.164e+00,4.239e-01,9.053e-01
6.190e-02,4.944e-01,7.075e-01,8.873e-01,8.488e-01,1.291e+00,1.392e+00,1.483e+00,9.187e-01,7.811e-01,1.279e+00,1.036e+00,1.213e+00,1.139e+00,1.180e+00,7.825e-01,9.524e-01,5.170e-01,7.364e-01,1.595e+00,7.133e-01,1.085e+00,1.370e+00,1.330e+00,2.053e+00,1.419e+00,1.119e+00,7.745e-01,1.300e+00,9.414e-01,1.805e+00,1.352e+00,1.416e+00,1.569e+00,1.004e+00,9.305e-01,4.076e-01,1.071e+00,1.174e+00,1.363e+00,1.291e+00,8.786e-01,5.241e-01,1.747e+00,1.394e+00,1.525e+00,1.219e+00,4.410e-01,4.767e-01,9.593e-01,1.284e+00,7.891e-01,1.204e+00,9.407e-01,1.771e+00,6.856e-01,5.964e-01,1.381e+00,8.737e-01,8.852e-01,5.649e-01,9.268e-01,1.670e+00,5.944e-01,1.405e+00,9.189e-01,1.273e+00,7.894e-01,1.313e+00,1.773e+00,1.202e+00,9.544e-01,1.006e+00,1.356e+00,1.610e+00,1.092e+00,1.469e+00,1.195e+00,9.103e-01,8.428e-01,7.440e-01,1.307e+00,1.342e+00,1.533e+00,1.883e+00,9.960e-01,1.324e+00,1.118e+00,1.378e+00,1.513e+00,1.208e+00,1.230e+00,5.210e-01,1.414e+00
4.730e-02,4.852e-01,9.138e-01,7.533e-01,1.217e+00,1.471e+00,1.399e+00,1.892e+00,1.255e+00,1.034e+00,1.270e+00,1.219e+00,2.076e+00,1.332e+00,1.710e+00,1.522e+00,1.719e+00,5.580e-01,9.441e-01,1.520e+00,1.305e+00,1.143e+00,9.323e-01,2.040e+00,1.521e+00,1.681e+00,1.201e+00,6.486e-01,1.389e+00,8.859e-01,1.704e+00,1.339e+00,1.399e+00,1.829e+00,7.915e-01,1.001e+00,1.083e+00,1.787e+00,7.751e-01,1.521e+00,1.317e+00,1.191e+00,1.332e+00,1.472e+00,1.593e+00,9.956e-01,1.036e+00,1.383e+00,5.618e-01,1.302e+00,1.150e+00,1.335e+00,9.773e-01,9.157e-01,1.868e+00,1.394e+00,6.284e-01,1.359e+00,9.268e-01,1.117e+00,6.067e-01,1.687e+00,2.131e+00,9.993e-01,1.315e+00,8.215e-01,1.239e+00,1.409e+00,1.812e+00,1.332e+00,1.020e+00,9.962e-01,9.797e-01,1.930e+00,1.894e+00,1.707e+00,1.556e+00,1.351e+00,1.320e+00,1.158e+00,1.366e+00,9.290e-01,1.851e+00,1.567e+00,2.063e+00,1.434e+00,1.602e+00,1.402e+00,1.090e+00,1.274e+00,1.596e+00,1.298e+00,1.075e+00,8.402e-01
3.376e-02,1.985e-01,3.038e-01,2.880e-01,3.356e-01,9.219e-01,6.135e-01,1.463e+00,9.945e-01,1.268e+00,8.582e-01,1.058e+00,9.874e-01,1.224e+00,7.765e-01,1.051e+00,5.150e-01,5.851e-01,4.080e-01,1.320e+00,4.792e-01,8.749e-01,7.437e-01,1.393e+00,6.300e-01,1.334e+00,9.954e-01,1.069e+00,1.085e+00,1.167e+00,9.876e-01,7.276e-01,6.281e-01,1.201e+00,1.213e+00,1.267e+00,4.418e-01,1.182e+00,9.989e-01,8.536e-01,1.197e+00,8.645e-01,8.935e-01,1.158e+00,1.061e+00,8.439e-01,8.864e-01,8.348e-01,4.036e-01,6.547e-01,4.629e-01,7.055e-01,1.041e+00,6.356e-01,8.265e-01,9.611e-01,1.123e+00,6.069e-01,4.977e-01,7.200e-01,1.171e+00,6.202e-01,1.395e+00,1.078e+00,1.091e+00,6.732e-01,6.633e-01,4.415e-01,1.529e+00,1.143e+00,8.426e-01,1.073e+00,7.463e-01,1.313e+00,1.178e+00,5.405e-01,4.970e-01,5.308e-01,1.264e+00,4.265e-01,9.976e-01,1.272e+00,1.185e+00,1.389e+00,1.171e+00,6.983e-01,1.365e+00,1.242e+00,3.802e-01,1.069e+00,9.638e-01,6.003e-01,9.048e-01,6.351e-01
7.502e-03,4.232e-01,6.275e-01,6.193e-01,1.024e+00,1.526e+00,2.358e+00,2.993e+00,2.292e+00,1.269e+00,2.218e+00,1.797e+00,1.894e+00,1.294e+00,1.961e+00,2.135e+00,1.843e+00,1.370e+00,9.604e-01,2.554e+00,1.544e+00,1.796e+00,1.984e+00,2.371e+00,2.338e+00,2.011e+00,2.162e+00,1.525e+00,1.628e+00,1.674e+00,2.055e+00,1.495e+00,2.295e+00,2.305e+00,1.400e+00,1.586e+00,8.716e-01,2.641e+00,1.950e+00,1.717e+00,2.392e+00,1.463e+00,1.915e+00,2.576e+00,2.423e+00,1.420e+00,1.757e+00,1.503e+00,6.713e-01,2.084e+00,1.274e+00,2.166e+00,1.605e+00,1.123e+00,2.606e+00,2.008e+00,1.203e+00,2.424e+00,1.621e+00,1.516e+00,9.701e-01,2.312e+00,2.979e+00,1.577e+00,1.744e+00,1.614e+00,2.053e+00,1.739e+00,2.396e+00,2.281e+00,1.438e+00,1.970e+00,1.054e+00,2.617e+00,2.215e+00,1.815e+00,2.589e+00,1.687e+00,2.166e+00,1.694e+00,2.100e+00,1.408e+00,1.900e+00,2.611e+00,2.918e+00,1.916e+00,2.124e+00,1.827e+00,2.153e+00,1.856e+00,1.599e+00,1.748e+00,1.040e+00,2.195e+00
1.143e-01,1.092e-01,1.413e+00,1.142e+00,1.191e+00,1.046e+00,9.677e-01,2.176e+00,2.568e+00,2.701e+00,1.822e+00,2.270e+00,2.575e+00,2.233e+00,2.574e+00,2.637e+00,8.340e-01,1.818e+00,1.408e+00,2.558e+00,1.795e+00,2.877e+00,1.695e+00,2.187e+00,2.628e+00,2.437e+00,1.864e+00,1.864e+00,2.461e+00,2.432e+00,1.444e+00,2.433e+00,1.985e+00,1.840e+00,1.955e+00,2.303e+00,1.261e+00,1.892e+00,1.805e+00,2.042e+00,2.259e+00,2.325e+00,2.510e+00,2.906e+00,1.477e+00,2.264e+00,1.739e+00,1.830e+00,1.121e+00,2.070e+00,1.571e+00,2.175e+00,1.992e+00,1.851e+00,1.611e+00,2.431e+00,2.407e+00,2.034e+00,1.062e+00,2.194e+00,2.531e+00,1.771e+00,3.021e+00,2.017e+00,1.620e+00,2.406e+00,2.123e+00,1.294e+00,3.270e+00,2.616e+00,1.944e+00,3.040e+00,1.426e+00,2.896e+00,2.370e+00,1.861e+00,1.776e+00,1.685e+00,2.144e+00,1.206e+00,2.238e+00,1.747e+00,2.474e+00,2.638e+00,2.293e+00,1.953e+00,1.886e+00,2.203e+00,1.701e+00,2.148e+00,2.382e+00,1.687e+00,1.903e+00,2.201e+00
1.684e-01,1.338e-01,1.303e+00,1.393e+00,1.553e+00,2.145e+00,2.465e+00,3.450e+00,3.493e+00,2.089e+00,2.936e+00,2.739e+00,3.423e+00,2.855e+00,3.346e+00,3.601e+00,2.701e+00,2.092e+00,1.917e+00,3.444e+00,3.039e+00,3.143e+00,3.092e+00,3.666e+00,3.345e+00,3.682e+00,3.577e+00,2.218e+00,3.409e+00,3.403e+00,3.027e+00,2.010e+00,2.805e+00,3.898e+00,2.819e+00,3.047e+00,1.827e+00,3.367e+00,2.692e+00,2.612e+00,3.058e+00,2.459e+00,2.905e+00,3.623e+00,3.246e+00,3.479e+00,2.157e+00,2.623e+00,1.751e+00,2.834e+00,2.663e+00,3.105e+00,3.827e+00,2.605e+00,3.666e+00,3.738e+00,2.468e+00,4.392e+00,2.323e+00,2.735e+00,2.646e+00,3.306e+00,4.085e+00,3.448e+00,3.205e+00,2.854e+00,2.516e+00,2.109e+00,3.569e+00,4.002e+00,2.346e+00,3.451e+00,2.263e+00,3.620e+00,4.105e+00,3.862e+00,3.297e+00,3.312e+00,3.052e+00,2.887e+00,3.146e+00,2.668e+00,2.984e+00,4.311e+00,3.342e+00,1.930e+00,3.385e+00,3.262e+00,2.727e+00,2.777e+00,2.642e+00,3.053e+00,3.038e+00,2.923e+00
1.075e-01,2.528e-01,1.326e+00,1.122e+00,1.117e+00,1.156e+00,1.423e+00,2.586e+00,2.964e+00,2.961e+00,2.742e+00,2.400e+00,3.486e+00,2.402e+00,3.752e+00,3.224e+00,1.511e+00,2.219e+00,2.275e+00,3.663e+00,1.938e+00,3.329e+00,2.444e+00,3.151e+00,3.392e+00,2.996e+00,3.273e+00,2.075e+00,3.218e+00,3.647e+00,1.995e+00,2.657e+00,3.229e+00,2.856e+00,2.377e+00,3.325e+00,1.343e+00,2.344e+00,2.733e+00,2.123e+00,3.748e+00,2.781e+00,3.172e+00,3.881e+00,2.609e+00,3.339e+00,2.487e+00,1.997e+00,1.520e+00,3.087e+00,2.321e+00,3.238e+00,2.448e+00,3.061e+00,2.823e+00,3.352e+00,3.140e+00,2.655e+00,1.429e+00,2.379e+00,2.800e+00,3.108e+00,3.329e+00,2.624e+00,2.992e+00,3.640e+00,3.159e+00,2.064e+00,4.302e+00,3.722e+00,2.808e+00,3.439e+00,2.440e+00,3.637e+00,3.357e+00,2.689e+00,2.457e+00,2.231e+00,3.195e+00,2.095e+00,3.241e+00,3.098e+00,2.840e+00,3.342e+00,2.477e+00,2.555e+00,2.431e+00,2.631e+00,3.120e+00,3.269e+00,2.667e+00,2.293e+00,2.771e+00,3.399e+00
4.515e-02,4.416e-01,4.509e-01,5.359e-01,6.261e-01,1.278e+00,1.472e+00,2.043e+00,1.465e+00,1.462e+00,2.650e+00,1.418e+00,3.118e+00,2.262e+00,2.719e+00,2.019e+00,1.902e+00,1.665e+00,1.950e+00,2.642e+00,1.249e+00,1.850e+00,2.393e+00,2.922e+00,2.753e+00,2.185e+00,2.595e+00,1.403e+00,2.755e+00,2.554e+00,2.675e+00,2.127e+00,2.293e+00,3.075e+00,1.738e+00,2.843e+00,1.352e+00,2.459e+00,2.829e+00,1.795e+00,2.642e+00,1.908e+00,2.741e+00,3.274e+00,2.450e+00,2.078e+00,2.652e+00,1.988e+00,1.431e+00,2.416e+00,2.086e+00,2.273e+00,1.955e+00,1.884e+00,3.073e+00,2.577e+00,2.209e+00,2.022e+00,1.842e+00,1.350e+00,1.751e+00,2.907e+00,2.322e+00,2.162e+00,2.721e+00,2.663e+00,2.989e+00,1.928e+00,3.057e+00,2.705e+00,2.650e+00,1.758e+00,1.956e+00,2.365e+00,3.048e+00,2.666e+00,2.620e+00,1.911e+00,2.479e+00,2.425e+00,2.508e+00,2.597e+00,2.847e+00,3.121e+00,2.928e+00,2.111e+00,2.375e+00,2.179e+00,2.888e+00,3.033e+00,1.892e+00,1.951e+00,2.294e+00,3.061e+00
3.566e-02,5.742e-01,7.718e-01,7.891e-01,1.079e+00,1.794e+00,2.095e+00,3.113e+00,2.610e+00,2.634e+00,2.883e+00,3.037e+00,4.683e+00,3.678e+00,4.509e+00,3.702e+00,2.258e+00,2.130e+00,2.893e+00,4.267e+00,3.244e+00,4.205e+00,3.235e+00,4.260e+00,3.992e+00,3.479e+00,3.246e+00,2.867e+00,4.623e+00,3.472e+00,3.377e+00,3.751e+00,3.906e+00,4.118e+00,2.742e+00,3.804e+00,1.761e+00,3.441e+00,4.000e+00,2.750e+00,4.254e+00,3.015e+00,3.508e+00,4.569e+00,3.272e+00,3.367e+00,3.663e+00,2.328e+00,2.242e+00,3.799e+00,2.600e+00,3.221e+00,3.351e+00,3.437e+00,3.978e+00,4.343e+00,2.739e+00,2.997e+00,2.493e+00,2.981e+00,2.797e+00,3.624e+00,3.965e+00,2.209e+00,3.858e+00,4.223e+00,4.278e+00,3.211e+00,4.717e+00,4.736e+00,3.447e+00,3.719e+00,2.765e+00,3.918e+00,4.298e+00,3.193e+00,2.858e+00,2.524e+00,3.294e+00,3.144e+00,3.263e+00,3.553e+00,4.064e+00,4.584e+00,3.933e+00,3.044e+00,3.555e+00,3.730e+00,4.056e+00,4.117e+00,3.366e+00,3.293e+00,3.119e+00,4.714e+00
5.072e-02,1.653e-01,4.661e-01,5.780e-01,9.036e-01,1.589e+00,1.988e+00,2.811e+00,2.987e+00,1.844e+00,2.718e+00,2.465e+00,4.004e+00,3.126e+00,4.403e+00,4.142e+00,2.936e+00,2.225e+00,2.141e+00,3.160e+00,3.727e+00,3.749e+00,3.835e+00,3.751e+00,3.885e+00,3.869e+00,3.888e+00,3.001e+00,4.479e+00,3.360e+00,3.199e+00,2.537e+00,3.588e+00,4.692e+00,3.213e+00,3.830e+00,2.060e+00,3.714e+00,3.651e+00,3.309e+00,3.608e+00,2.393e+00,3.684e+00,4.196e+00,3.780e+00,3.547e+00,3.141e+00,2.998e+00,2.876e+00,3.578e+00,3.048e+00,3.721e+00,4.101e+00,3.162e+00,4.457e+00,4.141e+00,2.660e+00,4.078e+00,2.296e+00,2.851e+00,2.918e+00,3.782e+00,3.975e+00,3.352e+00,3.324e+00,4.167e+00,2.998e+00,3.255e+00,3.833e+00,4.980e+00,2.657e+00,4.137e+00,2.336e+00,4.029e+00,4.327e+00,4.019e+00,3.430e+00,3.601e+00,3.285e+00,3.562e+00,3.494e+00,2.718e+00,3.545e+00,4.434e+00,4.422e+00,2.559e+00,3.119e+00,4.155e+00,3.433e+00,3.258e+00,3.148e+00,3.361e+00,3.856e+00,4.080e+00
8.410e-02,3.476e-01,9.210e-01,8.694e-01,1.154e+00,1.616e+00,2.179e+00,3.080e+00,2.779e+00,2.094e+00,3.204e+00,2.886e+00,4.818e+00,3.868e+00,5.205e+00,4.198e+00,3.400e+00,2.625e+00,3.606e+00,4.972e+00,4.311e+00,4.981e+00,4.968e+00,5.526e+00,4.752e+00,4.677e+00,4.300e+00,4.056e+00,5.037e+00,4.912e+00,3.573e+00,3.152e+00,4.959e+00,5.940e+00,4.011e+00,4.379e+00,2.958e+00,4.717e+00,4.771e+00,3.124e+00,5.485e+00,3.068e+00,4.986e+00,5.246e+00,4.633e+00,3.899e+00,4.817e+00,3.576e+00,3.156e+00,4.937e+00,3.588e+00,4.355e+00,4.286e+00,4.618e+00,4.830e+00,5.226e+00,3.962e+00,4.407e+00,3.516e+00,3.175e+00,3.572e+00,4.701e+00,4.798e+00,4.092e+00,4.648e+00,5.154e+00,4.500e+00,3.617e+00,5.254e+00,5.896e+00,3.636e+00,4.074e+00,3.847e+00,4.712e+00,4.907e+00,5.166e+00,4.338e+00,3.708e+00,4.163e+00,4.476e+00,4.096e+00,4.039e+00,4.119e+00,5.552e+00,5.034e+00,3.115e+00,3.850e+00,4.845e+00,5.003e+00,3.939e+00,3.223e+00,4.501e+00,4.134e+00,4.750e+00
3.337e-02,2.530e-01,5.862e-01,5.432e-01,8.881e-01,1.210e+00,1.701e+00,2.410e+00,2.628e+00,2.023e+00,2.994e+00,2.261e+00,4.588e+00,3.371e+00,4.877e+00,5.061e+00,3.535e+00,3.306e+00,3.472e+00,4.454e+00,3.983e+00,5.431e+00,4.939e+00,4.768e+00,5.676e+00,4.099e+00,4.459e+00,3.919e+00,5.084e+00,4.463e+00,3.546e+00,3.954e+00,5.578e+00,5.834e+00,3.680e+00,4.934e+00,3.073e+00,4.518e+00,5.101e+00,3.922e+00,5.383e+00,3.669e+00,4.790e+00,4.908e+00,4.954e+00,3.686e+00,4.263e+00,3.206e+00,4.095e+00,4.668e+00,3.986e+00,4.785e+00,4.234e+00,4.894e+00,4.737e+00,4.899e+00,4.173e+00,4.497e+00,3.749e+00,3.627e+00,3.431e+00,5.137e+00,4.992e+00,3.998e+00,5.136e+00,5.901e+00,4.851e+00,3.843e+00,5.140e+00,6.039e+00,3.532e+00,4.410e+00,4.116e+00,4.726e+00,5.065e+00,5.589e+00,3.937e+00,4.667e+00,4.674e+00,4.543e+00,3.762e+00,4.112e+00,4.489e+00,5.084e+00,5.337e+00,3.693e+00,3.689e+00,5.030e+00,4.733e+00,4.506e+00,4.176e+00,4.303e+00,4.348e+00,5.367e+00
1.752e-01,6.076e-01,2.017e+00,1.870e+00,1.923e+00,2.089e+00,1.873e+00,2.921e+00,2.893e+00,3.269e+00,3.579e+00,3.109e+00,5.382e+00,4.258e+00,5.810e+00,4.769e+00,3.633e+00,3.325e+00,4.615e+00,5.875e+00,3.803e+00,6.157e+00,6.095e+00,5.466e+00,6.705e+00,5.387e+00,5.452e+00,4.949e+00,6.279e+00,5.917e+00,5.097e+00,5.437e+00,5.668e+00,6.791e+00,5.408e+00,6.371e+00,3.608e+00,5.047e+00,4.981e+00,5.128e+00,6.388e+00,4.909e+00,5.359e+00,6.530e+00,4.848e+00,5.396e+00,5.327e+00,4.544e+00,4.652e+00,5.488e+00,4.978e+00,5.434e+00,5.052e+00,5.519e+00,6.095e+00,4.982e+00,5.512e+00,5.081e+00,3.868e+00,4.247e+00,4.341e+00,5.447e+00,5.793e+00,4.666e+00,5.870e+00,6.247e+00,5.782e+00,3.848e+00,6.474e+00,6.779e+00,5.489e+00,5.186e+00,5.073e+00,5.976e+00,6.693e+00,6.512e+00,4.741e+00,4.582e+00,5.384e+00,4.526e+00,4.480e+00,5.755e+00,6.044e+00,5.569e+00,6.236e+00,4.874e+00,4.805e+00,5.607e+00,5.256e+00,5.056e+00,5.352e+00,5.152e+00,4.786e+00,5.762e+00
1.369e-02,6.858e-02,6.582e-01,5.614e-01,1.032e+00,1.101e+00,1.598e+00,2.145e+00,2.559e+00,1.562e+00,2.603e+00,2.415e+00,3.956e+00,3.063e+00,4.052e+00,4.048e+00,3.586e+00,3.410e+00,3.692e+00,4.526e+00,4.295e+00,5.755e+00,4.941e+00,5.272e+00,4.821e+00,3.851e+00,4.466e+00,4.849e+00,5.297e+00,4.072e+00,4.387e+00,4.380e+00,4.408e+00,5.045e+00,4.511e+00,4.650e+00,3.776e+00,4.468e+00,4.845e+00,3.289e+00,4.576e+00,3.813e+00,4.401e+00,4.623e+00,4.651e+00,4.195e+00,3.899e+00,4.487e+00,4.835e+00,4.660e+00,4.128e+00,4.506e+00,4.597e+00,4.714e+00,4.747e+00,5.171e+00,4.313e+00,5.455e+00,4.470e+00,4.410e+00,3.262e+00,5.306e+00,4.957e+00,4.275e+00,4.658e+00,5.378e+00,5.254e+00,3.634e+00,4.153e+00,5.288e+00,4.344e+00,4.099e+00,3.366e+00,4.808e+00,5.198e+00,6.018e+00,3.610e+00,4.155e+00,4.837e+00,4.439e+00,3.376e+00,3.599e+00,5.273e+00,5.049e+00,5.345e+00,4.451e+00,3.805e+00,5.063e+00,5.239e+00,3.944e+00,3.634e+00,4.487e+00,3.487e+00,5.198e+00
2.817e-03,2.712e-01,6.609e-01,5.977e-01,8.747e-01,1.104e+00,1.410e+00,2.057e+00,2.006e+00,1.836e+00,2.758e+00,1.736e+00,3.016e+00,2.238e+00,3.371e+00,2.931e+00,2.447e+00,3.167e+00,2.763e+00,4.393e+00,3.284e+00,4.784e+00,4.490e+00,4.205e+00,4.838e+00,4.446e+00,4.706e+00,4.580e+00,4.834e+00,3.900e+00,4.816e+00,4.609e+00,3.779e+00,4.835e+00,3.850e+00,4.600e+00,3.426e+00,4.342e+00,4.353e+00,4.153e+00,4.013e+00,3.532e+00,4.869e+00,5.255e+00,4.401e+00,4.531e+00,4.125e+00,3.895e+00,4.445e+00,3.899e+00,4.133e+00,4.618e+00,3.780e+00,4.325e+00,4.347e+00,3.317e+00,4.532e+00,3.880e+00,3.146e+00,3.428e+00,3.630e+00,4.484e+00,4.272e+00,4.254e+00,3.644e+00,5.256e+00,4.599e+00,3.651e+00,4.246e+00,4.454e+00,4.329e+00,3.752e+00,2.735e+00,5.175e+00,4.045e+00,5.108e+00,4.627e+00,4.242e+00,4.235e+00,3.464e+00,3.391e+00,3.674e+00,4.476e+00,4.322e+00,6.125e+00,4.639e+00,3.309e+00,4.359e+00,4.592e+00,4.161e+00,4.006e+00,3.486e+00,3.126e+00,5.221e+00
1.323e-01,5.961e-01,1.260e+00,1.363e+00,1.315e+00,2.079e+00,2.282e+00,3.415e+00,3.022e+00,2.688e+00,2.856e+00,3.290e+00,4.162e+00,4.198e+00,4.344e+00,3.939e+00,3.079e+00,2.989e+00,4.240e+00,6.628e+00,5.166e+00,6.794e+00,5.601e+00,5.502e+00,6.170e+00,5.276e+00,5.133e+00,5.692e+00,5.946e+00,5.208e+00,5.460e+00,5.390e+00,5.117e+00,6.441e+00,6.018e+00,5.439e+00,4.357e+00,4.852e+00,5.650e+00,4.956e+00,5.922e+00,4.640e+00,4.945e+00,6.209e+00,5.353e+00,5.468e+00,5.329e+00,3.765e+00,4.829e+00,5.316e+00,4.335e+00,4.956e+00,5.990e+00,5.546e+00,5.454e+00,5.681e+00,4.848e+00,5.485e+00,4.637e+00,4.217e+00,5.012e+00,4.510e+00,5.917e+00,4.175e+00,5.337e+00,5.347e+00,4.972e+00,3.872e+00,5.554e+00,6.679e+00,5.294e+00,5.070e+00,4.177e+00,6.021e+00,5.474e+00,5.757e+00,4.594e+00,4.218e+00,5.097e+00,4.333e+00,3.195e+00,5.082e+00,6.058e+00,6.112e+00,6.130e+00,4.798e+00,5.077e+00,6.144e+00,5.680e+00,4.708e+00,5.021e+00,4.594e+00,3.749e+00,5.177e+00
1.839e-02,5.680e-01,7.873e-01,6.390e-01,9.496e-01,1.578e+00,2.031e+00,3.321e+00,3.332e+00,2.799e+00,3.598e+00,2.733e+00,4.625e+00,3.598e+00,4.799e+00,4.804e+00,3.830e+00,4.089e+00,4.680e+00,7.678e+00,5.405e+00,6.982e+00,6.635e+00,6.783e+00,7.332e+00,6.075e+00,7.420e+00,6.727e+00,6.320e+00,6.402e+00,5.901e+00,6.646e+00,5.975e+00,7.274e+00,5.954e+00,6.523e+00,4.534e+00,5.995e+00,7.347e+00,6.037e+00,6.762e+00,5.641e+00,6.090e+00,7.190e+00,7.515e+00,5.878e+00,5.651e+00,5.069e+00,6.424e+00,6.289e+00,5.020e+00,6.884e+00,5.999e+00,7.025e+00,6.767e+00,6.078e+00,6.313e+00,6.261e+00,5.577e+00,4.990e+00,5.646e+00,6.273e+00,6.270e+00,6.050e+00,6.382e+00,7.685e+00,5.995e+00,5.428e+00,6.744e+00,7.494e+00,6.157e+00,6.326e+00,4.607e+00,7.522e+00,6.626e+00,6.927e+00,5.405e+00,5.445e+00,7.430e+00,5.619e+00,4.262e+00,6.141e+00,6.890e+00,5.995e+00,7.472e+00,6.775e+00,5.491e+00,7.454e+00,7.315e+00,6.221e+00,5.857e+00,4.853e+00,5.186e+00,6.721e+00
3.542e-02,4.142e-01,1.024e+00,8.988e-01,1.243e+00,1.366e+00,1.456e+00,1.973e+00,2.458e+00,1.903e+00,3.018e+00,1.875e+00,3.974e+00,2.983e+00,3.923e+00,3.414e+00,3.692e+00,2.367e+00,4.791e+00,6.667e+00,6.140e+00,6.652e+00,6.520e+00,6.563e+00,6.964e+00,5.788e+00,6.720e+00,6.013e+00,6.181e+00,5.830e+00,6.090e+00,6.572e+00,5.602e+00,7.475e+00,5.000e+00,5.506e+00,4.715e+00,6.003e+00,5.439e+00,6.005e+00,6.099e+00,5.296e+00,5.575e+00,6.500e+00,6.259e+00,5.666e+00,5.152e+00,4.654e+00,5.683e+00,6.427e+00,5.430e+00,7.099e+00,6.122e+00,6.557e+00,6.437e+00,4.899e+00,5.526e+00,5.509e+00,5.077e+00,4.782e+00,5.322e+00,5.741e+00,5.386e+00,5.120e+00,6.549e+00,6.319e+00,4.766e+00,5.159e+00,5.911e+00,6.843e+00,6.088e+00,5.816e+00,4.692e+00,7.264e+00,5.807e+00,7.231e+00,6.422e+00,4.784e+00,6.584e+00,5.842e+00,3.801e+00,5.966e+00,6.597e+00,5.940e+00,7.123e+00,6.498e+00,4.889e+00,6.749e+00,6.522e+00,5.482e+00,6.243e+00,5.915e+00,5.426e+00,5.918e+00
1.631e-01,2.025e-01,1.396e+00,1.445e+00,1.487e+00,1.630e+00,1.796e+00,2.373e+00,2.660e+00,2.230e+00,2.606e+00,2.668e+00,4.424e+00,3.258e+00,5.059e+00,4.043e+00,2.914e+00,2.847e+00,3.744e+00,5.612e+00,6.253e+00,7.876e+00,6.688e+00,6.786e+00,7.034e+00,7.201e+00,7.169e+00,6.746e+00,8.221e+00,6.428e+00,6.331e+00,6.228e+00,6.015e+00,7.037e+00,5.951e+00,6.588e+00,4.602e+00,5.771e+00,6.048e+00,5.399e+00,6.247e+00,5.890e+00,5.912e+00,6.750e+00,5.805e+00,6.563e+00,5.714e+00,5.116e+00,4.899e+00,6.968e+00,6.088e+00,6.508e+00,6.482e+00,6.808e+00,7.130e+00,5.701e+00,5.421e+00,6.260e+00,5.101e+00,5.522e+00,5.292e+00,5.754e+00,6.855e+00,4.901e+00,5.773e+00,6.833e+00,6.158e+00,4.552e+00,6.783e+00,8.091e+00,6.370e+00,7.308e+00,5.730e+00,7.897e+00,7.281e+00,7.427e+00,5.666e+00,5.434e+00,6.071e+00,5.475e+00,4.662e+00,6.234e+00,5.795e+00,6.558e+00,7.184e+00,5.717e+00,5.014e+00,6.895e+00,6.543e+00,5.867e+00,6.655e+00,6.417e+00,6.101e+00,7.170e+00
3.386e-02,5.747e-02,2.126e-01,3.961e-01,7.117e-01,1.328e+00,1.906e+00,2.315e+00,1.849e+00,1.186e+00,2.502e+00,1.725e+00,3.185e+00,2.053e+00,3.733e+00,4.059e+00,3.078e+00,3.495e+00,3.183e+00,5.455e+00,5.048e+00,7.136e+00,6.787e+00,6.328e+00,7.432e+00,7.288e+00,8.593e+00,7.692e+00,7.316e+00,6.295e+00,6.347e+00,5.704e+00,6.257e+00,6.984e+00,6.081e+00,7.658e+00,4.990e+00,6.528e+00,7.587e+00,5.993e+00,6.281e+00,5.738e+00,6.183e+00,6.366e+00,6.611e+00,6.321e+00,5.501e+00,5.813e+00,5.927e+00,6.965e+00,5.447e+00,7.111e+00,6.254e+00,7.402e+00,7.659e+00,5.788e+00,5.682e+00,6.906e+00,6.734e+00,5.763e+00,4.465e+00,6.674e+00,6.840e+00,5.902e+00,5.955e+00,7.127e+00,6.972e+00,4.626e+00,6.868e+00,7.361e+00,5.721e+00,6.842e+00,6.148e+00,7.731e+00,6.803e+00,7.546e+00,6.233e+00,6.097e+00,6.838e+00,5.897e+00,4.454e+00,5.949e+00,6.148e+00,6.321e+00,8.163e+00,5.659e+00,5.711e+00,6.857e+00,6.565e+00,6.445e+00,6.355e+00,5.417e+00,5.916e+00,7.397e+00
9.089e-03,4.849e-01,9.977e-01,9.101e-01,1.411e+00,1.763e+00,2.035e+00,2.815e+00,3.204e+00,2.498e+00,3.592e+00,2.721e+00,4.877e+00,3.624e+00,4.664e+00,4.705e+00,3.994e+00,3.327e+00,4.290e+00,5.903e+00,4.764e+00,6.629e+00,6.829e+00,6.980e+00,8.265e+00,6.248e+00,7.625e+00,7.347e+00,7.729e+00,5.934e+00,6.663e+00,7.027e+00,6.505e+00,7.195e+00,6.173e+00,6.889e+00,4.567e+00,6.292e+00,7.557e+00,6.027e+00,6.792e+00,6.137e+00,5.768e+00,6.540e+00,6.619e+00,6.189e+00,5.487e+00,5.935e+00,6.004e+00,7.146e+00,5.449e+00,7.386e+00,6.758e+00,6.995e+00,7.973e+00,5.797e+00,5.700e+00,6.648e+00,6.427e+00,6.188e+00,4.932e+00,6.907e+00,7.185e+00,5.552e+00,6.922e+00,6.945e+00,7.209e+00,5.717e+00,6.934e+00,8.602e+00,5.953e+00,7.076e+00,5.259e+00,8.052e+00,7.479e+00,7.431e+00,6.237e+00,6.075e+00,8.195e+00,6.603e+00,5.277e+00,6.442e+00,8.031e+00,7.410e+00,7.939e+00,6.343e+00,6.390e+00,8.104e+00,7.636e+00,7.705e+00,6.781e+00,6.008e+00,5.820e+00,7.618e+00
1.298e-01,2.086e-01,1.349e+00,1.316e+00,1.408e+00,1.380e+00,1.971e+00,2.471e+00,2.766e+00,1.628e+00,2.635e+00,2.157e+00,3.109e+00,2.384e+00,3.704e+00,3.268e+00,3.120e+00,2.953e+00,3.423e+00,5.261e+00,4.691e+00,5.872e+00,5.870e+00,5.104e+00,7.510e+00,6.031e+00,6.947e+00,6.874e+00,6.135e+00,5.619e+00,5.713e+00,5.580e+00,5.899e+00,6.461e+00,5.983e+00,6.096e+00,5.827e+00,6.342e+00,5.745e+00,5.620e+00,5.477e+00,5.740e+00,6.172e+00,6.046e+00,5.958e+00,6.730e+00,4.732e+00,5.403e+00,5.463e+00,6.398e+00,5.777e+00,7.350e+00,6.387e+00,6.600e+00,7.406e+00,5.486e+00,5.591e+00,6.989e+00,5.696e+00,5.414e+00,4.290e+00,6.543e+00,6.463e+00,5.439e+00,5.169e+00,5.708e+00,5.739e+00,4.663e+00,5.952e+00,6.364e+00,5.235e+00,5.699e+00,4.500e+00,7.456e+00,5.483e+00,6.636e+00,6.493e+00,5.363e+00,6.519e+00,5.886e+00,4.454e+00,5.582e+00,6.043e+00,6.702e+00,6.993e+00,5.263e+00,5.527e+00,6.197e+00,5.752e+00,5.170e+00,5.415e+00,5.372e+00,4.908e+00,5.927e+00
9.757e-02,5.805e-01,1.581e+00,1.452e+00,1.891e+00,2.296e+00,2.294e+00,3.348e+00,3.024e+00,2.688e+00,3.076e+00,2.907e+00,4.263e+00,3.481e+00,3.898e+00,3.584e+00,3.086e+00,3.000e+00,3.010e+00,5.448e+00,4.702e+00,5.423e+00,5.047e+00,6.386e+00,7.657e+00,6.701e+00,6.943e+00,7.373e+00,7.746e+00,5.356e+00,6.538e+00,7.382e+00,5.444e+00,7.270e+00,5.348e+00,5.784e+00,5.409e+00,6.077e+00,6.850e+00,6.083e+00,5.483e+00,5.567e+00,6.679e+00,6.747e+00,7.303e+00,6.844e+00,4.851e+00,6.306e+00,5.718e+00,6.776e+00,5.831e+00,7.426e+00,7.352e+00,6.460e+00,7.104e+00,6.406e+00,6.772e+00,6.640e+00,5.516e+00,6.314e+00,5.766e+00,7.089e+00,7.351e+00,6.707e+00,5.502e+00,6.412e+00,7.226e+00,5.792e+00,6.889e+00,7.511e+00,5.659e+00,5.609e+00,4.917e+00,8.469e+00,5.816e+00,6.028e+00,6.741e+00,5.856e+00,7.651e+00,6.318e+00,5.261e+00,6.101e+00,7.857e+00,8.028e+00,8.902e+00,6.463e+00,6.340e+00,7.261e+00,6.750e+00,6.577e+00,6.695e+00,5.185e+00,5.854e+00,6.444e+00
9.887e-03,5.987e-01,3.628e-01,5.041e-01,8.289e-01,1.768e+00,2.249e+00,2.995e+00,2.300e+00,1.729e+00,2.569e+00,2.310e+00,3.724e+00,3.186e+00,4.276e+00,3.990e+00,3.389e+00,2.723e+00,3.090e+00,5.363e+00,5.324e+00,6.454e+00,6.089e+00,6.133e+00,6.790e+00,6.495e+00,7.254e+00,7.755e+00,7.501e+00,5.761e+00,7.385e+00,6.623e+00,6.731e+00,8.542e+00,6.548e+00,6.802e+00,5.922e+00,7.320e+00,7.245e+00,6.003e+00,7.507e+00,5.562e+00,7.094e+00,6.274e+00,6.788e+00,6.544e+00,6.717e+00,5.474e+00,5.679e+00,6.400e+00,6.137e+00,7.239e+00,6.907e+00,6.810e+00,7.415e+00,5.588e+00,6.367e+00,5.745e+00,5.054e+00,5.285e+00,5.373e+00,6.855e+00,7.902e+00,5.971e+00,6.176e+00,6.867e+00,6.936e+00,5.926e+00,7.177e+00,8.691e+00,5.671e+00,5.785e+00,5.408e+00,8.361e+00,5.583e+00,7.016e+00,7.302e+00,6.767e+00,7.466e+00,6.697e+00,5.511e+00,6.481e+00,6.639e+00,8.076e+00,9.116e+00,6.146e+00,6.626e+00,7.411e+00,6.593e+00,6.538e+00,6.778e+00,5.682e+00,5.734e+00,7.674e+00
1.005e-01,5.522e-01,1.284e+00,1.278e+00,1.457e+00,2.037e+00,2.163e+00,3.159e+00,2.637e+00,2.362e+00,2.683e+00,2.721e+00,3.513e+00,3.145e+00,3.742e+00,3.454e+00,2.540e+00,2.504e+00,3.261e+00,5.582e+00,5.037e+00,6.421e+00,5.399e+00,5.732e+00,7.049e+00,5.871e+00,7.056e+00,7.859e+00,7.627e+00,6.451e+00,7.777e+00,7.314e+00,5.781e+00,7.859e+00,7.113e+00,6.547e+00,5.519e+00,7.209e+00,7.663e+00,7.141e+00,7.999e+00,6.897e+00,7.271e+00,7.231e+00,7.462e+00,7.424e+00,6.956e+00,5.277e+00,5.857e+00,7.043e+00,5.972e+00,7.785e+00,8.608e+00,7.183e+00,8.137e+00,5.880e+00,6.263e+00,5.943e+00,5.946e+00,6.165e+00,6.797e+00,6.508e+00,7.380e+00,6.393e+00,5.715e+00,6.906e+00,7.316e+00,5.820e+00,7.744e+00,8.062e+00,6.146e+00,6.634e+00,6.583e+00,8.840e+00,5.725e+00,7.123e+00,8.179e+00,6.410e+00,8.070e+00,6.986e+00,6.194e+00,7.279e+00,7.406e+00,7.858e+00,8.596e+00,5.970e+00,7.758e+00,8.254e+00,6.642e+00,7.124e+00,7.923e+00,5.925e+00,6.536e+00,7.576e+00
8.981e-02,4.022e-01,1.286e+00,1.039e+00,1.121e+00,1.211e+00,1.102e+00,2.223e+00,2.594e+00,2.610e+00,2.548e+00,2.683e+00,4.152e+00,3.762e+00,4.174e+00,3.731e+00,2.814e+00,3.030e+00,4.537e+00,6.625e+00,5.645e+00,7.216e+00,6.560e+00,6.879e+00,7.598e+00,6.530e+00,7.716e+00,8.937e+00,8.681e+00,8.639e+00,7.907e+00,8.679e+00,7.021e+00,8.850e+00,7.701e+00,7.315e+00,5.839e+00,7.437e+00,8.831e+00,7.693e+00,8.327e+00,8.001e+00,8.186e+00,8.396e+00,8.139e+00,7.477e+00,8.037e+00,6.887e+00,7.870e+00,8.320e+00,6.785e+00,8.424e+00,9.290e+00,8.436e+00,7.957e+00,7.238e+00,8.281e+00,7.170e+00,7.411e+00,7.431e+00,8.809e+00,7.543e+00,7.336e+00,7.743e+00,7.093e+00,8.748e+00,8.322e+00,7.386e+00,8.819e+00,9.039e+00,7.446e+00,7.672e+00,7.404e+00,1.034e+01,6.915e+00,8.547e+00,7.653e+00,7.544e+00,1.017e+01,7.531e+00,6.143e+00,8.133e+00,9.211e+00,9.152e+00,8.972e+00,7.737e+00,7.554e+00,9.475e+00,8.376e+00,8.439e+00,8.844e+00,6.875e+00,7.868e+00,7.935e+00
5.006e-03,1.435e-01,9.032e-01,8.400e-01,1.324e+00,1.294e+00,1.470e+00,1.717e+00,1.783e+00,1.389e+00,2.045e+00,1.592e+00,2.319e+00,1.463e+00,2.803e+00,3.060e+00,2.662e+00,2.739e+00,2.901e+00,4.245e+00,3.857e+00,6.342e+00,5.099e+00,5.100e+00,6.814e+00,5.561e+00,7.468e+00,8.118e+00,7.843e+00,6.297e+00,7.835e+00,7.182e+00,5.740e+00,7.558e+00,7.674e+00,7.758e+00,6.560e+00,7.021e+00,7.259e+00,7.015e+00,7.471e+00,6.818e+00,6.938e+00,6.379e+00,7.291e+00,7.355e+00,6.259e+00,6.322e+00,6.837e+00,6.989e+00,7.294e+00,7.886e+00,8.625e+00,7.808e+00,7.779e+00,5.697e+00,7.521e+00,6.667e+00,6.254e+00,7.120e+00,5.975e+00,7.733e+00,7.366e+00,7.318e+00,5.338e+00,6.882e+00,8.240e+00,5.834e+00,7.056e+00,7.532e+00,5.886e+00,6.146e+00,7.281e+00,8.942e+00,6.000e+00,8.124e+00,7.680e+00,6.878e+00,8.648e+00,7.047e+00,6.158e+00,6.544e+00,7.474e+00,7.564e+00,9.356e+00,6.539e+00,7.572e+00,7.964e+00,7.103e+00,7.427e+00,8.211e+00,6.192e+00,6.739e+00,7.693e+00
2.753e-02,4.988e-01,6.956e-01,7.957e-01,1.014e+00,1.517e+00,2.342e+00,2.944e+00,3.155e+00,2.001e+00,3.022e+00,2.576e+00,3.968e+00,3.117e+00,4.098e+00,3.819e+00,3.066e+00,2.638e+00,3.664e+00,5.773e+00,5.767e+00,6.505e+00,5.417e+00,5.637e+00,7.325e+00,4.877e+00,5.936e+00,6.308e+00,7.086e+00,6.197e+00,7.443e+00,7.554e+00,6.667e+00,7.965e+00,6.328e+00,6.244e+00,5.419e+00,7.042e+00,6.965e+00,7.066e+00,7.532e+00,7.666e+00,7.103e+00,7.564e+00,8.725e+00,6.862e+00,6.349e+00,3.854e+00,6.375e+00,8.042e+00,6.784e+00,8.376e+00,7.941e+00,6.867e+00,8.728e+00,7.251e+00,6.092e+00,7.213e+00,6.800e+00,6.826e+00,6.134e+00,7.006e+00,6.538e+00,5.485e+00,6.172e+00,7.397e+00,6.795e+00,6.735e+00,6.912e+00,7.934e+00,6.698e+00,7.248e+00,5.975e+00,8.396e+00,6.702e+00,6.988e+00,7.120e+00,6.395e+00,7.717e+00,7.378e+00,5.472e+00,7.059e+00,6.792e+00,8.389e+00,8.228e+00,6.553e+00,6.588e+00,8.861e+00,6.920e+00,6.916e+00,7.677e+00,6.487e+00,6.594e+00,8.017e+00
1.450e-01,3.912e-01,1.540e+00,1.407e+00,1.677e+00,1.806e+00,1.676e+00,2.323e+00,1.861e+00,1.894e+00,2.361e+00,2.345e+00,4.062e+00,2.999e+00,4.318e+00,3.403e+00,2.904e+00,2.313e+00,4.244e+00,6.016e+00,5.918e+00,7.263e+00,6.277e+00,6.598e+00,8.012e+00,7.062e+00,7.827e+00,7.909e+00,8.127e+00,7.183e+00,8.339e+00,8.753e+00,7.549e+00,9.316e+00,8.192e+00,8.180e+00,6.297e+00,9.126e+00,8.039e+00,8.648e+00,8.204e+00,8.641e+00,9.275e+00,8.125e+00,8.294e+00,8.117e+00,7.223e+00,6.240e+00,6.715e+00,9.942e+00,7.906e+00,9.939e+00,8.719e+00,8.809e+00,9.705e+00,7.316e+00,7.457e+00,8.499e+00,8.425e+00,7.472e+00,6.130e+00,8.727e+00,7.601e+00,6.275e+00,6.738e+00,7.957e+00,7.703e+00,6.852e+00,9.082e+00,8.702e+00,7.955e+00,8.631e+00,7.588e+00,1.032e+01,7.848e+00,9.134e+00,9.439e+00,7.076e+00,8.328e+00,7.550e+00,6.605e+00,8.113e+00,8.545e+00,9.291e+00,8.710e+00,7.188e+00,8.700e+00,9.380e+00,7.251e+00,7.940e+00,9.769e+00,7.181e+00,8.263e+00,8.033e+00
1.146e-01,5.643e-01,1.219e+00,1.210e+00,1.148e+00,1.625e+00,2.086e+00,3.085e+00,3.046e+00,2.319e+00,3.377e+00,2.981e+00,4.413e+00,4.277e+00,5.074e+00,4.339e+00,3.698e+00,3.848e+00,4.597e+00,7.296e+00,6.552e+00,7.938e+00,8.374e+00,7.535e+00,9.203e+00,6.869e+00,8.302e+00,9.696e+00,8.833e+00,9.096e+00,8.866e+00,9.634e+00,8.509e+00,1.162e+01,1.015e+01,8.928e+00,6.814e+00,1.027e+01,1.172e+01,1.014e+01,1.064e+01,9.250e+00,1.064e+01,1.047e+01,1.076e+01,8.896e+00,1.049e+01,7.820e+00,9.393e+00,1.076e+01,9.510e+00,1.015e+01,1.150e+01,9.377e+00,1.143e+01,8.619e+00,1.001e+01,1.024e+01,9.449e+00,8.250e+00,8.930e+00,9.765e+00,9.709e+00,9.657e+00,8.267e+00,1.096e+01,9.356e+00,8.866e+00,1.027e+01,1.204e+01,9.631e+00,9.455e+00,7.988e+00,1.219e+01,9.078e+00,1.028e+01,1.021e+01,9.278e+00,1.137e+01,9.866e+00,7.623e+00,9.695e+00,9.939e+00,1.074e+01,1.203e+01,8.959e+00,9.713e+00,1.168e+01,1.001e+01,9.284e+00,1.052e+01,8.931e+00,9.391e+00,9.786e+00
1.617e-01,2.427e-01,9.994e-01,9.920e-01,7.280e-01,9.544e-01,1.387e+00,2.190e+00,2.308e+00,1.836e+00,2.713e+00,2.156e+00,3.884e+00,3.223e+00,4.220e+00,3.826e+00,2.859e+00,3.615e+00,3.985e+00,5.659e+00,4.699e+00,6.659e+00,6.669e+00,5.792e+00,7.724e+00,5.629e+00,7.077e+00,7.554e+00,7.436e+00,7.342e+00,7.027e+00,7.465e+00,6.712e+00,9.084e+00,7.995e+00,8.603e+00,6.364e+00,7.510e+00,8.354e+00,6.885e+00,8.226e+00,9.231e+00,8.586e+00,8.088e+00,8.659e+00,7.534e+00,7.379e+00,5.966e+00,7.499e+00,9.242e+00,7.370e+00,9.148e+00,8.701e+00,8.115e+00,9.362e+00,7.306e+00,7.468e+00,8.022e+00,7.533e+00,6.904e+00,6.339e+00,8.523e+00,7.665e+00,7.066e+00,7.319e+00,8.784e+00,8.344e+00,6.288e+00,7.947e+00,8.314e+00,8.082e+00,7.929e+00,7.201e+00,8.757e+00,7.955e+00,8.053e+00,7.236e+00,7.127e+00,8.643e+00,7.572e+00,6.333e+00,8.965e+00,8.003e+00,8.989e+00,7.923e+00,6.756e+00,7.293e+00,9.451e+00,7.404e+00,7.131e+00,7.716e+00,6.275e+00,7.582e+00,8.864e+00
1.678e-01,5.020e-01,1.442e+00,1.515e+00,1.311e+00,1.533e+00,1.616e+00,2.076e+00,2.211e+00,2.036e+00,3.096e+00,2.305e+00,4.491e+00,3.756e+00,5.092e+00,3.926e+00,3.404e+00,3.081e+00,4.489e+00,6.183e+00,5.085e+00,7.049e+00,7.832e+00,6.506e+00,8.630e+00,7.379e+00,8.348e+00,8.073e+00,8.166e+00,9.040e+00,8.386e+00,8.260e+00,7.813e+00,1.056e+01,9.175e+00,1.060e+01,7.030e+00,9.301e+00,9.150e+00,9.406e+00,9.278e+00,9.143e+00,9.421e+00,9.243e+00,8.374e+00,8.543e+00,9.503e+00,7.856e+00,8.898e+00,8.894e+00,9.469e+00,9.051e+00,9.377e+00,9.467e+00,1.021e+01,7.603e+00,8.949e+00,8.586e+00,8.312e+00,7.693e+00,7.814e+00,8.975e+00,8.890e+00,9.218e+00,8.733e+00,9.922e+00,9.312e+00,7.781e+00,1.024e+01,1.071e+01,8.439e+00,8.925e+00,9.673e+00,1.074e+01,9.824e+00,9.459e+00,9.258e+00,8.574e+00,9.640e+00,9.137e+00,6.225e+00,8.948e+00,8.879e+00,1.050e+01,1.134e+01,7.932e+00,8.512e+00,1.028e+01,8.913e+00,8.664e+00,9.232e+00,8.493e+00,9.072e+00,9.218e+00
7.379e-02,4.596e-01,7.998e-01,9.573e-01,1.246e+00,2.167e+00,2.806e+00,3.790e+00,3.365e+00,2.515e+00,3.786e+00,2.866e+00,4.655e+00,3.656e+00,4.684e+00,4.846e+00,4.000e+00,3.582e+00,3.906e+00,6.497e+00,5.723e+00,7.207e+00,6.468e+00,7.147e+00,7.900e+00,6.891e+00,8.142e+00,8.145e+00,9.018e+00,8.410e+00,8.806e+00,8.182e+00,7.848e+00,1.160e+01,8.554e+00,1.088e+01,8.908e+00,1.044e+01,9.208e+00,8.791e+00,1.043e+01,1.044e+01,1.089e+01,9.711e+00,1.064e+01,9.130e+00,9.571e+00,7.409e+00,9.184e+00,1.096e+01,9.765e+00,1.123e+01,1.108e+01,9.775e+00,1.081e+01,9.790e+00,9.980e+00,9.619e+00,8.329e+00,8.941e+00,9.074e+00,1.108e+01,1.033e+01,9.899e+00,1.015e+01,1.109e+01,1.124e+01,9.482e+00,1.020e+01,1.084e+01,9.257e+00,8.174e+00,9.144e+00,1.190e+01,8.998e+00,9.495e+00,1.022e+01,9.500e+00,1.165e+01,1.042e+01,8.203e+00,1.058e+01,9.532e+00,1.250e+01,1.204e+01,9.117e+00,1.021e+01,1.073e+01,9.733e+00,9.292e+00,1.024e+01,9.379e+00,9.502e+00,1.097e+01
8.096e-03,5.719e-01,1.048e+00,9.945e-01,1.425e+00,1.700e+00,1.953e+00,2.446e+00,2.286e+00,2.007e+00,3.252e+00,2.472e+00,4.302e+00,3.291e+00,4.416e+00,3.784e+00,3.628e+00,3.321e+00,4.196e+00,5.402e+00,3.844e+00,6.601e+00,6.531e+00,6.318e+00,7.953e+00,5.977e+00,7.660e+00,8.272e+00,8.643e+00,6.783e+00,8.912e+00,8.869e+00,7.004e+00,9.778e+00,9.564e+00,1.077e+01,7.431e+00,1.081e+01,1.086e+01,9.848e+00,1.004e+01,9.957e+00,1.108e+01,9.796e+00,9.855e+00,9.290e+00,9.436e+00,9.534e+00,1.022e+01,1.016e+01,9.658e+00,1.019e+01,1.035e+01,9.149e+00,1.181e+01,8.785e+00,9.278e+00,9.576e+00,1.023e+01,8.495e+00,7.505e+00,1.097e+01,1.007e+01,9.115e+00,8.675e+00,1.044e+01,1.160e+01,9.788e+00,1.048e+01,1.123e+01,9.281e+00,9.277e+00,9.131e+00,1.137e+01,1.082e+01,9.765e+00,9.726e+00,9.215e+00,1.111e+01,1.017e+01,7.024e+00,8.715e+00,1.034e+01,1.116e+01,1.209e+01,9.587e+00,1.093e+01,1.183e+01,1.075e+01,9.554e+00,1.100e+01,8.970e+00,8.941e+00,1.029e+01
4.286e-02,4.663e-01,1.210e+00,1.170e+00,1.561e+00,1.933e+00,2.710e+00,3.663e+00,3.506e+00,2.678e+00,3.780e+00,3.485e+00,4.776e+00,3.996e+00,4.973e+00,4.479e+00,3.573e+00,3.966e+00,4.309e+00,6.794e+00,6.062e+00,8.097e+00,7.163e+00,7.718e+00,8.725e+00,6.674e+00,7.521e+00,8.822e+00,8.879e+00,7.925e+00,8.592e+00,8.545e+00,7.466e+00,9.497e+00,9.402e+00,8.846e+00,6.940e+00,8.695e+00,1.075e+01,9.593e+00,9.939e+00,9.918e+00,9.639e+00,9.786e+00,1.002e+01,8.375e+00,9.537e+00,7.637e+00,8.530e+00,1.116e+01,8.342e+00,1.074e+01,1.100e+01,9.460e+00,1.045e+01,8.777e+00,8.451e+00,1.035e+01,9.181e+00,9.923e+00,8.761e+00,9.201e+00,9.378e+00,8.745e+00,8.132e+00,1.030e+01,1.087e+01,8.337e+00,9.370e+00,1.056e+01,9.727e+00,9.722e+00,7.800e+00,1.126e+01,8.891e+00,9.653e+00,9.655e+00,8.720e+00,1.095e+01,8.877e+00,8.545e+00,8.360e+00,1.099e+01,1.093e+01,1.125e+01,8.479e+00,9.163e+00,1.145e+01,1.105e+01,9.676e+00,9.912e+00,8.716e+00,8.383e+00,1.033e+01
9.810e-02,4.637e-01,1.473e+00,1.311e+00,1.558e+00,1.540e+00,1.630e+00,2.242e+00,2.463e+00,2.027e+00,2.475e+00,2.625e+00,4.225e+00,3.428e+00,4.793e+00,3.872e+00,3.409e+00,2.480e+00,4.563e+00,6.226e+00,6.158e+00,7.622e+00,7.123e+00,6.585e+00,7.628e+00,6.408e+00,7.119e+00,7.929e+00,8.205e+00,8.094e+00,8.164e+00,8.419e+00,7.303e+00,1.007e+01,8.741e+00,9.136e+00,6.952e+00,9.863e+00,9.064e+00,9.979e+00,9.949e+00,1.085e+01,1.018e+01,1.001e+01,9.980e+00,9.208e+00,9.966e+00,8.311e+00,8.891e+00,1.028e+01,9.176e+00,1.054e+01,1.025e+01,9.914e+00,1.075e+01,8.031e+00,8.391e+00,9.442e+00,8.873e+00,8.791e+00,8.920e+00,9.153e+00,8.588e+00,8.562e+00,8.489e+00,9.968e+00,9.672e+00,9.167e+00,1.014e+01,1.081e+01,9.584e+00,1.063e+01,9.356e+00,1.108e+01,1.031e+01,1.018e+01,9.628e+00,9.017e+00,1.019e+01,9.357e+00,6.692e+00,9.626e+00,9.041e+00,1.028e+01,1.024e+01,9.052e+00,9.267e+00,1.091e+01,9.381e+00,9.109e+00,1.079e+01,1.022e+01,9.568e+00,9.941e+00
1.142e-01,6.080e-01,1.338e+00,1.328e+00,1.523e+00,2.293e+00,1.987e+00,3.239e+00,3.027e+00,2.945e+00,3.063e+00,3.057e+00,4.678e+00,4.366e+00,4.944e+00,4.832e+00,3.947e+00,3.398e+00,4.208e+00,6.835e+00,5.932e+00,7.709e+00,7.601e+00,7.524e+00,8.606e+00,7.639e+00,8.065e+00,8.853e+00,9.005e+00,7.741e+00,7.931e+00,9.015e+00,7.607e+00,1.134e+01,9.513e+00,9.855e+00,7.182e+00,1.004e+01,1.081e+01,1.154e+01,1.097e+01,1.033e+01,1.160e+01,1.057e+01,1.111e+01,1.025e+01,1.017e+01,9.756e+00,9.999e+00,1.071e+01,1.006e+01,1.172e+01,1.184e+01,9.514e+00,1.176e+01,9.356e+00,1.083e+01,1.070e+01,9.629e+00,9.283e+00,9.423e+00,1.105e+01,1.145e+01,9.953e+00,1.022e+01,1.113e+01,1.060e+01,9.635e+00,1.142e+01,1.297e+01,1.039e+01,1.040e+01,9.344e+00,1.228e+01,1.147e+01,9.664e+00,9.487e+00,9.618e+00,1.131e+01,1.010e+01,7.984e+00,1.079e+01,1.082e+01,1.150e+01,1.294e+01,9.713e+00,1.007e+01,1.203e+01,1.007e+01,9.210e+00,1.219e+01,1.034e+01,9.930e+00,1.016e+01
6.008e-02,1.337e-01,1.205e+00,9.575e-01,1.256e+00,9.169e-01,1.285e+00,1.861e+00,2.832e+00,1.845e+00,3.049e+00,2.484e+00,4.438e+00,3.490e+00,4.568e+00,3.830e+00,3.293e+00,2.967e+00,4.055e+00,4.736e+00,4.484e+00,5.195e+00,5.654e+00,5.226e+00,6.341e+00,4.195e+00,5.518e+00,5.759e+00,5.934e+00,6.126e+00,5.920e+00,6.987e+00,5.568e+00,8.468e+00,7.205e+00,8.290e+00,5.485e+00,8.847e+00,8.926e+00,9.365e+00,9.936e+00,1.056e+01,1.128e+01,9.209e+00,9.398e+00,8.399e+00,9.013e+00,9.500e+00,9.173e+00,1.032e+01,8.509e+00,1.108e+01,1.006e+01,8.852e+00,9.980e+00,8.912e+00,8.535e+00,1.025e+01,9.309e+00,9.006e+00,8.775e+00,9.953e+00,8.637e+00,9.802e+00,8.865e+00,1.062e+01,9.569e+00,9.886e+00,1.043e+01,1.022e+01,9.903e+00,9.306e+00,7.800e+00,9.906e+00,1.038e+01,8.639e+00,1.003e+01,8.872e+00,9.312e+00,9.320e+00,7.402e+00,8.843e+00,1.051e+01,1.057e+01,9.807e+00,8.071e+00,8.299e+00,1.008e+01,1.035e+01,8.299e+00,9.446e+00,1.014e+01,9.242e+00,9.543e+00
1.710e-01,3.372e-01,1.654e+00,1.679e+00,1.771e+00,2.138e+00,2.577e+00,3.480e+00,3.340e+00,2.584e+00,3.750e+00,3.006e+00,4.466e+00,3.633e+00,5.019e+00,5.041e+00,4.099e+00,4.115e+00,4.839e+00,7.849e+00,6.233e+00,8.644e+00,8.495e+00,7.796e+00,9.217e+00,8.303e+00,9.628e+00,9.194e+00,9.367e+00,9.573e+00,9.040e+00,9.374e+00,8.529e+00,1.154e+01,9.657e+00,1.076e+01,7.646e+00,1.044e+01,1.036e+01,1.041e+01,1.125e+01,1.188e+01,1.227e+01,1.080e+01,1.129e+01,9.545e+00,1.064e+01,1.035e+01,1.020e+01,1.212e+01,1.036e+01,1.300e+01,1.194e+01,1.160e+01,1.184e+01,1.036e+01,1.175e+01,1.244e+01,1.067e+01,9.467e+00,1.100e+01,1.151e+01,1.124e+01,1.096e+01,1.003e+01,1.206e+01,1.205e+01,1.000e+01,1.216e+01,1.278e+01,1.083e+01,1.067e+01,1.091e+01,1.273e+01,1.109e+01,1.163e+01,1.208e+01,1.052e+01,1.175e+01,1.053e+01,8.831e+00,1.096e+01,1.120e+01,1.270e+01,1.291e+01,1.031e+01,1.049e+01,1.181e+01,1.188e+01,1.023e+01,1.213e+01,1.073e+01,1.040e+01,1.176e+01
1.686e-02,5.911e-01,6.273e-01,6.641e-01,1.080e+00,1.782e+00,2.245e+00,2.989e+00,2.464e+00,1.737e+00,2.645e+00,2.150e+00,3.478e+00,2.683e+00,3.409e+00,3.364e+00,2.887e+00,2.699e+00,2.635e+00,4.388e+00,4.472e+00,5.447e+00,4.407e+00,4.969e+00,6.284e+00,4.618e+00,5.803e+00,5.793e+00,6.506e+00,4.597e+00,6.383e+00,6.605e+00,5.589e+00,6.776e+00,5.642e+00,6.547e+00,5.564e+00,8.063e+00,8.499e+00,8.239e+00,7.497e+00,9.326e+00,1.057e+01,8.994e+00,9.936e+00,7.586e+00,8.076e+00,9.055e+00,8.259e+00,9.017e+00,7.277e+00,1.010e+01,9.705e+00,8.440e+00,9.622e+00,8.059e+00,7.593e+00,8.788e+00,8.512e+00,7.403e+00,8.305e+00,9.086e+00,8.862e+00,7.178e+00,7.137e+00,9.166e+00,9.445e+00,9.035e+00,9.773e+00,9.158e+00,8.998e+00,9.223e+00,8.384e+00,1.008e+01,8.568e+00,8.111e+00,9.732e+00,8.627e+00,8.784e+00,8.776e+00,6.318e+00,7.525e+00,9.222e+00,9.824e+00,9.865e+00,8.994e+00,8.261e+00,9.288e+00,9.463e+00,9.073e+00,1.037e+01,7.996e+00,8.158e+00,9.437e+00
3.569e-02,2.595e-01,5.435e-01,5.978e-01,7.972e-01,1.245e+00,1.686e+00,2.295e+00,2.227e+00,1.762e+00,2.677e+00,2.243e+00,3.760e+00,3.109e+00,4.013e+00,3.888e+00,3.077e+00,2.913e+00,4.313e+00,6.081e+00,5.805e+00,7.908e+00,6.494e+00,6.856e+00,7.752e+00,6.442e+00,7.982e+00,8.490e+00,8.386e+00,7.373e+00,8.478e+00,8.354e+00,7.874e+00,1.040e+01,9.926e+00,1.096e+01,8.380e+00,1.151e+01,1.113e+01,1.052e+01,1.148e+01,1.151e+01,1.278e+01,1.079e+01,1.101e+01,1.087e+01,1.112e+01,9.965e+00,1.086e+01,1.307e+01,1.022e+01,1.310e+01,1.251e+01,1.260e+01,1.183e+01,1.082e+01,1.079e+01,1.124e+01,1.121e+01,9.756e+00,9.530e+00,1.195e+01,1.150e+01,9.857e+00,1.094e+01,1.179e+01,1.226e+01,1.132e+01,1.304e+01,1.333e+01,1.069e+01,1.136e+01,1.065e+01,1.348e+01,1.074e+01,1.164e+01,1.339e+01,1.086e+01,1.207e+01,1.184e+01,8.039e+00,1.068e+01,1.185e+01,1.311e+01,1.210e+01,1.071e+01,1.215e+01,1.295e+01,1.200e+01,1.120e+01,1.266e+01,1.100e+01,1.081e+01,1.150e+01
2.626e-02,2.798e-01,6.073e-01,6.218e-01,9.685e-01,1.567e+00,1.453e+00,2.356e+00,2.600e+00,2.196e+00,2.592e+00,2.487e+00,4.136e+00,3.660e+00,4.229e+00,3.928e+00,3.231e+00,2.989e+00,3.917e+00,5.672e+00,6.319e+00,7.522e+00,6.051e+00,6.860e+00,7.692e+00,6.791e+00,7.766e+00,8.484e+00,8.892e+00,6.571e+00,7.908e+00,8.205e+00,6.895e+00,9.213e+00,8.319e+00,8.501e+00,6.864e+00,8.793e+00,9.803e+00,1.017e+01,9.892e+00,1.045e+01,1.251e+01,1.058e+01,1.128e+01,1.106e+01,1.050e+01,1.171e+01,1.064e+01,1.141e+01,1.043e+01,1.220e+01,1.250e+01,1.217e+01,1.087e+01,1.056e+01,1.146e+01,1.120e+01,1.118e+01,1.011e+01,1.130e+01,1.110e+01,1.116e+01,9.779e+00,9.832e+00,1.133e+01,1.035e+01,1.100e+01,1.228e+01,1.258e+01,1.149e+01,1.082e+01,1.064e+01,1.360e+01,1.084e+01,1.076e+01,1.224e+01,1.091e+01,1.018e+01,1.127e+01,7.743e+00,1.042e+01,1.280e+01,1.285e+01,1.256e+01,1.056e+01,9.840e+00,1.175e+01,1.088e+01,1.153e+01,1.279e+01,1.107e+01,1.103e+01,1.097e+01
5.210e-02,1.547e-01,9.997e-01,7.893e-01,1.227e+00,1.518e+00,1.683e+00,2.998e+00,3.588e+00,2.769e+00,3.367e+00,3.067e+00,4.925e+00,4.272e+00,5.243e+00,5.241e+00,4.099e+00,4.073e+00,4.665e+00,6.799e+00,6.526e+00,7.970e+00,7.188e+00,7.406e+00,8.211e+00,7.108e+00,8.176e+00,8.966e+00,9.317e+00,8.717e+00,8.597e+00,9.162e+00,7.793e+00,1.162e+01,1.073e+01,1.078e+01,8.389e+00,1.066e+01,1.097e+01,1.164e+01,1.150e+01,1.200e+01,1.411e+01,1.192e+01,1.278e+01,1.109e+01,1.234e+01,1.149e+01,1.271e+01,1.384e+01,1.142e+01,1.449e+01,1.366e+01,1.260e+01,1.192e+01,1.278e+01,1.302e+01,1.396e+01,1.222e+01,1.148e+01,1.222e+01,1.344e+01,1.188e+01,1.248e+01,1.136e+01,1.435e+01,1.277e+01,1.234e+01,1.358e+01,1.445e+01,1.167e+01,1.163e+01,1.086e+01,1.435e+01,1.233e+01,1.245e+01,1.248e+01,1.219e+01,1.320e+01,1.179e+01,1.080e+01,1.052e+01,1.358e+01,1.471e+01,1.397e+01,1.147e+01,1.106e+01,1.429e+01,1.370e+01,1.103e+01,1.408e+01,1.189e+01,1.195e+01,1.199e+01
1.882e-01,1.943e-01,1.019e+00,1.119e+00,8.523e-01,1.192e+00,1.250e+00,1.987e+00,1.944e+00,1.834e+00,1.746e+00,2.036e+00,3.355e+00,2.949e+00,4.007e+00,3.818e+00,2.162e+00,3.239e+00,2.681e+00,4.481e+00,5.401e+00,6.721e+00,5.336e+00,5.182e+00,6.441e+00,5.483e+00,6.136e+00,6.283e+00,6.591e+00,5.993e+00,6.648e+00,7.185e+00,6.211e+00,8.538e+00,7.657e+00,8.086e+00,5.599e+00,7.579e+00,8.812e+00,9.500e+00,8.392e+00,8.683e+00,1.015e+01,9.287e+00,8.953e+00,9.592e+00,9.607e+00,8.513e+00,1.019e+01,1.043e+01,9.754e+00,1.088e+01,1.018e+01,1.007e+01,9.163e+00,1.013e+01,1.019e+01,1.093e+01,9.503e+00,9.734e+00,8.776e+00,1.019e+01,1.058e+01,9.411e+00,9.452e+00,1.169e+01,1.026e+01,8.562e+00,1.148e+01,1.181e+01,1.042e+01,1.047e+01,9.540e+00,1.140e+01,1.008e+01,1.064e+01,1.039e+01,1.081e+01,9.675e+00,9.546e+00,7.362e+00,8.778e+00,9.740e+00,1.074e+01,1.163e+01,9.384e+00,9.042e+00,1.076e+01,9.852e+00,8.357e+00,1.146e+01,8.651e+00,9.969e+00,9.379e+00
5.950e-02,5.800e-01,7.904e-01,8.460e-01,9.850e-01,1.600e+00,2.320e+00,3.005e+00,2.433e+00,1.629e+00,2.852e+00,2.023e+00,3.091e+00,2.447e+00,3.687e+00,3.111e+00,2.896e+00,2.741e+00,2.884e+00,5.381e+00,4.549e+00,5.732e+00,5.798e+00,5.721e+00,6.822e+00,5.943e+00,6.529e+00,6.799e+00,6.445e+00,6.853e+00,7.567e+00,6.527e+00,6.391e+00,8.702e+00,8.123e+00,8.689e+00,6.895e+00,9.043e+00,9.049e+00,1.012e+01,9.732e+00,1.047e+01,1.111e+01,9.860e+00,1.092e+01,9.307e+00,1.113e+01,9.749e+00,1.012e+01,1.191e+01,1.009e+01,1.296e+01,1.081e+01,1.260e+01,1.227e+01,1.073e+01,1.068e+01,1.242e+01,1.145e+01,1.050e+01,1.052e+01,1.076e+01,1.003e+01,1.062e+01,1.007e+01,1.151e+01,1.186e+01,1.140e+01,1.197e+01,1.240e+01,1.054e+01,1.089e+01,1.071e+01,1.356e+01,1.114e+01,1.105e+01,1.334e+01,1.119e+01,1.139e+01,1.119e+01,8.739e+00,1.031e+01,1.038e+01,1.222e+01,1.333e+01,9.820e+00,1.041e+01,1.234e+01,1.187e+01,1.052e+01,1.280e+01,1.124e+01,1.091e+01,1.088e+01
5.609e-02,5.414e-01,1.161e+00,1.123e+00,1.311e+00,1.895e+00,1.694e+00,2.645e+00,2.396e+00,2.320e+00,2.965e+00,2.537e+00,3.504e+00,3.508e+00,3.900e+00,3.630e+00,3.224e+00,3.207e+00,3.460e+00,5.951e+00,3.983e+00,5.738e+00,6.776e+00,6.535e+00,8.052e+00,6.576e+00,7.224e+00,8.261e+00,6.808e+00,6.968e+00,6.927e+00,7.380e+00,6.396e+00,9.270e+00,8.823e+00,8.807e+00,6.073e+00,8.960e+00,9.259e+00,9.448e+00,9.553e+00,9.178e+00,9.973e+00,9.656e+00,1.087e+01,9.813e+00,9.583e+00,1.013e+01,1.098e+01,1.057e+01,1.111e+01,1.230e+01,1.087e+01,1.162e+01,1.129e+01,9.982e+00,1.181e+01,1.094e+01,1.079e+01,1.051e+01,8.527e+00,1.133e+01,1.166e+01,1.131e+01,1.044e+01,1.112e+01,1.114e+01,9.676e+00,1.247e+01,1.216e+01,9.882e+00,1.063e+01,1.006e+01,1.209e+01,1.236e+01,9.700e+00,1.110e+01,9.539e+00,1.091e+01,1.083e+01,8.259e+00,1.108e+01,1.076e+01,1.151e+01,1.315e+01,9.568e+00,1.104e+01,1.229e+01,1.132e+01,1.045e+01,1.092e+01,1.067e+01,1.085e+01,1.069e+01
1.794e-01,7.142e-01,1.568e+00,1.490e+00,1.520e+00,2.097e+00,2.331e+00,3.618e+00,3.245e+00,3.066e+00,3.503e+00,2.963e+00,5.353e+00,4.295e+00,5.590e+00,5.402e+00,4.099e+00,4.453e+00,4.262e+00,6.846e+00,6.221e+00,8.262e+00,7.169e+00,7.648e+00,8.434e+00,7.355e+00,8.438e+00,8.497e+00,9.209e+00,9.449e+00,9.307e+00,9.464e+00,8.698e+00,1.184e+01,9.116e+00,1.103e+01,8.506e+00,1.099e+01,1.112e+01,1.146e+01,1.162e+01,1.230e+01,1.310e+01,1.230e+01,1.220e+01,1.139e+01,1.295e+01,1.205e+01,1.378e+01,1.327e+01,1.350e+01,1.518e+01,1.307e+01,1.412e+01,1.383e+01,1.436e+01,1.452e+01,1.366e+01,1.216e+01,1.250e+01,1.237e+01,1.474e+01,1.492e+01,1.480e+01,1.412e+01,1.541e+01,1.592e+01,1.310e+01,1.662e+01,1.485e+01,1.297e+01,1.233e+01,1.399e+01,1.617e+01,1.446e+01,1.428e+01,1.392e+01,1.440e+01,1.404e+01,1.389e+01,1.010e+01,1.349e+01,1.377e+01,1.450e+01,1.671e+01,1.424e+01,1.257e+01,1.355e+01,1.416e+01,1.218e+01,1.452e+01,1.301e+01,1.381e+01,1.303e+01
4.336e-02,4.734e-01,5.424e-01,5.550e-01,7.557e-01,1.594e+00,1.370e+00,2.360e+00,1.816e+00,2.075e+00,2.383e+00,2.215e+00,3.812e+00,3.328e+00,3.654e+00,3.540e+00,2.978e+00,2.556e+00,3.947e+00,5.749e+00,4.327e+00,6.396e+00,5.780e+00,6.246e+00,6.732e+00,6.372e+00,7.925e+00,8.614e+00,8.624e+00,8.318e+00,8.714e+00,8.389e+00,7.167e+00,9.846e+00,8.555e+00,9.503e+00,7.374e+00,9.268e+00,9.726e+00,9.552e+00,1.093e+01,1.174e+01,1.151e+01,9.460e+00,1.034e+01,1.073e+01,1.172e+01,1.123e+01,1.127e+01,1.177e+01,1.073e+01,1.499e+01,1.234e+01,1.442e+01,1.393e+01,1.229e+01,1.301e+01,1.300e+01,1.283e+01,1.154e+01,1.151e+01,1.374e+01,1.145e+01,1.285e+01,1.333e+01,1.335e+01,1.510e+01,1.280e+01,1.429e+01,1.418e+01,1.147e+01,1.036e+01,1.303e+01,1.444e+01,1.235e+01,1.250e+01,1.271e+01,1.238e+01,1.266e+01,1.283e+01,1.112e+01,1.352e+01,1.355e+01,1.373e+01,1.389e+01,1.057e+01,1.187e+01,1.278e+01,1.323e+01,1.145e+01,1.443e+01,1.315e+01,1.193e+01,1.269e+01
6.262e-02,2.597e-01,1.273e+00,9.760e-01,1.126e+00,8.467e-01,9.728e-01,1.655e+00,2.443e+00,1.935e+00,2.420e+00,1.900e+00,3.160e+00,2.570e+00,3.864e+00,3.266e+00,3.175e+00,2.337e+00,3.965e+00,5.018e+00,3.657e+00,5.671e+00,6.075e+00,5.361e+00,6.761e+00,5.408e+00,6.932e+00,7.700e+00,6.858e+00,7.594e+00,6.343e+00,7.000e+00,6.897e+00,9.708e+00,9.153e+00,8.990e+00,6.997e+00,8.818e+00,9.574e+00,9.505e+00,1.109e+01,1.086e+01,1.136e+01,9.296e+00,1.063e+01,9.898e+00,1.004e+01,1.075e+01,1.055e+01,1.168e+01,1.003e+01,1.398e+01,1.267e+01,1.291e+01,1.263e+01,1.058e+01,1.192e+01,1.169e+01,9.454e+00,1.126e+01,9.182e+00,1.305e+01,1.149e+01,1.277e+01,1.173e+01,1.187e+01,1.317e+01,1.163e+01,1.326e+01,1.334e+01,1.047e+01,1.082e+01,1.143e+01,1.300e+01,1.249e+01,1.101e+01,1.171e+01,1.174e+01,1.302e+01,1.166e+01,1.063e+01,1.247e+01,1.138e+01,1.238e+01,1.235e+01,1.055e+01,1.015e+01,1.303e+01,1.185e+01,1.041e+01,1.331e+01,1.211e+01,1.165e+01,1.050e+01
1.552e-01,2.917e-01,1.481e+00,1.340e+00,1.365e+00,1.419e+00,1.350e+00,2.130e+00,2.007e+00,2.182e+00,2.226e+00,1.911e+00,3.261e+00,2.320e+00,3.987e+00,3.393e+00,2.785e+00,2.890e+00,3.733e+00,5.490e+00,4.703e+00,7.114e+00,5.709e+00,6.163e+00,7.388e+00,6.712e+00,8.279e+00,8.570e+00,8.843e+00,7.911e+00,7.981e+00,7.697e+00,7.387e+00,9.594e+00,9.243e+00,9.033e+00,7.590e+00,8.889e+00,9.364e+00,9.781e+00,1.075e+01,1.115e+01,1.226e+01,9.777e+00,1.046e+01,1.074e+01,1.082e+01,1.135e+01,1.145e+01,1.256e+01,1.116e+01,1.475e+01,1.315e+01,1.353e+01,1.219e+01,1.112e+01,1.322e+01,1.262e+01,1.232e+01,1.125e+01,1.108e+01,1.313e+01,1.261e+01,1.215e+01,1.155e+01,1.294e+01,1.384e+01,1.218e+01,1.427e+01,1.322e+01,1.264e+01,1.105e+01,1.327e+01,1.488e+01,1.241e+01,1.216e+01,1.240e+01,1.196e+01,1.346e+01,1.169e+01,1.195e+01,1.255e+01,1.249e+01,1.314e+01,1.320e+01,1.158e+01,1.144e+01,1.256e+01,1.334e+01,1.137e+01,1.417e+01,1.134e+01,1.221e+01,1.165e+01
9.345e-04,5.914e-01,9.357e-01,9.012e-01,1.468e+00,2.102e+00,2.473e+00,3.338e+00,2.872e+00,2.358e+00,3.436e+00,2.694e+00,4.243e+00,3.335e+00,4.604e+00,4.076e+00,3.610e+00,2.812e+00,3.441e+00,5.526e+00,4.688e+00,5.811e+00,5.546e+00,6.129e+00,6.771e+00,5.920e+00,6.113e+00,6.630e+00,7.338e+00,6.030e+00,7.107e+00,6.780e+00,6.418e+00,9.090e+00,7.184e+00,7.752e+00,6.208e+00,8.762e+00,8.519e+00,9.683e+00,1.014e+01,9.697e+00,1.189e+01,1.032e+01,1.158e+01,9.461e+00,1.028e+01,1.071e+01,1.047e+01,1.252e+01,1.086e+01,1.484e+01,1.208e+01,1.371e+01,1.274e+01,1.356e+01,1.338e+01,1.284e+01,1.135e+01,1.232e+01,1.123e+01,1.319e+01,1.332e+01,1.193e+01,1.224e+01,1.353e+01,1.383e+01,1.364e+01,1.461e+01,1.371e+01,1.204e+01,1.256e+01,1.252e+01,1.456e+01,1.376e+01,1.218e+01,1.481e+01,1.322e+01,1.201e+01,1.319e+01,1.114e+01,1.372e+01,1.259e+01,1.420e+01,1.561e+01,1.281e+01,1.247e+01,1.347e+01,1.381e+01,1.246e+01,1.442e+01,1.325e+01,1.254e+01,1.251e+01
1.378e-01,2.717e-01,1.648e+00,1.530e+00,1.793e+00,1.934e+00,2.323e+00,3.337e+00,3.281e+00,2.931e+00,3.855e+00,2.990e+00,4.814e+00,3.479e+00,4.714e+00,4.431e+00,3.012e+00,3.386e+00,4.119e+00,6.162e+00,4.516e+00,6.284e+00,5.380e+00,5.790e+00,7.413e+00,6.045e+00,6.769e+00,5.666e+00,6.583e+00,6.571e+00,6.621e+00,7.356e+00,6.501e+00,8.367e+00,7.433e+00,9.045e+00,6.102e+00,9.165e+00,8.406e+00,1.001e+01,9.614e+00,1.049e+01,1.240e+01,1.058e+01,9.819e+00,1.000e+01,9.736e+00,1.004e+01,9.965e+00,1.254e+01,1.034e+01,1.460e+01,1.097e+01,1.274e+01,1.301e+01,1.376e+01,1.322e+01,1.377e+01,1.379e+01,1.184e+01,1.097e+01,1.381e+01,1.398e+01,1.139e+01,1.219e+01,1.359e+01,1.466e+01,1.368e+01,1.552e+01,1.402e+01,1.260e+01,1.360e+01,1.272e+01,1.394e+01,1.478e+01,1.200e+01,1.545e+01,1.257e+01,1.227e+01,1.306e+01,1.175e+01,1.330e+01,1.250e+01,1.413e+01,1.487e+01,1.206e+01,1.338e+01,1.324e+01,1.420e+01,1.216e+01,1.373e+01,1.263e+01,1.255e+01,1.326e+01
1.458e-01,4.357e-01,1.441e+00,1.386e+00,1.315e+00,1.648e+00,1.845e+00,2.856e+00,3.079e+00,2.472e+00,3.248e+00,2.793e+00,4.234e+00,3.944e+00,4.852e+00,4.668e+00,3.934e+00,4.139e+00,4.188e+00,6.236e+00,5.080e+00,7.240e+00,7.426e+00,6.919e+00,7.711e+00,5.983e+00,6.865e+00,7.758e+00,7.777e+00,8.278e+00,8.189e+00,8.434e+00,7.946e+00,1.116e+01,9.899e+00,9.766e+00,6.707e+00,1.021e+01,1.030e+01,1.023e+01,1.107e+01,1.113e+01,1.207e+01,1.128e+01,1.217e+01,9.478e+00,1.068e+01,1.112e+01,1.194e+01,1.251e+01,1.205e+01,1.351e+01,1.268e+01,1.269e+01,1.342e+01,1.366e+01,1.521e+01,1.467e+01,1.401e+01,1.357e+01,1.194e+01,1.434e+01,1.564e+01,1.433e+01,1.363e+01,1.527e+01,1.450e+01,1.439e+01,1.505e+01,1.633e+01,1.495e+01,1.461e+01,1.294e+01,1.537e+01,1.582e+01,1.414e+01,1.418e+01,1.486e+01,1.529e+01,1.328e+01,1.069e+01,1.473e+01,1.385e+01,1.423e+01,1.671e+01,1.379e+01,1.313e+01,1.607e+01,1.519e+01,1.277e+01,1.494e+01,1.332e+01,1.429e+01,1.274e+01
1.826e-01,2.637e-01,1.414e+00,1.319e+00,1.194e+00,1.292e+00,1.758e+00,2.629e+00,2.399e+00,1.986e+00,2.665e+00,2.175e+00,3.362e+00,2.692e+00,3.669e+00,3.008e+00,2.243e+00,2.604e+00,2.882e+00,4.780e+00,3.500e+00,4.583e+00,4.850e+00,4.781e+00,5.926e+00,5.596e+00,6.592e+00,6.155e+00,6.012e+00,6.680e+00,5.419e+00,5.998e+00,5.735e+00,8.677e+00,6.899e+00,7.891e+00,6.011e+00,8.101e+00,9.606e+00,8.611e+00,9.015e+00,1.012e+01,1.173e+01,9.403e+00,8.998e+00,9.057e+00,1.011e+01,1.116e+01,1.044e+01,1.169e+01,1.020e+01,1.410e+01,1.206e+01,1.288e+01,1.322e+01,1.302e+01,1.345e+01,1.342e+01,1.370e+01,1.150e+01,1.230e+01,1.366e+01,1.500e+01,1.413e+01,1.264e+01,1.427e+01,1.642e+01,1.448e+01,1.495e+01,1.437e+01,1.335e+01,1.335e+01,1.304e+01,1.481e+01,1.375e+01,1.247e+01,1.559e+01,1.426e+01,1.300e+01,1.434e+01,1.265e+01,1.413e+01,1.234e+01,1.379e+01,1.525e+01,1.246e+01,1.399e+01,1.262e+01,1.536e+01,1.224e+01,1.367e+01,1.307e+01,1.379e+01,1.267e+01
8.295e-02,4.996e-01,6.855e-01,7.463e-01,7.350e-01,1.253e+00,1.594e+00,2.307e+00,2.300e+00,1.771e+00,2.430e+00,2.610e+00,4.435e+00,4.140e+00,4.624e+00,4.435e+00,3.213e+00,3.235e+00,4.019e+00,5.634e+00,5.455e+00,7.042e+00,6.677e+00,6.091e+00,7.413e+00,5.748e+00,6.047e+00,7.165e+00,7.493e+00,7.924e+00,7.558e+00,7.704e+00,7.877e+00,9.928e+00,8.765e+00,9.826e+00,6.813e+00,1.010e+01,1.114e+01,1.111e+01,1.085e+01,1.272e+01,1.189e+01,1.095e+01,1.095e+01,9.652e+00,1.287e+01,1.166e+01,1.266e+01,1.313e+01,1.205e+01,1.402e+01,1.300e+01,1.503e+01,1.360e+01,1.454e+01,1.326e+01,1.594e+01,1.686e+01,1.458e+01,1.402e+01,1.341e+01,1.468e+01,1.415e+01,1.492e+01,1.606e+01,1.671e+01,1.613e+01,1.741e+01,1.711e+01,1.513e+01,1.572e+01,1.393e+01,1.598e+01,1.577e+01,1.480e+01,1.591e+01,1.589e+01,1.412e+01,1.472e+01,1.145e+01,1.467e+01,1.565e+01,1.536e+01,1.660e+01,1.393e+01,1.477e+01,1.608e+01,1.739e+01,1.471e+01,1.711e+01,1.674e+01,1.544e+01,1.457e+01
1.405e-01,5.244e-01,1.035e+00,1.162e+00,1.017e+00,1.502e+00,2.067e+00,2.671e+00,2.101e+00,1.707e+00,2.464e+00,2.476e+00,3.785e+00,3.435e+00,4.547e+00,3.857e+00,3.233e+00,3.498e+00,3.727e+00,6.167e+00,6.049e+00,7.678e+00,7.580e+00,7.262e+00,8.705e+00,6.939e+00,7.479e+00,9.122e+00,8.906e+00,8.008e+00,7.724e+00,7.800e+00,7.968e+00,1.054e+01,8.774e+00,8.756e+00,7.419e+00,8.992e+00,1.098e+01,1.092e+01,1.146e+01,1.138e+01,1.195e+01,1.147e+01,1.173e+01,1.096e+01,1.248e+01,1.158e+01,1.144e+01,1.357e+01,1.164e+01,1.517e+01,1.410e+01,1.433e+01,1.365e+01,1.382e+01,1.477e+01,1.504e+01,1.527e+01,1.455e+01,1.365e+01,1.451e+01,1.694e+01,1.366e+01,1.503e+01,1.564e+01,1.710e+01,1.488e+01,1.639e+01,1.682e+01,1.617e+01,1.484e+01,1.402e+01,1.687e+01,1.535e+01,1.462e+01,1.577e+01,1.558e+01,1.597e+01,1.487e+01,1.301e+01,1.600e+01,1.589e+01,1.548e+01,1.771e+01,1.476e+01,1.430e+01,1.537e+01,1.755e+01,1.383e+01,1.563e+01,1.565e+01,1.522e+01,1.468e+01
3.522e-02,5.590e-01,1.203e+00,1.048e+00,1.494e+00,1.688e+00,1.882e+00,2.466e+00,2.256e+00,2.086e+00,3.061e+00,2.275e+00,4.239e+00,3.060e+00,4.744e+00,4.241e+00,3.811e+00,3.290e+00,4.054e+00,5.647e+00,4.767e+00,7.306e+00,6.805e+00,7.393e+00,7.851e+00,6.444e+00,7.580e+00,7.995e+00,7.494e+00,7.687e+00,8.083e+00,7.478e+00,7.592e+00,9.303e+00,8.340e+00,9.632e+00,6.821e+00,9.433e+00,9.653e+00,9.824e+00,1.198e+01,1.140e+01,1.171e+01,1.058e+01,1.157e+01,1.088e+01,1.206e+01,1.129e+01,1.265e+01,1.365e+01,1.191e+01,1.563e+01,1.295e+01,1.599e+01,1.555e+01,1.499e+01,1.507e+01,1.471e+01,1.608e+01,1.557e+01,1.223e+01,1.644e+01,1.784e+01,1.560e+01,1.665e+01,1.674e+01,1.899e+01,1.563e+01,1.891e+01,1.773e+01,1.437e+01,1.537e+01,1.585e+01,1.716e+01,1.731e+01,1.626e+01,1.744e+01,1.638e+01,1.564e+01,1.625e+01,1.423e+01,1.618e+01,1.494e+01,1.558e+01,1.961e+01,1.513e+01,1.477e+01,1.585e+01,1.792e+01,1.619e+01,1.676e+01,1.717e+01,1.613e+01,1.625e+01
1.435e-02,4.732e-01,2.774e-01,4.024e-01,6.288e-01,1.536e+00,2.045e+00,2.997e+00,2.947e+00,2.082e+00,3.054e+00,2.502e+00,4.287e+00,3.783e+00,4.510e+00,4.254e+00,3.504e+00,3.352e+00,3.578e+00,6.026e+00,5.791e+00,6.327e+00,6.119e+00,6.226e+00,7.786e+00,5.985e+00,6.967e+00,7.559e+00,7.826e+00,7.334e+00,6.990e+00,7.119e+00,6.960e+00,1.018e+01,8.759e+00,8.849e+00,7.482e+00,9.247e+00,1.116e+01,1.056e+01,1.052e+01,1.203e+01,1.246e+01,1.179e+01,1.363e+01,1.062e+01,1.233e+01,1.177e+01,1.270e+01,1.448e+01,1.179e+01,1.509e+01,1.332e+01,1.496e+01,1.400e+01,1.467e+01,1.387e+01,1.580e+01,1.481e+01,1.420e+01,1.464e+01,1.471e+01,1.513e+01,1.499e+01,1.451e+01,1.776e+01,1.744e+01,1.715e+01,1.614e+01,1.780e+01,1.517e+01,1.445e+01,1.194e+01,1.704e+01,1.481e+01,1.558e+01,1.656e+01,1.677e+01,1.480e+01,1.673e+01,1.331e+01,1.481e+01,1.604e+01,1.533e+01,1.719e+01,1.452e+01,1.410e+01,1.649e+01,1.739e+01,1.532e+01,1.556e+01,1.613e+01,1.565e+01,1.532e+01
1.852e-01,5.736e-01,1.648e+00,1.473e+00,1.276e+00,1.454e+00,1.507e+00,2.692e+00,2.730e+00,2.607e+00,2.168e+00,2.924e+00,4.020e+00,3.666e+00,4.201e+00,3.537e+00,2.234e+00,2.698e+00,3.919e+00,6.083e+00,5.123e+00,6.770e+00,5.769e+00,5.470e+00,7.077e+00,6.114e+00,7.255e+00,7.738e+00,7.140e+00,8.087e+00,8.257e+00,9.266e+00,7.057e+00,9.261e+00,8.862e+00,1.000e+01,7.417e+00,1.029e+01,1.015e+01,1.007e+01,1.035e+01,1.263e+01,1.194e+01,1.007e+01,9.922e+00,9.513e+00,1.026e+01,1.046e+01,1.085e+01,1.210e+01,1.004e+01,1.333e+01,1.205e+01,1.347e+01,1.373e+01,1.366e+01,1.267e+01,1.395e+01,1.414e+01,1.339e+01,1.238e+01,1.347e+01,1.505e+01,1.342e+01,1.376e+01,1.555e+01,1.666e+01,1.504e+01,1.775e+01,1.544e+01,1.487e+01,1.594e+01,1.438e+01,1.672e+01,1.521e+01,1.470e+01,1.538e+01,1.588e+01,1.524e+01,1.450e+01,1.197e+01,1.498e+01,1.398e+01,1.600e+01,1.659e+01,1.521e+01,1.545e+01,1.560e+01,1.567e+01,1.429e+01,1.659e+01,1.433e+01,1.473e+01,1.480e+01
1.891e-01,2.291e-01,1.815e+00,1.563e+00,1.561e+00,1.490e+00,1.753e+00,2.938e+00,3.311e+00,2.533e+00,2.913e+00,3.021e+00,4.085e+00,3.576e+00,4.480e+00,4.630e+00,3.365e+00,3.614e+00,4.500e+00,6.386e+00,5.364e+00,7.589e+00,7.046e+00,6.458e+00,7.943e+00,6.000e+00,7.740e+00,8.350e+00,7.704e+00,8.311e+00,7.661e+00,8.531e+00,8.047e+00,9.761e+00,9.590e+00,9.769e+00,7.150e+00,1.128e+01,1.001e+01,9.678e+00,1.033e+01,1.228e+01,1.260e+01,1.058e+01,1.071e+01,1.000e+01,1.100e+01,1.120e+01,1.213e+01,1.267e+01,1.184e+01,1.545e+01,1.248e+01,1.386e+01,1.353e+01,1.334e+01,1.304e+01,1.422e+01,1.502e+01,1.395e+01,1.153e+01,1.591e+01,1.709e+01,1.428e+01,1.641e+01,1.687e+01,1.775e+01,1.431e+01,1.805e+01,1.581e+01,1.540e+01,1.736e+01,1.574e+01,1.638e+01,1.770e+01,1.632e+01,1.502e+01,1.500e+01,1.650e+01,1.600e+01,1.457e+01,1.612e+01,1.399e+01,1.811e+01,1.616e+01,1.555e+01,1.724e+01,1.647e+01,1.647e+01,1.491e+01,1.598e+01,1.548e+01,1.582e+01,1.602e+01
7.619e-02,2.205e-01,1.345e+00,1.226e+00,1.580e+00,1.616e+00,1.653e+00,2.220e+00,2.657e+00,2.002e+00,3.248e+00,2.493e+00,4.238e+00,3.319e+00,4.365e+00,3.523e+00,3.691e+00,3.084e+00,4.856e+00,6.251e+00,5.710e+00,7.400e+00,6.688e+00,7.411e+00,7.625e+00,6.518e+00,8.581e+00,8.649e+00,8.810e+00,8.745e+00,9.545e+00,9.134e+00,7.010e+00,1.070e+01,1.054e+01,1.049e+01,7.602e+00,1.059e+01,1.123e+01,1.217e+01,1.147e+01,1.194e+01,1.333e+01,1.225e+01,1.255e+01,1.222e+01,1.180e+01,1.327e+01,1.325e+01,1.354e+01,1.290e+01,1.547e+01,1.476e+01,1.469e+01,1.526e+01,1.452e+01,1.507e+01,1.576e+01,1.763e+01,1.624e+01,1.391e+01,1.685e+01,1.660e+01,1.820e+01,1.694e+01,1.849e+01,1.962e+01,1.643e+01,1.809e+01,1.847e+01,1.694e+01,1.783e+01,1.680e+01,1.901e+01,1.866e+01,1.883e+01,1.890e+01,1.653e+01,1.683e+01,1.831e+01,1.511e+01,1.606e+01,1.843e+01,1.780e+01,1.955e+01,1.673e+01,1.651e+01,1.822e+01,1.902e+01,1.704e+01,1.824e+01,1.759e+01,1.806e+01,1.644e+01
4.104e-02,5.668e-01,1.136e+00,8.842e-01,1.082e+00,1.218e+00,1.412e+00,2.486e+00,2.636e+00,2.602e+00,2.823e+00,2.815e+00,4.490e+00,4.008e+00,4.882e+00,4.360e+00,3.491e+00,3.747e+00,4.245e+00,5.915e+00,4.995e+00,7.026e+00,6.709e+00,6.847e+00,7.282e+00,5.352e+00,5.902e+00,7.939e+00,8.084e+00,7.721e+00,6.978e+00,7.666e+00,7.375e+00,9.045e+00,8.348e+00,8.337e+00,6.142e+00,8.676e+00,9.940e+00,9.804e+00,1.040e+01,1.096e+01,1.178e+01,1.112e+01,1.109e+01,9.412e+00,1.291e+01,1.235e+01,1.364e+01,1.317e+01,1.150e+01,1.439e+01,1.287e+01,1.412e+01,1.235e+01,1.350e+01,1.440e+01,1.390e+01,1.501e+01,1.468e+01,1.341e+01,1.435e+01,1.519e+01,1.571e+01,1.649e+01,1.679e+01,1.961e+01,1.717e+01,1.690e+01,1.904e+01,1.622e+01,1.526e+01,1.486e+01,1.791e+01,1.680e+01,1.663e+01,1.673e+01,1.572e+01,1.702e+01,1.688e+01,1.456e+01,1.537e+01,1.543e+01,1.657e+01,1.853e+01,1.620e+01,1.493e+01,1.627e+01,1.847e+01,1.606e+01,1.599e+01,1.703e+01,1.552e+01,1.573e+01
5.600e-02,5.628e-01,1.415e+00,1.326e+00,1.725e+00,2.071e+00,2.090e+00,2.910e+00,3.182e+00,2.677e+00,3.973e+00,2.796e+00,5.009e+00,4.015e+00,5.223e+00,4.892e+00,4.241e+00,3.583e+00,4.598e+00,6.450e+00,4.762e+00,6.339e+00,7.040e+00,6.526e+00,8.443e+00,6.619e+00,8.142e+00,7.815e+00,7.913e+00,8.125e+00,8.654e+00,8.539e+00,7.348e+00,1.146e+01,9.067e+00,1.052e+01,7.156e+00,1.063e+01,1.095e+01,1.237e+01,1.210e+01,1.267e+01,1.320e+01,1.272e+01,1.238e+01,1.316e+01,1.332e+01,1.316e+01,1.399e+01,1.362e+01,1.292e+01,1.667e+01,1.443e+01,1.628e+01,1.563e+01,1.397e+01,1.560e+01,1.593e+01,1.559e+01,1.479e+01,1.392e+01,1.697e+01,1.682e+01,1.704e+01,1.777e+01,1.891e+01,2.021e+01,1.914e+01,1.934e+01,1.889e+01,1.688e+01,1.636e+01,1.625e+01,1.848e+01,1.816e+01,1.824e+01,1.837e+01,1.923e+01,1.738e+01,1.783e+01,1.593e+01,1.728e+01,1.754e+01,1.806e+01,1.997e+01,1.728e+01,1.682e+01,1.762e+01,1.955e+01,1.723e+01,1.736e+01,1.721e+01,1.706e+01,1.810e+01
2.678e-02,3.478e-01,3.637e-01,5.195e-01,5.924e-01,1.094e+00,1.646e+00,1.926e+00,2.004e+00,1.256e+00,3.029e+00,1.642e+00,3.619e+00,2.697e+00,4.217e+00,3.344e+00,3.301e+00,3.068e+00,3.375e+00,4.613e+00,4.397e+00,5.679e+00,6.146e+00,6.019e+00,6.818e+00,5.068e+00,6.678e+00,6.708e+00,7.635e+00,6.259e+00,6.811e+00,6.014e+00,6.499e+00,8.054e+00,6.491e+00,6.510e+00,4.555e+00,6.912e+00,8.258e+00,7.405e+00,8.896e+00,8.034e+00,9.934e+00,9.725e+00,9.887e+00,9.597e+00,1.068e+01,1.061e+01,1.060e+01,1.173e+01,1.057e+01,1.304e+01,1.147e+01,1.323e+01,1.230e+01,1.289e+01,1.356e+01,1.389e+01,1.496e+01,1.218e+01,1.175e+01,1.448e+01,1.526e+01,1.404e+01,1.583e+01,1.735e+01,1.783e+01,1.594e+01,1.696e+01,1.792e+01,1.571e+01,1.567e+01,1.523e+01,1.739e+01,1.659e+01,1.818e+01,1.735e+01,1.643e+01,1.566e+01,1.660e+01,1.556e+01,1.598e+01,1.532e+01,1.650e+01,1.834e+01,1.583e+01,1.474e+01,1.561e+01,1.865e+01,1.641e+01,1.594e+01,1.685e+01,1.577e+01,1.673e+01
1.780e-01,2.682e-01,1.096e+00,1.317e+00,1.324e+00,2.226e+00,2.453e+00,3.509e+00,3.070e+00,2.345e+00,2.995e+00,3.003e+00,4.200e+00,3.694e+00,4.295e+00,4.286e+00,3.211e+00,2.916e+00,3.729e+00,6.257e+00,5.427e+00,6.210e+00,5.979e+00,5.723e+00,6.880e+00,6.859e+00,8.320e+00,7.254e+00,7.569e+00,7.739e+00,7.389e+00,7.551e+00,6.725e+00,1.032e+01,8.303e+00,9.349e+00,6.675e+00,9.190e+00,1.013e+01,1.099e+01,1.014e+01,1.157e+01,1.297e+01,1.169e+01,1.138e+01,1.162e+01,1.101e+01,1.354e+01,1.265e+01,1.385e+01,1.180e+01,1.626e+01,1.437e+01,1.426e+01,1.472e+01,1.558e+01,1.509e+01,1.740e+01,1.601e+01,1.563e+01,1.423e+01,1.630e+01,1.791e+01,1.651e+01,1.725e+01,1.815e+01,2.103e+01,1.837e+01,2.026e+01,1.923e+01,1.916e+01,1.925e+01,1.750e+01,1.861e+01,1.805e+01,1.846e+01,1.915e+01,1.901e+01,1.761e+01,1.826e+01,1.685e+01,1.800e+01,1.878e+01,1.896e+01,2.085e+01,1.922e+01,1.905e+01,1.828e+01,1.982e+01,1.753e+01,2.016e+01,1.766e+01,1.943e+01,1.913e+01
1.906e-01,2.945e-01,1.217e+00,1.197e+00,9.692e-01,1.373e+00,1.573e+00,2.669e+00,2.308e+00,1.975e+00,2.081e+00,2.233e+00,2.901e+00,2.941e+00,3.062e+00,3.783e+00,2.319e+00,3.456e+00,3.317e+00,5.899e+00,4.680e+00,6.839e+00,5.902e+00,4.985e+00,6.673e+00,6.029e+00,7.119e+00,7.414e+00,6.519e+00,7.939e+00,8.337e+00,8.278e+00,6.631e+00,1.021e+01,9.153e+00,1.023e+01,7.639e+00,1.012e+01,1.019e+01,1.030e+01,1.035e+01,1.261e+01,1.196e+01,1.021e+01,1.015e+01,9.887e+00,1.143e+01,9.818e+00,1.203e+01,1.165e+01,1.089e+01,1.333e+01,1.226e+01,1.298e+01,1.315e+01,1.343e+01,1.357e+01,1.444e+01,1.577e+01,1.359e+01,1.343e+01,1.468e+01,1.744e+01,1.555e+01,1.536e+01,1.724e+01,1.900e+01,1.628e+01,1.793e+01,1.800e+01,1.688e+01,1.766e+01,1.546e+01,1.748e+01,1.757e+01,1.764e+01,1.787e+01,1.867e+01,1.775e+01,1.619e+01,1.503e+01,1.645e+01,1.518e+01,1.818e+01,1.901e+01,1.672e+01,1.818e+01,1.748e+01,1.758e+01,1.658e+01,1.791e+01,1.571e+01,1.683e+01,1.776e+01
1.761e-01,6.647e-01,1.279e+00,1.314e+00,1.199e+00,1.918e+00,1.649e+00,2.677e+00,2.464e+00,2.471e+00,2.404e+00,2.727e+00,4.731e+00,3.974e+00,4.705e+00,3.690e+00,2.925e+00,2.465e+00,4.014e+00,5.988e+00,5.821e+00,6.607e+00,5.499e+00,6.409e+00,6.760e+00,6.320e+00,7.176e+00,7.128e+00,8.606e+00,7.530e+00,8.489e+00,9.142e+00,7.323e+00,1.067e+01,8.021e+00,9.131e+00,6.767e+00,9.125e+00,9.412e+00,9.401e+00,1.029e+01,1.198e+01,1.234e+01,1.074e+01,1.165e+01,1.071e+01,1.043e+01,1.025e+01,1.145e+01,1.360e+01,1.143e+01,1.544e+01,1.398e+01,1.476e+01,1.444e+01,1.404e+01,1.419e+01,1.420e+01,1.403e+01,1.335e+01,1.221e+01,1.525e+01,1.474e+01,1.465e+01,1.584e+01,1.610e+01,1.753e+01,1.753e+01,1.770e+01,1.791e+01,1.757e+01,1.673e+01,1.639e+01,1.881e+01,1.786e+01,1.619e+01,1.709e+01,1.675e+01,1.621e+01,1.685e+01,1.428e+01,1.916e+01,1.694e+01,1.741e+01,1.704e+01,1.734e+01,1.715e+01,1.683e+01,1.846e+01,1.701e+01,1.800e+01,1.613e+01,1.756e+01,1.753e+01
1.279e-01,4.692e-01,1.600e+00,1.506e+00,1.626e+00,1.779e+00,1.720e+00,2.447e+00,2.401e+00,2.462e+00,3.349e+00,2.476e+00,4.421e+00,3.489e+00,4.300e+00,3.610e+00,3.026e+00,3.197e+00,4.063e+00,5.617e+00,4.296e+00,6.376e+00,5.705e+00,6.300e+00,7.394e+00,5.458e+00,6.070e+00,6.227e+00,7.560e+00,7.205e+00,7.229e+00,7.654e+00,6.763e+00,8.486e+00,7.545e+00,8.213e+00,6.079e+00,9.304e+00,9.046e+00,9.517e+00,9.922e+00,1.090e+01,1.205e+01,1.069e+01,1.088e+01,9.544e+00,1.067e+01,1.006e+01,1.026e+01,1.234e+01,1.154e+01,1.441e+01,1.180e+01,1.341e+01,1.311e+01,1.257e+01,1.346e+01,1.322e+01,1.451e+01,1.257e+01,1.063e+01,1.457e+01,1.373e+01,1.350e+01,1.510e+01,1.563e+01,1.819e+01,1.647e+01,1.769e+01,1.683e+01,1.724e+01,1.679e+01,1.706e+01,1.788e+01,1.895e+01,1.724e+01,1.744e+01,1.662e+01,1.608e+01,1.677e+01,1.456e+01,1.758e+01,1.588e+01,1.757e+01,1.750e+01,1.679e+01,1.684e+01,1.687e+01,1.894e+01,1.767e+01,1.767e+01,1.720e+01,1.646e+01,1.834e+01
1.675e-01,5.575e-01,1.595e+00,1.579e+00,1.418e+00,1.591e+00,1.820e+00,2.552e+00,2.829e+00,2.472e+00,3.269e+00,2.524e+00,4.483e+00,3.541e+00,4.553e+00,4.254e+00,3.355e+00,3.997e+00,4.437e+00,6.586e+00,5.441e+00,7.497e+00,7.208e+00,6.607e+00,8.898e+00,6.053e+00,8.116e+00,8.031e+00,8.653e+00,9.523e+00,9.476e+00,1.045e+01,8.156e+00,1.133e+01,9.386e+00,1.080e+01,7.609e+00,1.029e+01,1.128e+01,1.219e+01,1.139e+01,1.340e+01,1.246e+01,1.268e+01,1.227e+01,1.128e+01,1.199e+01,1.064e+01,1.275e+01,1.386e+01,1.311e+01,1.497e+01,1.417e+01,1.333e+01,1.515e+01,1.391e+01,1.523e+01,1.568e+01,1.581e+01,1.535e+01,1.318e+01,1.598e+01,1.685e+01,1.585e+01,1.630e+01,1.822e+01,1.957e+01,1.689e+01,1.920e+01,1.802e+01,1.891e+01,1.909e+01,1.706e+01,1.995e+01,1.948e+01,2.000e+01,1.830e+01,1.861e+01,1.863e+01,1.857e+01,1.584e+01,1.940e+01,1.905e+01,1.857e+01,2.128e+01,1.951e+01,1.821e+01,1.811e+01,2.053e+01,1.884e+01,2.024e+01,1.857e+01,1.865e+01,1.992e+01
2.280e-02,1.205e-01,6.965e-01,5.623e-01,7.648e-01,9.713e-01,1.215e+00,2.266e+00,2.549e+00,2.443e+00,2.645e+00,2.429e+00,3.598e+00,3.135e+00,4.228e+00,4.558e+00,2.896e+00,3.480e+00,4.187e+00,5.943e+00,4.958e+00,7.674e+00,6.642e+00,5.912e+00,7.855e+00,5.743e+00,7.160e+00,8.478e+00,8.283e+00,7.535e+00,7.415e+00,8.075e+00,7.598e+00,9.809e+00,9.955e+00,1.001e+01,7.110e+00,1.008e+01,9.792e+00,1.005e+01,1.084e+01,1.154e+01,1.213e+01,1.043e+01,1.111e+01,9.334e+00,1.083e+01,1.073e+01,1.212e+01,1.321e+01,1.139e+01,1.507e+01,1.245e+01,1.381e+01,1.297e+01,1.369e+01,1.417e+01,1.413e+01,1.568e+01,1.397e+01,1.270e+01,1.470e+01,1.628e+01,1.440e+01,1.544e+01,1.800e+01,1.829e+01,1.669e+01,1.741e+01,1.808e+01,1.688e+01,1.941e+01,1.716e+01,1.871e+01,1.854e+01,1.919e+01,1.748e+01,1.653e+01,1.851e+01,1.824e+01,1.671e+01,1.835e+01,1.907e+01,1.779e+01,2.010e+01,1.788e+01,1.831e+01,2.081e+01,2.005e+01,1.700e+01,1.974e+01,1.791e+01,1.865e+01,1.899e+01
1.578e-01,3.931e-01,1.508e+00,1.373e+00,1.505e+00,1.633e+00,1.785e+00,2.662e+00,2.499e+00,2.268e+00,2.622e+00,2.922e+00,4.753e+00,3.991e+00,5.006e+00,4.375e+00,3.476e+00,3.211e+00,4.646e+00,6.928e+00,6.416e+00,7.989e+00,7.672e+00,7.497e+00,8.270e+00,8.048e+00,8.345e+00,9.331e+00,9.459e+00,1.059e+01,8.873e+00,9.148e+00,8.576e+00,1.230e+01,1.043e+01,1.095e+01,8.493e+00,1.081e+01,1.158e+01,1.229e+01,1.154e+01,1.265e+01,1.259e+01,1.183e+01,1.131e+01,1.036e+01,1.298e+01,1.213e+01,1.276e+01,1.402e+01,1.246e+01,1.527e+01,1.420e+01,1.523e+01,1.454e+01,1.432e+01,1.467e+01,1.493e+01,1.478e+01,1.567e+01,1.367e+01,1.576e+01,1.667e+01,1.654e+01,1.660e+01,1.797e+01,2.036e+01,1.861e+01,1.829e+01,1.890e+01,1.806e+01,1.795e+01,1.768e+01,2.078e+01,1.906e+01,1.954e+01,1.807e+01,1.884e+01,1.899e+01,1.853e+01,1.657e+01,1.941e+01,1.808e+01,1.997e+01,2.049e+01,1.870e+01,1.840e+01,1.976e+01,2.001e+01,1.830e+01,1.915e+01,1.720e+01,1.846e+01,1.875e+01
1.848e-02,5.824e-01,8.150e-01,6.901e-01,8.403e-01,1.114e+00,1.511e+00,2.379e+00,2.975e+00,2.508e+00,2.887e+00,2.327e+00,4.257e+00,3.178e+00,4.455e+00,4.014e+00,3.025e+00,3.401e+00,3.798e+00,5.492e+00,4.328e+00,5.948e+00,4.691e+00,5.206e+00,6.396e+00,4.432e+00,6.361e+00,6.048e+00,6.449e+00,6.576e+00,7.000e+00,7.516e+00,6.631e+00,8.079e+00,8.099e+00,7.844e+00,6.198e+00,7.468e+00,9.578e+00,9.362e+00,9.829e+00,1.101e+01,1.114e+01,1.006e+01,1.053e+01,1.016e+01,1.114e+01,1.051e+01,1.192e+01,1.221e+01,1.057e+01,1.481e+01,1.201e+01,1.464e+01,1.268e+01,1.292e+01,1.302e+01,1.402e+01,1.334e+01,1.339e+01,1.185e+01,1.528e+01,1.516e+01,1.542e+01,1.576e+01,1.815e+01,1.949e+01,1.799e+01,1.769e+01,1.854e+01,1.642e+01,1.726e+01,1.509e+01,1.917e+01,1.775e+01,1.996e+01,1.880e+01,1.854e+01,1.821e+01,1.812e+01,1.622e+01,1.739e+01,1.908e+01,1.743e+01,1.828e+01,1.867e+01,1.648e+01,1.808e+01,2.202e+01,1.969e+01,1.866e+01,1.759e+01,1.607e+01,1.984e+01
7.503e-02,6.226e-01,1.073e+00,1.160e+00,1.246e+00,1.776e+00,2.103e+00,2.646e+00,2.279e+00,1.696e+00,2.745e+00,2.076e+00,2.952e+00,2.683e+00,2.957e+00,3.048e+00,3.100e+00,2.743e+00,2.874e+00,4.684e+00,2.860e+00,4.387e+00,5.136e+00,4.772e+00,6.236e+00,4.154e+00,5.521e+00,5.620e+00,5.010e+00,5.680e+00,6.791e+00,6.932e+00,5.952e+00,7.958e+00,7.226e+00,7.168e+00,5.315e+00,8.078e+00,8.470e+00,8.587e+00,8.643e+00,1.000e+01,9.819e+00,8.587e+00,1.001e+01,7.700e+00,8.915e+00,1.014e+01,9.987e+00,1.040e+01,1.025e+01,1.190e+01,9.823e+00,1.074e+01,1.181e+01,1.068e+01,1.186e+01,1.283e+01,1.226e+01,1.133e+01,9.388e+00,1.220e+01,1.390e+01,1.202e+01,1.287e+01,1.389e+01,1.562e+01,1.351e+01,1.493e+01,1.453e+01,1.539e+01,1.541e+01,1.453e+01,1.542e+01,1.656e+01,1.762e+01,1.608e+01,1.584e+01,1.604e+01,1.731e+01,1.422e+01,1.516e+01,1.553e+01,1.718e+01,1.752e+01,1.586e+01,1.668e+01,1.629e+01,1.692e+01,1.660e+01,1.613e+01,1.633e+01,1.494e+01,1.777e+01
1.434e-01,2.746e-01,8.148e-01,8.311e-01,6.697e-01,1.091e+00,8.424e-01,1.731e+00,2.181e+00,1.922e+00,2.213e+00,1.933e+00,4.035e+00,3.861e+00,4.008e+00,3.548e+00,2.879e+00,2.928e+00,3.186e+00,4.065e+00,4.707e+00,6.020e+00,5.482e+00,5.506e+00,6.811e+00,5.862e+00,6.255e+00,7.029e+00,7.664e+00,6.250e+00,6.680e+00,6.434e+00,5.911e+00,8.115e+00,7.888e+00,8.215e+00,7.583e+00,8.376e+00,9.074e+00,8.905e+00,8.537e+00,1.038e+01,1.169e+01,9.177e+00,9.452e+00,9.963e+00,1.076e+01,1.138e+01,1.079e+01,1.009e+01,1.077e+01,1.258e+01,1.200e+01,1.269e+01,1.214e+01,1.244e+01,1.301e+01,1.269e+01,1.397e+01,1.182e+01,1.264e+01,1.318e+01,1.550e+01,1.373e+01,1.348e+01,1.454e+01,1.698e+01,1.502e+01,1.721e+01,1.669e+01,1.441e+01,1.587e+01,1.466e+01,1.653e+01,1.638e+01,1.666e+01,1.641e+01,1.683e+01,1.641e+01,1.748e+01,1.516e+01,1.606e+01,1.671e+01,1.720e+01,1.771e+01,1.694e+01,1.628e+01,1.780e+01,1.743e+01,1.691e+01,1.767e+01,1.881e+01,1.800e+01,1.735e+01
1.629e-01,4.089e-01,1.164e+00,1.334e+00,1.364e+00,2.085e+00,1.980e+00,2.819e+00,2.932e+00,2.213e+00,2.993e+00,3.186e+00,5.254e+00,4.901e+00,5.027e+00,4.598e+00,3.858e+00,3.511e+00,4.418e+00,6.295e+00,6.316e+00,7.020e+00,6.557e+00,6.649e+00,7.116e+00,6.676e+00,7.083e+00,7.271e+00,8.354e+00,7.950e+00,9.025e+00,8.854e+00,6.763e+00,1.077e+01,8.691e+00,1.009e+01,7.550e+00,9.811e+00,9.870e+00,1.085e+01,9.685e+00,1.173e+01,1.269e+01,1.155e+01,1.176e+01,1.117e+01,1.172e+01,1.209e+01,1.386e+01,1.252e+01,1.287e+01,1.436e+01,1.363e+01,1.417e+01,1.367e+01,1.566e+01,1.482e+01,1.635e+01,1.594e+01,1.553e+01,1.459e+01,1.542e+01,1.608e+01,1.666e+01,1.727e+01,1.959e+01,1.978e+01,1.697e+01,1.927e+01,1.929e+01,1.795e+01,1.895e+01,1.747e+01,1.976e+01,2.075e+01,2.079e+01,1.937e+01,2.082e+01,1.941e+01,2.077e+01,1.708e+01,1.981e+01,2.017e+01,2.269e+01,2.171e+01,2.132e+01,1.974e+01,2.130e+01,2.191e+01,1.955e+01,2.106e+01,2.211e+01,1.998e+01,2.124e+01
1.794e-01,3.236e-01,1.272e+00,1.253e+00,1.155e+00,1.370e+00,1.609e+00,2.343e+00,2.364e+00,1.739e+00,2.387e+00,2.469e+00,4.155e+00,3.645e+00,4.764e+00,3.819e+00,3.230e+00,2.782e+00,3.582e+00,4.848e+00,5.492e+00,6.204e+00,6.314e+00,5.844e+00,6.302e+00,5.375e+00,6.095e+00,6.914e+00,7.285e+00,6.982e+00,6.737e+00,6.373e+00,6.159e+00,9.479e+00,7.786e+00,8.181e+00,6.947e+00,8.927e+00,8.578e+00,8.766e+00,9.801e+00,1.015e+01,1.148e+01,1.042e+01,1.007e+01,9.936e+00,1.135e+01,1.077e+01,1.027e+01,1.209e+01,1.058e+01,1.307e+01,1.227e+01,1.264e+01,1.181e+01,1.241e+01,1.279e+01,1.281e+01,1.187e+01,1.170e+01,1.155e+01,1.265e+01,1.456e+01,1.312e+01,1.406e+01,1.553e+01,1.598e+01,1.428e+01,1.600e+01,1.682e+01,1.575e+01,1.638e+01,1.509e+01,1.736e+01,1.637e+01,1.814e+01,1.800e+01,1.643e+01,1.761e+01,1.934e+01,1.480e+01,1.890e+01,1.619e+01,1.803e+01,1.839e+01,1.832e+01,1.785e+01,1.751e+01,1.778e+01,1.749e+01,1.764e+01,1.982e+01,1.835e+01,1.784e+01
6.676e-02,3.562e-01,8.320e-01,7.281e-01,1.044e+00,1.512e+00,1.581e+00,2.567e+00,2.757e+00,2.206e+00,2.706e+00,2.235e+00,4.214e+00,3.179e+00,4.257e+00,4.386e+00,3.525e+00,3.432e+00,3.522e+00,5.396e+00,5.306e+00,6.924e+00,6.251e+00,7.115e+00,7.838e+00,6.680e+00,8.645e+00,8.476e+00,8.436e+00,7.640e+00,8.259e+00,8.340e+00,7.192e+00,9.532e+00,9.280e+00,9.817e+00,7.346e+00,9.604e+00,1.054e+01,1.052e+01,1.057e+01,1.062e+01,1.151e+01,9.793e+00,1.079e+01,1.027e+01,1.068e+01,1.221e+01,1.174e+01,1.235e+01,1.209e+01,1.466e+01,1.262e+01,1.405e+01,1.423e+01,1.484e+01,1.509e+01,1.496e+01,1.594e+01,1.430e+01,1.302e+01,1.599e+01,1.704e+01,1.482e+01,1.528e+01,1.638e+01,1.878e+01,1.856e+01,1.885e+01,1.943e+01,1.726e+01,1.825e+01,1.691e+01,2.040e+01,1.930e+01,1.994e+01,1.950e+01,1.834e+01,2.148e+01,2.140e+01,1.826e+01,2.019e+01,1.977e+01,2.025e+01,2.347e+01,2.036e+01,2.015e+01,2.194e+01,2.295e+01,2.118e+01,2.142e+01,2.060e+01,2.130e+01,2.131e+01
3.719e-02,9.254e-02,7.804e-01,8.035e-01,1.017e+00,1.049e+00,1.314e+00,1.669e+00,2.110e+00,1.868e+00,2.850e+00,1.749e+00,3.505e+00,2.503e+00,3.717e+00,3.567e+00,2.786e+00,3.411e+00,3.517e+00,4.997e+00,4.325e+00,6.755e+00,6.069e+00,5.779e+00,8.096e+00,6.372e+00,7.464e+00,7.430e+00,7.707e+00,7.305e+00,7.118e+00,7.489e+00,7.010e+00,8.393e+00,8.273e+00,9.547e+00,7.420e+00,8.910e+00,9.928e+00,9.741e+00,8.865e+00,1.056e+01,1.104e+01,9.834e+00,1.037e+01,9.706e+00,9.980e+00,9.805e+00,1.037e+01,1.161e+01,1.072e+01,1.238e+01,1.089e+01,1.286e+01,1.230e+01,1.208e+01,1.243e+01,1.370e+01,1.363e+01,1.326e+01,1.150e+01,1.341e+01,1.373e+01,1.264e+01,1.269e+01,1.582e+01,1.719e+01,1.466e+01,1.568e+01,1.596e+01,1.448e+01,1.629e+01,1.481e+01,1.624e+01,1.555e+01,1.726e+01,1.637e+01,1.653e+01,1.793e+01,1.861e+01,1.541e+01,1.781e+01,1.738e+01,1.883e+01,2.037e+01,1.843e+01,1.831e+01,1.883e+01,1.987e+01,1.879e+01,1.961e+01,1.961e+01,1.840e+01,1.962e+01
1.678e-01,4.359e-01,1.671e+00,1.582e+00,1.510e+00,1.714e+00,1.371e+00,2.217e+00,2.062e+00,2.286e+00,2.642e+00,2.734e+00,4.107e+00,3.873e+00,4.429e+00,3.221e+00,2.879e+00,3.023e+00,4.056e+00,5.790e+00,4.409e+00,6.537e+00,6.721e+00,6.824e+00,7.221e+00,7.020e+00,7.505e+00,8.451e+00,7.994e+00,8.289e+00,8.094e+00,7.679e+00,6.816e+00,9.737e+00,1.020e+01,1.037e+01,7.677e+00,1.103e+01,1.110e+01,1.072e+01,1.105e+01,1.206e+01,1.331e+01,1.138e+01,1.083e+01,1.148e+01,1.282e+01,1.291e+01,1.260e+01,1.278e+01,1.227e+01,1.450e+01,1.322e+01,1.485e+01,1.331e+01,1.286e+01,1.415e+01,1.407e+01,1.575e+01,1.442e+01,1.224e+01,1.500e+01,1.705e+01,1.652e+01,1.719e+01,1.879e+01,2.022e+01,1.796e+01,2.047e+01,1.900e+01,1.924e+01,2.017e+01,1.829e+01,2.038e+01,2.207e+01,2.057e+01,1.889e+01,1.954e+01,2.052e+01,2.020e+01,1.820e+01,2.133e+01,2.021e+01,2.297e+01,2.174e+01,2.004e+01,2.143e+01,2.118e+01,2.391e+01,2.260e+01,2.038e+01,2.305e+01,2.077e+01,2.238e+01
1.020e-01,1.588e-01,5.603e-01,7.608e-01,6.272e-01,1.235e+00,1.075e+00,1.612e+00,1.418e+00,1.507e+00,1.706e+00,1.647e+00,2.531e+00,2.230e+00,2.783e+00,2.379e+00,1.668e+00,2.323e+00,2.184e+00,3.828e+00,3.412e+00,5.177e+00,4.438e+00,5.016e+00,6.089e+00,6.040e+00,6.652e+00,7.286e+00,7.605e+00,6.072e+00,7.160e+00,6.949e+00,5.684e+00,8.730e+00,8.492e+00,9.270e+00,6.708e+00,8.471e+00,9.797e+00,1.003e+01,9.918e+00,1.204e+01,1.209e+01,9.905e+00,1.157e+01,1.225e+01,1.069e+01,1.171e+01,1.229e+01,1.318e+01,1.220e+01,1.565e+01,1.364e+01,1.520e+01,1.393e+01,1.404e+01,1.381e+01,1.493e+01,1.540e+01,1.519e+01,1.176e+01,1.553e+01,1.637e+01,1.579e+01,1.666e+01,1.634e+01,2.014e+01,1.714e+01,1.861e+01,1.818e+01,1.805e+01,1.790e+01,1.824e+01,1.935e+01,1.946e+01,1.804e+01,1.924e+01,1.909e+01,1.822e+01,2.045e+01,1.763e+01,2.229e+01,1.997e+01,2.301e+01,2.247e+01,1.989e+01,2.098e+01,2.178e+01,2.118e+01,2.077e+01,2.268e+01,2.359e+01,2.167e+01,2.123e+01
1.246e-01,6.244e-01,1.196e+00,1.211e+00,1.291e+00,2.053e+00,1.859e+00,3.021e+00,2.436e+00,2.793e+00,2.849e+00,2.523e+00,4.317e+00,3.595e+00,4.690e+00,4.491e+00,3.067e+00,3.221e+00,3.743e+00,6.176e+00,5.374e+00,7.579e+00,6.525e+00,6.388e+00,7.815e+00,7.302e+00,7.768e+00,8.057e+00,8.822e+00,7.983e+00,8.646e+00,8.054e+00,7.181e+00,1.029e+01,8.892e+00,1.052e+01,7.636e+00,9.717e+00,9.532e+00,1.087e+01,1.062e+01,1.162e+01,1.182e+01,1.098e+01,1.102e+01,1.052e+01,1.191e+01,1.056e+01,1.115e+01,1.211e+01,1.104e+01,1.362e+01,1.197e+01,1.420e+01,1.315e+01,1.179e+01,1.276e+01,1.324e+01,1.428e+01,1.350e+01,1.319e+01,1.297e+01,1.494e+01,1.396e+01,1.556e+01,1.636e+01,1.782e+01,1.589e+01,1.770e+01,1.770e+01,1.759e+01,1.695e+01,1.700e+01,1.904e+01,1.769e+01,1.817e+01,1.804e+01,1.802e+01,1.812e+01,1.821e+01,1.694e+01,1.963e+01,1.912e+01,2.304e+01,2.298e+01,2.029e+01,1.983e+01,1.994e+01,2.152e+01,1.978e+01,2.163e+01,2.241e+01,2.035e+01,2.168e+01
3.013e-03,2.691e-01,8.384e-01,7.541e-01,1.363e+00,1.918e+00,2.145e+00,3.148e+00,2.699e+00,2.433e+00,3.365e+00,2.796e+00,4.132e+00,3.234e+00,3.959e+00,4.412e+00,3.735e+00,3.727e+00,4.932e+00,7.455e+00,6.043e+00,8.376e+00,6.697e+00,7.851e+00,7.675e+00,6.979e+00,9.464e+00,9.700e+00,9.250e+00,9.758e+00,1.070e+01,1.058e+01,8.360e+00,1.244e+01,1.087e+01,1.218e+01,9.229e+00,1.268e+01,1.253e+01,1.302e+01,1.360e+01,1.472e+01,1.489e+01,1.266e+01,1.315e+01,1.270e+01,1.390e+01,1.365e+01,1.523e+01,1.570e+01,1.412e+01,1.820e+01,1.635e+01,1.656e+01,1.543e+01,1.634e+01,1.658e+01,1.734e+01,1.825e+01,1.761e+01,1.545e+01,1.908e+01,1.791e+01,1.791e+01,1.808e+01,1.954e+01,2.236e+01,1.870e+01,2.073e+01,1.835e+01,1.900e+01,1.826e+01,1.838e+01,2.054e+01,1.906e+01,2.092e+01,2.076e+01,1.927e+01,2.264e+01,2.123e+01,2.022e+01,2.089e+01,2.223e+01,2.359e+01,2.342e+01,2.298e+01,2.297e+01,2.258e+01,2.439e+01,2.273e+01,2.455e+01,2.319e+01,2.268e+01,2.353e+01
1.017e-01,4.023e-01,1.411e+00,1.378e+00,1.722e+00,1.924e+00,2.527e+00,3.048e+00,2.654e+00,1.779e+00,3.127e+00,2.261e+00,3.390e+00,2.339e+00,3.522e+00,3.436e+00,3.450e+00,3.237e+00,3.627e+00,5.801e+00,4.757e+00,6.405e+00,5.512e+00,6.122e+00,7.145e+00,5.995e+00,6.879e+00,7.031e+00,7.496e+00,6.864e+00,8.628e+00,7.720e+00,7.156e+00,9.366e+00,7.878e+00,8.267e+00,7.304e+00,9.355e+00,8.826e+00,1.027e+01,1.031e+01,1.219e+01,1.281e+01,1.105e+01,1.204e+01,1.118e+01,1.121e+01,1.137e+01,1.129e+01,1.390e+01,1.147e+01,1.523e+01,1.237e+01,1.409e+01,1.357e+01,1.323e+01,1.352e+01,1.601e+01,1.545e+01,1.547e+01,1.304e+01,1.564e+01,1.561e+01,1.437e+01,1.667e+01,1.710e+01,2.061e+01,1.770e+01,1.801e+01,1.834e+01,1.903e+01,1.702e+01,1.631e+01,1.944e+01,1.872e+01,2.047e+01,2.042e+01,1.980e+01,1.932e+01,1.988e+01,1.965e+01,1.986e+01,1.902e+01,2.190e+01,2.129e+01,2.156e+01,2.058e+01,2.150e+01,2.162e+01,2.163e+01,2.238e+01,2.205e+01,1.956e+01,2.241e+01
8.925e-02,1.809e-01,1.178e+00,1.061e+00,1.269e+00,1.332e+00,1.424e+00,2.195e+00,2.907e+00,2.185e+00,2.496e+00,2.835e+00,4.289e+00,3.712e+00,4.702e+00,4.564e+00,3.459e+00,3.624e+00,4.268e+00,6.481e+00,6.583e+00,7.805e+00,6.879e+00,7.486e+00,7.723e+00,6.798e+00,7.697e+00,8.668e+00,8.214e+00,7.846e+00,8.327e+00,9.042e+00,7.124e+00,1.109e+01,9.392e+00,1.002e+01,7.623e+00,9.883e+00,1.044e+01,1.040e+01,1.093e+01,1.125e+01,1.110e+01,1.073e+01,1.166e+01,1.190e+01,1.066e+01,1.042e+01,1.263e+01,1.331e+01,1.179e+01,1.472e+01,1.364e+01,1.528e+01,1.330e+01,1.416e+01,1.412e+01,1.530e+01,1.454e+01,1.534e+01,1.143e+01,1.556e+01,1.642e+01,1.615e+01,1.690e+01,1.746e+01,1.818e+01,1.652e+01,1.822e+01,1.802e+01,1.693e+01,1.848e+01,1.662e+01,1.876e+01,1.980e+01,1.960e+01,1.678e+01,1.776e+01,1.898e+01,1.962e+01,1.738e+01,2.102e+01,1.897e+01,2.231e+01,2.269e+01,2.131e+01,2.067e+01,2.314e+01,2.362e+01,2.172e+01,2.231e+01,2.159e+01,2.188e+01,2.269e+01
2.277e-02,3.692e-02,7.216e-01,6.545e-01,1.049e+00,1.172e+00,1.746e+00,2.461e+00,2.987e+00,1.993e+00,2.675e+00,2.606e+00,3.811e+00,2.959e+00,4.297e+00,4.806e+00,3.113e+00,3.261e+00,3.988e+00,6.028e+00,5.947e+00,7.671e+00,6.594e+00,6.055e+00,7.686e+00,5.997e+00,7.564e+00,7.762e+00,8.045e+00,7.941e+00,6.844e+00,7.777e+00,7.296e+00,9.252e+00,7.941e+00,9.324e+00,6.477e+00,9.719e+00,9.588e+00,9.665e+00,1.027e+01,1.087e+01,1.171e+01,1.065e+01,1.102e+01,8.723e+00,1.019e+01,1.066e+01,1.175e+01,1.300e+01,1.152e+01,1.449e+01,1.349e+01,1.404e+01,1.382e+01,1.470e+01,1.456e+01,1.445e+01,1.500e+01,1.381e+01,1.281e+01,1.496e+01,1.644e+01,1.399e+01,1.518e+01,1.729e+01,1.810e+01,1.696e+01,1.795e+01,1.782e+01,1.620e+01,1.852e+01,1.804e+01,1.843e+01,1.913e+01,1.895e+01,1.879e+01,1.672e+01,1.974e+01,2.124e+01,1.741e+01,1.950e+01,1.790e+01,2.146e+01,2.259e+01,2.060e+01,2.219e+01,2.263e+01,2.455e+01,2.209e+01,2.323e+01,2.327e+01,2.220e+01,2.327e+01
1.145e-02,7.694e-02,3.843e-01,4.744e-01,8.319e-01,1.552e+00,2.210e+00,3.290e+00,3.467e+00,2.248e+00,3.591e+00,2.898e+00,4.142e+00,3.543e+00,4.197e+00,4.729e+00,3.648e+00,4.124e+00,3.750e+00,5.599e+00,5.261e+00,7.163e+00,6.413e+00,6.466e+00,6.760e+00,5.469e+00,6.941e+00,7.680e+00,8.287e+00,7.178e+00,8.412e+00,7.292e+00,6.171e+00,9.027e+00,8.558e+00,9.010e+00,6.643e+00,8.850e+00,8.840e+00,8.430e+00,9.086e+00,9.608e+00,9.914e+00,9.801e+00,1.021e+01,9.152e+00,9.736e+00,9.615e+00,1.119e+01,1.174e+01,1.082e+01,1.339e+01,1.221e+01,1.240e+01,1.258e+01,1.432e+01,1.334e+01,1.463e+01,1.532e+01,1.398e+01,1.156e+01,1.435e+01,1.528e+01,1.395e+01,1.462e+01,1.580e+01,1.767e+01,1.519e+01,1.659e+01,1.574e+01,1.549e+01,1.606e+01,1.501e+01,1.725e+01,1.753e+01,1.789e+01,1.601e+01,1.622e+01,1.797e+01,1.821e+01,1.680e+01,1.786e+01,1.791e+01,1.989e+01,2.087e+01,1.908e+01,1.880e+01,1.964e+01,2.135e+01,1.946e+01,1.962e+01,2.057e+01,2.033e+01,2.006e+01
1.301e-01,4.575e-01,9.200e-01,9.492e-01,8.366e-01,1.302e+00,1.151e+00,1.764e+00,1.553e+00,1.271e+00,1.963e+00,2.022e+00,3.456e+00,3.471e+00,3.303e+00,2.986e+00,2.784e+00,2.722e+00,3.418e+00,5.149e+00,4.487e+00,5.330e+00,6.107e+00,5.732e+00,6.558e+00,5.496e+00,6.802e+00,7.614e+00,6.922e+00,7.462e+00,7.367e+00,8.357e+00,6.345e+00,1.025e+01,8.395e+00,9.131e+00,6.699e+00,1.000e+01,1.101e+01,1.003e+01,1.022e+01,1.168e+01,1.181e+01,1.000e+01,1.094e+01,9.588e+00,1.125e+01,1.218e+01,1.224e+01,1.179e+01,1.134e+01,1.362e+01,1.307e+01,1.345e+01,1.309e+01,1.278e+01,1.352e+01,1.417e+01,1.465e+01,1.394e+01,1.254e+01,1.500e+01,1.603e+01,1.633e+01,1.641e+01,1.758e+01,1.944e+01,1.785e+01,1.840e+01,1.846e+01,1.780e+01,1.673e+01,1.569e+01,1.860e+01,1.865e+01,1.963e+01,1.947e+01,1.898e+01,2.149e+01,2.054e+01,1.686e+01,2.041e+01,2.051e+01,2.147e+01,2.304e+01,2.073e+01,2.112e+01,2.273e+01,2.370e+01,2.240e+01,2.289e+01,2.450e+01,2.351e+01,2.233e+01
1.591e-01,6.739e-01,1.665e+00,1.577e+00,1.554e+00,1.641e+00,1.630e+00,2.178e+00,2.143e+00,2.021e+00,2.471e+00,2.288e+00,4.193e+00,3.534e+00,4.799e+00,3.820e+00,3.599e+00,3.325e+00,4.192e+00,5.691e+00,5.112e+00,7.115e+00,6.326e+00,6.230e+00,7.953e+00,5.845e+00,6.656e+00,7.527e+00,7.944e+00,6.751e+00,7.634e+00,8.173e+00,7.514e+00,1.010e+01,9.588e+00,8.809e+00,7.379e+00,8.421e+00,9.696e+00,9.700e+00,9.863e+00,1.062e+01,1.133e+01,9.749e+00,1.067e+01,9.949e+00,1.136e+01,9.975e+00,1.154e+01,1.184e+01,1.148e+01,1.329e+01,1.260e+01,1.360e+01,1.234e+01,1.156e+01,1.281e+01,1.380e+01,1.420e+01,1.281e+01,1.187e+01,1.466e+01,1.620e+01,1.460e+01,1.630e+01,1.787e+01,1.995e+01,1.652e+01,1.709e+01,1.945e+01,1.790e+01,1.653e+01,1.674e+01,1.910e+01,1.863e+01,1.954e+01,1.882e+01,1.855e+01,1.935e+01,1.951e+01,1.922e+01,1.934e+01,1.956e+01,2.225e+01,2.131e+01,2.125e+01,2.089e+01,2.236e+01,2.349e+01,2.250e+01,2.263e+01,2.385e+01,2.149e+01,2.294e+01
1.340e-01,5.669e-01,1.574e+00,1.466e+00,1.548e+00,2.008e+00,1.752e+00,2.976e+00,2.751e+00,3.074e+00,3.102e+00,3.105e+00,4.708e+00,4.110e+00,4.626e+00,4.167e+00,2.832e+00,3.135e+00,4.213e+00,6.432e+00,5.320e+00,7.609e+00,6.677e+00,7.373e+00,8.659e+00,6.799e+00,8.352e+00,9.265e+00,9.806e+00,9.154e+00,9.279e+00,1.013e+01,8.111e+00,1.119e+01,1.062e+01,1.071e+01,7.636e+00,1.078e+01,1.163e+01,1.137e+01,1.215e+01,1.297e+01,1.365e+01,1.187e+01,1.202e+01,1.112e+01,1.307e+01,1.196e+01,1.217e+01,1.450e+01,1.329e+01,1.580e+01,1.505e+01,1.516e+01,1.574e+01,1.433e+01,1.618e+01,1.561e+01,1.744e+01,1.610e+01,1.447e+01,1.676e+01,1.822e+01,1.564e+01,1.746e+01,1.838e+01,2.140e+01,1.872e+01,2.048e+01,2.095e+01,2.017e+01,1.943e+01,1.958e+01,2.174e+01,2.058e+01,2.024e+01,2.045e+01,1.892e+01,2.315e+01,2.270e+01,2.131e+01,2.256e+01,2.125e+01,2.503e+01,2.502e+01,2.301e+01,2.384e+01,2.497e+01,2.570e+01,2.573e+01,2.672e+01,2.647e+01,2.664e+01,2.683e+01
4.170e-02,3.971e-01,9.164e-01,8.219e-01,1.222e+00,1.421e+00,2.166e+00,2.880e+00,2.798e+00,1.958e+00,2.871e+00,2.402e+00,4.010e+00,2.816e+00,4.381e+00,4.313e+00,3.146e+00,3.569e+00,3.400e+00,5.845e+00,5.462e+00,6.607e+00,6.192e+00,5.876e+00,8.537e+00,6.522e+00,7.968e+00,8.295e+00,7.898e+00,7.226e+00,7.391e+00,7.824e+00,6.739e+00,9.080e+00,7.743e+00,8.556e+00,7.377e+00,8.597e+00,9.879e+00,1.083e+01,9.650e+00,1.136e+01,1.191e+01,1.133e+01,1.177e+01,1.151e+01,1.193e+01,1.181e+01,1.266e+01,1.300e+01,1.164e+01,1.599e+01,1.291e+01,1.508e+01,1.391e+01,1.418e+01,1.390e+01,1.445e+01,1.414e+01,1.398e+01,1.282e+01,1.518e+01,1.589e+01,1.499e+01,1.559e+01,1.817e+01,1.993e+01,1.656e+01,1.769e+01,1.858e+01,1.571e+01,1.696e+01,1.636e+01,1.917e+01,1.760e+01,1.970e+01,2.062e+01,1.857e+01,1.833e+01,2.086e+01,1.733e+01,1.840e+01,1.896e+01,1.989e+01,2.205e+01,1.941e+01,1.861e+01,2.073e+01,2.242e+01,2.195e+01,2.142e+01,2.201e+01,2.256e+01,2.315e+01
1.387e-01,4.262e-01,1.655e+00,1.601e+00,1.899e+00,2.238e+00,2.101e+00,3.060e+00,3.368e+00,3.080e+00,3.421e+00,3.490e+00,5.802e+00,4.673e+00,5.793e+00,4.935e+00,4.022e+00,3.418e+00,5.352e+00,7.580e+00,7.088e+00,8.710e+00,7.049e+00,8.161e+00,8.467e+00,7.832e+00,8.498e+00,8.497e+00,9.666e+00,8.765e+00,8.774e+00,8.758e+00,7.481e+00,9.969e+00,9.546e+00,9.329e+00,7.616e+00,9.250e+00,9.773e+00,1.033e+01,1.062e+01,1.128e+01,1.170e+01,1.107e+01,1.182e+01,1.116e+01,1.108e+01,1.115e+01,1.169e+01,1.233e+01,1.220e+01,1.438e+01,1.225e+01,1.453e+01,1.283e+01,1.483e+01,1.352e+01,1.393e+01,1.509e+01,1.508e+01,1.360e+01,1.440e+01,1.652e+01,1.515e+01,1.636e+01,1.766e+01,1.893e+01,1.649e+01,1.821e+01,1.934e+01,1.768e+01,1.858e+01,1.662e+01,1.969e+01,2.046e+01,1.992e+01,1.914e+01,1.817e+01,1.905e+01,2.163e+01,1.794e+01,2.134e+01,2.028e+01,2.193e+01,2.197e+01,2.175e+01,2.110e+01,2.331e+01,2.333e+01,2.368e+01,2.268e+01,2.588e+01,2.301e+01,2.379e+01
