3.196e-01,5.428e-01,7.243e-01,7.209e-02,5.380e-01,4.208e-01,7.505e-01,8.023e-01,3.353e-01,7.713e-02,4.517e-01,9.045e-01,1.617e-01,2.790e-01,4.526e-01,2.219e-01,3.703e-01,5.800e-01,4.654e-01,2.477e-01,3.107e-01,9.182e-01,4.726e-01,5.903e-01,9.238e-01,6.356e-01,2.186e-01,2.731e-01,3.463e-02,8.267e-01,9.850e-02,9.159e-01,2.812e-01,1.837e-01,5.482e-01,1.139e-01,5.354e-02,7.615e-01,6.252e-01,5.191e-01,9.866e-02,9.819e-01,8.418e-01,5.356e-01,6.724e-01,7.662e-01,8.579e-01,7.627e-01,7.848e-02,2.466e-01,5.257e-02,5.316e-01,6.622e-01,5.327e-01,4.524e-01,1.000e-01,4.124e-01,8.363e-01,5.222e-01,2.680e-01,7.900e-01,7.280e-01,7.359e-02,3.238e-01,1.897e-01,1.502e-01,2.949e-01,7.513e-01,7.917e-01,4.994e-01,9.814e-01,6.669e-01,7.122e-01,6.883e-01,9.466e-02,3.149e-01,8.417e-01,8.100e-01
3.379e-02,7.065e-01,6.829e-01,7.179e-01,5.634e-01,9.827e-01,1.029e+00,1.690e-01,7.896e-02,4.028e-01,2.478e-01,2.848e-01,8.065e-01,2.053e-01,1.811e-01,2.100e-01,5.940e-01,4.211e-01,3.652e-01,5.605e-01,9.813e-01,1.021e+00,8.212e-01,1.006e+00,4.152e-01,1.295e-01,5.411e-02,8.255e-01,5.708e-01,5.267e-01,1.553e-01,7.634e-01,9.904e-02,6.241e-01,7.042e-01,8.295e-01,7.172e-01,1.041e+00,2.021e-01,6.227e-01,5.526e-01,7.496e-01,1.453e-01,1.614e-01,5.899e-01,1.052e+00,8.426e-01,1.058e+00,9.587e-01,5.278e-01,1.552e-01,1.050e+00,4.536e-01,3.362e-01,8.653e-01,3.970e-01,1.973e-01,1.078e-01,3.929e-01,6.113e-01,9.588e-01,6.498e-01,1.914e-01,2.078e-01,1.128e-01,1.754e-01,5.402e-01,7.460e-01,3.853e-01,3.046e-01,1.072e+00,6.026e-01,5.826e-01,4.418e-01,9.189e-01,3.277e-01,1.076e+00,3.534e-01
1.218e-01,6.508e-01,1.016e+00,1.445e+00,8.830e-01,1.199e+00,1.209e+00,1.093e+00,1.151e+00,7.126e-01,5.369e-01,8.956e-01,1.086e+00,4.555e-01,3.118e-01,3.816e-01,1.459e+00,5.991e-01,5.821e-01,1.224e+00,9.643e-01,1.799e+00,1.597e+00,1.274e+00,1.371e+00,1.281e+00,5.102e-01,1.597e+00,1.400e+00,6.925e-01,3.982e-01,9.326e-01,4.492e-01,9.039e-01,1.066e+00,1.384e+00,7.473e-01,1.673e+00,5.551e-01,7.591e-01,7.407e-01,1.389e+00,7.329e-01,9.620e-01,1.075e+00,1.194e+00,1.458e+00,1.228e+00,1.117e+00,8.831e-01,4.736e-01,1.612e+00,1.082e+00,7.045e-01,8.025e-01,6.026e-01,7.512e-01,1.259e+00,6.091e-01,1.293e+00,1.369e+00,1.585e+00,9.157e-01,1.194e+00,8.843e-01,1.093e+00,1.221e+00,1.221e+00,1.368e+00,4.788e-01,1.087e+00,8.801e-01,6.598e-01,9.139e-01,7.621e-01,9.481e-01,1.563e+00,1.383e+00
2.042e-01,6.324e-01,1.015e+00,1.986e+00,1.641e+00,1.161e+00,2.035e+00,1.962e+00,1.446e+00,1.580e+00,1.270e+00,1.302e+00,1.201e+00,1.367e+00,1.361e+00,1.132e+00,1.574e+00,1.129e+00,1.111e+00,1.195e+00,1.652e+00,1.909e+00,1.475e+00,1.807e+00,1.884e+00,1.811e+00,1.221e+00,1.483e+00,1.827e+00,1.114e+00,1.122e+00,1.854e+00,1.429e+00,9.199e-01,1.638e+00,1.512e+00,1.318e+00,2.058e+00,1.557e+00,1.218e+00,7.962e-01,2.122e+00,9.901e-01,1.737e+00,1.324e+00,1.412e+00,1.558e+00,1.239e+00,1.639e+00,1.293e+00,6.586e-01,2.096e+00,1.914e+00,9.148e-01,1.137e+00,6.021e-01,1.270e+00,2.097e+00,8.941e-01,2.010e+00,2.222e+00,1.705e+00,1.307e+00,1.887e+00,1.222e+00,1.459e+00,1.683e+00,1.421e+00,2.240e+00,1.008e+00,1.247e+00,1.673e+00,1.497e+00,1.850e+00,1.422e+00,1.076e+00,1.796e+00,1.793e+00
6.995e-02,2.341e-01,4.680e-01,9.633e-01,1.207e+00,7.630e-01,1.114e+00,1.648e+00,1.003e+00,1.417e+00,1.304e+00,8.836e-01,1.435e+00,1.033e+00,1.020e+00,1.092e+00,1.123e+00,1.218e+00,1.329e+00,1.474e+00,1.588e+00,1.323e+00,1.050e+00,1.241e+00,1.512e+00,1.291e+00,1.478e+00,1.357e+00,1.528e+00,4.744e-01,1.137e+00,1.262e+00,1.226e+00,1.226e+00,7.180e-01,1.000e+00,7.749e-01,1.542e+00,5.962e-01,1.313e+00,1.014e+00,1.780e+00,8.683e-01,1.017e+00,1.238e+00,1.501e+00,1.467e+00,1.030e+00,8.198e-01,1.331e+00,4.688e-01,1.286e+00,1.752e+00,9.018e-01,1.182e+00,1.139e+00,1.342e+00,1.521e+00,8.597e-01,1.743e+00,1.474e+00,1.442e+00,1.371e+00,9.829e-01,1.459e+00,1.227e+00,1.154e+00,9.291e-01,1.275e+00,5.165e-01,7.238e-01,7.302e-01,8.551e-01,9.591e-01,1.139e+00,1.304e+00,1.211e+00,1.248e+00
2.910e-01,1.048e+00,1.249e+00,9.836e-01,1.244e+00,1.834e+00,2.430e+00,1.324e+00,1.413e+00,1.447e+00,1.084e+00,1.617e+00,1.699e+00,8.821e-01,1.032e+00,1.095e+00,1.830e+00,1.281e+00,1.660e+00,2.028e+00,1.923e+00,2.156e+00,1.933e+00,2.184e+00,2.199e+00,1.329e+00,9.460e-01,1.493e+00,9.969e-01,2.156e+00,9.362e-01,2.599e+00,1.029e+00,1.619e+00,2.189e+00,1.687e+00,1.701e+00,2.844e+00,1.417e+00,1.770e+00,9.631e-01,2.830e+00,1.276e+00,1.874e+00,1.454e+00,2.779e+00,2.404e+00,1.764e+00,1.345e+00,1.160e+00,1.052e+00,2.568e+00,1.676e+00,1.525e+00,2.351e+00,7.838e-01,1.120e+00,1.827e+00,1.460e+00,1.342e+00,2.422e+00,2.115e+00,1.318e+00,1.386e+00,7.041e-01,1.638e+00,1.424e+00,1.609e+00,1.897e+00,1.395e+00,2.332e+00,1.589e+00,1.715e+00,2.116e+00,1.638e+00,1.051e+00,2.699e+00,1.613e+00
3.026e-01,7.038e-01,9.847e-01,1.127e+00,1.560e+00,1.138e+00,2.957e+00,2.590e+00,1.207e+00,1.759e+00,2.266e+00,1.970e+00,1.639e+00,1.547e+00,2.242e+00,1.487e+00,1.406e+00,2.240e+00,1.834e+00,1.462e+00,2.439e+00,2.674e+00,1.466e+00,2.095e+00,2.822e+00,1.637e+00,2.315e+00,2.142e+00,2.103e+00,1.932e+00,1.828e+00,2.724e+00,1.692e+00,1.315e+00,1.987e+00,1.257e+00,1.486e+00,3.140e+00,1.550e+00,1.964e+00,1.598e+00,3.066e+00,1.397e+00,1.984e+00,2.269e+00,2.660e+00,2.884e+00,1.450e+00,1.780e+00,1.836e+00,1.434e+00,2.731e+00,2.761e+00,1.868e+00,2.299e+00,1.331e+00,2.012e+00,2.470e+00,2.170e+00,2.238e+00,2.450e+00,2.212e+00,1.547e+00,1.941e+00,1.591e+00,1.924e+00,2.279e+00,2.343e+00,2.720e+00,1.901e+00,2.511e+00,1.674e+00,2.552e+00,1.854e+00,2.090e+00,2.030e+00,2.349e+00,1.806e+00
1.375e-01,2.557e-01,4.245e-01,9.813e-01,1.285e+00,9.149e-01,1.901e+00,2.285e+00,2.250e+00,1.977e+00,1.597e+00,1.964e+00,1.469e+00,1.772e+00,1.734e+00,2.084e+00,1.885e+00,2.143e+00,1.760e+00,1.807e+00,1.931e+00,2.231e+00,1.975e+00,2.128e+00,2.232e+00,1.459e+00,2.247e+00,1.651e+00,1.455e+00,1.901e+00,1.636e+00,2.210e+00,1.884e+00,2.077e+00,2.190e+00,1.624e+00,2.226e+00,2.226e+00,1.714e+00,2.280e+00,1.533e+00,3.265e+00,1.294e+00,2.225e+00,1.213e+00,2.012e+00,1.632e+00,9.660e-01,1.589e+00,1.479e+00,1.479e+00,2.730e+00,2.792e+00,2.138e+00,2.445e+00,1.019e+00,2.331e+00,2.264e+00,1.891e+00,2.237e+00,2.095e+00,1.975e+00,1.616e+00,2.354e+00,1.416e+00,2.724e+00,1.573e+00,1.205e+00,2.658e+00,2.199e+00,2.060e+00,1.683e+00,1.968e+00,2.399e+00,1.701e+00,1.405e+00,1.994e+00,1.668e+00
2.872e-01,1.129e+00,1.402e+00,1.356e+00,1.815e+00,1.851e+00,3.133e+00,3.052e+00,2.756e+00,2.017e+00,3.249e+00,3.260e+00,2.541e+00,2.201e+00,2.488e+00,2.546e+00,2.573e+00,3.823e+00,2.986e+00,2.830e+00,4.098e+00,4.765e+00,3.069e+00,3.478e+00,3.289e+00,2.426e+00,3.694e+00,3.747e+00,3.536e+00,2.508e+00,2.732e+00,3.443e+00,2.760e+00,3.185e+00,2.595e+00,3.012e+00,2.827e+00,4.437e+00,2.144e+00,3.946e+00,3.251e+00,4.690e+00,2.593e+00,2.557e+00,3.399e+00,3.706e+00,4.060e+00,3.367e+00,3.004e+00,3.098e+00,1.860e+00,4.196e+00,3.945e+00,3.703e+00,4.229e+00,2.084e+00,3.784e+00,2.661e+00,3.118e+00,3.479e+00,3.649e+00,3.465e+00,2.535e+00,2.513e+00,2.569e+00,3.627e+00,2.923e+00,3.605e+00,4.173e+00,3.471e+00,4.753e+00,2.693e+00,3.420e+00,2.662e+00,3.538e+00,2.948e+00,4.055e+00,2.951e+00
2.218e-01,1.014e+00,1.326e+00,2.206e+00,2.310e+00,1.958e+00,3.569e+00,3.415e+00,3.106e+00,3.680e+00,3.719e+00,4.115e+00,3.045e+00,3.622e+00,3.085e+00,3.328e+00,3.749e+00,4.494e+00,3.661e+00,3.798e+00,4.716e+00,4.749e+00,4.010e+00,4.790e+00,4.315e+00,3.781e+00,4.310e+00,3.996e+00,3.965e+00,3.283e+00,3.924e+00,4.545e+00,4.026e+00,3.534e+00,3.212e+00,3.754e+00,4.247e+00,5.416e+00,3.378e+00,4.497e+00,3.944e+00,5.410e+00,3.188e+00,3.989e+00,3.860e+00,4.172e+00,4.358e+00,3.120e+00,3.507e+00,3.896e+00,2.072e+00,5.208e+00,5.038e+00,4.244e+00,4.416e+00,2.407e+00,3.922e+00,3.893e+00,3.250e+00,4.997e+00,4.827e+00,3.780e+00,2.904e+00,3.558e+00,2.925e+00,4.135e+00,3.580e+00,4.183e+00,4.780e+00,4.315e+00,5.135e+00,3.526e+00,3.994e+00,3.380e+00,4.876e+00,3.411e+00,4.202e+00,3.797e+00
2.410e-01,8.413e-01,1.065e+00,1.662e+00,1.956e+00,1.348e+00,2.771e+00,2.456e+00,1.334e+00,2.225e+00,3.184e+00,2.811e+00,2.795e+00,2.419e+00,3.048e+00,2.525e+00,2.532e+00,2.505e+00,3.022e+00,2.722e+00,3.862e+00,2.779e+00,2.014e+00,3.081e+00,2.691e+00,2.418e+00,3.032e+00,2.334e+00,3.069e+00,1.890e+00,2.929e+00,3.830e+00,3.138e+00,1.821e+00,2.259e+00,2.591e+00,2.114e+00,3.590e+00,1.929e+00,2.384e+00,2.751e+00,3.806e+00,1.914e+00,2.641e+00,2.900e+00,2.875e+00,3.088e+00,2.550e+00,2.132e+00,2.178e+00,1.927e+00,2.904e+00,3.156e+00,2.238e+00,3.108e+00,2.273e+00,2.268e+00,3.067e+00,2.720e+00,3.251e+00,3.758e+00,2.828e+00,2.211e+00,2.365e+00,1.917e+00,1.846e+00,2.803e+00,2.715e+00,3.693e+00,2.030e+00,3.298e+00,2.433e+00,3.197e+00,2.515e+00,3.164e+00,2.176e+00,3.176e+00,2.516e+00
3.801e-02,4.305e-01,5.903e-01,1.503e+00,1.556e+00,1.494e+00,2.833e+00,2.487e+00,2.296e+00,2.969e+00,2.744e+00,3.795e+00,3.128e+00,3.079e+00,3.086e+00,2.773e+00,3.179e+00,3.311e+00,3.206e+00,3.813e+00,3.594e+00,3.955e+00,3.745e+00,3.933e+00,3.771e+00,2.850e+00,3.707e+00,3.525e+00,3.652e+00,2.736e+00,3.391e+00,3.788e+00,3.106e+00,3.666e+00,3.386e+00,3.528e+00,3.991e+00,4.819e+00,2.581e+00,3.107e+00,3.204e+00,4.845e+00,2.349e+00,3.555e+00,3.134e+00,3.502e+00,4.105e+00,1.794e+00,3.153e+00,3.277e+00,3.119e+00,4.380e+00,3.714e+00,3.389e+00,3.736e+00,3.027e+00,3.299e+00,3.445e+00,3.286e+00,3.538e+00,4.205e+00,3.124e+00,2.968e+00,3.884e+00,2.082e+00,4.189e+00,3.019e+00,2.962e+00,4.121e+00,3.153e+00,3.666e+00,3.110e+00,3.325e+00,3.739e+00,3.921e+00,2.796e+00,3.683e+00,3.071e+00
3.066e-01,1.075e+00,1.408e+00,1.334e+00,1.258e+00,1.916e+00,2.773e+00,1.911e+00,2.293e+00,1.767e+00,1.999e+00,3.019e+00,3.152e+00,1.911e+00,2.116e+00,2.176e+00,3.371e+00,2.748e+00,2.587e+00,3.834e+00,3.591e+00,4.236e+00,3.653e+00,3.681e+00,3.800e+00,2.842e+00,2.799e+00,2.723e+00,2.667e+00,3.524e+00,2.723e+00,3.650e+00,2.038e+00,2.785e+00,2.927e+00,3.221e+00,3.298e+00,4.691e+00,2.671e+00,3.526e+00,2.847e+00,4.103e+00,2.701e+00,3.497e+00,2.617e+00,4.001e+00,3.642e+00,3.352e+00,3.011e+00,2.479e+00,2.867e+00,4.089e+00,2.764e+00,3.648e+00,4.037e+00,1.682e+00,2.187e+00,3.304e+00,3.321e+00,2.680e+00,4.000e+00,3.475e+00,2.187e+00,2.721e+00,2.297e+00,3.610e+00,2.948e+00,3.202e+00,4.047e+00,3.255e+00,4.065e+00,2.999e+00,3.478e+00,2.940e+00,3.038e+00,2.285e+00,4.097e+00,3.323e+00
2.264e-01,7.335e-01,1.061e+00,1.101e+00,1.299e+00,1.336e+00,2.073e+00,2.510e+00,2.450e+00,2.348e+00,2.967e+00,3.816e+00,3.483e+00,3.066e+00,2.907e+00,3.013e+00,4.479e+00,4.053e+00,3.536e+00,4.890e+00,4.364e+00,5.069e+00,4.988e+00,5.078e+00,4.511e+00,3.651e+00,4.167e+00,3.774e+00,3.862e+00,3.401e+00,4.391e+00,3.743e+00,3.136e+00,3.923e+00,3.193e+00,4.194e+00,3.717e+00,5.134e+00,3.389e+00,4.563e+00,4.586e+00,4.639e+00,3.515e+00,3.818e+00,4.078e+00,4.325e+00,4.168e+00,3.749e+00,3.398e+00,3.932e+00,3.166e+00,4.478e+00,4.118e+00,5.166e+00,5.059e+00,3.329e+00,3.742e+00,4.262e+00,3.813e+00,4.980e+00,4.455e+00,4.702e+00,2.893e+00,2.973e+00,3.866e+00,4.211e+00,3.531e+00,4.046e+00,5.271e+00,4.894e+00,4.674e+00,3.772e+00,4.107e+00,3.384e+00,4.236e+00,3.555e+00,4.129e+00,4.756e+00
1.997e-01,8.261e-01,9.593e-01,8.771e-01,1.376e+00,1.374e+00,1.948e+00,1.587e+00,1.374e+00,1.592e+00,2.810e+00,3.290e+00,2.866e+00,2.314e+00,2.899e+00,2.436e+00,2.850e+00,3.224e+00,4.174e+00,4.151e+00,4.521e+00,3.882e+00,3.830e+00,3.647e+00,3.317e+00,3.239e+00,3.388e+00,3.166e+00,4.360e+00,2.554e+00,3.489e+00,4.457e+00,3.038e+00,3.579e+00,3.086e+00,4.275e+00,3.398e+00,4.882e+00,2.732e+00,3.381e+00,3.610e+00,4.179e+00,2.992e+00,3.068e+00,3.602e+00,3.593e+00,4.860e+00,3.097e+00,3.429e+00,3.580e+00,2.689e+00,3.604e+00,2.654e+00,3.140e+00,4.672e+00,3.857e+00,3.657e+00,2.995e+00,3.510e+00,3.974e+00,4.267e+00,3.443e+00,2.919e+00,2.352e+00,2.909e+00,2.790e+00,2.734e+00,3.529e+00,4.473e+00,2.659e+00,4.238e+00,3.132e+00,3.936e+00,3.254e+00,3.658e+00,2.431e+00,4.274e+00,3.650e+00
1.503e-01,4.479e-01,6.461e-01,1.367e+00,1.311e+00,8.441e-01,1.756e+00,1.637e+00,1.208e+00,1.882e+00,1.380e+00,2.308e+00,1.387e+00,2.199e+00,1.956e+00,1.857e+00,2.047e+00,2.932e+00,1.934e+00,2.483e+00,2.302e+00,2.997e+00,3.140e+00,3.788e+00,2.708e+00,3.216e+00,2.218e+00,2.796e+00,3.053e+00,2.720e+00,2.529e+00,2.694e+00,2.342e+00,2.774e+00,2.779e+00,3.322e+00,2.760e+00,3.873e+00,3.202e+00,2.880e+00,2.107e+00,3.494e+00,1.934e+00,3.042e+00,2.386e+00,2.497e+00,2.806e+00,1.797e+00,2.553e+00,2.441e+00,2.445e+00,3.467e+00,2.943e+00,2.900e+00,2.293e+00,1.951e+00,2.162e+00,3.497e+00,2.336e+00,2.882e+00,3.243e+00,2.588e+00,2.316e+00,2.686e+00,1.620e+00,2.412e+00,2.086e+00,2.328e+00,3.283e+00,2.338e+00,2.526e+00,3.205e+00,2.740e+00,3.111e+00,3.261e+00,1.975e+00,3.051e+00,3.005e+00
2.996e-01,8.210e-01,1.158e+00,1.300e+00,1.809e+00,1.740e+00,3.455e+00,2.934e+00,2.344e+00,3.009e+00,3.538e+00,4.409e+00,3.783e+00,3.328e+00,3.616e+00,3.009e+00,3.634e+00,5.009e+00,4.144e+00,5.036e+00,5.432e+00,5.704e+00,4.904e+00,4.825e+00,5.655e+00,4.349e+00,5.220e+00,4.913e+00,5.207e+00,4.568e+00,4.590e+00,5.297e+00,3.818e+00,4.088e+00,3.474e+00,4.873e+00,5.258e+00,6.957e+00,3.884e+00,5.016e+00,4.033e+00,5.792e+00,4.400e+00,5.255e+00,4.957e+00,5.480e+00,5.952e+00,4.120e+00,4.323e+00,4.970e+00,4.096e+00,5.295e+00,4.876e+00,5.479e+00,5.513e+00,3.334e+00,4.295e+00,4.623e+00,4.484e+00,4.262e+00,5.673e+00,4.398e+00,3.583e+00,4.524e+00,3.950e+00,5.024e+00,4.502e+00,5.466e+00,5.988e+00,4.159e+00,5.649e+00,4.430e+00,5.590e+00,4.266e+00,5.638e+00,4.378e+00,5.420e+00,4.499e+00
1.741e-01,9.061e-01,9.681e-01,1.264e+00,1.829e+00,1.790e+00,3.655e+00,2.450e+00,1.835e+00,2.940e+00,3.825e+00,3.369e+00,3.767e+00,3.118e+00,3.987e+00,3.543e+00,3.795e+00,6.078e+00,5.382e+00,5.401e+00,6.969e+00,5.795e+00,5.205e+00,6.667e+00,6.066e+00,4.430e+00,6.192e+00,5.286e+00,6.025e+00,5.508e+00,5.480e+00,6.054e+00,4.627e+00,4.874e+00,5.229e+00,6.451e+00,5.547e+00,7.691e+00,4.754e+00,6.549e+00,5.688e+00,6.005e+00,4.162e+00,5.335e+00,5.684e+00,6.341e+00,6.517e+00,4.940e+00,6.046e+00,5.400e+00,4.792e+00,6.800e+00,5.833e+00,6.178e+00,7.839e+00,4.422e+00,5.421e+00,5.707e+00,5.644e+00,5.978e+00,5.898e+00,6.146e+00,4.760e+00,4.203e+00,5.446e+00,4.987e+00,5.606e+00,5.941e+00,7.009e+00,5.692e+00,6.710e+00,5.527e+00,7.099e+00,5.452e+00,7.127e+00,5.264e+00,6.541e+00,5.226e+00
8.393e-02,1.761e-01,2.369e-01,5.879e-01,6.977e-01,5.543e-01,1.535e+00,1.045e+00,9.369e-01,1.947e+00,2.094e+00,2.739e+00,2.580e+00,2.467e+00,2.708e+00,2.605e+00,2.959e+00,4.324e+00,4.341e+00,4.479e+00,5.063e+00,4.260e+00,4.334e+00,5.770e+00,4.724e+00,4.373e+00,4.792e+00,3.511e+00,4.267e+00,5.241e+00,4.509e+00,5.047e+00,4.243e+00,3.857e+00,4.231e+00,5.417e+00,4.658e+00,6.204e+00,4.130e+00,5.261e+00,4.301e+00,4.290e+00,3.702e+00,4.869e+00,4.082e+00,4.720e+00,4.979e+00,3.782e+00,4.120e+00,4.044e+00,4.849e+00,5.122e+00,4.223e+00,5.126e+00,5.545e+00,3.436e+00,3.871e+00,5.056e+00,4.971e+00,4.231e+00,4.396e+00,4.869e+00,3.449e+00,4.276e+00,4.064e+00,4.108e+00,3.992e+00,4.323e+00,5.494e+00,4.943e+00,4.672e+00,4.284e+00,5.451e+00,4.224e+00,5.133e+00,4.185e+00,4.461e+00,4.233e+00
2.654e-01,8.435e-01,1.292e+00,1.728e+00,1.446e+00,1.696e+00,2.592e+00,2.471e+00,2.712e+00,2.064e+00,2.087e+00,3.022e+00,2.167e+00,2.021e+00,2.042e+00,2.428e+00,3.327e+00,4.427e+00,3.713e+00,4.125e+00,4.240e+00,5.659e+00,5.431e+00,6.123e+00,5.321e+00,4.668e+00,5.062e+00,4.970e+00,4.821e+00,5.000e+00,3.592e+00,4.636e+00,3.315e+00,4.740e+00,4.838e+00,5.269e+00,4.541e+00,6.281e+00,4.558e+00,5.180e+00,3.967e+00,5.277e+00,4.220e+00,4.986e+00,4.578e+00,5.066e+00,6.037e+00,3.972e+00,4.896e+00,4.322e+00,3.887e+00,6.299e+00,5.173e+00,5.065e+00,5.443e+00,3.017e+00,4.680e+00,5.370e+00,5.155e+00,4.939e+00,4.933e+00,6.027e+00,4.253e+00,5.098e+00,4.521e+00,5.090e+00,4.584e+00,4.456e+00,5.767e+00,4.382e+00,5.195e+00,3.902e+00,4.770e+00,4.655e+00,4.173e+00,4.557e+00,5.976e+00,5.015e+00
3.942e-02,2.573e-01,2.825e-01,5.912e-01,1.095e+00,6.212e-01,1.643e+00,1.661e+00,1.259e+00,2.135e+00,2.863e+00,3.103e+00,2.566e+00,2.941e+00,3.002e+00,2.604e+00,2.508e+00,4.669e+00,4.039e+00,4.393e+00,5.838e+00,5.468e+00,4.907e+00,5.098e+00,4.732e+00,4.852e+00,5.618e+00,4.795e+00,5.971e+00,3.919e+00,5.671e+00,4.617e+00,4.449e+00,5.185e+00,3.882e+00,5.632e+00,5.323e+00,6.141e+00,4.894e+00,5.797e+00,4.272e+00,4.513e+00,4.917e+00,4.424e+00,5.859e+00,5.390e+00,6.303e+00,4.524e+00,5.029e+00,5.832e+00,3.516e+00,4.865e+00,4.841e+00,5.889e+00,5.637e+00,4.755e+00,5.072e+00,4.157e+00,5.370e+00,5.316e+00,5.573e+00,4.231e+00,4.702e+00,3.872e+00,5.383e+00,5.007e+00,4.236e+00,5.234e+00,6.113e+00,4.063e+00,4.626e+00,4.573e+00,5.686e+00,4.164e+00,5.276e+00,4.654e+00,4.983e+00,5.032e+00
1.320e-02,5.207e-01,7.700e-01,1.399e+00,8.121e-01,1.194e+00,1.256e+00,1.210e+00,2.175e+00,1.793e+00,1.868e+00,3.412e+00,2.746e+00,2.677e+00,2.018e+00,2.240e+00,3.665e+00,4.688e+00,3.842e+00,4.833e+00,5.055e+00,6.948e+00,6.475e+00,6.639e+00,5.349e+00,4.854e+00,5.556e+00,5.555e+00,6.062e+00,4.992e+00,4.422e+00,4.741e+00,4.039e+00,5.337e+00,4.320e+00,6.777e+00,6.165e+00,7.031e+00,4.334e+00,6.527e+00,4.764e+00,5.242e+00,5.021e+00,5.363e+00,5.284e+00,4.953e+00,6.291e+00,5.011e+00,5.981e+00,6.097e+00,4.670e+00,5.896e+00,4.926e+00,6.085e+00,6.533e+00,3.730e+00,5.296e+00,4.419e+00,5.145e+00,5.382e+00,4.947e+00,5.330e+00,4.225e+00,5.453e+00,5.728e+00,5.835e+00,4.476e+00,6.121e+00,6.408e+00,5.406e+00,5.429e+00,5.502e+00,5.751e+00,4.725e+00,6.514e+00,5.494e+00,5.971e+00,5.195e+00
1.792e-01,6.672e-01,9.159e-01,1.613e+00,1.632e+00,1.416e+00,2.960e+00,2.696e+00,2.485e+00,2.839e+00,3.147e+00,4.082e+00,3.058e+00,3.404e+00,3.440e+00,3.212e+00,3.827e+00,5.536e+00,4.577e+00,4.881e+00,6.047e+00,7.250e+00,7.120e+00,8.450e+00,7.186e+00,5.989e+00,7.020e+00,7.091e+00,7.231e+00,5.982e+00,5.772e+00,6.841e+00,5.214e+00,6.648e+00,6.267e+00,7.114e+00,6.507e+00,8.224e+00,6.456e+00,7.143e+00,5.420e+00,6.662e+00,6.092e+00,6.461e+00,7.320e+00,6.984e+00,7.124e+00,5.515e+00,6.840e+00,6.757e+00,6.020e+00,7.902e+00,7.159e+00,7.438e+00,7.609e+00,4.924e+00,6.249e+00,6.304e+00,6.818e+00,6.684e+00,7.200e+00,6.921e+00,5.923e+00,7.607e+00,6.476e+00,7.177e+00,5.971e+00,7.099e+00,8.275e+00,6.866e+00,6.494e+00,5.955e+00,7.113e+00,6.488e+00,7.667e+00,6.442e+00,6.797e+00,5.968e+00
1.782e-01,3.656e-01,5.821e-01,1.051e+00,1.241e+00,9.567e-01,2.177e+00,2.005e+00,1.646e+00,2.134e+00,2.288e+00,3.181e+00,2.934e+00,2.665e+00,2.965e+00,2.561e+00,3.021e+00,3.725e+00,3.225e+00,3.977e+00,4.693e+00,5.224e+00,5.076e+00,6.506e+00,5.790e+00,5.513e+00,5.112e+00,5.188e+00,6.197e+00,4.988e+00,4.985e+00,5.770e+00,4.890e+00,5.038e+00,5.702e+00,5.693e+00,5.392e+00,7.112e+00,5.408e+00,5.756e+00,3.990e+00,6.253e+00,5.621e+00,5.429e+00,6.412e+00,6.212e+00,5.718e+00,5.058e+00,5.175e+00,5.132e+00,5.790e+00,6.329e+00,6.028e+00,5.856e+00,5.753e+00,4.238e+00,4.313e+00,5.577e+00,5.892e+00,4.855e+00,6.484e+00,4.724e+00,5.251e+00,6.382e+00,5.943e+00,5.760e+00,4.935e+00,6.336e+00,7.573e+00,4.844e+00,4.266e+00,5.226e+00,6.302e+00,6.075e+00,6.255e+00,5.617e+00,5.613e+00,5.188e+00
2.397e-01,7.831e-01,9.087e-01,6.065e-01,1.052e+00,1.207e+00,2.550e+00,1.853e+00,1.672e+00,2.170e+00,3.048e+00,3.676e+00,2.214e+00,2.716e+00,2.898e+00,2.426e+00,3.192e+00,4.885e+00,4.581e+00,4.366e+00,5.892e+00,6.172e+00,6.040e+00,6.820e+00,6.259e+00,6.312e+00,6.160e+00,6.984e+00,7.764e+00,6.444e+00,5.588e+00,6.770e+00,5.506e+00,5.518e+00,5.999e+00,6.905e+00,7.298e+00,8.759e+00,6.398e+00,7.199e+00,5.009e+00,7.234e+00,6.986e+00,6.146e+00,7.576e+00,7.225e+00,7.736e+00,6.249e+00,5.723e+00,7.510e+00,5.680e+00,7.063e+00,6.965e+00,7.416e+00,7.138e+00,4.702e+00,6.625e+00,5.107e+00,6.597e+00,6.704e+00,7.371e+00,6.320e+00,5.007e+00,6.429e+00,6.775e+00,6.380e+00,6.083e+00,8.257e+00,8.284e+00,6.230e+00,6.899e+00,5.329e+00,7.924e+00,6.255e+00,7.192e+00,7.002e+00,6.490e+00,5.601e+00
2.343e-01,5.656e-01,7.924e-01,1.228e+00,1.523e+00,1.115e+00,3.014e+00,2.671e+00,2.257e+00,2.752e+00,3.816e+00,4.153e+00,2.925e+00,3.361e+00,3.798e+00,3.527e+00,3.539e+00,5.565e+00,4.960e+00,5.073e+00,6.839e+00,7.215e+00,6.616e+00,7.880e+00,6.361e+00,6.635e+00,7.856e+00,7.597e+00,8.412e+00,7.333e+00,7.287e+00,7.902e+00,6.231e+00,6.399e+00,5.961e+00,7.482e+00,6.801e+00,9.813e+00,7.550e+00,7.644e+00,5.622e+00,7.782e+00,7.047e+00,7.681e+00,8.635e+00,8.230e+00,8.316e+00,6.679e+00,6.987e+00,7.764e+00,7.320e+00,7.927e+00,7.766e+00,8.636e+00,8.307e+00,5.579e+00,6.759e+00,6.608e+00,8.015e+00,6.956e+00,7.620e+00,6.957e+00,6.559e+00,7.261e+00,7.257e+00,7.410e+00,6.038e+00,8.129e+00,9.640e+00,6.686e+00,7.561e+00,6.447e+00,8.296e+00,6.696e+00,7.892e+00,6.767e+00,8.254e+00,5.939e+00
1.913e-01,4.553e-01,7.157e-01,1.373e+00,1.533e+00,9.542e-01,2.805e+00,2.666e+00,1.509e+00,2.664e+00,3.411e+00,3.446e+00,2.733e+00,2.981e+00,3.577e+00,3.098e+00,3.394e+00,4.729e+00,4.499e+00,4.227e+00,5.450e+00,5.880e+00,5.329e+00,8.008e+00,6.147e+00,6.564e+00,8.026e+00,7.753e+00,8.920e+00,7.961e+00,6.962e+00,7.344e+00,6.857e+00,5.374e+00,7.222e+00,7.320e+00,6.427e+00,9.582e+00,7.619e+00,7.694e+00,5.866e+00,8.522e+00,7.075e+00,7.430e+00,8.122e+00,8.139e+00,8.173e+00,6.605e+00,6.322e+00,7.871e+00,7.566e+00,8.559e+00,8.980e+00,7.722e+00,7.751e+00,6.336e+00,6.327e+00,7.872e+00,8.589e+00,7.577e+00,7.285e+00,8.131e+00,6.604e+00,7.587e+00,8.240e+00,7.059e+00,6.476e+00,7.878e+00,9.417e+00,6.809e+00,7.060e+00,7.114e+00,8.439e+00,7.593e+00,8.402e+00,8.359e+00,8.445e+00,6.147e+00
7.266e-02,6.823e-01,7.938e-01,9.569e-01,1.037e+00,1.574e+00,2.621e+00,1.593e+00,1.438e+00,2.186e+00,2.145e+00,2.978e+00,3.109e+00,2.304e+00,2.501e+00,2.149e+00,3.100e+00,4.450e+00,3.906e+00,4.773e+00,5.571e+00,7.262e+00,6.959e+00,8.540e+00,7.132e+00,6.311e+00,7.396e+00,8.908e+00,8.557e+00,8.392e+00,6.178e+00,7.442e+00,5.731e+00,8.003e+00,7.341e+00,8.160e+00,7.931e+00,1.064e+01,7.986e+00,8.601e+00,5.380e+00,8.126e+00,8.272e+00,7.105e+00,9.090e+00,9.186e+00,8.869e+00,7.329e+00,8.114e+00,9.320e+00,8.460e+00,8.615e+00,8.387e+00,8.407e+00,8.613e+00,6.537e+00,7.037e+00,7.278e+00,8.650e+00,7.390e+00,8.777e+00,8.317e+00,6.987e+00,8.167e+00,8.161e+00,9.075e+00,7.500e+00,8.319e+00,8.915e+00,6.758e+00,7.173e+00,7.260e+00,8.286e+00,8.310e+00,8.277e+00,9.027e+00,8.703e+00,6.690e+00
1.010e-01,3.037e-01,4.702e-01,6.754e-01,8.554e-01,1.034e+00,1.781e+00,1.948e+00,2.723e+00,1.897e+00,3.048e+00,3.531e+00,3.494e+00,2.695e+00,3.147e+00,3.651e+00,4.165e+00,5.187e+00,4.444e+00,5.556e+00,6.290e+00,6.417e+00,5.683e+00,7.083e+00,5.318e+00,5.350e+00,6.572e+00,6.126e+00,6.656e+00,6.829e+00,6.297e+00,6.532e+00,6.989e+00,6.976e+00,6.611e+00,7.863e+00,6.053e+00,8.031e+00,6.945e+00,8.558e+00,6.552e+00,7.700e+00,7.210e+00,6.604e+00,6.951e+00,6.959e+00,6.871e+00,6.857e+00,6.435e+00,5.940e+00,7.145e+00,7.290e+00,6.865e+00,8.491e+00,8.273e+00,5.455e+00,5.994e+00,7.566e+00,7.465e+00,6.957e+00,7.521e+00,7.414e+00,6.209e+00,6.158e+00,6.821e+00,8.030e+00,6.822e+00,6.441e+00,9.213e+00,6.672e+00,6.653e+00,7.339e+00,7.923e+00,7.409e+00,6.753e+00,6.761e+00,7.968e+00,7.470e+00
1.918e-01,9.490e-01,1.229e+00,1.881e+00,1.975e+00,2.132e+00,3.586e+00,3.039e+00,2.713e+00,2.794e+00,2.779e+00,3.993e+00,3.987e+00,3.218e+00,3.788e+00,3.461e+00,4.308e+00,5.462e+00,4.987e+00,5.773e+00,6.072e+00,7.595e+00,7.417e+00,8.637e+00,7.498e+00,6.752e+00,7.751e+00,8.406e+00,9.475e+00,8.918e+00,7.087e+00,7.733e+00,6.621e+00,7.939e+00,9.578e+00,8.442e+00,8.208e+00,1.110e+01,8.195e+00,9.212e+00,6.967e+00,9.662e+00,7.555e+00,7.838e+00,8.006e+00,8.953e+00,9.284e+00,7.859e+00,8.589e+00,9.491e+00,8.406e+00,1.036e+01,9.116e+00,8.797e+00,9.802e+00,7.029e+00,8.141e+00,8.202e+00,8.944e+00,8.379e+00,9.663e+00,9.370e+00,7.237e+00,8.716e+00,9.347e+00,9.894e+00,7.526e+00,8.642e+00,1.036e+01,8.011e+00,8.327e+00,8.727e+00,9.708e+00,1.002e+01,9.108e+00,8.574e+00,9.199e+00,7.956e+00
1.003e-02,3.365e-01,5.507e-01,1.232e+00,1.164e+00,1.382e+00,2.417e+00,2.327e+00,2.856e+00,2.511e+00,3.191e+00,3.428e+00,3.617e+00,2.799e+00,3.059e+00,3.368e+00,3.938e+00,4.960e+00,4.092e+00,5.320e+00,6.505e+00,6.209e+00,6.213e+00,6.124e+00,6.000e+00,5.887e+00,7.181e+00,7.948e+00,8.642e+00,7.048e+00,7.579e+00,7.221e+00,7.295e+00,7.950e+00,7.229e+00,8.948e+00,7.197e+00,9.035e+00,8.607e+00,8.974e+00,6.770e+00,7.831e+00,7.914e+00,7.715e+00,8.206e+00,8.261e+00,7.254e+00,7.118e+00,7.290e+00,7.625e+00,7.786e+00,9.240e+00,8.532e+00,9.020e+00,9.186e+00,7.562e+00,7.013e+00,7.589e+00,8.206e+00,8.092e+00,7.917e+00,7.728e+00,7.220e+00,7.383e+00,8.051e+00,9.247e+00,7.094e+00,8.192e+00,1.038e+01,7.585e+00,8.363e+00,8.018e+00,8.501e+00,7.885e+00,8.387e+00,7.264e+00,8.402e+00,7.551e+00
2.178e-01,5.834e-01,7.338e-01,6.219e-01,1.142e+00,1.214e+00,2.638e+00,2.415e+00,2.624e+00,2.129e+00,3.898e+00,4.858e+00,3.337e+00,3.235e+00,3.869e+00,3.391e+00,3.717e+00,5.199e+00,4.924e+00,5.129e+00,6.590e+00,7.689e+00,6.584e+00,7.769e+00,6.784e+00,6.483e+00,8.688e+00,8.605e+00,9.124e+00,8.209e+00,7.979e+00,8.582e+00,8.968e+00,9.261e+00,9.119e+00,1.002e+01,9.230e+00,1.121e+01,9.654e+00,1.026e+01,7.313e+00,1.000e+01,9.541e+00,8.684e+00,1.075e+01,9.331e+00,9.932e+00,8.768e+00,8.013e+00,1.009e+01,8.896e+00,9.465e+00,1.081e+01,9.786e+00,1.085e+01,7.817e+00,9.563e+00,8.729e+00,1.062e+01,8.523e+00,1.079e+01,9.989e+00,8.240e+00,1.008e+01,9.161e+00,1.094e+01,8.920e+00,1.020e+01,1.114e+01,8.310e+00,1.009e+01,9.313e+00,1.076e+01,1.027e+01,1.007e+01,1.042e+01,9.949e+00,9.426e+00
4.094e-02,6.891e-01,7.382e-01,1.428e+00,1.215e+00,1.488e+00,2.819e+00,1.521e+00,1.451e+00,2.036e+00,1.976e+00,2.678e+00,2.685e+00,2.320e+00,2.681e+00,2.340e+00,2.622e+00,4.029e+00,3.383e+00,3.931e+00,4.759e+00,5.400e+00,4.926e+00,6.306e+00,4.608e+00,4.451e+00,5.116e+00,5.821e+00,6.659e+00,6.729e+00,5.690e+00,6.424e+00,5.913e+00,7.402e+00,7.261e+00,7.121e+00,7.280e+00,9.968e+00,8.619e+00,8.263e+00,6.320e+00,7.591e+00,6.399e+00,6.958e+00,7.318e+00,6.999e+00,8.088e+00,6.334e+00,7.947e+00,7.305e+00,8.101e+00,9.528e+00,6.821e+00,7.292e+00,7.932e+00,6.090e+00,6.890e+00,6.838e+00,7.599e+00,6.555e+00,8.078e+00,7.194e+00,6.284e+00,7.010e+00,6.246e+00,7.800e+00,6.980e+00,7.742e+00,8.763e+00,7.215e+00,7.623e+00,7.656e+00,7.835e+00,8.679e+00,7.188e+00,6.943e+00,8.156e+00,7.178e+00
4.895e-02,5.952e-01,8.236e-01,1.527e+00,1.117e+00,1.362e+00,1.939e+00,1.735e+00,2.023e+00,2.255e+00,2.628e+00,3.848e+00,3.692e+00,2.993e+00,2.971e+00,2.985e+00,4.232e+00,4.076e+00,4.141e+00,5.370e+00,5.458e+00,5.890e+00,6.027e+00,6.511e+00,5.611e+00,6.035e+00,7.047e+00,6.644e+00,8.061e+00,7.180e+00,7.273e+00,6.506e+00,6.861e+00,7.105e+00,7.768e+00,7.931e+00,8.181e+00,9.267e+00,8.727e+00,8.335e+00,7.102e+00,8.686e+00,7.841e+00,7.929e+00,8.293e+00,7.811e+00,8.809e+00,8.150e+00,7.283e+00,8.175e+00,7.731e+00,8.744e+00,8.737e+00,8.293e+00,8.834e+00,7.581e+00,7.584e+00,7.969e+00,8.783e+00,8.303e+00,9.109e+00,8.766e+00,6.863e+00,7.266e+00,8.906e+00,8.814e+00,7.964e+00,7.877e+00,9.358e+00,7.409e+00,8.579e+00,8.782e+00,8.571e+00,8.121e+00,8.023e+00,8.274e+00,8.551e+00,8.012e+00
2.574e-01,7.273e-01,1.135e+00,1.445e+00,1.357e+00,1.518e+00,2.191e+00,2.414e+00,2.651e+00,2.284e+00,2.694e+00,4.072e+00,3.779e+00,3.052e+00,3.182e+00,3.416e+00,5.001e+00,4.266e+00,4.220e+00,5.995e+00,5.485e+00,6.811e+00,7.098e+00,8.032e+00,5.862e+00,6.136e+00,6.503e+00,6.909e+00,7.492e+00,7.332e+00,6.856e+00,7.299e+00,6.836e+00,7.933e+00,8.486e+00,9.257e+00,7.985e+00,1.075e+01,1.039e+01,8.851e+00,7.884e+00,1.036e+01,8.052e+00,8.322e+00,9.264e+00,9.705e+00,9.636e+00,9.338e+00,7.790e+00,8.593e+00,8.745e+00,1.000e+01,8.849e+00,9.964e+00,9.679e+00,7.331e+00,8.443e+00,9.621e+00,9.631e+00,8.016e+00,1.066e+01,1.066e+01,7.365e+00,8.389e+00,8.640e+00,9.210e+00,8.189e+00,7.832e+00,1.082e+01,8.405e+00,8.256e+00,9.618e+00,8.968e+00,8.992e+00,8.022e+00,8.725e+00,9.280e+00,9.666e+00
1.177e-01,2.438e-01,5.360e-01,1.231e+00,1.279e+00,8.018e-01,1.440e+00,1.799e+00,1.826e+00,2.413e+00,3.114e+00,4.015e+00,2.881e+00,3.235e+00,3.150e+00,2.902e+00,3.549e+00,4.554e+00,4.963e+00,5.201e+00,5.530e+00,5.578e+00,6.217e+00,7.513e+00,6.351e+00,6.976e+00,7.305e+00,6.852e+00,8.295e+00,6.280e+00,6.897e+00,7.647e+00,7.336e+00,7.915e+00,7.191e+00,9.133e+00,8.098e+00,1.092e+01,1.067e+01,8.046e+00,7.742e+00,8.993e+00,9.202e+00,8.035e+00,1.065e+01,8.414e+00,1.015e+01,7.320e+00,8.823e+00,9.215e+00,8.995e+00,9.170e+00,9.366e+00,8.274e+00,9.045e+00,8.557e+00,9.386e+00,8.956e+00,9.192e+00,8.891e+00,1.026e+01,9.008e+00,7.788e+00,8.858e+00,9.195e+00,9.000e+00,8.380e+00,8.980e+00,1.032e+01,7.900e+00,8.727e+00,8.778e+00,9.036e+00,8.909e+00,8.385e+00,9.317e+00,8.896e+00,9.941e+00
2.805e-01,1.046e+00,1.456e+00,1.961e+00,2.039e+00,1.874e+00,2.948e+00,3.101e+00,3.057e+00,2.678e+00,3.860e+00,4.616e+00,3.478e+00,3.458e+00,3.564e+00,3.523e+00,4.435e+00,5.277e+00,4.863e+00,5.151e+00,6.281e+00,7.242e+00,6.203e+00,7.874e+00,5.967e+00,6.226e+00,6.559e+00,7.337e+00,7.898e+00,7.091e+00,6.995e+00,7.731e+00,8.480e+00,8.560e+00,8.652e+00,9.236e+00,7.761e+00,1.233e+01,1.066e+01,9.817e+00,8.689e+00,1.072e+01,9.404e+00,7.780e+00,1.055e+01,8.722e+00,1.077e+01,9.931e+00,9.152e+00,1.034e+01,8.696e+00,1.036e+01,1.084e+01,9.661e+00,1.036e+01,8.530e+00,1.071e+01,9.527e+00,8.927e+00,9.583e+00,1.180e+01,1.015e+01,8.444e+00,8.930e+00,9.964e+00,9.922e+00,9.818e+00,9.702e+00,1.246e+01,9.731e+00,1.073e+01,1.133e+01,9.899e+00,1.026e+01,9.364e+00,1.039e+01,9.853e+00,1.102e+01
1.957e-01,5.597e-01,8.403e-01,1.148e+00,1.392e+00,1.212e+00,1.951e+00,2.263e+00,2.455e+00,2.075e+00,2.975e+00,4.105e+00,2.722e+00,3.061e+00,3.209e+00,2.821e+00,3.764e+00,4.522e+00,4.685e+00,4.960e+00,6.025e+00,7.309e+00,7.191e+00,7.662e+00,6.592e+00,7.014e+00,8.161e+00,8.884e+00,1.046e+01,8.172e+00,8.023e+00,8.697e+00,9.135e+00,9.116e+00,1.010e+01,1.084e+01,1.013e+01,1.287e+01,1.353e+01,1.123e+01,9.113e+00,1.165e+01,1.131e+01,1.019e+01,1.175e+01,1.137e+01,1.201e+01,1.100e+01,1.090e+01,1.268e+01,1.009e+01,1.252e+01,1.240e+01,1.181e+01,1.183e+01,1.034e+01,1.166e+01,1.030e+01,1.113e+01,1.088e+01,1.237e+01,1.128e+01,9.494e+00,1.160e+01,1.247e+01,1.248e+01,1.052e+01,1.177e+01,1.356e+01,1.048e+01,1.124e+01,1.274e+01,1.211e+01,1.228e+01,1.063e+01,1.133e+01,1.130e+01,1.150e+01
2.544e-01,5.077e-01,8.741e-01,1.358e+00,1.794e+00,1.463e+00,2.506e+00,2.868e+00,2.605e+00,2.854e+00,2.527e+00,3.017e+00,3.290e+00,2.758e+00,2.956e+00,3.190e+00,3.876e+00,3.942e+00,4.587e+00,5.077e+00,5.477e+00,5.850e+00,6.340e+00,6.325e+00,6.480e+00,5.882e+00,6.752e+00,6.928e+00,7.802e+00,8.354e+00,6.668e+00,8.948e+00,7.418e+00,8.171e+00,8.332e+00,8.515e+00,8.300e+00,1.091e+01,1.197e+01,1.043e+01,7.350e+00,1.026e+01,1.020e+01,9.075e+00,8.386e+00,9.813e+00,9.730e+00,8.622e+00,9.552e+00,1.098e+01,9.037e+00,1.076e+01,1.023e+01,9.548e+00,1.072e+01,9.432e+00,9.084e+00,1.036e+01,1.033e+01,1.018e+01,1.041e+01,9.954e+00,7.555e+00,9.271e+00,1.026e+01,1.046e+01,8.787e+00,8.213e+00,1.165e+01,9.218e+00,8.740e+00,1.069e+01,1.008e+01,9.469e+00,8.667e+00,9.638e+00,9.643e+00,9.609e+00
1.488e-01,8.318e-01,1.198e+00,1.931e+00,1.532e+00,1.889e+00,2.937e+00,2.194e+00,2.097e+00,2.226e+00,2.117e+00,2.851e+00,3.004e+00,2.225e+00,2.555e+00,2.193e+00,3.541e+00,3.334e+00,3.421e+00,4.467e+00,5.062e+00,6.691e+00,6.496e+00,6.950e+00,6.045e+00,5.595e+00,5.912e+00,7.159e+00,7.928e+00,6.549e+00,6.406e+00,7.504e+00,6.549e+00,8.417e+00,8.984e+00,9.046e+00,8.026e+00,1.115e+01,1.171e+01,1.058e+01,7.905e+00,1.050e+01,9.056e+00,8.711e+00,1.006e+01,9.949e+00,1.154e+01,9.515e+00,1.034e+01,1.106e+01,9.228e+00,1.187e+01,1.048e+01,1.038e+01,1.044e+01,9.148e+00,8.791e+00,1.026e+01,1.167e+01,9.467e+00,1.093e+01,1.088e+01,9.678e+00,1.047e+01,1.024e+01,1.001e+01,9.140e+00,9.984e+00,1.185e+01,8.878e+00,8.469e+00,1.095e+01,1.070e+01,1.061e+01,9.334e+00,1.040e+01,1.013e+01,1.078e+01
1.320e-01,6.221e-01,8.913e-01,1.221e+00,1.220e+00,1.643e+00,2.292e+00,2.056e+00,2.571e+00,2.663e+00,2.944e+00,4.353e+00,3.638e+00,3.169e+00,3.195e+00,3.432e+00,4.762e+00,4.882e+00,4.779e+00,6.187e+00,5.298e+00,5.974e+00,7.042e+00,7.921e+00,6.159e+00,6.440e+00,6.059e+00,7.063e+00,7.548e+00,6.813e+00,6.539e+00,7.536e+00,6.821e+00,8.728e+00,8.267e+00,8.970e+00,8.402e+00,1.174e+01,1.178e+01,9.896e+00,8.854e+00,1.057e+01,1.004e+01,8.743e+00,1.049e+01,9.670e+00,1.155e+01,9.796e+00,1.022e+01,1.096e+01,1.032e+01,1.170e+01,1.140e+01,1.117e+01,1.011e+01,1.039e+01,9.091e+00,1.146e+01,1.110e+01,9.906e+00,1.193e+01,1.089e+01,9.567e+00,1.055e+01,9.384e+00,1.024e+01,1.026e+01,9.928e+00,1.232e+01,1.029e+01,1.008e+01,1.112e+01,1.079e+01,1.047e+01,9.993e+00,1.071e+01,1.014e+01,1.177e+01
1.245e-01,2.585e-01,4.272e-01,7.454e-01,1.105e+00,5.731e-01,1.961e+00,2.199e+00,1.082e+00,1.592e+00,2.653e+00,3.065e+00,2.652e+00,2.398e+00,3.188e+00,2.336e+00,2.235e+00,4.144e+00,3.583e+00,3.657e+00,4.876e+00,5.759e+00,4.884e+00,5.107e+00,5.245e+00,4.665e+00,6.226e+00,6.219e+00,7.290e+00,5.864e+00,5.354e+00,6.760e+00,6.293e+00,6.870e+00,6.556e+00,7.684e+00,7.781e+00,1.023e+01,9.816e+00,9.224e+00,8.030e+00,1.037e+01,1.007e+01,8.160e+00,1.018e+01,9.086e+00,1.154e+01,9.180e+00,1.036e+01,1.154e+01,9.692e+00,9.927e+00,1.116e+01,1.013e+01,1.020e+01,9.746e+00,1.034e+01,1.002e+01,1.129e+01,9.812e+00,1.114e+01,9.376e+00,8.171e+00,1.042e+01,9.905e+00,9.813e+00,1.073e+01,1.070e+01,1.161e+01,8.722e+00,9.133e+00,1.062e+01,1.190e+01,8.930e+00,9.017e+00,1.087e+01,8.598e+00,1.095e+01
2.865e-01,1.063e+00,1.462e+00,2.231e+00,2.248e+00,1.950e+00,3.783e+00,3.227e+00,2.341e+00,3.350e+00,3.992e+00,4.202e+00,4.217e+00,3.622e+00,4.056e+00,3.742e+00,4.563e+00,5.477e+00,5.514e+00,5.786e+00,7.661e+00,7.578e+00,6.505e+00,8.291e+00,6.995e+00,6.851e+00,7.668e+00,7.339e+00,8.691e+00,7.858e+00,7.666e+00,8.854e+00,8.237e+00,8.012e+00,8.572e+00,9.474e+00,9.260e+00,1.272e+01,1.214e+01,1.089e+01,8.537e+00,1.090e+01,1.041e+01,1.036e+01,1.133e+01,1.096e+01,1.300e+01,1.081e+01,1.095e+01,1.103e+01,1.052e+01,1.252e+01,1.250e+01,1.054e+01,1.142e+01,1.117e+01,1.050e+01,1.149e+01,1.194e+01,1.053e+01,1.250e+01,1.141e+01,9.437e+00,1.092e+01,1.174e+01,1.079e+01,1.170e+01,1.142e+01,1.346e+01,1.115e+01,1.142e+01,1.215e+01,1.171e+01,9.872e+00,1.145e+01,1.222e+01,1.136e+01,1.118e+01
2.547e-01,9.051e-01,1.307e+00,1.501e+00,1.588e+00,1.972e+00,3.329e+00,2.840e+00,2.696e+00,2.766e+00,3.118e+00,3.803e+00,3.202e+00,2.743e+00,2.980e+00,2.774e+00,4.202e+00,5.317e+00,4.762e+00,5.362e+00,5.967e+00,7.314e+00,7.332e+00,9.116e+00,7.961e+00,6.937e+00,8.410e+00,9.518e+00,9.554e+00,9.277e+00,7.517e+00,8.751e+00,8.216e+00,9.466e+00,1.029e+01,1.019e+01,1.010e+01,1.446e+01,1.396e+01,1.184e+01,9.654e+00,1.212e+01,1.261e+01,1.158e+01,1.432e+01,1.294e+01,1.414e+01,1.251e+01,1.321e+01,1.434e+01,1.231e+01,1.511e+01,1.546e+01,1.324e+01,1.333e+01,1.170e+01,1.231e+01,1.344e+01,1.362e+01,1.151e+01,1.536e+01,1.453e+01,1.157e+01,1.410e+01,1.323e+01,1.431e+01,1.323e+01,1.333e+01,1.551e+01,1.255e+01,1.303e+01,1.323e+01,1.344e+01,1.347e+01,1.238e+01,1.407e+01,1.299e+01,1.427e+01
8.088e-02,7.103e-01,8.876e-01,1.463e+00,1.158e+00,1.678e+00,3.004e+00,2.222e+00,2.653e+00,1.988e+00,2.807e+00,3.900e+00,3.526e+00,2.740e+00,3.398e+00,2.972e+00,3.863e+00,3.968e+00,3.748e+00,4.833e+00,5.583e+00,7.590e+00,6.444e+00,6.942e+00,5.618e+00,5.084e+00,7.538e+00,8.025e+00,8.815e+00,8.338e+00,7.511e+00,7.890e+00,7.636e+00,9.117e+00,9.295e+00,9.040e+00,8.925e+00,1.107e+01,1.124e+01,1.075e+01,8.018e+00,1.159e+01,1.060e+01,1.010e+01,1.222e+01,1.040e+01,1.319e+01,1.105e+01,1.202e+01,1.176e+01,1.210e+01,1.183e+01,1.245e+01,1.198e+01,1.267e+01,1.146e+01,9.999e+00,1.177e+01,1.284e+01,1.134e+01,1.257e+01,1.132e+01,1.021e+01,1.079e+01,1.206e+01,1.362e+01,1.147e+01,1.078e+01,1.356e+01,1.052e+01,1.228e+01,1.374e+01,1.233e+01,1.174e+01,1.118e+01,1.197e+01,1.261e+01,1.211e+01
1.765e-01,8.542e-01,9.314e-01,1.176e+00,1.380e+00,1.285e+00,2.599e+00,2.122e+00,2.063e+00,1.621e+00,3.085e+00,3.091e+00,2.718e+00,2.511e+00,3.153e+00,2.976e+00,3.002e+00,4.767e+00,3.662e+00,3.873e+00,6.084e+00,6.892e+00,5.828e+00,7.842e+00,5.697e+00,5.734e+00,7.131e+00,7.524e+00,8.407e+00,6.816e+00,6.864e+00,7.178e+00,7.265e+00,8.348e+00,8.330e+00,9.026e+00,8.249e+00,1.129e+01,1.161e+01,1.044e+01,8.016e+00,9.748e+00,1.055e+01,8.999e+00,1.269e+01,1.060e+01,1.206e+01,1.185e+01,1.204e+01,1.226e+01,1.069e+01,1.253e+01,1.392e+01,1.184e+01,1.219e+01,1.039e+01,1.097e+01,1.157e+01,1.248e+01,1.067e+01,1.294e+01,1.070e+01,1.064e+01,1.211e+01,1.146e+01,1.164e+01,1.156e+01,1.202e+01,1.371e+01,1.142e+01,1.176e+01,1.240e+01,1.270e+01,1.094e+01,1.189e+01,1.159e+01,1.171e+01,1.229e+01
1.525e-01,8.980e-01,1.015e+00,1.222e+00,1.188e+00,1.592e+00,2.405e+00,1.521e+00,1.718e+00,2.262e+00,2.569e+00,3.511e+00,3.249e+00,2.801e+00,2.969e+00,2.979e+00,4.212e+00,5.045e+00,4.760e+00,5.471e+00,6.103e+00,6.940e+00,7.091e+00,8.441e+00,6.208e+00,5.685e+00,7.335e+00,7.262e+00,8.392e+00,8.454e+00,7.134e+00,8.367e+00,7.131e+00,7.622e+00,8.623e+00,8.923e+00,8.749e+00,1.166e+01,1.113e+01,1.068e+01,8.754e+00,1.055e+01,1.038e+01,1.069e+01,1.167e+01,1.130e+01,1.392e+01,1.208e+01,1.248e+01,1.228e+01,1.125e+01,1.310e+01,1.275e+01,1.296e+01,1.347e+01,1.111e+01,1.002e+01,1.225e+01,1.281e+01,1.170e+01,1.207e+01,1.172e+01,1.066e+01,1.137e+01,1.327e+01,1.203e+01,1.122e+01,1.167e+01,1.385e+01,1.118e+01,1.242e+01,1.323e+01,1.297e+01,1.196e+01,1.232e+01,1.149e+01,1.294e+01,1.213e+01
6.808e-02,1.415e-01,1.942e-01,4.708e-01,9.507e-01,7.758e-01,2.346e+00,2.394e+00,2.608e+00,2.485e+00,4.029e+00,4.043e+00,3.600e+00,3.270e+00,3.982e+00,4.024e+00,3.856e+00,5.094e+00,4.984e+00,5.460e+00,6.114e+00,5.548e+00,5.306e+00,6.395e+00,5.355e+00,5.360e+00,7.921e+00,6.103e+00,7.578e+00,7.055e+00,7.890e+00,7.283e+00,7.566e+00,8.047e+00,7.495e+00,7.841e+00,8.967e+00,1.168e+01,1.209e+01,1.053e+01,9.335e+00,1.038e+01,1.031e+01,1.090e+01,1.208e+01,1.057e+01,1.386e+01,1.237e+01,1.278e+01,1.363e+01,1.282e+01,1.302e+01,1.452e+01,1.355e+01,1.339e+01,1.270e+01,1.283e+01,1.366e+01,1.488e+01,1.147e+01,1.383e+01,1.250e+01,1.122e+01,1.280e+01,1.329e+01,1.351e+01,1.333e+01,1.258e+01,1.463e+01,1.326e+01,1.469e+01,1.286e+01,1.414e+01,1.213e+01,1.265e+01,1.323e+01,1.292e+01,1.338e+01
3.079e-01,1.155e+00,1.535e+00,1.981e+00,1.840e+00,2.198e+00,3.358e+00,2.743e+00,3.481e+00,2.290e+00,3.034e+00,4.264e+00,3.295e+00,3.057e+00,3.450e+00,3.289e+00,4.543e+00,4.771e+00,4.730e+00,5.286e+00,5.927e+00,7.328e+00,6.929e+00,7.627e+00,6.277e+00,5.711e+00,6.363e+00,7.138e+00,8.173e+00,7.264e+00,6.088e+00,8.054e+00,6.970e+00,7.611e+00,9.223e+00,9.067e+00,8.078e+00,1.101e+01,1.085e+01,9.757e+00,8.250e+00,1.067e+01,9.361e+00,9.679e+00,1.033e+01,1.078e+01,1.323e+01,1.151e+01,1.297e+01,1.252e+01,1.071e+01,1.342e+01,1.282e+01,1.288e+01,1.332e+01,1.041e+01,1.046e+01,1.260e+01,1.216e+01,1.153e+01,1.308e+01,1.156e+01,1.044e+01,1.206e+01,1.261e+01,1.378e+01,1.103e+01,1.103e+01,1.412e+01,1.244e+01,1.281e+01,1.438e+01,1.321e+01,1.289e+01,1.176e+01,1.060e+01,1.256e+01,1.344e+01
2.780e-01,8.470e-01,1.231e+00,1.484e+00,1.601e+00,1.721e+00,3.082e+00,2.739e+00,2.877e+00,2.120e+00,3.488e+00,4.047e+00,3.799e+00,2.883e+00,3.557e+00,3.270e+00,3.961e+00,4.849e+00,4.059e+00,5.277e+00,6.319e+00,6.992e+00,6.261e+00,6.867e+00,6.454e+00,6.444e+00,6.923e+00,7.952e+00,8.716e+00,7.350e+00,7.296e+00,7.709e+00,7.579e+00,8.786e+00,8.576e+00,9.863e+00,8.487e+00,1.273e+01,1.336e+01,1.139e+01,9.288e+00,1.138e+01,1.083e+01,1.040e+01,1.246e+01,1.160e+01,1.401e+01,1.366e+01,1.300e+01,1.420e+01,1.339e+01,1.410e+01,1.487e+01,1.487e+01,1.368e+01,1.294e+01,1.299e+01,1.413e+01,1.495e+01,1.181e+01,1.608e+01,1.293e+01,1.217e+01,1.369e+01,1.429e+01,1.472e+01,1.313e+01,1.236e+01,1.667e+01,1.275e+01,1.442e+01,1.581e+01,1.464e+01,1.334e+01,1.253e+01,1.338e+01,1.373e+01,1.571e+01
1.425e-01,5.600e-01,7.536e-01,1.438e+00,1.701e+00,1.516e+00,3.462e+00,3.005e+00,2.879e+00,2.990e+00,4.092e+00,3.916e+00,3.225e+00,3.192e+00,3.904e+00,3.628e+00,3.688e+00,4.888e+00,4.964e+00,4.554e+00,5.862e+00,5.840e+00,5.263e+00,6.705e+00,5.959e+00,5.330e+00,7.167e+00,6.585e+00,8.030e+00,6.866e+00,7.023e+00,8.577e+00,8.305e+00,8.270e+00,9.218e+00,8.822e+00,9.099e+00,1.287e+01,1.220e+01,1.128e+01,1.006e+01,1.231e+01,9.853e+00,1.074e+01,1.202e+01,1.104e+01,1.437e+01,1.157e+01,1.319e+01,1.396e+01,1.332e+01,1.504e+01,1.630e+01,1.364e+01,1.486e+01,1.294e+01,1.372e+01,1.329e+01,1.574e+01,1.277e+01,1.430e+01,1.294e+01,1.273e+01,1.383e+01,1.485e+01,1.410e+01,1.327e+01,1.353e+01,1.633e+01,1.311e+01,1.458e+01,1.444e+01,1.561e+01,1.469e+01,1.364e+01,1.431e+01,1.290e+01,1.571e+01
1.931e-02,1.413e-01,2.235e-01,4.535e-01,7.468e-01,7.087e-01,1.877e+00,1.631e+00,1.181e+00,1.974e+00,2.314e+00,2.398e+00,2.433e+00,2.123e+00,2.388e+00,2.085e+00,2.369e+00,3.994e+00,2.982e+00,3.534e+00,4.205e+00,4.841e+00,4.691e+00,5.928e+00,5.646e+00,5.154e+00,5.739e+00,6.436e+00,6.762e+00,5.652e+00,5.041e+00,5.759e+00,5.245e+00,6.343e+00,6.048e+00,6.468e+00,7.383e+00,9.475e+00,8.577e+00,8.814e+00,6.272e+00,8.617e+00,8.279e+00,7.548e+00,9.562e+00,8.680e+00,1.060e+01,9.556e+00,9.629e+00,1.122e+01,1.039e+01,1.132e+01,1.361e+01,1.183e+01,9.772e+00,1.022e+01,1.068e+01,1.146e+01,1.325e+01,9.628e+00,1.184e+01,9.661e+00,1.055e+01,1.214e+01,1.211e+01,1.057e+01,1.054e+01,1.070e+01,1.243e+01,9.686e+00,9.906e+00,1.042e+01,1.225e+01,1.080e+01,1.172e+01,1.192e+01,1.046e+01,1.146e+01
1.949e-01,4.029e-01,6.923e-01,1.169e+00,1.593e+00,1.150e+00,2.471e+00,2.527e+00,1.945e+00,2.242e+00,2.983e+00,3.501e+00,3.269e+00,2.953e+00,3.698e+00,2.836e+00,3.379e+00,4.361e+00,4.818e+00,5.055e+00,5.996e+00,6.632e+00,6.339e+00,7.591e+00,7.092e+00,6.259e+00,7.007e+00,7.005e+00,8.011e+00,6.848e+00,7.091e+00,7.760e+00,7.280e+00,9.241e+00,8.998e+00,8.337e+00,8.199e+00,1.158e+01,1.156e+01,1.044e+01,8.078e+00,9.802e+00,1.028e+01,9.653e+00,1.265e+01,1.078e+01,1.386e+01,1.151e+01,1.262e+01,1.311e+01,1.194e+01,1.342e+01,1.483e+01,1.405e+01,1.355e+01,1.374e+01,1.252e+01,1.457e+01,1.450e+01,1.259e+01,1.509e+01,1.311e+01,1.297e+01,1.311e+01,1.408e+01,1.392e+01,1.376e+01,1.205e+01,1.468e+01,1.211e+01,1.241e+01,1.410e+01,1.340e+01,1.469e+01,1.171e+01,1.381e+01,1.220e+01,1.511e+01
2.133e-02,1.161e-01,2.640e-01,9.665e-01,1.085e+00,8.977e-01,2.024e+00,2.038e+00,2.075e+00,2.715e+00,2.727e+00,3.717e+00,2.881e+00,3.228e+00,3.117e+00,2.975e+00,3.546e+00,4.868e+00,3.956e+00,4.726e+00,5.079e+00,5.332e+00,5.342e+00,6.317e+00,5.808e+00,5.766e+00,6.413e+00,6.910e+00,7.144e+00,6.898e+00,6.440e+00,6.357e+00,7.562e+00,8.040e+00,8.120e+00,9.222e+00,8.943e+00,1.092e+01,1.143e+01,1.055e+01,8.350e+00,1.021e+01,9.121e+00,8.880e+00,1.110e+01,9.347e+00,1.244e+01,1.050e+01,1.112e+01,1.262e+01,1.151e+01,1.224e+01,1.459e+01,1.465e+01,1.251e+01,1.254e+01,1.269e+01,1.485e+01,1.511e+01,1.185e+01,1.402e+01,1.296e+01,1.186e+01,1.271e+01,1.289e+01,1.361e+01,1.245e+01,1.081e+01,1.454e+01,1.220e+01,1.387e+01,1.456e+01,1.385e+01,1.399e+01,1.210e+01,1.392e+01,1.251e+01,1.504e+01
1.549e-01,7.220e-01,9.793e-01,1.289e+00,1.165e+00,1.288e+00,2.576e+00,2.459e+00,1.837e+00,2.195e+00,2.211e+00,3.090e+00,2.306e+00,2.448e+00,2.455e+00,2.320e+00,3.374e+00,5.187e+00,3.705e+00,4.087e+00,4.854e+00,7.116e+00,7.033e+00,7.847e+00,6.776e+00,5.244e+00,6.940e+00,7.817e+00,7.359e+00,7.558e+00,6.133e+00,6.618e+00,5.819e+00,8.354e+00,8.175e+00,8.385e+00,8.329e+00,1.127e+01,1.010e+01,9.714e+00,7.918e+00,9.085e+00,8.766e+00,9.284e+00,1.151e+01,9.887e+00,1.268e+01,1.038e+01,1.160e+01,1.290e+01,1.191e+01,1.410e+01,1.515e+01,1.455e+01,1.368e+01,1.276e+01,1.501e+01,1.336e+01,1.553e+01,1.263e+01,1.452e+01,1.365e+01,1.208e+01,1.459e+01,1.441e+01,1.421e+01,1.304e+01,1.287e+01,1.622e+01,1.357e+01,1.498e+01,1.406e+01,1.430e+01,1.338e+01,1.364e+01,1.461e+01,1.359e+01,1.462e+01
6.664e-02,6.497e-01,8.777e-01,1.258e+00,1.022e+00,1.481e+00,2.384e+00,2.057e+00,2.269e+00,2.223e+00,2.801e+00,3.313e+00,3.080e+00,2.505e+00,2.678e+00,2.932e+00,4.043e+00,5.273e+00,4.480e+00,5.215e+00,6.328e+00,6.844e+00,6.413e+00,7.606e+00,5.800e+00,5.786e+00,6.762e+00,7.403e+00,8.111e+00,7.623e+00,6.840e+00,7.172e+00,7.274e+00,7.747e+00,8.596e+00,9.034e+00,8.477e+00,1.228e+01,1.179e+01,1.058e+01,9.633e+00,1.089e+01,9.793e+00,9.467e+00,1.194e+01,1.074e+01,1.410e+01,1.207e+01,1.232e+01,1.211e+01,1.275e+01,1.420e+01,1.383e+01,1.545e+01,1.307e+01,1.387e+01,1.388e+01,1.378e+01,1.517e+01,1.268e+01,1.514e+01,1.342e+01,1.206e+01,1.404e+01,1.494e+01,1.456e+01,1.380e+01,1.276e+01,1.647e+01,1.411e+01,1.503e+01,1.523e+01,1.526e+01,1.414e+01,1.363e+01,1.429e+01,1.411e+01,1.524e+01
2.959e-01,1.096e+00,1.536e+00,2.083e+00,1.986e+00,2.202e+00,3.425e+00,3.143e+00,3.107e+00,3.234e+00,3.017e+00,4.936e+00,3.932e+00,3.720e+00,3.552e+00,3.433e+00,5.074e+00,5.038e+00,4.889e+00,6.041e+00,5.910e+00,7.624e+00,7.881e+00,8.486e+00,6.968e+00,6.454e+00,7.235e+00,8.279e+00,8.834e+00,9.096e+00,7.398e+00,9.138e+00,7.992e+00,8.650e+00,1.012e+01,1.001e+01,9.769e+00,1.390e+01,1.277e+01,1.072e+01,9.530e+00,1.268e+01,1.150e+01,1.062e+01,1.239e+01,1.226e+01,1.537e+01,1.277e+01,1.355e+01,1.546e+01,1.369e+01,1.524e+01,1.576e+01,1.573e+01,1.440e+01,1.414e+01,1.449e+01,1.546e+01,1.612e+01,1.429e+01,1.793e+01,1.509e+01,1.286e+01,1.697e+01,1.580e+01,1.688e+01,1.324e+01,1.461e+01,1.766e+01,1.572e+01,1.575e+01,1.696e+01,1.672e+01,1.620e+01,1.601e+01,1.632e+01,1.508e+01,1.792e+01
1.475e-01,4.939e-01,8.230e-01,1.842e+00,1.874e+00,1.433e+00,2.919e+00,2.685e+00,2.315e+00,3.187e+00,2.983e+00,3.717e+00,3.489e+00,3.648e+00,3.713e+00,3.325e+00,4.094e+00,5.391e+00,4.730e+00,5.821e+00,6.187e+00,6.921e+00,6.954e+00,7.697e+00,6.733e+00,6.862e+00,7.395e+00,7.652e+00,9.299e+00,7.926e+00,7.264e+00,7.678e+00,6.998e+00,7.307e+00,7.746e+00,8.792e+00,8.426e+00,1.089e+01,1.013e+01,9.690e+00,7.238e+00,9.501e+00,8.992e+00,1.002e+01,9.220e+00,9.966e+00,1.208e+01,9.817e+00,1.107e+01,1.235e+01,1.113e+01,1.314e+01,1.341e+01,1.443e+01,1.249e+01,1.216e+01,1.242e+01,1.442e+01,1.428e+01,1.378e+01,1.532e+01,1.296e+01,1.273e+01,1.441e+01,1.507e+01,1.518e+01,1.182e+01,1.297e+01,1.530e+01,1.334e+01,1.300e+01,1.466e+01,1.488e+01,1.479e+01,1.461e+01,1.354e+01,1.471e+01,1.563e+01
2.197e-01,5.086e-01,8.349e-01,1.468e+00,1.359e+00,1.340e+00,2.637e+00,2.040e+00,2.160e+00,2.425e+00,2.573e+00,3.017e+00,3.081e+00,2.603e+00,3.102e+00,2.795e+00,3.940e+00,3.469e+00,4.276e+00,5.108e+00,5.771e+00,5.646e+00,6.251e+00,7.118e+00,6.461e+00,6.528e+00,6.757e+00,7.068e+00,8.094e+00,7.785e+00,6.686e+00,7.883e+00,6.902e+00,7.813e+00,8.066e+00,8.822e+00,9.464e+00,1.133e+01,1.199e+01,1.007e+01,6.749e+00,9.685e+00,1.058e+01,1.061e+01,1.170e+01,1.033e+01,1.310e+01,1.179e+01,1.166e+01,1.344e+01,1.367e+01,1.223e+01,1.449e+01,1.389e+01,1.288e+01,1.337e+01,1.253e+01,1.434e+01,1.627e+01,1.404e+01,1.750e+01,1.471e+01,1.380e+01,1.711e+01,1.591e+01,1.592e+01,1.480e+01,1.364e+01,1.742e+01,1.437e+01,1.470e+01,1.512e+01,1.671e+01,1.590e+01,1.347e+01,1.601e+01,1.440e+01,1.765e+01
9.020e-02,2.753e-01,3.698e-01,5.231e-01,5.528e-01,5.847e-01,1.386e+00,1.151e+00,1.361e+00,1.244e+00,2.272e+00,2.758e+00,2.502e+00,2.124e+00,2.597e+00,2.384e+00,2.826e+00,3.404e+00,3.686e+00,3.960e+00,4.966e+00,4.811e+00,4.166e+00,5.016e+00,3.780e+00,4.010e+00,5.122e+00,4.681e+00,5.849e+00,6.577e+00,5.895e+00,6.504e+00,6.725e+00,5.622e+00,6.490e+00,6.467e+00,6.166e+00,9.226e+00,8.547e+00,8.548e+00,6.982e+00,8.084e+00,8.736e+00,8.682e+00,9.751e+00,8.201e+00,1.086e+01,1.037e+01,1.132e+01,1.189e+01,1.133e+01,1.113e+01,1.291e+01,1.266e+01,1.198e+01,1.133e+01,1.064e+01,1.284e+01,1.384e+01,1.250e+01,1.457e+01,1.155e+01,1.129e+01,1.416e+01,1.341e+01,1.390e+01,1.248e+01,1.288e+01,1.560e+01,1.376e+01,1.388e+01,1.485e+01,1.588e+01,1.425e+01,1.327e+01,1.312e+01,1.378e+01,1.522e+01
1.763e-01,7.831e-01,1.159e+00,2.026e+00,1.749e+00,1.775e+00,3.050e+00,2.596e+00,2.711e+00,2.814e+00,2.996e+00,3.823e+00,3.548e+00,3.209e+00,3.197e+00,2.921e+00,4.061e+00,4.540e+00,4.420e+00,4.950e+00,5.850e+00,6.300e+00,5.409e+00,6.707e+00,6.395e+00,5.904e+00,7.046e+00,6.539e+00,7.695e+00,7.642e+00,7.081e+00,7.113e+00,7.736e+00,7.035e+00,8.593e+00,8.239e+00,8.106e+00,1.092e+01,1.173e+01,9.998e+00,8.392e+00,9.955e+00,9.458e+00,9.665e+00,1.034e+01,9.853e+00,1.220e+01,1.125e+01,1.211e+01,1.227e+01,1.121e+01,1.323e+01,1.401e+01,1.384e+01,1.259e+01,1.285e+01,1.289e+01,1.477e+01,1.442e+01,1.346e+01,1.609e+01,1.485e+01,1.275e+01,1.460e+01,1.509e+01,1.685e+01,1.412e+01,1.342e+01,1.629e+01,1.620e+01,1.570e+01,1.674e+01,1.601e+01,1.549e+01,1.483e+01,1.486e+01,1.534e+01,1.644e+01
1.741e-01,3.790e-01,5.597e-01,6.219e-01,8.695e-01,8.948e-01,2.171e+00,2.150e+00,2.287e+00,1.950e+00,2.391e+00,3.620e+00,2.429e+00,2.839e+00,3.005e+00,2.784e+00,3.445e+00,5.315e+00,3.716e+00,4.692e+00,5.396e+00,7.632e+00,6.816e+00,7.800e+00,6.412e+00,6.029e+00,7.178e+00,7.386e+00,7.980e+00,7.593e+00,6.726e+00,6.740e+00,6.898e+00,8.332e+00,8.788e+00,9.112e+00,9.320e+00,1.135e+01,1.189e+01,1.123e+01,7.849e+00,1.109e+01,1.039e+01,9.858e+00,1.217e+01,1.050e+01,1.413e+01,1.173e+01,1.218e+01,1.307e+01,1.244e+01,1.276e+01,1.517e+01,1.459e+01,1.324e+01,1.274e+01,1.325e+01,1.467e+01,1.594e+01,1.385e+01,1.604e+01,1.399e+01,1.415e+01,1.686e+01,1.641e+01,1.627e+01,1.431e+01,1.434e+01,1.654e+01,1.494e+01,1.539e+01,1.713e+01,1.688e+01,1.488e+01,1.601e+01,1.593e+01,1.489e+01,1.746e+01
2.758e-01,9.078e-01,1.240e+00,1.572e+00,1.895e+00,1.820e+00,2.969e+00,2.727e+00,2.386e+00,3.184e+00,3.073e+00,4.085e+00,3.663e+00,3.309e+00,3.077e+00,3.160e+00,4.054e+00,5.201e+00,4.765e+00,5.499e+00,6.421e+00,6.915e+00,6.741e+00,8.001e+00,7.309e+00,7.185e+00,7.507e+00,7.841e+00,8.324e+00,8.034e+00,6.532e+00,8.204e+00,7.381e+00,7.421e+00,7.657e+00,9.066e+00,9.167e+00,1.184e+01,1.129e+01,1.019e+01,7.985e+00,1.126e+01,1.062e+01,1.004e+01,1.109e+01,1.168e+01,1.319e+01,1.151e+01,1.168e+01,1.283e+01,1.135e+01,1.392e+01,1.507e+01,1.470e+01,1.227e+01,1.225e+01,1.316e+01,1.522e+01,1.572e+01,1.431e+01,1.719e+01,1.466e+01,1.416e+01,1.762e+01,1.584e+01,1.589e+01,1.546e+01,1.634e+01,1.704e+01,1.571e+01,1.712e+01,1.716e+01,1.805e+01,1.613e+01,1.637e+01,1.580e+01,1.592e+01,1.705e+01
2.981e-01,8.624e-01,1.264e+00,1.427e+00,1.562e+00,1.684e+00,2.325e+00,2.548e+00,2.823e+00,2.340e+00,2.365e+00,3.874e+00,2.666e+00,2.639e+00,2.259e+00,2.774e+00,3.585e+00,4.905e+00,3.826e+00,4.546e+00,5.167e+00,6.651e+00,6.191e+00,7.369e+00,5.977e+00,6.204e+00,6.530e+00,7.347e+00,7.334e+00,7.584e+00,6.055e+00,6.876e+00,7.026e+00,7.547e+00,8.316e+00,8.886e+00,8.196e+00,1.143e+01,1.120e+01,9.198e+00,7.076e+00,1.058e+01,9.975e+00,8.800e+00,1.109e+01,1.096e+01,1.224e+01,1.205e+01,1.045e+01,1.198e+01,9.976e+00,1.392e+01,1.498e+01,1.321e+01,1.104e+01,1.180e+01,1.310e+01,1.450e+01,1.330e+01,1.189e+01,1.564e+01,1.314e+01,1.341e+01,1.574e+01,1.465e+01,1.482e+01,1.302e+01,1.385e+01,1.660e+01,1.574e+01,1.614e+01,1.688e+01,1.545e+01,1.420e+01,1.546e+01,1.418e+01,1.579e+01,1.639e+01
2.340e-01,7.357e-01,9.709e-01,1.576e+00,1.582e+00,1.409e+00,2.516e+00,1.990e+00,1.912e+00,1.905e+00,1.691e+00,2.929e+00,2.463e+00,2.466e+00,2.747e+00,2.312e+00,2.797e+00,3.664e+00,3.393e+00,3.914e+00,4.571e+00,6.117e+00,5.768e+00,5.894e+00,5.538e+00,5.175e+00,6.278e+00,6.382e+00,7.730e+00,7.546e+00,5.616e+00,7.046e+00,6.012e+00,7.301e+00,8.138e+00,8.082e+00,9.235e+00,1.044e+01,1.232e+01,9.745e+00,6.880e+00,1.041e+01,9.723e+00,9.806e+00,9.306e+00,9.185e+00,1.256e+01,1.051e+01,1.216e+01,1.258e+01,1.075e+01,1.283e+01,1.239e+01,1.250e+01,1.179e+01,1.102e+01,1.239e+01,1.313e+01,1.441e+01,1.286e+01,1.622e+01,1.329e+01,1.261e+01,1.479e+01,1.527e+01,1.586e+01,1.346e+01,1.333e+01,1.639e+01,1.539e+01,1.541e+01,1.777e+01,1.709e+01,1.638e+01,1.416e+01,1.491e+01,1.639e+01,1.631e+01
9.975e-02,7.038e-01,8.574e-01,1.363e+00,1.342e+00,1.528e+00,2.613e+00,1.799e+00,1.814e+00,2.383e+00,2.995e+00,3.789e+00,3.515e+00,3.077e+00,3.386e+00,2.753e+00,3.905e+00,4.220e+00,4.575e+00,5.001e+00,5.644e+00,6.499e+00,6.381e+00,8.144e+00,6.491e+00,5.528e+00,7.293e+00,7.594e+00,8.282e+00,7.644e+00,7.103e+00,8.098e+00,7.494e+00,8.280e+00,9.387e+00,9.326e+00,8.872e+00,1.237e+01,1.078e+01,9.840e+00,8.449e+00,9.586e+00,8.949e+00,9.169e+00,1.222e+01,1.028e+01,1.353e+01,1.053e+01,1.224e+01,1.281e+01,1.205e+01,1.351e+01,1.439e+01,1.327e+01,1.399e+01,1.384e+01,1.390e+01,1.440e+01,1.579e+01,1.463e+01,1.817e+01,1.642e+01,1.557e+01,1.744e+01,1.807e+01,1.910e+01,1.543e+01,1.715e+01,1.805e+01,1.772e+01,1.832e+01,1.784e+01,1.890e+01,1.944e+01,1.933e+01,1.912e+01,1.857e+01,1.906e+01
4.375e-02,3.201e-01,5.195e-01,1.218e+00,1.100e+00,1.184e+00,2.235e+00,1.965e+00,2.551e+00,2.572e+00,3.081e+00,3.769e+00,3.267e+00,3.227e+00,3.334e+00,3.422e+00,4.239e+00,5.946e+00,5.036e+00,5.885e+00,6.410e+00,7.005e+00,7.522e+00,8.672e+00,7.221e+00,7.014e+00,7.923e+00,8.201e+00,9.596e+00,8.131e+00,7.688e+00,8.382e+00,8.286e+00,8.927e+00,9.382e+00,1.030e+01,9.603e+00,1.257e+01,1.291e+01,1.237e+01,1.003e+01,1.095e+01,1.102e+01,1.107e+01,1.217e+01,1.027e+01,1.323e+01,1.181e+01,1.352e+01,1.445e+01,1.313e+01,1.467e+01,1.587e+01,1.646e+01,1.525e+01,1.330e+01,1.366e+01,1.544e+01,1.654e+01,1.479e+01,1.723e+01,1.591e+01,1.540e+01,1.745e+01,1.782e+01,1.824e+01,1.593e+01,1.698e+01,1.963e+01,1.882e+01,1.774e+01,1.895e+01,2.034e+01,1.975e+01,1.883e+01,1.785e+01,1.856e+01,2.069e+01
2.246e-01,9.644e-01,1.319e+00,2.068e+00,1.809e+00,1.925e+00,3.502e+00,2.797e+00,2.644e+00,2.921e+00,2.868e+00,4.021e+00,3.037e+00,3.209e+00,3.229e+00,3.024e+00,4.048e+00,5.436e+00,4.582e+00,5.041e+00,6.343e+00,7.907e+00,7.404e+00,8.559e+00,7.445e+00,7.111e+00,7.697e+00,8.863e+00,9.077e+00,8.814e+00,7.284e+00,8.224e+00,7.503e+00,8.568e+00,9.883e+00,1.039e+01,9.702e+00,1.337e+01,1.334e+01,1.112e+01,8.605e+00,1.168e+01,1.076e+01,1.123e+01,1.311e+01,1.280e+01,1.436e+01,1.300e+01,1.391e+01,1.495e+01,1.262e+01,1.620e+01,1.777e+01,1.622e+01,1.485e+01,1.463e+01,1.454e+01,1.649e+01,1.723e+01,1.515e+01,1.789e+01,1.654e+01,1.575e+01,1.800e+01,1.731e+01,1.928e+01,1.688e+01,1.755e+01,2.067e+01,1.981e+01,2.012e+01,2.114e+01,2.035e+01,1.932e+01,1.925e+01,1.866e+01,1.912e+01,2.066e+01
1.594e-01,2.785e-01,5.760e-01,1.397e+00,1.711e+00,1.213e+00,2.783e+00,3.176e+00,2.742e+00,3.578e+00,3.471e+00,4.025e+00,3.719e+00,3.762e+00,3.923e+00,3.907e+00,4.795e+00,5.297e+00,5.069e+00,5.746e+00,6.411e+00,6.405e+00,7.024e+00,7.835e+00,7.495e+00,6.629e+00,8.069e+00,7.475e+00,8.523e+00,8.177e+00,8.053e+00,8.348e+00,7.612e+00,7.657e+00,8.936e+00,8.895e+00,9.065e+00,1.237e+01,1.195e+01,1.035e+01,8.827e+00,1.066e+01,1.007e+01,1.001e+01,1.136e+01,1.085e+01,1.311e+01,1.121e+01,1.200e+01,1.367e+01,1.220e+01,1.403e+01,1.598e+01,1.457e+01,1.364e+01,1.462e+01,1.426e+01,1.509e+01,1.651e+01,1.488e+01,1.654e+01,1.557e+01,1.556e+01,1.749e+01,1.808e+01,1.670e+01,1.453e+01,1.606e+01,2.064e+01,1.749e+01,1.713e+01,1.768e+01,1.930e+01,1.905e+01,1.782e+01,1.733e+01,1.823e+01,1.941e+01
1.679e-01,5.852e-01,9.283e-01,1.608e+00,1.596e+00,1.408e+00,3.039e+00,2.786e+00,2.021e+00,2.698e+00,3.348e+00,3.410e+00,3.447e+00,2.823e+00,3.425e+00,3.103e+00,3.719e+00,4.387e+00,4.252e+00,5.001e+00,5.869e+00,6.535e+00,6.433e+00,7.229e+00,6.685e+00,6.796e+00,7.239e+00,7.718e+00,8.699e+00,7.139e+00,7.285e+00,7.922e+00,6.907e+00,8.041e+00,7.989e+00,8.394e+00,8.136e+00,1.195e+01,1.215e+01,1.098e+01,9.177e+00,1.174e+01,1.021e+01,1.109e+01,1.188e+01,1.151e+01,1.425e+01,1.215e+01,1.209e+01,1.397e+01,1.284e+01,1.418e+01,1.603e+01,1.525e+01,1.405e+01,1.266e+01,1.325e+01,1.485e+01,1.613e+01,1.454e+01,1.538e+01,1.411e+01,1.390e+01,1.506e+01,1.640e+01,1.569e+01,1.518e+01,1.537e+01,1.705e+01,1.618e+01,1.789e+01,1.796e+01,1.795e+01,1.750e+01,1.610e+01,1.636e+01,1.775e+01,1.853e+01
4.640e-02,2.885e-01,5.837e-01,1.122e+00,9.594e-01,1.313e+00,1.772e+00,1.983e+00,2.804e+00,1.851e+00,2.252e+00,3.273e+00,2.728e+00,2.173e+00,2.277e+00,2.526e+00,3.321e+00,4.070e+00,3.971e+00,4.623e+00,5.095e+00,6.301e+00,6.174e+00,6.580e+00,5.514e+00,5.140e+00,6.878e+00,7.719e+00,7.886e+00,7.108e+00,6.010e+00,7.038e+00,7.045e+00,8.712e+00,8.621e+00,9.945e+00,9.068e+00,1.194e+01,1.175e+01,9.854e+00,7.810e+00,1.068e+01,1.015e+01,9.730e+00,1.231e+01,1.077e+01,1.353e+01,1.217e+01,1.190e+01,1.298e+01,1.239e+01,1.420e+01,1.490e+01,1.427e+01,1.321e+01,1.323e+01,1.433e+01,1.457e+01,1.559e+01,1.130e+01,1.566e+01,1.508e+01,1.427e+01,1.650e+01,1.577e+01,1.732e+01,1.342e+01,1.432e+01,1.801e+01,1.538e+01,1.821e+01,1.721e+01,1.621e+01,1.787e+01,1.693e+01,1.713e+01,1.731e+01,1.833e+01
7.616e-02,2.176e-01,3.930e-01,9.312e-01,7.852e-01,8.910e-01,1.937e+00,1.317e+00,1.749e+00,1.475e+00,1.973e+00,2.819e+00,1.796e+00,1.946e+00,2.370e+00,1.919e+00,2.093e+00,3.328e+00,3.335e+00,3.554e+00,4.632e+00,5.647e+00,4.852e+00,6.245e+00,4.842e+00,5.780e+00,5.932e+00,6.419e+00,7.511e+00,6.206e+00,5.717e+00,6.032e+00,6.236e+00,7.394e+00,7.667e+00,8.530e+00,8.261e+00,1.090e+01,1.023e+01,8.199e+00,5.909e+00,9.679e+00,8.258e+00,8.281e+00,1.072e+01,9.228e+00,1.174e+01,9.395e+00,9.922e+00,1.075e+01,1.125e+01,1.180e+01,1.260e+01,1.220e+01,1.073e+01,1.077e+01,1.234e+01,1.202e+01,1.381e+01,1.046e+01,1.430e+01,1.267e+01,1.401e+01,1.483e+01,1.413e+01,1.538e+01,1.333e+01,1.491e+01,1.743e+01,1.524e+01,1.643e+01,1.767e+01,1.759e+01,2.003e+01,1.664e+01,1.690e+01,1.902e+01,1.895e+01
2.303e-02,5.007e-02,2.921e-01,1.439e+00,1.556e+00,8.693e-01,1.819e+00,2.668e+00,3.001e+00,2.964e+00,3.429e+00,3.505e+00,2.758e+00,3.396e+00,3.265e+00,3.665e+00,3.806e+00,4.792e+00,4.798e+00,4.769e+00,5.746e+00,5.014e+00,5.622e+00,6.969e+00,5.882e+00,6.645e+00,7.166e+00,7.042e+00,8.369e+00,6.980e+00,7.504e+00,7.595e+00,8.167e+00,7.805e+00,8.430e+00,8.275e+00,7.546e+00,1.048e+01,1.057e+01,9.306e+00,7.738e+00,9.821e+00,9.572e+00,8.672e+00,1.131e+01,9.133e+00,1.079e+01,1.013e+01,1.112e+01,1.231e+01,1.091e+01,1.260e+01,1.534e+01,1.308e+01,1.279e+01,1.245e+01,1.356e+01,1.499e+01,1.423e+01,1.405e+01,1.487e+01,1.334e+01,1.432e+01,1.477e+01,1.663e+01,1.637e+01,1.317e+01,1.481e+01,1.848e+01,1.694e+01,1.822e+01,1.802e+01,1.803e+01,1.858e+01,1.814e+01,1.698e+01,1.888e+01,1.953e+01
1.158e-01,2.514e-01,5.694e-01,1.250e+00,9.367e-01,9.138e-01,1.753e+00,1.858e+00,2.282e+00,2.051e+00,1.852e+00,3.287e+00,2.218e+00,2.721e+00,2.579e+00,2.592e+00,3.621e+00,4.750e+00,3.830e+00,4.966e+00,5.089e+00,7.256e+00,7.121e+00,8.147e+00,6.281e+00,6.812e+00,6.802e+00,7.278e+00,8.189e+00,7.732e+00,6.873e+00,6.624e+00,6.989e+00,8.723e+00,8.622e+00,9.517e+00,8.746e+00,1.192e+01,1.305e+01,1.147e+01,8.324e+00,1.065e+01,1.108e+01,1.050e+01,1.186e+01,1.040e+01,1.466e+01,1.221e+01,1.284e+01,1.441e+01,1.279e+01,1.404e+01,1.471e+01,1.591e+01,1.311e+01,1.331e+01,1.321e+01,1.473e+01,1.604e+01,1.407e+01,1.581e+01,1.465e+01,1.567e+01,1.673e+01,1.655e+01,1.788e+01,1.515e+01,1.530e+01,1.917e+01,1.733e+01,1.719e+01,1.876e+01,1.877e+01,2.101e+01,1.828e+01,1.930e+01,1.864e+01,2.088e+01
1.770e-01,6.160e-01,8.105e-01,1.267e+00,1.302e+00,1.298e+00,2.609e+00,2.261e+00,2.410e+00,2.262e+00,3.109e+00,3.959e+00,3.349e+00,2.967e+00,3.310e+00,3.314e+00,3.656e+00,4.840e+00,4.170e+00,4.808e+00,6.331e+00,7.501e+00,6.718e+00,8.730e+00,6.783e+00,7.061e+00,8.191e+00,8.244e+00,9.326e+00,8.484e+00,7.633e+00,8.898e+00,8.717e+00,8.686e+00,9.551e+00,9.471e+00,9.667e+00,1.282e+01,1.270e+01,1.178e+01,9.095e+00,1.179e+01,1.124e+01,1.180e+01,1.384e+01,1.196e+01,1.481e+01,1.323e+01,1.391e+01,1.390e+01,1.466e+01,1.478e+01,1.614e+01,1.663e+01,1.476e+01,1.415e+01,1.435e+01,1.552e+01,1.807e+01,1.472e+01,1.936e+01,1.565e+01,1.591e+01,1.947e+01,1.934e+01,2.105e+01,1.668e+01,1.825e+01,2.074e+01,1.839e+01,1.978e+01,2.030e+01,2.161e+01,2.161e+01,1.986e+01,1.966e+01,2.269e+01,2.083e+01
1.474e-01,6.674e-01,8.609e-01,1.601e+00,1.847e+00,1.446e+00,2.840e+00,2.433e+00,2.108e+00,2.900e+00,3.969e+00,4.043e+00,4.281e+00,3.629e+00,4.051e+00,3.824e+00,4.070e+00,5.519e+00,5.118e+00,5.607e+00,7.390e+00,6.962e+00,5.516e+00,8.166e+00,6.578e+00,7.253e+00,7.820e+00,7.110e+00,8.676e+00,7.628e+00,7.986e+00,7.760e+00,8.789e+00,8.019e+00,8.216e+00,1.000e+01,8.832e+00,1.268e+01,1.141e+01,1.155e+01,9.423e+00,1.213e+01,1.050e+01,1.072e+01,1.304e+01,1.185e+01,1.396e+01,1.361e+01,1.244e+01,1.409e+01,1.362e+01,1.430e+01,1.745e+01,1.688e+01,1.527e+01,1.394e+01,1.450e+01,1.646e+01,1.688e+01,1.514e+01,1.743e+01,1.471e+01,1.570e+01,1.686e+01,1.759e+01,1.818e+01,1.652e+01,1.740e+01,2.016e+01,1.818e+01,1.981e+01,2.136e+01,2.078e+01,2.098e+01,2.005e+01,1.883e+01,2.065e+01,2.235e+01
2.557e-01,1.045e+00,1.373e+00,2.075e+00,1.882e+00,1.670e+00,3.488e+00,2.989e+00,2.483e+00,2.805e+00,3.659e+00,4.640e+00,3.510e+00,3.841e+00,4.006e+00,3.496e+00,4.456e+00,5.846e+00,4.210e+00,5.175e+00,5.985e+00,7.979e+00,7.047e+00,8.973e+00,6.974e+00,7.009e+00,7.765e+00,8.438e+00,9.061e+00,8.028e+00,7.384e+00,7.621e+00,7.744e+00,8.168e+00,9.060e+00,9.792e+00,9.471e+00,1.303e+01,1.239e+01,1.154e+01,9.414e+00,1.187e+01,1.042e+01,1.020e+01,1.207e+01,1.101e+01,1.481e+01,1.319e+01,1.366e+01,1.563e+01,1.254e+01,1.458e+01,1.717e+01,1.630e+01,1.409e+01,1.315e+01,1.418e+01,1.679e+01,1.725e+01,1.545e+01,1.865e+01,1.592e+01,1.557e+01,1.815e+01,1.797e+01,1.816e+01,1.587e+01,1.735e+01,2.032e+01,1.929e+01,2.109e+01,2.246e+01,2.108e+01,2.095e+01,2.101e+01,1.924e+01,2.182e+01,2.249e+01
2.363e-01,5.628e-01,8.725e-01,1.535e+00,1.765e+00,1.052e+00,2.433e+00,2.497e+00,1.457e+00,2.436e+00,3.152e+00,3.292e+00,3.472e+00,3.120e+00,3.775e+00,3.209e+00,3.805e+00,4.438e+00,4.597e+00,4.982e+00,5.841e+00,5.721e+00,5.644e+00,6.650e+00,5.970e+00,5.809e+00,6.963e+00,6.377e+00,8.221e+00,7.348e+00,7.093e+00,8.098e+00,7.292e+00,6.241e+00,7.581e+00,7.960e+00,7.044e+00,1.020e+01,1.057e+01,9.186e+00,8.015e+00,9.268e+00,9.479e+00,9.956e+00,1.045e+01,9.415e+00,1.194e+01,1.020e+01,1.214e+01,1.220e+01,1.113e+01,1.108e+01,1.307e+01,1.262e+01,1.314e+01,1.288e+01,1.092e+01,1.401e+01,1.449e+01,1.342e+01,1.486e+01,1.403e+01,1.292e+01,1.457e+01,1.595e+01,1.560e+01,1.386e+01,1.505e+01,1.688e+01,1.577e+01,1.660e+01,1.766e+01,1.885e+01,1.732e+01,1.722e+01,1.673e+01,1.981e+01,1.987e+01
