8.160e-01,6.751e-01,3.943e-01,4.889e-01,5.880e-01,9.295e-01,1.538e-01,5.848e-01,6.695e-01,1.404e-01,3.774e-01,6.603e-01,1.643e-01,7.128e-01,3.872e-01,7.162e-01,8.839e-01,7.922e-01,3.319e-01,6.855e-01,7.701e-01,4.511e-01,5.586e-01,5.473e-02,4.265e-01,2.555e-01,1.777e-01,4.025e-01,1.417e-01,3.183e-01,7.691e-01,5.806e-01,7.448e-01,6.844e-03,4.231e-01,9.737e-01,1.479e-02,4.686e-01,5.779e-01,9.339e-01,3.380e-01,5.470e-01,8.672e-01,9.678e-01,9.664e-01,4.293e-01,9.820e-01,7.743e-01,3.307e-01,9.145e-01,2.743e-01,3.897e-01,3.498e-01,4.310e-01,5.814e-01,4.139e-01,3.011e-01,6.253e-01,9.374e-01,3.852e-01,2.795e-01,1.556e-01,5.036e-01,1.894e-01,1.971e-01,1.386e-01,7.733e-01,1.983e-01,8.116e-01,2.802e-02,1.549e-01,5.983e-01,8.530e-01,3.543e-01,2.738e-01,3.774e-03
1.665e-01,5.084e-01,1.625e-01,4.258e-01,1.110e+00,6.652e-01,8.675e-01,2.040e-01,5.795e-01,9.594e-01,7.636e-01,7.079e-01,9.229e-02,6.274e-01,5.742e-01,7.179e-01,1.076e+00,3.220e-01,4.548e-01,4.640e-01,6.790e-01,5.134e-01,8.557e-01,2.748e-01,1.242e-01,8.030e-01,9.481e-02,8.919e-01,5.456e-02,6.936e-01,8.617e-01,3.125e-01,5.874e-01,9.636e-01,1.166e-01,5.065e-01,5.422e-01,9.678e-01,2.307e-01,8.634e-01,3.933e-01,4.607e-01,7.556e-01,3.183e-01,1.143e+00,9.926e-01,7.472e-01,2.362e-01,3.180e-01,5.944e-01,3.518e-01,1.424e-01,2.435e-01,3.013e-01,5.706e-01,2.701e-01,6.753e-01,3.724e-01,8.366e-01,7.257e-01,8.299e-01,8.321e-01,1.723e-01,3.449e-01,6.171e-01,6.543e-01,5.246e-01,8.683e-01,8.172e-01,9.570e-01,3.141e-01,1.014e+00,6.019e-01,8.860e-01,5.859e-01,8.981e-02
6.432e-02,1.690e-01,8.713e-01,8.638e-01,1.235e+00,7.793e-01,1.138e+00,8.207e-01,1.103e+00,6.117e-01,5.304e-01,1.113e+00,3.332e-01,6.663e-01,6.478e-01,1.125e+00,1.009e+00,3.095e-01,6.814e-01,1.602e-01,3.516e-01,3.977e-01,7.821e-01,3.233e-01,1.757e-01,8.566e-01,7.348e-01,8.483e-01,2.448e-01,7.026e-01,6.986e-01,3.578e-01,9.899e-01,1.197e+00,9.162e-01,4.966e-01,4.269e-01,3.860e-01,5.499e-01,1.084e+00,6.843e-01,7.363e-01,5.479e-01,6.310e-01,6.984e-01,3.399e-01,7.433e-01,5.815e-01,6.551e-01,5.450e-01,7.262e-01,7.350e-01,4.172e-01,1.825e-01,6.006e-01,9.690e-01,1.090e+00,3.705e-01,8.226e-01,8.201e-01,7.004e-01,1.192e+00,9.442e-02,5.409e-01,3.083e-01,4.696e-01,7.363e-01,1.039e+00,1.116e+00,3.032e-01,6.768e-01,6.682e-01,3.902e-01,5.490e-01,6.549e-01,6.644e-01
5.890e-02,2.171e-01,4.101e-01,1.379e+00,1.265e+00,1.435e+00,1.695e+00,1.058e+00,1.510e+00,8.908e-01,4.646e-01,1.608e+00,7.157e-01,1.146e+00,1.293e+00,9.127e-01,1.249e+00,1.111e+00,1.213e+00,7.445e-01,9.484e-01,6.366e-01,1.505e+00,1.047e+00,4.552e-01,1.294e+00,9.436e-01,1.069e+00,2.210e-01,1.140e+00,6.471e-01,4.212e-01,1.489e+00,1.499e+00,1.034e+00,7.619e-01,1.229e+00,1.083e+00,1.212e+00,1.196e+00,1.002e+00,6.054e-01,1.098e+00,1.166e+00,9.595e-01,1.236e+00,9.975e-01,6.585e-01,1.146e+00,9.806e-01,8.704e-01,6.048e-01,2.530e-01,1.011e+00,6.849e-01,1.201e+00,1.669e+00,6.216e-01,9.697e-01,1.130e+00,9.813e-01,1.374e+00,6.575e-01,6.718e-01,6.359e-01,5.550e-01,5.799e-01,9.833e-01,1.174e+00,5.954e-01,6.831e-01,1.190e+00,4.468e-01,9.746e-01,1.408e+00,6.521e-01
7.879e-01,9.983e-01,9.316e-01,1.879e+00,3.271e+00,3.346e+00,2.703e+00,2.134e+00,2.765e+00,2.075e+00,2.005e+00,2.622e+00,1.485e+00,2.723e+00,1.942e+00,2.142e+00,2.982e+00,1.996e+00,2.406e+00,2.240e+00,2.731e+00,1.851e+00,2.691e+00,1.658e+00,1.563e+00,2.447e+00,1.409e+00,2.366e+00,8.170e-01,1.866e+00,2.221e+00,1.635e+00,2.467e+00,2.189e+00,2.279e+00,1.806e+00,2.239e+00,2.515e+00,1.782e+00,2.745e+00,2.365e+00,2.016e+00,2.910e+00,2.215e+00,2.465e+00,2.720e+00,2.721e+00,1.845e+00,1.778e+00,1.946e+00,1.714e+00,2.005e+00,1.338e+00,1.879e+00,1.528e+00,2.044e+00,2.656e+00,1.541e+00,3.097e+00,2.589e+00,2.046e+00,2.636e+00,1.418e+00,1.728e+00,1.568e+00,1.873e+00,1.516e+00,1.878e+00,2.767e+00,1.613e+00,1.432e+00,2.491e+00,1.440e+00,1.842e+00,2.254e+00,1.470e+00
6.643e-01,7.556e-01,6.830e-01,1.511e+00,1.953e+00,2.496e+00,1.942e+00,1.935e+00,2.174e+00,1.191e+00,1.815e+00,2.902e+00,1.152e+00,1.780e+00,1.478e+00,2.014e+00,2.886e+00,2.300e+00,2.508e+00,2.167e+00,2.566e+00,1.548e+00,2.524e+00,1.939e+00,1.648e+00,2.001e+00,1.669e+00,2.210e+00,1.278e+00,1.364e+00,1.446e+00,1.623e+00,2.054e+00,2.332e+00,1.802e+00,2.221e+00,2.135e+00,2.272e+00,2.025e+00,1.942e+00,2.095e+00,1.839e+00,2.050e+00,2.295e+00,2.367e+00,1.981e+00,2.052e+00,1.838e+00,2.073e+00,1.901e+00,1.312e+00,1.106e+00,1.168e+00,1.710e+00,1.431e+00,1.474e+00,2.196e+00,1.590e+00,2.684e+00,2.216e+00,1.407e+00,1.714e+00,1.267e+00,1.826e+00,1.660e+00,1.819e+00,1.509e+00,1.676e+00,2.675e+00,1.576e+00,1.754e+00,2.251e+00,1.503e+00,1.670e+00,2.383e+00,8.356e-01
7.404e-01,9.792e-01,1.092e+00,2.076e+00,2.898e+00,3.130e+00,3.421e+00,2.908e+00,3.389e+00,2.351e+00,2.924e+00,4.166e+00,1.417e+00,2.578e+00,2.055e+00,3.194e+00,3.603e+00,2.910e+00,3.027e+00,2.553e+00,3.101e+00,2.304e+00,3.225e+00,2.259e+00,2.077e+00,3.643e+00,2.371e+00,3.181e+00,2.259e+00,1.996e+00,2.159e+00,2.810e+00,3.027e+00,3.337e+00,2.788e+00,3.199e+00,2.683e+00,3.474e+00,2.508e+00,3.174e+00,2.958e+00,3.034e+00,3.560e+00,2.923e+00,3.952e+00,3.232e+00,3.154e+00,3.128e+00,2.576e+00,2.945e+00,2.235e+00,2.522e+00,1.479e+00,2.068e+00,2.544e+00,2.432e+00,3.124e+00,2.093e+00,3.631e+00,3.310e+00,2.514e+00,3.010e+00,2.035e+00,2.147e+00,2.651e+00,3.088e+00,2.023e+00,3.233e+00,4.105e+00,2.390e+00,2.626e+00,3.049e+00,2.353e+00,2.598e+00,3.567e+00,1.593e+00
2.702e-01,5.623e-01,5.654e-01,1.216e+00,2.155e+00,2.075e+00,2.502e+00,2.817e+00,3.093e+00,2.670e+00,2.436e+00,3.196e+00,1.512e+00,2.726e+00,2.178e+00,2.847e+00,3.135e+00,2.062e+00,2.236e+00,2.525e+00,2.585e+00,1.979e+00,2.264e+00,1.698e+00,1.780e+00,2.761e+00,2.304e+00,3.165e+00,2.140e+00,2.295e+00,2.239e+00,2.620e+00,2.489e+00,2.647e+00,1.908e+00,2.227e+00,2.630e+00,3.466e+00,2.350e+00,3.057e+00,3.078e+00,3.033e+00,3.229e+00,2.493e+00,3.302e+00,3.060e+00,2.242e+00,2.265e+00,1.868e+00,2.125e+00,2.344e+00,2.325e+00,1.482e+00,1.780e+00,2.328e+00,2.299e+00,2.516e+00,2.143e+00,3.292e+00,3.347e+00,1.963e+00,2.898e+00,2.079e+00,1.968e+00,2.332e+00,2.830e+00,1.167e+00,3.268e+00,3.665e+00,2.062e+00,2.789e+00,3.049e+00,1.853e+00,2.199e+00,2.926e+00,1.952e+00
7.468e-01,9.494e-01,7.190e-01,1.665e+00,2.754e+00,3.022e+00,2.493e+00,2.194e+00,2.839e+00,2.288e+00,2.906e+00,3.742e+00,1.581e+00,3.018e+00,2.111e+00,2.875e+00,3.906e+00,2.883e+00,3.119e+00,2.527e+00,3.600e+00,2.201e+00,2.859e+00,2.180e+00,2.436e+00,2.999e+00,2.309e+00,3.335e+00,1.599e+00,2.634e+00,2.810e+00,2.517e+00,2.794e+00,2.319e+00,2.685e+00,3.119e+00,2.618e+00,2.960e+00,2.461e+00,2.736e+00,3.085e+00,2.948e+00,3.733e+00,3.061e+00,3.742e+00,3.228e+00,2.593e+00,2.291e+00,2.529e+00,2.517e+00,2.431e+00,1.865e+00,2.277e+00,2.550e+00,2.578e+00,2.021e+00,3.222e+00,1.920e+00,3.420e+00,3.063e+00,2.112e+00,2.922e+00,1.686e+00,2.089e+00,2.032e+00,2.220e+00,2.082e+00,2.144e+00,3.566e+00,2.443e+00,2.069e+00,2.629e+00,1.920e+00,2.499e+00,3.192e+00,1.487e+00
6.507e-01,9.000e-01,1.013e+00,1.359e+00,2.977e+00,2.792e+00,2.512e+00,2.822e+00,3.181e+00,2.974e+00,3.825e+00,4.257e+00,1.748e+00,3.779e+00,2.545e+00,3.682e+00,4.657e+00,3.299e+00,3.030e+00,3.143e+00,3.774e+00,2.737e+00,3.535e+00,2.321e+00,3.076e+00,3.056e+00,3.455e+00,3.994e+00,3.014e+00,2.603e+00,3.080e+00,3.522e+00,3.313e+00,3.060e+00,2.702e+00,3.171e+00,2.772e+00,3.736e+00,3.319e+00,3.705e+00,3.891e+00,4.127e+00,3.599e+00,3.238e+00,4.712e+00,3.942e+00,3.047e+00,3.471e+00,3.132e+00,2.419e+00,2.734e+00,3.240e+00,2.871e+00,2.708e+00,3.542e+00,3.076e+00,3.609e+00,3.258e+00,4.103e+00,4.074e+00,2.830e+00,3.788e+00,2.280e+00,3.105e+00,3.085e+00,3.836e+00,2.563e+00,3.169e+00,5.016e+00,2.605e+00,3.328e+00,3.208e+00,2.308e+00,3.203e+00,3.813e+00,2.666e+00
6.377e-01,6.557e-01,9.673e-01,1.902e+00,2.723e+00,3.214e+00,2.942e+00,3.309e+00,3.615e+00,2.664e+00,3.675e+00,4.936e+00,2.902e+00,4.101e+00,3.270e+00,3.831e+00,4.250e+00,4.274e+00,3.227e+00,3.298e+00,4.362e+00,2.809e+00,4.267e+00,3.041e+00,3.126e+00,3.722e+00,3.834e+00,4.395e+00,3.758e+00,2.643e+00,2.635e+00,3.561e+00,3.729e+00,3.506e+00,3.278e+00,3.117e+00,3.404e+00,4.255e+00,4.015e+00,4.214e+00,4.416e+00,4.099e+00,4.378e+00,3.654e+00,4.304e+00,3.945e+00,3.871e+00,3.850e+00,3.512e+00,3.297e+00,3.328e+00,4.626e+00,2.846e+00,3.553e+00,3.750e+00,4.378e+00,3.785e+00,3.844e+00,3.976e+00,4.363e+00,3.428e+00,4.041e+00,2.892e+00,3.481e+00,3.455e+00,4.286e+00,2.403e+00,3.885e+00,5.221e+00,2.587e+00,3.723e+00,3.325e+00,2.624e+00,3.838e+00,4.774e+00,3.485e+00
6.363e-01,5.730e-01,4.873e-01,1.457e+00,1.221e+00,1.911e+00,1.875e+00,2.618e+00,2.915e+00,1.972e+00,2.089e+00,4.565e+00,2.049e+00,3.755e+00,3.362e+00,3.421e+00,3.855e+00,3.727e+00,2.497e+00,2.378e+00,3.167e+00,2.267e+00,2.566e+00,2.411e+00,2.831e+00,3.355e+00,3.514e+00,3.670e+00,2.535e+00,2.689e+00,2.931e+00,3.517e+00,3.737e+00,1.894e+00,2.429e+00,3.696e+00,2.561e+00,3.162e+00,3.411e+00,3.873e+00,3.219e+00,3.836e+00,3.516e+00,3.557e+00,3.819e+00,3.022e+00,2.913e+00,2.692e+00,2.702e+00,3.152e+00,2.587e+00,3.204e+00,1.968e+00,2.802e+00,3.374e+00,3.811e+00,3.111e+00,3.106e+00,3.567e+00,3.664e+00,1.970e+00,3.293e+00,3.317e+00,2.096e+00,2.797e+00,3.079e+00,1.850e+00,3.141e+00,4.213e+00,1.827e+00,3.201e+00,3.190e+00,2.357e+00,3.408e+00,3.291e+00,2.094e+00
1.001e-01,1.238e-01,8.706e-02,7.558e-01,9.457e-01,1.371e+00,1.519e+00,1.313e+00,1.561e+00,1.381e+00,2.178e+00,2.899e+00,1.919e+00,2.891e+00,1.999e+00,1.909e+00,3.219e+00,3.039e+00,2.846e+00,1.825e+00,2.611e+00,2.463e+00,2.336e+00,1.915e+00,2.392e+00,2.500e+00,2.893e+00,2.920e+00,2.451e+00,2.325e+00,2.055e+00,2.949e+00,2.666e+00,2.063e+00,2.870e+00,3.019e+00,2.753e+00,2.730e+00,2.582e+00,2.468e+00,2.538e+00,3.164e+00,3.035e+00,2.613e+00,2.929e+00,3.083e+00,1.744e+00,2.901e+00,2.312e+00,2.101e+00,2.291e+00,2.660e+00,2.433e+00,2.352e+00,2.786e+00,2.092e+00,2.604e+00,2.363e+00,2.187e+00,3.003e+00,2.393e+00,2.693e+00,1.805e+00,2.143e+00,2.778e+00,2.933e+00,2.160e+00,2.196e+00,2.773e+00,2.492e+00,1.945e+00,1.967e+00,1.509e+00,2.510e+00,2.956e+00,2.459e+00
5.630e-01,7.613e-01,1.093e+00,1.518e+00,2.825e+00,2.526e+00,2.594e+00,2.401e+00,2.917e+00,2.408e+00,3.020e+00,3.697e+00,2.151e+00,3.996e+00,2.457e+00,3.470e+00,3.951e+00,3.618e+00,3.006e+00,2.786e+00,3.799e+00,2.442e+00,3.859e+00,2.241e+00,2.637e+00,3.647e+00,3.201e+00,4.322e+00,2.754e+00,3.000e+00,3.566e+00,3.201e+00,3.113e+00,3.336e+00,3.531e+00,2.826e+00,3.193e+00,3.736e+00,3.306e+00,4.474e+00,4.263e+00,3.584e+00,4.368e+00,3.296e+00,3.761e+00,3.703e+00,3.826e+00,3.511e+00,2.697e+00,3.095e+00,3.323e+00,3.842e+00,2.466e+00,2.636e+00,3.509e+00,3.405e+00,3.590e+00,3.377e+00,3.576e+00,3.874e+00,2.882e+00,4.403e+00,2.349e+00,2.866e+00,3.019e+00,3.646e+00,3.090e+00,4.448e+00,4.326e+00,3.100e+00,3.287e+00,2.968e+00,3.207e+00,3.616e+00,3.992e+00,3.546e+00
3.000e-01,3.416e-01,8.207e-01,1.181e+00,1.992e+00,2.112e+00,2.051e+00,2.191e+00,2.384e+00,1.632e+00,2.311e+00,3.250e+00,1.850e+00,2.921e+00,2.080e+00,3.551e+00,4.239e+00,2.769e+00,3.982e+00,2.784e+00,3.372e+00,2.416e+00,3.323e+00,2.714e+00,3.374e+00,3.213e+00,3.519e+00,3.683e+00,3.128e+00,2.973e+00,2.849e+00,3.753e+00,2.897e+00,3.539e+00,3.981e+00,3.648e+00,3.488e+00,3.340e+00,2.723e+00,3.467e+00,3.899e+00,4.097e+00,3.017e+00,3.745e+00,2.803e+00,3.653e+00,2.702e+00,3.459e+00,2.833e+00,2.875e+00,2.452e+00,3.529e+00,2.610e+00,2.806e+00,3.194e+00,3.176e+00,3.258e+00,3.039e+00,3.838e+00,4.073e+00,2.802e+00,3.700e+00,2.571e+00,2.688e+00,3.169e+00,3.906e+00,2.427e+00,3.496e+00,3.796e+00,2.506e+00,2.627e+00,2.929e+00,2.186e+00,3.053e+00,3.294e+00,3.080e+00
6.040e-01,6.768e-01,8.344e-01,1.816e+00,2.579e+00,2.965e+00,3.005e+00,2.854e+00,3.298e+00,2.362e+00,2.630e+00,4.284e+00,2.504e+00,4.958e+00,3.193e+00,4.331e+00,5.206e+00,5.102e+00,4.584e+00,3.652e+00,4.401e+00,3.620e+00,4.454e+00,3.027e+00,3.618e+00,4.903e+00,5.038e+00,4.926e+00,3.319e+00,3.720e+00,4.121e+00,4.565e+00,4.924e+00,4.189e+00,4.818e+00,4.906e+00,5.113e+00,4.367e+00,4.915e+00,5.834e+00,4.829e+00,5.236e+00,5.651e+00,4.494e+00,4.441e+00,5.588e+00,4.297e+00,5.510e+00,3.446e+00,3.598e+00,3.885e+00,4.390e+00,3.415e+00,3.898e+00,4.229e+00,3.873e+00,4.661e+00,4.365e+00,4.850e+00,5.177e+00,3.998e+00,5.679e+00,4.002e+00,3.426e+00,4.829e+00,5.131e+00,4.249e+00,4.906e+00,5.580e+00,3.879e+00,4.341e+00,4.418e+00,3.655e+00,4.056e+00,4.978e+00,4.582e+00
2.561e-02,3.196e-01,4.861e-01,1.181e+00,2.081e+00,1.961e+00,2.700e+00,2.213e+00,2.671e+00,2.496e+00,3.299e+00,4.232e+00,2.525e+00,3.647e+00,2.797e+00,4.487e+00,5.336e+00,4.124e+00,4.598e+00,3.114e+00,5.023e+00,3.167e+00,4.281e+00,4.148e+00,4.439e+00,5.481e+00,5.275e+00,5.861e+00,5.003e+00,4.394e+00,4.580e+00,5.028e+00,3.812e+00,5.091e+00,5.216e+00,5.210e+00,5.543e+00,5.232e+00,3.842e+00,4.624e+00,5.459e+00,5.539e+00,5.750e+00,5.168e+00,4.662e+00,5.402e+00,3.971e+00,5.210e+00,4.037e+00,4.483e+00,3.906e+00,5.191e+00,3.758e+00,4.118e+00,5.246e+00,4.516e+00,4.427e+00,4.436e+00,4.248e+00,5.965e+00,4.792e+00,5.080e+00,3.894e+00,3.335e+00,5.103e+00,5.617e+00,3.664e+00,5.961e+00,5.081e+00,4.640e+00,4.164e+00,4.028e+00,3.191e+00,4.694e+00,5.636e+00,4.333e+00
3.967e-01,3.728e-01,4.212e-01,1.066e+00,1.387e+00,1.885e+00,1.385e+00,1.453e+00,1.677e+00,9.833e-01,1.876e+00,3.535e+00,2.248e+00,3.326e+00,2.517e+00,3.098e+00,4.201e+00,3.887e+00,4.391e+00,3.116e+00,4.313e+00,2.469e+00,4.275e+00,3.937e+00,4.067e+00,3.887e+00,3.672e+00,4.164e+00,2.989e+00,3.701e+00,3.635e+00,4.097e+00,3.919e+00,3.468e+00,3.866e+00,3.898e+00,4.572e+00,3.956e+00,4.149e+00,4.576e+00,4.198e+00,3.699e+00,4.294e+00,4.519e+00,3.050e+00,3.556e+00,3.424e+00,3.194e+00,3.809e+00,4.000e+00,3.122e+00,3.834e+00,3.066e+00,4.074e+00,3.664e+00,3.642e+00,3.986e+00,3.346e+00,4.478e+00,4.046e+00,2.841e+00,4.392e+00,3.285e+00,3.711e+00,4.300e+00,3.755e+00,3.232e+00,3.868e+00,4.070e+00,3.751e+00,3.348e+00,3.787e+00,2.864e+00,4.486e+00,4.380e+00,3.447e+00
6.972e-01,7.114e-01,1.052e+00,1.328e+00,2.327e+00,2.411e+00,2.381e+00,3.168e+00,3.481e+00,2.730e+00,3.472e+00,4.562e+00,1.897e+00,4.019e+00,2.614e+00,4.795e+00,4.776e+00,4.118e+00,4.485e+00,3.897e+00,4.830e+00,3.513e+00,4.653e+00,4.175e+00,4.824e+00,5.430e+00,5.246e+00,5.401e+00,4.135e+00,4.778e+00,5.238e+00,5.689e+00,4.756e+00,4.206e+00,4.302e+00,5.030e+00,4.698e+00,5.094e+00,5.876e+00,6.340e+00,6.135e+00,5.303e+00,7.162e+00,5.540e+00,5.899e+00,5.728e+00,4.638e+00,5.052e+00,4.521e+00,4.345e+00,5.272e+00,5.417e+00,4.003e+00,4.523e+00,5.455e+00,4.234e+00,4.921e+00,4.654e+00,5.982e+00,5.059e+00,4.206e+00,6.130e+00,4.723e+00,4.194e+00,5.188e+00,4.347e+00,3.826e+00,5.258e+00,6.605e+00,4.088e+00,5.310e+00,4.747e+00,3.740e+00,4.625e+00,5.729e+00,4.219e+00
5.499e-01,4.955e-01,6.400e-01,1.475e+00,1.305e+00,2.055e+00,1.735e+00,2.544e+00,2.728e+00,1.541e+00,2.190e+00,4.067e+00,2.017e+00,3.406e+00,2.752e+00,4.039e+00,5.312e+00,4.337e+00,4.869e+00,3.923e+00,5.191e+00,3.133e+00,4.840e+00,5.128e+00,5.579e+00,5.412e+00,5.658e+00,5.853e+00,5.435e+00,5.616e+00,4.883e+00,5.917e+00,4.642e+00,5.169e+00,5.539e+00,5.725e+00,6.410e+00,5.793e+00,6.340e+00,5.941e+00,5.936e+00,5.470e+00,6.384e+00,7.231e+00,5.538e+00,6.006e+00,4.497e+00,5.393e+00,5.665e+00,4.947e+00,4.181e+00,4.636e+00,4.084e+00,4.849e+00,6.094e+00,5.204e+00,5.190e+00,5.185e+00,5.195e+00,5.463e+00,4.388e+00,5.305e+00,4.675e+00,3.912e+00,6.021e+00,4.335e+00,4.032e+00,5.179e+00,5.798e+00,3.773e+00,4.660e+00,5.557e+00,3.884e+00,4.487e+00,5.693e+00,4.242e+00
6.440e-01,7.068e-01,6.312e-01,8.827e-01,1.784e+00,1.887e+00,1.344e+00,1.885e+00,2.183e+00,2.082e+00,3.197e+00,4.033e+00,2.282e+00,4.865e+00,3.015e+00,4.080e+00,5.953e+00,5.144e+00,4.922e+00,4.111e+00,5.779e+00,4.372e+00,5.591e+00,4.557e+00,5.833e+00,5.390e+00,6.621e+00,6.098e+00,5.208e+00,5.646e+00,5.847e+00,6.246e+00,5.361e+00,5.286e+00,5.427e+00,6.427e+00,5.825e+00,6.507e+00,6.788e+00,7.689e+00,6.938e+00,6.751e+00,7.235e+00,7.153e+00,6.291e+00,6.583e+00,5.467e+00,6.273e+00,5.452e+00,4.757e+00,5.320e+00,5.797e+00,5.063e+00,5.603e+00,6.744e+00,4.664e+00,6.103e+00,6.075e+00,6.317e+00,6.114e+00,5.099e+00,6.409e+00,5.496e+00,5.626e+00,6.648e+00,6.092e+00,5.720e+00,5.852e+00,6.618e+00,5.901e+00,5.330e+00,5.566e+00,4.997e+00,5.554e+00,6.153e+00,5.861e+00
5.628e-01,5.784e-01,7.353e-01,1.270e+00,2.269e+00,2.581e+00,2.399e+00,2.923e+00,3.113e+00,2.503e+00,3.417e+00,4.519e+00,2.951e+00,4.561e+00,3.338e+00,5.054e+00,5.855e+00,4.992e+00,4.980e+00,4.155e+00,6.138e+00,4.912e+00,5.289e+00,5.412e+00,6.514e+00,7.376e+00,7.521e+00,7.004e+00,6.653e+00,5.916e+00,6.355e+00,7.246e+00,5.032e+00,6.454e+00,6.638e+00,7.066e+00,7.053e+00,7.256e+00,7.343e+00,8.309e+00,7.814e+00,7.866e+00,8.691e+00,7.977e+00,6.656e+00,7.497e+00,6.544e+00,7.004e+00,5.674e+00,5.016e+00,6.199e+00,7.105e+00,5.113e+00,5.777e+00,7.743e+00,6.132e+00,5.853e+00,6.642e+00,7.271e+00,7.013e+00,6.969e+00,6.933e+00,6.441e+00,5.453e+00,7.751e+00,7.466e+00,5.391e+00,7.240e+00,7.756e+00,6.017e+00,6.568e+00,6.986e+00,5.186e+00,5.577e+00,6.398e+00,6.418e+00
1.388e-01,3.189e-01,4.055e-01,1.266e+00,1.388e+00,1.540e+00,2.221e+00,1.612e+00,2.047e+00,1.913e+00,2.519e+00,4.216e+00,1.791e+00,3.680e+00,2.930e+00,3.768e+00,4.328e+00,4.572e+00,3.441e+00,2.419e+00,3.868e+00,3.130e+00,4.773e+00,3.685e+00,4.738e+00,5.601e+00,6.233e+00,5.668e+00,4.627e+00,4.448e+00,3.923e+00,4.872e+00,5.222e+00,4.509e+00,4.746e+00,5.297e+00,4.990e+00,4.848e+00,5.745e+00,5.338e+00,5.217e+00,5.451e+00,5.799e+00,5.260e+00,5.034e+00,5.424e+00,4.482e+00,4.944e+00,4.343e+00,3.470e+00,4.751e+00,5.162e+00,3.825e+00,4.889e+00,5.342e+00,5.040e+00,4.726e+00,4.793e+00,4.541e+00,5.107e+00,5.197e+00,6.151e+00,4.870e+00,3.388e+00,5.342e+00,6.137e+00,4.340e+00,5.668e+00,5.855e+00,4.475e+00,5.170e+00,4.595e+00,3.513e+00,4.866e+00,5.977e+00,4.545e+00
6.803e-01,9.209e-01,7.510e-01,1.437e+00,2.896e+00,3.037e+00,2.450e+00,2.541e+00,3.024e+00,2.883e+00,4.570e+00,6.107e+00,3.481e+00,5.944e+00,4.318e+00,6.236e+00,8.288e+00,6.796e+00,6.379e+00,5.019e+00,7.926e+00,5.102e+00,7.135e+00,6.786e+00,8.027e+00,8.369e+00,9.208e+00,1.006e+01,7.854e+00,7.789e+00,7.897e+00,8.536e+00,6.626e+00,8.070e+00,8.681e+00,9.126e+00,8.813e+00,8.051e+00,8.989e+00,8.612e+00,9.363e+00,9.243e+00,9.538e+00,9.422e+00,8.458e+00,8.525e+00,7.388e+00,7.702e+00,7.140e+00,6.358e+00,7.161e+00,7.647e+00,6.784e+00,7.470e+00,8.905e+00,7.875e+00,8.093e+00,8.307e+00,8.595e+00,8.828e+00,7.524e+00,8.961e+00,6.956e+00,7.004e+00,8.994e+00,8.847e+00,7.041e+00,8.114e+00,9.241e+00,7.751e+00,7.336e+00,8.236e+00,6.119e+00,8.393e+00,8.699e+00,7.006e+00
5.522e-01,6.895e-01,5.751e-01,1.104e+00,1.464e+00,1.504e+00,1.547e+00,2.055e+00,2.400e+00,1.908e+00,1.705e+00,3.338e+00,1.740e+00,3.804e+00,2.996e+00,4.289e+00,5.150e+00,3.803e+00,4.066e+00,3.381e+00,4.476e+00,3.387e+00,4.836e+00,3.943e+00,5.717e+00,5.862e+00,6.868e+00,6.734e+00,5.041e+00,6.140e+00,6.037e+00,6.523e+00,6.619e+00,5.956e+00,5.744e+00,6.954e+00,6.782e+00,6.335e+00,6.900e+00,7.383e+00,6.724e+00,7.072e+00,7.137e+00,7.543e+00,5.713e+00,6.251e+00,5.611e+00,5.309e+00,4.445e+00,5.684e+00,5.938e+00,5.797e+00,4.330e+00,6.114e+00,5.942e+00,5.273e+00,5.854e+00,5.940e+00,6.654e+00,7.079e+00,5.433e+00,7.261e+00,6.749e+00,4.356e+00,6.046e+00,6.458e+00,5.214e+00,7.447e+00,6.440e+00,5.976e+00,5.625e+00,6.929e+00,5.292e+00,5.784e+00,6.232e+00,5.325e+00
4.917e-01,7.151e-01,3.462e-01,9.574e-01,2.297e+00,2.427e+00,2.229e+00,2.582e+00,2.795e+00,2.899e+00,3.483e+00,4.351e+00,2.508e+00,5.350e+00,3.404e+00,4.133e+00,5.686e+00,5.224e+00,4.793e+00,4.790e+00,6.060e+00,4.697e+00,6.017e+00,5.329e+00,6.896e+00,7.787e+00,7.825e+00,7.894e+00,7.129e+00,6.949e+00,7.254e+00,8.454e+00,6.894e+00,7.063e+00,6.862e+00,7.608e+00,8.669e+00,8.652e+00,9.232e+00,9.640e+00,9.131e+00,8.258e+00,8.758e+00,8.253e+00,8.485e+00,8.791e+00,7.754e+00,6.923e+00,6.391e+00,6.237e+00,7.317e+00,7.463e+00,5.369e+00,6.885e+00,8.241e+00,7.068e+00,7.922e+00,7.775e+00,8.120e+00,7.646e+00,6.512e+00,8.709e+00,7.335e+00,6.779e+00,9.130e+00,7.799e+00,5.723e+00,7.549e+00,8.443e+00,7.562e+00,6.961e+00,8.259e+00,6.972e+00,7.140e+00,7.514e+00,7.440e+00
2.334e-01,4.539e-01,5.643e-01,9.318e-01,2.312e+00,2.088e+00,2.432e+00,2.640e+00,2.921e+00,3.024e+00,3.352e+00,4.205e+00,2.165e+00,4.455e+00,3.118e+00,4.345e+00,4.854e+00,3.905e+00,4.122e+00,3.809e+00,5.039e+00,4.113e+00,5.210e+00,4.468e+00,6.699e+00,7.235e+00,7.930e+00,7.354e+00,7.073e+00,6.755e+00,6.789e+00,8.059e+00,6.632e+00,6.196e+00,7.158e+00,6.788e+00,7.803e+00,7.560e+00,8.410e+00,8.544e+00,8.579e+00,8.191e+00,8.204e+00,7.512e+00,7.245e+00,8.177e+00,6.523e+00,5.528e+00,5.745e+00,5.162e+00,7.644e+00,7.733e+00,5.667e+00,7.075e+00,7.590e+00,6.915e+00,6.577e+00,6.563e+00,7.901e+00,7.721e+00,6.680e+00,8.577e+00,7.161e+00,6.045e+00,7.860e+00,8.292e+00,4.707e+00,7.947e+00,8.531e+00,6.513e+00,7.517e+00,7.947e+00,6.403e+00,7.122e+00,7.719e+00,6.558e+00
1.236e-01,1.952e-01,3.285e-01,8.910e-01,1.649e+00,1.946e+00,1.917e+00,1.907e+00,2.026e+00,1.895e+00,2.722e+00,3.664e+00,2.296e+00,4.469e+00,2.812e+00,3.278e+00,5.272e+00,4.713e+00,4.861e+00,3.789e+00,5.070e+00,4.187e+00,5.595e+00,5.115e+00,6.898e+00,6.681e+00,8.397e+00,7.760e+00,6.927e+00,6.482e+00,6.582e+00,8.184e+00,7.647e+00,7.656e+00,8.490e+00,7.997e+00,8.154e+00,7.534e+00,8.392e+00,7.959e+00,9.006e+00,7.916e+00,7.522e+00,8.130e+00,7.370e+00,7.443e+00,6.351e+00,7.409e+00,6.711e+00,6.497e+00,7.526e+00,7.842e+00,5.401e+00,7.698e+00,7.682e+00,6.679e+00,8.130e+00,7.358e+00,7.617e+00,8.698e+00,7.149e+00,8.482e+00,7.284e+00,7.259e+00,8.161e+00,8.359e+00,6.320e+00,8.005e+00,8.108e+00,7.955e+00,6.917e+00,7.242e+00,6.433e+00,7.004e+00,7.992e+00,7.920e+00
4.113e-01,4.896e-01,9.426e-01,1.430e+00,2.099e+00,2.065e+00,2.497e+00,2.368e+00,2.842e+00,2.161e+00,2.827e+00,4.571e+00,2.363e+00,4.065e+00,3.056e+00,4.608e+00,5.013e+00,4.293e+00,4.365e+00,2.810e+00,4.494e+00,3.776e+00,4.352e+00,4.287e+00,5.099e+00,6.740e+00,6.672e+00,7.317e+00,5.314e+00,5.920e+00,7.073e+00,7.117e+00,7.060e+00,6.558e+00,7.521e+00,7.198e+00,7.075e+00,5.969e+00,7.631e+00,7.536e+00,7.471e+00,7.133e+00,8.154e+00,6.381e+00,7.445e+00,7.074e+00,6.187e+00,6.121e+00,6.051e+00,6.321e+00,7.719e+00,7.682e+00,5.149e+00,6.409e+00,7.188e+00,6.011e+00,7.258e+00,6.614e+00,7.004e+00,8.030e+00,6.706e+00,7.936e+00,6.436e+00,5.296e+00,6.663e+00,6.994e+00,6.059e+00,7.826e+00,8.282e+00,6.121e+00,6.515e+00,6.356e+00,5.679e+00,6.331e+00,6.968e+00,6.588e+00
1.081e-01,1.063e-01,6.518e-01,1.374e+00,1.529e+00,1.848e+00,2.290e+00,2.008e+00,2.394e+00,1.703e+00,2.828e+00,4.153e+00,2.154e+00,3.587e+00,2.396e+00,3.941e+00,4.305e+00,4.591e+00,4.490e+00,3.017e+00,4.978e+00,3.064e+00,5.310e+00,4.779e+00,5.953e+00,6.575e+00,8.005e+00,7.271e+00,6.678e+00,7.165e+00,7.205e+00,7.472e+00,6.938e+00,7.981e+00,8.641e+00,7.636e+00,8.205e+00,6.756e+00,8.423e+00,7.636e+00,9.545e+00,7.675e+00,7.907e+00,8.260e+00,6.629e+00,7.971e+00,6.349e+00,6.468e+00,6.947e+00,6.862e+00,8.160e+00,7.827e+00,5.383e+00,7.942e+00,7.741e+00,6.772e+00,7.953e+00,7.150e+00,7.013e+00,8.831e+00,7.222e+00,8.319e+00,7.584e+00,6.942e+00,6.702e+00,8.410e+00,6.550e+00,8.311e+00,8.686e+00,7.009e+00,7.688e+00,5.932e+00,7.311e+00,8.345e+00,8.747e+00,7.866e+00
5.802e-02,1.876e-01,4.618e-01,1.384e+00,1.259e+00,1.609e+00,2.291e+00,2.536e+00,2.779e+00,2.217e+00,2.427e+00,4.762e+00,1.990e+00,4.494e+00,3.450e+00,4.209e+00,5.251e+00,5.318e+00,4.366e+00,3.637e+00,4.830e+00,3.369e+00,5.125e+00,4.995e+00,5.610e+00,6.301e+00,7.507e+00,6.739e+00,5.887e+00,5.729e+00,6.725e+00,7.652e+00,7.070e+00,7.077e+00,7.015e+00,7.235e+00,8.189e+00,6.795e+00,8.142e+00,7.489e+00,7.325e+00,7.269e+00,7.554e+00,7.397e+00,7.333e+00,7.265e+00,6.041e+00,6.558e+00,6.499e+00,6.284e+00,5.997e+00,6.284e+00,5.169e+00,6.492e+00,7.429e+00,6.902e+00,7.298e+00,6.550e+00,7.050e+00,7.638e+00,5.927e+00,8.040e+00,6.925e+00,6.298e+00,7.411e+00,7.043e+00,5.827e+00,7.356e+00,8.124e+00,5.705e+00,7.075e+00,6.853e+00,5.948e+00,6.416e+00,8.484e+00,6.180e+00
4.841e-01,4.089e-01,5.063e-01,7.114e-01,1.119e+00,1.470e+00,9.877e-01,2.120e+00,2.222e+00,1.612e+00,2.391e+00,4.144e+00,2.055e+00,3.618e+00,2.866e+00,5.193e+00,5.665e+00,4.431e+00,4.940e+00,3.812e+00,5.793e+00,3.450e+00,4.850e+00,5.894e+00,7.196e+00,7.141e+00,8.627e+00,8.246e+00,6.911e+00,8.378e+00,9.665e+00,1.020e+01,8.077e+00,9.209e+00,9.921e+00,9.797e+00,1.098e+01,8.119e+00,1.080e+01,9.385e+00,1.043e+01,1.021e+01,1.017e+01,1.102e+01,9.162e+00,9.171e+00,8.111e+00,7.410e+00,8.043e+00,8.661e+00,9.284e+00,8.127e+00,7.511e+00,8.721e+00,9.602e+00,8.527e+00,9.094e+00,8.968e+00,1.098e+01,9.765e+00,8.321e+00,9.522e+00,9.204e+00,8.787e+00,9.120e+00,9.403e+00,8.461e+00,9.466e+00,1.073e+01,7.482e+00,8.657e+00,8.759e+00,8.116e+00,9.119e+00,9.610e+00,8.801e+00
3.555e-01,6.409e-01,7.394e-01,1.573e+00,2.002e+00,1.986e+00,2.381e+00,2.340e+00,2.923e+00,2.479e+00,2.874e+00,5.138e+00,2.225e+00,4.685e+00,3.770e+00,5.321e+00,6.498e+00,5.046e+00,5.419e+00,3.965e+00,5.684e+00,4.164e+00,5.866e+00,5.514e+00,6.671e+00,7.817e+00,8.997e+00,8.701e+00,7.351e+00,9.145e+00,8.883e+00,9.899e+00,9.402e+00,1.083e+01,1.058e+01,1.039e+01,1.130e+01,9.167e+00,1.132e+01,1.122e+01,1.126e+01,1.028e+01,1.002e+01,1.128e+01,1.075e+01,1.039e+01,8.018e+00,8.529e+00,9.526e+00,9.032e+00,1.053e+01,8.249e+00,7.565e+00,8.753e+00,1.090e+01,9.623e+00,1.028e+01,9.779e+00,1.076e+01,1.062e+01,9.133e+00,1.015e+01,8.876e+00,1.005e+01,1.022e+01,1.061e+01,8.468e+00,1.003e+01,1.195e+01,9.114e+00,9.033e+00,9.614e+00,8.943e+00,1.010e+01,1.040e+01,1.078e+01
6.815e-01,9.334e-01,7.339e-01,1.310e+00,2.140e+00,1.969e+00,1.908e+00,1.438e+00,2.051e+00,1.837e+00,2.085e+00,3.531e+00,1.358e+00,3.529e+00,2.665e+00,3.733e+00,5.191e+00,3.485e+00,4.162e+00,2.850e+00,4.647e+00,3.547e+00,4.607e+00,4.516e+00,5.352e+00,6.394e+00,6.598e+00,5.992e+00,5.198e+00,7.030e+00,8.344e+00,7.386e+00,6.495e+00,7.788e+00,7.878e+00,8.343e+00,9.051e+00,8.353e+00,8.292e+00,9.416e+00,9.379e+00,8.454e+00,8.015e+00,9.778e+00,7.919e+00,8.933e+00,7.776e+00,7.273e+00,7.598e+00,7.910e+00,7.624e+00,8.218e+00,5.250e+00,6.457e+00,9.059e+00,7.952e+00,8.414e+00,8.214e+00,9.094e+00,8.650e+00,7.889e+00,7.770e+00,8.592e+00,6.601e+00,7.596e+00,9.108e+00,7.439e+00,8.439e+00,8.804e+00,6.900e+00,7.045e+00,6.423e+00,7.327e+00,7.450e+00,7.299e+00,7.990e+00
4.788e-01,7.251e-01,6.349e-01,1.227e+00,2.543e+00,2.576e+00,2.539e+00,2.696e+00,2.992e+00,2.709e+00,3.511e+00,4.136e+00,2.259e+00,4.087e+00,2.684e+00,4.841e+00,5.154e+00,4.601e+00,5.186e+00,4.788e+00,6.277e+00,4.172e+00,6.702e+00,5.854e+00,6.937e+00,7.920e+00,7.657e+00,8.295e+00,7.266e+00,8.191e+00,8.043e+00,9.400e+00,7.353e+00,1.035e+01,9.675e+00,9.119e+00,1.146e+01,1.055e+01,1.182e+01,1.140e+01,1.205e+01,1.015e+01,1.157e+01,1.127e+01,1.019e+01,1.071e+01,9.172e+00,9.256e+00,9.074e+00,9.118e+00,1.041e+01,9.048e+00,7.233e+00,8.587e+00,1.090e+01,9.611e+00,9.056e+00,9.407e+00,1.215e+01,9.580e+00,9.655e+00,1.057e+01,9.704e+00,9.979e+00,9.979e+00,1.106e+01,8.592e+00,1.134e+01,1.199e+01,9.138e+00,9.717e+00,9.457e+00,9.846e+00,9.518e+00,1.097e+01,1.075e+01
7.563e-01,9.168e-01,4.655e-01,1.380e+00,1.751e+00,2.264e+00,2.154e+00,2.736e+00,3.037e+00,2.584e+00,3.648e+00,5.142e+00,2.452e+00,4.119e+00,3.447e+00,5.251e+00,5.704e+00,5.389e+00,4.586e+00,4.480e+00,6.346e+00,3.814e+00,6.034e+00,5.120e+00,5.875e+00,6.817e+00,7.174e+00,7.664e+00,7.107e+00,6.941e+00,6.935e+00,8.945e+00,7.956e+00,9.974e+00,8.250e+00,9.593e+00,1.087e+01,9.833e+00,1.090e+01,1.100e+01,1.062e+01,1.049e+01,1.077e+01,1.096e+01,1.049e+01,9.837e+00,8.774e+00,9.034e+00,9.079e+00,9.514e+00,8.912e+00,7.931e+00,7.441e+00,8.652e+00,1.011e+01,9.819e+00,9.012e+00,9.171e+00,1.039e+01,9.631e+00,8.610e+00,9.186e+00,8.582e+00,1.019e+01,9.397e+00,1.001e+01,8.508e+00,9.719e+00,1.195e+01,8.846e+00,8.436e+00,9.287e+00,9.650e+00,8.773e+00,1.117e+01,9.702e+00
3.426e-01,4.384e-01,8.952e-01,1.120e+00,1.948e+00,1.987e+00,2.022e+00,2.281e+00,2.380e+00,1.612e+00,2.584e+00,3.827e+00,1.952e+00,3.252e+00,2.246e+00,4.095e+00,4.785e+00,3.757e+00,4.512e+00,3.430e+00,4.720e+00,3.158e+00,4.812e+00,4.377e+00,5.455e+00,6.393e+00,6.759e+00,7.126e+00,6.145e+00,5.964e+00,6.477e+00,7.706e+00,6.964e+00,8.289e+00,8.133e+00,8.495e+00,9.678e+00,8.479e+00,9.682e+00,9.797e+00,9.643e+00,9.597e+00,8.108e+00,9.395e+00,8.694e+00,8.257e+00,8.615e+00,7.901e+00,7.804e+00,8.446e+00,8.444e+00,7.983e+00,6.686e+00,7.799e+00,8.844e+00,7.746e+00,9.234e+00,8.712e+00,9.274e+00,8.887e+00,7.131e+00,8.578e+00,7.560e+00,8.320e+00,8.315e+00,8.956e+00,7.841e+00,1.002e+01,1.016e+01,8.593e+00,7.168e+00,8.171e+00,9.058e+00,7.545e+00,8.663e+00,8.683e+00
1.619e-01,2.816e-01,4.519e-01,9.595e-01,1.491e+00,1.637e+00,1.706e+00,2.209e+00,2.372e+00,1.975e+00,2.599e+00,4.127e+00,2.672e+00,4.293e+00,3.208e+00,3.803e+00,4.865e+00,4.494e+00,4.408e+00,3.724e+00,4.898e+00,3.644e+00,5.224e+00,4.840e+00,5.597e+00,6.618e+00,7.649e+00,7.816e+00,6.736e+00,7.208e+00,8.302e+00,9.001e+00,8.104e+00,8.899e+00,8.790e+00,8.328e+00,1.147e+01,9.623e+00,1.217e+01,1.061e+01,1.111e+01,9.151e+00,1.006e+01,9.988e+00,9.981e+00,9.910e+00,8.946e+00,8.099e+00,8.821e+00,8.996e+00,1.080e+01,9.570e+00,7.644e+00,8.419e+00,9.562e+00,9.397e+00,1.006e+01,1.015e+01,1.006e+01,9.598e+00,8.050e+00,1.068e+01,8.601e+00,9.434e+00,9.989e+00,1.013e+01,7.636e+00,9.626e+00,1.051e+01,8.658e+00,9.221e+00,9.051e+00,8.743e+00,8.931e+00,1.067e+01,9.799e+00
4.426e-01,4.902e-01,8.715e-01,1.095e+00,2.062e+00,1.996e+00,1.745e+00,1.848e+00,2.211e+00,1.771e+00,2.642e+00,4.036e+00,2.035e+00,4.076e+00,2.722e+00,3.981e+00,5.014e+00,3.914e+00,4.610e+00,3.335e+00,4.850e+00,3.325e+00,4.721e+00,4.965e+00,5.965e+00,6.437e+00,6.416e+00,7.289e+00,5.712e+00,7.153e+00,8.330e+00,8.762e+00,7.045e+00,8.118e+00,9.259e+00,8.314e+00,9.820e+00,8.226e+00,1.135e+01,1.070e+01,1.142e+01,9.784e+00,9.625e+00,1.064e+01,9.431e+00,9.486e+00,8.573e+00,8.542e+00,9.677e+00,9.338e+00,9.516e+00,9.708e+00,7.173e+00,8.268e+00,1.033e+01,9.509e+00,1.059e+01,9.302e+00,1.004e+01,9.870e+00,7.652e+00,1.064e+01,8.443e+00,9.231e+00,9.221e+00,8.795e+00,8.512e+00,9.520e+00,1.132e+01,8.804e+00,8.205e+00,8.316e+00,9.566e+00,8.621e+00,9.895e+00,9.213e+00
6.815e-01,5.726e-01,7.129e-01,7.569e-01,1.636e+00,1.935e+00,1.413e+00,2.072e+00,2.135e+00,1.637e+00,3.108e+00,4.095e+00,2.407e+00,4.508e+00,2.596e+00,4.178e+00,5.481e+00,5.362e+00,4.691e+00,3.774e+00,5.765e+00,4.201e+00,5.292e+00,4.890e+00,6.209e+00,6.832e+00,8.244e+00,7.379e+00,6.780e+00,6.711e+00,8.383e+00,8.691e+00,7.701e+00,8.630e+00,9.096e+00,9.999e+00,1.101e+01,9.876e+00,1.127e+01,1.195e+01,1.215e+01,1.166e+01,1.085e+01,1.216e+01,1.066e+01,9.957e+00,9.909e+00,1.146e+01,9.985e+00,1.008e+01,1.075e+01,1.040e+01,9.065e+00,8.396e+00,1.181e+01,1.055e+01,1.034e+01,1.044e+01,1.105e+01,1.023e+01,9.680e+00,1.023e+01,1.088e+01,1.056e+01,1.054e+01,1.126e+01,1.050e+01,1.127e+01,1.158e+01,9.767e+00,9.985e+00,7.952e+00,1.053e+01,8.494e+00,1.134e+01,1.156e+01
3.648e-01,4.688e-01,5.042e-01,1.183e+00,1.777e+00,2.019e+00,1.739e+00,2.090e+00,2.442e+00,1.959e+00,2.457e+00,3.684e+00,2.075e+00,3.632e+00,2.639e+00,3.632e+00,4.312e+00,3.943e+00,4.442e+00,3.810e+00,5.107e+00,3.373e+00,5.568e+00,5.547e+00,6.210e+00,6.931e+00,6.810e+00,7.736e+00,6.035e+00,8.224e+00,7.722e+00,7.910e+00,7.278e+00,8.063e+00,7.991e+00,7.558e+00,1.004e+01,8.951e+00,1.133e+01,1.062e+01,1.086e+01,9.101e+00,1.046e+01,1.073e+01,9.381e+00,9.648e+00,8.704e+00,8.037e+00,9.967e+00,8.408e+00,1.072e+01,9.247e+00,8.273e+00,9.161e+00,1.071e+01,9.337e+00,1.026e+01,9.015e+00,1.011e+01,9.497e+00,8.965e+00,1.019e+01,9.152e+00,9.272e+00,9.513e+00,8.406e+00,8.626e+00,9.740e+00,1.153e+01,8.989e+00,9.455e+00,9.405e+00,8.545e+00,8.460e+00,1.039e+01,9.361e+00
8.826e-02,2.528e-01,1.612e-01,4.388e-01,7.483e-01,8.072e-01,1.307e+00,1.773e+00,1.913e+00,2.025e+00,2.820e+00,3.666e+00,1.626e+00,3.902e+00,2.419e+00,4.448e+00,5.276e+00,4.831e+00,4.668e+00,3.883e+00,5.272e+00,3.717e+00,4.940e+00,4.714e+00,6.251e+00,6.680e+00,8.038e+00,7.748e+00,7.235e+00,7.818e+00,8.168e+00,9.616e+00,8.169e+00,9.807e+00,9.386e+00,1.031e+01,1.198e+01,1.058e+01,1.328e+01,1.287e+01,1.272e+01,1.350e+01,1.247e+01,1.320e+01,1.254e+01,1.318e+01,1.033e+01,1.232e+01,1.178e+01,1.119e+01,1.221e+01,9.787e+00,1.041e+01,1.065e+01,1.343e+01,9.918e+00,1.306e+01,1.206e+01,1.239e+01,1.264e+01,1.032e+01,1.195e+01,1.142e+01,1.186e+01,1.201e+01,1.264e+01,1.241e+01,1.305e+01,1.450e+01,1.219e+01,1.159e+01,1.101e+01,1.266e+01,1.044e+01,1.253e+01,1.307e+01
4.475e-01,4.724e-01,5.000e-01,9.811e-01,1.104e+00,1.471e+00,1.411e+00,2.009e+00,2.220e+00,1.822e+00,2.715e+00,3.748e+00,1.332e+00,3.073e+00,2.268e+00,4.035e+00,4.757e+00,3.994e+00,4.454e+00,3.683e+00,4.757e+00,3.166e+00,5.137e+00,5.428e+00,6.403e+00,6.237e+00,7.759e+00,6.959e+00,7.067e+00,7.449e+00,8.223e+00,8.983e+00,7.481e+00,8.413e+00,8.068e+00,8.647e+00,9.661e+00,8.680e+00,1.160e+01,9.829e+00,1.110e+01,9.328e+00,1.096e+01,1.120e+01,1.120e+01,1.104e+01,9.340e+00,1.002e+01,1.021e+01,9.473e+00,1.131e+01,9.335e+00,8.341e+00,9.302e+00,1.123e+01,9.045e+00,1.075e+01,1.080e+01,9.732e+00,1.112e+01,9.402e+00,1.062e+01,9.686e+00,9.497e+00,1.013e+01,1.025e+01,9.079e+00,9.848e+00,1.155e+01,9.616e+00,1.003e+01,9.275e+00,8.888e+00,1.006e+01,1.106e+01,9.734e+00
9.395e-02,3.907e-01,8.529e-01,1.219e+00,2.329e+00,1.907e+00,2.596e+00,2.780e+00,3.079e+00,2.741e+00,2.794e+00,4.394e+00,2.563e+00,4.380e+00,3.610e+00,5.041e+00,6.020e+00,3.809e+00,4.870e+00,3.597e+00,4.952e+00,4.541e+00,5.018e+00,5.178e+00,6.293e+00,7.429e+00,8.495e+00,7.714e+00,7.013e+00,7.133e+00,8.567e+00,9.296e+00,6.838e+00,9.137e+00,9.052e+00,8.758e+00,9.822e+00,9.203e+00,9.787e+00,1.134e+01,1.153e+01,1.217e+01,1.012e+01,1.235e+01,1.117e+01,1.123e+01,1.101e+01,1.081e+01,9.198e+00,1.016e+01,1.105e+01,1.080e+01,9.550e+00,8.812e+00,1.282e+01,1.094e+01,1.058e+01,1.104e+01,1.197e+01,1.217e+01,1.046e+01,1.153e+01,1.122e+01,1.071e+01,1.155e+01,1.147e+01,9.761e+00,1.289e+01,1.216e+01,1.102e+01,1.043e+01,1.074e+01,1.037e+01,9.758e+00,1.124e+01,1.065e+01
2.115e-01,4.396e-01,2.382e-01,6.909e-01,1.722e+00,1.799e+00,1.771e+00,1.739e+00,1.864e+00,2.059e+00,3.262e+00,4.384e+00,2.339e+00,4.228e+00,2.996e+00,4.142e+00,5.525e+00,5.073e+00,4.696e+00,3.939e+00,5.839e+00,3.556e+00,6.064e+00,5.614e+00,6.573e+00,6.903e+00,7.980e+00,8.341e+00,7.018e+00,6.959e+00,7.293e+00,7.922e+00,8.014e+00,9.382e+00,8.517e+00,9.321e+00,1.052e+01,1.020e+01,1.073e+01,1.137e+01,1.277e+01,1.156e+01,1.122e+01,1.259e+01,1.202e+01,1.230e+01,1.176e+01,1.230e+01,1.243e+01,1.140e+01,1.200e+01,1.189e+01,1.044e+01,1.168e+01,1.294e+01,1.176e+01,1.285e+01,1.279e+01,1.197e+01,1.453e+01,1.115e+01,1.248e+01,1.229e+01,1.292e+01,1.146e+01,1.433e+01,1.203e+01,1.319e+01,1.391e+01,1.346e+01,1.240e+01,1.042e+01,1.181e+01,1.265e+01,1.414e+01,1.234e+01
1.369e-01,4.126e-01,2.237e-01,7.166e-01,1.389e+00,1.279e+00,1.531e+00,1.912e+00,2.238e+00,2.531e+00,3.148e+00,4.391e+00,2.133e+00,3.835e+00,3.257e+00,4.310e+00,4.951e+00,4.031e+00,3.634e+00,3.233e+00,4.763e+00,3.251e+00,4.415e+00,4.717e+00,5.203e+00,6.119e+00,6.796e+00,7.013e+00,6.223e+00,7.141e+00,7.161e+00,7.754e+00,6.088e+00,7.605e+00,6.572e+00,7.402e+00,8.934e+00,8.194e+00,1.048e+01,1.024e+01,1.086e+01,1.036e+01,9.664e+00,1.114e+01,1.152e+01,1.159e+01,1.006e+01,9.561e+00,9.996e+00,9.244e+00,1.139e+01,9.741e+00,8.511e+00,8.481e+00,1.182e+01,1.040e+01,1.159e+01,1.116e+01,1.023e+01,1.132e+01,9.338e+00,1.145e+01,1.001e+01,1.067e+01,1.082e+01,1.060e+01,9.356e+00,1.093e+01,1.142e+01,9.348e+00,1.056e+01,9.416e+00,9.916e+00,1.149e+01,1.019e+01,1.091e+01
3.099e-01,4.358e-01,2.016e-01,7.235e-01,1.324e+00,1.509e+00,1.314e+00,1.701e+00,1.906e+00,1.900e+00,2.426e+00,3.434e+00,2.115e+00,3.544e+00,2.791e+00,3.201e+00,4.357e+00,3.758e+00,3.303e+00,2.918e+00,4.239e+00,3.240e+00,4.319e+00,4.099e+00,5.066e+00,5.685e+00,6.511e+00,7.142e+00,5.830e+00,6.346e+00,7.244e+00,7.613e+00,7.650e+00,7.888e+00,7.315e+00,8.101e+00,1.034e+01,8.930e+00,1.087e+01,1.002e+01,1.042e+01,1.063e+01,1.077e+01,1.093e+01,1.174e+01,1.179e+01,1.193e+01,1.044e+01,1.065e+01,1.069e+01,1.165e+01,1.102e+01,1.002e+01,1.006e+01,1.242e+01,1.107e+01,1.127e+01,1.219e+01,1.179e+01,1.309e+01,1.090e+01,1.239e+01,1.136e+01,1.058e+01,1.047e+01,1.195e+01,1.082e+01,1.219e+01,1.255e+01,1.097e+01,1.131e+01,9.971e+00,1.106e+01,1.119e+01,1.172e+01,1.151e+01
7.235e-01,6.993e-01,8.321e-01,1.331e+00,2.311e+00,2.731e+00,2.324e+00,2.629e+00,2.817e+00,2.069e+00,3.461e+00,4.558e+00,2.445e+00,3.948e+00,2.643e+00,3.953e+00,4.944e+00,4.721e+00,4.818e+00,4.151e+00,6.314e+00,4.161e+00,5.671e+00,6.379e+00,6.868e+00,7.832e+00,6.938e+00,7.649e+00,6.906e+00,6.781e+00,7.954e+00,8.965e+00,6.589e+00,8.792e+00,9.528e+00,9.185e+00,1.076e+01,1.044e+01,1.193e+01,1.266e+01,1.262e+01,1.171e+01,1.293e+01,1.356e+01,1.256e+01,1.108e+01,1.197e+01,1.189e+01,1.307e+01,1.240e+01,1.220e+01,1.240e+01,9.876e+00,1.080e+01,1.456e+01,1.243e+01,1.321e+01,1.204e+01,1.363e+01,1.247e+01,1.197e+01,1.161e+01,1.168e+01,1.257e+01,1.249e+01,1.237e+01,1.211e+01,1.333e+01,1.410e+01,1.189e+01,1.135e+01,1.128e+01,1.254e+01,1.151e+01,1.292e+01,1.269e+01
4.743e-01,6.209e-01,4.144e-01,8.711e-01,1.262e+00,1.483e+00,1.208e+00,1.543e+00,1.768e+00,1.536e+00,2.626e+00,3.566e+00,1.793e+00,3.470e+00,2.312e+00,3.514e+00,4.493e+00,4.491e+00,3.593e+00,3.330e+00,4.589e+00,2.748e+00,5.084e+00,3.600e+00,4.795e+00,5.266e+00,6.872e+00,7.401e+00,6.344e+00,6.421e+00,6.823e+00,7.702e+00,7.760e+00,8.757e+00,8.176e+00,8.448e+00,1.025e+01,8.411e+00,1.096e+01,1.012e+01,1.059e+01,1.040e+01,9.948e+00,1.073e+01,1.184e+01,1.090e+01,1.085e+01,1.018e+01,1.129e+01,1.089e+01,1.223e+01,8.961e+00,1.087e+01,1.014e+01,1.198e+01,1.126e+01,1.109e+01,1.134e+01,1.158e+01,1.184e+01,9.913e+00,1.199e+01,1.092e+01,1.186e+01,1.118e+01,1.165e+01,1.106e+01,1.120e+01,1.300e+01,1.090e+01,1.140e+01,1.048e+01,1.199e+01,1.143e+01,1.299e+01,1.199e+01
1.925e-02,1.351e-01,1.599e-01,1.106e+00,1.483e+00,2.056e+00,2.243e+00,1.990e+00,2.233e+00,1.940e+00,3.143e+00,4.093e+00,1.951e+00,3.226e+00,2.201e+00,3.619e+00,4.207e+00,4.429e+00,4.827e+00,3.583e+00,4.914e+00,3.272e+00,5.096e+00,5.087e+00,5.079e+00,5.934e+00,6.849e+00,6.202e+00,5.902e+00,6.095e+00,6.939e+00,7.997e+00,5.924e+00,8.482e+00,8.757e+00,7.958e+00,1.019e+01,8.769e+00,1.143e+01,9.591e+00,1.181e+01,9.726e+00,1.044e+01,1.118e+01,1.105e+01,1.201e+01,1.056e+01,1.082e+01,1.120e+01,1.015e+01,1.190e+01,1.109e+01,1.041e+01,1.109e+01,1.244e+01,1.048e+01,1.252e+01,1.178e+01,1.203e+01,1.181e+01,9.994e+00,1.182e+01,1.059e+01,1.220e+01,1.173e+01,1.208e+01,1.044e+01,1.108e+01,1.379e+01,1.065e+01,1.182e+01,9.619e+00,1.114e+01,1.189e+01,1.399e+01,1.143e+01
1.313e-01,2.687e-01,2.209e-01,4.726e-01,7.488e-01,8.309e-01,1.363e+00,1.806e+00,1.787e+00,1.751e+00,2.531e+00,3.278e+00,1.729e+00,3.544e+00,2.256e+00,3.548e+00,4.329e+00,4.338e+00,3.520e+00,3.273e+00,4.013e+00,3.098e+00,4.747e+00,3.810e+00,5.049e+00,5.060e+00,6.344e+00,6.122e+00,5.746e+00,5.232e+00,6.038e+00,7.370e+00,5.623e+00,6.779e+00,6.759e+00,6.462e+00,8.703e+00,8.246e+00,9.093e+00,8.873e+00,8.759e+00,9.333e+00,9.496e+00,1.058e+01,1.081e+01,1.131e+01,1.079e+01,1.033e+01,9.830e+00,9.835e+00,1.141e+01,1.104e+01,1.010e+01,1.056e+01,1.298e+01,9.821e+00,1.159e+01,1.290e+01,1.190e+01,1.131e+01,1.090e+01,1.167e+01,9.710e+00,1.117e+01,1.132e+01,1.273e+01,1.256e+01,1.359e+01,1.261e+01,1.016e+01,1.242e+01,1.030e+01,1.106e+01,1.200e+01,1.230e+01,1.217e+01
2.164e-01,4.149e-01,1.622e-01,5.486e-01,1.441e+00,1.551e+00,1.808e+00,1.811e+00,1.889e+00,2.140e+00,3.227e+00,3.314e+00,1.766e+00,3.010e+00,2.034e+00,3.709e+00,4.010e+00,3.861e+00,3.698e+00,3.396e+00,4.496e+00,3.386e+00,4.549e+00,3.575e+00,4.516e+00,5.172e+00,5.912e+00,5.269e+00,5.697e+00,4.533e+00,4.613e+00,6.578e+00,5.270e+00,6.891e+00,6.118e+00,7.202e+00,8.064e+00,8.101e+00,9.413e+00,9.561e+00,9.772e+00,1.022e+01,9.010e+00,9.167e+00,9.154e+00,9.396e+00,9.080e+00,1.003e+01,9.917e+00,8.199e+00,1.069e+01,1.029e+01,9.074e+00,9.055e+00,1.171e+01,9.861e+00,1.081e+01,1.008e+01,1.100e+01,1.020e+01,1.064e+01,9.932e+00,9.496e+00,1.066e+01,1.124e+01,1.175e+01,1.083e+01,1.146e+01,1.264e+01,1.022e+01,1.073e+01,9.783e+00,1.020e+01,1.064e+01,1.113e+01,1.151e+01
5.284e-01,5.445e-01,8.488e-01,1.004e+00,1.862e+00,1.992e+00,1.990e+00,2.443e+00,2.606e+00,2.043e+00,3.235e+00,4.089e+00,1.818e+00,3.292e+00,2.245e+00,4.458e+00,5.037e+00,3.777e+00,4.420e+00,3.294e+00,4.586e+00,3.516e+00,4.465e+00,4.245e+00,5.533e+00,6.100e+00,7.600e+00,6.566e+00,6.834e+00,6.653e+00,7.757e+00,8.342e+00,7.000e+00,8.693e+00,8.524e+00,9.565e+00,1.030e+01,9.080e+00,1.042e+01,1.081e+01,1.191e+01,1.203e+01,1.039e+01,1.218e+01,1.175e+01,1.273e+01,1.115e+01,1.154e+01,1.228e+01,1.085e+01,1.272e+01,1.222e+01,1.233e+01,1.199e+01,1.432e+01,1.290e+01,1.279e+01,1.289e+01,1.319e+01,1.379e+01,1.230e+01,1.290e+01,1.251e+01,1.358e+01,1.253e+01,1.394e+01,1.257e+01,1.283e+01,1.449e+01,1.055e+01,1.364e+01,1.115e+01,1.266e+01,1.211e+01,1.409e+01,1.345e+01
7.224e-01,8.845e-01,1.039e+00,2.054e+00,2.451e+00,2.817e+00,2.727e+00,3.063e+00,3.546e+00,2.404e+00,3.260e+00,6.034e+00,3.289e+00,5.662e+00,4.435e+00,5.361e+00,7.069e+00,6.015e+00,5.834e+00,4.575e+00,6.425e+00,4.770e+00,6.594e+00,5.811e+00,6.604e+00,7.843e+00,8.515e+00,9.316e+00,7.295e+00,8.627e+00,9.501e+00,1.008e+01,9.276e+00,1.128e+01,1.093e+01,1.048e+01,1.220e+01,1.068e+01,1.230e+01,1.321e+01,1.263e+01,1.157e+01,1.123e+01,1.314e+01,1.255e+01,1.225e+01,1.254e+01,1.072e+01,1.336e+01,1.293e+01,1.340e+01,1.328e+01,1.066e+01,1.311e+01,1.588e+01,1.387e+01,1.467e+01,1.508e+01,1.507e+01,1.523e+01,1.365e+01,1.466e+01,1.332e+01,1.441e+01,1.373e+01,1.567e+01,1.396e+01,1.509e+01,1.644e+01,1.274e+01,1.426e+01,1.400e+01,1.417e+01,1.539e+01,1.419e+01,1.560e+01
5.555e-01,7.641e-01,5.597e-01,1.454e+00,2.509e+00,2.647e+00,2.298e+00,2.215e+00,2.757e+00,2.561e+00,2.950e+00,3.902e+00,2.131e+00,4.003e+00,2.982e+00,3.560e+00,4.808e+00,4.025e+00,3.973e+00,3.596e+00,5.481e+00,3.610e+00,5.506e+00,5.126e+00,6.168e+00,7.014e+00,6.988e+00,8.307e+00,6.224e+00,7.462e+00,8.063e+00,8.884e+00,8.850e+00,1.007e+01,9.982e+00,9.122e+00,1.199e+01,1.051e+01,1.157e+01,1.138e+01,1.185e+01,1.093e+01,1.290e+01,1.298e+01,1.330e+01,1.331e+01,1.237e+01,1.076e+01,1.286e+01,1.300e+01,1.421e+01,1.315e+01,1.062e+01,1.365e+01,1.507e+01,1.329e+01,1.534e+01,1.486e+01,1.473e+01,1.517e+01,1.394e+01,1.563e+01,1.470e+01,1.446e+01,1.321e+01,1.593e+01,1.402e+01,1.469e+01,1.559e+01,1.349e+01,1.454e+01,1.364e+01,1.361e+01,1.410e+01,1.527e+01,1.485e+01
7.477e-01,6.401e-01,8.062e-01,1.346e+00,2.036e+00,2.525e+00,1.783e+00,2.298e+00,2.564e+00,1.771e+00,2.950e+00,4.009e+00,2.785e+00,4.121e+00,2.978e+00,4.230e+00,5.295e+00,4.675e+00,4.241e+00,3.555e+00,5.439e+00,3.487e+00,4.788e+00,4.402e+00,5.352e+00,6.065e+00,7.425e+00,7.234e+00,7.198e+00,7.174e+00,6.972e+00,7.857e+00,7.162e+00,8.359e+00,9.207e+00,9.013e+00,1.071e+01,9.055e+00,1.201e+01,1.169e+01,1.248e+01,1.210e+01,1.097e+01,1.267e+01,1.147e+01,1.186e+01,1.106e+01,1.260e+01,1.215e+01,1.077e+01,1.330e+01,1.348e+01,1.143e+01,1.190e+01,1.562e+01,1.413e+01,1.464e+01,1.467e+01,1.297e+01,1.469e+01,1.412e+01,1.329e+01,1.322e+01,1.389e+01,1.400e+01,1.476e+01,1.445e+01,1.400e+01,1.582e+01,1.212e+01,1.410e+01,1.191e+01,1.440e+01,1.408e+01,1.488e+01,1.501e+01
8.479e-02,2.456e-01,3.117e-01,1.148e+00,1.778e+00,2.179e+00,2.066e+00,1.837e+00,2.045e+00,1.652e+00,2.513e+00,3.543e+00,1.816e+00,3.069e+00,2.080e+00,3.292e+00,4.268e+00,4.404e+00,4.651e+00,3.709e+00,5.366e+00,3.089e+00,5.472e+00,5.829e+00,5.872e+00,6.751e+00,7.153e+00,6.873e+00,5.905e+00,6.391e+00,7.229e+00,8.019e+00,6.645e+00,8.894e+00,8.471e+00,8.375e+00,1.168e+01,9.219e+00,1.237e+01,1.048e+01,1.185e+01,1.038e+01,1.126e+01,1.179e+01,9.984e+00,1.054e+01,1.083e+01,1.067e+01,1.172e+01,1.093e+01,1.159e+01,1.100e+01,9.694e+00,1.148e+01,1.396e+01,1.273e+01,1.410e+01,1.341e+01,1.519e+01,1.298e+01,1.288e+01,1.485e+01,1.379e+01,1.347e+01,1.428e+01,1.375e+01,1.333e+01,1.432e+01,1.536e+01,1.382e+01,1.450e+01,1.201e+01,1.413e+01,1.308e+01,1.553e+01,1.378e+01
6.372e-01,7.708e-01,1.145e+00,1.857e+00,2.805e+00,2.764e+00,2.870e+00,2.592e+00,3.214e+00,2.565e+00,3.058e+00,4.060e+00,2.025e+00,4.625e+00,2.816e+00,4.357e+00,5.020e+00,4.930e+00,4.407e+00,3.784e+00,5.252e+00,3.733e+00,6.033e+00,4.565e+00,5.886e+00,7.367e+00,8.057e+00,7.903e+00,6.566e+00,8.139e+00,8.267e+00,8.932e+00,8.371e+00,9.596e+00,9.592e+00,9.390e+00,1.138e+01,9.486e+00,1.280e+01,1.258e+01,1.255e+01,1.293e+01,1.314e+01,1.371e+01,1.278e+01,1.316e+01,1.307e+01,1.250e+01,1.213e+01,1.232e+01,1.371e+01,1.188e+01,1.206e+01,1.242e+01,1.528e+01,1.386e+01,1.494e+01,1.546e+01,1.574e+01,1.557e+01,1.489e+01,1.677e+01,1.592e+01,1.447e+01,1.500e+01,1.562e+01,1.537e+01,1.457e+01,1.634e+01,1.396e+01,1.487e+01,1.399e+01,1.647e+01,1.483e+01,1.641e+01,1.523e+01
6.944e-01,6.826e-01,9.626e-01,1.244e+00,1.852e+00,2.021e+00,1.673e+00,2.033e+00,2.363e+00,1.610e+00,2.934e+00,4.527e+00,2.386e+00,3.856e+00,2.839e+00,4.119e+00,5.139e+00,4.477e+00,4.451e+00,3.226e+00,5.201e+00,3.864e+00,4.840e+00,5.087e+00,5.778e+00,6.514e+00,6.168e+00,6.851e+00,5.440e+00,6.412e+00,7.386e+00,7.889e+00,6.559e+00,7.555e+00,7.806e+00,7.910e+00,9.825e+00,9.164e+00,1.091e+01,1.165e+01,1.052e+01,9.920e+00,1.058e+01,1.213e+01,1.089e+01,9.769e+00,9.979e+00,1.004e+01,1.112e+01,1.062e+01,1.099e+01,1.105e+01,1.037e+01,1.088e+01,1.431e+01,1.169e+01,1.342e+01,1.348e+01,1.424e+01,1.197e+01,1.326e+01,1.343e+01,1.282e+01,1.284e+01,1.395e+01,1.381e+01,1.355e+01,1.381e+01,1.525e+01,1.285e+01,1.430e+01,1.199e+01,1.347e+01,1.257e+01,1.388e+01,1.330e+01
4.220e-01,6.491e-01,8.580e-01,1.832e+00,2.261e+00,2.495e+00,2.606e+00,2.903e+00,3.445e+00,2.574e+00,3.143e+00,5.772e+00,2.716e+00,4.741e+00,4.005e+00,5.155e+00,6.571e+00,5.116e+00,5.111e+00,3.713e+00,5.630e+00,3.968e+00,5.365e+00,4.922e+00,5.857e+00,6.884e+00,8.325e+00,8.543e+00,6.187e+00,7.548e+00,7.739e+00,8.056e+00,8.257e+00,8.561e+00,9.108e+00,9.858e+00,1.068e+01,1.002e+01,1.215e+01,1.177e+01,1.225e+01,1.274e+01,1.172e+01,1.352e+01,1.276e+01,1.156e+01,1.111e+01,1.147e+01,1.287e+01,1.287e+01,1.349e+01,1.213e+01,1.200e+01,1.264e+01,1.579e+01,1.336e+01,1.570e+01,1.470e+01,1.718e+01,1.604e+01,1.414e+01,1.509e+01,1.483e+01,1.353e+01,1.467e+01,1.590e+01,1.438e+01,1.617e+01,1.733e+01,1.451e+01,1.552e+01,1.349e+01,1.553e+01,1.459e+01,1.633e+01,1.494e+01
6.458e-01,8.521e-01,7.907e-01,1.813e+00,2.440e+00,2.848e+00,2.834e+00,2.530e+00,2.957e+00,2.201e+00,3.547e+00,4.955e+00,2.820e+00,3.886e+00,3.206e+00,4.793e+00,5.778e+00,5.169e+00,5.126e+00,4.009e+00,6.034e+00,4.175e+00,6.374e+00,4.922e+00,5.858e+00,7.138e+00,7.296e+00,8.237e+00,7.144e+00,6.848e+00,6.540e+00,8.004e+00,8.712e+00,1.014e+01,9.293e+00,9.206e+00,1.099e+01,1.040e+01,1.155e+01,1.138e+01,1.198e+01,1.113e+01,1.154e+01,1.245e+01,1.279e+01,1.247e+01,1.183e+01,1.239e+01,1.328e+01,1.287e+01,1.419e+01,1.323e+01,1.154e+01,1.350e+01,1.494e+01,1.278e+01,1.449e+01,1.472e+01,1.470e+01,1.646e+01,1.606e+01,1.557e+01,1.570e+01,1.481e+01,1.577e+01,1.805e+01,1.521e+01,1.615e+01,1.686e+01,1.464e+01,1.624e+01,1.402e+01,1.537e+01,1.544e+01,1.659e+01,1.582e+01
1.743e-01,1.826e-01,7.815e-01,1.182e+00,2.015e+00,2.202e+00,2.094e+00,2.914e+00,3.020e+00,2.355e+00,3.052e+00,4.077e+00,2.636e+00,4.136e+00,3.022e+00,4.894e+00,5.171e+00,4.235e+00,4.805e+00,4.029e+00,5.220e+00,3.821e+00,5.334e+00,4.555e+00,5.493e+00,5.900e+00,7.450e+00,7.455e+00,6.279e+00,6.763e+00,5.974e+00,7.630e+00,6.563e+00,8.934e+00,8.422e+00,7.869e+00,9.399e+00,8.779e+00,1.020e+01,1.063e+01,1.132e+01,1.098e+01,9.955e+00,1.165e+01,9.821e+00,1.135e+01,1.000e+01,1.034e+01,1.058e+01,1.025e+01,1.029e+01,1.144e+01,1.019e+01,1.193e+01,1.356e+01,1.115e+01,1.355e+01,1.409e+01,1.424e+01,1.445e+01,1.369e+01,1.457e+01,1.432e+01,1.355e+01,1.355e+01,1.534e+01,1.220e+01,1.354e+01,1.656e+01,1.341e+01,1.465e+01,1.357e+01,1.425e+01,1.362e+01,1.312e+01,1.468e+01
4.405e-01,4.662e-01,7.458e-01,1.220e+00,1.585e+00,1.674e+00,1.976e+00,1.888e+00,2.286e+00,1.792e+00,2.233e+00,3.358e+00,1.411e+00,3.540e+00,2.232e+00,3.414e+00,4.220e+00,3.941e+00,3.337e+00,2.511e+00,3.933e+00,2.949e+00,3.808e+00,3.474e+00,4.583e+00,5.750e+00,7.020e+00,5.775e+00,5.917e+00,5.657e+00,7.198e+00,7.372e+00,6.750e+00,6.713e+00,8.200e+00,7.935e+00,8.624e+00,6.916e+00,9.576e+00,8.799e+00,9.650e+00,9.456e+00,9.064e+00,9.484e+00,1.006e+01,1.003e+01,9.675e+00,1.029e+01,9.451e+00,8.973e+00,1.073e+01,1.110e+01,9.328e+00,1.026e+01,1.272e+01,1.057e+01,1.200e+01,1.294e+01,1.154e+01,1.411e+01,1.254e+01,1.262e+01,1.341e+01,1.269e+01,1.343e+01,1.404e+01,1.409e+01,1.392e+01,1.506e+01,1.288e+01,1.443e+01,1.238e+01,1.504e+01,1.430e+01,1.494e+01,1.373e+01
2.861e-01,3.464e-01,3.267e-01,9.723e-01,1.757e+00,2.087e+00,1.625e+00,1.782e+00,2.001e+00,1.564e+00,1.796e+00,2.720e+00,1.644e+00,3.324e+00,2.003e+00,3.143e+00,3.597e+00,3.645e+00,4.147e+00,3.486e+00,4.512e+00,3.134e+00,5.092e+00,4.543e+00,5.643e+00,6.331e+00,6.805e+00,6.799e+00,4.821e+00,6.753e+00,7.230e+00,6.975e+00,7.386e+00,7.754e+00,7.600e+00,7.787e+00,9.954e+00,8.188e+00,1.085e+01,1.031e+01,1.099e+01,1.019e+01,1.058e+01,1.051e+01,9.414e+00,1.081e+01,1.077e+01,8.954e+00,1.062e+01,9.726e+00,1.246e+01,1.086e+01,9.868e+00,1.217e+01,1.242e+01,1.061e+01,1.309e+01,1.343e+01,1.459e+01,1.436e+01,1.341e+01,1.447e+01,1.637e+01,1.368e+01,1.434e+01,1.567e+01,1.511e+01,1.450e+01,1.595e+01,1.492e+01,1.607e+01,1.410e+01,1.569e+01,1.491e+01,1.492e+01,1.497e+01
6.770e-01,7.671e-01,1.086e+00,2.017e+00,3.059e+00,3.275e+00,2.796e+00,3.069e+00,3.572e+00,2.577e+00,2.592e+00,4.355e+00,2.487e+00,4.643e+00,3.536e+00,4.761e+00,5.539e+00,4.372e+00,4.436e+00,3.973e+00,5.563e+00,3.533e+00,5.027e+00,5.077e+00,5.987e+00,7.213e+00,7.372e+00,8.072e+00,6.315e+00,7.578e+00,7.798e+00,8.548e+00,8.065e+00,9.646e+00,9.775e+00,8.937e+00,1.096e+01,9.221e+00,1.121e+01,1.170e+01,1.165e+01,1.145e+01,1.080e+01,1.230e+01,1.126e+01,1.187e+01,1.096e+01,1.064e+01,1.123e+01,1.134e+01,1.121e+01,1.155e+01,9.532e+00,1.191e+01,1.433e+01,1.245e+01,1.454e+01,1.447e+01,1.523e+01,1.518e+01,1.466e+01,1.411e+01,1.496e+01,1.366e+01,1.588e+01,1.612e+01,1.476e+01,1.550e+01,1.760e+01,1.353e+01,1.589e+01,1.591e+01,1.700e+01,1.656e+01,1.463e+01,1.654e+01
7.455e-01,6.630e-01,1.138e+00,1.841e+00,2.357e+00,2.726e+00,2.447e+00,2.577e+00,3.098e+00,1.956e+00,2.870e+00,4.839e+00,2.452e+00,4.000e+00,3.093e+00,4.580e+00,4.716e+00,4.475e+00,4.426e+00,3.225e+00,5.471e+00,3.753e+00,4.892e+00,4.635e+00,5.603e+00,7.194e+00,6.792e+00,6.886e+00,5.873e+00,7.086e+00,7.180e+00,7.613e+00,7.444e+00,8.166e+00,8.361e+00,8.629e+00,1.021e+01,9.101e+00,1.135e+01,1.230e+01,1.175e+01,1.147e+01,1.187e+01,1.253e+01,1.072e+01,1.208e+01,1.212e+01,1.066e+01,1.215e+01,1.099e+01,1.277e+01,1.312e+01,1.175e+01,1.322e+01,1.489e+01,1.296e+01,1.450e+01,1.450e+01,1.532e+01,1.541e+01,1.476e+01,1.593e+01,1.549e+01,1.473e+01,1.533e+01,1.692e+01,1.554e+01,1.570e+01,1.833e+01,1.446e+01,1.788e+01,1.475e+01,1.736e+01,1.677e+01,1.614e+01,1.579e+01
7.301e-01,6.680e-01,8.777e-01,1.238e+00,1.886e+00,2.241e+00,2.105e+00,2.900e+00,3.095e+00,2.320e+00,3.636e+00,5.244e+00,2.496e+00,4.279e+00,3.194e+00,5.285e+00,5.720e+00,5.036e+00,5.292e+00,4.393e+00,6.528e+00,4.102e+00,6.019e+00,6.140e+00,7.250e+00,7.621e+00,7.290e+00,7.804e+00,7.073e+00,6.506e+00,7.268e+00,8.818e+00,6.947e+00,8.055e+00,8.283e+00,8.830e+00,9.194e+00,9.196e+00,9.840e+00,1.087e+01,1.161e+01,1.074e+01,1.143e+01,1.205e+01,1.115e+01,1.042e+01,1.029e+01,1.091e+01,1.103e+01,1.134e+01,1.132e+01,1.225e+01,9.111e+00,1.017e+01,1.387e+01,1.216e+01,1.232e+01,1.254e+01,1.294e+01,1.399e+01,1.347e+01,1.361e+01,1.540e+01,1.285e+01,1.604e+01,1.503e+01,1.475e+01,1.700e+01,1.562e+01,1.491e+01,1.598e+01,1.492e+01,1.616e+01,1.649e+01,1.564e+01,1.430e+01
1.085e-01,3.539e-01,4.674e-01,8.106e-01,1.314e+00,1.059e+00,1.658e+00,1.196e+00,1.654e+00,1.858e+00,2.941e+00,3.764e+00,1.650e+00,3.040e+00,2.296e+00,3.180e+00,4.432e+00,3.663e+00,3.562e+00,2.349e+00,4.429e+00,3.403e+00,4.193e+00,5.119e+00,5.555e+00,6.730e+00,6.489e+00,7.305e+00,6.407e+00,6.813e+00,7.872e+00,8.750e+00,6.194e+00,8.539e+00,8.597e+00,8.641e+00,9.047e+00,8.231e+00,1.048e+01,9.305e+00,1.010e+01,9.895e+00,1.066e+01,1.088e+01,1.238e+01,1.047e+01,1.056e+01,1.048e+01,1.088e+01,1.083e+01,1.156e+01,1.075e+01,9.898e+00,1.049e+01,1.504e+01,1.176e+01,1.294e+01,1.259e+01,1.313e+01,1.341e+01,1.318e+01,1.370e+01,1.306e+01,1.385e+01,1.573e+01,1.360e+01,1.548e+01,1.613e+01,1.615e+01,1.502e+01,1.512e+01,1.523e+01,1.623e+01,1.663e+01,1.582e+01,1.457e+01
1.227e-01,3.001e-01,3.827e-01,1.016e+00,1.330e+00,1.434e+00,1.650e+00,1.546e+00,1.783e+00,1.482e+00,1.981e+00,3.273e+00,1.823e+00,2.531e+00,2.375e+00,2.748e+00,3.546e+00,3.157e+00,3.029e+00,2.364e+00,4.040e+00,2.746e+00,4.196e+00,4.315e+00,4.542e+00,5.612e+00,5.869e+00,6.370e+00,4.971e+00,4.951e+00,5.770e+00,6.309e+00,6.072e+00,7.893e+00,6.827e+00,7.036e+00,8.298e+00,7.556e+00,8.641e+00,8.152e+00,9.235e+00,8.789e+00,9.424e+00,9.932e+00,9.465e+00,9.494e+00,1.027e+01,8.350e+00,9.232e+00,9.664e+00,1.045e+01,9.873e+00,8.555e+00,1.030e+01,1.087e+01,9.876e+00,1.160e+01,1.180e+01,1.180e+01,1.420e+01,1.119e+01,1.360e+01,1.435e+01,1.286e+01,1.328e+01,1.435e+01,1.288e+01,1.534e+01,1.495e+01,1.440e+01,1.508e+01,1.509e+01,1.546e+01,1.494e+01,1.621e+01,1.465e+01
7.294e-02,2.567e-01,6.025e-01,1.499e+00,1.690e+00,1.766e+00,2.092e+00,1.733e+00,2.185e+00,1.642e+00,1.854e+00,3.589e+00,2.423e+00,3.800e+00,3.208e+00,3.498e+00,4.915e+00,3.964e+00,4.595e+00,3.218e+00,4.377e+00,3.355e+00,5.482e+00,4.961e+00,5.874e+00,6.343e+00,7.195e+00,7.209e+00,6.606e+00,7.501e+00,7.811e+00,8.444e+00,8.652e+00,9.078e+00,9.149e+00,8.184e+00,1.139e+01,1.001e+01,1.240e+01,1.193e+01,1.167e+01,1.051e+01,9.993e+00,1.248e+01,1.166e+01,1.187e+01,1.085e+01,1.131e+01,1.311e+01,1.218e+01,1.325e+01,1.327e+01,1.147e+01,1.360e+01,1.583e+01,1.325e+01,1.493e+01,1.538e+01,1.406e+01,1.625e+01,1.588e+01,1.597e+01,1.603e+01,1.524e+01,1.687e+01,1.759e+01,1.567e+01,1.730e+01,1.737e+01,1.614e+01,1.743e+01,1.675e+01,1.773e+01,1.714e+01,1.832e+01,1.763e+01
2.199e-01,3.942e-01,6.677e-01,1.239e+00,1.533e+00,1.598e+00,1.752e+00,2.141e+00,2.476e+00,1.827e+00,2.493e+00,4.054e+00,2.390e+00,3.308e+00,2.954e+00,4.531e+00,5.141e+00,3.824e+00,4.766e+00,3.590e+00,5.211e+00,3.222e+00,5.091e+00,4.563e+00,5.186e+00,5.890e+00,6.815e+00,7.510e+00,6.352e+00,7.637e+00,7.509e+00,8.500e+00,7.993e+00,1.031e+01,9.204e+00,9.351e+00,1.052e+01,9.670e+00,1.097e+01,1.070e+01,1.089e+01,1.117e+01,1.160e+01,1.188e+01,1.194e+01,1.133e+01,1.078e+01,9.819e+00,1.144e+01,1.223e+01,1.325e+01,1.024e+01,1.109e+01,1.206e+01,1.377e+01,1.128e+01,1.392e+01,1.370e+01,1.546e+01,1.574e+01,1.410e+01,1.495e+01,1.545e+01,1.520e+01,1.544e+01,1.763e+01,1.538e+01,1.618e+01,1.703e+01,1.557e+01,1.684e+01,1.602e+01,1.760e+01,1.906e+01,1.796e+01,1.787e+01
2.161e-02,3.739e-01,3.860e-01,1.313e+00,2.149e+00,1.998e+00,2.506e+00,2.016e+00,2.623e+00,2.825e+00,3.473e+00,4.534e+00,2.472e+00,4.210e+00,3.295e+00,4.387e+00,4.634e+00,4.679e+00,4.304e+00,3.585e+00,5.220e+00,3.377e+00,6.202e+00,4.985e+00,5.663e+00,6.642e+00,7.595e+00,7.724e+00,6.366e+00,6.939e+00,7.493e+00,8.286e+00,7.447e+00,8.287e+00,8.155e+00,7.547e+00,1.030e+01,9.376e+00,1.254e+01,1.098e+01,1.189e+01,1.087e+01,1.195e+01,1.164e+01,1.268e+01,1.313e+01,1.256e+01,1.100e+01,1.178e+01,1.178e+01,1.358e+01,1.291e+01,1.187e+01,1.342e+01,1.542e+01,1.230e+01,1.473e+01,1.605e+01,1.569e+01,1.581e+01,1.568e+01,1.664e+01,1.546e+01,1.531e+01,1.578e+01,1.738e+01,1.607e+01,1.790e+01,1.926e+01,1.753e+01,1.786e+01,1.647e+01,1.849e+01,2.019e+01,1.963e+01,1.707e+01
2.954e-01,3.372e-01,4.513e-01,7.444e-01,1.335e+00,1.387e+00,1.217e+00,1.459e+00,1.786e+00,1.814e+00,2.853e+00,3.410e+00,1.690e+00,2.982e+00,2.185e+00,3.129e+00,3.673e+00,3.300e+00,2.823e+00,2.341e+00,4.158e+00,2.682e+00,4.033e+00,3.729e+00,4.749e+00,5.151e+00,6.336e+00,6.463e+00,5.687e+00,5.682e+00,5.080e+00,6.316e+00,5.447e+00,6.234e+00,6.918e+00,6.912e+00,6.536e+00,6.989e+00,8.915e+00,7.824e+00,9.969e+00,8.897e+00,9.352e+00,9.236e+00,1.033e+01,9.597e+00,9.344e+00,9.386e+00,9.478e+00,8.427e+00,1.106e+01,1.014e+01,9.342e+00,1.059e+01,1.264e+01,1.087e+01,1.218e+01,1.324e+01,1.155e+01,1.200e+01,1.238e+01,1.246e+01,1.278e+01,1.218e+01,1.371e+01,1.418e+01,1.309e+01,1.286e+01,1.389e+01,1.316e+01,1.410e+01,1.265e+01,1.487e+01,1.595e+01,1.466e+01,1.372e+01
9.117e-03,1.357e-01,5.632e-01,8.491e-01,1.302e+00,1.240e+00,1.656e+00,1.937e+00,2.087e+00,1.753e+00,2.664e+00,4.381e+00,2.679e+00,3.611e+00,3.256e+00,4.277e+00,5.187e+00,3.866e+00,4.618e+00,3.127e+00,4.961e+00,3.950e+00,5.385e+00,5.537e+00,6.704e+00,7.199e+00,7.863e+00,8.366e+00,7.036e+00,7.963e+00,8.024e+00,9.375e+00,7.585e+00,9.836e+00,9.113e+00,8.932e+00,1.106e+01,9.710e+00,1.086e+01,1.108e+01,1.131e+01,1.175e+01,1.103e+01,1.249e+01,1.050e+01,1.156e+01,1.179e+01,8.945e+00,1.110e+01,1.107e+01,1.182e+01,1.187e+01,1.011e+01,1.108e+01,1.344e+01,1.266e+01,1.305e+01,1.486e+01,1.485e+01,1.454e+01,1.384e+01,1.529e+01,1.536e+01,1.356e+01,1.494e+01,1.647e+01,1.427e+01,1.584e+01,1.654e+01,1.530e+01,1.593e+01,1.481e+01,1.731e+01,1.810e+01,1.643e+01,1.628e+01
3.423e-01,4.184e-01,3.188e-01,1.090e+00,1.965e+00,2.416e+00,2.252e+00,2.889e+00,2.997e+00,2.590e+00,3.336e+00,4.534e+00,2.998e+00,4.225e+00,3.433e+00,4.670e+00,5.297e+00,4.561e+00,4.815e+00,4.416e+00,6.190e+00,3.869e+00,5.482e+00,5.572e+00,6.244e+00,6.546e+00,6.855e+00,7.101e+00,6.504e+00,6.646e+00,6.482e+00,8.194e+00,6.829e+00,9.013e+00,8.519e+00,8.586e+00,1.021e+01,1.035e+01,1.077e+01,1.121e+01,1.268e+01,1.241e+01,1.165e+01,1.339e+01,1.129e+01,1.177e+01,1.140e+01,1.209e+01,1.228e+01,1.261e+01,1.282e+01,1.336e+01,1.082e+01,1.245e+01,1.561e+01,1.316e+01,1.357e+01,1.476e+01,1.724e+01,1.655e+01,1.539e+01,1.453e+01,1.742e+01,1.488e+01,1.540e+01,1.915e+01,1.667e+01,1.882e+01,1.975e+01,1.680e+01,1.872e+01,1.594e+01,1.760e+01,2.045e+01,1.967e+01,2.066e+01
6.769e-01,6.433e-01,8.379e-01,9.746e-01,1.962e+00,2.238e+00,2.008e+00,2.372e+00,2.469e+00,1.780e+00,3.520e+00,4.575e+00,2.657e+00,4.157e+00,2.666e+00,5.555e+00,5.969e+00,5.245e+00,6.216e+00,4.574e+00,6.419e+00,4.650e+00,6.430e+00,5.678e+00,7.105e+00,7.900e+00,8.336e+00,8.325e+00,7.601e+00,7.719e+00,8.609e+00,9.968e+00,8.108e+00,1.005e+01,1.017e+01,1.052e+01,1.165e+01,1.050e+01,1.266e+01,1.269e+01,1.281e+01,1.229e+01,1.219e+01,1.267e+01,1.113e+01,1.284e+01,1.203e+01,1.142e+01,1.167e+01,1.162e+01,1.323e+01,1.406e+01,1.120e+01,1.336e+01,1.475e+01,1.109e+01,1.412e+01,1.573e+01,1.512e+01,1.538e+01,1.348e+01,1.550e+01,1.484e+01,1.482e+01,1.557e+01,1.785e+01,1.480e+01,1.704e+01,1.775e+01,1.572e+01,1.651e+01,1.584e+01,1.878e+01,1.852e+01,1.842e+01,1.824e+01
