3.686e-01,8.906e-01,5.723e-02,2.412e-02,3.722e-01,7.883e-01,5.746e-01,4.786e-01,9.839e-01,9.073e-01,6.253e-01,4.686e-01,7.558e-01,8.475e-01,1.495e-01,4.195e-01,8.152e-01,1.389e-01,7.297e-01,5.684e-01,4.614e-01,8.241e-02,7.144e-01,6.168e-01,6.819e-01,3.473e-01,5.408e-01,7.272e-01,7.184e-01,1.927e-01,3.056e-01,7.356e-01,1.020e-01,5.729e-01,3.724e-01,5.087e-01,6.319e-01,5.579e-01,7.235e-01,5.633e-02,7.911e-01,2.728e-01,9.078e-01,2.723e-01,3.681e-01,3.709e-02,9.047e-01,9.416e-02,2.466e-01,8.447e-01,9.800e-01,2.583e-01,9.252e-02,5.791e-01,6.106e-01,8.143e-01,8.153e-01,9.365e-01,5.108e-01,6.727e-01,8.578e-01,1.793e-01,2.264e-01,3.939e-01,8.906e-03,4.004e-01,9.792e-01,3.614e-01,7.463e-01,9.225e-01,2.967e-01,4.028e-01,1.407e-01,1.341e-01,3.255e-01,6.386e-01,6.933e-01,8.373e-01,4.135e-01,4.300e-01,4.045e-01,3.713e-01,5.106e-03,3.252e-01,5.511e-01,8.363e-01,4.030e-01,9.965e-01,1.130e-02,1.203e-01,9.508e-01,9.283e-01
9.137e-02,5.653e-01,6.382e-01,7.182e-01,7.551e-01,1.172e+00,9.237e-01,2.602e-01,1.018e+00,9.053e-01,4.736e-01,9.895e-01,9.876e-01,4.842e-01,9.276e-01,7.454e-01,3.184e-01,5.555e-01,2.042e-01,5.746e-01,3.611e-01,2.254e-01,1.094e+00,3.555e-01,5.802e-01,1.817e-01,7.299e-01,9.726e-01,1.047e+00,6.780e-01,8.779e-01,9.207e-01,7.854e-01,4.025e-01,4.691e-01,9.955e-01,3.000e-01,4.922e-01,4.095e-01,9.428e-01,5.909e-01,2.149e-01,5.277e-01,2.084e-01,9.482e-02,4.886e-01,1.065e+00,3.097e-01,6.767e-01,4.742e-01,7.209e-01,9.821e-01,8.216e-01,8.944e-01,2.227e-01,1.187e+00,7.414e-01,1.163e+00,5.930e-01,5.728e-01,5.719e-01,3.033e-01,7.119e-01,1.002e+00,2.287e-01,9.903e-01,5.050e-01,7.821e-01,5.347e-01,1.213e+00,5.309e-01,3.683e-01,4.047e-01,5.002e-01,6.418e-01,2.565e-01,7.276e-01,1.137e+00,6.918e-01,6.281e-01,8.627e-01,4.778e-01,9.025e-01,6.908e-01,6.502e-01,5.295e-01,6.973e-01,8.987e-01,6.542e-01,4.460e-01,1.089e+00,5.232e-01
2.947e-01,9.490e-01,8.530e-01,9.528e-01,1.285e+00,1.504e+00,1.831e+00,1.175e+00,1.876e+00,1.286e+00,1.442e+00,1.599e+00,1.536e+00,1.094e+00,9.324e-01,1.757e+00,1.335e+00,7.856e-01,6.419e-01,1.035e+00,1.469e+00,2.859e-01,1.644e+00,6.510e-01,1.047e+00,1.258e+00,1.743e+00,1.219e+00,1.572e+00,7.602e-01,1.473e+00,1.903e+00,1.564e+00,7.293e-01,1.160e+00,1.763e+00,1.455e+00,1.184e+00,1.591e+00,1.198e+00,9.958e-01,1.301e+00,1.446e+00,9.128e-01,3.170e-01,1.256e+00,1.912e+00,6.703e-01,1.370e+00,8.847e-01,1.282e+00,1.801e+00,1.319e+00,1.084e+00,1.439e+00,2.222e+00,1.659e+00,1.634e+00,9.499e-01,1.764e+00,1.618e+00,4.282e-01,7.386e-01,1.243e+00,2.465e-01,1.286e+00,9.775e-01,1.028e+00,1.225e+00,2.183e+00,6.766e-01,1.362e+00,8.821e-01,1.044e+00,1.036e+00,1.402e+00,1.838e+00,1.612e+00,9.927e-01,7.554e-01,1.569e+00,8.843e-01,1.022e+00,1.078e+00,1.132e+00,1.656e+00,9.485e-01,1.511e+00,7.147e-01,7.994e-01,1.991e+00,1.235e+00
8.154e-02,3.470e-01,6.586e-01,1.380e+00,9.779e-01,1.456e+00,2.043e+00,1.690e+00,1.287e+00,6.223e-01,1.140e+00,1.851e+00,1.074e+00,8.786e-01,1.595e+00,1.364e+00,1.502e+00,1.345e+00,2.548e-01,9.398e-01,1.257e+00,3.261e-01,1.581e+00,6.598e-01,1.478e+00,1.339e+00,1.612e+00,1.589e+00,1.471e+00,1.025e+00,1.924e+00,2.146e+00,1.464e+00,5.892e-01,1.779e+00,1.964e+00,1.623e+00,8.106e-01,1.861e+00,1.121e+00,8.222e-01,1.719e+00,1.491e+00,1.066e+00,1.048e+00,1.936e+00,1.846e+00,1.078e+00,1.905e+00,3.510e-01,7.356e-01,1.796e+00,1.126e+00,1.397e+00,1.994e+00,1.699e+00,1.929e+00,1.409e+00,1.235e+00,2.256e+00,1.722e+00,9.141e-01,4.620e-01,1.560e+00,1.013e+00,1.815e+00,1.237e+00,1.209e+00,1.371e+00,2.017e+00,8.512e-01,1.685e+00,1.692e+00,1.128e+00,9.221e-01,1.431e+00,2.150e+00,1.583e+00,7.376e-01,9.670e-01,1.544e+00,1.229e+00,1.238e+00,1.506e+00,8.859e-01,1.389e+00,1.473e+00,9.776e-01,8.151e-01,1.450e+00,2.141e+00,1.397e+00
3.226e-01,1.065e+00,9.204e-01,1.106e+00,1.802e+00,2.304e+00,2.107e+00,1.889e+00,2.691e+00,2.025e+00,1.693e+00,2.471e+00,2.043e+00,2.002e+00,1.407e+00,2.494e+00,1.903e+00,1.030e+00,1.128e+00,1.515e+00,1.579e+00,3.708e-01,1.882e+00,1.480e+00,2.258e+00,1.559e+00,1.961e+00,2.429e+00,2.230e+00,1.146e+00,1.776e+00,2.764e+00,2.449e+00,1.210e+00,2.319e+00,2.877e+00,1.958e+00,1.823e+00,2.280e+00,2.314e+00,2.109e+00,2.195e+00,1.614e+00,1.467e+00,9.725e-01,2.065e+00,2.927e+00,8.803e-01,1.956e+00,1.290e+00,2.125e+00,1.949e+00,1.445e+00,1.764e+00,1.602e+00,2.871e+00,2.445e+00,2.185e+00,2.120e+00,2.395e+00,2.199e+00,8.263e-01,1.663e+00,2.085e+00,8.009e-01,1.765e+00,1.223e+00,2.181e+00,1.928e+00,3.170e+00,1.176e+00,1.642e+00,1.250e+00,1.202e+00,1.859e+00,2.141e+00,2.505e+00,2.105e+00,1.972e+00,1.783e+00,2.278e+00,1.701e+00,1.329e+00,1.624e+00,1.698e+00,2.623e+00,1.555e+00,2.674e+00,8.712e-01,1.444e+00,2.785e+00,2.352e+00
2.346e-01,6.793e-01,5.801e-01,1.218e+00,1.103e+00,2.493e+00,2.164e+00,2.126e+00,2.532e+00,1.475e+00,1.883e+00,2.682e+00,2.158e+00,1.890e+00,1.566e+00,1.971e+00,2.525e+00,1.372e+00,1.620e+00,1.799e+00,2.162e+00,1.115e+00,2.464e+00,1.288e+00,2.216e+00,1.675e+00,2.230e+00,2.025e+00,1.904e+00,1.349e+00,2.424e+00,3.071e+00,2.062e+00,1.137e+00,2.373e+00,2.813e+00,1.948e+00,1.754e+00,2.168e+00,2.144e+00,1.404e+00,2.327e+00,2.151e+00,2.079e+00,1.772e+00,2.565e+00,3.093e+00,1.591e+00,2.742e+00,7.890e-01,1.698e+00,1.826e+00,1.066e+00,2.361e+00,3.031e+00,2.007e+00,2.826e+00,2.382e+00,2.238e+00,3.183e+00,2.019e+00,1.065e+00,8.029e-01,2.145e+00,1.953e+00,2.343e+00,1.699e+00,2.356e+00,1.680e+00,2.601e+00,1.492e+00,2.255e+00,1.784e+00,1.604e+00,1.765e+00,2.207e+00,2.710e+00,2.362e+00,1.143e+00,2.209e+00,2.057e+00,2.028e+00,1.568e+00,2.421e+00,1.994e+00,2.361e+00,2.505e+00,2.273e+00,1.320e+00,1.972e+00,2.785e+00,2.685e+00
1.548e-01,4.408e-01,3.650e-01,5.510e-01,8.505e-01,1.700e+00,2.043e+00,1.443e+00,2.013e+00,2.059e+00,1.997e+00,1.959e+00,1.636e+00,2.431e+00,8.751e-01,2.233e+00,1.695e+00,1.137e+00,1.517e+00,1.287e+00,2.471e+00,9.039e-01,1.663e+00,1.876e+00,2.104e+00,1.695e+00,1.708e+00,1.377e+00,2.216e+00,1.128e+00,1.431e+00,2.705e+00,2.333e+00,1.828e+00,2.507e+00,2.871e+00,1.327e+00,1.991e+00,1.974e+00,2.388e+00,2.018e+00,2.067e+00,1.830e+00,2.207e+00,1.965e+00,2.454e+00,2.513e+00,1.201e+00,2.301e+00,1.180e+00,2.364e+00,1.170e+00,1.512e+00,1.589e+00,1.880e+00,2.283e+00,1.868e+00,2.517e+00,1.985e+00,2.627e+00,1.720e+00,1.219e+00,1.472e+00,2.098e+00,1.296e+00,1.898e+00,1.522e+00,2.788e+00,1.942e+00,2.598e+00,1.809e+00,1.474e+00,9.169e-01,1.515e+00,1.940e+00,2.113e+00,2.307e+00,2.108e+00,1.365e+00,2.423e+00,1.477e+00,2.296e+00,1.154e+00,2.229e+00,1.911e+00,2.035e+00,2.176e+00,2.755e+00,1.582e+00,1.482e+00,1.861e+00,2.114e+00
6.826e-02,4.021e-01,6.104e-01,1.104e+00,1.009e+00,2.160e+00,1.622e+00,1.817e+00,2.125e+00,1.733e+00,1.533e+00,3.184e+00,2.454e+00,1.476e+00,1.993e+00,2.238e+00,2.604e+00,1.924e+00,1.748e+00,1.539e+00,1.984e+00,1.045e+00,2.117e+00,1.975e+00,2.284e+00,1.530e+00,1.856e+00,2.837e+00,2.191e+00,2.173e+00,2.818e+00,3.191e+00,2.040e+00,1.779e+00,2.213e+00,2.657e+00,1.955e+00,1.679e+00,1.935e+00,2.739e+00,1.681e+00,2.005e+00,1.493e+00,1.552e+00,1.562e+00,2.318e+00,2.765e+00,2.067e+00,2.652e+00,5.487e-01,1.695e+00,2.476e+00,1.514e+00,2.122e+00,2.565e+00,2.601e+00,3.003e+00,2.013e+00,2.338e+00,3.159e+00,2.067e+00,1.656e+00,1.654e+00,2.615e+00,1.971e+00,2.510e+00,1.824e+00,2.937e+00,1.820e+00,2.872e+00,2.017e+00,1.690e+00,1.571e+00,1.842e+00,1.902e+00,1.977e+00,2.632e+00,2.171e+00,1.797e+00,2.098e+00,2.484e+00,2.045e+00,1.924e+00,2.606e+00,2.256e+00,2.545e+00,2.415e+00,2.788e+00,1.500e+00,2.237e+00,2.769e+00,2.781e+00
2.925e-01,1.016e+00,7.808e-01,1.209e+00,1.397e+00,2.427e+00,2.814e+00,1.769e+00,2.630e+00,2.872e+00,2.788e+00,3.307e+00,2.432e+00,3.313e+00,2.424e+00,2.958e+00,2.093e+00,1.924e+00,1.796e+00,2.448e+00,2.618e+00,9.468e-01,3.048e+00,2.579e+00,3.497e+00,2.562e+00,2.342e+00,2.811e+00,3.246e+00,2.508e+00,2.181e+00,3.867e+00,3.193e+00,2.555e+00,3.140e+00,4.170e+00,1.785e+00,2.045e+00,3.457e+00,2.528e+00,3.141e+00,2.993e+00,2.591e+00,2.159e+00,2.750e+00,2.827e+00,3.128e+00,1.341e+00,3.187e+00,1.776e+00,2.814e+00,2.336e+00,2.368e+00,2.693e+00,2.341e+00,3.499e+00,2.990e+00,3.382e+00,2.317e+00,3.693e+00,2.607e+00,1.869e+00,2.688e+00,3.294e+00,2.185e+00,3.093e+00,2.933e+00,3.379e+00,3.130e+00,4.135e+00,2.537e+00,1.967e+00,1.518e+00,2.550e+00,2.710e+00,2.263e+00,3.767e+00,3.482e+00,2.565e+00,3.337e+00,3.005e+00,2.969e+00,1.988e+00,3.163e+00,2.472e+00,3.031e+00,2.873e+00,4.135e+00,2.673e+00,2.510e+00,3.148e+00,2.922e+00
2.969e-02,1.355e-01,4.557e-01,1.088e+00,9.709e-01,1.549e+00,2.511e+00,2.198e+00,1.795e+00,2.313e+00,3.007e+00,4.341e+00,2.830e+00,3.054e+00,3.149e+00,3.734e+00,2.729e+00,3.155e+00,2.383e+00,2.376e+00,3.019e+00,1.854e+00,2.446e+00,2.914e+00,4.204e+00,2.974e+00,2.774e+00,2.970e+00,3.161e+00,2.848e+00,3.230e+00,4.140e+00,3.972e+00,2.917e+00,3.629e+00,4.056e+00,2.641e+00,2.516e+00,4.105e+00,2.842e+00,3.322e+00,4.201e+00,2.611e+00,3.122e+00,3.223e+00,3.791e+00,2.992e+00,2.954e+00,3.832e+00,1.684e+00,2.833e+00,2.848e+00,2.888e+00,2.538e+00,3.460e+00,3.828e+00,3.376e+00,3.298e+00,2.942e+00,4.646e+00,2.819e+00,2.960e+00,3.069e+00,3.541e+00,3.205e+00,3.270e+00,2.766e+00,3.875e+00,3.796e+00,4.172e+00,3.161e+00,2.906e+00,2.647e+00,2.800e+00,3.302e+00,3.352e+00,4.234e+00,2.949e+00,2.766e+00,3.842e+00,3.905e+00,3.467e+00,2.221e+00,3.774e+00,2.476e+00,3.211e+00,3.325e+00,4.614e+00,3.193e+00,3.457e+00,3.174e+00,3.740e+00
1.815e-01,6.299e-01,6.234e-01,7.490e-01,1.138e+00,1.505e+00,2.139e+00,1.447e+00,2.047e+00,2.587e+00,2.946e+00,4.250e+00,3.069e+00,3.597e+00,3.201e+00,4.137e+00,2.652e+00,2.639e+00,2.647e+00,2.652e+00,3.577e+00,1.762e+00,2.959e+00,2.887e+00,3.987e+00,3.430e+00,2.772e+00,2.465e+00,3.439e+00,3.067e+00,2.614e+00,4.456e+00,3.570e+00,2.953e+00,3.708e+00,3.968e+00,2.242e+00,2.415e+00,3.679e+00,2.743e+00,3.742e+00,3.796e+00,2.322e+00,2.418e+00,2.358e+00,3.062e+00,3.076e+00,2.292e+00,3.708e+00,1.914e+00,3.593e+00,3.483e+00,3.565e+00,2.880e+00,3.281e+00,4.602e+00,2.953e+00,3.671e+00,3.054e+00,4.304e+00,3.311e+00,2.489e+00,3.505e+00,3.018e+00,2.621e+00,3.479e+00,2.974e+00,3.707e+00,3.193e+00,4.706e+00,2.872e+00,2.941e+00,2.122e+00,2.536e+00,3.134e+00,2.717e+00,3.592e+00,3.387e+00,3.607e+00,3.627e+00,3.567e+00,3.242e+00,1.942e+00,3.748e+00,2.408e+00,3.226e+00,2.762e+00,4.755e+00,3.410e+00,3.158e+00,3.142e+00,3.624e+00
1.930e-01,7.749e-01,8.783e-01,1.452e+00,1.410e+00,2.382e+00,2.504e+00,2.036e+00,2.418e+00,2.267e+00,2.496e+00,4.647e+00,3.602e+00,2.530e+00,3.886e+00,3.450e+00,2.860e+00,2.937e+00,2.508e+00,3.027e+00,3.295e+00,2.340e+00,3.762e+00,2.717e+00,3.738e+00,2.207e+00,3.711e+00,3.178e+00,3.141e+00,3.368e+00,4.042e+00,4.506e+00,4.101e+00,3.083e+00,3.756e+00,3.574e+00,2.633e+00,2.710e+00,3.489e+00,3.244e+00,2.808e+00,4.018e+00,2.495e+00,3.410e+00,2.591e+00,3.918e+00,4.109e+00,2.863e+00,3.680e+00,1.986e+00,3.663e+00,3.517e+00,2.822e+00,3.177e+00,3.599e+00,3.813e+00,3.675e+00,4.142e+00,3.170e+00,4.328e+00,3.297e+00,2.729e+00,2.938e+00,3.479e+00,2.966e+00,4.036e+00,3.266e+00,4.083e+00,3.183e+00,4.469e+00,2.732e+00,3.099e+00,2.854e+00,2.272e+00,3.255e+00,2.903e+00,4.424e+00,3.506e+00,2.678e+00,3.741e+00,3.853e+00,3.631e+00,3.134e+00,3.776e+00,3.269e+00,3.218e+00,3.915e+00,4.225e+00,3.084e+00,3.202e+00,3.582e+00,3.802e+00
2.743e-01,8.157e-01,5.408e-01,1.093e+00,1.035e+00,2.383e+00,2.561e+00,1.948e+00,2.430e+00,2.310e+00,2.568e+00,4.165e+00,4.241e+00,3.451e+00,3.715e+00,4.364e+00,3.462e+00,2.860e+00,2.838e+00,2.901e+00,4.305e+00,2.579e+00,4.307e+00,3.267e+00,4.001e+00,3.592e+00,3.740e+00,2.979e+00,3.437e+00,3.085e+00,4.110e+00,4.855e+00,3.785e+00,3.490e+00,4.881e+00,4.554e+00,3.179e+00,3.146e+00,3.358e+00,3.362e+00,3.876e+00,4.498e+00,3.542e+00,3.511e+00,3.080e+00,4.650e+00,4.624e+00,3.023e+00,4.335e+00,2.336e+00,4.882e+00,3.306e+00,3.620e+00,3.971e+00,5.013e+00,4.760e+00,4.283e+00,4.584e+00,4.282e+00,5.234e+00,4.243e+00,2.958e+00,2.529e+00,3.170e+00,2.944e+00,4.337e+00,4.333e+00,4.208e+00,3.441e+00,5.367e+00,3.668e+00,3.753e+00,3.126e+00,2.190e+00,2.920e+00,3.453e+00,4.173e+00,4.363e+00,2.692e+00,4.035e+00,2.924e+00,4.484e+00,2.617e+00,4.214e+00,3.888e+00,3.380e+00,4.038e+00,4.489e+00,3.843e+00,3.995e+00,3.800e+00,4.750e+00
1.728e-01,5.462e-01,6.095e-01,9.391e-01,1.076e+00,1.578e+00,1.898e+00,1.785e+00,2.024e+00,1.907e+00,2.428e+00,3.834e+00,3.095e+00,3.085e+00,3.588e+00,3.379e+00,3.170e+00,2.928e+00,2.525e+00,2.860e+00,3.978e+00,2.694e+00,4.202e+00,3.341e+00,3.449e+00,3.085e+00,3.914e+00,3.145e+00,3.071e+00,3.930e+00,4.063e+00,4.440e+00,4.234e+00,3.799e+00,3.861e+00,4.366e+00,3.051e+00,3.174e+00,3.894e+00,3.179e+00,2.614e+00,4.307e+00,2.674e+00,3.608e+00,3.312e+00,4.270e+00,3.321e+00,3.190e+00,3.448e+00,1.619e+00,3.256e+00,3.896e+00,2.771e+00,2.978e+00,3.879e+00,3.867e+00,4.213e+00,3.683e+00,2.803e+00,4.744e+00,3.756e+00,2.873e+00,2.637e+00,3.073e+00,3.468e+00,3.654e+00,4.042e+00,3.462e+00,3.416e+00,4.688e+00,3.214e+00,3.396e+00,2.971e+00,3.212e+00,2.982e+00,2.941e+00,4.738e+00,3.489e+00,3.319e+00,3.526e+00,3.880e+00,3.410e+00,3.327e+00,3.626e+00,4.099e+00,3.948e+00,3.064e+00,4.233e+00,2.819e+00,3.467e+00,3.213e+00,4.336e+00
1.734e-01,7.271e-01,5.943e-01,6.629e-01,8.177e-01,1.365e+00,1.066e+00,5.202e-01,1.377e+00,1.516e+00,1.418e+00,2.863e+00,3.318e+00,1.816e+00,3.930e+00,3.533e+00,2.466e+00,2.545e+00,2.188e+00,2.418e+00,2.370e+00,3.176e+00,3.673e+00,2.219e+00,2.934e+00,1.898e+00,3.001e+00,2.906e+00,2.159e+00,2.729e+00,3.502e+00,2.611e+00,2.986e+00,3.185e+00,3.351e+00,3.260e+00,2.827e+00,2.234e+00,1.980e+00,3.074e+00,2.576e+00,3.277e+00,2.378e+00,2.722e+00,1.706e+00,3.107e+00,3.643e+00,2.702e+00,2.410e+00,1.978e+00,3.528e+00,3.112e+00,3.379e+00,3.037e+00,2.578e+00,3.461e+00,3.462e+00,3.467e+00,3.178e+00,3.354e+00,2.713e+00,2.289e+00,2.639e+00,2.721e+00,2.915e+00,2.913e+00,3.028e+00,2.865e+00,2.619e+00,4.256e+00,2.961e+00,2.532e+00,2.822e+00,2.052e+00,2.229e+00,2.160e+00,3.433e+00,3.393e+00,2.437e+00,3.409e+00,3.388e+00,3.570e+00,2.255e+00,3.147e+00,3.169e+00,2.552e+00,2.454e+00,4.040e+00,2.911e+00,2.583e+00,2.878e+00,3.811e+00
3.108e-01,9.908e-01,5.141e-01,7.884e-01,1.204e+00,2.754e+00,2.184e+00,1.784e+00,2.939e+00,3.133e+00,2.764e+00,4.349e+00,4.408e+00,4.050e+00,4.235e+00,4.977e+00,4.156e+00,3.876e+00,4.089e+00,4.118e+00,4.147e+00,3.966e+00,4.834e+00,4.396e+00,5.300e+00,3.459e+00,3.970e+00,5.093e+00,4.698e+00,3.539e+00,4.714e+00,4.814e+00,4.278e+00,5.005e+00,6.118e+00,6.233e+00,3.769e+00,4.530e+00,3.493e+00,5.156e+00,5.403e+00,5.114e+00,3.970e+00,4.656e+00,3.968e+00,5.068e+00,5.594e+00,4.059e+00,4.932e+00,3.105e+00,5.268e+00,3.949e+00,4.076e+00,4.636e+00,4.975e+00,5.224e+00,5.223e+00,5.026e+00,5.903e+00,5.409e+00,4.927e+00,3.900e+00,4.256e+00,4.244e+00,4.878e+00,4.465e+00,4.503e+00,5.173e+00,4.223e+00,6.442e+00,5.260e+00,3.917e+00,3.679e+00,3.725e+00,3.924e+00,4.699e+00,5.650e+00,5.106e+00,3.812e+00,5.975e+00,4.808e+00,5.527e+00,2.945e+00,5.315e+00,5.370e+00,4.402e+00,4.502e+00,6.516e+00,4.449e+00,4.336e+00,4.366e+00,6.541e+00
2.837e-02,1.697e-01,2.045e-01,2.825e-01,2.557e-01,1.112e+00,9.571e-01,5.791e-01,1.211e+00,1.415e+00,1.492e+00,2.443e+00,2.280e+00,2.236e+00,2.565e+00,2.333e+00,2.648e+00,3.257e+00,2.715e+00,2.687e+00,3.673e+00,3.522e+00,3.498e+00,2.877e+00,3.406e+00,2.465e+00,3.026e+00,2.576e+00,3.501e+00,2.819e+00,3.278e+00,3.085e+00,3.229e+00,4.187e+00,3.490e+00,4.002e+00,1.826e+00,2.938e+00,2.302e+00,3.431e+00,2.666e+00,3.130e+00,2.338e+00,3.508e+00,3.249e+00,3.923e+00,3.765e+00,3.048e+00,3.817e+00,2.046e+00,3.100e+00,3.540e+00,3.233e+00,2.797e+00,3.943e+00,3.108e+00,3.450e+00,3.271e+00,3.286e+00,3.658e+00,3.665e+00,2.831e+00,3.193e+00,2.553e+00,3.308e+00,3.306e+00,3.707e+00,3.473e+00,2.308e+00,3.926e+00,3.728e+00,3.119e+00,2.289e+00,2.937e+00,2.402e+00,2.826e+00,4.058e+00,3.419e+00,3.026e+00,4.068e+00,3.110e+00,3.349e+00,3.134e+00,4.000e+00,4.429e+00,2.756e+00,2.942e+00,3.290e+00,3.051e+00,2.524e+00,2.704e+00,4.413e+00
2.743e-02,2.749e-01,4.733e-01,7.118e-01,7.148e-01,1.709e+00,1.311e+00,1.192e+00,1.870e+00,1.858e+00,1.986e+00,3.712e+00,3.236e+00,3.190e+00,3.995e+00,3.733e+00,3.983e+00,4.715e+00,3.542e+00,4.046e+00,5.396e+00,4.687e+00,5.184e+00,4.157e+00,5.454e+00,3.874e+00,4.478e+00,4.578e+00,5.079e+00,4.200e+00,4.924e+00,5.451e+00,4.404e+00,5.714e+00,5.909e+00,6.405e+00,3.884e+00,4.202e+00,3.681e+00,4.957e+00,4.926e+00,4.700e+00,3.298e+00,4.111e+00,4.949e+00,5.665e+00,4.887e+00,5.013e+00,5.911e+00,2.417e+00,3.753e+00,5.687e+00,5.306e+00,4.180e+00,5.431e+00,4.962e+00,5.658e+00,4.547e+00,5.702e+00,5.877e+00,5.678e+00,4.497e+00,4.678e+00,3.777e+00,5.583e+00,5.006e+00,5.138e+00,5.302e+00,3.970e+00,6.663e+00,5.434e+00,4.954e+00,4.158e+00,4.525e+00,4.097e+00,4.638e+00,6.393e+00,4.877e+00,5.092e+00,5.266e+00,4.828e+00,5.015e+00,4.803e+00,5.711e+00,5.973e+00,4.342e+00,3.790e+00,5.110e+00,4.801e+00,4.349e+00,4.211e+00,6.806e+00
2.337e-01,7.643e-01,6.710e-01,8.761e-01,1.260e+00,2.050e+00,2.165e+00,1.609e+00,2.367e+00,2.277e+00,2.471e+00,4.139e+00,3.684e+00,3.203e+00,3.486e+00,4.029e+00,3.053e+00,3.300e+00,3.529e+00,3.781e+00,5.401e+00,3.353e+00,4.495e+00,3.864e+00,5.005e+00,3.865e+00,5.078e+00,3.608e+00,4.859e+00,3.345e+00,3.941e+00,5.504e+00,5.201e+00,4.315e+00,5.006e+00,4.700e+00,3.607e+00,3.688e+00,4.490e+00,4.074e+00,4.259e+00,5.526e+00,3.603e+00,4.955e+00,3.903e+00,5.099e+00,5.364e+00,4.119e+00,4.805e+00,3.105e+00,4.805e+00,4.644e+00,4.879e+00,4.165e+00,4.681e+00,5.167e+00,3.995e+00,5.821e+00,5.196e+00,4.948e+00,4.796e+00,4.221e+00,4.157e+00,3.635e+00,3.712e+00,5.231e+00,4.590e+00,5.282e+00,3.623e+00,6.074e+00,4.320e+00,4.461e+00,3.985e+00,3.307e+00,4.592e+00,4.726e+00,5.185e+00,4.969e+00,4.411e+00,4.736e+00,3.836e+00,4.862e+00,3.826e+00,5.374e+00,4.163e+00,4.236e+00,4.485e+00,5.422e+00,4.594e+00,4.264e+00,4.254e+00,5.567e+00
8.758e-02,4.813e-01,8.466e-01,1.322e+00,1.459e+00,2.622e+00,2.461e+00,2.304e+00,2.989e+00,2.764e+00,3.329e+00,5.730e+00,4.390e+00,3.776e+00,4.560e+00,5.126e+00,4.311e+00,4.420e+00,4.265e+00,4.786e+00,6.004e+00,4.834e+00,5.300e+00,4.733e+00,6.440e+00,5.122e+00,5.495e+00,5.718e+00,5.813e+00,5.379e+00,5.983e+00,7.403e+00,6.156e+00,5.315e+00,6.402e+00,6.399e+00,4.614e+00,5.114e+00,6.221e+00,5.681e+00,5.700e+00,6.643e+00,4.573e+00,5.486e+00,5.477e+00,6.791e+00,5.999e+00,5.669e+00,7.185e+00,3.166e+00,5.368e+00,6.427e+00,5.805e+00,4.974e+00,5.919e+00,6.127e+00,5.663e+00,6.506e+00,6.708e+00,7.416e+00,5.958e+00,5.187e+00,5.937e+00,5.227e+00,5.832e+00,6.352e+00,5.458e+00,7.058e+00,5.185e+00,7.514e+00,5.749e+00,5.975e+00,4.775e+00,5.306e+00,6.433e+00,6.020e+00,6.998e+00,6.174e+00,5.554e+00,6.560e+00,6.515e+00,5.822e+00,5.231e+00,6.705e+00,5.592e+00,5.656e+00,5.875e+00,7.626e+00,5.930e+00,6.026e+00,5.510e+00,7.341e+00
4.623e-02,2.565e-01,3.357e-01,7.963e-01,7.326e-01,1.475e+00,1.689e+00,1.429e+00,1.527e+00,2.077e+00,2.422e+00,4.208e+00,3.076e+00,3.280e+00,4.073e+00,3.738e+00,3.072e+00,3.955e+00,3.233e+00,3.590e+00,4.936e+00,3.875e+00,4.923e+00,4.209e+00,6.461e+00,4.221e+00,4.012e+00,4.675e+00,5.164e+00,4.885e+00,3.970e+00,5.822e+00,5.503e+00,5.008e+00,4.963e+00,5.832e+00,3.447e+00,3.605e+00,5.191e+00,4.210e+00,5.053e+00,5.849e+00,3.689e+00,4.294e+00,5.410e+00,5.236e+00,5.427e+00,4.600e+00,5.159e+00,3.365e+00,4.893e+00,5.366e+00,5.140e+00,4.405e+00,5.177e+00,5.579e+00,5.151e+00,5.784e+00,5.638e+00,6.089e+00,5.044e+00,5.133e+00,5.084e+00,5.060e+00,5.163e+00,5.752e+00,5.651e+00,5.188e+00,4.599e+00,6.847e+00,5.445e+00,4.326e+00,3.922e+00,4.475e+00,4.605e+00,4.348e+00,5.819e+00,5.717e+00,5.293e+00,5.855e+00,5.281e+00,5.036e+00,4.533e+00,5.666e+00,4.041e+00,4.240e+00,4.708e+00,6.326e+00,4.980e+00,5.260e+00,4.313e+00,6.682e+00
3.211e-01,1.118e+00,9.182e-01,1.088e+00,1.619e+00,2.598e+00,2.171e+00,1.793e+00,3.093e+00,2.777e+00,2.843e+00,4.931e+00,3.901e+00,3.983e+00,4.291e+00,4.279e+00,3.743e+00,3.465e+00,3.651e+00,4.670e+00,5.549e+00,4.618e+00,5.935e+00,4.922e+00,6.369e+00,4.834e+00,5.760e+00,4.664e+00,5.764e+00,5.421e+00,5.308e+00,6.982e+00,5.882e+00,5.208e+00,6.183e+00,6.207e+00,3.969e+00,5.267e+00,5.477e+00,5.137e+00,6.181e+00,6.038e+00,3.678e+00,5.196e+00,4.980e+00,5.433e+00,5.631e+00,4.567e+00,5.815e+00,3.065e+00,6.250e+00,6.534e+00,5.287e+00,4.705e+00,5.510e+00,5.677e+00,5.975e+00,6.525e+00,5.911e+00,6.734e+00,6.716e+00,4.941e+00,5.440e+00,4.483e+00,5.699e+00,6.439e+00,5.632e+00,5.713e+00,4.723e+00,7.715e+00,4.532e+00,5.743e+00,4.103e+00,4.276e+00,5.916e+00,4.372e+00,6.874e+00,6.401e+00,6.222e+00,6.036e+00,6.197e+00,5.707e+00,5.210e+00,5.867e+00,5.804e+00,5.081e+00,4.813e+00,6.647e+00,5.225e+00,4.973e+00,4.753e+00,6.617e+00
3.080e-01,1.077e+00,7.169e-01,8.980e-01,1.133e+00,2.318e+00,1.649e+00,1.292e+00,2.491e+00,2.458e+00,2.458e+00,4.738e+00,4.581e+00,3.472e+00,4.648e+00,4.447e+00,3.898e+00,4.281e+00,4.323e+00,4.488e+00,5.304e+00,5.217e+00,6.084e+00,5.038e+00,5.819e+00,4.671e+00,5.905e+00,5.746e+00,6.567e+00,5.920e+00,6.743e+00,6.522e+00,5.680e+00,6.029e+00,5.659e+00,6.190e+00,4.289e+00,5.972e+00,5.991e+00,5.066e+00,6.481e+00,6.196e+00,5.320e+00,6.132e+00,5.457e+00,6.402e+00,5.735e+00,6.172e+00,6.404e+00,4.018e+00,6.254e+00,6.710e+00,6.074e+00,6.128e+00,6.904e+00,6.316e+00,6.543e+00,7.795e+00,7.271e+00,6.839e+00,6.697e+00,6.257e+00,5.654e+00,4.894e+00,6.607e+00,6.751e+00,6.811e+00,6.210e+00,4.955e+00,8.056e+00,6.076e+00,5.804e+00,5.242e+00,5.346e+00,5.848e+00,5.358e+00,6.239e+00,7.168e+00,5.676e+00,6.368e+00,6.898e+00,5.715e+00,5.711e+00,6.523e+00,5.963e+00,5.024e+00,5.995e+00,7.701e+00,5.911e+00,5.918e+00,5.738e+00,7.915e+00
3.049e-01,1.062e+00,6.854e-01,1.280e+00,1.462e+00,2.767e+00,2.809e+00,2.167e+00,2.715e+00,3.306e+00,2.939e+00,5.223e+00,4.314e+00,4.599e+00,5.437e+00,5.140e+00,4.643e+00,5.912e+00,4.548e+00,5.186e+00,6.442e+00,6.368e+00,6.632e+00,7.472e+00,9.348e+00,7.254e+00,8.073e+00,8.174e+00,1.003e+01,6.710e+00,8.514e+00,9.086e+00,7.910e+00,9.059e+00,8.767e+00,9.325e+00,6.262e+00,7.895e+00,8.634e+00,6.764e+00,9.423e+00,8.405e+00,7.354e+00,8.470e+00,8.603e+00,8.896e+00,8.419e+00,8.513e+00,9.174e+00,5.749e+00,8.506e+00,8.564e+00,9.026e+00,7.069e+00,8.153e+00,8.140e+00,8.539e+00,9.851e+00,9.362e+00,9.534e+00,1.018e+01,9.014e+00,8.849e+00,7.242e+00,8.658e+00,8.884e+00,8.876e+00,8.403e+00,8.109e+00,1.168e+01,8.409e+00,7.868e+00,7.816e+00,7.276e+00,8.197e+00,7.942e+00,9.591e+00,1.027e+01,8.437e+00,8.599e+00,9.507e+00,8.170e+00,7.622e+00,8.889e+00,7.536e+00,7.028e+00,7.780e+00,1.041e+01,7.870e+00,7.264e+00,7.869e+00,1.041e+01
8.807e-02,4.490e-01,7.967e-01,1.166e+00,1.450e+00,2.409e+00,2.605e+00,2.049e+00,2.811e+00,2.691e+00,3.216e+00,4.716e+00,3.581e+00,4.537e+00,4.909e+00,5.045e+00,4.501e+00,5.052e+00,4.219e+00,4.688e+00,6.861e+00,6.263e+00,6.487e+00,5.690e+00,8.215e+00,6.377e+00,7.490e+00,6.372e+00,7.465e+00,6.087e+00,7.249e+00,8.218e+00,7.983e+00,7.349e+00,7.926e+00,8.564e+00,6.406e+00,6.909e+00,7.029e+00,7.020e+00,7.092e+00,8.083e+00,5.771e+00,7.770e+00,8.024e+00,8.531e+00,8.084e+00,6.959e+00,7.869e+00,4.526e+00,7.062e+00,7.869e+00,7.611e+00,6.169e+00,7.034e+00,7.445e+00,7.110e+00,8.387e+00,8.037e+00,8.551e+00,7.492e+00,6.897e+00,7.221e+00,6.632e+00,8.250e+00,8.201e+00,6.716e+00,7.426e+00,6.461e+00,9.413e+00,7.616e+00,7.383e+00,6.313e+00,7.467e+00,7.777e+00,6.827e+00,9.264e+00,8.845e+00,7.665e+00,7.783e+00,8.557e+00,7.771e+00,6.861e+00,8.582e+00,6.749e+00,7.039e+00,6.392e+00,9.189e+00,7.110e+00,6.056e+00,7.115e+00,9.022e+00
1.295e-01,6.380e-01,8.459e-01,1.375e+00,1.542e+00,2.510e+00,2.227e+00,2.023e+00,2.555e+00,2.217e+00,2.363e+00,4.807e+00,4.359e+00,3.505e+00,4.963e+00,5.228e+00,4.264e+00,4.901e+00,3.593e+00,4.703e+00,5.462e+00,4.893e+00,5.738e+00,4.781e+00,7.454e+00,6.408e+00,6.409e+00,7.068e+00,7.156e+00,5.064e+00,7.803e+00,7.440e+00,7.010e+00,7.168e+00,8.264e+00,8.155e+00,6.579e+00,6.323e+00,5.866e+00,6.420e+00,7.647e+00,7.867e+00,5.465e+00,6.437e+00,6.941e+00,8.737e+00,7.702e+00,6.342e+00,8.477e+00,4.805e+00,6.624e+00,6.832e+00,7.495e+00,6.550e+00,7.621e+00,7.878e+00,7.614e+00,6.634e+00,8.295e+00,7.764e+00,7.470e+00,6.415e+00,6.936e+00,5.752e+00,6.552e+00,7.860e+00,6.751e+00,7.430e+00,5.696e+00,8.957e+00,7.073e+00,6.656e+00,6.291e+00,5.666e+00,6.578e+00,6.455e+00,8.971e+00,8.369e+00,6.870e+00,6.596e+00,7.286e+00,7.255e+00,6.298e+00,7.602e+00,6.952e+00,6.221e+00,6.602e+00,7.612e+00,7.285e+00,6.097e+00,7.137e+00,8.865e+00
4.621e-02,3.708e-01,7.103e-01,1.203e+00,1.136e+00,2.268e+00,1.936e+00,1.750e+00,2.355e+00,1.929e+00,2.304e+00,3.714e+00,2.837e+00,3.005e+00,3.813e+00,3.389e+00,3.673e+00,3.945e+00,2.937e+00,3.361e+00,4.565e+00,4.760e+00,5.326e+00,3.889e+00,6.152e+00,4.864e+00,5.615e+00,5.969e+00,6.471e+00,4.995e+00,6.879e+00,6.423e+00,6.517e+00,6.439e+00,6.362e+00,7.475e+00,5.961e+00,5.613e+00,5.543e+00,5.927e+00,5.506e+00,7.190e+00,4.569e+00,6.636e+00,6.777e+00,6.978e+00,6.870e+00,6.326e+00,6.900e+00,3.839e+00,5.028e+00,6.411e+00,5.410e+00,5.311e+00,6.304e+00,6.188e+00,7.045e+00,6.534e+00,5.962e+00,7.172e+00,5.515e+00,5.959e+00,5.925e+00,5.736e+00,7.055e+00,7.315e+00,5.790e+00,6.169e+00,5.454e+00,7.527e+00,6.668e+00,5.606e+00,5.677e+00,6.300e+00,5.702e+00,4.628e+00,8.400e+00,8.006e+00,6.851e+00,5.985e+00,6.642e+00,5.656e+00,6.147e+00,6.576e+00,5.865e+00,5.561e+00,6.204e+00,6.441e+00,5.823e+00,5.684e+00,5.755e+00,8.061e+00
2.978e-02,2.002e-01,4.026e-01,5.344e-01,8.231e-01,1.061e+00,1.400e+00,1.214e+00,1.443e+00,1.993e+00,2.304e+00,4.160e+00,3.325e+00,3.036e+00,4.228e+00,4.528e+00,3.306e+00,3.502e+00,3.227e+00,3.324e+00,5.188e+00,4.697e+00,5.109e+00,5.227e+00,6.925e+00,6.708e+00,6.618e+00,7.020e+00,8.138e+00,7.279e+00,8.321e+00,7.985e+00,7.619e+00,8.139e+00,7.329e+00,7.774e+00,6.171e+00,7.478e+00,7.602e+00,6.686e+00,8.330e+00,8.393e+00,5.641e+00,7.947e+00,7.545e+00,8.117e+00,7.621e+00,7.587e+00,8.297e+00,6.105e+00,8.252e+00,7.836e+00,7.979e+00,6.689e+00,7.780e+00,8.313e+00,7.385e+00,8.448e+00,7.975e+00,8.312e+00,7.414e+00,7.783e+00,8.633e+00,7.388e+00,7.895e+00,9.044e+00,8.032e+00,7.485e+00,6.469e+00,9.659e+00,7.393e+00,6.260e+00,7.001e+00,7.409e+00,7.418e+00,5.837e+00,9.026e+00,9.804e+00,8.208e+00,7.011e+00,8.839e+00,7.743e+00,7.323e+00,7.543e+00,5.779e+00,6.998e+00,8.415e+00,9.094e+00,7.895e+00,6.948e+00,7.190e+00,8.489e+00
2.676e-01,8.182e-01,6.635e-01,1.218e+00,1.205e+00,2.572e+00,2.286e+00,2.179e+00,2.807e+00,2.271e+00,2.966e+00,5.212e+00,4.901e+00,4.126e+00,5.741e+00,5.278e+00,5.460e+00,5.544e+00,4.787e+00,5.471e+00,7.583e+00,7.800e+00,8.374e+00,6.800e+00,8.742e+00,7.360e+00,8.690e+00,7.607e+00,9.347e+00,8.065e+00,1.003e+01,1.008e+01,8.745e+00,9.244e+00,9.535e+00,9.727e+00,7.622e+00,9.274e+00,9.129e+00,7.841e+00,8.895e+00,9.301e+00,7.841e+00,9.508e+00,9.088e+00,1.028e+01,9.475e+00,9.130e+00,9.822e+00,5.818e+00,9.737e+00,9.651e+00,8.616e+00,8.264e+00,1.030e+01,8.312e+00,1.039e+01,1.005e+01,9.448e+00,1.054e+01,1.102e+01,8.784e+00,7.868e+00,8.008e+00,1.034e+01,1.001e+01,9.516e+00,8.407e+00,7.716e+00,1.238e+01,9.154e+00,8.997e+00,8.985e+00,7.726e+00,8.188e+00,8.465e+00,1.077e+01,1.047e+01,8.592e+00,9.437e+00,1.043e+01,8.629e+00,8.653e+00,9.336e+00,8.699e+00,7.571e+00,8.569e+00,9.787e+00,8.725e+00,8.464e+00,7.616e+00,1.139e+01
2.034e-01,6.986e-01,4.858e-01,5.967e-01,1.053e+00,2.283e+00,1.863e+00,1.406e+00,2.527e+00,2.660e+00,2.483e+00,4.339e+00,4.155e+00,4.179e+00,4.367e+00,4.698e+00,4.142e+00,4.796e+00,4.690e+00,4.850e+00,6.875e+00,5.900e+00,6.120e+00,5.842e+00,7.424e+00,6.459e+00,7.605e+00,7.079e+00,8.942e+00,5.640e+00,8.823e+00,8.638e+00,8.588e+00,9.102e+00,9.783e+00,8.944e+00,7.700e+00,8.033e+00,7.531e+00,8.005e+00,8.948e+00,9.325e+00,7.215e+00,9.743e+00,8.256e+00,9.520e+00,9.289e+00,8.380e+00,9.371e+00,6.497e+00,8.119e+00,7.266e+00,8.833e+00,7.241e+00,8.310e+00,8.249e+00,8.157e+00,9.603e+00,8.983e+00,8.179e+00,8.795e+00,7.764e+00,8.989e+00,6.664e+00,8.595e+00,9.134e+00,8.028e+00,9.372e+00,7.398e+00,1.069e+01,9.320e+00,8.023e+00,7.849e+00,7.717e+00,8.054e+00,7.464e+00,9.982e+00,1.039e+01,8.915e+00,7.894e+00,7.734e+00,8.475e+00,7.653e+00,9.225e+00,8.239e+00,7.617e+00,9.238e+00,8.887e+00,8.426e+00,6.853e+00,7.025e+00,1.005e+01
1.708e-01,5.597e-01,6.510e-01,1.062e+00,1.256e+00,2.249e+00,2.434e+00,2.285e+00,2.768e+00,2.789e+00,3.431e+00,5.647e+00,4.591e+00,4.286e+00,5.213e+00,5.535e+00,4.949e+00,5.007e+00,4.867e+00,5.390e+00,7.183e+00,5.834e+00,6.744e+00,6.478e+00,7.563e+00,6.582e+00,7.624e+00,7.215e+00,8.525e+00,7.417e+00,9.148e+00,9.783e+00,8.385e+00,8.633e+00,9.048e+00,9.279e+00,6.995e+00,8.494e+00,9.605e+00,7.636e+00,9.470e+00,9.652e+00,6.890e+00,9.780e+00,8.311e+00,9.390e+00,8.124e+00,8.139e+00,1.005e+01,5.718e+00,7.907e+00,9.351e+00,8.524e+00,7.625e+00,9.714e+00,8.223e+00,9.146e+00,8.960e+00,9.544e+00,1.013e+01,9.593e+00,8.123e+00,8.588e+00,7.881e+00,9.666e+00,9.693e+00,8.780e+00,9.258e+00,7.586e+00,1.113e+01,8.761e+00,8.328e+00,8.287e+00,8.372e+00,8.191e+00,8.056e+00,1.061e+01,9.775e+00,8.323e+00,9.051e+00,9.081e+00,9.002e+00,7.809e+00,9.159e+00,8.391e+00,7.782e+00,8.750e+00,1.004e+01,8.736e+00,8.767e+00,8.048e+00,1.018e+01
1.350e-01,3.842e-01,1.494e-01,4.806e-01,7.024e-01,1.506e+00,9.307e-01,1.334e+00,1.627e+00,1.628e+00,1.950e+00,4.096e+00,3.369e+00,3.121e+00,4.565e+00,3.972e+00,3.432e+00,3.340e+00,3.599e+00,4.186e+00,4.202e+00,4.722e+00,4.926e+00,4.560e+00,6.435e+00,5.588e+00,6.000e+00,6.605e+00,6.985e+00,6.166e+00,8.469e+00,8.495e+00,7.177e+00,8.789e+00,8.968e+00,7.681e+00,7.368e+00,7.690e+00,8.615e+00,7.290e+00,8.714e+00,8.827e+00,7.047e+00,8.797e+00,7.913e+00,9.707e+00,7.807e+00,7.629e+00,9.507e+00,6.175e+00,7.544e+00,7.184e+00,7.610e+00,7.989e+00,8.447e+00,6.871e+00,8.893e+00,7.633e+00,8.298e+00,8.162e+00,8.026e+00,7.270e+00,8.709e+00,8.142e+00,9.252e+00,9.655e+00,7.937e+00,8.822e+00,7.073e+00,1.006e+01,7.619e+00,7.306e+00,8.256e+00,7.059e+00,7.257e+00,6.733e+00,9.269e+00,1.016e+01,7.688e+00,8.654e+00,8.743e+00,8.441e+00,6.936e+00,8.146e+00,7.027e+00,7.327e+00,8.595e+00,8.810e+00,8.932e+00,7.374e+00,7.901e+00,9.125e+00
3.019e-02,9.652e-02,2.399e-01,8.932e-01,7.312e-01,1.956e+00,2.224e+00,1.969e+00,1.968e+00,2.046e+00,2.612e+00,4.041e+00,2.875e+00,3.894e+00,4.361e+00,4.109e+00,4.017e+00,4.520e+00,4.094e+00,4.582e+00,6.215e+00,6.334e+00,5.942e+00,6.089e+00,8.043e+00,6.741e+00,7.133e+00,7.235e+00,8.614e+00,6.834e+00,8.930e+00,9.016e+00,9.534e+00,8.965e+00,1.093e+01,9.597e+00,8.885e+00,9.381e+00,9.482e+00,9.343e+00,9.925e+00,1.035e+01,8.950e+00,1.113e+01,1.010e+01,1.055e+01,9.278e+00,8.864e+00,1.008e+01,6.613e+00,9.351e+00,8.347e+00,8.978e+00,8.376e+00,9.642e+00,8.044e+00,9.727e+00,1.055e+01,9.583e+00,9.482e+00,9.235e+00,8.599e+00,9.116e+00,9.094e+00,1.120e+01,1.110e+01,9.156e+00,1.032e+01,8.658e+00,1.084e+01,9.673e+00,9.688e+00,9.025e+00,9.264e+00,9.556e+00,8.710e+00,1.129e+01,1.088e+01,8.682e+00,9.862e+00,1.005e+01,9.760e+00,7.945e+00,1.055e+01,8.270e+00,8.444e+00,1.043e+01,1.035e+01,8.962e+00,8.395e+00,7.670e+00,1.070e+01
1.423e-01,3.843e-01,4.046e-01,5.908e-01,7.691e-01,1.356e+00,1.423e+00,1.400e+00,1.841e+00,1.612e+00,2.442e+00,3.710e+00,3.560e+00,2.898e+00,3.461e+00,3.965e+00,3.447e+00,3.890e+00,3.697e+00,4.120e+00,5.779e+00,5.056e+00,5.811e+00,4.705e+00,6.378e+00,5.657e+00,6.651e+00,6.260e+00,8.125e+00,6.397e+00,8.522e+00,8.056e+00,7.894e+00,8.559e+00,8.831e+00,8.995e+00,8.143e+00,9.310e+00,8.688e+00,7.616e+00,9.976e+00,9.262e+00,7.240e+00,9.373e+00,8.875e+00,9.853e+00,7.996e+00,8.584e+00,9.453e+00,6.872e+00,8.204e+00,8.332e+00,7.772e+00,7.977e+00,9.775e+00,7.712e+00,9.647e+00,9.211e+00,8.676e+00,9.030e+00,8.402e+00,8.916e+00,7.707e+00,7.621e+00,1.012e+01,1.036e+01,8.945e+00,8.198e+00,6.877e+00,1.028e+01,8.560e+00,7.757e+00,8.685e+00,7.921e+00,8.103e+00,7.677e+00,1.085e+01,9.803e+00,8.103e+00,8.418e+00,8.493e+00,8.630e+00,8.459e+00,8.652e+00,7.276e+00,7.571e+00,9.651e+00,8.367e+00,9.485e+00,8.241e+00,7.803e+00,9.970e+00
2.125e-01,6.691e-01,5.475e-01,7.216e-01,1.015e+00,2.076e+00,1.521e+00,1.531e+00,2.561e+00,2.058e+00,2.509e+00,4.008e+00,3.557e+00,3.590e+00,4.197e+00,4.002e+00,4.039e+00,3.384e+00,3.994e+00,4.547e+00,6.128e+00,5.274e+00,6.309e+00,5.385e+00,6.270e+00,6.113e+00,7.780e+00,6.392e+00,7.262e+00,6.360e+00,8.215e+00,8.867e+00,7.849e+00,9.435e+00,1.063e+01,1.002e+01,9.821e+00,9.625e+00,8.289e+00,8.578e+00,8.968e+00,9.580e+00,8.362e+00,9.609e+00,9.097e+00,1.040e+01,9.229e+00,9.843e+00,9.670e+00,6.459e+00,8.881e+00,9.558e+00,8.885e+00,8.573e+00,8.586e+00,7.467e+00,9.249e+00,1.021e+01,8.312e+00,9.650e+00,8.466e+00,8.966e+00,8.840e+00,8.129e+00,1.112e+01,1.140e+01,9.764e+00,9.340e+00,8.660e+00,1.065e+01,8.388e+00,9.213e+00,9.014e+00,9.728e+00,9.309e+00,8.455e+00,1.174e+01,1.075e+01,8.709e+00,8.350e+00,9.710e+00,9.203e+00,8.788e+00,9.928e+00,8.092e+00,1.015e+01,1.021e+01,1.088e+01,9.218e+00,8.321e+00,8.970e+00,1.099e+01
7.844e-02,3.841e-01,6.988e-01,1.299e+00,1.306e+00,2.040e+00,2.017e+00,2.019e+00,2.085e+00,1.509e+00,1.990e+00,4.096e+00,3.671e+00,3.203e+00,4.640e+00,4.299e+00,3.809e+00,4.277e+00,2.972e+00,4.117e+00,4.960e+00,5.378e+00,6.040e+00,4.936e+00,6.786e+00,5.985e+00,6.559e+00,6.495e+00,7.148e+00,6.144e+00,9.056e+00,7.917e+00,8.217e+00,7.835e+00,9.615e+00,9.473e+00,8.776e+00,9.814e+00,8.788e+00,7.567e+00,9.304e+00,1.002e+01,7.563e+00,9.053e+00,8.377e+00,1.136e+01,9.225e+00,8.215e+00,1.014e+01,6.011e+00,9.126e+00,9.156e+00,8.757e+00,8.372e+00,1.015e+01,7.781e+00,9.719e+00,9.188e+00,9.407e+00,9.333e+00,1.014e+01,7.972e+00,8.807e+00,7.153e+00,1.007e+01,1.049e+01,8.644e+00,8.529e+00,8.361e+00,1.061e+01,9.416e+00,8.643e+00,7.646e+00,8.450e+00,8.084e+00,7.539e+00,1.111e+01,1.034e+01,8.195e+00,8.576e+00,9.557e+00,8.557e+00,8.983e+00,9.321e+00,8.749e+00,8.133e+00,9.275e+00,8.406e+00,8.625e+00,8.088e+00,8.751e+00,1.116e+01
5.190e-02,4.595e-01,7.523e-01,1.166e+00,1.079e+00,2.184e+00,2.113e+00,1.538e+00,2.206e+00,2.429e+00,2.626e+00,4.873e+00,3.921e+00,3.801e+00,4.957e+00,4.453e+00,3.906e+00,5.114e+00,4.090e+00,4.422e+00,5.940e+00,5.672e+00,6.103e+00,5.736e+00,7.171e+00,6.068e+00,7.413e+00,7.006e+00,9.293e+00,6.961e+00,1.005e+01,9.273e+00,8.959e+00,9.348e+00,9.962e+00,1.031e+01,9.607e+00,1.133e+01,1.004e+01,9.340e+00,1.147e+01,1.051e+01,8.166e+00,1.197e+01,9.674e+00,1.183e+01,9.102e+00,1.043e+01,1.164e+01,7.551e+00,9.496e+00,1.074e+01,1.104e+01,1.046e+01,1.136e+01,9.580e+00,1.160e+01,1.174e+01,1.131e+01,1.063e+01,1.040e+01,1.064e+01,1.061e+01,9.147e+00,1.300e+01,1.269e+01,9.835e+00,1.146e+01,9.010e+00,1.207e+01,1.065e+01,9.670e+00,1.070e+01,1.061e+01,9.901e+00,8.714e+00,1.253e+01,1.247e+01,1.087e+01,9.848e+00,1.016e+01,9.860e+00,1.104e+01,1.168e+01,9.076e+00,8.941e+00,1.123e+01,9.975e+00,1.068e+01,9.955e+00,9.999e+00,1.183e+01
1.739e-02,3.143e-01,7.901e-01,1.447e+00,1.345e+00,2.091e+00,2.229e+00,1.934e+00,1.993e+00,1.612e+00,1.962e+00,3.830e+00,3.048e+00,2.784e+00,3.863e+00,3.899e+00,3.238e+00,4.097e+00,2.522e+00,3.417e+00,4.659e+00,4.370e+00,4.686e+00,4.597e+00,7.242e+00,6.782e+00,7.140e+00,7.339e+00,8.956e+00,5.692e+00,9.818e+00,9.460e+00,8.366e+00,8.714e+00,1.038e+01,1.042e+01,1.019e+01,1.128e+01,1.084e+01,9.339e+00,1.171e+01,1.019e+01,9.018e+00,1.060e+01,9.865e+00,1.217e+01,1.005e+01,1.038e+01,1.252e+01,8.326e+00,9.522e+00,1.006e+01,1.117e+01,1.008e+01,1.042e+01,9.848e+00,1.099e+01,1.046e+01,1.100e+01,1.059e+01,1.094e+01,9.729e+00,1.073e+01,9.633e+00,1.186e+01,1.277e+01,9.930e+00,1.060e+01,9.498e+00,1.214e+01,1.095e+01,1.040e+01,1.099e+01,1.054e+01,1.010e+01,9.360e+00,1.271e+01,1.301e+01,1.114e+01,8.914e+00,1.055e+01,1.019e+01,1.082e+01,1.087e+01,8.162e+00,9.789e+00,1.116e+01,9.536e+00,1.117e+01,9.051e+00,1.098e+01,1.177e+01
3.072e-01,9.295e-01,5.763e-01,7.101e-01,1.276e+00,2.330e+00,2.329e+00,1.796e+00,2.832e+00,3.136e+00,3.122e+00,4.453e+00,3.690e+00,4.184e+00,3.620e+00,4.593e+00,3.980e+00,4.303e+00,4.369e+00,4.311e+00,6.003e+00,4.346e+00,5.348e+00,5.408e+00,7.230e+00,6.220e+00,6.801e+00,7.351e+00,9.725e+00,5.982e+00,8.874e+00,9.307e+00,8.722e+00,9.392e+00,1.003e+01,1.064e+01,9.384e+00,1.092e+01,1.004e+01,9.759e+00,1.202e+01,1.027e+01,9.482e+00,1.143e+01,9.637e+00,1.093e+01,1.037e+01,1.008e+01,1.182e+01,9.165e+00,9.671e+00,1.015e+01,1.157e+01,1.015e+01,1.082e+01,1.040e+01,1.083e+01,1.224e+01,1.144e+01,1.064e+01,1.045e+01,9.101e+00,1.144e+01,9.428e+00,1.166e+01,1.212e+01,1.029e+01,1.123e+01,1.005e+01,1.247e+01,1.130e+01,9.448e+00,1.030e+01,1.061e+01,1.035e+01,1.011e+01,1.263e+01,1.226e+01,1.125e+01,9.526e+00,1.042e+01,1.009e+01,9.551e+00,1.132e+01,8.604e+00,9.613e+00,1.195e+01,1.074e+01,1.040e+01,9.549e+00,1.026e+01,1.233e+01
1.114e-01,3.590e-01,4.348e-01,1.031e+00,8.117e-01,1.757e+00,2.202e+00,1.927e+00,1.959e+00,2.161e+00,2.979e+00,4.639e+00,3.948e+00,3.686e+00,4.194e+00,4.460e+00,3.738e+00,4.235e+00,3.530e+00,3.885e+00,5.339e+00,4.274e+00,5.584e+00,4.961e+00,6.317e+00,5.822e+00,5.792e+00,5.981e+00,7.263e+00,6.196e+00,8.030e+00,8.647e+00,7.203e+00,8.332e+00,8.989e+00,9.340e+00,8.119e+00,9.489e+00,9.625e+00,8.401e+00,1.026e+01,9.487e+00,9.786e+00,9.894e+00,9.586e+00,1.191e+01,8.990e+00,9.518e+00,1.134e+01,7.323e+00,9.390e+00,9.612e+00,9.449e+00,9.663e+00,1.056e+01,8.810e+00,1.038e+01,1.030e+01,9.486e+00,1.121e+01,9.916e+00,9.289e+00,9.610e+00,8.335e+00,1.156e+01,1.065e+01,1.054e+01,1.015e+01,1.038e+01,1.199e+01,1.038e+01,8.924e+00,9.122e+00,1.012e+01,8.508e+00,9.493e+00,1.090e+01,1.138e+01,8.720e+00,9.367e+00,9.896e+00,9.330e+00,9.766e+00,9.769e+00,7.665e+00,8.919e+00,1.079e+01,1.052e+01,1.043e+01,1.030e+01,9.530e+00,1.099e+01
1.175e-01,5.404e-01,8.164e-01,1.332e+00,1.281e+00,2.401e+00,2.113e+00,1.999e+00,2.637e+00,2.126e+00,2.898e+00,4.882e+00,4.075e+00,3.174e+00,4.491e+00,4.229e+00,3.812e+00,3.907e+00,3.572e+00,4.081e+00,4.918e+00,4.473e+00,5.561e+00,4.103e+00,5.835e+00,5.337e+00,6.816e+00,6.133e+00,7.103e+00,5.417e+00,8.698e+00,8.489e+00,7.685e+00,7.988e+00,8.643e+00,8.836e+00,8.758e+00,9.535e+00,8.698e+00,9.106e+00,9.438e+00,1.057e+01,9.600e+00,1.179e+01,9.445e+00,1.124e+01,1.005e+01,1.007e+01,1.169e+01,7.688e+00,8.866e+00,9.544e+00,9.906e+00,1.017e+01,1.001e+01,9.385e+00,1.041e+01,1.118e+01,9.471e+00,1.126e+01,9.357e+00,8.882e+00,9.661e+00,8.895e+00,1.162e+01,1.162e+01,1.026e+01,1.047e+01,1.054e+01,1.143e+01,1.056e+01,9.382e+00,1.076e+01,1.011e+01,9.533e+00,9.447e+00,1.274e+01,1.162e+01,1.009e+01,9.034e+00,9.835e+00,9.955e+00,1.031e+01,1.053e+01,8.389e+00,8.901e+00,1.110e+01,1.042e+01,1.065e+01,1.029e+01,9.592e+00,1.121e+01
1.626e-01,4.183e-01,1.558e-01,3.449e-01,4.441e-01,1.194e+00,1.120e+00,1.116e+00,1.529e+00,1.707e+00,1.989e+00,3.039e+00,3.201e+00,2.482e+00,3.161e+00,3.572e+00,3.385e+00,3.004e+00,3.304e+00,3.616e+00,4.812e+00,4.163e+00,5.074e+00,5.349e+00,5.735e+00,6.484e+00,6.476e+00,6.784e+00,7.944e+00,6.629e+00,8.574e+00,8.243e+00,7.520e+00,9.772e+00,9.238e+00,9.012e+00,9.417e+00,1.092e+01,1.024e+01,9.653e+00,1.121e+01,1.152e+01,1.161e+01,1.255e+01,1.094e+01,1.286e+01,1.089e+01,1.113e+01,1.258e+01,9.855e+00,1.130e+01,1.129e+01,1.229e+01,1.142e+01,1.252e+01,1.070e+01,1.198e+01,1.195e+01,1.102e+01,1.206e+01,1.147e+01,1.012e+01,1.164e+01,1.077e+01,1.297e+01,1.386e+01,1.350e+01,1.172e+01,1.119e+01,1.258e+01,1.228e+01,1.000e+01,1.155e+01,1.286e+01,1.045e+01,1.044e+01,1.321e+01,1.314e+01,1.073e+01,1.045e+01,1.073e+01,1.114e+01,1.187e+01,1.196e+01,9.525e+00,1.134e+01,1.272e+01,1.129e+01,1.218e+01,1.185e+01,1.108e+01,1.242e+01
2.929e-01,7.770e-01,5.002e-01,1.163e+00,1.105e+00,2.171e+00,2.279e+00,2.429e+00,2.400e+00,2.138e+00,2.767e+00,5.029e+00,4.564e+00,3.250e+00,4.295e+00,4.667e+00,4.551e+00,4.333e+00,3.540e+00,3.883e+00,5.406e+00,5.003e+00,5.576e+00,5.398e+00,7.481e+00,7.210e+00,7.348e+00,6.810e+00,7.959e+00,6.253e+00,1.003e+01,9.637e+00,8.606e+00,9.298e+00,1.041e+01,9.131e+00,1.021e+01,1.048e+01,1.016e+01,9.366e+00,1.168e+01,1.164e+01,1.192e+01,1.257e+01,1.127e+01,1.328e+01,1.148e+01,1.170e+01,1.311e+01,9.338e+00,1.232e+01,1.058e+01,1.132e+01,1.084e+01,1.293e+01,1.177e+01,1.346e+01,1.234e+01,1.116e+01,1.319e+01,1.212e+01,1.127e+01,1.067e+01,1.028e+01,1.292e+01,1.265e+01,1.255e+01,1.246e+01,1.211e+01,1.323e+01,1.209e+01,1.204e+01,1.171e+01,1.212e+01,1.070e+01,1.089e+01,1.297e+01,1.369e+01,1.131e+01,9.902e+00,1.166e+01,1.159e+01,1.166e+01,1.193e+01,9.769e+00,1.150e+01,1.252e+01,1.208e+01,1.203e+01,1.177e+01,1.051e+01,1.321e+01
2.543e-01,7.234e-01,2.937e-01,7.357e-01,6.648e-01,1.490e+00,1.997e+00,1.468e+00,1.546e+00,2.207e+00,2.152e+00,3.341e+00,3.217e+00,3.249e+00,3.667e+00,3.545e+00,3.430e+00,4.170e+00,3.065e+00,3.344e+00,5.727e+00,4.298e+00,5.572e+00,5.629e+00,6.659e+00,6.140e+00,6.412e+00,7.063e+00,8.672e+00,6.261e+00,8.259e+00,8.298e+00,7.312e+00,9.021e+00,8.537e+00,9.632e+00,8.696e+00,9.720e+00,9.518e+00,7.382e+00,1.100e+01,1.084e+01,9.572e+00,1.186e+01,1.166e+01,1.159e+01,1.014e+01,1.147e+01,1.237e+01,8.835e+00,1.005e+01,1.071e+01,1.221e+01,1.039e+01,1.154e+01,1.114e+01,1.086e+01,1.255e+01,1.162e+01,1.198e+01,1.132e+01,1.126e+01,1.092e+01,9.200e+00,1.154e+01,1.265e+01,1.325e+01,1.144e+01,1.202e+01,1.211e+01,1.200e+01,1.004e+01,1.067e+01,1.226e+01,9.830e+00,9.924e+00,1.326e+01,1.257e+01,1.168e+01,9.805e+00,9.228e+00,1.110e+01,1.180e+01,1.168e+01,9.312e+00,1.031e+01,1.165e+01,1.166e+01,1.153e+01,1.139e+01,1.034e+01,1.297e+01
2.988e-02,1.373e-01,3.183e-01,8.151e-01,5.516e-01,9.644e-01,1.289e+00,1.294e+00,9.532e-01,9.522e-01,1.594e+00,3.562e+00,2.764e+00,2.404e+00,4.860e+00,3.593e+00,3.850e+00,4.395e+00,2.828e+00,3.509e+00,4.870e+00,5.711e+00,5.334e+00,4.500e+00,6.262e+00,5.496e+00,6.369e+00,5.984e+00,6.809e+00,6.204e+00,8.816e+00,7.403e+00,7.950e+00,9.074e+00,1.012e+01,9.262e+00,1.002e+01,1.029e+01,9.298e+00,9.190e+00,1.089e+01,1.148e+01,9.941e+00,1.265e+01,1.180e+01,1.347e+01,1.142e+01,1.199e+01,1.284e+01,9.147e+00,1.197e+01,1.188e+01,1.303e+01,1.140e+01,1.272e+01,1.094e+01,1.267e+01,1.235e+01,1.144e+01,1.327e+01,1.157e+01,1.048e+01,1.115e+01,9.539e+00,1.345e+01,1.361e+01,1.293e+01,1.285e+01,1.156e+01,1.175e+01,1.218e+01,1.208e+01,1.237e+01,1.266e+01,1.058e+01,9.942e+00,1.463e+01,1.252e+01,1.183e+01,1.128e+01,1.081e+01,1.233e+01,1.309e+01,1.257e+01,1.024e+01,1.044e+01,1.313e+01,1.132e+01,1.193e+01,1.141e+01,1.120e+01,1.389e+01
2.867e-01,8.527e-01,6.535e-01,7.295e-01,1.067e+00,1.943e+00,1.853e+00,1.562e+00,2.565e+00,2.323e+00,2.733e+00,3.642e+00,4.016e+00,2.677e+00,2.770e+00,4.253e+00,3.616e+00,3.184e+00,3.449e+00,3.403e+00,5.207e+00,3.904e+00,5.152e+00,4.592e+00,5.407e+00,5.762e+00,6.744e+00,5.995e+00,7.624e+00,5.257e+00,8.292e+00,7.828e+00,7.166e+00,8.304e+00,8.008e+00,8.802e+00,8.323e+00,9.257e+00,7.570e+00,7.281e+00,9.181e+00,8.880e+00,8.808e+00,9.992e+00,8.993e+00,1.027e+01,1.017e+01,1.066e+01,1.140e+01,7.978e+00,1.035e+01,9.329e+00,9.728e+00,8.821e+00,1.067e+01,1.048e+01,1.030e+01,1.107e+01,9.523e+00,1.063e+01,8.956e+00,1.013e+01,9.316e+00,9.326e+00,1.117e+01,1.100e+01,1.005e+01,1.056e+01,9.228e+00,1.146e+01,1.031e+01,8.419e+00,1.048e+01,1.125e+01,8.845e+00,1.007e+01,1.135e+01,1.100e+01,9.324e+00,8.318e+00,1.009e+01,9.964e+00,1.000e+01,1.047e+01,8.688e+00,9.939e+00,1.123e+01,1.103e+01,1.077e+01,1.011e+01,8.742e+00,1.139e+01
7.616e-02,4.158e-01,7.551e-01,1.098e+00,1.265e+00,2.187e+00,2.494e+00,1.792e+00,2.574e+00,2.577e+00,3.188e+00,4.628e+00,3.538e+00,4.197e+00,4.881e+00,4.680e+00,4.129e+00,4.901e+00,4.137e+00,5.061e+00,6.574e+00,6.501e+00,6.790e+00,5.742e+00,7.499e+00,6.339e+00,7.504e+00,7.527e+00,9.101e+00,7.345e+00,9.266e+00,9.016e+00,9.883e+00,1.030e+01,1.123e+01,1.124e+01,9.393e+00,1.111e+01,1.074e+01,1.193e+01,1.209e+01,1.271e+01,1.138e+01,1.386e+01,1.235e+01,1.452e+01,1.334e+01,1.279e+01,1.426e+01,1.045e+01,1.279e+01,1.353e+01,1.342e+01,1.220e+01,1.351e+01,1.244e+01,1.373e+01,1.406e+01,1.293e+01,1.389e+01,1.226e+01,1.114e+01,1.377e+01,1.241e+01,1.431e+01,1.522e+01,1.388e+01,1.395e+01,1.282e+01,1.486e+01,1.396e+01,1.297e+01,1.290e+01,1.456e+01,1.210e+01,1.244e+01,1.549e+01,1.470e+01,1.359e+01,1.381e+01,1.266e+01,1.406e+01,1.441e+01,1.397e+01,1.262e+01,1.219e+01,1.456e+01,1.271e+01,1.364e+01,1.328e+01,1.179e+01,1.425e+01
2.793e-01,7.292e-01,4.484e-01,1.062e+00,1.045e+00,2.199e+00,2.212e+00,2.182e+00,2.339e+00,1.869e+00,2.412e+00,3.716e+00,3.757e+00,3.288e+00,3.811e+00,4.128e+00,4.098e+00,3.896e+00,3.203e+00,3.364e+00,5.119e+00,5.297e+00,5.091e+00,4.900e+00,6.782e+00,6.603e+00,7.312e+00,6.418e+00,7.006e+00,4.976e+00,9.120e+00,8.395e+00,7.282e+00,7.778e+00,8.543e+00,8.513e+00,9.533e+00,1.033e+01,8.827e+00,7.621e+00,9.799e+00,1.059e+01,9.644e+00,1.145e+01,1.109e+01,1.301e+01,1.161e+01,1.231e+01,1.318e+01,9.406e+00,1.264e+01,1.169e+01,1.172e+01,1.079e+01,1.275e+01,1.195e+01,1.177e+01,1.189e+01,1.266e+01,1.344e+01,1.174e+01,1.082e+01,1.092e+01,1.015e+01,1.235e+01,1.339e+01,1.132e+01,1.244e+01,1.173e+01,1.312e+01,1.287e+01,1.125e+01,1.267e+01,1.241e+01,1.088e+01,1.191e+01,1.369e+01,1.356e+01,1.131e+01,1.043e+01,1.042e+01,1.206e+01,1.253e+01,1.261e+01,1.075e+01,1.095e+01,1.191e+01,1.223e+01,1.255e+01,1.235e+01,1.186e+01,1.343e+01
1.996e-01,6.330e-01,3.355e-01,4.482e-01,9.077e-01,2.064e+00,1.795e+00,1.387e+00,2.371e+00,2.702e+00,2.335e+00,3.549e+00,3.572e+00,4.357e+00,3.856e+00,4.173e+00,3.711e+00,3.982e+00,3.872e+00,4.291e+00,6.288e+00,5.360e+00,6.249e+00,6.282e+00,6.996e+00,6.111e+00,7.086e+00,6.578e+00,8.807e+00,6.629e+00,8.931e+00,8.852e+00,9.128e+00,1.043e+01,1.120e+01,1.055e+01,9.393e+00,1.106e+01,9.392e+00,1.092e+01,1.316e+01,1.192e+01,1.098e+01,1.443e+01,1.306e+01,1.423e+01,1.190e+01,1.206e+01,1.382e+01,1.133e+01,1.371e+01,1.226e+01,1.384e+01,1.319e+01,1.398e+01,1.308e+01,1.401e+01,1.453e+01,1.395e+01,1.366e+01,1.341e+01,1.308e+01,1.221e+01,1.186e+01,1.509e+01,1.519e+01,1.479e+01,1.563e+01,1.266e+01,1.495e+01,1.403e+01,1.162e+01,1.304e+01,1.351e+01,1.284e+01,1.246e+01,1.588e+01,1.408e+01,1.364e+01,1.337e+01,1.110e+01,1.536e+01,1.322e+01,1.492e+01,1.301e+01,1.221e+01,1.382e+01,1.318e+01,1.438e+01,1.346e+01,1.211e+01,1.366e+01
1.956e-01,7.961e-01,7.579e-01,1.339e+00,1.364e+00,2.359e+00,2.333e+00,1.850e+00,2.175e+00,2.207e+00,2.050e+00,4.357e+00,3.462e+00,3.304e+00,4.517e+00,3.833e+00,3.371e+00,4.554e+00,3.324e+00,4.106e+00,4.979e+00,4.191e+00,5.118e+00,4.684e+00,6.336e+00,4.844e+00,6.271e+00,7.139e+00,8.400e+00,5.918e+00,8.807e+00,8.320e+00,8.046e+00,8.304e+00,9.844e+00,9.505e+00,8.479e+00,9.811e+00,9.048e+00,9.192e+00,1.172e+01,1.014e+01,9.557e+00,1.189e+01,1.040e+01,1.197e+01,1.079e+01,1.061e+01,1.332e+01,1.056e+01,1.114e+01,1.263e+01,1.261e+01,1.263e+01,1.282e+01,1.273e+01,1.223e+01,1.300e+01,1.440e+01,1.244e+01,1.218e+01,1.110e+01,1.199e+01,1.170e+01,1.347e+01,1.472e+01,1.385e+01,1.431e+01,1.174e+01,1.370e+01,1.260e+01,1.113e+01,1.273e+01,1.219e+01,1.199e+01,1.246e+01,1.433e+01,1.209e+01,1.182e+01,1.148e+01,1.068e+01,1.327e+01,1.246e+01,1.332e+01,1.132e+01,1.089e+01,1.306e+01,1.215e+01,1.209e+01,1.264e+01,1.215e+01,1.230e+01
8.692e-02,4.797e-01,6.983e-01,1.338e+00,1.116e+00,2.522e+00,2.013e+00,2.001e+00,2.448e+00,2.025e+00,2.374e+00,5.208e+00,4.567e+00,3.752e+00,5.547e+00,4.653e+00,4.850e+00,5.083e+00,4.251e+00,4.641e+00,6.595e+00,6.030e+00,7.265e+00,5.818e+00,6.867e+00,6.645e+00,7.281e+00,7.702e+00,8.819e+00,7.887e+00,1.011e+01,9.463e+00,8.988e+00,9.383e+00,1.007e+01,1.020e+01,9.023e+00,1.035e+01,1.007e+01,9.820e+00,9.920e+00,1.114e+01,1.044e+01,1.221e+01,1.096e+01,1.363e+01,1.164e+01,1.190e+01,1.326e+01,9.246e+00,1.168e+01,1.314e+01,1.430e+01,1.358e+01,1.385e+01,1.274e+01,1.344e+01,1.467e+01,1.316e+01,1.341e+01,1.327e+01,1.124e+01,1.151e+01,1.148e+01,1.390e+01,1.449e+01,1.496e+01,1.412e+01,1.211e+01,1.415e+01,1.439e+01,1.257e+01,1.181e+01,1.282e+01,1.196e+01,1.238e+01,1.427e+01,1.321e+01,1.260e+01,1.220e+01,1.304e+01,1.244e+01,1.290e+01,1.476e+01,1.264e+01,1.141e+01,1.309e+01,1.218e+01,1.226e+01,1.257e+01,1.173e+01,1.454e+01
2.433e-01,7.995e-01,6.222e-01,7.408e-01,1.053e+00,1.968e+00,1.833e+00,1.474e+00,2.405e+00,2.535e+00,2.745e+00,4.474e+00,4.284e+00,3.705e+00,4.843e+00,4.805e+00,4.362e+00,4.459e+00,4.160e+00,4.235e+00,5.842e+00,6.377e+00,6.549e+00,6.025e+00,6.889e+00,6.160e+00,7.914e+00,7.250e+00,8.875e+00,7.507e+00,1.025e+01,9.351e+00,8.585e+00,1.037e+01,1.050e+01,1.089e+01,9.638e+00,1.259e+01,9.785e+00,1.075e+01,1.206e+01,1.063e+01,1.091e+01,1.343e+01,1.201e+01,1.328e+01,1.190e+01,1.334e+01,1.474e+01,1.073e+01,1.419e+01,1.514e+01,1.447e+01,1.410e+01,1.395e+01,1.366e+01,1.450e+01,1.483e+01,1.503e+01,1.536e+01,1.480e+01,1.314e+01,1.311e+01,1.312e+01,1.651e+01,1.619e+01,1.581e+01,1.506e+01,1.458e+01,1.553e+01,1.589e+01,1.371e+01,1.380e+01,1.440e+01,1.449e+01,1.484e+01,1.586e+01,1.476e+01,1.336e+01,1.393e+01,1.437e+01,1.556e+01,1.401e+01,1.457e+01,1.350e+01,1.350e+01,1.412e+01,1.549e+01,1.498e+01,1.445e+01,1.305e+01,1.531e+01
3.344e-02,3.005e-01,5.695e-01,8.664e-01,8.432e-01,1.571e+00,1.988e+00,1.183e+00,1.672e+00,1.944e+00,2.158e+00,3.461e+00,3.154e+00,3.570e+00,4.638e+00,4.364e+00,3.524e+00,3.878e+00,3.229e+00,3.599e+00,5.974e+00,5.563e+00,6.279e+00,5.595e+00,6.195e+00,6.048e+00,6.816e+00,6.778e+00,8.164e+00,6.975e+00,8.816e+00,8.633e+00,8.408e+00,9.261e+00,1.008e+01,1.036e+01,8.817e+00,1.109e+01,9.117e+00,1.010e+01,1.075e+01,1.084e+01,9.467e+00,1.311e+01,1.093e+01,1.277e+01,1.177e+01,1.212e+01,1.235e+01,1.008e+01,1.293e+01,1.337e+01,1.387e+01,1.229e+01,1.273e+01,1.314e+01,1.322e+01,1.395e+01,1.446e+01,1.361e+01,1.300e+01,1.236e+01,1.297e+01,1.261e+01,1.376e+01,1.473e+01,1.300e+01,1.344e+01,1.179e+01,1.447e+01,1.389e+01,1.197e+01,1.327e+01,1.461e+01,1.126e+01,1.259e+01,1.416e+01,1.468e+01,1.351e+01,1.321e+01,1.219e+01,1.360e+01,1.304e+01,1.434e+01,1.177e+01,1.177e+01,1.318e+01,1.277e+01,1.332e+01,1.377e+01,1.187e+01,1.416e+01
1.576e-01,4.840e-01,4.571e-01,7.537e-01,9.351e-01,2.000e+00,1.994e+00,1.808e+00,2.436e+00,2.442e+00,2.831e+00,4.295e+00,4.039e+00,3.439e+00,3.656e+00,4.364e+00,3.883e+00,3.922e+00,3.869e+00,4.461e+00,5.658e+00,4.713e+00,6.029e+00,5.734e+00,6.689e+00,6.356e+00,7.117e+00,6.429e+00,8.724e+00,6.518e+00,9.426e+00,9.053e+00,9.106e+00,1.017e+01,1.015e+01,1.011e+01,8.630e+00,1.073e+01,9.357e+00,9.648e+00,1.160e+01,1.173e+01,1.041e+01,1.412e+01,1.155e+01,1.282e+01,1.146e+01,1.082e+01,1.337e+01,9.676e+00,1.176e+01,1.189e+01,1.399e+01,1.306e+01,1.426e+01,1.311e+01,1.458e+01,1.393e+01,1.352e+01,1.367e+01,1.441e+01,1.249e+01,1.334e+01,1.239e+01,1.385e+01,1.493e+01,1.392e+01,1.510e+01,1.289e+01,1.510e+01,1.428e+01,1.312e+01,1.205e+01,1.435e+01,1.236e+01,1.408e+01,1.535e+01,1.391e+01,1.240e+01,1.333e+01,1.324e+01,1.462e+01,1.344e+01,1.487e+01,1.332e+01,1.259e+01,1.352e+01,1.354e+01,1.409e+01,1.391e+01,1.184e+01,1.358e+01
3.394e-01,8.230e-01,7.063e-02,3.483e-01,5.531e-01,1.582e+00,1.072e+00,1.235e+00,1.748e+00,1.637e+00,1.756e+00,2.876e+00,2.760e+00,2.840e+00,3.584e+00,2.728e+00,3.445e+00,3.209e+00,3.437e+00,3.894e+00,5.035e+00,5.206e+00,5.536e+00,4.768e+00,6.152e+00,4.894e+00,6.200e+00,6.461e+00,7.023e+00,6.302e+00,7.745e+00,7.836e+00,6.733e+00,8.546e+00,8.720e+00,7.871e+00,8.882e+00,9.393e+00,9.719e+00,8.102e+00,1.036e+01,1.059e+01,1.040e+01,1.183e+01,1.176e+01,1.249e+01,1.159e+01,1.141e+01,1.271e+01,9.763e+00,1.158e+01,1.191e+01,1.224e+01,1.279e+01,1.273e+01,1.268e+01,1.402e+01,1.536e+01,1.418e+01,1.358e+01,1.362e+01,1.235e+01,1.338e+01,1.233e+01,1.471e+01,1.582e+01,1.585e+01,1.537e+01,1.308e+01,1.492e+01,1.470e+01,1.277e+01,1.323e+01,1.579e+01,1.302e+01,1.317e+01,1.511e+01,1.407e+01,1.301e+01,1.368e+01,1.263e+01,1.575e+01,1.494e+01,1.568e+01,1.236e+01,1.439e+01,1.352e+01,1.297e+01,1.416e+01,1.310e+01,1.223e+01,1.412e+01
2.288e-01,6.361e-01,4.812e-01,7.080e-01,9.728e-01,1.966e+00,1.826e+00,1.698e+00,2.500e+00,2.248e+00,2.984e+00,4.168e+00,4.131e+00,3.191e+00,3.641e+00,4.620e+00,3.935e+00,3.582e+00,3.740e+00,3.895e+00,5.130e+00,5.267e+00,5.310e+00,4.561e+00,6.280e+00,5.393e+00,6.243e+00,5.451e+00,7.000e+00,5.428e+00,7.759e+00,7.858e+00,7.599e+00,8.161e+00,8.869e+00,9.055e+00,8.916e+00,1.039e+01,9.255e+00,8.462e+00,1.034e+01,1.025e+01,9.020e+00,1.155e+01,9.724e+00,1.156e+01,1.057e+01,1.109e+01,1.243e+01,9.138e+00,1.236e+01,1.239e+01,1.240e+01,1.246e+01,1.312e+01,1.242e+01,1.450e+01,1.418e+01,1.386e+01,1.473e+01,1.294e+01,1.228e+01,1.196e+01,1.227e+01,1.469e+01,1.532e+01,1.320e+01,1.484e+01,1.277e+01,1.437e+01,1.451e+01,1.345e+01,1.296e+01,1.364e+01,1.348e+01,1.452e+01,1.511e+01,1.290e+01,1.129e+01,1.276e+01,1.256e+01,1.411e+01,1.369e+01,1.434e+01,1.238e+01,1.332e+01,1.372e+01,1.384e+01,1.430e+01,1.392e+01,1.172e+01,1.426e+01
3.604e-01,1.086e+00,6.533e-01,1.052e+00,1.308e+00,2.682e+00,2.096e+00,2.171e+00,3.014e+00,2.793e+00,3.043e+00,5.727e+00,5.131e+00,3.907e+00,5.115e+00,5.088e+00,5.136e+00,4.905e+00,4.779e+00,4.916e+00,6.004e+00,5.251e+00,6.597e+00,5.632e+00,7.670e+00,6.504e+00,7.266e+00,7.747e+00,8.959e+00,7.428e+00,1.039e+01,9.851e+00,9.103e+00,1.001e+01,1.098e+01,1.078e+01,1.075e+01,1.113e+01,1.069e+01,1.092e+01,1.299e+01,1.195e+01,1.145e+01,1.293e+01,1.191e+01,1.435e+01,1.354e+01,1.248e+01,1.533e+01,1.189e+01,1.379e+01,1.603e+01,1.550e+01,1.587e+01,1.609e+01,1.537e+01,1.693e+01,1.657e+01,1.677e+01,1.686e+01,1.559e+01,1.428e+01,1.492e+01,1.564e+01,1.760e+01,1.874e+01,1.835e+01,1.764e+01,1.501e+01,1.791e+01,1.712e+01,1.478e+01,1.556e+01,1.650e+01,1.565e+01,1.681e+01,1.709e+01,1.532e+01,1.558e+01,1.510e+01,1.538e+01,1.772e+01,1.574e+01,1.815e+01,1.496e+01,1.590e+01,1.617e+01,1.569e+01,1.717e+01,1.592e+01,1.585e+01,1.591e+01
2.412e-01,8.551e-01,6.985e-01,1.008e+00,1.330e+00,2.141e+00,2.086e+00,1.576e+00,2.314e+00,2.288e+00,2.243e+00,3.808e+00,3.725e+00,3.621e+00,4.180e+00,4.324e+00,3.437e+00,4.105e+00,3.283e+00,4.255e+00,5.425e+00,4.649e+00,6.179e+00,5.149e+00,7.039e+00,5.583e+00,6.429e+00,6.442e+00,8.066e+00,5.601e+00,8.290e+00,8.615e+00,8.505e+00,8.658e+00,1.046e+01,1.055e+01,9.188e+00,1.011e+01,9.244e+00,8.874e+00,1.167e+01,1.124e+01,1.027e+01,1.156e+01,1.073e+01,1.252e+01,1.213e+01,1.096e+01,1.293e+01,1.001e+01,1.220e+01,1.287e+01,1.388e+01,1.275e+01,1.379e+01,1.353e+01,1.410e+01,1.561e+01,1.579e+01,1.489e+01,1.524e+01,1.321e+01,1.351e+01,1.279e+01,1.550e+01,1.650e+01,1.447e+01,1.496e+01,1.384e+01,1.607e+01,1.637e+01,1.439e+01,1.328e+01,1.557e+01,1.363e+01,1.498e+01,1.517e+01,1.392e+01,1.334e+01,1.322e+01,1.428e+01,1.499e+01,1.397e+01,1.555e+01,1.356e+01,1.329e+01,1.423e+01,1.468e+01,1.499e+01,1.394e+01,1.252e+01,1.483e+01
3.056e-01,7.524e-01,3.983e-01,4.818e-01,8.886e-01,1.780e+00,2.101e+00,1.530e+00,2.467e+00,2.457e+00,3.336e+00,4.134e+00,3.917e+00,4.524e+00,3.963e+00,4.754e+00,4.012e+00,3.894e+00,4.342e+00,4.051e+00,6.652e+00,5.725e+00,5.849e+00,5.258e+00,6.572e+00,7.103e+00,8.099e+00,6.308e+00,9.103e+00,6.677e+00,1.031e+01,1.005e+01,9.976e+00,1.023e+01,1.085e+01,1.032e+01,1.108e+01,1.168e+01,1.198e+01,1.044e+01,1.232e+01,1.240e+01,1.232e+01,1.460e+01,1.190e+01,1.387e+01,1.169e+01,1.304e+01,1.492e+01,1.114e+01,1.249e+01,1.330e+01,1.499e+01,1.369e+01,1.465e+01,1.434e+01,1.504e+01,1.849e+01,1.687e+01,1.735e+01,1.489e+01,1.383e+01,1.629e+01,1.469e+01,1.846e+01,1.928e+01,1.674e+01,1.799e+01,1.589e+01,1.735e+01,1.716e+01,1.686e+01,1.658e+01,1.686e+01,1.566e+01,1.580e+01,1.682e+01,1.591e+01,1.531e+01,1.430e+01,1.584e+01,1.756e+01,1.509e+01,1.811e+01,1.436e+01,1.515e+01,1.663e+01,1.639e+01,1.633e+01,1.421e+01,1.409e+01,1.578e+01
1.075e-01,5.462e-01,5.859e-01,1.181e+00,1.113e+00,2.621e+00,2.499e+00,1.973e+00,2.595e+00,3.075e+00,3.082e+00,5.285e+00,4.152e+00,4.542e+00,4.983e+00,4.473e+00,3.687e+00,4.125e+00,3.730e+00,4.023e+00,5.289e+00,4.780e+00,5.784e+00,5.641e+00,6.805e+00,5.693e+00,6.533e+00,5.917e+00,7.630e+00,6.714e+00,8.709e+00,8.872e+00,8.298e+00,8.857e+00,9.351e+00,9.756e+00,8.319e+00,1.020e+01,9.615e+00,8.573e+00,1.118e+01,1.105e+01,9.027e+00,1.225e+01,1.173e+01,1.314e+01,1.074e+01,1.053e+01,1.284e+01,8.981e+00,1.169e+01,1.223e+01,1.273e+01,1.296e+01,1.221e+01,1.202e+01,1.353e+01,1.542e+01,1.544e+01,1.739e+01,1.391e+01,1.415e+01,1.460e+01,1.346e+01,1.605e+01,1.824e+01,1.553e+01,1.601e+01,1.353e+01,1.475e+01,1.493e+01,1.330e+01,1.440e+01,1.526e+01,1.433e+01,1.348e+01,1.511e+01,1.449e+01,1.485e+01,1.452e+01,1.408e+01,1.667e+01,1.543e+01,1.676e+01,1.315e+01,1.300e+01,1.533e+01,1.598e+01,1.553e+01,1.398e+01,1.417e+01,1.500e+01
2.141e-01,6.100e-01,2.214e-01,7.723e-01,7.330e-01,2.295e+00,1.411e+00,1.790e+00,2.311e+00,1.993e+00,2.178e+00,4.094e+00,3.154e+00,3.618e+00,4.507e+00,3.309e+00,4.384e+00,3.849e+00,4.061e+00,4.370e+00,5.269e+00,5.093e+00,6.188e+00,5.152e+00,6.635e+00,5.287e+00,6.118e+00,6.787e+00,7.139e+00,6.846e+00,8.500e+00,8.550e+00,7.703e+00,8.504e+00,9.342e+00,8.876e+00,8.770e+00,8.776e+00,1.004e+01,9.047e+00,1.022e+01,1.040e+01,9.679e+00,1.136e+01,1.084e+01,1.185e+01,1.076e+01,1.005e+01,1.144e+01,8.983e+00,1.027e+01,1.202e+01,1.275e+01,1.293e+01,1.314e+01,1.171e+01,1.459e+01,1.505e+01,1.502e+01,1.537e+01,1.462e+01,1.228e+01,1.377e+01,1.325e+01,1.574e+01,1.713e+01,1.565e+01,1.587e+01,1.300e+01,1.557e+01,1.701e+01,1.549e+01,1.385e+01,1.578e+01,1.402e+01,1.475e+01,1.523e+01,1.538e+01,1.513e+01,1.442e+01,1.448e+01,1.683e+01,1.407e+01,1.722e+01,1.333e+01,1.408e+01,1.395e+01,1.371e+01,1.447e+01,1.305e+01,1.435e+01,1.596e+01
1.079e-01,2.960e-01,2.533e-01,4.687e-01,4.932e-01,8.679e-01,1.023e+00,9.310e-01,1.132e+00,1.078e+00,1.667e+00,2.628e+00,1.982e+00,2.328e+00,3.399e+00,2.473e+00,2.684e+00,3.089e+00,2.912e+00,3.789e+00,4.404e+00,4.503e+00,4.976e+00,4.332e+00,5.229e+00,4.873e+00,6.136e+00,5.738e+00,6.523e+00,5.820e+00,7.813e+00,7.585e+00,6.956e+00,8.592e+00,8.748e+00,7.803e+00,8.061e+00,9.577e+00,8.138e+00,7.794e+00,8.451e+00,8.945e+00,8.757e+00,1.108e+01,1.041e+01,1.171e+01,1.023e+01,1.139e+01,1.166e+01,9.182e+00,1.132e+01,1.179e+01,1.155e+01,1.159e+01,1.188e+01,1.163e+01,1.287e+01,1.318e+01,1.450e+01,1.401e+01,1.401e+01,1.320e+01,1.430e+01,1.407e+01,1.540e+01,1.631e+01,1.428e+01,1.502e+01,1.251e+01,1.452e+01,1.547e+01,1.367e+01,1.423e+01,1.644e+01,1.347e+01,1.531e+01,1.603e+01,1.434e+01,1.419e+01,1.397e+01,1.512e+01,1.560e+01,1.485e+01,1.685e+01,1.362e+01,1.502e+01,1.435e+01,1.526e+01,1.577e+01,1.330e+01,1.271e+01,1.464e+01
1.393e-01,4.861e-01,5.050e-01,1.134e+00,9.832e-01,1.805e+00,2.007e+00,1.927e+00,1.737e+00,1.735e+00,1.880e+00,3.665e+00,2.804e+00,2.234e+00,4.128e+00,3.482e+00,3.850e+00,4.060e+00,3.038e+00,3.287e+00,4.629e+00,4.333e+00,4.510e+00,4.565e+00,5.699e+00,4.961e+00,5.745e+00,6.877e+00,7.038e+00,5.438e+00,7.885e+00,7.394e+00,7.031e+00,7.924e+00,8.213e+00,7.787e+00,8.595e+00,7.671e+00,8.817e+00,8.780e+00,8.938e+00,9.942e+00,9.712e+00,1.125e+01,9.716e+00,1.132e+01,1.048e+01,1.094e+01,1.184e+01,8.374e+00,9.070e+00,1.216e+01,1.362e+01,1.142e+01,1.224e+01,1.223e+01,1.356e+01,1.423e+01,1.427e+01,1.399e+01,1.286e+01,1.263e+01,1.427e+01,1.484e+01,1.384e+01,1.657e+01,1.509e+01,1.582e+01,1.356e+01,1.487e+01,1.478e+01,1.399e+01,1.514e+01,1.599e+01,1.339e+01,1.485e+01,1.604e+01,1.469e+01,1.451e+01,1.458e+01,1.487e+01,1.538e+01,1.431e+01,1.686e+01,1.337e+01,1.478e+01,1.344e+01,1.421e+01,1.447e+01,1.336e+01,1.350e+01,1.511e+01
6.954e-02,4.585e-01,8.329e-01,1.487e+00,1.517e+00,2.750e+00,2.729e+00,2.569e+00,2.975e+00,2.959e+00,3.247e+00,5.636e+00,4.097e+00,4.494e+00,5.436e+00,5.257e+00,4.959e+00,4.979e+00,3.912e+00,4.437e+00,6.642e+00,5.553e+00,6.695e+00,5.645e+00,7.756e+00,5.961e+00,6.489e+00,7.907e+00,8.564e+00,7.928e+00,9.648e+00,1.096e+01,9.291e+00,9.593e+00,1.159e+01,1.094e+01,1.007e+01,1.045e+01,1.073e+01,1.166e+01,1.213e+01,1.153e+01,1.109e+01,1.332e+01,1.293e+01,1.424e+01,1.266e+01,1.291e+01,1.528e+01,1.097e+01,1.336e+01,1.491e+01,1.482e+01,1.432e+01,1.425e+01,1.602e+01,1.660e+01,1.744e+01,1.839e+01,1.946e+01,1.673e+01,1.562e+01,1.727e+01,1.840e+01,1.947e+01,2.032e+01,1.832e+01,2.157e+01,1.792e+01,1.947e+01,1.996e+01,1.818e+01,1.849e+01,2.006e+01,1.748e+01,1.899e+01,2.001e+01,1.744e+01,1.932e+01,1.780e+01,1.865e+01,1.984e+01,1.824e+01,2.024e+01,1.645e+01,1.748e+01,1.776e+01,1.876e+01,1.846e+01,1.828e+01,1.621e+01,1.868e+01
3.564e-01,9.912e-01,3.168e-01,4.180e-01,1.012e+00,2.419e+00,1.352e+00,1.518e+00,2.779e+00,2.544e+00,2.413e+00,4.284e+00,4.208e+00,4.020e+00,4.252e+00,4.400e+00,4.489e+00,4.098e+00,4.846e+00,4.998e+00,6.085e+00,5.678e+00,6.141e+00,5.625e+00,7.432e+00,6.029e+00,7.028e+00,7.653e+00,7.907e+00,6.108e+00,8.267e+00,8.595e+00,8.039e+00,9.010e+00,9.822e+00,1.011e+01,9.202e+00,1.120e+01,9.495e+00,1.020e+01,1.160e+01,1.140e+01,1.013e+01,1.311e+01,1.182e+01,1.291e+01,1.336e+01,1.296e+01,1.446e+01,1.200e+01,1.377e+01,1.492e+01,1.567e+01,1.486e+01,1.416e+01,1.534e+01,1.465e+01,1.635e+01,1.864e+01,1.665e+01,1.640e+01,1.370e+01,1.750e+01,1.521e+01,1.671e+01,1.999e+01,1.859e+01,2.032e+01,1.669e+01,1.795e+01,2.025e+01,1.851e+01,1.713e+01,1.899e+01,1.669e+01,1.955e+01,1.899e+01,1.773e+01,1.866e+01,1.643e+01,1.645e+01,1.954e+01,1.815e+01,1.979e+01,1.777e+01,1.784e+01,1.781e+01,1.864e+01,1.706e+01,1.798e+01,1.657e+01,1.895e+01
4.860e-02,3.541e-01,7.673e-01,1.081e+00,1.368e+00,2.191e+00,1.972e+00,1.885e+00,2.609e+00,2.225e+00,2.752e+00,4.457e+00,3.244e+00,3.493e+00,4.165e+00,4.540e+00,4.040e+00,4.072e+00,3.995e+00,4.554e+00,5.422e+00,5.441e+00,5.728e+00,5.417e+00,7.104e+00,6.486e+00,6.972e+00,7.470e+00,8.367e+00,6.821e+00,8.998e+00,8.849e+00,9.023e+00,8.518e+00,9.425e+00,9.973e+00,8.739e+00,1.126e+01,1.031e+01,1.018e+01,1.102e+01,1.175e+01,1.000e+01,1.367e+01,1.188e+01,1.328e+01,1.165e+01,1.119e+01,1.330e+01,9.997e+00,1.197e+01,1.340e+01,1.395e+01,1.339e+01,1.454e+01,1.437e+01,1.463e+01,1.462e+01,1.660e+01,1.695e+01,1.592e+01,1.334e+01,1.539e+01,1.473e+01,1.705e+01,1.956e+01,1.628e+01,2.015e+01,1.611e+01,1.770e+01,1.956e+01,1.646e+01,1.679e+01,2.061e+01,1.777e+01,1.810e+01,1.944e+01,1.867e+01,1.811e+01,1.795e+01,1.787e+01,1.762e+01,1.769e+01,1.883e+01,1.552e+01,1.627e+01,1.779e+01,1.809e+01,1.711e+01,1.639e+01,1.621e+01,1.873e+01
1.599e-01,6.149e-01,7.766e-01,1.492e+00,1.378e+00,2.464e+00,3.174e+00,2.413e+00,2.636e+00,2.851e+00,3.377e+00,5.165e+00,4.241e+00,4.011e+00,4.768e+00,4.936e+00,3.977e+00,4.739e+00,3.441e+00,4.621e+00,6.263e+00,4.296e+00,6.231e+00,5.065e+00,7.355e+00,5.549e+00,6.416e+00,6.425e+00,7.984e+00,6.288e+00,8.391e+00,9.528e+00,8.737e+00,8.825e+00,1.071e+01,1.062e+01,8.584e+00,9.370e+00,9.231e+00,8.664e+00,1.085e+01,1.057e+01,9.401e+00,1.077e+01,1.105e+01,1.235e+01,1.107e+01,1.071e+01,1.267e+01,9.703e+00,1.147e+01,1.230e+01,1.373e+01,1.296e+01,1.344e+01,1.368e+01,1.414e+01,1.367e+01,1.424e+01,1.467e+01,1.440e+01,1.164e+01,1.300e+01,1.419e+01,1.420e+01,1.737e+01,1.618e+01,1.812e+01,1.549e+01,1.710e+01,1.743e+01,1.569e+01,1.441e+01,1.553e+01,1.494e+01,1.710e+01,1.786e+01,1.389e+01,1.480e+01,1.468e+01,1.452e+01,1.683e+01,1.497e+01,1.712e+01,1.450e+01,1.535e+01,1.613e+01,1.548e+01,1.612e+01,1.581e+01,1.347e+01,1.645e+01
3.191e-01,9.714e-01,6.626e-01,7.385e-01,1.357e+00,1.810e+00,2.346e+00,1.587e+00,2.287e+00,2.697e+00,2.490e+00,3.493e+00,2.956e+00,3.331e+00,3.242e+00,3.921e+00,2.953e+00,3.106e+00,2.989e+00,3.157e+00,5.480e+00,4.299e+00,4.625e+00,5.032e+00,6.229e+00,4.847e+00,6.304e+00,5.236e+00,7.239e+00,5.164e+00,6.586e+00,7.836e+00,7.388e+00,7.211e+00,8.741e+00,8.182e+00,9.143e+00,1.021e+01,9.172e+00,8.386e+00,1.078e+01,9.894e+00,9.019e+00,1.131e+01,1.032e+01,1.172e+01,1.134e+01,1.214e+01,1.230e+01,1.022e+01,1.404e+01,1.410e+01,1.510e+01,1.295e+01,1.202e+01,1.415e+01,1.347e+01,1.639e+01,1.619e+01,1.524e+01,1.469e+01,1.386e+01,1.504e+01,1.405e+01,1.559e+01,1.831e+01,1.566e+01,1.942e+01,1.699e+01,1.740e+01,1.873e+01,1.651e+01,1.557e+01,1.758e+01,1.711e+01,1.812e+01,1.667e+01,1.566e+01,1.825e+01,1.552e+01,1.577e+01,1.782e+01,1.595e+01,1.842e+01,1.440e+01,1.531e+01,1.682e+01,1.709e+01,1.646e+01,1.617e+01,1.445e+01,1.755e+01
9.890e-02,3.097e-01,2.588e-01,5.194e-01,7.456e-01,1.522e+00,1.521e+00,1.473e+00,1.714e+00,2.003e+00,1.979e+00,3.350e+00,3.259e+00,3.237e+00,3.133e+00,3.636e+00,3.164e+00,4.035e+00,3.197e+00,3.311e+00,5.216e+00,4.565e+00,4.941e+00,5.232e+00,6.891e+00,5.232e+00,6.426e+00,5.699e+00,7.798e+00,5.255e+00,7.970e+00,7.842e+00,8.119e+00,8.402e+00,9.318e+00,8.842e+00,8.440e+00,1.009e+01,8.335e+00,8.857e+00,1.141e+01,1.041e+01,9.508e+00,1.243e+01,1.156e+01,1.219e+01,1.098e+01,1.218e+01,1.276e+01,1.061e+01,1.310e+01,1.202e+01,1.429e+01,1.284e+01,1.499e+01,1.510e+01,1.531e+01,1.547e+01,1.697e+01,1.651e+01,1.683e+01,1.476e+01,1.555e+01,1.374e+01,1.641e+01,1.797e+01,1.565e+01,1.943e+01,1.677e+01,1.856e+01,2.024e+01,1.755e+01,1.695e+01,1.920e+01,1.612e+01,1.887e+01,1.793e+01,1.672e+01,1.828e+01,1.658e+01,1.622e+01,1.848e+01,1.807e+01,1.883e+01,1.501e+01,1.580e+01,1.695e+01,1.756e+01,1.783e+01,1.674e+01,1.558e+01,1.758e+01
1.108e-01,6.094e-01,8.735e-01,1.155e+00,1.221e+00,1.694e+00,2.477e+00,1.456e+00,1.994e+00,2.636e+00,2.742e+00,4.093e+00,3.984e+00,2.998e+00,3.871e+00,4.643e+00,3.217e+00,4.468e+00,2.845e+00,3.777e+00,5.832e+00,4.983e+00,5.679e+00,5.853e+00,7.191e+00,7.251e+00,7.147e+00,6.801e+00,8.781e+00,6.422e+00,9.352e+00,9.263e+00,9.079e+00,1.004e+01,9.654e+00,9.849e+00,8.966e+00,1.004e+01,9.654e+00,9.760e+00,1.162e+01,1.043e+01,1.066e+01,1.124e+01,1.145e+01,1.380e+01,1.211e+01,1.191e+01,1.392e+01,1.010e+01,1.342e+01,1.326e+01,1.389e+01,1.148e+01,1.328e+01,1.428e+01,1.457e+01,1.430e+01,1.385e+01,1.567e+01,1.483e+01,1.356e+01,1.600e+01,1.488e+01,1.392e+01,1.871e+01,1.688e+01,1.999e+01,1.784e+01,2.106e+01,1.893e+01,1.690e+01,1.667e+01,1.916e+01,1.616e+01,1.954e+01,1.938e+01,1.893e+01,1.886e+01,1.670e+01,1.768e+01,1.878e+01,1.848e+01,1.855e+01,1.690e+01,1.624e+01,1.866e+01,1.892e+01,1.840e+01,1.792e+01,1.549e+01,1.709e+01
1.738e-01,6.429e-01,6.143e-01,1.123e+00,1.333e+00,2.329e+00,1.962e+00,1.950e+00,2.409e+00,2.172e+00,2.351e+00,4.222e+00,3.416e+00,3.330e+00,4.282e+00,3.824e+00,3.599e+00,4.249e+00,3.240e+00,4.064e+00,4.562e+00,4.955e+00,5.329e+00,4.496e+00,7.059e+00,4.903e+00,6.374e+00,6.709e+00,7.372e+00,5.692e+00,8.215e+00,7.616e+00,8.543e+00,8.208e+00,9.191e+00,9.826e+00,8.833e+00,9.567e+00,9.817e+00,8.864e+00,1.097e+01,1.110e+01,9.546e+00,1.201e+01,1.111e+01,1.277e+01,1.182e+01,1.117e+01,1.324e+01,1.062e+01,1.155e+01,1.388e+01,1.567e+01,1.367e+01,1.432e+01,1.430e+01,1.555e+01,1.689e+01,1.792e+01,1.747e+01,1.538e+01,1.418e+01,1.672e+01,1.518e+01,1.717e+01,1.903e+01,1.759e+01,1.959e+01,1.756e+01,1.858e+01,1.953e+01,1.914e+01,1.630e+01,1.963e+01,1.717e+01,2.032e+01,1.944e+01,1.711e+01,1.832e+01,1.834e+01,1.773e+01,1.949e+01,1.806e+01,2.020e+01,1.629e+01,1.727e+01,1.765e+01,1.815e+01,1.790e+01,1.714e+01,1.701e+01,1.849e+01
2.968e-01,9.826e-01,8.356e-01,1.204e+00,1.330e+00,2.103e+00,2.690e+00,1.900e+00,2.396e+00,2.623e+00,2.707e+00,4.075e+00,3.647e+00,3.314e+00,3.887e+00,4.221e+00,4.021e+00,4.527e+00,3.021e+00,3.096e+00,5.998e+00,4.935e+00,5.763e+00,5.316e+00,6.754e+00,6.283e+00,7.171e+00,7.060e+00,9.839e+00,6.873e+00,9.645e+00,1.014e+01,8.296e+00,1.030e+01,9.742e+00,9.982e+00,1.001e+01,1.102e+01,1.003e+01,8.903e+00,1.044e+01,1.031e+01,1.070e+01,1.167e+01,1.164e+01,1.366e+01,1.214e+01,1.447e+01,1.460e+01,1.027e+01,1.342e+01,1.504e+01,1.643e+01,1.426e+01,1.523e+01,1.603e+01,1.650e+01,1.672e+01,1.631e+01,1.720e+01,1.753e+01,1.493e+01,1.704e+01,1.734e+01,1.639e+01,2.041e+01,1.765e+01,2.086e+01,1.864e+01,2.248e+01,2.117e+01,1.912e+01,1.909e+01,2.176e+01,1.765e+01,2.234e+01,2.101e+01,1.971e+01,2.022e+01,2.008e+01,1.857e+01,1.977e+01,2.019e+01,2.141e+01,1.823e+01,1.771e+01,1.977e+01,2.159e+01,2.015e+01,1.966e+01,1.764e+01,2.080e+01
2.985e-01,9.445e-01,6.659e-01,9.830e-01,1.111e+00,1.962e+00,1.995e+00,1.657e+00,2.210e+00,2.283e+00,2.523e+00,4.608e+00,3.742e+00,2.872e+00,4.045e+00,3.918e+00,3.732e+00,3.715e+00,3.503e+00,3.338e+00,4.924e+00,3.700e+00,4.716e+00,4.176e+00,5.521e+00,4.421e+00,5.910e+00,5.587e+00,7.321e+00,5.822e+00,7.556e+00,7.893e+00,6.651e+00,7.281e+00,8.614e+00,8.008e+00,8.755e+00,8.301e+00,9.311e+00,8.514e+00,1.059e+01,8.657e+00,8.975e+00,1.001e+01,8.866e+00,1.020e+01,9.907e+00,1.025e+01,1.154e+01,8.770e+00,1.059e+01,1.261e+01,1.366e+01,1.256e+01,1.261e+01,1.305e+01,1.357e+01,1.514e+01,1.444e+01,1.472e+01,1.364e+01,1.220e+01,1.478e+01,1.271e+01,1.428e+01,1.698e+01,1.567e+01,1.884e+01,1.648e+01,1.842e+01,1.736e+01,1.760e+01,1.671e+01,1.919e+01,1.623e+01,2.000e+01,1.833e+01,1.678e+01,1.885e+01,1.739e+01,1.645e+01,1.796e+01,1.626e+01,1.907e+01,1.455e+01,1.634e+01,1.796e+01,1.785e+01,1.738e+01,1.616e+01,1.750e+01,1.712e+01
7.358e-02,3.697e-01,4.183e-01,4.749e-01,7.558e-01,1.407e+00,8.698e-01,7.625e-01,1.542e+00,1.318e+00,1.152e+00,1.935e+00,2.269e+00,2.134e+00,2.894e+00,2.847e+00,2.773e+00,2.862e+00,2.250e+00,2.529e+00,3.862e+00,4.964e+00,4.474e+00,4.089e+00,5.050e+00,4.489e+00,5.604e+00,5.295e+00,6.210e+00,4.694e+00,6.753e+00,6.062e+00,6.449e+00,7.801e+00,7.818e+00,7.750e+00,7.502e+00,7.472e+00,6.953e+00,8.591e+00,8.885e+00,8.430e+00,9.274e+00,1.083e+01,9.839e+00,1.058e+01,9.705e+00,1.046e+01,1.109e+01,7.634e+00,9.786e+00,1.141e+01,1.242e+01,1.125e+01,1.109e+01,1.115e+01,1.334e+01,1.457e+01,1.437e+01,1.453e+01,1.388e+01,1.265e+01,1.462e+01,1.388e+01,1.476e+01,1.714e+01,1.607e+01,1.812e+01,1.628e+01,1.803e+01,1.755e+01,1.793e+01,1.583e+01,1.901e+01,1.654e+01,1.926e+01,1.859e+01,1.771e+01,1.758e+01,1.754e+01,1.664e+01,2.046e+01,1.665e+01,1.917e+01,1.748e+01,1.708e+01,1.671e+01,1.870e+01,1.795e+01,1.649e+01,1.532e+01,1.721e+01
2.791e-01,7.102e-01,3.493e-01,7.468e-01,7.784e-01,1.806e+00,1.568e+00,1.739e+00,2.014e+00,1.603e+00,2.067e+00,3.745e+00,3.620e+00,3.055e+00,4.158e+00,3.797e+00,4.305e+00,4.243e+00,3.780e+00,3.904e+00,5.596e+00,6.022e+00,5.668e+00,5.004e+00,6.301e+00,5.093e+00,6.939e+00,6.313e+00,7.087e+00,5.993e+00,9.221e+00,8.589e+00,6.777e+00,8.178e+00,9.764e+00,9.052e+00,1.022e+01,1.182e+01,9.558e+00,9.176e+00,1.216e+01,1.100e+01,1.056e+01,1.306e+01,1.184e+01,1.361e+01,1.173e+01,1.313e+01,1.373e+01,1.008e+01,1.334e+01,1.395e+01,1.366e+01,1.330e+01,1.460e+01,1.303e+01,1.440e+01,1.639e+01,1.664e+01,1.647e+01,1.519e+01,1.453e+01,1.461e+01,1.419e+01,1.722e+01,1.890e+01,1.671e+01,1.872e+01,1.723e+01,1.855e+01,1.912e+01,1.927e+01,1.823e+01,2.070e+01,1.863e+01,2.168e+01,2.253e+01,1.960e+01,1.927e+01,1.919e+01,1.746e+01,2.096e+01,1.925e+01,2.121e+01,1.801e+01,1.791e+01,1.925e+01,1.953e+01,1.998e+01,1.915e+01,1.862e+01,2.085e+01
1.187e-02,3.707e-01,8.002e-01,1.253e+00,1.071e+00,1.609e+00,1.953e+00,1.424e+00,1.668e+00,2.052e+00,2.396e+00,4.571e+00,4.004e+00,2.800e+00,4.540e+00,4.585e+00,3.433e+00,4.686e+00,3.084e+00,3.814e+00,5.613e+00,4.749e+00,5.877e+00,5.442e+00,7.377e+00,6.313e+00,6.526e+00,6.125e+00,7.829e+00,6.504e+00,8.028e+00,8.377e+00,8.253e+00,8.392e+00,8.391e+00,9.017e+00,8.604e+00,9.422e+00,9.930e+00,9.338e+00,1.179e+01,1.061e+01,9.844e+00,1.144e+01,1.127e+01,1.294e+01,1.082e+01,1.251e+01,1.277e+01,9.755e+00,1.201e+01,1.468e+01,1.633e+01,1.368e+01,1.394e+01,1.429e+01,1.620e+01,1.629e+01,1.664e+01,1.735e+01,1.595e+01,1.458e+01,1.556e+01,1.501e+01,1.635e+01,2.040e+01,1.839e+01,2.014e+01,1.775e+01,1.997e+01,2.007e+01,1.894e+01,1.865e+01,2.132e+01,1.951e+01,2.234e+01,2.160e+01,2.090e+01,2.083e+01,1.906e+01,1.747e+01,2.171e+01,2.053e+01,2.249e+01,2.037e+01,1.803e+01,2.072e+01,2.111e+01,2.127e+01,1.949e+01,2.021e+01,1.988e+01
1.917e-01,7.035e-01,5.253e-01,5.985e-01,7.974e-01,1.478e+00,1.558e+00,7.760e-01,1.634e+00,1.967e+00,1.888e+00,2.983e+00,2.670e+00,2.660e+00,3.309e+00,3.084e+00,2.745e+00,3.522e+00,3.279e+00,3.564e+00,5.037e+00,4.888e+00,5.507e+00,5.278e+00,6.134e+00,5.444e+00,6.580e+00,6.262e+00,8.729e+00,6.234e+00,7.403e+00,7.092e+00,7.473e+00,8.365e+00,7.985e+00,8.983e+00,7.508e+00,1.019e+01,8.406e+00,8.365e+00,1.002e+01,9.251e+00,8.671e+00,1.193e+01,1.028e+01,1.146e+01,1.162e+01,1.176e+01,1.223e+01,1.038e+01,1.321e+01,1.379e+01,1.466e+01,1.342e+01,1.273e+01,1.367e+01,1.283e+01,1.604e+01,1.619e+01,1.475e+01,1.521e+01,1.510e+01,1.634e+01,1.452e+01,1.638e+01,1.849e+01,1.730e+01,1.890e+01,1.565e+01,1.865e+01,1.861e+01,1.652e+01,1.684e+01,2.063e+01,1.707e+01,2.128e+01,2.111e+01,1.993e+01,2.008e+01,1.875e+01,1.771e+01,1.999e+01,1.882e+01,2.154e+01,1.832e+01,1.739e+01,2.027e+01,2.085e+01,1.872e+01,1.791e+01,1.788e+01,1.915e+01
3.642e-01,9.678e-01,3.904e-01,1.028e+00,9.728e-01,2.557e+00,2.372e+00,2.328e+00,2.770e+00,2.706e+00,3.076e+00,5.059e+00,4.569e+00,3.972e+00,4.799e+00,4.753e+00,4.988e+00,4.293e+00,4.470e+00,4.877e+00,6.261e+00,4.481e+00,6.802e+00,5.657e+00,7.345e+00,6.290e+00,6.707e+00,7.269e+00,7.391e+00,6.540e+00,8.955e+00,9.435e+00,8.161e+00,9.450e+00,1.086e+01,9.978e+00,1.042e+01,9.873e+00,9.228e+00,9.815e+00,1.210e+01,1.267e+01,1.164e+01,1.353e+01,1.274e+01,1.363e+01,1.358e+01,1.203e+01,1.446e+01,1.103e+01,1.356e+01,1.413e+01,1.455e+01,1.489e+01,1.647e+01,1.608e+01,1.670e+01,1.656e+01,1.794e+01,1.873e+01,1.709e+01,1.526e+01,1.685e+01,1.568e+01,1.765e+01,2.019e+01,1.972e+01,2.160e+01,1.883e+01,2.140e+01,2.211e+01,1.910e+01,1.866e+01,2.391e+01,1.865e+01,2.290e+01,2.371e+01,2.373e+01,2.166e+01,2.174e+01,1.943e+01,2.318e+01,2.065e+01,2.449e+01,2.135e+01,2.166e+01,2.240e+01,2.432e+01,2.116e+01,2.186e+01,2.127e+01,2.222e+01
3.516e-01,9.796e-01,3.417e-01,5.502e-01,7.813e-01,1.903e+00,2.087e+00,1.411e+00,2.141e+00,2.796e+00,2.734e+00,4.337e+00,4.460e+00,3.679e+00,4.560e+00,5.049e+00,4.226e+00,4.139e+00,4.448e+00,4.105e+00,6.269e+00,5.356e+00,6.329e+00,6.402e+00,7.554e+00,6.865e+00,7.785e+00,7.496e+00,9.237e+00,6.923e+00,9.670e+00,9.584e+00,8.715e+00,1.085e+01,1.098e+01,1.073e+01,1.106e+01,1.198e+01,1.044e+01,1.065e+01,1.358e+01,1.272e+01,1.159e+01,1.425e+01,1.206e+01,1.425e+01,1.393e+01,1.387e+01,1.391e+01,1.256e+01,1.489e+01,1.550e+01,1.738e+01,1.506e+01,1.624e+01,1.651e+01,1.642e+01,1.865e+01,1.848e+01,1.823e+01,1.693e+01,1.652e+01,1.765e+01,1.598e+01,1.816e+01,2.144e+01,1.969e+01,2.084e+01,1.911e+01,2.106e+01,2.049e+01,1.819e+01,1.847e+01,2.226e+01,1.841e+01,2.136e+01,2.297e+01,2.301e+01,2.180e+01,2.129e+01,1.976e+01,2.306e+01,1.953e+01,2.397e+01,2.008e+01,1.951e+01,2.295e+01,2.286e+01,2.148e+01,2.000e+01,2.185e+01,2.166e+01
3.584e-01,1.050e+00,4.807e-01,7.122e-01,1.102e+00,2.085e+00,2.172e+00,1.581e+00,2.327e+00,2.790e+00,2.630e+00,4.467e+00,3.799e+00,4.355e+00,5.157e+00,4.420e+00,4.280e+00,4.586e+00,4.238e+00,4.275e+00,7.023e+00,5.745e+00,6.855e+00,5.855e+00,7.355e+00,5.667e+00,7.282e+00,7.328e+00,9.179e+00,7.468e+00,8.688e+00,9.771e+00,8.595e+00,1.054e+01,1.055e+01,1.015e+01,9.732e+00,1.095e+01,1.041e+01,1.049e+01,1.194e+01,1.126e+01,1.016e+01,1.300e+01,1.202e+01,1.291e+01,1.230e+01,1.320e+01,1.400e+01,1.091e+01,1.350e+01,1.403e+01,1.523e+01,1.429e+01,1.304e+01,1.434e+01,1.492e+01,1.758e+01,1.679e+01,1.707e+01,1.594e+01,1.499e+01,1.662e+01,1.652e+01,1.627e+01,2.005e+01,1.948e+01,2.099e+01,1.836e+01,2.102e+01,2.013e+01,1.833e+01,1.891e+01,1.999e+01,1.816e+01,2.161e+01,2.251e+01,2.117e+01,2.205e+01,2.093e+01,1.656e+01,2.248e+01,2.081e+01,2.261e+01,1.900e+01,1.901e+01,2.095e+01,2.218e+01,2.077e+01,1.876e+01,2.086e+01,2.178e+01
1.615e-01,4.644e-01,4.641e-01,7.736e-01,1.047e+00,1.590e+00,2.017e+00,1.747e+00,2.004e+00,2.073e+00,2.615e+00,3.893e+00,3.585e+00,3.383e+00,3.469e+00,4.498e+00,3.544e+00,4.095e+00,3.352e+00,3.847e+00,5.041e+00,3.939e+00,4.938e+00,4.464e+00,6.582e+00,5.997e+00,5.602e+00,6.602e+00,7.719e+00,5.233e+00,7.492e+00,7.202e+00,7.445e+00,7.915e+00,8.146e+00,9.303e+00,7.554e+00,9.098e+00,8.177e+00,8.312e+00,1.026e+01,1.004e+01,8.695e+00,1.081e+01,1.041e+01,1.220e+01,1.118e+01,1.119e+01,1.401e+01,1.015e+01,1.203e+01,1.298e+01,1.346e+01,1.275e+01,1.500e+01,1.535e+01,1.417e+01,1.575e+01,1.707e+01,1.719e+01,1.547e+01,1.409e+01,1.716e+01,1.480e+01,1.557e+01,1.953e+01,1.722e+01,1.963e+01,1.698e+01,1.927e+01,2.020e+01,1.799e+01,1.876e+01,2.164e+01,1.785e+01,2.303e+01,2.134e+01,1.920e+01,2.009e+01,2.132e+01,1.983e+01,2.250e+01,2.002e+01,2.219e+01,1.965e+01,1.963e+01,2.080e+01,2.278e+01,2.116e+01,2.025e+01,2.046e+01,2.078e+01
3.420e-01,1.101e+00,7.143e-01,8.693e-01,1.437e+00,2.563e+00,1.833e+00,1.870e+00,3.002e+00,2.782e+00,2.515e+00,4.659e+00,4.147e+00,3.875e+00,3.852e+00,4.278e+00,4.072e+00,3.419e+00,3.580e+00,3.588e+00,5.295e+00,4.107e+00,5.399e+00,4.966e+00,6.078e+00,5.598e+00,5.961e+00,6.715e+00,7.625e+00,6.588e+00,8.168e+00,9.124e+00,7.308e+00,8.705e+00,9.119e+00,9.681e+00,8.749e+00,1.131e+01,9.343e+00,9.641e+00,1.118e+01,9.562e+00,9.232e+00,1.041e+01,1.008e+01,1.190e+01,1.086e+01,1.210e+01,1.363e+01,1.047e+01,1.295e+01,1.383e+01,1.335e+01,1.342e+01,1.401e+01,1.480e+01,1.510e+01,1.560e+01,1.751e+01,1.782e+01,1.680e+01,1.399e+01,1.662e+01,1.577e+01,1.606e+01,1.986e+01,1.766e+01,1.978e+01,1.634e+01,1.913e+01,1.860e+01,1.830e+01,1.734e+01,2.108e+01,1.850e+01,2.014e+01,2.104e+01,2.027e+01,2.064e+01,2.058e+01,1.923e+01,2.130e+01,2.275e+01,2.190e+01,1.998e+01,2.108e+01,2.149e+01,2.273e+01,2.053e+01,2.025e+01,2.229e+01,2.103e+01
9.217e-02,4.116e-01,7.213e-01,9.649e-01,1.248e+00,1.716e+00,2.008e+00,1.755e+00,2.113e+00,2.014e+00,2.324e+00,4.049e+00,3.869e+00,3.069e+00,4.349e+00,4.838e+00,3.858e+00,3.617e+00,2.921e+00,3.091e+00,4.813e+00,4.881e+00,5.028e+00,4.699e+00,5.607e+00,5.437e+00,6.299e+00,5.401e+00,6.115e+00,5.761e+00,8.640e+00,7.660e+00,8.008e+00,7.801e+00,9.518e+00,8.026e+00,9.172e+00,9.203e+00,8.427e+00,9.424e+00,9.931e+00,1.015e+01,9.520e+00,1.139e+01,9.109e+00,1.160e+01,1.072e+01,1.021e+01,1.215e+01,8.282e+00,1.210e+01,1.167e+01,1.268e+01,1.151e+01,1.212e+01,1.274e+01,1.350e+01,1.429e+01,1.388e+01,1.506e+01,1.434e+01,1.262e+01,1.360e+01,1.388e+01,1.515e+01,1.646e+01,1.585e+01,1.787e+01,1.624e+01,1.776e+01,1.780e+01,1.650e+01,1.473e+01,1.706e+01,1.600e+01,1.790e+01,1.780e+01,1.754e+01,1.769e+01,1.770e+01,1.701e+01,1.959e+01,1.799e+01,2.058e+01,1.812e+01,1.841e+01,1.721e+01,2.005e+01,1.900e+01,1.766e+01,1.816e+01,1.835e+01
5.624e-02,1.628e-01,2.619e-01,3.153e-01,4.941e-01,7.070e-01,6.845e-01,1.012e+00,1.107e+00,1.205e+00,1.711e+00,3.770e+00,3.820e+00,1.908e+00,3.766e+00,4.115e+00,3.622e+00,3.675e+00,3.308e+00,3.111e+00,4.586e+00,5.330e+00,4.335e+00,4.638e+00,5.753e+00,6.030e+00,6.285e+00,5.619e+00,6.052e+00,5.682e+00,8.803e+00,6.788e+00,7.948e+00,7.752e+00,7.713e+00,6.926e+00,8.651e+00,8.509e+00,8.506e+00,7.809e+00,9.675e+00,1.146e+01,9.202e+00,1.228e+01,9.295e+00,1.158e+01,1.087e+01,1.126e+01,1.180e+01,9.685e+00,1.167e+01,1.275e+01,1.400e+01,1.118e+01,1.386e+01,1.391e+01,1.375e+01,1.472e+01,1.531e+01,1.580e+01,1.487e+01,1.365e+01,1.636e+01,1.330e+01,1.463e+01,1.680e+01,1.597e+01,1.833e+01,1.614e+01,1.730e+01,1.803e+01,1.726e+01,1.622e+01,2.049e+01,1.615e+01,1.851e+01,1.965e+01,1.914e+01,2.012e+01,1.913e+01,1.861e+01,2.062e+01,1.871e+01,2.226e+01,2.028e+01,1.956e+01,1.906e+01,2.164e+01,1.907e+01,1.958e+01,2.058e+01,2.117e+01
2.610e-01,9.494e-01,8.061e-01,1.284e+00,1.432e+00,2.720e+00,2.973e+00,2.101e+00,2.893e+00,3.312e+00,3.309e+00,5.419e+00,5.109e+00,4.865e+00,5.838e+00,5.836e+00,4.795e+00,5.620e+00,4.656e+00,5.370e+00,7.457e+00,6.068e+00,7.468e+00,6.731e+00,8.192e+00,6.453e+00,8.133e+00,8.491e+00,9.800e+00,7.833e+00,1.086e+01,1.096e+01,9.449e+00,1.047e+01,1.211e+01,1.171e+01,1.001e+01,1.128e+01,1.075e+01,1.018e+01,1.320e+01,1.183e+01,1.040e+01,1.238e+01,1.185e+01,1.351e+01,1.238e+01,1.228e+01,1.371e+01,1.059e+01,1.283e+01,1.339e+01,1.468e+01,1.305e+01,1.404e+01,1.447e+01,1.461e+01,1.607e+01,1.605e+01,1.614e+01,1.628e+01,1.382e+01,1.600e+01,1.580e+01,1.536e+01,1.783e+01,1.616e+01,1.878e+01,1.636e+01,2.101e+01,1.893e+01,1.631e+01,1.744e+01,2.112e+01,1.841e+01,2.139e+01,2.373e+01,2.133e+01,1.998e+01,2.101e+01,1.952e+01,2.227e+01,2.060e+01,2.252e+01,2.167e+01,1.989e+01,2.160e+01,2.307e+01,2.259e+01,2.115e+01,2.191e+01,2.240e+01
2.669e-01,9.816e-01,7.975e-01,1.481e+00,1.533e+00,3.192e+00,2.473e+00,2.406e+00,3.078e+00,2.753e+00,2.603e+00,5.476e+00,4.466e+00,3.675e+00,5.227e+00,4.448e+00,4.759e+00,4.756e+00,3.922e+00,4.240e+00,4.798e+00,5.489e+00,5.937e+00,5.333e+00,7.204e+00,5.106e+00,6.660e+00,7.222e+00,8.609e+00,6.907e+00,9.510e+00,8.853e+00,7.825e+00,8.511e+00,9.513e+00,8.957e+00,8.229e+00,9.125e+00,1.012e+01,9.605e+00,1.077e+01,9.526e+00,9.236e+00,1.083e+01,9.812e+00,1.223e+01,1.158e+01,1.137e+01,1.339e+01,8.934e+00,1.245e+01,1.309e+01,1.257e+01,1.358e+01,1.363e+01,1.305e+01,1.541e+01,1.524e+01,1.463e+01,1.512e+01,1.508e+01,1.274e+01,1.480e+01,1.483e+01,1.597e+01,1.834e+01,1.623e+01,2.023e+01,1.659e+01,2.007e+01,1.819e+01,1.665e+01,1.654e+01,1.794e+01,1.708e+01,1.986e+01,2.017e+01,1.825e+01,1.886e+01,1.922e+01,1.823e+01,2.053e+01,1.933e+01,2.235e+01,2.071e+01,2.018e+01,2.196e+01,2.184e+01,2.077e+01,2.022e+01,2.110e+01,2.152e+01
4.810e-02,3.842e-01,7.414e-01,9.202e-01,1.209e+00,2.165e+00,1.985e+00,1.474e+00,2.552e+00,2.341e+00,2.693e+00,4.336e+00,3.406e+00,3.529e+00,3.709e+00,4.230e+00,3.104e+00,3.034e+00,3.406e+00,4.259e+00,5.389e+00,4.867e+00,5.345e+00,4.664e+00,5.869e+00,5.380e+00,5.791e+00,4.872e+00,6.321e+00,5.663e+00,6.839e+00,7.878e+00,7.430e+00,7.267e+00,8.742e+00,7.620e+00,6.799e+00,9.099e+00,8.033e+00,9.600e+00,9.669e+00,9.522e+00,9.057e+00,1.150e+01,1.023e+01,1.255e+01,1.105e+01,1.124e+01,1.311e+01,9.263e+00,1.288e+01,1.269e+01,1.342e+01,1.246e+01,1.255e+01,1.342e+01,1.416e+01,1.505e+01,1.597e+01,1.597e+01,1.470e+01,1.370e+01,1.462e+01,1.457e+01,1.571e+01,1.794e+01,1.595e+01,1.937e+01,1.547e+01,1.826e+01,1.852e+01,1.733e+01,1.653e+01,2.038e+01,1.848e+01,2.140e+01,1.913e+01,2.046e+01,2.079e+01,2.110e+01,1.791e+01,2.174e+01,1.933e+01,2.289e+01,2.038e+01,2.150e+01,2.232e+01,2.294e+01,2.354e+01,2.153e+01,1.947e+01,2.131e+01
1.697e-01,5.557e-01,5.383e-01,8.845e-01,9.614e-01,1.658e+00,2.409e+00,1.714e+00,1.970e+00,2.566e+00,2.876e+00,4.229e+00,3.533e+00,3.779e+00,4.638e+00,4.545e+00,3.970e+00,4.427e+00,3.520e+00,3.526e+00,5.560e+00,5.485e+00,5.969e+00,5.879e+00,6.868e+00,6.188e+00,7.344e+00,7.086e+00,8.950e+00,7.352e+00,1.006e+01,9.056e+00,8.887e+00,1.024e+01,9.914e+00,1.060e+01,9.145e+00,1.153e+01,9.862e+00,9.372e+00,1.176e+01,1.179e+01,1.002e+01,1.322e+01,1.160e+01,1.256e+01,1.226e+01,1.224e+01,1.375e+01,1.014e+01,1.310e+01,1.360e+01,1.365e+01,1.200e+01,1.442e+01,1.421e+01,1.443e+01,1.680e+01,1.570e+01,1.728e+01,1.501e+01,1.484e+01,1.674e+01,1.614e+01,1.642e+01,1.951e+01,1.743e+01,1.850e+01,1.718e+01,1.897e+01,1.876e+01,1.803e+01,1.847e+01,2.206e+01,1.785e+01,2.031e+01,2.206e+01,2.158e+01,1.973e+01,2.151e+01,1.957e+01,2.095e+01,2.211e+01,2.335e+01,2.237e+01,2.116e+01,2.267e+01,2.550e+01,2.409e+01,2.213e+01,2.326e+01,2.406e+01
3.115e-01,9.823e-01,5.363e-01,6.107e-01,1.009e+00,2.023e+00,1.452e+00,1.334e+00,2.437e+00,2.485e+00,2.300e+00,3.957e+00,3.565e+00,3.098e+00,3.599e+00,3.702e+00,3.738e+00,3.147e+00,3.474e+00,3.659e+00,4.884e+00,4.224e+00,5.168e+00,5.025e+00,5.755e+00,5.106e+00,5.762e+00,5.443e+00,6.378e+00,5.546e+00,6.600e+00,7.145e+00,6.568e+00,7.249e+00,7.976e+00,8.299e+00,7.453e+00,8.765e+00,7.437e+00,7.928e+00,9.407e+00,8.130e+00,8.170e+00,1.052e+01,9.207e+00,9.670e+00,1.037e+01,1.086e+01,1.135e+01,8.944e+00,1.241e+01,1.254e+01,1.330e+01,1.211e+01,1.144e+01,1.250e+01,1.314e+01,1.444e+01,1.390e+01,1.473e+01,1.361e+01,1.323e+01,1.447e+01,1.401e+01,1.441e+01,1.608e+01,1.670e+01,1.838e+01,1.647e+01,1.756e+01,1.731e+01,1.749e+01,1.630e+01,2.013e+01,1.714e+01,2.162e+01,2.047e+01,1.950e+01,2.090e+01,1.861e+01,1.823e+01,2.053e+01,1.893e+01,2.288e+01,2.143e+01,2.075e+01,2.056e+01,2.477e+01,2.176e+01,2.105e+01,2.167e+01,2.342e+01
3.523e-01,1.057e+00,6.694e-01,8.416e-01,1.218e+00,2.158e+00,2.335e+00,1.639e+00,2.654e+00,2.741e+00,2.875e+00,3.935e+00,3.661e+00,3.605e+00,3.405e+00,3.831e+00,3.410e+00,3.680e+00,3.544e+00,4.313e+00,5.817e+00,4.597e+00,5.903e+00,5.355e+00,6.435e+00,5.601e+00,6.852e+00,6.514e+00,8.441e+00,6.826e+00,9.081e+00,9.621e+00,8.455e+00,9.638e+00,1.002e+01,9.825e+00,8.950e+00,1.185e+01,1.037e+01,9.398e+00,1.217e+01,1.038e+01,1.061e+01,1.242e+01,1.146e+01,1.276e+01,1.183e+01,1.190e+01,1.406e+01,1.069e+01,1.331e+01,1.270e+01,1.360e+01,1.262e+01,1.423e+01,1.381e+01,1.471e+01,1.638e+01,1.662e+01,1.680e+01,1.655e+01,1.433e+01,1.698e+01,1.611e+01,1.688e+01,1.954e+01,1.793e+01,1.935e+01,1.754e+01,2.016e+01,1.945e+01,1.816e+01,1.715e+01,2.129e+01,1.732e+01,2.105e+01,2.288e+01,2.109e+01,2.005e+01,2.062e+01,2.001e+01,2.204e+01,2.154e+01,2.449e+01,2.262e+01,2.174e+01,2.372e+01,2.678e+01,2.297e+01,2.069e+01,2.372e+01,2.304e+01
4.310e-02,3.467e-01,5.205e-01,1.113e+00,7.080e-01,2.165e+00,2.119e+00,1.622e+00,1.989e+00,2.233e+00,2.312e+00,4.380e+00,4.169e+00,3.541e+00,5.359e+00,4.626e+00,4.875e+00,5.358e+00,3.919e+00,3.935e+00,6.698e+00,6.385e+00,7.074e+00,5.956e+00,6.986e+00,5.987e+00,6.883e+00,7.176e+00,8.351e+00,7.659e+00,9.708e+00,9.414e+00,8.175e+00,1.063e+01,1.053e+01,1.075e+01,1.009e+01,1.087e+01,1.017e+01,1.063e+01,1.110e+01,1.110e+01,1.094e+01,1.188e+01,1.216e+01,1.452e+01,1.203e+01,1.324e+01,1.428e+01,9.426e+00,1.220e+01,1.415e+01,1.360e+01,1.296e+01,1.428e+01,1.295e+01,1.509e+01,1.603e+01,1.586e+01,1.765e+01,1.518e+01,1.383e+01,1.482e+01,1.442e+01,1.693e+01,1.986e+01,1.839e+01,1.963e+01,1.664e+01,1.961e+01,1.900e+01,1.629e+01,1.744e+01,1.950e+01,1.589e+01,1.799e+01,1.920e+01,1.940e+01,1.811e+01,1.865e+01,1.741e+01,1.963e+01,2.026e+01,2.120e+01,1.985e+01,1.856e+01,2.090e+01,2.200e+01,2.051e+01,2.080e+01,2.100e+01,2.336e+01
1.360e-01,6.255e-01,7.777e-01,1.352e+00,1.210e+00,2.242e+00,2.137e+00,1.688e+00,2.159e+00,1.815e+00,2.248e+00,4.221e+00,3.832e+00,3.135e+00,4.822e+00,4.531e+00,4.103e+00,4.569e+00,3.361e+00,3.759e+00,5.287e+00,5.468e+00,5.732e+00,4.708e+00,6.969e+00,6.245e+00,6.685e+00,6.719e+00,7.483e+00,5.813e+00,8.338e+00,7.709e+00,8.195e+00,7.513e+00,8.511e+00,9.467e+00,8.787e+00,9.033e+00,9.311e+00,8.839e+00,1.023e+01,1.048e+01,9.613e+00,1.194e+01,1.017e+01,1.119e+01,1.083e+01,1.088e+01,1.312e+01,9.183e+00,1.068e+01,1.336e+01,1.444e+01,1.274e+01,1.305e+01,1.362e+01,1.379e+01,1.472e+01,1.600e+01,1.592e+01,1.434e+01,1.263e+01,1.476e+01,1.335e+01,1.429e+01,1.653e+01,1.676e+01,1.773e+01,1.589e+01,1.742e+01,1.700e+01,1.683e+01,1.665e+01,1.891e+01,1.545e+01,1.908e+01,1.951e+01,1.893e+01,1.965e+01,1.934e+01,1.651e+01,1.949e+01,1.772e+01,2.120e+01,1.890e+01,1.849e+01,1.807e+01,2.316e+01,2.004e+01,2.075e+01,2.192e+01,2.174e+01
