6.882e-01,2.597e-01,2.307e-01,9.521e-01,9.057e-01,3.041e-01,1.008e-01,9.520e-02,2.254e-01,8.935e-03,3.987e-01,1.617e-01,8.422e-01,1.200e-01,6.192e-01,4.771e-02,9.843e-01,6.374e-01,5.392e-01,9.797e-01,5.651e-01,9.913e-01,5.209e-01,5.886e-01,3.631e-01,9.946e-01,3.956e-01,1.742e-01,1.964e-01,4.021e-01,3.240e-01,6.514e-01,1.725e-01,6.549e-01,7.730e-01,4.343e-01,8.224e-01,8.898e-01,4.235e-01,9.816e-01,5.597e-01,7.960e-01,5.604e-01,4.315e-01,2.243e-01,9.182e-01,9.346e-02,6.185e-01,2.359e-01,1.564e-01,4.802e-01,4.010e-01,8.400e-01,7.820e-01,2.323e-01,7.276e-01,7.060e-02,6.289e-01,6.446e-02,1.425e-01,8.933e-01,2.154e-02,6.836e-01,4.588e-01,3.491e-01,8.485e-01,1.964e-01,8.134e-01,3.180e-01,1.893e-02,1.365e-02,9.937e-01,7.152e-01,9.923e-01,3.831e-01,7.941e-01,1.869e-01,9.715e-01,7.751e-01,1.805e-01,4.094e-01,2.772e-01,8.239e-01,5.772e-01,2.177e-01,7.093e-01,5.894e-01
5.487e-01,9.682e-01,7.287e-01,1.421e+00,1.405e+00,9.971e-01,8.512e-02,4.102e-01,1.046e+00,5.641e-01,1.148e+00,7.379e-01,1.420e+00,2.297e-01,1.317e+00,6.079e-01,1.209e+00,7.404e-01,4.299e-01,1.619e+00,5.058e-01,1.146e+00,1.144e+00,1.245e+00,1.263e+00,1.615e+00,6.377e-01,3.323e-01,3.556e-01,5.351e-01,7.936e-01,1.169e+00,9.395e-01,1.146e+00,1.477e+00,7.239e-01,8.893e-01,1.662e+00,8.626e-01,9.238e-01,1.382e+00,6.920e-01,6.972e-01,1.123e+00,5.213e-01,1.162e+00,6.132e-01,1.138e+00,8.299e-01,4.321e-01,1.239e+00,1.224e+00,1.448e+00,1.033e+00,1.001e+00,1.010e+00,2.268e-01,1.087e+00,5.973e-01,6.789e-01,7.945e-01,6.747e-01,9.611e-01,9.927e-01,3.075e-01,1.439e+00,5.008e-01,9.526e-01,4.425e-01,4.914e-01,9.275e-02,1.541e+00,8.584e-01,1.147e+00,5.053e-01,7.186e-01,2.628e-01,1.067e+00,6.966e-01,2.461e-01,4.637e-01,6.073e-01,1.058e+00,8.458e-01,8.429e-01,1.147e+00,5.821e-01
6.222e-01,5.022e-01,1.168e+00,1.326e+00,1.727e+00,1.498e+00,2.218e-01,7.677e-01,1.071e+00,9.984e-01,9.397e-01,5.308e-01,1.461e+00,1.139e+00,1.430e+00,8.478e-01,1.724e+00,1.460e+00,1.405e+00,1.195e+00,1.067e+00,1.705e+00,7.560e-01,1.632e+00,1.569e+00,1.819e+00,5.510e-01,7.238e-01,4.241e-01,8.949e-01,6.861e-01,1.814e+00,1.193e+00,9.746e-01,1.004e+00,1.514e+00,1.825e+00,1.501e+00,1.498e+00,1.622e+00,1.460e+00,9.444e-01,6.253e-01,1.037e+00,4.360e-01,1.173e+00,1.228e+00,1.475e+00,6.595e-01,1.070e+00,1.664e+00,1.150e+00,1.167e+00,1.770e+00,5.254e-01,1.335e+00,1.319e-01,8.080e-01,1.107e+00,4.220e-01,1.327e+00,4.261e-01,1.240e+00,1.556e+00,9.416e-01,1.873e+00,1.028e+00,1.629e+00,1.111e+00,4.009e-01,5.254e-01,1.224e+00,1.382e+00,1.671e+00,7.584e-01,1.595e+00,1.181e+00,1.483e+00,9.050e-01,2.698e-01,5.174e-01,1.047e+00,1.500e+00,1.338e+00,9.875e-01,9.223e-01,8.232e-01
5.730e-01,3.509e-01,9.063e-01,1.626e+00,1.522e+00,1.235e+00,3.153e-01,8.200e-01,1.370e+00,1.538e+00,7.988e-01,1.046e+00,1.784e+00,9.551e-01,1.983e+00,1.484e+00,1.461e+00,2.141e+00,2.130e+00,1.453e+00,1.880e+00,1.695e+00,1.076e+00,1.484e+00,2.105e+00,2.021e+00,1.451e+00,1.256e+00,1.289e+00,1.164e+00,1.036e+00,1.833e+00,1.139e+00,1.514e+00,9.577e-01,1.812e+00,2.461e+00,1.926e+00,1.282e+00,1.488e+00,1.381e+00,1.244e+00,7.510e-01,1.023e+00,1.170e+00,1.762e+00,1.709e+00,1.478e+00,1.426e+00,1.322e+00,2.205e+00,1.112e+00,1.170e+00,2.424e+00,8.659e-01,1.173e+00,7.219e-01,1.228e+00,1.148e+00,3.411e-01,1.292e+00,1.086e+00,1.500e+00,1.562e+00,1.605e+00,1.994e+00,1.370e+00,1.599e+00,1.382e+00,7.879e-01,9.477e-01,1.669e+00,1.741e+00,2.274e+00,1.200e+00,2.021e+00,9.994e-01,1.651e+00,1.304e+00,3.685e-01,1.075e+00,1.772e+00,1.261e+00,1.682e+00,8.735e-01,1.638e+00,1.024e+00
5.318e-01,7.240e-01,1.318e+00,1.606e+00,2.834e+00,2.114e+00,8.526e-01,1.897e+00,2.132e+00,1.630e+00,1.529e+00,1.892e+00,1.865e+00,2.121e+00,2.777e+00,1.648e+00,2.565e+00,2.257e+00,1.714e+00,2.254e+00,2.086e+00,2.211e+00,1.218e+00,2.570e+00,2.427e+00,2.770e+00,1.083e+00,1.656e+00,1.505e+00,1.225e+00,1.513e+00,2.082e+00,2.358e+00,1.845e+00,1.807e+00,2.351e+00,2.117e+00,2.279e+00,2.289e+00,2.281e+00,2.583e+00,1.516e+00,1.154e+00,1.962e+00,1.382e+00,2.355e+00,1.696e+00,1.909e+00,2.015e+00,1.662e+00,2.635e+00,1.721e+00,2.095e+00,2.943e+00,9.565e-01,2.182e+00,1.224e+00,1.207e+00,2.021e+00,8.104e-01,1.994e+00,1.758e+00,2.410e+00,2.193e+00,1.966e+00,2.622e+00,1.603e+00,2.106e+00,2.293e+00,1.313e+00,8.131e-01,1.964e+00,1.846e+00,2.258e+00,1.915e+00,2.547e+00,2.048e+00,2.135e+00,1.881e+00,5.346e-01,1.452e+00,1.820e+00,1.590e+00,1.977e+00,1.905e+00,1.628e+00,1.337e+00
4.544e-01,7.852e-01,1.035e+00,1.731e+00,2.195e+00,1.752e+00,1.416e+00,1.502e+00,2.765e+00,1.892e+00,2.333e+00,2.165e+00,2.387e+00,1.362e+00,3.245e+00,2.386e+00,2.544e+00,3.018e+00,2.383e+00,2.317e+00,2.480e+00,2.384e+00,2.295e+00,2.478e+00,3.143e+00,2.764e+00,1.662e+00,1.821e+00,2.061e+00,1.725e+00,2.277e+00,2.108e+00,2.808e+00,2.266e+00,2.373e+00,2.878e+00,2.274e+00,2.882e+00,2.363e+00,2.527e+00,2.639e+00,2.189e+00,1.222e+00,2.397e+00,1.849e+00,2.589e+00,1.904e+00,2.245e+00,2.165e+00,2.410e+00,3.162e+00,2.321e+00,1.874e+00,2.824e+00,1.528e+00,2.298e+00,2.183e+00,1.633e+00,2.143e+00,1.020e+00,1.858e+00,2.662e+00,2.905e+00,2.374e+00,2.574e+00,2.375e+00,1.576e+00,2.327e+00,2.206e+00,2.220e+00,1.260e+00,2.565e+00,2.302e+00,2.813e+00,2.623e+00,2.678e+00,1.604e+00,1.969e+00,2.431e+00,1.304e+00,1.652e+00,2.003e+00,1.382e+00,1.806e+00,2.418e+00,2.496e+00,1.183e+00
4.334e-02,5.928e-01,9.813e-01,7.536e-01,1.912e+00,1.635e+00,1.595e+00,1.757e+00,2.290e+00,1.613e+00,1.841e+00,1.905e+00,1.371e+00,1.831e+00,2.305e+00,1.394e+00,2.561e+00,2.244e+00,1.021e+00,2.132e+00,1.893e+00,1.503e+00,1.258e+00,2.226e+00,2.340e+00,2.370e+00,5.456e-01,2.013e+00,1.653e+00,9.735e-01,1.897e+00,2.298e+00,2.795e+00,2.097e+00,1.879e+00,2.074e+00,2.016e+00,1.694e+00,2.678e+00,1.621e+00,2.857e+00,1.099e+00,8.200e-01,1.856e+00,1.061e+00,1.912e+00,2.165e+00,1.396e+00,2.219e+00,1.522e+00,2.350e+00,2.322e+00,2.046e+00,1.999e+00,1.368e+00,1.609e+00,1.893e+00,1.445e+00,2.656e+00,7.786e-01,1.453e+00,1.800e+00,2.373e+00,1.816e+00,2.047e+00,2.335e+00,1.526e+00,2.146e+00,1.973e+00,2.106e+00,1.561e+00,1.162e+00,1.368e+00,1.369e+00,1.780e+00,1.648e+00,2.413e+00,1.626e+00,1.413e+00,1.352e+00,1.478e+00,1.921e+00,1.583e+00,1.428e+00,1.860e+00,1.563e+00,1.467e+00
5.672e-01,5.503e-01,7.956e-01,1.600e+00,1.760e+00,1.269e+00,1.468e+00,1.399e+00,3.156e+00,1.892e+00,2.468e+00,2.141e+00,2.491e+00,1.777e+00,2.839e+00,2.616e+00,3.463e+00,3.512e+00,2.792e+00,2.802e+00,2.505e+00,2.184e+00,2.332e+00,2.155e+00,2.977e+00,2.960e+00,2.262e+00,2.685e+00,2.701e+00,1.948e+00,2.154e+00,3.134e+00,2.792e+00,3.293e+00,2.984e+00,2.940e+00,3.522e+00,3.026e+00,2.336e+00,2.566e+00,3.348e+00,2.339e+00,1.766e+00,2.628e+00,1.843e+00,2.538e+00,2.251e+00,2.304e+00,2.798e+00,2.078e+00,3.299e+00,2.693e+00,2.105e+00,3.410e+00,1.761e+00,2.647e+00,2.520e+00,2.799e+00,2.244e+00,1.057e+00,2.076e+00,2.833e+00,3.145e+00,2.781e+00,2.435e+00,2.726e+00,1.973e+00,2.529e+00,2.229e+00,2.185e+00,2.458e+00,2.959e+00,2.878e+00,3.256e+00,2.458e+00,2.984e+00,1.924e+00,2.460e+00,2.330e+00,2.333e+00,2.686e+00,3.177e+00,1.900e+00,2.666e+00,1.772e+00,2.713e+00,2.324e+00
3.301e-02,2.804e-01,8.134e-01,6.358e-01,1.431e+00,1.362e+00,1.230e+00,1.350e+00,2.155e+00,1.661e+00,1.676e+00,2.047e+00,1.809e+00,2.477e+00,2.458e+00,2.447e+00,2.302e+00,2.203e+00,2.442e+00,2.199e+00,1.841e+00,2.476e+00,1.317e+00,1.897e+00,2.537e+00,2.672e+00,1.633e+00,1.604e+00,2.193e+00,1.657e+00,1.774e+00,1.890e+00,2.935e+00,2.353e+00,2.409e+00,2.503e+00,2.302e+00,2.310e+00,2.745e+00,2.011e+00,2.032e+00,1.890e+00,1.408e+00,1.956e+00,2.070e+00,1.885e+00,2.472e+00,2.265e+00,2.334e+00,2.017e+00,2.192e+00,2.322e+00,1.689e+00,2.329e+00,1.651e+00,1.746e+00,1.768e+00,1.026e+00,2.376e+00,1.078e+00,1.958e+00,2.460e+00,2.255e+00,2.284e+00,2.070e+00,2.355e+00,1.746e+00,2.682e+00,2.260e+00,2.594e+00,1.362e+00,1.889e+00,1.814e+00,2.005e+00,1.929e+00,2.839e+00,2.520e+00,2.090e+00,1.625e+00,1.458e+00,1.825e+00,1.953e+00,1.425e+00,1.759e+00,2.567e+00,1.572e+00,1.848e+00
1.586e-01,6.054e-01,6.030e-01,1.200e+00,1.175e+00,9.889e-01,9.864e-01,1.070e+00,2.437e+00,2.127e+00,2.527e+00,2.457e+00,2.487e+00,1.822e+00,3.154e+00,3.106e+00,2.486e+00,2.524e+00,2.932e+00,3.241e+00,2.097e+00,2.834e+00,2.195e+00,2.343e+00,3.204e+00,3.536e+00,2.943e+00,2.546e+00,2.752e+00,1.665e+00,2.806e+00,2.644e+00,2.942e+00,3.458e+00,2.889e+00,2.856e+00,3.545e+00,3.696e+00,3.211e+00,1.805e+00,2.718e+00,2.133e+00,1.913e+00,2.086e+00,3.068e+00,2.666e+00,2.947e+00,2.230e+00,3.957e+00,2.180e+00,2.851e+00,2.959e+00,2.413e+00,2.792e+00,2.471e+00,2.091e+00,1.986e+00,2.490e+00,2.994e+00,2.101e+00,1.988e+00,3.568e+00,2.289e+00,3.114e+00,2.739e+00,3.212e+00,2.400e+00,2.400e+00,2.607e+00,2.793e+00,2.793e+00,3.132e+00,2.422e+00,2.588e+00,2.460e+00,3.133e+00,2.846e+00,2.708e+00,1.637e+00,2.340e+00,3.112e+00,2.881e+00,1.571e+00,3.111e+00,2.501e+00,2.306e+00,2.242e+00
2.107e-01,1.043e-01,6.598e-01,9.390e-01,1.248e+00,1.128e+00,1.420e+00,1.348e+00,2.969e+00,1.964e+00,2.918e+00,2.936e+00,2.532e+00,3.015e+00,3.215e+00,3.224e+00,3.731e+00,3.931e+00,4.357e+00,2.838e+00,3.120e+00,3.229e+00,2.848e+00,2.368e+00,3.591e+00,3.390e+00,2.773e+00,2.945e+00,3.068e+00,2.555e+00,2.725e+00,2.909e+00,3.828e+00,2.961e+00,3.571e+00,4.097e+00,4.162e+00,2.985e+00,3.244e+00,2.997e+00,2.754e+00,2.893e+00,2.729e+00,2.952e+00,2.912e+00,2.887e+00,2.985e+00,2.907e+00,3.159e+00,3.554e+00,3.391e+00,2.578e+00,2.035e+00,3.709e+00,2.333e+00,2.584e+00,2.611e+00,2.049e+00,3.271e+00,1.867e+00,3.074e+00,4.041e+00,3.808e+00,3.134e+00,3.180e+00,2.955e+00,2.799e+00,3.273e+00,2.722e+00,2.693e+00,3.419e+00,3.156e+00,3.197e+00,3.297e+00,2.907e+00,3.547e+00,2.956e+00,2.843e+00,3.139e+00,3.136e+00,3.584e+00,3.546e+00,1.517e+00,2.705e+00,2.367e+00,2.908e+00,2.129e+00
3.029e-01,1.583e-01,1.336e-01,5.562e-01,1.032e+00,4.864e-01,1.082e+00,8.276e-01,1.527e+00,7.041e-01,1.741e+00,2.455e+00,2.134e+00,2.069e+00,2.801e+00,1.958e+00,2.665e+00,2.643e+00,1.851e+00,2.137e+00,1.848e+00,2.080e+00,2.219e+00,2.401e+00,1.789e+00,2.827e+00,2.330e+00,2.320e+00,2.047e+00,1.762e+00,2.395e+00,1.369e+00,2.793e+00,2.438e+00,2.428e+00,2.249e+00,1.692e+00,1.962e+00,2.285e+00,2.732e+00,2.227e+00,2.785e+00,1.639e+00,2.507e+00,2.019e+00,2.116e+00,1.418e+00,2.179e+00,1.827e+00,2.381e+00,2.311e+00,2.123e+00,1.862e+00,1.761e+00,1.842e+00,2.168e+00,1.919e+00,1.797e+00,2.023e+00,1.850e+00,1.917e+00,3.198e+00,2.633e+00,1.724e+00,2.743e+00,2.210e+00,1.130e+00,1.937e+00,2.262e+00,1.854e+00,2.036e+00,2.343e+00,1.603e+00,2.136e+00,2.931e+00,2.998e+00,2.358e+00,2.297e+00,2.851e+00,2.483e+00,2.144e+00,2.279e+00,1.130e+00,1.441e+00,2.116e+00,2.085e+00,1.553e+00
2.159e-01,6.266e-01,8.614e-01,1.010e+00,1.578e+00,1.346e+00,9.291e-01,1.222e+00,2.088e+00,1.378e+00,1.886e+00,2.479e+00,2.743e+00,2.273e+00,3.161e+00,2.978e+00,3.660e+00,2.881e+00,2.206e+00,2.958e+00,2.457e+00,2.137e+00,2.992e+00,3.707e+00,2.826e+00,3.921e+00,2.367e+00,2.503e+00,2.281e+00,1.794e+00,2.662e+00,2.919e+00,3.259e+00,3.209e+00,3.326e+00,2.357e+00,2.767e+00,2.446e+00,2.760e+00,2.840e+00,3.336e+00,3.066e+00,2.161e+00,3.297e+00,2.181e+00,2.602e+00,2.186e+00,2.577e+00,2.430e+00,2.404e+00,3.913e+00,3.422e+00,3.086e+00,3.082e+00,2.832e+00,2.220e+00,2.474e+00,2.209e+00,2.421e+00,1.841e+00,2.579e+00,3.481e+00,3.613e+00,2.759e+00,2.650e+00,2.881e+00,2.107e+00,2.408e+00,3.088e+00,2.540e+00,2.413e+00,2.585e+00,2.190e+00,2.512e+00,3.361e+00,2.970e+00,2.921e+00,2.309e+00,2.789e+00,2.520e+00,2.741e+00,2.829e+00,2.433e+00,1.956e+00,2.621e+00,2.187e+00,1.783e+00
6.538e-01,3.313e-01,4.507e-01,1.393e+00,1.513e+00,8.032e-01,1.225e+00,9.447e-01,1.757e+00,1.492e+00,2.000e+00,2.589e+00,2.908e+00,3.027e+00,3.630e+00,3.454e+00,3.702e+00,3.571e+00,3.822e+00,4.480e+00,3.269e+00,3.650e+00,3.306e+00,3.752e+00,3.922e+00,5.174e+00,3.352e+00,3.346e+00,3.341e+00,2.684e+00,3.605e+00,3.077e+00,3.078e+00,4.620e+00,4.473e+00,2.843e+00,4.485e+00,4.134e+00,4.019e+00,3.524e+00,3.378e+00,3.811e+00,2.973e+00,2.954e+00,3.498e+00,4.047e+00,3.440e+00,3.208e+00,3.559e+00,2.636e+00,3.114e+00,3.623e+00,3.302e+00,3.568e+00,2.883e+00,2.688e+00,2.350e+00,2.417e+00,3.446e+00,2.677e+00,3.338e+00,3.830e+00,3.426e+00,3.465e+00,3.441e+00,4.336e+00,2.486e+00,4.293e+00,3.074e+00,2.986e+00,3.075e+00,3.523e+00,2.962e+00,3.669e+00,3.552e+00,3.529e+00,3.913e+00,4.194e+00,3.748e+00,3.079e+00,3.950e+00,3.762e+00,2.805e+00,3.420e+00,3.292e+00,3.145e+00,2.668e+00
5.663e-01,8.097e-01,7.863e-01,1.803e+00,1.816e+00,1.326e+00,1.203e+00,1.114e+00,2.748e+00,1.996e+00,3.295e+00,3.461e+00,3.775e+00,2.776e+00,5.085e+00,4.654e+00,4.624e+00,4.961e+00,4.690e+00,4.341e+00,3.307e+00,4.717e+00,4.157e+00,4.675e+00,4.850e+00,5.780e+00,4.724e+00,3.799e+00,3.709e+00,2.908e+00,5.043e+00,3.909e+00,4.627e+00,4.369e+00,5.211e+00,4.343e+00,4.260e+00,5.589e+00,4.278e+00,4.493e+00,3.877e+00,4.710e+00,3.876e+00,3.722e+00,4.155e+00,4.155e+00,3.338e+00,3.809e+00,4.319e+00,4.434e+00,4.849e+00,4.037e+00,3.500e+00,4.293e+00,3.553e+00,4.245e+00,2.778e+00,3.715e+00,4.469e+00,4.067e+00,3.632e+00,5.637e+00,3.949e+00,4.069e+00,4.675e+00,4.437e+00,3.186e+00,3.748e+00,3.541e+00,3.679e+00,3.565e+00,4.928e+00,3.886e+00,4.647e+00,4.400e+00,5.234e+00,4.375e+00,4.666e+00,4.222e+00,4.054e+00,4.021e+00,4.186e+00,2.650e+00,3.798e+00,4.467e+00,4.607e+00,2.861e+00
4.933e-01,3.936e-01,8.512e-01,1.238e+00,2.011e+00,1.397e+00,8.372e-01,1.485e+00,2.316e+00,1.714e+00,2.554e+00,3.190e+00,3.137e+00,3.821e+00,3.872e+00,4.641e+00,4.908e+00,4.076e+00,5.227e+00,4.848e+00,3.384e+00,4.555e+00,3.943e+00,4.447e+00,4.314e+00,5.692e+00,4.164e+00,3.904e+00,3.409e+00,3.518e+00,3.772e+00,3.493e+00,4.651e+00,4.719e+00,4.973e+00,4.399e+00,4.680e+00,4.921e+00,4.805e+00,4.252e+00,3.595e+00,3.866e+00,3.962e+00,3.972e+00,4.330e+00,4.241e+00,3.173e+00,3.966e+00,4.752e+00,3.823e+00,4.068e+00,3.992e+00,4.231e+00,4.395e+00,4.000e+00,3.760e+00,2.707e+00,3.303e+00,4.005e+00,3.292e+00,4.805e+00,5.063e+00,4.692e+00,4.265e+00,3.722e+00,4.813e+00,4.012e+00,4.138e+00,4.443e+00,3.223e+00,3.783e+00,4.186e+00,4.270e+00,4.490e+00,4.134e+00,5.549e+00,4.952e+00,4.566e+00,3.754e+00,4.214e+00,4.775e+00,4.438e+00,3.192e+00,4.566e+00,3.872e+00,3.633e+00,3.511e+00
1.867e-01,2.611e-01,3.274e-01,4.785e-01,1.070e+00,6.620e-01,1.341e+00,1.143e+00,2.223e+00,1.335e+00,2.659e+00,3.092e+00,2.503e+00,3.401e+00,3.494e+00,3.642e+00,5.208e+00,4.857e+00,4.146e+00,4.856e+00,3.005e+00,4.434e+00,3.055e+00,4.241e+00,3.728e+00,5.105e+00,4.336e+00,4.735e+00,3.626e+00,2.901e+00,4.640e+00,4.302e+00,4.897e+00,4.965e+00,4.920e+00,3.889e+00,4.718e+00,4.362e+00,4.814e+00,3.886e+00,3.877e+00,4.055e+00,4.464e+00,3.535e+00,4.397e+00,3.430e+00,4.039e+00,3.167e+00,4.622e+00,4.069e+00,3.747e+00,4.280e+00,4.147e+00,4.145e+00,3.420e+00,4.166e+00,3.317e+00,4.321e+00,5.015e+00,3.788e+00,4.143e+00,5.125e+00,3.508e+00,3.966e+00,4.339e+00,4.630e+00,3.301e+00,4.014e+00,3.238e+00,3.510e+00,4.838e+00,3.600e+00,3.706e+00,3.977e+00,4.175e+00,5.424e+00,5.729e+00,4.784e+00,3.678e+00,5.336e+00,4.316e+00,4.613e+00,2.705e+00,4.404e+00,3.728e+00,4.441e+00,3.976e+00
5.861e-01,3.085e-01,8.840e-01,1.153e+00,1.510e+00,1.236e+00,1.330e+00,1.124e+00,2.640e+00,1.510e+00,2.386e+00,2.088e+00,2.932e+00,3.068e+00,3.584e+00,4.276e+00,5.280e+00,5.561e+00,5.107e+00,3.654e+00,3.010e+00,4.220e+00,3.732e+00,4.994e+00,4.063e+00,5.079e+00,4.664e+00,4.116e+00,4.136e+00,3.686e+00,4.334e+00,5.655e+00,3.995e+00,4.566e+00,5.668e+00,3.805e+00,5.258e+00,4.875e+00,4.561e+00,5.538e+00,4.786e+00,4.920e+00,4.004e+00,3.823e+00,2.803e+00,3.888e+00,3.086e+00,3.579e+00,3.928e+00,4.172e+00,4.924e+00,4.773e+00,3.555e+00,5.421e+00,2.895e+00,5.059e+00,3.295e+00,4.697e+00,4.196e+00,3.889e+00,3.923e+00,5.184e+00,4.137e+00,5.168e+00,4.066e+00,4.623e+00,3.318e+00,4.729e+00,3.481e+00,3.129e+00,3.760e+00,4.097e+00,4.961e+00,5.602e+00,4.073e+00,5.223e+00,4.854e+00,5.134e+00,4.724e+00,4.299e+00,4.239e+00,4.772e+00,4.200e+00,4.280e+00,4.722e+00,3.978e+00,4.124e+00
5.753e-01,4.685e-01,5.878e-01,1.280e+00,2.155e+00,1.240e+00,2.037e+00,1.727e+00,2.911e+00,1.626e+00,3.111e+00,3.586e+00,3.281e+00,3.905e+00,4.831e+00,4.823e+00,6.228e+00,5.920e+00,5.859e+00,5.898e+00,4.858e+00,5.496e+00,5.363e+00,6.627e+00,5.219e+00,7.029e+00,5.424e+00,5.576e+00,4.610e+00,4.286e+00,6.097e+00,4.894e+00,5.508e+00,6.763e+00,7.104e+00,5.099e+00,5.751e+00,6.499e+00,5.579e+00,5.585e+00,5.804e+00,5.796e+00,5.511e+00,5.700e+00,4.986e+00,5.839e+00,4.587e+00,4.503e+00,4.953e+00,5.419e+00,5.622e+00,5.372e+00,5.723e+00,5.501e+00,4.243e+00,5.915e+00,4.711e+00,4.405e+00,5.347e+00,4.467e+00,5.890e+00,6.047e+00,5.894e+00,4.943e+00,5.324e+00,6.220e+00,4.473e+00,5.512e+00,4.967e+00,4.747e+00,4.661e+00,5.167e+00,5.004e+00,6.111e+00,5.775e+00,6.148e+00,6.431e+00,5.727e+00,6.414e+00,5.840e+00,5.463e+00,5.797e+00,3.962e+00,4.914e+00,5.656e+00,5.892e+00,4.134e+00
6.149e-01,5.898e-01,6.585e-01,1.656e+00,1.600e+00,1.055e+00,1.128e+00,1.099e+00,2.683e+00,1.889e+00,2.960e+00,2.508e+00,2.919e+00,2.632e+00,3.944e+00,4.686e+00,4.868e+00,6.018e+00,6.940e+00,5.697e+00,4.758e+00,6.517e+00,5.573e+00,6.310e+00,5.778e+00,6.994e+00,7.419e+00,5.902e+00,5.233e+00,5.353e+00,6.244e+00,5.940e+00,4.809e+00,6.853e+00,7.178e+00,5.720e+00,6.901e+00,7.414e+00,6.471e+00,5.664e+00,5.912e+00,5.047e+00,5.529e+00,5.129e+00,6.123e+00,6.299e+00,5.283e+00,4.843e+00,6.066e+00,5.950e+00,5.770e+00,5.579e+00,6.247e+00,6.917e+00,4.651e+00,6.875e+00,4.224e+00,6.216e+00,5.801e+00,5.036e+00,5.684e+00,7.149e+00,4.785e+00,6.407e+00,5.884e+00,6.895e+00,5.226e+00,5.659e+00,4.570e+00,3.870e+00,5.898e+00,5.785e+00,6.333e+00,7.603e+00,6.171e+00,7.102e+00,6.962e+00,7.058e+00,6.799e+00,5.779e+00,5.607e+00,6.887e+00,4.533e+00,7.353e+00,5.731e+00,6.947e+00,4.777e+00
4.257e-01,7.913e-01,1.336e+00,1.855e+00,2.384e+00,2.089e+00,1.892e+00,1.886e+00,3.473e+00,2.848e+00,3.503e+00,3.499e+00,4.001e+00,3.557e+00,5.773e+00,6.612e+00,6.314e+00,7.242e+00,7.499e+00,6.156e+00,6.271e+00,6.746e+00,7.362e+00,8.355e+00,7.342e+00,9.086e+00,7.164e+00,6.941e+00,5.428e+00,6.067e+00,7.539e+00,6.538e+00,6.491e+00,7.660e+00,8.108e+00,7.236e+00,7.780e+00,8.622e+00,8.210e+00,6.624e+00,7.647e+00,6.696e+00,6.170e+00,6.536e+00,6.946e+00,7.199e+00,5.970e+00,6.145e+00,7.423e+00,7.404e+00,8.457e+00,7.046e+00,6.643e+00,7.357e+00,6.297e+00,7.189e+00,5.874e+00,6.522e+00,7.451e+00,6.379e+00,6.823e+00,8.327e+00,6.881e+00,7.471e+00,7.812e+00,7.587e+00,6.033e+00,6.430e+00,7.083e+00,5.926e+00,6.690e+00,6.878e+00,7.499e+00,8.655e+00,7.568e+00,8.380e+00,8.636e+00,7.166e+00,6.908e+00,7.133e+00,6.541e+00,7.183e+00,6.097e+00,7.216e+00,7.612e+00,7.949e+00,5.448e+00
2.009e-01,3.463e-01,4.363e-01,7.625e-01,9.984e-01,8.118e-01,1.643e+00,9.424e-01,2.168e+00,1.496e+00,2.918e+00,2.174e+00,2.085e+00,2.094e+00,3.504e+00,3.577e+00,3.827e+00,4.603e+00,4.529e+00,3.511e+00,3.696e+00,5.049e+00,5.458e+00,5.515e+00,4.701e+00,5.890e+00,5.025e+00,4.744e+00,3.754e+00,4.454e+00,6.074e+00,4.367e+00,4.102e+00,4.070e+00,6.484e+00,5.468e+00,5.832e+00,5.191e+00,5.945e+00,4.765e+00,5.576e+00,4.848e+00,4.478e+00,4.058e+00,5.011e+00,4.791e+00,3.959e+00,3.468e+00,5.794e+00,5.588e+00,4.934e+00,4.749e+00,3.878e+00,4.657e+00,4.411e+00,5.061e+00,4.296e+00,4.221e+00,5.876e+00,5.278e+00,4.467e+00,6.172e+00,4.746e+00,5.357e+00,5.253e+00,4.502e+00,4.080e+00,5.335e+00,3.752e+00,4.233e+00,4.885e+00,5.108e+00,5.562e+00,5.214e+00,4.508e+00,4.493e+00,5.805e+00,4.877e+00,5.485e+00,4.679e+00,5.259e+00,4.182e+00,4.296e+00,4.264e+00,5.284e+00,5.376e+00,4.167e+00
6.151e-01,8.085e-01,1.259e+00,1.832e+00,2.556e+00,2.007e+00,1.514e+00,1.797e+00,3.428e+00,2.226e+00,3.166e+00,3.113e+00,3.561e+00,3.456e+00,4.670e+00,5.497e+00,5.893e+00,5.823e+00,6.627e+00,5.419e+00,4.883e+00,6.698e+00,6.832e+00,7.537e+00,6.613e+00,8.111e+00,7.207e+00,5.618e+00,5.804e+00,5.796e+00,6.886e+00,6.473e+00,6.601e+00,6.484e+00,8.784e+00,6.731e+00,7.054e+00,7.797e+00,6.434e+00,6.577e+00,6.746e+00,6.846e+00,6.312e+00,6.090e+00,6.944e+00,6.514e+00,5.878e+00,6.320e+00,6.835e+00,6.491e+00,7.641e+00,5.979e+00,6.317e+00,7.112e+00,6.466e+00,7.062e+00,5.583e+00,5.588e+00,6.096e+00,5.554e+00,7.345e+00,7.711e+00,6.887e+00,6.952e+00,6.394e+00,7.128e+00,6.390e+00,7.025e+00,6.292e+00,5.568e+00,4.931e+00,7.074e+00,7.465e+00,7.538e+00,6.507e+00,7.828e+00,7.817e+00,7.272e+00,6.932e+00,5.471e+00,6.537e+00,5.897e+00,6.403e+00,6.682e+00,7.294e+00,7.468e+00,6.284e+00
6.846e-02,5.150e-01,9.418e-01,7.431e-01,1.038e+00,1.247e+00,1.042e+00,1.001e+00,2.239e+00,1.786e+00,2.348e+00,2.674e+00,2.929e+00,3.758e+00,3.487e+00,4.605e+00,4.995e+00,5.143e+00,5.047e+00,5.298e+00,4.054e+00,5.195e+00,5.787e+00,6.825e+00,5.792e+00,8.023e+00,6.210e+00,6.082e+00,4.846e+00,5.702e+00,6.482e+00,5.858e+00,6.143e+00,7.162e+00,7.214e+00,6.099e+00,7.083e+00,5.958e+00,6.969e+00,5.302e+00,6.769e+00,5.434e+00,6.240e+00,6.159e+00,6.842e+00,5.295e+00,6.873e+00,5.971e+00,6.224e+00,6.602e+00,5.777e+00,6.653e+00,6.223e+00,5.551e+00,6.598e+00,5.153e+00,4.717e+00,5.440e+00,6.900e+00,6.219e+00,5.947e+00,6.590e+00,5.790e+00,6.241e+00,5.474e+00,6.522e+00,5.645e+00,6.325e+00,5.181e+00,5.117e+00,6.950e+00,5.470e+00,6.448e+00,6.809e+00,6.277e+00,6.033e+00,8.011e+00,6.542e+00,5.257e+00,6.945e+00,5.832e+00,6.245e+00,6.073e+00,6.098e+00,5.558e+00,6.787e+00,5.988e+00
6.859e-01,6.735e-01,1.240e+00,1.689e+00,2.024e+00,1.734e+00,1.219e+00,1.233e+00,2.761e+00,2.017e+00,3.087e+00,2.658e+00,3.573e+00,3.240e+00,4.217e+00,4.152e+00,4.981e+00,5.085e+00,5.690e+00,4.672e+00,4.612e+00,6.538e+00,6.078e+00,7.089e+00,5.589e+00,8.869e+00,7.145e+00,6.051e+00,4.938e+00,5.890e+00,6.955e+00,6.254e+00,5.989e+00,7.312e+00,8.411e+00,7.881e+00,7.989e+00,7.806e+00,7.137e+00,5.916e+00,7.968e+00,6.105e+00,6.208e+00,6.976e+00,7.500e+00,6.696e+00,7.376e+00,7.099e+00,5.777e+00,7.723e+00,6.875e+00,6.233e+00,7.134e+00,6.761e+00,6.312e+00,7.369e+00,4.613e+00,5.193e+00,6.480e+00,6.303e+00,7.170e+00,7.110e+00,6.460e+00,7.357e+00,6.073e+00,6.794e+00,6.317e+00,6.867e+00,6.472e+00,5.968e+00,6.704e+00,6.889e+00,7.179e+00,7.875e+00,6.401e+00,7.298e+00,8.246e+00,7.457e+00,7.415e+00,6.336e+00,5.910e+00,6.669e+00,6.688e+00,5.946e+00,6.787e+00,7.330e+00,6.557e+00
1.227e-01,4.707e-02,6.692e-01,7.362e-01,9.636e-01,9.798e-01,6.566e-01,8.850e-01,1.402e+00,1.835e+00,2.107e+00,2.700e+00,2.708e+00,3.359e+00,3.919e+00,5.074e+00,4.679e+00,5.190e+00,6.289e+00,4.890e+00,4.840e+00,6.539e+00,5.860e+00,6.777e+00,6.437e+00,8.928e+00,7.964e+00,6.134e+00,6.102e+00,6.159e+00,7.586e+00,5.954e+00,6.387e+00,6.610e+00,7.626e+00,7.748e+00,7.602e+00,7.801e+00,7.842e+00,5.933e+00,5.596e+00,5.966e+00,7.003e+00,6.032e+00,8.620e+00,6.842e+00,7.731e+00,6.118e+00,7.609e+00,7.195e+00,6.931e+00,6.127e+00,6.483e+00,6.841e+00,7.187e+00,5.785e+00,4.780e+00,5.826e+00,7.576e+00,6.488e+00,7.664e+00,8.482e+00,6.734e+00,6.881e+00,7.484e+00,6.558e+00,7.076e+00,6.574e+00,6.947e+00,5.386e+00,7.192e+00,5.841e+00,7.532e+00,6.748e+00,7.781e+00,8.088e+00,9.487e+00,8.107e+00,6.616e+00,7.344e+00,6.708e+00,6.955e+00,6.155e+00,7.291e+00,6.663e+00,8.207e+00,6.762e+00
2.792e-02,1.437e-01,6.543e-01,7.826e-01,1.436e+00,1.183e+00,1.064e+00,1.575e+00,2.294e+00,1.808e+00,1.795e+00,2.785e+00,2.159e+00,3.285e+00,3.271e+00,3.878e+00,3.951e+00,4.647e+00,4.955e+00,4.013e+00,4.492e+00,4.484e+00,5.785e+00,6.283e+00,5.233e+00,7.118e+00,7.372e+00,7.020e+00,6.338e+00,6.129e+00,7.056e+00,5.210e+00,5.470e+00,6.192e+00,7.987e+00,7.544e+00,8.098e+00,6.573e+00,7.165e+00,5.326e+00,6.672e+00,5.986e+00,6.671e+00,6.748e+00,7.618e+00,7.196e+00,7.485e+00,5.797e+00,7.312e+00,6.528e+00,6.449e+00,6.048e+00,5.805e+00,6.354e+00,7.137e+00,6.400e+00,5.421e+00,5.530e+00,6.174e+00,6.442e+00,7.513e+00,7.727e+00,7.687e+00,6.891e+00,6.317e+00,5.888e+00,6.977e+00,6.830e+00,6.256e+00,5.120e+00,6.305e+00,5.648e+00,7.783e+00,7.125e+00,6.145e+00,6.789e+00,7.617e+00,6.632e+00,7.584e+00,5.744e+00,6.781e+00,6.639e+00,6.517e+00,6.372e+00,6.319e+00,7.661e+00,6.777e+00
1.641e-01,4.266e-01,4.698e-01,1.015e+00,8.118e-01,7.758e-01,8.000e-01,7.592e-01,2.410e+00,1.765e+00,2.783e+00,2.715e+00,3.019e+00,2.406e+00,3.764e+00,5.071e+00,4.279e+00,4.301e+00,5.684e+00,4.222e+00,4.147e+00,5.678e+00,6.320e+00,5.923e+00,5.676e+00,7.856e+00,7.605e+00,5.248e+00,5.935e+00,5.478e+00,6.890e+00,6.547e+00,6.038e+00,7.021e+00,8.461e+00,7.040e+00,6.935e+00,8.318e+00,6.684e+00,5.273e+00,6.731e+00,6.743e+00,6.562e+00,6.095e+00,8.552e+00,6.839e+00,6.799e+00,7.020e+00,7.005e+00,7.241e+00,7.680e+00,6.085e+00,6.921e+00,6.471e+00,6.906e+00,6.961e+00,5.636e+00,6.189e+00,6.403e+00,6.618e+00,6.706e+00,9.233e+00,6.332e+00,7.522e+00,6.925e+00,6.438e+00,7.198e+00,6.078e+00,7.053e+00,6.214e+00,6.715e+00,7.545e+00,6.991e+00,6.596e+00,7.051e+00,7.296e+00,7.578e+00,6.864e+00,7.333e+00,6.326e+00,7.367e+00,6.813e+00,5.802e+00,6.258e+00,6.933e+00,7.809e+00,6.324e+00
1.135e-01,3.764e-01,5.103e-01,1.024e+00,1.389e+00,1.016e+00,1.577e+00,1.493e+00,2.571e+00,2.042e+00,2.839e+00,3.843e+00,3.069e+00,3.346e+00,4.754e+00,4.470e+00,5.324e+00,6.400e+00,5.785e+00,5.192e+00,5.565e+00,5.666e+00,6.717e+00,7.471e+00,6.404e+00,9.010e+00,8.471e+00,8.114e+00,7.935e+00,6.727e+00,9.457e+00,7.766e+00,7.594e+00,8.729e+00,9.274e+00,9.206e+00,9.178e+00,9.288e+00,8.650e+00,6.363e+00,8.147e+00,7.344e+00,7.693e+00,7.908e+00,9.727e+00,8.714e+00,8.842e+00,7.642e+00,8.750e+00,8.374e+00,8.262e+00,7.032e+00,8.222e+00,7.642e+00,8.492e+00,7.626e+00,6.507e+00,8.140e+00,8.123e+00,8.241e+00,8.455e+00,1.018e+01,8.505e+00,8.638e+00,8.820e+00,8.141e+00,7.712e+00,8.056e+00,7.622e+00,6.538e+00,8.502e+00,6.995e+00,8.563e+00,8.631e+00,8.765e+00,8.301e+00,1.031e+01,8.853e+00,9.794e+00,8.723e+00,7.684e+00,8.709e+00,8.031e+00,7.376e+00,7.845e+00,1.007e+01,8.603e+00
4.318e-01,8.300e-01,6.473e-01,1.236e+00,1.708e+00,1.148e+00,1.096e+00,1.163e+00,2.583e+00,1.303e+00,3.138e+00,3.030e+00,3.153e+00,2.714e+00,4.069e+00,4.194e+00,5.070e+00,4.172e+00,4.655e+00,4.771e+00,3.992e+00,6.069e+00,6.296e+00,6.985e+00,5.110e+00,8.406e+00,8.339e+00,5.736e+00,6.411e+00,6.541e+00,9.168e+00,6.768e+00,7.166e+00,8.347e+00,1.003e+01,9.153e+00,7.688e+00,9.216e+00,7.451e+00,6.183e+00,7.739e+00,7.467e+00,8.773e+00,8.523e+00,8.753e+00,7.591e+00,7.651e+00,7.441e+00,7.826e+00,7.959e+00,7.963e+00,7.670e+00,8.080e+00,7.125e+00,8.424e+00,7.772e+00,5.946e+00,7.347e+00,6.823e+00,8.040e+00,8.189e+00,8.815e+00,8.567e+00,6.847e+00,7.176e+00,7.267e+00,7.516e+00,6.723e+00,6.736e+00,6.330e+00,6.659e+00,8.360e+00,7.605e+00,8.155e+00,8.107e+00,7.539e+00,7.746e+00,6.896e+00,9.285e+00,7.453e+00,6.700e+00,7.554e+00,6.883e+00,6.561e+00,7.235e+00,9.492e+00,6.865e+00
3.829e-01,3.370e-01,6.350e-01,9.108e-01,1.761e+00,1.176e+00,1.581e+00,1.487e+00,2.477e+00,1.658e+00,2.880e+00,2.993e+00,2.836e+00,3.615e+00,4.175e+00,4.568e+00,5.615e+00,5.702e+00,6.258e+00,5.491e+00,4.624e+00,6.304e+00,5.239e+00,6.850e+00,5.158e+00,7.939e+00,7.396e+00,6.822e+00,6.768e+00,6.735e+00,9.297e+00,8.671e+00,7.481e+00,9.669e+00,9.917e+00,9.578e+00,9.670e+00,1.001e+01,9.321e+00,7.401e+00,8.026e+00,7.749e+00,8.996e+00,7.473e+00,9.317e+00,8.310e+00,8.251e+00,7.729e+00,9.331e+00,8.670e+00,7.837e+00,8.186e+00,8.288e+00,8.948e+00,7.610e+00,8.975e+00,6.917e+00,7.902e+00,8.270e+00,8.769e+00,9.208e+00,9.399e+00,8.356e+00,9.807e+00,8.656e+00,8.805e+00,7.937e+00,8.609e+00,7.878e+00,7.445e+00,8.122e+00,8.186e+00,9.125e+00,1.013e+01,8.413e+00,9.106e+00,9.562e+00,8.883e+00,1.029e+01,8.883e+00,7.796e+00,8.202e+00,8.427e+00,7.740e+00,9.166e+00,8.863e+00,8.604e+00
4.234e-01,6.059e-01,1.224e+00,1.489e+00,2.122e+00,1.820e+00,8.579e-01,1.434e+00,2.088e+00,1.956e+00,2.526e+00,2.631e+00,2.822e+00,3.240e+00,3.916e+00,3.553e+00,4.032e+00,4.022e+00,4.481e+00,4.245e+00,4.213e+00,4.939e+00,4.383e+00,5.599e+00,5.389e+00,7.229e+00,5.324e+00,4.660e+00,5.406e+00,5.099e+00,6.918e+00,7.315e+00,5.959e+00,8.785e+00,7.391e+00,8.212e+00,7.904e+00,8.320e+00,7.671e+00,5.961e+00,7.311e+00,5.490e+00,6.834e+00,7.468e+00,8.509e+00,7.303e+00,7.499e+00,7.063e+00,7.475e+00,7.863e+00,7.024e+00,6.279e+00,8.005e+00,7.795e+00,6.019e+00,7.032e+00,5.117e+00,6.295e+00,8.093e+00,6.259e+00,6.693e+00,8.094e+00,7.450e+00,8.730e+00,8.183e+00,8.127e+00,7.756e+00,7.096e+00,7.124e+00,5.977e+00,7.853e+00,6.829e+00,7.173e+00,7.302e+00,9.048e+00,6.516e+00,7.752e+00,7.123e+00,8.751e+00,7.334e+00,7.024e+00,7.655e+00,6.426e+00,7.150e+00,7.018e+00,8.017e+00,5.964e+00
5.656e-02,2.706e-02,2.943e-01,2.598e-01,7.862e-01,5.803e-01,1.251e+00,1.021e+00,1.745e+00,1.249e+00,2.050e+00,2.549e+00,2.338e+00,2.657e+00,3.193e+00,3.641e+00,4.211e+00,4.363e+00,4.128e+00,3.538e+00,3.068e+00,4.088e+00,4.729e+00,5.611e+00,3.764e+00,5.824e+00,5.651e+00,5.482e+00,5.118e+00,5.486e+00,7.107e+00,7.049e+00,6.588e+00,8.075e+00,8.640e+00,7.028e+00,8.149e+00,7.231e+00,7.394e+00,5.915e+00,7.837e+00,7.226e+00,5.971e+00,7.261e+00,8.640e+00,6.308e+00,5.878e+00,6.807e+00,7.900e+00,7.658e+00,7.395e+00,6.810e+00,7.820e+00,7.161e+00,7.361e+00,7.196e+00,5.899e+00,7.612e+00,7.702e+00,6.796e+00,6.991e+00,8.745e+00,6.835e+00,8.572e+00,8.018e+00,8.182e+00,6.949e+00,7.461e+00,7.081e+00,5.957e+00,8.246e+00,6.932e+00,6.835e+00,7.297e+00,7.728e+00,6.804e+00,8.113e+00,6.083e+00,9.793e+00,7.479e+00,7.432e+00,7.941e+00,7.081e+00,5.885e+00,7.748e+00,6.997e+00,7.628e+00
1.028e-01,6.861e-01,1.210e+00,1.142e+00,2.290e+00,1.994e+00,1.540e+00,2.114e+00,3.258e+00,2.473e+00,3.167e+00,3.419e+00,3.045e+00,4.003e+00,4.972e+00,5.277e+00,5.301e+00,5.784e+00,5.354e+00,4.966e+00,4.316e+00,5.287e+00,5.001e+00,6.742e+00,5.897e+00,7.838e+00,6.729e+00,6.786e+00,6.185e+00,5.962e+00,7.894e+00,7.189e+00,6.853e+00,9.515e+00,9.652e+00,9.306e+00,8.662e+00,9.668e+00,9.026e+00,6.816e+00,8.940e+00,6.799e+00,7.859e+00,8.768e+00,8.222e+00,7.141e+00,7.890e+00,7.400e+00,9.619e+00,8.453e+00,8.256e+00,8.032e+00,7.859e+00,8.611e+00,7.060e+00,8.226e+00,6.483e+00,7.906e+00,9.493e+00,7.854e+00,7.889e+00,9.982e+00,7.945e+00,9.647e+00,8.901e+00,8.121e+00,7.803e+00,7.789e+00,8.359e+00,6.484e+00,8.407e+00,7.591e+00,8.939e+00,8.467e+00,9.423e+00,8.916e+00,9.811e+00,7.873e+00,8.554e+00,8.833e+00,7.966e+00,9.276e+00,7.275e+00,8.110e+00,9.022e+00,8.619e+00,7.495e+00
3.743e-01,2.048e-01,2.432e-01,6.211e-01,1.318e+00,6.172e-01,7.554e-01,9.707e-01,1.436e+00,7.903e-01,1.632e+00,2.631e+00,2.266e+00,3.553e+00,3.428e+00,3.716e+00,3.851e+00,4.171e+00,4.731e+00,4.151e+00,3.114e+00,4.902e+00,4.568e+00,5.638e+00,4.169e+00,6.578e+00,6.742e+00,5.051e+00,6.199e+00,6.077e+00,7.081e+00,6.557e+00,6.558e+00,8.839e+00,1.031e+01,7.341e+00,8.220e+00,8.861e+00,7.997e+00,6.787e+00,8.204e+00,8.573e+00,8.465e+00,8.289e+00,9.288e+00,7.622e+00,6.590e+00,8.540e+00,8.542e+00,7.980e+00,8.086e+00,7.079e+00,8.678e+00,8.205e+00,7.866e+00,8.277e+00,6.305e+00,8.681e+00,8.352e+00,8.598e+00,8.263e+00,1.006e+01,7.032e+00,9.524e+00,8.872e+00,9.653e+00,7.235e+00,8.405e+00,7.522e+00,6.003e+00,7.487e+00,8.495e+00,8.518e+00,8.983e+00,8.881e+00,9.041e+00,9.166e+00,7.945e+00,1.004e+01,8.082e+00,8.499e+00,8.498e+00,7.814e+00,7.305e+00,9.527e+00,8.477e+00,8.351e+00
4.834e-01,7.282e-01,6.626e-01,1.311e+00,2.163e+00,1.368e+00,2.048e+00,1.724e+00,3.348e+00,1.740e+00,3.395e+00,3.519e+00,3.392e+00,3.700e+00,4.557e+00,4.498e+00,5.262e+00,4.625e+00,4.203e+00,5.382e+00,4.886e+00,5.461e+00,6.450e+00,6.272e+00,5.816e+00,8.550e+00,6.918e+00,6.572e+00,6.819e+00,5.806e+00,7.940e+00,6.986e+00,7.125e+00,9.967e+00,1.290e+01,9.115e+00,9.723e+00,9.620e+00,9.924e+00,7.850e+00,1.190e+01,9.534e+00,9.431e+00,1.018e+01,1.058e+01,9.620e+00,9.000e+00,1.005e+01,9.675e+00,9.536e+00,9.886e+00,8.932e+00,1.069e+01,9.682e+00,9.806e+00,1.050e+01,9.031e+00,8.339e+00,9.875e+00,8.731e+00,1.039e+01,1.251e+01,9.247e+00,1.120e+01,1.074e+01,8.920e+00,9.344e+00,1.021e+01,9.369e+00,8.732e+00,9.672e+00,9.929e+00,1.046e+01,9.411e+00,1.123e+01,1.055e+01,1.046e+01,8.589e+00,1.173e+01,9.441e+00,1.053e+01,9.972e+00,9.192e+00,8.680e+00,1.112e+01,9.900e+00,8.966e+00
5.174e-01,2.992e-01,7.827e-01,9.838e-01,2.119e+00,1.418e+00,1.571e+00,1.549e+00,2.102e+00,1.326e+00,2.910e+00,3.528e+00,3.204e+00,3.603e+00,4.562e+00,4.035e+00,6.036e+00,5.824e+00,5.456e+00,4.930e+00,5.103e+00,6.456e+00,6.255e+00,7.536e+00,5.353e+00,8.843e+00,7.134e+00,6.636e+00,5.979e+00,6.944e+00,9.198e+00,7.867e+00,8.315e+00,9.850e+00,1.037e+01,1.081e+01,9.280e+00,1.044e+01,9.779e+00,8.645e+00,1.015e+01,9.346e+00,1.011e+01,9.957e+00,1.062e+01,9.473e+00,9.762e+00,9.699e+00,9.268e+00,1.171e+01,1.004e+01,9.305e+00,1.145e+01,9.019e+00,1.017e+01,9.742e+00,8.909e+00,8.844e+00,1.086e+01,9.368e+00,1.168e+01,1.190e+01,1.017e+01,9.773e+00,1.067e+01,9.921e+00,1.003e+01,9.927e+00,1.035e+01,8.049e+00,9.651e+00,9.498e+00,1.049e+01,1.040e+01,1.162e+01,1.122e+01,1.094e+01,8.894e+00,1.227e+01,1.108e+01,9.633e+00,1.017e+01,8.978e+00,8.553e+00,9.794e+00,1.070e+01,8.843e+00
1.799e-01,7.313e-01,6.821e-01,1.028e+00,1.756e+00,1.320e+00,1.345e+00,1.536e+00,3.066e+00,1.637e+00,3.499e+00,3.570e+00,2.901e+00,3.371e+00,4.295e+00,4.958e+00,5.742e+00,6.146e+00,6.772e+00,5.644e+00,4.487e+00,6.270e+00,6.069e+00,6.995e+00,5.618e+00,7.617e+00,8.014e+00,6.577e+00,6.524e+00,7.019e+00,8.476e+00,7.354e+00,8.127e+00,1.005e+01,1.206e+01,9.993e+00,9.750e+00,1.077e+01,1.044e+01,8.328e+00,1.041e+01,9.038e+00,1.213e+01,1.092e+01,1.014e+01,9.376e+00,9.661e+00,9.799e+00,1.126e+01,1.153e+01,9.828e+00,9.858e+00,1.177e+01,1.035e+01,9.726e+00,1.058e+01,9.751e+00,9.951e+00,1.106e+01,1.059e+01,1.170e+01,1.283e+01,1.014e+01,1.052e+01,1.002e+01,1.033e+01,1.019e+01,9.213e+00,8.953e+00,7.982e+00,9.885e+00,9.770e+00,1.181e+01,1.170e+01,1.104e+01,1.187e+01,1.020e+01,8.388e+00,1.150e+01,1.114e+01,1.032e+01,1.105e+01,8.927e+00,9.367e+00,1.168e+01,1.118e+01,9.284e+00
4.582e-01,2.510e-01,5.079e-01,1.218e+00,1.692e+00,1.061e+00,1.517e+00,1.458e+00,2.847e+00,1.776e+00,3.084e+00,3.703e+00,3.631e+00,3.354e+00,4.826e+00,5.471e+00,6.168e+00,6.668e+00,7.275e+00,5.405e+00,5.656e+00,7.117e+00,7.541e+00,8.136e+00,5.847e+00,9.453e+00,9.859e+00,7.982e+00,7.999e+00,8.391e+00,1.005e+01,8.219e+00,8.459e+00,1.025e+01,1.211e+01,1.131e+01,1.108e+01,1.170e+01,1.053e+01,8.997e+00,1.152e+01,1.117e+01,1.051e+01,1.104e+01,1.294e+01,1.159e+01,1.002e+01,1.076e+01,1.081e+01,1.202e+01,1.119e+01,1.100e+01,1.144e+01,1.041e+01,1.161e+01,1.163e+01,9.730e+00,1.081e+01,1.097e+01,1.060e+01,1.324e+01,1.329e+01,1.115e+01,1.133e+01,1.047e+01,1.066e+01,1.102e+01,1.032e+01,1.084e+01,8.452e+00,1.062e+01,1.083e+01,1.198e+01,1.280e+01,1.155e+01,1.263e+01,1.116e+01,9.338e+00,1.406e+01,1.169e+01,1.023e+01,1.156e+01,1.006e+01,9.664e+00,1.070e+01,1.228e+01,1.092e+01
6.406e-01,9.102e-01,1.444e+00,1.907e+00,3.001e+00,2.294e+00,1.577e+00,2.177e+00,3.601e+00,2.431e+00,3.748e+00,3.914e+00,3.786e+00,4.440e+00,4.994e+00,4.963e+00,6.235e+00,6.037e+00,6.804e+00,6.321e+00,5.306e+00,7.656e+00,7.103e+00,8.288e+00,7.011e+00,9.601e+00,8.683e+00,7.415e+00,7.054e+00,8.215e+00,9.749e+00,9.121e+00,9.372e+00,1.109e+01,1.251e+01,1.120e+01,1.115e+01,1.173e+01,1.074e+01,9.475e+00,1.233e+01,9.851e+00,1.142e+01,1.128e+01,1.283e+01,1.126e+01,1.185e+01,1.147e+01,1.150e+01,1.197e+01,1.079e+01,1.056e+01,1.280e+01,1.099e+01,1.069e+01,1.214e+01,9.587e+00,9.482e+00,1.131e+01,1.040e+01,1.266e+01,1.293e+01,1.127e+01,1.144e+01,1.105e+01,1.202e+01,1.214e+01,1.168e+01,1.086e+01,9.110e+00,1.091e+01,1.157e+01,1.172e+01,1.240e+01,1.183e+01,1.201e+01,1.177e+01,1.015e+01,1.333e+01,1.034e+01,1.020e+01,1.192e+01,9.856e+00,1.058e+01,1.084e+01,1.250e+01,9.817e+00
3.462e-01,7.631e-01,5.806e-01,1.513e+00,1.463e+00,1.041e+00,1.554e+00,1.161e+00,2.611e+00,1.795e+00,2.653e+00,2.837e+00,2.705e+00,2.231e+00,3.637e+00,3.511e+00,4.208e+00,4.767e+00,4.681e+00,5.153e+00,4.794e+00,4.881e+00,5.634e+00,5.663e+00,5.620e+00,7.064e+00,6.516e+00,5.584e+00,5.842e+00,5.349e+00,7.150e+00,6.175e+00,5.693e+00,8.529e+00,9.294e+00,7.560e+00,7.970e+00,8.837e+00,7.976e+00,6.567e+00,1.015e+01,7.699e+00,9.331e+00,9.173e+00,9.536e+00,9.297e+00,1.065e+01,9.393e+00,1.001e+01,9.228e+00,8.817e+00,9.717e+00,1.162e+01,9.371e+00,9.272e+00,8.660e+00,9.427e+00,7.969e+00,9.604e+00,7.841e+00,1.082e+01,1.119e+01,9.077e+00,8.689e+00,9.491e+00,9.026e+00,8.829e+00,9.169e+00,8.968e+00,7.872e+00,8.997e+00,9.154e+00,1.016e+01,1.016e+01,1.085e+01,1.009e+01,9.139e+00,7.694e+00,1.105e+01,9.443e+00,9.072e+00,1.095e+01,8.190e+00,9.320e+00,8.630e+00,1.039e+01,7.208e+00
5.446e-01,4.486e-01,7.500e-01,1.210e+00,1.484e+00,1.099e+00,1.378e+00,1.053e+00,2.328e+00,1.696e+00,2.674e+00,2.245e+00,3.005e+00,2.801e+00,3.649e+00,4.746e+00,5.207e+00,5.011e+00,5.509e+00,5.077e+00,3.589e+00,5.135e+00,5.534e+00,6.639e+00,5.604e+00,7.246e+00,6.616e+00,5.689e+00,6.432e+00,5.730e+00,7.868e+00,7.753e+00,6.853e+00,8.959e+00,1.040e+01,7.620e+00,9.895e+00,9.277e+00,8.650e+00,8.394e+00,1.047e+01,8.976e+00,9.611e+00,9.084e+00,1.047e+01,9.513e+00,8.639e+00,1.016e+01,1.084e+01,9.682e+00,8.899e+00,1.027e+01,1.089e+01,1.000e+01,1.004e+01,9.761e+00,9.239e+00,9.211e+00,1.057e+01,9.394e+00,1.205e+01,1.076e+01,9.091e+00,1.092e+01,9.846e+00,1.073e+01,1.031e+01,1.002e+01,9.675e+00,9.228e+00,9.749e+00,9.406e+00,1.204e+01,1.167e+01,1.180e+01,1.122e+01,1.032e+01,8.825e+00,1.100e+01,1.038e+01,1.063e+01,9.658e+00,1.008e+01,1.063e+01,1.108e+01,9.633e+00,1.013e+01
2.163e-01,8.099e-01,1.225e+00,1.286e+00,2.068e+00,1.850e+00,5.911e-01,1.642e+00,2.874e+00,2.049e+00,2.854e+00,2.885e+00,3.053e+00,3.334e+00,4.118e+00,4.825e+00,5.035e+00,4.765e+00,4.815e+00,4.720e+00,3.518e+00,5.242e+00,5.522e+00,7.114e+00,5.514e+00,7.907e+00,7.836e+00,7.270e+00,6.294e+00,6.721e+00,8.760e+00,7.985e+00,7.425e+00,9.378e+00,1.019e+01,9.885e+00,1.023e+01,1.110e+01,9.257e+00,8.130e+00,1.178e+01,9.061e+00,1.044e+01,1.118e+01,1.319e+01,1.065e+01,1.169e+01,1.168e+01,1.216e+01,1.167e+01,1.065e+01,1.085e+01,1.247e+01,1.149e+01,1.079e+01,1.227e+01,9.492e+00,1.031e+01,1.105e+01,1.120e+01,1.344e+01,1.362e+01,1.033e+01,1.234e+01,1.140e+01,1.100e+01,1.163e+01,1.104e+01,1.175e+01,9.615e+00,1.151e+01,1.097e+01,1.294e+01,1.214e+01,1.279e+01,1.304e+01,1.168e+01,9.546e+00,1.292e+01,1.126e+01,1.117e+01,1.161e+01,9.465e+00,1.258e+01,1.132e+01,1.200e+01,1.085e+01
2.000e-01,3.155e-01,4.042e-01,7.050e-01,1.388e+00,8.728e-01,1.514e+00,1.407e+00,2.399e+00,1.397e+00,2.171e+00,2.097e+00,1.720e+00,2.559e+00,2.998e+00,3.360e+00,3.827e+00,3.908e+00,3.304e+00,3.739e+00,3.458e+00,3.456e+00,4.722e+00,5.138e+00,4.583e+00,6.071e+00,5.171e+00,5.932e+00,5.776e+00,5.561e+00,7.428e+00,7.289e+00,6.120e+00,8.686e+00,8.998e+00,7.681e+00,8.619e+00,9.095e+00,7.803e+00,5.985e+00,9.589e+00,8.077e+00,7.915e+00,8.611e+00,1.108e+01,8.969e+00,9.925e+00,9.903e+00,1.056e+01,8.856e+00,9.491e+00,8.786e+00,9.906e+00,9.002e+00,8.493e+00,9.265e+00,8.974e+00,9.330e+00,9.772e+00,9.639e+00,9.261e+00,1.127e+01,8.089e+00,9.960e+00,9.670e+00,9.742e+00,8.214e+00,9.855e+00,9.694e+00,8.205e+00,9.677e+00,9.526e+00,9.272e+00,9.433e+00,9.733e+00,9.140e+00,9.624e+00,7.605e+00,1.167e+01,8.595e+00,9.598e+00,9.348e+00,8.262e+00,9.979e+00,9.294e+00,9.860e+00,8.819e+00
5.512e-01,5.027e-01,9.765e-01,1.697e+00,2.263e+00,1.679e+00,1.464e+00,1.700e+00,3.017e+00,2.095e+00,3.119e+00,3.940e+00,3.683e+00,4.143e+00,5.336e+00,5.131e+00,5.651e+00,6.990e+00,6.914e+00,5.362e+00,5.188e+00,6.015e+00,7.018e+00,7.970e+00,6.856e+00,8.175e+00,8.582e+00,8.131e+00,7.556e+00,7.576e+00,9.556e+00,7.818e+00,8.405e+00,1.044e+01,1.177e+01,1.049e+01,1.092e+01,1.183e+01,1.027e+01,1.036e+01,1.203e+01,1.100e+01,1.155e+01,1.253e+01,1.393e+01,1.245e+01,1.249e+01,1.303e+01,1.288e+01,1.324e+01,1.248e+01,1.104e+01,1.411e+01,1.208e+01,1.198e+01,1.352e+01,1.186e+01,1.107e+01,1.314e+01,1.152e+01,1.498e+01,1.519e+01,1.286e+01,1.335e+01,1.310e+01,1.325e+01,1.226e+01,1.323e+01,1.249e+01,9.880e+00,1.184e+01,1.191e+01,1.433e+01,1.475e+01,1.459e+01,1.488e+01,1.334e+01,1.102e+01,1.644e+01,1.218e+01,1.241e+01,1.349e+01,1.124e+01,1.308e+01,1.298e+01,1.407e+01,1.094e+01
3.764e-01,2.001e-01,7.172e-01,1.149e+00,1.559e+00,1.237e+00,1.299e+00,1.294e+00,2.534e+00,1.887e+00,2.565e+00,2.591e+00,2.895e+00,2.831e+00,4.040e+00,5.101e+00,5.179e+00,6.059e+00,6.762e+00,4.733e+00,5.438e+00,7.255e+00,6.980e+00,7.679e+00,6.331e+00,8.771e+00,9.183e+00,6.785e+00,7.680e+00,8.010e+00,1.005e+01,9.455e+00,8.252e+00,9.928e+00,1.182e+01,1.106e+01,1.100e+01,1.089e+01,1.129e+01,1.013e+01,1.257e+01,1.091e+01,1.249e+01,1.111e+01,1.472e+01,1.333e+01,1.280e+01,1.411e+01,1.544e+01,1.522e+01,1.302e+01,1.227e+01,1.468e+01,1.431e+01,1.234e+01,1.398e+01,1.305e+01,1.264e+01,1.343e+01,1.356e+01,1.483e+01,1.603e+01,1.277e+01,1.408e+01,1.381e+01,1.323e+01,1.333e+01,1.254e+01,1.229e+01,1.119e+01,1.342e+01,1.287e+01,1.553e+01,1.555e+01,1.479e+01,1.572e+01,1.346e+01,1.156e+01,1.672e+01,1.263e+01,1.366e+01,1.338e+01,1.210e+01,1.345e+01,1.377e+01,1.480e+01,1.289e+01
2.743e-01,8.414e-01,7.525e-01,1.446e+00,1.386e+00,1.228e+00,1.176e+00,9.779e-01,2.662e+00,1.804e+00,2.507e+00,2.751e+00,3.270e+00,2.032e+00,3.675e+00,4.742e+00,4.096e+00,4.320e+00,5.124e+00,4.616e+00,4.031e+00,5.361e+00,6.657e+00,6.132e+00,5.852e+00,7.456e+00,7.427e+00,4.735e+00,6.760e+00,7.079e+00,8.180e+00,7.713e+00,7.498e+00,9.188e+00,1.063e+01,8.989e+00,8.234e+00,1.000e+01,8.544e+00,8.576e+00,1.104e+01,9.115e+00,9.622e+00,1.021e+01,1.259e+01,1.091e+01,1.091e+01,1.271e+01,1.344e+01,1.130e+01,1.092e+01,1.200e+01,1.345e+01,1.177e+01,1.252e+01,1.112e+01,1.179e+01,1.034e+01,1.095e+01,1.024e+01,1.384e+01,1.371e+01,1.161e+01,1.171e+01,1.089e+01,1.168e+01,1.158e+01,1.191e+01,1.126e+01,1.032e+01,1.099e+01,1.122e+01,1.369e+01,1.276e+01,1.414e+01,1.359e+01,1.087e+01,9.849e+00,1.401e+01,1.206e+01,1.039e+01,1.199e+01,1.101e+01,1.101e+01,1.165e+01,1.218e+01,1.109e+01
3.648e-01,2.365e-01,8.427e-01,1.087e+00,1.641e+00,1.311e+00,1.459e+00,1.458e+00,2.488e+00,1.990e+00,2.221e+00,2.960e+00,2.970e+00,3.854e+00,3.862e+00,4.194e+00,4.990e+00,5.535e+00,5.525e+00,4.962e+00,4.301e+00,5.238e+00,5.054e+00,6.270e+00,5.474e+00,7.390e+00,7.085e+00,6.900e+00,6.732e+00,6.510e+00,7.741e+00,8.034e+00,6.891e+00,9.274e+00,1.031e+01,8.271e+00,1.056e+01,9.436e+00,9.251e+00,7.708e+00,1.095e+01,9.428e+00,9.574e+00,9.681e+00,1.223e+01,1.157e+01,1.206e+01,1.307e+01,1.226e+01,1.182e+01,1.100e+01,1.223e+01,1.312e+01,1.199e+01,1.083e+01,1.204e+01,1.166e+01,1.099e+01,1.205e+01,1.196e+01,1.310e+01,1.331e+01,1.135e+01,1.230e+01,1.121e+01,1.332e+01,1.155e+01,1.287e+01,1.144e+01,1.060e+01,1.210e+01,9.886e+00,1.291e+01,1.186e+01,1.214e+01,1.355e+01,1.240e+01,1.033e+01,1.430e+01,1.133e+01,1.254e+01,1.285e+01,9.667e+00,1.164e+01,1.163e+01,1.201e+01,1.052e+01
5.685e-01,4.672e-01,6.153e-01,1.165e+00,1.571e+00,1.041e+00,1.142e+00,9.002e-01,1.793e+00,1.121e+00,2.504e+00,2.219e+00,2.598e+00,1.943e+00,3.221e+00,2.811e+00,3.866e+00,3.760e+00,3.923e+00,3.638e+00,3.924e+00,5.364e+00,5.635e+00,5.748e+00,4.442e+00,7.186e+00,6.389e+00,5.397e+00,5.097e+00,5.474e+00,7.412e+00,6.495e+00,6.507e+00,7.408e+00,1.014e+01,8.204e+00,8.961e+00,8.770e+00,9.003e+00,7.984e+00,1.177e+01,9.356e+00,9.134e+00,1.001e+01,1.316e+01,1.148e+01,1.097e+01,1.323e+01,1.246e+01,1.269e+01,1.153e+01,1.124e+01,1.426e+01,1.218e+01,1.223e+01,1.383e+01,1.180e+01,1.043e+01,1.325e+01,1.218e+01,1.541e+01,1.425e+01,1.130e+01,1.232e+01,1.288e+01,1.275e+01,1.248e+01,1.246e+01,1.198e+01,1.159e+01,1.328e+01,1.170e+01,1.271e+01,1.252e+01,1.384e+01,1.396e+01,1.242e+01,1.034e+01,1.634e+01,1.164e+01,1.201e+01,1.252e+01,1.125e+01,1.269e+01,1.253e+01,1.287e+01,1.072e+01
1.508e-01,8.005e-01,1.269e+00,1.515e+00,2.415e+00,2.095e+00,1.433e+00,2.119e+00,3.382e+00,2.583e+00,2.507e+00,3.454e+00,3.348e+00,3.322e+00,4.372e+00,4.690e+00,4.662e+00,4.523e+00,4.260e+00,4.656e+00,4.311e+00,4.402e+00,5.199e+00,5.992e+00,5.649e+00,7.049e+00,5.689e+00,5.455e+00,5.415e+00,4.777e+00,6.052e+00,6.317e+00,6.970e+00,7.654e+00,9.464e+00,6.851e+00,8.231e+00,7.377e+00,7.384e+00,6.411e+00,1.032e+01,7.944e+00,7.942e+00,9.657e+00,1.098e+01,9.270e+00,1.004e+01,1.143e+01,1.159e+01,1.031e+01,1.213e+01,1.083e+01,1.296e+01,1.271e+01,1.105e+01,1.085e+01,1.139e+01,9.916e+00,1.194e+01,9.742e+00,1.256e+01,1.294e+01,1.045e+01,1.075e+01,1.159e+01,1.156e+01,1.072e+01,1.156e+01,1.100e+01,1.065e+01,1.156e+01,1.016e+01,1.153e+01,1.032e+01,1.277e+01,1.291e+01,1.212e+01,9.407e+00,1.217e+01,9.249e+00,1.082e+01,1.156e+01,9.543e+00,1.113e+01,1.163e+01,1.140e+01,9.720e+00
4.438e-01,2.406e-01,2.074e-01,6.969e-01,8.949e-01,4.311e-01,1.408e+00,6.495e-01,1.704e+00,8.964e-01,2.064e+00,2.526e+00,2.658e+00,2.883e+00,3.395e+00,3.734e+00,4.983e+00,5.458e+00,4.771e+00,4.878e+00,3.413e+00,5.205e+00,5.156e+00,6.259e+00,4.910e+00,7.112e+00,7.188e+00,6.467e+00,6.268e+00,5.681e+00,8.076e+00,7.142e+00,6.799e+00,8.334e+00,1.026e+01,7.180e+00,8.271e+00,8.288e+00,7.976e+00,7.716e+00,8.900e+00,8.850e+00,9.103e+00,8.678e+00,9.996e+00,9.017e+00,1.012e+01,1.034e+01,1.027e+01,1.023e+01,1.006e+01,1.145e+01,1.221e+01,1.021e+01,1.123e+01,1.074e+01,1.084e+01,1.100e+01,1.232e+01,1.146e+01,1.240e+01,1.265e+01,9.437e+00,1.033e+01,1.123e+01,1.103e+01,1.073e+01,1.229e+01,9.081e+00,1.021e+01,1.126e+01,9.413e+00,1.181e+01,1.095e+01,1.149e+01,1.262e+01,1.294e+01,1.087e+01,1.350e+01,1.106e+01,1.053e+01,1.106e+01,1.030e+01,1.083e+01,1.202e+01,1.232e+01,1.041e+01
5.146e-01,8.858e-01,1.274e+00,1.514e+00,2.016e+00,1.833e+00,1.287e+00,1.339e+00,3.137e+00,1.767e+00,3.187e+00,2.748e+00,3.313e+00,3.379e+00,4.137e+00,4.609e+00,5.334e+00,5.510e+00,5.299e+00,4.733e+00,4.206e+00,5.448e+00,6.563e+00,7.120e+00,6.387e+00,8.277e+00,7.823e+00,6.987e+00,6.499e+00,6.641e+00,8.227e+00,7.425e+00,7.673e+00,9.278e+00,1.125e+01,9.285e+00,9.296e+00,1.002e+01,9.528e+00,8.397e+00,1.088e+01,8.875e+00,1.035e+01,1.188e+01,1.176e+01,1.149e+01,1.244e+01,1.411e+01,1.373e+01,1.301e+01,1.385e+01,1.374e+01,1.559e+01,1.336e+01,1.367e+01,1.459e+01,1.398e+01,1.398e+01,1.549e+01,1.465e+01,1.537e+01,1.598e+01,1.421e+01,1.441e+01,1.424e+01,1.445e+01,1.358e+01,1.391e+01,1.210e+01,1.255e+01,1.425e+01,1.179e+01,1.478e+01,1.480e+01,1.450e+01,1.705e+01,1.530e+01,1.324e+01,1.690e+01,1.345e+01,1.390e+01,1.442e+01,1.222e+01,1.463e+01,1.521e+01,1.635e+01,1.222e+01
3.207e-01,1.391e-01,4.815e-01,1.013e+00,1.036e+00,8.032e-01,1.212e+00,8.742e-01,1.809e+00,1.799e+00,2.328e+00,3.002e+00,3.043e+00,3.118e+00,4.159e+00,4.106e+00,4.134e+00,5.210e+00,5.516e+00,4.446e+00,4.061e+00,5.247e+00,5.122e+00,6.180e+00,5.442e+00,7.324e+00,7.541e+00,6.643e+00,7.098e+00,6.558e+00,9.137e+00,7.867e+00,7.540e+00,9.857e+00,9.859e+00,9.261e+00,1.011e+01,1.103e+01,9.546e+00,8.286e+00,1.052e+01,1.019e+01,1.050e+01,9.946e+00,1.359e+01,1.230e+01,1.335e+01,1.440e+01,1.318e+01,1.385e+01,1.196e+01,1.350e+01,1.563e+01,1.324e+01,1.382e+01,1.352e+01,1.380e+01,1.294e+01,1.484e+01,1.458e+01,1.570e+01,1.556e+01,1.351e+01,1.423e+01,1.428e+01,1.424e+01,1.376e+01,1.457e+01,1.322e+01,1.225e+01,1.398e+01,1.208e+01,1.448e+01,1.567e+01,1.491e+01,1.558e+01,1.518e+01,1.323e+01,1.737e+01,1.317e+01,1.389e+01,1.544e+01,1.185e+01,1.378e+01,1.395e+01,1.545e+01,1.264e+01
4.583e-02,5.274e-01,7.069e-01,6.992e-01,8.566e-01,9.730e-01,3.353e-01,7.077e-01,1.646e+00,1.330e+00,2.637e+00,1.975e+00,1.964e+00,2.171e+00,2.742e+00,3.364e+00,3.487e+00,3.826e+00,5.391e+00,3.747e+00,3.214e+00,5.489e+00,5.354e+00,6.132e+00,4.712e+00,6.745e+00,7.570e+00,5.815e+00,5.492e+00,6.320e+00,8.012e+00,7.056e+00,6.236e+00,8.090e+00,1.113e+01,9.453e+00,1.000e+01,1.024e+01,9.988e+00,7.703e+00,1.182e+01,8.854e+00,1.129e+01,1.128e+01,1.272e+01,1.168e+01,1.283e+01,1.301e+01,1.368e+01,1.396e+01,1.255e+01,1.366e+01,1.708e+01,1.567e+01,1.519e+01,1.529e+01,1.421e+01,1.449e+01,1.571e+01,1.573e+01,1.705e+01,1.735e+01,1.368e+01,1.502e+01,1.387e+01,1.324e+01,1.521e+01,1.451e+01,1.331e+01,1.249e+01,1.532e+01,1.239e+01,1.638e+01,1.495e+01,1.393e+01,1.553e+01,1.508e+01,1.295e+01,1.716e+01,1.408e+01,1.499e+01,1.568e+01,1.233e+01,1.468e+01,1.575e+01,1.469e+01,1.213e+01
5.088e-02,7.183e-01,1.225e+00,1.062e+00,1.737e+00,1.824e+00,9.269e-01,1.403e+00,2.358e+00,2.004e+00,2.592e+00,2.284e+00,2.596e+00,2.918e+00,3.810e+00,5.058e+00,4.506e+00,4.745e+00,5.864e+00,4.937e+00,4.567e+00,5.497e+00,6.394e+00,7.763e+00,6.450e+00,8.496e+00,7.845e+00,7.107e+00,6.910e+00,7.507e+00,9.349e+00,8.040e+00,8.073e+00,1.056e+01,1.147e+01,1.040e+01,1.079e+01,1.203e+01,1.103e+01,7.980e+00,1.173e+01,9.524e+00,1.108e+01,1.225e+01,1.436e+01,1.213e+01,1.357e+01,1.426e+01,1.496e+01,1.369e+01,1.402e+01,1.366e+01,1.650e+01,1.583e+01,1.507e+01,1.494e+01,1.470e+01,1.572e+01,1.619e+01,1.542e+01,1.832e+01,1.712e+01,1.593e+01,1.687e+01,1.550e+01,1.626e+01,1.448e+01,1.532e+01,1.548e+01,1.399e+01,1.591e+01,1.246e+01,1.688e+01,1.773e+01,1.664e+01,1.677e+01,1.692e+01,1.425e+01,1.745e+01,1.449e+01,1.452e+01,1.631e+01,1.402e+01,1.573e+01,1.691e+01,1.659e+01,1.388e+01
7.838e-02,4.987e-01,3.919e-01,7.340e-01,1.354e+00,9.362e-01,1.171e+00,1.332e+00,2.601e+00,1.437e+00,3.254e+00,3.295e+00,2.830e+00,2.976e+00,4.177e+00,4.584e+00,4.976e+00,4.945e+00,5.678e+00,4.822e+00,4.462e+00,5.999e+00,6.755e+00,7.747e+00,5.851e+00,7.838e+00,8.474e+00,6.089e+00,7.199e+00,5.849e+00,8.952e+00,7.601e+00,7.602e+00,8.288e+00,1.060e+01,8.102e+00,8.383e+00,8.647e+00,8.194e+00,8.857e+00,1.043e+01,9.316e+00,1.000e+01,9.753e+00,1.255e+01,1.187e+01,1.127e+01,1.140e+01,1.291e+01,1.236e+01,1.199e+01,1.205e+01,1.442e+01,1.373e+01,1.324e+01,1.445e+01,1.485e+01,1.386e+01,1.415e+01,1.527e+01,1.593e+01,1.685e+01,1.459e+01,1.477e+01,1.275e+01,1.396e+01,1.416e+01,1.327e+01,1.373e+01,1.246e+01,1.510e+01,1.135e+01,1.467e+01,1.599e+01,1.460e+01,1.548e+01,1.453e+01,1.433e+01,1.666e+01,1.378e+01,1.338e+01,1.376e+01,1.171e+01,1.398e+01,1.451e+01,1.381e+01,1.115e+01
1.114e-01,5.883e-01,4.587e-01,1.075e+00,1.203e+00,8.838e-01,7.907e-01,1.019e+00,1.946e+00,1.729e+00,1.931e+00,3.257e+00,3.201e+00,3.146e+00,4.583e+00,5.618e+00,4.570e+00,5.127e+00,5.158e+00,5.430e+00,3.838e+00,4.792e+00,5.029e+00,6.330e+00,5.524e+00,8.159e+00,7.787e+00,6.772e+00,6.952e+00,6.139e+00,9.246e+00,7.760e+00,7.850e+00,1.185e+01,1.196e+01,9.707e+00,9.814e+00,1.187e+01,1.019e+01,7.961e+00,1.183e+01,1.040e+01,1.180e+01,1.281e+01,1.407e+01,1.224e+01,1.332e+01,1.458e+01,1.586e+01,1.371e+01,1.368e+01,1.438e+01,1.724e+01,1.519e+01,1.507e+01,1.477e+01,1.431e+01,1.692e+01,1.717e+01,1.689e+01,1.715e+01,1.848e+01,1.454e+01,1.619e+01,1.594e+01,1.654e+01,1.495e+01,1.504e+01,1.520e+01,1.448e+01,1.697e+01,1.438e+01,1.582e+01,1.692e+01,1.677e+01,1.803e+01,1.652e+01,1.381e+01,1.828e+01,1.615e+01,1.508e+01,1.750e+01,1.408e+01,1.526e+01,1.707e+01,1.656e+01,1.400e+01
6.700e-01,7.338e-01,7.981e-01,1.927e+00,2.413e+00,1.532e+00,1.589e+00,1.672e+00,3.129e+00,2.140e+00,3.443e+00,4.025e+00,4.170e+00,3.913e+00,5.665e+00,6.189e+00,5.992e+00,6.176e+00,6.852e+00,6.581e+00,5.541e+00,7.056e+00,8.122e+00,8.636e+00,7.475e+00,1.002e+01,9.594e+00,8.199e+00,8.256e+00,7.852e+00,1.068e+01,8.186e+00,8.175e+00,1.130e+01,1.258e+01,1.107e+01,1.021e+01,1.225e+01,1.051e+01,9.467e+00,1.199e+01,1.082e+01,1.077e+01,1.202e+01,1.405e+01,1.351e+01,1.290e+01,1.451e+01,1.473e+01,1.434e+01,1.348e+01,1.440e+01,1.671e+01,1.526e+01,1.543e+01,1.539e+01,1.547e+01,1.637e+01,1.606e+01,1.667e+01,1.823e+01,1.918e+01,1.682e+01,1.689e+01,1.587e+01,1.597e+01,1.596e+01,1.687e+01,1.606e+01,1.362e+01,1.625e+01,1.452e+01,1.776e+01,1.746e+01,1.714e+01,1.708e+01,1.747e+01,1.594e+01,2.057e+01,1.618e+01,1.695e+01,1.801e+01,1.421e+01,1.590e+01,1.685e+01,1.773e+01,1.365e+01
4.325e-02,1.045e-01,6.758e-01,5.472e-01,8.568e-01,1.026e+00,1.397e+00,1.115e+00,2.680e+00,1.779e+00,2.644e+00,3.400e+00,3.354e+00,4.396e+00,4.177e+00,5.096e+00,5.441e+00,5.370e+00,5.697e+00,4.453e+00,4.709e+00,5.401e+00,6.587e+00,6.942e+00,5.698e+00,8.807e+00,7.831e+00,7.097e+00,6.355e+00,6.673e+00,8.425e+00,6.906e+00,7.455e+00,9.220e+00,1.192e+01,9.906e+00,1.005e+01,8.761e+00,9.339e+00,7.785e+00,1.120e+01,9.636e+00,1.112e+01,1.197e+01,1.187e+01,1.066e+01,1.294e+01,1.297e+01,1.302e+01,1.348e+01,1.331e+01,1.307e+01,1.514e+01,1.389e+01,1.450e+01,1.343e+01,1.508e+01,1.521e+01,1.692e+01,1.715e+01,1.786e+01,1.828e+01,1.646e+01,1.565e+01,1.476e+01,1.459e+01,1.511e+01,1.692e+01,1.518e+01,1.480e+01,1.770e+01,1.359e+01,1.671e+01,1.639e+01,1.535e+01,1.668e+01,1.711e+01,1.436e+01,1.791e+01,1.705e+01,1.610e+01,1.614e+01,1.350e+01,1.287e+01,1.592e+01,1.587e+01,1.301e+01
4.264e-01,5.572e-01,8.136e-01,1.276e+00,2.088e+00,1.431e+00,1.562e+00,1.796e+00,3.212e+00,2.058e+00,3.376e+00,3.777e+00,3.403e+00,4.033e+00,4.374e+00,4.744e+00,6.275e+00,5.601e+00,5.982e+00,6.147e+00,5.259e+00,6.200e+00,5.580e+00,6.137e+00,5.428e+00,8.443e+00,6.676e+00,6.417e+00,5.772e+00,6.470e+00,7.775e+00,8.085e+00,7.925e+00,9.769e+00,1.031e+01,9.457e+00,1.013e+01,9.934e+00,9.563e+00,7.716e+00,1.111e+01,9.126e+00,1.054e+01,9.285e+00,1.219e+01,1.072e+01,1.122e+01,1.167e+01,1.305e+01,1.171e+01,1.212e+01,1.301e+01,1.389e+01,1.437e+01,1.302e+01,1.375e+01,1.446e+01,1.415e+01,1.577e+01,1.503e+01,1.737e+01,1.621e+01,1.482e+01,1.574e+01,1.490e+01,1.486e+01,1.529e+01,1.407e+01,1.522e+01,1.453e+01,1.619e+01,1.322e+01,1.578e+01,1.609e+01,1.486e+01,1.563e+01,1.549e+01,1.504e+01,1.673e+01,1.631e+01,1.469e+01,1.623e+01,1.243e+01,1.366e+01,1.438e+01,1.527e+01,1.164e+01
4.856e-01,4.863e-01,7.405e-01,1.154e+00,1.945e+00,1.339e+00,1.718e+00,1.585e+00,3.164e+00,1.873e+00,3.434e+00,3.642e+00,3.579e+00,4.312e+00,4.972e+00,5.640e+00,6.083e+00,6.743e+00,7.272e+00,6.143e+00,5.125e+00,7.257e+00,6.928e+00,8.108e+00,6.573e+00,9.609e+00,1.010e+01,8.670e+00,8.708e+00,8.777e+00,1.053e+01,8.742e+00,9.487e+00,1.202e+01,1.354e+01,1.158e+01,1.160e+01,1.317e+01,1.230e+01,1.024e+01,1.315e+01,1.128e+01,1.253e+01,1.407e+01,1.511e+01,1.396e+01,1.386e+01,1.540e+01,1.524e+01,1.479e+01,1.399e+01,1.460e+01,1.749e+01,1.491e+01,1.486e+01,1.601e+01,1.519e+01,1.730e+01,1.662e+01,1.826e+01,1.886e+01,2.062e+01,1.694e+01,1.767e+01,1.719e+01,1.701e+01,1.654e+01,1.822e+01,1.663e+01,1.428e+01,1.783e+01,1.499e+01,1.843e+01,1.959e+01,1.777e+01,1.970e+01,1.964e+01,1.697e+01,2.120e+01,1.839e+01,1.639e+01,1.782e+01,1.483e+01,1.729e+01,1.867e+01,1.870e+01,1.538e+01
2.517e-01,8.132e-01,1.177e+00,1.521e+00,2.143e+00,1.834e+00,1.325e+00,1.851e+00,3.252e+00,2.515e+00,2.905e+00,2.944e+00,3.013e+00,2.886e+00,4.361e+00,4.912e+00,5.398e+00,5.602e+00,5.532e+00,5.275e+00,4.871e+00,6.156e+00,5.964e+00,7.521e+00,6.296e+00,8.941e+00,8.346e+00,7.314e+00,7.150e+00,6.590e+00,9.460e+00,9.028e+00,7.906e+00,1.102e+01,1.192e+01,1.088e+01,1.138e+01,1.192e+01,1.025e+01,8.646e+00,1.393e+01,1.003e+01,1.252e+01,1.244e+01,1.462e+01,1.340e+01,1.469e+01,1.424e+01,1.572e+01,1.429e+01,1.382e+01,1.459e+01,1.807e+01,1.569e+01,1.502e+01,1.636e+01,1.576e+01,1.626e+01,1.808e+01,1.699e+01,1.921e+01,1.971e+01,1.797e+01,1.843e+01,1.678e+01,1.754e+01,1.930e+01,1.783e+01,1.668e+01,1.701e+01,1.896e+01,1.442e+01,1.992e+01,1.993e+01,1.801e+01,1.975e+01,1.843e+01,1.615e+01,2.030e+01,1.885e+01,1.767e+01,1.805e+01,1.528e+01,1.731e+01,1.777e+01,1.815e+01,1.516e+01
3.651e-01,3.301e-01,8.349e-01,8.533e-01,1.417e+00,1.206e+00,6.412e-01,9.708e-01,1.712e+00,1.275e+00,2.591e+00,2.321e+00,2.522e+00,3.224e+00,3.322e+00,3.638e+00,4.320e+00,3.909e+00,5.136e+00,3.794e+00,3.879e+00,5.564e+00,6.131e+00,6.819e+00,5.269e+00,8.139e+00,7.139e+00,5.887e+00,5.997e+00,6.531e+00,8.270e+00,7.605e+00,6.907e+00,8.708e+00,1.151e+01,9.794e+00,1.013e+01,9.597e+00,9.322e+00,7.817e+00,1.124e+01,9.517e+00,1.083e+01,1.072e+01,1.302e+01,1.100e+01,1.188e+01,1.337e+01,1.306e+01,1.341e+01,1.276e+01,1.250e+01,1.526e+01,1.417e+01,1.376e+01,1.437e+01,1.414e+01,1.361e+01,1.694e+01,1.677e+01,1.810e+01,1.723e+01,1.754e+01,1.730e+01,1.549e+01,1.616e+01,1.850e+01,1.666e+01,1.522e+01,1.546e+01,1.710e+01,1.428e+01,1.713e+01,1.541e+01,1.723e+01,1.542e+01,1.743e+01,1.506e+01,1.945e+01,1.576e+01,1.731e+01,1.578e+01,1.461e+01,1.575e+01,1.592e+01,1.774e+01,1.293e+01
3.279e-01,6.489e-01,7.290e-01,1.142e+00,1.876e+00,1.352e+00,1.677e+00,1.519e+00,2.745e+00,1.665e+00,2.920e+00,3.105e+00,3.048e+00,2.842e+00,4.134e+00,4.390e+00,4.946e+00,4.875e+00,5.012e+00,4.873e+00,4.154e+00,5.252e+00,6.826e+00,7.568e+00,5.585e+00,7.736e+00,7.211e+00,6.615e+00,6.563e+00,7.204e+00,9.436e+00,8.200e+00,8.061e+00,1.036e+01,1.100e+01,9.892e+00,9.334e+00,1.078e+01,9.698e+00,9.066e+00,1.195e+01,9.830e+00,1.121e+01,1.083e+01,1.228e+01,1.130e+01,1.208e+01,1.331e+01,1.386e+01,1.316e+01,1.204e+01,1.312e+01,1.531e+01,1.324e+01,1.397e+01,1.456e+01,1.540e+01,1.427e+01,1.560e+01,1.631e+01,1.797e+01,1.825e+01,1.697e+01,1.585e+01,1.562e+01,1.650e+01,1.730e+01,1.727e+01,1.526e+01,1.536e+01,1.672e+01,1.412e+01,1.735e+01,1.815e+01,1.811e+01,1.652e+01,1.620e+01,1.470e+01,1.951e+01,1.703e+01,1.644e+01,1.597e+01,1.458e+01,1.474e+01,1.682e+01,1.683e+01,1.373e+01
6.318e-01,6.628e-01,1.181e+00,1.589e+00,2.768e+00,2.016e+00,2.216e+00,2.050e+00,3.209e+00,2.073e+00,3.498e+00,3.178e+00,3.047e+00,3.276e+00,4.739e+00,4.244e+00,5.859e+00,6.179e+00,5.600e+00,4.806e+00,4.685e+00,6.029e+00,5.765e+00,6.890e+00,6.026e+00,7.969e+00,6.273e+00,6.164e+00,6.710e+00,7.362e+00,9.128e+00,9.113e+00,8.771e+00,9.828e+00,1.196e+01,1.084e+01,1.093e+01,1.152e+01,1.116e+01,9.429e+00,1.226e+01,9.820e+00,1.060e+01,1.086e+01,1.200e+01,1.150e+01,1.069e+01,1.358e+01,1.447e+01,1.405e+01,1.343e+01,1.262e+01,1.515e+01,1.566e+01,1.368e+01,1.483e+01,1.580e+01,1.629e+01,1.656e+01,1.650e+01,1.781e+01,1.813e+01,1.707e+01,1.851e+01,1.700e+01,1.720e+01,1.710e+01,1.833e+01,1.726e+01,1.646e+01,1.837e+01,1.449e+01,1.918e+01,1.951e+01,1.826e+01,1.739e+01,1.751e+01,1.579e+01,2.077e+01,1.834e+01,1.743e+01,1.779e+01,1.534e+01,1.605e+01,1.854e+01,1.740e+01,1.611e+01
3.173e-01,1.204e-01,4.476e-01,1.042e+00,1.592e+00,1.019e+00,2.059e+00,1.747e+00,3.435e+00,2.216e+00,3.261e+00,4.028e+00,3.614e+00,4.410e+00,4.692e+00,5.728e+00,6.253e+00,6.081e+00,6.572e+00,6.178e+00,5.416e+00,5.855e+00,6.550e+00,6.777e+00,6.639e+00,8.693e+00,8.219e+00,7.756e+00,8.505e+00,7.235e+00,9.513e+00,8.693e+00,9.080e+00,1.134e+01,1.268e+01,1.067e+01,1.108e+01,1.077e+01,1.048e+01,9.198e+00,1.216e+01,1.119e+01,1.177e+01,1.173e+01,1.458e+01,1.245e+01,1.318e+01,1.493e+01,1.483e+01,1.320e+01,1.333e+01,1.420e+01,1.601e+01,1.538e+01,1.501e+01,1.518e+01,1.646e+01,1.474e+01,1.657e+01,1.557e+01,1.925e+01,1.871e+01,1.768e+01,1.788e+01,1.617e+01,1.726e+01,1.886e+01,1.853e+01,1.741e+01,1.697e+01,1.904e+01,1.539e+01,1.817e+01,1.938e+01,1.931e+01,1.911e+01,1.783e+01,1.591e+01,2.090e+01,1.854e+01,1.825e+01,1.896e+01,1.573e+01,1.717e+01,1.659e+01,1.831e+01,1.628e+01
4.238e-01,2.736e-01,6.281e-01,8.728e-01,1.982e+00,1.249e+00,1.366e+00,1.493e+00,1.865e+00,1.221e+00,2.379e+00,3.017e+00,2.616e+00,3.494e+00,4.501e+00,4.237e+00,5.205e+00,5.884e+00,5.433e+00,4.743e+00,4.845e+00,6.513e+00,6.428e+00,7.985e+00,5.773e+00,8.466e+00,8.650e+00,7.631e+00,6.525e+00,6.860e+00,9.194e+00,6.774e+00,6.908e+00,8.644e+00,1.125e+01,9.431e+00,8.996e+00,9.756e+00,9.819e+00,8.779e+00,1.079e+01,9.604e+00,1.080e+01,1.146e+01,1.208e+01,1.150e+01,1.184e+01,1.281e+01,1.435e+01,1.356e+01,1.336e+01,1.369e+01,1.616e+01,1.493e+01,1.415e+01,1.548e+01,1.525e+01,1.617e+01,1.815e+01,1.759e+01,1.847e+01,1.873e+01,1.691e+01,1.661e+01,1.856e+01,1.650e+01,1.903e+01,1.926e+01,1.742e+01,1.727e+01,1.919e+01,1.517e+01,1.988e+01,1.827e+01,2.107e+01,2.014e+01,2.012e+01,1.772e+01,2.093e+01,1.829e+01,1.809e+01,1.742e+01,1.396e+01,1.800e+01,1.822e+01,1.940e+01,1.377e+01
6.782e-01,3.252e-01,6.805e-01,1.605e+00,2.112e+00,1.238e+00,8.903e-01,1.480e+00,2.314e+00,1.825e+00,2.515e+00,3.245e+00,3.437e+00,3.434e+00,4.865e+00,4.851e+00,5.417e+00,5.895e+00,5.721e+00,5.186e+00,4.883e+00,6.124e+00,5.848e+00,7.504e+00,6.090e+00,9.115e+00,9.290e+00,7.850e+00,8.157e+00,6.455e+00,9.349e+00,7.945e+00,7.244e+00,9.822e+00,1.137e+01,9.896e+00,1.083e+01,1.071e+01,9.355e+00,8.745e+00,1.110e+01,1.024e+01,1.102e+01,1.107e+01,1.348e+01,1.160e+01,1.210e+01,1.210e+01,1.316e+01,1.192e+01,1.252e+01,1.221e+01,1.497e+01,1.438e+01,1.291e+01,1.405e+01,1.348e+01,1.554e+01,1.576e+01,1.609e+01,1.794e+01,1.834e+01,1.657e+01,1.800e+01,1.700e+01,1.675e+01,1.882e+01,1.988e+01,1.848e+01,1.681e+01,2.053e+01,1.526e+01,1.990e+01,2.042e+01,2.132e+01,1.960e+01,1.981e+01,1.797e+01,2.030e+01,1.823e+01,1.646e+01,1.923e+01,1.594e+01,1.828e+01,1.625e+01,1.878e+01,1.545e+01
6.392e-01,3.527e-01,1.012e+00,1.385e+00,2.293e+00,1.591e+00,1.553e+00,1.707e+00,2.423e+00,2.142e+00,2.918e+00,3.401e+00,3.355e+00,4.264e+00,4.687e+00,4.146e+00,5.759e+00,6.255e+00,6.272e+00,5.864e+00,5.097e+00,7.608e+00,5.687e+00,7.683e+00,5.915e+00,8.807e+00,7.868e+00,6.909e+00,6.568e+00,7.193e+00,9.278e+00,8.752e+00,7.820e+00,9.854e+00,1.096e+01,1.015e+01,1.113e+01,1.001e+01,1.079e+01,9.401e+00,1.190e+01,1.003e+01,1.156e+01,1.067e+01,1.375e+01,1.201e+01,1.320e+01,1.278e+01,1.460e+01,1.372e+01,1.269e+01,1.331e+01,1.583e+01,1.463e+01,1.320e+01,1.384e+01,1.416e+01,1.507e+01,1.755e+01,1.571e+01,1.786e+01,1.743e+01,1.493e+01,1.670e+01,1.572e+01,1.686e+01,1.710e+01,1.960e+01,1.671e+01,1.632e+01,2.002e+01,1.560e+01,1.965e+01,1.994e+01,1.947e+01,1.928e+01,1.943e+01,1.701e+01,1.989e+01,1.743e+01,1.620e+01,1.784e+01,1.504e+01,1.782e+01,1.598e+01,1.813e+01,1.576e+01
1.938e-01,4.405e-01,7.981e-01,7.867e-01,1.100e+00,1.156e+00,1.071e+00,9.279e-01,2.271e+00,1.427e+00,2.412e+00,1.993e+00,2.384e+00,2.030e+00,3.206e+00,3.948e+00,4.547e+00,5.230e+00,5.175e+00,3.697e+00,3.889e+00,5.408e+00,5.901e+00,6.970e+00,4.769e+00,7.208e+00,7.291e+00,6.447e+00,5.311e+00,6.612e+00,8.543e+00,7.643e+00,7.366e+00,9.354e+00,9.499e+00,9.848e+00,8.445e+00,9.541e+00,8.591e+00,7.414e+00,1.083e+01,9.051e+00,1.023e+01,1.100e+01,1.241e+01,9.944e+00,1.098e+01,1.187e+01,1.219e+01,1.304e+01,1.245e+01,1.213e+01,1.427e+01,1.251e+01,1.309e+01,1.508e+01,1.428e+01,1.571e+01,1.608e+01,1.564e+01,1.663e+01,1.613e+01,1.540e+01,1.647e+01,1.477e+01,1.525e+01,1.855e+01,1.627e+01,1.654e+01,1.731e+01,1.973e+01,1.568e+01,1.995e+01,2.054e+01,1.807e+01,1.808e+01,1.824e+01,1.596e+01,1.916e+01,1.955e+01,1.710e+01,1.707e+01,1.614e+01,1.674e+01,1.703e+01,1.945e+01,1.503e+01
6.798e-02,2.112e-01,3.324e-01,5.004e-01,7.612e-01,6.674e-01,1.253e+00,9.168e-01,2.306e+00,1.284e+00,2.051e+00,2.041e+00,2.063e+00,2.547e+00,2.982e+00,4.841e+00,4.182e+00,4.894e+00,6.016e+00,4.113e+00,3.753e+00,5.152e+00,5.697e+00,6.038e+00,5.101e+00,7.207e+00,7.874e+00,5.864e+00,6.526e+00,6.900e+00,7.484e+00,6.720e+00,6.610e+00,9.399e+00,1.174e+01,8.768e+00,9.013e+00,1.015e+01,8.995e+00,7.558e+00,1.002e+01,8.633e+00,1.050e+01,1.079e+01,1.054e+01,9.690e+00,1.013e+01,1.107e+01,1.231e+01,1.144e+01,1.168e+01,1.156e+01,1.326e+01,1.262e+01,1.178e+01,1.273e+01,1.302e+01,1.320e+01,1.468e+01,1.355e+01,1.581e+01,1.591e+01,1.502e+01,1.611e+01,1.382e+01,1.495e+01,1.680e+01,1.670e+01,1.551e+01,1.611e+01,1.730e+01,1.417e+01,1.886e+01,1.910e+01,1.781e+01,1.820e+01,1.753e+01,1.596e+01,1.882e+01,1.695e+01,1.664e+01,1.806e+01,1.586e+01,1.627e+01,1.743e+01,1.796e+01,1.631e+01
6.488e-01,4.449e-01,5.940e-01,1.241e+00,1.708e+00,1.067e+00,1.478e+00,1.063e+00,2.251e+00,1.296e+00,2.788e+00,2.472e+00,2.996e+00,2.663e+00,4.139e+00,4.550e+00,5.248e+00,5.728e+00,6.106e+00,5.098e+00,4.277e+00,6.286e+00,5.862e+00,7.369e+00,5.244e+00,7.845e+00,7.261e+00,6.193e+00,5.838e+00,7.151e+00,8.853e+00,8.094e+00,7.902e+00,1.108e+01,1.119e+01,9.526e+00,9.369e+00,1.178e+01,9.621e+00,8.557e+00,1.170e+01,1.064e+01,1.052e+01,1.157e+01,1.315e+01,1.115e+01,1.202e+01,1.432e+01,1.273e+01,1.442e+01,1.297e+01,1.390e+01,1.685e+01,1.425e+01,1.363e+01,1.447e+01,1.522e+01,1.671e+01,1.618e+01,1.658e+01,1.803e+01,1.845e+01,1.638e+01,1.714e+01,1.613e+01,1.848e+01,1.766e+01,1.954e+01,1.804e+01,1.657e+01,1.995e+01,1.659e+01,1.946e+01,2.235e+01,2.050e+01,2.051e+01,1.937e+01,1.684e+01,2.295e+01,2.015e+01,1.818e+01,1.992e+01,1.596e+01,1.869e+01,1.907e+01,1.989e+01,1.696e+01
4.633e-01,2.637e-01,7.473e-01,9.115e-01,1.814e+00,1.314e+00,1.413e+00,1.280e+00,1.995e+00,1.177e+00,2.217e+00,2.587e+00,2.788e+00,3.369e+00,3.769e+00,3.988e+00,4.785e+00,4.858e+00,5.140e+00,4.451e+00,4.654e+00,5.560e+00,6.083e+00,6.877e+00,4.835e+00,7.527e+00,6.793e+00,6.093e+00,5.671e+00,6.950e+00,7.607e+00,6.768e+00,6.777e+00,9.701e+00,1.133e+01,9.357e+00,9.571e+00,9.841e+00,1.055e+01,8.790e+00,1.202e+01,1.096e+01,1.072e+01,1.188e+01,1.306e+01,1.149e+01,1.179e+01,1.311e+01,1.274e+01,1.290e+01,1.290e+01,1.346e+01,1.502e+01,1.383e+01,1.307e+01,1.432e+01,1.475e+01,1.447e+01,1.622e+01,1.472e+01,1.786e+01,1.773e+01,1.699e+01,1.712e+01,1.592e+01,1.622e+01,1.626e+01,1.763e+01,1.731e+01,1.517e+01,1.811e+01,1.521e+01,1.959e+01,1.992e+01,1.984e+01,1.929e+01,1.815e+01,1.595e+01,2.123e+01,1.862e+01,1.726e+01,1.810e+01,1.540e+01,1.667e+01,1.832e+01,1.801e+01,1.479e+01
4.619e-01,2.705e-01,5.820e-01,9.581e-01,1.668e+00,1.056e+00,1.393e+00,1.265e+00,1.880e+00,1.350e+00,2.688e+00,3.128e+00,3.037e+00,3.212e+00,4.295e+00,4.437e+00,5.811e+00,6.135e+00,6.488e+00,5.513e+00,5.803e+00,7.286e+00,7.360e+00,8.466e+00,5.759e+00,9.475e+00,9.090e+00,7.526e+00,7.083e+00,8.268e+00,1.057e+01,8.614e+00,8.182e+00,1.059e+01,1.187e+01,1.163e+01,1.081e+01,1.091e+01,1.131e+01,9.305e+00,1.186e+01,1.016e+01,1.212e+01,1.225e+01,1.261e+01,1.275e+01,1.185e+01,1.303e+01,1.514e+01,1.493e+01,1.350e+01,1.379e+01,1.668e+01,1.428e+01,1.464e+01,1.451e+01,1.536e+01,1.642e+01,1.658e+01,1.785e+01,1.812e+01,1.917e+01,1.828e+01,1.788e+01,1.721e+01,1.734e+01,1.928e+01,1.923e+01,1.756e+01,1.701e+01,2.020e+01,1.654e+01,2.098e+01,2.243e+01,2.050e+01,2.122e+01,2.131e+01,1.793e+01,2.326e+01,2.158e+01,2.033e+01,1.972e+01,1.841e+01,1.977e+01,1.865e+01,2.020e+01,1.743e+01
6.694e-01,4.988e-01,1.013e+00,1.642e+00,2.371e+00,1.667e+00,1.335e+00,1.587e+00,2.425e+00,1.928e+00,3.057e+00,3.715e+00,3.712e+00,3.716e+00,5.195e+00,4.449e+00,6.053e+00,6.399e+00,5.821e+00,5.324e+00,4.970e+00,6.803e+00,5.867e+00,7.533e+00,6.046e+00,8.693e+00,7.904e+00,7.133e+00,6.662e+00,6.463e+00,9.738e+00,8.811e+00,8.280e+00,9.337e+00,1.039e+01,1.012e+01,1.017e+01,1.008e+01,9.949e+00,9.459e+00,1.166e+01,1.031e+01,1.104e+01,1.095e+01,1.456e+01,1.291e+01,1.258e+01,1.355e+01,1.466e+01,1.428e+01,1.352e+01,1.318e+01,1.551e+01,1.455e+01,1.311e+01,1.469e+01,1.432e+01,1.567e+01,1.638e+01,1.600e+01,1.754e+01,1.741e+01,1.603e+01,1.652e+01,1.610e+01,1.667e+01,1.774e+01,1.731e+01,1.793e+01,1.615e+01,1.900e+01,1.640e+01,1.967e+01,2.091e+01,2.062e+01,2.045e+01,1.979e+01,1.825e+01,2.211e+01,1.915e+01,1.841e+01,1.859e+01,1.651e+01,1.873e+01,1.687e+01,2.036e+01,1.557e+01
6.920e-02,5.253e-01,3.835e-01,9.465e-01,7.790e-01,7.070e-01,1.263e+00,8.731e-01,2.443e+00,1.587e+00,2.018e+00,2.629e+00,2.695e+00,2.029e+00,3.258e+00,3.515e+00,3.699e+00,4.681e+00,3.790e+00,4.111e+00,4.096e+00,4.654e+00,6.177e+00,6.215e+00,5.164e+00,7.188e+00,8.107e+00,6.380e+00,7.109e+00,6.948e+00,8.578e+00,7.864e+00,7.056e+00,9.832e+00,1.117e+01,8.910e+00,9.770e+00,9.106e+00,8.909e+00,7.816e+00,1.174e+01,1.005e+01,1.033e+01,1.146e+01,1.416e+01,1.175e+01,1.322e+01,1.344e+01,1.471e+01,1.315e+01,1.419e+01,1.452e+01,1.564e+01,1.484e+01,1.475e+01,1.444e+01,1.669e+01,1.624e+01,1.681e+01,1.621e+01,1.745e+01,1.904e+01,1.673e+01,1.747e+01,1.662e+01,1.683e+01,1.851e+01,1.929e+01,1.728e+01,1.669e+01,2.038e+01,1.581e+01,2.080e+01,2.120e+01,2.112e+01,1.966e+01,2.048e+01,1.981e+01,2.367e+01,1.930e+01,1.915e+01,2.116e+01,1.840e+01,1.936e+01,1.836e+01,2.172e+01,1.760e+01
2.169e-02,3.851e-01,5.305e-01,8.466e-01,7.763e-01,8.663e-01,1.237e+00,1.022e+00,2.858e+00,1.923e+00,2.958e+00,3.113e+00,2.909e+00,2.881e+00,3.725e+00,4.712e+00,4.799e+00,5.694e+00,5.906e+00,4.621e+00,4.203e+00,5.415e+00,5.995e+00,5.978e+00,5.992e+00,7.135e+00,7.972e+00,6.434e+00,6.901e+00,6.334e+00,7.642e+00,7.253e+00,6.979e+00,7.732e+00,9.531e+00,7.871e+00,8.868e+00,8.753e+00,7.980e+00,6.664e+00,8.421e+00,7.943e+00,8.632e+00,8.836e+00,1.055e+01,9.465e+00,1.042e+01,1.082e+01,1.132e+01,1.094e+01,1.168e+01,1.160e+01,1.233e+01,1.260e+01,1.267e+01,1.177e+01,1.341e+01,1.510e+01,1.519e+01,1.508e+01,1.606e+01,1.835e+01,1.580e+01,1.587e+01,1.546e+01,1.600e+01,1.744e+01,1.856e+01,1.642e+01,1.646e+01,1.928e+01,1.473e+01,1.949e+01,2.168e+01,2.017e+01,1.988e+01,2.150e+01,1.929e+01,2.180e+01,1.923e+01,1.907e+01,1.985e+01,1.636e+01,2.029e+01,1.825e+01,2.004e+01,1.731e+01
5.919e-01,4.885e-01,7.027e-01,1.235e+00,1.412e+00,1.045e+00,1.313e+00,9.294e-01,2.490e+00,1.326e+00,2.741e+00,2.663e+00,3.348e+00,3.059e+00,4.046e+00,4.601e+00,5.585e+00,5.820e+00,5.975e+00,4.775e+00,4.666e+00,5.902e+00,6.341e+00,6.969e+00,5.236e+00,8.651e+00,7.942e+00,6.451e+00,6.404e+00,7.557e+00,8.640e+00,8.706e+00,7.698e+00,1.077e+01,1.166e+01,9.896e+00,9.778e+00,1.130e+01,1.001e+01,9.167e+00,1.294e+01,1.058e+01,1.150e+01,1.253e+01,1.350e+01,1.272e+01,1.263e+01,1.523e+01,1.418e+01,1.433e+01,1.371e+01,1.403e+01,1.604e+01,1.488e+01,1.306e+01,1.546e+01,1.523e+01,1.638e+01,1.671e+01,1.727e+01,1.925e+01,1.929e+01,1.871e+01,1.875e+01,1.663e+01,1.833e+01,1.762e+01,1.846e+01,1.909e+01,1.748e+01,2.059e+01,1.755e+01,2.126e+01,2.382e+01,2.169e+01,2.156e+01,2.133e+01,1.993e+01,2.513e+01,2.203e+01,1.961e+01,2.144e+01,1.910e+01,1.941e+01,1.935e+01,2.145e+01,1.881e+01
3.561e-01,2.084e-01,9.147e-01,1.056e+00,1.307e+00,1.235e+00,1.086e+00,1.180e+00,2.381e+00,1.837e+00,2.367e+00,2.451e+00,2.820e+00,3.242e+00,3.493e+00,4.314e+00,5.403e+00,5.358e+00,5.839e+00,4.408e+00,4.942e+00,5.489e+00,5.811e+00,6.641e+00,5.565e+00,8.132e+00,7.038e+00,5.997e+00,6.439e+00,6.438e+00,8.218e+00,8.813e+00,7.306e+00,1.025e+01,1.093e+01,1.027e+01,1.033e+01,9.568e+00,9.110e+00,7.607e+00,1.140e+01,9.204e+00,1.142e+01,1.147e+01,1.211e+01,1.108e+01,1.188e+01,1.375e+01,1.381e+01,1.415e+01,1.375e+01,1.368e+01,1.656e+01,1.472e+01,1.398e+01,1.284e+01,1.548e+01,1.517e+01,1.580e+01,1.511e+01,1.637e+01,1.676e+01,1.701e+01,1.664e+01,1.496e+01,1.552e+01,1.710e+01,1.658e+01,1.537e+01,1.553e+01,1.818e+01,1.471e+01,1.956e+01,2.015e+01,1.808e+01,2.019e+01,2.049e+01,1.762e+01,2.224e+01,1.964e+01,1.999e+01,1.954e+01,1.846e+01,1.937e+01,1.874e+01,2.132e+01,1.930e+01
4.549e-01,2.495e-01,7.096e-01,1.280e+00,1.835e+00,1.318e+00,2.143e+00,1.733e+00,3.438e+00,2.238e+00,3.545e+00,3.371e+00,3.321e+00,3.629e+00,4.805e+00,5.031e+00,5.661e+00,6.153e+00,6.038e+00,4.916e+00,5.371e+00,5.454e+00,6.334e+00,6.638e+00,6.429e+00,8.019e+00,7.550e+00,7.170e+00,7.701e+00,6.788e+00,8.471e+00,8.161e+00,7.384e+00,1.002e+01,1.134e+01,9.888e+00,1.046e+01,1.102e+01,1.006e+01,8.656e+00,1.242e+01,1.103e+01,1.034e+01,1.191e+01,1.299e+01,1.294e+01,1.286e+01,1.357e+01,1.344e+01,1.322e+01,1.454e+01,1.428e+01,1.513e+01,1.476e+01,1.315e+01,1.458e+01,1.528e+01,1.575e+01,1.607e+01,1.531e+01,1.709e+01,1.965e+01,1.621e+01,1.715e+01,1.738e+01,1.578e+01,1.780e+01,1.901e+01,1.745e+01,1.610e+01,1.966e+01,1.587e+01,2.051e+01,1.989e+01,2.107e+01,2.039e+01,2.151e+01,1.892e+01,2.380e+01,2.065e+01,2.139e+01,2.174e+01,1.731e+01,2.167e+01,1.971e+01,2.183e+01,1.840e+01
7.432e-02,1.597e-01,8.384e-01,8.301e-01,1.379e+00,1.359e+00,1.458e+00,1.550e+00,2.976e+00,2.443e+00,3.319e+00,3.632e+00,3.187e+00,4.706e+00,4.503e+00,5.495e+00,5.023e+00,5.519e+00,6.951e+00,5.356e+00,5.138e+00,5.879e+00,6.522e+00,6.758e+00,6.845e+00,8.599e+00,7.486e+00,7.564e+00,6.933e+00,7.289e+00,8.653e+00,8.078e+00,8.507e+00,1.011e+01,1.045e+01,1.006e+01,1.067e+01,1.088e+01,1.078e+01,8.660e+00,1.243e+01,1.021e+01,1.074e+01,1.074e+01,1.445e+01,1.303e+01,1.417e+01,1.532e+01,1.485e+01,1.437e+01,1.316e+01,1.345e+01,1.489e+01,1.513e+01,1.368e+01,1.546e+01,1.461e+01,1.433e+01,1.626e+01,1.675e+01,1.831e+01,1.901e+01,1.612e+01,1.756e+01,1.643e+01,1.799e+01,1.773e+01,1.791e+01,1.835e+01,1.666e+01,2.073e+01,1.712e+01,2.058e+01,2.173e+01,2.042e+01,2.083e+01,2.133e+01,1.997e+01,2.315e+01,2.149e+01,2.097e+01,2.328e+01,1.900e+01,2.270e+01,2.032e+01,2.197e+01,1.916e+01
2.992e-01,3.148e-01,5.320e-01,7.883e-01,1.789e+00,1.135e+00,1.300e+00,1.424e+00,1.851e+00,1.174e+00,2.069e+00,2.273e+00,2.062e+00,2.536e+00,3.287e+00,3.526e+00,4.151e+00,4.125e+00,4.195e+00,4.395e+00,4.314e+00,4.989e+00,5.357e+00,6.401e+00,4.951e+00,7.316e+00,6.429e+00,5.897e+00,5.870e+00,6.020e+00,7.622e+00,7.170e+00,6.646e+00,9.106e+00,1.008e+01,8.540e+00,8.697e+00,9.395e+00,9.283e+00,8.242e+00,1.127e+01,9.091e+00,9.598e+00,1.006e+01,1.238e+01,1.137e+01,1.040e+01,1.129e+01,1.131e+01,1.151e+01,1.146e+01,1.122e+01,1.308e+01,1.198e+01,1.067e+01,1.305e+01,1.356e+01,1.254e+01,1.291e+01,1.373e+01,1.588e+01,1.672e+01,1.352e+01,1.587e+01,1.420e+01,1.468e+01,1.689e+01,1.694e+01,1.731e+01,1.431e+01,1.701e+01,1.377e+01,1.806e+01,1.808e+01,1.970e+01,1.824e+01,1.900e+01,1.794e+01,2.097e+01,1.796e+01,1.758e+01,1.944e+01,1.730e+01,1.838e+01,1.827e+01,1.883e+01,1.705e+01
5.885e-01,7.747e-01,1.092e+00,1.573e+00,1.948e+00,1.568e+00,1.172e+00,1.169e+00,2.226e+00,1.811e+00,2.912e+00,2.209e+00,2.996e+00,2.633e+00,4.104e+00,4.233e+00,5.131e+00,5.059e+00,5.559e+00,5.211e+00,4.726e+00,6.175e+00,5.894e+00,7.576e+00,5.590e+00,8.453e+00,6.920e+00,6.111e+00,5.496e+00,5.744e+00,8.337e+00,7.395e+00,6.085e+00,9.021e+00,9.385e+00,8.420e+00,9.478e+00,9.653e+00,9.164e+00,7.552e+00,1.066e+01,8.266e+00,9.932e+00,9.645e+00,1.194e+01,1.099e+01,1.120e+01,1.055e+01,1.187e+01,1.125e+01,1.052e+01,1.119e+01,1.371e+01,1.265e+01,1.097e+01,1.373e+01,1.246e+01,1.353e+01,1.452e+01,1.471e+01,1.588e+01,1.445e+01,1.620e+01,1.656e+01,1.363e+01,1.539e+01,1.710e+01,1.618e+01,1.598e+01,1.541e+01,1.876e+01,1.455e+01,1.912e+01,2.073e+01,1.882e+01,1.798e+01,1.833e+01,1.756e+01,1.975e+01,1.978e+01,1.771e+01,1.878e+01,1.923e+01,2.085e+01,1.880e+01,2.177e+01,1.806e+01
1.937e-01,1.538e-01,7.590e-01,7.508e-01,9.811e-01,1.033e+00,1.111e+00,1.066e+00,2.384e+00,1.916e+00,2.429e+00,2.944e+00,3.070e+00,3.690e+00,3.653e+00,4.248e+00,4.836e+00,5.141e+00,5.776e+00,4.434e+00,4.488e+00,6.168e+00,6.336e+00,7.091e+00,5.681e+00,8.658e+00,9.393e+00,7.405e+00,7.442e+00,7.854e+00,9.706e+00,8.850e+00,8.256e+00,1.056e+01,1.183e+01,1.092e+01,1.122e+01,1.067e+01,1.014e+01,8.614e+00,1.149e+01,1.032e+01,1.191e+01,1.131e+01,1.317e+01,1.187e+01,1.380e+01,1.351e+01,1.394e+01,1.354e+01,1.303e+01,1.379e+01,1.368e+01,1.255e+01,1.396e+01,1.375e+01,1.405e+01,1.475e+01,1.588e+01,1.654e+01,1.779e+01,1.848e+01,1.670e+01,1.638e+01,1.599e+01,1.661e+01,1.933e+01,1.893e+01,1.747e+01,1.675e+01,2.021e+01,1.632e+01,1.921e+01,2.170e+01,1.942e+01,2.077e+01,2.136e+01,1.877e+01,2.256e+01,2.043e+01,1.986e+01,2.070e+01,1.918e+01,2.199e+01,1.924e+01,2.317e+01,2.090e+01
1.795e-01,6.117e-01,5.798e-01,1.175e+00,1.306e+00,1.076e+00,1.528e+00,1.164e+00,2.611e+00,1.823e+00,3.194e+00,3.231e+00,2.752e+00,2.583e+00,4.129e+00,3.566e+00,4.095e+00,5.142e+00,5.172e+00,4.507e+00,4.652e+00,5.603e+00,6.224e+00,6.386e+00,5.402e+00,7.102e+00,7.075e+00,6.232e+00,5.387e+00,6.280e+00,8.112e+00,6.417e+00,6.717e+00,8.955e+00,9.839e+00,9.124e+00,8.693e+00,9.655e+00,9.399e+00,7.343e+00,1.104e+01,9.061e+00,9.864e+00,1.120e+01,1.298e+01,1.173e+01,1.282e+01,1.340e+01,1.430e+01,1.449e+01,1.343e+01,1.377e+01,1.592e+01,1.346e+01,1.337e+01,1.464e+01,1.599e+01,1.485e+01,1.877e+01,1.632e+01,1.842e+01,1.843e+01,1.699e+01,1.681e+01,1.620e+01,1.854e+01,1.943e+01,1.922e+01,1.762e+01,1.701e+01,2.066e+01,1.710e+01,2.099e+01,2.182e+01,2.140e+01,1.983e+01,2.092e+01,1.878e+01,2.581e+01,2.170e+01,2.111e+01,2.284e+01,1.937e+01,2.228e+01,2.065e+01,2.489e+01,1.918e+01
4.014e-02,4.242e-01,7.633e-01,8.946e-01,9.590e-01,1.166e+00,1.428e+00,1.060e+00,2.843e+00,2.184e+00,3.349e+00,3.599e+00,3.515e+00,3.585e+00,4.637e+00,5.632e+00,5.598e+00,6.416e+00,6.550e+00,5.405e+00,4.849e+00,6.544e+00,6.293e+00,6.553e+00,6.558e+00,8.636e+00,8.624e+00,7.503e+00,6.988e+00,7.596e+00,9.780e+00,8.806e+00,8.878e+00,1.087e+01,1.166e+01,1.104e+01,1.108e+01,1.184e+01,1.177e+01,8.916e+00,1.176e+01,9.997e+00,1.157e+01,1.220e+01,1.518e+01,1.255e+01,1.429e+01,1.466e+01,1.563e+01,1.545e+01,1.471e+01,1.516e+01,1.770e+01,1.517e+01,1.553e+01,1.559e+01,1.679e+01,1.795e+01,1.862e+01,1.778e+01,1.845e+01,2.066e+01,1.742e+01,1.809e+01,1.800e+01,1.820e+01,1.841e+01,1.861e+01,1.707e+01,1.701e+01,2.106e+01,1.582e+01,1.944e+01,2.091e+01,2.035e+01,2.244e+01,2.017e+01,1.688e+01,2.336e+01,2.147e+01,1.911e+01,2.174e+01,1.786e+01,2.244e+01,2.113e+01,2.470e+01,1.970e+01
6.082e-01,4.629e-01,1.135e+00,1.631e+00,2.539e+00,1.914e+00,2.208e+00,2.139e+00,3.955e+00,2.487e+00,3.571e+00,3.928e+00,4.254e+00,4.105e+00,5.296e+00,5.345e+00,6.498e+00,6.417e+00,6.291e+00,5.128e+00,5.491e+00,6.135e+00,7.092e+00,8.054e+00,6.067e+00,9.342e+00,8.452e+00,7.461e+00,7.956e+00,7.944e+00,9.406e+00,8.697e+00,8.597e+00,1.055e+01,1.188e+01,1.114e+01,1.165e+01,1.099e+01,1.036e+01,9.816e+00,1.308e+01,1.069e+01,1.095e+01,1.312e+01,1.314e+01,1.281e+01,1.293e+01,1.351e+01,1.498e+01,1.397e+01,1.455e+01,1.475e+01,1.685e+01,1.598e+01,1.546e+01,1.575e+01,1.690e+01,1.718e+01,1.722e+01,1.770e+01,2.027e+01,2.044e+01,2.052e+01,1.968e+01,1.787e+01,1.810e+01,2.028e+01,2.131e+01,1.917e+01,1.942e+01,2.146e+01,1.596e+01,2.247e+01,2.361e+01,2.156e+01,2.271e+01,2.147e+01,2.023e+01,2.464e+01,2.290e+01,2.149e+01,2.174e+01,2.026e+01,2.264e+01,2.199e+01,2.430e+01,2.204e+01
