3.733e-02,5.295e-01,3.999e-01,4.624e-01,9.985e-01,7.036e-02,4.908e-01,2.716e-01,7.297e-02,1.051e-01,3.957e-01,3.357e-01,8.978e-01,4.012e-01,4.873e-01,5.385e-01,1.859e-01,4.306e-01,6.564e-01,4.992e-01,3.675e-01,7.234e-01,7.336e-01,4.286e-01,4.327e-01,7.758e-01,4.663e-01,2.292e-01,8.332e-01,3.495e-01,7.180e-01,7.915e-01,7.002e-01,7.018e-01,8.425e-01,8.345e-01,2.950e-01,5.711e-01,9.278e-02,6.706e-01,6.870e-01,1.565e-01,1.445e-01,6.702e-01,5.635e-02,3.974e-02,1.897e-01,6.095e-01,4.733e-01,7.792e-01,7.522e-01,8.489e-01,7.082e-01,9.423e-01,5.585e-01,3.933e-01,3.813e-01,4.395e-01,5.380e-01,7.940e-01,3.013e-01,5.089e-01,3.597e-01,8.748e-01,3.388e-01,8.167e-01,5.804e-01,9.526e-01,6.647e-01,3.023e-04,7.597e-01,2.870e-01,9.412e-01,8.418e-01,8.860e-01,3.610e-02,8.925e-01,7.125e-01,6.328e-01,9.607e-01,2.184e-01,8.547e-01,1.995e-02,2.478e-01,9.684e-01,7.866e-01,1.244e-01,1.463e-01,9.680e-01,9.831e-01,9.004e-01,8.553e-01,2.810e-01,2.196e-01,1.343e-01
1.849e-02,4.478e-01,1.032e+00,7.764e-01,8.450e-01,6.094e-01,4.722e-01,8.301e-01,9.971e-01,7.962e-01,5.379e-01,9.294e-01,6.825e-01,8.878e-01,3.866e-01,2.750e-01,3.238e-01,9.431e-01,3.940e-01,6.551e-01,5.724e-01,5.407e-01,1.212e+00,1.067e+00,4.576e-01,4.275e-01,6.452e-01,3.207e-01,6.726e-01,5.279e-01,6.810e-01,9.936e-01,3.998e-01,1.152e+00,4.530e-01,9.283e-01,1.038e+00,7.388e-01,6.873e-01,7.141e-01,4.166e-01,4.979e-01,6.499e-01,6.543e-01,1.764e-01,1.992e-01,1.007e+00,8.208e-01,3.582e-01,5.482e-01,1.141e+00,9.206e-01,9.836e-01,4.799e-01,1.181e+00,7.795e-01,6.230e-01,1.107e+00,5.716e-01,1.176e+00,6.756e-01,8.542e-01,1.998e-01,1.138e+00,9.183e-01,5.583e-01,1.029e+00,1.278e+00,8.652e-01,1.793e-01,9.201e-01,6.226e-01,1.289e+00,6.366e-01,8.122e-01,9.976e-01,1.392e+00,5.720e-01,7.987e-01,1.426e+00,1.123e-01,7.458e-01,3.911e-01,4.719e-01,8.718e-01,7.411e-01,3.129e-01,3.513e-01,1.249e+00,1.293e+00,8.152e-01,1.103e+00,3.326e-01,1.000e+00,8.839e-01
1.017e-02,2.380e-01,5.573e-01,1.080e+00,1.047e+00,3.970e-01,1.006e+00,8.498e-01,9.633e-01,8.906e-01,1.105e+00,7.671e-01,1.184e+00,6.813e-01,2.602e-01,3.713e-01,1.005e+00,6.775e-01,4.381e-01,4.743e-01,5.272e-01,3.794e-01,1.281e+00,5.797e-01,1.098e+00,8.409e-01,7.167e-01,1.706e-01,7.643e-01,1.152e+00,4.139e-01,5.272e-01,7.417e-01,1.383e+00,2.938e-01,1.426e+00,1.127e+00,6.438e-01,1.201e+00,9.992e-01,3.494e-01,1.126e+00,8.129e-01,4.189e-01,1.020e+00,3.065e-01,1.433e+00,1.189e+00,4.856e-01,4.365e-01,1.168e+00,6.322e-01,1.261e+00,3.364e-01,6.282e-01,1.000e+00,4.992e-01,1.440e+00,3.973e-01,1.506e+00,4.768e-01,5.407e-01,8.552e-01,9.797e-01,5.701e-01,1.143e+00,1.020e+00,1.651e+00,6.805e-01,7.907e-01,6.558e-01,8.874e-01,1.261e+00,9.782e-01,9.746e-01,1.346e+00,1.619e+00,1.171e+00,8.941e-01,1.283e+00,2.303e-01,9.119e-01,2.136e-01,9.303e-01,1.148e+00,1.068e+00,8.587e-01,1.005e+00,1.240e+00,7.235e-01,5.413e-01,1.530e+00,3.029e-01,1.192e+00,1.348e+00
7.866e-03,2.047e-01,5.158e-01,7.125e-01,1.536e+00,4.335e-01,7.943e-01,1.429e+00,1.021e+00,8.306e-01,7.458e-01,1.367e+00,9.616e-01,1.065e+00,8.983e-01,1.011e+00,1.512e+00,9.558e-01,4.704e-01,1.228e+00,1.167e+00,1.062e+00,1.198e+00,9.345e-01,9.553e-01,1.105e+00,1.204e+00,1.814e-01,1.215e+00,1.166e+00,7.586e-01,4.896e-01,1.279e+00,1.913e+00,3.654e-01,1.576e+00,1.079e+00,9.548e-01,1.241e+00,7.325e-01,1.128e+00,1.638e+00,1.434e+00,6.943e-01,1.171e+00,5.614e-01,1.407e+00,9.896e-01,5.652e-01,4.194e-01,1.573e+00,7.913e-01,8.497e-01,1.206e+00,1.231e+00,1.149e+00,7.135e-01,1.417e+00,1.109e+00,1.082e+00,7.063e-01,1.080e+00,8.849e-01,7.396e-01,1.284e+00,8.656e-01,1.038e+00,1.826e+00,1.360e+00,5.806e-01,1.179e+00,1.124e+00,1.141e+00,1.403e+00,8.002e-01,1.171e+00,1.326e+00,7.475e-01,1.460e+00,1.672e+00,6.526e-01,1.274e+00,9.168e-01,9.886e-01,1.664e+00,6.876e-01,6.310e-01,1.354e+00,1.583e+00,9.768e-01,1.276e+00,1.851e+00,1.216e+00,1.005e+00,1.289e+00
3.921e-03,2.381e-01,8.724e-01,8.662e-01,1.954e+00,1.340e+00,9.180e-01,2.293e+00,2.150e+00,1.928e+00,8.681e-01,2.618e+00,1.391e+00,1.859e+00,1.775e+00,1.287e+00,1.754e+00,1.418e+00,7.149e-01,2.315e+00,1.856e+00,1.198e+00,1.768e+00,1.825e+00,1.895e+00,1.968e+00,2.037e+00,3.947e-01,1.358e+00,1.224e+00,1.598e+00,1.174e+00,1.530e+00,2.690e+00,7.510e-01,1.745e+00,1.896e+00,1.722e+00,1.891e+00,1.314e+00,1.604e+00,2.452e+00,2.348e+00,8.613e-01,1.905e+00,1.228e+00,2.299e+00,1.636e+00,1.492e+00,8.443e-01,2.144e+00,1.007e+00,1.378e+00,1.234e+00,2.408e+00,1.590e+00,1.227e+00,1.882e+00,1.611e+00,1.850e+00,1.336e+00,2.113e+00,7.974e-01,1.822e+00,2.563e+00,1.291e+00,1.649e+00,2.499e+00,1.593e+00,1.557e+00,1.365e+00,2.077e+00,2.018e+00,2.216e+00,1.435e+00,2.104e+00,2.066e+00,1.346e+00,2.381e+00,2.011e+00,1.163e+00,1.607e+00,1.225e+00,1.410e+00,2.247e+00,1.598e+00,1.429e+00,1.816e+00,2.521e+00,1.982e+00,2.132e+00,2.857e+00,1.553e+00,1.937e+00,1.791e+00
1.307e-02,3.153e-01,7.304e-01,7.207e-01,8.699e-01,6.204e-01,1.322e+00,1.264e+00,1.088e+00,1.472e+00,1.292e+00,1.242e+00,1.488e+00,7.922e-01,7.314e-01,1.126e+00,1.262e+00,1.162e+00,9.199e-01,1.372e+00,1.348e+00,8.437e-01,1.303e+00,1.328e+00,1.225e+00,1.510e+00,1.410e+00,7.824e-01,1.426e+00,1.364e+00,9.343e-01,1.000e+00,1.121e+00,1.993e+00,6.670e-01,1.073e+00,1.216e+00,1.079e+00,1.299e+00,8.164e-01,9.928e-01,1.093e+00,1.526e+00,1.142e+00,8.645e-01,5.205e-01,1.269e+00,1.150e+00,9.329e-01,7.267e-01,1.972e+00,8.410e-01,1.153e+00,1.176e+00,1.512e+00,1.232e+00,9.506e-01,1.761e+00,5.874e-01,1.533e+00,1.017e+00,1.722e+00,1.216e+00,1.321e+00,1.822e+00,1.463e+00,1.257e+00,2.199e+00,1.495e+00,1.324e+00,9.381e-01,1.450e+00,1.823e+00,1.017e+00,1.797e+00,1.149e+00,2.245e+00,1.155e+00,1.226e+00,1.804e+00,7.364e-01,1.141e+00,5.964e-01,6.597e-01,1.845e+00,1.186e+00,1.429e+00,1.348e+00,1.184e+00,1.520e+00,1.061e+00,2.033e+00,6.337e-01,1.051e+00,1.857e+00
2.272e-02,4.985e-01,1.037e+00,8.720e-01,2.074e+00,1.259e+00,1.686e+00,2.454e+00,2.213e+00,2.239e+00,1.951e+00,3.318e+00,1.856e+00,2.474e+00,2.803e+00,2.366e+00,1.980e+00,2.100e+00,1.952e+00,2.731e+00,2.913e+00,2.491e+00,2.000e+00,2.073e+00,2.436e+00,2.397e+00,3.039e+00,7.296e-01,1.845e+00,1.313e+00,2.608e+00,1.812e+00,2.686e+00,2.881e+00,1.264e+00,1.900e+00,2.126e+00,1.998e+00,2.046e+00,2.243e+00,1.916e+00,2.246e+00,3.032e+00,2.221e+00,2.292e+00,1.634e+00,2.539e+00,1.715e+00,2.327e+00,1.648e+00,2.909e+00,1.388e+00,1.933e+00,2.458e+00,2.918e+00,2.543e+00,1.432e+00,2.728e+00,2.459e+00,2.351e+00,2.454e+00,2.507e+00,1.106e+00,2.819e+00,2.802e+00,2.588e+00,1.905e+00,3.672e+00,2.681e+00,1.836e+00,2.323e+00,2.222e+00,2.640e+00,2.613e+00,2.627e+00,1.801e+00,2.809e+00,2.406e+00,3.392e+00,2.820e+00,2.194e+00,2.208e+00,1.668e+00,2.200e+00,3.176e+00,1.933e+00,2.406e+00,1.779e+00,3.277e+00,2.641e+00,2.684e+00,3.142e+00,2.483e+00,2.158e+00,2.049e+00
1.983e-02,3.814e-01,6.649e-01,6.184e-01,1.738e+00,1.074e+00,1.569e+00,2.991e+00,1.725e+00,2.253e+00,1.522e+00,3.143e+00,2.352e+00,2.094e+00,2.254e+00,2.496e+00,1.966e+00,1.880e+00,1.914e+00,3.546e+00,2.825e+00,1.846e+00,2.342e+00,2.609e+00,2.929e+00,2.683e+00,3.148e+00,1.365e+00,2.184e+00,1.557e+00,2.713e+00,1.734e+00,2.602e+00,3.448e+00,1.586e+00,1.974e+00,1.921e+00,2.501e+00,2.252e+00,1.822e+00,2.252e+00,2.454e+00,3.237e+00,1.661e+00,2.301e+00,2.178e+00,2.002e+00,2.488e+00,2.232e+00,1.726e+00,3.188e+00,1.307e+00,2.137e+00,2.932e+00,3.273e+00,2.771e+00,1.992e+00,2.296e+00,1.708e+00,2.497e+00,2.074e+00,3.134e+00,1.607e+00,3.042e+00,3.603e+00,2.920e+00,1.731e+00,3.983e+00,2.338e+00,2.051e+00,1.916e+00,2.369e+00,3.083e+00,3.187e+00,2.906e+00,1.971e+00,3.592e+00,2.062e+00,2.669e+00,3.243e+00,2.409e+00,2.332e+00,2.095e+00,2.238e+00,3.792e+00,2.012e+00,2.159e+00,2.384e+00,3.038e+00,2.602e+00,3.046e+00,3.274e+00,2.438e+00,1.851e+00,2.927e+00
2.062e-02,3.751e-01,6.083e-01,8.923e-01,1.450e+00,9.883e-01,1.859e+00,2.566e+00,2.676e+00,2.900e+00,2.447e+00,3.353e+00,2.727e+00,2.728e+00,2.929e+00,3.033e+00,2.165e+00,1.846e+00,3.012e+00,3.041e+00,2.688e+00,2.493e+00,2.965e+00,2.476e+00,4.120e+00,2.967e+00,3.519e+00,1.665e+00,2.228e+00,2.465e+00,3.056e+00,2.289e+00,3.231e+00,3.494e+00,2.418e+00,2.335e+00,2.294e+00,3.092e+00,3.053e+00,3.191e+00,1.719e+00,2.831e+00,3.077e+00,2.423e+00,2.843e+00,2.399e+00,2.434e+00,3.356e+00,3.247e+00,2.524e+00,3.073e+00,1.963e+00,2.778e+00,2.665e+00,2.925e+00,3.874e+00,2.165e+00,2.707e+00,1.884e+00,3.661e+00,2.969e+00,2.813e+00,1.976e+00,3.691e+00,3.072e+00,4.282e+00,2.201e+00,4.655e+00,2.919e+00,2.431e+00,2.547e+00,2.391e+00,4.008e+00,3.630e+00,3.282e+00,2.306e+00,4.487e+00,2.876e+00,3.045e+00,2.982e+00,3.111e+00,2.368e+00,1.998e+00,3.305e+00,4.011e+00,2.745e+00,3.204e+00,2.959e+00,3.970e+00,2.911e+00,2.594e+00,3.521e+00,2.746e+00,2.755e+00,2.950e+00
3.475e-02,5.937e-01,8.435e-01,1.196e+00,2.441e+00,7.613e-01,2.259e+00,3.093e+00,1.796e+00,3.127e+00,2.724e+00,3.476e+00,2.934e+00,2.761e+00,3.152e+00,3.219e+00,3.009e+00,2.505e+00,2.921e+00,4.027e+00,3.472e+00,2.604e+00,3.523e+00,2.522e+00,3.838e+00,2.979e+00,4.277e+00,2.178e+00,3.238e+00,2.639e+00,2.806e+00,2.646e+00,3.781e+00,4.078e+00,1.961e+00,3.734e+00,2.411e+00,2.818e+00,2.814e+00,3.168e+00,2.642e+00,3.193e+00,3.646e+00,3.056e+00,2.766e+00,2.984e+00,2.790e+00,3.266e+00,2.638e+00,2.174e+00,4.777e+00,2.067e+00,3.329e+00,4.079e+00,3.835e+00,3.854e+00,2.433e+00,3.127e+00,2.254e+00,3.095e+00,2.599e+00,3.607e+00,2.428e+00,3.235e+00,4.109e+00,4.215e+00,2.970e+00,5.811e+00,3.970e+00,2.476e+00,3.558e+00,2.851e+00,3.887e+00,4.276e+00,4.228e+00,2.692e+00,4.643e+00,3.093e+00,3.157e+00,4.476e+00,3.028e+00,3.206e+00,2.937e+00,3.518e+00,4.623e+00,2.355e+00,3.322e+00,2.951e+00,4.049e+00,3.113e+00,3.987e+00,4.342e+00,3.633e+00,2.238e+00,3.711e+00
1.001e-02,3.232e-01,9.373e-01,1.062e+00,1.923e+00,1.288e+00,1.932e+00,2.652e+00,2.721e+00,3.590e+00,3.587e+00,3.799e+00,2.821e+00,3.567e+00,4.274e+00,2.877e+00,3.005e+00,2.539e+00,2.850e+00,4.186e+00,3.497e+00,2.602e+00,3.797e+00,3.221e+00,4.020e+00,3.368e+00,4.243e+00,2.420e+00,3.256e+00,2.403e+00,2.968e+00,2.774e+00,4.181e+00,4.042e+00,2.073e+00,2.971e+00,2.795e+00,3.349e+00,3.403e+00,3.363e+00,2.331e+00,3.782e+00,3.569e+00,3.261e+00,3.234e+00,3.276e+00,3.932e+00,3.195e+00,3.028e+00,2.432e+00,4.823e+00,2.346e+00,3.775e+00,3.367e+00,3.732e+00,4.017e+00,2.273e+00,4.023e+00,2.709e+00,3.582e+00,2.905e+00,4.070e+00,2.339e+00,3.327e+00,4.102e+00,4.260e+00,3.066e+00,5.688e+00,3.916e+00,3.787e+00,3.912e+00,3.520e+00,4.405e+00,4.186e+00,4.359e+00,3.401e+00,3.952e+00,3.788e+00,3.804e+00,3.865e+00,2.979e+00,2.990e+00,2.693e+00,4.052e+00,4.090e+00,3.350e+00,4.397e+00,3.527e+00,4.784e+00,3.156e+00,3.812e+00,4.152e+00,3.973e+00,2.940e+00,3.761e+00
2.772e-02,5.000e-01,7.875e-01,9.271e-01,1.700e+00,1.019e+00,1.590e+00,1.920e+00,2.491e+00,3.224e+00,2.752e+00,3.382e+00,2.586e+00,3.156e+00,3.923e+00,3.467e+00,3.105e+00,2.127e+00,3.783e+00,3.732e+00,2.971e+00,3.416e+00,3.247e+00,2.570e+00,4.426e+00,3.732e+00,3.718e+00,2.914e+00,2.706e+00,2.793e+00,3.598e+00,3.474e+00,4.039e+00,3.765e+00,2.988e+00,2.875e+00,3.170e+00,3.489e+00,2.878e+00,4.408e+00,1.937e+00,3.558e+00,3.624e+00,3.815e+00,2.514e+00,3.481e+00,3.115e+00,3.419e+00,4.121e+00,2.536e+00,4.660e+00,3.115e+00,3.492e+00,3.261e+00,3.284e+00,4.300e+00,2.452e+00,3.282e+00,3.202e+00,3.932e+00,3.614e+00,3.524e+00,2.362e+00,3.836e+00,4.017e+00,4.947e+00,3.340e+00,4.859e+00,3.678e+00,3.177e+00,3.995e+00,3.283e+00,4.308e+00,4.300e+00,4.104e+00,3.290e+00,4.278e+00,3.745e+00,3.887e+00,3.610e+00,3.655e+00,3.136e+00,2.818e+00,4.010e+00,4.387e+00,3.635e+00,3.855e+00,2.642e+00,4.246e+00,4.097e+00,4.045e+00,3.788e+00,3.205e+00,2.931e+00,2.667e+00
3.318e-02,6.538e-01,1.197e+00,1.405e+00,1.888e+00,8.305e-01,1.800e+00,2.410e+00,2.510e+00,2.979e+00,3.101e+00,3.212e+00,3.418e+00,4.096e+00,3.571e+00,3.818e+00,3.288e+00,3.090e+00,4.407e+00,4.106e+00,2.974e+00,3.737e+00,4.718e+00,3.803e+00,4.822e+00,3.875e+00,4.454e+00,3.980e+00,3.366e+00,4.120e+00,4.402e+00,3.852e+00,4.617e+00,4.976e+00,3.068e+00,4.064e+00,3.702e+00,4.242e+00,4.270e+00,4.180e+00,2.237e+00,4.701e+00,3.605e+00,3.639e+00,2.804e+00,3.738e+00,3.860e+00,4.645e+00,3.784e+00,2.728e+00,5.949e+00,3.875e+00,4.487e+00,4.131e+00,3.613e+00,4.904e+00,3.312e+00,4.636e+00,3.108e+00,5.531e+00,4.247e+00,3.891e+00,3.051e+00,4.723e+00,4.261e+00,5.341e+00,4.217e+00,5.976e+00,4.709e+00,2.971e+00,4.405e+00,4.155e+00,5.368e+00,4.965e+00,4.897e+00,4.461e+00,5.515e+00,4.546e+00,4.277e+00,5.712e+00,3.968e+00,3.901e+00,4.031e+00,5.243e+00,5.473e+00,4.673e+00,3.681e+00,3.779e+00,4.992e+00,4.413e+00,4.060e+00,4.322e+00,3.560e+00,3.577e+00,4.384e+00
2.726e-02,4.744e-01,7.022e-01,9.933e-01,1.940e+00,8.452e-01,2.150e+00,2.782e+00,2.184e+00,2.637e+00,3.249e+00,3.464e+00,3.345e+00,4.299e+00,3.856e+00,3.929e+00,3.324e+00,3.047e+00,3.858e+00,4.451e+00,3.833e+00,4.136e+00,3.758e+00,3.393e+00,5.109e+00,3.929e+00,4.747e+00,3.504e+00,3.714e+00,2.961e+00,4.131e+00,3.484e+00,5.169e+00,4.423e+00,3.414e+00,3.670e+00,2.757e+00,3.953e+00,4.136e+00,3.260e+00,2.886e+00,4.645e+00,4.085e+00,3.756e+00,3.865e+00,3.320e+00,4.105e+00,4.172e+00,3.855e+00,2.876e+00,5.688e+00,3.367e+00,3.927e+00,4.845e+00,3.537e+00,4.293e+00,3.284e+00,4.340e+00,3.055e+00,5.177e+00,3.849e+00,4.214e+00,3.285e+00,4.174e+00,3.913e+00,5.660e+00,2.948e+00,5.821e+00,4.697e+00,3.150e+00,3.959e+00,3.968e+00,5.439e+00,4.743e+00,4.808e+00,3.810e+00,5.219e+00,4.783e+00,4.048e+00,5.051e+00,4.315e+00,4.258e+00,3.932e+00,4.698e+00,5.796e+00,3.727e+00,4.267e+00,4.442e+00,5.101e+00,3.321e+00,3.824e+00,4.368e+00,3.902e+00,3.152e+00,4.046e+00
3.399e-02,5.851e-01,8.536e-01,1.407e+00,2.415e+00,6.351e-01,2.312e+00,2.467e+00,2.399e+00,2.810e+00,3.000e+00,3.086e+00,3.303e+00,3.931e+00,3.561e+00,5.041e+00,4.342e+00,3.083e+00,4.509e+00,4.523e+00,3.917e+00,5.019e+00,4.745e+00,3.644e+00,5.250e+00,4.221e+00,5.130e+00,4.381e+00,4.219e+00,5.097e+00,4.596e+00,3.766e+00,5.453e+00,5.670e+00,3.553e+00,4.615e+00,4.002e+00,4.218e+00,4.960e+00,4.125e+00,3.593e+00,5.896e+00,4.497e+00,4.849e+00,3.672e+00,2.996e+00,4.571e+00,4.533e+00,3.892e+00,3.286e+00,5.876e+00,3.951e+00,4.423e+00,4.519e+00,3.867e+00,4.312e+00,4.199e+00,5.225e+00,3.397e+00,6.044e+00,4.854e+00,4.449e+00,4.241e+00,4.447e+00,4.352e+00,5.952e+00,3.945e+00,6.270e+00,5.816e+00,2.958e+00,4.221e+00,4.531e+00,5.990e+00,5.367e+00,5.314e+00,4.685e+00,5.805e+00,4.837e+00,4.777e+00,5.899e+00,4.317e+00,4.994e+00,4.797e+00,5.374e+00,6.009e+00,4.509e+00,4.095e+00,4.493e+00,5.173e+00,4.337e+00,3.716e+00,5.394e+00,4.330e+00,4.238e+00,3.824e+00
3.547e-02,5.723e-01,7.014e-01,9.082e-01,1.684e+00,5.281e-01,1.718e+00,1.591e+00,1.276e+00,2.537e+00,2.147e+00,2.096e+00,2.549e+00,2.894e+00,2.787e+00,4.247e+00,2.999e+00,3.026e+00,3.552e+00,3.721e+00,3.020e+00,4.190e+00,4.221e+00,2.777e+00,4.058e+00,3.418e+00,4.755e+00,3.706e+00,4.119e+00,3.603e+00,3.480e+00,3.741e+00,3.936e+00,3.786e+00,2.838e+00,3.928e+00,2.826e+00,2.877e+00,3.562e+00,3.251e+00,3.654e+00,4.747e+00,3.278e+00,4.007e+00,2.784e+00,2.794e+00,3.113e+00,3.545e+00,3.128e+00,2.540e+00,6.085e+00,3.185e+00,3.272e+00,3.888e+00,3.383e+00,3.432e+00,3.960e+00,4.245e+00,2.327e+00,4.778e+00,3.813e+00,4.217e+00,3.389e+00,3.804e+00,4.672e+00,4.999e+00,3.831e+00,5.586e+00,5.042e+00,2.583e+00,3.557e+00,3.718e+00,5.049e+00,4.774e+00,4.810e+00,3.523e+00,4.914e+00,4.341e+00,3.335e+00,5.053e+00,3.323e+00,4.443e+00,4.139e+00,3.807e+00,4.489e+00,3.315e+00,3.466e+00,3.318e+00,3.899e+00,3.614e+00,3.933e+00,4.340e+00,3.567e+00,3.344e+00,3.184e+00
9.918e-03,1.983e-01,3.721e-01,4.671e-01,9.309e-01,2.792e-01,7.837e-01,1.284e+00,1.190e+00,1.809e+00,1.870e+00,2.057e+00,1.609e+00,3.198e+00,2.883e+00,2.739e+00,2.863e+00,2.603e+00,3.370e+00,3.195e+00,2.597e+00,3.863e+00,2.870e+00,2.737e+00,3.705e+00,2.615e+00,3.519e+00,3.413e+00,2.949e+00,3.201e+00,3.332e+00,3.331e+00,4.114e+00,3.595e+00,3.032e+00,3.085e+00,3.028e+00,2.759e+00,3.415e+00,3.038e+00,2.054e+00,4.068e+00,3.487e+00,3.526e+00,2.665e+00,3.424e+00,2.875e+00,2.981e+00,3.202e+00,2.185e+00,4.813e+00,3.286e+00,3.268e+00,3.996e+00,2.345e+00,3.350e+00,2.390e+00,3.449e+00,2.698e+00,3.821e+00,3.342e+00,3.303e+00,2.820e+00,3.128e+00,2.922e+00,4.553e+00,3.700e+00,4.658e+00,3.972e+00,1.926e+00,4.209e+00,3.691e+00,3.842e+00,3.638e+00,3.825e+00,4.072e+00,4.084e+00,4.028e+00,3.321e+00,4.101e+00,3.886e+00,3.498e+00,4.226e+00,4.966e+00,4.302e+00,3.596e+00,2.888e+00,2.615e+00,3.966e+00,3.069e+00,3.256e+00,2.825e+00,3.898e+00,2.941e+00,3.336e+00
1.737e-02,3.426e-01,6.282e-01,7.477e-01,1.366e+00,9.810e-01,1.893e+00,2.031e+00,2.466e+00,3.164e+00,3.285e+00,3.268e+00,3.084e+00,3.887e+00,4.201e+00,4.326e+00,3.915e+00,2.798e+00,5.207e+00,5.213e+00,4.573e+00,5.294e+00,4.160e+00,3.882e+00,6.080e+00,4.628e+00,4.660e+00,4.908e+00,4.583e+00,4.577e+00,5.320e+00,4.178e+00,5.748e+00,5.247e+00,4.713e+00,3.644e+00,4.409e+00,4.438e+00,5.115e+00,4.783e+00,3.324e+00,5.990e+00,4.973e+00,5.354e+00,4.275e+00,3.872e+00,4.956e+00,4.669e+00,5.444e+00,3.271e+00,6.196e+00,4.543e+00,4.933e+00,4.396e+00,3.703e+00,5.376e+00,3.765e+00,5.282e+00,3.876e+00,5.514e+00,5.375e+00,5.368e+00,4.527e+00,5.234e+00,5.075e+00,6.271e+00,4.164e+00,5.818e+00,5.663e+00,4.950e+00,5.033e+00,5.467e+00,6.529e+00,5.013e+00,5.354e+00,4.732e+00,5.493e+00,5.032e+00,5.162e+00,5.050e+00,5.111e+00,4.809e+00,4.232e+00,5.303e+00,6.445e+00,5.335e+00,5.592e+00,4.951e+00,5.754e+00,4.902e+00,4.677e+00,5.257e+00,4.722e+00,3.949e+00,3.970e+00
3.089e-04,4.546e-03,3.156e-02,6.784e-01,6.664e-01,1.852e-01,1.229e+00,1.200e+00,1.282e+00,2.263e+00,2.081e+00,1.662e+00,1.853e+00,1.882e+00,2.106e+00,3.183e+00,2.911e+00,1.938e+00,3.903e+00,3.696e+00,3.853e+00,4.258e+00,4.411e+00,3.368e+00,5.210e+00,2.623e+00,3.716e+00,3.753e+00,4.512e+00,5.232e+00,3.625e+00,2.940e+00,4.742e+00,4.809e+00,3.210e+00,3.619e+00,4.557e+00,2.600e+00,4.610e+00,4.323e+00,3.324e+00,5.222e+00,4.200e+00,4.741e+00,4.138e+00,3.437e+00,3.771e+00,4.462e+00,3.726e+00,3.283e+00,4.902e+00,3.868e+00,4.341e+00,3.215e+00,2.641e+00,5.180e+00,3.970e+00,4.789e+00,2.970e+00,4.874e+00,4.727e+00,4.058e+00,4.256e+00,4.890e+00,4.280e+00,5.473e+00,4.033e+00,5.243e+00,4.650e+00,4.098e+00,4.789e+00,3.850e+00,5.230e+00,5.162e+00,3.833e+00,4.564e+00,5.223e+00,3.870e+00,3.561e+00,4.539e+00,3.838e+00,4.322e+00,4.177e+00,5.415e+00,4.354e+00,3.784e+00,3.792e+00,3.840e+00,4.756e+00,4.018e+00,4.304e+00,4.047e+00,4.929e+00,4.385e+00,4.301e+00
3.719e-02,6.122e-01,7.933e-01,1.077e+00,1.858e+00,6.568e-01,1.760e+00,2.124e+00,2.079e+00,2.269e+00,2.806e+00,2.766e+00,3.448e+00,3.789e+00,3.407e+00,4.478e+00,3.736e+00,3.043e+00,4.870e+00,4.798e+00,4.487e+00,5.717e+00,5.332e+00,4.705e+00,5.886e+00,4.890e+00,4.817e+00,4.894e+00,5.114e+00,5.257e+00,5.443e+00,5.108e+00,6.759e+00,5.903e+00,5.402e+00,5.100e+00,5.334e+00,5.046e+00,5.758e+00,5.130e+00,3.781e+00,6.427e+00,5.304e+00,5.689e+00,4.780e+00,4.433e+00,5.143e+00,5.574e+00,5.309e+00,4.450e+00,6.763e+00,5.276e+00,5.519e+00,5.351e+00,3.877e+00,5.999e+00,5.045e+00,5.837e+00,4.834e+00,6.878e+00,6.006e+00,5.436e+00,5.188e+00,5.815e+00,4.883e+00,6.612e+00,4.466e+00,6.524e+00,6.357e+00,4.372e+00,6.106e+00,5.506e+00,7.347e+00,6.155e+00,5.591e+00,5.013e+00,7.072e+00,5.538e+00,5.271e+00,6.515e+00,5.689e+00,5.838e+00,5.413e+00,5.900e+00,7.107e+00,6.129e+00,4.113e+00,5.771e+00,6.181e+00,5.333e+00,5.266e+00,5.525e+00,4.673e+00,5.226e+00,4.999e+00
2.802e-02,4.356e-01,4.898e-01,9.178e-01,2.414e+00,9.284e-01,1.773e+00,2.868e+00,2.268e+00,3.020e+00,2.583e+00,3.583e+00,3.361e+00,4.130e+00,4.124e+00,5.188e+00,4.676e+00,3.587e+00,4.894e+00,5.980e+00,5.213e+00,7.343e+00,6.363e+00,4.934e+00,7.255e+00,5.944e+00,5.857e+00,5.545e+00,6.589e+00,5.408e+00,6.307e+00,5.858e+00,7.647e+00,6.712e+00,6.422e+00,5.819e+00,6.240e+00,5.503e+00,6.458e+00,6.208e+00,5.351e+00,8.139e+00,6.914e+00,5.974e+00,6.112e+00,5.514e+00,5.950e+00,6.063e+00,6.239e+00,4.594e+00,8.801e+00,5.561e+00,5.717e+00,6.709e+00,5.546e+00,6.741e+00,5.935e+00,6.944e+00,5.699e+00,7.645e+00,6.801e+00,6.907e+00,6.068e+00,6.077e+00,7.166e+00,7.512e+00,5.755e+00,8.078e+00,7.175e+00,5.435e+00,6.887e+00,6.716e+00,7.920e+00,7.974e+00,6.350e+00,6.096e+00,7.947e+00,6.411e+00,6.365e+00,6.700e+00,7.028e+00,7.357e+00,7.046e+00,6.431e+00,8.391e+00,6.700e+00,5.362e+00,6.982e+00,7.900e+00,6.251e+00,7.150e+00,6.492e+00,7.169e+00,6.079e+00,6.206e+00
9.090e-04,6.444e-02,2.502e-01,3.865e-01,9.148e-01,7.522e-01,1.428e+00,1.901e+00,1.613e+00,2.475e+00,2.690e+00,2.712e+00,2.474e+00,2.890e+00,3.425e+00,3.912e+00,3.897e+00,2.715e+00,4.306e+00,5.311e+00,5.066e+00,6.880e+00,6.034e+00,5.821e+00,6.471e+00,5.293e+00,5.170e+00,6.149e+00,6.479e+00,5.024e+00,6.268e+00,5.049e+00,7.482e+00,6.784e+00,5.544e+00,4.238e+00,6.642e+00,5.548e+00,6.604e+00,5.762e+00,5.119e+00,7.043e+00,6.990e+00,6.832e+00,5.475e+00,5.339e+00,6.093e+00,5.121e+00,5.673e+00,5.191e+00,7.248e+00,5.616e+00,5.516e+00,5.689e+00,5.206e+00,6.191e+00,5.276e+00,7.284e+00,5.771e+00,6.974e+00,6.588e+00,6.465e+00,5.856e+00,6.040e+00,6.717e+00,6.623e+00,5.253e+00,7.208e+00,6.168e+00,6.542e+00,7.168e+00,6.430e+00,7.286e+00,6.718e+00,6.249e+00,6.632e+00,6.782e+00,6.073e+00,5.833e+00,6.029e+00,7.153e+00,6.315e+00,6.798e+00,6.226e+00,7.480e+00,7.403e+00,6.003e+00,6.457e+00,6.702e+00,6.054e+00,6.121e+00,5.631e+00,6.560e+00,5.707e+00,6.311e+00
3.399e-02,4.826e-01,3.753e-01,6.521e-01,1.496e+00,4.100e-01,1.140e+00,1.752e+00,8.717e-01,1.455e+00,1.701e+00,2.251e+00,2.233e+00,2.293e+00,2.451e+00,3.108e+00,2.405e+00,2.056e+00,3.392e+00,3.857e+00,3.480e+00,5.228e+00,5.315e+00,4.300e+00,5.489e+00,3.968e+00,3.933e+00,5.025e+00,5.210e+00,3.228e+00,5.596e+00,4.302e+00,5.868e+00,5.604e+00,4.475e+00,4.214e+00,4.784e+00,4.699e+00,4.047e+00,5.117e+00,4.851e+00,5.077e+00,4.934e+00,4.694e+00,4.361e+00,4.586e+00,4.817e+00,4.471e+00,4.135e+00,4.341e+00,5.815e+00,4.634e+00,4.066e+00,5.517e+00,4.559e+00,5.066e+00,4.676e+00,5.357e+00,4.660e+00,5.743e+00,5.123e+00,4.277e+00,4.249e+00,6.232e+00,6.006e+00,5.838e+00,4.717e+00,6.123e+00,4.990e+00,4.907e+00,5.577e+00,4.000e+00,5.313e+00,6.098e+00,5.102e+00,5.465e+00,6.117e+00,4.602e+00,4.869e+00,5.307e+00,5.608e+00,5.483e+00,5.122e+00,4.949e+00,6.206e+00,5.046e+00,4.399e+00,4.074e+00,6.229e+00,5.210e+00,5.905e+00,4.254e+00,5.502e+00,4.627e+00,4.774e+00
3.117e-02,5.609e-01,8.783e-01,1.022e+00,2.119e+00,7.399e-01,1.596e+00,2.275e+00,2.254e+00,2.179e+00,2.732e+00,3.160e+00,2.996e+00,3.795e+00,3.836e+00,4.841e+00,4.357e+00,3.275e+00,5.007e+00,5.382e+00,5.152e+00,7.089e+00,6.453e+00,6.283e+00,6.442e+00,6.348e+00,5.220e+00,6.608e+00,6.982e+00,6.505e+00,7.127e+00,6.257e+00,8.818e+00,8.545e+00,7.017e+00,5.731e+00,7.642e+00,6.669e+00,7.178e+00,7.013e+00,6.029e+00,8.252e+00,7.816e+00,6.632e+00,6.294e+00,5.732e+00,7.412e+00,5.608e+00,6.503e+00,5.525e+00,8.296e+00,6.110e+00,7.013e+00,7.532e+00,5.648e+00,6.746e+00,6.793e+00,7.674e+00,6.606e+00,7.814e+00,7.806e+00,7.125e+00,6.312e+00,7.284e+00,6.391e+00,8.135e+00,6.678e+00,8.069e+00,7.933e+00,5.714e+00,7.873e+00,7.410e+00,7.940e+00,7.839e+00,7.620e+00,7.690e+00,8.299e+00,6.239e+00,7.648e+00,7.914e+00,7.574e+00,7.568e+00,7.205e+00,7.758e+00,8.957e+00,8.091e+00,5.694e+00,6.244e+00,8.686e+00,7.768e+00,6.780e+00,6.553e+00,7.648e+00,7.023e+00,6.130e+00
1.380e-02,3.218e-01,7.369e-01,1.122e+00,1.983e+00,7.148e-01,1.983e+00,2.381e+00,1.882e+00,2.691e+00,2.437e+00,2.750e+00,2.822e+00,3.119e+00,2.865e+00,4.839e+00,4.694e+00,3.593e+00,4.558e+00,5.048e+00,5.078e+00,7.005e+00,6.647e+00,5.882e+00,6.649e+00,6.249e+00,6.314e+00,7.251e+00,8.279e+00,7.381e+00,7.174e+00,6.262e+00,7.972e+00,9.193e+00,5.795e+00,6.396e+00,7.252e+00,5.865e+00,8.289e+00,6.576e+00,7.269e+00,9.232e+00,7.790e+00,6.989e+00,6.765e+00,5.696e+00,7.170e+00,5.810e+00,5.651e+00,5.568e+00,8.669e+00,6.941e+00,6.257e+00,6.937e+00,5.987e+00,6.563e+00,7.195e+00,8.416e+00,5.686e+00,8.071e+00,6.951e+00,7.129e+00,7.140e+00,7.675e+00,7.857e+00,8.294e+00,6.972e+00,8.562e+00,8.768e+00,6.222e+00,7.936e+00,7.569e+00,8.518e+00,7.325e+00,8.082e+00,8.133e+00,9.182e+00,6.633e+00,7.032e+00,8.186e+00,7.380e+00,7.865e+00,8.148e+00,7.654e+00,8.671e+00,7.481e+00,6.994e+00,6.512e+00,8.055e+00,7.130e+00,6.605e+00,7.626e+00,6.747e+00,7.517e+00,6.561e+00
1.588e-02,4.037e-01,9.955e-01,1.310e+00,1.846e+00,1.147e+00,2.110e+00,2.407e+00,2.583e+00,3.188e+00,3.137e+00,3.506e+00,2.842e+00,4.168e+00,3.832e+00,4.556e+00,4.391e+00,3.656e+00,5.535e+00,5.721e+00,6.174e+00,7.337e+00,6.803e+00,6.085e+00,7.963e+00,6.068e+00,7.134e+00,8.683e+00,8.403e+00,8.266e+00,9.173e+00,7.805e+00,9.050e+00,9.923e+00,7.537e+00,6.537e+00,9.217e+00,6.486e+00,8.537e+00,8.038e+00,6.584e+00,9.775e+00,8.869e+00,7.916e+00,8.196e+00,6.474e+00,8.656e+00,7.255e+00,7.421e+00,6.620e+00,9.351e+00,7.267e+00,8.059e+00,7.971e+00,7.338e+00,8.074e+00,8.152e+00,9.645e+00,7.373e+00,9.291e+00,8.701e+00,8.344e+00,7.581e+00,9.732e+00,7.870e+00,9.733e+00,7.314e+00,9.360e+00,9.929e+00,7.141e+00,8.418e+00,8.291e+00,9.575e+00,8.470e+00,8.944e+00,8.952e+00,1.025e+01,8.445e+00,8.475e+00,8.362e+00,8.313e+00,8.199e+00,8.596e+00,9.058e+00,9.696e+00,8.364e+00,8.105e+00,7.261e+00,9.634e+00,8.438e+00,7.158e+00,7.477e+00,8.602e+00,8.811e+00,6.929e+00
3.643e-02,7.008e-01,1.224e+00,1.172e+00,1.727e+00,7.355e-01,1.474e+00,2.307e+00,1.446e+00,1.945e+00,1.875e+00,2.533e+00,2.430e+00,3.273e+00,2.227e+00,3.480e+00,2.761e+00,3.447e+00,3.902e+00,4.258e+00,4.119e+00,6.526e+00,6.606e+00,5.451e+00,5.964e+00,4.991e+00,5.956e+00,6.966e+00,7.371e+00,5.153e+00,7.488e+00,7.156e+00,7.611e+00,7.732e+00,6.953e+00,6.321e+00,7.322e+00,6.260e+00,7.814e+00,6.333e+00,6.775e+00,7.413e+00,7.782e+00,6.563e+00,6.557e+00,6.039e+00,6.960e+00,6.304e+00,6.273e+00,5.566e+00,8.786e+00,6.139e+00,6.861e+00,7.972e+00,7.067e+00,6.239e+00,7.505e+00,7.208e+00,6.336e+00,8.242e+00,6.866e+00,6.561e+00,6.000e+00,7.933e+00,7.472e+00,8.000e+00,7.395e+00,8.832e+00,8.270e+00,5.674e+00,7.247e+00,6.810e+00,8.565e+00,7.490e+00,7.805e+00,8.048e+00,9.191e+00,6.105e+00,6.342e+00,8.036e+00,8.247e+00,7.531e+00,7.409e+00,6.048e+00,8.964e+00,7.807e+00,5.985e+00,7.097e+00,8.656e+00,7.407e+00,7.244e+00,6.879e+00,6.624e+00,6.376e+00,6.564e+00
2.414e-02,3.662e-01,3.681e-01,4.525e-01,1.724e+00,5.209e-01,8.187e-01,1.588e+00,1.121e+00,1.655e+00,1.367e+00,2.148e+00,1.851e+00,3.308e+00,3.145e+00,3.860e+00,2.934e+00,2.933e+00,4.245e+00,4.989e+00,4.729e+00,6.067e+00,5.564e+00,4.957e+00,5.718e+00,4.096e+00,6.053e+00,7.053e+00,7.464e+00,7.231e+00,8.158e+00,6.916e+00,7.852e+00,8.179e+00,6.491e+00,5.312e+00,6.819e+00,5.516e+00,7.643e+00,5.412e+00,7.149e+00,8.808e+00,6.723e+00,6.951e+00,6.909e+00,5.825e+00,6.578e+00,6.645e+00,5.482e+00,6.486e+00,7.900e+00,6.384e+00,6.467e+00,7.393e+00,6.208e+00,5.642e+00,7.510e+00,6.982e+00,6.591e+00,8.135e+00,7.073e+00,7.470e+00,7.022e+00,8.229e+00,6.991e+00,7.511e+00,6.374e+00,8.403e+00,9.107e+00,5.644e+00,7.109e+00,6.368e+00,8.452e+00,7.759e+00,7.622e+00,6.830e+00,8.031e+00,6.549e+00,7.240e+00,6.820e+00,7.183e+00,7.105e+00,7.540e+00,7.791e+00,7.152e+00,6.710e+00,5.783e+00,6.310e+00,8.585e+00,6.574e+00,6.704e+00,6.460e+00,7.990e+00,7.331e+00,5.656e+00
9.887e-03,3.248e-01,9.429e-01,8.607e-01,1.024e+00,8.117e-01,1.197e+00,1.466e+00,1.790e+00,2.254e+00,2.645e+00,2.332e+00,2.126e+00,3.451e+00,3.099e+00,3.603e+00,3.007e+00,3.128e+00,3.653e+00,4.217e+00,4.079e+00,5.805e+00,5.956e+00,5.233e+00,5.425e+00,4.655e+00,5.459e+00,6.669e+00,8.023e+00,6.741e+00,7.702e+00,7.104e+00,8.213e+00,7.639e+00,5.969e+00,5.352e+00,7.648e+00,5.990e+00,7.698e+00,6.359e+00,6.130e+00,8.556e+00,7.192e+00,7.382e+00,6.637e+00,6.852e+00,7.207e+00,7.055e+00,6.400e+00,6.152e+00,9.402e+00,7.390e+00,6.792e+00,7.623e+00,6.863e+00,6.555e+00,8.304e+00,8.377e+00,7.423e+00,9.210e+00,7.835e+00,7.803e+00,6.374e+00,8.126e+00,7.711e+00,8.481e+00,6.572e+00,8.715e+00,8.349e+00,6.482e+00,7.777e+00,6.467e+00,8.863e+00,8.054e+00,7.646e+00,7.785e+00,8.392e+00,7.478e+00,6.582e+00,7.057e+00,7.893e+00,6.825e+00,7.971e+00,7.549e+00,7.123e+00,7.081e+00,6.222e+00,6.463e+00,8.875e+00,7.520e+00,6.794e+00,5.851e+00,7.736e+00,7.751e+00,7.505e+00
2.976e-03,9.173e-02,2.675e-01,5.163e-01,1.046e+00,4.104e-01,1.139e+00,2.121e+00,1.144e+00,1.561e+00,1.962e+00,2.271e+00,2.144e+00,2.692e+00,2.382e+00,3.862e+00,3.530e+00,2.727e+00,3.202e+00,4.432e+00,3.699e+00,5.827e+00,5.579e+00,5.172e+00,5.400e+00,4.350e+00,5.200e+00,6.196e+00,6.794e+00,5.054e+00,7.082e+00,6.141e+00,7.610e+00,7.658e+00,6.612e+00,5.656e+00,5.878e+00,6.723e+00,7.162e+00,4.905e+00,6.733e+00,8.288e+00,6.911e+00,6.384e+00,6.440e+00,5.538e+00,6.472e+00,5.548e+00,5.731e+00,5.751e+00,7.604e+00,6.198e+00,5.759e+00,6.589e+00,5.639e+00,6.014e+00,6.661e+00,6.760e+00,5.614e+00,7.275e+00,5.943e+00,6.341e+00,7.196e+00,6.652e+00,7.170e+00,8.045e+00,6.270e+00,8.441e+00,7.297e+00,5.538e+00,6.820e+00,5.894e+00,7.499e+00,6.586e+00,6.603e+00,8.073e+00,7.775e+00,5.701e+00,6.107e+00,6.607e+00,7.360e+00,6.917e+00,7.530e+00,6.187e+00,7.832e+00,6.591e+00,5.936e+00,6.431e+00,7.845e+00,5.470e+00,5.554e+00,5.770e+00,7.385e+00,6.594e+00,6.604e+00
1.431e-02,3.398e-01,7.927e-01,1.195e+00,1.522e+00,1.023e+00,1.711e+00,2.109e+00,2.661e+00,2.813e+00,2.892e+00,2.913e+00,3.004e+00,3.741e+00,3.238e+00,4.107e+00,3.738e+00,3.260e+00,4.341e+00,4.521e+00,4.595e+00,6.146e+00,5.938e+00,5.068e+00,6.639e+00,5.412e+00,5.903e+00,5.956e+00,7.563e+00,6.880e+00,7.219e+00,7.661e+00,8.300e+00,8.272e+00,7.839e+00,6.505e+00,8.302e+00,6.890e+00,8.635e+00,7.557e+00,6.056e+00,9.827e+00,7.880e+00,7.396e+00,8.181e+00,6.414e+00,7.453e+00,7.345e+00,8.053e+00,6.785e+00,9.195e+00,7.355e+00,7.099e+00,7.659e+00,5.932e+00,7.633e+00,8.630e+00,8.102e+00,7.038e+00,8.898e+00,7.611e+00,8.317e+00,7.749e+00,8.153e+00,7.057e+00,9.544e+00,7.125e+00,9.465e+00,8.531e+00,6.553e+00,7.753e+00,7.446e+00,9.953e+00,8.266e+00,8.033e+00,7.955e+00,9.609e+00,7.965e+00,7.348e+00,7.862e+00,7.788e+00,7.362e+00,7.799e+00,7.200e+00,9.370e+00,8.335e+00,6.879e+00,8.610e+00,9.119e+00,7.544e+00,6.544e+00,6.861e+00,7.758e+00,8.252e+00,7.365e+00
8.259e-03,2.416e-01,6.722e-01,1.074e+00,1.349e+00,7.769e-01,1.653e+00,2.225e+00,2.203e+00,2.831e+00,2.365e+00,2.715e+00,2.379e+00,3.026e+00,2.596e+00,3.294e+00,3.139e+00,2.971e+00,4.141e+00,4.264e+00,4.640e+00,5.260e+00,5.714e+00,4.739e+00,6.431e+00,4.018e+00,5.306e+00,5.871e+00,7.237e+00,7.527e+00,7.764e+00,8.417e+00,8.666e+00,9.558e+00,7.441e+00,7.069e+00,8.165e+00,6.792e+00,9.817e+00,7.806e+00,7.567e+00,1.032e+01,7.805e+00,8.055e+00,9.053e+00,7.410e+00,8.488e+00,7.692e+00,7.096e+00,7.791e+00,9.094e+00,7.746e+00,7.491e+00,8.101e+00,6.949e+00,7.229e+00,9.293e+00,7.633e+00,7.490e+00,9.185e+00,8.009e+00,8.226e+00,8.656e+00,9.575e+00,8.501e+00,9.535e+00,8.285e+00,9.931e+00,9.862e+00,7.549e+00,8.358e+00,7.678e+00,9.115e+00,8.370e+00,8.869e+00,9.287e+00,1.010e+01,7.046e+00,8.236e+00,7.422e+00,8.371e+00,7.044e+00,8.501e+00,7.841e+00,8.519e+00,7.696e+00,7.649e+00,7.675e+00,1.091e+01,8.195e+00,6.843e+00,7.632e+00,9.867e+00,8.833e+00,9.535e+00
1.820e-02,2.655e-01,2.379e-01,4.970e-01,1.219e+00,2.719e-01,1.740e+00,1.406e+00,1.588e+00,2.598e+00,2.514e+00,2.401e+00,2.005e+00,2.326e+00,3.227e+00,4.342e+00,3.356e+00,2.188e+00,4.236e+00,3.901e+00,4.760e+00,5.735e+00,5.111e+00,4.251e+00,5.690e+00,4.701e+00,5.643e+00,5.833e+00,7.349e+00,6.486e+00,6.406e+00,6.780e+00,8.545e+00,8.259e+00,7.167e+00,6.457e+00,7.141e+00,6.246e+00,7.865e+00,8.196e+00,7.029e+00,8.991e+00,7.702e+00,8.715e+00,7.757e+00,7.185e+00,7.619e+00,6.090e+00,7.349e+00,7.771e+00,8.379e+00,6.951e+00,6.682e+00,8.583e+00,6.724e+00,7.077e+00,8.430e+00,7.255e+00,7.572e+00,7.466e+00,7.840e+00,7.475e+00,6.870e+00,7.522e+00,7.959e+00,9.007e+00,6.289e+00,8.522e+00,9.311e+00,7.448e+00,8.932e+00,7.212e+00,8.221e+00,7.952e+00,8.935e+00,6.977e+00,8.473e+00,6.531e+00,7.098e+00,7.763e+00,8.700e+00,7.009e+00,7.684e+00,7.283e+00,8.587e+00,6.785e+00,7.979e+00,6.973e+00,9.008e+00,7.803e+00,6.825e+00,6.914e+00,8.887e+00,7.199e+00,6.369e+00
3.104e-02,4.459e-01,3.737e-01,7.989e-01,2.236e+00,5.914e-01,1.476e+00,2.402e+00,1.498e+00,1.641e+00,1.544e+00,2.742e+00,2.610e+00,3.429e+00,2.838e+00,4.282e+00,3.408e+00,2.923e+00,4.574e+00,4.864e+00,5.140e+00,6.160e+00,4.813e+00,4.374e+00,6.273e+00,4.801e+00,5.427e+00,5.303e+00,7.250e+00,7.200e+00,8.130e+00,7.560e+00,9.254e+00,8.728e+00,8.367e+00,8.893e+00,8.006e+00,6.945e+00,9.760e+00,7.784e+00,7.681e+00,1.182e+01,8.605e+00,8.408e+00,9.724e+00,7.716e+00,8.602e+00,8.371e+00,9.038e+00,7.953e+00,9.965e+00,8.188e+00,8.406e+00,9.202e+00,7.251e+00,7.871e+00,9.179e+00,8.253e+00,8.899e+00,9.685e+00,8.771e+00,8.230e+00,7.789e+00,9.235e+00,8.547e+00,9.434e+00,7.315e+00,8.899e+00,1.053e+01,7.156e+00,9.044e+00,8.913e+00,9.531e+00,9.357e+00,8.014e+00,8.626e+00,9.720e+00,7.416e+00,8.371e+00,8.733e+00,9.444e+00,8.309e+00,9.590e+00,8.846e+00,1.038e+01,7.658e+00,6.753e+00,7.384e+00,1.101e+01,8.555e+00,8.443e+00,8.128e+00,1.021e+01,7.946e+00,8.111e+00
1.811e-02,3.020e-01,4.069e-01,6.235e-01,1.510e+00,3.666e-01,1.096e+00,1.903e+00,1.136e+00,1.351e+00,2.003e+00,2.301e+00,2.203e+00,2.857e+00,2.694e+00,3.619e+00,3.242e+00,2.475e+00,3.228e+00,4.033e+00,3.395e+00,5.146e+00,4.589e+00,4.210e+00,4.891e+00,4.650e+00,4.862e+00,6.142e+00,7.245e+00,5.999e+00,8.149e+00,8.110e+00,8.695e+00,9.324e+00,8.790e+00,6.538e+00,7.814e+00,7.414e+00,9.436e+00,7.581e+00,8.576e+00,1.006e+01,8.265e+00,7.704e+00,8.434e+00,8.547e+00,8.617e+00,7.651e+00,7.089e+00,8.600e+00,1.014e+01,8.607e+00,7.958e+00,9.224e+00,7.753e+00,6.991e+00,9.001e+00,7.701e+00,8.781e+00,9.315e+00,7.207e+00,8.230e+00,9.065e+00,8.933e+00,8.874e+00,1.056e+01,7.039e+00,1.018e+01,9.537e+00,7.692e+00,8.577e+00,7.131e+00,9.407e+00,8.700e+00,8.951e+00,9.137e+00,9.733e+00,7.110e+00,8.756e+00,8.051e+00,8.652e+00,7.647e+00,9.428e+00,7.738e+00,9.754e+00,7.988e+00,7.970e+00,7.673e+00,1.083e+01,7.531e+00,7.660e+00,7.122e+00,9.199e+00,7.643e+00,8.457e+00
6.284e-03,1.072e-01,1.535e-01,2.523e-01,4.579e-01,1.632e-01,1.100e+00,1.540e+00,1.484e+00,1.965e+00,2.724e+00,2.344e+00,2.136e+00,3.809e+00,3.495e+00,4.031e+00,2.497e+00,2.734e+00,4.685e+00,4.409e+00,4.503e+00,6.161e+00,6.001e+00,5.154e+00,6.572e+00,4.596e+00,5.518e+00,6.675e+00,7.598e+00,6.058e+00,7.582e+00,7.387e+00,9.412e+00,8.134e+00,8.222e+00,7.247e+00,7.513e+00,7.620e+00,9.829e+00,9.304e+00,7.453e+00,1.138e+01,8.512e+00,8.817e+00,9.347e+00,8.422e+00,9.108e+00,7.419e+00,8.199e+00,9.016e+00,9.947e+00,8.558e+00,8.543e+00,9.300e+00,7.695e+00,8.618e+00,1.011e+01,8.841e+00,8.366e+00,9.690e+00,9.563e+00,9.186e+00,7.708e+00,8.852e+00,8.366e+00,1.056e+01,6.971e+00,9.313e+00,9.759e+00,7.981e+00,9.477e+00,7.914e+00,9.303e+00,9.083e+00,9.592e+00,8.782e+00,9.594e+00,8.272e+00,8.739e+00,9.407e+00,9.685e+00,8.392e+00,9.846e+00,9.511e+00,1.058e+01,8.188e+00,1.001e+01,8.224e+00,1.123e+01,8.101e+00,6.995e+00,6.787e+00,1.130e+01,8.200e+00,9.186e+00
1.729e-04,1.138e-01,5.283e-01,9.878e-01,1.848e+00,1.021e+00,1.770e+00,2.819e+00,2.079e+00,3.219e+00,2.521e+00,3.396e+00,2.769e+00,3.779e+00,3.473e+00,4.220e+00,4.095e+00,3.249e+00,4.425e+00,5.547e+00,5.214e+00,5.771e+00,6.183e+00,5.076e+00,7.081e+00,5.190e+00,7.207e+00,7.422e+00,7.606e+00,7.520e+00,8.475e+00,7.726e+00,8.879e+00,9.557e+00,8.057e+00,7.673e+00,9.831e+00,7.699e+00,1.057e+01,8.918e+00,8.970e+00,1.203e+01,1.002e+01,9.161e+00,9.632e+00,9.578e+00,1.017e+01,9.696e+00,8.223e+00,9.234e+00,1.199e+01,8.380e+00,9.810e+00,9.536e+00,9.771e+00,8.923e+00,9.353e+00,1.017e+01,9.343e+00,1.081e+01,9.466e+00,9.631e+00,9.398e+00,1.030e+01,1.131e+01,1.061e+01,8.153e+00,1.130e+01,1.164e+01,1.041e+01,9.629e+00,9.207e+00,1.118e+01,1.062e+01,1.017e+01,9.784e+00,1.166e+01,9.052e+00,9.734e+00,9.580e+00,9.811e+00,8.896e+00,9.944e+00,1.047e+01,1.130e+01,8.309e+00,9.502e+00,8.910e+00,1.100e+01,8.321e+00,9.702e+00,9.306e+00,1.043e+01,9.188e+00,9.553e+00
3.317e-02,4.776e-01,3.936e-01,5.986e-01,1.923e+00,3.019e-01,1.166e+00,2.119e+00,1.682e+00,2.093e+00,2.291e+00,2.814e+00,2.682e+00,3.826e+00,3.921e+00,4.584e+00,3.901e+00,2.902e+00,4.952e+00,5.435e+00,4.849e+00,6.452e+00,5.709e+00,5.125e+00,6.125e+00,4.928e+00,5.296e+00,5.987e+00,6.738e+00,6.410e+00,7.133e+00,7.547e+00,9.237e+00,8.703e+00,9.030e+00,8.179e+00,8.168e+00,8.668e+00,9.723e+00,9.800e+00,8.101e+00,1.193e+01,8.776e+00,1.005e+01,9.161e+00,8.349e+00,8.750e+00,8.456e+00,8.840e+00,9.701e+00,1.014e+01,9.106e+00,9.845e+00,9.847e+00,7.936e+00,8.085e+00,8.974e+00,8.679e+00,9.297e+00,9.558e+00,8.940e+00,9.543e+00,8.674e+00,8.881e+00,8.493e+00,1.029e+01,8.249e+00,9.827e+00,1.089e+01,7.833e+00,9.997e+00,9.380e+00,1.070e+01,1.007e+01,9.938e+00,9.044e+00,9.752e+00,8.373e+00,9.751e+00,9.228e+00,9.197e+00,9.284e+00,1.035e+01,9.591e+00,1.146e+01,8.808e+00,7.930e+00,8.460e+00,1.193e+01,9.053e+00,8.909e+00,8.172e+00,1.212e+01,8.678e+00,9.019e+00
1.091e-02,2.366e-01,4.918e-01,5.484e-01,8.209e-01,5.556e-01,1.018e+00,1.261e+00,1.113e+00,1.319e+00,1.946e+00,1.882e+00,1.567e+00,2.117e+00,2.205e+00,2.408e+00,2.278e+00,2.077e+00,2.875e+00,3.305e+00,3.650e+00,4.805e+00,4.456e+00,4.115e+00,4.339e+00,3.623e+00,4.317e+00,5.439e+00,6.749e+00,5.649e+00,7.740e+00,7.002e+00,7.897e+00,7.128e+00,8.326e+00,7.378e+00,9.213e+00,7.262e+00,9.374e+00,8.992e+00,8.062e+00,1.139e+01,9.044e+00,9.368e+00,9.826e+00,8.468e+00,9.455e+00,7.691e+00,8.562e+00,9.612e+00,9.079e+00,9.362e+00,9.477e+00,8.782e+00,8.653e+00,7.397e+00,8.924e+00,1.016e+01,9.336e+00,9.494e+00,9.464e+00,9.621e+00,9.613e+00,1.015e+01,9.085e+00,1.054e+01,8.112e+00,1.012e+01,1.028e+01,8.662e+00,9.316e+00,8.641e+00,9.802e+00,7.966e+00,8.564e+00,9.802e+00,1.105e+01,9.092e+00,9.616e+00,7.962e+00,9.505e+00,8.013e+00,9.879e+00,9.769e+00,1.121e+01,8.566e+00,8.125e+00,6.930e+00,1.160e+01,7.768e+00,7.853e+00,7.478e+00,1.084e+01,9.732e+00,9.463e+00
2.594e-03,6.201e-02,1.550e-01,4.533e-01,8.819e-01,5.708e-01,1.307e+00,1.806e+00,1.310e+00,2.546e+00,2.302e+00,2.415e+00,2.150e+00,2.973e+00,3.112e+00,3.461e+00,3.301e+00,2.366e+00,4.048e+00,5.089e+00,4.950e+00,5.878e+00,5.987e+00,5.297e+00,6.711e+00,4.661e+00,6.205e+00,7.695e+00,8.006e+00,7.190e+00,8.541e+00,8.649e+00,9.737e+00,9.404e+00,9.567e+00,8.326e+00,1.023e+01,8.585e+00,1.149e+01,1.071e+01,9.384e+00,1.368e+01,1.039e+01,1.097e+01,1.123e+01,1.092e+01,1.152e+01,1.040e+01,1.018e+01,1.175e+01,1.283e+01,1.056e+01,1.073e+01,1.126e+01,1.039e+01,8.722e+00,1.092e+01,1.116e+01,1.070e+01,1.244e+01,1.022e+01,1.112e+01,1.083e+01,1.066e+01,1.203e+01,1.141e+01,9.485e+00,1.203e+01,1.253e+01,1.074e+01,1.139e+01,1.018e+01,1.162e+01,1.103e+01,1.096e+01,1.183e+01,1.241e+01,1.030e+01,1.023e+01,1.023e+01,1.151e+01,8.484e+00,1.210e+01,1.162e+01,1.278e+01,1.061e+01,1.101e+01,9.465e+00,1.221e+01,9.238e+00,9.878e+00,9.680e+00,1.246e+01,9.356e+00,1.070e+01
2.594e-02,4.829e-01,7.980e-01,7.565e-01,1.862e+00,8.949e-01,1.286e+00,2.490e+00,2.433e+00,2.705e+00,2.593e+00,3.297e+00,2.907e+00,4.050e+00,4.102e+00,4.702e+00,3.807e+00,2.991e+00,4.406e+00,5.726e+00,4.516e+00,5.712e+00,5.636e+00,5.619e+00,5.988e+00,5.503e+00,6.075e+00,6.848e+00,8.308e+00,7.274e+00,8.269e+00,7.267e+00,8.851e+00,9.687e+00,8.918e+00,7.206e+00,8.710e+00,8.399e+00,1.069e+01,9.197e+00,9.403e+00,1.331e+01,1.064e+01,1.047e+01,1.048e+01,9.206e+00,9.347e+00,9.796e+00,1.051e+01,1.090e+01,1.214e+01,1.111e+01,1.124e+01,1.134e+01,1.002e+01,8.273e+00,9.928e+00,1.165e+01,9.780e+00,1.235e+01,8.936e+00,1.130e+01,1.014e+01,1.033e+01,1.155e+01,1.253e+01,9.905e+00,1.170e+01,1.231e+01,8.636e+00,1.064e+01,1.001e+01,1.286e+01,1.034e+01,1.134e+01,1.031e+01,1.222e+01,9.838e+00,1.064e+01,1.085e+01,1.000e+01,1.010e+01,1.078e+01,1.253e+01,1.278e+01,9.164e+00,9.212e+00,8.906e+00,1.379e+01,9.601e+00,1.068e+01,9.805e+00,1.169e+01,9.582e+00,8.361e+00
2.338e-02,4.276e-01,6.928e-01,8.513e-01,1.213e+00,5.481e-01,1.315e+00,1.817e+00,1.864e+00,1.821e+00,2.732e+00,2.601e+00,2.716e+00,3.323e+00,3.204e+00,4.531e+00,3.122e+00,2.681e+00,4.276e+00,4.519e+00,3.971e+00,5.557e+00,5.719e+00,5.374e+00,5.635e+00,5.250e+00,5.627e+00,6.726e+00,7.337e+00,6.494e+00,7.879e+00,7.242e+00,8.246e+00,9.120e+00,8.376e+00,5.803e+00,9.166e+00,8.072e+00,9.458e+00,1.006e+01,8.749e+00,1.220e+01,9.497e+00,9.681e+00,9.707e+00,9.752e+00,9.347e+00,9.927e+00,9.728e+00,1.128e+01,1.159e+01,1.047e+01,1.101e+01,1.093e+01,9.146e+00,8.799e+00,1.048e+01,1.099e+01,1.014e+01,1.200e+01,9.468e+00,9.875e+00,1.058e+01,1.150e+01,1.061e+01,1.283e+01,9.698e+00,1.174e+01,1.082e+01,8.848e+00,9.945e+00,8.190e+00,1.212e+01,1.159e+01,1.147e+01,1.020e+01,1.193e+01,1.054e+01,1.110e+01,1.064e+01,9.208e+00,9.327e+00,1.072e+01,1.075e+01,1.242e+01,9.706e+00,9.474e+00,8.989e+00,1.159e+01,9.190e+00,9.610e+00,8.597e+00,1.101e+01,9.082e+00,8.625e+00
3.312e-02,5.836e-01,8.915e-01,1.390e+00,2.875e+00,1.209e+00,2.228e+00,3.385e+00,2.734e+00,3.654e+00,3.147e+00,4.141e+00,3.875e+00,4.511e+00,4.524e+00,5.994e+00,5.367e+00,4.051e+00,5.163e+00,6.934e+00,5.903e+00,7.188e+00,7.357e+00,6.577e+00,8.044e+00,7.268e+00,7.534e+00,7.979e+00,9.481e+00,8.428e+00,9.495e+00,9.588e+00,1.087e+01,1.215e+01,1.014e+01,9.557e+00,1.096e+01,9.415e+00,1.221e+01,1.203e+01,1.157e+01,1.633e+01,1.348e+01,1.291e+01,1.366e+01,1.227e+01,1.250e+01,1.220e+01,1.210e+01,1.336e+01,1.557e+01,1.280e+01,1.287e+01,1.437e+01,1.213e+01,1.086e+01,1.386e+01,1.351e+01,1.203e+01,1.578e+01,1.175e+01,1.370e+01,1.377e+01,1.313e+01,1.492e+01,1.598e+01,1.309e+01,1.466e+01,1.461e+01,1.086e+01,1.310e+01,1.165e+01,1.451e+01,1.403e+01,1.462e+01,1.455e+01,1.603e+01,1.318e+01,1.379e+01,1.365e+01,1.228e+01,1.303e+01,1.408e+01,1.421e+01,1.603e+01,1.181e+01,1.290e+01,1.057e+01,1.546e+01,1.209e+01,1.275e+01,1.288e+01,1.469e+01,1.266e+01,1.212e+01
1.359e-02,1.989e-01,1.809e-01,3.899e-01,1.380e+00,8.188e-01,1.555e+00,2.581e+00,1.437e+00,2.098e+00,1.803e+00,3.123e+00,2.606e+00,3.529e+00,3.148e+00,4.211e+00,3.438e+00,3.130e+00,4.781e+00,5.331e+00,5.179e+00,6.643e+00,5.361e+00,5.401e+00,7.047e+00,5.607e+00,6.895e+00,7.459e+00,7.444e+00,6.708e+00,9.795e+00,8.480e+00,9.775e+00,9.824e+00,9.808e+00,7.997e+00,9.660e+00,8.628e+00,1.044e+01,9.381e+00,8.975e+00,1.223e+01,1.127e+01,1.083e+01,1.161e+01,1.058e+01,1.064e+01,1.051e+01,1.145e+01,1.072e+01,1.219e+01,9.598e+00,1.007e+01,1.270e+01,1.017e+01,9.308e+00,1.086e+01,1.052e+01,1.202e+01,1.159e+01,1.059e+01,1.021e+01,9.541e+00,1.234e+01,1.131e+01,1.297e+01,9.814e+00,1.223e+01,1.217e+01,9.749e+00,1.036e+01,1.053e+01,1.108e+01,1.104e+01,1.165e+01,1.183e+01,1.202e+01,1.089e+01,1.097e+01,1.027e+01,1.294e+01,9.972e+00,1.200e+01,9.783e+00,1.392e+01,1.082e+01,9.859e+00,9.979e+00,1.276e+01,1.049e+01,1.041e+01,9.936e+00,1.268e+01,1.004e+01,1.085e+01
2.409e-02,4.386e-01,7.125e-01,1.067e+00,2.090e+00,5.842e-01,1.651e+00,2.220e+00,1.934e+00,2.208e+00,2.621e+00,2.523e+00,3.016e+00,3.585e+00,3.180e+00,4.253e+00,4.025e+00,3.333e+00,4.230e+00,4.939e+00,4.553e+00,5.896e+00,5.609e+00,5.183e+00,5.726e+00,4.915e+00,5.380e+00,5.601e+00,8.119e+00,7.378e+00,6.858e+00,6.112e+00,8.328e+00,8.728e+00,7.293e+00,7.651e+00,7.595e+00,6.895e+00,9.382e+00,7.731e+00,8.256e+00,1.196e+01,8.797e+00,9.919e+00,9.951e+00,8.292e+00,9.594e+00,9.807e+00,9.671e+00,9.464e+00,1.183e+01,1.095e+01,1.030e+01,1.137e+01,8.928e+00,9.037e+00,8.995e+00,1.183e+01,1.016e+01,1.172e+01,8.762e+00,9.979e+00,9.167e+00,1.052e+01,1.006e+01,1.178e+01,9.698e+00,1.170e+01,1.215e+01,8.470e+00,1.069e+01,9.722e+00,1.143e+01,9.769e+00,1.010e+01,1.010e+01,1.134e+01,1.045e+01,9.793e+00,1.016e+01,9.373e+00,1.008e+01,9.950e+00,1.103e+01,1.224e+01,8.334e+00,7.629e+00,8.266e+00,1.346e+01,9.186e+00,1.035e+01,9.579e+00,1.245e+01,1.008e+01,9.587e+00
1.591e-02,3.916e-01,9.298e-01,1.036e+00,1.561e+00,1.141e+00,1.854e+00,2.572e+00,2.769e+00,3.474e+00,3.013e+00,3.814e+00,2.764e+00,4.276e+00,4.119e+00,5.194e+00,4.173e+00,3.995e+00,4.987e+00,5.419e+00,5.449e+00,7.185e+00,6.749e+00,5.996e+00,7.170e+00,5.297e+00,7.132e+00,6.843e+00,7.992e+00,7.485e+00,8.659e+00,8.656e+00,9.782e+00,9.491e+00,9.070e+00,8.448e+00,1.038e+01,8.433e+00,1.063e+01,1.139e+01,8.893e+00,1.371e+01,1.187e+01,1.266e+01,1.187e+01,1.261e+01,1.181e+01,1.242e+01,1.283e+01,1.370e+01,1.481e+01,1.203e+01,1.205e+01,1.361e+01,1.139e+01,1.158e+01,1.227e+01,1.419e+01,1.295e+01,1.463e+01,1.253e+01,1.261e+01,1.163e+01,1.290e+01,1.359e+01,1.468e+01,1.223e+01,1.533e+01,1.453e+01,1.015e+01,1.308e+01,1.043e+01,1.389e+01,1.199e+01,1.378e+01,1.348e+01,1.497e+01,1.382e+01,1.283e+01,1.322e+01,1.253e+01,1.187e+01,1.367e+01,1.391e+01,1.495e+01,1.119e+01,1.196e+01,9.879e+00,1.441e+01,1.114e+01,1.149e+01,1.112e+01,1.475e+01,1.273e+01,1.191e+01
2.460e-02,4.247e-01,6.218e-01,9.767e-01,2.127e+00,7.859e-01,1.409e+00,2.047e+00,2.303e+00,2.618e+00,2.250e+00,2.984e+00,2.459e+00,3.221e+00,3.510e+00,3.636e+00,3.300e+00,2.231e+00,3.905e+00,4.146e+00,4.183e+00,5.263e+00,5.646e+00,3.982e+00,5.938e+00,4.914e+00,4.758e+00,5.385e+00,6.472e+00,6.297e+00,7.757e+00,8.282e+00,9.027e+00,8.332e+00,8.590e+00,9.071e+00,9.400e+00,8.213e+00,1.017e+01,1.092e+01,8.245e+00,1.339e+01,1.044e+01,1.206e+01,1.199e+01,1.148e+01,1.277e+01,1.212e+01,1.272e+01,1.364e+01,1.305e+01,1.229e+01,1.216e+01,1.363e+01,1.209e+01,1.105e+01,1.215e+01,1.304e+01,1.462e+01,1.438e+01,1.223e+01,1.203e+01,1.242e+01,1.268e+01,1.296e+01,1.386e+01,1.221e+01,1.415e+01,1.420e+01,1.049e+01,1.340e+01,1.009e+01,1.186e+01,1.274e+01,1.318e+01,1.253e+01,1.369e+01,1.259e+01,1.323e+01,1.114e+01,1.231e+01,1.070e+01,1.470e+01,1.148e+01,1.570e+01,1.140e+01,1.213e+01,1.014e+01,1.544e+01,1.124e+01,1.168e+01,1.227e+01,1.526e+01,1.226e+01,1.303e+01
1.226e-02,3.057e-01,7.426e-01,1.015e+00,1.144e+00,6.516e-01,1.243e+00,1.679e+00,1.853e+00,1.952e+00,1.813e+00,2.081e+00,1.758e+00,2.017e+00,1.733e+00,2.360e+00,1.938e+00,1.922e+00,2.330e+00,2.504e+00,2.732e+00,4.164e+00,5.302e+00,4.101e+00,4.627e+00,3.148e+00,3.854e+00,4.260e+00,5.236e+00,4.014e+00,5.110e+00,5.050e+00,5.484e+00,6.869e+00,5.302e+00,5.444e+00,7.096e+00,5.552e+00,7.411e+00,7.330e+00,6.912e+00,8.512e+00,7.029e+00,7.736e+00,7.580e+00,7.295e+00,8.224e+00,7.557e+00,6.662e+00,9.527e+00,8.596e+00,8.590e+00,8.170e+00,8.547e+00,8.199e+00,7.292e+00,8.883e+00,9.316e+00,8.810e+00,1.033e+01,8.292e+00,7.464e+00,9.023e+00,9.231e+00,9.638e+00,9.591e+00,8.380e+00,1.022e+01,8.856e+00,8.550e+00,9.274e+00,6.573e+00,8.658e+00,8.551e+00,9.008e+00,9.833e+00,1.028e+01,8.971e+00,8.875e+00,8.290e+00,7.720e+00,7.474e+00,9.174e+00,7.838e+00,1.016e+01,7.602e+00,8.880e+00,7.659e+00,1.083e+01,7.484e+00,8.043e+00,8.511e+00,9.442e+00,8.156e+00,8.956e+00
1.503e-02,3.131e-01,6.118e-01,5.346e-01,1.051e+00,8.187e-01,1.590e+00,2.282e+00,1.783e+00,2.398e+00,2.035e+00,2.914e+00,2.294e+00,2.686e+00,2.759e+00,4.396e+00,3.225e+00,3.133e+00,4.051e+00,4.564e+00,4.653e+00,5.919e+00,5.246e+00,5.316e+00,5.417e+00,4.682e+00,6.142e+00,6.026e+00,7.207e+00,6.617e+00,7.762e+00,6.764e+00,7.770e+00,8.385e+00,7.630e+00,6.098e+00,8.634e+00,6.856e+00,8.953e+00,8.452e+00,8.234e+00,1.132e+01,9.695e+00,1.033e+01,9.512e+00,9.763e+00,9.611e+00,9.889e+00,1.056e+01,1.240e+01,1.287e+01,1.054e+01,1.084e+01,1.263e+01,1.116e+01,1.005e+01,1.072e+01,1.279e+01,1.104e+01,1.254e+01,1.069e+01,1.137e+01,1.160e+01,1.227e+01,1.234e+01,1.270e+01,9.878e+00,1.352e+01,1.349e+01,1.024e+01,1.218e+01,1.050e+01,1.217e+01,1.059e+01,1.295e+01,1.029e+01,1.398e+01,1.225e+01,1.151e+01,1.104e+01,1.173e+01,1.057e+01,1.109e+01,1.159e+01,1.418e+01,1.024e+01,9.850e+00,8.959e+00,1.293e+01,9.910e+00,1.071e+01,1.076e+01,1.304e+01,1.144e+01,1.024e+01
1.964e-02,4.001e-01,7.770e-01,1.113e+00,1.737e+00,1.161e+00,1.935e+00,2.276e+00,2.487e+00,3.017e+00,2.862e+00,3.060e+00,3.481e+00,3.553e+00,3.481e+00,4.196e+00,3.840e+00,3.032e+00,4.483e+00,4.877e+00,4.066e+00,5.015e+00,5.575e+00,5.237e+00,6.487e+00,6.865e+00,5.838e+00,7.300e+00,7.598e+00,7.552e+00,8.976e+00,8.665e+00,9.454e+00,1.055e+01,9.464e+00,7.940e+00,9.238e+00,8.883e+00,1.075e+01,1.034e+01,9.336e+00,1.335e+01,1.116e+01,1.065e+01,1.161e+01,1.161e+01,1.145e+01,1.153e+01,1.259e+01,1.341e+01,1.489e+01,1.242e+01,1.368e+01,1.391e+01,1.253e+01,1.058e+01,1.235e+01,1.319e+01,1.313e+01,1.457e+01,1.214e+01,1.244e+01,1.304e+01,1.371e+01,1.396e+01,1.574e+01,1.242e+01,1.416e+01,1.502e+01,1.275e+01,1.244e+01,1.324e+01,1.323e+01,1.270e+01,1.571e+01,1.426e+01,1.517e+01,1.306e+01,1.425e+01,1.225e+01,1.325e+01,1.338e+01,1.302e+01,1.196e+01,1.561e+01,1.235e+01,1.345e+01,1.151e+01,1.576e+01,1.323e+01,1.207e+01,1.272e+01,1.441e+01,1.235e+01,1.280e+01
1.830e-02,3.152e-01,4.532e-01,5.819e-01,1.408e+00,6.111e-01,1.016e+00,1.774e+00,1.649e+00,1.965e+00,1.893e+00,2.612e+00,2.056e+00,2.889e+00,3.141e+00,3.895e+00,3.273e+00,2.621e+00,4.057e+00,4.453e+00,4.298e+00,6.471e+00,6.235e+00,5.375e+00,6.033e+00,5.450e+00,5.638e+00,7.010e+00,7.351e+00,6.421e+00,8.877e+00,8.524e+00,9.661e+00,9.640e+00,1.057e+01,8.303e+00,1.057e+01,8.837e+00,1.066e+01,1.123e+01,9.610e+00,1.310e+01,1.145e+01,1.113e+01,1.147e+01,1.135e+01,1.172e+01,1.061e+01,1.257e+01,1.385e+01,1.537e+01,1.294e+01,1.295e+01,1.408e+01,1.214e+01,1.148e+01,1.213e+01,1.364e+01,1.349e+01,1.455e+01,1.244e+01,1.254e+01,1.381e+01,1.227e+01,1.331e+01,1.454e+01,1.323e+01,1.443e+01,1.545e+01,1.209e+01,1.400e+01,1.202e+01,1.387e+01,1.217e+01,1.430e+01,1.489e+01,1.522e+01,1.238e+01,1.451e+01,1.360e+01,1.337e+01,1.248e+01,1.477e+01,1.324e+01,1.616e+01,1.399e+01,1.327e+01,1.214e+01,1.617e+01,1.210e+01,1.284e+01,1.251e+01,1.528e+01,1.245e+01,1.118e+01
1.213e-02,2.186e-01,3.595e-01,7.966e-01,1.968e+00,8.007e-01,1.761e+00,2.286e+00,1.853e+00,2.083e+00,2.226e+00,2.992e+00,2.410e+00,3.451e+00,3.337e+00,5.015e+00,4.414e+00,3.304e+00,4.230e+00,5.139e+00,5.650e+00,7.279e+00,5.676e+00,5.512e+00,6.309e+00,5.006e+00,7.088e+00,6.377e+00,7.169e+00,7.166e+00,8.129e+00,7.612e+00,9.525e+00,9.681e+00,8.625e+00,8.123e+00,1.006e+01,7.776e+00,1.103e+01,9.535e+00,9.611e+00,1.389e+01,1.219e+01,1.290e+01,1.280e+01,1.036e+01,1.173e+01,1.136e+01,1.263e+01,1.481e+01,1.513e+01,1.258e+01,1.365e+01,1.454e+01,1.340e+01,1.249e+01,1.294e+01,1.534e+01,1.529e+01,1.578e+01,1.299e+01,1.377e+01,1.386e+01,1.469e+01,1.417e+01,1.647e+01,1.225e+01,1.575e+01,1.622e+01,1.263e+01,1.437e+01,1.338e+01,1.370e+01,1.477e+01,1.475e+01,1.431e+01,1.579e+01,1.422e+01,1.448e+01,1.404e+01,1.433e+01,1.450e+01,1.545e+01,1.395e+01,1.756e+01,1.329e+01,1.213e+01,1.267e+01,1.624e+01,1.253e+01,1.377e+01,1.371e+01,1.681e+01,1.400e+01,1.302e+01
3.506e-02,4.998e-01,4.047e-01,8.841e-01,1.598e+00,2.472e-01,1.379e+00,1.458e+00,1.115e+00,1.708e+00,2.350e+00,1.995e+00,2.727e+00,3.190e+00,3.033e+00,4.235e+00,3.554e+00,2.825e+00,4.358e+00,4.621e+00,4.270e+00,6.807e+00,6.827e+00,5.910e+00,6.530e+00,5.519e+00,5.850e+00,7.633e+00,8.156e+00,6.907e+00,8.151e+00,8.436e+00,9.902e+00,9.563e+00,9.393e+00,8.143e+00,9.227e+00,8.503e+00,1.001e+01,1.004e+01,9.748e+00,1.192e+01,1.001e+01,1.137e+01,1.026e+01,1.146e+01,1.179e+01,1.139e+01,1.140e+01,1.463e+01,1.599e+01,1.345e+01,1.348e+01,1.470e+01,1.273e+01,1.199e+01,1.368e+01,1.364e+01,1.433e+01,1.584e+01,1.350e+01,1.358e+01,1.428e+01,1.377e+01,1.373e+01,1.623e+01,1.318e+01,1.524e+01,1.556e+01,1.293e+01,1.546e+01,1.325e+01,1.467e+01,1.512e+01,1.567e+01,1.612e+01,1.517e+01,1.453e+01,1.352e+01,1.501e+01,1.354e+01,1.442e+01,1.505e+01,1.346e+01,1.649e+01,1.414e+01,1.402e+01,1.292e+01,1.719e+01,1.279e+01,1.281e+01,1.362e+01,1.585e+01,1.301e+01,1.375e+01
1.343e-02,3.663e-01,9.583e-01,1.309e+00,1.813e+00,8.129e-01,2.399e+00,2.398e+00,2.869e+00,2.951e+00,3.593e+00,3.180e+00,3.045e+00,3.912e+00,3.566e+00,4.588e+00,4.248e+00,3.458e+00,4.639e+00,4.416e+00,4.641e+00,6.336e+00,5.959e+00,5.171e+00,6.331e+00,5.388e+00,6.152e+00,6.781e+00,8.503e+00,8.044e+00,8.578e+00,7.747e+00,9.321e+00,9.946e+00,8.065e+00,7.655e+00,8.506e+00,8.435e+00,1.172e+01,9.960e+00,9.842e+00,1.388e+01,1.030e+01,1.187e+01,1.181e+01,1.040e+01,1.181e+01,1.129e+01,1.118e+01,1.319e+01,1.373e+01,1.297e+01,1.336e+01,1.420e+01,1.226e+01,1.169e+01,1.376e+01,1.469e+01,1.348e+01,1.537e+01,1.305e+01,1.379e+01,1.513e+01,1.410e+01,1.394e+01,1.652e+01,1.426e+01,1.666e+01,1.608e+01,1.282e+01,1.424e+01,1.276e+01,1.497e+01,1.340e+01,1.555e+01,1.409e+01,1.585e+01,1.490e+01,1.426e+01,1.319e+01,1.352e+01,1.380e+01,1.360e+01,1.361e+01,1.708e+01,1.304e+01,1.500e+01,1.231e+01,1.810e+01,1.132e+01,1.160e+01,1.497e+01,1.592e+01,1.400e+01,1.472e+01
1.768e-02,3.739e-01,7.486e-01,7.386e-01,1.094e+00,5.583e-01,1.404e+00,1.737e+00,1.693e+00,1.847e+00,2.651e+00,2.480e+00,2.297e+00,3.053e+00,2.932e+00,3.156e+00,2.516e+00,2.329e+00,3.615e+00,3.638e+00,3.610e+00,4.299e+00,4.396e+00,4.049e+00,4.715e+00,4.199e+00,4.621e+00,5.690e+00,5.730e+00,5.409e+00,7.365e+00,7.456e+00,7.930e+00,8.231e+00,7.634e+00,6.219e+00,8.457e+00,7.693e+00,9.451e+00,9.299e+00,7.956e+00,1.103e+01,9.354e+00,1.005e+01,1.003e+01,9.551e+00,9.824e+00,1.028e+01,1.070e+01,1.216e+01,1.311e+01,1.083e+01,1.156e+01,1.258e+01,1.130e+01,1.035e+01,1.186e+01,1.254e+01,1.196e+01,1.309e+01,1.068e+01,1.179e+01,1.313e+01,1.252e+01,1.245e+01,1.412e+01,1.170e+01,1.367e+01,1.485e+01,1.063e+01,1.175e+01,1.153e+01,1.313e+01,1.273e+01,1.356e+01,1.273e+01,1.301e+01,1.191e+01,1.272e+01,1.189e+01,1.116e+01,1.159e+01,1.232e+01,1.202e+01,1.475e+01,1.174e+01,1.201e+01,1.080e+01,1.432e+01,1.108e+01,1.145e+01,1.125e+01,1.399e+01,1.066e+01,1.243e+01
9.694e-03,3.206e-01,9.533e-01,1.337e+00,1.922e+00,1.067e+00,2.045e+00,3.026e+00,3.077e+00,3.327e+00,3.497e+00,3.824e+00,3.282e+00,4.523e+00,3.946e+00,4.695e+00,4.578e+00,3.922e+00,4.346e+00,5.221e+00,5.270e+00,7.120e+00,7.241e+00,6.273e+00,7.399e+00,5.638e+00,6.950e+00,6.772e+00,8.589e+00,7.543e+00,8.317e+00,9.350e+00,1.068e+01,1.070e+01,1.049e+01,9.709e+00,1.060e+01,9.984e+00,1.179e+01,1.177e+01,9.361e+00,1.504e+01,1.184e+01,1.225e+01,1.311e+01,1.302e+01,1.363e+01,1.353e+01,1.339e+01,1.584e+01,1.782e+01,1.339e+01,1.538e+01,1.658e+01,1.499e+01,1.669e+01,1.635e+01,1.697e+01,1.665e+01,1.807e+01,1.498e+01,1.716e+01,1.648e+01,1.536e+01,1.655e+01,1.848e+01,1.548e+01,1.945e+01,1.761e+01,1.579e+01,1.769e+01,1.487e+01,1.697e+01,1.764e+01,1.764e+01,1.702e+01,1.914e+01,1.657e+01,1.632e+01,1.660e+01,1.546e+01,1.587e+01,1.672e+01,1.590e+01,1.976e+01,1.581e+01,1.666e+01,1.570e+01,1.938e+01,1.355e+01,1.531e+01,1.615e+01,2.060e+01,1.638e+01,1.811e+01
2.022e-02,4.702e-01,1.063e+00,1.356e+00,2.392e+00,1.293e+00,1.917e+00,2.807e+00,3.024e+00,3.374e+00,3.164e+00,3.920e+00,2.901e+00,4.089e+00,4.273e+00,4.353e+00,3.546e+00,3.208e+00,4.593e+00,5.387e+00,5.447e+00,6.139e+00,7.431e+00,5.897e+00,6.983e+00,5.750e+00,6.692e+00,6.806e+00,7.974e+00,6.923e+00,8.390e+00,8.066e+00,9.411e+00,9.574e+00,8.374e+00,9.212e+00,1.030e+01,9.393e+00,1.210e+01,1.240e+01,1.060e+01,1.465e+01,1.122e+01,1.264e+01,1.306e+01,1.164e+01,1.409e+01,1.257e+01,1.226e+01,1.494e+01,1.589e+01,1.353e+01,1.517e+01,1.454e+01,1.416e+01,1.473e+01,1.617e+01,1.707e+01,1.592e+01,1.618e+01,1.601e+01,1.673e+01,1.615e+01,1.632e+01,1.602e+01,1.741e+01,1.457e+01,1.821e+01,1.817e+01,1.575e+01,1.716e+01,1.597e+01,1.788e+01,1.636e+01,1.678e+01,1.783e+01,1.730e+01,1.649e+01,1.655e+01,1.516e+01,1.499e+01,1.553e+01,1.572e+01,1.656e+01,1.932e+01,1.448e+01,1.700e+01,1.407e+01,2.005e+01,1.480e+01,1.548e+01,1.731e+01,1.906e+01,1.694e+01,1.584e+01
1.345e-03,8.536e-02,3.337e-01,7.548e-01,1.506e+00,6.487e-01,1.359e+00,1.781e+00,2.338e+00,2.671e+00,2.902e+00,2.829e+00,2.485e+00,4.007e+00,4.002e+00,3.849e+00,3.834e+00,2.518e+00,4.567e+00,4.633e+00,4.317e+00,5.452e+00,5.385e+00,4.337e+00,6.708e+00,5.168e+00,5.553e+00,7.205e+00,7.264e+00,7.163e+00,8.115e+00,7.833e+00,8.905e+00,8.971e+00,8.095e+00,7.532e+00,7.820e+00,7.815e+00,9.738e+00,9.185e+00,8.211e+00,1.270e+01,9.434e+00,1.112e+01,1.135e+01,1.046e+01,1.153e+01,1.138e+01,1.122e+01,1.199e+01,1.406e+01,1.214e+01,1.193e+01,1.254e+01,1.116e+01,1.210e+01,1.234e+01,1.308e+01,1.369e+01,1.478e+01,1.210e+01,1.308e+01,1.359e+01,1.376e+01,1.284e+01,1.560e+01,1.314e+01,1.352e+01,1.606e+01,1.238e+01,1.451e+01,1.252e+01,1.365e+01,1.425e+01,1.369e+01,1.468e+01,1.348e+01,1.367e+01,1.392e+01,1.228e+01,1.272e+01,1.301e+01,1.437e+01,1.328e+01,1.514e+01,1.164e+01,1.372e+01,1.268e+01,1.715e+01,1.139e+01,1.215e+01,1.300e+01,1.652e+01,1.344e+01,1.321e+01
7.845e-03,2.923e-01,9.058e-01,8.507e-01,1.608e+00,1.224e+00,1.413e+00,2.352e+00,2.777e+00,3.332e+00,2.644e+00,3.302e+00,2.749e+00,4.074e+00,4.025e+00,4.216e+00,3.962e+00,3.442e+00,4.854e+00,5.762e+00,5.055e+00,5.984e+00,6.372e+00,6.286e+00,6.805e+00,5.578e+00,6.102e+00,7.295e+00,8.040e+00,7.612e+00,8.231e+00,7.575e+00,9.047e+00,1.013e+01,8.631e+00,7.177e+00,9.512e+00,8.178e+00,1.077e+01,9.240e+00,9.747e+00,1.299e+01,1.099e+01,1.150e+01,1.159e+01,1.117e+01,1.267e+01,1.158e+01,1.195e+01,1.267e+01,1.469e+01,1.247e+01,1.288e+01,1.531e+01,1.237e+01,1.147e+01,1.370e+01,1.475e+01,1.499e+01,1.588e+01,1.449e+01,1.567e+01,1.601e+01,1.596e+01,1.538e+01,1.674e+01,1.538e+01,1.771e+01,1.705e+01,1.435e+01,1.562e+01,1.511e+01,1.577e+01,1.581e+01,1.613e+01,1.679e+01,1.604e+01,1.469e+01,1.466e+01,1.556e+01,1.559e+01,1.470e+01,1.483e+01,1.521e+01,1.817e+01,1.418e+01,1.473e+01,1.348e+01,1.884e+01,1.405e+01,1.504e+01,1.647e+01,1.769e+01,1.474e+01,1.559e+01
1.379e-02,2.034e-01,1.899e-01,3.742e-01,8.878e-01,1.759e-01,1.260e+00,1.708e+00,1.540e+00,1.897e+00,2.248e+00,2.364e+00,2.167e+00,3.332e+00,3.137e+00,4.669e+00,2.926e+00,2.717e+00,4.331e+00,4.164e+00,4.192e+00,5.563e+00,5.380e+00,4.790e+00,5.913e+00,4.778e+00,6.316e+00,7.152e+00,7.484e+00,6.975e+00,8.072e+00,7.523e+00,8.688e+00,9.282e+00,8.624e+00,6.651e+00,8.296e+00,7.922e+00,9.956e+00,9.521e+00,9.345e+00,1.252e+01,9.697e+00,1.022e+01,1.069e+01,1.028e+01,9.686e+00,1.095e+01,1.122e+01,1.341e+01,1.326e+01,1.196e+01,1.271e+01,1.411e+01,1.176e+01,1.160e+01,1.346e+01,1.422e+01,1.343e+01,1.518e+01,1.353e+01,1.342e+01,1.590e+01,1.469e+01,1.429e+01,1.797e+01,1.390e+01,1.703e+01,1.672e+01,1.258e+01,1.405e+01,1.309e+01,1.627e+01,1.541e+01,1.602e+01,1.514e+01,1.585e+01,1.361e+01,1.393e+01,1.508e+01,1.425e+01,1.436e+01,1.529e+01,1.496e+01,1.726e+01,1.239e+01,1.504e+01,1.331e+01,1.599e+01,1.285e+01,1.342e+01,1.325e+01,1.697e+01,1.363e+01,1.381e+01
2.894e-02,4.179e-01,3.448e-01,4.213e-01,1.062e+00,4.739e-01,1.322e+00,1.084e+00,1.518e+00,2.403e+00,2.012e+00,2.203e+00,1.865e+00,2.941e+00,3.237e+00,4.159e+00,2.645e+00,2.427e+00,3.959e+00,3.606e+00,4.058e+00,5.567e+00,4.606e+00,3.400e+00,5.413e+00,4.615e+00,5.792e+00,6.048e+00,7.171e+00,6.288e+00,7.352e+00,8.665e+00,8.351e+00,6.993e+00,8.091e+00,6.902e+00,7.712e+00,7.223e+00,9.274e+00,9.540e+00,8.016e+00,1.219e+01,8.795e+00,1.166e+01,1.013e+01,1.015e+01,9.625e+00,1.056e+01,1.131e+01,1.240e+01,1.298e+01,1.168e+01,1.076e+01,1.322e+01,1.032e+01,1.089e+01,1.306e+01,1.259e+01,1.301e+01,1.451e+01,1.304e+01,1.410e+01,1.452e+01,1.326e+01,1.279e+01,1.608e+01,1.363e+01,1.463e+01,1.700e+01,1.161e+01,1.462e+01,1.215e+01,1.562e+01,1.438e+01,1.489e+01,1.272e+01,1.494e+01,1.488e+01,1.256e+01,1.269e+01,1.465e+01,1.258e+01,1.523e+01,1.334e+01,1.612e+01,1.147e+01,1.403e+01,1.181e+01,1.504e+01,1.189e+01,1.249e+01,1.351e+01,1.649e+01,1.406e+01,1.205e+01
2.737e-02,5.250e-01,9.160e-01,9.597e-01,1.515e+00,6.085e-01,1.015e+00,1.559e+00,1.882e+00,2.017e+00,2.248e+00,2.201e+00,2.382e+00,3.603e+00,3.087e+00,3.635e+00,2.671e+00,2.689e+00,3.935e+00,4.187e+00,3.766e+00,5.542e+00,6.486e+00,4.948e+00,5.628e+00,4.761e+00,5.405e+00,6.903e+00,7.652e+00,6.572e+00,8.066e+00,7.723e+00,8.544e+00,8.041e+00,7.676e+00,7.794e+00,8.230e+00,7.799e+00,9.458e+00,9.944e+00,8.120e+00,1.254e+01,8.567e+00,1.107e+01,1.032e+01,1.096e+01,1.109e+01,1.221e+01,1.150e+01,1.279e+01,1.367e+01,1.255e+01,1.383e+01,1.403e+01,1.312e+01,1.268e+01,1.434e+01,1.511e+01,1.476e+01,1.690e+01,1.464e+01,1.560e+01,1.460e+01,1.608e+01,1.681e+01,1.876e+01,1.590e+01,1.527e+01,1.926e+01,1.461e+01,1.696e+01,1.652e+01,1.802e+01,1.614e+01,1.697e+01,1.651e+01,1.577e+01,1.593e+01,1.437e+01,1.620e+01,1.634e+01,1.589e+01,1.649e+01,1.609e+01,1.874e+01,1.490e+01,1.539e+01,1.365e+01,1.916e+01,1.464e+01,1.472e+01,1.474e+01,2.018e+01,1.714e+01,1.606e+01
2.160e-03,4.028e-02,8.542e-02,5.230e-01,1.033e+00,7.386e-01,1.581e+00,1.927e+00,2.086e+00,3.041e+00,2.835e+00,2.994e+00,2.688e+00,3.394e+00,3.922e+00,5.106e+00,4.459e+00,2.888e+00,4.824e+00,5.542e+00,4.913e+00,6.614e+00,6.110e+00,5.530e+00,7.382e+00,6.149e+00,6.758e+00,8.120e+00,8.947e+00,8.092e+00,9.362e+00,8.928e+00,1.021e+01,1.040e+01,1.021e+01,8.180e+00,1.106e+01,9.070e+00,1.090e+01,1.079e+01,9.708e+00,1.338e+01,1.187e+01,1.182e+01,1.199e+01,1.174e+01,1.209e+01,1.210e+01,1.315e+01,1.321e+01,1.542e+01,1.230e+01,1.233e+01,1.477e+01,1.266e+01,1.276e+01,1.491e+01,1.452e+01,1.542e+01,1.630e+01,1.457e+01,1.636e+01,1.578e+01,1.670e+01,1.618e+01,1.992e+01,1.497e+01,1.772e+01,1.894e+01,1.515e+01,1.569e+01,1.534e+01,1.635e+01,1.700e+01,1.569e+01,1.750e+01,1.722e+01,1.605e+01,1.475e+01,1.584e+01,1.606e+01,1.432e+01,1.614e+01,1.478e+01,1.941e+01,1.561e+01,1.534e+01,1.434e+01,1.768e+01,1.559e+01,1.489e+01,1.528e+01,1.979e+01,1.629e+01,1.645e+01
1.346e-02,2.687e-01,5.068e-01,7.272e-01,1.557e+00,9.433e-01,1.892e+00,2.192e+00,2.630e+00,2.904e+00,2.727e+00,3.196e+00,2.681e+00,3.056e+00,3.644e+00,4.802e+00,3.416e+00,2.599e+00,4.112e+00,4.371e+00,4.170e+00,5.716e+00,5.877e+00,4.951e+00,5.872e+00,5.013e+00,6.164e+00,6.012e+00,7.456e+00,6.532e+00,7.719e+00,6.576e+00,7.886e+00,8.649e+00,7.741e+00,7.366e+00,8.447e+00,8.112e+00,9.737e+00,9.796e+00,9.258e+00,1.325e+01,9.750e+00,1.093e+01,1.092e+01,1.017e+01,1.142e+01,1.007e+01,1.054e+01,1.331e+01,1.206e+01,1.115e+01,1.111e+01,1.224e+01,1.196e+01,1.148e+01,1.218e+01,1.392e+01,1.279e+01,1.377e+01,1.222e+01,1.356e+01,1.332e+01,1.470e+01,1.579e+01,1.630e+01,1.262e+01,1.576e+01,1.638e+01,1.441e+01,1.317e+01,1.277e+01,1.458e+01,1.555e+01,1.470e+01,1.305e+01,1.571e+01,1.383e+01,1.403e+01,1.439e+01,1.380e+01,1.335e+01,1.336e+01,1.374e+01,1.705e+01,1.291e+01,1.439e+01,1.151e+01,1.588e+01,1.249e+01,1.277e+01,1.491e+01,1.826e+01,1.508e+01,1.329e+01
5.451e-03,2.392e-01,7.949e-01,7.804e-01,9.999e-01,9.003e-01,1.062e+00,1.775e+00,2.357e+00,2.908e+00,2.516e+00,2.876e+00,2.201e+00,3.678e+00,3.626e+00,4.003e+00,3.921e+00,2.888e+00,4.347e+00,5.104e+00,4.668e+00,5.608e+00,5.707e+00,5.885e+00,6.216e+00,4.898e+00,5.738e+00,7.274e+00,7.132e+00,7.389e+00,7.989e+00,8.268e+00,9.301e+00,9.484e+00,8.742e+00,7.122e+00,1.026e+01,8.149e+00,9.924e+00,9.725e+00,8.433e+00,1.189e+01,1.061e+01,1.186e+01,9.351e+00,1.108e+01,1.062e+01,1.118e+01,1.160e+01,1.410e+01,1.376e+01,1.277e+01,1.348e+01,1.323e+01,1.280e+01,1.184e+01,1.455e+01,1.453e+01,1.486e+01,1.512e+01,1.458e+01,1.585e+01,1.606e+01,1.522e+01,1.690e+01,1.985e+01,1.427e+01,1.713e+01,1.853e+01,1.485e+01,1.696e+01,1.625e+01,1.655e+01,1.533e+01,1.702e+01,1.771e+01,1.818e+01,1.521e+01,1.506e+01,1.606e+01,1.654e+01,1.528e+01,1.536e+01,1.607e+01,1.906e+01,1.576e+01,1.607e+01,1.354e+01,1.714e+01,1.580e+01,1.472e+01,1.635e+01,1.879e+01,1.551e+01,1.662e+01
6.845e-03,2.118e-01,6.107e-01,9.683e-01,9.789e-01,5.849e-01,1.691e+00,1.504e+00,1.915e+00,2.664e+00,2.911e+00,2.495e+00,2.162e+00,3.340e+00,3.141e+00,4.689e+00,4.206e+00,3.253e+00,4.899e+00,4.833e+00,5.505e+00,6.924e+00,5.888e+00,5.095e+00,6.938e+00,5.095e+00,5.913e+00,7.216e+00,8.078e+00,7.809e+00,7.655e+00,8.178e+00,9.548e+00,8.730e+00,9.140e+00,8.223e+00,1.031e+01,7.559e+00,1.077e+01,1.121e+01,9.089e+00,1.417e+01,1.168e+01,1.219e+01,1.188e+01,1.086e+01,1.215e+01,1.143e+01,1.312e+01,1.391e+01,1.722e+01,1.405e+01,1.475e+01,1.439e+01,1.251e+01,1.465e+01,1.492e+01,1.652e+01,1.542e+01,1.778e+01,1.532e+01,1.717e+01,1.780e+01,1.531e+01,1.603e+01,1.983e+01,1.571e+01,1.776e+01,1.988e+01,1.679e+01,1.812e+01,1.578e+01,1.768e+01,1.627e+01,1.658e+01,1.784e+01,1.983e+01,1.739e+01,1.750e+01,1.793e+01,1.669e+01,1.697e+01,1.619e+01,1.825e+01,2.019e+01,1.532e+01,1.668e+01,1.473e+01,1.898e+01,1.516e+01,1.638e+01,1.699e+01,2.010e+01,1.712e+01,1.504e+01
2.272e-02,4.735e-01,9.494e-01,1.397e+00,2.178e+00,8.190e-01,2.143e+00,2.965e+00,1.891e+00,3.031e+00,3.095e+00,3.246e+00,3.243e+00,3.444e+00,3.156e+00,4.129e+00,4.207e+00,3.626e+00,4.116e+00,5.322e+00,5.090e+00,5.773e+00,6.465e+00,5.091e+00,6.350e+00,5.481e+00,6.873e+00,6.984e+00,8.969e+00,7.675e+00,8.509e+00,9.253e+00,9.516e+00,1.026e+01,9.426e+00,1.026e+01,1.090e+01,8.793e+00,1.191e+01,1.195e+01,9.866e+00,1.527e+01,1.193e+01,1.254e+01,1.319e+01,1.331e+01,1.246e+01,1.395e+01,1.370e+01,1.541e+01,1.720e+01,1.359e+01,1.542e+01,1.675e+01,1.470e+01,1.421e+01,1.605e+01,1.764e+01,1.676e+01,1.708e+01,1.477e+01,1.746e+01,1.818e+01,1.773e+01,1.909e+01,2.176e+01,1.694e+01,2.134e+01,2.251e+01,1.809e+01,1.898e+01,1.874e+01,1.987e+01,1.916e+01,1.873e+01,1.911e+01,2.154e+01,1.945e+01,1.768e+01,1.990e+01,1.891e+01,1.818e+01,1.834e+01,1.662e+01,2.428e+01,1.717e+01,1.754e+01,1.747e+01,2.117e+01,1.837e+01,1.929e+01,1.923e+01,2.322e+01,1.888e+01,2.010e+01
3.074e-02,6.139e-01,1.146e+00,1.338e+00,2.191e+00,9.451e-01,1.330e+00,2.288e+00,2.436e+00,2.208e+00,2.288e+00,2.740e+00,2.693e+00,3.629e+00,2.934e+00,3.060e+00,3.215e+00,2.685e+00,3.102e+00,4.206e+00,4.126e+00,5.638e+00,6.466e+00,5.843e+00,6.041e+00,5.505e+00,5.469e+00,6.861e+00,8.795e+00,6.971e+00,8.002e+00,8.775e+00,9.607e+00,1.007e+01,9.617e+00,8.952e+00,9.966e+00,9.191e+00,1.103e+01,1.015e+01,9.593e+00,1.309e+01,1.043e+01,1.148e+01,1.128e+01,1.067e+01,1.204e+01,1.151e+01,1.080e+01,1.446e+01,1.350e+01,1.371e+01,1.299e+01,1.403e+01,1.348e+01,1.184e+01,1.460e+01,1.427e+01,1.484e+01,1.578e+01,1.320e+01,1.525e+01,1.549e+01,1.511e+01,1.562e+01,1.910e+01,1.354e+01,1.831e+01,1.866e+01,1.619e+01,1.733e+01,1.674e+01,1.840e+01,1.700e+01,1.670e+01,1.781e+01,1.837e+01,1.575e+01,1.522e+01,1.607e+01,1.711e+01,1.650e+01,1.590e+01,1.521e+01,1.941e+01,1.579e+01,1.658e+01,1.542e+01,1.976e+01,1.570e+01,1.518e+01,1.683e+01,1.935e+01,1.645e+01,1.655e+01
1.399e-02,3.562e-01,8.611e-01,7.102e-01,1.107e+00,7.066e-01,1.476e+00,2.232e+00,1.967e+00,2.798e+00,2.652e+00,2.962e+00,2.574e+00,4.035e+00,3.603e+00,4.599e+00,3.562e+00,3.574e+00,4.668e+00,5.179e+00,4.761e+00,5.651e+00,6.117e+00,5.799e+00,5.888e+00,4.835e+00,7.098e+00,7.888e+00,7.612e+00,7.589e+00,8.594e+00,8.449e+00,9.022e+00,9.702e+00,8.582e+00,8.194e+00,9.876e+00,8.122e+00,1.091e+01,9.689e+00,8.873e+00,1.347e+01,1.008e+01,1.095e+01,1.034e+01,1.125e+01,1.096e+01,1.060e+01,9.822e+00,1.257e+01,1.318e+01,1.120e+01,1.274e+01,1.356e+01,1.254e+01,1.140e+01,1.350e+01,1.420e+01,1.297e+01,1.537e+01,1.388e+01,1.476e+01,1.497e+01,1.558e+01,1.673e+01,1.854e+01,1.427e+01,1.745e+01,2.049e+01,1.757e+01,1.686e+01,1.732e+01,1.898e+01,1.677e+01,1.681e+01,1.769e+01,1.888e+01,1.580e+01,1.541e+01,1.806e+01,1.748e+01,1.551e+01,1.711e+01,1.752e+01,1.989e+01,1.482e+01,1.594e+01,1.388e+01,1.778e+01,1.608e+01,1.604e+01,1.657e+01,2.079e+01,1.734e+01,1.609e+01
2.704e-02,4.057e-01,4.079e-01,8.538e-01,1.532e+00,6.570e-01,1.939e+00,2.260e+00,2.130e+00,2.593e+00,2.558e+00,3.010e+00,2.886e+00,3.709e+00,3.276e+00,4.508e+00,3.337e+00,3.366e+00,4.541e+00,4.224e+00,4.747e+00,7.244e+00,6.322e+00,5.107e+00,7.205e+00,5.697e+00,6.405e+00,6.193e+00,7.664e+00,6.566e+00,8.234e+00,8.943e+00,9.802e+00,8.903e+00,9.251e+00,8.446e+00,9.075e+00,8.700e+00,1.173e+01,1.149e+01,9.255e+00,1.421e+01,1.110e+01,1.197e+01,1.265e+01,1.165e+01,1.151e+01,1.227e+01,1.314e+01,1.479e+01,1.523e+01,1.320e+01,1.316e+01,1.516e+01,1.246e+01,1.375e+01,1.524e+01,1.578e+01,1.613e+01,1.843e+01,1.587e+01,1.672e+01,1.769e+01,1.628e+01,1.809e+01,2.173e+01,1.689e+01,1.966e+01,2.028e+01,1.775e+01,1.914e+01,1.880e+01,2.106e+01,1.921e+01,1.816e+01,1.883e+01,2.177e+01,1.878e+01,1.792e+01,1.982e+01,2.055e+01,1.779e+01,1.840e+01,1.864e+01,2.317e+01,1.782e+01,1.922e+01,1.681e+01,2.064e+01,1.812e+01,1.847e+01,1.768e+01,2.285e+01,1.914e+01,1.890e+01
1.564e-02,3.806e-01,9.035e-01,1.215e+00,1.668e+00,1.184e+00,1.869e+00,2.176e+00,3.030e+00,3.713e+00,3.390e+00,3.634e+00,3.014e+00,4.953e+00,4.580e+00,5.092e+00,4.273e+00,4.002e+00,5.796e+00,5.599e+00,5.638e+00,8.082e+00,8.070e+00,6.309e+00,8.686e+00,6.308e+00,8.186e+00,9.163e+00,8.963e+00,8.205e+00,1.023e+01,1.036e+01,1.094e+01,1.059e+01,1.091e+01,9.802e+00,1.130e+01,1.002e+01,1.332e+01,1.290e+01,1.053e+01,1.590e+01,1.305e+01,1.394e+01,1.454e+01,1.327e+01,1.491e+01,1.442e+01,1.531e+01,1.586e+01,1.832e+01,1.444e+01,1.526e+01,1.671e+01,1.420e+01,1.520e+01,1.586e+01,1.834e+01,1.699e+01,2.010e+01,1.571e+01,1.749e+01,1.809e+01,1.731e+01,1.802e+01,2.131e+01,1.844e+01,2.151e+01,2.212e+01,1.886e+01,1.935e+01,1.882e+01,2.145e+01,1.931e+01,1.994e+01,2.177e+01,2.269e+01,1.970e+01,2.004e+01,2.127e+01,2.068e+01,1.811e+01,1.956e+01,1.968e+01,2.334e+01,1.947e+01,2.001e+01,1.892e+01,2.289e+01,1.878e+01,2.007e+01,2.039e+01,2.248e+01,1.972e+01,1.874e+01
6.616e-03,2.412e-01,7.445e-01,8.190e-01,1.902e+00,1.217e+00,1.323e+00,2.693e+00,2.558e+00,2.738e+00,2.253e+00,3.430e+00,2.569e+00,3.661e+00,3.596e+00,4.010e+00,3.730e+00,2.778e+00,3.391e+00,5.099e+00,4.478e+00,5.470e+00,5.671e+00,5.636e+00,6.054e+00,5.698e+00,6.228e+00,6.701e+00,7.998e+00,7.036e+00,8.683e+00,8.869e+00,9.511e+00,1.044e+01,8.909e+00,7.504e+00,9.760e+00,8.751e+00,1.131e+01,1.002e+01,9.838e+00,1.398e+01,1.133e+01,1.130e+01,1.207e+01,1.170e+01,1.229e+01,1.206e+01,1.233e+01,1.433e+01,1.511e+01,1.316e+01,1.258e+01,1.452e+01,1.375e+01,1.210e+01,1.507e+01,1.450e+01,1.631e+01,1.651e+01,1.347e+01,1.644e+01,1.566e+01,1.598e+01,1.721e+01,1.866e+01,1.452e+01,1.818e+01,1.803e+01,1.561e+01,1.697e+01,1.768e+01,1.888e+01,1.836e+01,1.685e+01,1.938e+01,1.943e+01,1.670e+01,1.688e+01,1.765e+01,1.924e+01,1.547e+01,1.835e+01,1.617e+01,2.084e+01,1.599e+01,1.713e+01,1.665e+01,2.003e+01,1.705e+01,1.708e+01,1.790e+01,2.068e+01,1.598e+01,1.805e+01
2.274e-02,3.375e-01,3.369e-01,9.780e-01,1.917e+00,3.184e-01,2.173e+00,2.137e+00,1.500e+00,2.018e+00,2.956e+00,2.489e+00,3.121e+00,3.741e+00,3.279e+00,4.973e+00,4.146e+00,3.349e+00,4.603e+00,4.671e+00,4.506e+00,6.899e+00,6.271e+00,4.932e+00,6.376e+00,5.073e+00,6.619e+00,6.891e+00,8.175e+00,7.281e+00,8.646e+00,7.405e+00,9.519e+00,9.032e+00,8.163e+00,8.816e+00,8.133e+00,8.598e+00,1.039e+01,9.814e+00,9.407e+00,1.467e+01,1.033e+01,1.276e+01,1.207e+01,1.152e+01,1.245e+01,1.248e+01,1.282e+01,1.534e+01,1.581e+01,1.403e+01,1.345e+01,1.616e+01,1.394e+01,1.348e+01,1.532e+01,1.750e+01,1.647e+01,1.735e+01,1.540e+01,1.610e+01,1.783e+01,1.614e+01,1.794e+01,2.107e+01,1.527e+01,2.067e+01,2.052e+01,1.857e+01,1.843e+01,1.918e+01,2.058e+01,2.027e+01,2.083e+01,2.086e+01,2.050e+01,2.111e+01,1.960e+01,2.103e+01,2.175e+01,2.027e+01,1.928e+01,1.844e+01,2.374e+01,1.808e+01,2.009e+01,1.903e+01,2.126e+01,1.843e+01,1.921e+01,2.055e+01,2.432e+01,1.859e+01,2.070e+01
1.701e-03,4.654e-02,1.410e-01,6.336e-01,1.201e+00,7.933e-01,1.554e+00,2.031e+00,2.376e+00,3.023e+00,2.419e+00,3.107e+00,2.209e+00,3.347e+00,3.541e+00,4.434e+00,3.616e+00,2.885e+00,4.401e+00,4.366e+00,4.647e+00,6.821e+00,6.105e+00,4.415e+00,6.882e+00,5.004e+00,6.452e+00,6.044e+00,7.112e+00,6.781e+00,8.287e+00,8.952e+00,9.642e+00,8.444e+00,9.462e+00,8.153e+00,9.810e+00,8.905e+00,1.177e+01,1.173e+01,9.893e+00,1.394e+01,1.103e+01,1.311e+01,1.248e+01,1.225e+01,1.227e+01,1.263e+01,1.319e+01,1.480e+01,1.486e+01,1.251e+01,1.384e+01,1.396e+01,1.306e+01,1.317e+01,1.451e+01,1.492e+01,1.567e+01,1.588e+01,1.503e+01,1.542e+01,1.592e+01,1.583e+01,1.829e+01,2.093e+01,1.519e+01,1.869e+01,2.040e+01,1.900e+01,1.811e+01,1.874e+01,2.065e+01,2.000e+01,1.980e+01,2.017e+01,1.954e+01,1.954e+01,1.805e+01,1.873e+01,2.121e+01,1.870e+01,1.982e+01,1.772e+01,2.125e+01,1.822e+01,1.888e+01,1.778e+01,2.184e+01,1.914e+01,1.970e+01,1.997e+01,2.319e+01,2.018e+01,1.949e+01
2.634e-03,1.834e-01,7.056e-01,9.945e-01,1.368e+00,7.438e-01,1.397e+00,2.165e+00,2.447e+00,2.650e+00,2.663e+00,2.983e+00,2.307e+00,3.343e+00,3.230e+00,3.812e+00,3.323e+00,2.448e+00,3.995e+00,4.269e+00,4.309e+00,5.354e+00,6.389e+00,4.811e+00,6.205e+00,4.810e+00,5.842e+00,7.113e+00,7.816e+00,7.845e+00,9.213e+00,9.073e+00,1.002e+01,1.007e+01,9.372e+00,8.726e+00,1.063e+01,9.529e+00,1.128e+01,1.207e+01,9.486e+00,1.446e+01,1.102e+01,1.273e+01,1.299e+01,1.289e+01,1.319e+01,1.339e+01,1.280e+01,1.410e+01,1.608e+01,1.328e+01,1.374e+01,1.538e+01,1.345e+01,1.376e+01,1.575e+01,1.625e+01,1.639e+01,1.684e+01,1.571e+01,1.628e+01,1.725e+01,1.700e+01,1.811e+01,1.972e+01,1.566e+01,1.874e+01,2.206e+01,1.927e+01,1.855e+01,2.034e+01,2.143e+01,2.150e+01,2.021e+01,2.145e+01,2.064e+01,2.020e+01,1.881e+01,2.025e+01,2.334e+01,1.836e+01,2.049e+01,1.992e+01,2.197e+01,1.878e+01,1.994e+01,1.966e+01,2.314e+01,2.072e+01,2.134e+01,2.140e+01,2.514e+01,2.026e+01,2.086e+01
1.094e-02,1.672e-01,1.897e-01,6.192e-01,1.117e+00,3.642e-01,1.638e+00,2.025e+00,1.925e+00,2.478e+00,2.848e+00,2.728e+00,2.615e+00,2.835e+00,3.244e+00,3.938e+00,3.232e+00,2.168e+00,4.473e+00,4.502e+00,4.869e+00,5.640e+00,5.697e+00,4.897e+00,6.416e+00,4.408e+00,5.947e+00,6.359e+00,7.884e+00,7.724e+00,8.182e+00,7.693e+00,9.459e+00,9.242e+00,9.385e+00,7.792e+00,9.393e+00,8.401e+00,1.106e+01,1.071e+01,9.238e+00,1.350e+01,1.040e+01,1.179e+01,1.197e+01,1.168e+01,1.160e+01,1.254e+01,1.262e+01,1.539e+01,1.520e+01,1.325e+01,1.394e+01,1.445e+01,1.259e+01,1.339e+01,1.376e+01,1.499e+01,1.522e+01,1.682e+01,1.463e+01,1.536e+01,1.724e+01,1.589e+01,1.701e+01,1.965e+01,1.461e+01,1.844e+01,2.049e+01,1.878e+01,1.936e+01,1.801e+01,1.963e+01,1.878e+01,1.801e+01,1.952e+01,2.012e+01,1.725e+01,1.763e+01,2.067e+01,2.047e+01,1.742e+01,1.916e+01,1.773e+01,2.285e+01,1.656e+01,2.012e+01,1.976e+01,2.121e+01,1.804e+01,1.940e+01,1.914e+01,2.341e+01,1.857e+01,1.891e+01
1.682e-02,3.976e-01,9.179e-01,1.257e+00,2.368e+00,1.329e+00,2.357e+00,3.320e+00,3.396e+00,4.012e+00,3.735e+00,4.510e+00,3.761e+00,4.898e+00,4.951e+00,5.588e+00,4.915e+00,4.123e+00,6.030e+00,6.605e+00,6.693e+00,7.397e+00,7.133e+00,6.371e+00,8.177e+00,6.269e+00,7.610e+00,6.732e+00,8.403e+00,8.542e+00,8.900e+00,8.236e+00,1.033e+01,1.011e+01,9.210e+00,9.538e+00,1.097e+01,8.732e+00,1.213e+01,1.120e+01,9.392e+00,1.440e+01,1.266e+01,1.308e+01,1.310e+01,1.083e+01,1.243e+01,1.268e+01,1.312e+01,1.319e+01,1.659e+01,1.358e+01,1.410e+01,1.421e+01,1.278e+01,1.548e+01,1.495e+01,1.693e+01,1.646e+01,1.728e+01,1.571e+01,1.777e+01,1.669e+01,1.679e+01,1.668e+01,2.067e+01,1.554e+01,1.945e+01,2.065e+01,1.815e+01,1.776e+01,1.857e+01,2.131e+01,1.990e+01,1.754e+01,2.045e+01,2.191e+01,2.104e+01,1.998e+01,2.134e+01,2.092e+01,1.876e+01,1.977e+01,2.012e+01,2.418e+01,1.867e+01,1.943e+01,1.826e+01,2.178e+01,1.902e+01,2.287e+01,2.255e+01,2.353e+01,1.952e+01,1.990e+01
3.250e-02,5.908e-01,9.339e-01,8.633e-01,1.869e+00,9.252e-01,1.722e+00,2.369e+00,1.778e+00,2.817e+00,3.092e+00,3.371e+00,2.836e+00,3.887e+00,4.274e+00,4.553e+00,3.245e+00,3.648e+00,4.337e+00,5.521e+00,5.006e+00,6.034e+00,6.610e+00,5.857e+00,5.673e+00,5.449e+00,7.055e+00,6.958e+00,8.308e+00,6.926e+00,9.286e+00,8.943e+00,9.940e+00,9.724e+00,8.722e+00,8.260e+00,9.484e+00,8.943e+00,1.055e+01,1.065e+01,9.206e+00,1.375e+01,1.140e+01,1.261e+01,1.190e+01,1.128e+01,1.115e+01,1.154e+01,1.207e+01,1.418e+01,1.557e+01,1.253e+01,1.358e+01,1.512e+01,1.332e+01,1.336e+01,1.508e+01,1.553e+01,1.558e+01,1.670e+01,1.480e+01,1.672e+01,1.603e+01,1.616e+01,1.747e+01,2.028e+01,1.557e+01,1.916e+01,2.018e+01,1.618e+01,1.817e+01,1.743e+01,1.925e+01,1.863e+01,1.925e+01,1.928e+01,1.918e+01,1.910e+01,1.862e+01,2.149e+01,1.985e+01,1.930e+01,2.072e+01,1.934e+01,2.266e+01,1.866e+01,2.042e+01,1.776e+01,2.072e+01,1.942e+01,1.942e+01,1.883e+01,2.417e+01,1.935e+01,1.907e+01
7.849e-03,1.176e-01,1.358e-01,7.020e-01,1.167e+00,3.198e-01,1.598e+00,1.787e+00,1.671e+00,2.356e+00,2.453e+00,2.420e+00,2.432e+00,3.167e+00,3.039e+00,5.013e+00,4.017e+00,2.713e+00,4.702e+00,4.688e+00,4.667e+00,6.693e+00,6.073e+00,4.398e+00,6.949e+00,5.576e+00,5.580e+00,7.058e+00,7.350e+00,7.137e+00,7.849e+00,7.790e+00,9.322e+00,8.645e+00,8.308e+00,7.455e+00,8.260e+00,7.759e+00,1.003e+01,9.932e+00,7.847e+00,1.329e+01,1.024e+01,1.041e+01,1.078e+01,9.782e+00,1.043e+01,1.020e+01,1.147e+01,1.154e+01,1.390e+01,1.039e+01,1.152e+01,1.292e+01,1.083e+01,1.226e+01,1.385e+01,1.487e+01,1.366e+01,1.505e+01,1.446e+01,1.468e+01,1.584e+01,1.387e+01,1.527e+01,1.840e+01,1.305e+01,1.703e+01,1.861e+01,1.578e+01,1.643e+01,1.699e+01,1.672e+01,1.745e+01,1.724e+01,1.710e+01,1.801e+01,1.823e+01,1.736e+01,1.904e+01,2.066e+01,1.897e+01,1.883e+01,1.738e+01,2.232e+01,1.634e+01,1.914e+01,1.792e+01,1.933e+01,1.784e+01,1.887e+01,1.772e+01,2.085e+01,1.817e+01,1.789e+01
3.389e-02,6.077e-01,9.581e-01,1.413e+00,2.619e+00,1.098e+00,2.037e+00,3.102e+00,2.521e+00,2.931e+00,2.956e+00,3.870e+00,3.339e+00,4.803e+00,4.055e+00,4.240e+00,3.366e+00,3.561e+00,4.232e+00,4.984e+00,4.987e+00,5.866e+00,6.771e+00,5.406e+00,7.020e+00,5.369e+00,7.501e+00,6.833e+00,7.810e+00,6.571e+00,8.550e+00,8.915e+00,9.547e+00,9.268e+00,8.710e+00,9.462e+00,9.730e+00,9.530e+00,1.147e+01,1.065e+01,9.951e+00,1.333e+01,1.034e+01,1.133e+01,1.173e+01,1.124e+01,1.225e+01,1.264e+01,1.120e+01,1.431e+01,1.471e+01,1.176e+01,1.258e+01,1.373e+01,1.232e+01,1.133e+01,1.334e+01,1.438e+01,1.400e+01,1.561e+01,1.290e+01,1.521e+01,1.511e+01,1.590e+01,1.538e+01,1.812e+01,1.405e+01,1.824e+01,1.961e+01,1.620e+01,1.617e+01,1.706e+01,2.070e+01,1.970e+01,1.880e+01,1.852e+01,2.063e+01,1.887e+01,1.745e+01,2.093e+01,1.983e+01,1.790e+01,2.001e+01,1.765e+01,2.241e+01,1.845e+01,1.994e+01,1.836e+01,2.054e+01,1.856e+01,1.990e+01,2.144e+01,2.128e+01,1.862e+01,1.885e+01
5.999e-04,1.300e-01,5.726e-01,8.792e-01,1.317e+00,6.539e-01,1.417e+00,2.422e+00,2.560e+00,2.283e+00,2.551e+00,3.207e+00,2.289e+00,3.916e+00,3.253e+00,4.587e+00,3.639e+00,3.402e+00,4.202e+00,4.023e+00,4.013e+00,6.389e+00,5.829e+00,4.851e+00,5.926e+00,4.279e+00,6.429e+00,5.958e+00,7.287e+00,7.228e+00,8.568e+00,7.507e+00,8.774e+00,8.734e+00,8.221e+00,7.273e+00,8.495e+00,7.837e+00,1.046e+01,8.369e+00,8.185e+00,1.231e+01,1.001e+01,1.051e+01,1.123e+01,1.035e+01,1.073e+01,1.151e+01,1.136e+01,1.225e+01,1.400e+01,1.175e+01,1.152e+01,1.304e+01,1.070e+01,1.269e+01,1.213e+01,1.416e+01,1.448e+01,1.590e+01,1.310e+01,1.344e+01,1.503e+01,1.532e+01,1.478e+01,1.827e+01,1.396e+01,1.861e+01,1.878e+01,1.542e+01,1.701e+01,1.612e+01,1.964e+01,1.779e+01,1.738e+01,1.996e+01,1.987e+01,1.894e+01,1.834e+01,2.095e+01,2.229e+01,1.923e+01,2.003e+01,1.933e+01,2.183e+01,1.769e+01,2.013e+01,2.139e+01,2.308e+01,1.878e+01,2.034e+01,2.157e+01,2.282e+01,1.962e+01,1.817e+01
1.180e-02,2.850e-01,6.633e-01,7.072e-01,1.322e+00,8.255e-01,1.425e+00,2.297e+00,1.667e+00,2.710e+00,2.376e+00,3.104e+00,1.910e+00,3.193e+00,3.327e+00,4.038e+00,3.014e+00,3.146e+00,4.015e+00,5.171e+00,5.442e+00,6.708e+00,7.134e+00,6.001e+00,6.761e+00,4.730e+00,6.910e+00,7.396e+00,8.424e+00,6.204e+00,8.605e+00,8.355e+00,9.592e+00,9.419e+00,8.751e+00,7.763e+00,1.017e+01,8.316e+00,1.094e+01,1.030e+01,1.066e+01,1.245e+01,1.124e+01,1.191e+01,1.126e+01,1.049e+01,1.131e+01,1.037e+01,1.094e+01,1.339e+01,1.465e+01,1.196e+01,1.259e+01,1.371e+01,1.285e+01,1.137e+01,1.420e+01,1.456e+01,1.400e+01,1.560e+01,1.365e+01,1.512e+01,1.639e+01,1.526e+01,1.724e+01,1.939e+01,1.528e+01,1.928e+01,2.038e+01,1.887e+01,1.820e+01,1.682e+01,1.916e+01,1.827e+01,1.840e+01,1.951e+01,1.971e+01,1.785e+01,1.814e+01,2.152e+01,2.193e+01,2.024e+01,1.994e+01,1.792e+01,2.375e+01,2.007e+01,2.187e+01,2.062e+01,2.361e+01,2.003e+01,2.155e+01,2.159e+01,2.385e+01,2.065e+01,1.938e+01
1.782e-02,4.284e-01,9.905e-01,1.015e+00,2.033e+00,1.116e+00,1.812e+00,2.772e+00,2.297e+00,3.043e+00,3.297e+00,3.825e+00,2.897e+00,4.580e+00,4.509e+00,4.469e+00,4.133e+00,3.725e+00,4.933e+00,6.234e+00,6.197e+00,6.798e+00,6.835e+00,6.623e+00,7.126e+00,5.185e+00,7.505e+00,7.703e+00,8.191e+00,6.829e+00,8.718e+00,8.443e+00,1.014e+01,1.046e+01,9.205e+00,8.729e+00,1.037e+01,8.999e+00,1.123e+01,1.024e+01,9.816e+00,1.338e+01,1.162e+01,1.274e+01,1.257e+01,1.204e+01,1.299e+01,1.206e+01,1.187e+01,1.361e+01,1.533e+01,1.192e+01,1.335e+01,1.524e+01,1.275e+01,1.291e+01,1.482e+01,1.511e+01,1.626e+01,1.656e+01,1.514e+01,1.675e+01,1.645e+01,1.729e+01,1.723e+01,2.056e+01,1.604e+01,1.974e+01,2.081e+01,1.921e+01,1.944e+01,1.985e+01,2.100e+01,2.123e+01,2.003e+01,2.232e+01,2.041e+01,2.061e+01,1.866e+01,2.287e+01,2.282e+01,2.085e+01,2.205e+01,1.988e+01,2.465e+01,2.040e+01,2.254e+01,2.206e+01,2.373e+01,2.197e+01,2.379e+01,2.324e+01,2.437e+01,2.120e+01,2.102e+01
2.435e-02,5.229e-01,1.083e+00,1.443e+00,2.254e+00,9.961e-01,2.315e+00,2.656e+00,2.436e+00,2.910e+00,3.000e+00,3.351e+00,3.000e+00,3.273e+00,3.237e+00,4.396e+00,4.413e+00,3.004e+00,4.285e+00,4.929e+00,5.209e+00,6.298e+00,6.089e+00,5.344e+00,6.138e+00,5.214e+00,6.151e+00,6.403e+00,7.821e+00,7.481e+00,7.860e+00,6.876e+00,8.688e+00,8.611e+00,6.727e+00,7.928e+00,9.490e+00,8.542e+00,9.464e+00,1.016e+01,8.107e+00,1.299e+01,1.036e+01,1.214e+01,9.821e+00,9.975e+00,1.048e+01,1.146e+01,1.158e+01,1.315e+01,1.399e+01,1.225e+01,1.308e+01,1.318e+01,1.267e+01,1.266e+01,1.354e+01,1.627e+01,1.472e+01,1.558e+01,1.501e+01,1.577e+01,1.646e+01,1.526e+01,1.618e+01,1.757e+01,1.462e+01,1.733e+01,1.833e+01,1.666e+01,1.644e+01,1.757e+01,2.032e+01,1.940e+01,1.836e+01,1.799e+01,1.995e+01,1.988e+01,1.751e+01,2.062e+01,2.157e+01,1.931e+01,1.905e+01,1.925e+01,2.452e+01,1.878e+01,2.080e+01,2.023e+01,2.155e+01,1.925e+01,2.101e+01,2.298e+01,2.219e+01,1.998e+01,2.101e+01
3.601e-02,6.368e-01,9.568e-01,9.489e-01,2.233e+00,9.902e-01,1.916e+00,2.803e+00,2.035e+00,2.980e+00,2.894e+00,3.563e+00,3.107e+00,3.513e+00,3.966e+00,4.587e+00,3.526e+00,3.375e+00,4.481e+00,5.698e+00,5.437e+00,6.066e+00,6.642e+00,5.441e+00,6.145e+00,4.950e+00,6.143e+00,5.790e+00,7.411e+00,5.671e+00,7.603e+00,6.870e+00,8.650e+00,8.248e+00,8.766e+00,8.464e+00,8.550e+00,7.682e+00,8.769e+00,9.934e+00,8.743e+00,1.204e+01,9.716e+00,1.035e+01,1.057e+01,1.048e+01,1.095e+01,1.031e+01,1.111e+01,1.238e+01,1.480e+01,1.175e+01,1.262e+01,1.401e+01,1.230e+01,1.246e+01,1.276e+01,1.480e+01,1.362e+01,1.443e+01,1.368e+01,1.481e+01,1.553e+01,1.372e+01,1.648e+01,1.709e+01,1.407e+01,1.919e+01,1.910e+01,1.877e+01,1.698e+01,1.785e+01,1.904e+01,1.827e+01,1.718e+01,1.830e+01,1.902e+01,1.732e+01,1.763e+01,2.082e+01,1.987e+01,1.840e+01,1.941e+01,1.863e+01,2.357e+01,1.880e+01,2.056e+01,1.950e+01,2.312e+01,2.013e+01,2.146e+01,2.136e+01,2.382e+01,1.862e+01,1.911e+01
1.486e-02,3.733e-01,9.058e-01,1.066e+00,1.118e+00,6.857e-01,1.683e+00,2.134e+00,1.653e+00,2.622e+00,3.221e+00,2.805e+00,2.527e+00,3.730e+00,3.261e+00,3.734e+00,3.388e+00,3.413e+00,4.115e+00,5.031e+00,5.089e+00,5.853e+00,6.523e+00,6.006e+00,6.610e+00,4.949e+00,6.443e+00,7.771e+00,8.566e+00,6.520e+00,8.122e+00,9.115e+00,9.778e+00,1.008e+01,8.627e+00,8.358e+00,9.385e+00,8.189e+00,1.077e+01,1.066e+01,9.097e+00,1.258e+01,1.034e+01,1.148e+01,1.128e+01,1.158e+01,1.184e+01,1.120e+01,1.134e+01,1.410e+01,1.415e+01,1.217e+01,1.294e+01,1.449e+01,1.289e+01,1.241e+01,1.513e+01,1.507e+01,1.416e+01,1.544e+01,1.280e+01,1.532e+01,1.485e+01,1.635e+01,1.599e+01,2.015e+01,1.474e+01,1.925e+01,1.972e+01,1.668e+01,1.793e+01,1.794e+01,1.934e+01,1.804e+01,2.013e+01,2.031e+01,1.983e+01,1.971e+01,1.782e+01,2.214e+01,1.939e+01,1.992e+01,2.026e+01,1.927e+01,2.263e+01,2.039e+01,2.187e+01,2.116e+01,2.349e+01,2.109e+01,2.061e+01,2.160e+01,2.408e+01,2.038e+01,2.093e+01
1.860e-02,3.922e-01,7.796e-01,7.042e-01,1.340e+00,8.979e-01,1.503e+00,2.461e+00,1.843e+00,2.082e+00,2.054e+00,3.211e+00,2.405e+00,3.459e+00,2.997e+00,4.088e+00,3.129e+00,3.128e+00,4.615e+00,4.741e+00,4.890e+00,6.165e+00,5.094e+00,4.764e+00,5.905e+00,4.970e+00,5.643e+00,6.244e+00,6.287e+00,6.616e+00,8.997e+00,8.011e+00,9.010e+00,8.392e+00,8.328e+00,6.909e+00,9.536e+00,7.785e+00,1.015e+01,1.075e+01,7.539e+00,1.327e+01,1.098e+01,1.103e+01,1.151e+01,1.159e+01,1.155e+01,1.208e+01,1.255e+01,1.327e+01,1.496e+01,1.206e+01,1.374e+01,1.520e+01,1.319e+01,1.327e+01,1.355e+01,1.492e+01,1.613e+01,1.630e+01,1.567e+01,1.496e+01,1.530e+01,1.705e+01,1.766e+01,1.978e+01,1.368e+01,1.805e+01,1.978e+01,1.628e+01,1.699e+01,1.808e+01,1.719e+01,1.804e+01,1.794e+01,1.720e+01,1.983e+01,1.937e+01,1.878e+01,2.023e+01,2.268e+01,1.822e+01,1.985e+01,1.929e+01,2.590e+01,2.067e+01,2.210e+01,1.962e+01,2.262e+01,2.086e+01,2.311e+01,2.267e+01,2.448e+01,1.984e+01,2.089e+01
2.350e-02,3.756e-01,4.640e-01,9.729e-01,1.699e+00,5.228e-01,2.333e+00,2.683e+00,1.554e+00,2.941e+00,3.098e+00,3.265e+00,2.969e+00,4.035e+00,3.559e+00,4.446e+00,3.837e+00,3.821e+00,4.644e+00,4.905e+00,5.022e+00,5.781e+00,5.167e+00,4.433e+00,6.602e+00,4.391e+00,7.004e+00,6.153e+00,7.255e+00,6.231e+00,7.444e+00,7.953e+00,8.771e+00,8.750e+00,8.494e+00,9.128e+00,8.671e+00,7.263e+00,1.015e+01,9.242e+00,9.073e+00,1.230e+01,1.059e+01,1.108e+01,1.152e+01,1.095e+01,1.081e+01,1.119e+01,1.173e+01,1.326e+01,1.576e+01,1.187e+01,1.243e+01,1.460e+01,1.223e+01,1.149e+01,1.344e+01,1.413e+01,1.307e+01,1.480e+01,1.273e+01,1.488e+01,1.602e+01,1.536e+01,1.635e+01,2.051e+01,1.442e+01,1.879e+01,1.963e+01,1.549e+01,1.517e+01,1.685e+01,1.791e+01,1.823e+01,1.793e+01,1.978e+01,1.945e+01,1.901e+01,1.741e+01,1.998e+01,1.987e+01,1.716e+01,1.993e+01,1.858e+01,2.441e+01,1.907e+01,2.071e+01,2.000e+01,2.183e+01,1.938e+01,2.038e+01,2.240e+01,2.292e+01,1.798e+01,2.074e+01
2.208e-02,4.325e-01,7.799e-01,8.231e-01,1.984e+00,8.246e-01,1.286e+00,2.698e+00,1.817e+00,2.115e+00,2.278e+00,3.094e+00,2.992e+00,4.275e+00,3.509e+00,4.562e+00,3.892e+00,3.520e+00,4.260e+00,5.525e+00,4.465e+00,6.624e+00,6.470e+00,5.466e+00,6.730e+00,6.288e+00,5.886e+00,7.495e+00,7.894e+00,5.906e+00,8.869e+00,9.170e+00,9.786e+00,1.006e+01,9.007e+00,8.212e+00,8.480e+00,8.870e+00,1.067e+01,1.045e+01,9.478e+00,1.404e+01,1.041e+01,1.066e+01,1.191e+01,1.229e+01,1.203e+01,1.246e+01,1.237e+01,1.319e+01,1.637e+01,1.266e+01,1.357e+01,1.617e+01,1.341e+01,1.312e+01,1.560e+01,1.524e+01,1.576e+01,1.751e+01,1.420e+01,1.612e+01,1.645e+01,1.636e+01,1.895e+01,1.995e+01,1.649e+01,1.761e+01,1.999e+01,1.751e+01,1.784e+01,1.872e+01,2.003e+01,1.957e+01,2.045e+01,2.035e+01,1.965e+01,1.833e+01,1.835e+01,2.143e+01,2.185e+01,2.023e+01,2.126e+01,1.851e+01,2.510e+01,2.048e+01,2.242e+01,2.203e+01,2.527e+01,2.270e+01,2.427e+01,2.328e+01,2.738e+01,2.207e+01,2.146e+01
2.778e-02,4.039e-01,3.484e-01,5.525e-01,1.928e+00,7.150e-01,1.599e+00,2.443e+00,1.579e+00,2.356e+00,2.104e+00,3.185e+00,2.567e+00,3.605e+00,3.659e+00,4.909e+00,3.610e+00,3.350e+00,4.187e+00,5.112e+00,5.156e+00,6.591e+00,5.528e+00,5.051e+00,6.294e+00,5.549e+00,6.684e+00,5.951e+00,8.074e+00,6.427e+00,8.369e+00,8.522e+00,9.720e+00,8.874e+00,8.817e+00,8.614e+00,9.536e+00,8.214e+00,1.051e+01,1.039e+01,1.027e+01,1.356e+01,1.121e+01,1.259e+01,1.203e+01,1.150e+01,1.127e+01,1.185e+01,1.302e+01,1.485e+01,1.533e+01,1.395e+01,1.332e+01,1.656e+01,1.455e+01,1.327e+01,1.676e+01,1.591e+01,1.694e+01,1.644e+01,1.602e+01,1.745e+01,1.801e+01,1.753e+01,1.763e+01,2.205e+01,1.570e+01,2.075e+01,2.068e+01,1.823e+01,1.868e+01,1.871e+01,1.996e+01,2.198e+01,1.974e+01,2.104e+01,2.224e+01,2.125e+01,1.901e+01,2.123e+01,2.283e+01,2.162e+01,2.318e+01,2.018e+01,2.726e+01,2.116e+01,2.216e+01,2.277e+01,2.653e+01,2.476e+01,2.440e+01,2.577e+01,2.915e+01,2.282e+01,2.513e+01
3.526e-02,5.721e-01,7.270e-01,1.289e+00,2.296e+00,9.938e-01,1.730e+00,2.504e+00,2.654e+00,3.394e+00,3.073e+00,3.714e+00,3.464e+00,4.613e+00,4.640e+00,5.658e+00,4.070e+00,3.428e+00,5.573e+00,5.957e+00,4.819e+00,6.955e+00,7.694e+00,5.635e+00,7.647e+00,5.682e+00,7.886e+00,7.461e+00,7.527e+00,7.003e+00,9.058e+00,8.544e+00,9.316e+00,9.230e+00,8.845e+00,9.123e+00,9.070e+00,8.619e+00,1.111e+01,1.052e+01,9.078e+00,1.352e+01,1.065e+01,1.188e+01,1.160e+01,1.080e+01,1.107e+01,1.146e+01,1.172e+01,1.270e+01,1.411e+01,1.125e+01,1.285e+01,1.281e+01,1.285e+01,1.315e+01,1.507e+01,1.451e+01,1.449e+01,1.596e+01,1.448e+01,1.565e+01,1.549e+01,1.587e+01,1.648e+01,2.035e+01,1.403e+01,1.915e+01,1.927e+01,1.701e+01,1.734e+01,1.901e+01,1.972e+01,2.058e+01,1.873e+01,2.018e+01,2.090e+01,2.150e+01,1.764e+01,2.175e+01,2.218e+01,2.122e+01,1.897e+01,1.943e+01,2.445e+01,2.107e+01,2.176e+01,2.212e+01,2.590e+01,2.290e+01,2.466e+01,2.453e+01,2.648e+01,2.229e+01,2.157e+01
1.212e-02,3.199e-01,8.024e-01,7.888e-01,1.440e+00,7.653e-01,1.430e+00,1.911e+00,1.799e+00,2.248e+00,2.595e+00,2.854e+00,2.010e+00,3.118e+00,3.301e+00,3.962e+00,3.608e+00,3.100e+00,4.035e+00,4.560e+00,4.429e+00,6.835e+00,5.885e+00,5.112e+00,5.623e+00,4.727e+00,5.833e+00,6.634e+00,8.094e+00,6.366e+00,8.374e+00,6.968e+00,8.186e+00,8.557e+00,7.898e+00,7.278e+00,9.715e+00,7.754e+00,9.567e+00,9.922e+00,8.571e+00,1.249e+01,1.075e+01,1.131e+01,1.043e+01,9.506e+00,1.039e+01,1.004e+01,1.138e+01,1.253e+01,1.355e+01,1.136e+01,1.103e+01,1.279e+01,1.228e+01,1.186e+01,1.331e+01,1.627e+01,1.473e+01,1.391e+01,1.321e+01,1.558e+01,1.453e+01,1.535e+01,1.583e+01,1.868e+01,1.428e+01,1.836e+01,1.791e+01,1.524e+01,1.582e+01,1.744e+01,1.768e+01,1.811e+01,1.703e+01,1.828e+01,1.755e+01,1.921e+01,1.707e+01,1.911e+01,2.008e+01,1.879e+01,1.962e+01,1.745e+01,2.437e+01,1.875e+01,2.123e+01,2.092e+01,2.369e+01,2.005e+01,2.106e+01,2.203e+01,2.586e+01,2.150e+01,2.183e+01
2.594e-03,1.802e-01,6.764e-01,5.696e-01,1.039e+00,9.694e-01,1.081e+00,1.720e+00,2.229e+00,2.509e+00,2.083e+00,2.714e+00,1.698e+00,3.301e+00,3.138e+00,3.177e+00,2.560e+00,2.679e+00,3.268e+00,3.688e+00,3.812e+00,5.162e+00,4.833e+00,4.571e+00,5.247e+00,4.004e+00,5.654e+00,5.482e+00,6.913e+00,5.717e+00,7.165e+00,6.919e+00,7.603e+00,7.426e+00,6.805e+00,5.837e+00,7.206e+00,6.833e+00,8.529e+00,7.371e+00,7.584e+00,9.709e+00,8.030e+00,9.183e+00,8.639e+00,7.957e+00,8.580e+00,9.128e+00,9.398e+00,9.769e+00,1.089e+01,1.017e+01,1.034e+01,1.047e+01,1.068e+01,1.017e+01,1.170e+01,1.111e+01,1.231e+01,1.319e+01,1.193e+01,1.210e+01,1.169e+01,1.348e+01,1.419e+01,1.818e+01,1.249e+01,1.537e+01,1.652e+01,1.614e+01,1.525e+01,1.635e+01,1.721e+01,1.683e+01,1.499e+01,1.856e+01,1.626e+01,1.604e+01,1.513e+01,1.810e+01,1.913e+01,1.711e+01,1.812e+01,1.671e+01,2.011e+01,1.708e+01,2.004e+01,2.003e+01,2.272e+01,2.009e+01,2.119e+01,2.059e+01,2.341e+01,2.091e+01,2.051e+01
3.383e-02,6.529e-01,1.151e+00,1.223e+00,2.329e+00,1.169e+00,2.056e+00,2.833e+00,2.618e+00,3.076e+00,3.276e+00,3.858e+00,3.339e+00,4.590e+00,4.446e+00,4.971e+00,4.329e+00,3.894e+00,5.255e+00,6.096e+00,5.869e+00,7.120e+00,6.974e+00,6.157e+00,7.157e+00,6.159e+00,6.774e+00,7.523e+00,8.389e+00,7.396e+00,9.488e+00,8.635e+00,1.039e+01,9.708e+00,9.882e+00,9.328e+00,1.022e+01,8.183e+00,1.067e+01,1.104e+01,8.977e+00,1.336e+01,1.097e+01,1.088e+01,1.151e+01,1.164e+01,1.251e+01,1.102e+01,1.225e+01,1.287e+01,1.502e+01,1.237e+01,1.382e+01,1.529e+01,1.375e+01,1.300e+01,1.552e+01,1.675e+01,1.496e+01,1.639e+01,1.564e+01,1.668e+01,1.640e+01,1.638e+01,1.776e+01,2.041e+01,1.535e+01,1.967e+01,2.094e+01,1.898e+01,1.810e+01,2.082e+01,2.041e+01,1.846e+01,1.864e+01,2.140e+01,2.178e+01,1.931e+01,1.972e+01,2.257e+01,2.211e+01,2.082e+01,2.015e+01,2.044e+01,2.509e+01,2.067e+01,2.064e+01,2.073e+01,2.530e+01,2.200e+01,2.303e+01,2.341e+01,2.501e+01,2.307e+01,2.359e+01
3.160e-02,5.940e-01,1.021e+00,1.500e+00,2.125e+00,1.175e+00,2.169e+00,2.433e+00,2.800e+00,3.508e+00,2.969e+00,3.399e+00,3.309e+00,3.991e+00,3.618e+00,4.515e+00,3.669e+00,3.891e+00,4.855e+00,4.629e+00,4.715e+00,6.025e+00,6.245e+00,4.954e+00,6.668e+00,5.570e+00,7.171e+00,6.039e+00,7.410e+00,7.367e+00,7.355e+00,8.332e+00,8.212e+00,8.954e+00,9.022e+00,9.097e+00,9.806e+00,7.279e+00,1.094e+01,1.095e+01,8.410e+00,1.391e+01,1.094e+01,1.093e+01,1.246e+01,1.039e+01,1.204e+01,1.129e+01,1.249e+01,1.324e+01,1.599e+01,1.166e+01,1.285e+01,1.388e+01,1.272e+01,1.399e+01,1.361e+01,1.616e+01,1.446e+01,1.641e+01,1.359e+01,1.689e+01,1.535e+01,1.689e+01,1.629e+01,2.153e+01,1.548e+01,1.993e+01,2.140e+01,1.783e+01,1.816e+01,2.019e+01,2.046e+01,1.945e+01,1.857e+01,1.984e+01,2.246e+01,2.068e+01,1.919e+01,2.313e+01,2.105e+01,1.947e+01,1.854e+01,2.085e+01,2.623e+01,1.961e+01,2.157e+01,2.129e+01,2.584e+01,2.234e+01,2.394e+01,2.519e+01,2.827e+01,2.392e+01,2.270e+01
