9.505e-01,6.202e-01,3.880e-02,7.009e-01,6.137e-01,5.316e-01,9.749e-01,9.212e-01,1.075e-02,8.236e-01,9.639e-01,5.952e-01,6.867e-01,6.040e-01,2.112e-01,3.558e-01,2.787e-01,7.053e-01,1.080e-01,7.477e-01,1.799e-01,9.381e-02,1.520e-01,4.276e-01,1.812e-01,2.792e-01,4.103e-01,8.533e-01,1.108e-01,8.418e-02,4.348e-01,2.489e-01,6.096e-01,9.090e-01,7.159e-02,1.421e-01,4.801e-01,6.629e-01,8.582e-01,2.937e-02,7.412e-01,7.338e-01,4.205e-01,8.417e-01,2.178e-01,6.206e-01,9.931e-01,8.815e-03,6.809e-01,7.516e-02,3.785e-01,8.846e-01,9.040e-01,3.252e-01,7.329e-01,3.128e-01,4.728e-01,7.907e-01,8.997e-01,5.594e-01,4.174e-01,5.123e-01,8.127e-01,2.065e-01,3.826e-01,1.593e-01,7.385e-01,5.987e-01,4.369e-01,9.542e-01,9.634e-01,7.713e-01,2.852e-01,3.079e-01
8.609e-01,8.995e-01,8.168e-02,8.583e-01,1.502e+00,7.982e-01,1.281e+00,1.671e+00,5.616e-01,1.674e+00,1.758e+00,6.161e-01,8.336e-01,6.860e-01,6.967e-01,7.613e-01,4.657e-01,1.108e+00,8.232e-01,1.047e+00,4.835e-01,5.465e-01,6.224e-01,1.200e+00,5.635e-01,1.105e+00,1.316e+00,9.331e-01,6.005e-01,9.952e-01,5.507e-01,4.612e-01,1.353e+00,1.312e+00,7.560e-01,7.399e-01,6.721e-01,7.946e-01,1.301e+00,9.592e-01,9.834e-01,9.639e-01,5.195e-01,9.108e-01,2.189e-01,9.335e-01,1.083e+00,5.453e-02,1.301e+00,2.203e-01,1.125e+00,1.563e+00,1.228e+00,1.137e+00,1.039e+00,8.284e-01,1.236e+00,1.164e+00,1.135e+00,1.281e+00,1.170e+00,8.003e-01,1.729e+00,1.119e+00,6.539e-01,2.855e-01,1.127e+00,1.332e+00,1.346e+00,1.081e+00,1.799e+00,1.693e+00,3.730e-01,8.937e-01
6.138e-01,4.347e-01,4.431e-01,8.579e-01,7.156e-01,1.141e+00,8.566e-01,1.435e+00,4.733e-01,1.411e+00,1.058e+00,1.355e+00,1.102e+00,1.388e+00,5.812e-01,9.029e-01,9.307e-01,8.337e-01,3.269e-01,1.446e+00,9.396e-01,7.247e-01,9.755e-01,4.751e-01,8.053e-01,1.247e+00,9.214e-01,1.210e+00,1.010e+00,8.798e-01,6.141e-01,6.472e-01,6.975e-01,1.182e+00,2.456e-01,6.466e-01,7.853e-01,9.463e-01,1.056e+00,7.489e-01,1.197e+00,6.328e-01,3.769e-01,1.377e+00,5.878e-01,7.921e-01,9.963e-01,3.367e-01,1.177e+00,1.242e-01,8.327e-01,1.110e+00,1.264e+00,1.146e+00,5.954e-01,1.054e+00,1.355e+00,7.708e-01,1.395e+00,7.218e-01,1.033e+00,1.170e+00,8.676e-01,9.634e-01,4.788e-01,9.143e-01,1.036e+00,1.352e+00,7.099e-01,7.589e-01,1.154e+00,1.086e+00,3.737e-01,1.260e+00
8.713e-02,3.200e-01,2.429e-01,1.369e+00,1.697e+00,1.482e+00,6.022e-01,2.067e+00,1.428e+00,1.368e+00,9.652e-01,7.175e-01,9.622e-01,8.964e-01,8.300e-01,7.559e-01,6.465e-01,1.568e+00,1.578e+00,1.749e+00,7.396e-01,9.512e-01,1.208e+00,1.299e+00,6.621e-01,2.086e+00,1.856e+00,9.044e-01,1.478e+00,1.380e+00,1.138e+00,1.359e+00,1.601e+00,1.099e+00,6.558e-01,8.133e-01,9.009e-01,1.325e+00,1.324e+00,1.215e+00,9.463e-01,6.051e-01,8.974e-01,1.147e+00,6.426e-01,7.564e-01,1.176e+00,5.204e-01,1.636e+00,1.124e+00,9.640e-01,1.385e+00,1.201e+00,1.450e+00,8.301e-01,1.375e+00,1.266e+00,7.012e-01,9.859e-01,1.165e+00,1.518e+00,1.565e+00,1.797e+00,1.268e+00,1.025e+00,8.135e-01,1.185e+00,1.136e+00,1.388e+00,9.991e-01,1.144e+00,1.365e+00,1.097e+00,1.854e+00
7.938e-01,8.231e-01,3.898e-01,1.544e+00,2.104e+00,2.430e+00,1.539e+00,3.459e+00,2.175e+00,2.507e+00,2.238e+00,1.750e+00,1.497e+00,1.901e+00,1.447e+00,1.277e+00,1.753e+00,2.359e+00,1.647e+00,2.824e+00,1.348e+00,1.375e+00,2.382e+00,1.781e+00,1.441e+00,2.843e+00,2.527e+00,2.189e+00,1.994e+00,2.424e+00,1.271e+00,1.299e+00,2.200e+00,2.404e+00,8.315e-01,1.711e+00,1.565e+00,2.385e+00,2.733e+00,2.166e+00,2.468e+00,2.090e+00,1.341e+00,2.101e+00,7.870e-01,1.379e+00,1.718e+00,6.121e-01,2.948e+00,1.428e+00,2.006e+00,2.745e+00,2.743e+00,2.229e+00,1.846e+00,2.106e+00,2.882e+00,1.613e+00,2.576e+00,2.543e+00,2.342e+00,2.650e+00,2.555e+00,1.751e+00,1.345e+00,1.889e+00,1.802e+00,2.033e+00,1.750e+00,2.070e+00,2.112e+00,2.466e+00,1.184e+00,2.435e+00
8.459e-01,6.948e-01,1.321e-01,1.028e+00,1.202e+00,1.586e+00,1.941e+00,2.473e+00,1.325e+00,1.883e+00,2.071e+00,8.706e-01,1.277e+00,1.866e+00,1.476e+00,7.791e-01,1.006e+00,1.695e+00,1.419e+00,2.279e+00,6.894e-01,8.951e-01,7.992e-01,9.985e-01,8.896e-01,1.568e+00,1.820e+00,1.339e+00,1.119e+00,1.006e+00,1.338e+00,1.137e+00,1.687e+00,1.715e+00,9.168e-01,6.156e-01,1.003e+00,1.098e+00,1.955e+00,7.535e-01,1.420e+00,1.573e+00,1.264e+00,1.363e+00,8.526e-01,9.099e-01,1.661e+00,2.745e-01,2.087e+00,1.277e+00,9.139e-01,1.682e+00,1.591e+00,1.235e+00,1.068e+00,1.359e+00,1.924e+00,1.112e+00,1.722e+00,1.547e+00,1.170e+00,1.051e+00,2.016e+00,1.486e+00,1.515e+00,8.777e-01,1.176e+00,1.479e+00,1.925e+00,1.996e+00,1.604e+00,1.866e+00,1.489e+00,1.199e+00
7.549e-02,7.762e-02,1.350e-01,5.023e-01,4.700e-01,7.357e-01,8.341e-01,1.818e+00,9.435e-01,1.014e+00,4.879e-01,1.103e+00,1.324e+00,1.047e+00,1.213e+00,7.131e-01,1.190e+00,9.419e-01,1.318e+00,9.465e-01,6.513e-01,1.151e+00,1.175e+00,7.571e-01,6.958e-01,1.643e+00,1.544e+00,7.007e-01,9.579e-01,9.226e-01,1.248e+00,6.542e-01,1.062e+00,8.900e-01,1.143e+00,6.709e-01,1.252e+00,1.001e+00,7.777e-01,9.602e-01,1.097e+00,6.008e-01,1.088e+00,1.506e+00,1.286e+00,4.024e-01,6.104e-01,1.015e+00,1.526e+00,7.015e-01,4.608e-01,1.147e+00,8.701e-01,6.071e-01,1.283e+00,8.369e-01,1.217e+00,5.940e-01,1.379e+00,1.209e+00,9.052e-01,1.231e+00,1.629e+00,1.121e+00,7.726e-01,8.400e-01,1.167e+00,1.182e+00,5.773e-01,6.296e-01,1.031e+00,1.138e+00,1.351e+00,1.426e+00
6.973e-01,6.323e-01,2.485e-01,1.598e+00,1.852e+00,2.345e+00,1.562e+00,3.680e+00,2.666e+00,2.527e+00,2.752e+00,1.951e+00,2.262e+00,2.359e+00,1.890e+00,1.625e+00,1.628e+00,2.529e+00,2.707e+00,3.412e+00,1.736e+00,1.543e+00,2.033e+00,1.604e+00,1.780e+00,2.947e+00,2.881e+00,2.181e+00,2.318e+00,2.668e+00,1.953e+00,2.399e+00,2.680e+00,2.649e+00,1.151e+00,1.395e+00,2.494e+00,2.816e+00,2.746e+00,1.941e+00,2.702e+00,2.891e+00,2.157e+00,2.076e+00,1.863e+00,1.300e+00,2.827e+00,8.232e-01,3.741e+00,2.058e+00,2.114e+00,2.779e+00,2.551e+00,1.949e+00,2.226e+00,2.503e+00,3.010e+00,2.339e+00,3.250e+00,2.347e+00,2.659e+00,2.625e+00,3.531e+00,2.401e+00,2.315e+00,2.613e+00,2.116e+00,2.463e+00,2.447e+00,3.034e+00,2.171e+00,3.018e+00,1.891e+00,2.724e+00
4.210e-02,2.444e-01,3.691e-01,1.146e+00,1.461e+00,2.358e+00,1.707e+00,3.987e+00,3.383e+00,3.501e+00,3.541e+00,2.099e+00,3.020e+00,3.291e+00,3.284e+00,2.633e+00,2.417e+00,3.267e+00,4.305e+00,3.783e+00,2.777e+00,2.535e+00,3.179e+00,2.336e+00,2.380e+00,3.717e+00,3.683e+00,2.249e+00,2.821e+00,3.726e+00,2.413e+00,2.969e+00,2.926e+00,2.781e+00,2.776e+00,2.329e+00,2.814e+00,2.574e+00,2.535e+00,3.114e+00,3.315e+00,2.816e+00,3.113e+00,2.850e+00,2.682e+00,1.642e+00,2.657e+00,1.504e+00,4.607e+00,3.250e+00,2.849e+00,3.216e+00,2.428e+00,2.536e+00,3.021e+00,3.048e+00,3.954e+00,2.381e+00,4.151e+00,2.782e+00,3.050e+00,2.512e+00,4.422e+00,4.224e+00,3.274e+00,3.028e+00,2.460e+00,3.158e+00,3.132e+00,2.960e+00,2.991e+00,4.131e+00,3.427e+00,3.702e+00
2.671e-01,2.474e-01,3.543e-01,1.349e+00,1.380e+00,2.634e+00,1.616e+00,3.794e+00,3.066e+00,3.511e+00,3.049e+00,2.406e+00,3.229e+00,3.250e+00,3.112e+00,2.655e+00,2.484e+00,3.206e+00,3.528e+00,4.182e+00,3.046e+00,2.414e+00,3.100e+00,2.291e+00,2.485e+00,3.316e+00,3.547e+00,3.218e+00,2.478e+00,3.747e+00,3.047e+00,3.084e+00,2.799e+00,3.186e+00,2.663e+00,2.430e+00,3.162e+00,2.733e+00,3.420e+00,3.321e+00,3.578e+00,3.089e+00,3.008e+00,2.989e+00,2.437e+00,2.097e+00,2.863e+00,2.085e+00,4.419e+00,3.576e+00,2.603e+00,3.118e+00,3.406e+00,2.474e+00,2.656e+00,3.227e+00,3.916e+00,2.051e+00,3.573e+00,3.206e+00,3.365e+00,3.308e+00,3.964e+00,3.279e+00,2.905e+00,2.863e+00,2.159e+00,3.046e+00,3.015e+00,2.756e+00,3.013e+00,3.463e+00,3.776e+00,3.940e+00
3.748e-01,3.809e-01,2.012e-01,5.279e-01,8.403e-01,1.450e+00,1.180e+00,2.249e+00,1.916e+00,2.954e+00,3.906e+00,2.151e+00,2.422e+00,3.101e+00,2.495e+00,2.771e+00,2.128e+00,2.130e+00,2.502e+00,3.167e+00,3.540e+00,1.920e+00,2.836e+00,1.930e+00,2.483e+00,2.371e+00,2.431e+00,3.186e+00,1.887e+00,3.393e+00,2.145e+00,2.452e+00,2.486e+00,2.705e+00,2.271e+00,2.804e+00,2.766e+00,2.603e+00,2.808e+00,3.494e+00,3.599e+00,2.787e+00,2.964e+00,2.858e+00,1.642e+00,1.927e+00,2.950e+00,1.358e+00,3.186e+00,2.614e+00,2.556e+00,3.101e+00,2.510e+00,2.211e+00,2.880e+00,3.013e+00,3.848e+00,2.177e+00,3.700e+00,2.799e+00,2.836e+00,2.436e+00,3.301e+00,3.238e+00,3.032e+00,2.405e+00,2.345e+00,2.958e+00,2.849e+00,2.596e+00,2.818e+00,3.423e+00,2.639e+00,2.657e+00
9.959e-02,3.327e-01,7.939e-02,6.764e-01,1.247e+00,1.425e+00,1.439e+00,3.031e+00,2.323e+00,2.578e+00,3.101e+00,2.043e+00,2.743e+00,3.065e+00,2.939e+00,2.212e+00,2.562e+00,3.057e+00,3.364e+00,2.872e+00,2.719e+00,2.521e+00,3.202e+00,2.732e+00,2.108e+00,3.355e+00,3.809e+00,2.177e+00,2.684e+00,3.820e+00,2.775e+00,2.180e+00,3.205e+00,2.864e+00,2.865e+00,2.632e+00,3.302e+00,3.230e+00,2.686e+00,3.930e+00,2.939e+00,2.414e+00,3.253e+00,3.353e+00,2.781e+00,2.019e+00,2.483e+00,1.848e+00,4.314e+00,2.968e+00,2.186e+00,3.379e+00,2.904e+00,2.578e+00,3.755e+00,3.401e+00,3.633e+00,2.249e+00,4.263e+00,3.520e+00,3.394e+00,3.230e+00,4.479e+00,3.557e+00,3.186e+00,2.124e+00,3.092e+00,3.044e+00,3.066e+00,2.927e+00,3.388e+00,3.699e+00,3.028e+00,3.037e+00
7.881e-01,5.716e-01,3.417e-01,1.499e+00,1.371e+00,2.147e+00,1.866e+00,3.260e+00,2.138e+00,3.274e+00,3.586e+00,2.431e+00,3.715e+00,4.244e+00,3.161e+00,3.192e+00,2.827e+00,3.701e+00,3.096e+00,4.247e+00,3.923e+00,2.950e+00,2.661e+00,2.908e+00,3.209e+00,3.349e+00,3.340e+00,4.119e+00,3.031e+00,3.460e+00,2.869e+00,3.285e+00,2.855e+00,4.029e+00,2.348e+00,2.313e+00,3.279e+00,3.752e+00,3.092e+00,2.861e+00,4.330e+00,3.242e+00,4.038e+00,4.144e+00,3.110e+00,2.851e+00,3.790e+00,1.712e+00,3.997e+00,3.105e+00,2.457e+00,3.696e+00,3.278e+00,2.915e+00,3.091e+00,3.282e+00,3.607e+00,2.804e+00,3.915e+00,3.125e+00,3.329e+00,3.165e+00,4.846e+00,4.184e+00,3.958e+00,2.673e+00,3.221e+00,3.188e+00,3.803e+00,3.282e+00,3.983e+00,4.065e+00,3.518e+00,3.974e+00
1.250e-01,1.681e-01,5.324e-02,1.104e+00,1.216e+00,1.428e+00,5.472e-01,2.282e+00,2.047e+00,1.547e+00,1.829e+00,1.285e+00,2.003e+00,1.843e+00,1.781e+00,2.021e+00,2.252e+00,3.162e+00,3.311e+00,3.033e+00,2.210e+00,2.314e+00,1.909e+00,1.820e+00,1.781e+00,2.444e+00,2.327e+00,2.052e+00,2.830e+00,3.042e+00,1.910e+00,2.877e+00,2.504e+00,2.624e+00,1.242e+00,1.602e+00,2.401e+00,3.411e+00,1.930e+00,1.874e+00,3.326e+00,2.904e+00,2.829e+00,2.219e+00,2.887e+00,1.684e+00,2.864e+00,1.714e+00,3.593e+00,2.973e+00,1.929e+00,2.229e+00,2.618e+00,2.331e+00,2.354e+00,2.702e+00,2.607e+00,2.711e+00,3.264e+00,2.490e+00,2.959e+00,3.065e+00,3.792e+00,2.720e+00,2.984e+00,2.821e+00,2.759e+00,2.474e+00,3.022e+00,2.589e+00,2.172e+00,2.974e+00,2.430e+00,2.575e+00
5.042e-01,4.841e-01,3.593e-01,1.671e+00,1.753e+00,2.127e+00,1.314e+00,3.405e+00,2.292e+00,2.599e+00,3.030e+00,2.485e+00,2.665e+00,3.020e+00,2.601e+00,3.333e+00,2.806e+00,3.254e+00,4.089e+00,4.216e+00,3.505e+00,2.701e+00,3.364e+00,2.758e+00,2.318e+00,3.838e+00,3.625e+00,3.459e+00,4.019e+00,3.394e+00,3.318e+00,3.799e+00,3.287e+00,3.516e+00,2.229e+00,3.269e+00,3.154e+00,4.472e+00,3.453e+00,2.962e+00,3.981e+00,3.598e+00,3.255e+00,3.891e+00,3.646e+00,2.723e+00,3.550e+00,2.202e+00,4.648e+00,3.193e+00,2.588e+00,3.283e+00,3.681e+00,3.700e+00,4.011e+00,3.515e+00,4.189e+00,3.072e+00,4.259e+00,3.211e+00,3.661e+00,4.432e+00,4.592e+00,3.472e+00,3.308e+00,3.316e+00,4.072e+00,3.806e+00,3.253e+00,3.113e+00,3.263e+00,4.205e+00,2.710e+00,4.104e+00
1.309e-01,1.120e-01,3.946e-01,1.241e+00,1.163e+00,2.216e+00,1.049e+00,3.271e+00,2.490e+00,2.345e+00,2.190e+00,2.518e+00,2.968e+00,3.521e+00,2.941e+00,3.712e+00,3.671e+00,4.215e+00,3.902e+00,4.721e+00,4.144e+00,3.831e+00,3.924e+00,3.062e+00,3.032e+00,3.993e+00,3.899e+00,3.804e+00,4.215e+00,4.934e+00,3.351e+00,3.745e+00,3.006e+00,4.334e+00,2.965e+00,3.333e+00,4.096e+00,4.880e+00,3.441e+00,4.014e+00,5.165e+00,3.411e+00,4.594e+00,4.774e+00,4.141e+00,3.064e+00,3.655e+00,3.183e+00,5.004e+00,3.660e+00,3.198e+00,3.416e+00,4.108e+00,3.783e+00,3.908e+00,4.444e+00,4.458e+00,3.602e+00,4.488e+00,4.494e+00,4.666e+00,4.783e+00,4.620e+00,3.640e+00,3.641e+00,3.862e+00,3.713e+00,3.313e+00,3.519e+00,3.615e+00,4.238e+00,3.823e+00,3.202e+00,4.335e+00
6.928e-01,5.815e-01,6.154e-02,1.092e+00,1.238e+00,1.165e+00,1.408e+00,2.421e+00,1.269e+00,2.087e+00,2.705e+00,2.087e+00,2.906e+00,3.083e+00,2.537e+00,2.953e+00,3.314e+00,3.416e+00,3.493e+00,3.550e+00,3.794e+00,3.398e+00,2.640e+00,3.866e+00,3.151e+00,3.333e+00,4.196e+00,4.071e+00,3.969e+00,4.189e+00,3.779e+00,3.042e+00,3.538e+00,4.304e+00,3.342e+00,3.351e+00,4.145e+00,4.807e+00,3.955e+00,3.207e+00,4.186e+00,3.403e+00,4.018e+00,4.709e+00,4.476e+00,3.100e+00,3.922e+00,2.801e+00,4.158e+00,3.542e+00,2.639e+00,3.843e+00,3.768e+00,3.709e+00,4.350e+00,4.301e+00,3.325e+00,3.229e+00,4.303e+00,4.230e+00,3.834e+00,3.979e+00,4.976e+00,3.984e+00,4.022e+00,2.902e+00,3.835e+00,3.945e+00,3.718e+00,4.015e+00,4.254e+00,4.338e+00,2.982e+00,4.240e+00
8.423e-01,6.678e-01,1.480e-01,1.657e+00,1.689e+00,1.816e+00,1.456e+00,2.807e+00,1.997e+00,3.121e+00,3.936e+00,2.127e+00,3.160e+00,3.253e+00,2.707e+00,3.994e+00,2.920e+00,5.127e+00,4.913e+00,5.499e+00,4.850e+00,3.618e+00,3.854e+00,3.795e+00,3.615e+00,3.654e+00,3.868e+00,4.406e+00,4.341e+00,5.047e+00,3.671e+00,5.105e+00,4.150e+00,5.183e+00,4.178e+00,3.650e+00,5.055e+00,5.292e+00,4.597e+00,4.734e+00,5.909e+00,3.864e+00,5.717e+00,5.050e+00,4.463e+00,3.653e+00,5.663e+00,3.068e+00,4.794e+00,4.538e+00,3.742e+00,4.132e+00,4.394e+00,3.977e+00,4.360e+00,5.624e+00,4.530e+00,4.821e+00,4.962e+00,5.174e+00,5.143e+00,4.394e+00,5.703e+00,4.961e+00,4.696e+00,3.570e+00,4.899e+00,4.201e+00,4.498e+00,5.328e+00,5.200e+00,4.759e+00,4.102e+00,4.790e+00
2.721e-01,3.993e-01,1.466e-01,1.373e+00,1.672e+00,1.834e+00,1.271e+00,3.046e+00,2.528e+00,2.982e+00,3.129e+00,1.948e+00,3.675e+00,3.464e+00,3.442e+00,3.810e+00,3.233e+00,5.278e+00,5.761e+00,5.552e+00,4.986e+00,4.701e+00,3.881e+00,4.635e+00,3.903e+00,5.114e+00,5.837e+00,4.357e+00,5.946e+00,5.830e+00,4.372e+00,5.435e+00,4.916e+00,6.218e+00,5.087e+00,4.062e+00,5.433e+00,6.275e+00,5.101e+00,5.330e+00,5.297e+00,5.296e+00,5.359e+00,5.489e+00,5.812e+00,4.151e+00,5.438e+00,3.612e+00,6.331e+00,5.757e+00,3.987e+00,4.334e+00,5.428e+00,4.994e+00,4.686e+00,5.796e+00,4.460e+00,4.425e+00,5.496e+00,5.772e+00,6.158e+00,5.516e+00,6.577e+00,5.830e+00,5.546e+00,3.667e+00,5.038e+00,5.260e+00,5.120e+00,5.613e+00,5.639e+00,5.666e+00,4.456e+00,6.549e+00
2.691e-01,3.756e-01,9.970e-02,8.191e-01,1.232e+00,1.503e+00,1.078e+00,2.464e+00,2.009e+00,1.817e+00,2.490e+00,1.593e+00,2.274e+00,2.921e+00,2.249e+00,2.187e+00,2.882e+00,3.787e+00,3.469e+00,4.378e+00,4.469e+00,3.995e+00,2.971e+00,3.641e+00,3.834e+00,4.632e+00,5.193e+00,3.459e+00,5.229e+00,5.254e+00,3.770e+00,3.946e+00,4.597e+00,5.451e+00,4.244e+00,3.285e+00,4.726e+00,5.781e+00,4.306e+00,4.335e+00,4.336e+00,3.947e+00,4.201e+00,4.964e+00,4.910e+00,2.654e+00,4.574e+00,2.716e+00,5.159e+00,4.526e+00,3.717e+00,4.139e+00,3.927e+00,3.656e+00,3.592e+00,5.297e+00,3.705e+00,4.066e+00,5.183e+00,4.877e+00,4.502e+00,3.774e+00,5.156e+00,4.645e+00,4.583e+00,4.017e+00,4.084e+00,3.909e+00,4.662e+00,5.813e+00,4.535e+00,4.656e+00,2.664e+00,4.575e+00
6.985e-01,5.438e-01,3.089e-01,1.625e+00,1.614e+00,2.509e+00,2.199e+00,4.410e+00,2.994e+00,3.606e+00,4.157e+00,3.177e+00,4.308e+00,4.900e+00,4.326e+00,4.841e+00,4.737e+00,5.882e+00,6.403e+00,6.931e+00,6.938e+00,6.237e+00,6.068e+00,5.267e+00,5.471e+00,7.323e+00,6.770e+00,7.036e+00,7.540e+00,6.328e+00,6.040e+00,6.603e+00,5.960e+00,8.281e+00,6.810e+00,6.189e+00,6.609e+00,8.526e+00,6.587e+00,6.830e+00,8.344e+00,6.260e+00,7.920e+00,8.292e+00,7.465e+00,5.514e+00,6.989e+00,4.363e+00,7.622e+00,6.306e+00,5.390e+00,6.520e+00,6.179e+00,5.785e+00,6.625e+00,7.522e+00,6.818e+00,5.652e+00,7.287e+00,7.543e+00,6.945e+00,6.521e+00,7.724e+00,7.582e+00,7.162e+00,5.228e+00,6.887e+00,6.450e+00,5.575e+00,6.976e+00,7.053e+00,6.728e+00,5.306e+00,8.109e+00
4.100e-01,4.072e-01,8.303e-02,8.708e-01,1.118e+00,1.117e+00,8.183e-01,2.073e+00,1.568e+00,2.182e+00,2.244e+00,1.596e+00,2.664e+00,2.155e+00,2.400e+00,3.522e+00,2.665e+00,4.051e+00,4.549e+00,4.582e+00,4.674e+00,4.516e+00,3.662e+00,4.888e+00,4.703e+00,4.935e+00,4.415e+00,4.589e+00,5.434e+00,5.667e+00,4.450e+00,5.682e+00,4.049e+00,6.022e+00,5.689e+00,3.968e+00,5.537e+00,6.385e+00,4.882e+00,4.781e+00,6.111e+00,5.163e+00,5.312e+00,4.732e+00,6.225e+00,4.095e+00,5.189e+00,3.779e+00,5.008e+00,5.043e+00,4.676e+00,3.836e+00,5.352e+00,4.441e+00,4.881e+00,5.746e+00,4.818e+00,5.246e+00,3.942e+00,5.701e+00,5.337e+00,5.339e+00,6.347e+00,5.177e+00,4.708e+00,3.833e+00,4.501e+00,4.831e+00,4.311e+00,5.247e+00,5.798e+00,5.255e+00,3.677e+00,6.442e+00
2.813e-01,2.515e-01,4.087e-01,1.204e+00,1.082e+00,1.863e+00,1.270e+00,2.653e+00,1.964e+00,2.593e+00,2.441e+00,2.071e+00,2.901e+00,3.210e+00,2.857e+00,3.353e+00,3.155e+00,4.198e+00,4.806e+00,5.217e+00,5.043e+00,5.134e+00,4.305e+00,4.425e+00,4.023e+00,6.259e+00,6.343e+00,4.649e+00,6.284e+00,6.518e+00,6.017e+00,6.010e+00,5.355e+00,6.435e+00,6.416e+00,4.506e+00,5.861e+00,7.162e+00,5.213e+00,6.124e+00,6.036e+00,5.672e+00,5.092e+00,6.417e+00,6.933e+00,4.310e+00,6.383e+00,4.866e+00,7.168e+00,7.127e+00,5.598e+00,4.679e+00,5.792e+00,5.692e+00,5.235e+00,6.712e+00,5.810e+00,5.579e+00,6.098e+00,5.484e+00,6.084e+00,5.977e+00,5.939e+00,5.557e+00,5.651e+00,4.879e+00,5.186e+00,6.292e+00,5.265e+00,5.901e+00,6.660e+00,6.182e+00,5.007e+00,7.026e+00
5.221e-02,1.705e-01,3.111e-01,6.853e-01,8.350e-01,1.155e+00,1.002e+00,2.397e+00,1.606e+00,2.354e+00,1.958e+00,2.066e+00,2.987e+00,2.881e+00,2.738e+00,2.763e+00,2.876e+00,3.599e+00,3.696e+00,3.494e+00,4.315e+00,4.368e+00,4.192e+00,3.774e+00,3.215e+00,5.281e+00,5.854e+00,4.453e+00,5.151e+00,5.128e+00,3.855e+00,4.043e+00,4.238e+00,6.129e+00,5.236e+00,4.456e+00,4.894e+00,6.128e+00,3.538e+00,6.229e+00,4.928e+00,4.292e+00,5.462e+00,6.294e+00,5.544e+00,3.597e+00,4.079e+00,3.470e+00,6.154e+00,4.613e+00,3.885e+00,5.030e+00,4.903e+00,3.768e+00,5.112e+00,4.821e+00,4.259e+00,3.700e+00,5.985e+00,5.270e+00,5.144e+00,4.516e+00,5.251e+00,5.386e+00,4.933e+00,2.968e+00,5.369e+00,5.161e+00,4.017e+00,4.793e+00,5.377e+00,4.602e+00,4.253e+00,6.268e+00
2.162e-01,2.492e-01,2.452e-01,1.283e+00,1.334e+00,1.729e+00,1.170e+00,3.165e+00,2.275e+00,2.471e+00,2.463e+00,2.259e+00,3.051e+00,2.958e+00,2.882e+00,3.193e+00,3.596e+00,4.165e+00,4.826e+00,4.475e+00,5.223e+00,5.202e+00,4.776e+00,5.149e+00,5.290e+00,7.449e+00,6.882e+00,6.817e+00,6.738e+00,6.777e+00,6.486e+00,6.009e+00,5.641e+00,7.457e+00,6.547e+00,6.019e+00,6.050e+00,8.332e+00,5.409e+00,6.814e+00,7.476e+00,5.867e+00,6.785e+00,8.122e+00,8.201e+00,4.416e+00,5.552e+00,4.538e+00,8.281e+00,6.351e+00,6.303e+00,6.787e+00,6.570e+00,5.492e+00,7.597e+00,6.705e+00,6.252e+00,5.784e+00,7.476e+00,6.444e+00,5.624e+00,5.776e+00,7.390e+00,6.827e+00,6.618e+00,5.322e+00,6.911e+00,6.885e+00,5.703e+00,7.161e+00,6.904e+00,6.440e+00,5.658e+00,8.475e+00
2.115e-01,3.026e-01,1.306e-01,6.116e-01,8.966e-01,1.180e+00,1.132e+00,2.040e+00,1.583e+00,2.390e+00,3.032e+00,1.725e+00,2.601e+00,3.145e+00,2.973e+00,3.710e+00,3.226e+00,3.692e+00,4.279e+00,4.500e+00,4.881e+00,4.421e+00,3.589e+00,3.863e+00,4.315e+00,5.531e+00,5.208e+00,5.819e+00,5.722e+00,6.365e+00,4.962e+00,5.454e+00,5.278e+00,6.670e+00,5.222e+00,4.509e+00,5.680e+00,6.570e+00,5.343e+00,6.435e+00,7.408e+00,6.115e+00,6.413e+00,5.766e+00,6.949e+00,4.932e+00,6.500e+00,4.271e+00,6.405e+00,6.222e+00,5.528e+00,5.231e+00,5.874e+00,5.561e+00,5.756e+00,6.084e+00,6.561e+00,6.132e+00,6.070e+00,5.675e+00,5.319e+00,5.630e+00,6.545e+00,5.548e+00,5.998e+00,5.193e+00,5.668e+00,6.073e+00,5.672e+00,5.007e+00,6.303e+00,6.320e+00,5.697e+00,6.475e+00
3.199e-02,2.367e-01,1.032e-01,1.100e+00,1.426e+00,1.523e+00,1.327e+00,3.368e+00,2.500e+00,2.872e+00,3.136e+00,2.641e+00,4.156e+00,3.918e+00,3.927e+00,4.490e+00,4.113e+00,4.899e+00,5.945e+00,5.822e+00,6.659e+00,6.028e+00,4.380e+00,5.351e+00,5.573e+00,6.934e+00,8.909e+00,6.832e+00,8.127e+00,8.736e+00,7.777e+00,6.793e+00,6.806e+00,8.593e+00,7.183e+00,6.085e+00,8.461e+00,8.754e+00,5.993e+00,7.320e+00,7.537e+00,6.886e+00,7.654e+00,8.739e+00,8.741e+00,5.532e+00,6.890e+00,6.472e+00,9.055e+00,7.400e+00,5.927e+00,7.256e+00,7.247e+00,6.134e+00,7.201e+00,8.196e+00,6.543e+00,7.065e+00,7.946e+00,7.621e+00,7.570e+00,7.286e+00,8.950e+00,7.517e+00,7.096e+00,6.166e+00,7.644e+00,8.160e+00,7.146e+00,7.996e+00,8.291e+00,7.400e+00,6.420e+00,8.178e+00
6.529e-01,6.544e-01,1.901e-01,1.449e+00,1.853e+00,1.984e+00,1.436e+00,3.372e+00,2.159e+00,2.230e+00,2.866e+00,2.343e+00,2.701e+00,3.398e+00,2.660e+00,2.892e+00,4.373e+00,4.778e+00,4.377e+00,4.836e+00,4.787e+00,5.294e+00,4.648e+00,5.082e+00,5.094e+00,7.532e+00,7.203e+00,7.364e+00,7.765e+00,8.400e+00,6.763e+00,6.162e+00,6.904e+00,9.022e+00,5.917e+00,6.235e+00,6.947e+00,1.018e+01,6.633e+00,7.452e+00,9.305e+00,7.759e+00,7.331e+00,8.710e+00,8.253e+00,5.454e+00,7.685e+00,5.125e+00,9.044e+00,7.920e+00,6.672e+00,8.439e+00,7.814e+00,7.307e+00,7.725e+00,8.132e+00,7.806e+00,6.969e+00,8.793e+00,7.803e+00,6.237e+00,7.521e+00,7.909e+00,7.353e+00,7.430e+00,6.781e+00,8.481e+00,8.325e+00,6.292e+00,8.109e+00,7.613e+00,7.647e+00,6.530e+00,8.773e+00
8.024e-01,7.838e-01,4.153e-01,1.973e+00,2.253e+00,2.757e+00,2.068e+00,4.105e+00,2.717e+00,3.413e+00,4.019e+00,2.765e+00,3.703e+00,4.843e+00,3.475e+00,4.034e+00,4.456e+00,6.255e+00,5.083e+00,6.668e+00,6.084e+00,6.193e+00,5.662e+00,5.751e+00,5.725e+00,7.675e+00,6.798e+00,6.826e+00,8.367e+00,8.682e+00,6.679e+00,7.036e+00,6.896e+00,9.535e+00,6.490e+00,5.674e+00,7.993e+00,9.876e+00,6.537e+00,7.907e+00,9.528e+00,5.874e+00,8.927e+00,8.659e+00,7.809e+00,6.005e+00,8.211e+00,4.880e+00,8.480e+00,7.281e+00,6.859e+00,7.945e+00,7.124e+00,6.458e+00,7.205e+00,9.217e+00,8.080e+00,6.715e+00,7.938e+00,8.804e+00,8.043e+00,6.980e+00,8.901e+00,8.107e+00,7.663e+00,5.687e+00,7.225e+00,7.397e+00,7.281e+00,7.874e+00,8.098e+00,7.509e+00,6.726e+00,8.306e+00
7.945e-01,7.683e-01,3.566e-01,1.237e+00,1.633e+00,2.176e+00,2.418e+00,4.263e+00,2.756e+00,4.248e+00,4.539e+00,3.173e+00,4.565e+00,4.904e+00,4.587e+00,4.852e+00,4.628e+00,5.660e+00,6.109e+00,6.197e+00,6.659e+00,5.920e+00,5.666e+00,5.770e+00,5.707e+00,7.684e+00,8.239e+00,7.640e+00,8.208e+00,8.688e+00,7.453e+00,7.201e+00,7.091e+00,1.053e+01,8.362e+00,7.310e+00,8.398e+00,9.880e+00,8.158e+00,8.952e+00,9.260e+00,8.791e+00,8.476e+00,9.639e+00,9.298e+00,7.322e+00,7.787e+00,5.745e+00,1.054e+01,8.462e+00,7.082e+00,9.405e+00,8.320e+00,7.986e+00,8.850e+00,8.038e+00,8.590e+00,7.538e+00,9.335e+00,9.158e+00,7.523e+00,7.858e+00,9.369e+00,9.697e+00,8.361e+00,7.083e+00,9.178e+00,9.519e+00,7.105e+00,7.991e+00,9.796e+00,9.384e+00,7.528e+00,9.912e+00
5.264e-01,6.733e-01,9.184e-02,1.429e+00,2.111e+00,2.104e+00,1.659e+00,3.945e+00,2.754e+00,2.572e+00,2.914e+00,2.138e+00,2.749e+00,2.933e+00,3.114e+00,3.449e+00,3.387e+00,5.275e+00,5.407e+00,5.687e+00,5.398e+00,5.446e+00,5.837e+00,5.206e+00,4.359e+00,7.682e+00,7.626e+00,6.356e+00,8.466e+00,8.190e+00,8.609e+00,8.201e+00,8.072e+00,1.067e+01,7.996e+00,7.182e+00,8.861e+00,1.124e+01,7.911e+00,9.238e+00,9.202e+00,8.464e+00,9.413e+00,8.534e+00,9.305e+00,6.938e+00,8.425e+00,6.336e+00,1.075e+01,9.148e+00,8.275e+00,9.024e+00,7.585e+00,7.411e+00,8.548e+00,8.536e+00,9.027e+00,8.026e+00,8.090e+00,9.775e+00,8.767e+00,8.480e+00,8.915e+00,8.099e+00,7.372e+00,6.860e+00,8.624e+00,8.899e+00,7.812e+00,8.374e+00,8.738e+00,8.307e+00,6.992e+00,8.919e+00
2.031e-01,3.991e-01,3.429e-01,7.511e-01,1.202e+00,1.460e+00,1.469e+00,2.893e+00,1.908e+00,3.282e+00,2.915e+00,2.398e+00,3.784e+00,3.876e+00,3.705e+00,3.770e+00,4.196e+00,4.821e+00,4.436e+00,4.204e+00,5.048e+00,5.555e+00,4.711e+00,5.556e+00,5.288e+00,7.031e+00,6.565e+00,6.535e+00,7.150e+00,8.570e+00,6.588e+00,7.191e+00,6.195e+00,1.015e+01,7.884e+00,6.704e+00,7.706e+00,9.021e+00,6.776e+00,8.439e+00,9.238e+00,7.126e+00,8.894e+00,8.679e+00,9.033e+00,7.178e+00,6.499e+00,5.542e+00,9.666e+00,8.649e+00,6.982e+00,8.295e+00,8.158e+00,7.787e+00,8.971e+00,8.118e+00,8.333e+00,7.551e+00,8.206e+00,8.756e+00,6.895e+00,8.079e+00,9.291e+00,9.030e+00,8.190e+00,6.220e+00,8.648e+00,9.084e+00,7.229e+00,6.693e+00,8.858e+00,8.705e+00,8.275e+00,9.687e+00
8.917e-01,8.047e-01,2.611e-01,1.088e+00,1.556e+00,2.356e+00,2.402e+00,4.160e+00,3.009e+00,3.973e+00,4.809e+00,2.665e+00,3.489e+00,4.251e+00,4.101e+00,4.981e+00,4.900e+00,5.843e+00,6.678e+00,6.936e+00,6.456e+00,6.247e+00,5.832e+00,5.934e+00,5.994e+00,7.212e+00,8.334e+00,8.407e+00,9.146e+00,1.011e+01,8.209e+00,8.624e+00,8.763e+00,1.232e+01,9.282e+00,8.804e+00,1.059e+01,1.108e+01,9.584e+00,9.625e+00,1.203e+01,1.054e+01,1.139e+01,1.020e+01,1.069e+01,8.200e+00,9.818e+00,7.784e+00,1.156e+01,1.085e+01,9.728e+00,1.082e+01,9.694e+00,8.802e+00,9.778e+00,1.027e+01,1.117e+01,1.013e+01,9.670e+00,1.145e+01,9.401e+00,9.461e+00,1.047e+01,1.087e+01,9.648e+00,9.210e+00,9.560e+00,1.119e+01,8.843e+00,1.040e+01,1.001e+01,1.049e+01,9.023e+00,1.069e+01
5.425e-02,9.074e-02,3.538e-01,1.034e+00,9.676e-01,1.759e+00,1.225e+00,3.176e+00,2.283e+00,2.658e+00,2.257e+00,2.618e+00,3.393e+00,3.263e+00,3.038e+00,3.546e+00,4.148e+00,4.687e+00,5.265e+00,5.555e+00,5.564e+00,6.085e+00,4.554e+00,4.397e+00,5.252e+00,7.306e+00,7.626e+00,5.718e+00,8.243e+00,9.464e+00,8.610e+00,8.487e+00,8.552e+00,1.097e+01,9.242e+00,7.446e+00,1.143e+01,1.054e+01,8.854e+00,9.547e+00,1.074e+01,8.888e+00,1.015e+01,1.038e+01,1.163e+01,7.178e+00,8.783e+00,8.561e+00,1.173e+01,1.151e+01,9.376e+00,9.159e+00,8.923e+00,8.852e+00,9.484e+00,1.072e+01,9.747e+00,1.051e+01,9.539e+00,1.119e+01,9.954e+00,1.049e+01,1.005e+01,9.334e+00,9.325e+00,8.885e+00,9.580e+00,1.131e+01,9.495e+00,9.359e+00,9.632e+00,1.005e+01,9.660e+00,1.017e+01
8.302e-01,8.210e-01,4.227e-01,1.427e+00,1.785e+00,1.760e+00,1.704e+00,3.296e+00,1.727e+00,3.272e+00,3.380e+00,2.844e+00,3.781e+00,3.918e+00,3.207e+00,4.526e+00,3.917e+00,4.570e+00,4.405e+00,5.541e+00,6.408e+00,5.870e+00,4.351e+00,5.095e+00,5.898e+00,7.410e+00,7.533e+00,7.801e+00,7.993e+00,8.552e+00,7.595e+00,8.020e+00,7.529e+00,1.148e+01,8.495e+00,7.917e+00,9.525e+00,1.131e+01,8.746e+00,9.420e+00,1.096e+01,9.966e+00,1.010e+01,1.168e+01,1.067e+01,8.265e+00,8.675e+00,6.902e+00,1.197e+01,9.243e+00,9.909e+00,1.018e+01,9.745e+00,9.275e+00,1.044e+01,1.017e+01,9.880e+00,1.092e+01,9.478e+00,1.092e+01,9.384e+00,1.005e+01,1.080e+01,9.632e+00,9.473e+00,8.136e+00,1.072e+01,1.123e+01,1.005e+01,9.758e+00,1.080e+01,9.634e+00,7.608e+00,1.037e+01
5.631e-01,5.984e-01,3.172e-01,1.274e+00,1.665e+00,2.104e+00,1.438e+00,3.107e+00,2.230e+00,3.126e+00,3.496e+00,2.512e+00,3.384e+00,4.056e+00,3.070e+00,3.491e+00,3.762e+00,4.529e+00,3.838e+00,5.044e+00,5.268e+00,5.069e+00,4.571e+00,4.911e+00,4.765e+00,6.090e+00,6.739e+00,6.558e+00,6.791e+00,8.326e+00,6.776e+00,6.024e+00,6.326e+00,8.869e+00,6.335e+00,6.392e+00,8.907e+00,9.463e+00,7.241e+00,8.478e+00,8.915e+00,7.856e+00,8.634e+00,8.432e+00,7.442e+00,7.287e+00,8.031e+00,6.480e+00,9.341e+00,8.688e+00,7.607e+00,9.040e+00,7.263e+00,7.252e+00,7.983e+00,8.898e+00,8.352e+00,6.932e+00,7.995e+00,9.706e+00,8.250e+00,8.106e+00,8.638e+00,8.390e+00,8.379e+00,5.991e+00,7.366e+00,9.555e+00,7.620e+00,7.286e+00,8.416e+00,8.505e+00,7.276e+00,8.773e+00
8.119e-01,8.345e-01,2.824e-01,1.921e+00,2.287e+00,2.000e+00,1.493e+00,3.342e+00,2.231e+00,3.553e+00,3.643e+00,2.142e+00,3.353e+00,2.781e+00,2.535e+00,3.227e+00,2.077e+00,4.092e+00,4.216e+00,4.477e+00,3.962e+00,3.530e+00,3.600e+00,4.452e+00,4.726e+00,6.291e+00,5.490e+00,6.282e+00,5.747e+00,7.200e+00,6.155e+00,7.266e+00,6.301e+00,8.815e+00,6.463e+00,5.607e+00,8.769e+00,8.774e+00,7.490e+00,7.813e+00,9.257e+00,8.658e+00,8.750e+00,7.900e+00,8.624e+00,7.550e+00,8.383e+00,5.123e+00,9.658e+00,8.499e+00,8.031e+00,8.577e+00,8.577e+00,7.306e+00,9.259e+00,8.521e+00,8.698e+00,9.084e+00,8.058e+00,8.906e+00,7.181e+00,8.629e+00,9.544e+00,9.122e+00,8.112e+00,6.429e+00,8.579e+00,9.565e+00,8.395e+00,8.179e+00,9.476e+00,9.602e+00,8.466e+00,9.664e+00
3.773e-01,3.942e-01,4.369e-01,1.479e+00,1.565e+00,2.144e+00,1.492e+00,3.859e+00,2.576e+00,3.303e+00,3.053e+00,3.097e+00,3.873e+00,3.684e+00,3.324e+00,3.910e+00,4.334e+00,4.872e+00,5.298e+00,5.549e+00,5.585e+00,5.437e+00,4.859e+00,4.278e+00,5.045e+00,6.372e+00,6.417e+00,6.197e+00,7.715e+00,8.029e+00,7.628e+00,7.432e+00,5.987e+00,9.522e+00,7.651e+00,6.937e+00,8.980e+00,1.043e+01,7.931e+00,7.824e+00,9.995e+00,9.141e+00,8.901e+00,9.585e+00,1.018e+01,7.942e+00,8.038e+00,7.108e+00,1.093e+01,9.891e+00,7.476e+00,9.104e+00,8.350e+00,8.414e+00,8.772e+00,1.048e+01,9.430e+00,8.857e+00,9.399e+00,1.038e+01,8.839e+00,9.953e+00,9.332e+00,1.066e+01,9.074e+00,8.265e+00,1.016e+01,1.131e+01,8.718e+00,8.431e+00,9.787e+00,8.914e+00,7.463e+00,9.863e+00
8.391e-01,6.865e-01,6.476e-02,1.160e+00,1.471e+00,1.804e+00,1.756e+00,3.611e+00,2.527e+00,2.914e+00,3.723e+00,2.550e+00,3.356e+00,3.463e+00,3.101e+00,3.549e+00,3.805e+00,4.537e+00,4.598e+00,4.904e+00,5.026e+00,5.070e+00,4.102e+00,4.340e+00,4.943e+00,7.136e+00,7.096e+00,6.848e+00,7.284e+00,9.176e+00,7.765e+00,7.809e+00,8.216e+00,1.086e+01,7.501e+00,7.413e+00,1.045e+01,1.171e+01,9.251e+00,1.036e+01,1.241e+01,1.233e+01,1.212e+01,1.153e+01,1.265e+01,9.318e+00,1.070e+01,8.490e+00,1.369e+01,1.219e+01,1.047e+01,1.150e+01,1.040e+01,8.752e+00,1.280e+01,1.136e+01,1.164e+01,1.204e+01,1.294e+01,1.192e+01,9.149e+00,1.092e+01,1.227e+01,1.095e+01,1.168e+01,9.834e+00,1.199e+01,1.330e+01,1.171e+01,1.213e+01,1.137e+01,1.190e+01,9.612e+00,1.058e+01
4.120e-01,4.408e-01,4.305e-01,1.464e+00,1.645e+00,2.688e+00,2.057e+00,4.321e+00,3.236e+00,4.162e+00,3.745e+00,2.848e+00,4.110e+00,4.165e+00,4.282e+00,4.726e+00,4.555e+00,5.580e+00,6.308e+00,6.401e+00,6.277e+00,6.388e+00,5.808e+00,6.141e+00,6.186e+00,8.260e+00,7.870e+00,7.735e+00,8.287e+00,9.476e+00,9.038e+00,8.957e+00,7.602e+00,1.102e+01,9.524e+00,8.231e+00,1.002e+01,1.073e+01,9.602e+00,1.063e+01,1.184e+01,1.078e+01,1.163e+01,1.103e+01,1.200e+01,9.679e+00,9.350e+00,7.966e+00,1.302e+01,1.163e+01,1.058e+01,1.065e+01,1.034e+01,9.484e+00,1.212e+01,1.092e+01,1.140e+01,1.040e+01,1.058e+01,1.148e+01,1.015e+01,1.081e+01,1.174e+01,1.176e+01,1.044e+01,8.386e+00,9.900e+00,1.186e+01,1.094e+01,1.076e+01,1.171e+01,1.209e+01,9.782e+00,1.211e+01
9.159e-02,3.009e-01,2.616e-01,1.200e+00,1.575e+00,1.684e+00,7.141e-01,2.377e+00,1.781e+00,1.931e+00,2.252e+00,1.755e+00,1.921e+00,2.538e+00,2.251e+00,3.240e+00,2.651e+00,3.677e+00,3.904e+00,4.734e+00,4.781e+00,3.880e+00,4.098e+00,4.021e+00,4.135e+00,5.739e+00,6.187e+00,5.993e+00,7.334e+00,7.093e+00,6.796e+00,7.331e+00,6.307e+00,9.583e+00,6.646e+00,7.689e+00,8.506e+00,9.491e+00,7.575e+00,8.150e+00,9.056e+00,8.481e+00,9.569e+00,1.025e+01,8.470e+00,8.457e+00,7.776e+00,6.613e+00,1.101e+01,9.419e+00,8.065e+00,9.497e+00,9.285e+00,8.198e+00,9.470e+00,9.053e+00,9.598e+00,7.856e+00,8.288e+00,1.057e+01,8.154e+00,9.236e+00,8.888e+00,8.992e+00,8.857e+00,7.295e+00,9.658e+00,1.000e+01,8.100e+00,8.855e+00,8.892e+00,8.722e+00,7.219e+00,1.034e+01
3.071e-01,3.491e-01,3.208e-01,6.429e-01,8.518e-01,1.465e+00,1.406e+00,2.454e+00,1.842e+00,2.633e+00,3.441e+00,2.112e+00,2.574e+00,3.641e+00,2.972e+00,3.187e+00,3.341e+00,3.712e+00,4.018e+00,4.307e+00,5.264e+00,4.537e+00,4.537e+00,4.290e+00,4.579e+00,6.179e+00,5.776e+00,5.407e+00,6.488e+00,6.836e+00,6.404e+00,6.505e+00,5.794e+00,8.462e+00,7.518e+00,6.885e+00,7.774e+00,9.133e+00,7.439e+00,8.104e+00,8.909e+00,8.962e+00,9.422e+00,1.005e+01,9.937e+00,8.164e+00,8.213e+00,5.779e+00,1.057e+01,9.812e+00,9.091e+00,8.801e+00,8.547e+00,8.897e+00,1.009e+01,1.061e+01,9.116e+00,9.372e+00,1.016e+01,9.304e+00,7.432e+00,9.215e+00,8.965e+00,1.039e+01,9.334e+00,7.348e+00,9.693e+00,1.061e+01,9.515e+00,9.441e+00,9.444e+00,9.800e+00,7.832e+00,9.152e+00
3.605e-01,3.072e-01,2.075e-01,1.139e+00,1.175e+00,2.100e+00,1.745e+00,3.416e+00,2.550e+00,3.153e+00,3.220e+00,2.355e+00,3.632e+00,3.927e+00,3.899e+00,4.656e+00,4.584e+00,5.390e+00,6.208e+00,6.737e+00,6.530e+00,6.777e+00,5.054e+00,5.681e+00,6.125e+00,7.802e+00,8.304e+00,8.339e+00,8.933e+00,9.986e+00,9.114e+00,9.137e+00,7.809e+00,1.162e+01,9.779e+00,8.257e+00,1.057e+01,1.177e+01,1.000e+01,1.070e+01,1.320e+01,1.362e+01,1.357e+01,1.274e+01,1.398e+01,1.152e+01,1.266e+01,1.001e+01,1.365e+01,1.394e+01,1.176e+01,1.257e+01,1.216e+01,1.135e+01,1.173e+01,1.350e+01,1.212e+01,1.259e+01,1.205e+01,1.322e+01,1.081e+01,1.236e+01,1.206e+01,1.279e+01,1.267e+01,1.020e+01,1.243e+01,1.384e+01,1.171e+01,1.230e+01,1.261e+01,1.217e+01,1.103e+01,1.330e+01
6.491e-01,5.634e-01,1.154e-01,1.057e+00,1.274e+00,1.711e+00,1.900e+00,3.264e+00,2.307e+00,3.274e+00,3.533e+00,1.972e+00,3.113e+00,3.035e+00,3.548e+00,3.958e+00,3.975e+00,4.748e+00,5.920e+00,5.056e+00,5.391e+00,5.228e+00,4.691e+00,5.003e+00,4.286e+00,6.091e+00,7.187e+00,7.047e+00,7.207e+00,7.197e+00,7.555e+00,7.561e+00,7.148e+00,1.045e+01,8.921e+00,9.048e+00,9.304e+00,1.084e+01,9.797e+00,1.011e+01,1.182e+01,1.318e+01,1.308e+01,1.326e+01,1.372e+01,1.179e+01,1.088e+01,9.140e+00,1.422e+01,1.421e+01,1.259e+01,1.227e+01,1.119e+01,1.120e+01,1.365e+01,1.274e+01,1.242e+01,1.215e+01,1.313e+01,1.338e+01,1.035e+01,1.249e+01,1.227e+01,1.355e+01,1.254e+01,9.283e+00,1.290e+01,1.407e+01,1.341e+01,1.314e+01,1.214e+01,1.321e+01,1.029e+01,1.306e+01
8.066e-01,7.988e-01,1.290e-01,9.133e-01,1.441e+00,1.253e+00,1.642e+00,2.539e+00,1.301e+00,2.409e+00,3.168e+00,1.977e+00,2.750e+00,3.479e+00,2.613e+00,2.856e+00,3.420e+00,4.335e+00,3.439e+00,4.491e+00,5.333e+00,4.828e+00,3.982e+00,4.642e+00,5.411e+00,6.909e+00,6.702e+00,6.845e+00,7.882e+00,8.262e+00,7.049e+00,6.618e+00,7.527e+00,1.095e+01,7.631e+00,7.175e+00,9.204e+00,1.056e+01,9.375e+00,1.058e+01,1.161e+01,1.072e+01,1.244e+01,1.287e+01,1.252e+01,1.093e+01,1.194e+01,8.267e+00,1.221e+01,1.080e+01,1.133e+01,1.303e+01,1.072e+01,1.014e+01,1.233e+01,1.309e+01,1.181e+01,1.174e+01,1.255e+01,1.247e+01,8.941e+00,1.031e+01,1.223e+01,1.302e+01,1.160e+01,9.793e+00,1.317e+01,1.313e+01,1.162e+01,1.211e+01,1.163e+01,1.144e+01,9.404e+00,1.217e+01
1.190e-01,1.083e-01,2.490e-02,3.066e-01,4.455e-01,1.106e+00,8.060e-01,1.573e+00,1.389e+00,1.319e+00,1.366e+00,8.393e-01,1.195e+00,1.514e+00,1.854e+00,2.540e+00,1.955e+00,2.995e+00,3.479e+00,4.396e+00,3.956e+00,3.824e+00,3.142e+00,2.854e+00,3.734e+00,4.970e+00,5.195e+00,4.917e+00,6.000e+00,6.600e+00,6.468e+00,6.537e+00,5.767e+00,7.967e+00,6.632e+00,5.286e+00,7.865e+00,8.212e+00,7.564e+00,7.895e+00,8.908e+00,9.853e+00,9.382e+00,8.760e+00,9.596e+00,8.639e+00,9.858e+00,7.803e+00,9.825e+00,1.066e+01,1.030e+01,8.390e+00,9.058e+00,8.707e+00,8.560e+00,9.826e+00,9.927e+00,1.011e+01,8.785e+00,1.032e+01,8.464e+00,9.269e+00,8.628e+00,8.533e+00,8.850e+00,8.410e+00,9.056e+00,9.662e+00,1.000e+01,1.018e+01,9.775e+00,8.850e+00,8.401e+00,9.032e+00
3.757e-01,3.264e-01,2.123e-01,1.100e+00,1.091e+00,1.337e+00,1.202e+00,2.744e+00,1.783e+00,2.462e+00,2.674e+00,2.232e+00,2.907e+00,2.703e+00,2.739e+00,3.751e+00,3.427e+00,4.138e+00,5.176e+00,4.875e+00,5.088e+00,5.062e+00,4.476e+00,4.898e+00,4.960e+00,6.568e+00,7.141e+00,6.903e+00,7.570e+00,8.410e+00,7.779e+00,7.783e+00,7.128e+00,9.543e+00,8.157e+00,6.962e+00,9.694e+00,1.026e+01,8.350e+00,9.345e+00,1.083e+01,1.135e+01,1.246e+01,1.131e+01,1.292e+01,1.089e+01,1.280e+01,1.011e+01,1.226e+01,1.302e+01,1.249e+01,1.187e+01,1.164e+01,1.081e+01,1.240e+01,1.211e+01,1.190e+01,1.191e+01,1.255e+01,1.165e+01,9.714e+00,1.099e+01,1.263e+01,1.206e+01,1.173e+01,1.049e+01,1.306e+01,1.303e+01,1.173e+01,1.220e+01,1.212e+01,1.199e+01,1.076e+01,1.209e+01
1.414e-01,3.564e-01,1.123e-01,7.852e-01,1.404e+00,1.692e+00,1.085e+00,3.030e+00,2.646e+00,2.777e+00,3.715e+00,2.347e+00,2.818e+00,3.249e+00,3.174e+00,3.598e+00,3.580e+00,4.169e+00,5.099e+00,5.278e+00,6.130e+00,5.184e+00,5.291e+00,4.468e+00,4.902e+00,6.957e+00,7.413e+00,7.000e+00,8.374e+00,8.603e+00,8.667e+00,7.998e+00,8.132e+00,1.062e+01,8.200e+00,8.576e+00,1.032e+01,1.212e+01,9.120e+00,1.113e+01,1.194e+01,1.255e+01,1.236e+01,1.226e+01,1.298e+01,1.099e+01,1.231e+01,1.067e+01,1.525e+01,1.538e+01,1.395e+01,1.309e+01,1.209e+01,1.182e+01,1.336e+01,1.369e+01,1.407e+01,1.218e+01,1.412e+01,1.452e+01,1.324e+01,1.334e+01,1.367e+01,1.364e+01,1.308e+01,1.053e+01,1.353e+01,1.510e+01,1.387e+01,1.207e+01,1.223e+01,1.289e+01,1.075e+01,1.365e+01
5.060e-01,3.543e-01,3.872e-01,9.941e-01,8.884e-01,1.934e+00,1.825e+00,3.421e+00,2.268e+00,3.449e+00,2.989e+00,2.948e+00,4.123e+00,4.012e+00,3.805e+00,3.934e+00,4.035e+00,5.023e+00,5.204e+00,5.484e+00,5.554e+00,5.252e+00,5.254e+00,4.724e+00,4.991e+00,6.882e+00,7.284e+00,7.005e+00,8.245e+00,8.360e+00,8.203e+00,7.998e+00,7.200e+00,1.160e+01,8.936e+00,7.821e+00,1.059e+01,1.076e+01,1.052e+01,1.149e+01,1.183e+01,1.167e+01,1.346e+01,1.261e+01,1.360e+01,1.286e+01,1.236e+01,1.013e+01,1.510e+01,1.372e+01,1.231e+01,1.365e+01,1.224e+01,1.167e+01,1.505e+01,1.390e+01,1.372e+01,1.202e+01,1.422e+01,1.403e+01,1.169e+01,1.272e+01,1.395e+01,1.395e+01,1.368e+01,1.152e+01,1.397e+01,1.539e+01,1.303e+01,1.221e+01,1.371e+01,1.368e+01,1.157e+01,1.470e+01
1.331e-01,2.845e-01,7.036e-02,4.900e-01,8.543e-01,8.742e-01,1.252e+00,2.216e+00,1.518e+00,2.015e+00,2.115e+00,1.287e+00,2.476e+00,2.573e+00,2.652e+00,2.424e+00,2.746e+00,3.795e+00,3.697e+00,3.291e+00,3.471e+00,4.111e+00,3.255e+00,3.902e+00,4.255e+00,5.819e+00,5.986e+00,5.570e+00,6.286e+00,7.320e+00,6.198e+00,6.120e+00,5.951e+00,8.410e+00,6.370e+00,5.295e+00,7.865e+00,8.609e+00,6.721e+00,9.201e+00,1.033e+01,1.012e+01,1.183e+01,1.067e+01,1.163e+01,1.001e+01,1.072e+01,8.762e+00,1.185e+01,1.180e+01,1.116e+01,1.129e+01,1.127e+01,9.425e+00,1.243e+01,1.238e+01,1.205e+01,1.145e+01,1.245e+01,1.149e+01,9.167e+00,1.010e+01,1.292e+01,1.272e+01,1.205e+01,9.254e+00,1.208e+01,1.305e+01,1.165e+01,1.108e+01,1.189e+01,1.156e+01,1.054e+01,1.255e+01
4.698e-01,5.238e-01,1.654e-01,9.547e-01,1.338e+00,1.396e+00,1.249e+00,2.434e+00,1.639e+00,2.710e+00,2.519e+00,1.795e+00,2.994e+00,2.788e+00,2.752e+00,3.178e+00,2.792e+00,4.425e+00,3.993e+00,4.623e+00,5.065e+00,4.457e+00,3.982e+00,4.168e+00,4.167e+00,5.882e+00,6.790e+00,5.887e+00,7.381e+00,7.726e+00,7.197e+00,6.390e+00,7.610e+00,1.011e+01,7.250e+00,6.362e+00,9.998e+00,9.399e+00,8.548e+00,9.598e+00,9.762e+00,1.030e+01,1.151e+01,1.170e+01,1.235e+01,1.159e+01,1.214e+01,1.038e+01,1.304e+01,1.361e+01,1.414e+01,1.261e+01,1.336e+01,1.193e+01,1.355e+01,1.332e+01,1.307e+01,1.318e+01,1.400e+01,1.469e+01,1.272e+01,1.365e+01,1.387e+01,1.306e+01,1.275e+01,1.094e+01,1.363e+01,1.417e+01,1.476e+01,1.201e+01,1.392e+01,1.348e+01,1.204e+01,1.325e+01
8.676e-02,2.499e-01,1.851e-01,8.902e-01,1.283e+00,1.631e+00,1.042e+00,3.087e+00,2.582e+00,2.619e+00,3.424e+00,2.431e+00,2.834e+00,3.334e+00,3.260e+00,4.161e+00,3.799e+00,4.494e+00,5.300e+00,4.760e+00,5.408e+00,5.265e+00,5.678e+00,5.207e+00,4.489e+00,7.060e+00,6.717e+00,5.754e+00,6.859e+00,8.851e+00,7.726e+00,7.176e+00,7.494e+00,8.514e+00,7.791e+00,7.421e+00,9.858e+00,1.047e+01,7.704e+00,1.006e+01,1.098e+01,1.075e+01,1.161e+01,1.096e+01,1.250e+01,9.505e+00,1.144e+01,1.049e+01,1.358e+01,1.418e+01,1.425e+01,1.285e+01,1.306e+01,1.284e+01,1.420e+01,1.384e+01,1.353e+01,1.380e+01,1.514e+01,1.417e+01,1.343e+01,1.451e+01,1.477e+01,1.359e+01,1.447e+01,1.191e+01,1.421e+01,1.513e+01,1.374e+01,1.250e+01,1.363e+01,1.441e+01,1.271e+01,1.343e+01
5.954e-01,6.202e-01,2.696e-01,1.225e+00,1.647e+00,2.212e+00,1.934e+00,3.856e+00,2.545e+00,3.392e+00,3.036e+00,2.513e+00,3.503e+00,3.411e+00,3.687e+00,4.405e+00,4.277e+00,4.577e+00,5.309e+00,5.779e+00,5.414e+00,5.804e+00,4.363e+00,4.844e+00,5.102e+00,7.166e+00,7.793e+00,7.536e+00,7.663e+00,8.859e+00,8.051e+00,7.754e+00,7.572e+00,1.065e+01,8.286e+00,7.265e+00,9.882e+00,9.987e+00,9.912e+00,1.002e+01,1.161e+01,1.212e+01,1.171e+01,1.070e+01,1.186e+01,1.168e+01,1.158e+01,9.411e+00,1.358e+01,1.245e+01,1.214e+01,1.238e+01,1.247e+01,1.200e+01,1.322e+01,1.254e+01,1.312e+01,1.333e+01,1.234e+01,1.348e+01,1.176e+01,1.341e+01,1.350e+01,1.227e+01,1.275e+01,1.164e+01,1.288e+01,1.457e+01,1.282e+01,1.198e+01,1.413e+01,1.352e+01,1.177e+01,1.278e+01
6.671e-01,4.563e-01,1.105e-01,1.359e+00,1.238e+00,1.705e+00,1.523e+00,2.762e+00,1.700e+00,2.467e+00,2.848e+00,2.199e+00,2.906e+00,3.141e+00,2.924e+00,3.410e+00,3.749e+00,4.538e+00,4.758e+00,4.975e+00,4.909e+00,5.004e+00,4.471e+00,4.980e+00,4.108e+00,5.951e+00,6.127e+00,5.976e+00,7.109e+00,7.360e+00,8.345e+00,8.182e+00,7.412e+00,9.919e+00,8.284e+00,7.744e+00,9.841e+00,1.118e+01,9.054e+00,8.816e+00,1.101e+01,1.150e+01,1.189e+01,1.177e+01,1.207e+01,1.040e+01,1.118e+01,9.488e+00,1.339e+01,1.493e+01,1.240e+01,1.264e+01,1.289e+01,1.261e+01,1.539e+01,1.348e+01,1.471e+01,1.282e+01,1.350e+01,1.559e+01,1.248e+01,1.645e+01,1.429e+01,1.244e+01,1.465e+01,1.102e+01,1.511e+01,1.626e+01,1.425e+01,1.329e+01,1.301e+01,1.423e+01,1.302e+01,1.447e+01
2.976e-01,4.885e-01,2.004e-01,8.986e-01,1.444e+00,1.641e+00,1.582e+00,3.033e+00,2.283e+00,2.832e+00,3.343e+00,1.782e+00,2.807e+00,3.419e+00,3.193e+00,2.993e+00,2.819e+00,4.306e+00,4.222e+00,4.284e+00,4.387e+00,3.966e+00,4.366e+00,4.796e+00,4.865e+00,6.454e+00,6.262e+00,6.190e+00,6.754e+00,7.173e+00,7.021e+00,6.978e+00,7.090e+00,9.274e+00,6.995e+00,6.672e+00,8.807e+00,9.625e+00,8.551e+00,9.874e+00,9.822e+00,9.945e+00,1.155e+01,1.052e+01,1.189e+01,9.469e+00,9.979e+00,8.508e+00,1.241e+01,1.209e+01,1.204e+01,1.277e+01,1.037e+01,1.093e+01,1.352e+01,1.201e+01,1.319e+01,1.250e+01,1.279e+01,1.317e+01,1.022e+01,1.269e+01,1.458e+01,1.301e+01,1.271e+01,1.028e+01,1.442e+01,1.516e+01,1.315e+01,1.320e+01,1.230e+01,1.368e+01,1.094e+01,1.325e+01
5.139e-01,5.021e-01,2.538e-01,1.045e+00,1.373e+00,1.926e+00,1.600e+00,3.445e+00,2.170e+00,2.761e+00,2.579e+00,2.380e+00,2.924e+00,3.141e+00,3.085e+00,3.310e+00,4.305e+00,4.317e+00,4.406e+00,4.843e+00,5.227e+00,5.619e+00,4.974e+00,4.956e+00,5.354e+00,7.257e+00,7.407e+00,8.004e+00,7.547e+00,7.996e+00,7.588e+00,6.934e+00,7.465e+00,1.057e+01,8.301e+00,8.262e+00,1.007e+01,1.133e+01,9.929e+00,1.036e+01,1.230e+01,1.236e+01,1.240e+01,1.266e+01,1.316e+01,1.094e+01,1.134e+01,9.745e+00,1.309e+01,1.377e+01,1.264e+01,1.287e+01,1.230e+01,1.180e+01,1.412e+01,1.361e+01,1.480e+01,1.300e+01,1.329e+01,1.498e+01,1.191e+01,1.487e+01,1.315e+01,1.307e+01,1.337e+01,1.211e+01,1.448e+01,1.580e+01,1.350e+01,1.291e+01,1.431e+01,1.423e+01,1.173e+01,1.463e+01
2.479e-01,1.816e-01,3.153e-01,9.334e-01,8.513e-01,1.884e+00,1.482e+00,3.094e+00,2.251e+00,3.076e+00,3.303e+00,2.670e+00,3.275e+00,3.771e+00,3.293e+00,3.387e+00,3.377e+00,3.550e+00,4.028e+00,4.776e+00,5.478e+00,4.704e+00,4.816e+00,4.159e+00,5.096e+00,6.565e+00,5.885e+00,6.526e+00,5.938e+00,6.729e+00,7.219e+00,6.688e+00,5.907e+00,7.758e+00,7.204e+00,6.352e+00,8.694e+00,9.184e+00,7.844e+00,8.861e+00,9.750e+00,1.002e+01,1.083e+01,1.050e+01,1.130e+01,9.296e+00,1.076e+01,9.201e+00,1.161e+01,1.242e+01,1.148e+01,1.176e+01,1.158e+01,1.045e+01,1.284e+01,1.323e+01,1.327e+01,1.262e+01,1.402e+01,1.395e+01,1.176e+01,1.329e+01,1.298e+01,1.461e+01,1.482e+01,1.199e+01,1.351e+01,1.577e+01,1.371e+01,1.209e+01,1.311e+01,1.330e+01,1.270e+01,1.392e+01
1.528e-01,1.416e-01,3.529e-01,6.468e-01,6.721e-01,1.436e+00,9.820e-01,2.617e+00,1.713e+00,2.548e+00,2.342e+00,2.988e+00,3.701e+00,3.893e+00,3.347e+00,4.342e+00,4.318e+00,4.182e+00,4.354e+00,5.250e+00,6.428e+00,5.986e+00,4.983e+00,5.245e+00,5.684e+00,6.562e+00,7.074e+00,7.024e+00,7.412e+00,8.601e+00,7.270e+00,6.994e+00,6.188e+00,9.883e+00,8.338e+00,7.563e+00,9.623e+00,1.014e+01,8.219e+00,9.407e+00,1.052e+01,1.016e+01,1.094e+01,1.206e+01,1.168e+01,9.308e+00,1.001e+01,9.175e+00,1.147e+01,1.130e+01,1.004e+01,1.088e+01,1.214e+01,1.010e+01,1.182e+01,1.306e+01,1.204e+01,1.256e+01,1.272e+01,1.433e+01,1.334e+01,1.378e+01,1.264e+01,1.438e+01,1.385e+01,1.149e+01,1.327e+01,1.504e+01,1.148e+01,1.309e+01,1.383e+01,1.297e+01,1.170e+01,1.394e+01
9.490e-01,7.458e-01,3.164e-01,1.875e+00,1.940e+00,2.824e+00,2.370e+00,4.561e+00,3.109e+00,3.850e+00,3.939e+00,2.859e+00,4.313e+00,4.536e+00,4.072e+00,4.325e+00,4.352e+00,5.334e+00,5.723e+00,6.384e+00,5.726e+00,5.700e+00,4.599e+00,5.695e+00,5.248e+00,7.278e+00,8.862e+00,8.348e+00,8.770e+00,9.421e+00,8.785e+00,8.450e+00,8.252e+00,1.195e+01,8.008e+00,7.786e+00,1.079e+01,1.135e+01,9.926e+00,9.402e+00,1.178e+01,1.293e+01,1.381e+01,1.264e+01,1.341e+01,1.250e+01,1.357e+01,1.043e+01,1.522e+01,1.493e+01,1.339e+01,1.482e+01,1.377e+01,1.319e+01,1.455e+01,1.475e+01,1.426e+01,1.461e+01,1.611e+01,1.676e+01,1.392e+01,1.604e+01,1.649e+01,1.615e+01,1.775e+01,1.448e+01,1.513e+01,1.846e+01,1.620e+01,1.587e+01,1.508e+01,1.617e+01,1.511e+01,1.658e+01
6.784e-01,6.336e-01,9.757e-02,9.300e-01,1.332e+00,1.756e+00,1.951e+00,3.425e+00,2.432e+00,2.864e+00,3.605e+00,2.018e+00,2.659e+00,3.089e+00,2.948e+00,2.825e+00,3.860e+00,4.541e+00,4.890e+00,4.622e+00,4.086e+00,4.612e+00,4.122e+00,4.473e+00,4.445e+00,5.945e+00,6.220e+00,5.411e+00,6.757e+00,7.532e+00,6.080e+00,6.292e+00,7.433e+00,8.966e+00,7.071e+00,6.458e+00,9.655e+00,9.315e+00,8.584e+00,8.307e+00,1.066e+01,1.027e+01,1.183e+01,1.049e+01,1.162e+01,9.807e+00,1.126e+01,9.145e+00,1.222e+01,1.270e+01,1.176e+01,1.171e+01,1.149e+01,1.025e+01,1.365e+01,1.379e+01,1.286e+01,1.391e+01,1.418e+01,1.531e+01,1.224e+01,1.379e+01,1.445e+01,1.419e+01,1.494e+01,1.155e+01,1.410e+01,1.590e+01,1.407e+01,1.385e+01,1.291e+01,1.458e+01,1.258e+01,1.243e+01
5.248e-01,4.579e-01,2.712e-01,8.450e-01,9.444e-01,1.130e+00,1.224e+00,2.393e+00,1.444e+00,2.976e+00,3.262e+00,2.533e+00,3.155e+00,2.892e+00,2.513e+00,3.306e+00,2.669e+00,2.711e+00,3.335e+00,3.493e+00,4.287e+00,3.725e+00,3.578e+00,3.270e+00,3.835e+00,5.047e+00,5.120e+00,5.864e+00,5.399e+00,7.310e+00,6.376e+00,6.206e+00,6.382e+00,8.926e+00,6.838e+00,6.306e+00,9.127e+00,8.569e+00,7.546e+00,9.658e+00,1.079e+01,1.013e+01,1.191e+01,1.038e+01,1.201e+01,1.093e+01,1.214e+01,9.250e+00,1.297e+01,1.225e+01,1.314e+01,1.251e+01,1.236e+01,1.080e+01,1.260e+01,1.390e+01,1.366e+01,1.347e+01,1.406e+01,1.434e+01,1.405e+01,1.386e+01,1.494e+01,1.643e+01,1.617e+01,1.377e+01,1.586e+01,1.796e+01,1.500e+01,1.302e+01,1.501e+01,1.535e+01,1.430e+01,1.426e+01
2.806e-02,3.110e-01,1.864e-01,8.378e-01,1.352e+00,1.553e+00,1.604e+00,3.221e+00,2.336e+00,2.859e+00,2.545e+00,1.710e+00,2.964e+00,2.879e+00,3.177e+00,2.498e+00,2.808e+00,3.828e+00,4.385e+00,4.095e+00,4.518e+00,5.035e+00,4.231e+00,4.683e+00,5.003e+00,7.585e+00,7.551e+00,5.731e+00,6.947e+00,7.898e+00,7.308e+00,6.420e+00,6.952e+00,8.838e+00,8.147e+00,6.031e+00,8.400e+00,8.330e+00,6.883e+00,8.909e+00,9.460e+00,8.446e+00,9.519e+00,9.401e+00,1.081e+01,8.036e+00,8.897e+00,7.864e+00,1.145e+01,1.175e+01,1.136e+01,1.056e+01,1.060e+01,9.829e+00,1.053e+01,1.235e+01,1.186e+01,1.161e+01,1.235e+01,1.214e+01,1.228e+01,1.400e+01,1.419e+01,1.541e+01,1.488e+01,1.246e+01,1.362e+01,1.530e+01,1.349e+01,1.201e+01,1.388e+01,1.522e+01,1.266e+01,1.492e+01
1.075e-01,2.759e-01,8.966e-02,9.149e-01,1.295e+00,1.525e+00,1.273e+00,2.831e+00,2.003e+00,2.446e+00,2.512e+00,1.845e+00,2.711e+00,2.836e+00,2.946e+00,3.313e+00,3.105e+00,3.283e+00,4.195e+00,4.794e+00,5.530e+00,5.338e+00,3.670e+00,4.656e+00,5.080e+00,7.105e+00,7.319e+00,6.418e+00,7.301e+00,8.425e+00,8.282e+00,7.820e+00,8.056e+00,1.009e+01,8.472e+00,7.150e+00,1.011e+01,1.046e+01,9.577e+00,1.035e+01,1.118e+01,1.195e+01,1.301e+01,1.291e+01,1.383e+01,1.119e+01,1.317e+01,1.113e+01,1.356e+01,1.509e+01,1.416e+01,1.345e+01,1.254e+01,1.195e+01,1.390e+01,1.432e+01,1.411e+01,1.389e+01,1.471e+01,1.542e+01,1.291e+01,1.493e+01,1.590e+01,1.698e+01,1.751e+01,1.400e+01,1.613e+01,1.855e+01,1.761e+01,1.598e+01,1.576e+01,1.685e+01,1.409e+01,1.620e+01
6.679e-01,6.875e-01,2.933e-01,1.433e+00,1.754e+00,1.798e+00,1.632e+00,3.062e+00,1.686e+00,3.053e+00,2.606e+00,2.206e+00,3.125e+00,2.795e+00,2.858e+00,3.504e+00,3.083e+00,3.474e+00,4.136e+00,4.386e+00,4.498e+00,4.867e+00,4.028e+00,5.213e+00,4.970e+00,6.751e+00,6.695e+00,7.172e+00,6.784e+00,8.066e+00,8.427e+00,7.226e+00,5.900e+00,9.269e+00,8.224e+00,6.825e+00,8.098e+00,9.449e+00,8.709e+00,8.595e+00,1.049e+01,1.104e+01,1.072e+01,1.153e+01,1.158e+01,1.182e+01,1.176e+01,9.254e+00,1.276e+01,1.333e+01,1.338e+01,1.263e+01,1.259e+01,1.330e+01,1.351e+01,1.440e+01,1.417e+01,1.473e+01,1.371e+01,1.449e+01,1.398e+01,1.729e+01,1.522e+01,1.672e+01,1.669e+01,1.431e+01,1.705e+01,1.938e+01,1.591e+01,1.574e+01,1.679e+01,1.778e+01,1.363e+01,1.712e+01
2.607e-01,2.085e-01,4.153e-02,1.160e+00,1.201e+00,1.980e+00,1.198e+00,2.992e+00,2.574e+00,2.325e+00,3.033e+00,2.070e+00,2.789e+00,3.177e+00,2.691e+00,3.037e+00,2.925e+00,3.605e+00,4.250e+00,5.417e+00,5.180e+00,4.851e+00,3.744e+00,3.892e+00,4.591e+00,6.348e+00,7.211e+00,6.505e+00,7.255e+00,9.027e+00,8.816e+00,8.292e+00,8.524e+00,1.049e+01,7.970e+00,6.798e+00,1.117e+01,1.076e+01,9.121e+00,9.895e+00,1.136e+01,1.191e+01,1.289e+01,1.108e+01,1.149e+01,1.069e+01,1.401e+01,1.080e+01,1.387e+01,1.489e+01,1.422e+01,1.377e+01,1.341e+01,1.131e+01,1.424e+01,1.494e+01,1.556e+01,1.570e+01,1.578e+01,1.727e+01,1.588e+01,1.718e+01,1.708e+01,1.685e+01,1.961e+01,1.601e+01,1.699e+01,2.031e+01,1.737e+01,1.843e+01,1.689e+01,1.912e+01,1.629e+01,1.641e+01
1.503e-01,1.849e-01,4.192e-01,1.205e+00,1.203e+00,1.902e+00,8.989e-01,2.870e+00,2.300e+00,3.052e+00,3.244e+00,2.668e+00,3.613e+00,3.995e+00,3.179e+00,4.096e+00,3.704e+00,4.712e+00,4.436e+00,5.236e+00,5.985e+00,5.328e+00,5.341e+00,4.501e+00,5.734e+00,7.339e+00,6.110e+00,7.854e+00,7.250e+00,8.343e+00,7.071e+00,7.541e+00,7.144e+00,1.007e+01,7.570e+00,7.386e+00,9.836e+00,1.062e+01,9.101e+00,1.165e+01,1.308e+01,1.218e+01,1.448e+01,1.281e+01,1.373e+01,1.235e+01,1.329e+01,1.004e+01,1.312e+01,1.368e+01,1.450e+01,1.441e+01,1.323e+01,1.275e+01,1.436e+01,1.468e+01,1.635e+01,1.603e+01,1.585e+01,1.715e+01,1.533e+01,1.731e+01,1.702e+01,1.831e+01,1.865e+01,1.620e+01,1.846e+01,1.994e+01,1.696e+01,1.682e+01,1.743e+01,1.823e+01,1.612e+01,1.773e+01
2.630e-01,3.362e-01,7.184e-02,1.166e+00,1.473e+00,1.720e+00,1.102e+00,2.966e+00,2.330e+00,2.047e+00,2.693e+00,1.934e+00,2.371e+00,2.777e+00,2.625e+00,2.649e+00,3.051e+00,4.120e+00,4.650e+00,4.618e+00,4.952e+00,4.860e+00,5.067e+00,4.980e+00,4.604e+00,7.620e+00,7.269e+00,5.925e+00,7.367e+00,7.524e+00,8.025e+00,7.122e+00,7.763e+00,8.509e+00,7.283e+00,6.777e+00,8.832e+00,1.008e+01,8.350e+00,9.410e+00,9.466e+00,1.035e+01,1.116e+01,1.150e+01,1.192e+01,9.365e+00,1.132e+01,8.908e+00,1.177e+01,1.335e+01,1.300e+01,1.209e+01,1.162e+01,1.173e+01,1.321e+01,1.310e+01,1.332e+01,1.357e+01,1.476e+01,1.437e+01,1.314e+01,1.554e+01,1.487e+01,1.452e+01,1.605e+01,1.348e+01,1.584e+01,1.732e+01,1.571e+01,1.567e+01,1.495e+01,1.691e+01,1.344e+01,1.518e+01
5.812e-01,6.053e-01,5.927e-02,6.215e-01,1.207e+00,1.415e+00,1.627e+00,3.204e+00,2.135e+00,2.783e+00,3.059e+00,2.423e+00,3.244e+00,3.111e+00,3.124e+00,2.994e+00,3.944e+00,3.967e+00,4.342e+00,4.222e+00,4.512e+00,4.772e+00,4.028e+00,4.410e+00,4.912e+00,6.176e+00,7.207e+00,6.909e+00,7.643e+00,8.483e+00,7.826e+00,6.374e+00,7.616e+00,1.064e+01,7.306e+00,7.891e+00,1.058e+01,1.060e+01,9.242e+00,9.659e+00,1.110e+01,1.163e+01,1.141e+01,1.157e+01,1.366e+01,1.077e+01,1.094e+01,1.006e+01,1.374e+01,1.251e+01,1.265e+01,1.348e+01,1.293e+01,1.160e+01,1.408e+01,1.458e+01,1.448e+01,1.524e+01,1.543e+01,1.752e+01,1.492e+01,1.634e+01,1.650e+01,1.803e+01,1.802e+01,1.504e+01,1.830e+01,2.196e+01,1.901e+01,1.708e+01,1.666e+01,1.918e+01,1.615e+01,1.698e+01
5.998e-01,6.059e-01,4.545e-01,1.795e+00,2.002e+00,2.831e+00,2.304e+00,4.657e+00,3.008e+00,3.725e+00,3.914e+00,3.053e+00,3.830e+00,4.764e+00,4.285e+00,5.078e+00,5.095e+00,5.829e+00,5.991e+00,6.920e+00,6.683e+00,6.429e+00,5.536e+00,5.789e+00,5.461e+00,7.731e+00,8.527e+00,7.541e+00,9.021e+00,9.474e+00,9.101e+00,8.696e+00,8.906e+00,1.113e+01,8.437e+00,8.209e+00,1.094e+01,1.207e+01,1.002e+01,1.052e+01,1.302e+01,1.315e+01,1.432e+01,1.421e+01,1.499e+01,1.227e+01,1.358e+01,1.229e+01,1.551e+01,1.658e+01,1.449e+01,1.493e+01,1.495e+01,1.459e+01,1.573e+01,1.580e+01,1.638e+01,1.655e+01,1.665e+01,1.777e+01,1.687e+01,1.841e+01,1.889e+01,1.832e+01,1.912e+01,1.645e+01,1.905e+01,2.086e+01,2.100e+01,1.810e+01,1.909e+01,2.013e+01,1.834e+01,1.749e+01
9.105e-01,6.346e-01,2.578e-01,1.733e+00,1.611e+00,2.231e+00,1.778e+00,3.580e+00,2.214e+00,2.493e+00,2.547e+00,2.231e+00,3.032e+00,3.215e+00,2.573e+00,2.700e+00,3.909e+00,4.882e+00,4.556e+00,5.268e+00,4.722e+00,5.092e+00,3.996e+00,4.533e+00,4.684e+00,6.822e+00,8.049e+00,7.462e+00,8.788e+00,8.696e+00,8.602e+00,7.845e+00,7.908e+00,1.148e+01,7.395e+00,6.959e+00,9.675e+00,1.185e+01,8.929e+00,8.815e+00,1.112e+01,1.111e+01,1.143e+01,1.258e+01,1.252e+01,9.658e+00,1.194e+01,9.847e+00,1.406e+01,1.435e+01,1.285e+01,1.343e+01,1.257e+01,1.189e+01,1.329e+01,1.428e+01,1.346e+01,1.428e+01,1.512e+01,1.473e+01,1.401e+01,1.570e+01,1.509e+01,1.653e+01,1.712e+01,1.482e+01,1.685e+01,1.919e+01,1.643e+01,1.630e+01,1.558e+01,1.755e+01,1.485e+01,1.776e+01
5.850e-01,4.851e-01,3.213e-01,1.464e+00,1.534e+00,2.521e+00,2.104e+00,4.288e+00,2.915e+00,3.668e+00,4.065e+00,3.398e+00,4.188e+00,4.759e+00,4.344e+00,4.927e+00,5.271e+00,5.592e+00,6.328e+00,6.995e+00,7.007e+00,6.208e+00,5.562e+00,5.155e+00,5.374e+00,6.903e+00,8.347e+00,7.476e+00,8.812e+00,9.214e+00,9.796e+00,9.007e+00,8.059e+00,1.109e+01,9.196e+00,8.581e+00,1.105e+01,1.198e+01,1.104e+01,1.025e+01,1.180e+01,1.263e+01,1.292e+01,1.367e+01,1.284e+01,1.268e+01,1.325e+01,1.113e+01,1.459e+01,1.492e+01,1.237e+01,1.389e+01,1.209e+01,1.330e+01,1.420e+01,1.514e+01,1.488e+01,1.446e+01,1.490e+01,1.694e+01,1.447e+01,1.663e+01,1.597e+01,1.678e+01,1.730e+01,1.559e+01,1.722e+01,1.942e+01,1.746e+01,1.697e+01,1.843e+01,1.994e+01,1.537e+01,1.715e+01
9.030e-01,6.793e-01,4.407e-01,1.932e+00,1.914e+00,2.712e+00,1.677e+00,4.113e+00,2.859e+00,3.365e+00,3.955e+00,3.287e+00,3.830e+00,4.434e+00,3.339e+00,4.499e+00,4.522e+00,5.745e+00,5.392e+00,6.469e+00,6.282e+00,5.366e+00,5.618e+00,5.544e+00,5.814e+00,7.595e+00,7.983e+00,8.483e+00,9.153e+00,9.526e+00,8.298e+00,8.413e+00,8.404e+00,1.188e+01,7.266e+00,8.621e+00,1.108e+01,1.197e+01,9.723e+00,1.032e+01,1.266e+01,1.114e+01,1.337e+01,1.313e+01,1.334e+01,1.099e+01,1.189e+01,9.587e+00,1.430e+01,1.346e+01,1.306e+01,1.337e+01,1.337e+01,1.176e+01,1.421e+01,1.340e+01,1.484e+01,1.383e+01,1.556e+01,1.539e+01,1.423e+01,1.483e+01,1.548e+01,1.609e+01,1.578e+01,1.423e+01,1.579e+01,1.690e+01,1.549e+01,1.622e+01,1.563e+01,1.686e+01,1.466e+01,1.765e+01
2.691e-01,4.582e-01,3.247e-01,1.550e+00,1.991e+00,2.245e+00,1.262e+00,3.772e+00,2.896e+00,2.978e+00,3.370e+00,2.436e+00,3.195e+00,3.489e+00,2.951e+00,3.646e+00,3.447e+00,4.388e+00,5.048e+00,5.612e+00,5.455e+00,5.002e+00,4.464e+00,4.442e+00,4.905e+00,6.310e+00,6.986e+00,6.230e+00,7.423e+00,7.743e+00,5.957e+00,6.854e+00,6.246e+00,9.190e+00,7.006e+00,6.605e+00,9.298e+00,9.827e+00,8.368e+00,8.812e+00,1.041e+01,1.060e+01,1.176e+01,1.114e+01,9.893e+00,1.017e+01,1.197e+01,8.423e+00,1.196e+01,1.206e+01,1.155e+01,1.234e+01,1.079e+01,1.091e+01,1.269e+01,1.411e+01,1.283e+01,1.348e+01,1.438e+01,1.563e+01,1.440e+01,1.495e+01,1.446e+01,1.642e+01,1.725e+01,1.392e+01,1.499e+01,1.791e+01,1.602e+01,1.561e+01,1.577e+01,1.833e+01,1.423e+01,1.790e+01
2.663e-01,2.499e-01,3.243e-01,1.321e+00,1.321e+00,2.453e+00,1.778e+00,3.876e+00,2.978e+00,3.122e+00,3.318e+00,2.632e+00,3.542e+00,4.200e+00,3.926e+00,3.871e+00,4.722e+00,5.185e+00,5.976e+00,5.940e+00,5.528e+00,5.768e+00,5.220e+00,5.408e+00,5.166e+00,7.197e+00,7.497e+00,6.807e+00,8.559e+00,8.548e+00,8.225e+00,7.923e+00,7.626e+00,1.043e+01,8.415e+00,7.783e+00,1.001e+01,1.149e+01,9.712e+00,9.633e+00,1.163e+01,1.237e+01,1.263e+01,1.263e+01,1.325e+01,1.114e+01,1.185e+01,1.013e+01,1.519e+01,1.547e+01,1.393e+01,1.420e+01,1.487e+01,1.388e+01,1.546e+01,1.597e+01,1.548e+01,1.503e+01,1.661e+01,1.778e+01,1.601e+01,1.794e+01,1.783e+01,1.848e+01,1.939e+01,1.559e+01,1.821e+01,2.103e+01,1.879e+01,1.688e+01,1.739e+01,1.965e+01,1.766e+01,2.003e+01
