8.028e-01,7.736e-01,9.925e-01,3.440e-01,5.103e-01,6.174e-01,8.522e-02,2.485e-01,6.830e-01,2.829e-02,8.589e-01,3.859e-01,6.370e-01,7.767e-01,4.939e-01,8.100e-01,1.457e-01,4.532e-01,5.331e-01,8.617e-01,6.295e-01,8.838e-01,2.296e-01,2.673e-01,2.097e-01,4.176e-01,5.377e-01,1.341e-01,3.488e-01,5.909e-01,2.878e-01,6.462e-01,5.689e-01,6.898e-01,2.659e-01,4.970e-01,3.523e-01,7.509e-01,9.928e-01,1.196e-01,9.570e-01,1.187e-01,7.480e-01,5.789e-01,2.449e-01,9.382e-01,3.332e-01,5.765e-01,1.449e-01,5.117e-01,7.182e-01,7.659e-01,6.666e-01,7.779e-01,3.819e-01,4.694e-01,7.240e-01,4.620e-01,4.411e-01,4.742e-01,3.613e-01,3.782e-01,5.843e-01,8.093e-01,8.192e-01,4.109e-01,6.816e-01,3.936e-01,5.643e-01,7.454e-01,1.920e-02,4.371e-01,3.390e-01,5.694e-01,8.808e-01,8.867e-01,3.269e-01,3.601e-01,4.617e-01,5.916e-01,8.866e-01,4.216e-01,8.378e-02,7.877e-01,4.378e-01,2.369e-02,6.129e-02,4.696e-01,8.849e-01,7.927e-01,7.270e-01,4.298e-01,2.268e-01,5.600e-01,4.964e-01,2.541e-01
7.885e-01,9.669e-01,1.427e+00,8.406e-01,1.179e+00,8.668e-01,6.339e-01,1.144e+00,1.154e+00,1.116e-01,1.227e+00,1.031e+00,9.932e-01,1.138e+00,1.239e+00,1.245e+00,4.405e-01,1.407e+00,1.182e+00,1.492e+00,1.156e+00,1.318e+00,2.598e-01,3.156e-01,3.335e-01,1.254e+00,6.947e-01,3.297e-01,8.013e-01,1.262e+00,1.046e+00,9.995e-01,1.411e+00,1.052e+00,1.188e+00,1.476e+00,1.119e+00,7.774e-01,1.647e+00,3.028e-01,1.346e+00,9.819e-01,9.964e-01,8.951e-01,5.614e-01,9.318e-01,1.151e+00,9.843e-01,8.396e-01,1.278e+00,1.434e+00,1.240e+00,8.128e-01,8.559e-01,9.780e-01,1.311e+00,1.145e+00,1.222e+00,1.419e+00,1.191e+00,1.119e+00,9.591e-01,1.129e+00,9.248e-01,1.536e+00,4.624e-01,1.420e+00,1.204e+00,1.079e+00,1.223e+00,2.221e-01,4.827e-01,8.536e-01,9.772e-01,1.415e+00,1.260e+00,6.499e-01,1.332e+00,1.340e+00,1.472e+00,1.125e+00,1.356e+00,6.169e-01,1.142e+00,6.089e-01,8.592e-01,4.895e-01,1.395e+00,1.158e+00,1.578e+00,8.085e-01,7.726e-01,4.547e-01,7.013e-01,1.108e+00,8.578e-01
1.252e-01,2.889e-01,1.396e+00,8.052e-01,1.182e+00,3.789e-01,5.335e-01,1.370e+00,1.077e+00,1.053e+00,1.331e+00,1.529e+00,4.269e-01,8.541e-01,7.177e-01,8.773e-01,4.907e-01,1.767e+00,1.389e+00,1.134e+00,1.350e+00,1.019e+00,8.313e-01,2.247e-01,1.120e+00,1.302e+00,4.105e-01,9.097e-01,1.356e+00,1.022e+00,1.234e+00,1.095e+00,1.631e+00,9.873e-01,1.378e+00,1.164e+00,7.762e-01,1.012e+00,9.695e-01,1.053e+00,1.081e+00,9.716e-01,1.032e+00,1.341e+00,4.365e-01,1.144e+00,1.125e+00,7.038e-01,1.352e+00,1.560e+00,8.604e-01,6.601e-01,1.158e+00,5.262e-01,1.546e+00,1.052e+00,5.392e-01,8.266e-01,9.836e-01,1.406e+00,8.610e-01,6.454e-01,1.030e+00,2.481e-01,1.520e+00,1.098e+00,1.435e+00,1.696e+00,1.238e+00,9.171e-01,8.145e-01,5.542e-01,7.981e-01,9.932e-01,1.013e+00,7.853e-01,6.283e-01,1.327e+00,1.396e+00,1.100e+00,7.623e-01,1.081e+00,1.261e+00,7.701e-01,1.195e+00,9.831e-01,1.324e+00,1.322e+00,3.859e-01,9.366e-01,8.576e-01,1.235e+00,3.738e-01,8.331e-01,1.561e+00,6.393e-01
6.805e-01,7.942e-01,1.462e+00,1.548e+00,2.040e+00,9.481e-01,1.193e+00,1.411e+00,2.018e+00,1.202e+00,1.321e+00,1.215e+00,8.597e-01,1.341e+00,1.870e+00,2.082e+00,6.483e-01,1.983e+00,1.223e+00,1.741e+00,1.894e+00,1.986e+00,1.172e+00,4.702e-01,1.358e+00,1.373e+00,9.832e-01,9.627e-01,1.711e+00,1.887e+00,1.178e+00,1.675e+00,1.562e+00,1.913e+00,1.889e+00,1.368e+00,9.988e-01,1.689e+00,1.702e+00,1.271e+00,1.395e+00,1.211e+00,1.609e+00,1.474e+00,9.020e-01,1.561e+00,1.298e+00,1.196e+00,9.698e-01,1.542e+00,1.829e+00,1.147e+00,1.336e+00,8.795e-01,1.335e+00,1.115e+00,1.067e+00,1.333e+00,1.625e+00,1.617e+00,9.471e-01,1.121e+00,2.023e+00,1.307e+00,1.484e+00,1.446e+00,1.875e+00,1.620e+00,1.200e+00,1.568e+00,5.157e-01,1.068e+00,1.575e+00,1.072e+00,2.228e+00,1.521e+00,1.227e+00,1.851e+00,1.275e+00,1.914e+00,2.014e+00,1.700e+00,9.226e-01,1.156e+00,1.812e+00,1.347e+00,8.402e-01,1.951e+00,1.012e+00,1.595e+00,1.229e+00,1.628e+00,1.265e+00,1.619e+00,1.265e+00,9.492e-01
4.216e-01,5.996e-01,9.841e-01,1.367e+00,1.843e+00,1.368e+00,1.749e+00,1.677e+00,2.163e+00,1.573e+00,1.053e+00,9.587e-01,8.037e-01,1.686e+00,2.641e+00,2.399e+00,6.181e-01,2.035e+00,1.574e+00,2.415e+00,2.402e+00,2.006e+00,1.182e+00,8.349e-01,1.557e+00,1.926e+00,1.025e+00,1.675e+00,2.126e+00,1.912e+00,1.926e+00,1.519e+00,1.421e+00,1.595e+00,2.376e+00,1.581e+00,1.910e+00,1.189e+00,1.493e+00,1.411e+00,1.790e+00,1.617e+00,1.416e+00,1.724e+00,1.149e+00,1.332e+00,1.998e+00,1.121e+00,1.412e+00,1.973e+00,2.652e+00,1.301e+00,9.516e-01,9.047e-01,1.998e+00,1.293e+00,1.835e+00,2.118e+00,2.052e+00,2.298e+00,1.412e+00,1.675e+00,1.813e+00,1.944e+00,1.285e+00,1.056e+00,1.692e+00,2.017e+00,1.347e+00,1.302e+00,9.741e-01,1.368e+00,2.142e+00,9.090e-01,2.803e+00,2.020e+00,1.637e+00,2.138e+00,1.496e+00,2.250e+00,2.027e+00,2.301e+00,1.307e+00,1.241e+00,1.720e+00,1.553e+00,6.314e-01,2.745e+00,1.176e+00,1.717e+00,1.100e+00,1.858e+00,1.696e+00,2.010e+00,1.780e+00,1.424e+00
5.855e-01,5.780e-01,9.194e-01,1.129e+00,1.531e+00,2.023e+00,2.055e+00,1.796e+00,2.492e+00,2.531e+00,1.776e+00,1.230e+00,1.213e+00,2.026e+00,2.860e+00,2.547e+00,9.210e-01,2.371e+00,1.395e+00,3.001e+00,3.038e+00,2.295e+00,2.077e+00,1.295e+00,1.790e+00,1.712e+00,1.316e+00,1.979e+00,2.949e+00,1.598e+00,1.956e+00,2.476e+00,1.091e+00,1.891e+00,1.871e+00,1.060e+00,1.814e+00,2.380e+00,1.840e+00,1.943e+00,2.226e+00,1.907e+00,1.885e+00,1.767e+00,1.113e+00,2.145e+00,2.218e+00,1.601e+00,1.555e+00,2.440e+00,3.008e+00,1.691e+00,1.298e+00,1.220e+00,2.456e+00,1.091e+00,2.563e+00,1.719e+00,1.618e+00,2.720e+00,8.947e-01,1.607e+00,2.255e+00,2.152e+00,9.832e-01,1.790e+00,1.870e+00,1.896e+00,1.193e+00,1.954e+00,9.128e-01,1.994e+00,2.415e+00,1.376e+00,2.799e+00,2.761e+00,1.747e+00,2.375e+00,1.374e+00,1.933e+00,2.867e+00,2.102e+00,1.329e+00,1.614e+00,2.127e+00,1.731e+00,6.527e-01,2.225e+00,1.755e+00,1.423e+00,1.315e+00,2.275e+00,1.812e+00,2.821e+00,2.109e+00,1.136e+00
1.084e-01,1.485e-01,9.538e-01,1.100e+00,1.539e+00,1.282e+00,1.894e+00,2.537e+00,2.553e+00,3.072e+00,1.881e+00,2.198e+00,6.100e-01,1.947e+00,2.910e+00,2.935e+00,1.365e+00,2.407e+00,2.508e+00,2.562e+00,2.935e+00,2.461e+00,2.363e+00,1.519e+00,2.497e+00,1.986e+00,1.474e+00,2.177e+00,2.956e+00,1.694e+00,2.817e+00,2.035e+00,1.663e+00,2.382e+00,2.057e+00,1.818e+00,1.657e+00,2.204e+00,1.677e+00,2.280e+00,2.047e+00,2.314e+00,2.329e+00,2.202e+00,1.643e+00,2.501e+00,2.297e+00,1.784e+00,2.422e+00,2.937e+00,2.301e+00,1.510e+00,2.247e+00,1.640e+00,2.933e+00,1.476e+00,2.530e+00,2.226e+00,1.403e+00,2.676e+00,1.359e+00,1.913e+00,1.944e+00,2.167e+00,1.362e+00,1.998e+00,2.413e+00,2.967e+00,2.266e+00,1.932e+00,2.230e+00,1.837e+00,2.104e+00,1.483e+00,2.464e+00,2.728e+00,2.334e+00,2.076e+00,2.315e+00,1.700e+00,2.935e+00,2.437e+00,1.820e+00,1.999e+00,2.931e+00,1.798e+00,1.693e+00,3.131e+00,1.541e+00,1.807e+00,1.710e+00,2.568e+00,2.210e+00,2.737e+00,2.624e+00,1.372e+00
4.139e-01,4.521e-01,1.061e+00,1.111e+00,1.497e+00,1.054e+00,1.486e+00,2.781e+00,2.909e+00,2.838e+00,2.594e+00,2.316e+00,1.055e+00,2.217e+00,3.236e+00,2.954e+00,1.433e+00,2.331e+00,3.037e+00,2.444e+00,3.206e+00,2.436e+00,2.283e+00,1.664e+00,2.408e+00,1.591e+00,1.510e+00,1.456e+00,2.902e+00,2.388e+00,2.758e+00,2.753e+00,1.967e+00,2.956e+00,1.818e+00,2.401e+00,1.258e+00,2.908e+00,2.150e+00,2.620e+00,1.771e+00,2.377e+00,3.077e+00,1.817e+00,2.206e+00,2.259e+00,1.827e+00,2.165e+00,1.868e+00,2.404e+00,2.743e+00,2.148e+00,2.998e+00,1.921e+00,2.762e+00,2.218e+00,2.238e+00,2.219e+00,1.628e+00,2.912e+00,2.067e+00,2.383e+00,2.702e+00,2.770e+00,2.329e+00,2.277e+00,2.497e+00,2.543e+00,2.258e+00,2.444e+00,1.893e+00,1.910e+00,2.273e+00,2.330e+00,2.043e+00,2.833e+00,2.578e+00,1.947e+00,2.377e+00,1.871e+00,3.346e+00,3.039e+00,1.495e+00,1.996e+00,3.355e+00,2.036e+00,2.136e+00,2.534e+00,2.529e+00,2.207e+00,2.412e+00,2.876e+00,2.362e+00,2.467e+00,2.360e+00,1.276e+00
8.289e-03,1.436e-01,9.587e-01,9.850e-01,1.376e+00,1.200e+00,1.660e+00,2.495e+00,3.120e+00,3.512e+00,2.361e+00,2.895e+00,1.150e+00,1.920e+00,3.016e+00,2.820e+00,1.569e+00,2.682e+00,2.638e+00,2.483e+00,3.687e+00,1.940e+00,2.737e+00,2.176e+00,2.308e+00,2.139e+00,1.572e+00,2.558e+00,3.106e+00,2.386e+00,2.905e+00,2.429e+00,2.685e+00,1.989e+00,2.713e+00,2.526e+00,2.317e+00,2.981e+00,1.990e+00,2.959e+00,2.539e+00,2.632e+00,3.014e+00,1.914e+00,1.437e+00,2.404e+00,2.588e+00,1.808e+00,2.557e+00,2.648e+00,2.822e+00,1.653e+00,2.254e+00,2.034e+00,3.102e+00,1.884e+00,2.721e+00,1.763e+00,2.073e+00,3.821e+00,2.355e+00,1.932e+00,3.027e+00,2.352e+00,2.621e+00,2.163e+00,2.819e+00,2.642e+00,1.723e+00,2.802e+00,2.085e+00,1.657e+00,2.774e+00,2.087e+00,2.519e+00,2.860e+00,2.632e+00,2.775e+00,2.532e+00,2.073e+00,2.832e+00,3.379e+00,2.584e+00,1.881e+00,2.545e+00,3.071e+00,2.290e+00,3.030e+00,1.947e+00,2.291e+00,1.852e+00,2.592e+00,2.293e+00,2.667e+00,3.356e+00,1.316e+00
2.954e-01,2.976e-01,1.219e+00,1.056e+00,1.451e+00,1.062e+00,1.464e+00,2.923e+00,3.684e+00,4.173e+00,3.424e+00,3.679e+00,1.520e+00,2.726e+00,3.760e+00,4.435e+00,2.446e+00,3.055e+00,4.087e+00,2.595e+00,4.848e+00,3.386e+00,3.772e+00,3.427e+00,3.022e+00,2.167e+00,2.946e+00,2.986e+00,3.949e+00,3.101e+00,3.593e+00,3.423e+00,3.666e+00,3.185e+00,3.309e+00,3.427e+00,2.693e+00,4.737e+00,3.430e+00,4.372e+00,2.592e+00,2.979e+00,4.277e+00,2.608e+00,2.141e+00,3.638e+00,3.158e+00,3.387e+00,2.863e+00,3.413e+00,3.480e+00,2.345e+00,3.837e+00,3.607e+00,4.108e+00,2.369e+00,3.837e+00,2.771e+00,2.279e+00,3.974e+00,3.328e+00,3.323e+00,3.998e+00,3.150e+00,4.139e+00,3.526e+00,4.243e+00,3.281e+00,2.915e+00,3.454e+00,2.909e+00,2.129e+00,3.020e+00,3.621e+00,3.193e+00,3.398e+00,3.307e+00,2.799e+00,3.496e+00,2.575e+00,4.389e+00,4.473e+00,2.754e+00,2.941e+00,4.527e+00,3.083e+00,3.730e+00,3.340e+00,2.820e+00,3.084e+00,3.208e+00,4.179e+00,3.108e+00,4.021e+00,3.839e+00,1.288e+00
2.416e-01,3.701e-01,1.442e+00,1.009e+00,1.450e+00,9.636e-01,1.234e+00,2.694e+00,3.126e+00,3.283e+00,3.704e+00,3.211e+00,2.203e+00,3.136e+00,3.389e+00,3.414e+00,1.777e+00,3.268e+00,3.477e+00,3.300e+00,4.318e+00,3.182e+00,3.606e+00,2.691e+00,3.200e+00,2.654e+00,1.758e+00,2.479e+00,3.518e+00,2.707e+00,3.834e+00,3.480e+00,3.903e+00,2.557e+00,3.232e+00,3.569e+00,2.535e+00,4.044e+00,2.852e+00,3.885e+00,2.915e+00,3.414e+00,3.401e+00,2.526e+00,1.909e+00,3.022e+00,3.346e+00,2.589e+00,2.603e+00,3.566e+00,3.395e+00,2.899e+00,3.232e+00,2.819e+00,4.238e+00,2.870e+00,2.805e+00,2.236e+00,3.052e+00,4.177e+00,3.118e+00,3.273e+00,3.669e+00,2.587e+00,3.817e+00,2.741e+00,3.185e+00,3.033e+00,2.862e+00,2.797e+00,2.862e+00,1.832e+00,2.810e+00,3.341e+00,2.654e+00,3.177e+00,3.514e+00,2.697e+00,3.420e+00,2.757e+00,4.005e+00,4.544e+00,2.669e+00,2.333e+00,3.295e+00,3.178e+00,3.793e+00,3.281e+00,2.700e+00,2.856e+00,3.101e+00,3.623e+00,2.409e+00,2.767e+00,4.331e+00,2.217e+00
7.979e-01,9.501e-01,2.238e+00,1.711e+00,2.365e+00,1.560e+00,1.730e+00,3.226e+00,4.005e+00,3.559e+00,4.295e+00,4.223e+00,2.677e+00,3.697e+00,4.204e+00,4.476e+00,2.297e+00,4.686e+00,3.975e+00,4.809e+00,5.335e+00,4.579e+00,4.192e+00,3.430e+00,3.570e+00,3.432e+00,2.110e+00,2.619e+00,4.790e+00,3.757e+00,4.595e+00,4.476e+00,4.943e+00,3.729e+00,3.716e+00,4.733e+00,3.204e+00,5.391e+00,3.957e+00,4.139e+00,3.700e+00,3.764e+00,4.223e+00,3.243e+00,2.285e+00,4.339e+00,3.622e+00,3.351e+00,3.213e+00,4.544e+00,4.889e+00,3.954e+00,4.150e+00,3.594e+00,5.123e+00,3.878e+00,3.522e+00,2.662e+00,4.337e+00,5.130e+00,3.490e+00,3.799e+00,5.241e+00,3.537e+00,4.499e+00,3.767e+00,4.358e+00,4.183e+00,3.898e+00,4.158e+00,3.258e+00,2.853e+00,4.323e+00,4.470e+00,3.696e+00,4.054e+00,4.563e+00,4.101e+00,4.034e+00,3.948e+00,5.431e+00,5.392e+00,3.134e+00,3.780e+00,3.808e+00,4.300e+00,4.402e+00,4.688e+00,3.850e+00,3.972e+00,4.042e+00,4.497e+00,3.462e+00,3.935e+00,5.405e+00,2.611e+00
4.646e-01,5.667e-01,1.286e+00,7.190e-01,1.089e+00,1.125e+00,1.096e+00,2.383e+00,2.807e+00,2.771e+00,3.529e+00,3.294e+00,2.975e+00,3.542e+00,3.886e+00,5.139e+00,2.624e+00,4.453e+00,4.480e+00,4.296e+00,5.593e+00,4.745e+00,3.611e+00,4.261e+00,2.939e+00,3.895e+00,3.057e+00,2.815e+00,4.761e+00,3.013e+00,4.891e+00,3.776e+00,5.442e+00,3.471e+00,3.623e+00,4.745e+00,4.522e+00,5.140e+00,4.235e+00,4.782e+00,3.104e+00,3.527e+00,3.967e+00,3.882e+00,2.400e+00,4.477e+00,4.721e+00,3.607e+00,3.000e+00,4.353e+00,5.426e+00,4.027e+00,4.441e+00,4.524e+00,5.548e+00,3.682e+00,3.978e+00,4.083e+00,4.001e+00,4.713e+00,4.767e+00,4.367e+00,4.380e+00,3.993e+00,4.672e+00,3.615e+00,4.213e+00,4.333e+00,4.268e+00,3.750e+00,3.882e+00,2.538e+00,4.301e+00,5.249e+00,4.173e+00,3.530e+00,4.470e+00,3.653e+00,4.393e+00,3.930e+00,4.809e+00,5.481e+00,3.600e+00,4.142e+00,3.941e+00,3.539e+00,5.118e+00,4.419e+00,3.632e+00,3.597e+00,4.456e+00,5.159e+00,3.322e+00,4.012e+00,5.116e+00,2.976e+00
7.887e-01,7.809e-01,1.432e+00,1.290e+00,1.764e+00,1.294e+00,1.365e+00,1.808e+00,2.863e+00,2.497e+00,2.467e+00,2.128e+00,1.832e+00,2.793e+00,3.514e+00,4.204e+00,2.029e+00,3.678e+00,3.564e+00,3.153e+00,4.366e+00,3.964e+00,3.353e+00,2.733e+00,2.619e+00,3.015e+00,3.212e+00,2.920e+00,3.783e+00,3.236e+00,3.827e+00,3.100e+00,3.849e+00,3.632e+00,2.922e+00,3.523e+00,3.533e+00,4.486e+00,3.503e+00,3.705e+00,3.188e+00,3.185e+00,4.058e+00,3.068e+00,1.873e+00,4.202e+00,3.153e+00,3.451e+00,2.338e+00,3.372e+00,4.015e+00,3.436e+00,3.929e+00,3.453e+00,4.200e+00,2.451e+00,3.727e+00,3.261e+00,3.217e+00,3.853e+00,3.102e+00,2.866e+00,3.964e+00,3.949e+00,3.231e+00,3.116e+00,3.636e+00,3.367e+00,2.932e+00,3.216e+00,3.274e+00,2.088e+00,3.497e+00,3.409e+00,4.555e+00,3.725e+00,3.146e+00,2.935e+00,3.013e+00,2.900e+00,4.043e+00,3.709e+00,2.935e+00,3.713e+00,3.930e+00,3.018e+00,2.991e+00,4.371e+00,2.409e+00,3.137e+00,3.566e+00,4.297e+00,3.527e+00,3.588e+00,3.915e+00,2.895e+00
3.158e-01,3.600e-01,1.358e+00,1.070e+00,1.507e+00,1.010e+00,1.318e+00,2.229e+00,2.853e+00,3.184e+00,3.110e+00,3.405e+00,2.335e+00,3.000e+00,4.148e+00,5.286e+00,2.858e+00,4.572e+00,4.334e+00,4.279e+00,5.516e+00,4.807e+00,4.793e+00,4.056e+00,3.206e+00,4.296e+00,3.727e+00,3.405e+00,4.587e+00,3.355e+00,4.600e+00,3.640e+00,4.956e+00,4.170e+00,4.551e+00,4.863e+00,4.625e+00,5.763e+00,4.310e+00,4.578e+00,3.126e+00,3.919e+00,3.940e+00,4.425e+00,2.476e+00,4.788e+00,5.157e+00,4.157e+00,3.325e+00,4.519e+00,4.407e+00,3.348e+00,4.240e+00,4.489e+00,5.786e+00,3.501e+00,4.817e+00,3.715e+00,4.227e+00,4.511e+00,3.763e+00,4.489e+00,4.906e+00,3.414e+00,4.528e+00,3.673e+00,5.390e+00,4.383e+00,4.001e+00,4.291e+00,3.998e+00,2.925e+00,3.871e+00,4.543e+00,4.272e+00,3.896e+00,4.653e+00,3.909e+00,4.605e+00,3.921e+00,4.626e+00,4.770e+00,4.093e+00,4.036e+00,4.536e+00,3.679e+00,4.601e+00,4.463e+00,3.098e+00,4.051e+00,4.446e+00,4.742e+00,3.698e+00,4.690e+00,5.082e+00,3.460e+00
6.144e-01,7.494e-01,1.475e+00,1.245e+00,1.711e+00,1.690e+00,1.909e+00,3.055e+00,3.387e+00,3.145e+00,3.531e+00,3.360e+00,3.054e+00,3.205e+00,4.597e+00,5.493e+00,3.224e+00,5.236e+00,4.633e+00,4.789e+00,6.084e+00,4.385e+00,4.863e+00,4.083e+00,3.664e+00,5.135e+00,3.803e+00,2.935e+00,5.422e+00,3.998e+00,5.211e+00,4.135e+00,4.947e+00,5.036e+00,3.585e+00,5.072e+00,4.182e+00,5.454e+00,4.989e+00,4.139e+00,3.795e+00,5.097e+00,4.775e+00,3.992e+00,3.745e+00,4.983e+00,5.731e+00,4.417e+00,3.782e+00,5.164e+00,5.076e+00,4.804e+00,4.965e+00,4.689e+00,5.534e+00,4.439e+00,4.612e+00,4.626e+00,4.453e+00,5.358e+00,4.310e+00,3.994e+00,5.055e+00,4.612e+00,4.318e+00,3.862e+00,5.442e+00,5.168e+00,3.891e+00,5.462e+00,3.659e+00,3.121e+00,4.496e+00,5.351e+00,4.016e+00,5.280e+00,4.866e+00,4.506e+00,4.467e+00,4.314e+00,4.852e+00,5.359e+00,4.179e+00,4.571e+00,4.662e+00,4.502e+00,4.448e+00,4.918e+00,4.675e+00,4.295e+00,4.320e+00,4.346e+00,3.623e+00,4.717e+00,5.388e+00,3.579e+00
2.746e-01,3.137e-01,1.132e+00,7.507e-01,1.074e+00,8.605e-01,9.898e-01,1.942e+00,2.626e+00,2.853e+00,2.808e+00,3.263e+00,2.060e+00,2.450e+00,3.585e+00,4.065e+00,3.249e+00,4.779e+00,4.749e+00,4.032e+00,5.206e+00,3.994e+00,5.077e+00,4.310e+00,3.388e+00,4.705e+00,3.934e+00,3.248e+00,4.709e+00,3.802e+00,5.232e+00,4.422e+00,4.964e+00,4.890e+00,4.281e+00,5.577e+00,4.310e+00,5.963e+00,4.695e+00,4.754e+00,4.347e+00,4.544e+00,4.598e+00,4.220e+00,2.465e+00,5.322e+00,5.028e+00,3.939e+00,4.146e+00,4.851e+00,4.712e+00,4.806e+00,4.764e+00,5.069e+00,6.135e+00,4.580e+00,4.421e+00,3.420e+00,5.105e+00,5.290e+00,4.300e+00,3.944e+00,5.515e+00,4.590e+00,4.279e+00,3.903e+00,5.097e+00,4.142e+00,3.851e+00,4.795e+00,4.272e+00,3.550e+00,5.122e+00,4.722e+00,3.701e+00,4.438e+00,4.873e+00,4.378e+00,4.459e+00,3.906e+00,4.675e+00,4.888e+00,4.992e+00,4.976e+00,4.505e+00,5.116e+00,4.351e+00,4.696e+00,3.730e+00,4.432e+00,4.703e+00,4.525e+00,4.809e+00,4.529e+00,5.806e+00,4.318e+00
2.478e-01,2.666e-01,4.280e-01,7.181e-01,9.152e-01,6.214e-01,8.618e-01,1.246e+00,2.409e+00,2.293e+00,2.101e+00,2.012e+00,1.766e+00,2.060e+00,3.188e+00,3.881e+00,2.425e+00,2.916e+00,4.079e+00,3.343e+00,4.785e+00,3.649e+00,4.871e+00,3.678e+00,3.153e+00,4.036e+00,3.633e+00,3.146e+00,3.595e+00,4.110e+00,4.344e+00,3.920e+00,4.247e+00,4.147e+00,4.941e+00,4.027e+00,3.559e+00,4.344e+00,4.123e+00,4.154e+00,3.462e+00,3.475e+00,4.169e+00,2.830e+00,2.665e+00,3.513e+00,4.603e+00,3.245e+00,2.731e+00,3.936e+00,4.152e+00,3.661e+00,3.135e+00,4.925e+00,4.599e+00,3.117e+00,3.931e+00,3.379e+00,4.250e+00,4.098e+00,3.815e+00,3.950e+00,5.047e+00,4.138e+00,4.328e+00,3.254e+00,4.504e+00,2.543e+00,2.645e+00,3.726e+00,3.160e+00,3.081e+00,3.613e+00,4.157e+00,3.715e+00,3.263e+00,4.377e+00,3.476e+00,3.388e+00,3.509e+00,4.349e+00,5.303e+00,3.475e+00,3.688e+00,3.983e+00,4.111e+00,3.829e+00,3.976e+00,3.450e+00,3.447e+00,3.359e+00,4.019e+00,3.861e+00,3.976e+00,4.485e+00,2.783e+00
1.298e-02,1.369e-01,8.916e-01,9.538e-01,1.320e+00,9.660e-01,1.370e+00,2.370e+00,3.186e+00,3.485e+00,3.019e+00,3.150e+00,2.132e+00,2.713e+00,4.010e+00,4.336e+00,2.606e+00,4.390e+00,5.427e+00,4.484e+00,6.030e+00,4.694e+00,5.492e+00,4.251e+00,4.137e+00,5.152e+00,4.045e+00,4.270e+00,5.865e+00,5.152e+00,5.961e+00,4.683e+00,5.449e+00,5.103e+00,5.685e+00,5.405e+00,4.721e+00,5.535e+00,4.480e+00,5.158e+00,3.883e+00,4.304e+00,5.028e+00,4.522e+00,2.971e+00,4.091e+00,5.591e+00,3.864e+00,3.723e+00,4.527e+00,5.734e+00,4.061e+00,4.703e+00,5.441e+00,6.164e+00,4.803e+00,4.225e+00,4.512e+00,5.360e+00,5.805e+00,4.478e+00,5.256e+00,6.184e+00,5.199e+00,5.930e+00,4.461e+00,5.412e+00,4.567e+00,3.694e+00,5.285e+00,3.969e+00,3.649e+00,5.152e+00,5.709e+00,4.817e+00,4.148e+00,5.578e+00,4.955e+00,4.927e+00,4.830e+00,4.746e+00,6.448e+00,5.416e+00,4.675e+00,4.529e+00,5.530e+00,5.750e+00,5.547e+00,4.023e+00,4.401e+00,4.141e+00,5.187e+00,5.139e+00,5.158e+00,6.453e+00,3.556e+00
4.499e-01,5.317e-01,1.391e+00,6.863e-01,1.042e+00,1.329e+00,1.242e+00,2.687e+00,2.863e+00,3.098e+00,3.823e+00,3.277e+00,2.920e+00,3.361e+00,4.351e+00,5.200e+00,3.766e+00,5.786e+00,7.136e+00,6.238e+00,8.093e+00,6.330e+00,6.674e+00,5.866e+00,5.028e+00,7.391e+00,6.449e+00,5.523e+00,7.495e+00,5.879e+00,7.848e+00,6.361e+00,7.323e+00,7.481e+00,6.098e+00,6.838e+00,6.709e+00,7.215e+00,7.493e+00,7.033e+00,6.140e+00,5.918e+00,7.115e+00,5.565e+00,4.628e+00,6.381e+00,8.070e+00,5.892e+00,5.745e+00,7.069e+00,7.129e+00,7.136e+00,6.573e+00,7.602e+00,8.452e+00,6.533e+00,6.304e+00,6.464e+00,7.060e+00,6.792e+00,5.979e+00,6.008e+00,6.963e+00,7.037e+00,7.689e+00,5.753e+00,6.912e+00,6.249e+00,4.972e+00,6.434e+00,6.049e+00,4.928e+00,6.574e+00,8.311e+00,5.690e+00,5.485e+00,5.827e+00,6.398e+00,6.718e+00,6.108e+00,6.465e+00,7.743e+00,7.034e+00,6.950e+00,6.195e+00,6.658e+00,6.729e+00,6.290e+00,5.309e+00,5.940e+00,5.671e+00,6.716e+00,5.882e+00,6.204e+00,7.864e+00,5.143e+00
3.289e-01,4.114e-01,1.199e+00,9.293e-01,1.348e+00,1.723e+00,1.773e+00,2.628e+00,3.520e+00,3.839e+00,3.550e+00,3.296e+00,2.723e+00,3.320e+00,4.196e+00,4.779e+00,3.081e+00,5.429e+00,5.586e+00,5.841e+00,8.072e+00,5.898e+00,6.433e+00,5.969e+00,5.688e+00,6.719e+00,4.883e+00,6.063e+00,7.358e+00,6.092e+00,7.839e+00,5.639e+00,7.130e+00,6.432e+00,5.375e+00,5.402e+00,5.643e+00,6.675e+00,6.370e+00,6.148e+00,5.950e+00,5.934e+00,6.606e+00,4.254e+00,4.498e+00,6.136e+00,6.308e+00,4.521e+00,4.816e+00,6.208e+00,7.260e+00,6.549e+00,5.878e+00,6.856e+00,7.957e+00,5.061e+00,5.911e+00,5.390e+00,6.614e+00,7.528e+00,5.390e+00,4.320e+00,6.445e+00,7.295e+00,5.835e+00,5.647e+00,6.363e+00,6.302e+00,4.897e+00,6.241e+00,6.251e+00,4.437e+00,6.884e+00,7.489e+00,5.838e+00,5.721e+00,5.850e+00,6.553e+00,5.360e+00,5.350e+00,6.755e+00,7.306e+00,6.063e+00,6.238e+00,5.388e+00,6.998e+00,5.990e+00,7.209e+00,5.497e+00,4.901e+00,4.726e+00,6.406e+00,5.862e+00,5.425e+00,7.548e+00,4.744e+00
6.971e-01,7.992e-01,1.500e+00,1.205e+00,1.679e+00,1.941e+00,2.068e+00,3.101e+00,3.450e+00,3.330e+00,3.920e+00,3.236e+00,3.315e+00,3.746e+00,4.653e+00,5.128e+00,3.162e+00,5.281e+00,5.728e+00,6.015e+00,7.142e+00,6.928e+00,6.134e+00,5.641e+00,6.046e+00,6.694e+00,5.589e+00,5.655e+00,7.403e+00,6.443e+00,7.763e+00,6.280e+00,7.426e+00,7.082e+00,6.172e+00,6.635e+00,6.229e+00,7.110e+00,7.378e+00,6.058e+00,6.747e+00,6.692e+00,6.422e+00,5.006e+00,4.895e+00,6.163e+00,7.742e+00,5.072e+00,5.147e+00,7.121e+00,7.483e+00,6.843e+00,5.908e+00,7.734e+00,7.351e+00,6.177e+00,6.602e+00,6.641e+00,6.623e+00,6.941e+00,4.997e+00,6.075e+00,7.094e+00,7.731e+00,6.322e+00,6.133e+00,6.825e+00,6.928e+00,5.612e+00,6.687e+00,6.269e+00,4.956e+00,6.074e+00,7.266e+00,6.365e+00,6.328e+00,6.420e+00,6.279e+00,6.541e+00,6.157e+00,7.160e+00,7.777e+00,6.559e+00,6.422e+00,6.204e+00,6.669e+00,6.078e+00,6.832e+00,5.185e+00,5.959e+00,5.361e+00,6.598e+00,5.939e+00,5.735e+00,7.460e+00,5.106e+00
3.610e-01,4.030e-01,6.472e-01,9.359e-01,1.221e+00,1.096e+00,1.411e+00,1.934e+00,2.263e+00,2.169e+00,2.097e+00,1.851e+00,1.468e+00,2.121e+00,3.627e+00,3.957e+00,2.648e+00,3.463e+00,4.934e+00,4.125e+00,5.184e+00,4.964e+00,5.427e+00,5.133e+00,5.158e+00,5.754e+00,5.865e+00,4.848e+00,6.528e+00,6.342e+00,6.356e+00,4.996e+00,5.225e+00,6.589e+00,6.690e+00,6.594e+00,4.946e+00,6.118e+00,6.355e+00,4.506e+00,4.978e+00,5.124e+00,4.480e+00,4.883e+00,4.509e+00,4.355e+00,6.868e+00,4.596e+00,4.992e+00,5.801e+00,6.421e+00,4.959e+00,4.894e+00,7.019e+00,6.090e+00,5.660e+00,5.512e+00,6.071e+00,6.429e+00,4.934e+00,4.426e+00,6.353e+00,6.737e+00,6.808e+00,5.805e+00,5.023e+00,6.164e+00,5.295e+00,4.683e+00,5.248e+00,4.876e+00,5.005e+00,4.807e+00,6.000e+00,4.980e+00,4.774e+00,5.263e+00,5.183e+00,4.790e+00,6.144e+00,5.733e+00,6.958e+00,5.614e+00,4.842e+00,6.739e+00,5.486e+00,4.457e+00,5.098e+00,4.524e+00,5.820e+00,4.455e+00,5.006e+00,5.755e+00,6.460e+00,5.826e+00,4.541e+00
4.748e-02,1.957e-01,7.006e-01,5.219e-01,8.038e-01,1.379e+00,1.612e+00,2.765e+00,2.406e+00,2.810e+00,3.153e+00,2.888e+00,2.220e+00,3.084e+00,4.197e+00,4.326e+00,3.446e+00,5.109e+00,6.276e+00,5.784e+00,7.413e+00,6.107e+00,6.432e+00,7.518e+00,6.633e+00,8.049e+00,6.197e+00,6.436e+00,8.612e+00,6.847e+00,9.571e+00,6.509e+00,7.742e+00,7.742e+00,7.327e+00,8.428e+00,7.291e+00,7.129e+00,8.081e+00,6.280e+00,7.222e+00,7.043e+00,6.373e+00,5.934e+00,5.779e+00,6.854e+00,8.614e+00,5.954e+00,6.877e+00,8.209e+00,8.189e+00,8.228e+00,6.338e+00,8.480e+00,9.412e+00,7.880e+00,6.924e+00,7.531e+00,8.693e+00,7.595e+00,6.674e+00,7.545e+00,7.462e+00,8.856e+00,7.043e+00,6.017e+00,7.275e+00,8.117e+00,6.788e+00,6.446e+00,7.263e+00,6.294e+00,7.170e+00,8.637e+00,5.730e+00,6.367e+00,6.842e+00,7.700e+00,7.036e+00,7.301e+00,7.210e+00,8.793e+00,7.216e+00,7.367e+00,7.116e+00,8.285e+00,6.922e+00,7.467e+00,6.338e+00,6.582e+00,5.679e+00,6.335e+00,7.343e+00,6.856e+00,8.448e+00,6.756e+00
5.267e-01,6.349e-01,1.248e+00,1.011e+00,1.440e+00,1.597e+00,1.776e+00,2.602e+00,2.665e+00,2.575e+00,2.821e+00,2.893e+00,2.103e+00,2.976e+00,4.018e+00,4.585e+00,2.776e+00,4.325e+00,4.753e+00,5.558e+00,6.190e+00,6.046e+00,4.926e+00,5.884e+00,5.591e+00,6.639e+00,5.785e+00,5.968e+00,6.847e+00,5.812e+00,7.422e+00,5.778e+00,6.208e+00,6.962e+00,6.363e+00,7.344e+00,6.086e+00,6.112e+00,6.898e+00,4.946e+00,6.613e+00,5.332e+00,5.309e+00,5.982e+00,5.364e+00,6.088e+00,6.931e+00,5.099e+00,5.955e+00,7.272e+00,6.946e+00,6.384e+00,5.716e+00,7.003e+00,8.014e+00,6.037e+00,6.003e+00,6.311e+00,6.763e+00,5.996e+00,4.924e+00,5.937e+00,6.460e+00,7.512e+00,5.687e+00,5.690e+00,6.851e+00,6.962e+00,5.777e+00,6.013e+00,5.847e+00,5.576e+00,6.618e+00,6.574e+00,5.650e+00,6.325e+00,6.718e+00,6.512e+00,6.267e+00,6.518e+00,7.510e+00,7.587e+00,6.477e+00,6.861e+00,5.804e+00,5.927e+00,5.591e+00,7.210e+00,5.057e+00,6.059e+00,4.737e+00,5.474e+00,5.965e+00,5.762e+00,6.683e+00,5.246e+00
2.527e-01,2.779e-01,8.383e-01,9.917e-01,1.380e+00,1.064e+00,1.520e+00,2.417e+00,3.305e+00,3.449e+00,2.967e+00,2.879e+00,2.461e+00,3.315e+00,4.663e+00,5.575e+00,3.172e+00,5.122e+00,6.322e+00,6.035e+00,7.730e+00,6.595e+00,6.716e+00,6.319e+00,6.160e+00,7.606e+00,7.292e+00,6.783e+00,8.316e+00,6.881e+00,9.075e+00,5.489e+00,7.822e+00,8.331e+00,6.391e+00,8.014e+00,7.373e+00,8.112e+00,7.362e+00,6.891e+00,6.559e+00,6.924e+00,8.280e+00,6.141e+00,6.017e+00,7.677e+00,7.485e+00,5.579e+00,5.803e+00,7.125e+00,8.213e+00,7.839e+00,7.874e+00,8.066e+00,9.198e+00,6.399e+00,6.451e+00,7.063e+00,7.920e+00,7.696e+00,6.640e+00,6.822e+00,8.345e+00,9.666e+00,7.264e+00,6.276e+00,7.346e+00,8.058e+00,6.531e+00,6.857e+00,8.235e+00,5.844e+00,7.789e+00,8.726e+00,7.734e+00,6.153e+00,7.351e+00,6.576e+00,6.443e+00,6.785e+00,8.046e+00,8.497e+00,7.636e+00,7.665e+00,7.107e+00,7.588e+00,7.670e+00,8.353e+00,5.360e+00,6.675e+00,6.220e+00,6.784e+00,7.151e+00,6.746e+00,8.882e+00,6.183e+00
1.373e-01,1.979e-01,8.676e-01,6.405e-01,9.528e-01,8.628e-01,1.137e+00,1.913e+00,2.325e+00,2.690e+00,1.978e+00,2.524e+00,1.182e+00,2.013e+00,3.386e+00,4.094e+00,2.361e+00,3.252e+00,5.014e+00,4.013e+00,5.120e+00,4.481e+00,4.610e+00,4.458e+00,3.892e+00,5.827e+00,6.550e+00,6.514e+00,6.277e+00,5.338e+00,7.332e+00,4.935e+00,5.941e+00,6.654e+00,7.525e+00,7.553e+00,6.782e+00,5.437e+00,5.907e+00,5.066e+00,6.071e+00,5.102e+00,6.119e+00,6.502e+00,4.789e+00,5.541e+00,6.291e+00,5.350e+00,5.674e+00,6.722e+00,6.705e+00,5.028e+00,5.949e+00,6.807e+00,8.301e+00,4.905e+00,5.600e+00,5.975e+00,5.932e+00,5.883e+00,5.584e+00,6.144e+00,7.185e+00,7.582e+00,6.805e+00,5.088e+00,7.172e+00,6.341e+00,5.006e+00,5.534e+00,5.939e+00,5.354e+00,5.902e+00,5.829e+00,6.314e+00,5.231e+00,6.595e+00,5.868e+00,5.691e+00,5.447e+00,6.349e+00,7.107e+00,6.777e+00,6.993e+00,5.522e+00,5.443e+00,6.640e+00,6.398e+00,3.829e+00,5.957e+00,4.367e+00,5.475e+00,5.822e+00,5.618e+00,6.695e+00,5.320e+00
3.752e-02,9.469e-02,4.150e-01,6.510e-01,9.192e-01,9.420e-01,1.398e+00,2.210e+00,3.079e+00,3.418e+00,2.577e+00,2.675e+00,2.097e+00,2.891e+00,4.171e+00,5.205e+00,3.151e+00,3.864e+00,5.458e+00,3.792e+00,6.273e+00,4.973e+00,5.393e+00,6.236e+00,5.584e+00,6.146e+00,7.272e+00,7.677e+00,8.086e+00,7.428e+00,8.266e+00,6.374e+00,7.797e+00,7.453e+00,7.706e+00,8.842e+00,7.248e+00,7.247e+00,7.028e+00,6.473e+00,6.663e+00,6.442e+00,6.966e+00,6.664e+00,6.377e+00,6.195e+00,7.357e+00,6.009e+00,6.985e+00,7.060e+00,8.727e+00,6.740e+00,7.605e+00,9.030e+00,8.810e+00,5.660e+00,6.327e+00,7.751e+00,7.115e+00,7.529e+00,7.640e+00,7.180e+00,8.183e+00,9.724e+00,6.961e+00,6.305e+00,6.920e+00,6.880e+00,6.157e+00,5.822e+00,7.198e+00,5.877e+00,7.329e+00,6.848e+00,7.303e+00,6.494e+00,7.575e+00,6.565e+00,6.473e+00,6.587e+00,7.735e+00,8.834e+00,7.896e+00,7.003e+00,7.896e+00,6.406e+00,6.749e+00,7.762e+00,4.763e+00,6.798e+00,6.148e+00,6.943e+00,6.808e+00,6.501e+00,7.573e+00,6.310e+00
6.105e-01,6.699e-01,1.504e+00,1.427e+00,1.931e+00,1.316e+00,1.727e+00,2.651e+00,2.972e+00,2.807e+00,3.218e+00,3.019e+00,2.477e+00,3.208e+00,4.286e+00,5.103e+00,3.224e+00,4.846e+00,4.935e+00,5.006e+00,6.289e+00,6.523e+00,5.777e+00,6.224e+00,6.116e+00,6.783e+00,6.058e+00,6.347e+00,7.835e+00,7.186e+00,9.635e+00,7.299e+00,8.344e+00,8.791e+00,7.900e+00,8.586e+00,7.455e+00,8.080e+00,8.271e+00,6.852e+00,7.416e+00,8.040e+00,7.470e+00,6.909e+00,6.815e+00,8.387e+00,7.802e+00,6.293e+00,6.855e+00,9.156e+00,8.028e+00,8.231e+00,7.190e+00,8.377e+00,1.003e+01,7.093e+00,7.224e+00,7.506e+00,8.365e+00,7.818e+00,6.336e+00,7.624e+00,8.619e+00,8.902e+00,6.453e+00,6.541e+00,8.533e+00,8.985e+00,7.725e+00,6.651e+00,7.974e+00,6.274e+00,7.561e+00,7.830e+00,7.056e+00,7.172e+00,7.989e+00,7.818e+00,7.426e+00,7.456e+00,8.716e+00,8.227e+00,6.934e+00,7.533e+00,7.671e+00,7.795e+00,7.148e+00,7.205e+00,5.935e+00,7.552e+00,6.651e+00,6.855e+00,7.220e+00,6.367e+00,7.176e+00,8.326e+00
4.463e-01,5.102e-01,1.046e+00,7.923e-01,1.124e+00,1.252e+00,1.360e+00,2.068e+00,2.113e+00,2.089e+00,2.671e+00,2.448e+00,2.048e+00,2.707e+00,3.740e+00,3.631e+00,2.263e+00,4.212e+00,4.562e+00,5.386e+00,5.618e+00,5.739e+00,5.356e+00,5.033e+00,4.552e+00,6.327e+00,5.613e+00,6.283e+00,7.138e+00,6.977e+00,8.721e+00,6.939e+00,7.799e+00,8.269e+00,7.615e+00,7.959e+00,7.663e+00,7.223e+00,7.556e+00,5.676e+00,6.818e+00,6.364e+00,6.612e+00,6.529e+00,5.647e+00,6.210e+00,6.419e+00,6.095e+00,5.669e+00,7.749e+00,8.243e+00,6.963e+00,6.575e+00,8.082e+00,9.714e+00,5.930e+00,7.000e+00,6.763e+00,7.838e+00,7.774e+00,5.808e+00,7.770e+00,8.016e+00,8.887e+00,7.053e+00,5.281e+00,7.741e+00,7.045e+00,6.382e+00,6.077e+00,7.253e+00,6.191e+00,7.086e+00,7.514e+00,7.314e+00,6.710e+00,7.438e+00,7.350e+00,6.366e+00,6.410e+00,8.389e+00,8.084e+00,6.750e+00,7.996e+00,6.320e+00,7.036e+00,7.282e+00,7.229e+00,5.437e+00,7.039e+00,5.560e+00,6.806e+00,6.297e+00,5.764e+00,8.105e+00,7.431e+00
7.829e-01,7.905e-01,1.514e+00,1.036e+00,1.433e+00,1.002e+00,9.723e-01,2.100e+00,2.755e+00,2.419e+00,3.060e+00,2.916e+00,2.204e+00,2.841e+00,3.693e+00,4.833e+00,2.649e+00,4.080e+00,5.189e+00,5.027e+00,6.227e+00,6.258e+00,5.089e+00,5.362e+00,4.989e+00,5.603e+00,5.976e+00,5.468e+00,6.908e+00,6.647e+00,7.907e+00,6.911e+00,7.919e+00,8.607e+00,6.832e+00,7.945e+00,7.675e+00,8.632e+00,7.909e+00,6.897e+00,6.435e+00,6.090e+00,7.809e+00,6.064e+00,6.260e+00,6.899e+00,7.092e+00,6.038e+00,5.048e+00,7.755e+00,8.072e+00,7.130e+00,6.849e+00,8.026e+00,8.801e+00,5.980e+00,6.915e+00,6.716e+00,7.600e+00,7.667e+00,5.687e+00,7.947e+00,8.301e+00,8.715e+00,8.231e+00,6.152e+00,8.621e+00,8.212e+00,6.380e+00,6.685e+00,7.236e+00,6.499e+00,7.089e+00,8.758e+00,7.308e+00,5.912e+00,6.834e+00,6.733e+00,6.944e+00,6.888e+00,7.861e+00,8.217e+00,6.925e+00,7.830e+00,7.351e+00,6.462e+00,7.444e+00,6.789e+00,5.896e+00,7.809e+00,6.164e+00,7.032e+00,6.264e+00,7.115e+00,7.837e+00,5.760e+00
3.434e-01,3.746e-01,5.473e-01,1.007e+00,1.283e+00,8.649e-01,1.415e+00,1.815e+00,2.597e+00,2.385e+00,1.593e+00,2.449e+00,1.693e+00,1.806e+00,3.725e+00,5.019e+00,3.316e+00,4.037e+00,4.547e+00,3.971e+00,5.894e+00,4.981e+00,5.157e+00,5.507e+00,4.438e+00,6.143e+00,6.859e+00,6.532e+00,7.622e+00,7.348e+00,9.172e+00,7.692e+00,8.716e+00,1.026e+01,7.327e+00,9.508e+00,8.665e+00,8.330e+00,8.928e+00,6.972e+00,7.896e+00,8.385e+00,9.711e+00,7.390e+00,8.704e+00,8.462e+00,7.909e+00,7.064e+00,7.056e+00,8.821e+00,9.338e+00,9.324e+00,8.465e+00,9.341e+00,1.088e+01,6.927e+00,7.813e+00,8.678e+00,9.087e+00,9.692e+00,7.074e+00,8.434e+00,9.278e+00,1.096e+01,7.927e+00,6.149e+00,1.036e+01,1.025e+01,6.988e+00,7.912e+00,8.713e+00,7.000e+00,9.091e+00,8.860e+00,8.512e+00,7.872e+00,8.258e+00,9.035e+00,8.253e+00,7.165e+00,9.409e+00,8.390e+00,8.930e+00,9.451e+00,8.180e+00,8.870e+00,8.469e+00,8.577e+00,7.033e+00,9.413e+00,7.075e+00,7.110e+00,7.985e+00,7.775e+00,8.074e+00,8.362e+00
6.212e-01,5.995e-01,1.566e+00,1.172e+00,1.656e+00,1.096e+00,1.250e+00,2.111e+00,2.947e+00,2.942e+00,2.450e+00,2.611e+00,1.486e+00,2.450e+00,3.747e+00,4.690e+00,2.462e+00,4.268e+00,5.753e+00,4.856e+00,6.220e+00,6.037e+00,5.841e+00,5.441e+00,5.824e+00,7.049e+00,6.943e+00,7.154e+00,8.259e+00,8.433e+00,9.927e+00,7.271e+00,9.131e+00,1.098e+01,9.289e+00,9.358e+00,9.199e+00,8.924e+00,7.945e+00,7.903e+00,8.525e+00,7.125e+00,9.856e+00,8.860e+00,8.176e+00,8.312e+00,8.559e+00,7.753e+00,7.352e+00,8.709e+00,9.606e+00,7.430e+00,8.583e+00,9.409e+00,1.054e+01,6.828e+00,8.028e+00,8.312e+00,8.789e+00,9.617e+00,6.528e+00,8.788e+00,9.866e+00,1.084e+01,8.807e+00,7.375e+00,9.433e+00,1.034e+01,7.322e+00,7.964e+00,9.488e+00,7.813e+00,8.153e+00,9.515e+00,9.352e+00,7.878e+00,8.199e+00,8.944e+00,7.478e+00,8.015e+00,8.942e+00,9.234e+00,9.250e+00,9.141e+00,9.551e+00,8.668e+00,9.103e+00,9.671e+00,6.340e+00,8.717e+00,7.516e+00,7.952e+00,8.514e+00,8.845e+00,8.993e+00,8.015e+00
1.553e-02,1.014e-01,2.298e-01,6.774e-01,8.495e-01,5.618e-01,1.119e+00,1.903e+00,2.082e+00,2.079e+00,2.020e+00,2.481e+00,2.037e+00,1.964e+00,3.639e+00,4.514e+00,2.947e+00,3.991e+00,4.341e+00,4.143e+00,5.546e+00,4.800e+00,5.109e+00,5.682e+00,4.613e+00,6.174e+00,6.729e+00,5.956e+00,7.718e+00,7.050e+00,8.825e+00,6.678e+00,7.918e+00,9.863e+00,8.421e+00,1.044e+01,8.533e+00,8.838e+00,8.322e+00,7.750e+00,7.634e+00,8.447e+00,8.774e+00,8.120e+00,9.445e+00,8.245e+00,8.307e+00,7.892e+00,8.128e+00,8.927e+00,9.423e+00,7.935e+00,8.210e+00,9.085e+00,1.101e+01,7.814e+00,7.218e+00,8.364e+00,9.573e+00,9.413e+00,7.086e+00,8.610e+00,9.927e+00,9.726e+00,8.351e+00,7.710e+00,1.006e+01,1.014e+01,7.295e+00,8.137e+00,9.216e+00,7.386e+00,9.123e+00,1.022e+01,7.425e+00,7.652e+00,9.211e+00,9.299e+00,7.520e+00,8.924e+00,9.276e+00,9.520e+00,8.712e+00,8.182e+00,8.798e+00,8.374e+00,9.854e+00,8.419e+00,6.779e+00,8.464e+00,7.826e+00,6.717e+00,8.005e+00,8.789e+00,7.871e+00,7.691e+00
8.113e-02,2.419e-01,1.186e+00,1.356e+00,1.879e+00,1.226e+00,1.879e+00,2.988e+00,3.323e+00,3.520e+00,2.607e+00,3.211e+00,1.249e+00,2.650e+00,4.509e+00,4.422e+00,3.043e+00,5.396e+00,6.516e+00,5.172e+00,7.025e+00,5.886e+00,5.924e+00,5.602e+00,5.985e+00,7.072e+00,6.899e+00,7.896e+00,8.578e+00,8.191e+00,1.004e+01,8.426e+00,8.586e+00,1.008e+01,9.490e+00,1.060e+01,9.357e+00,9.646e+00,8.224e+00,7.687e+00,9.231e+00,9.424e+00,9.446e+00,8.198e+00,8.901e+00,8.632e+00,7.891e+00,8.138e+00,7.676e+00,9.983e+00,1.095e+01,9.394e+00,9.199e+00,9.497e+00,1.305e+01,7.856e+00,8.451e+00,8.903e+00,1.088e+01,1.129e+01,8.251e+00,8.764e+00,1.087e+01,1.130e+01,8.889e+00,8.278e+00,1.142e+01,1.084e+01,7.642e+00,9.197e+00,1.004e+01,8.496e+00,1.005e+01,9.707e+00,8.948e+00,8.243e+00,9.072e+00,1.049e+01,9.186e+00,7.908e+00,9.462e+00,1.038e+01,1.041e+01,1.046e+01,9.541e+00,9.861e+00,9.962e+00,1.153e+01,7.246e+00,8.905e+00,8.478e+00,9.036e+00,1.065e+01,9.462e+00,9.266e+00,7.931e+00
1.934e-01,2.546e-01,1.189e+00,9.174e-01,1.321e+00,1.327e+00,1.600e+00,2.615e+00,2.609e+00,3.200e+00,3.187e+00,2.836e+00,2.396e+00,2.961e+00,3.693e+00,4.906e+00,3.209e+00,5.027e+00,5.578e+00,4.827e+00,7.008e+00,6.148e+00,5.791e+00,5.924e+00,5.830e+00,6.814e+00,6.490e+00,7.219e+00,8.862e+00,7.315e+00,9.510e+00,8.553e+00,9.170e+00,9.412e+00,8.377e+00,8.662e+00,8.969e+00,8.658e+00,9.697e+00,8.198e+00,8.694e+00,8.768e+00,9.264e+00,8.757e+00,7.753e+00,9.011e+00,9.399e+00,7.139e+00,8.011e+00,9.897e+00,1.042e+01,9.098e+00,9.041e+00,1.000e+01,1.220e+01,8.177e+00,7.894e+00,1.016e+01,8.793e+00,1.045e+01,7.961e+00,9.081e+00,9.685e+00,1.003e+01,8.951e+00,8.303e+00,1.021e+01,1.016e+01,7.808e+00,8.223e+00,8.910e+00,7.173e+00,9.031e+00,9.834e+00,8.823e+00,8.484e+00,8.054e+00,9.503e+00,8.692e+00,7.790e+00,9.905e+00,9.213e+00,9.278e+00,8.965e+00,8.916e+00,8.582e+00,9.971e+00,8.296e+00,7.485e+00,8.437e+00,7.960e+00,9.025e+00,8.134e+00,8.511e+00,8.487e+00,8.109e+00
6.361e-01,8.169e-01,1.350e+00,8.472e-01,1.226e+00,1.450e+00,1.335e+00,2.088e+00,2.030e+00,1.513e+00,2.547e+00,2.265e+00,2.047e+00,2.524e+00,3.540e+00,3.663e+00,2.583e+00,4.267e+00,5.258e+00,5.155e+00,5.557e+00,5.278e+00,5.370e+00,5.057e+00,4.613e+00,6.942e+00,5.981e+00,6.392e+00,7.835e+00,7.921e+00,9.424e+00,7.628e+00,7.953e+00,9.120e+00,8.869e+00,9.180e+00,8.011e+00,7.593e+00,9.280e+00,6.466e+00,8.643e+00,8.327e+00,7.844e+00,8.127e+00,7.469e+00,7.259e+00,8.647e+00,7.993e+00,7.829e+00,1.004e+01,9.849e+00,8.623e+00,8.033e+00,9.418e+00,1.127e+01,8.154e+00,7.461e+00,8.890e+00,1.038e+01,9.535e+00,7.347e+00,9.067e+00,9.674e+00,1.042e+01,8.662e+00,6.172e+00,9.495e+00,9.212e+00,7.205e+00,7.437e+00,8.184e+00,6.882e+00,9.426e+00,8.886e+00,8.288e+00,7.955e+00,8.333e+00,9.180e+00,7.843e+00,8.165e+00,8.859e+00,9.599e+00,8.534e+00,9.340e+00,7.358e+00,8.530e+00,8.718e+00,9.127e+00,7.622e+00,8.630e+00,7.184e+00,6.899e+00,7.832e+00,7.947e+00,9.278e+00,9.217e+00
4.980e-01,5.734e-01,1.086e+00,1.111e+00,1.513e+00,1.363e+00,1.503e+00,2.107e+00,2.763e+00,2.531e+00,2.459e+00,2.334e+00,2.188e+00,2.598e+00,3.801e+00,4.817e+00,3.008e+00,5.210e+00,5.316e+00,5.374e+00,7.297e+00,5.892e+00,5.578e+00,6.172e+00,5.864e+00,7.144e+00,6.533e+00,6.565e+00,8.487e+00,7.898e+00,9.635e+00,8.217e+00,9.648e+00,1.061e+01,8.713e+00,9.706e+00,1.067e+01,1.132e+01,1.039e+01,1.027e+01,1.055e+01,1.038e+01,1.161e+01,9.234e+00,1.061e+01,1.104e+01,1.104e+01,8.835e+00,8.736e+00,1.098e+01,1.260e+01,1.130e+01,9.581e+00,1.079e+01,1.306e+01,8.892e+00,9.433e+00,1.052e+01,1.089e+01,1.314e+01,9.591e+00,9.368e+00,1.208e+01,1.226e+01,1.010e+01,1.005e+01,1.193e+01,1.272e+01,8.963e+00,1.018e+01,1.116e+01,9.695e+00,1.093e+01,1.235e+01,1.070e+01,9.522e+00,9.237e+00,1.157e+01,8.610e+00,9.427e+00,1.116e+01,1.117e+01,1.096e+01,1.096e+01,1.070e+01,1.071e+01,1.160e+01,1.056e+01,9.412e+00,9.525e+00,9.730e+00,9.993e+00,1.003e+01,1.113e+01,9.649e+00,8.613e+00
3.754e-01,4.356e-01,1.222e+00,1.110e+00,1.568e+00,1.184e+00,1.352e+00,1.550e+00,2.551e+00,2.552e+00,2.220e+00,2.436e+00,2.055e+00,2.663e+00,3.311e+00,4.346e+00,2.590e+00,4.682e+00,4.992e+00,4.796e+00,5.548e+00,5.679e+00,5.534e+00,5.023e+00,5.210e+00,6.736e+00,6.408e+00,6.811e+00,7.827e+00,7.465e+00,9.482e+00,7.793e+00,8.313e+00,8.960e+00,8.708e+00,9.239e+00,9.084e+00,9.744e+00,8.409e+00,8.588e+00,9.489e+00,8.776e+00,9.693e+00,9.965e+00,8.506e+00,9.508e+00,1.012e+01,7.822e+00,8.469e+00,1.059e+01,1.062e+01,9.238e+00,9.865e+00,9.753e+00,1.254e+01,7.809e+00,7.912e+00,9.398e+00,1.092e+01,1.145e+01,8.949e+00,9.035e+00,1.124e+01,1.135e+01,9.641e+00,8.856e+00,9.966e+00,1.044e+01,7.658e+00,9.268e+00,9.361e+00,7.725e+00,1.025e+01,1.031e+01,1.053e+01,9.164e+00,1.047e+01,1.004e+01,8.206e+00,8.903e+00,1.009e+01,1.158e+01,1.064e+01,1.043e+01,8.418e+00,9.574e+00,1.087e+01,1.149e+01,7.706e+00,9.133e+00,8.314e+00,8.874e+00,9.723e+00,1.007e+01,1.063e+01,9.968e+00
2.383e-01,2.818e-01,5.234e-01,5.820e-01,7.810e-01,1.056e+00,1.172e+00,1.479e+00,1.686e+00,1.787e+00,1.722e+00,1.817e+00,1.352e+00,1.680e+00,3.023e+00,3.115e+00,2.368e+00,3.789e+00,4.202e+00,4.448e+00,5.895e+00,5.171e+00,5.407e+00,6.112e+00,5.117e+00,6.712e+00,7.044e+00,6.896e+00,7.827e+00,7.286e+00,8.763e+00,6.468e+00,7.532e+00,8.722e+00,7.171e+00,8.851e+00,8.784e+00,9.837e+00,9.320e+00,6.899e+00,9.133e+00,9.600e+00,9.394e+00,8.032e+00,8.481e+00,9.228e+00,1.005e+01,8.393e+00,7.731e+00,1.003e+01,1.029e+01,1.049e+01,8.699e+00,9.434e+00,1.161e+01,8.453e+00,8.820e+00,8.991e+00,1.114e+01,9.814e+00,7.828e+00,8.651e+00,1.076e+01,1.129e+01,8.798e+00,7.938e+00,1.046e+01,1.082e+01,7.330e+00,9.204e+00,1.041e+01,7.615e+00,9.677e+00,1.100e+01,8.792e+00,8.214e+00,8.030e+00,9.987e+00,8.376e+00,8.679e+00,9.803e+00,1.011e+01,1.014e+01,9.300e+00,9.049e+00,1.055e+01,8.833e+00,1.034e+01,8.389e+00,9.363e+00,7.556e+00,7.605e+00,9.121e+00,9.960e+00,9.473e+00,9.262e+00
4.396e-01,6.074e-01,1.789e+00,1.145e+00,1.652e+00,1.147e+00,1.259e+00,2.278e+00,2.327e+00,2.216e+00,2.888e+00,2.998e+00,1.933e+00,2.631e+00,3.409e+00,4.035e+00,2.834e+00,5.266e+00,5.163e+00,5.035e+00,6.379e+00,5.440e+00,5.843e+00,5.852e+00,5.684e+00,7.487e+00,6.897e+00,7.827e+00,8.949e+00,7.888e+00,9.665e+00,7.295e+00,9.361e+00,9.192e+00,8.856e+00,1.077e+01,8.981e+00,8.841e+00,9.666e+00,6.885e+00,1.083e+01,9.596e+00,1.036e+01,8.732e+00,9.993e+00,1.033e+01,9.105e+00,9.082e+00,9.486e+00,1.048e+01,1.067e+01,1.072e+01,9.440e+00,1.019e+01,1.274e+01,8.844e+00,8.288e+00,9.284e+00,1.169e+01,1.183e+01,9.292e+00,9.325e+00,1.128e+01,1.225e+01,1.001e+01,9.281e+00,1.032e+01,1.218e+01,8.737e+00,8.381e+00,1.040e+01,8.347e+00,9.933e+00,1.098e+01,9.400e+00,8.479e+00,1.023e+01,1.092e+01,8.378e+00,8.668e+00,9.981e+00,1.032e+01,9.713e+00,9.608e+00,9.072e+00,1.013e+01,1.089e+01,1.136e+01,8.245e+00,8.741e+00,9.642e+00,8.064e+00,8.587e+00,8.658e+00,1.057e+01,1.039e+01
7.606e-01,7.669e-01,1.577e+00,1.220e+00,1.713e+00,1.652e+00,1.646e+00,2.226e+00,3.213e+00,3.159e+00,2.935e+00,3.060e+00,2.483e+00,3.077e+00,3.936e+00,5.379e+00,3.197e+00,4.948e+00,5.110e+00,4.522e+00,5.980e+00,5.802e+00,5.119e+00,5.756e+00,4.946e+00,6.290e+00,6.962e+00,6.853e+00,8.573e+00,7.279e+00,9.275e+00,8.500e+00,8.971e+00,1.014e+01,9.331e+00,9.949e+00,1.030e+01,1.039e+01,1.009e+01,9.150e+00,1.129e+01,1.021e+01,1.176e+01,1.242e+01,9.364e+00,1.198e+01,1.184e+01,1.006e+01,1.053e+01,1.218e+01,1.284e+01,1.038e+01,1.179e+01,1.182e+01,1.425e+01,9.141e+00,9.830e+00,1.103e+01,1.228e+01,1.313e+01,1.097e+01,1.113e+01,1.290e+01,1.293e+01,1.117e+01,1.054e+01,1.105e+01,1.198e+01,8.656e+00,1.007e+01,1.148e+01,9.215e+00,1.266e+01,1.184e+01,1.114e+01,1.065e+01,1.110e+01,1.149e+01,9.618e+00,1.053e+01,1.235e+01,1.287e+01,1.107e+01,1.149e+01,1.187e+01,1.109e+01,1.161e+01,1.324e+01,9.768e+00,1.083e+01,1.113e+01,1.001e+01,1.064e+01,1.204e+01,1.181e+01,1.131e+01
5.291e-01,5.631e-01,1.199e+00,1.274e+00,1.707e+00,1.249e+00,1.496e+00,2.107e+00,2.708e+00,2.569e+00,2.617e+00,2.099e+00,2.077e+00,2.692e+00,3.794e+00,4.717e+00,2.901e+00,4.728e+00,5.030e+00,3.868e+00,5.847e+00,4.989e+00,5.271e+00,4.913e+00,4.954e+00,5.996e+00,6.672e+00,6.071e+00,7.856e+00,7.573e+00,8.334e+00,8.303e+00,8.106e+00,1.002e+01,8.518e+00,9.794e+00,9.044e+00,1.012e+01,9.580e+00,9.087e+00,1.001e+01,9.715e+00,1.139e+01,1.046e+01,1.095e+01,1.051e+01,1.130e+01,1.011e+01,1.024e+01,1.138e+01,1.143e+01,9.966e+00,1.115e+01,1.023e+01,1.340e+01,9.047e+00,8.849e+00,1.152e+01,1.155e+01,1.284e+01,9.228e+00,1.066e+01,1.195e+01,1.157e+01,1.140e+01,1.018e+01,1.095e+01,1.183e+01,7.394e+00,1.049e+01,1.079e+01,8.100e+00,1.038e+01,1.155e+01,1.082e+01,1.083e+01,9.283e+00,1.115e+01,9.514e+00,9.967e+00,1.126e+01,1.166e+01,1.114e+01,9.904e+00,1.161e+01,9.808e+00,1.197e+01,1.181e+01,1.001e+01,9.733e+00,1.108e+01,9.883e+00,1.030e+01,1.145e+01,9.974e+00,9.835e+00
5.160e-01,5.366e-01,1.464e+00,1.082e+00,1.568e+00,1.936e+00,1.867e+00,2.337e+00,3.586e+00,4.017e+00,3.418e+00,3.188e+00,2.677e+00,3.372e+00,4.697e+00,5.394e+00,3.103e+00,5.217e+00,5.376e+00,5.758e+00,7.375e+00,5.830e+00,6.270e+00,5.926e+00,5.034e+00,6.829e+00,6.405e+00,6.754e+00,7.851e+00,6.638e+00,8.843e+00,8.242e+00,8.179e+00,9.402e+00,9.317e+00,8.484e+00,9.731e+00,1.075e+01,9.319e+00,9.988e+00,1.044e+01,9.412e+00,1.123e+01,1.126e+01,9.762e+00,1.102e+01,1.282e+01,9.859e+00,9.690e+00,1.145e+01,1.253e+01,1.028e+01,1.019e+01,1.098e+01,1.386e+01,8.297e+00,1.057e+01,9.279e+00,1.192e+01,1.350e+01,1.046e+01,1.142e+01,1.276e+01,1.175e+01,1.155e+01,9.977e+00,1.130e+01,1.143e+01,8.449e+00,9.635e+00,1.099e+01,9.642e+00,1.269e+01,1.168e+01,1.174e+01,9.780e+00,1.087e+01,1.191e+01,1.022e+01,1.080e+01,1.216e+01,1.289e+01,1.180e+01,1.072e+01,1.105e+01,1.141e+01,1.162e+01,1.211e+01,1.023e+01,9.612e+00,1.104e+01,1.009e+01,9.819e+00,1.215e+01,1.219e+01,1.120e+01
4.126e-02,1.589e-01,9.941e-01,9.187e-01,1.285e+00,6.503e-01,1.158e+00,1.965e+00,2.086e+00,2.288e+00,1.877e+00,2.832e+00,1.325e+00,1.791e+00,2.866e+00,4.018e+00,2.737e+00,3.957e+00,4.191e+00,4.067e+00,4.940e+00,4.344e+00,4.634e+00,5.041e+00,4.883e+00,6.164e+00,5.761e+00,6.175e+00,7.237e+00,6.138e+00,7.979e+00,7.119e+00,8.020e+00,9.261e+00,8.842e+00,1.018e+01,8.332e+00,8.424e+00,8.547e+00,8.220e+00,1.087e+01,8.938e+00,1.053e+01,1.041e+01,1.187e+01,1.119e+01,1.183e+01,9.908e+00,1.133e+01,1.157e+01,1.119e+01,1.037e+01,9.960e+00,1.058e+01,1.254e+01,9.402e+00,8.549e+00,9.732e+00,1.203e+01,1.326e+01,9.458e+00,1.066e+01,1.128e+01,1.228e+01,1.069e+01,1.084e+01,1.085e+01,1.310e+01,9.154e+00,9.827e+00,1.124e+01,9.834e+00,1.109e+01,1.093e+01,9.724e+00,9.534e+00,1.134e+01,1.190e+01,9.869e+00,1.001e+01,1.198e+01,1.202e+01,1.168e+01,1.053e+01,1.078e+01,1.076e+01,1.250e+01,1.277e+01,9.781e+00,1.002e+01,1.101e+01,8.489e+00,9.564e+00,1.126e+01,1.059e+01,1.064e+01
3.046e-02,2.106e-01,1.060e+00,1.353e+00,1.846e+00,1.643e+00,2.269e+00,2.791e+00,3.135e+00,3.532e+00,2.381e+00,3.143e+00,1.823e+00,2.357e+00,4.195e+00,4.734e+00,3.279e+00,5.516e+00,5.211e+00,4.913e+00,7.012e+00,5.515e+00,5.797e+00,6.099e+00,5.416e+00,7.340e+00,6.724e+00,7.346e+00,8.966e+00,7.722e+00,9.744e+00,7.793e+00,8.616e+00,9.507e+00,8.831e+00,9.337e+00,9.277e+00,9.116e+00,9.260e+00,7.855e+00,9.617e+00,1.026e+01,1.051e+01,1.018e+01,9.702e+00,1.136e+01,1.194e+01,9.158e+00,1.074e+01,1.125e+01,1.234e+01,1.092e+01,1.078e+01,1.101e+01,1.426e+01,1.004e+01,1.030e+01,1.089e+01,1.219e+01,1.376e+01,9.977e+00,1.123e+01,1.207e+01,1.204e+01,1.044e+01,1.047e+01,1.198e+01,1.305e+01,9.466e+00,1.082e+01,1.191e+01,9.445e+00,1.282e+01,1.119e+01,1.106e+01,1.071e+01,1.057e+01,1.256e+01,1.097e+01,1.086e+01,1.185e+01,1.209e+01,1.247e+01,1.051e+01,1.105e+01,1.233e+01,1.093e+01,1.262e+01,1.069e+01,1.114e+01,1.052e+01,9.680e+00,1.084e+01,1.155e+01,1.134e+01,1.152e+01
3.219e-01,5.005e-01,1.603e+00,1.393e+00,1.906e+00,9.765e-01,1.392e+00,2.823e+00,3.606e+00,3.498e+00,3.794e+00,3.591e+00,2.617e+00,3.228e+00,3.990e+00,4.656e+00,3.025e+00,4.488e+00,5.143e+00,3.931e+00,5.898e+00,4.760e+00,5.104e+00,4.766e+00,4.874e+00,5.010e+00,5.276e+00,4.984e+00,6.398e+00,5.962e+00,7.540e+00,7.364e+00,7.722e+00,7.859e+00,8.140e+00,8.270e+00,7.173e+00,8.593e+00,7.703e+00,8.631e+00,8.668e+00,7.890e+00,9.535e+00,8.063e+00,8.090e+00,8.978e+00,9.596e+00,8.077e+00,8.535e+00,9.661e+00,1.038e+01,9.228e+00,8.252e+00,8.563e+00,1.123e+01,8.238e+00,7.950e+00,8.147e+00,9.995e+00,1.205e+01,8.877e+00,1.060e+01,1.041e+01,9.624e+00,1.026e+01,9.138e+00,9.043e+00,1.080e+01,7.984e+00,8.928e+00,9.403e+00,8.135e+00,1.060e+01,9.959e+00,9.139e+00,8.526e+00,9.525e+00,9.330e+00,8.342e+00,9.405e+00,1.089e+01,1.182e+01,1.025e+01,8.555e+00,9.385e+00,1.006e+01,1.095e+01,9.538e+00,8.520e+00,9.551e+00,9.146e+00,8.681e+00,8.555e+00,9.939e+00,9.695e+00,8.838e+00
5.831e-01,7.382e-01,1.807e+00,1.042e+00,1.558e+00,1.815e+00,1.777e+00,3.216e+00,3.230e+00,3.258e+00,4.084e+00,3.430e+00,3.001e+00,3.777e+00,4.580e+00,4.563e+00,3.234e+00,5.883e+00,5.950e+00,5.566e+00,6.677e+00,5.614e+00,5.476e+00,5.339e+00,5.356e+00,6.720e+00,6.101e+00,6.742e+00,8.192e+00,7.008e+00,9.639e+00,9.319e+00,9.182e+00,9.383e+00,8.957e+00,1.045e+01,9.406e+00,1.008e+01,9.228e+00,9.053e+00,1.140e+01,1.116e+01,1.126e+01,1.094e+01,1.089e+01,1.188e+01,1.322e+01,1.111e+01,1.212e+01,1.338e+01,1.423e+01,1.307e+01,1.222e+01,1.206e+01,1.528e+01,1.103e+01,1.168e+01,1.087e+01,1.249e+01,1.563e+01,1.156e+01,1.293e+01,1.394e+01,1.304e+01,1.162e+01,1.185e+01,1.212e+01,1.333e+01,1.099e+01,1.097e+01,1.351e+01,1.120e+01,1.339e+01,1.199e+01,1.171e+01,1.165e+01,1.225e+01,1.313e+01,1.208e+01,1.157e+01,1.314e+01,1.351e+01,1.374e+01,1.255e+01,1.297e+01,1.273e+01,1.255e+01,1.341e+01,1.214e+01,1.143e+01,1.306e+01,1.201e+01,1.083e+01,1.232e+01,1.315e+01,1.260e+01
2.777e-01,4.305e-01,1.240e+00,1.233e+00,1.723e+00,1.678e+00,2.131e+00,3.291e+00,3.877e+00,4.070e+00,3.389e+00,3.858e+00,2.493e+00,3.317e+00,4.900e+00,5.618e+00,3.640e+00,5.742e+00,5.750e+00,5.196e+00,7.844e+00,6.022e+00,5.788e+00,6.924e+00,6.255e+00,6.802e+00,6.590e+00,6.999e+00,8.417e+00,7.891e+00,9.345e+00,7.514e+00,9.092e+00,8.728e+00,7.329e+00,9.192e+00,9.241e+00,1.018e+01,9.235e+00,8.308e+00,9.920e+00,9.694e+00,1.064e+01,8.429e+00,1.015e+01,1.151e+01,1.099e+01,9.143e+00,1.084e+01,1.262e+01,1.221e+01,1.158e+01,1.130e+01,1.097e+01,1.410e+01,1.014e+01,1.187e+01,1.188e+01,1.220e+01,1.527e+01,1.080e+01,1.218e+01,1.259e+01,1.244e+01,1.089e+01,1.177e+01,1.192e+01,1.353e+01,1.033e+01,1.251e+01,1.313e+01,8.833e+00,1.341e+01,1.201e+01,1.240e+01,1.231e+01,1.103e+01,1.196e+01,1.104e+01,1.162e+01,1.328e+01,1.307e+01,1.299e+01,1.072e+01,1.140e+01,1.256e+01,1.211e+01,1.323e+01,1.158e+01,1.183e+01,1.192e+01,1.171e+01,1.069e+01,1.181e+01,1.172e+01,1.079e+01
6.363e-01,7.332e-01,1.917e+00,1.085e+00,1.629e+00,1.669e+00,1.534e+00,2.842e+00,3.092e+00,3.205e+00,3.430e+00,3.372e+00,2.154e+00,3.271e+00,4.259e+00,5.462e+00,3.780e+00,6.366e+00,7.886e+00,6.284e+00,8.667e+00,7.465e+00,6.876e+00,7.221e+00,7.052e+00,9.009e+00,8.753e+00,9.067e+00,1.035e+01,9.273e+00,1.129e+01,9.626e+00,1.034e+01,1.138e+01,1.007e+01,1.141e+01,1.038e+01,1.046e+01,1.102e+01,9.132e+00,1.215e+01,1.037e+01,1.233e+01,1.130e+01,1.152e+01,1.227e+01,1.234e+01,1.070e+01,1.242e+01,1.395e+01,1.519e+01,1.416e+01,1.308e+01,1.446e+01,1.750e+01,1.257e+01,1.235e+01,1.456e+01,1.385e+01,1.582e+01,1.205e+01,1.431e+01,1.505e+01,1.531e+01,1.442e+01,1.368e+01,1.490e+01,1.620e+01,1.205e+01,1.344e+01,1.496e+01,1.245e+01,1.495e+01,1.476e+01,1.461e+01,1.178e+01,1.345e+01,1.448e+01,1.294e+01,1.362e+01,1.364e+01,1.388e+01,1.546e+01,1.388e+01,1.361e+01,1.423e+01,1.437e+01,1.562e+01,1.321e+01,1.214e+01,1.315e+01,1.391e+01,1.349e+01,1.388e+01,1.343e+01,1.154e+01
3.278e-01,3.784e-01,1.165e+00,1.120e+00,1.569e+00,1.684e+00,2.051e+00,3.056e+00,3.740e+00,4.174e+00,3.138e+00,3.769e+00,1.836e+00,2.966e+00,4.871e+00,5.487e+00,3.579e+00,5.032e+00,5.907e+00,5.730e+00,7.398e+00,5.690e+00,6.200e+00,6.636e+00,5.844e+00,6.996e+00,7.833e+00,7.526e+00,8.873e+00,7.253e+00,8.837e+00,7.623e+00,7.824e+00,9.742e+00,9.011e+00,1.064e+01,9.269e+00,1.035e+01,9.945e+00,9.145e+00,1.095e+01,9.883e+00,1.143e+01,1.082e+01,1.087e+01,1.136e+01,1.181e+01,9.816e+00,1.265e+01,1.217e+01,1.361e+01,1.110e+01,1.272e+01,1.318e+01,1.547e+01,1.173e+01,1.217e+01,1.197e+01,1.292e+01,1.461e+01,1.060e+01,1.241e+01,1.412e+01,1.322e+01,1.295e+01,1.256e+01,1.323e+01,1.376e+01,9.813e+00,1.259e+01,1.345e+01,1.188e+01,1.392e+01,1.353e+01,1.191e+01,1.186e+01,1.255e+01,1.303e+01,1.111e+01,1.325e+01,1.354e+01,1.385e+01,1.365e+01,1.181e+01,1.375e+01,1.256e+01,1.288e+01,1.273e+01,1.122e+01,1.129e+01,1.228e+01,1.093e+01,1.189e+01,1.374e+01,1.267e+01,1.007e+01
2.147e-01,2.502e-01,5.436e-01,4.569e-01,6.561e-01,9.720e-01,1.212e+00,2.208e+00,2.218e+00,2.406e+00,2.422e+00,2.261e+00,1.586e+00,2.215e+00,3.021e+00,3.110e+00,2.151e+00,2.731e+00,3.844e+00,4.003e+00,4.885e+00,4.176e+00,4.260e+00,5.170e+00,4.611e+00,5.228e+00,4.734e+00,5.195e+00,6.603e+00,5.701e+00,7.594e+00,6.311e+00,6.810e+00,7.939e+00,6.893e+00,7.912e+00,6.351e+00,7.216e+00,7.962e+00,7.605e+00,9.529e+00,8.260e+00,9.891e+00,8.693e+00,1.042e+01,1.003e+01,1.060e+01,8.172e+00,1.119e+01,1.053e+01,1.084e+01,1.155e+01,1.044e+01,1.084e+01,1.296e+01,1.074e+01,1.042e+01,1.134e+01,1.219e+01,1.330e+01,9.800e+00,1.163e+01,1.050e+01,1.266e+01,9.798e+00,1.101e+01,1.000e+01,1.231e+01,9.945e+00,1.021e+01,1.197e+01,9.398e+00,1.145e+01,1.296e+01,9.557e+00,1.041e+01,1.162e+01,1.188e+01,1.030e+01,1.150e+01,1.370e+01,1.196e+01,1.098e+01,9.223e+00,1.184e+01,1.213e+01,1.143e+01,1.131e+01,1.123e+01,1.018e+01,1.023e+01,9.756e+00,1.017e+01,1.175e+01,1.070e+01,1.059e+01
3.389e-01,4.665e-01,8.889e-01,1.111e+00,1.457e+00,7.544e-01,1.220e+00,1.799e+00,2.417e+00,2.017e+00,1.967e+00,2.873e+00,1.682e+00,2.090e+00,3.358e+00,4.384e+00,2.612e+00,3.664e+00,3.649e+00,3.989e+00,5.138e+00,4.892e+00,4.337e+00,5.480e+00,4.338e+00,5.384e+00,4.970e+00,5.255e+00,6.267e+00,6.462e+00,7.962e+00,6.049e+00,7.950e+00,7.973e+00,7.774e+00,8.754e+00,8.489e+00,8.648e+00,8.571e+00,8.293e+00,9.623e+00,8.913e+00,1.003e+01,9.352e+00,9.798e+00,1.098e+01,1.132e+01,1.025e+01,1.162e+01,1.284e+01,1.175e+01,1.192e+01,1.189e+01,1.203e+01,1.544e+01,1.235e+01,1.347e+01,1.298e+01,1.381e+01,1.533e+01,1.121e+01,1.397e+01,1.359e+01,1.310e+01,1.165e+01,1.318e+01,1.355e+01,1.541e+01,1.167e+01,1.344e+01,1.478e+01,1.182e+01,1.450e+01,1.441e+01,1.266e+01,1.299e+01,1.412e+01,1.368e+01,1.112e+01,1.444e+01,1.433e+01,1.485e+01,1.361e+01,1.265e+01,1.262e+01,1.383e+01,1.393e+01,1.344e+01,1.222e+01,1.359e+01,1.167e+01,1.200e+01,1.158e+01,1.420e+01,1.306e+01,1.245e+01
2.856e-01,3.019e-01,1.136e+00,1.059e+00,1.464e+00,1.097e+00,1.493e+00,2.580e+00,3.212e+00,3.559e+00,3.349e+00,3.454e+00,2.532e+00,3.228e+00,4.204e+00,5.629e+00,3.869e+00,5.507e+00,6.104e+00,5.065e+00,7.421e+00,6.302e+00,6.730e+00,6.886e+00,6.265e+00,7.113e+00,7.473e+00,6.875e+00,9.344e+00,6.918e+00,9.523e+00,6.998e+00,9.073e+00,9.707e+00,7.758e+00,9.714e+00,9.300e+00,1.028e+01,1.051e+01,9.582e+00,1.100e+01,1.057e+01,1.136e+01,1.035e+01,8.966e+00,1.196e+01,1.261e+01,1.093e+01,1.123e+01,1.253e+01,1.246e+01,1.178e+01,1.459e+01,1.418e+01,1.634e+01,1.376e+01,1.284e+01,1.425e+01,1.471e+01,1.489e+01,1.194e+01,1.416e+01,1.383e+01,1.503e+01,1.375e+01,1.364e+01,1.356e+01,1.547e+01,1.120e+01,1.427e+01,1.561e+01,1.073e+01,1.473e+01,1.464e+01,1.275e+01,1.412e+01,1.226e+01,1.249e+01,1.148e+01,1.350e+01,1.513e+01,1.535e+01,1.446e+01,1.404e+01,1.380e+01,1.447e+01,1.507e+01,1.382e+01,1.188e+01,1.432e+01,1.257e+01,1.187e+01,1.379e+01,1.542e+01,1.448e+01,1.322e+01
4.655e-02,1.404e-01,3.552e-01,9.702e-01,1.290e+00,1.497e+00,2.038e+00,2.210e+00,2.720e+00,2.989e+00,2.251e+00,2.147e+00,2.226e+00,2.716e+00,4.336e+00,4.283e+00,2.888e+00,4.934e+00,4.876e+00,5.194e+00,6.695e+00,5.801e+00,5.842e+00,5.986e+00,5.617e+00,7.205e+00,7.205e+00,8.501e+00,9.071e+00,8.370e+00,1.033e+01,9.129e+00,9.608e+00,1.063e+01,1.044e+01,1.079e+01,1.120e+01,1.027e+01,1.038e+01,9.819e+00,1.285e+01,1.186e+01,1.245e+01,1.112e+01,1.263e+01,1.159e+01,1.260e+01,1.141e+01,1.250e+01,1.330e+01,1.567e+01,1.325e+01,1.279e+01,1.449e+01,1.802e+01,1.286e+01,1.384e+01,1.442e+01,1.604e+01,1.708e+01,1.333e+01,1.411e+01,1.673e+01,1.651e+01,1.384e+01,1.378e+01,1.378e+01,1.551e+01,1.137e+01,1.405e+01,1.617e+01,1.269e+01,1.616e+01,1.459e+01,1.526e+01,1.320e+01,1.479e+01,1.515e+01,1.264e+01,1.409e+01,1.589e+01,1.636e+01,1.531e+01,1.391e+01,1.444e+01,1.519e+01,1.581e+01,1.590e+01,1.303e+01,1.318e+01,1.404e+01,1.332e+01,1.422e+01,1.351e+01,1.392e+01,1.496e+01
4.797e-01,5.928e-01,1.281e+00,1.475e+00,1.944e+00,8.999e-01,1.266e+00,1.797e+00,2.977e+00,2.440e+00,2.114e+00,2.500e+00,1.962e+00,2.088e+00,3.534e+00,4.260e+00,2.360e+00,4.284e+00,4.141e+00,4.491e+00,5.537e+00,4.787e+00,4.417e+00,4.124e+00,3.994e+00,5.492e+00,5.009e+00,4.779e+00,6.162e+00,6.317e+00,6.652e+00,6.426e+00,7.295e+00,8.448e+00,7.792e+00,8.088e+00,7.874e+00,8.029e+00,8.040e+00,8.410e+00,9.890e+00,8.027e+00,1.054e+01,9.736e+00,9.199e+00,1.013e+01,1.055e+01,8.551e+00,1.010e+01,9.347e+00,1.173e+01,1.042e+01,1.178e+01,1.090e+01,1.423e+01,1.344e+01,1.180e+01,1.335e+01,1.312e+01,1.466e+01,1.085e+01,1.288e+01,1.478e+01,1.300e+01,1.215e+01,1.321e+01,1.346e+01,1.427e+01,1.044e+01,1.373e+01,1.309e+01,1.173e+01,1.509e+01,1.408e+01,1.388e+01,1.236e+01,1.289e+01,1.279e+01,1.113e+01,1.309e+01,1.433e+01,1.379e+01,1.368e+01,1.167e+01,1.260e+01,1.374e+01,1.422e+01,1.284e+01,1.240e+01,1.308e+01,1.338e+01,1.148e+01,1.247e+01,1.294e+01,1.206e+01,1.197e+01
1.876e-01,2.042e-01,8.352e-01,3.800e-01,6.052e-01,1.107e+00,1.199e+00,2.296e+00,2.240e+00,2.871e+00,3.350e+00,3.061e+00,2.474e+00,2.989e+00,3.924e+00,4.435e+00,2.903e+00,4.282e+00,5.286e+00,5.164e+00,6.341e+00,5.891e+00,6.196e+00,5.738e+00,4.913e+00,6.227e+00,6.247e+00,6.203e+00,7.413e+00,6.633e+00,8.922e+00,7.111e+00,7.898e+00,8.492e+00,7.678e+00,8.740e+00,8.896e+00,1.004e+01,9.589e+00,8.242e+00,9.392e+00,9.762e+00,1.096e+01,8.693e+00,1.053e+01,1.103e+01,1.105e+01,9.919e+00,1.011e+01,1.164e+01,1.114e+01,1.173e+01,1.143e+01,1.201e+01,1.645e+01,1.191e+01,1.378e+01,1.452e+01,1.415e+01,1.524e+01,1.266e+01,1.614e+01,1.454e+01,1.355e+01,1.272e+01,1.270e+01,1.407e+01,1.529e+01,1.252e+01,1.399e+01,1.386e+01,1.255e+01,1.334e+01,1.530e+01,1.422e+01,1.387e+01,1.360e+01,1.304e+01,1.222e+01,1.236e+01,1.490e+01,1.420e+01,1.398e+01,1.380e+01,1.231e+01,1.309e+01,1.584e+01,1.272e+01,1.346e+01,1.288e+01,1.303e+01,1.237e+01,1.269e+01,1.348e+01,1.521e+01,1.323e+01
6.437e-01,7.563e-01,1.507e+00,1.197e+00,1.633e+00,1.507e+00,1.555e+00,2.238e+00,2.635e+00,2.373e+00,3.213e+00,2.889e+00,2.729e+00,2.929e+00,3.524e+00,3.927e+00,2.470e+00,4.615e+00,3.855e+00,4.355e+00,5.420e+00,5.405e+00,5.023e+00,4.907e+00,4.484e+00,5.662e+00,6.058e+00,6.494e+00,7.566e+00,7.827e+00,8.438e+00,7.958e+00,8.386e+00,8.798e+00,8.037e+00,8.830e+00,7.735e+00,9.024e+00,8.528e+00,7.010e+00,8.387e+00,8.318e+00,9.153e+00,9.213e+00,9.141e+00,9.209e+00,9.777e+00,9.141e+00,1.034e+01,1.137e+01,1.225e+01,1.101e+01,1.201e+01,1.183e+01,1.594e+01,1.177e+01,1.401e+01,1.400e+01,1.448e+01,1.414e+01,1.214e+01,1.530e+01,1.590e+01,1.318e+01,1.156e+01,1.296e+01,1.422e+01,1.415e+01,1.272e+01,1.443e+01,1.384e+01,1.220e+01,1.459e+01,1.484e+01,1.498e+01,1.397e+01,1.359e+01,1.430e+01,1.165e+01,1.515e+01,1.676e+01,1.443e+01,1.534e+01,1.350e+01,1.466e+01,1.402e+01,1.508e+01,1.350e+01,1.286e+01,1.446e+01,1.184e+01,1.374e+01,1.230e+01,1.441e+01,1.502e+01,1.359e+01
1.677e-01,2.483e-01,6.420e-01,4.186e-01,6.050e-01,7.589e-01,9.536e-01,2.008e+00,2.368e+00,2.521e+00,2.797e+00,3.041e+00,2.587e+00,2.537e+00,3.452e+00,4.781e+00,3.471e+00,4.287e+00,4.823e+00,3.716e+00,5.806e+00,4.425e+00,5.327e+00,5.910e+00,4.579e+00,6.155e+00,7.025e+00,5.626e+00,6.448e+00,6.523e+00,8.911e+00,7.679e+00,8.559e+00,9.378e+00,8.141e+00,1.014e+01,8.946e+00,1.070e+01,9.149e+00,9.148e+00,9.551e+00,1.007e+01,1.078e+01,9.666e+00,1.150e+01,1.141e+01,1.151e+01,1.004e+01,1.120e+01,1.231e+01,1.234e+01,1.213e+01,1.190e+01,1.218e+01,1.631e+01,1.093e+01,1.272e+01,1.326e+01,1.348e+01,1.584e+01,1.312e+01,1.452e+01,1.488e+01,1.342e+01,1.284e+01,1.258e+01,1.515e+01,1.560e+01,1.208e+01,1.450e+01,1.418e+01,1.193e+01,1.350e+01,1.576e+01,1.424e+01,1.384e+01,1.338e+01,1.364e+01,1.209e+01,1.379e+01,1.648e+01,1.558e+01,1.653e+01,1.426e+01,1.466e+01,1.438e+01,1.626e+01,1.348e+01,1.449e+01,1.390e+01,1.270e+01,1.265e+01,1.237e+01,1.427e+01,1.341e+01,1.220e+01
4.249e-01,5.092e-01,8.840e-01,6.818e-01,9.927e-01,1.104e+00,1.312e+00,1.986e+00,2.509e+00,2.369e+00,2.126e+00,2.699e+00,1.487e+00,2.452e+00,3.804e+00,4.314e+00,2.616e+00,3.223e+00,4.506e+00,3.728e+00,5.006e+00,4.749e+00,4.682e+00,5.407e+00,4.433e+00,5.294e+00,5.377e+00,5.723e+00,5.763e+00,6.340e+00,8.676e+00,5.334e+00,6.910e+00,7.286e+00,7.011e+00,8.148e+00,7.826e+00,8.180e+00,7.547e+00,6.521e+00,8.029e+00,8.966e+00,9.070e+00,7.198e+00,8.907e+00,1.004e+01,1.016e+01,8.921e+00,1.012e+01,1.192e+01,1.000e+01,1.068e+01,1.100e+01,1.138e+01,1.489e+01,1.086e+01,1.367e+01,1.318e+01,1.360e+01,1.509e+01,1.136e+01,1.517e+01,1.325e+01,1.359e+01,1.169e+01,1.146e+01,1.396e+01,1.498e+01,1.311e+01,1.346e+01,1.533e+01,1.180e+01,1.315e+01,1.284e+01,1.379e+01,1.336e+01,1.332e+01,1.234e+01,1.241e+01,1.333e+01,1.344e+01,1.342e+01,1.316e+01,1.333e+01,1.316e+01,1.324e+01,1.268e+01,1.435e+01,1.313e+01,1.411e+01,1.111e+01,1.175e+01,1.350e+01,1.377e+01,1.436e+01,1.363e+01
6.727e-01,6.661e-01,1.151e+00,9.538e-01,1.277e+00,1.207e+00,1.119e+00,1.838e+00,2.453e+00,2.253e+00,2.653e+00,2.279e+00,2.074e+00,2.379e+00,3.532e+00,4.088e+00,2.432e+00,4.144e+00,4.258e+00,4.644e+00,5.775e+00,4.956e+00,4.360e+00,4.281e+00,3.477e+00,4.940e+00,5.959e+00,4.905e+00,6.035e+00,6.034e+00,7.237e+00,7.922e+00,7.118e+00,9.487e+00,8.075e+00,8.553e+00,9.415e+00,1.103e+01,9.392e+00,9.843e+00,9.960e+00,9.255e+00,1.218e+01,1.017e+01,1.170e+01,1.207e+01,1.124e+01,1.046e+01,9.963e+00,1.285e+01,1.282e+01,1.216e+01,1.245e+01,1.233e+01,1.774e+01,1.203e+01,1.427e+01,1.438e+01,1.503e+01,1.611e+01,1.348e+01,1.621e+01,1.658e+01,1.490e+01,1.404e+01,1.511e+01,1.660e+01,1.672e+01,1.298e+01,1.624e+01,1.608e+01,1.443e+01,1.577e+01,1.763e+01,1.590e+01,1.521e+01,1.454e+01,1.506e+01,1.350e+01,1.536e+01,1.796e+01,1.534e+01,1.694e+01,1.443e+01,1.607e+01,1.451e+01,1.756e+01,1.357e+01,1.463e+01,1.460e+01,1.380e+01,1.441e+01,1.480e+01,1.646e+01,1.478e+01,1.363e+01
4.339e-02,1.449e-01,9.639e-01,9.581e-01,1.319e+00,5.115e-01,1.039e+00,2.090e+00,2.577e+00,2.802e+00,2.881e+00,3.208e+00,2.243e+00,2.816e+00,3.526e+00,5.174e+00,3.437e+00,4.697e+00,5.665e+00,4.834e+00,6.797e+00,6.110e+00,6.382e+00,6.750e+00,6.433e+00,7.355e+00,8.158e+00,8.107e+00,8.997e+00,8.162e+00,1.075e+01,9.035e+00,1.065e+01,1.081e+01,1.054e+01,1.172e+01,1.072e+01,1.086e+01,1.078e+01,1.013e+01,1.172e+01,1.092e+01,1.223e+01,1.114e+01,1.165e+01,1.219e+01,1.302e+01,1.070e+01,1.238e+01,1.449e+01,1.465e+01,1.370e+01,1.340e+01,1.430e+01,1.777e+01,1.348e+01,1.373e+01,1.475e+01,1.622e+01,1.648e+01,1.418e+01,1.770e+01,1.857e+01,1.662e+01,1.517e+01,1.604e+01,1.651e+01,1.842e+01,1.511e+01,1.576e+01,1.772e+01,1.528e+01,1.744e+01,1.786e+01,1.656e+01,1.398e+01,1.558e+01,1.557e+01,1.407e+01,1.637e+01,1.940e+01,1.868e+01,1.806e+01,1.631e+01,1.762e+01,1.659e+01,1.855e+01,1.631e+01,1.562e+01,1.730e+01,1.445e+01,1.446e+01,1.398e+01,1.670e+01,1.677e+01,1.521e+01
8.544e-02,1.365e-01,6.576e-01,9.473e-01,1.292e+00,9.447e-01,1.465e+00,2.359e+00,3.301e+00,3.582e+00,2.893e+00,3.301e+00,2.008e+00,3.034e+00,4.216e+00,5.211e+00,3.258e+00,4.526e+00,6.048e+00,4.852e+00,6.625e+00,5.781e+00,6.342e+00,6.669e+00,6.094e+00,6.901e+00,6.918e+00,7.426e+00,9.044e+00,8.534e+00,1.129e+01,8.883e+00,9.612e+00,1.018e+01,1.018e+01,1.123e+01,1.048e+01,1.057e+01,9.190e+00,1.047e+01,1.126e+01,1.052e+01,1.203e+01,1.079e+01,1.109e+01,1.239e+01,1.202e+01,1.065e+01,1.215e+01,1.427e+01,1.376e+01,1.304e+01,1.236e+01,1.407e+01,1.750e+01,1.384e+01,1.373e+01,1.513e+01,1.623e+01,1.727e+01,1.424e+01,1.698e+01,1.848e+01,1.812e+01,1.516e+01,1.658e+01,1.630e+01,1.782e+01,1.510e+01,1.700e+01,1.800e+01,1.602e+01,1.765e+01,1.821e+01,1.780e+01,1.534e+01,1.818e+01,1.562e+01,1.419e+01,1.634e+01,1.850e+01,1.947e+01,1.743e+01,1.688e+01,1.797e+01,1.693e+01,1.910e+01,1.712e+01,1.543e+01,1.694e+01,1.424e+01,1.485e+01,1.656e+01,1.647e+01,1.785e+01,1.650e+01
2.653e-01,2.887e-01,4.146e-01,7.916e-01,1.006e+00,1.210e+00,1.537e+00,1.944e+00,2.272e+00,2.354e+00,2.515e+00,2.350e+00,2.700e+00,2.465e+00,3.941e+00,4.140e+00,2.877e+00,4.467e+00,3.863e+00,5.167e+00,5.469e+00,5.290e+00,5.203e+00,5.408e+00,4.565e+00,6.370e+00,6.201e+00,5.581e+00,7.044e+00,6.009e+00,7.881e+00,8.328e+00,7.737e+00,9.058e+00,8.620e+00,9.642e+00,8.210e+00,8.996e+00,8.891e+00,7.978e+00,9.651e+00,8.410e+00,9.302e+00,9.459e+00,9.613e+00,9.777e+00,1.145e+01,8.686e+00,9.484e+00,1.105e+01,1.250e+01,1.183e+01,1.057e+01,1.235e+01,1.569e+01,1.245e+01,1.228e+01,1.370e+01,1.320e+01,1.379e+01,1.177e+01,1.514e+01,1.615e+01,1.579e+01,1.271e+01,1.445e+01,1.512e+01,1.515e+01,1.311e+01,1.566e+01,1.510e+01,1.548e+01,1.579e+01,1.490e+01,1.616e+01,1.443e+01,1.619e+01,1.479e+01,1.276e+01,1.467e+01,1.778e+01,1.543e+01,1.636e+01,1.588e+01,1.553e+01,1.534e+01,1.639e+01,1.340e+01,1.418e+01,1.410e+01,1.323e+01,1.408e+01,1.445e+01,1.412e+01,1.489e+01,1.474e+01
4.209e-01,4.731e-01,1.371e+00,8.849e-01,1.317e+00,1.616e+00,1.667e+00,2.506e+00,3.311e+00,3.719e+00,3.017e+00,3.550e+00,2.156e+00,2.906e+00,4.117e+00,5.123e+00,3.312e+00,4.990e+00,6.101e+00,5.881e+00,7.785e+00,6.800e+00,6.190e+00,7.059e+00,6.029e+00,7.960e+00,7.794e+00,9.058e+00,9.463e+00,8.404e+00,1.130e+01,9.531e+00,1.046e+01,1.141e+01,1.070e+01,1.070e+01,1.065e+01,1.045e+01,1.050e+01,1.038e+01,1.170e+01,9.894e+00,1.304e+01,1.177e+01,1.225e+01,1.288e+01,1.349e+01,1.043e+01,1.264e+01,1.387e+01,1.535e+01,1.359e+01,1.324e+01,1.508e+01,1.813e+01,1.242e+01,1.451e+01,1.474e+01,1.607e+01,1.728e+01,1.416e+01,1.678e+01,1.711e+01,1.739e+01,1.588e+01,1.675e+01,1.770e+01,1.938e+01,1.635e+01,1.722e+01,1.837e+01,1.693e+01,1.864e+01,1.776e+01,1.896e+01,1.591e+01,1.770e+01,1.863e+01,1.612e+01,1.747e+01,2.035e+01,1.747e+01,1.964e+01,1.832e+01,1.817e+01,1.857e+01,1.828e+01,1.766e+01,1.554e+01,1.627e+01,1.556e+01,1.620e+01,1.585e+01,1.728e+01,1.798e+01,1.710e+01
6.027e-01,6.504e-01,1.287e+00,1.076e+00,1.503e+00,1.839e+00,1.776e+00,2.085e+00,2.478e+00,2.545e+00,2.974e+00,2.194e+00,2.508e+00,3.122e+00,4.164e+00,4.503e+00,2.871e+00,5.139e+00,4.830e+00,5.155e+00,6.097e+00,5.452e+00,5.507e+00,5.355e+00,4.821e+00,6.768e+00,6.835e+00,6.586e+00,8.033e+00,6.968e+00,8.815e+00,9.083e+00,8.155e+00,9.758e+00,9.867e+00,1.061e+01,1.025e+01,1.096e+01,9.742e+00,9.711e+00,1.158e+01,1.081e+01,1.145e+01,1.227e+01,1.171e+01,1.248e+01,1.379e+01,1.180e+01,1.270e+01,1.371e+01,1.431e+01,1.363e+01,1.232e+01,1.326e+01,1.885e+01,1.385e+01,1.480e+01,1.556e+01,1.632e+01,1.759e+01,1.379e+01,1.793e+01,1.842e+01,1.666e+01,1.528e+01,1.680e+01,1.805e+01,1.965e+01,1.533e+01,1.833e+01,1.775e+01,1.762e+01,1.743e+01,1.791e+01,1.870e+01,1.708e+01,1.797e+01,1.798e+01,1.540e+01,1.780e+01,1.965e+01,1.704e+01,1.990e+01,1.852e+01,1.892e+01,1.792e+01,1.909e+01,1.783e+01,1.699e+01,1.671e+01,1.570e+01,1.680e+01,1.752e+01,1.858e+01,1.742e+01,1.714e+01
1.694e-01,3.647e-01,8.130e-01,1.160e+00,1.540e+00,1.107e+00,1.806e+00,2.914e+00,3.125e+00,2.913e+00,2.832e+00,3.511e+00,2.494e+00,2.895e+00,4.891e+00,5.203e+00,3.871e+00,5.806e+00,6.511e+00,5.994e+00,7.626e+00,6.914e+00,6.806e+00,7.342e+00,6.178e+00,8.482e+00,8.591e+00,7.755e+00,9.764e+00,8.264e+00,1.147e+01,7.996e+00,9.903e+00,1.127e+01,9.265e+00,1.199e+01,1.023e+01,1.061e+01,1.135e+01,8.685e+00,1.135e+01,1.198e+01,1.270e+01,1.057e+01,1.180e+01,1.226e+01,1.392e+01,1.123e+01,1.296e+01,1.410e+01,1.505e+01,1.455e+01,1.497e+01,1.422e+01,1.907e+01,1.468e+01,1.466e+01,1.605e+01,1.798e+01,1.761e+01,1.536e+01,1.830e+01,1.800e+01,1.857e+01,1.647e+01,1.613e+01,1.891e+01,2.100e+01,1.642e+01,1.898e+01,2.118e+01,1.570e+01,1.936e+01,1.949e+01,1.834e+01,1.659e+01,1.806e+01,1.863e+01,1.703e+01,1.887e+01,2.174e+01,1.950e+01,2.090e+01,1.863e+01,1.841e+01,2.068e+01,1.910e+01,1.893e+01,1.900e+01,1.980e+01,1.592e+01,1.676e+01,1.833e+01,1.840e+01,1.992e+01,1.930e+01
5.039e-02,1.254e-01,9.796e-01,1.004e+00,1.399e+00,1.076e+00,1.576e+00,2.246e+00,2.357e+00,2.876e+00,2.449e+00,2.716e+00,1.743e+00,2.393e+00,3.254e+00,4.501e+00,2.935e+00,4.294e+00,4.823e+00,4.260e+00,5.597e+00,5.112e+00,5.631e+00,5.692e+00,5.800e+00,6.986e+00,7.354e+00,7.094e+00,8.456e+00,7.003e+00,9.249e+00,7.758e+00,7.911e+00,9.663e+00,9.242e+00,1.023e+01,9.507e+00,1.042e+01,9.518e+00,8.887e+00,1.027e+01,1.006e+01,1.067e+01,1.077e+01,1.127e+01,1.174e+01,1.308e+01,1.140e+01,1.264e+01,1.409e+01,1.280e+01,1.267e+01,1.325e+01,1.352e+01,1.775e+01,1.266e+01,1.362e+01,1.545e+01,1.560e+01,1.634e+01,1.521e+01,1.788e+01,1.744e+01,1.616e+01,1.476e+01,1.572e+01,1.824e+01,2.059e+01,1.578e+01,1.803e+01,1.838e+01,1.715e+01,1.702e+01,1.917e+01,1.912e+01,1.597e+01,1.818e+01,1.840e+01,1.631e+01,1.842e+01,1.899e+01,1.873e+01,2.050e+01,1.772e+01,1.844e+01,1.825e+01,1.869e+01,1.816e+01,1.685e+01,1.709e+01,1.554e+01,1.588e+01,1.676e+01,1.889e+01,1.835e+01,1.709e+01
7.917e-01,8.397e-01,1.701e+00,9.844e-01,1.441e+00,1.536e+00,1.235e+00,2.288e+00,2.939e+00,2.679e+00,3.372e+00,2.408e+00,2.013e+00,3.020e+00,3.448e+00,3.265e+00,1.986e+00,3.712e+00,4.828e+00,4.742e+00,5.562e+00,5.089e+00,4.769e+00,4.891e+00,5.411e+00,5.629e+00,5.166e+00,6.167e+00,7.320e+00,6.854e+00,8.382e+00,8.031e+00,7.422e+00,8.582e+00,8.274e+00,8.312e+00,7.472e+00,8.377e+00,8.842e+00,7.684e+00,9.442e+00,8.286e+00,1.029e+01,8.932e+00,9.169e+00,9.674e+00,1.060e+01,8.112e+00,9.522e+00,1.106e+01,1.269e+01,1.150e+01,1.162e+01,1.221e+01,1.602e+01,1.269e+01,1.216e+01,1.388e+01,1.399e+01,1.474e+01,1.274e+01,1.671e+01,1.734e+01,1.611e+01,1.466e+01,1.482e+01,1.589e+01,1.774e+01,1.495e+01,1.601e+01,1.650e+01,1.635e+01,1.763e+01,1.763e+01,1.855e+01,1.472e+01,1.608e+01,1.562e+01,1.474e+01,1.707e+01,1.900e+01,1.683e+01,1.786e+01,1.647e+01,1.743e+01,1.725e+01,1.702e+01,1.516e+01,1.816e+01,1.589e+01,1.608e+01,1.491e+01,1.585e+01,1.581e+01,1.647e+01,1.626e+01
3.380e-01,5.170e-01,9.642e-01,1.306e+00,1.767e+00,1.812e+00,2.224e+00,2.853e+00,3.277e+00,3.174e+00,3.332e+00,2.898e+00,3.138e+00,3.704e+00,5.529e+00,5.724e+00,3.264e+00,6.012e+00,6.243e+00,7.130e+00,8.212e+00,7.285e+00,6.518e+00,6.256e+00,5.541e+00,8.187e+00,7.612e+00,8.016e+00,9.673e+00,8.247e+00,1.049e+01,9.763e+00,9.515e+00,1.081e+01,1.033e+01,1.130e+01,1.139e+01,1.095e+01,1.082e+01,1.039e+01,1.148e+01,1.157e+01,1.195e+01,1.211e+01,1.170e+01,1.169e+01,1.408e+01,1.131e+01,1.246e+01,1.355e+01,1.546e+01,1.396e+01,1.327e+01,1.373e+01,1.886e+01,1.439e+01,1.454e+01,1.571e+01,1.775e+01,1.837e+01,1.499e+01,1.757e+01,1.887e+01,1.764e+01,1.711e+01,1.768e+01,1.945e+01,2.105e+01,1.683e+01,2.076e+01,1.968e+01,1.873e+01,2.111e+01,2.282e+01,2.167e+01,1.819e+01,2.182e+01,2.067e+01,1.938e+01,2.077e+01,2.394e+01,2.221e+01,2.231e+01,2.045e+01,2.100e+01,2.100e+01,2.171e+01,1.970e+01,1.978e+01,2.076e+01,1.893e+01,1.936e+01,1.879e+01,1.915e+01,2.032e+01,2.119e+01
2.469e-02,1.747e-01,8.016e-01,6.028e-01,8.860e-01,1.022e+00,1.420e+00,2.781e+00,2.416e+00,2.781e+00,2.911e+00,3.393e+00,1.940e+00,2.607e+00,3.749e+00,3.896e+00,2.659e+00,4.181e+00,4.917e+00,5.116e+00,5.770e+00,5.263e+00,4.754e+00,5.499e+00,4.774e+00,5.834e+00,6.131e+00,6.532e+00,8.051e+00,6.729e+00,9.049e+00,7.539e+00,8.642e+00,8.911e+00,8.323e+00,1.021e+01,9.147e+00,9.109e+00,9.197e+00,8.805e+00,1.095e+01,9.339e+00,1.155e+01,1.003e+01,1.129e+01,1.008e+01,1.210e+01,1.030e+01,1.145e+01,1.247e+01,1.310e+01,1.154e+01,1.171e+01,1.150e+01,1.512e+01,1.170e+01,1.194e+01,1.284e+01,1.369e+01,1.517e+01,1.224e+01,1.470e+01,1.602e+01,1.565e+01,1.475e+01,1.486e+01,1.515e+01,1.797e+01,1.342e+01,1.514e+01,1.838e+01,1.395e+01,1.686e+01,1.838e+01,1.708e+01,1.557e+01,1.650e+01,1.527e+01,1.515e+01,1.573e+01,1.927e+01,1.788e+01,1.830e+01,1.619e+01,1.633e+01,1.671e+01,1.835e+01,1.596e+01,1.526e+01,1.652e+01,1.606e+01,1.517e+01,1.510e+01,1.454e+01,1.761e+01,1.637e+01
2.824e-01,4.435e-01,7.829e-01,1.262e+00,1.647e+00,1.569e+00,2.044e+00,2.354e+00,2.875e+00,2.755e+00,2.742e+00,2.553e+00,2.793e+00,2.887e+00,4.587e+00,4.807e+00,3.164e+00,5.119e+00,4.409e+00,4.842e+00,6.458e+00,5.510e+00,5.555e+00,5.891e+00,4.787e+00,6.760e+00,6.342e+00,6.677e+00,7.829e+00,7.237e+00,9.321e+00,7.943e+00,8.629e+00,9.162e+00,9.835e+00,9.696e+00,9.343e+00,9.509e+00,9.691e+00,9.523e+00,1.110e+01,1.067e+01,1.137e+01,1.029e+01,1.129e+01,1.172e+01,1.248e+01,1.057e+01,1.205e+01,1.308e+01,1.326e+01,1.311e+01,1.118e+01,1.308e+01,1.725e+01,1.302e+01,1.437e+01,1.503e+01,1.635e+01,1.651e+01,1.470e+01,1.768e+01,1.802e+01,1.655e+01,1.333e+01,1.587e+01,1.680e+01,1.910e+01,1.616e+01,1.776e+01,1.842e+01,1.775e+01,2.021e+01,2.005e+01,1.986e+01,1.764e+01,2.009e+01,2.032e+01,1.598e+01,1.989e+01,2.168e+01,1.907e+01,1.987e+01,1.782e+01,1.994e+01,2.027e+01,2.032e+01,1.766e+01,1.783e+01,1.862e+01,1.748e+01,1.701e+01,1.827e+01,1.799e+01,1.829e+01,2.031e+01
5.552e-01,7.039e-01,1.510e+00,9.377e-01,1.381e+00,1.848e+00,1.865e+00,3.262e+00,3.409e+00,3.441e+00,3.664e+00,3.357e+00,2.227e+00,3.248e+00,4.945e+00,4.469e+00,3.029e+00,4.979e+00,6.541e+00,6.097e+00,7.442e+00,5.919e+00,6.149e+00,6.215e+00,5.501e+00,7.727e+00,7.408e+00,7.355e+00,8.230e+00,7.721e+00,9.768e+00,7.854e+00,8.154e+00,9.414e+00,9.125e+00,9.751e+00,9.366e+00,1.003e+01,9.690e+00,8.765e+00,1.165e+01,1.076e+01,1.214e+01,1.132e+01,1.136e+01,1.173e+01,1.323e+01,1.132e+01,1.224e+01,1.317e+01,1.295e+01,1.251e+01,1.207e+01,1.197e+01,1.757e+01,1.278e+01,1.415e+01,1.379e+01,1.575e+01,1.632e+01,1.422e+01,1.636e+01,1.703e+01,1.624e+01,1.588e+01,1.493e+01,1.730e+01,1.963e+01,1.434e+01,1.760e+01,1.826e+01,1.580e+01,1.798e+01,1.954e+01,1.839e+01,1.799e+01,1.808e+01,1.893e+01,1.671e+01,1.968e+01,2.205e+01,2.083e+01,2.150e+01,1.942e+01,1.893e+01,2.106e+01,1.993e+01,1.917e+01,1.920e+01,1.922e+01,1.778e+01,1.686e+01,1.684e+01,1.788e+01,1.899e+01,1.848e+01
7.465e-02,2.752e-01,1.081e+00,7.588e-01,1.114e+00,1.159e+00,1.493e+00,2.901e+00,2.279e+00,2.553e+00,3.410e+00,3.298e+00,2.910e+00,3.207e+00,4.475e+00,4.804e+00,3.649e+00,6.304e+00,6.699e+00,6.421e+00,7.495e+00,6.855e+00,6.584e+00,6.902e+00,5.978e+00,8.539e+00,7.970e+00,7.519e+00,1.030e+01,8.407e+00,1.192e+01,9.162e+00,1.082e+01,1.148e+01,1.038e+01,1.249e+01,1.125e+01,1.158e+01,1.102e+01,1.097e+01,1.115e+01,1.173e+01,1.168e+01,1.149e+01,1.150e+01,1.140e+01,1.463e+01,1.157e+01,1.209e+01,1.391e+01,1.513e+01,1.400e+01,1.325e+01,1.446e+01,1.796e+01,1.438e+01,1.402e+01,1.577e+01,1.644e+01,1.575e+01,1.471e+01,1.712e+01,1.832e+01,1.737e+01,1.637e+01,1.612e+01,1.917e+01,2.123e+01,1.682e+01,1.831e+01,2.114e+01,1.810e+01,2.066e+01,2.328e+01,2.123e+01,1.839e+01,2.047e+01,2.062e+01,2.003e+01,2.223e+01,2.284e+01,2.217e+01,2.410e+01,2.127e+01,2.183e+01,2.317e+01,2.106e+01,1.872e+01,1.893e+01,2.123e+01,2.009e+01,1.997e+01,2.000e+01,1.985e+01,2.167e+01,2.232e+01
7.262e-01,7.043e-01,1.435e+00,5.311e-01,8.697e-01,1.354e+00,9.433e-01,1.675e+00,2.018e+00,2.051e+00,2.639e+00,1.964e+00,1.911e+00,2.552e+00,3.069e+00,3.903e+00,2.263e+00,3.477e+00,4.751e+00,4.789e+00,5.338e+00,4.847e+00,4.846e+00,4.543e+00,4.488e+00,5.906e+00,6.292e+00,6.390e+00,7.977e+00,6.721e+00,8.625e+00,7.761e+00,7.524e+00,9.303e+00,7.295e+00,8.904e+00,9.185e+00,8.837e+00,9.354e+00,6.947e+00,9.891e+00,9.345e+00,1.083e+01,1.061e+01,1.038e+01,1.052e+01,1.079e+01,9.282e+00,1.118e+01,1.258e+01,1.246e+01,1.239e+01,1.367e+01,1.331e+01,1.745e+01,1.318e+01,1.352e+01,1.572e+01,1.532e+01,1.644e+01,1.309e+01,1.918e+01,1.634e+01,1.639e+01,1.499e+01,1.495e+01,1.758e+01,1.966e+01,1.476e+01,1.838e+01,1.753e+01,1.697e+01,1.933e+01,1.977e+01,1.850e+01,1.818e+01,1.847e+01,1.826e+01,1.708e+01,1.830e+01,2.061e+01,1.715e+01,2.139e+01,1.983e+01,1.842e+01,1.915e+01,1.887e+01,1.738e+01,1.990e+01,2.052e+01,1.765e+01,1.626e+01,1.779e+01,1.862e+01,1.883e+01,1.866e+01
1.424e-01,2.602e-01,6.435e-01,4.760e-01,6.679e-01,3.855e-01,5.134e-01,1.399e+00,1.925e+00,1.808e+00,1.816e+00,2.113e+00,1.528e+00,1.645e+00,2.541e+00,3.903e+00,2.417e+00,3.135e+00,4.361e+00,2.713e+00,5.522e+00,3.993e+00,4.024e+00,5.649e+00,4.176e+00,5.665e+00,6.055e+00,6.582e+00,7.338e+00,7.175e+00,8.500e+00,6.541e+00,8.733e+00,8.397e+00,7.836e+00,9.043e+00,9.117e+00,8.379e+00,9.381e+00,8.692e+00,1.033e+01,9.607e+00,1.207e+01,1.052e+01,1.186e+01,1.084e+01,1.260e+01,1.060e+01,1.197e+01,1.192e+01,1.381e+01,1.275e+01,1.313e+01,1.376e+01,1.608e+01,1.352e+01,1.345e+01,1.587e+01,1.553e+01,1.618e+01,1.535e+01,1.618e+01,1.790e+01,1.662e+01,1.618e+01,1.608e+01,1.654e+01,1.894e+01,1.407e+01,1.730e+01,1.820e+01,1.490e+01,1.839e+01,1.996e+01,1.942e+01,1.691e+01,1.815e+01,1.830e+01,1.568e+01,1.900e+01,1.948e+01,1.994e+01,1.998e+01,1.823e+01,1.824e+01,1.927e+01,1.997e+01,1.819e+01,1.934e+01,1.893e+01,1.748e+01,1.628e+01,1.721e+01,1.716e+01,1.743e+01,1.866e+01
3.888e-01,3.976e-01,7.420e-01,5.941e-01,8.177e-01,7.362e-01,8.140e-01,1.667e+00,2.499e+00,2.450e+00,2.747e+00,2.671e+00,2.345e+00,2.664e+00,3.679e+00,4.540e+00,2.919e+00,3.830e+00,5.097e+00,4.366e+00,5.832e+00,5.384e+00,5.458e+00,5.524e+00,4.334e+00,5.818e+00,6.015e+00,5.399e+00,6.030e+00,6.044e+00,7.988e+00,7.459e+00,7.906e+00,8.798e+00,8.729e+00,8.709e+00,8.494e+00,9.111e+00,8.933e+00,8.213e+00,9.510e+00,9.112e+00,1.046e+01,1.033e+01,9.663e+00,1.058e+01,1.242e+01,9.737e+00,1.079e+01,1.207e+01,1.338e+01,1.159e+01,1.343e+01,1.344e+01,1.701e+01,1.281e+01,1.445e+01,1.464e+01,1.568e+01,1.611e+01,1.419e+01,1.698e+01,1.705e+01,1.551e+01,1.559e+01,1.607e+01,1.821e+01,1.763e+01,1.484e+01,1.960e+01,1.970e+01,1.660e+01,1.957e+01,1.962e+01,2.006e+01,1.826e+01,1.955e+01,1.944e+01,1.834e+01,2.002e+01,2.411e+01,2.193e+01,2.200e+01,2.209e+01,2.114e+01,2.226e+01,2.064e+01,2.052e+01,2.130e+01,2.171e+01,2.014e+01,1.997e+01,1.994e+01,2.023e+01,2.003e+01,2.037e+01
3.145e-01,3.601e-01,9.179e-01,5.760e-01,8.431e-01,8.710e-01,8.715e-01,1.380e+00,1.577e+00,1.699e+00,1.925e+00,2.271e+00,1.332e+00,1.970e+00,2.610e+00,3.790e+00,2.896e+00,3.829e+00,4.777e+00,4.040e+00,5.526e+00,5.139e+00,5.280e+00,5.984e+00,4.923e+00,6.488e+00,7.460e+00,6.898e+00,7.766e+00,6.840e+00,8.634e+00,6.721e+00,7.401e+00,9.291e+00,8.411e+00,9.672e+00,8.562e+00,9.194e+00,9.733e+00,7.882e+00,9.736e+00,8.940e+00,9.159e+00,9.736e+00,9.037e+00,9.924e+00,1.039e+01,9.837e+00,1.140e+01,1.197e+01,1.192e+01,1.119e+01,1.147e+01,1.308e+01,1.622e+01,1.215e+01,1.240e+01,1.363e+01,1.521e+01,1.370e+01,1.218e+01,1.460e+01,1.540e+01,1.448e+01,1.369e+01,1.513e+01,1.706e+01,1.821e+01,1.475e+01,1.675e+01,1.810e+01,1.642e+01,1.879e+01,1.912e+01,1.828e+01,1.766e+01,1.766e+01,1.923e+01,1.723e+01,2.096e+01,2.174e+01,2.014e+01,2.068e+01,2.111e+01,1.972e+01,1.950e+01,1.910e+01,1.856e+01,1.787e+01,2.080e+01,1.691e+01,1.662e+01,1.840e+01,1.917e+01,1.901e+01,1.918e+01
1.597e-01,1.849e-01,4.611e-01,8.479e-01,1.148e+00,1.546e+00,1.910e+00,2.340e+00,2.633e+00,3.046e+00,2.914e+00,2.476e+00,2.340e+00,3.245e+00,4.608e+00,4.864e+00,3.492e+00,5.239e+00,5.095e+00,5.311e+00,7.020e+00,5.809e+00,6.281e+00,6.268e+00,5.817e+00,6.380e+00,6.111e+00,6.705e+00,7.985e+00,6.472e+00,8.393e+00,7.680e+00,7.491e+00,8.268e+00,7.499e+00,8.623e+00,7.426e+00,8.790e+00,8.682e+00,7.820e+00,9.155e+00,9.419e+00,9.138e+00,9.056e+00,1.038e+01,1.006e+01,1.196e+01,9.654e+00,1.099e+01,1.252e+01,1.268e+01,1.224e+01,1.207e+01,1.301e+01,1.703e+01,1.224e+01,1.472e+01,1.457e+01,1.549e+01,1.595e+01,1.310e+01,1.677e+01,1.707e+01,1.588e+01,1.436e+01,1.683e+01,1.674e+01,1.812e+01,1.627e+01,1.753e+01,1.951e+01,1.657e+01,1.955e+01,1.798e+01,1.991e+01,1.958e+01,1.973e+01,1.953e+01,1.892e+01,2.103e+01,2.459e+01,2.120e+01,2.254e+01,2.258e+01,2.179e+01,2.206e+01,2.040e+01,1.989e+01,2.111e+01,2.179e+01,1.927e+01,2.075e+01,2.081e+01,2.029e+01,2.127e+01,2.171e+01
7.689e-01,9.276e-01,1.575e+00,1.406e+00,1.939e+00,1.548e+00,1.761e+00,2.897e+00,3.912e+00,3.260e+00,3.559e+00,3.534e+00,2.806e+00,3.757e+00,4.968e+00,5.697e+00,3.290e+00,5.136e+00,6.069e+00,5.815e+00,7.490e+00,6.635e+00,5.822e+00,6.733e+00,6.087e+00,7.098e+00,7.547e+00,7.488e+00,8.736e+00,9.122e+00,1.019e+01,8.591e+00,9.970e+00,1.056e+01,9.643e+00,1.138e+01,1.040e+01,1.092e+01,1.054e+01,1.002e+01,1.159e+01,1.061e+01,1.299e+01,1.092e+01,1.140e+01,1.219e+01,1.206e+01,9.845e+00,1.295e+01,1.312e+01,1.400e+01,1.298e+01,1.393e+01,1.441e+01,1.881e+01,1.486e+01,1.530e+01,1.698e+01,1.714e+01,1.748e+01,1.491e+01,1.775e+01,1.890e+01,1.707e+01,1.618e+01,1.653e+01,1.821e+01,1.933e+01,1.589e+01,1.830e+01,1.932e+01,1.636e+01,2.005e+01,2.176e+01,1.977e+01,1.905e+01,1.952e+01,2.003e+01,1.817e+01,2.288e+01,2.377e+01,2.167e+01,2.160e+01,2.058e+01,2.225e+01,2.201e+01,2.100e+01,2.092e+01,1.926e+01,2.273e+01,2.043e+01,1.895e+01,1.895e+01,2.037e+01,2.074e+01,1.932e+01
5.679e-01,6.304e-01,1.296e+00,1.279e+00,1.748e+00,1.352e+00,1.651e+00,2.134e+00,2.529e+00,2.293e+00,2.346e+00,2.482e+00,1.713e+00,2.595e+00,3.623e+00,4.522e+00,2.556e+00,4.306e+00,4.842e+00,4.997e+00,5.362e+00,5.443e+00,5.699e+00,5.216e+00,5.488e+00,6.881e+00,6.503e+00,6.647e+00,8.484e+00,7.987e+00,9.538e+00,7.375e+00,8.316e+00,9.326e+00,9.037e+00,1.032e+01,9.400e+00,8.805e+00,8.988e+00,6.749e+00,1.073e+01,1.014e+01,1.070e+01,1.059e+01,1.051e+01,1.223e+01,1.187e+01,1.048e+01,1.263e+01,1.457e+01,1.321e+01,1.329e+01,1.345e+01,1.375e+01,1.788e+01,1.476e+01,1.569e+01,1.673e+01,1.634e+01,1.705e+01,1.344e+01,1.778e+01,1.852e+01,1.682e+01,1.443e+01,1.717e+01,1.808e+01,2.017e+01,1.730e+01,1.962e+01,2.100e+01,1.823e+01,1.961e+01,1.950e+01,2.148e+01,1.964e+01,2.117e+01,1.956e+01,1.823e+01,2.206e+01,2.393e+01,2.244e+01,2.145e+01,2.233e+01,2.165e+01,2.279e+01,2.052e+01,2.189e+01,2.111e+01,2.240e+01,2.025e+01,1.981e+01,2.060e+01,2.173e+01,2.135e+01,2.142e+01
3.364e-01,4.563e-01,7.503e-01,1.169e+00,1.535e+00,1.270e+00,1.890e+00,2.938e+00,3.647e+00,3.451e+00,2.989e+00,3.670e+00,2.273e+00,3.065e+00,5.032e+00,5.737e+00,3.370e+00,4.523e+00,5.789e+00,5.026e+00,6.890e+00,6.219e+00,6.045e+00,6.793e+00,5.478e+00,6.685e+00,6.843e+00,6.715e+00,8.584e+00,8.127e+00,9.770e+00,6.891e+00,8.103e+00,9.299e+00,8.034e+00,1.011e+01,8.671e+00,9.402e+00,9.580e+00,8.067e+00,9.415e+00,9.750e+00,1.166e+01,9.211e+00,1.113e+01,1.160e+01,1.199e+01,1.026e+01,1.161e+01,1.238e+01,1.301e+01,1.211e+01,1.282e+01,1.268e+01,1.581e+01,1.378e+01,1.334e+01,1.523e+01,1.526e+01,1.572e+01,1.342e+01,1.628e+01,1.700e+01,1.687e+01,1.515e+01,1.594e+01,1.675e+01,1.886e+01,1.489e+01,1.800e+01,1.882e+01,1.538e+01,1.874e+01,1.965e+01,1.969e+01,1.778e+01,1.876e+01,1.884e+01,1.861e+01,2.122e+01,2.299e+01,2.274e+01,2.079e+01,2.080e+01,1.995e+01,2.270e+01,1.996e+01,2.201e+01,2.101e+01,2.183e+01,1.957e+01,1.888e+01,1.911e+01,2.023e+01,2.107e+01,2.109e+01
3.092e-01,4.325e-01,1.005e+00,8.542e-01,1.205e+00,8.635e-01,1.128e+00,2.022e+00,2.687e+00,2.499e+00,2.004e+00,2.828e+00,1.124e+00,2.005e+00,3.353e+00,4.199e+00,2.873e+00,3.512e+00,5.234e+00,3.498e+00,5.365e+00,4.548e+00,4.995e+00,6.025e+00,5.410e+00,6.168e+00,5.936e+00,5.794e+00,6.553e+00,7.445e+00,8.454e+00,6.159e+00,7.466e+00,8.773e+00,8.746e+00,9.152e+00,8.578e+00,9.310e+00,8.845e+00,8.183e+00,9.454e+00,9.258e+00,9.756e+00,9.688e+00,1.011e+01,1.074e+01,1.161e+01,9.673e+00,1.198e+01,1.210e+01,1.204e+01,1.126e+01,1.252e+01,1.352e+01,1.692e+01,1.343e+01,1.500e+01,1.630e+01,1.550e+01,1.716e+01,1.463e+01,1.717e+01,1.705e+01,1.594e+01,1.538e+01,1.604e+01,1.837e+01,1.966e+01,1.656e+01,1.922e+01,1.931e+01,1.820e+01,1.971e+01,1.997e+01,2.089e+01,1.947e+01,1.941e+01,2.000e+01,1.858e+01,2.190e+01,2.320e+01,2.365e+01,2.342e+01,2.328e+01,2.284e+01,2.300e+01,2.126e+01,2.253e+01,2.280e+01,2.423e+01,2.104e+01,1.944e+01,2.177e+01,2.165e+01,2.159e+01,2.070e+01
1.403e-01,2.686e-01,1.067e+00,1.202e+00,1.674e+00,1.203e+00,1.812e+00,2.448e+00,2.533e+00,2.739e+00,2.143e+00,2.889e+00,1.509e+00,2.541e+00,4.308e+00,4.708e+00,2.857e+00,4.958e+00,4.979e+00,4.847e+00,5.630e+00,5.499e+00,5.263e+00,5.627e+00,5.262e+00,6.796e+00,7.256e+00,7.754e+00,9.055e+00,8.192e+00,1.016e+01,8.125e+00,9.219e+00,1.030e+01,9.989e+00,1.192e+01,1.059e+01,1.051e+01,9.232e+00,8.315e+00,1.078e+01,1.129e+01,1.100e+01,1.252e+01,1.194e+01,1.146e+01,1.296e+01,1.143e+01,1.259e+01,1.350e+01,1.529e+01,1.272e+01,1.394e+01,1.421e+01,1.858e+01,1.380e+01,1.507e+01,1.523e+01,1.676e+01,1.667e+01,1.347e+01,1.697e+01,1.927e+01,1.699e+01,1.522e+01,1.575e+01,1.770e+01,2.077e+01,1.619e+01,1.752e+01,1.991e+01,1.769e+01,2.026e+01,1.828e+01,2.103e+01,1.855e+01,1.995e+01,1.988e+01,1.940e+01,2.188e+01,2.443e+01,2.302e+01,2.466e+01,2.335e+01,2.407e+01,2.353e+01,2.180e+01,2.317e+01,2.165e+01,2.418e+01,2.078e+01,2.136e+01,2.141e+01,2.142e+01,2.234e+01,2.367e+01
6.708e-01,6.658e-01,1.349e+00,1.093e+00,1.509e+00,1.398e+00,1.501e+00,2.391e+00,3.529e+00,3.481e+00,3.413e+00,3.403e+00,2.915e+00,3.346e+00,4.715e+00,6.241e+00,3.703e+00,5.478e+00,5.851e+00,5.600e+00,7.772e+00,6.120e+00,6.561e+00,6.398e+00,5.303e+00,7.080e+00,6.781e+00,6.587e+00,8.409e+00,7.326e+00,9.943e+00,8.000e+00,9.779e+00,1.055e+01,8.331e+00,9.828e+00,1.045e+01,1.052e+01,9.536e+00,9.905e+00,1.090e+01,1.046e+01,1.320e+01,1.028e+01,1.140e+01,1.306e+01,1.290e+01,1.174e+01,1.209e+01,1.406e+01,1.304e+01,1.295e+01,1.341e+01,1.323e+01,1.723e+01,1.270e+01,1.477e+01,1.542e+01,1.614e+01,1.742e+01,1.395e+01,1.654e+01,1.678e+01,1.568e+01,1.471e+01,1.466e+01,1.686e+01,1.880e+01,1.351e+01,1.752e+01,1.875e+01,1.540e+01,1.804e+01,1.970e+01,1.924e+01,1.869e+01,1.787e+01,1.970e+01,1.835e+01,2.054e+01,2.273e+01,2.088e+01,2.200e+01,2.263e+01,2.135e+01,2.330e+01,2.062e+01,2.270e+01,2.179e+01,2.258e+01,2.133e+01,2.071e+01,1.987e+01,2.051e+01,2.233e+01,2.050e+01
4.319e-02,2.283e-01,1.166e+00,1.430e+00,1.903e+00,5.720e-01,1.430e+00,2.801e+00,2.921e+00,2.837e+00,2.503e+00,2.937e+00,1.737e+00,2.210e+00,3.683e+00,4.486e+00,2.690e+00,4.534e+00,5.076e+00,4.203e+00,6.286e+00,5.477e+00,4.962e+00,5.375e+00,6.088e+00,6.678e+00,6.689e+00,6.984e+00,8.139e+00,8.212e+00,8.801e+00,7.436e+00,8.974e+00,1.014e+01,8.490e+00,1.015e+01,8.488e+00,9.202e+00,9.049e+00,8.949e+00,9.364e+00,9.117e+00,1.047e+01,9.493e+00,1.090e+01,9.577e+00,1.070e+01,9.002e+00,1.112e+01,1.156e+01,1.193e+01,1.121e+01,1.234e+01,1.221e+01,1.466e+01,1.266e+01,1.170e+01,1.430e+01,1.328e+01,1.431e+01,1.127e+01,1.359e+01,1.569e+01,1.480e+01,1.381e+01,1.500e+01,1.678e+01,1.721e+01,1.305e+01,1.601e+01,1.651e+01,1.436e+01,1.699e+01,1.797e+01,1.689e+01,1.593e+01,1.654e+01,1.727e+01,1.619e+01,1.900e+01,1.957e+01,1.818e+01,1.973e+01,1.849e+01,1.938e+01,1.850e+01,1.900e+01,1.871e+01,1.749e+01,1.957e+01,1.780e+01,1.850e+01,1.617e+01,1.747e+01,1.776e+01,1.771e+01
4.821e-01,5.105e-01,7.524e-01,1.094e+00,1.442e+00,1.104e+00,1.522e+00,1.814e+00,2.672e+00,2.378e+00,1.519e+00,2.185e+00,9.951e-01,1.942e+00,3.358e+00,4.299e+00,2.534e+00,3.171e+00,4.551e+00,3.536e+00,5.079e+00,4.874e+00,4.761e+00,5.060e+00,5.074e+00,5.534e+00,7.369e+00,6.599e+00,6.975e+00,7.386e+00,7.593e+00,5.384e+00,6.357e+00,8.018e+00,6.267e+00,8.632e+00,7.124e+00,7.925e+00,8.012e+00,5.870e+00,8.623e+00,7.633e+00,9.989e+00,7.510e+00,9.842e+00,9.964e+00,9.056e+00,8.097e+00,9.931e+00,1.038e+01,9.741e+00,9.848e+00,1.113e+01,1.089e+01,1.306e+01,1.026e+01,1.155e+01,1.298e+01,1.211e+01,1.362e+01,1.046e+01,1.367e+01,1.349e+01,1.496e+01,1.314e+01,1.375e+01,1.517e+01,1.678e+01,1.303e+01,1.549e+01,1.604e+01,1.348e+01,1.516e+01,1.631e+01,1.749e+01,1.656e+01,1.640e+01,1.657e+01,1.630e+01,1.914e+01,2.085e+01,1.861e+01,1.971e+01,1.918e+01,1.905e+01,1.943e+01,1.873e+01,1.961e+01,1.816e+01,2.039e+01,1.695e+01,1.791e+01,1.801e+01,2.036e+01,1.914e+01,1.867e+01
5.436e-01,5.714e-01,1.603e+00,1.397e+00,1.895e+00,1.401e+00,1.695e+00,2.482e+00,2.866e+00,3.074e+00,2.805e+00,3.240e+00,1.967e+00,2.502e+00,3.996e+00,5.692e+00,3.755e+00,5.619e+00,6.169e+00,5.015e+00,7.355e+00,6.922e+00,6.881e+00,6.910e+00,6.471e+00,8.042e+00,7.843e+00,7.899e+00,9.816e+00,9.112e+00,9.948e+00,7.942e+00,9.348e+00,1.088e+01,9.797e+00,1.010e+01,9.834e+00,1.031e+01,1.054e+01,8.586e+00,9.761e+00,1.024e+01,1.147e+01,1.073e+01,1.146e+01,1.293e+01,1.317e+01,1.120e+01,1.352e+01,1.327e+01,1.325e+01,1.200e+01,1.381e+01,1.577e+01,1.774e+01,1.453e+01,1.524e+01,1.682e+01,1.558e+01,1.719e+01,1.362e+01,1.848e+01,1.866e+01,1.654e+01,1.732e+01,1.871e+01,1.906e+01,2.081e+01,1.813e+01,1.886e+01,2.023e+01,1.779e+01,1.812e+01,1.875e+01,2.056e+01,1.815e+01,1.836e+01,1.952e+01,1.888e+01,2.275e+01,2.218e+01,2.074e+01,2.128e+01,2.220e+01,2.296e+01,2.164e+01,2.101e+01,2.290e+01,2.220e+01,2.257e+01,2.152e+01,2.082e+01,2.077e+01,2.322e+01,2.200e+01,2.210e+01
6.158e-01,6.131e-01,1.638e+00,1.192e+00,1.707e+00,1.696e+00,1.722e+00,2.540e+00,3.016e+00,3.329e+00,3.131e+00,2.616e+00,1.705e+00,3.057e+00,4.065e+00,4.677e+00,3.086e+00,4.862e+00,6.093e+00,4.642e+00,6.825e+00,6.117e+00,6.061e+00,6.070e+00,6.111e+00,7.206e+00,8.287e+00,8.416e+00,8.824e+00,7.596e+00,9.902e+00,8.604e+00,8.438e+00,1.052e+01,1.050e+01,1.057e+01,1.014e+01,1.081e+01,1.111e+01,9.652e+00,1.225e+01,1.130e+01,1.202e+01,1.164e+01,1.172e+01,1.359e+01,1.273e+01,1.174e+01,1.284e+01,1.402e+01,1.501e+01,1.351e+01,1.446e+01,1.534e+01,1.876e+01,1.360e+01,1.462e+01,1.596e+01,1.588e+01,1.783e+01,1.440e+01,1.734e+01,1.737e+01,1.745e+01,1.598e+01,1.810e+01,1.899e+01,1.950e+01,1.593e+01,1.933e+01,1.931e+01,1.821e+01,1.923e+01,1.960e+01,2.027e+01,1.974e+01,1.767e+01,2.090e+01,1.967e+01,2.106e+01,2.491e+01,2.159e+01,2.344e+01,2.428e+01,2.353e+01,2.224e+01,2.288e+01,2.181e+01,2.242e+01,2.314e+01,2.210e+01,2.232e+01,2.173e+01,2.438e+01,2.230e+01,2.341e+01
7.416e-01,7.577e-01,1.364e+00,1.087e+00,1.476e+00,1.386e+00,1.386e+00,2.224e+00,3.150e+00,2.904e+00,3.393e+00,3.081e+00,3.037e+00,3.140e+00,3.960e+00,5.423e+00,3.304e+00,4.880e+00,5.158e+00,4.948e+00,6.492e+00,5.631e+00,5.928e+00,5.900e+00,4.986e+00,6.651e+00,6.203e+00,5.267e+00,7.748e+00,6.471e+00,8.669e+00,7.712e+00,8.261e+00,9.056e+00,7.394e+00,8.805e+00,8.430e+00,1.006e+01,9.082e+00,8.168e+00,9.035e+00,8.987e+00,1.025e+01,8.577e+00,8.964e+00,1.060e+01,1.089e+01,9.771e+00,9.803e+00,1.119e+01,1.215e+01,1.269e+01,1.205e+01,1.302e+01,1.548e+01,1.261e+01,1.281e+01,1.424e+01,1.518e+01,1.593e+01,1.404e+01,1.645e+01,1.612e+01,1.525e+01,1.390e+01,1.343e+01,1.529e+01,1.697e+01,1.471e+01,1.779e+01,1.554e+01,1.571e+01,1.701e+01,1.842e+01,1.831e+01,1.588e+01,1.709e+01,1.772e+01,1.772e+01,1.864e+01,2.161e+01,2.126e+01,1.954e+01,2.207e+01,2.037e+01,2.194e+01,1.927e+01,2.106e+01,2.135e+01,2.269e+01,1.935e+01,1.915e+01,1.895e+01,2.053e+01,2.265e+01,2.121e+01
5.753e-01,6.569e-01,1.252e+00,8.365e-01,1.186e+00,9.000e-01,9.909e-01,2.328e+00,2.998e+00,2.665e+00,2.988e+00,2.892e+00,2.365e+00,2.863e+00,3.987e+00,4.711e+00,3.211e+00,4.343e+00,5.556e+00,3.658e+00,5.918e+00,5.115e+00,4.574e+00,5.709e+00,4.934e+00,5.886e+00,6.630e+00,6.145e+00,6.526e+00,7.085e+00,8.679e+00,7.572e+00,8.415e+00,9.303e+00,8.283e+00,9.780e+00,8.990e+00,9.623e+00,8.225e+00,8.626e+00,9.812e+00,9.372e+00,1.069e+01,9.144e+00,1.082e+01,1.060e+01,1.043e+01,9.929e+00,1.033e+01,1.105e+01,1.178e+01,1.148e+01,1.248e+01,1.297e+01,1.582e+01,1.177e+01,1.354e+01,1.430e+01,1.435e+01,1.487e+01,1.427e+01,1.581e+01,1.573e+01,1.575e+01,1.313e+01,1.489e+01,1.641e+01,1.778e+01,1.410e+01,1.632e+01,1.834e+01,1.599e+01,1.747e+01,1.763e+01,1.840e+01,1.704e+01,1.644e+01,1.674e+01,1.704e+01,1.782e+01,2.088e+01,2.013e+01,2.050e+01,2.021e+01,2.034e+01,2.013e+01,1.876e+01,2.056e+01,1.932e+01,2.082e+01,2.084e+01,1.986e+01,2.102e+01,1.942e+01,2.003e+01,2.066e+01
5.963e-01,5.797e-01,9.928e-01,5.662e-01,8.356e-01,1.081e+00,9.800e-01,1.659e+00,2.237e+00,2.170e+00,2.032e+00,2.151e+00,1.649e+00,2.117e+00,3.052e+00,4.427e+00,2.711e+00,3.443e+00,4.200e+00,2.946e+00,4.750e+00,3.786e+00,3.788e+00,4.893e+00,3.971e+00,4.956e+00,5.300e+00,5.478e+00,6.540e+00,6.128e+00,7.092e+00,6.968e+00,7.879e+00,7.974e+00,6.917e+00,8.832e+00,8.639e+00,7.984e+00,8.967e+00,7.414e+00,1.065e+01,8.476e+00,1.053e+01,9.714e+00,1.008e+01,1.089e+01,1.065e+01,9.424e+00,1.087e+01,1.105e+01,1.294e+01,1.266e+01,1.194e+01,1.454e+01,1.578e+01,1.331e+01,1.420e+01,1.629e+01,1.378e+01,1.631e+01,1.442e+01,1.609e+01,1.601e+01,1.732e+01,1.463e+01,1.569e+01,1.610e+01,1.871e+01,1.546e+01,1.832e+01,1.814e+01,1.745e+01,1.800e+01,1.882e+01,2.033e+01,1.954e+01,1.963e+01,1.930e+01,1.793e+01,2.105e+01,2.348e+01,2.080e+01,2.271e+01,2.283e+01,2.275e+01,2.107e+01,2.175e+01,2.102e+01,2.364e+01,2.458e+01,2.147e+01,2.263e+01,2.230e+01,2.310e+01,2.309e+01,2.443e+01
4.513e-02,1.982e-01,4.165e-01,7.777e-01,1.066e+00,1.255e+00,1.657e+00,1.774e+00,2.519e+00,2.556e+00,1.824e+00,2.482e+00,2.181e+00,2.272e+00,4.060e+00,4.492e+00,2.931e+00,4.519e+00,4.677e+00,5.192e+00,6.188e+00,5.409e+00,5.667e+00,6.193e+00,5.273e+00,7.321e+00,6.963e+00,6.776e+00,7.678e+00,7.339e+00,9.018e+00,6.217e+00,7.915e+00,8.670e+00,8.706e+00,9.420e+00,1.013e+01,9.684e+00,9.246e+00,7.935e+00,1.052e+01,1.021e+01,1.012e+01,1.014e+01,9.452e+00,1.111e+01,1.207e+01,9.170e+00,1.024e+01,1.238e+01,1.277e+01,1.169e+01,1.131e+01,1.299e+01,1.574e+01,1.273e+01,1.335e+01,1.391e+01,1.503e+01,1.497e+01,1.264e+01,1.567e+01,1.742e+01,1.666e+01,1.311e+01,1.622e+01,1.646e+01,1.844e+01,1.501e+01,1.785e+01,1.923e+01,1.577e+01,2.072e+01,1.899e+01,2.027e+01,1.916e+01,1.845e+01,1.856e+01,1.903e+01,2.203e+01,2.436e+01,2.312e+01,2.290e+01,2.272e+01,2.062e+01,2.310e+01,2.057e+01,2.250e+01,2.181e+01,2.408e+01,2.095e+01,2.085e+01,2.249e+01,2.296e+01,2.369e+01,2.542e+01
3.561e-01,3.830e-01,1.019e+00,7.685e-01,1.060e+00,6.373e-01,6.546e-01,9.693e-01,1.439e+00,1.417e+00,1.427e+00,1.660e+00,8.236e-01,1.318e+00,1.957e+00,2.559e+00,1.588e+00,2.680e+00,3.404e+00,2.940e+00,3.871e+00,4.153e+00,3.615e+00,3.858e+00,3.582e+00,4.776e+00,5.595e+00,5.796e+00,5.609e+00,6.471e+00,6.887e+00,6.205e+00,6.346e+00,7.656e+00,8.114e+00,7.862e+00,8.139e+00,8.242e+00,8.134e+00,7.487e+00,9.047e+00,7.427e+00,9.844e+00,9.029e+00,9.779e+00,1.078e+01,9.447e+00,9.331e+00,1.019e+01,1.154e+01,1.057e+01,1.052e+01,1.072e+01,1.132e+01,1.450e+01,1.103e+01,1.197e+01,1.329e+01,1.318e+01,1.464e+01,1.191e+01,1.505e+01,1.614e+01,1.333e+01,1.347e+01,1.529e+01,1.641e+01,1.700e+01,1.498e+01,1.699e+01,1.666e+01,1.724e+01,1.874e+01,1.839e+01,2.005e+01,1.832e+01,1.855e+01,1.851e+01,1.830e+01,2.065e+01,2.156e+01,1.915e+01,2.189e+01,2.199e+01,2.018e+01,2.113e+01,2.175e+01,2.037e+01,1.985e+01,2.279e+01,2.214e+01,2.157e+01,2.103e+01,2.223e+01,2.260e+01,2.413e+01
3.242e-01,3.645e-01,7.821e-01,5.384e-01,8.199e-01,1.447e+00,1.393e+00,2.012e+00,2.170e+00,2.438e+00,2.517e+00,2.201e+00,2.019e+00,2.669e+00,3.479e+00,4.370e+00,2.852e+00,4.383e+00,4.831e+00,5.308e+00,6.663e+00,5.214e+00,5.078e+00,5.942e+00,5.156e+00,6.472e+00,5.893e+00,6.386e+00,8.238e+00,6.226e+00,8.050e+00,6.810e+00,7.353e+00,8.178e+00,6.820e+00,7.953e+00,8.476e+00,8.208e+00,9.188e+00,8.079e+00,9.772e+00,8.665e+00,9.737e+00,9.631e+00,1.015e+01,1.032e+01,1.198e+01,9.502e+00,1.176e+01,1.224e+01,1.334e+01,1.217e+01,1.238e+01,1.309e+01,1.571e+01,1.254e+01,1.292e+01,1.451e+01,1.335e+01,1.537e+01,1.228e+01,1.435e+01,1.391e+01,1.511e+01,1.445e+01,1.498e+01,1.508e+01,1.707e+01,1.316e+01,1.616e+01,1.751e+01,1.493e+01,1.837e+01,1.896e+01,1.706e+01,1.735e+01,1.732e+01,1.741e+01,1.653e+01,2.075e+01,2.134e+01,2.024e+01,2.048e+01,2.011e+01,1.915e+01,2.017e+01,1.877e+01,1.914e+01,2.023e+01,2.154e+01,2.068e+01,2.074e+01,2.006e+01,2.236e+01,2.225e+01,2.166e+01
2.859e-02,3.235e-02,4.279e-01,7.462e-01,1.018e+00,8.300e-01,1.141e+00,1.627e+00,2.720e+00,3.061e+00,2.605e+00,2.178e+00,1.931e+00,2.827e+00,3.759e+00,4.250e+00,2.487e+00,4.105e+00,5.209e+00,5.042e+00,6.797e+00,5.514e+00,6.379e+00,6.271e+00,6.259e+00,6.671e+00,7.129e+00,7.509e+00,8.691e+00,8.228e+00,9.969e+00,7.915e+00,8.905e+00,9.518e+00,9.185e+00,1.030e+01,1.033e+01,1.158e+01,9.150e+00,1.032e+01,1.125e+01,1.116e+01,1.269e+01,1.056e+01,1.247e+01,1.234e+01,1.326e+01,1.137e+01,1.287e+01,1.377e+01,1.388e+01,1.344e+01,1.380e+01,1.332e+01,1.789e+01,1.315e+01,1.443e+01,1.475e+01,1.695e+01,1.862e+01,1.438e+01,1.772e+01,1.888e+01,1.679e+01,1.647e+01,1.719e+01,1.693e+01,2.024e+01,1.611e+01,1.809e+01,2.062e+01,1.732e+01,2.033e+01,2.084e+01,2.061e+01,1.875e+01,2.003e+01,2.086e+01,2.020e+01,2.280e+01,2.395e+01,2.452e+01,2.316e+01,2.248e+01,2.256e+01,2.353e+01,2.316e+01,2.275e+01,2.186e+01,2.440e+01,2.316e+01,2.160e+01,2.259e+01,2.475e+01,2.533e+01,2.615e+01
