2.304e-02,7.095e-01,4.250e-01,7.165e-01,8.541e-01,8.862e-01,4.519e-02,9.378e-01,5.302e-01,8.076e-01,3.796e-01,4.987e-01,3.053e-01,1.632e-02,1.927e-01,8.107e-01,6.627e-01,7.162e-01,2.572e-01,4.834e-01,3.531e-01,4.096e-01,9.868e-01,9.636e-01,1.620e-01,1.298e-01,1.285e-01,5.550e-01,6.668e-01,4.620e-01,3.442e-01,3.573e-01,4.875e-01,5.972e-01,6.537e-01,3.149e-01,5.391e-01,5.916e-01,7.310e-01,3.654e-01,7.489e-01,7.384e-01,8.590e-01,2.980e-02,7.178e-01,8.578e-01,9.809e-01,8.775e-01,4.033e-01,6.972e-01,4.487e-01,2.732e-02,6.256e-01,5.720e-01,2.047e-01,6.957e-01,7.469e-01,3.770e-01,3.765e-01,8.956e-01,9.125e-01,5.903e-02,6.543e-01,9.630e-01,1.859e-01,8.679e-01,6.984e-01,4.904e-01,3.113e-01,5.630e-01,5.775e-02,7.742e-01,6.477e-01,1.711e-01,4.034e-02,4.108e-01,9.353e-01,5.009e-01,5.474e-01,5.997e-02,4.596e-01,9.859e-01,7.638e-01,5.545e-01,4.151e-01,5.248e-01,4.285e-01,1.447e-01,4.529e-01,5.810e-01
7.635e-03,3.241e-01,6.927e-01,9.855e-01,1.017e+00,9.050e-01,6.075e-01,1.250e+00,5.536e-01,3.037e-01,8.932e-01,8.525e-01,1.076e+00,4.610e-01,9.339e-01,2.700e-01,5.748e-01,7.126e-01,4.696e-01,3.460e-01,1.107e+00,2.737e-01,1.138e+00,8.426e-01,8.063e-01,8.812e-01,8.784e-01,8.674e-01,6.446e-01,8.788e-01,8.147e-01,2.393e-01,4.929e-01,5.016e-01,9.562e-01,4.045e-01,8.618e-01,1.161e+00,5.441e-01,9.175e-01,1.146e+00,9.703e-01,2.870e-01,4.167e-01,7.720e-01,6.481e-01,8.480e-01,1.270e+00,2.499e-01,2.731e-01,6.468e-01,9.010e-01,7.816e-01,6.339e-01,6.950e-01,9.589e-01,4.926e-01,7.924e-01,9.843e-01,8.561e-01,7.492e-01,4.365e-01,1.025e+00,1.031e+00,4.080e-01,6.031e-01,3.081e-01,6.883e-01,1.088e+00,6.550e-01,9.097e-02,5.799e-01,4.149e-01,5.670e-02,2.504e-01,1.026e+00,1.283e+00,3.768e-01,9.524e-01,9.384e-01,1.113e+00,9.826e-01,4.016e-01,6.806e-01,6.193e-01,1.076e+00,8.077e-01,1.977e-01,2.669e-01,3.553e-01
7.279e-03,2.840e-01,7.925e-01,1.091e+00,1.323e+00,1.034e+00,7.330e-01,1.044e+00,1.355e+00,5.042e-01,6.441e-01,9.131e-01,1.152e+00,1.222e+00,7.747e-01,1.059e+00,7.827e-01,1.017e+00,5.407e-01,1.122e+00,1.683e+00,7.062e-01,9.972e-01,1.546e+00,1.371e+00,1.110e+00,1.179e+00,8.777e-01,9.945e-01,1.008e+00,1.434e+00,1.167e+00,7.817e-01,4.231e-01,8.023e-01,3.364e-01,1.536e+00,1.577e+00,8.572e-01,1.080e+00,1.737e+00,1.069e+00,5.121e-01,6.357e-01,1.174e+00,1.344e+00,8.511e-01,1.078e+00,1.010e+00,9.236e-01,6.950e-01,1.424e+00,1.535e+00,1.009e+00,1.182e+00,1.560e+00,7.816e-01,6.858e-01,8.242e-01,1.044e+00,6.450e-01,5.531e-01,1.161e+00,8.841e-01,9.316e-01,1.054e+00,7.642e-01,7.002e-01,1.365e+00,1.248e+00,6.896e-01,5.321e-01,1.222e+00,7.420e-01,6.379e-01,1.609e+00,1.878e+00,4.025e-01,1.130e+00,1.284e+00,1.747e+00,1.261e+00,4.426e-01,1.402e+00,9.636e-01,1.247e+00,1.235e+00,5.243e-01,4.654e-01,5.650e-01
1.401e-02,5.088e-01,1.010e+00,1.677e+00,1.902e+00,1.550e+00,1.685e+00,2.018e+00,2.134e+00,1.378e+00,1.233e+00,1.523e+00,2.050e+00,2.152e+00,1.895e+00,1.831e+00,1.980e+00,1.304e+00,8.660e-01,2.211e+00,2.067e+00,1.744e+00,2.155e+00,2.768e+00,1.601e+00,2.075e+00,2.232e+00,1.300e+00,1.332e+00,2.261e+00,1.896e+00,2.109e+00,1.085e+00,1.341e+00,2.034e+00,1.396e+00,2.670e+00,2.798e+00,1.286e+00,2.118e+00,2.486e+00,2.341e+00,1.480e+00,1.501e+00,1.550e+00,2.473e+00,1.981e+00,1.619e+00,2.030e+00,2.088e+00,1.017e+00,2.033e+00,2.120e+00,1.985e+00,2.147e+00,2.341e+00,1.471e+00,9.223e-01,1.681e+00,1.808e+00,1.339e+00,1.193e+00,2.271e+00,1.786e+00,1.514e+00,2.152e+00,1.475e+00,1.553e+00,1.977e+00,1.533e+00,1.087e+00,1.778e+00,1.825e+00,1.539e+00,7.765e-01,2.151e+00,3.286e+00,1.221e+00,2.169e+00,1.460e+00,2.609e+00,2.390e+00,8.407e-01,2.147e+00,1.622e+00,1.830e+00,2.252e+00,1.440e+00,1.125e+00,1.174e+00
6.476e-03,2.519e-01,6.294e-01,9.351e-01,1.240e+00,1.241e+00,7.949e-01,1.934e+00,1.168e+00,5.973e-01,1.016e+00,1.028e+00,1.426e+00,1.809e+00,1.621e+00,1.806e+00,8.617e-01,1.515e+00,7.325e-01,1.966e+00,1.402e+00,8.577e-01,1.516e+00,1.955e+00,1.333e+00,1.790e+00,1.552e+00,7.583e-01,1.343e+00,1.611e+00,1.781e+00,1.451e+00,1.064e+00,7.984e-01,1.891e+00,5.260e-01,1.822e+00,1.909e+00,9.250e-01,2.008e+00,1.442e+00,1.418e+00,1.056e+00,1.136e+00,1.384e+00,1.498e+00,1.455e+00,1.127e+00,1.382e+00,9.589e-01,1.085e+00,1.332e+00,1.764e+00,1.853e+00,1.133e+00,1.314e+00,9.960e-01,1.410e+00,1.542e+00,1.694e+00,1.232e+00,1.112e+00,1.414e+00,1.552e+00,8.100e-01,1.839e+00,1.191e+00,1.473e+00,1.422e+00,9.873e-01,8.474e-01,1.354e+00,1.304e+00,1.052e+00,5.912e-01,1.754e+00,2.543e+00,5.045e-01,1.663e+00,1.639e+00,2.361e+00,1.362e+00,1.326e+00,1.489e+00,1.569e+00,2.010e+00,1.475e+00,1.484e+00,1.454e+00,6.091e-01
2.059e-02,6.684e-01,6.224e-01,1.005e+00,1.211e+00,2.191e+00,8.269e-01,1.937e+00,1.181e+00,1.186e+00,1.110e+00,1.724e+00,1.089e+00,9.542e-01,1.983e+00,1.700e+00,1.728e+00,1.652e+00,1.406e+00,1.291e+00,9.903e-01,1.033e+00,2.208e+00,1.668e+00,1.541e+00,1.102e+00,1.754e+00,1.501e+00,1.697e+00,1.386e+00,1.153e+00,1.508e+00,1.472e+00,1.450e+00,2.230e+00,7.996e-01,2.113e+00,2.251e+00,9.517e-01,2.199e+00,1.766e+00,2.022e+00,1.784e+00,1.485e+00,1.254e+00,2.052e+00,2.325e+00,1.614e+00,1.043e+00,1.689e+00,9.490e-01,9.603e-01,1.230e+00,1.760e+00,1.199e+00,1.823e+00,1.068e+00,1.829e+00,1.245e+00,2.066e+00,1.911e+00,9.558e-01,2.039e+00,1.697e+00,9.783e-01,2.482e+00,1.477e+00,1.208e+00,1.638e+00,1.590e+00,1.278e+00,1.562e+00,1.437e+00,9.993e-01,3.842e-01,2.058e+00,2.762e+00,8.196e-01,1.946e+00,1.403e+00,1.438e+00,1.535e+00,2.046e+00,1.056e+00,1.444e+00,2.096e+00,1.171e+00,1.456e+00,1.051e+00,1.445e+00
6.813e-03,2.381e-01,3.436e-01,5.089e-01,6.132e-01,1.330e+00,1.424e+00,1.546e+00,1.230e+00,1.347e+00,1.093e+00,2.081e+00,1.332e+00,6.477e-01,2.212e+00,1.210e+00,1.578e+00,1.952e+00,1.771e+00,9.793e-01,7.368e-01,1.369e+00,1.233e+00,1.188e+00,1.178e+00,9.813e-01,2.023e+00,9.968e-01,1.225e+00,1.293e+00,8.171e-01,1.130e+00,1.038e+00,1.250e+00,2.000e+00,9.906e-01,2.059e+00,2.235e+00,4.425e-01,1.761e+00,1.514e+00,1.791e+00,1.726e+00,1.142e+00,1.285e+00,1.628e+00,1.614e+00,1.097e+00,6.793e-01,1.796e+00,8.108e-01,8.717e-01,8.506e-01,1.835e+00,1.017e+00,2.030e+00,1.409e+00,1.612e+00,1.112e+00,1.462e+00,1.665e+00,9.284e-01,1.524e+00,9.765e-01,1.171e+00,2.328e+00,1.257e+00,1.009e+00,1.986e+00,1.072e+00,1.693e+00,8.379e-01,1.521e+00,8.342e-01,5.557e-01,1.992e+00,2.079e+00,9.842e-01,1.343e+00,1.883e+00,1.588e+00,9.927e-01,1.475e+00,5.793e-01,1.831e+00,2.112e+00,1.564e+00,1.597e+00,1.010e+00,1.558e+00
1.693e-02,5.746e-01,8.647e-01,1.362e+00,1.683e+00,1.957e+00,1.230e+00,2.243e+00,2.781e+00,1.321e+00,1.838e+00,1.994e+00,1.754e+00,2.580e+00,2.771e+00,3.019e+00,2.205e+00,1.923e+00,1.508e+00,2.870e+00,2.057e+00,1.481e+00,2.238e+00,3.139e+00,1.954e+00,1.985e+00,3.032e+00,1.784e+00,2.673e+00,2.319e+00,2.210e+00,2.855e+00,2.382e+00,1.920e+00,3.042e+00,1.270e+00,2.791e+00,2.897e+00,2.026e+00,2.803e+00,2.694e+00,3.057e+00,1.838e+00,2.253e+00,2.051e+00,2.629e+00,3.183e+00,2.201e+00,2.680e+00,2.566e+00,1.400e+00,2.342e+00,2.892e+00,2.382e+00,2.688e+00,2.322e+00,1.604e+00,1.762e+00,1.994e+00,2.738e+00,1.990e+00,1.630e+00,2.856e+00,2.497e+00,1.395e+00,2.660e+00,1.770e+00,1.755e+00,2.030e+00,2.150e+00,1.858e+00,2.685e+00,2.461e+00,1.617e+00,1.527e+00,2.801e+00,3.773e+00,1.868e+00,2.818e+00,2.793e+00,3.416e+00,2.063e+00,2.631e+00,2.676e+00,2.203e+00,2.898e+00,2.006e+00,2.315e+00,1.598e+00,2.209e+00
1.350e-02,4.567e-01,5.887e-01,9.590e-01,1.138e+00,1.444e+00,1.453e+00,2.028e+00,3.231e+00,1.903e+00,1.960e+00,2.705e+00,1.689e+00,2.257e+00,3.057e+00,2.741e+00,2.370e+00,2.643e+00,1.855e+00,3.060e+00,2.044e+00,2.273e+00,2.097e+00,2.447e+00,1.510e+00,2.357e+00,3.109e+00,1.809e+00,2.845e+00,2.932e+00,2.027e+00,2.165e+00,2.672e+00,2.474e+00,2.831e+00,2.065e+00,3.213e+00,3.421e+00,1.654e+00,3.065e+00,2.301e+00,2.772e+00,1.957e+00,2.494e+00,2.300e+00,2.285e+00,3.170e+00,2.577e+00,2.713e+00,2.838e+00,1.453e+00,2.038e+00,2.578e+00,2.464e+00,2.450e+00,2.442e+00,1.923e+00,2.487e+00,2.437e+00,3.027e+00,2.162e+00,1.621e+00,2.748e+00,2.355e+00,2.237e+00,3.142e+00,2.471e+00,2.090e+00,2.218e+00,2.422e+00,2.216e+00,3.025e+00,2.612e+00,1.209e+00,1.838e+00,3.153e+00,3.851e+00,2.667e+00,2.173e+00,3.447e+00,3.412e+00,2.401e+00,2.339e+00,2.628e+00,2.635e+00,2.949e+00,2.180e+00,2.185e+00,1.570e+00,2.691e+00
1.032e-02,4.029e-01,7.966e-01,1.328e+00,1.438e+00,1.601e+00,1.773e+00,2.246e+00,2.789e+00,1.932e+00,2.390e+00,2.909e+00,2.952e+00,2.815e+00,3.782e+00,2.471e+00,3.139e+00,2.646e+00,2.283e+00,2.760e+00,2.294e+00,2.485e+00,3.226e+00,3.058e+00,2.578e+00,2.915e+00,3.728e+00,2.437e+00,2.729e+00,3.101e+00,2.217e+00,2.055e+00,2.590e+00,2.820e+00,2.924e+00,2.357e+00,3.924e+00,4.174e+00,1.898e+00,3.325e+00,2.829e+00,3.735e+00,2.588e+00,2.677e+00,2.144e+00,3.144e+00,3.627e+00,2.701e+00,2.444e+00,2.736e+00,1.764e+00,2.436e+00,2.481e+00,2.396e+00,3.156e+00,2.822e+00,1.734e+00,2.451e+00,2.709e+00,2.913e+00,2.227e+00,2.522e+00,3.773e+00,3.273e+00,2.479e+00,3.100e+00,2.928e+00,2.627e+00,2.884e+00,2.533e+00,1.909e+00,3.299e+00,2.838e+00,2.169e+00,2.333e+00,3.623e+00,4.407e+00,3.098e+00,2.423e+00,3.374e+00,3.862e+00,2.590e+00,1.890e+00,3.021e+00,3.106e+00,2.719e+00,2.725e+00,2.247e+00,2.107e+00,2.627e+00
1.909e-02,6.443e-01,7.990e-01,1.379e+00,1.644e+00,2.499e+00,2.239e+00,3.170e+00,2.987e+00,2.452e+00,2.444e+00,4.017e+00,3.038e+00,3.180e+00,4.591e+00,3.623e+00,3.197e+00,4.080e+00,3.301e+00,3.431e+00,2.780e+00,3.579e+00,3.935e+00,3.584e+00,2.259e+00,3.109e+00,3.991e+00,2.266e+00,3.056e+00,3.504e+00,3.287e+00,3.077e+00,3.454e+00,3.721e+00,4.470e+00,3.217e+00,4.896e+00,4.581e+00,1.744e+00,4.662e+00,3.366e+00,3.686e+00,3.860e+00,3.367e+00,3.460e+00,3.458e+00,3.957e+00,3.233e+00,3.044e+00,3.694e+00,1.899e+00,3.102e+00,3.092e+00,4.394e+00,3.193e+00,3.764e+00,2.796e+00,3.954e+00,3.267e+00,4.263e+00,4.011e+00,2.922e+00,4.059e+00,3.814e+00,3.179e+00,4.922e+00,2.956e+00,2.957e+00,3.722e+00,2.527e+00,3.474e+00,3.269e+00,3.596e+00,2.726e+00,1.941e+00,4.033e+00,5.571e+00,3.382e+00,3.472e+00,4.313e+00,4.242e+00,3.806e+00,3.620e+00,3.344e+00,3.656e+00,4.106e+00,3.595e+00,3.585e+00,2.903e+00,3.825e+00
1.514e-02,5.214e-01,6.868e-01,1.052e+00,1.253e+00,2.153e+00,1.180e+00,2.108e+00,2.558e+00,1.775e+00,2.225e+00,3.300e+00,2.513e+00,3.454e+00,3.757e+00,3.697e+00,3.100e+00,3.107e+00,3.433e+00,3.073e+00,2.912e+00,2.718e+00,3.553e+00,3.161e+00,3.770e+00,3.211e+00,4.467e+00,2.887e+00,3.664e+00,2.815e+00,2.402e+00,2.890e+00,4.050e+00,3.533e+00,3.272e+00,2.783e+00,4.807e+00,4.712e+00,2.334e+00,4.256e+00,3.699e+00,4.033e+00,2.829e+00,3.701e+00,3.142e+00,4.008e+00,4.431e+00,2.904e+00,2.819e+00,2.768e+00,1.786e+00,2.320e+00,2.517e+00,2.694e+00,3.740e+00,3.416e+00,2.187e+00,3.829e+00,3.180e+00,3.633e+00,2.734e+00,2.733e+00,4.241e+00,3.385e+00,3.319e+00,3.500e+00,3.147e+00,3.268e+00,3.386e+00,3.633e+00,2.908e+00,3.525e+00,3.006e+00,2.887e+00,2.975e+00,4.416e+00,4.924e+00,3.099e+00,3.011e+00,4.347e+00,4.391e+00,2.648e+00,3.348e+00,3.074e+00,3.528e+00,3.245e+00,2.666e+00,2.365e+00,2.368e+00,3.082e+00
1.350e-02,4.855e-01,7.684e-01,1.153e+00,1.284e+00,1.693e+00,1.029e+00,1.631e+00,2.635e+00,1.408e+00,1.983e+00,3.209e+00,2.514e+00,4.256e+00,3.919e+00,3.989e+00,2.759e+00,3.160e+00,3.757e+00,3.058e+00,3.676e+00,3.661e+00,4.095e+00,3.655e+00,3.990e+00,4.055e+00,4.405e+00,2.745e+00,3.551e+00,3.264e+00,2.944e+00,3.246e+00,4.579e+00,4.001e+00,3.617e+00,3.378e+00,5.045e+00,4.922e+00,2.436e+00,4.065e+00,4.615e+00,3.280e+00,2.953e+00,3.641e+00,4.235e+00,3.683e+00,4.382e+00,3.992e+00,3.478e+00,3.224e+00,2.179e+00,3.720e+00,3.382e+00,3.256e+00,3.825e+00,3.727e+00,2.901e+00,3.988e+00,3.447e+00,4.410e+00,3.352e+00,3.329e+00,4.335e+00,4.081e+00,3.642e+00,3.403e+00,3.249e+00,3.337e+00,3.483e+00,4.177e+00,3.760e+00,3.237e+00,2.968e+00,2.706e+00,2.912e+00,4.130e+00,5.007e+00,3.793e+00,3.707e+00,4.530e+00,4.463e+00,3.739e+00,3.442e+00,4.119e+00,3.675e+00,3.078e+00,3.314e+00,2.733e+00,2.238e+00,3.656e+00
1.737e-02,5.857e-01,6.857e-01,1.226e+00,1.483e+00,1.704e+00,1.857e+00,3.062e+00,2.710e+00,2.313e+00,2.711e+00,3.570e+00,3.659e+00,4.860e+00,5.854e+00,5.463e+00,4.396e+00,4.384e+00,5.033e+00,4.550e+00,3.884e+00,4.494e+00,4.912e+00,5.669e+00,3.980e+00,5.465e+00,5.953e+00,2.433e+00,3.663e+00,4.226e+00,4.033e+00,3.743e+00,4.638e+00,5.286e+00,5.612e+00,3.790e+00,5.474e+00,6.336e+00,2.937e+00,5.122e+00,5.184e+00,5.115e+00,4.510e+00,4.185e+00,5.031e+00,5.161e+00,5.633e+00,4.392e+00,4.398e+00,3.890e+00,2.786e+00,4.083e+00,3.704e+00,4.929e+00,4.522e+00,4.109e+00,4.339e+00,4.225e+00,4.124e+00,5.467e+00,4.986e+00,4.878e+00,5.609e+00,5.695e+00,3.363e+00,4.819e+00,4.759e+00,4.923e+00,4.640e+00,3.605e+00,4.622e+00,4.915e+00,4.620e+00,4.454e+00,3.283e+00,4.445e+00,6.022e+00,5.231e+00,4.819e+00,4.840e+00,6.581e+00,3.930e+00,4.788e+00,4.958e+00,5.274e+00,4.784e+00,4.564e+00,4.778e+00,4.536e+00,4.172e+00
3.816e-03,1.569e-01,3.883e-01,6.279e-01,7.085e-01,1.122e+00,1.393e+00,1.403e+00,2.381e+00,1.415e+00,1.896e+00,2.730e+00,2.282e+00,3.328e+00,4.650e+00,3.740e+00,3.696e+00,3.500e+00,4.198e+00,3.198e+00,3.259e+00,3.367e+00,3.688e+00,4.060e+00,3.795e+00,4.211e+00,5.615e+00,2.957e+00,3.618e+00,3.154e+00,3.302e+00,3.443e+00,4.041e+00,4.762e+00,4.136e+00,3.165e+00,4.403e+00,5.282e+00,2.869e+00,4.442e+00,4.833e+00,4.680e+00,3.552e+00,4.259e+00,3.773e+00,3.719e+00,4.162e+00,3.749e+00,3.858e+00,3.387e+00,2.020e+00,4.215e+00,3.436e+00,3.771e+00,4.562e+00,4.002e+00,3.265e+00,3.532e+00,3.018e+00,4.122e+00,4.375e+00,4.391e+00,4.898e+00,3.840e+00,2.504e+00,3.907e+00,3.714e+00,3.482e+00,4.360e+00,3.304e+00,4.137e+00,3.521e+00,3.755e+00,4.061e+00,3.116e+00,4.217e+00,4.763e+00,4.441e+00,4.424e+00,4.427e+00,4.957e+00,3.261e+00,4.122e+00,4.688e+00,4.581e+00,4.109e+00,3.820e+00,3.578e+00,3.552e+00,3.965e+00
2.291e-02,7.299e-01,6.196e-01,1.117e+00,1.283e+00,1.555e+00,1.556e+00,2.157e+00,2.731e+00,2.213e+00,2.147e+00,2.866e+00,2.316e+00,2.435e+00,3.739e+00,3.739e+00,3.909e+00,3.725e+00,3.898e+00,3.927e+00,3.320e+00,3.517e+00,4.258e+00,4.455e+00,2.994e+00,3.109e+00,4.946e+00,3.203e+00,3.517e+00,3.379e+00,3.005e+00,3.166e+00,3.801e+00,4.336e+00,4.287e+00,3.323e+00,4.179e+00,4.885e+00,2.991e+00,4.406e+00,4.385e+00,5.152e+00,4.016e+00,3.775e+00,3.873e+00,3.680e+00,4.773e+00,3.066e+00,3.991e+00,3.527e+00,2.284e+00,2.926e+00,3.250e+00,3.900e+00,4.253e+00,4.409e+00,3.354e+00,3.365e+00,2.733e+00,3.651e+00,4.379e+00,3.242e+00,4.177e+00,4.071e+00,2.576e+00,4.215e+00,3.697e+00,3.630e+00,3.802e+00,2.880e+00,3.618e+00,3.587e+00,3.644e+00,3.270e+00,2.769e+00,4.007e+00,4.434e+00,3.966e+00,4.008e+00,4.222e+00,4.813e+00,3.178e+00,3.608e+00,3.891e+00,4.127e+00,3.617e+00,3.977e+00,3.035e+00,3.467e+00,4.073e+00
1.862e-02,5.886e-01,5.250e-01,8.946e-01,1.097e+00,1.258e+00,7.676e-01,1.539e+00,2.401e+00,1.662e+00,1.421e+00,2.223e+00,1.611e+00,2.714e+00,2.847e+00,3.566e+00,3.315e+00,3.452e+00,4.190e+00,4.561e+00,3.806e+00,4.060e+00,4.315e+00,4.523e+00,3.343e+00,4.092e+00,5.104e+00,2.935e+00,3.707e+00,4.303e+00,3.271e+00,3.724e+00,4.818e+00,4.098e+00,3.307e+00,3.116e+00,4.994e+00,4.891e+00,2.884e+00,4.734e+00,4.629e+00,4.042e+00,4.076e+00,4.398e+00,4.453e+00,3.891e+00,4.322e+00,4.095e+00,4.630e+00,3.429e+00,2.473e+00,3.103e+00,3.838e+00,4.209e+00,4.552e+00,4.647e+00,3.483e+00,3.728e+00,3.519e+00,3.929e+00,4.375e+00,3.633e+00,3.785e+00,3.815e+00,2.904e+00,4.048e+00,4.697e+00,4.493e+00,3.691e+00,3.603e+00,3.998e+00,3.829e+00,3.724e+00,3.193e+00,2.970e+00,4.645e+00,5.023e+00,4.313e+00,4.268e+00,4.420e+00,5.070e+00,4.466e+00,3.808e+00,4.314e+00,4.170e+00,3.427e+00,3.845e+00,2.537e+00,3.328e+00,3.677e+00
1.040e-02,3.841e-01,8.205e-01,1.289e+00,1.547e+00,2.183e+00,1.880e+00,2.281e+00,2.606e+00,1.948e+00,2.102e+00,3.313e+00,3.164e+00,4.147e+00,4.804e+00,4.642e+00,4.799e+00,4.769e+00,6.270e+00,5.035e+00,5.180e+00,5.683e+00,5.863e+00,6.613e+00,5.765e+00,6.018e+00,7.134e+00,3.980e+00,4.255e+00,4.834e+00,4.333e+00,5.390e+00,5.472e+00,4.998e+00,5.445e+00,4.238e+00,7.237e+00,7.000e+00,3.280e+00,6.402e+00,6.943e+00,6.573e+00,5.070e+00,6.146e+00,5.486e+00,6.234e+00,6.074e+00,4.658e+00,4.821e+00,4.125e+00,3.248e+00,4.470e+00,3.774e+00,5.365e+00,6.036e+00,6.447e+00,5.002e+00,5.186e+00,4.533e+00,5.238e+00,5.675e+00,4.903e+00,5.827e+00,5.167e+00,3.963e+00,5.397e+00,6.097e+00,6.100e+00,6.022e+00,5.513e+00,5.851e+00,4.684e+00,5.230e+00,5.028e+00,4.414e+00,6.273e+00,6.318e+00,4.816e+00,6.338e+00,5.793e+00,6.924e+00,4.982e+00,5.093e+00,5.016e+00,5.322e+00,5.516e+00,5.187e+00,4.153e+00,3.910e+00,4.206e+00
1.623e-02,5.626e-01,7.674e-01,1.190e+00,1.414e+00,2.019e+00,1.813e+00,2.680e+00,2.542e+00,2.040e+00,2.454e+00,3.344e+00,2.875e+00,2.971e+00,4.307e+00,3.995e+00,3.976e+00,4.006e+00,5.395e+00,5.092e+00,4.539e+00,4.689e+00,5.046e+00,5.325e+00,4.291e+00,4.067e+00,6.238e+00,3.391e+00,3.997e+00,4.281e+00,3.757e+00,4.644e+00,5.300e+00,4.462e+00,5.358e+00,3.727e+00,6.193e+00,5.558e+00,2.819e+00,5.027e+00,5.577e+00,5.892e+00,5.209e+00,5.027e+00,5.191e+00,4.770e+00,5.817e+00,4.041e+00,4.399e+00,4.486e+00,3.888e+00,3.367e+00,4.356e+00,5.002e+00,4.846e+00,5.302e+00,3.979e+00,4.890e+00,3.994e+00,4.914e+00,5.549e+00,4.021e+00,5.265e+00,4.723e+00,3.582e+00,4.981e+00,4.444e+00,5.568e+00,4.700e+00,4.255e+00,4.838e+00,3.962e+00,5.041e+00,3.426e+00,4.017e+00,5.218e+00,5.194e+00,4.943e+00,5.237e+00,5.846e+00,6.435e+00,4.094e+00,4.852e+00,3.407e+00,5.312e+00,4.828e+00,4.391e+00,4.294e+00,3.401e+00,4.248e+00
1.574e-02,5.029e-01,6.763e-01,1.133e+00,1.469e+00,2.108e+00,1.737e+00,2.167e+00,2.656e+00,2.121e+00,1.723e+00,3.155e+00,2.648e+00,3.276e+00,3.873e+00,4.061e+00,4.054e+00,4.625e+00,5.141e+00,6.217e+00,5.549e+00,6.246e+00,6.005e+00,5.821e+00,5.455e+00,5.097e+00,7.050e+00,4.244e+00,5.247e+00,5.182e+00,4.725e+00,5.450e+00,6.129e+00,5.683e+00,5.203e+00,4.498e+00,7.544e+00,6.666e+00,3.792e+00,6.229e+00,6.231e+00,6.787e+00,6.296e+00,6.337e+00,5.886e+00,5.783e+00,5.769e+00,4.437e+00,5.615e+00,5.308e+00,4.306e+00,5.101e+00,5.578e+00,5.926e+00,6.124e+00,6.849e+00,4.222e+00,5.362e+00,4.664e+00,5.436e+00,6.090e+00,5.603e+00,5.690e+00,4.468e+00,4.743e+00,6.669e+00,5.405e+00,6.403e+00,6.182e+00,4.658e+00,5.402e+00,3.971e+00,5.791e+00,4.764e+00,4.168e+00,5.838e+00,6.412e+00,5.205e+00,6.302e+00,5.816e+00,6.953e+00,5.604e+00,5.634e+00,5.461e+00,6.183e+00,5.116e+00,5.910e+00,4.559e+00,4.973e+00,4.697e+00
8.776e-04,6.817e-02,5.231e-01,7.376e-01,9.550e-01,9.158e-01,1.568e+00,1.527e+00,3.131e+00,1.657e+00,2.158e+00,2.923e+00,2.760e+00,3.724e+00,4.105e+00,3.755e+00,3.256e+00,3.888e+00,4.123e+00,4.688e+00,4.483e+00,5.634e+00,3.850e+00,5.859e+00,5.157e+00,4.705e+00,6.510e+00,3.365e+00,4.771e+00,4.496e+00,4.568e+00,5.215e+00,5.258e+00,5.214e+00,4.677e+00,4.034e+00,6.356e+00,5.936e+00,3.798e+00,4.337e+00,5.404e+00,6.082e+00,4.535e+00,5.519e+00,4.707e+00,5.176e+00,5.738e+00,4.246e+00,4.562e+00,4.663e+00,3.892e+00,4.930e+00,5.492e+00,4.221e+00,5.305e+00,4.892e+00,4.336e+00,5.058e+00,4.971e+00,5.552e+00,5.059e+00,4.924e+00,5.973e+00,4.801e+00,3.992e+00,5.400e+00,4.743e+00,5.838e+00,5.616e+00,4.703e+00,5.199e+00,4.307e+00,5.710e+00,4.177e+00,5.444e+00,5.830e+00,5.870e+00,5.702e+00,5.504e+00,5.736e+00,7.382e+00,4.772e+00,4.682e+00,5.504e+00,6.137e+00,5.297e+00,4.738e+00,4.140e+00,3.696e+00,4.604e+00
1.418e-02,4.811e-01,8.233e-01,1.399e+00,1.758e+00,2.305e+00,2.474e+00,2.975e+00,4.253e+00,2.866e+00,2.930e+00,4.296e+00,3.814e+00,5.002e+00,5.930e+00,5.518e+00,5.215e+00,4.966e+00,5.881e+00,6.626e+00,5.394e+00,7.548e+00,6.808e+00,8.469e+00,6.453e+00,6.356e+00,9.040e+00,4.326e+00,6.164e+00,7.149e+00,6.303e+00,6.551e+00,7.301e+00,7.186e+00,6.503e+00,4.916e+00,8.937e+00,8.535e+00,4.063e+00,6.614e+00,7.319e+00,7.530e+00,6.989e+00,6.744e+00,6.263e+00,8.006e+00,7.893e+00,5.492e+00,6.996e+00,7.150e+00,4.895e+00,5.987e+00,7.238e+00,6.661e+00,6.556e+00,6.715e+00,5.830e+00,6.064e+00,6.189e+00,7.243e+00,6.582e+00,5.882e+00,6.892e+00,7.299e+00,5.101e+00,8.196e+00,7.002e+00,7.331e+00,7.201e+00,5.986e+00,7.743e+00,5.920e+00,7.350e+00,5.086e+00,5.599e+00,7.685e+00,8.617e+00,6.975e+00,7.745e+00,7.167e+00,9.351e+00,6.896e+00,6.078e+00,7.139e+00,7.852e+00,6.742e+00,7.010e+00,6.090e+00,5.703e+00,6.986e+00
1.131e-03,3.512e-02,2.924e-02,2.801e-01,3.432e-01,1.321e+00,1.475e+00,1.431e+00,2.160e+00,1.710e+00,1.493e+00,2.691e+00,1.947e+00,3.655e+00,4.480e+00,4.189e+00,4.411e+00,4.265e+00,5.962e+00,5.655e+00,4.584e+00,6.720e+00,7.250e+00,6.957e+00,5.627e+00,7.268e+00,7.809e+00,4.138e+00,5.323e+00,6.730e+00,5.250e+00,5.662e+00,7.119e+00,6.429e+00,6.175e+00,5.596e+00,7.611e+00,7.084e+00,3.129e+00,7.121e+00,6.651e+00,7.294e+00,6.076e+00,8.179e+00,5.455e+00,6.573e+00,6.304e+00,5.161e+00,6.596e+00,5.127e+00,4.004e+00,5.129e+00,4.725e+00,6.080e+00,6.596e+00,6.360e+00,5.404e+00,6.166e+00,5.977e+00,6.427e+00,6.882e+00,5.847e+00,6.278e+00,5.648e+00,4.478e+00,6.876e+00,7.254e+00,7.169e+00,6.810e+00,5.472e+00,7.441e+00,5.120e+00,5.519e+00,5.193e+00,4.922e+00,6.623e+00,6.966e+00,5.540e+00,7.881e+00,6.740e+00,6.783e+00,5.905e+00,6.034e+00,5.896e+00,6.802e+00,6.383e+00,6.497e+00,5.324e+00,4.801e+00,5.684e+00
6.813e-03,2.473e-01,4.284e-01,6.973e-01,8.923e-01,1.575e+00,1.150e+00,1.914e+00,1.975e+00,1.343e+00,2.112e+00,2.928e+00,2.845e+00,4.444e+00,5.268e+00,4.985e+00,4.206e+00,4.975e+00,5.982e+00,5.098e+00,5.221e+00,6.288e+00,6.611e+00,7.950e+00,7.235e+00,7.194e+00,8.035e+00,4.940e+00,6.021e+00,5.965e+00,5.559e+00,5.955e+00,7.431e+00,6.883e+00,6.584e+00,5.387e+00,7.756e+00,8.136e+00,4.745e+00,7.261e+00,8.022e+00,7.982e+00,6.100e+00,7.189e+00,6.319e+00,6.876e+00,7.077e+00,6.181e+00,6.045e+00,4.690e+00,4.342e+00,6.564e+00,5.820e+00,6.461e+00,6.467e+00,6.748e+00,5.615e+00,7.195e+00,6.087e+00,6.791e+00,7.810e+00,6.643e+00,7.200e+00,7.146e+00,4.873e+00,7.056e+00,6.211e+00,7.747e+00,7.501e+00,6.007e+00,6.980e+00,5.362e+00,5.992e+00,6.427e+00,5.430e+00,6.714e+00,7.697e+00,6.870e+00,7.700e+00,6.544e+00,8.459e+00,6.503e+00,7.347e+00,7.251e+00,7.160e+00,6.879e+00,6.086e+00,6.010e+00,5.683e+00,5.423e+00
1.760e-02,5.822e-01,7.566e-01,1.167e+00,1.415e+00,1.803e+00,1.146e+00,1.784e+00,2.181e+00,1.545e+00,1.685e+00,2.744e+00,2.382e+00,3.047e+00,3.578e+00,3.549e+00,3.287e+00,3.785e+00,4.518e+00,3.941e+00,4.244e+00,5.223e+00,5.974e+00,7.205e+00,5.809e+00,6.385e+00,7.085e+00,4.678e+00,6.050e+00,5.951e+00,6.264e+00,5.680e+00,7.497e+00,6.028e+00,5.477e+00,4.538e+00,7.833e+00,6.589e+00,4.578e+00,5.585e+00,7.207e+00,7.320e+00,6.469e+00,6.098e+00,5.423e+00,6.797e+00,5.813e+00,6.904e+00,6.218e+00,5.281e+00,3.960e+00,5.698e+00,6.580e+00,6.037e+00,5.989e+00,6.452e+00,5.447e+00,5.807e+00,5.681e+00,6.604e+00,7.646e+00,5.889e+00,6.916e+00,6.840e+00,5.026e+00,7.051e+00,5.456e+00,6.645e+00,6.861e+00,6.000e+00,6.821e+00,4.612e+00,6.532e+00,5.220e+00,5.409e+00,6.452e+00,7.888e+00,6.947e+00,7.180e+00,6.190e+00,7.955e+00,7.818e+00,6.141e+00,6.707e+00,6.563e+00,6.513e+00,5.581e+00,5.534e+00,4.689e+00,5.949e+00
2.690e-03,1.484e-01,6.171e-01,9.515e-01,1.086e+00,1.349e+00,1.294e+00,1.468e+00,1.645e+00,1.063e+00,1.532e+00,2.115e+00,2.379e+00,2.474e+00,3.110e+00,2.320e+00,2.987e+00,2.762e+00,3.812e+00,4.109e+00,4.182e+00,4.629e+00,5.439e+00,5.217e+00,4.829e+00,5.219e+00,6.376e+00,3.854e+00,4.706e+00,5.611e+00,4.761e+00,4.639e+00,5.753e+00,4.525e+00,4.766e+00,3.367e+00,6.077e+00,5.599e+00,2.976e+00,4.850e+00,5.798e+00,5.848e+00,5.474e+00,5.378e+00,4.580e+00,5.774e+00,5.258e+00,4.351e+00,4.783e+00,3.978e+00,4.467e+00,4.788e+00,5.544e+00,4.557e+00,5.528e+00,5.826e+00,3.385e+00,4.390e+00,4.865e+00,4.545e+00,4.527e+00,5.411e+00,4.620e+00,5.394e+00,4.506e+00,5.221e+00,4.953e+00,6.142e+00,6.361e+00,4.701e+00,5.608e+00,3.045e+00,4.547e+00,4.036e+00,4.102e+00,5.425e+00,5.488e+00,4.721e+00,6.036e+00,5.883e+00,5.942e+00,4.457e+00,4.696e+00,5.536e+00,5.930e+00,5.082e+00,5.131e+00,4.738e+00,4.641e+00,4.272e+00
3.114e-04,3.469e-02,3.015e-01,5.430e-01,7.205e-01,1.140e+00,1.499e+00,1.668e+00,2.159e+00,1.423e+00,1.734e+00,2.651e+00,2.449e+00,3.851e+00,3.760e+00,3.809e+00,2.992e+00,3.978e+00,4.618e+00,5.391e+00,4.813e+00,6.751e+00,5.474e+00,7.195e+00,6.406e+00,6.577e+00,8.471e+00,4.782e+00,6.918e+00,6.917e+00,6.171e+00,8.239e+00,7.940e+00,6.942e+00,6.594e+00,6.126e+00,9.227e+00,7.127e+00,4.965e+00,7.501e+00,8.354e+00,8.638e+00,6.852e+00,8.106e+00,6.142e+00,7.621e+00,7.224e+00,6.218e+00,6.690e+00,6.267e+00,5.888e+00,6.632e+00,7.752e+00,7.049e+00,7.596e+00,7.425e+00,6.287e+00,7.361e+00,7.899e+00,6.690e+00,7.639e+00,6.344e+00,7.438e+00,6.681e+00,6.011e+00,7.749e+00,5.632e+00,9.221e+00,8.017e+00,6.839e+00,7.923e+00,5.194e+00,6.444e+00,6.706e+00,7.300e+00,7.625e+00,8.003e+00,7.453e+00,8.688e+00,7.660e+00,9.202e+00,7.678e+00,7.426e+00,7.193e+00,8.270e+00,7.911e+00,5.993e+00,7.105e+00,6.165e+00,5.733e+00
2.043e-02,6.457e-01,6.624e-01,1.243e+00,1.559e+00,2.215e+00,2.186e+00,2.820e+00,3.219e+00,2.663e+00,2.314e+00,3.686e+00,3.178e+00,4.632e+00,5.114e+00,5.544e+00,4.556e+00,4.542e+00,5.370e+00,5.929e+00,5.040e+00,7.022e+00,6.079e+00,7.525e+00,6.317e+00,6.690e+00,8.794e+00,4.864e+00,7.458e+00,7.016e+00,7.331e+00,8.108e+00,7.529e+00,8.255e+00,8.392e+00,5.805e+00,8.773e+00,8.398e+00,5.704e+00,7.784e+00,8.106e+00,8.922e+00,8.322e+00,7.408e+00,6.817e+00,9.222e+00,9.374e+00,6.337e+00,7.615e+00,7.795e+00,5.569e+00,6.599e+00,7.450e+00,7.534e+00,8.009e+00,7.741e+00,7.631e+00,7.022e+00,7.488e+00,8.087e+00,7.590e+00,7.380e+00,8.687e+00,7.754e+00,6.913e+00,8.584e+00,6.465e+00,8.678e+00,7.836e+00,7.477e+00,9.288e+00,6.081e+00,7.059e+00,6.936e+00,6.850e+00,8.017e+00,8.574e+00,7.551e+00,9.525e+00,7.542e+00,9.586e+00,7.476e+00,7.364e+00,7.804e+00,8.329e+00,8.463e+00,6.462e+00,8.314e+00,6.721e+00,6.765e+00
1.846e-02,6.015e-01,5.611e-01,9.823e-01,1.136e+00,1.392e+00,1.597e+00,2.248e+00,1.906e+00,2.020e+00,1.788e+00,2.589e+00,2.429e+00,2.750e+00,3.940e+00,3.614e+00,3.492e+00,3.674e+00,4.320e+00,4.126e+00,3.673e+00,5.826e+00,5.646e+00,6.998e+00,5.704e+00,6.484e+00,8.012e+00,4.408e+00,7.068e+00,7.107e+00,6.700e+00,6.218e+00,7.167e+00,7.794e+00,7.227e+00,5.698e+00,7.567e+00,7.888e+00,5.382e+00,6.778e+00,8.299e+00,8.576e+00,8.024e+00,6.476e+00,6.043e+00,8.829e+00,7.507e+00,6.717e+00,6.622e+00,6.209e+00,5.979e+00,6.366e+00,7.158e+00,6.660e+00,7.224e+00,8.032e+00,7.614e+00,6.372e+00,7.591e+00,7.042e+00,7.157e+00,7.528e+00,7.738e+00,7.184e+00,5.231e+00,7.651e+00,6.476e+00,8.163e+00,8.831e+00,6.440e+00,7.818e+00,5.276e+00,6.629e+00,6.631e+00,5.859e+00,7.268e+00,7.798e+00,6.616e+00,9.375e+00,6.976e+00,8.691e+00,7.727e+00,7.464e+00,8.071e+00,8.758e+00,8.196e+00,6.528e+00,7.376e+00,7.372e+00,6.551e+00
4.112e-03,2.034e-01,8.016e-01,1.195e+00,1.403e+00,1.400e+00,1.387e+00,1.665e+00,2.002e+00,9.682e-01,1.338e+00,1.933e+00,2.183e+00,3.366e+00,3.211e+00,3.240e+00,2.688e+00,2.577e+00,3.346e+00,3.428e+00,3.937e+00,3.971e+00,4.187e+00,5.368e+00,4.955e+00,5.364e+00,5.838e+00,3.484e+00,5.130e+00,4.890e+00,6.822e+00,4.982e+00,5.427e+00,6.147e+00,5.519e+00,4.620e+00,7.240e+00,6.658e+00,4.592e+00,6.606e+00,7.509e+00,6.215e+00,6.092e+00,5.278e+00,5.468e+00,7.360e+00,6.067e+00,5.194e+00,6.135e+00,5.468e+00,4.875e+00,6.362e+00,5.953e+00,5.822e+00,5.876e+00,6.393e+00,6.598e+00,5.264e+00,5.788e+00,6.012e+00,5.914e+00,6.125e+00,7.322e+00,5.784e+00,5.276e+00,5.375e+00,4.869e+00,5.662e+00,6.035e+00,5.997e+00,6.122e+00,4.641e+00,6.301e+00,5.659e+00,5.029e+00,6.068e+00,6.558e+00,5.258e+00,7.539e+00,6.135e+00,7.777e+00,7.071e+00,5.521e+00,6.308e+00,6.015e+00,6.702e+00,5.136e+00,6.244e+00,5.229e+00,4.790e+00
1.531e-02,5.551e-01,8.404e-01,1.391e+00,1.488e+00,1.974e+00,1.853e+00,2.364e+00,3.133e+00,2.002e+00,2.477e+00,3.638e+00,2.948e+00,4.196e+00,5.007e+00,4.561e+00,4.254e+00,4.453e+00,5.498e+00,5.506e+00,5.954e+00,7.241e+00,7.377e+00,7.738e+00,6.703e+00,7.551e+00,8.447e+00,5.434e+00,7.177e+00,7.238e+00,8.629e+00,7.475e+00,8.648e+00,9.720e+00,8.576e+00,8.061e+00,1.014e+01,9.409e+00,6.609e+00,8.431e+00,9.373e+00,9.503e+00,8.580e+00,9.412e+00,7.844e+00,9.073e+00,9.852e+00,8.427e+00,8.722e+00,7.422e+00,6.580e+00,7.887e+00,8.500e+00,7.198e+00,8.670e+00,8.901e+00,8.406e+00,8.992e+00,8.519e+00,1.002e+01,9.618e+00,8.125e+00,1.018e+01,8.795e+00,7.623e+00,8.371e+00,8.068e+00,9.027e+00,8.866e+00,8.440e+00,8.784e+00,6.710e+00,8.611e+00,6.631e+00,7.481e+00,8.688e+00,9.583e+00,9.013e+00,1.003e+01,8.827e+00,1.013e+01,9.977e+00,7.987e+00,8.878e+00,8.726e+00,8.942e+00,7.962e+00,7.758e+00,5.978e+00,7.808e+00
8.544e-03,3.326e-01,7.638e-01,1.217e+00,1.482e+00,2.275e+00,1.598e+00,2.423e+00,2.662e+00,1.509e+00,1.919e+00,3.289e+00,2.684e+00,4.823e+00,4.614e+00,4.800e+00,3.536e+00,4.278e+00,5.326e+00,5.878e+00,5.735e+00,6.381e+00,6.288e+00,6.971e+00,6.719e+00,7.333e+00,7.940e+00,4.883e+00,6.464e+00,7.093e+00,7.210e+00,8.337e+00,8.764e+00,8.039e+00,7.919e+00,6.688e+00,1.013e+01,9.466e+00,6.240e+00,9.164e+00,9.128e+00,8.251e+00,8.386e+00,8.824e+00,7.708e+00,8.264e+00,9.257e+00,8.039e+00,8.420e+00,7.269e+00,6.110e+00,7.491e+00,8.308e+00,7.962e+00,8.021e+00,8.824e+00,7.149e+00,9.422e+00,8.775e+00,8.458e+00,9.283e+00,7.889e+00,8.698e+00,8.257e+00,7.791e+00,8.454e+00,6.870e+00,9.006e+00,8.525e+00,7.832e+00,8.393e+00,6.412e+00,7.893e+00,6.551e+00,6.982e+00,8.589e+00,9.616e+00,8.198e+00,9.188e+00,8.846e+00,9.944e+00,9.845e+00,8.916e+00,8.068e+00,8.068e+00,8.845e+00,7.319e+00,7.736e+00,6.271e+00,6.322e+00
3.078e-03,9.524e-02,2.827e-01,5.312e-01,7.237e-01,1.349e+00,1.542e+00,1.258e+00,2.778e+00,1.595e+00,1.808e+00,2.847e+00,2.409e+00,4.113e+00,5.009e+00,4.714e+00,4.334e+00,3.792e+00,5.142e+00,4.784e+00,4.656e+00,6.036e+00,5.668e+00,7.559e+00,6.241e+00,6.159e+00,8.229e+00,4.195e+00,6.166e+00,5.996e+00,7.207e+00,7.252e+00,7.940e+00,8.639e+00,7.658e+00,5.962e+00,8.809e+00,8.324e+00,5.424e+00,7.870e+00,8.760e+00,8.856e+00,7.581e+00,8.687e+00,6.265e+00,8.796e+00,8.237e+00,7.019e+00,7.888e+00,7.572e+00,5.471e+00,8.055e+00,8.342e+00,7.316e+00,8.155e+00,7.479e+00,7.283e+00,6.817e+00,7.454e+00,7.639e+00,9.047e+00,7.647e+00,8.883e+00,7.916e+00,6.053e+00,7.963e+00,6.738e+00,7.779e+00,8.422e+00,7.032e+00,8.738e+00,6.249e+00,7.927e+00,7.992e+00,7.542e+00,8.030e+00,8.868e+00,8.164e+00,8.780e+00,8.363e+00,9.887e+00,7.709e+00,7.872e+00,8.446e+00,8.391e+00,8.458e+00,6.839e+00,8.684e+00,6.983e+00,7.909e+00
7.991e-03,3.103e-01,6.203e-01,9.064e-01,1.032e+00,1.608e+00,1.694e+00,1.996e+00,2.822e+00,1.853e+00,2.337e+00,3.272e+00,2.680e+00,3.187e+00,5.227e+00,4.008e+00,4.525e+00,4.328e+00,5.752e+00,5.000e+00,4.946e+00,5.818e+00,6.455e+00,7.110e+00,6.104e+00,6.976e+00,8.297e+00,4.559e+00,6.279e+00,7.064e+00,6.864e+00,6.834e+00,8.337e+00,8.995e+00,8.531e+00,6.898e+00,9.071e+00,9.515e+00,6.814e+00,8.685e+00,9.214e+00,9.471e+00,9.027e+00,9.529e+00,7.778e+00,9.437e+00,9.761e+00,8.525e+00,9.047e+00,7.970e+00,6.580e+00,8.303e+00,8.071e+00,7.278e+00,8.691e+00,8.892e+00,8.221e+00,8.969e+00,8.724e+00,8.648e+00,9.380e+00,8.262e+00,9.195e+00,8.942e+00,7.082e+00,8.048e+00,8.460e+00,9.014e+00,9.672e+00,7.991e+00,9.349e+00,7.018e+00,9.561e+00,6.361e+00,7.909e+00,8.729e+00,9.507e+00,9.418e+00,9.256e+00,9.916e+00,9.802e+00,8.821e+00,9.382e+00,8.982e+00,9.910e+00,9.628e+00,8.608e+00,8.327e+00,7.577e+00,7.717e+00
1.245e-02,4.414e-01,8.438e-01,1.286e+00,1.537e+00,1.883e+00,2.013e+00,2.185e+00,3.957e+00,2.356e+00,2.538e+00,4.017e+00,3.152e+00,4.317e+00,5.202e+00,4.749e+00,4.556e+00,5.195e+00,5.835e+00,5.402e+00,5.403e+00,7.052e+00,6.030e+00,7.901e+00,6.287e+00,7.415e+00,9.100e+00,5.509e+00,7.580e+00,7.280e+00,7.950e+00,8.609e+00,8.728e+00,9.557e+00,8.568e+00,8.166e+00,1.088e+01,9.803e+00,7.478e+00,9.067e+00,1.070e+01,9.775e+00,9.698e+00,1.004e+01,8.560e+00,1.075e+01,1.073e+01,8.946e+00,1.001e+01,8.711e+00,5.888e+00,8.946e+00,9.727e+00,7.727e+00,1.008e+01,1.029e+01,9.665e+00,9.119e+00,9.411e+00,9.876e+00,9.649e+00,8.562e+00,9.224e+00,1.027e+01,8.218e+00,8.909e+00,9.284e+00,1.030e+01,9.864e+00,1.009e+01,1.069e+01,8.467e+00,1.087e+01,7.817e+00,9.047e+00,9.916e+00,1.091e+01,1.007e+01,1.088e+01,1.024e+01,1.152e+01,1.128e+01,1.030e+01,1.129e+01,9.730e+00,1.022e+01,8.015e+00,9.286e+00,7.935e+00,8.362e+00
1.745e-02,6.101e-01,9.329e-01,1.519e+00,1.746e+00,1.632e+00,2.112e+00,2.720e+00,3.393e+00,2.480e+00,2.659e+00,4.010e+00,3.723e+00,4.392e+00,4.924e+00,4.540e+00,3.959e+00,5.446e+00,5.256e+00,5.184e+00,5.352e+00,7.697e+00,7.568e+00,8.879e+00,6.128e+00,7.674e+00,8.167e+00,5.073e+00,7.376e+00,8.057e+00,8.821e+00,7.291e+00,8.770e+00,9.593e+00,8.745e+00,8.965e+00,1.140e+01,9.741e+00,7.374e+00,1.014e+01,1.074e+01,1.077e+01,1.009e+01,1.050e+01,8.834e+00,1.132e+01,1.059e+01,8.935e+00,1.017e+01,9.538e+00,7.239e+00,9.691e+00,1.005e+01,8.981e+00,9.918e+00,9.471e+00,1.051e+01,1.046e+01,1.080e+01,1.059e+01,1.091e+01,8.857e+00,1.118e+01,1.142e+01,8.578e+00,9.873e+00,8.773e+00,1.094e+01,1.058e+01,8.809e+00,1.043e+01,8.258e+00,1.092e+01,7.893e+00,9.863e+00,1.014e+01,1.162e+01,9.625e+00,1.164e+01,1.106e+01,1.186e+01,1.239e+01,1.013e+01,1.055e+01,1.087e+01,1.107e+01,9.531e+00,9.189e+00,9.192e+00,9.817e+00
1.895e-02,6.326e-01,8.413e-01,1.301e+00,1.654e+00,2.108e+00,1.685e+00,2.795e+00,2.663e+00,2.215e+00,2.357e+00,3.808e+00,3.350e+00,3.952e+00,4.826e+00,4.846e+00,4.235e+00,5.486e+00,5.900e+00,6.152e+00,6.237e+00,6.986e+00,7.033e+00,7.687e+00,6.568e+00,7.528e+00,8.980e+00,5.541e+00,7.817e+00,7.341e+00,9.106e+00,8.365e+00,9.644e+00,1.047e+01,9.226e+00,7.848e+00,1.192e+01,1.096e+01,8.115e+00,1.063e+01,1.030e+01,1.121e+01,1.175e+01,1.125e+01,9.394e+00,1.066e+01,1.068e+01,9.093e+00,9.393e+00,8.984e+00,8.065e+00,8.747e+00,1.047e+01,8.994e+00,1.102e+01,1.048e+01,9.763e+00,1.059e+01,1.027e+01,1.086e+01,1.086e+01,1.037e+01,1.025e+01,1.012e+01,9.699e+00,1.062e+01,9.669e+00,1.174e+01,1.168e+01,9.559e+00,1.053e+01,8.086e+00,1.105e+01,9.169e+00,1.010e+01,9.887e+00,1.056e+01,1.048e+01,1.085e+01,1.176e+01,1.289e+01,1.132e+01,1.078e+01,1.066e+01,1.098e+01,1.125e+01,9.213e+00,9.456e+00,9.242e+00,8.677e+00
6.527e-03,2.519e-01,7.082e-01,1.156e+00,1.403e+00,2.026e+00,2.133e+00,2.138e+00,3.291e+00,2.149e+00,2.465e+00,3.956e+00,3.547e+00,4.278e+00,5.597e+00,4.544e+00,4.884e+00,5.574e+00,5.751e+00,5.696e+00,6.108e+00,7.792e+00,7.748e+00,9.227e+00,7.708e+00,8.019e+00,9.745e+00,6.052e+00,8.117e+00,8.127e+00,9.002e+00,8.184e+00,9.665e+00,1.041e+01,8.801e+00,8.465e+00,1.250e+01,1.164e+01,8.416e+00,1.183e+01,1.236e+01,1.306e+01,1.096e+01,1.274e+01,8.814e+00,1.200e+01,1.176e+01,9.581e+00,1.025e+01,1.016e+01,8.095e+00,1.104e+01,1.203e+01,1.039e+01,1.210e+01,1.129e+01,9.865e+00,1.033e+01,1.124e+01,1.067e+01,1.175e+01,9.711e+00,1.097e+01,1.102e+01,9.565e+00,1.190e+01,1.066e+01,1.192e+01,1.242e+01,1.049e+01,1.170e+01,9.277e+00,1.167e+01,1.088e+01,1.042e+01,1.165e+01,1.244e+01,1.123e+01,1.202e+01,1.170e+01,1.361e+01,1.245e+01,1.097e+01,1.183e+01,1.068e+01,1.198e+01,1.010e+01,1.074e+01,9.361e+00,9.769e+00
7.999e-03,2.833e-01,4.459e-01,8.609e-01,9.861e-01,1.349e+00,1.829e+00,2.055e+00,2.255e+00,1.958e+00,1.923e+00,2.845e+00,2.758e+00,3.569e+00,4.122e+00,3.725e+00,3.688e+00,3.537e+00,4.549e+00,4.483e+00,3.569e+00,5.219e+00,5.503e+00,5.884e+00,4.735e+00,5.794e+00,7.248e+00,3.726e+00,5.861e+00,6.250e+00,5.654e+00,6.847e+00,6.985e+00,8.257e+00,7.826e+00,7.298e+00,8.981e+00,8.388e+00,7.185e+00,9.674e+00,1.006e+01,9.989e+00,9.867e+00,1.054e+01,7.461e+00,1.029e+01,9.536e+00,7.486e+00,8.723e+00,8.797e+00,7.135e+00,8.115e+00,9.302e+00,8.488e+00,1.041e+01,9.872e+00,8.956e+00,8.291e+00,9.770e+00,7.288e+00,8.147e+00,7.430e+00,8.803e+00,8.373e+00,6.984e+00,8.651e+00,8.670e+00,9.618e+00,9.773e+00,9.109e+00,8.803e+00,7.967e+00,8.347e+00,9.081e+00,8.368e+00,9.085e+00,9.305e+00,8.292e+00,9.777e+00,9.706e+00,9.587e+00,9.566e+00,8.587e+00,9.084e+00,8.820e+00,8.994e+00,7.869e+00,9.787e+00,8.517e+00,7.412e+00
4.265e-03,1.496e-01,3.330e-01,5.327e-01,6.491e-01,1.284e+00,1.068e+00,9.278e-01,2.145e+00,1.390e+00,1.596e+00,3.014e+00,2.331e+00,3.196e+00,3.708e+00,3.300e+00,3.367e+00,4.356e+00,4.682e+00,4.292e+00,4.885e+00,5.845e+00,6.191e+00,6.033e+00,6.115e+00,6.604e+00,7.715e+00,5.648e+00,7.605e+00,6.290e+00,8.601e+00,7.293e+00,8.952e+00,9.797e+00,8.019e+00,8.538e+00,1.145e+01,9.620e+00,9.010e+00,1.143e+01,1.116e+01,1.198e+01,1.251e+01,1.286e+01,9.249e+00,1.130e+01,1.040e+01,1.016e+01,1.033e+01,9.328e+00,8.846e+00,1.098e+01,1.143e+01,9.128e+00,1.236e+01,1.104e+01,1.075e+01,1.195e+01,1.079e+01,1.001e+01,1.121e+01,1.118e+01,1.269e+01,1.078e+01,1.082e+01,1.052e+01,1.004e+01,1.235e+01,1.270e+01,1.164e+01,1.146e+01,8.907e+00,1.102e+01,1.147e+01,1.155e+01,1.064e+01,1.137e+01,1.166e+01,1.193e+01,1.185e+01,1.194e+01,1.216e+01,1.054e+01,1.152e+01,1.104e+01,1.078e+01,8.657e+00,1.055e+01,1.049e+01,1.076e+01
1.872e-02,5.997e-01,6.714e-01,1.022e+00,1.402e+00,2.339e+00,9.956e-01,2.294e+00,2.516e+00,1.558e+00,2.143e+00,3.265e+00,2.566e+00,4.379e+00,4.438e+00,5.241e+00,3.611e+00,4.354e+00,5.394e+00,5.158e+00,4.759e+00,5.320e+00,6.726e+00,7.195e+00,6.133e+00,6.373e+00,8.240e+00,4.745e+00,7.575e+00,6.044e+00,7.784e+00,8.286e+00,9.532e+00,9.483e+00,8.702e+00,7.463e+00,1.090e+01,9.142e+00,7.762e+00,1.035e+01,1.159e+01,1.117e+01,1.205e+01,1.178e+01,9.663e+00,1.134e+01,1.066e+01,1.027e+01,1.018e+01,9.176e+00,8.785e+00,9.844e+00,1.056e+01,8.966e+00,1.115e+01,1.017e+01,1.077e+01,1.035e+01,1.072e+01,1.032e+01,1.141e+01,9.520e+00,1.097e+01,1.011e+01,8.767e+00,1.020e+01,1.023e+01,1.139e+01,1.138e+01,1.040e+01,1.153e+01,9.090e+00,1.094e+01,9.994e+00,1.013e+01,9.861e+00,1.092e+01,9.813e+00,1.197e+01,1.195e+01,1.311e+01,1.101e+01,1.188e+01,1.109e+01,1.037e+01,1.091e+01,8.854e+00,1.051e+01,9.588e+00,1.053e+01
7.670e-03,2.419e-01,3.266e-01,7.008e-01,9.081e-01,1.205e+00,1.240e+00,1.598e+00,2.606e+00,1.485e+00,1.630e+00,2.102e+00,1.919e+00,3.491e+00,3.435e+00,3.689e+00,2.923e+00,2.934e+00,2.902e+00,4.809e+00,3.710e+00,5.029e+00,4.289e+00,5.459e+00,4.484e+00,4.830e+00,6.214e+00,3.789e+00,5.715e+00,5.466e+00,6.515e+00,7.398e+00,6.588e+00,8.341e+00,7.488e+00,6.951e+00,9.037e+00,8.897e+00,8.389e+00,9.437e+00,9.388e+00,1.008e+01,1.185e+01,1.089e+01,8.564e+00,9.504e+00,1.077e+01,7.887e+00,9.489e+00,9.189e+00,9.703e+00,9.483e+00,1.070e+01,7.953e+00,1.046e+01,9.184e+00,1.005e+01,1.057e+01,1.026e+01,9.318e+00,8.829e+00,9.837e+00,1.022e+01,9.038e+00,9.697e+00,1.011e+01,9.957e+00,1.131e+01,1.120e+01,1.002e+01,1.010e+01,9.826e+00,1.020e+01,9.588e+00,1.010e+01,8.566e+00,1.018e+01,1.077e+01,1.095e+01,9.863e+00,1.151e+01,1.044e+01,1.048e+01,1.068e+01,9.697e+00,9.388e+00,8.450e+00,9.412e+00,9.665e+00,8.494e+00
3.735e-03,1.803e-01,6.182e-01,9.466e-01,1.052e+00,9.044e-01,1.355e+00,1.430e+00,2.135e+00,1.250e+00,1.868e+00,2.527e+00,2.679e+00,3.037e+00,3.706e+00,3.019e+00,3.225e+00,3.755e+00,4.334e+00,3.799e+00,4.516e+00,5.246e+00,5.429e+00,6.537e+00,5.115e+00,6.738e+00,7.373e+00,4.630e+00,6.336e+00,6.306e+00,7.639e+00,6.867e+00,7.499e+00,8.130e+00,7.779e+00,7.336e+00,9.751e+00,8.802e+00,8.334e+00,9.598e+00,1.111e+01,1.094e+01,1.127e+01,1.199e+01,9.634e+00,1.150e+01,1.171e+01,1.002e+01,1.038e+01,9.075e+00,9.088e+00,1.089e+01,1.110e+01,8.616e+00,1.246e+01,1.066e+01,1.124e+01,1.085e+01,1.121e+01,1.070e+01,1.074e+01,9.753e+00,1.089e+01,1.183e+01,9.872e+00,9.785e+00,1.047e+01,1.201e+01,1.192e+01,1.101e+01,1.137e+01,9.407e+00,1.087e+01,9.980e+00,1.078e+01,1.060e+01,1.118e+01,1.116e+01,1.203e+01,1.117e+01,1.271e+01,1.113e+01,1.002e+01,1.120e+01,1.015e+01,1.048e+01,8.401e+00,1.096e+01,1.021e+01,9.269e+00
2.066e-02,6.511e-01,4.963e-01,8.231e-01,1.065e+00,2.058e+00,1.086e+00,2.197e+00,2.315e+00,1.794e+00,1.898e+00,3.039e+00,1.928e+00,3.309e+00,4.468e+00,4.710e+00,3.909e+00,4.483e+00,5.481e+00,5.429e+00,5.216e+00,6.780e+00,6.263e+00,7.922e+00,6.724e+00,7.232e+00,9.040e+00,5.395e+00,8.180e+00,7.286e+00,7.860e+00,8.608e+00,9.792e+00,1.084e+01,9.578e+00,7.755e+00,1.039e+01,1.083e+01,9.096e+00,1.074e+01,1.238e+01,1.248e+01,1.305e+01,1.386e+01,1.064e+01,1.327e+01,1.422e+01,1.171e+01,1.142e+01,1.075e+01,1.012e+01,1.178e+01,1.230e+01,1.067e+01,1.209e+01,1.231e+01,1.201e+01,1.288e+01,1.349e+01,1.253e+01,1.274e+01,1.170e+01,1.212e+01,1.240e+01,1.082e+01,1.250e+01,1.143e+01,1.366e+01,1.354e+01,1.184e+01,1.307e+01,1.126e+01,1.254e+01,1.043e+01,1.122e+01,1.187e+01,1.285e+01,1.241e+01,1.387e+01,1.284e+01,1.452e+01,1.394e+01,1.490e+01,1.299e+01,1.178e+01,1.348e+01,1.050e+01,1.232e+01,1.189e+01,1.130e+01
1.490e-03,7.703e-02,4.724e-01,8.528e-01,1.102e+00,1.019e+00,1.987e+00,2.052e+00,3.735e+00,2.048e+00,2.249e+00,3.160e+00,2.900e+00,4.651e+00,4.827e+00,4.928e+00,4.218e+00,4.607e+00,5.073e+00,7.041e+00,5.910e+00,7.489e+00,6.981e+00,8.836e+00,6.947e+00,8.575e+00,9.960e+00,5.513e+00,8.825e+00,9.027e+00,9.572e+00,8.108e+00,1.014e+01,1.085e+01,9.711e+00,8.388e+00,1.172e+01,1.148e+01,8.956e+00,1.164e+01,1.175e+01,1.296e+01,1.297e+01,1.400e+01,1.136e+01,1.311e+01,1.336e+01,1.133e+01,1.381e+01,1.252e+01,1.094e+01,1.250e+01,1.363e+01,1.187e+01,1.302e+01,1.188e+01,1.280e+01,1.187e+01,1.336e+01,1.220e+01,1.258e+01,1.253e+01,1.207e+01,1.279e+01,1.182e+01,1.367e+01,1.247e+01,1.451e+01,1.394e+01,1.263e+01,1.412e+01,1.241e+01,1.349e+01,1.136e+01,1.300e+01,1.284e+01,1.378e+01,1.284e+01,1.397e+01,1.461e+01,1.691e+01,1.402e+01,1.298e+01,1.433e+01,1.371e+01,1.358e+01,1.213e+01,1.351e+01,1.292e+01,1.178e+01
8.615e-03,2.807e-01,4.457e-01,8.529e-01,1.028e+00,1.719e+00,1.946e+00,1.716e+00,2.779e+00,2.079e+00,1.441e+00,3.111e+00,2.279e+00,3.761e+00,4.730e+00,4.346e+00,4.447e+00,4.051e+00,5.523e+00,5.645e+00,5.232e+00,6.606e+00,5.897e+00,6.804e+00,5.764e+00,7.028e+00,7.851e+00,4.162e+00,6.417e+00,7.327e+00,7.277e+00,7.243e+00,8.147e+00,9.233e+00,8.433e+00,7.306e+00,9.454e+00,9.664e+00,6.546e+00,1.009e+01,1.006e+01,9.148e+00,1.143e+01,1.099e+01,9.786e+00,1.213e+01,1.107e+01,1.037e+01,1.141e+01,1.070e+01,8.550e+00,1.201e+01,1.040e+01,1.018e+01,1.078e+01,1.145e+01,1.076e+01,1.140e+01,1.031e+01,1.058e+01,1.071e+01,1.119e+01,1.107e+01,1.036e+01,1.088e+01,1.012e+01,1.077e+01,1.109e+01,1.190e+01,1.085e+01,1.183e+01,9.509e+00,1.056e+01,1.049e+01,8.555e+00,9.988e+00,1.173e+01,1.160e+01,1.135e+01,1.092e+01,1.128e+01,1.139e+01,1.057e+01,1.108e+01,1.035e+01,1.029e+01,9.447e+00,1.252e+01,1.010e+01,9.677e+00
3.384e-03,1.498e-01,6.120e-01,1.038e+00,1.217e+00,9.791e-01,1.622e+00,1.450e+00,3.526e+00,1.617e+00,1.930e+00,2.564e+00,2.403e+00,4.286e+00,4.103e+00,4.410e+00,3.998e+00,3.335e+00,4.482e+00,6.199e+00,5.881e+00,5.895e+00,4.974e+00,6.148e+00,4.829e+00,6.185e+00,7.350e+00,3.619e+00,5.694e+00,5.798e+00,7.041e+00,6.428e+00,7.171e+00,8.204e+00,6.907e+00,6.808e+00,9.521e+00,8.776e+00,6.655e+00,9.000e+00,9.582e+00,9.237e+00,8.821e+00,1.025e+01,9.014e+00,9.970e+00,1.140e+01,8.593e+00,1.058e+01,9.432e+00,9.119e+00,1.050e+01,1.071e+01,9.313e+00,1.093e+01,9.845e+00,1.005e+01,9.627e+00,9.233e+00,1.063e+01,8.928e+00,9.983e+00,1.044e+01,9.827e+00,9.265e+00,8.646e+00,1.043e+01,1.058e+01,9.825e+00,9.887e+00,9.504e+00,1.017e+01,1.072e+01,9.207e+00,9.785e+00,9.157e+00,9.820e+00,1.090e+01,9.844e+00,1.128e+01,1.200e+01,1.038e+01,9.284e+00,1.063e+01,9.445e+00,9.711e+00,8.378e+00,1.048e+01,9.009e+00,8.635e+00
2.256e-03,1.467e-01,8.021e-01,1.309e+00,1.604e+00,1.851e+00,2.527e+00,2.854e+00,3.924e+00,2.268e+00,2.783e+00,3.996e+00,3.675e+00,4.707e+00,5.712e+00,4.682e+00,4.487e+00,5.270e+00,4.947e+00,5.945e+00,5.280e+00,5.858e+00,5.807e+00,7.285e+00,5.673e+00,7.609e+00,8.970e+00,5.098e+00,7.652e+00,7.910e+00,8.856e+00,8.136e+00,8.710e+00,9.299e+00,9.105e+00,7.884e+00,1.131e+01,1.091e+01,8.575e+00,1.245e+01,1.166e+01,1.207e+01,1.229e+01,1.313e+01,1.082e+01,1.248e+01,1.303e+01,1.214e+01,1.348e+01,1.263e+01,1.092e+01,1.322e+01,1.409e+01,1.219e+01,1.389e+01,1.257e+01,1.276e+01,1.316e+01,1.358e+01,1.257e+01,1.392e+01,1.355e+01,1.440e+01,1.405e+01,1.253e+01,1.332e+01,1.265e+01,1.465e+01,1.442e+01,1.249e+01,1.266e+01,1.300e+01,1.296e+01,1.327e+01,1.324e+01,1.400e+01,1.548e+01,1.359e+01,1.377e+01,1.469e+01,1.585e+01,1.313e+01,1.329e+01,1.385e+01,1.273e+01,1.448e+01,1.143e+01,1.441e+01,1.295e+01,1.140e+01
8.479e-03,2.841e-01,3.701e-01,6.886e-01,8.831e-01,1.386e+00,1.619e+00,2.161e+00,1.997e+00,1.851e+00,2.007e+00,2.832e+00,2.771e+00,3.037e+00,4.234e+00,3.610e+00,3.663e+00,4.090e+00,4.831e+00,5.200e+00,4.045e+00,5.639e+00,6.360e+00,6.388e+00,5.583e+00,6.571e+00,8.528e+00,4.788e+00,7.366e+00,7.126e+00,7.530e+00,7.412e+00,8.618e+00,9.384e+00,8.890e+00,7.307e+00,1.119e+01,9.987e+00,8.529e+00,1.113e+01,1.032e+01,1.218e+01,1.289e+01,1.169e+01,9.625e+00,1.157e+01,1.236e+01,1.072e+01,1.308e+01,1.206e+01,1.204e+01,1.116e+01,1.209e+01,1.126e+01,1.342e+01,1.281e+01,1.302e+01,1.167e+01,1.234e+01,1.239e+01,1.316e+01,1.324e+01,1.274e+01,1.324e+01,1.131e+01,1.253e+01,1.210e+01,1.423e+01,1.290e+01,1.222e+01,1.308e+01,1.207e+01,1.319e+01,1.089e+01,1.302e+01,1.152e+01,1.359e+01,1.280e+01,1.358e+01,1.351e+01,1.505e+01,1.340e+01,1.306e+01,1.201e+01,1.313e+01,1.341e+01,1.206e+01,1.253e+01,1.390e+01,1.191e+01
9.003e-03,3.071e-01,3.832e-01,8.100e-01,9.183e-01,1.506e+00,2.028e+00,2.218e+00,2.631e+00,2.190e+00,2.385e+00,3.325e+00,3.126e+00,4.119e+00,5.680e+00,4.899e+00,5.138e+00,4.558e+00,6.332e+00,5.790e+00,5.092e+00,7.240e+00,7.546e+00,9.080e+00,7.205e+00,8.082e+00,1.022e+01,5.752e+00,7.745e+00,8.235e+00,9.062e+00,8.828e+00,9.895e+00,1.150e+01,1.022e+01,9.289e+00,1.228e+01,1.136e+01,8.628e+00,1.148e+01,1.250e+01,1.257e+01,1.319e+01,1.244e+01,1.089e+01,1.361e+01,1.389e+01,1.206e+01,1.392e+01,1.267e+01,1.162e+01,1.308e+01,1.335e+01,1.200e+01,1.306e+01,1.308e+01,1.379e+01,1.358e+01,1.340e+01,1.389e+01,1.514e+01,1.356e+01,1.466e+01,1.517e+01,1.162e+01,1.282e+01,1.321e+01,1.535e+01,1.424e+01,1.323e+01,1.404e+01,1.284e+01,1.379e+01,1.288e+01,1.316e+01,1.336e+01,1.527e+01,1.549e+01,1.505e+01,1.322e+01,1.529e+01,1.416e+01,1.401e+01,1.350e+01,1.437e+01,1.355e+01,1.198e+01,1.516e+01,1.325e+01,1.280e+01
1.655e-02,5.485e-01,6.421e-01,1.045e+00,1.229e+00,1.382e+00,9.815e-01,1.691e+00,1.966e+00,1.428e+00,1.432e+00,2.254e+00,2.042e+00,3.586e+00,3.638e+00,4.180e+00,3.488e+00,3.691e+00,4.977e+00,4.795e+00,4.871e+00,5.733e+00,5.886e+00,7.081e+00,6.139e+00,7.250e+00,8.000e+00,4.624e+00,6.935e+00,6.731e+00,7.222e+00,7.203e+00,8.423e+00,9.080e+00,7.548e+00,7.419e+00,1.090e+01,9.991e+00,9.208e+00,1.098e+01,1.182e+01,1.118e+01,1.170e+01,1.176e+01,1.105e+01,1.251e+01,1.352e+01,1.152e+01,1.343e+01,1.225e+01,1.181e+01,1.270e+01,1.234e+01,1.216e+01,1.379e+01,1.307e+01,1.458e+01,1.340e+01,1.374e+01,1.409e+01,1.452e+01,1.241e+01,1.380e+01,1.358e+01,1.156e+01,1.212e+01,1.310e+01,1.517e+01,1.351e+01,1.392e+01,1.336e+01,1.330e+01,1.344e+01,1.229e+01,1.293e+01,1.323e+01,1.431e+01,1.425e+01,1.415e+01,1.304e+01,1.539e+01,1.515e+01,1.424e+01,1.296e+01,1.274e+01,1.370e+01,1.196e+01,1.296e+01,1.347e+01,1.090e+01
2.219e-02,7.527e-01,1.071e+00,1.733e+00,2.097e+00,2.166e+00,2.047e+00,3.151e+00,3.263e+00,2.515e+00,2.548e+00,3.842e+00,3.632e+00,4.495e+00,4.892e+00,5.189e+00,4.528e+00,5.413e+00,5.868e+00,6.772e+00,6.767e+00,7.401e+00,6.776e+00,8.469e+00,6.643e+00,8.558e+00,9.363e+00,5.509e+00,7.808e+00,8.244e+00,8.832e+00,8.724e+00,9.658e+00,9.976e+00,9.631e+00,8.525e+00,1.245e+01,1.073e+01,8.721e+00,1.128e+01,1.176e+01,1.151e+01,1.219e+01,1.328e+01,1.268e+01,1.328e+01,1.315e+01,1.229e+01,1.278e+01,1.105e+01,1.078e+01,1.244e+01,1.283e+01,1.181e+01,1.335e+01,1.382e+01,1.354e+01,1.304e+01,1.446e+01,1.349e+01,1.399e+01,1.231e+01,1.291e+01,1.371e+01,1.409e+01,1.256e+01,1.282e+01,1.682e+01,1.456e+01,1.374e+01,1.341e+01,1.253e+01,1.371e+01,1.247e+01,1.290e+01,1.339e+01,1.555e+01,1.474e+01,1.291e+01,1.444e+01,1.680e+01,1.359e+01,1.414e+01,1.436e+01,1.399e+01,1.436e+01,1.239e+01,1.344e+01,1.345e+01,1.105e+01
1.847e-02,5.929e-01,6.273e-01,1.052e+00,1.280e+00,1.974e+00,1.459e+00,1.979e+00,3.216e+00,2.193e+00,2.227e+00,3.809e+00,2.732e+00,4.228e+00,4.806e+00,5.170e+00,4.537e+00,5.412e+00,6.165e+00,5.808e+00,5.930e+00,7.020e+00,7.770e+00,8.309e+00,6.740e+00,8.148e+00,8.850e+00,6.032e+00,8.247e+00,7.737e+00,8.782e+00,8.442e+00,1.044e+01,1.053e+01,9.674e+00,9.777e+00,1.324e+01,1.169e+01,1.003e+01,1.326e+01,1.462e+01,1.387e+01,1.463e+01,1.649e+01,1.360e+01,1.436e+01,1.560e+01,1.358e+01,1.511e+01,1.386e+01,1.382e+01,1.490e+01,1.562e+01,1.435e+01,1.628e+01,1.546e+01,1.642e+01,1.584e+01,1.640e+01,1.755e+01,1.760e+01,1.387e+01,1.591e+01,1.735e+01,1.540e+01,1.565e+01,1.657e+01,1.920e+01,1.557e+01,1.750e+01,1.791e+01,1.566e+01,1.737e+01,1.480e+01,1.605e+01,1.603e+01,1.685e+01,1.667e+01,1.617e+01,1.773e+01,1.827e+01,1.761e+01,1.740e+01,1.646e+01,1.595e+01,1.745e+01,1.371e+01,1.631e+01,1.488e+01,1.539e+01
9.711e-03,3.746e-01,8.377e-01,1.228e+00,1.486e+00,1.764e+00,1.536e+00,2.274e+00,2.300e+00,1.454e+00,1.801e+00,2.999e+00,2.732e+00,4.141e+00,4.455e+00,4.426e+00,3.486e+00,4.739e+00,5.595e+00,5.003e+00,5.586e+00,6.518e+00,6.080e+00,7.623e+00,6.468e+00,7.583e+00,7.889e+00,4.614e+00,6.497e+00,6.897e+00,7.920e+00,7.966e+00,8.188e+00,8.779e+00,8.568e+00,8.121e+00,1.061e+01,9.781e+00,7.290e+00,1.006e+01,1.162e+01,9.728e+00,1.131e+01,1.189e+01,1.070e+01,1.165e+01,1.219e+01,1.172e+01,1.233e+01,1.021e+01,1.096e+01,1.354e+01,1.229e+01,1.177e+01,1.356e+01,1.402e+01,1.445e+01,1.376e+01,1.361e+01,1.603e+01,1.456e+01,1.350e+01,1.406e+01,1.462e+01,1.254e+01,1.190e+01,1.420e+01,1.568e+01,1.410e+01,1.372e+01,1.556e+01,1.242e+01,1.386e+01,1.242e+01,1.280e+01,1.265e+01,1.524e+01,1.439e+01,1.509e+01,1.427e+01,1.559e+01,1.549e+01,1.408e+01,1.383e+01,1.375e+01,1.461e+01,1.191e+01,1.381e+01,1.203e+01,1.291e+01
1.501e-02,5.037e-01,8.024e-01,1.384e+00,1.686e+00,1.527e+00,2.229e+00,2.579e+00,3.201e+00,2.479e+00,2.439e+00,3.244e+00,3.566e+00,3.960e+00,4.804e+00,4.458e+00,4.558e+00,3.960e+00,4.890e+00,5.055e+00,4.242e+00,5.876e+00,5.418e+00,8.300e+00,5.365e+00,5.900e+00,8.244e+00,3.916e+00,6.106e+00,6.940e+00,6.855e+00,7.621e+00,7.504e+00,8.892e+00,7.934e+00,6.677e+00,9.676e+00,9.617e+00,7.583e+00,9.288e+00,1.007e+01,1.049e+01,1.123e+01,1.059e+01,8.869e+00,1.228e+01,1.191e+01,9.706e+00,1.171e+01,1.169e+01,9.558e+00,1.152e+01,1.201e+01,1.134e+01,1.368e+01,1.253e+01,1.331e+01,1.155e+01,1.335e+01,1.321e+01,1.330e+01,1.213e+01,1.293e+01,1.531e+01,1.027e+01,1.254e+01,1.263e+01,1.419e+01,1.301e+01,1.277e+01,1.416e+01,1.239e+01,1.427e+01,1.188e+01,1.289e+01,1.336e+01,1.379e+01,1.431e+01,1.283e+01,1.322e+01,1.550e+01,1.480e+01,1.348e+01,1.370e+01,1.348e+01,1.407e+01,1.278e+01,1.377e+01,1.296e+01,1.293e+01
2.127e-02,7.140e-01,8.493e-01,1.343e+00,1.625e+00,2.206e+00,1.179e+00,2.570e+00,2.952e+00,1.914e+00,2.519e+00,3.253e+00,2.906e+00,4.320e+00,4.727e+00,4.937e+00,4.001e+00,4.373e+00,4.626e+00,5.570e+00,5.015e+00,5.579e+00,7.274e+00,6.716e+00,6.889e+00,7.411e+00,9.020e+00,6.113e+00,9.074e+00,7.452e+00,8.221e+00,7.879e+00,9.527e+00,1.057e+01,9.378e+00,7.317e+00,1.054e+01,1.031e+01,8.626e+00,1.051e+01,1.128e+01,1.148e+01,1.220e+01,1.125e+01,1.083e+01,1.305e+01,1.479e+01,1.177e+01,1.289e+01,1.143e+01,1.227e+01,1.251e+01,1.339e+01,1.156e+01,1.382e+01,1.461e+01,1.314e+01,1.361e+01,1.468e+01,1.588e+01,1.425e+01,1.484e+01,1.354e+01,1.606e+01,1.226e+01,1.268e+01,1.455e+01,1.531e+01,1.499e+01,1.388e+01,1.500e+01,1.240e+01,1.368e+01,1.199e+01,1.360e+01,1.460e+01,1.479e+01,1.383e+01,1.560e+01,1.586e+01,1.578e+01,1.501e+01,1.482e+01,1.535e+01,1.525e+01,1.543e+01,1.265e+01,1.471e+01,1.511e+01,1.383e+01
8.490e-03,3.109e-01,5.070e-01,7.549e-01,9.673e-01,1.522e+00,9.475e-01,2.054e+00,2.383e+00,1.302e+00,2.006e+00,2.492e+00,2.036e+00,3.146e+00,4.367e+00,3.806e+00,3.369e+00,3.971e+00,4.486e+00,4.646e+00,4.036e+00,5.091e+00,6.143e+00,7.261e+00,5.806e+00,7.593e+00,7.726e+00,4.747e+00,7.325e+00,7.700e+00,7.632e+00,6.421e+00,8.991e+00,8.712e+00,9.028e+00,6.443e+00,1.019e+01,1.041e+01,8.816e+00,1.141e+01,1.143e+01,1.184e+01,1.328e+01,1.378e+01,1.071e+01,1.288e+01,1.385e+01,1.320e+01,1.340e+01,1.199e+01,1.261e+01,1.421e+01,1.434e+01,1.308e+01,1.504e+01,1.422e+01,1.711e+01,1.569e+01,1.779e+01,1.665e+01,1.808e+01,1.567e+01,1.627e+01,1.842e+01,1.388e+01,1.557e+01,1.747e+01,1.933e+01,1.633e+01,1.666e+01,1.848e+01,1.583e+01,1.679e+01,1.438e+01,1.568e+01,1.605e+01,1.659e+01,1.690e+01,1.568e+01,1.791e+01,1.842e+01,1.689e+01,1.675e+01,1.683e+01,1.586e+01,1.791e+01,1.415e+01,1.696e+01,1.617e+01,1.695e+01
1.552e-02,5.217e-01,7.251e-01,1.096e+00,1.322e+00,1.488e+00,1.146e+00,1.735e+00,2.440e+00,1.833e+00,1.893e+00,3.090e+00,2.799e+00,3.418e+00,4.136e+00,3.890e+00,3.918e+00,4.226e+00,5.104e+00,4.781e+00,5.168e+00,5.772e+00,5.640e+00,6.800e+00,6.174e+00,6.882e+00,8.091e+00,4.855e+00,7.499e+00,6.761e+00,7.622e+00,6.347e+00,8.878e+00,9.448e+00,7.708e+00,6.677e+00,1.088e+01,1.098e+01,9.189e+00,1.120e+01,1.224e+01,1.222e+01,1.456e+01,1.232e+01,1.208e+01,1.387e+01,1.352e+01,1.317e+01,1.307e+01,1.247e+01,1.258e+01,1.351e+01,1.306e+01,1.217e+01,1.600e+01,1.424e+01,1.693e+01,1.518e+01,1.682e+01,1.557e+01,1.680e+01,1.543e+01,1.616e+01,1.685e+01,1.527e+01,1.560e+01,1.712e+01,1.821e+01,1.847e+01,1.670e+01,1.672e+01,1.548e+01,1.634e+01,1.596e+01,1.615e+01,1.465e+01,1.633e+01,1.698e+01,1.546e+01,1.613e+01,2.028e+01,1.614e+01,1.603e+01,1.721e+01,1.406e+01,1.551e+01,1.472e+01,1.556e+01,1.716e+01,1.553e+01
9.516e-03,3.461e-01,7.169e-01,1.075e+00,1.358e+00,1.942e+00,1.906e+00,2.402e+00,2.949e+00,1.941e+00,1.985e+00,3.284e+00,2.604e+00,4.063e+00,4.657e+00,4.661e+00,3.826e+00,4.815e+00,5.455e+00,5.585e+00,5.352e+00,7.330e+00,6.753e+00,8.499e+00,7.357e+00,8.423e+00,9.632e+00,5.379e+00,8.134e+00,8.375e+00,8.117e+00,8.588e+00,9.464e+00,9.400e+00,9.508e+00,7.769e+00,1.163e+01,1.100e+01,7.638e+00,1.069e+01,1.229e+01,1.182e+01,1.243e+01,1.364e+01,1.117e+01,1.335e+01,1.332e+01,1.164e+01,1.246e+01,1.141e+01,1.236e+01,1.367e+01,1.375e+01,1.222e+01,1.483e+01,1.569e+01,1.569e+01,1.472e+01,1.798e+01,1.857e+01,1.642e+01,1.569e+01,1.512e+01,1.646e+01,1.435e+01,1.474e+01,1.776e+01,1.883e+01,1.864e+01,1.586e+01,1.872e+01,1.402e+01,1.689e+01,1.494e+01,1.518e+01,1.586e+01,1.788e+01,1.551e+01,1.884e+01,1.826e+01,1.857e+01,1.708e+01,1.606e+01,1.676e+01,1.732e+01,1.840e+01,1.415e+01,1.580e+01,1.628e+01,1.668e+01
1.627e-02,5.607e-01,8.736e-01,1.387e+00,1.741e+00,2.570e+00,2.124e+00,3.108e+00,3.081e+00,2.469e+00,2.725e+00,4.175e+00,3.794e+00,4.489e+00,6.072e+00,5.426e+00,5.291e+00,5.990e+00,6.953e+00,6.848e+00,6.767e+00,8.121e+00,7.713e+00,9.331e+00,8.153e+00,8.738e+00,1.017e+01,6.123e+00,8.462e+00,8.514e+00,9.325e+00,9.089e+00,1.009e+01,1.097e+01,1.061e+01,8.795e+00,1.311e+01,1.288e+01,1.030e+01,1.293e+01,1.325e+01,1.392e+01,1.517e+01,1.523e+01,1.307e+01,1.481e+01,1.664e+01,1.336e+01,1.393e+01,1.359e+01,1.324e+01,1.554e+01,1.563e+01,1.551e+01,1.709e+01,1.781e+01,1.804e+01,1.797e+01,1.951e+01,2.051e+01,1.970e+01,1.859e+01,1.939e+01,2.070e+01,1.743e+01,1.774e+01,1.948e+01,2.178e+01,1.980e+01,1.894e+01,2.094e+01,1.771e+01,2.088e+01,1.726e+01,1.770e+01,1.859e+01,1.997e+01,2.173e+01,1.945e+01,1.957e+01,2.128e+01,1.979e+01,1.879e+01,1.872e+01,1.857e+01,1.994e+01,1.665e+01,1.935e+01,1.796e+01,1.731e+01
1.389e-02,4.742e-01,6.561e-01,1.055e+00,1.225e+00,1.623e+00,1.437e+00,1.887e+00,3.056e+00,1.831e+00,1.939e+00,2.948e+00,2.043e+00,2.964e+00,4.063e+00,3.834e+00,4.007e+00,4.333e+00,5.197e+00,6.074e+00,5.755e+00,6.568e+00,6.468e+00,6.859e+00,5.409e+00,6.721e+00,8.379e+00,5.024e+00,7.671e+00,7.381e+00,7.964e+00,7.636e+00,9.139e+00,9.632e+00,8.657e+00,7.857e+00,1.037e+01,9.464e+00,7.498e+00,1.042e+01,1.179e+01,1.118e+01,1.216e+01,1.267e+01,1.088e+01,1.205e+01,1.315e+01,1.191e+01,1.253e+01,1.171e+01,1.233e+01,1.334e+01,1.330e+01,1.253e+01,1.505e+01,1.536e+01,1.540e+01,1.343e+01,1.667e+01,1.705e+01,1.794e+01,1.625e+01,1.743e+01,1.739e+01,1.266e+01,1.422e+01,1.771e+01,1.766e+01,1.806e+01,1.681e+01,1.753e+01,1.540e+01,1.740e+01,1.530e+01,1.473e+01,1.552e+01,1.595e+01,1.703e+01,1.780e+01,1.785e+01,1.840e+01,1.778e+01,1.650e+01,1.687e+01,1.544e+01,1.796e+01,1.418e+01,1.802e+01,1.534e+01,1.612e+01
3.926e-03,1.448e-01,4.507e-01,7.375e-01,1.053e+00,1.954e+00,1.760e+00,2.226e+00,3.318e+00,1.909e+00,2.523e+00,3.678e+00,3.033e+00,4.707e+00,5.667e+00,5.563e+00,5.074e+00,4.950e+00,6.624e+00,6.281e+00,5.440e+00,6.484e+00,6.384e+00,8.629e+00,7.184e+00,7.227e+00,1.074e+01,5.548e+00,8.269e+00,7.668e+00,8.866e+00,9.120e+00,9.849e+00,1.025e+01,8.899e+00,6.845e+00,1.131e+01,1.076e+01,7.912e+00,1.161e+01,1.183e+01,1.180e+01,1.227e+01,1.281e+01,1.075e+01,1.356e+01,1.348e+01,1.242e+01,1.398e+01,1.257e+01,1.116e+01,1.336e+01,1.441e+01,1.324e+01,1.533e+01,1.432e+01,1.556e+01,1.458e+01,1.627e+01,1.628e+01,1.824e+01,1.672e+01,1.770e+01,1.887e+01,1.340e+01,1.535e+01,1.745e+01,1.900e+01,1.673e+01,1.680e+01,1.844e+01,1.534e+01,1.735e+01,1.663e+01,1.591e+01,1.774e+01,1.752e+01,1.759e+01,1.714e+01,1.821e+01,1.925e+01,1.697e+01,1.695e+01,1.681e+01,1.678e+01,1.794e+01,1.448e+01,1.834e+01,1.691e+01,1.732e+01
5.037e-03,2.287e-01,6.800e-01,1.060e+00,1.254e+00,1.789e+00,2.030e+00,2.485e+00,2.631e+00,1.807e+00,1.991e+00,3.245e+00,2.726e+00,3.609e+00,4.934e+00,3.833e+00,3.722e+00,4.073e+00,5.126e+00,5.413e+00,4.968e+00,6.249e+00,6.272e+00,6.462e+00,5.662e+00,7.447e+00,8.399e+00,4.287e+00,7.219e+00,7.439e+00,9.058e+00,7.637e+00,8.693e+00,1.034e+01,9.441e+00,8.395e+00,1.196e+01,1.116e+01,8.366e+00,1.153e+01,1.203e+01,1.175e+01,1.477e+01,1.444e+01,1.184e+01,1.388e+01,1.526e+01,1.368e+01,1.449e+01,1.326e+01,1.386e+01,1.576e+01,1.499e+01,1.368e+01,1.676e+01,1.654e+01,1.799e+01,1.604e+01,1.838e+01,1.979e+01,1.827e+01,1.911e+01,1.971e+01,1.880e+01,1.651e+01,1.539e+01,2.111e+01,1.946e+01,1.862e+01,1.754e+01,1.994e+01,1.637e+01,2.044e+01,1.675e+01,1.627e+01,1.777e+01,1.860e+01,1.841e+01,1.941e+01,2.015e+01,2.011e+01,2.061e+01,1.835e+01,1.817e+01,1.838e+01,2.038e+01,1.714e+01,1.866e+01,1.865e+01,1.869e+01
1.924e-02,6.729e-01,1.027e+00,1.681e+00,1.932e+00,1.835e+00,1.504e+00,2.489e+00,2.483e+00,1.653e+00,1.967e+00,2.380e+00,2.649e+00,3.484e+00,3.437e+00,3.971e+00,3.721e+00,3.685e+00,4.440e+00,5.716e+00,5.843e+00,6.402e+00,6.784e+00,8.417e+00,6.661e+00,7.453e+00,8.435e+00,5.619e+00,7.156e+00,7.511e+00,8.073e+00,7.852e+00,8.562e+00,9.083e+00,8.257e+00,7.381e+00,1.073e+01,1.013e+01,8.322e+00,1.007e+01,1.134e+01,1.174e+01,1.126e+01,1.233e+01,9.998e+00,1.211e+01,1.304e+01,1.109e+01,1.215e+01,1.058e+01,1.011e+01,1.185e+01,1.341e+01,1.164e+01,1.277e+01,1.291e+01,1.332e+01,1.332e+01,1.527e+01,1.617e+01,1.590e+01,1.536e+01,1.703e+01,1.855e+01,1.419e+01,1.498e+01,1.651e+01,1.817e+01,1.747e+01,1.631e+01,1.677e+01,1.468e+01,1.768e+01,1.501e+01,1.491e+01,1.538e+01,1.673e+01,1.752e+01,1.760e+01,1.760e+01,1.757e+01,1.912e+01,1.645e+01,1.618e+01,1.619e+01,1.855e+01,1.482e+01,1.632e+01,1.578e+01,1.471e+01
6.540e-03,2.173e-01,4.575e-01,6.492e-01,9.280e-01,1.247e+00,1.092e+00,1.434e+00,2.133e+00,1.290e+00,1.533e+00,2.778e+00,2.348e+00,3.636e+00,3.487e+00,3.905e+00,2.566e+00,4.078e+00,4.164e+00,3.984e+00,4.239e+00,5.268e+00,4.863e+00,5.846e+00,5.466e+00,5.966e+00,7.092e+00,4.712e+00,7.015e+00,5.452e+00,8.259e+00,7.728e+00,8.223e+00,9.441e+00,8.223e+00,7.461e+00,1.073e+01,9.234e+00,8.653e+00,1.018e+01,1.111e+01,1.087e+01,1.276e+01,1.147e+01,1.032e+01,1.201e+01,1.290e+01,1.099e+01,1.185e+01,1.108e+01,1.113e+01,1.213e+01,1.398e+01,1.123e+01,1.307e+01,1.354e+01,1.375e+01,1.357e+01,1.494e+01,1.503e+01,1.575e+01,1.597e+01,1.564e+01,1.646e+01,1.435e+01,1.433e+01,1.599e+01,1.686e+01,1.724e+01,1.709e+01,1.681e+01,1.472e+01,1.797e+01,1.565e+01,1.547e+01,1.624e+01,1.562e+01,1.682e+01,1.662e+01,1.770e+01,1.707e+01,1.750e+01,1.711e+01,1.595e+01,1.575e+01,1.690e+01,1.426e+01,1.716e+01,1.653e+01,1.552e+01
2.086e-02,7.276e-01,1.135e+00,1.838e+00,2.109e+00,2.005e+00,2.321e+00,2.970e+00,3.670e+00,2.594e+00,2.738e+00,3.582e+00,3.633e+00,4.490e+00,4.907e+00,5.077e+00,4.869e+00,4.787e+00,5.704e+00,7.071e+00,6.697e+00,7.859e+00,7.704e+00,9.504e+00,8.200e+00,8.989e+00,1.099e+01,6.867e+00,9.202e+00,9.269e+00,8.870e+00,9.750e+00,1.044e+01,1.072e+01,1.012e+01,9.275e+00,1.353e+01,1.285e+01,1.071e+01,1.204e+01,1.490e+01,1.462e+01,1.402e+01,1.525e+01,1.348e+01,1.548e+01,1.645e+01,1.357e+01,1.544e+01,1.402e+01,1.363e+01,1.399e+01,1.695e+01,1.387e+01,1.621e+01,1.664e+01,1.623e+01,1.636e+01,1.729e+01,1.883e+01,1.872e+01,1.727e+01,1.900e+01,2.140e+01,1.742e+01,1.856e+01,2.065e+01,2.278e+01,2.134e+01,2.023e+01,2.102e+01,1.723e+01,2.261e+01,1.792e+01,1.876e+01,1.989e+01,1.990e+01,2.078e+01,2.032e+01,2.219e+01,2.182e+01,2.174e+01,1.948e+01,2.010e+01,2.127e+01,2.103e+01,1.764e+01,1.974e+01,1.955e+01,1.806e+01
2.085e-02,6.455e-01,4.639e-01,9.828e-01,1.216e+00,1.613e+00,1.529e+00,2.373e+00,2.555e+00,2.148e+00,1.858e+00,3.040e+00,2.322e+00,3.751e+00,3.677e+00,4.741e+00,3.617e+00,4.669e+00,5.063e+00,6.219e+00,5.445e+00,7.308e+00,6.649e+00,7.853e+00,5.598e+00,6.783e+00,7.940e+00,4.757e+00,7.347e+00,7.262e+00,8.406e+00,7.847e+00,9.211e+00,1.038e+01,9.510e+00,9.510e+00,1.100e+01,9.706e+00,8.922e+00,1.153e+01,1.137e+01,1.199e+01,1.269e+01,1.312e+01,1.164e+01,1.289e+01,1.383e+01,1.097e+01,1.348e+01,1.167e+01,1.065e+01,1.191e+01,1.261e+01,1.243e+01,1.403e+01,1.427e+01,1.507e+01,1.461e+01,1.563e+01,1.548e+01,1.729e+01,1.621e+01,1.720e+01,1.755e+01,1.438e+01,1.596e+01,1.693e+01,1.845e+01,1.831e+01,1.542e+01,1.789e+01,1.620e+01,1.943e+01,1.676e+01,1.681e+01,1.734e+01,1.826e+01,1.690e+01,1.829e+01,1.886e+01,1.903e+01,1.956e+01,1.877e+01,1.759e+01,1.676e+01,1.855e+01,1.584e+01,1.762e+01,1.745e+01,1.562e+01
1.809e-02,6.288e-01,1.028e+00,1.698e+00,2.014e+00,2.037e+00,2.408e+00,3.071e+00,3.366e+00,2.555e+00,2.863e+00,3.855e+00,4.025e+00,4.308e+00,5.199e+00,4.720e+00,4.535e+00,4.629e+00,4.970e+00,5.437e+00,5.131e+00,6.030e+00,6.977e+00,8.423e+00,5.814e+00,7.185e+00,8.365e+00,4.998e+00,7.196e+00,7.651e+00,8.026e+00,7.607e+00,8.761e+00,8.763e+00,9.049e+00,7.375e+00,1.059e+01,9.935e+00,7.561e+00,1.035e+01,1.111e+01,1.208e+01,1.258e+01,1.183e+01,1.003e+01,1.290e+01,1.322e+01,1.110e+01,1.296e+01,1.265e+01,1.225e+01,1.378e+01,1.411e+01,1.363e+01,1.544e+01,1.555e+01,1.552e+01,1.520e+01,1.752e+01,1.841e+01,1.812e+01,1.794e+01,1.965e+01,2.121e+01,1.599e+01,1.663e+01,1.820e+01,2.029e+01,2.071e+01,1.869e+01,2.052e+01,1.737e+01,2.158e+01,1.820e+01,1.772e+01,1.910e+01,1.932e+01,2.032e+01,1.933e+01,2.164e+01,2.042e+01,2.095e+01,1.928e+01,1.939e+01,1.941e+01,2.202e+01,1.821e+01,1.979e+01,2.015e+01,1.937e+01
1.689e-02,5.522e-01,7.218e-01,1.231e+00,1.508e+00,1.484e+00,1.543e+00,2.134e+00,3.686e+00,2.214e+00,2.164e+00,2.997e+00,2.567e+00,4.448e+00,4.430e+00,5.064e+00,4.352e+00,4.687e+00,5.110e+00,6.415e+00,5.662e+00,7.407e+00,6.810e+00,8.820e+00,6.793e+00,8.678e+00,9.761e+00,5.803e+00,9.259e+00,8.803e+00,9.815e+00,9.112e+00,1.012e+01,1.112e+01,9.574e+00,8.739e+00,1.197e+01,1.120e+01,1.031e+01,1.173e+01,1.228e+01,1.333e+01,1.321e+01,1.317e+01,1.075e+01,1.354e+01,1.468e+01,1.195e+01,1.374e+01,1.196e+01,1.188e+01,1.288e+01,1.407e+01,1.315e+01,1.614e+01,1.542e+01,1.724e+01,1.489e+01,1.776e+01,1.827e+01,1.833e+01,1.800e+01,1.864e+01,1.838e+01,1.390e+01,1.674e+01,2.004e+01,2.029e+01,2.095e+01,1.980e+01,2.100e+01,1.964e+01,2.178e+01,1.949e+01,1.868e+01,1.954e+01,2.006e+01,2.043e+01,2.046e+01,2.147e+01,2.150e+01,2.263e+01,1.969e+01,2.130e+01,1.858e+01,2.105e+01,1.754e+01,1.958e+01,1.853e+01,1.807e+01
1.611e-02,5.574e-01,8.525e-01,1.483e+00,1.692e+00,1.980e+00,2.408e+00,2.685e+00,3.393e+00,2.653e+00,2.381e+00,4.057e+00,3.510e+00,4.120e+00,5.105e+00,4.230e+00,4.412e+00,4.957e+00,5.269e+00,5.730e+00,5.307e+00,7.507e+00,6.808e+00,7.906e+00,6.113e+00,6.893e+00,8.788e+00,5.111e+00,7.301e+00,8.142e+00,8.185e+00,7.905e+00,8.859e+00,1.032e+01,8.256e+00,8.837e+00,1.198e+01,1.096e+01,8.770e+00,1.136e+01,1.212e+01,1.110e+01,1.408e+01,1.286e+01,1.174e+01,1.330e+01,1.342e+01,1.120e+01,1.293e+01,1.323e+01,1.191e+01,1.432e+01,1.427e+01,1.285e+01,1.390e+01,1.550e+01,1.395e+01,1.418e+01,1.654e+01,1.646e+01,1.539e+01,1.612e+01,1.622e+01,1.693e+01,1.619e+01,1.586e+01,1.819e+01,1.801e+01,1.987e+01,1.680e+01,1.852e+01,1.791e+01,2.243e+01,1.792e+01,1.597e+01,1.857e+01,2.047e+01,2.005e+01,2.015e+01,2.079e+01,1.906e+01,2.162e+01,1.839e+01,1.984e+01,1.932e+01,1.868e+01,1.816e+01,1.810e+01,1.911e+01,1.780e+01
1.384e-02,4.311e-01,3.033e-01,5.473e-01,7.465e-01,1.267e+00,1.127e+00,1.934e+00,2.237e+00,1.746e+00,1.713e+00,2.448e+00,1.664e+00,2.586e+00,3.415e+00,3.778e+00,3.190e+00,3.522e+00,4.546e+00,5.206e+00,4.003e+00,5.070e+00,4.322e+00,5.345e+00,3.961e+00,4.943e+00,6.411e+00,3.007e+00,5.160e+00,5.476e+00,4.914e+00,6.040e+00,6.949e+00,7.329e+00,7.180e+00,6.435e+00,8.818e+00,8.306e+00,7.288e+00,9.287e+00,8.895e+00,9.350e+00,1.049e+01,1.119e+01,9.590e+00,9.570e+00,1.102e+01,8.581e+00,1.065e+01,9.971e+00,1.054e+01,9.733e+00,1.086e+01,1.074e+01,1.332e+01,1.309e+01,1.363e+01,1.220e+01,1.456e+01,1.521e+01,1.503e+01,1.373e+01,1.430e+01,1.555e+01,1.274e+01,1.404e+01,1.726e+01,1.777e+01,1.729e+01,1.624e+01,1.795e+01,1.576e+01,1.869e+01,1.599e+01,1.620e+01,1.652e+01,1.623e+01,1.781e+01,1.664e+01,1.832e+01,1.772e+01,1.844e+01,1.811e+01,1.591e+01,1.630e+01,1.781e+01,1.489e+01,1.633e+01,1.675e+01,1.517e+01
2.604e-03,1.304e-01,4.407e-01,7.915e-01,9.776e-01,1.746e+00,1.540e+00,2.216e+00,2.694e+00,1.289e+00,2.163e+00,2.813e+00,2.251e+00,4.380e+00,4.624e+00,4.769e+00,3.700e+00,3.671e+00,5.198e+00,6.469e+00,5.614e+00,5.952e+00,6.123e+00,6.607e+00,5.677e+00,7.182e+00,8.640e+00,4.329e+00,7.498e+00,6.872e+00,7.948e+00,7.878e+00,8.862e+00,9.076e+00,8.915e+00,7.656e+00,1.065e+01,9.211e+00,7.896e+00,1.141e+01,1.083e+01,1.157e+01,1.093e+01,1.377e+01,1.034e+01,1.130e+01,1.242e+01,1.028e+01,1.204e+01,1.060e+01,1.163e+01,1.252e+01,1.188e+01,1.220e+01,1.474e+01,1.375e+01,1.429e+01,1.259e+01,1.530e+01,1.658e+01,1.516e+01,1.467e+01,1.625e+01,1.443e+01,1.314e+01,1.362e+01,1.639e+01,1.823e+01,1.697e+01,1.642e+01,1.808e+01,1.782e+01,1.927e+01,1.720e+01,1.631e+01,1.670e+01,1.783e+01,1.768e+01,1.884e+01,1.971e+01,1.924e+01,1.816e+01,1.795e+01,1.835e+01,1.642e+01,1.860e+01,1.440e+01,1.916e+01,1.702e+01,1.623e+01
4.596e-03,2.065e-01,6.182e-01,1.057e+00,1.276e+00,1.888e+00,2.407e+00,2.874e+00,3.260e+00,2.343e+00,2.640e+00,4.253e+00,3.685e+00,5.031e+00,6.357e+00,5.384e+00,4.913e+00,5.883e+00,6.863e+00,7.183e+00,6.803e+00,8.567e+00,7.883e+00,8.384e+00,7.155e+00,9.423e+00,1.039e+01,5.551e+00,8.413e+00,8.807e+00,9.566e+00,9.485e+00,1.016e+01,1.153e+01,1.109e+01,9.289e+00,1.305e+01,1.254e+01,9.393e+00,1.288e+01,1.335e+01,1.366e+01,1.399e+01,1.449e+01,1.232e+01,1.365e+01,1.531e+01,1.284e+01,1.349e+01,1.305e+01,1.267e+01,1.360e+01,1.418e+01,1.401e+01,1.596e+01,1.565e+01,1.555e+01,1.621e+01,1.758e+01,1.865e+01,1.782e+01,1.760e+01,1.839e+01,1.871e+01,1.570e+01,1.711e+01,1.921e+01,2.067e+01,2.024e+01,1.829e+01,2.021e+01,1.610e+01,2.077e+01,1.853e+01,1.829e+01,1.912e+01,1.913e+01,2.095e+01,2.128e+01,2.107e+01,2.021e+01,2.119e+01,1.926e+01,2.014e+01,1.864e+01,2.076e+01,1.666e+01,2.059e+01,1.908e+01,1.721e+01
8.559e-03,2.674e-01,3.260e-01,5.855e-01,7.578e-01,1.358e+00,1.145e+00,1.239e+00,1.982e+00,1.388e+00,1.259e+00,2.023e+00,1.712e+00,3.018e+00,3.953e+00,3.854e+00,3.764e+00,3.298e+00,4.448e+00,4.526e+00,4.384e+00,5.503e+00,5.316e+00,6.378e+00,6.162e+00,6.493e+00,7.626e+00,4.444e+00,6.335e+00,5.645e+00,6.902e+00,6.864e+00,7.282e+00,8.540e+00,7.961e+00,6.290e+00,9.037e+00,9.655e+00,8.179e+00,8.975e+00,1.030e+01,1.118e+01,1.123e+01,1.212e+01,9.353e+00,1.098e+01,1.242e+01,1.101e+01,1.136e+01,1.078e+01,1.099e+01,1.203e+01,1.290e+01,1.127e+01,1.365e+01,1.352e+01,1.496e+01,1.382e+01,1.607e+01,1.700e+01,1.806e+01,1.645e+01,1.897e+01,1.777e+01,1.360e+01,1.591e+01,1.857e+01,2.024e+01,1.977e+01,1.892e+01,1.975e+01,1.695e+01,2.086e+01,1.993e+01,1.829e+01,2.037e+01,1.918e+01,2.091e+01,1.927e+01,1.920e+01,1.945e+01,1.952e+01,1.853e+01,2.027e+01,1.861e+01,2.053e+01,1.649e+01,2.092e+01,1.871e+01,1.848e+01
1.556e-02,5.467e-01,9.901e-01,1.480e+00,1.886e+00,2.430e+00,1.374e+00,2.609e+00,2.956e+00,1.469e+00,2.371e+00,3.337e+00,3.000e+00,4.562e+00,4.364e+00,5.114e+00,3.616e+00,4.948e+00,5.000e+00,5.615e+00,5.885e+00,5.542e+00,6.621e+00,7.586e+00,6.682e+00,6.729e+00,8.009e+00,5.719e+00,7.643e+00,6.616e+00,8.578e+00,8.232e+00,8.898e+00,9.200e+00,8.880e+00,7.965e+00,1.145e+01,9.981e+00,9.357e+00,1.211e+01,1.190e+01,1.124e+01,1.262e+01,1.328e+01,1.258e+01,1.255e+01,1.379e+01,1.053e+01,1.269e+01,1.137e+01,1.162e+01,1.337e+01,1.315e+01,1.242e+01,1.511e+01,1.384e+01,1.500e+01,1.583e+01,1.555e+01,1.690e+01,1.645e+01,1.577e+01,1.753e+01,1.806e+01,1.535e+01,1.569e+01,1.762e+01,1.814e+01,1.868e+01,1.768e+01,1.845e+01,1.641e+01,1.998e+01,1.866e+01,1.929e+01,1.993e+01,2.106e+01,1.970e+01,1.946e+01,2.150e+01,1.984e+01,2.039e+01,1.982e+01,2.096e+01,1.877e+01,2.103e+01,1.800e+01,2.002e+01,1.940e+01,1.729e+01
1.110e-02,3.686e-01,4.651e-01,7.223e-01,9.464e-01,1.301e+00,5.908e-01,1.530e+00,1.220e+00,9.955e-01,1.343e+00,1.688e+00,1.864e+00,2.206e+00,2.626e+00,2.611e+00,2.425e+00,3.573e+00,3.385e+00,4.046e+00,3.764e+00,5.064e+00,6.107e+00,6.180e+00,5.691e+00,5.976e+00,7.062e+00,5.098e+00,7.207e+00,6.197e+00,7.286e+00,6.842e+00,8.045e+00,8.912e+00,7.937e+00,7.558e+00,1.056e+01,8.251e+00,8.195e+00,1.005e+01,1.119e+01,1.098e+01,1.138e+01,1.199e+01,9.407e+00,1.170e+01,1.197e+01,1.011e+01,1.102e+01,9.824e+00,1.107e+01,1.190e+01,1.319e+01,1.150e+01,1.265e+01,1.330e+01,1.388e+01,1.239e+01,1.536e+01,1.475e+01,1.628e+01,1.468e+01,1.529e+01,1.695e+01,1.261e+01,1.454e+01,1.620e+01,1.779e+01,1.703e+01,1.665e+01,1.772e+01,1.627e+01,2.015e+01,1.701e+01,1.689e+01,1.873e+01,1.829e+01,1.901e+01,1.849e+01,2.072e+01,1.795e+01,2.060e+01,1.870e+01,2.014e+01,1.974e+01,1.979e+01,1.630e+01,1.997e+01,2.033e+01,1.891e+01
1.899e-02,6.009e-01,4.984e-01,1.004e+00,1.212e+00,2.008e+00,1.819e+00,2.513e+00,2.973e+00,2.364e+00,2.212e+00,3.467e+00,2.514e+00,3.376e+00,4.466e+00,4.254e+00,3.835e+00,4.791e+00,4.419e+00,5.458e+00,4.548e+00,6.332e+00,6.570e+00,6.778e+00,5.207e+00,6.922e+00,7.509e+00,5.130e+00,7.219e+00,7.326e+00,7.065e+00,7.523e+00,8.328e+00,8.577e+00,9.070e+00,7.728e+00,9.910e+00,9.575e+00,8.169e+00,1.040e+01,1.015e+01,1.156e+01,1.255e+01,1.224e+01,1.040e+01,1.088e+01,1.238e+01,1.030e+01,1.087e+01,1.045e+01,1.121e+01,1.115e+01,1.206e+01,1.146e+01,1.373e+01,1.378e+01,1.392e+01,1.460e+01,1.620e+01,1.634e+01,1.631e+01,1.486e+01,1.577e+01,1.636e+01,1.461e+01,1.616e+01,1.736e+01,1.814e+01,1.925e+01,1.672e+01,1.813e+01,1.616e+01,1.880e+01,1.723e+01,1.724e+01,1.832e+01,1.954e+01,2.124e+01,1.938e+01,1.940e+01,1.880e+01,1.862e+01,1.825e+01,1.961e+01,1.936e+01,1.931e+01,1.772e+01,1.962e+01,1.903e+01,1.875e+01
2.220e-02,7.086e-01,7.271e-01,1.174e+00,1.492e+00,1.646e+00,7.734e-01,1.970e+00,2.294e+00,1.712e+00,1.639e+00,2.780e+00,2.372e+00,3.525e+00,2.919e+00,4.162e+00,2.966e+00,4.414e+00,4.211e+00,5.232e+00,5.382e+00,5.819e+00,6.784e+00,6.657e+00,5.441e+00,6.377e+00,6.049e+00,4.425e+00,6.320e+00,6.327e+00,7.867e+00,6.384e+00,8.415e+00,8.421e+00,7.179e+00,7.436e+00,9.810e+00,9.306e+00,7.921e+00,9.808e+00,1.041e+01,1.049e+01,1.101e+01,1.091e+01,1.028e+01,1.088e+01,1.319e+01,1.082e+01,1.272e+01,1.068e+01,1.261e+01,1.086e+01,1.235e+01,1.174e+01,1.279e+01,1.350e+01,1.335e+01,1.484e+01,1.468e+01,1.737e+01,1.696e+01,1.475e+01,1.570e+01,1.679e+01,1.434e+01,1.455e+01,1.803e+01,1.735e+01,1.765e+01,1.583e+01,1.731e+01,1.617e+01,1.958e+01,1.785e+01,1.873e+01,1.823e+01,2.052e+01,2.032e+01,1.887e+01,2.105e+01,1.951e+01,2.178e+01,1.857e+01,1.974e+01,1.796e+01,1.892e+01,1.766e+01,1.879e+01,1.837e+01,1.767e+01
1.255e-02,4.147e-01,6.878e-01,1.150e+00,1.444e+00,1.408e+00,1.742e+00,2.003e+00,3.102e+00,2.058e+00,2.115e+00,3.096e+00,3.102e+00,4.141e+00,4.530e+00,4.718e+00,4.245e+00,5.180e+00,5.052e+00,5.607e+00,5.623e+00,7.107e+00,6.609e+00,8.194e+00,6.729e+00,7.756e+00,9.235e+00,5.937e+00,8.661e+00,7.626e+00,9.816e+00,9.005e+00,9.148e+00,1.076e+01,1.018e+01,7.937e+00,1.166e+01,1.118e+01,1.040e+01,1.211e+01,1.280e+01,1.415e+01,1.460e+01,1.401e+01,1.116e+01,1.380e+01,1.506e+01,1.254e+01,1.319e+01,1.308e+01,1.326e+01,1.480e+01,1.561e+01,1.404e+01,1.677e+01,1.532e+01,1.736e+01,1.523e+01,1.813e+01,1.727e+01,1.859e+01,1.800e+01,1.923e+01,1.872e+01,1.553e+01,1.716e+01,1.826e+01,2.002e+01,2.010e+01,1.825e+01,2.055e+01,1.799e+01,2.102e+01,2.035e+01,2.003e+01,2.067e+01,2.081e+01,2.219e+01,2.238e+01,2.352e+01,2.201e+01,2.206e+01,2.057e+01,2.254e+01,2.118e+01,2.323e+01,1.966e+01,2.285e+01,2.142e+01,2.169e+01
2.950e-03,1.699e-01,7.677e-01,1.064e+00,1.351e+00,2.130e+00,2.054e+00,2.598e+00,3.497e+00,1.913e+00,2.395e+00,3.773e+00,2.754e+00,3.824e+00,5.214e+00,4.399e+00,4.074e+00,4.971e+00,5.511e+00,5.847e+00,5.696e+00,6.318e+00,5.809e+00,7.456e+00,6.509e+00,7.428e+00,8.847e+00,4.919e+00,7.741e+00,8.015e+00,9.319e+00,8.547e+00,9.245e+00,9.511e+00,9.061e+00,7.525e+00,1.187e+01,1.148e+01,8.194e+00,1.217e+01,1.185e+01,1.174e+01,1.211e+01,1.305e+01,1.037e+01,1.191e+01,1.212e+01,1.166e+01,1.141e+01,1.151e+01,1.152e+01,1.214e+01,1.346e+01,1.231e+01,1.458e+01,1.393e+01,1.453e+01,1.512e+01,1.643e+01,1.692e+01,1.676e+01,1.525e+01,1.803e+01,1.665e+01,1.463e+01,1.630e+01,1.742e+01,1.870e+01,1.984e+01,1.699e+01,1.920e+01,1.561e+01,2.077e+01,1.874e+01,1.918e+01,2.046e+01,2.070e+01,2.170e+01,2.063e+01,2.295e+01,2.199e+01,2.126e+01,1.986e+01,2.015e+01,1.981e+01,2.345e+01,1.855e+01,2.230e+01,1.794e+01,1.921e+01
2.239e-02,6.974e-01,7.441e-01,1.292e+00,1.696e+00,2.305e+00,1.773e+00,2.525e+00,2.818e+00,2.301e+00,1.904e+00,3.398e+00,2.843e+00,3.803e+00,3.899e+00,4.492e+00,3.433e+00,4.748e+00,4.225e+00,5.512e+00,5.064e+00,6.738e+00,6.314e+00,7.265e+00,6.109e+00,6.486e+00,7.581e+00,5.331e+00,7.781e+00,6.241e+00,7.954e+00,8.028e+00,8.210e+00,9.099e+00,8.157e+00,8.169e+00,1.182e+01,9.784e+00,8.630e+00,1.055e+01,1.157e+01,1.232e+01,1.278e+01,1.289e+01,1.119e+01,1.291e+01,1.313e+01,1.097e+01,1.221e+01,1.243e+01,1.131e+01,1.248e+01,1.447e+01,1.169e+01,1.352e+01,1.317e+01,1.385e+01,1.384e+01,1.521e+01,1.710e+01,1.709e+01,1.543e+01,1.642e+01,1.692e+01,1.599e+01,1.610e+01,1.768e+01,1.903e+01,1.777e+01,1.699e+01,1.814e+01,1.630e+01,2.035e+01,1.840e+01,1.763e+01,1.838e+01,2.136e+01,2.025e+01,2.015e+01,2.037e+01,2.040e+01,2.215e+01,2.055e+01,2.111e+01,1.904e+01,2.102e+01,1.834e+01,2.215e+01,1.925e+01,1.807e+01
2.141e-02,7.102e-01,9.085e-01,1.575e+00,1.873e+00,2.341e+00,2.133e+00,2.860e+00,3.260e+00,2.559e+00,2.195e+00,3.829e+00,3.158e+00,4.325e+00,4.809e+00,5.072e+00,4.612e+00,5.361e+00,5.560e+00,5.944e+00,5.978e+00,7.373e+00,6.762e+00,8.316e+00,6.486e+00,7.212e+00,8.316e+00,5.495e+00,7.135e+00,7.595e+00,8.346e+00,7.873e+00,8.483e+00,1.006e+01,9.131e+00,8.454e+00,1.167e+01,1.140e+01,8.604e+00,1.219e+01,1.182e+01,1.143e+01,1.215e+01,1.300e+01,1.053e+01,1.281e+01,1.286e+01,1.013e+01,1.202e+01,1.188e+01,9.738e+00,1.201e+01,1.274e+01,1.223e+01,1.359e+01,1.378e+01,1.404e+01,1.445e+01,1.496e+01,1.520e+01,1.581e+01,1.306e+01,1.488e+01,1.603e+01,1.361e+01,1.556e+01,1.490e+01,1.759e+01,1.739e+01,1.590e+01,1.692e+01,1.541e+01,1.792e+01,1.663e+01,1.664e+01,1.859e+01,2.057e+01,1.875e+01,1.950e+01,2.078e+01,2.004e+01,2.132e+01,1.971e+01,2.014e+01,1.852e+01,2.091e+01,1.862e+01,2.095e+01,1.848e+01,1.644e+01
1.721e-02,5.879e-01,8.404e-01,1.360e+00,1.698e+00,2.322e+00,1.858e+00,3.021e+00,3.068e+00,2.146e+00,2.346e+00,3.748e+00,3.017e+00,4.403e+00,5.110e+00,5.046e+00,3.948e+00,4.703e+00,5.251e+00,5.717e+00,5.294e+00,5.859e+00,6.264e+00,6.698e+00,5.249e+00,7.117e+00,8.070e+00,4.228e+00,7.397e+00,7.000e+00,8.779e+00,8.234e+00,8.773e+00,9.562e+00,9.355e+00,7.226e+00,1.060e+01,9.281e+00,7.201e+00,1.070e+01,1.009e+01,1.060e+01,1.193e+01,1.254e+01,1.053e+01,1.187e+01,1.276e+01,1.238e+01,1.264e+01,1.222e+01,1.143e+01,1.303e+01,1.273e+01,1.282e+01,1.520e+01,1.332e+01,1.533e+01,1.379e+01,1.678e+01,1.833e+01,1.801e+01,1.675e+01,1.894e+01,1.757e+01,1.427e+01,1.548e+01,1.695e+01,1.841e+01,1.829e+01,1.739e+01,1.969e+01,1.708e+01,1.999e+01,1.755e+01,1.809e+01,2.083e+01,2.093e+01,2.049e+01,2.069e+01,2.258e+01,2.167e+01,2.182e+01,2.131e+01,1.967e+01,2.039e+01,2.298e+01,1.886e+01,2.259e+01,2.003e+01,1.995e+01
8.453e-03,3.175e-01,6.443e-01,1.048e+00,1.266e+00,1.658e+00,1.675e+00,2.304e+00,2.440e+00,1.755e+00,2.081e+00,2.796e+00,2.765e+00,3.441e+00,4.009e+00,3.564e+00,3.373e+00,4.114e+00,4.375e+00,4.476e+00,3.825e+00,5.824e+00,5.862e+00,7.179e+00,5.690e+00,6.002e+00,7.400e+00,4.326e+00,6.582e+00,6.755e+00,7.079e+00,6.955e+00,7.414e+00,8.153e+00,7.723e+00,7.348e+00,1.063e+01,9.025e+00,7.738e+00,1.072e+01,1.152e+01,1.117e+01,1.161e+01,1.173e+01,9.524e+00,1.195e+01,1.237e+01,1.018e+01,1.102e+01,1.111e+01,1.174e+01,1.196e+01,1.243e+01,1.231e+01,1.284e+01,1.293e+01,1.474e+01,1.281e+01,1.542e+01,1.408e+01,1.566e+01,1.350e+01,1.598e+01,1.491e+01,1.182e+01,1.397e+01,1.603e+01,1.734e+01,1.646e+01,1.633e+01,1.654e+01,1.697e+01,1.866e+01,1.683e+01,1.665e+01,1.865e+01,1.873e+01,1.681e+01,1.797e+01,2.028e+01,1.951e+01,2.014e+01,1.957e+01,1.989e+01,1.908e+01,2.093e+01,1.846e+01,2.025e+01,1.954e+01,1.765e+01
1.501e-03,1.175e-01,6.094e-01,8.818e-01,1.033e+00,9.783e-01,1.429e+00,1.763e+00,2.575e+00,1.324e+00,2.062e+00,2.720e+00,2.606e+00,3.663e+00,3.674e+00,3.600e+00,2.941e+00,3.981e+00,4.515e+00,4.707e+00,4.709e+00,5.828e+00,5.944e+00,7.140e+00,6.002e+00,7.331e+00,8.062e+00,5.254e+00,7.616e+00,7.194e+00,8.574e+00,7.255e+00,8.479e+00,8.586e+00,7.977e+00,7.918e+00,1.039e+01,8.670e+00,7.760e+00,9.527e+00,1.120e+01,1.059e+01,1.205e+01,1.151e+01,1.010e+01,1.131e+01,1.107e+01,9.722e+00,1.118e+01,9.622e+00,1.086e+01,1.171e+01,1.213e+01,1.020e+01,1.285e+01,1.282e+01,1.376e+01,1.250e+01,1.443e+01,1.488e+01,1.413e+01,1.396e+01,1.490e+01,1.442e+01,1.306e+01,1.276e+01,1.519e+01,1.657e+01,1.621e+01,1.567e+01,1.710e+01,1.510e+01,1.725e+01,1.526e+01,1.594e+01,1.592e+01,1.743e+01,1.738e+01,1.871e+01,1.936e+01,1.821e+01,1.844e+01,1.843e+01,1.872e+01,1.823e+01,2.036e+01,1.717e+01,1.848e+01,1.769e+01,1.745e+01
2.244e-02,7.715e-01,1.154e+00,1.793e+00,2.117e+00,2.542e+00,2.315e+00,3.074e+00,3.337e+00,2.682e+00,2.612e+00,4.374e+00,3.923e+00,4.824e+00,5.538e+00,5.482e+00,4.892e+00,5.795e+00,6.334e+00,6.310e+00,6.874e+00,7.798e+00,7.930e+00,8.482e+00,7.681e+00,8.179e+00,9.559e+00,5.911e+00,8.770e+00,8.237e+00,9.215e+00,9.360e+00,9.940e+00,1.156e+01,1.075e+01,9.873e+00,1.268e+01,1.223e+01,8.927e+00,1.261e+01,1.416e+01,1.335e+01,1.376e+01,1.442e+01,1.285e+01,1.541e+01,1.633e+01,1.375e+01,1.415e+01,1.364e+01,1.337e+01,1.541e+01,1.533e+01,1.489e+01,1.676e+01,1.724e+01,1.715e+01,1.707e+01,1.811e+01,1.993e+01,1.934e+01,1.755e+01,1.978e+01,2.040e+01,1.683e+01,1.713e+01,1.964e+01,2.075e+01,2.172e+01,2.001e+01,2.168e+01,1.751e+01,2.220e+01,2.116e+01,2.049e+01,2.284e+01,2.265e+01,2.376e+01,2.302e+01,2.492e+01,2.356e+01,2.468e+01,2.330e+01,2.449e+01,2.351e+01,2.583e+01,2.253e+01,2.676e+01,2.390e+01,2.145e+01
2.026e-03,1.130e-01,6.160e-01,1.024e+00,1.299e+00,1.538e+00,1.634e+00,2.027e+00,3.568e+00,1.474e+00,2.105e+00,3.084e+00,2.509e+00,5.028e+00,4.290e+00,4.986e+00,3.376e+00,4.231e+00,4.201e+00,6.447e+00,6.045e+00,6.194e+00,6.337e+00,7.202e+00,6.030e+00,7.366e+00,8.059e+00,4.707e+00,7.375e+00,7.292e+00,8.134e+00,8.162e+00,9.178e+00,9.514e+00,8.877e+00,7.975e+00,1.011e+01,9.765e+00,8.051e+00,1.140e+01,1.107e+01,1.159e+01,1.098e+01,1.341e+01,1.022e+01,1.203e+01,1.283e+01,1.153e+01,1.378e+01,1.135e+01,1.167e+01,1.385e+01,1.357e+01,1.217e+01,1.450e+01,1.394e+01,1.348e+01,1.508e+01,1.709e+01,1.650e+01,1.714e+01,1.533e+01,1.717e+01,1.705e+01,1.539e+01,1.488e+01,1.696e+01,1.843e+01,1.959e+01,1.732e+01,1.845e+01,1.752e+01,1.947e+01,1.812e+01,1.767e+01,1.871e+01,2.128e+01,1.867e+01,2.034e+01,2.276e+01,2.064e+01,2.081e+01,2.091e+01,2.187e+01,1.992e+01,2.271e+01,2.095e+01,2.131e+01,2.214e+01,1.982e+01
1.800e-02,5.939e-01,7.029e-01,1.182e+00,1.398e+00,1.519e+00,1.155e+00,1.929e+00,2.563e+00,1.636e+00,2.091e+00,2.776e+00,2.775e+00,4.548e+00,4.655e+00,5.022e+00,3.954e+00,4.156e+00,4.902e+00,4.828e+00,4.967e+00,6.132e+00,7.095e+00,8.470e+00,6.861e+00,8.148e+00,8.729e+00,5.543e+00,8.573e+00,7.719e+00,8.772e+00,7.988e+00,9.954e+00,1.064e+01,9.756e+00,8.244e+00,1.095e+01,1.087e+01,9.183e+00,1.111e+01,1.288e+01,1.270e+01,1.321e+01,1.280e+01,1.135e+01,1.368e+01,1.387e+01,1.241e+01,1.321e+01,1.190e+01,1.205e+01,1.340e+01,1.357e+01,1.211e+01,1.422e+01,1.477e+01,1.537e+01,1.323e+01,1.681e+01,1.681e+01,1.667e+01,1.688e+01,1.639e+01,1.812e+01,1.422e+01,1.512e+01,1.686e+01,1.874e+01,1.806e+01,1.820e+01,1.865e+01,1.793e+01,2.085e+01,1.828e+01,1.888e+01,1.870e+01,2.030e+01,2.008e+01,2.100e+01,2.175e+01,2.137e+01,2.136e+01,2.177e+01,2.212e+01,2.024e+01,2.275e+01,2.017e+01,2.224e+01,2.242e+01,2.004e+01
1.769e-02,5.698e-01,5.113e-01,9.783e-01,1.190e+00,2.124e+00,1.312e+00,2.320e+00,2.909e+00,2.062e+00,2.283e+00,3.465e+00,2.664e+00,4.368e+00,4.947e+00,4.719e+00,3.877e+00,4.054e+00,4.404e+00,4.845e+00,3.954e+00,5.568e+00,6.298e+00,6.120e+00,5.233e+00,5.797e+00,7.315e+00,4.343e+00,6.846e+00,6.444e+00,6.438e+00,7.021e+00,8.080e+00,8.971e+00,8.258e+00,7.040e+00,9.883e+00,9.334e+00,7.552e+00,1.062e+01,1.034e+01,1.034e+01,1.078e+01,1.221e+01,9.534e+00,1.171e+01,1.317e+01,1.040e+01,1.163e+01,1.229e+01,1.015e+01,1.134e+01,1.289e+01,1.176e+01,1.279e+01,1.167e+01,1.208e+01,1.307e+01,1.474e+01,1.505e+01,1.500e+01,1.352e+01,1.533e+01,1.723e+01,1.244e+01,1.415e+01,1.478e+01,1.637e+01,1.559e+01,1.551e+01,1.672e+01,1.495e+01,1.793e+01,1.662e+01,1.764e+01,1.924e+01,1.871e+01,1.807e+01,1.853e+01,2.026e+01,1.855e+01,2.039e+01,1.861e+01,1.998e+01,1.928e+01,2.093e+01,1.718e+01,2.188e+01,2.169e+01,1.864e+01
1.151e-02,3.613e-01,4.883e-01,8.803e-01,1.102e+00,1.549e+00,1.946e+00,1.733e+00,3.327e+00,2.579e+00,1.926e+00,3.469e+00,2.911e+00,3.944e+00,4.861e+00,4.604e+00,4.778e+00,5.336e+00,5.544e+00,6.050e+00,5.591e+00,8.015e+00,7.023e+00,7.599e+00,7.094e+00,7.234e+00,8.519e+00,5.553e+00,7.791e+00,6.981e+00,7.647e+00,6.840e+00,8.078e+00,1.007e+01,8.464e+00,7.775e+00,1.111e+01,1.037e+01,7.487e+00,1.024e+01,1.112e+01,1.124e+01,1.178e+01,1.156e+01,9.871e+00,1.220e+01,1.167e+01,9.487e+00,1.101e+01,1.166e+01,1.112e+01,1.262e+01,1.166e+01,1.217e+01,1.213e+01,1.444e+01,1.365e+01,1.259e+01,1.409e+01,1.578e+01,1.511e+01,1.538e+01,1.703e+01,1.627e+01,1.420e+01,1.508e+01,1.784e+01,1.730e+01,1.809e+01,1.789e+01,1.849e+01,1.569e+01,2.063e+01,1.749e+01,1.590e+01,1.814e+01,1.839e+01,1.914e+01,2.031e+01,2.233e+01,1.917e+01,2.177e+01,1.946e+01,2.113e+01,2.267e+01,2.337e+01,1.981e+01,2.199e+01,2.345e+01,2.020e+01
