3.233e-01,8.353e-01,5.818e-01,4.107e-02,7.036e-01,7.134e-01,9.609e-01,5.276e-01,6.611e-01,8.128e-01,2.947e-01,7.180e-01,6.881e-01,3.676e-01,4.997e-01,8.896e-01,2.869e-01,4.005e-01,4.465e-01,6.178e-01,4.480e-01,1.824e-02,1.746e-01,1.772e-01,4.954e-01,9.814e-01,8.002e-01,9.817e-02,3.735e-01,6.094e-01,9.442e-01,9.734e-01,1.743e-01,2.502e-01,3.800e-01,7.706e-01,5.033e-01,8.677e-01,9.986e-01,6.427e-01,3.814e-02,3.961e-01,8.641e-01,7.062e-01,3.380e-01,7.169e-01,9.783e-01,2.905e-01,8.614e-01,2.768e-01,2.550e-01,9.058e-01,8.209e-01,2.188e-01,6.987e-01,8.924e-02
2.170e-01,1.350e+00,1.306e+00,4.565e-01,7.041e-01,8.346e-01,1.136e+00,1.055e+00,6.420e-01,1.467e+00,1.113e+00,9.976e-01,8.790e-01,1.103e+00,1.051e+00,1.147e+00,9.636e-01,1.247e+00,1.250e+00,1.232e+00,3.491e-01,4.207e-01,4.483e-01,9.590e-01,7.977e-01,1.510e+00,7.557e-01,6.699e-01,7.718e-01,1.353e+00,6.616e-01,7.299e-01,5.093e-01,9.041e-01,6.767e-01,1.467e+00,5.267e-01,8.054e-01,1.570e+00,6.676e-01,1.102e-01,5.311e-01,9.832e-01,1.443e+00,4.869e-01,1.288e+00,1.111e+00,1.173e+00,1.084e+00,2.543e-01,9.718e-01,1.109e+00,9.464e-01,7.585e-01,1.095e+00,1.002e+00
1.144e-01,9.430e-01,1.022e+00,1.172e+00,6.819e-01,1.449e+00,1.374e+00,1.231e+00,1.354e+00,1.954e+00,1.651e+00,8.656e-01,1.580e+00,1.494e+00,1.381e+00,1.096e+00,1.106e+00,1.698e+00,1.058e+00,1.686e+00,1.033e+00,9.244e-01,8.898e-01,1.646e+00,1.423e+00,1.046e+00,5.673e-01,8.250e-01,1.076e+00,1.016e+00,1.326e+00,4.622e-01,1.226e+00,1.643e+00,5.680e-01,2.020e+00,4.927e-01,1.360e+00,1.926e+00,1.033e+00,1.038e+00,9.114e-01,7.273e-01,1.108e+00,9.650e-01,1.222e+00,1.456e+00,1.462e+00,7.379e-01,4.275e-01,1.035e+00,1.406e+00,9.235e-01,1.014e+00,7.757e-01,1.096e+00
4.439e-02,6.847e-01,7.445e-01,1.027e+00,5.539e-01,4.934e-01,5.711e-01,6.314e-01,7.425e-01,1.433e+00,1.699e+00,1.453e+00,1.037e+00,7.415e-01,9.308e-01,8.602e-01,1.596e+00,1.038e+00,1.254e+00,1.314e+00,2.799e-01,1.023e+00,8.146e-01,1.100e+00,1.137e+00,1.178e+00,1.127e+00,1.396e+00,1.028e+00,1.040e+00,3.733e-01,5.483e-01,1.017e+00,1.030e+00,3.865e-01,1.763e+00,9.089e-01,6.921e-01,1.521e+00,7.119e-01,6.858e-01,5.421e-01,9.728e-01,1.239e+00,7.618e-01,7.966e-01,1.388e+00,1.094e+00,8.036e-01,2.590e-01,6.542e-01,8.576e-01,1.378e+00,9.049e-01,9.973e-01,1.314e+00
5.867e-02,1.848e-01,1.677e-01,4.642e-01,3.471e-01,8.031e-01,1.260e+00,1.282e+00,1.093e+00,6.657e-01,1.099e+00,8.374e-01,1.065e+00,7.959e-01,5.449e-01,8.923e-01,1.240e+00,1.076e+00,4.365e-01,1.552e+00,5.784e-01,4.752e-01,1.009e+00,1.201e+00,1.235e+00,6.750e-01,8.155e-01,6.134e-01,5.155e-01,8.146e-01,7.551e-01,7.403e-01,1.408e+00,9.955e-01,1.019e+00,7.378e-01,1.229e+00,1.214e+00,1.335e+00,6.769e-01,1.350e+00,8.780e-01,7.906e-01,5.358e-01,1.127e+00,6.348e-01,8.917e-01,5.575e-01,4.301e-01,1.091e+00,7.589e-01,6.911e-01,1.037e+00,1.044e+00,9.506e-01,9.921e-01
2.532e-01,1.268e+00,1.182e+00,1.090e+00,1.050e+00,1.855e+00,2.272e+00,2.381e+00,2.303e+00,2.729e+00,2.250e+00,2.939e+00,1.903e+00,1.661e+00,1.705e+00,2.718e+00,2.494e+00,2.042e+00,1.962e+00,3.351e+00,1.447e+00,2.029e+00,1.441e+00,2.710e+00,2.698e+00,2.569e+00,1.964e+00,1.731e+00,1.631e+00,2.503e+00,1.325e+00,2.420e+00,2.395e+00,1.729e+00,1.700e+00,3.226e+00,2.683e+00,2.684e+00,2.941e+00,2.208e+00,1.606e+00,2.039e+00,2.457e+00,2.832e+00,1.825e+00,2.237e+00,2.542e+00,2.493e+00,1.921e+00,1.940e+00,1.518e+00,2.036e+00,3.087e+00,1.757e+00,2.122e+00,2.410e+00
3.139e-01,1.042e+00,8.920e-01,1.514e+00,1.261e+00,2.103e+00,2.948e+00,2.622e+00,3.510e+00,3.094e+00,2.804e+00,3.487e+00,3.470e+00,2.408e+00,2.211e+00,2.361e+00,2.724e+00,2.274e+00,2.445e+00,4.066e+00,2.208e+00,2.577e+00,2.207e+00,3.018e+00,3.133e+00,2.445e+00,2.211e+00,1.830e+00,2.554e+00,2.550e+00,2.570e+00,2.554e+00,3.015e+00,2.596e+00,1.582e+00,3.230e+00,2.660e+00,2.958e+00,4.030e+00,2.661e+00,2.613e+00,2.616e+00,2.402e+00,2.798e+00,2.971e+00,2.242e+00,3.174e+00,2.252e+00,2.169e+00,2.489e+00,1.387e+00,2.942e+00,3.229e+00,2.235e+00,2.132e+00,2.253e+00
6.745e-02,9.590e-01,1.036e+00,8.067e-01,5.489e-01,9.715e-01,1.464e+00,1.987e+00,1.452e+00,2.514e+00,2.768e+00,2.889e+00,1.457e+00,2.032e+00,1.869e+00,1.656e+00,2.507e+00,2.178e+00,2.589e+00,2.761e+00,1.517e+00,1.670e+00,1.817e+00,2.399e+00,2.326e+00,2.244e+00,1.483e+00,1.556e+00,1.677e+00,2.062e+00,7.497e-01,1.581e+00,2.318e+00,2.334e+00,1.562e+00,2.874e+00,1.825e+00,1.624e+00,2.400e+00,1.775e+00,1.688e+00,2.092e+00,2.041e+00,2.726e+00,1.625e+00,1.714e+00,2.415e+00,2.263e+00,2.255e+00,1.273e+00,1.827e+00,1.694e+00,2.641e+00,1.502e+00,1.547e+00,2.455e+00
1.431e-01,7.229e-01,6.885e-01,5.191e-01,5.421e-01,1.210e+00,1.476e+00,1.692e+00,1.971e+00,2.464e+00,1.848e+00,2.902e+00,1.510e+00,1.819e+00,1.467e+00,2.221e+00,2.222e+00,2.072e+00,2.274e+00,2.262e+00,1.708e+00,1.873e+00,1.970e+00,2.713e+00,2.496e+00,2.319e+00,1.499e+00,1.320e+00,1.514e+00,1.680e+00,1.025e+00,1.502e+00,1.974e+00,1.944e+00,1.985e+00,2.242e+00,1.809e+00,2.467e+00,2.638e+00,1.666e+00,1.790e+00,1.901e+00,1.694e+00,1.963e+00,1.520e+00,1.942e+00,1.968e+00,2.544e+00,2.054e+00,1.781e+00,1.476e+00,2.308e+00,2.645e+00,1.834e+00,1.938e+00,1.650e+00
7.832e-02,2.974e-01,2.530e-01,2.830e-01,3.238e-01,6.511e-01,1.569e+00,1.723e+00,1.944e+00,2.315e+00,2.165e+00,3.141e+00,2.570e+00,2.403e+00,1.300e+00,1.702e+00,2.266e+00,2.166e+00,2.157e+00,3.330e+00,1.387e+00,2.592e+00,1.835e+00,2.862e+00,2.240e+00,2.057e+00,1.917e+00,1.458e+00,1.737e+00,2.141e+00,1.490e+00,2.475e+00,1.971e+00,1.851e+00,1.665e+00,1.453e+00,2.135e+00,1.568e+00,2.762e+00,2.341e+00,1.731e+00,2.601e+00,1.997e+00,2.365e+00,2.553e+00,2.111e+00,2.249e+00,1.508e+00,1.995e+00,2.202e+00,1.599e+00,2.539e+00,2.619e+00,1.612e+00,1.754e+00,1.904e+00
2.914e-01,7.803e-01,5.690e-01,4.775e-01,8.243e-01,1.420e+00,2.189e+00,2.053e+00,2.894e+00,3.183e+00,2.150e+00,4.374e+00,3.218e+00,3.410e+00,1.938e+00,3.547e+00,2.940e+00,3.077e+00,2.660e+00,4.669e+00,2.606e+00,3.143e+00,2.146e+00,4.199e+00,3.071e+00,3.382e+00,2.810e+00,2.223e+00,2.217e+00,2.838e+00,2.774e+00,3.752e+00,2.436e+00,2.264e+00,2.361e+00,2.566e+00,3.055e+00,3.706e+00,4.172e+00,3.703e+00,2.334e+00,3.820e+00,3.218e+00,3.250e+00,3.202e+00,3.279e+00,3.715e+00,2.729e+00,3.100e+00,3.182e+00,2.253e+00,3.590e+00,4.266e+00,2.890e+00,2.410e+00,2.458e+00
1.875e-01,7.123e-01,6.480e-01,8.259e-01,7.295e-01,1.846e+00,2.498e+00,2.551e+00,3.049e+00,3.512e+00,2.680e+00,4.927e+00,3.455e+00,3.859e+00,3.093e+00,3.830e+00,3.178e+00,4.161e+00,2.796e+00,5.325e+00,2.930e+00,3.699e+00,3.064e+00,4.689e+00,3.467e+00,3.579e+00,3.220e+00,2.615e+00,2.367e+00,3.844e+00,3.836e+00,3.881e+00,3.902e+00,3.679e+00,3.090e+00,2.996e+00,3.897e+00,4.552e+00,5.025e+00,3.993e+00,3.681e+00,4.794e+00,3.930e+00,3.917e+00,3.948e+00,3.746e+00,3.874e+00,2.988e+00,3.085e+00,3.328e+00,3.291e+00,4.338e+00,4.188e+00,3.344e+00,2.543e+00,3.459e+00
1.315e-01,1.081e+00,1.118e+00,8.294e-01,6.518e-01,1.286e+00,2.024e+00,2.388e+00,2.271e+00,3.253e+00,3.055e+00,4.761e+00,3.347e+00,4.564e+00,4.020e+00,3.089e+00,3.370e+00,4.396e+00,4.375e+00,5.200e+00,3.722e+00,3.739e+00,3.860e+00,4.558e+00,3.300e+00,4.270e+00,3.404e+00,2.798e+00,3.183e+00,3.802e+00,3.638e+00,3.391e+00,3.840e+00,4.301e+00,3.108e+00,3.848e+00,3.912e+00,3.899e+00,5.273e+00,3.868e+00,3.659e+00,5.263e+00,4.158e+00,4.729e+00,3.895e+00,3.959e+00,4.227e+00,3.295e+00,4.442e+00,2.746e+00,3.730e+00,4.454e+00,4.305e+00,3.967e+00,2.783e+00,3.846e+00
1.023e-01,5.169e-01,4.981e-01,4.275e-01,4.067e-01,8.890e-01,1.319e+00,1.527e+00,1.644e+00,2.116e+00,1.952e+00,3.174e+00,2.299e+00,3.943e+00,3.259e+00,2.992e+00,3.009e+00,3.306e+00,3.534e+00,3.701e+00,3.210e+00,2.702e+00,3.489e+00,3.793e+00,3.006e+00,3.333e+00,3.101e+00,2.169e+00,2.489e+00,2.614e+00,2.867e+00,3.096e+00,3.079e+00,3.765e+00,2.893e+00,2.921e+00,3.524e+00,3.701e+00,3.865e+00,2.874e+00,3.067e+00,4.432e+00,3.365e+00,3.201e+00,3.544e+00,3.097e+00,3.083e+00,2.962e+00,3.572e+00,2.631e+00,3.262e+00,3.599e+00,3.214e+00,3.529e+00,2.756e+00,3.124e+00
7.737e-02,8.312e-01,8.940e-01,1.024e+00,6.100e-01,1.019e+00,1.528e+00,1.823e+00,1.893e+00,3.240e+00,3.268e+00,4.131e+00,2.882e+00,4.153e+00,3.641e+00,3.624e+00,3.628e+00,4.552e+00,4.332e+00,5.126e+00,3.157e+00,3.805e+00,3.398e+00,4.205e+00,3.284e+00,4.003e+00,3.428e+00,3.789e+00,3.665e+00,3.873e+00,3.512e+00,4.282e+00,4.290e+00,4.558e+00,2.536e+00,4.459e+00,3.515e+00,3.985e+00,5.143e+00,3.399e+00,4.028e+00,5.287e+00,4.371e+00,4.707e+00,4.775e+00,3.409e+00,3.900e+00,3.379e+00,4.203e+00,2.719e+00,3.575e+00,3.845e+00,4.303e+00,3.469e+00,3.163e+00,4.739e+00
1.167e-01,9.184e-01,9.461e-01,1.076e+00,7.614e-01,1.200e+00,1.844e+00,2.084e+00,2.043e+00,2.714e+00,3.037e+00,3.561e+00,2.975e+00,4.470e+00,3.294e+00,4.415e+00,4.617e+00,4.423e+00,4.063e+00,5.527e+00,3.467e+00,3.931e+00,4.310e+00,5.407e+00,3.897e+00,4.888e+00,4.299e+00,4.165e+00,3.858e+00,3.402e+00,3.574e+00,4.263e+00,4.430e+00,4.535e+00,3.730e+00,4.575e+00,4.753e+00,4.546e+00,5.358e+00,4.194e+00,4.412e+00,5.711e+00,4.568e+00,4.121e+00,4.723e+00,4.478e+00,4.907e+00,3.664e+00,4.869e+00,3.679e+00,4.293e+00,4.219e+00,4.536e+00,5.145e+00,4.339e+00,5.000e+00
2.784e-01,8.616e-01,7.298e-01,1.440e+00,1.154e+00,2.330e+00,2.531e+00,2.495e+00,3.475e+00,3.923e+00,3.145e+00,4.706e+00,3.243e+00,3.561e+00,3.232e+00,4.455e+00,4.590e+00,3.792e+00,3.786e+00,5.880e+00,3.532e+00,4.502e+00,4.344e+00,5.829e+00,5.444e+00,4.924e+00,4.596e+00,3.663e+00,3.265e+00,3.980e+00,3.625e+00,4.610e+00,5.125e+00,4.253e+00,3.982e+00,5.000e+00,4.534e+00,5.755e+00,6.017e+00,3.956e+00,4.134e+00,5.311e+00,4.472e+00,4.482e+00,4.409e+00,4.324e+00,4.545e+00,4.556e+00,3.895e+00,4.412e+00,3.476e+00,4.610e+00,5.819e+00,3.996e+00,4.039e+00,3.987e+00
9.649e-02,7.282e-01,7.291e-01,7.565e-01,5.689e-01,6.678e-01,1.107e+00,1.252e+00,1.489e+00,2.789e+00,2.640e+00,3.940e+00,2.635e+00,2.752e+00,2.726e+00,3.217e+00,3.598e+00,4.646e+00,4.099e+00,5.048e+00,3.183e+00,5.594e+00,4.103e+00,4.991e+00,4.292e+00,4.971e+00,4.824e+00,4.981e+00,4.338e+00,4.438e+00,3.849e+00,4.387e+00,5.349e+00,3.773e+00,3.477e+00,4.302e+00,3.978e+00,4.310e+00,6.602e+00,3.837e+00,4.604e+00,5.353e+00,4.888e+00,5.413e+00,4.631e+00,4.646e+00,3.713e+00,3.637e+00,4.403e+00,3.199e+00,3.829e+00,5.053e+00,4.914e+00,4.452e+00,4.442e+00,5.080e+00
1.687e-01,4.405e-01,3.522e-01,9.104e-01,6.925e-01,1.315e+00,1.677e+00,1.512e+00,2.346e+00,2.758e+00,2.270e+00,3.818e+00,3.268e+00,3.796e+00,3.075e+00,3.605e+00,3.397e+00,3.947e+00,3.583e+00,5.601e+00,3.947e+00,5.377e+00,4.565e+00,5.890e+00,4.727e+00,4.114e+00,5.297e+00,4.221e+00,4.213e+00,3.971e+00,5.187e+00,5.285e+00,4.464e+00,4.810e+00,3.343e+00,3.776e+00,4.793e+00,4.972e+00,6.204e+00,4.688e+00,4.561e+00,5.991e+00,5.139e+00,5.011e+00,4.822e+00,5.074e+00,4.519e+00,4.013e+00,4.339e+00,4.183e+00,3.829e+00,5.026e+00,5.111e+00,4.680e+00,3.802e+00,4.049e+00
1.876e-01,7.449e-01,6.751e-01,7.356e-01,6.971e-01,1.398e+00,2.213e+00,2.108e+00,2.806e+00,2.982e+00,2.281e+00,3.627e+00,3.432e+00,3.667e+00,2.728e+00,3.652e+00,3.514e+00,4.110e+00,3.923e+00,5.835e+00,3.759e+00,5.720e+00,4.761e+00,6.601e+00,5.586e+00,5.543e+00,4.803e+00,5.118e+00,5.132e+00,4.330e+00,4.421e+00,5.774e+00,5.303e+00,4.163e+00,3.587e+00,4.321e+00,4.157e+00,4.895e+00,6.799e+00,5.060e+00,5.186e+00,6.138e+00,4.932e+00,5.629e+00,5.945e+00,5.210e+00,4.188e+00,4.865e+00,4.393e+00,4.692e+00,4.280e+00,5.674e+00,4.739e+00,4.647e+00,4.695e+00,4.718e+00
1.396e-01,9.968e-01,1.031e+00,1.137e+00,8.086e-01,1.626e+00,2.308e+00,2.377e+00,2.572e+00,2.567e+00,2.434e+00,3.058e+00,2.965e+00,3.332e+00,2.679e+00,3.207e+00,3.621e+00,4.266e+00,3.740e+00,5.161e+00,4.313e+00,4.832e+00,4.459e+00,5.669e+00,5.168e+00,5.391e+00,4.829e+00,4.837e+00,4.625e+00,4.298e+00,4.165e+00,4.223e+00,5.664e+00,4.360e+00,3.654e+00,4.473e+00,3.630e+00,5.231e+00,7.227e+00,3.937e+00,5.261e+00,5.376e+00,4.452e+00,5.268e+00,5.494e+00,4.477e+00,3.593e+00,5.474e+00,3.655e+00,3.875e+00,3.734e+00,5.209e+00,4.908e+00,4.851e+00,4.399e+00,5.250e+00
6.463e-02,5.351e-01,5.977e-01,1.133e+00,5.754e-01,1.532e+00,1.931e+00,2.135e+00,2.947e+00,3.465e+00,2.877e+00,4.297e+00,3.125e+00,4.192e+00,3.272e+00,4.105e+00,4.207e+00,4.152e+00,4.203e+00,6.039e+00,4.169e+00,5.828e+00,5.445e+00,7.576e+00,6.344e+00,6.560e+00,6.031e+00,5.856e+00,5.125e+00,5.226e+00,4.895e+00,6.185e+00,6.465e+00,5.897e+00,4.191e+00,5.799e+00,4.426e+00,5.811e+00,7.041e+00,5.505e+00,5.868e+00,7.130e+00,5.591e+00,6.292e+00,6.296e+00,5.993e+00,4.871e+00,6.009e+00,4.764e+00,5.169e+00,5.154e+00,5.828e+00,5.617e+00,4.663e+00,4.512e+00,6.107e+00
1.417e-01,7.859e-01,7.713e-01,8.709e-01,6.595e-01,1.154e+00,1.704e+00,1.697e+00,1.979e+00,2.460e+00,2.238e+00,3.552e+00,2.671e+00,3.553e+00,3.122e+00,3.547e+00,2.997e+00,4.313e+00,3.640e+00,5.484e+00,3.678e+00,4.740e+00,4.330e+00,5.812e+00,5.375e+00,5.608e+00,5.610e+00,5.386e+00,5.597e+00,5.208e+00,5.464e+00,6.569e+00,5.194e+00,5.743e+00,3.393e+00,5.057e+00,4.831e+00,5.561e+00,7.222e+00,4.637e+00,5.598e+00,6.527e+00,6.031e+00,5.976e+00,5.656e+00,5.495e+00,4.308e+00,4.981e+00,5.204e+00,4.246e+00,4.726e+00,5.392e+00,5.211e+00,4.647e+00,3.814e+00,5.282e+00
1.283e-01,3.742e-01,2.811e-01,4.591e-01,5.066e-01,8.990e-01,1.849e+00,2.076e+00,2.250e+00,2.284e+00,2.361e+00,4.055e+00,2.746e+00,2.980e+00,2.551e+00,2.710e+00,2.920e+00,3.327e+00,3.446e+00,4.665e+00,3.423e+00,4.089e+00,3.852e+00,5.197e+00,4.421e+00,5.317e+00,4.643e+00,4.363e+00,5.146e+00,4.131e+00,3.940e+00,6.109e+00,5.219e+00,4.693e+00,3.013e+00,4.546e+00,4.516e+00,4.229e+00,5.980e+00,5.060e+00,5.550e+00,6.123e+00,5.201e+00,5.408e+00,5.859e+00,4.147e+00,4.623e+00,4.251e+00,4.489e+00,3.694e+00,3.981e+00,5.286e+00,5.043e+00,4.477e+00,4.125e+00,5.336e+00
1.244e-01,3.967e-01,3.732e-01,1.262e+00,7.443e-01,1.455e+00,2.159e+00,1.977e+00,3.110e+00,3.004e+00,2.817e+00,4.078e+00,3.691e+00,3.330e+00,2.570e+00,3.179e+00,3.736e+00,4.197e+00,3.689e+00,5.983e+00,3.523e+00,5.494e+00,4.884e+00,6.933e+00,6.861e+00,6.044e+00,5.841e+00,5.904e+00,6.266e+00,5.594e+00,6.257e+00,6.710e+00,7.067e+00,6.334e+00,4.092e+00,5.252e+00,5.083e+00,6.426e+00,9.099e+00,5.149e+00,7.134e+00,6.887e+00,6.090e+00,5.884e+00,7.048e+00,5.735e+00,5.756e+00,5.355e+00,4.451e+00,5.655e+00,4.461e+00,6.393e+00,6.723e+00,5.569e+00,5.418e+00,5.628e+00
6.682e-02,7.619e-01,8.692e-01,1.704e+00,8.047e-01,1.792e+00,1.885e+00,2.178e+00,3.098e+00,4.500e+00,3.977e+00,5.010e+00,4.056e+00,4.896e+00,3.849e+00,4.046e+00,4.659e+00,5.198e+00,5.235e+00,6.240e+00,5.424e+00,6.718e+00,5.602e+00,7.942e+00,7.735e+00,6.901e+00,7.510e+00,6.626e+00,6.934e+00,5.718e+00,6.768e+00,6.354e+00,7.042e+00,7.077e+00,4.856e+00,7.977e+00,6.692e+00,7.105e+00,9.544e+00,7.070e+00,7.456e+00,8.455e+00,7.194e+00,7.122e+00,6.561e+00,7.197e+00,6.903e+00,6.640e+00,6.322e+00,5.706e+00,5.819e+00,7.286e+00,7.729e+00,6.038e+00,5.412e+00,7.202e+00
2.328e-02,5.333e-01,5.989e-01,6.809e-01,3.770e-01,7.468e-01,1.489e+00,1.914e+00,2.274e+00,3.387e+00,3.210e+00,4.980e+00,3.314e+00,4.443e+00,3.145e+00,3.810e+00,4.517e+00,4.745e+00,4.581e+00,5.938e+00,4.890e+00,6.434e+00,5.363e+00,7.379e+00,5.462e+00,7.255e+00,8.020e+00,7.248e+00,6.942e+00,5.687e+00,6.076e+00,6.715e+00,7.289e+00,6.822e+00,5.252e+00,6.384e+00,6.051e+00,5.856e+00,9.268e+00,8.444e+00,7.674e+00,8.908e+00,7.577e+00,7.396e+00,7.781e+00,6.782e+00,7.226e+00,6.331e+00,6.739e+00,5.345e+00,6.675e+00,7.619e+00,7.136e+00,6.729e+00,6.358e+00,8.188e+00
1.790e-01,7.823e-01,7.085e-01,6.949e-01,6.973e-01,1.295e+00,1.625e+00,1.914e+00,2.084e+00,3.393e+00,2.949e+00,4.707e+00,2.562e+00,2.971e+00,3.174e+00,3.767e+00,3.538e+00,4.883e+00,4.639e+00,5.269e+00,4.540e+00,6.311e+00,5.769e+00,7.152e+00,7.985e+00,7.799e+00,7.993e+00,8.108e+00,8.282e+00,7.406e+00,7.375e+00,8.783e+00,8.419e+00,7.495e+00,5.366e+00,7.805e+00,7.916e+00,7.644e+00,1.045e+01,7.222e+00,8.908e+00,8.665e+00,8.355e+00,8.497e+00,6.837e+00,7.415e+00,7.023e+00,6.783e+00,6.860e+00,6.193e+00,6.241e+00,8.001e+00,8.557e+00,6.347e+00,6.954e+00,8.254e+00
2.642e-01,1.247e+00,1.160e+00,1.022e+00,1.019e+00,1.867e+00,2.335e+00,2.378e+00,2.803e+00,3.859e+00,2.976e+00,4.949e+00,3.546e+00,4.521e+00,3.786e+00,5.390e+00,4.719e+00,5.220e+00,4.774e+00,6.910e+00,4.370e+00,6.464e+00,6.238e+00,8.343e+00,7.857e+00,9.141e+00,9.536e+00,8.207e+00,7.628e+00,8.377e+00,8.221e+00,9.066e+00,8.225e+00,7.850e+00,7.252e+00,8.173e+00,8.985e+00,9.104e+00,1.150e+01,8.524e+00,8.770e+00,1.045e+01,9.994e+00,8.499e+00,8.857e+00,9.516e+00,7.932e+00,7.673e+00,8.268e+00,7.589e+00,8.296e+00,8.276e+00,9.075e+00,6.641e+00,7.903e+00,8.116e+00
2.063e-01,8.595e-01,7.550e-01,2.930e-01,5.812e-01,1.187e+00,1.897e+00,2.116e+00,2.286e+00,3.116e+00,2.304e+00,3.999e+00,2.729e+00,3.895e+00,2.746e+00,3.440e+00,3.401e+00,3.501e+00,4.145e+00,5.890e+00,4.473e+00,5.479e+00,4.795e+00,7.111e+00,6.568e+00,7.745e+00,7.033e+00,6.572e+00,6.908e+00,7.352e+00,7.122e+00,8.930e+00,7.297e+00,6.281e+00,5.906e+00,6.776e+00,6.689e+00,6.785e+00,9.852e+00,8.559e+00,7.705e+00,9.680e+00,7.933e+00,8.883e+00,7.626e+00,7.400e+00,6.965e+00,7.915e+00,6.883e+00,6.942e+00,6.182e+00,7.029e+00,8.526e+00,5.362e+00,6.035e+00,7.534e+00
1.883e-01,1.217e+00,1.241e+00,1.265e+00,9.134e-01,1.686e+00,2.360e+00,2.251e+00,3.018e+00,3.550e+00,2.842e+00,4.453e+00,3.621e+00,3.905e+00,3.489e+00,3.545e+00,3.658e+00,4.628e+00,4.263e+00,5.530e+00,3.835e+00,5.444e+00,5.327e+00,7.296e+00,6.384e+00,7.689e+00,6.808e+00,6.991e+00,7.317e+00,8.038e+00,7.953e+00,8.592e+00,8.523e+00,8.136e+00,5.981e+00,7.326e+00,6.800e+00,7.365e+00,1.155e+01,7.542e+00,8.235e+00,8.781e+00,8.136e+00,9.024e+00,8.627e+00,8.329e+00,6.978e+00,8.822e+00,6.947e+00,6.629e+00,7.359e+00,9.076e+00,7.927e+00,7.299e+00,7.334e+00,8.510e+00
2.283e-01,1.171e+00,1.096e+00,5.857e-01,7.786e-01,1.445e+00,1.851e+00,1.958e+00,1.649e+00,2.389e+00,1.866e+00,2.963e+00,2.361e+00,3.903e+00,3.234e+00,4.576e+00,3.504e+00,4.657e+00,4.222e+00,6.235e+00,5.107e+00,6.131e+00,5.277e+00,7.556e+00,6.855e+00,8.008e+00,8.687e+00,7.877e+00,7.443e+00,7.553e+00,8.496e+00,9.624e+00,8.439e+00,7.725e+00,6.660e+00,8.404e+00,7.865e+00,8.951e+00,1.151e+01,8.570e+00,9.031e+00,9.917e+00,9.843e+00,9.531e+00,8.370e+00,9.480e+00,8.279e+00,8.472e+00,8.538e+00,7.586e+00,7.540e+00,7.508e+00,8.287e+00,7.253e+00,7.578e+00,8.919e+00
3.052e-01,9.073e-01,6.896e-01,3.522e-01,8.296e-01,9.635e-01,1.929e+00,1.729e+00,2.375e+00,2.785e+00,2.258e+00,4.395e+00,3.207e+00,3.397e+00,2.844e+00,3.301e+00,3.747e+00,3.750e+00,4.223e+00,5.218e+00,3.256e+00,5.103e+00,5.144e+00,6.386e+00,5.884e+00,7.027e+00,7.296e+00,5.924e+00,6.388e+00,6.841e+00,6.628e+00,8.234e+00,7.207e+00,6.923e+00,7.205e+00,6.379e+00,6.889e+00,7.775e+00,1.124e+01,7.210e+00,7.527e+00,8.036e+00,8.127e+00,7.891e+00,7.522e+00,8.531e+00,7.233e+00,7.324e+00,8.244e+00,7.530e+00,6.910e+00,8.023e+00,7.915e+00,6.834e+00,6.865e+00,7.233e+00
2.488e-01,1.256e+00,1.209e+00,1.321e+00,1.102e+00,1.848e+00,2.730e+00,2.654e+00,2.961e+00,3.860e+00,3.699e+00,4.591e+00,4.024e+00,4.382e+00,3.587e+00,4.100e+00,4.743e+00,4.849e+00,4.541e+00,6.885e+00,3.784e+00,5.874e+00,6.249e+00,7.799e+00,7.604e+00,8.082e+00,8.630e+00,7.447e+00,7.395e+00,7.953e+00,7.970e+00,9.014e+00,8.645e+00,9.183e+00,7.525e+00,7.877e+00,8.073e+00,9.500e+00,1.338e+01,8.753e+00,8.691e+00,9.701e+00,1.049e+01,9.294e+00,1.023e+01,1.030e+01,9.112e+00,9.047e+00,9.089e+00,8.448e+00,9.424e+00,9.569e+00,9.436e+00,7.199e+00,8.300e+00,8.837e+00
3.169e-01,1.480e+00,1.371e+00,9.398e-01,1.086e+00,2.152e+00,2.705e+00,2.834e+00,3.136e+00,3.962e+00,2.872e+00,5.088e+00,3.377e+00,3.982e+00,3.943e+00,4.787e+00,4.160e+00,5.091e+00,5.167e+00,6.607e+00,4.957e+00,6.154e+00,5.417e+00,7.000e+00,5.937e+00,8.145e+00,6.586e+00,6.494e+00,7.296e+00,7.434e+00,7.301e+00,8.461e+00,8.552e+00,7.649e+00,6.991e+00,9.072e+00,8.599e+00,9.410e+00,1.285e+01,9.563e+00,8.659e+00,1.014e+01,9.968e+00,1.015e+01,9.141e+00,9.866e+00,9.003e+00,1.000e+01,9.282e+00,7.677e+00,8.409e+00,9.713e+00,9.743e+00,8.538e+00,8.569e+00,9.892e+00
1.253e-01,5.256e-01,5.249e-01,1.175e+00,7.174e-01,2.011e+00,2.472e+00,2.570e+00,3.483e+00,3.484e+00,2.682e+00,4.276e+00,3.908e+00,4.247e+00,3.093e+00,4.159e+00,3.906e+00,4.784e+00,4.256e+00,6.396e+00,5.874e+00,6.975e+00,5.810e+00,8.333e+00,7.408e+00,7.188e+00,7.911e+00,7.365e+00,7.477e+00,5.879e+00,7.512e+00,8.245e+00,8.262e+00,7.644e+00,6.237e+00,8.975e+00,7.711e+00,9.530e+00,1.287e+01,9.750e+00,9.520e+00,9.893e+00,1.006e+01,8.884e+00,9.785e+00,9.973e+00,8.592e+00,9.834e+00,9.141e+00,8.048e+00,8.358e+00,9.425e+00,9.209e+00,8.434e+00,7.690e+00,9.011e+00
2.924e-01,1.063e+00,8.994e-01,9.678e-01,1.055e+00,1.503e+00,2.500e+00,2.508e+00,3.032e+00,3.228e+00,3.051e+00,5.069e+00,3.252e+00,4.140e+00,3.946e+00,4.407e+00,4.183e+00,4.767e+00,5.078e+00,5.955e+00,4.957e+00,5.458e+00,5.253e+00,6.644e+00,6.698e+00,7.058e+00,7.765e+00,7.037e+00,7.666e+00,7.598e+00,7.763e+00,8.557e+00,8.487e+00,7.989e+00,5.801e+00,8.415e+00,9.271e+00,9.820e+00,1.252e+01,8.683e+00,1.033e+01,1.060e+01,1.083e+01,1.021e+01,9.935e+00,8.521e+00,7.914e+00,8.591e+00,8.520e+00,7.164e+00,8.643e+00,8.258e+00,9.168e+00,8.739e+00,8.192e+00,1.035e+01
2.821e-01,1.354e+00,1.284e+00,1.296e+00,1.124e+00,2.055e+00,2.256e+00,2.251e+00,2.710e+00,4.469e+00,3.548e+00,5.115e+00,3.487e+00,4.195e+00,3.913e+00,5.178e+00,4.291e+00,5.512e+00,4.335e+00,6.280e+00,4.165e+00,5.947e+00,5.394e+00,7.855e+00,6.576e+00,8.290e+00,7.540e+00,7.411e+00,7.158e+00,7.208e+00,7.866e+00,8.819e+00,8.519e+00,8.074e+00,6.885e+00,9.084e+00,8.254e+00,1.015e+01,1.275e+01,1.034e+01,1.041e+01,1.082e+01,1.147e+01,1.080e+01,1.035e+01,1.051e+01,9.721e+00,8.980e+00,9.942e+00,7.587e+00,1.052e+01,1.018e+01,9.090e+00,8.853e+00,8.465e+00,1.029e+01
8.494e-02,6.609e-01,7.011e-01,1.134e+00,6.342e-01,1.188e+00,1.435e+00,1.546e+00,2.407e+00,3.302e+00,2.745e+00,3.966e+00,2.939e+00,3.982e+00,3.066e+00,4.083e+00,4.333e+00,4.306e+00,4.216e+00,5.752e+00,4.479e+00,6.056e+00,5.220e+00,7.383e+00,7.031e+00,7.393e+00,7.476e+00,8.069e+00,7.174e+00,7.553e+00,7.064e+00,8.751e+00,9.094e+00,8.058e+00,6.953e+00,8.328e+00,8.336e+00,1.085e+01,1.433e+01,1.129e+01,1.081e+01,1.077e+01,1.218e+01,1.151e+01,1.093e+01,1.066e+01,1.009e+01,1.098e+01,9.894e+00,9.274e+00,1.098e+01,1.030e+01,1.035e+01,1.009e+01,9.546e+00,1.174e+01
1.921e-02,2.328e-01,2.826e-01,8.392e-01,3.559e-01,9.743e-01,1.048e+00,1.319e+00,2.023e+00,2.712e+00,2.324e+00,3.598e+00,2.499e+00,3.369e+00,2.437e+00,3.264e+00,3.344e+00,3.376e+00,3.255e+00,4.587e+00,4.389e+00,5.110e+00,4.876e+00,6.905e+00,6.442e+00,7.770e+00,6.995e+00,6.749e+00,6.654e+00,5.352e+00,7.030e+00,7.657e+00,7.797e+00,7.489e+00,5.855e+00,9.029e+00,7.063e+00,8.530e+00,1.228e+01,1.055e+01,9.901e+00,1.084e+01,1.107e+01,9.129e+00,9.794e+00,1.071e+01,9.995e+00,9.702e+00,9.417e+00,8.289e+00,9.552e+00,9.940e+00,9.788e+00,7.909e+00,8.246e+00,1.072e+01
2.456e-01,7.649e-01,6.509e-01,9.700e-01,8.949e-01,1.840e+00,2.139e+00,1.977e+00,2.730e+00,3.520e+00,2.743e+00,4.513e+00,3.389e+00,4.434e+00,3.441e+00,5.240e+00,4.229e+00,5.186e+00,3.618e+00,6.084e+00,4.552e+00,5.614e+00,5.292e+00,7.486e+00,6.331e+00,7.170e+00,8.527e+00,7.406e+00,6.407e+00,6.982e+00,8.251e+00,8.183e+00,8.334e+00,8.096e+00,6.558e+00,8.143e+00,8.127e+00,9.350e+00,1.201e+01,9.837e+00,9.796e+00,1.105e+01,1.166e+01,8.487e+00,9.901e+00,1.049e+01,9.037e+00,8.295e+00,9.214e+00,8.309e+00,1.005e+01,9.236e+00,9.624e+00,8.349e+00,8.615e+00,1.037e+01
7.286e-02,2.669e-01,2.687e-01,6.763e-01,4.194e-01,1.392e+00,2.189e+00,2.464e+00,3.016e+00,3.090e+00,2.759e+00,4.816e+00,3.619e+00,4.442e+00,3.957e+00,3.628e+00,4.058e+00,4.318e+00,4.939e+00,6.315e+00,4.474e+00,6.127e+00,6.518e+00,7.188e+00,7.355e+00,6.867e+00,7.580e+00,6.431e+00,7.117e+00,7.153e+00,7.383e+00,8.246e+00,8.166e+00,8.755e+00,6.906e+00,7.243e+00,8.989e+00,9.533e+00,1.272e+01,9.226e+00,9.660e+00,1.119e+01,1.183e+01,1.025e+01,1.123e+01,1.050e+01,9.204e+00,9.890e+00,1.034e+01,9.692e+00,9.354e+00,1.015e+01,9.964e+00,9.106e+00,9.093e+00,9.065e+00
1.994e-01,1.281e+00,1.279e+00,9.052e-01,8.647e-01,1.965e+00,2.845e+00,3.034e+00,2.656e+00,3.402e+00,2.933e+00,3.576e+00,3.773e+00,4.578e+00,2.997e+00,4.183e+00,3.728e+00,5.126e+00,3.938e+00,6.607e+00,5.205e+00,6.242e+00,5.139e+00,8.609e+00,7.800e+00,8.684e+00,9.064e+00,8.753e+00,9.300e+00,8.294e+00,8.553e+00,1.073e+01,9.048e+00,8.618e+00,6.746e+00,1.024e+01,1.041e+01,1.074e+01,1.523e+01,1.273e+01,1.280e+01,1.286e+01,1.416e+01,1.191e+01,1.271e+01,1.320e+01,1.184e+01,1.165e+01,1.114e+01,1.053e+01,1.243e+01,1.130e+01,1.218e+01,1.168e+01,1.145e+01,1.348e+01
6.807e-02,6.056e-01,6.733e-01,1.086e+00,6.056e-01,1.770e+00,2.433e+00,2.690e+00,2.903e+00,3.253e+00,2.947e+00,3.712e+00,3.600e+00,3.975e+00,3.059e+00,3.758e+00,3.837e+00,4.615e+00,4.324e+00,6.607e+00,4.073e+00,5.893e+00,5.030e+00,7.355e+00,6.105e+00,6.984e+00,6.403e+00,6.476e+00,6.658e+00,6.734e+00,6.612e+00,8.636e+00,8.350e+00,7.700e+00,6.049e+00,8.670e+00,8.057e+00,9.316e+00,1.275e+01,8.853e+00,1.002e+01,1.107e+01,1.198e+01,1.169e+01,1.324e+01,1.214e+01,9.078e+00,1.177e+01,1.148e+01,1.073e+01,1.130e+01,1.038e+01,1.022e+01,1.103e+01,1.010e+01,1.170e+01
3.011e-01,9.145e-01,7.473e-01,1.024e+00,1.052e+00,1.992e+00,2.889e+00,2.715e+00,3.777e+00,3.349e+00,2.552e+00,4.467e+00,3.821e+00,3.682e+00,2.933e+00,4.130e+00,4.053e+00,3.757e+00,4.378e+00,6.203e+00,4.862e+00,6.272e+00,5.945e+00,7.567e+00,6.962e+00,7.748e+00,7.799e+00,6.816e+00,7.911e+00,6.752e+00,7.591e+00,8.629e+00,7.686e+00,7.545e+00,7.005e+00,7.858e+00,8.627e+00,9.439e+00,1.347e+01,1.087e+01,1.054e+01,1.207e+01,1.215e+01,1.020e+01,1.292e+01,1.141e+01,1.049e+01,1.215e+01,1.240e+01,1.126e+01,1.028e+01,1.131e+01,1.149e+01,1.053e+01,1.080e+01,1.094e+01
1.765e-01,6.393e-01,5.898e-01,9.264e-01,7.450e-01,1.946e+00,2.631e+00,2.826e+00,3.016e+00,2.990e+00,2.828e+00,4.456e+00,3.419e+00,4.383e+00,3.951e+00,4.221e+00,4.030e+00,5.155e+00,4.640e+00,6.840e+00,6.221e+00,6.576e+00,6.711e+00,8.372e+00,7.680e+00,8.560e+00,9.700e+00,8.130e+00,8.658e+00,8.677e+00,1.025e+01,1.035e+01,1.089e+01,1.041e+01,8.803e+00,1.042e+01,1.051e+01,1.165e+01,1.605e+01,1.271e+01,1.294e+01,1.457e+01,1.557e+01,1.290e+01,1.525e+01,1.469e+01,1.275e+01,1.360e+01,1.544e+01,1.333e+01,1.451e+01,1.288e+01,1.383e+01,1.260e+01,1.254e+01,1.458e+01
2.093e-01,9.991e-01,9.230e-01,1.021e+00,9.188e-01,1.594e+00,2.051e+00,2.298e+00,2.209e+00,3.210e+00,3.048e+00,4.681e+00,2.924e+00,4.019e+00,4.148e+00,4.616e+00,4.501e+00,5.078e+00,4.971e+00,6.941e+00,5.058e+00,6.256e+00,6.109e+00,7.414e+00,7.360e+00,8.519e+00,8.167e+00,7.704e+00,7.126e+00,8.176e+00,8.636e+00,1.018e+01,1.010e+01,8.567e+00,7.282e+00,9.496e+00,9.513e+00,1.103e+01,1.480e+01,9.756e+00,1.217e+01,1.314e+01,1.451e+01,1.279e+01,1.436e+01,1.234e+01,1.236e+01,1.225e+01,1.324e+01,1.219e+01,1.254e+01,1.137e+01,1.428e+01,1.177e+01,1.233e+01,1.385e+01
1.284e-01,7.487e-01,7.155e-01,6.672e-01,5.815e-01,1.020e+00,1.591e+00,1.925e+00,2.480e+00,3.306e+00,2.656e+00,5.304e+00,3.006e+00,4.401e+00,4.057e+00,4.614e+00,4.196e+00,4.673e+00,5.268e+00,5.887e+00,4.565e+00,5.888e+00,5.149e+00,6.561e+00,6.118e+00,7.640e+00,6.840e+00,6.764e+00,7.232e+00,8.000e+00,7.924e+00,9.374e+00,9.013e+00,8.722e+00,6.830e+00,8.961e+00,9.680e+00,9.744e+00,1.318e+01,9.259e+00,9.514e+00,1.182e+01,1.248e+01,1.206e+01,1.205e+01,1.167e+01,1.059e+01,1.203e+01,1.396e+01,1.159e+01,1.162e+01,1.201e+01,1.302e+01,1.274e+01,1.081e+01,1.345e+01
3.131e-01,1.522e+00,1.413e+00,1.159e+00,1.221e+00,2.120e+00,2.925e+00,3.090e+00,3.175e+00,3.765e+00,3.276e+00,5.280e+00,3.234e+00,4.219e+00,3.972e+00,5.341e+00,5.228e+00,5.064e+00,4.899e+00,7.159e+00,4.375e+00,6.249e+00,6.581e+00,8.743e+00,8.048e+00,8.830e+00,8.622e+00,7.919e+00,7.469e+00,9.118e+00,8.004e+00,1.037e+01,9.731e+00,8.641e+00,8.916e+00,9.807e+00,1.077e+01,1.160e+01,1.492e+01,1.125e+01,1.197e+01,1.238e+01,1.393e+01,1.253e+01,1.253e+01,1.445e+01,1.170e+01,1.369e+01,1.351e+01,1.287e+01,1.392e+01,1.173e+01,1.352e+01,1.247e+01,1.230e+01,1.411e+01
2.016e-01,8.686e-01,8.080e-01,1.200e+00,8.999e-01,1.752e+00,1.972e+00,1.991e+00,2.894e+00,3.628e+00,2.718e+00,4.796e+00,3.528e+00,4.671e+00,4.171e+00,5.046e+00,4.437e+00,5.169e+00,5.305e+00,6.948e+00,5.769e+00,7.254e+00,6.344e+00,8.674e+00,7.707e+00,8.462e+00,8.403e+00,7.851e+00,8.168e+00,7.725e+00,8.642e+00,9.865e+00,9.209e+00,8.757e+00,6.898e+00,9.355e+00,9.750e+00,1.189e+01,1.504e+01,1.126e+01,1.220e+01,1.339e+01,1.438e+01,1.264e+01,1.439e+01,1.337e+01,1.169e+01,1.325e+01,1.320e+01,1.204e+01,1.456e+01,1.318e+01,1.402e+01,1.357e+01,1.298e+01,1.351e+01
5.746e-02,9.048e-01,9.895e-01,1.023e+00,6.161e-01,1.070e+00,1.576e+00,2.017e+00,1.696e+00,2.893e+00,3.097e+00,3.313e+00,2.460e+00,3.433e+00,2.783e+00,3.110e+00,3.678e+00,3.774e+00,4.247e+00,5.270e+00,2.980e+00,4.554e+00,4.332e+00,5.928e+00,5.485e+00,5.456e+00,6.140e+00,5.950e+00,5.500e+00,5.740e+00,4.765e+00,7.011e+00,5.887e+00,6.464e+00,4.396e+00,6.692e+00,6.588e+00,6.713e+00,9.344e+00,6.732e+00,7.151e+00,8.361e+00,9.752e+00,9.890e+00,9.590e+00,8.845e+00,7.593e+00,9.778e+00,1.002e+01,8.050e+00,1.011e+01,8.653e+00,1.056e+01,9.728e+00,1.013e+01,9.975e+00
2.658e-01,7.798e-01,5.982e-01,3.187e-01,7.051e-01,1.399e+00,1.993e+00,2.039e+00,2.535e+00,2.657e+00,1.702e+00,4.154e+00,2.110e+00,2.821e+00,2.702e+00,3.463e+00,2.822e+00,3.255e+00,3.236e+00,4.283e+00,4.072e+00,4.377e+00,3.910e+00,5.601e+00,6.372e+00,6.294e+00,6.357e+00,5.626e+00,6.336e+00,7.101e+00,7.251e+00,8.488e+00,7.890e+00,6.887e+00,6.371e+00,7.122e+00,8.655e+00,9.674e+00,1.208e+01,9.463e+00,9.876e+00,1.071e+01,1.216e+01,1.111e+01,1.171e+01,1.122e+01,1.105e+01,1.232e+01,1.212e+01,1.141e+01,1.154e+01,1.203e+01,1.284e+01,1.156e+01,1.257e+01,1.250e+01
2.004e-01,1.215e+00,1.205e+00,1.032e+00,8.537e-01,1.746e+00,2.270e+00,2.357e+00,2.626e+00,3.179e+00,2.401e+00,3.696e+00,3.111e+00,3.873e+00,3.384e+00,3.896e+00,3.417e+00,4.003e+00,4.246e+00,6.078e+00,4.539e+00,5.738e+00,4.677e+00,6.860e+00,5.585e+00,8.075e+00,7.448e+00,6.705e+00,7.123e+00,7.429e+00,7.146e+00,8.380e+00,7.872e+00,7.267e+00,6.138e+00,9.234e+00,7.458e+00,8.665e+00,1.205e+01,9.521e+00,9.644e+00,1.117e+01,1.127e+01,1.057e+01,1.121e+01,1.196e+01,9.136e+00,1.112e+01,1.125e+01,9.706e+00,1.157e+01,1.069e+01,1.178e+01,1.135e+01,1.205e+01,1.216e+01
1.418e-01,1.141e+00,1.205e+00,1.121e+00,7.862e-01,1.717e+00,2.253e+00,2.529e+00,2.663e+00,3.500e+00,3.197e+00,4.100e+00,3.217e+00,4.331e+00,3.893e+00,3.848e+00,4.360e+00,4.891e+00,5.288e+00,5.807e+00,4.732e+00,6.207e+00,6.708e+00,8.303e+00,8.031e+00,7.785e+00,7.687e+00,7.337e+00,8.418e+00,8.404e+00,8.364e+00,9.078e+00,9.436e+00,9.575e+00,8.233e+00,9.073e+00,9.945e+00,1.071e+01,1.467e+01,1.027e+01,1.146e+01,1.259e+01,1.356e+01,1.231e+01,1.353e+01,1.406e+01,1.124e+01,1.371e+01,1.449e+01,1.227e+01,1.339e+01,1.270e+01,1.385e+01,1.487e+01,1.421e+01,1.358e+01
1.924e-01,7.555e-01,7.016e-01,9.843e-01,8.043e-01,2.093e+00,2.952e+00,3.136e+00,3.444e+00,4.058e+00,3.487e+00,4.826e+00,4.533e+00,5.468e+00,3.989e+00,4.887e+00,4.645e+00,5.542e+00,5.341e+00,8.362e+00,6.062e+00,7.763e+00,6.428e+00,9.115e+00,8.061e+00,7.919e+00,8.459e+00,8.046e+00,8.738e+00,8.457e+00,9.475e+00,1.087e+01,1.014e+01,9.421e+00,7.542e+00,9.798e+00,1.091e+01,1.104e+01,1.496e+01,1.156e+01,1.181e+01,1.336e+01,1.317e+01,1.211e+01,1.312e+01,1.295e+01,1.146e+01,1.173e+01,1.253e+01,1.211e+01,1.320e+01,1.236e+01,1.431e+01,1.395e+01,1.476e+01,1.478e+01
5.872e-02,3.496e-01,3.830e-01,1.001e+00,5.221e-01,1.324e+00,1.504e+00,1.598e+00,2.154e+00,2.955e+00,2.590e+00,3.491e+00,3.268e+00,3.709e+00,2.841e+00,3.895e+00,3.637e+00,4.947e+00,3.864e+00,5.683e+00,4.469e+00,6.158e+00,4.966e+00,6.900e+00,5.675e+00,5.989e+00,6.454e+00,6.999e+00,6.823e+00,6.335e+00,7.163e+00,8.136e+00,7.728e+00,6.663e+00,5.916e+00,8.120e+00,9.064e+00,9.368e+00,1.256e+01,9.524e+00,1.071e+01,1.175e+01,1.187e+01,1.084e+01,1.242e+01,1.200e+01,1.110e+01,1.254e+01,1.315e+01,1.145e+01,1.250e+01,1.253e+01,1.344e+01,1.478e+01,1.409e+01,1.426e+01
