4.795e-01,3.181e-01,7.544e-01,4.406e-01,4.431e-01,2.141e-01,4.793e-01,9.609e-01,3.602e-01,7.633e-01,5.466e-02,9.287e-01,3.439e-01,6.138e-01,2.262e-02,4.581e-01,7.804e-01,3.628e-01,7.838e-01,7.692e-01,9.280e-01,2.298e-01,5.262e-01,5.522e-01,5.224e-01,5.671e-01,5.386e-01,2.193e-01,6.117e-01,2.081e-01,7.123e-01,4.937e-01,2.667e-02,6.639e-01,4.071e-02,5.719e-01,6.614e-01,6.309e-01,3.729e-01,6.948e-01,7.401e-01,3.647e-01,3.476e-01,9.057e-01,8.311e-01,1.537e-02,7.506e-01,9.084e-01,6.251e-01,1.637e-01,4.061e-01,4.143e-01,4.354e-01,2.649e-01,3.380e-01,5.189e-02,2.630e-02,7.206e-01,2.888e-01,3.129e-01,9.863e-01,9.252e-01,1.920e-01,6.095e-02,7.755e-01,9.764e-01,4.122e-01,2.442e-01,4.938e-01,5.878e-01,1.668e-01,1.983e-01,2.956e-01,2.257e-01
4.111e-03,4.610e-01,6.371e-01,2.509e-01,7.613e-01,9.905e-01,9.218e-01,1.769e-01,8.107e-01,1.215e-01,3.120e-01,6.839e-01,5.026e-01,7.278e-01,7.906e-01,5.754e-02,3.316e-01,6.019e-02,8.576e-01,8.230e-01,4.830e-01,4.290e-01,7.135e-01,1.858e-01,4.265e-01,4.481e-01,3.633e-01,1.080e-02,2.397e-01,3.508e-01,8.071e-01,8.706e-01,1.334e-01,4.072e-01,2.677e-01,8.897e-01,6.755e-02,2.643e-01,3.699e-01,6.563e-01,8.392e-01,5.059e-02,2.299e-01,2.299e-01,7.052e-02,9.255e-01,9.426e-01,5.743e-01,6.736e-01,4.411e-02,4.697e-01,6.244e-01,8.271e-01,6.260e-01,6.585e-01,8.011e-01,5.783e-01,1.371e-01,3.271e-01,4.902e-01,1.017e-01,4.301e-01,5.119e-01,2.958e-01,2.590e-01,8.277e-01,7.620e-01,7.813e-01,5.671e-01,6.930e-01,8.091e-01,6.950e-01,8.399e-01,3.260e-01
1.987e-01,5.594e-01,1.324e+00,7.787e-01,1.155e+00,1.739e+00,1.717e+00,1.542e+00,1.776e+00,7.418e-01,6.402e-01,1.196e+00,1.481e+00,1.634e+00,8.503e-01,1.046e+00,1.600e+00,1.072e+00,1.948e+00,1.211e+00,1.514e+00,6.545e-01,1.209e+00,1.261e+00,1.609e+00,1.428e+00,1.274e+00,8.138e-01,4.902e-01,1.230e+00,1.086e+00,1.293e+00,4.266e-01,6.677e-01,1.257e+00,1.561e+00,4.368e-01,5.303e-01,8.219e-01,1.533e+00,1.709e+00,2.183e-01,6.280e-01,1.112e+00,1.050e+00,1.746e+00,2.115e+00,1.008e+00,1.441e+00,7.216e-01,7.747e-01,1.545e+00,1.129e+00,8.947e-01,1.694e+00,1.275e+00,1.543e+00,7.029e-01,1.055e+00,1.241e+00,1.208e+00,1.748e+00,8.755e-01,1.045e+00,8.539e-01,2.047e+00,9.525e-01,1.226e+00,1.397e+00,1.132e+00,1.590e+00,1.051e+00,1.786e+00,4.807e-01
2.466e-01,5.907e-01,1.192e+00,8.162e-01,1.180e+00,1.942e+00,2.328e+00,1.590e+00,2.162e+00,8.599e-01,1.109e+00,1.891e+00,1.605e+00,1.648e+00,1.262e+00,9.974e-01,2.068e+00,1.316e+00,2.116e+00,1.481e+00,1.615e+00,1.011e+00,1.149e+00,1.062e+00,1.488e+00,1.583e+00,1.267e+00,9.108e-01,1.503e+00,8.807e-01,1.676e+00,1.581e+00,5.234e-01,1.430e+00,1.598e+00,1.875e+00,8.340e-01,8.235e-01,1.604e+00,2.077e+00,1.717e+00,3.082e-01,9.929e-01,1.671e+00,1.544e+00,2.083e+00,2.522e+00,1.550e+00,1.698e+00,1.394e+00,1.405e+00,1.874e+00,1.254e+00,1.430e+00,1.489e+00,1.845e+00,1.387e+00,8.402e-01,1.039e+00,1.698e+00,1.656e+00,1.544e+00,1.210e+00,1.482e+00,8.819e-01,1.820e+00,1.726e+00,1.390e+00,1.505e+00,1.112e+00,2.054e+00,1.892e+00,1.822e+00,1.242e+00
4.772e-01,6.175e-01,1.503e+00,9.175e-01,2.022e+00,2.290e+00,1.854e+00,2.706e+00,2.154e+00,1.279e+00,1.061e+00,1.891e+00,1.953e+00,1.907e+00,1.037e+00,1.826e+00,2.644e+00,1.735e+00,2.335e+00,1.962e+00,2.063e+00,1.497e+00,1.670e+00,1.610e+00,1.820e+00,2.155e+00,2.330e+00,1.067e+00,9.736e-01,1.607e+00,1.823e+00,1.609e+00,8.239e-01,1.770e+00,1.166e+00,2.518e+00,1.421e+00,1.354e+00,1.830e+00,2.715e+00,2.431e+00,1.413e+00,8.226e-01,2.404e+00,1.716e+00,2.214e+00,3.107e+00,1.847e+00,2.503e+00,1.040e+00,1.739e+00,2.511e+00,1.435e+00,1.526e+00,1.613e+00,1.996e+00,1.841e+00,1.600e+00,1.624e+00,1.882e+00,2.510e+00,2.789e+00,1.237e+00,1.389e+00,1.387e+00,2.481e+00,1.593e+00,1.170e+00,1.918e+00,1.439e+00,2.089e+00,1.790e+00,1.612e+00,1.497e+00
3.296e-02,4.194e-01,8.790e-01,6.451e-01,1.261e+00,2.765e+00,3.119e+00,1.689e+00,2.941e+00,1.135e+00,1.319e+00,1.523e+00,2.059e+00,2.360e+00,2.080e+00,1.739e+00,2.420e+00,1.682e+00,2.078e+00,1.273e+00,1.854e+00,1.317e+00,1.224e+00,1.452e+00,1.434e+00,1.988e+00,2.239e+00,1.183e+00,1.877e+00,1.352e+00,1.853e+00,2.282e+00,1.330e+00,1.645e+00,2.546e+00,2.036e+00,1.179e+00,9.680e-01,2.531e+00,2.317e+00,1.838e+00,1.425e+00,1.771e+00,2.008e+00,2.104e+00,2.657e+00,2.747e+00,1.346e+00,2.047e+00,1.676e+00,2.281e+00,2.427e+00,1.269e+00,1.501e+00,1.519e+00,2.208e+00,2.591e+00,1.112e+00,1.414e+00,2.460e+00,1.896e+00,1.848e+00,2.143e+00,1.752e+00,1.621e+00,2.193e+00,2.346e+00,1.437e+00,1.711e+00,1.164e+00,2.341e+00,2.084e+00,2.071e+00,2.360e+00
9.075e-02,1.977e-01,5.061e-01,4.555e-01,5.566e-01,1.613e+00,2.210e+00,1.672e+00,2.069e+00,1.702e+00,1.268e+00,1.325e+00,2.308e+00,2.463e+00,2.115e+00,1.309e+00,2.086e+00,1.743e+00,2.112e+00,7.471e-01,2.165e+00,1.044e+00,1.195e+00,1.761e+00,1.207e+00,1.769e+00,1.431e+00,1.389e+00,2.314e+00,1.231e+00,1.932e+00,1.448e+00,1.611e+00,1.225e+00,2.196e+00,1.740e+00,1.795e+00,1.381e+00,1.935e+00,1.979e+00,1.861e+00,1.727e+00,1.602e+00,1.817e+00,1.857e+00,2.399e+00,2.116e+00,1.044e+00,1.909e+00,1.614e+00,1.754e+00,1.815e+00,1.429e+00,1.654e+00,9.196e-01,2.259e+00,1.688e+00,1.329e+00,1.154e+00,2.201e+00,1.688e+00,2.003e+00,1.424e+00,2.102e+00,2.076e+00,1.519e+00,2.220e+00,1.061e+00,1.489e+00,1.144e+00,2.323e+00,1.812e+00,2.065e+00,1.690e+00
2.280e-01,3.209e-01,7.918e-01,5.291e-01,9.384e-01,1.809e+00,2.098e+00,2.353e+00,2.813e+00,2.174e+00,1.219e+00,1.469e+00,2.675e+00,2.548e+00,1.893e+00,1.920e+00,2.450e+00,1.979e+00,2.686e+00,1.121e+00,2.889e+00,1.347e+00,2.154e+00,2.171e+00,2.050e+00,2.221e+00,1.879e+00,1.593e+00,2.267e+00,1.696e+00,2.346e+00,1.845e+00,1.379e+00,1.689e+00,2.498e+00,2.452e+00,1.806e+00,1.379e+00,2.109e+00,2.250e+00,2.092e+00,2.595e+00,2.418e+00,1.810e+00,2.051e+00,2.384e+00,2.130e+00,2.127e+00,1.926e+00,1.561e+00,2.477e+00,1.832e+00,2.007e+00,1.781e+00,1.462e+00,1.850e+00,2.811e+00,2.088e+00,1.512e+00,2.038e+00,2.471e+00,2.404e+00,2.252e+00,1.878e+00,2.208e+00,2.539e+00,2.098e+00,1.461e+00,1.526e+00,1.261e+00,2.598e+00,2.016e+00,1.763e+00,2.425e+00
3.541e-01,4.535e-01,1.221e+00,8.562e-01,1.786e+00,2.426e+00,2.252e+00,3.326e+00,3.663e+00,2.241e+00,2.043e+00,2.261e+00,4.167e+00,3.662e+00,2.861e+00,3.062e+00,3.911e+00,3.077e+00,4.111e+00,2.787e+00,3.239e+00,2.188e+00,3.096e+00,2.810e+00,2.536e+00,3.548e+00,2.466e+00,2.472e+00,2.642e+00,3.041e+00,3.571e+00,1.857e+00,2.626e+00,2.855e+00,3.050e+00,3.591e+00,3.026e+00,2.185e+00,2.759e+00,3.427e+00,3.489e+00,2.590e+00,1.800e+00,3.118e+00,3.098e+00,4.301e+00,3.543e+00,2.767e+00,3.502e+00,2.116e+00,2.871e+00,3.399e+00,2.569e+00,3.136e+00,1.979e+00,3.192e+00,3.558e+00,2.835e+00,3.020e+00,2.848e+00,3.646e+00,3.639e+00,2.652e+00,2.944e+00,2.574e+00,3.602e+00,2.612e+00,2.119e+00,2.655e+00,2.220e+00,4.211e+00,3.589e+00,2.522e+00,2.690e+00
3.730e-01,2.795e-01,7.572e-01,6.139e-01,6.861e-01,1.650e+00,2.409e+00,2.436e+00,3.451e+00,2.434e+00,2.054e+00,2.707e+00,4.044e+00,4.056e+00,3.075e+00,2.866e+00,3.421e+00,3.173e+00,4.251e+00,2.087e+00,3.257e+00,2.422e+00,3.410e+00,2.734e+00,2.442e+00,2.857e+00,2.253e+00,2.348e+00,3.690e+00,2.543e+00,3.529e+00,2.814e+00,2.656e+00,3.338e+00,3.574e+00,3.019e+00,3.338e+00,2.704e+00,3.333e+00,2.956e+00,3.087e+00,3.451e+00,3.418e+00,3.300e+00,4.148e+00,3.465e+00,2.265e+00,2.735e+00,2.699e+00,2.767e+00,3.387e+00,2.640e+00,2.355e+00,2.510e+00,1.525e+00,2.187e+00,3.970e+00,3.250e+00,2.331e+00,3.161e+00,3.525e+00,3.391e+00,3.744e+00,2.904e+00,2.743e+00,3.463e+00,2.898e+00,2.377e+00,2.111e+00,1.825e+00,3.606e+00,3.160e+00,1.883e+00,3.862e+00
3.491e-01,4.900e-01,1.073e+00,7.083e-01,1.508e+00,2.395e+00,2.622e+00,2.511e+00,2.925e+00,2.050e+00,1.898e+00,2.817e+00,3.847e+00,3.593e+00,3.512e+00,2.511e+00,3.797e+00,3.222e+00,3.680e+00,2.130e+00,3.170e+00,2.546e+00,3.092e+00,2.967e+00,1.785e+00,2.993e+00,3.137e+00,1.726e+00,2.774e+00,2.173e+00,3.698e+00,2.661e+00,2.650e+00,2.609e+00,3.133e+00,3.096e+00,2.907e+00,2.224e+00,3.125e+00,3.061e+00,3.601e+00,3.228e+00,2.333e+00,3.235e+00,3.051e+00,4.061e+00,3.422e+00,2.490e+00,3.140e+00,2.722e+00,3.625e+00,3.468e+00,2.160e+00,3.043e+00,2.029e+00,3.067e+00,3.096e+00,3.039e+00,2.577e+00,2.912e+00,3.694e+00,3.123e+00,2.533e+00,2.816e+00,3.387e+00,2.944e+00,3.080e+00,2.318e+00,2.505e+00,2.297e+00,3.991e+00,3.023e+00,2.490e+00,3.464e+00
3.510e-01,6.015e-01,1.324e+00,9.188e-01,1.537e+00,2.409e+00,2.699e+00,2.555e+00,3.172e+00,1.672e+00,1.951e+00,3.966e+00,3.560e+00,3.691e+00,3.516e+00,2.632e+00,4.511e+00,3.368e+00,4.641e+00,2.351e+00,3.176e+00,2.746e+00,3.887e+00,2.545e+00,2.842e+00,2.785e+00,3.120e+00,2.610e+00,2.818e+00,2.845e+00,4.066e+00,3.611e+00,2.368e+00,2.939e+00,3.560e+00,3.353e+00,2.739e+00,2.678e+00,3.511e+00,3.970e+00,3.700e+00,2.981e+00,3.292e+00,3.218e+00,3.797e+00,4.304e+00,4.284e+00,3.497e+00,3.521e+00,3.175e+00,3.101e+00,3.609e+00,2.261e+00,3.229e+00,2.671e+00,2.818e+00,3.473e+00,3.004e+00,2.340e+00,3.563e+00,3.527e+00,3.751e+00,3.303e+00,3.214e+00,3.008e+00,3.874e+00,3.452e+00,3.042e+00,2.526e+00,2.276e+00,4.458e+00,3.632e+00,3.099e+00,3.415e+00
3.256e-01,4.569e-01,9.654e-01,5.529e-01,1.017e+00,1.582e+00,1.864e+00,2.031e+00,2.783e+00,2.070e+00,1.806e+00,2.657e+00,4.639e+00,4.467e+00,3.898e+00,2.937e+00,4.187e+00,3.166e+00,4.529e+00,3.010e+00,3.310e+00,2.615e+00,4.380e+00,3.711e+00,2.010e+00,3.660e+00,2.917e+00,2.098e+00,3.539e+00,3.361e+00,3.894e+00,3.387e+00,3.556e+00,3.582e+00,3.644e+00,3.461e+00,3.777e+00,3.454e+00,2.852e+00,2.884e+00,4.536e+00,3.813e+00,3.084e+00,3.781e+00,3.639e+00,4.376e+00,3.436e+00,3.206e+00,3.339e+00,3.240e+00,3.631e+00,2.989e+00,2.776e+00,3.769e+00,2.619e+00,3.095e+00,3.886e+00,3.614e+00,3.181e+00,3.163e+00,4.115e+00,3.306e+00,3.946e+00,3.170e+00,3.246e+00,3.418e+00,3.445e+00,3.366e+00,2.876e+00,3.124e+00,4.725e+00,3.625e+00,2.724e+00,3.193e+00
2.456e-01,1.956e-01,6.524e-01,6.019e-01,1.320e+00,2.341e+00,2.469e+00,2.960e+00,3.559e+00,2.164e+00,2.474e+00,3.523e+00,5.077e+00,5.041e+00,4.501e+00,4.369e+00,5.867e+00,4.971e+00,5.160e+00,3.130e+00,4.267e+00,4.388e+00,5.526e+00,4.277e+00,3.472e+00,4.644e+00,4.353e+00,3.528e+00,4.297e+00,4.038e+00,4.236e+00,4.265e+00,3.780e+00,4.885e+00,4.867e+00,4.984e+00,4.761e+00,3.855e+00,5.104e+00,4.383e+00,4.836e+00,5.401e+00,4.592e+00,4.721e+00,5.371e+00,5.845e+00,5.431e+00,4.821e+00,4.584e+00,5.341e+00,5.682e+00,4.443e+00,3.115e+00,5.002e+00,3.551e+00,4.640e+00,5.460e+00,4.964e+00,4.431e+00,4.688e+00,5.984e+00,4.079e+00,4.820e+00,5.076e+00,3.515e+00,3.783e+00,4.742e+00,4.537e+00,4.083e+00,3.269e+00,6.626e+00,4.599e+00,3.723e+00,5.561e+00
3.167e-01,4.241e-01,1.148e+00,7.948e-01,1.454e+00,1.964e+00,1.865e+00,3.190e+00,3.176e+00,2.293e+00,2.154e+00,2.841e+00,4.418e+00,4.200e+00,3.278e+00,4.080e+00,4.606e+00,4.374e+00,5.380e+00,2.715e+00,4.754e+00,3.202e+00,4.396e+00,3.664e+00,4.154e+00,3.716e+00,2.650e+00,3.050e+00,3.693e+00,3.871e+00,4.146e+00,3.096e+00,2.669e+00,3.875e+00,4.041e+00,5.041e+00,3.826e+00,3.211e+00,3.962e+00,4.646e+00,4.216e+00,4.268e+00,3.060e+00,4.322e+00,4.701e+00,5.593e+00,4.877e+00,3.552e+00,4.399e+00,3.848e+00,4.083e+00,3.595e+00,3.176e+00,3.841e+00,3.407e+00,3.798e+00,4.592e+00,3.808e+00,3.837e+00,3.979e+00,4.212e+00,4.607e+00,4.140e+00,4.214e+00,3.005e+00,4.142e+00,3.436e+00,3.804e+00,3.478e+00,3.514e+00,5.793e+00,4.024e+00,3.238e+00,3.446e+00
1.798e-02,2.881e-01,5.298e-01,3.067e-01,1.409e+00,1.810e+00,1.329e+00,2.299e+00,2.938e+00,1.869e+00,2.427e+00,3.253e+00,5.043e+00,4.910e+00,5.061e+00,4.199e+00,4.959e+00,4.808e+00,6.053e+00,3.047e+00,4.921e+00,4.430e+00,5.714e+00,4.406e+00,3.956e+00,4.571e+00,3.143e+00,4.254e+00,3.981e+00,4.320e+00,5.534e+00,4.248e+00,4.246e+00,4.033e+00,4.593e+00,5.648e+00,5.117e+00,4.435e+00,5.148e+00,4.822e+00,5.596e+00,5.612e+00,3.615e+00,3.831e+00,5.245e+00,7.462e+00,5.353e+00,4.903e+00,4.907e+00,4.695e+00,4.968e+00,4.843e+00,3.556e+00,5.535e+00,3.466e+00,4.605e+00,5.924e+00,5.256e+00,5.000e+00,4.268e+00,4.723e+00,5.355e+00,4.568e+00,5.522e+00,3.969e+00,4.497e+00,4.504e+00,4.878e+00,4.276e+00,4.138e+00,7.476e+00,5.357e+00,4.399e+00,5.277e+00
1.306e-01,2.157e-01,3.866e-01,2.935e-01,6.381e-01,1.007e+00,1.206e+00,1.288e+00,1.649e+00,1.246e+00,1.812e+00,2.868e+00,3.774e+00,3.453e+00,3.610e+00,2.300e+00,4.007e+00,3.470e+00,4.791e+00,2.948e+00,3.215e+00,3.837e+00,3.966e+00,4.138e+00,2.914e+00,3.627e+00,2.549e+00,2.927e+00,3.998e+00,2.911e+00,4.312e+00,3.448e+00,3.236e+00,3.271e+00,3.849e+00,3.627e+00,4.038e+00,3.911e+00,3.748e+00,3.399e+00,4.720e+00,3.855e+00,3.161e+00,4.241e+00,3.770e+00,5.428e+00,3.803e+00,3.523e+00,3.657e+00,4.602e+00,3.734e+00,3.429e+00,3.118e+00,4.152e+00,2.674e+00,3.656e+00,3.366e+00,3.783e+00,3.451e+00,3.690e+00,4.580e+00,3.327e+00,3.844e+00,4.171e+00,3.209e+00,2.911e+00,4.238e+00,4.243e+00,2.912e+00,3.299e+00,5.010e+00,4.645e+00,3.689e+00,3.690e+00
4.412e-01,6.335e-01,1.335e+00,8.099e-01,1.848e+00,2.273e+00,2.184e+00,2.833e+00,2.973e+00,2.111e+00,2.261e+00,3.600e+00,4.978e+00,4.897e+00,4.319e+00,3.586e+00,5.390e+00,5.180e+00,6.612e+00,5.210e+00,4.973e+00,4.602e+00,5.921e+00,5.325e+00,3.776e+00,5.621e+00,3.910e+00,3.610e+00,4.469e+00,4.569e+00,5.784e+00,4.828e+00,4.474e+00,5.003e+00,4.293e+00,5.476e+00,5.013e+00,5.403e+00,5.052e+00,5.062e+00,6.016e+00,4.634e+00,3.582e+00,5.414e+00,5.003e+00,7.240e+00,6.489e+00,4.754e+00,5.110e+00,4.707e+00,4.906e+00,5.081e+00,3.946e+00,5.850e+00,3.982e+00,5.140e+00,5.046e+00,5.500e+00,5.401e+00,5.357e+00,6.018e+00,5.156e+00,5.326e+00,5.417e+00,4.533e+00,5.204e+00,5.352e+00,5.691e+00,4.499e+00,4.681e+00,6.847e+00,5.147e+00,4.365e+00,5.040e+00
1.523e-01,1.023e-01,4.060e-01,2.910e-01,5.859e-01,7.801e-01,7.132e-01,1.462e+00,1.598e+00,1.220e+00,1.350e+00,1.608e+00,3.250e+00,3.447e+00,3.216e+00,3.479e+00,3.358e+00,4.283e+00,4.911e+00,4.019e+00,4.484e+00,3.791e+00,4.019e+00,4.479e+00,3.071e+00,4.366e+00,2.103e+00,3.404e+00,3.649e+00,4.259e+00,4.924e+00,3.318e+00,3.715e+00,3.500e+00,3.917e+00,4.343e+00,4.150e+00,3.498e+00,4.647e+00,4.048e+00,3.501e+00,3.555e+00,1.946e+00,4.247e+00,5.292e+00,6.179e+00,4.360e+00,2.819e+00,3.773e+00,3.690e+00,3.911e+00,3.583e+00,2.838e+00,4.154e+00,3.473e+00,3.996e+00,4.287e+00,4.612e+00,4.695e+00,3.973e+00,3.589e+00,3.531e+00,4.176e+00,4.405e+00,4.086e+00,4.391e+00,4.052e+00,4.985e+00,3.482e+00,4.263e+00,6.053e+00,3.564e+00,3.101e+00,3.615e+00
3.800e-01,6.283e-01,1.526e+00,9.571e-01,1.504e+00,2.218e+00,2.361e+00,3.076e+00,3.128e+00,2.374e+00,1.664e+00,2.878e+00,3.786e+00,4.539e+00,3.453e+00,3.791e+00,4.749e+00,3.992e+00,6.419e+00,4.327e+00,6.754e+00,5.286e+00,5.342e+00,6.395e+00,5.998e+00,5.798e+00,3.698e+00,5.960e+00,5.297e+00,5.151e+00,5.951e+00,5.338e+00,3.426e+00,3.892e+00,5.713e+00,5.951e+00,5.631e+00,4.342e+00,5.926e+00,5.755e+00,5.693e+00,4.638e+00,3.827e+00,5.127e+00,6.061e+00,7.370e+00,6.443e+00,5.553e+00,5.727e+00,5.343e+00,5.001e+00,5.305e+00,5.611e+00,5.231e+00,4.683e+00,5.033e+00,5.921e+00,5.851e+00,5.096e+00,5.373e+00,5.728e+00,6.493e+00,5.500e+00,5.824e+00,4.692e+00,6.580e+00,5.810e+00,6.434e+00,4.674e+00,5.309e+00,7.215e+00,5.451e+00,6.777e+00,4.353e+00
1.164e-01,2.136e-01,6.875e-01,5.259e-01,1.040e+00,2.055e+00,2.130e+00,2.330e+00,3.463e+00,1.777e+00,1.825e+00,2.797e+00,4.238e+00,4.210e+00,4.253e+00,4.250e+00,5.141e+00,4.917e+00,6.079e+00,4.104e+00,5.804e+00,4.529e+00,5.605e+00,5.552e+00,4.750e+00,5.457e+00,4.614e+00,4.895e+00,5.014e+00,5.712e+00,6.392e+00,6.354e+00,5.165e+00,4.220e+00,6.482e+00,5.568e+00,4.717e+00,4.287e+00,6.748e+00,5.687e+00,4.709e+00,5.485e+00,4.192e+00,5.219e+00,6.841e+00,8.100e+00,6.547e+00,5.686e+00,4.475e+00,5.566e+00,5.468e+00,6.006e+00,4.261e+00,5.883e+00,4.588e+00,4.520e+00,7.184e+00,6.366e+00,6.175e+00,5.599e+00,5.387e+00,5.333e+00,6.299e+00,5.657e+00,5.202e+00,7.167e+00,5.293e+00,6.759e+00,4.228e+00,4.865e+00,7.538e+00,5.623e+00,5.168e+00,5.745e+00
3.614e-02,3.210e-01,5.442e-01,3.211e-01,1.302e+00,1.881e+00,1.648e+00,1.849e+00,2.742e+00,1.562e+00,2.009e+00,2.340e+00,4.207e+00,4.431e+00,4.186e+00,3.269e+00,4.134e+00,4.569e+00,6.016e+00,5.000e+00,5.198e+00,6.075e+00,6.158e+00,5.649e+00,5.722e+00,5.890e+00,5.092e+00,5.720e+00,5.717e+00,6.123e+00,6.397e+00,6.129e+00,6.068e+00,4.724e+00,5.533e+00,6.555e+00,6.257e+00,5.087e+00,7.333e+00,5.732e+00,6.089e+00,5.270e+00,3.898e+00,5.533e+00,6.435e+00,9.305e+00,7.509e+00,6.060e+00,5.186e+00,6.162e+00,5.970e+00,6.519e+00,6.352e+00,7.494e+00,3.689e+00,6.559e+00,6.614e+00,6.674e+00,7.104e+00,6.118e+00,6.392e+00,6.015e+00,6.519e+00,6.690e+00,5.183e+00,6.798e+00,6.388e+00,7.359e+00,5.029e+00,6.044e+00,7.766e+00,6.605e+00,6.830e+00,6.760e+00
2.981e-01,5.936e-01,1.227e+00,7.590e-01,1.720e+00,2.804e+00,2.977e+00,2.897e+00,3.517e+00,2.462e+00,1.876e+00,2.655e+00,3.730e+00,4.374e+00,3.826e+00,3.853e+00,4.198e+00,4.560e+00,5.483e+00,3.757e+00,6.058e+00,4.358e+00,5.795e+00,5.212e+00,5.263e+00,5.389e+00,5.472e+00,4.978e+00,5.681e+00,5.713e+00,5.998e+00,5.844e+00,5.165e+00,5.098e+00,5.483e+00,6.484e+00,5.549e+00,4.335e+00,7.461e+00,6.917e+00,4.636e+00,5.936e+00,4.488e+00,5.427e+00,6.793e+00,8.345e+00,7.077e+00,5.170e+00,5.561e+00,5.256e+00,5.918e+00,6.244e+00,5.062e+00,5.873e+00,4.100e+00,5.666e+00,6.471e+00,6.108e+00,5.926e+00,6.283e+00,5.549e+00,6.250e+00,6.533e+00,5.845e+00,6.069e+00,7.066e+00,6.224e+00,5.947e+00,5.263e+00,5.166e+00,7.512e+00,5.343e+00,6.034e+00,6.305e+00
3.987e-01,4.179e-01,8.815e-01,6.575e-01,1.256e+00,1.739e+00,2.022e+00,2.672e+00,2.960e+00,2.147e+00,1.923e+00,2.857e+00,4.011e+00,3.173e+00,3.318e+00,3.603e+00,5.037e+00,4.681e+00,5.765e+00,4.425e+00,5.958e+00,4.454e+00,5.411e+00,6.178e+00,4.836e+00,6.991e+00,5.694e+00,5.479e+00,6.736e+00,5.582e+00,7.755e+00,5.734e+00,5.182e+00,6.165e+00,5.810e+00,6.599e+00,6.239e+00,5.613e+00,7.876e+00,7.318e+00,6.250e+00,5.687e+00,4.240e+00,6.053e+00,7.024e+00,8.665e+00,7.142e+00,6.388e+00,5.503e+00,6.879e+00,6.939e+00,6.228e+00,5.546e+00,6.848e+00,5.114e+00,5.642e+00,6.349e+00,6.420e+00,5.578e+00,6.184e+00,6.816e+00,5.872e+00,8.080e+00,6.344e+00,6.964e+00,6.619e+00,7.306e+00,6.473e+00,5.419e+00,5.752e+00,8.815e+00,6.633e+00,5.784e+00,7.358e+00
5.194e-02,3.918e-01,6.018e-01,3.204e-01,1.246e+00,2.037e+00,2.000e+00,1.668e+00,2.478e+00,1.573e+00,1.612e+00,2.617e+00,3.466e+00,3.936e+00,3.977e+00,3.253e+00,4.421e+00,3.636e+00,5.350e+00,4.134e+00,5.208e+00,5.369e+00,5.637e+00,5.935e+00,5.017e+00,6.003e+00,5.760e+00,5.283e+00,6.988e+00,5.595e+00,6.618e+00,7.266e+00,4.690e+00,6.024e+00,6.020e+00,6.667e+00,6.400e+00,6.223e+00,7.848e+00,6.541e+00,6.416e+00,7.429e+00,4.906e+00,6.088e+00,6.829e+00,8.162e+00,7.274e+00,6.868e+00,6.741e+00,7.548e+00,7.414e+00,6.941e+00,7.163e+00,6.708e+00,4.715e+00,5.814e+00,6.604e+00,6.662e+00,5.944e+00,7.730e+00,6.850e+00,6.241e+00,8.094e+00,6.864e+00,5.941e+00,6.908e+00,7.888e+00,7.871e+00,5.418e+00,5.753e+00,8.276e+00,6.433e+00,7.579e+00,6.165e+00
1.399e-01,1.052e-01,3.534e-01,2.553e-01,1.027e+00,1.631e+00,1.469e+00,2.096e+00,2.740e+00,1.829e+00,1.548e+00,1.711e+00,3.575e+00,3.372e+00,3.274e+00,3.376e+00,3.721e+00,3.627e+00,4.378e+00,3.190e+00,4.605e+00,3.948e+00,5.169e+00,4.976e+00,4.196e+00,5.549e+00,6.222e+00,5.303e+00,6.901e+00,5.890e+00,6.308e+00,6.939e+00,6.401e+00,5.889e+00,6.037e+00,6.580e+00,6.600e+00,5.412e+00,8.173e+00,6.194e+00,5.533e+00,7.104e+00,4.595e+00,5.562e+00,6.966e+00,8.196e+00,6.408e+00,6.461e+00,5.593e+00,6.648e+00,6.716e+00,7.131e+00,5.717e+00,6.681e+00,3.976e+00,5.312e+00,6.582e+00,6.861e+00,6.251e+00,6.747e+00,6.281e+00,6.969e+00,7.970e+00,6.042e+00,6.063e+00,7.230e+00,6.238e+00,6.110e+00,5.476e+00,5.791e+00,8.060e+00,6.155e+00,6.424e+00,6.703e+00
1.591e-01,4.734e-01,9.359e-01,5.258e-01,1.112e+00,2.070e+00,2.301e+00,2.069e+00,3.270e+00,2.060e+00,1.752e+00,2.803e+00,4.131e+00,4.804e+00,4.303e+00,4.136e+00,4.685e+00,4.282e+00,6.220e+00,4.003e+00,6.110e+00,4.752e+00,5.890e+00,5.588e+00,5.333e+00,5.526e+00,5.387e+00,5.241e+00,7.158e+00,6.204e+00,6.660e+00,8.708e+00,6.081e+00,5.772e+00,7.436e+00,7.130e+00,6.545e+00,6.255e+00,8.239e+00,6.548e+00,6.112e+00,7.622e+00,6.079e+00,5.613e+00,7.945e+00,8.580e+00,8.299e+00,7.018e+00,5.802e+00,7.131e+00,7.141e+00,6.874e+00,6.595e+00,7.277e+00,5.240e+00,5.919e+00,8.072e+00,7.773e+00,6.355e+00,6.700e+00,5.943e+00,6.889e+00,7.612e+00,7.313e+00,5.891e+00,8.382e+00,6.632e+00,7.512e+00,5.824e+00,6.906e+00,8.940e+00,6.265e+00,7.522e+00,6.778e+00
2.036e-01,5.216e-01,1.070e+00,7.550e-01,1.921e+00,2.683e+00,2.525e+00,3.243e+00,3.912e+00,2.377e+00,3.074e+00,4.522e+00,5.860e+00,5.830e+00,5.762e+00,4.481e+00,6.148e+00,6.518e+00,8.019e+00,5.348e+00,6.696e+00,6.793e+00,7.762e+00,6.371e+00,6.062e+00,6.808e+00,5.818e+00,7.135e+00,6.734e+00,7.553e+00,8.386e+00,7.367e+00,6.475e+00,6.944e+00,7.315e+00,8.568e+00,7.733e+00,6.192e+00,8.688e+00,7.907e+00,7.445e+00,6.865e+00,5.148e+00,6.575e+00,8.261e+00,1.094e+01,9.677e+00,7.201e+00,7.050e+00,7.374e+00,7.738e+00,8.456e+00,6.866e+00,9.156e+00,5.983e+00,7.510e+00,8.199e+00,8.546e+00,7.585e+00,7.543e+00,7.329e+00,8.162e+00,8.204e+00,8.857e+00,6.969e+00,7.998e+00,7.549e+00,8.262e+00,6.506e+00,6.445e+00,1.063e+01,7.778e+00,8.062e+00,8.263e+00
1.573e-01,4.298e-01,7.664e-01,4.979e-01,1.268e+00,1.821e+00,1.860e+00,1.865e+00,2.788e+00,1.524e+00,2.312e+00,3.975e+00,4.785e+00,5.319e+00,5.515e+00,4.243e+00,5.668e+00,5.383e+00,7.143e+00,4.990e+00,6.086e+00,6.324e+00,7.436e+00,6.206e+00,5.910e+00,6.412e+00,6.807e+00,6.668e+00,9.443e+00,8.086e+00,8.937e+00,1.034e+01,8.598e+00,7.911e+00,8.548e+00,9.041e+00,9.033e+00,8.181e+00,1.020e+01,8.412e+00,7.808e+00,8.859e+00,6.597e+00,7.492e+00,9.782e+00,1.194e+01,1.058e+01,9.602e+00,8.324e+00,9.416e+00,8.888e+00,9.763e+00,8.332e+00,1.067e+01,6.056e+00,8.142e+00,8.916e+00,9.858e+00,9.192e+00,8.609e+00,8.387e+00,8.957e+00,9.073e+00,9.445e+00,7.630e+00,9.251e+00,8.869e+00,9.679e+00,7.469e+00,9.195e+00,1.119e+01,8.439e+00,1.010e+01,8.847e+00
4.579e-01,6.153e-01,1.386e+00,8.617e-01,1.715e+00,2.121e+00,2.069e+00,2.942e+00,2.936e+00,2.091e+00,1.680e+00,2.650e+00,3.742e+00,4.230e+00,3.161e+00,3.908e+00,4.762e+00,3.974e+00,5.534e+00,4.391e+00,6.049e+00,4.754e+00,6.118e+00,5.865e+00,5.678e+00,6.152e+00,5.870e+00,6.008e+00,7.426e+00,6.939e+00,6.762e+00,8.160e+00,6.178e+00,7.639e+00,7.619e+00,8.915e+00,7.654e+00,6.617e+00,8.371e+00,7.789e+00,7.262e+00,7.337e+00,5.675e+00,7.118e+00,7.933e+00,9.488e+00,1.059e+01,8.325e+00,8.122e+00,7.606e+00,8.148e+00,8.779e+00,8.159e+00,8.702e+00,6.400e+00,7.433e+00,8.509e+00,9.420e+00,7.683e+00,7.277e+00,8.625e+00,8.094e+00,8.520e+00,8.827e+00,6.083e+00,9.053e+00,7.321e+00,7.622e+00,7.606e+00,7.085e+00,9.119e+00,6.613e+00,9.100e+00,6.742e+00
1.208e-01,1.483e-01,6.040e-01,5.404e-01,7.257e-01,1.386e+00,1.562e+00,2.553e+00,3.097e+00,2.119e+00,2.481e+00,3.276e+00,5.624e+00,4.981e+00,4.510e+00,3.880e+00,5.682e+00,5.455e+00,7.160e+00,4.477e+00,5.492e+00,5.529e+00,6.831e+00,6.765e+00,6.354e+00,6.915e+00,6.547e+00,6.747e+00,8.685e+00,7.863e+00,8.781e+00,8.310e+00,8.530e+00,8.425e+00,8.903e+00,9.853e+00,8.219e+00,7.782e+00,9.758e+00,8.202e+00,8.626e+00,8.863e+00,6.809e+00,8.195e+00,8.650e+00,1.216e+01,9.990e+00,8.478e+00,8.541e+00,9.755e+00,8.774e+00,9.342e+00,8.982e+00,9.502e+00,6.901e+00,8.647e+00,8.720e+00,9.830e+00,8.816e+00,8.396e+00,9.310e+00,8.519e+00,1.042e+01,9.643e+00,8.220e+00,8.870e+00,8.707e+00,9.622e+00,7.836e+00,7.977e+00,1.087e+01,9.552e+00,9.738e+00,8.156e+00
1.174e-01,2.504e-01,5.669e-01,4.041e-01,1.274e+00,1.616e+00,1.290e+00,1.968e+00,2.349e+00,1.284e+00,2.115e+00,2.996e+00,4.044e+00,4.250e+00,4.086e+00,3.414e+00,4.211e+00,4.266e+00,5.365e+00,3.831e+00,4.089e+00,5.625e+00,5.852e+00,4.880e+00,5.017e+00,5.149e+00,5.489e+00,5.826e+00,6.613e+00,6.307e+00,6.884e+00,6.563e+00,6.681e+00,8.121e+00,6.570e+00,9.225e+00,7.343e+00,6.230e+00,9.044e+00,7.053e+00,7.136e+00,7.638e+00,5.244e+00,6.528e+00,8.003e+00,1.063e+01,7.854e+00,6.633e+00,7.820e+00,8.143e+00,8.022e+00,8.562e+00,7.253e+00,7.347e+00,5.252e+00,7.748e+00,6.512e+00,7.792e+00,7.724e+00,6.924e+00,7.504e+00,8.431e+00,8.119e+00,7.203e+00,6.983e+00,7.182e+00,7.901e+00,8.481e+00,7.011e+00,7.106e+00,8.980e+00,8.504e+00,8.363e+00,7.610e+00
3.318e-01,5.209e-01,1.056e+00,6.453e-01,1.437e+00,1.731e+00,1.647e+00,2.397e+00,3.115e+00,1.767e+00,2.244e+00,4.242e+00,5.106e+00,4.795e+00,4.720e+00,3.698e+00,5.870e+00,4.669e+00,6.802e+00,4.752e+00,4.997e+00,5.896e+00,7.368e+00,5.884e+00,5.742e+00,5.952e+00,6.381e+00,6.388e+00,7.604e+00,7.784e+00,8.632e+00,8.535e+00,7.828e+00,8.868e+00,8.979e+00,9.828e+00,8.772e+00,7.967e+00,9.431e+00,8.825e+00,9.425e+00,8.754e+00,7.445e+00,7.761e+00,8.890e+00,1.153e+01,1.050e+01,9.179e+00,8.483e+00,9.065e+00,9.076e+00,9.260e+00,8.863e+00,9.647e+00,7.256e+00,8.078e+00,9.031e+00,9.526e+00,8.849e+00,7.999e+00,9.945e+00,8.913e+00,1.105e+01,8.466e+00,7.777e+00,9.225e+00,9.481e+00,9.855e+00,7.331e+00,8.557e+00,1.053e+01,9.194e+00,9.668e+00,8.792e+00
4.779e-01,5.185e-01,1.074e+00,6.592e-01,1.285e+00,1.539e+00,1.748e+00,2.788e+00,3.040e+00,2.587e+00,2.372e+00,4.189e+00,5.467e+00,5.728e+00,5.236e+00,4.537e+00,6.072e+00,5.539e+00,7.682e+00,5.290e+00,6.407e+00,5.800e+00,7.707e+00,6.949e+00,5.620e+00,6.823e+00,5.560e+00,6.460e+00,8.543e+00,7.816e+00,8.569e+00,7.973e+00,7.590e+00,9.280e+00,9.177e+00,9.767e+00,9.739e+00,9.387e+00,9.890e+00,9.042e+00,8.526e+00,9.722e+00,8.043e+00,8.187e+00,1.050e+01,1.203e+01,9.630e+00,9.090e+00,8.956e+00,9.411e+00,9.025e+00,9.357e+00,8.679e+00,9.457e+00,7.723e+00,8.390e+00,9.141e+00,9.639e+00,8.994e+00,8.384e+00,9.468e+00,9.190e+00,1.051e+01,9.786e+00,9.441e+00,9.046e+00,1.023e+01,1.041e+01,8.053e+00,8.618e+00,1.171e+01,9.246e+00,1.040e+01,9.139e+00
4.615e-01,5.725e-01,1.253e+00,7.898e-01,1.076e+00,1.778e+00,2.342e+00,2.025e+00,2.397e+00,1.786e+00,1.364e+00,3.154e+00,3.513e+00,3.769e+00,3.523e+00,2.732e+00,4.863e+00,3.203e+00,5.215e+00,3.752e+00,4.551e+00,3.748e+00,4.072e+00,5.225e+00,4.230e+00,5.102e+00,5.045e+00,4.262e+00,7.209e+00,5.437e+00,7.068e+00,7.966e+00,6.214e+00,6.213e+00,8.917e+00,8.616e+00,6.653e+00,7.897e+00,8.755e+00,7.386e+00,7.971e+00,7.473e+00,6.788e+00,8.569e+00,8.962e+00,1.040e+01,9.326e+00,8.292e+00,7.608e+00,8.894e+00,7.028e+00,8.788e+00,7.998e+00,7.991e+00,7.249e+00,7.824e+00,7.878e+00,7.451e+00,7.658e+00,7.183e+00,7.995e+00,7.357e+00,8.796e+00,7.796e+00,8.138e+00,7.938e+00,9.233e+00,9.262e+00,6.502e+00,7.505e+00,9.130e+00,7.964e+00,9.881e+00,6.746e+00
2.494e-01,5.670e-01,9.776e-01,5.599e-01,1.668e+00,2.011e+00,1.836e+00,2.611e+00,2.814e+00,2.211e+00,2.310e+00,3.530e+00,4.620e+00,4.024e+00,4.123e+00,2.781e+00,4.614e+00,4.735e+00,6.632e+00,4.668e+00,6.048e+00,5.410e+00,6.272e+00,6.694e+00,4.768e+00,7.224e+00,5.767e+00,5.722e+00,7.030e+00,5.670e+00,8.678e+00,7.403e+00,6.255e+00,6.934e+00,7.131e+00,8.651e+00,8.330e+00,8.678e+00,1.021e+01,8.272e+00,8.782e+00,8.419e+00,6.590e+00,6.810e+00,7.828e+00,1.164e+01,9.061e+00,8.518e+00,7.864e+00,8.568e+00,8.093e+00,9.635e+00,9.250e+00,9.104e+00,7.090e+00,8.707e+00,8.358e+00,9.734e+00,7.617e+00,8.623e+00,8.455e+00,8.659e+00,9.604e+00,9.372e+00,9.347e+00,8.274e+00,9.243e+00,1.010e+01,7.816e+00,6.781e+00,1.169e+01,8.997e+00,9.796e+00,9.134e+00
2.153e-01,2.889e-01,5.945e-01,3.550e-01,1.117e+00,1.436e+00,1.262e+00,1.689e+00,2.263e+00,1.257e+00,1.638e+00,2.734e+00,3.739e+00,3.313e+00,3.480e+00,3.342e+00,4.535e+00,3.743e+00,5.149e+00,3.898e+00,4.590e+00,4.683e+00,5.003e+00,5.259e+00,4.202e+00,5.139e+00,5.232e+00,4.065e+00,6.903e+00,5.415e+00,7.356e+00,8.134e+00,6.239e+00,7.451e+00,8.497e+00,8.947e+00,7.689e+00,9.177e+00,9.685e+00,8.351e+00,8.800e+00,9.946e+00,7.120e+00,9.128e+00,8.888e+00,1.109e+01,1.001e+01,8.706e+00,8.778e+00,9.515e+00,9.119e+00,1.039e+01,9.108e+00,8.241e+00,7.505e+00,8.266e+00,9.655e+00,9.228e+00,9.218e+00,8.454e+00,9.784e+00,8.847e+00,1.089e+01,8.714e+00,8.449e+00,8.594e+00,9.140e+00,1.071e+01,7.014e+00,8.189e+00,1.069e+01,8.913e+00,8.830e+00,7.591e+00
2.163e-01,4.007e-01,1.093e+00,8.503e-01,1.270e+00,2.493e+00,2.895e+00,3.267e+00,3.856e+00,2.660e+00,2.394e+00,3.615e+00,5.255e+00,4.911e+00,4.648e+00,3.869e+00,5.923e+00,5.388e+00,6.544e+00,3.623e+00,6.220e+00,4.291e+00,6.113e+00,6.076e+00,5.300e+00,6.602e+00,6.448e+00,5.590e+00,7.843e+00,6.500e+00,8.004e+00,8.610e+00,7.268e+00,7.888e+00,1.004e+01,1.005e+01,9.096e+00,1.082e+01,1.232e+01,1.057e+01,1.046e+01,1.116e+01,9.413e+00,9.600e+00,1.059e+01,1.384e+01,1.305e+01,1.062e+01,1.042e+01,1.175e+01,1.017e+01,1.271e+01,1.064e+01,1.121e+01,9.349e+00,1.057e+01,1.153e+01,1.058e+01,1.069e+01,1.085e+01,1.082e+01,1.158e+01,1.224e+01,1.191e+01,1.164e+01,1.000e+01,1.111e+01,1.304e+01,9.162e+00,9.766e+00,1.402e+01,1.128e+01,1.277e+01,1.048e+01
4.275e-01,2.927e-01,9.900e-01,6.712e-01,1.160e+00,1.615e+00,1.618e+00,2.589e+00,2.747e+00,1.889e+00,1.337e+00,2.653e+00,3.775e+00,4.332e+00,3.711e+00,4.173e+00,5.320e+00,4.448e+00,6.113e+00,4.883e+00,5.553e+00,4.850e+00,5.813e+00,6.085e+00,5.357e+00,6.385e+00,5.265e+00,6.357e+00,5.828e+00,6.265e+00,7.666e+00,7.084e+00,6.850e+00,6.862e+00,8.252e+00,8.884e+00,8.015e+00,8.387e+00,1.081e+01,8.850e+00,9.739e+00,8.698e+00,6.935e+00,8.375e+00,9.974e+00,1.206e+01,1.117e+01,8.400e+00,8.752e+00,8.559e+00,7.681e+00,1.007e+01,8.528e+00,9.217e+00,7.190e+00,9.160e+00,8.979e+00,9.669e+00,9.714e+00,8.389e+00,9.678e+00,9.804e+00,1.136e+01,8.620e+00,9.087e+00,9.842e+00,9.873e+00,1.072e+01,7.845e+00,8.061e+00,1.049e+01,9.187e+00,1.022e+01,8.669e+00
1.910e-01,2.079e-01,5.924e-01,4.138e-01,1.019e+00,1.318e+00,1.104e+00,1.622e+00,1.437e+00,9.235e-01,9.366e-01,1.533e+00,2.222e+00,2.191e+00,1.976e+00,2.753e+00,3.789e+00,2.998e+00,4.037e+00,3.346e+00,4.132e+00,3.430e+00,4.300e+00,5.239e+00,4.005e+00,5.606e+00,5.455e+00,5.338e+00,6.613e+00,5.992e+00,6.575e+00,7.405e+00,6.395e+00,8.749e+00,9.023e+00,9.694e+00,7.834e+00,9.559e+00,1.106e+01,1.007e+01,9.824e+00,1.046e+01,7.673e+00,1.067e+01,9.360e+00,1.241e+01,1.187e+01,9.273e+00,1.047e+01,1.054e+01,8.571e+00,1.174e+01,9.740e+00,9.516e+00,9.534e+00,9.863e+00,1.048e+01,9.744e+00,1.037e+01,9.755e+00,1.029e+01,1.083e+01,1.430e+01,1.080e+01,9.782e+00,9.555e+00,1.116e+01,1.136e+01,9.398e+00,9.076e+00,1.132e+01,1.025e+01,1.210e+01,9.523e+00
1.957e-01,4.246e-01,1.110e+00,7.481e-01,1.664e+00,2.408e+00,2.145e+00,2.802e+00,2.839e+00,1.795e+00,1.990e+00,2.703e+00,4.442e+00,4.025e+00,3.753e+00,4.049e+00,5.545e+00,4.701e+00,6.173e+00,4.532e+00,6.459e+00,5.417e+00,5.976e+00,7.427e+00,5.883e+00,7.139e+00,7.145e+00,6.222e+00,8.103e+00,7.454e+00,7.369e+00,9.027e+00,7.380e+00,7.860e+00,1.017e+01,1.027e+01,8.763e+00,9.144e+00,1.194e+01,1.049e+01,9.733e+00,1.093e+01,8.620e+00,1.167e+01,1.104e+01,1.414e+01,1.263e+01,9.700e+00,1.021e+01,1.262e+01,9.776e+00,1.276e+01,1.071e+01,1.058e+01,9.725e+00,1.126e+01,1.126e+01,1.114e+01,1.049e+01,9.626e+00,1.072e+01,1.078e+01,1.150e+01,1.175e+01,1.044e+01,1.061e+01,1.093e+01,1.197e+01,9.598e+00,1.079e+01,1.380e+01,1.165e+01,1.259e+01,1.009e+01
1.993e-01,2.766e-01,7.668e-01,5.271e-01,6.886e-01,1.144e+00,1.287e+00,1.390e+00,1.696e+00,9.135e-01,1.249e+00,2.835e+00,2.920e+00,4.095e+00,3.591e+00,3.868e+00,4.386e+00,4.424e+00,5.291e+00,3.464e+00,4.528e+00,4.442e+00,6.015e+00,4.290e+00,5.126e+00,4.517e+00,5.337e+00,5.768e+00,5.716e+00,6.839e+00,6.580e+00,7.298e+00,6.432e+00,7.398e+00,7.575e+00,8.115e+00,7.768e+00,7.880e+00,9.808e+00,9.541e+00,8.711e+00,9.376e+00,7.465e+00,9.458e+00,1.020e+01,1.234e+01,1.218e+01,8.499e+00,9.028e+00,9.236e+00,8.428e+00,1.127e+01,8.517e+00,9.488e+00,9.076e+00,8.933e+00,1.065e+01,1.015e+01,1.015e+01,9.504e+00,9.735e+00,1.084e+01,1.304e+01,1.063e+01,8.823e+00,1.017e+01,9.821e+00,1.065e+01,9.103e+00,9.583e+00,1.096e+01,8.941e+00,1.077e+01,9.858e+00
4.244e-01,7.000e-01,1.501e+00,8.993e-01,1.983e+00,2.559e+00,2.398e+00,2.561e+00,3.062e+00,1.512e+00,1.571e+00,2.711e+00,3.275e+00,3.642e+00,3.131e+00,3.538e+00,4.335e+00,3.968e+00,5.253e+00,4.528e+00,4.752e+00,4.029e+00,4.947e+00,4.392e+00,4.628e+00,5.096e+00,5.119e+00,4.570e+00,5.902e+00,6.438e+00,7.292e+00,7.110e+00,6.164e+00,7.465e+00,7.467e+00,8.945e+00,7.579e+00,7.711e+00,9.728e+00,9.519e+00,8.567e+00,8.326e+00,6.834e+00,1.010e+01,9.348e+00,1.353e+01,1.318e+01,9.736e+00,9.432e+00,8.199e+00,9.121e+00,1.248e+01,9.195e+00,1.002e+01,9.683e+00,9.818e+00,1.073e+01,1.129e+01,1.102e+01,1.001e+01,1.104e+01,1.127e+01,1.269e+01,1.028e+01,9.922e+00,1.113e+01,9.948e+00,1.095e+01,1.007e+01,9.869e+00,1.092e+01,1.082e+01,1.077e+01,9.956e+00
2.114e-01,2.981e-01,7.575e-01,5.664e-01,1.209e+00,1.661e+00,1.605e+00,2.803e+00,3.088e+00,2.235e+00,2.434e+00,3.609e+00,5.254e+00,4.666e+00,4.789e+00,4.370e+00,5.742e+00,5.357e+00,6.743e+00,3.968e+00,6.216e+00,5.024e+00,6.674e+00,6.428e+00,5.123e+00,6.630e+00,5.974e+00,6.024e+00,7.666e+00,7.002e+00,8.597e+00,7.393e+00,7.282e+00,7.891e+00,9.340e+00,9.913e+00,8.942e+00,8.727e+00,1.156e+01,1.113e+01,9.976e+00,1.188e+01,8.859e+00,1.123e+01,1.177e+01,1.588e+01,1.182e+01,1.060e+01,9.946e+00,1.160e+01,9.714e+00,1.293e+01,1.089e+01,1.177e+01,1.102e+01,1.227e+01,1.182e+01,1.171e+01,1.149e+01,1.158e+01,1.117e+01,1.152e+01,1.325e+01,1.189e+01,1.143e+01,1.180e+01,1.228e+01,1.301e+01,1.060e+01,1.023e+01,1.555e+01,1.234e+01,1.201e+01,1.224e+01
9.573e-02,1.034e-01,2.889e-01,2.523e-01,7.292e-01,1.021e+00,9.051e-01,1.610e+00,2.059e+00,1.214e+00,1.510e+00,2.329e+00,3.320e+00,2.929e+00,2.940e+00,2.711e+00,4.062e+00,3.733e+00,5.270e+00,4.140e+00,4.411e+00,4.751e+00,5.504e+00,5.694e+00,4.998e+00,6.212e+00,6.557e+00,5.864e+00,7.129e+00,6.723e+00,8.072e+00,8.008e+00,7.993e+00,7.562e+00,9.031e+00,8.526e+00,8.550e+00,8.826e+00,1.211e+01,9.470e+00,9.004e+00,9.527e+00,8.824e+00,9.494e+00,1.012e+01,1.389e+01,1.128e+01,9.620e+00,9.520e+00,1.124e+01,9.473e+00,1.220e+01,1.074e+01,1.066e+01,8.956e+00,1.054e+01,1.132e+01,1.250e+01,9.032e+00,1.057e+01,1.077e+01,9.894e+00,1.346e+01,1.201e+01,1.022e+01,1.155e+01,1.087e+01,1.198e+01,1.015e+01,9.906e+00,1.268e+01,1.178e+01,1.238e+01,1.173e+01
7.928e-02,4.406e-01,9.637e-01,7.118e-01,1.228e+00,2.167e+00,2.365e+00,2.260e+00,2.927e+00,1.640e+00,2.110e+00,3.056e+00,3.879e+00,3.724e+00,3.494e+00,2.360e+00,4.084e+00,3.479e+00,5.149e+00,2.827e+00,3.934e+00,3.666e+00,4.635e+00,4.457e+00,4.488e+00,4.394e+00,4.155e+00,4.752e+00,5.786e+00,5.086e+00,5.954e+00,5.838e+00,5.671e+00,6.304e+00,7.842e+00,8.229e+00,7.022e+00,7.511e+00,9.097e+00,8.700e+00,8.583e+00,8.217e+00,8.069e+00,8.656e+00,9.689e+00,1.349e+01,1.086e+01,8.357e+00,9.841e+00,1.032e+01,8.431e+00,1.194e+01,1.040e+01,9.558e+00,8.569e+00,1.115e+01,1.102e+01,1.057e+01,9.849e+00,1.018e+01,1.063e+01,1.079e+01,1.139e+01,1.170e+01,1.016e+01,1.079e+01,1.153e+01,1.106e+01,1.012e+01,9.302e+00,1.211e+01,1.206e+01,1.267e+01,1.039e+01
2.455e-02,1.616e-01,2.606e-01,2.594e-01,8.407e-01,1.598e+00,1.761e+00,1.888e+00,2.980e+00,1.846e+00,2.320e+00,2.679e+00,4.670e+00,4.069e+00,4.192e+00,3.316e+00,4.374e+00,4.059e+00,5.205e+00,3.511e+00,4.778e+00,5.089e+00,5.897e+00,5.672e+00,4.176e+00,5.844e+00,5.941e+00,5.239e+00,7.526e+00,6.162e+00,7.972e+00,6.810e+00,7.296e+00,8.281e+00,8.660e+00,8.275e+00,8.603e+00,8.223e+00,9.763e+00,8.719e+00,8.526e+00,1.017e+01,7.612e+00,8.832e+00,9.156e+00,1.254e+01,9.688e+00,8.673e+00,1.030e+01,1.047e+01,1.091e+01,1.171e+01,1.150e+01,1.020e+01,8.509e+00,1.014e+01,1.144e+01,1.058e+01,1.016e+01,1.089e+01,1.055e+01,1.050e+01,1.339e+01,1.072e+01,1.036e+01,1.049e+01,1.173e+01,1.138e+01,8.625e+00,9.649e+00,1.330e+01,1.037e+01,1.104e+01,1.124e+01
1.561e-01,4.617e-01,1.107e+00,6.854e-01,1.373e+00,2.147e+00,2.008e+00,1.975e+00,2.349e+00,1.132e+00,1.346e+00,2.762e+00,3.364e+00,3.456e+00,3.352e+00,3.086e+00,4.708e+00,3.310e+00,4.367e+00,2.989e+00,3.926e+00,3.771e+00,5.122e+00,4.981e+00,3.971e+00,5.344e+00,6.598e+00,5.067e+00,5.908e+00,6.298e+00,6.725e+00,7.424e+00,5.894e+00,7.503e+00,8.103e+00,8.127e+00,7.093e+00,7.105e+00,9.010e+00,8.996e+00,9.171e+00,9.438e+00,7.594e+00,8.948e+00,9.138e+00,1.264e+01,1.253e+01,1.029e+01,1.083e+01,1.132e+01,1.095e+01,1.320e+01,1.113e+01,1.157e+01,1.129e+01,1.107e+01,1.291e+01,1.192e+01,1.046e+01,1.134e+01,1.188e+01,1.109e+01,1.370e+01,1.215e+01,1.155e+01,1.219e+01,1.231e+01,1.126e+01,1.188e+01,1.024e+01,1.351e+01,1.144e+01,1.300e+01,1.140e+01
2.475e-01,3.913e-01,7.622e-01,4.875e-01,1.456e+00,1.834e+00,1.675e+00,2.296e+00,2.825e+00,1.799e+00,2.030e+00,3.296e+00,4.159e+00,4.425e+00,4.567e+00,3.643e+00,4.801e+00,4.887e+00,6.391e+00,4.758e+00,5.477e+00,5.714e+00,7.023e+00,5.944e+00,5.672e+00,6.416e+00,6.731e+00,6.667e+00,7.610e+00,7.096e+00,8.749e+00,7.786e+00,7.907e+00,7.826e+00,8.929e+00,9.486e+00,8.921e+00,8.706e+00,1.114e+01,9.401e+00,8.668e+00,1.003e+01,8.193e+00,9.972e+00,1.045e+01,1.485e+01,1.219e+01,1.011e+01,1.202e+01,1.230e+01,1.094e+01,1.415e+01,1.148e+01,1.176e+01,9.537e+00,1.118e+01,1.222e+01,1.340e+01,1.173e+01,1.145e+01,1.223e+01,1.233e+01,1.306e+01,1.297e+01,1.135e+01,1.248e+01,1.235e+01,1.208e+01,1.126e+01,1.075e+01,1.385e+01,1.258e+01,1.369e+01,1.164e+01
3.547e-01,6.132e-01,1.178e+00,6.585e-01,1.353e+00,1.910e+00,2.103e+00,2.055e+00,2.366e+00,1.823e+00,1.457e+00,3.444e+00,3.642e+00,4.231e+00,4.315e+00,3.832e+00,5.526e+00,4.527e+00,6.710e+00,4.673e+00,6.102e+00,4.730e+00,6.170e+00,6.507e+00,5.839e+00,6.549e+00,6.036e+00,5.938e+00,8.192e+00,6.617e+00,8.482e+00,8.880e+00,6.904e+00,7.261e+00,8.624e+00,9.422e+00,8.376e+00,9.992e+00,1.169e+01,1.112e+01,1.022e+01,1.154e+01,8.973e+00,1.200e+01,1.233e+01,1.536e+01,1.394e+01,1.240e+01,1.300e+01,1.432e+01,1.178e+01,1.563e+01,1.268e+01,1.376e+01,1.191e+01,1.275e+01,1.446e+01,1.467e+01,1.398e+01,1.289e+01,1.480e+01,1.419e+01,1.626e+01,1.544e+01,1.394e+01,1.469e+01,1.598e+01,1.454e+01,1.397e+01,1.398e+01,1.672e+01,1.512e+01,1.542e+01,1.333e+01
1.344e-03,3.025e-02,3.723e-01,3.247e-01,9.577e-01,1.439e+00,1.001e+00,2.208e+00,2.298e+00,1.442e+00,1.744e+00,2.653e+00,4.064e+00,4.203e+00,4.040e+00,4.260e+00,5.195e+00,5.198e+00,6.115e+00,3.986e+00,5.823e+00,5.524e+00,6.416e+00,6.231e+00,5.548e+00,6.699e+00,6.012e+00,7.187e+00,6.885e+00,7.638e+00,8.258e+00,8.595e+00,7.447e+00,8.236e+00,8.975e+00,1.047e+01,9.289e+00,9.533e+00,1.208e+01,1.109e+01,1.083e+01,1.171e+01,8.342e+00,9.759e+00,1.154e+01,1.511e+01,1.399e+01,1.127e+01,1.083e+01,1.196e+01,1.180e+01,1.442e+01,1.211e+01,1.376e+01,1.230e+01,1.354e+01,1.476e+01,1.364e+01,1.375e+01,1.219e+01,1.323e+01,1.394e+01,1.583e+01,1.462e+01,1.296e+01,1.366e+01,1.453e+01,1.484e+01,1.304e+01,1.208e+01,1.652e+01,1.316e+01,1.413e+01,1.316e+01
3.579e-01,4.889e-01,1.161e+00,7.138e-01,9.972e-01,1.352e+00,1.550e+00,2.194e+00,2.452e+00,1.811e+00,1.530e+00,3.197e+00,3.651e+00,4.293e+00,3.725e+00,3.730e+00,4.588e+00,4.182e+00,6.156e+00,3.662e+00,5.380e+00,4.261e+00,6.357e+00,5.318e+00,5.484e+00,5.111e+00,5.275e+00,5.864e+00,6.550e+00,6.456e+00,7.561e+00,7.148e+00,6.720e+00,7.800e+00,8.180e+00,9.140e+00,7.598e+00,7.769e+00,1.076e+01,9.674e+00,9.552e+00,1.024e+01,8.764e+00,1.074e+01,1.092e+01,1.485e+01,1.236e+01,1.045e+01,1.250e+01,1.271e+01,1.041e+01,1.467e+01,1.218e+01,1.248e+01,1.117e+01,1.264e+01,1.381e+01,1.450e+01,1.266e+01,1.195e+01,1.375e+01,1.474e+01,1.546e+01,1.382e+01,1.259e+01,1.443e+01,1.347e+01,1.363e+01,1.394e+01,1.346e+01,1.422e+01,1.503e+01,1.476e+01,1.279e+01
3.189e-01,5.421e-01,1.322e+00,8.660e-01,1.458e+00,2.212e+00,2.324e+00,2.933e+00,3.131e+00,2.208e+00,1.988e+00,2.910e+00,4.271e+00,4.273e+00,3.346e+00,3.108e+00,4.465e+00,4.326e+00,5.933e+00,3.986e+00,5.790e+00,5.472e+00,6.248e+00,6.434e+00,6.531e+00,6.532e+00,6.608e+00,6.779e+00,8.100e+00,7.116e+00,7.860e+00,8.111e+00,6.934e+00,8.387e+00,8.669e+00,1.052e+01,9.594e+00,9.592e+00,1.209e+01,1.053e+01,1.075e+01,1.110e+01,8.741e+00,1.107e+01,1.211e+01,1.667e+01,1.473e+01,1.285e+01,1.326e+01,1.442e+01,1.339e+01,1.815e+01,1.667e+01,1.600e+01,1.297e+01,1.447e+01,1.552e+01,1.617e+01,1.542e+01,1.358e+01,1.661e+01,1.713e+01,1.660e+01,1.560e+01,1.503e+01,1.544e+01,1.626e+01,1.689e+01,1.525e+01,1.409e+01,1.744e+01,1.594e+01,1.782e+01,1.585e+01
1.017e-01,2.745e-01,5.710e-01,4.359e-01,6.495e-01,1.568e+00,2.022e+00,1.733e+00,3.258e+00,1.715e+00,2.106e+00,2.737e+00,4.341e+00,4.025e+00,3.911e+00,3.201e+00,3.923e+00,4.006e+00,5.410e+00,3.413e+00,4.950e+00,5.294e+00,5.780e+00,5.444e+00,5.297e+00,5.308e+00,5.396e+00,5.769e+00,6.982e+00,5.645e+00,7.137e+00,7.130e+00,6.659e+00,7.418e+00,8.771e+00,8.782e+00,7.987e+00,7.721e+00,1.110e+01,9.381e+00,9.305e+00,1.060e+01,8.018e+00,9.353e+00,1.129e+01,1.354e+01,1.037e+01,9.998e+00,9.827e+00,1.239e+01,1.139e+01,1.345e+01,1.242e+01,1.169e+01,1.040e+01,1.273e+01,1.413e+01,1.214e+01,1.260e+01,1.072e+01,1.327e+01,1.345e+01,1.532e+01,1.304e+01,1.257e+01,1.352e+01,1.449e+01,1.426e+01,1.202e+01,1.210e+01,1.588e+01,1.425e+01,1.342e+01,1.395e+01
1.750e-01,2.696e-01,4.981e-01,2.940e-01,6.457e-01,1.130e+00,1.397e+00,1.763e+00,2.169e+00,2.014e+00,1.533e+00,2.963e+00,3.854e+00,4.221e+00,4.204e+00,2.921e+00,4.378e+00,4.298e+00,5.619e+00,3.631e+00,5.295e+00,4.749e+00,6.407e+00,5.381e+00,4.337e+00,4.828e+00,4.499e+00,4.883e+00,6.470e+00,5.560e+00,6.967e+00,7.190e+00,6.062e+00,6.696e+00,7.725e+00,8.108e+00,7.490e+00,8.656e+00,9.632e+00,7.817e+00,8.314e+00,1.021e+01,8.413e+00,9.170e+00,1.044e+01,1.307e+01,1.161e+01,1.035e+01,1.096e+01,1.222e+01,1.115e+01,1.449e+01,1.297e+01,1.326e+01,1.107e+01,1.217e+01,1.330e+01,1.504e+01,1.264e+01,1.115e+01,1.418e+01,1.468e+01,1.474e+01,1.338e+01,1.334e+01,1.267e+01,1.477e+01,1.521e+01,1.277e+01,1.235e+01,1.546e+01,1.298e+01,1.417e+01,1.350e+01
1.815e-01,3.516e-01,7.958e-01,5.245e-01,1.109e+00,1.774e+00,1.811e+00,2.159e+00,2.881e+00,1.702e+00,1.865e+00,3.334e+00,4.012e+00,3.779e+00,3.829e+00,3.499e+00,4.951e+00,4.094e+00,6.101e+00,3.573e+00,5.472e+00,4.856e+00,5.716e+00,5.922e+00,5.510e+00,5.566e+00,6.001e+00,5.957e+00,7.531e+00,6.767e+00,8.025e+00,9.158e+00,7.332e+00,8.041e+00,1.003e+01,1.012e+01,8.103e+00,8.631e+00,1.227e+01,1.049e+01,9.701e+00,1.191e+01,9.602e+00,1.147e+01,1.169e+01,1.507e+01,1.309e+01,1.129e+01,1.129e+01,1.322e+01,1.157e+01,1.552e+01,1.270e+01,1.287e+01,1.209e+01,1.306e+01,1.491e+01,1.500e+01,1.358e+01,1.226e+01,1.417e+01,1.423e+01,1.638e+01,1.521e+01,1.311e+01,1.469e+01,1.487e+01,1.528e+01,1.407e+01,1.311e+01,1.568e+01,1.610e+01,1.555e+01,1.354e+01
5.748e-02,2.677e-01,5.118e-01,3.433e-01,7.080e-01,1.639e+00,1.984e+00,1.598e+00,2.492e+00,1.717e+00,1.434e+00,2.413e+00,3.287e+00,3.524e+00,3.885e+00,2.871e+00,3.959e+00,3.599e+00,4.765e+00,2.533e+00,4.717e+00,3.948e+00,4.795e+00,4.840e+00,4.458e+00,4.836e+00,5.008e+00,5.305e+00,6.146e+00,5.145e+00,7.045e+00,6.545e+00,5.707e+00,5.973e+00,8.032e+00,7.712e+00,7.715e+00,7.760e+00,9.221e+00,8.060e+00,8.595e+00,8.721e+00,7.791e+00,7.647e+00,9.203e+00,1.302e+01,1.130e+01,9.152e+00,9.196e+00,1.022e+01,1.023e+01,1.334e+01,1.207e+01,1.164e+01,1.058e+01,1.111e+01,1.278e+01,1.229e+01,1.151e+01,1.161e+01,1.366e+01,1.355e+01,1.379e+01,1.244e+01,1.290e+01,1.240e+01,1.272e+01,1.317e+01,1.205e+01,1.184e+01,1.478e+01,1.112e+01,1.375e+01,1.289e+01
3.994e-01,6.410e-01,1.173e+00,6.535e-01,1.171e+00,1.845e+00,2.364e+00,1.992e+00,2.998e+00,2.191e+00,1.926e+00,3.173e+00,4.550e+00,4.765e+00,4.510e+00,3.615e+00,4.765e+00,4.177e+00,6.500e+00,4.835e+00,5.933e+00,5.117e+00,5.914e+00,6.454e+00,5.060e+00,6.388e+00,5.628e+00,6.008e+00,8.467e+00,6.943e+00,8.822e+00,8.922e+00,7.628e+00,8.172e+00,9.293e+00,1.034e+01,9.150e+00,9.079e+00,1.196e+01,1.018e+01,1.065e+01,9.739e+00,8.455e+00,1.138e+01,1.237e+01,1.488e+01,1.286e+01,1.055e+01,1.030e+01,1.200e+01,1.158e+01,1.473e+01,1.276e+01,1.333e+01,1.208e+01,1.403e+01,1.442e+01,1.496e+01,1.380e+01,1.237e+01,1.571e+01,1.592e+01,1.790e+01,1.482e+01,1.502e+01,1.542e+01,1.600e+01,1.539e+01,1.540e+01,1.489e+01,1.742e+01,1.541e+01,1.568e+01,1.519e+01
2.354e-01,5.782e-01,1.135e+00,7.069e-01,1.765e+00,2.797e+00,2.824e+00,2.357e+00,3.311e+00,1.666e+00,1.814e+00,3.187e+00,3.973e+00,4.134e+00,4.157e+00,3.392e+00,5.234e+00,4.533e+00,5.711e+00,4.805e+00,5.140e+00,4.909e+00,6.245e+00,5.850e+00,4.509e+00,6.498e+00,7.109e+00,5.370e+00,7.504e+00,6.593e+00,7.973e+00,9.419e+00,7.332e+00,8.806e+00,9.321e+00,9.836e+00,7.734e+00,8.605e+00,1.135e+01,8.689e+00,9.063e+00,1.007e+01,8.919e+00,1.042e+01,1.053e+01,1.386e+01,1.350e+01,1.096e+01,1.178e+01,1.268e+01,1.200e+01,1.525e+01,1.310e+01,1.304e+01,1.240e+01,1.315e+01,1.320e+01,1.525e+01,1.377e+01,1.360e+01,1.540e+01,1.458e+01,1.648e+01,1.597e+01,1.446e+01,1.545e+01,1.518e+01,1.573e+01,1.416e+01,1.373e+01,1.659e+01,1.410e+01,1.596e+01,1.456e+01
3.810e-01,6.225e-01,1.178e+00,6.786e-01,1.174e+00,1.454e+00,1.704e+00,2.115e+00,2.985e+00,1.925e+00,2.080e+00,3.709e+00,4.865e+00,4.579e+00,4.283e+00,3.372e+00,4.940e+00,4.511e+00,6.498e+00,4.453e+00,4.940e+00,4.020e+00,6.187e+00,4.950e+00,4.332e+00,5.764e+00,5.639e+00,4.688e+00,7.443e+00,6.987e+00,8.199e+00,8.464e+00,7.099e+00,8.339e+00,9.028e+00,9.201e+00,7.995e+00,9.651e+00,1.075e+01,9.623e+00,9.696e+00,1.114e+01,8.749e+00,1.133e+01,1.217e+01,1.496e+01,1.339e+01,1.232e+01,1.109e+01,1.284e+01,1.176e+01,1.625e+01,1.459e+01,1.533e+01,1.370e+01,1.343e+01,1.648e+01,1.604e+01,1.448e+01,1.381e+01,1.604e+01,1.576e+01,1.838e+01,1.733e+01,1.627e+01,1.649e+01,1.646e+01,1.795e+01,1.556e+01,1.614e+01,1.882e+01,1.583e+01,1.798e+01,1.696e+01
4.618e-02,1.164e-01,4.818e-01,3.894e-01,9.258e-01,1.838e+00,1.770e+00,1.615e+00,2.389e+00,1.021e+00,1.713e+00,2.379e+00,3.532e+00,3.586e+00,3.293e+00,3.128e+00,3.959e+00,4.428e+00,5.257e+00,4.124e+00,4.366e+00,5.412e+00,4.956e+00,5.577e+00,4.734e+00,6.042e+00,6.592e+00,5.273e+00,6.327e+00,6.223e+00,7.764e+00,7.989e+00,7.202e+00,7.027e+00,8.023e+00,8.676e+00,7.055e+00,8.130e+00,1.154e+01,8.770e+00,9.150e+00,9.454e+00,7.774e+00,1.063e+01,1.029e+01,1.348e+01,1.160e+01,9.651e+00,1.101e+01,1.311e+01,1.150e+01,1.452e+01,1.258e+01,1.204e+01,1.131e+01,1.279e+01,1.510e+01,1.486e+01,1.377e+01,1.299e+01,1.542e+01,1.558e+01,1.643e+01,1.516e+01,1.470e+01,1.499e+01,1.539e+01,1.490e+01,1.468e+01,1.535e+01,1.660e+01,1.445e+01,1.533e+01,1.611e+01
2.721e-01,5.285e-01,1.149e+00,6.772e-01,1.592e+00,2.446e+00,2.407e+00,2.551e+00,3.499e+00,2.003e+00,1.902e+00,2.802e+00,4.177e+00,4.733e+00,3.864e+00,3.843e+00,4.475e+00,4.321e+00,5.911e+00,4.461e+00,5.236e+00,4.940e+00,5.772e+00,5.374e+00,5.275e+00,6.352e+00,6.065e+00,5.299e+00,6.866e+00,6.371e+00,7.440e+00,7.760e+00,6.654e+00,7.166e+00,7.986e+00,9.220e+00,8.048e+00,8.440e+00,1.202e+01,1.011e+01,9.862e+00,1.041e+01,8.853e+00,1.092e+01,1.221e+01,1.558e+01,1.290e+01,1.220e+01,1.100e+01,1.258e+01,1.172e+01,1.521e+01,1.341e+01,1.383e+01,1.257e+01,1.414e+01,1.606e+01,1.493e+01,1.489e+01,1.470e+01,1.578e+01,1.578e+01,1.819e+01,1.651e+01,1.509e+01,1.681e+01,1.824e+01,1.726e+01,1.636e+01,1.606e+01,1.875e+01,1.579e+01,1.807e+01,1.828e+01
3.668e-01,2.950e-01,7.966e-01,5.724e-01,1.210e+00,1.870e+00,2.043e+00,2.781e+00,2.779e+00,2.433e+00,1.957e+00,3.027e+00,3.937e+00,3.988e+00,3.419e+00,3.064e+00,4.242e+00,4.068e+00,5.374e+00,3.074e+00,4.622e+00,4.151e+00,4.477e+00,4.688e+00,4.800e+00,4.961e+00,5.633e+00,4.814e+00,7.757e+00,5.889e+00,7.316e+00,7.770e+00,6.291e+00,7.382e+00,8.123e+00,9.104e+00,7.783e+00,9.273e+00,9.994e+00,8.487e+00,8.390e+00,9.858e+00,7.905e+00,9.178e+00,1.136e+01,1.279e+01,1.124e+01,9.717e+00,1.061e+01,1.172e+01,1.048e+01,1.368e+01,1.292e+01,1.138e+01,1.008e+01,1.170e+01,1.349e+01,1.377e+01,1.304e+01,1.310e+01,1.518e+01,1.573e+01,1.579e+01,1.581e+01,1.498e+01,1.492e+01,1.645e+01,1.504e+01,1.514e+01,1.429e+01,1.661e+01,1.402e+01,1.667e+01,1.503e+01
2.005e-01,3.505e-01,6.384e-01,3.300e-01,1.377e+00,1.972e+00,1.779e+00,1.687e+00,2.150e+00,1.387e+00,1.603e+00,3.089e+00,3.511e+00,3.725e+00,3.990e+00,3.175e+00,4.493e+00,4.268e+00,5.301e+00,3.858e+00,4.773e+00,4.603e+00,5.864e+00,5.700e+00,3.538e+00,5.861e+00,6.475e+00,4.882e+00,6.973e+00,6.228e+00,8.093e+00,9.170e+00,8.013e+00,8.667e+00,7.870e+00,9.056e+00,8.397e+00,9.850e+00,1.180e+01,9.784e+00,9.427e+00,1.101e+01,8.831e+00,9.512e+00,1.006e+01,1.399e+01,1.222e+01,1.046e+01,1.057e+01,1.099e+01,1.156e+01,1.460e+01,1.114e+01,1.318e+01,1.150e+01,1.174e+01,1.357e+01,1.514e+01,1.320e+01,1.195e+01,1.452e+01,1.579e+01,1.579e+01,1.391e+01,1.597e+01,1.461e+01,1.507e+01,1.541e+01,1.476e+01,1.391e+01,1.682e+01,1.445e+01,1.584e+01,1.755e+01
1.594e-03,4.094e-01,8.053e-01,5.918e-01,1.358e+00,2.762e+00,2.978e+00,2.303e+00,3.970e+00,1.832e+00,2.529e+00,3.379e+00,4.954e+00,5.150e+00,4.804e+00,4.195e+00,5.404e+00,5.119e+00,6.454e+00,4.219e+00,5.892e+00,5.741e+00,6.744e+00,6.208e+00,5.133e+00,6.851e+00,6.034e+00,5.979e+00,7.272e+00,6.277e+00,7.943e+00,8.331e+00,6.474e+00,8.761e+00,8.462e+00,9.132e+00,7.921e+00,8.938e+00,1.075e+01,9.426e+00,9.691e+00,1.081e+01,8.222e+00,9.939e+00,1.067e+01,1.392e+01,1.180e+01,1.104e+01,1.181e+01,1.240e+01,1.239e+01,1.472e+01,1.214e+01,1.258e+01,1.156e+01,1.295e+01,1.599e+01,1.426e+01,1.519e+01,1.378e+01,1.668e+01,1.564e+01,1.832e+01,1.745e+01,1.550e+01,1.580e+01,1.781e+01,1.830e+01,1.586e+01,1.699e+01,1.851e+01,1.739e+01,1.877e+01,1.766e+01
1.715e-01,4.474e-01,1.025e+00,6.735e-01,9.970e-01,1.938e+00,2.278e+00,1.899e+00,2.836e+00,1.573e+00,1.579e+00,3.061e+00,3.756e+00,4.400e+00,4.544e+00,3.988e+00,5.023e+00,4.802e+00,6.283e+00,3.968e+00,5.847e+00,4.093e+00,5.398e+00,5.314e+00,5.164e+00,5.490e+00,5.348e+00,5.353e+00,7.422e+00,6.705e+00,8.311e+00,9.215e+00,7.465e+00,6.837e+00,9.765e+00,9.241e+00,7.513e+00,9.028e+00,1.169e+01,1.000e+01,8.829e+00,1.012e+01,8.369e+00,1.051e+01,1.293e+01,1.569e+01,1.451e+01,1.198e+01,1.186e+01,1.309e+01,1.239e+01,1.669e+01,1.235e+01,1.480e+01,1.258e+01,1.385e+01,1.579e+01,1.500e+01,1.534e+01,1.340e+01,1.498e+01,1.567e+01,1.744e+01,1.883e+01,1.719e+01,1.857e+01,1.954e+01,1.916e+01,1.737e+01,1.798e+01,1.951e+01,1.802e+01,2.029e+01,1.641e+01
3.754e-01,6.807e-01,1.540e+00,1.014e+00,1.634e+00,2.977e+00,3.510e+00,2.910e+00,3.706e+00,2.410e+00,2.140e+00,3.772e+00,4.864e+00,5.801e+00,5.211e+00,4.748e+00,6.404e+00,5.376e+00,7.256e+00,5.044e+00,6.889e+00,5.898e+00,6.740e+00,6.974e+00,6.826e+00,7.224e+00,8.003e+00,6.652e+00,8.355e+00,7.654e+00,9.217e+00,9.605e+00,8.258e+00,8.365e+00,1.054e+01,1.037e+01,9.262e+00,9.769e+00,1.288e+01,1.137e+01,1.135e+01,1.146e+01,9.208e+00,1.204e+01,1.218e+01,1.580e+01,1.525e+01,1.074e+01,1.244e+01,1.331e+01,1.217e+01,1.530e+01,1.356e+01,1.281e+01,1.274e+01,1.448e+01,1.474e+01,1.425e+01,1.396e+01,1.388e+01,1.564e+01,1.629e+01,1.820e+01,1.593e+01,1.577e+01,1.716e+01,1.980e+01,1.916e+01,1.749e+01,1.810e+01,1.964e+01,1.743e+01,2.030e+01,1.618e+01
3.292e-01,3.030e-01,8.387e-01,6.777e-01,1.380e+00,2.114e+00,2.263e+00,2.788e+00,2.845e+00,2.119e+00,2.409e+00,3.618e+00,4.827e+00,5.425e+00,4.881e+00,4.963e+00,6.263e+00,5.699e+00,7.308e+00,5.326e+00,6.764e+00,6.412e+00,6.615e+00,7.352e+00,6.103e+00,7.316e+00,6.280e+00,7.350e+00,9.557e+00,8.246e+00,8.739e+00,9.457e+00,8.227e+00,9.817e+00,9.475e+00,1.117e+01,1.023e+01,1.020e+01,1.319e+01,1.198e+01,1.056e+01,1.256e+01,8.632e+00,1.340e+01,1.358e+01,1.607e+01,1.421e+01,1.214e+01,1.274e+01,1.407e+01,1.268e+01,1.678e+01,1.293e+01,1.459e+01,1.217e+01,1.482e+01,1.448e+01,1.504e+01,1.609e+01,1.390e+01,1.664e+01,1.704e+01,1.812e+01,1.774e+01,1.603e+01,1.633e+01,1.949e+01,1.877e+01,1.774e+01,1.935e+01,2.091e+01,1.953e+01,1.982e+01,1.686e+01
1.764e-01,2.794e-01,5.299e-01,3.380e-01,8.319e-01,1.310e+00,1.449e+00,1.652e+00,1.991e+00,1.569e+00,1.394e+00,2.638e+00,2.864e+00,3.217e+00,3.455e+00,3.040e+00,3.640e+00,3.791e+00,4.740e+00,2.947e+00,5.163e+00,4.674e+00,5.050e+00,4.570e+00,4.422e+00,4.170e+00,5.267e+00,4.807e+00,6.619e+00,5.495e+00,7.302e+00,7.760e+00,6.317e+00,6.466e+00,7.815e+00,7.946e+00,7.697e+00,7.441e+00,1.082e+01,8.159e+00,7.699e+00,9.561e+00,8.219e+00,8.820e+00,1.028e+01,1.271e+01,1.220e+01,9.595e+00,1.073e+01,1.167e+01,1.179e+01,1.449e+01,1.280e+01,1.263e+01,9.604e+00,1.198e+01,1.278e+01,1.474e+01,1.220e+01,1.193e+01,1.353e+01,1.497e+01,1.545e+01,1.536e+01,1.504e+01,1.544e+01,1.671e+01,1.580e+01,1.487e+01,1.751e+01,1.729e+01,1.554e+01,1.817e+01,1.561e+01
1.310e-01,3.536e-01,7.891e-01,5.140e-01,8.313e-01,1.917e+00,2.354e+00,1.886e+00,2.879e+00,1.942e+00,1.663e+00,2.702e+00,3.911e+00,4.129e+00,4.118e+00,3.119e+00,4.219e+00,4.398e+00,5.702e+00,3.688e+00,5.398e+00,4.249e+00,5.312e+00,5.548e+00,4.674e+00,5.771e+00,6.239e+00,5.534e+00,7.967e+00,6.771e+00,8.164e+00,9.581e+00,7.875e+00,7.834e+00,9.220e+00,9.620e+00,7.919e+00,8.434e+00,1.166e+01,9.479e+00,9.193e+00,1.061e+01,8.691e+00,9.043e+00,1.144e+01,1.382e+01,1.283e+01,1.071e+01,9.361e+00,1.255e+01,1.163e+01,1.429e+01,1.237e+01,1.259e+01,1.113e+01,1.304e+01,1.344e+01,1.413e+01,1.389e+01,1.319e+01,1.419e+01,1.514e+01,1.741e+01,1.617e+01,1.542e+01,1.783e+01,1.884e+01,1.687e+01,1.734e+01,1.845e+01,1.965e+01,1.674e+01,1.939e+01,1.766e+01
3.333e-01,3.966e-01,1.094e+00,7.842e-01,1.039e+00,1.873e+00,2.230e+00,2.459e+00,2.869e+00,1.844e+00,1.742e+00,2.776e+00,3.750e+00,4.200e+00,3.047e+00,3.689e+00,4.699e+00,3.927e+00,5.636e+00,3.801e+00,5.052e+00,4.512e+00,5.236e+00,5.815e+00,5.816e+00,6.377e+00,6.174e+00,5.734e+00,7.805e+00,6.284e+00,7.052e+00,7.505e+00,6.382e+00,7.751e+00,8.550e+00,9.290e+00,7.829e+00,8.740e+00,1.088e+01,9.145e+00,8.694e+00,9.909e+00,8.429e+00,1.069e+01,1.162e+01,1.391e+01,1.151e+01,1.083e+01,1.126e+01,1.341e+01,1.140e+01,1.490e+01,1.386e+01,1.269e+01,1.207e+01,1.289e+01,1.518e+01,1.379e+01,1.394e+01,1.421e+01,1.576e+01,1.614e+01,1.769e+01,1.696e+01,1.491e+01,1.614e+01,1.849e+01,1.717e+01,1.728e+01,1.728e+01,1.907e+01,1.761e+01,2.007e+01,1.643e+01
4.462e-01,3.411e-01,1.179e+00,9.649e-01,1.186e+00,1.889e+00,2.188e+00,2.992e+00,3.494e+00,1.775e+00,1.885e+00,3.522e+00,4.467e+00,4.359e+00,3.934e+00,4.709e+00,6.733e+00,5.046e+00,6.870e+00,5.020e+00,6.124e+00,5.376e+00,7.000e+00,7.223e+00,6.889e+00,7.860e+00,7.816e+00,7.909e+00,9.118e+00,8.234e+00,8.982e+00,8.906e+00,8.419e+00,8.958e+00,1.103e+01,9.797e+00,1.017e+01,1.000e+01,1.224e+01,1.153e+01,1.076e+01,1.084e+01,1.002e+01,1.179e+01,1.310e+01,1.676e+01,1.471e+01,1.368e+01,1.291e+01,1.544e+01,1.278e+01,1.637e+01,1.351e+01,1.467e+01,1.433e+01,1.468e+01,1.606e+01,1.613e+01,1.606e+01,1.521e+01,1.960e+01,1.774e+01,1.937e+01,1.903e+01,1.795e+01,1.921e+01,2.063e+01,1.880e+01,1.895e+01,1.917e+01,2.260e+01,2.022e+01,2.225e+01,1.872e+01
3.731e-02,3.756e-01,6.919e-01,4.073e-01,9.021e-01,1.683e+00,1.851e+00,1.834e+00,3.166e+00,1.880e+00,1.805e+00,2.632e+00,4.348e+00,4.230e+00,4.451e+00,3.058e+00,4.239e+00,3.716e+00,5.625e+00,3.650e+00,5.205e+00,4.003e+00,5.736e+00,5.825e+00,4.394e+00,6.509e+00,5.577e+00,5.967e+00,7.300e+00,6.462e+00,8.399e+00,8.018e+00,7.523e+00,7.581e+00,8.397e+00,9.217e+00,7.534e+00,8.323e+00,1.050e+01,9.055e+00,8.940e+00,1.036e+01,7.726e+00,8.137e+00,1.030e+01,1.430e+01,1.157e+01,1.127e+01,1.069e+01,1.193e+01,1.171e+01,1.398e+01,1.207e+01,1.258e+01,1.126e+01,1.257e+01,1.557e+01,1.475e+01,1.439e+01,1.275e+01,1.432e+01,1.466e+01,1.706e+01,1.689e+01,1.645e+01,1.678e+01,1.859e+01,1.809e+01,1.855e+01,1.741e+01,1.997e+01,1.999e+01,2.206e+01,1.862e+01
2.376e-01,2.361e-01,8.154e-01,5.680e-01,7.957e-01,1.178e+00,1.221e+00,2.505e+00,2.530e+00,2.111e+00,1.602e+00,2.050e+00,4.206e+00,3.799e+00,3.086e+00,3.356e+00,4.263e+00,4.319e+00,5.495e+00,3.553e+00,5.503e+00,3.526e+00,5.449e+00,5.334e+00,4.465e+00,5.102e+00,4.394e+00,4.397e+00,5.875e+00,6.022e+00,6.437e+00,6.570e+00,6.548e+00,6.513e+00,7.685e+00,8.211e+00,7.053e+00,8.160e+00,9.010e+00,7.845e+00,8.110e+00,9.353e+00,7.527e+00,9.531e+00,1.008e+01,1.386e+01,1.169e+01,9.225e+00,9.861e+00,1.105e+01,9.642e+00,1.431e+01,1.251e+01,1.222e+01,1.168e+01,1.263e+01,1.304e+01,1.496e+01,1.432e+01,1.216e+01,1.485e+01,1.618e+01,1.574e+01,1.487e+01,1.435e+01,1.547e+01,1.515e+01,1.746e+01,1.456e+01,1.627e+01,1.704e+01,1.620e+01,1.764e+01,1.492e+01
