2.463e-01,9.220e-01,6.368e-01,4.955e-01,6.180e-01,6.906e-01,6.231e-01,8.667e-01,8.664e-01,4.063e-01,7.214e-01,5.670e-01,8.690e-01,1.469e-01,7.652e-01,6.610e-01,2.335e-01,1.804e-01,3.300e-01,9.073e-01,5.761e-01,5.084e-01,9.592e-01,7.444e-02,3.026e-01,2.210e-01,4.912e-01,6.959e-01,4.152e-01,8.804e-01,7.736e-01,2.826e-01,6.025e-01,4.048e-02,2.480e-01,8.490e-01,1.714e-01,7.397e-01,7.357e-01,9.035e-01,3.714e-01,4.690e-01,5.443e-01,9.732e-01,5.271e-01,4.447e-01,2.197e-01,1.888e-01,2.296e-01,4.647e-01,7.214e-01,5.093e-01,9.012e-01,5.644e-01,6.319e-01,5.827e-01,2.796e-01,3.782e-01,5.262e-01,5.596e-01,2.387e-01,6.971e-01,6.036e-02,1.512e-01,3.501e-01,8.416e-02,8.422e-03,7.195e-01,4.058e-01,3.957e-01,8.042e-01,2.281e-01,3.133e-01,1.336e-01
1.157e-01,9.691e-01,8.954e-01,3.834e-01,1.225e+00,6.279e-01,3.349e-01,1.308e+00,9.446e-01,6.719e-01,5.549e-01,4.688e-01,9.344e-01,9.169e-01,8.648e-01,1.134e+00,4.963e-01,2.760e-01,1.016e+00,7.030e-01,1.223e+00,8.561e-01,1.279e+00,3.451e-01,1.724e-01,1.084e+00,6.870e-01,4.694e-01,4.139e-01,5.512e-01,1.082e+00,5.385e-01,1.057e+00,9.235e-01,7.808e-01,9.240e-01,6.205e-01,4.809e-01,5.559e-01,1.000e+00,9.471e-01,2.947e-01,9.957e-01,1.282e+00,6.432e-01,9.998e-01,5.732e-01,5.420e-01,8.302e-01,1.141e+00,7.695e-01,1.132e+00,1.280e+00,3.598e-01,3.863e-01,1.205e+00,6.607e-01,5.870e-01,6.519e-01,9.526e-01,4.595e-01,8.958e-01,7.323e-01,1.044e-01,8.743e-01,1.024e+00,6.354e-01,1.280e+00,5.127e-01,5.718e-01,6.230e-01,4.146e-01,9.162e-01,3.963e-01
3.631e-02,4.451e-01,6.191e-01,1.053e+00,8.008e-01,1.219e+00,5.206e-01,1.615e+00,1.120e+00,8.331e-01,9.851e-01,8.813e-01,6.373e-01,1.326e+00,1.185e+00,1.364e+00,5.181e-01,1.021e+00,8.889e-01,3.394e-01,1.355e+00,9.656e-01,1.575e+00,1.006e+00,9.044e-01,1.567e+00,4.126e-01,3.316e-01,1.001e+00,7.779e-01,1.331e+00,7.267e-01,1.361e+00,7.948e-01,6.479e-01,7.150e-01,1.233e+00,2.879e-01,4.505e-01,8.979e-01,6.512e-01,8.660e-01,9.496e-01,1.235e+00,1.124e+00,7.525e-01,9.529e-01,4.022e-01,8.344e-01,1.323e+00,8.287e-01,1.255e+00,8.686e-01,5.176e-01,4.680e-01,1.587e+00,7.404e-01,9.031e-01,3.898e-01,7.250e-01,5.323e-01,1.024e+00,6.010e-01,9.265e-01,1.358e+00,8.391e-01,6.679e-01,1.425e+00,7.103e-01,1.168e+00,8.745e-01,6.818e-01,1.164e+00,1.061e+00
1.296e-01,5.857e-01,5.731e-01,1.656e+00,1.388e+00,1.736e+00,1.228e+00,1.516e+00,1.208e+00,8.807e-01,1.332e+00,8.954e-01,1.139e+00,1.062e+00,1.745e+00,1.461e+00,9.197e-01,1.363e+00,1.041e+00,1.282e+00,1.946e+00,1.419e+00,1.992e+00,8.646e-01,1.041e+00,1.228e+00,1.028e+00,6.170e-01,1.614e+00,1.632e+00,1.122e+00,1.329e+00,1.670e+00,5.303e-01,1.180e+00,9.030e-01,1.109e+00,7.616e-01,1.549e+00,9.494e-01,9.852e-01,1.703e+00,1.164e+00,1.207e+00,1.318e+00,1.236e+00,1.150e+00,6.667e-01,8.631e-01,1.745e+00,1.386e+00,1.394e+00,1.114e+00,1.201e+00,6.968e-01,1.391e+00,1.108e+00,1.668e+00,1.298e+00,9.634e-01,1.210e+00,1.190e+00,5.009e-01,1.517e+00,9.962e-01,6.948e-01,7.277e-01,1.798e+00,1.292e+00,1.705e+00,1.445e+00,1.243e+00,1.320e+00,9.561e-01
1.371e-01,5.779e-01,4.481e-01,4.783e-01,1.311e+00,1.455e+00,1.182e+00,9.211e-01,1.634e+00,1.117e+00,1.302e+00,4.982e-01,7.021e-01,7.518e-01,1.646e+00,1.523e+00,2.854e-01,7.301e-01,8.885e-01,1.227e+00,8.290e-01,7.488e-01,8.641e-01,8.986e-01,6.973e-01,6.147e-01,9.323e-01,5.113e-01,1.150e+00,1.196e+00,1.026e+00,6.151e-01,8.386e-01,4.922e-01,1.097e+00,1.000e+00,6.909e-01,1.462e+00,1.546e+00,8.901e-01,7.820e-01,1.109e+00,1.281e+00,9.792e-01,6.594e-01,4.875e-01,1.147e+00,1.213e+00,8.393e-01,1.003e+00,8.745e-01,1.504e+00,1.138e+00,5.022e-01,9.724e-01,6.561e-01,3.708e-01,1.423e+00,1.007e+00,1.060e+00,4.288e-01,9.091e-01,2.340e-01,1.026e+00,6.010e-01,5.036e-01,6.213e-01,1.099e+00,9.254e-01,1.197e+00,1.308e+00,1.092e+00,1.321e+00,9.640e-01
6.923e-02,7.323e-01,7.689e-01,8.077e-01,1.517e+00,1.763e+00,7.872e-01,1.874e+00,1.404e+00,1.546e+00,1.483e+00,6.449e-01,1.440e+00,2.093e+00,1.631e+00,2.248e+00,1.108e+00,1.093e+00,1.618e+00,1.172e+00,2.053e+00,1.841e+00,2.092e+00,1.218e+00,6.506e-01,2.176e+00,1.107e+00,8.834e-01,1.867e+00,1.804e+00,1.333e+00,1.720e+00,2.383e+00,1.618e+00,1.419e+00,1.515e+00,1.056e+00,8.735e-01,1.421e+00,1.562e+00,1.442e+00,9.416e-01,1.490e+00,1.964e+00,1.135e+00,1.152e+00,1.741e+00,1.405e+00,1.541e+00,2.127e+00,1.309e+00,1.802e+00,1.834e+00,6.248e-01,1.336e+00,1.526e+00,1.584e+00,1.887e+00,1.588e+00,1.234e+00,9.278e-01,1.665e+00,1.655e+00,1.114e+00,1.566e+00,1.963e+00,1.239e+00,2.585e+00,1.741e+00,1.233e+00,1.585e+00,1.349e+00,2.434e+00,1.118e+00
1.176e-01,8.841e-01,9.439e-01,1.348e+00,1.918e+00,2.569e+00,1.908e+00,2.901e+00,2.588e+00,2.914e+00,2.980e+00,1.591e+00,2.380e+00,3.305e+00,2.676e+00,3.582e+00,1.569e+00,1.855e+00,2.492e+00,2.161e+00,3.175e+00,2.705e+00,2.744e+00,2.769e+00,2.011e+00,2.934e+00,1.417e+00,1.418e+00,2.953e+00,2.938e+00,1.980e+00,2.148e+00,3.816e+00,2.053e+00,2.182e+00,2.778e+00,2.218e+00,2.011e+00,2.935e+00,2.248e+00,1.769e+00,2.584e+00,2.682e+00,2.595e+00,2.506e+00,1.387e+00,2.813e+00,1.971e+00,2.187e+00,3.372e+00,2.206e+00,2.932e+00,2.373e+00,1.266e+00,2.383e+00,2.945e+00,2.681e+00,3.179e+00,2.455e+00,1.877e+00,1.435e+00,2.799e+00,2.705e+00,2.210e+00,2.998e+00,2.240e+00,2.460e+00,3.993e+00,2.882e+00,2.055e+00,2.764e+00,2.424e+00,3.135e+00,1.952e+00
1.407e-01,7.643e-01,7.360e-01,1.562e+00,1.961e+00,2.204e+00,1.583e+00,2.355e+00,1.995e+00,2.097e+00,2.300e+00,1.765e+00,2.294e+00,1.836e+00,2.735e+00,2.319e+00,1.876e+00,2.365e+00,2.381e+00,1.888e+00,2.504e+00,2.507e+00,2.225e+00,1.746e+00,1.786e+00,2.609e+00,1.692e+00,1.730e+00,2.350e+00,2.254e+00,1.510e+00,1.640e+00,2.849e+00,1.219e+00,2.603e+00,1.833e+00,1.910e+00,2.090e+00,2.201e+00,1.812e+00,1.733e+00,2.939e+00,2.766e+00,1.861e+00,1.535e+00,2.079e+00,2.146e+00,1.349e+00,2.264e+00,2.756e+00,2.363e+00,2.844e+00,1.828e+00,1.798e+00,1.874e+00,2.186e+00,1.748e+00,2.823e+00,2.466e+00,2.150e+00,1.447e+00,2.309e+00,1.401e+00,2.745e+00,1.665e+00,1.971e+00,1.708e+00,2.682e+00,2.086e+00,2.324e+00,2.314e+00,2.201e+00,2.920e+00,2.000e+00
4.634e-02,5.121e-01,6.685e-01,1.224e+00,1.252e+00,2.069e+00,1.089e+00,2.300e+00,2.425e+00,2.502e+00,2.828e+00,1.962e+00,1.946e+00,3.040e+00,2.696e+00,2.591e+00,1.833e+00,2.142e+00,2.034e+00,1.657e+00,2.724e+00,2.130e+00,3.097e+00,2.813e+00,1.715e+00,3.331e+00,1.453e+00,1.802e+00,2.940e+00,2.135e+00,1.667e+00,2.213e+00,3.069e+00,1.960e+00,1.524e+00,2.710e+00,2.001e+00,1.572e+00,2.322e+00,2.595e+00,2.203e+00,2.604e+00,2.590e+00,2.797e+00,1.748e+00,1.629e+00,2.907e+00,1.868e+00,2.632e+00,2.645e+00,2.579e+00,2.472e+00,2.261e+00,1.393e+00,1.839e+00,2.877e+00,2.693e+00,3.078e+00,1.997e+00,1.553e+00,1.506e+00,2.735e+00,2.603e+00,2.514e+00,3.172e+00,2.557e+00,2.156e+00,3.936e+00,2.383e+00,2.506e+00,2.772e+00,2.520e+00,2.885e+00,1.668e+00
1.235e-01,8.589e-01,8.407e-01,7.752e-01,1.668e+00,1.735e+00,1.630e+00,2.484e+00,2.532e+00,3.268e+00,2.933e+00,2.005e+00,3.267e+00,2.727e+00,3.347e+00,3.436e+00,1.708e+00,2.518e+00,2.619e+00,2.760e+00,3.163e+00,2.627e+00,1.874e+00,2.988e+00,2.277e+00,3.627e+00,1.485e+00,2.558e+00,2.478e+00,2.245e+00,2.436e+00,1.359e+00,4.008e+00,2.339e+00,2.574e+00,2.710e+00,3.136e+00,2.866e+00,3.100e+00,2.561e+00,2.325e+00,3.627e+00,3.176e+00,2.678e+00,2.490e+00,2.053e+00,2.474e+00,2.382e+00,2.539e+00,3.559e+00,2.441e+00,3.981e+00,2.691e+00,1.383e+00,2.933e+00,3.285e+00,2.353e+00,3.063e+00,2.401e+00,2.705e+00,1.251e+00,3.446e+00,2.490e+00,2.757e+00,2.744e+00,2.724e+00,2.744e+00,3.211e+00,2.589e+00,2.335e+00,3.302e+00,2.593e+00,2.840e+00,2.774e+00
1.248e-02,1.370e-01,3.086e-01,1.247e+00,1.200e+00,2.377e+00,1.522e+00,2.185e+00,2.299e+00,2.910e+00,3.624e+00,2.153e+00,2.495e+00,3.755e+00,3.928e+00,3.900e+00,1.930e+00,3.098e+00,2.682e+00,2.347e+00,3.546e+00,2.547e+00,2.985e+00,3.773e+00,2.661e+00,4.410e+00,2.047e+00,2.685e+00,3.539e+00,2.877e+00,2.168e+00,2.924e+00,3.982e+00,2.742e+00,2.412e+00,2.636e+00,2.493e+00,2.227e+00,3.687e+00,2.336e+00,2.695e+00,3.869e+00,3.509e+00,2.962e+00,2.939e+00,1.754e+00,3.218e+00,2.370e+00,2.565e+00,3.621e+00,3.399e+00,3.205e+00,2.715e+00,1.668e+00,3.051e+00,3.391e+00,2.704e+00,3.548e+00,3.254e+00,2.656e+00,2.103e+00,3.475e+00,2.698e+00,3.797e+00,3.594e+00,2.720e+00,2.905e+00,3.661e+00,2.976e+00,2.672e+00,3.630e+00,2.887e+00,3.324e+00,2.654e+00
5.086e-02,2.955e-01,3.448e-01,7.865e-01,1.080e+00,1.463e+00,1.422e+00,1.551e+00,2.333e+00,2.528e+00,2.916e+00,2.546e+00,2.861e+00,3.446e+00,3.598e+00,2.781e+00,1.971e+00,2.909e+00,2.797e+00,2.447e+00,2.732e+00,2.005e+00,2.770e+00,3.910e+00,2.208e+00,3.449e+00,2.387e+00,2.288e+00,2.932e+00,2.617e+00,1.797e+00,1.719e+00,3.423e+00,1.973e+00,2.234e+00,3.422e+00,2.937e+00,2.477e+00,3.590e+00,2.239e+00,2.272e+00,4.193e+00,3.356e+00,3.054e+00,2.534e+00,1.618e+00,2.741e+00,2.430e+00,3.125e+00,3.146e+00,3.472e+00,2.805e+00,2.608e+00,1.813e+00,2.374e+00,3.331e+00,2.915e+00,3.285e+00,2.398e+00,2.641e+00,2.330e+00,2.986e+00,2.546e+00,2.962e+00,3.311e+00,2.162e+00,2.573e+00,3.606e+00,2.419e+00,3.121e+00,2.969e+00,3.462e+00,2.809e+00,2.778e+00
8.171e-02,3.532e-01,3.607e-01,1.354e+00,1.187e+00,1.480e+00,1.497e+00,1.604e+00,1.556e+00,2.005e+00,2.378e+00,2.117e+00,3.174e+00,3.617e+00,3.589e+00,2.614e+00,2.672e+00,3.517e+00,3.060e+00,3.128e+00,3.919e+00,2.802e+00,3.191e+00,2.977e+00,2.664e+00,3.786e+00,2.521e+00,2.980e+00,2.822e+00,3.537e+00,2.366e+00,1.865e+00,3.680e+00,2.503e+00,2.389e+00,2.997e+00,3.263e+00,2.380e+00,3.458e+00,2.044e+00,2.226e+00,4.667e+00,3.371e+00,3.423e+00,3.077e+00,2.005e+00,2.496e+00,1.946e+00,2.954e+00,3.545e+00,3.742e+00,2.838e+00,2.807e+00,2.517e+00,2.238e+00,3.755e+00,3.256e+00,3.721e+00,3.424e+00,2.769e+00,3.115e+00,2.976e+00,2.162e+00,3.331e+00,2.531e+00,2.271e+00,3.027e+00,3.560e+00,2.368e+00,2.955e+00,3.385e+00,3.341e+00,2.398e+00,3.380e+00
1.745e-01,1.019e+00,9.706e-01,1.544e+00,1.819e+00,2.076e+00,1.768e+00,2.753e+00,2.833e+00,3.355e+00,3.613e+00,2.794e+00,3.914e+00,3.964e+00,4.414e+00,4.004e+00,3.311e+00,3.768e+00,3.139e+00,4.029e+00,4.554e+00,3.708e+00,4.585e+00,3.935e+00,2.722e+00,4.786e+00,2.950e+00,3.451e+00,3.733e+00,3.597e+00,2.853e+00,2.965e+00,4.964e+00,3.041e+00,2.700e+00,4.524e+00,3.512e+00,3.167e+00,5.030e+00,4.312e+00,3.864e+00,5.217e+00,4.557e+00,4.118e+00,3.128e+00,2.819e+00,3.975e+00,2.956e+00,3.939e+00,4.724e+00,4.333e+00,4.680e+00,4.405e+00,2.584e+00,3.977e+00,4.580e+00,4.290e+00,4.122e+00,4.165e+00,3.756e+00,2.689e+00,4.679e+00,3.509e+00,4.219e+00,3.968e+00,4.224e+00,4.043e+00,4.807e+00,4.218e+00,4.264e+00,4.940e+00,4.275e+00,3.483e+00,3.683e+00
1.613e-01,6.397e-01,4.671e-01,8.304e-01,1.619e+00,2.019e+00,1.695e+00,1.416e+00,2.405e+00,2.566e+00,2.935e+00,1.482e+00,2.720e+00,3.401e+00,4.743e+00,3.753e+00,2.966e+00,4.110e+00,2.837e+00,4.870e+00,4.688e+00,4.019e+00,3.987e+00,3.260e+00,2.633e+00,3.990e+00,3.635e+00,3.474e+00,3.582e+00,4.369e+00,2.866e+00,3.131e+00,4.018e+00,3.723e+00,3.044e+00,4.176e+00,3.500e+00,3.320e+00,4.964e+00,4.323e+00,3.872e+00,4.964e+00,4.199e+00,4.493e+00,2.771e+00,2.650e+00,3.947e+00,3.966e+00,3.705e+00,3.970e+00,4.066e+00,4.436e+00,4.760e+00,2.802e+00,4.348e+00,4.075e+00,3.753e+00,4.741e+00,4.970e+00,4.349e+00,2.593e+00,4.169e+00,2.665e+00,4.837e+00,2.444e+00,4.089e+00,4.499e+00,4.102e+00,3.997e+00,3.840e+00,5.797e+00,4.537e+00,3.062e+00,3.862e+00
3.416e-02,5.270e-01,5.477e-01,8.048e-01,1.667e+00,1.275e+00,1.106e+00,1.725e+00,1.494e+00,1.959e+00,1.815e+00,1.600e+00,2.449e+00,2.367e+00,2.991e+00,3.183e+00,2.679e+00,3.507e+00,2.983e+00,3.436e+00,3.597e+00,3.365e+00,2.651e+00,3.309e+00,2.298e+00,3.236e+00,2.860e+00,1.916e+00,2.434e+00,2.818e+00,1.436e+00,2.303e+00,4.197e+00,2.541e+00,4.073e+00,2.905e+00,3.005e+00,2.841e+00,3.523e+00,3.356e+00,2.741e+00,4.183e+00,3.949e+00,3.263e+00,2.407e+00,2.709e+00,3.209e+00,2.972e+00,4.072e+00,4.194e+00,3.401e+00,3.760e+00,3.355e+00,2.831e+00,3.088e+00,3.617e+00,2.870e+00,3.236e+00,3.260e+00,3.960e+00,2.648e+00,2.994e+00,3.110e+00,3.421e+00,2.594e+00,3.367e+00,3.634e+00,3.742e+00,3.355e+00,2.714e+00,3.559e+00,4.071e+00,3.173e+00,3.423e+00
1.548e-01,8.725e-01,7.953e-01,1.334e+00,1.900e+00,2.313e+00,1.970e+00,2.577e+00,2.731e+00,3.365e+00,3.723e+00,2.763e+00,4.352e+00,5.449e+00,5.414e+00,4.838e+00,4.994e+00,6.227e+00,4.847e+00,5.494e+00,6.623e+00,5.329e+00,5.997e+00,5.107e+00,4.568e+00,5.903e+00,4.832e+00,4.383e+00,5.127e+00,6.233e+00,3.861e+00,4.065e+00,7.180e+00,4.932e+00,4.277e+00,6.741e+00,4.781e+00,4.063e+00,6.267e+00,5.513e+00,5.352e+00,6.729e+00,6.062e+00,6.499e+00,4.797e+00,4.208e+00,5.137e+00,4.485e+00,5.947e+00,5.786e+00,6.599e+00,5.531e+00,5.788e+00,4.584e+00,5.059e+00,6.291e+00,5.716e+00,5.979e+00,5.894e+00,5.566e+00,4.853e+00,5.357e+00,5.066e+00,6.053e+00,4.454e+00,5.305e+00,6.135e+00,6.647e+00,5.305e+00,5.194e+00,6.545e+00,6.515e+00,5.320e+00,5.720e+00
1.014e-01,6.345e-01,5.572e-01,9.592e-01,1.955e+00,1.927e+00,1.445e+00,1.813e+00,1.795e+00,2.340e+00,2.507e+00,2.018e+00,3.619e+00,3.777e+00,4.435e+00,4.232e+00,3.384e+00,4.618e+00,4.236e+00,4.519e+00,5.142e+00,4.391e+00,4.255e+00,4.729e+00,3.607e+00,5.234e+00,4.111e+00,4.039e+00,3.534e+00,4.688e+00,2.787e+00,3.928e+00,5.728e+00,3.737e+00,5.028e+00,3.873e+00,4.089e+00,4.292e+00,5.120e+00,3.670e+00,4.049e+00,5.921e+00,5.892e+00,4.523e+00,3.505e+00,3.717e+00,3.846e+00,3.616e+00,4.710e+00,5.478e+00,5.435e+00,4.754e+00,5.414e+00,3.337e+00,4.072e+00,4.949e+00,4.146e+00,4.627e+00,4.801e+00,5.635e+00,3.803e+00,4.171e+00,3.499e+00,4.709e+00,3.068e+00,4.557e+00,4.740e+00,4.582e+00,4.295e+00,3.999e+00,4.890e+00,5.499e+00,4.929e+00,5.032e+00
1.843e-01,9.553e-01,8.920e-01,1.208e+00,1.768e+00,2.239e+00,1.744e+00,2.669e+00,2.942e+00,3.394e+00,3.420e+00,2.498e+00,3.741e+00,3.691e+00,4.809e+00,4.382e+00,3.707e+00,5.293e+00,4.060e+00,5.085e+00,6.297e+00,4.645e+00,4.509e+00,5.025e+00,4.650e+00,5.644e+00,4.159e+00,5.387e+00,4.857e+00,5.581e+00,3.910e+00,4.249e+00,7.157e+00,4.894e+00,4.468e+00,5.799e+00,4.955e+00,4.666e+00,5.022e+00,5.823e+00,5.601e+00,6.505e+00,6.683e+00,5.532e+00,4.507e+00,5.167e+00,4.922e+00,4.657e+00,5.451e+00,5.348e+00,6.311e+00,6.422e+00,5.611e+00,4.193e+00,4.666e+00,6.596e+00,4.804e+00,5.711e+00,5.247e+00,5.294e+00,3.738e+00,5.829e+00,4.868e+00,5.778e+00,4.175e+00,5.077e+00,5.950e+00,5.906e+00,4.342e+00,4.964e+00,6.884e+00,5.850e+00,5.094e+00,5.972e+00
7.386e-02,7.885e-01,7.893e-01,5.828e-01,1.575e+00,1.151e+00,1.278e+00,2.254e+00,2.116e+00,3.071e+00,2.970e+00,2.351e+00,3.787e+00,3.901e+00,4.620e+00,4.781e+00,3.797e+00,5.437e+00,4.558e+00,5.712e+00,7.244e+00,5.833e+00,5.130e+00,6.457e+00,6.013e+00,6.913e+00,4.877e+00,5.831e+00,4.249e+00,5.130e+00,4.316e+00,5.220e+00,7.909e+00,6.116e+00,5.980e+00,6.334e+00,6.217e+00,5.110e+00,5.840e+00,5.518e+00,6.709e+00,7.477e+00,7.322e+00,6.313e+00,5.334e+00,5.446e+00,4.848e+00,4.778e+00,6.134e+00,6.647e+00,7.132e+00,6.738e+00,6.236e+00,4.419e+00,5.787e+00,7.711e+00,5.837e+00,5.167e+00,5.775e+00,7.226e+00,4.229e+00,6.334e+00,5.874e+00,5.960e+00,4.759e+00,5.684e+00,7.623e+00,5.905e+00,4.970e+00,5.222e+00,6.421e+00,6.949e+00,5.020e+00,5.858e+00
1.374e-01,7.627e-01,7.844e-01,1.310e+00,1.554e+00,2.415e+00,1.331e+00,2.508e+00,2.567e+00,2.943e+00,3.182e+00,2.424e+00,3.623e+00,4.430e+00,4.981e+00,4.110e+00,3.626e+00,5.108e+00,3.894e+00,4.728e+00,6.685e+00,5.513e+00,6.338e+00,5.343e+00,4.694e+00,7.499e+00,4.874e+00,5.927e+00,4.515e+00,5.190e+00,4.963e+00,4.473e+00,6.248e+00,5.519e+00,4.488e+00,5.306e+00,6.327e+00,4.342e+00,4.850e+00,5.260e+00,6.019e+00,6.894e+00,6.184e+00,6.829e+00,3.976e+00,4.405e+00,5.425e+00,4.373e+00,5.515e+00,6.277e+00,6.509e+00,5.828e+00,5.677e+00,4.088e+00,5.137e+00,6.722e+00,5.578e+00,5.598e+00,5.473e+00,5.982e+00,3.638e+00,5.421e+00,4.216e+00,5.481e+00,4.098e+00,5.591e+00,5.517e+00,6.495e+00,4.378e+00,5.940e+00,6.847e+00,6.207e+00,5.463e+00,5.300e+00
2.356e-01,9.292e-01,8.236e-01,1.620e+00,1.575e+00,2.506e+00,1.786e+00,2.639e+00,2.987e+00,2.840e+00,3.457e+00,3.217e+00,3.614e+00,3.828e+00,4.406e+00,3.660e+00,3.401e+00,4.388e+00,3.626e+00,4.262e+00,4.926e+00,4.512e+00,5.686e+00,5.518e+00,4.169e+00,6.390e+00,4.873e+00,5.291e+00,5.670e+00,5.581e+00,3.519e+00,4.854e+00,5.908e+00,4.329e+00,4.373e+00,6.116e+00,5.321e+00,4.801e+00,5.111e+00,5.280e+00,5.294e+00,7.454e+00,6.651e+00,6.228e+00,4.590e+00,4.009e+00,6.121e+00,4.479e+00,6.401e+00,6.161e+00,6.899e+00,5.782e+00,5.219e+00,4.255e+00,4.815e+00,6.719e+00,5.966e+00,5.213e+00,5.504e+00,4.982e+00,4.758e+00,5.740e+00,4.828e+00,5.380e+00,5.349e+00,4.186e+00,5.378e+00,6.916e+00,4.158e+00,6.622e+00,5.834e+00,6.192e+00,5.000e+00,5.556e+00
1.413e-01,7.893e-01,7.212e-01,1.257e+00,1.952e+00,2.095e+00,1.856e+00,2.254e+00,2.332e+00,2.752e+00,2.990e+00,2.288e+00,3.684e+00,4.309e+00,4.521e+00,4.427e+00,3.846e+00,4.832e+00,4.336e+00,5.238e+00,6.780e+00,5.170e+00,6.423e+00,6.618e+00,5.997e+00,7.742e+00,6.509e+00,6.520e+00,5.556e+00,6.762e+00,4.417e+00,6.089e+00,7.787e+00,6.514e+00,5.306e+00,6.351e+00,5.917e+00,5.549e+00,6.349e+00,6.290e+00,6.535e+00,8.872e+00,8.105e+00,6.941e+00,5.204e+00,5.092e+00,6.910e+00,5.308e+00,6.784e+00,7.411e+00,8.295e+00,7.300e+00,7.054e+00,5.086e+00,5.923e+00,8.340e+00,6.283e+00,6.274e+00,6.933e+00,6.920e+00,5.170e+00,6.515e+00,6.139e+00,5.678e+00,5.150e+00,6.063e+00,6.991e+00,7.605e+00,4.844e+00,7.424e+00,7.148e+00,7.163e+00,5.957e+00,7.385e+00
3.233e-02,6.218e-01,6.571e-01,3.645e-01,1.765e+00,1.438e+00,1.115e+00,1.718e+00,2.204e+00,2.381e+00,2.495e+00,1.938e+00,2.696e+00,3.724e+00,3.998e+00,3.488e+00,2.937e+00,4.126e+00,4.221e+00,3.655e+00,5.966e+00,4.447e+00,5.592e+00,6.384e+00,5.998e+00,8.558e+00,6.667e+00,6.293e+00,6.036e+00,6.164e+00,4.527e+00,6.425e+00,7.758e+00,6.680e+00,6.036e+00,6.726e+00,6.174e+00,5.292e+00,5.287e+00,5.983e+00,6.815e+00,7.635e+00,7.911e+00,6.994e+00,5.162e+00,5.898e+00,6.312e+00,5.707e+00,6.947e+00,7.360e+00,8.282e+00,7.109e+00,7.424e+00,5.194e+00,4.800e+00,8.966e+00,5.731e+00,5.565e+00,6.567e+00,7.171e+00,4.639e+00,6.580e+00,5.841e+00,6.159e+00,5.721e+00,6.327e+00,6.902e+00,7.426e+00,4.204e+00,6.948e+00,6.458e+00,6.875e+00,6.937e+00,6.914e+00
1.384e-01,9.453e-01,8.655e-01,9.373e-01,1.766e+00,1.875e+00,1.224e+00,2.323e+00,2.344e+00,2.845e+00,3.029e+00,2.212e+00,3.363e+00,3.601e+00,3.967e+00,4.116e+00,3.901e+00,4.591e+00,3.633e+00,4.417e+00,5.775e+00,4.520e+00,5.989e+00,5.790e+00,6.031e+00,7.703e+00,6.425e+00,6.357e+00,6.351e+00,5.935e+00,4.962e+00,5.994e+00,8.185e+00,5.837e+00,5.434e+00,6.698e+00,5.120e+00,5.732e+00,5.943e+00,7.515e+00,6.509e+00,7.599e+00,7.755e+00,7.450e+00,5.335e+00,5.321e+00,6.561e+00,6.103e+00,6.946e+00,6.944e+00,8.234e+00,6.893e+00,7.596e+00,5.452e+00,6.251e+00,8.132e+00,5.588e+00,5.188e+00,6.322e+00,7.221e+00,4.468e+00,7.159e+00,6.693e+00,6.468e+00,5.506e+00,7.540e+00,6.164e+00,8.197e+00,5.286e+00,7.240e+00,7.571e+00,7.276e+00,6.565e+00,6.696e+00
8.168e-02,3.774e-01,4.132e-01,1.343e+00,1.423e+00,2.130e+00,1.432e+00,1.632e+00,1.721e+00,1.840e+00,2.182e+00,1.645e+00,2.642e+00,3.522e+00,3.683e+00,3.452e+00,2.774e+00,4.182e+00,3.291e+00,4.238e+00,5.764e+00,4.854e+00,5.936e+00,6.228e+00,6.230e+00,8.221e+00,6.479e+00,6.750e+00,6.132e+00,6.896e+00,5.121e+00,6.617e+00,7.469e+00,6.802e+00,6.070e+00,5.739e+00,7.348e+00,5.843e+00,5.585e+00,5.733e+00,6.224e+00,8.389e+00,7.256e+00,7.446e+00,6.084e+00,4.784e+00,6.714e+00,5.404e+00,7.275e+00,7.524e+00,7.978e+00,7.083e+00,7.636e+00,5.740e+00,5.179e+00,8.294e+00,6.591e+00,5.947e+00,5.904e+00,7.226e+00,5.505e+00,6.955e+00,6.152e+00,5.829e+00,5.398e+00,6.319e+00,6.820e+00,7.893e+00,4.641e+00,7.386e+00,6.788e+00,7.516e+00,6.167e+00,7.220e+00
1.672e-01,7.904e-01,7.340e-01,9.729e-01,1.109e+00,1.725e+00,1.506e+00,2.192e+00,2.478e+00,2.789e+00,3.230e+00,2.540e+00,3.467e+00,4.412e+00,4.438e+00,4.567e+00,3.790e+00,5.214e+00,3.875e+00,4.951e+00,5.984e+00,4.349e+00,5.587e+00,6.386e+00,6.169e+00,7.815e+00,6.365e+00,6.529e+00,7.267e+00,7.446e+00,4.883e+00,6.296e+00,9.477e+00,6.452e+00,5.983e+00,7.323e+00,6.544e+00,6.157e+00,7.398e+00,7.047e+00,6.178e+00,8.758e+00,8.713e+00,7.710e+00,7.083e+00,5.517e+00,6.650e+00,5.662e+00,7.816e+00,7.274e+00,8.944e+00,8.329e+00,8.210e+00,6.506e+00,5.555e+00,9.112e+00,7.160e+00,6.401e+00,7.257e+00,7.256e+00,6.603e+00,8.100e+00,6.601e+00,6.712e+00,7.363e+00,7.114e+00,8.271e+00,7.715e+00,5.575e+00,7.032e+00,7.736e+00,8.042e+00,6.130e+00,8.915e+00
8.222e-02,6.251e-01,6.755e-01,1.238e+00,1.997e+00,2.145e+00,1.727e+00,2.061e+00,2.405e+00,2.385e+00,2.672e+00,1.959e+00,2.613e+00,3.323e+00,3.910e+00,4.003e+00,2.474e+00,3.779e+00,3.569e+00,4.097e+00,5.298e+00,4.312e+00,5.138e+00,6.439e+00,6.200e+00,7.270e+00,6.414e+00,6.142e+00,7.241e+00,7.069e+00,5.244e+00,7.403e+00,8.140e+00,6.685e+00,7.224e+00,5.378e+00,6.874e+00,7.349e+00,7.159e+00,5.748e+00,6.122e+00,9.124e+00,9.019e+00,7.190e+00,6.200e+00,6.135e+00,6.387e+00,5.731e+00,6.760e+00,7.674e+00,8.307e+00,7.749e+00,8.077e+00,5.548e+00,6.166e+00,8.551e+00,6.733e+00,6.247e+00,7.317e+00,7.918e+00,5.511e+00,7.284e+00,6.401e+00,6.693e+00,6.442e+00,7.597e+00,7.211e+00,8.151e+00,5.125e+00,8.138e+00,7.253e+00,8.680e+00,6.608e+00,8.175e+00
1.198e-01,8.388e-01,8.091e-01,1.064e+00,1.563e+00,1.863e+00,1.181e+00,2.249e+00,2.223e+00,2.733e+00,3.084e+00,2.093e+00,3.240e+00,4.116e+00,4.318e+00,4.455e+00,4.151e+00,5.021e+00,3.621e+00,4.740e+00,6.087e+00,4.682e+00,5.949e+00,5.345e+00,5.390e+00,7.978e+00,6.053e+00,6.451e+00,7.694e+00,7.235e+00,5.912e+00,7.302e+00,8.317e+00,6.989e+00,6.524e+00,7.476e+00,5.776e+00,6.516e+00,6.866e+00,7.621e+00,7.236e+00,8.035e+00,8.605e+00,7.687e+00,6.536e+00,6.536e+00,7.169e+00,6.683e+00,7.850e+00,7.622e+00,8.731e+00,8.261e+00,9.193e+00,6.732e+00,6.605e+00,8.649e+00,6.935e+00,5.701e+00,7.990e+00,7.268e+00,5.597e+00,8.823e+00,6.885e+00,8.161e+00,7.277e+00,7.722e+00,8.440e+00,8.812e+00,6.200e+00,7.387e+00,8.765e+00,7.769e+00,6.988e+00,8.089e+00
3.638e-03,5.483e-01,6.225e-01,5.888e-01,1.957e+00,1.779e+00,1.313e+00,2.093e+00,2.094e+00,2.980e+00,2.644e+00,1.693e+00,3.365e+00,4.349e+00,4.526e+00,4.787e+00,4.232e+00,5.546e+00,4.688e+00,5.353e+00,6.911e+00,5.834e+00,5.266e+00,5.839e+00,5.713e+00,7.528e+00,5.912e+00,6.729e+00,6.927e+00,7.953e+00,6.262e+00,7.458e+00,8.969e+00,8.314e+00,7.811e+00,7.112e+00,7.543e+00,7.802e+00,7.314e+00,6.882e+00,8.177e+00,9.334e+00,1.057e+01,7.984e+00,7.036e+00,8.016e+00,7.848e+00,6.850e+00,8.311e+00,8.000e+00,8.865e+00,8.899e+00,9.353e+00,6.170e+00,7.978e+00,9.041e+00,7.749e+00,7.567e+00,8.531e+00,9.339e+00,6.334e+00,8.555e+00,8.121e+00,8.376e+00,6.416e+00,8.549e+00,1.022e+01,9.282e+00,6.891e+00,8.127e+00,9.408e+00,9.489e+00,7.351e+00,8.682e+00
1.216e-01,8.983e-01,9.859e-01,1.390e+00,1.527e+00,2.057e+00,1.326e+00,2.826e+00,2.304e+00,2.426e+00,2.890e+00,2.246e+00,2.602e+00,3.980e+00,4.027e+00,4.584e+00,3.331e+00,4.536e+00,3.492e+00,4.218e+00,5.973e+00,4.814e+00,6.035e+00,5.655e+00,5.389e+00,7.526e+00,5.913e+00,5.334e+00,5.731e+00,6.528e+00,5.682e+00,6.777e+00,9.231e+00,7.363e+00,6.136e+00,7.506e+00,6.865e+00,6.034e+00,6.227e+00,7.786e+00,6.501e+00,8.350e+00,8.504e+00,8.329e+00,6.721e+00,5.523e+00,7.378e+00,5.857e+00,7.915e+00,8.318e+00,8.309e+00,8.032e+00,7.448e+00,6.147e+00,7.352e+00,8.951e+00,5.862e+00,5.935e+00,7.608e+00,8.094e+00,5.206e+00,8.000e+00,7.593e+00,6.556e+00,6.565e+00,7.029e+00,8.042e+00,8.443e+00,6.446e+00,7.633e+00,8.466e+00,7.416e+00,6.454e+00,7.485e+00
5.558e-02,2.364e-01,3.083e-01,9.172e-01,7.410e-01,1.767e+00,1.171e+00,2.065e+00,1.611e+00,2.334e+00,2.521e+00,1.915e+00,2.373e+00,2.949e+00,2.837e+00,3.134e+00,2.846e+00,3.853e+00,3.169e+00,3.074e+00,4.385e+00,4.252e+00,3.948e+00,4.819e+00,5.243e+00,5.715e+00,5.472e+00,6.001e+00,6.551e+00,6.790e+00,5.098e+00,7.105e+00,9.017e+00,7.090e+00,6.790e+00,7.090e+00,7.201e+00,7.016e+00,6.595e+00,7.219e+00,6.408e+00,8.140e+00,8.605e+00,7.362e+00,6.630e+00,6.248e+00,6.079e+00,5.967e+00,7.430e+00,6.643e+00,8.332e+00,8.551e+00,7.581e+00,6.650e+00,7.870e+00,8.064e+00,6.936e+00,6.117e+00,7.416e+00,7.809e+00,5.085e+00,8.427e+00,8.090e+00,6.970e+00,6.652e+00,7.846e+00,8.455e+00,8.107e+00,6.527e+00,7.108e+00,8.160e+00,8.558e+00,7.153e+00,8.330e+00
1.687e-01,9.510e-01,8.435e-01,1.185e+00,1.855e+00,2.073e+00,1.525e+00,2.239e+00,2.185e+00,2.789e+00,3.067e+00,2.336e+00,4.104e+00,4.124e+00,4.945e+00,4.933e+00,3.734e+00,5.354e+00,4.238e+00,5.148e+00,6.682e+00,5.031e+00,6.069e+00,6.373e+00,5.854e+00,7.876e+00,6.653e+00,6.742e+00,6.962e+00,7.763e+00,6.540e+00,7.314e+00,1.006e+01,8.221e+00,8.423e+00,7.814e+00,7.927e+00,8.151e+00,8.447e+00,8.405e+00,8.006e+00,9.641e+00,1.035e+01,9.380e+00,7.383e+00,8.003e+00,7.205e+00,7.245e+00,7.949e+00,8.805e+00,9.576e+00,8.599e+00,9.910e+00,6.983e+00,8.276e+00,9.931e+00,7.030e+00,7.483e+00,7.988e+00,1.033e+01,6.317e+00,9.586e+00,7.981e+00,8.123e+00,6.826e+00,9.314e+00,9.092e+00,1.028e+01,7.939e+00,9.004e+00,1.047e+01,9.342e+00,7.828e+00,8.991e+00
2.059e-01,9.490e-01,7.639e-01,1.085e+00,1.536e+00,1.753e+00,1.644e+00,2.089e+00,1.866e+00,2.269e+00,2.436e+00,1.581e+00,2.928e+00,2.934e+00,3.143e+00,3.222e+00,2.925e+00,3.633e+00,3.206e+00,3.934e+00,4.884e+00,3.951e+00,3.684e+00,3.480e+00,4.733e+00,5.237e+00,4.287e+00,4.976e+00,5.535e+00,5.938e+00,4.473e+00,4.888e+00,7.029e+00,6.337e+00,7.165e+00,6.188e+00,6.108e+00,6.675e+00,6.224e+00,6.314e+00,6.031e+00,6.443e+00,7.561e+00,7.003e+00,6.639e+00,6.333e+00,4.701e+00,5.448e+00,5.630e+00,6.770e+00,6.709e+00,7.370e+00,7.724e+00,5.918e+00,6.015e+00,8.725e+00,6.423e+00,6.068e+00,7.398e+00,7.066e+00,5.206e+00,7.651e+00,5.991e+00,6.781e+00,5.483e+00,6.306e+00,8.045e+00,8.077e+00,6.344e+00,5.900e+00,7.637e+00,6.700e+00,6.005e+00,7.467e+00
2.388e-01,1.327e+00,1.210e+00,1.403e+00,2.465e+00,2.593e+00,2.368e+00,3.193e+00,3.910e+00,3.788e+00,4.436e+00,3.242e+00,3.902e+00,5.046e+00,5.590e+00,5.078e+00,3.769e+00,4.623e+00,4.693e+00,5.677e+00,6.870e+00,5.277e+00,6.790e+00,7.082e+00,6.872e+00,8.922e+00,7.298e+00,8.031e+00,7.257e+00,8.278e+00,6.531e+00,7.950e+00,9.598e+00,9.287e+00,7.992e+00,9.836e+00,8.810e+00,8.237e+00,9.946e+00,9.465e+00,9.906e+00,1.068e+01,1.180e+01,1.120e+01,7.459e+00,7.911e+00,8.576e+00,7.620e+00,9.638e+00,9.732e+00,1.078e+01,1.082e+01,1.083e+01,7.278e+00,9.890e+00,1.238e+01,8.883e+00,9.325e+00,1.023e+01,1.006e+01,6.912e+00,1.078e+01,9.229e+00,7.962e+00,9.398e+00,8.774e+00,1.058e+01,1.066e+01,7.562e+00,9.711e+00,1.084e+01,1.078e+01,7.873e+00,9.939e+00
1.496e-01,9.449e-01,8.771e-01,1.346e+00,2.052e+00,1.912e+00,1.520e+00,2.404e+00,2.326e+00,2.609e+00,3.082e+00,2.671e+00,3.758e+00,4.016e+00,4.779e+00,3.894e+00,3.352e+00,4.482e+00,4.358e+00,4.760e+00,6.634e+00,5.407e+00,6.028e+00,5.965e+00,6.032e+00,8.520e+00,6.846e+00,7.508e+00,6.562e+00,6.372e+00,6.096e+00,7.364e+00,8.825e+00,8.894e+00,8.892e+00,7.877e+00,1.042e+01,9.173e+00,9.188e+00,8.071e+00,9.549e+00,1.196e+01,1.207e+01,1.064e+01,8.521e+00,9.173e+00,8.204e+00,7.505e+00,9.229e+00,1.065e+01,1.058e+01,1.129e+01,9.451e+00,7.014e+00,9.582e+00,1.240e+01,9.382e+00,9.136e+00,1.034e+01,1.074e+01,8.518e+00,1.067e+01,9.291e+00,7.940e+00,8.668e+00,8.643e+00,1.087e+01,1.020e+01,7.195e+00,1.101e+01,9.624e+00,1.043e+01,8.099e+00,9.333e+00
1.678e-02,5.606e-01,7.514e-01,1.509e+00,1.830e+00,2.357e+00,1.405e+00,2.555e+00,2.430e+00,3.189e+00,3.609e+00,2.343e+00,3.750e+00,5.481e+00,5.371e+00,5.184e+00,3.751e+00,5.060e+00,4.123e+00,4.987e+00,7.501e+00,5.516e+00,7.227e+00,6.902e+00,6.451e+00,1.014e+01,6.785e+00,7.784e+00,7.696e+00,7.771e+00,7.458e+00,9.030e+00,9.756e+00,1.091e+01,8.108e+00,8.493e+00,1.046e+01,9.083e+00,1.033e+01,9.817e+00,1.109e+01,1.240e+01,1.243e+01,1.200e+01,9.254e+00,9.340e+00,9.692e+00,8.745e+00,9.711e+00,1.205e+01,1.045e+01,1.144e+01,1.168e+01,7.221e+00,1.145e+01,1.359e+01,9.940e+00,9.591e+00,1.062e+01,1.189e+01,7.941e+00,1.203e+01,1.141e+01,9.255e+00,9.945e+00,1.072e+01,1.224e+01,1.288e+01,8.863e+00,1.233e+01,1.228e+01,1.132e+01,9.503e+00,1.121e+01
1.444e-01,9.616e-01,9.727e-01,1.631e+00,2.374e+00,2.899e+00,1.924e+00,2.947e+00,2.644e+00,3.101e+00,3.256e+00,1.971e+00,3.399e+00,3.925e+00,4.279e+00,4.860e+00,3.619e+00,4.795e+00,4.101e+00,4.829e+00,6.841e+00,5.634e+00,6.439e+00,6.523e+00,6.801e+00,8.425e+00,6.323e+00,7.307e+00,7.354e+00,8.309e+00,6.386e+00,9.155e+00,1.035e+01,9.985e+00,7.584e+00,8.984e+00,8.885e+00,8.731e+00,9.933e+00,9.925e+00,1.129e+01,1.126e+01,1.136e+01,1.071e+01,8.885e+00,9.666e+00,9.867e+00,7.759e+00,1.020e+01,1.092e+01,1.030e+01,1.093e+01,1.066e+01,6.759e+00,1.043e+01,1.225e+01,8.369e+00,9.040e+00,9.558e+00,1.071e+01,8.030e+00,1.051e+01,1.129e+01,8.508e+00,9.073e+00,9.716e+00,1.103e+01,1.161e+01,8.749e+00,1.094e+01,1.011e+01,1.106e+01,9.047e+00,1.064e+01
1.973e-01,8.208e-01,7.246e-01,1.529e+00,1.807e+00,2.660e+00,2.100e+00,2.748e+00,3.206e+00,3.821e+00,4.291e+00,3.474e+00,4.929e+00,5.253e+00,6.111e+00,4.688e+00,4.812e+00,6.669e+00,5.257e+00,5.966e+00,7.864e+00,6.608e+00,7.147e+00,7.084e+00,7.204e+00,9.340e+00,7.027e+00,8.765e+00,8.157e+00,8.932e+00,8.098e+00,8.311e+00,1.071e+01,1.062e+01,9.962e+00,1.082e+01,1.184e+01,1.113e+01,1.157e+01,1.041e+01,1.229e+01,1.357e+01,1.387e+01,1.302e+01,1.116e+01,1.165e+01,1.023e+01,9.612e+00,1.190e+01,1.200e+01,1.266e+01,1.284e+01,1.215e+01,9.050e+00,1.288e+01,1.433e+01,1.157e+01,1.176e+01,1.188e+01,1.304e+01,9.429e+00,1.344e+01,1.175e+01,1.203e+01,9.997e+00,1.111e+01,1.423e+01,1.399e+01,1.028e+01,1.366e+01,1.374e+01,1.327e+01,1.182e+01,1.221e+01
1.498e-01,7.478e-01,6.344e-01,8.223e-01,1.471e+00,1.859e+00,1.178e+00,2.004e+00,1.760e+00,2.220e+00,2.693e+00,1.898e+00,2.911e+00,3.185e+00,3.852e+00,3.641e+00,3.040e+00,4.034e+00,3.355e+00,3.526e+00,5.029e+00,4.606e+00,5.473e+00,4.952e+00,5.161e+00,7.613e+00,5.855e+00,6.200e+00,6.537e+00,6.846e+00,6.445e+00,8.105e+00,8.457e+00,9.706e+00,8.461e+00,8.442e+00,9.024e+00,9.264e+00,9.963e+00,9.573e+00,1.059e+01,1.163e+01,1.226e+01,1.147e+01,7.597e+00,1.031e+01,9.290e+00,7.962e+00,9.425e+00,1.126e+01,1.093e+01,1.108e+01,1.048e+01,7.846e+00,1.207e+01,1.108e+01,8.259e+00,8.892e+00,1.092e+01,1.070e+01,8.059e+00,1.166e+01,1.022e+01,9.279e+00,8.928e+00,1.023e+01,1.144e+01,1.097e+01,8.566e+00,1.187e+01,1.085e+01,1.103e+01,9.526e+00,1.021e+01
5.684e-03,2.318e-02,2.950e-02,5.231e-01,7.306e-01,8.897e-01,7.036e-01,6.713e-01,1.173e+00,1.365e+00,1.806e+00,1.417e+00,1.530e+00,1.988e+00,2.611e+00,1.781e+00,2.393e+00,3.122e+00,2.493e+00,2.571e+00,3.756e+00,2.848e+00,3.431e+00,3.712e+00,3.872e+00,4.373e+00,4.756e+00,5.047e+00,5.417e+00,5.427e+00,4.113e+00,5.789e+00,6.030e+00,6.317e+00,6.864e+00,5.312e+00,6.048e+00,6.700e+00,7.324e+00,5.682e+00,8.293e+00,7.913e+00,9.362e+00,6.961e+00,6.486e+00,8.143e+00,5.650e+00,5.998e+00,7.403e+00,6.979e+00,8.038e+00,7.671e+00,8.189e+00,6.741e+00,8.074e+00,8.619e+00,7.980e+00,7.320e+00,8.672e+00,8.824e+00,6.250e+00,7.816e+00,7.801e+00,8.522e+00,7.030e+00,7.989e+00,8.919e+00,8.903e+00,6.814e+00,7.947e+00,8.489e+00,8.808e+00,7.908e+00,8.398e+00
1.343e-01,8.128e-01,7.788e-01,9.031e-01,1.263e+00,1.587e+00,1.294e+00,2.333e+00,2.304e+00,2.830e+00,3.141e+00,2.557e+00,3.589e+00,4.621e+00,4.714e+00,4.728e+00,4.287e+00,5.528e+00,4.129e+00,5.625e+00,6.917e+00,5.803e+00,6.778e+00,6.759e+00,6.814e+00,8.834e+00,7.170e+00,7.638e+00,6.934e+00,7.507e+00,6.578e+00,7.263e+00,9.404e+00,9.634e+00,8.241e+00,8.984e+00,9.907e+00,9.143e+00,1.075e+01,1.107e+01,1.090e+01,1.351e+01,1.341e+01,1.245e+01,1.033e+01,1.025e+01,1.062e+01,8.899e+00,1.082e+01,1.243e+01,1.234e+01,1.139e+01,1.252e+01,8.190e+00,1.172e+01,1.451e+01,1.003e+01,9.419e+00,1.131e+01,1.289e+01,9.585e+00,1.215e+01,1.174e+01,1.025e+01,1.075e+01,1.237e+01,1.272e+01,1.273e+01,9.748e+00,1.236e+01,1.258e+01,1.295e+01,8.460e+00,1.234e+01
3.640e-02,3.306e-01,4.617e-01,1.521e+00,1.962e+00,2.842e+00,2.174e+00,2.617e+00,2.814e+00,3.620e+00,3.864e+00,2.717e+00,4.045e+00,5.191e+00,4.968e+00,4.917e+00,4.228e+00,5.766e+00,4.799e+00,4.827e+00,6.751e+00,5.094e+00,6.005e+00,7.071e+00,6.742e+00,8.356e+00,6.612e+00,7.198e+00,8.528e+00,9.107e+00,6.674e+00,8.140e+00,1.052e+01,9.231e+00,8.233e+00,8.782e+00,8.993e+00,8.755e+00,1.078e+01,8.619e+00,1.069e+01,1.279e+01,1.337e+01,1.257e+01,1.019e+01,1.079e+01,1.007e+01,9.933e+00,1.180e+01,1.206e+01,1.296e+01,1.173e+01,1.097e+01,9.098e+00,1.251e+01,1.238e+01,1.068e+01,1.098e+01,1.108e+01,1.150e+01,1.054e+01,1.169e+01,1.236e+01,1.088e+01,1.044e+01,1.129e+01,1.233e+01,1.367e+01,9.544e+00,1.248e+01,1.279e+01,1.375e+01,1.178e+01,1.280e+01
1.738e-03,4.747e-01,6.361e-01,1.070e+00,1.968e+00,2.309e+00,1.450e+00,2.426e+00,2.245e+00,2.734e+00,2.778e+00,1.636e+00,2.410e+00,3.754e+00,3.555e+00,4.413e+00,3.302e+00,4.076e+00,3.563e+00,3.639e+00,5.133e+00,4.012e+00,4.584e+00,4.886e+00,4.379e+00,6.267e+00,5.281e+00,5.456e+00,6.846e+00,6.897e+00,5.889e+00,7.627e+00,8.488e+00,9.857e+00,8.560e+00,7.586e+00,8.231e+00,9.359e+00,1.051e+01,9.458e+00,1.082e+01,1.120e+01,1.339e+01,1.130e+01,1.105e+01,1.257e+01,1.064e+01,9.976e+00,1.115e+01,1.260e+01,1.231e+01,1.314e+01,1.225e+01,8.809e+00,1.272e+01,1.210e+01,1.018e+01,1.009e+01,1.251e+01,1.207e+01,9.887e+00,1.206e+01,1.286e+01,1.078e+01,1.109e+01,1.264e+01,1.373e+01,1.279e+01,1.031e+01,1.249e+01,1.322e+01,1.270e+01,1.116e+01,1.313e+01
9.254e-02,7.976e-01,8.776e-01,1.274e+00,1.642e+00,2.138e+00,1.060e+00,2.477e+00,2.306e+00,2.530e+00,3.010e+00,2.392e+00,3.095e+00,4.187e+00,4.587e+00,4.570e+00,3.844e+00,5.329e+00,3.883e+00,4.627e+00,6.418e+00,5.504e+00,6.662e+00,6.101e+00,5.373e+00,8.085e+00,5.911e+00,5.704e+00,7.224e+00,7.159e+00,5.725e+00,8.082e+00,9.122e+00,9.141e+00,8.087e+00,9.160e+00,8.701e+00,7.993e+00,9.946e+00,1.015e+01,1.151e+01,1.165e+01,1.249e+01,1.309e+01,9.994e+00,1.258e+01,1.025e+01,1.053e+01,1.151e+01,1.431e+01,1.329e+01,1.092e+01,1.247e+01,8.614e+00,1.272e+01,1.367e+01,1.058e+01,1.034e+01,1.238e+01,1.301e+01,1.103e+01,1.228e+01,1.322e+01,1.167e+01,1.126e+01,1.272e+01,1.268e+01,1.275e+01,1.060e+01,1.235e+01,1.280e+01,1.368e+01,1.063e+01,1.143e+01
1.655e-01,8.131e-01,7.493e-01,1.067e+00,1.535e+00,2.009e+00,1.453e+00,2.089e+00,2.104e+00,2.305e+00,2.545e+00,1.578e+00,2.670e+00,3.070e+00,4.177e+00,4.172e+00,2.607e+00,4.291e+00,3.406e+00,4.883e+00,6.448e+00,4.946e+00,4.961e+00,5.382e+00,5.385e+00,6.689e+00,5.878e+00,6.717e+00,6.281e+00,6.942e+00,6.072e+00,7.244e+00,8.235e+00,8.690e+00,8.243e+00,7.000e+00,8.895e+00,8.187e+00,9.370e+00,9.405e+00,9.870e+00,1.112e+01,1.199e+01,1.063e+01,8.485e+00,1.115e+01,8.670e+00,8.753e+00,9.982e+00,1.107e+01,1.118e+01,1.146e+01,1.112e+01,9.484e+00,1.156e+01,1.261e+01,9.806e+00,9.621e+00,1.078e+01,1.215e+01,8.452e+00,1.225e+01,9.818e+00,9.992e+00,9.145e+00,1.061e+01,1.314e+01,1.158e+01,9.515e+00,1.125e+01,1.244e+01,1.173e+01,9.657e+00,1.190e+01
1.063e-01,4.294e-01,3.418e-01,5.505e-01,9.256e-01,1.108e+00,1.227e+00,1.196e+00,1.805e+00,2.122e+00,2.406e+00,1.739e+00,2.586e+00,3.136e+00,4.140e+00,3.213e+00,2.773e+00,4.056e+00,3.030e+00,4.905e+00,5.609e+00,4.814e+00,5.090e+00,5.479e+00,5.444e+00,6.935e+00,6.350e+00,6.803e+00,5.361e+00,6.385e+00,5.250e+00,6.273e+00,6.933e+00,8.093e+00,6.742e+00,7.260e+00,8.444e+00,7.149e+00,8.258e+00,9.070e+00,9.962e+00,1.175e+01,1.111e+01,9.841e+00,8.210e+00,1.054e+01,9.601e+00,9.438e+00,1.024e+01,1.199e+01,1.158e+01,1.181e+01,1.220e+01,9.197e+00,1.267e+01,1.377e+01,1.073e+01,1.019e+01,1.155e+01,1.323e+01,8.932e+00,1.303e+01,1.192e+01,1.034e+01,1.059e+01,1.038e+01,1.279e+01,1.190e+01,9.525e+00,1.121e+01,1.189e+01,1.254e+01,8.706e+00,1.118e+01
1.977e-01,1.109e+00,1.021e+00,1.355e+00,1.990e+00,2.070e+00,1.610e+00,2.417e+00,2.883e+00,2.589e+00,3.321e+00,2.559e+00,3.043e+00,3.925e+00,5.116e+00,3.984e+00,3.722e+00,5.227e+00,4.170e+00,4.673e+00,6.406e+00,4.560e+00,5.624e+00,4.833e+00,5.146e+00,6.545e+00,6.325e+00,6.369e+00,7.007e+00,7.346e+00,6.081e+00,7.028e+00,9.064e+00,8.638e+00,7.654e+00,8.908e+00,8.775e+00,8.135e+00,1.049e+01,9.621e+00,1.143e+01,1.259e+01,1.439e+01,1.252e+01,1.108e+01,1.287e+01,9.967e+00,1.171e+01,1.234e+01,1.279e+01,1.478e+01,1.380e+01,1.270e+01,1.002e+01,1.428e+01,1.566e+01,1.244e+01,1.286e+01,1.359e+01,1.348e+01,1.261e+01,1.459e+01,1.384e+01,1.296e+01,1.209e+01,1.280e+01,1.436e+01,1.444e+01,1.030e+01,1.444e+01,1.418e+01,1.514e+01,1.099e+01,1.325e+01
2.396e-01,1.068e+00,9.447e-01,1.781e+00,1.908e+00,2.601e+00,1.829e+00,2.528e+00,2.922e+00,2.920e+00,3.480e+00,2.809e+00,4.039e+00,4.515e+00,5.222e+00,4.432e+00,4.224e+00,5.475e+00,4.020e+00,5.557e+00,6.645e+00,5.318e+00,7.058e+00,6.044e+00,5.943e+00,7.413e+00,6.676e+00,7.320e+00,7.060e+00,7.918e+00,6.966e+00,7.244e+00,9.613e+00,8.990e+00,8.166e+00,9.021e+00,1.004e+01,9.736e+00,1.085e+01,1.004e+01,1.061e+01,1.311e+01,1.384e+01,1.234e+01,9.612e+00,1.096e+01,1.007e+01,1.008e+01,1.154e+01,1.240e+01,1.340e+01,1.308e+01,1.250e+01,9.071e+00,1.329e+01,1.451e+01,1.290e+01,1.325e+01,1.252e+01,1.334e+01,1.123e+01,1.418e+01,1.303e+01,1.082e+01,1.101e+01,1.302e+01,1.285e+01,1.417e+01,1.078e+01,1.485e+01,1.410e+01,1.548e+01,1.017e+01,1.227e+01
6.902e-02,3.907e-01,4.936e-01,1.520e+00,1.466e+00,2.377e+00,1.830e+00,2.308e+00,2.412e+00,2.893e+00,3.239e+00,2.470e+00,3.516e+00,4.795e+00,4.425e+00,4.180e+00,3.936e+00,5.501e+00,4.384e+00,4.792e+00,6.830e+00,5.148e+00,6.033e+00,6.500e+00,6.794e+00,7.418e+00,6.139e+00,6.444e+00,7.573e+00,7.773e+00,6.480e+00,6.907e+00,9.562e+00,7.683e+00,8.551e+00,8.285e+00,9.620e+00,9.168e+00,1.033e+01,8.914e+00,9.872e+00,1.351e+01,1.337e+01,1.187e+01,1.003e+01,1.150e+01,9.594e+00,1.025e+01,1.246e+01,1.395e+01,1.408e+01,1.226e+01,1.270e+01,1.083e+01,1.353e+01,1.487e+01,1.273e+01,1.320e+01,1.391e+01,1.313e+01,1.133e+01,1.412e+01,1.339e+01,1.256e+01,1.267e+01,1.228e+01,1.385e+01,1.465e+01,1.172e+01,1.423e+01,1.426e+01,1.598e+01,1.238e+01,1.421e+01
2.268e-01,1.337e+00,1.137e+00,9.963e-01,2.193e+00,2.148e+00,1.660e+00,2.872e+00,2.898e+00,3.711e+00,4.071e+00,2.937e+00,4.959e+00,5.195e+00,6.130e+00,5.678e+00,4.362e+00,5.773e+00,5.326e+00,6.751e+00,8.523e+00,6.778e+00,7.247e+00,7.524e+00,7.215e+00,9.797e+00,7.888e+00,9.430e+00,7.963e+00,8.947e+00,8.263e+00,9.166e+00,1.091e+01,1.028e+01,9.845e+00,9.281e+00,1.027e+01,1.045e+01,1.186e+01,1.087e+01,1.239e+01,1.550e+01,1.617e+01,1.501e+01,1.191e+01,1.461e+01,1.164e+01,1.371e+01,1.448e+01,1.626e+01,1.792e+01,1.500e+01,1.696e+01,1.259e+01,1.801e+01,1.861e+01,1.484e+01,1.515e+01,1.729e+01,1.834e+01,1.367e+01,1.774e+01,1.633e+01,1.491e+01,1.522e+01,1.658e+01,1.632e+01,1.712e+01,1.303e+01,1.628e+01,1.776e+01,1.877e+01,1.375e+01,1.513e+01
4.742e-02,5.744e-01,5.957e-01,9.930e-01,1.931e+00,1.728e+00,1.177e+00,1.498e+00,1.882e+00,2.052e+00,2.200e+00,1.506e+00,2.685e+00,3.365e+00,4.441e+00,3.989e+00,3.400e+00,4.910e+00,3.835e+00,5.365e+00,7.186e+00,5.435e+00,6.264e+00,6.276e+00,5.543e+00,7.725e+00,7.317e+00,6.826e+00,6.281e+00,7.385e+00,5.445e+00,7.983e+00,9.290e+00,8.764e+00,8.008e+00,8.243e+00,8.534e+00,6.743e+00,9.060e+00,9.231e+00,1.115e+01,1.026e+01,1.094e+01,1.058e+01,8.301e+00,1.092e+01,9.416e+00,9.838e+00,1.132e+01,1.203e+01,1.270e+01,1.310e+01,1.362e+01,1.069e+01,1.278e+01,1.488e+01,1.196e+01,1.244e+01,1.282e+01,1.475e+01,1.090e+01,1.341e+01,1.208e+01,1.093e+01,1.153e+01,1.195e+01,1.374e+01,1.334e+01,1.173e+01,1.270e+01,1.363e+01,1.468e+01,1.146e+01,1.250e+01
2.272e-01,1.096e+00,8.882e-01,1.400e+00,2.103e+00,2.208e+00,1.604e+00,2.381e+00,2.644e+00,2.808e+00,3.511e+00,2.766e+00,3.799e+00,3.660e+00,4.777e+00,3.474e+00,3.724e+00,4.504e+00,4.146e+00,4.203e+00,5.718e+00,4.354e+00,5.514e+00,4.802e+00,4.642e+00,6.791e+00,5.498e+00,6.315e+00,6.483e+00,6.471e+00,5.226e+00,7.080e+00,7.666e+00,7.250e+00,7.130e+00,7.117e+00,7.233e+00,7.904e+00,9.409e+00,7.896e+00,9.488e+00,1.172e+01,1.195e+01,1.081e+01,8.020e+00,1.090e+01,8.458e+00,9.383e+00,1.080e+01,1.161e+01,1.332e+01,1.168e+01,1.205e+01,1.037e+01,1.308e+01,1.301e+01,1.202e+01,1.227e+01,1.332e+01,1.156e+01,1.111e+01,1.331e+01,1.240e+01,1.137e+01,1.169e+01,1.213e+01,1.283e+01,1.309e+01,9.944e+00,1.332e+01,1.313e+01,1.449e+01,1.086e+01,1.206e+01
7.101e-02,4.367e-01,4.102e-01,4.330e-01,1.133e+00,1.302e+00,1.270e+00,1.728e+00,2.220e+00,2.933e+00,2.839e+00,2.286e+00,3.310e+00,3.443e+00,4.155e+00,3.850e+00,3.728e+00,5.160e+00,3.843e+00,4.814e+00,5.519e+00,4.381e+00,4.067e+00,5.434e+00,5.545e+00,6.380e+00,5.832e+00,6.730e+00,6.963e+00,7.109e+00,6.377e+00,6.476e+00,9.211e+00,8.773e+00,9.037e+00,8.913e+00,9.666e+00,1.026e+01,1.033e+01,9.935e+00,1.032e+01,1.244e+01,1.415e+01,1.176e+01,1.041e+01,1.244e+01,9.927e+00,1.177e+01,1.226e+01,1.274e+01,1.420e+01,1.518e+01,1.431e+01,1.189e+01,1.728e+01,1.669e+01,1.453e+01,1.471e+01,1.545e+01,1.600e+01,1.333e+01,1.810e+01,1.539e+01,1.351e+01,1.347e+01,1.535e+01,1.741e+01,1.521e+01,1.311e+01,1.627e+01,1.743e+01,1.816e+01,1.288e+01,1.610e+01
1.101e-01,7.172e-01,7.622e-01,1.252e+00,1.425e+00,1.871e+00,1.116e+00,2.392e+00,1.831e+00,2.174e+00,2.421e+00,2.113e+00,2.966e+00,3.688e+00,4.132e+00,3.724e+00,3.767e+00,5.346e+00,4.338e+00,4.443e+00,6.878e+00,5.549e+00,5.770e+00,5.427e+00,5.803e+00,7.275e+00,6.094e+00,6.696e+00,6.928e+00,8.119e+00,6.656e+00,8.132e+00,9.603e+00,9.090e+00,8.753e+00,8.281e+00,8.752e+00,8.555e+00,8.615e+00,9.165e+00,1.021e+01,1.166e+01,1.250e+01,1.082e+01,9.445e+00,1.237e+01,8.716e+00,9.003e+00,1.112e+01,1.244e+01,1.270e+01,1.206e+01,1.241e+01,1.091e+01,1.326e+01,1.495e+01,1.187e+01,1.123e+01,1.492e+01,1.388e+01,1.007e+01,1.455e+01,1.264e+01,1.229e+01,1.220e+01,1.315e+01,1.374e+01,1.409e+01,1.125e+01,1.377e+01,1.444e+01,1.486e+01,1.181e+01,1.411e+01
9.464e-02,5.566e-01,5.155e-01,1.040e+00,1.908e+00,2.200e+00,1.979e+00,2.048e+00,2.947e+00,3.331e+00,4.061e+00,2.987e+00,3.869e+00,4.798e+00,5.446e+00,4.836e+00,3.401e+00,4.898e+00,4.635e+00,5.072e+00,6.347e+00,4.528e+00,5.628e+00,7.412e+00,5.917e+00,8.307e+00,7.198e+00,7.185e+00,7.953e+00,7.783e+00,5.320e+00,8.125e+00,9.468e+00,9.466e+00,8.726e+00,9.154e+00,9.196e+00,9.639e+00,1.041e+01,9.961e+00,1.054e+01,1.366e+01,1.440e+01,1.250e+01,1.139e+01,1.245e+01,1.133e+01,1.276e+01,1.246e+01,1.518e+01,1.575e+01,1.489e+01,1.509e+01,1.196e+01,1.682e+01,1.809e+01,1.518e+01,1.590e+01,1.765e+01,1.582e+01,1.476e+01,1.870e+01,1.794e+01,1.491e+01,1.538e+01,1.653e+01,1.627e+01,1.753e+01,1.348e+01,1.800e+01,1.758e+01,1.849e+01,1.309e+01,1.630e+01
1.947e-01,1.263e+00,1.267e+00,2.114e+00,2.515e+00,2.815e+00,1.839e+00,3.166e+00,2.778e+00,2.571e+00,3.368e+00,2.398e+00,3.046e+00,4.063e+00,4.540e+00,4.292e+00,3.341e+00,4.365e+00,4.023e+00,3.978e+00,6.397e+00,4.746e+00,6.475e+00,5.191e+00,5.462e+00,7.007e+00,5.749e+00,5.628e+00,6.334e+00,6.779e+00,5.708e+00,7.527e+00,8.744e+00,8.334e+00,7.653e+00,7.767e+00,8.483e+00,7.824e+00,1.002e+01,8.919e+00,1.053e+01,1.116e+01,1.229e+01,1.164e+01,9.166e+00,1.242e+01,9.075e+00,8.750e+00,1.147e+01,1.346e+01,1.246e+01,1.283e+01,1.198e+01,1.088e+01,1.360e+01,1.468e+01,1.331e+01,1.403e+01,1.496e+01,1.429e+01,1.233e+01,1.524e+01,1.352e+01,1.170e+01,1.333e+01,1.383e+01,1.442e+01,1.441e+01,1.211e+01,1.459e+01,1.390e+01,1.458e+01,1.269e+01,1.313e+01
1.989e-02,1.348e-01,1.568e-01,5.161e-01,9.280e-01,1.142e+00,9.742e-01,1.237e+00,1.825e+00,2.452e+00,2.412e+00,2.375e+00,3.338e+00,3.718e+00,3.962e+00,3.016e+00,4.265e+00,5.298e+00,3.838e+00,4.178e+00,5.345e+00,4.051e+00,5.195e+00,5.638e+00,5.866e+00,7.788e+00,6.804e+00,7.299e+00,7.114e+00,7.062e+00,6.385e+00,6.616e+00,9.386e+00,8.811e+00,8.674e+00,8.843e+00,9.515e+00,1.001e+01,1.048e+01,1.006e+01,1.042e+01,1.306e+01,1.355e+01,1.205e+01,1.038e+01,1.216e+01,1.005e+01,1.107e+01,1.309e+01,1.342e+01,1.492e+01,1.377e+01,1.447e+01,1.158e+01,1.429e+01,1.666e+01,1.328e+01,1.416e+01,1.719e+01,1.509e+01,1.310e+01,1.641e+01,1.435e+01,1.384e+01,1.427e+01,1.583e+01,1.556e+01,1.571e+01,1.385e+01,1.688e+01,1.664e+01,1.792e+01,1.283e+01,1.681e+01
9.358e-03,4.973e-01,6.907e-01,1.226e+00,1.410e+00,1.771e+00,1.303e+00,2.708e+00,2.056e+00,3.168e+00,3.255e+00,2.530e+00,3.807e+00,4.721e+00,4.637e+00,4.759e+00,3.469e+00,5.075e+00,4.337e+00,4.831e+00,7.099e+00,5.810e+00,5.534e+00,6.648e+00,6.794e+00,9.529e+00,6.142e+00,7.682e+00,7.056e+00,6.882e+00,6.868e+00,7.742e+00,9.997e+00,9.321e+00,8.825e+00,7.422e+00,1.022e+01,8.379e+00,8.197e+00,7.701e+00,8.990e+00,1.237e+01,1.203e+01,1.131e+01,1.061e+01,1.034e+01,8.202e+00,9.674e+00,1.148e+01,1.338e+01,1.273e+01,1.333e+01,1.289e+01,1.146e+01,1.325e+01,1.598e+01,1.423e+01,1.214e+01,1.451e+01,1.506e+01,1.317e+01,1.645e+01,1.504e+01,1.197e+01,1.310e+01,1.480e+01,1.623e+01,1.461e+01,1.347e+01,1.407e+01,1.520e+01,1.589e+01,1.301e+01,1.424e+01
2.396e-01,1.064e+00,8.616e-01,1.236e+00,1.525e+00,1.736e+00,1.337e+00,2.202e+00,2.007e+00,2.414e+00,2.779e+00,2.515e+00,3.866e+00,3.112e+00,4.509e+00,3.618e+00,3.612e+00,5.039e+00,3.769e+00,4.598e+00,6.217e+00,4.851e+00,5.666e+00,5.044e+00,4.978e+00,7.088e+00,6.157e+00,6.761e+00,6.263e+00,6.885e+00,6.020e+00,6.673e+00,8.700e+00,7.946e+00,7.044e+00,8.180e+00,7.857e+00,7.502e+00,8.229e+00,8.945e+00,1.027e+01,1.115e+01,1.136e+01,1.062e+01,8.768e+00,1.112e+01,8.363e+00,9.410e+00,1.056e+01,1.206e+01,1.291e+01,1.149e+01,1.192e+01,9.836e+00,1.314e+01,1.362e+01,1.094e+01,1.091e+01,1.423e+01,1.321e+01,1.122e+01,1.507e+01,1.409e+01,1.282e+01,1.169e+01,1.304e+01,1.290e+01,1.415e+01,1.245e+01,1.374e+01,1.477e+01,1.498e+01,1.189e+01,1.334e+01
7.154e-02,7.900e-01,8.015e-01,1.067e+00,1.759e+00,1.374e+00,9.551e-01,1.853e+00,1.310e+00,1.869e+00,1.994e+00,1.371e+00,2.840e+00,3.037e+00,3.778e+00,4.106e+00,2.576e+00,3.773e+00,3.401e+00,4.694e+00,6.503e+00,4.891e+00,5.028e+00,5.441e+00,5.130e+00,7.760e+00,6.513e+00,7.088e+00,7.502e+00,7.850e+00,6.641e+00,9.355e+00,9.655e+00,1.087e+01,1.044e+01,8.093e+00,9.867e+00,9.773e+00,1.122e+01,1.042e+01,1.191e+01,1.160e+01,1.327e+01,1.219e+01,1.154e+01,1.461e+01,9.800e+00,1.127e+01,1.245e+01,1.447e+01,1.381e+01,1.466e+01,1.605e+01,1.172e+01,1.620e+01,1.769e+01,1.414e+01,1.333e+01,1.755e+01,1.663e+01,1.325e+01,1.946e+01,1.525e+01,1.484e+01,1.514e+01,1.708e+01,1.821e+01,1.708e+01,1.517e+01,1.712e+01,1.799e+01,1.768e+01,1.382e+01,1.659e+01
1.779e-01,7.855e-01,7.430e-01,1.401e+00,1.226e+00,2.252e+00,1.230e+00,2.494e+00,1.895e+00,2.171e+00,2.739e+00,2.147e+00,2.864e+00,3.534e+00,3.855e+00,3.655e+00,3.373e+00,4.680e+00,3.729e+00,4.179e+00,6.065e+00,5.509e+00,5.904e+00,5.333e+00,6.016e+00,7.731e+00,6.700e+00,7.278e+00,8.102e+00,8.730e+00,6.429e+00,8.633e+00,9.561e+00,9.229e+00,9.220e+00,8.627e+00,8.688e+00,7.880e+00,9.306e+00,9.092e+00,1.091e+01,1.029e+01,1.154e+01,1.194e+01,1.034e+01,1.232e+01,9.045e+00,1.036e+01,1.211e+01,1.222e+01,1.436e+01,1.315e+01,1.527e+01,1.206e+01,1.557e+01,1.655e+01,1.482e+01,1.411e+01,1.695e+01,1.483e+01,1.253e+01,1.797e+01,1.484e+01,1.463e+01,1.488e+01,1.452e+01,1.656e+01,1.611e+01,1.408e+01,1.517e+01,1.614e+01,1.693e+01,1.492e+01,1.572e+01
1.154e-01,6.062e-01,5.319e-01,1.182e+00,1.867e+00,2.262e+00,1.601e+00,2.116e+00,2.541e+00,3.231e+00,3.696e+00,2.438e+00,3.649e+00,3.679e+00,4.772e+00,4.410e+00,3.650e+00,4.586e+00,3.709e+00,4.963e+00,6.243e+00,4.614e+00,5.662e+00,6.133e+00,5.896e+00,8.308e+00,7.166e+00,7.752e+00,7.714e+00,6.994e+00,5.980e+00,8.260e+00,1.040e+01,8.714e+00,8.551e+00,9.024e+00,8.770e+00,8.972e+00,1.119e+01,1.093e+01,1.150e+01,1.378e+01,1.393e+01,1.260e+01,9.836e+00,1.093e+01,1.054e+01,1.115e+01,1.222e+01,1.414e+01,1.449e+01,1.354e+01,1.388e+01,1.216e+01,1.571e+01,1.690e+01,1.441e+01,1.515e+01,1.762e+01,1.616e+01,1.429e+01,1.936e+01,1.798e+01,1.557e+01,1.682e+01,1.778e+01,1.736e+01,1.818e+01,1.636e+01,1.873e+01,1.860e+01,1.907e+01,1.486e+01,1.639e+01
1.367e-01,6.141e-01,5.280e-01,1.250e+00,1.945e+00,2.635e+00,2.159e+00,2.101e+00,2.718e+00,3.026e+00,3.394e+00,1.960e+00,3.008e+00,3.824e+00,4.424e+00,4.335e+00,3.284e+00,4.377e+00,3.850e+00,5.370e+00,6.204e+00,5.734e+00,5.897e+00,6.488e+00,6.328e+00,6.888e+00,7.410e+00,6.455e+00,8.510e+00,8.363e+00,6.022e+00,8.950e+00,1.021e+01,8.188e+00,9.811e+00,9.130e+00,8.783e+00,9.253e+00,1.074e+01,9.503e+00,9.514e+00,1.200e+01,1.237e+01,1.158e+01,9.600e+00,1.141e+01,9.176e+00,1.186e+01,1.219e+01,1.270e+01,1.395e+01,1.400e+01,1.420e+01,1.225e+01,1.615e+01,1.661e+01,1.531e+01,1.430e+01,1.661e+01,1.720e+01,1.310e+01,1.831e+01,1.544e+01,1.553e+01,1.603e+01,1.667e+01,1.830e+01,1.847e+01,1.735e+01,1.638e+01,1.814e+01,1.881e+01,1.565e+01,1.558e+01
1.321e-01,6.351e-01,5.159e-01,9.557e-01,1.724e+00,1.822e+00,1.729e+00,1.521e+00,2.451e+00,2.615e+00,3.071e+00,2.148e+00,3.254e+00,3.851e+00,4.871e+00,3.779e+00,3.444e+00,4.758e+00,3.726e+00,4.885e+00,5.763e+00,4.592e+00,5.405e+00,5.385e+00,5.401e+00,7.009e+00,6.346e+00,6.067e+00,6.947e+00,6.836e+00,5.078e+00,6.525e+00,7.698e+00,7.585e+00,7.535e+00,8.152e+00,8.452e+00,7.626e+00,1.037e+01,9.021e+00,1.028e+01,1.162e+01,1.190e+01,1.205e+01,9.824e+00,1.167e+01,9.350e+00,1.088e+01,1.117e+01,1.281e+01,1.344e+01,1.212e+01,1.437e+01,1.100e+01,1.471e+01,1.573e+01,1.406e+01,1.405e+01,1.564e+01,1.542e+01,1.399e+01,1.605e+01,1.485e+01,1.567e+01,1.511e+01,1.638e+01,1.846e+01,1.714e+01,1.648e+01,1.636e+01,1.822e+01,1.874e+01,1.247e+01,1.586e+01
2.310e-01,1.065e+00,9.056e-01,1.326e+00,1.948e+00,2.532e+00,1.962e+00,2.528e+00,2.696e+00,2.917e+00,3.459e+00,2.367e+00,3.782e+00,4.683e+00,5.083e+00,4.872e+00,4.196e+00,5.480e+00,4.369e+00,5.129e+00,6.458e+00,4.949e+00,6.148e+00,5.339e+00,5.243e+00,6.922e+00,6.243e+00,6.173e+00,7.760e+00,8.191e+00,6.357e+00,7.292e+00,9.040e+00,8.665e+00,8.062e+00,8.581e+00,8.041e+00,8.827e+00,1.057e+01,8.501e+00,9.430e+00,1.172e+01,1.281e+01,1.184e+01,1.008e+01,1.176e+01,9.325e+00,1.080e+01,1.126e+01,1.287e+01,1.468e+01,1.428e+01,1.406e+01,1.148e+01,1.527e+01,1.602e+01,1.519e+01,1.592e+01,1.832e+01,1.532e+01,1.517e+01,1.968e+01,1.640e+01,1.647e+01,1.657e+01,1.749e+01,1.902e+01,1.848e+01,1.666e+01,1.868e+01,1.966e+01,2.015e+01,1.534e+01,1.789e+01
2.366e-01,1.180e+00,9.537e-01,1.071e+00,1.792e+00,1.576e+00,1.716e+00,1.991e+00,2.011e+00,2.301e+00,2.794e+00,1.973e+00,3.755e+00,4.209e+00,4.596e+00,4.782e+00,3.620e+00,4.813e+00,3.997e+00,5.744e+00,6.868e+00,5.016e+00,6.006e+00,5.618e+00,6.399e+00,7.231e+00,5.896e+00,7.368e+00,5.963e+00,7.113e+00,7.282e+00,6.819e+00,8.009e+00,8.457e+00,7.177e+00,7.460e+00,8.136e+00,8.711e+00,9.196e+00,7.449e+00,9.865e+00,1.161e+01,1.195e+01,1.044e+01,1.104e+01,1.037e+01,8.869e+00,1.017e+01,1.051e+01,1.274e+01,1.429e+01,1.189e+01,1.431e+01,9.664e+00,1.435e+01,1.531e+01,1.310e+01,1.226e+01,1.615e+01,1.440e+01,1.302e+01,1.687e+01,1.633e+01,1.537e+01,1.444e+01,1.454e+01,1.704e+01,1.770e+01,1.450e+01,1.653e+01,1.702e+01,1.862e+01,1.218e+01,1.618e+01
1.091e-01,5.605e-01,5.936e-01,1.546e+00,1.296e+00,2.089e+00,1.442e+00,2.595e+00,2.082e+00,2.813e+00,3.330e+00,2.740e+00,3.431e+00,3.670e+00,3.905e+00,3.869e+00,3.516e+00,4.522e+00,3.823e+00,4.000e+00,5.873e+00,4.600e+00,5.469e+00,6.189e+00,6.075e+00,7.884e+00,6.614e+00,7.362e+00,7.564e+00,8.082e+00,5.698e+00,7.958e+00,1.013e+01,8.699e+00,8.690e+00,8.488e+00,8.906e+00,8.995e+00,1.016e+01,1.073e+01,1.141e+01,1.352e+01,1.501e+01,1.236e+01,1.106e+01,1.438e+01,1.166e+01,1.168e+01,1.377e+01,1.548e+01,1.611e+01,1.523e+01,1.559e+01,1.319e+01,1.742e+01,1.795e+01,1.406e+01,1.581e+01,1.790e+01,1.799e+01,1.468e+01,2.080e+01,1.987e+01,1.716e+01,1.821e+01,1.789e+01,1.963e+01,2.137e+01,1.878e+01,1.916e+01,2.044e+01,2.125e+01,1.900e+01,1.854e+01
1.577e-01,1.017e+00,9.830e-01,1.162e+00,1.892e+00,2.143e+00,1.723e+00,2.533e+00,2.601e+00,2.710e+00,2.974e+00,2.102e+00,3.175e+00,4.447e+00,4.432e+00,4.341e+00,3.710e+00,5.050e+00,4.503e+00,5.216e+00,7.403e+00,5.895e+00,6.528e+00,6.146e+00,6.199e+00,7.241e+00,6.001e+00,6.434e+00,6.273e+00,8.078e+00,6.472e+00,8.142e+00,9.846e+00,1.048e+01,8.598e+00,1.042e+01,9.967e+00,8.526e+00,1.000e+01,9.893e+00,1.158e+01,1.081e+01,1.210e+01,1.231e+01,9.143e+00,1.153e+01,8.913e+00,9.561e+00,1.127e+01,1.277e+01,1.305e+01,1.298e+01,1.351e+01,1.037e+01,1.486e+01,1.698e+01,1.398e+01,1.502e+01,1.692e+01,1.573e+01,1.325e+01,1.916e+01,1.711e+01,1.564e+01,1.589e+01,1.628e+01,2.047e+01,2.037e+01,1.851e+01,1.838e+01,1.995e+01,2.151e+01,1.631e+01,1.788e+01
1.417e-01,5.576e-01,5.762e-01,1.622e+00,1.641e+00,2.874e+00,1.896e+00,2.687e+00,2.626e+00,3.112e+00,3.427e+00,2.608e+00,3.719e+00,4.397e+00,5.056e+00,3.960e+00,3.702e+00,5.485e+00,4.532e+00,4.549e+00,6.710e+00,5.600e+00,5.481e+00,5.376e+00,5.189e+00,7.781e+00,6.430e+00,7.142e+00,8.029e+00,8.941e+00,5.968e+00,7.604e+00,9.807e+00,9.320e+00,8.767e+00,8.502e+00,1.010e+01,8.744e+00,1.012e+01,9.777e+00,1.108e+01,1.176e+01,1.227e+01,1.187e+01,9.795e+00,1.292e+01,9.935e+00,1.064e+01,1.287e+01,1.401e+01,1.326e+01,1.413e+01,1.355e+01,1.274e+01,1.578e+01,1.725e+01,1.468e+01,1.639e+01,1.884e+01,1.598e+01,1.359e+01,1.803e+01,1.641e+01,1.678e+01,1.749e+01,1.718e+01,1.810e+01,1.983e+01,1.790e+01,1.829e+01,1.975e+01,2.082e+01,1.666e+01,1.969e+01
2.194e-02,4.532e-01,5.062e-01,7.575e-01,1.554e+00,1.382e+00,1.040e+00,1.799e+00,2.104e+00,2.821e+00,2.959e+00,2.349e+00,3.333e+00,3.582e+00,4.465e+00,3.575e+00,3.675e+00,4.686e+00,3.858e+00,4.254e+00,5.833e+00,4.617e+00,5.280e+00,5.553e+00,5.529e+00,7.770e+00,6.501e+00,6.949e+00,6.879e+00,6.334e+00,6.022e+00,7.631e+00,9.562e+00,8.524e+00,8.295e+00,8.820e+00,8.397e+00,8.133e+00,1.023e+01,9.678e+00,1.063e+01,1.212e+01,1.259e+01,1.126e+01,9.162e+00,1.111e+01,9.042e+00,1.039e+01,1.153e+01,1.181e+01,1.371e+01,1.308e+01,1.297e+01,1.049e+01,1.438e+01,1.585e+01,1.310e+01,1.319e+01,1.624e+01,1.507e+01,1.291e+01,1.781e+01,1.533e+01,1.481e+01,1.502e+01,1.723e+01,1.731e+01,1.681e+01,1.510e+01,1.703e+01,1.719e+01,1.880e+01,1.449e+01,1.673e+01
1.506e-01,8.958e-01,7.911e-01,7.417e-01,1.550e+00,1.674e+00,1.177e+00,1.758e+00,1.945e+00,1.842e+00,2.039e+00,1.186e+00,1.881e+00,2.625e+00,2.613e+00,2.899e+00,2.622e+00,2.840e+00,2.367e+00,3.194e+00,4.118e+00,3.556e+00,4.779e+00,3.408e+00,3.670e+00,4.970e+00,4.628e+00,4.631e+00,4.461e+00,5.011e+00,5.053e+00,5.439e+00,6.566e+00,7.045e+00,5.650e+00,7.694e+00,6.796e+00,6.480e+00,8.753e+00,8.218e+00,9.646e+00,8.562e+00,9.566e+00,9.679e+00,8.772e+00,9.403e+00,8.420e+00,8.103e+00,1.028e+01,1.110e+01,1.126e+01,1.112e+01,1.161e+01,8.538e+00,1.190e+01,1.179e+01,1.109e+01,1.039e+01,1.344e+01,1.158e+01,1.053e+01,1.527e+01,1.459e+01,1.266e+01,1.436e+01,1.449e+01,1.526e+01,1.621e+01,1.589e+01,1.637e+01,1.670e+01,1.757e+01,1.478e+01,1.462e+01
2.024e-02,3.385e-01,3.620e-01,6.925e-01,1.148e+00,1.182e+00,8.836e-01,1.668e+00,1.767e+00,2.609e+00,3.011e+00,2.303e+00,3.014e+00,3.414e+00,4.065e+00,3.747e+00,3.367e+00,4.196e+00,3.610e+00,4.554e+00,5.676e+00,4.999e+00,5.217e+00,6.439e+00,5.864e+00,8.058e+00,6.096e+00,6.993e+00,7.051e+00,6.574e+00,4.757e+00,8.755e+00,8.351e+00,8.486e+00,8.215e+00,7.227e+00,7.782e+00,8.181e+00,9.938e+00,8.812e+00,1.023e+01,1.233e+01,1.217e+01,1.080e+01,9.233e+00,1.121e+01,9.334e+00,1.061e+01,1.252e+01,1.266e+01,1.378e+01,1.199e+01,1.436e+01,1.055e+01,1.532e+01,1.652e+01,1.468e+01,1.424e+01,1.758e+01,1.478e+01,1.284e+01,1.916e+01,1.751e+01,1.754e+01,1.788e+01,1.791e+01,1.970e+01,1.943e+01,1.745e+01,1.881e+01,1.923e+01,2.190e+01,1.555e+01,1.881e+01
1.940e-01,8.117e-01,7.694e-01,1.507e+00,1.594e+00,2.425e+00,1.632e+00,2.248e+00,2.677e+00,2.456e+00,3.267e+00,2.636e+00,3.198e+00,3.862e+00,5.372e+00,4.498e+00,3.007e+00,5.217e+00,3.591e+00,4.694e+00,5.607e+00,4.446e+00,5.487e+00,5.584e+00,4.764e+00,6.734e+00,5.983e+00,5.462e+00,6.954e+00,7.091e+00,5.836e+00,6.722e+00,8.158e+00,7.006e+00,7.285e+00,7.065e+00,8.474e+00,7.353e+00,9.954e+00,8.610e+00,9.369e+00,1.217e+01,1.200e+01,1.166e+01,9.316e+00,1.124e+01,9.150e+00,9.623e+00,1.086e+01,1.197e+01,1.235e+01,1.239e+01,1.252e+01,1.101e+01,1.349e+01,1.425e+01,1.164e+01,1.263e+01,1.411e+01,1.489e+01,1.292e+01,1.451e+01,1.332e+01,1.309e+01,1.460e+01,1.402e+01,1.498e+01,1.495e+01,1.365e+01,1.632e+01,1.615e+01,1.820e+01,1.353e+01,1.666e+01
