2.605e-01,9.937e-01,9.219e-01,2.563e-01,2.145e-02,2.977e-02,5.589e-01,2.067e-01,5.440e-01,9.484e-01,6.568e-01,1.632e-01,5.689e-01,8.651e-01,4.045e-01,8.612e-01,3.533e-01,5.268e-01,4.459e-01,6.974e-01,7.224e-01,2.466e-01,1.872e-01,8.014e-01,5.581e-01,2.558e-02,2.406e-01,1.210e-01,6.238e-01,8.391e-01,5.710e-01,2.489e-01,1.397e-01,1.453e-01,5.413e-01,7.735e-01,5.800e-01,2.623e-01,7.108e-01,6.113e-01,2.334e-01,8.115e-01,7.763e-01,5.440e-01,7.910e-02,3.965e-01,2.889e-01,3.105e-01,3.597e-02,1.473e-01,8.862e-01,8.825e-02,8.125e-01,9.612e-01,4.490e-01,5.306e-01,8.020e-01,2.091e-01,8.989e-01,4.184e-01,1.879e-01,7.899e-01,3.589e-01,4.718e-01,2.578e-01,9.783e-02,2.716e-01,5.124e-01,6.214e-01,9.748e-02,8.198e-01,1.471e-01,2.428e-01,6.599e-01,6.938e-01,8.915e-02,9.836e-01,9.846e-01,7.000e-01,9.773e-01,8.170e-01,2.560e-01,6.299e-01,1.166e-02,8.214e-01,6.116e-01,2.115e-01,8.167e-01,6.645e-01,2.180e-01,5.438e-02
1.442e-01,1.380e+00,1.035e+00,6.728e-01,7.746e-01,8.482e-01,6.385e-01,6.102e-01,1.291e+00,1.252e+00,1.320e+00,8.100e-01,1.165e+00,8.439e-01,7.004e-01,1.193e+00,9.993e-01,4.362e-01,1.181e+00,1.276e+00,1.239e+00,5.038e-01,5.947e-01,9.136e-01,1.029e+00,1.901e-01,7.144e-01,7.977e-01,7.311e-01,8.959e-01,8.039e-01,1.043e+00,5.865e-01,5.388e-01,1.239e+00,1.330e+00,8.134e-01,5.353e-01,1.186e+00,7.443e-01,5.079e-01,6.291e-01,9.596e-01,3.406e-01,6.285e-01,5.754e-01,1.146e+00,4.493e-01,3.356e-01,3.179e-01,9.883e-01,4.448e-01,8.262e-01,1.403e+00,5.201e-01,1.056e+00,1.345e+00,2.863e-01,8.805e-01,4.269e-01,7.107e-01,1.346e+00,9.815e-01,7.513e-01,9.070e-01,1.322e-01,4.806e-01,8.854e-01,5.607e-01,2.825e-01,7.570e-01,4.257e-01,6.607e-01,9.993e-01,1.337e+00,2.593e-01,7.024e-01,1.138e+00,1.323e+00,9.644e-01,5.201e-01,7.664e-01,7.309e-01,6.701e-01,1.427e+00,4.786e-01,5.003e-01,5.985e-01,9.309e-01,2.905e-01,5.261e-01
1.952e-02,6.576e-01,1.019e+00,1.302e+00,6.253e-01,1.454e+00,5.380e-01,8.029e-01,1.291e+00,5.834e-01,7.849e-01,1.280e+00,8.845e-01,3.636e-01,1.221e+00,1.297e+00,1.587e+00,8.069e-01,8.170e-01,7.671e-01,1.124e+00,6.695e-01,9.015e-01,1.190e+00,6.655e-01,4.260e-01,1.061e+00,1.156e+00,9.284e-01,1.034e+00,1.220e+00,1.648e+00,1.166e+00,4.466e-01,1.392e+00,1.023e+00,6.306e-01,2.941e-01,1.417e+00,1.208e+00,1.070e+00,1.025e+00,9.877e-01,1.153e-01,7.564e-01,4.449e-01,8.911e-01,9.463e-01,1.202e+00,8.026e-01,1.022e+00,5.973e-01,3.849e-01,1.199e+00,7.953e-01,1.274e+00,9.395e-01,6.763e-01,7.586e-01,3.632e-01,9.098e-01,1.546e+00,5.956e-01,5.841e-01,1.101e+00,6.059e-01,5.051e-01,1.309e+00,8.921e-01,1.050e+00,6.741e-01,3.293e-01,8.149e-01,1.189e+00,1.383e+00,1.039e+00,1.057e+00,1.158e+00,1.619e+00,1.174e+00,1.085e+00,7.282e-01,1.156e+00,1.426e+00,1.032e+00,7.355e-01,1.201e+00,2.031e-01,1.146e+00,3.954e-01,8.525e-01
1.969e-01,7.771e-01,1.289e+00,2.079e+00,3.510e-01,1.355e+00,1.047e+00,8.077e-01,1.458e+00,1.480e+00,9.838e-01,1.041e+00,1.400e+00,8.497e-01,1.705e+00,2.019e+00,2.256e+00,1.141e+00,1.046e+00,1.108e+00,1.546e+00,8.429e-01,1.044e+00,1.438e+00,6.240e-01,6.945e-01,1.189e+00,1.507e+00,1.690e+00,2.281e+00,1.824e+00,2.046e+00,1.272e+00,1.022e+00,2.031e+00,1.772e+00,9.987e-01,3.182e-01,1.989e+00,1.959e+00,1.388e+00,1.753e+00,1.441e+00,1.188e+00,1.086e+00,5.207e-01,1.237e+00,1.698e+00,1.128e+00,1.438e+00,1.582e+00,9.807e-01,1.072e+00,1.893e+00,1.420e+00,1.825e+00,1.857e+00,8.435e-01,1.274e+00,1.058e+00,1.619e+00,2.384e+00,6.850e-01,7.100e-01,1.137e+00,8.585e-01,1.233e+00,1.292e+00,1.432e+00,1.444e+00,1.590e+00,7.155e-01,1.118e+00,1.864e+00,1.783e+00,1.037e+00,1.847e+00,1.474e+00,2.252e+00,1.797e+00,2.372e+00,1.094e+00,1.586e+00,1.355e+00,1.731e+00,2.048e+00,1.484e+00,1.578e+00,1.560e+00,5.811e-01,6.227e-01
2.361e-01,1.377e+00,1.663e+00,1.804e+00,1.475e+00,2.377e+00,1.697e+00,1.823e+00,1.807e+00,2.602e+00,1.926e+00,1.665e+00,2.276e+00,2.043e+00,2.033e+00,2.464e+00,2.581e+00,1.365e+00,1.517e+00,1.444e+00,2.566e+00,1.753e+00,1.396e+00,2.557e+00,1.611e+00,1.022e+00,1.307e+00,2.161e+00,2.258e+00,2.228e+00,2.628e+00,3.013e+00,1.975e+00,1.410e+00,2.521e+00,2.163e+00,1.299e+00,1.103e+00,2.155e+00,1.991e+00,1.565e+00,2.284e+00,2.314e+00,1.602e+00,1.574e+00,1.666e+00,2.040e+00,2.423e+00,1.400e+00,1.505e+00,2.244e+00,1.044e+00,2.070e+00,2.681e+00,1.483e+00,1.939e+00,2.265e+00,1.737e+00,2.272e+00,1.570e+00,2.297e+00,2.460e+00,1.736e+00,9.745e-01,2.094e+00,9.539e-01,1.409e+00,2.561e+00,2.103e+00,1.528e+00,2.269e+00,1.161e+00,1.823e+00,2.028e+00,2.226e+00,1.942e+00,2.319e+00,2.153e+00,2.868e+00,2.060e+00,2.123e+00,1.725e+00,2.357e+00,2.431e+00,2.098e+00,1.826e+00,1.508e+00,1.766e+00,1.788e+00,1.224e+00,1.197e+00
7.053e-02,3.193e-01,5.146e-01,1.062e+00,3.225e-01,1.101e+00,6.880e-01,1.339e+00,1.354e+00,1.620e+00,1.200e+00,1.418e+00,1.604e+00,1.137e+00,1.238e+00,1.066e+00,1.430e+00,1.234e+00,1.404e+00,1.222e+00,1.210e+00,7.436e-01,1.231e+00,9.932e-01,1.245e+00,1.332e+00,7.847e-01,1.134e+00,1.556e+00,1.563e+00,1.074e+00,2.019e+00,1.479e+00,9.507e-01,1.727e+00,1.579e+00,1.047e+00,4.482e-01,1.851e+00,9.814e-01,1.161e+00,8.977e-01,1.669e+00,8.606e-01,9.831e-01,1.127e+00,1.486e+00,1.572e+00,9.344e-01,8.909e-01,1.133e+00,1.248e+00,7.672e-01,1.160e+00,1.050e+00,1.843e+00,1.721e+00,8.276e-01,1.613e+00,1.030e+00,1.288e+00,1.194e+00,6.588e-01,9.768e-01,6.726e-01,1.114e+00,1.032e+00,1.315e+00,1.578e+00,7.896e-01,1.431e+00,1.142e+00,1.641e+00,1.828e+00,1.003e+00,7.744e-01,1.221e+00,1.247e+00,2.033e+00,1.122e+00,1.877e+00,7.859e-01,1.418e+00,1.223e+00,1.209e+00,1.690e+00,1.642e+00,1.749e+00,9.907e-01,1.128e+00,5.247e-01
6.983e-02,6.497e-01,1.045e+00,1.689e+00,1.209e+00,2.228e+00,2.067e+00,1.961e+00,2.148e+00,2.150e+00,1.862e+00,1.986e+00,2.454e+00,1.536e+00,2.661e+00,2.306e+00,3.084e+00,1.673e+00,1.739e+00,1.138e+00,2.433e+00,2.402e+00,2.161e+00,2.874e+00,1.749e+00,1.655e+00,1.619e+00,2.943e+00,2.925e+00,1.936e+00,3.032e+00,2.955e+00,2.307e+00,2.087e+00,3.131e+00,2.032e+00,1.450e+00,1.348e+00,2.782e+00,2.170e+00,1.746e+00,2.461e+00,2.766e+00,1.574e+00,2.205e+00,2.373e+00,2.328e+00,2.797e+00,2.103e+00,2.147e+00,2.659e+00,1.151e+00,2.151e+00,2.647e+00,1.586e+00,2.527e+00,1.971e+00,1.934e+00,2.044e+00,2.053e+00,2.704e+00,2.529e+00,1.871e+00,1.537e+00,1.766e+00,1.148e+00,1.697e+00,2.254e+00,2.757e+00,1.747e+00,2.448e+00,1.227e+00,2.110e+00,2.627e+00,2.013e+00,2.310e+00,1.780e+00,2.001e+00,3.145e+00,2.033e+00,2.114e+00,2.346e+00,2.955e+00,2.761e+00,2.005e+00,1.995e+00,1.665e+00,1.612e+00,2.372e+00,1.681e+00,1.123e+00
1.748e-01,8.929e-01,8.332e-01,5.979e-01,3.086e-01,7.200e-01,7.042e-01,1.524e+00,1.474e+00,2.343e+00,2.178e+00,1.751e+00,1.961e+00,1.902e+00,1.810e+00,1.214e+00,1.213e+00,1.470e+00,1.461e+00,1.847e+00,1.463e+00,9.208e-01,1.593e+00,1.894e+00,1.713e+00,1.011e+00,1.201e+00,1.173e+00,2.175e+00,1.613e+00,1.468e+00,1.964e+00,1.988e+00,8.649e-01,1.448e+00,2.247e+00,1.253e+00,9.904e-01,1.982e+00,1.321e+00,1.289e+00,1.258e+00,2.528e+00,7.572e-01,1.498e+00,1.940e+00,2.200e+00,1.457e+00,9.667e-01,7.258e-01,2.011e+00,1.379e+00,1.205e+00,1.700e+00,8.367e-01,2.430e+00,2.328e+00,7.419e-01,1.718e+00,1.203e+00,1.143e+00,1.918e+00,1.214e+00,1.468e+00,6.877e-01,1.693e+00,7.940e-01,1.621e+00,2.188e+00,7.818e-01,1.965e+00,1.622e+00,2.194e+00,1.751e+00,1.973e+00,6.922e-01,2.142e+00,1.428e+00,1.897e+00,2.079e+00,2.297e+00,1.324e+00,1.569e+00,1.192e+00,1.729e+00,1.510e+00,2.074e+00,2.077e+00,1.349e+00,1.706e+00,8.783e-01
1.564e-01,8.373e-01,7.326e-01,5.995e-01,1.070e+00,1.439e+00,1.655e+00,2.100e+00,1.675e+00,3.784e+00,2.891e+00,2.305e+00,2.892e+00,2.528e+00,2.574e+00,2.395e+00,2.322e+00,2.414e+00,1.728e+00,1.989e+00,3.171e+00,2.616e+00,2.599e+00,3.313e+00,2.267e+00,1.733e+00,1.251e+00,2.582e+00,2.975e+00,2.009e+00,3.198e+00,2.526e+00,3.141e+00,2.085e+00,3.139e+00,2.724e+00,1.507e+00,2.312e+00,3.117e+00,1.770e+00,1.660e+00,2.594e+00,3.942e+00,2.555e+00,2.716e+00,3.034e+00,3.548e+00,2.743e+00,1.941e+00,1.482e+00,3.168e+00,2.166e+00,3.124e+00,2.695e+00,1.507e+00,3.166e+00,2.945e+00,2.588e+00,3.134e+00,2.617e+00,2.504e+00,2.190e+00,2.133e+00,2.270e+00,1.405e+00,1.717e+00,1.373e+00,2.826e+00,3.675e+00,1.385e+00,3.299e+00,1.783e+00,3.145e+00,2.946e+00,1.874e+00,2.117e+00,2.213e+00,1.782e+00,2.711e+00,2.558e+00,2.956e+00,2.505e+00,2.848e+00,2.830e+00,2.133e+00,1.922e+00,2.222e+00,3.207e+00,2.468e+00,2.843e+00,1.012e+00
3.058e-02,7.766e-01,5.268e-01,1.081e+00,1.244e+00,1.606e+00,1.245e+00,1.744e+00,1.742e+00,3.692e+00,2.707e+00,2.265e+00,3.125e+00,2.391e+00,2.808e+00,2.470e+00,2.433e+00,1.864e+00,2.101e+00,2.333e+00,2.233e+00,2.718e+00,2.075e+00,2.347e+00,1.828e+00,1.390e+00,1.649e+00,2.325e+00,2.828e+00,2.513e+00,2.651e+00,2.871e+00,2.933e+00,2.385e+00,2.814e+00,2.690e+00,1.979e+00,2.100e+00,2.784e+00,1.670e+00,2.056e+00,1.739e+00,3.299e+00,2.069e+00,3.199e+00,2.642e+00,3.000e+00,2.270e+00,1.783e+00,2.110e+00,2.160e+00,2.562e+00,2.365e+00,2.593e+00,1.943e+00,2.547e+00,3.240e+00,2.041e+00,2.116e+00,1.839e+00,2.604e+00,2.833e+00,2.551e+00,1.968e+00,1.562e+00,1.722e+00,1.638e+00,2.154e+00,2.332e+00,1.867e+00,2.428e+00,1.756e+00,2.438e+00,2.743e+00,2.930e+00,1.794e+00,2.008e+00,2.006e+00,2.472e+00,1.850e+00,1.998e+00,2.175e+00,2.218e+00,2.614e+00,3.059e+00,2.134e+00,2.348e+00,2.961e+00,2.251e+00,1.885e+00,1.977e+00
9.031e-02,3.452e-01,3.765e-01,2.387e-01,3.002e-01,6.929e-01,1.134e+00,1.455e+00,1.303e+00,2.024e+00,1.897e+00,2.052e+00,2.747e+00,1.885e+00,2.606e+00,1.371e+00,2.281e+00,1.986e+00,1.905e+00,1.492e+00,1.441e+00,1.965e+00,2.386e+00,1.910e+00,1.882e+00,1.945e+00,1.840e+00,2.235e+00,2.991e+00,1.825e+00,1.897e+00,2.184e+00,2.722e+00,1.978e+00,2.343e+00,2.079e+00,1.754e+00,1.605e+00,2.782e+00,1.171e+00,2.088e+00,2.049e+00,3.192e+00,1.858e+00,2.171e+00,2.661e+00,1.706e+00,1.683e+00,1.521e+00,1.893e+00,1.844e+00,1.958e+00,1.807e+00,2.328e+00,1.764e+00,2.549e+00,2.008e+00,2.095e+00,2.500e+00,1.477e+00,1.566e+00,2.040e+00,1.663e+00,1.722e+00,1.480e+00,1.862e+00,1.495e+00,2.081e+00,2.842e+00,9.216e-01,2.147e+00,1.794e+00,2.180e+00,2.751e+00,1.268e+00,1.918e+00,1.423e+00,2.544e+00,2.613e+00,1.815e+00,2.048e+00,1.690e+00,2.682e+00,2.098e+00,1.645e+00,2.093e+00,2.448e+00,2.143e+00,2.453e+00,2.053e+00,1.313e+00
5.928e-02,8.606e-01,9.154e-01,1.743e+00,8.764e-01,1.712e+00,1.347e+00,1.729e+00,2.338e+00,3.814e+00,2.929e+00,3.708e+00,3.919e+00,2.374e+00,4.360e+00,3.481e+00,4.365e+00,3.242e+00,3.424e+00,3.284e+00,3.639e+00,3.380e+00,3.499e+00,3.093e+00,2.836e+00,2.590e+00,2.362e+00,3.910e+00,3.947e+00,3.901e+00,3.420e+00,4.086e+00,4.385e+00,2.998e+00,4.208e+00,4.025e+00,2.961e+00,2.373e+00,4.127e+00,3.253e+00,3.541e+00,3.163e+00,4.817e+00,3.351e+00,4.343e+00,2.874e+00,4.098e+00,3.124e+00,2.849e+00,3.547e+00,2.922e+00,3.400e+00,2.630e+00,3.311e+00,3.318e+00,4.072e+00,4.057e+00,2.836e+00,3.221e+00,3.077e+00,2.991e+00,4.678e+00,2.813e+00,3.289e+00,2.276e+00,3.025e+00,2.327e+00,3.472e+00,4.034e+00,2.979e+00,3.853e+00,1.849e+00,3.114e+00,4.436e+00,3.372e+00,2.528e+00,3.428e+00,3.002e+00,3.522e+00,2.949e+00,3.948e+00,3.477e+00,3.588e+00,3.641e+00,4.342e+00,3.319e+00,4.119e+00,3.863e+00,3.416e+00,3.107e+00,3.010e+00
1.208e-01,5.080e-01,5.947e-01,6.800e-01,2.182e-01,7.874e-01,1.348e+00,1.478e+00,1.738e+00,2.738e+00,2.095e+00,2.551e+00,3.953e+00,2.403e+00,3.475e+00,3.221e+00,2.806e+00,3.377e+00,2.810e+00,2.472e+00,2.309e+00,3.673e+00,3.472e+00,2.586e+00,3.155e+00,2.331e+00,2.593e+00,3.542e+00,3.758e+00,3.646e+00,3.287e+00,3.087e+00,3.170e+00,2.847e+00,3.241e+00,2.810e+00,2.527e+00,2.608e+00,4.286e+00,2.297e+00,3.513e+00,2.925e+00,4.748e+00,3.225e+00,3.811e+00,3.761e+00,3.225e+00,2.846e+00,2.515e+00,3.531e+00,3.162e+00,2.591e+00,2.681e+00,2.830e+00,2.819e+00,3.448e+00,2.720e+00,2.713e+00,3.633e+00,2.572e+00,2.704e+00,3.490e+00,2.858e+00,2.547e+00,2.159e+00,2.832e+00,2.092e+00,2.723e+00,3.605e+00,2.024e+00,2.838e+00,1.852e+00,3.157e+00,4.010e+00,3.046e+00,2.185e+00,3.256e+00,3.285e+00,3.092e+00,2.345e+00,2.889e+00,2.767e+00,3.312e+00,2.423e+00,3.244e+00,3.513e+00,3.134e+00,3.799e+00,2.957e+00,3.326e+00,2.613e+00
1.682e-01,1.180e+00,1.219e+00,1.860e+00,1.234e+00,2.053e+00,1.751e+00,2.206e+00,2.415e+00,4.874e+00,3.659e+00,3.451e+00,5.059e+00,3.803e+00,5.338e+00,5.187e+00,4.379e+00,4.197e+00,3.746e+00,3.885e+00,4.963e+00,4.640e+00,4.326e+00,4.605e+00,3.876e+00,3.262e+00,4.295e+00,5.227e+00,4.735e+00,5.067e+00,5.519e+00,5.355e+00,4.978e+00,3.751e+00,4.785e+00,4.455e+00,2.903e+00,4.113e+00,6.029e+00,3.566e+00,5.146e+00,4.569e+00,6.552e+00,4.782e+00,5.665e+00,4.655e+00,5.403e+00,4.613e+00,4.128e+00,4.381e+00,4.781e+00,4.269e+00,4.044e+00,4.356e+00,4.330e+00,5.744e+00,5.557e+00,4.432e+00,4.913e+00,3.601e+00,4.859e+00,5.449e+00,4.549e+00,3.174e+00,3.466e+00,4.433e+00,2.955e+00,4.646e+00,4.592e+00,3.704e+00,4.997e+00,3.232e+00,4.655e+00,5.773e+00,5.289e+00,3.400e+00,4.673e+00,4.223e+00,4.594e+00,4.459e+00,4.578e+00,4.737e+00,4.335e+00,4.746e+00,4.729e+00,4.613e+00,4.840e+00,5.424e+00,4.386e+00,4.096e+00,3.718e+00
1.220e-01,7.102e-01,6.958e-01,1.394e+00,8.830e-01,1.438e+00,1.415e+00,1.667e+00,1.749e+00,3.494e+00,2.768e+00,2.768e+00,4.080e+00,2.509e+00,4.239e+00,3.580e+00,4.754e+00,3.854e+00,3.500e+00,3.770e+00,4.598e+00,3.426e+00,4.450e+00,3.215e+00,3.528e+00,3.427e+00,3.525e+00,5.388e+00,3.955e+00,4.489e+00,4.477e+00,4.352e+00,4.820e+00,3.375e+00,4.431e+00,4.324e+00,2.573e+00,3.511e+00,4.625e+00,3.624e+00,4.395e+00,4.353e+00,5.742e+00,4.986e+00,4.655e+00,3.556e+00,5.150e+00,3.512e+00,3.545e+00,4.030e+00,4.387e+00,3.705e+00,3.327e+00,4.313e+00,3.671e+00,4.596e+00,4.097e+00,3.568e+00,4.858e+00,4.025e+00,3.538e+00,4.182e+00,4.023e+00,2.929e+00,3.333e+00,3.878e+00,3.000e+00,3.775e+00,4.230e+00,2.935e+00,4.652e+00,3.122e+00,4.550e+00,5.196e+00,3.659e+00,2.695e+00,3.332e+00,3.157e+00,4.273e+00,3.804e+00,4.241e+00,4.121e+00,4.283e+00,3.724e+00,3.456e+00,4.478e+00,3.673e+00,4.430e+00,3.295e+00,4.453e+00,3.146e+00
1.162e-01,6.691e-01,9.963e-01,1.423e+00,8.806e-01,1.749e+00,1.326e+00,1.912e+00,1.738e+00,3.921e+00,3.030e+00,3.263e+00,3.778e+00,3.072e+00,4.853e+00,4.529e+00,4.421e+00,4.293e+00,3.421e+00,3.674e+00,4.134e+00,4.027e+00,3.904e+00,4.369e+00,3.572e+00,3.325e+00,4.035e+00,4.455e+00,4.329e+00,4.112e+00,5.090e+00,4.441e+00,5.742e+00,3.000e+00,4.200e+00,4.170e+00,3.317e+00,3.812e+00,4.683e+00,3.716e+00,4.332e+00,4.306e+00,6.110e+00,4.306e+00,5.202e+00,3.663e+00,4.617e+00,3.572e+00,4.305e+00,4.020e+00,4.560e+00,4.655e+00,3.756e+00,4.632e+00,3.921e+00,5.318e+00,4.871e+00,4.344e+00,4.500e+00,2.841e+00,3.866e+00,4.690e+00,3.894e+00,3.121e+00,3.712e+00,4.769e+00,3.097e+00,4.994e+00,4.481e+00,3.364e+00,4.767e+00,2.886e+00,3.844e+00,5.100e+00,4.167e+00,3.519e+00,3.834e+00,3.877e+00,3.948e+00,4.814e+00,4.477e+00,4.228e+00,4.156e+00,4.897e+00,4.188e+00,4.261e+00,4.651e+00,4.101e+00,4.800e+00,4.132e+00,4.092e+00
7.421e-02,6.782e-01,1.020e+00,2.048e+00,6.795e-01,1.793e+00,1.128e+00,1.731e+00,2.177e+00,3.621e+00,2.831e+00,3.527e+00,3.876e+00,2.598e+00,5.028e+00,4.443e+00,5.976e+00,4.608e+00,4.440e+00,4.747e+00,5.317e+00,3.896e+00,5.053e+00,4.190e+00,4.172e+00,3.751e+00,4.331e+00,5.176e+00,4.557e+00,4.959e+00,5.220e+00,5.187e+00,5.938e+00,3.383e+00,4.856e+00,5.214e+00,4.385e+00,3.433e+00,5.982e+00,4.165e+00,5.308e+00,4.751e+00,6.896e+00,5.107e+00,5.415e+00,3.996e+00,5.840e+00,4.626e+00,5.375e+00,4.570e+00,4.878e+00,5.187e+00,3.636e+00,5.179e+00,4.722e+00,5.731e+00,5.304e+00,4.406e+00,4.788e+00,3.367e+00,4.546e+00,5.944e+00,4.543e+00,4.290e+00,4.253e+00,5.759e+00,4.027e+00,4.600e+00,4.306e+00,4.639e+00,5.076e+00,2.996e+00,4.637e+00,6.077e+00,4.810e+00,3.291e+00,4.936e+00,4.277e+00,4.415e+00,4.699e+00,5.059e+00,4.341e+00,4.444e+00,5.114e+00,4.701e+00,5.651e+00,5.591e+00,5.008e+00,4.422e+00,4.807e+00,4.226e+00
5.886e-02,1.052e+00,1.231e+00,1.446e+00,1.098e+00,2.044e+00,1.188e+00,1.782e+00,2.195e+00,3.374e+00,2.708e+00,3.860e+00,3.770e+00,2.485e+00,4.584e+00,3.846e+00,5.509e+00,4.789e+00,4.583e+00,5.025e+00,5.529e+00,4.347e+00,4.614e+00,4.510e+00,4.803e+00,4.245e+00,3.951e+00,5.577e+00,4.909e+00,4.445e+00,5.257e+00,4.703e+00,6.004e+00,3.619e+00,5.524e+00,4.763e+00,4.531e+00,3.749e+00,5.709e+00,3.682e+00,5.453e+00,5.061e+00,6.851e+00,4.744e+00,5.434e+00,4.333e+00,5.023e+00,4.289e+00,4.873e+00,4.988e+00,4.949e+00,4.479e+00,3.401e+00,5.372e+00,4.357e+00,4.867e+00,4.546e+00,4.859e+00,5.547e+00,3.942e+00,3.441e+00,5.367e+00,4.890e+00,4.990e+00,4.537e+00,4.541e+00,3.215e+00,5.059e+00,4.079e+00,4.619e+00,4.512e+00,3.019e+00,4.336e+00,6.381e+00,4.088e+00,4.276e+00,4.194e+00,5.313e+00,5.193e+00,4.617e+00,4.803e+00,3.708e+00,4.896e+00,4.902e+00,4.335e+00,5.142e+00,5.353e+00,4.110e+00,4.323e+00,4.311e+00,4.797e+00
7.538e-02,6.469e-01,7.406e-01,1.283e+00,7.341e-01,1.485e+00,1.363e+00,1.878e+00,2.056e+00,3.384e+00,2.869e+00,3.242e+00,4.271e+00,2.846e+00,4.765e+00,4.643e+00,5.001e+00,5.106e+00,5.434e+00,5.940e+00,6.182e+00,5.455e+00,5.752e+00,5.011e+00,6.526e+00,5.117e+00,5.818e+00,6.628e+00,6.259e+00,5.520e+00,6.718e+00,5.034e+00,6.619e+00,4.814e+00,5.736e+00,5.672e+00,4.912e+00,4.663e+00,7.151e+00,4.035e+00,6.700e+00,5.488e+00,7.997e+00,6.182e+00,7.079e+00,5.574e+00,6.708e+00,5.999e+00,5.747e+00,5.608e+00,6.787e+00,5.300e+00,4.290e+00,6.463e+00,4.385e+00,6.651e+00,5.626e+00,5.097e+00,6.111e+00,5.095e+00,5.597e+00,6.551e+00,6.014e+00,5.430e+00,5.221e+00,6.726e+00,4.383e+00,6.182e+00,4.972e+00,4.713e+00,5.437e+00,4.611e+00,5.677e+00,7.219e+00,5.314e+00,3.927e+00,5.153e+00,5.047e+00,5.431e+00,5.541e+00,5.493e+00,5.661e+00,5.525e+00,5.695e+00,4.686e+00,6.281e+00,5.793e+00,5.844e+00,5.165e+00,6.126e+00,5.319e+00
1.080e-01,8.747e-01,8.346e-01,1.019e+00,6.308e-01,1.015e+00,1.027e+00,1.285e+00,1.597e+00,3.196e+00,2.666e+00,2.998e+00,4.177e+00,2.918e+00,4.809e+00,4.359e+00,4.784e+00,4.401e+00,4.488e+00,4.901e+00,5.372e+00,5.762e+00,5.867e+00,4.863e+00,5.376e+00,3.805e+00,5.017e+00,5.996e+00,5.772e+00,4.989e+00,5.875e+00,5.258e+00,5.642e+00,4.657e+00,5.190e+00,5.553e+00,4.857e+00,4.144e+00,6.046e+00,3.784e+00,6.302e+00,5.146e+00,8.074e+00,6.013e+00,6.199e+00,5.719e+00,6.090e+00,4.838e+00,5.601e+00,5.893e+00,6.285e+00,4.650e+00,4.611e+00,6.115e+00,4.517e+00,5.864e+00,5.753e+00,4.778e+00,4.866e+00,4.560e+00,5.375e+00,6.664e+00,5.605e+00,5.300e+00,4.968e+00,6.757e+00,3.764e+00,5.421e+00,4.267e+00,4.841e+00,5.239e+00,4.228e+00,5.001e+00,5.752e+00,5.383e+00,3.736e+00,6.577e+00,5.299e+00,4.683e+00,5.165e+00,5.124e+00,5.669e+00,4.779e+00,5.342e+00,5.614e+00,5.538e+00,6.022e+00,5.494e+00,4.776e+00,5.242e+00,5.301e+00
9.460e-02,5.310e-01,9.243e-01,1.275e+00,5.541e-01,1.421e+00,8.995e-01,1.323e+00,1.389e+00,2.882e+00,2.118e+00,2.602e+00,2.806e+00,2.219e+00,4.036e+00,3.989e+00,4.972e+00,4.697e+00,4.107e+00,5.232e+00,6.288e+00,5.532e+00,5.792e+00,5.464e+00,5.202e+00,4.753e+00,5.466e+00,5.951e+00,5.897e+00,5.082e+00,6.479e+00,4.947e+00,6.682e+00,5.393e+00,6.124e+00,5.978e+00,4.946e+00,4.709e+00,7.122e+00,4.113e+00,6.515e+00,6.079e+00,7.878e+00,6.980e+00,6.508e+00,5.397e+00,6.444e+00,5.808e+00,7.514e+00,5.543e+00,6.598e+00,6.228e+00,5.507e+00,7.487e+00,4.769e+00,6.337e+00,5.859e+00,6.188e+00,6.128e+00,4.743e+00,6.272e+00,5.784e+00,5.852e+00,6.056e+00,5.868e+00,7.721e+00,4.388e+00,6.724e+00,4.267e+00,5.883e+00,5.852e+00,4.919e+00,5.567e+00,6.593e+00,4.932e+00,4.716e+00,5.483e+00,5.772e+00,6.119e+00,6.184e+00,5.596e+00,4.816e+00,5.827e+00,6.657e+00,5.269e+00,5.786e+00,6.737e+00,5.405e+00,6.003e+00,6.025e+00,5.709e+00
4.911e-02,8.548e-01,1.127e+00,1.988e+00,9.802e-01,1.929e+00,9.864e-01,1.584e+00,1.981e+00,3.005e+00,2.727e+00,3.202e+00,3.899e+00,2.449e+00,4.760e+00,4.294e+00,4.542e+00,3.792e+00,3.774e+00,4.081e+00,5.353e+00,5.089e+00,5.504e+00,5.598e+00,4.802e+00,4.007e+00,5.586e+00,6.209e+00,5.551e+00,5.027e+00,5.860e+00,5.778e+00,6.091e+00,4.481e+00,5.664e+00,5.336e+00,3.014e+00,4.293e+00,6.968e+00,4.204e+00,6.889e+00,5.321e+00,6.373e+00,5.293e+00,6.561e+00,5.452e+00,6.184e+00,5.261e+00,5.319e+00,5.175e+00,5.553e+00,5.169e+00,4.165e+00,5.435e+00,4.316e+00,6.512e+00,5.315e+00,4.852e+00,5.103e+00,4.326e+00,6.046e+00,6.187e+00,5.797e+00,4.645e+00,5.354e+00,6.648e+00,4.018e+00,5.686e+00,4.749e+00,5.282e+00,4.835e+00,4.418e+00,5.905e+00,6.379e+00,5.478e+00,3.977e+00,5.689e+00,4.599e+00,6.090e+00,5.636e+00,5.223e+00,5.214e+00,5.134e+00,6.018e+00,5.424e+00,4.687e+00,6.700e+00,5.033e+00,4.811e+00,4.997e+00,5.054e+00
1.641e-02,6.035e-01,7.010e-01,1.667e+00,1.159e+00,1.860e+00,1.444e+00,1.590e+00,1.848e+00,3.378e+00,2.677e+00,3.295e+00,4.964e+00,2.868e+00,5.156e+00,4.784e+00,5.499e+00,4.435e+00,5.051e+00,5.166e+00,6.084e+00,7.353e+00,6.995e+00,6.091e+00,6.923e+00,5.926e+00,6.873e+00,7.898e+00,7.618e+00,6.357e+00,7.955e+00,6.996e+00,7.192e+00,7.059e+00,7.531e+00,7.152e+00,5.632e+00,5.365e+00,8.697e+00,4.220e+00,8.310e+00,6.563e+00,9.028e+00,8.092e+00,8.523e+00,7.234e+00,7.523e+00,7.112e+00,7.139e+00,7.703e+00,7.526e+00,6.677e+00,6.601e+00,8.358e+00,5.851e+00,7.736e+00,7.048e+00,6.572e+00,6.372e+00,6.077e+00,8.352e+00,8.504e+00,7.156e+00,6.734e+00,7.199e+00,8.546e+00,5.132e+00,7.333e+00,5.800e+00,6.180e+00,5.789e+00,6.208e+00,6.238e+00,8.173e+00,6.045e+00,6.098e+00,7.445e+00,7.041e+00,7.435e+00,5.651e+00,6.548e+00,6.939e+00,6.283e+00,8.017e+00,6.923e+00,6.669e+00,7.644e+00,6.521e+00,6.536e+00,6.827e+00,6.411e+00
1.345e-01,1.122e+00,1.118e+00,9.259e-01,6.307e-01,1.096e+00,6.918e-01,1.002e+00,1.464e+00,2.024e+00,1.992e+00,2.475e+00,2.560e+00,1.533e+00,2.834e+00,2.688e+00,3.893e+00,3.082e+00,3.582e+00,4.374e+00,4.642e+00,4.350e+00,5.507e+00,4.861e+00,5.646e+00,4.108e+00,5.158e+00,5.218e+00,5.816e+00,4.729e+00,5.263e+00,4.797e+00,6.055e+00,4.545e+00,6.038e+00,6.439e+00,4.330e+00,3.726e+00,5.861e+00,3.982e+00,6.175e+00,5.412e+00,6.979e+00,6.286e+00,5.259e+00,4.544e+00,5.738e+00,4.139e+00,5.267e+00,4.817e+00,6.421e+00,4.990e+00,4.591e+00,7.284e+00,4.173e+00,6.303e+00,5.654e+00,4.225e+00,5.074e+00,5.501e+00,5.439e+00,6.711e+00,4.764e+00,5.539e+00,5.341e+00,6.568e+00,4.423e+00,6.478e+00,5.379e+00,4.549e+00,5.072e+00,5.243e+00,4.769e+00,5.919e+00,3.920e+00,3.780e+00,6.247e+00,4.689e+00,5.557e+00,5.049e+00,5.444e+00,4.792e+00,5.695e+00,6.299e+00,4.769e+00,4.628e+00,5.673e+00,4.287e+00,4.892e+00,5.891e+00,4.181e+00
1.666e-02,8.790e-01,9.577e-01,1.915e+00,1.090e+00,1.928e+00,1.424e+00,1.673e+00,2.384e+00,2.970e+00,2.761e+00,2.759e+00,3.060e+00,1.739e+00,3.791e+00,3.654e+00,4.369e+00,3.305e+00,3.895e+00,4.469e+00,5.739e+00,5.387e+00,5.833e+00,6.507e+00,6.188e+00,5.901e+00,6.841e+00,7.067e+00,7.418e+00,5.407e+00,7.633e+00,5.732e+00,7.162e+00,6.502e+00,8.186e+00,7.552e+00,4.346e+00,4.729e+00,8.199e+00,4.540e+00,6.662e+00,6.857e+00,7.766e+00,6.967e+00,7.395e+00,6.630e+00,7.689e+00,6.461e+00,7.490e+00,5.908e+00,8.094e+00,6.262e+00,5.922e+00,8.112e+00,5.398e+00,7.987e+00,7.405e+00,5.908e+00,5.722e+00,6.422e+00,8.136e+00,7.592e+00,6.481e+00,6.689e+00,6.188e+00,8.238e+00,5.534e+00,7.045e+00,6.104e+00,6.140e+00,6.282e+00,6.413e+00,6.635e+00,8.406e+00,5.383e+00,5.629e+00,6.845e+00,5.228e+00,8.138e+00,6.538e+00,6.858e+00,6.144e+00,6.446e+00,7.791e+00,6.183e+00,5.312e+00,7.473e+00,5.817e+00,6.935e+00,6.804e+00,5.454e+00
5.050e-02,7.235e-01,8.107e-01,1.449e+00,8.672e-01,1.503e+00,9.009e-01,1.489e+00,1.652e+00,3.339e+00,2.636e+00,2.642e+00,3.366e+00,2.237e+00,3.793e+00,4.158e+00,3.922e+00,3.980e+00,3.525e+00,4.674e+00,4.380e+00,4.946e+00,5.110e+00,4.725e+00,5.289e+00,4.400e+00,6.340e+00,7.043e+00,6.882e+00,6.606e+00,6.868e+00,5.611e+00,7.328e+00,6.056e+00,6.879e+00,7.201e+00,5.013e+00,4.858e+00,6.118e+00,5.400e+00,6.115e+00,6.766e+00,8.048e+00,7.229e+00,6.827e+00,5.285e+00,7.312e+00,5.331e+00,7.231e+00,6.379e+00,7.766e+00,6.350e+00,5.435e+00,6.997e+00,5.797e+00,6.832e+00,7.376e+00,5.294e+00,6.286e+00,5.902e+00,6.699e+00,7.053e+00,6.172e+00,5.502e+00,5.501e+00,7.338e+00,5.201e+00,7.146e+00,5.802e+00,5.688e+00,6.399e+00,6.078e+00,6.771e+00,7.455e+00,6.579e+00,5.036e+00,6.845e+00,4.263e+00,5.944e+00,6.392e+00,6.364e+00,5.773e+00,6.446e+00,6.042e+00,6.240e+00,5.572e+00,6.562e+00,5.860e+00,5.683e+00,7.080e+00,6.073e+00
5.915e-02,9.888e-01,1.015e+00,1.112e+00,1.424e+00,2.048e+00,1.136e+00,1.823e+00,1.644e+00,3.123e+00,2.496e+00,2.899e+00,3.293e+00,2.806e+00,3.786e+00,3.106e+00,4.272e+00,3.259e+00,3.795e+00,3.993e+00,5.250e+00,5.068e+00,4.661e+00,6.050e+00,5.555e+00,4.812e+00,6.313e+00,7.007e+00,7.576e+00,5.681e+00,7.078e+00,6.498e+00,6.325e+00,6.257e+00,7.771e+00,6.485e+00,5.819e+00,5.160e+00,6.625e+00,4.623e+00,6.382e+00,7.588e+00,8.858e+00,7.043e+00,6.804e+00,6.918e+00,6.746e+00,6.278e+00,6.723e+00,6.861e+00,6.513e+00,5.275e+00,6.027e+00,7.861e+00,6.405e+00,6.830e+00,7.131e+00,7.051e+00,5.977e+00,5.497e+00,6.922e+00,6.990e+00,6.487e+00,6.403e+00,6.402e+00,7.844e+00,5.933e+00,7.506e+00,5.233e+00,7.288e+00,6.490e+00,6.654e+00,5.910e+00,6.888e+00,5.860e+00,6.124e+00,7.560e+00,6.213e+00,7.380e+00,6.192e+00,6.356e+00,4.775e+00,6.946e+00,7.523e+00,5.708e+00,6.195e+00,7.808e+00,5.679e+00,6.095e+00,6.319e+00,5.938e+00
3.469e-02,5.154e-01,5.236e-01,1.048e+00,1.033e+00,1.734e+00,1.515e+00,2.250e+00,2.042e+00,4.015e+00,3.110e+00,3.253e+00,4.428e+00,3.327e+00,4.811e+00,4.333e+00,4.791e+00,4.843e+00,4.984e+00,5.540e+00,6.417e+00,6.862e+00,6.923e+00,6.441e+00,6.763e+00,6.050e+00,7.455e+00,9.194e+00,8.492e+00,7.205e+00,8.150e+00,7.274e+00,9.354e+00,7.576e+00,8.301e+00,7.370e+00,6.224e+00,6.878e+00,9.848e+00,4.855e+00,9.218e+00,8.075e+00,1.012e+01,8.431e+00,8.331e+00,8.094e+00,8.106e+00,8.557e+00,8.743e+00,7.569e+00,8.468e+00,8.143e+00,7.079e+00,8.258e+00,7.032e+00,8.773e+00,8.787e+00,7.928e+00,8.603e+00,7.098e+00,9.499e+00,7.973e+00,8.609e+00,7.736e+00,6.450e+00,9.082e+00,6.743e+00,8.746e+00,7.164e+00,7.103e+00,7.288e+00,7.753e+00,8.856e+00,9.850e+00,7.641e+00,6.630e+00,6.941e+00,7.004e+00,8.708e+00,7.519e+00,6.976e+00,7.318e+00,8.318e+00,8.676e+00,7.305e+00,7.029e+00,9.009e+00,8.228e+00,6.717e+00,8.188e+00,6.728e+00
1.211e-03,6.213e-01,8.942e-01,1.359e+00,1.023e+00,1.836e+00,1.442e+00,1.762e+00,1.995e+00,3.205e+00,2.786e+00,3.048e+00,3.658e+00,2.425e+00,4.823e+00,4.257e+00,4.912e+00,4.689e+00,3.851e+00,4.811e+00,6.111e+00,5.843e+00,5.999e+00,6.359e+00,5.645e+00,4.756e+00,6.749e+00,8.184e+00,7.993e+00,6.976e+00,8.893e+00,6.648e+00,7.445e+00,6.545e+00,8.318e+00,6.860e+00,5.355e+00,6.591e+00,8.421e+00,5.480e+00,7.604e+00,7.930e+00,1.025e+01,7.236e+00,8.353e+00,7.352e+00,7.896e+00,7.361e+00,7.742e+00,7.762e+00,8.494e+00,6.466e+00,7.085e+00,8.226e+00,6.316e+00,8.498e+00,7.315e+00,7.383e+00,6.837e+00,7.144e+00,7.643e+00,7.878e+00,6.827e+00,6.785e+00,5.566e+00,7.686e+00,5.598e+00,7.452e+00,6.532e+00,7.537e+00,6.777e+00,6.877e+00,7.350e+00,8.470e+00,7.084e+00,6.240e+00,7.456e+00,6.315e+00,8.108e+00,7.409e+00,6.813e+00,6.602e+00,7.680e+00,8.637e+00,5.934e+00,7.359e+00,7.538e+00,6.452e+00,6.266e+00,8.007e+00,5.926e+00
7.868e-02,9.325e-01,7.077e-01,8.627e-01,1.218e+00,1.654e+00,1.137e+00,1.945e+00,1.757e+00,3.909e+00,2.908e+00,2.854e+00,4.096e+00,2.957e+00,3.640e+00,4.083e+00,4.257e+00,4.474e+00,4.269e+00,5.115e+00,4.930e+00,5.847e+00,6.116e+00,5.394e+00,6.462e+00,5.292e+00,6.688e+00,8.243e+00,7.689e+00,8.303e+00,8.395e+00,7.190e+00,9.509e+00,6.984e+00,8.975e+00,8.581e+00,6.705e+00,7.501e+00,8.760e+00,5.770e+00,8.789e+00,8.039e+00,1.079e+01,8.553e+00,7.987e+00,8.056e+00,8.810e+00,6.965e+00,8.162e+00,8.503e+00,8.487e+00,8.912e+00,8.299e+00,9.348e+00,7.922e+00,8.473e+00,9.048e+00,7.807e+00,8.769e+00,7.508e+00,8.593e+00,7.878e+00,8.694e+00,7.069e+00,7.407e+00,9.319e+00,7.365e+00,8.991e+00,7.463e+00,7.348e+00,7.457e+00,8.071e+00,9.239e+00,9.569e+00,7.520e+00,6.502e+00,7.710e+00,6.562e+00,8.596e+00,7.704e+00,7.597e+00,7.060e+00,7.882e+00,9.259e+00,7.849e+00,7.507e+00,8.399e+00,8.103e+00,7.071e+00,9.203e+00,6.977e+00
2.271e-01,1.640e+00,1.741e+00,1.711e+00,1.425e+00,2.382e+00,2.193e+00,2.614e+00,2.927e+00,4.361e+00,3.934e+00,4.353e+00,5.857e+00,3.842e+00,5.902e+00,5.354e+00,6.538e+00,5.536e+00,5.800e+00,6.178e+00,7.195e+00,7.203e+00,8.123e+00,7.118e+00,7.827e+00,6.067e+00,8.019e+00,9.887e+00,9.717e+00,8.848e+00,9.853e+00,9.344e+00,1.029e+01,8.664e+00,9.909e+00,9.539e+00,8.019e+00,7.013e+00,1.182e+01,7.070e+00,1.059e+01,9.535e+00,1.189e+01,8.983e+00,9.876e+00,9.477e+00,9.755e+00,8.899e+00,9.559e+00,8.926e+00,1.004e+01,8.644e+00,8.560e+00,1.055e+01,8.298e+00,1.021e+01,9.280e+00,8.817e+00,1.000e+01,9.108e+00,9.373e+00,1.006e+01,9.601e+00,8.189e+00,8.189e+00,1.004e+01,7.404e+00,9.933e+00,9.261e+00,7.774e+00,8.404e+00,7.916e+00,1.056e+01,1.161e+01,8.540e+00,7.953e+00,9.616e+00,8.607e+00,1.074e+01,8.788e+00,8.843e+00,8.536e+00,9.596e+00,1.002e+01,8.986e+00,9.191e+00,1.009e+01,9.542e+00,8.453e+00,9.898e+00,7.298e+00
1.522e-01,7.141e-01,9.525e-01,1.272e+00,7.254e-01,1.549e+00,1.831e+00,2.193e+00,2.177e+00,3.771e+00,3.027e+00,3.169e+00,4.297e+00,2.925e+00,4.478e+00,4.214e+00,4.942e+00,4.692e+00,4.253e+00,5.027e+00,5.542e+00,5.558e+00,6.309e+00,5.544e+00,6.243e+00,4.866e+00,6.325e+00,8.078e+00,7.961e+00,7.938e+00,8.502e+00,7.901e+00,9.489e+00,7.790e+00,8.735e+00,8.829e+00,7.495e+00,7.278e+00,9.512e+00,7.552e+00,8.896e+00,8.637e+00,1.112e+01,8.755e+00,8.991e+00,8.065e+00,8.982e+00,8.173e+00,9.295e+00,8.332e+00,9.449e+00,7.494e+00,8.139e+00,9.965e+00,7.493e+00,9.191e+00,7.920e+00,8.086e+00,9.092e+00,8.301e+00,8.588e+00,8.498e+00,8.190e+00,7.037e+00,7.200e+00,9.097e+00,6.990e+00,8.340e+00,8.676e+00,7.526e+00,8.375e+00,7.517e+00,9.137e+00,9.845e+00,7.930e+00,7.026e+00,8.221e+00,6.387e+00,8.742e+00,7.175e+00,8.787e+00,7.752e+00,8.104e+00,8.651e+00,7.968e+00,8.623e+00,8.436e+00,9.051e+00,8.176e+00,1.006e+01,6.539e+00
3.180e-02,3.863e-01,3.725e-01,3.569e-01,4.165e-01,8.759e-01,1.161e+00,1.503e+00,1.633e+00,3.086e+00,2.278e+00,2.619e+00,3.522e+00,2.393e+00,3.664e+00,4.070e+00,4.082e+00,5.108e+00,4.432e+00,5.230e+00,5.621e+00,6.764e+00,6.559e+00,6.046e+00,6.705e+00,5.524e+00,7.020e+00,8.853e+00,8.608e+00,7.465e+00,8.562e+00,7.341e+00,1.030e+01,9.360e+00,9.636e+00,8.531e+00,8.541e+00,8.589e+00,1.119e+01,6.813e+00,9.226e+00,9.297e+00,1.171e+01,1.023e+01,1.001e+01,9.344e+00,9.669e+00,9.309e+00,1.045e+01,8.963e+00,1.040e+01,8.937e+00,9.138e+00,9.930e+00,8.624e+00,9.733e+00,8.637e+00,9.831e+00,1.033e+01,8.019e+00,1.036e+01,8.001e+00,9.164e+00,9.746e+00,7.959e+00,1.020e+01,7.630e+00,9.757e+00,8.101e+00,8.982e+00,7.801e+00,8.551e+00,1.012e+01,1.136e+01,8.575e+00,7.885e+00,8.423e+00,8.500e+00,9.752e+00,8.227e+00,8.056e+00,7.372e+00,9.067e+00,9.723e+00,9.003e+00,9.334e+00,9.787e+00,9.188e+00,8.558e+00,1.025e+01,7.844e+00
9.471e-02,1.085e+00,8.694e-01,1.126e+00,1.208e+00,1.593e+00,1.599e+00,1.591e+00,1.996e+00,3.598e+00,2.726e+00,2.733e+00,3.753e+00,2.910e+00,4.581e+00,4.141e+00,5.310e+00,4.085e+00,4.562e+00,4.800e+00,6.005e+00,5.702e+00,5.795e+00,6.163e+00,6.188e+00,5.928e+00,7.086e+00,8.792e+00,8.103e+00,8.183e+00,9.009e+00,9.060e+00,1.029e+01,9.247e+00,1.125e+01,1.029e+01,9.210e+00,9.439e+00,1.132e+01,8.397e+00,9.905e+00,1.085e+01,1.337e+01,1.151e+01,1.083e+01,9.653e+00,1.099e+01,8.880e+00,1.054e+01,1.038e+01,1.030e+01,9.482e+00,1.030e+01,1.146e+01,1.058e+01,1.125e+01,1.011e+01,1.055e+01,1.057e+01,8.863e+00,1.078e+01,9.614e+00,1.016e+01,9.297e+00,9.295e+00,1.121e+01,8.929e+00,1.048e+01,9.273e+00,1.020e+01,1.019e+01,9.805e+00,9.658e+00,1.201e+01,9.060e+00,8.422e+00,9.254e+00,9.438e+00,1.045e+01,8.563e+00,8.714e+00,9.125e+00,9.834e+00,1.151e+01,1.085e+01,1.007e+01,9.618e+00,9.124e+00,9.867e+00,1.106e+01,8.565e+00
1.904e-01,1.519e+00,1.207e+00,1.535e+00,1.766e+00,2.188e+00,1.729e+00,2.029e+00,2.045e+00,3.835e+00,2.919e+00,2.301e+00,3.751e+00,2.996e+00,3.375e+00,3.848e+00,4.975e+00,3.722e+00,4.871e+00,5.514e+00,6.348e+00,5.531e+00,5.408e+00,6.155e+00,6.889e+00,5.252e+00,5.850e+00,8.137e+00,8.269e+00,7.626e+00,8.500e+00,8.440e+00,9.562e+00,8.365e+00,1.061e+01,1.071e+01,9.031e+00,8.378e+00,9.932e+00,7.344e+00,9.631e+00,9.809e+00,1.253e+01,1.077e+01,9.784e+00,9.250e+00,1.117e+01,9.425e+00,8.703e+00,9.417e+00,1.054e+01,8.891e+00,9.626e+00,1.203e+01,8.845e+00,1.078e+01,9.490e+00,9.666e+00,1.066e+01,9.008e+00,1.090e+01,9.265e+00,1.035e+01,9.370e+00,9.788e+00,1.030e+01,8.194e+00,1.071e+01,8.205e+00,9.545e+00,9.440e+00,9.765e+00,1.024e+01,1.060e+01,8.047e+00,7.521e+00,9.711e+00,9.651e+00,1.117e+01,8.594e+00,8.196e+00,8.520e+00,9.189e+00,1.051e+01,1.002e+01,9.872e+00,8.660e+00,8.672e+00,7.950e+00,1.071e+01,7.876e+00
1.375e-02,5.428e-02,5.318e-01,1.326e+00,6.341e-01,1.724e+00,1.075e+00,1.933e+00,1.580e+00,3.206e+00,2.346e+00,3.411e+00,3.818e+00,2.467e+00,4.144e+00,3.708e+00,4.236e+00,4.292e+00,3.661e+00,3.693e+00,4.086e+00,5.130e+00,5.001e+00,4.362e+00,4.535e+00,4.413e+00,4.645e+00,6.197e+00,6.938e+00,6.236e+00,6.672e+00,7.633e+00,8.851e+00,7.194e+00,8.512e+00,8.935e+00,8.125e+00,6.794e+00,9.023e+00,6.872e+00,8.637e+00,8.131e+00,1.037e+01,8.258e+00,9.758e+00,7.358e+00,8.845e+00,7.578e+00,7.928e+00,8.358e+00,7.928e+00,8.336e+00,8.284e+00,9.220e+00,8.258e+00,9.639e+00,7.133e+00,8.917e+00,9.124e+00,7.467e+00,8.572e+00,6.616e+00,7.006e+00,8.049e+00,6.998e+00,9.273e+00,6.001e+00,9.575e+00,8.312e+00,7.869e+00,7.934e+00,7.318e+00,8.718e+00,9.442e+00,6.263e+00,7.482e+00,7.824e+00,8.262e+00,1.062e+01,7.343e+00,8.197e+00,7.696e+00,8.050e+00,9.442e+00,8.450e+00,8.330e+00,9.696e+00,8.225e+00,8.584e+00,9.483e+00,6.934e+00
7.117e-02,5.969e-01,8.753e-01,1.219e+00,1.062e+00,1.803e+00,1.314e+00,1.783e+00,1.523e+00,3.666e+00,2.666e+00,3.268e+00,3.737e+00,2.767e+00,4.265e+00,3.801e+00,4.363e+00,3.800e+00,3.219e+00,3.615e+00,4.717e+00,5.772e+00,5.233e+00,5.820e+00,4.800e+00,3.942e+00,5.667e+00,7.891e+00,8.063e+00,7.342e+00,7.834e+00,8.210e+00,9.538e+00,8.331e+00,9.976e+00,9.366e+00,9.461e+00,9.238e+00,1.023e+01,8.761e+00,9.440e+00,1.057e+01,1.224e+01,1.024e+01,1.079e+01,8.479e+00,1.024e+01,9.218e+00,9.097e+00,1.016e+01,9.206e+00,8.755e+00,1.031e+01,1.112e+01,9.241e+00,1.058e+01,8.826e+00,1.068e+01,9.772e+00,8.204e+00,1.044e+01,9.009e+00,8.740e+00,9.594e+00,8.395e+00,9.862e+00,8.436e+00,1.168e+01,1.044e+01,9.961e+00,9.931e+00,9.492e+00,9.084e+00,1.018e+01,8.938e+00,9.265e+00,9.540e+00,8.327e+00,1.017e+01,8.661e+00,9.327e+00,9.046e+00,1.039e+01,1.118e+01,1.062e+01,8.694e+00,1.104e+01,9.337e+00,9.560e+00,1.069e+01,7.902e+00
3.763e-02,7.458e-01,9.839e-01,1.311e+00,1.316e+00,2.087e+00,1.773e+00,2.061e+00,2.012e+00,3.119e+00,2.817e+00,3.218e+00,3.946e+00,2.836e+00,4.975e+00,4.114e+00,5.214e+00,4.177e+00,4.360e+00,4.611e+00,5.667e+00,6.442e+00,6.441e+00,7.267e+00,6.829e+00,5.726e+00,8.147e+00,9.003e+00,9.586e+00,7.955e+00,9.679e+00,8.999e+00,9.503e+00,8.671e+00,1.070e+01,1.019e+01,8.918e+00,8.824e+00,1.097e+01,8.736e+00,1.094e+01,1.133e+01,1.314e+01,1.052e+01,1.160e+01,9.596e+00,1.067e+01,9.759e+00,1.052e+01,1.110e+01,1.052e+01,8.843e+00,1.138e+01,1.197e+01,9.673e+00,1.172e+01,9.370e+00,1.022e+01,1.016e+01,9.252e+00,1.081e+01,9.667e+00,9.905e+00,1.006e+01,9.446e+00,1.141e+01,9.417e+00,1.079e+01,9.701e+00,1.073e+01,9.782e+00,1.064e+01,1.017e+01,1.161e+01,9.036e+00,9.081e+00,9.562e+00,8.533e+00,1.122e+01,9.391e+00,9.983e+00,9.794e+00,1.079e+01,1.165e+01,9.196e+00,9.308e+00,1.143e+01,8.358e+00,9.411e+00,1.147e+01,8.605e+00
1.460e-01,1.286e+00,1.209e+00,1.841e+00,1.417e+00,2.102e+00,2.091e+00,2.013e+00,2.544e+00,4.092e+00,3.212e+00,3.356e+00,4.660e+00,3.247e+00,5.418e+00,4.886e+00,6.354e+00,4.997e+00,5.643e+00,5.891e+00,7.133e+00,6.813e+00,6.628e+00,7.472e+00,7.654e+00,7.150e+00,8.164e+00,1.086e+01,1.004e+01,8.822e+00,1.005e+01,9.966e+00,1.080e+01,1.023e+01,1.158e+01,1.117e+01,9.860e+00,9.555e+00,1.296e+01,1.055e+01,1.246e+01,1.357e+01,1.500e+01,1.268e+01,1.208e+01,1.122e+01,1.219e+01,1.152e+01,1.287e+01,1.185e+01,1.228e+01,9.452e+00,1.189e+01,1.411e+01,1.191e+01,1.285e+01,1.185e+01,1.228e+01,1.311e+01,1.133e+01,1.185e+01,1.128e+01,1.214e+01,1.141e+01,1.138e+01,1.248e+01,1.078e+01,1.194e+01,1.088e+01,1.210e+01,1.128e+01,1.144e+01,1.149e+01,1.363e+01,1.008e+01,9.813e+00,1.059e+01,1.074e+01,1.416e+01,1.053e+01,1.184e+01,1.098e+01,1.131e+01,1.147e+01,1.205e+01,1.183e+01,1.191e+01,1.056e+01,1.115e+01,1.188e+01,1.033e+01
1.914e-01,1.123e+00,1.267e+00,1.662e+00,8.503e-01,1.600e+00,1.307e+00,1.522e+00,1.883e+00,3.383e+00,2.718e+00,3.324e+00,3.865e+00,2.906e+00,5.185e+00,4.117e+00,5.634e+00,4.428e+00,4.999e+00,5.458e+00,6.647e+00,4.525e+00,5.245e+00,5.281e+00,6.054e+00,6.397e+00,7.161e+00,8.393e+00,7.181e+00,7.458e+00,8.008e+00,7.665e+00,8.109e+00,7.152e+00,8.352e+00,8.578e+00,7.944e+00,7.096e+00,1.020e+01,8.670e+00,1.006e+01,1.087e+01,1.151e+01,1.003e+01,1.005e+01,7.874e+00,9.591e+00,1.034e+01,1.120e+01,9.056e+00,9.209e+00,8.546e+00,9.973e+00,1.122e+01,1.002e+01,1.056e+01,9.647e+00,1.046e+01,1.114e+01,8.659e+00,8.803e+00,9.852e+00,9.232e+00,9.390e+00,9.020e+00,1.061e+01,8.570e+00,1.010e+01,9.273e+00,9.975e+00,1.021e+01,9.652e+00,8.979e+00,1.205e+01,8.482e+00,8.495e+00,8.673e+00,8.439e+00,1.090e+01,9.432e+00,1.100e+01,9.122e+00,9.725e+00,9.721e+00,9.325e+00,9.697e+00,1.003e+01,8.783e+00,9.214e+00,1.023e+01,9.153e+00
6.745e-02,5.169e-01,6.578e-01,7.810e-01,5.282e-01,1.213e+00,9.717e-01,1.839e+00,1.689e+00,3.201e+00,2.619e+00,3.228e+00,3.525e+00,2.788e+00,4.240e+00,3.528e+00,4.170e+00,4.331e+00,3.998e+00,4.327e+00,5.428e+00,5.872e+00,6.299e+00,6.547e+00,6.269e+00,5.607e+00,6.321e+00,7.762e+00,8.090e+00,7.289e+00,8.286e+00,8.298e+00,9.335e+00,7.781e+00,9.505e+00,9.959e+00,8.685e+00,8.557e+00,1.197e+01,8.617e+00,1.242e+01,1.213e+01,1.415e+01,1.089e+01,1.080e+01,1.090e+01,1.186e+01,1.030e+01,1.247e+01,1.056e+01,1.055e+01,1.061e+01,1.158e+01,1.324e+01,1.094e+01,1.258e+01,1.028e+01,1.205e+01,1.209e+01,9.823e+00,1.157e+01,9.649e+00,1.155e+01,1.131e+01,1.047e+01,1.357e+01,9.776e+00,1.241e+01,1.071e+01,1.150e+01,1.060e+01,1.092e+01,1.222e+01,1.200e+01,9.133e+00,8.940e+00,1.065e+01,9.295e+00,1.298e+01,1.090e+01,1.140e+01,1.047e+01,1.071e+01,1.210e+01,1.117e+01,1.017e+01,1.295e+01,1.103e+01,1.043e+01,1.239e+01,9.037e+00
2.591e-01,1.478e+00,1.644e+00,1.348e+00,1.186e+00,2.015e+00,1.573e+00,2.234e+00,2.111e+00,3.557e+00,3.002e+00,3.359e+00,3.721e+00,3.065e+00,3.895e+00,4.144e+00,4.736e+00,4.461e+00,4.602e+00,5.001e+00,6.028e+00,5.451e+00,5.740e+00,7.221e+00,7.431e+00,5.475e+00,6.498e+00,8.555e+00,8.944e+00,8.122e+00,9.146e+00,8.266e+00,9.347e+00,7.247e+00,9.920e+00,1.017e+01,9.141e+00,9.018e+00,1.150e+01,9.627e+00,1.089e+01,1.285e+01,1.391e+01,1.108e+01,1.160e+01,1.066e+01,1.187e+01,1.144e+01,1.135e+01,1.134e+01,1.186e+01,9.747e+00,1.294e+01,1.343e+01,1.002e+01,1.322e+01,1.082e+01,1.242e+01,1.256e+01,1.087e+01,1.132e+01,1.164e+01,1.012e+01,1.235e+01,1.064e+01,1.159e+01,1.049e+01,1.290e+01,1.188e+01,1.175e+01,1.142e+01,1.207e+01,1.100e+01,1.256e+01,9.608e+00,9.927e+00,1.200e+01,9.594e+00,1.255e+01,1.146e+01,1.194e+01,1.069e+01,1.163e+01,1.274e+01,1.153e+01,1.123e+01,1.217e+01,9.588e+00,9.927e+00,1.354e+01,9.957e+00
2.407e-01,1.107e+00,1.276e+00,8.543e-01,7.619e-01,1.522e+00,1.335e+00,2.297e+00,1.887e+00,3.631e+00,3.192e+00,3.372e+00,4.592e+00,3.645e+00,4.614e+00,4.196e+00,4.032e+00,4.917e+00,4.512e+00,5.216e+00,5.998e+00,5.835e+00,6.160e+00,6.416e+00,7.134e+00,5.961e+00,7.302e+00,8.434e+00,9.171e+00,8.037e+00,8.599e+00,8.191e+00,9.648e+00,8.493e+00,9.007e+00,9.795e+00,7.599e+00,8.023e+00,1.124e+01,8.370e+00,1.095e+01,1.148e+01,1.270e+01,1.078e+01,1.165e+01,1.171e+01,1.153e+01,1.115e+01,1.147e+01,1.029e+01,1.218e+01,1.002e+01,1.131e+01,1.217e+01,1.027e+01,1.246e+01,1.040e+01,1.232e+01,1.302e+01,9.947e+00,1.076e+01,1.036e+01,1.013e+01,1.035e+01,1.084e+01,1.257e+01,8.827e+00,1.216e+01,1.100e+01,1.068e+01,1.051e+01,1.090e+01,1.196e+01,1.272e+01,1.001e+01,8.895e+00,1.166e+01,9.862e+00,1.252e+01,1.113e+01,1.107e+01,1.028e+01,1.103e+01,1.089e+01,9.996e+00,1.139e+01,1.183e+01,1.025e+01,1.108e+01,1.286e+01,9.800e+00
5.365e-02,6.335e-01,6.303e-01,1.102e+00,1.079e+00,1.662e+00,1.136e+00,1.898e+00,1.627e+00,3.060e+00,2.738e+00,2.843e+00,4.081e+00,2.540e+00,3.973e+00,3.341e+00,4.643e+00,4.121e+00,4.099e+00,4.712e+00,5.399e+00,5.269e+00,6.184e+00,6.080e+00,6.808e+00,6.209e+00,6.923e+00,8.323e+00,7.794e+00,6.715e+00,7.710e+00,7.167e+00,8.560e+00,7.279e+00,9.035e+00,9.625e+00,6.830e+00,7.535e+00,1.084e+01,7.698e+00,1.067e+01,1.169e+01,1.223e+01,1.195e+01,1.176e+01,1.046e+01,1.184e+01,9.617e+00,1.033e+01,1.002e+01,1.106e+01,9.616e+00,1.037e+01,1.208e+01,1.020e+01,1.185e+01,9.346e+00,1.129e+01,1.247e+01,9.516e+00,1.008e+01,1.008e+01,1.086e+01,1.072e+01,1.075e+01,1.190e+01,9.672e+00,1.077e+01,1.098e+01,1.014e+01,1.009e+01,1.109e+01,1.091e+01,1.182e+01,8.468e+00,8.187e+00,9.858e+00,9.282e+00,1.196e+01,8.973e+00,1.043e+01,1.033e+01,1.094e+01,1.021e+01,9.978e+00,9.996e+00,1.080e+01,9.450e+00,9.594e+00,1.215e+01,9.471e+00
1.279e-01,1.244e+00,1.336e+00,1.581e+00,8.479e-01,1.542e+00,1.226e+00,1.256e+00,2.050e+00,2.431e+00,2.444e+00,2.797e+00,4.096e+00,2.368e+00,4.751e+00,4.287e+00,5.393e+00,4.360e+00,4.658e+00,5.203e+00,5.654e+00,5.823e+00,6.460e+00,6.157e+00,6.503e+00,5.364e+00,8.110e+00,8.927e+00,8.899e+00,8.499e+00,8.710e+00,8.956e+00,9.317e+00,9.244e+00,1.037e+01,1.097e+01,9.715e+00,8.658e+00,1.209e+01,9.855e+00,1.253e+01,1.229e+01,1.311e+01,1.167e+01,1.250e+01,1.069e+01,1.239e+01,1.053e+01,1.257e+01,1.222e+01,1.224e+01,1.084e+01,1.207e+01,1.412e+01,1.261e+01,1.411e+01,1.138e+01,1.266e+01,1.360e+01,1.132e+01,1.189e+01,1.141e+01,1.205e+01,1.216e+01,1.180e+01,1.351e+01,1.099e+01,1.267e+01,1.065e+01,1.220e+01,1.122e+01,1.222e+01,1.230e+01,1.411e+01,1.174e+01,9.883e+00,1.219e+01,1.080e+01,1.363e+01,1.202e+01,1.131e+01,1.051e+01,1.290e+01,1.162e+01,1.197e+01,1.207e+01,1.336e+01,9.742e+00,1.161e+01,1.358e+01,1.056e+01
2.444e-01,1.640e+00,1.840e+00,1.771e+00,1.575e+00,2.547e+00,2.016e+00,2.213e+00,2.415e+00,3.366e+00,2.794e+00,3.440e+00,4.595e+00,3.171e+00,4.433e+00,4.972e+00,5.906e+00,4.437e+00,4.882e+00,4.458e+00,6.319e+00,5.780e+00,6.017e+00,5.992e+00,6.265e+00,4.434e+00,6.116e+00,8.550e+00,7.259e+00,7.822e+00,8.342e+00,9.229e+00,8.622e+00,7.993e+00,9.656e+00,8.834e+00,9.157e+00,7.725e+00,1.080e+01,9.005e+00,1.038e+01,1.149e+01,1.249e+01,1.099e+01,1.030e+01,9.584e+00,1.146e+01,1.095e+01,1.185e+01,1.129e+01,1.044e+01,9.617e+00,1.158e+01,1.294e+01,1.094e+01,1.144e+01,9.290e+00,1.215e+01,1.274e+01,8.702e+00,1.102e+01,1.017e+01,1.091e+01,1.074e+01,1.189e+01,1.169e+01,9.595e+00,1.211e+01,9.943e+00,1.131e+01,1.030e+01,9.365e+00,1.135e+01,1.216e+01,1.012e+01,8.959e+00,1.024e+01,8.670e+00,1.126e+01,1.038e+01,1.081e+01,1.059e+01,1.079e+01,1.169e+01,1.073e+01,1.122e+01,1.177e+01,1.001e+01,1.055e+01,1.142e+01,9.162e+00
9.250e-02,9.122e-01,1.220e+00,1.502e+00,7.392e-01,1.677e+00,9.202e-01,1.298e+00,1.776e+00,2.274e+00,1.845e+00,2.728e+00,2.652e+00,2.033e+00,3.900e+00,3.927e+00,4.232e+00,3.958e+00,3.915e+00,3.986e+00,4.807e+00,4.783e+00,4.688e+00,5.495e+00,5.300e+00,5.340e+00,6.810e+00,7.813e+00,7.375e+00,7.813e+00,8.224e+00,8.216e+00,9.241e+00,7.780e+00,1.086e+01,1.024e+01,9.693e+00,8.844e+00,1.114e+01,9.267e+00,1.117e+01,1.208e+01,1.343e+01,1.119e+01,1.147e+01,9.687e+00,1.298e+01,1.166e+01,1.269e+01,1.268e+01,1.216e+01,1.230e+01,1.317e+01,1.371e+01,1.462e+01,1.510e+01,1.304e+01,1.398e+01,1.432e+01,1.195e+01,1.172e+01,1.095e+01,1.143e+01,1.341e+01,1.120e+01,1.494e+01,1.205e+01,1.472e+01,1.111e+01,1.375e+01,1.315e+01,1.338e+01,1.218e+01,1.438e+01,1.106e+01,1.009e+01,1.226e+01,1.105e+01,1.408e+01,1.329e+01,1.248e+01,1.190e+01,1.321e+01,1.363e+01,1.184e+01,1.238e+01,1.421e+01,9.256e+00,1.219e+01,1.381e+01,1.144e+01
1.204e-01,1.230e+00,1.015e+00,1.715e+00,1.388e+00,2.135e+00,1.536e+00,2.167e+00,2.464e+00,3.314e+00,2.788e+00,2.661e+00,4.262e+00,2.871e+00,3.605e+00,3.621e+00,4.155e+00,3.053e+00,4.639e+00,4.492e+00,5.239e+00,4.346e+00,5.016e+00,4.416e+00,5.902e+00,4.924e+00,6.822e+00,7.933e+00,7.545e+00,7.952e+00,7.418e+00,8.580e+00,8.141e+00,8.061e+00,1.023e+01,9.636e+00,8.874e+00,8.111e+00,1.080e+01,7.909e+00,1.055e+01,1.109e+01,1.256e+01,1.204e+01,1.114e+01,9.458e+00,1.173e+01,1.137e+01,1.106e+01,1.234e+01,1.219e+01,1.046e+01,1.157e+01,1.297e+01,1.193e+01,1.275e+01,1.131e+01,1.215e+01,1.364e+01,1.001e+01,1.293e+01,1.079e+01,1.172e+01,1.257e+01,1.117e+01,1.182e+01,1.172e+01,1.290e+01,1.101e+01,1.187e+01,1.126e+01,1.357e+01,1.248e+01,1.430e+01,1.169e+01,9.066e+00,1.090e+01,9.240e+00,1.222e+01,1.039e+01,1.174e+01,1.241e+01,1.326e+01,1.230e+01,1.166e+01,1.180e+01,1.296e+01,1.159e+01,9.410e+00,1.249e+01,8.892e+00
2.535e-01,1.731e+00,1.534e+00,1.121e+00,1.556e+00,2.070e+00,1.635e+00,2.097e+00,2.073e+00,4.077e+00,3.112e+00,2.941e+00,3.900e+00,3.421e+00,3.624e+00,3.656e+00,3.708e+00,3.319e+00,3.891e+00,4.246e+00,5.571e+00,5.194e+00,4.540e+00,5.536e+00,5.425e+00,4.729e+00,6.138e+00,7.467e+00,7.556e+00,6.653e+00,7.637e+00,8.105e+00,7.852e+00,8.630e+00,9.897e+00,9.282e+00,9.893e+00,8.141e+00,1.149e+01,8.301e+00,1.011e+01,1.219e+01,1.287e+01,1.150e+01,1.088e+01,9.519e+00,1.170e+01,1.149e+01,1.218e+01,1.057e+01,1.230e+01,1.062e+01,1.247e+01,1.403e+01,1.251e+01,1.314e+01,1.137e+01,1.346e+01,1.434e+01,1.096e+01,1.268e+01,9.849e+00,1.177e+01,1.354e+01,1.130e+01,1.209e+01,1.126e+01,1.453e+01,1.104e+01,1.210e+01,1.143e+01,1.333e+01,1.197e+01,1.367e+01,1.153e+01,1.124e+01,1.094e+01,1.157e+01,1.432e+01,1.139e+01,1.197e+01,1.146e+01,1.282e+01,1.260e+01,1.201e+01,1.080e+01,1.358e+01,1.118e+01,1.166e+01,1.198e+01,9.092e+00
1.860e-01,8.671e-01,9.391e-01,1.372e+00,6.081e-01,1.109e+00,1.765e+00,1.280e+00,1.808e+00,2.504e+00,2.117e+00,2.324e+00,3.613e+00,2.114e+00,4.021e+00,3.385e+00,4.773e+00,3.646e+00,3.946e+00,3.841e+00,4.682e+00,4.665e+00,4.870e+00,4.815e+00,5.216e+00,5.108e+00,5.725e+00,7.806e+00,7.838e+00,7.438e+00,7.925e+00,6.572e+00,7.163e+00,7.779e+00,9.645e+00,9.359e+00,8.423e+00,6.803e+00,1.068e+01,8.481e+00,9.690e+00,1.177e+01,1.183e+01,1.044e+01,1.111e+01,9.934e+00,1.152e+01,9.876e+00,1.042e+01,1.199e+01,1.121e+01,1.032e+01,1.243e+01,1.239e+01,1.208e+01,1.158e+01,1.039e+01,1.137e+01,1.290e+01,1.132e+01,1.003e+01,1.061e+01,1.121e+01,1.235e+01,1.015e+01,1.182e+01,1.054e+01,1.167e+01,1.141e+01,1.212e+01,1.076e+01,1.050e+01,1.163e+01,1.313e+01,9.501e+00,9.588e+00,1.047e+01,8.954e+00,1.276e+01,1.126e+01,1.147e+01,1.175e+01,1.227e+01,1.077e+01,1.070e+01,1.139e+01,1.180e+01,1.005e+01,1.074e+01,1.219e+01,9.616e+00
2.718e-02,2.129e-01,4.672e-01,1.137e+00,7.971e-01,1.536e+00,1.240e+00,1.938e+00,1.539e+00,3.377e+00,2.706e+00,3.251e+00,3.827e+00,2.724e+00,4.814e+00,3.726e+00,5.121e+00,4.782e+00,4.558e+00,5.417e+00,6.602e+00,5.646e+00,6.238e+00,5.838e+00,6.316e+00,5.844e+00,6.938e+00,9.302e+00,8.927e+00,8.555e+00,9.259e+00,8.312e+00,9.489e+00,8.607e+00,9.487e+00,9.678e+00,8.440e+00,7.936e+00,1.086e+01,8.400e+00,1.070e+01,1.127e+01,1.256e+01,1.083e+01,1.229e+01,1.012e+01,1.253e+01,1.188e+01,1.314e+01,1.325e+01,1.439e+01,1.327e+01,1.344e+01,1.440e+01,1.356e+01,1.399e+01,1.413e+01,1.402e+01,1.563e+01,1.511e+01,1.242e+01,1.276e+01,1.262e+01,1.405e+01,1.109e+01,1.425e+01,1.158e+01,1.429e+01,1.315e+01,1.429e+01,1.331e+01,1.356e+01,1.411e+01,1.562e+01,1.289e+01,1.165e+01,1.300e+01,1.035e+01,1.420e+01,1.386e+01,1.307e+01,1.390e+01,1.412e+01,1.347e+01,1.184e+01,1.338e+01,1.529e+01,1.148e+01,1.225e+01,1.532e+01,1.187e+01
5.225e-02,6.379e-01,5.041e-01,1.247e+00,1.386e+00,1.980e+00,1.643e+00,2.419e+00,2.012e+00,4.270e+00,3.225e+00,3.210e+00,4.670e+00,3.605e+00,4.768e+00,3.969e+00,5.307e+00,4.128e+00,4.850e+00,4.915e+00,5.771e+00,5.530e+00,5.875e+00,4.876e+00,5.711e+00,5.280e+00,5.942e+00,7.871e+00,7.873e+00,7.137e+00,7.589e+00,8.522e+00,9.546e+00,8.425e+00,9.056e+00,1.027e+01,9.192e+00,7.424e+00,1.100e+01,7.763e+00,1.080e+01,1.157e+01,1.336e+01,1.255e+01,1.258e+01,1.164e+01,1.308e+01,1.174e+01,1.328e+01,1.263e+01,1.422e+01,1.283e+01,1.371e+01,1.371e+01,1.403e+01,1.381e+01,1.409e+01,1.504e+01,1.611e+01,1.330e+01,1.394e+01,1.217e+01,1.352e+01,1.488e+01,1.230e+01,1.475e+01,1.282e+01,1.334e+01,1.265e+01,1.398e+01,1.320e+01,1.444e+01,1.508e+01,1.638e+01,1.353e+01,1.057e+01,1.348e+01,1.218e+01,1.424e+01,1.270e+01,1.264e+01,1.402e+01,1.373e+01,1.335e+01,1.335e+01,1.413e+01,1.481e+01,1.283e+01,1.188e+01,1.483e+01,1.201e+01
2.496e-01,1.781e+00,1.553e+00,1.293e+00,1.389e+00,1.974e+00,2.258e+00,2.549e+00,2.915e+00,4.296e+00,3.935e+00,3.548e+00,4.930e+00,3.630e+00,4.776e+00,4.640e+00,5.278e+00,4.284e+00,4.866e+00,4.716e+00,5.584e+00,5.292e+00,5.707e+00,6.414e+00,6.541e+00,4.822e+00,5.780e+00,7.235e+00,7.782e+00,6.605e+00,7.792e+00,8.144e+00,8.649e+00,7.699e+00,9.183e+00,1.076e+01,9.787e+00,8.463e+00,1.175e+01,9.376e+00,1.028e+01,1.187e+01,1.332e+01,1.163e+01,1.256e+01,1.090e+01,1.343e+01,1.238e+01,1.297e+01,1.218e+01,1.506e+01,1.320e+01,1.643e+01,1.621e+01,1.465e+01,1.581e+01,1.404e+01,1.489e+01,1.788e+01,1.406e+01,1.462e+01,1.350e+01,1.451e+01,1.675e+01,1.366e+01,1.417e+01,1.370e+01,1.617e+01,1.501e+01,1.486e+01,1.372e+01,1.475e+01,1.417e+01,1.634e+01,1.471e+01,1.233e+01,1.390e+01,1.270e+01,1.631e+01,1.401e+01,1.406e+01,1.525e+01,1.524e+01,1.463e+01,1.494e+01,1.368e+01,1.564e+01,1.283e+01,1.446e+01,1.583e+01,1.160e+01
3.949e-02,5.691e-01,4.676e-01,9.806e-01,1.148e+00,1.598e+00,1.446e+00,1.930e+00,1.698e+00,3.780e+00,2.754e+00,2.431e+00,3.384e+00,2.698e+00,3.335e+00,2.823e+00,3.588e+00,3.058e+00,3.377e+00,4.072e+00,4.573e+00,4.852e+00,4.495e+00,5.313e+00,5.330e+00,4.835e+00,5.542e+00,6.503e+00,7.738e+00,6.703e+00,8.207e+00,6.636e+00,7.733e+00,7.531e+00,9.105e+00,9.121e+00,8.531e+00,7.219e+00,1.087e+01,6.976e+00,9.626e+00,1.063e+01,1.170e+01,9.501e+00,1.122e+01,1.056e+01,1.193e+01,1.222e+01,1.177e+01,1.099e+01,1.264e+01,1.260e+01,1.414e+01,1.413e+01,1.336e+01,1.299e+01,1.387e+01,1.447e+01,1.540e+01,1.398e+01,1.248e+01,1.291e+01,1.310e+01,1.378e+01,1.154e+01,1.416e+01,1.266e+01,1.358e+01,1.310e+01,1.469e+01,1.255e+01,1.384e+01,1.316e+01,1.535e+01,1.295e+01,1.095e+01,1.234e+01,1.075e+01,1.466e+01,1.274e+01,1.258e+01,1.270e+01,1.292e+01,1.413e+01,1.242e+01,1.370e+01,1.454e+01,1.238e+01,1.285e+01,1.360e+01,1.036e+01
7.528e-03,7.609e-01,1.054e+00,1.802e+00,1.349e+00,2.430e+00,1.687e+00,2.022e+00,2.359e+00,3.620e+00,2.836e+00,4.019e+00,4.729e+00,2.686e+00,5.392e+00,4.919e+00,6.869e+00,5.336e+00,5.255e+00,5.652e+00,7.289e+00,7.149e+00,7.734e+00,6.530e+00,7.037e+00,6.469e+00,8.032e+00,1.032e+01,9.572e+00,9.259e+00,1.012e+01,9.514e+00,1.045e+01,1.002e+01,1.124e+01,1.086e+01,9.517e+00,8.759e+00,1.301e+01,9.892e+00,1.205e+01,1.374e+01,1.493e+01,1.347e+01,1.362e+01,1.218e+01,1.370e+01,1.259e+01,1.532e+01,1.371e+01,1.501e+01,1.334e+01,1.525e+01,1.665e+01,1.554e+01,1.562e+01,1.449e+01,1.640e+01,1.777e+01,1.587e+01,1.618e+01,1.430e+01,1.468e+01,1.551e+01,1.432e+01,1.745e+01,1.462e+01,1.597e+01,1.423e+01,1.644e+01,1.349e+01,1.437e+01,1.602e+01,1.845e+01,1.532e+01,1.241e+01,1.528e+01,1.361e+01,1.729e+01,1.504e+01,1.364e+01,1.499e+01,1.570e+01,1.625e+01,1.509e+01,1.583e+01,1.622e+01,1.347e+01,1.481e+01,1.731e+01,1.370e+01
3.178e-02,8.224e-01,7.846e-01,1.512e+00,1.122e+00,1.751e+00,1.550e+00,1.540e+00,2.107e+00,2.481e+00,2.294e+00,2.192e+00,3.443e+00,1.725e+00,3.391e+00,3.341e+00,4.281e+00,3.049e+00,3.429e+00,3.619e+00,4.761e+00,4.798e+00,5.434e+00,4.508e+00,4.897e+00,4.589e+00,5.650e+00,7.102e+00,6.126e+00,5.532e+00,6.813e+00,7.144e+00,7.172e+00,7.641e+00,8.476e+00,8.653e+00,7.310e+00,6.782e+00,1.019e+01,7.008e+00,8.875e+00,9.390e+00,1.031e+01,1.046e+01,1.059e+01,8.541e+00,1.107e+01,1.045e+01,1.168e+01,1.134e+01,1.280e+01,1.029e+01,1.273e+01,1.277e+01,1.199e+01,1.306e+01,1.263e+01,1.238e+01,1.458e+01,1.264e+01,1.254e+01,1.229e+01,1.131e+01,1.409e+01,1.171e+01,1.270e+01,1.126e+01,1.209e+01,1.234e+01,1.244e+01,1.125e+01,1.235e+01,1.245e+01,1.413e+01,1.167e+01,1.019e+01,1.096e+01,1.065e+01,1.318e+01,1.098e+01,1.218e+01,1.374e+01,1.327e+01,1.281e+01,1.195e+01,1.277e+01,1.387e+01,9.890e+00,1.151e+01,1.310e+01,9.536e+00
1.328e-01,1.285e+00,1.092e+00,1.429e+00,1.155e+00,1.707e+00,1.349e+00,1.943e+00,2.268e+00,3.881e+00,3.437e+00,3.232e+00,4.415e+00,3.051e+00,4.478e+00,4.189e+00,4.473e+00,3.935e+00,4.468e+00,4.942e+00,5.386e+00,5.572e+00,6.047e+00,6.095e+00,6.353e+00,5.186e+00,7.168e+00,8.132e+00,9.063e+00,7.948e+00,8.282e+00,8.232e+00,1.001e+01,8.434e+00,1.057e+01,1.025e+01,7.944e+00,8.062e+00,1.040e+01,7.715e+00,1.048e+01,1.134e+01,1.267e+01,1.194e+01,1.191e+01,1.075e+01,1.117e+01,1.019e+01,1.164e+01,1.247e+01,1.383e+01,1.193e+01,1.290e+01,1.355e+01,1.231e+01,1.419e+01,1.435e+01,1.475e+01,1.585e+01,1.322e+01,1.451e+01,1.437e+01,1.346e+01,1.468e+01,1.304e+01,1.402e+01,1.306e+01,1.497e+01,1.407e+01,1.448e+01,1.352e+01,1.499e+01,1.467e+01,1.642e+01,1.364e+01,1.141e+01,1.428e+01,1.204e+01,1.367e+01,1.393e+01,1.387e+01,1.438e+01,1.548e+01,1.486e+01,1.442e+01,1.458e+01,1.571e+01,1.361e+01,1.248e+01,1.455e+01,1.192e+01
1.852e-01,1.331e+00,1.132e+00,8.552e-01,1.109e+00,1.587e+00,1.760e+00,1.967e+00,2.220e+00,2.992e+00,2.520e+00,2.760e+00,3.233e+00,2.683e+00,3.375e+00,3.381e+00,4.440e+00,3.600e+00,4.884e+00,4.610e+00,5.847e+00,5.064e+00,5.189e+00,6.140e+00,6.621e+00,4.914e+00,5.381e+00,6.787e+00,7.392e+00,6.079e+00,6.966e+00,7.296e+00,7.323e+00,7.248e+00,8.775e+00,8.834e+00,9.260e+00,7.642e+00,1.050e+01,8.378e+00,9.356e+00,1.014e+01,1.161e+01,9.945e+00,1.077e+01,9.540e+00,1.172e+01,1.115e+01,1.068e+01,1.019e+01,1.136e+01,1.073e+01,1.412e+01,1.356e+01,1.195e+01,1.441e+01,1.254e+01,1.448e+01,1.591e+01,1.403e+01,1.387e+01,1.199e+01,1.403e+01,1.488e+01,1.195e+01,1.515e+01,1.494e+01,1.496e+01,1.327e+01,1.458e+01,1.403e+01,1.302e+01,1.322e+01,1.504e+01,1.278e+01,1.078e+01,1.390e+01,1.146e+01,1.373e+01,1.390e+01,1.220e+01,1.325e+01,1.452e+01,1.236e+01,1.372e+01,1.318e+01,1.390e+01,1.206e+01,1.193e+01,1.553e+01,1.116e+01
2.481e-01,9.828e-01,9.026e-01,5.152e-01,8.924e-01,1.155e+00,1.294e+00,1.745e+00,1.149e+00,4.076e+00,2.629e+00,2.463e+00,3.661e+00,3.374e+00,3.304e+00,3.427e+00,3.534e+00,3.678e+00,3.201e+00,3.921e+00,4.722e+00,5.294e+00,4.914e+00,5.348e+00,5.333e+00,4.102e+00,4.618e+00,5.921e+00,6.454e+00,6.567e+00,7.244e+00,6.877e+00,7.358e+00,7.054e+00,8.171e+00,9.313e+00,9.127e+00,7.859e+00,9.642e+00,7.052e+00,8.776e+00,9.739e+00,1.169e+01,1.112e+01,1.117e+01,9.387e+00,1.200e+01,1.007e+01,9.903e+00,1.138e+01,1.149e+01,1.163e+01,1.410e+01,1.351e+01,1.218e+01,1.241e+01,1.248e+01,1.390e+01,1.595e+01,1.299e+01,1.403e+01,1.229e+01,1.322e+01,1.519e+01,1.239e+01,1.502e+01,1.277e+01,1.467e+01,1.440e+01,1.420e+01,1.370e+01,1.316e+01,1.296e+01,1.405e+01,1.279e+01,1.107e+01,1.464e+01,1.221e+01,1.306e+01,1.233e+01,1.277e+01,1.310e+01,1.457e+01,1.323e+01,1.304e+01,1.324e+01,1.467e+01,1.319e+01,1.219e+01,1.534e+01,1.001e+01
1.618e-01,7.106e-01,8.704e-01,8.926e-01,4.759e-01,1.130e+00,1.357e+00,1.847e+00,1.798e+00,3.568e+00,2.804e+00,3.273e+00,4.142e+00,3.201e+00,4.739e+00,4.256e+00,4.288e+00,4.960e+00,4.718e+00,5.352e+00,6.627e+00,6.447e+00,6.374e+00,6.913e+00,7.497e+00,6.506e+00,7.743e+00,9.255e+00,9.793e+00,9.092e+00,1.030e+01,9.007e+00,9.613e+00,9.764e+00,1.183e+01,1.174e+01,1.113e+01,9.965e+00,1.264e+01,8.941e+00,1.172e+01,1.290e+01,1.529e+01,1.327e+01,1.349e+01,1.107e+01,1.371e+01,1.308e+01,1.331e+01,1.454e+01,1.557e+01,1.431e+01,1.656e+01,1.611e+01,1.507e+01,1.715e+01,1.526e+01,1.647e+01,1.925e+01,1.748e+01,1.778e+01,1.537e+01,1.659e+01,1.851e+01,1.523e+01,1.840e+01,1.480e+01,1.900e+01,1.667e+01,1.798e+01,1.678e+01,1.749e+01,1.743e+01,1.900e+01,1.637e+01,1.503e+01,1.686e+01,1.453e+01,1.769e+01,1.679e+01,1.685e+01,1.703e+01,1.812e+01,1.668e+01,1.619e+01,1.620e+01,1.907e+01,1.562e+01,1.551e+01,1.861e+01,1.267e+01
9.379e-02,6.771e-01,6.749e-01,5.810e-01,5.285e-01,1.030e+00,8.177e-01,1.477e+00,1.453e+00,2.245e+00,1.980e+00,2.555e+00,3.340e+00,2.438e+00,3.685e+00,3.691e+00,4.024e+00,4.725e+00,4.842e+00,5.208e+00,5.647e+00,4.973e+00,5.622e+00,5.424e+00,7.045e+00,5.603e+00,6.280e+00,7.179e+00,6.644e+00,5.945e+00,6.676e+00,6.651e+00,7.810e+00,6.117e+00,8.093e+00,8.341e+00,7.902e+00,7.892e+00,9.388e+00,7.956e+00,9.968e+00,1.027e+01,1.155e+01,1.078e+01,1.150e+01,9.339e+00,1.076e+01,9.202e+00,1.042e+01,1.113e+01,1.278e+01,9.537e+00,1.115e+01,1.212e+01,1.084e+01,1.321e+01,1.097e+01,1.331e+01,1.505e+01,1.312e+01,1.195e+01,1.207e+01,1.295e+01,1.366e+01,1.273e+01,1.443e+01,1.287e+01,1.355e+01,1.319e+01,1.336e+01,1.392e+01,1.341e+01,1.246e+01,1.574e+01,1.190e+01,1.034e+01,1.329e+01,1.095e+01,1.248e+01,1.334e+01,1.263e+01,1.344e+01,1.349e+01,1.188e+01,1.273e+01,1.361e+01,1.441e+01,1.191e+01,1.195e+01,1.557e+01,1.141e+01
2.409e-01,1.155e+00,1.053e+00,1.128e+00,7.971e-01,1.181e+00,1.664e+00,1.592e+00,1.800e+00,3.143e+00,2.571e+00,2.048e+00,4.110e+00,2.919e+00,3.902e+00,4.009e+00,4.135e+00,3.857e+00,4.208e+00,4.801e+00,4.872e+00,5.084e+00,5.374e+00,4.210e+00,5.524e+00,4.462e+00,7.105e+00,8.679e+00,8.080e+00,8.173e+00,8.000e+00,7.238e+00,8.277e+00,8.344e+00,8.323e+00,8.936e+00,8.501e+00,7.706e+00,1.145e+01,8.786e+00,1.103e+01,1.293e+01,1.293e+01,1.234e+01,1.191e+01,1.065e+01,1.202e+01,1.178e+01,1.354e+01,1.281e+01,1.451e+01,1.165e+01,1.428e+01,1.520e+01,1.503e+01,1.423e+01,1.511e+01,1.568e+01,1.826e+01,1.741e+01,1.523e+01,1.618e+01,1.586e+01,1.692e+01,1.364e+01,1.656e+01,1.601e+01,1.674e+01,1.600e+01,1.650e+01,1.535e+01,1.686e+01,1.745e+01,1.856e+01,1.644e+01,1.251e+01,1.593e+01,1.350e+01,1.732e+01,1.615e+01,1.530e+01,1.658e+01,1.729e+01,1.650e+01,1.526e+01,1.677e+01,1.768e+01,1.588e+01,1.446e+01,1.661e+01,1.282e+01
5.978e-02,2.492e-01,2.596e-01,5.357e-01,8.718e-01,1.233e+00,1.076e+00,1.735e+00,1.014e+00,3.339e+00,2.491e+00,2.736e+00,3.927e+00,2.955e+00,3.944e+00,3.760e+00,3.818e+00,3.982e+00,3.645e+00,3.641e+00,4.977e+00,5.033e+00,5.216e+00,5.271e+00,5.909e+00,5.289e+00,6.234e+00,8.263e+00,7.338e+00,7.177e+00,8.188e+00,7.912e+00,8.689e+00,7.504e+00,9.151e+00,8.988e+00,8.703e+00,9.080e+00,1.097e+01,8.400e+00,1.053e+01,1.188e+01,1.360e+01,1.216e+01,1.180e+01,1.010e+01,1.262e+01,1.241e+01,1.243e+01,1.301e+01,1.418e+01,1.317e+01,1.654e+01,1.466e+01,1.539e+01,1.657e+01,1.596e+01,1.660e+01,1.937e+01,1.660e+01,1.588e+01,1.542e+01,1.645e+01,1.630e+01,1.481e+01,1.763e+01,1.738e+01,1.917e+01,1.816e+01,1.705e+01,1.734e+01,1.869e+01,1.616e+01,1.921e+01,1.582e+01,1.407e+01,1.609e+01,1.471e+01,1.618e+01,1.577e+01,1.680e+01,1.815e+01,1.683e+01,1.769e+01,1.573e+01,1.628e+01,1.880e+01,1.513e+01,1.622e+01,1.920e+01,1.262e+01
3.294e-02,7.811e-01,6.118e-01,1.494e+00,8.401e-01,1.292e+00,1.314e+00,1.483e+00,2.092e+00,2.798e+00,2.701e+00,2.330e+00,3.182e+00,1.984e+00,4.048e+00,3.454e+00,4.612e+00,3.382e+00,4.229e+00,4.677e+00,4.585e+00,4.810e+00,5.583e+00,5.229e+00,5.777e+00,5.586e+00,6.987e+00,7.926e+00,7.623e+00,6.458e+00,7.534e+00,7.951e+00,8.919e+00,8.234e+00,9.522e+00,1.026e+01,8.855e+00,7.654e+00,1.058e+01,9.217e+00,1.009e+01,1.157e+01,1.262e+01,1.114e+01,1.149e+01,9.473e+00,1.197e+01,1.043e+01,1.423e+01,1.241e+01,1.524e+01,1.229e+01,1.377e+01,1.552e+01,1.345e+01,1.559e+01,1.568e+01,1.496e+01,1.734e+01,1.777e+01,1.565e+01,1.566e+01,1.630e+01,1.791e+01,1.501e+01,1.774e+01,1.709e+01,1.654e+01,1.779e+01,1.685e+01,1.774e+01,1.846e+01,1.690e+01,1.974e+01,1.483e+01,1.364e+01,1.606e+01,1.407e+01,1.767e+01,1.660e+01,1.598e+01,1.863e+01,1.683e+01,1.674e+01,1.728e+01,1.698e+01,1.889e+01,1.457e+01,1.624e+01,1.803e+01,1.385e+01
1.039e-01,8.184e-01,7.229e-01,9.019e-01,5.154e-01,1.048e+00,1.242e+00,1.585e+00,2.009e+00,2.940e+00,2.393e+00,2.775e+00,3.478e+00,2.318e+00,3.467e+00,3.358e+00,3.399e+00,3.937e+00,4.634e+00,5.155e+00,4.691e+00,5.572e+00,4.935e+00,5.198e+00,6.513e+00,5.107e+00,6.278e+00,8.032e+00,9.211e+00,7.812e+00,7.714e+00,7.980e+00,8.457e+00,9.152e+00,9.767e+00,9.366e+00,9.711e+00,8.030e+00,9.383e+00,8.584e+00,9.508e+00,9.975e+00,1.185e+01,1.003e+01,1.136e+01,8.937e+00,9.834e+00,1.116e+01,1.206e+01,1.207e+01,1.289e+01,1.113e+01,1.318e+01,1.424e+01,1.141e+01,1.389e+01,1.350e+01,1.394e+01,1.522e+01,1.541e+01,1.419e+01,1.444e+01,1.342e+01,1.523e+01,1.213e+01,1.436e+01,1.297e+01,1.593e+01,1.476e+01,1.561e+01,1.577e+01,1.536e+01,1.446e+01,1.630e+01,1.347e+01,1.297e+01,1.554e+01,1.349e+01,1.644e+01,1.424e+01,1.465e+01,1.466e+01,1.615e+01,1.435e+01,1.527e+01,1.566e+01,1.682e+01,1.398e+01,1.414e+01,1.614e+01,1.269e+01
2.596e-01,1.675e+00,1.770e+00,2.008e+00,1.397e+00,2.284e+00,2.463e+00,2.231e+00,2.874e+00,3.493e+00,3.325e+00,3.623e+00,5.065e+00,3.356e+00,5.617e+00,5.224e+00,6.514e+00,4.482e+00,5.655e+00,4.973e+00,6.869e+00,6.761e+00,7.232e+00,7.129e+00,7.225e+00,6.225e+00,8.172e+00,9.521e+00,9.296e+00,7.774e+00,8.991e+00,8.962e+00,9.087e+00,8.908e+00,1.066e+01,9.890e+00,8.676e+00,7.468e+00,1.090e+01,8.576e+00,1.000e+01,1.128e+01,1.243e+01,1.134e+01,1.121e+01,1.038e+01,1.179e+01,1.168e+01,1.220e+01,1.237e+01,1.411e+01,1.176e+01,1.427e+01,1.521e+01,1.387e+01,1.490e+01,1.454e+01,1.499e+01,1.727e+01,1.522e+01,1.635e+01,1.551e+01,1.637e+01,1.605e+01,1.600e+01,1.989e+01,1.712e+01,1.846e+01,1.719e+01,1.716e+01,1.736e+01,1.662e+01,1.700e+01,1.971e+01,1.586e+01,1.300e+01,1.700e+01,1.474e+01,1.847e+01,1.720e+01,1.623e+01,1.861e+01,1.776e+01,1.621e+01,1.703e+01,1.680e+01,1.906e+01,1.586e+01,1.649e+01,1.715e+01,1.358e+01
4.401e-02,9.247e-01,1.197e+00,1.415e+00,9.555e-01,1.962e+00,1.196e+00,1.792e+00,2.188e+00,2.169e+00,2.109e+00,2.667e+00,2.791e+00,2.124e+00,3.645e+00,3.614e+00,3.475e+00,3.382e+00,3.490e+00,3.312e+00,4.039e+00,4.314e+00,4.120e+00,4.974e+00,4.968e+00,4.830e+00,5.736e+00,6.626e+00,6.799e+00,6.105e+00,7.184e+00,7.076e+00,7.681e+00,6.428e+00,7.845e+00,7.426e+00,6.435e+00,6.529e+00,8.718e+00,6.430e+00,8.242e+00,9.227e+00,1.041e+01,8.558e+00,9.176e+00,8.714e+00,9.166e+00,9.136e+00,1.210e+01,1.172e+01,1.365e+01,1.101e+01,1.120e+01,1.319e+01,1.279e+01,1.313e+01,1.378e+01,1.353e+01,1.523e+01,1.371e+01,1.450e+01,1.346e+01,1.382e+01,1.474e+01,1.352e+01,1.578e+01,1.432e+01,1.757e+01,1.551e+01,1.541e+01,1.506e+01,1.550e+01,1.597e+01,1.860e+01,1.494e+01,1.348e+01,1.528e+01,1.445e+01,1.655e+01,1.618e+01,1.342e+01,1.717e+01,1.636e+01,1.682e+01,1.523e+01,1.493e+01,1.806e+01,1.388e+01,1.437e+01,1.566e+01,1.233e+01
3.002e-02,4.217e-01,5.973e-01,1.568e+00,8.720e-01,1.763e+00,1.041e+00,2.018e+00,1.837e+00,3.614e+00,2.902e+00,3.547e+00,4.652e+00,2.914e+00,4.727e+00,4.340e+00,5.755e+00,4.845e+00,5.330e+00,5.898e+00,5.467e+00,5.592e+00,6.698e+00,5.023e+00,7.003e+00,5.837e+00,7.623e+00,8.334e+00,8.669e+00,8.845e+00,9.023e+00,8.607e+00,9.778e+00,8.332e+00,9.290e+00,1.101e+01,1.055e+01,7.886e+00,1.203e+01,8.566e+00,1.169e+01,1.135e+01,1.332e+01,1.217e+01,1.347e+01,1.016e+01,1.383e+01,1.216e+01,1.299e+01,1.356e+01,1.413e+01,1.488e+01,1.490e+01,1.601e+01,1.538e+01,1.555e+01,1.519e+01,1.540e+01,1.796e+01,1.595e+01,1.702e+01,1.610e+01,1.676e+01,1.713e+01,1.535e+01,1.949e+01,1.743e+01,2.020e+01,1.891e+01,1.879e+01,1.649e+01,1.755e+01,1.918e+01,2.155e+01,1.762e+01,1.468e+01,1.857e+01,1.609e+01,1.819e+01,1.685e+01,1.777e+01,1.904e+01,1.930e+01,1.922e+01,1.619e+01,1.836e+01,2.134e+01,1.739e+01,1.724e+01,2.029e+01,1.419e+01
9.134e-02,1.111e+00,1.037e+00,9.808e-01,9.072e-01,1.357e+00,1.107e+00,1.512e+00,1.855e+00,2.856e+00,2.676e+00,2.688e+00,3.430e+00,2.475e+00,4.107e+00,3.934e+00,4.274e+00,4.313e+00,4.536e+00,5.537e+00,4.766e+00,5.366e+00,5.543e+00,6.105e+00,6.967e+00,5.483e+00,7.293e+00,7.307e+00,7.717e+00,7.306e+00,8.260e+00,6.911e+00,9.937e+00,7.291e+00,9.330e+00,1.041e+01,8.888e+00,8.499e+00,1.110e+01,8.782e+00,1.232e+01,1.179e+01,1.295e+01,1.131e+01,1.198e+01,1.060e+01,1.247e+01,1.032e+01,1.219e+01,1.199e+01,1.394e+01,1.335e+01,1.455e+01,1.502e+01,1.419e+01,1.470e+01,1.360e+01,1.424e+01,1.765e+01,1.449e+01,1.478e+01,1.473e+01,1.760e+01,1.624e+01,1.616e+01,1.879e+01,1.647e+01,1.895e+01,1.667e+01,1.858e+01,1.654e+01,1.795e+01,1.942e+01,2.001e+01,1.680e+01,1.286e+01,1.577e+01,1.536e+01,1.755e+01,1.757e+01,1.646e+01,1.805e+01,1.760e+01,1.736e+01,1.587e+01,1.786e+01,1.798e+01,1.584e+01,1.764e+01,1.908e+01,1.456e+01
8.307e-02,1.136e+00,8.242e-01,1.021e+00,1.260e+00,1.711e+00,1.172e+00,2.196e+00,2.151e+00,4.332e+00,3.540e+00,3.757e+00,4.380e+00,3.369e+00,4.578e+00,3.966e+00,4.863e+00,4.459e+00,5.273e+00,6.052e+00,6.966e+00,6.356e+00,6.993e+00,6.976e+00,7.870e+00,6.575e+00,7.517e+00,8.300e+00,8.502e+00,7.314e+00,8.578e+00,8.906e+00,9.775e+00,8.858e+00,1.069e+01,1.097e+01,9.439e+00,8.808e+00,1.241e+01,9.070e+00,1.172e+01,1.267e+01,1.470e+01,1.361e+01,1.392e+01,1.215e+01,1.473e+01,1.306e+01,1.469e+01,1.358e+01,1.603e+01,1.354e+01,1.498e+01,1.645e+01,1.487e+01,1.773e+01,1.567e+01,1.664e+01,1.884e+01,1.760e+01,1.668e+01,1.625e+01,1.634e+01,1.926e+01,1.541e+01,1.944e+01,1.710e+01,1.851e+01,1.830e+01,1.913e+01,1.806e+01,1.820e+01,1.848e+01,2.152e+01,1.662e+01,1.474e+01,1.904e+01,1.517e+01,1.832e+01,1.709e+01,1.784e+01,1.979e+01,1.911e+01,1.898e+01,1.744e+01,1.785e+01,2.096e+01,1.602e+01,1.594e+01,2.088e+01,1.502e+01
8.265e-02,1.086e+00,1.078e+00,1.278e+00,1.259e+00,2.047e+00,1.202e+00,2.086e+00,2.125e+00,3.658e+00,2.856e+00,3.237e+00,4.132e+00,3.190e+00,4.368e+00,4.912e+00,4.369e+00,4.824e+00,4.840e+00,5.151e+00,5.713e+00,5.346e+00,5.024e+00,5.630e+00,6.446e+00,5.285e+00,5.977e+00,7.453e+00,7.067e+00,7.735e+00,7.908e+00,7.763e+00,8.949e+00,6.979e+00,8.742e+00,8.973e+00,7.707e+00,9.057e+00,1.138e+01,8.724e+00,1.102e+01,1.091e+01,1.267e+01,1.085e+01,1.257e+01,1.041e+01,1.253e+01,1.133e+01,1.160e+01,1.143e+01,1.247e+01,1.234e+01,1.279e+01,1.337e+01,1.300e+01,1.355e+01,1.235e+01,1.506e+01,1.637e+01,1.226e+01,1.344e+01,1.333e+01,1.590e+01,1.381e+01,1.403e+01,1.676e+01,1.543e+01,1.691e+01,1.617e+01,1.645e+01,1.728e+01,1.473e+01,1.709e+01,1.877e+01,1.578e+01,1.246e+01,1.560e+01,1.459e+01,1.617e+01,1.549e+01,1.528e+01,1.839e+01,1.664e+01,1.667e+01,1.731e+01,1.694e+01,1.839e+01,1.534e+01,1.418e+01,1.747e+01,1.406e+01
6.696e-03,4.925e-01,8.018e-01,1.356e+00,1.333e+00,2.159e+00,1.204e+00,1.861e+00,1.461e+00,3.108e+00,2.413e+00,3.245e+00,3.626e+00,2.482e+00,4.046e+00,3.848e+00,5.032e+00,4.108e+00,4.347e+00,4.868e+00,5.835e+00,5.522e+00,5.552e+00,5.827e+00,6.490e+00,5.066e+00,5.924e+00,7.459e+00,7.792e+00,6.920e+00,8.242e+00,7.756e+00,9.612e+00,7.342e+00,9.051e+00,9.199e+00,8.388e+00,8.058e+00,1.007e+01,7.816e+00,1.051e+01,1.090e+01,1.216e+01,1.089e+01,1.162e+01,9.523e+00,1.110e+01,1.138e+01,1.216e+01,1.201e+01,1.387e+01,1.229e+01,1.315e+01,1.475e+01,1.219e+01,1.369e+01,1.282e+01,1.614e+01,1.762e+01,1.620e+01,1.650e+01,1.576e+01,1.638e+01,1.695e+01,1.549e+01,1.764e+01,1.669e+01,1.921e+01,1.864e+01,1.947e+01,1.853e+01,1.812e+01,1.948e+01,2.201e+01,1.685e+01,1.735e+01,1.980e+01,1.681e+01,1.917e+01,1.728e+01,1.676e+01,1.913e+01,1.900e+01,1.922e+01,1.798e+01,1.838e+01,2.080e+01,1.717e+01,1.505e+01,2.058e+01,1.518e+01
8.542e-02,6.604e-01,1.006e+00,1.224e+00,1.080e+00,2.021e+00,1.397e+00,2.049e+00,1.766e+00,3.379e+00,2.634e+00,3.647e+00,4.281e+00,2.792e+00,4.334e+00,4.587e+00,5.235e+00,5.211e+00,4.755e+00,5.035e+00,5.998e+00,6.789e+00,6.629e+00,6.608e+00,7.129e+00,5.625e+00,6.112e+00,8.322e+00,8.523e+00,7.150e+00,8.514e+00,7.901e+00,1.049e+01,8.197e+00,9.555e+00,9.152e+00,8.148e+00,7.796e+00,1.143e+01,8.146e+00,1.143e+01,1.211e+01,1.314e+01,1.196e+01,1.173e+01,1.131e+01,1.177e+01,1.114e+01,1.290e+01,1.183e+01,1.350e+01,1.164e+01,1.264e+01,1.402e+01,1.288e+01,1.429e+01,1.260e+01,1.495e+01,1.744e+01,1.505e+01,1.504e+01,1.431e+01,1.488e+01,1.569e+01,1.516e+01,1.736e+01,1.506e+01,1.946e+01,1.763e+01,1.737e+01,1.651e+01,1.705e+01,2.082e+01,2.087e+01,1.653e+01,1.605e+01,1.882e+01,1.705e+01,1.946e+01,1.703e+01,1.683e+01,1.782e+01,1.883e+01,2.036e+01,1.736e+01,1.891e+01,2.046e+01,1.730e+01,1.721e+01,2.017e+01,1.503e+01
3.727e-03,5.971e-01,4.230e-01,1.103e+00,1.044e+00,1.398e+00,9.458e-01,1.263e+00,1.396e+00,2.631e+00,2.189e+00,2.695e+00,4.063e+00,2.619e+00,4.607e+00,3.687e+00,5.446e+00,4.078e+00,5.144e+00,5.124e+00,5.770e+00,5.514e+00,5.931e+00,4.952e+00,6.569e+00,6.576e+00,7.382e+00,8.644e+00,7.446e+00,6.760e+00,7.650e+00,8.193e+00,9.153e+00,8.384e+00,9.716e+00,9.428e+00,8.793e+00,7.792e+00,9.965e+00,7.082e+00,1.061e+01,1.137e+01,1.287e+01,1.282e+01,1.124e+01,9.690e+00,1.114e+01,9.622e+00,1.236e+01,1.260e+01,1.353e+01,1.172e+01,1.210e+01,1.410e+01,1.374e+01,1.390e+01,1.367e+01,1.505e+01,1.680e+01,1.370e+01,1.544e+01,1.375e+01,1.538e+01,1.509e+01,1.496e+01,1.682e+01,1.470e+01,1.652e+01,1.445e+01,1.697e+01,1.642e+01,1.763e+01,1.767e+01,2.132e+01,1.731e+01,1.499e+01,1.675e+01,1.687e+01,1.726e+01,1.596e+01,1.539e+01,1.759e+01,1.800e+01,1.780e+01,1.702e+01,1.753e+01,1.886e+01,1.568e+01,1.550e+01,1.872e+01,1.481e+01
1.307e-01,1.302e+00,1.268e+00,2.043e+00,1.331e+00,2.187e+00,2.058e+00,2.343e+00,2.923e+00,4.008e+00,3.640e+00,3.485e+00,4.788e+00,2.987e+00,5.119e+00,4.199e+00,6.249e+00,4.332e+00,5.299e+00,5.943e+00,6.185e+00,5.421e+00,6.425e+00,5.523e+00,6.233e+00,5.109e+00,7.712e+00,9.398e+00,9.779e+00,9.255e+00,9.408e+00,8.474e+00,9.391e+00,9.097e+00,1.028e+01,1.044e+01,9.627e+00,7.638e+00,1.143e+01,9.294e+00,1.038e+01,1.171e+01,1.280e+01,1.064e+01,1.259e+01,1.108e+01,1.319e+01,1.322e+01,1.334e+01,1.341e+01,1.549e+01,1.438e+01,1.630e+01,1.637e+01,1.533e+01,1.489e+01,1.644e+01,1.644e+01,1.843e+01,1.780e+01,1.627e+01,1.704e+01,1.708e+01,1.791e+01,1.444e+01,1.826e+01,1.863e+01,1.924e+01,1.923e+01,2.103e+01,2.011e+01,2.004e+01,2.105e+01,2.259e+01,2.051e+01,1.595e+01,2.025e+01,1.694e+01,2.230e+01,1.978e+01,1.908e+01,2.103e+01,2.237e+01,1.958e+01,1.827e+01,2.122e+01,2.148e+01,1.942e+01,1.812e+01,2.095e+01,1.543e+01
1.206e-01,8.160e-01,7.628e-01,7.749e-01,5.079e-01,9.396e-01,8.800e-01,1.500e+00,1.573e+00,2.519e+00,2.311e+00,2.457e+00,2.820e+00,2.338e+00,3.409e+00,2.716e+00,3.977e+00,3.536e+00,4.269e+00,4.854e+00,5.182e+00,4.139e+00,4.795e+00,5.218e+00,6.058e+00,4.799e+00,6.085e+00,7.833e+00,7.610e+00,6.687e+00,7.060e+00,7.353e+00,8.381e+00,7.221e+00,8.066e+00,9.054e+00,9.223e+00,8.596e+00,1.011e+01,8.902e+00,1.046e+01,1.145e+01,1.229e+01,1.053e+01,1.133e+01,9.356e+00,1.160e+01,1.221e+01,1.239e+01,1.184e+01,1.381e+01,1.214e+01,1.391e+01,1.515e+01,1.401e+01,1.475e+01,1.403e+01,1.492e+01,1.789e+01,1.503e+01,1.641e+01,1.525e+01,1.599e+01,1.818e+01,1.537e+01,1.832e+01,1.718e+01,1.926e+01,1.867e+01,1.944e+01,1.833e+01,1.885e+01,1.944e+01,2.140e+01,1.942e+01,1.757e+01,1.929e+01,1.757e+01,2.061e+01,2.016e+01,2.125e+01,2.124e+01,2.178e+01,1.987e+01,2.011e+01,2.090e+01,2.334e+01,1.715e+01,1.855e+01,2.163e+01,1.547e+01
1.653e-01,1.140e+00,9.251e-01,5.174e-01,7.829e-01,1.006e+00,9.987e-01,1.416e+00,1.465e+00,3.035e+00,2.383e+00,2.738e+00,3.370e+00,3.026e+00,3.979e+00,3.231e+00,3.634e+00,3.643e+00,4.178e+00,4.365e+00,4.839e+00,4.809e+00,4.681e+00,5.419e+00,5.881e+00,5.129e+00,5.722e+00,6.931e+00,6.204e+00,6.341e+00,6.957e+00,7.405e+00,8.473e+00,6.602e+00,8.447e+00,8.784e+00,9.079e+00,8.860e+00,1.128e+01,8.769e+00,1.148e+01,1.208e+01,1.317e+01,1.144e+01,1.238e+01,1.123e+01,1.220e+01,1.149e+01,1.253e+01,1.255e+01,1.329e+01,1.252e+01,1.423e+01,1.496e+01,1.493e+01,1.601e+01,1.458e+01,1.666e+01,1.890e+01,1.608e+01,1.566e+01,1.608e+01,1.761e+01,1.861e+01,1.557e+01,1.968e+01,1.825e+01,1.955e+01,2.011e+01,2.010e+01,1.958e+01,1.939e+01,1.978e+01,2.354e+01,1.969e+01,1.603e+01,2.015e+01,1.952e+01,2.166e+01,2.039e+01,1.985e+01,2.216e+01,2.204e+01,2.113e+01,2.191e+01,2.088e+01,2.315e+01,1.896e+01,1.946e+01,2.341e+01,1.727e+01
2.415e-01,1.488e+00,1.251e+00,1.216e+00,1.224e+00,1.534e+00,2.062e+00,1.671e+00,2.121e+00,3.913e+00,3.053e+00,2.556e+00,4.420e+00,3.166e+00,4.257e+00,4.304e+00,4.488e+00,3.913e+00,4.394e+00,4.780e+00,5.191e+00,6.584e+00,5.741e+00,6.198e+00,6.280e+00,5.270e+00,7.155e+00,7.760e+00,8.689e+00,7.194e+00,8.649e+00,7.298e+00,8.625e+00,8.891e+00,1.046e+01,9.879e+00,9.596e+00,8.821e+00,1.132e+01,8.679e+00,1.084e+01,1.202e+01,1.329e+01,1.201e+01,1.227e+01,1.123e+01,1.163e+01,1.096e+01,1.243e+01,1.358e+01,1.518e+01,1.224e+01,1.556e+01,1.737e+01,1.433e+01,1.459e+01,1.511e+01,1.627e+01,1.764e+01,1.697e+01,1.639e+01,1.579e+01,1.681e+01,1.815e+01,1.650e+01,1.833e+01,1.743e+01,1.869e+01,1.873e+01,1.916e+01,1.938e+01,1.816e+01,2.026e+01,2.244e+01,1.800e+01,1.801e+01,2.038e+01,1.805e+01,2.175e+01,2.076e+01,2.032e+01,2.174e+01,2.296e+01,2.127e+01,2.013e+01,2.064e+01,2.326e+01,1.963e+01,1.943e+01,2.086e+01,1.622e+01
3.066e-02,2.090e-01,5.743e-01,1.243e+00,2.870e-01,1.080e+00,8.844e-01,9.562e-01,1.307e+00,1.440e+00,1.082e+00,2.008e+00,2.312e+00,1.343e+00,3.009e+00,2.926e+00,3.610e+00,3.150e+00,3.236e+00,2.954e+00,4.330e+00,4.449e+00,4.528e+00,4.938e+00,4.923e+00,4.739e+00,5.100e+00,6.562e+00,6.113e+00,5.357e+00,6.210e+00,5.806e+00,6.065e+00,5.946e+00,7.155e+00,6.670e+00,6.358e+00,5.591e+00,8.595e+00,6.329e+00,8.402e+00,9.337e+00,9.257e+00,9.179e+00,9.179e+00,8.448e+00,9.276e+00,1.050e+01,1.134e+01,1.099e+01,1.174e+01,1.072e+01,1.204e+01,1.209e+01,1.188e+01,1.181e+01,1.193e+01,1.342e+01,1.414e+01,1.243e+01,1.258e+01,1.280e+01,1.295e+01,1.524e+01,1.180e+01,1.534e+01,1.408e+01,1.555e+01,1.580e+01,1.689e+01,1.559e+01,1.458e+01,1.607e+01,1.909e+01,1.414e+01,1.420e+01,1.731e+01,1.405e+01,1.748e+01,1.705e+01,1.646e+01,1.799e+01,1.802e+01,1.700e+01,1.715e+01,1.701e+01,2.002e+01,1.496e+01,1.473e+01,1.843e+01,1.456e+01
2.601e-01,1.646e+00,1.432e+00,1.049e+00,9.959e-01,1.512e+00,2.033e+00,2.035e+00,2.640e+00,4.239e+00,3.535e+00,3.512e+00,4.974e+00,3.620e+00,5.157e+00,5.398e+00,5.390e+00,5.400e+00,5.671e+00,5.929e+00,6.808e+00,7.144e+00,7.306e+00,7.402e+00,8.041e+00,6.529e+00,8.084e+00,9.237e+00,9.676e+00,9.015e+00,1.012e+01,8.394e+00,9.661e+00,8.723e+00,1.152e+01,1.079e+01,9.807e+00,9.682e+00,1.327e+01,8.957e+00,1.173e+01,1.250e+01,1.480e+01,1.224e+01,1.320e+01,1.148e+01,1.321e+01,1.214e+01,1.281e+01,1.349e+01,1.506e+01,1.393e+01,1.630e+01,1.610e+01,1.489e+01,1.662e+01,1.568e+01,1.532e+01,1.884e+01,1.643e+01,1.636e+01,1.566e+01,1.696e+01,1.823e+01,1.437e+01,1.835e+01,1.807e+01,2.042e+01,1.955e+01,1.844e+01,1.816e+01,1.821e+01,1.962e+01,2.240e+01,1.887e+01,1.660e+01,1.930e+01,1.862e+01,2.265e+01,2.131e+01,2.048e+01,2.244e+01,2.456e+01,2.258e+01,2.249e+01,2.148e+01,2.391e+01,1.984e+01,2.087e+01,2.366e+01,1.682e+01
1.499e-01,1.139e+00,9.652e-01,1.161e+00,1.160e+00,1.725e+00,1.370e+00,1.912e+00,2.005e+00,3.683e+00,2.729e+00,2.632e+00,3.368e+00,2.544e+00,3.046e+00,3.766e+00,3.995e+00,4.180e+00,4.280e+00,4.857e+00,6.178e+00,5.119e+00,4.895e+00,5.372e+00,5.726e+00,4.728e+00,5.047e+00,7.894e+00,7.535e+00,7.023e+00,7.990e+00,8.074e+00,7.772e+00,8.410e+00,9.616e+00,8.680e+00,8.614e+00,7.367e+00,1.002e+01,7.832e+00,8.687e+00,9.729e+00,1.162e+01,9.478e+00,1.018e+01,9.052e+00,1.152e+01,1.200e+01,1.213e+01,1.095e+01,1.226e+01,1.187e+01,1.419e+01,1.345e+01,1.239e+01,1.442e+01,1.444e+01,1.506e+01,1.739e+01,1.543e+01,1.411e+01,1.308e+01,1.447e+01,1.654e+01,1.250e+01,1.592e+01,1.498e+01,1.755e+01,1.677e+01,1.756e+01,1.607e+01,1.605e+01,1.756e+01,1.908e+01,1.526e+01,1.494e+01,1.695e+01,1.535e+01,1.968e+01,1.880e+01,1.959e+01,1.903e+01,2.038e+01,1.758e+01,1.928e+01,1.994e+01,2.006e+01,1.751e+01,1.820e+01,2.178e+01,1.575e+01
6.362e-02,2.446e-01,3.881e-01,1.244e+00,3.304e-01,9.231e-01,9.240e-01,1.162e+00,1.323e+00,2.855e+00,2.080e+00,2.157e+00,3.458e+00,2.286e+00,4.057e+00,3.815e+00,4.156e+00,4.192e+00,3.957e+00,4.621e+00,4.632e+00,5.189e+00,5.086e+00,4.906e+00,5.289e+00,5.012e+00,6.211e+00,7.012e+00,7.256e+00,7.028e+00,7.280e+00,7.106e+00,8.113e+00,7.905e+00,8.490e+00,8.464e+00,7.797e+00,7.607e+00,9.755e+00,7.718e+00,1.039e+01,9.947e+00,1.157e+01,1.099e+01,1.085e+01,8.848e+00,1.089e+01,1.001e+01,1.209e+01,1.271e+01,1.286e+01,1.240e+01,1.262e+01,1.416e+01,1.271e+01,1.359e+01,1.383e+01,1.423e+01,1.645e+01,1.338e+01,1.369e+01,1.297e+01,1.477e+01,1.504e+01,1.363e+01,1.689e+01,1.581e+01,1.640e+01,1.634e+01,1.669e+01,1.586e+01,1.650e+01,1.835e+01,1.917e+01,1.623e+01,1.403e+01,1.676e+01,1.528e+01,1.754e+01,1.737e+01,1.748e+01,1.937e+01,1.965e+01,1.810e+01,1.794e+01,1.999e+01,2.165e+01,1.724e+01,1.598e+01,1.942e+01,1.494e+01
6.480e-02,7.996e-01,6.104e-01,9.057e-01,8.171e-01,1.333e+00,1.434e+00,1.814e+00,2.156e+00,3.488e+00,2.855e+00,3.563e+00,4.239e+00,2.976e+00,4.904e+00,3.645e+00,4.867e+00,4.508e+00,5.644e+00,5.746e+00,5.855e+00,6.021e+00,5.843e+00,5.434e+00,6.644e+00,6.227e+00,6.694e+00,8.627e+00,9.295e+00,8.059e+00,7.998e+00,8.162e+00,1.029e+01,9.070e+00,1.016e+01,9.739e+00,9.545e+00,8.502e+00,1.187e+01,8.688e+00,1.183e+01,1.170e+01,1.347e+01,1.122e+01,1.172e+01,1.082e+01,1.089e+01,1.180e+01,1.291e+01,1.318e+01,1.408e+01,1.303e+01,1.363e+01,1.456e+01,1.417e+01,1.490e+01,1.515e+01,1.527e+01,1.853e+01,1.678e+01,1.524e+01,1.435e+01,1.606e+01,1.807e+01,1.424e+01,1.725e+01,1.699e+01,1.987e+01,1.864e+01,1.863e+01,1.777e+01,1.891e+01,1.918e+01,2.368e+01,1.742e+01,1.630e+01,1.713e+01,1.789e+01,2.101e+01,2.065e+01,2.035e+01,2.246e+01,2.280e+01,2.253e+01,2.119e+01,2.152e+01,2.475e+01,1.897e+01,2.042e+01,2.207e+01,1.753e+01
7.012e-03,7.743e-01,7.818e-01,1.740e+00,1.070e+00,1.964e+00,1.528e+00,2.165e+00,2.646e+00,4.292e+00,3.465e+00,4.236e+00,4.901e+00,2.862e+00,5.341e+00,4.439e+00,5.627e+00,5.013e+00,5.018e+00,5.401e+00,6.219e+00,6.254e+00,6.589e+00,6.047e+00,6.083e+00,5.396e+00,5.775e+00,8.541e+00,7.852e+00,7.514e+00,7.785e+00,7.886e+00,9.802e+00,7.701e+00,1.001e+01,9.445e+00,8.012e+00,8.245e+00,1.174e+01,8.586e+00,1.202e+01,1.175e+01,1.334e+01,1.159e+01,1.233e+01,1.112e+01,1.269e+01,1.192e+01,1.245e+01,1.325e+01,1.395e+01,1.343e+01,1.470e+01,1.465e+01,1.483e+01,1.617e+01,1.518e+01,1.609e+01,1.927e+01,1.602e+01,1.557e+01,1.531e+01,1.643e+01,1.805e+01,1.514e+01,1.756e+01,1.663e+01,1.881e+01,1.863e+01,1.868e+01,1.743e+01,1.772e+01,1.903e+01,2.092e+01,1.784e+01,1.597e+01,1.734e+01,1.544e+01,1.936e+01,1.994e+01,2.129e+01,2.195e+01,2.267e+01,2.245e+01,2.159e+01,2.239e+01,2.476e+01,2.065e+01,2.055e+01,2.344e+01,1.856e+01
9.689e-02,7.045e-01,1.026e+00,1.249e+00,1.211e+00,2.103e+00,1.426e+00,2.238e+00,1.715e+00,3.666e+00,2.682e+00,3.272e+00,3.812e+00,3.362e+00,4.740e+00,3.907e+00,4.843e+00,4.611e+00,4.344e+00,5.015e+00,5.950e+00,6.310e+00,5.984e+00,7.355e+00,7.209e+00,6.886e+00,7.700e+00,9.003e+00,9.180e+00,7.937e+00,9.191e+00,8.621e+00,1.007e+01,8.521e+00,1.063e+01,1.040e+01,9.097e+00,8.525e+00,1.100e+01,8.789e+00,1.171e+01,1.307e+01,1.393e+01,1.290e+01,1.260e+01,1.166e+01,1.245e+01,1.212e+01,1.356e+01,1.322e+01,1.462e+01,1.353e+01,1.460e+01,1.552e+01,1.479e+01,1.466e+01,1.464e+01,1.602e+01,1.856e+01,1.499e+01,1.576e+01,1.528e+01,1.802e+01,1.734e+01,1.567e+01,1.916e+01,1.673e+01,1.902e+01,1.911e+01,1.977e+01,1.880e+01,1.844e+01,1.971e+01,2.164e+01,1.767e+01,1.750e+01,2.009e+01,1.847e+01,2.107e+01,1.937e+01,2.110e+01,2.096e+01,2.303e+01,2.132e+01,2.251e+01,2.160e+01,2.533e+01,2.012e+01,1.902e+01,2.298e+01,1.894e+01
2.465e-01,1.440e+00,1.684e+00,1.606e+00,7.504e-01,1.575e+00,1.743e+00,1.532e+00,2.303e+00,3.596e+00,2.984e+00,3.465e+00,4.696e+00,3.007e+00,5.229e+00,5.554e+00,5.741e+00,5.291e+00,4.945e+00,5.529e+00,6.377e+00,6.918e+00,7.110e+00,6.813e+00,6.989e+00,5.285e+00,7.486e+00,8.134e+00,8.873e+00,7.948e+00,8.746e+00,6.691e+00,9.406e+00,7.784e+00,9.707e+00,9.512e+00,8.028e+00,8.003e+00,1.142e+01,8.026e+00,1.013e+01,1.154e+01,1.260e+01,1.227e+01,1.267e+01,1.127e+01,1.189e+01,1.127e+01,1.236e+01,1.328e+01,1.572e+01,1.241e+01,1.416e+01,1.511e+01,1.401e+01,1.472e+01,1.435e+01,1.634e+01,1.718e+01,1.579e+01,1.557e+01,1.628e+01,1.509e+01,1.813e+01,1.424e+01,1.758e+01,1.737e+01,1.921e+01,1.806e+01,1.802e+01,1.824e+01,1.692e+01,1.814e+01,2.173e+01,1.774e+01,1.622e+01,2.147e+01,1.669e+01,1.844e+01,1.962e+01,1.891e+01,2.160e+01,2.353e+01,2.086e+01,2.153e+01,2.294e+01,2.443e+01,2.102e+01,2.197e+01,2.350e+01,1.937e+01
2.524e-01,1.237e+00,1.259e+00,1.416e+00,7.823e-01,1.495e+00,2.021e+00,2.149e+00,2.511e+00,4.838e+00,3.751e+00,4.128e+00,5.649e+00,3.981e+00,6.328e+00,5.646e+00,7.033e+00,6.323e+00,5.937e+00,6.308e+00,7.447e+00,6.720e+00,7.646e+00,6.993e+00,7.592e+00,6.901e+00,7.742e+00,1.049e+01,9.468e+00,9.632e+00,1.021e+01,9.390e+00,1.046e+01,8.951e+00,1.055e+01,1.071e+01,1.019e+01,9.551e+00,1.303e+01,9.445e+00,1.212e+01,1.322e+01,1.501e+01,1.339e+01,1.400e+01,1.146e+01,1.391e+01,1.310e+01,1.476e+01,1.494e+01,1.565e+01,1.504e+01,1.604e+01,1.658e+01,1.615e+01,1.675e+01,1.649e+01,1.702e+01,1.999e+01,1.694e+01,1.750e+01,1.706e+01,1.703e+01,1.947e+01,1.524e+01,1.899e+01,1.747e+01,1.934e+01,1.969e+01,1.849e+01,1.908e+01,1.832e+01,2.010e+01,2.339e+01,1.969e+01,1.669e+01,1.992e+01,1.717e+01,2.174e+01,2.194e+01,2.128e+01,2.190e+01,2.465e+01,2.227e+01,2.381e+01,2.345e+01,2.725e+01,2.349e+01,2.201e+01,2.619e+01,1.872e+01
1.515e-01,1.288e+00,1.263e+00,1.250e+00,1.552e+00,2.113e+00,1.474e+00,2.057e+00,1.830e+00,4.269e+00,3.292e+00,3.568e+00,4.666e+00,3.786e+00,5.139e+00,4.748e+00,5.079e+00,4.563e+00,4.819e+00,5.445e+00,7.159e+00,6.727e+00,6.245e+00,6.738e+00,7.020e+00,6.178e+00,7.526e+00,9.613e+00,9.400e+00,8.993e+00,1.003e+01,9.125e+00,1.050e+01,9.381e+00,1.060e+01,1.072e+01,8.781e+00,8.890e+00,1.147e+01,7.660e+00,1.166e+01,1.204e+01,1.378e+01,1.256e+01,1.279e+01,1.181e+01,1.294e+01,1.288e+01,1.295e+01,1.338e+01,1.429e+01,1.428e+01,1.651e+01,1.532e+01,1.567e+01,1.511e+01,1.626e+01,1.697e+01,1.838e+01,1.578e+01,1.686e+01,1.608e+01,1.686e+01,1.633e+01,1.526e+01,1.893e+01,1.501e+01,2.013e+01,1.628e+01,1.931e+01,1.897e+01,1.749e+01,2.066e+01,2.197e+01,1.942e+01,1.662e+01,1.994e+01,1.753e+01,2.026e+01,2.179e+01,2.039e+01,2.114e+01,2.101e+01,2.357e+01,2.117e+01,2.208e+01,2.440e+01,2.156e+01,2.139e+01,2.475e+01,1.882e+01
9.543e-02,1.154e+00,9.177e-01,1.231e+00,1.335e+00,1.869e+00,1.941e+00,2.051e+00,2.470e+00,3.470e+00,2.883e+00,3.038e+00,4.137e+00,2.709e+00,3.856e+00,3.736e+00,4.324e+00,3.474e+00,4.857e+00,4.769e+00,5.286e+00,6.072e+00,5.494e+00,5.250e+00,6.260e+00,5.182e+00,6.405e+00,7.976e+00,8.690e+00,6.961e+00,7.654e+00,7.871e+00,8.694e+00,9.506e+00,1.004e+01,9.282e+00,8.997e+00,7.106e+00,1.077e+01,8.041e+00,9.020e+00,1.019e+01,1.145e+01,1.024e+01,1.132e+01,1.005e+01,1.095e+01,1.094e+01,1.155e+01,1.090e+01,1.317e+01,1.076e+01,1.252e+01,1.315e+01,1.229e+01,1.300e+01,1.272e+01,1.341e+01,1.602e+01,1.438e+01,1.508e+01,1.275e+01,1.488e+01,1.556e+01,1.332e+01,1.630e+01,1.620e+01,1.769e+01,1.667e+01,1.656e+01,1.620e+01,1.668e+01,1.852e+01,2.080e+01,1.716e+01,1.555e+01,1.768e+01,1.767e+01,2.055e+01,1.755e+01,1.785e+01,2.093e+01,2.246e+01,2.019e+01,2.228e+01,2.188e+01,2.306e+01,2.072e+01,2.225e+01,2.270e+01,1.754e+01
7.367e-02,7.454e-01,6.879e-01,7.801e-01,7.958e-01,1.304e+00,1.462e+00,1.903e+00,1.994e+00,2.496e+00,2.578e+00,2.470e+00,3.298e+00,2.521e+00,3.980e+00,2.966e+00,4.216e+00,3.530e+00,4.005e+00,3.933e+00,5.258e+00,5.143e+00,6.033e+00,6.508e+00,6.346e+00,5.977e+00,7.075e+00,8.283e+00,7.962e+00,6.557e+00,8.377e+00,8.387e+00,9.020e+00,8.026e+00,1.008e+01,9.622e+00,8.433e+00,8.680e+00,1.157e+01,7.551e+00,1.105e+01,1.175e+01,1.354e+01,1.147e+01,1.144e+01,1.143e+01,1.247e+01,1.180e+01,1.311e+01,1.266e+01,1.426e+01,1.266e+01,1.478e+01,1.500e+01,1.393e+01,1.657e+01,1.500e+01,1.591e+01,1.779e+01,1.529e+01,1.727e+01,1.470e+01,1.627e+01,1.709e+01,1.538e+01,1.899e+01,1.672e+01,1.916e+01,1.805e+01,1.875e+01,1.911e+01,1.925e+01,1.901e+01,2.188e+01,1.747e+01,1.605e+01,1.893e+01,1.834e+01,2.079e+01,2.032e+01,2.011e+01,2.178e+01,2.344e+01,2.264e+01,2.077e+01,2.235e+01,2.515e+01,2.049e+01,2.141e+01,2.601e+01,1.846e+01
6.801e-03,4.667e-02,3.193e-01,9.672e-01,7.568e-01,1.524e+00,1.156e+00,1.887e+00,1.373e+00,3.300e+00,2.273e+00,3.275e+00,4.251e+00,2.945e+00,4.581e+00,3.989e+00,4.532e+00,4.691e+00,4.445e+00,4.707e+00,5.579e+00,6.451e+00,6.599e+00,5.880e+00,6.762e+00,5.838e+00,6.442e+00,8.078e+00,8.145e+00,7.421e+00,7.923e+00,8.007e+00,9.486e+00,7.810e+00,9.049e+00,9.438e+00,8.252e+00,8.155e+00,1.144e+01,7.766e+00,1.190e+01,1.129e+01,1.286e+01,1.251e+01,1.258e+01,1.055e+01,1.276e+01,1.226e+01,1.236e+01,1.359e+01,1.516e+01,1.380e+01,1.462e+01,1.459e+01,1.522e+01,1.497e+01,1.561e+01,1.646e+01,1.931e+01,1.706e+01,1.593e+01,1.524e+01,1.639e+01,1.769e+01,1.442e+01,1.880e+01,1.714e+01,1.964e+01,1.942e+01,1.959e+01,1.826e+01,1.872e+01,2.035e+01,2.228e+01,1.837e+01,1.595e+01,1.986e+01,1.715e+01,1.918e+01,1.973e+01,2.023e+01,2.250e+01,2.371e+01,2.174e+01,2.062e+01,2.318e+01,2.490e+01,2.214e+01,2.003e+01,2.486e+01,2.070e+01
