9.602e-01,5.372e-01,8.376e-01,6.094e-01,4.420e-01,5.347e-01,4.136e-01,1.066e-01,7.545e-01,4.697e-01,3.025e-03,1.665e-01,6.910e-01,9.076e-01,6.502e-01,7.282e-01,2.347e-01,9.087e-01,1.379e-01,7.351e-01,6.062e-01,5.984e-01,3.500e-01,5.902e-01,4.143e-01,8.439e-01,2.799e-01,1.704e-01,3.810e-01,5.069e-01,2.850e-01,2.069e-01,1.767e-01,3.917e-01,8.591e-01,6.020e-01,6.255e-01,4.441e-01,6.738e-01,7.866e-01,4.554e-01,9.216e-01,1.757e-01,4.559e-02,9.949e-01,1.023e-01,7.545e-01,5.547e-01,6.634e-01,6.509e-01,3.311e-01,4.088e-01,4.595e-02,8.942e-01
4.467e-01,8.531e-01,1.104e+00,1.120e+00,1.114e+00,1.097e+00,4.378e-01,5.147e-01,9.432e-01,3.117e-01,3.665e-01,2.390e-01,8.217e-01,1.100e+00,7.424e-01,7.663e-01,2.714e-01,9.257e-01,2.331e-01,5.679e-01,6.222e-01,5.911e-01,9.241e-01,4.036e-01,1.110e+00,7.647e-01,5.376e-01,6.218e-01,3.008e-01,1.140e+00,7.651e-01,4.409e-01,9.832e-01,6.389e-01,9.036e-01,1.235e+00,9.902e-01,7.582e-01,3.940e-01,1.230e+00,5.972e-01,1.195e+00,9.219e-01,3.001e-01,9.366e-01,2.089e-01,4.314e-01,2.806e-01,4.088e-01,1.232e+00,5.433e-01,2.119e-01,5.655e-01,1.200e+00
6.036e-01,8.046e-01,1.782e+00,1.330e+00,1.342e+00,1.459e+00,8.314e-01,1.396e+00,1.428e+00,1.076e+00,1.027e+00,1.185e+00,1.209e+00,1.659e+00,8.308e-01,1.432e+00,3.605e-01,1.645e+00,1.187e+00,1.162e+00,1.245e+00,1.113e+00,9.334e-01,5.286e-01,1.051e+00,1.653e+00,1.243e+00,1.250e+00,1.041e+00,1.692e+00,1.536e+00,4.055e-01,1.271e+00,8.251e-01,1.251e+00,1.581e+00,1.077e+00,1.552e+00,1.418e+00,1.241e+00,8.742e-01,1.768e+00,1.720e+00,8.809e-01,1.521e+00,2.567e-01,1.493e+00,1.194e+00,1.387e+00,1.937e+00,1.092e+00,5.207e-01,5.214e-01,1.838e+00
2.344e-01,6.252e-01,9.519e-01,1.786e+00,1.664e+00,1.758e+00,6.132e-01,1.155e+00,1.546e+00,1.085e+00,1.203e+00,1.297e+00,1.260e+00,9.882e-01,7.345e-01,1.112e+00,2.145e-01,1.332e+00,8.459e-01,1.214e+00,1.065e+00,6.121e-01,7.811e-01,9.806e-01,1.241e+00,1.699e+00,7.183e-01,1.202e+00,1.124e+00,2.008e+00,1.643e+00,1.155e+00,1.477e+00,1.441e+00,1.454e+00,1.051e+00,1.361e+00,8.511e-01,1.082e+00,1.869e+00,5.109e-01,1.572e+00,1.184e+00,8.743e-01,1.233e+00,6.100e-01,8.673e-01,1.203e+00,1.152e+00,1.409e+00,8.783e-01,7.576e-01,1.468e+00,1.838e+00
5.558e-01,4.070e-01,1.281e+00,1.450e+00,2.147e+00,2.436e+00,1.802e+00,1.526e+00,2.565e+00,1.763e+00,2.252e+00,1.785e+00,1.738e+00,2.153e+00,8.112e-01,2.423e+00,5.467e-01,2.067e+00,1.811e+00,2.096e+00,2.246e+00,1.393e+00,1.230e+00,1.688e+00,1.191e+00,2.740e+00,1.200e+00,1.973e+00,2.243e+00,1.935e+00,1.922e+00,1.338e+00,1.421e+00,1.431e+00,2.378e+00,1.255e+00,1.543e+00,1.839e+00,2.560e+00,1.745e+00,1.366e+00,2.383e+00,1.814e+00,1.506e+00,2.345e+00,7.140e-01,2.516e+00,2.569e+00,2.705e+00,2.467e+00,1.912e+00,1.095e+00,1.644e+00,2.352e+00
1.569e-01,2.565e-01,9.864e-01,1.320e+00,1.394e+00,1.785e+00,1.770e+00,2.433e+00,2.136e+00,1.805e+00,1.715e+00,1.801e+00,2.062e+00,1.702e+00,7.598e-01,1.482e+00,7.142e-01,2.216e+00,1.782e+00,1.577e+00,1.937e+00,1.104e+00,9.249e-01,1.678e+00,1.022e+00,2.849e+00,1.223e+00,1.912e+00,2.264e+00,2.306e+00,2.134e+00,1.077e+00,1.954e+00,1.593e+00,2.261e+00,1.663e+00,1.978e+00,1.267e+00,2.425e+00,1.500e+00,8.370e-01,1.939e+00,1.912e+00,1.948e+00,1.457e+00,8.415e-01,2.223e+00,1.871e+00,2.466e+00,2.415e+00,1.791e+00,1.512e+00,1.891e+00,2.180e+00
2.364e-02,4.758e-01,9.808e-01,8.846e-01,1.117e+00,1.295e+00,1.786e+00,1.953e+00,2.400e+00,1.397e+00,1.079e+00,1.120e+00,2.099e+00,2.214e+00,8.074e-01,1.050e+00,9.353e-01,1.901e+00,1.710e+00,1.343e+00,1.404e+00,1.479e+00,1.202e+00,1.289e+00,1.520e+00,2.451e+00,1.816e+00,2.164e+00,1.972e+00,1.975e+00,1.712e+00,1.116e+00,1.900e+00,1.063e+00,1.489e+00,1.819e+00,1.935e+00,1.554e+00,2.301e+00,1.164e+00,1.169e+00,2.210e+00,2.331e+00,1.759e+00,1.833e+00,1.188e+00,1.528e+00,1.366e+00,2.327e+00,2.467e+00,1.556e+00,1.511e+00,1.939e+00,1.994e+00
5.802e-01,7.463e-01,1.177e+00,1.766e+00,2.254e+00,2.494e+00,2.018e+00,2.057e+00,3.738e+00,1.770e+00,2.235e+00,1.788e+00,2.982e+00,3.104e+00,1.722e+00,2.172e+00,1.254e+00,2.910e+00,1.753e+00,2.173e+00,2.652e+00,2.347e+00,2.409e+00,2.406e+00,2.812e+00,3.365e+00,2.009e+00,2.316e+00,2.626e+00,3.163e+00,2.914e+00,2.064e+00,2.343e+00,2.154e+00,3.130e+00,2.497e+00,3.251e+00,2.243e+00,2.798e+00,3.066e+00,2.084e+00,3.526e+00,2.018e+00,1.759e+00,2.639e+00,1.784e+00,2.521e+00,2.996e+00,2.909e+00,3.321e+00,2.300e+00,2.329e+00,3.237e+00,3.268e+00
4.298e-01,6.732e-01,1.460e+00,1.168e+00,1.979e+00,2.283e+00,2.441e+00,2.479e+00,3.605e+00,2.264e+00,2.550e+00,2.451e+00,3.472e+00,3.534e+00,1.716e+00,2.345e+00,1.877e+00,3.920e+00,2.165e+00,1.883e+00,3.022e+00,2.577e+00,2.664e+00,2.334e+00,2.737e+00,3.510e+00,2.813e+00,2.647e+00,3.310e+00,3.066e+00,3.571e+00,1.799e+00,2.852e+00,2.560e+00,3.772e+00,3.148e+00,3.922e+00,3.153e+00,3.784e+00,2.968e+00,2.940e+00,4.314e+00,3.432e+00,2.292e+00,2.927e+00,1.616e+00,3.465e+00,3.465e+00,3.666e+00,4.525e+00,3.415e+00,2.409e+00,3.616e+00,3.065e+00
1.186e-01,3.988e-01,1.074e+00,8.266e-01,1.603e+00,1.760e+00,1.751e+00,1.433e+00,2.343e+00,1.680e+00,2.239e+00,2.034e+00,2.251e+00,2.939e+00,7.511e-01,2.716e+00,1.796e+00,2.911e+00,1.981e+00,1.614e+00,2.369e+00,1.934e+00,1.683e+00,1.608e+00,1.537e+00,2.700e+00,1.874e+00,2.836e+00,2.291e+00,2.304e+00,2.331e+00,1.821e+00,2.579e+00,2.147e+00,1.969e+00,1.973e+00,1.896e+00,2.375e+00,3.365e+00,1.614e+00,2.400e+00,2.968e+00,2.948e+00,1.762e+00,2.350e+00,1.053e+00,2.689e+00,2.630e+00,3.297e+00,2.763e+00,2.357e+00,1.535e+00,2.153e+00,2.445e+00
9.484e-01,8.063e-01,1.469e+00,1.251e+00,1.728e+00,2.103e+00,2.439e+00,2.272e+00,3.535e+00,2.294e+00,2.634e+00,2.744e+00,4.603e+00,3.772e+00,2.592e+00,3.409e+00,2.375e+00,4.603e+00,2.529e+00,2.817e+00,4.146e+00,3.664e+00,2.627e+00,3.108e+00,3.489e+00,4.460e+00,3.349e+00,2.974e+00,4.188e+00,3.675e+00,4.211e+00,2.363e+00,3.231e+00,3.743e+00,4.732e+00,3.762e+00,4.799e+00,2.861e+00,4.364e+00,3.799e+00,3.601e+00,4.775e+00,3.555e+00,2.820e+00,3.626e+00,1.862e+00,4.211e+00,3.652e+00,4.219e+00,4.962e+00,3.402e+00,3.017e+00,4.171e+00,3.652e+00
2.433e-03,2.525e-02,3.762e-01,1.020e+00,1.529e+00,1.874e+00,1.940e+00,1.950e+00,2.626e+00,1.946e+00,2.578e+00,3.395e+00,3.366e+00,2.190e+00,1.879e+00,3.037e+00,1.428e+00,3.424e+00,2.908e+00,3.313e+00,3.190e+00,2.316e+00,1.553e+00,2.728e+00,3.069e+00,4.475e+00,2.674e+00,3.502e+00,4.501e+00,3.195e+00,3.443e+00,2.412e+00,2.435e+00,2.988e+00,3.785e+00,2.328e+00,3.476e+00,1.678e+00,3.516e+00,2.641e+00,2.621e+00,3.354e+00,2.534e+00,2.806e+00,3.240e+00,2.349e+00,3.431e+00,3.413e+00,4.255e+00,4.221e+00,2.462e+00,2.266e+00,3.732e+00,3.140e+00
3.130e-01,2.144e-01,5.317e-01,8.240e-01,1.160e+00,1.389e+00,1.777e+00,1.541e+00,2.834e+00,1.772e+00,1.739e+00,2.520e+00,3.666e+00,2.887e+00,2.124e+00,2.735e+00,1.706e+00,3.759e+00,3.309e+00,3.498e+00,2.663e+00,3.040e+00,1.845e+00,2.424e+00,3.358e+00,4.491e+00,3.293e+00,3.863e+00,3.645e+00,3.029e+00,3.641e+00,2.156e+00,2.457e+00,3.144e+00,3.649e+00,2.610e+00,3.249e+00,2.724e+00,3.768e+00,2.721e+00,3.277e+00,3.814e+00,2.425e+00,2.547e+00,3.354e+00,2.259e+00,3.128e+00,3.227e+00,4.236e+00,3.656e+00,2.617e+00,2.297e+00,3.669e+00,3.523e+00
3.205e-01,7.181e-01,1.304e+00,1.141e+00,1.595e+00,1.798e+00,1.860e+00,1.924e+00,2.660e+00,1.858e+00,2.111e+00,2.298e+00,3.461e+00,3.568e+00,2.389e+00,2.989e+00,2.238e+00,4.828e+00,2.910e+00,2.286e+00,2.949e+00,2.736e+00,2.915e+00,2.536e+00,3.249e+00,3.758e+00,3.256e+00,3.680e+00,3.313e+00,3.836e+00,3.955e+00,1.944e+00,3.411e+00,4.146e+00,3.718e+00,3.142e+00,3.992e+00,2.992e+00,4.093e+00,3.034e+00,3.846e+00,4.264e+00,3.864e+00,2.787e+00,3.372e+00,2.355e+00,3.236e+00,3.634e+00,4.109e+00,4.372e+00,3.730e+00,2.164e+00,4.204e+00,3.225e+00
1.450e-01,5.661e-01,1.315e+00,1.569e+00,2.362e+00,2.657e+00,2.377e+00,2.522e+00,3.574e+00,2.416e+00,3.454e+00,4.137e+00,4.337e+00,4.325e+00,3.358e+00,5.087e+00,3.635e+00,6.710e+00,4.256e+00,4.660e+00,4.638e+00,3.542e+00,4.108e+00,3.887e+00,5.635e+00,6.393e+00,4.862e+00,5.596e+00,5.681e+00,5.323e+00,5.979e+00,3.769e+00,5.002e+00,5.229e+00,5.020e+00,3.993e+00,5.097e+00,3.664e+00,5.498e+00,3.899e+00,5.606e+00,6.016e+00,4.531e+00,4.241e+00,5.153e+00,4.347e+00,5.409e+00,6.157e+00,6.648e+00,6.993e+00,5.146e+00,3.403e+00,5.510e+00,4.971e+00
3.605e-01,7.066e-01,9.941e-01,1.278e+00,1.511e+00,1.577e+00,1.014e+00,1.086e+00,2.036e+00,9.675e-01,1.286e+00,1.818e+00,2.153e+00,2.304e+00,2.236e+00,2.659e+00,1.441e+00,3.610e+00,2.423e+00,3.218e+00,2.382e+00,1.976e+00,2.681e+00,2.700e+00,4.140e+00,3.219e+00,3.096e+00,3.715e+00,2.957e+00,3.921e+00,3.380e+00,2.133e+00,2.574e+00,3.035e+00,3.488e+00,2.543e+00,3.076e+00,2.279e+00,2.618e+00,2.902e+00,3.614e+00,4.166e+00,2.148e+00,2.125e+00,3.414e+00,3.181e+00,2.318e+00,3.520e+00,3.515e+00,3.801e+00,2.752e+00,2.356e+00,3.918e+00,3.044e+00
3.095e-01,2.377e-01,9.085e-01,8.251e-01,1.140e+00,1.341e+00,1.174e+00,1.477e+00,2.029e+00,1.938e+00,2.434e+00,3.122e+00,3.442e+00,2.772e+00,1.916e+00,3.727e+00,3.282e+00,5.159e+00,3.789e+00,3.912e+00,4.617e+00,3.903e+00,2.740e+00,3.074e+00,3.554e+00,4.454e+00,4.064e+00,5.133e+00,4.624e+00,4.997e+00,5.732e+00,3.156e+00,4.076e+00,5.039e+00,4.418e+00,3.066e+00,3.926e+00,3.981e+00,5.275e+00,3.700e+00,5.406e+00,5.268e+00,4.272e+00,3.469e+00,3.978e+00,2.524e+00,4.755e+00,4.516e+00,5.042e+00,4.343e+00,4.451e+00,3.887e+00,4.889e+00,3.836e+00
5.516e-01,5.581e-01,1.170e+00,9.257e-01,1.013e+00,1.259e+00,1.620e+00,1.874e+00,2.441e+00,1.771e+00,1.655e+00,2.779e+00,3.785e+00,3.031e+00,2.944e+00,3.138e+00,2.241e+00,5.127e+00,4.553e+00,3.820e+00,3.697e+00,4.009e+00,3.240e+00,3.819e+00,4.752e+00,4.994e+00,5.229e+00,5.353e+00,4.616e+00,4.504e+00,5.345e+00,3.181e+00,3.592e+00,4.821e+00,4.849e+00,3.445e+00,4.888e+00,3.790e+00,4.472e+00,4.051e+00,5.301e+00,4.835e+00,4.081e+00,4.023e+00,4.865e+00,3.456e+00,4.630e+00,4.512e+00,5.653e+00,5.571e+00,4.041e+00,3.315e+00,5.433e+00,4.585e+00
2.749e-01,4.283e-01,8.474e-01,1.400e+00,1.883e+00,2.129e+00,1.790e+00,1.950e+00,3.221e+00,2.303e+00,2.934e+00,3.401e+00,4.089e+00,3.228e+00,2.629e+00,3.663e+00,2.559e+00,5.176e+00,3.942e+00,3.920e+00,4.162e+00,3.998e+00,3.452e+00,3.991e+00,4.616e+00,4.913e+00,5.373e+00,5.435e+00,5.119e+00,4.863e+00,5.518e+00,4.510e+00,4.848e+00,5.211e+00,5.170e+00,3.961e+00,5.393e+00,4.071e+00,5.055e+00,5.363e+00,5.437e+00,6.227e+00,4.363e+00,4.447e+00,4.590e+00,3.859e+00,5.193e+00,5.376e+00,5.659e+00,5.947e+00,4.759e+00,3.664e+00,6.654e+00,4.747e+00
2.450e-01,4.325e-01,1.027e+00,9.517e-01,1.478e+00,1.625e+00,1.278e+00,1.363e+00,2.056e+00,1.348e+00,2.057e+00,2.407e+00,2.757e+00,2.949e+00,2.200e+00,3.542e+00,2.821e+00,4.753e+00,3.369e+00,4.053e+00,3.523e+00,3.606e+00,3.644e+00,2.931e+00,4.766e+00,4.379e+00,4.502e+00,5.035e+00,4.135e+00,4.287e+00,5.557e+00,3.755e+00,4.705e+00,3.885e+00,3.659e+00,4.053e+00,4.177e+00,3.732e+00,4.969e+00,3.741e+00,5.054e+00,4.803e+00,4.082e+00,3.169e+00,3.917e+00,3.110e+00,4.627e+00,4.496e+00,5.488e+00,5.089e+00,4.994e+00,2.540e+00,4.599e+00,4.343e+00
9.548e-01,1.118e+00,2.125e+00,1.911e+00,2.461e+00,2.741e+00,2.135e+00,2.286e+00,3.447e+00,1.962e+00,2.737e+00,2.403e+00,4.044e+00,4.751e+00,3.195e+00,4.615e+00,3.302e+00,6.343e+00,4.196e+00,4.512e+00,5.387e+00,4.973e+00,5.602e+00,4.430e+00,5.934e+00,6.116e+00,5.269e+00,6.103e+00,4.866e+00,6.401e+00,7.259e+00,4.421e+00,5.619e+00,5.383e+00,5.464e+00,6.010e+00,6.078e+00,5.410e+00,6.397e+00,6.055e+00,6.341e+00,6.716e+00,5.650e+00,4.054e+00,5.429e+00,3.413e+00,6.208e+00,5.582e+00,7.025e+00,6.315e+00,6.424e+00,3.562e+00,5.762e+00,6.622e+00
8.324e-01,7.308e-01,1.680e+00,1.551e+00,1.895e+00,2.278e+00,2.261e+00,2.420e+00,3.223e+00,2.323e+00,2.728e+00,3.727e+00,4.656e+00,4.268e+00,3.525e+00,5.087e+00,3.852e+00,7.069e+00,5.881e+00,5.974e+00,6.051e+00,5.781e+00,6.201e+00,5.954e+00,7.485e+00,8.628e+00,7.805e+00,8.125e+00,7.240e+00,6.693e+00,8.218e+00,6.688e+00,7.011e+00,7.024e+00,6.926e+00,7.127e+00,6.950e+00,6.777e+00,7.441e+00,7.779e+00,8.248e+00,8.037e+00,7.136e+00,6.560e+00,7.154e+00,4.834e+00,8.683e+00,6.909e+00,9.470e+00,9.257e+00,6.839e+00,4.483e+00,7.689e+00,8.047e+00
4.617e-01,7.020e-01,1.265e+00,1.804e+00,2.363e+00,2.636e+00,2.306e+00,2.438e+00,4.101e+00,2.251e+00,2.947e+00,3.376e+00,4.249e+00,4.429e+00,2.981e+00,4.179e+00,3.153e+00,5.919e+00,4.335e+00,4.707e+00,4.687e+00,4.476e+00,5.584e+00,5.148e+00,6.950e+00,7.651e+00,6.257e+00,6.629e+00,6.616e+00,6.376e+00,7.051e+00,5.887e+00,6.558e+00,6.008e+00,5.828e+00,5.736e+00,6.641e+00,5.932e+00,6.340e+00,6.375e+00,6.333e+00,7.795e+00,5.739e+00,5.548e+00,6.242e+00,5.155e+00,6.831e+00,6.621e+00,7.240e+00,7.843e+00,5.900e+00,4.585e+00,6.933e+00,6.832e+00
8.250e-01,6.985e-01,1.446e+00,1.655e+00,1.856e+00,2.168e+00,2.080e+00,2.170e+00,3.513e+00,2.416e+00,2.441e+00,3.026e+00,3.958e+00,3.932e+00,2.958e+00,3.953e+00,3.253e+00,5.985e+00,4.022e+00,4.609e+00,4.743e+00,4.389e+00,4.808e+00,5.016e+00,6.810e+00,6.710e+00,6.667e+00,5.875e+00,6.906e+00,6.763e+00,7.180e+00,5.310e+00,6.562e+00,6.357e+00,5.519e+00,5.860e+00,6.600e+00,5.112e+00,6.850e+00,6.542e+00,6.244e+00,7.206e+00,6.456e+00,4.620e+00,5.920e+00,5.303e+00,6.477e+00,6.077e+00,8.241e+00,7.233e+00,6.024e+00,4.772e+00,6.608e+00,6.271e+00
9.114e-04,2.590e-01,7.159e-01,1.195e+00,1.352e+00,1.561e+00,1.502e+00,1.903e+00,2.528e+00,2.006e+00,1.939e+00,2.986e+00,3.306e+00,2.695e+00,2.011e+00,3.028e+00,3.207e+00,5.118e+00,4.217e+00,4.826e+00,4.021e+00,4.048e+00,4.154e+00,4.166e+00,6.316e+00,7.125e+00,7.617e+00,7.324e+00,6.710e+00,6.502e+00,7.495e+00,5.969e+00,7.404e+00,5.849e+00,5.354e+00,5.633e+00,6.130e+00,6.018e+00,7.295e+00,6.740e+00,6.982e+00,6.961e+00,5.956e+00,5.417e+00,5.617e+00,5.806e+00,6.566e+00,5.837e+00,7.579e+00,6.778e+00,6.724e+00,4.708e+00,6.953e+00,6.781e+00
4.092e-01,3.650e-01,1.122e+00,1.463e+00,1.703e+00,1.944e+00,1.694e+00,1.963e+00,3.149e+00,2.469e+00,2.360e+00,3.097e+00,3.042e+00,3.203e+00,1.995e+00,3.079e+00,1.932e+00,4.756e+00,4.326e+00,3.403e+00,3.727e+00,3.494e+00,4.135e+00,4.984e+00,5.623e+00,6.777e+00,7.385e+00,7.263e+00,6.692e+00,7.058e+00,6.852e+00,5.205e+00,6.401e+00,5.944e+00,5.540e+00,4.329e+00,6.848e+00,5.876e+00,6.457e+00,6.694e+00,5.986e+00,7.579e+00,6.119e+00,5.437e+00,6.853e+00,5.923e+00,6.763e+00,7.237e+00,7.603e+00,6.592e+00,6.183e+00,5.229e+00,6.524e+00,7.128e+00
5.529e-01,6.884e-01,1.319e+00,1.768e+00,1.862e+00,2.224e+00,1.929e+00,2.332e+00,2.801e+00,2.285e+00,2.229e+00,2.820e+00,3.639e+00,3.162e+00,2.708e+00,3.539e+00,3.056e+00,6.008e+00,4.459e+00,4.593e+00,4.588e+00,4.177e+00,5.487e+00,5.955e+00,7.608e+00,8.087e+00,9.688e+00,8.507e+00,8.400e+00,8.257e+00,9.377e+00,7.397e+00,9.454e+00,8.254e+00,7.918e+00,7.636e+00,8.697e+00,7.873e+00,8.411e+00,8.903e+00,8.904e+00,9.263e+00,7.989e+00,7.235e+00,8.006e+00,7.041e+00,8.411e+00,8.356e+00,9.051e+00,9.338e+00,8.896e+00,6.271e+00,9.215e+00,8.509e+00
8.272e-02,1.975e-01,3.239e-01,8.823e-01,1.402e+00,1.718e+00,1.937e+00,1.595e+00,2.322e+00,1.925e+00,2.120e+00,2.831e+00,3.265e+00,2.686e+00,1.921e+00,3.039e+00,2.298e+00,4.781e+00,3.923e+00,3.539e+00,3.399e+00,3.236e+00,4.435e+00,5.304e+00,6.006e+00,6.977e+00,7.288e+00,7.401e+00,7.219e+00,6.445e+00,6.913e+00,6.592e+00,8.053e+00,7.444e+00,7.352e+00,5.423e+00,6.775e+00,7.010e+00,7.146e+00,7.413e+00,7.910e+00,7.230e+00,6.005e+00,6.761e+00,6.165e+00,6.308e+00,7.702e+00,6.674e+00,7.857e+00,8.227e+00,7.375e+00,4.468e+00,8.683e+00,6.842e+00
9.078e-01,6.712e-01,1.299e+00,1.388e+00,1.362e+00,1.589e+00,1.577e+00,1.516e+00,2.859e+00,2.322e+00,1.586e+00,2.451e+00,3.316e+00,3.283e+00,2.236e+00,2.972e+00,2.245e+00,5.100e+00,3.575e+00,3.545e+00,3.664e+00,3.401e+00,4.165e+00,4.953e+00,5.841e+00,6.554e+00,7.169e+00,6.297e+00,6.496e+00,7.590e+00,8.395e+00,6.249e+00,6.540e+00,7.349e+00,7.349e+00,6.564e+00,6.498e+00,7.018e+00,7.974e+00,7.834e+00,8.283e+00,8.067e+00,7.068e+00,4.796e+00,7.201e+00,6.224e+00,6.084e+00,7.320e+00,7.934e+00,6.835e+00,6.951e+00,5.749e+00,7.568e+00,7.469e+00
7.025e-01,6.392e-01,1.526e+00,1.930e+00,2.490e+00,2.872e+00,2.384e+00,2.372e+00,3.653e+00,2.318e+00,2.978e+00,2.882e+00,4.048e+00,3.662e+00,2.901e+00,4.519e+00,2.508e+00,5.391e+00,4.735e+00,5.645e+00,5.262e+00,4.783e+00,5.170e+00,5.769e+00,7.693e+00,7.686e+00,8.009e+00,7.390e+00,8.580e+00,8.457e+00,9.273e+00,7.783e+00,8.595e+00,8.476e+00,8.517e+00,8.257e+00,7.833e+00,7.713e+00,8.056e+00,8.538e+00,8.773e+00,1.007e+01,8.233e+00,7.436e+00,7.764e+00,6.733e+00,9.069e+00,8.101e+00,8.897e+00,9.476e+00,8.753e+00,6.828e+00,9.186e+00,8.014e+00
3.454e-01,2.076e-01,3.712e-01,8.067e-01,1.459e+00,1.829e+00,2.579e+00,1.985e+00,3.571e+00,2.374e+00,2.627e+00,2.760e+00,4.700e+00,4.204e+00,2.530e+00,3.889e+00,4.335e+00,6.408e+00,4.197e+00,4.231e+00,5.018e+00,4.431e+00,4.104e+00,4.567e+00,5.226e+00,6.906e+00,5.725e+00,6.481e+00,6.966e+00,6.928e+00,7.777e+00,6.645e+00,8.214e+00,8.399e+00,7.834e+00,5.719e+00,6.949e+00,6.677e+00,8.280e+00,6.265e+00,8.976e+00,7.895e+00,7.035e+00,6.868e+00,6.264e+00,5.760e+00,8.292e+00,6.909e+00,8.316e+00,7.194e+00,8.766e+00,6.792e+00,8.782e+00,6.989e+00
2.973e-01,2.365e-01,9.758e-01,1.244e+00,1.539e+00,1.839e+00,1.801e+00,2.069e+00,2.832e+00,2.286e+00,2.693e+00,3.618e+00,4.011e+00,3.512e+00,2.552e+00,4.248e+00,3.260e+00,5.931e+00,5.804e+00,5.314e+00,5.487e+00,5.585e+00,5.777e+00,6.165e+00,8.045e+00,9.062e+00,9.486e+00,9.285e+00,9.328e+00,8.877e+00,1.033e+01,8.761e+00,1.051e+01,8.982e+00,8.234e+00,8.215e+00,9.407e+00,8.958e+00,1.048e+01,9.818e+00,1.012e+01,9.915e+00,1.001e+01,8.527e+00,9.427e+00,7.390e+00,1.033e+01,9.082e+00,1.139e+01,1.002e+01,9.837e+00,6.846e+00,1.013e+01,1.023e+01
2.691e-01,5.536e-01,1.111e+00,1.661e+00,1.866e+00,2.086e+00,1.782e+00,2.276e+00,3.474e+00,2.548e+00,2.640e+00,3.459e+00,4.159e+00,3.572e+00,2.657e+00,3.500e+00,3.096e+00,5.797e+00,4.336e+00,4.166e+00,4.412e+00,4.245e+00,4.594e+00,4.942e+00,6.944e+00,7.239e+00,8.037e+00,7.164e+00,7.677e+00,8.381e+00,8.915e+00,7.256e+00,9.565e+00,8.308e+00,8.512e+00,7.525e+00,8.811e+00,8.022e+00,9.551e+00,8.912e+00,9.820e+00,1.030e+01,9.212e+00,7.431e+00,8.526e+00,8.087e+00,9.038e+00,8.818e+00,1.024e+01,8.996e+00,9.234e+00,6.838e+00,9.410e+00,9.074e+00
8.124e-01,7.449e-01,1.320e+00,1.383e+00,1.834e+00,2.014e+00,1.711e+00,1.302e+00,3.002e+00,1.925e+00,2.045e+00,2.235e+00,3.164e+00,3.101e+00,2.402e+00,3.346e+00,2.949e+00,4.939e+00,3.167e+00,4.384e+00,4.434e+00,4.033e+00,4.925e+00,4.779e+00,6.848e+00,7.021e+00,7.979e+00,6.959e+00,8.274e+00,8.140e+00,8.800e+00,7.498e+00,9.546e+00,8.976e+00,9.165e+00,8.514e+00,9.831e+00,8.371e+00,1.043e+01,9.518e+00,1.015e+01,1.055e+01,1.027e+01,8.242e+00,1.021e+01,7.964e+00,9.282e+00,9.761e+00,1.014e+01,9.712e+00,1.097e+01,7.618e+00,9.732e+00,8.722e+00
6.712e-01,8.750e-01,1.520e+00,1.661e+00,1.878e+00,2.161e+00,2.283e+00,2.469e+00,3.807e+00,2.620e+00,2.526e+00,3.362e+00,4.949e+00,4.484e+00,3.002e+00,4.072e+00,3.810e+00,6.436e+00,3.926e+00,4.447e+00,4.599e+00,4.512e+00,4.942e+00,4.694e+00,6.763e+00,8.347e+00,7.686e+00,7.183e+00,7.378e+00,7.850e+00,8.833e+00,7.506e+00,9.625e+00,8.265e+00,9.066e+00,8.288e+00,9.029e+00,8.366e+00,9.957e+00,8.633e+00,9.934e+00,1.099e+01,8.661e+00,7.950e+00,8.903e+00,7.383e+00,9.638e+00,9.290e+00,9.387e+00,1.042e+01,9.940e+00,7.320e+00,9.763e+00,1.002e+01
9.424e-01,1.103e+00,1.653e+00,2.081e+00,2.085e+00,2.362e+00,1.759e+00,2.204e+00,3.331e+00,2.420e+00,2.492e+00,3.182e+00,4.799e+00,4.361e+00,3.346e+00,4.137e+00,3.657e+00,7.108e+00,4.525e+00,4.701e+00,5.314e+00,5.413e+00,6.191e+00,5.782e+00,7.359e+00,7.566e+00,8.434e+00,8.416e+00,7.680e+00,9.532e+00,1.046e+01,8.901e+00,1.066e+01,1.044e+01,1.067e+01,1.093e+01,1.150e+01,9.524e+00,1.144e+01,1.178e+01,1.209e+01,1.329e+01,1.095e+01,9.342e+00,1.025e+01,8.135e+00,1.104e+01,1.049e+01,1.165e+01,1.100e+01,1.239e+01,8.530e+00,1.169e+01,1.197e+01
6.654e-01,8.349e-01,1.593e+00,2.090e+00,2.655e+00,2.948e+00,2.432e+00,2.240e+00,4.067e+00,2.898e+00,2.855e+00,3.136e+00,3.984e+00,4.067e+00,2.591e+00,3.982e+00,3.357e+00,6.374e+00,4.759e+00,4.882e+00,5.018e+00,4.342e+00,5.434e+00,5.774e+00,6.853e+00,7.244e+00,7.831e+00,7.748e+00,8.131e+00,8.692e+00,8.973e+00,7.965e+00,9.345e+00,8.958e+00,9.552e+00,7.463e+00,9.576e+00,8.103e+00,9.852e+00,1.010e+01,1.043e+01,1.152e+01,9.934e+00,8.413e+00,9.648e+00,8.150e+00,9.377e+00,9.771e+00,1.097e+01,1.100e+01,1.025e+01,8.471e+00,1.105e+01,9.841e+00
1.465e-01,3.195e-01,1.035e+00,1.161e+00,1.843e+00,2.224e+00,2.295e+00,2.740e+00,3.286e+00,1.989e+00,2.807e+00,2.861e+00,3.788e+00,3.495e+00,2.785e+00,3.715e+00,3.001e+00,5.626e+00,4.786e+00,4.478e+00,5.127e+00,4.550e+00,5.694e+00,5.684e+00,7.605e+00,7.342e+00,8.141e+00,7.406e+00,8.152e+00,8.139e+00,1.014e+01,7.674e+00,9.079e+00,7.344e+00,9.033e+00,7.997e+00,9.571e+00,8.781e+00,9.563e+00,9.660e+00,1.050e+01,1.082e+01,8.669e+00,8.972e+00,9.301e+00,8.291e+00,1.083e+01,9.330e+00,1.087e+01,1.102e+01,1.059e+01,8.063e+00,9.876e+00,1.080e+01
5.511e-01,8.855e-01,1.484e+00,1.867e+00,2.365e+00,2.720e+00,2.728e+00,2.705e+00,4.109e+00,2.830e+00,2.965e+00,3.368e+00,5.187e+00,4.839e+00,3.536e+00,4.541e+00,4.514e+00,7.830e+00,5.430e+00,5.128e+00,5.767e+00,5.289e+00,6.440e+00,6.283e+00,8.247e+00,9.214e+00,9.751e+00,9.210e+00,9.245e+00,9.515e+00,1.038e+01,8.148e+00,1.067e+01,1.154e+01,1.084e+01,9.492e+00,1.117e+01,1.060e+01,1.183e+01,1.166e+01,1.309e+01,1.284e+01,1.130e+01,1.134e+01,1.141e+01,1.040e+01,1.187e+01,1.118e+01,1.284e+01,1.295e+01,1.252e+01,9.879e+00,1.195e+01,1.171e+01
4.680e-01,8.398e-01,1.573e+00,1.463e+00,1.582e+00,1.717e+00,1.207e+00,1.958e+00,2.571e+00,1.940e+00,2.324e+00,3.279e+00,3.712e+00,3.223e+00,2.459e+00,3.102e+00,2.615e+00,5.054e+00,3.861e+00,3.265e+00,4.142e+00,4.647e+00,4.443e+00,4.052e+00,6.084e+00,6.077e+00,7.595e+00,6.822e+00,6.435e+00,7.308e+00,8.653e+00,6.436e+00,7.685e+00,7.258e+00,6.860e+00,7.514e+00,9.255e+00,7.515e+00,9.076e+00,9.749e+00,9.452e+00,1.065e+01,9.078e+00,7.740e+00,9.609e+00,6.928e+00,9.406e+00,9.050e+00,9.831e+00,9.805e+00,1.046e+01,8.236e+00,9.374e+00,1.008e+01
4.289e-01,4.732e-01,1.310e+00,1.456e+00,1.598e+00,1.930e+00,2.024e+00,2.556e+00,3.201e+00,2.324e+00,2.400e+00,2.986e+00,4.191e+00,3.862e+00,2.854e+00,3.901e+00,2.890e+00,5.879e+00,4.723e+00,4.801e+00,4.424e+00,4.527e+00,4.473e+00,4.778e+00,6.777e+00,7.275e+00,7.996e+00,7.464e+00,7.871e+00,8.367e+00,9.379e+00,7.445e+00,9.619e+00,9.190e+00,9.401e+00,9.154e+00,9.982e+00,8.664e+00,1.101e+01,9.569e+00,1.217e+01,1.365e+01,1.165e+01,1.018e+01,1.173e+01,9.662e+00,1.085e+01,1.170e+01,1.294e+01,1.206e+01,1.299e+01,1.076e+01,1.182e+01,1.117e+01
6.815e-01,5.341e-01,1.271e+00,1.301e+00,1.861e+00,2.270e+00,2.455e+00,2.425e+00,3.490e+00,2.305e+00,2.730e+00,2.671e+00,3.983e+00,3.774e+00,2.664e+00,3.966e+00,2.886e+00,5.524e+00,4.128e+00,4.352e+00,5.153e+00,4.530e+00,5.520e+00,6.151e+00,7.621e+00,7.632e+00,8.385e+00,6.952e+00,8.041e+00,8.354e+00,9.196e+00,7.908e+00,9.351e+00,9.074e+00,1.009e+01,8.649e+00,9.778e+00,8.467e+00,1.021e+01,1.090e+01,1.047e+01,1.101e+01,9.336e+00,9.375e+00,1.012e+01,9.190e+00,1.042e+01,9.739e+00,1.145e+01,1.154e+01,1.162e+01,9.276e+00,1.154e+01,1.096e+01
4.640e-01,5.034e-01,1.266e+00,9.432e-01,1.133e+00,1.430e+00,1.889e+00,2.203e+00,2.586e+00,1.846e+00,1.988e+00,2.405e+00,3.960e+00,3.215e+00,2.227e+00,3.314e+00,2.225e+00,4.363e+00,4.150e+00,3.913e+00,4.147e+00,4.611e+00,4.145e+00,4.729e+00,6.517e+00,6.425e+00,7.267e+00,6.290e+00,7.082e+00,7.352e+00,8.373e+00,6.631e+00,8.191e+00,7.686e+00,8.290e+00,7.706e+00,7.990e+00,7.588e+00,8.424e+00,9.305e+00,9.875e+00,1.035e+01,9.340e+00,9.656e+00,9.872e+00,9.225e+00,9.617e+00,8.443e+00,1.074e+01,1.194e+01,1.035e+01,9.688e+00,1.047e+01,9.995e+00
2.120e-01,7.180e-01,1.278e+00,1.903e+00,2.641e+00,2.938e+00,2.427e+00,2.464e+00,3.767e+00,2.533e+00,3.286e+00,4.061e+00,4.726e+00,3.962e+00,2.792e+00,4.386e+00,2.900e+00,5.954e+00,4.965e+00,4.831e+00,4.826e+00,4.506e+00,4.539e+00,5.179e+00,7.118e+00,7.018e+00,7.382e+00,7.686e+00,8.205e+00,8.045e+00,9.440e+00,8.057e+00,9.358e+00,1.009e+01,1.078e+01,8.635e+00,1.003e+01,9.147e+00,9.866e+00,1.020e+01,1.194e+01,1.277e+01,1.117e+01,1.113e+01,1.257e+01,1.013e+01,1.201e+01,1.167e+01,1.370e+01,1.406e+01,1.303e+01,1.190e+01,1.293e+01,1.197e+01
2.365e-01,1.977e-01,4.232e-01,8.160e-01,1.434e+00,1.716e+00,1.902e+00,1.518e+00,2.591e+00,1.438e+00,1.960e+00,2.251e+00,2.742e+00,2.596e+00,1.749e+00,2.845e+00,1.988e+00,3.645e+00,3.384e+00,3.688e+00,3.237e+00,3.339e+00,3.822e+00,4.293e+00,5.340e+00,6.039e+00,6.479e+00,6.230e+00,5.930e+00,5.230e+00,6.087e+00,6.471e+00,6.952e+00,6.372e+00,7.370e+00,7.253e+00,7.850e+00,6.999e+00,8.920e+00,9.006e+00,9.856e+00,1.017e+01,7.992e+00,8.846e+00,9.969e+00,8.962e+00,9.637e+00,9.841e+00,1.102e+01,1.130e+01,1.081e+01,8.600e+00,1.028e+01,1.044e+01
2.387e-01,1.483e-01,4.193e-01,3.987e-01,5.992e-01,8.654e-01,1.529e+00,1.775e+00,2.297e+00,1.640e+00,1.532e+00,2.359e+00,2.880e+00,2.514e+00,1.706e+00,2.054e+00,2.491e+00,4.284e+00,2.856e+00,3.171e+00,3.874e+00,3.544e+00,4.138e+00,4.325e+00,5.039e+00,5.314e+00,6.377e+00,6.452e+00,7.117e+00,7.476e+00,7.801e+00,6.811e+00,7.875e+00,7.244e+00,8.204e+00,8.532e+00,9.102e+00,8.480e+00,1.057e+01,9.422e+00,1.097e+01,1.186e+01,9.557e+00,1.024e+01,1.116e+01,1.084e+01,1.131e+01,1.061e+01,1.205e+01,1.188e+01,1.320e+01,1.163e+01,1.255e+01,1.080e+01
8.689e-01,9.325e-01,1.599e+00,1.767e+00,1.906e+00,2.236e+00,2.324e+00,2.621e+00,3.939e+00,2.421e+00,2.577e+00,2.905e+00,5.010e+00,4.166e+00,2.995e+00,3.784e+00,2.834e+00,5.342e+00,3.711e+00,4.257e+00,4.975e+00,4.973e+00,4.619e+00,5.117e+00,7.190e+00,7.337e+00,7.877e+00,6.541e+00,7.795e+00,8.056e+00,8.843e+00,6.763e+00,8.979e+00,7.705e+00,8.902e+00,8.832e+00,1.068e+01,8.128e+00,1.010e+01,1.121e+01,1.034e+01,1.359e+01,1.044e+01,1.010e+01,1.227e+01,1.083e+01,1.254e+01,1.185e+01,1.375e+01,1.369e+01,1.363e+01,1.307e+01,1.309e+01,1.255e+01
4.298e-01,3.359e-01,1.078e+00,7.707e-01,1.437e+00,1.809e+00,2.528e+00,2.574e+00,3.615e+00,2.190e+00,2.609e+00,2.746e+00,3.907e+00,3.866e+00,2.472e+00,3.659e+00,3.636e+00,5.589e+00,4.447e+00,4.433e+00,5.086e+00,4.843e+00,5.424e+00,5.628e+00,7.192e+00,7.638e+00,8.473e+00,7.143e+00,7.888e+00,6.873e+00,8.423e+00,7.482e+00,8.880e+00,7.383e+00,8.246e+00,7.345e+00,9.119e+00,8.146e+00,9.360e+00,9.024e+00,1.047e+01,1.193e+01,9.394e+00,1.002e+01,1.120e+01,9.646e+00,1.191e+01,1.209e+01,1.340e+01,1.481e+01,1.298e+01,1.200e+01,1.332e+01,1.096e+01
4.926e-01,6.623e-01,1.315e+00,1.522e+00,2.054e+00,2.275e+00,1.823e+00,1.761e+00,2.970e+00,1.931e+00,2.555e+00,3.202e+00,3.580e+00,3.412e+00,2.756e+00,4.230e+00,2.471e+00,5.317e+00,4.731e+00,4.841e+00,4.387e+00,4.262e+00,4.468e+00,5.061e+00,6.740e+00,7.084e+00,8.192e+00,8.086e+00,7.613e+00,7.928e+00,9.100e+00,7.721e+00,8.508e+00,8.200e+00,9.451e+00,8.013e+00,9.298e+00,8.981e+00,1.072e+01,9.662e+00,1.229e+01,1.224e+01,9.300e+00,1.040e+01,1.275e+01,1.117e+01,1.107e+01,1.246e+01,1.311e+01,1.369e+01,1.320e+01,1.219e+01,1.423e+01,1.272e+01
1.830e-01,1.985e-01,6.224e-01,5.053e-01,9.915e-01,1.136e+00,1.343e+00,1.031e+00,1.953e+00,1.724e+00,1.899e+00,2.751e+00,2.859e+00,2.536e+00,2.182e+00,3.191e+00,3.425e+00,5.240e+00,4.182e+00,3.995e+00,4.035e+00,3.779e+00,3.878e+00,3.752e+00,4.873e+00,6.170e+00,7.606e+00,7.571e+00,7.871e+00,6.723e+00,8.298e+00,7.386e+00,8.677e+00,8.423e+00,8.095e+00,7.083e+00,9.032e+00,8.615e+00,1.031e+01,9.773e+00,1.173e+01,1.182e+01,1.067e+01,1.179e+01,1.270e+01,1.113e+01,1.300e+01,1.245e+01,1.407e+01,1.512e+01,1.461e+01,1.256e+01,1.348e+01,1.260e+01
3.165e-01,3.676e-01,9.832e-01,8.123e-01,1.399e+00,1.729e+00,2.282e+00,2.022e+00,2.789e+00,2.227e+00,2.186e+00,3.069e+00,3.301e+00,3.571e+00,2.332e+00,3.625e+00,3.208e+00,5.895e+00,3.916e+00,4.016e+00,4.004e+00,3.238e+00,4.104e+00,4.614e+00,5.754e+00,6.484e+00,7.636e+00,7.717e+00,8.314e+00,8.245e+00,8.597e+00,7.259e+00,9.465e+00,8.310e+00,8.898e+00,8.383e+00,9.523e+00,8.611e+00,1.143e+01,9.437e+00,1.231e+01,1.252e+01,1.054e+01,1.105e+01,1.242e+01,1.164e+01,1.187e+01,1.305e+01,1.500e+01,1.529e+01,1.538e+01,1.412e+01,1.519e+01,1.309e+01
3.468e-01,5.036e-01,1.167e+00,1.660e+00,2.168e+00,2.468e+00,2.165e+00,2.444e+00,3.786e+00,2.670e+00,3.241e+00,4.216e+00,4.508e+00,4.090e+00,2.780e+00,4.270e+00,3.419e+00,6.312e+00,4.884e+00,4.751e+00,5.226e+00,4.815e+00,5.047e+00,5.185e+00,6.731e+00,7.837e+00,7.864e+00,8.150e+00,8.659e+00,8.783e+00,9.505e+00,8.163e+00,9.509e+00,9.586e+00,1.010e+01,8.931e+00,1.040e+01,9.234e+00,1.163e+01,1.138e+01,1.247e+01,1.354e+01,1.220e+01,1.159e+01,1.356e+01,1.170e+01,1.311e+01,1.321e+01,1.502e+01,1.597e+01,1.505e+01,1.408e+01,1.541e+01,1.568e+01
6.242e-01,6.572e-01,9.596e-01,1.297e+00,1.921e+00,2.255e+00,2.597e+00,1.849e+00,3.435e+00,1.820e+00,2.001e+00,2.133e+00,3.581e+00,3.654e+00,2.542e+00,3.669e+00,2.914e+00,5.191e+00,3.771e+00,5.083e+00,4.781e+00,4.098e+00,4.926e+00,5.583e+00,7.091e+00,6.945e+00,7.356e+00,7.704e+00,8.445e+00,8.285e+00,8.787e+00,7.466e+00,8.539e+00,7.300e+00,9.106e+00,8.233e+00,1.029e+01,7.289e+00,1.045e+01,1.034e+01,1.036e+01,1.248e+01,9.966e+00,9.786e+00,1.261e+01,1.169e+01,1.145e+01,1.228e+01,1.480e+01,1.466e+01,1.471e+01,1.471e+01,1.595e+01,1.516e+01
2.002e-01,5.761e-01,8.051e-01,1.302e+00,2.061e+00,2.216e+00,1.765e+00,1.541e+00,3.117e+00,1.831e+00,2.836e+00,2.656e+00,4.175e+00,3.709e+00,2.595e+00,3.870e+00,3.479e+00,5.680e+00,4.528e+00,4.298e+00,5.009e+00,5.261e+00,5.434e+00,5.039e+00,6.908e+00,6.285e+00,7.559e+00,7.508e+00,7.118e+00,7.887e+00,8.868e+00,7.145e+00,8.883e+00,9.122e+00,8.676e+00,8.362e+00,9.509e+00,8.458e+00,1.035e+01,1.118e+01,1.101e+01,1.111e+01,1.031e+01,1.017e+01,1.072e+01,9.594e+00,1.008e+01,9.813e+00,1.163e+01,1.244e+01,1.193e+01,1.125e+01,1.323e+01,1.321e+01
