8.936e-01,2.795e-01,3.446e-01,5.801e-01,8.023e-01,8.923e-01,5.357e-01,8.574e-01,6.853e-01,4.816e-01,1.059e-01,5.408e-01,9.478e-01,2.027e-02,2.041e-01,9.261e-01,8.898e-01,6.007e-01,6.034e-02,1.610e-01,9.251e-01,9.549e-01,6.951e-01,7.661e-01,5.095e-01,2.581e-01,7.689e-01,2.751e-01,8.500e-01,5.347e-01,6.732e-01,7.572e-01,4.071e-01,9.445e-01,9.644e-01,3.991e-01,2.155e-01,7.531e-01,5.885e-01,3.618e-01,1.340e-01,3.908e-01,7.596e-01,1.312e-01,1.123e-01,4.592e-01,2.755e-01,7.751e-01,1.373e-01,6.631e-01,5.255e-01,9.984e-01,9.247e-01,4.974e-02,5.557e-01,8.405e-01,5.198e-01,5.457e-01,2.125e-02,6.023e-01,8.796e-02,3.688e-01,2.857e-01,4.462e-01,6.303e-01,8.837e-01,9.024e-01,5.404e-01,3.727e-01,4.173e-02,5.720e-01,1.952e-01,7.166e-02,2.274e-01,5.649e-01,8.798e-01,5.060e-01,7.263e-02,4.159e-01,5.305e-01,5.113e-01
4.807e-01,8.834e-01,8.819e-01,4.703e-01,6.982e-01,1.380e+00,1.064e+00,7.105e-01,1.007e+00,3.626e-01,6.936e-01,3.663e-01,9.787e-01,5.046e-01,7.281e-01,7.251e-01,6.772e-01,1.145e+00,4.438e-01,7.432e-01,1.077e+00,5.911e-01,1.095e+00,8.679e-01,1.225e+00,4.380e-01,1.004e+00,1.105e+00,9.321e-01,9.202e-01,7.172e-01,9.036e-01,6.392e-01,7.638e-01,6.866e-01,8.332e-01,2.135e-01,8.689e-01,9.026e-01,4.453e-01,6.309e-01,2.140e-01,1.241e+00,4.625e-01,1.038e+00,7.562e-01,1.087e+00,9.251e-01,3.168e-01,1.116e+00,6.280e-01,1.488e+00,6.677e-01,3.224e-01,7.149e-01,8.407e-01,1.190e+00,9.582e-01,3.810e-01,4.026e-01,2.168e-01,1.093e+00,8.369e-01,1.174e+00,7.044e-01,1.131e+00,1.179e+00,6.207e-01,8.249e-01,8.096e-01,4.674e-01,8.568e-01,1.930e-01,9.551e-01,4.800e-01,1.462e+00,9.303e-01,8.676e-01,6.753e-01,6.860e-01,9.920e-01
8.519e-01,3.987e-01,5.152e-01,1.506e+00,9.425e-01,1.697e+00,9.615e-01,1.419e+00,1.651e+00,1.216e+00,2.593e-01,1.320e+00,1.781e+00,7.844e-01,4.390e-01,1.742e+00,1.036e+00,1.686e+00,7.207e-01,1.224e+00,1.732e+00,1.463e+00,1.649e+00,1.334e+00,1.581e+00,4.310e-01,1.009e+00,1.239e+00,1.155e+00,6.393e-01,1.498e+00,1.437e+00,6.338e-01,1.290e+00,1.491e+00,9.302e-01,1.178e+00,1.520e+00,1.234e+00,8.699e-01,9.354e-01,5.352e-01,1.622e+00,6.559e-01,5.751e-01,1.146e+00,9.615e-01,1.236e+00,9.980e-01,1.500e+00,1.136e+00,1.717e+00,1.773e+00,1.072e+00,1.088e+00,1.047e+00,1.000e+00,1.270e+00,8.819e-01,9.352e-01,9.935e-01,5.236e-01,8.457e-01,1.036e+00,1.349e+00,1.918e+00,1.088e+00,7.971e-01,1.024e+00,1.031e+00,1.509e+00,7.778e-01,3.833e-01,5.246e-01,7.629e-01,1.327e+00,1.435e+00,1.175e+00,7.042e-01,1.074e+00,1.051e+00
7.434e-01,6.193e-01,6.664e-01,1.254e+00,1.009e+00,1.566e+00,1.219e+00,1.883e+00,2.019e+00,1.239e+00,7.320e-01,7.270e-01,1.846e+00,8.283e-01,1.117e+00,1.491e+00,1.462e+00,2.080e+00,7.699e-01,7.635e-01,2.032e+00,1.843e+00,1.411e+00,1.450e+00,1.881e+00,4.870e-01,1.358e+00,9.188e-01,1.402e+00,1.647e+00,1.479e+00,1.454e+00,1.447e+00,1.200e+00,1.916e+00,1.038e+00,7.912e-01,1.606e+00,1.145e+00,1.239e+00,1.506e+00,5.699e-01,1.583e+00,8.220e-01,9.735e-01,8.208e-01,1.670e+00,1.407e+00,1.333e+00,1.360e+00,9.793e-01,1.476e+00,1.782e+00,9.091e-01,1.469e+00,1.650e+00,1.631e+00,1.837e+00,1.277e+00,1.572e+00,7.942e-01,1.327e+00,1.078e+00,1.874e+00,9.818e-01,1.600e+00,1.138e+00,8.039e-01,1.100e+00,1.118e+00,8.174e-01,1.017e+00,8.995e-01,1.359e+00,1.041e+00,1.433e+00,1.765e+00,1.521e+00,1.116e+00,1.712e+00,1.542e+00
1.178e-01,4.359e-01,4.808e-01,1.106e+00,1.290e+00,1.442e+00,1.687e+00,1.048e+00,1.614e+00,1.087e+00,1.314e+00,1.707e+00,1.802e+00,1.773e+00,7.515e-01,1.209e+00,1.419e+00,2.055e+00,1.176e+00,1.326e+00,1.726e+00,1.521e+00,1.508e+00,9.789e-01,1.798e+00,8.857e-01,6.942e-01,1.447e+00,7.354e-01,1.332e+00,1.732e+00,1.465e+00,7.294e-01,1.267e+00,8.965e-01,1.545e+00,1.754e+00,1.817e+00,1.271e+00,1.303e+00,1.452e+00,6.482e-01,1.356e+00,1.724e+00,1.726e+00,1.259e+00,1.620e+00,1.678e+00,1.784e+00,1.825e+00,1.061e+00,2.155e+00,1.806e+00,1.965e+00,1.125e+00,1.453e+00,1.471e+00,1.187e+00,1.262e+00,1.032e+00,1.100e+00,1.338e+00,1.463e+00,1.961e+00,1.074e+00,1.427e+00,6.301e-01,1.456e+00,1.742e+00,2.026e+00,1.483e+00,1.067e+00,6.508e-01,1.360e+00,5.848e-01,1.058e+00,1.443e+00,2.086e+00,9.032e-01,1.616e+00,1.460e+00
7.542e-01,3.474e-01,4.320e-01,1.547e+00,1.532e+00,2.134e+00,2.184e+00,3.016e+00,2.246e+00,2.119e+00,1.693e+00,2.125e+00,2.612e+00,1.679e+00,1.796e+00,1.909e+00,2.580e+00,3.035e+00,1.938e+00,1.195e+00,2.989e+00,3.369e+00,2.553e+00,1.709e+00,2.542e+00,8.155e-01,1.459e+00,1.295e+00,1.948e+00,2.003e+00,2.285e+00,1.933e+00,1.951e+00,1.952e+00,2.299e+00,1.680e+00,2.068e+00,2.183e+00,1.980e+00,2.307e+00,2.313e+00,1.606e+00,2.483e+00,2.018e+00,1.720e+00,1.568e+00,2.179e+00,2.256e+00,2.716e+00,1.910e+00,1.275e+00,2.453e+00,2.697e+00,2.144e+00,1.763e+00,2.339e+00,2.333e+00,1.853e+00,2.425e+00,1.967e+00,1.767e+00,2.103e+00,2.267e+00,2.932e+00,2.156e+00,2.561e+00,1.894e+00,2.256e+00,2.160e+00,1.882e+00,1.912e+00,1.371e+00,1.775e+00,2.220e+00,1.923e+00,1.309e+00,2.641e+00,2.022e+00,2.164e+00,3.063e+00,2.482e+00
2.086e-01,4.722e-01,5.184e-01,1.156e+00,7.345e-01,1.589e+00,2.258e+00,2.337e+00,1.816e+00,1.674e+00,1.681e+00,1.327e+00,2.497e+00,1.712e+00,1.325e+00,2.139e+00,1.185e+00,2.088e+00,1.425e+00,2.290e+00,2.277e+00,1.773e+00,2.099e+00,1.929e+00,2.470e+00,8.615e-01,1.159e+00,1.608e+00,1.925e+00,1.263e+00,1.543e+00,1.533e+00,1.000e+00,1.638e+00,2.130e+00,1.814e+00,1.532e+00,1.939e+00,1.593e+00,1.631e+00,1.548e+00,1.077e+00,1.781e+00,1.492e+00,1.519e+00,1.697e+00,1.714e+00,1.784e+00,1.727e+00,1.567e+00,1.033e+00,1.796e+00,1.636e+00,2.226e+00,1.211e+00,1.259e+00,1.478e+00,1.648e+00,2.200e+00,1.361e+00,2.161e+00,1.299e+00,1.977e+00,1.817e+00,2.232e+00,2.448e+00,1.496e+00,1.223e+00,1.909e+00,2.207e+00,1.959e+00,1.323e+00,1.715e+00,1.989e+00,1.214e+00,1.393e+00,2.010e+00,2.599e+00,1.815e+00,1.860e+00,2.332e+00
1.663e-01,6.136e-01,6.255e-01,7.083e-01,9.005e-01,1.351e+00,2.298e+00,2.652e+00,2.075e+00,1.402e+00,2.716e+00,1.987e+00,2.856e+00,1.648e+00,1.272e+00,2.412e+00,1.202e+00,1.766e+00,1.143e+00,2.255e+00,2.477e+00,2.229e+00,1.845e+00,1.809e+00,2.098e+00,1.684e+00,1.791e+00,1.847e+00,1.940e+00,1.678e+00,1.750e+00,1.750e+00,1.347e+00,1.926e+00,2.398e+00,2.249e+00,1.731e+00,2.486e+00,2.241e+00,1.501e+00,1.698e+00,1.670e+00,1.927e+00,2.007e+00,2.262e+00,2.441e+00,2.294e+00,2.258e+00,1.401e+00,1.872e+00,1.350e+00,2.451e+00,1.633e+00,2.369e+00,1.031e+00,1.698e+00,1.384e+00,1.505e+00,2.565e+00,1.532e+00,1.937e+00,1.616e+00,2.102e+00,2.240e+00,2.589e+00,2.372e+00,1.470e+00,1.313e+00,2.488e+00,2.172e+00,2.098e+00,1.780e+00,1.944e+00,1.956e+00,1.420e+00,1.672e+00,2.033e+00,2.632e+00,2.057e+00,1.756e+00,2.536e+00
4.796e-01,3.673e-01,4.083e-01,6.778e-01,1.417e+00,1.160e+00,2.171e+00,2.112e+00,2.059e+00,1.281e+00,2.438e+00,2.608e+00,3.382e+00,2.421e+00,1.639e+00,2.766e+00,2.698e+00,1.762e+00,1.424e+00,1.579e+00,2.840e+00,2.986e+00,1.926e+00,1.535e+00,1.775e+00,1.718e+00,1.575e+00,1.425e+00,1.928e+00,2.475e+00,1.915e+00,2.537e+00,1.701e+00,2.553e+00,2.888e+00,2.750e+00,2.245e+00,3.233e+00,2.602e+00,1.670e+00,1.454e+00,1.478e+00,2.229e+00,2.032e+00,1.933e+00,1.821e+00,1.856e+00,2.957e+00,2.242e+00,2.016e+00,1.635e+00,3.204e+00,2.758e+00,2.409e+00,1.833e+00,2.743e+00,1.342e+00,1.841e+00,1.831e+00,2.022e+00,2.074e+00,2.152e+00,1.825e+00,2.329e+00,2.321e+00,2.723e+00,2.068e+00,1.957e+00,2.885e+00,2.325e+00,1.928e+00,1.742e+00,1.709e+00,1.957e+00,1.359e+00,1.810e+00,2.195e+00,2.134e+00,1.889e+00,2.702e+00,2.669e+00
2.169e-01,6.963e-01,7.272e-01,1.257e+00,1.051e+00,1.931e+00,2.467e+00,3.271e+00,3.033e+00,2.234e+00,3.953e+00,3.366e+00,3.764e+00,3.456e+00,2.559e+00,3.498e+00,3.017e+00,3.383e+00,2.535e+00,2.598e+00,4.025e+00,3.847e+00,3.015e+00,2.439e+00,3.521e+00,2.238e+00,2.455e+00,2.689e+00,3.280e+00,3.372e+00,2.667e+00,3.423e+00,2.829e+00,2.790e+00,4.123e+00,3.025e+00,3.616e+00,4.127e+00,3.483e+00,2.313e+00,3.212e+00,2.864e+00,3.296e+00,2.513e+00,2.749e+00,3.667e+00,3.175e+00,3.278e+00,3.142e+00,2.832e+00,2.870e+00,3.902e+00,2.910e+00,3.205e+00,2.351e+00,2.708e+00,2.610e+00,2.669e+00,3.903e+00,2.747e+00,3.067e+00,3.491e+00,3.185e+00,4.127e+00,4.030e+00,3.626e+00,2.912e+00,1.988e+00,3.480e+00,3.576e+00,2.618e+00,3.502e+00,2.568e+00,2.623e+00,2.814e+00,2.996e+00,3.871e+00,3.346e+00,3.398e+00,3.967e+00,3.765e+00
6.730e-01,9.400e-01,9.893e-01,1.626e+00,1.233e+00,2.296e+00,2.435e+00,3.146e+00,3.060e+00,2.045e+00,2.686e+00,2.023e+00,3.819e+00,2.351e+00,2.626e+00,3.760e+00,2.882e+00,3.973e+00,1.817e+00,2.437e+00,4.376e+00,3.443e+00,3.243e+00,2.641e+00,3.377e+00,1.958e+00,2.958e+00,2.758e+00,3.029e+00,3.007e+00,3.069e+00,3.382e+00,2.369e+00,3.001e+00,3.660e+00,2.792e+00,2.599e+00,3.282e+00,3.056e+00,2.752e+00,3.493e+00,1.678e+00,2.840e+00,1.948e+00,2.305e+00,3.210e+00,3.385e+00,2.678e+00,2.545e+00,2.600e+00,2.811e+00,2.893e+00,3.587e+00,2.893e+00,3.112e+00,3.112e+00,3.355e+00,2.866e+00,3.455e+00,3.337e+00,2.513e+00,2.975e+00,2.367e+00,4.000e+00,3.019e+00,4.107e+00,3.061e+00,1.758e+00,3.161e+00,2.974e+00,2.169e+00,2.305e+00,2.809e+00,2.523e+00,2.156e+00,3.442e+00,3.982e+00,3.545e+00,2.532e+00,3.746e+00,3.702e+00
7.809e-01,3.531e-01,4.142e-01,9.863e-01,1.719e+00,1.681e+00,2.147e+00,2.759e+00,2.311e+00,1.726e+00,2.864e+00,4.029e+00,3.607e+00,2.730e+00,2.962e+00,3.238e+00,4.076e+00,3.231e+00,2.314e+00,1.286e+00,4.972e+00,4.429e+00,3.347e+00,2.226e+00,2.217e+00,2.736e+00,3.207e+00,2.756e+00,3.301e+00,3.354e+00,3.357e+00,3.556e+00,3.223e+00,3.575e+00,3.908e+00,3.637e+00,3.431e+00,4.384e+00,3.937e+00,3.271e+00,3.195e+00,3.021e+00,3.445e+00,3.391e+00,2.346e+00,2.984e+00,3.176e+00,3.480e+00,3.946e+00,2.629e+00,3.259e+00,4.504e+00,4.210e+00,3.732e+00,2.911e+00,4.435e+00,2.948e+00,2.791e+00,2.968e+00,3.949e+00,3.132e+00,3.524e+00,2.643e+00,4.594e+00,3.013e+00,4.124e+00,3.157e+00,3.076e+00,4.110e+00,3.132e+00,2.642e+00,2.691e+00,2.456e+00,3.049e+00,2.687e+00,2.919e+00,3.971e+00,2.491e+00,3.075e+00,5.058e+00,3.898e+00
5.475e-01,4.266e-01,4.688e-01,9.795e-01,9.069e-01,1.419e+00,1.463e+00,2.225e+00,2.073e+00,1.642e+00,2.609e+00,2.369e+00,3.710e+00,3.543e+00,2.903e+00,3.606e+00,3.398e+00,3.673e+00,2.546e+00,1.899e+00,4.150e+00,4.040e+00,2.409e+00,2.099e+00,2.608e+00,2.000e+00,2.197e+00,2.162e+00,3.348e+00,3.433e+00,2.779e+00,3.783e+00,3.360e+00,3.208e+00,3.850e+00,2.842e+00,3.016e+00,3.963e+00,2.829e+00,2.147e+00,3.190e+00,2.427e+00,2.728e+00,2.413e+00,2.355e+00,3.583e+00,2.670e+00,2.880e+00,3.282e+00,2.297e+00,3.069e+00,2.879e+00,2.792e+00,2.089e+00,2.792e+00,3.431e+00,2.860e+00,2.248e+00,3.595e+00,3.414e+00,2.605e+00,3.144e+00,2.598e+00,3.630e+00,3.569e+00,3.888e+00,2.984e+00,2.386e+00,2.821e+00,3.324e+00,1.894e+00,2.734e+00,2.450e+00,2.523e+00,2.651e+00,2.863e+00,3.428e+00,2.863e+00,2.953e+00,3.716e+00,3.581e+00
5.118e-02,6.475e-01,6.768e-01,1.521e+00,1.452e+00,2.002e+00,2.859e+00,2.616e+00,2.995e+00,2.164e+00,3.199e+00,3.626e+00,4.667e+00,5.098e+00,4.494e+00,4.496e+00,4.278e+00,5.078e+00,4.098e+00,3.116e+00,6.119e+00,4.819e+00,3.779e+00,3.038e+00,4.424e+00,3.405e+00,3.462e+00,4.349e+00,4.490e+00,4.056e+00,4.822e+00,4.955e+00,3.797e+00,4.488e+00,4.904e+00,5.101e+00,4.524e+00,5.761e+00,4.810e+00,4.233e+00,4.715e+00,3.377e+00,3.783e+00,4.762e+00,4.450e+00,4.736e+00,4.504e+00,4.770e+00,5.488e+00,3.358e+00,4.214e+00,4.542e+00,4.781e+00,4.960e+00,4.426e+00,5.039e+00,4.401e+00,4.179e+00,5.163e+00,5.231e+00,4.702e+00,4.893e+00,4.502e+00,5.911e+00,3.886e+00,5.429e+00,3.745e+00,4.212e+00,5.478e+00,5.508e+00,3.100e+00,3.444e+00,3.569e+00,4.669e+00,3.513e+00,4.017e+00,5.417e+00,5.747e+00,3.992e+00,5.825e+00,5.084e+00
7.675e-01,3.769e-01,4.569e-01,1.314e+00,1.711e+00,1.577e+00,2.276e+00,2.940e+00,2.715e+00,1.984e+00,3.245e+00,3.663e+00,4.875e+00,3.999e+00,3.679e+00,5.020e+00,4.536e+00,4.417e+00,3.547e+00,2.544e+00,5.868e+00,5.122e+00,3.906e+00,3.736e+00,3.467e+00,4.067e+00,4.241e+00,3.662e+00,4.947e+00,4.823e+00,4.184e+00,5.322e+00,4.196e+00,5.116e+00,5.820e+00,4.763e+00,4.685e+00,5.789e+00,4.487e+00,3.796e+00,4.492e+00,3.601e+00,3.984e+00,4.504e+00,4.258e+00,5.127e+00,4.513e+00,4.669e+00,4.410e+00,3.871e+00,4.279e+00,4.289e+00,4.239e+00,4.190e+00,3.668e+00,5.281e+00,3.316e+00,3.459e+00,4.872e+00,5.733e+00,4.220e+00,3.865e+00,3.815e+00,4.880e+00,5.010e+00,5.668e+00,3.702e+00,3.928e+00,4.745e+00,4.905e+00,3.285e+00,3.615e+00,3.854e+00,3.453e+00,3.755e+00,3.723e+00,4.716e+00,5.009e+00,4.303e+00,5.317e+00,4.886e+00
3.807e-01,8.204e-01,8.655e-01,1.373e+00,1.096e+00,2.210e+00,2.563e+00,2.993e+00,3.024e+00,2.027e+00,2.927e+00,3.486e+00,4.572e+00,3.903e+00,3.733e+00,4.644e+00,4.433e+00,4.314e+00,3.718e+00,3.724e+00,6.184e+00,4.412e+00,4.334e+00,4.106e+00,3.981e+00,3.952e+00,4.100e+00,4.196e+00,5.056e+00,4.778e+00,4.277e+00,4.986e+00,4.715e+00,4.566e+00,5.143e+00,5.198e+00,4.361e+00,5.575e+00,5.163e+00,3.610e+00,4.184e+00,3.431e+00,5.017e+00,4.696e+00,4.877e+00,4.229e+00,4.737e+00,4.600e+00,5.079e+00,4.173e+00,4.305e+00,4.758e+00,3.753e+00,4.673e+00,3.530e+00,4.606e+00,3.531e+00,3.970e+00,4.644e+00,4.870e+00,4.829e+00,4.642e+00,4.498e+00,5.096e+00,5.026e+00,6.493e+00,4.307e+00,4.119e+00,5.309e+00,5.672e+00,3.497e+00,3.812e+00,4.255e+00,4.424e+00,4.105e+00,4.028e+00,5.395e+00,5.232e+00,4.334e+00,4.818e+00,4.816e+00
3.564e-01,3.927e-01,4.098e-01,6.704e-01,1.195e+00,1.199e+00,2.172e+00,2.702e+00,1.989e+00,1.502e+00,2.683e+00,2.662e+00,2.804e+00,1.986e+00,2.266e+00,2.714e+00,4.101e+00,3.083e+00,2.833e+00,2.404e+00,4.163e+00,3.355e+00,2.942e+00,3.932e+00,2.904e+00,3.273e+00,3.447e+00,2.708e+00,4.504e+00,4.025e+00,3.506e+00,2.998e+00,3.699e+00,3.681e+00,4.421e+00,3.614e+00,3.713e+00,4.056e+00,4.234e+00,2.884e+00,3.215e+00,3.378e+00,3.560e+00,3.826e+00,3.895e+00,3.611e+00,4.354e+00,4.223e+00,3.425e+00,3.104e+00,3.546e+00,4.120e+00,3.281e+00,4.302e+00,2.137e+00,4.218e+00,2.365e+00,2.637e+00,4.080e+00,4.050e+00,3.334e+00,4.159e+00,3.789e+00,4.639e+00,4.175e+00,3.742e+00,2.572e+00,3.405e+00,4.618e+00,3.732e+00,3.172e+00,3.081e+00,3.847e+00,3.636e+00,3.419e+00,2.782e+00,4.100e+00,3.516e+00,4.287e+00,4.583e+00,4.171e+00
5.236e-01,2.538e-01,3.055e-01,8.826e-01,1.094e+00,1.194e+00,2.032e+00,2.545e+00,1.791e+00,1.607e+00,2.241e+00,1.899e+00,3.756e+00,2.966e+00,2.779e+00,3.965e+00,4.482e+00,4.325e+00,4.278e+00,3.399e+00,5.083e+00,5.016e+00,3.054e+00,4.456e+00,3.266e+00,3.444e+00,4.163e+00,2.908e+00,5.209e+00,4.792e+00,4.492e+00,4.192e+00,4.630e+00,5.557e+00,4.723e+00,4.799e+00,3.933e+00,4.526e+00,5.045e+00,2.999e+00,4.483e+00,3.386e+00,4.062e+00,4.206e+00,4.517e+00,5.004e+00,4.549e+00,4.879e+00,3.883e+00,3.458e+00,4.833e+00,4.220e+00,3.901e+00,4.711e+00,3.282e+00,4.860e+00,3.963e+00,3.388e+00,5.797e+00,5.128e+00,4.005e+00,4.258e+00,4.332e+00,4.503e+00,5.665e+00,5.241e+00,3.769e+00,4.865e+00,5.459e+00,4.525e+00,3.857e+00,2.670e+00,5.399e+00,4.621e+00,4.269e+00,3.368e+00,4.454e+00,5.120e+00,5.022e+00,4.622e+00,5.359e+00
3.080e-01,4.904e-01,4.967e-01,6.738e-01,8.621e-01,1.194e+00,1.443e+00,2.397e+00,2.269e+00,1.358e+00,2.805e+00,2.908e+00,3.031e+00,2.951e+00,3.575e+00,3.682e+00,4.409e+00,3.717e+00,4.997e+00,3.035e+00,6.130e+00,5.767e+00,3.924e+00,4.226e+00,3.587e+00,5.046e+00,5.457e+00,4.260e+00,5.888e+00,5.763e+00,4.379e+00,5.588e+00,4.821e+00,5.547e+00,5.136e+00,5.776e+00,4.465e+00,5.732e+00,5.805e+00,3.696e+00,5.139e+00,4.033e+00,5.582e+00,4.621e+00,4.850e+00,5.072e+00,5.343e+00,5.299e+00,4.872e+00,4.142e+00,4.927e+00,5.304e+00,4.324e+00,4.372e+00,3.980e+00,5.240e+00,4.162e+00,4.338e+00,5.122e+00,5.921e+00,4.579e+00,5.147e+00,5.293e+00,5.958e+00,5.490e+00,5.643e+00,5.181e+00,4.923e+00,5.438e+00,4.855e+00,3.379e+00,4.437e+00,4.640e+00,4.942e+00,5.026e+00,4.477e+00,5.395e+00,4.916e+00,5.593e+00,5.576e+00,4.708e+00
4.114e-01,1.951e-01,2.525e-01,1.202e+00,9.920e-01,1.579e+00,1.672e+00,3.255e+00,2.617e+00,2.185e+00,3.297e+00,3.898e+00,3.945e+00,3.941e+00,4.060e+00,4.417e+00,5.147e+00,4.984e+00,4.781e+00,2.845e+00,7.311e+00,7.114e+00,4.465e+00,4.305e+00,3.841e+00,4.094e+00,5.079e+00,4.483e+00,6.091e+00,5.154e+00,5.262e+00,5.985e+00,5.561e+00,5.785e+00,5.505e+00,5.995e+00,5.467e+00,6.400e+00,6.298e+00,4.205e+00,5.689e+00,5.282e+00,5.142e+00,4.857e+00,5.294e+00,6.022e+00,5.292e+00,5.575e+00,5.724e+00,3.784e+00,6.539e+00,5.656e+00,5.481e+00,5.400e+00,4.332e+00,5.839e+00,5.021e+00,4.430e+00,6.455e+00,6.641e+00,5.060e+00,6.328e+00,5.210e+00,7.034e+00,6.335e+00,6.465e+00,5.341e+00,5.836e+00,6.529e+00,5.259e+00,4.163e+00,3.893e+00,5.631e+00,5.222e+00,6.095e+00,4.556e+00,6.845e+00,5.816e+00,6.228e+00,7.108e+00,5.780e+00
9.381e-04,6.150e-01,6.028e-01,7.180e-01,4.798e-01,1.432e+00,1.839e+00,2.676e+00,2.437e+00,1.491e+00,2.851e+00,2.724e+00,3.904e+00,3.394e+00,3.878e+00,4.143e+00,3.959e+00,4.233e+00,4.059e+00,3.432e+00,6.471e+00,5.508e+00,3.981e+00,4.286e+00,3.888e+00,4.725e+00,4.912e+00,4.304e+00,5.029e+00,4.464e+00,4.576e+00,5.668e+00,5.486e+00,4.919e+00,4.979e+00,5.780e+00,4.478e+00,5.716e+00,6.184e+00,3.837e+00,5.548e+00,3.597e+00,4.773e+00,4.332e+00,4.940e+00,5.260e+00,5.676e+00,5.032e+00,4.681e+00,3.422e+00,5.343e+00,5.356e+00,4.847e+00,5.164e+00,4.104e+00,5.207e+00,5.065e+00,4.325e+00,6.334e+00,5.330e+00,5.181e+00,5.580e+00,4.781e+00,6.647e+00,5.102e+00,6.006e+00,5.608e+00,5.212e+00,6.737e+00,5.284e+00,3.318e+00,4.283e+00,5.724e+00,5.523e+00,4.279e+00,4.334e+00,5.667e+00,5.925e+00,4.953e+00,5.405e+00,5.371e+00
6.474e-01,3.820e-01,4.392e-01,7.801e-01,1.100e+00,1.498e+00,1.869e+00,2.485e+00,1.900e+00,1.668e+00,3.285e+00,3.111e+00,4.054e+00,3.698e+00,3.386e+00,4.581e+00,5.549e+00,4.532e+00,3.986e+00,3.234e+00,6.247e+00,5.682e+00,4.588e+00,5.299e+00,4.054e+00,4.892e+00,4.802e+00,4.903e+00,6.513e+00,5.227e+00,5.372e+00,6.712e+00,5.469e+00,6.000e+00,6.503e+00,6.117e+00,6.503e+00,6.974e+00,6.220e+00,4.372e+00,5.593e+00,5.058e+00,4.796e+00,4.070e+00,5.441e+00,6.941e+00,5.779e+00,6.562e+00,5.117e+00,3.989e+00,6.162e+00,5.873e+00,5.522e+00,4.975e+00,4.522e+00,6.262e+00,4.384e+00,3.228e+00,6.079e+00,6.598e+00,5.304e+00,6.300e+00,5.581e+00,7.409e+00,7.192e+00,6.409e+00,5.908e+00,5.915e+00,6.533e+00,5.859e+00,4.329e+00,5.104e+00,6.117e+00,5.091e+00,5.684e+00,5.834e+00,6.283e+00,5.423e+00,6.654e+00,6.303e+00,6.014e+00
8.432e-01,7.394e-01,7.861e-01,1.168e+00,1.395e+00,2.101e+00,2.683e+00,3.897e+00,2.950e+00,2.145e+00,3.474e+00,3.141e+00,4.384e+00,2.832e+00,3.563e+00,4.588e+00,4.629e+00,4.457e+00,4.475e+00,3.869e+00,7.517e+00,7.311e+00,6.218e+00,5.843e+00,5.179e+00,5.627e+00,6.505e+00,6.353e+00,7.301e+00,6.468e+00,5.770e+00,6.878e+00,5.843e+00,7.721e+00,7.097e+00,7.487e+00,5.970e+00,7.825e+00,7.655e+00,5.798e+00,7.103e+00,5.508e+00,6.091e+00,4.577e+00,5.916e+00,7.156e+00,6.630e+00,7.187e+00,6.146e+00,4.595e+00,6.128e+00,7.107e+00,7.251e+00,6.485e+00,5.686e+00,6.824e+00,6.263e+00,5.565e+00,6.722e+00,7.833e+00,5.923e+00,6.039e+00,6.685e+00,8.743e+00,7.311e+00,7.416e+00,7.169e+00,6.740e+00,7.306e+00,5.515e+00,5.030e+00,5.911e+00,7.040e+00,7.211e+00,6.128e+00,6.849e+00,6.774e+00,7.005e+00,7.455e+00,7.265e+00,6.891e+00
8.536e-01,2.819e-01,3.729e-01,1.090e+00,1.369e+00,1.364e+00,1.932e+00,2.177e+00,2.078e+00,1.593e+00,2.461e+00,2.687e+00,3.953e+00,2.975e+00,2.864e+00,4.745e+00,5.884e+00,4.270e+00,3.763e+00,3.175e+00,6.365e+00,5.360e+00,5.590e+00,6.210e+00,5.349e+00,5.394e+00,5.905e+00,5.538e+00,6.595e+00,7.342e+00,5.705e+00,7.528e+00,6.196e+00,8.127e+00,7.003e+00,6.890e+00,6.684e+00,6.759e+00,7.318e+00,5.527e+00,6.831e+00,4.580e+00,5.201e+00,4.603e+00,5.772e+00,6.224e+00,5.686e+00,6.599e+00,5.770e+00,5.275e+00,7.009e+00,6.876e+00,7.273e+00,6.828e+00,6.096e+00,6.882e+00,5.965e+00,4.960e+00,6.232e+00,7.872e+00,6.207e+00,6.532e+00,5.721e+00,7.285e+00,7.358e+00,7.368e+00,6.673e+00,6.903e+00,7.932e+00,6.665e+00,5.123e+00,4.984e+00,7.283e+00,5.419e+00,6.261e+00,6.918e+00,6.514e+00,7.296e+00,6.019e+00,6.891e+00,6.538e+00
2.016e-01,5.239e-01,5.549e-01,9.683e-01,7.790e-01,1.631e+00,1.794e+00,1.868e+00,1.832e+00,1.518e+00,2.367e+00,2.652e+00,3.578e+00,3.645e+00,3.305e+00,3.784e+00,4.785e+00,4.962e+00,4.850e+00,3.878e+00,6.373e+00,5.377e+00,4.850e+00,5.526e+00,5.443e+00,5.735e+00,5.564e+00,5.543e+00,6.809e+00,6.389e+00,5.462e+00,7.019e+00,6.827e+00,7.470e+00,5.919e+00,6.630e+00,6.447e+00,6.593e+00,6.831e+00,5.166e+00,7.254e+00,4.820e+00,6.381e+00,5.484e+00,5.458e+00,6.626e+00,6.312e+00,6.069e+00,5.900e+00,5.320e+00,7.448e+00,6.914e+00,5.850e+00,6.618e+00,4.672e+00,6.804e+00,6.529e+00,4.593e+00,6.775e+00,7.451e+00,6.619e+00,5.967e+00,5.793e+00,7.877e+00,7.543e+00,7.659e+00,5.985e+00,6.605e+00,7.680e+00,6.865e+00,4.844e+00,5.509e+00,6.895e+00,6.824e+00,5.484e+00,5.598e+00,6.187e+00,7.023e+00,6.563e+00,6.609e+00,6.486e+00
6.217e-01,3.058e-01,3.933e-01,1.354e+00,8.035e-01,1.539e+00,1.554e+00,2.592e+00,2.365e+00,1.750e+00,1.984e+00,3.201e+00,3.578e+00,2.412e+00,2.848e+00,4.001e+00,3.976e+00,3.941e+00,4.121e+00,3.382e+00,6.385e+00,5.687e+00,5.015e+00,5.412e+00,4.186e+00,5.175e+00,6.705e+00,6.176e+00,6.629e+00,5.421e+00,5.337e+00,7.099e+00,5.666e+00,7.606e+00,6.345e+00,6.908e+00,5.384e+00,6.824e+00,7.378e+00,4.728e+00,6.740e+00,4.460e+00,6.639e+00,5.197e+00,4.902e+00,6.586e+00,5.535e+00,6.490e+00,5.986e+00,4.885e+00,6.827e+00,7.151e+00,7.058e+00,6.931e+00,4.972e+00,7.305e+00,5.386e+00,5.275e+00,6.035e+00,7.982e+00,6.862e+00,5.012e+00,5.536e+00,7.476e+00,6.908e+00,6.619e+00,5.709e+00,5.356e+00,7.268e+00,6.366e+00,6.022e+00,5.618e+00,6.233e+00,6.293e+00,5.392e+00,5.727e+00,6.688e+00,6.263e+00,6.905e+00,7.313e+00,6.700e+00
1.236e-01,1.260e-01,1.483e-01,4.844e-01,8.830e-01,8.108e-01,1.683e+00,1.893e+00,1.477e+00,1.315e+00,2.944e+00,2.796e+00,3.621e+00,3.538e+00,3.268e+00,3.897e+00,4.705e+00,4.335e+00,5.392e+00,3.576e+00,5.815e+00,6.047e+00,4.574e+00,5.193e+00,4.058e+00,5.903e+00,6.715e+00,6.849e+00,7.785e+00,7.605e+00,5.939e+00,8.232e+00,6.267e+00,9.079e+00,7.257e+00,8.128e+00,6.846e+00,7.998e+00,7.213e+00,5.573e+00,8.327e+00,5.676e+00,6.539e+00,6.348e+00,6.679e+00,8.543e+00,6.494e+00,7.937e+00,6.636e+00,5.778e+00,7.058e+00,6.936e+00,6.806e+00,6.837e+00,5.141e+00,7.993e+00,5.679e+00,5.075e+00,7.168e+00,8.406e+00,7.060e+00,6.027e+00,6.753e+00,7.713e+00,8.035e+00,6.488e+00,6.200e+00,6.313e+00,8.128e+00,7.674e+00,5.774e+00,6.959e+00,6.983e+00,7.537e+00,6.496e+00,5.658e+00,6.264e+00,7.270e+00,8.674e+00,7.652e+00,7.853e+00
1.138e-02,6.073e-02,1.041e-01,1.130e+00,8.696e-01,1.096e+00,1.689e+00,2.154e+00,2.259e+00,1.792e+00,2.309e+00,2.937e+00,3.872e+00,4.243e+00,3.590e+00,3.996e+00,4.722e+00,4.350e+00,4.827e+00,3.489e+00,6.129e+00,5.609e+00,4.538e+00,5.068e+00,5.428e+00,5.778e+00,5.475e+00,7.157e+00,7.836e+00,7.812e+00,7.023e+00,8.429e+00,7.280e+00,8.674e+00,8.204e+00,7.751e+00,7.413e+00,9.012e+00,7.901e+00,6.367e+00,8.797e+00,6.570e+00,5.776e+00,7.250e+00,7.177e+00,7.456e+00,6.711e+00,7.722e+00,8.009e+00,6.074e+00,6.373e+00,7.520e+00,7.587e+00,7.253e+00,6.493e+00,7.686e+00,6.239e+00,6.153e+00,7.695e+00,7.950e+00,7.961e+00,6.919e+00,7.676e+00,9.026e+00,6.804e+00,6.548e+00,6.950e+00,7.592e+00,8.878e+00,8.157e+00,5.411e+00,7.821e+00,7.280e+00,8.339e+00,7.398e+00,5.927e+00,6.570e+00,8.444e+00,8.081e+00,7.639e+00,6.979e+00
7.126e-01,5.289e-01,5.899e-01,1.020e+00,1.469e+00,1.606e+00,2.464e+00,2.958e+00,2.233e+00,1.765e+00,2.981e+00,2.803e+00,3.542e+00,2.448e+00,2.213e+00,3.541e+00,3.083e+00,3.129e+00,3.593e+00,3.181e+00,4.928e+00,4.987e+00,4.065e+00,4.600e+00,5.222e+00,5.245e+00,5.826e+00,5.784e+00,6.688e+00,7.550e+00,5.783e+00,6.881e+00,5.320e+00,8.395e+00,6.953e+00,6.552e+00,5.722e+00,7.334e+00,7.021e+00,6.243e+00,7.174e+00,6.280e+00,6.710e+00,5.861e+00,5.489e+00,6.873e+00,5.727e+00,7.055e+00,5.294e+00,6.383e+00,5.838e+00,7.426e+00,6.623e+00,6.970e+00,5.087e+00,7.011e+00,6.376e+00,5.095e+00,6.636e+00,6.963e+00,6.540e+00,5.310e+00,6.309e+00,6.912e+00,7.772e+00,6.143e+00,6.111e+00,5.911e+00,7.304e+00,6.657e+00,5.730e+00,5.838e+00,6.534e+00,6.630e+00,6.866e+00,5.844e+00,5.601e+00,7.394e+00,6.849e+00,5.857e+00,6.902e+00
7.994e-01,7.949e-01,8.393e-01,1.231e+00,1.288e+00,2.032e+00,2.283e+00,3.338e+00,2.848e+00,1.988e+00,3.352e+00,2.891e+00,4.785e+00,3.584e+00,3.855e+00,4.914e+00,4.405e+00,5.082e+00,4.076e+00,3.316e+00,6.924e+00,6.625e+00,5.144e+00,4.986e+00,4.837e+00,5.413e+00,6.592e+00,6.615e+00,7.615e+00,7.377e+00,7.653e+00,8.454e+00,6.821e+00,8.626e+00,8.149e+00,7.539e+00,7.301e+00,9.735e+00,8.495e+00,6.760e+00,8.405e+00,7.316e+00,7.536e+00,6.177e+00,7.692e+00,8.836e+00,7.206e+00,8.259e+00,7.067e+00,6.354e+00,7.454e+00,8.119e+00,8.311e+00,7.780e+00,7.189e+00,8.806e+00,7.406e+00,6.209e+00,8.847e+00,9.582e+00,6.752e+00,6.710e+00,7.621e+00,1.022e+01,8.412e+00,8.168e+00,7.912e+00,7.021e+00,8.526e+00,7.602e+00,5.740e+00,7.060e+00,8.906e+00,8.307e+00,7.794e+00,7.481e+00,8.443e+00,8.116e+00,8.364e+00,8.120e+00,8.902e+00
2.541e-01,8.099e-01,8.329e-01,1.002e+00,9.554e-01,1.761e+00,2.191e+00,2.237e+00,2.314e+00,1.416e+00,2.677e+00,2.832e+00,3.981e+00,3.188e+00,3.144e+00,4.191e+00,3.929e+00,4.457e+00,4.297e+00,4.368e+00,6.755e+00,5.420e+00,5.210e+00,5.697e+00,5.156e+00,6.416e+00,6.574e+00,7.374e+00,7.692e+00,6.463e+00,7.099e+00,7.739e+00,7.121e+00,8.811e+00,7.475e+00,8.835e+00,7.760e+00,8.473e+00,7.877e+00,6.761e+00,8.787e+00,6.744e+00,7.263e+00,6.843e+00,6.904e+00,8.602e+00,7.695e+00,7.756e+00,6.330e+00,6.207e+00,7.688e+00,8.679e+00,7.648e+00,8.233e+00,5.685e+00,8.089e+00,6.562e+00,5.938e+00,6.947e+00,9.357e+00,7.381e+00,6.813e+00,6.962e+00,9.103e+00,8.099e+00,8.889e+00,6.683e+00,7.484e+00,8.352e+00,8.224e+00,6.313e+00,6.923e+00,8.080e+00,8.833e+00,6.473e+00,7.056e+00,7.843e+00,7.948e+00,8.733e+00,7.123e+00,7.528e+00
3.369e-01,1.287e-01,1.653e-01,4.650e-01,4.973e-01,9.492e-01,1.377e+00,2.042e+00,1.131e+00,1.172e+00,1.832e+00,1.881e+00,2.281e+00,1.868e+00,2.796e+00,2.911e+00,3.026e+00,2.806e+00,4.746e+00,2.692e+00,4.766e+00,5.327e+00,4.867e+00,4.490e+00,5.206e+00,5.922e+00,6.402e+00,6.492e+00,7.512e+00,6.700e+00,5.545e+00,8.215e+00,6.551e+00,1.001e+01,8.087e+00,7.500e+00,7.449e+00,7.517e+00,8.279e+00,6.940e+00,8.922e+00,7.053e+00,7.500e+00,6.321e+00,6.324e+00,8.747e+00,6.539e+00,7.716e+00,5.569e+00,6.463e+00,6.470e+00,8.078e+00,8.426e+00,7.293e+00,6.017e+00,7.646e+00,6.984e+00,6.026e+00,7.775e+00,8.079e+00,7.147e+00,6.235e+00,7.335e+00,7.970e+00,8.240e+00,7.311e+00,8.893e+00,7.407e+00,8.584e+00,6.039e+00,5.633e+00,7.498e+00,8.136e+00,8.583e+00,7.452e+00,5.922e+00,6.018e+00,7.544e+00,8.741e+00,7.081e+00,7.613e+00
7.213e-01,4.199e-01,5.102e-01,1.697e+00,1.438e+00,2.247e+00,2.454e+00,3.419e+00,2.992e+00,2.464e+00,2.806e+00,4.049e+00,5.052e+00,4.405e+00,4.643e+00,5.180e+00,5.858e+00,5.686e+00,5.308e+00,3.906e+00,7.718e+00,6.658e+00,5.954e+00,5.401e+00,5.596e+00,5.608e+00,5.728e+00,6.796e+00,8.301e+00,8.027e+00,8.192e+00,8.126e+00,8.565e+00,9.377e+00,9.627e+00,8.887e+00,8.671e+00,1.069e+01,9.996e+00,8.097e+00,9.901e+00,8.642e+00,9.149e+00,8.846e+00,8.258e+00,9.583e+00,8.288e+00,9.093e+00,9.003e+00,7.275e+00,7.306e+00,9.958e+00,1.056e+01,9.196e+00,7.749e+00,1.019e+01,7.794e+00,7.224e+00,9.445e+00,1.000e+01,8.207e+00,8.614e+00,8.917e+00,1.072e+01,8.407e+00,9.551e+00,9.072e+00,8.878e+00,9.269e+00,9.031e+00,7.020e+00,8.032e+00,9.347e+00,9.730e+00,8.752e+00,7.473e+00,9.684e+00,8.523e+00,9.261e+00,9.411e+00,9.037e+00
3.832e-01,2.646e-01,3.157e-01,1.054e+00,9.776e-01,1.564e+00,2.465e+00,3.454e+00,2.350e+00,2.133e+00,3.010e+00,2.911e+00,4.071e+00,3.042e+00,3.194e+00,4.013e+00,4.262e+00,4.267e+00,4.449e+00,3.565e+00,5.898e+00,6.130e+00,4.883e+00,4.851e+00,5.108e+00,5.026e+00,5.476e+00,5.591e+00,7.311e+00,6.151e+00,6.146e+00,6.996e+00,6.682e+00,9.431e+00,8.195e+00,7.788e+00,7.724e+00,8.058e+00,9.353e+00,6.550e+00,8.460e+00,7.708e+00,7.540e+00,6.750e+00,7.219e+00,8.686e+00,7.457e+00,8.150e+00,6.923e+00,5.999e+00,7.451e+00,8.671e+00,8.805e+00,8.410e+00,6.593e+00,8.125e+00,6.502e+00,5.810e+00,8.860e+00,9.179e+00,7.265e+00,6.664e+00,7.924e+00,9.874e+00,9.018e+00,8.133e+00,7.610e+00,7.282e+00,8.780e+00,6.388e+00,6.447e+00,6.855e+00,9.202e+00,8.528e+00,7.275e+00,5.883e+00,8.009e+00,7.958e+00,9.174e+00,8.853e+00,8.851e+00
4.307e-01,6.514e-01,6.795e-01,1.048e+00,1.024e+00,1.991e+00,2.705e+00,3.298e+00,2.602e+00,2.094e+00,3.300e+00,2.857e+00,4.859e+00,4.308e+00,4.563e+00,4.954e+00,4.830e+00,5.040e+00,5.310e+00,4.099e+00,7.216e+00,7.083e+00,5.671e+00,5.664e+00,7.080e+00,6.667e+00,6.829e+00,7.272e+00,8.208e+00,8.050e+00,7.733e+00,1.074e+01,8.490e+00,1.119e+01,1.017e+01,1.034e+01,9.410e+00,1.111e+01,1.171e+01,8.746e+00,1.062e+01,8.864e+00,1.037e+01,8.757e+00,1.046e+01,1.113e+01,8.526e+00,1.106e+01,8.987e+00,8.614e+00,9.238e+00,1.160e+01,1.167e+01,1.000e+01,9.450e+00,1.157e+01,1.020e+01,8.186e+00,1.155e+01,1.170e+01,9.697e+00,9.534e+00,1.060e+01,1.248e+01,1.117e+01,1.038e+01,1.141e+01,9.566e+00,1.147e+01,1.014e+01,7.746e+00,8.773e+00,1.169e+01,1.094e+01,9.417e+00,9.020e+00,1.084e+01,1.043e+01,9.878e+00,9.808e+00,1.069e+01
5.503e-01,8.032e-01,8.258e-01,7.125e-01,8.405e-01,1.751e+00,1.817e+00,2.379e+00,1.910e+00,1.246e+00,2.526e+00,2.143e+00,3.411e+00,2.561e+00,3.108e+00,3.757e+00,2.938e+00,3.554e+00,3.619e+00,3.038e+00,5.143e+00,4.865e+00,3.919e+00,3.883e+00,4.144e+00,4.236e+00,5.468e+00,6.078e+00,5.762e+00,5.468e+00,6.071e+00,7.369e+00,5.800e+00,8.001e+00,7.142e+00,9.250e+00,7.092e+00,8.217e+00,8.138e+00,7.172e+00,8.829e+00,7.320e+00,7.133e+00,6.482e+00,8.480e+00,9.575e+00,6.672e+00,8.247e+00,6.523e+00,7.048e+00,6.797e+00,8.664e+00,7.956e+00,6.642e+00,6.706e+00,8.482e+00,7.171e+00,7.132e+00,8.261e+00,8.510e+00,6.467e+00,8.051e+00,8.184e+00,8.166e+00,8.604e+00,8.657e+00,7.462e+00,7.175e+00,7.983e+00,8.532e+00,6.445e+00,6.570e+00,8.118e+00,8.254e+00,7.560e+00,7.699e+00,8.351e+00,7.894e+00,7.950e+00,6.960e+00,8.291e+00
5.401e-01,6.126e-01,6.730e-01,1.456e+00,1.107e+00,2.016e+00,1.911e+00,3.084e+00,2.805e+00,1.969e+00,2.694e+00,3.408e+00,3.415e+00,2.830e+00,3.399e+00,3.987e+00,3.934e+00,4.430e+00,4.594e+00,3.533e+00,6.931e+00,6.166e+00,4.808e+00,4.897e+00,5.243e+00,6.388e+00,7.731e+00,8.031e+00,8.338e+00,7.320e+00,8.512e+00,9.053e+00,7.551e+00,1.040e+01,8.643e+00,9.923e+00,8.686e+00,1.079e+01,1.060e+01,8.598e+00,1.168e+01,9.992e+00,8.926e+00,8.674e+00,9.577e+00,1.085e+01,8.356e+00,9.737e+00,8.963e+00,7.903e+00,9.307e+00,1.093e+01,1.030e+01,9.531e+00,8.224e+00,9.258e+00,8.487e+00,8.954e+00,9.364e+00,1.150e+01,8.658e+00,8.535e+00,9.739e+00,1.184e+01,8.887e+00,9.203e+00,9.666e+00,8.420e+00,1.044e+01,9.345e+00,6.918e+00,9.257e+00,9.749e+00,1.137e+01,9.650e+00,7.735e+00,1.047e+01,9.135e+00,1.059e+01,9.823e+00,9.717e+00
4.721e-01,2.352e-01,2.856e-01,9.236e-01,1.020e+00,1.053e+00,1.497e+00,2.040e+00,1.753e+00,1.497e+00,2.525e+00,2.568e+00,2.887e+00,2.901e+00,3.086e+00,3.731e+00,4.300e+00,3.862e+00,4.231e+00,2.835e+00,6.368e+00,5.547e+00,4.476e+00,5.525e+00,4.765e+00,6.017e+00,6.229e+00,6.170e+00,8.316e+00,7.619e+00,7.287e+00,9.454e+00,7.392e+00,9.823e+00,9.512e+00,9.915e+00,9.824e+00,1.150e+01,1.030e+01,9.317e+00,1.130e+01,1.056e+01,8.875e+00,8.459e+00,1.033e+01,1.151e+01,9.335e+00,1.082e+01,8.718e+00,9.145e+00,9.585e+00,1.116e+01,1.131e+01,1.019e+01,8.161e+00,1.122e+01,8.854e+00,9.026e+00,1.075e+01,1.147e+01,8.877e+00,1.078e+01,1.088e+01,1.193e+01,1.017e+01,9.917e+00,1.064e+01,9.239e+00,1.104e+01,1.027e+01,7.466e+00,9.729e+00,1.120e+01,1.107e+01,1.015e+01,8.715e+00,1.147e+01,1.061e+01,1.047e+01,1.091e+01,1.075e+01
6.563e-01,3.695e-01,4.617e-01,1.417e+00,1.508e+00,1.843e+00,1.883e+00,2.076e+00,2.307e+00,1.861e+00,2.791e+00,3.533e+00,4.136e+00,4.125e+00,3.722e+00,4.664e+00,5.601e+00,5.102e+00,4.379e+00,2.773e+00,6.246e+00,5.274e+00,5.518e+00,5.114e+00,5.849e+00,5.432e+00,5.295e+00,5.813e+00,6.458e+00,8.030e+00,7.584e+00,9.136e+00,7.853e+00,9.056e+00,9.310e+00,7.906e+00,9.864e+00,9.941e+00,1.040e+01,8.298e+00,9.636e+00,8.673e+00,9.064e+00,8.281e+00,9.948e+00,1.015e+01,8.029e+00,9.323e+00,8.516e+00,9.414e+00,8.711e+00,1.152e+01,1.060e+01,9.857e+00,8.899e+00,1.060e+01,9.441e+00,7.594e+00,1.079e+01,9.790e+00,7.714e+00,1.007e+01,9.273e+00,1.075e+01,9.815e+00,1.026e+01,1.036e+01,9.587e+00,1.023e+01,1.050e+01,7.287e+00,8.784e+00,1.007e+01,8.905e+00,8.600e+00,9.031e+00,1.078e+01,9.621e+00,8.082e+00,9.252e+00,9.568e+00
1.212e-01,2.882e-01,2.885e-01,6.919e-01,1.178e+00,8.812e-01,2.116e+00,2.424e+00,2.195e+00,1.636e+00,3.227e+00,2.841e+00,3.836e+00,3.828e+00,2.999e+00,3.498e+00,4.426e+00,3.950e+00,3.713e+00,2.900e+00,5.327e+00,4.967e+00,3.882e+00,4.847e+00,5.415e+00,5.783e+00,5.584e+00,6.174e+00,7.342e+00,8.326e+00,6.756e+00,8.657e+00,8.227e+00,1.009e+01,9.133e+00,8.596e+00,8.702e+00,1.016e+01,9.590e+00,8.766e+00,1.027e+01,9.774e+00,8.649e+00,9.540e+00,1.016e+01,1.050e+01,8.979e+00,1.006e+01,9.386e+00,8.878e+00,9.274e+00,1.077e+01,9.867e+00,1.048e+01,7.843e+00,1.044e+01,8.475e+00,8.212e+00,1.060e+01,1.073e+01,8.174e+00,9.985e+00,1.025e+01,1.201e+01,9.084e+00,9.134e+00,8.887e+00,9.176e+00,1.155e+01,9.958e+00,7.284e+00,1.052e+01,9.619e+00,1.099e+01,9.135e+00,8.240e+00,9.279e+00,1.106e+01,9.499e+00,9.752e+00,1.039e+01
1.180e-01,5.211e-01,5.452e-01,1.182e+00,1.167e+00,1.486e+00,2.390e+00,2.960e+00,2.963e+00,1.955e+00,3.536e+00,3.076e+00,4.628e+00,4.272e+00,3.744e+00,4.689e+00,4.085e+00,4.806e+00,4.672e+00,3.604e+00,6.214e+00,6.333e+00,4.275e+00,4.479e+00,5.292e+00,5.407e+00,6.075e+00,6.681e+00,7.205e+00,7.222e+00,7.669e+00,8.899e+00,7.050e+00,9.897e+00,9.449e+00,9.872e+00,9.267e+00,1.135e+01,1.102e+01,9.124e+00,1.192e+01,1.041e+01,9.706e+00,9.184e+00,1.092e+01,1.252e+01,9.787e+00,1.083e+01,9.477e+00,1.003e+01,1.033e+01,1.111e+01,1.120e+01,1.065e+01,9.391e+00,1.117e+01,9.551e+00,9.775e+00,1.256e+01,1.166e+01,9.535e+00,1.007e+01,1.123e+01,1.309e+01,1.055e+01,1.029e+01,1.022e+01,9.451e+00,1.218e+01,9.848e+00,8.068e+00,1.029e+01,1.093e+01,1.187e+01,1.033e+01,8.975e+00,1.124e+01,1.161e+01,1.081e+01,1.109e+01,1.187e+01
8.321e-01,8.857e-01,9.535e-01,1.343e+00,1.461e+00,2.407e+00,2.408e+00,2.536e+00,2.544e+00,1.826e+00,2.748e+00,3.248e+00,4.645e+00,4.130e+00,3.838e+00,4.655e+00,4.318e+00,4.900e+00,4.286e+00,3.308e+00,6.695e+00,6.119e+00,5.589e+00,4.886e+00,5.835e+00,5.199e+00,6.609e+00,8.141e+00,7.858e+00,7.842e+00,8.196e+00,9.933e+00,9.061e+00,1.169e+01,1.030e+01,1.160e+01,1.001e+01,1.220e+01,1.241e+01,9.928e+00,1.336e+01,1.104e+01,1.080e+01,1.097e+01,1.200e+01,1.380e+01,9.451e+00,1.165e+01,1.140e+01,1.105e+01,1.143e+01,1.432e+01,1.309e+01,1.201e+01,1.028e+01,1.253e+01,1.163e+01,1.100e+01,1.293e+01,1.269e+01,1.056e+01,1.130e+01,1.228e+01,1.337e+01,1.210e+01,1.267e+01,1.199e+01,1.149e+01,1.337e+01,1.164e+01,9.818e+00,1.113e+01,1.252e+01,1.395e+01,1.210e+01,1.199e+01,1.324e+01,1.246e+01,1.206e+01,1.144e+01,1.265e+01
5.973e-01,8.753e-01,9.230e-01,1.370e+00,1.446e+00,2.076e+00,2.409e+00,2.501e+00,2.867e+00,1.714e+00,2.553e+00,3.143e+00,4.636e+00,4.110e+00,3.789e+00,4.762e+00,4.824e+00,4.896e+00,4.536e+00,4.258e+00,7.330e+00,5.942e+00,4.663e+00,5.712e+00,6.175e+00,7.108e+00,7.402e+00,8.372e+00,9.230e+00,8.286e+00,8.698e+00,1.066e+01,9.073e+00,1.193e+01,9.745e+00,1.108e+01,9.259e+00,1.177e+01,1.168e+01,9.222e+00,1.232e+01,1.074e+01,1.204e+01,1.250e+01,1.303e+01,1.411e+01,1.038e+01,1.235e+01,1.145e+01,1.245e+01,1.284e+01,1.333e+01,1.234e+01,1.113e+01,9.671e+00,1.369e+01,1.153e+01,1.027e+01,1.214e+01,1.371e+01,1.054e+01,1.178e+01,1.278e+01,1.459e+01,1.227e+01,1.263e+01,1.120e+01,1.167e+01,1.334e+01,1.290e+01,9.876e+00,1.139e+01,1.145e+01,1.425e+01,1.265e+01,1.154e+01,1.277e+01,1.304e+01,1.350e+01,1.163e+01,1.163e+01
7.266e-01,4.551e-01,5.499e-01,1.683e+00,1.011e+00,2.066e+00,1.737e+00,3.202e+00,2.913e+00,2.254e+00,2.621e+00,3.311e+00,4.241e+00,3.526e+00,3.575e+00,4.538e+00,4.295e+00,4.853e+00,4.822e+00,3.485e+00,6.074e+00,6.142e+00,4.429e+00,4.498e+00,5.727e+00,5.114e+00,5.935e+00,6.233e+00,7.507e+00,7.106e+00,7.376e+00,8.829e+00,7.494e+00,9.818e+00,8.865e+00,8.792e+00,8.669e+00,9.675e+00,9.994e+00,8.005e+00,1.056e+01,8.918e+00,9.987e+00,9.519e+00,9.262e+00,1.143e+01,8.310e+00,9.629e+00,9.260e+00,9.731e+00,9.891e+00,1.180e+01,1.109e+01,9.498e+00,8.299e+00,1.137e+01,9.182e+00,8.788e+00,1.110e+01,1.075e+01,8.659e+00,9.966e+00,1.052e+01,1.103e+01,1.105e+01,1.101e+01,9.874e+00,8.690e+00,1.004e+01,9.879e+00,8.587e+00,8.889e+00,1.010e+01,1.049e+01,9.365e+00,9.086e+00,1.167e+01,1.023e+01,1.071e+01,1.043e+01,9.802e+00
8.169e-01,9.556e-01,1.012e+00,1.226e+00,1.197e+00,2.420e+00,1.948e+00,2.542e+00,2.217e+00,1.746e+00,2.980e+00,3.521e+00,2.912e+00,2.746e+00,3.469e+00,3.537e+00,4.181e+00,4.456e+00,4.340e+00,2.626e+00,6.268e+00,5.048e+00,6.660e+00,5.961e+00,6.047e+00,5.738e+00,6.797e+00,7.358e+00,7.648e+00,7.510e+00,6.738e+00,7.564e+00,7.963e+00,8.616e+00,9.440e+00,9.039e+00,9.212e+00,1.110e+01,1.229e+01,9.618e+00,1.240e+01,1.122e+01,1.123e+01,9.623e+00,1.205e+01,1.321e+01,1.151e+01,1.178e+01,1.116e+01,1.154e+01,1.151e+01,1.373e+01,1.216e+01,1.184e+01,9.568e+00,1.148e+01,1.155e+01,1.068e+01,1.310e+01,1.207e+01,1.059e+01,1.195e+01,1.276e+01,1.450e+01,1.244e+01,1.281e+01,1.328e+01,1.112e+01,1.195e+01,1.107e+01,9.330e+00,1.237e+01,1.181e+01,1.206e+01,1.180e+01,1.197e+01,1.444e+01,1.272e+01,1.242e+01,1.233e+01,1.165e+01
1.848e-01,7.645e-01,7.446e-01,6.885e-01,7.973e-01,1.772e+00,1.954e+00,2.420e+00,2.091e+00,1.458e+00,2.823e+00,2.642e+00,3.389e+00,3.176e+00,4.109e+00,3.642e+00,4.983e+00,4.854e+00,4.600e+00,3.393e+00,6.999e+00,5.667e+00,5.195e+00,5.343e+00,5.005e+00,5.900e+00,6.492e+00,7.291e+00,7.989e+00,8.080e+00,7.945e+00,9.329e+00,8.803e+00,9.520e+00,9.191e+00,1.078e+01,9.578e+00,1.103e+01,1.034e+01,9.976e+00,1.190e+01,1.073e+01,1.181e+01,1.104e+01,1.207e+01,1.308e+01,1.174e+01,1.223e+01,1.122e+01,1.135e+01,1.243e+01,1.246e+01,1.245e+01,1.137e+01,9.869e+00,1.306e+01,1.126e+01,1.050e+01,1.228e+01,1.382e+01,9.946e+00,1.282e+01,1.204e+01,1.431e+01,1.139e+01,1.231e+01,1.170e+01,1.152e+01,1.295e+01,1.256e+01,8.975e+00,1.125e+01,1.244e+01,1.290e+01,1.294e+01,1.043e+01,1.324e+01,1.136e+01,1.317e+01,1.139e+01,1.154e+01
4.560e-01,2.424e-01,3.288e-01,1.596e+00,9.499e-01,1.557e+00,1.733e+00,2.883e+00,2.964e+00,2.132e+00,2.647e+00,3.670e+00,4.967e+00,4.334e+00,3.989e+00,5.448e+00,4.697e+00,4.854e+00,3.831e+00,3.568e+00,7.529e+00,6.114e+00,5.100e+00,5.036e+00,5.297e+00,5.615e+00,5.920e+00,6.796e+00,6.914e+00,7.654e+00,8.007e+00,9.746e+00,8.276e+00,9.855e+00,9.382e+00,1.014e+01,9.158e+00,1.187e+01,1.123e+01,9.279e+00,1.122e+01,1.015e+01,1.076e+01,1.121e+01,1.289e+01,1.334e+01,1.176e+01,1.284e+01,1.389e+01,1.172e+01,1.300e+01,1.256e+01,1.436e+01,1.203e+01,1.185e+01,1.332e+01,1.219e+01,1.089e+01,1.390e+01,1.487e+01,1.071e+01,1.262e+01,1.356e+01,1.416e+01,1.163e+01,1.427e+01,1.248e+01,1.095e+01,1.359e+01,1.338e+01,1.037e+01,1.112e+01,1.336e+01,1.272e+01,1.237e+01,1.166e+01,1.492e+01,1.369e+01,1.213e+01,1.225e+01,1.229e+01
8.062e-01,2.868e-01,3.705e-01,1.423e+00,1.096e+00,1.452e+00,1.720e+00,3.337e+00,2.773e+00,2.090e+00,2.595e+00,3.263e+00,3.600e+00,2.688e+00,3.238e+00,4.343e+00,4.698e+00,4.247e+00,4.660e+00,3.316e+00,7.304e+00,6.740e+00,5.068e+00,6.794e+00,5.917e+00,6.792e+00,8.099e+00,7.117e+00,8.729e+00,8.069e+00,7.749e+00,9.656e+00,8.568e+00,1.026e+01,1.013e+01,1.007e+01,9.030e+00,1.115e+01,1.069e+01,9.666e+00,1.182e+01,1.073e+01,1.121e+01,9.897e+00,1.036e+01,1.344e+01,1.098e+01,1.271e+01,1.152e+01,1.133e+01,1.345e+01,1.344e+01,1.306e+01,1.233e+01,9.211e+00,1.297e+01,1.091e+01,1.080e+01,1.284e+01,1.446e+01,1.072e+01,1.207e+01,1.146e+01,1.317e+01,1.300e+01,1.198e+01,1.115e+01,1.102e+01,1.268e+01,1.179e+01,1.034e+01,1.189e+01,1.271e+01,1.357e+01,1.413e+01,1.094e+01,1.299e+01,1.188e+01,1.340e+01,1.202e+01,1.263e+01
5.196e-01,3.502e-01,4.342e-01,1.351e+00,8.503e-01,1.589e+00,1.764e+00,2.872e+00,2.520e+00,1.887e+00,2.667e+00,3.398e+00,3.897e+00,2.896e+00,3.089e+00,4.760e+00,4.329e+00,4.331e+00,4.655e+00,4.355e+00,7.289e+00,6.224e+00,5.381e+00,5.683e+00,4.917e+00,6.021e+00,6.733e+00,7.186e+00,8.315e+00,8.402e+00,8.309e+00,9.124e+00,7.663e+00,1.061e+01,9.134e+00,1.064e+01,9.478e+00,1.194e+01,1.154e+01,1.002e+01,1.194e+01,1.128e+01,1.136e+01,1.062e+01,1.167e+01,1.326e+01,1.112e+01,1.213e+01,1.226e+01,1.245e+01,1.333e+01,1.422e+01,1.358e+01,1.333e+01,1.075e+01,1.310e+01,1.102e+01,1.146e+01,1.333e+01,1.338e+01,1.085e+01,1.247e+01,1.326e+01,1.398e+01,1.334e+01,1.326e+01,1.297e+01,1.119e+01,1.383e+01,1.202e+01,1.107e+01,1.144e+01,1.350e+01,1.382e+01,1.354e+01,1.211e+01,1.318e+01,1.284e+01,1.271e+01,1.328e+01,1.308e+01
5.999e-01,4.433e-01,5.241e-01,1.612e+00,9.057e-01,2.139e+00,2.279e+00,4.080e+00,2.946e+00,2.644e+00,3.160e+00,3.101e+00,3.697e+00,2.907e+00,3.259e+00,4.269e+00,4.172e+00,4.354e+00,4.422e+00,3.772e+00,6.575e+00,6.060e+00,4.892e+00,5.267e+00,5.093e+00,4.663e+00,5.515e+00,5.101e+00,6.853e+00,6.373e+00,5.902e+00,7.158e+00,6.273e+00,7.177e+00,7.683e+00,6.853e+00,6.718e+00,8.313e+00,8.867e+00,6.820e+00,7.777e+00,8.349e+00,9.465e+00,8.172e+00,1.019e+01,1.048e+01,9.831e+00,1.079e+01,1.072e+01,1.116e+01,1.030e+01,1.093e+01,1.002e+01,1.031e+01,8.498e+00,1.026e+01,1.076e+01,9.126e+00,1.202e+01,1.091e+01,8.856e+00,1.111e+01,1.196e+01,1.158e+01,1.207e+01,1.168e+01,1.206e+01,9.821e+00,1.140e+01,1.131e+01,9.872e+00,1.023e+01,1.091e+01,1.094e+01,1.170e+01,1.004e+01,1.205e+01,1.067e+01,1.150e+01,1.026e+01,1.079e+01
7.098e-01,4.730e-01,5.241e-01,9.639e-01,1.530e+00,1.848e+00,2.802e+00,3.123e+00,2.069e+00,1.935e+00,2.759e+00,2.883e+00,4.386e+00,3.581e+00,3.934e+00,4.249e+00,4.259e+00,4.159e+00,4.590e+00,3.333e+00,6.671e+00,6.316e+00,5.298e+00,4.934e+00,4.846e+00,5.357e+00,5.873e+00,6.809e+00,8.342e+00,7.152e+00,6.461e+00,8.172e+00,6.614e+00,9.241e+00,8.401e+00,8.992e+00,7.138e+00,1.032e+01,9.135e+00,8.595e+00,1.005e+01,9.727e+00,9.954e+00,1.081e+01,1.170e+01,1.199e+01,9.880e+00,1.175e+01,1.153e+01,1.212e+01,1.217e+01,1.288e+01,1.176e+01,1.121e+01,9.680e+00,1.339e+01,1.097e+01,1.123e+01,1.217e+01,1.349e+01,1.013e+01,1.229e+01,1.271e+01,1.375e+01,1.288e+01,1.329e+01,1.295e+01,1.302e+01,1.351e+01,1.212e+01,1.033e+01,1.204e+01,1.196e+01,1.446e+01,1.245e+01,1.127e+01,1.285e+01,1.294e+01,1.328e+01,1.273e+01,1.239e+01
7.758e-01,5.672e-01,6.407e-01,1.430e+00,1.011e+00,1.813e+00,1.946e+00,3.142e+00,2.784e+00,2.039e+00,2.629e+00,2.628e+00,4.601e+00,3.538e+00,3.310e+00,4.766e+00,3.925e+00,4.541e+00,4.396e+00,3.917e+00,6.230e+00,6.160e+00,4.555e+00,5.219e+00,5.684e+00,5.778e+00,6.364e+00,6.391e+00,7.428e+00,7.488e+00,7.454e+00,8.882e+00,8.061e+00,1.001e+01,8.949e+00,9.244e+00,7.960e+00,1.094e+01,1.086e+01,8.189e+00,1.171e+01,8.936e+00,1.080e+01,9.500e+00,1.056e+01,1.236e+01,9.962e+00,1.224e+01,1.188e+01,1.114e+01,1.216e+01,1.364e+01,1.377e+01,1.305e+01,1.115e+01,1.410e+01,1.271e+01,1.124e+01,1.307e+01,1.459e+01,1.090e+01,1.150e+01,1.454e+01,1.467e+01,1.322e+01,1.340e+01,1.297e+01,1.147e+01,1.484e+01,1.270e+01,1.156e+01,1.288e+01,1.388e+01,1.511e+01,1.255e+01,1.273e+01,1.387e+01,1.210e+01,1.278e+01,1.337e+01,1.450e+01
6.430e-01,8.147e-01,8.757e-01,1.553e+00,1.886e+00,2.701e+00,2.978e+00,3.552e+00,3.298e+00,2.489e+00,4.140e+00,4.789e+00,5.103e+00,4.868e+00,4.898e+00,5.131e+00,6.432e+00,6.162e+00,5.985e+00,3.995e+00,7.846e+00,7.146e+00,6.277e+00,5.615e+00,6.003e+00,6.043e+00,6.352e+00,7.261e+00,8.403e+00,8.007e+00,8.357e+00,9.353e+00,8.224e+00,9.644e+00,9.982e+00,9.974e+00,1.050e+01,1.191e+01,1.128e+01,1.014e+01,1.170e+01,1.105e+01,1.171e+01,1.188e+01,1.216e+01,1.394e+01,1.265e+01,1.302e+01,1.372e+01,1.318e+01,1.264e+01,1.520e+01,1.389e+01,1.415e+01,1.108e+01,1.568e+01,1.242e+01,1.249e+01,1.492e+01,1.406e+01,1.078e+01,1.538e+01,1.564e+01,1.555e+01,1.423e+01,1.616e+01,1.322e+01,1.305e+01,1.563e+01,1.365e+01,1.241e+01,1.394e+01,1.375e+01,1.538e+01,1.329e+01,1.301e+01,1.578e+01,1.307e+01,1.462e+01,1.447e+01,1.432e+01
1.918e-01,3.703e-01,4.175e-01,1.027e+00,7.996e-01,1.429e+00,2.000e+00,2.343e+00,2.014e+00,1.725e+00,2.723e+00,2.573e+00,3.263e+00,3.355e+00,3.307e+00,4.180e+00,4.210e+00,3.842e+00,4.522e+00,3.892e+00,6.337e+00,5.233e+00,5.215e+00,5.631e+00,6.320e+00,6.489e+00,6.066e+00,6.891e+00,7.576e+00,7.638e+00,6.717e+00,8.730e+00,6.567e+00,8.808e+00,7.706e+00,8.885e+00,7.947e+00,9.507e+00,9.491e+00,8.657e+00,1.024e+01,9.054e+00,1.023e+01,9.885e+00,1.042e+01,1.167e+01,9.540e+00,1.054e+01,1.146e+01,1.078e+01,1.218e+01,1.253e+01,1.114e+01,1.252e+01,1.038e+01,1.281e+01,1.076e+01,9.572e+00,1.276e+01,1.397e+01,1.176e+01,1.257e+01,1.354e+01,1.367e+01,1.343e+01,1.318e+01,1.223e+01,1.231e+01,1.250e+01,1.155e+01,1.113e+01,1.166e+01,1.345e+01,1.409e+01,1.366e+01,1.275e+01,1.385e+01,1.383e+01,1.276e+01,1.150e+01,1.132e+01
5.023e-01,3.069e-01,3.436e-01,7.064e-01,8.613e-01,1.162e+00,1.626e+00,2.195e+00,1.639e+00,1.416e+00,2.094e+00,2.748e+00,2.611e+00,2.602e+00,3.106e+00,3.135e+00,3.969e+00,3.023e+00,3.682e+00,2.266e+00,5.144e+00,4.126e+00,3.657e+00,4.144e+00,3.659e+00,4.706e+00,5.592e+00,5.588e+00,7.035e+00,5.931e+00,6.203e+00,6.515e+00,6.575e+00,7.970e+00,8.460e+00,8.296e+00,7.610e+00,8.875e+00,9.212e+00,8.434e+00,9.603e+00,1.001e+01,9.548e+00,9.743e+00,1.038e+01,1.160e+01,1.001e+01,1.158e+01,1.169e+01,1.146e+01,1.162e+01,1.222e+01,1.079e+01,1.267e+01,1.021e+01,1.272e+01,1.154e+01,1.213e+01,1.305e+01,1.330e+01,1.024e+01,1.341e+01,1.439e+01,1.424e+01,1.234e+01,1.342e+01,1.241e+01,1.221e+01,1.443e+01,1.262e+01,1.186e+01,1.340e+01,1.203e+01,1.503e+01,1.376e+01,1.197e+01,1.365e+01,1.226e+01,1.414e+01,1.216e+01,1.289e+01
3.416e-01,6.403e-01,6.994e-01,1.509e+00,1.351e+00,2.123e+00,2.659e+00,3.123e+00,2.778e+00,2.139e+00,3.034e+00,3.345e+00,4.172e+00,3.720e+00,3.783e+00,4.380e+00,4.164e+00,4.990e+00,4.712e+00,3.720e+00,6.721e+00,5.840e+00,5.827e+00,5.751e+00,6.177e+00,5.860e+00,6.360e+00,7.477e+00,8.023e+00,6.790e+00,7.297e+00,8.579e+00,7.423e+00,9.313e+00,9.379e+00,9.344e+00,9.218e+00,1.070e+01,1.001e+01,8.853e+00,1.069e+01,9.557e+00,9.247e+00,1.037e+01,1.208e+01,1.320e+01,1.088e+01,1.221e+01,1.195e+01,1.175e+01,1.295e+01,1.428e+01,1.369e+01,1.430e+01,1.096e+01,1.464e+01,1.312e+01,1.335e+01,1.520e+01,1.468e+01,1.129e+01,1.485e+01,1.468e+01,1.615e+01,1.515e+01,1.477e+01,1.324e+01,1.323e+01,1.668e+01,1.332e+01,1.361e+01,1.363e+01,1.506e+01,1.719e+01,1.420e+01,1.247e+01,1.438e+01,1.539e+01,1.441e+01,1.440e+01,1.450e+01
2.050e-01,3.781e-01,3.932e-01,6.899e-01,5.211e-01,1.194e+00,1.233e+00,2.281e+00,2.008e+00,1.393e+00,2.452e+00,2.821e+00,3.366e+00,3.482e+00,3.873e+00,3.909e+00,4.015e+00,3.850e+00,4.629e+00,2.902e+00,6.281e+00,5.582e+00,4.993e+00,4.938e+00,5.597e+00,6.635e+00,6.337e+00,7.009e+00,8.052e+00,8.331e+00,7.328e+00,9.111e+00,8.689e+00,9.925e+00,1.016e+01,9.718e+00,9.792e+00,1.177e+01,1.181e+01,1.012e+01,1.265e+01,1.156e+01,1.056e+01,9.891e+00,1.301e+01,1.374e+01,1.236e+01,1.386e+01,1.323e+01,1.270e+01,1.276e+01,1.344e+01,1.370e+01,1.338e+01,1.213e+01,1.489e+01,1.444e+01,1.413e+01,1.625e+01,1.594e+01,1.189e+01,1.585e+01,1.635e+01,1.636e+01,1.450e+01,1.660e+01,1.583e+01,1.430e+01,1.609e+01,1.534e+01,1.147e+01,1.653e+01,1.581e+01,1.709e+01,1.540e+01,1.334e+01,1.590e+01,1.510e+01,1.503e+01,1.451e+01,1.617e+01
3.656e-01,5.571e-01,5.931e-01,8.592e-01,8.840e-01,1.834e+00,2.333e+00,2.607e+00,1.951e+00,1.802e+00,2.916e+00,3.404e+00,3.210e+00,3.279e+00,3.336e+00,3.359e+00,4.350e+00,3.756e+00,4.513e+00,3.438e+00,6.097e+00,5.363e+00,5.077e+00,5.442e+00,5.157e+00,5.251e+00,5.702e+00,6.334e+00,7.725e+00,6.317e+00,6.112e+00,7.943e+00,7.505e+00,8.990e+00,8.623e+00,9.416e+00,8.373e+00,1.026e+01,1.167e+01,7.721e+00,1.035e+01,9.816e+00,1.071e+01,1.046e+01,1.186e+01,1.273e+01,1.150e+01,1.316e+01,1.334e+01,1.171e+01,1.391e+01,1.621e+01,1.424e+01,1.449e+01,1.146e+01,1.452e+01,1.337e+01,1.393e+01,1.648e+01,1.503e+01,1.301e+01,1.592e+01,1.623e+01,1.723e+01,1.566e+01,1.566e+01,1.589e+01,1.438e+01,1.769e+01,1.365e+01,1.419e+01,1.539e+01,1.581e+01,1.822e+01,1.508e+01,1.533e+01,1.712e+01,1.553e+01,1.586e+01,1.613e+01,1.564e+01
1.530e-01,2.156e-01,2.696e-01,1.200e+00,1.166e+00,1.248e+00,1.770e+00,2.312e+00,2.555e+00,1.742e+00,3.016e+00,3.316e+00,3.718e+00,3.341e+00,2.857e+00,4.003e+00,4.484e+00,4.272e+00,3.812e+00,2.822e+00,5.880e+00,5.506e+00,5.189e+00,4.800e+00,4.966e+00,5.870e+00,6.348e+00,6.760e+00,6.500e+00,7.945e+00,7.461e+00,8.512e+00,7.852e+00,9.373e+00,9.242e+00,9.262e+00,9.486e+00,1.037e+01,1.094e+01,8.578e+00,1.170e+01,9.414e+00,1.067e+01,1.027e+01,1.197e+01,1.338e+01,1.133e+01,1.259e+01,1.280e+01,1.242e+01,1.340e+01,1.398e+01,1.410e+01,1.511e+01,1.189e+01,1.454e+01,1.402e+01,1.324e+01,1.645e+01,1.622e+01,1.311e+01,1.499e+01,1.496e+01,1.702e+01,1.395e+01,1.530e+01,1.426e+01,1.385e+01,1.681e+01,1.451e+01,1.406e+01,1.528e+01,1.607e+01,1.627e+01,1.467e+01,1.354e+01,1.615e+01,1.550e+01,1.611e+01,1.434e+01,1.475e+01
1.922e-01,7.348e-01,7.663e-01,1.371e+00,1.094e+00,2.032e+00,2.268e+00,2.388e+00,2.764e+00,1.946e+00,2.923e+00,3.039e+00,3.577e+00,3.981e+00,3.734e+00,3.741e+00,4.113e+00,4.512e+00,4.699e+00,2.958e+00,6.116e+00,5.647e+00,5.458e+00,4.727e+00,6.271e+00,5.371e+00,5.585e+00,6.020e+00,6.784e+00,7.080e+00,6.501e+00,8.191e+00,7.014e+00,8.098e+00,8.293e+00,8.308e+00,8.754e+00,1.059e+01,1.087e+01,9.269e+00,1.116e+01,9.859e+00,1.166e+01,9.486e+00,1.183e+01,1.249e+01,1.181e+01,1.288e+01,1.297e+01,1.260e+01,1.333e+01,1.376e+01,1.357e+01,1.403e+01,1.212e+01,1.369e+01,1.434e+01,1.393e+01,1.596e+01,1.457e+01,1.317e+01,1.526e+01,1.586e+01,1.777e+01,1.433e+01,1.631e+01,1.560e+01,1.407e+01,1.706e+01,1.417e+01,1.352e+01,1.562e+01,1.563e+01,1.692e+01,1.541e+01,1.458e+01,1.620e+01,1.619e+01,1.534e+01,1.558e+01,1.470e+01
1.942e-01,6.400e-01,6.618e-01,1.240e+00,7.232e-01,1.628e+00,2.007e+00,2.856e+00,2.751e+00,1.812e+00,2.664e+00,2.727e+00,3.684e+00,3.023e+00,3.493e+00,3.981e+00,3.372e+00,4.240e+00,4.512e+00,3.697e+00,6.398e+00,5.629e+00,4.990e+00,4.955e+00,5.815e+00,5.861e+00,6.321e+00,6.313e+00,6.991e+00,7.160e+00,6.607e+00,7.592e+00,7.089e+00,9.179e+00,9.074e+00,9.279e+00,8.409e+00,9.480e+00,1.043e+01,9.179e+00,1.083e+01,9.326e+00,1.015e+01,8.942e+00,9.903e+00,1.139e+01,1.072e+01,1.086e+01,1.026e+01,1.096e+01,1.121e+01,1.278e+01,1.237e+01,1.338e+01,1.070e+01,1.265e+01,1.287e+01,1.348e+01,1.465e+01,1.383e+01,1.197e+01,1.470e+01,1.433e+01,1.580e+01,1.395e+01,1.559e+01,1.484e+01,1.171e+01,1.486e+01,1.348e+01,1.316e+01,1.336e+01,1.426e+01,1.637e+01,1.305e+01,1.304e+01,1.559e+01,1.462e+01,1.454e+01,1.407e+01,1.373e+01
7.421e-01,7.810e-01,8.428e-01,1.333e+00,1.391e+00,2.160e+00,2.054e+00,2.972e+00,2.807e+00,1.858e+00,3.165e+00,3.707e+00,4.458e+00,3.596e+00,3.852e+00,4.878e+00,4.986e+00,5.121e+00,4.254e+00,3.542e+00,7.357e+00,5.983e+00,5.528e+00,5.779e+00,5.594e+00,6.828e+00,7.039e+00,6.976e+00,7.636e+00,7.240e+00,7.929e+00,9.567e+00,8.907e+00,9.915e+00,9.716e+00,1.058e+01,1.016e+01,1.198e+01,1.225e+01,1.029e+01,1.224e+01,1.190e+01,1.241e+01,1.236e+01,1.436e+01,1.524e+01,1.322e+01,1.371e+01,1.395e+01,1.399e+01,1.455e+01,1.607e+01,1.423e+01,1.429e+01,1.199e+01,1.599e+01,1.396e+01,1.411e+01,1.697e+01,1.713e+01,1.213e+01,1.865e+01,1.746e+01,1.807e+01,1.663e+01,1.854e+01,1.673e+01,1.518e+01,1.734e+01,1.706e+01,1.521e+01,1.598e+01,1.739e+01,1.885e+01,1.665e+01,1.637e+01,1.827e+01,1.672e+01,1.603e+01,1.541e+01,1.559e+01
3.316e-01,2.652e-01,3.211e-01,1.189e+00,9.718e-01,1.331e+00,1.350e+00,2.182e+00,2.395e+00,1.729e+00,2.941e+00,3.378e+00,4.120e+00,4.397e+00,4.304e+00,4.901e+00,5.035e+00,5.221e+00,5.629e+00,3.346e+00,7.753e+00,7.472e+00,5.868e+00,5.949e+00,6.521e+00,7.847e+00,8.305e+00,9.054e+00,9.736e+00,9.185e+00,8.415e+00,1.213e+01,9.959e+00,1.297e+01,1.150e+01,1.240e+01,1.140e+01,1.362e+01,1.406e+01,1.152e+01,1.564e+01,1.309e+01,1.279e+01,1.317e+01,1.514e+01,1.737e+01,1.401e+01,1.615e+01,1.546e+01,1.503e+01,1.652e+01,1.663e+01,1.707e+01,1.507e+01,1.431e+01,1.864e+01,1.618e+01,1.687e+01,1.881e+01,1.936e+01,1.559e+01,1.928e+01,1.920e+01,2.116e+01,2.022e+01,1.998e+01,1.944e+01,1.775e+01,2.008e+01,1.891e+01,1.692e+01,2.031e+01,1.927e+01,2.115e+01,2.017e+01,1.899e+01,1.995e+01,2.059e+01,2.055e+01,2.001e+01,1.857e+01
7.639e-01,6.328e-01,6.984e-01,1.146e+00,1.613e+00,1.852e+00,2.285e+00,2.109e+00,2.154e+00,1.640e+00,2.707e+00,3.060e+00,3.634e+00,3.479e+00,3.276e+00,3.919e+00,4.581e+00,3.997e+00,4.565e+00,3.208e+00,6.185e+00,5.700e+00,5.686e+00,5.446e+00,5.469e+00,5.760e+00,6.251e+00,7.131e+00,7.534e+00,7.216e+00,6.448e+00,8.933e+00,6.081e+00,9.274e+00,8.205e+00,9.302e+00,8.185e+00,1.043e+01,9.384e+00,7.857e+00,9.700e+00,8.182e+00,9.792e+00,9.215e+00,1.025e+01,1.138e+01,8.455e+00,1.078e+01,1.070e+01,1.016e+01,1.098e+01,1.285e+01,1.193e+01,1.191e+01,1.026e+01,1.318e+01,1.074e+01,1.135e+01,1.251e+01,1.411e+01,1.120e+01,1.328e+01,1.562e+01,1.547e+01,1.456e+01,1.519e+01,1.496e+01,1.342e+01,1.563e+01,1.333e+01,1.346e+01,1.434e+01,1.332e+01,1.523e+01,1.409e+01,1.495e+01,1.560e+01,1.354e+01,1.609e+01,1.498e+01,1.452e+01
4.346e-01,2.151e-01,2.429e-01,5.035e-01,9.409e-01,7.429e-01,1.535e+00,2.214e+00,1.716e+00,1.196e+00,2.661e+00,2.290e+00,3.210e+00,2.394e+00,2.530e+00,3.645e+00,3.605e+00,2.901e+00,2.805e+00,2.507e+00,4.734e+00,4.425e+00,3.237e+00,3.429e+00,3.898e+00,5.023e+00,4.786e+00,4.764e+00,5.909e+00,6.474e+00,5.894e+00,6.919e+00,5.450e+00,7.907e+00,7.280e+00,6.781e+00,6.543e+00,8.947e+00,8.746e+00,7.110e+00,8.744e+00,8.006e+00,8.165e+00,8.178e+00,8.740e+00,1.046e+01,7.736e+00,9.899e+00,9.201e+00,9.201e+00,1.006e+01,1.099e+01,1.133e+01,1.125e+01,9.959e+00,1.281e+01,1.056e+01,1.039e+01,1.252e+01,1.310e+01,1.022e+01,1.214e+01,1.308e+01,1.356e+01,1.366e+01,1.344e+01,1.425e+01,1.205e+01,1.484e+01,1.196e+01,1.260e+01,1.301e+01,1.425e+01,1.546e+01,1.356e+01,1.417e+01,1.431e+01,1.299e+01,1.376e+01,1.357e+01,1.404e+01
2.002e-01,1.439e-01,1.620e-01,3.685e-01,1.072e+00,6.700e-01,1.910e+00,2.244e+00,1.876e+00,1.348e+00,3.289e+00,3.430e+00,3.824e+00,3.891e+00,3.335e+00,4.253e+00,5.400e+00,3.854e+00,4.957e+00,3.583e+00,6.601e+00,6.324e+00,4.425e+00,5.797e+00,5.421e+00,6.937e+00,6.656e+00,6.074e+00,7.776e+00,7.952e+00,6.902e+00,8.380e+00,8.203e+00,1.017e+01,8.630e+00,1.025e+01,8.676e+00,1.024e+01,1.180e+01,7.290e+00,1.012e+01,9.057e+00,8.994e+00,9.760e+00,1.129e+01,1.155e+01,9.744e+00,1.181e+01,1.156e+01,9.991e+00,1.301e+01,1.424e+01,1.230e+01,1.380e+01,1.035e+01,1.396e+01,1.255e+01,1.208e+01,1.487e+01,1.497e+01,1.205e+01,1.636e+01,1.584e+01,1.681e+01,1.597e+01,1.611e+01,1.542e+01,1.486e+01,1.857e+01,1.584e+01,1.394e+01,1.458e+01,1.652e+01,1.779e+01,1.572e+01,1.533e+01,1.609e+01,1.669e+01,1.621e+01,1.687e+01,1.517e+01
2.874e-01,1.854e-01,2.573e-01,1.360e+00,1.218e+00,1.332e+00,1.833e+00,2.677e+00,2.799e+00,2.059e+00,3.610e+00,4.015e+00,4.489e+00,4.338e+00,3.671e+00,5.124e+00,5.731e+00,5.411e+00,5.388e+00,3.958e+00,7.005e+00,6.663e+00,5.557e+00,5.573e+00,6.269e+00,6.555e+00,6.688e+00,7.216e+00,8.093e+00,8.700e+00,7.717e+00,9.191e+00,8.416e+00,1.087e+01,9.465e+00,9.133e+00,9.414e+00,1.063e+01,1.163e+01,8.201e+00,1.215e+01,9.330e+00,1.093e+01,1.104e+01,1.065e+01,1.263e+01,9.983e+00,1.144e+01,1.202e+01,1.186e+01,1.358e+01,1.413e+01,1.352e+01,1.412e+01,1.212e+01,1.505e+01,1.230e+01,1.273e+01,1.596e+01,1.620e+01,1.390e+01,1.477e+01,1.611e+01,1.767e+01,1.805e+01,1.678e+01,1.620e+01,1.616e+01,1.918e+01,1.575e+01,1.631e+01,1.708e+01,1.690e+01,1.866e+01,1.845e+01,1.953e+01,1.768e+01,1.748e+01,1.771e+01,1.874e+01,1.734e+01
8.515e-01,7.199e-01,7.866e-01,1.404e+00,1.377e+00,1.914e+00,2.479e+00,3.237e+00,3.057e+00,2.202e+00,3.501e+00,2.978e+00,4.790e+00,4.123e+00,3.724e+00,5.434e+00,5.582e+00,4.852e+00,4.837e+00,4.442e+00,7.435e+00,6.562e+00,5.452e+00,6.849e+00,6.696e+00,7.012e+00,6.944e+00,6.907e+00,8.834e+00,8.491e+00,7.324e+00,1.009e+01,8.240e+00,1.019e+01,9.728e+00,9.498e+00,8.752e+00,1.114e+01,1.038e+01,8.504e+00,1.043e+01,9.322e+00,9.989e+00,9.362e+00,1.085e+01,1.219e+01,1.101e+01,1.198e+01,1.184e+01,1.156e+01,1.155e+01,1.293e+01,1.278e+01,1.168e+01,1.149e+01,1.403e+01,1.267e+01,1.281e+01,1.478e+01,1.461e+01,1.170e+01,1.642e+01,1.692e+01,1.707e+01,1.718e+01,1.905e+01,1.728e+01,1.488e+01,1.876e+01,1.711e+01,1.590e+01,1.766e+01,1.700e+01,1.836e+01,1.816e+01,1.907e+01,1.697e+01,1.698e+01,1.738e+01,1.690e+01,1.729e+01
2.872e-01,5.782e-01,6.341e-01,1.228e+00,1.140e+00,1.997e+00,2.386e+00,2.975e+00,2.454e+00,2.044e+00,3.467e+00,3.810e+00,4.187e+00,3.862e+00,3.379e+00,4.190e+00,4.080e+00,4.715e+00,5.207e+00,4.312e+00,6.133e+00,5.716e+00,5.737e+00,5.646e+00,5.834e+00,6.460e+00,6.321e+00,7.894e+00,8.679e+00,8.175e+00,7.652e+00,8.621e+00,7.516e+00,1.004e+01,1.001e+01,9.396e+00,9.968e+00,1.161e+01,1.122e+01,1.026e+01,1.242e+01,1.179e+01,1.174e+01,1.119e+01,1.291e+01,1.506e+01,1.283e+01,1.365e+01,1.338e+01,1.453e+01,1.374e+01,1.495e+01,1.324e+01,1.537e+01,1.159e+01,1.552e+01,1.372e+01,1.483e+01,1.787e+01,1.549e+01,1.357e+01,1.725e+01,1.830e+01,1.894e+01,1.842e+01,1.782e+01,1.696e+01,1.602e+01,2.029e+01,1.853e+01,1.767e+01,1.987e+01,1.688e+01,2.133e+01,1.857e+01,1.790e+01,1.816e+01,1.904e+01,2.006e+01,1.932e+01,1.887e+01
6.504e-01,4.756e-01,5.407e-01,1.198e+00,1.126e+00,1.661e+00,1.930e+00,2.956e+00,2.511e+00,1.965e+00,3.090e+00,3.727e+00,4.079e+00,3.549e+00,3.353e+00,4.461e+00,4.474e+00,4.360e+00,5.016e+00,3.999e+00,7.419e+00,6.574e+00,5.718e+00,6.261e+00,6.212e+00,7.860e+00,8.046e+00,7.744e+00,9.356e+00,9.349e+00,7.484e+00,9.633e+00,9.684e+00,1.151e+01,9.740e+00,1.035e+01,9.077e+00,1.170e+01,1.177e+01,9.400e+00,1.328e+01,1.093e+01,1.225e+01,1.180e+01,1.221e+01,1.401e+01,1.174e+01,1.283e+01,1.379e+01,1.381e+01,1.353e+01,1.463e+01,1.395e+01,1.481e+01,1.145e+01,1.623e+01,1.545e+01,1.436e+01,1.584e+01,1.698e+01,1.433e+01,1.559e+01,1.815e+01,1.811e+01,1.708e+01,1.952e+01,1.626e+01,1.530e+01,1.790e+01,1.824e+01,1.712e+01,1.919e+01,1.810e+01,2.100e+01,1.844e+01,1.757e+01,1.735e+01,1.891e+01,1.969e+01,1.833e+01,1.756e+01
6.232e-01,4.526e-01,5.443e-01,1.679e+00,1.093e+00,1.909e+00,1.497e+00,2.916e+00,3.158e+00,2.165e+00,3.028e+00,3.880e+00,4.557e+00,4.016e+00,3.689e+00,4.921e+00,4.694e+00,5.057e+00,4.891e+00,3.223e+00,6.383e+00,6.192e+00,5.368e+00,4.884e+00,5.970e+00,6.276e+00,6.754e+00,6.805e+00,7.526e+00,8.157e+00,6.716e+00,9.035e+00,8.146e+00,9.424e+00,1.009e+01,8.738e+00,9.220e+00,1.080e+01,1.091e+01,8.377e+00,1.230e+01,9.242e+00,1.166e+01,1.020e+01,1.053e+01,1.312e+01,1.004e+01,1.129e+01,1.187e+01,1.240e+01,1.275e+01,1.395e+01,1.282e+01,1.365e+01,1.101e+01,1.452e+01,1.394e+01,1.326e+01,1.549e+01,1.506e+01,1.361e+01,1.489e+01,1.614e+01,1.716e+01,1.781e+01,1.812e+01,1.670e+01,1.376e+01,1.873e+01,1.686e+01,1.682e+01,1.861e+01,1.803e+01,2.055e+01,1.738e+01,1.803e+01,1.984e+01,1.695e+01,1.952e+01,1.829e+01,1.725e+01
4.648e-01,4.264e-01,4.508e-01,9.342e-01,8.275e-01,1.306e+00,1.913e+00,2.842e+00,2.320e+00,1.805e+00,2.939e+00,2.429e+00,3.641e+00,2.911e+00,3.257e+00,4.157e+00,5.028e+00,4.354e+00,3.408e+00,3.127e+00,6.242e+00,5.084e+00,4.156e+00,4.711e+00,5.024e+00,4.867e+00,5.448e+00,5.307e+00,7.363e+00,7.872e+00,6.368e+00,7.296e+00,6.581e+00,8.616e+00,7.847e+00,7.646e+00,7.311e+00,8.633e+00,8.724e+00,8.416e+00,1.002e+01,8.849e+00,8.574e+00,8.327e+00,8.790e+00,1.089e+01,9.769e+00,9.603e+00,1.116e+01,1.086e+01,1.288e+01,1.116e+01,1.116e+01,1.209e+01,1.067e+01,1.300e+01,1.234e+01,1.233e+01,1.476e+01,1.399e+01,1.137e+01,1.584e+01,1.361e+01,1.591e+01,1.483e+01,1.558e+01,1.471e+01,1.262e+01,1.741e+01,1.510e+01,1.347e+01,1.585e+01,1.728e+01,1.871e+01,1.803e+01,1.785e+01,1.781e+01,1.654e+01,1.708e+01,1.750e+01,1.634e+01
6.501e-01,5.525e-01,6.180e-01,1.149e+00,8.478e-01,1.942e+00,1.543e+00,2.807e+00,2.478e+00,1.803e+00,2.880e+00,3.494e+00,3.559e+00,2.805e+00,3.237e+00,4.015e+00,4.742e+00,4.287e+00,4.403e+00,3.185e+00,6.248e+00,5.853e+00,5.344e+00,5.058e+00,4.488e+00,5.595e+00,6.364e+00,6.188e+00,7.423e+00,6.498e+00,5.805e+00,7.750e+00,7.069e+00,8.429e+00,8.498e+00,7.865e+00,7.952e+00,9.002e+00,1.043e+01,7.025e+00,1.020e+01,8.724e+00,9.751e+00,8.385e+00,9.970e+00,1.165e+01,1.070e+01,1.102e+01,1.062e+01,1.070e+01,1.147e+01,1.301e+01,1.163e+01,1.192e+01,9.741e+00,1.196e+01,1.210e+01,1.176e+01,1.353e+01,1.311e+01,1.127e+01,1.476e+01,1.443e+01,1.615e+01,1.478e+01,1.581e+01,1.685e+01,1.320e+01,1.722e+01,1.559e+01,1.486e+01,1.778e+01,1.610e+01,1.941e+01,1.621e+01,1.680e+01,1.857e+01,1.621e+01,1.859e+01,1.803e+01,1.601e+01
2.441e-01,7.220e-01,7.461e-01,1.049e+00,1.048e+00,1.788e+00,2.138e+00,2.079e+00,2.373e+00,1.546e+00,2.716e+00,3.390e+00,3.438e+00,3.446e+00,3.444e+00,3.614e+00,4.607e+00,4.238e+00,3.969e+00,3.145e+00,6.096e+00,4.669e+00,5.225e+00,5.345e+00,5.884e+00,5.679e+00,6.111e+00,7.629e+00,7.834e+00,7.613e+00,7.480e+00,8.598e+00,7.539e+00,9.531e+00,9.065e+00,9.049e+00,9.160e+00,1.052e+01,1.043e+01,9.875e+00,1.068e+01,1.036e+01,9.821e+00,9.836e+00,1.019e+01,1.188e+01,1.143e+01,1.187e+01,1.165e+01,1.153e+01,1.227e+01,1.311e+01,1.335e+01,1.428e+01,1.158e+01,1.495e+01,1.229e+01,1.436e+01,1.520e+01,1.486e+01,1.257e+01,1.627e+01,1.569e+01,1.748e+01,1.612e+01,1.677e+01,1.538e+01,1.466e+01,1.904e+01,1.661e+01,1.531e+01,1.835e+01,1.662e+01,1.881e+01,1.869e+01,1.797e+01,1.787e+01,1.877e+01,1.885e+01,1.833e+01,1.828e+01
7.994e-01,4.416e-01,5.367e-01,1.329e+00,1.498e+00,2.204e+00,2.788e+00,3.035e+00,2.322e+00,2.213e+00,2.982e+00,3.290e+00,4.257e+00,3.397e+00,3.190e+00,4.258e+00,4.493e+00,4.211e+00,4.771e+00,3.617e+00,6.477e+00,6.755e+00,5.606e+00,5.189e+00,5.584e+00,5.487e+00,6.281e+00,6.034e+00,7.022e+00,7.335e+00,6.529e+00,9.326e+00,7.157e+00,1.040e+01,8.157e+00,9.222e+00,8.287e+00,9.309e+00,1.083e+01,8.717e+00,1.049e+01,8.835e+00,1.090e+01,9.543e+00,1.018e+01,1.106e+01,1.025e+01,1.178e+01,1.146e+01,1.253e+01,1.154e+01,1.491e+01,1.382e+01,1.381e+01,1.095e+01,1.367e+01,1.368e+01,1.236e+01,1.424e+01,1.315e+01,1.269e+01,1.619e+01,1.668e+01,1.600e+01,1.605e+01,1.799e+01,1.832e+01,1.507e+01,1.856e+01,1.700e+01,1.632e+01,1.748e+01,1.765e+01,1.923e+01,1.783e+01,1.913e+01,1.849e+01,1.807e+01,1.864e+01,1.878e+01,1.831e+01
5.124e-01,4.528e-01,4.816e-01,6.316e-01,1.328e+00,1.575e+00,2.506e+00,2.446e+00,1.721e+00,1.708e+00,3.523e+00,3.426e+00,4.290e+00,4.194e+00,4.352e+00,4.636e+00,5.728e+00,5.059e+00,5.796e+00,3.799e+00,7.782e+00,7.226e+00,6.290e+00,5.963e+00,4.838e+00,6.619e+00,7.243e+00,7.213e+00,9.088e+00,8.641e+00,7.510e+00,9.585e+00,8.657e+00,1.124e+01,9.967e+00,1.175e+01,1.012e+01,1.204e+01,1.197e+01,9.782e+00,1.249e+01,1.114e+01,1.176e+01,1.109e+01,1.271e+01,1.377e+01,1.179e+01,1.303e+01,1.318e+01,1.247e+01,1.354e+01,1.561e+01,1.446e+01,1.606e+01,1.312e+01,1.637e+01,1.469e+01,1.481e+01,1.663e+01,1.703e+01,1.407e+01,1.749e+01,1.875e+01,2.008e+01,1.789e+01,2.014e+01,1.897e+01,1.653e+01,2.005e+01,1.815e+01,1.814e+01,1.899e+01,1.991e+01,2.311e+01,1.950e+01,1.919e+01,2.043e+01,1.963e+01,2.232e+01,2.203e+01,2.018e+01
5.006e-01,3.549e-01,3.907e-01,6.268e-01,1.261e+00,1.239e+00,1.668e+00,1.858e+00,1.405e+00,1.182e+00,2.388e+00,2.910e+00,2.998e+00,2.725e+00,2.663e+00,3.210e+00,4.196e+00,3.762e+00,3.450e+00,2.893e+00,6.321e+00,5.213e+00,3.963e+00,5.086e+00,3.740e+00,6.288e+00,6.120e+00,6.088e+00,7.085e+00,5.850e+00,6.962e+00,8.073e+00,7.363e+00,8.495e+00,7.342e+00,9.210e+00,8.226e+00,9.719e+00,8.583e+00,7.809e+00,1.039e+01,8.870e+00,9.191e+00,1.060e+01,1.038e+01,1.198e+01,1.064e+01,1.152e+01,1.186e+01,1.039e+01,1.347e+01,1.342e+01,1.235e+01,1.336e+01,9.585e+00,1.321e+01,1.182e+01,1.116e+01,1.318e+01,1.508e+01,1.213e+01,1.388e+01,1.450e+01,1.604e+01,1.437e+01,1.638e+01,1.492e+01,1.385e+01,1.737e+01,1.516e+01,1.488e+01,1.591e+01,1.748e+01,2.011e+01,1.767e+01,1.845e+01,1.919e+01,1.729e+01,1.993e+01,1.930e+01,1.778e+01
5.794e-01,4.081e-01,4.415e-01,7.912e-01,1.411e+00,1.619e+00,2.235e+00,2.576e+00,1.832e+00,1.799e+00,3.367e+00,3.580e+00,3.222e+00,3.342e+00,3.675e+00,3.618e+00,5.168e+00,4.366e+00,4.474e+00,2.780e+00,7.389e+00,6.509e+00,5.279e+00,5.219e+00,4.622e+00,6.418e+00,7.064e+00,6.691e+00,8.398e+00,7.689e+00,7.336e+00,8.936e+00,7.938e+00,9.914e+00,8.614e+00,1.069e+01,9.431e+00,1.172e+01,1.107e+01,1.021e+01,1.270e+01,1.151e+01,1.060e+01,9.937e+00,1.224e+01,1.320e+01,1.151e+01,1.338e+01,1.390e+01,1.220e+01,1.361e+01,1.458e+01,1.412e+01,1.411e+01,1.117e+01,1.476e+01,1.413e+01,1.455e+01,1.482e+01,1.635e+01,1.303e+01,1.643e+01,1.633e+01,1.862e+01,1.584e+01,1.730e+01,1.648e+01,1.465e+01,1.876e+01,1.723e+01,1.565e+01,1.839e+01,1.826e+01,2.199e+01,1.958e+01,1.821e+01,1.907e+01,1.888e+01,2.027e+01,2.137e+01,1.883e+01
6.053e-01,7.546e-01,8.197e-01,1.385e+00,1.153e+00,2.284e+00,2.072e+00,2.507e+00,2.507e+00,1.887e+00,2.574e+00,3.015e+00,3.836e+00,3.686e+00,3.478e+00,4.219e+00,4.883e+00,4.964e+00,5.275e+00,4.079e+00,7.289e+00,6.627e+00,5.600e+00,5.969e+00,5.160e+00,6.005e+00,6.790e+00,6.754e+00,8.103e+00,7.659e+00,7.232e+00,8.989e+00,7.893e+00,9.359e+00,8.605e+00,9.595e+00,8.430e+00,1.089e+01,1.175e+01,7.588e+00,1.046e+01,9.279e+00,1.063e+01,9.973e+00,1.224e+01,1.198e+01,1.051e+01,1.217e+01,1.195e+01,1.229e+01,1.293e+01,1.458e+01,1.254e+01,1.380e+01,1.104e+01,1.496e+01,1.359e+01,1.434e+01,1.556e+01,1.393e+01,1.218e+01,1.690e+01,1.682e+01,1.707e+01,1.646e+01,1.717e+01,1.692e+01,1.617e+01,1.960e+01,1.772e+01,1.604e+01,1.812e+01,1.903e+01,2.170e+01,1.883e+01,1.828e+01,1.947e+01,2.103e+01,2.082e+01,1.987e+01,1.905e+01
2.583e-01,2.274e-01,2.953e-01,1.080e+00,9.624e-01,1.498e+00,2.382e+00,2.815e+00,2.251e+00,2.010e+00,3.115e+00,3.873e+00,4.245e+00,3.716e+00,3.319e+00,4.331e+00,4.015e+00,3.933e+00,4.627e+00,3.499e+00,5.724e+00,5.329e+00,5.573e+00,4.593e+00,5.494e+00,5.485e+00,5.813e+00,6.379e+00,7.050e+00,7.260e+00,6.308e+00,7.771e+00,7.484e+00,9.922e+00,9.656e+00,9.394e+00,9.776e+00,1.070e+01,1.046e+01,9.975e+00,1.235e+01,1.024e+01,1.039e+01,9.419e+00,1.044e+01,1.295e+01,9.982e+00,1.187e+01,1.223e+01,1.299e+01,1.239e+01,1.426e+01,1.360e+01,1.493e+01,1.065e+01,1.403e+01,1.257e+01,1.429e+01,1.545e+01,1.508e+01,1.331e+01,1.395e+01,1.495e+01,1.457e+01,1.664e+01,1.794e+01,1.660e+01,1.442e+01,1.840e+01,1.670e+01,1.600e+01,1.856e+01,1.793e+01,2.169e+01,1.796e+01,1.899e+01,1.963e+01,1.947e+01,1.938e+01,2.100e+01,2.229e+01
3.666e-01,8.383e-01,8.372e-01,8.869e-01,1.094e+00,1.848e+00,2.383e+00,2.437e+00,2.234e+00,1.707e+00,3.022e+00,2.544e+00,3.443e+00,3.770e+00,4.060e+00,3.734e+00,4.856e+00,4.573e+00,5.261e+00,3.559e+00,6.817e+00,5.956e+00,5.828e+00,6.195e+00,6.073e+00,6.431e+00,6.746e+00,7.406e+00,8.868e+00,7.734e+00,6.420e+00,9.166e+00,7.565e+00,9.586e+00,9.740e+00,9.747e+00,8.967e+00,1.133e+01,1.089e+01,9.234e+00,1.158e+01,1.038e+01,1.090e+01,1.046e+01,1.246e+01,1.288e+01,1.231e+01,1.343e+01,1.274e+01,1.205e+01,1.292e+01,1.358e+01,1.322e+01,1.262e+01,1.077e+01,1.401e+01,1.227e+01,1.329e+01,1.427e+01,1.489e+01,1.284e+01,1.654e+01,1.712e+01,1.744e+01,1.676e+01,1.808e+01,1.706e+01,1.457e+01,1.849e+01,1.629e+01,1.430e+01,1.860e+01,1.783e+01,2.043e+01,1.864e+01,1.893e+01,1.974e+01,1.964e+01,2.108e+01,2.018e+01,2.032e+01
