8.851e-01,8.197e-01,4.588e-01,5.270e-01,1.406e-01,1.303e-01,2.410e-01,8.262e-01,9.518e-01,1.314e-01,5.175e-02,4.483e-01,1.827e-01,8.728e-01,1.821e-01,2.747e-01,4.691e-01,5.414e-01,2.875e-01,3.065e-04,7.164e-01,5.455e-01,6.334e-01,1.816e-02,7.227e-01,3.233e-01,2.657e-01,3.481e-01,6.306e-01,3.212e-01,7.691e-03,6.704e-01,4.567e-01,1.415e-01,9.130e-01,1.751e-01,3.170e-02,7.404e-01,6.054e-01,9.979e-01,8.349e-01,1.291e-02,6.876e-01,4.902e-01,3.035e-01,4.449e-02,2.952e-01,4.865e-01,1.026e-01,4.618e-01,5.879e-01,4.013e-02,4.810e-01,3.316e-02,8.181e-01,8.897e-01,3.324e-01,1.522e-01,3.223e-01,7.034e-01,3.814e-01,4.463e-01,5.310e-01,2.379e-01,3.000e-01,2.643e-01,1.473e-01,6.809e-01,5.578e-01,3.292e-01,2.544e-01,4.517e-03,9.361e-01,5.391e-01,3.463e-01,7.777e-01,7.306e-01,2.480e-01,2.004e-01,7.586e-01,5.365e-01,3.511e-01,5.844e-01,5.801e-02,5.049e-01,7.812e-01,3.739e-01,3.738e-02,3.704e-01,4.034e-01,4.019e-01,7.517e-01,7.854e-01
7.915e-01,1.683e+00,1.162e+00,6.257e-01,1.960e-01,4.658e-01,5.313e-01,1.391e+00,1.627e+00,1.107e+00,9.445e-01,1.384e+00,2.848e-01,1.230e+00,4.218e-01,1.124e+00,1.171e+00,1.429e+00,1.162e+00,3.117e-02,8.952e-01,1.255e+00,5.941e-01,6.400e-02,8.918e-01,4.283e-01,6.255e-01,1.022e+00,1.345e+00,1.136e+00,6.269e-01,1.427e+00,1.271e+00,7.734e-01,1.388e+00,7.406e-01,3.579e-01,7.416e-01,9.931e-01,9.299e-01,9.559e-01,9.134e-01,1.550e+00,1.215e+00,3.577e-01,5.095e-01,4.646e-01,5.226e-01,6.186e-01,1.052e+00,1.068e+00,2.406e-01,9.268e-01,3.938e-01,1.540e+00,1.628e+00,9.479e-01,1.066e+00,7.770e-01,1.418e+00,1.180e+00,9.404e-01,4.796e-01,5.127e-01,1.017e+00,2.523e-01,9.611e-01,1.179e+00,1.232e+00,6.152e-01,8.647e-01,3.436e-01,1.180e+00,6.776e-01,1.144e+00,1.079e+00,7.681e-01,7.067e-01,1.122e+00,1.302e+00,9.869e-01,7.102e-01,6.598e-01,8.069e-02,1.282e+00,1.442e+00,4.186e-01,5.857e-01,8.109e-01,1.134e+00,7.199e-01,1.057e+00,1.161e+00
8.823e-01,9.749e-01,1.436e+00,1.252e+00,5.181e-01,1.084e+00,1.088e+00,1.598e+00,1.189e+00,7.748e-01,6.767e-01,6.190e-01,8.325e-01,1.109e+00,3.652e-01,7.565e-01,7.358e-01,1.546e+00,1.251e+00,9.947e-01,1.752e+00,1.246e+00,1.252e+00,5.520e-01,1.549e+00,1.214e+00,1.037e+00,1.153e+00,1.597e+00,1.211e+00,1.037e+00,1.759e+00,6.519e-01,8.839e-01,1.188e+00,7.173e-01,2.735e-01,1.499e+00,1.608e+00,1.542e+00,1.036e+00,1.878e-01,1.580e+00,1.344e+00,1.205e+00,2.552e-01,1.086e+00,7.892e-01,4.891e-01,9.232e-01,1.500e+00,4.702e-01,9.506e-01,4.569e-01,1.718e+00,1.210e+00,1.308e+00,8.008e-01,1.141e+00,1.651e+00,5.322e-01,1.503e+00,1.251e+00,7.169e-01,9.811e-01,9.303e-01,7.085e-01,1.383e+00,8.127e-01,6.216e-01,5.704e-01,9.615e-01,1.381e+00,9.862e-01,6.062e-01,1.767e+00,1.589e+00,1.273e+00,1.270e+00,1.540e+00,1.419e+00,6.441e-01,7.851e-01,8.824e-01,1.266e+00,1.602e+00,1.005e+00,7.199e-01,4.610e-01,1.415e+00,5.698e-01,1.644e+00,1.208e+00
5.495e-01,7.317e-01,1.146e+00,1.531e+00,1.353e+00,1.190e+00,1.782e+00,2.187e+00,1.623e+00,9.186e-01,8.796e-01,1.208e+00,1.618e+00,1.430e+00,9.476e-01,1.619e+00,9.758e-01,1.908e+00,1.531e+00,8.878e-01,1.612e+00,1.006e+00,1.874e+00,5.680e-01,1.574e+00,1.683e+00,1.479e+00,1.853e+00,2.203e+00,1.415e+00,1.536e+00,2.371e+00,7.740e-01,1.453e+00,1.186e+00,6.249e-01,1.117e+00,1.725e+00,1.507e+00,1.947e+00,1.022e+00,3.468e-01,2.116e+00,1.654e+00,1.169e+00,9.244e-01,8.982e-01,7.776e-01,1.267e+00,1.497e+00,1.972e+00,6.477e-01,7.948e-01,5.811e-01,2.280e+00,9.148e-01,2.015e+00,1.600e+00,1.824e+00,1.676e+00,1.105e+00,1.237e+00,1.586e+00,1.429e+00,9.832e-01,9.531e-01,1.507e+00,1.190e+00,1.515e+00,1.292e+00,5.781e-01,1.598e+00,1.110e+00,1.000e+00,8.560e-01,1.337e+00,1.464e+00,1.698e+00,1.818e+00,1.931e+00,1.167e+00,1.230e+00,1.074e+00,8.304e-01,1.922e+00,2.046e+00,1.712e+00,1.018e+00,6.673e-01,2.077e+00,8.728e-01,1.895e+00,1.336e+00
5.569e-01,8.252e-01,1.109e+00,1.458e+00,2.181e+00,2.087e+00,2.443e+00,2.973e+00,1.809e+00,1.943e+00,9.101e-01,1.356e+00,1.863e+00,1.786e+00,1.188e+00,1.964e+00,1.136e+00,2.241e+00,2.185e+00,1.552e+00,1.665e+00,1.607e+00,1.971e+00,1.346e+00,1.784e+00,2.061e+00,2.373e+00,2.175e+00,2.606e+00,1.718e+00,1.565e+00,2.804e+00,1.558e+00,2.032e+00,1.685e+00,1.202e+00,1.614e+00,1.949e+00,1.645e+00,2.813e+00,1.680e+00,7.541e-01,3.071e+00,2.495e+00,1.931e+00,1.182e+00,1.147e+00,1.467e+00,1.435e+00,2.352e+00,2.490e+00,9.515e-01,1.355e+00,1.482e+00,2.437e+00,1.096e+00,2.048e+00,2.278e+00,2.450e+00,2.481e+00,2.029e+00,1.472e+00,2.424e+00,1.738e+00,1.622e+00,1.171e+00,2.415e+00,1.288e+00,2.322e+00,1.995e+00,6.904e-01,1.830e+00,1.337e+00,1.598e+00,1.670e+00,1.646e+00,2.255e+00,1.826e+00,2.622e+00,2.638e+00,2.051e+00,1.671e+00,1.285e+00,8.480e-01,2.754e+00,2.700e+00,2.250e+00,1.347e+00,1.317e+00,2.463e+00,1.089e+00,2.294e+00,1.461e+00
8.379e-01,8.249e-01,5.995e-01,1.111e+00,1.618e+00,2.209e+00,2.501e+00,3.077e+00,2.286e+00,1.365e+00,3.983e-01,1.617e+00,1.783e+00,2.623e+00,1.468e+00,2.168e+00,1.851e+00,2.377e+00,1.616e+00,1.731e+00,2.058e+00,1.251e+00,1.946e+00,1.524e+00,1.814e+00,2.047e+00,1.873e+00,2.166e+00,1.903e+00,1.321e+00,1.109e+00,2.787e+00,2.128e+00,1.806e+00,2.278e+00,1.420e+00,1.458e+00,1.832e+00,1.826e+00,2.907e+00,2.424e+00,9.707e-01,2.290e+00,2.658e+00,2.220e+00,1.418e+00,1.400e+00,2.097e+00,1.770e+00,2.541e+00,2.758e+00,7.660e-01,1.967e+00,1.726e+00,1.944e+00,1.211e+00,1.550e+00,2.261e+00,1.750e+00,2.240e+00,2.231e+00,1.827e+00,2.794e+00,1.730e+00,1.820e+00,1.541e+00,1.647e+00,1.416e+00,2.579e+00,2.269e+00,1.248e+00,1.132e+00,1.786e+00,1.958e+00,1.661e+00,1.235e+00,1.873e+00,2.082e+00,1.946e+00,2.594e+00,2.369e+00,1.515e+00,1.940e+00,7.808e-01,2.405e+00,2.799e+00,2.652e+00,1.217e+00,1.438e+00,2.043e+00,1.274e+00,2.721e+00,1.533e+00
1.900e-01,2.171e-01,4.227e-01,8.581e-01,1.183e+00,1.153e+00,2.013e+00,2.052e+00,1.690e+00,1.612e+00,4.881e-01,1.017e+00,1.984e+00,1.709e+00,1.634e+00,1.354e+00,1.269e+00,2.285e+00,1.834e+00,1.017e+00,1.273e+00,1.240e+00,1.721e+00,1.328e+00,1.370e+00,1.355e+00,1.695e+00,2.071e+00,2.343e+00,1.744e+00,1.335e+00,2.253e+00,9.001e-01,1.676e+00,1.827e+00,1.274e+00,1.503e+00,1.887e+00,1.562e+00,1.946e+00,1.095e+00,9.477e-01,1.674e+00,2.205e+00,1.659e+00,1.143e+00,1.241e+00,1.423e+00,1.318e+00,1.961e+00,1.737e+00,6.048e-01,1.600e+00,1.320e+00,2.222e+00,1.372e+00,1.753e+00,1.771e+00,2.066e+00,1.253e+00,1.992e+00,1.527e+00,2.308e+00,2.075e+00,9.343e-01,1.304e+00,1.594e+00,1.590e+00,1.523e+00,1.409e+00,1.037e+00,1.413e+00,1.237e+00,1.844e+00,1.596e+00,1.267e+00,1.813e+00,1.567e+00,2.323e+00,2.210e+00,1.790e+00,1.027e+00,1.253e+00,7.025e-01,1.773e+00,2.082e+00,2.219e+00,1.321e+00,1.417e+00,2.008e+00,6.933e-01,1.948e+00,1.750e+00
1.117e-01,1.740e-01,9.393e-01,1.151e+00,1.767e+00,2.397e+00,2.778e+00,2.993e+00,2.218e+00,2.722e+00,1.345e+00,1.662e+00,2.550e+00,2.366e+00,2.595e+00,1.725e+00,2.170e+00,3.397e+00,3.021e+00,3.146e+00,2.323e+00,2.287e+00,2.481e+00,2.730e+00,2.380e+00,2.846e+00,2.515e+00,3.242e+00,3.556e+00,2.797e+00,2.685e+00,3.792e+00,1.556e+00,3.093e+00,2.207e+00,1.899e+00,2.103e+00,2.606e+00,2.980e+00,3.284e+00,2.220e+00,1.848e+00,3.421e+00,3.146e+00,3.313e+00,2.126e+00,2.644e+00,1.950e+00,2.177e+00,3.444e+00,2.777e+00,1.759e+00,3.031e+00,2.208e+00,3.206e+00,1.414e+00,2.877e+00,3.100e+00,2.720e+00,2.938e+00,2.957e+00,2.429e+00,3.456e+00,2.410e+00,2.717e+00,2.750e+00,2.287e+00,2.705e+00,2.939e+00,2.694e+00,2.057e+00,2.831e+00,1.998e+00,2.900e+00,2.500e+00,2.618e+00,2.589e+00,2.345e+00,3.704e+00,3.186e+00,3.394e+00,1.317e+00,1.413e+00,2.188e+00,3.311e+00,3.663e+00,3.227e+00,2.336e+00,1.995e+00,2.742e+00,1.703e+00,3.304e+00,2.662e+00
4.396e-01,6.458e-01,1.228e+00,1.542e+00,2.208e+00,2.406e+00,3.110e+00,3.564e+00,2.955e+00,4.041e+00,1.459e+00,2.355e+00,3.768e+00,2.718e+00,3.430e+00,2.658e+00,2.419e+00,4.240e+00,3.613e+00,3.516e+00,2.475e+00,2.856e+00,3.771e+00,3.345e+00,3.264e+00,3.127e+00,3.703e+00,4.362e+00,4.623e+00,3.968e+00,3.581e+00,5.020e+00,2.516e+00,3.488e+00,3.605e+00,2.814e+00,3.232e+00,3.917e+00,3.161e+00,3.944e+00,2.774e+00,2.287e+00,4.614e+00,4.358e+00,3.311e+00,3.018e+00,2.806e+00,2.671e+00,2.634e+00,4.637e+00,3.865e+00,2.421e+00,3.857e+00,3.195e+00,4.308e+00,2.118e+00,3.819e+00,3.405e+00,4.193e+00,4.177e+00,3.515e+00,3.045e+00,4.658e+00,3.158e+00,3.286e+00,2.784e+00,3.232e+00,3.776e+00,3.604e+00,3.657e+00,2.026e+00,3.471e+00,2.331e+00,3.764e+00,3.200e+00,2.997e+00,3.380e+00,2.494e+00,5.107e+00,3.818e+00,4.061e+00,2.526e+00,1.802e+00,2.778e+00,4.079e+00,4.917e+00,4.152e+00,3.299e+00,2.452e+00,3.772e+00,2.374e+00,3.585e+00,3.370e+00
8.848e-01,1.751e+00,1.608e+00,1.105e+00,9.227e-01,1.698e+00,1.933e+00,2.924e+00,2.939e+00,2.898e+00,2.519e+00,2.628e+00,1.865e+00,2.736e+00,2.880e+00,2.138e+00,3.292e+00,3.498e+00,2.926e+00,2.959e+00,2.748e+00,3.021e+00,2.634e+00,2.720e+00,3.031e+00,2.057e+00,2.381e+00,3.416e+00,3.946e+00,3.300e+00,2.677e+00,3.986e+00,2.169e+00,2.572e+00,3.001e+00,2.689e+00,1.792e+00,2.507e+00,3.830e+00,3.252e+00,2.958e+00,3.020e+00,3.590e+00,3.304e+00,3.090e+00,2.592e+00,2.795e+00,1.923e+00,2.169e+00,3.889e+00,3.340e+00,2.208e+00,3.611e+00,2.359e+00,3.454e+00,2.706e+00,3.108e+00,3.304e+00,2.561e+00,3.612e+00,2.962e+00,2.782e+00,3.058e+00,2.419e+00,2.876e+00,2.191e+00,2.724e+00,3.635e+00,3.644e+00,2.198e+00,3.080e+00,2.609e+00,2.926e+00,3.030e+00,3.105e+00,2.813e+00,3.015e+00,2.571e+00,3.980e+00,3.496e+00,3.872e+00,1.705e+00,1.895e+00,1.913e+00,3.980e+00,3.867e+00,2.286e+00,2.354e+00,2.363e+00,3.066e+00,2.270e+00,3.371e+00,3.816e+00
1.179e-01,6.296e-01,9.835e-01,1.117e+00,1.230e+00,1.739e+00,2.530e+00,2.809e+00,2.707e+00,2.646e+00,2.968e+00,3.105e+00,2.967e+00,2.864e+00,4.043e+00,2.473e+00,3.673e+00,4.039e+00,3.524e+00,3.174e+00,3.316e+00,2.395e+00,3.506e+00,3.722e+00,2.815e+00,2.620e+00,3.078e+00,4.184e+00,4.515e+00,3.453e+00,3.292e+00,4.369e+00,1.949e+00,3.268e+00,3.135e+00,3.267e+00,2.455e+00,2.674e+00,3.984e+00,3.216e+00,2.457e+00,2.943e+00,3.611e+00,4.158e+00,3.501e+00,3.636e+00,3.083e+00,2.774e+00,3.166e+00,4.232e+00,3.904e+00,2.850e+00,3.945e+00,3.057e+00,4.004e+00,2.492e+00,4.303e+00,4.323e+00,3.400e+00,3.187e+00,3.865e+00,3.136e+00,3.845e+00,3.520e+00,2.773e+00,3.088e+00,2.772e+00,3.537e+00,3.473e+00,3.407e+00,3.123e+00,3.513e+00,3.052e+00,3.098e+00,3.125e+00,2.666e+00,3.492e+00,3.136e+00,4.514e+00,4.170e+00,3.837e+00,2.727e+00,2.374e+00,3.112e+00,4.022e+00,4.259e+00,3.219e+00,3.470e+00,2.685e+00,3.296e+00,2.947e+00,3.606e+00,4.006e+00
3.978e-01,5.618e-01,6.807e-01,9.542e-01,1.637e+00,2.103e+00,2.706e+00,2.949e+00,2.403e+00,3.327e+00,2.215e+00,2.908e+00,4.133e+00,3.408e+00,4.930e+00,3.549e+00,3.762e+00,4.489e+00,3.883e+00,3.597e+00,3.619e+00,2.786e+00,4.473e+00,5.169e+00,4.099e+00,2.636e+00,4.066e+00,4.413e+00,4.492e+00,3.909e+00,3.793e+00,4.252e+00,3.315e+00,3.774e+00,4.225e+00,4.572e+00,2.870e+00,3.470e+00,3.907e+00,4.249e+00,3.060e+00,3.086e+00,4.074e+00,5.141e+00,4.449e+00,3.689e+00,3.696e+00,4.126e+00,2.988e+00,5.006e+00,4.817e+00,3.689e+00,4.327e+00,4.863e+00,4.294e+00,3.028e+00,4.424e+00,4.551e+00,3.990e+00,4.628e+00,4.041e+00,4.205e+00,5.500e+00,4.058e+00,3.638e+00,3.567e+00,3.896e+00,3.917e+00,4.149e+00,3.885e+00,2.637e+00,3.473e+00,3.850e+00,4.584e+00,3.963e+00,2.724e+00,5.190e+00,3.662e+00,5.656e+00,4.809e+00,4.520e+00,3.976e+00,2.736e+00,3.334e+00,4.843e+00,4.419e+00,4.296e+00,4.497e+00,3.077e+00,3.858e+00,2.778e+00,3.953e+00,4.452e+00
1.530e-01,1.988e-01,9.477e-01,9.671e-01,1.320e+00,1.782e+00,1.757e+00,1.933e+00,1.130e+00,1.914e+00,1.062e+00,1.059e+00,2.811e+00,2.148e+00,2.415e+00,1.753e+00,1.633e+00,2.227e+00,3.064e+00,2.887e+00,2.364e+00,1.948e+00,2.300e+00,2.230e+00,2.033e+00,2.483e+00,2.513e+00,2.558e+00,3.274e+00,2.601e+00,2.595e+00,3.400e+00,1.528e+00,2.919e+00,1.553e+00,1.940e+00,2.243e+00,2.587e+00,2.257e+00,2.932e+00,1.883e+00,1.567e+00,2.765e+00,2.586e+00,3.319e+00,2.212e+00,2.167e+00,2.328e+00,1.399e+00,3.296e+00,3.087e+00,2.503e+00,2.566e+00,1.999e+00,2.531e+00,1.203e+00,2.520e+00,2.536e+00,2.915e+00,3.378e+00,2.058e+00,2.873e+00,2.705e+00,1.601e+00,2.250e+00,1.902e+00,2.606e+00,2.479e+00,2.812e+00,2.016e+00,1.186e+00,2.328e+00,1.795e+00,2.498e+00,1.697e+00,2.218e+00,2.962e+00,2.147e+00,3.693e+00,2.206e+00,3.243e+00,1.760e+00,1.365e+00,2.450e+00,2.805e+00,3.422e+00,2.898e+00,2.658e+00,1.955e+00,2.769e+00,1.469e+00,2.985e+00,1.745e+00
8.175e-01,1.037e+00,1.035e+00,1.084e+00,1.041e+00,2.073e+00,2.379e+00,3.003e+00,2.770e+00,2.252e+00,1.301e+00,2.271e+00,2.865e+00,3.475e+00,3.952e+00,3.182e+00,3.800e+00,4.105e+00,3.500e+00,3.861e+00,3.970e+00,2.957e+00,3.563e+00,3.660e+00,3.608e+00,3.133e+00,2.957e+00,4.053e+00,4.406e+00,3.311e+00,2.899e+00,4.941e+00,3.541e+00,3.472e+00,3.624e+00,3.620e+00,2.265e+00,3.366e+00,3.290e+00,3.774e+00,3.263e+00,2.632e+00,3.349e+00,3.988e+00,3.821e+00,3.286e+00,2.844e+00,3.760e+00,2.549e+00,4.872e+00,4.187e+00,2.597e+00,3.704e+00,3.004e+00,3.874e+00,2.753e+00,2.998e+00,3.524e+00,3.474e+00,4.352e+00,3.813e+00,3.685e+00,3.762e+00,2.577e+00,2.977e+00,2.625e+00,2.358e+00,3.364e+00,4.006e+00,3.202e+00,3.164e+00,2.355e+00,3.768e+00,4.015e+00,3.090e+00,3.014e+00,3.853e+00,3.678e+00,3.805e+00,3.828e+00,4.260e+00,2.408e+00,3.338e+00,2.698e+00,4.272e+00,4.820e+00,4.485e+00,3.227e+00,3.431e+00,3.103e+00,2.491e+00,4.144e+00,3.702e+00
8.201e-01,1.132e+00,1.381e+00,1.563e+00,1.661e+00,1.988e+00,2.408e+00,3.232e+00,2.897e+00,2.806e+00,2.413e+00,3.176e+00,4.387e+00,4.109e+00,5.387e+00,4.411e+00,4.806e+00,4.711e+00,4.961e+00,4.242e+00,4.583e+00,4.158e+00,5.002e+00,4.761e+00,5.398e+00,3.902e+00,4.619e+00,4.905e+00,6.121e+00,5.068e+00,5.145e+00,5.811e+00,4.166e+00,5.639e+00,4.589e+00,4.792e+00,3.195e+00,4.283e+00,4.426e+00,5.597e+00,3.559e+00,3.517e+00,5.901e+00,4.635e+00,5.182e+00,4.704e+00,4.081e+00,4.671e+00,3.941e+00,5.909e+00,5.610e+00,4.627e+00,5.195e+00,4.442e+00,5.430e+00,3.850e+00,5.563e+00,4.862e+00,4.334e+00,6.034e+00,4.574e+00,4.923e+00,5.149e+00,3.511e+00,4.878e+00,4.130e+00,4.681e+00,4.572e+00,5.637e+00,4.258e+00,3.539e+00,4.504e+00,4.436e+00,5.188e+00,3.991e+00,4.533e+00,6.003e+00,4.590e+00,6.305e+00,5.174e+00,5.063e+00,4.025e+00,3.012e+00,4.399e+00,6.344e+00,6.406e+00,5.609e+00,5.607e+00,3.941e+00,4.790e+00,3.680e+00,5.248e+00,4.952e+00
2.916e-01,1.138e+00,9.706e-01,8.261e-01,9.865e-01,1.449e+00,1.858e+00,2.504e+00,2.576e+00,2.189e+00,2.221e+00,2.972e+00,2.750e+00,3.195e+00,4.455e+00,4.311e+00,5.138e+00,4.870e+00,3.970e+00,4.076e+00,3.692e+00,3.604e+00,3.942e+00,4.374e+00,3.782e+00,3.020e+00,3.109e+00,4.210e+00,4.977e+00,4.088e+00,4.472e+00,5.571e+00,3.919e+00,4.401e+00,4.307e+00,3.957e+00,2.853e+00,2.820e+00,3.967e+00,3.942e+00,3.441e+00,3.340e+00,4.513e+00,3.778e+00,4.021e+00,4.857e+00,3.368e+00,4.451e+00,3.668e+00,5.764e+00,4.548e+00,3.866e+00,4.078e+00,3.346e+00,4.427e+00,3.634e+00,4.836e+00,4.440e+00,3.576e+00,4.770e+00,4.671e+00,4.275e+00,3.691e+00,3.266e+00,4.513e+00,3.794e+00,3.502e+00,3.977e+00,4.855e+00,3.609e+00,4.002e+00,3.963e+00,4.271e+00,4.493e+00,4.328e+00,3.467e+00,4.705e+00,4.069e+00,5.045e+00,5.019e+00,3.885e+00,3.316e+00,3.130e+00,3.141e+00,5.862e+00,5.636e+00,4.937e+00,4.183e+00,3.600e+00,4.279e+00,3.707e+00,4.410e+00,4.217e+00
7.422e-01,1.480e+00,1.448e+00,1.151e+00,7.442e-01,1.489e+00,1.658e+00,2.568e+00,2.736e+00,2.131e+00,3.000e+00,3.384e+00,3.096e+00,3.665e+00,5.157e+00,4.066e+00,6.173e+00,5.028e+00,5.068e+00,4.153e+00,5.729e+00,4.995e+00,5.309e+00,5.229e+00,5.412e+00,3.737e+00,4.322e+00,4.640e+00,6.145e+00,4.802e+00,4.745e+00,6.173e+00,4.401e+00,6.019e+00,5.008e+00,5.664e+00,2.686e+00,3.528e+00,4.406e+00,4.976e+00,3.494e+00,3.921e+00,5.260e+00,4.567e+00,4.720e+00,5.654e+00,4.268e+00,4.721e+00,4.200e+00,6.233e+00,5.426e+00,4.684e+00,5.332e+00,4.282e+00,5.368e+00,4.183e+00,5.609e+00,5.386e+00,4.661e+00,5.451e+00,5.349e+00,5.037e+00,4.163e+00,3.124e+00,4.590e+00,3.654e+00,3.764e+00,5.100e+00,5.660e+00,4.834e+00,4.771e+00,4.192e+00,4.683e+00,4.709e+00,4.472e+00,4.768e+00,5.811e+00,4.615e+00,5.323e+00,4.911e+00,5.215e+00,4.296e+00,4.054e+00,4.681e+00,6.164e+00,6.682e+00,5.366e+00,5.404e+00,4.528e+00,4.846e+00,4.226e+00,4.982e+00,5.498e+00
4.440e-01,1.031e+00,1.306e+00,1.117e+00,1.562e+00,2.167e+00,2.421e+00,3.077e+00,2.698e+00,3.535e+00,2.742e+00,2.999e+00,3.383e+00,3.192e+00,4.534e+00,3.332e+00,4.350e+00,5.593e+00,5.136e+00,4.763e+00,4.575e+00,4.600e+00,5.235e+00,5.274e+00,4.867e+00,3.830e+00,4.727e+00,4.915e+00,6.115e+00,5.248e+00,4.467e+00,5.300e+00,3.441e+00,5.436e+00,4.426e+00,5.164e+00,3.556e+00,3.870e+00,4.704e+00,5.560e+00,3.621e+00,4.541e+00,5.904e+00,5.533e+00,5.387e+00,4.819e+00,4.024e+00,3.710e+00,4.347e+00,5.936e+00,5.249e+00,4.475e+00,5.194e+00,4.905e+00,5.387e+00,3.739e+00,5.594e+00,5.405e+00,4.330e+00,5.718e+00,4.367e+00,4.949e+00,5.413e+00,4.324e+00,5.295e+00,3.701e+00,4.064e+00,5.048e+00,5.811e+00,4.243e+00,4.360e+00,4.621e+00,4.587e+00,5.248e+00,4.492e+00,4.184e+00,5.696e+00,4.253e+00,6.302e+00,5.455e+00,5.423e+00,3.902e+00,2.522e+00,3.907e+00,6.174e+00,6.280e+00,5.107e+00,5.070e+00,4.222e+00,4.608e+00,4.239e+00,4.685e+00,5.086e+00
7.016e-01,1.230e+00,1.228e+00,1.302e+00,1.826e+00,2.060e+00,2.721e+00,3.529e+00,3.228e+00,3.502e+00,1.848e+00,2.927e+00,4.558e+00,4.450e+00,5.553e+00,4.305e+00,5.315e+00,5.877e+00,6.035e+00,4.715e+00,5.388e+00,5.349e+00,5.952e+00,5.418e+00,5.803e+00,4.698e+00,4.723e+00,5.362e+00,7.334e+00,5.290e+00,4.998e+00,6.872e+00,4.579e+00,7.015e+00,5.398e+00,5.616e+00,4.396e+00,5.032e+00,4.235e+00,5.862e+00,4.761e+00,4.105e+00,5.648e+00,6.181e+00,6.089e+00,5.755e+00,4.679e+00,5.244e+00,3.764e+00,8.062e+00,5.882e+00,4.818e+00,5.945e+00,4.838e+00,6.769e+00,4.085e+00,5.244e+00,6.508e+00,6.678e+00,6.806e+00,6.015e+00,5.882e+00,5.513e+00,4.393e+00,4.833e+00,4.057e+00,5.147e+00,5.888e+00,6.975e+00,5.460e+00,4.870e+00,4.590e+00,5.536e+00,5.862e+00,5.937e+00,5.191e+00,6.779e+00,4.716e+00,6.601e+00,5.886e+00,6.540e+00,4.972e+00,4.351e+00,4.238e+00,6.417e+00,7.105e+00,6.843e+00,6.046e+00,5.741e+00,6.228e+00,3.770e+00,6.255e+00,6.093e+00
2.841e-01,2.720e-01,9.676e-01,1.182e+00,1.085e+00,1.901e+00,2.291e+00,2.358e+00,1.728e+00,1.562e+00,1.842e+00,2.040e+00,3.079e+00,2.840e+00,4.434e+00,3.756e+00,4.450e+00,5.540e+00,4.510e+00,5.119e+00,6.306e+00,4.719e+00,5.987e+00,5.513e+00,5.311e+00,4.369e+00,4.338e+00,4.852e+00,6.033e+00,4.614e+00,4.244e+00,4.834e+00,3.759e+00,5.651e+00,4.597e+00,5.646e+00,2.697e+00,4.165e+00,4.397e+00,5.245e+00,3.746e+00,3.849e+00,4.638e+00,5.414e+00,5.670e+00,5.147e+00,4.675e+00,5.423e+00,4.241e+00,5.687e+00,5.079e+00,4.644e+00,4.182e+00,5.137e+00,5.124e+00,4.377e+00,5.265e+00,5.232e+00,4.752e+00,5.317e+00,4.854e+00,5.421e+00,5.328e+00,4.727e+00,5.397e+00,4.325e+00,3.906e+00,4.845e+00,5.123e+00,4.191e+00,4.576e+00,4.529e+00,5.660e+00,5.232e+00,4.286e+00,4.035e+00,6.593e+00,5.441e+00,5.552e+00,6.471e+00,5.076e+00,4.025e+00,3.512e+00,4.446e+00,5.808e+00,5.768e+00,6.411e+00,5.878e+00,4.780e+00,4.913e+00,4.367e+00,5.288e+00,5.718e+00
2.089e-01,2.448e-01,6.408e-01,9.913e-01,1.595e+00,1.992e+00,2.526e+00,2.613e+00,1.951e+00,2.654e+00,1.147e+00,2.043e+00,3.631e+00,2.788e+00,4.003e+00,3.825e+00,3.995e+00,5.060e+00,4.214e+00,4.110e+00,4.991e+00,4.457e+00,5.886e+00,5.931e+00,6.063e+00,4.032e+00,5.262e+00,4.211e+00,6.056e+00,5.198e+00,4.574e+00,5.235e+00,4.332e+00,5.968e+00,5.554e+00,5.977e+00,4.218e+00,4.055e+00,4.082e+00,5.571e+00,4.372e+00,3.776e+00,4.902e+00,6.194e+00,5.435e+00,5.325e+00,4.745e+00,5.077e+00,4.045e+00,6.662e+00,5.352e+00,4.277e+00,5.311e+00,5.750e+00,5.113e+00,4.321e+00,5.479e+00,5.103e+00,5.561e+00,6.110e+00,4.574e+00,5.985e+00,6.499e+00,5.231e+00,4.906e+00,4.682e+00,4.321e+00,4.460e+00,5.342e+00,4.695e+00,4.464e+00,5.152e+00,4.774e+00,5.991e+00,5.109e+00,5.021e+00,6.772e+00,4.980e+00,5.620e+00,5.994e+00,5.126e+00,4.900e+00,3.616e+00,4.557e+00,5.963e+00,5.922e+00,6.919e+00,5.502e+00,4.977e+00,5.717e+00,3.501e+00,4.900e+00,5.148e+00
3.757e-01,3.976e-01,6.159e-01,1.136e+00,1.576e+00,1.455e+00,2.268e+00,2.499e+00,2.097e+00,2.470e+00,1.795e+00,2.173e+00,3.223e+00,2.433e+00,4.464e+00,3.788e+00,4.598e+00,5.146e+00,4.312e+00,5.044e+00,5.086e+00,4.973e+00,7.150e+00,6.262e+00,6.075e+00,4.242e+00,6.269e+00,5.414e+00,7.431e+00,5.513e+00,4.943e+00,6.411e+00,4.539e+00,5.864e+00,6.488e+00,6.333e+00,4.608e+00,4.875e+00,4.978e+00,6.102e+00,4.828e+00,4.782e+00,5.658e+00,6.468e+00,5.993e+00,6.550e+00,4.773e+00,6.164e+00,5.180e+00,7.344e+00,6.367e+00,5.284e+00,5.739e+00,6.120e+00,5.720e+00,5.078e+00,6.337e+00,5.158e+00,6.556e+00,5.647e+00,5.775e+00,5.491e+00,5.892e+00,5.368e+00,5.035e+00,4.333e+00,4.328e+00,5.683e+00,5.871e+00,5.339e+00,5.751e+00,6.151e+00,5.650e+00,6.392e+00,5.547e+00,5.633e+00,7.896e+00,5.407e+00,6.571e+00,6.383e+00,5.479e+00,4.956e+00,4.338e+00,4.632e+00,7.313e+00,7.261e+00,7.392e+00,5.423e+00,5.349e+00,5.669e+00,5.157e+00,5.772e+00,5.698e+00
1.820e-01,2.777e-01,1.007e+00,1.348e+00,1.414e+00,1.649e+00,2.373e+00,2.510e+00,2.183e+00,2.619e+00,2.309e+00,2.488e+00,3.776e+00,2.703e+00,4.698e+00,3.531e+00,4.598e+00,5.595e+00,4.874e+00,5.638e+00,5.719e+00,4.726e+00,7.205e+00,6.630e+00,5.805e+00,5.216e+00,5.916e+00,6.306e+00,7.805e+00,6.314e+00,6.145e+00,7.320e+00,3.724e+00,6.783e+00,6.344e+00,6.525e+00,5.219e+00,5.670e+00,5.120e+00,6.460e+00,5.689e+00,4.586e+00,6.201e+00,6.984e+00,6.494e+00,7.759e+00,5.227e+00,5.810e+00,4.997e+00,8.530e+00,6.864e+00,5.951e+00,5.860e+00,5.840e+00,6.497e+00,5.152e+00,6.770e+00,6.218e+00,7.354e+00,6.774e+00,5.156e+00,6.713e+00,6.445e+00,6.422e+00,5.239e+00,4.762e+00,5.142e+00,6.395e+00,5.846e+00,6.206e+00,5.404e+00,6.855e+00,6.053e+00,5.771e+00,5.454e+00,5.796e+00,7.228e+00,5.105e+00,6.570e+00,6.789e+00,6.775e+00,6.048e+00,4.379e+00,6.094e+00,6.862e+00,7.303e+00,7.561e+00,6.677e+00,5.629e+00,7.107e+00,5.706e+00,6.554e+00,6.374e+00
7.221e-01,1.265e+00,1.080e+00,9.997e-01,1.472e+00,2.504e+00,2.500e+00,3.350e+00,2.944e+00,2.928e+00,2.473e+00,3.228e+00,3.297e+00,3.912e+00,5.321e+00,4.638e+00,5.932e+00,5.773e+00,5.361e+00,6.790e+00,6.980e+00,6.381e+00,7.395e+00,7.769e+00,7.376e+00,6.708e+00,6.810e+00,7.615e+00,8.477e+00,7.058e+00,5.910e+00,8.056e+00,7.103e+00,7.721e+00,7.431e+00,8.278e+00,5.168e+00,5.864e+00,6.427e+00,8.030e+00,7.137e+00,6.655e+00,7.276e+00,7.915e+00,7.641e+00,8.433e+00,6.077e+00,8.047e+00,6.301e+00,9.363e+00,7.945e+00,6.717e+00,7.774e+00,8.100e+00,6.422e+00,6.257e+00,6.516e+00,7.880e+00,7.752e+00,8.406e+00,7.619e+00,7.137e+00,7.558e+00,6.276e+00,7.909e+00,5.641e+00,6.311e+00,7.242e+00,9.010e+00,6.929e+00,7.099e+00,7.153e+00,7.113e+00,7.392e+00,7.242e+00,6.135e+00,8.934e+00,6.995e+00,8.262e+00,7.579e+00,7.974e+00,5.796e+00,5.052e+00,6.324e+00,8.396e+00,9.580e+00,8.470e+00,7.363e+00,7.552e+00,7.469e+00,6.844e+00,7.529e+00,7.201e+00
6.028e-02,1.006e-01,8.569e-01,1.208e+00,1.922e+00,2.000e+00,2.623e+00,2.799e+00,2.286e+00,3.622e+00,2.220e+00,2.789e+00,5.132e+00,3.558e+00,5.894e+00,4.034e+00,4.566e+00,5.229e+00,5.721e+00,5.489e+00,6.055e+00,5.847e+00,8.130e+00,7.990e+00,7.922e+00,6.846e+00,8.388e+00,8.468e+00,9.575e+00,8.472e+00,8.140e+00,8.650e+00,5.906e+00,9.217e+00,8.360e+00,8.094e+00,6.390e+00,7.741e+00,6.750e+00,8.323e+00,7.100e+00,6.448e+00,8.592e+00,9.046e+00,8.809e+00,8.990e+00,7.791e+00,8.410e+00,5.998e+00,9.357e+00,8.452e+00,8.097e+00,7.759e+00,8.968e+00,7.530e+00,7.032e+00,7.511e+00,8.343e+00,9.006e+00,8.596e+00,8.191e+00,7.929e+00,9.134e+00,7.290e+00,7.435e+00,7.160e+00,8.266e+00,8.027e+00,7.623e+00,8.694e+00,6.084e+00,8.816e+00,6.561e+00,7.692e+00,7.846e+00,7.309e+00,9.327e+00,6.552e+00,9.930e+00,7.425e+00,8.707e+00,6.645e+00,4.607e+00,8.164e+00,8.740e+00,9.160e+00,9.339e+00,9.265e+00,7.316e+00,8.851e+00,6.035e+00,7.969e+00,7.877e+00
7.136e-01,7.721e-01,9.070e-01,9.106e-01,1.028e+00,1.303e+00,1.684e+00,2.219e+00,2.169e+00,3.020e+00,1.650e+00,2.006e+00,3.382e+00,2.783e+00,4.443e+00,2.871e+00,3.641e+00,4.575e+00,4.370e+00,4.913e+00,4.891e+00,4.998e+00,6.949e+00,6.729e+00,7.174e+00,5.880e+00,7.025e+00,7.125e+00,8.808e+00,7.288e+00,6.214e+00,7.231e+00,5.791e+00,7.089e+00,7.537e+00,7.654e+00,5.497e+00,7.220e+00,6.630e+00,8.106e+00,7.313e+00,6.857e+00,7.770e+00,8.521e+00,8.336e+00,7.515e+00,6.566e+00,7.355e+00,5.229e+00,8.585e+00,8.061e+00,6.653e+00,7.104e+00,7.546e+00,6.917e+00,6.191e+00,6.278e+00,6.803e+00,7.470e+00,8.052e+00,6.471e+00,7.168e+00,8.128e+00,6.389e+00,6.440e+00,5.514e+00,6.754e+00,7.209e+00,6.972e+00,6.717e+00,6.240e+00,7.488e+00,7.162e+00,8.060e+00,6.973e+00,7.327e+00,9.036e+00,6.704e+00,8.714e+00,6.638e+00,7.907e+00,5.750e+00,5.127e+00,6.836e+00,7.879e+00,8.346e+00,7.472e+00,6.768e+00,6.594e+00,7.443e+00,5.166e+00,7.212e+00,7.123e+00
6.886e-01,1.089e+00,1.531e+00,1.315e+00,1.486e+00,2.938e+00,3.107e+00,3.539e+00,2.592e+00,3.010e+00,2.600e+00,2.660e+00,3.547e+00,3.868e+00,4.507e+00,3.880e+00,5.604e+00,6.341e+00,5.913e+00,5.808e+00,7.480e+00,6.457e+00,7.670e+00,8.222e+00,7.764e+00,6.544e+00,8.646e+00,7.286e+00,9.866e+00,8.436e+00,7.026e+00,8.250e+00,7.051e+00,8.748e+00,8.987e+00,9.936e+00,5.863e+00,6.876e+00,8.142e+00,9.298e+00,8.302e+00,6.831e+00,7.720e+00,1.044e+01,9.823e+00,9.098e+00,7.845e+00,9.288e+00,7.144e+00,9.440e+00,9.435e+00,7.275e+00,8.347e+00,9.193e+00,7.805e+00,7.817e+00,8.391e+00,8.467e+00,8.496e+00,8.540e+00,7.923e+00,9.635e+00,9.616e+00,7.736e+00,8.118e+00,6.968e+00,7.395e+00,7.961e+00,8.160e+00,7.910e+00,7.252e+00,8.771e+00,8.624e+00,8.143e+00,7.837e+00,7.922e+00,1.115e+01,7.847e+00,9.426e+00,8.682e+00,9.538e+00,7.498e+00,6.555e+00,7.435e+00,9.217e+00,9.889e+00,9.065e+00,8.373e+00,7.718e+00,9.094e+00,6.173e+00,8.819e+00,7.849e+00
5.275e-01,1.370e+00,1.355e+00,8.146e-01,4.145e-01,1.645e+00,1.988e+00,2.505e+00,2.695e+00,2.808e+00,2.485e+00,2.929e+00,3.071e+00,3.410e+00,4.854e+00,4.161e+00,6.074e+00,6.699e+00,5.621e+00,5.386e+00,7.245e+00,6.521e+00,7.359e+00,7.567e+00,6.769e+00,5.489e+00,6.706e+00,7.262e+00,9.037e+00,7.862e+00,7.023e+00,8.682e+00,7.059e+00,8.427e+00,8.278e+00,9.014e+00,4.996e+00,6.820e+00,6.684e+00,8.421e+00,6.595e+00,7.105e+00,7.240e+00,8.803e+00,8.265e+00,8.552e+00,6.781e+00,8.676e+00,6.834e+00,9.664e+00,7.711e+00,6.661e+00,7.401e+00,7.697e+00,7.697e+00,8.550e+00,7.449e+00,7.831e+00,7.419e+00,7.891e+00,8.114e+00,8.561e+00,8.233e+00,7.122e+00,8.125e+00,6.363e+00,6.681e+00,8.427e+00,7.411e+00,6.356e+00,7.544e+00,6.795e+00,8.309e+00,8.122e+00,7.046e+00,6.899e+00,9.377e+00,7.427e+00,8.250e+00,8.031e+00,8.373e+00,6.672e+00,6.290e+00,7.173e+00,8.608e+00,9.940e+00,8.913e+00,7.555e+00,8.158e+00,8.680e+00,7.124e+00,7.472e+00,8.191e+00
7.531e-01,8.828e-01,1.023e+00,1.266e+00,1.032e+00,1.316e+00,1.945e+00,2.461e+00,2.397e+00,2.100e+00,1.292e+00,2.202e+00,3.886e+00,3.453e+00,4.593e+00,4.355e+00,5.153e+00,5.771e+00,4.646e+00,4.709e+00,5.557e+00,5.160e+00,7.062e+00,6.000e+00,6.501e+00,4.871e+00,5.493e+00,5.775e+00,8.381e+00,6.821e+00,6.976e+00,8.169e+00,5.591e+00,7.340e+00,7.423e+00,7.238e+00,5.136e+00,6.514e+00,5.754e+00,7.683e+00,6.302e+00,5.777e+00,6.741e+00,6.860e+00,7.165e+00,8.074e+00,6.247e+00,7.936e+00,5.839e+00,8.990e+00,7.349e+00,6.609e+00,6.842e+00,6.484e+00,7.141e+00,6.663e+00,7.490e+00,6.778e+00,7.079e+00,7.087e+00,6.655e+00,7.910e+00,7.039e+00,5.453e+00,6.826e+00,5.508e+00,6.284e+00,7.092e+00,6.794e+00,6.046e+00,6.441e+00,6.350e+00,6.820e+00,7.760e+00,6.663e+00,6.246e+00,8.648e+00,6.742e+00,7.993e+00,7.060e+00,7.076e+00,5.984e+00,5.276e+00,5.815e+00,8.234e+00,8.000e+00,8.748e+00,6.425e+00,6.353e+00,8.044e+00,5.960e+00,7.564e+00,6.742e+00
4.444e-01,6.816e-01,9.985e-01,8.440e-01,9.607e-01,1.716e+00,1.872e+00,2.250e+00,2.056e+00,2.977e+00,1.593e+00,2.021e+00,2.723e+00,2.232e+00,4.075e+00,3.098e+00,4.312e+00,4.887e+00,4.161e+00,4.737e+00,5.434e+00,5.110e+00,6.365e+00,6.910e+00,6.486e+00,5.302e+00,6.480e+00,6.702e+00,7.918e+00,7.438e+00,7.340e+00,8.599e+00,7.113e+00,7.492e+00,7.267e+00,8.779e+00,4.880e+00,7.486e+00,5.691e+00,7.924e+00,6.925e+00,6.180e+00,7.400e+00,8.574e+00,7.456e+00,8.045e+00,5.966e+00,7.604e+00,5.930e+00,9.290e+00,7.741e+00,5.944e+00,6.595e+00,7.656e+00,7.596e+00,6.891e+00,6.225e+00,6.575e+00,7.334e+00,7.536e+00,7.348e+00,7.643e+00,8.332e+00,5.941e+00,7.390e+00,5.625e+00,6.836e+00,7.273e+00,6.611e+00,6.986e+00,6.762e+00,6.668e+00,7.155e+00,8.254e+00,6.251e+00,6.884e+00,8.297e+00,7.159e+00,7.181e+00,6.961e+00,8.405e+00,6.652e+00,6.014e+00,7.667e+00,7.842e+00,8.905e+00,8.411e+00,6.406e+00,6.988e+00,7.498e+00,5.930e+00,6.888e+00,7.469e+00
1.733e-01,2.397e-01,9.659e-01,1.109e+00,1.443e+00,1.988e+00,2.424e+00,2.415e+00,1.516e+00,2.206e+00,1.255e+00,1.174e+00,2.378e+00,1.850e+00,2.752e+00,2.883e+00,3.714e+00,4.585e+00,3.786e+00,4.627e+00,4.587e+00,4.991e+00,5.908e+00,5.682e+00,5.926e+00,5.164e+00,6.823e+00,5.668e+00,8.044e+00,6.489e+00,6.249e+00,7.781e+00,5.538e+00,6.983e+00,8.066e+00,8.004e+00,5.200e+00,6.408e+00,7.291e+00,7.736e+00,7.455e+00,6.042e+00,7.554e+00,8.867e+00,8.668e+00,8.181e+00,7.070e+00,8.856e+00,6.666e+00,8.498e+00,8.306e+00,5.961e+00,6.895e+00,7.146e+00,6.813e+00,6.004e+00,7.461e+00,6.320e+00,7.402e+00,6.203e+00,7.514e+00,8.036e+00,7.658e+00,5.974e+00,7.291e+00,6.511e+00,7.052e+00,7.081e+00,6.538e+00,7.192e+00,6.324e+00,8.484e+00,6.954e+00,7.202e+00,6.943e+00,6.948e+00,9.947e+00,6.568e+00,8.446e+00,7.455e+00,7.431e+00,5.546e+00,5.875e+00,5.757e+00,8.165e+00,8.856e+00,7.860e+00,6.897e+00,6.035e+00,8.426e+00,4.871e+00,8.277e+00,6.751e+00
7.141e-01,7.816e-01,5.441e-01,8.069e-01,8.202e-01,1.033e+00,1.722e+00,2.246e+00,2.398e+00,2.007e+00,2.002e+00,2.479e+00,2.991e+00,3.224e+00,4.951e+00,3.239e+00,4.537e+00,4.140e+00,3.821e+00,4.313e+00,5.320e+00,4.589e+00,5.445e+00,5.753e+00,5.898e+00,4.795e+00,4.986e+00,5.997e+00,7.802e+00,6.213e+00,6.090e+00,7.904e+00,7.478e+00,6.712e+00,7.386e+00,8.784e+00,5.264e+00,7.381e+00,7.241e+00,8.846e+00,7.439e+00,6.935e+00,7.411e+00,8.712e+00,8.486e+00,8.200e+00,6.846e+00,9.543e+00,6.927e+00,9.763e+00,8.029e+00,6.193e+00,8.162e+00,7.918e+00,7.745e+00,6.878e+00,6.784e+00,7.446e+00,7.497e+00,7.684e+00,8.601e+00,8.582e+00,8.327e+00,6.757e+00,8.258e+00,7.251e+00,8.464e+00,7.787e+00,8.261e+00,6.696e+00,7.060e+00,7.603e+00,8.350e+00,8.747e+00,7.048e+00,6.458e+00,9.844e+00,8.176e+00,8.429e+00,8.371e+00,8.362e+00,6.635e+00,6.786e+00,7.594e+00,8.396e+00,9.444e+00,7.515e+00,7.282e+00,8.408e+00,8.064e+00,6.362e+00,8.538e+00,9.340e+00
6.153e-03,2.213e-01,7.670e-01,7.853e-01,1.278e+00,2.030e+00,2.291e+00,2.457e+00,2.118e+00,3.091e+00,1.532e+00,2.083e+00,3.157e+00,2.490e+00,4.382e+00,3.654e+00,5.104e+00,5.560e+00,4.355e+00,6.033e+00,5.018e+00,5.268e+00,6.054e+00,6.214e+00,5.815e+00,5.250e+00,5.415e+00,5.798e+00,8.278e+00,6.572e+00,6.815e+00,8.871e+00,6.292e+00,7.488e+00,8.111e+00,7.546e+00,5.925e+00,7.172e+00,6.460e+00,7.450e+00,7.909e+00,6.786e+00,8.263e+00,8.484e+00,8.453e+00,9.278e+00,7.094e+00,9.074e+00,6.227e+00,1.026e+01,8.449e+00,6.856e+00,8.437e+00,7.026e+00,7.690e+00,5.947e+00,7.063e+00,7.952e+00,8.240e+00,8.072e+00,8.686e+00,7.858e+00,7.704e+00,5.522e+00,7.404e+00,6.584e+00,6.716e+00,7.991e+00,7.171e+00,7.867e+00,7.947e+00,7.288e+00,6.865e+00,8.515e+00,8.193e+00,7.020e+00,8.510e+00,6.891e+00,8.600e+00,8.403e+00,8.675e+00,6.349e+00,5.935e+00,7.211e+00,8.815e+00,8.799e+00,9.270e+00,7.474e+00,7.183e+00,8.712e+00,6.409e+00,7.943e+00,7.205e+00
4.776e-01,8.298e-01,1.219e+00,1.046e+00,1.078e+00,2.410e+00,2.354e+00,2.907e+00,2.530e+00,2.501e+00,2.752e+00,2.919e+00,2.854e+00,3.335e+00,4.532e+00,3.241e+00,5.242e+00,4.734e+00,4.705e+00,5.507e+00,6.612e+00,5.435e+00,6.471e+00,6.874e+00,6.791e+00,5.888e+00,6.985e+00,6.780e+00,9.052e+00,7.811e+00,7.407e+00,9.708e+00,7.237e+00,8.750e+00,9.775e+00,9.615e+00,6.897e+00,7.709e+00,8.793e+00,1.010e+01,9.028e+00,8.494e+00,9.188e+00,1.031e+01,9.953e+00,1.033e+01,8.762e+00,1.007e+01,8.252e+00,1.157e+01,1.043e+01,7.748e+00,1.039e+01,9.099e+00,8.337e+00,8.506e+00,8.751e+00,9.840e+00,9.140e+00,9.561e+00,9.761e+00,1.062e+01,9.313e+00,7.557e+00,8.618e+00,8.275e+00,8.274e+00,9.118e+00,8.674e+00,9.066e+00,8.731e+00,9.352e+00,8.188e+00,8.727e+00,7.797e+00,8.936e+00,9.596e+00,8.983e+00,8.746e+00,8.530e+00,1.052e+01,7.771e+00,7.444e+00,9.213e+00,1.032e+01,1.014e+01,9.368e+00,8.926e+00,9.358e+00,9.935e+00,8.284e+00,9.738e+00,9.741e+00
1.269e-01,5.855e-01,1.244e+00,1.132e+00,1.232e+00,1.602e+00,1.998e+00,2.275e+00,2.060e+00,3.122e+00,1.540e+00,2.148e+00,4.100e+00,2.800e+00,4.070e+00,3.745e+00,3.670e+00,5.056e+00,4.833e+00,4.519e+00,4.389e+00,4.784e+00,6.274e+00,5.802e+00,6.113e+00,5.553e+00,7.158e+00,6.991e+00,9.115e+00,8.607e+00,9.015e+00,9.360e+00,7.429e+00,8.567e+00,8.789e+00,8.473e+00,7.712e+00,9.044e+00,7.952e+00,9.733e+00,8.365e+00,7.476e+00,9.698e+00,1.030e+01,9.893e+00,9.728e+00,7.841e+00,1.028e+01,8.273e+00,1.048e+01,1.036e+01,8.132e+00,8.711e+00,9.211e+00,9.431e+00,8.225e+00,8.937e+00,8.687e+00,9.292e+00,9.615e+00,8.900e+00,1.089e+01,1.009e+01,7.207e+00,9.695e+00,8.834e+00,9.420e+00,9.197e+00,8.049e+00,7.913e+00,7.547e+00,9.940e+00,8.029e+00,9.857e+00,7.379e+00,7.975e+00,1.079e+01,8.629e+00,1.040e+01,8.530e+00,9.694e+00,7.971e+00,6.334e+00,8.773e+00,1.055e+01,1.074e+01,1.013e+01,9.198e+00,7.675e+00,1.048e+01,7.962e+00,8.937e+00,7.978e+00
5.888e-01,1.333e+00,1.189e+00,1.257e+00,1.857e+00,2.041e+00,2.437e+00,3.389e+00,3.133e+00,3.257e+00,3.222e+00,3.781e+00,3.778e+00,3.863e+00,5.445e+00,4.488e+00,5.828e+00,6.357e+00,5.737e+00,6.236e+00,6.340e+00,5.795e+00,7.832e+00,7.145e+00,6.359e+00,5.958e+00,7.246e+00,7.570e+00,9.940e+00,8.264e+00,8.203e+00,1.012e+01,6.856e+00,8.918e+00,9.300e+00,9.407e+00,8.097e+00,8.317e+00,8.399e+00,1.047e+01,9.952e+00,8.532e+00,1.062e+01,1.061e+01,1.057e+01,1.157e+01,8.533e+00,1.004e+01,9.216e+00,1.265e+01,1.097e+01,9.066e+00,9.813e+00,9.328e+00,1.011e+01,9.021e+00,1.053e+01,1.015e+01,9.379e+00,1.061e+01,9.421e+00,1.055e+01,9.149e+00,8.360e+00,1.023e+01,7.725e+00,9.171e+00,9.593e+00,1.035e+01,9.943e+00,8.775e+00,1.024e+01,9.099e+00,8.939e+00,8.757e+00,8.054e+00,1.034e+01,7.844e+00,1.086e+01,9.403e+00,1.048e+01,8.968e+00,7.163e+00,8.785e+00,1.120e+01,1.149e+01,1.008e+01,9.941e+00,9.274e+00,1.066e+01,9.796e+00,9.996e+00,9.967e+00
7.568e-01,1.086e+00,1.176e+00,1.251e+00,1.201e+00,1.333e+00,1.703e+00,2.402e+00,2.254e+00,2.309e+00,2.040e+00,2.767e+00,3.815e+00,3.382e+00,4.866e+00,3.951e+00,4.414e+00,4.866e+00,4.962e+00,4.032e+00,5.505e+00,4.666e+00,6.975e+00,6.404e+00,6.480e+00,5.515e+00,6.498e+00,6.686e+00,8.911e+00,7.483e+00,8.056e+00,8.707e+00,8.141e+00,8.638e+00,8.764e+00,9.599e+00,7.685e+00,9.405e+00,6.999e+00,1.074e+01,9.104e+00,8.028e+00,9.657e+00,1.086e+01,1.054e+01,1.050e+01,8.091e+00,1.063e+01,9.185e+00,1.175e+01,1.053e+01,8.093e+00,9.301e+00,9.964e+00,1.127e+01,8.851e+00,9.417e+00,9.178e+00,1.033e+01,1.034e+01,9.096e+00,1.090e+01,8.809e+00,7.935e+00,1.044e+01,7.737e+00,9.238e+00,9.555e+00,8.981e+00,9.134e+00,8.517e+00,9.702e+00,9.938e+00,1.028e+01,8.471e+00,8.997e+00,1.120e+01,8.533e+00,1.060e+01,9.733e+00,9.978e+00,1.035e+01,7.970e+00,1.011e+01,1.042e+01,1.063e+01,9.809e+00,9.764e+00,9.166e+00,1.035e+01,8.977e+00,1.043e+01,9.277e+00
3.610e-01,8.147e-01,7.405e-01,6.369e-01,1.205e+00,1.966e+00,2.316e+00,2.780e+00,2.547e+00,3.065e+00,2.227e+00,2.683e+00,2.701e+00,3.039e+00,4.018e+00,2.811e+00,4.661e+00,4.950e+00,4.406e+00,4.404e+00,4.668e+00,4.671e+00,4.972e+00,5.921e+00,4.806e+00,4.705e+00,5.667e+00,5.829e+00,7.727e+00,6.499e+00,6.461e+00,8.244e+00,7.205e+00,7.221e+00,8.481e+00,8.520e+00,6.054e+00,7.850e+00,7.990e+00,9.428e+00,8.270e+00,7.570e+00,8.015e+00,1.068e+01,9.985e+00,9.433e+00,7.494e+00,1.075e+01,7.955e+00,1.110e+01,9.634e+00,6.406e+00,9.593e+00,8.404e+00,8.963e+00,7.790e+00,8.523e+00,9.723e+00,8.361e+00,8.175e+00,9.904e+00,9.312e+00,9.278e+00,7.118e+00,1.001e+01,8.711e+00,8.545e+00,9.442e+00,8.693e+00,7.933e+00,8.167e+00,8.632e+00,9.039e+00,9.300e+00,8.308e+00,7.407e+00,1.036e+01,7.834e+00,1.012e+01,9.503e+00,1.022e+01,7.774e+00,7.157e+00,7.811e+00,9.138e+00,1.090e+01,8.002e+00,8.149e+00,8.228e+00,9.289e+00,7.556e+00,8.878e+00,8.893e+00
3.027e-01,7.039e-01,8.740e-01,6.046e-01,4.341e-01,9.840e-01,1.137e+00,1.443e+00,1.590e+00,2.313e+00,1.358e+00,1.854e+00,2.258e+00,1.672e+00,3.214e+00,2.887e+00,3.885e+00,4.359e+00,3.648e+00,3.488e+00,4.381e+00,4.606e+00,6.046e+00,5.743e+00,5.708e+00,4.184e+00,6.433e+00,5.148e+00,7.456e+00,6.967e+00,6.592e+00,6.935e+00,7.210e+00,7.262e+00,9.096e+00,9.127e+00,5.927e+00,7.837e+00,7.385e+00,9.036e+00,7.940e+00,8.075e+00,8.030e+00,1.026e+01,8.882e+00,1.027e+01,8.023e+00,1.002e+01,7.614e+00,1.102e+01,1.029e+01,6.392e+00,9.127e+00,8.996e+00,9.239e+00,8.162e+00,9.699e+00,7.534e+00,8.461e+00,8.608e+00,8.218e+00,9.573e+00,8.017e+00,6.820e+00,9.615e+00,7.992e+00,7.505e+00,9.351e+00,8.007e+00,8.004e+00,8.073e+00,9.706e+00,9.207e+00,1.050e+01,7.475e+00,9.091e+00,9.773e+00,8.020e+00,9.496e+00,8.391e+00,8.832e+00,8.816e+00,7.110e+00,9.108e+00,9.794e+00,1.036e+01,8.854e+00,8.500e+00,7.565e+00,9.175e+00,7.834e+00,8.795e+00,8.806e+00
6.454e-01,1.086e+00,8.101e-01,7.599e-01,5.953e-01,1.323e+00,1.837e+00,2.351e+00,2.634e+00,2.492e+00,1.334e+00,2.517e+00,2.900e+00,2.963e+00,3.665e+00,3.543e+00,4.211e+00,4.770e+00,3.072e+00,4.014e+00,4.370e+00,4.126e+00,5.714e+00,5.799e+00,5.360e+00,4.665e+00,5.294e+00,6.854e+00,6.518e+00,6.774e+00,7.173e+00,8.849e+00,7.658e+00,6.496e+00,1.014e+01,7.568e+00,7.556e+00,9.146e+00,8.786e+00,9.733e+00,9.723e+00,8.056e+00,8.938e+00,1.143e+01,1.065e+01,1.033e+01,9.441e+00,1.219e+01,9.038e+00,1.167e+01,1.141e+01,7.792e+00,1.007e+01,1.009e+01,9.735e+00,9.206e+00,8.479e+00,1.009e+01,1.041e+01,1.067e+01,1.015e+01,1.108e+01,1.051e+01,9.287e+00,1.095e+01,1.097e+01,9.594e+00,1.106e+01,9.238e+00,8.783e+00,9.180e+00,1.040e+01,9.770e+00,1.126e+01,1.004e+01,7.280e+00,1.048e+01,9.325e+00,1.075e+01,1.034e+01,1.095e+01,8.955e+00,7.982e+00,8.917e+00,1.048e+01,1.155e+01,1.022e+01,9.114e+00,8.794e+00,1.193e+01,9.183e+00,9.862e+00,9.732e+00
3.093e-01,3.125e-01,9.094e-01,8.327e-01,8.393e-01,1.468e+00,1.474e+00,1.594e+00,9.282e-01,1.482e+00,1.448e+00,1.222e+00,2.703e+00,2.273e+00,3.959e+00,3.279e+00,4.300e+00,4.516e+00,4.672e+00,4.522e+00,6.059e+00,5.289e+00,6.324e+00,6.713e+00,7.281e+00,5.117e+00,7.201e+00,5.699e+00,8.637e+00,8.000e+00,8.026e+00,8.183e+00,7.340e+00,8.946e+00,8.670e+00,1.005e+01,7.782e+00,9.045e+00,7.553e+00,1.042e+01,9.505e+00,8.529e+00,9.786e+00,1.207e+01,1.246e+01,1.182e+01,9.297e+00,1.135e+01,1.014e+01,1.177e+01,1.147e+01,9.021e+00,9.445e+00,1.078e+01,1.056e+01,9.019e+00,9.253e+00,9.761e+00,1.071e+01,1.120e+01,8.565e+00,1.266e+01,1.044e+01,9.491e+00,1.010e+01,9.349e+00,1.050e+01,9.597e+00,9.687e+00,9.468e+00,1.037e+01,1.043e+01,1.033e+01,1.071e+01,9.686e+00,9.132e+00,1.223e+01,9.861e+00,1.006e+01,1.095e+01,1.206e+01,1.105e+01,9.284e+00,1.033e+01,1.205e+01,1.046e+01,1.182e+01,1.146e+01,1.100e+01,1.225e+01,9.555e+00,1.092e+01,1.014e+01
5.672e-01,1.434e+00,1.730e+00,1.394e+00,1.712e+00,2.650e+00,2.776e+00,3.424e+00,2.582e+00,3.275e+00,2.545e+00,2.819e+00,3.672e+00,3.545e+00,4.209e+00,4.588e+00,4.885e+00,5.404e+00,4.978e+00,5.447e+00,5.449e+00,5.482e+00,6.356e+00,6.641e+00,6.665e+00,5.854e+00,7.006e+00,7.505e+00,8.235e+00,7.949e+00,8.162e+00,9.445e+00,7.426e+00,8.002e+00,9.293e+00,8.418e+00,7.328e+00,9.229e+00,9.632e+00,1.037e+01,9.876e+00,9.984e+00,1.098e+01,1.293e+01,1.261e+01,1.180e+01,1.016e+01,1.336e+01,9.396e+00,1.294e+01,1.404e+01,9.560e+00,1.140e+01,1.088e+01,1.105e+01,1.006e+01,1.066e+01,1.232e+01,1.123e+01,1.199e+01,1.076e+01,1.241e+01,1.147e+01,9.384e+00,1.180e+01,1.177e+01,1.196e+01,1.172e+01,1.155e+01,9.093e+00,1.073e+01,1.136e+01,1.090e+01,1.250e+01,1.126e+01,8.628e+00,1.272e+01,1.130e+01,1.298e+01,1.190e+01,1.250e+01,9.572e+00,8.141e+00,9.427e+00,1.270e+01,1.285e+01,1.192e+01,1.060e+01,9.682e+00,1.389e+01,1.042e+01,1.113e+01,1.078e+01
4.617e-03,4.835e-01,9.178e-01,7.088e-01,6.060e-01,1.427e+00,1.672e+00,1.914e+00,2.017e+00,2.282e+00,1.867e+00,2.450e+00,2.903e+00,2.588e+00,4.552e+00,4.003e+00,4.771e+00,5.579e+00,4.320e+00,5.209e+00,5.178e+00,4.994e+00,5.829e+00,5.811e+00,5.921e+00,4.800e+00,5.494e+00,6.028e+00,7.902e+00,7.572e+00,8.023e+00,7.932e+00,6.826e+00,7.949e+00,8.423e+00,8.553e+00,6.187e+00,8.177e+00,8.029e+00,8.847e+00,8.558e+00,8.944e+00,9.200e+00,1.139e+01,1.113e+01,1.145e+01,9.391e+00,1.142e+01,9.713e+00,1.192e+01,1.142e+01,8.114e+00,9.537e+00,9.702e+00,1.105e+01,8.755e+00,1.008e+01,9.800e+00,9.003e+00,9.904e+00,1.005e+01,1.132e+01,9.871e+00,8.026e+00,1.165e+01,1.069e+01,9.219e+00,1.064e+01,9.651e+00,9.050e+00,1.048e+01,1.045e+01,1.100e+01,1.127e+01,9.263e+00,8.696e+00,1.052e+01,9.613e+00,1.043e+01,1.113e+01,1.069e+01,9.359e+00,7.658e+00,9.057e+00,1.137e+01,1.124e+01,1.071e+01,1.074e+01,9.063e+00,1.090e+01,9.525e+00,1.011e+01,1.044e+01
8.442e-02,9.122e-01,7.778e-01,6.401e-01,1.472e+00,1.922e+00,2.098e+00,2.551e+00,2.199e+00,3.180e+00,1.625e+00,2.604e+00,2.628e+00,2.228e+00,3.893e+00,4.137e+00,4.731e+00,4.891e+00,3.976e+00,4.718e+00,5.122e+00,5.326e+00,6.126e+00,6.431e+00,6.137e+00,5.215e+00,6.819e+00,6.593e+00,8.141e+00,7.561e+00,7.838e+00,9.773e+00,8.795e+00,8.101e+00,9.239e+00,1.025e+01,7.399e+00,8.860e+00,7.714e+00,9.388e+00,9.950e+00,8.644e+00,1.006e+01,1.334e+01,1.097e+01,1.318e+01,9.195e+00,1.320e+01,1.069e+01,1.397e+01,1.287e+01,8.431e+00,1.004e+01,1.124e+01,1.103e+01,9.738e+00,1.096e+01,1.097e+01,1.138e+01,1.152e+01,1.241e+01,1.201e+01,1.141e+01,9.014e+00,1.176e+01,1.030e+01,1.178e+01,1.059e+01,1.161e+01,1.166e+01,1.095e+01,1.164e+01,1.017e+01,1.143e+01,1.102e+01,8.846e+00,1.198e+01,1.001e+01,1.186e+01,1.046e+01,1.237e+01,1.067e+01,9.896e+00,1.018e+01,1.147e+01,1.376e+01,1.224e+01,1.156e+01,1.023e+01,1.314e+01,1.024e+01,1.016e+01,1.164e+01
3.442e-01,9.670e-01,1.014e+00,8.819e-01,1.086e+00,1.797e+00,2.103e+00,2.717e+00,2.650e+00,2.447e+00,2.135e+00,2.806e+00,2.713e+00,3.204e+00,3.763e+00,2.928e+00,4.144e+00,4.992e+00,4.680e+00,3.927e+00,5.179e+00,4.493e+00,5.394e+00,5.281e+00,5.224e+00,4.948e+00,5.661e+00,5.764e+00,8.325e+00,6.813e+00,6.370e+00,8.899e+00,6.808e+00,7.946e+00,8.756e+00,7.913e+00,7.818e+00,8.651e+00,8.759e+00,1.100e+01,8.928e+00,1.035e+01,1.173e+01,1.335e+01,1.304e+01,1.282e+01,1.125e+01,1.436e+01,1.194e+01,1.362e+01,1.385e+01,9.526e+00,1.262e+01,1.116e+01,1.197e+01,1.121e+01,1.151e+01,1.380e+01,1.202e+01,1.271e+01,1.286e+01,1.383e+01,1.138e+01,1.035e+01,1.126e+01,1.273e+01,1.194e+01,1.128e+01,1.190e+01,1.095e+01,1.305e+01,1.220e+01,1.159e+01,1.319e+01,1.213e+01,9.521e+00,1.248e+01,1.208e+01,1.189e+01,1.240e+01,1.314e+01,9.992e+00,1.005e+01,1.124e+01,1.373e+01,1.350e+01,1.269e+01,1.092e+01,1.239e+01,1.435e+01,1.167e+01,1.136e+01,1.249e+01
2.348e-01,3.607e-01,8.359e-01,1.193e+00,1.496e+00,2.156e+00,2.617e+00,2.727e+00,2.055e+00,2.190e+00,1.075e+00,2.174e+00,3.774e+00,3.060e+00,4.367e+00,4.849e+00,5.119e+00,6.273e+00,4.831e+00,4.955e+00,5.554e+00,4.928e+00,6.891e+00,7.073e+00,6.707e+00,6.293e+00,6.443e+00,7.174e+00,8.057e+00,7.037e+00,7.921e+00,9.427e+00,8.143e+00,8.564e+00,9.489e+00,8.526e+00,7.610e+00,8.937e+00,8.355e+00,1.072e+01,8.683e+00,8.682e+00,1.016e+01,1.271e+01,1.227e+01,1.302e+01,1.118e+01,1.468e+01,1.183e+01,1.399e+01,1.316e+01,9.049e+00,1.125e+01,1.190e+01,1.167e+01,1.010e+01,1.094e+01,1.281e+01,1.232e+01,1.213e+01,1.324e+01,1.350e+01,1.242e+01,1.078e+01,1.242e+01,1.250e+01,1.147e+01,1.191e+01,1.218e+01,1.104e+01,1.247e+01,1.289e+01,1.223e+01,1.353e+01,1.194e+01,9.843e+00,1.364e+01,1.307e+01,1.324e+01,1.240e+01,1.178e+01,1.195e+01,1.176e+01,1.178e+01,1.318e+01,1.430e+01,1.279e+01,1.182e+01,1.158e+01,1.534e+01,1.127e+01,1.134e+01,1.116e+01
2.816e-01,1.026e+00,1.511e+00,1.282e+00,1.548e+00,2.754e+00,2.977e+00,3.308e+00,2.528e+00,3.191e+00,2.226e+00,2.681e+00,3.862e+00,3.499e+00,4.133e+00,3.911e+00,4.045e+00,5.087e+00,5.077e+00,5.101e+00,5.545e+00,4.472e+00,6.190e+00,6.392e+00,6.108e+00,6.087e+00,6.848e+00,7.185e+00,9.147e+00,7.866e+00,7.641e+00,1.054e+01,8.309e+00,8.162e+00,9.009e+00,9.944e+00,8.978e+00,1.018e+01,9.410e+00,1.134e+01,1.050e+01,1.108e+01,1.114e+01,1.422e+01,1.367e+01,1.378e+01,1.226e+01,1.564e+01,1.184e+01,1.608e+01,1.475e+01,9.715e+00,1.406e+01,1.335e+01,1.286e+01,1.172e+01,1.220e+01,1.353e+01,1.391e+01,1.410e+01,1.368e+01,1.486e+01,1.154e+01,1.082e+01,1.276e+01,1.186e+01,1.261e+01,1.207e+01,1.377e+01,1.101e+01,1.393e+01,1.404e+01,1.310e+01,1.484e+01,1.325e+01,1.073e+01,1.416e+01,1.398e+01,1.515e+01,1.291e+01,1.347e+01,1.168e+01,1.200e+01,1.364e+01,1.365e+01,1.520e+01,1.322e+01,1.233e+01,1.347e+01,1.550e+01,1.187e+01,1.317e+01,1.240e+01
1.925e-01,4.427e-01,1.051e+00,1.253e+00,1.694e+00,2.306e+00,2.752e+00,2.878e+00,2.047e+00,2.674e+00,1.684e+00,2.308e+00,3.958e+00,3.155e+00,4.628e+00,4.150e+00,4.450e+00,5.622e+00,5.251e+00,5.056e+00,6.157e+00,4.800e+00,6.651e+00,6.951e+00,6.322e+00,6.155e+00,6.990e+00,6.616e+00,9.398e+00,7.321e+00,7.111e+00,9.059e+00,8.101e+00,8.194e+00,8.244e+00,9.676e+00,7.824e+00,8.808e+00,8.040e+00,1.039e+01,9.279e+00,9.116e+00,1.034e+01,1.275e+01,1.206e+01,1.241e+01,1.101e+01,1.453e+01,1.133e+01,1.398e+01,1.291e+01,9.311e+00,1.227e+01,1.195e+01,1.192e+01,1.043e+01,1.190e+01,1.150e+01,1.276e+01,1.278e+01,1.160e+01,1.334e+01,1.201e+01,1.002e+01,1.156e+01,1.143e+01,1.107e+01,1.078e+01,1.138e+01,1.065e+01,1.126e+01,1.212e+01,1.243e+01,1.371e+01,1.117e+01,9.494e+00,1.438e+01,1.212e+01,1.348e+01,1.236e+01,1.145e+01,1.161e+01,1.134e+01,1.279e+01,1.288e+01,1.366e+01,1.227e+01,1.136e+01,1.208e+01,1.406e+01,1.086e+01,1.108e+01,1.081e+01
2.565e-01,1.070e+00,9.498e-01,5.841e-01,8.838e-01,1.786e+00,2.123e+00,2.548e+00,2.470e+00,2.965e+00,2.012e+00,2.690e+00,3.424e+00,3.564e+00,4.776e+00,4.206e+00,5.469e+00,6.001e+00,5.719e+00,5.087e+00,6.165e+00,6.134e+00,6.914e+00,7.219e+00,6.524e+00,5.642e+00,7.584e+00,7.134e+00,9.790e+00,8.667e+00,8.007e+00,9.913e+00,9.034e+00,9.088e+00,9.870e+00,1.042e+01,8.538e+00,9.268e+00,8.520e+00,1.090e+01,9.603e+00,1.081e+01,1.049e+01,1.381e+01,1.314e+01,1.322e+01,1.121e+01,1.575e+01,1.296e+01,1.485e+01,1.433e+01,1.073e+01,1.391e+01,1.347e+01,1.237e+01,1.318e+01,1.257e+01,1.214e+01,1.416e+01,1.307e+01,1.400e+01,1.559e+01,1.299e+01,1.072e+01,1.345e+01,1.221e+01,1.264e+01,1.345e+01,1.309e+01,1.143e+01,1.326e+01,1.332e+01,1.401e+01,1.515e+01,1.383e+01,1.128e+01,1.555e+01,1.318e+01,1.493e+01,1.455e+01,1.347e+01,1.246e+01,1.276e+01,1.288e+01,1.446e+01,1.550e+01,1.408e+01,1.315e+01,1.434e+01,1.481e+01,1.285e+01,1.334e+01,1.285e+01
1.030e-01,1.567e-01,7.937e-01,9.539e-01,1.486e+00,2.300e+00,2.737e+00,2.679e+00,1.932e+00,3.108e+00,1.774e+00,1.987e+00,3.777e+00,2.837e+00,4.425e+00,3.631e+00,4.423e+00,5.066e+00,4.430e+00,5.659e+00,4.721e+00,4.642e+00,5.949e+00,6.564e+00,5.364e+00,4.744e+00,6.285e+00,6.331e+00,7.847e+00,7.143e+00,7.575e+00,9.180e+00,7.050e+00,7.301e+00,9.320e+00,8.889e+00,8.178e+00,9.233e+00,8.175e+00,9.971e+00,9.237e+00,8.780e+00,9.867e+00,1.325e+01,1.265e+01,1.327e+01,1.035e+01,1.502e+01,1.181e+01,1.448e+01,1.519e+01,9.915e+00,1.325e+01,1.298e+01,1.228e+01,1.181e+01,1.205e+01,1.268e+01,1.475e+01,1.188e+01,1.355e+01,1.558e+01,1.224e+01,1.062e+01,1.209e+01,1.191e+01,1.294e+01,1.313e+01,1.223e+01,1.193e+01,1.325e+01,1.384e+01,1.255e+01,1.380e+01,1.285e+01,1.037e+01,1.475e+01,1.150e+01,1.374e+01,1.390e+01,1.367e+01,1.215e+01,1.180e+01,1.183e+01,1.399e+01,1.384e+01,1.319e+01,1.332e+01,1.230e+01,1.524e+01,1.235e+01,1.301e+01,1.284e+01
7.895e-01,1.634e+00,1.244e+00,8.458e-01,5.389e-01,1.663e+00,1.839e+00,2.649e+00,2.770e+00,2.037e+00,1.686e+00,2.681e+00,2.158e+00,3.232e+00,3.385e+00,3.833e+00,5.083e+00,5.664e+00,4.389e+00,4.095e+00,5.414e+00,5.273e+00,5.864e+00,5.490e+00,5.510e+00,4.974e+00,5.785e+00,6.469e+00,7.522e+00,7.493e+00,7.092e+00,8.842e+00,7.367e+00,7.673e+00,9.484e+00,8.586e+00,6.948e+00,8.344e+00,7.895e+00,9.266e+00,9.410e+00,9.005e+00,9.623e+00,1.132e+01,1.048e+01,1.207e+01,9.786e+00,1.258e+01,1.041e+01,1.306e+01,1.256e+01,8.631e+00,1.203e+01,1.179e+01,1.213e+01,1.208e+01,1.156e+01,1.174e+01,1.178e+01,1.157e+01,1.226e+01,1.301e+01,1.052e+01,1.011e+01,1.258e+01,1.034e+01,1.028e+01,1.196e+01,1.192e+01,1.093e+01,1.317e+01,1.253e+01,1.307e+01,1.253e+01,1.246e+01,9.986e+00,1.166e+01,1.139e+01,1.299e+01,1.151e+01,1.171e+01,1.127e+01,1.013e+01,1.116e+01,1.216e+01,1.337e+01,1.239e+01,1.261e+01,1.168e+01,1.291e+01,1.246e+01,1.173e+01,1.140e+01
1.203e-01,8.214e-01,8.754e-01,6.306e-01,1.391e+00,1.942e+00,2.134e+00,2.631e+00,2.322e+00,3.263e+00,2.482e+00,2.911e+00,3.176e+00,3.129e+00,5.042e+00,3.700e+00,5.063e+00,5.799e+00,5.727e+00,5.117e+00,5.736e+00,5.470e+00,6.679e+00,7.835e+00,6.141e+00,6.036e+00,7.084e+00,7.532e+00,9.215e+00,7.701e+00,7.337e+00,8.785e+00,7.643e+00,8.833e+00,8.485e+00,9.420e+00,7.103e+00,8.616e+00,7.359e+00,1.076e+01,8.633e+00,9.208e+00,1.123e+01,1.277e+01,1.191e+01,1.244e+01,9.885e+00,1.397e+01,1.153e+01,1.417e+01,1.328e+01,1.066e+01,1.304e+01,1.302e+01,1.273e+01,1.154e+01,1.310e+01,1.305e+01,1.446e+01,1.425e+01,1.319e+01,1.348e+01,1.241e+01,1.141e+01,1.274e+01,1.225e+01,1.221e+01,1.173e+01,1.277e+01,1.129e+01,1.293e+01,1.285e+01,1.373e+01,1.439e+01,1.274e+01,1.007e+01,1.541e+01,1.248e+01,1.462e+01,1.339e+01,1.300e+01,1.241e+01,1.128e+01,1.273e+01,1.427e+01,1.440e+01,1.386e+01,1.311e+01,1.234e+01,1.419e+01,1.261e+01,1.253e+01,1.246e+01
5.640e-01,7.834e-01,1.075e+00,1.275e+00,1.169e+00,1.592e+00,2.268e+00,2.651e+00,2.482e+00,2.535e+00,2.001e+00,2.500e+00,3.368e+00,2.903e+00,4.149e+00,3.314e+00,4.274e+00,4.972e+00,4.279e+00,4.797e+00,6.126e+00,5.287e+00,7.069e+00,5.660e+00,6.268e+00,4.969e+00,6.433e+00,5.978e+00,9.222e+00,7.514e+00,6.917e+00,9.149e+00,6.943e+00,7.967e+00,1.017e+01,9.503e+00,8.202e+00,9.694e+00,8.935e+00,1.066e+01,9.925e+00,1.017e+01,1.063e+01,1.391e+01,1.223e+01,1.391e+01,1.164e+01,1.508e+01,1.138e+01,1.519e+01,1.568e+01,1.052e+01,1.489e+01,1.354e+01,1.366e+01,1.368e+01,1.363e+01,1.417e+01,1.555e+01,1.340e+01,1.566e+01,1.643e+01,1.384e+01,1.195e+01,1.270e+01,1.344e+01,1.378e+01,1.460e+01,1.373e+01,1.304e+01,1.559e+01,1.529e+01,1.466e+01,1.542e+01,1.322e+01,1.287e+01,1.604e+01,1.406e+01,1.478e+01,1.546e+01,1.408e+01,1.303e+01,1.295e+01,1.335e+01,1.479e+01,1.423e+01,1.391e+01,1.400e+01,1.396e+01,1.616e+01,1.416e+01,1.421e+01,1.516e+01
2.693e-01,6.825e-01,6.182e-01,7.383e-01,1.204e+00,1.076e+00,1.636e+00,2.099e+00,1.960e+00,2.025e+00,1.725e+00,2.303e+00,3.214e+00,3.134e+00,4.380e+00,3.650e+00,4.966e+00,5.266e+00,5.249e+00,4.080e+00,5.439e+00,5.485e+00,6.788e+00,6.262e+00,6.034e+00,5.297e+00,6.158e+00,5.967e+00,8.291e+00,7.133e+00,7.396e+00,8.525e+00,6.805e+00,9.221e+00,9.068e+00,8.954e+00,8.417e+00,9.473e+00,7.516e+00,1.081e+01,1.005e+01,9.509e+00,1.137e+01,1.339e+01,1.311e+01,1.418e+01,1.046e+01,1.357e+01,1.091e+01,1.486e+01,1.447e+01,1.039e+01,1.257e+01,1.232e+01,1.433e+01,1.226e+01,1.357e+01,1.395e+01,1.454e+01,1.323e+01,1.310e+01,1.544e+01,1.250e+01,1.232e+01,1.378e+01,1.259e+01,1.449e+01,1.419e+01,1.370e+01,1.375e+01,1.418e+01,1.448e+01,1.424e+01,1.512e+01,1.408e+01,1.259e+01,1.448e+01,1.233e+01,1.462e+01,1.449e+01,1.433e+01,1.429e+01,1.223e+01,1.303e+01,1.390e+01,1.469e+01,1.430e+01,1.502e+01,1.323e+01,1.643e+01,1.341e+01,1.389e+01,1.379e+01
8.521e-01,1.090e+00,1.142e+00,1.444e+00,1.269e+00,1.458e+00,2.356e+00,2.995e+00,2.888e+00,2.215e+00,2.687e+00,3.031e+00,3.297e+00,3.528e+00,5.242e+00,4.105e+00,6.024e+00,5.909e+00,4.926e+00,5.003e+00,7.386e+00,6.353e+00,8.216e+00,7.523e+00,7.738e+00,5.634e+00,6.724e+00,6.919e+00,9.543e+00,7.232e+00,7.238e+00,9.361e+00,7.582e+00,9.040e+00,1.063e+01,9.919e+00,7.315e+00,9.163e+00,9.883e+00,1.205e+01,9.845e+00,1.010e+01,1.046e+01,1.327e+01,1.279e+01,1.278e+01,1.206e+01,1.436e+01,1.150e+01,1.568e+01,1.410e+01,9.473e+00,1.376e+01,1.231e+01,1.496e+01,1.358e+01,1.451e+01,1.479e+01,1.545e+01,1.379e+01,1.519e+01,1.501e+01,1.341e+01,1.426e+01,1.423e+01,1.386e+01,1.380e+01,1.493e+01,1.398e+01,1.278e+01,1.473e+01,1.541e+01,1.574e+01,1.488e+01,1.469e+01,1.341e+01,1.663e+01,1.349e+01,1.516e+01,1.528e+01,1.369e+01,1.407e+01,1.409e+01,1.307e+01,1.519e+01,1.539e+01,1.418e+01,1.420e+01,1.449e+01,1.711e+01,1.464e+01,1.504e+01,1.615e+01
4.808e-01,4.611e-01,3.867e-01,5.724e-01,7.633e-01,1.332e+00,1.733e+00,2.042e+00,1.995e+00,2.013e+00,1.139e+00,1.692e+00,2.355e+00,2.471e+00,3.544e+00,2.996e+00,4.599e+00,4.142e+00,3.125e+00,4.430e+00,4.574e+00,4.576e+00,5.703e+00,6.040e+00,5.934e+00,4.065e+00,6.072e+00,5.280e+00,7.231e+00,7.076e+00,7.152e+00,8.869e+00,6.428e+00,6.960e+00,9.011e+00,8.625e+00,7.682e+00,8.321e+00,8.013e+00,9.620e+00,9.877e+00,8.323e+00,8.971e+00,1.157e+01,1.113e+01,1.297e+01,1.049e+01,1.277e+01,1.027e+01,1.448e+01,1.293e+01,9.453e+00,1.254e+01,1.219e+01,1.137e+01,1.273e+01,1.265e+01,1.195e+01,1.275e+01,1.357e+01,1.254e+01,1.575e+01,1.303e+01,1.250e+01,1.254e+01,1.313e+01,1.316e+01,1.240e+01,1.237e+01,1.221e+01,1.425e+01,1.429e+01,1.352e+01,1.499e+01,1.298e+01,1.123e+01,1.319e+01,1.232e+01,1.370e+01,1.198e+01,1.440e+01,1.251e+01,1.274e+01,1.261e+01,1.420e+01,1.520e+01,1.351e+01,1.254e+01,1.274e+01,1.507e+01,1.210e+01,1.272e+01,1.367e+01
2.162e-01,1.046e+00,1.476e+00,1.129e+00,1.176e+00,1.860e+00,2.051e+00,2.606e+00,2.419e+00,3.022e+00,2.536e+00,2.863e+00,3.350e+00,2.922e+00,4.811e+00,4.303e+00,4.893e+00,5.723e+00,5.084e+00,6.046e+00,6.029e+00,5.948e+00,7.240e+00,6.488e+00,6.993e+00,6.312e+00,6.296e+00,7.666e+00,9.402e+00,7.823e+00,8.432e+00,9.034e+00,7.994e+00,9.396e+00,8.319e+00,9.217e+00,7.515e+00,9.889e+00,7.435e+00,1.064e+01,9.934e+00,9.710e+00,1.131e+01,1.202e+01,1.251e+01,1.183e+01,1.036e+01,1.222e+01,1.127e+01,1.418e+01,1.340e+01,1.034e+01,1.289e+01,1.218e+01,1.336e+01,1.195e+01,1.274e+01,1.374e+01,1.397e+01,1.440e+01,1.273e+01,1.410e+01,1.224e+01,1.097e+01,1.533e+01,1.144e+01,1.402e+01,1.421e+01,1.348e+01,1.250e+01,1.369e+01,1.380e+01,1.427e+01,1.521e+01,1.233e+01,1.234e+01,1.403e+01,1.301e+01,1.537e+01,1.435e+01,1.390e+01,1.278e+01,1.207e+01,1.305e+01,1.428e+01,1.510e+01,1.306e+01,1.383e+01,1.377e+01,1.550e+01,1.301e+01,1.345e+01,1.357e+01
4.305e-01,1.273e+00,1.219e+00,9.195e-01,1.246e+00,1.955e+00,2.051e+00,2.748e+00,2.398e+00,2.547e+00,2.436e+00,2.913e+00,2.699e+00,3.128e+00,4.148e+00,3.933e+00,4.857e+00,5.011e+00,4.964e+00,4.296e+00,5.744e+00,5.178e+00,5.556e+00,5.850e+00,5.601e+00,4.724e+00,6.356e+00,5.461e+00,8.805e+00,7.422e+00,6.501e+00,8.422e+00,7.779e+00,7.782e+00,8.432e+00,9.045e+00,8.173e+00,8.367e+00,7.425e+00,1.073e+01,9.004e+00,9.580e+00,1.052e+01,1.125e+01,1.103e+01,1.211e+01,1.006e+01,1.336e+01,1.178e+01,1.406e+01,1.312e+01,1.045e+01,1.404e+01,1.275e+01,1.246e+01,1.347e+01,1.399e+01,1.415e+01,1.552e+01,1.569e+01,1.404e+01,1.610e+01,1.336e+01,1.307e+01,1.451e+01,1.141e+01,1.329e+01,1.219e+01,1.287e+01,1.197e+01,1.492e+01,1.405e+01,1.512e+01,1.581e+01,1.346e+01,1.227e+01,1.540e+01,1.479e+01,1.647e+01,1.455e+01,1.392e+01,1.383e+01,1.347e+01,1.510e+01,1.619e+01,1.545e+01,1.395e+01,1.428e+01,1.433e+01,1.456e+01,1.390e+01,1.320e+01,1.345e+01
6.723e-01,1.412e+00,1.467e+00,9.638e-01,1.290e+00,1.943e+00,1.864e+00,2.759e+00,2.383e+00,3.056e+00,2.476e+00,2.560e+00,2.560e+00,3.021e+00,3.835e+00,2.850e+00,4.273e+00,4.456e+00,4.954e+00,4.674e+00,5.651e+00,5.639e+00,5.716e+00,6.422e+00,5.954e+00,6.106e+00,7.003e+00,7.053e+00,9.348e+00,7.673e+00,7.022e+00,9.052e+00,7.925e+00,8.211e+00,8.453e+00,8.780e+00,7.326e+00,9.610e+00,8.666e+00,1.142e+01,9.952e+00,9.637e+00,1.123e+01,1.293e+01,1.291e+01,1.292e+01,1.124e+01,1.463e+01,1.070e+01,1.409e+01,1.342e+01,9.936e+00,1.259e+01,1.211e+01,1.186e+01,1.279e+01,1.189e+01,1.466e+01,1.530e+01,1.487e+01,1.478e+01,1.532e+01,1.446e+01,1.221e+01,1.477e+01,1.391e+01,1.576e+01,1.418e+01,1.374e+01,1.299e+01,1.409e+01,1.490e+01,1.478e+01,1.614e+01,1.346e+01,1.239e+01,1.641e+01,1.353e+01,1.676e+01,1.482e+01,1.558e+01,1.270e+01,1.431e+01,1.404e+01,1.525e+01,1.679e+01,1.325e+01,1.385e+01,1.477e+01,1.639e+01,1.394e+01,1.412e+01,1.441e+01
2.988e-01,1.221e+00,1.153e+00,9.409e-01,9.028e-01,1.058e+00,1.816e+00,2.325e+00,2.571e+00,2.901e+00,2.247e+00,2.831e+00,3.057e+00,2.658e+00,3.789e+00,3.545e+00,4.292e+00,5.319e+00,4.162e+00,3.783e+00,4.069e+00,4.600e+00,6.215e+00,5.572e+00,5.532e+00,5.097e+00,5.837e+00,7.120e+00,8.692e+00,7.775e+00,8.216e+00,9.575e+00,6.966e+00,8.053e+00,1.022e+01,9.094e+00,8.533e+00,9.616e+00,9.150e+00,1.076e+01,1.016e+01,1.083e+01,1.103e+01,1.313e+01,1.225e+01,1.406e+01,1.178e+01,1.456e+01,1.271e+01,1.575e+01,1.507e+01,1.092e+01,1.524e+01,1.303e+01,1.406e+01,1.502e+01,1.521e+01,1.637e+01,1.690e+01,1.526e+01,1.708e+01,1.818e+01,1.612e+01,1.528e+01,1.733e+01,1.476e+01,1.745e+01,1.761e+01,1.509e+01,1.580e+01,1.697e+01,1.732e+01,1.700e+01,1.684e+01,1.551e+01,1.299e+01,1.764e+01,1.504e+01,1.958e+01,1.632e+01,1.573e+01,1.525e+01,1.532e+01,1.544e+01,1.745e+01,1.645e+01,1.417e+01,1.625e+01,1.598e+01,1.852e+01,1.563e+01,1.704e+01,1.621e+01
3.732e-01,4.646e-01,3.554e-01,4.111e-01,7.162e-01,1.254e+00,1.682e+00,1.949e+00,2.120e+00,2.866e+00,9.514e-01,1.972e+00,3.438e+00,2.893e+00,4.716e+00,3.476e+00,4.645e+00,5.591e+00,4.770e+00,5.315e+00,5.450e+00,5.496e+00,6.673e+00,6.426e+00,5.867e+00,5.294e+00,6.154e+00,6.628e+00,8.190e+00,7.396e+00,6.812e+00,8.394e+00,7.409e+00,8.353e+00,9.669e+00,9.613e+00,7.426e+00,9.309e+00,7.675e+00,1.041e+01,9.495e+00,9.201e+00,1.001e+01,1.286e+01,1.179e+01,1.311e+01,1.083e+01,1.445e+01,1.136e+01,1.608e+01,1.480e+01,9.947e+00,1.442e+01,1.321e+01,1.318e+01,1.286e+01,1.441e+01,1.467e+01,1.725e+01,1.660e+01,1.588e+01,1.670e+01,1.630e+01,1.556e+01,1.608e+01,1.424e+01,1.593e+01,1.749e+01,1.608e+01,1.585e+01,1.608e+01,1.750e+01,1.930e+01,1.912e+01,1.537e+01,1.453e+01,1.717e+01,1.559e+01,1.887e+01,1.615e+01,1.629e+01,1.647e+01,1.704e+01,1.571e+01,1.565e+01,1.830e+01,1.673e+01,1.866e+01,1.627e+01,1.770e+01,1.723e+01,1.666e+01,1.694e+01
3.665e-01,1.229e+00,1.639e+00,1.522e+00,2.127e+00,2.451e+00,2.956e+00,3.477e+00,2.563e+00,3.623e+00,2.726e+00,2.941e+00,4.039e+00,3.327e+00,4.842e+00,4.395e+00,4.408e+00,5.651e+00,5.604e+00,5.022e+00,6.185e+00,5.334e+00,6.701e+00,7.014e+00,6.776e+00,5.826e+00,7.058e+00,6.870e+00,9.769e+00,8.180e+00,7.549e+00,9.692e+00,8.550e+00,8.134e+00,8.373e+00,1.044e+01,8.000e+00,8.887e+00,8.549e+00,1.061e+01,9.009e+00,8.989e+00,1.037e+01,1.272e+01,1.142e+01,1.194e+01,9.984e+00,1.315e+01,1.117e+01,1.485e+01,1.435e+01,1.013e+01,1.356e+01,1.361e+01,1.376e+01,1.364e+01,1.486e+01,1.553e+01,1.641e+01,1.664e+01,1.586e+01,1.727e+01,1.618e+01,1.462e+01,1.592e+01,1.362e+01,1.673e+01,1.504e+01,1.640e+01,1.582e+01,1.495e+01,1.704e+01,1.587e+01,1.778e+01,1.492e+01,1.470e+01,1.780e+01,1.595e+01,1.814e+01,1.602e+01,1.667e+01,1.587e+01,1.496e+01,1.418e+01,1.737e+01,1.683e+01,1.521e+01,1.492e+01,1.642e+01,1.763e+01,1.495e+01,1.530e+01,1.627e+01
2.104e-01,8.114e-01,6.870e-01,5.940e-01,1.090e+00,1.771e+00,2.287e+00,2.759e+00,2.843e+00,3.248e+00,2.217e+00,2.854e+00,3.210e+00,3.346e+00,4.559e+00,3.576e+00,5.648e+00,5.929e+00,4.735e+00,5.286e+00,4.971e+00,5.735e+00,6.759e+00,6.258e+00,5.962e+00,5.149e+00,6.415e+00,6.724e+00,9.567e+00,7.710e+00,8.014e+00,9.423e+00,7.359e+00,8.801e+00,9.667e+00,8.845e+00,7.695e+00,8.945e+00,8.731e+00,1.017e+01,1.042e+01,1.073e+01,1.175e+01,1.391e+01,1.406e+01,1.414e+01,1.259e+01,1.563e+01,1.353e+01,1.505e+01,1.527e+01,1.174e+01,1.477e+01,1.325e+01,1.430e+01,1.333e+01,1.465e+01,1.591e+01,1.566e+01,1.456e+01,1.789e+01,1.642e+01,1.546e+01,1.389e+01,1.692e+01,1.468e+01,1.694e+01,1.656e+01,1.646e+01,1.707e+01,1.772e+01,1.706e+01,1.649e+01,1.745e+01,1.713e+01,1.452e+01,1.740e+01,1.592e+01,1.758e+01,1.708e+01,1.741e+01,1.510e+01,1.508e+01,1.516e+01,1.817e+01,1.757e+01,1.697e+01,1.555e+01,1.525e+01,1.931e+01,1.593e+01,1.543e+01,1.689e+01
7.461e-01,1.265e+00,1.314e+00,1.509e+00,1.499e+00,1.369e+00,1.934e+00,2.685e+00,2.296e+00,1.711e+00,2.159e+00,2.680e+00,3.316e+00,3.303e+00,4.225e+00,4.194e+00,5.134e+00,4.900e+00,4.978e+00,3.663e+00,5.324e+00,4.740e+00,6.170e+00,5.423e+00,5.666e+00,4.970e+00,6.034e+00,5.921e+00,7.696e+00,6.572e+00,7.210e+00,9.232e+00,6.013e+00,7.837e+00,8.901e+00,7.931e+00,7.499e+00,8.747e+00,7.977e+00,9.607e+00,9.364e+00,7.822e+00,1.074e+01,1.182e+01,1.136e+01,1.302e+01,1.008e+01,1.370e+01,1.092e+01,1.433e+01,1.506e+01,1.012e+01,1.222e+01,1.170e+01,1.428e+01,1.306e+01,1.478e+01,1.639e+01,1.752e+01,1.630e+01,1.719e+01,1.713e+01,1.519e+01,1.580e+01,1.740e+01,1.531e+01,1.804e+01,1.818e+01,1.668e+01,1.860e+01,1.681e+01,1.868e+01,1.833e+01,1.868e+01,1.661e+01,1.530e+01,1.844e+01,1.644e+01,1.905e+01,1.800e+01,1.725e+01,1.755e+01,1.784e+01,1.558e+01,1.871e+01,1.915e+01,1.674e+01,1.888e+01,1.668e+01,2.004e+01,1.779e+01,1.665e+01,1.632e+01
6.405e-01,1.075e+00,1.080e+00,1.312e+00,1.885e+00,2.340e+00,3.093e+00,3.754e+00,3.396e+00,3.593e+00,2.066e+00,3.165e+00,3.974e+00,3.929e+00,4.645e+00,4.009e+00,4.749e+00,5.853e+00,4.977e+00,4.567e+00,5.141e+00,5.176e+00,6.496e+00,6.472e+00,6.106e+00,5.768e+00,6.924e+00,7.486e+00,9.301e+00,8.211e+00,7.819e+00,1.029e+01,7.916e+00,8.540e+00,1.059e+01,9.183e+00,8.633e+00,9.992e+00,9.353e+00,1.231e+01,1.013e+01,1.022e+01,1.185e+01,1.310e+01,1.277e+01,1.281e+01,1.201e+01,1.496e+01,1.242e+01,1.536e+01,1.392e+01,9.855e+00,1.499e+01,1.346e+01,1.358e+01,1.388e+01,1.433e+01,1.508e+01,1.630e+01,1.572e+01,1.639e+01,1.672e+01,1.623e+01,1.559e+01,1.854e+01,1.665e+01,1.741e+01,1.752e+01,1.591e+01,1.606e+01,1.677e+01,1.864e+01,1.789e+01,1.945e+01,1.664e+01,1.385e+01,1.778e+01,1.686e+01,2.069e+01,1.701e+01,1.742e+01,1.587e+01,1.625e+01,1.562e+01,1.833e+01,1.937e+01,1.655e+01,1.829e+01,1.674e+01,1.862e+01,1.713e+01,1.764e+01,1.593e+01
5.272e-02,5.632e-01,8.939e-01,1.014e+00,1.336e+00,2.091e+00,2.480e+00,2.670e+00,2.101e+00,2.029e+00,2.230e+00,2.558e+00,2.674e+00,2.647e+00,3.286e+00,3.236e+00,4.446e+00,4.722e+00,3.719e+00,3.994e+00,5.327e+00,3.976e+00,5.897e+00,5.812e+00,4.851e+00,4.630e+00,5.711e+00,5.025e+00,7.534e+00,6.018e+00,5.900e+00,7.454e+00,6.620e+00,6.640e+00,7.882e+00,8.078e+00,6.992e+00,6.578e+00,8.103e+00,9.081e+00,8.527e+00,8.635e+00,8.166e+00,1.198e+01,1.070e+01,1.206e+01,1.108e+01,1.301e+01,1.102e+01,1.354e+01,1.330e+01,9.142e+00,1.365e+01,1.216e+01,1.265e+01,1.232e+01,1.474e+01,1.449e+01,1.574e+01,1.402e+01,1.547e+01,1.602e+01,1.452e+01,1.514e+01,1.636e+01,1.571e+01,1.596e+01,1.564e+01,1.573e+01,1.571e+01,1.634e+01,1.809e+01,1.747e+01,1.786e+01,1.563e+01,1.470e+01,1.712e+01,1.723e+01,1.815e+01,1.582e+01,1.582e+01,1.636e+01,1.690e+01,1.606e+01,1.721e+01,1.796e+01,1.516e+01,1.524e+01,1.595e+01,1.880e+01,1.687e+01,1.575e+01,1.586e+01
6.182e-01,1.435e+00,1.640e+00,1.135e+00,1.212e+00,2.529e+00,2.392e+00,3.192e+00,2.916e+00,3.578e+00,2.537e+00,3.200e+00,2.858e+00,3.010e+00,4.134e+00,4.037e+00,4.955e+00,6.146e+00,4.816e+00,5.885e+00,5.723e+00,5.542e+00,6.979e+00,6.648e+00,6.581e+00,5.326e+00,7.162e+00,6.657e+00,9.051e+00,8.033e+00,8.222e+00,1.016e+01,9.030e+00,8.440e+00,1.001e+01,1.002e+01,8.000e+00,1.003e+01,9.378e+00,1.164e+01,1.072e+01,1.064e+01,1.279e+01,1.493e+01,1.450e+01,1.314e+01,1.179e+01,1.511e+01,1.307e+01,1.530e+01,1.603e+01,1.065e+01,1.457e+01,1.382e+01,1.483e+01,1.346e+01,1.437e+01,1.466e+01,1.522e+01,1.626e+01,1.615e+01,1.701e+01,1.569e+01,1.374e+01,1.925e+01,1.679e+01,1.702e+01,1.776e+01,1.726e+01,1.696e+01,1.778e+01,1.904e+01,1.903e+01,1.929e+01,1.763e+01,1.535e+01,1.887e+01,1.723e+01,1.938e+01,1.843e+01,1.852e+01,1.546e+01,1.530e+01,1.576e+01,1.958e+01,2.058e+01,1.734e+01,1.707e+01,1.659e+01,1.781e+01,1.838e+01,1.788e+01,1.716e+01
6.899e-01,1.135e+00,1.105e+00,1.001e+00,1.261e+00,1.848e+00,2.112e+00,2.825e+00,2.512e+00,2.630e+00,2.689e+00,2.972e+00,3.375e+00,3.739e+00,5.116e+00,3.857e+00,5.449e+00,5.517e+00,5.522e+00,5.237e+00,7.028e+00,6.165e+00,6.907e+00,7.095e+00,6.857e+00,5.768e+00,6.931e+00,6.633e+00,9.799e+00,7.710e+00,6.843e+00,9.035e+00,7.289e+00,8.829e+00,9.065e+00,9.745e+00,7.443e+00,8.983e+00,8.826e+00,1.126e+01,9.921e+00,1.015e+01,1.165e+01,1.282e+01,1.273e+01,1.277e+01,1.100e+01,1.443e+01,1.139e+01,1.432e+01,1.389e+01,1.090e+01,1.356e+01,1.232e+01,1.263e+01,1.304e+01,1.401e+01,1.419e+01,1.494e+01,1.565e+01,1.594e+01,1.581e+01,1.542e+01,1.342e+01,1.624e+01,1.411e+01,1.569e+01,1.592e+01,1.615e+01,1.537e+01,1.631e+01,1.594e+01,1.636e+01,1.763e+01,1.449e+01,1.432e+01,1.911e+01,1.573e+01,1.767e+01,1.657e+01,1.575e+01,1.476e+01,1.476e+01,1.649e+01,1.843e+01,1.771e+01,1.588e+01,1.691e+01,1.641e+01,1.769e+01,1.616e+01,1.542e+01,1.565e+01
7.926e-01,1.118e+00,7.207e-01,5.418e-01,1.883e-01,9.723e-01,1.012e+00,1.690e+00,2.122e+00,1.862e+00,1.506e+00,2.585e+00,2.766e+00,2.976e+00,4.227e+00,3.800e+00,4.837e+00,4.699e+00,3.633e+00,4.764e+00,5.812e+00,4.983e+00,6.621e+00,6.175e+00,6.360e+00,4.911e+00,5.676e+00,5.958e+00,8.723e+00,7.190e+00,7.416e+00,8.391e+00,7.976e+00,8.251e+00,9.424e+00,9.381e+00,6.489e+00,8.461e+00,7.718e+00,1.010e+01,9.936e+00,9.701e+00,9.574e+00,1.150e+01,1.119e+01,1.287e+01,1.119e+01,1.395e+01,1.010e+01,1.462e+01,1.232e+01,9.754e+00,1.345e+01,1.163e+01,1.201e+01,1.306e+01,1.310e+01,1.425e+01,1.365e+01,1.463e+01,1.498e+01,1.596e+01,1.392e+01,1.320e+01,1.751e+01,1.372e+01,1.550e+01,1.605e+01,1.673e+01,1.577e+01,1.627e+01,1.703e+01,1.813e+01,1.726e+01,1.471e+01,1.545e+01,1.700e+01,1.540e+01,1.702e+01,1.609e+01,1.588e+01,1.628e+01,1.608e+01,1.683e+01,1.831e+01,1.858e+01,1.570e+01,1.758e+01,1.733e+01,1.804e+01,1.751e+01,1.617e+01,1.672e+01
1.912e-01,2.551e-01,4.953e-01,5.501e-01,1.260e+00,2.324e+00,2.501e+00,2.686e+00,2.285e+00,3.349e+00,2.352e+00,2.783e+00,4.195e+00,3.792e+00,5.561e+00,3.391e+00,5.141e+00,5.257e+00,5.542e+00,6.202e+00,6.017e+00,5.433e+00,6.722e+00,7.189e+00,6.189e+00,5.777e+00,7.539e+00,7.217e+00,9.424e+00,7.686e+00,7.640e+00,9.242e+00,7.526e+00,9.052e+00,8.900e+00,9.958e+00,7.930e+00,9.280e+00,8.776e+00,1.073e+01,1.012e+01,9.849e+00,1.032e+01,1.382e+01,1.422e+01,1.372e+01,1.234e+01,1.509e+01,1.288e+01,1.609e+01,1.470e+01,1.127e+01,1.565e+01,1.421e+01,1.287e+01,1.289e+01,1.397e+01,1.488e+01,1.545e+01,1.541e+01,1.619e+01,1.710e+01,1.660e+01,1.465e+01,1.880e+01,1.538e+01,1.721e+01,1.841e+01,1.848e+01,1.832e+01,1.769e+01,1.992e+01,2.051e+01,1.904e+01,1.737e+01,1.632e+01,1.942e+01,1.701e+01,2.144e+01,1.804e+01,1.947e+01,1.783e+01,1.712e+01,1.906e+01,1.898e+01,2.213e+01,1.670e+01,2.032e+01,1.777e+01,1.916e+01,1.791e+01,1.789e+01,1.764e+01
2.770e-01,1.006e+00,8.283e-01,8.589e-01,1.189e+00,1.837e+00,2.310e+00,2.847e+00,2.949e+00,3.013e+00,1.682e+00,3.177e+00,3.900e+00,3.621e+00,5.044e+00,4.604e+00,5.019e+00,5.327e+00,4.696e+00,4.751e+00,5.741e+00,5.009e+00,6.591e+00,5.794e+00,6.047e+00,5.461e+00,7.105e+00,6.913e+00,9.014e+00,7.942e+00,7.126e+00,9.375e+00,8.349e+00,8.099e+00,9.590e+00,9.656e+00,8.637e+00,9.222e+00,8.610e+00,1.019e+01,1.040e+01,1.064e+01,1.124e+01,1.419e+01,1.261e+01,1.432e+01,1.197e+01,1.491e+01,1.223e+01,1.462e+01,1.534e+01,1.056e+01,1.284e+01,1.252e+01,1.371e+01,1.232e+01,1.431e+01,1.536e+01,1.615e+01,1.642e+01,1.658e+01,1.764e+01,1.657e+01,1.540e+01,1.766e+01,1.596e+01,1.770e+01,1.679e+01,1.699e+01,1.865e+01,1.782e+01,1.997e+01,1.865e+01,2.103e+01,1.742e+01,1.600e+01,1.848e+01,1.931e+01,2.011e+01,1.734e+01,2.104e+01,1.709e+01,1.871e+01,1.821e+01,1.973e+01,2.181e+01,1.901e+01,1.906e+01,1.807e+01,2.062e+01,1.754e+01,1.777e+01,1.786e+01
2.324e-01,6.916e-01,6.078e-01,6.004e-01,7.343e-01,1.487e+00,1.884e+00,2.326e+00,2.675e+00,2.774e+00,2.426e+00,3.308e+00,3.729e+00,3.564e+00,5.119e+00,3.515e+00,4.758e+00,4.912e+00,4.100e+00,4.522e+00,5.014e+00,3.847e+00,5.806e+00,6.436e+00,5.422e+00,4.748e+00,5.151e+00,6.589e+00,7.441e+00,7.097e+00,7.280e+00,8.788e+00,6.947e+00,6.725e+00,7.582e+00,7.665e+00,7.276e+00,7.901e+00,7.692e+00,9.209e+00,7.881e+00,8.544e+00,8.019e+00,1.050e+01,1.012e+01,1.104e+01,1.006e+01,1.184e+01,1.015e+01,1.336e+01,1.161e+01,9.439e+00,1.268e+01,1.167e+01,1.049e+01,1.178e+01,1.235e+01,1.370e+01,1.318e+01,1.434e+01,1.408e+01,1.505e+01,1.439e+01,1.274e+01,1.667e+01,1.412e+01,1.560e+01,1.484e+01,1.608e+01,1.511e+01,1.517e+01,1.836e+01,1.690e+01,1.841e+01,1.675e+01,1.466e+01,1.550e+01,1.594e+01,1.906e+01,1.586e+01,1.780e+01,1.541e+01,1.566e+01,1.683e+01,1.752e+01,1.902e+01,1.527e+01,1.697e+01,1.797e+01,1.751e+01,1.657e+01,1.574e+01,1.692e+01
8.448e-01,1.166e+00,1.587e+00,1.539e+00,1.164e+00,1.911e+00,2.467e+00,3.175e+00,3.064e+00,2.777e+00,2.564e+00,3.002e+00,4.126e+00,4.213e+00,4.900e+00,3.461e+00,5.298e+00,6.295e+00,5.820e+00,5.005e+00,6.169e+00,5.165e+00,7.134e+00,6.513e+00,5.946e+00,5.618e+00,6.029e+00,6.847e+00,9.049e+00,7.234e+00,7.772e+00,1.014e+01,6.368e+00,8.728e+00,9.666e+00,8.170e+00,7.469e+00,9.066e+00,9.057e+00,1.094e+01,9.239e+00,8.178e+00,1.097e+01,1.305e+01,1.353e+01,1.220e+01,1.173e+01,1.409e+01,1.246e+01,1.503e+01,1.533e+01,1.043e+01,1.425e+01,1.165e+01,1.393e+01,1.401e+01,1.500e+01,1.583e+01,1.636e+01,1.628e+01,1.674e+01,1.797e+01,1.636e+01,1.490e+01,1.763e+01,1.605e+01,1.817e+01,1.981e+01,1.825e+01,1.857e+01,1.657e+01,2.035e+01,2.046e+01,2.097e+01,1.900e+01,1.871e+01,2.105e+01,1.822e+01,2.099e+01,2.004e+01,2.125e+01,1.783e+01,1.866e+01,1.892e+01,2.015e+01,2.205e+01,1.740e+01,2.033e+01,1.896e+01,2.221e+01,1.840e+01,1.903e+01,1.878e+01
8.097e-01,1.681e+00,1.666e+00,1.514e+00,1.237e+00,1.928e+00,2.472e+00,3.406e+00,3.383e+00,2.567e+00,2.335e+00,3.349e+00,3.073e+00,3.707e+00,4.032e+00,3.841e+00,4.267e+00,5.150e+00,4.246e+00,3.464e+00,5.071e+00,4.035e+00,5.805e+00,5.487e+00,5.877e+00,5.220e+00,5.322e+00,6.479e+00,7.759e+00,6.617e+00,6.636e+00,7.653e+00,6.946e+00,7.049e+00,7.739e+00,7.077e+00,6.078e+00,7.689e+00,7.246e+00,8.830e+00,8.119e+00,7.482e+00,8.644e+00,1.076e+01,9.549e+00,9.727e+00,9.094e+00,1.099e+01,9.085e+00,1.205e+01,1.174e+01,7.211e+00,1.097e+01,1.084e+01,1.280e+01,1.178e+01,1.195e+01,1.387e+01,1.312e+01,1.328e+01,1.311e+01,1.318e+01,1.154e+01,1.158e+01,1.435e+01,1.210e+01,1.221e+01,1.359e+01,1.493e+01,1.376e+01,1.405e+01,1.666e+01,1.675e+01,1.747e+01,1.518e+01,1.555e+01,1.599e+01,1.617e+01,1.683e+01,1.597e+01,1.569e+01,1.460e+01,1.470e+01,1.600e+01,1.652e+01,1.739e+01,1.384e+01,1.653e+01,1.467e+01,1.650e+01,1.565e+01,1.416e+01,1.506e+01
5.773e-01,7.703e-01,4.879e-01,4.043e-01,1.657e-01,2.782e-01,7.170e-01,1.256e+00,1.804e+00,1.525e+00,7.655e-01,1.294e+00,1.524e+00,1.893e+00,2.784e+00,2.057e+00,3.979e+00,4.207e+00,3.140e+00,3.107e+00,3.665e+00,4.331e+00,5.341e+00,5.075e+00,4.738e+00,3.818e+00,5.065e+00,5.346e+00,6.870e+00,6.138e+00,6.563e+00,8.629e+00,6.330e+00,6.694e+00,9.024e+00,7.239e+00,6.725e+00,8.085e+00,7.843e+00,9.185e+00,8.636e+00,8.218e+00,9.934e+00,1.144e+01,1.138e+01,1.173e+01,1.058e+01,1.388e+01,1.138e+01,1.330e+01,1.314e+01,9.495e+00,1.281e+01,1.187e+01,1.260e+01,1.254e+01,1.377e+01,1.334e+01,1.521e+01,1.416e+01,1.515e+01,1.593e+01,1.428e+01,1.348e+01,1.630e+01,1.637e+01,1.506e+01,1.795e+01,1.597e+01,1.685e+01,1.728e+01,1.837e+01,1.921e+01,2.113e+01,1.882e+01,1.716e+01,1.992e+01,1.789e+01,1.856e+01,1.709e+01,1.966e+01,1.711e+01,1.966e+01,1.803e+01,1.986e+01,2.090e+01,1.779e+01,1.995e+01,1.789e+01,1.993e+01,1.880e+01,1.782e+01,1.807e+01
5.248e-01,5.594e-01,9.700e-01,1.447e+00,1.870e+00,2.264e+00,2.683e+00,3.054e+00,2.183e+00,2.189e+00,1.731e+00,2.428e+00,4.126e+00,3.570e+00,5.259e+00,5.085e+00,5.555e+00,6.067e+00,5.616e+00,5.989e+00,7.690e+00,6.457e+00,9.208e+00,8.457e+00,8.997e+00,7.051e+00,8.457e+00,7.690e+00,1.000e+01,8.506e+00,8.211e+00,1.032e+01,8.343e+00,1.029e+01,1.068e+01,1.098e+01,8.501e+00,9.419e+00,8.809e+00,1.226e+01,9.887e+00,9.476e+00,1.124e+01,1.290e+01,1.250e+01,1.316e+01,1.135e+01,1.403e+01,1.172e+01,1.574e+01,1.543e+01,1.094e+01,1.401e+01,1.454e+01,1.376e+01,1.425e+01,1.541e+01,1.691e+01,1.792e+01,1.756e+01,1.640e+01,1.879e+01,1.658e+01,1.602e+01,1.850e+01,1.555e+01,1.791e+01,1.919e+01,1.952e+01,1.912e+01,1.834e+01,2.127e+01,2.070e+01,2.273e+01,1.994e+01,2.090e+01,2.205e+01,2.173e+01,2.225e+01,2.146e+01,2.198e+01,2.099e+01,2.107e+01,2.143e+01,2.330e+01,2.440e+01,2.033e+01,2.309e+01,2.049e+01,2.321e+01,1.956e+01,2.050e+01,2.028e+01
2.996e-01,3.712e-01,9.972e-01,1.319e+00,1.264e+00,2.077e+00,2.612e+00,2.678e+00,2.083e+00,1.946e+00,1.700e+00,2.229e+00,3.568e+00,3.036e+00,3.705e+00,3.332e+00,3.941e+00,4.726e+00,4.018e+00,4.394e+00,5.742e+00,3.864e+00,6.177e+00,5.607e+00,5.273e+00,5.047e+00,5.485e+00,5.752e+00,7.574e+00,6.367e+00,6.938e+00,8.616e+00,6.192e+00,7.529e+00,8.076e+00,8.113e+00,7.123e+00,8.851e+00,7.637e+00,1.013e+01,8.746e+00,8.055e+00,8.952e+00,1.292e+01,1.184e+01,1.252e+01,1.059e+01,1.411e+01,1.105e+01,1.536e+01,1.497e+01,9.690e+00,1.361e+01,1.257e+01,1.337e+01,1.326e+01,1.512e+01,1.578e+01,1.669e+01,1.555e+01,1.628e+01,1.756e+01,1.624e+01,1.565e+01,1.666e+01,1.642e+01,1.823e+01,1.844e+01,1.693e+01,1.705e+01,1.770e+01,1.931e+01,2.054e+01,2.058e+01,1.793e+01,1.771e+01,2.111e+01,2.064e+01,2.070e+01,2.116e+01,2.148e+01,1.940e+01,2.024e+01,2.118e+01,1.976e+01,2.233e+01,1.836e+01,2.054e+01,1.905e+01,2.288e+01,1.904e+01,1.945e+01,1.865e+01
2.130e-01,6.253e-01,6.880e-01,4.220e-01,5.606e-01,1.666e+00,1.549e+00,1.818e+00,1.668e+00,2.185e+00,1.243e+00,1.896e+00,2.395e+00,2.304e+00,3.545e+00,3.227e+00,3.727e+00,3.696e+00,2.910e+00,4.683e+00,3.970e+00,3.613e+00,5.139e+00,5.257e+00,4.896e+00,4.401e+00,5.213e+00,5.743e+00,6.979e+00,6.291e+00,6.998e+00,7.843e+00,7.671e+00,6.594e+00,7.835e+00,8.636e+00,6.581e+00,8.139e+00,6.400e+00,8.415e+00,9.385e+00,7.410e+00,8.461e+00,1.054e+01,1.031e+01,1.082e+01,8.426e+00,1.153e+01,9.601e+00,1.199e+01,1.213e+01,8.886e+00,1.113e+01,1.155e+01,1.097e+01,1.040e+01,1.191e+01,1.291e+01,1.426e+01,1.355e+01,1.322e+01,1.491e+01,1.334e+01,1.179e+01,1.535e+01,1.158e+01,1.517e+01,1.407e+01,1.415e+01,1.536e+01,1.458e+01,1.632e+01,1.623e+01,1.823e+01,1.433e+01,1.461e+01,1.759e+01,1.725e+01,1.755e+01,1.718e+01,1.971e+01,1.591e+01,1.683e+01,1.711e+01,1.722e+01,1.751e+01,1.632e+01,1.810e+01,1.614e+01,1.847e+01,1.490e+01,1.656e+01,1.600e+01
4.819e-01,1.326e+00,1.765e+00,1.285e+00,1.433e+00,2.289e+00,2.299e+00,2.849e+00,2.011e+00,2.875e+00,2.603e+00,2.265e+00,3.027e+00,2.869e+00,4.099e+00,3.914e+00,4.476e+00,4.324e+00,4.762e+00,5.390e+00,4.932e+00,4.778e+00,5.535e+00,5.722e+00,5.742e+00,4.964e+00,6.932e+00,6.534e+00,9.202e+00,7.304e+00,7.849e+00,9.112e+00,6.922e+00,7.584e+00,7.733e+00,8.505e+00,6.196e+00,8.649e+00,8.093e+00,9.433e+00,9.085e+00,8.502e+00,9.740e+00,1.192e+01,1.227e+01,1.224e+01,1.040e+01,1.396e+01,1.033e+01,1.508e+01,1.494e+01,1.019e+01,1.320e+01,1.213e+01,1.233e+01,1.239e+01,1.350e+01,1.431e+01,1.607e+01,1.518e+01,1.423e+01,1.637e+01,1.502e+01,1.320e+01,1.738e+01,1.570e+01,1.881e+01,1.754e+01,1.777e+01,1.706e+01,1.743e+01,2.027e+01,2.060e+01,2.100e+01,1.875e+01,1.907e+01,2.253e+01,2.180e+01,2.157e+01,2.122e+01,2.519e+01,2.066e+01,2.183e+01,2.118e+01,2.412e+01,2.280e+01,1.924e+01,2.318e+01,2.052e+01,2.264e+01,1.943e+01,2.068e+01,1.921e+01
2.433e-01,4.319e-01,6.661e-01,9.561e-01,1.144e+00,1.899e+00,2.241e+00,2.578e+00,2.334e+00,1.853e+00,1.702e+00,2.607e+00,3.493e+00,3.471e+00,4.553e+00,4.299e+00,5.402e+00,5.329e+00,3.985e+00,5.130e+00,5.155e+00,4.318e+00,6.350e+00,6.457e+00,6.231e+00,5.478e+00,5.466e+00,6.368e+00,7.090e+00,6.840e+00,8.066e+00,8.526e+00,6.424e+00,7.933e+00,8.557e+00,8.035e+00,6.680e+00,7.177e+00,8.557e+00,8.957e+00,9.424e+00,7.970e+00,8.706e+00,1.127e+01,1.108e+01,1.235e+01,1.112e+01,1.237e+01,1.082e+01,1.435e+01,1.435e+01,1.018e+01,1.400e+01,1.215e+01,1.321e+01,1.259e+01,1.465e+01,1.518e+01,1.439e+01,1.494e+01,1.455e+01,1.688e+01,1.543e+01,1.420e+01,1.686e+01,1.582e+01,1.608e+01,1.665e+01,1.765e+01,1.647e+01,1.633e+01,1.981e+01,1.920e+01,1.881e+01,1.735e+01,1.587e+01,1.883e+01,1.826e+01,2.033e+01,1.806e+01,2.021e+01,1.802e+01,1.821e+01,1.876e+01,1.949e+01,2.207e+01,1.766e+01,2.047e+01,1.732e+01,2.111e+01,1.759e+01,1.857e+01,1.876e+01
8.685e-01,1.385e+00,1.632e+00,1.527e+00,1.568e+00,2.114e+00,2.435e+00,3.267e+00,2.827e+00,3.007e+00,2.403e+00,3.005e+00,3.946e+00,3.876e+00,5.251e+00,4.532e+00,5.757e+00,5.792e+00,5.828e+00,5.103e+00,6.386e+00,6.043e+00,6.915e+00,7.043e+00,7.097e+00,6.331e+00,7.687e+00,7.550e+00,1.079e+01,8.515e+00,8.983e+00,1.147e+01,9.348e+00,9.586e+00,1.083e+01,1.076e+01,7.284e+00,1.006e+01,9.922e+00,1.198e+01,1.012e+01,9.400e+00,1.232e+01,1.402e+01,1.365e+01,1.315e+01,1.173e+01,1.670e+01,1.301e+01,1.614e+01,1.658e+01,1.095e+01,1.507e+01,1.294e+01,1.541e+01,1.517e+01,1.640e+01,1.692e+01,1.744e+01,1.695e+01,1.881e+01,1.843e+01,1.789e+01,1.449e+01,1.922e+01,1.698e+01,1.926e+01,1.916e+01,1.838e+01,1.931e+01,1.796e+01,2.115e+01,2.076e+01,1.995e+01,1.996e+01,1.974e+01,2.302e+01,1.920e+01,2.284e+01,2.007e+01,2.306e+01,2.030e+01,2.220e+01,1.960e+01,2.301e+01,2.543e+01,2.031e+01,2.364e+01,1.985e+01,2.221e+01,1.972e+01,2.137e+01,2.069e+01
6.257e-01,1.494e+00,1.653e+00,1.124e+00,1.430e+00,2.898e+00,3.035e+00,3.766e+00,3.421e+00,4.474e+00,3.051e+00,3.846e+00,4.173e+00,4.218e+00,6.030e+00,4.966e+00,6.601e+00,7.885e+00,6.620e+00,6.738e+00,7.269e+00,7.082e+00,8.644e+00,8.645e+00,7.921e+00,6.411e+00,7.898e+00,8.441e+00,1.003e+01,8.502e+00,8.249e+00,1.012e+01,8.353e+00,1.013e+01,1.122e+01,1.078e+01,8.144e+00,1.038e+01,9.752e+00,1.238e+01,1.078e+01,1.138e+01,1.264e+01,1.505e+01,1.491e+01,1.435e+01,1.314e+01,1.507e+01,1.267e+01,1.662e+01,1.545e+01,1.112e+01,1.486e+01,1.437e+01,1.477e+01,1.283e+01,1.557e+01,1.694e+01,1.691e+01,1.672e+01,1.664e+01,1.727e+01,1.594e+01,1.511e+01,2.022e+01,1.601e+01,1.733e+01,1.911e+01,1.796e+01,1.808e+01,1.840e+01,1.921e+01,2.038e+01,2.178e+01,1.878e+01,1.793e+01,2.157e+01,2.041e+01,2.328e+01,2.167e+01,2.394e+01,2.071e+01,2.148e+01,2.142e+01,2.434e+01,2.473e+01,2.107e+01,2.449e+01,2.212e+01,2.404e+01,1.981e+01,2.126e+01,2.238e+01
7.146e-02,2.993e-01,4.926e-01,7.884e-01,1.337e+00,1.977e+00,2.659e+00,2.767e+00,2.622e+00,3.361e+00,2.104e+00,3.078e+00,5.118e+00,4.096e+00,6.798e+00,5.452e+00,6.518e+00,6.833e+00,6.066e+00,6.572e+00,6.939e+00,6.343e+00,8.764e+00,8.524e+00,8.183e+00,5.971e+00,7.668e+00,7.466e+00,1.044e+01,8.566e+00,8.534e+00,1.003e+01,8.989e+00,1.006e+01,1.013e+01,1.107e+01,9.142e+00,9.892e+00,8.403e+00,1.215e+01,9.659e+00,1.126e+01,1.088e+01,1.327e+01,1.376e+01,1.299e+01,1.150e+01,1.429e+01,1.231e+01,1.598e+01,1.419e+01,1.103e+01,1.484e+01,1.368e+01,1.460e+01,1.276e+01,1.487e+01,1.581e+01,1.633e+01,1.642e+01,1.513e+01,1.690e+01,1.573e+01,1.555e+01,1.768e+01,1.457e+01,1.609e+01,1.692e+01,1.659e+01,1.528e+01,1.795e+01,1.869e+01,2.041e+01,2.241e+01,1.927e+01,1.793e+01,2.081e+01,2.045e+01,2.191e+01,1.920e+01,2.183e+01,1.891e+01,2.075e+01,2.131e+01,2.205e+01,2.319e+01,2.138e+01,2.254e+01,2.075e+01,2.162e+01,1.954e+01,1.865e+01,2.024e+01
3.070e-01,5.034e-01,4.647e-01,4.608e-01,3.577e-01,1.212e+00,1.275e+00,1.609e+00,1.641e+00,1.062e+00,1.973e+00,2.100e+00,1.483e+00,2.150e+00,2.848e+00,1.868e+00,3.454e+00,3.173e+00,2.461e+00,3.232e+00,3.673e+00,2.538e+00,4.538e+00,4.950e+00,3.976e+00,3.960e+00,4.638e+00,5.113e+00,6.007e+00,5.232e+00,5.502e+00,6.599e+00,5.185e+00,5.577e+00,7.415e+00,7.156e+00,5.491e+00,6.344e+00,7.300e+00,7.760e+00,8.308e+00,7.399e+00,8.131e+00,1.015e+01,9.998e+00,1.068e+01,9.146e+00,1.142e+01,1.024e+01,1.129e+01,1.249e+01,8.001e+00,1.066e+01,1.028e+01,1.034e+01,1.087e+01,1.141e+01,1.197e+01,1.210e+01,1.134e+01,1.248e+01,1.251e+01,1.082e+01,1.099e+01,1.213e+01,1.175e+01,1.323e+01,1.317e+01,1.342e+01,1.494e+01,1.355e+01,1.630e+01,1.465e+01,1.439e+01,1.583e+01,1.390e+01,1.586e+01,1.538e+01,1.618e+01,1.482e+01,1.775e+01,1.567e+01,1.698e+01,1.693e+01,1.856e+01,1.845e+01,1.491e+01,1.832e+01,1.626e+01,1.812e+01,1.680e+01,1.626e+01,1.804e+01
7.518e-02,7.927e-01,1.252e+00,1.198e+00,1.518e+00,2.247e+00,2.895e+00,3.125e+00,2.616e+00,3.087e+00,2.726e+00,2.976e+00,3.407e+00,3.096e+00,4.875e+00,3.947e+00,5.194e+00,6.404e+00,5.709e+00,5.141e+00,7.161e+00,5.924e+00,7.443e+00,7.596e+00,6.702e+00,6.309e+00,7.674e+00,7.618e+00,1.077e+01,8.330e+00,7.464e+00,9.445e+00,8.616e+00,9.396e+00,9.785e+00,1.084e+01,7.482e+00,8.993e+00,9.231e+00,1.188e+01,8.971e+00,1.105e+01,1.066e+01,1.423e+01,1.282e+01,1.265e+01,1.127e+01,1.449e+01,1.255e+01,1.479e+01,1.415e+01,9.592e+00,1.361e+01,1.239e+01,1.463e+01,1.337e+01,1.492e+01,1.657e+01,1.648e+01,1.435e+01,1.604e+01,1.656e+01,1.576e+01,1.603e+01,1.813e+01,1.514e+01,1.709e+01,1.825e+01,1.674e+01,1.659e+01,1.647e+01,1.852e+01,1.990e+01,1.923e+01,1.820e+01,1.790e+01,2.041e+01,2.071e+01,2.086e+01,2.119e+01,2.181e+01,1.967e+01,2.091e+01,1.947e+01,2.271e+01,2.463e+01,2.107e+01,2.194e+01,2.205e+01,2.422e+01,2.099e+01,1.991e+01,2.056e+01
8.707e-01,1.327e+00,1.157e+00,1.331e+00,1.363e+00,1.207e+00,1.941e+00,2.713e+00,2.565e+00,2.294e+00,2.227e+00,2.576e+00,3.142e+00,3.145e+00,3.657e+00,2.854e+00,3.449e+00,3.560e+00,3.845e+00,3.028e+00,4.848e+00,4.146e+00,5.217e+00,4.298e+00,4.765e+00,3.991e+00,6.130e+00,5.412e+00,8.251e+00,6.958e+00,5.807e+00,7.896e+00,5.525e+00,5.989e+00,7.500e+00,7.379e+00,6.780e+00,7.918e+00,7.165e+00,8.959e+00,8.189e+00,7.872e+00,9.441e+00,1.078e+01,9.541e+00,1.097e+01,9.678e+00,1.278e+01,9.241e+00,1.159e+01,1.211e+01,9.305e+00,1.152e+01,1.115e+01,1.130e+01,1.268e+01,1.240e+01,1.274e+01,1.467e+01,1.371e+01,1.468e+01,1.504e+01,1.326e+01,1.250e+01,1.441e+01,1.324e+01,1.623e+01,1.443e+01,1.518e+01,1.470e+01,1.541e+01,1.755e+01,1.729e+01,1.922e+01,1.661e+01,1.477e+01,1.943e+01,1.830e+01,1.938e+01,1.834e+01,1.949e+01,1.625e+01,1.960e+01,1.994e+01,2.103e+01,2.360e+01,1.934e+01,2.128e+01,2.014e+01,2.115e+01,1.936e+01,1.769e+01,1.997e+01
6.457e-01,1.378e+00,1.154e+00,7.701e-01,5.864e-01,1.649e+00,1.693e+00,2.515e+00,2.680e+00,2.179e+00,2.445e+00,2.920e+00,2.298e+00,3.286e+00,4.268e+00,3.537e+00,5.659e+00,5.551e+00,4.955e+00,5.070e+00,5.799e+00,5.540e+00,6.680e+00,6.509e+00,6.095e+00,5.806e+00,6.068e+00,6.935e+00,8.772e+00,6.989e+00,7.007e+00,9.341e+00,7.239e+00,8.643e+00,9.320e+00,9.398e+00,6.385e+00,7.655e+00,8.926e+00,1.058e+01,9.234e+00,1.036e+01,1.086e+01,1.186e+01,1.200e+01,1.254e+01,1.103e+01,1.344e+01,1.158e+01,1.445e+01,1.406e+01,1.001e+01,1.422e+01,1.178e+01,1.371e+01,1.286e+01,1.425e+01,1.641e+01,1.586e+01,1.449e+01,1.664e+01,1.681e+01,1.472e+01,1.492e+01,1.813e+01,1.541e+01,1.735e+01,1.812e+01,1.864e+01,1.781e+01,1.925e+01,2.016e+01,2.078e+01,1.991e+01,1.898e+01,1.940e+01,2.166e+01,2.128e+01,2.088e+01,2.077e+01,2.341e+01,2.019e+01,2.296e+01,2.148e+01,2.600e+01,2.585e+01,2.163e+01,2.435e+01,2.259e+01,2.485e+01,2.304e+01,2.396e+01,2.409e+01
8.414e-01,1.060e+00,9.040e-01,9.056e-01,5.945e-01,7.950e-01,1.415e+00,1.982e+00,2.117e+00,1.738e+00,8.042e-01,1.617e+00,2.431e+00,2.644e+00,2.929e+00,3.054e+00,3.815e+00,4.968e+00,3.799e+00,2.795e+00,4.551e+00,5.010e+00,5.962e+00,5.141e+00,6.055e+00,4.274e+00,5.453e+00,5.056e+00,7.107e+00,6.712e+00,6.306e+00,6.743e+00,6.143e+00,6.974e+00,8.172e+00,7.351e+00,5.584e+00,7.939e+00,7.374e+00,9.134e+00,7.775e+00,7.895e+00,8.416e+00,1.080e+01,1.046e+01,1.030e+01,9.613e+00,1.194e+01,9.475e+00,1.189e+01,1.145e+01,7.683e+00,1.074e+01,1.070e+01,1.121e+01,1.250e+01,1.188e+01,1.113e+01,1.153e+01,1.213e+01,1.225e+01,1.360e+01,1.302e+01,1.186e+01,1.395e+01,1.302e+01,1.324e+01,1.504e+01,1.423e+01,1.216e+01,1.372e+01,1.545e+01,1.669e+01,1.777e+01,1.620e+01,1.568e+01,1.769e+01,1.595e+01,1.791e+01,1.748e+01,1.774e+01,1.523e+01,1.635e+01,1.604e+01,1.736e+01,1.999e+01,1.653e+01,1.865e+01,1.630e+01,1.815e+01,1.678e+01,1.681e+01,1.805e+01
8.276e-02,2.969e-01,4.974e-01,6.443e-01,8.153e-01,9.221e-01,1.496e+00,1.708e+00,1.745e+00,1.736e+00,1.286e+00,1.805e+00,3.233e+00,2.908e+00,4.569e+00,3.601e+00,4.994e+00,4.862e+00,4.863e+00,4.162e+00,5.567e+00,5.543e+00,5.990e+00,5.966e+00,5.825e+00,5.055e+00,6.116e+00,5.968e+00,8.875e+00,7.839e+00,7.617e+00,9.054e+00,7.801e+00,8.530e+00,9.211e+00,8.919e+00,8.045e+00,9.041e+00,8.148e+00,1.035e+01,8.539e+00,9.331e+00,9.438e+00,1.146e+01,1.136e+01,1.381e+01,1.094e+01,1.490e+01,1.164e+01,1.396e+01,1.308e+01,1.047e+01,1.319e+01,1.267e+01,1.244e+01,1.399e+01,1.291e+01,1.507e+01,1.548e+01,1.435e+01,1.711e+01,1.745e+01,1.482e+01,1.451e+01,1.720e+01,1.490e+01,1.664e+01,1.720e+01,1.697e+01,1.664e+01,1.722e+01,1.887e+01,1.778e+01,1.965e+01,1.769e+01,1.621e+01,1.946e+01,1.837e+01,2.015e+01,2.019e+01,2.151e+01,1.905e+01,2.130e+01,2.023e+01,2.298e+01,2.370e+01,2.261e+01,2.329e+01,2.335e+01,2.351e+01,2.112e+01,2.073e+01,2.239e+01
2.381e-01,5.292e-01,1.025e+00,7.834e-01,4.887e-01,9.668e-01,1.392e+00,1.546e+00,1.567e+00,2.229e+00,1.905e+00,1.797e+00,2.570e+00,2.024e+00,3.257e+00,1.695e+00,3.313e+00,3.799e+00,4.015e+00,2.852e+00,4.431e+00,3.863e+00,4.567e+00,4.832e+00,4.447e+00,3.921e+00,4.349e+00,4.411e+00,6.925e+00,5.325e+00,5.226e+00,6.442e+00,4.918e+00,6.199e+00,6.217e+00,7.104e+00,4.940e+00,6.237e+00,5.718e+00,6.877e+00,5.936e+00,6.403e+00,6.990e+00,9.701e+00,8.876e+00,8.993e+00,9.036e+00,1.107e+01,8.410e+00,1.163e+01,1.032e+01,7.220e+00,1.205e+01,1.032e+01,1.153e+01,1.117e+01,1.165e+01,1.357e+01,1.465e+01,1.210e+01,1.466e+01,1.466e+01,1.294e+01,1.283e+01,1.449e+01,1.343e+01,1.373e+01,1.552e+01,1.465e+01,1.500e+01,1.608e+01,1.712e+01,1.859e+01,1.817e+01,1.638e+01,1.742e+01,2.021e+01,1.929e+01,1.918e+01,1.889e+01,2.035e+01,1.795e+01,2.071e+01,2.046e+01,1.928e+01,2.253e+01,1.789e+01,2.210e+01,2.140e+01,2.191e+01,2.045e+01,1.906e+01,2.203e+01
1.625e-01,9.107e-01,8.835e-01,4.148e-01,7.422e-01,1.982e+00,1.740e+00,2.142e+00,1.826e+00,2.329e+00,1.742e+00,2.368e+00,2.968e+00,3.189e+00,3.800e+00,3.859e+00,4.694e+00,4.208e+00,4.024e+00,4.368e+00,3.940e+00,3.846e+00,3.954e+00,5.355e+00,4.416e+00,4.169e+00,4.386e+00,5.180e+00,5.638e+00,5.683e+00,6.223e+00,8.046e+00,6.362e+00,6.270e+00,7.479e+00,7.093e+00,6.628e+00,6.390e+00,7.412e+00,8.167e+00,7.889e+00,7.959e+00,8.356e+00,9.870e+00,1.038e+01,1.113e+01,9.844e+00,1.276e+01,1.060e+01,1.363e+01,1.326e+01,9.487e+00,1.403e+01,1.143e+01,1.088e+01,1.222e+01,1.340e+01,1.484e+01,1.411e+01,1.434e+01,1.333e+01,1.592e+01,1.328e+01,1.250e+01,1.602e+01,1.318e+01,1.568e+01,1.597e+01,1.758e+01,1.543e+01,1.535e+01,1.802e+01,1.759e+01,1.944e+01,1.858e+01,1.642e+01,1.932e+01,1.916e+01,2.090e+01,1.869e+01,2.178e+01,1.894e+01,2.083e+01,2.108e+01,2.200e+01,2.501e+01,1.879e+01,2.299e+01,2.038e+01,2.333e+01,1.995e+01,1.977e+01,2.062e+01
2.547e-01,8.011e-01,6.277e-01,8.373e-01,1.757e+00,1.990e+00,2.641e+00,3.033e+00,2.525e+00,2.966e+00,1.673e+00,2.646e+00,3.881e+00,3.676e+00,4.888e+00,4.374e+00,4.671e+00,5.390e+00,5.385e+00,4.543e+00,5.113e+00,5.068e+00,6.456e+00,6.539e+00,5.802e+00,5.482e+00,7.138e+00,7.189e+00,8.457e+00,7.524e+00,6.954e+00,8.546e+00,7.416e+00,8.145e+00,8.598e+00,8.823e+00,7.690e+00,8.121e+00,7.000e+00,9.884e+00,8.143e+00,8.193e+00,9.197e+00,1.141e+01,1.064e+01,1.161e+01,8.655e+00,1.229e+01,1.046e+01,1.290e+01,1.237e+01,9.562e+00,1.102e+01,1.223e+01,1.137e+01,1.122e+01,1.184e+01,1.385e+01,1.529e+01,1.374e+01,1.494e+01,1.554e+01,1.426e+01,1.475e+01,1.659e+01,1.280e+01,1.659e+01,1.522e+01,1.691e+01,1.702e+01,1.446e+01,1.804e+01,1.767e+01,1.874e+01,1.806e+01,1.629e+01,2.017e+01,1.866e+01,2.063e+01,2.109e+01,2.244e+01,1.926e+01,1.968e+01,1.931e+01,2.296e+01,2.346e+01,2.037e+01,2.165e+01,2.107e+01,2.278e+01,2.025e+01,2.237e+01,2.134e+01
1.676e-01,9.716e-01,7.725e-01,3.184e-01,1.057e+00,1.905e+00,1.638e+00,2.192e+00,1.753e+00,2.519e+00,1.982e+00,2.356e+00,2.426e+00,2.821e+00,4.002e+00,3.967e+00,5.078e+00,5.225e+00,4.339e+00,5.561e+00,5.989e+00,5.848e+00,7.035e+00,7.073e+00,6.613e+00,5.074e+00,6.635e+00,6.048e+00,8.804e+00,8.053e+00,8.070e+00,8.802e+00,7.455e+00,8.396e+00,8.247e+00,9.560e+00,6.986e+00,7.451e+00,7.856e+00,9.303e+00,1.000e+01,9.752e+00,9.366e+00,1.142e+01,1.114e+01,1.275e+01,1.068e+01,1.257e+01,1.004e+01,1.330e+01,1.209e+01,1.091e+01,1.130e+01,1.223e+01,1.099e+01,1.196e+01,1.257e+01,1.389e+01,1.341e+01,1.398e+01,1.337e+01,1.552e+01,1.356e+01,1.311e+01,1.657e+01,1.337e+01,1.570e+01,1.546e+01,1.637e+01,1.565e+01,1.681e+01,1.743e+01,1.878e+01,2.005e+01,1.830e+01,1.606e+01,1.869e+01,1.882e+01,1.884e+01,1.824e+01,2.165e+01,1.685e+01,1.809e+01,1.870e+01,2.216e+01,2.223e+01,1.987e+01,2.051e+01,1.925e+01,2.084e+01,2.022e+01,1.959e+01,2.145e+01
