4.981e-01,4.805e-01,3.502e-02,9.438e-03,6.021e-02,5.907e-01,5.669e-01,7.402e-01,1.424e-01,1.106e-01,6.938e-01,8.818e-01,6.438e-01,2.509e-01,5.700e-01,8.184e-01,5.709e-01,9.410e-01,6.447e-01,2.687e-01,7.324e-02,6.491e-01,4.026e-02,2.704e-01,9.201e-01,6.408e-01,1.300e-01,4.562e-01,2.368e-01,6.908e-01,9.308e-01,2.342e-01,3.598e-01,6.274e-01,7.729e-01,9.078e-01,3.803e-01,7.828e-01,1.532e-01,5.229e-01,8.228e-01,2.425e-01,7.507e-01,9.786e-01,5.511e-02,9.365e-01,9.241e-01,2.461e-01,2.640e-01,5.551e-01,5.751e-01,3.989e-01,8.724e-01,6.672e-02,4.804e-01,5.951e-01,9.414e-01,9.486e-01,4.835e-01,3.429e-01,2.440e-01,7.680e-01,1.764e-01,7.492e-01,3.985e-01,9.144e-01,7.475e-01,4.208e-02,5.216e-01,7.728e-01,8.045e-01,4.790e-01,2.653e-01,1.207e-01,1.764e-01,4.662e-01,2.841e-01,1.721e-01,7.868e-01,5.806e-01,2.178e-01,1.298e-01,3.154e-01,4.217e-01,8.071e-01,1.613e-01
3.255e-01,1.246e+00,2.337e-01,7.730e-01,2.590e-01,5.799e-01,9.157e-01,1.280e+00,9.313e-01,1.655e-01,5.602e-01,1.118e+00,8.096e-01,3.927e-01,5.645e-01,8.383e-01,3.807e-01,1.375e+00,1.013e+00,1.961e-01,3.187e-01,1.388e+00,2.886e-01,2.068e-01,6.518e-01,1.087e+00,3.701e-01,1.152e+00,5.752e-01,8.438e-01,1.173e+00,8.673e-01,1.070e+00,1.044e+00,9.522e-01,8.636e-01,2.865e-01,1.013e+00,8.272e-01,7.245e-01,1.106e+00,2.827e-01,9.738e-01,9.151e-01,6.887e-02,6.270e-01,8.966e-01,7.927e-01,7.099e-01,8.825e-01,5.944e-01,3.242e-01,8.227e-01,3.498e-01,8.575e-01,1.172e+00,7.458e-01,9.865e-01,8.271e-01,7.374e-01,5.974e-01,1.384e+00,8.424e-01,6.039e-01,6.435e-01,1.442e+00,8.361e-01,1.232e-01,8.212e-01,1.217e+00,6.566e-01,7.024e-01,7.221e-01,5.898e-01,1.066e+00,4.266e-01,1.033e+00,3.618e-01,9.985e-01,7.361e-01,7.491e-01,8.357e-01,1.006e+00,1.169e+00,1.282e+00,8.099e-01
3.500e-02,7.101e-01,1.036e+00,9.086e-01,1.117e+00,5.746e-01,9.109e-01,1.282e+00,7.729e-01,4.686e-01,6.139e-01,8.538e-01,8.404e-01,7.076e-01,3.888e-01,2.936e-01,8.717e-01,8.100e-01,1.114e+00,6.851e-01,1.185e+00,9.644e-01,4.126e-01,9.557e-01,3.002e-01,9.646e-01,7.963e-01,1.167e+00,9.847e-01,6.329e-01,5.019e-01,5.892e-01,1.228e+00,1.239e+00,4.872e-01,3.036e-01,3.334e-01,9.512e-01,1.304e+00,1.080e+00,1.214e+00,4.456e-01,1.080e+00,3.577e-01,9.447e-01,8.421e-01,3.762e-01,1.295e+00,6.790e-01,1.022e+00,3.240e-01,8.119e-01,9.973e-01,1.064e+00,9.712e-01,1.115e+00,6.152e-01,5.227e-01,1.231e+00,4.479e-01,1.134e+00,1.077e+00,1.398e+00,1.045e+00,1.012e+00,7.839e-01,6.577e-01,9.327e-01,7.462e-01,1.496e+00,6.836e-01,6.361e-01,6.352e-01,9.416e-01,1.107e+00,4.086e-01,1.576e+00,8.607e-01,1.286e+00,7.875e-01,8.635e-01,9.998e-01,8.897e-01,1.275e+00,8.929e-01,9.001e-01
6.704e-03,2.571e-01,5.512e-01,5.242e-01,7.930e-01,8.860e-01,1.001e+00,7.201e-01,1.059e+00,7.690e-01,7.025e-01,4.068e-01,5.659e-01,1.176e+00,1.149e+00,1.666e-01,7.163e-01,7.283e-01,8.863e-01,1.362e+00,1.356e+00,7.650e-01,3.006e-01,1.411e+00,9.032e-01,1.418e+00,8.279e-01,1.350e+00,1.223e+00,9.933e-01,1.061e+00,2.947e-01,1.065e+00,8.069e-01,5.113e-01,2.659e-01,6.532e-01,9.229e-01,1.576e+00,7.228e-01,7.045e-01,7.371e-01,1.342e+00,1.708e-01,1.335e+00,1.185e+00,1.882e-01,1.103e+00,8.721e-01,1.233e+00,5.561e-01,8.898e-01,8.192e-01,9.187e-01,1.321e+00,1.077e+00,1.120e+00,7.400e-01,1.046e+00,2.924e-01,5.712e-01,6.631e-01,1.413e+00,7.415e-01,6.443e-01,1.111e+00,3.405e-01,9.175e-01,1.120e+00,1.192e+00,5.733e-01,1.072e+00,6.726e-01,1.225e+00,7.979e-01,3.631e-01,1.685e+00,9.961e-01,1.013e+00,1.103e+00,4.032e-01,6.367e-01,1.215e+00,1.274e+00,1.219e+00,8.012e-01
3.666e-01,1.054e+00,2.597e-01,6.411e-01,7.842e-01,1.301e+00,1.276e+00,2.026e+00,1.319e+00,1.225e+00,8.300e-01,1.248e+00,1.209e+00,1.225e+00,1.624e+00,1.066e+00,9.382e-01,1.461e+00,1.822e+00,7.831e-01,9.142e-01,2.202e+00,8.483e-01,1.246e+00,9.639e-01,1.603e+00,7.966e-01,2.151e+00,1.580e+00,1.510e+00,2.129e+00,1.532e+00,1.450e+00,1.752e+00,1.343e+00,1.834e+00,1.179e+00,1.486e+00,9.654e-01,9.442e-01,1.511e+00,4.398e-01,1.677e+00,1.389e+00,8.178e-01,1.113e+00,1.546e+00,1.401e+00,1.531e+00,1.387e+00,8.724e-01,8.430e-01,1.575e+00,6.505e-01,1.867e+00,2.078e+00,1.846e+00,2.093e+00,1.423e+00,1.096e+00,1.152e+00,1.923e+00,9.579e-01,1.187e+00,1.638e+00,2.458e+00,1.508e+00,8.139e-01,1.554e+00,1.654e+00,1.217e+00,1.674e+00,9.415e-01,1.357e+00,1.002e+00,1.008e+00,1.948e+00,7.349e-01,1.221e+00,1.867e+00,9.615e-01,1.605e+00,1.748e+00,1.523e+00,1.977e+00,1.094e+00
9.909e-02,7.376e-01,1.012e+00,8.869e-01,1.192e+00,1.393e+00,1.982e+00,1.837e+00,1.620e+00,1.013e+00,1.467e+00,9.749e-01,1.598e+00,1.248e+00,9.343e-01,8.549e-01,1.580e+00,1.413e+00,1.751e+00,1.384e+00,1.327e+00,2.089e+00,1.001e+00,1.553e+00,5.246e-01,1.551e+00,1.223e+00,1.659e+00,1.848e+00,1.716e+00,1.285e+00,8.262e-01,1.486e+00,2.347e+00,6.733e-01,1.299e+00,1.007e+00,1.553e+00,1.916e+00,1.747e+00,1.541e+00,6.443e-01,1.343e+00,6.750e-01,1.361e+00,1.174e+00,1.152e+00,2.188e+00,1.513e+00,1.573e+00,9.749e-01,1.642e+00,2.110e+00,1.925e+00,1.359e+00,1.638e+00,1.549e+00,1.449e+00,2.133e+00,6.278e-01,1.475e+00,1.387e+00,2.280e+00,1.284e+00,1.705e+00,1.605e+00,1.800e+00,1.905e+00,9.743e-01,1.784e+00,9.384e-01,1.786e+00,8.143e-01,1.905e+00,1.276e+00,1.311e+00,2.087e+00,1.300e+00,2.205e+00,1.161e+00,1.290e+00,2.129e+00,1.267e+00,2.071e+00,1.683e+00,1.573e+00
4.585e-01,6.345e-01,9.286e-01,5.346e-01,1.324e+00,1.961e+00,2.923e+00,2.909e+00,1.546e+00,2.046e+00,2.761e+00,2.121e+00,2.531e+00,2.348e+00,2.272e+00,1.732e+00,2.399e+00,2.477e+00,2.932e+00,2.029e+00,2.403e+00,2.469e+00,1.574e+00,2.664e+00,1.841e+00,2.853e+00,1.620e+00,2.857e+00,2.508e+00,2.751e+00,2.931e+00,1.150e+00,1.850e+00,2.815e+00,2.142e+00,3.073e+00,1.633e+00,2.496e+00,1.745e+00,2.009e+00,3.006e+00,1.745e+00,2.270e+00,1.961e+00,2.598e+00,2.337e+00,2.754e+00,3.255e+00,2.165e+00,2.416e+00,1.923e+00,2.908e+00,3.119e+00,1.965e+00,2.301e+00,2.587e+00,2.860e+00,3.097e+00,2.758e+00,1.078e+00,2.292e+00,2.486e+00,2.349e+00,1.976e+00,2.653e+00,2.967e+00,3.021e+00,2.510e+00,2.371e+00,2.318e+00,2.084e+00,2.356e+00,1.843e+00,2.158e+00,1.078e+00,2.313e+00,2.697e+00,1.435e+00,3.231e+00,2.371e+00,1.288e+00,2.554e+00,2.247e+00,2.483e+00,2.690e+00,2.163e+00
3.420e-01,8.636e-01,6.014e-01,6.997e-01,1.095e+00,2.047e+00,2.383e+00,2.857e+00,2.238e+00,2.453e+00,2.791e+00,2.116e+00,1.972e+00,2.678e+00,2.968e+00,2.108e+00,2.062e+00,1.937e+00,2.955e+00,2.252e+00,2.067e+00,3.354e+00,1.294e+00,2.934e+00,1.948e+00,2.879e+00,2.197e+00,2.823e+00,2.764e+00,2.793e+00,2.781e+00,1.393e+00,2.584e+00,2.989e+00,2.105e+00,2.960e+00,2.388e+00,2.240e+00,2.904e+00,2.706e+00,2.212e+00,1.806e+00,2.295e+00,1.676e+00,2.440e+00,1.888e+00,2.010e+00,2.418e+00,2.537e+00,2.971e+00,2.170e+00,2.787e+00,3.537e+00,2.216e+00,2.226e+00,2.770e+00,2.669e+00,2.967e+00,2.714e+00,1.463e+00,1.536e+00,2.305e+00,2.814e+00,1.939e+00,2.441e+00,3.329e+00,2.495e+00,2.100e+00,1.928e+00,2.759e+00,1.898e+00,2.938e+00,1.387e+00,2.735e+00,1.457e+00,2.491e+00,3.027e+00,1.468e+00,2.632e+00,2.367e+00,1.799e+00,2.931e+00,2.312e+00,2.537e+00,2.644e+00,1.817e+00
3.668e-01,6.313e-01,4.322e-01,4.881e-01,8.741e-01,1.760e+00,2.288e+00,2.355e+00,2.343e+00,2.216e+00,2.553e+00,1.992e+00,1.933e+00,2.870e+00,2.847e+00,1.770e+00,1.959e+00,2.429e+00,3.480e+00,2.316e+00,2.614e+00,2.877e+00,1.295e+00,3.034e+00,2.440e+00,3.199e+00,1.857e+00,3.133e+00,2.961e+00,2.771e+00,3.482e+00,1.381e+00,2.318e+00,2.669e+00,2.733e+00,3.203e+00,2.785e+00,3.047e+00,2.732e+00,2.449e+00,2.619e+00,2.857e+00,2.923e+00,2.048e+00,3.276e+00,2.348e+00,2.857e+00,3.124e+00,2.763e+00,3.007e+00,2.884e+00,2.991e+00,2.986e+00,2.499e+00,2.948e+00,2.880e+00,3.517e+00,3.145e+00,3.164e+00,1.752e+00,2.390e+00,2.309e+00,3.195e+00,1.904e+00,2.243e+00,3.463e+00,2.214e+00,2.020e+00,3.140e+00,2.688e+00,1.933e+00,2.761e+00,2.480e+00,2.936e+00,1.205e+00,2.480e+00,3.435e+00,1.741e+00,3.343e+00,3.111e+00,1.454e+00,2.865e+00,2.787e+00,3.171e+00,3.415e+00,1.884e+00
4.072e-01,1.012e+00,8.082e-01,8.061e-01,9.609e-01,1.255e+00,1.712e+00,2.327e+00,1.405e+00,1.598e+00,2.807e+00,3.044e+00,1.860e+00,2.147e+00,2.093e+00,2.638e+00,2.223e+00,1.858e+00,3.334e+00,2.109e+00,1.948e+00,2.752e+00,1.384e+00,2.105e+00,2.203e+00,2.532e+00,2.051e+00,2.257e+00,2.514e+00,2.017e+00,2.572e+00,1.703e+00,2.814e+00,3.089e+00,2.083e+00,2.885e+00,2.391e+00,2.000e+00,3.156e+00,2.304e+00,2.325e+00,2.213e+00,2.510e+00,2.377e+00,2.023e+00,2.119e+00,2.489e+00,2.449e+00,1.796e+00,2.935e+00,2.128e+00,3.029e+00,3.565e+00,2.442e+00,2.477e+00,3.000e+00,2.484e+00,2.767e+00,2.688e+00,1.886e+00,2.253e+00,2.054e+00,2.393e+00,2.414e+00,2.126e+00,2.395e+00,2.058e+00,1.640e+00,1.833e+00,3.094e+00,2.367e+00,2.582e+00,1.510e+00,1.830e+00,1.597e+00,2.401e+00,2.477e+00,1.320e+00,3.007e+00,1.781e+00,1.509e+00,2.588e+00,2.047e+00,2.671e+00,2.785e+00,1.476e+00
6.291e-02,7.148e-01,6.418e-01,7.431e-01,1.103e+00,9.675e-01,1.345e+00,2.213e+00,1.413e+00,1.810e+00,2.500e+00,2.707e+00,2.224e+00,2.457e+00,1.913e+00,1.553e+00,2.007e+00,1.471e+00,3.740e+00,2.368e+00,2.709e+00,2.778e+00,1.883e+00,2.729e+00,1.615e+00,2.871e+00,1.879e+00,2.760e+00,2.506e+00,2.456e+00,3.233e+00,2.946e+00,2.778e+00,2.749e+00,1.976e+00,2.724e+00,2.988e+00,2.328e+00,2.033e+00,1.552e+00,2.569e+00,2.092e+00,2.278e+00,2.713e+00,2.922e+00,1.823e+00,3.147e+00,2.753e+00,2.864e+00,2.512e+00,1.884e+00,2.368e+00,2.941e+00,2.490e+00,3.386e+00,3.325e+00,3.041e+00,3.108e+00,3.110e+00,2.096e+00,3.173e+00,2.207e+00,2.682e+00,2.568e+00,3.247e+00,2.904e+00,2.555e+00,2.585e+00,2.779e+00,2.485e+00,2.361e+00,2.157e+00,2.246e+00,2.299e+00,1.830e+00,2.066e+00,2.924e+00,1.483e+00,2.706e+00,2.251e+00,1.691e+00,3.122e+00,3.237e+00,2.634e+00,3.296e+00,1.647e+00
1.222e-01,4.327e-01,8.925e-01,5.877e-01,1.051e+00,1.210e+00,2.232e+00,2.507e+00,1.873e+00,2.218e+00,4.023e+00,4.102e+00,3.405e+00,3.585e+00,2.448e+00,2.623e+00,3.130e+00,2.321e+00,5.117e+00,3.922e+00,4.431e+00,3.736e+00,2.938e+00,4.234e+00,3.182e+00,4.144e+00,3.154e+00,3.005e+00,3.356e+00,3.454e+00,3.613e+00,2.700e+00,4.133e+00,3.779e+00,3.450e+00,4.412e+00,4.725e+00,3.962e+00,3.837e+00,3.371e+00,3.530e+00,4.404e+00,3.570e+00,3.182e+00,4.886e+00,3.126e+00,4.384e+00,4.564e+00,3.776e+00,3.453e+00,3.397e+00,4.515e+00,4.715e+00,3.911e+00,3.524e+00,4.292e+00,4.508e+00,4.205e+00,5.177e+00,2.783e+00,4.064e+00,3.091e+00,4.369e+00,3.129e+00,3.969e+00,4.076e+00,3.406e+00,4.448e+00,3.803e+00,3.504e+00,3.223e+00,2.861e+00,3.712e+00,3.428e+00,2.463e+00,4.214e+00,3.629e+00,2.313e+00,4.895e+00,2.930e+00,2.997e+00,4.089e+00,3.618e+00,4.180e+00,4.613e+00,2.795e+00
8.052e-02,8.678e-01,8.721e-01,1.003e+00,1.429e+00,1.738e+00,2.688e+00,2.916e+00,2.460e+00,2.474e+00,2.737e+00,2.938e+00,3.044e+00,3.630e+00,3.449e+00,2.639e+00,2.763e+00,2.702e+00,4.429e+00,3.420e+00,4.077e+00,3.750e+00,3.171e+00,3.935e+00,2.733e+00,3.961e+00,3.268e+00,4.486e+00,3.803e+00,3.887e+00,4.685e+00,3.098e+00,4.226e+00,4.207e+00,3.823e+00,4.037e+00,4.114e+00,3.689e+00,3.657e+00,3.380e+00,4.046e+00,3.716e+00,4.532e+00,2.512e+00,3.936e+00,3.468e+00,3.693e+00,4.698e+00,4.138e+00,3.722e+00,2.876e+00,4.238e+00,4.563e+00,3.943e+00,4.125e+00,4.955e+00,4.770e+00,4.363e+00,4.370e+00,3.175e+00,4.324e+00,3.363e+00,3.688e+00,2.619e+00,4.205e+00,4.636e+00,3.324e+00,4.132e+00,4.573e+00,4.140e+00,2.777e+00,3.744e+00,3.374e+00,4.115e+00,2.246e+00,4.169e+00,4.291e+00,2.178e+00,4.604e+00,3.646e+00,2.705e+00,4.755e+00,4.080e+00,4.179e+00,4.759e+00,3.221e+00
3.667e-01,7.130e-01,3.318e-01,4.056e-01,5.954e-01,1.261e+00,2.120e+00,2.502e+00,1.307e+00,2.006e+00,3.650e+00,3.748e+00,3.095e+00,4.098e+00,3.315e+00,4.194e+00,3.346e+00,2.782e+00,4.917e+00,3.683e+00,3.474e+00,4.034e+00,2.876e+00,3.403e+00,3.878e+00,4.372e+00,3.783e+00,3.882e+00,2.892e+00,4.263e+00,5.285e+00,4.041e+00,3.886e+00,3.829e+00,4.295e+00,4.248e+00,4.621e+00,3.502e+00,3.467e+00,3.554e+00,4.414e+00,4.112e+00,4.261e+00,4.297e+00,3.650e+00,3.946e+00,4.345e+00,3.465e+00,4.021e+00,4.115e+00,2.904e+00,4.967e+00,5.667e+00,3.495e+00,3.871e+00,4.695e+00,4.501e+00,4.926e+00,4.057e+00,3.502e+00,4.580e+00,3.430e+00,3.096e+00,3.856e+00,4.947e+00,4.914e+00,3.899e+00,4.164e+00,3.883e+00,3.557e+00,3.798e+00,3.252e+00,3.165e+00,3.650e+00,2.421e+00,4.957e+00,3.533e+00,2.301e+00,4.512e+00,2.810e+00,2.587e+00,4.051e+00,4.046e+00,3.749e+00,4.835e+00,2.536e+00
2.838e-02,5.211e-01,3.860e-01,5.272e-01,6.025e-01,6.010e-01,1.050e+00,1.528e+00,1.441e+00,1.412e+00,2.261e+00,3.200e+00,2.318e+00,3.536e+00,2.222e+00,3.565e+00,3.617e+00,2.204e+00,5.223e+00,4.007e+00,4.374e+00,3.993e+00,2.996e+00,2.991e+00,3.569e+00,4.395e+00,3.931e+00,3.415e+00,3.160e+00,3.907e+00,4.165e+00,4.318e+00,4.458e+00,3.991e+00,4.548e+00,4.613e+00,5.470e+00,4.349e+00,4.014e+00,3.819e+00,4.202e+00,4.795e+00,4.880e+00,3.863e+00,4.063e+00,3.505e+00,4.102e+00,4.338e+00,4.425e+00,4.305e+00,3.360e+00,4.787e+00,5.587e+00,4.466e+00,4.667e+00,5.078e+00,4.947e+00,4.108e+00,4.924e+00,4.524e+00,4.885e+00,3.752e+00,3.966e+00,4.038e+00,5.041e+00,4.370e+00,2.675e+00,3.913e+00,3.851e+00,3.744e+00,3.891e+00,3.055e+00,4.310e+00,4.523e+00,3.267e+00,4.950e+00,3.972e+00,3.453e+00,4.439e+00,3.162e+00,3.720e+00,4.016e+00,4.246e+00,4.307e+00,5.518e+00,2.433e+00
9.700e-02,8.811e-01,3.429e-01,8.273e-01,9.836e-01,1.791e+00,2.211e+00,2.530e+00,2.479e+00,2.471e+00,2.837e+00,2.665e+00,2.427e+00,4.070e+00,3.486e+00,4.201e+00,3.917e+00,3.230e+00,5.449e+00,4.600e+00,4.089e+00,4.515e+00,3.182e+00,3.653e+00,3.571e+00,5.086e+00,3.731e+00,4.475e+00,4.436e+00,4.300e+00,5.037e+00,4.271e+00,4.828e+00,4.700e+00,4.407e+00,4.522e+00,5.051e+00,3.685e+00,4.119e+00,3.483e+00,3.707e+00,3.858e+00,4.163e+00,4.325e+00,3.749e+00,3.567e+00,4.006e+00,3.834e+00,5.252e+00,5.160e+00,3.269e+00,4.631e+00,5.075e+00,4.010e+00,5.404e+00,5.219e+00,4.712e+00,5.176e+00,5.032e+00,4.331e+00,4.470e+00,4.289e+00,4.144e+00,3.744e+00,4.936e+00,5.252e+00,4.046e+00,4.092e+00,4.489e+00,4.093e+00,3.518e+00,4.056e+00,3.578e+00,4.462e+00,3.619e+00,4.957e+00,5.129e+00,3.255e+00,4.362e+00,4.049e+00,3.585e+00,4.794e+00,4.911e+00,4.188e+00,5.267e+00,3.549e+00
3.334e-01,4.958e-01,3.669e-01,3.577e-01,5.937e-01,1.560e+00,2.007e+00,1.593e+00,1.906e+00,1.364e+00,2.350e+00,2.013e+00,2.172e+00,3.006e+00,2.375e+00,3.198e+00,3.912e+00,3.175e+00,4.309e+00,4.626e+00,3.728e+00,3.824e+00,2.703e+00,3.542e+00,3.624e+00,4.294e+00,3.389e+00,3.208e+00,3.789e+00,4.465e+00,3.868e+00,3.057e+00,3.827e+00,4.407e+00,4.095e+00,3.926e+00,4.772e+00,4.366e+00,3.745e+00,4.238e+00,4.397e+00,3.840e+00,4.550e+00,3.604e+00,4.263e+00,3.931e+00,4.355e+00,3.968e+00,4.985e+00,4.734e+00,4.145e+00,4.588e+00,4.929e+00,4.648e+00,4.664e+00,4.261e+00,5.277e+00,3.897e+00,4.696e+00,3.857e+00,4.164e+00,3.660e+00,4.630e+00,4.281e+00,4.319e+00,4.413e+00,3.551e+00,3.805e+00,4.144e+00,3.829e+00,3.210e+00,3.676e+00,3.777e+00,4.248e+00,2.681e+00,4.641e+00,4.143e+00,3.464e+00,4.672e+00,3.574e+00,3.135e+00,3.602e+00,3.497e+00,4.351e+00,4.875e+00,3.418e+00
1.798e-01,1.057e+00,9.474e-01,1.047e+00,1.323e+00,1.587e+00,2.135e+00,2.439e+00,2.178e+00,1.627e+00,2.421e+00,2.761e+00,2.638e+00,3.370e+00,2.199e+00,4.052e+00,4.412e+00,3.730e+00,5.932e+00,5.434e+00,3.997e+00,4.995e+00,4.117e+00,3.968e+00,3.645e+00,5.225e+00,3.986e+00,4.508e+00,4.856e+00,4.616e+00,4.512e+00,5.119e+00,5.423e+00,6.441e+00,4.908e+00,4.800e+00,5.540e+00,5.033e+00,5.288e+00,4.556e+00,5.211e+00,4.415e+00,4.798e+00,5.009e+00,4.461e+00,4.235e+00,5.402e+00,4.748e+00,5.598e+00,5.362e+00,4.036e+00,5.717e+00,5.929e+00,5.265e+00,6.052e+00,5.608e+00,5.768e+00,4.760e+00,5.944e+00,4.547e+00,5.854e+00,4.575e+00,4.966e+00,5.653e+00,5.500e+00,5.349e+00,5.028e+00,4.772e+00,4.150e+00,5.107e+00,4.360e+00,4.369e+00,4.630e+00,4.742e+00,4.226e+00,5.888e+00,5.611e+00,4.315e+00,5.865e+00,4.435e+00,4.273e+00,5.159e+00,5.009e+00,5.864e+00,6.310e+00,4.263e+00
2.610e-01,6.144e-01,6.279e-01,5.427e-01,9.074e-01,1.074e+00,1.512e+00,2.056e+00,1.181e+00,1.633e+00,2.353e+00,2.798e+00,2.072e+00,2.560e+00,2.238e+00,2.955e+00,3.128e+00,2.815e+00,5.197e+00,4.851e+00,4.678e+00,3.457e+00,3.360e+00,3.985e+00,3.417e+00,5.300e+00,3.197e+00,3.655e+00,3.698e+00,3.384e+00,4.213e+00,3.870e+00,5.077e+00,5.314e+00,5.234e+00,4.362e+00,4.787e+00,3.944e+00,4.052e+00,3.899e+00,4.577e+00,4.050e+00,4.305e+00,4.346e+00,4.195e+00,4.088e+00,4.539e+00,4.221e+00,4.473e+00,4.683e+00,3.786e+00,4.639e+00,4.529e+00,3.579e+00,4.929e+00,4.523e+00,5.296e+00,4.448e+00,5.228e+00,4.008e+00,4.428e+00,3.883e+00,4.410e+00,4.402e+00,4.479e+00,4.903e+00,4.244e+00,3.883e+00,4.450e+00,4.554e+00,4.515e+00,3.778e+00,3.929e+00,3.225e+00,3.309e+00,4.985e+00,4.187e+00,3.070e+00,4.824e+00,4.476e+00,4.027e+00,3.483e+00,4.887e+00,4.660e+00,5.147e+00,3.816e+00
3.945e-01,1.187e+00,6.731e-01,8.797e-01,8.147e-01,1.486e+00,2.416e+00,2.702e+00,1.875e+00,1.816e+00,3.588e+00,3.913e+00,3.108e+00,3.440e+00,3.104e+00,4.196e+00,3.795e+00,3.562e+00,5.701e+00,6.130e+00,4.794e+00,5.276e+00,4.224e+00,4.786e+00,4.682e+00,6.541e+00,4.532e+00,5.282e+00,4.188e+00,5.695e+00,6.089e+00,5.826e+00,6.321e+00,6.676e+00,6.204e+00,5.424e+00,6.035e+00,4.882e+00,6.095e+00,5.563e+00,6.391e+00,5.370e+00,6.296e+00,5.315e+00,5.299e+00,5.637e+00,5.728e+00,5.550e+00,6.313e+00,6.048e+00,5.041e+00,6.227e+00,7.342e+00,5.621e+00,6.183e+00,6.351e+00,6.622e+00,5.405e+00,5.687e+00,5.024e+00,6.244e+00,4.333e+00,5.459e+00,5.969e+00,6.093e+00,5.887e+00,5.996e+00,4.987e+00,4.883e+00,6.388e+00,5.456e+00,5.369e+00,4.657e+00,5.112e+00,4.410e+00,6.695e+00,5.290e+00,4.064e+00,6.764e+00,4.181e+00,4.937e+00,5.555e+00,5.520e+00,6.101e+00,6.514e+00,4.813e+00
2.796e-01,8.218e-01,9.493e-01,8.781e-01,1.611e+00,1.837e+00,2.182e+00,2.896e+00,2.023e+00,2.469e+00,2.744e+00,2.841e+00,2.589e+00,4.165e+00,3.425e+00,3.272e+00,3.769e+00,3.331e+00,5.718e+00,5.333e+00,5.384e+00,4.708e+00,4.111e+00,5.023e+00,4.958e+00,6.979e+00,4.728e+00,5.406e+00,4.818e+00,5.307e+00,6.072e+00,5.601e+00,5.632e+00,5.610e+00,5.551e+00,5.132e+00,6.025e+00,4.772e+00,5.668e+00,4.568e+00,6.098e+00,5.496e+00,5.452e+00,4.735e+00,5.718e+00,5.213e+00,4.527e+00,4.493e+00,6.406e+00,6.381e+00,3.733e+00,5.796e+00,6.415e+00,4.460e+00,6.551e+00,5.951e+00,5.817e+00,6.024e+00,5.978e+00,4.182e+00,5.922e+00,4.680e+00,5.732e+00,6.153e+00,6.133e+00,6.470e+00,5.203e+00,4.831e+00,5.070e+00,5.056e+00,5.057e+00,4.329e+00,5.034e+00,5.004e+00,4.125e+00,5.780e+00,6.661e+00,4.880e+00,6.203e+00,5.663e+00,5.091e+00,4.955e+00,6.170e+00,5.185e+00,6.772e+00,4.512e+00
3.981e-01,1.147e+00,9.239e-01,9.749e-01,1.388e+00,1.591e+00,2.189e+00,3.285e+00,2.007e+00,2.599e+00,3.790e+00,4.353e+00,3.037e+00,3.753e+00,3.310e+00,3.141e+00,3.644e+00,2.977e+00,6.062e+00,5.183e+00,5.741e+00,5.513e+00,4.541e+00,5.457e+00,4.993e+00,6.851e+00,5.231e+00,5.162e+00,5.381e+00,6.128e+00,6.307e+00,6.046e+00,6.284e+00,6.495e+00,5.460e+00,6.183e+00,7.102e+00,5.022e+00,6.202e+00,5.392e+00,7.030e+00,5.747e+00,6.060e+00,5.674e+00,6.209e+00,5.692e+00,5.825e+00,6.099e+00,6.946e+00,6.606e+00,4.844e+00,6.106e+00,6.997e+00,5.482e+00,6.548e+00,6.644e+00,6.376e+00,6.495e+00,6.355e+00,4.696e+00,6.391e+00,4.670e+00,6.473e+00,6.646e+00,6.194e+00,6.832e+00,5.410e+00,5.129e+00,5.549e+00,5.659e+00,6.238e+00,5.621e+00,5.414e+00,4.954e+00,4.210e+00,6.314e+00,6.501e+00,4.380e+00,6.683e+00,5.906e+00,5.044e+00,5.819e+00,6.581e+00,5.789e+00,7.059e+00,5.393e+00
5.606e-02,5.538e-01,5.782e-01,6.961e-01,8.121e-01,9.236e-01,1.286e+00,1.602e+00,1.497e+00,1.670e+00,2.226e+00,2.959e+00,1.824e+00,3.053e+00,2.752e+00,3.301e+00,3.127e+00,2.588e+00,4.868e+00,5.426e+00,4.966e+00,3.853e+00,4.305e+00,5.272e+00,4.631e+00,5.700e+00,5.418e+00,4.428e+00,4.966e+00,4.639e+00,5.312e+00,4.736e+00,6.625e+00,6.525e+00,6.131e+00,5.444e+00,6.510e+00,4.167e+00,6.830e+00,4.629e+00,5.952e+00,5.787e+00,6.036e+00,4.003e+00,5.010e+00,5.687e+00,5.093e+00,5.346e+00,5.801e+00,5.995e+00,4.412e+00,6.256e+00,6.558e+00,4.780e+00,5.994e+00,5.597e+00,5.713e+00,5.135e+00,5.993e+00,4.564e+00,5.006e+00,4.228e+00,5.875e+00,5.947e+00,4.594e+00,5.628e+00,4.452e+00,4.955e+00,5.115e+00,5.228e+00,4.569e+00,4.738e+00,5.633e+00,4.525e+00,4.658e+00,6.152e+00,5.412e+00,4.628e+00,6.454e+00,5.339e+00,4.683e+00,5.234e+00,5.375e+00,5.769e+00,6.383e+00,4.689e+00
5.619e-02,5.886e-01,3.102e-01,5.803e-01,8.510e-01,1.138e+00,1.701e+00,2.592e+00,1.823e+00,2.732e+00,3.238e+00,3.403e+00,2.451e+00,3.699e+00,3.479e+00,3.094e+00,3.453e+00,2.938e+00,5.551e+00,5.403e+00,5.288e+00,4.458e+00,4.505e+00,5.925e+00,4.488e+00,6.895e+00,5.171e+00,5.606e+00,5.523e+00,6.140e+00,6.448e+00,6.223e+00,6.366e+00,6.974e+00,6.050e+00,6.098e+00,7.174e+00,5.394e+00,6.025e+00,4.862e+00,7.424e+00,6.150e+00,6.205e+00,5.565e+00,5.992e+00,5.919e+00,6.952e+00,5.880e+00,7.371e+00,7.027e+00,5.644e+00,6.268e+00,6.601e+00,5.644e+00,7.363e+00,6.329e+00,7.020e+00,6.164e+00,6.376e+00,5.131e+00,6.062e+00,5.255e+00,6.521e+00,6.025e+00,5.659e+00,6.972e+00,6.086e+00,5.983e+00,6.219e+00,5.094e+00,5.551e+00,5.806e+00,6.660e+00,4.943e+00,5.091e+00,6.862e+00,6.349e+00,4.669e+00,6.663e+00,6.156e+00,4.515e+00,6.406e+00,7.087e+00,6.369e+00,7.228e+00,5.346e+00
1.044e-01,8.458e-01,8.600e-01,9.954e-01,1.531e+00,2.011e+00,2.672e+00,2.908e+00,2.552e+00,2.590e+00,2.554e+00,2.621e+00,2.816e+00,4.198e+00,3.808e+00,3.461e+00,3.886e+00,3.448e+00,5.354e+00,5.649e+00,5.162e+00,5.021e+00,4.259e+00,5.364e+00,4.726e+00,7.122e+00,5.916e+00,6.847e+00,5.730e+00,7.149e+00,6.562e+00,6.151e+00,6.522e+00,6.935e+00,6.555e+00,6.187e+00,6.962e+00,6.263e+00,7.307e+00,6.094e+00,7.849e+00,6.154e+00,7.917e+00,5.544e+00,6.334e+00,6.453e+00,5.770e+00,6.504e+00,7.448e+00,7.053e+00,5.548e+00,6.604e+00,7.251e+00,6.330e+00,7.159e+00,7.113e+00,7.760e+00,6.035e+00,6.720e+00,5.059e+00,7.254e+00,5.661e+00,6.084e+00,5.779e+00,6.374e+00,7.704e+00,6.555e+00,6.938e+00,5.780e+00,6.421e+00,5.200e+00,6.768e+00,6.137e+00,6.883e+00,5.143e+00,7.290e+00,7.602e+00,5.912e+00,7.227e+00,5.733e+00,4.863e+00,6.624e+00,6.982e+00,7.500e+00,7.754e+00,5.686e+00
3.494e-02,7.654e-01,3.054e-01,7.704e-01,9.079e-01,1.399e+00,1.690e+00,2.040e+00,2.139e+00,2.084e+00,2.408e+00,3.018e+00,2.342e+00,3.927e+00,2.886e+00,3.219e+00,3.093e+00,2.736e+00,5.916e+00,5.756e+00,5.107e+00,5.727e+00,4.842e+00,5.190e+00,5.265e+00,7.814e+00,6.048e+00,6.782e+00,6.015e+00,6.237e+00,7.532e+00,8.426e+00,6.656e+00,7.434e+00,5.675e+00,6.543e+00,8.071e+00,5.590e+00,8.261e+00,5.815e+00,7.351e+00,7.147e+00,7.588e+00,6.129e+00,6.071e+00,6.497e+00,6.208e+00,6.830e+00,8.247e+00,7.121e+00,5.032e+00,6.542e+00,7.312e+00,5.312e+00,7.803e+00,7.476e+00,7.812e+00,7.092e+00,7.054e+00,5.707e+00,7.314e+00,4.835e+00,6.608e+00,6.467e+00,6.821e+00,8.745e+00,6.917e+00,6.479e+00,5.877e+00,5.151e+00,6.321e+00,7.433e+00,6.386e+00,5.579e+00,5.908e+00,8.004e+00,7.253e+00,6.149e+00,7.868e+00,6.415e+00,6.043e+00,6.598e+00,7.534e+00,8.179e+00,8.662e+00,6.069e+00
1.450e-01,9.289e-01,8.017e-01,9.433e-01,1.116e+00,1.063e+00,1.852e+00,2.642e+00,1.656e+00,2.149e+00,3.216e+00,3.636e+00,2.763e+00,3.527e+00,3.255e+00,3.038e+00,3.556e+00,2.778e+00,5.340e+00,5.476e+00,6.197e+00,4.473e+00,4.323e+00,5.374e+00,5.046e+00,7.837e+00,6.748e+00,6.903e+00,5.305e+00,8.565e+00,7.833e+00,7.568e+00,7.749e+00,7.369e+00,8.078e+00,7.940e+00,8.210e+00,5.868e+00,7.363e+00,7.148e+00,9.729e+00,7.597e+00,7.750e+00,6.954e+00,7.675e+00,7.472e+00,6.334e+00,7.613e+00,9.082e+00,7.985e+00,6.375e+00,6.553e+00,8.410e+00,7.321e+00,7.709e+00,7.737e+00,8.280e+00,6.841e+00,7.057e+00,6.104e+00,7.789e+00,6.133e+00,7.419e+00,7.259e+00,7.810e+00,8.024e+00,7.068e+00,6.719e+00,6.968e+00,7.060e+00,6.567e+00,6.646e+00,7.491e+00,6.919e+00,5.975e+00,8.097e+00,7.753e+00,6.970e+00,8.267e+00,5.818e+00,6.802e+00,7.197e+00,7.985e+00,6.780e+00,8.062e+00,6.494e+00
1.179e-01,1.436e-01,3.893e-01,1.796e-01,4.949e-01,6.433e-01,1.470e+00,1.792e+00,1.047e+00,1.830e+00,2.675e+00,2.793e+00,1.993e+00,3.448e+00,2.434e+00,4.061e+00,4.054e+00,3.188e+00,5.459e+00,5.089e+00,4.904e+00,3.814e+00,3.832e+00,4.843e+00,4.816e+00,6.186e+00,5.883e+00,6.314e+00,5.725e+00,6.736e+00,6.948e+00,6.743e+00,6.555e+00,7.119e+00,8.557e+00,7.981e+00,8.184e+00,5.735e+00,6.866e+00,6.721e+00,8.682e+00,7.589e+00,7.737e+00,7.183e+00,7.749e+00,7.429e+00,7.192e+00,7.573e+00,8.302e+00,8.009e+00,6.901e+00,8.139e+00,7.986e+00,6.853e+00,7.364e+00,6.373e+00,7.957e+00,6.253e+00,7.756e+00,5.924e+00,7.395e+00,6.165e+00,7.001e+00,7.450e+00,6.887e+00,7.122e+00,6.447e+00,6.656e+00,6.969e+00,5.409e+00,6.091e+00,6.328e+00,7.442e+00,6.035e+00,5.485e+00,8.609e+00,6.894e+00,6.830e+00,8.614e+00,6.102e+00,5.381e+00,6.185e+00,6.613e+00,7.383e+00,6.735e+00,5.955e+00
2.650e-01,9.421e-01,9.315e-01,8.914e-01,1.346e+00,1.402e+00,1.826e+00,2.711e+00,1.646e+00,2.033e+00,2.887e+00,3.687e+00,2.945e+00,3.602e+00,3.178e+00,3.641e+00,3.597e+00,2.705e+00,5.711e+00,4.959e+00,5.085e+00,4.763e+00,4.128e+00,5.155e+00,4.207e+00,6.429e+00,6.079e+00,6.898e+00,5.728e+00,6.613e+00,7.584e+00,8.001e+00,8.035e+00,8.173e+00,7.340e+00,7.631e+00,8.648e+00,6.708e+00,7.919e+00,7.332e+00,8.519e+00,7.598e+00,8.777e+00,6.399e+00,6.400e+00,7.352e+00,6.337e+00,7.647e+00,8.219e+00,7.629e+00,5.883e+00,7.102e+00,8.328e+00,7.065e+00,7.235e+00,8.302e+00,9.243e+00,7.102e+00,8.023e+00,6.892e+00,7.615e+00,6.360e+00,7.294e+00,7.031e+00,7.574e+00,9.195e+00,6.847e+00,7.225e+00,6.720e+00,6.477e+00,7.501e+00,8.025e+00,6.356e+00,5.822e+00,6.112e+00,8.749e+00,6.311e+00,6.376e+00,9.287e+00,6.717e+00,6.146e+00,7.607e+00,7.563e+00,8.362e+00,8.743e+00,5.700e+00
3.931e-01,7.406e-01,2.262e-01,3.839e-01,5.848e-01,1.378e+00,1.713e+00,2.057e+00,1.568e+00,1.604e+00,2.723e+00,2.673e+00,2.347e+00,2.347e+00,2.262e+00,2.914e+00,3.076e+00,2.744e+00,4.855e+00,4.191e+00,3.875e+00,4.051e+00,3.905e+00,3.873e+00,3.893e+00,6.116e+00,4.471e+00,5.070e+00,5.225e+00,7.334e+00,7.004e+00,7.602e+00,6.853e+00,7.845e+00,6.172e+00,7.736e+00,7.843e+00,5.530e+00,6.643e+00,5.489e+00,7.846e+00,6.632e+00,5.973e+00,7.146e+00,5.480e+00,6.570e+00,6.826e+00,6.152e+00,8.122e+00,7.796e+00,5.840e+00,5.565e+00,6.989e+00,6.715e+00,7.376e+00,6.872e+00,8.431e+00,7.818e+00,6.885e+00,5.685e+00,6.961e+00,5.772e+00,6.827e+00,6.794e+00,6.536e+00,8.259e+00,7.386e+00,5.592e+00,6.114e+00,5.884e+00,6.105e+00,6.868e+00,6.332e+00,4.559e+00,4.934e+00,7.419e+00,6.267e+00,5.905e+00,8.212e+00,6.321e+00,6.364e+00,7.265e+00,7.285e+00,6.993e+00,8.024e+00,5.948e+00
3.707e-01,1.060e+00,6.312e-01,7.923e-01,7.837e-01,1.098e+00,1.911e+00,2.453e+00,1.585e+00,1.723e+00,3.237e+00,4.204e+00,2.940e+00,3.447e+00,2.879e+00,4.080e+00,3.365e+00,3.406e+00,5.932e+00,5.516e+00,5.040e+00,5.002e+00,4.672e+00,5.204e+00,5.307e+00,6.825e+00,6.647e+00,6.969e+00,5.928e+00,7.141e+00,7.309e+00,8.346e+00,8.076e+00,8.074e+00,8.285e+00,9.200e+00,9.244e+00,6.325e+00,9.193e+00,7.371e+00,9.693e+00,8.566e+00,8.697e+00,8.062e+00,7.280e+00,7.768e+00,7.559e+00,8.994e+00,8.510e+00,7.935e+00,6.334e+00,7.497e+00,8.606e+00,6.894e+00,7.450e+00,8.427e+00,8.230e+00,7.422e+00,7.638e+00,6.934e+00,8.278e+00,6.359e+00,7.088e+00,7.428e+00,7.175e+00,9.295e+00,8.507e+00,7.511e+00,6.724e+00,7.406e+00,7.167e+00,8.262e+00,7.758e+00,6.378e+00,6.303e+00,8.811e+00,7.778e+00,6.114e+00,9.167e+00,6.295e+00,6.509e+00,7.732e+00,7.606e+00,8.779e+00,8.443e+00,6.773e+00
1.334e-01,8.979e-01,9.086e-01,9.390e-01,1.358e+00,1.435e+00,1.855e+00,2.434e+00,1.690e+00,1.715e+00,2.402e+00,3.022e+00,2.797e+00,3.094e+00,2.324e+00,3.484e+00,3.747e+00,3.048e+00,5.275e+00,5.225e+00,4.626e+00,4.949e+00,5.266e+00,4.931e+00,4.517e+00,6.687e+00,5.804e+00,6.546e+00,6.349e+00,7.349e+00,7.066e+00,9.782e+00,8.029e+00,9.566e+00,7.392e+00,8.951e+00,1.000e+01,6.774e+00,8.797e+00,7.389e+00,9.323e+00,8.427e+00,7.828e+00,8.031e+00,6.978e+00,8.151e+00,7.354e+00,8.409e+00,9.479e+00,9.350e+00,5.458e+00,7.502e+00,9.270e+00,8.315e+00,9.321e+00,8.268e+00,8.443e+00,8.300e+00,8.580e+00,6.962e+00,8.324e+00,7.597e+00,8.729e+00,8.520e+00,8.642e+00,9.662e+00,9.373e+00,8.165e+00,7.155e+00,6.565e+00,7.788e+00,8.589e+00,7.543e+00,6.778e+00,7.213e+00,9.724e+00,9.236e+00,7.585e+00,9.518e+00,7.240e+00,7.560e+00,8.981e+00,8.215e+00,8.332e+00,8.816e+00,7.467e+00
4.093e-01,1.035e+00,3.280e-01,6.988e-01,9.109e-01,1.987e+00,2.178e+00,2.274e+00,2.526e+00,1.831e+00,2.456e+00,2.937e+00,2.761e+00,3.792e+00,3.153e+00,4.469e+00,4.263e+00,3.780e+00,6.276e+00,5.973e+00,4.677e+00,5.994e+00,4.741e+00,5.148e+00,5.567e+00,7.389e+00,5.859e+00,7.415e+00,6.761e+00,8.001e+00,8.988e+00,1.028e+01,8.300e+00,1.079e+01,9.126e+00,1.050e+01,1.126e+01,7.933e+00,9.809e+00,7.236e+00,9.172e+00,9.222e+00,1.020e+01,9.027e+00,7.789e+00,9.281e+00,8.757e+00,9.259e+00,1.050e+01,1.028e+01,7.211e+00,9.364e+00,1.087e+01,9.546e+00,1.143e+01,9.440e+00,1.065e+01,9.906e+00,9.683e+00,8.496e+00,9.340e+00,7.602e+00,9.775e+00,9.886e+00,8.981e+00,1.017e+01,9.352e+00,8.191e+00,8.367e+00,8.127e+00,8.683e+00,9.821e+00,8.053e+00,8.659e+00,7.350e+00,1.047e+01,9.646e+00,8.389e+00,1.040e+01,8.220e+00,7.516e+00,1.020e+01,9.284e+00,1.015e+01,1.002e+01,7.019e+00
1.352e-01,7.852e-01,1.004e+00,9.318e-01,1.328e+00,1.519e+00,2.169e+00,2.334e+00,1.979e+00,1.840e+00,3.220e+00,3.508e+00,3.010e+00,3.913e+00,2.524e+00,3.800e+00,4.685e+00,3.238e+00,6.348e+00,6.435e+00,5.768e+00,5.627e+00,4.800e+00,5.129e+00,5.385e+00,7.764e+00,6.541e+00,6.660e+00,6.629e+00,8.747e+00,7.644e+00,9.994e+00,8.572e+00,9.985e+00,8.338e+00,1.022e+01,1.181e+01,8.356e+00,1.055e+01,8.885e+00,1.132e+01,9.837e+00,9.623e+00,9.336e+00,9.631e+00,8.589e+00,8.330e+00,9.596e+00,1.160e+01,1.066e+01,8.391e+00,9.410e+00,1.082e+01,1.031e+01,1.053e+01,1.065e+01,1.146e+01,9.585e+00,1.014e+01,8.345e+00,1.036e+01,7.932e+00,1.020e+01,1.051e+01,9.733e+00,1.107e+01,9.757e+00,8.727e+00,8.141e+00,8.131e+00,8.377e+00,9.482e+00,8.757e+00,7.675e+00,7.089e+00,1.067e+01,9.291e+00,9.127e+00,1.125e+01,7.827e+00,8.351e+00,9.203e+00,8.947e+00,1.025e+01,1.057e+01,7.907e+00
7.828e-02,6.376e-01,2.899e-01,5.982e-01,6.813e-01,1.014e+00,1.323e+00,1.886e+00,1.456e+00,1.816e+00,2.208e+00,2.031e+00,1.615e+00,2.888e+00,2.636e+00,2.647e+00,2.801e+00,2.485e+00,4.232e+00,4.701e+00,4.333e+00,3.819e+00,3.665e+00,4.385e+00,4.151e+00,6.366e+00,5.219e+00,5.146e+00,4.786e+00,7.067e+00,5.838e+00,7.625e+00,7.277e+00,7.622e+00,7.856e+00,8.971e+00,9.863e+00,7.207e+00,8.111e+00,6.564e+00,8.916e+00,7.847e+00,6.693e+00,7.498e+00,7.156e+00,6.401e+00,6.036e+00,7.297e+00,9.222e+00,8.905e+00,6.787e+00,7.200e+00,8.510e+00,7.679e+00,8.686e+00,8.032e+00,8.303e+00,7.620e+00,7.734e+00,7.109e+00,8.211e+00,6.732e+00,8.827e+00,8.901e+00,7.173e+00,9.398e+00,8.169e+00,6.584e+00,6.589e+00,7.226e+00,6.909e+00,7.609e+00,7.124e+00,6.930e+00,6.920e+00,8.898e+00,8.916e+00,7.274e+00,8.690e+00,7.084e+00,7.343e+00,7.836e+00,7.931e+00,7.454e+00,8.411e+00,7.168e+00
2.632e-01,1.183e+00,9.887e-01,1.092e+00,1.491e+00,1.500e+00,1.798e+00,2.592e+00,2.084e+00,1.677e+00,1.914e+00,3.075e+00,2.650e+00,3.023e+00,2.459e+00,3.737e+00,3.909e+00,3.503e+00,6.300e+00,5.456e+00,4.939e+00,5.517e+00,5.351e+00,5.452e+00,4.436e+00,6.746e+00,6.380e+00,7.260e+00,7.186e+00,7.427e+00,7.803e+00,9.983e+00,9.057e+00,1.148e+01,8.868e+00,1.110e+01,1.209e+01,9.190e+00,1.070e+01,8.672e+00,1.214e+01,1.003e+01,1.045e+01,8.773e+00,8.147e+00,9.280e+00,9.219e+00,1.127e+01,1.102e+01,1.030e+01,8.391e+00,9.357e+00,1.112e+01,1.017e+01,1.155e+01,1.081e+01,1.204e+01,1.006e+01,1.085e+01,1.010e+01,1.142e+01,8.180e+00,9.988e+00,1.122e+01,8.683e+00,1.178e+01,1.075e+01,9.650e+00,8.711e+00,9.878e+00,9.159e+00,1.120e+01,9.919e+00,8.035e+00,9.014e+00,1.195e+01,1.046e+01,8.337e+00,1.286e+01,9.930e+00,8.473e+00,1.119e+01,9.961e+00,1.192e+01,1.113e+01,8.461e+00
1.063e-01,1.190e-01,8.483e-01,3.878e-01,1.070e+00,1.143e+00,1.844e+00,2.047e+00,1.124e+00,2.069e+00,3.331e+00,3.146e+00,2.474e+00,3.090e+00,2.619e+00,3.494e+00,3.791e+00,2.602e+00,5.458e+00,5.469e+00,5.305e+00,3.867e+00,4.627e+00,5.543e+00,4.397e+00,6.324e+00,5.697e+00,5.659e+00,6.261e+00,6.591e+00,6.947e+00,7.301e+00,7.574e+00,8.878e+00,7.770e+00,8.646e+00,1.065e+01,6.871e+00,9.171e+00,7.510e+00,9.522e+00,8.766e+00,8.006e+00,8.330e+00,8.354e+00,8.262e+00,8.285e+00,9.336e+00,9.471e+00,9.831e+00,7.210e+00,9.069e+00,9.337e+00,9.167e+00,9.247e+00,8.202e+00,9.109e+00,8.293e+00,9.125e+00,7.499e+00,9.444e+00,6.541e+00,8.769e+00,9.260e+00,7.923e+00,8.581e+00,8.922e+00,8.562e+00,7.906e+00,7.656e+00,8.441e+00,9.258e+00,7.782e+00,6.855e+00,7.381e+00,1.020e+01,8.649e+00,7.303e+00,1.037e+01,7.685e+00,6.495e+00,9.040e+00,8.919e+00,9.323e+00,8.438e+00,7.311e+00
1.671e-01,6.423e-01,6.133e-01,6.211e-01,7.614e-01,1.173e+00,2.027e+00,1.930e+00,1.832e+00,1.504e+00,2.529e+00,2.893e+00,2.469e+00,2.976e+00,2.043e+00,3.622e+00,3.891e+00,3.229e+00,5.806e+00,5.339e+00,5.131e+00,4.829e+00,4.556e+00,4.505e+00,4.691e+00,6.918e+00,5.434e+00,6.192e+00,6.009e+00,7.193e+00,7.324e+00,8.845e+00,7.304e+00,9.379e+00,8.475e+00,1.003e+01,1.087e+01,8.474e+00,9.995e+00,8.353e+00,1.140e+01,9.684e+00,9.656e+00,9.299e+00,9.045e+00,9.615e+00,9.426e+00,1.098e+01,1.025e+01,1.090e+01,7.801e+00,9.462e+00,1.155e+01,9.850e+00,1.133e+01,9.771e+00,1.062e+01,9.443e+00,1.028e+01,8.440e+00,1.051e+01,8.070e+00,1.008e+01,1.006e+01,9.092e+00,9.534e+00,9.752e+00,9.117e+00,8.165e+00,8.504e+00,8.801e+00,1.002e+01,1.004e+01,8.442e+00,7.909e+00,1.080e+01,9.902e+00,8.715e+00,1.176e+01,8.381e+00,8.516e+00,9.971e+00,1.011e+01,1.098e+01,9.665e+00,7.604e+00
1.029e-01,5.283e-01,4.602e-01,5.414e-01,1.010e+00,1.469e+00,2.142e+00,2.767e+00,2.030e+00,2.802e+00,3.343e+00,3.846e+00,3.098e+00,4.235e+00,3.864e+00,4.172e+00,4.108e+00,2.956e+00,6.563e+00,5.628e+00,6.035e+00,5.498e+00,5.202e+00,6.226e+00,4.996e+00,6.837e+00,7.606e+00,7.231e+00,7.167e+00,9.171e+00,8.686e+00,9.109e+00,9.179e+00,1.053e+01,1.043e+01,1.274e+01,1.289e+01,9.164e+00,1.041e+01,1.004e+01,1.273e+01,1.079e+01,1.155e+01,1.067e+01,1.047e+01,1.021e+01,1.095e+01,1.304e+01,1.158e+01,1.187e+01,9.356e+00,1.136e+01,1.239e+01,1.179e+01,1.162e+01,1.104e+01,1.280e+01,1.126e+01,1.129e+01,1.038e+01,1.264e+01,9.618e+00,1.066e+01,1.132e+01,1.008e+01,1.196e+01,1.023e+01,1.125e+01,1.042e+01,1.062e+01,9.657e+00,1.211e+01,1.087e+01,1.035e+01,8.764e+00,1.331e+01,1.187e+01,9.516e+00,1.234e+01,1.003e+01,9.133e+00,1.219e+01,1.180e+01,1.261e+01,1.129e+01,9.731e+00
9.267e-02,5.141e-01,5.410e-01,5.855e-01,7.393e-01,1.231e+00,2.163e+00,2.092e+00,1.983e+00,1.975e+00,3.483e+00,3.152e+00,2.864e+00,3.648e+00,2.850e+00,3.410e+00,3.682e+00,2.908e+00,5.557e+00,5.419e+00,5.558e+00,4.472e+00,4.026e+00,4.744e+00,4.815e+00,7.395e+00,5.529e+00,6.367e+00,5.461e+00,7.593e+00,7.925e+00,8.699e+00,7.730e+00,8.423e+00,8.649e+00,1.076e+01,1.215e+01,9.517e+00,1.024e+01,9.815e+00,1.242e+01,1.214e+01,1.105e+01,1.025e+01,1.110e+01,9.991e+00,9.643e+00,1.249e+01,1.269e+01,1.225e+01,9.711e+00,1.054e+01,1.282e+01,1.188e+01,1.257e+01,1.224e+01,1.262e+01,1.091e+01,1.092e+01,1.092e+01,1.357e+01,9.588e+00,1.204e+01,1.059e+01,1.056e+01,1.074e+01,1.121e+01,1.054e+01,9.950e+00,1.053e+01,9.837e+00,1.158e+01,1.076e+01,1.072e+01,1.006e+01,1.359e+01,1.134e+01,1.106e+01,1.396e+01,9.139e+00,1.052e+01,1.265e+01,1.178e+01,1.217e+01,1.146e+01,9.353e+00
4.261e-01,9.751e-01,4.940e-01,6.527e-01,8.898e-01,1.587e+00,2.362e+00,3.038e+00,1.895e+00,2.449e+00,3.450e+00,3.837e+00,3.012e+00,3.539e+00,3.526e+00,3.570e+00,3.905e+00,3.653e+00,5.864e+00,5.560e+00,5.890e+00,4.966e+00,4.606e+00,5.783e+00,5.017e+00,6.873e+00,6.289e+00,6.228e+00,6.356e+00,8.187e+00,7.046e+00,7.435e+00,8.751e+00,8.936e+00,9.588e+00,1.100e+01,1.173e+01,9.210e+00,9.239e+00,9.508e+00,1.257e+01,1.046e+01,1.085e+01,1.005e+01,1.002e+01,9.470e+00,1.035e+01,1.200e+01,1.181e+01,1.075e+01,9.383e+00,1.021e+01,1.089e+01,1.031e+01,1.099e+01,1.165e+01,1.184e+01,9.898e+00,1.086e+01,9.344e+00,1.119e+01,9.995e+00,1.107e+01,1.012e+01,9.125e+00,1.187e+01,9.920e+00,9.121e+00,9.923e+00,9.766e+00,1.006e+01,9.992e+00,1.021e+01,9.751e+00,7.959e+00,1.231e+01,9.758e+00,9.469e+00,1.149e+01,1.023e+01,9.197e+00,1.135e+01,1.113e+01,1.082e+01,1.186e+01,9.271e+00
2.670e-01,3.748e-01,7.592e-02,1.933e-01,2.781e-01,8.218e-01,1.415e+00,1.774e+00,1.202e+00,1.958e+00,3.341e+00,3.513e+00,2.188e+00,3.138e+00,2.846e+00,3.479e+00,3.095e+00,3.115e+00,5.400e+00,5.520e+00,4.850e+00,3.465e+00,3.839e+00,5.277e+00,5.264e+00,7.244e+00,5.633e+00,6.953e+00,6.250e+00,7.308e+00,7.630e+00,8.673e+00,8.790e+00,8.611e+00,9.334e+00,1.089e+01,1.135e+01,8.926e+00,1.026e+01,8.445e+00,1.184e+01,1.187e+01,1.173e+01,1.135e+01,1.139e+01,1.008e+01,1.069e+01,1.151e+01,1.148e+01,1.201e+01,1.047e+01,1.040e+01,1.112e+01,1.081e+01,1.247e+01,1.081e+01,1.284e+01,1.038e+01,1.149e+01,1.051e+01,1.258e+01,9.780e+00,1.152e+01,1.042e+01,9.139e+00,1.174e+01,1.181e+01,9.514e+00,9.849e+00,1.056e+01,1.064e+01,1.130e+01,1.085e+01,8.864e+00,9.389e+00,1.289e+01,1.118e+01,1.040e+01,1.378e+01,9.905e+00,9.870e+00,1.163e+01,1.234e+01,1.324e+01,1.183e+01,9.805e+00
1.957e-01,6.063e-01,3.291e-01,4.674e-01,8.233e-01,1.299e+00,1.361e+00,1.952e+00,1.643e+00,1.727e+00,1.975e+00,2.433e+00,2.250e+00,3.238e+00,2.821e+00,4.072e+00,4.244e+00,2.994e+00,5.779e+00,5.395e+00,5.204e+00,4.883e+00,4.440e+00,4.515e+00,4.078e+00,5.911e+00,5.431e+00,5.089e+00,5.204e+00,6.182e+00,6.103e+00,6.548e+00,6.971e+00,8.496e+00,7.794e+00,8.343e+00,9.710e+00,7.076e+00,6.518e+00,7.290e+00,8.715e+00,7.961e+00,9.044e+00,8.984e+00,8.285e+00,8.034e+00,8.081e+00,9.145e+00,9.484e+00,9.022e+00,7.897e+00,8.783e+00,1.076e+01,9.664e+00,1.060e+01,9.644e+00,1.020e+01,8.668e+00,9.688e+00,1.009e+01,1.034e+01,8.093e+00,9.040e+00,9.150e+00,9.483e+00,9.785e+00,9.395e+00,8.862e+00,8.584e+00,9.661e+00,9.734e+00,8.947e+00,8.523e+00,9.706e+00,7.452e+00,1.195e+01,9.715e+00,7.873e+00,9.571e+00,8.499e+00,8.908e+00,1.076e+01,1.022e+01,9.611e+00,1.043e+01,8.228e+00
3.294e-01,5.593e-01,5.346e-01,4.330e-01,7.136e-01,1.197e+00,2.106e+00,2.234e+00,1.402e+00,1.832e+00,3.505e+00,3.627e+00,3.004e+00,3.776e+00,2.802e+00,3.268e+00,3.588e+00,3.108e+00,4.929e+00,4.788e+00,4.802e+00,4.237e+00,3.940e+00,5.328e+00,4.891e+00,6.002e+00,5.985e+00,5.655e+00,5.276e+00,6.817e+00,6.520e+00,7.093e+00,6.881e+00,7.238e+00,6.953e+00,8.689e+00,1.027e+01,7.820e+00,8.896e+00,8.306e+00,1.107e+01,9.926e+00,1.018e+01,1.040e+01,9.868e+00,9.829e+00,1.060e+01,1.101e+01,1.135e+01,1.047e+01,8.932e+00,1.089e+01,1.160e+01,1.009e+01,1.022e+01,1.119e+01,1.051e+01,8.914e+00,1.027e+01,8.801e+00,1.080e+01,1.003e+01,1.031e+01,1.033e+01,9.982e+00,1.168e+01,1.046e+01,1.010e+01,9.534e+00,9.024e+00,1.069e+01,9.821e+00,1.092e+01,9.006e+00,8.033e+00,1.186e+01,1.041e+01,9.979e+00,1.236e+01,9.520e+00,9.384e+00,1.223e+01,1.125e+01,1.213e+01,1.304e+01,8.964e+00
2.022e-01,6.825e-01,5.882e-01,6.719e-01,8.960e-01,1.530e+00,2.415e+00,2.528e+00,2.080e+00,2.373e+00,3.895e+00,3.487e+00,2.959e+00,3.851e+00,3.592e+00,3.669e+00,4.124e+00,3.444e+00,5.938e+00,6.917e+00,5.680e+00,5.352e+00,4.966e+00,6.388e+00,4.956e+00,7.334e+00,6.148e+00,6.876e+00,6.158e+00,8.423e+00,7.897e+00,7.909e+00,8.163e+00,9.480e+00,8.936e+00,9.526e+00,1.141e+01,9.247e+00,9.691e+00,9.801e+00,1.160e+01,9.981e+00,1.072e+01,1.083e+01,1.108e+01,1.020e+01,1.137e+01,1.198e+01,1.281e+01,1.212e+01,1.037e+01,1.226e+01,1.252e+01,1.237e+01,1.271e+01,1.203e+01,1.255e+01,9.804e+00,1.120e+01,1.055e+01,1.348e+01,9.055e+00,1.121e+01,1.198e+01,1.044e+01,1.083e+01,1.065e+01,9.857e+00,1.042e+01,1.192e+01,1.145e+01,1.165e+01,1.083e+01,1.072e+01,9.078e+00,1.381e+01,1.127e+01,1.023e+01,1.252e+01,9.592e+00,9.404e+00,1.305e+01,1.259e+01,1.267e+01,1.191e+01,1.044e+01
1.292e-01,6.295e-01,7.236e-01,7.356e-01,1.039e+00,1.630e+00,2.094e+00,2.026e+00,2.199e+00,1.750e+00,2.895e+00,2.547e+00,2.810e+00,3.177e+00,2.795e+00,2.538e+00,3.202e+00,2.556e+00,4.179e+00,4.928e+00,4.398e+00,4.229e+00,3.910e+00,4.836e+00,4.329e+00,6.090e+00,5.829e+00,5.667e+00,5.514e+00,7.803e+00,6.254e+00,7.509e+00,7.452e+00,7.639e+00,6.601e+00,8.589e+00,1.031e+01,7.627e+00,9.519e+00,8.481e+00,1.052e+01,9.510e+00,9.014e+00,8.382e+00,9.181e+00,9.574e+00,8.018e+00,9.824e+00,1.241e+01,1.069e+01,9.566e+00,9.876e+00,1.092e+01,1.050e+01,1.006e+01,1.129e+01,1.103e+01,8.937e+00,9.660e+00,8.827e+00,1.157e+01,9.469e+00,1.046e+01,1.028e+01,9.433e+00,1.106e+01,1.059e+01,9.889e+00,9.325e+00,1.038e+01,8.561e+00,1.119e+01,1.012e+01,9.634e+00,8.371e+00,1.138e+01,1.121e+01,9.699e+00,1.201e+01,9.042e+00,9.690e+00,1.260e+01,9.952e+00,1.146e+01,1.140e+01,8.736e+00
3.947e-01,1.034e+00,1.034e+00,1.008e+00,1.460e+00,2.018e+00,2.452e+00,2.384e+00,2.515e+00,1.640e+00,2.394e+00,2.079e+00,2.474e+00,3.657e+00,2.784e+00,3.648e+00,4.153e+00,4.075e+00,5.528e+00,5.486e+00,4.554e+00,4.974e+00,4.118e+00,4.637e+00,4.952e+00,6.792e+00,5.725e+00,6.766e+00,6.370e+00,7.224e+00,6.848e+00,7.945e+00,7.435e+00,8.885e+00,7.611e+00,8.615e+00,1.025e+01,8.838e+00,9.655e+00,9.484e+00,1.011e+01,9.906e+00,1.006e+01,1.070e+01,9.679e+00,9.518e+00,9.417e+00,1.101e+01,1.276e+01,1.230e+01,9.685e+00,1.089e+01,1.153e+01,1.163e+01,1.158e+01,1.143e+01,1.129e+01,9.743e+00,1.054e+01,1.035e+01,1.345e+01,1.066e+01,1.174e+01,1.155e+01,1.077e+01,1.155e+01,1.180e+01,9.755e+00,9.987e+00,1.095e+01,1.064e+01,1.135e+01,1.038e+01,1.075e+01,9.463e+00,1.362e+01,1.342e+01,1.189e+01,1.287e+01,1.020e+01,1.068e+01,1.288e+01,1.227e+01,1.314e+01,1.303e+01,9.918e+00
3.012e-01,1.159e+00,5.608e-01,8.822e-01,9.789e-01,1.416e+00,2.001e+00,2.856e+00,1.818e+00,2.135e+00,3.123e+00,4.024e+00,3.026e+00,3.691e+00,3.143e+00,3.754e+00,3.756e+00,3.052e+00,6.136e+00,5.690e+00,6.082e+00,5.865e+00,5.036e+00,5.694e+00,5.659e+00,7.855e+00,7.436e+00,7.060e+00,6.411e+00,8.923e+00,8.581e+00,9.802e+00,9.381e+00,1.046e+01,9.930e+00,1.207e+01,1.300e+01,9.362e+00,1.140e+01,1.065e+01,1.440e+01,1.224e+01,1.247e+01,1.203e+01,1.155e+01,1.247e+01,1.208e+01,1.529e+01,1.533e+01,1.388e+01,1.136e+01,1.295e+01,1.491e+01,1.308e+01,1.482e+01,1.532e+01,1.481e+01,1.306e+01,1.251e+01,1.253e+01,1.509e+01,1.336e+01,1.343e+01,1.513e+01,1.292e+01,1.439e+01,1.380e+01,1.242e+01,1.228e+01,1.336e+01,1.263e+01,1.358e+01,1.443e+01,1.321e+01,1.139e+01,1.629e+01,1.373e+01,1.334e+01,1.470e+01,1.304e+01,1.300e+01,1.597e+01,1.550e+01,1.544e+01,1.507e+01,1.067e+01
4.870e-01,9.756e-01,3.087e-01,5.192e-01,4.780e-01,1.314e+00,1.815e+00,2.333e+00,1.921e+00,1.791e+00,2.974e+00,3.501e+00,2.542e+00,3.401e+00,3.211e+00,4.690e+00,3.833e+00,3.817e+00,6.220e+00,5.979e+00,5.048e+00,5.618e+00,5.345e+00,5.479e+00,6.289e+00,8.176e+00,7.546e+00,8.023e+00,7.023e+00,9.420e+00,9.239e+00,1.044e+01,9.380e+00,1.107e+01,1.067e+01,1.205e+01,1.292e+01,9.392e+00,1.225e+01,1.109e+01,1.410e+01,1.244e+01,1.239e+01,1.295e+01,1.115e+01,1.322e+01,1.374e+01,1.432e+01,1.611e+01,1.520e+01,1.347e+01,1.407e+01,1.576e+01,1.438e+01,1.489e+01,1.494e+01,1.542e+01,1.213e+01,1.363e+01,1.273e+01,1.541e+01,1.367e+01,1.467e+01,1.522e+01,1.359e+01,1.455e+01,1.468e+01,1.214e+01,1.372e+01,1.432e+01,1.338e+01,1.479e+01,1.489e+01,1.310e+01,1.091e+01,1.714e+01,1.520e+01,1.452e+01,1.609e+01,1.259e+01,1.457e+01,1.595e+01,1.479e+01,1.703e+01,1.720e+01,1.196e+01
1.878e-02,1.904e-01,4.163e-02,1.572e-01,2.501e-01,5.667e-01,7.462e-01,1.243e+00,1.077e+00,1.522e+00,2.128e+00,2.708e+00,1.716e+00,3.044e+00,2.157e+00,3.701e+00,3.517e+00,2.301e+00,5.113e+00,5.389e+00,4.759e+00,4.613e+00,4.508e+00,4.793e+00,4.924e+00,6.678e+00,6.047e+00,5.301e+00,5.553e+00,6.911e+00,6.399e+00,8.238e+00,7.831e+00,8.606e+00,8.126e+00,9.650e+00,1.188e+01,8.880e+00,1.021e+01,8.845e+00,1.087e+01,1.107e+01,1.034e+01,1.076e+01,1.039e+01,1.055e+01,1.142e+01,1.117e+01,1.383e+01,1.318e+01,1.187e+01,1.216e+01,1.373e+01,1.361e+01,1.333e+01,1.295e+01,1.299e+01,1.091e+01,1.274e+01,1.286e+01,1.488e+01,1.214e+01,1.285e+01,1.345e+01,1.192e+01,1.262e+01,1.176e+01,1.174e+01,1.182e+01,1.178e+01,1.257e+01,1.337e+01,1.353e+01,1.110e+01,1.147e+01,1.611e+01,1.361e+01,1.280e+01,1.359e+01,1.072e+01,1.189e+01,1.460e+01,1.288e+01,1.429e+01,1.400e+01,1.099e+01
1.442e-01,9.042e-01,8.283e-01,9.450e-01,1.312e+00,1.809e+00,2.754e+00,2.917e+00,2.236e+00,2.357e+00,3.566e+00,3.518e+00,3.360e+00,3.426e+00,2.905e+00,2.993e+00,3.505e+00,3.087e+00,5.679e+00,5.188e+00,4.995e+00,4.601e+00,4.070e+00,5.305e+00,3.832e+00,6.646e+00,5.669e+00,7.297e+00,6.382e+00,7.154e+00,7.767e+00,8.773e+00,8.133e+00,9.999e+00,8.406e+00,1.107e+01,1.103e+01,8.838e+00,9.718e+00,9.030e+00,1.112e+01,1.020e+01,1.067e+01,1.094e+01,1.041e+01,1.087e+01,1.148e+01,1.345e+01,1.374e+01,1.269e+01,1.140e+01,1.265e+01,1.455e+01,1.391e+01,1.474e+01,1.391e+01,1.376e+01,1.189e+01,1.432e+01,1.236e+01,1.492e+01,1.282e+01,1.451e+01,1.366e+01,1.376e+01,1.434e+01,1.314e+01,1.239e+01,1.383e+01,1.199e+01,1.344e+01,1.507e+01,1.296e+01,1.271e+01,1.090e+01,1.498e+01,1.483e+01,1.318e+01,1.504e+01,1.133e+01,1.189e+01,1.650e+01,1.390e+01,1.502e+01,1.513e+01,1.170e+01
2.048e-01,6.198e-01,6.380e-01,5.917e-01,9.352e-01,9.594e-01,1.728e+00,2.276e+00,1.500e+00,1.918e+00,2.386e+00,2.713e+00,2.172e+00,3.708e+00,2.928e+00,4.311e+00,4.347e+00,3.733e+00,6.134e+00,5.352e+00,5.479e+00,4.661e+00,4.680e+00,5.052e+00,5.123e+00,7.373e+00,6.835e+00,7.561e+00,6.592e+00,7.809e+00,8.078e+00,9.285e+00,8.016e+00,1.010e+01,9.246e+00,9.813e+00,1.055e+01,9.023e+00,9.323e+00,1.098e+01,1.291e+01,1.126e+01,1.151e+01,1.151e+01,9.549e+00,1.194e+01,1.207e+01,1.340e+01,1.374e+01,1.395e+01,1.095e+01,1.273e+01,1.424e+01,1.411e+01,1.509e+01,1.329e+01,1.368e+01,1.068e+01,1.313e+01,1.305e+01,1.533e+01,1.386e+01,1.435e+01,1.446e+01,1.335e+01,1.364e+01,1.373e+01,1.178e+01,1.398e+01,1.294e+01,1.334e+01,1.403e+01,1.403e+01,1.331e+01,1.041e+01,1.632e+01,1.573e+01,1.398e+01,1.496e+01,1.304e+01,1.277e+01,1.616e+01,1.469e+01,1.524e+01,1.522e+01,1.202e+01
3.514e-01,1.144e+00,7.067e-01,8.929e-01,1.066e+00,1.393e+00,1.736e+00,2.508e+00,1.646e+00,1.666e+00,2.603e+00,2.935e+00,2.288e+00,3.149e+00,2.459e+00,4.203e+00,4.618e+00,3.615e+00,5.606e+00,5.286e+00,4.658e+00,4.897e+00,4.405e+00,4.095e+00,5.185e+00,7.498e+00,6.207e+00,6.934e+00,6.650e+00,8.651e+00,7.391e+00,1.042e+01,8.492e+00,9.731e+00,8.740e+00,1.104e+01,1.164e+01,9.326e+00,1.078e+01,9.832e+00,1.294e+01,1.124e+01,1.152e+01,1.318e+01,1.085e+01,1.155e+01,1.288e+01,1.289e+01,1.515e+01,1.543e+01,1.137e+01,1.276e+01,1.476e+01,1.472e+01,1.584e+01,1.602e+01,1.547e+01,1.343e+01,1.296e+01,1.336e+01,1.586e+01,1.489e+01,1.529e+01,1.587e+01,1.397e+01,1.453e+01,1.354e+01,1.253e+01,1.302e+01,1.397e+01,1.359e+01,1.485e+01,1.459e+01,1.298e+01,1.161e+01,1.594e+01,1.682e+01,1.557e+01,1.575e+01,1.300e+01,1.475e+01,1.611e+01,1.632e+01,1.661e+01,1.681e+01,1.257e+01
4.254e-01,7.520e-01,5.906e-01,5.985e-01,1.068e+00,2.079e+00,2.951e+00,2.890e+00,2.181e+00,2.518e+00,3.529e+00,3.211e+00,3.032e+00,3.861e+00,3.698e+00,3.788e+00,4.052e+00,3.942e+00,5.594e+00,5.409e+00,5.241e+00,4.508e+00,4.136e+00,5.346e+00,4.741e+00,6.387e+00,5.272e+00,6.537e+00,6.181e+00,7.654e+00,7.483e+00,7.492e+00,7.409e+00,9.242e+00,8.683e+00,1.043e+01,1.090e+01,8.901e+00,9.050e+00,9.195e+00,1.162e+01,1.004e+01,9.634e+00,1.135e+01,1.076e+01,1.122e+01,1.191e+01,1.341e+01,1.303e+01,1.382e+01,1.083e+01,1.160e+01,1.466e+01,1.402e+01,1.588e+01,1.398e+01,1.525e+01,1.268e+01,1.363e+01,1.240e+01,1.462e+01,1.409e+01,1.477e+01,1.466e+01,1.398e+01,1.495e+01,1.420e+01,1.309e+01,1.431e+01,1.360e+01,1.255e+01,1.406e+01,1.410e+01,1.292e+01,9.598e+00,1.593e+01,1.632e+01,1.367e+01,1.553e+01,1.265e+01,1.285e+01,1.485e+01,1.563e+01,1.591e+01,1.596e+01,1.235e+01
4.916e-02,1.287e-01,1.034e-01,2.096e-01,5.304e-01,1.351e+00,2.039e+00,1.764e+00,1.800e+00,2.232e+00,3.384e+00,3.325e+00,2.984e+00,4.018e+00,3.442e+00,3.989e+00,4.198e+00,3.246e+00,6.437e+00,6.942e+00,6.621e+00,4.909e+00,5.702e+00,5.900e+00,5.876e+00,8.663e+00,6.493e+00,6.491e+00,6.367e+00,8.311e+00,8.647e+00,9.396e+00,8.510e+00,1.002e+01,9.605e+00,1.170e+01,1.262e+01,8.789e+00,9.792e+00,8.976e+00,1.214e+01,1.211e+01,1.160e+01,1.162e+01,1.152e+01,1.151e+01,1.227e+01,1.306e+01,1.382e+01,1.374e+01,1.131e+01,1.238e+01,1.501e+01,1.434e+01,1.697e+01,1.455e+01,1.587e+01,1.479e+01,1.518e+01,1.405e+01,1.616e+01,1.380e+01,1.649e+01,1.434e+01,1.397e+01,1.466e+01,1.497e+01,1.386e+01,1.493e+01,1.308e+01,1.397e+01,1.522e+01,1.447e+01,1.371e+01,1.079e+01,1.722e+01,1.652e+01,1.362e+01,1.583e+01,1.271e+01,1.371e+01,1.551e+01,1.669e+01,1.582e+01,1.683e+01,1.437e+01
8.124e-02,8.637e-01,8.056e-01,9.358e-01,1.261e+00,1.624e+00,2.477e+00,2.847e+00,2.326e+00,2.426e+00,3.440e+00,3.755e+00,3.281e+00,3.683e+00,3.037e+00,4.139e+00,4.852e+00,3.815e+00,6.469e+00,6.554e+00,5.831e+00,5.184e+00,5.058e+00,5.680e+00,4.603e+00,7.230e+00,6.055e+00,7.306e+00,7.011e+00,8.243e+00,7.191e+00,8.897e+00,9.186e+00,1.039e+01,8.706e+00,1.082e+01,1.154e+01,9.008e+00,1.021e+01,8.570e+00,1.145e+01,9.873e+00,9.792e+00,1.028e+01,9.617e+00,9.618e+00,1.086e+01,1.171e+01,1.322e+01,1.154e+01,1.018e+01,1.126e+01,1.244e+01,1.203e+01,1.426e+01,1.401e+01,1.490e+01,1.200e+01,1.322e+01,1.132e+01,1.436e+01,1.192e+01,1.327e+01,1.266e+01,1.251e+01,1.326e+01,1.261e+01,1.121e+01,1.218e+01,1.189e+01,1.057e+01,1.226e+01,1.345e+01,1.115e+01,9.939e+00,1.474e+01,1.305e+01,1.132e+01,1.492e+01,1.185e+01,1.203e+01,1.441e+01,1.409e+01,1.453e+01,1.411e+01,1.080e+01
3.325e-01,4.766e-01,4.166e-01,3.552e-01,9.133e-01,1.610e+00,2.167e+00,2.285e+00,1.433e+00,2.059e+00,2.801e+00,2.940e+00,2.703e+00,3.571e+00,3.234e+00,3.909e+00,4.511e+00,3.424e+00,5.088e+00,5.788e+00,5.346e+00,4.333e+00,4.300e+00,4.863e+00,5.201e+00,6.910e+00,6.176e+00,7.500e+00,6.246e+00,8.210e+00,7.800e+00,8.231e+00,7.634e+00,7.999e+00,8.625e+00,9.987e+00,1.011e+01,7.474e+00,8.171e+00,8.381e+00,1.150e+01,1.014e+01,1.095e+01,9.506e+00,1.058e+01,1.069e+01,1.003e+01,1.307e+01,1.407e+01,1.315e+01,1.131e+01,1.136e+01,1.449e+01,1.324e+01,1.530e+01,1.565e+01,1.592e+01,1.229e+01,1.315e+01,1.475e+01,1.618e+01,1.340e+01,1.468e+01,1.500e+01,1.470e+01,1.489e+01,1.423e+01,1.248e+01,1.514e+01,1.420e+01,1.301e+01,1.384e+01,1.523e+01,1.386e+01,1.121e+01,1.718e+01,1.515e+01,1.491e+01,1.575e+01,1.314e+01,1.321e+01,1.584e+01,1.529e+01,1.537e+01,1.514e+01,1.245e+01
3.447e-01,1.120e+00,2.365e-01,7.543e-01,7.282e-01,1.560e+00,1.912e+00,2.695e+00,2.445e+00,2.388e+00,3.111e+00,3.332e+00,2.587e+00,4.343e+00,3.896e+00,4.831e+00,4.229e+00,4.313e+00,7.132e+00,6.424e+00,5.405e+00,6.101e+00,5.211e+00,5.857e+00,5.363e+00,7.204e+00,6.381e+00,7.419e+00,7.294e+00,8.879e+00,8.643e+00,1.061e+01,9.753e+00,1.068e+01,1.070e+01,1.159e+01,1.330e+01,9.892e+00,1.051e+01,1.020e+01,1.226e+01,1.139e+01,1.010e+01,1.241e+01,1.096e+01,1.130e+01,1.157e+01,1.255e+01,1.481e+01,1.483e+01,1.237e+01,1.231e+01,1.416e+01,1.426e+01,1.577e+01,1.521e+01,1.682e+01,1.497e+01,1.526e+01,1.605e+01,1.702e+01,1.520e+01,1.679e+01,1.737e+01,1.611e+01,1.806e+01,1.546e+01,1.414e+01,1.624e+01,1.530e+01,1.432e+01,1.571e+01,1.571e+01,1.376e+01,1.213e+01,1.836e+01,1.752e+01,1.418e+01,1.730e+01,1.524e+01,1.396e+01,1.605e+01,1.750e+01,1.798e+01,1.708e+01,1.432e+01
4.128e-01,9.899e-01,1.020e+00,8.435e-01,1.269e+00,1.739e+00,2.707e+00,3.089e+00,2.028e+00,2.176e+00,4.063e+00,3.756e+00,3.273e+00,3.262e+00,2.572e+00,3.942e+00,4.443e+00,3.869e+00,6.614e+00,5.572e+00,5.236e+00,4.831e+00,4.397e+00,4.808e+00,4.696e+00,7.462e+00,5.789e+00,6.943e+00,6.697e+00,7.695e+00,7.760e+00,8.953e+00,8.151e+00,1.063e+01,9.262e+00,1.230e+01,1.200e+01,9.709e+00,1.019e+01,1.044e+01,1.331e+01,1.165e+01,1.078e+01,1.204e+01,1.160e+01,1.072e+01,1.210e+01,1.450e+01,1.419e+01,1.401e+01,1.238e+01,1.247e+01,1.573e+01,1.420e+01,1.683e+01,1.578e+01,1.671e+01,1.505e+01,1.631e+01,1.553e+01,1.849e+01,1.523e+01,1.929e+01,1.655e+01,1.543e+01,1.603e+01,1.811e+01,1.481e+01,1.622e+01,1.525e+01,1.467e+01,1.641e+01,1.574e+01,1.549e+01,1.321e+01,1.910e+01,1.836e+01,1.544e+01,1.835e+01,1.484e+01,1.608e+01,1.716e+01,1.778e+01,1.840e+01,1.802e+01,1.492e+01
2.590e-02,3.375e-02,2.959e-01,1.737e-01,5.235e-01,7.813e-01,1.336e+00,1.265e+00,1.180e+00,1.470e+00,2.137e+00,2.385e+00,2.036e+00,2.845e+00,1.940e+00,2.398e+00,3.241e+00,2.389e+00,5.012e+00,5.304e+00,5.535e+00,3.518e+00,3.367e+00,4.201e+00,4.196e+00,6.731e+00,4.898e+00,5.516e+00,4.909e+00,6.422e+00,5.787e+00,7.907e+00,7.411e+00,7.817e+00,7.979e+00,9.363e+00,1.042e+01,8.543e+00,8.653e+00,8.195e+00,1.024e+01,1.014e+01,9.651e+00,8.428e+00,9.170e+00,8.737e+00,8.891e+00,1.118e+01,1.164e+01,1.111e+01,1.017e+01,9.240e+00,1.148e+01,1.057e+01,1.266e+01,1.253e+01,1.393e+01,1.061e+01,1.264e+01,1.270e+01,1.448e+01,1.160e+01,1.500e+01,1.255e+01,1.207e+01,1.474e+01,1.273e+01,1.117e+01,1.232e+01,1.137e+01,1.211e+01,1.284e+01,1.295e+01,1.131e+01,1.004e+01,1.456e+01,1.370e+01,1.272e+01,1.492e+01,1.140e+01,1.338e+01,1.315e+01,1.412e+01,1.495e+01,1.496e+01,1.163e+01
4.877e-01,7.546e-01,9.433e-01,5.832e-01,1.382e+00,1.808e+00,2.450e+00,3.106e+00,1.906e+00,2.337e+00,3.084e+00,3.080e+00,2.890e+00,3.084e+00,2.938e+00,3.139e+00,3.944e+00,3.462e+00,5.812e+00,5.125e+00,5.224e+00,5.059e+00,4.995e+00,5.537e+00,4.797e+00,7.256e+00,6.325e+00,6.831e+00,6.549e+00,8.601e+00,7.797e+00,8.182e+00,7.664e+00,1.043e+01,8.652e+00,1.090e+01,1.088e+01,8.672e+00,9.521e+00,1.015e+01,1.303e+01,1.079e+01,1.006e+01,1.105e+01,1.053e+01,1.112e+01,1.219e+01,1.321e+01,1.462e+01,1.375e+01,1.236e+01,1.286e+01,1.488e+01,1.473e+01,1.528e+01,1.432e+01,1.613e+01,1.382e+01,1.494e+01,1.543e+01,1.966e+01,1.547e+01,1.837e+01,1.758e+01,1.736e+01,1.714e+01,1.641e+01,1.440e+01,1.683e+01,1.633e+01,1.595e+01,1.769e+01,1.813e+01,1.535e+01,1.341e+01,2.039e+01,1.938e+01,1.643e+01,1.865e+01,1.553e+01,1.577e+01,1.985e+01,1.914e+01,1.973e+01,1.894e+01,1.509e+01
3.357e-01,5.339e-01,6.501e-01,4.664e-01,8.277e-01,1.426e+00,1.852e+00,1.941e+00,1.692e+00,1.658e+00,3.019e+00,2.842e+00,2.356e+00,3.382e+00,2.621e+00,4.291e+00,4.707e+00,3.264e+00,5.753e+00,5.625e+00,5.264e+00,4.675e+00,4.018e+00,4.863e+00,5.400e+00,7.253e+00,7.052e+00,6.242e+00,6.497e+00,8.203e+00,7.592e+00,8.292e+00,8.259e+00,9.944e+00,9.462e+00,1.140e+01,1.188e+01,9.318e+00,1.004e+01,1.043e+01,1.157e+01,1.092e+01,1.140e+01,1.110e+01,1.049e+01,1.085e+01,1.091e+01,1.268e+01,1.301e+01,1.337e+01,1.116e+01,1.216e+01,1.405e+01,1.354e+01,1.445e+01,1.361e+01,1.523e+01,1.298e+01,1.513e+01,1.490e+01,1.635e+01,1.447e+01,1.764e+01,1.567e+01,1.470e+01,1.608e+01,1.452e+01,1.348e+01,1.480e+01,1.449e+01,1.496e+01,1.548e+01,1.526e+01,1.481e+01,1.331e+01,1.773e+01,1.687e+01,1.494e+01,1.671e+01,1.383e+01,1.451e+01,1.664e+01,1.606e+01,1.671e+01,1.579e+01,1.412e+01
4.086e-02,6.506e-01,9.541e-01,8.475e-01,1.279e+00,1.273e+00,1.904e+00,2.288e+00,1.586e+00,1.770e+00,2.310e+00,2.503e+00,2.407e+00,3.056e+00,2.296e+00,3.156e+00,3.887e+00,2.959e+00,4.679e+00,5.406e+00,5.119e+00,4.438e+00,4.649e+00,5.148e+00,4.611e+00,6.442e+00,6.619e+00,6.187e+00,6.036e+00,7.710e+00,6.045e+00,8.430e+00,8.359e+00,8.648e+00,7.858e+00,9.926e+00,1.008e+01,7.562e+00,9.808e+00,8.854e+00,1.122e+01,9.336e+00,1.012e+01,1.001e+01,9.786e+00,9.951e+00,1.021e+01,1.156e+01,1.299e+01,1.284e+01,9.887e+00,1.125e+01,1.347e+01,1.166e+01,1.295e+01,1.346e+01,1.295e+01,1.217e+01,1.322e+01,1.231e+01,1.514e+01,1.343e+01,1.582e+01,1.509e+01,1.376e+01,1.483e+01,1.475e+01,1.250e+01,1.346e+01,1.412e+01,1.272e+01,1.363e+01,1.514e+01,1.296e+01,1.231e+01,1.582e+01,1.635e+01,1.453e+01,1.615e+01,1.359e+01,1.566e+01,1.544e+01,1.588e+01,1.588e+01,1.604e+01,1.443e+01
3.599e-01,1.077e+00,7.332e-01,8.787e-01,1.328e+00,1.837e+00,2.568e+00,3.337e+00,2.338e+00,2.750e+00,3.779e+00,3.904e+00,3.324e+00,4.354e+00,3.913e+00,4.777e+00,5.020e+00,4.023e+00,7.186e+00,6.086e+00,6.118e+00,5.680e+00,4.944e+00,5.475e+00,5.372e+00,7.938e+00,6.482e+00,7.547e+00,6.666e+00,8.817e+00,8.972e+00,9.606e+00,8.571e+00,1.037e+01,9.578e+00,1.172e+01,1.203e+01,9.325e+00,1.012e+01,9.123e+00,1.305e+01,1.123e+01,1.109e+01,1.227e+01,1.085e+01,1.148e+01,1.261e+01,1.322e+01,1.447e+01,1.357e+01,1.139e+01,1.264e+01,1.528e+01,1.328e+01,1.639e+01,1.612e+01,1.559e+01,1.510e+01,1.400e+01,1.553e+01,1.762e+01,1.470e+01,1.747e+01,1.652e+01,1.632e+01,1.574e+01,1.720e+01,1.500e+01,1.594e+01,1.690e+01,1.570e+01,1.673e+01,1.621e+01,1.623e+01,1.309e+01,1.768e+01,1.921e+01,1.524e+01,1.749e+01,1.580e+01,1.638e+01,1.805e+01,1.916e+01,1.907e+01,1.806e+01,1.459e+01
1.547e-01,4.279e-01,4.221e-01,4.218e-01,7.315e-01,1.026e+00,1.187e+00,1.699e+00,1.324e+00,1.680e+00,2.352e+00,2.731e+00,2.019e+00,3.235e+00,2.644e+00,3.144e+00,3.203e+00,1.989e+00,4.935e+00,4.473e+00,4.911e+00,4.023e+00,3.223e+00,4.311e+00,4.050e+00,5.511e+00,5.228e+00,4.566e+00,4.416e+00,5.838e+00,6.261e+00,6.698e+00,6.895e+00,7.352e+00,7.833e+00,9.115e+00,1.001e+01,7.016e+00,8.020e+00,7.475e+00,9.753e+00,9.946e+00,1.001e+01,8.631e+00,9.788e+00,9.450e+00,9.261e+00,1.177e+01,1.118e+01,1.201e+01,9.841e+00,1.020e+01,1.333e+01,1.206e+01,1.401e+01,1.408e+01,1.506e+01,1.426e+01,1.372e+01,1.555e+01,1.628e+01,1.414e+01,1.695e+01,1.564e+01,1.582e+01,1.658e+01,1.465e+01,1.468e+01,1.501e+01,1.548e+01,1.534e+01,1.540e+01,1.701e+01,1.543e+01,1.407e+01,1.895e+01,1.692e+01,1.546e+01,1.690e+01,1.500e+01,1.457e+01,1.580e+01,1.837e+01,1.795e+01,1.773e+01,1.405e+01
1.729e-01,4.790e-01,9.265e-01,6.184e-01,1.432e+00,1.308e+00,1.756e+00,2.358e+00,1.313e+00,1.979e+00,2.804e+00,3.384e+00,2.910e+00,3.084e+00,2.553e+00,3.395e+00,4.382e+00,3.009e+00,6.355e+00,5.884e+00,6.035e+00,4.518e+00,5.659e+00,5.515e+00,4.507e+00,6.971e+00,6.467e+00,6.524e+00,7.077e+00,8.282e+00,7.621e+00,1.008e+01,9.560e+00,1.115e+01,9.203e+00,1.189e+01,1.228e+01,8.998e+00,9.955e+00,8.799e+00,1.333e+01,1.172e+01,1.090e+01,1.144e+01,1.061e+01,1.237e+01,1.131e+01,1.396e+01,1.360e+01,1.351e+01,1.081e+01,1.222e+01,1.525e+01,1.444e+01,1.764e+01,1.629e+01,1.686e+01,1.538e+01,1.635e+01,1.722e+01,1.923e+01,1.636e+01,1.907e+01,1.890e+01,1.933e+01,2.173e+01,1.951e+01,1.816e+01,1.812e+01,1.881e+01,2.014e+01,1.950e+01,2.102e+01,1.846e+01,1.584e+01,2.102e+01,2.111e+01,1.863e+01,2.166e+01,1.944e+01,1.715e+01,2.172e+01,2.249e+01,2.165e+01,2.101e+01,1.777e+01
2.825e-01,1.009e+00,6.045e-01,8.768e-01,1.013e+00,1.420e+00,2.246e+00,2.902e+00,2.217e+00,2.630e+00,4.106e+00,4.143e+00,2.952e+00,4.739e+00,3.805e+00,3.991e+00,3.531e+00,3.227e+00,6.434e+00,4.737e+00,4.989e+00,4.959e+00,3.735e+00,4.805e+00,5.329e+00,7.598e+00,5.622e+00,6.647e+00,5.646e+00,6.759e+00,8.236e+00,8.367e+00,7.296e+00,8.452e+00,7.306e+00,9.025e+00,1.044e+01,8.941e+00,9.783e+00,8.172e+00,1.050e+01,1.070e+01,9.915e+00,1.043e+01,9.858e+00,9.239e+00,1.017e+01,9.423e+00,1.144e+01,1.136e+01,9.331e+00,1.074e+01,1.268e+01,1.116e+01,1.333e+01,1.344e+01,1.323e+01,1.311e+01,1.251e+01,1.183e+01,1.430e+01,1.144e+01,1.447e+01,1.297e+01,1.313e+01,1.521e+01,1.368e+01,1.237e+01,1.349e+01,1.232e+01,1.425e+01,1.414e+01,1.364e+01,1.237e+01,1.046e+01,1.530e+01,1.521e+01,1.284e+01,1.661e+01,1.309e+01,1.278e+01,1.624e+01,1.680e+01,1.605e+01,1.645e+01,1.125e+01
8.145e-02,9.540e-01,6.402e-01,9.334e-01,1.027e+00,1.027e+00,1.391e+00,2.448e+00,1.887e+00,2.116e+00,2.253e+00,2.508e+00,1.670e+00,3.163e+00,2.772e+00,3.222e+00,2.592e+00,2.427e+00,5.259e+00,4.205e+00,4.340e+00,4.473e+00,3.052e+00,4.416e+00,3.853e+00,5.994e+00,5.722e+00,6.704e+00,5.649e+00,6.750e+00,7.049e+00,8.392e+00,8.380e+00,8.590e+00,8.834e+00,9.710e+00,1.044e+01,8.104e+00,1.021e+01,9.238e+00,1.093e+01,1.049e+01,1.073e+01,1.029e+01,9.801e+00,9.813e+00,9.262e+00,1.229e+01,1.199e+01,1.310e+01,1.043e+01,1.049e+01,1.337e+01,1.337e+01,1.450e+01,1.327e+01,1.365e+01,1.187e+01,1.317e+01,1.423e+01,1.675e+01,1.359e+01,1.657e+01,1.599e+01,1.605e+01,1.661e+01,1.638e+01,1.435e+01,1.601e+01,1.725e+01,1.577e+01,1.797e+01,1.719e+01,1.743e+01,1.520e+01,1.900e+01,1.954e+01,1.760e+01,1.893e+01,1.644e+01,1.544e+01,1.832e+01,1.897e+01,2.005e+01,1.831e+01,1.454e+01
3.437e-01,5.916e-01,8.950e-01,6.114e-01,1.279e+00,1.637e+00,2.400e+00,2.970e+00,1.641e+00,2.721e+00,3.765e+00,3.508e+00,2.431e+00,4.003e+00,3.326e+00,3.756e+00,3.749e+00,3.091e+00,5.713e+00,5.436e+00,4.764e+00,5.090e+00,3.993e+00,5.673e+00,5.380e+00,6.755e+00,6.292e+00,6.095e+00,6.160e+00,7.627e+00,6.870e+00,7.060e+00,7.158e+00,8.472e+00,7.734e+00,9.212e+00,9.341e+00,7.693e+00,9.675e+00,8.456e+00,1.136e+01,9.430e+00,1.050e+01,1.049e+01,1.074e+01,1.082e+01,1.136e+01,1.171e+01,1.111e+01,1.275e+01,1.093e+01,1.155e+01,1.404e+01,1.211e+01,1.402e+01,1.345e+01,1.458e+01,1.317e+01,1.357e+01,1.306e+01,1.753e+01,1.341e+01,1.671e+01,1.633e+01,1.520e+01,1.689e+01,1.625e+01,1.565e+01,1.607e+01,1.872e+01,1.728e+01,1.692e+01,1.741e+01,1.567e+01,1.434e+01,1.966e+01,2.090e+01,1.756e+01,1.992e+01,1.694e+01,1.625e+01,1.768e+01,1.972e+01,2.008e+01,2.042e+01,1.657e+01
3.582e-01,6.428e-01,2.236e-01,3.280e-01,6.100e-01,1.445e+00,1.849e+00,1.999e+00,1.654e+00,1.570e+00,2.824e+00,2.920e+00,2.865e+00,3.292e+00,2.567e+00,3.404e+00,3.681e+00,3.014e+00,5.618e+00,5.307e+00,4.413e+00,4.935e+00,4.130e+00,4.575e+00,4.767e+00,7.023e+00,5.492e+00,6.648e+00,5.734e+00,8.836e+00,8.360e+00,1.011e+01,7.799e+00,9.417e+00,9.015e+00,1.053e+01,1.195e+01,9.108e+00,9.531e+00,8.759e+00,1.252e+01,1.027e+01,1.180e+01,1.144e+01,9.814e+00,1.142e+01,1.159e+01,1.321e+01,1.355e+01,1.359e+01,1.127e+01,1.162e+01,1.432e+01,1.341e+01,1.505e+01,1.451e+01,1.617e+01,1.298e+01,1.433e+01,1.389e+01,1.668e+01,1.415e+01,1.737e+01,1.637e+01,1.696e+01,1.801e+01,1.689e+01,1.517e+01,1.621e+01,1.555e+01,1.735e+01,1.698e+01,1.878e+01,1.708e+01,1.530e+01,2.004e+01,1.802e+01,1.784e+01,1.910e+01,1.674e+01,1.516e+01,1.833e+01,1.996e+01,2.033e+01,2.081e+01,1.461e+01
4.091e-01,1.153e+00,4.968e-01,8.465e-01,7.698e-01,1.736e+00,2.265e+00,2.217e+00,2.430e+00,1.540e+00,2.530e+00,2.287e+00,2.249e+00,2.863e+00,2.661e+00,2.857e+00,3.086e+00,3.050e+00,4.110e+00,3.557e+00,3.398e+00,4.233e+00,3.065e+00,3.387e+00,3.742e+00,5.098e+00,4.685e+00,5.139e+00,5.138e+00,6.879e+00,5.928e+00,6.691e+00,6.493e+00,7.724e+00,7.056e+00,9.389e+00,1.060e+01,8.463e+00,8.716e+00,8.283e+00,9.868e+00,9.292e+00,8.904e+00,8.588e+00,8.302e+00,8.001e+00,8.422e+00,1.124e+01,1.164e+01,1.132e+01,9.527e+00,1.020e+01,1.168e+01,1.195e+01,1.296e+01,1.305e+01,1.360e+01,1.169e+01,1.279e+01,1.287e+01,1.464e+01,1.288e+01,1.674e+01,1.375e+01,1.411e+01,1.563e+01,1.502e+01,1.236e+01,1.388e+01,1.400e+01,1.555e+01,1.599e+01,1.629e+01,1.596e+01,1.432e+01,1.839e+01,1.856e+01,1.615e+01,1.820e+01,1.588e+01,1.465e+01,1.752e+01,1.741e+01,1.883e+01,1.923e+01,1.493e+01
4.695e-01,8.437e-01,1.695e-01,4.356e-01,3.729e-01,1.348e+00,2.000e+00,1.857e+00,1.464e+00,1.393e+00,2.839e+00,3.434e+00,2.494e+00,2.858e+00,2.460e+00,3.235e+00,2.769e+00,2.860e+00,4.225e+00,4.048e+00,3.470e+00,4.105e+00,3.852e+00,3.543e+00,4.995e+00,5.392e+00,4.810e+00,5.218e+00,5.221e+00,6.142e+00,6.216e+00,6.953e+00,6.185e+00,6.828e+00,7.132e+00,1.003e+01,1.052e+01,7.669e+00,9.173e+00,7.096e+00,1.009e+01,1.049e+01,1.016e+01,1.000e+01,1.016e+01,9.852e+00,1.013e+01,1.230e+01,1.156e+01,1.176e+01,9.842e+00,1.142e+01,1.296e+01,1.188e+01,1.367e+01,1.508e+01,1.447e+01,1.285e+01,1.250e+01,1.343e+01,1.499e+01,1.223e+01,1.454e+01,1.447e+01,1.445e+01,1.659e+01,1.421e+01,1.395e+01,1.504e+01,1.538e+01,1.503e+01,1.642e+01,1.770e+01,1.625e+01,1.413e+01,1.864e+01,1.771e+01,1.693e+01,1.811e+01,1.580e+01,1.377e+01,1.780e+01,1.764e+01,1.849e+01,1.851e+01,1.526e+01
4.652e-01,1.085e+00,3.522e-01,6.420e-01,6.381e-01,1.413e+00,2.334e+00,2.897e+00,1.732e+00,2.185e+00,3.744e+00,3.866e+00,2.939e+00,3.972e+00,3.190e+00,3.750e+00,3.786e+00,3.535e+00,5.677e+00,4.978e+00,5.092e+00,4.902e+00,3.297e+00,4.894e+00,5.072e+00,6.969e+00,5.742e+00,6.365e+00,4.861e+00,7.784e+00,7.641e+00,8.142e+00,7.020e+00,8.163e+00,9.023e+00,1.041e+01,1.014e+01,8.105e+00,8.276e+00,8.291e+00,1.152e+01,9.905e+00,9.685e+00,1.116e+01,1.025e+01,1.086e+01,1.070e+01,1.237e+01,1.224e+01,1.176e+01,1.063e+01,1.135e+01,1.391e+01,1.073e+01,1.371e+01,1.423e+01,1.412e+01,1.275e+01,1.153e+01,1.215e+01,1.403e+01,1.458e+01,1.545e+01,1.483e+01,1.453e+01,1.506e+01,1.419e+01,1.269e+01,1.508e+01,1.387e+01,1.524e+01,1.448e+01,1.763e+01,1.557e+01,1.429e+01,1.760e+01,1.848e+01,1.541e+01,1.704e+01,1.599e+01,1.538e+01,1.662e+01,1.892e+01,1.694e+01,1.876e+01,1.464e+01
2.774e-01,6.296e-01,5.596e-01,5.735e-01,8.443e-01,1.591e+00,2.002e+00,1.933e+00,2.027e+00,1.759e+00,2.796e+00,2.711e+00,2.227e+00,2.684e+00,2.521e+00,2.970e+00,3.211e+00,2.566e+00,5.050e+00,4.905e+00,4.260e+00,4.508e+00,3.646e+00,4.343e+00,4.147e+00,5.657e+00,5.007e+00,5.435e+00,6.117e+00,6.797e+00,6.754e+00,6.997e+00,7.210e+00,9.167e+00,7.969e+00,9.877e+00,1.140e+01,8.401e+00,9.745e+00,9.526e+00,1.013e+01,1.015e+01,1.043e+01,1.020e+01,1.107e+01,9.078e+00,1.010e+01,1.168e+01,1.158e+01,1.246e+01,1.082e+01,1.067e+01,1.357e+01,1.485e+01,1.437e+01,1.310e+01,1.469e+01,1.239e+01,1.403e+01,1.372e+01,1.574e+01,1.201e+01,1.605e+01,1.532e+01,1.427e+01,1.551e+01,1.514e+01,1.399e+01,1.545e+01,1.568e+01,1.600e+01,1.697e+01,1.604e+01,1.667e+01,1.445e+01,1.849e+01,1.971e+01,1.703e+01,1.936e+01,1.597e+01,1.457e+01,1.806e+01,1.794e+01,1.859e+01,1.891e+01,1.571e+01
2.947e-01,3.449e-01,1.870e-01,1.478e-01,5.513e-01,1.326e+00,1.886e+00,2.372e+00,1.831e+00,2.404e+00,3.411e+00,3.017e+00,2.573e+00,3.463e+00,2.979e+00,3.432e+00,3.511e+00,3.352e+00,6.022e+00,5.117e+00,5.053e+00,4.550e+00,4.606e+00,5.117e+00,4.852e+00,6.651e+00,5.344e+00,5.741e+00,6.045e+00,6.637e+00,7.040e+00,7.190e+00,6.919e+00,8.559e+00,8.456e+00,1.054e+01,1.115e+01,8.783e+00,8.403e+00,9.387e+00,1.099e+01,1.129e+01,8.810e+00,1.083e+01,1.156e+01,9.376e+00,1.122e+01,1.210e+01,1.253e+01,1.225e+01,1.045e+01,1.090e+01,1.300e+01,1.227e+01,1.461e+01,1.372e+01,1.506e+01,1.348e+01,1.392e+01,1.452e+01,1.652e+01,1.330e+01,1.685e+01,1.450e+01,1.556e+01,1.670e+01,1.615e+01,1.395e+01,1.555e+01,1.626e+01,1.649e+01,1.582e+01,1.753e+01,1.614e+01,1.573e+01,2.079e+01,2.031e+01,1.733e+01,1.931e+01,1.743e+01,1.778e+01,1.936e+01,2.088e+01,1.933e+01,2.067e+01,1.692e+01
3.117e-01,3.586e-01,3.146e-01,2.315e-01,4.773e-01,1.003e+00,1.706e+00,1.611e+00,1.430e+00,1.485e+00,2.472e+00,2.927e+00,2.452e+00,3.467e+00,2.763e+00,4.014e+00,3.979e+00,4.002e+00,6.093e+00,6.366e+00,5.791e+00,4.534e+00,5.534e+00,5.987e+00,5.974e+00,7.208e+00,6.223e+00,5.942e+00,6.378e+00,7.391e+00,7.585e+00,7.901e+00,8.416e+00,9.078e+00,9.494e+00,9.103e+00,1.093e+01,8.477e+00,9.362e+00,8.348e+00,1.130e+01,1.074e+01,1.054e+01,9.826e+00,9.727e+00,1.082e+01,1.137e+01,1.130e+01,1.117e+01,1.204e+01,9.325e+00,1.053e+01,1.250e+01,1.142e+01,1.398e+01,1.240e+01,1.425e+01,1.202e+01,1.346e+01,1.295e+01,1.584e+01,1.369e+01,1.721e+01,1.457e+01,1.489e+01,1.678e+01,1.595e+01,1.514e+01,1.699e+01,1.655e+01,1.662e+01,1.519e+01,1.867e+01,1.594e+01,1.535e+01,2.039e+01,2.026e+01,1.773e+01,1.994e+01,1.824e+01,1.720e+01,1.843e+01,2.150e+01,2.091e+01,2.172e+01,1.711e+01
2.500e-01,4.972e-01,7.193e-01,5.202e-01,1.129e+00,1.273e+00,1.406e+00,1.764e+00,1.415e+00,1.356e+00,1.499e+00,1.596e+00,1.765e+00,2.202e+00,1.943e+00,1.629e+00,2.806e+00,2.417e+00,3.758e+00,4.575e+00,4.006e+00,3.544e+00,3.299e+00,4.762e+00,3.760e+00,5.449e+00,5.104e+00,6.048e+00,5.301e+00,7.964e+00,6.454e+00,7.793e+00,7.485e+00,9.036e+00,8.735e+00,1.021e+01,1.094e+01,9.511e+00,9.237e+00,8.910e+00,1.194e+01,9.900e+00,1.098e+01,1.051e+01,1.152e+01,1.082e+01,1.144e+01,1.320e+01,1.363e+01,1.294e+01,1.207e+01,1.111e+01,1.384e+01,1.443e+01,1.534e+01,1.387e+01,1.581e+01,1.200e+01,1.426e+01,1.397e+01,1.630e+01,1.433e+01,1.738e+01,1.719e+01,1.557e+01,1.702e+01,1.658e+01,1.477e+01,1.663e+01,1.694e+01,1.756e+01,1.618e+01,1.835e+01,1.740e+01,1.523e+01,1.966e+01,2.124e+01,2.013e+01,1.998e+01,1.772e+01,1.782e+01,1.993e+01,2.004e+01,2.188e+01,2.079e+01,1.732e+01
3.261e-01,4.234e-01,2.309e-01,2.025e-01,7.071e-01,1.287e+00,1.779e+00,2.135e+00,1.265e+00,1.927e+00,2.834e+00,3.099e+00,2.819e+00,3.673e+00,3.171e+00,4.424e+00,4.697e+00,3.444e+00,5.707e+00,5.265e+00,5.037e+00,4.378e+00,4.841e+00,4.959e+00,5.105e+00,6.834e+00,6.973e+00,7.384e+00,6.636e+00,9.109e+00,8.582e+00,9.639e+00,8.508e+00,1.026e+01,9.721e+00,1.229e+01,1.306e+01,1.009e+01,9.777e+00,1.003e+01,1.378e+01,1.205e+01,1.224e+01,1.253e+01,1.078e+01,1.203e+01,1.281e+01,1.444e+01,1.492e+01,1.430e+01,1.215e+01,1.363e+01,1.576e+01,1.455e+01,1.681e+01,1.668e+01,1.714e+01,1.451e+01,1.475e+01,1.576e+01,1.840e+01,1.523e+01,1.647e+01,1.658e+01,1.647e+01,1.776e+01,1.704e+01,1.482e+01,1.728e+01,1.645e+01,1.807e+01,1.819e+01,2.052e+01,1.813e+01,1.769e+01,2.215e+01,2.142e+01,1.989e+01,2.163e+01,1.927e+01,1.938e+01,2.324e+01,2.317e+01,2.225e+01,2.273e+01,1.913e+01
4.454e-01,5.505e-01,6.468e-01,4.483e-01,1.152e+00,2.176e+00,2.699e+00,2.778e+00,2.340e+00,2.594e+00,3.500e+00,2.875e+00,2.858e+00,3.789e+00,3.709e+00,3.107e+00,3.812e+00,3.300e+00,5.151e+00,5.612e+00,5.015e+00,4.685e+00,3.928e+00,5.397e+00,5.022e+00,7.141e+00,5.512e+00,6.637e+00,5.697e+00,7.912e+00,7.205e+00,7.086e+00,7.378e+00,7.644e+00,7.724e+00,9.295e+00,9.547e+00,8.440e+00,9.130e+00,8.240e+00,1.055e+01,1.026e+01,9.946e+00,9.337e+00,1.036e+01,1.039e+01,1.012e+01,1.121e+01,1.341e+01,1.244e+01,1.162e+01,1.169e+01,1.402e+01,1.261e+01,1.323e+01,1.383e+01,1.396e+01,1.200e+01,1.285e+01,1.272e+01,1.496e+01,1.300e+01,1.567e+01,1.419e+01,1.455e+01,1.476e+01,1.446e+01,1.296e+01,1.382e+01,1.548e+01,1.628e+01,1.565e+01,1.645e+01,1.572e+01,1.456e+01,1.804e+01,1.974e+01,1.891e+01,2.018e+01,1.690e+01,1.816e+01,2.051e+01,1.962e+01,2.097e+01,2.168e+01,1.714e+01
3.681e-01,6.503e-01,9.388e-01,6.284e-01,1.238e+00,1.726e+00,2.471e+00,2.933e+00,1.887e+00,2.549e+00,4.419e+00,4.425e+00,3.508e+00,3.927e+00,3.619e+00,4.343e+00,4.877e+00,3.549e+00,6.460e+00,7.016e+00,6.183e+00,5.212e+00,5.299e+00,6.663e+00,5.750e+00,7.879e+00,7.199e+00,7.593e+00,6.894e+00,9.404e+00,8.577e+00,9.585e+00,9.845e+00,1.096e+01,9.809e+00,1.158e+01,1.216e+01,8.793e+00,1.127e+01,1.050e+01,1.368e+01,1.199e+01,1.188e+01,1.193e+01,1.122e+01,1.291e+01,1.280e+01,1.443e+01,1.507e+01,1.436e+01,1.189e+01,1.422e+01,1.636e+01,1.469e+01,1.680e+01,1.604e+01,1.680e+01,1.376e+01,1.571e+01,1.501e+01,1.791e+01,1.621e+01,1.888e+01,1.734e+01,1.808e+01,1.780e+01,1.829e+01,1.596e+01,1.722e+01,1.900e+01,2.019e+01,1.807e+01,2.047e+01,1.861e+01,1.733e+01,2.170e+01,2.347e+01,2.181e+01,2.353e+01,2.090e+01,2.196e+01,2.583e+01,2.517e+01,2.453e+01,2.462e+01,2.044e+01
2.629e-02,7.338e-01,5.114e-01,7.614e-01,8.172e-01,8.730e-01,1.441e+00,1.949e+00,1.429e+00,1.594e+00,1.781e+00,1.831e+00,1.590e+00,2.605e+00,2.251e+00,2.540e+00,2.897e+00,2.838e+00,4.117e+00,4.394e+00,3.956e+00,3.403e+00,3.446e+00,4.099e+00,3.609e+00,5.892e+00,5.120e+00,6.304e+00,5.240e+00,7.192e+00,5.927e+00,8.206e+00,7.019e+00,8.091e+00,7.818e+00,8.458e+00,8.427e+00,7.626e+00,8.331e+00,8.497e+00,1.155e+01,9.258e+00,9.776e+00,1.013e+01,9.901e+00,1.075e+01,1.066e+01,1.144e+01,1.165e+01,1.315e+01,9.946e+00,1.055e+01,1.297e+01,1.265e+01,1.527e+01,1.290e+01,1.319e+01,1.158e+01,1.345e+01,1.351e+01,1.569e+01,1.474e+01,1.593e+01,1.538e+01,1.593e+01,1.739e+01,1.646e+01,1.513e+01,1.684e+01,1.700e+01,1.712e+01,1.749e+01,1.956e+01,1.718e+01,1.563e+01,1.950e+01,2.233e+01,1.895e+01,1.938e+01,1.782e+01,1.916e+01,2.141e+01,2.099e+01,2.235e+01,2.238e+01,1.913e+01
3.870e-01,9.044e-01,6.412e-01,6.588e-01,8.609e-01,1.326e+00,1.923e+00,2.080e+00,1.430e+00,1.217e+00,2.883e+00,2.894e+00,2.765e+00,2.622e+00,2.087e+00,3.408e+00,3.760e+00,3.363e+00,5.143e+00,5.318e+00,4.280e+00,4.558e+00,4.891e+00,4.552e+00,4.833e+00,7.218e+00,6.045e+00,6.509e+00,5.971e+00,9.164e+00,7.904e+00,9.540e+00,7.989e+00,1.034e+01,7.693e+00,9.495e+00,1.077e+01,8.374e+00,9.714e+00,9.049e+00,1.236e+01,9.768e+00,9.098e+00,1.211e+01,9.331e+00,1.119e+01,1.160e+01,1.103e+01,1.397e+01,1.295e+01,1.102e+01,1.103e+01,1.462e+01,1.397e+01,1.512e+01,1.412e+01,1.521e+01,1.363e+01,1.381e+01,1.405e+01,1.759e+01,1.433e+01,1.704e+01,1.701e+01,1.703e+01,1.725e+01,1.830e+01,1.560e+01,1.650e+01,1.751e+01,1.844e+01,1.766e+01,1.904e+01,1.606e+01,1.716e+01,2.079e+01,2.358e+01,2.088e+01,2.261e+01,1.982e+01,2.071e+01,2.379e+01,2.469e+01,2.323e+01,2.523e+01,2.027e+01
2.294e-02,4.442e-01,7.124e-01,6.368e-01,1.058e+00,1.473e+00,2.222e+00,2.375e+00,2.343e+00,2.312e+00,3.248e+00,3.106e+00,3.004e+00,3.926e+00,2.915e+00,3.464e+00,4.264e+00,3.191e+00,6.283e+00,6.399e+00,6.396e+00,5.609e+00,4.925e+00,6.517e+00,5.054e+00,7.454e+00,7.058e+00,7.103e+00,6.885e+00,8.597e+00,8.310e+00,8.930e+00,8.858e+00,1.040e+01,9.390e+00,1.109e+01,1.214e+01,8.647e+00,1.021e+01,1.014e+01,1.237e+01,1.131e+01,1.168e+01,1.025e+01,1.160e+01,1.145e+01,1.142e+01,1.362e+01,1.446e+01,1.240e+01,1.162e+01,1.257e+01,1.497e+01,1.382e+01,1.527e+01,1.514e+01,1.629e+01,1.385e+01,1.523e+01,1.510e+01,1.746e+01,1.387e+01,1.929e+01,1.609e+01,1.697e+01,1.715e+01,1.672e+01,1.596e+01,1.776e+01,1.681e+01,1.731e+01,1.792e+01,1.906e+01,1.816e+01,1.686e+01,2.132e+01,2.244e+01,2.015e+01,2.306e+01,2.068e+01,2.167e+01,2.514e+01,2.316e+01,2.447e+01,2.377e+01,2.170e+01
3.028e-01,1.104e+00,2.913e-01,7.582e-01,4.823e-01,1.379e+00,2.429e+00,2.674e+00,2.277e+00,2.169e+00,3.430e+00,3.875e+00,2.938e+00,4.011e+00,3.525e+00,4.741e+00,4.160e+00,4.071e+00,6.009e+00,5.754e+00,5.044e+00,5.423e+00,4.780e+00,4.981e+00,5.402e+00,7.520e+00,6.084e+00,7.216e+00,6.047e+00,8.376e+00,7.583e+00,8.985e+00,8.191e+00,9.056e+00,9.383e+00,1.074e+01,1.066e+01,9.335e+00,9.933e+00,9.277e+00,1.162e+01,1.070e+01,1.113e+01,1.074e+01,9.970e+00,1.085e+01,1.148e+01,1.236e+01,1.204e+01,1.376e+01,1.071e+01,1.235e+01,1.430e+01,1.274e+01,1.454e+01,1.462e+01,1.469e+01,1.250e+01,1.312e+01,1.366e+01,1.528e+01,1.422e+01,1.578e+01,1.423e+01,1.493e+01,1.657e+01,1.610e+01,1.519e+01,1.690e+01,1.710e+01,1.641e+01,1.766e+01,1.982e+01,1.752e+01,1.648e+01,2.085e+01,2.040e+01,1.813e+01,2.009e+01,1.859e+01,1.842e+01,2.117e+01,2.173e+01,2.323e+01,2.285e+01,1.986e+01
3.695e-01,8.728e-01,6.573e-01,6.812e-01,9.790e-01,1.281e+00,1.618e+00,2.455e+00,1.437e+00,1.979e+00,2.737e+00,3.124e+00,1.897e+00,2.854e+00,2.612e+00,3.811e+00,3.821e+00,3.196e+00,5.038e+00,4.891e+00,4.019e+00,4.346e+00,4.056e+00,4.616e+00,4.461e+00,5.933e+00,5.723e+00,6.365e+00,6.328e+00,7.049e+00,6.190e+00,7.963e+00,7.805e+00,9.807e+00,8.046e+00,9.953e+00,9.766e+00,8.151e+00,8.908e+00,9.248e+00,1.025e+01,8.829e+00,9.145e+00,1.063e+01,9.036e+00,9.606e+00,1.019e+01,1.128e+01,1.194e+01,1.258e+01,1.035e+01,1.135e+01,1.376e+01,1.226e+01,1.468e+01,1.385e+01,1.456e+01,1.285e+01,1.410e+01,1.414e+01,1.577e+01,1.396e+01,1.642e+01,1.620e+01,1.566e+01,1.669e+01,1.659e+01,1.337e+01,1.569e+01,1.588e+01,1.616e+01,1.645e+01,1.744e+01,1.557e+01,1.621e+01,1.973e+01,2.127e+01,1.971e+01,1.978e+01,1.927e+01,1.837e+01,1.985e+01,2.069e+01,2.126e+01,2.040e+01,1.897e+01
4.270e-01,1.111e+00,6.490e-01,8.102e-01,1.219e+00,2.135e+00,2.886e+00,3.317e+00,2.737e+00,2.585e+00,3.410e+00,3.904e+00,3.684e+00,3.877e+00,3.685e+00,4.027e+00,4.152e+00,4.063e+00,6.494e+00,6.133e+00,5.561e+00,6.227e+00,5.908e+00,6.281e+00,5.606e+00,8.133e+00,6.825e+00,8.046e+00,7.206e+00,8.598e+00,8.728e+00,9.334e+00,8.945e+00,1.123e+01,9.285e+00,1.172e+01,1.183e+01,1.026e+01,1.051e+01,1.042e+01,1.235e+01,1.172e+01,1.251e+01,1.184e+01,1.089e+01,1.176e+01,1.318e+01,1.437e+01,1.470e+01,1.332e+01,1.218e+01,1.316e+01,1.556e+01,1.422e+01,1.520e+01,1.508e+01,1.638e+01,1.341e+01,1.478e+01,1.441e+01,1.793e+01,1.557e+01,1.785e+01,1.504e+01,1.744e+01,1.788e+01,1.699e+01,1.618e+01,1.712e+01,1.721e+01,1.805e+01,1.836e+01,1.904e+01,1.783e+01,1.684e+01,2.228e+01,2.224e+01,2.003e+01,2.238e+01,1.820e+01,1.992e+01,2.410e+01,2.245e+01,2.345e+01,2.515e+01,1.971e+01
