3.079e-01,3.457e-01,1.019e-02,7.721e-01,9.858e-01,5.684e-01,7.244e-01,2.629e-01,8.783e-01,7.669e-01,2.244e-01,6.087e-01,9.701e-01,1.314e-01,2.329e-01,4.495e-01,6.287e-01,1.042e-01,3.193e-01,3.855e-01,5.961e-01,8.347e-01,6.787e-01,8.426e-01,9.686e-01,4.144e-01,4.417e-01,6.875e-01,2.131e-01,7.576e-01,3.210e-01,3.721e-01,7.847e-01,4.175e-01,7.555e-01,6.623e-01,7.709e-01,9.933e-01,4.990e-01,5.074e-01,7.165e-01,8.558e-01,2.953e-01,3.558e-02,6.104e-01,2.270e-02,6.362e-01,5.337e-01,1.442e-01,5.952e-01,2.148e-01,3.726e-01,1.971e-01,2.016e-01,4.711e-01,5.940e-01,5.381e-01,5.484e-02,4.325e-01,2.715e-01,4.182e-01,7.286e-01,8.525e-01,1.661e-01,5.322e-02,6.960e-01,4.940e-01,7.461e-02,7.305e-01,1.928e-01,6.557e-01,8.384e-01,9.135e-01,1.542e-01,9.264e-01,1.815e-01,1.435e-01,2.295e-01,4.038e-01,2.934e-01,1.827e-01,8.297e-01,2.363e-02,8.270e-01,6.921e-02,4.267e-01,7.036e-02,7.535e-02,8.156e-01,4.386e-01,3.585e-02,2.613e-02,5.320e-01,6.021e-01,6.673e-01,2.675e-01,4.995e-01
1.823e-01,2.963e-01,7.138e-01,1.386e+00,1.008e+00,1.196e+00,1.340e+00,9.274e-01,7.650e-01,1.061e+00,3.873e-01,4.524e-01,7.295e-01,2.918e-01,9.779e-01,4.842e-01,6.464e-01,1.012e+00,8.011e-01,5.029e-01,4.881e-01,7.366e-01,9.179e-01,7.230e-01,9.352e-01,7.570e-01,7.394e-01,1.299e+00,9.787e-01,6.750e-01,2.921e-01,6.034e-01,9.694e-01,4.457e-01,5.985e-01,1.111e+00,6.004e-01,1.236e+00,3.410e-01,1.111e+00,7.503e-01,1.147e+00,3.014e-01,4.985e-01,9.652e-01,5.667e-01,7.397e-01,1.005e+00,2.882e-01,1.034e+00,3.150e-01,7.593e-01,6.869e-01,5.548e-01,7.872e-01,1.035e+00,4.546e-01,4.113e-01,8.549e-01,8.270e-01,8.843e-01,1.400e+00,9.987e-01,6.533e-01,9.019e-01,1.000e+00,1.226e+00,8.716e-01,9.929e-01,2.197e-01,5.486e-01,1.376e+00,6.435e-01,7.548e-01,1.379e+00,2.230e-01,1.034e+00,9.604e-01,5.799e-01,5.031e-01,1.088e+00,9.667e-01,4.535e-01,1.375e+00,3.001e-01,7.676e-01,3.972e-01,3.754e-01,8.051e-01,1.100e+00,9.830e-02,8.600e-01,6.411e-01,3.600e-01,9.095e-01,8.977e-01,5.775e-01
1.667e-01,2.382e-01,7.747e-01,1.145e+00,1.075e+00,1.466e+00,1.309e+00,5.877e-01,1.610e+00,1.033e+00,4.575e-01,9.389e-01,1.292e+00,3.693e-01,9.960e-01,5.409e-01,1.193e+00,7.621e-01,1.511e+00,8.797e-01,7.094e-01,9.560e-01,7.556e-01,8.863e-01,1.035e+00,1.440e+00,9.472e-01,1.786e+00,1.046e+00,7.315e-01,8.721e-01,1.247e+00,1.529e+00,5.381e-01,1.370e+00,1.198e+00,5.043e-01,1.537e+00,7.262e-01,1.338e+00,1.475e+00,1.347e+00,5.325e-01,4.083e-01,1.633e+00,9.955e-01,1.051e+00,1.179e+00,7.873e-01,9.525e-01,5.437e-01,1.112e+00,9.182e-01,1.291e+00,7.951e-01,1.168e+00,1.048e+00,1.212e+00,6.342e-01,1.298e+00,1.113e+00,1.019e+00,1.443e+00,9.544e-01,9.926e-01,1.236e+00,1.304e+00,1.105e+00,1.384e+00,8.108e-01,1.106e+00,1.687e+00,1.342e+00,1.162e+00,1.636e+00,4.831e-01,1.320e+00,1.078e+00,5.744e-01,1.085e+00,1.234e+00,1.648e+00,5.461e-01,1.830e+00,5.857e-01,1.362e+00,8.513e-01,9.315e-01,7.411e-01,7.538e-01,8.389e-01,8.373e-01,8.736e-01,6.590e-01,1.292e+00,7.278e-01,7.124e-01
6.716e-02,1.351e-01,6.351e-01,1.191e+00,1.416e+00,1.148e+00,1.585e+00,1.287e+00,8.591e-01,9.595e-01,1.209e+00,1.210e+00,1.570e+00,6.271e-01,1.621e+00,1.067e+00,1.224e+00,1.148e+00,1.652e+00,1.043e+00,5.385e-01,6.110e-01,7.800e-01,8.634e-01,1.520e+00,1.129e+00,1.561e+00,1.878e+00,1.151e+00,1.362e+00,1.006e+00,1.542e+00,1.671e+00,9.977e-01,1.153e+00,1.670e+00,6.153e-01,1.459e+00,1.077e+00,9.937e-01,1.008e+00,1.767e+00,8.338e-01,1.322e+00,1.949e+00,1.536e+00,1.280e+00,1.038e+00,8.408e-01,8.831e-01,1.242e+00,1.411e+00,1.041e+00,1.479e+00,1.197e+00,1.594e+00,9.814e-01,1.023e+00,8.310e-01,1.638e+00,1.351e+00,1.372e+00,9.984e-01,1.350e+00,1.168e+00,1.167e+00,1.709e+00,1.445e+00,1.007e+00,1.115e+00,1.131e+00,1.337e+00,9.650e-01,1.365e+00,1.935e+00,5.630e-01,1.471e+00,1.493e+00,4.727e-01,1.461e+00,1.343e+00,1.441e+00,1.252e+00,1.271e+00,1.111e+00,1.493e+00,1.190e+00,1.025e+00,1.248e+00,8.254e-01,1.162e+00,9.885e-01,5.680e-01,7.656e-01,1.302e+00,7.523e-01,7.031e-01
2.734e-01,3.299e-01,5.585e-01,1.169e+00,1.513e+00,2.185e+00,2.220e+00,6.418e-01,2.597e+00,1.471e+00,1.527e+00,2.147e+00,2.292e+00,4.075e-01,1.303e+00,1.125e+00,1.801e+00,1.279e+00,1.920e+00,1.238e+00,1.667e+00,2.161e+00,1.143e+00,1.472e+00,1.411e+00,2.103e+00,1.943e+00,2.608e+00,1.097e+00,1.137e+00,1.457e+00,2.320e+00,2.696e+00,1.470e+00,1.719e+00,1.820e+00,1.736e+00,2.652e+00,1.809e+00,1.901e+00,1.815e+00,2.043e+00,8.289e-01,1.021e+00,2.110e+00,1.095e+00,1.467e+00,1.381e+00,1.330e+00,1.887e+00,1.515e+00,1.247e+00,1.606e+00,1.698e+00,1.188e+00,2.051e+00,2.222e+00,1.400e+00,8.004e-01,1.834e+00,1.846e+00,1.521e+00,2.451e+00,1.459e+00,1.293e+00,2.296e+00,2.172e+00,1.708e+00,1.549e+00,1.786e+00,1.797e+00,2.218e+00,2.407e+00,1.789e+00,2.146e+00,7.265e-01,1.846e+00,1.434e+00,1.555e+00,1.394e+00,1.595e+00,2.354e+00,7.955e-01,2.561e+00,1.402e+00,1.621e+00,1.161e+00,1.554e+00,1.344e+00,6.843e-01,1.367e+00,9.569e-01,1.049e+00,1.650e+00,1.607e+00,1.311e+00,1.773e+00
2.104e-01,3.188e-01,9.077e-01,1.810e+00,2.050e+00,2.382e+00,3.094e+00,1.751e+00,2.481e+00,2.235e+00,2.675e+00,1.989e+00,2.773e+00,1.128e+00,2.438e+00,2.185e+00,2.209e+00,2.669e+00,2.986e+00,1.673e+00,1.822e+00,2.255e+00,1.677e+00,2.321e+00,3.043e+00,2.131e+00,2.425e+00,3.432e+00,2.274e+00,2.671e+00,1.688e+00,2.433e+00,2.838e+00,1.924e+00,2.209e+00,3.308e+00,1.696e+00,3.195e+00,2.069e+00,2.261e+00,1.702e+00,2.882e+00,1.968e+00,2.568e+00,3.286e+00,1.902e+00,2.715e+00,2.596e+00,1.578e+00,2.365e+00,2.256e+00,2.001e+00,2.432e+00,2.891e+00,2.551e+00,2.612e+00,1.922e+00,2.044e+00,1.901e+00,2.409e+00,3.060e+00,2.399e+00,2.747e+00,2.036e+00,2.144e+00,2.869e+00,2.622e+00,2.509e+00,2.663e+00,2.401e+00,2.050e+00,3.114e+00,2.449e+00,2.804e+00,3.545e+00,1.794e+00,2.277e+00,2.845e+00,1.842e+00,2.083e+00,2.055e+00,2.826e+00,1.862e+00,2.873e+00,2.345e+00,2.416e+00,2.359e+00,1.754e+00,1.996e+00,1.740e+00,2.358e+00,1.791e+00,1.649e+00,1.840e+00,2.165e+00,2.157e+00,1.661e+00
2.474e-01,3.246e-01,6.863e-01,1.539e+00,1.923e+00,1.818e+00,3.089e+00,1.529e+00,2.838e+00,1.855e+00,2.866e+00,1.916e+00,3.116e+00,1.617e+00,2.119e+00,2.215e+00,2.554e+00,1.834e+00,2.790e+00,1.851e+00,1.751e+00,2.195e+00,1.617e+00,2.601e+00,3.054e+00,2.056e+00,2.493e+00,2.807e+00,2.602e+00,2.875e+00,2.109e+00,2.727e+00,2.778e+00,2.079e+00,3.130e+00,3.400e+00,1.854e+00,2.702e+00,2.502e+00,2.179e+00,2.402e+00,3.098e+00,2.565e+00,2.070e+00,3.674e+00,1.706e+00,2.834e+00,2.337e+00,1.715e+00,1.704e+00,1.687e+00,2.538e+00,2.485e+00,2.585e+00,2.298e+00,2.608e+00,1.865e+00,2.243e+00,2.033e+00,2.580e+00,3.205e+00,2.709e+00,3.141e+00,1.953e+00,1.984e+00,2.923e+00,2.947e+00,2.445e+00,3.075e+00,2.574e+00,1.991e+00,3.440e+00,2.356e+00,2.872e+00,3.288e+00,1.942e+00,2.403e+00,2.309e+00,1.486e+00,2.781e+00,2.022e+00,3.350e+00,2.032e+00,3.205e+00,2.623e+00,2.136e+00,2.169e+00,1.566e+00,1.877e+00,1.811e+00,2.664e+00,1.651e+00,2.323e+00,1.685e+00,2.468e+00,1.870e+00,1.421e+00
5.048e-02,1.012e-01,5.386e-01,9.297e-01,1.139e+00,1.305e+00,2.271e+00,1.733e+00,2.125e+00,1.938e+00,3.391e+00,1.519e+00,2.430e+00,1.545e+00,2.150e+00,2.170e+00,1.776e+00,2.068e+00,2.840e+00,1.435e+00,1.706e+00,1.650e+00,1.086e+00,2.031e+00,2.264e+00,2.043e+00,2.496e+00,2.958e+00,2.644e+00,2.615e+00,2.105e+00,2.120e+00,2.630e+00,1.952e+00,2.458e+00,3.571e+00,1.710e+00,2.706e+00,2.602e+00,1.818e+00,1.751e+00,2.456e+00,2.331e+00,2.540e+00,3.636e+00,2.324e+00,2.623e+00,1.921e+00,2.087e+00,1.935e+00,2.366e+00,2.379e+00,2.264e+00,2.851e+00,2.370e+00,2.778e+00,2.076e+00,2.308e+00,1.801e+00,2.637e+00,2.985e+00,2.843e+00,3.120e+00,1.651e+00,1.910e+00,2.820e+00,3.080e+00,2.944e+00,2.410e+00,2.373e+00,1.623e+00,2.397e+00,2.493e+00,2.863e+00,3.161e+00,1.610e+00,2.060e+00,2.739e+00,1.368e+00,2.596e+00,1.849e+00,2.419e+00,2.563e+00,2.403e+00,2.608e+00,2.424e+00,2.335e+00,1.300e+00,1.510e+00,1.335e+00,2.455e+00,2.017e+00,1.908e+00,1.220e+00,2.503e+00,1.607e+00,1.105e+00
1.893e-01,2.930e-01,6.756e-01,1.563e+00,1.736e+00,2.155e+00,3.544e+00,1.942e+00,2.950e+00,2.299e+00,4.315e+00,3.095e+00,3.918e+00,1.822e+00,2.937e+00,2.378e+00,3.262e+00,3.205e+00,2.707e+00,1.930e+00,2.787e+00,3.013e+00,2.580e+00,3.238e+00,2.699e+00,2.579e+00,3.548e+00,3.296e+00,3.105e+00,3.395e+00,2.937e+00,3.587e+00,4.179e+00,3.023e+00,2.628e+00,3.977e+00,3.547e+00,3.412e+00,3.298e+00,2.493e+00,2.211e+00,4.155e+00,2.633e+00,2.715e+00,4.099e+00,1.992e+00,3.168e+00,2.868e+00,2.425e+00,2.858e+00,3.271e+00,2.521e+00,3.733e+00,3.129e+00,2.767e+00,3.550e+00,3.193e+00,2.579e+00,2.472e+00,3.430e+00,4.222e+00,4.182e+00,4.215e+00,2.859e+00,3.118e+00,3.806e+00,4.719e+00,3.220e+00,3.418e+00,3.189e+00,1.921e+00,3.831e+00,3.462e+00,3.577e+00,3.879e+00,1.911e+00,2.927e+00,3.041e+00,3.091e+00,2.745e+00,3.178e+00,3.486e+00,2.783e+00,3.759e+00,3.666e+00,2.431e+00,2.487e+00,2.315e+00,2.872e+00,2.464e+00,2.885e+00,2.251e+00,2.548e+00,1.958e+00,2.552e+00,2.512e+00,2.091e+00
2.194e-01,3.076e-01,6.683e-01,1.399e+00,1.439e+00,1.427e+00,2.277e+00,1.301e+00,2.224e+00,2.418e+00,3.260e+00,2.635e+00,3.386e+00,2.276e+00,2.333e+00,2.396e+00,2.601e+00,1.774e+00,2.323e+00,2.203e+00,2.366e+00,2.699e+00,2.418e+00,2.367e+00,3.043e+00,2.121e+00,2.688e+00,2.911e+00,2.409e+00,2.522e+00,2.607e+00,3.052e+00,2.866e+00,2.117e+00,2.834e+00,2.726e+00,2.445e+00,3.166e+00,2.968e+00,2.136e+00,2.136e+00,3.516e+00,2.052e+00,2.164e+00,3.461e+00,1.838e+00,2.843e+00,2.997e+00,2.405e+00,2.083e+00,1.782e+00,2.857e+00,2.903e+00,2.471e+00,2.493e+00,3.270e+00,2.883e+00,2.528e+00,2.425e+00,2.423e+00,2.971e+00,3.710e+00,3.164e+00,1.864e+00,2.397e+00,2.836e+00,3.512e+00,2.376e+00,3.368e+00,2.769e+00,2.283e+00,3.651e+00,2.374e+00,3.256e+00,3.677e+00,1.336e+00,2.452e+00,2.401e+00,2.210e+00,2.448e+00,2.626e+00,3.650e+00,1.934e+00,3.760e+00,2.800e+00,1.930e+00,2.397e+00,2.217e+00,2.137e+00,2.818e+00,2.044e+00,1.731e+00,2.681e+00,1.342e+00,2.890e+00,1.552e+00,1.222e+00
2.884e-01,3.651e-01,3.620e-01,1.225e+00,1.321e+00,1.234e+00,2.235e+00,1.269e+00,2.234e+00,2.190e+00,3.300e+00,2.258e+00,3.424e+00,2.258e+00,2.144e+00,3.054e+00,3.072e+00,2.137e+00,2.893e+00,2.016e+00,2.516e+00,3.424e+00,2.500e+00,3.116e+00,3.067e+00,2.213e+00,3.214e+00,2.862e+00,2.967e+00,2.735e+00,2.153e+00,2.909e+00,2.791e+00,2.559e+00,3.090e+00,2.964e+00,3.405e+00,3.353e+00,3.211e+00,2.841e+00,2.273e+00,3.559e+00,2.107e+00,2.668e+00,3.084e+00,2.200e+00,3.239e+00,2.858e+00,2.088e+00,2.030e+00,2.644e+00,3.191e+00,2.458e+00,2.864e+00,2.723e+00,3.783e+00,3.342e+00,2.238e+00,3.055e+00,2.770e+00,3.566e+00,4.235e+00,3.519e+00,1.631e+00,1.831e+00,3.577e+00,3.756e+00,3.090e+00,3.427e+00,2.493e+00,2.448e+00,3.831e+00,2.696e+00,2.723e+00,3.915e+00,1.292e+00,2.562e+00,2.373e+00,2.627e+00,2.409e+00,2.864e+00,3.887e+00,2.713e+00,3.177e+00,3.096e+00,2.250e+00,2.608e+00,1.548e+00,2.833e+00,2.687e+00,2.219e+00,2.430e+00,3.046e+00,2.069e+00,3.430e+00,2.312e+00,1.789e+00
1.451e-01,2.310e-01,7.885e-01,1.199e+00,1.074e+00,2.109e+00,2.668e+00,1.014e+00,2.814e+00,1.953e+00,2.975e+00,3.242e+00,3.709e+00,1.597e+00,2.849e+00,2.949e+00,3.331e+00,3.630e+00,3.204e+00,2.635e+00,3.445e+00,3.900e+00,2.624e+00,3.294e+00,3.010e+00,3.322e+00,3.047e+00,3.601e+00,2.886e+00,2.732e+00,2.426e+00,3.129e+00,3.140e+00,2.644e+00,2.682e+00,2.894e+00,3.675e+00,3.123e+00,2.482e+00,3.511e+00,2.555e+00,3.675e+00,2.047e+00,2.519e+00,3.400e+00,2.357e+00,2.928e+00,3.609e+00,2.342e+00,3.367e+00,2.882e+00,3.052e+00,3.272e+00,3.956e+00,2.936e+00,2.921e+00,3.094e+00,3.202e+00,2.925e+00,2.727e+00,4.383e+00,3.210e+00,4.472e+00,3.072e+00,3.173e+00,3.900e+00,3.876e+00,3.478e+00,4.459e+00,2.769e+00,2.368e+00,4.609e+00,3.729e+00,3.632e+00,3.611e+00,2.535e+00,2.769e+00,2.756e+00,3.769e+00,2.607e+00,3.789e+00,4.441e+00,2.089e+00,4.018e+00,3.343e+00,3.041e+00,2.730e+00,3.007e+00,2.335e+00,3.032e+00,2.867e+00,2.530e+00,2.816e+00,2.305e+00,3.252e+00,3.572e+00,1.939e+00
2.115e-01,2.382e-01,3.088e-01,8.423e-01,1.291e+00,1.429e+00,2.289e+00,1.178e+00,3.067e+00,2.652e+00,4.443e+00,3.254e+00,5.342e+00,3.456e+00,3.173e+00,3.592e+00,4.535e+00,2.808e+00,4.642e+00,2.705e+00,4.339e+00,4.132e+00,2.853e+00,4.465e+00,4.509e+00,3.620e+00,4.478e+00,4.608e+00,3.695e+00,4.442e+00,3.431e+00,4.604e+00,4.153e+00,3.717e+00,3.967e+00,4.054e+00,4.669e+00,4.009e+00,4.245e+00,3.587e+00,3.410e+00,4.536e+00,2.937e+00,3.403e+00,5.240e+00,3.330e+00,4.355e+00,4.638e+00,3.110e+00,2.829e+00,4.393e+00,4.437e+00,3.887e+00,4.649e+00,3.979e+00,4.324e+00,5.165e+00,3.795e+00,3.996e+00,4.144e+00,4.424e+00,4.739e+00,4.775e+00,2.475e+00,3.529e+00,4.569e+00,4.477e+00,4.314e+00,4.750e+00,4.463e+00,3.426e+00,4.763e+00,4.287e+00,4.109e+00,4.701e+00,3.100e+00,3.565e+00,3.735e+00,3.855e+00,3.830e+00,4.079e+00,4.752e+00,3.816e+00,4.355e+00,4.762e+00,3.617e+00,3.975e+00,3.553e+00,4.033e+00,3.227e+00,4.351e+00,3.110e+00,3.759e+00,3.178e+00,3.994e+00,3.060e+00,2.591e+00
1.112e-01,1.981e-01,9.105e-01,1.460e+00,1.626e+00,2.133e+00,3.090e+00,1.688e+00,2.723e+00,2.509e+00,3.791e+00,3.241e+00,4.174e+00,3.148e+00,3.608e+00,3.869e+00,3.654e+00,3.782e+00,4.446e+00,3.127e+00,3.612e+00,4.567e+00,3.007e+00,3.353e+00,5.033e+00,4.043e+00,4.353e+00,4.618e+00,3.943e+00,3.548e+00,3.280e+00,4.638e+00,3.896e+00,3.669e+00,4.066e+00,3.932e+00,3.442e+00,4.582e+00,4.221e+00,4.678e+00,2.939e+00,4.440e+00,2.875e+00,3.806e+00,5.054e+00,3.720e+00,3.664e+00,4.728e+00,3.015e+00,3.397e+00,3.469e+00,4.790e+00,3.822e+00,4.806e+00,4.365e+00,4.879e+00,3.980e+00,4.380e+00,4.269e+00,4.070e+00,4.448e+00,4.692e+00,4.605e+00,3.085e+00,3.832e+00,4.397e+00,4.956e+00,4.765e+00,4.773e+00,4.533e+00,3.648e+00,5.549e+00,3.447e+00,4.680e+00,5.333e+00,3.232e+00,4.169e+00,4.368e+00,3.358e+00,4.116e+00,4.002e+00,4.944e+00,3.932e+00,4.732e+00,4.336e+00,4.360e+00,3.981e+00,4.050e+00,2.986e+00,3.407e+00,3.986e+00,3.413e+00,3.194e+00,3.272e+00,4.225e+00,3.818e+00,2.638e+00
3.072e-01,3.765e-01,4.854e-01,1.299e+00,1.548e+00,1.559e+00,2.226e+00,8.894e-01,2.383e+00,1.514e+00,2.010e+00,2.173e+00,3.105e+00,1.619e+00,2.049e+00,1.956e+00,2.930e+00,2.547e+00,2.887e+00,2.217e+00,2.229e+00,3.680e+00,2.239e+00,3.047e+00,3.167e+00,2.557e+00,3.330e+00,3.055e+00,2.524e+00,2.626e+00,2.327e+00,3.068e+00,3.266e+00,2.679e+00,3.716e+00,2.784e+00,3.070e+00,3.037e+00,3.468e+00,2.742e+00,3.038e+00,4.038e+00,2.470e+00,1.733e+00,3.964e+00,1.802e+00,3.226e+00,2.669e+00,2.351e+00,1.939e+00,2.110e+00,3.155e+00,2.542e+00,2.697e+00,2.358e+00,3.240e+00,2.840e+00,2.639e+00,2.511e+00,3.022e+00,3.160e+00,3.649e+00,3.708e+00,2.319e+00,2.851e+00,3.154e+00,3.362e+00,2.898e+00,3.712e+00,2.491e+00,2.206e+00,3.992e+00,3.249e+00,2.363e+00,3.187e+00,2.115e+00,3.158e+00,2.503e+00,2.258e+00,3.187e+00,2.971e+00,3.753e+00,2.595e+00,3.659e+00,2.416e+00,2.844e+00,2.635e+00,2.399e+00,3.014e+00,2.672e+00,2.750e+00,1.693e+00,2.182e+00,2.739e+00,3.008e+00,2.123e+00,2.437e+00
5.923e-02,1.400e-01,8.982e-01,1.323e+00,1.498e+00,2.152e+00,3.108e+00,1.911e+00,2.796e+00,2.481e+00,4.347e+00,3.599e+00,4.852e+00,3.591e+00,4.168e+00,4.595e+00,4.932e+00,4.509e+00,6.466e+00,3.555e+00,4.989e+00,5.721e+00,3.590e+00,4.695e+00,5.887e+00,5.016e+00,6.643e+00,6.164e+00,4.996e+00,4.905e+00,4.494e+00,5.721e+00,5.032e+00,5.548e+00,5.734e+00,4.893e+00,5.221e+00,5.936e+00,6.014e+00,5.685e+00,4.674e+00,5.760e+00,4.097e+00,5.009e+00,7.200e+00,5.632e+00,5.227e+00,5.271e+00,4.905e+00,3.871e+00,4.976e+00,6.021e+00,4.511e+00,5.448e+00,5.196e+00,6.199e+00,6.411e+00,5.561e+00,4.660e+00,5.998e+00,5.100e+00,6.084e+00,5.620e+00,4.202e+00,5.473e+00,5.977e+00,6.244e+00,6.938e+00,5.911e+00,5.490e+00,4.376e+00,6.353e+00,4.669e+00,5.134e+00,6.243e+00,3.785e+00,6.418e+00,5.246e+00,4.732e+00,5.724e+00,6.094e+00,5.967e+00,5.801e+00,5.502e+00,5.784e+00,5.197e+00,5.299e+00,5.562e+00,4.562e+00,3.998e+00,5.144e+00,4.402e+00,4.284e+00,4.276e+00,6.035e+00,4.864e+00,3.790e+00
2.559e-01,2.915e-01,1.368e-01,1.026e+00,1.700e+00,1.374e+00,2.416e+00,1.345e+00,2.209e+00,2.026e+00,3.477e+00,2.839e+00,4.115e+00,2.833e+00,2.779e+00,3.774e+00,4.725e+00,3.079e+00,4.820e+00,3.076e+00,4.355e+00,5.050e+00,3.877e+00,4.577e+00,6.153e+00,3.704e+00,5.182e+00,4.281e+00,4.142e+00,5.216e+00,3.493e+00,5.219e+00,4.610e+00,5.212e+00,4.876e+00,4.731e+00,5.215e+00,5.335e+00,5.549e+00,4.143e+00,4.006e+00,4.786e+00,3.348e+00,4.026e+00,6.142e+00,4.306e+00,4.773e+00,4.412e+00,3.528e+00,3.086e+00,4.123e+00,4.289e+00,3.387e+00,4.396e+00,4.833e+00,5.812e+00,5.227e+00,4.476e+00,4.250e+00,4.977e+00,4.460e+00,4.684e+00,4.168e+00,3.066e+00,3.927e+00,4.590e+00,4.541e+00,4.640e+00,4.749e+00,4.489e+00,3.734e+00,5.315e+00,3.665e+00,4.316e+00,5.225e+00,3.087e+00,4.910e+00,4.593e+00,4.280e+00,3.960e+00,4.658e+00,5.284e+00,5.215e+00,4.194e+00,5.100e+00,3.965e+00,4.386e+00,4.046e+00,5.072e+00,2.949e+00,4.731e+00,3.769e+00,3.652e+00,4.419e+00,5.034e+00,4.318e+00,3.683e+00
1.161e-01,1.692e-01,4.928e-01,9.980e-01,1.311e+00,1.681e+00,2.482e+00,1.222e+00,2.186e+00,2.203e+00,3.681e+00,3.398e+00,4.401e+00,3.240e+00,3.404e+00,3.779e+00,4.433e+00,4.224e+00,4.910e+00,4.264e+00,4.969e+00,6.153e+00,4.374e+00,4.809e+00,6.369e+00,5.042e+00,6.196e+00,5.233e+00,4.179e+00,5.044e+00,3.905e+00,6.352e+00,4.927e+00,5.659e+00,5.463e+00,4.569e+00,6.149e+00,5.150e+00,6.320e+00,4.598e+00,4.321e+00,5.764e+00,3.517e+00,4.013e+00,6.567e+00,4.021e+00,5.266e+00,5.054e+00,4.059e+00,4.210e+00,4.779e+00,5.356e+00,4.145e+00,5.507e+00,5.094e+00,6.172e+00,6.043e+00,4.724e+00,5.515e+00,5.584e+00,4.979e+00,5.801e+00,5.608e+00,3.914e+00,5.274e+00,5.187e+00,5.563e+00,5.812e+00,5.812e+00,5.565e+00,4.102e+00,5.938e+00,3.756e+00,5.404e+00,5.444e+00,4.079e+00,5.804e+00,5.472e+00,5.214e+00,4.924e+00,5.686e+00,6.121e+00,5.519e+00,6.003e+00,6.024e+00,4.581e+00,5.049e+00,4.689e+00,5.742e+00,4.369e+00,5.612e+00,4.777e+00,3.793e+00,5.392e+00,5.779e+00,4.578e+00,4.792e+00
1.584e-01,2.566e-01,7.814e-01,1.403e+00,1.334e+00,1.969e+00,2.912e+00,1.767e+00,2.751e+00,3.076e+00,4.456e+00,3.055e+00,4.707e+00,3.436e+00,3.766e+00,4.467e+00,4.599e+00,4.456e+00,6.068e+00,4.120e+00,6.051e+00,5.704e+00,4.440e+00,5.926e+00,7.103e+00,5.457e+00,6.484e+00,6.203e+00,5.845e+00,6.349e+00,4.145e+00,5.431e+00,5.288e+00,5.659e+00,5.486e+00,5.943e+00,6.892e+00,5.875e+00,6.204e+00,5.739e+00,5.139e+00,5.640e+00,3.913e+00,4.911e+00,7.171e+00,5.437e+00,6.380e+00,6.389e+00,4.422e+00,5.357e+00,4.886e+00,5.421e+00,4.470e+00,5.741e+00,6.041e+00,6.698e+00,6.210e+00,5.250e+00,5.850e+00,5.991e+00,6.383e+00,6.605e+00,6.314e+00,4.462e+00,5.192e+00,6.600e+00,5.565e+00,6.932e+00,6.993e+00,5.556e+00,4.663e+00,6.687e+00,4.845e+00,6.317e+00,6.621e+00,4.205e+00,5.890e+00,6.239e+00,5.696e+00,5.662e+00,6.675e+00,6.873e+00,5.774e+00,5.963e+00,6.030e+00,4.899e+00,5.275e+00,5.085e+00,6.195e+00,5.113e+00,5.372e+00,5.176e+00,5.376e+00,5.501e+00,6.975e+00,5.709e+00,4.555e+00
2.228e-01,3.338e-01,1.018e+00,1.903e+00,2.227e+00,2.898e+00,4.015e+00,2.265e+00,3.855e+00,3.125e+00,5.023e+00,4.217e+00,5.667e+00,3.167e+00,4.548e+00,4.367e+00,5.797e+00,5.482e+00,6.485e+00,5.470e+00,6.328e+00,6.388e+00,5.592e+00,6.664e+00,6.842e+00,6.070e+00,7.238e+00,7.027e+00,6.691e+00,7.077e+00,5.153e+00,7.316e+00,7.457e+00,6.588e+00,6.861e+00,6.856e+00,7.670e+00,6.755e+00,7.709e+00,6.038e+00,5.998e+00,7.661e+00,4.755e+00,5.833e+00,9.319e+00,6.177e+00,7.234e+00,6.508e+00,5.993e+00,5.561e+00,6.336e+00,6.141e+00,5.624e+00,7.605e+00,6.403e+00,7.197e+00,7.014e+00,6.096e+00,6.229e+00,7.627e+00,7.068e+00,7.336e+00,7.627e+00,5.928e+00,6.461e+00,6.584e+00,7.395e+00,7.690e+00,7.164e+00,5.722e+00,5.094e+00,7.994e+00,6.432e+00,7.270e+00,7.528e+00,5.233e+00,6.776e+00,7.254e+00,6.249e+00,6.746e+00,7.182e+00,7.563e+00,7.208e+00,7.330e+00,7.062e+00,6.506e+00,6.578e+00,5.632e+00,6.536e+00,5.637e+00,6.540e+00,5.497e+00,5.150e+00,5.420e+00,7.556e+00,5.872e+00,5.391e+00
2.050e-01,3.131e-01,6.738e-01,1.386e+00,1.171e+00,1.754e+00,2.271e+00,1.227e+00,1.980e+00,2.484e+00,3.216e+00,2.618e+00,3.458e+00,2.881e+00,2.842e+00,3.253e+00,3.967e+00,4.139e+00,3.823e+00,4.070e+00,5.522e+00,6.001e+00,5.611e+00,5.149e+00,5.563e+00,5.464e+00,6.045e+00,4.907e+00,6.104e+00,5.798e+00,4.575e+00,6.321e+00,6.049e+00,5.342e+00,5.323e+00,4.923e+00,7.173e+00,5.655e+00,5.997e+00,6.077e+00,4.294e+00,6.093e+00,3.451e+00,4.550e+00,5.909e+00,4.942e+00,6.251e+00,6.697e+00,4.725e+00,4.891e+00,5.035e+00,5.378e+00,4.252e+00,6.358e+00,5.538e+00,6.110e+00,5.944e+00,4.884e+00,7.046e+00,5.653e+00,5.398e+00,6.835e+00,6.161e+00,4.009e+00,5.112e+00,5.473e+00,6.218e+00,6.130e+00,6.311e+00,5.458e+00,5.233e+00,6.714e+00,4.468e+00,6.058e+00,7.343e+00,3.829e+00,5.317e+00,6.739e+00,5.878e+00,5.004e+00,5.744e+00,6.427e+00,6.105e+00,6.668e+00,6.488e+00,5.026e+00,5.754e+00,4.185e+00,6.351e+00,5.184e+00,5.167e+00,5.655e+00,5.024e+00,4.914e+00,5.991e+00,4.972e+00,5.523e+00
2.998e-01,3.424e-01,2.554e-01,1.124e+00,1.749e+00,1.753e+00,2.889e+00,1.171e+00,3.059e+00,2.040e+00,3.796e+00,4.263e+00,4.901e+00,2.555e+00,3.147e+00,3.683e+00,4.936e+00,3.494e+00,4.154e+00,4.024e+00,5.634e+00,5.676e+00,5.055e+00,5.714e+00,6.366e+00,5.751e+00,6.574e+00,5.217e+00,5.552e+00,5.931e+00,5.611e+00,6.674e+00,6.909e+00,5.458e+00,5.071e+00,5.657e+00,7.374e+00,5.852e+00,6.197e+00,5.360e+00,5.298e+00,6.369e+00,3.383e+00,4.229e+00,7.341e+00,5.305e+00,6.123e+00,6.034e+00,4.604e+00,5.450e+00,4.257e+00,5.659e+00,4.876e+00,5.218e+00,6.018e+00,6.604e+00,5.702e+00,5.769e+00,5.340e+00,5.378e+00,6.642e+00,5.968e+00,6.542e+00,5.421e+00,5.325e+00,5.703e+00,6.178e+00,5.381e+00,6.981e+00,5.826e+00,5.480e+00,7.427e+00,5.867e+00,5.949e+00,5.925e+00,3.448e+00,5.057e+00,6.039e+00,6.152e+00,5.714e+00,6.777e+00,7.573e+00,5.057e+00,6.514e+00,5.740e+00,5.298e+00,4.869e+00,5.403e+00,6.169e+00,4.066e+00,5.675e+00,4.039e+00,5.146e+00,5.319e+00,6.120e+00,5.508e+00,4.838e+00
2.719e-01,3.957e-01,8.781e-01,1.873e+00,1.914e+00,2.173e+00,3.341e+00,1.809e+00,2.803e+00,2.294e+00,3.266e+00,2.319e+00,3.931e+00,2.440e+00,3.036e+00,2.852e+00,3.919e+00,3.400e+00,4.304e+00,3.709e+00,4.566e+00,4.403e+00,4.173e+00,5.104e+00,5.535e+00,4.811e+00,6.198e+00,5.493e+00,6.254e+00,6.259e+00,4.515e+00,5.584e+00,6.337e+00,5.623e+00,5.552e+00,6.366e+00,6.606e+00,4.684e+00,5.816e+00,5.150e+00,5.138e+00,5.946e+00,4.212e+00,4.633e+00,6.590e+00,5.302e+00,6.420e+00,5.488e+00,4.707e+00,4.458e+00,4.254e+00,5.934e+00,4.116e+00,6.079e+00,4.603e+00,5.010e+00,5.423e+00,4.173e+00,5.591e+00,5.663e+00,5.523e+00,6.518e+00,6.520e+00,4.387e+00,5.417e+00,5.212e+00,6.088e+00,5.727e+00,5.775e+00,4.782e+00,4.755e+00,6.300e+00,5.054e+00,5.398e+00,6.490e+00,4.328e+00,5.355e+00,5.582e+00,4.496e+00,6.295e+00,6.026e+00,5.910e+00,5.568e+00,6.227e+00,6.365e+00,4.584e+00,4.937e+00,3.934e+00,5.885e+00,4.495e+00,5.187e+00,4.861e+00,5.096e+00,4.057e+00,5.740e+00,4.660e+00,4.586e+00
4.056e-02,9.038e-02,3.625e-01,6.659e-01,6.852e-01,1.166e+00,1.841e+00,1.007e+00,1.570e+00,1.474e+00,2.970e+00,2.654e+00,3.133e+00,1.828e+00,2.495e+00,2.899e+00,3.677e+00,3.313e+00,3.743e+00,3.366e+00,5.194e+00,4.462e+00,4.538e+00,5.342e+00,5.443e+00,5.572e+00,7.642e+00,5.305e+00,6.571e+00,6.219e+00,5.987e+00,5.864e+00,6.442e+00,6.349e+00,5.380e+00,6.621e+00,8.139e+00,5.046e+00,6.412e+00,5.412e+00,5.401e+00,5.767e+00,3.510e+00,5.805e+00,6.876e+00,6.687e+00,7.304e+00,6.664e+00,5.944e+00,5.814e+00,5.340e+00,5.892e+00,4.724e+00,6.197e+00,5.269e+00,5.708e+00,6.255e+00,5.488e+00,5.729e+00,5.237e+00,6.248e+00,6.304e+00,6.503e+00,5.393e+00,5.737e+00,5.876e+00,5.676e+00,6.184e+00,7.279e+00,5.726e+00,5.349e+00,6.531e+00,5.504e+00,5.834e+00,5.977e+00,4.125e+00,5.252e+00,6.123e+00,6.293e+00,6.261e+00,7.298e+00,7.159e+00,5.814e+00,6.446e+00,6.712e+00,4.841e+00,5.718e+00,5.493e+00,6.674e+00,4.737e+00,6.132e+00,4.859e+00,5.545e+00,4.986e+00,6.744e+00,5.672e+00,4.870e+00
3.058e-01,4.218e-01,6.267e-01,1.621e+00,1.498e+00,1.631e+00,2.694e+00,1.368e+00,2.409e+00,2.175e+00,2.981e+00,2.278e+00,4.181e+00,2.674e+00,2.846e+00,2.759e+00,4.273e+00,3.395e+00,3.917e+00,3.770e+00,5.890e+00,4.762e+00,5.408e+00,6.641e+00,7.248e+00,6.178e+00,8.107e+00,6.324e+00,8.290e+00,7.755e+00,6.621e+00,7.425e+00,7.539e+00,7.671e+00,6.387e+00,7.990e+00,9.648e+00,5.786e+00,7.329e+00,6.147e+00,6.415e+00,6.952e+00,4.508e+00,5.868e+00,8.744e+00,7.044e+00,8.241e+00,8.211e+00,5.972e+00,6.204e+00,6.714e+00,7.726e+00,5.898e+00,7.072e+00,6.401e+00,6.428e+00,7.212e+00,5.571e+00,7.530e+00,6.081e+00,7.241e+00,7.734e+00,7.987e+00,5.517e+00,6.765e+00,6.768e+00,7.212e+00,7.407e+00,9.088e+00,6.823e+00,6.192e+00,7.753e+00,6.387e+00,6.579e+00,7.125e+00,6.238e+00,6.007e+00,7.473e+00,7.241e+00,7.583e+00,8.341e+00,7.592e+00,6.585e+00,8.780e+00,7.990e+00,6.306e+00,6.269e+00,5.460e+00,7.977e+00,6.348e+00,7.346e+00,5.791e+00,6.659e+00,5.499e+00,7.680e+00,6.186e+00,6.064e+00
1.374e-01,2.308e-01,7.903e-01,1.481e+00,1.624e+00,1.852e+00,2.935e+00,1.748e+00,2.311e+00,1.911e+00,3.210e+00,2.461e+00,3.286e+00,1.997e+00,2.765e+00,3.404e+00,4.004e+00,3.358e+00,4.508e+00,3.486e+00,4.411e+00,4.445e+00,4.380e+00,4.906e+00,5.856e+00,5.835e+00,6.429e+00,5.989e+00,6.825e+00,6.174e+00,5.848e+00,6.098e+00,6.067e+00,7.014e+00,6.131e+00,6.877e+00,6.737e+00,5.574e+00,6.169e+00,4.867e+00,4.948e+00,5.724e+00,4.655e+00,5.984e+00,7.825e+00,6.530e+00,6.456e+00,5.444e+00,5.582e+00,4.869e+00,5.892e+00,5.859e+00,4.235e+00,6.054e+00,5.729e+00,6.213e+00,6.473e+00,5.495e+00,5.002e+00,5.633e+00,6.538e+00,6.077e+00,6.721e+00,4.787e+00,5.598e+00,5.999e+00,6.879e+00,6.915e+00,7.245e+00,6.124e+00,5.600e+00,7.021e+00,4.951e+00,6.374e+00,7.214e+00,4.600e+00,5.608e+00,6.457e+00,5.353e+00,5.687e+00,6.919e+00,7.209e+00,6.260e+00,6.326e+00,7.387e+00,4.818e+00,5.227e+00,4.885e+00,5.775e+00,4.382e+00,5.710e+00,5.984e+00,6.030e+00,4.260e+00,7.090e+00,5.438e+00,4.382e+00
2.978e-02,1.136e-01,8.703e-01,1.323e+00,1.466e+00,1.997e+00,2.956e+00,2.007e+00,2.503e+00,2.454e+00,4.332e+00,3.818e+00,4.955e+00,3.475e+00,4.525e+00,4.848e+00,5.177e+00,5.340e+00,6.432e+00,4.770e+00,6.290e+00,6.115e+00,5.099e+00,6.064e+00,7.133e+00,6.617e+00,8.537e+00,7.966e+00,7.926e+00,7.655e+00,6.936e+00,7.384e+00,7.745e+00,8.028e+00,7.143e+00,7.681e+00,8.423e+00,6.713e+00,7.672e+00,7.971e+00,6.511e+00,7.444e+00,5.691e+00,7.287e+00,9.616e+00,8.462e+00,7.405e+00,7.929e+00,7.563e+00,5.962e+00,7.758e+00,7.815e+00,6.553e+00,8.212e+00,7.639e+00,7.371e+00,8.308e+00,7.093e+00,7.504e+00,7.546e+00,7.757e+00,8.116e+00,7.946e+00,6.540e+00,7.819e+00,7.842e+00,7.902e+00,8.999e+00,8.398e+00,7.363e+00,6.357e+00,8.480e+00,7.443e+00,8.078e+00,8.878e+00,5.939e+00,6.957e+00,7.650e+00,7.336e+00,7.663e+00,7.948e+00,8.559e+00,8.364e+00,8.073e+00,8.086e+00,7.524e+00,7.369e+00,7.387e+00,6.904e+00,6.345e+00,7.194e+00,6.728e+00,6.049e+00,6.319e+00,8.587e+00,7.220e+00,5.370e+00
1.172e-01,1.604e-01,2.989e-01,7.499e-01,8.989e-01,9.780e-01,1.596e+00,1.138e+00,1.719e+00,2.244e+00,3.473e+00,3.146e+00,4.254e+00,2.933e+00,3.250e+00,3.585e+00,3.824e+00,3.545e+00,4.404e+00,4.246e+00,5.754e+00,4.846e+00,4.457e+00,5.384e+00,6.212e+00,5.676e+00,7.229e+00,7.047e+00,7.086e+00,6.312e+00,7.105e+00,7.626e+00,6.618e+00,7.166e+00,6.227e+00,7.540e+00,9.119e+00,6.235e+00,7.700e+00,5.516e+00,6.491e+00,7.303e+00,4.919e+00,6.426e+00,9.599e+00,7.440e+00,7.588e+00,8.073e+00,7.482e+00,6.243e+00,7.689e+00,7.957e+00,6.026e+00,7.017e+00,7.200e+00,6.604e+00,7.391e+00,6.948e+00,6.528e+00,5.723e+00,6.609e+00,7.697e+00,7.390e+00,5.865e+00,6.726e+00,7.056e+00,7.301e+00,8.218e+00,8.926e+00,6.990e+00,5.951e+00,7.830e+00,6.553e+00,7.689e+00,6.677e+00,6.528e+00,6.058e+00,7.485e+00,7.367e+00,7.094e+00,7.972e+00,7.820e+00,7.317e+00,7.965e+00,6.978e+00,6.949e+00,6.922e+00,6.352e+00,6.395e+00,6.963e+00,7.160e+00,5.604e+00,6.250e+00,5.812e+00,8.285e+00,6.181e+00,5.192e+00
2.853e-01,3.982e-01,9.827e-01,1.898e+00,2.065e+00,2.379e+00,3.175e+00,1.633e+00,3.222e+00,2.732e+00,3.627e+00,3.917e+00,5.419e+00,3.216e+00,4.149e+00,4.303e+00,5.847e+00,5.165e+00,6.362e+00,4.781e+00,6.971e+00,6.967e+00,6.114e+00,7.375e+00,8.835e+00,8.236e+00,9.081e+00,8.789e+00,9.676e+00,9.509e+00,8.693e+00,9.298e+00,9.130e+00,9.122e+00,8.512e+00,8.771e+00,9.817e+00,8.097e+00,8.967e+00,8.250e+00,8.249e+00,9.701e+00,6.824e+00,7.348e+00,1.244e+01,9.393e+00,1.020e+01,9.622e+00,7.765e+00,7.655e+00,8.421e+00,9.086e+00,7.890e+00,8.873e+00,8.704e+00,8.673e+00,9.511e+00,9.349e+00,8.053e+00,7.977e+00,9.035e+00,9.196e+00,9.415e+00,7.351e+00,9.779e+00,9.235e+00,9.143e+00,1.001e+01,1.230e+01,9.576e+00,8.439e+00,1.105e+01,8.550e+00,8.646e+00,9.304e+00,7.951e+00,8.035e+00,9.510e+00,9.347e+00,8.674e+00,1.108e+01,1.015e+01,8.226e+00,1.095e+01,9.442e+00,8.690e+00,8.345e+00,8.698e+00,8.673e+00,7.593e+00,9.088e+00,7.584e+00,8.456e+00,7.046e+00,1.003e+01,8.495e+00,7.652e+00
7.478e-02,8.402e-02,3.130e-01,6.670e-01,1.238e+00,9.093e-01,1.841e+00,1.074e+00,1.948e+00,1.489e+00,3.203e+00,2.799e+00,3.976e+00,2.975e+00,2.843e+00,3.530e+00,4.192e+00,2.963e+00,4.346e+00,3.355e+00,3.988e+00,4.538e+00,3.770e+00,4.552e+00,5.412e+00,5.281e+00,6.995e+00,6.008e+00,7.449e+00,7.949e+00,7.736e+00,7.608e+00,7.068e+00,7.806e+00,7.731e+00,6.903e+00,7.776e+00,5.631e+00,7.941e+00,7.357e+00,6.382e+00,7.974e+00,5.886e+00,7.029e+00,9.192e+00,7.950e+00,7.754e+00,7.463e+00,7.318e+00,4.450e+00,7.744e+00,7.183e+00,6.423e+00,7.497e+00,6.378e+00,6.932e+00,7.846e+00,7.683e+00,6.939e+00,6.861e+00,6.540e+00,7.614e+00,7.136e+00,5.573e+00,7.716e+00,7.799e+00,7.347e+00,7.461e+00,8.115e+00,8.190e+00,6.581e+00,8.028e+00,7.045e+00,7.222e+00,8.649e+00,6.595e+00,5.472e+00,6.911e+00,6.329e+00,7.554e+00,7.425e+00,8.287e+00,7.515e+00,8.177e+00,7.644e+00,7.116e+00,7.354e+00,6.972e+00,6.192e+00,5.817e+00,7.006e+00,6.735e+00,6.773e+00,6.460e+00,7.925e+00,6.674e+00,5.094e+00
2.689e-01,3.044e-01,5.110e-02,7.678e-01,1.067e+00,8.441e-01,1.580e+00,9.013e-01,1.839e+00,1.519e+00,2.501e+00,1.911e+00,3.314e+00,2.219e+00,2.005e+00,3.124e+00,3.988e+00,2.462e+00,4.353e+00,2.666e+00,4.637e+00,4.308e+00,3.870e+00,5.171e+00,5.791e+00,4.178e+00,6.369e+00,5.204e+00,6.409e+00,6.723e+00,5.887e+00,5.702e+00,6.301e+00,7.202e+00,6.373e+00,6.928e+00,8.582e+00,6.135e+00,7.191e+00,6.113e+00,6.067e+00,5.963e+00,5.328e+00,5.831e+00,7.229e+00,6.962e+00,6.960e+00,6.091e+00,6.573e+00,4.623e+00,6.065e+00,6.395e+00,4.633e+00,5.891e+00,6.127e+00,5.947e+00,7.413e+00,5.356e+00,5.752e+00,6.879e+00,6.622e+00,7.566e+00,6.896e+00,4.940e+00,6.232e+00,7.500e+00,6.440e+00,7.256e+00,6.741e+00,6.252e+00,6.066e+00,6.422e+00,6.301e+00,5.531e+00,7.733e+00,5.471e+00,5.534e+00,5.383e+00,6.190e+00,6.293e+00,7.062e+00,7.079e+00,7.034e+00,6.218e+00,6.582e+00,5.493e+00,5.337e+00,5.210e+00,7.187e+00,5.270e+00,5.063e+00,6.076e+00,6.725e+00,6.313e+00,7.696e+00,6.319e+00,4.549e+00
2.186e-01,3.108e-01,7.806e-01,1.571e+00,1.819e+00,2.322e+00,3.234e+00,1.841e+00,3.197e+00,2.621e+00,4.154e+00,3.201e+00,4.590e+00,2.893e+00,3.535e+00,3.989e+00,5.449e+00,4.596e+00,5.736e+00,4.276e+00,5.868e+00,5.859e+00,5.848e+00,6.745e+00,7.612e+00,6.433e+00,8.150e+00,6.861e+00,8.325e+00,8.573e+00,7.760e+00,9.444e+00,8.449e+00,9.812e+00,8.533e+00,9.788e+00,1.031e+01,8.602e+00,1.003e+01,7.867e+00,7.510e+00,8.952e+00,6.229e+00,8.792e+00,1.142e+01,9.297e+00,9.212e+00,8.958e+00,7.902e+00,7.648e+00,1.021e+01,8.083e+00,7.230e+00,8.979e+00,8.523e+00,9.123e+00,9.069e+00,9.301e+00,8.157e+00,9.537e+00,8.140e+00,9.450e+00,9.224e+00,7.236e+00,8.513e+00,1.009e+01,9.467e+00,1.017e+01,1.040e+01,9.421e+00,7.404e+00,9.283e+00,8.006e+00,8.920e+00,9.927e+00,8.819e+00,8.090e+00,9.212e+00,9.266e+00,8.792e+00,9.534e+00,9.416e+00,9.685e+00,9.248e+00,9.572e+00,9.234e+00,8.112e+00,7.641e+00,7.913e+00,7.541e+00,8.168e+00,8.335e+00,8.209e+00,8.096e+00,1.001e+01,9.092e+00,7.078e+00
1.872e-01,2.880e-01,9.524e-01,1.714e+00,1.972e+00,2.567e+00,3.597e+00,1.950e+00,3.420e+00,3.136e+00,4.805e+00,3.835e+00,4.920e+00,3.387e+00,3.876e+00,4.051e+00,5.302e+00,4.336e+00,5.350e+00,4.629e+00,6.064e+00,5.855e+00,5.775e+00,5.811e+00,7.705e+00,6.627e+00,7.482e+00,7.751e+00,9.095e+00,8.655e+00,8.836e+00,1.007e+01,1.006e+01,1.090e+01,8.727e+00,1.074e+01,1.072e+01,9.379e+00,1.083e+01,8.173e+00,8.229e+00,9.742e+00,8.275e+00,8.928e+00,1.178e+01,1.032e+01,9.367e+00,9.721e+00,9.307e+00,8.003e+00,1.008e+01,1.004e+01,8.254e+00,9.839e+00,9.774e+00,9.988e+00,9.738e+00,1.011e+01,8.561e+00,9.569e+00,9.510e+00,1.028e+01,1.018e+01,8.293e+00,9.681e+00,1.066e+01,1.112e+01,1.050e+01,1.095e+01,1.061e+01,9.591e+00,1.077e+01,9.145e+00,1.099e+01,1.197e+01,9.541e+00,9.188e+00,9.908e+00,9.225e+00,9.556e+00,1.017e+01,1.128e+01,1.053e+01,1.039e+01,1.111e+01,9.389e+00,8.446e+00,8.763e+00,8.334e+00,8.274e+00,8.938e+00,9.640e+00,9.310e+00,8.082e+00,1.025e+01,9.560e+00,7.685e+00
7.816e-02,1.259e-01,3.603e-01,6.447e-01,5.720e-01,9.821e-01,1.536e+00,8.979e-01,1.702e+00,1.596e+00,2.686e+00,1.978e+00,3.147e+00,2.455e+00,2.519e+00,2.571e+00,3.593e+00,3.758e+00,3.981e+00,3.417e+00,5.676e+00,4.632e+00,4.805e+00,5.777e+00,6.005e+00,6.172e+00,7.188e+00,5.546e+00,7.503e+00,8.096e+00,7.138e+00,6.680e+00,7.313e+00,9.718e+00,8.719e+00,8.497e+00,1.016e+01,6.812e+00,9.175e+00,7.774e+00,7.206e+00,7.678e+00,6.558e+00,8.473e+00,9.653e+00,8.966e+00,9.081e+00,9.213e+00,7.717e+00,7.021e+00,8.763e+00,8.335e+00,6.310e+00,9.154e+00,7.905e+00,7.104e+00,8.835e+00,8.637e+00,8.558e+00,8.669e+00,7.060e+00,9.078e+00,9.327e+00,6.830e+00,8.752e+00,8.782e+00,8.559e+00,8.665e+00,1.020e+01,8.448e+00,8.123e+00,9.188e+00,8.572e+00,8.184e+00,1.026e+01,8.964e+00,6.661e+00,8.428e+00,7.369e+00,9.788e+00,8.912e+00,9.543e+00,9.183e+00,8.302e+00,9.443e+00,7.897e+00,7.015e+00,8.252e+00,7.869e+00,7.486e+00,7.126e+00,7.888e+00,7.779e+00,7.878e+00,8.692e+00,8.021e+00,6.409e+00
1.270e-01,1.828e-01,6.325e-01,9.737e-01,1.057e+00,1.598e+00,2.294e+00,1.057e+00,2.578e+00,2.154e+00,3.375e+00,2.658e+00,4.207e+00,3.242e+00,3.117e+00,3.462e+00,4.462e+00,3.778e+00,5.315e+00,4.371e+00,5.999e+00,5.680e+00,4.763e+00,6.040e+00,7.189e+00,6.491e+00,8.191e+00,7.369e+00,8.881e+00,8.332e+00,8.173e+00,9.122e+00,8.637e+00,1.006e+01,9.867e+00,1.039e+01,1.178e+01,8.309e+00,1.117e+01,9.264e+00,1.021e+01,9.993e+00,8.148e+00,8.928e+00,1.239e+01,1.010e+01,1.120e+01,1.051e+01,9.267e+00,7.552e+00,9.545e+00,1.037e+01,8.217e+00,9.880e+00,9.960e+00,9.733e+00,1.058e+01,1.046e+01,9.378e+00,9.221e+00,9.098e+00,1.116e+01,1.010e+01,8.439e+00,1.003e+01,1.071e+01,9.967e+00,1.123e+01,1.171e+01,9.759e+00,8.815e+00,1.078e+01,9.171e+00,1.030e+01,1.034e+01,9.692e+00,8.764e+00,9.227e+00,9.460e+00,1.052e+01,1.128e+01,1.184e+01,1.115e+01,1.058e+01,1.055e+01,8.954e+00,9.091e+00,9.217e+00,8.983e+00,9.406e+00,9.651e+00,8.793e+00,9.004e+00,9.783e+00,1.057e+01,9.177e+00,7.875e+00
1.036e-01,1.683e-01,6.280e-01,1.108e+00,1.262e+00,1.491e+00,2.179e+00,1.446e+00,2.217e+00,2.225e+00,3.688e+00,3.330e+00,4.149e+00,2.654e+00,3.308e+00,4.002e+00,4.520e+00,4.034e+00,4.818e+00,4.052e+00,5.153e+00,4.948e+00,4.998e+00,5.611e+00,6.467e+00,5.866e+00,7.382e+00,6.729e+00,8.245e+00,7.392e+00,7.520e+00,7.852e+00,7.581e+00,8.811e+00,7.703e+00,9.674e+00,9.806e+00,7.692e+00,9.570e+00,8.021e+00,7.701e+00,8.888e+00,7.279e+00,8.982e+00,1.113e+01,9.901e+00,9.559e+00,9.139e+00,8.798e+00,7.704e+00,1.007e+01,8.110e+00,7.581e+00,9.264e+00,9.344e+00,8.834e+00,9.870e+00,9.330e+00,7.662e+00,7.728e+00,9.013e+00,9.904e+00,8.782e+00,7.858e+00,8.578e+00,9.646e+00,9.975e+00,1.038e+01,1.106e+01,9.107e+00,7.319e+00,9.785e+00,8.532e+00,9.518e+00,1.013e+01,8.554e+00,6.895e+00,8.394e+00,9.573e+00,7.721e+00,9.911e+00,9.717e+00,9.858e+00,8.668e+00,9.826e+00,8.325e+00,8.400e+00,8.334e+00,7.552e+00,8.216e+00,8.269e+00,7.861e+00,8.376e+00,7.465e+00,1.026e+01,8.514e+00,6.444e+00
3.766e-02,8.502e-02,6.544e-01,8.788e-01,1.103e+00,1.918e+00,2.447e+00,1.037e+00,2.524e+00,1.586e+00,3.153e+00,3.326e+00,4.506e+00,2.850e+00,3.485e+00,3.125e+00,4.852e+00,4.432e+00,5.099e+00,3.956e+00,6.343e+00,5.451e+00,5.153e+00,6.290e+00,6.759e+00,6.884e+00,8.493e+00,6.852e+00,8.083e+00,7.919e+00,7.784e+00,9.041e+00,8.649e+00,1.011e+01,8.678e+00,9.016e+00,1.190e+01,9.056e+00,1.022e+01,9.189e+00,8.568e+00,9.434e+00,7.712e+00,9.277e+00,1.189e+01,1.097e+01,9.666e+00,1.087e+01,8.766e+00,8.184e+00,1.060e+01,1.068e+01,8.266e+00,1.011e+01,9.258e+00,9.187e+00,1.057e+01,9.773e+00,1.017e+01,1.004e+01,9.184e+00,1.027e+01,9.884e+00,8.411e+00,1.011e+01,1.080e+01,1.073e+01,1.045e+01,1.121e+01,1.014e+01,1.016e+01,1.099e+01,9.738e+00,9.495e+00,1.104e+01,9.744e+00,8.321e+00,1.029e+01,9.411e+00,1.060e+01,1.116e+01,1.085e+01,1.014e+01,1.102e+01,1.035e+01,1.013e+01,8.729e+00,1.045e+01,8.781e+00,8.169e+00,9.384e+00,8.285e+00,7.847e+00,9.706e+00,1.011e+01,9.677e+00,8.391e+00
2.173e-01,2.832e-01,4.827e-01,1.201e+00,1.519e+00,1.910e+00,3.013e+00,1.429e+00,2.870e+00,2.075e+00,3.638e+00,3.361e+00,3.912e+00,1.872e+00,2.953e+00,3.757e+00,4.157e+00,3.886e+00,4.709e+00,4.191e+00,5.173e+00,5.203e+00,4.286e+00,5.445e+00,6.380e+00,5.718e+00,7.069e+00,6.849e+00,7.625e+00,7.447e+00,6.850e+00,6.905e+00,7.594e+00,9.802e+00,8.516e+00,9.960e+00,1.051e+01,8.623e+00,1.023e+01,8.036e+00,9.141e+00,9.413e+00,8.981e+00,9.391e+00,1.260e+01,1.025e+01,9.463e+00,8.738e+00,8.882e+00,7.924e+00,9.727e+00,8.329e+00,8.266e+00,8.689e+00,9.122e+00,1.051e+01,1.039e+01,9.871e+00,7.900e+00,8.156e+00,1.026e+01,9.560e+00,1.022e+01,8.672e+00,9.697e+00,1.110e+01,9.942e+00,1.059e+01,1.120e+01,8.739e+00,8.313e+00,1.052e+01,1.032e+01,1.048e+01,9.768e+00,9.267e+00,7.827e+00,8.248e+00,9.564e+00,9.404e+00,1.083e+01,1.186e+01,9.882e+00,9.309e+00,9.820e+00,8.059e+00,7.958e+00,9.970e+00,7.699e+00,8.540e+00,8.080e+00,7.778e+00,8.372e+00,8.963e+00,1.068e+01,9.699e+00,7.491e+00
9.645e-02,1.873e-01,7.341e-01,1.337e+00,1.347e+00,1.433e+00,2.228e+00,1.740e+00,1.731e+00,2.234e+00,3.382e+00,3.250e+00,4.009e+00,2.896e+00,3.741e+00,4.289e+00,4.433e+00,4.475e+00,5.265e+00,4.285e+00,5.333e+00,5.568e+00,5.249e+00,5.789e+00,7.361e+00,7.071e+00,8.536e+00,7.855e+00,8.115e+00,7.717e+00,8.197e+00,7.761e+00,8.115e+00,1.077e+01,9.154e+00,1.057e+01,1.053e+01,8.846e+00,1.061e+01,9.042e+00,9.434e+00,1.008e+01,9.347e+00,1.100e+01,1.325e+01,1.230e+01,1.079e+01,1.037e+01,1.048e+01,9.023e+00,1.079e+01,1.151e+01,8.622e+00,1.133e+01,1.066e+01,1.048e+01,1.109e+01,1.120e+01,9.915e+00,9.376e+00,1.011e+01,1.119e+01,1.084e+01,9.758e+00,1.136e+01,1.043e+01,1.134e+01,1.145e+01,1.277e+01,1.051e+01,1.049e+01,1.218e+01,1.032e+01,1.056e+01,1.218e+01,1.029e+01,8.963e+00,9.836e+00,9.582e+00,1.122e+01,1.182e+01,1.316e+01,1.101e+01,9.805e+00,1.150e+01,1.006e+01,8.803e+00,1.048e+01,8.957e+00,9.090e+00,9.865e+00,9.331e+00,1.005e+01,8.794e+00,1.172e+01,1.065e+01,8.193e+00
2.214e-01,2.878e-01,6.563e-01,1.383e+00,1.872e+00,2.354e+00,3.426e+00,1.502e+00,3.426e+00,2.429e+00,4.318e+00,4.511e+00,5.638e+00,3.171e+00,3.974e+00,4.625e+00,5.564e+00,4.271e+00,5.830e+00,4.721e+00,6.723e+00,6.321e+00,5.308e+00,6.484e+00,7.537e+00,6.921e+00,8.422e+00,7.753e+00,8.898e+00,8.619e+00,8.414e+00,1.013e+01,9.368e+00,9.719e+00,8.593e+00,9.955e+00,1.207e+01,9.493e+00,1.109e+01,1.018e+01,1.018e+01,1.173e+01,8.902e+00,1.039e+01,1.353e+01,1.204e+01,1.201e+01,1.159e+01,9.777e+00,9.043e+00,1.105e+01,1.178e+01,9.860e+00,1.064e+01,1.123e+01,1.138e+01,1.132e+01,1.152e+01,1.018e+01,1.036e+01,1.132e+01,1.199e+01,1.055e+01,9.978e+00,1.136e+01,1.256e+01,1.200e+01,1.296e+01,1.310e+01,1.081e+01,1.112e+01,1.220e+01,1.089e+01,1.108e+01,1.153e+01,1.083e+01,9.813e+00,1.086e+01,1.139e+01,1.202e+01,1.352e+01,1.240e+01,1.104e+01,1.151e+01,1.178e+01,1.063e+01,9.694e+00,1.058e+01,8.764e+00,9.885e+00,9.745e+00,8.876e+00,1.048e+01,9.551e+00,1.176e+01,1.175e+01,9.727e+00
1.647e-01,2.764e-01,1.018e+00,1.526e+00,1.352e+00,2.491e+00,3.210e+00,1.396e+00,3.184e+00,2.584e+00,3.878e+00,3.403e+00,3.923e+00,2.857e+00,3.210e+00,3.402e+00,4.805e+00,4.196e+00,4.840e+00,4.579e+00,6.088e+00,6.095e+00,5.953e+00,5.867e+00,6.953e+00,6.700e+00,7.550e+00,7.053e+00,9.663e+00,7.896e+00,7.867e+00,9.373e+00,9.833e+00,1.058e+01,9.335e+00,1.070e+01,1.195e+01,1.099e+01,1.213e+01,1.050e+01,1.174e+01,1.195e+01,1.115e+01,1.094e+01,1.526e+01,1.284e+01,1.207e+01,1.277e+01,1.108e+01,9.755e+00,1.107e+01,1.204e+01,1.126e+01,1.191e+01,1.197e+01,1.307e+01,1.268e+01,1.290e+01,1.184e+01,1.181e+01,1.193e+01,1.327e+01,1.126e+01,1.060e+01,1.155e+01,1.308e+01,1.314e+01,1.300e+01,1.353e+01,1.105e+01,1.201e+01,1.452e+01,1.147e+01,1.330e+01,1.355e+01,1.130e+01,1.101e+01,1.144e+01,1.159e+01,1.122e+01,1.363e+01,1.461e+01,1.294e+01,1.210e+01,1.228e+01,1.089e+01,1.049e+01,1.215e+01,1.004e+01,1.069e+01,1.032e+01,1.039e+01,1.156e+01,1.099e+01,1.326e+01,1.175e+01,1.100e+01
2.718e-01,3.532e-01,5.803e-01,1.288e+00,1.357e+00,1.923e+00,2.567e+00,1.106e+00,2.891e+00,2.639e+00,3.699e+00,3.675e+00,4.560e+00,3.150e+00,3.294e+00,3.870e+00,5.099e+00,4.249e+00,5.045e+00,4.720e+00,6.772e+00,6.571e+00,6.009e+00,6.399e+00,7.770e+00,6.868e+00,8.031e+00,7.421e+00,8.749e+00,8.100e+00,8.304e+00,8.837e+00,8.886e+00,9.752e+00,8.729e+00,9.915e+00,1.202e+01,9.831e+00,1.072e+01,9.128e+00,9.516e+00,1.041e+01,9.221e+00,9.510e+00,1.320e+01,1.120e+01,1.125e+01,1.271e+01,1.117e+01,9.483e+00,1.007e+01,1.086e+01,9.930e+00,1.110e+01,1.073e+01,1.176e+01,1.183e+01,1.119e+01,1.035e+01,1.052e+01,1.194e+01,1.161e+01,1.155e+01,9.266e+00,1.156e+01,1.225e+01,1.141e+01,1.161e+01,1.326e+01,1.033e+01,1.029e+01,1.203e+01,1.088e+01,1.194e+01,1.280e+01,1.021e+01,9.398e+00,1.139e+01,1.073e+01,1.059e+01,1.207e+01,1.259e+01,1.143e+01,1.147e+01,1.132e+01,9.703e+00,9.547e+00,1.064e+01,1.015e+01,1.010e+01,9.164e+00,1.011e+01,1.079e+01,1.030e+01,1.222e+01,1.136e+01,9.661e+00
1.796e-01,2.193e-01,2.344e-01,9.664e-01,1.452e+00,9.710e-01,1.596e+00,1.061e+00,1.375e+00,1.537e+00,2.360e+00,2.679e+00,3.637e+00,2.188e+00,2.578e+00,2.409e+00,3.764e+00,2.819e+00,3.398e+00,3.336e+00,4.582e+00,4.014e+00,4.332e+00,4.775e+00,6.939e+00,5.520e+00,6.580e+00,5.431e+00,6.679e+00,7.225e+00,6.523e+00,7.604e+00,7.035e+00,9.109e+00,7.110e+00,8.926e+00,9.535e+00,7.269e+00,9.021e+00,6.311e+00,8.433e+00,8.535e+00,7.778e+00,8.360e+00,1.257e+01,1.068e+01,9.532e+00,1.065e+01,8.833e+00,8.465e+00,9.628e+00,9.822e+00,8.443e+00,1.084e+01,9.401e+00,9.354e+00,1.012e+01,1.031e+01,9.240e+00,9.993e+00,8.551e+00,1.000e+01,9.224e+00,7.852e+00,9.421e+00,9.492e+00,1.032e+01,8.998e+00,1.151e+01,9.231e+00,9.096e+00,1.066e+01,8.500e+00,9.626e+00,9.820e+00,9.994e+00,8.136e+00,9.472e+00,8.968e+00,9.385e+00,1.083e+01,1.077e+01,1.012e+01,9.602e+00,1.068e+01,9.169e+00,7.991e+00,9.437e+00,9.833e+00,7.963e+00,9.194e+00,8.326e+00,8.723e+00,9.014e+00,1.032e+01,8.485e+00,8.604e+00
1.749e-01,2.216e-01,3.772e-01,8.856e-01,1.054e+00,1.083e+00,1.467e+00,8.038e-01,1.593e+00,1.970e+00,2.489e+00,2.399e+00,3.286e+00,2.440e+00,2.426e+00,3.143e+00,3.058e+00,3.026e+00,3.743e+00,3.799e+00,4.254e+00,4.811e+00,4.207e+00,4.813e+00,5.421e+00,5.097e+00,6.857e+00,5.826e+00,5.516e+00,5.978e+00,6.158e+00,6.726e+00,5.690e+00,7.334e+00,8.131e+00,7.350e+00,9.614e+00,7.852e+00,9.194e+00,8.002e+00,8.996e+00,9.940e+00,8.370e+00,1.117e+01,1.338e+01,1.092e+01,1.174e+01,1.271e+01,1.151e+01,8.991e+00,1.051e+01,1.096e+01,1.005e+01,1.199e+01,1.024e+01,1.139e+01,1.120e+01,1.094e+01,1.193e+01,1.103e+01,1.063e+01,1.173e+01,1.127e+01,9.147e+00,1.116e+01,1.166e+01,9.695e+00,1.055e+01,1.168e+01,9.251e+00,1.112e+01,1.200e+01,9.786e+00,1.076e+01,1.137e+01,1.044e+01,8.887e+00,1.114e+01,9.349e+00,1.144e+01,1.069e+01,1.372e+01,1.023e+01,1.177e+01,1.084e+01,1.010e+01,1.026e+01,1.047e+01,9.061e+00,1.005e+01,9.679e+00,8.644e+00,1.037e+01,1.069e+01,1.214e+01,9.638e+00,9.129e+00
4.836e-02,7.493e-02,3.096e-01,4.640e-01,5.977e-01,1.223e+00,1.685e+00,6.405e-01,1.894e+00,1.634e+00,3.244e+00,3.842e+00,4.336e+00,2.522e+00,3.092e+00,3.694e+00,4.086e+00,3.636e+00,4.347e+00,4.048e+00,6.076e+00,5.322e+00,4.552e+00,5.519e+00,5.799e+00,6.326e+00,8.046e+00,6.586e+00,7.549e+00,7.074e+00,7.454e+00,7.683e+00,7.744e+00,8.291e+00,6.636e+00,8.597e+00,1.087e+01,7.003e+00,9.182e+00,8.542e+00,8.787e+00,9.605e+00,7.931e+00,1.040e+01,1.180e+01,1.264e+01,1.199e+01,1.296e+01,1.206e+01,1.069e+01,1.099e+01,1.104e+01,9.814e+00,1.263e+01,1.037e+01,1.024e+01,1.124e+01,1.140e+01,1.081e+01,1.103e+01,1.113e+01,1.224e+01,1.189e+01,1.048e+01,1.102e+01,1.257e+01,1.197e+01,1.116e+01,1.319e+01,1.067e+01,1.095e+01,1.283e+01,1.114e+01,1.078e+01,1.141e+01,1.134e+01,9.823e+00,1.115e+01,1.110e+01,1.226e+01,1.309e+01,1.297e+01,9.903e+00,1.091e+01,1.248e+01,1.010e+01,9.879e+00,1.108e+01,9.419e+00,9.452e+00,9.356e+00,9.191e+00,1.175e+01,9.510e+00,1.217e+01,1.026e+01,9.544e+00
3.064e-01,3.817e-01,4.235e-01,1.469e+00,1.936e+00,1.823e+00,2.746e+00,1.394e+00,2.373e+00,2.349e+00,3.178e+00,2.798e+00,4.179e+00,2.438e+00,2.922e+00,3.132e+00,3.514e+00,3.465e+00,4.314e+00,4.083e+00,5.077e+00,4.918e+00,4.152e+00,5.177e+00,5.680e+00,5.438e+00,6.162e+00,6.666e+00,6.226e+00,7.218e+00,6.035e+00,7.205e+00,6.701e+00,8.003e+00,7.797e+00,7.910e+00,9.455e+00,7.055e+00,9.060e+00,7.143e+00,8.086e+00,9.949e+00,8.576e+00,9.721e+00,1.254e+01,1.070e+01,1.132e+01,1.161e+01,1.147e+01,9.516e+00,1.101e+01,1.006e+01,9.604e+00,1.133e+01,1.042e+01,1.084e+01,1.032e+01,9.820e+00,1.099e+01,1.102e+01,1.091e+01,1.256e+01,1.170e+01,9.711e+00,1.085e+01,1.212e+01,1.150e+01,1.107e+01,1.167e+01,9.901e+00,1.069e+01,1.171e+01,1.007e+01,1.094e+01,1.258e+01,1.210e+01,8.747e+00,1.211e+01,9.637e+00,1.122e+01,1.140e+01,1.236e+01,1.027e+01,1.115e+01,1.201e+01,9.379e+00,9.604e+00,9.748e+00,8.683e+00,1.011e+01,9.252e+00,9.884e+00,1.044e+01,9.554e+00,1.167e+01,1.026e+01,9.982e+00
6.564e-02,1.513e-01,6.364e-01,9.953e-01,7.580e-01,1.687e+00,2.324e+00,1.520e+00,2.076e+00,2.541e+00,3.862e+00,3.000e+00,3.825e+00,3.108e+00,3.534e+00,4.203e+00,4.089e+00,4.609e+00,5.232e+00,3.734e+00,5.830e+00,5.866e+00,4.669e+00,5.183e+00,6.711e+00,6.004e+00,7.089e+00,6.986e+00,7.601e+00,7.228e+00,6.662e+00,7.499e+00,7.007e+00,8.257e+00,6.869e+00,8.273e+00,9.320e+00,7.994e+00,9.041e+00,8.534e+00,8.366e+00,8.951e+00,8.317e+00,9.962e+00,1.276e+01,1.165e+01,1.160e+01,1.217e+01,1.187e+01,1.074e+01,1.070e+01,1.111e+01,1.048e+01,1.354e+01,1.091e+01,1.085e+01,1.172e+01,1.209e+01,1.137e+01,1.207e+01,1.111e+01,1.320e+01,1.195e+01,9.456e+00,1.158e+01,1.270e+01,1.255e+01,1.206e+01,1.197e+01,1.087e+01,1.033e+01,1.265e+01,9.735e+00,1.079e+01,1.233e+01,1.154e+01,1.116e+01,1.153e+01,1.116e+01,1.088e+01,1.227e+01,1.328e+01,1.052e+01,1.156e+01,1.271e+01,1.108e+01,1.048e+01,1.079e+01,1.005e+01,9.441e+00,9.720e+00,1.077e+01,1.184e+01,9.383e+00,1.335e+01,1.113e+01,9.742e+00
1.526e-02,2.194e-02,2.318e-01,3.886e-01,8.075e-01,1.363e+00,1.840e+00,1.093e+00,2.037e+00,1.895e+00,3.533e+00,2.948e+00,3.264e+00,1.938e+00,2.631e+00,3.005e+00,3.115e+00,3.441e+00,3.731e+00,3.255e+00,4.873e+00,4.547e+00,3.641e+00,4.296e+00,5.299e+00,5.763e+00,6.980e+00,6.234e+00,6.347e+00,6.895e+00,7.222e+00,7.508e+00,7.309e+00,7.849e+00,6.542e+00,8.772e+00,9.794e+00,7.584e+00,8.683e+00,7.440e+00,8.045e+00,8.545e+00,7.695e+00,8.805e+00,1.195e+01,1.067e+01,9.820e+00,1.163e+01,1.166e+01,1.033e+01,1.125e+01,9.593e+00,9.545e+00,1.085e+01,1.021e+01,1.150e+01,1.079e+01,1.098e+01,1.084e+01,9.813e+00,1.067e+01,1.037e+01,1.079e+01,9.387e+00,1.031e+01,1.171e+01,1.032e+01,1.079e+01,1.121e+01,1.050e+01,9.141e+00,1.005e+01,1.069e+01,1.108e+01,1.122e+01,1.020e+01,8.731e+00,1.111e+01,1.097e+01,9.514e+00,1.016e+01,1.163e+01,1.021e+01,1.087e+01,1.142e+01,1.023e+01,9.917e+00,9.720e+00,8.739e+00,7.952e+00,1.073e+01,9.482e+00,9.786e+00,1.042e+01,1.146e+01,1.107e+01,9.602e+00
2.198e-01,2.825e-01,4.699e-01,1.140e+00,1.411e+00,1.930e+00,2.418e+00,1.044e+00,2.463e+00,1.961e+00,2.769e+00,3.102e+00,4.040e+00,2.165e+00,3.122e+00,3.423e+00,4.060e+00,4.540e+00,4.602e+00,3.222e+00,5.192e+00,5.794e+00,4.244e+00,5.524e+00,6.744e+00,6.640e+00,7.943e+00,7.729e+00,8.001e+00,8.006e+00,8.265e+00,8.326e+00,8.573e+00,9.680e+00,8.242e+00,1.037e+01,1.062e+01,7.855e+00,9.613e+00,9.379e+00,9.754e+00,1.024e+01,9.501e+00,1.019e+01,1.337e+01,1.230e+01,1.239e+01,1.326e+01,1.406e+01,1.251e+01,1.346e+01,1.224e+01,1.262e+01,1.432e+01,1.265e+01,1.169e+01,1.302e+01,1.276e+01,1.261e+01,1.242e+01,1.348e+01,1.445e+01,1.352e+01,1.214e+01,1.325e+01,1.472e+01,1.308e+01,1.318e+01,1.503e+01,1.353e+01,1.169e+01,1.367e+01,1.349e+01,1.162e+01,1.400e+01,1.475e+01,1.111e+01,1.239e+01,1.376e+01,1.192e+01,1.390e+01,1.464e+01,1.255e+01,1.349e+01,1.453e+01,1.183e+01,1.163e+01,1.211e+01,1.106e+01,1.177e+01,1.242e+01,1.161e+01,1.273e+01,1.242e+01,1.386e+01,1.361e+01,1.156e+01
1.232e-01,2.206e-01,9.531e-01,1.392e+00,1.269e+00,2.004e+00,2.780e+00,1.619e+00,2.912e+00,2.674e+00,4.264e+00,4.023e+00,4.874e+00,3.097e+00,3.809e+00,4.723e+00,5.192e+00,4.337e+00,5.845e+00,4.705e+00,6.389e+00,6.036e+00,5.637e+00,6.359e+00,6.933e+00,6.742e+00,7.939e+00,7.336e+00,7.869e+00,7.867e+00,8.173e+00,9.087e+00,8.179e+00,9.980e+00,8.997e+00,9.010e+00,1.130e+01,9.860e+00,1.065e+01,9.142e+00,1.014e+01,1.149e+01,9.362e+00,1.076e+01,1.384e+01,1.316e+01,1.236e+01,1.338e+01,1.320e+01,1.173e+01,1.343e+01,1.295e+01,1.267e+01,1.374e+01,1.358e+01,1.426e+01,1.407e+01,1.413e+01,1.239e+01,1.384e+01,1.377e+01,1.460e+01,1.386e+01,1.342e+01,1.286e+01,1.538e+01,1.502e+01,1.398e+01,1.568e+01,1.309e+01,1.291e+01,1.502e+01,1.357e+01,1.314e+01,1.486e+01,1.332e+01,1.333e+01,1.328e+01,1.404e+01,1.458e+01,1.521e+01,1.622e+01,1.279e+01,1.332e+01,1.479e+01,1.251e+01,1.207e+01,1.273e+01,1.004e+01,1.221e+01,1.095e+01,1.159e+01,1.391e+01,1.200e+01,1.544e+01,1.348e+01,1.131e+01
7.367e-02,1.072e-01,2.188e-01,6.775e-01,9.785e-01,1.077e+00,2.124e+00,1.318e+00,1.990e+00,2.293e+00,4.293e+00,3.080e+00,3.863e+00,2.441e+00,2.986e+00,3.677e+00,3.689e+00,3.961e+00,4.019e+00,3.332e+00,4.581e+00,4.811e+00,3.875e+00,4.955e+00,5.931e+00,4.761e+00,6.672e+00,6.143e+00,7.283e+00,7.185e+00,7.460e+00,7.046e+00,6.907e+00,7.956e+00,7.018e+00,9.192e+00,9.557e+00,7.704e+00,9.436e+00,6.524e+00,8.237e+00,9.780e+00,9.103e+00,9.760e+00,1.274e+01,1.093e+01,1.176e+01,1.257e+01,1.321e+01,1.034e+01,1.168e+01,1.111e+01,1.159e+01,1.286e+01,1.236e+01,1.227e+01,1.194e+01,1.363e+01,1.080e+01,1.157e+01,1.305e+01,1.278e+01,1.269e+01,1.105e+01,1.189e+01,1.353e+01,1.281e+01,1.151e+01,1.374e+01,1.247e+01,1.086e+01,1.353e+01,1.295e+01,1.170e+01,1.247e+01,1.223e+01,1.120e+01,1.207e+01,1.251e+01,1.174e+01,1.318e+01,1.448e+01,1.173e+01,1.178e+01,1.335e+01,1.082e+01,1.299e+01,1.125e+01,1.056e+01,1.146e+01,1.178e+01,8.866e+00,1.193e+01,1.096e+01,1.338e+01,1.123e+01,9.887e+00
1.561e-01,2.151e-01,5.944e-01,1.187e+00,1.517e+00,1.659e+00,2.149e+00,1.206e+00,2.184e+00,1.820e+00,2.659e+00,2.774e+00,4.003e+00,2.382e+00,3.142e+00,3.058e+00,4.574e+00,4.184e+00,4.881e+00,3.780e+00,5.095e+00,5.047e+00,4.992e+00,5.859e+00,7.450e+00,6.015e+00,7.066e+00,6.889e+00,7.406e+00,8.263e+00,7.700e+00,8.304e+00,7.976e+00,9.593e+00,8.288e+00,9.369e+00,1.047e+01,8.288e+00,9.862e+00,8.117e+00,8.996e+00,1.021e+01,9.027e+00,1.027e+01,1.404e+01,1.172e+01,1.146e+01,1.220e+01,1.201e+01,9.259e+00,1.187e+01,1.095e+01,1.101e+01,1.329e+01,1.230e+01,1.205e+01,1.216e+01,1.210e+01,1.110e+01,1.322e+01,1.253e+01,1.233e+01,1.274e+01,1.142e+01,1.314e+01,1.341e+01,1.257e+01,1.243e+01,1.408e+01,1.190e+01,1.126e+01,1.288e+01,1.203e+01,1.142e+01,1.318e+01,1.354e+01,1.017e+01,1.223e+01,1.229e+01,1.305e+01,1.347e+01,1.378e+01,1.269e+01,1.167e+01,1.309e+01,1.125e+01,1.055e+01,1.210e+01,1.111e+01,1.091e+01,9.919e+00,1.109e+01,1.153e+01,1.123e+01,1.291e+01,1.161e+01,9.717e+00
1.634e-01,2.504e-01,5.529e-01,1.135e+00,9.678e-01,1.445e+00,1.810e+00,1.100e+00,1.553e+00,2.218e+00,2.533e+00,1.906e+00,3.050e+00,2.621e+00,2.711e+00,3.081e+00,3.560e+00,3.766e+00,4.394e+00,3.776e+00,5.558e+00,5.283e+00,4.953e+00,5.593e+00,7.567e+00,6.626e+00,7.934e+00,7.699e+00,9.333e+00,8.233e+00,8.285e+00,8.993e+00,8.640e+00,1.076e+01,8.493e+00,1.146e+01,1.230e+01,9.529e+00,1.114e+01,9.286e+00,9.833e+00,1.037e+01,9.994e+00,1.192e+01,1.428e+01,1.379e+01,1.368e+01,1.444e+01,1.378e+01,1.289e+01,1.399e+01,1.400e+01,1.303e+01,1.565e+01,1.353e+01,1.507e+01,1.367e+01,1.378e+01,1.472e+01,1.429e+01,1.509e+01,1.562e+01,1.468e+01,1.205e+01,1.516e+01,1.639e+01,1.393e+01,1.443e+01,1.687e+01,1.473e+01,1.466e+01,1.545e+01,1.381e+01,1.434e+01,1.560e+01,1.614e+01,1.331e+01,1.621e+01,1.441e+01,1.551e+01,1.501e+01,1.600e+01,1.448e+01,1.460e+01,1.510e+01,1.319e+01,1.280e+01,1.356e+01,1.307e+01,1.414e+01,1.247e+01,1.393e+01,1.429e+01,1.333e+01,1.651e+01,1.531e+01,1.268e+01
2.792e-01,3.831e-01,8.292e-01,1.821e+00,2.132e+00,2.397e+00,3.024e+00,1.665e+00,2.821e+00,2.790e+00,3.414e+00,3.281e+00,4.218e+00,2.045e+00,3.296e+00,3.458e+00,4.100e+00,3.951e+00,4.919e+00,4.132e+00,5.494e+00,4.847e+00,5.115e+00,6.153e+00,7.157e+00,5.808e+00,7.932e+00,7.403e+00,7.413e+00,8.160e+00,7.639e+00,7.633e+00,8.091e+00,8.407e+00,8.537e+00,9.955e+00,1.131e+01,9.887e+00,1.035e+01,8.909e+00,9.764e+00,1.089e+01,9.392e+00,1.136e+01,1.451e+01,1.349e+01,1.383e+01,1.487e+01,1.488e+01,1.294e+01,1.253e+01,1.235e+01,1.307e+01,1.654e+01,1.465e+01,1.506e+01,1.466e+01,1.471e+01,1.466e+01,1.573e+01,1.524e+01,1.667e+01,1.604e+01,1.451e+01,1.542e+01,1.647e+01,1.541e+01,1.457e+01,1.599e+01,1.429e+01,1.491e+01,1.670e+01,1.446e+01,1.373e+01,1.677e+01,1.427e+01,1.317e+01,1.482e+01,1.569e+01,1.569e+01,1.615e+01,1.779e+01,1.386e+01,1.514e+01,1.523e+01,1.342e+01,1.428e+01,1.515e+01,1.411e+01,1.426e+01,1.240e+01,1.216e+01,1.472e+01,1.393e+01,1.720e+01,1.465e+01,1.289e+01
2.810e-01,3.283e-01,3.486e-01,9.753e-01,1.215e+00,1.580e+00,2.391e+00,7.078e-01,2.960e+00,1.814e+00,2.836e+00,3.020e+00,4.217e+00,2.526e+00,2.864e+00,3.097e+00,4.300e+00,4.222e+00,4.051e+00,4.192e+00,5.593e+00,5.989e+00,4.894e+00,5.988e+00,6.353e+00,6.284e+00,6.621e+00,6.583e+00,8.074e+00,8.174e+00,7.791e+00,8.249e+00,8.203e+00,8.521e+00,8.243e+00,8.585e+00,1.090e+01,7.757e+00,9.513e+00,8.855e+00,9.443e+00,1.098e+01,8.985e+00,9.636e+00,1.414e+01,1.172e+01,1.231e+01,1.387e+01,1.333e+01,1.153e+01,1.220e+01,1.239e+01,1.289e+01,1.524e+01,1.350e+01,1.451e+01,1.369e+01,1.524e+01,1.556e+01,1.489e+01,1.534e+01,1.553e+01,1.630e+01,1.336e+01,1.577e+01,1.580e+01,1.482e+01,1.411e+01,1.690e+01,1.346e+01,1.357e+01,1.734e+01,1.554e+01,1.418e+01,1.546e+01,1.548e+01,1.261e+01,1.597e+01,1.537e+01,1.561e+01,1.601e+01,1.625e+01,1.428e+01,1.493e+01,1.498e+01,1.333e+01,1.415e+01,1.468e+01,1.251e+01,1.490e+01,1.296e+01,1.212e+01,1.495e+01,1.393e+01,1.535e+01,1.467e+01,1.313e+01
1.409e-01,1.861e-01,2.208e-01,8.780e-01,1.189e+00,9.064e-01,2.082e+00,1.424e+00,1.741e+00,1.796e+00,3.267e+00,2.318e+00,3.369e+00,2.513e+00,2.765e+00,3.215e+00,3.499e+00,3.545e+00,3.974e+00,3.291e+00,4.455e+00,4.373e+00,4.301e+00,5.278e+00,6.468e+00,5.319e+00,7.104e+00,6.076e+00,7.391e+00,7.626e+00,7.567e+00,6.945e+00,6.948e+00,8.973e+00,8.420e+00,1.044e+01,9.944e+00,7.865e+00,9.996e+00,7.795e+00,8.993e+00,9.744e+00,1.014e+01,1.172e+01,1.367e+01,1.220e+01,1.326e+01,1.345e+01,1.422e+01,1.151e+01,1.258e+01,1.255e+01,1.201e+01,1.538e+01,1.415e+01,1.364e+01,1.430e+01,1.421e+01,1.394e+01,1.494e+01,1.511e+01,1.575e+01,1.487e+01,1.335e+01,1.507e+01,1.451e+01,1.469e+01,1.408e+01,1.621e+01,1.413e+01,1.364e+01,1.658e+01,1.458e+01,1.390e+01,1.596e+01,1.517e+01,1.172e+01,1.395e+01,1.337e+01,1.470e+01,1.509e+01,1.564e+01,1.447e+01,1.283e+01,1.509e+01,1.199e+01,1.243e+01,1.245e+01,1.227e+01,1.318e+01,1.244e+01,1.237e+01,1.421e+01,1.243e+01,1.579e+01,1.483e+01,1.115e+01
1.817e-02,5.009e-02,3.182e-01,4.210e-01,4.394e-01,1.404e+00,2.014e+00,6.632e-01,1.992e+00,1.509e+00,3.018e+00,2.672e+00,2.925e+00,1.820e+00,2.514e+00,3.323e+00,3.920e+00,4.655e+00,4.156e+00,3.524e+00,5.139e+00,6.059e+00,4.542e+00,5.318e+00,5.958e+00,5.951e+00,7.089e+00,6.171e+00,7.618e+00,8.171e+00,7.566e+00,7.587e+00,7.361e+00,9.325e+00,8.420e+00,8.230e+00,1.066e+01,8.540e+00,9.929e+00,8.850e+00,9.736e+00,1.060e+01,1.012e+01,1.016e+01,1.404e+01,1.273e+01,1.267e+01,1.364e+01,1.392e+01,1.187e+01,1.226e+01,1.182e+01,1.364e+01,1.608e+01,1.314e+01,1.506e+01,1.461e+01,1.597e+01,1.539e+01,1.559e+01,1.631e+01,1.558e+01,1.618e+01,1.435e+01,1.630e+01,1.679e+01,1.561e+01,1.424e+01,1.652e+01,1.494e+01,1.486e+01,1.813e+01,1.509e+01,1.551e+01,1.534e+01,1.571e+01,1.400e+01,1.478e+01,1.640e+01,1.488e+01,1.686e+01,1.908e+01,1.417e+01,1.649e+01,1.641e+01,1.399e+01,1.498e+01,1.517e+01,1.473e+01,1.404e+01,1.432e+01,1.404e+01,1.424e+01,1.410e+01,1.659e+01,1.597e+01,1.427e+01
2.929e-01,3.722e-01,4.935e-01,1.270e+00,1.356e+00,1.747e+00,2.128e+00,1.111e+00,2.456e+00,2.273e+00,2.755e+00,2.383e+00,3.823e+00,2.299e+00,2.579e+00,2.860e+00,4.382e+00,3.432e+00,4.619e+00,3.628e+00,5.878e+00,5.233e+00,5.297e+00,6.269e+00,6.791e+00,6.903e+00,7.354e+00,7.238e+00,7.966e+00,8.710e+00,7.810e+00,8.738e+00,8.179e+00,1.013e+01,8.985e+00,1.032e+01,1.156e+01,9.146e+00,1.026e+01,8.259e+00,9.451e+00,1.001e+01,8.955e+00,1.126e+01,1.486e+01,1.239e+01,1.301e+01,1.342e+01,1.305e+01,1.194e+01,1.300e+01,1.196e+01,1.185e+01,1.536e+01,1.377e+01,1.485e+01,1.583e+01,1.655e+01,1.565e+01,1.754e+01,1.569e+01,1.597e+01,1.723e+01,1.316e+01,1.747e+01,1.712e+01,1.646e+01,1.587e+01,1.836e+01,1.645e+01,1.485e+01,1.746e+01,1.635e+01,1.568e+01,1.702e+01,1.654e+01,1.439e+01,1.605e+01,1.644e+01,1.520e+01,1.829e+01,1.859e+01,1.583e+01,1.570e+01,1.730e+01,1.389e+01,1.415e+01,1.464e+01,1.669e+01,1.488e+01,1.327e+01,1.567e+01,1.602e+01,1.445e+01,1.708e+01,1.573e+01,1.455e+01
2.179e-01,3.017e-01,7.813e-01,1.379e+00,1.405e+00,1.675e+00,1.880e+00,1.309e+00,2.439e+00,2.256e+00,2.801e+00,3.185e+00,4.485e+00,2.648e+00,3.464e+00,3.580e+00,5.029e+00,4.146e+00,5.660e+00,4.431e+00,6.114e+00,5.392e+00,5.480e+00,6.527e+00,7.085e+00,7.331e+00,7.760e+00,8.042e+00,8.507e+00,8.398e+00,8.581e+00,8.798e+00,8.768e+00,1.055e+01,9.384e+00,9.920e+00,1.165e+01,8.935e+00,1.083e+01,8.838e+00,1.024e+01,1.112e+01,8.681e+00,1.044e+01,1.505e+01,1.340e+01,1.210e+01,1.343e+01,1.358e+01,1.181e+01,1.348e+01,1.242e+01,1.109e+01,1.469e+01,1.370e+01,1.458e+01,1.499e+01,1.574e+01,1.427e+01,1.567e+01,1.513e+01,1.626e+01,1.602e+01,1.486e+01,1.550e+01,1.610e+01,1.622e+01,1.715e+01,1.885e+01,1.368e+01,1.366e+01,1.690e+01,1.540e+01,1.569e+01,1.754e+01,1.534e+01,1.424e+01,1.590e+01,1.537e+01,1.531e+01,1.769e+01,1.793e+01,1.645e+01,1.508e+01,1.632e+01,1.385e+01,1.399e+01,1.588e+01,1.424e+01,1.457e+01,1.374e+01,1.454e+01,1.607e+01,1.414e+01,1.801e+01,1.489e+01,1.368e+01
2.310e-01,2.908e-01,4.105e-01,1.087e+00,1.351e+00,1.809e+00,2.483e+00,1.424e+00,2.886e+00,3.109e+00,4.675e+00,3.714e+00,4.701e+00,2.917e+00,3.298e+00,4.391e+00,4.550e+00,4.192e+00,5.431e+00,3.926e+00,6.555e+00,6.140e+00,5.088e+00,6.339e+00,7.066e+00,7.343e+00,8.644e+00,8.045e+00,9.205e+00,9.426e+00,9.022e+00,8.306e+00,9.083e+00,1.025e+01,9.288e+00,1.073e+01,1.219e+01,1.025e+01,1.158e+01,9.927e+00,1.034e+01,1.177e+01,1.098e+01,1.218e+01,1.474e+01,1.422e+01,1.380e+01,1.492e+01,1.504e+01,1.280e+01,1.391e+01,1.305e+01,1.341e+01,1.613e+01,1.455e+01,1.679e+01,1.691e+01,1.685e+01,1.624e+01,1.769e+01,1.849e+01,1.876e+01,1.841e+01,1.604e+01,1.800e+01,1.956e+01,1.792e+01,1.953e+01,2.046e+01,1.761e+01,1.736e+01,1.965e+01,1.798e+01,1.787e+01,1.981e+01,1.684e+01,1.522e+01,1.717e+01,1.732e+01,1.724e+01,1.924e+01,2.111e+01,1.674e+01,1.728e+01,1.861e+01,1.427e+01,1.591e+01,1.757e+01,1.727e+01,1.641e+01,1.426e+01,1.568e+01,1.835e+01,1.659e+01,1.956e+01,1.747e+01,1.653e+01
2.003e-01,2.552e-01,2.678e-01,1.047e+00,1.372e+00,1.033e+00,1.672e+00,1.263e+00,1.335e+00,1.787e+00,2.546e+00,2.770e+00,3.643e+00,2.372e+00,3.038e+00,3.787e+00,3.968e+00,4.135e+00,4.764e+00,4.665e+00,5.938e+00,5.972e+00,5.403e+00,6.271e+00,8.196e+00,7.497e+00,9.110e+00,7.726e+00,8.781e+00,8.953e+00,8.668e+00,8.769e+00,8.652e+00,1.080e+01,9.081e+00,9.619e+00,1.250e+01,8.814e+00,1.108e+01,8.173e+00,9.738e+00,1.056e+01,8.292e+00,1.010e+01,1.396e+01,1.304e+01,1.267e+01,1.335e+01,1.288e+01,1.131e+01,1.227e+01,1.318e+01,9.988e+00,1.467e+01,1.231e+01,1.378e+01,1.376e+01,1.415e+01,1.386e+01,1.393e+01,1.415e+01,1.559e+01,1.520e+01,1.344e+01,1.423e+01,1.515e+01,1.576e+01,1.450e+01,1.687e+01,1.376e+01,1.375e+01,1.615e+01,1.458e+01,1.443e+01,1.643e+01,1.424e+01,1.374e+01,1.583e+01,1.391e+01,1.595e+01,1.749e+01,1.846e+01,1.508e+01,1.535e+01,1.598e+01,1.461e+01,1.521e+01,1.458e+01,1.565e+01,1.340e+01,1.358e+01,1.415e+01,1.459e+01,1.481e+01,1.757e+01,1.362e+01,1.398e+01
1.176e-01,2.041e-01,5.856e-01,1.307e+00,1.419e+00,1.407e+00,2.728e+00,2.039e+00,2.240e+00,2.250e+00,4.278e+00,2.964e+00,4.103e+00,2.765e+00,3.637e+00,4.073e+00,5.020e+00,5.290e+00,5.552e+00,4.927e+00,6.108e+00,6.074e+00,6.143e+00,7.044e+00,7.446e+00,6.900e+00,8.644e+00,7.354e+00,9.143e+00,9.458e+00,8.034e+00,7.738e+00,9.181e+00,1.125e+01,1.038e+01,1.210e+01,1.235e+01,9.075e+00,1.181e+01,9.404e+00,1.073e+01,1.149e+01,1.203e+01,1.265e+01,1.575e+01,1.436e+01,1.391e+01,1.418e+01,1.619e+01,1.268e+01,1.430e+01,1.354e+01,1.260e+01,1.681e+01,1.601e+01,1.547e+01,1.666e+01,1.644e+01,1.709e+01,1.924e+01,1.844e+01,2.052e+01,1.876e+01,1.735e+01,1.885e+01,1.887e+01,2.011e+01,1.904e+01,2.076e+01,1.677e+01,1.600e+01,2.010e+01,1.812e+01,1.823e+01,2.038e+01,1.756e+01,1.602e+01,1.838e+01,1.734e+01,1.800e+01,1.990e+01,2.099e+01,2.043e+01,1.751e+01,2.114e+01,1.512e+01,1.675e+01,1.689e+01,1.823e+01,1.745e+01,1.565e+01,1.654e+01,1.788e+01,1.674e+01,1.994e+01,1.723e+01,1.655e+01
2.914e-01,3.535e-01,3.377e-01,1.139e+00,1.404e+00,1.664e+00,2.111e+00,8.970e-01,2.416e+00,1.979e+00,2.830e+00,3.028e+00,4.599e+00,2.595e+00,2.983e+00,3.095e+00,4.672e+00,3.795e+00,4.269e+00,3.340e+00,4.996e+00,5.111e+00,4.513e+00,5.601e+00,6.136e+00,5.013e+00,6.463e+00,5.695e+00,6.723e+00,6.984e+00,5.382e+00,7.022e+00,7.487e+00,8.825e+00,7.033e+00,8.003e+00,1.002e+01,8.108e+00,9.083e+00,8.088e+00,8.219e+00,9.646e+00,8.683e+00,9.320e+00,1.182e+01,1.144e+01,1.086e+01,1.241e+01,1.039e+01,1.097e+01,1.242e+01,1.215e+01,1.157e+01,1.502e+01,1.188e+01,1.345e+01,1.503e+01,1.415e+01,1.445e+01,1.529e+01,1.432e+01,1.613e+01,1.515e+01,1.403e+01,1.542e+01,1.585e+01,1.688e+01,1.451e+01,1.804e+01,1.446e+01,1.411e+01,1.731e+01,1.564e+01,1.384e+01,1.633e+01,1.488e+01,1.381e+01,1.397e+01,1.502e+01,1.519e+01,1.718e+01,1.677e+01,1.476e+01,1.524e+01,1.715e+01,1.473e+01,1.369e+01,1.523e+01,1.486e+01,1.407e+01,1.313e+01,1.358e+01,1.501e+01,1.385e+01,1.639e+01,1.562e+01,1.526e+01
2.315e-01,3.313e-01,6.497e-01,1.374e+00,1.206e+00,1.590e+00,2.243e+00,1.311e+00,2.278e+00,2.349e+00,3.050e+00,1.980e+00,3.539e+00,2.762e+00,2.761e+00,2.898e+00,3.941e+00,3.890e+00,4.141e+00,3.658e+00,4.929e+00,4.915e+00,5.078e+00,5.799e+00,6.687e+00,5.654e+00,6.908e+00,6.226e+00,8.691e+00,8.348e+00,7.297e+00,8.129e+00,7.857e+00,9.566e+00,8.413e+00,9.144e+00,1.065e+01,8.276e+00,1.069e+01,8.539e+00,8.876e+00,1.021e+01,9.123e+00,9.795e+00,1.313e+01,1.196e+01,1.196e+01,1.358e+01,1.330e+01,1.087e+01,1.267e+01,1.218e+01,1.218e+01,1.533e+01,1.258e+01,1.362e+01,1.373e+01,1.369e+01,1.473e+01,1.575e+01,1.546e+01,1.696e+01,1.600e+01,1.532e+01,1.654e+01,1.661e+01,1.838e+01,1.585e+01,1.885e+01,1.605e+01,1.477e+01,1.821e+01,1.554e+01,1.579e+01,1.894e+01,1.728e+01,1.415e+01,1.691e+01,1.467e+01,1.599e+01,1.846e+01,1.814e+01,1.632e+01,1.789e+01,1.794e+01,1.632e+01,1.662e+01,1.488e+01,1.574e+01,1.553e+01,1.474e+01,1.609e+01,1.739e+01,1.507e+01,1.839e+01,1.570e+01,1.594e+01
1.927e-01,2.458e-01,4.218e-01,9.490e-01,1.140e+00,1.562e+00,2.080e+00,1.155e+00,2.385e+00,1.956e+00,2.922e+00,2.602e+00,3.758e+00,2.193e+00,2.815e+00,2.820e+00,3.615e+00,3.385e+00,4.504e+00,2.937e+00,4.714e+00,4.712e+00,3.248e+00,4.650e+00,5.484e+00,5.519e+00,7.098e+00,7.256e+00,6.901e+00,7.741e+00,7.954e+00,7.527e+00,8.135e+00,9.593e+00,8.601e+00,1.016e+01,1.154e+01,8.882e+00,1.036e+01,8.338e+00,1.032e+01,1.076e+01,1.051e+01,9.822e+00,1.366e+01,1.243e+01,1.254e+01,1.293e+01,1.387e+01,1.183e+01,1.233e+01,1.341e+01,1.183e+01,1.479e+01,1.319e+01,1.426e+01,1.546e+01,1.504e+01,1.409e+01,1.522e+01,1.504e+01,1.769e+01,1.699e+01,1.529e+01,1.882e+01,1.874e+01,1.923e+01,1.591e+01,1.824e+01,1.710e+01,1.632e+01,1.864e+01,1.747e+01,1.670e+01,1.809e+01,1.751e+01,1.505e+01,1.714e+01,1.687e+01,1.777e+01,1.935e+01,1.943e+01,1.749e+01,1.765e+01,1.791e+01,1.586e+01,1.602e+01,1.700e+01,1.569e+01,1.461e+01,1.526e+01,1.647e+01,1.680e+01,1.648e+01,1.794e+01,1.685e+01,1.543e+01
2.910e-01,4.010e-01,9.140e-01,1.805e+00,1.892e+00,2.231e+00,2.847e+00,1.627e+00,3.119e+00,3.191e+00,3.884e+00,3.212e+00,4.492e+00,2.605e+00,3.406e+00,3.731e+00,4.959e+00,4.434e+00,5.642e+00,4.508e+00,6.327e+00,5.979e+00,5.921e+00,7.110e+00,8.190e+00,7.247e+00,8.515e+00,8.144e+00,9.043e+00,9.509e+00,8.842e+00,8.581e+00,9.327e+00,9.920e+00,9.944e+00,1.167e+01,1.208e+01,1.051e+01,1.160e+01,9.146e+00,1.099e+01,1.219e+01,1.058e+01,1.162e+01,1.571e+01,1.298e+01,1.507e+01,1.436e+01,1.275e+01,1.172e+01,1.171e+01,1.258e+01,1.224e+01,1.436e+01,1.402e+01,1.555e+01,1.460e+01,1.573e+01,1.341e+01,1.434e+01,1.651e+01,1.604e+01,1.623e+01,1.505e+01,1.802e+01,1.752e+01,1.764e+01,1.602e+01,2.088e+01,1.690e+01,1.646e+01,1.919e+01,1.753e+01,1.780e+01,1.754e+01,1.622e+01,1.447e+01,1.702e+01,1.637e+01,1.683e+01,1.947e+01,2.005e+01,1.719e+01,1.816e+01,1.716e+01,1.590e+01,1.700e+01,1.628e+01,1.655e+01,1.521e+01,1.555e+01,1.529e+01,1.716e+01,1.552e+01,1.754e+01,1.573e+01,1.493e+01
7.261e-02,1.503e-01,6.877e-01,1.169e+00,1.234e+00,1.602e+00,2.662e+00,1.611e+00,2.325e+00,1.845e+00,3.576e+00,3.222e+00,4.029e+00,2.441e+00,3.465e+00,3.407e+00,4.579e+00,4.502e+00,4.672e+00,4.689e+00,5.671e+00,5.259e+00,5.622e+00,6.279e+00,6.311e+00,6.252e+00,7.637e+00,6.332e+00,7.147e+00,7.238e+00,7.118e+00,8.025e+00,7.812e+00,9.181e+00,8.746e+00,9.822e+00,1.034e+01,8.262e+00,1.030e+01,7.707e+00,8.921e+00,9.952e+00,9.397e+00,1.008e+01,1.339e+01,1.130e+01,1.218e+01,1.186e+01,1.335e+01,1.222e+01,1.171e+01,1.262e+01,1.167e+01,1.608e+01,1.359e+01,1.326e+01,1.440e+01,1.477e+01,1.424e+01,1.668e+01,1.579e+01,1.705e+01,1.722e+01,1.713e+01,1.861e+01,1.701e+01,1.940e+01,1.681e+01,2.045e+01,1.794e+01,1.599e+01,1.914e+01,1.621e+01,1.746e+01,1.867e+01,1.690e+01,1.596e+01,1.766e+01,1.744e+01,1.847e+01,1.972e+01,2.006e+01,1.820e+01,1.851e+01,1.999e+01,1.602e+01,1.697e+01,1.677e+01,1.709e+01,1.636e+01,1.656e+01,1.625e+01,1.710e+01,1.446e+01,1.967e+01,1.715e+01,1.709e+01
1.808e-01,2.238e-01,2.672e-01,8.365e-01,1.128e+00,1.523e+00,2.070e+00,8.899e-01,2.255e+00,2.143e+00,3.392e+00,2.934e+00,3.586e+00,1.881e+00,2.442e+00,3.035e+00,3.698e+00,3.636e+00,3.836e+00,3.110e+00,4.885e+00,4.684e+00,4.534e+00,5.420e+00,5.836e+00,5.044e+00,6.712e+00,6.302e+00,7.157e+00,7.477e+00,7.490e+00,6.623e+00,7.952e+00,8.725e+00,7.085e+00,8.573e+00,9.866e+00,7.792e+00,9.325e+00,7.651e+00,8.033e+00,9.570e+00,9.280e+00,1.015e+01,1.138e+01,1.060e+01,1.197e+01,1.149e+01,1.246e+01,1.049e+01,1.206e+01,1.069e+01,1.151e+01,1.351e+01,1.151e+01,1.154e+01,1.396e+01,1.297e+01,1.267e+01,1.384e+01,1.459e+01,1.558e+01,1.429e+01,1.376e+01,1.604e+01,1.697e+01,1.674e+01,1.596e+01,1.849e+01,1.762e+01,1.591e+01,1.704e+01,1.572e+01,1.610e+01,1.831e+01,1.678e+01,1.450e+01,1.685e+01,1.653e+01,1.636e+01,1.774e+01,1.865e+01,1.577e+01,1.646e+01,1.777e+01,1.376e+01,1.565e+01,1.589e+01,1.516e+01,1.477e+01,1.412e+01,1.326e+01,1.695e+01,1.539e+01,1.730e+01,1.484e+01,1.513e+01
4.951e-02,1.408e-01,7.826e-01,1.170e+00,9.676e-01,1.547e+00,1.908e+00,1.378e+00,1.444e+00,2.147e+00,2.764e+00,2.654e+00,3.351e+00,2.828e+00,3.371e+00,3.596e+00,3.601e+00,4.350e+00,4.779e+00,4.063e+00,5.835e+00,5.630e+00,4.896e+00,5.223e+00,7.364e+00,7.505e+00,8.243e+00,7.846e+00,8.627e+00,7.918e+00,7.841e+00,8.083e+00,8.644e+00,9.821e+00,7.785e+00,1.088e+01,1.176e+01,8.999e+00,9.727e+00,9.909e+00,1.001e+01,9.986e+00,1.013e+01,1.107e+01,1.337e+01,1.377e+01,1.213e+01,1.455e+01,1.374e+01,1.325e+01,1.300e+01,1.397e+01,1.190e+01,1.613e+01,1.474e+01,1.476e+01,1.490e+01,1.453e+01,1.701e+01,1.605e+01,1.611e+01,1.825e+01,1.646e+01,1.506e+01,1.774e+01,1.873e+01,1.816e+01,1.773e+01,2.046e+01,1.791e+01,1.861e+01,2.056e+01,1.734e+01,1.967e+01,2.094e+01,1.851e+01,1.662e+01,1.887e+01,1.857e+01,1.829e+01,2.058e+01,2.058e+01,1.928e+01,1.794e+01,1.930e+01,1.645e+01,1.760e+01,1.863e+01,1.655e+01,1.655e+01,1.643e+01,1.745e+01,1.816e+01,1.853e+01,1.942e+01,1.830e+01,1.769e+01
1.929e-01,2.231e-01,2.230e-01,7.539e-01,1.068e+00,8.629e-01,1.254e+00,9.538e-01,1.637e+00,2.002e+00,2.768e+00,2.673e+00,3.542e+00,2.296e+00,2.495e+00,3.429e+00,3.518e+00,2.960e+00,4.554e+00,4.226e+00,5.665e+00,5.075e+00,4.493e+00,5.411e+00,6.337e+00,6.825e+00,7.908e+00,7.635e+00,8.295e+00,8.574e+00,8.606e+00,7.847e+00,8.458e+00,1.039e+01,9.576e+00,1.027e+01,1.227e+01,9.254e+00,1.132e+01,9.157e+00,1.126e+01,1.128e+01,1.160e+01,1.135e+01,1.515e+01,1.523e+01,1.374e+01,1.507e+01,1.637e+01,1.277e+01,1.367e+01,1.407e+01,1.298e+01,1.691e+01,1.452e+01,1.599e+01,1.622e+01,1.630e+01,1.610e+01,1.736e+01,1.706e+01,1.803e+01,1.760e+01,1.583e+01,1.725e+01,1.949e+01,1.977e+01,1.793e+01,2.187e+01,1.748e+01,1.925e+01,2.079e+01,1.884e+01,2.032e+01,2.072e+01,1.945e+01,1.674e+01,1.948e+01,1.754e+01,1.993e+01,2.003e+01,2.249e+01,2.003e+01,1.917e+01,1.889e+01,1.601e+01,1.660e+01,1.848e+01,1.781e+01,1.648e+01,1.686e+01,1.701e+01,1.983e+01,1.792e+01,2.105e+01,1.687e+01,1.819e+01
1.616e-01,2.701e-01,1.064e+00,1.758e+00,1.898e+00,2.449e+00,3.033e+00,1.806e+00,2.916e+00,2.460e+00,3.639e+00,3.636e+00,4.546e+00,2.431e+00,3.906e+00,3.410e+00,4.775e+00,4.802e+00,5.361e+00,3.818e+00,4.875e+00,5.394e+00,4.740e+00,5.827e+00,6.604e+00,7.131e+00,8.310e+00,8.211e+00,8.809e+00,8.226e+00,9.069e+00,8.735e+00,9.604e+00,1.017e+01,9.248e+00,1.142e+01,1.162e+01,9.746e+00,1.111e+01,9.230e+00,1.027e+01,1.191e+01,9.936e+00,1.184e+01,1.522e+01,1.432e+01,1.380e+01,1.450e+01,1.436e+01,1.249e+01,1.340e+01,1.320e+01,1.335e+01,1.572e+01,1.471e+01,1.584e+01,1.509e+01,1.739e+01,1.465e+01,1.682e+01,1.783e+01,1.895e+01,1.820e+01,1.740e+01,1.983e+01,1.933e+01,2.068e+01,1.745e+01,2.185e+01,1.848e+01,1.889e+01,2.222e+01,2.020e+01,2.117e+01,2.161e+01,1.872e+01,1.743e+01,2.234e+01,1.852e+01,2.122e+01,2.256e+01,2.412e+01,2.051e+01,2.057e+01,2.024e+01,1.817e+01,1.813e+01,1.949e+01,1.858e+01,1.854e+01,1.826e+01,1.677e+01,1.943e+01,1.902e+01,2.009e+01,1.805e+01,1.827e+01
1.560e-01,2.603e-01,9.140e-01,1.671e+00,1.831e+00,2.178e+00,2.881e+00,2.116e+00,2.624e+00,2.690e+00,4.035e+00,3.601e+00,5.302e+00,3.085e+00,4.469e+00,4.528e+00,5.469e+00,4.981e+00,6.860e+00,4.736e+00,6.486e+00,5.706e+00,5.046e+00,6.672e+00,7.501e+00,7.268e+00,8.745e+00,9.360e+00,9.704e+00,9.299e+00,7.870e+00,8.681e+00,9.688e+00,1.054e+01,8.518e+00,1.190e+01,1.191e+01,8.991e+00,1.037e+01,9.568e+00,1.014e+01,1.057e+01,9.967e+00,1.156e+01,1.439e+01,1.400e+01,1.268e+01,1.248e+01,1.318e+01,1.189e+01,1.350e+01,1.376e+01,1.198e+01,1.508e+01,1.406e+01,1.419e+01,1.549e+01,1.404e+01,1.443e+01,1.618e+01,1.636e+01,1.730e+01,1.540e+01,1.422e+01,1.734e+01,1.714e+01,1.915e+01,1.741e+01,2.050e+01,1.800e+01,1.712e+01,2.015e+01,1.974e+01,1.932e+01,1.991e+01,1.812e+01,1.710e+01,2.016e+01,1.831e+01,1.908e+01,2.087e+01,1.986e+01,1.910e+01,1.900e+01,2.047e+01,1.849e+01,1.804e+01,1.821e+01,1.757e+01,1.669e+01,1.601e+01,1.736e+01,1.897e+01,1.719e+01,1.978e+01,1.768e+01,1.774e+01
2.149e-01,3.077e-01,7.070e-01,1.478e+00,1.610e+00,2.029e+00,2.864e+00,1.600e+00,2.745e+00,2.726e+00,3.863e+00,3.475e+00,4.229e+00,2.611e+00,3.463e+00,3.436e+00,3.888e+00,4.612e+00,4.459e+00,4.984e+00,6.081e+00,5.742e+00,5.546e+00,5.995e+00,6.884e+00,6.413e+00,7.186e+00,6.683e+00,7.521e+00,7.858e+00,6.799e+00,7.912e+00,8.039e+00,8.712e+00,8.320e+00,8.820e+00,1.065e+01,8.763e+00,1.029e+01,8.639e+00,9.837e+00,1.075e+01,9.066e+00,9.971e+00,1.427e+01,1.179e+01,1.186e+01,1.278e+01,1.248e+01,1.198e+01,1.212e+01,1.197e+01,1.225e+01,1.578e+01,1.258e+01,1.461e+01,1.378e+01,1.414e+01,1.534e+01,1.627e+01,1.511e+01,1.772e+01,1.659e+01,1.582e+01,1.624e+01,1.748e+01,1.852e+01,1.657e+01,1.967e+01,1.743e+01,1.695e+01,2.013e+01,1.798e+01,2.013e+01,1.990e+01,1.840e+01,1.613e+01,1.987e+01,1.896e+01,1.944e+01,2.012e+01,2.165e+01,1.959e+01,1.960e+01,1.902e+01,1.747e+01,1.764e+01,1.808e+01,1.717e+01,1.771e+01,1.735e+01,1.628e+01,1.884e+01,1.874e+01,2.104e+01,1.633e+01,1.782e+01
3.042e-01,3.564e-01,4.700e-01,1.418e+00,2.159e+00,2.121e+00,2.830e+00,1.457e+00,3.074e+00,3.026e+00,4.224e+00,4.208e+00,4.927e+00,2.682e+00,3.404e+00,4.211e+00,4.846e+00,4.036e+00,5.237e+00,5.418e+00,6.428e+00,6.067e+00,6.419e+00,6.880e+00,8.616e+00,7.339e+00,8.714e+00,8.761e+00,9.384e+00,1.043e+01,1.002e+01,1.025e+01,1.083e+01,1.140e+01,9.679e+00,1.178e+01,1.306e+01,1.041e+01,1.263e+01,9.778e+00,1.011e+01,1.197e+01,1.024e+01,1.242e+01,1.498e+01,1.454e+01,1.437e+01,1.395e+01,1.564e+01,1.358e+01,1.466e+01,1.271e+01,1.277e+01,1.594e+01,1.467e+01,1.462e+01,1.535e+01,1.518e+01,1.524e+01,1.678e+01,1.692e+01,1.934e+01,1.733e+01,1.669e+01,1.804e+01,1.936e+01,2.020e+01,1.724e+01,2.094e+01,1.964e+01,1.876e+01,2.031e+01,1.944e+01,2.140e+01,2.239e+01,2.065e+01,1.556e+01,2.175e+01,2.002e+01,2.096e+01,2.188e+01,2.253e+01,1.948e+01,2.061e+01,2.124e+01,1.816e+01,1.887e+01,1.887e+01,1.739e+01,1.857e+01,1.689e+01,1.666e+01,2.003e+01,1.857e+01,2.150e+01,1.841e+01,1.866e+01
6.550e-02,1.034e-01,4.651e-01,9.022e-01,1.390e+00,1.762e+00,2.962e+00,1.662e+00,2.736e+00,2.376e+00,4.780e+00,4.214e+00,4.916e+00,2.953e+00,3.877e+00,4.732e+00,4.714e+00,4.496e+00,5.491e+00,5.118e+00,5.749e+00,5.895e+00,4.807e+00,5.819e+00,7.183e+00,6.214e+00,7.938e+00,7.182e+00,8.110e+00,7.920e+00,7.715e+00,9.258e+00,8.476e+00,1.052e+01,9.444e+00,1.116e+01,1.213e+01,9.566e+00,1.218e+01,8.568e+00,1.005e+01,1.106e+01,9.832e+00,1.173e+01,1.390e+01,1.276e+01,1.295e+01,1.256e+01,1.304e+01,1.203e+01,1.274e+01,1.304e+01,1.107e+01,1.500e+01,1.364e+01,1.448e+01,1.459e+01,1.430e+01,1.407e+01,1.540e+01,1.477e+01,1.667e+01,1.545e+01,1.480e+01,1.573e+01,1.695e+01,1.810e+01,1.684e+01,1.851e+01,1.636e+01,1.604e+01,1.930e+01,1.718e+01,1.904e+01,1.915e+01,1.876e+01,1.631e+01,1.788e+01,1.863e+01,1.807e+01,2.003e+01,2.037e+01,1.880e+01,1.817e+01,1.980e+01,1.671e+01,1.666e+01,1.670e+01,1.730e+01,1.618e+01,1.592e+01,1.777e+01,1.768e+01,1.731e+01,1.981e+01,1.773e+01,1.572e+01
1.672e-01,2.149e-01,3.916e-01,9.199e-01,1.180e+00,1.472e+00,1.824e+00,1.201e+00,2.104e+00,2.524e+00,3.563e+00,3.537e+00,4.350e+00,2.559e+00,3.214e+00,4.109e+00,4.088e+00,3.600e+00,5.054e+00,4.520e+00,6.162e+00,5.070e+00,4.611e+00,5.454e+00,6.546e+00,5.736e+00,6.796e+00,6.754e+00,6.886e+00,6.655e+00,6.290e+00,7.366e+00,6.689e+00,8.392e+00,7.463e+00,8.252e+00,1.050e+01,8.684e+00,9.643e+00,7.623e+00,8.715e+00,9.393e+00,7.159e+00,9.621e+00,1.301e+01,1.216e+01,1.047e+01,1.269e+01,1.156e+01,1.093e+01,1.206e+01,1.014e+01,1.021e+01,1.323e+01,1.250e+01,1.445e+01,1.367e+01,1.431e+01,1.247e+01,1.350e+01,1.266e+01,1.430e+01,1.476e+01,1.376e+01,1.335e+01,1.618e+01,1.590e+01,1.558e+01,1.797e+01,1.496e+01,1.455e+01,1.733e+01,1.509e+01,1.801e+01,1.656e+01,1.602e+01,1.444e+01,1.759e+01,1.851e+01,1.665e+01,1.961e+01,1.925e+01,1.770e+01,1.647e+01,1.745e+01,1.541e+01,1.629e+01,1.658e+01,1.441e+01,1.613e+01,1.531e+01,1.422e+01,1.598e+01,1.494e+01,1.940e+01,1.611e+01,1.600e+01
2.155e-01,3.316e-01,1.040e+00,1.929e+00,2.200e+00,2.758e+00,3.792e+00,2.299e+00,3.554e+00,3.207e+00,5.039e+00,4.429e+00,5.617e+00,3.196e+00,4.498e+00,4.594e+00,5.544e+00,5.057e+00,6.269e+00,5.546e+00,6.495e+00,6.375e+00,5.744e+00,6.574e+00,7.522e+00,7.653e+00,9.163e+00,9.205e+00,9.396e+00,8.497e+00,8.400e+00,9.382e+00,9.795e+00,1.127e+01,9.798e+00,1.126e+01,1.261e+01,1.090e+01,1.204e+01,9.214e+00,1.061e+01,1.193e+01,1.118e+01,1.156e+01,1.590e+01,1.488e+01,1.266e+01,1.444e+01,1.560e+01,1.253e+01,1.483e+01,1.449e+01,1.389e+01,1.728e+01,1.483e+01,1.721e+01,1.702e+01,1.516e+01,1.627e+01,1.757e+01,1.809e+01,1.916e+01,1.824e+01,1.679e+01,1.882e+01,1.911e+01,2.157e+01,1.844e+01,2.132e+01,1.875e+01,1.834e+01,2.237e+01,2.027e+01,2.170e+01,2.276e+01,1.915e+01,1.827e+01,2.308e+01,2.072e+01,2.124e+01,2.321e+01,2.279e+01,2.157e+01,2.134e+01,2.270e+01,1.871e+01,2.017e+01,1.913e+01,1.878e+01,1.864e+01,1.967e+01,1.916e+01,1.954e+01,1.932e+01,2.262e+01,1.979e+01,1.926e+01
2.032e-01,2.638e-01,2.873e-01,9.560e-01,1.095e+00,1.309e+00,2.068e+00,1.324e+00,2.200e+00,2.497e+00,3.972e+00,3.287e+00,4.047e+00,2.760e+00,3.061e+00,3.786e+00,4.344e+00,4.371e+00,4.560e+00,4.272e+00,6.186e+00,6.140e+00,5.800e+00,6.367e+00,6.960e+00,6.195e+00,8.098e+00,6.170e+00,7.771e+00,8.498e+00,7.284e+00,7.864e+00,8.113e+00,9.621e+00,8.993e+00,8.991e+00,1.118e+01,9.749e+00,1.130e+01,9.266e+00,9.765e+00,1.105e+01,1.001e+01,1.051e+01,1.372e+01,1.237e+01,1.278e+01,1.266e+01,1.176e+01,1.067e+01,1.198e+01,1.164e+01,1.215e+01,1.454e+01,1.231e+01,1.376e+01,1.354e+01,1.325e+01,1.439e+01,1.433e+01,1.310e+01,1.642e+01,1.457e+01,1.362e+01,1.567e+01,1.598e+01,1.709e+01,1.593e+01,2.039e+01,1.634e+01,1.640e+01,1.897e+01,1.692e+01,1.895e+01,1.957e+01,1.880e+01,1.703e+01,2.014e+01,2.077e+01,2.179e+01,2.064e+01,2.086e+01,1.935e+01,2.041e+01,2.149e+01,1.866e+01,1.893e+01,1.892e+01,1.786e+01,1.643e+01,1.670e+01,1.817e+01,1.957e+01,1.776e+01,2.124e+01,1.800e+01,1.870e+01
2.681e-01,3.123e-01,2.405e-01,1.174e+00,1.879e+00,1.818e+00,2.721e+00,1.457e+00,2.792e+00,2.945e+00,4.605e+00,3.912e+00,5.400e+00,3.104e+00,3.487e+00,3.939e+00,5.331e+00,4.083e+00,5.663e+00,4.418e+00,7.100e+00,6.013e+00,6.019e+00,7.365e+00,8.738e+00,6.894e+00,8.860e+00,8.459e+00,8.028e+00,1.024e+01,9.100e+00,9.550e+00,9.472e+00,1.031e+01,8.284e+00,1.029e+01,1.211e+01,9.474e+00,1.118e+01,8.258e+00,9.587e+00,1.075e+01,9.543e+00,1.076e+01,1.514e+01,1.152e+01,1.297e+01,1.284e+01,1.323e+01,1.092e+01,1.228e+01,1.098e+01,1.231e+01,1.375e+01,1.417e+01,1.488e+01,1.511e+01,1.407e+01,1.348e+01,1.607e+01,1.561e+01,1.536e+01,1.600e+01,1.434e+01,1.812e+01,1.643e+01,1.606e+01,1.656e+01,1.845e+01,1.880e+01,1.717e+01,1.901e+01,1.714e+01,1.881e+01,1.939e+01,1.743e+01,1.669e+01,2.071e+01,2.124e+01,1.905e+01,2.064e+01,2.173e+01,1.850e+01,2.043e+01,2.101e+01,1.777e+01,1.826e+01,1.880e+01,2.080e+01,1.606e+01,1.737e+01,1.767e+01,1.969e+01,1.948e+01,2.105e+01,1.794e+01,1.720e+01
2.764e-01,3.757e-01,5.462e-01,1.622e+00,1.882e+00,1.827e+00,2.671e+00,1.942e+00,2.257e+00,3.063e+00,4.046e+00,3.046e+00,4.354e+00,2.962e+00,3.403e+00,3.747e+00,3.586e+00,3.823e+00,4.767e+00,3.317e+00,5.533e+00,5.045e+00,4.469e+00,5.487e+00,6.691e+00,6.631e+00,7.972e+00,8.218e+00,7.322e+00,7.398e+00,7.965e+00,7.695e+00,8.246e+00,9.963e+00,8.155e+00,1.091e+01,1.110e+01,9.446e+00,1.021e+01,8.764e+00,9.623e+00,9.986e+00,1.024e+01,1.014e+01,1.363e+01,1.283e+01,1.205e+01,1.303e+01,1.335e+01,1.250e+01,1.357e+01,1.238e+01,1.193e+01,1.441e+01,1.382e+01,1.429e+01,1.470e+01,1.369e+01,1.407e+01,1.424e+01,1.440e+01,1.790e+01,1.533e+01,1.440e+01,1.535e+01,1.733e+01,1.913e+01,1.638e+01,1.945e+01,1.853e+01,1.641e+01,1.912e+01,1.732e+01,1.953e+01,2.082e+01,1.834e+01,1.642e+01,2.015e+01,1.972e+01,1.892e+01,2.012e+01,2.162e+01,1.982e+01,1.877e+01,2.042e+01,1.741e+01,1.717e+01,1.724e+01,1.852e+01,1.641e+01,1.798e+01,1.892e+01,1.828e+01,1.865e+01,2.083e+01,1.829e+01,1.826e+01
2.041e-01,2.538e-01,3.944e-01,8.748e-01,9.586e-01,1.191e+00,1.891e+00,8.458e-01,2.388e+00,2.194e+00,3.257e+00,3.126e+00,4.506e+00,3.162e+00,2.910e+00,3.118e+00,4.138e+00,2.902e+00,3.930e+00,3.653e+00,5.569e+00,4.968e+00,3.977e+00,4.777e+00,5.844e+00,5.781e+00,6.480e+00,6.489e+00,6.831e+00,7.176e+00,7.288e+00,8.183e+00,7.021e+00,8.255e+00,7.804e+00,1.000e+01,1.107e+01,7.576e+00,9.079e+00,8.235e+00,1.000e+01,9.691e+00,9.704e+00,8.402e+00,1.275e+01,1.153e+01,1.165e+01,1.341e+01,1.339e+01,1.178e+01,1.230e+01,1.238e+01,1.204e+01,1.438e+01,1.319e+01,1.277e+01,1.407e+01,1.360e+01,1.426e+01,1.355e+01,1.472e+01,1.729e+01,1.546e+01,1.479e+01,1.656e+01,1.734e+01,1.818e+01,1.528e+01,1.953e+01,1.734e+01,1.527e+01,1.858e+01,1.642e+01,1.846e+01,1.872e+01,1.844e+01,1.646e+01,1.933e+01,1.947e+01,1.852e+01,2.196e+01,2.174e+01,2.012e+01,2.168e+01,2.189e+01,1.763e+01,1.927e+01,1.902e+01,1.721e+01,1.821e+01,1.818e+01,2.050e+01,1.943e+01,1.990e+01,2.145e+01,2.014e+01,1.849e+01
2.204e-01,2.957e-01,7.353e-01,1.276e+00,1.351e+00,1.922e+00,2.508e+00,1.398e+00,3.042e+00,2.645e+00,3.718e+00,3.488e+00,4.784e+00,3.059e+00,3.578e+00,4.283e+00,4.931e+00,3.956e+00,5.866e+00,5.146e+00,6.562e+00,5.947e+00,5.130e+00,6.243e+00,7.407e+00,6.959e+00,8.195e+00,7.973e+00,8.860e+00,7.895e+00,7.616e+00,8.574e+00,8.684e+00,9.631e+00,9.019e+00,1.076e+01,1.168e+01,9.452e+00,1.127e+01,9.629e+00,1.071e+01,1.025e+01,1.016e+01,1.012e+01,1.370e+01,1.320e+01,1.235e+01,1.259e+01,1.369e+01,1.118e+01,1.188e+01,1.323e+01,1.233e+01,1.620e+01,1.318e+01,1.459e+01,1.433e+01,1.448e+01,1.493e+01,1.613e+01,1.711e+01,1.709e+01,1.746e+01,1.606e+01,1.781e+01,1.782e+01,1.896e+01,1.851e+01,2.172e+01,1.742e+01,1.687e+01,1.945e+01,1.827e+01,2.036e+01,2.020e+01,1.970e+01,1.872e+01,1.990e+01,1.990e+01,2.211e+01,2.353e+01,2.436e+01,2.132e+01,2.228e+01,2.297e+01,1.963e+01,2.084e+01,2.057e+01,1.971e+01,2.007e+01,1.896e+01,2.081e+01,2.230e+01,1.994e+01,2.495e+01,2.038e+01,2.094e+01
2.542e-01,2.945e-01,3.404e-01,9.531e-01,1.349e+00,1.826e+00,2.745e+00,1.299e+00,3.399e+00,2.388e+00,3.979e+00,2.794e+00,3.951e+00,2.283e+00,2.513e+00,3.021e+00,3.663e+00,2.968e+00,4.320e+00,2.722e+00,5.515e+00,4.446e+00,3.897e+00,5.575e+00,6.150e+00,6.953e+00,8.011e+00,7.835e+00,9.672e+00,8.932e+00,1.002e+01,8.667e+00,1.003e+01,1.141e+01,9.421e+00,1.228e+01,1.189e+01,9.261e+00,1.136e+01,9.870e+00,1.133e+01,1.034e+01,1.092e+01,1.172e+01,1.520e+01,1.397e+01,1.314e+01,1.396e+01,1.467e+01,1.209e+01,1.430e+01,1.322e+01,1.294e+01,1.510e+01,1.345e+01,1.387e+01,1.472e+01,1.516e+01,1.361e+01,1.583e+01,1.598e+01,1.668e+01,1.726e+01,1.627e+01,1.667e+01,1.939e+01,1.878e+01,1.767e+01,2.240e+01,1.910e+01,1.837e+01,2.135e+01,1.991e+01,2.096e+01,2.168e+01,2.086e+01,1.807e+01,2.217e+01,1.995e+01,2.274e+01,2.293e+01,2.461e+01,2.300e+01,2.367e+01,2.380e+01,2.134e+01,2.093e+01,2.231e+01,1.851e+01,1.887e+01,1.940e+01,2.113e+01,2.425e+01,2.209e+01,2.411e+01,2.071e+01,2.067e+01
2.201e-01,2.654e-01,5.176e-01,1.230e+00,1.893e+00,2.244e+00,3.558e+00,1.600e+00,3.724e+00,2.539e+00,4.694e+00,3.851e+00,5.038e+00,3.042e+00,3.486e+00,4.324e+00,5.197e+00,4.386e+00,5.548e+00,3.958e+00,5.900e+00,6.165e+00,5.034e+00,6.281e+00,7.410e+00,6.687e+00,8.208e+00,7.409e+00,8.247e+00,9.071e+00,9.015e+00,9.336e+00,8.867e+00,1.085e+01,1.045e+01,1.152e+01,1.172e+01,1.015e+01,1.171e+01,9.898e+00,1.040e+01,1.118e+01,1.134e+01,1.213e+01,1.505e+01,1.295e+01,1.444e+01,1.421e+01,1.475e+01,1.236e+01,1.431e+01,1.348e+01,1.411e+01,1.724e+01,1.598e+01,1.576e+01,1.667e+01,1.651e+01,1.609e+01,1.785e+01,1.711e+01,1.885e+01,1.807e+01,1.611e+01,1.881e+01,1.908e+01,1.997e+01,1.848e+01,2.180e+01,1.960e+01,1.799e+01,2.165e+01,1.912e+01,2.049e+01,2.226e+01,2.013e+01,1.894e+01,2.134e+01,2.169e+01,2.267e+01,2.111e+01,2.432e+01,2.114e+01,2.407e+01,2.575e+01,2.127e+01,2.130e+01,2.129e+01,2.051e+01,1.921e+01,1.898e+01,2.125e+01,2.249e+01,2.164e+01,2.445e+01,2.128e+01,1.990e+01
2.135e-01,2.588e-01,4.135e-01,1.104e+00,1.580e+00,1.638e+00,2.480e+00,1.297e+00,2.622e+00,2.250e+00,3.515e+00,2.676e+00,4.240e+00,2.791e+00,2.969e+00,3.799e+00,4.661e+00,3.658e+00,5.115e+00,4.143e+00,5.308e+00,5.107e+00,4.767e+00,5.843e+00,6.945e+00,5.931e+00,6.973e+00,7.100e+00,8.773e+00,8.727e+00,7.180e+00,8.000e+00,8.477e+00,1.036e+01,9.301e+00,1.008e+01,1.047e+01,8.590e+00,1.087e+01,9.671e+00,9.901e+00,1.054e+01,1.060e+01,1.194e+01,1.474e+01,1.390e+01,1.337e+01,1.406e+01,1.366e+01,1.132e+01,1.437e+01,1.224e+01,1.339e+01,1.713e+01,1.474e+01,1.549e+01,1.568e+01,1.603e+01,1.661e+01,1.726e+01,1.693e+01,1.871e+01,1.710e+01,1.565e+01,1.806e+01,1.841e+01,1.904e+01,1.867e+01,2.036e+01,1.708e+01,1.816e+01,2.125e+01,1.828e+01,2.110e+01,2.095e+01,2.095e+01,1.820e+01,2.098e+01,2.056e+01,2.180e+01,2.270e+01,2.569e+01,2.278e+01,2.318e+01,2.548e+01,2.099e+01,2.251e+01,2.324e+01,2.085e+01,2.202e+01,1.990e+01,2.209e+01,2.343e+01,2.160e+01,2.523e+01,2.160e+01,2.126e+01
2.182e-01,3.206e-01,9.466e-01,1.769e+00,2.021e+00,2.439e+00,3.688e+00,1.782e+00,3.379e+00,2.547e+00,3.957e+00,3.362e+00,5.030e+00,3.393e+00,3.888e+00,3.987e+00,5.579e+00,4.489e+00,5.964e+00,4.614e+00,6.338e+00,5.898e+00,5.654e+00,6.772e+00,8.671e+00,7.146e+00,7.896e+00,7.832e+00,9.786e+00,9.762e+00,8.805e+00,1.045e+01,9.144e+00,1.064e+01,9.280e+00,1.101e+01,1.132e+01,1.011e+01,1.162e+01,9.654e+00,1.054e+01,1.206e+01,1.089e+01,1.147e+01,1.654e+01,1.364e+01,1.369e+01,1.505e+01,1.289e+01,1.172e+01,1.306e+01,1.275e+01,1.333e+01,1.589e+01,1.452e+01,1.566e+01,1.497e+01,1.737e+01,1.555e+01,1.736e+01,1.714e+01,1.735e+01,1.772e+01,1.680e+01,2.009e+01,1.887e+01,2.002e+01,1.903e+01,2.271e+01,1.870e+01,1.771e+01,2.211e+01,1.803e+01,2.205e+01,2.098e+01,2.123e+01,2.031e+01,2.346e+01,2.120e+01,2.355e+01,2.537e+01,2.449e+01,2.318e+01,2.550e+01,2.538e+01,2.256e+01,2.302e+01,2.436e+01,2.188e+01,2.233e+01,2.096e+01,2.368e+01,2.497e+01,2.311e+01,2.665e+01,2.384e+01,2.314e+01
1.860e-01,2.128e-01,2.596e-01,7.869e-01,1.287e+00,1.683e+00,2.527e+00,1.042e+00,2.928e+00,2.099e+00,3.945e+00,3.677e+00,4.811e+00,2.449e+00,3.042e+00,3.644e+00,5.081e+00,3.674e+00,5.206e+00,3.785e+00,6.493e+00,5.374e+00,4.804e+00,6.369e+00,7.159e+00,6.337e+00,7.445e+00,6.928e+00,7.591e+00,8.465e+00,7.970e+00,8.060e+00,8.461e+00,9.604e+00,7.782e+00,9.058e+00,1.183e+01,9.152e+00,1.029e+01,8.419e+00,1.063e+01,1.109e+01,1.026e+01,9.700e+00,1.418e+01,1.289e+01,1.222e+01,1.344e+01,1.293e+01,1.080e+01,1.223e+01,1.246e+01,1.251e+01,1.399e+01,1.327e+01,1.522e+01,1.503e+01,1.567e+01,1.363e+01,1.575e+01,1.691e+01,1.572e+01,1.701e+01,1.742e+01,1.775e+01,1.835e+01,1.930e+01,1.695e+01,2.038e+01,1.789e+01,1.695e+01,1.945e+01,1.808e+01,1.897e+01,1.939e+01,1.816e+01,1.617e+01,1.967e+01,1.973e+01,2.029e+01,2.405e+01,2.256e+01,2.006e+01,2.028e+01,2.207e+01,1.905e+01,2.040e+01,2.244e+01,1.933e+01,1.965e+01,1.972e+01,1.955e+01,2.168e+01,2.127e+01,2.394e+01,2.175e+01,2.157e+01
5.370e-02,1.157e-01,5.308e-01,8.685e-01,8.040e-01,9.463e-01,1.658e+00,1.390e+00,1.641e+00,1.534e+00,2.830e+00,2.524e+00,3.540e+00,2.514e+00,3.211e+00,2.669e+00,3.374e+00,4.039e+00,4.047e+00,4.101e+00,5.531e+00,4.660e+00,4.651e+00,5.694e+00,5.883e+00,7.315e+00,8.802e+00,7.432e+00,8.705e+00,8.611e+00,8.986e+00,7.939e+00,9.106e+00,1.064e+01,9.563e+00,1.056e+01,1.261e+01,8.027e+00,1.093e+01,9.633e+00,1.034e+01,1.108e+01,9.397e+00,1.100e+01,1.434e+01,1.359e+01,1.270e+01,1.348e+01,1.351e+01,1.200e+01,1.400e+01,1.342e+01,1.159e+01,1.465e+01,1.264e+01,1.423e+01,1.489e+01,1.556e+01,1.555e+01,1.513e+01,1.454e+01,1.781e+01,1.732e+01,1.583e+01,1.757e+01,1.746e+01,1.924e+01,1.701e+01,2.015e+01,1.800e+01,1.663e+01,1.994e+01,1.921e+01,2.023e+01,2.093e+01,2.002e+01,1.775e+01,2.245e+01,2.103e+01,2.353e+01,2.348e+01,2.434e+01,2.241e+01,2.442e+01,2.584e+01,2.299e+01,2.331e+01,2.524e+01,2.143e+01,2.276e+01,2.152e+01,2.324e+01,2.266e+01,2.400e+01,2.736e+01,2.351e+01,2.213e+01
2.532e-01,2.945e-01,9.138e-02,1.061e+00,1.712e+00,1.154e+00,2.444e+00,1.541e+00,2.143e+00,1.922e+00,3.840e+00,3.653e+00,5.142e+00,3.216e+00,3.609e+00,4.158e+00,5.306e+00,3.954e+00,5.257e+00,4.631e+00,6.534e+00,5.972e+00,5.544e+00,6.893e+00,7.663e+00,6.838e+00,8.979e+00,7.381e+00,8.604e+00,9.219e+00,7.920e+00,8.874e+00,9.249e+00,9.511e+00,8.013e+00,9.491e+00,1.184e+01,8.448e+00,1.078e+01,9.465e+00,1.041e+01,1.120e+01,9.771e+00,9.590e+00,1.433e+01,1.277e+01,1.213e+01,1.337e+01,1.316e+01,1.048e+01,1.184e+01,1.293e+01,1.186e+01,1.407e+01,1.356e+01,1.470e+01,1.425e+01,1.382e+01,1.503e+01,1.572e+01,1.619e+01,1.566e+01,1.543e+01,1.629e+01,1.755e+01,1.637e+01,1.773e+01,1.721e+01,1.974e+01,1.725e+01,1.663e+01,2.020e+01,1.776e+01,1.957e+01,2.040e+01,1.808e+01,1.741e+01,2.113e+01,1.993e+01,2.055e+01,2.307e+01,2.289e+01,2.148e+01,2.212e+01,2.386e+01,2.101e+01,2.251e+01,2.102e+01,2.308e+01,2.017e+01,2.064e+01,2.186e+01,2.274e+01,2.183e+01,2.510e+01,2.247e+01,2.299e+01
2.480e-01,3.098e-01,6.065e-01,1.450e+00,1.993e+00,1.712e+00,2.429e+00,1.506e+00,2.509e+00,2.251e+00,3.167e+00,3.673e+00,4.888e+00,2.644e+00,3.696e+00,4.144e+00,4.480e+00,4.077e+00,5.230e+00,4.476e+00,4.972e+00,5.345e+00,4.127e+00,5.230e+00,6.726e+00,6.019e+00,7.050e+00,7.156e+00,7.075e+00,8.002e+00,6.908e+00,7.501e+00,7.720e+00,9.514e+00,8.763e+00,9.111e+00,1.014e+01,8.227e+00,9.506e+00,8.428e+00,9.678e+00,1.049e+01,9.649e+00,1.017e+01,1.357e+01,1.320e+01,1.141e+01,1.322e+01,1.283e+01,1.124e+01,1.297e+01,1.341e+01,1.178e+01,1.607e+01,1.334e+01,1.456e+01,1.464e+01,1.586e+01,1.533e+01,1.681e+01,1.468e+01,1.675e+01,1.684e+01,1.550e+01,1.646e+01,1.808e+01,1.876e+01,1.583e+01,1.985e+01,1.715e+01,1.749e+01,2.050e+01,1.886e+01,1.956e+01,2.072e+01,1.969e+01,1.759e+01,2.105e+01,2.015e+01,2.195e+01,2.238e+01,2.514e+01,2.251e+01,2.309e+01,2.411e+01,2.169e+01,2.234e+01,2.416e+01,2.243e+01,2.285e+01,2.041e+01,2.347e+01,2.405e+01,2.376e+01,2.819e+01,2.278e+01,2.204e+01
2.027e-01,2.670e-01,6.761e-01,1.389e+00,1.917e+00,2.308e+00,2.756e+00,1.504e+00,2.806e+00,2.204e+00,3.397e+00,4.065e+00,4.696e+00,2.153e+00,3.740e+00,4.237e+00,5.235e+00,4.845e+00,5.943e+00,5.010e+00,6.099e+00,6.297e+00,5.214e+00,6.019e+00,6.934e+00,6.730e+00,7.994e+00,7.663e+00,7.966e+00,9.115e+00,7.826e+00,8.775e+00,9.215e+00,1.011e+01,9.266e+00,9.943e+00,1.149e+01,8.591e+00,1.085e+01,9.912e+00,1.027e+01,1.093e+01,8.859e+00,1.070e+01,1.373e+01,1.314e+01,1.193e+01,1.237e+01,1.422e+01,1.148e+01,1.251e+01,1.137e+01,1.137e+01,1.442e+01,1.297e+01,1.388e+01,1.389e+01,1.452e+01,1.374e+01,1.646e+01,1.550e+01,1.580e+01,1.586e+01,1.554e+01,1.659e+01,1.767e+01,1.744e+01,1.705e+01,1.860e+01,1.675e+01,1.635e+01,1.823e+01,1.799e+01,2.025e+01,2.020e+01,1.885e+01,1.733e+01,2.159e+01,2.101e+01,2.047e+01,2.165e+01,2.372e+01,2.119e+01,2.277e+01,2.407e+01,2.030e+01,2.154e+01,2.302e+01,2.223e+01,2.091e+01,2.079e+01,2.295e+01,2.285e+01,2.269e+01,2.642e+01,2.292e+01,2.302e+01
2.855e-02,4.823e-02,4.212e-01,4.882e-01,7.181e-01,1.455e+00,1.795e+00,8.931e-01,2.115e+00,1.418e+00,2.565e+00,2.359e+00,2.753e+00,1.569e+00,2.218e+00,2.509e+00,2.899e+00,2.739e+00,4.018e+00,2.700e+00,4.697e+00,3.823e+00,3.199e+00,4.357e+00,5.045e+00,6.164e+00,6.938e+00,6.571e+00,6.612e+00,6.251e+00,7.463e+00,6.948e+00,7.375e+00,8.684e+00,7.021e+00,9.640e+00,1.001e+01,7.899e+00,8.982e+00,7.605e+00,9.064e+00,8.039e+00,8.651e+00,9.803e+00,1.280e+01,1.237e+01,1.035e+01,1.215e+01,1.373e+01,1.186e+01,1.186e+01,1.193e+01,1.114e+01,1.355e+01,1.327e+01,1.368e+01,1.366e+01,1.449e+01,1.359e+01,1.537e+01,1.541e+01,1.447e+01,1.606e+01,1.497e+01,1.575e+01,1.814e+01,1.798e+01,1.572e+01,1.951e+01,1.774e+01,1.820e+01,1.970e+01,1.800e+01,1.999e+01,1.913e+01,1.922e+01,1.777e+01,2.058e+01,1.909e+01,2.036e+01,2.131e+01,2.244e+01,2.061e+01,2.246e+01,2.256e+01,1.949e+01,2.237e+01,2.333e+01,2.017e+01,1.906e+01,2.049e+01,2.154e+01,2.250e+01,2.223e+01,2.499e+01,2.108e+01,2.167e+01
2.931e-01,3.827e-01,5.913e-01,1.502e+00,1.741e+00,2.291e+00,3.327e+00,1.627e+00,3.213e+00,2.904e+00,4.120e+00,3.543e+00,4.959e+00,3.033e+00,3.748e+00,4.445e+00,4.313e+00,4.478e+00,5.520e+00,4.027e+00,5.828e+00,5.878e+00,3.984e+00,5.574e+00,7.218e+00,6.041e+00,7.270e+00,8.157e+00,8.064e+00,8.158e+00,7.499e+00,8.153e+00,7.641e+00,1.008e+01,9.208e+00,1.107e+01,1.176e+01,9.697e+00,1.109e+01,9.783e+00,9.818e+00,1.030e+01,1.015e+01,1.091e+01,1.433e+01,1.266e+01,1.224e+01,1.306e+01,1.381e+01,1.244e+01,1.281e+01,1.268e+01,1.326e+01,1.545e+01,1.464e+01,1.563e+01,1.613e+01,1.649e+01,1.519e+01,1.693e+01,1.812e+01,1.868e+01,1.891e+01,1.647e+01,2.011e+01,2.019e+01,2.077e+01,1.882e+01,2.200e+01,1.959e+01,1.784e+01,2.160e+01,2.069e+01,2.131e+01,2.145e+01,2.106e+01,1.850e+01,2.198e+01,2.176e+01,2.150e+01,2.380e+01,2.494e+01,2.235e+01,2.354e+01,2.385e+01,2.025e+01,2.179e+01,2.388e+01,2.235e+01,2.321e+01,2.087e+01,2.400e+01,2.386e+01,2.465e+01,2.640e+01,2.525e+01,2.397e+01
5.555e-02,6.942e-02,8.361e-02,2.680e-01,4.303e-01,9.874e-01,1.599e+00,9.164e-01,2.000e+00,2.302e+00,4.115e+00,2.900e+00,3.864e+00,3.000e+00,2.731e+00,3.033e+00,3.681e+00,3.243e+00,4.043e+00,3.076e+00,6.017e+00,4.776e+00,4.042e+00,4.881e+00,6.168e+00,5.527e+00,6.641e+00,6.411e+00,7.294e+00,7.530e+00,7.499e+00,7.458e+00,7.825e+00,9.042e+00,7.123e+00,9.530e+00,1.131e+01,8.194e+00,9.818e+00,8.066e+00,8.215e+00,8.510e+00,8.271e+00,9.981e+00,1.277e+01,1.149e+01,1.125e+01,1.278e+01,1.252e+01,1.087e+01,1.178e+01,1.078e+01,1.148e+01,1.224e+01,1.309e+01,1.421e+01,1.396e+01,1.337e+01,1.344e+01,1.414e+01,1.473e+01,1.630e+01,1.468e+01,1.299e+01,1.683e+01,1.653e+01,1.679e+01,1.577e+01,1.768e+01,1.627e+01,1.583e+01,1.786e+01,1.663e+01,1.925e+01,1.803e+01,1.741e+01,1.614e+01,2.010e+01,1.917e+01,1.946e+01,2.050e+01,2.099e+01,2.014e+01,2.113e+01,2.220e+01,1.858e+01,2.026e+01,2.180e+01,2.000e+01,2.023e+01,1.816e+01,2.181e+01,2.170e+01,2.277e+01,2.376e+01,2.106e+01,2.043e+01
1.821e-01,2.644e-01,6.892e-01,1.326e+00,1.494e+00,2.122e+00,2.491e+00,1.314e+00,2.363e+00,1.960e+00,2.692e+00,2.647e+00,3.482e+00,1.649e+00,2.688e+00,2.239e+00,3.340e+00,3.302e+00,4.087e+00,3.394e+00,4.823e+00,4.089e+00,3.881e+00,4.785e+00,5.344e+00,5.712e+00,6.868e+00,6.635e+00,6.068e+00,6.561e+00,5.996e+00,6.520e+00,7.816e+00,9.164e+00,6.812e+00,8.494e+00,9.761e+00,7.077e+00,8.653e+00,7.268e+00,7.939e+00,7.898e+00,7.604e+00,8.031e+00,1.072e+01,1.073e+01,8.832e+00,9.704e+00,1.087e+01,1.041e+01,1.178e+01,9.870e+00,9.370e+00,1.239e+01,9.863e+00,1.196e+01,1.266e+01,1.032e+01,1.208e+01,1.400e+01,1.332e+01,1.502e+01,1.412e+01,1.440e+01,1.390e+01,1.680e+01,1.709e+01,1.463e+01,1.780e+01,1.588e+01,1.617e+01,1.744e+01,1.577e+01,1.821e+01,1.879e+01,1.812e+01,1.606e+01,1.869e+01,1.743e+01,1.987e+01,2.062e+01,2.086e+01,2.003e+01,2.155e+01,2.102e+01,1.813e+01,1.867e+01,2.099e+01,1.865e+01,1.915e+01,1.750e+01,2.210e+01,2.014e+01,2.133e+01,2.547e+01,2.186e+01,2.175e+01
2.949e-02,1.148e-01,7.663e-01,1.290e+00,1.403e+00,1.598e+00,2.603e+00,1.902e+00,1.884e+00,1.871e+00,3.447e+00,2.713e+00,3.246e+00,2.074e+00,3.206e+00,2.964e+00,3.464e+00,3.753e+00,4.280e+00,3.291e+00,4.222e+00,3.798e+00,3.814e+00,4.411e+00,5.309e+00,4.482e+00,6.263e+00,5.468e+00,6.419e+00,6.257e+00,5.847e+00,5.942e+00,6.710e+00,7.532e+00,7.464e+00,8.728e+00,8.965e+00,8.465e+00,9.380e+00,8.093e+00,9.303e+00,9.654e+00,1.002e+01,1.019e+01,1.337e+01,1.214e+01,1.176e+01,1.211e+01,1.334e+01,1.095e+01,1.166e+01,1.154e+01,1.180e+01,1.458e+01,1.240e+01,1.347e+01,1.385e+01,1.388e+01,1.366e+01,1.553e+01,1.533e+01,1.685e+01,1.504e+01,1.639e+01,1.665e+01,1.773e+01,1.856e+01,1.656e+01,1.808e+01,1.594e+01,1.569e+01,1.901e+01,1.751e+01,1.917e+01,1.996e+01,1.865e+01,1.785e+01,1.954e+01,1.857e+01,1.955e+01,2.212e+01,2.232e+01,2.085e+01,2.127e+01,2.218e+01,1.976e+01,2.083e+01,2.261e+01,1.927e+01,2.108e+01,1.988e+01,2.154e+01,2.320e+01,2.142e+01,2.627e+01,2.284e+01,2.331e+01
2.819e-01,3.256e-01,1.165e-01,1.106e+00,1.763e+00,1.570e+00,2.670e+00,1.289e+00,2.299e+00,2.416e+00,3.761e+00,3.563e+00,4.629e+00,2.860e+00,3.208e+00,4.336e+00,4.457e+00,3.980e+00,4.689e+00,4.720e+00,6.049e+00,6.072e+00,5.487e+00,6.144e+00,8.110e+00,6.049e+00,7.691e+00,7.300e+00,7.368e+00,8.301e+00,7.433e+00,8.731e+00,8.192e+00,1.027e+01,8.203e+00,1.056e+01,1.214e+01,9.491e+00,1.082e+01,8.281e+00,9.421e+00,1.058e+01,1.056e+01,1.133e+01,1.353e+01,1.223e+01,1.219e+01,1.272e+01,1.279e+01,1.169e+01,1.224e+01,1.398e+01,1.079e+01,1.435e+01,1.410e+01,1.317e+01,1.479e+01,1.410e+01,1.473e+01,1.463e+01,1.510e+01,1.629e+01,1.535e+01,1.438e+01,1.673e+01,1.627e+01,1.871e+01,1.656e+01,2.045e+01,1.867e+01,1.854e+01,1.989e+01,1.795e+01,1.995e+01,2.175e+01,1.855e+01,1.640e+01,2.049e+01,2.129e+01,2.105e+01,2.298e+01,2.257e+01,2.127e+01,2.089e+01,2.430e+01,1.998e+01,2.217e+01,2.243e+01,1.999e+01,1.958e+01,2.017e+01,2.105e+01,2.263e+01,2.320e+01,2.629e+01,2.287e+01,2.533e+01
