8.523e-01,6.353e-01,4.082e-01,9.857e-01,5.965e-01,1.662e-01,8.768e-01,8.876e-01,4.152e-02,9.507e-02,6.948e-01,7.613e-01,1.043e-01,7.169e-01,1.120e-01,1.375e-02,4.233e-01,6.431e-01,9.955e-01,2.545e-01,7.985e-02,5.982e-01,7.422e-01,7.794e-01,3.391e-01,3.816e-01,5.670e-01,8.382e-01,7.325e-01,3.998e-01
8.094e-01,6.750e-01,5.624e-01,1.073e+00,9.179e-01,1.645e-01,1.561e+00,1.561e+00,5.987e-01,3.325e-01,1.188e+00,7.365e-01,6.704e-01,1.363e+00,3.209e-01,3.851e-01,5.048e-01,8.236e-01,1.012e+00,4.771e-01,7.046e-01,8.534e-01,1.426e+00,1.121e+00,6.666e-01,4.790e-01,1.446e+00,9.250e-01,9.549e-01,8.238e-01
2.025e-01,2.098e-01,9.557e-01,9.759e-01,1.376e+00,1.016e+00,1.768e+00,1.413e+00,5.882e-01,8.770e-01,1.067e+00,9.265e-01,1.447e+00,1.507e+00,8.524e-01,6.597e-01,3.474e-01,1.089e+00,3.198e-01,1.237e+00,1.133e+00,1.314e+00,1.283e+00,6.790e-01,1.184e+00,2.170e-01,1.775e+00,7.749e-01,1.189e+00,9.198e-01
6.510e-01,5.232e-01,1.096e+00,2.419e+00,1.694e+00,1.159e+00,2.871e+00,2.543e+00,1.232e+00,1.166e+00,2.203e+00,2.163e+00,1.532e+00,1.825e+00,1.472e+00,1.269e+00,8.548e-01,1.555e+00,9.256e-01,2.079e+00,1.274e+00,2.173e+00,1.479e+00,1.468e+00,1.497e+00,5.199e-01,2.294e+00,1.396e+00,1.660e+00,1.411e+00
3.673e-01,3.296e-01,5.367e-01,1.700e+00,1.601e+00,1.002e+00,2.291e+00,2.383e+00,1.753e+00,1.218e+00,1.812e+00,2.139e+00,1.543e+00,1.559e+00,1.577e+00,1.201e+00,9.261e-01,1.543e+00,1.136e+00,2.151e+00,1.163e+00,2.370e+00,2.006e+00,1.511e+00,1.872e+00,6.717e-01,1.868e+00,1.676e+00,1.190e+00,1.766e+00
9.298e-02,7.773e-02,7.023e-01,1.265e+00,1.574e+00,1.588e+00,2.466e+00,2.262e+00,1.395e+00,1.453e+00,1.391e+00,2.019e+00,1.642e+00,1.278e+00,2.101e+00,8.875e-01,9.416e-01,1.602e+00,8.453e-01,2.300e+00,9.722e-01,2.215e+00,2.372e+00,1.385e+00,2.117e+00,1.115e+00,2.250e+00,1.510e+00,1.594e+00,1.581e+00
8.447e-01,6.914e-01,6.619e-01,1.767e+00,1.343e+00,5.641e-01,2.610e+00,2.388e+00,2.161e+00,1.246e+00,1.827e+00,2.031e+00,1.169e+00,2.326e+00,1.752e+00,1.172e+00,1.696e+00,1.750e+00,1.381e+00,1.498e+00,1.818e+00,1.907e+00,1.959e+00,1.993e+00,1.780e+00,1.007e+00,1.889e+00,1.857e+00,1.377e+00,2.064e+00
2.180e-01,1.963e-01,7.567e-01,1.310e+00,1.468e+00,1.221e+00,2.356e+00,2.288e+00,1.901e+00,1.741e+00,1.796e+00,2.012e+00,1.821e+00,1.905e+00,2.300e+00,1.460e+00,1.227e+00,2.070e+00,1.150e+00,2.343e+00,2.119e+00,2.216e+00,2.085e+00,1.710e+00,2.711e+00,1.818e+00,2.075e+00,2.202e+00,1.605e+00,1.854e+00
7.335e-01,5.741e-01,6.027e-01,1.866e+00,1.423e+00,9.148e-01,2.767e+00,2.690e+00,2.684e+00,1.545e+00,2.203e+00,3.097e+00,1.856e+00,2.679e+00,3.288e+00,2.238e+00,2.090e+00,2.086e+00,1.643e+00,2.914e+00,2.578e+00,2.584e+00,2.475e+00,3.109e+00,3.088e+00,2.638e+00,2.460e+00,3.029e+00,1.666e+00,2.439e+00
2.398e-01,2.243e-01,5.516e-01,1.014e+00,1.504e+00,1.099e+00,2.164e+00,2.147e+00,2.702e+00,2.428e+00,2.643e+00,3.165e+00,2.865e+00,3.468e+00,3.312e+00,2.412e+00,2.727e+00,2.353e+00,2.301e+00,3.049e+00,3.397e+00,2.716e+00,2.553e+00,3.106e+00,3.991e+00,3.404e+00,2.835e+00,3.550e+00,2.038e+00,2.638e+00
2.277e-01,1.985e-01,3.559e-01,1.116e+00,9.205e-01,7.361e-01,2.087e+00,1.983e+00,1.690e+00,1.447e+00,2.219e+00,2.217e+00,2.405e+00,2.535e+00,2.508e+00,2.145e+00,2.433e+00,1.509e+00,1.740e+00,2.207e+00,2.121e+00,2.159e+00,2.751e+00,2.413e+00,2.723e+00,2.497e+00,3.069e+00,1.808e+00,1.794e+00,2.131e+00
1.172e-01,1.311e-01,3.891e-01,6.171e-01,1.236e+00,1.023e+00,1.942e+00,2.012e+00,1.877e+00,1.865e+00,2.131e+00,2.559e+00,3.221e+00,3.499e+00,3.119e+00,2.148e+00,2.968e+00,2.417e+00,2.195e+00,2.668e+00,2.993e+00,2.537e+00,3.497e+00,3.480e+00,3.683e+00,3.105e+00,3.682e+00,3.147e+00,2.093e+00,2.805e+00
6.809e-01,5.587e-01,6.666e-01,1.818e+00,1.551e+00,9.671e-01,2.939e+00,3.012e+00,2.578e+00,2.247e+00,3.244e+00,3.291e+00,3.344e+00,4.451e+00,4.165e+00,2.658e+00,3.549e+00,3.655e+00,3.763e+00,3.780e+00,3.933e+00,3.781e+00,3.955e+00,4.350e+00,4.562e+00,4.216e+00,3.965e+00,4.342e+00,2.577e+00,3.154e+00
8.160e-01,6.088e-01,1.035e+00,1.550e+00,1.626e+00,1.360e+00,2.708e+00,2.301e+00,1.556e+00,1.752e+00,2.026e+00,2.609e+00,2.868e+00,4.381e+00,4.398e+00,2.285e+00,4.014e+00,4.239e+00,2.981e+00,3.072e+00,3.165e+00,4.119e+00,3.897e+00,3.408e+00,4.786e+00,4.012e+00,4.064e+00,3.722e+00,3.547e+00,2.791e+00
3.016e-01,2.698e-01,8.584e-01,1.361e+00,1.574e+00,1.264e+00,2.728e+00,2.523e+00,2.661e+00,2.173e+00,2.493e+00,3.124e+00,3.455e+00,4.505e+00,5.538e+00,3.295e+00,3.698e+00,4.126e+00,2.378e+00,3.769e+00,5.110e+00,4.562e+00,3.689e+00,4.541e+00,5.673e+00,5.058e+00,4.687e+00,4.631e+00,3.270e+00,3.942e+00
5.254e-01,4.592e-01,7.084e-01,1.932e+00,1.744e+00,1.129e+00,3.174e+00,3.189e+00,2.628e+00,1.837e+00,2.527e+00,2.776e+00,2.854e+00,3.925e+00,4.986e+00,3.544e+00,4.253e+00,4.571e+00,3.568e+00,4.005e+00,4.911e+00,5.418e+00,5.054e+00,4.384e+00,5.570e+00,4.845e+00,4.878e+00,4.862e+00,3.182e+00,4.337e+00
7.838e-01,5.976e-01,5.631e-01,1.809e+00,1.389e+00,8.480e-01,2.129e+00,2.370e+00,2.018e+00,1.651e+00,2.705e+00,3.305e+00,2.597e+00,3.850e+00,4.683e+00,2.864e+00,4.048e+00,4.490e+00,3.233e+00,3.644e+00,4.723e+00,4.541e+00,3.046e+00,4.401e+00,5.796e+00,5.885e+00,3.979e+00,5.336e+00,4.018e+00,3.381e+00
4.211e-01,3.696e-01,8.981e-01,1.984e+00,1.473e+00,1.112e+00,3.426e+00,3.161e+00,2.704e+00,2.455e+00,3.591e+00,3.415e+00,4.110e+00,5.580e+00,6.103e+00,3.937e+00,5.507e+00,6.118e+00,3.951e+00,5.350e+00,6.992e+00,6.326e+00,5.506e+00,6.492e+00,7.136e+00,7.015e+00,7.182e+00,6.252e+00,5.137e+00,5.139e+00
2.587e-01,2.570e-01,9.262e-01,1.084e+00,1.776e+00,1.413e+00,2.759e+00,2.410e+00,2.354e+00,2.270e+00,2.461e+00,2.806e+00,3.369e+00,4.444e+00,4.553e+00,2.660e+00,3.794e+00,4.382e+00,3.338e+00,4.405e+00,4.722e+00,5.477e+00,5.065e+00,4.171e+00,5.963e+00,5.603e+00,5.553e+00,5.375e+00,4.677e+00,4.415e+00
1.440e-01,1.670e-01,3.422e-01,6.314e-01,1.174e+00,7.935e-01,1.645e+00,1.951e+00,1.677e+00,1.846e+00,2.345e+00,2.152e+00,3.126e+00,3.650e+00,3.632e+00,2.942e+00,4.281e+00,4.242e+00,3.978e+00,3.851e+00,5.557e+00,4.574e+00,5.430e+00,4.757e+00,6.493e+00,5.887e+00,5.403e+00,5.465e+00,3.994e+00,4.712e+00
4.034e-01,3.174e-01,2.492e-01,1.270e+00,8.018e-01,5.024e-01,1.918e+00,1.842e+00,1.985e+00,1.403e+00,1.983e+00,2.517e+00,2.108e+00,3.258e+00,3.522e+00,1.937e+00,3.243e+00,3.404e+00,2.947e+00,3.454e+00,4.655e+00,4.512e+00,4.391e+00,5.571e+00,5.165e+00,4.046e+00,5.274e+00,4.542e+00,3.667e+00,4.792e+00
7.638e-01,5.962e-01,9.231e-01,1.565e+00,1.921e+00,1.384e+00,2.328e+00,2.256e+00,1.440e+00,1.302e+00,1.796e+00,2.748e+00,2.815e+00,3.726e+00,4.409e+00,2.645e+00,3.865e+00,4.681e+00,3.264e+00,4.017e+00,5.260e+00,6.681e+00,5.834e+00,5.869e+00,7.197e+00,5.909e+00,6.115e+00,6.203e+00,5.151e+00,5.483e+00
6.737e-02,1.091e-01,7.781e-01,1.019e+00,1.716e+00,1.494e+00,2.863e+00,2.672e+00,2.863e+00,2.322e+00,2.371e+00,3.030e+00,3.758e+00,4.258e+00,5.421e+00,3.969e+00,4.700e+00,4.662e+00,3.620e+00,5.031e+00,7.187e+00,6.978e+00,8.039e+00,7.328e+00,8.675e+00,8.371e+00,8.056e+00,7.695e+00,6.396e+00,7.451e+00
4.887e-01,4.047e-01,7.936e-01,1.375e+00,1.684e+00,1.210e+00,2.361e+00,2.360e+00,2.067e+00,2.095e+00,2.473e+00,2.719e+00,3.090e+00,3.951e+00,4.073e+00,2.483e+00,3.624e+00,4.686e+00,3.701e+00,4.304e+00,5.157e+00,5.931e+00,5.562e+00,5.801e+00,6.905e+00,6.243e+00,5.649e+00,6.286e+00,5.347e+00,5.724e+00
3.864e-01,2.941e-01,5.634e-01,1.465e+00,1.133e+00,1.003e+00,2.408e+00,2.205e+00,1.962e+00,1.410e+00,1.933e+00,2.594e+00,2.021e+00,2.819e+00,4.397e+00,2.768e+00,3.196e+00,3.563e+00,2.706e+00,3.996e+00,4.640e+00,5.617e+00,5.005e+00,5.822e+00,6.627e+00,5.968e+00,6.253e+00,5.836e+00,4.641e+00,6.002e+00
4.861e-02,7.216e-02,7.327e-01,7.310e-01,1.191e+00,9.891e-01,1.405e+00,1.275e+00,1.072e+00,1.535e+00,1.806e+00,1.964e+00,2.877e+00,3.446e+00,3.475e+00,1.938e+00,2.924e+00,3.721e+00,2.596e+00,3.292e+00,5.099e+00,4.493e+00,4.295e+00,5.356e+00,6.204e+00,6.657e+00,5.754e+00,6.227e+00,5.970e+00,6.327e+00
4.034e-01,3.313e-01,7.761e-01,1.611e+00,1.722e+00,1.318e+00,2.348e+00,2.334e+00,1.855e+00,1.822e+00,2.574e+00,3.081e+00,3.392e+00,4.200e+00,4.682e+00,3.612e+00,4.736e+00,4.794e+00,3.981e+00,4.690e+00,5.633e+00,6.516e+00,6.394e+00,6.097e+00,7.875e+00,8.355e+00,7.988e+00,7.733e+00,7.980e+00,7.177e+00
7.629e-01,5.850e-01,9.656e-01,1.927e+00,1.440e+00,1.102e+00,2.898e+00,2.543e+00,1.754e+00,1.855e+00,2.912e+00,3.099e+00,3.044e+00,4.418e+00,4.201e+00,3.252e+00,4.571e+00,4.395e+00,3.462e+00,4.224e+00,5.035e+00,5.789e+00,5.553e+00,6.438e+00,6.886e+00,6.886e+00,7.691e+00,7.527e+00,6.686e+00,6.584e+00
9.854e-02,1.378e-01,5.698e-01,8.511e-01,1.376e+00,9.936e-01,2.065e+00,1.944e+00,2.206e+00,2.029e+00,2.473e+00,2.711e+00,3.240e+00,3.786e+00,3.556e+00,2.719e+00,3.132e+00,2.835e+00,2.598e+00,3.533e+00,4.445e+00,5.172e+00,5.231e+00,5.672e+00,6.317e+00,5.652e+00,6.598e+00,5.747e+00,6.363e+00,7.254e+00
1.300e-01,1.506e-01,2.314e-01,9.775e-01,1.037e+00,6.068e-01,1.577e+00,1.703e+00,1.664e+00,9.560e-01,1.537e+00,1.987e+00,2.511e+00,2.990e+00,3.636e+00,2.967e+00,3.770e+00,3.809e+00,2.952e+00,3.717e+00,5.063e+00,5.864e+00,6.023e+00,5.494e+00,6.918e+00,6.982e+00,6.898e+00,6.887e+00,6.579e+00,8.967e+00
