9.878e-01,6.434e-01,2.404e-02,2.105e-01,1.121e-01,5.971e-01,7.237e-02,3.381e-01,9.398e-01,1.687e-01,9.023e-01,5.549e-01,2.578e-01,7.793e-01,6.268e-01,2.945e-01,6.210e-02,4.332e-01,4.598e-01,2.012e-01,3.604e-01,2.388e-01,2.437e-01,4.756e-01,6.473e-02,3.642e-01,6.285e-02,3.851e-01,5.590e-01,1.217e-01,4.218e-01,1.903e-01,2.417e-01,9.488e-01,9.488e-01,5.626e-01,9.291e-01,2.959e-01,3.756e-01,1.084e-02,3.951e-01,8.376e-01,8.053e-02,3.049e-01,1.535e-01,6.852e-01,5.337e-01,8.528e-01,7.460e-01,4.955e-01,2.699e-01,6.144e-01,5.131e-01,7.083e-01,8.548e-01,2.801e-01,7.178e-01,6.757e-01,6.968e-01,9.092e-01,6.323e-01,7.257e-01,9.165e-01,4.622e-01,4.639e-01,7.543e-02,3.716e-01,4.234e-01,4.004e-01,6.821e-01,2.741e-01,1.273e-01,4.840e-01,9.801e-02,8.023e-01,4.561e-01
4.664e-01,6.289e-01,1.230e-01,5.205e-01,8.432e-01,6.941e-01,6.993e-01,9.039e-01,1.087e+00,4.821e-01,1.054e+00,3.212e-01,2.265e-01,7.848e-01,1.211e+00,1.617e-01,5.759e-01,8.719e-01,9.970e-01,7.300e-01,5.546e-01,5.598e-01,6.321e-01,7.466e-01,8.468e-01,1.033e+00,7.245e-01,4.775e-01,9.916e-01,2.012e-01,6.733e-01,8.643e-01,1.863e-01,8.868e-01,1.172e+00,4.944e-01,1.283e+00,2.073e-01,4.460e-01,8.601e-01,3.904e-01,1.075e+00,7.038e-01,7.932e-01,4.144e-01,1.198e+00,1.096e+00,5.949e-01,1.309e+00,1.045e+00,5.133e-01,4.524e-01,1.052e+00,8.107e-01,1.051e+00,7.384e-01,5.048e-01,1.105e+00,4.440e-01,1.393e+00,1.137e+00,7.161e-01,5.614e-01,8.352e-01,1.062e+00,9.761e-01,1.175e+00,6.112e-01,4.667e-01,9.149e-01,6.755e-01,6.856e-01,8.629e-01,5.803e-01,4.977e-01,3.399e-01
7.003e-01,5.911e-01,4.525e-01,5.054e-01,6.602e-01,1.285e+00,1.208e+00,6.718e-01,1.377e+00,5.808e-01,1.276e+00,1.262e+00,7.147e-01,1.299e+00,1.651e+00,3.493e-01,9.125e-01,1.266e+00,1.569e+00,1.136e+00,6.488e-01,1.005e+00,1.304e+00,6.873e-01,7.420e-01,1.286e+00,4.806e-01,7.493e-01,1.509e+00,6.056e-01,5.076e-01,9.558e-01,7.724e-01,1.267e+00,1.107e+00,7.517e-01,1.739e+00,8.994e-01,6.072e-01,5.072e-01,8.308e-01,1.660e+00,7.781e-01,9.443e-01,6.447e-01,1.053e+00,1.583e+00,1.107e+00,9.793e-01,1.087e+00,4.433e-01,1.172e+00,9.195e-01,1.232e+00,1.419e+00,1.142e+00,1.359e+00,1.107e+00,6.048e-01,1.109e+00,1.506e+00,9.138e-01,9.247e-01,7.531e-01,1.137e+00,7.452e-01,1.059e+00,8.806e-01,1.188e+00,8.105e-01,1.139e+00,5.456e-01,8.471e-01,9.525e-01,1.381e+00,1.161e+00
5.817e-01,6.878e-01,4.564e-01,1.521e+00,1.038e+00,1.417e+00,1.798e+00,1.130e+00,2.420e+00,9.827e-01,1.624e+00,1.142e+00,8.680e-01,2.004e+00,2.696e+00,1.099e+00,2.075e+00,2.201e+00,2.518e+00,1.753e+00,1.681e+00,1.472e+00,2.012e+00,1.753e+00,1.767e+00,2.388e+00,1.708e+00,1.124e+00,1.922e+00,8.694e-01,1.076e+00,1.923e+00,1.011e+00,1.687e+00,1.595e+00,1.519e+00,2.385e+00,8.760e-01,1.424e+00,1.728e+00,8.834e-01,2.572e+00,1.083e+00,2.038e+00,1.628e+00,2.405e+00,2.734e+00,1.695e+00,1.831e+00,2.215e+00,8.956e-01,1.303e+00,1.882e+00,1.391e+00,1.906e+00,1.979e+00,2.073e+00,2.305e+00,8.143e-01,2.208e+00,2.090e+00,1.935e+00,1.617e+00,1.237e+00,1.906e+00,1.479e+00,2.028e+00,1.383e+00,1.449e+00,1.806e+00,1.791e+00,1.067e+00,1.802e+00,1.812e+00,1.705e+00,1.432e+00
7.126e-01,7.300e-01,4.646e-01,6.762e-01,1.006e+00,1.557e+00,2.065e+00,1.836e+00,2.010e+00,1.442e+00,2.383e+00,1.445e+00,1.235e+00,2.081e+00,2.732e+00,1.322e+00,1.317e+00,2.047e+00,2.619e+00,1.464e+00,8.553e-01,1.790e+00,1.952e+00,1.491e+00,1.813e+00,2.486e+00,8.178e-01,9.507e-01,2.103e+00,1.001e+00,1.233e+00,1.751e+00,1.087e+00,1.931e+00,1.763e+00,1.585e+00,2.386e+00,1.340e+00,1.399e+00,1.256e+00,1.607e+00,2.738e+00,1.610e+00,1.734e+00,1.142e+00,1.970e+00,2.324e+00,1.749e+00,2.331e+00,2.208e+00,7.670e-01,1.522e+00,2.015e+00,1.553e+00,2.202e+00,1.724e+00,1.899e+00,2.184e+00,9.194e-01,1.775e+00,2.502e+00,1.331e+00,1.022e+00,1.634e+00,2.057e+00,1.907e+00,1.605e+00,1.372e+00,1.707e+00,1.765e+00,2.232e+00,9.425e-01,1.440e+00,1.136e+00,1.795e+00,2.098e+00
8.232e-01,5.905e-01,2.995e-01,1.113e+00,4.329e-01,1.939e+00,2.161e+00,2.061e+00,2.674e+00,1.245e+00,2.624e+00,2.056e+00,1.128e+00,2.756e+00,3.084e+00,1.922e+00,2.032e+00,2.665e+00,2.410e+00,1.387e+00,1.890e+00,1.798e+00,2.795e+00,1.853e+00,2.546e+00,2.319e+00,1.621e+00,1.324e+00,1.828e+00,1.410e+00,1.476e+00,2.222e+00,1.856e+00,2.264e+00,2.161e+00,2.334e+00,2.029e+00,1.973e+00,2.345e+00,2.160e+00,1.810e+00,2.807e+00,1.522e+00,2.372e+00,1.942e+00,2.271e+00,2.429e+00,3.022e+00,2.810e+00,2.175e+00,7.665e-01,1.752e+00,2.111e+00,1.487e+00,2.769e+00,2.186e+00,2.665e+00,3.044e+00,1.660e+00,2.670e+00,2.891e+00,2.508e+00,2.001e+00,1.980e+00,2.607e+00,1.856e+00,1.914e+00,1.470e+00,1.896e+00,2.489e+00,2.141e+00,9.845e-01,2.541e+00,1.827e+00,2.701e+00,2.784e+00
1.985e-01,3.285e-01,2.814e-01,1.029e+00,6.842e-01,9.517e-01,2.115e+00,1.978e+00,2.749e+00,1.363e+00,1.792e+00,1.733e+00,1.299e+00,2.513e+00,2.803e+00,2.244e+00,2.044e+00,2.542e+00,2.304e+00,2.192e+00,1.511e+00,2.299e+00,1.824e+00,1.921e+00,2.540e+00,2.978e+00,1.570e+00,7.985e-01,1.898e+00,1.866e+00,1.994e+00,2.248e+00,1.865e+00,1.893e+00,2.060e+00,2.292e+00,1.864e+00,1.500e+00,2.164e+00,2.015e+00,1.197e+00,2.389e+00,1.728e+00,2.465e+00,1.560e+00,2.989e+00,2.223e+00,2.026e+00,2.076e+00,2.302e+00,1.038e+00,1.866e+00,2.352e+00,1.889e+00,1.829e+00,2.265e+00,2.580e+00,3.076e+00,1.173e+00,2.308e+00,2.859e+00,1.690e+00,1.525e+00,1.891e+00,2.272e+00,1.859e+00,2.072e+00,1.854e+00,1.295e+00,2.263e+00,2.389e+00,8.398e-01,1.920e+00,2.044e+00,1.594e+00,2.398e+00
5.995e-01,5.706e-01,2.727e-01,5.742e-01,6.438e-01,1.570e+00,1.573e+00,2.216e+00,2.264e+00,1.098e+00,2.491e+00,1.830e+00,1.363e+00,2.299e+00,3.019e+00,8.691e-01,1.325e+00,2.119e+00,1.921e+00,1.695e+00,1.368e+00,2.069e+00,2.410e+00,1.462e+00,2.281e+00,2.042e+00,2.029e+00,1.541e+00,2.453e+00,1.844e+00,1.316e+00,2.182e+00,2.305e+00,2.542e+00,1.861e+00,1.839e+00,2.145e+00,1.731e+00,1.849e+00,2.512e+00,1.950e+00,2.410e+00,1.640e+00,2.088e+00,1.601e+00,1.593e+00,2.405e+00,2.013e+00,2.029e+00,1.743e+00,1.229e+00,1.827e+00,1.825e+00,1.694e+00,2.652e+00,2.167e+00,2.247e+00,2.327e+00,1.849e+00,2.555e+00,2.821e+00,2.128e+00,2.183e+00,2.194e+00,2.956e+00,1.498e+00,2.113e+00,1.643e+00,1.510e+00,2.255e+00,2.020e+00,1.342e+00,2.560e+00,1.649e+00,2.205e+00,2.014e+00
3.502e-01,3.951e-01,1.241e-01,1.127e+00,4.940e-01,7.482e-01,1.339e+00,1.850e+00,2.951e+00,1.805e+00,2.460e+00,1.471e+00,2.218e+00,2.866e+00,3.003e+00,1.785e+00,2.661e+00,3.232e+00,2.653e+00,2.929e+00,2.301e+00,3.109e+00,2.385e+00,2.035e+00,2.965e+00,2.883e+00,3.107e+00,1.917e+00,2.618e+00,2.359e+00,1.786e+00,2.487e+00,3.006e+00,2.776e+00,1.819e+00,3.201e+00,2.130e+00,1.467e+00,2.827e+00,2.712e+00,1.496e+00,2.468e+00,1.589e+00,3.278e+00,2.172e+00,2.943e+00,3.275e+00,2.535e+00,2.199e+00,2.126e+00,1.610e+00,2.404e+00,2.316e+00,2.020e+00,2.538e+00,3.070e+00,2.853e+00,3.526e+00,2.670e+00,2.778e+00,3.374e+00,2.466e+00,3.043e+00,2.201e+00,3.222e+00,1.512e+00,3.214e+00,1.959e+00,1.619e+00,2.580e+00,2.277e+00,1.592e+00,3.208e+00,2.665e+00,2.662e+00,2.381e+00
8.468e-03,2.900e-01,1.553e-01,4.318e-01,7.614e-01,1.281e+00,1.930e+00,2.623e+00,2.118e+00,1.914e+00,3.494e+00,2.333e+00,1.909e+00,2.832e+00,3.405e+00,2.194e+00,2.287e+00,2.811e+00,2.787e+00,2.347e+00,2.061e+00,2.710e+00,3.098e+00,1.983e+00,3.343e+00,2.653e+00,2.875e+00,2.300e+00,2.781e+00,1.977e+00,2.177e+00,2.463e+00,2.576e+00,2.832e+00,2.568e+00,2.387e+00,1.564e+00,1.980e+00,2.530e+00,2.925e+00,2.130e+00,2.756e+00,2.207e+00,3.436e+00,2.169e+00,2.857e+00,2.684e+00,2.312e+00,3.380e+00,2.092e+00,1.373e+00,2.395e+00,2.790e+00,1.835e+00,3.014e+00,3.019e+00,2.667e+00,3.357e+00,2.679e+00,3.514e+00,3.594e+00,2.253e+00,2.342e+00,3.354e+00,3.471e+00,2.827e+00,2.739e+00,1.756e+00,2.403e+00,2.719e+00,2.139e+00,1.525e+00,2.910e+00,2.705e+00,3.069e+00,2.725e+00
4.837e-01,3.201e-01,3.893e-01,8.400e-01,3.342e-01,1.512e+00,1.842e+00,1.857e+00,2.587e+00,2.143e+00,4.242e+00,2.590e+00,3.466e+00,3.696e+00,4.060e+00,2.953e+00,2.986e+00,3.875e+00,4.491e+00,3.749e+00,2.674e+00,4.094e+00,4.169e+00,2.204e+00,3.091e+00,3.325e+00,3.376e+00,3.771e+00,3.911e+00,2.658e+00,2.021e+00,3.219e+00,3.877e+00,3.583e+00,2.787e+00,3.869e+00,2.964e+00,2.488e+00,3.433e+00,3.434e+00,2.566e+00,3.666e+00,1.896e+00,4.055e+00,3.120e+00,3.521e+00,3.962e+00,3.251e+00,3.327e+00,2.675e+00,2.446e+00,3.322e+00,2.916e+00,2.214e+00,3.734e+00,3.933e+00,4.012e+00,4.036e+00,3.547e+00,3.895e+00,3.949e+00,2.924e+00,3.504e+00,3.647e+00,3.830e+00,2.615e+00,3.001e+00,2.251e+00,3.609e+00,3.432e+00,3.426e+00,2.289e+00,3.321e+00,2.989e+00,4.302e+00,3.785e+00
8.264e-01,7.868e-01,2.364e-01,1.129e+00,8.274e-01,1.934e+00,2.272e+00,2.859e+00,3.066e+00,1.877e+00,3.662e+00,2.712e+00,2.174e+00,3.420e+00,4.605e+00,2.628e+00,2.699e+00,4.015e+00,3.568e+00,2.975e+00,2.615e+00,3.649e+00,3.794e+00,2.541e+00,4.001e+00,3.429e+00,3.348e+00,2.589e+00,3.166e+00,2.909e+00,2.197e+00,3.642e+00,3.045e+00,3.890e+00,2.805e+00,3.539e+00,3.694e+00,2.880e+00,3.673e+00,3.182e+00,2.413e+00,3.931e+00,2.316e+00,3.270e+00,3.129e+00,3.048e+00,3.773e+00,3.690e+00,3.959e+00,3.648e+00,2.315e+00,2.712e+00,3.587e+00,2.552e+00,3.917e+00,3.236e+00,3.617e+00,4.254e+00,2.484e+00,4.433e+00,4.349e+00,3.833e+00,3.466e+00,3.948e+00,4.537e+00,3.334e+00,3.156e+00,2.393e+00,3.028e+00,4.237e+00,3.325e+00,2.667e+00,3.560e+00,2.319e+00,3.848e+00,3.429e+00
4.146e-01,3.352e-01,2.714e-01,1.005e+00,3.648e-01,1.376e+00,1.649e+00,1.499e+00,2.462e+00,1.094e+00,2.256e+00,1.935e+00,2.422e+00,3.538e+00,3.173e+00,2.225e+00,3.099e+00,2.957e+00,3.166e+00,2.577e+00,2.416e+00,2.792e+00,2.720e+00,1.726e+00,3.407e+00,2.667e+00,3.105e+00,2.695e+00,2.480e+00,2.548e+00,2.136e+00,3.279e+00,3.244e+00,2.339e+00,2.751e+00,2.842e+00,2.576e+00,1.844e+00,2.643e+00,3.380e+00,1.458e+00,3.062e+00,2.041e+00,2.830e+00,2.561e+00,3.284e+00,2.662e+00,3.125e+00,3.201e+00,2.160e+00,1.353e+00,2.193e+00,2.433e+00,2.080e+00,2.767e+00,2.999e+00,3.017e+00,3.210e+00,2.467e+00,3.025e+00,3.927e+00,3.138e+00,2.955e+00,2.726e+00,2.719e+00,2.141e+00,3.269e+00,1.928e+00,2.420e+00,3.087e+00,2.362e+00,1.549e+00,3.565e+00,2.474e+00,2.921e+00,3.069e+00
6.290e-01,4.661e-01,2.469e-01,3.868e-01,3.541e-01,1.130e+00,1.005e+00,1.324e+00,1.626e+00,1.044e+00,2.658e+00,2.118e+00,2.486e+00,3.427e+00,3.490e+00,2.815e+00,1.972e+00,3.013e+00,3.565e+00,2.781e+00,1.918e+00,3.861e+00,2.770e+00,2.467e+00,2.885e+00,2.439e+00,2.811e+00,3.397e+00,3.503e+00,2.561e+00,1.938e+00,2.960e+00,3.710e+00,3.350e+00,2.951e+00,2.915e+00,4.080e+00,2.535e+00,2.612e+00,3.216e+00,2.004e+00,3.898e+00,1.747e+00,2.620e+00,2.913e+00,2.549e+00,2.873e+00,2.665e+00,2.647e+00,2.432e+00,2.296e+00,2.548e+00,2.964e+00,2.800e+00,3.646e+00,2.968e+00,3.284e+00,3.352e+00,2.740e+00,4.130e+00,3.233e+00,3.351e+00,3.183e+00,3.975e+00,3.543e+00,2.714e+00,2.681e+00,2.266e+00,3.605e+00,3.324e+00,3.390e+00,2.743e+00,2.863e+00,2.267e+00,3.723e+00,3.430e+00
5.730e-01,6.244e-01,4.405e-01,8.748e-01,9.083e-01,1.770e+00,2.013e+00,2.216e+00,2.626e+00,1.744e+00,3.615e+00,3.097e+00,3.021e+00,4.376e+00,5.652e+00,3.663e+00,3.216e+00,4.360e+00,5.078e+00,4.327e+00,3.421e+00,5.516e+00,4.704e+00,3.515e+00,5.008e+00,3.712e+00,4.987e+00,4.669e+00,4.882e+00,4.362e+00,2.756e+00,4.199e+00,5.093e+00,4.854e+00,3.862e+00,3.526e+00,5.696e+00,3.746e+00,4.311e+00,4.354e+00,2.978e+00,5.549e+00,3.128e+00,4.438e+00,4.304e+00,4.318e+00,5.027e+00,3.687e+00,4.514e+00,3.928e+00,2.742e+00,3.577e+00,4.758e+00,3.601e+00,4.619e+00,4.259e+00,4.601e+00,5.340e+00,3.987e+00,5.482e+00,5.104e+00,5.302e+00,4.401e+00,5.984e+00,5.002e+00,4.358e+00,4.102e+00,3.760e+00,4.939e+00,4.546e+00,4.933e+00,3.798e+00,4.640e+00,4.322e+00,4.875e+00,4.973e+00
8.228e-01,6.702e-01,2.523e-01,4.531e-01,5.627e-01,1.341e+00,1.395e+00,1.907e+00,2.227e+00,1.501e+00,3.468e+00,2.416e+00,3.368e+00,4.234e+00,4.645e+00,4.173e+00,3.068e+00,4.034e+00,5.136e+00,3.869e+00,3.590e+00,5.437e+00,4.356e+00,3.615e+00,4.466e+00,3.417e+00,5.080e+00,4.856e+00,4.691e+00,4.222e+00,3.590e+00,4.107e+00,4.791e+00,4.390e+00,4.930e+00,3.682e+00,5.796e+00,3.686e+00,4.460e+00,4.212e+00,2.931e+00,5.541e+00,3.161e+00,4.024e+00,3.927e+00,4.770e+00,4.690e+00,4.362e+00,5.051e+00,4.076e+00,2.835e+00,3.723e+00,4.865e+00,3.913e+00,4.802e+00,4.233e+00,3.972e+00,4.825e+00,4.157e+00,5.554e+00,5.560e+00,5.491e+00,4.465e+00,6.308e+00,4.490e+00,4.401e+00,4.583e+00,3.488e+00,4.983e+00,5.170e+00,4.572e+00,3.322e+00,4.721e+00,3.587e+00,4.093e+00,5.022e+00
3.383e-01,2.604e-01,1.309e-01,2.467e-01,2.285e-01,1.112e+00,1.532e+00,1.927e+00,2.257e+00,1.523e+00,2.635e+00,2.674e+00,2.314e+00,2.989e+00,3.302e+00,2.989e+00,3.393e+00,4.605e+00,3.339e+00,4.070e+00,4.140e+00,5.157e+00,4.532e+00,2.652e+00,4.583e+00,3.426e+00,4.811e+00,3.891e+00,3.785e+00,4.762e+00,3.600e+00,3.288e+00,4.093e+00,3.989e+00,4.174e+00,4.275e+00,3.834e+00,3.823e+00,5.143e+00,3.195e+00,2.778e+00,3.624e+00,3.274e+00,3.785e+00,3.150e+00,4.493e+00,3.675e+00,4.204e+00,3.902e+00,2.790e+00,1.863e+00,3.719e+00,3.675e+00,3.298e+00,4.069e+00,4.361e+00,3.456e+00,4.637e+00,3.818e+00,4.420e+00,5.374e+00,4.281e+00,4.130e+00,4.859e+00,4.495e+00,3.356e+00,4.065e+00,3.311e+00,3.926e+00,4.373e+00,4.048e+00,2.727e+00,4.045e+00,3.793e+00,3.789e+00,4.547e+00
4.158e-01,4.082e-01,3.570e-01,5.263e-01,5.794e-01,1.239e+00,1.507e+00,1.774e+00,2.314e+00,1.412e+00,2.503e+00,2.616e+00,2.439e+00,2.839e+00,3.682e+00,2.029e+00,2.879e+00,4.609e+00,3.955e+00,4.629e+00,3.537e+00,4.629e+00,4.199e+00,2.505e+00,4.332e+00,4.139e+00,4.583e+00,3.946e+00,4.162e+00,4.278e+00,3.620e+00,4.150e+00,3.663e+00,4.318e+00,3.237e+00,3.771e+00,4.458e+00,3.376e+00,4.323e+00,3.880e+00,2.917e+00,3.830e+00,3.228e+00,3.799e+00,3.347e+00,3.881e+00,4.091e+00,3.969e+00,2.609e+00,3.791e+00,2.286e+00,4.068e+00,3.737e+00,3.317e+00,4.408e+00,3.989e+00,3.670e+00,3.476e+00,3.055e+00,4.460e+00,4.576e+00,3.734e+00,5.061e+00,4.095e+00,4.918e+00,2.976e+00,3.632e+00,3.733e+00,3.989e+00,4.202e+00,3.669e+00,2.974e+00,3.668e+00,3.347e+00,4.463e+00,3.275e+00
7.175e-01,7.024e-01,3.013e-01,6.636e-01,8.105e-01,1.548e+00,1.708e+00,2.122e+00,2.325e+00,2.042e+00,4.466e+00,2.869e+00,4.023e+00,4.823e+00,5.240e+00,4.605e+00,3.862e+00,5.230e+00,6.800e+00,5.797e+00,4.502e+00,6.954e+00,5.385e+00,4.345e+00,6.274e+00,4.746e+00,5.822e+00,6.396e+00,5.890e+00,4.766e+00,4.691e+00,5.806e+00,5.232e+00,5.130e+00,5.647e+00,5.468e+00,6.903e+00,4.820e+00,5.833e+00,6.145e+00,3.797e+00,6.696e+00,4.038e+00,5.942e+00,5.660e+00,6.499e+00,5.815e+00,5.586e+00,6.581e+00,5.298e+00,3.509e+00,4.846e+00,6.542e+00,4.386e+00,5.972e+00,5.505e+00,5.605e+00,6.032e+00,5.412e+00,7.563e+00,6.698e+00,6.076e+00,6.237e+00,7.669e+00,6.565e+00,5.722e+00,5.553e+00,3.961e+00,6.286e+00,6.370e+00,5.295e+00,4.907e+00,5.115e+00,4.600e+00,6.125e+00,5.818e+00
4.858e-01,5.690e-01,2.602e-01,6.651e-01,7.963e-01,1.404e+00,1.971e+00,2.275e+00,2.794e+00,1.806e+00,3.192e+00,2.833e+00,2.506e+00,3.881e+00,4.127e+00,3.698e+00,3.430e+00,5.885e+00,4.989e+00,6.025e+00,4.981e+00,7.161e+00,4.875e+00,4.022e+00,6.395e+00,4.638e+00,5.761e+00,5.211e+00,5.354e+00,5.381e+00,5.004e+00,5.091e+00,5.594e+00,5.589e+00,6.000e+00,5.841e+00,6.625e+00,5.256e+00,6.466e+00,5.231e+00,3.350e+00,5.212e+00,4.388e+00,5.539e+00,4.697e+00,5.953e+00,5.322e+00,5.617e+00,4.766e+00,4.497e+00,3.088e+00,4.557e+00,5.518e+00,4.672e+00,5.782e+00,5.232e+00,4.981e+00,6.860e+00,4.536e+00,6.728e+00,6.488e+00,5.419e+00,5.398e+00,6.807e+00,6.162e+00,5.118e+00,5.464e+00,4.639e+00,5.966e+00,5.031e+00,5.392e+00,4.252e+00,5.152e+00,5.150e+00,6.073e+00,5.846e+00
8.562e-01,6.370e-01,3.070e-01,1.193e+00,5.080e-01,1.620e+00,2.336e+00,2.776e+00,3.745e+00,2.188e+00,4.265e+00,3.321e+00,4.170e+00,5.329e+00,5.986e+00,5.230e+00,4.225e+00,5.365e+00,6.174e+00,5.382e+00,5.787e+00,7.752e+00,5.898e+00,4.622e+00,6.419e+00,5.500e+00,6.918e+00,5.731e+00,6.599e+00,6.149e+00,5.963e+00,5.829e+00,7.057e+00,6.829e+00,6.244e+00,6.529e+00,6.848e+00,4.822e+00,6.547e+00,6.513e+00,4.587e+00,7.657e+00,4.929e+00,6.307e+00,5.841e+00,7.350e+00,6.329e+00,5.874e+00,6.115e+00,5.972e+00,4.118e+00,5.625e+00,6.818e+00,5.042e+00,5.699e+00,5.721e+00,6.943e+00,6.997e+00,5.400e+00,6.992e+00,7.839e+00,7.544e+00,6.686e+00,7.547e+00,5.841e+00,5.994e+00,5.679e+00,5.412e+00,6.153e+00,7.438e+00,6.588e+00,4.318e+00,6.491e+00,4.598e+00,6.638e+00,7.077e+00
9.682e-01,8.930e-01,3.857e-01,1.075e+00,9.505e-01,1.857e+00,2.041e+00,2.140e+00,2.815e+00,1.732e+00,3.742e+00,2.383e+00,2.936e+00,4.305e+00,4.993e+00,3.748e+00,3.763e+00,4.838e+00,5.931e+00,4.893e+00,5.524e+00,7.489e+00,6.217e+00,4.365e+00,6.748e+00,5.784e+00,6.616e+00,6.468e+00,6.181e+00,5.955e+00,6.252e+00,5.149e+00,5.475e+00,6.189e+00,6.345e+00,6.255e+00,7.579e+00,4.909e+00,6.002e+00,6.732e+00,5.024e+00,8.122e+00,5.449e+00,6.507e+00,5.820e+00,8.088e+00,6.563e+00,6.089e+00,7.152e+00,6.007e+00,3.189e+00,5.558e+00,7.283e+00,4.404e+00,5.885e+00,5.335e+00,5.687e+00,6.951e+00,5.319e+00,6.662e+00,7.727e+00,7.475e+00,6.740e+00,7.387e+00,6.283e+00,6.008e+00,5.696e+00,5.482e+00,6.683e+00,6.988e+00,6.858e+00,4.796e+00,6.546e+00,5.282e+00,6.748e+00,6.374e+00
7.768e-01,5.677e-01,2.467e-01,7.255e-01,3.823e-01,1.199e+00,1.235e+00,1.601e+00,2.361e+00,1.158e+00,2.997e+00,2.391e+00,3.178e+00,4.154e+00,4.481e+00,3.889e+00,3.345e+00,4.376e+00,5.038e+00,4.429e+00,4.504e+00,6.294e+00,5.534e+00,4.298e+00,5.038e+00,5.409e+00,6.118e+00,6.438e+00,6.172e+00,5.989e+00,5.680e+00,5.485e+00,5.934e+00,5.841e+00,5.663e+00,5.569e+00,6.982e+00,4.688e+00,5.989e+00,5.925e+00,3.719e+00,6.397e+00,4.205e+00,5.187e+00,5.675e+00,6.830e+00,5.707e+00,5.331e+00,5.036e+00,4.956e+00,4.133e+00,5.277e+00,5.412e+00,4.114e+00,5.960e+00,5.521e+00,5.642e+00,5.507e+00,4.646e+00,7.036e+00,6.606e+00,6.749e+00,6.459e+00,6.688e+00,5.710e+00,4.796e+00,4.683e+00,4.951e+00,6.350e+00,6.684e+00,5.781e+00,4.724e+00,5.871e+00,4.190e+00,5.298e+00,5.527e+00
4.735e-01,3.381e-01,6.777e-02,2.206e-01,2.027e-01,6.691e-01,1.274e+00,1.767e+00,1.920e+00,1.423e+00,3.015e+00,2.525e+00,2.725e+00,3.336e+00,3.450e+00,3.845e+00,2.219e+00,3.248e+00,4.283e+00,4.504e+00,3.979e+00,6.693e+00,4.637e+00,3.615e+00,6.050e+00,6.280e+00,5.713e+00,5.917e+00,6.317e+00,6.667e+00,7.723e+00,5.918e+00,6.570e+00,5.820e+00,6.489e+00,7.186e+00,6.030e+00,6.069e+00,6.897e+00,6.019e+00,4.516e+00,6.554e+00,4.969e+00,6.548e+00,6.567e+00,8.341e+00,5.832e+00,6.233e+00,6.612e+00,5.638e+00,4.535e+00,6.722e+00,7.186e+00,3.938e+00,5.442e+00,4.808e+00,6.797e+00,6.829e+00,5.387e+00,7.294e+00,7.532e+00,7.011e+00,7.136e+00,7.368e+00,5.859e+00,6.234e+00,4.657e+00,5.474e+00,7.083e+00,7.379e+00,5.634e+00,4.703e+00,5.840e+00,4.484e+00,6.573e+00,6.425e+00
3.535e-01,5.469e-01,2.952e-01,1.100e+00,9.662e-01,1.510e+00,2.197e+00,2.214e+00,2.446e+00,1.873e+00,3.023e+00,1.612e+00,2.069e+00,3.088e+00,3.688e+00,2.689e+00,3.622e+00,4.351e+00,4.563e+00,3.993e+00,4.586e+00,5.823e+00,5.473e+00,3.931e+00,6.155e+00,5.897e+00,6.303e+00,5.463e+00,5.354e+00,5.811e+00,5.735e+00,5.474e+00,4.266e+00,5.126e+00,5.874e+00,6.716e+00,6.843e+00,4.798e+00,6.639e+00,6.215e+00,3.891e+00,6.225e+00,4.617e+00,6.100e+00,6.101e+00,7.163e+00,6.465e+00,5.468e+00,6.063e+00,5.247e+00,3.754e+00,4.703e+00,5.853e+00,3.479e+00,5.614e+00,5.572e+00,5.477e+00,6.446e+00,4.854e+00,6.717e+00,7.187e+00,5.871e+00,5.895e+00,6.093e+00,6.604e+00,5.880e+00,6.084e+00,4.314e+00,5.693e+00,6.542e+00,5.686e+00,4.530e+00,6.138e+00,4.645e+00,5.880e+00,5.634e+00
2.438e-01,2.240e-01,5.271e-02,1.632e-01,2.304e-01,7.765e-01,1.215e+00,1.688e+00,1.655e+00,1.000e+00,1.943e+00,1.734e+00,1.938e+00,3.003e+00,2.879e+00,2.874e+00,2.418e+00,3.517e+00,3.640e+00,4.142e+00,3.845e+00,5.757e+00,3.800e+00,3.058e+00,6.472e+00,6.005e+00,6.755e+00,6.204e+00,5.001e+00,7.341e+00,6.457e+00,6.336e+00,6.385e+00,5.131e+00,6.908e+00,6.688e+00,7.253e+00,5.571e+00,6.951e+00,6.615e+00,4.505e+00,6.200e+00,4.746e+00,5.417e+00,6.547e+00,7.122e+00,5.485e+00,5.975e+00,6.290e+00,4.573e+00,4.079e+00,5.622e+00,6.494e+00,3.669e+00,5.498e+00,4.553e+00,5.694e+00,6.816e+00,6.193e+00,6.923e+00,6.533e+00,6.507e+00,6.937e+00,7.378e+00,6.294e+00,6.445e+00,6.202e+00,5.008e+00,6.539e+00,6.373e+00,5.722e+00,4.176e+00,5.816e+00,5.595e+00,6.164e+00,6.068e+00
5.543e-01,4.157e-01,3.872e-01,5.408e-01,4.726e-01,1.668e+00,2.405e+00,2.565e+00,2.979e+00,1.900e+00,3.509e+00,3.862e+00,3.091e+00,4.454e+00,5.314e+00,4.834e+00,3.806e+00,5.756e+00,5.749e+00,5.757e+00,5.517e+00,8.030e+00,6.750e+00,4.761e+00,7.459e+00,7.074e+00,7.833e+00,6.895e+00,7.433e+00,8.229e+00,8.029e+00,7.110e+00,8.255e+00,7.808e+00,7.776e+00,7.881e+00,8.612e+00,7.501e+00,8.387e+00,6.952e+00,5.603e+00,8.968e+00,6.089e+00,7.265e+00,7.419e+00,8.564e+00,7.836e+00,7.907e+00,7.236e+00,7.350e+00,4.627e+00,8.623e+00,8.647e+00,5.921e+00,7.761e+00,7.169e+00,7.445e+00,7.933e+00,6.657e+00,8.894e+00,9.610e+00,8.860e+00,8.901e+00,8.724e+00,7.871e+00,7.734e+00,6.462e+00,7.249e+00,8.437e+00,8.460e+00,7.239e+00,6.172e+00,7.023e+00,6.956e+00,7.871e+00,7.947e+00
9.707e-01,7.327e-01,8.756e-02,4.640e-01,3.897e-01,8.605e-01,9.481e-01,1.408e+00,2.269e+00,1.167e+00,2.618e+00,2.171e+00,2.439e+00,3.698e+00,3.660e+00,4.039e+00,2.674e+00,3.813e+00,4.546e+00,4.292e+00,4.791e+00,6.463e+00,4.639e+00,4.182e+00,5.853e+00,5.942e+00,7.302e+00,7.003e+00,6.484e+00,7.734e+00,7.840e+00,6.829e+00,7.553e+00,7.195e+00,8.174e+00,7.478e+00,9.196e+00,5.698e+00,7.324e+00,7.254e+00,5.381e+00,8.592e+00,5.630e+00,6.775e+00,7.114e+00,8.846e+00,7.540e+00,7.171e+00,7.300e+00,6.264e+00,5.416e+00,7.577e+00,8.251e+00,5.749e+00,7.410e+00,5.664e+00,7.183e+00,7.836e+00,7.322e+00,9.389e+00,8.803e+00,8.145e+00,8.348e+00,8.840e+00,6.273e+00,8.022e+00,6.594e+00,6.825e+00,7.571e+00,7.529e+00,6.446e+00,5.209e+00,7.575e+00,6.111e+00,7.859e+00,6.886e+00
7.880e-01,6.766e-01,3.503e-01,1.344e+00,7.010e-01,1.953e+00,2.571e+00,2.507e+00,3.593e+00,2.074e+00,4.162e+00,3.442e+00,3.052e+00,5.010e+00,5.396e+00,5.051e+00,4.342e+00,6.333e+00,6.239e+00,6.046e+00,5.954e+00,8.179e+00,6.931e+00,5.196e+00,7.562e+00,7.090e+00,7.420e+00,7.327e+00,7.764e+00,8.077e+00,7.854e+00,7.782e+00,8.477e+00,7.698e+00,8.042e+00,8.581e+00,9.718e+00,7.539e+00,8.417e+00,8.463e+00,6.284e+00,9.485e+00,5.942e+00,8.470e+00,7.524e+00,9.832e+00,8.970e+00,9.053e+00,8.579e+00,7.129e+00,4.897e+00,7.535e+00,9.154e+00,6.315e+00,8.123e+00,7.794e+00,8.036e+00,9.677e+00,6.762e+00,9.874e+00,9.955e+00,8.672e+00,8.416e+00,9.580e+00,7.776e+00,7.751e+00,7.086e+00,6.718e+00,9.297e+00,8.445e+00,7.622e+00,6.302e+00,7.956e+00,7.303e+00,9.184e+00,7.954e+00
1.281e-01,2.934e-01,3.943e-01,6.912e-01,7.479e-01,1.088e+00,1.845e+00,1.869e+00,2.415e+00,1.660e+00,2.819e+00,2.414e+00,2.758e+00,3.808e+00,4.465e+00,3.717e+00,3.417e+00,5.062e+00,5.137e+00,5.558e+00,4.536e+00,7.717e+00,5.888e+00,4.534e+00,6.574e+00,7.593e+00,7.976e+00,7.925e+00,7.665e+00,8.865e+00,7.397e+00,7.599e+00,9.444e+00,8.375e+00,8.138e+00,8.736e+00,1.036e+01,7.836e+00,8.251e+00,8.532e+00,5.858e+00,9.279e+00,6.066e+00,6.960e+00,8.460e+00,9.389e+00,9.090e+00,7.885e+00,7.586e+00,6.849e+00,6.060e+00,8.988e+00,8.494e+00,5.936e+00,8.050e+00,8.436e+00,7.594e+00,9.016e+00,7.537e+00,9.797e+00,9.573e+00,9.217e+00,8.589e+00,9.782e+00,8.331e+00,7.943e+00,7.080e+00,8.022e+00,9.139e+00,7.678e+00,8.280e+00,7.380e+00,7.131e+00,7.708e+00,7.522e+00,7.064e+00
7.159e-01,7.040e-01,1.429e-01,6.879e-01,6.889e-01,1.455e+00,1.574e+00,2.384e+00,2.948e+00,1.363e+00,2.932e+00,2.458e+00,1.997e+00,3.652e+00,3.590e+00,2.369e+00,2.991e+00,4.085e+00,3.555e+00,4.528e+00,4.678e+00,6.578e+00,4.687e+00,3.664e+00,6.479e+00,5.828e+00,6.901e+00,6.258e+00,6.482e+00,7.457e+00,7.023e+00,7.359e+00,7.798e+00,8.263e+00,8.298e+00,8.289e+00,8.804e+00,7.245e+00,6.973e+00,9.586e+00,6.346e+00,8.751e+00,6.443e+00,7.126e+00,7.810e+00,9.199e+00,7.971e+00,7.553e+00,7.814e+00,5.875e+00,5.112e+00,7.389e+00,8.006e+00,6.200e+00,7.380e+00,7.746e+00,7.506e+00,8.648e+00,7.968e+00,9.202e+00,9.541e+00,8.221e+00,8.625e+00,9.063e+00,7.949e+00,6.909e+00,7.445e+00,7.055e+00,7.368e+00,7.920e+00,7.221e+00,6.441e+00,7.528e+00,6.841e+00,7.887e+00,6.537e+00
9.660e-01,9.405e-01,4.633e-01,1.338e+00,1.116e+00,1.812e+00,2.311e+00,2.377e+00,3.376e+00,2.204e+00,3.949e+00,2.670e+00,3.166e+00,4.779e+00,5.395e+00,4.237e+00,3.961e+00,5.520e+00,6.203e+00,5.662e+00,5.569e+00,8.816e+00,6.565e+00,5.618e+00,7.418e+00,7.625e+00,7.942e+00,7.909e+00,8.290e+00,8.556e+00,7.905e+00,8.863e+00,9.036e+00,9.412e+00,9.396e+00,1.058e+01,1.215e+01,8.659e+00,8.803e+00,1.050e+01,6.894e+00,1.152e+01,7.821e+00,8.854e+00,1.039e+01,1.133e+01,1.126e+01,9.430e+00,9.493e+00,8.837e+00,7.650e+00,8.544e+00,1.012e+01,7.640e+00,9.116e+00,8.660e+00,9.615e+00,1.103e+01,8.941e+00,1.188e+01,1.181e+01,1.064e+01,9.227e+00,1.132e+01,1.002e+01,8.889e+00,8.194e+00,8.985e+00,9.760e+00,9.987e+00,1.016e+01,8.314e+00,9.182e+00,7.433e+00,1.001e+01,8.282e+00
8.399e-01,5.593e-01,3.570e-02,9.483e-01,1.368e-01,1.181e+00,1.169e+00,1.734e+00,2.827e+00,1.178e+00,3.327e+00,2.897e+00,2.816e+00,4.287e+00,4.515e+00,4.500e+00,3.342e+00,5.379e+00,5.213e+00,6.006e+00,5.620e+00,7.524e+00,5.799e+00,4.718e+00,6.955e+00,6.783e+00,8.302e+00,8.208e+00,7.550e+00,8.629e+00,7.885e+00,8.935e+00,1.088e+01,9.723e+00,9.392e+00,1.031e+01,1.061e+01,9.499e+00,9.957e+00,1.082e+01,6.737e+00,9.893e+00,6.496e+00,8.083e+00,9.752e+00,1.049e+01,9.637e+00,9.597e+00,8.593e+00,8.576e+00,7.083e+00,8.538e+00,9.802e+00,6.868e+00,8.198e+00,8.623e+00,8.965e+00,1.076e+01,9.644e+00,1.241e+01,9.982e+00,1.095e+01,1.083e+01,1.159e+01,8.841e+00,8.497e+00,7.863e+00,8.461e+00,9.895e+00,9.638e+00,8.106e+00,8.134e+00,8.700e+00,7.675e+00,9.163e+00,8.131e+00
7.596e-01,7.833e-01,3.674e-01,8.233e-01,9.737e-01,1.611e+00,2.006e+00,2.493e+00,2.985e+00,1.913e+00,3.860e+00,2.643e+00,3.379e+00,4.885e+00,4.937e+00,4.147e+00,3.636e+00,4.720e+00,5.673e+00,4.858e+00,4.844e+00,7.389e+00,5.379e+00,4.870e+00,6.427e+00,6.482e+00,7.178e+00,6.545e+00,8.782e+00,7.382e+00,7.740e+00,8.690e+00,1.011e+01,9.879e+00,1.027e+01,1.013e+01,1.085e+01,9.433e+00,8.798e+00,1.209e+01,8.368e+00,1.117e+01,7.935e+00,8.355e+00,9.921e+00,1.029e+01,1.021e+01,9.128e+00,8.852e+00,8.288e+00,7.144e+00,8.764e+00,1.005e+01,7.930e+00,8.644e+00,9.755e+00,9.456e+00,1.012e+01,1.013e+01,1.192e+01,1.085e+01,1.048e+01,1.018e+01,1.122e+01,8.796e+00,9.183e+00,8.968e+00,9.008e+00,9.372e+00,1.098e+01,9.249e+00,8.336e+00,9.399e+00,7.187e+00,9.076e+00,8.987e+00
4.067e-01,4.543e-01,3.535e-01,7.073e-01,7.262e-01,1.151e+00,1.757e+00,1.736e+00,2.132e+00,2.026e+00,3.308e+00,1.446e+00,3.027e+00,3.714e+00,3.657e+00,3.705e+00,3.074e+00,5.137e+00,5.953e+00,5.328e+00,4.209e+00,7.626e+00,5.734e+00,4.343e+00,6.313e+00,6.572e+00,6.152e+00,6.827e+00,7.164e+00,6.803e+00,7.358e+00,7.854e+00,8.670e+00,8.099e+00,8.986e+00,1.013e+01,1.008e+01,9.048e+00,9.228e+00,1.092e+01,7.405e+00,1.017e+01,7.482e+00,8.871e+00,8.696e+00,9.662e+00,1.022e+01,9.617e+00,9.221e+00,8.984e+00,6.238e+00,9.124e+00,9.841e+00,7.293e+00,9.016e+00,8.621e+00,8.115e+00,1.009e+01,9.214e+00,1.043e+01,1.078e+01,9.017e+00,9.053e+00,1.001e+01,8.782e+00,8.451e+00,7.709e+00,8.881e+00,9.583e+00,9.019e+00,8.835e+00,8.143e+00,9.468e+00,8.036e+00,8.120e+00,8.168e+00
8.965e-01,8.291e-01,3.147e-01,1.000e+00,8.483e-01,1.420e+00,1.716e+00,1.832e+00,2.818e+00,1.130e+00,2.320e+00,2.027e+00,1.879e+00,3.626e+00,3.553e+00,3.193e+00,2.950e+00,3.955e+00,4.179e+00,3.651e+00,3.978e+00,5.697e+00,4.107e+00,4.093e+00,5.175e+00,5.793e+00,5.917e+00,5.408e+00,5.700e+00,5.987e+00,6.594e+00,7.123e+00,7.125e+00,7.693e+00,9.288e+00,8.282e+00,1.056e+01,8.303e+00,7.006e+00,9.785e+00,6.000e+00,1.034e+01,7.176e+00,6.867e+00,8.341e+00,9.894e+00,9.515e+00,9.165e+00,8.508e+00,8.894e+00,6.713e+00,9.149e+00,8.932e+00,7.758e+00,8.455e+00,8.052e+00,8.211e+00,8.987e+00,7.978e+00,1.030e+01,9.884e+00,1.029e+01,8.618e+00,9.566e+00,8.726e+00,7.743e+00,7.309e+00,9.186e+00,8.843e+00,9.998e+00,8.643e+00,7.026e+00,7.476e+00,7.202e+00,7.278e+00,6.809e+00
3.939e-01,4.814e-01,4.649e-01,7.068e-01,8.533e-01,1.921e+00,2.279e+00,2.100e+00,2.446e+00,2.063e+00,3.694e+00,2.815e+00,2.667e+00,4.081e+00,4.068e+00,3.388e+00,4.077e+00,5.286e+00,5.383e+00,4.795e+00,5.585e+00,7.220e+00,6.370e+00,4.239e+00,6.532e+00,5.880e+00,6.853e+00,6.652e+00,7.631e+00,6.980e+00,7.277e+00,7.881e+00,8.770e+00,8.508e+00,8.891e+00,9.301e+00,1.111e+01,8.966e+00,8.215e+00,1.148e+01,8.139e+00,1.135e+01,9.020e+00,9.583e+00,9.699e+00,1.047e+01,1.104e+01,1.060e+01,9.700e+00,8.202e+00,6.317e+00,9.792e+00,1.018e+01,7.924e+00,9.474e+00,1.005e+01,9.627e+00,9.917e+00,9.758e+00,1.123e+01,1.175e+01,1.030e+01,9.109e+00,1.055e+01,9.216e+00,9.691e+00,8.249e+00,8.914e+00,9.661e+00,1.031e+01,9.095e+00,8.248e+00,8.727e+00,8.259e+00,1.059e+01,8.662e+00
9.227e-03,1.215e-01,2.618e-01,7.612e-01,4.382e-01,8.118e-01,1.522e+00,1.492e+00,2.140e+00,1.302e+00,2.508e+00,2.450e+00,2.790e+00,3.188e+00,4.263e+00,3.798e+00,3.354e+00,5.243e+00,5.330e+00,6.478e+00,5.556e+00,8.068e+00,5.758e+00,3.901e+00,6.943e+00,6.596e+00,7.904e+00,7.442e+00,6.777e+00,8.528e+00,7.243e+00,8.332e+00,9.156e+00,8.453e+00,8.324e+00,9.103e+00,1.064e+01,9.156e+00,9.637e+00,1.050e+01,7.682e+00,1.049e+01,8.298e+00,8.823e+00,9.982e+00,1.054e+01,1.030e+01,9.816e+00,8.991e+00,9.261e+00,7.826e+00,9.137e+00,1.024e+01,7.194e+00,8.138e+00,8.469e+00,9.409e+00,1.066e+01,8.946e+00,1.039e+01,1.049e+01,1.122e+01,9.568e+00,1.200e+01,9.031e+00,9.137e+00,8.111e+00,9.169e+00,1.019e+01,1.008e+01,9.992e+00,8.403e+00,7.970e+00,8.271e+00,8.730e+00,7.869e+00
7.841e-01,7.948e-01,3.591e-01,1.152e+00,9.747e-01,2.134e+00,2.642e+00,3.057e+00,3.455e+00,1.837e+00,4.259e+00,2.909e+00,3.362e+00,4.927e+00,5.714e+00,4.321e+00,4.112e+00,5.438e+00,6.281e+00,5.756e+00,6.157e+00,8.460e+00,7.060e+00,4.786e+00,8.360e+00,7.508e+00,8.615e+00,7.923e+00,7.971e+00,8.955e+00,8.704e+00,9.487e+00,9.223e+00,9.098e+00,1.062e+01,1.059e+01,1.201e+01,9.671e+00,1.111e+01,1.381e+01,8.499e+00,1.260e+01,1.071e+01,1.119e+01,1.149e+01,1.369e+01,1.229e+01,1.112e+01,1.221e+01,1.096e+01,9.245e+00,1.059e+01,1.212e+01,8.562e+00,1.083e+01,1.020e+01,1.197e+01,1.273e+01,1.061e+01,1.217e+01,1.328e+01,1.289e+01,1.051e+01,1.312e+01,1.124e+01,1.094e+01,9.902e+00,1.100e+01,1.087e+01,1.311e+01,1.250e+01,9.846e+00,1.078e+01,8.830e+00,1.080e+01,1.029e+01
5.497e-01,3.923e-01,3.161e-01,3.241e-01,3.605e-01,1.403e+00,1.684e+00,1.958e+00,2.244e+00,1.732e+00,3.384e+00,2.990e+00,3.176e+00,4.344e+00,4.176e+00,3.715e+00,3.679e+00,4.731e+00,5.527e+00,5.406e+00,5.929e+00,7.852e+00,6.225e+00,4.709e+00,7.541e+00,7.744e+00,8.592e+00,8.733e+00,8.740e+00,9.530e+00,9.374e+00,9.700e+00,1.026e+01,1.030e+01,1.014e+01,1.055e+01,1.229e+01,1.003e+01,1.105e+01,1.331e+01,1.067e+01,1.321e+01,1.075e+01,1.177e+01,1.194e+01,1.346e+01,1.257e+01,1.189e+01,1.123e+01,1.037e+01,9.575e+00,1.191e+01,1.249e+01,9.115e+00,1.153e+01,1.118e+01,1.282e+01,1.167e+01,1.207e+01,1.323e+01,1.230e+01,1.302e+01,1.348e+01,1.325e+01,1.089e+01,1.176e+01,1.080e+01,1.113e+01,1.264e+01,1.277e+01,1.164e+01,9.460e+00,1.125e+01,9.218e+00,1.285e+01,1.056e+01
4.859e-01,5.608e-01,3.972e-01,1.201e+00,8.908e-01,1.367e+00,2.215e+00,1.964e+00,2.722e+00,2.167e+00,3.222e+00,1.989e+00,2.623e+00,3.552e+00,4.039e+00,3.173e+00,3.699e+00,4.975e+00,5.278e+00,4.553e+00,4.616e+00,6.156e+00,5.611e+00,3.981e+00,5.994e+00,8.052e+00,6.960e+00,6.865e+00,7.447e+00,7.800e+00,7.960e+00,8.412e+00,8.860e+00,9.087e+00,8.377e+00,9.886e+00,1.120e+01,8.672e+00,9.730e+00,1.149e+01,9.786e+00,1.243e+01,8.772e+00,1.003e+01,1.028e+01,1.239e+01,1.245e+01,1.113e+01,1.067e+01,1.020e+01,7.994e+00,1.162e+01,1.198e+01,8.191e+00,1.044e+01,1.105e+01,1.040e+01,1.036e+01,9.524e+00,1.184e+01,1.084e+01,1.119e+01,1.173e+01,1.084e+01,9.466e+00,1.043e+01,9.314e+00,1.050e+01,1.123e+01,1.183e+01,9.649e+00,8.994e+00,1.017e+01,8.795e+00,1.023e+01,8.448e+00
2.726e-01,4.422e-01,1.412e-01,8.099e-01,7.238e-01,9.245e-01,1.447e+00,2.071e+00,2.383e+00,2.199e+00,4.139e+00,2.123e+00,4.028e+00,4.818e+00,4.680e+00,4.814e+00,4.465e+00,5.782e+00,6.832e+00,6.242e+00,6.314e+00,8.764e+00,6.336e+00,5.392e+00,7.864e+00,7.633e+00,9.740e+00,9.139e+00,8.626e+00,8.324e+00,8.924e+00,9.772e+00,1.016e+01,1.010e+01,1.143e+01,1.090e+01,1.225e+01,9.760e+00,1.096e+01,1.351e+01,9.422e+00,1.427e+01,1.053e+01,1.263e+01,1.272e+01,1.478e+01,1.377e+01,1.203e+01,1.278e+01,1.191e+01,1.108e+01,1.243e+01,1.309e+01,9.917e+00,1.201e+01,1.303e+01,1.207e+01,1.279e+01,1.251e+01,1.405e+01,1.330e+01,1.379e+01,1.324e+01,1.410e+01,1.176e+01,1.155e+01,1.228e+01,1.182e+01,1.343e+01,1.475e+01,1.168e+01,1.179e+01,1.215e+01,1.063e+01,1.157e+01,9.817e+00
8.583e-01,8.073e-01,2.630e-01,5.914e-01,8.247e-01,1.798e+00,2.006e+00,2.906e+00,3.242e+00,2.311e+00,4.701e+00,3.062e+00,3.766e+00,4.700e+00,4.706e+00,3.331e+00,4.012e+00,4.946e+00,5.266e+00,5.068e+00,5.143e+00,7.217e+00,6.041e+00,3.832e+00,6.386e+00,6.715e+00,7.076e+00,7.180e+00,7.987e+00,7.705e+00,7.524e+00,8.560e+00,9.724e+00,9.221e+00,8.897e+00,9.770e+00,1.065e+01,9.082e+00,9.125e+00,1.241e+01,1.055e+01,1.321e+01,9.908e+00,1.105e+01,1.133e+01,1.420e+01,1.334e+01,1.132e+01,1.203e+01,1.024e+01,9.055e+00,1.217e+01,1.264e+01,9.674e+00,1.143e+01,1.231e+01,1.203e+01,1.241e+01,1.216e+01,1.311e+01,1.306e+01,1.264e+01,1.240e+01,1.326e+01,1.159e+01,1.034e+01,1.125e+01,1.007e+01,1.184e+01,1.344e+01,1.096e+01,1.031e+01,1.083e+01,9.422e+00,1.056e+01,1.029e+01
7.882e-01,5.327e-01,2.106e-01,5.398e-01,3.012e-01,1.613e+00,1.743e+00,2.427e+00,2.541e+00,2.459e+00,4.611e+00,2.868e+00,3.324e+00,4.549e+00,4.669e+00,4.110e+00,3.282e+00,5.460e+00,5.894e+00,5.324e+00,5.121e+00,7.761e+00,6.383e+00,4.793e+00,7.242e+00,6.739e+00,7.421e+00,7.927e+00,7.954e+00,8.184e+00,7.702e+00,9.302e+00,1.031e+01,1.010e+01,8.868e+00,1.063e+01,1.143e+01,1.037e+01,9.801e+00,1.210e+01,1.030e+01,1.259e+01,8.576e+00,1.081e+01,1.229e+01,1.339e+01,1.443e+01,1.210e+01,1.101e+01,1.022e+01,8.724e+00,1.091e+01,1.289e+01,9.273e+00,1.215e+01,1.163e+01,1.162e+01,1.312e+01,1.228e+01,1.359e+01,1.272e+01,1.271e+01,1.268e+01,1.420e+01,1.152e+01,1.100e+01,1.079e+01,1.077e+01,1.368e+01,1.176e+01,1.044e+01,1.069e+01,1.207e+01,9.375e+00,1.201e+01,1.085e+01
3.905e-01,4.265e-01,4.152e-01,1.048e+00,7.031e-01,1.403e+00,1.796e+00,1.250e+00,2.013e+00,1.247e+00,2.177e+00,1.722e+00,2.158e+00,3.292e+00,3.449e+00,2.679e+00,3.478e+00,4.002e+00,4.774e+00,3.793e+00,4.403e+00,4.879e+00,5.000e+00,3.627e+00,5.780e+00,6.683e+00,6.807e+00,6.217e+00,6.299e+00,6.622e+00,7.178e+00,7.900e+00,7.588e+00,7.590e+00,8.104e+00,8.472e+00,9.671e+00,8.463e+00,9.170e+00,1.088e+01,7.969e+00,1.042e+01,8.234e+00,8.899e+00,1.140e+01,1.271e+01,1.261e+01,1.027e+01,9.087e+00,1.073e+01,8.189e+00,1.051e+01,1.045e+01,7.774e+00,1.064e+01,1.085e+01,1.105e+01,1.127e+01,9.673e+00,1.184e+01,1.047e+01,1.205e+01,1.189e+01,1.110e+01,9.827e+00,9.572e+00,9.863e+00,1.063e+01,1.137e+01,1.172e+01,8.978e+00,9.304e+00,1.075e+01,8.530e+00,9.525e+00,9.710e+00
6.663e-02,1.489e-01,3.198e-01,9.542e-01,4.580e-01,1.382e+00,2.042e+00,2.276e+00,2.841e+00,1.593e+00,3.504e+00,3.181e+00,3.370e+00,4.650e+00,5.161e+00,4.404e+00,4.017e+00,4.936e+00,5.450e+00,5.515e+00,5.177e+00,7.571e+00,6.346e+00,4.796e+00,7.092e+00,6.947e+00,8.289e+00,7.922e+00,8.112e+00,8.991e+00,8.084e+00,9.097e+00,9.546e+00,8.236e+00,9.363e+00,9.331e+00,1.076e+01,9.172e+00,1.064e+01,1.177e+01,7.761e+00,1.211e+01,9.018e+00,1.135e+01,1.080e+01,1.412e+01,1.349e+01,1.135e+01,1.200e+01,1.151e+01,1.007e+01,1.216e+01,1.217e+01,9.115e+00,1.291e+01,1.283e+01,1.276e+01,1.256e+01,9.939e+00,1.269e+01,1.323e+01,1.339e+01,1.231e+01,1.265e+01,1.048e+01,1.101e+01,1.004e+01,1.229e+01,1.254e+01,1.309e+01,1.137e+01,1.161e+01,1.173e+01,9.911e+00,1.080e+01,1.018e+01
5.557e-02,2.859e-01,2.425e-01,7.828e-01,7.543e-01,1.152e+00,2.106e+00,2.260e+00,2.368e+00,1.663e+00,2.782e+00,1.952e+00,2.148e+00,3.662e+00,3.682e+00,3.455e+00,2.856e+00,3.991e+00,4.275e+00,3.909e+00,3.787e+00,5.608e+00,4.155e+00,3.594e+00,5.557e+00,5.765e+00,5.515e+00,5.029e+00,6.273e+00,5.767e+00,6.341e+00,7.001e+00,8.490e+00,7.375e+00,8.220e+00,8.215e+00,8.886e+00,7.905e+00,8.015e+00,1.045e+01,7.178e+00,1.015e+01,8.120e+00,9.075e+00,1.024e+01,1.164e+01,1.202e+01,1.052e+01,1.053e+01,1.049e+01,8.119e+00,1.088e+01,1.187e+01,8.611e+00,1.047e+01,1.132e+01,1.164e+01,1.180e+01,1.093e+01,1.142e+01,1.123e+01,1.196e+01,9.873e+00,1.166e+01,1.021e+01,1.038e+01,9.721e+00,1.078e+01,1.089e+01,1.083e+01,1.020e+01,1.035e+01,9.804e+00,9.134e+00,8.591e+00,1.017e+01
6.533e-01,5.085e-01,1.757e-01,6.725e-01,4.035e-01,1.026e+00,1.483e+00,1.929e+00,2.391e+00,1.713e+00,2.803e+00,2.097e+00,2.313e+00,3.302e+00,4.120e+00,3.851e+00,2.883e+00,4.559e+00,4.351e+00,4.215e+00,5.192e+00,7.465e+00,5.420e+00,4.497e+00,5.582e+00,5.457e+00,7.027e+00,5.974e+00,7.128e+00,7.451e+00,6.589e+00,7.022e+00,9.301e+00,9.141e+00,8.339e+00,8.822e+00,1.067e+01,9.417e+00,9.451e+00,1.027e+01,8.434e+00,1.238e+01,8.587e+00,9.755e+00,1.025e+01,1.333e+01,1.392e+01,1.099e+01,1.126e+01,1.172e+01,9.779e+00,1.273e+01,1.298e+01,1.022e+01,1.246e+01,1.183e+01,1.193e+01,1.326e+01,1.123e+01,1.161e+01,1.204e+01,1.436e+01,1.120e+01,1.390e+01,1.163e+01,1.020e+01,1.079e+01,1.194e+01,1.296e+01,1.305e+01,1.216e+01,1.129e+01,1.075e+01,9.544e+00,9.758e+00,1.078e+01
4.264e-01,5.695e-01,1.914e-01,8.999e-01,8.323e-01,1.305e+00,1.689e+00,2.033e+00,2.288e+00,1.803e+00,3.832e+00,2.501e+00,3.279e+00,4.546e+00,5.117e+00,4.799e+00,4.117e+00,5.566e+00,6.358e+00,5.826e+00,6.273e+00,8.260e+00,6.194e+00,5.014e+00,7.433e+00,6.600e+00,8.746e+00,8.190e+00,8.048e+00,7.780e+00,7.580e+00,8.468e+00,9.885e+00,9.917e+00,1.018e+01,9.688e+00,1.169e+01,9.374e+00,1.023e+01,1.253e+01,8.702e+00,1.234e+01,9.112e+00,1.036e+01,1.109e+01,1.312e+01,1.205e+01,1.084e+01,1.237e+01,1.214e+01,1.009e+01,1.147e+01,1.321e+01,9.414e+00,1.139e+01,1.168e+01,1.123e+01,1.312e+01,1.175e+01,1.383e+01,1.155e+01,1.359e+01,1.278e+01,1.421e+01,1.179e+01,1.168e+01,1.202e+01,1.124e+01,1.233e+01,1.335e+01,1.246e+01,1.080e+01,1.136e+01,9.737e+00,1.140e+01,1.057e+01
8.920e-01,8.476e-01,1.984e-01,9.481e-01,8.385e-01,1.441e+00,1.836e+00,2.408e+00,3.002e+00,1.656e+00,3.392e+00,2.271e+00,3.039e+00,4.182e+00,4.446e+00,3.708e+00,3.668e+00,5.232e+00,5.491e+00,5.431e+00,5.133e+00,7.021e+00,5.125e+00,4.191e+00,6.724e+00,6.244e+00,6.680e+00,6.203e+00,6.816e+00,7.136e+00,7.176e+00,8.405e+00,7.579e+00,7.949e+00,8.657e+00,8.957e+00,9.448e+00,8.092e+00,9.437e+00,1.136e+01,8.391e+00,1.105e+01,8.568e+00,9.816e+00,9.551e+00,1.349e+01,1.239e+01,1.028e+01,1.192e+01,1.297e+01,9.090e+00,1.143e+01,1.336e+01,9.879e+00,1.227e+01,1.224e+01,1.131e+01,1.315e+01,1.151e+01,1.332e+01,1.237e+01,1.223e+01,1.326e+01,1.341e+01,1.197e+01,1.011e+01,1.182e+01,1.160e+01,1.112e+01,1.400e+01,1.210e+01,1.075e+01,1.220e+01,8.667e+00,1.031e+01,1.123e+01
8.305e-01,6.700e-01,3.063e-01,5.515e-01,5.979e-01,1.774e+00,2.178e+00,2.867e+00,3.267e+00,1.729e+00,3.493e+00,3.471e+00,2.725e+00,4.150e+00,4.869e+00,3.282e+00,3.157e+00,4.992e+00,4.534e+00,5.343e+00,4.612e+00,7.175e+00,5.827e+00,3.949e+00,6.655e+00,6.633e+00,6.483e+00,6.305e+00,6.997e+00,7.738e+00,6.908e+00,6.944e+00,8.646e+00,8.956e+00,7.775e+00,8.682e+00,9.869e+00,8.599e+00,9.389e+00,9.883e+00,7.134e+00,1.041e+01,8.722e+00,9.332e+00,1.016e+01,1.252e+01,1.202e+01,1.115e+01,1.142e+01,1.232e+01,9.934e+00,1.426e+01,1.304e+01,1.005e+01,1.275e+01,1.381e+01,1.262e+01,1.251e+01,1.150e+01,1.244e+01,1.293e+01,1.378e+01,1.400e+01,1.307e+01,1.355e+01,1.078e+01,1.105e+01,1.262e+01,1.128e+01,1.345e+01,1.202e+01,1.262e+01,1.112e+01,1.046e+01,1.021e+01,1.153e+01
1.094e-01,3.946e-01,3.501e-01,8.559e-01,9.921e-01,1.129e+00,2.282e+00,2.366e+00,2.745e+00,1.884e+00,3.142e+00,2.327e+00,3.520e+00,4.274e+00,4.529e+00,3.880e+00,3.587e+00,4.594e+00,5.106e+00,5.055e+00,3.514e+00,6.234e+00,3.957e+00,3.307e+00,5.799e+00,6.185e+00,6.322e+00,5.737e+00,6.120e+00,6.831e+00,5.606e+00,7.931e+00,8.258e+00,6.604e+00,8.213e+00,8.141e+00,9.622e+00,7.407e+00,8.279e+00,9.756e+00,5.965e+00,9.962e+00,7.385e+00,8.808e+00,9.582e+00,1.178e+01,1.139e+01,9.584e+00,1.132e+01,1.166e+01,9.916e+00,1.139e+01,1.223e+01,1.062e+01,1.073e+01,1.173e+01,1.098e+01,1.349e+01,1.007e+01,1.305e+01,1.170e+01,1.133e+01,1.126e+01,1.279e+01,1.123e+01,1.042e+01,1.214e+01,1.086e+01,1.058e+01,1.299e+01,1.135e+01,1.038e+01,1.100e+01,9.316e+00,9.820e+00,1.022e+01
2.390e-01,2.597e-01,3.850e-01,6.059e-01,5.082e-01,1.342e+00,1.865e+00,1.699e+00,2.371e+00,9.236e-01,1.927e+00,2.441e+00,2.056e+00,3.263e+00,3.302e+00,2.783e+00,3.305e+00,4.109e+00,4.168e+00,4.912e+00,5.484e+00,7.273e+00,5.478e+00,3.894e+00,6.912e+00,6.879e+00,7.755e+00,6.972e+00,7.061e+00,8.651e+00,8.753e+00,8.472e+00,8.403e+00,8.186e+00,1.002e+01,9.677e+00,9.731e+00,9.378e+00,1.029e+01,1.194e+01,9.200e+00,1.184e+01,9.801e+00,1.049e+01,1.177e+01,1.428e+01,1.283e+01,1.129e+01,1.196e+01,1.249e+01,1.055e+01,1.416e+01,1.395e+01,1.153e+01,1.371e+01,1.384e+01,1.357e+01,1.431e+01,1.303e+01,1.386e+01,1.426e+01,1.485e+01,1.535e+01,1.556e+01,1.437e+01,1.151e+01,1.373e+01,1.351e+01,1.323e+01,1.523e+01,1.359e+01,1.154e+01,1.375e+01,1.198e+01,1.173e+01,1.259e+01
2.253e-01,4.121e-01,1.797e-01,1.110e+00,7.727e-01,1.123e+00,2.262e+00,2.790e+00,3.261e+00,2.168e+00,3.701e+00,2.497e+00,3.226e+00,4.300e+00,5.170e+00,4.436e+00,3.961e+00,5.525e+00,5.637e+00,6.340e+00,5.830e+00,8.915e+00,6.373e+00,4.905e+00,8.116e+00,8.453e+00,8.963e+00,8.265e+00,8.524e+00,1.018e+01,8.863e+00,1.018e+01,1.052e+01,9.759e+00,1.014e+01,1.129e+01,1.214e+01,9.966e+00,1.217e+01,1.337e+01,9.341e+00,1.247e+01,1.010e+01,1.135e+01,1.252e+01,1.486e+01,1.405e+01,1.120e+01,1.263e+01,1.213e+01,1.053e+01,1.288e+01,1.429e+01,1.014e+01,1.349e+01,1.427e+01,1.405e+01,1.605e+01,1.306e+01,1.524e+01,1.345e+01,1.440e+01,1.419e+01,1.570e+01,1.341e+01,1.372e+01,1.252e+01,1.294e+01,1.335e+01,1.493e+01,1.404e+01,1.165e+01,1.295e+01,1.102e+01,1.269e+01,1.333e+01
5.957e-01,4.101e-01,1.928e-01,7.408e-01,2.779e-01,1.198e+00,1.739e+00,2.188e+00,2.616e+00,1.695e+00,3.207e+00,2.573e+00,2.875e+00,3.936e+00,4.727e+00,4.058e+00,3.226e+00,4.414e+00,5.191e+00,4.825e+00,5.202e+00,6.727e+00,5.353e+00,4.144e+00,6.407e+00,5.351e+00,6.395e+00,5.695e+00,6.519e+00,6.941e+00,6.656e+00,7.595e+00,7.581e+00,8.449e+00,8.441e+00,8.446e+00,9.600e+00,8.891e+00,9.413e+00,1.181e+01,8.745e+00,1.177e+01,9.383e+00,1.086e+01,1.029e+01,1.307e+01,1.212e+01,1.077e+01,1.156e+01,1.196e+01,9.661e+00,1.220e+01,1.250e+01,1.161e+01,1.180e+01,1.395e+01,1.430e+01,1.440e+01,1.345e+01,1.329e+01,1.307e+01,1.410e+01,1.296e+01,1.442e+01,1.182e+01,1.203e+01,1.152e+01,1.393e+01,1.201e+01,1.561e+01,1.346e+01,1.159e+01,1.311e+01,1.022e+01,1.250e+01,1.176e+01
7.236e-01,7.445e-01,3.499e-01,1.154e+00,9.491e-01,1.694e+00,2.523e+00,3.010e+00,3.630e+00,2.163e+00,4.226e+00,2.965e+00,3.707e+00,5.025e+00,5.481e+00,4.415e+00,3.713e+00,5.877e+00,6.121e+00,5.670e+00,3.921e+00,6.408e+00,5.014e+00,4.017e+00,6.486e+00,7.241e+00,6.628e+00,6.282e+00,6.884e+00,7.173e+00,6.743e+00,8.876e+00,8.643e+00,8.166e+00,8.871e+00,9.768e+00,1.033e+01,7.841e+00,8.944e+00,1.112e+01,7.629e+00,1.143e+01,7.561e+00,9.625e+00,1.058e+01,1.294e+01,1.239e+01,1.059e+01,1.143e+01,1.399e+01,1.058e+01,1.310e+01,1.357e+01,1.210e+01,1.288e+01,1.545e+01,1.362e+01,1.570e+01,1.398e+01,1.744e+01,1.433e+01,1.393e+01,1.504e+01,1.448e+01,1.511e+01,1.219e+01,1.406e+01,1.393e+01,1.237e+01,1.628e+01,1.350e+01,1.195e+01,1.412e+01,1.117e+01,1.294e+01,1.279e+01
6.710e-01,6.990e-01,4.714e-01,1.006e+00,9.722e-01,2.033e+00,2.384e+00,2.504e+00,3.036e+00,2.295e+00,4.508e+00,3.063e+00,3.786e+00,5.106e+00,5.448e+00,4.005e+00,4.738e+00,5.798e+00,6.815e+00,6.131e+00,6.113e+00,7.860e+00,7.012e+00,5.148e+00,7.993e+00,8.145e+00,9.174e+00,9.173e+00,8.673e+00,8.912e+00,8.455e+00,1.013e+01,1.011e+01,1.011e+01,1.043e+01,1.065e+01,1.216e+01,1.050e+01,1.110e+01,1.326e+01,9.974e+00,1.350e+01,9.556e+00,1.164e+01,1.328e+01,1.593e+01,1.554e+01,1.282e+01,1.430e+01,1.467e+01,1.072e+01,1.446e+01,1.545e+01,1.293e+01,1.559e+01,1.764e+01,1.627e+01,1.864e+01,1.749e+01,1.906e+01,1.645e+01,1.790e+01,1.847e+01,1.876e+01,1.757e+01,1.503e+01,1.633e+01,1.578e+01,1.741e+01,1.820e+01,1.544e+01,1.390e+01,1.725e+01,1.426e+01,1.588e+01,1.592e+01
1.440e-01,4.041e-01,2.273e-01,6.320e-01,8.835e-01,1.202e+00,1.889e+00,2.293e+00,2.115e+00,2.031e+00,3.408e+00,1.965e+00,3.222e+00,3.927e+00,4.205e+00,3.349e+00,3.740e+00,4.866e+00,5.328e+00,4.543e+00,4.341e+00,6.310e+00,5.474e+00,3.557e+00,6.769e+00,7.172e+00,7.788e+00,7.127e+00,7.041e+00,7.796e+00,7.737e+00,8.929e+00,9.325e+00,9.180e+00,8.942e+00,9.338e+00,1.074e+01,8.892e+00,9.675e+00,1.235e+01,9.431e+00,1.226e+01,9.747e+00,1.034e+01,1.219e+01,1.410e+01,1.483e+01,1.252e+01,1.287e+01,1.332e+01,1.113e+01,1.403e+01,1.507e+01,1.212e+01,1.399e+01,1.604e+01,1.352e+01,1.588e+01,1.576e+01,1.582e+01,1.596e+01,1.718e+01,1.716e+01,1.826e+01,1.501e+01,1.446e+01,1.550e+01,1.537e+01,1.629e+01,1.713e+01,1.327e+01,1.479e+01,1.668e+01,1.384e+01,1.382e+01,1.404e+01
6.588e-01,7.200e-01,4.663e-01,7.241e-01,1.041e+00,1.602e+00,2.030e+00,2.195e+00,2.415e+00,1.621e+00,3.386e+00,2.222e+00,3.256e+00,4.204e+00,5.027e+00,3.777e+00,2.995e+00,4.505e+00,6.007e+00,5.390e+00,4.034e+00,7.136e+00,5.396e+00,4.463e+00,6.360e+00,5.934e+00,6.644e+00,6.999e+00,7.818e+00,7.887e+00,6.702e+00,9.626e+00,9.900e+00,9.319e+00,9.170e+00,9.372e+00,1.309e+01,1.050e+01,9.912e+00,1.284e+01,8.363e+00,1.296e+01,9.534e+00,1.021e+01,1.136e+01,1.385e+01,1.508e+01,1.146e+01,1.242e+01,1.368e+01,1.113e+01,1.234e+01,1.369e+01,1.239e+01,1.379e+01,1.472e+01,1.468e+01,1.548e+01,1.454e+01,1.597e+01,1.634e+01,1.630e+01,1.522e+01,1.781e+01,1.465e+01,1.445e+01,1.377e+01,1.508e+01,1.645e+01,1.564e+01,1.445e+01,1.542e+01,1.530e+01,1.214e+01,1.235e+01,1.517e+01
3.780e-01,5.302e-01,1.248e-01,7.387e-01,7.600e-01,6.932e-01,1.150e+00,1.878e+00,2.277e+00,1.849e+00,3.718e+00,1.899e+00,3.680e+00,4.361e+00,4.864e+00,4.529e+00,3.699e+00,4.992e+00,6.178e+00,5.405e+00,5.288e+00,7.767e+00,6.025e+00,4.689e+00,6.723e+00,6.765e+00,8.455e+00,7.897e+00,8.103e+00,7.965e+00,8.311e+00,8.811e+00,9.093e+00,9.556e+00,1.002e+01,9.645e+00,1.227e+01,8.641e+00,9.362e+00,1.317e+01,9.127e+00,1.342e+01,1.041e+01,1.175e+01,1.252e+01,1.574e+01,1.490e+01,1.203e+01,1.325e+01,1.454e+01,1.185e+01,1.454e+01,1.567e+01,1.265e+01,1.416e+01,1.606e+01,1.401e+01,1.603e+01,1.552e+01,1.775e+01,1.629e+01,1.699e+01,1.725e+01,1.768e+01,1.541e+01,1.525e+01,1.497e+01,1.762e+01,1.502e+01,1.972e+01,1.625e+01,1.484e+01,1.638e+01,1.234e+01,1.449e+01,1.493e+01
6.031e-01,4.986e-01,4.134e-01,9.380e-01,5.944e-01,1.379e+00,1.901e+00,1.645e+00,2.507e+00,1.850e+00,3.239e+00,2.208e+00,2.921e+00,3.779e+00,4.135e+00,3.413e+00,3.333e+00,4.660e+00,4.977e+00,4.765e+00,4.409e+00,6.898e+00,5.022e+00,3.728e+00,5.327e+00,5.568e+00,5.999e+00,6.145e+00,6.704e+00,6.647e+00,5.529e+00,6.382e+00,8.406e+00,8.447e+00,7.281e+00,8.516e+00,9.891e+00,7.701e+00,8.270e+00,9.288e+00,7.132e+00,1.046e+01,7.436e+00,8.444e+00,8.701e+00,1.135e+01,1.135e+01,9.150e+00,9.221e+00,9.633e+00,8.135e+00,1.071e+01,1.083e+01,9.455e+00,1.062e+01,1.332e+01,1.205e+01,1.397e+01,1.225e+01,1.303e+01,1.367e+01,1.453e+01,1.341e+01,1.524e+01,1.169e+01,1.289e+01,1.148e+01,1.424e+01,1.442e+01,1.406e+01,1.342e+01,1.205e+01,1.304e+01,1.100e+01,1.309e+01,1.368e+01
1.599e-01,3.040e-01,7.943e-02,3.764e-01,5.201e-01,9.981e-01,1.322e+00,2.023e+00,1.935e+00,1.516e+00,3.105e+00,2.273e+00,2.799e+00,3.844e+00,4.033e+00,3.679e+00,3.500e+00,4.733e+00,4.807e+00,4.732e+00,5.312e+00,6.998e+00,5.608e+00,3.939e+00,6.614e+00,5.759e+00,7.930e+00,7.381e+00,6.508e+00,7.373e+00,7.388e+00,7.548e+00,8.841e+00,9.048e+00,8.496e+00,7.917e+00,9.888e+00,8.360e+00,9.157e+00,1.138e+01,8.968e+00,1.169e+01,9.643e+00,1.017e+01,9.764e+00,1.258e+01,1.186e+01,1.082e+01,1.124e+01,1.103e+01,8.838e+00,1.203e+01,1.261e+01,9.945e+00,1.276e+01,1.338e+01,1.120e+01,1.321e+01,1.264e+01,1.340e+01,1.278e+01,1.535e+01,1.510e+01,1.607e+01,1.262e+01,1.422e+01,1.323e+01,1.359e+01,1.422e+01,1.475e+01,1.277e+01,1.119e+01,1.420e+01,1.170e+01,1.292e+01,1.275e+01
9.500e-01,8.521e-01,4.559e-01,8.069e-01,9.128e-01,1.694e+00,1.652e+00,1.476e+00,2.313e+00,1.652e+00,2.971e+00,2.279e+00,2.667e+00,3.841e+00,4.424e+00,3.018e+00,3.434e+00,5.137e+00,5.822e+00,5.735e+00,5.587e+00,7.874e+00,6.328e+00,4.505e+00,7.274e+00,6.958e+00,8.088e+00,8.244e+00,8.244e+00,8.766e+00,8.115e+00,9.775e+00,1.040e+01,1.099e+01,1.051e+01,1.125e+01,1.351e+01,1.075e+01,1.164e+01,1.379e+01,1.074e+01,1.445e+01,1.153e+01,1.250e+01,1.436e+01,1.646e+01,1.684e+01,1.388e+01,1.436e+01,1.556e+01,1.288e+01,1.552e+01,1.681e+01,1.478e+01,1.596e+01,1.704e+01,1.674e+01,1.918e+01,1.819e+01,1.961e+01,1.766e+01,1.896e+01,1.972e+01,2.041e+01,1.758e+01,1.665e+01,1.685e+01,1.867e+01,1.844e+01,1.834e+01,1.750e+01,1.767e+01,1.910e+01,1.565e+01,1.787e+01,1.692e+01
8.359e-01,8.433e-01,3.864e-01,9.256e-01,1.012e+00,1.794e+00,2.114e+00,2.598e+00,3.271e+00,2.392e+00,4.889e+00,3.266e+00,3.883e+00,4.724e+00,5.361e+00,3.778e+00,3.904e+00,5.882e+00,6.135e+00,6.287e+00,5.380e+00,7.818e+00,6.018e+00,4.027e+00,6.635e+00,6.615e+00,7.363e+00,7.096e+00,8.195e+00,7.119e+00,7.164e+00,8.604e+00,9.631e+00,1.012e+01,9.752e+00,1.019e+01,9.748e+00,9.237e+00,9.654e+00,1.200e+01,8.964e+00,1.151e+01,8.857e+00,9.951e+00,1.100e+01,1.288e+01,1.300e+01,1.102e+01,1.125e+01,1.171e+01,9.975e+00,1.198e+01,1.341e+01,1.220e+01,1.271e+01,1.428e+01,1.326e+01,1.632e+01,1.492e+01,1.621e+01,1.521e+01,1.584e+01,1.677e+01,1.940e+01,1.610e+01,1.435e+01,1.442e+01,1.673e+01,1.773e+01,1.724e+01,1.548e+01,1.418e+01,1.602e+01,1.334e+01,1.638e+01,1.599e+01
6.758e-02,2.129e-01,3.781e-01,1.029e+00,6.542e-01,1.439e+00,2.247e+00,2.425e+00,2.767e+00,2.017e+00,3.414e+00,2.497e+00,2.963e+00,4.167e+00,5.160e+00,3.615e+00,3.904e+00,4.619e+00,5.304e+00,4.933e+00,5.261e+00,7.030e+00,6.205e+00,4.542e+00,6.723e+00,7.081e+00,7.798e+00,7.132e+00,7.785e+00,7.920e+00,6.973e+00,8.040e+00,9.438e+00,8.751e+00,8.258e+00,8.820e+00,9.745e+00,8.859e+00,1.034e+01,1.202e+01,9.245e+00,1.223e+01,9.556e+00,1.105e+01,1.192e+01,1.393e+01,1.361e+01,1.103e+01,1.207e+01,1.166e+01,1.006e+01,1.405e+01,1.331e+01,1.064e+01,1.343e+01,1.644e+01,1.487e+01,1.521e+01,1.429e+01,1.458e+01,1.467e+01,1.674e+01,1.622e+01,1.697e+01,1.505e+01,1.518e+01,1.379e+01,1.661e+01,1.580e+01,1.664e+01,1.562e+01,1.510e+01,1.520e+01,1.349e+01,1.402e+01,1.522e+01
6.011e-01,5.091e-01,4.197e-01,1.199e+00,6.367e-01,1.689e+00,2.511e+00,2.208e+00,3.177e+00,2.037e+00,3.583e+00,3.045e+00,3.344e+00,5.177e+00,5.064e+00,4.760e+00,4.288e+00,4.994e+00,5.570e+00,4.237e+00,4.656e+00,6.511e+00,5.799e+00,4.603e+00,6.099e+00,7.253e+00,6.647e+00,6.470e+00,7.985e+00,7.399e+00,7.764e+00,8.920e+00,1.028e+01,8.711e+00,8.851e+00,9.683e+00,1.044e+01,9.392e+00,9.657e+00,1.171e+01,8.985e+00,1.349e+01,9.538e+00,1.091e+01,1.232e+01,1.575e+01,1.474e+01,1.237e+01,1.337e+01,1.375e+01,1.124e+01,1.469e+01,1.501e+01,1.360e+01,1.504e+01,1.664e+01,1.632e+01,1.724e+01,1.522e+01,1.784e+01,1.608e+01,1.781e+01,1.715e+01,1.830e+01,1.644e+01,1.488e+01,1.508e+01,1.743e+01,1.821e+01,1.922e+01,1.695e+01,1.566e+01,1.727e+01,1.421e+01,1.556e+01,1.757e+01
8.568e-01,7.564e-01,2.763e-01,1.053e+00,7.401e-01,1.303e+00,1.676e+00,1.965e+00,2.724e+00,2.144e+00,3.704e+00,1.532e+00,2.900e+00,3.687e+00,3.891e+00,3.211e+00,2.911e+00,4.858e+00,5.108e+00,4.243e+00,4.062e+00,6.367e+00,4.851e+00,3.543e+00,5.090e+00,6.140e+00,5.836e+00,5.709e+00,6.252e+00,5.617e+00,6.047e+00,6.557e+00,7.766e+00,8.270e+00,7.955e+00,9.224e+00,9.988e+00,7.256e+00,8.321e+00,1.047e+01,8.710e+00,1.165e+01,9.094e+00,9.928e+00,1.112e+01,1.350e+01,1.347e+01,1.185e+01,1.176e+01,1.287e+01,1.159e+01,1.345e+01,1.397e+01,1.209e+01,1.320e+01,1.493e+01,1.315e+01,1.593e+01,1.474e+01,1.520e+01,1.450e+01,1.625e+01,1.712e+01,1.726e+01,1.628e+01,1.573e+01,1.561e+01,1.902e+01,1.708e+01,1.868e+01,1.717e+01,1.680e+01,1.691e+01,1.358e+01,1.651e+01,1.693e+01
1.564e-01,1.805e-01,3.622e-02,1.930e-01,2.493e-01,6.263e-01,1.248e+00,2.196e+00,2.077e+00,1.850e+00,2.844e+00,1.953e+00,2.736e+00,3.641e+00,3.391e+00,3.280e+00,2.634e+00,3.742e+00,3.540e+00,3.379e+00,3.528e+00,5.854e+00,3.907e+00,3.344e+00,5.010e+00,4.832e+00,5.495e+00,4.861e+00,5.662e+00,5.852e+00,5.777e+00,6.281e+00,7.619e+00,6.635e+00,7.106e+00,7.567e+00,7.275e+00,6.648e+00,7.759e+00,9.251e+00,6.944e+00,9.383e+00,7.839e+00,8.451e+00,8.551e+00,9.789e+00,1.038e+01,8.998e+00,9.804e+00,9.096e+00,8.608e+00,1.086e+01,1.149e+01,9.809e+00,1.170e+01,1.190e+01,1.115e+01,1.189e+01,1.202e+01,1.188e+01,1.297e+01,1.264e+01,1.291e+01,1.448e+01,1.267e+01,1.174e+01,1.168e+01,1.434e+01,1.361e+01,1.523e+01,1.313e+01,1.176e+01,1.461e+01,1.206e+01,1.218e+01,1.316e+01
6.882e-01,5.815e-01,4.373e-01,6.196e-01,6.618e-01,1.476e+00,1.903e+00,2.194e+00,3.047e+00,2.094e+00,3.944e+00,3.064e+00,3.896e+00,4.786e+00,5.075e+00,4.006e+00,3.800e+00,5.681e+00,6.382e+00,6.681e+00,5.567e+00,8.740e+00,6.358e+00,4.476e+00,7.755e+00,7.809e+00,8.566e+00,8.391e+00,8.522e+00,9.266e+00,8.633e+00,9.747e+00,1.022e+01,9.759e+00,1.015e+01,1.084e+01,1.208e+01,9.901e+00,1.070e+01,1.289e+01,1.020e+01,1.323e+01,1.067e+01,1.211e+01,1.325e+01,1.641e+01,1.601e+01,1.308e+01,1.336e+01,1.514e+01,1.265e+01,1.541e+01,1.637e+01,1.344e+01,1.601e+01,1.652e+01,1.636e+01,1.830e+01,1.793e+01,1.801e+01,1.802e+01,1.856e+01,1.962e+01,1.994e+01,1.856e+01,1.612e+01,1.660e+01,1.963e+01,1.923e+01,2.092e+01,1.984e+01,1.664e+01,1.892e+01,1.632e+01,1.846e+01,1.877e+01
5.770e-01,4.583e-01,1.806e-01,8.963e-01,3.946e-01,9.413e-01,1.370e+00,1.603e+00,2.252e+00,1.933e+00,2.865e+00,1.489e+00,2.685e+00,3.791e+00,3.866e+00,3.436e+00,2.899e+00,4.356e+00,4.968e+00,4.524e+00,4.583e+00,7.083e+00,5.081e+00,4.381e+00,6.531e+00,6.674e+00,6.991e+00,6.924e+00,7.548e+00,8.051e+00,7.377e+00,8.323e+00,1.008e+01,9.108e+00,8.155e+00,1.028e+01,1.106e+01,8.893e+00,1.063e+01,1.173e+01,9.188e+00,1.154e+01,8.930e+00,1.031e+01,1.153e+01,1.293e+01,1.356e+01,1.115e+01,1.120e+01,1.185e+01,1.031e+01,1.241e+01,1.370e+01,1.073e+01,1.292e+01,1.432e+01,1.420e+01,1.696e+01,1.536e+01,1.639e+01,1.567e+01,1.665e+01,1.777e+01,1.855e+01,1.501e+01,1.601e+01,1.516e+01,1.812e+01,1.882e+01,1.912e+01,1.774e+01,1.682e+01,1.944e+01,1.495e+01,1.846e+01,1.854e+01
6.568e-01,4.549e-01,3.857e-01,6.544e-01,4.039e-01,1.252e+00,1.834e+00,2.033e+00,2.984e+00,1.769e+00,2.944e+00,2.808e+00,3.391e+00,4.116e+00,4.374e+00,3.748e+00,3.322e+00,4.983e+00,5.406e+00,5.942e+00,5.283e+00,8.528e+00,5.538e+00,4.243e+00,7.223e+00,6.615e+00,7.348e+00,6.444e+00,7.527e+00,8.357e+00,8.038e+00,7.761e+00,9.154e+00,8.745e+00,8.706e+00,9.766e+00,1.060e+01,9.614e+00,9.452e+00,1.038e+01,8.325e+00,1.099e+01,8.563e+00,9.615e+00,1.003e+01,1.260e+01,1.228e+01,1.173e+01,1.042e+01,1.160e+01,9.298e+00,1.309e+01,1.286e+01,1.063e+01,1.163e+01,1.218e+01,1.268e+01,1.456e+01,1.347e+01,1.379e+01,1.542e+01,1.647e+01,1.572e+01,1.754e+01,1.508e+01,1.337e+01,1.360e+01,1.693e+01,1.681e+01,1.893e+01,1.646e+01,1.369e+01,1.682e+01,1.432e+01,1.659e+01,1.644e+01
5.108e-01,4.752e-01,3.848e-01,6.317e-01,6.616e-01,1.557e+00,2.190e+00,2.336e+00,2.591e+00,2.415e+00,4.419e+00,2.907e+00,3.981e+00,4.499e+00,5.012e+00,4.229e+00,3.754e+00,5.120e+00,6.195e+00,5.407e+00,4.474e+00,7.102e+00,6.294e+00,4.046e+00,6.836e+00,7.135e+00,7.737e+00,7.960e+00,7.644e+00,8.768e+00,7.747e+00,9.763e+00,9.922e+00,9.960e+00,9.628e+00,1.033e+01,1.279e+01,1.050e+01,1.131e+01,1.312e+01,9.886e+00,1.364e+01,1.121e+01,1.291e+01,1.216e+01,1.469e+01,1.601e+01,1.398e+01,1.401e+01,1.485e+01,1.284e+01,1.505e+01,1.529e+01,1.226e+01,1.480e+01,1.575e+01,1.476e+01,1.669e+01,1.530e+01,1.668e+01,1.745e+01,1.735e+01,1.691e+01,1.933e+01,1.520e+01,1.677e+01,1.567e+01,1.810e+01,1.805e+01,2.048e+01,1.742e+01,1.638e+01,1.888e+01,1.451e+01,1.805e+01,1.718e+01
2.979e-01,3.271e-01,2.198e-01,8.755e-01,5.035e-01,1.171e+00,2.021e+00,2.650e+00,3.150e+00,2.279e+00,4.045e+00,2.711e+00,3.750e+00,5.188e+00,5.140e+00,4.830e+00,4.093e+00,5.590e+00,5.942e+00,5.311e+00,5.318e+00,7.806e+00,6.072e+00,4.832e+00,6.977e+00,7.707e+00,7.872e+00,7.622e+00,7.914e+00,8.052e+00,8.356e+00,9.341e+00,1.053e+01,9.441e+00,9.759e+00,1.079e+01,9.756e+00,8.777e+00,1.050e+01,1.338e+01,9.732e+00,1.279e+01,1.024e+01,1.101e+01,1.163e+01,1.421e+01,1.319e+01,1.169e+01,1.260e+01,1.381e+01,1.084e+01,1.427e+01,1.513e+01,1.196e+01,1.493e+01,1.472e+01,1.428e+01,1.815e+01,1.661e+01,1.777e+01,1.611e+01,1.713e+01,1.822e+01,1.896e+01,1.749e+01,1.683e+01,1.525e+01,1.949e+01,1.759e+01,2.007e+01,1.935e+01,1.651e+01,1.951e+01,1.651e+01,1.912e+01,1.991e+01
2.843e-01,2.816e-01,4.165e-01,1.095e+00,5.209e-01,1.244e+00,1.671e+00,1.389e+00,2.274e+00,1.368e+00,2.766e+00,1.884e+00,2.568e+00,2.992e+00,3.721e+00,2.706e+00,2.970e+00,4.247e+00,4.801e+00,4.873e+00,4.132e+00,5.882e+00,5.180e+00,3.470e+00,4.869e+00,6.456e+00,6.121e+00,6.486e+00,6.769e+00,6.781e+00,6.011e+00,8.096e+00,8.545e+00,7.666e+00,7.828e+00,9.636e+00,1.007e+01,8.641e+00,9.544e+00,1.164e+01,8.452e+00,1.085e+01,8.145e+00,9.813e+00,1.103e+01,1.264e+01,1.332e+01,1.094e+01,1.038e+01,1.201e+01,1.068e+01,1.261e+01,1.267e+01,9.797e+00,1.215e+01,1.295e+01,1.398e+01,1.447e+01,1.448e+01,1.540e+01,1.431e+01,1.611e+01,1.521e+01,1.725e+01,1.571e+01,1.472e+01,1.362e+01,1.765e+01,1.786e+01,1.728e+01,1.676e+01,1.513e+01,1.576e+01,1.408e+01,1.567e+01,1.659e+01
3.323e-01,4.422e-01,3.736e-01,1.116e+00,7.918e-01,1.830e+00,2.338e+00,2.390e+00,2.895e+00,1.771e+00,3.140e+00,2.880e+00,2.722e+00,4.606e+00,4.890e+00,3.740e+00,3.994e+00,5.129e+00,5.118e+00,4.670e+00,4.572e+00,6.378e+00,5.371e+00,4.404e+00,7.086e+00,6.436e+00,7.662e+00,6.571e+00,6.704e+00,7.408e+00,6.715e+00,8.563e+00,8.984e+00,8.591e+00,8.855e+00,9.069e+00,1.083e+01,9.372e+00,1.044e+01,1.144e+01,8.118e+00,1.123e+01,9.318e+00,1.020e+01,1.146e+01,1.200e+01,1.331e+01,1.202e+01,1.168e+01,1.326e+01,1.055e+01,1.280e+01,1.313e+01,1.046e+01,1.420e+01,1.453e+01,1.408e+01,1.621e+01,1.517e+01,1.704e+01,1.508e+01,1.760e+01,1.703e+01,1.732e+01,1.656e+01,1.607e+01,1.518e+01,1.819e+01,1.784e+01,1.928e+01,1.696e+01,1.478e+01,1.846e+01,1.444e+01,1.726e+01,1.839e+01
1.155e-01,1.396e-01,2.840e-01,2.823e-01,3.678e-01,1.019e+00,1.718e+00,1.978e+00,2.186e+00,1.938e+00,3.050e+00,2.992e+00,3.552e+00,4.491e+00,4.444e+00,4.199e+00,3.898e+00,5.143e+00,5.049e+00,4.887e+00,4.083e+00,6.902e+00,4.853e+00,3.712e+00,6.120e+00,5.609e+00,6.627e+00,6.054e+00,6.521e+00,7.099e+00,5.742e+00,7.280e+00,9.089e+00,7.549e+00,7.302e+00,8.224e+00,9.643e+00,8.264e+00,7.618e+00,9.342e+00,6.401e+00,1.052e+01,7.524e+00,8.786e+00,1.001e+01,1.193e+01,1.269e+01,1.035e+01,1.020e+01,1.172e+01,9.214e+00,1.226e+01,1.220e+01,1.224e+01,1.215e+01,1.496e+01,1.330e+01,1.480e+01,1.445e+01,1.481e+01,1.550e+01,1.604e+01,1.588e+01,1.848e+01,1.605e+01,1.496e+01,1.393e+01,1.774e+01,1.919e+01,1.887e+01,1.595e+01,1.677e+01,1.687e+01,1.584e+01,1.843e+01,2.049e+01
