5.494e-01,3.168e-02,6.342e-03,1.831e-01,1.667e-01,3.279e-01,1.439e-01,3.211e-01,3.440e-01,9.546e-01,6.111e-01,1.348e-01,2.058e-01,8.547e-01,4.761e-01,7.478e-01,9.768e-01,4.124e-01,4.432e-01,5.020e-01,6.719e-01,8.651e-01,9.520e-01,5.775e-01,8.865e-01,5.431e-01,5.974e-02,3.785e-01,7.742e-01,2.956e-01,4.506e-01,5.654e-01,6.861e-01,4.749e-01,7.223e-01,4.793e-01,8.063e-01,6.845e-01,9.322e-01,6.014e-01,7.003e-01,1.283e-01,5.028e-01,6.935e-01,7.479e-01,2.906e-01,6.035e-01,1.880e-01,3.089e-01,6.446e-01,6.455e-01,2.258e-01,4.462e-01,9.500e-03,9.370e-01,6.594e-01,6.880e-01,3.307e-01,1.549e-03,6.603e-01,2.389e-01,7.149e-01,5.893e-01,5.543e-01,2.298e-01,7.240e-01,9.845e-01,9.970e-01,9.973e-01,5.203e-01,4.862e-01,9.227e-01,5.596e-01,4.608e-01,1.584e-01,8.785e-01,2.449e-01,5.225e-01,9.049e-01,5.422e-01,2.830e-02,5.879e-02,8.015e-01,6.379e-01,4.862e-01,8.883e-01,5.651e-01,9.074e-01,9.716e-01,4.032e-01,1.339e-01,1.665e-01,5.559e-02,5.289e-01,5.323e-01
1.800e-01,8.545e-01,8.727e-01,7.138e-01,8.817e-01,2.416e-01,6.666e-01,7.817e-01,5.272e-01,1.260e+00,7.860e-01,8.323e-01,9.527e-02,7.813e-01,1.060e+00,5.856e-01,7.212e-01,1.095e+00,3.369e-01,8.089e-01,7.267e-01,7.409e-01,8.937e-01,8.997e-01,1.162e+00,4.009e-01,1.872e-01,7.968e-01,2.876e-01,9.520e-01,1.928e-01,1.079e+00,1.136e+00,1.051e+00,4.144e-01,1.128e+00,1.169e+00,9.909e-01,9.133e-01,6.923e-01,4.889e-01,4.195e-01,3.124e-01,3.472e-01,7.772e-01,2.307e-01,1.118e+00,2.105e-01,1.090e+00,9.181e-01,1.075e+00,4.769e-01,5.869e-01,5.107e-01,6.283e-01,3.560e-01,1.135e+00,9.865e-01,2.296e-01,1.139e+00,7.286e-01,7.639e-01,9.991e-01,2.602e-01,4.021e-01,2.445e-01,1.281e+00,9.090e-01,6.271e-01,1.145e+00,6.299e-01,9.005e-01,5.996e-01,2.094e-01,9.901e-01,1.096e+00,6.561e-01,7.530e-01,3.794e-01,9.916e-01,4.569e-01,9.083e-02,1.124e+00,4.094e-01,9.716e-01,1.049e+00,5.576e-01,4.331e-01,3.407e-01,4.238e-01,4.708e-01,1.050e+00,1.119e-01,4.341e-01,7.768e-01
5.014e-02,6.237e-01,1.040e+00,1.306e+00,1.180e+00,8.228e-01,8.848e-01,8.718e-01,1.240e+00,8.004e-01,6.866e-01,7.042e-01,9.189e-01,6.612e-01,1.352e+00,1.295e+00,1.383e+00,1.403e+00,3.817e-01,1.369e+00,5.705e-01,1.273e+00,7.097e-01,1.410e+00,1.350e+00,9.018e-01,8.856e-01,1.171e+00,1.993e-01,1.310e+00,9.464e-01,1.228e+00,1.455e+00,1.699e+00,6.999e-01,1.429e+00,1.053e+00,1.484e+00,9.259e-01,8.252e-01,1.218e+00,8.421e-01,6.471e-01,7.974e-01,1.185e+00,4.642e-01,1.635e+00,3.608e-01,1.698e+00,1.319e+00,7.105e-01,5.681e-01,1.194e+00,5.128e-01,8.862e-01,9.049e-01,9.312e-01,9.608e-01,7.763e-01,1.294e+00,7.334e-01,5.088e-01,6.817e-01,2.469e-01,4.821e-01,1.111e-01,1.545e+00,8.486e-01,1.167e+00,1.531e+00,1.244e+00,1.211e+00,6.504e-01,6.873e-01,1.619e+00,1.655e+00,1.067e+00,1.244e+00,5.852e-01,7.444e-01,3.915e-01,6.917e-01,1.389e+00,1.036e+00,7.994e-01,8.498e-01,4.557e-01,9.617e-01,5.249e-01,1.012e+00,1.091e+00,1.457e+00,4.484e-01,1.238e+00,1.433e+00
2.228e-01,3.906e-01,5.481e-01,7.750e-01,7.225e-01,1.233e+00,7.266e-01,8.889e-01,9.436e-01,8.266e-01,8.648e-01,5.191e-01,1.103e+00,6.811e-01,1.737e+00,1.437e+00,1.773e+00,1.758e+00,1.086e+00,1.631e+00,1.240e+00,1.805e+00,1.443e+00,1.426e+00,1.168e+00,1.081e+00,1.393e+00,1.115e+00,3.895e-01,1.353e+00,9.643e-01,1.520e+00,1.497e+00,1.014e+00,6.567e-01,1.733e+00,1.303e+00,1.639e+00,1.611e+00,1.156e+00,1.195e+00,6.307e-01,1.403e+00,1.326e+00,1.006e+00,1.102e+00,1.064e+00,7.185e-01,1.879e+00,1.533e+00,1.274e+00,5.165e-01,1.619e+00,1.265e+00,1.591e+00,6.261e-01,1.098e+00,1.459e+00,8.119e-01,1.584e+00,1.126e+00,1.383e+00,9.291e-01,1.257e+00,1.131e+00,7.260e-01,1.866e+00,9.096e-01,1.263e+00,1.872e+00,1.579e+00,1.097e+00,1.300e+00,8.701e-01,1.047e+00,1.657e+00,1.085e+00,1.222e+00,1.215e+00,8.358e-01,9.273e-01,9.229e-01,1.577e+00,7.567e-01,1.035e+00,9.043e-01,1.019e+00,1.668e+00,1.380e+00,1.204e+00,9.407e-01,1.031e+00,8.357e-01,9.570e-01,1.333e+00
1.206e-01,6.818e-01,7.230e-01,6.627e-01,7.890e-01,1.526e+00,1.147e+00,1.660e+00,1.161e+00,1.635e+00,1.230e+00,1.385e+00,1.207e+00,1.213e+00,2.034e+00,9.137e-01,1.121e+00,2.239e+00,9.489e-01,1.553e+00,1.231e+00,1.816e+00,1.549e+00,1.779e+00,1.840e+00,1.085e+00,1.451e+00,1.697e+00,2.309e-01,1.735e+00,4.159e-01,1.541e+00,1.830e+00,1.007e+00,1.042e+00,2.007e+00,1.838e+00,1.609e+00,1.594e+00,9.600e-01,1.262e+00,7.130e-01,1.344e+00,7.913e-01,8.837e-01,9.794e-01,1.785e+00,9.592e-01,2.077e+00,1.579e+00,1.582e+00,1.000e+00,1.256e+00,1.884e+00,9.830e-01,1.067e+00,1.149e+00,1.390e+00,9.806e-01,1.729e+00,1.886e+00,1.203e+00,1.894e+00,1.584e+00,1.726e+00,1.106e+00,2.318e+00,1.531e+00,1.328e+00,1.881e+00,1.324e+00,1.617e+00,1.033e+00,1.236e+00,1.236e+00,1.527e+00,1.247e+00,1.537e+00,1.610e+00,1.191e+00,9.317e-01,1.333e+00,2.163e+00,1.359e+00,1.686e+00,1.421e+00,1.462e+00,1.242e+00,9.193e-01,1.387e+00,7.387e-01,1.760e+00,1.275e+00,1.477e+00,1.155e+00
2.599e-01,8.418e-01,1.092e+00,1.231e+00,1.243e+00,1.721e+00,1.266e+00,2.330e+00,2.319e+00,1.927e+00,1.260e+00,1.469e+00,1.300e+00,2.031e+00,1.968e+00,1.604e+00,1.893e+00,2.412e+00,1.391e+00,1.995e+00,1.811e+00,2.322e+00,1.636e+00,2.606e+00,2.393e+00,1.881e+00,1.343e+00,2.317e+00,8.207e-01,2.106e+00,1.679e+00,2.394e+00,2.310e+00,1.827e+00,1.826e+00,2.293e+00,2.162e+00,2.487e+00,1.831e+00,1.583e+00,1.723e+00,1.026e+00,1.447e+00,1.816e+00,1.424e+00,8.936e-01,2.484e+00,8.767e-01,2.183e+00,2.255e+00,2.008e+00,1.110e+00,1.611e+00,1.454e+00,2.109e+00,1.380e+00,1.634e+00,2.214e+00,1.734e+00,2.774e+00,1.876e+00,1.691e+00,1.959e+00,9.597e-01,1.532e+00,1.026e+00,2.704e+00,2.360e+00,2.127e+00,2.119e+00,2.443e+00,2.158e+00,1.841e+00,1.352e+00,2.455e+00,2.289e+00,1.481e+00,1.952e+00,1.527e+00,1.448e+00,1.246e+00,1.691e+00,2.725e+00,1.695e+00,1.645e+00,1.584e+00,1.677e+00,1.869e+00,1.799e+00,2.061e+00,1.131e+00,2.317e+00,1.687e+00,1.492e+00,1.870e+00
3.400e-01,5.501e-02,4.109e-02,1.687e-01,1.708e-01,1.276e+00,6.420e-01,2.331e+00,1.984e+00,1.323e+00,1.243e+00,1.708e+00,1.475e+00,1.876e+00,1.204e+00,1.005e+00,1.638e+00,2.194e+00,1.586e+00,1.646e+00,1.269e+00,1.691e+00,2.058e+00,1.718e+00,1.593e+00,1.398e+00,1.451e+00,1.854e+00,9.829e-01,1.163e+00,1.622e+00,1.458e+00,1.225e+00,1.353e+00,1.643e+00,1.689e+00,1.430e+00,2.101e+00,1.957e+00,1.801e+00,1.139e+00,9.550e-01,1.780e+00,1.923e+00,1.415e+00,1.132e+00,1.344e+00,1.427e+00,1.884e+00,1.971e+00,1.969e+00,9.896e-01,8.482e-01,1.303e+00,1.703e+00,1.598e+00,8.232e-01,1.171e+00,1.881e+00,1.895e+00,2.223e+00,1.165e+00,2.226e+00,1.756e+00,1.241e+00,1.642e+00,2.068e+00,1.814e+00,2.073e+00,9.577e-01,1.785e+00,1.495e+00,1.159e+00,1.973e+00,1.112e+00,1.405e+00,1.050e+00,1.514e+00,2.259e+00,1.509e+00,8.301e-01,1.731e+00,2.260e+00,1.518e+00,1.910e+00,1.810e+00,1.834e+00,2.089e+00,2.188e+00,1.731e+00,6.250e-01,1.803e+00,2.173e+00,1.070e+00,9.685e-01
3.566e-01,4.663e-01,8.148e-01,1.201e+00,1.056e+00,1.285e+00,9.495e-01,2.121e+00,2.218e+00,1.388e+00,1.357e+00,1.513e+00,2.353e+00,2.021e+00,1.799e+00,1.989e+00,2.816e+00,2.556e+00,1.212e+00,1.971e+00,1.776e+00,2.252e+00,1.751e+00,1.906e+00,2.021e+00,1.768e+00,2.039e+00,2.313e+00,1.666e+00,1.859e+00,1.905e+00,1.810e+00,2.424e+00,2.029e+00,2.249e+00,2.103e+00,1.566e+00,2.926e+00,1.912e+00,2.283e+00,2.178e+00,1.491e+00,1.497e+00,2.202e+00,2.218e+00,1.046e+00,2.347e+00,1.358e+00,2.406e+00,2.743e+00,1.416e+00,1.257e+00,2.050e+00,1.581e+00,2.446e+00,1.843e+00,1.688e+00,1.529e+00,1.820e+00,2.427e+00,2.180e+00,1.404e+00,1.321e+00,1.929e+00,1.383e+00,1.686e+00,3.128e+00,1.526e+00,2.218e+00,2.030e+00,2.194e+00,2.261e+00,1.854e+00,2.298e+00,2.600e+00,2.559e+00,2.180e+00,2.041e+00,2.438e+00,1.363e+00,1.306e+00,1.900e+00,2.997e+00,1.639e+00,2.117e+00,2.075e+00,2.093e+00,2.303e+00,1.562e+00,1.724e+00,2.159e+00,2.357e+00,1.716e+00,1.706e+00,2.526e+00
1.864e-02,2.471e-01,5.420e-01,8.588e-01,7.170e-01,2.054e+00,1.090e+00,2.736e+00,3.477e+00,1.349e+00,1.930e+00,2.183e+00,2.587e+00,2.337e+00,2.203e+00,2.631e+00,2.894e+00,3.740e+00,1.887e+00,3.234e+00,2.410e+00,3.019e+00,2.111e+00,3.015e+00,2.731e+00,2.407e+00,2.808e+00,3.349e+00,1.383e+00,2.850e+00,2.716e+00,2.241e+00,3.044e+00,2.166e+00,2.571e+00,3.092e+00,1.708e+00,3.877e+00,2.703e+00,2.483e+00,2.024e+00,1.655e+00,2.336e+00,3.075e+00,1.883e+00,2.242e+00,2.340e+00,2.420e+00,3.702e+00,3.560e+00,2.388e+00,1.395e+00,2.738e+00,2.458e+00,2.783e+00,2.014e+00,1.404e+00,2.665e+00,2.783e+00,3.383e+00,3.393e+00,1.904e+00,2.892e+00,3.026e+00,2.507e+00,1.710e+00,3.330e+00,2.459e+00,2.836e+00,2.099e+00,2.880e+00,1.977e+00,2.917e+00,2.561e+00,2.432e+00,2.254e+00,2.310e+00,2.273e+00,2.906e+00,1.464e+00,2.175e+00,3.019e+00,3.457e+00,1.820e+00,2.289e+00,1.892e+00,2.755e+00,3.243e+00,2.240e+00,3.000e+00,1.798e+00,3.277e+00,3.555e+00,2.106e+00,2.580e+00
2.065e-01,5.249e-01,6.472e-01,7.120e-01,7.535e-01,1.493e+00,1.082e+00,2.392e+00,2.099e+00,2.412e+00,2.139e+00,2.007e+00,2.195e+00,2.485e+00,2.266e+00,1.816e+00,2.001e+00,3.490e+00,2.158e+00,2.133e+00,2.107e+00,2.803e+00,1.920e+00,2.574e+00,2.359e+00,1.805e+00,2.583e+00,3.121e+00,1.534e+00,2.339e+00,1.610e+00,2.401e+00,2.638e+00,2.012e+00,2.338e+00,2.736e+00,2.597e+00,2.671e+00,2.445e+00,2.387e+00,2.372e+00,1.697e+00,2.207e+00,2.163e+00,1.717e+00,1.855e+00,2.462e+00,1.464e+00,2.974e+00,2.339e+00,2.486e+00,1.926e+00,2.079e+00,2.584e+00,1.707e+00,1.828e+00,2.226e+00,2.407e+00,2.323e+00,3.160e+00,2.889e+00,1.608e+00,2.243e+00,2.721e+00,1.963e+00,1.881e+00,3.052e+00,2.718e+00,2.585e+00,2.163e+00,1.796e+00,2.625e+00,2.394e+00,2.480e+00,2.535e+00,2.471e+00,2.520e+00,2.624e+00,2.952e+00,1.500e+00,1.431e+00,2.539e+00,3.319e+00,2.335e+00,2.393e+00,2.729e+00,2.536e+00,2.136e+00,1.851e+00,2.387e+00,1.699e+00,2.808e+00,2.592e+00,1.792e+00,2.307e+00
3.973e-01,7.377e-01,9.131e-01,1.058e+00,1.084e+00,1.229e+00,1.066e+00,1.985e+00,1.969e+00,2.153e+00,2.281e+00,2.501e+00,1.643e+00,2.504e+00,2.841e+00,2.030e+00,3.080e+00,3.145e+00,2.437e+00,2.920e+00,2.654e+00,2.731e+00,2.078e+00,3.205e+00,2.719e+00,1.846e+00,1.845e+00,2.613e+00,1.870e+00,2.996e+00,2.039e+00,3.034e+00,2.682e+00,2.341e+00,2.137e+00,2.975e+00,2.614e+00,2.931e+00,3.305e+00,2.550e+00,2.182e+00,2.302e+00,2.445e+00,3.036e+00,2.356e+00,2.014e+00,2.579e+00,1.249e+00,3.379e+00,2.884e+00,3.077e+00,1.490e+00,2.405e+00,2.673e+00,2.920e+00,2.418e+00,2.405e+00,2.248e+00,1.825e+00,3.791e+00,2.592e+00,2.273e+00,2.399e+00,2.947e+00,2.137e+00,1.909e+00,3.291e+00,2.571e+00,2.752e+00,2.267e+00,2.545e+00,2.292e+00,2.986e+00,2.041e+00,2.922e+00,3.205e+00,2.479e+00,2.477e+00,2.769e+00,2.113e+00,2.168e+00,1.923e+00,3.711e+00,1.803e+00,2.159e+00,3.121e+00,2.931e+00,2.618e+00,2.680e+00,2.340e+00,1.973e+00,3.127e+00,2.555e+00,1.596e+00,2.320e+00
6.574e-02,6.517e-01,7.047e-01,6.387e-01,7.423e-01,1.353e+00,9.764e-01,3.172e+00,3.030e+00,1.889e+00,1.985e+00,3.093e+00,2.579e+00,3.117e+00,2.900e+00,2.048e+00,2.789e+00,4.172e+00,3.180e+00,3.020e+00,3.066e+00,3.398e+00,2.481e+00,2.932e+00,2.856e+00,2.527e+00,3.258e+00,4.222e+00,1.976e+00,3.632e+00,2.999e+00,3.308e+00,2.843e+00,2.933e+00,3.735e+00,3.067e+00,2.355e+00,4.134e+00,3.424e+00,3.796e+00,2.527e+00,2.609e+00,2.242e+00,3.302e+00,2.451e+00,2.759e+00,2.786e+00,2.281e+00,3.794e+00,3.573e+00,3.672e+00,2.391e+00,2.477e+00,2.918e+00,3.569e+00,2.600e+00,2.136e+00,3.093e+00,3.762e+00,3.882e+00,4.164e+00,2.956e+00,3.330e+00,3.802e+00,2.600e+00,2.531e+00,4.203e+00,2.756e+00,3.488e+00,2.865e+00,2.737e+00,2.764e+00,4.037e+00,2.802e+00,3.824e+00,2.962e+00,3.220e+00,3.152e+00,3.505e+00,2.172e+00,3.364e+00,3.348e+00,4.041e+00,2.299e+00,3.300e+00,3.132e+00,3.560e+00,3.262e+00,2.987e+00,3.510e+00,2.391e+00,3.864e+00,4.329e+00,2.052e+00,2.684e+00
2.517e-01,2.486e-02,1.949e-01,4.979e-01,3.714e-01,9.714e-01,4.562e-01,9.011e-01,1.058e+00,1.281e+00,1.446e+00,1.143e+00,2.878e+00,2.470e+00,2.834e+00,2.207e+00,2.399e+00,2.818e+00,3.443e+00,2.479e+00,2.575e+00,3.780e+00,1.934e+00,2.566e+00,2.076e+00,2.367e+00,3.634e+00,3.099e+00,1.463e+00,2.961e+00,2.381e+00,2.468e+00,1.957e+00,3.001e+00,3.060e+00,2.740e+00,2.494e+00,2.412e+00,2.890e+00,2.809e+00,3.246e+00,2.248e+00,2.857e+00,2.772e+00,2.110e+00,3.454e+00,2.035e+00,1.987e+00,2.793e+00,1.969e+00,2.706e+00,1.891e+00,2.267e+00,2.316e+00,2.841e+00,1.976e+00,2.376e+00,2.419e+00,3.270e+00,2.388e+00,2.118e+00,2.225e+00,1.981e+00,3.976e+00,1.864e+00,1.873e+00,3.367e+00,2.483e+00,3.687e+00,3.436e+00,1.510e+00,2.396e+00,3.546e+00,2.655e+00,2.902e+00,3.038e+00,2.940e+00,3.571e+00,3.053e+00,1.295e+00,2.819e+00,2.359e+00,3.241e+00,3.163e+00,2.554e+00,2.929e+00,2.502e+00,3.158e+00,3.201e+00,3.053e+00,1.824e+00,2.210e+00,3.313e+00,2.756e+00,2.284e+00
3.853e-01,5.785e-01,9.241e-01,1.312e+00,1.189e+00,2.169e+00,1.307e+00,2.591e+00,2.910e+00,2.242e+00,2.102e+00,2.370e+00,2.857e+00,3.845e+00,3.866e+00,3.663e+00,3.653e+00,4.773e+00,3.879e+00,4.592e+00,4.191e+00,4.875e+00,2.975e+00,4.720e+00,3.626e+00,4.217e+00,4.426e+00,4.668e+00,2.589e+00,4.945e+00,4.252e+00,4.211e+00,4.166e+00,4.519e+00,4.440e+00,4.406e+00,3.316e+00,4.293e+00,4.603e+00,3.764e+00,4.090e+00,3.658e+00,3.548e+00,3.886e+00,3.389e+00,3.551e+00,3.696e+00,2.798e+00,4.839e+00,3.865e+00,3.856e+00,2.905e+00,3.533e+00,3.299e+00,4.158e+00,3.140e+00,2.952e+00,3.548e+00,3.989e+00,4.614e+00,4.133e+00,3.239e+00,3.990e+00,4.236e+00,3.688e+00,2.345e+00,4.602e+00,3.637e+00,4.653e+00,4.005e+00,3.687e+00,3.703e+00,4.402e+00,3.304e+00,4.109e+00,4.445e+00,3.348e+00,4.242e+00,4.384e+00,2.889e+00,3.458e+00,3.925e+00,5.444e+00,3.738e+00,3.303e+00,3.998e+00,3.392e+00,4.695e+00,4.746e+00,4.154e+00,2.340e+00,3.729e+00,4.600e+00,3.403e+00,3.629e+00
2.965e-01,7.684e-01,1.127e+00,1.450e+00,1.376e+00,2.629e+00,1.678e+00,3.503e+00,4.022e+00,2.839e+00,2.848e+00,2.925e+00,3.304e+00,3.661e+00,3.596e+00,4.077e+00,4.752e+00,5.383e+00,3.415e+00,4.571e+00,3.934e+00,5.333e+00,3.271e+00,4.742e+00,4.809e+00,3.799e+00,3.834e+00,5.674e+00,2.708e+00,4.728e+00,3.224e+00,3.883e+00,5.033e+00,4.102e+00,4.226e+00,4.311e+00,3.874e+00,5.435e+00,4.542e+00,3.760e+00,3.994e+00,2.567e+00,3.030e+00,4.630e+00,3.625e+00,3.455e+00,4.486e+00,3.274e+00,5.104e+00,4.542e+00,4.075e+00,3.159e+00,4.482e+00,3.633e+00,4.138e+00,3.923e+00,2.902e+00,4.022e+00,4.058e+00,5.339e+00,5.223e+00,3.009e+00,4.381e+00,5.027e+00,3.783e+00,2.979e+00,5.168e+00,4.715e+00,4.580e+00,4.200e+00,4.255e+00,4.137e+00,5.015e+00,3.981e+00,4.543e+00,4.242e+00,3.814e+00,4.367e+00,4.977e+00,2.214e+00,3.823e+00,4.555e+00,5.256e+00,3.651e+00,3.717e+00,3.858e+00,3.971e+00,4.589e+00,3.142e+00,4.138e+00,2.890e+00,4.486e+00,4.877e+00,3.325e+00,4.814e+00
2.137e-01,7.943e-01,9.149e-01,8.919e-01,9.935e-01,1.404e+00,1.184e+00,2.861e+00,2.731e+00,2.226e+00,2.251e+00,3.480e+00,2.329e+00,3.465e+00,3.352e+00,2.109e+00,3.129e+00,4.059e+00,3.780e+00,4.020e+00,3.849e+00,3.540e+00,2.845e+00,4.451e+00,3.667e+00,3.690e+00,3.057e+00,4.231e+00,2.405e+00,5.150e+00,3.347e+00,4.065e+00,3.503e+00,3.795e+00,4.688e+00,3.490e+00,3.439e+00,4.539e+00,4.008e+00,3.483e+00,3.442e+00,3.671e+00,3.052e+00,3.623e+00,3.216e+00,3.634e+00,3.628e+00,2.825e+00,4.380e+00,3.706e+00,4.237e+00,3.024e+00,3.056e+00,3.373e+00,4.088e+00,3.389e+00,3.017e+00,3.206e+00,3.969e+00,4.541e+00,4.360e+00,3.120e+00,4.082e+00,4.842e+00,3.352e+00,3.342e+00,4.814e+00,3.623e+00,4.619e+00,3.515e+00,3.551e+00,3.385e+00,4.758e+00,3.646e+00,4.890e+00,4.474e+00,3.832e+00,3.917e+00,4.642e+00,3.531e+00,4.109e+00,3.690e+00,5.510e+00,3.268e+00,3.761e+00,4.587e+00,4.681e+00,3.266e+00,3.310e+00,4.352e+00,3.342e+00,4.892e+00,4.833e+00,3.091e+00,3.283e+00
2.633e-01,4.724e-01,4.871e-01,5.181e-01,5.899e-01,1.083e+00,7.475e-01,1.676e+00,1.564e+00,1.573e+00,1.888e+00,2.538e+00,2.151e+00,2.685e+00,3.317e+00,2.266e+00,4.384e+00,3.772e+00,4.284e+00,4.247e+00,3.783e+00,4.300e+00,3.379e+00,4.072e+00,4.130e+00,4.070e+00,4.122e+00,4.064e+00,2.353e+00,5.791e+00,2.874e+00,4.430e+00,3.816e+00,4.319e+00,4.754e+00,3.406e+00,3.520e+00,4.789e+00,4.992e+00,3.805e+00,3.655e+00,3.321e+00,3.276e+00,4.774e+00,4.140e+00,4.806e+00,3.420e+00,3.700e+00,4.639e+00,3.195e+00,5.055e+00,3.563e+00,4.057e+00,3.442e+00,5.057e+00,3.395e+00,2.900e+00,3.823e+00,4.697e+00,4.048e+00,4.230e+00,3.604e+00,4.197e+00,6.148e+00,3.952e+00,3.769e+00,4.328e+00,4.282e+00,4.864e+00,4.433e+00,3.655e+00,3.252e+00,5.409e+00,3.491e+00,4.283e+00,5.260e+00,4.077e+00,4.249e+00,4.641e+00,3.420e+00,4.702e+00,3.451e+00,4.842e+00,3.368e+00,4.400e+00,5.034e+00,4.642e+00,4.187e+00,4.159e+00,4.091e+00,3.111e+00,3.877e+00,4.733e+00,2.970e+00,3.995e+00
4.155e-01,3.137e-01,4.800e-01,7.461e-01,6.912e-01,1.571e+00,9.995e-01,2.428e+00,2.870e+00,2.326e+00,2.579e+00,2.742e+00,3.724e+00,4.030e+00,3.562e+00,3.497e+00,4.637e+00,5.320e+00,4.437e+00,4.992e+00,4.751e+00,5.793e+00,3.994e+00,4.538e+00,5.771e+00,5.494e+00,6.260e+00,5.494e+00,2.900e+00,5.842e+00,3.829e+00,4.642e+00,5.175e+00,6.042e+00,6.254e+00,4.679e+00,4.355e+00,6.218e+00,5.299e+00,5.101e+00,4.869e+00,3.835e+00,4.759e+00,5.513e+00,4.891e+00,5.884e+00,4.769e+00,4.910e+00,5.372e+00,4.711e+00,5.173e+00,4.230e+00,4.921e+00,3.575e+00,5.752e+00,4.531e+00,3.863e+00,4.408e+00,6.203e+00,5.003e+00,5.757e+00,3.623e+00,5.230e+00,7.192e+00,4.311e+00,3.995e+00,6.158e+00,6.018e+00,6.245e+00,4.983e+00,3.569e+00,4.241e+00,5.844e+00,4.746e+00,4.964e+00,5.721e+00,5.429e+00,5.530e+00,6.345e+00,3.324e+00,5.193e+00,4.229e+00,6.670e+00,4.746e+00,5.688e+00,5.429e+00,5.505e+00,5.591e+00,4.921e+00,5.738e+00,3.565e+00,4.991e+00,6.229e+00,5.323e+00,5.290e+00
6.539e-02,2.740e-01,5.281e-01,8.028e-01,6.914e-01,1.753e+00,9.618e-01,2.438e+00,2.654e+00,1.484e+00,1.881e+00,2.222e+00,3.252e+00,2.826e+00,2.972e+00,2.805e+00,3.521e+00,4.622e+00,4.545e+00,4.880e+00,4.099e+00,4.658e+00,3.743e+00,4.316e+00,4.627e+00,4.816e+00,5.994e+00,5.223e+00,3.226e+00,4.736e+00,3.517e+00,4.235e+00,4.608e+00,4.839e+00,5.310e+00,4.670e+00,3.642e+00,5.911e+00,4.069e+00,4.167e+00,4.330e+00,3.904e+00,4.308e+00,4.425e+00,3.647e+00,5.285e+00,4.255e+00,4.279e+00,4.953e+00,4.241e+00,3.889e+00,3.828e+00,4.220e+00,3.835e+00,4.660e+00,3.436e+00,3.945e+00,4.389e+00,5.822e+00,5.375e+00,5.162e+00,3.614e+00,4.013e+00,5.751e+00,3.482e+00,3.835e+00,5.265e+00,4.529e+00,5.066e+00,3.965e+00,3.683e+00,3.465e+00,5.550e+00,4.704e+00,4.705e+00,5.140e+00,4.714e+00,4.602e+00,5.355e+00,3.403e+00,5.001e+00,4.436e+00,6.178e+00,3.934e+00,4.426e+00,4.355e+00,4.691e+00,4.108e+00,4.041e+00,5.078e+00,4.275e+00,4.765e+00,5.671e+00,4.262e+00,5.125e+00
2.001e-01,6.561e-01,7.783e-01,8.464e-01,9.023e-01,1.546e+00,1.155e+00,2.319e+00,1.998e+00,2.344e+00,2.334e+00,2.366e+00,3.273e+00,3.519e+00,3.674e+00,3.565e+00,3.933e+00,5.645e+00,5.019e+00,5.871e+00,5.596e+00,5.763e+00,4.905e+00,5.542e+00,5.116e+00,6.064e+00,6.436e+00,6.304e+00,3.347e+00,5.528e+00,3.521e+00,4.730e+00,5.929e+00,6.827e+00,5.919e+00,5.807e+00,5.363e+00,5.905e+00,5.444e+00,4.831e+00,5.671e+00,4.275e+00,5.481e+00,5.577e+00,4.501e+00,6.286e+00,5.368e+00,4.830e+00,5.752e+00,4.359e+00,4.959e+00,4.923e+00,5.145e+00,4.870e+00,4.323e+00,4.868e+00,5.160e+00,5.356e+00,6.088e+00,5.487e+00,6.073e+00,3.419e+00,5.346e+00,6.881e+00,4.857e+00,3.875e+00,5.797e+00,6.009e+00,5.440e+00,5.317e+00,4.387e+00,4.777e+00,5.812e+00,5.485e+00,5.200e+00,5.902e+00,5.162e+00,5.669e+00,6.383e+00,4.525e+00,5.521e+00,4.784e+00,6.574e+00,4.790e+00,5.268e+00,5.803e+00,4.881e+00,5.738e+00,5.275e+00,5.149e+00,3.622e+00,5.206e+00,5.932e+00,4.875e+00,6.245e+00
2.837e-01,2.923e-01,5.857e-01,9.761e-01,8.244e-01,1.733e+00,1.004e+00,2.876e+00,3.438e+00,1.707e+00,2.457e+00,3.142e+00,3.275e+00,3.733e+00,3.607e+00,4.123e+00,5.494e+00,5.816e+00,4.926e+00,6.515e+00,5.561e+00,5.864e+00,5.761e+00,6.506e+00,5.783e+00,6.361e+00,6.651e+00,6.619e+00,3.996e+00,7.076e+00,5.830e+00,5.252e+00,6.760e+00,6.929e+00,7.107e+00,6.068e+00,4.719e+00,7.801e+00,6.568e+00,5.781e+00,5.842e+00,5.270e+00,4.866e+00,6.960e+00,6.239e+00,6.794e+00,5.621e+00,5.541e+00,7.284e+00,6.121e+00,5.566e+00,4.910e+00,5.588e+00,5.067e+00,6.581e+00,5.100e+00,4.673e+00,5.471e+00,7.288e+00,6.117e+00,6.892e+00,4.789e+00,5.717e+00,7.815e+00,5.798e+00,5.231e+00,5.856e+00,6.212e+00,6.736e+00,5.268e+00,5.391e+00,4.649e+00,7.194e+00,6.168e+00,5.501e+00,6.747e+00,5.478e+00,5.518e+00,6.751e+00,5.679e+00,5.551e+00,6.256e+00,7.570e+00,5.016e+00,5.402e+00,6.377e+00,5.884e+00,7.287e+00,6.261e+00,6.047e+00,5.089e+00,6.252e+00,6.602e+00,4.971e+00,6.526e+00
1.067e-01,8.242e-01,9.538e-01,9.184e-01,1.022e+00,1.338e+00,1.229e+00,2.598e+00,2.494e+00,1.977e+00,2.024e+00,2.649e+00,3.043e+00,3.241e+00,2.885e+00,2.619e+00,3.518e+00,4.302e+00,3.733e+00,4.698e+00,4.013e+00,5.199e+00,5.334e+00,5.513e+00,5.633e+00,4.739e+00,5.303e+00,5.416e+00,3.067e+00,5.612e+00,4.297e+00,3.822e+00,5.792e+00,5.547e+00,5.552e+00,5.782e+00,5.392e+00,6.379e+00,4.364e+00,4.210e+00,5.206e+00,3.895e+00,4.530e+00,4.847e+00,4.784e+00,6.176e+00,5.342e+00,5.677e+00,6.002e+00,4.661e+00,4.748e+00,4.337e+00,3.850e+00,4.455e+00,4.577e+00,3.713e+00,5.170e+00,4.610e+00,6.160e+00,5.163e+00,6.198e+00,3.749e+00,5.080e+00,6.923e+00,4.504e+00,4.310e+00,5.933e+00,6.227e+00,5.585e+00,4.978e+00,4.484e+00,3.588e+00,6.194e+00,5.913e+00,5.304e+00,5.818e+00,4.417e+00,5.761e+00,5.546e+00,5.404e+00,5.445e+00,4.918e+00,7.163e+00,5.276e+00,5.512e+00,6.005e+00,4.710e+00,5.322e+00,4.417e+00,5.184e+00,4.555e+00,5.522e+00,5.243e+00,4.785e+00,5.348e+00
5.208e-01,6.698e-01,6.818e-01,7.148e-01,8.271e-01,1.397e+00,1.005e+00,2.670e+00,2.898e+00,3.215e+00,2.988e+00,2.602e+00,2.656e+00,4.179e+00,2.878e+00,3.130e+00,4.236e+00,4.628e+00,3.980e+00,4.700e+00,4.988e+00,5.578e+00,5.784e+00,5.573e+00,6.782e+00,5.398e+00,5.463e+00,6.590e+00,4.775e+00,5.936e+00,4.509e+00,4.932e+00,7.366e+00,4.975e+00,6.345e+00,6.440e+00,5.913e+00,7.029e+00,5.155e+00,5.695e+00,5.601e+00,4.172e+00,5.224e+00,6.822e+00,4.546e+00,6.108e+00,6.506e+00,5.100e+00,6.362e+00,5.594e+00,5.638e+00,4.707e+00,4.910e+00,5.423e+00,6.062e+00,4.805e+00,6.518e+00,6.222e+00,6.308e+00,7.054e+00,5.826e+00,4.921e+00,5.463e+00,7.109e+00,5.627e+00,5.073e+00,6.126e+00,7.946e+00,5.722e+00,4.328e+00,4.608e+00,4.698e+00,6.901e+00,5.778e+00,5.300e+00,6.654e+00,5.117e+00,5.234e+00,6.125e+00,4.788e+00,5.470e+00,5.182e+00,6.747e+00,4.756e+00,5.827e+00,6.587e+00,5.240e+00,5.819e+00,5.957e+00,5.762e+00,4.469e+00,6.089e+00,5.397e+00,4.882e+00,6.519e+00
2.835e-01,3.454e-01,5.971e-01,9.126e-01,8.017e-01,1.701e+00,9.879e-01,2.910e+00,3.540e+00,2.307e+00,3.013e+00,3.156e+00,2.985e+00,3.827e+00,3.297e+00,3.640e+00,5.513e+00,5.576e+00,5.117e+00,5.796e+00,5.159e+00,5.902e+00,5.093e+00,6.312e+00,7.017e+00,6.382e+00,6.814e+00,6.532e+00,4.982e+00,7.093e+00,5.045e+00,6.832e+00,7.228e+00,6.890e+00,6.851e+00,6.252e+00,5.764e+00,8.029e+00,7.050e+00,6.171e+00,5.756e+00,4.800e+00,6.468e+00,8.674e+00,5.975e+00,7.352e+00,6.521e+00,5.545e+00,7.114e+00,6.113e+00,6.695e+00,4.729e+00,5.806e+00,6.018e+00,7.025e+00,6.383e+00,5.310e+00,5.995e+00,7.930e+00,8.469e+00,6.984e+00,5.342e+00,6.147e+00,7.516e+00,5.821e+00,5.425e+00,5.753e+00,8.285e+00,6.656e+00,5.093e+00,5.642e+00,4.442e+00,7.583e+00,6.132e+00,6.004e+00,7.600e+00,5.825e+00,6.368e+00,7.137e+00,4.810e+00,6.720e+00,5.939e+00,7.923e+00,4.768e+00,6.234e+00,6.912e+00,6.444e+00,6.960e+00,7.489e+00,6.650e+00,4.604e+00,7.195e+00,7.694e+00,5.577e+00,6.843e+00
4.359e-01,8.414e-01,1.078e+00,1.285e+00,1.293e+00,1.581e+00,1.332e+00,2.174e+00,2.536e+00,2.337e+00,2.437e+00,2.566e+00,2.430e+00,3.522e+00,3.525e+00,3.626e+00,4.272e+00,4.739e+00,4.066e+00,6.448e+00,5.275e+00,5.438e+00,6.634e+00,6.920e+00,6.747e+00,6.537e+00,6.458e+00,6.574e+00,4.110e+00,7.549e+00,5.807e+00,4.974e+00,8.441e+00,7.789e+00,6.823e+00,8.045e+00,5.969e+00,7.847e+00,6.475e+00,5.629e+00,6.414e+00,5.117e+00,5.786e+00,7.092e+00,5.602e+00,7.580e+00,6.782e+00,5.814e+00,8.135e+00,6.562e+00,5.606e+00,4.683e+00,5.805e+00,6.152e+00,5.852e+00,5.762e+00,6.275e+00,6.668e+00,6.925e+00,6.956e+00,6.742e+00,5.669e+00,7.304e+00,7.526e+00,6.094e+00,5.662e+00,6.851e+00,7.498e+00,6.733e+00,5.358e+00,5.948e+00,4.981e+00,7.286e+00,7.061e+00,5.633e+00,7.508e+00,5.409e+00,5.952e+00,6.643e+00,7.371e+00,5.508e+00,6.193e+00,7.815e+00,5.854e+00,5.748e+00,7.526e+00,5.597e+00,6.842e+00,6.868e+00,6.702e+00,4.900e+00,7.197e+00,5.697e+00,6.226e+00,6.995e+00
5.813e-02,5.304e-01,5.516e-01,4.433e-01,5.610e-01,1.154e+00,9.436e-01,2.631e+00,2.177e+00,2.139e+00,2.099e+00,2.856e+00,2.404e+00,3.346e+00,2.946e+00,2.472e+00,2.962e+00,4.979e+00,4.265e+00,4.426e+00,4.212e+00,5.179e+00,4.964e+00,5.247e+00,5.617e+00,6.229e+00,7.311e+00,6.929e+00,4.343e+00,7.249e+00,5.288e+00,5.686e+00,7.100e+00,7.673e+00,6.461e+00,6.067e+00,6.361e+00,6.571e+00,6.449e+00,6.600e+00,6.053e+00,5.524e+00,6.414e+00,6.599e+00,5.921e+00,7.468e+00,6.729e+00,5.550e+00,6.858e+00,5.454e+00,6.837e+00,6.217e+00,4.680e+00,6.955e+00,5.427e+00,6.457e+00,5.150e+00,5.888e+00,7.687e+00,7.859e+00,7.658e+00,5.027e+00,7.216e+00,7.066e+00,6.559e+00,5.541e+00,6.177e+00,7.975e+00,6.595e+00,5.108e+00,5.401e+00,4.810e+00,6.638e+00,6.504e+00,6.684e+00,6.729e+00,5.439e+00,7.424e+00,7.446e+00,5.987e+00,6.732e+00,6.418e+00,7.468e+00,5.581e+00,6.531e+00,7.092e+00,5.676e+00,6.398e+00,7.358e+00,7.169e+00,4.154e+00,7.188e+00,7.679e+00,5.799e+00,6.449e+00
5.226e-01,1.716e-01,3.060e-01,5.983e-01,5.283e-01,1.350e+00,8.261e-01,2.312e+00,2.723e+00,2.250e+00,2.353e+00,2.429e+00,2.409e+00,3.217e+00,2.645e+00,2.989e+00,3.147e+00,4.517e+00,3.619e+00,4.493e+00,4.182e+00,4.319e+00,4.477e+00,4.612e+00,4.880e+00,5.943e+00,6.516e+00,6.034e+00,3.668e+00,7.067e+00,5.577e+00,5.356e+00,6.293e+00,6.934e+00,7.055e+00,5.163e+00,4.966e+00,7.294e+00,6.268e+00,6.356e+00,5.619e+00,5.085e+00,5.929e+00,5.593e+00,5.967e+00,6.894e+00,5.661e+00,5.178e+00,6.556e+00,6.351e+00,5.720e+00,5.680e+00,5.790e+00,5.815e+00,6.053e+00,6.137e+00,4.378e+00,5.930e+00,6.337e+00,7.147e+00,6.260e+00,4.874e+00,7.278e+00,7.086e+00,5.800e+00,6.106e+00,6.751e+00,7.306e+00,7.763e+00,4.344e+00,4.979e+00,5.283e+00,6.777e+00,6.421e+00,6.331e+00,6.211e+00,6.298e+00,6.123e+00,7.323e+00,5.480e+00,5.478e+00,6.166e+00,6.952e+00,5.539e+00,5.967e+00,6.675e+00,6.633e+00,5.478e+00,6.284e+00,7.140e+00,5.104e+00,6.944e+00,7.087e+00,5.866e+00,6.580e+00
2.357e-01,3.711e-01,4.391e-01,5.602e-01,5.709e-01,1.215e+00,7.481e-01,1.991e+00,2.108e+00,1.541e+00,2.000e+00,2.514e+00,3.250e+00,3.664e+00,3.561e+00,3.283e+00,4.505e+00,5.174e+00,5.497e+00,6.371e+00,6.286e+00,6.444e+00,6.817e+00,6.623e+00,6.990e+00,8.139e+00,9.054e+00,7.896e+00,5.134e+00,9.416e+00,7.661e+00,6.797e+00,8.664e+00,9.772e+00,9.069e+00,8.021e+00,7.706e+00,9.077e+00,7.545e+00,8.289e+00,8.034e+00,7.618e+00,8.300e+00,8.772e+00,7.832e+00,1.023e+01,7.683e+00,7.308e+00,9.201e+00,7.300e+00,7.746e+00,7.344e+00,7.249e+00,7.941e+00,8.270e+00,7.197e+00,7.370e+00,8.600e+00,1.016e+01,9.106e+00,8.709e+00,6.681e+00,8.318e+00,1.020e+01,7.816e+00,7.205e+00,8.413e+00,9.435e+00,8.829e+00,6.668e+00,6.686e+00,6.068e+00,1.014e+01,8.860e+00,8.253e+00,9.224e+00,8.163e+00,7.874e+00,8.826e+00,8.003e+00,8.337e+00,7.310e+00,9.755e+00,7.294e+00,8.434e+00,8.639e+00,8.377e+00,8.432e+00,9.256e+00,9.259e+00,7.348e+00,8.264e+00,8.568e+00,7.618e+00,8.593e+00
3.037e-01,6.424e-02,1.837e-01,4.586e-01,3.805e-01,2.104e+00,9.760e-01,2.961e+00,2.687e+00,2.078e+00,2.098e+00,2.267e+00,3.817e+00,3.984e+00,2.934e+00,3.152e+00,4.053e+00,5.060e+00,4.801e+00,4.871e+00,5.112e+00,6.038e+00,5.281e+00,5.627e+00,6.012e+00,6.986e+00,8.255e+00,7.271e+00,4.997e+00,7.076e+00,6.142e+00,5.966e+00,7.636e+00,7.919e+00,8.043e+00,7.210e+00,6.754e+00,7.788e+00,6.906e+00,7.031e+00,7.709e+00,5.755e+00,7.606e+00,8.173e+00,6.644e+00,8.531e+00,7.292e+00,6.433e+00,7.468e+00,7.184e+00,6.933e+00,6.265e+00,6.305e+00,8.178e+00,7.678e+00,7.285e+00,6.253e+00,7.166e+00,8.221e+00,8.657e+00,8.187e+00,5.813e+00,8.135e+00,8.584e+00,7.879e+00,6.392e+00,7.730e+00,9.042e+00,7.538e+00,5.679e+00,6.237e+00,5.886e+00,7.530e+00,8.035e+00,7.989e+00,7.796e+00,6.452e+00,7.567e+00,8.719e+00,6.018e+00,7.071e+00,8.117e+00,8.839e+00,6.471e+00,6.885e+00,7.458e+00,6.966e+00,7.536e+00,8.307e+00,8.454e+00,5.621e+00,7.487e+00,8.156e+00,6.400e+00,8.076e+00
1.732e-01,7.578e-01,8.905e-01,9.490e-01,1.017e+00,2.092e+00,1.414e+00,3.283e+00,2.855e+00,2.525e+00,2.493e+00,2.843e+00,3.159e+00,3.700e+00,3.545e+00,2.784e+00,3.355e+00,5.082e+00,5.439e+00,5.573e+00,4.758e+00,5.435e+00,6.143e+00,7.166e+00,5.793e+00,6.231e+00,7.659e+00,6.997e+00,4.903e+00,8.736e+00,7.701e+00,7.907e+00,7.981e+00,8.608e+00,8.462e+00,8.460e+00,8.145e+00,8.957e+00,8.528e+00,7.134e+00,8.118e+00,7.569e+00,8.392e+00,7.710e+00,8.352e+00,9.858e+00,7.310e+00,7.255e+00,9.729e+00,8.062e+00,8.250e+00,7.140e+00,6.086e+00,9.214e+00,8.174e+00,6.037e+00,7.822e+00,8.594e+00,9.009e+00,9.932e+00,8.483e+00,6.461e+00,8.745e+00,8.435e+00,8.189e+00,7.247e+00,7.449e+00,9.536e+00,9.005e+00,7.635e+00,7.049e+00,6.412e+00,9.253e+00,8.598e+00,8.738e+00,9.442e+00,7.183e+00,7.971e+00,8.164e+00,8.139e+00,7.687e+00,8.067e+00,1.034e+01,7.643e+00,8.207e+00,8.724e+00,7.781e+00,7.497e+00,8.982e+00,8.922e+00,7.179e+00,9.538e+00,8.459e+00,6.349e+00,7.455e+00
5.391e-01,7.971e-01,9.399e-01,1.156e+00,1.199e+00,2.694e+00,1.656e+00,3.560e+00,3.312e+00,3.102e+00,2.683e+00,2.647e+00,3.516e+00,4.252e+00,3.886e+00,3.764e+00,5.297e+00,5.701e+00,5.432e+00,6.586e+00,5.800e+00,6.875e+00,7.579e+00,7.627e+00,7.814e+00,7.792e+00,7.617e+00,7.862e+00,5.219e+00,9.258e+00,7.625e+00,8.931e+00,9.607e+00,9.364e+00,9.455e+00,9.125e+00,9.396e+00,1.005e+01,9.305e+00,8.252e+00,8.867e+00,6.693e+00,8.585e+00,9.921e+00,8.420e+00,1.008e+01,8.824e+00,7.770e+00,1.016e+01,8.676e+00,9.082e+00,7.390e+00,7.718e+00,8.456e+00,9.112e+00,7.775e+00,8.139e+00,9.054e+00,1.045e+01,1.013e+01,8.849e+00,7.197e+00,9.792e+00,9.838e+00,9.284e+00,7.764e+00,8.562e+00,1.082e+01,9.707e+00,8.362e+00,8.459e+00,7.456e+00,1.000e+01,9.603e+00,8.726e+00,1.059e+01,7.547e+00,8.436e+00,9.545e+00,8.752e+00,7.874e+00,8.307e+00,1.037e+01,8.242e+00,9.162e+00,9.542e+00,8.054e+00,8.643e+00,1.005e+01,9.757e+00,6.640e+00,9.267e+00,8.493e+00,7.932e+00,9.329e+00
5.559e-02,4.073e-01,5.263e-01,6.278e-01,6.299e-01,1.530e+00,9.810e-01,3.032e+00,3.114e+00,1.866e+00,2.821e+00,3.504e+00,3.086e+00,3.638e+00,3.408e+00,3.519e+00,4.828e+00,6.059e+00,4.883e+00,6.210e+00,4.987e+00,4.936e+00,4.830e+00,5.248e+00,5.534e+00,5.712e+00,7.918e+00,6.973e+00,5.543e+00,7.726e+00,6.265e+00,7.338e+00,7.637e+00,7.914e+00,7.755e+00,8.066e+00,5.800e+00,8.953e+00,8.924e+00,8.025e+00,6.673e+00,7.287e+00,7.002e+00,7.781e+00,7.477e+00,8.259e+00,6.625e+00,7.129e+00,9.868e+00,8.595e+00,7.716e+00,6.621e+00,7.322e+00,8.659e+00,8.432e+00,7.251e+00,5.960e+00,7.601e+00,8.543e+00,9.821e+00,8.907e+00,6.385e+00,8.563e+00,9.179e+00,8.094e+00,6.169e+00,7.106e+00,8.190e+00,7.651e+00,5.499e+00,6.529e+00,5.691e+00,8.097e+00,7.401e+00,7.624e+00,7.866e+00,6.768e+00,6.081e+00,7.858e+00,6.946e+00,7.065e+00,8.098e+00,8.881e+00,5.080e+00,7.730e+00,8.149e+00,7.934e+00,6.856e+00,8.877e+00,7.380e+00,6.546e+00,7.866e+00,8.760e+00,5.483e+00,8.039e+00
1.524e-01,8.453e-02,3.999e-01,8.252e-01,6.350e-01,2.376e+00,1.154e+00,2.651e+00,2.648e+00,1.764e+00,2.082e+00,2.427e+00,4.012e+00,3.785e+00,3.841e+00,3.655e+00,4.712e+00,5.264e+00,5.447e+00,5.866e+00,5.254e+00,6.627e+00,5.276e+00,6.900e+00,5.781e+00,6.703e+00,7.822e+00,7.021e+00,4.444e+00,8.100e+00,6.426e+00,6.986e+00,8.226e+00,8.920e+00,8.552e+00,7.699e+00,7.279e+00,8.749e+00,8.534e+00,7.034e+00,9.136e+00,7.157e+00,8.156e+00,8.885e+00,8.285e+00,9.532e+00,7.808e+00,8.007e+00,8.848e+00,7.437e+00,7.355e+00,6.659e+00,7.532e+00,8.519e+00,7.733e+00,8.483e+00,6.672e+00,7.086e+00,9.336e+00,8.296e+00,8.871e+00,6.242e+00,7.773e+00,9.628e+00,8.724e+00,6.926e+00,7.849e+00,9.483e+00,8.961e+00,8.102e+00,7.669e+00,6.447e+00,9.383e+00,9.188e+00,8.857e+00,9.178e+00,7.457e+00,7.863e+00,8.675e+00,7.061e+00,7.883e+00,8.523e+00,9.247e+00,8.080e+00,8.158e+00,8.185e+00,7.458e+00,8.740e+00,9.214e+00,8.098e+00,6.507e+00,7.644e+00,8.947e+00,7.130e+00,8.321e+00
1.069e-01,5.331e-01,5.870e-01,5.319e-01,6.259e-01,1.093e+00,9.299e-01,2.095e+00,1.867e+00,1.948e+00,1.961e+00,2.490e+00,1.994e+00,2.769e+00,2.703e+00,2.232e+00,2.663e+00,4.033e+00,4.154e+00,4.611e+00,3.711e+00,4.208e+00,5.178e+00,5.296e+00,5.440e+00,5.031e+00,5.659e+00,6.315e+00,3.922e+00,6.202e+00,4.687e+00,5.240e+00,6.558e+00,6.778e+00,6.183e+00,6.559e+00,6.361e+00,7.159e+00,6.352e+00,6.572e+00,6.333e+00,5.568e+00,6.224e+00,5.893e+00,6.007e+00,7.396e+00,6.725e+00,5.392e+00,7.283e+00,6.692e+00,5.861e+00,5.372e+00,5.389e+00,6.445e+00,5.874e+00,6.394e+00,6.264e+00,5.991e+00,7.687e+00,7.794e+00,6.687e+00,5.330e+00,6.914e+00,7.116e+00,6.895e+00,5.856e+00,6.007e+00,7.850e+00,7.340e+00,5.943e+00,5.205e+00,4.938e+00,7.526e+00,6.840e+00,5.993e+00,7.142e+00,5.359e+00,6.141e+00,7.261e+00,6.810e+00,6.416e+00,6.944e+00,7.438e+00,5.931e+00,6.675e+00,6.994e+00,5.835e+00,5.807e+00,6.386e+00,6.618e+00,5.320e+00,7.721e+00,7.380e+00,5.941e+00,6.423e+00
1.691e-01,2.824e-01,4.320e-01,6.263e-01,5.700e-01,1.264e+00,7.196e-01,2.404e+00,3.014e+00,1.807e+00,2.620e+00,3.022e+00,3.304e+00,3.904e+00,3.527e+00,3.685e+00,4.514e+00,5.418e+00,5.063e+00,5.453e+00,5.155e+00,6.188e+00,5.301e+00,5.476e+00,6.175e+00,6.147e+00,8.356e+00,7.826e+00,5.607e+00,9.135e+00,8.552e+00,7.785e+00,8.775e+00,8.520e+00,8.855e+00,8.780e+00,8.701e+00,1.046e+01,1.035e+01,1.095e+01,9.211e+00,9.766e+00,9.738e+00,8.941e+00,1.004e+01,1.043e+01,8.266e+00,9.221e+00,1.176e+01,1.061e+01,8.968e+00,8.840e+00,9.580e+00,9.580e+00,1.149e+01,8.912e+00,8.575e+00,9.058e+00,1.041e+01,1.176e+01,1.051e+01,7.701e+00,9.416e+00,1.132e+01,1.031e+01,7.646e+00,9.488e+00,1.144e+01,1.116e+01,8.461e+00,9.311e+00,7.157e+00,1.173e+01,9.254e+00,1.023e+01,9.821e+00,9.392e+00,8.662e+00,1.046e+01,7.478e+00,1.075e+01,9.032e+00,9.962e+00,7.996e+00,1.076e+01,9.234e+00,9.073e+00,8.531e+00,1.081e+01,9.791e+00,8.723e+00,1.037e+01,1.054e+01,8.003e+00,9.190e+00
3.925e-01,1.861e-01,3.698e-01,7.118e-01,5.975e-01,1.301e+00,6.835e-01,1.830e+00,2.107e+00,1.554e+00,1.782e+00,1.786e+00,2.644e+00,2.511e+00,2.768e+00,2.859e+00,3.638e+00,3.984e+00,3.865e+00,4.033e+00,3.768e+00,5.060e+00,4.480e+00,4.049e+00,5.109e+00,4.874e+00,6.054e+00,5.654e+00,4.220e+00,5.944e+00,5.197e+00,5.366e+00,6.628e+00,6.742e+00,6.707e+00,5.887e+00,7.104e+00,7.905e+00,6.947e+00,8.060e+00,8.293e+00,6.726e+00,7.324e+00,6.813e+00,7.410e+00,7.691e+00,7.247e+00,6.873e+00,8.368e+00,7.628e+00,6.335e+00,6.485e+00,7.421e+00,6.723e+00,8.106e+00,7.740e+00,6.741e+00,6.354e+00,7.523e+00,8.531e+00,8.506e+00,6.716e+00,6.052e+00,7.890e+00,7.044e+00,6.161e+00,8.161e+00,8.359e+00,8.556e+00,7.002e+00,7.015e+00,6.039e+00,9.215e+00,7.728e+00,7.838e+00,7.735e+00,7.146e+00,7.107e+00,8.393e+00,6.297e+00,7.804e+00,6.222e+00,7.463e+00,6.866e+00,7.700e+00,6.541e+00,6.435e+00,7.109e+00,7.608e+00,7.428e+00,6.748e+00,7.557e+00,7.624e+00,7.303e+00,7.732e+00
2.416e-01,7.188e-01,1.118e+00,1.429e+00,1.317e+00,1.117e+00,1.057e+00,1.987e+00,2.756e+00,1.735e+00,2.119e+00,2.504e+00,2.680e+00,2.842e+00,3.181e+00,3.450e+00,4.600e+00,4.356e+00,3.600e+00,5.025e+00,4.123e+00,5.378e+00,4.902e+00,4.838e+00,6.347e+00,5.449e+00,6.371e+00,6.894e+00,4.805e+00,7.773e+00,6.631e+00,6.753e+00,8.135e+00,8.680e+00,8.205e+00,7.836e+00,8.429e+00,1.003e+01,9.191e+00,8.948e+00,9.259e+00,8.748e+00,7.580e+00,9.196e+00,9.529e+00,8.849e+00,9.619e+00,8.464e+00,1.054e+01,1.023e+01,8.575e+00,8.057e+00,8.585e+00,8.507e+00,1.021e+01,9.459e+00,7.715e+00,8.929e+00,9.312e+00,1.061e+01,9.839e+00,7.610e+00,8.811e+00,9.508e+00,9.103e+00,6.833e+00,9.606e+00,1.052e+01,9.342e+00,8.008e+00,8.288e+00,7.489e+00,1.042e+01,8.707e+00,1.038e+01,9.410e+00,8.299e+00,8.537e+00,9.127e+00,8.129e+00,8.811e+00,8.537e+00,8.676e+00,8.127e+00,9.247e+00,8.154e+00,7.729e+00,7.629e+00,9.497e+00,9.522e+00,8.157e+00,9.863e+00,8.109e+00,8.125e+00,9.916e+00
4.651e-01,2.873e-01,3.860e-01,5.869e-01,5.658e-01,1.232e+00,7.848e-01,2.046e+00,2.393e+00,2.172e+00,2.237e+00,2.171e+00,2.224e+00,3.618e+00,2.467e+00,3.560e+00,4.186e+00,4.319e+00,4.315e+00,5.792e+00,4.844e+00,5.190e+00,5.036e+00,5.897e+00,5.906e+00,6.246e+00,6.298e+00,6.397e+00,5.052e+00,7.112e+00,5.301e+00,5.751e+00,7.996e+00,8.701e+00,7.955e+00,6.824e+00,7.090e+00,9.193e+00,8.671e+00,7.409e+00,9.231e+00,6.832e+00,7.884e+00,8.966e+00,8.870e+00,9.351e+00,8.312e+00,9.398e+00,8.899e+00,7.859e+00,7.665e+00,6.788e+00,8.010e+00,8.038e+00,8.207e+00,9.366e+00,7.657e+00,8.113e+00,8.779e+00,8.857e+00,9.365e+00,7.062e+00,9.197e+00,8.953e+00,9.279e+00,6.825e+00,8.101e+00,9.831e+00,9.537e+00,7.351e+00,8.700e+00,6.818e+00,9.406e+00,9.621e+00,8.304e+00,8.304e+00,7.441e+00,7.832e+00,8.378e+00,8.533e+00,8.137e+00,7.740e+00,9.165e+00,8.170e+00,8.224e+00,8.444e+00,7.383e+00,8.474e+00,8.778e+00,8.047e+00,6.444e+00,8.136e+00,8.577e+00,7.792e+00,9.633e+00
7.466e-02,5.982e-03,3.744e-01,8.677e-01,6.221e-01,2.357e+00,1.126e+00,2.705e+00,2.969e+00,1.034e+00,1.531e+00,1.977e+00,2.859e+00,1.922e+00,2.530e+00,2.379e+00,3.060e+00,3.843e+00,3.264e+00,4.199e+00,3.066e+00,4.327e+00,4.521e+00,5.057e+00,4.011e+00,5.478e+00,6.011e+00,5.057e+00,3.046e+00,7.186e+00,6.696e+00,6.294e+00,7.054e+00,7.447e+00,7.271e+00,6.507e+00,7.679e+00,9.464e+00,9.006e+00,8.126e+00,9.885e+00,8.412e+00,9.556e+00,9.160e+00,9.924e+00,9.544e+00,8.677e+00,9.344e+00,9.760e+00,9.274e+00,8.849e+00,8.012e+00,7.845e+00,9.675e+00,9.023e+00,9.703e+00,7.398e+00,8.397e+00,1.009e+01,9.909e+00,1.029e+01,7.096e+00,8.403e+00,9.200e+00,9.596e+00,8.266e+00,9.195e+00,1.016e+01,9.664e+00,8.548e+00,1.058e+01,7.027e+00,9.381e+00,1.019e+01,1.017e+01,8.902e+00,8.853e+00,8.690e+00,9.850e+00,8.596e+00,8.475e+00,9.729e+00,9.268e+00,8.739e+00,9.567e+00,7.703e+00,8.286e+00,8.881e+00,9.484e+00,1.043e+01,7.616e+00,1.018e+01,8.853e+00,8.013e+00,8.892e+00
3.622e-01,7.500e-02,2.100e-01,5.360e-01,4.289e-01,1.750e+00,7.694e-01,2.342e+00,2.586e+00,1.446e+00,1.842e+00,2.386e+00,2.640e+00,3.398e+00,3.096e+00,2.917e+00,3.774e+00,4.115e+00,4.475e+00,5.372e+00,4.632e+00,4.958e+00,5.199e+00,5.709e+00,5.323e+00,6.260e+00,7.262e+00,6.289e+00,4.985e+00,8.286e+00,7.536e+00,6.817e+00,8.120e+00,8.035e+00,8.369e+00,7.686e+00,6.654e+00,9.278e+00,9.273e+00,9.247e+00,9.877e+00,8.899e+00,9.539e+00,9.380e+00,9.460e+00,1.067e+01,8.186e+00,8.637e+00,1.060e+01,1.010e+01,9.274e+00,8.088e+00,8.032e+00,1.044e+01,1.114e+01,9.378e+00,8.652e+00,9.563e+00,9.773e+00,1.072e+01,1.001e+01,8.275e+00,9.514e+00,9.719e+00,1.094e+01,8.540e+00,8.995e+00,1.010e+01,1.011e+01,8.061e+00,9.913e+00,7.314e+00,1.011e+01,8.882e+00,9.703e+00,9.826e+00,8.305e+00,8.081e+00,9.192e+00,9.080e+00,9.363e+00,9.050e+00,1.064e+01,7.702e+00,8.412e+00,9.400e+00,8.065e+00,9.577e+00,1.014e+01,1.010e+01,7.965e+00,1.006e+01,9.905e+00,7.822e+00,9.556e+00
3.227e-01,5.035e-02,7.152e-02,2.602e-01,2.298e-01,1.554e+00,6.832e-01,2.208e+00,2.084e+00,1.922e+00,2.199e+00,2.407e+00,2.555e+00,3.364e+00,3.304e+00,3.265e+00,3.910e+00,5.047e+00,6.037e+00,5.512e+00,4.995e+00,6.276e+00,5.782e+00,6.120e+00,5.578e+00,6.172e+00,7.622e+00,7.088e+00,4.554e+00,7.926e+00,7.350e+00,6.744e+00,7.474e+00,8.016e+00,7.656e+00,7.855e+00,8.142e+00,9.300e+00,9.238e+00,9.729e+00,1.051e+01,8.467e+00,9.667e+00,8.521e+00,9.662e+00,1.077e+01,8.182e+00,9.402e+00,1.162e+01,9.648e+00,9.459e+00,8.635e+00,9.279e+00,9.708e+00,9.909e+00,9.282e+00,8.643e+00,9.959e+00,1.042e+01,1.116e+01,1.181e+01,8.320e+00,8.767e+00,1.079e+01,9.887e+00,8.829e+00,9.055e+00,1.098e+01,1.138e+01,8.894e+00,1.019e+01,8.319e+00,1.182e+01,9.454e+00,1.022e+01,1.003e+01,8.459e+00,9.231e+00,1.084e+01,9.217e+00,9.964e+00,1.059e+01,1.025e+01,9.438e+00,8.793e+00,1.014e+01,8.705e+00,9.065e+00,1.018e+01,1.091e+01,8.107e+00,9.524e+00,1.086e+01,8.261e+00,9.292e+00
4.591e-01,7.064e-01,1.029e+00,1.423e+00,1.324e+00,1.915e+00,1.326e+00,2.393e+00,2.515e+00,1.934e+00,2.345e+00,2.751e+00,3.092e+00,3.193e+00,4.163e+00,3.082e+00,4.649e+00,4.320e+00,4.381e+00,5.470e+00,4.881e+00,5.450e+00,5.719e+00,6.379e+00,5.279e+00,5.532e+00,5.674e+00,5.343e+00,3.044e+00,6.928e+00,6.233e+00,6.308e+00,7.061e+00,7.149e+00,6.246e+00,7.625e+00,7.891e+00,8.300e+00,8.918e+00,8.285e+00,9.040e+00,8.692e+00,9.936e+00,1.065e+01,9.838e+00,9.234e+00,9.200e+00,7.534e+00,9.817e+00,1.001e+01,9.219e+00,7.493e+00,7.681e+00,9.932e+00,1.087e+01,9.705e+00,8.859e+00,9.284e+00,1.054e+01,1.013e+01,8.711e+00,8.087e+00,8.826e+00,9.830e+00,9.087e+00,8.247e+00,9.991e+00,1.020e+01,9.666e+00,8.781e+00,1.096e+01,6.504e+00,1.004e+01,8.729e+00,1.006e+01,9.677e+00,8.959e+00,9.148e+00,8.802e+00,9.515e+00,9.681e+00,8.320e+00,1.042e+01,8.398e+00,8.979e+00,8.628e+00,8.093e+00,9.875e+00,1.073e+01,9.567e+00,7.453e+00,1.024e+01,8.303e+00,8.682e+00,9.621e+00
7.801e-02,3.076e-01,5.212e-01,7.418e-01,6.701e-01,2.186e+00,1.153e+00,2.695e+00,2.929e+00,1.910e+00,2.133e+00,2.390e+00,2.934e+00,3.683e+00,3.150e+00,3.496e+00,4.260e+00,5.342e+00,4.954e+00,6.325e+00,5.935e+00,6.330e+00,5.870e+00,7.634e+00,6.580e+00,7.828e+00,8.429e+00,7.508e+00,4.545e+00,9.180e+00,8.095e+00,8.166e+00,9.734e+00,1.063e+01,9.251e+00,9.273e+00,1.017e+01,1.114e+01,1.066e+01,1.118e+01,1.251e+01,1.045e+01,1.269e+01,1.241e+01,1.259e+01,1.310e+01,1.186e+01,1.165e+01,1.261e+01,1.236e+01,1.213e+01,1.076e+01,1.119e+01,1.295e+01,1.259e+01,1.336e+01,1.153e+01,1.303e+01,1.419e+01,1.425e+01,1.387e+01,9.948e+00,1.148e+01,1.273e+01,1.377e+01,1.005e+01,1.141e+01,1.451e+01,1.349e+01,1.060e+01,1.284e+01,9.506e+00,1.378e+01,1.338e+01,1.316e+01,1.169e+01,1.223e+01,1.139e+01,1.153e+01,1.273e+01,1.111e+01,1.256e+01,1.439e+01,1.171e+01,1.140e+01,1.128e+01,1.127e+01,1.215e+01,1.248e+01,1.333e+01,1.053e+01,1.187e+01,1.263e+01,1.086e+01,1.359e+01
3.164e-01,6.689e-01,8.502e-01,9.892e-01,1.002e+00,1.290e+00,1.047e+00,2.534e+00,2.547e+00,2.456e+00,2.654e+00,3.130e+00,3.314e+00,4.360e+00,4.117e+00,4.134e+00,5.384e+00,6.041e+00,5.358e+00,5.874e+00,5.755e+00,7.175e+00,5.589e+00,6.748e+00,6.773e+00,7.114e+00,9.012e+00,8.107e+00,5.900e+00,1.093e+01,8.752e+00,8.818e+00,1.060e+01,1.144e+01,9.980e+00,8.952e+00,9.493e+00,1.097e+01,1.163e+01,1.151e+01,1.224e+01,1.116e+01,1.095e+01,1.174e+01,1.467e+01,1.224e+01,1.198e+01,1.171e+01,1.353e+01,1.249e+01,1.241e+01,1.253e+01,1.126e+01,1.342e+01,1.163e+01,1.288e+01,1.068e+01,1.250e+01,1.299e+01,1.391e+01,1.516e+01,1.020e+01,1.094e+01,1.333e+01,1.198e+01,1.160e+01,1.215e+01,1.358e+01,1.314e+01,1.179e+01,1.217e+01,1.058e+01,1.533e+01,1.301e+01,1.443e+01,1.298e+01,1.326e+01,1.197e+01,1.264e+01,1.161e+01,1.196e+01,1.250e+01,1.371e+01,1.225e+01,1.352e+01,1.275e+01,1.131e+01,1.240e+01,1.255e+01,1.272e+01,1.066e+01,1.158e+01,1.302e+01,9.906e+00,1.281e+01
3.190e-01,5.197e-01,7.097e-01,9.531e-01,9.148e-01,1.898e+00,1.143e+00,2.514e+00,3.013e+00,2.145e+00,2.407e+00,2.278e+00,2.764e+00,3.368e+00,3.011e+00,3.438e+00,4.017e+00,4.724e+00,4.254e+00,5.348e+00,4.917e+00,5.583e+00,6.092e+00,6.603e+00,6.547e+00,6.563e+00,6.826e+00,6.868e+00,5.106e+00,9.191e+00,8.492e+00,8.197e+00,9.224e+00,8.646e+00,9.095e+00,8.867e+00,9.933e+00,1.149e+01,1.057e+01,1.065e+01,1.151e+01,1.017e+01,1.193e+01,1.213e+01,1.387e+01,1.308e+01,1.156e+01,1.147e+01,1.360e+01,1.393e+01,1.219e+01,1.125e+01,1.099e+01,1.329e+01,1.325e+01,1.216e+01,1.233e+01,1.408e+01,1.388e+01,1.477e+01,1.422e+01,1.062e+01,1.221e+01,1.274e+01,1.383e+01,1.148e+01,1.221e+01,1.416e+01,1.362e+01,1.141e+01,1.294e+01,9.658e+00,1.466e+01,1.337e+01,1.290e+01,1.324e+01,1.286e+01,1.155e+01,1.259e+01,1.167e+01,1.182e+01,1.362e+01,1.420e+01,1.175e+01,1.336e+01,1.212e+01,1.143e+01,1.136e+01,1.149e+01,1.428e+01,1.225e+01,1.399e+01,1.216e+01,1.156e+01,1.343e+01
5.249e-02,5.567e-01,8.446e-01,1.013e+00,9.511e-01,9.683e-01,8.487e-01,1.963e+00,2.159e+00,1.413e+00,1.643e+00,2.235e+00,2.736e+00,3.179e+00,2.945e+00,3.337e+00,3.802e+00,4.457e+00,3.908e+00,4.592e+00,3.922e+00,4.942e+00,4.196e+00,4.900e+00,5.184e+00,5.656e+00,7.478e+00,6.930e+00,5.323e+00,8.876e+00,7.198e+00,6.945e+00,8.439e+00,8.410e+00,8.228e+00,7.149e+00,6.528e+00,9.370e+00,9.321e+00,9.596e+00,9.898e+00,9.129e+00,8.867e+00,9.300e+00,1.204e+01,1.100e+01,1.096e+01,1.046e+01,1.172e+01,1.134e+01,1.049e+01,1.135e+01,9.566e+00,1.163e+01,1.101e+01,1.111e+01,9.821e+00,1.078e+01,1.108e+01,1.217e+01,1.185e+01,9.163e+00,1.044e+01,1.117e+01,1.128e+01,1.039e+01,9.872e+00,1.125e+01,1.123e+01,1.028e+01,1.077e+01,8.662e+00,1.208e+01,1.125e+01,1.275e+01,1.073e+01,1.137e+01,1.048e+01,1.073e+01,9.275e+00,1.059e+01,1.198e+01,1.213e+01,9.739e+00,1.097e+01,1.146e+01,9.237e+00,9.789e+00,9.960e+00,1.103e+01,1.046e+01,1.173e+01,1.157e+01,9.235e+00,1.265e+01
1.132e-01,3.970e-01,4.053e-01,4.184e-01,4.839e-01,1.703e+00,9.150e-01,2.763e+00,3.003e+00,1.990e+00,2.298e+00,2.658e+00,2.469e+00,3.476e+00,3.021e+00,3.630e+00,4.617e+00,5.858e+00,5.526e+00,6.312e+00,5.534e+00,6.124e+00,6.257e+00,6.290e+00,7.266e+00,7.439e+00,8.604e+00,8.459e+00,5.603e+00,9.586e+00,7.651e+00,8.184e+00,9.196e+00,9.263e+00,9.630e+00,8.349e+00,8.422e+00,1.096e+01,1.000e+01,1.019e+01,1.020e+01,9.805e+00,1.000e+01,1.045e+01,1.251e+01,1.208e+01,1.161e+01,1.125e+01,1.345e+01,1.227e+01,1.232e+01,1.170e+01,1.129e+01,1.240e+01,1.289e+01,1.141e+01,1.048e+01,1.335e+01,1.365e+01,1.395e+01,1.329e+01,9.842e+00,1.212e+01,1.284e+01,1.242e+01,1.125e+01,1.063e+01,1.395e+01,1.249e+01,1.049e+01,1.110e+01,1.000e+01,1.385e+01,1.152e+01,1.299e+01,1.215e+01,1.208e+01,1.006e+01,1.270e+01,1.015e+01,1.171e+01,1.293e+01,1.264e+01,1.033e+01,1.282e+01,1.152e+01,1.147e+01,1.111e+01,1.125e+01,1.285e+01,1.164e+01,1.196e+01,1.329e+01,1.045e+01,1.286e+01
4.447e-01,5.785e-01,8.788e-01,1.204e+00,1.120e+00,1.487e+00,1.215e+00,2.712e+00,2.846e+00,2.338e+00,2.422e+00,2.629e+00,3.367e+00,3.957e+00,3.287e+00,4.054e+00,5.022e+00,5.543e+00,4.468e+00,5.528e+00,4.537e+00,6.337e+00,5.592e+00,5.759e+00,6.096e+00,6.136e+00,7.129e+00,6.582e+00,4.245e+00,7.594e+00,6.870e+00,6.979e+00,8.103e+00,9.343e+00,7.655e+00,7.757e+00,8.841e+00,1.009e+01,9.932e+00,1.061e+01,1.132e+01,1.017e+01,1.092e+01,1.044e+01,1.355e+01,1.100e+01,1.178e+01,1.269e+01,1.316e+01,1.349e+01,1.214e+01,1.228e+01,1.093e+01,1.182e+01,1.302e+01,1.286e+01,1.161e+01,1.212e+01,1.384e+01,1.277e+01,1.402e+01,9.157e+00,1.117e+01,1.276e+01,1.245e+01,1.039e+01,1.183e+01,1.413e+01,1.342e+01,1.176e+01,1.285e+01,1.072e+01,1.333e+01,1.320e+01,1.342e+01,1.165e+01,1.249e+01,1.206e+01,1.290e+01,1.204e+01,1.154e+01,1.270e+01,1.318e+01,1.225e+01,1.356e+01,1.207e+01,1.055e+01,1.211e+01,1.173e+01,1.241e+01,1.196e+01,1.129e+01,1.288e+01,1.075e+01,1.300e+01
2.678e-03,6.025e-01,8.337e-01,9.455e-01,9.261e-01,1.331e+00,1.013e+00,2.819e+00,2.815e+00,1.569e+00,1.853e+00,2.545e+00,3.399e+00,3.354e+00,2.868e+00,2.934e+00,3.751e+00,4.970e+00,4.647e+00,4.992e+00,4.400e+00,5.338e+00,5.279e+00,5.088e+00,5.818e+00,6.258e+00,7.420e+00,6.780e+00,5.007e+00,7.608e+00,6.965e+00,7.011e+00,8.046e+00,8.986e+00,8.366e+00,7.872e+00,8.355e+00,1.059e+01,8.402e+00,1.027e+01,1.151e+01,1.022e+01,1.087e+01,1.073e+01,1.181e+01,1.182e+01,1.173e+01,1.256e+01,1.406e+01,1.362e+01,1.236e+01,1.161e+01,1.107e+01,1.181e+01,1.261e+01,1.236e+01,1.240e+01,1.262e+01,1.481e+01,1.458e+01,1.472e+01,1.075e+01,1.187e+01,1.204e+01,1.285e+01,1.109e+01,1.196e+01,1.338e+01,1.376e+01,1.146e+01,1.226e+01,1.008e+01,1.460e+01,1.465e+01,1.417e+01,1.322e+01,1.287e+01,1.242e+01,1.301e+01,1.232e+01,1.277e+01,1.415e+01,1.359e+01,1.122e+01,1.323e+01,1.281e+01,1.116e+01,1.121e+01,1.174e+01,1.462e+01,1.307e+01,1.258e+01,1.301e+01,1.109e+01,1.363e+01
4.390e-01,6.368e-01,9.249e-01,1.222e+00,1.167e+00,1.842e+00,1.376e+00,2.335e+00,2.283e+00,2.808e+00,2.744e+00,2.888e+00,3.064e+00,3.874e+00,4.432e+00,3.842e+00,4.294e+00,5.892e+00,5.290e+00,6.265e+00,5.482e+00,6.500e+00,5.844e+00,6.505e+00,6.367e+00,7.112e+00,8.088e+00,7.513e+00,4.868e+00,9.133e+00,7.342e+00,7.733e+00,9.164e+00,1.036e+01,8.888e+00,8.524e+00,9.379e+00,9.941e+00,9.839e+00,1.060e+01,1.252e+01,1.075e+01,1.107e+01,1.058e+01,1.245e+01,1.185e+01,1.271e+01,1.109e+01,1.407e+01,1.222e+01,1.266e+01,1.245e+01,1.251e+01,1.319e+01,1.159e+01,1.401e+01,1.188e+01,1.326e+01,1.404e+01,1.390e+01,1.389e+01,1.110e+01,1.225e+01,1.304e+01,1.273e+01,1.159e+01,1.319e+01,1.321e+01,1.386e+01,1.165e+01,1.263e+01,1.150e+01,1.477e+01,1.402e+01,1.517e+01,1.323e+01,1.385e+01,1.246e+01,1.322e+01,1.280e+01,1.159e+01,1.357e+01,1.334e+01,1.269e+01,1.339e+01,1.257e+01,1.232e+01,1.275e+01,1.317e+01,1.411e+01,1.250e+01,1.188e+01,1.325e+01,1.284e+01,1.422e+01
4.239e-01,7.689e-01,8.117e-01,8.701e-01,9.662e-01,1.153e+00,9.502e-01,2.319e+00,2.214e+00,2.468e+00,2.519e+00,2.171e+00,2.389e+00,3.028e+00,2.915e+00,3.327e+00,4.522e+00,5.269e+00,4.275e+00,5.229e+00,5.045e+00,5.870e+00,6.140e+00,5.314e+00,6.659e+00,6.185e+00,8.129e+00,6.971e+00,5.438e+00,7.437e+00,6.517e+00,7.981e+00,9.157e+00,9.056e+00,7.972e+00,8.522e+00,9.050e+00,1.036e+01,9.718e+00,1.050e+01,1.051e+01,9.221e+00,1.031e+01,1.044e+01,1.331e+01,1.226e+01,1.283e+01,1.149e+01,1.401e+01,1.388e+01,1.396e+01,1.366e+01,1.340e+01,1.442e+01,1.318e+01,1.300e+01,1.275e+01,1.478e+01,1.614e+01,1.680e+01,1.442e+01,1.334e+01,1.310e+01,1.403e+01,1.322e+01,1.326e+01,1.303e+01,1.603e+01,1.435e+01,1.165e+01,1.400e+01,1.068e+01,1.623e+01,1.396e+01,1.518e+01,1.366e+01,1.342e+01,1.355e+01,1.313e+01,1.334e+01,1.333e+01,1.480e+01,1.401e+01,1.103e+01,1.453e+01,1.379e+01,1.367e+01,1.345e+01,1.404e+01,1.433e+01,1.402e+01,1.271e+01,1.385e+01,1.218e+01,1.566e+01
4.154e-01,4.569e-01,8.060e-01,1.194e+00,1.058e+00,1.583e+00,1.134e+00,1.964e+00,2.355e+00,1.846e+00,1.734e+00,1.989e+00,2.850e+00,3.166e+00,2.985e+00,2.837e+00,3.799e+00,3.770e+00,3.620e+00,5.009e+00,4.316e+00,5.716e+00,5.962e+00,6.114e+00,7.534e+00,6.776e+00,8.196e+00,7.099e+00,4.902e+00,8.582e+00,7.119e+00,6.974e+00,9.611e+00,1.029e+01,9.325e+00,8.701e+00,8.823e+00,1.128e+01,9.770e+00,1.003e+01,1.199e+01,9.632e+00,1.125e+01,1.151e+01,1.334e+01,1.246e+01,1.302e+01,1.120e+01,1.321e+01,1.368e+01,1.153e+01,1.141e+01,1.228e+01,1.387e+01,1.380e+01,1.447e+01,1.282e+01,1.395e+01,1.595e+01,1.548e+01,1.334e+01,1.253e+01,1.394e+01,1.234e+01,1.405e+01,1.344e+01,1.333e+01,1.613e+01,1.426e+01,1.185e+01,1.327e+01,1.133e+01,1.595e+01,1.422e+01,1.399e+01,1.440e+01,1.364e+01,1.343e+01,1.294e+01,1.312e+01,1.366e+01,1.508e+01,1.406e+01,1.341e+01,1.439e+01,1.330e+01,1.301e+01,1.407e+01,1.330e+01,1.480e+01,1.295e+01,1.365e+01,1.319e+01,1.331e+01,1.403e+01
2.017e-01,1.510e-02,1.158e-01,3.357e-01,2.620e-01,1.240e+00,6.572e-01,1.832e+00,2.255e+00,1.193e+00,2.047e+00,2.467e+00,2.516e+00,3.242e+00,2.594e+00,3.035e+00,3.720e+00,4.305e+00,3.362e+00,4.881e+00,4.124e+00,4.398e+00,3.890e+00,4.668e+00,4.500e+00,4.773e+00,5.378e+00,4.478e+00,3.594e+00,6.245e+00,6.315e+00,5.659e+00,6.420e+00,6.574e+00,6.475e+00,6.721e+00,6.494e+00,7.960e+00,9.074e+00,8.414e+00,9.093e+00,8.698e+00,9.358e+00,9.801e+00,1.163e+01,1.078e+01,9.714e+00,1.124e+01,1.273e+01,1.261e+01,1.207e+01,1.099e+01,1.111e+01,1.162e+01,1.288e+01,1.153e+01,1.142e+01,1.186e+01,1.318e+01,1.347e+01,1.392e+01,1.035e+01,1.268e+01,1.230e+01,1.458e+01,1.107e+01,1.097e+01,1.209e+01,1.315e+01,1.082e+01,1.325e+01,9.962e+00,1.313e+01,1.236e+01,1.276e+01,1.212e+01,1.262e+01,1.120e+01,1.227e+01,1.087e+01,1.135e+01,1.350e+01,1.359e+01,1.067e+01,1.268e+01,1.251e+01,1.098e+01,1.225e+01,1.165e+01,1.360e+01,1.171e+01,1.192e+01,1.314e+01,1.121e+01,1.257e+01
1.517e-01,1.139e-01,2.546e-01,5.015e-01,4.101e-01,1.285e+00,6.180e-01,1.476e+00,2.089e+00,9.779e-01,1.651e+00,1.847e+00,1.831e+00,2.262e+00,2.666e+00,3.348e+00,4.273e+00,4.524e+00,4.085e+00,5.848e+00,4.781e+00,5.193e+00,5.749e+00,5.742e+00,6.192e+00,6.660e+00,6.837e+00,6.423e+00,4.571e+00,7.899e+00,6.088e+00,6.634e+00,8.392e+00,8.369e+00,8.273e+00,7.382e+00,7.341e+00,1.033e+01,9.858e+00,8.558e+00,1.056e+01,9.115e+00,9.220e+00,1.094e+01,1.170e+01,1.154e+01,1.168e+01,1.219e+01,1.352e+01,1.301e+01,1.214e+01,1.135e+01,1.173e+01,1.235e+01,1.415e+01,1.304e+01,1.236e+01,1.398e+01,1.529e+01,1.396e+01,1.454e+01,1.187e+01,1.307e+01,1.277e+01,1.546e+01,1.241e+01,1.140e+01,1.491e+01,1.311e+01,1.293e+01,1.309e+01,1.243e+01,1.486e+01,1.332e+01,1.356e+01,1.372e+01,1.329e+01,1.168e+01,1.340e+01,1.279e+01,1.304e+01,1.594e+01,1.276e+01,1.159e+01,1.325e+01,1.340e+01,1.225e+01,1.424e+01,1.287e+01,1.483e+01,1.288e+01,1.304e+01,1.407e+01,1.236e+01,1.308e+01
5.343e-01,1.709e-01,2.516e-01,5.773e-01,5.153e-01,1.906e+00,9.338e-01,2.695e+00,2.683e+00,2.436e+00,2.765e+00,2.368e+00,3.065e+00,3.230e+00,3.009e+00,3.102e+00,4.444e+00,5.161e+00,3.955e+00,4.631e+00,5.054e+00,5.929e+00,6.406e+00,5.840e+00,6.580e+00,6.530e+00,7.942e+00,6.679e+00,5.301e+00,8.394e+00,8.012e+00,8.240e+00,1.016e+01,7.957e+00,8.588e+00,8.959e+00,9.994e+00,1.091e+01,1.064e+01,1.142e+01,1.170e+01,9.251e+00,1.123e+01,1.191e+01,1.243e+01,1.222e+01,1.138e+01,1.132e+01,1.456e+01,1.402e+01,1.259e+01,1.177e+01,1.330e+01,1.403e+01,1.486e+01,1.398e+01,1.380e+01,1.397e+01,1.654e+01,1.736e+01,1.701e+01,1.415e+01,1.302e+01,1.456e+01,1.543e+01,1.434e+01,1.411e+01,1.566e+01,1.607e+01,1.214e+01,1.602e+01,1.300e+01,1.639e+01,1.550e+01,1.482e+01,1.465e+01,1.456e+01,1.355e+01,1.523e+01,1.274e+01,1.351e+01,1.578e+01,1.447e+01,1.282e+01,1.480e+01,1.431e+01,1.334e+01,1.405e+01,1.496e+01,1.670e+01,1.347e+01,1.417e+01,1.383e+01,1.445e+01,1.455e+01
4.389e-01,6.326e-01,8.671e-01,1.121e+00,1.088e+00,1.686e+00,1.221e+00,2.715e+00,3.258e+00,2.444e+00,2.802e+00,3.249e+00,2.681e+00,3.832e+00,3.519e+00,3.669e+00,5.310e+00,5.103e+00,3.590e+00,5.513e+00,5.093e+00,5.645e+00,5.016e+00,6.131e+00,6.577e+00,5.604e+00,5.668e+00,6.192e+00,4.481e+00,7.983e+00,6.198e+00,6.513e+00,8.800e+00,7.897e+00,7.958e+00,7.314e+00,7.567e+00,9.769e+00,9.566e+00,8.466e+00,9.926e+00,8.935e+00,8.722e+00,1.144e+01,1.286e+01,1.024e+01,1.141e+01,1.106e+01,1.390e+01,1.355e+01,1.157e+01,1.134e+01,1.255e+01,1.302e+01,1.388e+01,1.412e+01,1.268e+01,1.372e+01,1.485e+01,1.431e+01,1.540e+01,1.241e+01,1.272e+01,1.325e+01,1.458e+01,1.271e+01,1.275e+01,1.420e+01,1.452e+01,1.259e+01,1.513e+01,1.256e+01,1.630e+01,1.454e+01,1.355e+01,1.374e+01,1.330e+01,1.325e+01,1.303e+01,1.220e+01,1.328e+01,1.444e+01,1.381e+01,1.280e+01,1.432e+01,1.368e+01,1.298e+01,1.460e+01,1.300e+01,1.417e+01,1.386e+01,1.255e+01,1.265e+01,1.292e+01,1.371e+01
2.210e-02,6.151e-01,8.293e-01,9.649e-01,9.617e-01,2.226e+00,1.390e+00,2.814e+00,2.604e+00,2.270e+00,2.428e+00,2.772e+00,3.067e+00,2.913e+00,4.030e+00,2.879e+00,3.431e+00,5.574e+00,4.598e+00,4.722e+00,4.155e+00,5.388e+00,4.254e+00,5.084e+00,5.203e+00,5.268e+00,7.989e+00,6.689e+00,3.876e+00,8.055e+00,6.641e+00,7.894e+00,8.436e+00,8.798e+00,7.957e+00,8.367e+00,8.696e+00,1.058e+01,1.096e+01,1.048e+01,1.090e+01,1.007e+01,1.024e+01,1.051e+01,1.240e+01,1.181e+01,1.120e+01,1.073e+01,1.307e+01,1.346e+01,1.281e+01,1.197e+01,1.275e+01,1.430e+01,1.360e+01,1.344e+01,1.362e+01,1.550e+01,1.688e+01,1.636e+01,1.567e+01,1.380e+01,1.327e+01,1.361e+01,1.571e+01,1.358e+01,1.411e+01,1.507e+01,1.427e+01,1.298e+01,1.396e+01,1.226e+01,1.683e+01,1.474e+01,1.526e+01,1.345e+01,1.486e+01,1.431e+01,1.408e+01,1.295e+01,1.336e+01,1.666e+01,1.466e+01,1.383e+01,1.478e+01,1.323e+01,1.418e+01,1.311e+01,1.294e+01,1.606e+01,1.372e+01,1.422e+01,1.469e+01,1.174e+01,1.374e+01
1.881e-01,7.674e-01,1.097e+00,1.364e+00,1.313e+00,2.327e+00,1.617e+00,3.144e+00,3.520e+00,2.872e+00,3.444e+00,3.574e+00,4.311e+00,4.225e+00,4.817e+00,4.316e+00,5.685e+00,6.896e+00,6.168e+00,7.392e+00,6.243e+00,7.566e+00,6.981e+00,7.534e+00,8.713e+00,8.311e+00,9.865e+00,8.924e+00,6.074e+00,1.049e+01,7.632e+00,9.245e+00,1.097e+01,1.006e+01,1.012e+01,1.063e+01,1.057e+01,1.245e+01,1.134e+01,1.163e+01,1.233e+01,1.014e+01,1.208e+01,1.239e+01,1.129e+01,1.349e+01,1.253e+01,1.185e+01,1.533e+01,1.386e+01,1.268e+01,1.176e+01,1.430e+01,1.461e+01,1.541e+01,1.430e+01,1.484e+01,1.663e+01,1.890e+01,1.836e+01,1.635e+01,1.465e+01,1.519e+01,1.748e+01,1.660e+01,1.480e+01,1.658e+01,1.740e+01,1.715e+01,1.428e+01,1.636e+01,1.302e+01,1.814e+01,1.547e+01,1.641e+01,1.683e+01,1.525e+01,1.603e+01,1.625e+01,1.420e+01,1.624e+01,1.635e+01,1.651e+01,1.505e+01,1.567e+01,1.720e+01,1.427e+01,1.437e+01,1.484e+01,1.750e+01,1.503e+01,1.666e+01,1.721e+01,1.589e+01,1.560e+01
3.007e-01,1.258e-01,3.796e-01,7.900e-01,6.298e-01,1.890e+00,1.011e+00,2.584e+00,2.541e+00,1.566e+00,2.021e+00,2.390e+00,3.605e+00,3.537e+00,3.340e+00,3.410e+00,4.586e+00,5.247e+00,4.493e+00,5.288e+00,4.459e+00,5.973e+00,5.772e+00,5.570e+00,5.688e+00,6.359e+00,7.781e+00,6.148e+00,4.507e+00,7.560e+00,7.347e+00,6.834e+00,7.553e+00,8.311e+00,7.621e+00,7.760e+00,8.232e+00,9.033e+00,8.835e+00,9.717e+00,1.019e+01,8.878e+00,1.016e+01,1.017e+01,1.144e+01,1.114e+01,1.061e+01,1.042e+01,1.237e+01,1.102e+01,1.139e+01,1.086e+01,1.053e+01,1.159e+01,1.172e+01,1.164e+01,1.121e+01,1.288e+01,1.651e+01,1.410e+01,1.437e+01,1.281e+01,1.225e+01,1.445e+01,1.354e+01,1.259e+01,1.378e+01,1.388e+01,1.361e+01,1.086e+01,1.391e+01,9.796e+00,1.436e+01,1.401e+01,1.402e+01,1.306e+01,1.265e+01,1.325e+01,1.371e+01,1.301e+01,1.178e+01,1.483e+01,1.369e+01,1.289e+01,1.352e+01,1.403e+01,1.224e+01,1.433e+01,1.439e+01,1.416e+01,1.229e+01,1.359e+01,1.434e+01,1.304e+01,1.380e+01
1.779e-01,7.620e-01,9.272e-01,9.648e-01,1.020e+00,1.145e+00,1.035e+00,2.485e+00,2.784e+00,2.204e+00,2.294e+00,2.484e+00,2.312e+00,3.332e+00,2.596e+00,3.260e+00,3.730e+00,5.101e+00,4.172e+00,6.092e+00,5.493e+00,5.066e+00,6.128e+00,6.068e+00,6.722e+00,7.332e+00,6.901e+00,7.151e+00,5.564e+00,7.982e+00,6.549e+00,7.027e+00,9.374e+00,9.037e+00,9.230e+00,8.255e+00,8.263e+00,1.084e+01,8.420e+00,9.281e+00,1.095e+01,9.700e+00,1.007e+01,1.002e+01,1.120e+01,1.113e+01,1.143e+01,1.050e+01,1.215e+01,1.236e+01,1.150e+01,1.162e+01,1.211e+01,1.210e+01,1.230e+01,1.221e+01,1.481e+01,1.607e+01,1.664e+01,1.729e+01,1.620e+01,1.310e+01,1.363e+01,1.446e+01,1.685e+01,1.451e+01,1.494e+01,1.599e+01,1.418e+01,1.216e+01,1.417e+01,1.347e+01,1.652e+01,1.370e+01,1.617e+01,1.648e+01,1.487e+01,1.390e+01,1.560e+01,1.490e+01,1.493e+01,1.646e+01,1.528e+01,1.380e+01,1.578e+01,1.609e+01,1.420e+01,1.472e+01,1.340e+01,1.600e+01,1.493e+01,1.583e+01,1.654e+01,1.287e+01,1.547e+01
9.585e-02,3.833e-02,1.653e-01,3.571e-01,2.796e-01,1.217e+00,6.428e-01,2.161e+00,2.139e+00,1.068e+00,1.728e+00,2.493e+00,2.843e+00,3.091e+00,2.574e+00,2.675e+00,3.625e+00,4.388e+00,4.882e+00,5.250e+00,4.470e+00,4.787e+00,4.404e+00,4.988e+00,5.111e+00,5.597e+00,6.572e+00,5.963e+00,4.456e+00,6.550e+00,6.000e+00,5.912e+00,6.572e+00,7.931e+00,6.806e+00,6.430e+00,6.720e+00,8.088e+00,7.717e+00,8.210e+00,8.628e+00,1.009e+01,9.973e+00,9.541e+00,1.124e+01,9.787e+00,1.026e+01,1.021e+01,1.084e+01,1.102e+01,1.027e+01,1.143e+01,1.008e+01,1.170e+01,1.245e+01,1.249e+01,1.255e+01,1.397e+01,1.660e+01,1.488e+01,1.494e+01,1.185e+01,1.289e+01,1.539e+01,1.373e+01,1.353e+01,1.356e+01,1.449e+01,1.468e+01,1.241e+01,1.398e+01,1.212e+01,1.561e+01,1.378e+01,1.514e+01,1.340e+01,1.505e+01,1.287e+01,1.414e+01,1.247e+01,1.456e+01,1.415e+01,1.471e+01,1.474e+01,1.532e+01,1.472e+01,1.374e+01,1.387e+01,1.351e+01,1.456e+01,1.490e+01,1.321e+01,1.721e+01,1.310e+01,1.359e+01
2.525e-01,1.442e-01,4.321e-01,8.637e-01,6.810e-01,1.649e+00,8.559e-01,1.735e+00,2.165e+00,1.369e+00,1.822e+00,1.748e+00,3.597e+00,2.967e+00,3.456e+00,3.419e+00,4.138e+00,4.477e+00,4.208e+00,4.678e+00,4.218e+00,5.767e+00,4.569e+00,5.061e+00,5.021e+00,5.962e+00,7.766e+00,6.030e+00,3.493e+00,7.708e+00,6.792e+00,6.460e+00,8.398e+00,9.099e+00,7.689e+00,7.940e+00,7.516e+00,9.222e+00,9.723e+00,9.523e+00,1.043e+01,8.320e+00,9.091e+00,9.964e+00,1.081e+01,1.152e+01,9.137e+00,9.481e+00,1.184e+01,1.151e+01,1.056e+01,9.126e+00,1.055e+01,1.179e+01,1.267e+01,1.115e+01,1.066e+01,1.206e+01,1.422e+01,1.241e+01,1.338e+01,1.165e+01,1.117e+01,1.314e+01,1.439e+01,1.188e+01,1.292e+01,1.292e+01,1.418e+01,1.298e+01,1.300e+01,1.016e+01,1.409e+01,1.330e+01,1.350e+01,1.288e+01,1.279e+01,1.277e+01,1.165e+01,1.118e+01,1.237e+01,1.391e+01,1.229e+01,1.204e+01,1.212e+01,1.244e+01,1.195e+01,1.313e+01,1.223e+01,1.498e+01,1.201e+01,1.240e+01,1.309e+01,1.221e+01,1.220e+01
4.820e-01,3.290e-01,6.858e-01,1.173e+00,9.865e-01,1.926e+00,1.103e+00,2.569e+00,3.329e+00,2.568e+00,3.019e+00,3.157e+00,3.086e+00,4.002e+00,4.176e+00,4.002e+00,5.208e+00,5.770e+00,5.513e+00,5.903e+00,5.530e+00,6.245e+00,4.414e+00,6.247e+00,6.115e+00,6.727e+00,7.318e+00,6.588e+00,4.487e+00,8.944e+00,7.314e+00,7.996e+00,8.110e+00,8.813e+00,8.831e+00,7.275e+00,7.232e+00,1.000e+01,9.675e+00,9.144e+00,9.877e+00,8.608e+00,9.090e+00,1.058e+01,1.140e+01,1.167e+01,1.064e+01,9.531e+00,1.338e+01,1.268e+01,1.232e+01,1.187e+01,1.350e+01,1.291e+01,1.458e+01,1.374e+01,1.370e+01,1.617e+01,1.755e+01,1.658e+01,1.629e+01,1.619e+01,1.546e+01,1.680e+01,1.699e+01,1.682e+01,1.738e+01,1.677e+01,1.786e+01,1.528e+01,1.724e+01,1.528e+01,2.020e+01,1.602e+01,1.767e+01,1.691e+01,1.689e+01,1.723e+01,1.606e+01,1.510e+01,1.524e+01,1.903e+01,1.625e+01,1.660e+01,1.517e+01,1.780e+01,1.712e+01,1.695e+01,1.617e+01,1.914e+01,1.786e+01,1.677e+01,1.790e+01,1.572e+01,1.567e+01
5.410e-01,4.175e-01,6.754e-01,1.049e+00,9.518e-01,2.169e+00,1.263e+00,2.678e+00,3.242e+00,2.940e+00,2.877e+00,2.762e+00,3.422e+00,4.457e+00,3.912e+00,3.649e+00,4.254e+00,4.964e+00,5.068e+00,5.562e+00,5.186e+00,6.874e+00,5.645e+00,6.694e+00,7.412e+00,6.507e+00,8.013e+00,7.609e+00,5.049e+00,8.564e+00,7.693e+00,7.164e+00,9.694e+00,9.130e+00,8.516e+00,9.418e+00,9.571e+00,1.061e+01,9.990e+00,1.088e+01,1.146e+01,1.010e+01,1.126e+01,1.054e+01,1.167e+01,1.232e+01,1.218e+01,1.113e+01,1.356e+01,1.371e+01,1.202e+01,1.226e+01,1.235e+01,1.377e+01,1.487e+01,1.377e+01,1.500e+01,1.598e+01,1.699e+01,1.762e+01,1.607e+01,1.571e+01,1.495e+01,1.700e+01,1.759e+01,1.619e+01,1.717e+01,1.883e+01,1.872e+01,1.506e+01,1.714e+01,1.488e+01,1.989e+01,1.611e+01,1.600e+01,1.626e+01,1.594e+01,1.742e+01,1.554e+01,1.615e+01,1.584e+01,1.655e+01,1.741e+01,1.807e+01,1.561e+01,1.772e+01,1.689e+01,1.628e+01,1.610e+01,1.802e+01,1.720e+01,1.681e+01,1.820e+01,1.592e+01,1.528e+01
5.452e-01,6.231e-01,8.771e-01,1.245e+00,1.173e+00,2.222e+00,1.366e+00,3.007e+00,3.425e+00,2.590e+00,2.941e+00,3.191e+00,3.305e+00,4.523e+00,4.174e+00,4.407e+00,5.588e+00,6.033e+00,5.119e+00,6.827e+00,6.350e+00,6.345e+00,5.394e+00,6.829e+00,6.289e+00,7.666e+00,7.965e+00,7.118e+00,4.913e+00,9.461e+00,8.199e+00,8.137e+00,9.418e+00,9.818e+00,8.698e+00,9.179e+00,9.214e+00,1.056e+01,1.126e+01,1.133e+01,1.101e+01,1.078e+01,1.163e+01,1.159e+01,1.276e+01,1.159e+01,1.178e+01,1.078e+01,1.409e+01,1.470e+01,1.324e+01,1.321e+01,1.402e+01,1.463e+01,1.591e+01,1.435e+01,1.328e+01,1.596e+01,1.741e+01,1.778e+01,1.602e+01,1.483e+01,1.590e+01,1.838e+01,1.728e+01,1.529e+01,1.693e+01,1.768e+01,1.913e+01,1.568e+01,1.826e+01,1.448e+01,1.931e+01,1.639e+01,1.742e+01,1.566e+01,1.677e+01,1.658e+01,1.630e+01,1.632e+01,1.573e+01,1.803e+01,1.711e+01,1.608e+01,1.634e+01,1.665e+01,1.632e+01,1.733e+01,1.760e+01,1.888e+01,1.677e+01,1.581e+01,1.842e+01,1.583e+01,1.710e+01
2.994e-01,9.409e-02,1.018e-01,2.770e-01,2.526e-01,1.384e+00,5.288e-01,1.972e+00,1.817e+00,1.057e+00,1.067e+00,1.558e+00,2.129e+00,2.660e+00,2.404e+00,2.473e+00,3.042e+00,3.751e+00,3.896e+00,4.500e+00,4.678e+00,4.849e+00,5.204e+00,5.168e+00,4.741e+00,6.131e+00,6.305e+00,5.556e+00,4.366e+00,6.829e+00,6.383e+00,6.057e+00,7.463e+00,7.247e+00,7.589e+00,6.356e+00,7.145e+00,8.437e+00,7.981e+00,8.231e+00,9.270e+00,8.044e+00,8.721e+00,8.959e+00,1.122e+01,1.026e+01,1.016e+01,9.742e+00,1.028e+01,1.107e+01,1.051e+01,1.110e+01,1.009e+01,1.211e+01,1.174e+01,1.134e+01,1.212e+01,1.446e+01,1.561e+01,1.374e+01,1.430e+01,1.299e+01,1.176e+01,1.354e+01,1.555e+01,1.523e+01,1.419e+01,1.558e+01,1.479e+01,1.398e+01,1.525e+01,1.205e+01,1.777e+01,1.435e+01,1.416e+01,1.463e+01,1.373e+01,1.420e+01,1.381e+01,1.452e+01,1.427e+01,1.587e+01,1.425e+01,1.507e+01,1.511e+01,1.463e+01,1.430e+01,1.504e+01,1.365e+01,1.593e+01,1.429e+01,1.374e+01,1.614e+01,1.309e+01,1.328e+01
4.791e-01,2.511e-01,2.453e-01,3.938e-01,4.146e-01,1.521e+00,7.614e-01,3.173e+00,3.338e+00,2.120e+00,2.171e+00,2.702e+00,2.754e+00,4.220e+00,2.501e+00,3.261e+00,3.666e+00,4.734e+00,4.090e+00,5.384e+00,5.343e+00,4.735e+00,6.075e+00,5.694e+00,5.768e+00,6.608e+00,6.714e+00,7.432e+00,5.933e+00,7.571e+00,7.686e+00,7.346e+00,8.793e+00,8.717e+00,9.578e+00,8.554e+00,8.781e+00,1.082e+01,9.684e+00,1.120e+01,1.167e+01,1.033e+01,1.047e+01,1.019e+01,1.219e+01,1.121e+01,1.211e+01,1.141e+01,1.392e+01,1.448e+01,1.228e+01,1.161e+01,1.278e+01,1.397e+01,1.485e+01,1.450e+01,1.399e+01,1.552e+01,1.808e+01,1.816e+01,1.590e+01,1.572e+01,1.564e+01,1.633e+01,1.814e+01,1.584e+01,1.646e+01,1.853e+01,1.925e+01,1.416e+01,1.653e+01,1.487e+01,1.979e+01,1.627e+01,1.730e+01,1.613e+01,1.544e+01,1.477e+01,1.673e+01,1.597e+01,1.593e+01,1.870e+01,1.517e+01,1.585e+01,1.721e+01,1.787e+01,1.668e+01,1.727e+01,1.730e+01,1.862e+01,1.680e+01,1.575e+01,1.839e+01,1.641e+01,1.696e+01
3.689e-01,6.211e-01,7.894e-01,9.671e-01,9.781e-01,1.979e+00,1.314e+00,3.364e+00,3.710e+00,3.048e+00,3.423e+00,3.859e+00,4.083e+00,4.966e+00,4.500e+00,3.945e+00,4.904e+00,6.252e+00,6.311e+00,6.935e+00,6.647e+00,7.232e+00,6.535e+00,7.690e+00,7.645e+00,6.920e+00,7.901e+00,8.250e+00,5.472e+00,8.466e+00,7.457e+00,7.977e+00,8.941e+00,9.789e+00,9.779e+00,9.409e+00,9.976e+00,1.108e+01,9.726e+00,9.962e+00,1.119e+01,9.840e+00,1.079e+01,1.135e+01,1.136e+01,1.216e+01,1.186e+01,1.107e+01,1.275e+01,1.253e+01,1.145e+01,1.078e+01,1.133e+01,1.276e+01,1.354e+01,1.365e+01,1.389e+01,1.397e+01,1.612e+01,1.653e+01,1.603e+01,1.457e+01,1.371e+01,1.656e+01,1.561e+01,1.444e+01,1.637e+01,1.862e+01,1.786e+01,1.520e+01,1.691e+01,1.472e+01,1.935e+01,1.743e+01,1.645e+01,1.579e+01,1.580e+01,1.711e+01,1.711e+01,1.623e+01,1.569e+01,1.582e+01,1.829e+01,1.684e+01,1.675e+01,1.715e+01,1.741e+01,1.695e+01,1.708e+01,1.848e+01,1.749e+01,1.595e+01,1.842e+01,1.585e+01,1.631e+01
5.431e-01,2.796e-01,2.708e-01,4.667e-01,4.873e-01,1.772e+00,8.611e-01,2.370e+00,2.400e+00,2.570e+00,2.889e+00,2.898e+00,3.344e+00,4.508e+00,4.127e+00,3.677e+00,4.395e+00,5.606e+00,5.267e+00,5.953e+00,6.814e+00,6.644e+00,5.968e+00,6.657e+00,6.599e+00,7.415e+00,8.077e+00,7.246e+00,5.913e+00,8.475e+00,7.586e+00,7.958e+00,9.819e+00,8.850e+00,9.166e+00,9.111e+00,9.132e+00,9.986e+00,9.887e+00,1.047e+01,1.144e+01,9.664e+00,1.118e+01,1.188e+01,1.088e+01,1.283e+01,1.198e+01,1.046e+01,1.334e+01,1.269e+01,1.234e+01,1.088e+01,1.171e+01,1.369e+01,1.351e+01,1.381e+01,1.381e+01,1.429e+01,1.570e+01,1.624e+01,1.663e+01,1.544e+01,1.365e+01,1.674e+01,1.745e+01,1.567e+01,1.619e+01,1.744e+01,1.636e+01,1.579e+01,1.749e+01,1.433e+01,1.949e+01,1.711e+01,1.745e+01,1.697e+01,1.544e+01,1.702e+01,1.776e+01,1.598e+01,1.694e+01,1.752e+01,1.708e+01,1.564e+01,1.595e+01,1.839e+01,1.721e+01,1.840e+01,1.822e+01,1.969e+01,1.638e+01,1.624e+01,1.878e+01,1.678e+01,1.847e+01
5.273e-01,1.410e-01,1.658e-01,3.910e-01,3.754e-01,1.958e+00,9.275e-01,2.984e+00,2.787e+00,2.433e+00,2.327e+00,2.481e+00,2.384e+00,3.701e+00,2.535e+00,2.633e+00,3.375e+00,4.649e+00,4.339e+00,4.652e+00,4.759e+00,5.132e+00,5.677e+00,5.849e+00,6.183e+00,6.272e+00,6.900e+00,6.214e+00,5.251e+00,7.171e+00,7.094e+00,6.798e+00,8.442e+00,7.026e+00,8.065e+00,8.163e+00,8.399e+00,9.712e+00,9.164e+00,9.232e+00,9.902e+00,9.216e+00,1.025e+01,1.025e+01,1.134e+01,1.023e+01,1.100e+01,1.013e+01,1.226e+01,1.341e+01,1.139e+01,1.173e+01,1.129e+01,1.307e+01,1.406e+01,1.352e+01,1.436e+01,1.533e+01,1.762e+01,1.774e+01,1.650e+01,1.471e+01,1.477e+01,1.539e+01,1.655e+01,1.703e+01,1.600e+01,1.813e+01,1.676e+01,1.335e+01,1.775e+01,1.428e+01,1.964e+01,1.718e+01,1.548e+01,1.665e+01,1.563e+01,1.678e+01,1.736e+01,1.574e+01,1.645e+01,1.951e+01,1.658e+01,1.739e+01,1.712e+01,1.751e+01,1.726e+01,1.668e+01,1.774e+01,1.919e+01,1.662e+01,1.673e+01,1.742e+01,1.500e+01,1.492e+01
2.293e-01,3.926e-01,6.840e-01,9.754e-01,8.627e-01,1.190e+00,8.446e-01,1.666e+00,1.965e+00,1.492e+00,1.540e+00,1.769e+00,2.198e+00,2.722e+00,2.794e+00,2.968e+00,3.116e+00,4.215e+00,3.827e+00,4.932e+00,4.387e+00,5.061e+00,5.388e+00,5.810e+00,5.970e+00,6.748e+00,7.712e+00,6.568e+00,4.713e+00,7.881e+00,7.136e+00,7.038e+00,9.463e+00,9.596e+00,8.370e+00,8.266e+00,9.155e+00,1.024e+01,9.966e+00,1.007e+01,1.154e+01,1.014e+01,9.725e+00,1.010e+01,1.321e+01,1.200e+01,1.265e+01,1.207e+01,1.315e+01,1.399e+01,1.218e+01,1.159e+01,1.131e+01,1.292e+01,1.316e+01,1.358e+01,1.307e+01,1.407e+01,1.665e+01,1.553e+01,1.590e+01,1.407e+01,1.346e+01,1.422e+01,1.729e+01,1.482e+01,1.498e+01,1.758e+01,1.795e+01,1.597e+01,1.810e+01,1.494e+01,1.990e+01,1.783e+01,1.689e+01,1.734e+01,1.589e+01,1.753e+01,1.761e+01,1.727e+01,1.624e+01,1.860e+01,1.675e+01,1.662e+01,1.767e+01,1.734e+01,1.654e+01,1.782e+01,1.751e+01,2.025e+01,1.813e+01,1.718e+01,1.823e+01,1.753e+01,1.756e+01
4.077e-01,4.629e-01,6.072e-01,8.173e-01,7.907e-01,1.055e+00,7.261e-01,1.703e+00,1.674e+00,1.530e+00,1.602e+00,2.126e+00,2.531e+00,3.063e+00,3.218e+00,2.682e+00,4.451e+00,4.027e+00,4.532e+00,4.899e+00,4.648e+00,5.676e+00,4.963e+00,4.751e+00,6.332e+00,5.879e+00,7.425e+00,6.156e+00,5.085e+00,7.333e+00,5.949e+00,7.551e+00,6.750e+00,7.968e+00,8.178e+00,6.731e+00,7.955e+00,8.913e+00,8.819e+00,9.191e+00,9.953e+00,9.326e+00,9.786e+00,1.040e+01,1.201e+01,1.080e+01,1.111e+01,1.024e+01,1.164e+01,1.162e+01,1.113e+01,1.162e+01,1.084e+01,1.222e+01,1.444e+01,1.322e+01,1.225e+01,1.283e+01,1.627e+01,1.568e+01,1.393e+01,1.402e+01,1.371e+01,1.532e+01,1.536e+01,1.404e+01,1.435e+01,1.750e+01,1.723e+01,1.473e+01,1.806e+01,1.527e+01,1.949e+01,1.675e+01,1.669e+01,1.649e+01,1.590e+01,1.796e+01,1.743e+01,1.594e+01,1.798e+01,1.690e+01,1.866e+01,1.664e+01,1.937e+01,1.801e+01,1.684e+01,1.899e+01,2.012e+01,1.837e+01,1.913e+01,1.503e+01,1.832e+01,1.802e+01,1.958e+01
3.009e-01,3.761e-01,4.386e-01,5.388e-01,5.646e-01,1.104e+00,8.052e-01,2.068e+00,2.121e+00,1.631e+00,2.061e+00,2.564e+00,2.361e+00,3.083e+00,2.612e+00,2.725e+00,4.023e+00,4.053e+00,4.157e+00,5.437e+00,4.903e+00,4.858e+00,5.231e+00,5.883e+00,6.169e+00,6.498e+00,7.152e+00,6.550e+00,4.640e+00,7.386e+00,5.531e+00,6.552e+00,8.168e+00,9.704e+00,7.992e+00,7.412e+00,8.073e+00,9.566e+00,9.432e+00,8.998e+00,1.068e+01,8.969e+00,1.073e+01,1.142e+01,1.355e+01,1.189e+01,1.258e+01,1.144e+01,1.196e+01,1.292e+01,1.261e+01,1.159e+01,1.226e+01,1.475e+01,1.308e+01,1.530e+01,1.239e+01,1.523e+01,1.704e+01,1.655e+01,1.560e+01,1.444e+01,1.619e+01,1.550e+01,1.736e+01,1.632e+01,1.634e+01,1.733e+01,1.802e+01,1.492e+01,1.875e+01,1.442e+01,1.925e+01,1.875e+01,1.923e+01,1.775e+01,1.775e+01,1.724e+01,1.752e+01,1.731e+01,1.806e+01,1.862e+01,1.740e+01,1.731e+01,1.946e+01,1.909e+01,1.916e+01,1.978e+01,1.878e+01,1.762e+01,1.768e+01,1.734e+01,1.989e+01,1.831e+01,1.882e+01
3.523e-01,2.980e-01,5.668e-01,9.392e-01,8.116e-01,1.930e+00,1.123e+00,2.943e+00,3.261e+00,2.036e+00,2.405e+00,2.995e+00,3.619e+00,4.146e+00,3.758e+00,4.200e+00,5.399e+00,5.874e+00,5.150e+00,6.317e+00,5.159e+00,6.803e+00,5.888e+00,6.208e+00,6.755e+00,6.532e+00,8.504e+00,7.743e+00,5.194e+00,8.704e+00,7.529e+00,6.871e+00,8.630e+00,9.190e+00,8.884e+00,8.131e+00,7.145e+00,1.057e+01,9.746e+00,9.969e+00,1.018e+01,9.011e+00,9.456e+00,9.633e+00,1.171e+01,1.165e+01,9.518e+00,1.041e+01,1.307e+01,1.189e+01,1.071e+01,1.126e+01,1.177e+01,1.138e+01,1.319e+01,1.161e+01,1.209e+01,1.310e+01,1.561e+01,1.547e+01,1.608e+01,1.301e+01,1.366e+01,1.642e+01,1.617e+01,1.371e+01,1.425e+01,1.649e+01,1.796e+01,1.497e+01,1.652e+01,1.411e+01,1.824e+01,1.718e+01,1.539e+01,1.701e+01,1.673e+01,1.685e+01,1.686e+01,1.479e+01,1.650e+01,1.704e+01,1.820e+01,1.583e+01,1.816e+01,2.026e+01,1.710e+01,1.838e+01,1.656e+01,1.722e+01,1.822e+01,1.583e+01,1.838e+01,1.573e+01,1.822e+01
1.186e-01,3.380e-01,6.366e-01,9.631e-01,8.269e-01,1.591e+00,9.419e-01,1.850e+00,2.732e+00,1.339e+00,2.147e+00,2.408e+00,2.754e+00,2.975e+00,3.406e+00,3.805e+00,4.380e+00,4.561e+00,4.792e+00,5.948e+00,4.731e+00,5.820e+00,5.755e+00,6.755e+00,6.439e+00,6.352e+00,7.141e+00,7.254e+00,4.950e+00,9.367e+00,8.288e+00,8.050e+00,8.887e+00,8.826e+00,8.777e+00,8.812e+00,8.783e+00,1.018e+01,1.033e+01,9.306e+00,1.018e+01,9.185e+00,9.796e+00,1.121e+01,1.153e+01,1.257e+01,1.090e+01,1.081e+01,1.450e+01,1.370e+01,1.167e+01,1.150e+01,1.177e+01,1.309e+01,1.520e+01,1.308e+01,1.239e+01,1.264e+01,1.556e+01,1.586e+01,1.485e+01,1.446e+01,1.558e+01,1.574e+01,1.671e+01,1.476e+01,1.430e+01,1.720e+01,1.800e+01,1.460e+01,1.705e+01,1.379e+01,1.962e+01,1.888e+01,1.723e+01,1.724e+01,1.692e+01,1.961e+01,1.811e+01,1.657e+01,1.791e+01,1.911e+01,1.733e+01,1.782e+01,1.777e+01,1.771e+01,1.685e+01,1.851e+01,1.995e+01,2.082e+01,1.912e+01,1.865e+01,1.804e+01,1.792e+01,1.893e+01
9.106e-02,3.435e-01,5.391e-01,7.482e-01,6.825e-01,1.705e+00,9.687e-01,2.472e+00,2.644e+00,1.673e+00,2.315e+00,2.642e+00,3.118e+00,3.832e+00,3.310e+00,3.346e+00,4.161e+00,4.936e+00,4.730e+00,5.846e+00,5.433e+00,5.330e+00,5.285e+00,6.998e+00,5.142e+00,6.536e+00,7.618e+00,6.411e+00,4.356e+00,8.424e+00,8.163e+00,7.392e+00,8.961e+00,8.704e+00,8.021e+00,9.678e+00,9.334e+00,1.020e+01,1.145e+01,1.069e+01,1.157e+01,1.114e+01,1.179e+01,1.222e+01,1.290e+01,1.279e+01,1.231e+01,1.234e+01,1.474e+01,1.477e+01,1.348e+01,1.230e+01,1.326e+01,1.551e+01,1.551e+01,1.309e+01,1.329e+01,1.659e+01,1.749e+01,1.723e+01,1.609e+01,1.478e+01,1.518e+01,1.698e+01,1.970e+01,1.557e+01,1.542e+01,1.871e+01,1.963e+01,1.803e+01,2.035e+01,1.438e+01,2.003e+01,1.832e+01,2.002e+01,1.971e+01,1.807e+01,1.999e+01,1.840e+01,1.958e+01,1.819e+01,2.070e+01,2.035e+01,1.860e+01,1.897e+01,2.127e+01,1.959e+01,2.029e+01,2.181e+01,2.139e+01,2.043e+01,1.970e+01,2.154e+01,1.849e+01,2.002e+01
4.848e-01,7.108e-01,1.003e+00,1.368e+00,1.297e+00,2.334e+00,1.474e+00,3.138e+00,3.591e+00,2.888e+00,3.005e+00,2.640e+00,4.163e+00,4.409e+00,3.838e+00,4.180e+00,5.384e+00,5.768e+00,4.115e+00,5.420e+00,5.637e+00,6.926e+00,6.084e+00,6.706e+00,7.688e+00,6.676e+00,8.429e+00,7.434e+00,5.338e+00,8.458e+00,6.894e+00,7.828e+00,9.690e+00,8.174e+00,8.656e+00,8.747e+00,9.182e+00,1.131e+01,9.630e+00,1.029e+01,1.129e+01,9.005e+00,1.126e+01,1.158e+01,1.320e+01,1.166e+01,1.298e+01,1.244e+01,1.359e+01,1.530e+01,1.228e+01,1.204e+01,1.194e+01,1.392e+01,1.501e+01,1.368e+01,1.435e+01,1.599e+01,1.663e+01,1.675e+01,1.687e+01,1.411e+01,1.330e+01,1.542e+01,1.807e+01,1.525e+01,1.674e+01,1.950e+01,1.827e+01,1.664e+01,1.707e+01,1.557e+01,2.174e+01,1.933e+01,1.833e+01,1.982e+01,1.891e+01,2.089e+01,1.956e+01,1.843e+01,1.978e+01,2.143e+01,2.039e+01,2.023e+01,2.079e+01,2.063e+01,2.031e+01,2.097e+01,2.041e+01,2.144e+01,2.061e+01,1.954e+01,2.033e+01,1.854e+01,2.094e+01
4.652e-01,6.898e-01,7.496e-01,8.220e-01,9.156e-01,1.974e+00,1.300e+00,2.756e+00,3.116e+00,3.231e+00,2.915e+00,2.816e+00,2.572e+00,4.289e+00,3.808e+00,3.743e+00,3.663e+00,5.882e+00,5.215e+00,6.340e+00,6.036e+00,6.371e+00,5.676e+00,6.771e+00,7.069e+00,7.514e+00,7.775e+00,7.379e+00,4.549e+00,9.089e+00,7.339e+00,8.348e+00,9.428e+00,9.702e+00,9.259e+00,8.858e+00,9.662e+00,1.061e+01,1.053e+01,1.020e+01,1.058e+01,9.715e+00,1.060e+01,1.020e+01,1.152e+01,1.267e+01,1.186e+01,1.131e+01,1.333e+01,1.296e+01,1.355e+01,1.300e+01,1.293e+01,1.299e+01,1.307e+01,1.281e+01,1.350e+01,1.540e+01,1.677e+01,1.701e+01,1.605e+01,1.458e+01,1.468e+01,1.616e+01,1.633e+01,1.472e+01,1.593e+01,1.930e+01,1.873e+01,1.577e+01,1.739e+01,1.392e+01,2.071e+01,1.883e+01,1.802e+01,1.725e+01,1.776e+01,1.895e+01,1.928e+01,1.662e+01,1.683e+01,1.897e+01,1.941e+01,1.845e+01,1.918e+01,2.080e+01,2.050e+01,1.809e+01,1.768e+01,2.162e+01,1.905e+01,1.773e+01,2.001e+01,1.745e+01,1.967e+01
9.921e-02,3.094e-01,4.890e-01,6.774e-01,6.182e-01,1.663e+00,8.604e-01,2.460e+00,2.885e+00,1.490e+00,1.615e+00,2.032e+00,2.538e+00,2.750e+00,2.467e+00,2.522e+00,3.355e+00,4.153e+00,3.390e+00,4.217e+00,4.402e+00,4.797e+00,4.554e+00,4.983e+00,5.654e+00,6.427e+00,6.940e+00,6.404e+00,4.050e+00,8.130e+00,6.830e+00,6.402e+00,8.828e+00,8.072e+00,8.186e+00,6.930e+00,7.323e+00,9.721e+00,8.113e+00,9.037e+00,9.333e+00,8.419e+00,8.702e+00,1.022e+01,1.005e+01,1.034e+01,1.004e+01,9.247e+00,1.129e+01,1.136e+01,9.614e+00,1.010e+01,1.026e+01,1.116e+01,1.254e+01,1.137e+01,1.126e+01,1.331e+01,1.457e+01,1.329e+01,1.402e+01,1.214e+01,1.188e+01,1.223e+01,1.405e+01,1.309e+01,1.346e+01,1.483e+01,1.407e+01,1.345e+01,1.474e+01,1.303e+01,1.694e+01,1.473e+01,1.531e+01,1.499e+01,1.557e+01,1.544e+01,1.589e+01,1.491e+01,1.421e+01,1.644e+01,1.623e+01,1.553e+01,1.590e+01,1.569e+01,1.674e+01,1.633e+01,1.711e+01,1.906e+01,1.722e+01,1.626e+01,1.591e+01,1.509e+01,1.719e+01
1.519e-01,2.636e-01,6.469e-01,1.108e+00,8.992e-01,2.039e+00,1.074e+00,2.094e+00,3.002e+00,1.952e+00,2.574e+00,2.273e+00,3.401e+00,3.343e+00,4.009e+00,4.289e+00,4.519e+00,5.654e+00,4.339e+00,5.597e+00,4.787e+00,6.344e+00,5.086e+00,5.645e+00,5.682e+00,5.698e+00,7.821e+00,7.205e+00,4.621e+00,8.344e+00,7.549e+00,7.063e+00,8.751e+00,8.209e+00,8.232e+00,8.637e+00,7.939e+00,1.017e+01,9.945e+00,9.506e+00,1.041e+01,9.745e+00,9.515e+00,1.146e+01,1.144e+01,1.144e+01,1.087e+01,1.069e+01,1.409e+01,1.255e+01,1.104e+01,1.065e+01,1.152e+01,1.240e+01,1.378e+01,1.280e+01,1.247e+01,1.393e+01,1.568e+01,1.470e+01,1.576e+01,1.420e+01,1.361e+01,1.538e+01,1.679e+01,1.370e+01,1.462e+01,1.583e+01,1.745e+01,1.604e+01,1.758e+01,1.491e+01,1.965e+01,1.971e+01,1.646e+01,1.729e+01,1.792e+01,1.803e+01,1.721e+01,1.673e+01,1.716e+01,2.139e+01,1.952e+01,1.850e+01,1.975e+01,2.050e+01,1.904e+01,2.081e+01,2.057e+01,2.138e+01,2.162e+01,1.706e+01,1.872e+01,1.933e+01,2.120e+01
1.238e-01,8.393e-01,1.123e+00,1.302e+00,1.284e+00,1.643e+00,1.296e+00,2.679e+00,2.681e+00,1.615e+00,2.085e+00,2.964e+00,2.699e+00,2.618e+00,3.670e+00,2.968e+00,4.454e+00,4.935e+00,4.790e+00,5.945e+00,4.853e+00,5.199e+00,5.640e+00,6.106e+00,6.100e+00,6.654e+00,7.580e+00,7.043e+00,4.386e+00,8.514e+00,6.824e+00,7.743e+00,8.780e+00,9.884e+00,7.958e+00,8.759e+00,9.387e+00,1.036e+01,1.032e+01,1.037e+01,1.086e+01,9.947e+00,1.017e+01,1.028e+01,1.232e+01,1.152e+01,1.218e+01,1.083e+01,1.413e+01,1.403e+01,1.301e+01,1.170e+01,1.255e+01,1.395e+01,1.371e+01,1.334e+01,1.144e+01,1.525e+01,1.637e+01,1.708e+01,1.548e+01,1.364e+01,1.400e+01,1.501e+01,1.546e+01,1.537e+01,1.545e+01,1.769e+01,1.779e+01,1.663e+01,1.769e+01,1.516e+01,2.032e+01,1.573e+01,1.917e+01,1.868e+01,1.774e+01,1.871e+01,1.827e+01,1.839e+01,1.912e+01,2.087e+01,1.796e+01,1.756e+01,1.986e+01,1.963e+01,1.987e+01,1.972e+01,2.075e+01,2.372e+01,2.052e+01,1.898e+01,2.124e+01,1.826e+01,2.056e+01
2.228e-01,2.797e-01,6.684e-01,1.143e+00,9.380e-01,2.168e+00,1.259e+00,3.261e+00,3.403e+00,1.535e+00,2.353e+00,3.527e+00,3.906e+00,3.770e+00,4.057e+00,3.748e+00,5.749e+00,5.710e+00,5.285e+00,6.994e+00,5.440e+00,6.050e+00,6.018e+00,6.847e+00,6.460e+00,7.137e+00,8.406e+00,7.597e+00,5.783e+00,9.462e+00,8.078e+00,8.586e+00,8.916e+00,1.050e+01,1.015e+01,8.810e+00,9.121e+00,1.105e+01,1.124e+01,1.020e+01,1.139e+01,1.111e+01,1.040e+01,1.147e+01,1.198e+01,1.193e+01,1.141e+01,1.110e+01,1.420e+01,1.258e+01,1.194e+01,1.136e+01,1.235e+01,1.279e+01,1.335e+01,1.327e+01,1.133e+01,1.347e+01,1.683e+01,1.660e+01,1.489e+01,1.386e+01,1.501e+01,1.658e+01,1.678e+01,1.486e+01,1.528e+01,1.683e+01,1.820e+01,1.462e+01,1.805e+01,1.360e+01,2.004e+01,1.829e+01,1.809e+01,1.897e+01,1.654e+01,1.876e+01,1.865e+01,1.784e+01,1.860e+01,1.868e+01,1.955e+01,1.894e+01,2.014e+01,2.270e+01,2.003e+01,2.027e+01,2.263e+01,2.001e+01,1.985e+01,1.958e+01,2.030e+01,1.752e+01,2.061e+01
2.858e-01,1.688e-01,3.604e-01,6.931e-01,5.783e-01,2.053e+00,9.769e-01,3.233e+00,3.572e+00,1.922e+00,2.342e+00,2.760e+00,3.269e+00,3.731e+00,3.024e+00,3.436e+00,4.387e+00,5.351e+00,4.833e+00,5.818e+00,5.189e+00,6.089e+00,6.431e+00,6.267e+00,6.685e+00,7.024e+00,8.609e+00,7.802e+00,5.726e+00,8.543e+00,8.580e+00,7.177e+00,1.001e+01,8.845e+00,9.026e+00,9.196e+00,8.164e+00,1.133e+01,9.635e+00,1.088e+01,1.079e+01,9.962e+00,1.026e+01,1.019e+01,1.196e+01,1.240e+01,1.095e+01,1.125e+01,1.328e+01,1.327e+01,1.146e+01,1.182e+01,1.136e+01,1.287e+01,1.353e+01,1.141e+01,1.303e+01,1.495e+01,1.668e+01,1.586e+01,1.599e+01,1.383e+01,1.349e+01,1.601e+01,1.714e+01,1.590e+01,1.556e+01,1.768e+01,1.784e+01,1.634e+01,1.884e+01,1.467e+01,2.019e+01,1.857e+01,1.696e+01,1.826e+01,1.722e+01,1.778e+01,1.861e+01,1.790e+01,1.813e+01,2.105e+01,2.116e+01,1.953e+01,2.035e+01,2.176e+01,2.100e+01,2.125e+01,2.060e+01,2.236e+01,2.164e+01,2.047e+01,2.152e+01,1.802e+01,2.009e+01
5.130e-01,3.928e-01,3.949e-01,4.889e-01,5.571e-01,1.508e+00,1.019e+00,2.746e+00,2.423e+00,2.729e+00,2.607e+00,2.764e+00,2.176e+00,3.494e+00,2.728e+00,2.570e+00,3.511e+00,4.925e+00,4.144e+00,4.974e+00,4.559e+00,4.588e+00,5.471e+00,5.332e+00,5.711e+00,6.227e+00,6.998e+00,6.255e+00,4.371e+00,6.976e+00,6.112e+00,6.974e+00,7.844e+00,8.343e+00,7.715e+00,7.273e+00,8.225e+00,9.115e+00,8.692e+00,9.654e+00,1.013e+01,9.250e+00,9.837e+00,9.337e+00,1.180e+01,1.059e+01,1.170e+01,1.058e+01,1.249e+01,1.265e+01,1.238e+01,1.198e+01,1.132e+01,1.244e+01,1.293e+01,1.260e+01,1.195e+01,1.297e+01,1.493e+01,1.506e+01,1.411e+01,1.332e+01,1.426e+01,1.428e+01,1.618e+01,1.496e+01,1.441e+01,1.703e+01,1.759e+01,1.399e+01,1.589e+01,1.411e+01,1.774e+01,1.718e+01,1.751e+01,1.641e+01,1.701e+01,1.749e+01,1.777e+01,1.835e+01,1.620e+01,1.953e+01,1.797e+01,1.832e+01,1.884e+01,1.997e+01,1.988e+01,1.941e+01,2.124e+01,2.186e+01,2.002e+01,1.750e+01,1.925e+01,1.732e+01,1.908e+01
1.818e-01,2.587e-01,6.012e-01,9.941e-01,8.283e-01,1.994e+00,1.158e+00,2.485e+00,3.083e+00,2.052e+00,2.652e+00,2.784e+00,3.782e+00,3.581e+00,3.675e+00,3.598e+00,4.177e+00,5.352e+00,4.931e+00,6.187e+00,5.824e+00,6.100e+00,5.645e+00,7.063e+00,6.887e+00,7.486e+00,8.442e+00,7.658e+00,5.165e+00,9.087e+00,7.011e+00,7.635e+00,9.651e+00,9.770e+00,9.950e+00,8.967e+00,9.095e+00,1.126e+01,1.006e+01,9.047e+00,1.154e+01,9.796e+00,1.093e+01,1.167e+01,1.233e+01,1.328e+01,1.286e+01,1.267e+01,1.408e+01,1.407e+01,1.234e+01,1.228e+01,1.321e+01,1.456e+01,1.377e+01,1.542e+01,1.455e+01,1.623e+01,1.818e+01,1.748e+01,1.706e+01,1.524e+01,1.550e+01,1.667e+01,1.711e+01,1.658e+01,1.601e+01,1.890e+01,1.730e+01,1.460e+01,1.724e+01,1.540e+01,2.040e+01,1.935e+01,1.773e+01,1.746e+01,1.866e+01,2.018e+01,2.000e+01,1.726e+01,2.051e+01,2.212e+01,2.054e+01,2.113e+01,2.181e+01,2.355e+01,2.398e+01,2.016e+01,2.139e+01,2.276e+01,2.128e+01,2.115e+01,2.182e+01,1.924e+01,2.188e+01
2.979e-01,4.655e-01,5.009e-01,5.178e-01,5.881e-01,1.097e+00,8.027e-01,2.135e+00,2.448e+00,2.255e+00,2.413e+00,2.806e+00,2.257e+00,4.111e+00,3.162e+00,3.550e+00,3.948e+00,5.001e+00,5.363e+00,6.247e+00,5.669e+00,5.574e+00,4.872e+00,6.211e+00,6.038e+00,6.475e+00,6.839e+00,7.072e+00,4.789e+00,8.339e+00,7.304e+00,7.608e+00,8.208e+00,9.855e+00,8.852e+00,8.211e+00,8.442e+00,1.024e+01,1.062e+01,9.716e+00,1.057e+01,1.034e+01,1.012e+01,1.090e+01,1.151e+01,1.183e+01,1.056e+01,1.114e+01,1.224e+01,1.189e+01,1.211e+01,1.057e+01,1.156e+01,1.149e+01,1.277e+01,1.260e+01,1.186e+01,1.433e+01,1.544e+01,1.541e+01,1.409e+01,1.163e+01,1.435e+01,1.515e+01,1.553e+01,1.355e+01,1.371e+01,1.751e+01,1.705e+01,1.549e+01,1.705e+01,1.440e+01,1.932e+01,1.612e+01,1.691e+01,1.730e+01,1.619e+01,1.758e+01,1.792e+01,1.701e+01,1.707e+01,1.882e+01,1.995e+01,1.910e+01,1.976e+01,2.240e+01,1.970e+01,1.969e+01,2.116e+01,2.330e+01,1.977e+01,1.809e+01,2.088e+01,1.716e+01,2.001e+01
4.651e-01,4.769e-01,5.977e-01,7.647e-01,7.820e-01,1.587e+00,1.168e+00,2.766e+00,2.844e+00,2.422e+00,2.614e+00,3.522e+00,3.218e+00,4.373e+00,3.927e+00,3.460e+00,5.242e+00,5.299e+00,4.957e+00,6.189e+00,5.301e+00,6.975e+00,7.320e+00,7.175e+00,8.475e+00,7.321e+00,8.360e+00,8.228e+00,5.575e+00,9.853e+00,7.937e+00,8.143e+00,9.658e+00,1.007e+01,9.946e+00,9.392e+00,9.673e+00,1.083e+01,1.055e+01,1.120e+01,1.164e+01,9.382e+00,1.086e+01,1.108e+01,1.206e+01,1.287e+01,1.216e+01,1.092e+01,1.395e+01,1.314e+01,1.296e+01,1.210e+01,1.229e+01,1.327e+01,1.398e+01,1.447e+01,1.245e+01,1.275e+01,1.649e+01,1.686e+01,1.568e+01,1.437e+01,1.543e+01,1.760e+01,1.728e+01,1.564e+01,1.561e+01,1.936e+01,1.888e+01,1.541e+01,1.759e+01,1.527e+01,2.080e+01,1.832e+01,1.777e+01,1.805e+01,1.634e+01,1.933e+01,1.979e+01,1.769e+01,1.838e+01,2.037e+01,1.979e+01,1.893e+01,2.093e+01,2.303e+01,2.040e+01,2.305e+01,2.299e+01,2.247e+01,2.009e+01,1.956e+01,2.180e+01,2.072e+01,2.229e+01
1.998e-01,1.516e-01,4.218e-01,7.928e-01,6.336e-01,1.757e+00,8.622e-01,2.007e+00,2.718e+00,1.839e+00,2.449e+00,2.447e+00,2.752e+00,3.278e+00,3.619e+00,3.940e+00,4.615e+00,5.592e+00,4.819e+00,5.628e+00,5.295e+00,6.181e+00,4.411e+00,6.015e+00,5.916e+00,6.324e+00,7.545e+00,6.709e+00,4.564e+00,7.964e+00,6.415e+00,7.430e+00,7.975e+00,8.699e+00,7.965e+00,6.915e+00,8.153e+00,9.833e+00,9.739e+00,9.929e+00,1.087e+01,9.819e+00,1.019e+01,1.040e+01,1.163e+01,1.066e+01,1.106e+01,1.006e+01,1.166e+01,1.192e+01,1.139e+01,1.134e+01,1.217e+01,1.270e+01,1.312e+01,1.372e+01,1.261e+01,1.397e+01,1.636e+01,1.645e+01,1.508e+01,1.357e+01,1.258e+01,1.625e+01,1.692e+01,1.422e+01,1.503e+01,1.815e+01,1.751e+01,1.599e+01,1.622e+01,1.548e+01,2.059e+01,1.690e+01,1.730e+01,1.728e+01,1.847e+01,1.933e+01,2.005e+01,1.688e+01,1.905e+01,2.092e+01,1.968e+01,2.019e+01,2.031e+01,2.286e+01,2.257e+01,2.333e+01,2.085e+01,2.262e+01,2.129e+01,1.848e+01,2.234e+01,1.887e+01,2.063e+01
2.850e-01,5.402e-01,8.766e-01,1.244e+00,1.121e+00,2.083e+00,1.318e+00,3.583e+00,3.702e+00,2.039e+00,2.572e+00,3.400e+00,4.044e+00,4.459e+00,3.772e+00,3.866e+00,5.593e+00,5.786e+00,5.610e+00,7.087e+00,5.909e+00,6.404e+00,6.730e+00,7.586e+00,6.963e+00,7.665e+00,8.628e+00,7.716e+00,6.447e+00,9.663e+00,8.771e+00,8.438e+00,9.517e+00,1.040e+01,1.044e+01,9.948e+00,9.194e+00,1.196e+01,1.084e+01,1.075e+01,1.253e+01,1.090e+01,1.188e+01,1.192e+01,1.334e+01,1.319e+01,1.273e+01,1.259e+01,1.496e+01,1.472e+01,1.406e+01,1.302e+01,1.341e+01,1.527e+01,1.577e+01,1.539e+01,1.610e+01,1.771e+01,1.995e+01,1.950e+01,1.767e+01,1.551e+01,1.563e+01,1.722e+01,1.823e+01,1.719e+01,1.713e+01,2.022e+01,1.850e+01,1.659e+01,1.944e+01,1.687e+01,2.183e+01,2.002e+01,1.984e+01,2.043e+01,1.755e+01,2.107e+01,2.218e+01,2.116e+01,2.033e+01,2.380e+01,2.340e+01,2.175e+01,2.298e+01,2.512e+01,2.414e+01,2.394e+01,2.444e+01,2.444e+01,2.362e+01,2.257e+01,2.360e+01,1.971e+01,2.272e+01
3.882e-01,6.752e-01,7.665e-01,8.518e-01,9.198e-01,1.537e+00,1.143e+00,3.078e+00,2.947e+00,2.873e+00,2.957e+00,3.166e+00,3.576e+00,4.471e+00,3.675e+00,3.485e+00,4.604e+00,6.039e+00,5.549e+00,5.895e+00,5.825e+00,6.315e+00,6.082e+00,6.233e+00,6.927e+00,7.282e+00,8.745e+00,7.765e+00,5.686e+00,8.492e+00,7.220e+00,7.798e+00,9.238e+00,9.949e+00,9.210e+00,8.628e+00,9.178e+00,1.077e+01,9.466e+00,1.014e+01,1.025e+01,1.006e+01,1.043e+01,1.117e+01,1.207e+01,1.216e+01,1.220e+01,1.151e+01,1.267e+01,1.268e+01,1.291e+01,1.222e+01,1.154e+01,1.266e+01,1.450e+01,1.351e+01,1.468e+01,1.521e+01,1.744e+01,1.664e+01,1.681e+01,1.438e+01,1.452e+01,1.625e+01,1.703e+01,1.508e+01,1.657e+01,1.781e+01,1.800e+01,1.615e+01,1.702e+01,1.613e+01,1.968e+01,1.997e+01,1.964e+01,1.917e+01,2.005e+01,1.960e+01,1.954e+01,1.899e+01,1.835e+01,2.200e+01,2.259e+01,2.018e+01,2.258e+01,2.453e+01,2.401e+01,2.439e+01,2.428e+01,2.632e+01,2.533e+01,2.144e+01,2.308e+01,2.187e+01,2.474e+01
4.636e-01,8.175e-01,8.987e-01,1.001e+00,1.098e+00,2.417e+00,1.529e+00,3.393e+00,3.481e+00,3.532e+00,3.445e+00,3.516e+00,3.945e+00,5.211e+00,4.996e+00,4.645e+00,5.642e+00,7.073e+00,6.043e+00,6.695e+00,6.709e+00,7.913e+00,6.344e+00,7.227e+00,7.873e+00,6.960e+00,8.783e+00,8.929e+00,5.416e+00,9.652e+00,8.099e+00,9.143e+00,1.008e+01,1.021e+01,1.015e+01,9.508e+00,1.003e+01,1.168e+01,1.179e+01,1.160e+01,1.240e+01,1.142e+01,1.123e+01,1.272e+01,1.502e+01,1.316e+01,1.285e+01,1.164e+01,1.468e+01,1.474e+01,1.428e+01,1.336e+01,1.356e+01,1.517e+01,1.576e+01,1.372e+01,1.471e+01,1.682e+01,1.842e+01,1.847e+01,1.784e+01,1.583e+01,1.635e+01,1.840e+01,1.920e+01,1.623e+01,1.734e+01,1.886e+01,1.973e+01,1.762e+01,1.811e+01,1.596e+01,2.228e+01,1.977e+01,1.937e+01,2.068e+01,2.054e+01,2.137e+01,2.072e+01,1.839e+01,1.948e+01,2.178e+01,2.393e+01,2.314e+01,2.458e+01,2.358e+01,2.309e+01,2.436e+01,2.326e+01,2.569e+01,2.435e+01,2.264e+01,2.381e+01,2.209e+01,2.501e+01
2.486e-01,2.137e-01,5.117e-01,9.437e-01,7.736e-01,2.229e+00,1.105e+00,2.256e+00,2.999e+00,1.972e+00,2.435e+00,2.235e+00,3.757e+00,3.430e+00,3.911e+00,3.931e+00,4.351e+00,4.997e+00,4.704e+00,5.696e+00,4.991e+00,6.191e+00,5.267e+00,5.748e+00,5.738e+00,5.874e+00,7.286e+00,7.469e+00,4.276e+00,8.275e+00,7.530e+00,7.186e+00,8.368e+00,8.279e+00,8.571e+00,8.962e+00,9.531e+00,1.052e+01,1.052e+01,1.107e+01,1.153e+01,1.032e+01,1.087e+01,1.029e+01,1.171e+01,1.261e+01,1.201e+01,1.171e+01,1.502e+01,1.484e+01,1.286e+01,1.299e+01,1.385e+01,1.399e+01,1.499e+01,1.344e+01,1.364e+01,1.628e+01,1.686e+01,1.694e+01,1.616e+01,1.484e+01,1.428e+01,1.679e+01,1.861e+01,1.532e+01,1.679e+01,1.849e+01,1.880e+01,1.700e+01,1.777e+01,1.572e+01,2.105e+01,1.803e+01,1.835e+01,1.766e+01,1.744e+01,1.908e+01,1.838e+01,1.730e+01,1.773e+01,2.111e+01,1.962e+01,1.950e+01,2.032e+01,2.112e+01,2.079e+01,2.129e+01,2.138e+01,2.312e+01,2.272e+01,2.139e+01,2.267e+01,2.171e+01,2.189e+01
2.329e-01,2.417e-01,6.205e-01,1.113e+00,8.979e-01,2.019e+00,1.091e+00,1.826e+00,2.597e+00,1.560e+00,2.121e+00,1.846e+00,2.887e+00,2.957e+00,3.418e+00,4.330e+00,5.028e+00,5.143e+00,4.489e+00,6.436e+00,4.752e+00,6.419e+00,6.208e+00,6.492e+00,6.837e+00,6.970e+00,7.550e+00,7.215e+00,5.496e+00,8.903e+00,7.409e+00,7.729e+00,9.391e+00,9.011e+00,8.724e+00,8.862e+00,9.066e+00,1.036e+01,1.025e+01,9.547e+00,1.128e+01,9.994e+00,1.086e+01,1.133e+01,1.277e+01,1.182e+01,1.214e+01,1.124e+01,1.406e+01,1.286e+01,1.146e+01,1.228e+01,1.331e+01,1.380e+01,1.366e+01,1.413e+01,1.368e+01,1.516e+01,1.805e+01,1.708e+01,1.590e+01,1.460e+01,1.490e+01,1.752e+01,1.835e+01,1.591e+01,1.601e+01,1.897e+01,1.868e+01,1.712e+01,1.957e+01,1.596e+01,2.114e+01,1.945e+01,1.817e+01,1.878e+01,1.784e+01,1.947e+01,2.065e+01,1.777e+01,1.928e+01,2.051e+01,1.957e+01,2.052e+01,2.262e+01,2.275e+01,2.164e+01,2.393e+01,2.380e+01,2.264e+01,2.341e+01,2.080e+01,2.371e+01,2.362e+01,2.437e+01
2.228e-01,3.232e-01,5.756e-01,8.466e-01,7.514e-01,1.412e+00,9.628e-01,2.085e+00,2.063e+00,1.612e+00,1.938e+00,2.464e+00,2.624e+00,2.926e+00,3.034e+00,2.713e+00,4.060e+00,4.187e+00,3.652e+00,4.663e+00,4.099e+00,4.649e+00,4.286e+00,5.239e+00,4.699e+00,5.138e+00,6.006e+00,5.667e+00,3.391e+00,6.650e+00,5.832e+00,6.057e+00,6.763e+00,8.335e+00,6.629e+00,6.330e+00,7.891e+00,7.881e+00,8.910e+00,8.717e+00,9.574e+00,8.979e+00,8.550e+00,9.389e+00,1.189e+01,9.368e+00,1.014e+01,8.908e+00,1.075e+01,1.056e+01,1.119e+01,1.040e+01,1.097e+01,1.208e+01,1.207e+01,1.250e+01,1.154e+01,1.294e+01,1.681e+01,1.503e+01,1.350e+01,1.293e+01,1.286e+01,1.491e+01,1.539e+01,1.427e+01,1.416e+01,1.620e+01,1.669e+01,1.453e+01,1.753e+01,1.383e+01,1.857e+01,1.777e+01,1.656e+01,1.672e+01,1.760e+01,1.852e+01,1.790e+01,1.726e+01,1.856e+01,2.036e+01,1.874e+01,2.033e+01,2.161e+01,2.186e+01,2.167e+01,2.210e+01,2.187e+01,2.311e+01,2.194e+01,1.965e+01,2.100e+01,2.053e+01,2.202e+01
4.697e-01,4.091e-01,5.260e-01,7.855e-01,7.687e-01,2.388e+00,1.309e+00,3.386e+00,3.513e+00,2.943e+00,3.320e+00,3.448e+00,3.881e+00,4.525e+00,4.106e+00,3.964e+00,6.039e+00,6.211e+00,5.982e+00,6.580e+00,6.246e+00,6.805e+00,6.310e+00,7.274e+00,7.703e+00,8.085e+00,8.715e+00,8.403e+00,5.830e+00,1.054e+01,7.781e+00,9.694e+00,1.071e+01,1.039e+01,1.062e+01,9.361e+00,1.047e+01,1.223e+01,1.214e+01,1.185e+01,1.245e+01,1.139e+01,1.257e+01,1.352e+01,1.518e+01,1.391e+01,1.309e+01,1.284e+01,1.460e+01,1.560e+01,1.463e+01,1.408e+01,1.448e+01,1.623e+01,1.754e+01,1.608e+01,1.548e+01,1.767e+01,1.944e+01,2.029e+01,1.897e+01,1.687e+01,1.778e+01,1.976e+01,2.035e+01,1.865e+01,1.847e+01,2.091e+01,2.154e+01,1.819e+01,2.194e+01,1.799e+01,2.339e+01,2.147e+01,2.174e+01,2.227e+01,2.212e+01,2.230e+01,2.379e+01,1.954e+01,2.310e+01,2.406e+01,2.332e+01,2.383e+01,2.567e+01,2.795e+01,2.610e+01,2.611e+01,2.602e+01,2.838e+01,2.674e+01,2.516e+01,2.765e+01,2.516e+01,2.864e+01
