1.018e-01,1.721e-01,7.180e-01,5.138e-01,5.425e-02,7.173e-01,5.150e-01,9.835e-02,3.785e-01,4.332e-02,1.911e-01,4.320e-01,5.149e-01,1.413e-01,5.437e-01,1.702e-01,2.261e-01,5.159e-02,2.570e-01,2.298e-01,8.723e-01,3.312e-01,6.536e-01,7.227e-01,8.254e-01,7.550e-01,3.420e-01,9.391e-01,2.589e-01,9.979e-01,7.334e-02,3.443e-01,6.574e-01,6.109e-01,1.622e-01,3.152e-01,3.249e-01,8.034e-01,4.905e-01,7.218e-01,9.228e-01,3.522e-02,9.746e-01,3.618e-01,7.065e-01,3.767e-01,1.387e-01,5.915e-01,7.628e-01,7.242e-01,4.622e-01,2.089e-01,1.182e-01,4.818e-01,4.916e-01,4.634e-01,7.598e-01,5.458e-01,4.421e-01,2.173e-01,1.325e-01,1.607e-03,2.285e-01,4.089e-01,8.258e-02,8.122e-01
1.843e-02,5.148e-01,3.696e-01,1.685e-01,8.825e-01,6.283e-01,3.770e-01,6.259e-01,5.495e-01,2.173e-01,5.724e-01,7.896e-01,6.365e-01,5.933e-01,6.820e-01,9.640e-01,9.813e-01,9.884e-01,9.972e-01,5.385e-01,4.310e-01,7.054e-01,5.644e-01,2.500e-01,3.823e-01,4.367e-01,6.224e-01,3.782e-01,2.509e-01,2.511e-01,5.710e-01,9.534e-01,4.789e-01,2.509e-01,8.836e-01,1.042e-01,4.112e-01,7.161e-01,9.772e-01,1.073e+00,4.646e-01,8.374e-01,7.577e-01,1.290e-01,7.365e-01,1.059e+00,4.313e-01,1.074e+00,7.483e-01,2.088e-01,4.733e-01,5.327e-01,1.787e-01,1.008e+00,4.229e-01,3.307e-01,7.370e-01,2.818e-01,1.327e-01,5.577e-01,9.016e-01,1.779e-01,6.776e-01,1.175e-01,8.504e-01,6.261e-01
5.716e-02,4.403e-01,8.679e-01,7.831e-01,6.598e-01,1.444e+00,9.621e-01,1.424e+00,1.444e+00,9.380e-01,5.363e-01,8.242e-01,7.086e-01,1.005e+00,8.759e-01,1.667e+00,1.713e+00,1.051e+00,1.297e+00,5.840e-01,1.633e+00,7.523e-01,1.235e+00,6.101e-01,1.505e+00,1.053e+00,9.341e-01,9.899e-01,7.168e-01,1.296e+00,1.425e+00,1.452e+00,1.402e+00,1.350e+00,1.517e+00,4.247e-01,1.163e+00,8.730e-01,1.199e+00,1.105e+00,8.553e-01,8.851e-01,1.501e+00,1.178e+00,1.439e+00,1.827e+00,5.547e-01,1.675e+00,9.923e-01,9.349e-01,1.061e+00,1.407e+00,5.845e-01,1.231e+00,6.689e-01,1.089e+00,9.096e-01,1.379e+00,9.106e-01,1.298e+00,1.333e+00,1.342e-01,8.560e-01,1.157e+00,9.270e-01,1.074e+00
2.059e-02,4.084e-02,3.098e-01,9.999e-01,6.137e-01,8.619e-01,6.550e-01,1.531e+00,8.451e-01,8.306e-01,1.061e+00,7.772e-01,1.028e+00,1.143e+00,4.989e-01,7.570e-01,1.467e+00,1.019e+00,8.676e-01,5.331e-01,1.256e+00,1.019e+00,1.003e+00,3.754e-01,1.431e+00,1.226e+00,9.001e-01,4.169e-01,1.032e+00,8.515e-01,1.410e+00,1.127e+00,1.312e+00,1.531e+00,6.649e-01,7.662e-01,1.240e+00,1.135e+00,7.371e-01,1.005e+00,1.242e+00,3.257e-01,1.207e+00,1.142e+00,1.122e+00,1.126e+00,1.369e-01,1.318e+00,4.758e-01,1.392e+00,8.654e-01,9.367e-01,7.238e-01,6.645e-01,1.006e+00,1.092e+00,1.103e+00,1.553e+00,1.096e+00,8.575e-01,8.127e-01,7.701e-01,7.699e-01,1.504e+00,8.331e-01,1.174e+00
4.181e-02,1.659e-01,5.331e-01,7.172e-01,1.325e+00,1.150e+00,1.459e+00,1.833e+00,1.143e+00,1.569e+00,1.245e+00,1.468e+00,1.427e+00,1.038e+00,1.176e+00,1.017e+00,1.747e+00,8.107e-01,1.030e+00,9.277e-01,1.609e+00,1.335e+00,1.199e+00,1.148e+00,1.999e+00,1.808e+00,7.119e-01,1.354e+00,1.379e+00,1.377e+00,1.217e+00,1.315e+00,1.351e+00,1.502e+00,1.257e+00,6.535e-01,1.560e+00,7.843e-01,1.621e+00,1.415e+00,9.209e-01,5.204e-01,1.897e+00,1.107e+00,1.506e+00,2.107e+00,4.639e-01,1.450e+00,1.593e+00,1.437e+00,1.159e+00,1.742e+00,7.333e-01,1.081e+00,1.176e+00,1.726e+00,1.413e+00,1.235e+00,1.350e+00,1.486e+00,1.094e+00,9.255e-01,1.025e+00,1.261e+00,5.993e-01,1.674e+00
4.047e-02,2.207e-01,6.223e-01,9.405e-01,9.219e-01,1.910e+00,1.540e+00,2.056e+00,1.903e+00,2.085e+00,1.918e+00,1.583e+00,1.726e+00,1.266e+00,1.659e+00,1.918e+00,2.120e+00,1.691e+00,1.408e+00,1.037e+00,2.138e+00,1.814e+00,2.204e+00,1.701e+00,2.097e+00,1.849e+00,1.050e+00,1.628e+00,1.573e+00,2.057e+00,2.055e+00,1.836e+00,1.594e+00,2.044e+00,2.013e+00,8.254e-01,1.872e+00,1.753e+00,2.180e+00,1.449e+00,1.241e+00,8.976e-01,2.078e+00,1.743e+00,2.105e+00,2.222e+00,1.193e+00,1.666e+00,1.684e+00,1.680e+00,1.343e+00,2.350e+00,1.109e+00,1.464e+00,1.061e+00,1.908e+00,1.873e+00,2.034e+00,1.790e+00,2.345e+00,1.804e+00,9.454e-01,9.813e-01,1.610e+00,9.647e-01,1.907e+00
8.620e-02,3.787e-01,9.274e-01,1.242e+00,1.801e+00,2.071e+00,2.395e+00,3.301e+00,2.790e+00,2.458e+00,2.860e+00,3.201e+00,3.320e+00,1.666e+00,2.269e+00,2.565e+00,2.869e+00,2.555e+00,2.359e+00,1.940e+00,3.183e+00,2.401e+00,2.453e+00,2.083e+00,3.067e+00,3.480e+00,2.284e+00,2.742e+00,2.448e+00,2.695e+00,2.720e+00,2.295e+00,2.431e+00,2.886e+00,2.167e+00,1.656e+00,3.053e+00,3.025e+00,2.957e+00,3.076e+00,2.590e+00,1.922e+00,3.934e+00,1.849e+00,2.755e+00,3.562e+00,1.359e+00,2.664e+00,3.066e+00,2.775e+00,2.664e+00,2.801e+00,1.597e+00,2.866e+00,2.572e+00,2.887e+00,2.632e+00,2.864e+00,2.387e+00,2.575e+00,2.675e+00,2.100e+00,1.983e+00,2.301e+00,1.645e+00,2.947e+00
9.939e-02,5.237e-01,1.019e+00,1.102e+00,1.759e+00,2.202e+00,2.072e+00,2.530e+00,2.248e+00,2.785e+00,2.862e+00,3.230e+00,3.303e+00,1.948e+00,2.342e+00,2.272e+00,2.589e+00,2.339e+00,2.718e+00,1.813e+00,3.335e+00,2.597e+00,3.069e+00,3.203e+00,2.801e+00,3.289e+00,1.923e+00,2.692e+00,1.955e+00,3.290e+00,2.651e+00,2.766e+00,2.790e+00,2.904e+00,2.343e+00,1.321e+00,2.970e+00,2.870e+00,3.521e+00,3.235e+00,2.298e+00,2.102e+00,3.878e+00,1.999e+00,3.460e+00,3.370e+00,1.606e+00,3.219e+00,3.625e+00,2.615e+00,2.466e+00,2.940e+00,1.985e+00,2.688e+00,2.639e+00,2.955e+00,3.294e+00,2.132e+00,2.006e+00,3.190e+00,2.988e+00,1.740e+00,2.247e+00,1.909e+00,1.914e+00,2.812e+00
5.991e-03,4.326e-01,4.552e-01,9.879e-01,1.716e+00,1.390e+00,1.249e+00,2.485e+00,1.663e+00,1.760e+00,2.613e+00,2.900e+00,2.315e+00,2.419e+00,2.131e+00,2.057e+00,2.975e+00,2.140e+00,2.466e+00,2.052e+00,2.712e+00,2.050e+00,1.958e+00,2.020e+00,2.779e+00,2.824e+00,1.668e+00,1.885e+00,1.792e+00,1.908e+00,3.273e+00,2.644e+00,2.505e+00,2.371e+00,1.891e+00,1.592e+00,2.612e+00,2.465e+00,2.458e+00,2.574e+00,1.546e+00,2.260e+00,2.325e+00,2.402e+00,2.970e+00,3.361e+00,1.563e+00,2.568e+00,1.748e+00,2.271e+00,1.758e+00,2.428e+00,1.294e+00,2.455e+00,2.314e+00,2.056e+00,2.194e+00,1.923e+00,2.145e+00,2.809e+00,2.734e+00,2.046e+00,1.861e+00,2.612e+00,2.592e+00,1.933e+00
6.055e-02,5.091e-01,8.818e-01,9.642e-01,1.206e+00,1.894e+00,1.542e+00,2.257e+00,2.161e+00,2.416e+00,2.100e+00,2.575e+00,2.711e+00,1.972e+00,2.163e+00,2.754e+00,2.934e+00,2.731e+00,2.417e+00,1.543e+00,2.696e+00,2.451e+00,2.634e+00,1.648e+00,2.890e+00,2.251e+00,2.568e+00,1.960e+00,2.346e+00,2.411e+00,3.173e+00,2.569e+00,2.194e+00,3.029e+00,2.644e+00,1.395e+00,2.971e+00,2.724e+00,2.661e+00,2.555e+00,2.386e+00,1.863e+00,2.939e+00,1.912e+00,2.560e+00,3.434e+00,1.755e+00,2.515e+00,2.201e+00,2.596e+00,2.382e+00,2.531e+00,1.596e+00,2.356e+00,1.817e+00,2.068e+00,2.785e+00,2.371e+00,1.765e+00,2.778e+00,2.592e+00,1.455e+00,2.403e+00,2.389e+00,2.069e+00,2.610e+00
2.984e-02,4.982e-01,5.397e-01,4.603e-01,1.553e+00,1.540e+00,1.561e+00,2.105e+00,2.067e+00,2.399e+00,3.350e+00,4.064e+00,3.045e+00,2.790e+00,3.613e+00,3.101e+00,2.530e+00,3.000e+00,3.625e+00,2.549e+00,3.193e+00,3.143e+00,2.783e+00,3.644e+00,2.543e+00,3.721e+00,2.403e+00,2.959e+00,2.479e+00,2.858e+00,3.775e+00,2.824e+00,2.710e+00,2.746e+00,2.380e+00,1.761e+00,3.424e+00,3.526e+00,4.028e+00,3.149e+00,2.150e+00,3.739e+00,3.408e+00,2.507e+00,3.394e+00,3.932e+00,2.722e+00,3.305e+00,3.534e+00,2.945e+00,2.420e+00,3.800e+00,2.181e+00,3.147e+00,3.307e+00,2.767e+00,3.428e+00,2.113e+00,2.738e+00,4.009e+00,4.282e+00,2.128e+00,2.779e+00,2.439e+00,3.307e+00,2.660e+00
6.164e-02,5.345e-01,7.825e-01,9.992e-01,1.880e+00,1.682e+00,1.893e+00,3.019e+00,2.611e+00,2.835e+00,3.645e+00,5.671e+00,4.724e+00,3.514e+00,3.795e+00,3.904e+00,3.597e+00,4.371e+00,4.826e+00,3.812e+00,4.207e+00,3.933e+00,3.760e+00,3.461e+00,4.564e+00,4.896e+00,3.484e+00,3.941e+00,3.684e+00,3.411e+00,4.589e+00,3.775e+00,3.906e+00,4.495e+00,3.401e+00,2.535e+00,4.360e+00,5.002e+00,4.478e+00,4.534e+00,3.867e+00,4.024e+00,5.118e+00,2.856e+00,4.391e+00,5.246e+00,2.838e+00,4.721e+00,4.125e+00,4.477e+00,3.686e+00,3.815e+00,2.580e+00,4.533e+00,4.027e+00,3.827e+00,4.458e+00,3.585e+00,3.534e+00,3.966e+00,4.969e+00,3.954e+00,3.450e+00,3.607e+00,4.388e+00,3.647e+00
4.304e-02,3.965e-01,6.324e-01,7.710e-01,1.669e+00,1.578e+00,1.715e+00,2.381e+00,1.942e+00,2.984e+00,2.864e+00,3.631e+00,3.661e+00,3.137e+00,3.528e+00,3.350e+00,3.618e+00,3.501e+00,3.792e+00,2.652e+00,3.461e+00,3.600e+00,2.959e+00,3.365e+00,4.036e+00,3.648e+00,3.436e+00,2.628e+00,3.222e+00,2.942e+00,3.820e+00,2.957e+00,3.081e+00,4.304e+00,3.429e+00,2.685e+00,4.466e+00,3.166e+00,3.483e+00,3.725e+00,2.465e+00,2.556e+00,4.145e+00,2.346e+00,3.652e+00,4.658e+00,2.203e+00,3.628e+00,3.854e+00,3.986e+00,3.286e+00,3.539e+00,2.520e+00,3.614e+00,3.550e+00,3.444e+00,4.020e+00,2.767e+00,2.452e+00,4.134e+00,3.254e+00,3.122e+00,3.310e+00,2.970e+00,3.232e+00,3.496e+00
1.674e-02,4.665e-02,4.058e-01,5.415e-01,5.231e-01,1.082e+00,1.361e+00,2.253e+00,2.348e+00,2.340e+00,2.303e+00,3.993e+00,3.035e+00,3.424e+00,3.768e+00,4.504e+00,2.442e+00,3.487e+00,4.238e+00,3.180e+00,3.470e+00,3.074e+00,3.243e+00,3.046e+00,3.911e+00,4.287e+00,3.498e+00,3.890e+00,3.576e+00,3.412e+00,3.960e+00,2.614e+00,3.983e+00,4.758e+00,2.964e+00,2.480e+00,3.673e+00,4.073e+00,4.137e+00,2.994e+00,3.218e+00,4.412e+00,4.628e+00,2.822e+00,3.035e+00,4.590e+00,2.398e+00,4.419e+00,3.814e+00,3.997e+00,3.029e+00,4.696e+00,3.107e+00,3.608e+00,3.793e+00,3.712e+00,3.900e+00,3.788e+00,4.185e+00,4.075e+00,4.856e+00,3.260e+00,3.275e+00,2.905e+00,3.885e+00,2.801e+00
2.164e-02,3.456e-01,5.968e-01,8.048e-01,9.651e-01,1.688e+00,1.398e+00,2.261e+00,2.168e+00,2.060e+00,1.968e+00,2.883e+00,2.452e+00,2.353e+00,3.326e+00,4.246e+00,2.964e+00,3.931e+00,3.274e+00,3.154e+00,3.167e+00,3.527e+00,3.338e+00,1.875e+00,3.170e+00,3.122e+00,3.151e+00,2.442e+00,3.428e+00,2.834e+00,3.556e+00,2.730e+00,2.857e+00,4.111e+00,3.557e+00,2.065e+00,3.433e+00,2.950e+00,3.003e+00,2.776e+00,2.418e+00,2.256e+00,3.761e+00,2.610e+00,2.878e+00,4.316e+00,2.537e+00,3.983e+00,2.738e+00,2.882e+00,2.927e+00,3.913e+00,2.429e+00,3.034e+00,2.719e+00,2.668e+00,3.326e+00,4.024e+00,2.857e+00,3.057e+00,3.942e+00,2.509e+00,2.583e+00,2.689e+00,3.573e+00,3.241e+00
3.608e-02,1.960e-01,3.744e-01,4.797e-01,1.212e+00,7.906e-01,1.291e+00,1.774e+00,1.415e+00,1.531e+00,2.349e+00,3.956e+00,3.058e+00,3.334e+00,4.235e+00,4.601e+00,3.010e+00,4.145e+00,4.798e+00,4.226e+00,2.821e+00,4.570e+00,3.319e+00,3.723e+00,4.931e+00,4.744e+00,3.544e+00,4.472e+00,4.175e+00,3.146e+00,3.456e+00,3.308e+00,4.186e+00,4.453e+00,3.051e+00,3.805e+00,4.124e+00,4.274e+00,4.484e+00,4.350e+00,3.441e+00,3.656e+00,4.287e+00,2.851e+00,3.230e+00,4.751e+00,3.117e+00,4.922e+00,4.477e+00,5.060e+00,3.111e+00,4.144e+00,2.852e+00,4.092e+00,4.431e+00,3.858e+00,4.539e+00,4.075e+00,4.519e+00,3.795e+00,4.160e+00,4.309e+00,2.965e+00,2.951e+00,4.045e+00,4.016e+00
5.339e-02,1.813e-01,4.573e-01,9.840e-01,1.385e+00,1.625e+00,1.770e+00,2.479e+00,2.037e+00,2.564e+00,3.541e+00,3.853e+00,3.882e+00,3.496e+00,4.769e+00,4.539e+00,4.188e+00,5.195e+00,4.730e+00,4.490e+00,3.698e+00,6.180e+00,4.002e+00,4.579e+00,4.735e+00,5.476e+00,5.277e+00,3.622e+00,5.043e+00,3.953e+00,4.134e+00,3.783e+00,4.145e+00,5.722e+00,3.951e+00,4.238e+00,5.885e+00,5.016e+00,5.239e+00,5.084e+00,3.770e+00,3.272e+00,5.384e+00,3.823e+00,3.631e+00,4.712e+00,3.228e+00,5.088e+00,5.360e+00,4.935e+00,3.788e+00,5.132e+00,4.089e+00,4.269e+00,5.889e+00,4.474e+00,5.923e+00,5.537e+00,4.286e+00,4.760e+00,5.167e+00,4.156e+00,3.834e+00,3.767e+00,4.716e+00,5.196e+00
5.123e-02,4.354e-01,7.846e-01,1.138e+00,1.586e+00,1.649e+00,1.643e+00,2.794e+00,2.256e+00,2.242e+00,2.861e+00,3.850e+00,3.205e+00,3.159e+00,3.725e+00,4.193e+00,4.376e+00,4.709e+00,4.622e+00,5.234e+00,4.437e+00,4.961e+00,4.335e+00,3.863e+00,5.751e+00,5.950e+00,4.635e+00,4.072e+00,5.014e+00,4.252e+00,4.759e+00,4.460e+00,5.200e+00,5.588e+00,4.038e+00,4.401e+00,5.847e+00,5.129e+00,5.230e+00,5.165e+00,3.285e+00,4.132e+00,5.652e+00,4.957e+00,4.724e+00,5.494e+00,3.758e+00,5.153e+00,4.627e+00,4.391e+00,3.667e+00,4.998e+00,3.930e+00,4.442e+00,5.652e+00,3.650e+00,4.916e+00,5.442e+00,3.800e+00,5.278e+00,5.516e+00,4.260e+00,4.068e+00,5.088e+00,5.392e+00,4.515e+00
1.528e-02,5.094e-02,1.749e-01,2.691e-01,3.038e-01,4.031e-01,5.897e-01,1.077e+00,1.154e+00,1.576e+00,1.916e+00,3.360e+00,2.788e+00,3.449e+00,4.199e+00,4.411e+00,2.811e+00,4.333e+00,5.132e+00,5.116e+00,3.526e+00,5.060e+00,4.211e+00,3.654e+00,4.713e+00,5.463e+00,5.620e+00,4.453e+00,5.236e+00,3.918e+00,4.459e+00,3.400e+00,5.004e+00,6.392e+00,3.955e+00,4.486e+00,5.180e+00,5.406e+00,4.417e+00,4.741e+00,3.564e+00,4.289e+00,5.235e+00,3.347e+00,3.922e+00,4.862e+00,3.275e+00,5.264e+00,4.927e+00,4.730e+00,4.015e+00,5.287e+00,4.267e+00,4.373e+00,5.401e+00,4.135e+00,5.731e+00,4.872e+00,4.174e+00,4.697e+00,4.985e+00,4.949e+00,4.318e+00,3.554e+00,5.426e+00,4.233e+00
7.689e-02,5.885e-01,8.853e-01,1.179e+00,1.472e+00,2.113e+00,1.561e+00,2.338e+00,2.152e+00,2.267e+00,3.253e+00,4.095e+00,3.601e+00,3.668e+00,4.765e+00,4.860e+00,3.716e+00,5.679e+00,5.730e+00,6.681e+00,4.694e+00,6.203e+00,6.397e+00,4.722e+00,6.074e+00,6.739e+00,5.528e+00,4.911e+00,6.630e+00,4.723e+00,5.068e+00,4.853e+00,6.070e+00,7.487e+00,5.486e+00,4.908e+00,6.179e+00,7.470e+00,5.966e+00,5.714e+00,4.311e+00,4.336e+00,7.183e+00,4.496e+00,5.675e+00,5.829e+00,4.556e+00,7.099e+00,6.541e+00,5.347e+00,4.948e+00,6.868e+00,5.231e+00,5.284e+00,5.659e+00,5.208e+00,7.355e+00,6.334e+00,4.575e+00,6.306e+00,6.752e+00,5.171e+00,5.401e+00,4.414e+00,6.288e+00,5.622e+00
9.895e-02,2.972e-01,9.988e-01,9.048e-01,9.522e-01,1.770e+00,1.936e+00,2.439e+00,2.640e+00,2.507e+00,2.695e+00,4.559e+00,3.746e+00,3.687e+00,4.584e+00,4.966e+00,3.465e+00,5.009e+00,6.278e+00,5.676e+00,5.546e+00,6.131e+00,5.940e+00,4.861e+00,6.460e+00,7.940e+00,6.208e+00,6.461e+00,5.926e+00,5.405e+00,5.541e+00,5.012e+00,6.739e+00,7.630e+00,5.164e+00,4.576e+00,5.950e+00,7.291e+00,6.081e+00,6.498e+00,4.497e+00,5.578e+00,7.811e+00,4.124e+00,5.764e+00,6.337e+00,3.656e+00,6.953e+00,6.926e+00,6.288e+00,5.391e+00,6.307e+00,4.848e+00,5.971e+00,5.960e+00,6.068e+00,6.589e+00,6.703e+00,4.940e+00,6.673e+00,6.667e+00,5.672e+00,4.850e+00,5.135e+00,5.880e+00,5.214e+00
2.744e-02,3.408e-01,5.873e-01,7.931e-01,1.278e+00,1.918e+00,1.745e+00,2.479e+00,2.421e+00,3.050e+00,3.331e+00,4.561e+00,3.831e+00,4.473e+00,5.997e+00,6.823e+00,5.082e+00,6.061e+00,6.521e+00,6.891e+00,5.080e+00,7.659e+00,6.916e+00,5.905e+00,7.779e+00,8.009e+00,6.796e+00,7.224e+00,7.879e+00,6.778e+00,6.669e+00,6.181e+00,6.962e+00,8.328e+00,6.867e+00,6.055e+00,7.967e+00,7.629e+00,7.765e+00,6.835e+00,5.268e+00,5.313e+00,7.283e+00,6.307e+00,6.340e+00,8.300e+00,5.717e+00,7.510e+00,7.172e+00,6.907e+00,5.382e+00,8.352e+00,5.702e+00,6.580e+00,6.606e+00,6.404e+00,8.200e+00,7.304e+00,6.926e+00,7.919e+00,7.935e+00,6.688e+00,5.543e+00,5.620e+00,6.585e+00,6.417e+00
2.301e-02,1.467e-01,2.197e-01,1.552e-01,1.059e+00,9.742e-01,1.321e+00,1.346e+00,1.293e+00,2.312e+00,2.482e+00,3.127e+00,2.878e+00,2.739e+00,4.231e+00,3.944e+00,3.295e+00,4.182e+00,4.405e+00,5.982e+00,3.753e+00,6.281e+00,6.262e+00,5.505e+00,6.273e+00,7.186e+00,6.806e+00,6.331e+00,7.033e+00,5.010e+00,5.209e+00,4.713e+00,6.163e+00,8.108e+00,5.385e+00,5.284e+00,7.185e+00,6.735e+00,6.960e+00,6.049e+00,4.247e+00,4.756e+00,6.713e+00,4.362e+00,5.124e+00,6.382e+00,5.339e+00,6.305e+00,7.398e+00,5.322e+00,5.197e+00,6.525e+00,5.961e+00,5.182e+00,6.201e+00,6.232e+00,7.372e+00,6.685e+00,5.304e+00,7.230e+00,6.943e+00,6.025e+00,6.162e+00,4.792e+00,5.321e+00,5.418e+00
6.341e-02,2.203e-01,5.399e-01,9.920e-01,1.437e+00,1.360e+00,1.494e+00,2.014e+00,1.378e+00,2.174e+00,2.923e+00,3.762e+00,3.570e+00,3.745e+00,4.821e+00,4.924e+00,4.391e+00,5.703e+00,5.786e+00,6.605e+00,4.518e+00,8.025e+00,7.007e+00,5.834e+00,8.630e+00,8.696e+00,7.454e+00,7.348e+00,8.160e+00,6.237e+00,6.239e+00,6.618e+00,8.271e+00,8.861e+00,5.893e+00,6.870e+00,8.582e+00,8.388e+00,8.623e+00,7.874e+00,6.489e+00,5.071e+00,8.300e+00,6.480e+00,6.228e+00,7.816e+00,5.435e+00,7.905e+00,7.311e+00,8.223e+00,5.694e+00,7.586e+00,6.637e+00,6.343e+00,7.198e+00,7.266e+00,8.319e+00,8.877e+00,6.339e+00,8.071e+00,7.625e+00,7.938e+00,6.963e+00,7.256e+00,7.016e+00,7.760e+00
9.477e-02,4.030e-01,8.994e-01,9.273e-01,1.602e+00,1.876e+00,2.081e+00,2.461e+00,2.343e+00,2.879e+00,3.475e+00,4.362e+00,3.926e+00,2.731e+00,4.394e+00,4.537e+00,3.465e+00,4.254e+00,4.576e+00,5.737e+00,5.538e+00,6.075e+00,7.141e+00,6.096e+00,8.060e+00,8.956e+00,7.569e+00,8.593e+00,7.975e+00,7.813e+00,7.387e+00,6.277e+00,8.503e+00,8.859e+00,5.449e+00,6.152e+00,9.283e+00,7.993e+00,8.741e+00,7.913e+00,7.198e+00,5.445e+00,8.161e+00,6.311e+00,7.566e+00,8.906e+00,6.234e+00,8.192e+00,7.570e+00,8.073e+00,6.926e+00,7.551e+00,6.992e+00,6.244e+00,6.928e+00,7.339e+00,7.799e+00,7.851e+00,6.782e+00,8.960e+00,8.612e+00,7.184e+00,7.279e+00,6.919e+00,6.621e+00,7.204e+00
8.776e-03,4.543e-01,2.907e-01,5.254e-01,1.422e+00,1.086e+00,1.115e+00,2.063e+00,1.741e+00,1.643e+00,2.937e+00,3.970e+00,3.302e+00,4.071e+00,4.757e+00,5.053e+00,3.642e+00,5.292e+00,5.713e+00,5.130e+00,3.658e+00,5.993e+00,4.682e+00,4.111e+00,5.867e+00,6.733e+00,6.873e+00,5.971e+00,6.162e+00,4.158e+00,5.892e+00,5.643e+00,7.019e+00,7.334e+00,5.611e+00,5.241e+00,6.386e+00,6.682e+00,7.293e+00,6.753e+00,5.637e+00,5.994e+00,6.837e+00,4.043e+00,5.119e+00,6.160e+00,4.445e+00,7.108e+00,6.661e+00,6.958e+00,5.190e+00,6.682e+00,5.356e+00,5.603e+00,6.032e+00,5.763e+00,7.052e+00,6.337e+00,5.976e+00,6.843e+00,6.898e+00,5.802e+00,5.971e+00,5.392e+00,6.717e+00,5.238e+00
7.864e-02,3.846e-01,7.887e-01,6.758e-01,9.381e-01,1.315e+00,1.218e+00,1.426e+00,1.414e+00,1.749e+00,1.766e+00,3.289e+00,2.729e+00,2.935e+00,4.126e+00,4.807e+00,3.147e+00,4.318e+00,4.347e+00,5.138e+00,3.825e+00,5.895e+00,6.087e+00,4.542e+00,6.860e+00,6.928e+00,7.717e+00,7.364e+00,7.557e+00,6.785e+00,5.845e+00,6.672e+00,8.013e+00,8.443e+00,6.435e+00,5.274e+00,8.241e+00,6.969e+00,8.407e+00,6.971e+00,7.146e+00,5.251e+00,7.725e+00,6.129e+00,5.594e+00,7.883e+00,6.052e+00,8.708e+00,7.610e+00,7.421e+00,5.921e+00,7.589e+00,6.311e+00,5.668e+00,6.097e+00,6.766e+00,7.923e+00,7.547e+00,7.108e+00,7.159e+00,8.823e+00,5.859e+00,6.929e+00,6.247e+00,6.846e+00,6.769e+00
3.422e-02,3.974e-01,6.850e-01,1.022e+00,1.489e+00,1.787e+00,1.754e+00,2.927e+00,2.477e+00,2.689e+00,2.711e+00,3.260e+00,3.270e+00,3.414e+00,3.533e+00,4.710e+00,4.548e+00,4.613e+00,5.481e+00,5.222e+00,4.196e+00,5.544e+00,5.649e+00,4.790e+00,6.357e+00,6.902e+00,7.906e+00,7.441e+00,7.508e+00,6.445e+00,7.247e+00,6.687e+00,8.392e+00,8.861e+00,7.448e+00,6.111e+00,9.003e+00,7.069e+00,8.273e+00,7.554e+00,6.380e+00,5.218e+00,7.433e+00,5.674e+00,7.256e+00,7.651e+00,6.379e+00,8.138e+00,8.727e+00,7.627e+00,6.738e+00,8.241e+00,6.984e+00,5.987e+00,7.132e+00,7.595e+00,7.870e+00,8.040e+00,7.159e+00,7.245e+00,8.168e+00,6.730e+00,7.309e+00,6.739e+00,6.641e+00,7.178e+00
2.612e-02,2.623e-01,4.644e-01,6.305e-01,1.288e+00,1.556e+00,1.823e+00,2.689e+00,2.581e+00,2.905e+00,3.133e+00,3.711e+00,3.591e+00,3.280e+00,4.607e+00,5.420e+00,3.893e+00,5.157e+00,5.169e+00,5.719e+00,4.930e+00,6.096e+00,5.997e+00,5.521e+00,7.238e+00,8.026e+00,8.084e+00,7.201e+00,7.983e+00,7.195e+00,6.965e+00,7.002e+00,9.377e+00,9.900e+00,6.669e+00,6.827e+00,9.377e+00,7.761e+00,8.759e+00,7.690e+00,7.046e+00,6.929e+00,8.653e+00,6.629e+00,7.234e+00,8.315e+00,5.866e+00,8.036e+00,8.179e+00,8.285e+00,7.409e+00,9.088e+00,8.313e+00,6.759e+00,7.727e+00,7.740e+00,8.408e+00,8.960e+00,6.613e+00,9.228e+00,8.605e+00,7.033e+00,8.458e+00,7.437e+00,8.105e+00,7.726e+00
4.206e-02,2.774e-01,6.746e-01,1.166e+00,1.686e+00,1.828e+00,1.903e+00,2.950e+00,2.269e+00,3.411e+00,3.514e+00,4.664e+00,4.059e+00,3.747e+00,4.214e+00,4.455e+00,4.209e+00,4.814e+00,5.563e+00,5.613e+00,5.438e+00,6.286e+00,6.564e+00,5.375e+00,7.668e+00,8.059e+00,7.933e+00,8.256e+00,8.130e+00,8.175e+00,9.156e+00,7.830e+00,1.061e+01,1.020e+01,7.496e+00,7.148e+00,9.855e+00,8.815e+00,9.148e+00,8.732e+00,7.817e+00,6.069e+00,8.781e+00,6.977e+00,8.939e+00,9.503e+00,7.302e+00,9.497e+00,8.797e+00,9.671e+00,7.548e+00,8.901e+00,8.079e+00,6.716e+00,7.953e+00,8.846e+00,8.735e+00,8.865e+00,7.860e+00,8.734e+00,9.187e+00,8.177e+00,8.391e+00,8.721e+00,8.841e+00,8.822e+00
7.505e-02,3.542e-01,6.476e-01,4.419e-01,1.268e+00,1.441e+00,1.548e+00,1.436e+00,1.572e+00,2.550e+00,2.900e+00,3.981e+00,3.511e+00,2.543e+00,3.834e+00,3.034e+00,2.592e+00,3.593e+00,3.904e+00,4.328e+00,3.683e+00,4.280e+00,5.650e+00,5.018e+00,6.474e+00,6.844e+00,5.010e+00,6.648e+00,6.831e+00,5.896e+00,6.279e+00,5.162e+00,7.311e+00,7.640e+00,6.152e+00,5.908e+00,8.487e+00,6.560e+00,8.782e+00,6.078e+00,6.217e+00,5.116e+00,7.731e+00,5.268e+00,8.259e+00,7.634e+00,5.884e+00,6.869e+00,7.484e+00,6.521e+00,5.672e+00,6.981e+00,6.493e+00,5.604e+00,6.436e+00,6.042e+00,7.128e+00,6.248e+00,5.676e+00,7.899e+00,6.613e+00,6.284e+00,6.171e+00,6.340e+00,6.333e+00,6.279e+00
8.983e-02,3.947e-01,8.485e-01,1.264e+00,1.902e+00,2.037e+00,2.038e+00,2.586e+00,1.916e+00,2.516e+00,3.562e+00,3.973e+00,3.552e+00,3.530e+00,4.388e+00,3.403e+00,3.594e+00,3.831e+00,4.534e+00,4.929e+00,4.618e+00,6.056e+00,6.344e+00,5.119e+00,6.699e+00,8.052e+00,6.598e+00,7.622e+00,7.777e+00,6.714e+00,7.350e+00,7.978e+00,9.688e+00,9.590e+00,6.793e+00,6.806e+00,8.579e+00,9.055e+00,9.071e+00,8.219e+00,8.350e+00,6.750e+00,9.194e+00,6.428e+00,8.292e+00,8.787e+00,6.276e+00,7.639e+00,8.655e+00,8.562e+00,7.315e+00,8.784e+00,7.456e+00,6.970e+00,6.959e+00,8.588e+00,9.410e+00,8.345e+00,8.106e+00,8.735e+00,8.114e+00,7.539e+00,8.326e+00,8.471e+00,7.014e+00,7.856e+00
4.892e-02,3.612e-01,5.853e-01,8.919e-01,1.260e+00,1.367e+00,1.277e+00,2.050e+00,1.687e+00,2.110e+00,2.868e+00,4.059e+00,3.548e+00,4.493e+00,5.580e+00,5.932e+00,3.777e+00,5.673e+00,6.238e+00,6.484e+00,4.641e+00,6.670e+00,6.461e+00,4.958e+00,6.891e+00,7.570e+00,7.171e+00,6.920e+00,8.249e+00,6.228e+00,7.687e+00,7.506e+00,1.006e+01,1.102e+01,7.700e+00,8.661e+00,9.669e+00,8.966e+00,9.184e+00,8.586e+00,8.059e+00,7.759e+00,1.005e+01,7.101e+00,8.066e+00,9.003e+00,7.314e+00,9.855e+00,9.649e+00,9.095e+00,8.265e+00,1.012e+01,8.578e+00,7.314e+00,8.538e+00,8.301e+00,9.711e+00,9.342e+00,7.852e+00,8.799e+00,8.192e+00,8.258e+00,8.538e+00,7.607e+00,8.512e+00,8.477e+00
5.050e-02,8.676e-02,5.590e-01,7.514e-01,5.695e-01,1.228e+00,1.116e+00,1.393e+00,1.318e+00,1.947e+00,1.955e+00,2.800e+00,2.327e+00,2.617e+00,3.500e+00,3.532e+00,3.094e+00,3.587e+00,3.511e+00,4.640e+00,3.845e+00,5.083e+00,5.144e+00,4.527e+00,7.193e+00,6.403e+00,6.510e+00,6.436e+00,6.865e+00,5.854e+00,7.243e+00,6.783e+00,9.201e+00,1.003e+01,6.298e+00,8.431e+00,9.045e+00,8.371e+00,8.468e+00,7.904e+00,7.353e+00,6.028e+00,8.286e+00,7.382e+00,7.203e+00,8.550e+00,7.214e+00,8.340e+00,8.233e+00,8.613e+00,7.850e+00,8.262e+00,7.738e+00,6.480e+00,7.465e+00,7.966e+00,7.287e+00,8.894e+00,7.854e+00,8.554e+00,8.108e+00,7.449e+00,7.453e+00,8.100e+00,7.281e+00,8.043e+00
7.735e-02,5.425e-01,9.216e-01,1.201e+00,2.017e+00,1.962e+00,2.119e+00,3.192e+00,2.646e+00,2.954e+00,3.486e+00,4.878e+00,4.547e+00,3.572e+00,4.420e+00,4.674e+00,4.520e+00,5.277e+00,5.186e+00,5.280e+00,4.927e+00,5.377e+00,5.228e+00,4.571e+00,7.024e+00,7.071e+00,7.231e+00,6.609e+00,7.245e+00,6.959e+00,7.283e+00,7.044e+00,9.124e+00,9.861e+00,8.080e+00,7.851e+00,1.076e+01,8.757e+00,9.259e+00,9.000e+00,8.148e+00,6.778e+00,1.028e+01,7.528e+00,8.577e+00,9.536e+00,8.312e+00,9.613e+00,1.024e+01,9.803e+00,8.211e+00,8.817e+00,7.874e+00,8.091e+00,9.379e+00,9.393e+00,8.218e+00,8.947e+00,8.120e+00,8.518e+00,8.987e+00,8.245e+00,8.043e+00,8.159e+00,8.951e+00,9.749e+00
4.037e-02,3.524e-01,6.347e-01,7.231e-01,1.441e+00,1.855e+00,1.974e+00,2.659e+00,2.647e+00,3.243e+00,3.762e+00,5.178e+00,4.243e+00,3.938e+00,5.312e+00,5.610e+00,4.236e+00,5.774e+00,6.416e+00,6.482e+00,5.009e+00,6.730e+00,7.293e+00,6.087e+00,8.001e+00,8.487e+00,7.204e+00,8.717e+00,8.746e+00,7.600e+00,8.527e+00,7.555e+00,1.001e+01,1.037e+01,8.363e+00,9.166e+00,1.125e+01,1.077e+01,1.164e+01,9.582e+00,8.695e+00,7.853e+00,1.132e+01,9.013e+00,9.813e+00,1.044e+01,9.548e+00,1.024e+01,1.065e+01,1.072e+01,8.102e+00,1.069e+01,8.767e+00,9.303e+00,9.768e+00,1.073e+01,9.532e+00,1.070e+01,9.803e+00,1.052e+01,9.845e+00,9.964e+00,8.866e+00,9.707e+00,9.264e+00,1.069e+01
5.268e-02,2.573e-01,7.023e-01,6.894e-01,1.166e+00,1.623e+00,1.718e+00,2.150e+00,2.009e+00,3.107e+00,2.305e+00,3.777e+00,3.535e+00,3.412e+00,4.472e+00,4.937e+00,3.664e+00,5.217e+00,5.322e+00,5.993e+00,4.681e+00,5.903e+00,6.104e+00,5.090e+00,7.817e+00,7.151e+00,7.563e+00,6.969e+00,8.236e+00,6.462e+00,7.083e+00,7.534e+00,1.006e+01,1.099e+01,8.226e+00,8.867e+00,1.102e+01,9.262e+00,1.078e+01,8.506e+00,8.306e+00,6.978e+00,1.176e+01,7.982e+00,8.718e+00,9.975e+00,8.277e+00,1.067e+01,1.095e+01,1.062e+01,9.514e+00,1.133e+01,1.002e+01,7.773e+00,8.917e+00,1.037e+01,9.994e+00,1.070e+01,8.692e+00,1.084e+01,9.979e+00,9.372e+00,9.337e+00,8.347e+00,9.051e+00,1.024e+01
4.086e-02,3.315e-01,5.059e-01,9.416e-01,1.679e+00,1.620e+00,1.752e+00,2.605e+00,2.118e+00,2.501e+00,3.820e+00,4.990e+00,4.176e+00,4.274e+00,5.458e+00,5.371e+00,4.223e+00,5.672e+00,6.102e+00,6.341e+00,4.500e+00,6.543e+00,5.648e+00,5.672e+00,7.497e+00,7.353e+00,6.170e+00,6.896e+00,7.359e+00,5.920e+00,7.258e+00,6.365e+00,8.723e+00,9.992e+00,7.045e+00,9.163e+00,9.530e+00,1.089e+01,1.007e+01,9.594e+00,8.171e+00,7.212e+00,1.039e+01,9.019e+00,8.710e+00,9.259e+00,8.654e+00,1.054e+01,1.039e+01,1.094e+01,8.688e+00,1.055e+01,8.303e+00,9.324e+00,1.057e+01,1.112e+01,9.549e+00,1.033e+01,9.202e+00,9.903e+00,9.066e+00,9.769e+00,8.477e+00,8.966e+00,9.519e+00,1.173e+01
2.533e-02,4.423e-01,5.909e-01,1.132e+00,1.318e+00,1.420e+00,1.247e+00,2.775e+00,2.247e+00,1.950e+00,2.905e+00,3.961e+00,3.414e+00,3.950e+00,4.227e+00,5.651e+00,4.859e+00,6.270e+00,6.590e+00,6.492e+00,4.554e+00,7.085e+00,5.976e+00,4.414e+00,7.117e+00,7.928e+00,8.587e+00,7.225e+00,8.813e+00,6.918e+00,8.688e+00,9.208e+00,1.085e+01,1.085e+01,8.360e+00,9.400e+00,1.121e+01,1.073e+01,1.121e+01,1.049e+01,1.036e+01,8.904e+00,1.104e+01,9.479e+00,9.966e+00,1.074e+01,9.023e+00,1.169e+01,1.121e+01,1.114e+01,1.060e+01,1.127e+01,1.002e+01,8.801e+00,1.115e+01,1.072e+01,1.096e+01,1.252e+01,9.146e+00,1.014e+01,1.084e+01,9.528e+00,9.408e+00,1.091e+01,1.080e+01,1.128e+01
3.598e-02,7.108e-02,2.841e-01,8.266e-01,1.055e+00,1.230e+00,1.297e+00,1.824e+00,1.371e+00,2.004e+00,2.869e+00,3.400e+00,3.079e+00,2.635e+00,3.802e+00,4.002e+00,3.190e+00,4.872e+00,4.481e+00,5.864e+00,3.530e+00,6.331e+00,5.684e+00,4.867e+00,6.667e+00,6.696e+00,6.378e+00,6.310e+00,7.545e+00,6.125e+00,6.725e+00,6.957e+00,9.176e+00,9.728e+00,6.582e+00,8.890e+00,9.652e+00,9.957e+00,9.728e+00,8.974e+00,8.826e+00,7.368e+00,1.011e+01,8.573e+00,8.433e+00,9.421e+00,9.483e+00,1.099e+01,1.163e+01,1.098e+01,9.862e+00,9.858e+00,9.675e+00,7.390e+00,9.788e+00,1.092e+01,9.802e+00,1.145e+01,8.550e+00,9.623e+00,9.201e+00,8.615e+00,7.886e+00,8.390e+00,9.162e+00,1.043e+01
9.589e-02,2.628e-01,9.101e-01,1.057e+00,7.625e-01,1.967e+00,1.864e+00,2.378e+00,2.668e+00,2.595e+00,3.146e+00,4.638e+00,4.103e+00,3.942e+00,5.308e+00,5.679e+00,4.204e+00,5.599e+00,5.490e+00,5.717e+00,4.295e+00,6.406e+00,6.668e+00,5.384e+00,8.204e+00,7.978e+00,7.760e+00,8.880e+00,9.385e+00,7.293e+00,8.214e+00,7.122e+00,9.532e+00,1.129e+01,8.617e+00,9.269e+00,1.122e+01,1.145e+01,1.231e+01,9.623e+00,1.131e+01,9.047e+00,1.212e+01,1.023e+01,1.007e+01,1.095e+01,1.101e+01,1.091e+01,1.230e+01,1.249e+01,1.006e+01,1.176e+01,9.707e+00,9.639e+00,1.050e+01,1.181e+01,1.165e+01,1.344e+01,1.165e+01,1.129e+01,1.098e+01,1.071e+01,1.072e+01,1.095e+01,9.957e+00,1.221e+01
6.021e-02,2.664e-01,5.248e-01,7.001e-01,1.390e+00,1.350e+00,1.677e+00,2.087e+00,1.846e+00,1.969e+00,2.993e+00,3.526e+00,3.218e+00,2.206e+00,3.547e+00,3.236e+00,3.540e+00,4.000e+00,3.985e+00,5.209e+00,3.556e+00,5.098e+00,4.477e+00,4.444e+00,5.603e+00,6.150e+00,5.059e+00,5.575e+00,6.069e+00,4.997e+00,5.231e+00,6.280e+00,7.275e+00,8.040e+00,5.933e+00,8.017e+00,8.007e+00,8.676e+00,8.237e+00,8.417e+00,6.966e+00,7.287e+00,9.814e+00,8.459e+00,8.493e+00,7.666e+00,7.968e+00,8.089e+00,1.047e+01,8.431e+00,8.420e+00,8.117e+00,7.038e+00,8.371e+00,8.851e+00,9.289e+00,8.925e+00,9.479e+00,8.557e+00,8.761e+00,8.106e+00,8.485e+00,7.517e+00,9.096e+00,7.695e+00,9.515e+00
8.314e-02,2.202e-01,6.756e-01,1.051e+00,1.224e+00,1.565e+00,1.714e+00,2.383e+00,2.175e+00,2.876e+00,3.873e+00,5.092e+00,4.670e+00,4.437e+00,5.239e+00,5.205e+00,3.960e+00,5.316e+00,5.923e+00,4.915e+00,4.840e+00,6.549e+00,6.052e+00,6.191e+00,7.335e+00,7.881e+00,7.676e+00,7.867e+00,7.723e+00,7.974e+00,8.213e+00,8.380e+00,1.070e+01,1.065e+01,7.091e+00,9.077e+00,1.101e+01,1.123e+01,1.111e+01,1.005e+01,1.058e+01,9.528e+00,1.270e+01,1.048e+01,1.122e+01,1.135e+01,9.475e+00,1.181e+01,1.310e+01,1.298e+01,1.081e+01,1.104e+01,1.060e+01,1.021e+01,1.099e+01,1.294e+01,1.250e+01,1.253e+01,1.135e+01,1.215e+01,1.182e+01,1.103e+01,1.094e+01,1.121e+01,1.038e+01,1.205e+01
1.916e-02,3.769e-02,2.480e-01,8.127e-01,1.285e+00,1.069e+00,1.586e+00,2.662e+00,2.038e+00,3.032e+00,3.054e+00,4.304e+00,4.364e+00,3.163e+00,3.334e+00,3.854e+00,3.598e+00,4.744e+00,5.088e+00,5.526e+00,4.283e+00,5.541e+00,5.927e+00,4.606e+00,7.124e+00,7.383e+00,6.506e+00,6.281e+00,7.725e+00,5.754e+00,7.153e+00,6.650e+00,8.869e+00,1.073e+01,7.166e+00,9.332e+00,1.018e+01,1.091e+01,9.594e+00,9.692e+00,9.153e+00,7.852e+00,1.243e+01,9.582e+00,1.025e+01,1.082e+01,9.403e+00,1.094e+01,1.277e+01,1.197e+01,1.161e+01,1.027e+01,1.008e+01,1.082e+01,1.068e+01,1.351e+01,1.095e+01,1.192e+01,9.957e+00,1.157e+01,1.031e+01,1.085e+01,9.893e+00,9.777e+00,9.072e+00,1.065e+01
2.764e-02,2.937e-01,5.271e-01,6.075e-01,9.656e-01,1.088e+00,1.171e+00,1.900e+00,1.706e+00,1.828e+00,2.031e+00,3.587e+00,2.706e+00,3.424e+00,3.940e+00,4.266e+00,3.541e+00,4.209e+00,4.770e+00,5.318e+00,3.837e+00,5.384e+00,5.133e+00,3.541e+00,6.829e+00,6.989e+00,6.643e+00,6.693e+00,7.418e+00,5.770e+00,7.413e+00,7.204e+00,9.310e+00,9.530e+00,7.355e+00,8.145e+00,8.445e+00,9.868e+00,9.784e+00,8.887e+00,8.926e+00,8.786e+00,1.141e+01,8.867e+00,9.902e+00,1.095e+01,8.951e+00,1.111e+01,1.202e+01,1.195e+01,1.088e+01,1.028e+01,9.812e+00,1.032e+01,9.940e+00,1.228e+01,1.108e+01,1.211e+01,1.052e+01,1.177e+01,1.150e+01,8.844e+00,9.355e+00,1.070e+01,9.858e+00,9.222e+00
7.902e-02,4.099e-01,7.604e-01,8.867e-01,1.627e+00,1.464e+00,1.680e+00,2.195e+00,1.786e+00,2.481e+00,2.997e+00,4.485e+00,3.963e+00,3.416e+00,4.509e+00,4.629e+00,4.162e+00,4.633e+00,5.263e+00,6.489e+00,4.957e+00,6.641e+00,6.389e+00,5.436e+00,8.022e+00,8.278e+00,7.988e+00,8.311e+00,8.395e+00,7.111e+00,7.909e+00,8.677e+00,1.072e+01,1.157e+01,7.554e+00,9.877e+00,1.115e+01,1.074e+01,1.129e+01,1.110e+01,1.027e+01,9.063e+00,1.252e+01,9.588e+00,1.140e+01,1.242e+01,1.101e+01,1.257e+01,1.394e+01,1.427e+01,1.358e+01,1.163e+01,1.155e+01,1.075e+01,1.135e+01,1.421e+01,1.220e+01,1.372e+01,1.205e+01,1.356e+01,1.240e+01,1.094e+01,1.100e+01,1.093e+01,9.929e+00,1.151e+01
4.377e-02,4.457e-01,6.367e-01,1.104e+00,1.261e+00,1.392e+00,1.170e+00,2.470e+00,2.066e+00,2.213e+00,3.124e+00,4.479e+00,3.847e+00,4.179e+00,4.224e+00,5.305e+00,3.951e+00,5.775e+00,6.099e+00,5.483e+00,4.359e+00,6.155e+00,6.290e+00,4.465e+00,7.290e+00,7.656e+00,6.989e+00,7.077e+00,7.754e+00,6.374e+00,7.607e+00,7.868e+00,9.475e+00,9.362e+00,6.886e+00,8.737e+00,9.912e+00,1.013e+01,1.148e+01,1.011e+01,1.030e+01,9.698e+00,1.255e+01,1.064e+01,1.099e+01,1.131e+01,1.007e+01,1.270e+01,1.319e+01,1.339e+01,1.201e+01,1.113e+01,1.034e+01,1.084e+01,1.220e+01,1.262e+01,1.189e+01,1.314e+01,1.203e+01,1.218e+01,1.304e+01,1.085e+01,1.102e+01,1.248e+01,1.043e+01,1.064e+01
8.664e-02,3.326e-01,9.938e-01,1.494e+00,1.148e+00,2.032e+00,1.782e+00,2.863e+00,2.588e+00,2.229e+00,3.043e+00,4.496e+00,3.826e+00,4.392e+00,4.851e+00,5.862e+00,5.305e+00,5.740e+00,6.721e+00,6.983e+00,4.991e+00,6.710e+00,6.499e+00,6.296e+00,8.985e+00,8.005e+00,7.724e+00,8.377e+00,7.983e+00,7.148e+00,7.782e+00,8.147e+00,1.076e+01,1.097e+01,7.770e+00,9.880e+00,1.042e+01,1.124e+01,1.082e+01,1.053e+01,1.009e+01,8.880e+00,1.242e+01,1.143e+01,1.101e+01,1.240e+01,1.122e+01,1.451e+01,1.482e+01,1.504e+01,1.339e+01,1.296e+01,1.192e+01,1.218e+01,1.274e+01,1.612e+01,1.355e+01,1.511e+01,1.347e+01,1.348e+01,1.356e+01,1.285e+01,1.226e+01,1.236e+01,1.152e+01,1.303e+01
1.078e-02,4.459e-02,1.230e-01,2.629e-01,1.116e+00,8.384e-01,1.383e+00,1.695e+00,1.450e+00,2.532e+00,2.876e+00,3.915e+00,3.518e+00,3.101e+00,4.822e+00,4.495e+00,3.758e+00,5.160e+00,5.072e+00,6.521e+00,4.358e+00,6.858e+00,5.645e+00,5.245e+00,6.992e+00,7.529e+00,7.159e+00,6.838e+00,8.283e+00,6.549e+00,7.545e+00,7.040e+00,9.150e+00,1.049e+01,7.445e+00,8.748e+00,1.012e+01,9.920e+00,9.580e+00,9.406e+00,7.760e+00,7.801e+00,1.134e+01,9.885e+00,1.046e+01,1.080e+01,9.624e+00,1.146e+01,1.300e+01,1.276e+01,1.218e+01,1.258e+01,1.234e+01,1.027e+01,1.166e+01,1.386e+01,1.356e+01,1.348e+01,1.049e+01,1.279e+01,1.172e+01,1.216e+01,1.243e+01,1.144e+01,1.119e+01,1.226e+01
3.117e-03,3.472e-01,3.765e-01,6.762e-01,1.435e+00,1.248e+00,1.450e+00,2.717e+00,2.297e+00,2.576e+00,2.975e+00,3.741e+00,3.441e+00,3.752e+00,4.013e+00,5.309e+00,3.708e+00,4.930e+00,5.403e+00,4.553e+00,3.918e+00,4.995e+00,4.961e+00,4.522e+00,5.658e+00,6.401e+00,6.937e+00,6.247e+00,6.681e+00,6.064e+00,7.278e+00,6.988e+00,8.941e+00,9.245e+00,6.751e+00,8.568e+00,1.004e+01,8.529e+00,1.009e+01,8.904e+00,8.285e+00,9.197e+00,1.079e+01,8.379e+00,9.233e+00,1.090e+01,9.976e+00,1.228e+01,1.317e+01,1.239e+01,1.141e+01,1.201e+01,1.081e+01,9.871e+00,1.253e+01,1.262e+01,1.077e+01,1.166e+01,1.140e+01,1.194e+01,1.195e+01,1.080e+01,1.142e+01,9.532e+00,1.038e+01,1.033e+01
3.345e-03,3.725e-01,2.809e-01,6.445e-01,1.838e+00,1.235e+00,1.620e+00,2.830e+00,2.229e+00,2.743e+00,3.426e+00,4.883e+00,4.243e+00,3.380e+00,4.045e+00,4.455e+00,4.177e+00,4.779e+00,5.266e+00,6.246e+00,4.896e+00,5.980e+00,5.947e+00,4.771e+00,6.515e+00,7.744e+00,7.863e+00,7.161e+00,7.194e+00,6.120e+00,7.521e+00,7.535e+00,9.266e+00,1.100e+01,7.215e+00,8.569e+00,9.749e+00,1.003e+01,9.662e+00,1.043e+01,8.301e+00,8.873e+00,1.085e+01,8.659e+00,9.770e+00,1.040e+01,9.557e+00,1.181e+01,1.257e+01,1.176e+01,1.266e+01,1.107e+01,1.116e+01,1.183e+01,1.269e+01,1.384e+01,1.145e+01,1.213e+01,1.138e+01,1.261e+01,1.243e+01,1.088e+01,1.090e+01,1.025e+01,1.066e+01,1.035e+01
1.290e-03,4.704e-01,3.089e-01,4.973e-01,1.481e+00,1.389e+00,1.290e+00,2.122e+00,1.882e+00,2.235e+00,2.799e+00,3.864e+00,3.476e+00,3.073e+00,3.736e+00,4.419e+00,4.272e+00,5.475e+00,5.669e+00,6.099e+00,3.348e+00,6.359e+00,6.221e+00,4.610e+00,7.504e+00,7.636e+00,6.881e+00,7.172e+00,8.342e+00,5.619e+00,6.463e+00,7.168e+00,8.207e+00,9.211e+00,8.005e+00,8.522e+00,1.025e+01,1.029e+01,1.162e+01,9.900e+00,9.293e+00,7.623e+00,1.143e+01,9.634e+00,1.100e+01,1.167e+01,1.065e+01,1.209e+01,1.320e+01,1.396e+01,1.269e+01,1.319e+01,1.259e+01,1.371e+01,1.336e+01,1.664e+01,1.416e+01,1.467e+01,1.342e+01,1.560e+01,1.383e+01,1.368e+01,1.287e+01,1.196e+01,1.212e+01,1.248e+01
7.054e-02,1.684e-01,6.915e-01,9.979e-01,9.201e-01,1.794e+00,1.774e+00,2.315e+00,2.312e+00,2.450e+00,2.866e+00,3.384e+00,3.364e+00,3.164e+00,4.156e+00,4.563e+00,4.007e+00,4.523e+00,4.814e+00,5.562e+00,4.332e+00,5.721e+00,6.017e+00,5.428e+00,7.763e+00,7.333e+00,7.531e+00,8.473e+00,7.975e+00,7.703e+00,7.795e+00,8.991e+00,1.170e+01,1.153e+01,8.637e+00,1.044e+01,1.117e+01,1.170e+01,1.160e+01,1.020e+01,9.899e+00,9.221e+00,1.320e+01,1.097e+01,1.176e+01,1.186e+01,1.172e+01,1.258e+01,1.520e+01,1.592e+01,1.353e+01,1.422e+01,1.482e+01,1.315e+01,1.375e+01,1.827e+01,1.433e+01,1.649e+01,1.536e+01,1.555e+01,1.449e+01,1.442e+01,1.402e+01,1.326e+01,1.205e+01,1.375e+01
1.507e-02,8.366e-02,4.029e-01,7.033e-01,4.942e-01,1.112e+00,1.043e+00,1.815e+00,1.657e+00,1.933e+00,1.702e+00,2.943e+00,2.464e+00,3.166e+00,3.726e+00,4.536e+00,3.632e+00,4.591e+00,4.410e+00,4.807e+00,3.133e+00,5.234e+00,4.830e+00,3.653e+00,6.072e+00,5.323e+00,6.889e+00,5.539e+00,7.124e+00,4.697e+00,6.281e+00,6.987e+00,8.569e+00,1.036e+01,7.495e+00,8.326e+00,9.791e+00,8.680e+00,1.012e+01,8.487e+00,9.613e+00,8.777e+00,1.101e+01,1.008e+01,8.287e+00,9.940e+00,1.056e+01,1.210e+01,1.270e+01,1.302e+01,1.248e+01,1.264e+01,1.235e+01,1.161e+01,1.295e+01,1.587e+01,1.338e+01,1.561e+01,1.332e+01,1.342e+01,1.340e+01,1.224e+01,1.299e+01,1.234e+01,1.218e+01,1.269e+01
8.201e-03,3.773e-01,4.699e-01,6.464e-01,1.461e+00,1.696e+00,1.769e+00,2.751e+00,2.602e+00,3.103e+00,3.329e+00,4.193e+00,3.686e+00,3.113e+00,3.999e+00,4.504e+00,3.692e+00,4.538e+00,4.928e+00,5.584e+00,4.893e+00,5.390e+00,6.271e+00,4.583e+00,6.264e+00,7.040e+00,6.983e+00,6.949e+00,7.493e+00,6.449e+00,8.231e+00,7.623e+00,9.410e+00,1.052e+01,7.968e+00,8.546e+00,9.790e+00,1.099e+01,9.790e+00,9.337e+00,9.013e+00,9.379e+00,1.211e+01,9.519e+00,1.105e+01,1.131e+01,1.123e+01,1.249e+01,1.407e+01,1.412e+01,1.349e+01,1.323e+01,1.311e+01,1.342e+01,1.380e+01,1.719e+01,1.521e+01,1.478e+01,1.424e+01,1.549e+01,1.500e+01,1.285e+01,1.442e+01,1.312e+01,1.268e+01,1.329e+01
2.945e-03,7.596e-02,1.092e-01,4.399e-01,1.369e+00,9.985e-01,1.644e+00,2.354e+00,1.917e+00,2.177e+00,2.971e+00,3.520e+00,3.090e+00,2.441e+00,3.647e+00,3.639e+00,3.116e+00,3.874e+00,3.565e+00,4.884e+00,3.133e+00,4.636e+00,4.224e+00,3.867e+00,5.905e+00,6.142e+00,5.428e+00,6.709e+00,6.581e+00,6.132e+00,6.588e+00,6.785e+00,8.990e+00,8.437e+00,6.815e+00,8.962e+00,9.043e+00,1.016e+01,1.089e+01,9.460e+00,8.734e+00,8.714e+00,1.145e+01,9.986e+00,8.863e+00,1.109e+01,1.059e+01,1.070e+01,1.294e+01,1.273e+01,1.069e+01,1.263e+01,1.132e+01,1.126e+01,1.316e+01,1.551e+01,1.181e+01,1.317e+01,1.300e+01,1.442e+01,1.333e+01,1.243e+01,1.211e+01,1.200e+01,1.105e+01,1.235e+01
6.300e-02,1.375e-01,5.435e-01,9.355e-01,8.192e-01,1.389e+00,1.408e+00,2.042e+00,1.984e+00,1.841e+00,2.832e+00,3.517e+00,3.099e+00,2.267e+00,3.181e+00,3.528e+00,2.812e+00,3.480e+00,3.544e+00,4.647e+00,3.672e+00,3.905e+00,4.227e+00,4.391e+00,5.926e+00,5.714e+00,5.612e+00,6.300e+00,6.085e+00,6.122e+00,6.013e+00,6.866e+00,9.059e+00,9.119e+00,6.134e+00,8.326e+00,9.129e+00,9.340e+00,8.796e+00,8.195e+00,8.653e+00,7.695e+00,9.955e+00,8.804e+00,9.493e+00,9.008e+00,1.033e+01,1.087e+01,1.222e+01,1.356e+01,1.202e+01,1.126e+01,1.217e+01,1.171e+01,1.211e+01,1.538e+01,1.370e+01,1.388e+01,1.375e+01,1.466e+01,1.392e+01,1.173e+01,1.159e+01,1.144e+01,1.200e+01,1.140e+01
8.840e-02,2.017e-01,9.174e-01,1.276e+00,7.586e-01,1.663e+00,1.642e+00,2.629e+00,2.564e+00,2.567e+00,2.814e+00,3.940e+00,3.748e+00,3.577e+00,3.717e+00,4.090e+00,4.063e+00,4.547e+00,4.960e+00,4.754e+00,4.642e+00,4.867e+00,4.894e+00,4.285e+00,7.001e+00,6.872e+00,6.924e+00,6.198e+00,7.169e+00,6.357e+00,6.724e+00,7.447e+00,9.293e+00,9.754e+00,7.141e+00,7.734e+00,9.670e+00,9.425e+00,8.844e+00,8.205e+00,8.981e+00,8.325e+00,1.083e+01,9.499e+00,9.314e+00,9.928e+00,9.561e+00,9.176e+00,1.161e+01,1.309e+01,1.129e+01,1.091e+01,1.051e+01,1.086e+01,1.161e+01,1.404e+01,1.231e+01,1.266e+01,1.179e+01,1.368e+01,1.266e+01,1.176e+01,1.182e+01,1.162e+01,1.150e+01,1.053e+01
3.631e-02,1.330e-01,4.171e-01,4.811e-01,7.299e-01,1.162e+00,1.370e+00,1.785e+00,1.933e+00,2.194e+00,2.734e+00,4.205e+00,3.412e+00,3.313e+00,4.707e+00,4.608e+00,3.586e+00,4.885e+00,5.160e+00,6.193e+00,4.292e+00,6.017e+00,5.450e+00,5.024e+00,6.927e+00,7.077e+00,6.869e+00,7.009e+00,7.516e+00,6.153e+00,7.272e+00,6.644e+00,8.597e+00,9.706e+00,7.259e+00,8.731e+00,9.855e+00,1.096e+01,9.671e+00,9.013e+00,8.071e+00,8.252e+00,1.184e+01,9.330e+00,9.604e+00,1.166e+01,1.062e+01,1.147e+01,1.309e+01,1.342e+01,1.221e+01,1.234e+01,1.218e+01,1.206e+01,1.202e+01,1.620e+01,1.378e+01,1.543e+01,1.424e+01,1.627e+01,1.547e+01,1.525e+01,1.224e+01,1.181e+01,1.259e+01,1.248e+01
9.203e-02,3.934e-01,8.438e-01,8.270e-01,1.143e+00,1.466e+00,1.400e+00,1.636e+00,1.620e+00,2.074e+00,2.821e+00,4.162e+00,3.437e+00,3.358e+00,4.576e+00,4.041e+00,3.248e+00,4.682e+00,5.151e+00,5.819e+00,4.686e+00,5.844e+00,6.290e+00,5.142e+00,7.397e+00,8.049e+00,7.008e+00,7.481e+00,8.396e+00,7.192e+00,7.986e+00,7.437e+00,1.011e+01,1.108e+01,8.187e+00,9.323e+00,1.080e+01,1.142e+01,1.151e+01,1.032e+01,9.990e+00,8.943e+00,1.276e+01,1.060e+01,1.207e+01,1.186e+01,1.114e+01,1.337e+01,1.404e+01,1.483e+01,1.294e+01,1.372e+01,1.366e+01,1.331e+01,1.460e+01,1.689e+01,1.540e+01,1.558e+01,1.394e+01,1.652e+01,1.511e+01,1.473e+01,1.478e+01,1.403e+01,1.468e+01,1.467e+01
7.818e-02,5.232e-01,8.208e-01,7.262e-01,1.069e+00,1.666e+00,1.340e+00,1.630e+00,1.883e+00,2.120e+00,3.004e+00,3.803e+00,3.277e+00,3.135e+00,4.180e+00,3.670e+00,3.589e+00,4.585e+00,4.947e+00,5.679e+00,4.315e+00,5.823e+00,5.956e+00,5.262e+00,7.233e+00,7.384e+00,7.281e+00,7.656e+00,8.071e+00,7.007e+00,8.797e+00,8.350e+00,1.078e+01,1.066e+01,8.439e+00,9.631e+00,1.085e+01,1.216e+01,1.137e+01,1.008e+01,1.000e+01,9.246e+00,1.237e+01,9.959e+00,1.160e+01,1.216e+01,1.170e+01,1.197e+01,1.419e+01,1.463e+01,1.327e+01,1.362e+01,1.358e+01,1.263e+01,1.369e+01,1.732e+01,1.564e+01,1.581e+01,1.413e+01,1.776e+01,1.662e+01,1.457e+01,1.653e+01,1.603e+01,1.507e+01,1.432e+01
7.239e-03,3.338e-01,3.384e-01,9.174e-01,1.222e+00,1.140e+00,1.103e+00,2.599e+00,2.071e+00,2.290e+00,2.655e+00,3.762e+00,3.878e+00,3.898e+00,3.563e+00,5.074e+00,4.229e+00,5.346e+00,5.697e+00,4.859e+00,3.723e+00,5.366e+00,5.501e+00,3.921e+00,6.921e+00,6.913e+00,8.075e+00,7.125e+00,7.709e+00,6.357e+00,7.573e+00,7.491e+00,9.865e+00,1.071e+01,7.740e+00,8.926e+00,1.124e+01,1.011e+01,1.133e+01,1.031e+01,1.071e+01,9.220e+00,1.264e+01,1.056e+01,1.190e+01,1.241e+01,1.099e+01,1.329e+01,1.429e+01,1.493e+01,1.371e+01,1.272e+01,1.361e+01,1.333e+01,1.407e+01,1.783e+01,1.538e+01,1.658e+01,1.574e+01,1.773e+01,1.593e+01,1.712e+01,1.643e+01,1.471e+01,1.517e+01,1.586e+01
8.978e-02,5.837e-01,9.301e-01,6.978e-01,1.413e+00,1.907e+00,1.739e+00,1.965e+00,2.240e+00,2.619e+00,3.305e+00,5.064e+00,4.156e+00,3.938e+00,5.685e+00,5.479e+00,3.787e+00,5.303e+00,5.727e+00,5.826e+00,4.974e+00,5.916e+00,6.220e+00,5.532e+00,7.116e+00,7.613e+00,6.644e+00,7.618e+00,7.570e+00,6.827e+00,7.498e+00,7.345e+00,9.357e+00,1.009e+01,7.768e+00,8.124e+00,9.873e+00,9.377e+00,1.135e+01,9.514e+00,9.921e+00,9.741e+00,1.273e+01,1.019e+01,1.249e+01,1.278e+01,1.119e+01,1.323e+01,1.491e+01,1.424e+01,1.416e+01,1.373e+01,1.286e+01,1.305e+01,1.469e+01,1.696e+01,1.572e+01,1.506e+01,1.564e+01,1.855e+01,1.659e+01,1.580e+01,1.682e+01,1.552e+01,1.520e+01,1.507e+01
2.663e-02,4.638e-01,6.559e-01,9.572e-01,1.438e+00,2.008e+00,1.834e+00,3.003e+00,2.839e+00,2.456e+00,3.298e+00,4.023e+00,3.274e+00,3.231e+00,4.444e+00,5.776e+00,3.828e+00,5.388e+00,5.277e+00,5.404e+00,4.216e+00,5.649e+00,5.594e+00,4.602e+00,5.846e+00,6.357e+00,6.328e+00,6.911e+00,7.162e+00,6.500e+00,8.268e+00,6.897e+00,9.187e+00,9.256e+00,7.117e+00,8.157e+00,9.550e+00,9.121e+00,1.015e+01,8.822e+00,9.080e+00,8.694e+00,1.108e+01,1.010e+01,1.129e+01,1.179e+01,1.153e+01,1.327e+01,1.436e+01,1.417e+01,1.372e+01,1.401e+01,1.357e+01,1.194e+01,1.306e+01,1.656e+01,1.415e+01,1.675e+01,1.544e+01,1.715e+01,1.659e+01,1.315e+01,1.620e+01,1.583e+01,1.493e+01,1.559e+01
6.403e-02,1.543e-01,5.705e-01,8.437e-01,7.343e-01,1.518e+00,1.544e+00,2.090e+00,2.202e+00,1.875e+00,2.743e+00,3.581e+00,3.232e+00,2.823e+00,4.143e+00,4.377e+00,3.565e+00,4.857e+00,4.545e+00,5.624e+00,4.089e+00,5.855e+00,6.035e+00,4.957e+00,7.690e+00,8.159e+00,7.621e+00,8.345e+00,8.629e+00,7.085e+00,7.967e+00,6.999e+00,1.010e+01,1.078e+01,8.120e+00,9.237e+00,1.142e+01,1.101e+01,1.258e+01,1.001e+01,1.084e+01,8.835e+00,1.332e+01,1.114e+01,1.224e+01,1.201e+01,1.146e+01,1.249e+01,1.441e+01,1.450e+01,1.280e+01,1.333e+01,1.391e+01,1.274e+01,1.477e+01,1.811e+01,1.475e+01,1.836e+01,1.571e+01,1.786e+01,1.617e+01,1.602e+01,1.509e+01,1.602e+01,1.512e+01,1.602e+01
5.013e-03,3.277e-01,2.036e-01,3.480e-01,1.291e+00,1.092e+00,1.346e+00,2.095e+00,1.939e+00,2.142e+00,2.677e+00,3.339e+00,3.420e+00,2.474e+00,3.632e+00,4.705e+00,3.964e+00,5.488e+00,5.435e+00,5.999e+00,3.594e+00,6.522e+00,5.976e+00,4.622e+00,6.375e+00,7.486e+00,8.189e+00,7.655e+00,8.639e+00,6.941e+00,6.874e+00,8.240e+00,9.258e+00,9.990e+00,8.588e+00,8.913e+00,1.116e+01,1.047e+01,1.111e+01,1.082e+01,1.027e+01,9.373e+00,1.243e+01,1.057e+01,1.120e+01,1.132e+01,1.138e+01,1.253e+01,1.481e+01,1.379e+01,1.336e+01,1.263e+01,1.336e+01,1.291e+01,1.373e+01,1.701e+01,1.621e+01,1.595e+01,1.570e+01,1.645e+01,1.608e+01,1.674e+01,1.507e+01,1.504e+01,1.501e+01,1.630e+01
