4.208e-01,6.496e-01,5.017e-01,8.106e-01,2.085e-01,1.323e-01,6.059e-01,8.320e-01,7.786e-01,8.729e-01,2.218e-01,9.626e-01,4.803e-01,5.693e-01,4.491e-01,9.812e-01,2.337e-01,4.537e-01,1.497e-02,5.596e-01,8.936e-01,5.110e-01,1.057e-03,7.901e-01,4.292e-01,5.263e-01,5.282e-01,2.530e-02,7.761e-01,6.296e-01,4.530e-03,9.130e-01,5.842e-01,6.392e-01,6.602e-01,4.302e-01,4.404e-02,9.957e-01,1.307e-01,8.185e-01,4.866e-01,3.782e-01,4.363e-01,1.724e-01,4.475e-01,8.849e-01,8.475e-01,2.855e-01,8.209e-01,3.765e-01,7.083e-01,6.628e-01,5.526e-01,2.742e-01,5.140e-01,9.647e-01,3.374e-01,5.335e-01,2.443e-01,7.406e-01,5.744e-02,3.311e-01,3.714e-01,5.548e-01,7.816e-01,2.253e-01,2.281e-02,6.138e-01,3.121e-01,3.081e-01,1.930e-02,2.598e-01,2.524e-01,9.489e-02,2.975e-01,6.494e-01
4.533e-02,9.576e-01,3.123e-01,3.377e-01,5.820e-01,8.187e-01,2.094e-01,8.557e-01,2.565e-01,2.506e-01,2.886e-01,8.744e-01,6.249e-02,7.389e-01,7.119e-01,1.641e-01,3.897e-01,1.802e-01,9.875e-01,7.627e-01,3.679e-01,1.257e-01,2.079e-01,5.360e-01,8.483e-01,9.264e-01,1.031e+00,2.854e-02,1.291e-01,6.079e-01,1.512e-01,3.017e-01,7.126e-02,8.433e-01,1.629e-01,8.592e-02,8.444e-01,6.802e-01,3.193e-01,2.198e-01,3.562e-01,6.835e-01,8.664e-01,5.966e-01,9.200e-01,4.358e-01,9.480e-01,9.500e-01,8.378e-01,1.006e+00,3.954e-01,3.224e-01,9.430e-01,3.157e-01,9.611e-01,6.165e-01,7.133e-01,8.266e-01,9.785e-01,6.417e-01,7.716e-01,5.844e-01,3.980e-01,9.525e-01,7.631e-01,1.919e-01,5.804e-01,9.804e-01,5.091e-01,9.800e-01,9.839e-01,1.237e-01,6.697e-01,6.023e-01,4.739e-01,1.874e-01
3.440e-02,1.055e-01,7.559e-01,2.360e-01,7.548e-01,1.442e-01,6.115e-01,3.341e-01,6.058e-01,2.063e-01,3.294e-01,3.911e-01,1.091e-01,6.467e-01,7.177e-01,1.063e+00,8.025e-01,3.290e-01,9.468e-01,1.080e+00,8.297e-01,1.022e+00,1.482e-01,3.607e-01,5.896e-01,1.010e+00,6.777e-01,7.208e-01,1.274e-01,5.824e-01,7.251e-01,1.983e-01,1.701e-01,1.020e+00,1.333e-01,9.938e-01,4.778e-01,5.261e-01,7.059e-01,9.866e-01,7.246e-01,1.475e-01,4.993e-01,1.614e-01,7.700e-01,6.049e-01,7.080e-01,1.070e+00,1.336e-01,8.935e-01,2.334e-01,6.083e-01,5.931e-01,5.309e-01,5.757e-01,5.120e-01,6.732e-01,4.606e-01,3.175e-01,7.463e-01,3.895e-01,4.746e-01,1.130e-01,4.925e-01,3.190e-01,4.015e-01,1.199e-01,1.927e-01,8.927e-01,1.062e+00,3.709e-01,7.144e-01,8.532e-01,5.847e-01,4.750e-01,5.486e-01
2.941e-01,9.459e-01,1.119e+00,1.211e+00,1.738e+00,8.597e-01,1.398e+00,1.567e+00,1.574e+00,1.406e+00,1.065e+00,1.741e+00,5.264e-01,2.232e+00,1.469e+00,2.037e+00,1.108e+00,8.501e-01,2.148e+00,2.663e+00,2.029e+00,1.445e+00,4.298e-01,1.586e+00,1.635e+00,1.863e+00,1.809e+00,1.509e+00,9.148e-01,1.896e+00,7.934e-01,1.160e+00,1.321e+00,1.986e+00,1.226e+00,1.344e+00,1.107e+00,1.657e+00,9.317e-01,1.622e+00,1.386e+00,7.239e-01,1.635e+00,5.735e-01,1.955e+00,1.994e+00,2.085e+00,2.207e+00,1.847e+00,2.292e+00,1.551e+00,2.048e+00,1.476e+00,1.648e+00,1.331e+00,1.642e+00,1.434e+00,2.106e+00,1.246e+00,2.339e+00,8.768e-01,1.474e+00,8.985e-01,1.681e+00,1.876e+00,1.391e+00,5.776e-01,1.627e+00,1.797e+00,1.677e+00,1.517e+00,1.435e+00,2.153e+00,8.891e-01,1.041e+00,1.852e+00
6.146e-02,5.904e-01,3.786e-01,3.697e-01,8.061e-01,5.710e-01,5.353e-01,8.758e-01,1.202e+00,1.361e+00,5.276e-01,1.477e+00,5.249e-01,8.323e-01,7.382e-01,7.649e-01,8.148e-01,5.654e-01,1.346e+00,1.468e+00,1.276e+00,1.363e+00,3.766e-01,1.154e+00,9.287e-01,1.298e+00,1.737e+00,1.206e+00,6.977e-01,8.032e-01,4.148e-01,1.261e+00,9.333e-01,1.296e+00,1.108e+00,6.267e-01,9.027e-01,8.124e-01,7.038e-01,7.766e-01,8.880e-01,8.231e-01,1.201e+00,6.196e-01,1.528e+00,6.562e-01,1.266e+00,1.237e+00,7.868e-01,1.628e+00,1.138e+00,1.547e+00,1.355e+00,1.404e+00,1.346e+00,9.072e-01,1.389e+00,1.404e+00,1.591e+00,9.698e-01,6.672e-01,6.454e-01,6.587e-01,8.547e-01,9.898e-01,1.093e+00,1.221e+00,1.438e+00,1.252e+00,1.511e+00,1.417e+00,4.784e-01,1.073e+00,9.354e-01,9.750e-01,6.241e-01
1.693e-01,5.349e-01,7.700e-01,8.173e-01,1.293e+00,1.512e+00,1.031e+00,1.520e+00,1.337e+00,1.486e+00,1.420e+00,1.482e+00,4.281e-01,1.736e+00,1.765e+00,1.717e+00,1.303e+00,9.931e-01,2.046e+00,2.417e+00,1.551e+00,1.666e+00,4.144e-01,2.042e+00,1.873e+00,1.328e+00,2.168e+00,1.438e+00,9.392e-01,1.771e+00,1.597e+00,1.647e+00,1.477e+00,2.241e+00,1.093e+00,1.352e+00,1.731e+00,1.184e+00,9.993e-01,1.879e+00,1.839e+00,8.241e-01,1.874e+00,8.640e-01,1.728e+00,2.209e+00,2.180e+00,2.460e+00,1.415e+00,1.982e+00,1.544e+00,1.898e+00,1.419e+00,1.911e+00,9.425e-01,1.251e+00,1.833e+00,1.866e+00,1.280e+00,1.853e+00,8.755e-01,1.711e+00,6.422e-01,2.071e+00,1.908e+00,1.836e+00,1.348e+00,1.461e+00,2.264e+00,1.526e+00,1.846e+00,1.392e+00,1.692e+00,1.481e+00,9.186e-01,2.211e+00
5.152e-02,7.579e-01,2.993e-01,6.392e-01,1.192e+00,1.002e+00,6.968e-01,1.829e+00,1.214e+00,1.965e+00,1.291e+00,1.658e+00,6.572e-01,2.172e+00,1.005e+00,1.180e+00,1.371e+00,7.296e-01,2.437e+00,2.076e+00,2.175e+00,1.194e+00,5.064e-01,1.766e+00,1.477e+00,1.491e+00,2.516e+00,1.724e+00,1.338e+00,2.231e+00,1.136e+00,2.058e+00,2.001e+00,2.350e+00,1.695e+00,7.861e-01,1.442e+00,1.909e+00,9.289e-01,1.632e+00,1.884e+00,1.224e+00,2.465e+00,1.457e+00,2.233e+00,1.303e+00,2.566e+00,2.429e+00,1.522e+00,2.408e+00,1.563e+00,2.660e+00,1.732e+00,2.384e+00,1.695e+00,1.552e+00,2.050e+00,1.974e+00,1.983e+00,1.753e+00,1.613e+00,1.658e+00,1.750e+00,1.716e+00,2.182e+00,1.557e+00,1.922e+00,2.257e+00,1.551e+00,2.012e+00,2.833e+00,1.198e+00,2.293e+00,1.851e+00,1.290e+00,1.787e+00
2.999e-01,1.268e+00,9.721e-01,9.952e-01,1.320e+00,1.285e+00,1.079e+00,2.038e+00,2.043e+00,2.683e+00,1.804e+00,2.804e+00,1.248e+00,2.487e+00,2.098e+00,2.462e+00,1.769e+00,1.712e+00,2.835e+00,3.263e+00,2.396e+00,1.926e+00,1.059e+00,3.006e+00,1.908e+00,2.140e+00,2.728e+00,1.591e+00,1.830e+00,1.989e+00,1.764e+00,2.323e+00,2.355e+00,2.934e+00,1.955e+00,1.693e+00,1.721e+00,2.358e+00,2.081e+00,2.127e+00,2.675e+00,2.156e+00,2.417e+00,2.170e+00,2.804e+00,2.705e+00,2.845e+00,3.263e+00,1.993e+00,2.615e+00,2.606e+00,2.214e+00,2.600e+00,2.481e+00,2.013e+00,2.667e+00,2.342e+00,2.717e+00,2.213e+00,2.093e+00,2.090e+00,1.945e+00,1.222e+00,2.033e+00,2.436e+00,2.099e+00,2.089e+00,3.084e+00,2.396e+00,2.714e+00,3.133e+00,1.991e+00,2.740e+00,1.777e+00,1.639e+00,2.180e+00
3.744e-01,8.171e-01,7.926e-01,9.860e-01,9.267e-01,1.181e+00,1.031e+00,1.781e+00,1.996e+00,3.115e+00,2.684e+00,3.296e+00,1.827e+00,2.863e+00,2.856e+00,2.914e+00,2.254e+00,2.131e+00,2.224e+00,3.286e+00,2.516e+00,2.738e+00,1.120e+00,3.217e+00,2.199e+00,1.887e+00,2.424e+00,2.237e+00,2.246e+00,2.749e+00,1.898e+00,3.351e+00,3.371e+00,3.079e+00,2.538e+00,2.088e+00,2.049e+00,2.835e+00,2.652e+00,2.629e+00,3.012e+00,1.777e+00,2.448e+00,2.448e+00,2.706e+00,3.516e+00,3.367e+00,2.758e+00,2.020e+00,2.006e+00,3.471e+00,2.356e+00,2.269e+00,2.383e+00,1.798e+00,3.193e+00,2.114e+00,2.933e+00,2.069e+00,2.428e+00,1.768e+00,2.529e+00,1.022e+00,1.942e+00,2.657e+00,2.834e+00,1.973e+00,3.194e+00,3.243e+00,2.383e+00,3.382e+00,2.077e+00,2.965e+00,1.883e+00,1.446e+00,3.357e+00
1.491e-01,1.008e+00,7.535e-01,8.703e-01,1.462e+00,1.439e+00,9.881e-01,2.095e+00,1.530e+00,3.098e+00,2.767e+00,3.000e+00,1.496e+00,3.822e+00,3.220e+00,2.529e+00,2.594e+00,1.436e+00,3.498e+00,3.583e+00,2.536e+00,2.756e+00,1.349e+00,3.360e+00,2.745e+00,2.906e+00,3.686e+00,2.880e+00,2.083e+00,3.925e+00,2.765e+00,2.874e+00,2.764e+00,4.092e+00,2.635e+00,2.482e+00,3.071e+00,3.472e+00,2.133e+00,3.033e+00,3.059e+00,2.278e+00,3.829e+00,2.347e+00,3.213e+00,3.270e+00,3.937e+00,3.740e+00,2.990e+00,3.413e+00,3.122e+00,3.631e+00,2.572e+00,3.140e+00,2.579e+00,3.277e+00,2.445e+00,3.263e+00,3.003e+00,3.064e+00,2.264e+00,3.301e+00,1.783e+00,2.611e+00,3.089e+00,3.021e+00,2.510e+00,3.751e+00,3.600e+00,2.779e+00,3.713e+00,2.580e+00,4.050e+00,2.834e+00,2.252e+00,3.649e+00
3.868e-01,9.908e-01,6.873e-01,9.681e-01,7.982e-01,1.474e+00,9.233e-01,2.206e+00,1.742e+00,2.945e+00,2.886e+00,3.633e+00,1.477e+00,2.442e+00,3.225e+00,2.984e+00,2.461e+00,2.347e+00,2.812e+00,3.069e+00,3.057e+00,3.088e+00,1.060e+00,3.583e+00,2.310e+00,2.779e+00,3.810e+00,2.440e+00,2.414e+00,3.551e+00,2.908e+00,3.719e+00,3.053e+00,4.298e+00,3.186e+00,2.135e+00,3.285e+00,2.906e+00,2.305e+00,2.951e+00,3.501e+00,2.760e+00,3.088e+00,2.208e+00,2.561e+00,3.290e+00,4.313e+00,3.378e+00,1.946e+00,2.933e+00,3.394e+00,3.551e+00,2.872e+00,2.868e+00,2.715e+00,2.716e+00,3.032e+00,2.691e+00,3.208e+00,2.192e+00,2.524e+00,2.884e+00,2.144e+00,2.677e+00,3.306e+00,2.841e+00,3.389e+00,3.255e+00,2.818e+00,2.924e+00,3.078e+00,2.123e+00,2.554e+00,2.916e+00,1.612e+00,3.195e+00
4.199e-01,1.523e+00,8.647e-01,1.366e+00,1.504e+00,1.350e+00,1.276e+00,2.416e+00,2.055e+00,2.754e+00,2.277e+00,3.825e+00,1.358e+00,2.880e+00,2.953e+00,3.514e+00,2.736e+00,2.802e+00,3.345e+00,3.562e+00,4.152e+00,3.382e+00,1.128e+00,3.475e+00,2.261e+00,3.890e+00,4.523e+00,2.501e+00,3.067e+00,3.324e+00,2.337e+00,3.845e+00,3.490e+00,4.121e+00,3.503e+00,2.100e+00,3.706e+00,3.460e+00,2.594e+00,2.651e+00,2.956e+00,3.184e+00,3.500e+00,2.071e+00,3.582e+00,3.132e+00,4.337e+00,3.858e+00,2.986e+00,4.273e+00,4.095e+00,4.352e+00,3.127e+00,3.227e+00,2.992e+00,2.765e+00,3.364e+00,3.849e+00,4.357e+00,2.712e+00,3.225e+00,3.389e+00,3.041e+00,3.013e+00,3.848e+00,2.622e+00,3.742e+00,4.122e+00,2.458e+00,3.201e+00,3.793e+00,1.976e+00,2.824e+00,2.478e+00,1.980e+00,3.093e+00
1.026e-01,6.416e-01,9.477e-01,7.004e-01,1.507e+00,1.127e+00,1.098e+00,1.755e+00,1.726e+00,2.301e+00,2.090e+00,2.431e+00,1.614e+00,3.711e+00,2.843e+00,3.445e+00,3.723e+00,2.158e+00,3.187e+00,4.274e+00,3.551e+00,3.777e+00,1.988e+00,3.044e+00,2.803e+00,3.774e+00,3.821e+00,3.376e+00,2.818e+00,3.189e+00,2.676e+00,3.475e+00,3.550e+00,4.552e+00,2.813e+00,2.376e+00,3.763e+00,3.645e+00,3.734e+00,3.005e+00,3.809e+00,2.288e+00,3.738e+00,2.955e+00,3.491e+00,2.917e+00,4.298e+00,4.089e+00,2.600e+00,4.087e+00,3.481e+00,4.099e+00,2.928e+00,3.134e+00,2.810e+00,2.873e+00,3.323e+00,3.355e+00,3.503e+00,3.327e+00,3.230e+00,3.325e+00,2.724e+00,2.438e+00,3.240e+00,3.351e+00,3.391e+00,3.595e+00,3.163e+00,3.259e+00,4.405e+00,2.587e+00,3.943e+00,2.893e+00,1.980e+00,3.468e+00
8.899e-02,1.566e-01,5.605e-01,6.414e-01,1.315e+00,5.577e-01,1.039e+00,1.124e+00,2.059e+00,2.821e+00,1.912e+00,2.356e+00,1.376e+00,2.932e+00,2.560e+00,3.071e+00,2.268e+00,1.960e+00,3.720e+00,4.057e+00,2.913e+00,2.802e+00,1.479e+00,3.655e+00,2.568e+00,2.785e+00,3.557e+00,3.291e+00,2.680e+00,2.949e+00,2.275e+00,3.229e+00,3.031e+00,3.330e+00,3.665e+00,2.560e+00,2.638e+00,2.617e+00,2.451e+00,2.173e+00,3.249e+00,2.599e+00,2.397e+00,2.673e+00,2.913e+00,3.235e+00,2.576e+00,3.940e+00,2.506e+00,3.579e+00,4.116e+00,4.072e+00,2.369e+00,3.376e+00,1.830e+00,2.397e+00,2.677e+00,3.705e+00,2.948e+00,2.640e+00,2.711e+00,2.923e+00,1.934e+00,2.305e+00,3.196e+00,3.539e+00,2.961e+00,3.281e+00,3.266e+00,2.847e+00,3.711e+00,2.861e+00,3.396e+00,1.656e+00,1.696e+00,3.251e+00
1.563e-01,5.720e-01,7.337e-01,8.040e-01,1.402e+00,1.039e+00,1.101e+00,1.900e+00,1.981e+00,3.516e+00,2.656e+00,2.959e+00,1.679e+00,3.663e+00,3.400e+00,4.246e+00,3.255e+00,2.407e+00,4.101e+00,4.729e+00,4.495e+00,3.994e+00,2.531e+00,4.253e+00,3.132e+00,3.828e+00,5.078e+00,4.053e+00,3.684e+00,4.115e+00,3.504e+00,4.288e+00,3.936e+00,4.761e+00,3.344e+00,3.363e+00,3.851e+00,4.057e+00,3.188e+00,3.862e+00,3.627e+00,2.990e+00,5.043e+00,3.356e+00,3.694e+00,4.173e+00,4.452e+00,5.180e+00,3.562e+00,4.861e+00,4.786e+00,5.080e+00,3.352e+00,4.343e+00,2.925e+00,3.792e+00,3.588e+00,3.762e+00,4.300e+00,3.166e+00,3.512e+00,4.369e+00,2.732e+00,3.420e+00,4.226e+00,4.047e+00,4.059e+00,4.386e+00,4.433e+00,3.400e+00,5.125e+00,3.272e+00,5.018e+00,3.088e+00,2.766e+00,4.208e+00
2.498e-01,4.234e-01,7.003e-01,7.413e-01,9.636e-01,8.549e-01,9.955e-01,1.418e+00,1.751e+00,2.423e+00,2.072e+00,2.733e+00,1.560e+00,2.726e+00,2.938e+00,3.525e+00,3.159e+00,2.806e+00,2.873e+00,4.329e+00,3.512e+00,4.801e+00,2.224e+00,4.016e+00,2.946e+00,3.892e+00,4.812e+00,3.991e+00,3.832e+00,4.079e+00,3.364e+00,4.427e+00,3.960e+00,5.161e+00,4.318e+00,3.217e+00,3.930e+00,3.353e+00,3.699e+00,3.200e+00,4.428e+00,3.025e+00,4.061e+00,2.664e+00,3.567e+00,3.221e+00,4.358e+00,4.113e+00,2.983e+00,4.045e+00,4.067e+00,4.479e+00,3.766e+00,3.664e+00,2.995e+00,3.275e+00,3.533e+00,3.794e+00,3.705e+00,3.768e+00,3.033e+00,3.336e+00,2.790e+00,2.972e+00,3.770e+00,4.166e+00,4.314e+00,4.043e+00,3.753e+00,3.296e+00,3.870e+00,3.236e+00,3.705e+00,2.850e+00,1.819e+00,3.292e+00
3.704e-01,1.432e+00,1.288e+00,1.154e+00,1.552e+00,1.149e+00,1.325e+00,2.116e+00,2.334e+00,3.099e+00,2.424e+00,3.770e+00,2.126e+00,4.063e+00,3.744e+00,4.464e+00,3.964e+00,3.679e+00,4.527e+00,5.246e+00,4.494e+00,4.876e+00,2.746e+00,4.749e+00,3.577e+00,5.528e+00,5.493e+00,4.325e+00,4.467e+00,4.727e+00,3.876e+00,4.322e+00,4.932e+00,5.308e+00,4.487e+00,4.200e+00,4.866e+00,5.203e+00,4.780e+00,4.063e+00,4.930e+00,4.261e+00,5.006e+00,4.352e+00,4.676e+00,4.270e+00,5.542e+00,5.184e+00,4.558e+00,5.081e+00,5.866e+00,5.029e+00,4.634e+00,3.644e+00,3.947e+00,4.660e+00,4.302e+00,5.400e+00,4.786e+00,4.408e+00,4.198e+00,4.933e+00,3.469e+00,3.771e+00,4.764e+00,3.926e+00,4.929e+00,5.149e+00,4.773e+00,4.975e+00,5.341e+00,4.199e+00,5.091e+00,3.057e+00,3.289e+00,4.209e+00
3.056e-01,5.684e-01,4.774e-01,6.917e-01,4.801e-01,3.770e-01,6.646e-01,1.011e+00,1.488e+00,2.858e+00,2.560e+00,3.245e+00,2.228e+00,3.500e+00,3.589e+00,3.694e+00,3.050e+00,3.743e+00,3.317e+00,4.860e+00,4.075e+00,5.065e+00,3.565e+00,4.966e+00,3.475e+00,5.159e+00,5.203e+00,5.051e+00,5.020e+00,5.540e+00,4.259e+00,4.767e+00,4.919e+00,4.818e+00,5.618e+00,4.602e+00,4.889e+00,4.576e+00,4.855e+00,3.884e+00,4.840e+00,4.100e+00,4.907e+00,4.532e+00,4.113e+00,4.936e+00,5.236e+00,4.612e+00,4.149e+00,3.828e+00,6.395e+00,4.668e+00,4.334e+00,3.212e+00,3.713e+00,4.489e+00,3.766e+00,5.020e+00,4.200e+00,4.814e+00,3.572e+00,5.287e+00,3.292e+00,3.859e+00,4.699e+00,4.783e+00,5.204e+00,5.011e+00,4.711e+00,4.244e+00,4.615e+00,4.131e+00,5.147e+00,3.333e+00,3.159e+00,4.077e+00
2.614e-01,8.505e-01,6.953e-01,8.143e-01,1.056e+00,1.262e+00,9.675e-01,2.058e+00,2.214e+00,4.100e+00,3.167e+00,3.917e+00,2.430e+00,4.090e+00,4.110e+00,4.365e+00,4.262e+00,4.033e+00,5.145e+00,5.417e+00,4.804e+00,6.864e+00,3.309e+00,6.679e+00,4.143e+00,5.436e+00,7.293e+00,5.110e+00,5.801e+00,5.558e+00,5.026e+00,6.239e+00,6.717e+00,6.849e+00,5.794e+00,5.183e+00,5.816e+00,5.526e+00,5.655e+00,5.116e+00,6.251e+00,4.513e+00,6.670e+00,5.363e+00,6.471e+00,5.120e+00,6.128e+00,6.750e+00,5.370e+00,5.230e+00,6.832e+00,6.405e+00,5.252e+00,5.771e+00,3.877e+00,5.513e+00,5.319e+00,6.208e+00,6.143e+00,4.960e+00,4.562e+00,5.742e+00,3.435e+00,5.235e+00,5.424e+00,5.257e+00,6.351e+00,6.497e+00,6.306e+00,5.585e+00,7.181e+00,4.439e+00,6.288e+00,4.474e+00,3.926e+00,5.116e+00
2.273e-01,5.686e-01,6.761e-01,6.124e-01,8.160e-01,9.144e-01,8.502e-01,1.841e+00,1.829e+00,3.403e+00,3.303e+00,3.912e+00,2.370e+00,4.009e+00,4.643e+00,4.901e+00,4.852e+00,4.529e+00,4.939e+00,5.689e+00,6.276e+00,7.884e+00,3.761e+00,7.165e+00,4.626e+00,7.476e+00,8.421e+00,5.915e+00,6.255e+00,6.932e+00,5.920e+00,7.007e+00,7.207e+00,7.625e+00,7.438e+00,6.010e+00,6.989e+00,6.134e+00,6.358e+00,6.285e+00,7.334e+00,5.443e+00,6.815e+00,5.940e+00,5.958e+00,6.237e+00,7.426e+00,6.976e+00,4.585e+00,5.820e+00,7.420e+00,7.571e+00,5.767e+00,5.864e+00,4.820e+00,5.781e+00,6.019e+00,6.682e+00,7.236e+00,5.392e+00,6.345e+00,6.785e+00,5.634e+00,6.101e+00,6.742e+00,5.905e+00,7.819e+00,6.832e+00,6.065e+00,6.920e+00,7.386e+00,5.294e+00,6.054e+00,5.603e+00,4.201e+00,5.489e+00
4.098e-01,1.022e+00,1.129e+00,1.204e+00,1.459e+00,9.858e-01,1.431e+00,2.269e+00,2.472e+00,3.783e+00,2.527e+00,3.515e+00,1.943e+00,3.715e+00,3.492e+00,4.201e+00,3.245e+00,3.277e+00,4.564e+00,5.149e+00,5.663e+00,6.206e+00,3.190e+00,6.319e+00,3.924e+00,5.883e+00,7.470e+00,5.122e+00,4.975e+00,5.835e+00,5.353e+00,5.333e+00,5.166e+00,5.598e+00,5.805e+00,5.440e+00,4.810e+00,5.010e+00,4.350e+00,6.157e+00,5.551e+00,4.287e+00,6.704e+00,4.599e+00,5.669e+00,5.863e+00,6.194e+00,6.295e+00,5.173e+00,5.235e+00,6.049e+00,5.997e+00,4.809e+00,4.918e+00,4.331e+00,4.823e+00,4.888e+00,5.358e+00,4.969e+00,4.844e+00,4.664e+00,5.972e+00,4.087e+00,5.140e+00,6.160e+00,4.694e+00,6.223e+00,5.448e+00,5.669e+00,6.328e+00,6.127e+00,4.711e+00,5.661e+00,4.919e+00,4.954e+00,4.997e+00
8.197e-03,8.897e-01,7.838e-01,7.396e-01,1.727e+00,1.287e+00,9.855e-01,1.987e+00,1.207e+00,2.567e+00,2.814e+00,2.778e+00,1.526e+00,4.571e+00,3.826e+00,3.538e+00,3.757e+00,3.135e+00,5.493e+00,5.361e+00,5.034e+00,6.980e+00,4.376e+00,5.765e+00,4.589e+00,6.919e+00,7.534e+00,6.482e+00,4.911e+00,7.523e+00,5.380e+00,4.932e+00,5.683e+00,6.977e+00,5.451e+00,5.755e+00,6.942e+00,6.097e+00,5.365e+00,5.658e+00,5.929e+00,4.127e+00,7.941e+00,5.956e+00,6.188e+00,5.576e+00,6.886e+00,7.493e+00,6.433e+00,6.294e+00,6.020e+00,6.668e+00,4.997e+00,5.083e+00,5.250e+00,4.988e+00,5.968e+00,6.383e+00,5.781e+00,6.669e+00,4.959e+00,7.307e+00,4.792e+00,6.842e+00,6.084e+00,5.124e+00,6.524e+00,6.513e+00,6.700e+00,6.639e+00,7.816e+00,5.439e+00,7.436e+00,5.297e+00,4.639e+00,5.100e+00
1.523e-01,8.387e-01,1.048e+00,6.283e-01,1.199e+00,1.211e+00,9.272e-01,1.814e+00,1.440e+00,1.959e+00,2.271e+00,2.634e+00,1.533e+00,3.635e+00,4.002e+00,4.615e+00,4.449e+00,4.270e+00,5.457e+00,5.600e+00,5.817e+00,7.110e+00,4.411e+00,7.669e+00,5.539e+00,7.703e+00,9.284e+00,5.952e+00,6.078e+00,6.327e+00,6.911e+00,5.855e+00,6.181e+00,7.339e+00,6.557e+00,6.159e+00,7.423e+00,5.987e+00,6.641e+00,6.355e+00,7.675e+00,5.562e+00,8.197e+00,6.957e+00,6.845e+00,5.965e+00,7.289e+00,8.445e+00,6.227e+00,6.814e+00,7.584e+00,6.549e+00,5.964e+00,5.470e+00,5.156e+00,5.312e+00,7.102e+00,6.414e+00,6.456e+00,5.860e+00,7.607e+00,7.552e+00,5.575e+00,7.063e+00,6.908e+00,5.506e+00,8.593e+00,6.634e+00,5.835e+00,7.598e+00,7.844e+00,6.176e+00,6.438e+00,5.783e+00,5.061e+00,5.682e+00
1.218e-01,8.900e-01,7.818e-01,5.994e-01,1.172e+00,9.416e-01,8.207e-01,1.512e+00,1.364e+00,1.818e+00,1.823e+00,2.667e+00,1.335e+00,2.778e+00,3.140e+00,3.651e+00,3.355e+00,2.816e+00,4.125e+00,4.450e+00,4.986e+00,6.505e+00,4.145e+00,5.888e+00,5.090e+00,6.545e+00,7.811e+00,6.282e+00,4.781e+00,5.473e+00,4.063e+00,5.790e+00,5.452e+00,6.230e+00,5.060e+00,4.406e+00,6.486e+00,5.403e+00,5.793e+00,4.744e+00,5.910e+00,3.465e+00,6.652e+00,6.689e+00,5.759e+00,4.773e+00,6.115e+00,7.607e+00,5.662e+00,6.634e+00,6.310e+00,6.049e+00,5.350e+00,5.146e+00,5.005e+00,5.245e+00,6.383e+00,5.936e+00,6.888e+00,5.786e+00,5.410e+00,6.766e+00,4.884e+00,6.400e+00,5.653e+00,4.963e+00,7.032e+00,6.175e+00,5.326e+00,6.467e+00,8.034e+00,4.632e+00,6.217e+00,4.961e+00,4.047e+00,4.188e+00
1.284e-01,2.769e-01,4.641e-01,6.046e-01,1.021e+00,8.037e-01,8.709e-01,1.495e+00,1.706e+00,3.096e+00,2.689e+00,2.962e+00,1.825e+00,3.720e+00,3.874e+00,4.121e+00,3.566e+00,3.378e+00,5.003e+00,5.658e+00,5.076e+00,6.960e+00,4.647e+00,7.378e+00,5.459e+00,7.112e+00,9.016e+00,8.018e+00,5.732e+00,7.021e+00,5.941e+00,6.707e+00,6.663e+00,7.363e+00,7.376e+00,6.079e+00,7.000e+00,6.073e+00,5.951e+00,5.667e+00,6.974e+00,5.050e+00,8.039e+00,7.206e+00,6.851e+00,6.107e+00,6.906e+00,8.230e+00,7.057e+00,7.184e+00,8.214e+00,7.708e+00,5.863e+00,6.376e+00,5.223e+00,5.695e+00,6.949e+00,6.279e+00,6.701e+00,6.786e+00,6.458e+00,7.561e+00,5.192e+00,7.497e+00,7.000e+00,6.916e+00,8.522e+00,7.075e+00,6.781e+00,6.833e+00,7.732e+00,6.312e+00,7.084e+00,5.340e+00,4.542e+00,5.742e+00
3.031e-01,9.056e-01,1.081e+00,1.020e+00,1.403e+00,1.062e+00,1.252e+00,2.117e+00,1.888e+00,2.633e+00,2.194e+00,2.777e+00,1.674e+00,3.782e+00,3.385e+00,4.333e+00,3.966e+00,3.434e+00,4.286e+00,4.795e+00,5.230e+00,5.691e+00,2.882e+00,5.490e+00,4.064e+00,7.290e+00,7.789e+00,6.159e+00,5.520e+00,6.262e+00,5.040e+00,5.443e+00,6.311e+00,5.948e+00,5.759e+00,5.292e+00,5.842e+00,6.177e+00,5.996e+00,6.048e+00,5.981e+00,4.786e+00,6.963e+00,5.458e+00,5.488e+00,5.889e+00,7.123e+00,6.413e+00,5.454e+00,5.938e+00,6.702e+00,6.789e+00,4.860e+00,5.384e+00,4.891e+00,5.963e+00,6.107e+00,6.480e+00,6.152e+00,5.905e+00,6.223e+00,7.189e+00,5.884e+00,6.591e+00,6.844e+00,5.454e+00,6.780e+00,6.424e+00,5.947e+00,6.164e+00,6.499e+00,5.847e+00,5.348e+00,4.218e+00,3.721e+00,5.376e+00
2.832e-01,5.525e-01,8.993e-01,1.056e+00,1.546e+00,1.125e+00,1.419e+00,2.305e+00,2.513e+00,3.771e+00,3.206e+00,3.783e+00,2.121e+00,4.172e+00,3.753e+00,4.865e+00,4.255e+00,3.769e+00,4.897e+00,5.518e+00,5.973e+00,7.221e+00,3.583e+00,6.634e+00,4.042e+00,7.795e+00,8.313e+00,8.122e+00,6.138e+00,7.032e+00,5.836e+00,6.776e+00,8.399e+00,8.080e+00,7.706e+00,6.406e+00,7.164e+00,7.573e+00,6.669e+00,6.346e+00,7.402e+00,6.036e+00,7.377e+00,6.817e+00,6.366e+00,7.370e+00,8.280e+00,7.817e+00,6.153e+00,7.926e+00,7.938e+00,9.530e+00,6.021e+00,7.531e+00,6.072e+00,6.827e+00,7.192e+00,7.061e+00,7.908e+00,6.700e+00,7.109e+00,7.469e+00,6.906e+00,7.121e+00,7.990e+00,6.482e+00,8.505e+00,7.438e+00,6.684e+00,7.737e+00,8.156e+00,6.816e+00,7.153e+00,5.329e+00,4.289e+00,6.019e+00
4.934e-02,5.262e-01,5.250e-01,4.472e-01,9.512e-01,1.285e+00,6.329e-01,1.403e+00,1.105e+00,2.503e+00,3.183e+00,3.216e+00,1.551e+00,3.518e+00,4.655e+00,3.864e+00,3.637e+00,3.857e+00,4.965e+00,5.093e+00,5.039e+00,7.285e+00,4.091e+00,7.674e+00,5.475e+00,7.857e+00,9.557e+00,8.215e+00,6.136e+00,8.655e+00,7.598e+00,6.693e+00,7.367e+00,7.216e+00,8.874e+00,7.426e+00,8.006e+00,6.577e+00,7.058e+00,7.610e+00,8.260e+00,6.666e+00,8.597e+00,7.619e+00,6.336e+00,8.304e+00,7.789e+00,8.280e+00,7.125e+00,7.757e+00,8.748e+00,7.988e+00,7.013e+00,6.381e+00,5.905e+00,6.786e+00,7.225e+00,8.532e+00,7.270e+00,7.022e+00,8.102e+00,8.879e+00,7.149e+00,7.777e+00,8.424e+00,7.112e+00,9.356e+00,8.347e+00,7.859e+00,8.235e+00,8.387e+00,8.089e+00,7.711e+00,6.639e+00,5.956e+00,6.728e+00
4.799e-02,2.953e-01,7.598e-01,4.328e-01,1.154e+00,9.263e-01,8.772e-01,1.287e+00,1.585e+00,2.458e+00,2.065e+00,2.217e+00,1.400e+00,3.166e+00,3.371e+00,3.419e+00,3.264e+00,2.764e+00,5.200e+00,5.083e+00,4.013e+00,6.534e+00,3.809e+00,7.538e+00,5.683e+00,6.800e+00,9.653e+00,7.812e+00,5.670e+00,7.219e+00,6.771e+00,6.466e+00,6.982e+00,7.265e+00,7.160e+00,6.456e+00,6.563e+00,6.261e+00,6.439e+00,6.819e+00,7.868e+00,5.332e+00,8.708e+00,7.709e+00,7.855e+00,6.791e+00,7.525e+00,8.934e+00,7.892e+00,7.212e+00,8.303e+00,7.929e+00,6.575e+00,7.754e+00,5.645e+00,6.438e+00,6.946e+00,7.499e+00,7.037e+00,7.354e+00,6.482e+00,8.442e+00,5.548e+00,7.941e+00,7.663e+00,6.782e+00,9.494e+00,6.959e+00,8.065e+00,8.233e+00,7.635e+00,7.429e+00,7.867e+00,6.578e+00,5.979e+00,5.813e+00
4.140e-01,9.911e-01,1.145e+00,1.157e+00,1.276e+00,1.007e+00,1.296e+00,1.806e+00,2.054e+00,2.708e+00,2.129e+00,2.962e+00,1.755e+00,3.503e+00,3.445e+00,4.234e+00,3.055e+00,2.687e+00,4.089e+00,5.079e+00,4.272e+00,5.051e+00,3.295e+00,6.091e+00,4.496e+00,5.710e+00,6.479e+00,5.353e+00,4.905e+00,6.211e+00,4.508e+00,5.893e+00,6.380e+00,6.497e+00,5.702e+00,5.039e+00,6.101e+00,6.281e+00,5.536e+00,5.585e+00,6.950e+00,4.833e+00,7.061e+00,6.822e+00,6.627e+00,7.826e+00,7.067e+00,7.589e+00,7.020e+00,6.999e+00,8.356e+00,7.514e+00,6.020e+00,6.343e+00,5.528e+00,6.773e+00,5.984e+00,6.355e+00,6.114e+00,6.426e+00,6.615e+00,7.156e+00,4.807e+00,7.272e+00,7.053e+00,5.799e+00,6.400e+00,6.956e+00,6.942e+00,6.938e+00,6.339e+00,6.417e+00,7.195e+00,5.097e+00,4.187e+00,5.854e+00
3.117e-01,1.127e+00,1.115e+00,1.094e+00,1.590e+00,9.900e-01,1.329e+00,1.894e+00,2.326e+00,3.123e+00,2.910e+00,4.133e+00,1.835e+00,3.480e+00,3.746e+00,4.118e+00,3.186e+00,4.182e+00,5.472e+00,5.360e+00,5.360e+00,7.447e+00,4.021e+00,8.025e+00,4.931e+00,8.210e+00,9.006e+00,7.726e+00,5.776e+00,7.751e+00,6.894e+00,6.300e+00,8.664e+00,7.388e+00,8.160e+00,7.743e+00,7.703e+00,7.632e+00,7.896e+00,8.026e+00,8.629e+00,7.239e+00,8.964e+00,7.786e+00,8.343e+00,8.418e+00,9.306e+00,8.985e+00,8.545e+00,7.553e+00,9.816e+00,9.430e+00,7.257e+00,8.352e+00,7.252e+00,7.377e+00,8.102e+00,9.394e+00,8.176e+00,7.999e+00,7.346e+00,9.151e+00,7.427e+00,8.632e+00,8.129e+00,6.910e+00,9.083e+00,9.551e+00,7.955e+00,9.204e+00,7.927e+00,8.903e+00,8.024e+00,6.603e+00,6.572e+00,6.219e+00
1.517e-01,5.532e-01,5.484e-01,7.664e-01,1.229e+00,6.452e-01,9.373e-01,1.245e+00,1.828e+00,2.954e+00,2.847e+00,3.467e+00,1.972e+00,3.865e+00,3.915e+00,4.508e+00,3.483e+00,4.362e+00,5.495e+00,5.871e+00,5.392e+00,7.586e+00,4.821e+00,8.111e+00,5.439e+00,8.361e+00,9.751e+00,9.173e+00,7.204e+00,8.702e+00,6.755e+00,7.278e+00,9.516e+00,8.203e+00,9.321e+00,7.934e+00,8.331e+00,8.934e+00,9.002e+00,7.701e+00,8.882e+00,7.119e+00,1.062e+01,9.091e+00,8.890e+00,9.466e+00,9.773e+00,9.402e+00,9.999e+00,8.468e+00,1.158e+01,1.016e+01,7.217e+00,8.289e+00,7.304e+00,8.224e+00,8.845e+00,1.053e+01,8.477e+00,9.232e+00,8.257e+00,1.028e+01,7.943e+00,9.201e+00,1.007e+01,8.837e+00,1.070e+01,9.996e+00,9.627e+00,9.942e+00,9.570e+00,9.703e+00,9.766e+00,5.874e+00,6.141e+00,7.680e+00
3.697e-01,1.317e+00,1.044e+00,1.151e+00,1.385e+00,1.001e+00,1.203e+00,1.925e+00,1.916e+00,3.058e+00,2.573e+00,3.735e+00,1.813e+00,3.734e+00,4.120e+00,4.113e+00,3.079e+00,3.100e+00,4.980e+00,5.173e+00,4.994e+00,5.940e+00,3.596e+00,6.362e+00,5.140e+00,6.935e+00,8.333e+00,7.071e+00,5.828e+00,7.801e+00,5.412e+00,6.762e+00,7.712e+00,7.576e+00,7.471e+00,6.974e+00,7.148e+00,7.771e+00,6.917e+00,7.456e+00,6.865e+00,6.566e+00,8.228e+00,8.050e+00,7.298e+00,8.566e+00,8.565e+00,8.993e+00,8.049e+00,7.875e+00,9.056e+00,8.674e+00,7.221e+00,7.046e+00,7.206e+00,7.322e+00,6.884e+00,8.709e+00,7.792e+00,7.860e+00,6.240e+00,9.313e+00,6.510e+00,8.299e+00,8.570e+00,6.742e+00,8.914e+00,8.223e+00,8.725e+00,8.729e+00,7.728e+00,7.403e+00,8.919e+00,6.393e+00,6.390e+00,6.632e+00
2.599e-01,1.134e+00,9.108e-01,1.046e+00,1.476e+00,1.753e+00,1.139e+00,2.033e+00,1.686e+00,2.854e+00,2.587e+00,3.199e+00,1.467e+00,3.503e+00,3.960e+00,3.628e+00,3.280e+00,3.614e+00,4.528e+00,4.923e+00,4.373e+00,6.310e+00,3.401e+00,6.024e+00,4.804e+00,7.135e+00,8.632e+00,7.606e+00,6.377e+00,8.523e+00,6.601e+00,6.882e+00,8.037e+00,8.789e+00,8.300e+00,8.567e+00,8.590e+00,9.192e+00,7.474e+00,8.503e+00,7.697e+00,7.449e+00,1.044e+01,8.424e+00,9.333e+00,9.473e+00,9.721e+00,9.805e+00,9.554e+00,9.078e+00,9.884e+00,9.251e+00,7.821e+00,7.520e+00,7.618e+00,8.197e+00,8.254e+00,9.910e+00,8.083e+00,9.453e+00,6.483e+00,1.016e+01,7.353e+00,1.011e+01,9.319e+00,7.893e+00,1.002e+01,1.001e+01,1.073e+01,9.635e+00,8.402e+00,9.504e+00,9.518e+00,7.044e+00,6.318e+00,7.594e+00
2.615e-01,1.083e+00,8.286e-01,1.123e+00,1.537e+00,1.350e+00,1.168e+00,2.091e+00,1.712e+00,2.757e+00,2.736e+00,3.250e+00,1.449e+00,3.928e+00,3.944e+00,3.806e+00,2.891e+00,3.163e+00,5.909e+00,5.294e+00,4.633e+00,5.062e+00,3.457e+00,7.030e+00,5.576e+00,6.776e+00,8.485e+00,7.510e+00,5.634e+00,8.150e+00,6.501e+00,6.562e+00,7.809e+00,7.610e+00,8.877e+00,7.900e+00,8.593e+00,7.998e+00,7.579e+00,8.747e+00,8.957e+00,7.879e+00,9.897e+00,9.148e+00,9.195e+00,1.003e+01,9.327e+00,1.077e+01,9.892e+00,9.445e+00,1.093e+01,1.046e+01,8.773e+00,7.827e+00,7.114e+00,8.121e+00,8.717e+00,9.634e+00,8.374e+00,8.797e+00,9.000e+00,1.029e+01,8.312e+00,1.026e+01,9.342e+00,7.828e+00,8.994e+00,9.759e+00,9.572e+00,9.545e+00,8.128e+00,9.491e+00,9.327e+00,7.107e+00,6.737e+00,7.951e+00
3.937e-01,8.592e-01,1.240e+00,1.202e+00,1.502e+00,6.924e-01,1.459e+00,1.745e+00,2.194e+00,3.383e+00,2.802e+00,3.494e+00,2.405e+00,4.793e+00,4.001e+00,4.442e+00,3.778e+00,3.125e+00,4.565e+00,6.099e+00,4.489e+00,7.248e+00,4.467e+00,7.683e+00,5.453e+00,6.796e+00,8.029e+00,7.776e+00,6.509e+00,7.888e+00,6.423e+00,6.900e+00,8.559e+00,9.485e+00,9.256e+00,9.241e+00,8.300e+00,9.985e+00,9.004e+00,9.616e+00,1.011e+01,8.130e+00,1.003e+01,9.707e+00,9.723e+00,1.061e+01,9.353e+00,1.111e+01,1.037e+01,9.750e+00,1.058e+01,1.044e+01,8.617e+00,8.505e+00,8.386e+00,8.987e+00,8.074e+00,1.041e+01,8.086e+00,1.090e+01,8.280e+00,9.935e+00,7.648e+00,9.621e+00,9.234e+00,8.801e+00,9.726e+00,1.152e+01,1.006e+01,1.030e+01,9.550e+00,1.078e+01,1.086e+01,7.544e+00,7.391e+00,8.186e+00
3.616e-01,1.374e+00,1.336e+00,1.393e+00,2.025e+00,1.718e+00,1.642e+00,2.779e+00,2.436e+00,3.651e+00,3.448e+00,4.386e+00,2.172e+00,4.983e+00,4.988e+00,5.513e+00,4.692e+00,4.233e+00,5.844e+00,6.938e+00,6.695e+00,8.053e+00,4.744e+00,7.565e+00,5.809e+00,9.258e+00,1.032e+01,9.034e+00,7.412e+00,9.375e+00,7.377e+00,8.280e+00,9.713e+00,1.072e+01,9.844e+00,1.028e+01,1.143e+01,1.190e+01,9.930e+00,1.147e+01,1.022e+01,1.044e+01,1.172e+01,1.068e+01,1.071e+01,1.206e+01,1.192e+01,1.323e+01,1.154e+01,1.241e+01,1.257e+01,1.233e+01,1.079e+01,1.019e+01,1.018e+01,1.014e+01,1.015e+01,1.216e+01,1.174e+01,1.213e+01,1.026e+01,1.331e+01,9.824e+00,1.344e+01,1.195e+01,1.034e+01,1.300e+01,1.272e+01,1.219e+01,1.261e+01,1.148e+01,1.138e+01,1.163e+01,8.923e+00,8.777e+00,9.258e+00
1.299e-01,9.313e-01,8.872e-01,6.035e-01,1.166e+00,1.484e+00,8.365e-01,1.891e+00,1.394e+00,2.417e+00,2.574e+00,3.033e+00,1.650e+00,3.653e+00,4.105e+00,4.247e+00,4.380e+00,3.589e+00,5.093e+00,5.402e+00,5.056e+00,7.986e+00,4.495e+00,7.231e+00,4.901e+00,8.180e+00,9.911e+00,7.753e+00,6.137e+00,8.134e+00,7.824e+00,7.692e+00,9.371e+00,1.012e+01,9.113e+00,9.456e+00,1.165e+01,1.121e+01,1.071e+01,1.185e+01,1.162e+01,1.035e+01,1.307e+01,1.147e+01,1.137e+01,1.172e+01,1.199e+01,1.363e+01,1.319e+01,1.209e+01,1.313e+01,1.223e+01,1.174e+01,9.706e+00,1.017e+01,9.855e+00,1.079e+01,1.164e+01,1.149e+01,1.205e+01,1.125e+01,1.353e+01,1.044e+01,1.339e+01,1.188e+01,1.002e+01,1.475e+01,1.296e+01,1.175e+01,1.353e+01,1.166e+01,1.165e+01,1.119e+01,9.890e+00,9.809e+00,9.202e+00
1.886e-01,3.912e-01,3.775e-01,5.979e-01,7.641e-01,1.113e+00,7.714e-01,1.894e+00,2.028e+00,3.477e+00,2.729e+00,3.129e+00,1.874e+00,3.026e+00,3.104e+00,4.015e+00,3.497e+00,3.762e+00,4.650e+00,4.752e+00,5.197e+00,6.307e+00,3.590e+00,7.002e+00,4.020e+00,6.494e+00,8.189e+00,7.117e+00,6.094e+00,7.163e+00,6.095e+00,7.025e+00,9.001e+00,8.007e+00,8.894e+00,7.142e+00,8.460e+00,8.910e+00,9.224e+00,9.405e+00,9.880e+00,8.456e+00,1.023e+01,1.034e+01,9.373e+00,1.026e+01,1.009e+01,1.069e+01,9.863e+00,9.818e+00,1.136e+01,1.100e+01,9.420e+00,9.680e+00,8.030e+00,8.785e+00,9.653e+00,1.103e+01,9.952e+00,9.008e+00,8.734e+00,1.049e+01,9.146e+00,1.114e+01,9.780e+00,9.089e+00,1.161e+01,1.043e+01,1.050e+01,1.087e+01,1.017e+01,1.001e+01,9.362e+00,7.405e+00,7.651e+00,8.063e+00
4.980e-02,8.080e-01,6.743e-01,7.424e-01,1.530e+00,1.536e+00,9.274e-01,1.831e+00,1.486e+00,2.459e+00,2.780e+00,2.885e+00,1.454e+00,4.123e+00,4.013e+00,4.081e+00,3.412e+00,2.969e+00,5.085e+00,5.779e+00,4.395e+00,4.707e+00,3.690e+00,6.867e+00,5.726e+00,6.974e+00,8.482e+00,7.575e+00,5.031e+00,7.218e+00,6.083e+00,6.306e+00,7.605e+00,7.235e+00,7.823e+00,6.996e+00,8.750e+00,8.493e+00,8.328e+00,9.254e+00,9.900e+00,8.505e+00,9.868e+00,9.925e+00,9.368e+00,9.492e+00,9.410e+00,1.145e+01,1.090e+01,1.059e+01,1.201e+01,1.023e+01,1.043e+01,9.310e+00,8.056e+00,9.412e+00,9.028e+00,1.035e+01,1.074e+01,9.883e+00,9.874e+00,1.136e+01,8.624e+00,1.090e+01,1.068e+01,9.603e+00,1.127e+01,1.076e+01,1.001e+01,1.057e+01,1.061e+01,1.104e+01,1.006e+01,6.821e+00,7.300e+00,8.014e+00
1.213e-01,9.215e-01,7.017e-01,6.138e-01,1.169e+00,8.583e-01,7.945e-01,1.349e+00,1.484e+00,2.413e+00,2.256e+00,3.236e+00,1.678e+00,3.384e+00,3.393e+00,3.304e+00,3.319e+00,3.345e+00,3.709e+00,5.073e+00,4.283e+00,6.374e+00,3.592e+00,6.182e+00,3.777e+00,7.631e+00,7.852e+00,6.740e+00,5.246e+00,6.864e+00,6.024e+00,5.657e+00,7.318e+00,8.049e+00,9.303e+00,8.090e+00,8.699e+00,8.545e+00,8.969e+00,9.498e+00,9.830e+00,9.791e+00,1.109e+01,9.178e+00,9.881e+00,1.046e+01,9.482e+00,1.096e+01,1.006e+01,1.014e+01,1.127e+01,1.106e+01,1.044e+01,8.690e+00,8.929e+00,9.347e+00,8.997e+00,1.147e+01,1.025e+01,1.039e+01,9.954e+00,1.013e+01,9.613e+00,1.089e+01,1.023e+01,9.138e+00,1.129e+01,1.255e+01,9.792e+00,1.158e+01,8.865e+00,1.127e+01,9.589e+00,7.806e+00,8.010e+00,7.550e+00
1.156e-01,2.016e-01,2.401e-01,3.936e-01,4.309e-01,3.821e-01,4.247e-01,8.765e-01,6.398e-01,1.838e+00,2.176e+00,2.186e+00,1.252e+00,2.795e+00,3.606e+00,4.034e+00,3.221e+00,3.799e+00,4.236e+00,4.492e+00,5.251e+00,6.916e+00,4.485e+00,7.313e+00,4.724e+00,8.306e+00,9.433e+00,7.381e+00,6.760e+00,8.262e+00,7.172e+00,6.577e+00,8.051e+00,8.403e+00,9.118e+00,9.265e+00,1.029e+01,1.002e+01,9.205e+00,1.061e+01,1.018e+01,1.085e+01,1.247e+01,1.052e+01,1.019e+01,1.186e+01,1.114e+01,1.301e+01,1.191e+01,1.129e+01,1.364e+01,1.207e+01,1.047e+01,1.009e+01,9.640e+00,1.006e+01,1.013e+01,1.212e+01,1.216e+01,1.084e+01,1.090e+01,1.393e+01,1.045e+01,1.335e+01,1.230e+01,1.096e+01,1.329e+01,1.271e+01,1.153e+01,1.211e+01,1.056e+01,1.306e+01,1.066e+01,7.929e+00,8.286e+00,9.206e+00
3.950e-01,9.727e-01,8.304e-01,1.258e+00,1.421e+00,1.004e+00,1.351e+00,2.359e+00,2.230e+00,3.787e+00,2.895e+00,3.838e+00,1.984e+00,4.173e+00,4.074e+00,4.669e+00,3.840e+00,3.630e+00,5.760e+00,5.290e+00,5.990e+00,6.899e+00,3.731e+00,7.289e+00,4.958e+00,7.491e+00,9.215e+00,7.355e+00,6.074e+00,8.071e+00,6.554e+00,6.958e+00,7.823e+00,8.592e+00,8.764e+00,8.252e+00,9.604e+00,1.030e+01,8.252e+00,1.046e+01,1.038e+01,9.978e+00,1.260e+01,1.099e+01,1.066e+01,1.065e+01,1.198e+01,1.285e+01,1.321e+01,1.215e+01,1.407e+01,1.353e+01,1.129e+01,1.098e+01,1.044e+01,1.048e+01,1.102e+01,1.138e+01,1.199e+01,1.087e+01,9.677e+00,1.324e+01,9.558e+00,1.307e+01,1.246e+01,1.036e+01,1.304e+01,1.224e+01,1.158e+01,1.364e+01,1.129e+01,1.197e+01,1.165e+01,8.504e+00,9.930e+00,1.019e+01
1.193e-01,5.186e-01,7.199e-01,5.233e-01,1.012e+00,1.007e+00,8.101e-01,1.237e+00,1.413e+00,1.942e+00,1.743e+00,2.257e+00,1.313e+00,2.719e+00,3.257e+00,3.622e+00,3.299e+00,2.748e+00,3.926e+00,4.503e+00,4.617e+00,6.146e+00,3.562e+00,6.355e+00,4.910e+00,7.452e+00,8.958e+00,7.333e+00,5.664e+00,6.419e+00,5.844e+00,6.738e+00,7.934e+00,7.447e+00,7.748e+00,7.746e+00,8.824e+00,9.200e+00,9.995e+00,9.786e+00,9.551e+00,8.865e+00,1.203e+01,1.120e+01,1.084e+01,1.213e+01,1.231e+01,1.268e+01,1.227e+01,1.182e+01,1.368e+01,1.279e+01,1.115e+01,1.040e+01,9.791e+00,1.060e+01,1.106e+01,1.144e+01,1.176e+01,1.156e+01,1.122e+01,1.317e+01,1.054e+01,1.320e+01,1.173e+01,1.123e+01,1.335e+01,1.206e+01,1.134e+01,1.309e+01,1.090e+01,1.094e+01,1.052e+01,8.812e+00,9.044e+00,9.182e+00
1.876e-01,6.765e-01,6.224e-01,8.609e-01,1.271e+00,1.035e+00,1.001e+00,1.911e+00,1.549e+00,2.448e+00,2.657e+00,3.058e+00,1.477e+00,3.559e+00,3.506e+00,3.941e+00,3.552e+00,3.174e+00,4.917e+00,4.429e+00,4.877e+00,5.955e+00,3.181e+00,5.690e+00,3.912e+00,6.393e+00,6.960e+00,5.739e+00,4.577e+00,6.481e+00,4.937e+00,5.518e+00,6.855e+00,6.775e+00,6.279e+00,6.099e+00,8.332e+00,7.810e+00,7.236e+00,8.289e+00,8.507e+00,8.422e+00,9.561e+00,8.824e+00,8.915e+00,9.497e+00,1.036e+01,1.167e+01,1.079e+01,1.050e+01,1.116e+01,1.117e+01,9.176e+00,9.482e+00,9.452e+00,8.535e+00,1.026e+01,9.905e+00,1.094e+01,9.240e+00,9.423e+00,1.246e+01,8.913e+00,1.121e+01,1.079e+01,8.852e+00,1.082e+01,1.070e+01,1.027e+01,1.182e+01,1.055e+01,1.043e+01,1.001e+01,7.054e+00,7.768e+00,8.311e+00
3.143e-01,8.075e-01,1.150e+00,1.144e+00,1.721e+00,1.609e+00,1.532e+00,2.198e+00,2.584e+00,3.280e+00,3.010e+00,3.883e+00,1.690e+00,3.337e+00,3.873e+00,4.453e+00,3.610e+00,4.185e+00,4.846e+00,5.620e+00,5.455e+00,7.573e+00,3.641e+00,7.202e+00,4.426e+00,7.577e+00,9.115e+00,7.975e+00,6.095e+00,7.724e+00,7.716e+00,7.173e+00,8.361e+00,8.478e+00,8.844e+00,9.121e+00,9.345e+00,8.512e+00,9.357e+00,1.068e+01,1.091e+01,1.013e+01,1.212e+01,1.002e+01,1.243e+01,1.325e+01,1.373e+01,1.425e+01,1.317e+01,1.316e+01,1.457e+01,1.396e+01,1.276e+01,1.165e+01,1.136e+01,1.132e+01,1.207e+01,1.232e+01,1.193e+01,1.253e+01,1.137e+01,1.356e+01,1.071e+01,1.301e+01,1.321e+01,1.215e+01,1.352e+01,1.453e+01,1.300e+01,1.456e+01,1.220e+01,1.377e+01,1.212e+01,9.735e+00,9.617e+00,1.039e+01
1.731e-01,9.224e-01,4.248e-01,8.125e-01,1.129e+00,1.080e+00,7.852e-01,1.606e+00,1.694e+00,3.243e+00,2.766e+00,3.454e+00,2.008e+00,4.087e+00,3.512e+00,3.591e+00,3.064e+00,3.579e+00,4.354e+00,5.456e+00,4.603e+00,6.211e+00,4.937e+00,7.083e+00,4.307e+00,7.420e+00,7.944e+00,7.968e+00,5.915e+00,7.814e+00,6.855e+00,5.846e+00,8.380e+00,7.802e+00,9.102e+00,8.194e+00,8.872e+00,9.652e+00,9.489e+00,1.000e+01,1.009e+01,1.050e+01,1.273e+01,1.138e+01,1.107e+01,1.261e+01,1.290e+01,1.340e+01,1.368e+01,1.251e+01,1.481e+01,1.269e+01,1.229e+01,1.026e+01,1.212e+01,1.100e+01,1.165e+01,1.348e+01,1.210e+01,1.270e+01,1.175e+01,1.388e+01,1.245e+01,1.279e+01,1.205e+01,1.175e+01,1.417e+01,1.465e+01,1.230e+01,1.381e+01,1.285e+01,1.313e+01,1.361e+01,9.404e+00,1.156e+01,9.690e+00
2.865e-01,1.296e+00,7.171e-01,8.523e-01,9.787e-01,1.490e+00,8.139e-01,2.016e+00,1.580e+00,2.382e+00,2.382e+00,3.589e+00,1.586e+00,3.034e+00,3.894e+00,3.733e+00,3.733e+00,3.677e+00,4.801e+00,4.659e+00,4.777e+00,7.676e+00,3.836e+00,7.791e+00,5.228e+00,7.684e+00,9.701e+00,7.117e+00,6.068e+00,8.335e+00,6.768e+00,8.219e+00,9.174e+00,9.022e+00,9.177e+00,7.693e+00,1.006e+01,9.352e+00,9.203e+00,9.886e+00,1.141e+01,9.693e+00,1.144e+01,1.179e+01,1.139e+01,1.151e+01,1.216e+01,1.396e+01,1.392e+01,1.342e+01,1.476e+01,1.308e+01,1.321e+01,1.141e+01,1.095e+01,1.061e+01,1.184e+01,1.314e+01,1.236e+01,1.221e+01,1.243e+01,1.347e+01,1.121e+01,1.355e+01,1.300e+01,1.066e+01,1.469e+01,1.449e+01,1.172e+01,1.468e+01,1.362e+01,1.247e+01,1.242e+01,1.050e+01,9.942e+00,9.398e+00
3.967e-02,4.907e-01,2.341e-01,5.426e-01,9.421e-01,6.734e-01,5.453e-01,1.125e+00,1.042e+00,2.495e+00,2.391e+00,2.367e+00,1.831e+00,4.284e+00,3.166e+00,3.232e+00,3.174e+00,3.061e+00,4.487e+00,4.889e+00,4.217e+00,5.788e+00,4.545e+00,7.077e+00,4.521e+00,6.764e+00,7.495e+00,7.251e+00,5.762e+00,7.257e+00,6.324e+00,6.090e+00,9.421e+00,7.870e+00,9.102e+00,7.809e+00,8.947e+00,9.366e+00,9.353e+00,9.431e+00,9.555e+00,8.959e+00,1.140e+01,1.147e+01,1.064e+01,1.158e+01,1.111e+01,1.262e+01,1.307e+01,1.281e+01,1.451e+01,1.238e+01,1.090e+01,1.044e+01,1.099e+01,1.026e+01,1.161e+01,1.293e+01,1.098e+01,1.179e+01,1.245e+01,1.367e+01,1.194e+01,1.285e+01,1.183e+01,1.060e+01,1.302e+01,1.406e+01,1.198e+01,1.325e+01,1.241e+01,1.262e+01,1.413e+01,9.113e+00,1.063e+01,1.076e+01
2.590e-01,5.590e-01,6.608e-01,9.452e-01,1.267e+00,5.994e-01,1.151e+00,1.857e+00,2.155e+00,3.601e+00,2.705e+00,3.311e+00,2.115e+00,4.249e+00,3.628e+00,4.643e+00,3.874e+00,3.494e+00,4.998e+00,5.343e+00,5.704e+00,6.753e+00,3.919e+00,7.849e+00,5.121e+00,7.250e+00,8.975e+00,7.539e+00,6.418e+00,7.739e+00,6.329e+00,7.068e+00,8.954e+00,7.890e+00,8.810e+00,7.690e+00,7.880e+00,9.179e+00,7.890e+00,9.045e+00,9.304e+00,8.879e+00,9.768e+00,9.806e+00,9.907e+00,1.112e+01,1.169e+01,1.307e+01,1.238e+01,1.405e+01,1.392e+01,1.212e+01,1.166e+01,1.211e+01,1.100e+01,1.159e+01,1.075e+01,1.353e+01,1.235e+01,1.130e+01,1.210e+01,1.465e+01,1.162e+01,1.279e+01,1.238e+01,1.131e+01,1.386e+01,1.459e+01,1.318e+01,1.357e+01,1.412e+01,1.313e+01,1.320e+01,9.256e+00,1.013e+01,1.162e+01
1.683e-02,9.067e-01,6.221e-01,5.317e-01,1.348e+00,1.775e+00,7.797e-01,2.033e+00,1.747e+00,3.154e+00,3.231e+00,3.689e+00,1.659e+00,3.565e+00,4.194e+00,3.994e+00,3.595e+00,3.173e+00,5.649e+00,5.503e+00,4.720e+00,6.310e+00,4.450e+00,6.926e+00,5.283e+00,7.581e+00,9.567e+00,9.002e+00,5.711e+00,7.442e+00,6.809e+00,6.848e+00,8.695e+00,9.360e+00,8.535e+00,8.028e+00,1.027e+01,9.493e+00,9.931e+00,9.509e+00,9.670e+00,9.809e+00,1.216e+01,1.132e+01,1.099e+01,1.204e+01,1.326e+01,1.479e+01,1.257e+01,1.460e+01,1.458e+01,1.323e+01,1.323e+01,1.203e+01,1.244e+01,1.224e+01,1.302e+01,1.318e+01,1.389e+01,1.209e+01,1.313e+01,1.576e+01,1.121e+01,1.454e+01,1.347e+01,1.318e+01,1.519e+01,1.442e+01,1.410e+01,1.521e+01,1.380e+01,1.357e+01,1.511e+01,1.051e+01,1.116e+01,1.173e+01
1.505e-01,1.015e+00,6.472e-01,5.883e-01,9.747e-01,8.930e-01,6.942e-01,1.854e+00,1.353e+00,2.666e+00,2.680e+00,3.512e+00,1.628e+00,3.168e+00,3.618e+00,3.718e+00,3.692e+00,3.918e+00,5.366e+00,4.576e+00,5.579e+00,7.133e+00,3.780e+00,7.455e+00,5.028e+00,8.970e+00,1.058e+01,8.646e+00,6.913e+00,8.694e+00,7.629e+00,7.549e+00,1.011e+01,9.337e+00,1.016e+01,9.914e+00,1.045e+01,1.070e+01,1.083e+01,1.159e+01,1.171e+01,1.136e+01,1.331e+01,1.240e+01,1.268e+01,1.278e+01,1.407e+01,1.557e+01,1.371e+01,1.449e+01,1.648e+01,1.447e+01,1.534e+01,1.301e+01,1.397e+01,1.471e+01,1.333e+01,1.518e+01,1.488e+01,1.399e+01,1.432e+01,1.597e+01,1.388e+01,1.598e+01,1.466e+01,1.190e+01,1.669e+01,1.718e+01,1.390e+01,1.635e+01,1.456e+01,1.556e+01,1.394e+01,1.174e+01,1.147e+01,1.145e+01
1.350e-01,6.385e-01,5.209e-01,7.196e-01,1.118e+00,1.469e+00,8.174e-01,1.617e+00,1.527e+00,2.740e+00,2.938e+00,3.082e+00,1.577e+00,3.365e+00,3.488e+00,3.242e+00,2.845e+00,3.037e+00,3.557e+00,4.604e+00,3.275e+00,5.160e+00,3.067e+00,6.206e+00,4.128e+00,5.392e+00,6.798e+00,5.894e+00,4.421e+00,6.031e+00,5.136e+00,5.216e+00,6.793e+00,6.836e+00,7.115e+00,6.819e+00,7.308e+00,7.946e+00,7.204e+00,8.424e+00,8.644e+00,7.935e+00,9.849e+00,9.355e+00,9.887e+00,1.091e+01,1.078e+01,1.196e+01,1.183e+01,1.212e+01,1.356e+01,1.023e+01,1.307e+01,1.093e+01,1.093e+01,1.304e+01,1.078e+01,1.344e+01,1.084e+01,1.316e+01,1.196e+01,1.352e+01,1.072e+01,1.326e+01,1.301e+01,1.278e+01,1.368e+01,1.513e+01,1.267e+01,1.357e+01,1.319e+01,1.384e+01,1.278e+01,9.713e+00,1.088e+01,1.141e+01
3.047e-01,5.722e-01,5.990e-01,8.142e-01,7.083e-01,7.161e-01,8.256e-01,1.731e+00,1.189e+00,2.112e+00,1.977e+00,2.214e+00,1.191e+00,2.618e+00,2.579e+00,3.333e+00,2.860e+00,2.978e+00,3.278e+00,3.274e+00,4.547e+00,5.349e+00,2.741e+00,6.488e+00,4.224e+00,6.678e+00,8.454e+00,6.594e+00,5.436e+00,6.851e+00,6.118e+00,6.270e+00,7.382e+00,6.675e+00,7.552e+00,6.492e+00,6.919e+00,8.133e+00,7.782e+00,9.222e+00,9.327e+00,7.660e+00,1.081e+01,9.664e+00,1.073e+01,1.010e+01,1.143e+01,1.204e+01,1.178e+01,1.188e+01,1.227e+01,1.084e+01,1.153e+01,1.123e+01,1.180e+01,1.228e+01,1.286e+01,1.249e+01,1.250e+01,1.190e+01,1.210e+01,1.419e+01,1.292e+01,1.251e+01,1.330e+01,9.809e+00,1.453e+01,1.316e+01,1.175e+01,1.459e+01,1.277e+01,1.322e+01,1.143e+01,9.699e+00,9.965e+00,1.066e+01
4.049e-02,3.614e-01,1.905e-01,4.202e-01,7.891e-01,4.906e-01,5.110e-01,1.058e+00,1.122e+00,2.456e+00,1.699e+00,1.939e+00,1.471e+00,3.398e+00,2.838e+00,2.890e+00,2.888e+00,2.014e+00,3.885e+00,3.892e+00,3.399e+00,4.365e+00,2.938e+00,5.898e+00,4.113e+00,4.881e+00,6.785e+00,5.816e+00,5.027e+00,6.265e+00,5.285e+00,6.001e+00,6.757e+00,7.068e+00,8.152e+00,6.416e+00,8.037e+00,9.173e+00,7.902e+00,8.100e+00,9.407e+00,8.493e+00,1.029e+01,1.029e+01,9.731e+00,1.048e+01,1.059e+01,1.161e+01,1.320e+01,1.297e+01,1.455e+01,1.232e+01,1.202e+01,1.139e+01,1.129e+01,1.139e+01,1.114e+01,1.282e+01,1.084e+01,1.242e+01,1.286e+01,1.237e+01,1.039e+01,1.195e+01,1.276e+01,1.187e+01,1.319e+01,1.359e+01,1.170e+01,1.400e+01,1.214e+01,1.235e+01,1.313e+01,9.163e+00,1.127e+01,1.159e+01
3.025e-01,9.733e-01,5.515e-01,9.347e-01,9.601e-01,1.312e+00,8.743e-01,1.803e+00,1.680e+00,2.574e+00,2.307e+00,3.201e+00,1.454e+00,2.876e+00,3.216e+00,3.314e+00,2.838e+00,3.940e+00,4.679e+00,4.749e+00,3.999e+00,5.781e+00,3.323e+00,6.769e+00,4.490e+00,6.648e+00,8.448e+00,7.007e+00,6.251e+00,7.200e+00,6.574e+00,6.610e+00,8.302e+00,8.222e+00,8.981e+00,8.411e+00,8.701e+00,8.894e+00,8.786e+00,9.091e+00,1.012e+01,9.923e+00,1.060e+01,1.011e+01,1.048e+01,1.081e+01,1.158e+01,1.317e+01,1.151e+01,1.152e+01,1.379e+01,1.169e+01,1.343e+01,1.170e+01,1.147e+01,1.242e+01,1.142e+01,1.394e+01,1.302e+01,1.268e+01,1.145e+01,1.402e+01,1.211e+01,1.407e+01,1.341e+01,1.193e+01,1.437e+01,1.431e+01,1.228e+01,1.338e+01,1.207e+01,1.376e+01,1.252e+01,1.010e+01,1.073e+01,1.078e+01
8.876e-02,8.615e-01,5.634e-01,5.741e-01,1.034e+00,8.980e-01,6.312e-01,1.323e+00,1.212e+00,2.490e+00,2.855e+00,3.279e+00,1.524e+00,3.576e+00,4.216e+00,3.867e+00,2.994e+00,4.192e+00,5.560e+00,5.589e+00,4.858e+00,6.248e+00,4.400e+00,8.139e+00,5.523e+00,8.768e+00,1.008e+01,8.588e+00,6.666e+00,8.779e+00,7.867e+00,6.539e+00,9.037e+00,7.832e+00,9.820e+00,9.207e+00,9.426e+00,9.116e+00,1.012e+01,9.996e+00,1.067e+01,1.143e+01,1.237e+01,1.196e+01,1.092e+01,1.294e+01,1.351e+01,1.508e+01,1.377e+01,1.407e+01,1.743e+01,1.326e+01,1.527e+01,1.325e+01,1.424e+01,1.557e+01,1.348e+01,1.644e+01,1.475e+01,1.507e+01,1.622e+01,1.793e+01,1.354e+01,1.780e+01,1.650e+01,1.463e+01,1.665e+01,1.836e+01,1.563e+01,1.718e+01,1.437e+01,1.763e+01,1.624e+01,1.140e+01,1.346e+01,1.454e+01
3.169e-02,3.017e-01,3.317e-01,2.448e-01,6.151e-01,1.037e+00,4.465e-01,9.191e-01,1.037e+00,1.872e+00,1.944e+00,2.278e+00,1.130e+00,1.842e+00,2.688e+00,2.291e+00,2.739e+00,3.261e+00,3.171e+00,3.079e+00,3.629e+00,6.597e+00,2.737e+00,5.865e+00,3.651e+00,6.233e+00,8.181e+00,6.551e+00,4.978e+00,6.562e+00,6.326e+00,6.144e+00,7.144e+00,5.607e+00,7.408e+00,7.332e+00,7.823e+00,7.019e+00,7.851e+00,9.240e+00,8.364e+00,7.464e+00,9.681e+00,9.047e+00,1.121e+01,1.041e+01,1.061e+01,1.176e+01,1.149e+01,1.108e+01,1.236e+01,1.058e+01,1.238e+01,1.095e+01,1.073e+01,1.150e+01,1.131e+01,1.482e+01,1.272e+01,1.374e+01,1.233e+01,1.561e+01,1.162e+01,1.401e+01,1.444e+01,1.188e+01,1.545e+01,1.468e+01,1.383e+01,1.565e+01,1.326e+01,1.405e+01,1.215e+01,1.174e+01,1.239e+01,1.250e+01
3.321e-01,7.083e-01,9.434e-01,8.707e-01,9.499e-01,7.970e-01,1.032e+00,1.531e+00,1.747e+00,3.029e+00,2.734e+00,3.275e+00,2.303e+00,4.182e+00,4.242e+00,4.738e+00,4.295e+00,3.690e+00,4.042e+00,5.213e+00,5.065e+00,6.725e+00,3.676e+00,6.575e+00,4.705e+00,6.964e+00,7.800e+00,6.693e+00,6.414e+00,7.389e+00,6.502e+00,7.267e+00,8.424e+00,8.091e+00,8.247e+00,8.650e+00,9.387e+00,1.024e+01,9.849e+00,1.079e+01,1.077e+01,9.917e+00,1.112e+01,1.082e+01,1.029e+01,1.206e+01,1.245e+01,1.321e+01,1.301e+01,1.318e+01,1.585e+01,1.384e+01,1.384e+01,1.320e+01,1.298e+01,1.408e+01,1.190e+01,1.565e+01,1.500e+01,1.467e+01,1.470e+01,1.626e+01,1.303e+01,1.533e+01,1.673e+01,1.467e+01,1.516e+01,1.843e+01,1.514e+01,1.680e+01,1.574e+01,1.625e+01,1.589e+01,1.161e+01,1.316e+01,1.498e+01
2.835e-01,6.320e-01,8.639e-01,8.267e-01,9.619e-01,1.328e+00,9.818e-01,1.729e+00,1.514e+00,2.793e+00,3.004e+00,3.109e+00,1.731e+00,3.434e+00,3.937e+00,3.745e+00,3.226e+00,3.212e+00,4.067e+00,5.067e+00,4.202e+00,7.245e+00,3.985e+00,7.041e+00,4.577e+00,6.404e+00,7.493e+00,6.652e+00,4.999e+00,7.109e+00,6.241e+00,6.064e+00,7.544e+00,8.793e+00,8.462e+00,8.078e+00,8.515e+00,8.782e+00,8.626e+00,1.021e+01,1.023e+01,8.056e+00,1.095e+01,9.394e+00,1.051e+01,1.176e+01,1.195e+01,1.301e+01,1.204e+01,1.174e+01,1.348e+01,1.187e+01,1.277e+01,1.042e+01,1.059e+01,1.163e+01,1.250e+01,1.464e+01,1.279e+01,1.441e+01,1.312e+01,1.379e+01,1.338e+01,1.434e+01,1.434e+01,1.383e+01,1.469e+01,1.556e+01,1.518e+01,1.545e+01,1.443e+01,1.508e+01,1.558e+01,1.148e+01,1.206e+01,1.277e+01
2.215e-01,4.122e-01,3.576e-01,7.912e-01,8.742e-01,1.092e+00,8.365e-01,1.787e+00,1.545e+00,3.059e+00,2.571e+00,2.637e+00,1.831e+00,3.908e+00,3.779e+00,4.210e+00,3.706e+00,2.997e+00,4.470e+00,4.844e+00,5.082e+00,6.325e+00,4.179e+00,7.258e+00,5.746e+00,6.841e+00,9.159e+00,8.684e+00,6.453e+00,8.479e+00,6.738e+00,8.398e+00,9.426e+00,8.142e+00,9.259e+00,8.103e+00,9.470e+00,1.042e+01,9.211e+00,1.118e+01,1.050e+01,9.880e+00,1.317e+01,1.252e+01,1.085e+01,1.268e+01,1.277e+01,1.443e+01,1.447e+01,1.399e+01,1.575e+01,1.419e+01,1.307e+01,1.317e+01,1.260e+01,1.302e+01,1.411e+01,1.508e+01,1.442e+01,1.465e+01,1.545e+01,1.885e+01,1.580e+01,1.674e+01,1.704e+01,1.471e+01,1.769e+01,1.712e+01,1.743e+01,1.681e+01,1.619e+01,1.747e+01,1.789e+01,1.275e+01,1.474e+01,1.523e+01
2.688e-01,4.513e-01,9.271e-01,9.123e-01,1.259e+00,1.166e+00,1.217e+00,1.749e+00,1.865e+00,2.924e+00,2.534e+00,2.688e+00,1.512e+00,3.331e+00,3.256e+00,3.435e+00,2.923e+00,2.477e+00,4.372e+00,4.473e+00,3.478e+00,5.370e+00,3.065e+00,6.577e+00,4.826e+00,5.776e+00,7.559e+00,7.349e+00,4.715e+00,7.315e+00,6.342e+00,6.195e+00,7.559e+00,8.501e+00,8.395e+00,7.932e+00,8.607e+00,8.994e+00,8.485e+00,1.011e+01,1.044e+01,8.308e+00,1.142e+01,1.074e+01,1.144e+01,1.260e+01,1.320e+01,1.454e+01,1.337e+01,1.439e+01,1.547e+01,1.406e+01,1.370e+01,1.257e+01,1.262e+01,1.352e+01,1.297e+01,1.632e+01,1.384e+01,1.603e+01,1.353e+01,1.757e+01,1.516e+01,1.749e+01,1.600e+01,1.529e+01,1.695e+01,1.835e+01,1.784e+01,1.772e+01,1.507e+01,1.778e+01,1.702e+01,1.420e+01,1.480e+01,1.655e+01
7.302e-02,5.070e-01,8.561e-01,7.629e-01,1.727e+00,9.863e-01,1.220e+00,1.539e+00,2.207e+00,3.415e+00,2.682e+00,3.107e+00,1.914e+00,4.252e+00,3.490e+00,3.862e+00,3.506e+00,3.437e+00,4.752e+00,5.807e+00,4.318e+00,5.861e+00,3.404e+00,5.780e+00,3.774e+00,6.656e+00,7.403e+00,7.266e+00,5.193e+00,6.659e+00,6.360e+00,5.960e+00,7.879e+00,7.480e+00,8.226e+00,8.367e+00,8.493e+00,8.125e+00,9.405e+00,9.438e+00,8.896e+00,8.762e+00,1.025e+01,8.728e+00,1.144e+01,1.182e+01,1.189e+01,1.291e+01,1.246e+01,1.325e+01,1.399e+01,1.320e+01,1.323e+01,1.239e+01,1.101e+01,1.215e+01,1.121e+01,1.454e+01,1.212e+01,1.437e+01,1.289e+01,1.585e+01,1.238e+01,1.459e+01,1.409e+01,1.471e+01,1.506e+01,1.741e+01,1.589e+01,1.528e+01,1.395e+01,1.629e+01,1.583e+01,1.213e+01,1.308e+01,1.381e+01
2.011e-01,1.020e+00,1.115e+00,8.449e-01,1.537e+00,1.112e+00,1.180e+00,1.858e+00,1.979e+00,2.544e+00,2.553e+00,3.527e+00,1.428e+00,3.046e+00,3.690e+00,4.024e+00,3.239e+00,3.569e+00,4.786e+00,5.010e+00,5.194e+00,6.125e+00,3.362e+00,6.947e+00,5.101e+00,7.660e+00,9.411e+00,7.711e+00,5.805e+00,6.847e+00,6.827e+00,6.628e+00,7.812e+00,7.780e+00,8.085e+00,7.920e+00,8.161e+00,8.283e+00,8.965e+00,9.210e+00,8.920e+00,8.875e+00,1.037e+01,8.923e+00,1.030e+01,1.051e+01,1.256e+01,1.270e+01,1.103e+01,1.257e+01,1.432e+01,1.218e+01,1.355e+01,1.234e+01,1.283e+01,1.277e+01,1.235e+01,1.490e+01,1.343e+01,1.405e+01,1.467e+01,1.529e+01,1.377e+01,1.504e+01,1.610e+01,1.473e+01,1.743e+01,1.677e+01,1.381e+01,1.691e+01,1.492e+01,1.590e+01,1.479e+01,1.218e+01,1.297e+01,1.396e+01
3.691e-01,1.018e+00,6.690e-01,1.014e+00,8.407e-01,1.271e+00,8.832e-01,2.228e+00,1.596e+00,3.420e+00,3.334e+00,3.660e+00,1.925e+00,3.947e+00,4.320e+00,4.720e+00,3.535e+00,4.045e+00,5.409e+00,5.412e+00,4.839e+00,5.545e+00,3.959e+00,7.410e+00,5.021e+00,6.071e+00,8.174e+00,6.713e+00,6.199e+00,8.253e+00,7.233e+00,7.173e+00,8.098e+00,8.425e+00,8.395e+00,7.901e+00,8.926e+00,8.737e+00,8.056e+00,9.331e+00,1.017e+01,9.342e+00,1.100e+01,1.014e+01,1.007e+01,1.105e+01,1.175e+01,1.357e+01,1.230e+01,1.223e+01,1.447e+01,1.229e+01,1.304e+01,1.113e+01,1.065e+01,1.239e+01,1.086e+01,1.353e+01,1.267e+01,1.287e+01,1.380e+01,1.493e+01,1.254e+01,1.581e+01,1.651e+01,1.467e+01,1.605e+01,1.679e+01,1.482e+01,1.602e+01,1.567e+01,1.678e+01,1.623e+01,1.188e+01,1.279e+01,1.506e+01
3.734e-01,8.316e-01,7.835e-01,1.171e+00,1.286e+00,1.137e+00,1.262e+00,2.249e+00,2.225e+00,3.772e+00,2.983e+00,3.590e+00,2.046e+00,4.065e+00,3.892e+00,4.386e+00,3.478e+00,3.043e+00,4.912e+00,5.068e+00,5.247e+00,5.955e+00,3.069e+00,7.614e+00,5.336e+00,6.847e+00,8.912e+00,7.307e+00,5.846e+00,7.715e+00,5.847e+00,7.593e+00,8.549e+00,7.959e+00,8.860e+00,7.720e+00,8.341e+00,9.505e+00,7.897e+00,9.474e+00,1.002e+01,8.293e+00,1.111e+01,1.056e+01,1.127e+01,1.249e+01,1.243e+01,1.329e+01,1.309e+01,1.335e+01,1.541e+01,1.381e+01,1.378e+01,1.424e+01,1.122e+01,1.518e+01,1.237e+01,1.534e+01,1.435e+01,1.464e+01,1.529e+01,1.708e+01,1.391e+01,1.791e+01,1.892e+01,1.664e+01,1.685e+01,1.807e+01,1.809e+01,1.858e+01,1.725e+01,1.794e+01,1.760e+01,1.480e+01,1.555e+01,1.764e+01
2.047e-01,3.941e-01,5.916e-01,7.763e-01,1.125e+00,1.048e+00,1.036e+00,1.884e+00,2.125e+00,3.649e+00,3.502e+00,3.818e+00,2.264e+00,4.235e+00,4.327e+00,4.580e+00,3.964e+00,3.279e+00,5.369e+00,5.653e+00,4.902e+00,5.876e+00,3.559e+00,7.504e+00,5.650e+00,6.103e+00,8.139e+00,7.784e+00,5.761e+00,7.345e+00,5.693e+00,7.794e+00,8.727e+00,8.980e+00,9.291e+00,7.713e+00,8.576e+00,1.002e+01,8.585e+00,9.270e+00,1.073e+01,8.106e+00,1.064e+01,1.183e+01,1.012e+01,1.179e+01,1.176e+01,1.334e+01,1.162e+01,1.298e+01,1.617e+01,1.381e+01,1.320e+01,1.322e+01,1.174e+01,1.290e+01,1.309e+01,1.440e+01,1.283e+01,1.468e+01,1.445e+01,1.520e+01,1.361e+01,1.704e+01,1.736e+01,1.520e+01,1.847e+01,1.704e+01,1.684e+01,1.810e+01,1.730e+01,1.736e+01,1.749e+01,1.397e+01,1.439e+01,1.628e+01
3.486e-01,8.707e-01,5.815e-01,7.966e-01,4.828e-01,4.671e-01,6.367e-01,1.239e+00,9.823e-01,2.062e+00,2.302e+00,2.961e+00,1.512e+00,2.807e+00,3.646e+00,3.369e+00,2.534e+00,2.570e+00,3.608e+00,3.289e+00,3.558e+00,5.003e+00,3.088e+00,5.392e+00,4.170e+00,5.482e+00,6.454e+00,5.737e+00,4.808e+00,6.946e+00,4.754e+00,5.699e+00,5.891e+00,7.086e+00,7.624e+00,7.075e+00,7.714e+00,8.807e+00,6.995e+00,8.069e+00,7.777e+00,8.152e+00,9.483e+00,9.697e+00,8.960e+00,1.086e+01,1.108e+01,1.178e+01,1.194e+01,1.146e+01,1.276e+01,1.098e+01,1.124e+01,9.227e+00,1.141e+01,1.196e+01,1.100e+01,1.341e+01,1.186e+01,1.348e+01,1.326e+01,1.515e+01,1.318e+01,1.450e+01,1.626e+01,1.376e+01,1.577e+01,1.562e+01,1.716e+01,1.834e+01,1.623e+01,1.667e+01,1.606e+01,1.232e+01,1.417e+01,1.510e+01
1.788e-01,9.132e-01,6.653e-01,6.681e-01,9.596e-01,7.762e-01,7.206e-01,1.477e+00,1.308e+00,2.046e+00,2.330e+00,3.058e+00,1.665e+00,3.583e+00,3.938e+00,4.587e+00,3.821e+00,4.128e+00,4.740e+00,5.577e+00,5.526e+00,6.066e+00,4.252e+00,6.981e+00,5.068e+00,8.557e+00,9.761e+00,7.691e+00,6.814e+00,8.090e+00,7.311e+00,7.541e+00,8.638e+00,8.458e+00,9.497e+00,8.730e+00,9.264e+00,9.677e+00,9.794e+00,1.038e+01,1.024e+01,1.066e+01,1.254e+01,1.158e+01,1.253e+01,1.255e+01,1.342e+01,1.456e+01,1.341e+01,1.326e+01,1.572e+01,1.372e+01,1.369e+01,1.300e+01,1.290e+01,1.322e+01,1.329e+01,1.525e+01,1.473e+01,1.420e+01,1.587e+01,1.727e+01,1.475e+01,1.682e+01,1.759e+01,1.448e+01,1.863e+01,1.748e+01,1.680e+01,1.922e+01,1.625e+01,1.852e+01,1.791e+01,1.486e+01,1.503e+01,1.507e+01
2.758e-01,4.406e-01,5.431e-01,7.393e-01,7.557e-01,3.800e-01,8.551e-01,1.176e+00,1.818e+00,2.559e+00,1.751e+00,2.473e+00,1.389e+00,2.277e+00,2.611e+00,3.687e+00,2.124e+00,2.932e+00,4.326e+00,4.354e+00,4.087e+00,5.094e+00,3.538e+00,5.843e+00,3.745e+00,5.127e+00,6.277e+00,5.799e+00,5.190e+00,5.850e+00,4.539e+00,5.803e+00,7.163e+00,6.792e+00,7.123e+00,7.388e+00,7.420e+00,8.819e+00,8.179e+00,8.586e+00,8.823e+00,8.499e+00,9.622e+00,9.816e+00,9.631e+00,1.059e+01,1.013e+01,1.208e+01,1.187e+01,1.064e+01,1.304e+01,1.155e+01,1.094e+01,1.000e+01,1.127e+01,1.066e+01,1.131e+01,1.252e+01,1.199e+01,1.349e+01,1.305e+01,1.443e+01,1.278e+01,1.504e+01,1.529e+01,1.408e+01,1.617e+01,1.579e+01,1.625e+01,1.663e+01,1.721e+01,1.753e+01,1.703e+01,1.208e+01,1.315e+01,1.368e+01
1.426e-01,6.707e-01,9.650e-01,7.762e-01,1.502e+00,8.587e-01,1.134e+00,1.567e+00,1.586e+00,2.232e+00,2.254e+00,2.769e+00,1.201e+00,3.213e+00,3.650e+00,3.969e+00,3.328e+00,3.406e+00,5.551e+00,5.062e+00,4.943e+00,7.298e+00,3.759e+00,6.746e+00,4.622e+00,7.418e+00,9.211e+00,7.163e+00,5.692e+00,7.626e+00,6.551e+00,6.096e+00,6.870e+00,8.456e+00,8.152e+00,8.042e+00,8.172e+00,8.408e+00,8.442e+00,8.865e+00,9.280e+00,7.996e+00,1.148e+01,9.571e+00,1.104e+01,1.133e+01,1.251e+01,1.407e+01,1.262e+01,1.287e+01,1.403e+01,1.289e+01,1.272e+01,1.224e+01,1.272e+01,1.247e+01,1.248e+01,1.446e+01,1.271e+01,1.398e+01,1.326e+01,1.584e+01,1.334e+01,1.661e+01,1.661e+01,1.519e+01,1.741e+01,1.663e+01,1.703e+01,1.764e+01,1.759e+01,1.890e+01,1.882e+01,1.485e+01,1.525e+01,1.531e+01
3.352e-01,1.299e+00,1.154e+00,1.144e+00,1.559e+00,1.315e+00,1.301e+00,2.383e+00,1.984e+00,2.467e+00,1.971e+00,2.986e+00,1.210e+00,3.016e+00,3.275e+00,4.254e+00,3.290e+00,3.595e+00,4.910e+00,4.845e+00,5.893e+00,6.170e+00,3.386e+00,7.278e+00,5.319e+00,7.048e+00,9.545e+00,7.190e+00,6.499e+00,7.878e+00,7.076e+00,7.775e+00,8.248e+00,7.953e+00,8.821e+00,7.984e+00,8.941e+00,9.291e+00,8.297e+00,1.031e+01,1.029e+01,9.740e+00,1.208e+01,1.065e+01,1.147e+01,1.170e+01,1.197e+01,1.361e+01,1.288e+01,1.394e+01,1.490e+01,1.285e+01,1.514e+01,1.310e+01,1.200e+01,1.329e+01,1.339e+01,1.545e+01,1.442e+01,1.425e+01,1.626e+01,1.606e+01,1.478e+01,1.630e+01,1.832e+01,1.524e+01,1.838e+01,1.722e+01,1.695e+01,1.970e+01,1.854e+01,1.900e+01,1.924e+01,1.627e+01,1.738e+01,1.614e+01
3.822e-01,7.393e-01,5.022e-01,8.028e-01,3.485e-01,5.505e-01,6.289e-01,1.149e+00,1.169e+00,1.944e+00,1.634e+00,2.310e+00,1.399e+00,2.123e+00,2.509e+00,3.049e+00,2.109e+00,3.069e+00,2.876e+00,3.557e+00,3.986e+00,6.144e+00,3.708e+00,7.007e+00,4.340e+00,6.097e+00,7.641e+00,6.088e+00,5.837e+00,7.171e+00,5.733e+00,6.701e+00,8.375e+00,7.119e+00,8.366e+00,8.141e+00,7.553e+00,9.190e+00,8.214e+00,9.513e+00,9.526e+00,8.661e+00,1.162e+01,1.106e+01,1.145e+01,1.268e+01,1.210e+01,1.267e+01,1.340e+01,1.250e+01,1.443e+01,1.140e+01,1.248e+01,1.163e+01,1.245e+01,1.396e+01,1.251e+01,1.482e+01,1.282e+01,1.432e+01,1.435e+01,1.679e+01,1.421e+01,1.717e+01,1.719e+01,1.421e+01,1.716e+01,1.718e+01,1.834e+01,1.908e+01,1.709e+01,1.942e+01,1.762e+01,1.532e+01,1.604e+01,1.697e+01
3.774e-01,1.453e+00,1.011e+00,1.116e+00,1.278e+00,1.685e+00,1.137e+00,2.786e+00,2.212e+00,4.163e+00,3.332e+00,4.172e+00,2.522e+00,5.052e+00,4.818e+00,4.699e+00,4.564e+00,3.332e+00,5.107e+00,5.911e+00,5.560e+00,7.202e+00,4.514e+00,8.555e+00,6.007e+00,7.693e+00,9.561e+00,7.046e+00,6.198e+00,8.800e+00,7.380e+00,8.259e+00,8.141e+00,9.505e+00,9.141e+00,8.392e+00,9.848e+00,1.042e+01,8.933e+00,1.074e+01,1.130e+01,1.024e+01,1.204e+01,1.223e+01,1.208e+01,1.322e+01,1.303e+01,1.542e+01,1.414e+01,1.486e+01,1.416e+01,1.380e+01,1.428e+01,1.411e+01,1.374e+01,1.519e+01,1.258e+01,1.550e+01,1.531e+01,1.528e+01,1.666e+01,1.825e+01,1.487e+01,1.811e+01,1.853e+01,1.602e+01,1.782e+01,1.912e+01,1.872e+01,1.998e+01,1.961e+01,2.044e+01,1.960e+01,1.856e+01,1.750e+01,1.823e+01
3.343e-01,8.736e-01,9.670e-01,1.058e+00,1.398e+00,9.286e-01,1.307e+00,1.976e+00,2.225e+00,3.435e+00,2.217e+00,3.258e+00,1.746e+00,3.407e+00,3.494e+00,4.240e+00,3.624e+00,3.388e+00,5.031e+00,4.732e+00,5.378e+00,6.994e+00,3.308e+00,6.552e+00,4.432e+00,7.706e+00,9.020e+00,8.300e+00,6.531e+00,8.142e+00,6.725e+00,7.704e+00,9.772e+00,9.230e+00,9.768e+00,9.747e+00,9.849e+00,1.135e+01,9.548e+00,1.156e+01,1.047e+01,1.004e+01,1.254e+01,1.127e+01,1.211e+01,1.284e+01,1.371e+01,1.409e+01,1.435e+01,1.519e+01,1.694e+01,1.573e+01,1.608e+01,1.402e+01,1.303e+01,1.402e+01,1.391e+01,1.610e+01,1.485e+01,1.579e+01,1.482e+01,1.741e+01,1.633e+01,1.751e+01,1.820e+01,1.732e+01,1.956e+01,1.892e+01,1.802e+01,1.950e+01,1.895e+01,1.945e+01,1.993e+01,1.754e+01,1.787e+01,1.787e+01
2.931e-01,7.125e-01,8.084e-01,7.345e-01,7.319e-01,1.043e+00,8.227e-01,1.733e+00,1.503e+00,2.535e+00,2.863e+00,3.189e+00,1.860e+00,3.463e+00,4.086e+00,4.572e+00,4.001e+00,4.167e+00,5.065e+00,4.962e+00,5.192e+00,7.242e+00,4.217e+00,8.123e+00,5.122e+00,7.548e+00,8.804e+00,6.565e+00,6.075e+00,7.021e+00,6.703e+00,6.185e+00,8.670e+00,8.417e+00,8.382e+00,7.915e+00,8.969e+00,9.252e+00,9.018e+00,9.789e+00,1.060e+01,9.489e+00,1.070e+01,1.133e+01,1.001e+01,1.103e+01,1.200e+01,1.313e+01,1.239e+01,1.218e+01,1.463e+01,1.164e+01,1.393e+01,1.129e+01,1.164e+01,1.315e+01,1.222e+01,1.455e+01,1.382e+01,1.449e+01,1.594e+01,1.611e+01,1.418e+01,1.769e+01,1.664e+01,1.508e+01,1.925e+01,1.715e+01,1.730e+01,1.776e+01,1.878e+01,1.889e+01,1.842e+01,1.512e+01,1.738e+01,1.804e+01
