7.922e-01,1.065e-01,4.755e-01,2.999e-01,1.663e-01,3.340e-01,9.420e-01,7.177e-01,3.991e-01,4.290e-01,9.843e-01,9.591e-01,9.064e-02,3.050e-01,9.609e-01,6.347e-01,8.805e-01,5.124e-01,4.598e-01,7.171e-01,3.108e-01,7.950e-01,3.389e-01,9.914e-01,5.684e-01,3.178e-01,2.470e-01,5.229e-01,4.657e-01,9.087e-01,9.680e-01,3.960e-01,4.334e-01,5.792e-01,4.651e-01,8.060e-01,7.440e-02,8.160e-01,6.319e-02,1.319e-01,7.935e-02,3.961e-01,8.327e-01,5.802e-01,4.238e-01,7.044e-01,5.257e-01,2.660e-01,2.372e-01,4.473e-01,1.379e-02,1.810e-01,9.704e-01,4.519e-01,9.640e-01,7.536e-01,6.473e-01,8.478e-01,1.416e-02,6.821e-01,6.603e-01,7.589e-01,8.812e-01,1.956e-01,6.061e-01,4.203e-01,6.906e-01,6.083e-02,8.903e-01,1.670e-02,2.641e-01
6.126e-01,1.316e-01,5.045e-01,1.227e+00,1.034e+00,7.319e-01,1.529e+00,1.539e+00,6.035e-01,9.587e-01,1.380e+00,1.356e+00,8.669e-01,1.155e+00,1.056e+00,5.053e-01,1.016e+00,8.632e-01,1.125e+00,1.274e+00,7.694e-01,1.464e+00,3.913e-01,1.623e+00,1.310e+00,3.641e-01,6.585e-01,7.551e-01,5.585e-01,9.251e-01,1.687e+00,6.429e-01,8.222e-01,8.024e-01,1.224e+00,1.439e+00,1.780e-01,1.608e+00,8.308e-02,5.081e-01,2.473e-01,5.158e-01,1.104e+00,4.763e-01,3.511e-01,5.500e-01,9.072e-01,4.432e-01,5.886e-01,1.333e+00,5.920e-01,3.674e-01,1.147e+00,1.148e+00,1.547e+00,1.071e+00,1.111e+00,9.727e-01,4.990e-01,1.225e+00,5.339e-01,1.236e+00,1.518e+00,8.711e-01,4.740e-01,5.883e-01,5.507e-01,1.727e-01,1.063e+00,3.668e-01,4.205e-01
3.495e-01,6.729e-02,3.517e-01,1.169e+00,6.883e-01,1.185e+00,1.745e+00,1.600e+00,1.018e+00,9.684e-01,8.009e-01,1.187e+00,4.783e-01,8.271e-01,7.970e-01,3.535e-01,1.301e+00,1.283e+00,7.512e-01,1.572e+00,3.677e-01,1.560e+00,1.056e+00,1.128e+00,1.605e+00,3.711e-01,3.658e-01,7.081e-01,4.710e-01,1.285e+00,1.054e+00,5.663e-01,5.398e-01,5.509e-01,6.934e-01,1.235e+00,7.776e-01,1.269e+00,8.449e-02,1.071e+00,2.186e-01,4.147e-01,1.083e+00,9.522e-01,9.723e-01,3.346e-01,9.497e-01,6.210e-01,4.240e-01,7.336e-01,7.518e-01,1.121e+00,6.612e-01,1.070e+00,1.655e+00,1.225e+00,1.473e+00,7.141e-01,1.184e+00,1.371e+00,1.072e+00,8.622e-01,1.461e+00,1.099e+00,6.336e-01,8.782e-01,9.761e-01,7.419e-01,1.018e+00,7.648e-01,4.999e-01
4.903e-01,6.904e-02,3.268e-01,7.705e-01,6.447e-01,1.358e+00,9.498e-01,1.249e+00,1.008e+00,1.261e+00,1.362e+00,1.683e+00,2.405e-01,3.814e-01,9.543e-01,5.317e-01,1.023e+00,7.290e-01,7.394e-01,8.150e-01,1.204e+00,9.358e-01,1.300e+00,1.054e+00,9.012e-01,1.071e+00,2.743e-01,6.240e-01,1.100e+00,1.051e+00,1.436e+00,9.556e-01,4.348e-01,8.986e-01,8.155e-01,1.388e+00,1.192e+00,1.700e+00,3.173e-01,8.311e-01,1.074e+00,9.819e-01,1.463e+00,7.927e-01,6.664e-01,4.922e-01,1.050e+00,1.013e+00,8.728e-01,4.895e-01,9.512e-01,6.078e-01,6.978e-01,7.312e-01,1.175e+00,1.649e+00,1.556e+00,6.681e-01,7.304e-01,1.450e+00,1.127e+00,5.978e-01,1.090e+00,4.608e-01,8.020e-01,6.269e-01,8.559e-01,7.567e-01,1.607e+00,8.538e-01,9.889e-01
6.364e-01,9.277e-02,4.794e-01,1.118e+00,8.671e-01,2.388e+00,2.403e+00,2.427e+00,2.018e+00,2.236e+00,1.815e+00,2.749e+00,7.746e-01,1.505e+00,1.908e+00,9.751e-01,1.908e+00,1.524e+00,9.558e-01,2.011e+00,9.968e-01,2.041e+00,1.998e+00,1.523e+00,2.100e+00,9.184e-01,1.219e+00,9.894e-01,1.460e+00,2.513e+00,2.094e+00,1.010e+00,6.440e-01,1.327e+00,1.358e+00,2.147e+00,1.861e+00,2.681e+00,8.930e-01,2.122e+00,7.211e-01,1.230e+00,2.493e+00,1.758e+00,1.929e+00,1.346e+00,2.081e+00,9.718e-01,1.065e+00,1.575e+00,9.690e-01,1.854e+00,1.320e+00,1.407e+00,1.922e+00,2.130e+00,2.664e+00,1.289e+00,1.636e+00,2.140e+00,2.006e+00,1.602e+00,1.736e+00,1.329e+00,1.590e+00,1.944e+00,1.348e+00,1.258e+00,1.877e+00,1.748e+00,8.616e-01
3.592e-02,2.964e-02,1.136e-01,8.690e-01,7.626e-01,1.824e+00,1.000e+00,1.861e+00,7.349e-01,1.454e+00,1.233e+00,1.184e+00,1.271e+00,1.015e+00,1.197e+00,4.166e-01,8.359e-01,1.059e+00,8.887e-01,1.095e+00,1.149e+00,1.748e+00,1.339e+00,1.406e+00,1.330e+00,6.698e-01,6.672e-01,5.723e-01,7.215e-01,1.412e+00,1.337e+00,1.473e+00,1.253e+00,1.220e+00,1.201e+00,1.559e+00,9.507e-01,1.896e+00,6.452e-01,1.606e+00,9.515e-01,1.457e+00,1.687e+00,6.085e-01,4.526e-01,9.629e-01,1.146e+00,6.629e-01,6.973e-01,1.462e+00,1.007e+00,1.354e+00,7.681e-01,8.464e-01,1.300e+00,1.616e+00,1.875e+00,8.650e-01,9.886e-01,1.404e+00,8.196e-01,1.458e+00,1.758e+00,1.295e+00,6.067e-01,4.751e-01,7.244e-01,9.433e-01,1.368e+00,1.637e+00,6.409e-01
3.882e-01,7.438e-02,3.753e-01,1.284e+00,9.180e-01,2.102e+00,2.870e+00,2.893e+00,2.298e+00,2.764e+00,2.081e+00,2.750e+00,1.630e+00,2.250e+00,1.759e+00,7.877e-01,2.087e+00,2.428e+00,1.722e+00,2.925e+00,1.569e+00,2.900e+00,2.020e+00,1.828e+00,2.170e+00,1.608e+00,1.403e+00,1.832e+00,1.251e+00,2.618e+00,2.392e+00,2.017e+00,1.811e+00,1.969e+00,2.022e+00,2.653e+00,1.973e+00,3.030e+00,8.426e-01,2.773e+00,1.142e+00,1.477e+00,2.550e+00,1.482e+00,1.748e+00,1.587e+00,1.661e+00,1.705e+00,1.703e+00,2.125e+00,1.579e+00,2.448e+00,2.057e+00,2.198e+00,2.864e+00,2.325e+00,2.462e+00,1.648e+00,2.088e+00,2.722e+00,1.838e+00,2.270e+00,2.931e+00,1.668e+00,1.695e+00,1.975e+00,2.191e+00,1.418e+00,1.680e+00,1.673e+00,1.635e+00
2.979e-01,4.125e-02,1.828e-01,4.779e-01,6.690e-01,1.951e+00,1.133e+00,1.782e+00,2.191e+00,2.727e+00,1.757e+00,2.997e+00,8.750e-01,1.727e+00,1.902e+00,8.975e-01,1.006e+00,8.885e-01,1.333e+00,1.588e+00,2.118e+00,1.416e+00,2.329e+00,1.055e+00,1.250e+00,1.486e+00,1.728e+00,7.959e-01,2.403e+00,1.704e+00,2.398e+00,1.991e+00,1.100e+00,1.616e+00,1.310e+00,2.114e+00,2.079e+00,2.945e+00,1.360e+00,1.977e+00,1.870e+00,1.592e+00,2.928e+00,2.005e+00,2.065e+00,1.236e+00,2.587e+00,1.646e+00,1.895e+00,2.242e+00,1.652e+00,1.683e+00,1.264e+00,1.520e+00,1.256e+00,2.072e+00,2.058e+00,1.005e+00,1.470e+00,2.003e+00,1.754e+00,1.449e+00,1.653e+00,7.860e-01,1.848e+00,1.553e+00,1.336e+00,1.833e+00,1.693e+00,2.141e+00,1.892e+00
5.463e-01,1.096e-01,4.375e-01,1.067e+00,1.012e+00,1.877e+00,2.459e+00,2.775e+00,3.029e+00,3.138e+00,3.272e+00,3.535e+00,2.660e+00,3.223e+00,3.056e+00,1.583e+00,2.414e+00,2.588e+00,2.033e+00,2.958e+00,2.163e+00,3.531e+00,2.499e+00,2.488e+00,2.701e+00,1.460e+00,2.117e+00,2.013e+00,2.304e+00,2.530e+00,3.565e+00,2.512e+00,2.365e+00,2.529e+00,2.884e+00,2.981e+00,1.707e+00,3.521e+00,1.243e+00,2.502e+00,2.060e+00,2.565e+00,3.072e+00,1.862e+00,2.610e+00,2.482e+00,2.725e+00,1.853e+00,2.231e+00,3.188e+00,2.366e+00,3.043e+00,2.589e+00,2.948e+00,2.766e+00,2.788e+00,2.642e+00,2.750e+00,2.565e+00,2.891e+00,2.256e+00,2.944e+00,3.030e+00,2.178e+00,1.864e+00,2.549e+00,2.029e+00,1.653e+00,2.590e+00,2.668e+00,1.861e+00
1.673e-01,3.185e-02,1.859e-01,1.015e+00,8.212e-01,2.636e+00,2.171e+00,3.065e+00,3.340e+00,4.753e+00,2.954e+00,3.959e+00,2.998e+00,3.553e+00,2.838e+00,1.789e+00,2.616e+00,3.003e+00,2.598e+00,3.890e+00,3.948e+00,3.794e+00,4.253e+00,3.074e+00,3.231e+00,2.990e+00,2.132e+00,2.234e+00,3.747e+00,3.060e+00,3.818e+00,4.120e+00,3.311e+00,2.804e+00,2.468e+00,3.676e+00,3.414e+00,4.356e+00,1.928e+00,3.569e+00,3.456e+00,3.401e+00,3.870e+00,3.459e+00,3.723e+00,2.814e+00,3.198e+00,2.922e+00,3.007e+00,3.684e+00,3.163e+00,3.692e+00,2.783e+00,3.891e+00,3.376e+00,3.441e+00,3.525e+00,2.823e+00,3.206e+00,3.542e+00,2.785e+00,3.649e+00,4.581e+00,2.983e+00,3.062e+00,2.408e+00,2.969e+00,3.277e+00,3.532e+00,4.126e+00,3.684e+00
1.816e-01,5.331e-02,2.413e-01,1.095e+00,9.203e-01,1.890e+00,1.808e+00,2.129e+00,2.257e+00,2.609e+00,2.677e+00,2.692e+00,2.346e+00,3.051e+00,2.429e+00,1.848e+00,2.650e+00,2.696e+00,2.044e+00,2.815e+00,1.857e+00,3.135e+00,2.590e+00,2.222e+00,3.355e+00,1.257e+00,2.269e+00,1.943e+00,2.961e+00,2.447e+00,3.421e+00,2.115e+00,2.279e+00,1.476e+00,2.660e+00,2.400e+00,2.160e+00,2.698e+00,1.670e+00,2.427e+00,1.604e+00,2.583e+00,2.649e+00,2.926e+00,2.806e+00,2.344e+00,3.189e+00,1.806e+00,1.792e+00,2.581e+00,2.463e+00,2.532e+00,1.826e+00,3.303e+00,2.149e+00,2.561e+00,2.751e+00,2.992e+00,3.227e+00,2.969e+00,1.945e+00,2.925e+00,2.800e+00,2.493e+00,2.080e+00,2.114e+00,1.245e+00,2.631e+00,2.708e+00,2.996e+00,2.092e+00
5.845e-01,1.049e-01,4.542e-01,1.172e+00,1.059e+00,2.073e+00,2.330e+00,2.704e+00,3.275e+00,3.993e+00,3.128e+00,4.447e+00,2.790e+00,4.151e+00,3.188e+00,2.363e+00,3.529e+00,3.431e+00,3.216e+00,4.261e+00,4.082e+00,3.769e+00,3.859e+00,3.852e+00,3.757e+00,2.623e+00,3.102e+00,2.882e+00,3.730e+00,3.374e+00,4.690e+00,3.000e+00,3.298e+00,3.288e+00,3.235e+00,3.985e+00,3.616e+00,4.665e+00,1.933e+00,2.845e+00,3.685e+00,3.514e+00,3.615e+00,3.838e+00,4.325e+00,2.678e+00,3.490e+00,2.418e+00,3.434e+00,4.347e+00,3.700e+00,3.091e+00,2.735e+00,4.300e+00,3.568e+00,3.251e+00,3.829e+00,2.820e+00,3.027e+00,3.405e+00,2.900e+00,3.268e+00,3.685e+00,3.179e+00,3.632e+00,3.579e+00,2.940e+00,3.059e+00,4.195e+00,4.029e+00,2.891e+00
2.709e-01,5.746e-02,2.947e-01,1.099e+00,8.447e-01,2.152e+00,2.289e+00,2.479e+00,2.035e+00,3.260e+00,2.359e+00,2.865e+00,2.642e+00,3.859e+00,2.441e+00,2.263e+00,3.143e+00,3.311e+00,3.240e+00,4.010e+00,3.283e+00,3.959e+00,3.677e+00,2.812e+00,3.595e+00,2.596e+00,2.810e+00,2.294e+00,3.311e+00,3.743e+00,3.766e+00,3.256e+00,3.559e+00,2.298e+00,2.573e+00,2.970e+00,2.886e+00,3.949e+00,2.337e+00,3.742e+00,2.268e+00,3.265e+00,3.436e+00,4.442e+00,3.262e+00,3.275e+00,3.998e+00,2.677e+00,2.583e+00,3.878e+00,2.839e+00,2.527e+00,3.223e+00,3.651e+00,2.722e+00,2.836e+00,3.486e+00,3.708e+00,3.016e+00,3.116e+00,2.387e+00,3.771e+00,4.305e+00,3.736e+00,3.444e+00,3.116e+00,1.782e+00,3.030e+00,3.012e+00,3.650e+00,3.093e+00
3.673e-01,6.446e-02,2.940e-01,7.798e-01,7.396e-01,2.345e+00,2.382e+00,2.940e+00,2.802e+00,3.776e+00,2.986e+00,3.915e+00,2.896e+00,4.901e+00,3.647e+00,2.942e+00,4.299e+00,3.979e+00,4.651e+00,5.152e+00,4.759e+00,4.917e+00,3.699e+00,4.134e+00,3.627e+00,3.224e+00,3.909e+00,3.896e+00,4.515e+00,4.247e+00,5.519e+00,4.428e+00,4.401e+00,3.844e+00,4.065e+00,4.804e+00,4.460e+00,5.117e+00,3.049e+00,4.165e+00,3.239e+00,4.711e+00,4.319e+00,4.649e+00,3.937e+00,3.677e+00,3.942e+00,2.988e+00,4.268e+00,5.596e+00,4.477e+00,4.169e+00,3.783e+00,4.837e+00,4.162e+00,3.897e+00,4.018e+00,4.038e+00,4.044e+00,4.062e+00,3.446e+00,3.942e+00,5.188e+00,3.795e+00,4.509e+00,3.924e+00,3.310e+00,4.041e+00,4.296e+00,4.619e+00,3.625e+00
6.849e-01,9.824e-02,5.106e-01,1.181e+00,8.605e-01,2.646e+00,3.133e+00,3.312e+00,3.461e+00,3.811e+00,3.391e+00,4.367e+00,2.380e+00,4.101e+00,4.413e+00,3.184e+00,5.066e+00,4.214e+00,4.214e+00,5.590e+00,4.299e+00,5.621e+00,4.087e+00,4.427e+00,4.518e+00,3.414e+00,3.289e+00,3.718e+00,4.199e+00,5.063e+00,5.611e+00,4.103e+00,3.640e+00,3.476e+00,4.088e+00,5.442e+00,4.279e+00,5.408e+00,2.752e+00,4.737e+00,3.807e+00,4.402e+00,4.444e+00,4.705e+00,4.420e+00,3.753e+00,3.799e+00,3.644e+00,3.980e+00,4.731e+00,4.449e+00,4.398e+00,3.868e+00,5.218e+00,4.320e+00,5.034e+00,4.131e+00,3.827e+00,4.483e+00,5.235e+00,3.739e+00,3.967e+00,4.946e+00,3.156e+00,4.526e+00,4.214e+00,3.600e+00,4.542e+00,4.586e+00,3.878e+00,4.377e+00
7.968e-02,5.835e-02,2.274e-01,1.419e+00,1.154e+00,1.479e+00,2.097e+00,2.417e+00,2.169e+00,2.878e+00,1.830e+00,2.915e+00,2.465e+00,4.168e+00,2.888e+00,2.672e+00,4.753e+00,3.881e+00,4.927e+00,5.676e+00,5.342e+00,5.669e+00,4.359e+00,4.179e+00,4.382e+00,4.175e+00,3.456e+00,3.581e+00,3.265e+00,4.665e+00,5.080e+00,4.247e+00,4.797e+00,3.857e+00,3.532e+00,5.217e+00,3.618e+00,5.941e+00,2.867e+00,4.399e+00,5.043e+00,4.649e+00,3.490e+00,4.470e+00,4.212e+00,2.788e+00,3.682e+00,3.874e+00,4.582e+00,5.644e+00,5.628e+00,3.549e+00,3.722e+00,4.764e+00,4.298e+00,4.512e+00,3.672e+00,3.525e+00,3.804e+00,3.715e+00,3.006e+00,3.122e+00,5.179e+00,4.797e+00,4.548e+00,4.002e+00,2.833e+00,3.743e+00,3.903e+00,4.008e+00,4.699e+00
7.703e-01,1.136e-01,5.382e-01,1.080e+00,8.827e-01,2.844e+00,2.756e+00,3.427e+00,3.483e+00,4.101e+00,3.949e+00,4.558e+00,3.006e+00,4.420e+00,4.465e+00,3.187e+00,5.289e+00,5.134e+00,5.008e+00,5.232e+00,4.881e+00,6.243e+00,5.027e+00,4.967e+00,5.015e+00,3.956e+00,4.136e+00,4.558e+00,5.601e+00,4.977e+00,5.882e+00,4.753e+00,4.540e+00,4.040e+00,5.045e+00,5.962e+00,4.213e+00,5.823e+00,3.153e+00,4.491e+00,4.437e+00,5.855e+00,5.834e+00,4.684e+00,4.344e+00,4.429e+00,4.872e+00,3.569e+00,4.320e+00,5.722e+00,5.049e+00,4.768e+00,4.730e+00,5.186e+00,4.575e+00,4.978e+00,4.731e+00,4.945e+00,5.237e+00,4.842e+00,3.968e+00,4.670e+00,5.483e+00,4.371e+00,4.604e+00,4.591e+00,4.438e+00,4.446e+00,5.416e+00,5.542e+00,4.679e+00
4.385e-01,1.046e-01,4.355e-01,1.496e+00,1.315e+00,2.197e+00,2.870e+00,3.125e+00,2.731e+00,3.694e+00,2.686e+00,3.820e+00,2.642e+00,4.499e+00,3.525e+00,2.674e+00,4.170e+00,4.313e+00,5.387e+00,5.839e+00,5.095e+00,5.569e+00,4.804e+00,4.201e+00,4.595e+00,4.315e+00,3.974e+00,4.022e+00,4.243e+00,4.867e+00,5.813e+00,5.003e+00,4.931e+00,4.262e+00,4.130e+00,5.707e+00,3.792e+00,6.571e+00,3.492e+00,5.457e+00,4.653e+00,4.109e+00,5.159e+00,5.273e+00,4.879e+00,3.498e+00,4.836e+00,4.079e+00,4.267e+00,6.155e+00,4.958e+00,3.850e+00,4.639e+00,4.954e+00,4.781e+00,4.772e+00,4.434e+00,3.930e+00,3.707e+00,4.796e+00,3.210e+00,4.737e+00,5.360e+00,4.933e+00,4.563e+00,5.054e+00,2.781e+00,4.207e+00,3.716e+00,3.911e+00,4.554e+00
1.990e-01,2.727e-02,1.981e-01,7.495e-01,4.384e-01,1.976e+00,2.065e+00,2.420e+00,2.172e+00,2.838e+00,2.165e+00,2.746e+00,2.406e+00,4.074e+00,3.522e+00,3.244e+00,5.642e+00,5.545e+00,6.994e+00,6.913e+00,5.826e+00,7.634e+00,5.900e+00,5.517e+00,5.169e+00,5.658e+00,4.790e+00,5.322e+00,5.462e+00,6.620e+00,6.416e+00,5.916e+00,6.269e+00,4.663e+00,5.477e+00,7.231e+00,5.247e+00,6.999e+00,4.165e+00,6.609e+00,6.259e+00,6.860e+00,6.019e+00,5.960e+00,5.648e+00,4.622e+00,4.880e+00,4.709e+00,5.034e+00,6.665e+00,6.989e+00,5.633e+00,5.872e+00,5.900e+00,5.639e+00,5.577e+00,5.301e+00,5.880e+00,5.830e+00,5.460e+00,4.700e+00,5.457e+00,6.726e+00,6.149e+00,5.628e+00,6.429e+00,4.493e+00,6.015e+00,5.530e+00,5.449e+00,6.024e+00
1.543e-01,5.132e-02,2.622e-01,1.312e+00,9.719e-01,2.192e+00,2.839e+00,3.095e+00,3.246e+00,4.100e+00,2.928e+00,3.834e+00,3.151e+00,4.997e+00,3.311e+00,2.876e+00,5.208e+00,5.436e+00,5.540e+00,6.513e+00,5.942e+00,6.709e+00,5.892e+00,5.412e+00,6.165e+00,4.965e+00,4.663e+00,5.608e+00,5.940e+00,4.836e+00,6.325e+00,5.731e+00,5.773e+00,4.922e+00,5.460e+00,6.405e+00,5.457e+00,6.418e+00,4.583e+00,5.254e+00,5.370e+00,5.219e+00,5.663e+00,5.311e+00,5.995e+00,4.063e+00,5.252e+00,4.435e+00,5.343e+00,6.625e+00,5.928e+00,5.450e+00,5.280e+00,6.224e+00,5.896e+00,5.171e+00,5.625e+00,5.039e+00,5.612e+00,5.348e+00,4.604e+00,5.053e+00,6.457e+00,6.015e+00,5.801e+00,5.143e+00,4.838e+00,5.786e+00,5.317e+00,5.517e+00,5.312e+00
5.775e-02,2.517e-02,1.074e-01,7.503e-01,7.661e-01,1.760e+00,1.449e+00,1.927e+00,2.291e+00,2.843e+00,2.072e+00,2.830e+00,2.164e+00,3.296e+00,3.160e+00,2.509e+00,3.799e+00,3.363e+00,4.639e+00,4.829e+00,5.397e+00,5.828e+00,5.032e+00,4.303e+00,4.438e+00,5.064e+00,3.640e+00,3.652e+00,4.838e+00,5.369e+00,5.801e+00,4.369e+00,4.698e+00,4.021e+00,4.088e+00,5.834e+00,4.061e+00,6.014e+00,3.382e+00,5.888e+00,5.898e+00,4.891e+00,5.046e+00,5.217e+00,5.058e+00,3.740e+00,4.182e+00,3.894e+00,4.103e+00,5.267e+00,5.464e+00,4.409e+00,4.555e+00,4.705e+00,3.890e+00,5.315e+00,4.511e+00,4.575e+00,4.008e+00,5.064e+00,3.881e+00,4.479e+00,4.594e+00,5.366e+00,4.869e+00,5.374e+00,3.585e+00,4.939e+00,5.113e+00,4.322e+00,5.245e+00
5.155e-01,9.376e-02,4.559e-01,1.610e+00,1.247e+00,3.079e+00,2.596e+00,3.367e+00,2.495e+00,3.966e+00,3.281e+00,3.901e+00,3.004e+00,4.384e+00,3.539e+00,3.312e+00,5.709e+00,5.091e+00,5.971e+00,6.406e+00,6.208e+00,7.974e+00,6.659e+00,7.091e+00,6.114e+00,6.173e+00,5.128e+00,5.295e+00,6.915e+00,7.372e+00,7.866e+00,6.026e+00,6.791e+00,5.519e+00,5.849e+00,7.991e+00,6.389e+00,8.101e+00,4.104e+00,6.554e+00,6.061e+00,7.369e+00,6.312e+00,6.862e+00,6.330e+00,5.252e+00,5.241e+00,4.763e+00,4.972e+00,6.764e+00,7.098e+00,6.046e+00,5.767e+00,6.948e+00,6.632e+00,6.197e+00,6.534e+00,6.474e+00,6.424e+00,6.634e+00,5.214e+00,6.553e+00,6.894e+00,6.649e+00,6.076e+00,6.051e+00,4.992e+00,6.322e+00,7.580e+00,6.694e+00,6.387e+00
1.714e-02,4.591e-02,1.789e-01,1.539e+00,1.423e+00,3.027e+00,1.937e+00,3.171e+00,2.583e+00,3.646e+00,2.432e+00,3.615e+00,2.823e+00,4.168e+00,3.788e+00,2.848e+00,5.011e+00,4.682e+00,5.718e+00,5.790e+00,7.122e+00,7.325e+00,7.251e+00,6.725e+00,6.568e+00,6.063e+00,4.989e+00,5.915e+00,6.693e+00,7.050e+00,7.212e+00,5.977e+00,6.732e+00,6.712e+00,5.661e+00,8.687e+00,6.379e+00,8.868e+00,5.605e+00,6.904e+00,8.118e+00,7.007e+00,6.955e+00,6.840e+00,6.327e+00,4.779e+00,6.206e+00,5.440e+00,6.070e+00,7.966e+00,7.591e+00,6.282e+00,5.969e+00,6.325e+00,5.812e+00,6.811e+00,7.383e+00,5.412e+00,5.833e+00,6.788e+00,5.002e+00,5.683e+00,6.201e+00,7.549e+00,6.322e+00,6.108e+00,5.485e+00,6.970e+00,7.088e+00,6.864e+00,6.800e+00
4.155e-01,6.281e-02,3.104e-01,9.374e-01,7.995e-01,2.501e+00,1.560e+00,2.421e+00,2.081e+00,3.000e+00,2.655e+00,3.278e+00,2.419e+00,3.615e+00,3.125e+00,2.833e+00,4.533e+00,4.714e+00,5.655e+00,5.456e+00,6.719e+00,6.664e+00,6.712e+00,6.223e+00,6.467e+00,6.491e+00,5.153e+00,6.152e+00,6.525e+00,6.944e+00,7.869e+00,5.907e+00,7.075e+00,6.728e+00,5.549e+00,7.632e+00,6.806e+00,7.750e+00,5.158e+00,6.226e+00,7.965e+00,6.527e+00,7.054e+00,6.874e+00,6.030e+00,4.654e+00,6.280e+00,5.739e+00,6.072e+00,7.339e+00,6.791e+00,5.102e+00,5.971e+00,5.650e+00,6.150e+00,6.608e+00,7.789e+00,6.582e+00,5.438e+00,6.693e+00,6.020e+00,5.855e+00,6.496e+00,6.881e+00,6.826e+00,6.320e+00,6.167e+00,6.537e+00,8.235e+00,6.047e+00,6.667e+00
6.093e-01,1.219e-01,4.827e-01,1.203e+00,1.152e+00,2.107e+00,2.400e+00,2.843e+00,2.483e+00,3.005e+00,3.555e+00,3.386e+00,2.961e+00,4.206e+00,4.449e+00,3.403e+00,4.943e+00,4.114e+00,5.117e+00,5.388e+00,5.689e+00,7.579e+00,5.837e+00,6.434e+00,6.566e+00,6.479e+00,5.492e+00,5.817e+00,6.795e+00,7.163e+00,8.843e+00,6.715e+00,6.966e+00,7.388e+00,6.330e+00,8.517e+00,6.343e+00,8.307e+00,6.169e+00,6.525e+00,6.678e+00,7.417e+00,6.625e+00,6.789e+00,6.195e+00,6.143e+00,7.081e+00,6.767e+00,6.689e+00,8.766e+00,7.057e+00,6.053e+00,7.505e+00,7.338e+00,5.827e+00,7.199e+00,6.756e+00,7.701e+00,6.673e+00,7.943e+00,6.035e+00,6.909e+00,7.424e+00,6.441e+00,5.953e+00,6.164e+00,5.134e+00,5.942e+00,7.811e+00,5.975e+00,7.430e+00
4.783e-02,1.628e-02,1.243e-01,7.309e-01,5.544e-01,2.034e+00,2.130e+00,2.365e+00,2.839e+00,3.389e+00,2.736e+00,3.172e+00,3.258e+00,4.276e+00,3.076e+00,2.884e+00,5.038e+00,5.045e+00,4.300e+00,5.307e+00,4.671e+00,6.275e+00,5.924e+00,4.554e+00,5.773e+00,5.585e+00,5.603e+00,5.947e+00,5.428e+00,6.278e+00,6.296e+00,5.410e+00,5.818e+00,5.171e+00,5.808e+00,6.368e+00,6.003e+00,6.605e+00,4.799e+00,6.267e+00,6.007e+00,6.738e+00,5.955e+00,5.996e+00,6.734e+00,4.830e+00,6.180e+00,5.203e+00,5.392e+00,6.832e+00,6.882e+00,5.354e+00,6.227e+00,6.374e+00,4.944e+00,5.563e+00,6.387e+00,6.014e+00,6.521e+00,5.228e+00,4.513e+00,5.897e+00,6.334e+00,7.256e+00,5.438e+00,5.599e+00,4.531e+00,5.325e+00,6.463e+00,6.506e+00,5.953e+00
6.175e-01,1.229e-01,4.940e-01,1.376e+00,1.239e+00,2.119e+00,2.209e+00,2.789e+00,2.147e+00,3.494e+00,3.427e+00,3.614e+00,3.090e+00,4.259e+00,3.757e+00,3.402e+00,5.132e+00,4.209e+00,5.031e+00,5.580e+00,5.992e+00,6.569e+00,5.229e+00,6.248e+00,5.972e+00,5.867e+00,4.998e+00,6.129e+00,6.219e+00,7.392e+00,7.905e+00,5.944e+00,6.816e+00,6.142e+00,6.581e+00,7.623e+00,6.031e+00,8.409e+00,4.868e+00,6.625e+00,6.476e+00,7.024e+00,5.803e+00,6.817e+00,6.361e+00,5.283e+00,5.684e+00,5.862e+00,6.506e+00,7.747e+00,7.318e+00,4.884e+00,7.200e+00,7.058e+00,6.249e+00,6.902e+00,7.186e+00,6.481e+00,6.400e+00,7.114e+00,5.138e+00,6.981e+00,7.794e+00,6.920e+00,6.553e+00,5.087e+00,5.001e+00,5.923e+00,7.645e+00,5.685e+00,6.974e+00
3.599e-01,9.491e-02,4.246e-01,1.892e+00,1.448e+00,2.373e+00,2.735e+00,3.160e+00,2.395e+00,2.926e+00,2.420e+00,3.321e+00,2.201e+00,3.467e+00,2.583e+00,2.155e+00,4.744e+00,4.228e+00,4.509e+00,5.488e+00,5.318e+00,6.013e+00,5.001e+00,5.254e+00,5.644e+00,5.177e+00,3.992e+00,5.942e+00,4.433e+00,6.153e+00,6.941e+00,4.775e+00,5.941e+00,6.562e+00,5.672e+00,7.150e+00,5.782e+00,8.019e+00,4.547e+00,6.099e+00,6.717e+00,6.083e+00,5.639e+00,4.887e+00,6.119e+00,3.166e+00,5.109e+00,5.183e+00,6.495e+00,7.201e+00,6.650e+00,5.027e+00,5.848e+00,6.113e+00,6.763e+00,6.311e+00,6.694e+00,5.260e+00,5.923e+00,6.387e+00,5.089e+00,4.894e+00,6.295e+00,6.367e+00,6.180e+00,4.963e+00,5.639e+00,4.865e+00,7.227e+00,4.937e+00,5.683e+00
5.535e-01,8.876e-02,4.475e-01,1.189e+00,7.845e-01,1.691e+00,2.025e+00,2.052e+00,2.402e+00,1.910e+00,2.555e+00,2.635e+00,1.746e+00,2.485e+00,3.260e+00,2.667e+00,5.246e+00,4.652e+00,4.700e+00,5.123e+00,4.941e+00,7.488e+00,6.435e+00,5.866e+00,6.928e+00,6.586e+00,5.053e+00,6.625e+00,6.665e+00,8.422e+00,8.212e+00,5.750e+00,7.063e+00,7.415e+00,7.569e+00,9.210e+00,6.078e+00,8.230e+00,5.726e+00,7.616e+00,8.715e+00,8.274e+00,7.314e+00,7.023e+00,8.080e+00,5.057e+00,6.627e+00,6.915e+00,6.663e+00,7.598e+00,8.820e+00,6.485e+00,8.007e+00,7.578e+00,6.658e+00,7.885e+00,8.069e+00,7.832e+00,7.870e+00,8.650e+00,6.601e+00,6.934e+00,6.820e+00,8.068e+00,7.277e+00,6.888e+00,6.418e+00,7.165e+00,8.598e+00,6.783e+00,7.666e+00
3.555e-01,7.184e-02,3.307e-01,1.004e+00,7.576e-01,1.415e+00,2.130e+00,2.218e+00,2.890e+00,3.109e+00,2.347e+00,3.412e+00,2.581e+00,4.089e+00,2.841e+00,2.498e+00,4.345e+00,4.234e+00,4.682e+00,5.617e+00,5.256e+00,6.214e+00,5.848e+00,5.008e+00,5.335e+00,5.214e+00,4.956e+00,5.727e+00,5.600e+00,8.145e+00,7.423e+00,5.766e+00,7.130e+00,7.273e+00,6.930e+00,8.307e+00,6.138e+00,8.140e+00,5.362e+00,7.139e+00,7.689e+00,7.294e+00,6.954e+00,7.849e+00,8.701e+00,4.707e+00,6.086e+00,6.826e+00,7.041e+00,7.948e+00,8.357e+00,6.009e+00,7.174e+00,7.884e+00,6.698e+00,5.976e+00,7.766e+00,6.560e+00,6.985e+00,6.949e+00,6.394e+00,7.174e+00,6.782e+00,7.882e+00,7.074e+00,6.192e+00,5.964e+00,6.905e+00,6.671e+00,7.312e+00,7.278e+00
5.199e-01,1.112e-01,5.112e-01,1.854e+00,1.530e+00,3.287e+00,3.705e+00,4.083e+00,3.089e+00,4.574e+00,3.392e+00,4.531e+00,3.269e+00,4.852e+00,3.924e+00,3.124e+00,5.887e+00,5.935e+00,6.032e+00,6.976e+00,6.558e+00,8.199e+00,7.411e+00,7.471e+00,7.483e+00,7.342e+00,6.353e+00,7.328e+00,7.309e+00,9.643e+00,9.926e+00,7.714e+00,9.102e+00,1.030e+01,9.539e+00,1.138e+01,9.130e+00,1.146e+01,7.727e+00,1.032e+01,9.474e+00,9.880e+00,9.506e+00,8.709e+00,9.786e+00,7.152e+00,8.446e+00,8.785e+00,9.110e+00,1.100e+01,9.776e+00,7.625e+00,1.003e+01,1.053e+01,8.558e+00,7.767e+00,9.788e+00,8.258e+00,8.845e+00,1.018e+01,7.207e+00,1.003e+01,8.226e+00,9.384e+00,9.379e+00,8.109e+00,7.340e+00,8.007e+00,9.330e+00,9.705e+00,8.807e+00
5.696e-01,1.072e-01,5.076e-01,1.428e+00,9.678e-01,2.197e+00,3.030e+00,3.324e+00,2.653e+00,3.945e+00,2.903e+00,3.653e+00,3.049e+00,4.928e+00,3.348e+00,3.046e+00,5.084e+00,4.990e+00,6.177e+00,7.201e+00,6.566e+00,8.027e+00,6.586e+00,6.619e+00,6.622e+00,6.585e+00,6.037e+00,7.258e+00,7.078e+00,9.017e+00,9.542e+00,7.599e+00,9.764e+00,8.407e+00,8.634e+00,9.697e+00,8.810e+00,9.961e+00,7.289e+00,9.364e+00,9.412e+00,9.153e+00,9.978e+00,9.275e+00,8.954e+00,6.968e+00,9.319e+00,9.068e+00,9.600e+00,1.087e+01,9.974e+00,7.345e+00,1.049e+01,1.047e+01,8.962e+00,7.703e+00,9.413e+00,1.021e+01,9.452e+00,9.634e+00,7.711e+00,9.863e+00,9.747e+00,9.755e+00,1.026e+01,6.744e+00,8.541e+00,8.761e+00,1.024e+01,8.086e+00,9.638e+00
1.466e-01,3.883e-02,1.930e-01,1.064e+00,8.413e-01,1.880e+00,1.792e+00,2.300e+00,1.937e+00,3.007e+00,1.825e+00,2.816e+00,2.234e+00,3.306e+00,2.234e+00,2.159e+00,4.375e+00,4.400e+00,5.344e+00,5.634e+00,6.179e+00,7.335e+00,7.171e+00,6.683e+00,5.991e+00,7.562e+00,6.405e+00,6.993e+00,6.958e+00,9.079e+00,8.854e+00,7.594e+00,9.603e+00,9.777e+00,9.710e+00,1.072e+01,9.977e+00,1.140e+01,7.597e+00,9.934e+00,1.091e+01,1.094e+01,1.012e+01,8.849e+00,9.463e+00,7.257e+00,9.059e+00,9.470e+00,1.040e+01,1.144e+01,1.202e+01,7.796e+00,1.091e+01,1.062e+01,8.479e+00,7.528e+00,1.027e+01,8.986e+00,9.694e+00,1.017e+01,7.193e+00,1.025e+01,9.018e+00,1.001e+01,1.024e+01,8.035e+00,7.899e+00,8.792e+00,1.136e+01,9.376e+00,1.013e+01
1.518e-01,3.820e-02,2.206e-01,1.046e+00,7.134e-01,1.804e+00,2.330e+00,2.537e+00,3.117e+00,3.619e+00,2.329e+00,3.332e+00,2.663e+00,3.882e+00,3.188e+00,2.514e+00,4.431e+00,4.386e+00,4.405e+00,5.545e+00,5.090e+00,6.566e+00,6.023e+00,4.736e+00,5.843e+00,5.731e+00,4.602e+00,5.569e+00,5.900e+00,7.051e+00,7.012e+00,6.232e+00,6.868e+00,6.479e+00,6.567e+00,8.401e+00,6.591e+00,8.631e+00,5.998e+00,8.315e+00,7.342e+00,7.300e+00,8.333e+00,8.499e+00,8.263e+00,6.429e+00,7.486e+00,7.247e+00,7.391e+00,8.661e+00,8.393e+00,6.770e+00,8.025e+00,8.789e+00,7.755e+00,7.140e+00,7.850e+00,6.832e+00,8.189e+00,7.255e+00,6.134e+00,8.545e+00,7.859e+00,9.022e+00,7.364e+00,6.989e+00,6.812e+00,6.701e+00,7.998e+00,7.855e+00,8.628e+00
2.313e-01,3.194e-02,2.089e-01,7.302e-01,5.891e-01,2.077e+00,1.857e+00,2.105e+00,2.290e+00,2.820e+00,1.911e+00,3.107e+00,1.770e+00,3.747e+00,2.735e+00,2.519e+00,4.051e+00,3.636e+00,4.715e+00,5.015e+00,4.649e+00,5.213e+00,4.945e+00,4.756e+00,5.038e+00,5.104e+00,5.517e+00,6.108e+00,6.185e+00,6.684e+00,8.046e+00,5.629e+00,6.532e+00,7.079e+00,7.661e+00,8.455e+00,9.013e+00,8.723e+00,6.759e+00,8.080e+00,7.893e+00,8.602e+00,8.593e+00,8.265e+00,8.049e+00,6.545e+00,8.556e+00,7.628e+00,8.489e+00,1.004e+01,8.701e+00,6.429e+00,8.326e+00,9.349e+00,7.352e+00,6.390e+00,8.851e+00,8.076e+00,9.098e+00,7.813e+00,7.767e+00,7.579e+00,8.347e+00,7.998e+00,8.319e+00,7.686e+00,7.865e+00,7.133e+00,9.986e+00,8.778e+00,8.571e+00
1.969e-01,6.506e-02,3.048e-01,1.768e+00,1.434e+00,2.921e+00,2.724e+00,3.450e+00,3.087e+00,3.581e+00,2.998e+00,3.840e+00,2.801e+00,3.792e+00,3.203e+00,2.289e+00,4.945e+00,5.456e+00,5.776e+00,6.180e+00,6.490e+00,7.678e+00,7.122e+00,6.264e+00,7.215e+00,6.832e+00,5.244e+00,7.245e+00,6.147e+00,9.049e+00,9.272e+00,6.518e+00,8.788e+00,9.791e+00,9.494e+00,1.182e+01,9.932e+00,1.118e+01,8.556e+00,1.035e+01,1.182e+01,1.084e+01,1.257e+01,9.109e+00,1.014e+01,8.208e+00,9.717e+00,9.484e+00,1.067e+01,1.116e+01,1.141e+01,9.170e+00,1.040e+01,1.150e+01,1.018e+01,8.939e+00,1.211e+01,9.187e+00,9.814e+00,1.131e+01,9.226e+00,1.011e+01,9.588e+00,1.156e+01,1.039e+01,9.985e+00,1.034e+01,9.191e+00,1.170e+01,1.048e+01,1.046e+01
4.973e-01,1.130e-01,4.837e-01,1.665e+00,1.397e+00,2.872e+00,3.196e+00,3.859e+00,3.306e+00,4.471e+00,3.520e+00,4.475e+00,3.562e+00,5.068e+00,3.798e+00,2.734e+00,4.484e+00,4.687e+00,5.130e+00,6.109e+00,5.743e+00,6.893e+00,5.824e+00,5.885e+00,6.459e+00,5.471e+00,5.451e+00,6.226e+00,6.055e+00,7.949e+00,8.535e+00,6.227e+00,7.737e+00,7.318e+00,7.556e+00,8.827e+00,7.915e+00,9.804e+00,6.389e+00,8.692e+00,8.974e+00,8.950e+00,9.554e+00,8.783e+00,8.195e+00,7.007e+00,9.026e+00,7.679e+00,8.484e+00,1.090e+01,8.524e+00,7.780e+00,9.254e+00,9.667e+00,8.833e+00,7.460e+00,9.936e+00,8.850e+00,9.008e+00,8.867e+00,7.941e+00,9.369e+00,1.007e+01,8.961e+00,8.520e+00,7.414e+00,8.890e+00,7.538e+00,9.796e+00,8.306e+00,8.877e+00
1.804e-01,2.622e-02,1.386e-01,4.253e-01,4.539e-01,1.953e+00,1.391e+00,1.973e+00,2.144e+00,2.415e+00,2.015e+00,2.612e+00,2.042e+00,2.819e+00,3.136e+00,2.139e+00,3.052e+00,3.509e+00,4.328e+00,4.404e+00,4.408e+00,6.232e+00,5.967e+00,4.733e+00,4.450e+00,6.060e+00,5.460e+00,5.138e+00,6.114e+00,8.433e+00,7.563e+00,6.364e+00,7.234e+00,7.924e+00,7.541e+00,8.830e+00,7.466e+00,9.790e+00,7.155e+00,1.078e+01,8.925e+00,1.033e+01,1.063e+01,8.876e+00,1.049e+01,8.526e+00,8.561e+00,7.835e+00,8.859e+00,1.080e+01,9.728e+00,8.810e+00,9.991e+00,9.391e+00,7.311e+00,7.277e+00,8.796e+00,7.764e+00,8.556e+00,9.287e+00,8.224e+00,1.003e+01,8.432e+00,1.031e+01,8.042e+00,9.558e+00,7.639e+00,8.422e+00,8.577e+00,9.410e+00,9.130e+00
5.160e-01,9.451e-02,4.008e-01,1.151e+00,1.114e+00,2.687e+00,2.526e+00,3.291e+00,3.573e+00,4.057e+00,4.004e+00,4.548e+00,3.196e+00,4.536e+00,4.826e+00,3.548e+00,5.606e+00,5.061e+00,5.893e+00,6.622e+00,6.635e+00,8.061e+00,6.520e+00,6.386e+00,6.971e+00,6.979e+00,6.181e+00,7.095e+00,7.360e+00,9.387e+00,1.070e+01,7.778e+00,9.018e+00,9.796e+00,1.116e+01,1.149e+01,9.767e+00,1.215e+01,8.856e+00,1.207e+01,1.196e+01,1.255e+01,1.271e+01,1.037e+01,1.169e+01,9.205e+00,1.064e+01,1.032e+01,1.212e+01,1.323e+01,1.270e+01,9.586e+00,1.169e+01,1.244e+01,1.059e+01,1.012e+01,1.156e+01,1.034e+01,1.149e+01,1.183e+01,1.073e+01,1.173e+01,1.179e+01,1.161e+01,1.068e+01,9.823e+00,9.679e+00,9.642e+00,1.323e+01,1.159e+01,1.127e+01
2.594e-02,3.717e-02,1.511e-01,1.274e+00,1.233e+00,2.934e+00,2.221e+00,3.130e+00,2.501e+00,3.750e+00,3.140e+00,3.661e+00,3.154e+00,4.414e+00,3.951e+00,3.412e+00,5.890e+00,4.892e+00,5.278e+00,6.080e+00,6.389e+00,7.568e+00,6.088e+00,6.627e+00,7.300e+00,6.305e+00,6.018e+00,7.143e+00,6.750e+00,8.838e+00,9.004e+00,6.440e+00,7.779e+00,8.147e+00,9.310e+00,1.022e+01,9.954e+00,1.129e+01,8.761e+00,1.205e+01,1.193e+01,1.288e+01,1.216e+01,1.036e+01,1.035e+01,9.946e+00,1.115e+01,1.038e+01,1.288e+01,1.283e+01,1.263e+01,1.058e+01,1.167e+01,1.221e+01,9.620e+00,9.567e+00,1.114e+01,9.216e+00,1.141e+01,1.129e+01,1.059e+01,1.064e+01,1.173e+01,1.252e+01,1.141e+01,9.944e+00,9.574e+00,1.099e+01,1.226e+01,1.252e+01,1.170e+01
6.467e-02,1.894e-02,9.680e-02,6.858e-01,6.557e-01,1.442e+00,9.556e-01,1.305e+00,2.096e+00,1.814e+00,2.062e+00,2.306e+00,1.475e+00,1.988e+00,2.560e+00,2.001e+00,3.645e+00,3.189e+00,3.499e+00,3.606e+00,3.769e+00,5.193e+00,4.500e+00,4.074e+00,5.356e+00,4.854e+00,4.172e+00,5.036e+00,5.363e+00,5.962e+00,6.725e+00,4.239e+00,5.101e+00,5.746e+00,7.640e+00,7.439e+00,7.146e+00,8.323e+00,6.090e+00,8.831e+00,1.032e+01,1.055e+01,9.989e+00,8.201e+00,9.762e+00,7.766e+00,8.683e+00,7.895e+00,1.008e+01,1.048e+01,1.085e+01,8.984e+00,9.283e+00,9.421e+00,7.754e+00,8.249e+00,8.994e+00,7.207e+00,1.039e+01,9.158e+00,1.004e+01,8.861e+00,9.406e+00,1.009e+01,8.875e+00,9.036e+00,7.663e+00,7.902e+00,1.077e+01,9.823e+00,9.711e+00
2.026e-01,6.562e-02,2.534e-01,1.263e+00,1.265e+00,2.798e+00,1.963e+00,2.990e+00,2.926e+00,3.538e+00,3.292e+00,3.895e+00,3.199e+00,4.412e+00,3.699e+00,2.758e+00,4.035e+00,3.926e+00,4.395e+00,4.841e+00,4.677e+00,6.212e+00,5.758e+00,4.938e+00,5.348e+00,5.484e+00,6.455e+00,5.551e+00,6.671e+00,8.513e+00,9.210e+00,7.005e+00,7.955e+00,8.490e+00,9.519e+00,9.272e+00,8.414e+00,1.033e+01,7.461e+00,1.068e+01,1.024e+01,1.314e+01,1.105e+01,1.102e+01,1.153e+01,8.627e+00,1.124e+01,1.039e+01,1.111e+01,1.336e+01,1.299e+01,9.511e+00,1.079e+01,1.195e+01,8.752e+00,9.787e+00,1.054e+01,9.660e+00,1.143e+01,1.107e+01,1.071e+01,1.178e+01,1.166e+01,1.176e+01,9.574e+00,8.590e+00,8.285e+00,9.332e+00,1.151e+01,1.284e+01,1.039e+01
6.652e-01,1.234e-01,5.605e-01,1.469e+00,1.147e+00,2.108e+00,2.931e+00,2.984e+00,2.832e+00,4.017e+00,2.535e+00,4.166e+00,2.729e+00,4.508e+00,2.961e+00,2.778e+00,5.024e+00,4.922e+00,5.207e+00,6.372e+00,5.785e+00,6.753e+00,6.647e+00,5.981e+00,6.582e+00,7.195e+00,6.843e+00,6.452e+00,6.779e+00,8.555e+00,9.320e+00,6.895e+00,8.365e+00,8.715e+00,8.398e+00,1.000e+01,9.147e+00,1.064e+01,7.397e+00,1.099e+01,1.065e+01,1.103e+01,1.147e+01,1.231e+01,1.205e+01,8.699e+00,1.120e+01,1.008e+01,1.135e+01,1.305e+01,1.293e+01,9.504e+00,1.159e+01,1.218e+01,1.071e+01,8.554e+00,1.068e+01,9.126e+00,9.914e+00,9.990e+00,1.003e+01,1.139e+01,1.124e+01,1.275e+01,1.027e+01,1.044e+01,9.521e+00,9.929e+00,1.191e+01,1.314e+01,1.141e+01
5.040e-01,9.973e-02,4.503e-01,1.391e+00,1.100e+00,2.042e+00,2.702e+00,2.940e+00,2.741e+00,3.331e+00,2.631e+00,3.501e+00,2.080e+00,3.596e+00,3.001e+00,2.196e+00,3.851e+00,3.931e+00,4.917e+00,5.710e+00,5.531e+00,7.228e+00,6.486e+00,5.781e+00,6.049e+00,6.576e+00,5.630e+00,6.431e+00,7.057e+00,8.605e+00,8.946e+00,7.323e+00,8.893e+00,9.043e+00,8.938e+00,1.029e+01,8.913e+00,1.126e+01,8.309e+00,1.103e+01,1.044e+01,1.134e+01,1.219e+01,1.074e+01,1.193e+01,1.087e+01,1.202e+01,1.203e+01,1.224e+01,1.343e+01,1.272e+01,1.023e+01,1.362e+01,1.264e+01,1.110e+01,1.037e+01,1.071e+01,1.083e+01,1.147e+01,1.252e+01,1.116e+01,1.191e+01,1.222e+01,1.223e+01,1.163e+01,1.042e+01,1.225e+01,1.118e+01,1.225e+01,1.180e+01,1.297e+01
4.246e-01,6.660e-02,3.461e-01,8.853e-01,6.711e-01,1.872e+00,2.027e+00,2.158e+00,2.536e+00,3.202e+00,2.476e+00,3.534e+00,2.546e+00,4.454e+00,3.051e+00,3.095e+00,4.921e+00,5.351e+00,5.645e+00,5.771e+00,5.722e+00,6.721e+00,7.271e+00,5.731e+00,6.623e+00,7.206e+00,6.959e+00,6.973e+00,7.915e+00,8.425e+00,9.538e+00,7.088e+00,9.521e+00,9.542e+00,8.668e+00,1.024e+01,9.415e+00,1.065e+01,8.723e+00,1.081e+01,1.099e+01,1.231e+01,1.186e+01,1.291e+01,1.227e+01,1.136e+01,1.313e+01,1.214e+01,1.253e+01,1.407e+01,1.377e+01,1.013e+01,1.282e+01,1.312e+01,1.067e+01,9.910e+00,1.107e+01,1.222e+01,1.081e+01,1.178e+01,1.016e+01,1.281e+01,1.127e+01,1.385e+01,1.233e+01,1.234e+01,1.130e+01,1.160e+01,1.323e+01,1.392e+01,1.257e+01
8.237e-02,2.601e-02,1.292e-01,8.074e-01,6.444e-01,1.694e+00,1.317e+00,1.941e+00,1.394e+00,2.589e+00,1.738e+00,2.292e+00,2.144e+00,2.956e+00,2.021e+00,2.178e+00,4.211e+00,4.477e+00,5.086e+00,5.112e+00,5.583e+00,6.722e+00,6.197e+00,5.693e+00,6.187e+00,6.719e+00,5.438e+00,6.203e+00,6.115e+00,7.427e+00,7.883e+00,6.072e+00,8.586e+00,7.588e+00,7.900e+00,8.568e+00,7.982e+00,9.454e+00,6.817e+00,9.048e+00,1.050e+01,9.968e+00,9.999e+00,8.502e+00,9.644e+00,8.024e+00,9.529e+00,9.367e+00,1.025e+01,1.182e+01,1.145e+01,8.307e+00,1.128e+01,1.030e+01,1.057e+01,7.775e+00,9.316e+00,8.947e+00,1.014e+01,9.350e+00,8.875e+00,9.594e+00,9.478e+00,1.102e+01,1.102e+01,9.171e+00,9.707e+00,8.605e+00,1.204e+01,9.814e+00,9.812e+00
5.001e-01,1.150e-01,5.133e-01,2.071e+00,1.779e+00,3.179e+00,3.648e+00,3.950e+00,3.857e+00,4.268e+00,3.878e+00,5.002e+00,3.162e+00,5.055e+00,4.121e+00,3.053e+00,5.504e+00,5.540e+00,5.971e+00,6.754e+00,7.283e+00,8.139e+00,7.404e+00,6.718e+00,7.423e+00,8.300e+00,6.708e+00,7.515e+00,7.489e+00,8.545e+00,1.076e+01,7.827e+00,8.836e+00,1.009e+01,9.631e+00,1.097e+01,1.045e+01,1.207e+01,7.958e+00,1.178e+01,1.193e+01,1.200e+01,1.189e+01,1.174e+01,1.192e+01,1.084e+01,1.289e+01,1.314e+01,1.324e+01,1.550e+01,1.469e+01,1.181e+01,1.456e+01,1.352e+01,1.177e+01,1.293e+01,1.299e+01,1.090e+01,1.242e+01,1.372e+01,1.280e+01,1.350e+01,1.334e+01,1.388e+01,1.386e+01,1.286e+01,1.240e+01,1.184e+01,1.497e+01,1.288e+01,1.313e+01
6.591e-02,3.119e-02,1.042e-01,5.996e-01,7.327e-01,1.678e+00,1.800e+00,2.253e+00,2.520e+00,3.405e+00,2.350e+00,3.294e+00,2.421e+00,4.170e+00,2.815e+00,2.297e+00,3.985e+00,3.881e+00,4.860e+00,4.732e+00,5.704e+00,5.651e+00,4.957e+00,4.851e+00,4.834e+00,5.745e+00,5.434e+00,6.223e+00,6.893e+00,5.805e+00,7.061e+00,5.959e+00,6.997e+00,7.130e+00,7.812e+00,7.948e+00,8.068e+00,9.069e+00,7.026e+00,8.437e+00,8.299e+00,9.590e+00,9.434e+00,8.404e+00,8.303e+00,8.115e+00,9.719e+00,9.365e+00,1.229e+01,1.330e+01,1.227e+01,1.083e+01,1.235e+01,1.050e+01,9.591e+00,8.744e+00,9.471e+00,8.526e+00,1.069e+01,1.023e+01,9.231e+00,1.077e+01,1.056e+01,1.120e+01,1.117e+01,9.110e+00,9.802e+00,9.596e+00,1.081e+01,1.013e+01,1.011e+01
7.316e-01,1.283e-01,5.733e-01,1.505e+00,1.227e+00,2.170e+00,2.297e+00,2.663e+00,2.960e+00,3.728e+00,3.079e+00,4.272e+00,2.686e+00,4.416e+00,3.784e+00,3.273e+00,5.027e+00,4.662e+00,6.012e+00,6.358e+00,6.754e+00,7.320e+00,6.954e+00,7.056e+00,6.562e+00,6.586e+00,5.518e+00,5.793e+00,7.427e+00,7.725e+00,9.202e+00,6.334e+00,7.744e+00,7.196e+00,7.378e+00,9.349e+00,8.342e+00,9.410e+00,6.293e+00,8.614e+00,1.059e+01,1.030e+01,1.056e+01,1.087e+01,1.101e+01,9.262e+00,1.055e+01,1.112e+01,1.183e+01,1.255e+01,1.359e+01,1.107e+01,1.106e+01,1.227e+01,1.126e+01,1.105e+01,1.094e+01,1.117e+01,1.030e+01,1.197e+01,1.126e+01,1.168e+01,1.173e+01,1.376e+01,1.233e+01,1.134e+01,1.004e+01,1.145e+01,1.307e+01,1.207e+01,1.139e+01
3.308e-01,7.781e-02,3.723e-01,1.680e+00,1.412e+00,3.031e+00,3.087e+00,3.626e+00,4.002e+00,5.061e+00,3.866e+00,4.940e+00,3.550e+00,5.326e+00,4.000e+00,3.334e+00,5.436e+00,5.282e+00,5.770e+00,6.709e+00,6.527e+00,7.161e+00,6.712e+00,5.488e+00,7.040e+00,7.555e+00,6.218e+00,7.084e+00,7.887e+00,8.480e+00,1.054e+01,7.612e+00,8.145e+00,8.247e+00,9.238e+00,1.053e+01,9.883e+00,1.060e+01,8.291e+00,1.191e+01,1.140e+01,1.306e+01,1.348e+01,1.189e+01,1.340e+01,1.098e+01,1.309e+01,1.345e+01,1.401e+01,1.675e+01,1.618e+01,1.325e+01,1.460e+01,1.613e+01,1.390e+01,1.327e+01,1.254e+01,1.296e+01,1.409e+01,1.495e+01,1.413e+01,1.399e+01,1.529e+01,1.699e+01,1.414e+01,1.328e+01,1.353e+01,1.353e+01,1.562e+01,1.532e+01,1.398e+01
6.429e-01,1.250e-01,5.173e-01,1.356e+00,1.203e+00,2.059e+00,2.775e+00,3.005e+00,2.980e+00,4.096e+00,3.798e+00,4.237e+00,3.574e+00,5.109e+00,4.093e+00,3.593e+00,5.632e+00,5.244e+00,5.860e+00,6.483e+00,7.446e+00,7.661e+00,6.461e+00,7.035e+00,6.767e+00,7.082e+00,5.445e+00,6.939e+00,7.333e+00,7.470e+00,8.945e+00,6.827e+00,8.100e+00,7.988e+00,8.971e+00,9.287e+00,8.365e+00,1.043e+01,7.606e+00,9.999e+00,1.105e+01,1.263e+01,1.110e+01,1.060e+01,1.144e+01,1.089e+01,1.093e+01,1.115e+01,1.313e+01,1.542e+01,1.552e+01,1.284e+01,1.497e+01,1.390e+01,1.321e+01,1.304e+01,1.251e+01,1.276e+01,1.211e+01,1.381e+01,1.251e+01,1.322e+01,1.561e+01,1.657e+01,1.394e+01,1.246e+01,1.337e+01,1.249e+01,1.482e+01,1.397e+01,1.275e+01
4.167e-01,1.031e-01,4.082e-01,1.560e+00,1.381e+00,1.881e+00,2.191e+00,2.544e+00,2.661e+00,2.731e+00,3.137e+00,3.267e+00,2.432e+00,3.459e+00,3.422e+00,2.630e+00,4.510e+00,3.896e+00,4.971e+00,5.118e+00,5.150e+00,6.901e+00,5.684e+00,5.714e+00,5.388e+00,6.423e+00,5.000e+00,6.416e+00,6.527e+00,7.484e+00,8.850e+00,6.289e+00,6.930e+00,7.706e+00,8.030e+00,9.561e+00,7.625e+00,1.013e+01,6.663e+00,9.663e+00,9.875e+00,1.156e+01,1.014e+01,9.901e+00,1.101e+01,9.479e+00,1.002e+01,1.053e+01,1.121e+01,1.319e+01,1.425e+01,1.194e+01,1.338e+01,1.243e+01,1.121e+01,1.212e+01,1.044e+01,1.212e+01,1.218e+01,1.272e+01,1.031e+01,1.195e+01,1.294e+01,1.361e+01,1.044e+01,1.201e+01,1.126e+01,1.227e+01,1.304e+01,1.254e+01,1.316e+01
1.921e-01,6.217e-02,2.804e-01,1.279e+00,9.622e-01,1.719e+00,2.621e+00,2.689e+00,2.041e+00,3.116e+00,2.098e+00,2.754e+00,2.519e+00,3.518e+00,2.400e+00,2.179e+00,4.637e+00,5.042e+00,5.000e+00,5.743e+00,4.826e+00,7.017e+00,6.260e+00,5.802e+00,6.746e+00,7.053e+00,6.134e+00,7.566e+00,6.007e+00,9.083e+00,8.673e+00,6.702e+00,8.967e+00,8.668e+00,8.765e+00,1.061e+01,8.701e+00,1.079e+01,7.279e+00,1.092e+01,1.094e+01,1.019e+01,1.019e+01,1.036e+01,9.957e+00,9.277e+00,1.044e+01,1.267e+01,1.138e+01,1.345e+01,1.336e+01,1.066e+01,1.348e+01,1.337e+01,1.148e+01,1.099e+01,1.151e+01,1.186e+01,1.228e+01,1.399e+01,1.007e+01,1.337e+01,1.148e+01,1.366e+01,1.218e+01,1.179e+01,1.224e+01,1.176e+01,1.223e+01,1.220e+01,1.352e+01
1.201e-01,5.709e-02,2.470e-01,1.601e+00,1.336e+00,2.069e+00,1.742e+00,2.374e+00,2.352e+00,3.069e+00,1.969e+00,3.208e+00,1.905e+00,3.346e+00,2.921e+00,2.514e+00,4.461e+00,3.599e+00,5.103e+00,5.839e+00,5.982e+00,6.789e+00,6.513e+00,6.635e+00,6.818e+00,6.508e+00,5.789e+00,6.283e+00,7.048e+00,7.794e+00,9.372e+00,6.846e+00,7.999e+00,8.182e+00,8.541e+00,1.056e+01,1.027e+01,1.094e+01,7.756e+00,1.017e+01,1.184e+01,1.163e+01,1.121e+01,1.115e+01,1.139e+01,9.340e+00,1.230e+01,1.295e+01,1.346e+01,1.504e+01,1.716e+01,1.304e+01,1.464e+01,1.495e+01,1.374e+01,1.400e+01,1.302e+01,1.348e+01,1.455e+01,1.542e+01,1.263e+01,1.339e+01,1.422e+01,1.598e+01,1.418e+01,1.362e+01,1.350e+01,1.555e+01,1.641e+01,1.526e+01,1.558e+01
3.088e-02,6.037e-03,7.845e-02,7.170e-01,5.218e-01,1.374e+00,8.244e-01,1.178e+00,1.800e+00,1.689e+00,1.690e+00,1.899e+00,1.298e+00,1.671e+00,1.749e+00,1.630e+00,2.947e+00,2.515e+00,2.674e+00,3.126e+00,3.107e+00,4.553e+00,4.491e+00,3.621e+00,4.721e+00,5.524e+00,4.516e+00,5.131e+00,5.574e+00,7.227e+00,7.763e+00,5.118e+00,6.282e+00,7.290e+00,7.641e+00,8.642e+00,8.295e+00,8.348e+00,6.862e+00,9.834e+00,9.643e+00,1.127e+01,1.022e+01,9.672e+00,1.110e+01,9.645e+00,1.055e+01,1.250e+01,1.199e+01,1.206e+01,1.369e+01,1.037e+01,1.252e+01,1.258e+01,1.064e+01,1.292e+01,1.137e+01,1.250e+01,1.435e+01,1.458e+01,1.360e+01,1.233e+01,1.322e+01,1.490e+01,1.265e+01,1.327e+01,1.252e+01,1.234e+01,1.442e+01,1.497e+01,1.442e+01
5.510e-01,1.188e-01,5.376e-01,1.986e+00,1.595e+00,2.859e+00,3.477e+00,3.810e+00,4.084e+00,4.557e+00,3.920e+00,5.067e+00,3.651e+00,5.458e+00,4.705e+00,3.554e+00,5.945e+00,5.379e+00,6.280e+00,7.444e+00,7.160e+00,8.652e+00,7.338e+00,7.736e+00,7.440e+00,7.851e+00,6.826e+00,7.676e+00,7.893e+00,9.270e+00,1.069e+01,8.276e+00,8.153e+00,9.273e+00,9.830e+00,1.141e+01,1.087e+01,1.249e+01,8.060e+00,1.164e+01,1.161e+01,1.355e+01,1.207e+01,1.172e+01,1.312e+01,1.151e+01,1.271e+01,1.445e+01,1.526e+01,1.697e+01,1.622e+01,1.410e+01,1.606e+01,1.543e+01,1.395e+01,1.462e+01,1.496e+01,1.389e+01,1.567e+01,1.607e+01,1.551e+01,1.576e+01,1.755e+01,1.692e+01,1.586e+01,1.501e+01,1.448e+01,1.421e+01,1.635e+01,1.548e+01,1.507e+01
1.896e-01,6.388e-02,2.964e-01,1.629e+00,1.290e+00,2.199e+00,2.648e+00,3.000e+00,3.679e+00,4.042e+00,3.279e+00,4.135e+00,3.131e+00,4.713e+00,3.548e+00,2.925e+00,5.647e+00,5.600e+00,6.502e+00,6.950e+00,6.962e+00,8.988e+00,7.895e+00,7.274e+00,7.280e+00,7.991e+00,6.830e+00,7.746e+00,8.706e+00,8.717e+00,1.040e+01,8.758e+00,9.046e+00,9.042e+00,1.125e+01,1.183e+01,1.058e+01,1.220e+01,8.380e+00,1.189e+01,1.257e+01,1.375e+01,1.304e+01,1.205e+01,1.366e+01,1.096e+01,1.323e+01,1.329e+01,1.348e+01,1.619e+01,1.689e+01,1.373e+01,1.663e+01,1.726e+01,1.456e+01,1.392e+01,1.496e+01,1.567e+01,1.797e+01,1.660e+01,1.456e+01,1.615e+01,1.554e+01,1.776e+01,1.607e+01,1.614e+01,1.467e+01,1.560e+01,1.740e+01,1.735e+01,1.757e+01
4.480e-01,9.837e-02,3.907e-01,1.076e+00,1.018e+00,1.837e+00,2.156e+00,2.490e+00,1.775e+00,3.020e+00,2.104e+00,2.854e+00,2.121e+00,3.251e+00,2.906e+00,2.377e+00,4.084e+00,3.392e+00,4.073e+00,4.775e+00,4.612e+00,5.488e+00,4.791e+00,5.305e+00,6.016e+00,5.093e+00,4.817e+00,5.661e+00,5.472e+00,7.273e+00,7.759e+00,5.414e+00,6.961e+00,7.786e+00,7.816e+00,9.883e+00,8.264e+00,9.230e+00,7.969e+00,8.850e+00,9.797e+00,1.023e+01,1.071e+01,8.997e+00,9.601e+00,9.301e+00,9.869e+00,1.092e+01,1.224e+01,1.372e+01,1.337e+01,1.153e+01,1.272e+01,1.365e+01,1.201e+01,1.085e+01,1.301e+01,1.287e+01,1.252e+01,1.491e+01,1.300e+01,1.273e+01,1.364e+01,1.605e+01,1.457e+01,1.357e+01,1.240e+01,1.262e+01,1.399e+01,1.489e+01,1.367e+01
2.784e-01,7.726e-02,2.960e-01,1.047e+00,9.356e-01,1.797e+00,2.270e+00,2.834e+00,2.488e+00,4.010e+00,2.642e+00,3.447e+00,3.311e+00,4.464e+00,3.669e+00,2.947e+00,4.558e+00,4.391e+00,4.897e+00,6.046e+00,6.554e+00,7.671e+00,6.779e+00,6.761e+00,7.375e+00,8.075e+00,7.001e+00,7.202e+00,7.566e+00,8.450e+00,1.005e+01,8.078e+00,9.644e+00,9.509e+00,8.881e+00,1.033e+01,9.744e+00,1.153e+01,9.063e+00,1.180e+01,1.237e+01,1.229e+01,1.227e+01,1.191e+01,1.180e+01,1.031e+01,1.308e+01,1.302e+01,1.388e+01,1.695e+01,1.489e+01,1.225e+01,1.618e+01,1.475e+01,1.293e+01,1.284e+01,1.262e+01,1.347e+01,1.480e+01,1.545e+01,1.211e+01,1.629e+01,1.479e+01,1.710e+01,1.548e+01,1.306e+01,1.400e+01,1.351e+01,1.661e+01,1.486e+01,1.497e+01
1.519e-01,4.273e-02,2.217e-01,1.053e+00,7.472e-01,1.667e+00,2.039e+00,2.224e+00,2.437e+00,3.128e+00,2.574e+00,3.061e+00,3.038e+00,4.461e+00,3.283e+00,3.376e+00,5.509e+00,5.313e+00,5.690e+00,6.622e+00,6.029e+00,7.058e+00,6.273e+00,5.781e+00,6.367e+00,6.738e+00,5.856e+00,7.338e+00,6.521e+00,7.710e+00,8.594e+00,7.124e+00,8.134e+00,7.560e+00,8.735e+00,9.216e+00,8.267e+00,1.027e+01,8.017e+00,1.157e+01,1.138e+01,1.283e+01,1.174e+01,1.276e+01,1.276e+01,1.026e+01,1.213e+01,1.171e+01,1.368e+01,1.516e+01,1.665e+01,1.314e+01,1.479e+01,1.453e+01,1.370e+01,1.313e+01,1.301e+01,1.346e+01,1.473e+01,1.463e+01,1.313e+01,1.569e+01,1.625e+01,1.903e+01,1.589e+01,1.528e+01,1.316e+01,1.540e+01,1.666e+01,1.635e+01,1.570e+01
3.259e-01,6.334e-02,3.298e-01,1.325e+00,9.760e-01,2.300e+00,2.522e+00,2.903e+00,2.695e+00,3.801e+00,2.296e+00,3.410e+00,2.368e+00,3.559e+00,2.613e+00,2.041e+00,3.846e+00,3.828e+00,4.338e+00,5.125e+00,5.979e+00,6.588e+00,6.345e+00,5.491e+00,5.187e+00,6.407e+00,4.540e+00,5.487e+00,6.245e+00,6.908e+00,7.377e+00,6.564e+00,6.914e+00,7.358e+00,7.261e+00,8.667e+00,7.856e+00,9.580e+00,6.378e+00,9.955e+00,9.592e+00,9.531e+00,1.021e+01,9.773e+00,9.958e+00,9.654e+00,1.030e+01,1.138e+01,1.115e+01,1.309e+01,1.291e+01,1.130e+01,1.399e+01,1.316e+01,1.143e+01,1.225e+01,1.183e+01,1.294e+01,1.363e+01,1.412e+01,1.274e+01,1.391e+01,1.411e+01,1.604e+01,1.477e+01,1.411e+01,1.476e+01,1.404e+01,1.490e+01,1.617e+01,1.658e+01
4.152e-01,9.001e-02,3.583e-01,9.868e-01,8.146e-01,1.476e+00,1.708e+00,2.219e+00,1.497e+00,2.007e+00,1.954e+00,2.195e+00,1.935e+00,2.874e+00,2.908e+00,2.146e+00,3.551e+00,3.128e+00,4.489e+00,4.764e+00,4.234e+00,5.700e+00,3.926e+00,5.178e+00,4.237e+00,5.008e+00,4.702e+00,5.195e+00,5.057e+00,6.372e+00,7.934e+00,6.402e+00,7.145e+00,7.471e+00,8.978e+00,8.939e+00,8.086e+00,9.325e+00,6.376e+00,9.652e+00,9.569e+00,1.095e+01,1.001e+01,9.211e+00,9.897e+00,8.864e+00,9.632e+00,1.056e+01,1.212e+01,1.442e+01,1.471e+01,1.249e+01,1.296e+01,1.379e+01,1.232e+01,1.110e+01,1.304e+01,1.334e+01,1.402e+01,1.511e+01,1.426e+01,1.610e+01,1.586e+01,1.739e+01,1.581e+01,1.469e+01,1.294e+01,1.336e+01,1.649e+01,1.591e+01,1.446e+01
4.498e-02,8.153e-03,3.309e-02,1.374e-01,3.011e-01,1.748e+00,1.271e+00,1.931e+00,1.705e+00,2.750e+00,1.918e+00,2.426e+00,2.251e+00,3.325e+00,2.492e+00,2.030e+00,3.295e+00,4.007e+00,4.968e+00,4.350e+00,4.368e+00,5.866e+00,5.506e+00,4.735e+00,4.672e+00,6.234e+00,6.474e+00,6.600e+00,6.614e+00,7.815e+00,8.074e+00,6.724e+00,8.410e+00,8.209e+00,8.335e+00,9.532e+00,8.810e+00,9.440e+00,8.283e+00,1.038e+01,1.008e+01,1.171e+01,1.194e+01,1.072e+01,9.916e+00,1.024e+01,1.259e+01,1.215e+01,1.210e+01,1.452e+01,1.412e+01,1.084e+01,1.488e+01,1.352e+01,1.118e+01,1.064e+01,1.135e+01,1.340e+01,1.400e+01,1.383e+01,1.185e+01,1.524e+01,1.346e+01,1.629e+01,1.418e+01,1.440e+01,1.369e+01,1.341e+01,1.627e+01,1.659e+01,1.531e+01
1.904e-01,4.791e-02,2.292e-01,1.063e+00,8.174e-01,1.839e+00,1.640e+00,2.121e+00,1.647e+00,2.306e+00,1.951e+00,2.428e+00,2.060e+00,3.275e+00,2.354e+00,2.292e+00,4.341e+00,3.816e+00,4.384e+00,4.537e+00,5.142e+00,6.370e+00,5.242e+00,5.949e+00,5.956e+00,6.224e+00,5.399e+00,5.915e+00,6.690e+00,7.390e+00,8.610e+00,5.955e+00,7.612e+00,7.997e+00,8.086e+00,8.969e+00,8.295e+00,8.778e+00,6.890e+00,9.395e+00,1.092e+01,1.220e+01,9.947e+00,1.052e+01,1.008e+01,9.109e+00,1.041e+01,1.050e+01,1.183e+01,1.461e+01,1.391e+01,1.202e+01,1.246e+01,1.344e+01,1.163e+01,1.190e+01,1.212e+01,1.401e+01,1.485e+01,1.435e+01,1.383e+01,1.443e+01,1.457e+01,1.736e+01,1.587e+01,1.474e+01,1.454e+01,1.474e+01,1.765e+01,1.770e+01,1.541e+01
7.094e-01,1.213e-01,5.323e-01,1.306e+00,1.212e+00,2.636e+00,2.840e+00,3.245e+00,2.938e+00,4.047e+00,3.295e+00,4.365e+00,2.410e+00,3.975e+00,3.503e+00,2.642e+00,4.656e+00,4.538e+00,5.182e+00,5.417e+00,5.598e+00,6.992e+00,6.273e+00,6.197e+00,6.554e+00,7.332e+00,6.658e+00,6.805e+00,7.827e+00,8.436e+00,9.775e+00,6.780e+00,7.984e+00,8.555e+00,8.264e+00,1.067e+01,9.194e+00,1.036e+01,7.568e+00,1.020e+01,9.884e+00,1.115e+01,1.160e+01,1.083e+01,1.051e+01,1.054e+01,1.221e+01,1.269e+01,1.220e+01,1.441e+01,1.394e+01,1.177e+01,1.484e+01,1.414e+01,1.270e+01,1.289e+01,1.265e+01,1.499e+01,1.369e+01,1.557e+01,1.292e+01,1.615e+01,1.573e+01,1.667e+01,1.611e+01,1.613e+01,1.716e+01,1.525e+01,1.659e+01,1.701e+01,1.611e+01
7.127e-01,1.328e-01,5.445e-01,1.303e+00,1.261e+00,2.740e+00,2.730e+00,3.399e+00,3.244e+00,3.962e+00,3.965e+00,4.398e+00,3.313e+00,4.637e+00,4.790e+00,3.546e+00,5.896e+00,5.369e+00,6.472e+00,6.653e+00,6.555e+00,8.809e+00,7.178e+00,7.846e+00,7.295e+00,7.225e+00,6.909e+00,7.727e+00,8.471e+00,9.805e+00,1.071e+01,7.903e+00,8.702e+00,9.504e+00,1.107e+01,1.241e+01,9.889e+00,1.199e+01,9.112e+00,1.177e+01,1.255e+01,1.384e+01,1.331e+01,1.127e+01,1.296e+01,1.123e+01,1.239e+01,1.164e+01,1.277e+01,1.512e+01,1.547e+01,1.383e+01,1.566e+01,1.579e+01,1.327e+01,1.384e+01,1.488e+01,1.634e+01,1.704e+01,1.765e+01,1.602e+01,1.701e+01,1.825e+01,2.002e+01,1.781e+01,1.953e+01,1.778e+01,1.697e+01,1.902e+01,2.145e+01,1.930e+01
6.959e-01,1.418e-01,5.736e-01,1.442e+00,1.302e+00,2.458e+00,3.282e+00,3.687e+00,3.263e+00,4.116e+00,4.039e+00,4.348e+00,3.633e+00,5.279e+00,4.522e+00,3.540e+00,6.165e+00,5.449e+00,6.121e+00,6.621e+00,6.311e+00,8.506e+00,5.996e+00,6.569e+00,7.200e+00,7.218e+00,6.750e+00,7.636e+00,7.571e+00,9.153e+00,1.058e+01,7.259e+00,8.923e+00,8.982e+00,1.027e+01,1.127e+01,8.879e+00,1.085e+01,8.997e+00,1.185e+01,1.284e+01,1.552e+01,1.414e+01,1.254e+01,1.262e+01,1.233e+01,1.381e+01,1.366e+01,1.581e+01,1.814e+01,1.719e+01,1.517e+01,1.683e+01,1.627e+01,1.464e+01,1.537e+01,1.407e+01,1.772e+01,1.743e+01,1.761e+01,1.637e+01,1.747e+01,1.953e+01,2.049e+01,1.857e+01,1.783e+01,1.908e+01,1.721e+01,1.991e+01,2.100e+01,2.035e+01
2.497e-01,3.749e-02,2.190e-01,7.067e-01,4.256e-01,1.383e+00,1.588e+00,1.859e+00,2.286e+00,3.176e+00,2.413e+00,2.916e+00,2.658e+00,4.117e+00,3.268e+00,3.221e+00,4.603e+00,4.565e+00,5.665e+00,6.103e+00,5.575e+00,6.223e+00,5.515e+00,5.254e+00,5.808e+00,6.242e+00,5.253e+00,5.940e+00,6.566e+00,7.562e+00,8.755e+00,6.900e+00,7.485e+00,7.352e+00,8.193e+00,9.410e+00,8.938e+00,9.400e+00,8.180e+00,1.037e+01,1.074e+01,1.267e+01,1.170e+01,1.201e+01,1.262e+01,1.079e+01,1.180e+01,1.241e+01,1.302e+01,1.568e+01,1.503e+01,1.234e+01,1.428e+01,1.539e+01,1.298e+01,1.210e+01,1.295e+01,1.373e+01,1.492e+01,1.464e+01,1.447e+01,1.555e+01,1.685e+01,1.807e+01,1.577e+01,1.666e+01,1.602e+01,1.672e+01,1.863e+01,1.838e+01,1.841e+01
5.762e-01,1.098e-01,4.744e-01,1.190e+00,1.014e+00,2.285e+00,2.722e+00,3.110e+00,3.095e+00,3.860e+00,3.353e+00,3.918e+00,3.210e+00,4.251e+00,3.867e+00,2.816e+00,4.728e+00,5.044e+00,5.305e+00,6.093e+00,5.789e+00,7.896e+00,6.849e+00,6.469e+00,6.814e+00,6.735e+00,6.303e+00,6.115e+00,7.368e+00,8.372e+00,9.223e+00,7.355e+00,8.994e+00,9.022e+00,9.908e+00,1.038e+01,8.722e+00,1.086e+01,8.167e+00,1.117e+01,1.141e+01,1.225e+01,1.209e+01,1.130e+01,1.214e+01,1.044e+01,1.183e+01,1.092e+01,1.238e+01,1.416e+01,1.395e+01,1.253e+01,1.406e+01,1.365e+01,1.219e+01,1.219e+01,1.416e+01,1.471e+01,1.498e+01,1.579e+01,1.495e+01,1.777e+01,1.618e+01,1.871e+01,1.671e+01,1.712e+01,1.561e+01,1.570e+01,1.913e+01,2.038e+01,1.754e+01
6.543e-01,1.187e-01,5.004e-01,1.196e+00,9.907e-01,1.685e+00,1.826e+00,2.235e+00,1.474e+00,2.217e+00,2.230e+00,2.769e+00,1.853e+00,3.365e+00,3.360e+00,2.881e+00,4.561e+00,3.766e+00,5.340e+00,5.183e+00,5.941e+00,6.284e+00,5.024e+00,6.555e+00,5.775e+00,5.547e+00,4.519e+00,6.078e+00,6.035e+00,7.929e+00,8.680e+00,5.597e+00,7.554e+00,8.081e+00,7.594e+00,1.010e+01,7.950e+00,9.188e+00,6.589e+00,8.791e+00,1.029e+01,1.037e+01,9.697e+00,1.002e+01,8.250e+00,9.088e+00,8.459e+00,1.026e+01,1.107e+01,1.300e+01,1.301e+01,1.041e+01,1.168e+01,1.218e+01,1.075e+01,1.245e+01,1.216e+01,1.342e+01,1.202e+01,1.446e+01,1.217e+01,1.364e+01,1.397e+01,1.627e+01,1.601e+01,1.601e+01,1.508e+01,1.576e+01,1.731e+01,1.692e+01,1.830e+01
1.570e-01,6.897e-02,3.066e-01,1.852e+00,1.494e+00,2.314e+00,2.819e+00,3.131e+00,3.091e+00,3.945e+00,2.924e+00,3.723e+00,2.686e+00,4.078e+00,3.444e+00,2.674e+00,4.920e+00,4.311e+00,5.172e+00,5.954e+00,5.316e+00,6.738e+00,5.433e+00,5.729e+00,5.832e+00,5.859e+00,4.686e+00,5.927e+00,6.382e+00,6.688e+00,8.401e+00,6.641e+00,6.565e+00,6.640e+00,8.628e+00,9.893e+00,9.210e+00,1.030e+01,6.757e+00,1.058e+01,1.065e+01,1.251e+01,1.110e+01,1.104e+01,1.166e+01,1.096e+01,1.137e+01,1.225e+01,1.260e+01,1.472e+01,1.571e+01,1.327e+01,1.481e+01,1.568e+01,1.371e+01,1.288e+01,1.280e+01,1.424e+01,1.535e+01,1.576e+01,1.343e+01,1.522e+01,1.715e+01,1.751e+01,1.525e+01,1.529e+01,1.511e+01,1.564e+01,1.805e+01,1.907e+01,1.867e+01
