5.935e-01,7.562e-01,8.359e-01,7.181e-01,4.702e-01,4.195e-01,3.484e-02,9.019e-01,8.446e-01,8.042e-01,4.902e-01,5.990e-02,4.553e-01,6.824e-01,2.943e-01,5.627e-01,8.299e-01,3.279e-01,4.175e-01,7.515e-01,5.121e-02,9.687e-01,6.975e-01,5.446e-01,3.335e-01,6.278e-01,3.006e-01,9.728e-01,7.562e-01,8.044e-01,4.515e-02,9.133e-01,6.882e-01,4.693e-01,3.289e-01,4.893e-01,7.331e-01,4.043e-01,7.561e-01,3.822e-01,8.357e-01,1.538e-01,4.493e-01,2.756e-01,5.962e-01,2.135e-01,6.620e-01,6.291e-01,3.940e-01,2.089e-01,8.944e-01,3.927e-01,1.754e-01,8.159e-01,8.196e-01,4.131e-01,8.880e-01,7.409e-01,1.889e-01,4.377e-01,2.495e-01,1.259e-01,9.287e-01
1.592e-01,8.718e-01,1.010e+00,3.035e-01,1.034e+00,9.706e-01,2.557e-01,6.718e-01,9.720e-01,6.573e-01,1.101e+00,7.855e-01,1.608e-01,6.528e-01,6.844e-01,9.305e-01,6.092e-01,5.316e-01,1.857e-01,5.857e-01,1.047e-01,4.591e-01,4.978e-01,3.596e-01,7.723e-01,6.192e-01,1.872e-01,4.092e-01,7.741e-01,5.228e-01,4.209e-01,1.192e+00,3.089e-01,1.085e+00,4.639e-01,7.280e-01,1.997e-01,7.494e-01,5.530e-01,6.991e-01,5.622e-01,3.514e-01,2.932e-01,8.457e-01,6.342e-01,7.522e-01,1.056e+00,4.430e-01,1.042e+00,8.800e-01,6.369e-01,8.531e-01,4.123e-01,6.616e-01,4.368e-01,7.761e-01,9.139e-01,6.343e-01,5.873e-01,8.991e-01,1.991e-01,4.139e-01,1.243e+00
2.926e-03,2.919e-01,5.827e-01,4.882e-01,9.420e-01,1.165e+00,1.020e+00,8.075e-01,6.704e-01,6.351e-01,1.124e+00,1.318e+00,2.966e-01,1.193e+00,4.111e-01,8.862e-01,9.327e-01,6.154e-01,5.060e-01,9.733e-01,4.439e-01,1.677e-01,2.526e-01,5.040e-01,2.968e-01,2.268e-01,2.353e-01,7.046e-01,9.380e-01,1.109e+00,4.499e-01,1.068e+00,4.917e-01,9.065e-01,1.742e-01,1.012e+00,9.729e-01,3.542e-01,5.051e-01,8.566e-01,1.101e+00,2.493e-01,2.842e-01,8.870e-01,8.258e-01,5.439e-01,5.255e-01,7.076e-01,4.806e-01,7.191e-01,7.186e-01,1.072e+00,5.797e-01,8.106e-01,1.026e+00,1.138e+00,4.294e-01,1.155e+00,7.682e-01,5.370e-01,5.858e-01,4.858e-01,9.665e-01
1.169e-01,2.156e-01,2.771e-01,5.596e-01,7.939e-01,4.413e-01,2.937e-01,8.546e-01,6.082e-01,3.065e-01,9.073e-01,5.082e-01,9.834e-01,9.050e-01,1.989e-01,1.212e+00,9.615e-01,5.947e-01,5.508e-01,8.134e-01,1.030e+00,1.112e+00,1.058e+00,3.442e-01,1.028e+00,1.970e-01,7.930e-01,7.419e-01,1.042e+00,5.361e-01,2.185e-01,1.011e+00,1.120e+00,1.056e+00,7.908e-01,4.784e-01,1.017e+00,5.301e-01,7.944e-01,6.893e-01,8.220e-01,3.394e-01,5.770e-01,8.085e-01,3.004e-01,9.027e-01,4.869e-01,2.932e-01,9.788e-01,8.604e-01,1.176e+00,1.055e+00,9.989e-01,1.037e+00,4.920e-01,7.828e-01,8.977e-01,5.020e-01,9.450e-01,7.238e-01,1.391e-01,6.098e-01,9.108e-01
5.479e-01,8.397e-01,1.159e+00,1.363e+00,1.750e+00,1.814e+00,1.194e+00,2.364e+00,2.161e+00,2.156e+00,2.569e+00,1.676e+00,2.146e+00,3.028e+00,1.181e+00,2.029e+00,2.258e+00,1.171e+00,1.910e+00,2.240e+00,1.383e+00,2.430e+00,1.808e+00,1.230e+00,1.854e+00,1.326e+00,1.221e+00,2.309e+00,2.122e+00,2.183e+00,8.335e-01,2.996e+00,2.226e+00,2.231e+00,1.440e+00,2.082e+00,2.462e+00,1.861e+00,2.422e+00,2.081e+00,2.817e+00,1.051e+00,1.750e+00,1.731e+00,1.411e+00,1.616e+00,1.187e+00,1.975e+00,1.997e+00,2.035e+00,2.995e+00,2.596e+00,2.311e+00,2.573e+00,2.358e+00,2.163e+00,2.012e+00,2.220e+00,1.860e+00,2.091e+00,1.569e+00,1.687e+00,2.826e+00
4.659e-01,8.246e-01,9.629e-01,7.689e-01,9.617e-01,1.629e+00,1.310e+00,1.792e+00,1.819e+00,1.646e+00,2.130e+00,9.859e-01,1.577e+00,1.622e+00,1.257e+00,2.084e+00,1.985e+00,1.354e+00,9.869e-01,1.631e+00,1.061e+00,2.103e+00,1.778e+00,1.032e+00,1.202e+00,1.567e+00,1.019e+00,1.600e+00,1.673e+00,1.721e+00,1.161e+00,1.523e+00,1.222e+00,1.359e+00,1.619e+00,1.085e+00,1.595e+00,1.791e+00,1.751e+00,1.498e+00,1.935e+00,9.823e-01,9.070e-01,1.148e+00,1.754e+00,1.470e+00,1.303e+00,1.117e+00,1.320e+00,1.821e+00,1.642e+00,2.024e+00,1.069e+00,1.932e+00,1.372e+00,1.042e+00,2.168e+00,1.283e+00,1.107e+00,1.144e+00,1.252e+00,8.966e-01,2.347e+00
2.721e-01,3.544e-01,4.284e-01,4.953e-01,6.056e-01,7.132e-01,1.375e+00,1.058e+00,1.551e+00,1.719e+00,1.525e+00,1.418e+00,1.996e+00,2.290e+00,6.882e-01,1.214e+00,1.071e+00,9.612e-01,1.413e+00,1.432e+00,1.153e+00,1.450e+00,1.689e+00,6.973e-01,1.439e+00,1.157e+00,7.842e-01,1.156e+00,1.680e+00,1.167e+00,6.221e-01,1.888e+00,1.261e+00,1.248e+00,1.628e+00,1.271e+00,1.126e+00,1.798e+00,1.815e+00,1.582e+00,1.612e+00,1.413e+00,1.653e+00,9.517e-01,1.511e+00,9.581e-01,1.065e+00,1.896e+00,1.378e+00,1.647e+00,1.474e+00,1.304e+00,1.854e+00,1.571e+00,1.965e+00,1.382e+00,1.363e+00,1.296e+00,1.073e+00,2.000e+00,8.655e-01,1.078e+00,1.906e+00
2.714e-01,8.160e-01,1.066e+00,8.564e-01,1.638e+00,2.402e+00,2.176e+00,2.551e+00,3.186e+00,2.639e+00,4.344e+00,3.052e+00,2.744e+00,3.924e+00,2.072e+00,3.567e+00,3.208e+00,2.300e+00,1.876e+00,3.090e+00,2.129e+00,2.850e+00,3.051e+00,1.611e+00,2.611e+00,2.217e+00,2.226e+00,2.269e+00,3.036e+00,2.515e+00,2.053e+00,3.216e+00,2.755e+00,2.976e+00,3.261e+00,2.655e+00,2.352e+00,2.909e+00,2.913e+00,2.942e+00,3.686e+00,2.656e+00,1.783e+00,2.499e+00,2.705e+00,3.037e+00,2.732e+00,2.791e+00,2.712e+00,3.485e+00,3.219e+00,3.984e+00,2.989e+00,3.047e+00,2.613e+00,2.480e+00,3.096e+00,2.818e+00,2.306e+00,2.795e+00,2.271e+00,2.691e+00,3.822e+00
3.992e-01,7.968e-01,9.503e-01,7.088e-01,1.100e+00,1.527e+00,1.466e+00,1.852e+00,3.162e+00,2.822e+00,3.761e+00,2.468e+00,2.949e+00,3.278e+00,1.907e+00,3.329e+00,2.884e+00,2.262e+00,2.390e+00,3.108e+00,1.423e+00,2.226e+00,2.567e+00,1.344e+00,2.954e+00,2.601e+00,2.187e+00,2.532e+00,3.071e+00,2.590e+00,1.442e+00,3.377e+00,2.657e+00,2.693e+00,3.457e+00,2.599e+00,1.646e+00,2.355e+00,2.584e+00,3.012e+00,2.903e+00,2.586e+00,2.576e+00,2.337e+00,2.494e+00,2.097e+00,3.019e+00,2.862e+00,2.040e+00,3.004e+00,3.090e+00,3.636e+00,2.858e+00,2.695e+00,2.912e+00,2.461e+00,2.492e+00,2.793e+00,2.467e+00,2.820e+00,2.370e+00,2.885e+00,2.991e+00
3.037e-01,6.790e-01,9.303e-01,9.735e-01,1.600e+00,1.631e+00,1.875e+00,1.996e+00,2.587e+00,2.614e+00,3.461e+00,2.785e+00,3.160e+00,4.117e+00,1.943e+00,2.806e+00,2.962e+00,2.504e+00,2.204e+00,2.951e+00,2.714e+00,3.143e+00,3.348e+00,2.002e+00,2.631e+00,1.841e+00,1.837e+00,2.439e+00,3.843e+00,2.617e+00,1.269e+00,3.746e+00,3.104e+00,3.182e+00,3.290e+00,2.629e+00,2.214e+00,2.688e+00,3.029e+00,3.052e+00,2.975e+00,2.842e+00,3.170e+00,2.166e+00,2.900e+00,2.613e+00,2.678e+00,2.809e+00,2.735e+00,3.203e+00,3.841e+00,3.192e+00,3.217e+00,3.114e+00,3.639e+00,3.292e+00,2.894e+00,3.107e+00,3.120e+00,3.161e+00,1.674e+00,3.072e+00,3.570e+00
1.728e-01,8.621e-01,1.005e+00,3.642e-01,1.100e+00,1.240e+00,8.556e-01,1.002e+00,1.709e+00,1.475e+00,2.642e+00,2.044e+00,2.353e+00,2.480e+00,1.764e+00,2.335e+00,2.342e+00,2.168e+00,1.169e+00,2.596e+00,1.875e+00,2.008e+00,2.855e+00,1.890e+00,2.542e+00,1.665e+00,1.601e+00,1.937e+00,3.342e+00,2.319e+00,1.479e+00,2.548e+00,1.504e+00,2.990e+00,2.451e+00,2.441e+00,9.505e-01,1.808e+00,1.671e+00,2.531e+00,1.733e+00,2.518e+00,2.663e+00,1.605e+00,2.753e+00,2.425e+00,3.089e+00,1.789e+00,2.200e+00,3.000e+00,2.422e+00,2.759e+00,1.548e+00,2.060e+00,2.531e+00,2.628e+00,2.101e+00,2.737e+00,2.950e+00,2.260e+00,1.276e+00,1.988e+00,2.841e+00
9.919e-02,2.832e-01,4.430e-01,5.948e-01,1.046e+00,1.393e+00,1.666e+00,1.547e+00,2.294e+00,2.184e+00,3.159e+00,3.024e+00,3.225e+00,3.452e+00,2.418e+00,3.385e+00,3.075e+00,2.370e+00,2.408e+00,3.549e+00,2.505e+00,2.773e+00,3.393e+00,1.333e+00,3.259e+00,2.703e+00,2.033e+00,2.403e+00,3.991e+00,2.625e+00,1.542e+00,3.039e+00,3.060e+00,2.932e+00,3.973e+00,2.723e+00,2.031e+00,2.594e+00,2.653e+00,2.919e+00,2.611e+00,2.832e+00,3.632e+00,2.946e+00,2.469e+00,2.090e+00,2.667e+00,2.711e+00,2.254e+00,3.624e+00,3.767e+00,3.487e+00,3.035e+00,2.835e+00,3.524e+00,3.346e+00,2.241e+00,2.727e+00,3.089e+00,2.805e+00,2.466e+00,3.429e+00,3.374e+00
2.324e-01,7.257e-01,8.620e-01,7.282e-01,1.502e+00,2.049e+00,2.044e+00,2.231e+00,2.859e+00,2.674e+00,4.045e+00,3.021e+00,4.268e+00,4.265e+00,3.418e+00,3.951e+00,4.491e+00,3.821e+00,3.026e+00,4.589e+00,3.420e+00,4.133e+00,5.228e+00,2.469e+00,3.923e+00,3.479e+00,2.996e+00,3.220e+00,5.407e+00,3.703e+00,2.821e+00,4.518e+00,4.119e+00,3.950e+00,5.145e+00,3.550e+00,2.493e+00,3.803e+00,3.694e+00,3.453e+00,4.158e+00,3.984e+00,4.583e+00,3.510e+00,3.809e+00,4.012e+00,3.534e+00,3.306e+00,3.681e+00,4.937e+00,5.266e+00,4.213e+00,4.300e+00,3.997e+00,3.658e+00,3.916e+00,4.600e+00,3.097e+00,3.622e+00,4.334e+00,2.455e+00,4.487e+00,4.818e+00
2.973e-01,7.443e-01,9.329e-01,8.430e-01,1.514e+00,1.860e+00,2.168e+00,2.138e+00,2.779e+00,2.604e+00,3.774e+00,3.415e+00,4.392e+00,5.342e+00,3.275e+00,4.170e+00,4.285e+00,3.472e+00,3.412e+00,5.416e+00,3.479e+00,3.629e+00,5.884e+00,3.201e+00,4.864e+00,3.944e+00,3.688e+00,3.377e+00,5.556e+00,4.070e+00,3.641e+00,5.471e+00,4.516e+00,4.603e+00,4.984e+00,4.760e+00,2.550e+00,3.645e+00,4.328e+00,4.086e+00,4.396e+00,4.544e+00,4.774e+00,3.852e+00,3.928e+00,4.193e+00,3.969e+00,4.467e+00,4.030e+00,5.208e+00,5.620e+00,3.999e+00,5.231e+00,4.636e+00,4.891e+00,4.638e+00,4.530e+00,3.501e+00,3.460e+00,4.727e+00,2.301e+00,4.132e+00,5.525e+00
6.451e-04,2.608e-01,3.771e-01,5.121e-01,1.207e+00,1.303e+00,1.787e+00,1.640e+00,2.684e+00,2.299e+00,3.815e+00,3.182e+00,3.638e+00,4.457e+00,2.676e+00,4.424e+00,3.437e+00,3.760e+00,2.856e+00,4.330e+00,3.943e+00,3.521e+00,4.728e+00,2.574e+00,4.404e+00,3.644e+00,3.522e+00,3.265e+00,4.988e+00,3.243e+00,2.524e+00,4.511e+00,4.682e+00,4.498e+00,4.860e+00,4.464e+00,1.983e+00,3.103e+00,4.355e+00,3.598e+00,3.927e+00,4.150e+00,3.884e+00,3.355e+00,3.628e+00,3.303e+00,4.276e+00,3.761e+00,3.369e+00,4.712e+00,4.971e+00,3.981e+00,4.528e+00,4.262e+00,4.505e+00,4.437e+00,3.673e+00,3.070e+00,3.396e+00,4.093e+00,2.452e+00,4.611e+00,4.099e+00
2.364e-01,4.064e-01,5.996e-01,5.810e-01,8.457e-01,1.267e+00,1.211e+00,1.454e+00,2.192e+00,2.120e+00,2.936e+00,2.560e+00,2.763e+00,3.603e+00,2.409e+00,3.858e+00,4.010e+00,3.272e+00,3.194e+00,4.738e+00,3.091e+00,3.434e+00,3.528e+00,2.637e+00,3.186e+00,3.737e+00,3.004e+00,4.070e+00,4.965e+00,3.877e+00,2.901e+00,3.833e+00,4.257e+00,3.900e+00,4.208e+00,4.470e+00,2.736e+00,2.708e+00,3.418e+00,3.206e+00,3.946e+00,4.080e+00,3.972e+00,3.157e+00,4.108e+00,3.210e+00,3.913e+00,4.054e+00,3.101e+00,4.005e+00,5.221e+00,3.348e+00,3.531e+00,3.736e+00,3.911e+00,4.170e+00,2.952e+00,3.928e+00,3.489e+00,3.355e+00,3.516e+00,4.638e+00,3.993e+00
5.126e-01,1.032e+00,1.384e+00,1.214e+00,1.644e+00,2.224e+00,1.910e+00,2.346e+00,2.876e+00,2.567e+00,3.927e+00,3.090e+00,3.616e+00,4.163e+00,3.222e+00,5.263e+00,5.768e+00,4.947e+00,3.991e+00,6.549e+00,3.653e+00,4.353e+00,5.359e+00,3.605e+00,4.858e+00,4.529e+00,4.155e+00,5.579e+00,7.286e+00,5.956e+00,3.631e+00,5.793e+00,5.635e+00,4.856e+00,5.715e+00,5.247e+00,4.130e+00,3.255e+00,4.406e+00,4.927e+00,4.899e+00,4.393e+00,4.716e+00,4.347e+00,5.554e+00,4.368e+00,4.760e+00,5.094e+00,4.302e+00,5.090e+00,6.876e+00,4.800e+00,4.928e+00,5.222e+00,4.939e+00,5.278e+00,4.829e+00,5.314e+00,4.964e+00,3.912e+00,3.862e+00,5.321e+00,5.590e+00
6.217e-02,3.757e-01,5.743e-01,5.534e-01,1.106e+00,1.624e+00,1.729e+00,1.542e+00,1.997e+00,1.782e+00,3.087e+00,2.688e+00,2.896e+00,3.309e+00,2.397e+00,4.114e+00,3.690e+00,3.905e+00,2.844e+00,4.759e+00,4.353e+00,3.816e+00,4.230e+00,2.864e+00,4.557e+00,3.949e+00,3.296e+00,4.720e+00,5.658e+00,4.211e+00,3.488e+00,4.195e+00,4.826e+00,4.472e+00,4.514e+00,4.586e+00,3.873e+00,3.092e+00,4.371e+00,4.029e+00,3.394e+00,4.398e+00,4.103e+00,3.256e+00,5.100e+00,3.650e+00,4.373e+00,4.436e+00,3.957e+00,4.467e+00,5.189e+00,4.060e+00,3.597e+00,3.998e+00,4.488e+00,4.481e+00,3.623e+00,3.885e+00,4.074e+00,3.610e+00,3.545e+00,4.494e+00,5.041e+00
5.172e-01,1.109e+00,1.430e+00,1.291e+00,2.009e+00,2.283e+00,2.229e+00,2.701e+00,3.287e+00,3.035e+00,4.293e+00,3.377e+00,3.670e+00,4.874e+00,2.631e+00,4.179e+00,4.110e+00,3.731e+00,2.993e+00,5.438e+00,4.160e+00,4.795e+00,5.133e+00,3.720e+00,3.795e+00,3.349e+00,3.702e+00,4.666e+00,6.229e+00,4.563e+00,2.813e+00,5.244e+00,5.011e+00,4.651e+00,4.466e+00,4.708e+00,3.427e+00,3.970e+00,4.919e+00,4.515e+00,4.896e+00,4.184e+00,4.778e+00,3.952e+00,4.582e+00,3.837e+00,4.357e+00,3.968e+00,4.291e+00,5.095e+00,5.533e+00,4.876e+00,4.055e+00,4.542e+00,4.822e+00,5.124e+00,4.323e+00,4.782e+00,4.265e+00,4.119e+00,2.882e+00,4.724e+00,5.748e+00
5.801e-01,1.346e+00,1.725e+00,1.475e+00,2.406e+00,2.968e+00,2.957e+00,3.258e+00,3.852e+00,3.617e+00,5.140e+00,4.172e+00,5.053e+00,5.903e+00,3.417e+00,5.671e+00,6.050e+00,5.090e+00,4.330e+00,6.896e+00,6.308e+00,5.953e+00,6.527e+00,4.564e+00,6.272e+00,5.601e+00,4.235e+00,6.327e+00,8.767e+00,6.169e+00,4.769e+00,6.996e+00,6.129e+00,7.187e+00,6.401e+00,6.119e+00,5.821e+00,5.455e+00,6.370e+00,5.471e+00,6.401e+00,6.798e+00,6.554e+00,5.309e+00,7.876e+00,6.600e+00,6.757e+00,6.150e+00,6.255e+00,7.019e+00,7.714e+00,6.225e+00,5.177e+00,5.821e+00,6.544e+00,6.484e+00,6.667e+00,6.593e+00,5.910e+00,6.771e+00,4.587e+00,6.731e+00,7.659e+00
5.084e-01,1.065e+00,1.262e+00,9.220e-01,1.352e+00,1.923e+00,1.796e+00,2.129e+00,2.974e+00,2.708e+00,4.080e+00,3.227e+00,3.897e+00,4.396e+00,3.446e+00,5.083e+00,5.042e+00,3.966e+00,3.134e+00,6.371e+00,5.524e+00,5.216e+00,6.838e+00,5.329e+00,5.204e+00,5.695e+00,4.378e+00,5.910e+00,7.846e+00,5.981e+00,4.545e+00,4.993e+00,5.461e+00,6.108e+00,6.084e+00,5.490e+00,3.753e+00,4.976e+00,5.599e+00,5.054e+00,4.415e+00,5.836e+00,6.189e+00,4.724e+00,6.123e+00,5.622e+00,6.151e+00,4.770e+00,5.060e+00,6.635e+00,7.101e+00,5.506e+00,4.650e+00,5.474e+00,5.966e+00,6.406e+00,4.849e+00,6.440e+00,5.438e+00,4.857e+00,4.323e+00,5.809e+00,6.506e+00
1.525e-01,1.976e-01,2.344e-01,5.192e-01,6.727e-01,7.265e-01,8.102e-01,1.263e+00,1.511e+00,1.135e+00,2.640e+00,2.561e+00,3.140e+00,3.454e+00,2.394e+00,3.307e+00,3.759e+00,3.234e+00,2.256e+00,4.912e+00,5.284e+00,3.959e+00,6.877e+00,4.232e+00,5.195e+00,4.653e+00,4.226e+00,4.934e+00,6.901e+00,5.284e+00,3.972e+00,4.466e+00,5.561e+00,6.005e+00,5.453e+00,5.330e+00,3.824e+00,3.656e+00,5.423e+00,4.267e+00,4.744e+00,5.919e+00,5.372e+00,4.262e+00,5.293e+00,5.028e+00,5.652e+00,5.048e+00,4.998e+00,5.607e+00,6.164e+00,5.200e+00,4.340e+00,4.241e+00,4.980e+00,5.212e+00,5.068e+00,5.290e+00,4.366e+00,5.362e+00,3.830e+00,5.586e+00,5.347e+00
2.145e-01,8.629e-01,1.187e+00,9.378e-01,1.772e+00,1.713e+00,2.091e+00,1.727e+00,2.815e+00,2.350e+00,3.917e+00,4.051e+00,3.952e+00,4.601e+00,2.580e+00,5.532e+00,4.904e+00,5.027e+00,3.865e+00,6.649e+00,5.966e+00,4.200e+00,6.724e+00,4.854e+00,6.709e+00,6.580e+00,5.350e+00,6.631e+00,9.384e+00,7.366e+00,4.772e+00,6.555e+00,6.914e+00,7.892e+00,7.165e+00,7.186e+00,5.636e+00,4.816e+00,6.587e+00,6.562e+00,5.430e+00,6.553e+00,6.481e+00,5.734e+00,7.964e+00,6.411e+00,7.548e+00,7.362e+00,6.121e+00,6.998e+00,7.325e+00,6.572e+00,5.636e+00,6.761e+00,6.938e+00,7.275e+00,5.851e+00,7.287e+00,6.878e+00,7.353e+00,4.889e+00,7.158e+00,7.336e+00
4.739e-01,1.178e+00,1.575e+00,1.427e+00,2.353e+00,2.480e+00,2.365e+00,2.839e+00,3.562e+00,3.090e+00,4.483e+00,4.016e+00,3.886e+00,5.603e+00,3.328e+00,4.967e+00,4.908e+00,4.308e+00,4.187e+00,7.120e+00,5.426e+00,4.398e+00,7.902e+00,6.353e+00,7.689e+00,7.436e+00,6.374e+00,6.549e+00,9.074e+00,7.616e+00,5.969e+00,8.792e+00,8.538e+00,8.436e+00,7.130e+00,7.370e+00,5.459e+00,6.506e+00,7.997e+00,7.184e+00,7.103e+00,6.610e+00,6.997e+00,7.678e+00,7.015e+00,7.364e+00,7.376e+00,8.214e+00,7.286e+00,7.924e+00,9.019e+00,7.486e+00,7.998e+00,7.248e+00,7.113e+00,7.897e+00,7.423e+00,7.609e+00,6.338e+00,8.458e+00,5.175e+00,8.339e+00,8.730e+00
4.243e-01,6.283e-01,9.010e-01,1.080e+00,1.384e+00,1.890e+00,2.333e+00,2.356e+00,2.943e+00,2.843e+00,3.785e+00,3.864e+00,4.029e+00,5.518e+00,3.242e+00,4.860e+00,5.368e+00,3.897e+00,4.309e+00,6.906e+00,5.214e+00,4.861e+00,7.192e+00,5.517e+00,5.966e+00,7.263e+00,5.821e+00,6.890e+00,8.489e+00,7.220e+00,6.603e+00,7.108e+00,8.612e+00,7.525e+00,7.883e+00,7.067e+00,6.964e+00,6.136e+00,7.104e+00,7.349e+00,6.800e+00,6.928e+00,7.846e+00,7.171e+00,7.612e+00,7.262e+00,6.421e+00,8.489e+00,6.763e+00,7.825e+00,9.440e+00,7.192e+00,7.130e+00,7.602e+00,7.336e+00,7.857e+00,7.153e+00,7.528e+00,6.777e+00,7.778e+00,5.779e+00,8.035e+00,9.117e+00
5.902e-01,1.380e+00,1.725e+00,1.161e+00,1.779e+00,2.221e+00,2.422e+00,2.254e+00,3.331e+00,2.993e+00,4.038e+00,3.741e+00,3.640e+00,4.864e+00,3.305e+00,5.463e+00,5.015e+00,4.944e+00,3.874e+00,7.007e+00,5.520e+00,4.605e+00,7.047e+00,6.073e+00,6.754e+00,7.486e+00,6.063e+00,7.181e+00,9.150e+00,7.413e+00,6.555e+00,7.389e+00,7.810e+00,7.823e+00,7.463e+00,7.975e+00,5.378e+00,6.723e+00,7.636e+00,6.549e+00,5.878e+00,7.355e+00,7.206e+00,6.766e+00,8.269e+00,7.520e+00,7.493e+00,7.991e+00,7.073e+00,7.260e+00,8.236e+00,6.749e+00,6.513e+00,7.175e+00,7.499e+00,7.775e+00,6.885e+00,7.321e+00,6.414e+00,7.627e+00,5.484e+00,7.800e+00,9.331e+00
4.473e-01,1.236e+00,1.598e+00,1.036e+00,1.917e+00,2.609e+00,1.991e+00,2.461e+00,3.383e+00,3.310e+00,4.702e+00,3.821e+00,3.930e+00,5.269e+00,4.189e+00,4.999e+00,4.919e+00,4.484e+00,3.684e+00,6.807e+00,5.585e+00,5.199e+00,7.491e+00,6.477e+00,6.953e+00,7.200e+00,5.705e+00,7.538e+00,8.786e+00,7.845e+00,6.494e+00,7.970e+00,7.811e+00,8.804e+00,7.346e+00,8.462e+00,5.094e+00,6.639e+00,7.808e+00,7.502e+00,6.230e+00,7.238e+00,8.439e+00,7.070e+00,7.731e+00,6.466e+00,8.481e+00,8.114e+00,7.532e+00,8.194e+00,9.340e+00,7.798e+00,6.502e+00,6.976e+00,7.933e+00,8.837e+00,7.484e+00,7.887e+00,7.060e+00,6.979e+00,6.259e+00,8.502e+00,9.327e+00
5.515e-01,1.327e+00,1.661e+00,1.367e+00,2.190e+00,2.723e+00,2.831e+00,2.927e+00,3.556e+00,3.103e+00,4.435e+00,4.048e+00,3.893e+00,5.027e+00,3.414e+00,5.860e+00,5.035e+00,4.506e+00,3.666e+00,6.736e+00,6.378e+00,5.696e+00,7.758e+00,6.119e+00,7.479e+00,8.332e+00,6.611e+00,8.326e+00,1.060e+01,8.513e+00,7.686e+00,8.984e+00,9.558e+00,1.016e+01,9.922e+00,9.284e+00,8.096e+00,9.138e+00,9.292e+00,9.535e+00,8.032e+00,8.802e+00,9.831e+00,1.007e+01,1.045e+01,9.110e+00,9.148e+00,1.028e+01,9.984e+00,9.227e+00,1.039e+01,9.501e+00,7.651e+00,8.718e+00,8.697e+00,9.829e+00,1.022e+01,8.746e+00,8.495e+00,9.538e+00,7.524e+00,9.955e+00,1.198e+01
1.613e-01,2.881e-01,4.949e-01,7.423e-01,1.077e+00,1.806e+00,2.546e+00,2.065e+00,3.010e+00,2.712e+00,4.348e+00,3.842e+00,4.236e+00,5.080e+00,2.979e+00,5.639e+00,5.161e+00,4.246e+00,4.053e+00,7.043e+00,5.908e+00,4.997e+00,6.678e+00,5.197e+00,5.913e+00,6.165e+00,5.929e+00,6.783e+00,8.822e+00,7.056e+00,6.397e+00,6.566e+00,7.447e+00,7.591e+00,8.086e+00,7.668e+00,6.119e+00,6.187e+00,7.142e+00,7.555e+00,6.286e+00,7.732e+00,7.846e+00,6.706e+00,7.638e+00,7.015e+00,7.124e+00,7.138e+00,7.220e+00,7.536e+00,8.312e+00,7.560e+00,6.625e+00,7.370e+00,7.025e+00,7.435e+00,6.653e+00,7.635e+00,6.838e+00,6.620e+00,6.731e+00,7.951e+00,9.166e+00
5.684e-01,1.025e+00,1.323e+00,1.096e+00,1.515e+00,1.947e+00,1.990e+00,2.328e+00,3.457e+00,3.367e+00,4.282e+00,3.642e+00,3.937e+00,5.413e+00,3.375e+00,4.303e+00,4.555e+00,4.377e+00,4.028e+00,6.907e+00,4.514e+00,4.546e+00,7.108e+00,5.217e+00,6.073e+00,5.784e+00,5.459e+00,7.104e+00,9.233e+00,8.850e+00,5.953e+00,9.272e+00,8.315e+00,8.042e+00,8.638e+00,9.835e+00,5.265e+00,6.608e+00,8.256e+00,8.811e+00,8.121e+00,7.588e+00,8.746e+00,7.937e+00,7.972e+00,5.726e+00,8.756e+00,8.623e+00,8.316e+00,7.787e+00,9.475e+00,7.859e+00,8.016e+00,8.091e+00,8.409e+00,9.056e+00,8.426e+00,8.791e+00,6.397e+00,8.299e+00,6.735e+00,8.488e+00,8.943e+00
4.764e-01,7.265e-01,8.585e-01,8.317e-01,9.225e-01,1.318e+00,1.986e+00,1.703e+00,2.226e+00,2.197e+00,2.675e+00,2.255e+00,3.420e+00,3.816e+00,2.604e+00,3.806e+00,4.059e+00,4.053e+00,3.114e+00,5.021e+00,4.169e+00,3.822e+00,6.610e+00,5.083e+00,5.208e+00,6.474e+00,5.582e+00,6.184e+00,7.752e+00,7.690e+00,7.555e+00,7.397e+00,9.015e+00,8.137e+00,8.754e+00,8.501e+00,6.866e+00,7.456e+00,8.267e+00,8.198e+00,7.640e+00,6.840e+00,7.854e+00,7.365e+00,8.337e+00,7.123e+00,7.785e+00,8.286e+00,7.418e+00,7.894e+00,9.451e+00,7.602e+00,7.203e+00,9.045e+00,7.758e+00,7.961e+00,9.469e+00,7.753e+00,6.748e+00,9.042e+00,5.939e+00,8.446e+00,8.968e+00
3.153e-02,7.303e-02,1.205e-01,1.153e-01,2.921e-01,7.495e-01,1.063e+00,8.919e-01,1.728e+00,1.602e+00,2.718e+00,2.627e+00,2.859e+00,3.463e+00,2.246e+00,2.760e+00,2.813e+00,3.235e+00,2.337e+00,4.735e+00,5.194e+00,3.233e+00,5.744e+00,4.937e+00,5.821e+00,6.051e+00,4.833e+00,6.049e+00,7.548e+00,6.829e+00,6.586e+00,6.930e+00,8.024e+00,8.040e+00,8.218e+00,8.775e+00,5.542e+00,7.364e+00,7.548e+00,7.112e+00,7.546e+00,8.501e+00,8.820e+00,7.255e+00,8.331e+00,7.529e+00,8.426e+00,7.825e+00,7.722e+00,7.814e+00,8.284e+00,7.546e+00,6.460e+00,7.501e+00,8.239e+00,8.794e+00,7.543e+00,8.534e+00,6.581e+00,9.631e+00,6.907e+00,8.766e+00,7.771e+00
4.028e-01,1.179e+00,1.577e+00,1.207e+00,2.151e+00,2.246e+00,2.224e+00,2.368e+00,3.403e+00,2.967e+00,4.515e+00,4.365e+00,3.877e+00,5.264e+00,2.561e+00,4.749e+00,4.495e+00,3.667e+00,3.580e+00,6.594e+00,5.828e+00,4.203e+00,6.419e+00,5.330e+00,6.572e+00,6.465e+00,5.537e+00,7.358e+00,9.832e+00,8.253e+00,7.321e+00,8.663e+00,9.361e+00,1.003e+01,9.607e+00,1.061e+01,9.366e+00,8.967e+00,9.413e+00,1.037e+01,9.183e+00,9.732e+00,1.023e+01,8.950e+00,1.036e+01,9.029e+00,9.470e+00,8.338e+00,9.186e+00,1.004e+01,1.016e+01,1.098e+01,7.863e+00,1.029e+01,9.530e+00,1.020e+01,9.321e+00,1.105e+01,8.518e+00,1.079e+01,7.710e+00,9.708e+00,1.105e+01
3.797e-01,8.704e-01,1.005e+00,7.422e-01,1.280e+00,1.809e+00,1.565e+00,2.159e+00,3.387e+00,2.882e+00,4.490e+00,3.488e+00,3.919e+00,4.430e+00,3.714e+00,5.040e+00,5.028e+00,4.213e+00,3.372e+00,5.756e+00,4.338e+00,4.567e+00,6.729e+00,4.218e+00,5.629e+00,6.059e+00,5.125e+00,5.716e+00,7.794e+00,6.862e+00,5.774e+00,6.974e+00,8.160e+00,7.834e+00,9.529e+00,8.509e+00,6.001e+00,7.280e+00,7.613e+00,7.908e+00,7.532e+00,8.378e+00,8.829e+00,7.618e+00,7.976e+00,6.178e+00,9.093e+00,7.641e+00,7.574e+00,8.931e+00,9.256e+00,8.705e+00,6.904e+00,7.603e+00,6.805e+00,7.909e+00,8.899e+00,7.675e+00,6.938e+00,8.187e+00,7.432e+00,8.664e+00,8.399e+00
3.532e-01,6.915e-01,7.888e-01,6.813e-01,1.029e+00,1.317e+00,1.634e+00,1.630e+00,2.149e+00,1.983e+00,2.456e+00,1.984e+00,2.855e+00,3.021e+00,2.047e+00,2.943e+00,3.023e+00,3.037e+00,2.730e+00,4.277e+00,4.039e+00,3.238e+00,4.952e+00,3.791e+00,5.152e+00,5.128e+00,3.869e+00,5.433e+00,6.368e+00,5.260e+00,5.768e+00,6.640e+00,7.311e+00,6.337e+00,7.668e+00,7.435e+00,7.010e+00,7.644e+00,7.218e+00,7.610e+00,7.357e+00,7.483e+00,8.362e+00,6.847e+00,8.096e+00,7.434e+00,6.568e+00,6.731e+00,7.751e+00,7.826e+00,8.356e+00,6.931e+00,7.063e+00,6.998e+00,7.296e+00,7.521e+00,8.591e+00,7.249e+00,5.607e+00,8.477e+00,5.831e+00,7.099e+00,7.721e+00
5.873e-01,1.010e+00,1.323e+00,1.218e+00,1.495e+00,1.991e+00,2.428e+00,2.338e+00,3.396e+00,3.148e+00,4.072e+00,3.362e+00,3.937e+00,4.672e+00,2.806e+00,4.912e+00,4.930e+00,4.067e+00,3.866e+00,6.145e+00,4.130e+00,3.705e+00,5.921e+00,4.641e+00,5.033e+00,5.966e+00,5.257e+00,6.469e+00,7.731e+00,7.181e+00,6.436e+00,7.370e+00,8.586e+00,7.420e+00,9.384e+00,1.049e+01,8.590e+00,8.576e+00,8.608e+00,9.470e+00,9.564e+00,9.288e+00,9.928e+00,7.877e+00,9.218e+00,8.965e+00,8.028e+00,8.484e+00,8.172e+00,1.001e+01,1.027e+01,1.010e+01,8.003e+00,9.727e+00,9.468e+00,9.663e+00,9.732e+00,9.677e+00,7.566e+00,9.208e+00,7.202e+00,9.190e+00,9.613e+00
2.664e-01,4.019e-01,6.002e-01,9.413e-01,1.236e+00,1.740e+00,2.433e+00,2.083e+00,2.325e+00,2.272e+00,3.339e+00,2.942e+00,4.098e+00,4.163e+00,2.768e+00,4.366e+00,4.469e+00,4.742e+00,3.372e+00,5.702e+00,6.200e+00,4.819e+00,7.112e+00,4.961e+00,5.321e+00,6.406e+00,5.444e+00,6.741e+00,8.725e+00,8.292e+00,6.813e+00,6.593e+00,8.933e+00,8.083e+00,9.667e+00,1.085e+01,9.233e+00,9.566e+00,1.084e+01,9.762e+00,9.124e+00,9.569e+00,1.029e+01,8.183e+00,1.083e+01,9.100e+00,9.816e+00,9.160e+00,8.791e+00,1.085e+01,1.054e+01,1.037e+01,7.590e+00,1.044e+01,1.008e+01,9.690e+00,1.137e+01,9.071e+00,8.541e+00,1.019e+01,7.883e+00,9.716e+00,9.531e+00
5.490e-02,4.391e-01,5.230e-01,1.829e-01,8.042e-01,1.151e+00,1.209e+00,1.002e+00,1.666e+00,1.795e+00,2.142e+00,2.240e+00,2.116e+00,3.288e+00,2.961e+00,3.087e+00,2.779e+00,2.941e+00,2.825e+00,4.767e+00,3.727e+00,3.994e+00,5.110e+00,3.757e+00,4.658e+00,4.944e+00,4.169e+00,4.530e+00,6.759e+00,5.227e+00,4.967e+00,6.100e+00,6.630e+00,5.979e+00,7.210e+00,7.591e+00,5.532e+00,6.939e+00,7.365e+00,7.973e+00,5.613e+00,7.517e+00,8.885e+00,7.128e+00,6.950e+00,6.135e+00,7.113e+00,6.717e+00,7.603e+00,7.467e+00,7.907e+00,6.954e+00,7.274e+00,7.550e+00,6.975e+00,7.689e+00,8.214e+00,6.847e+00,6.597e+00,6.545e+00,6.167e+00,8.618e+00,9.047e+00
2.473e-01,4.367e-01,7.065e-01,8.815e-01,1.296e+00,1.523e+00,2.021e+00,1.774e+00,2.506e+00,2.686e+00,3.384e+00,3.051e+00,3.957e+00,4.868e+00,3.107e+00,4.242e+00,4.539e+00,4.593e+00,4.284e+00,6.688e+00,6.155e+00,4.484e+00,7.172e+00,5.956e+00,6.162e+00,6.744e+00,5.678e+00,7.590e+00,9.316e+00,8.567e+00,6.901e+00,8.672e+00,9.778e+00,8.830e+00,9.904e+00,1.211e+01,8.824e+00,9.225e+00,1.056e+01,1.094e+01,1.023e+01,1.098e+01,1.275e+01,8.988e+00,1.147e+01,1.009e+01,1.033e+01,9.820e+00,1.023e+01,1.124e+01,1.205e+01,1.062e+01,1.012e+01,1.087e+01,1.133e+01,1.217e+01,1.091e+01,1.083e+01,9.157e+00,1.090e+01,8.646e+00,1.144e+01,1.076e+01
1.359e-02,1.172e-01,3.120e-01,6.624e-01,1.080e+00,1.093e+00,1.153e+00,1.319e+00,1.475e+00,1.250e+00,2.710e+00,2.892e+00,3.317e+00,3.631e+00,2.555e+00,3.653e+00,4.297e+00,4.205e+00,3.269e+00,5.791e+00,4.584e+00,3.801e+00,5.480e+00,3.669e+00,5.468e+00,4.215e+00,4.504e+00,6.147e+00,8.222e+00,6.502e+00,5.499e+00,7.593e+00,8.592e+00,7.371e+00,8.839e+00,9.753e+00,7.460e+00,7.356e+00,7.356e+00,9.774e+00,9.398e+00,8.765e+00,1.103e+01,8.886e+00,9.405e+00,9.487e+00,8.539e+00,8.211e+00,9.494e+00,9.376e+00,1.201e+01,9.282e+00,8.951e+00,9.439e+00,9.452e+00,1.125e+01,9.636e+00,1.001e+01,9.936e+00,9.356e+00,8.419e+00,1.044e+01,9.828e+00
4.139e-01,6.827e-01,9.738e-01,9.569e-01,1.153e+00,1.471e+00,1.341e+00,1.693e+00,2.326e+00,2.228e+00,2.994e+00,2.976e+00,2.643e+00,4.049e+00,3.338e+00,4.329e+00,4.564e+00,4.186e+00,3.751e+00,6.762e+00,4.874e+00,4.319e+00,6.579e+00,5.531e+00,6.078e+00,6.977e+00,5.967e+00,7.619e+00,9.161e+00,8.664e+00,7.239e+00,8.589e+00,1.007e+01,8.212e+00,1.002e+01,1.040e+01,7.868e+00,7.814e+00,9.402e+00,9.228e+00,8.731e+00,9.289e+00,1.206e+01,1.097e+01,9.345e+00,9.020e+00,9.757e+00,1.044e+01,9.642e+00,9.500e+00,1.165e+01,1.027e+01,8.689e+00,1.033e+01,1.094e+01,1.172e+01,1.034e+01,1.055e+01,9.341e+00,1.022e+01,8.378e+00,1.166e+01,1.151e+01
1.534e-01,4.869e-01,6.646e-01,6.752e-01,1.311e+00,1.976e+00,2.318e+00,2.121e+00,2.900e+00,2.684e+00,4.005e+00,2.998e+00,3.531e+00,4.457e+00,2.859e+00,4.595e+00,3.760e+00,3.869e+00,3.408e+00,5.804e+00,5.489e+00,4.698e+00,6.681e+00,5.398e+00,6.234e+00,6.380e+00,5.800e+00,6.706e+00,8.257e+00,7.279e+00,6.130e+00,7.379e+00,7.941e+00,7.731e+00,8.848e+00,9.712e+00,7.280e+00,9.588e+00,9.780e+00,1.031e+01,8.004e+00,9.548e+00,1.105e+01,9.012e+00,1.013e+01,1.009e+01,9.673e+00,1.056e+01,1.015e+01,9.935e+00,1.031e+01,1.019e+01,9.574e+00,1.025e+01,9.845e+00,1.017e+01,1.039e+01,9.556e+00,9.675e+00,9.281e+00,7.993e+00,1.027e+01,1.048e+01
2.555e-01,5.831e-01,6.940e-01,6.218e-01,1.047e+00,1.139e+00,1.341e+00,1.567e+00,2.333e+00,1.874e+00,3.050e+00,3.128e+00,2.865e+00,4.241e+00,2.857e+00,3.981e+00,3.706e+00,3.378e+00,2.784e+00,5.286e+00,5.136e+00,3.827e+00,5.924e+00,4.668e+00,6.129e+00,6.293e+00,5.201e+00,5.467e+00,7.869e+00,5.788e+00,7.179e+00,7.616e+00,9.056e+00,8.800e+00,9.519e+00,9.850e+00,7.564e+00,9.602e+00,9.488e+00,9.342e+00,9.468e+00,1.086e+01,1.308e+01,1.141e+01,1.117e+01,1.168e+01,1.185e+01,1.058e+01,1.152e+01,1.038e+01,1.248e+01,1.028e+01,9.715e+00,1.102e+01,1.102e+01,1.205e+01,1.234e+01,1.115e+01,1.043e+01,1.282e+01,9.530e+00,1.249e+01,1.250e+01
3.297e-01,7.065e-01,1.013e+00,8.685e-01,1.315e+00,1.876e+00,1.705e+00,1.828e+00,2.086e+00,2.218e+00,3.009e+00,2.894e+00,2.899e+00,3.929e+00,2.754e+00,3.770e+00,4.123e+00,3.429e+00,3.018e+00,5.539e+00,5.132e+00,4.466e+00,5.404e+00,4.791e+00,4.781e+00,5.641e+00,4.140e+00,6.547e+00,8.229e+00,7.224e+00,6.168e+00,6.903e+00,7.609e+00,8.149e+00,8.520e+00,9.075e+00,8.386e+00,8.263e+00,8.746e+00,9.806e+00,8.713e+00,9.008e+00,1.258e+01,1.020e+01,1.066e+01,9.838e+00,1.009e+01,9.399e+00,1.014e+01,1.032e+01,1.116e+01,1.027e+01,8.511e+00,1.096e+01,1.112e+01,1.131e+01,1.073e+01,1.169e+01,1.022e+01,1.004e+01,9.159e+00,1.080e+01,1.167e+01
4.445e-01,1.013e+00,1.286e+00,1.152e+00,1.844e+00,2.091e+00,2.307e+00,2.563e+00,3.424e+00,2.930e+00,4.646e+00,4.448e+00,4.283e+00,5.710e+00,3.254e+00,5.473e+00,5.681e+00,4.612e+00,4.039e+00,7.612e+00,6.150e+00,5.942e+00,7.704e+00,5.874e+00,6.684e+00,6.732e+00,6.406e+00,7.540e+00,1.043e+01,8.557e+00,7.851e+00,9.138e+00,1.137e+01,9.624e+00,1.133e+01,1.082e+01,9.986e+00,9.719e+00,9.777e+00,1.197e+01,1.073e+01,1.154e+01,1.335e+01,1.108e+01,1.323e+01,1.183e+01,1.192e+01,1.161e+01,1.217e+01,1.284e+01,1.432e+01,1.258e+01,1.069e+01,1.332e+01,1.159e+01,1.319e+01,1.261e+01,1.365e+01,1.260e+01,1.331e+01,1.020e+01,1.243e+01,1.461e+01
3.658e-01,9.578e-01,1.212e+00,7.982e-01,1.335e+00,1.726e+00,1.287e+00,1.728e+00,2.553e+00,2.194e+00,3.536e+00,2.907e+00,2.695e+00,3.641e+00,3.397e+00,4.501e+00,4.382e+00,4.345e+00,2.809e+00,5.943e+00,4.592e+00,4.246e+00,6.292e+00,5.400e+00,5.312e+00,6.297e+00,5.427e+00,6.316e+00,8.367e+00,7.607e+00,6.667e+00,7.638e+00,8.995e+00,8.437e+00,9.347e+00,9.809e+00,7.219e+00,8.070e+00,9.344e+00,1.006e+01,9.540e+00,9.355e+00,1.258e+01,1.093e+01,1.045e+01,9.931e+00,1.208e+01,9.129e+00,1.036e+01,1.163e+01,1.188e+01,1.210e+01,9.157e+00,1.170e+01,1.157e+01,1.259e+01,1.279e+01,1.200e+01,1.138e+01,1.128e+01,9.969e+00,1.208e+01,1.144e+01
1.468e-01,6.851e-01,8.631e-01,6.480e-01,1.522e+00,1.781e+00,1.840e+00,1.822e+00,2.515e+00,2.391e+00,3.487e+00,3.298e+00,3.717e+00,4.373e+00,3.346e+00,4.448e+00,4.569e+00,4.207e+00,3.770e+00,5.941e+00,5.274e+00,4.942e+00,6.151e+00,4.422e+00,5.957e+00,5.912e+00,4.649e+00,6.135e+00,8.368e+00,6.234e+00,6.563e+00,7.550e+00,9.087e+00,8.104e+00,9.768e+00,8.803e+00,8.558e+00,9.639e+00,9.255e+00,1.043e+01,7.942e+00,9.776e+00,1.321e+01,1.002e+01,1.095e+01,9.942e+00,1.087e+01,1.075e+01,1.203e+01,1.261e+01,1.270e+01,1.106e+01,1.093e+01,1.307e+01,1.041e+01,1.208e+01,1.243e+01,1.082e+01,1.156e+01,1.168e+01,1.038e+01,1.128e+01,1.248e+01
5.530e-01,9.005e-01,1.185e+00,1.285e+00,1.628e+00,2.255e+00,2.764e+00,2.721e+00,3.462e+00,3.324e+00,4.636e+00,3.568e+00,5.100e+00,5.572e+00,3.310e+00,5.467e+00,5.541e+00,5.150e+00,4.246e+00,7.120e+00,6.465e+00,5.272e+00,8.155e+00,6.575e+00,7.179e+00,7.473e+00,6.614e+00,7.859e+00,1.012e+01,9.229e+00,7.868e+00,9.142e+00,1.011e+01,1.008e+01,1.020e+01,1.151e+01,8.493e+00,1.020e+01,1.082e+01,1.089e+01,1.084e+01,1.167e+01,1.290e+01,1.098e+01,1.259e+01,1.135e+01,1.296e+01,1.322e+01,1.178e+01,1.410e+01,1.355e+01,1.369e+01,1.186e+01,1.344e+01,1.240e+01,1.389e+01,1.371e+01,1.249e+01,1.204e+01,1.319e+01,1.090e+01,1.233e+01,1.253e+01
2.714e-01,6.033e-01,7.121e-01,7.379e-01,1.126e+00,9.700e-01,1.188e+00,1.461e+00,1.987e+00,1.467e+00,2.789e+00,2.996e+00,3.101e+00,4.091e+00,2.690e+00,4.391e+00,4.229e+00,3.450e+00,2.901e+00,5.587e+00,4.671e+00,3.996e+00,6.207e+00,4.011e+00,5.429e+00,4.941e+00,4.636e+00,4.919e+00,7.437e+00,5.852e+00,5.617e+00,6.365e+00,8.054e+00,6.552e+00,8.677e+00,8.744e+00,6.394e+00,7.811e+00,7.984e+00,8.737e+00,7.711e+00,9.599e+00,1.127e+01,9.973e+00,1.008e+01,1.080e+01,1.028e+01,1.029e+01,1.030e+01,1.217e+01,1.364e+01,1.111e+01,1.108e+01,1.274e+01,1.163e+01,1.223e+01,1.199e+01,1.090e+01,1.125e+01,1.134e+01,9.104e+00,1.088e+01,1.275e+01
8.671e-02,2.822e-01,5.040e-01,7.712e-01,1.342e+00,1.660e+00,2.124e+00,1.891e+00,2.202e+00,2.061e+00,3.245e+00,3.023e+00,3.471e+00,4.519e+00,2.598e+00,3.870e+00,3.917e+00,3.674e+00,3.439e+00,5.588e+00,4.565e+00,3.911e+00,6.146e+00,4.243e+00,5.178e+00,4.643e+00,4.996e+00,5.860e+00,7.168e+00,6.209e+00,5.884e+00,7.367e+00,7.728e+00,7.157e+00,7.439e+00,8.225e+00,6.562e+00,6.908e+00,8.352e+00,9.227e+00,7.999e+00,8.013e+00,1.034e+01,8.723e+00,9.471e+00,8.228e+00,8.962e+00,1.036e+01,1.016e+01,1.159e+01,1.263e+01,1.074e+01,1.100e+01,1.111e+01,1.037e+01,1.084e+01,1.262e+01,9.525e+00,9.963e+00,1.043e+01,9.477e+00,1.014e+01,1.200e+01
4.650e-02,3.896e-01,6.839e-01,6.044e-01,1.217e+00,1.656e+00,1.415e+00,1.478e+00,1.821e+00,1.624e+00,2.994e+00,2.896e+00,2.409e+00,3.786e+00,2.437e+00,3.777e+00,3.769e+00,2.934e+00,2.863e+00,5.403e+00,4.345e+00,3.273e+00,4.722e+00,4.900e+00,5.326e+00,5.590e+00,4.933e+00,5.537e+00,7.550e+00,6.280e+00,5.849e+00,6.815e+00,6.958e+00,7.598e+00,6.980e+00,7.896e+00,6.063e+00,7.300e+00,7.096e+00,8.780e+00,7.165e+00,8.835e+00,1.145e+01,1.052e+01,1.021e+01,1.042e+01,1.052e+01,1.128e+01,1.006e+01,1.086e+01,1.241e+01,1.209e+01,9.852e+00,1.182e+01,1.140e+01,1.211e+01,1.170e+01,1.147e+01,1.244e+01,1.050e+01,1.036e+01,1.242e+01,1.344e+01
4.575e-01,1.133e+00,1.508e+00,1.302e+00,2.177e+00,2.333e+00,1.786e+00,2.650e+00,3.221e+00,2.802e+00,4.439e+00,3.724e+00,3.700e+00,5.445e+00,3.016e+00,5.138e+00,4.860e+00,3.850e+00,3.683e+00,6.208e+00,5.282e+00,4.748e+00,5.789e+00,4.884e+00,6.213e+00,6.173e+00,5.384e+00,7.185e+00,8.670e+00,7.472e+00,6.947e+00,8.781e+00,8.760e+00,9.421e+00,9.232e+00,9.851e+00,8.323e+00,8.140e+00,9.003e+00,1.007e+01,8.738e+00,9.590e+00,1.226e+01,1.039e+01,1.132e+01,1.059e+01,1.135e+01,1.198e+01,1.166e+01,1.148e+01,1.332e+01,1.224e+01,1.112e+01,1.267e+01,1.179e+01,1.292e+01,1.265e+01,1.209e+01,1.248e+01,1.301e+01,1.072e+01,1.154e+01,1.377e+01
5.494e-01,1.042e+00,1.178e+00,8.607e-01,1.161e+00,1.535e+00,1.523e+00,1.888e+00,2.919e+00,2.632e+00,3.594e+00,2.585e+00,3.853e+00,3.865e+00,3.274e+00,4.799e+00,4.773e+00,4.994e+00,3.811e+00,6.713e+00,5.378e+00,4.946e+00,6.966e+00,5.992e+00,6.745e+00,7.518e+00,6.238e+00,7.971e+00,9.292e+00,7.648e+00,6.638e+00,8.048e+00,9.126e+00,8.371e+00,9.193e+00,9.009e+00,7.193e+00,8.617e+00,9.415e+00,1.020e+01,7.513e+00,8.879e+00,1.245e+01,1.015e+01,1.150e+01,9.886e+00,1.153e+01,1.192e+01,1.055e+01,1.200e+01,1.347e+01,1.186e+01,1.029e+01,1.142e+01,1.058e+01,1.322e+01,1.293e+01,1.191e+01,1.208e+01,1.093e+01,9.604e+00,1.228e+01,1.256e+01
1.985e-02,6.400e-01,9.727e-01,5.395e-01,1.383e+00,2.240e+00,2.656e+00,1.634e+00,2.180e+00,1.998e+00,3.304e+00,3.704e+00,2.676e+00,4.142e+00,3.233e+00,4.256e+00,4.246e+00,4.046e+00,2.942e+00,6.193e+00,5.054e+00,3.648e+00,6.242e+00,5.401e+00,5.700e+00,6.610e+00,5.428e+00,6.039e+00,9.330e+00,7.684e+00,7.266e+00,8.113e+00,8.384e+00,8.767e+00,9.660e+00,1.007e+01,8.445e+00,8.751e+00,8.865e+00,1.105e+01,9.234e+00,1.041e+01,1.280e+01,1.194e+01,1.298e+01,1.128e+01,1.234e+01,1.276e+01,1.221e+01,1.401e+01,1.401e+01,1.348e+01,1.115e+01,1.343e+01,1.214e+01,1.539e+01,1.655e+01,1.434e+01,1.303e+01,1.323e+01,1.111e+01,1.340e+01,1.502e+01
4.712e-01,6.400e-01,7.811e-01,1.003e+00,1.139e+00,1.028e+00,8.882e-01,1.853e+00,2.158e+00,1.767e+00,2.997e+00,2.522e+00,3.234e+00,4.436e+00,2.715e+00,3.979e+00,4.516e+00,3.738e+00,3.256e+00,5.902e+00,5.392e+00,4.339e+00,6.933e+00,5.483e+00,6.367e+00,6.355e+00,5.897e+00,6.690e+00,8.746e+00,7.249e+00,6.883e+00,8.445e+00,9.787e+00,9.105e+00,9.815e+00,1.057e+01,8.224e+00,9.049e+00,9.713e+00,9.893e+00,9.697e+00,1.057e+01,1.227e+01,1.090e+01,1.152e+01,1.208e+01,1.156e+01,1.311e+01,1.265e+01,1.402e+01,1.622e+01,1.317e+01,1.369e+01,1.429e+01,1.298e+01,1.570e+01,1.662e+01,1.481e+01,1.339e+01,1.519e+01,1.231e+01,1.464e+01,1.526e+01
4.767e-01,6.913e-01,9.464e-01,1.249e+00,1.594e+00,1.879e+00,1.857e+00,2.461e+00,2.484e+00,2.478e+00,3.277e+00,3.019e+00,3.775e+00,4.594e+00,3.099e+00,4.563e+00,5.151e+00,4.108e+00,4.038e+00,6.779e+00,5.844e+00,5.852e+00,6.610e+00,5.338e+00,6.043e+00,6.414e+00,5.442e+00,7.412e+00,1.017e+01,7.846e+00,6.925e+00,8.693e+00,9.614e+00,9.157e+00,1.052e+01,1.000e+01,9.662e+00,1.059e+01,1.037e+01,1.126e+01,1.023e+01,1.019e+01,1.451e+01,1.235e+01,1.235e+01,1.162e+01,1.139e+01,1.206e+01,1.347e+01,1.365e+01,1.520e+01,1.298e+01,1.237e+01,1.424e+01,1.232e+01,1.555e+01,1.573e+01,1.524e+01,1.411e+01,1.435e+01,1.192e+01,1.502e+01,1.511e+01
2.046e-01,3.562e-01,4.654e-01,7.192e-01,1.063e+00,1.510e+00,1.582e+00,1.949e+00,2.527e+00,2.158e+00,3.643e+00,2.349e+00,3.520e+00,3.482e+00,2.490e+00,4.773e+00,4.694e+00,3.995e+00,3.628e+00,5.920e+00,5.514e+00,5.046e+00,5.912e+00,4.660e+00,4.955e+00,5.601e+00,5.633e+00,7.165e+00,8.247e+00,7.429e+00,6.568e+00,6.759e+00,8.293e+00,7.538e+00,9.206e+00,8.947e+00,7.579e+00,8.140e+00,8.536e+00,9.040e+00,8.100e+00,9.788e+00,1.177e+01,1.017e+01,1.100e+01,1.053e+01,1.073e+01,1.172e+01,1.152e+01,1.167e+01,1.325e+01,1.203e+01,1.055e+01,1.239e+01,1.074e+01,1.262e+01,1.488e+01,1.359e+01,1.323e+01,1.264e+01,1.147e+01,1.344e+01,1.415e+01
4.657e-01,6.662e-01,8.696e-01,9.374e-01,1.043e+00,1.349e+00,1.132e+00,1.771e+00,2.399e+00,2.246e+00,3.224e+00,2.627e+00,3.505e+00,3.846e+00,2.778e+00,4.095e+00,3.974e+00,4.305e+00,3.392e+00,6.010e+00,5.500e+00,4.222e+00,6.836e+00,5.183e+00,7.133e+00,6.684e+00,5.620e+00,7.817e+00,9.221e+00,8.281e+00,6.122e+00,8.306e+00,8.288e+00,9.255e+00,9.142e+00,1.140e+01,8.102e+00,8.475e+00,1.075e+01,1.083e+01,9.692e+00,1.084e+01,1.314e+01,1.110e+01,1.239e+01,1.018e+01,1.260e+01,1.241e+01,1.197e+01,1.332e+01,1.419e+01,1.447e+01,1.127e+01,1.366e+01,1.381e+01,1.496e+01,1.653e+01,1.598e+01,1.422e+01,1.487e+01,1.339e+01,1.468e+01,1.555e+01
5.598e-01,1.161e+00,1.340e+00,1.019e+00,1.464e+00,1.639e+00,1.077e+00,2.016e+00,2.755e+00,2.262e+00,3.677e+00,2.816e+00,3.665e+00,3.652e+00,2.967e+00,5.074e+00,5.113e+00,4.337e+00,3.551e+00,6.897e+00,4.801e+00,5.360e+00,6.087e+00,4.717e+00,5.963e+00,5.509e+00,5.609e+00,7.191e+00,9.597e+00,7.790e+00,6.446e+00,8.008e+00,8.917e+00,8.375e+00,9.991e+00,1.007e+01,7.953e+00,8.740e+00,8.367e+00,1.035e+01,9.022e+00,9.850e+00,1.237e+01,1.089e+01,1.108e+01,1.005e+01,1.088e+01,1.099e+01,1.233e+01,1.365e+01,1.493e+01,1.339e+01,1.112e+01,1.379e+01,1.189e+01,1.488e+01,1.558e+01,1.627e+01,1.509e+01,1.421e+01,1.364e+01,1.579e+01,1.671e+01
3.083e-01,1.047e+00,1.229e+00,7.238e-01,1.570e+00,1.794e+00,1.434e+00,1.823e+00,2.544e+00,2.123e+00,3.309e+00,2.875e+00,2.675e+00,3.605e+00,2.998e+00,4.371e+00,3.507e+00,3.463e+00,2.409e+00,4.828e+00,5.020e+00,4.315e+00,6.115e+00,4.828e+00,5.671e+00,6.686e+00,4.972e+00,5.941e+00,7.810e+00,6.987e+00,6.712e+00,6.930e+00,8.159e+00,8.684e+00,9.386e+00,9.657e+00,7.527e+00,9.256e+00,1.006e+01,9.751e+00,8.518e+00,9.440e+00,1.276e+01,1.132e+01,1.161e+01,1.137e+01,1.272e+01,1.268e+01,1.280e+01,1.438e+01,1.398e+01,1.405e+01,1.179e+01,1.470e+01,1.361e+01,1.674e+01,1.761e+01,1.656e+01,1.563e+01,1.620e+01,1.306e+01,1.668e+01,1.677e+01
1.534e-01,3.940e-01,4.655e-01,2.588e-01,4.722e-01,7.873e-01,7.242e-01,8.704e-01,1.618e+00,1.277e+00,2.240e+00,1.817e+00,1.776e+00,2.499e+00,2.074e+00,3.529e+00,2.776e+00,3.371e+00,2.316e+00,4.717e+00,4.357e+00,3.350e+00,5.447e+00,4.552e+00,5.185e+00,5.857e+00,4.991e+00,5.559e+00,6.824e+00,6.508e+00,5.341e+00,5.706e+00,7.597e+00,6.764e+00,8.188e+00,9.239e+00,7.180e+00,7.497e+00,9.187e+00,9.367e+00,7.566e+00,9.308e+00,9.953e+00,8.575e+00,1.033e+01,8.820e+00,1.013e+01,1.032e+01,9.642e+00,1.114e+01,1.088e+01,1.113e+01,8.883e+00,1.122e+01,1.040e+01,1.181e+01,1.175e+01,1.175e+01,1.116e+01,1.128e+01,1.061e+01,1.204e+01,1.180e+01
2.997e-01,8.679e-01,1.125e+00,8.027e-01,1.543e+00,2.185e+00,2.223e+00,2.114e+00,2.912e+00,2.864e+00,3.709e+00,3.113e+00,3.454e+00,4.247e+00,3.433e+00,4.692e+00,4.736e+00,4.468e+00,3.869e+00,5.731e+00,4.435e+00,4.562e+00,6.213e+00,4.286e+00,5.371e+00,5.938e+00,4.624e+00,6.183e+00,8.007e+00,7.163e+00,6.104e+00,7.646e+00,8.311e+00,7.856e+00,8.887e+00,9.916e+00,7.493e+00,8.737e+00,8.953e+00,1.010e+01,9.479e+00,1.007e+01,1.187e+01,1.009e+01,1.104e+01,9.580e+00,1.149e+01,1.179e+01,1.102e+01,1.227e+01,1.354e+01,1.290e+01,1.230e+01,1.312e+01,1.180e+01,1.431e+01,1.477e+01,1.445e+01,1.387e+01,1.425e+01,1.344e+01,1.629e+01,1.538e+01
5.042e-01,1.199e+00,1.457e+00,1.190e+00,1.916e+00,1.803e+00,1.147e+00,2.145e+00,2.378e+00,2.004e+00,3.181e+00,2.462e+00,3.056e+00,3.507e+00,2.744e+00,4.402e+00,4.548e+00,4.680e+00,3.260e+00,5.956e+00,5.644e+00,5.285e+00,6.307e+00,5.379e+00,6.359e+00,6.372e+00,5.554e+00,7.721e+00,9.676e+00,7.681e+00,6.787e+00,8.876e+00,1.044e+01,9.789e+00,1.024e+01,1.040e+01,9.739e+00,9.818e+00,1.006e+01,1.135e+01,9.920e+00,1.007e+01,1.321e+01,1.116e+01,1.298e+01,1.099e+01,1.146e+01,1.159e+01,1.290e+01,1.318e+01,1.481e+01,1.281e+01,1.187e+01,1.318e+01,1.156e+01,1.491e+01,1.552e+01,1.505e+01,1.388e+01,1.554e+01,1.284e+01,1.571e+01,1.636e+01
