8.190e-01,7.550e-01,3.735e-02,6.560e-01,7.305e-01,5.117e-02,1.421e-01,9.627e-01,2.022e-01,5.780e-01,1.144e-01,5.925e-01,3.733e-01,4.994e-01,9.412e-01,9.658e-02,8.885e-02,7.229e-01,1.142e-02,3.495e-01,6.585e-01,5.801e-01,1.764e-01,1.001e-01,4.565e-01,5.429e-01,9.432e-01,8.045e-01,2.172e-01,3.846e-01,5.692e-02,3.449e-01,6.160e-01,5.654e-01,5.607e-01,9.680e-01,1.604e-01,2.369e-01,6.077e-01,8.404e-01,6.971e-01,7.161e-01,2.626e-02,4.357e-01,7.413e-01,2.774e-01,8.558e-01,2.637e-01,9.473e-01,4.255e-01,8.115e-01,2.460e-01,9.938e-01,8.405e-01,3.462e-01,3.370e-01,6.317e-01,3.410e-01,6.139e-01,8.854e-01,9.496e-01,2.878e-01,6.904e-01,3.064e-01
3.320e-01,1.190e+00,8.736e-01,7.441e-01,6.550e-01,6.212e-01,9.434e-01,1.025e+00,6.047e-01,9.859e-01,9.018e-01,7.156e-01,3.114e-01,2.146e-01,5.944e-01,8.265e-01,6.097e-01,3.619e-01,8.150e-01,1.019e+00,4.259e-01,2.464e-01,8.077e-01,8.361e-01,9.734e-01,8.506e-01,6.638e-01,1.012e+00,1.711e-01,2.695e-01,1.012e+00,6.735e-01,8.201e-01,1.212e+00,1.010e+00,6.278e-01,3.940e-01,7.561e-01,5.673e-01,4.824e-01,4.977e-01,1.074e+00,7.474e-01,7.066e-01,9.374e-01,1.081e+00,5.592e-01,9.267e-01,7.048e-01,5.430e-01,5.527e-01,3.975e-01,5.167e-01,6.452e-01,3.668e-01,5.503e-01,7.929e-01,9.776e-01,3.892e-01,5.374e-01,6.530e-01,3.386e-01,2.945e-01,4.262e-01
2.045e-01,7.794e-01,1.031e+00,4.839e-01,9.431e-01,6.999e-01,7.421e-01,1.194e+00,7.509e-01,9.645e-01,1.408e+00,7.244e-01,5.619e-01,5.006e-01,1.376e+00,6.924e-01,1.384e+00,2.302e-01,1.161e+00,9.101e-01,7.542e-01,4.932e-01,8.428e-01,8.962e-01,9.313e-01,1.186e+00,8.070e-01,8.251e-01,1.057e+00,8.790e-01,1.083e+00,6.842e-01,5.715e-01,1.745e+00,1.516e+00,7.116e-01,8.415e-01,6.649e-01,6.052e-01,8.454e-01,7.494e-01,1.491e+00,9.149e-01,6.944e-01,1.192e+00,1.082e+00,1.159e+00,1.550e+00,1.137e+00,1.138e+00,9.373e-01,1.101e+00,9.160e-01,1.125e+00,1.093e+00,8.382e-01,5.558e-01,7.009e-01,1.241e+00,5.819e-01,5.959e-01,7.262e-01,9.889e-01,4.349e-01
7.679e-01,1.123e+00,4.898e-01,1.240e+00,1.618e+00,6.534e-01,7.204e-01,1.633e+00,9.835e-01,1.868e+00,1.087e+00,1.182e+00,8.480e-01,9.068e-01,1.237e+00,9.368e-01,1.120e+00,8.921e-01,1.317e+00,1.725e+00,1.616e+00,6.926e-01,1.164e+00,6.910e-01,1.592e+00,1.513e+00,1.912e+00,1.731e+00,7.780e-01,1.125e+00,6.389e-01,7.109e-01,8.874e-01,1.406e+00,1.905e+00,1.325e+00,8.497e-01,1.089e+00,1.140e+00,1.006e+00,1.036e+00,1.380e+00,1.116e+00,1.174e+00,2.023e+00,1.603e+00,1.074e+00,1.145e+00,1.394e+00,1.016e+00,1.404e+00,1.448e+00,1.998e+00,1.822e+00,7.453e-01,1.512e+00,9.115e-01,1.711e+00,1.386e+00,1.608e+00,1.520e+00,8.553e-01,1.082e+00,1.258e+00
1.746e-02,2.410e-02,3.310e-01,2.355e-01,1.006e+00,5.236e-01,7.618e-01,7.063e-01,1.518e+00,1.374e+00,1.282e+00,1.354e+00,1.115e+00,1.177e+00,1.244e+00,6.316e-01,1.492e+00,2.663e-01,1.381e+00,1.646e+00,1.275e+00,6.331e-01,1.299e+00,5.777e-01,9.315e-01,1.113e+00,1.021e+00,1.037e+00,1.076e+00,1.355e+00,1.318e+00,5.260e-01,2.212e-01,1.361e+00,1.505e+00,4.755e-01,1.599e+00,1.313e+00,8.569e-01,9.402e-01,8.961e-01,9.530e-01,1.264e+00,8.939e-01,1.700e+00,1.107e+00,1.558e+00,1.702e+00,8.271e-01,1.645e+00,1.452e+00,1.252e+00,1.058e+00,1.742e+00,9.054e-01,1.837e+00,3.215e-01,6.369e-01,1.502e+00,5.973e-01,6.715e-01,1.244e+00,1.473e+00,1.238e+00
6.194e-01,6.138e-01,2.669e-01,5.271e-01,8.290e-01,1.075e+00,4.623e-01,1.961e+00,1.346e+00,8.277e-01,1.263e+00,1.380e+00,8.303e-01,6.907e-01,1.619e+00,1.062e+00,8.861e-01,7.742e-01,1.092e+00,1.440e+00,1.254e+00,1.499e+00,1.331e+00,1.062e+00,1.004e+00,1.557e+00,1.459e+00,9.830e-01,1.567e+00,1.089e+00,5.445e-01,6.916e-01,8.923e-01,1.548e+00,1.350e+00,1.329e+00,1.383e+00,5.286e-01,1.242e+00,1.257e+00,1.657e+00,1.257e+00,4.404e-01,6.606e-01,1.106e+00,1.270e+00,1.955e+00,1.552e+00,1.599e+00,8.402e-01,1.599e+00,1.183e+00,1.319e+00,1.396e+00,7.798e-01,1.434e+00,8.370e-01,8.224e-01,1.806e+00,1.500e+00,1.044e+00,5.803e-01,1.419e+00,9.803e-01
5.709e-01,1.317e+00,1.119e+00,1.266e+00,1.978e+00,1.148e+00,2.021e+00,2.581e+00,2.697e+00,2.492e+00,2.385e+00,2.388e+00,1.553e+00,2.046e+00,1.972e+00,1.699e+00,2.190e+00,1.333e+00,2.956e+00,3.369e+00,2.302e+00,1.221e+00,2.796e+00,1.866e+00,2.894e+00,3.132e+00,2.754e+00,2.237e+00,2.244e+00,2.375e+00,2.005e+00,1.506e+00,1.294e+00,2.970e+00,3.285e+00,1.698e+00,2.680e+00,2.743e+00,1.738e+00,1.917e+00,2.255e+00,3.006e+00,2.360e+00,2.393e+00,3.225e+00,2.996e+00,2.343e+00,2.813e+00,1.803e+00,2.299e+00,2.000e+00,2.424e+00,2.591e+00,3.357e+00,1.844e+00,2.945e+00,2.048e+00,2.166e+00,2.459e+00,2.570e+00,1.884e+00,1.541e+00,2.676e+00,1.979e+00
4.570e-01,8.524e-01,8.669e-01,8.430e-01,1.528e+00,9.731e-01,1.004e+00,2.217e+00,2.177e+00,2.646e+00,2.602e+00,1.756e+00,1.567e+00,1.316e+00,2.201e+00,1.468e+00,2.293e+00,1.751e+00,2.073e+00,2.503e+00,1.998e+00,1.554e+00,2.172e+00,1.312e+00,2.047e+00,2.480e+00,1.984e+00,2.190e+00,2.467e+00,1.764e+00,1.414e+00,1.356e+00,1.129e+00,2.240e+00,3.170e+00,2.130e+00,1.876e+00,1.760e+00,2.094e+00,1.878e+00,1.922e+00,2.260e+00,2.092e+00,1.500e+00,2.445e+00,2.069e+00,1.869e+00,2.223e+00,1.756e+00,1.918e+00,2.183e+00,2.501e+00,1.957e+00,3.178e+00,2.428e+00,2.281e+00,1.627e+00,1.894e+00,3.018e+00,1.767e+00,2.253e+00,1.238e+00,2.499e+00,2.128e+00
1.965e-02,5.457e-01,7.942e-01,3.531e-01,6.921e-01,7.215e-01,1.048e+00,1.433e+00,2.322e+00,2.084e+00,3.049e+00,2.241e+00,1.348e+00,1.080e+00,2.257e+00,1.832e+00,2.298e+00,1.621e+00,2.015e+00,2.067e+00,1.505e+00,1.907e+00,2.196e+00,1.706e+00,1.913e+00,1.949e+00,1.926e+00,1.924e+00,2.554e+00,1.279e+00,2.435e+00,1.600e+00,1.382e+00,2.461e+00,2.448e+00,1.807e+00,1.736e+00,2.404e+00,1.968e+00,1.398e+00,2.139e+00,2.094e+00,2.578e+00,1.212e+00,2.254e+00,1.715e+00,1.437e+00,2.352e+00,1.686e+00,1.724e+00,2.219e+00,1.956e+00,1.224e+00,2.426e+00,2.785e+00,2.327e+00,1.781e+00,2.130e+00,2.174e+00,1.560e+00,1.757e+00,1.449e+00,2.080e+00,2.169e+00
7.299e-01,8.013e-01,5.391e-01,6.659e-01,1.184e+00,8.203e-01,5.712e-01,2.187e+00,1.941e+00,2.422e+00,3.472e+00,2.413e+00,1.575e+00,2.057e+00,2.750e+00,2.358e+00,2.101e+00,2.050e+00,2.325e+00,2.461e+00,2.218e+00,2.416e+00,1.907e+00,2.246e+00,1.649e+00,2.705e+00,2.352e+00,2.837e+00,2.679e+00,2.207e+00,1.828e+00,1.509e+00,1.844e+00,2.819e+00,3.169e+00,3.338e+00,2.448e+00,2.198e+00,2.899e+00,2.902e+00,2.291e+00,2.540e+00,2.224e+00,1.775e+00,2.886e+00,1.655e+00,2.971e+00,2.792e+00,2.775e+00,1.751e+00,2.857e+00,2.316e+00,2.008e+00,3.269e+00,3.006e+00,2.403e+00,2.449e+00,1.915e+00,3.621e+00,2.265e+00,3.123e+00,1.715e+00,2.945e+00,1.963e+00
7.982e-01,1.305e+00,5.901e-01,1.282e+00,1.670e+00,1.369e+00,1.854e+00,2.825e+00,3.203e+00,2.633e+00,3.310e+00,4.391e+00,2.377e+00,2.408e+00,2.413e+00,3.438e+00,2.121e+00,2.124e+00,3.581e+00,4.576e+00,2.833e+00,3.171e+00,4.037e+00,2.989e+00,3.318e+00,3.673e+00,4.149e+00,3.632e+00,2.906e+00,3.189e+00,2.759e+00,2.742e+00,3.042e+00,4.191e+00,3.658e+00,3.064e+00,3.886e+00,3.414e+00,3.076e+00,2.645e+00,3.865e+00,3.017e+00,3.487e+00,2.996e+00,3.752e+00,4.055e+00,3.285e+00,4.154e+00,3.201e+00,2.378e+00,3.749e+00,3.199e+00,2.866e+00,3.590e+00,2.756e+00,4.586e+00,3.440e+00,3.779e+00,2.903e+00,3.507e+00,2.797e+00,2.434e+00,3.310e+00,3.393e+00
3.934e-01,1.025e+00,8.959e-01,8.981e-01,1.496e+00,1.776e+00,1.921e+00,2.912e+00,3.732e+00,3.303e+00,4.277e+00,4.956e+00,3.449e+00,3.428e+00,2.558e+00,4.733e+00,3.185e+00,3.268e+00,4.777e+00,5.924e+00,3.498e+00,4.170e+00,4.650e+00,3.346e+00,3.917e+00,4.739e+00,3.639e+00,4.271e+00,4.087e+00,3.641e+00,3.463e+00,3.498e+00,3.496e+00,4.519e+00,4.998e+00,4.098e+00,4.698e+00,3.448e+00,4.493e+00,3.349e+00,4.470e+00,3.229e+00,4.582e+00,3.325e+00,4.206e+00,4.625e+00,4.732e+00,5.129e+00,3.999e+00,3.691e+00,4.500e+00,3.996e+00,2.633e+00,4.625e+00,3.479e+00,4.864e+00,3.802e+00,4.321e+00,4.110e+00,2.896e+00,4.085e+00,2.905e+00,4.392e+00,4.497e+00
6.112e-01,1.063e+00,7.822e-01,1.110e+00,1.796e+00,9.802e-01,1.494e+00,2.366e+00,2.734e+00,3.043e+00,2.974e+00,3.197e+00,3.041e+00,2.523e+00,2.756e+00,2.772e+00,2.682e+00,2.940e+00,4.027e+00,4.338e+00,3.478e+00,2.847e+00,3.960e+00,2.484e+00,3.164e+00,3.466e+00,3.799e+00,3.959e+00,2.943e+00,3.141e+00,2.298e+00,2.770e+00,3.051e+00,3.367e+00,3.958e+00,2.909e+00,3.192e+00,2.997e+00,3.393e+00,2.620e+00,3.217e+00,3.435e+00,3.598e+00,3.171e+00,3.613e+00,3.495e+00,2.967e+00,4.239e+00,2.856e+00,3.339e+00,3.213e+00,3.930e+00,2.979e+00,4.523e+00,3.734e+00,4.342e+00,3.523e+00,3.410e+00,3.833e+00,2.963e+00,3.417e+00,2.406e+00,3.630e+00,3.950e+00
1.285e-01,7.533e-01,9.612e-01,5.041e-01,1.069e+00,1.572e+00,1.753e+00,2.357e+00,3.219e+00,2.425e+00,3.565e+00,3.652e+00,2.944e+00,2.896e+00,3.404e+00,4.384e+00,3.455e+00,3.167e+00,4.751e+00,5.244e+00,3.510e+00,3.391e+00,4.964e+00,3.777e+00,2.929e+00,3.688e+00,3.789e+00,4.112e+00,3.555e+00,3.542e+00,3.857e+00,3.502e+00,3.485e+00,4.625e+00,4.066e+00,2.935e+00,4.790e+00,3.580e+00,4.362e+00,3.299e+00,4.070e+00,3.854e+00,3.997e+00,3.521e+00,3.610e+00,4.066e+00,4.531e+00,5.835e+00,3.639e+00,3.971e+00,4.181e+00,4.406e+00,2.668e+00,4.507e+00,3.690e+00,5.305e+00,3.830e+00,3.344e+00,4.099e+00,2.475e+00,3.101e+00,2.665e+00,4.270e+00,3.670e+00
3.189e-01,4.719e-01,2.514e-01,4.550e-01,7.405e-01,5.112e-01,7.030e-01,1.105e+00,1.641e+00,1.751e+00,1.944e+00,2.584e+00,2.532e+00,2.277e+00,3.053e+00,3.248e+00,2.395e+00,2.969e+00,3.218e+00,4.346e+00,3.455e+00,3.255e+00,3.125e+00,2.141e+00,3.055e+00,2.396e+00,3.302e+00,3.955e+00,2.518e+00,2.422e+00,2.750e+00,3.496e+00,3.637e+00,2.522e+00,3.286e+00,3.148e+00,3.101e+00,2.886e+00,3.466e+00,2.831e+00,3.165e+00,2.753e+00,3.946e+00,3.245e+00,3.237e+00,2.578e+00,3.286e+00,3.935e+00,3.331e+00,3.190e+00,3.755e+00,3.082e+00,2.752e+00,3.510e+00,3.514e+00,4.078e+00,3.102e+00,3.597e+00,3.341e+00,2.363e+00,3.826e+00,2.569e+00,3.096e+00,3.655e+00
5.689e-01,1.207e+00,7.430e-01,8.286e-01,1.008e+00,8.477e-01,1.504e+00,1.860e+00,2.347e+00,2.148e+00,2.770e+00,3.675e+00,2.922e+00,2.672e+00,3.313e+00,4.150e+00,3.509e+00,3.688e+00,4.372e+00,5.017e+00,4.089e+00,4.229e+00,3.855e+00,2.934e+00,3.869e+00,3.532e+00,4.613e+00,5.143e+00,2.939e+00,3.001e+00,4.132e+00,4.682e+00,4.893e+00,3.954e+00,3.944e+00,4.614e+00,3.982e+00,4.315e+00,3.784e+00,3.451e+00,4.679e+00,4.123e+00,5.198e+00,4.454e+00,4.477e+00,4.368e+00,4.080e+00,5.173e+00,4.552e+00,4.190e+00,4.658e+00,3.235e+00,3.689e+00,3.944e+00,4.120e+00,5.140e+00,4.667e+00,4.627e+00,3.534e+00,3.069e+00,5.013e+00,3.673e+00,3.872e+00,4.336e+00
3.503e-01,1.105e+00,1.163e+00,9.540e-01,1.700e+00,1.438e+00,1.799e+00,2.311e+00,2.784e+00,2.693e+00,3.606e+00,3.071e+00,2.441e+00,2.801e+00,3.717e+00,3.768e+00,3.795e+00,2.519e+00,5.167e+00,5.934e+00,4.428e+00,3.639e+00,4.664e+00,3.555e+00,4.064e+00,4.568e+00,4.452e+00,5.019e+00,3.432e+00,3.933e+00,3.944e+00,4.227e+00,4.247e+00,4.389e+00,5.007e+00,4.228e+00,5.316e+00,4.749e+00,3.955e+00,4.323e+00,3.582e+00,5.179e+00,4.859e+00,5.098e+00,5.125e+00,4.577e+00,4.200e+00,5.509e+00,4.337e+00,3.862e+00,5.016e+00,3.920e+00,4.275e+00,5.306e+00,3.896e+00,5.437e+00,4.135e+00,4.239e+00,4.560e+00,4.103e+00,3.960e+00,3.934e+00,4.166e+00,3.877e+00
1.821e-01,7.305e-01,9.724e-01,7.346e-01,1.598e+00,1.537e+00,1.632e+00,2.304e+00,3.320e+00,3.180e+00,4.228e+00,3.625e+00,2.978e+00,3.065e+00,3.640e+00,4.103e+00,4.025e+00,3.748e+00,5.549e+00,6.159e+00,4.886e+00,4.462e+00,5.436e+00,4.124e+00,3.351e+00,4.241e+00,4.620e+00,4.951e+00,4.529e+00,4.658e+00,3.970e+00,3.793e+00,3.489e+00,4.583e+00,5.466e+00,4.441e+00,5.534e+00,4.262e+00,4.645e+00,4.078e+00,4.627e+00,5.059e+00,5.469e+00,4.679e+00,4.832e+00,4.304e+00,5.026e+00,6.257e+00,3.982e+00,4.984e+00,5.384e+00,5.099e+00,3.693e+00,5.842e+00,4.332e+00,6.144e+00,4.320e+00,4.678e+00,5.326e+00,3.097e+00,4.557e+00,3.482e+00,4.341e+00,4.284e+00
5.428e-01,8.791e-01,5.004e-01,7.027e-01,1.093e+00,6.155e-01,1.494e+00,1.628e+00,2.541e+00,2.107e+00,3.238e+00,4.415e+00,3.028e+00,3.327e+00,3.277e+00,4.406e+00,3.525e+00,4.331e+00,5.491e+00,6.773e+00,4.739e+00,5.488e+00,5.226e+00,4.052e+00,4.227e+00,4.359e+00,5.918e+00,5.841e+00,4.016e+00,5.420e+00,4.706e+00,4.985e+00,5.279e+00,5.421e+00,4.833e+00,5.885e+00,6.264e+00,4.778e+00,5.087e+00,4.540e+00,6.062e+00,5.596e+00,6.945e+00,5.679e+00,5.158e+00,5.383e+00,5.761e+00,6.711e+00,5.022e+00,5.165e+00,6.672e+00,5.267e+00,4.884e+00,5.269e+00,5.145e+00,7.058e+00,5.860e+00,5.581e+00,4.760e+00,4.211e+00,5.183e+00,4.363e+00,4.742e+00,5.288e+00
4.559e-01,8.876e-01,7.034e-01,9.689e-01,1.600e+00,8.473e-01,1.343e+00,2.026e+00,2.903e+00,3.422e+00,4.136e+00,3.489e+00,2.531e+00,3.055e+00,3.497e+00,3.993e+00,4.179e+00,3.554e+00,4.786e+00,5.935e+00,4.509e+00,4.289e+00,4.380e+00,3.470e+00,3.764e+00,4.326e+00,5.060e+00,6.071e+00,3.633e+00,4.606e+00,4.544e+00,3.626e+00,4.678e+00,4.529e+00,5.198e+00,5.178e+00,4.423e+00,5.101e+00,4.461e+00,4.435e+00,4.994e+00,5.077e+00,5.839e+00,5.108e+00,5.432e+00,4.658e+00,4.008e+00,5.764e+00,4.759e+00,4.215e+00,4.964e+00,4.630e+00,4.751e+00,5.120e+00,4.628e+00,6.074e+00,5.058e+00,4.798e+00,5.570e+00,3.930e+00,5.013e+00,4.084e+00,4.865e+00,4.944e+00
4.620e-02,7.136e-01,9.764e-01,6.735e-01,1.228e+00,1.140e+00,1.407e+00,1.931e+00,2.748e+00,2.733e+00,3.866e+00,3.308e+00,2.176e+00,2.348e+00,2.452e+00,3.580e+00,3.550e+00,3.045e+00,4.582e+00,5.524e+00,3.731e+00,4.267e+00,5.469e+00,3.970e+00,4.650e+00,5.260e+00,4.400e+00,4.824e+00,5.054e+00,4.681e+00,4.444e+00,4.732e+00,4.157e+00,4.290e+00,5.911e+00,4.665e+00,5.147e+00,4.595e+00,4.935e+00,4.099e+00,4.695e+00,5.486e+00,5.607e+00,5.121e+00,4.655e+00,5.156e+00,4.141e+00,5.110e+00,4.790e+00,3.445e+00,5.988e+00,4.314e+00,3.869e+00,5.567e+00,3.962e+00,5.332e+00,3.947e+00,4.796e+00,4.077e+00,3.846e+00,4.235e+00,3.580e+00,4.436e+00,4.379e+00
1.587e-01,2.733e-01,2.948e-01,2.463e-01,4.749e-01,3.192e-01,7.049e-01,1.108e+00,1.498e+00,1.256e+00,2.269e+00,1.701e+00,1.287e+00,1.970e+00,1.940e+00,2.353e+00,2.033e+00,2.306e+00,3.090e+00,3.196e+00,2.711e+00,3.546e+00,4.474e+00,3.992e+00,3.184e+00,3.466e+00,4.091e+00,4.314e+00,3.470e+00,3.943e+00,3.732e+00,3.889e+00,3.851e+00,3.088e+00,3.547e+00,3.674e+00,3.967e+00,3.823e+00,3.995e+00,3.731e+00,3.633e+00,4.556e+00,4.097e+00,4.362e+00,3.659e+00,3.785e+00,3.064e+00,4.415e+00,3.275e+00,2.952e+00,3.303e+00,2.933e+00,2.896e+00,4.066e+00,3.057e+00,4.789e+00,3.776e+00,2.477e+00,3.851e+00,3.536e+00,3.870e+00,2.220e+00,4.283e+00,2.845e+00
7.404e-01,1.497e+00,1.033e+00,1.121e+00,1.550e+00,1.536e+00,2.186e+00,3.196e+00,3.699e+00,3.131e+00,4.281e+00,4.323e+00,2.837e+00,3.852e+00,3.858e+00,5.089e+00,4.335e+00,4.514e+00,6.051e+00,7.954e+00,5.234e+00,5.553e+00,7.383e+00,6.126e+00,6.013e+00,7.351e+00,6.667e+00,7.104e+00,5.498e+00,6.846e+00,6.594e+00,6.069e+00,6.866e+00,6.602e+00,6.710e+00,6.809e+00,7.735e+00,6.773e+00,7.521e+00,6.554e+00,7.155e+00,8.038e+00,7.503e+00,7.313e+00,6.574e+00,6.972e+00,7.650e+00,8.079e+00,6.733e+00,5.069e+00,7.860e+00,6.434e+00,6.669e+00,7.264e+00,5.624e+00,7.743e+00,6.547e+00,6.289e+00,6.436e+00,5.628e+00,6.688e+00,5.204e+00,6.567e+00,6.254e+00
1.671e-02,1.563e-01,4.069e-01,4.309e-01,1.136e+00,1.416e+00,1.220e+00,2.059e+00,2.951e+00,2.375e+00,3.331e+00,3.376e+00,2.963e+00,3.220e+00,3.181e+00,4.450e+00,3.559e+00,3.706e+00,5.551e+00,7.343e+00,5.187e+00,5.269e+00,6.339e+00,4.674e+00,5.690e+00,5.779e+00,5.683e+00,6.159e+00,6.060e+00,6.486e+00,4.444e+00,5.659e+00,5.567e+00,5.164e+00,5.980e+00,5.714e+00,7.543e+00,5.232e+00,6.616e+00,5.345e+00,6.082e+00,5.829e+00,7.364e+00,6.124e+00,5.954e+00,5.994e+00,5.873e+00,7.380e+00,5.709e+00,5.057e+00,6.371e+00,6.414e+00,5.029e+00,6.857e+00,5.041e+00,7.348e+00,5.037e+00,5.748e+00,6.061e+00,4.870e+00,6.168e+00,4.407e+00,6.162e+00,6.138e+00
8.060e-01,8.905e-01,3.915e-01,9.440e-01,1.528e+00,9.899e-01,8.977e-01,2.300e+00,2.255e+00,2.777e+00,3.136e+00,3.474e+00,2.602e+00,2.771e+00,3.433e+00,4.058e+00,3.129e+00,3.758e+00,4.130e+00,6.310e+00,4.388e+00,5.471e+00,6.316e+00,4.962e+00,5.708e+00,5.999e+00,6.148e+00,6.737e+00,5.181e+00,6.370e+00,4.902e+00,6.818e+00,6.088e+00,6.593e+00,5.980e+00,7.087e+00,8.071e+00,5.700e+00,7.741e+00,6.354e+00,5.822e+00,6.149e+00,7.276e+00,6.414e+00,5.922e+00,6.603e+00,6.810e+00,7.224e+00,5.575e+00,5.005e+00,7.366e+00,6.186e+00,5.694e+00,7.475e+00,5.768e+00,7.278e+00,5.388e+00,6.658e+00,6.937e+00,5.786e+00,6.851e+00,4.446e+00,6.651e+00,6.052e+00
7.703e-01,7.278e-01,4.967e-01,9.192e-01,1.943e+00,8.425e-01,1.495e+00,2.483e+00,3.141e+00,2.835e+00,3.567e+00,4.011e+00,2.915e+00,3.896e+00,4.361e+00,3.711e+00,3.608e+00,4.125e+00,5.310e+00,8.250e+00,5.743e+00,6.614e+00,7.168e+00,4.971e+00,6.274e+00,7.450e+00,7.354e+00,7.417e+00,6.885e+00,7.685e+00,5.285e+00,7.122e+00,7.226e+00,6.356e+00,8.213e+00,7.372e+00,9.290e+00,6.818e+00,7.481e+00,7.657e+00,7.261e+00,8.568e+00,8.905e+00,8.781e+00,7.661e+00,6.725e+00,7.894e+00,7.853e+00,6.061e+00,6.950e+00,8.882e+00,7.199e+00,6.803e+00,9.278e+00,6.574e+00,8.899e+00,6.166e+00,6.736e+00,8.764e+00,6.754e+00,7.032e+00,6.244e+00,8.188e+00,6.660e+00
1.818e-02,6.762e-01,9.367e-01,5.310e-01,9.280e-01,9.201e-01,1.432e+00,1.840e+00,2.554e+00,2.492e+00,3.920e+00,3.582e+00,2.939e+00,3.322e+00,2.383e+00,4.582e+00,3.860e+00,4.048e+00,5.781e+00,6.060e+00,4.213e+00,5.160e+00,5.581e+00,4.271e+00,5.299e+00,6.254e+00,5.720e+00,6.018e+00,5.619e+00,5.295e+00,4.728e+00,6.980e+00,5.770e+00,5.663e+00,6.707e+00,6.915e+00,6.602e+00,6.360e+00,6.146e+00,5.188e+00,5.627e+00,7.015e+00,7.254e+00,6.530e+00,5.961e+00,6.508e+00,5.589e+00,7.322e+00,5.454e+00,5.038e+00,5.951e+00,5.024e+00,4.407e+00,7.032e+00,5.369e+00,6.382e+00,6.243e+00,5.976e+00,6.318e+00,5.836e+00,6.528e+00,4.465e+00,6.859e+00,6.203e+00
6.180e-01,9.592e-01,4.552e-01,1.078e+00,1.480e+00,1.191e+00,1.474e+00,2.575e+00,2.950e+00,2.591e+00,3.353e+00,4.126e+00,2.686e+00,2.739e+00,3.139e+00,4.319e+00,3.222e+00,3.565e+00,5.120e+00,7.670e+00,4.744e+00,6.300e+00,7.326e+00,5.341e+00,7.544e+00,7.091e+00,7.527e+00,7.566e+00,6.500e+00,7.449e+00,6.256e+00,8.171e+00,8.231e+00,7.541e+00,7.370e+00,8.342e+00,9.478e+00,7.094e+00,8.451e+00,6.545e+00,7.706e+00,7.946e+00,8.997e+00,7.817e+00,7.199e+00,9.300e+00,7.329e+00,8.146e+00,6.443e+00,5.930e+00,8.223e+00,6.842e+00,6.667e+00,8.519e+00,6.552e+00,9.251e+00,7.185e+00,7.831e+00,8.047e+00,8.571e+00,7.185e+00,5.033e+00,8.500e+00,8.020e+00
3.238e-02,6.547e-01,9.051e-01,6.908e-01,1.279e+00,1.162e+00,1.354e+00,1.829e+00,2.714e+00,2.670e+00,3.792e+00,3.770e+00,2.971e+00,3.029e+00,3.987e+00,5.071e+00,4.451e+00,4.057e+00,5.865e+00,7.577e+00,4.995e+00,6.128e+00,6.893e+00,4.985e+00,6.518e+00,6.335e+00,7.590e+00,7.484e+00,6.548e+00,7.139e+00,6.987e+00,8.280e+00,8.215e+00,7.464e+00,8.103e+00,7.321e+00,9.306e+00,7.297e+00,8.216e+00,6.666e+00,7.182e+00,7.862e+00,1.032e+01,8.204e+00,7.836e+00,7.645e+00,6.608e+00,8.968e+00,6.699e+00,6.832e+00,8.601e+00,8.078e+00,6.937e+00,8.479e+00,7.110e+00,9.908e+00,6.509e+00,7.744e+00,7.496e+00,7.316e+00,7.658e+00,6.324e+00,8.243e+00,7.736e+00
5.027e-01,1.027e+00,8.281e-01,9.744e-01,1.573e+00,1.378e+00,1.388e+00,2.497e+00,3.181e+00,3.278e+00,4.338e+00,4.671e+00,3.555e+00,2.937e+00,4.052e+00,5.059e+00,4.694e+00,4.663e+00,5.815e+00,7.440e+00,5.559e+00,7.011e+00,6.541e+00,4.612e+00,6.172e+00,6.417e+00,7.927e+00,7.892e+00,6.788e+00,7.518e+00,6.833e+00,9.343e+00,8.927e+00,7.443e+00,9.260e+00,9.748e+00,9.040e+00,8.587e+00,8.122e+00,7.030e+00,8.934e+00,8.218e+00,1.055e+01,8.940e+00,8.540e+00,8.276e+00,7.627e+00,9.375e+00,7.201e+00,7.829e+00,9.273e+00,7.212e+00,7.025e+00,9.003e+00,7.290e+00,1.035e+01,7.657e+00,8.738e+00,9.448e+00,8.415e+00,9.612e+00,7.007e+00,8.773e+00,9.058e+00
5.392e-01,1.161e+00,7.054e-01,1.121e+00,1.579e+00,8.954e-01,1.969e+00,2.205e+00,3.242e+00,3.273e+00,3.444e+00,4.498e+00,3.620e+00,3.649e+00,3.229e+00,4.816e+00,4.156e+00,5.150e+00,6.185e+00,8.249e+00,5.643e+00,5.886e+00,6.970e+00,4.523e+00,6.470e+00,7.008e+00,7.689e+00,7.806e+00,6.435e+00,7.569e+00,6.942e+00,9.200e+00,9.023e+00,7.503e+00,9.251e+00,9.566e+00,1.025e+01,9.006e+00,9.182e+00,7.753e+00,8.758e+00,9.300e+00,1.065e+01,9.044e+00,8.677e+00,9.058e+00,8.617e+00,9.610e+00,7.646e+00,8.383e+00,9.671e+00,7.629e+00,6.943e+00,1.022e+01,7.430e+00,1.049e+01,8.779e+00,9.157e+00,9.150e+00,8.120e+00,9.790e+00,7.098e+00,9.884e+00,9.086e+00
3.847e-02,4.532e-01,4.272e-01,4.562e-01,7.474e-01,8.647e-01,1.171e+00,1.233e+00,2.372e+00,2.112e+00,2.667e+00,2.823e+00,2.405e+00,2.022e+00,2.410e+00,3.221e+00,2.970e+00,3.003e+00,4.482e+00,6.131e+00,4.028e+00,4.854e+00,5.532e+00,3.555e+00,4.675e+00,5.147e+00,5.424e+00,6.071e+00,4.477e+00,5.766e+00,5.400e+00,7.532e+00,7.909e+00,5.824e+00,7.026e+00,7.287e+00,8.327e+00,7.211e+00,7.432e+00,6.745e+00,7.165e+00,7.625e+00,7.810e+00,8.439e+00,6.468e+00,7.134e+00,5.457e+00,7.568e+00,6.381e+00,6.681e+00,7.407e+00,5.989e+00,5.628e+00,7.668e+00,6.063e+00,8.693e+00,6.786e+00,7.440e+00,8.424e+00,6.953e+00,6.761e+00,6.021e+00,7.342e+00,7.105e+00
5.841e-01,7.194e-01,5.485e-01,7.083e-01,1.373e+00,5.960e-01,1.302e+00,2.109e+00,2.792e+00,2.602e+00,3.404e+00,3.563e+00,2.719e+00,3.582e+00,4.356e+00,4.247e+00,4.255e+00,4.552e+00,4.979e+00,7.025e+00,5.299e+00,5.777e+00,6.464e+00,4.886e+00,5.954e+00,6.159e+00,6.781e+00,7.322e+00,6.130e+00,7.248e+00,6.892e+00,8.206e+00,8.831e+00,7.501e+00,8.698e+00,8.757e+00,9.486e+00,8.926e+00,9.787e+00,8.556e+00,8.928e+00,9.217e+00,9.205e+00,9.811e+00,7.758e+00,7.903e+00,7.823e+00,9.485e+00,8.650e+00,8.146e+00,9.113e+00,7.357e+00,8.006e+00,9.197e+00,7.571e+00,9.482e+00,8.441e+00,7.826e+00,9.150e+00,7.576e+00,8.490e+00,6.822e+00,9.120e+00,7.034e+00
6.865e-01,8.165e-01,5.016e-01,8.590e-01,1.559e+00,9.948e-01,1.571e+00,2.488e+00,2.796e+00,2.076e+00,2.557e+00,3.248e+00,2.712e+00,3.086e+00,3.442e+00,3.257e+00,2.854e+00,3.888e+00,5.117e+00,6.834e+00,4.860e+00,5.359e+00,7.245e+00,5.159e+00,5.724e+00,6.248e+00,7.067e+00,6.144e+00,6.176e+00,7.849e+00,5.703e+00,8.132e+00,7.483e+00,7.800e+00,8.712e+00,8.542e+00,1.094e+01,8.229e+00,9.659e+00,7.572e+00,8.473e+00,9.694e+00,9.394e+00,9.419e+00,7.195e+00,8.109e+00,8.730e+00,1.016e+01,6.468e+00,7.605e+00,8.367e+00,8.378e+00,7.836e+00,1.056e+01,7.140e+00,9.194e+00,7.892e+00,8.161e+00,9.273e+00,9.627e+00,8.670e+00,6.190e+00,8.994e+00,7.722e+00
2.864e-01,6.634e-01,5.617e-01,7.683e-01,1.259e+00,7.160e-01,9.934e-01,1.328e+00,1.718e+00,1.992e+00,2.446e+00,2.575e+00,2.212e+00,2.149e+00,3.023e+00,3.379e+00,3.168e+00,2.875e+00,4.566e+00,5.763e+00,4.243e+00,4.197e+00,5.051e+00,3.486e+00,4.363e+00,4.560e+00,5.636e+00,5.608e+00,3.884e+00,5.104e+00,4.499e+00,6.597e+00,6.538e+00,5.593e+00,6.941e+00,6.358e+00,8.455e+00,6.301e+00,6.667e+00,6.720e+00,5.873e+00,7.114e+00,7.800e+00,7.673e+00,6.019e+00,6.892e+00,5.794e+00,7.555e+00,6.554e+00,5.937e+00,7.852e+00,7.055e+00,6.098e+00,7.502e+00,6.700e+00,8.239e+00,6.392e+00,7.447e+00,7.130e+00,6.829e+00,6.049e+00,6.087e+00,6.880e+00,6.403e+00
1.855e-01,2.736e-01,3.969e-01,3.730e-01,9.849e-01,8.439e-01,7.983e-01,1.468e+00,2.200e+00,2.070e+00,2.710e+00,3.144e+00,2.661e+00,2.303e+00,2.672e+00,3.373e+00,3.538e+00,3.848e+00,4.439e+00,6.734e+00,4.642e+00,6.110e+00,5.833e+00,3.489e+00,4.803e+00,5.681e+00,5.635e+00,6.202e+00,5.931e+00,6.512e+00,5.396e+00,7.679e+00,7.371e+00,6.002e+00,8.424e+00,8.702e+00,9.549e+00,7.297e+00,8.323e+00,8.195e+00,8.531e+00,8.669e+00,9.488e+00,8.611e+00,6.655e+00,8.316e+00,8.252e+00,9.480e+00,8.248e+00,7.571e+00,9.547e+00,7.671e+00,6.908e+00,9.430e+00,7.073e+00,9.381e+00,7.533e+00,8.891e+00,9.490e+00,8.015e+00,8.543e+00,6.894e+00,8.992e+00,8.572e+00
6.597e-01,1.434e+00,1.136e+00,1.020e+00,1.419e+00,1.502e+00,1.893e+00,3.074e+00,2.966e+00,2.485e+00,3.485e+00,3.608e+00,2.982e+00,3.091e+00,3.827e+00,4.547e+00,3.704e+00,4.372e+00,5.783e+00,8.210e+00,5.396e+00,6.125e+00,7.214e+00,5.339e+00,6.399e+00,7.331e+00,6.909e+00,7.661e+00,6.575e+00,8.051e+00,6.681e+00,8.650e+00,9.772e+00,7.692e+00,9.901e+00,9.012e+00,1.082e+01,9.798e+00,1.054e+01,1.003e+01,1.036e+01,1.123e+01,1.094e+01,1.165e+01,8.415e+00,9.835e+00,9.169e+00,1.094e+01,9.690e+00,8.956e+00,1.069e+01,8.546e+00,9.181e+00,1.140e+01,8.069e+00,1.091e+01,9.615e+00,9.578e+00,1.163e+01,1.005e+01,1.027e+01,8.538e+00,1.018e+01,9.198e+00
5.909e-01,7.566e-01,4.682e-01,7.723e-01,1.376e+00,1.190e+00,1.605e+00,2.730e+00,3.338e+00,2.482e+00,2.810e+00,3.819e+00,3.102e+00,2.820e+00,3.568e+00,3.892e+00,3.559e+00,4.628e+00,4.758e+00,6.634e+00,4.865e+00,5.623e+00,7.216e+00,4.680e+00,5.395e+00,6.215e+00,6.906e+00,6.132e+00,6.531e+00,6.930e+00,5.926e+00,8.921e+00,8.136e+00,7.643e+00,9.220e+00,8.714e+00,1.133e+01,9.792e+00,1.117e+01,9.254e+00,1.016e+01,1.019e+01,1.043e+01,1.021e+01,8.580e+00,1.061e+01,1.044e+01,1.110e+01,8.576e+00,9.947e+00,1.125e+01,9.538e+00,8.987e+00,1.150e+01,8.428e+00,1.090e+01,9.532e+00,1.020e+01,1.168e+01,9.918e+00,1.048e+01,8.264e+00,1.033e+01,9.850e+00
3.800e-01,7.882e-01,5.043e-01,7.034e-01,1.066e+00,6.456e-01,1.299e+00,1.307e+00,1.859e+00,1.967e+00,2.362e+00,3.271e+00,2.512e+00,3.281e+00,2.771e+00,4.107e+00,2.676e+00,3.643e+00,4.798e+00,7.922e+00,4.701e+00,5.338e+00,5.853e+00,4.375e+00,5.510e+00,5.720e+00,6.171e+00,6.748e+00,5.079e+00,7.064e+00,5.425e+00,7.955e+00,8.150e+00,6.411e+00,9.031e+00,8.602e+00,9.724e+00,8.503e+00,1.045e+01,8.490e+00,9.777e+00,1.003e+01,1.128e+01,1.112e+01,7.997e+00,8.871e+00,9.601e+00,1.066e+01,8.282e+00,9.144e+00,9.926e+00,8.308e+00,8.482e+00,1.041e+01,7.296e+00,9.934e+00,8.946e+00,9.527e+00,1.106e+01,9.235e+00,9.318e+00,7.988e+00,8.929e+00,9.669e+00
8.458e-02,8.480e-01,1.014e+00,6.861e-01,1.229e+00,1.603e+00,1.907e+00,2.330e+00,3.295e+00,2.622e+00,3.893e+00,4.326e+00,3.149e+00,3.070e+00,3.566e+00,5.064e+00,3.739e+00,3.258e+00,5.424e+00,7.572e+00,4.600e+00,5.206e+00,7.078e+00,5.311e+00,6.100e+00,6.091e+00,6.099e+00,6.776e+00,6.120e+00,7.019e+00,7.141e+00,8.333e+00,8.106e+00,8.132e+00,9.603e+00,7.658e+00,1.063e+01,8.650e+00,1.025e+01,9.555e+00,1.010e+01,9.693e+00,1.123e+01,9.889e+00,7.679e+00,9.938e+00,9.131e+00,1.208e+01,9.247e+00,8.908e+00,1.012e+01,9.304e+00,7.729e+00,1.126e+01,8.648e+00,1.088e+01,9.481e+00,1.042e+01,1.079e+01,9.107e+00,8.367e+00,7.393e+00,1.043e+01,9.902e+00
8.115e-01,1.465e+00,8.295e-01,1.404e+00,1.884e+00,1.363e+00,1.715e+00,2.882e+00,3.352e+00,3.645e+00,4.280e+00,4.545e+00,3.516e+00,3.737e+00,4.034e+00,5.263e+00,4.642e+00,4.919e+00,6.418e+00,7.571e+00,5.831e+00,6.581e+00,6.999e+00,5.154e+00,6.900e+00,6.933e+00,8.145e+00,8.230e+00,6.271e+00,6.725e+00,6.679e+00,8.692e+00,8.804e+00,7.138e+00,9.209e+00,9.698e+00,9.581e+00,9.840e+00,1.130e+01,8.852e+00,1.143e+01,1.173e+01,1.167e+01,1.103e+01,1.081e+01,1.090e+01,9.473e+00,1.108e+01,1.021e+01,9.326e+00,1.176e+01,8.743e+00,1.013e+01,1.246e+01,8.048e+00,1.142e+01,9.806e+00,1.093e+01,1.213e+01,1.159e+01,1.167e+01,8.771e+00,1.012e+01,1.148e+01
5.703e-01,1.016e+00,9.398e-01,8.959e-01,1.655e+00,1.315e+00,1.805e+00,2.831e+00,3.190e+00,2.528e+00,3.648e+00,4.251e+00,3.178e+00,3.407e+00,3.408e+00,4.381e+00,4.137e+00,3.752e+00,5.456e+00,5.972e+00,4.586e+00,4.972e+00,6.060e+00,4.716e+00,5.803e+00,6.701e+00,7.506e+00,6.589e+00,6.802e+00,7.137e+00,6.563e+00,8.401e+00,7.979e+00,7.622e+00,8.837e+00,8.267e+00,9.724e+00,9.375e+00,1.018e+01,8.945e+00,1.112e+01,1.184e+01,1.179e+01,1.012e+01,1.041e+01,1.055e+01,1.056e+01,1.217e+01,9.845e+00,1.030e+01,1.104e+01,8.583e+00,8.508e+00,1.225e+01,8.347e+00,1.151e+01,9.385e+00,1.002e+01,1.197e+01,9.767e+00,1.076e+01,8.720e+00,1.163e+01,1.079e+01
4.307e-01,4.883e-01,2.440e-01,5.090e-01,9.055e-01,7.667e-01,9.111e-01,1.602e+00,2.174e+00,1.759e+00,2.946e+00,2.898e+00,1.481e+00,2.542e+00,3.281e+00,3.504e+00,2.896e+00,2.657e+00,3.779e+00,5.215e+00,3.761e+00,4.357e+00,5.398e+00,4.670e+00,4.918e+00,5.324e+00,5.794e+00,5.516e+00,5.183e+00,6.435e+00,6.716e+00,7.615e+00,7.545e+00,6.887e+00,7.978e+00,7.912e+00,1.060e+01,9.038e+00,1.000e+01,9.985e+00,9.012e+00,9.634e+00,1.007e+01,9.833e+00,8.619e+00,8.932e+00,9.086e+00,1.064e+01,9.411e+00,7.683e+00,1.134e+01,8.877e+00,8.767e+00,1.107e+01,7.735e+00,1.078e+01,8.534e+00,1.024e+01,1.082e+01,9.622e+00,9.323e+00,8.352e+00,1.000e+01,8.372e+00
3.950e-01,4.458e-01,3.796e-01,7.037e-01,1.439e+00,1.273e+00,1.324e+00,2.404e+00,2.900e+00,2.090e+00,2.953e+00,3.816e+00,3.240e+00,3.616e+00,3.248e+00,4.255e+00,3.163e+00,4.156e+00,5.750e+00,7.364e+00,5.287e+00,5.852e+00,7.025e+00,5.191e+00,6.328e+00,6.844e+00,7.491e+00,6.462e+00,7.336e+00,8.622e+00,6.363e+00,8.561e+00,8.470e+00,7.919e+00,9.511e+00,8.867e+00,1.129e+01,9.309e+00,1.113e+01,9.027e+00,1.031e+01,1.047e+01,1.128e+01,1.042e+01,9.574e+00,9.547e+00,1.144e+01,1.222e+01,9.219e+00,9.729e+00,1.136e+01,1.055e+01,9.095e+00,1.292e+01,8.740e+00,1.247e+01,9.064e+00,1.143e+01,1.292e+01,1.160e+01,1.165e+01,8.210e+00,1.122e+01,1.109e+01
6.417e-01,1.167e+00,8.090e-01,8.515e-01,1.167e+00,1.458e+00,1.312e+00,2.618e+00,2.554e+00,1.884e+00,3.101e+00,3.472e+00,2.380e+00,1.979e+00,3.793e+00,3.775e+00,3.126e+00,3.113e+00,4.245e+00,6.264e+00,4.459e+00,5.746e+00,6.178e+00,4.857e+00,6.039e+00,5.933e+00,6.894e+00,6.711e+00,6.479e+00,6.932e+00,6.435e+00,8.864e+00,9.163e+00,7.766e+00,9.727e+00,8.826e+00,1.082e+01,9.270e+00,1.046e+01,9.413e+00,1.142e+01,1.157e+01,1.166e+01,1.170e+01,9.328e+00,1.145e+01,1.018e+01,1.255e+01,1.081e+01,9.311e+00,1.257e+01,1.063e+01,9.954e+00,1.233e+01,9.588e+00,1.239e+01,1.007e+01,1.202e+01,1.333e+01,1.193e+01,1.175e+01,9.437e+00,1.173e+01,1.061e+01
6.078e-01,7.299e-01,3.258e-01,8.871e-01,1.429e+00,7.533e-01,8.546e-01,1.845e+00,2.457e+00,2.843e+00,3.073e+00,3.290e+00,2.412e+00,2.147e+00,3.804e+00,3.705e+00,3.985e+00,3.773e+00,3.824e+00,5.718e+00,4.516e+00,5.534e+00,5.942e+00,4.032e+00,5.179e+00,5.161e+00,7.314e+00,7.523e+00,5.960e+00,7.473e+00,7.666e+00,9.545e+00,9.924e+00,8.311e+00,9.546e+00,1.041e+01,1.087e+01,1.013e+01,1.106e+01,9.716e+00,1.127e+01,1.076e+01,1.184e+01,1.039e+01,1.089e+01,1.119e+01,9.837e+00,1.257e+01,1.028e+01,1.043e+01,1.162e+01,9.848e+00,1.049e+01,1.304e+01,9.220e+00,1.272e+01,1.092e+01,1.270e+01,1.336e+01,1.181e+01,1.252e+01,9.653e+00,1.215e+01,1.132e+01
3.376e-01,1.086e+00,1.156e+00,1.059e+00,1.939e+00,1.592e+00,2.305e+00,3.004e+00,4.303e+00,4.039e+00,5.003e+00,5.205e+00,4.204e+00,4.319e+00,4.415e+00,5.804e+00,5.568e+00,5.022e+00,7.229e+00,8.912e+00,6.317e+00,6.566e+00,8.099e+00,5.699e+00,7.679e+00,8.590e+00,8.116e+00,8.596e+00,7.671e+00,8.131e+00,8.130e+00,9.784e+00,1.050e+01,8.098e+00,1.104e+01,1.019e+01,1.190e+01,1.115e+01,1.264e+01,1.001e+01,1.338e+01,1.310e+01,1.467e+01,1.302e+01,1.305e+01,1.328e+01,1.255e+01,1.377e+01,1.219e+01,1.308e+01,1.544e+01,1.228e+01,1.242e+01,1.631e+01,1.151e+01,1.508e+01,1.281e+01,1.463e+01,1.616e+01,1.301e+01,1.456e+01,1.231e+01,1.383e+01,1.497e+01
7.763e-01,7.191e-01,2.681e-01,9.504e-01,1.682e+00,1.079e+00,1.185e+00,2.634e+00,2.925e+00,2.774e+00,2.742e+00,3.611e+00,2.924e+00,3.294e+00,3.583e+00,4.017e+00,3.587e+00,4.674e+00,4.663e+00,6.998e+00,5.205e+00,5.618e+00,6.815e+00,4.298e+00,5.624e+00,6.245e+00,6.659e+00,6.718e+00,6.572e+00,7.070e+00,5.363e+00,7.477e+00,6.810e+00,6.341e+00,8.774e+00,7.788e+00,1.039e+01,7.545e+00,1.074e+01,1.017e+01,1.113e+01,1.086e+01,1.135e+01,1.016e+01,9.704e+00,1.053e+01,1.018e+01,1.202e+01,1.119e+01,1.076e+01,1.280e+01,1.094e+01,1.033e+01,1.446e+01,9.042e+00,1.288e+01,1.025e+01,1.226e+01,1.276e+01,1.062e+01,1.174e+01,9.106e+00,1.228e+01,1.149e+01
7.478e-02,6.072e-01,8.184e-01,5.740e-01,1.121e+00,1.627e+00,1.290e+00,2.281e+00,2.929e+00,2.648e+00,3.759e+00,3.725e+00,3.204e+00,2.774e+00,3.738e+00,5.160e+00,4.404e+00,4.472e+00,6.032e+00,7.914e+00,5.515e+00,6.215e+00,7.681e+00,5.514e+00,6.322e+00,7.010e+00,6.956e+00,6.953e+00,6.780e+00,7.349e+00,6.468e+00,9.367e+00,8.431e+00,7.329e+00,9.717e+00,8.981e+00,1.062e+01,9.182e+00,1.084e+01,9.121e+00,1.002e+01,1.040e+01,1.171e+01,1.074e+01,9.206e+00,1.098e+01,1.112e+01,1.335e+01,1.036e+01,1.016e+01,1.379e+01,1.160e+01,1.149e+01,1.415e+01,1.041e+01,1.371e+01,1.099e+01,1.455e+01,1.366e+01,1.154e+01,1.287e+01,1.002e+01,1.111e+01,1.221e+01
2.053e-01,6.646e-01,8.460e-01,4.264e-01,8.562e-01,1.227e+00,9.712e-01,1.927e+00,2.078e+00,1.789e+00,3.554e+00,3.402e+00,2.697e+00,2.569e+00,2.986e+00,4.252e+00,3.293e+00,3.634e+00,5.115e+00,5.637e+00,4.304e+00,5.821e+00,6.246e+00,5.357e+00,5.518e+00,5.973e+00,6.335e+00,6.421e+00,6.869e+00,7.137e+00,6.206e+00,8.590e+00,8.775e+00,7.708e+00,8.641e+00,8.609e+00,1.064e+01,7.707e+00,1.074e+01,8.796e+00,1.072e+01,1.071e+01,1.131e+01,1.013e+01,1.008e+01,1.120e+01,1.089e+01,1.195e+01,1.001e+01,1.114e+01,1.292e+01,1.102e+01,9.689e+00,1.315e+01,1.071e+01,1.239e+01,1.109e+01,1.262e+01,1.417e+01,1.056e+01,1.184e+01,9.583e+00,1.126e+01,1.183e+01
9.229e-02,7.443e-01,9.821e-01,5.976e-01,1.122e+00,1.618e+00,1.261e+00,2.219e+00,2.749e+00,2.414e+00,3.559e+00,3.626e+00,3.129e+00,2.247e+00,3.931e+00,4.767e+00,4.039e+00,4.077e+00,5.523e+00,7.541e+00,4.935e+00,6.554e+00,7.841e+00,5.537e+00,6.413e+00,6.095e+00,7.195e+00,7.629e+00,7.109e+00,7.695e+00,7.090e+00,8.852e+00,8.902e+00,8.168e+00,8.953e+00,8.398e+00,1.083e+01,8.002e+00,1.187e+01,9.182e+00,1.193e+01,1.182e+01,1.272e+01,1.061e+01,9.927e+00,1.212e+01,1.067e+01,1.407e+01,1.116e+01,1.216e+01,1.409e+01,1.238e+01,1.222e+01,1.531e+01,1.152e+01,1.470e+01,1.221e+01,1.509e+01,1.625e+01,1.216e+01,1.247e+01,1.103e+01,1.287e+01,1.426e+01
6.301e-01,1.091e+00,9.142e-01,1.033e+00,1.742e+00,1.356e+00,1.139e+00,2.490e+00,2.317e+00,2.679e+00,3.244e+00,2.863e+00,2.638e+00,2.399e+00,3.894e+00,3.711e+00,3.677e+00,3.997e+00,5.119e+00,7.183e+00,5.371e+00,6.240e+00,7.228e+00,5.099e+00,5.726e+00,6.543e+00,7.594e+00,7.917e+00,7.091e+00,8.836e+00,6.639e+00,9.603e+00,9.752e+00,8.361e+00,1.077e+01,1.000e+01,1.131e+01,9.957e+00,1.191e+01,1.031e+01,1.161e+01,1.240e+01,1.279e+01,1.251e+01,1.101e+01,1.200e+01,1.085e+01,1.397e+01,1.106e+01,1.219e+01,1.416e+01,1.316e+01,1.333e+01,1.636e+01,1.194e+01,1.533e+01,1.335e+01,1.451e+01,1.664e+01,1.338e+01,1.493e+01,1.190e+01,1.392e+01,1.362e+01
4.198e-01,5.501e-01,1.902e-01,6.207e-01,9.462e-01,1.236e+00,9.668e-01,2.104e+00,2.809e+00,2.575e+00,3.124e+00,3.318e+00,2.725e+00,2.245e+00,3.417e+00,3.902e+00,2.880e+00,3.973e+00,4.408e+00,7.096e+00,4.761e+00,5.679e+00,6.671e+00,4.399e+00,4.876e+00,5.700e+00,6.544e+00,6.932e+00,6.325e+00,7.395e+00,5.720e+00,8.521e+00,8.699e+00,6.967e+00,9.412e+00,9.054e+00,1.103e+01,8.776e+00,1.160e+01,9.874e+00,1.093e+01,1.068e+01,1.210e+01,1.098e+01,1.018e+01,1.058e+01,1.045e+01,1.375e+01,1.135e+01,1.163e+01,1.418e+01,1.302e+01,1.265e+01,1.693e+01,1.297e+01,1.600e+01,1.344e+01,1.626e+01,1.768e+01,1.344e+01,1.577e+01,1.308e+01,1.313e+01,1.515e+01
2.347e-01,5.205e-01,5.802e-01,4.998e-01,1.060e+00,1.368e+00,1.446e+00,2.434e+00,3.284e+00,2.747e+00,3.931e+00,3.694e+00,2.644e+00,3.150e+00,3.273e+00,4.349e+00,3.530e+00,4.070e+00,5.137e+00,8.284e+00,5.158e+00,6.472e+00,7.149e+00,5.287e+00,6.393e+00,7.609e+00,6.629e+00,7.385e+00,7.494e+00,8.676e+00,6.568e+00,8.986e+00,9.229e+00,7.285e+00,1.037e+01,9.855e+00,1.150e+01,1.024e+01,1.098e+01,1.071e+01,1.149e+01,1.132e+01,1.285e+01,1.206e+01,1.084e+01,1.037e+01,1.048e+01,1.219e+01,1.020e+01,1.066e+01,1.427e+01,1.218e+01,1.186e+01,1.693e+01,1.271e+01,1.533e+01,1.275e+01,1.494e+01,1.674e+01,1.289e+01,1.529e+01,1.211e+01,1.291e+01,1.374e+01
4.499e-01,7.468e-01,5.519e-01,6.963e-01,1.267e+00,9.998e-01,1.285e+00,1.880e+00,2.449e+00,2.481e+00,2.823e+00,2.749e+00,2.116e+00,2.471e+00,2.855e+00,3.009e+00,2.599e+00,2.525e+00,3.540e+00,5.507e+00,3.765e+00,3.864e+00,5.328e+00,3.997e+00,4.206e+00,4.971e+00,4.964e+00,5.856e+00,4.809e+00,5.846e+00,5.158e+00,6.710e+00,6.670e+00,6.021e+00,8.354e+00,6.598e+00,9.221e+00,8.150e+00,9.295e+00,9.286e+00,8.912e+00,1.008e+01,9.322e+00,1.041e+01,9.226e+00,1.016e+01,1.037e+01,1.234e+01,9.763e+00,1.012e+01,1.309e+01,1.118e+01,1.161e+01,1.515e+01,1.130e+01,1.373e+01,1.176e+01,1.446e+01,1.653e+01,1.234e+01,1.339e+01,1.181e+01,1.196e+01,1.285e+01
1.007e-01,9.552e-01,1.079e+00,7.851e-01,1.304e+00,1.567e+00,1.856e+00,2.176e+00,3.110e+00,2.753e+00,4.150e+00,3.609e+00,2.274e+00,2.958e+00,3.580e+00,4.904e+00,4.511e+00,3.055e+00,5.344e+00,5.956e+00,4.733e+00,4.191e+00,6.099e+00,5.634e+00,5.377e+00,6.123e+00,6.470e+00,6.357e+00,5.683e+00,6.059e+00,7.601e+00,7.861e+00,8.181e+00,7.565e+00,9.128e+00,7.426e+00,1.032e+01,9.854e+00,9.911e+00,8.429e+00,9.664e+00,1.068e+01,1.110e+01,1.058e+01,9.751e+00,9.746e+00,1.030e+01,1.156e+01,9.462e+00,1.015e+01,1.258e+01,1.016e+01,1.059e+01,1.374e+01,1.103e+01,1.427e+01,1.097e+01,1.432e+01,1.356e+01,1.041e+01,1.258e+01,1.183e+01,1.093e+01,1.175e+01
7.495e-01,1.372e+00,8.695e-01,1.054e+00,1.375e+00,1.164e+00,1.487e+00,2.654e+00,2.796e+00,2.922e+00,3.496e+00,3.128e+00,2.118e+00,2.323e+00,3.357e+00,3.666e+00,3.643e+00,4.356e+00,4.586e+00,6.807e+00,4.583e+00,5.904e+00,6.243e+00,4.541e+00,5.204e+00,5.859e+00,7.109e+00,7.277e+00,6.318e+00,6.981e+00,6.181e+00,8.349e+00,8.487e+00,7.401e+00,9.735e+00,1.014e+01,1.051e+01,8.712e+00,1.102e+01,9.102e+00,1.091e+01,1.143e+01,1.154e+01,1.081e+01,9.896e+00,1.134e+01,1.046e+01,1.220e+01,1.002e+01,1.104e+01,1.238e+01,1.059e+01,1.101e+01,1.397e+01,1.026e+01,1.448e+01,1.306e+01,1.341e+01,1.547e+01,1.284e+01,1.398e+01,1.044e+01,1.278e+01,1.330e+01
6.040e-01,1.386e+00,1.168e+00,1.248e+00,2.032e+00,1.527e+00,2.382e+00,3.054e+00,3.906e+00,3.427e+00,4.489e+00,4.355e+00,2.922e+00,3.560e+00,3.712e+00,4.257e+00,4.329e+00,4.027e+00,6.199e+00,7.655e+00,5.586e+00,6.204e+00,7.759e+00,5.808e+00,6.315e+00,7.088e+00,7.436e+00,7.832e+00,6.955e+00,8.128e+00,7.505e+00,8.206e+00,8.997e+00,8.050e+00,9.649e+00,9.144e+00,1.076e+01,9.618e+00,1.069e+01,1.010e+01,1.110e+01,1.161e+01,1.192e+01,1.097e+01,1.152e+01,1.246e+01,1.097e+01,1.356e+01,1.116e+01,1.338e+01,1.392e+01,1.199e+01,1.296e+01,1.668e+01,1.306e+01,1.686e+01,1.535e+01,1.600e+01,1.753e+01,1.455e+01,1.600e+01,1.265e+01,1.505e+01,1.652e+01
6.257e-01,1.118e+00,8.703e-01,8.268e-01,1.359e+00,1.375e+00,1.653e+00,2.867e+00,3.264e+00,3.075e+00,4.053e+00,4.193e+00,3.024e+00,3.753e+00,4.201e+00,5.317e+00,4.294e+00,4.625e+00,5.208e+00,7.625e+00,5.107e+00,6.025e+00,6.810e+00,5.089e+00,5.947e+00,6.776e+00,6.090e+00,7.347e+00,6.360e+00,6.408e+00,6.881e+00,8.435e+00,7.916e+00,7.079e+00,9.262e+00,8.807e+00,1.009e+01,8.639e+00,1.077e+01,1.058e+01,1.110e+01,1.148e+01,1.077e+01,1.095e+01,1.090e+01,1.115e+01,1.140e+01,1.261e+01,1.156e+01,1.061e+01,1.478e+01,1.150e+01,1.143e+01,1.659e+01,1.146e+01,1.490e+01,1.279e+01,1.619e+01,1.706e+01,1.390e+01,1.697e+01,1.145e+01,1.459e+01,1.484e+01
3.220e-01,6.475e-01,6.187e-01,4.794e-01,9.031e-01,6.362e-01,9.426e-01,1.480e+00,1.894e+00,2.011e+00,2.384e+00,3.008e+00,2.794e+00,2.565e+00,2.881e+00,3.896e+00,3.673e+00,4.565e+00,4.497e+00,6.405e+00,4.295e+00,5.600e+00,5.683e+00,3.731e+00,4.519e+00,5.040e+00,5.723e+00,6.528e+00,5.209e+00,6.865e+00,6.114e+00,8.047e+00,8.925e+00,7.304e+00,8.676e+00,9.206e+00,9.648e+00,8.522e+00,1.093e+01,8.619e+00,1.153e+01,1.070e+01,1.172e+01,1.109e+01,9.339e+00,1.095e+01,1.104e+01,1.280e+01,9.494e+00,1.236e+01,1.278e+01,1.179e+01,1.230e+01,1.534e+01,1.217e+01,1.427e+01,1.387e+01,1.546e+01,1.738e+01,1.363e+01,1.586e+01,1.254e+01,1.443e+01,1.624e+01
2.358e-01,5.177e-01,6.278e-01,6.063e-01,1.350e+00,1.569e+00,1.671e+00,2.625e+00,3.854e+00,2.933e+00,4.816e+00,5.209e+00,3.807e+00,4.114e+00,4.153e+00,5.573e+00,4.312e+00,4.570e+00,6.736e+00,8.570e+00,5.976e+00,7.678e+00,7.718e+00,5.695e+00,7.379e+00,7.490e+00,7.659e+00,7.899e+00,8.079e+00,8.293e+00,6.855e+00,9.238e+00,8.922e+00,8.045e+00,9.826e+00,9.907e+00,1.150e+01,1.020e+01,1.133e+01,1.007e+01,1.074e+01,1.084e+01,1.297e+01,1.111e+01,1.148e+01,1.174e+01,1.228e+01,1.454e+01,1.128e+01,1.160e+01,1.381e+01,1.126e+01,1.197e+01,1.564e+01,1.227e+01,1.497e+01,1.380e+01,1.608e+01,1.681e+01,1.573e+01,1.638e+01,1.289e+01,1.548e+01,1.729e+01
2.954e-01,1.132e+00,1.059e+00,1.064e+00,1.572e+00,1.533e+00,1.442e+00,2.335e+00,2.560e+00,3.019e+00,3.015e+00,2.871e+00,2.766e+00,2.032e+00,2.984e+00,3.992e+00,3.732e+00,3.951e+00,5.189e+00,6.911e+00,4.567e+00,5.231e+00,7.387e+00,4.871e+00,5.391e+00,6.037e+00,6.983e+00,6.843e+00,5.717e+00,6.946e+00,6.233e+00,8.548e+00,8.244e+00,7.005e+00,9.777e+00,8.279e+00,1.101e+01,8.601e+00,1.117e+01,9.523e+00,1.035e+01,1.136e+01,1.198e+01,1.105e+01,9.408e+00,1.122e+01,9.992e+00,1.285e+01,1.042e+01,1.052e+01,1.342e+01,1.265e+01,1.180e+01,1.551e+01,1.180e+01,1.556e+01,1.258e+01,1.548e+01,1.707e+01,1.407e+01,1.641e+01,1.313e+01,1.473e+01,1.652e+01
6.379e-01,1.086e+00,5.486e-01,8.889e-01,1.126e+00,1.223e+00,1.616e+00,2.459e+00,2.891e+00,1.845e+00,2.612e+00,3.741e+00,2.537e+00,3.023e+00,4.080e+00,4.639e+00,3.977e+00,4.095e+00,4.835e+00,6.236e+00,4.896e+00,5.580e+00,6.189e+00,4.645e+00,6.698e+00,6.386e+00,7.230e+00,6.601e+00,5.957e+00,5.664e+00,6.665e+00,8.748e+00,8.407e+00,7.290e+00,7.348e+00,8.013e+00,1.025e+01,9.405e+00,1.087e+01,8.808e+00,1.095e+01,1.049e+01,1.090e+01,1.048e+01,1.017e+01,1.132e+01,1.092e+01,1.139e+01,1.172e+01,1.102e+01,1.387e+01,1.010e+01,1.252e+01,1.467e+01,1.154e+01,1.441e+01,1.173e+01,1.454e+01,1.492e+01,1.393e+01,1.480e+01,1.228e+01,1.446e+01,1.510e+01
4.830e-01,1.234e+00,9.033e-01,1.090e+00,1.513e+00,1.313e+00,1.726e+00,2.320e+00,2.840e+00,2.977e+00,3.776e+00,3.611e+00,2.166e+00,2.735e+00,3.285e+00,4.468e+00,4.004e+00,3.638e+00,5.211e+00,7.684e+00,5.193e+00,5.829e+00,6.966e+00,5.578e+00,6.543e+00,6.845e+00,7.190e+00,7.712e+00,6.202e+00,7.793e+00,7.549e+00,9.031e+00,8.871e+00,7.228e+00,9.935e+00,1.011e+01,1.092e+01,1.017e+01,1.107e+01,1.015e+01,1.133e+01,1.181e+01,1.331e+01,1.148e+01,1.145e+01,1.274e+01,1.177e+01,1.330e+01,1.117e+01,1.232e+01,1.503e+01,1.153e+01,1.349e+01,1.640e+01,1.251e+01,1.616e+01,1.517e+01,1.774e+01,1.864e+01,1.531e+01,1.736e+01,1.434e+01,1.686e+01,1.872e+01
