5.962e-01,5.853e-01,6.340e-01,6.652e-01,6.340e-01,7.871e-01,3.481e-01,1.877e-01,6.584e-01,6.195e-02,9.377e-01,4.577e-01,5.297e-01,3.051e-01,4.650e-01,5.285e-01,7.909e-01,5.447e-01,6.707e-01,2.817e-03,3.871e-01,4.200e-01,3.381e-01,1.930e-01,6.057e-01,6.200e-01,4.239e-01,8.211e-01,2.225e-01,2.752e-01,7.003e-01,4.291e-02,5.104e-01,4.500e-01,8.164e-01,9.154e-01,1.976e-01,1.499e-01,5.758e-01,5.246e-01,1.975e-01,6.850e-01,1.866e-01,5.440e-01,9.745e-01,4.804e-01,7.589e-02,9.025e-01,7.702e-01,4.021e-01,6.329e-02,3.183e-01,6.942e-01,9.257e-01,9.780e-01
1.762e-01,9.070e-01,4.403e-01,1.061e+00,5.984e-01,6.700e-01,9.340e-01,7.985e-01,1.061e+00,4.252e-01,9.276e-01,6.659e-01,8.588e-01,5.787e-01,1.457e-01,6.596e-01,9.127e-01,1.743e-01,1.029e+00,5.359e-01,1.741e-01,6.777e-01,5.165e-01,6.570e-01,5.682e-01,6.794e-01,6.707e-01,9.034e-01,4.777e-01,4.729e-01,4.660e-01,4.953e-01,7.687e-01,9.192e-01,1.226e+00,8.669e-01,8.074e-01,3.142e-01,2.671e-01,6.803e-01,1.012e+00,5.402e-01,5.849e-01,1.019e+00,8.035e-01,5.258e-01,2.247e-01,5.754e-01,4.952e-01,8.862e-01,5.537e-01,4.244e-01,5.969e-01,5.443e-01,5.385e-01
7.740e-02,6.940e-01,1.122e+00,9.952e-01,1.125e+00,4.730e-01,1.488e+00,1.461e+00,1.165e+00,1.258e+00,1.067e+00,1.474e+00,9.809e-01,1.417e+00,7.130e-01,1.419e+00,9.443e-01,6.472e-01,1.483e+00,1.340e+00,5.044e-01,8.426e-01,4.107e-01,9.837e-01,1.352e+00,7.429e-01,8.146e-01,1.100e+00,1.335e+00,5.759e-01,1.304e+00,1.337e+00,9.353e-01,1.300e+00,1.774e+00,1.220e+00,1.265e+00,1.162e+00,5.959e-01,1.272e+00,9.904e-01,1.311e+00,1.001e+00,1.419e+00,1.398e+00,5.175e-01,3.707e-01,1.361e+00,9.479e-01,1.083e+00,6.239e-01,8.662e-01,5.657e-01,5.266e-01,8.882e-01
5.518e-01,6.758e-01,8.893e-01,1.620e+00,1.264e+00,1.379e+00,8.098e-01,7.233e-01,1.749e+00,1.020e+00,1.984e+00,1.189e+00,1.572e+00,8.504e-01,1.624e+00,1.323e+00,1.280e+00,1.149e+00,1.806e+00,1.205e+00,1.050e+00,7.473e-01,4.348e-01,1.414e+00,1.819e+00,1.438e+00,1.126e+00,1.832e+00,6.407e-01,1.078e+00,1.938e+00,1.310e+00,1.359e+00,1.534e+00,1.371e+00,2.064e+00,1.051e+00,1.301e+00,7.916e-01,8.367e-01,1.151e+00,1.138e+00,1.105e+00,1.842e+00,1.743e+00,7.691e-01,8.455e-01,2.029e+00,9.901e-01,6.899e-01,7.231e-01,7.032e-01,1.323e+00,1.088e+00,1.925e+00
3.821e-01,6.818e-01,1.220e+00,1.368e+00,1.896e+00,1.056e+00,1.298e+00,1.484e+00,2.192e+00,1.885e+00,2.313e+00,2.345e+00,1.944e+00,1.817e+00,2.040e+00,1.921e+00,1.942e+00,1.511e+00,2.308e+00,2.282e+00,1.600e+00,1.441e+00,9.245e-01,1.906e+00,1.853e+00,1.745e+00,1.196e+00,1.920e+00,1.272e+00,1.292e+00,2.290e+00,2.209e+00,2.188e+00,2.344e+00,1.886e+00,1.902e+00,1.302e+00,1.634e+00,1.532e+00,1.986e+00,1.096e+00,2.204e+00,1.670e+00,1.973e+00,2.766e+00,1.247e+00,1.140e+00,2.612e+00,1.977e+00,1.293e+00,1.029e+00,1.670e+00,1.877e+00,1.060e+00,2.389e+00
4.743e-01,1.099e+00,1.486e+00,2.074e+00,1.911e+00,2.213e+00,2.154e+00,2.148e+00,2.643e+00,2.047e+00,2.820e+00,2.502e+00,2.159e+00,1.912e+00,2.063e+00,2.862e+00,2.855e+00,2.001e+00,3.197e+00,2.784e+00,2.272e+00,1.414e+00,1.492e+00,2.842e+00,3.212e+00,2.648e+00,2.473e+00,3.266e+00,2.332e+00,2.006e+00,3.197e+00,2.311e+00,2.431e+00,2.677e+00,2.717e+00,3.524e+00,2.184e+00,2.491e+00,2.004e+00,1.757e+00,1.985e+00,2.507e+00,1.860e+00,3.432e+00,3.132e+00,1.338e+00,1.724e+00,3.030e+00,2.260e+00,1.753e+00,1.319e+00,1.760e+00,2.430e+00,2.111e+00,2.765e+00
5.259e-01,1.237e+00,1.383e+00,2.137e+00,1.852e+00,2.196e+00,2.685e+00,2.332e+00,3.497e+00,2.232e+00,3.110e+00,2.399e+00,3.017e+00,2.038e+00,2.516e+00,3.159e+00,3.258e+00,2.104e+00,3.193e+00,2.852e+00,3.083e+00,1.936e+00,1.762e+00,2.709e+00,3.268e+00,3.361e+00,3.073e+00,4.108e+00,2.243e+00,2.151e+00,3.735e+00,2.869e+00,2.604e+00,2.852e+00,3.199e+00,4.197e+00,2.419e+00,2.833e+00,2.153e+00,2.126e+00,2.101e+00,2.613e+00,2.055e+00,3.909e+00,3.719e+00,2.179e+00,2.075e+00,3.290e+00,2.783e+00,2.709e+00,1.771e+00,2.661e+00,3.109e+00,2.557e+00,3.145e+00
2.665e-02,3.467e-01,4.119e-01,1.045e+00,1.212e+00,7.236e-01,1.167e+00,1.419e+00,3.125e+00,2.603e+00,2.749e+00,2.461e+00,2.648e+00,1.608e+00,2.954e+00,2.526e+00,2.326e+00,1.631e+00,2.748e+00,2.666e+00,2.915e+00,1.485e+00,1.514e+00,2.010e+00,2.160e+00,2.564e+00,1.822e+00,2.487e+00,1.153e+00,1.532e+00,2.184e+00,3.143e+00,2.512e+00,3.063e+00,1.913e+00,2.784e+00,1.784e+00,2.213e+00,2.028e+00,2.002e+00,1.185e+00,2.473e+00,2.077e+00,2.732e+00,2.797e+00,2.108e+00,2.427e+00,2.566e+00,2.399e+00,1.780e+00,2.314e+00,1.901e+00,2.871e+00,1.256e+00,2.831e+00
4.522e-01,5.339e-01,7.900e-01,7.784e-01,1.175e+00,1.491e+00,1.230e+00,1.239e+00,1.799e+00,1.326e+00,2.360e+00,1.979e+00,2.206e+00,2.169e+00,1.556e+00,2.915e+00,2.792e+00,2.376e+00,2.374e+00,2.348e+00,2.964e+00,2.009e+00,1.853e+00,2.668e+00,2.607e+00,2.332e+00,1.973e+00,2.971e+00,2.276e+00,1.719e+00,2.613e+00,1.653e+00,2.145e+00,2.524e+00,1.767e+00,3.087e+00,1.167e+00,1.979e+00,2.682e+00,2.255e+00,1.367e+00,2.553e+00,1.370e+00,2.708e+00,3.542e+00,1.806e+00,1.691e+00,2.550e+00,3.132e+00,2.246e+00,1.101e+00,2.204e+00,3.133e+00,2.370e+00,3.001e+00
2.123e-01,7.427e-01,5.532e-01,1.427e+00,1.174e+00,1.045e+00,1.034e+00,1.182e+00,2.430e+00,2.395e+00,2.952e+00,2.911e+00,3.388e+00,2.512e+00,2.152e+00,3.282e+00,2.409e+00,2.119e+00,3.728e+00,2.976e+00,3.256e+00,2.131e+00,1.606e+00,2.965e+00,3.367e+00,3.005e+00,2.065e+00,2.799e+00,1.929e+00,2.293e+00,2.830e+00,2.771e+00,3.032e+00,3.876e+00,2.436e+00,2.975e+00,1.841e+00,2.163e+00,2.769e+00,2.313e+00,2.064e+00,2.693e+00,2.736e+00,3.681e+00,3.581e+00,1.916e+00,2.561e+00,2.802e+00,2.733e+00,2.981e+00,1.925e+00,1.873e+00,3.435e+00,2.086e+00,3.652e+00
5.325e-01,1.089e+00,1.512e+00,1.682e+00,1.711e+00,1.544e+00,2.276e+00,2.046e+00,2.905e+00,2.284e+00,3.189e+00,2.718e+00,3.305e+00,3.011e+00,3.094e+00,3.550e+00,2.748e+00,2.495e+00,3.925e+00,3.267e+00,3.603e+00,1.825e+00,1.904e+00,2.278e+00,3.211e+00,3.187e+00,3.195e+00,3.524e+00,2.543e+00,1.952e+00,3.706e+00,3.353e+00,2.712e+00,3.018e+00,3.560e+00,4.121e+00,2.447e+00,2.938e+00,2.413e+00,2.476e+00,2.166e+00,3.521e+00,2.065e+00,4.310e+00,4.035e+00,2.943e+00,1.875e+00,3.138e+00,3.105e+00,3.076e+00,2.296e+00,2.639e+00,3.606e+00,2.654e+00,3.917e+00
4.936e-02,1.231e-01,1.551e-01,5.429e-01,7.551e-01,4.564e-01,8.076e-01,8.167e-01,2.085e+00,2.030e+00,1.859e+00,2.434e+00,3.443e+00,2.065e+00,2.894e+00,2.814e+00,2.321e+00,1.978e+00,2.386e+00,2.954e+00,3.908e+00,1.808e+00,1.354e+00,1.673e+00,2.374e+00,2.855e+00,2.137e+00,2.629e+00,1.180e+00,2.635e+00,2.997e+00,2.785e+00,2.758e+00,2.788e+00,1.620e+00,2.186e+00,1.992e+00,2.172e+00,2.364e+00,1.565e+00,1.596e+00,2.566e+00,2.663e+00,2.875e+00,3.495e+00,1.893e+00,2.691e+00,2.940e+00,2.834e+00,2.456e+00,1.682e+00,2.789e+00,3.066e+00,1.870e+00,3.289e+00
4.641e-01,7.044e-01,7.959e-01,1.568e+00,1.236e+00,1.415e+00,1.492e+00,1.178e+00,2.629e+00,1.984e+00,2.922e+00,2.387e+00,5.074e+00,3.038e+00,3.474e+00,3.538e+00,3.131e+00,3.135e+00,4.536e+00,4.163e+00,4.847e+00,2.405e+00,1.886e+00,3.079e+00,3.814e+00,4.116e+00,3.591e+00,3.934e+00,2.597e+00,3.641e+00,4.902e+00,4.133e+00,3.051e+00,3.758e+00,3.063e+00,4.011e+00,3.021e+00,3.457e+00,2.961e+00,2.134e+00,2.647e+00,3.196e+00,2.938e+00,4.735e+00,4.441e+00,3.624e+00,2.995e+00,4.284e+00,3.379e+00,3.495e+00,2.531e+00,3.476e+00,3.875e+00,3.279e+00,5.160e+00
4.896e-01,6.296e-01,1.273e+00,1.638e+00,2.026e+00,1.837e+00,2.027e+00,2.006e+00,3.487e+00,3.123e+00,3.734e+00,3.786e+00,5.090e+00,3.880e+00,5.178e+00,5.016e+00,4.576e+00,4.429e+00,5.691e+00,5.767e+00,6.098e+00,3.131e+00,2.889e+00,3.759e+00,4.652e+00,5.218e+00,4.822e+00,5.378e+00,3.223e+00,4.918e+00,6.037e+00,4.896e+00,4.883e+00,4.745e+00,3.903e+00,5.505e+00,3.726e+00,5.123e+00,4.538e+00,3.615e+00,3.045e+00,5.092e+00,3.947e+00,5.789e+00,6.244e+00,3.887e+00,4.307e+00,5.343e+00,4.519e+00,4.074e+00,2.917e+00,4.600e+00,5.001e+00,4.233e+00,6.525e+00
4.876e-01,5.458e-01,6.645e-01,6.696e-01,6.825e-01,1.141e+00,9.280e-01,8.967e-01,1.792e+00,1.508e+00,2.202e+00,2.228e+00,3.039e+00,2.242e+00,3.931e+00,4.241e+00,3.363e+00,3.742e+00,3.689e+00,3.681e+00,4.314e+00,1.930e+00,3.087e+00,2.620e+00,3.154e+00,4.052e+00,3.378e+00,3.486e+00,2.382e+00,3.308e+00,3.402e+00,2.670e+00,3.610e+00,3.127e+00,2.724e+00,3.893e+00,3.132e+00,3.867e+00,3.597e+00,2.557e+00,2.833e+00,3.882e+00,2.425e+00,3.933e+00,3.848e+00,2.781e+00,3.584e+00,4.163e+00,3.770e+00,3.160e+00,2.966e+00,3.280e+00,3.963e+00,3.638e+00,4.598e+00
5.772e-01,1.186e+00,8.577e-01,2.075e+00,1.558e+00,2.184e+00,2.057e+00,1.849e+00,3.905e+00,2.894e+00,4.418e+00,3.540e+00,5.344e+00,3.773e+00,4.440e+00,5.357e+00,4.542e+00,4.692e+00,5.800e+00,5.733e+00,6.641e+00,3.839e+00,3.260e+00,4.663e+00,5.648e+00,5.666e+00,5.704e+00,5.973e+00,4.098e+00,4.539e+00,5.815e+00,4.448e+00,5.208e+00,5.220e+00,4.389e+00,6.144e+00,4.180e+00,5.068e+00,4.940e+00,3.597e+00,3.728e+00,4.900e+00,4.597e+00,6.634e+00,6.503e+00,4.853e+00,4.314e+00,5.347e+00,5.549e+00,4.870e+00,4.247e+00,4.842e+00,6.151e+00,5.010e+00,7.089e+00
3.021e-01,9.589e-01,1.143e+00,1.576e+00,1.478e+00,1.300e+00,2.112e+00,2.061e+00,3.310e+00,3.054e+00,3.397e+00,3.449e+00,4.478e+00,3.270e+00,4.497e+00,4.897e+00,4.537e+00,4.637e+00,5.675e+00,5.634e+00,6.101e+00,3.189e+00,3.482e+00,4.024e+00,5.348e+00,5.781e+00,5.134e+00,4.820e+00,3.998e+00,4.192e+00,5.369e+00,5.592e+00,5.277e+00,5.479e+00,4.851e+00,5.166e+00,4.303e+00,5.438e+00,4.506e+00,4.315e+00,4.259e+00,5.343e+00,4.452e+00,6.300e+00,5.128e+00,4.276e+00,4.642e+00,5.098e+00,4.302e+00,4.957e+00,4.710e+00,4.216e+00,5.438e+00,4.290e+00,6.111e+00
3.276e-01,4.210e-01,7.357e-01,9.748e-01,1.387e+00,1.171e+00,1.082e+00,1.214e+00,2.185e+00,1.871e+00,2.725e+00,2.673e+00,3.606e+00,3.145e+00,3.889e+00,3.996e+00,3.318e+00,4.376e+00,4.392e+00,5.630e+00,5.073e+00,3.641e+00,3.353e+00,3.775e+00,4.360e+00,4.112e+00,4.181e+00,4.758e+00,3.570e+00,4.407e+00,5.136e+00,3.587e+00,4.410e+00,3.790e+00,2.969e+00,3.920e+00,4.263e+00,4.954e+00,4.028e+00,3.398e+00,3.352e+00,4.278e+00,3.879e+00,4.168e+00,5.683e+00,4.134e+00,3.352e+00,5.007e+00,5.432e+00,3.455e+00,4.058e+00,5.207e+00,4.875e+00,3.882e+00,5.363e+00
8.520e-02,1.574e-01,1.322e-01,8.403e-01,4.926e-01,9.267e-01,4.305e-01,6.046e-01,1.639e+00,1.675e+00,2.174e+00,2.134e+00,3.944e+00,2.602e+00,3.712e+00,3.753e+00,3.238e+00,3.695e+00,5.350e+00,5.569e+00,5.395e+00,3.070e+00,2.900e+00,3.792e+00,4.075e+00,3.984e+00,3.872e+00,4.486e+00,3.379e+00,5.481e+00,4.105e+00,4.178e+00,3.846e+00,4.578e+00,3.086e+00,4.224e+00,3.766e+00,4.343e+00,4.500e+00,2.578e+00,3.421e+00,4.137e+00,3.502e+00,4.620e+00,4.319e+00,4.097e+00,4.109e+00,4.598e+00,4.278e+00,3.570e+00,3.252e+00,3.564e+00,4.140e+00,4.108e+00,5.560e+00
4.273e-01,7.916e-01,7.369e-01,9.954e-01,8.517e-01,1.381e+00,1.679e+00,1.454e+00,2.570e+00,2.010e+00,2.845e+00,2.677e+00,4.705e+00,3.276e+00,3.466e+00,4.708e+00,4.568e+00,4.349e+00,5.916e+00,6.277e+00,6.994e+00,5.114e+00,4.077e+00,4.189e+00,5.257e+00,5.654e+00,4.986e+00,6.922e+00,5.126e+00,6.463e+00,6.116e+00,5.077e+00,4.417e+00,5.302e+00,4.669e+00,5.660e+00,5.320e+00,5.654e+00,5.532e+00,4.462e+00,4.221e+00,4.971e+00,4.321e+00,6.184e+00,6.073e+00,5.652e+00,4.463e+00,5.646e+00,6.049e+00,6.066e+00,4.279e+00,5.843e+00,5.688e+00,6.295e+00,6.988e+00
1.366e-01,7.547e-01,4.373e-01,1.560e+00,1.143e+00,1.217e+00,1.481e+00,1.422e+00,2.923e+00,2.161e+00,2.990e+00,2.303e+00,4.297e+00,2.666e+00,3.337e+00,3.818e+00,3.552e+00,3.624e+00,4.806e+00,5.636e+00,5.438e+00,4.788e+00,3.868e+00,5.655e+00,4.937e+00,5.564e+00,4.255e+00,5.626e+00,4.589e+00,5.657e+00,5.181e+00,5.829e+00,5.184e+00,5.254e+00,4.549e+00,4.963e+00,4.191e+00,5.544e+00,4.497e+00,4.964e+00,5.132e+00,4.600e+00,4.286e+00,6.382e+00,5.049e+00,4.655e+00,4.179e+00,5.996e+00,4.913e+00,5.756e+00,4.904e+00,5.031e+00,5.063e+00,5.100e+00,6.479e+00
4.924e-01,8.444e-01,1.177e+00,1.555e+00,1.516e+00,1.664e+00,1.611e+00,1.655e+00,2.660e+00,2.675e+00,3.358e+00,3.695e+00,5.053e+00,3.909e+00,4.159e+00,5.580e+00,4.782e+00,5.344e+00,7.192e+00,7.886e+00,7.401e+00,7.265e+00,5.862e+00,6.880e+00,7.683e+00,6.729e+00,5.942e+00,8.757e+00,7.291e+00,9.592e+00,8.208e+00,6.922e+00,7.090e+00,7.402e+00,6.372e+00,6.486e+00,7.291e+00,7.993e+00,7.540e+00,6.424e+00,5.832e+00,7.009e+00,6.844e+00,7.688e+00,7.931e+00,6.677e+00,5.966e+00,8.220e+00,8.256e+00,7.561e+00,6.308e+00,7.966e+00,6.957e+00,8.027e+00,8.896e+00
6.231e-02,9.789e-02,5.078e-01,3.686e-01,7.895e-01,8.517e-01,1.212e+00,1.221e+00,1.608e+00,1.804e+00,1.937e+00,2.232e+00,3.556e+00,2.935e+00,2.552e+00,3.812e+00,3.364e+00,3.699e+00,4.856e+00,5.739e+00,5.495e+00,5.164e+00,4.985e+00,5.875e+00,5.417e+00,5.294e+00,4.352e+00,6.129e+00,5.532e+00,6.672e+00,6.286e+00,5.376e+00,5.206e+00,5.458e+00,4.724e+00,5.283e+00,4.752e+00,6.647e+00,6.210e+00,5.256e+00,4.464e+00,5.572e+00,5.041e+00,5.999e+00,5.968e+00,4.779e+00,4.705e+00,6.143e+00,6.155e+00,6.232e+00,4.371e+00,5.906e+00,5.640e+00,6.229e+00,7.014e+00
2.617e-01,2.727e-01,7.294e-01,9.564e-01,1.130e+00,1.488e+00,1.147e+00,1.308e+00,2.036e+00,1.819e+00,2.410e+00,2.136e+00,3.112e+00,2.256e+00,3.786e+00,3.586e+00,3.593e+00,4.198e+00,5.696e+00,6.243e+00,5.253e+00,3.884e+00,5.101e+00,6.510e+00,5.745e+00,6.349e+00,5.502e+00,5.990e+00,5.917e+00,7.173e+00,6.535e+00,5.872e+00,5.470e+00,5.113e+00,4.878e+00,6.210e+00,5.145e+00,7.173e+00,6.543e+00,5.000e+00,4.768e+00,6.428e+00,4.870e+00,6.139e+00,5.923e+00,5.593e+00,5.309e+00,7.160e+00,5.867e+00,5.503e+00,5.491e+00,5.469e+00,5.798e+00,6.330e+00,7.624e+00
5.536e-01,9.124e-01,7.852e-01,1.083e+00,1.052e+00,1.272e+00,1.190e+00,1.049e+00,1.906e+00,1.237e+00,2.574e+00,2.155e+00,3.472e+00,3.013e+00,2.924e+00,3.917e+00,3.734e+00,3.918e+00,4.389e+00,4.447e+00,4.904e+00,4.890e+00,4.847e+00,4.674e+00,4.717e+00,5.171e+00,4.496e+00,6.499e+00,5.093e+00,5.913e+00,5.504e+00,5.543e+00,6.197e+00,5.345e+00,4.752e+00,5.663e+00,4.966e+00,5.569e+00,5.438e+00,6.250e+00,5.449e+00,5.877e+00,4.838e+00,6.319e+00,6.498e+00,5.114e+00,4.213e+00,5.481e+00,5.882e+00,6.521e+00,4.861e+00,5.680e+00,6.515e+00,5.979e+00,6.197e+00
2.172e-01,8.584e-01,8.725e-01,1.189e+00,1.231e+00,1.084e+00,1.790e+00,1.759e+00,2.584e+00,2.045e+00,2.360e+00,2.633e+00,3.712e+00,2.780e+00,3.350e+00,3.987e+00,4.545e+00,4.290e+00,4.705e+00,5.450e+00,5.402e+00,5.025e+00,4.826e+00,4.638e+00,5.546e+00,5.778e+00,5.640e+00,7.007e+00,6.026e+00,6.787e+00,7.242e+00,6.958e+00,6.869e+00,5.726e+00,5.494e+00,6.089e+00,7.420e+00,7.271e+00,6.585e+00,7.109e+00,6.298e+00,6.989e+00,6.311e+00,6.490e+00,6.701e+00,5.996e+00,5.307e+00,6.962e+00,6.362e+00,6.426e+00,6.087e+00,6.609e+00,6.712e+00,6.423e+00,6.470e+00
4.771e-01,1.089e+00,9.557e-01,1.493e+00,1.364e+00,1.703e+00,2.092e+00,1.836e+00,3.008e+00,2.125e+00,3.121e+00,2.860e+00,4.515e+00,3.221e+00,3.522e+00,4.630e+00,4.524e+00,4.455e+00,5.184e+00,6.386e+00,6.702e+00,5.413e+00,4.322e+00,5.892e+00,5.854e+00,6.865e+00,6.226e+00,8.134e+00,7.716e+00,7.189e+00,8.427e+00,7.487e+00,6.792e+00,6.091e+00,6.193e+00,7.252e+00,7.999e+00,7.431e+00,7.376e+00,6.948e+00,6.457e+00,7.696e+00,6.382e+00,7.921e+00,7.798e+00,7.877e+00,5.951e+00,8.624e+00,8.147e+00,7.816e+00,6.312e+00,7.597e+00,8.408e+00,8.507e+00,9.018e+00
1.767e-01,2.137e-01,6.409e-01,8.084e-01,1.154e+00,1.236e+00,1.293e+00,1.483e+00,2.591e+00,2.670e+00,2.823e+00,3.139e+00,3.688e+00,2.857e+00,4.627e+00,4.801e+00,3.934e+00,4.479e+00,5.756e+00,6.676e+00,6.294e+00,4.828e+00,5.324e+00,5.543e+00,5.639e+00,6.663e+00,5.254e+00,8.106e+00,6.544e+00,7.738e+00,8.100e+00,7.926e+00,7.956e+00,6.841e+00,6.036e+00,7.145e+00,7.675e+00,7.866e+00,7.673e+00,6.978e+00,6.289e+00,7.952e+00,6.609e+00,7.604e+00,7.069e+00,6.791e+00,6.957e+00,7.667e+00,7.478e+00,6.942e+00,6.195e+00,7.765e+00,8.443e+00,7.369e+00,8.185e+00
5.577e-01,9.013e-01,1.477e+00,1.276e+00,1.570e+00,1.584e+00,1.898e+00,1.885e+00,2.401e+00,2.187e+00,2.805e+00,2.827e+00,3.117e+00,2.736e+00,3.545e+00,4.333e+00,4.468e+00,4.956e+00,5.783e+00,6.472e+00,6.074e+00,5.045e+00,5.299e+00,5.953e+00,6.427e+00,6.298e+00,5.727e+00,7.120e+00,7.787e+00,7.008e+00,7.609e+00,7.034e+00,7.889e+00,7.712e+00,7.859e+00,7.400e+00,6.992e+00,8.546e+00,7.993e+00,7.530e+00,6.793e+00,8.331e+00,6.878e+00,7.944e+00,6.704e+00,6.542e+00,6.323e+00,7.971e+00,7.034e+00,6.832e+00,6.295e+00,7.448e+00,7.902e+00,7.814e+00,8.364e+00
3.727e-01,7.904e-01,8.705e-01,1.401e+00,1.353e+00,1.292e+00,1.437e+00,1.467e+00,2.697e+00,2.550e+00,3.159e+00,3.436e+00,4.523e+00,3.474e+00,4.186e+00,5.270e+00,4.276e+00,4.734e+00,5.092e+00,5.769e+00,6.093e+00,5.179e+00,5.463e+00,6.416e+00,6.474e+00,6.769e+00,5.404e+00,7.189e+00,6.352e+00,7.362e+00,8.011e+00,7.912e+00,8.849e+00,7.149e+00,6.386e+00,7.044e+00,7.724e+00,8.442e+00,8.140e+00,7.706e+00,7.949e+00,8.464e+00,7.612e+00,8.426e+00,7.845e+00,6.375e+00,7.336e+00,8.582e+00,8.214e+00,8.294e+00,7.082e+00,7.231e+00,9.097e+00,7.224e+00,9.189e+00
5.362e-01,9.599e-01,1.266e+00,1.351e+00,1.735e+00,1.817e+00,1.954e+00,2.013e+00,2.871e+00,2.627e+00,3.317e+00,3.650e+00,3.909e+00,3.412e+00,4.646e+00,5.338e+00,5.280e+00,5.549e+00,6.827e+00,7.851e+00,7.463e+00,6.642e+00,6.878e+00,7.177e+00,7.085e+00,8.112e+00,6.807e+00,9.219e+00,8.848e+00,9.932e+00,9.617e+00,9.502e+00,1.038e+01,8.906e+00,9.514e+00,9.055e+00,9.910e+00,1.128e+01,9.980e+00,9.599e+00,9.409e+00,1.036e+01,8.450e+00,9.912e+00,9.322e+00,9.455e+00,8.869e+00,9.945e+00,9.915e+00,9.748e+00,9.068e+00,1.013e+01,1.106e+01,1.033e+01,1.120e+01
2.327e-01,9.203e-01,5.889e-01,1.527e+00,1.378e+00,1.338e+00,1.379e+00,1.444e+00,2.512e+00,2.028e+00,3.093e+00,2.900e+00,4.775e+00,3.546e+00,3.833e+00,4.267e+00,4.162e+00,4.450e+00,5.564e+00,6.590e+00,6.281e+00,4.838e+00,5.211e+00,7.260e+00,5.756e+00,7.022e+00,5.832e+00,6.412e+00,6.918e+00,7.265e+00,7.626e+00,8.569e+00,8.640e+00,7.308e+00,7.484e+00,7.148e+00,7.598e+00,8.957e+00,8.228e+00,8.135e+00,8.900e+00,9.497e+00,7.084e+00,9.395e+00,7.765e+00,7.626e+00,7.091e+00,9.516e+00,8.678e+00,9.038e+00,7.579e+00,7.165e+00,9.195e+00,7.804e+00,1.018e+01
3.399e-01,8.904e-01,1.143e+00,1.464e+00,1.670e+00,1.061e+00,1.991e+00,1.800e+00,2.834e+00,2.436e+00,3.061e+00,3.107e+00,4.848e+00,3.941e+00,3.629e+00,4.548e+00,4.247e+00,4.601e+00,5.701e+00,6.567e+00,6.468e+00,5.692e+00,4.494e+00,6.367e+00,6.209e+00,6.756e+00,5.999e+00,7.925e+00,8.249e+00,8.107e+00,8.838e+00,9.157e+00,1.025e+01,9.299e+00,8.991e+00,9.315e+00,9.326e+00,1.069e+01,9.857e+00,1.037e+01,9.747e+00,1.090e+01,8.276e+00,9.840e+00,9.046e+00,9.301e+00,7.940e+00,1.068e+01,9.541e+00,1.003e+01,7.585e+00,9.193e+00,1.042e+01,9.051e+00,1.006e+01
1.280e-01,5.293e-01,3.100e-01,9.907e-01,1.055e+00,8.720e-01,1.315e+00,1.351e+00,3.036e+00,2.323e+00,3.032e+00,2.523e+00,3.893e+00,2.685e+00,3.903e+00,3.766e+00,3.766e+00,4.012e+00,4.881e+00,5.486e+00,5.813e+00,4.788e+00,5.375e+00,5.445e+00,5.122e+00,6.245e+00,5.294e+00,7.077e+00,6.588e+00,6.737e+00,7.950e+00,9.486e+00,9.749e+00,8.365e+00,8.159e+00,8.826e+00,1.045e+01,1.078e+01,9.187e+00,9.602e+00,9.050e+00,1.017e+01,7.578e+00,9.451e+00,7.700e+00,1.042e+01,8.738e+00,9.056e+00,9.584e+00,9.596e+00,9.743e+00,8.703e+00,1.092e+01,8.880e+00,9.522e+00
3.622e-01,5.473e-01,9.559e-01,9.382e-01,1.034e+00,1.148e+00,1.287e+00,1.283e+00,1.836e+00,1.859e+00,2.536e+00,2.638e+00,3.966e+00,3.309e+00,3.552e+00,4.539e+00,3.863e+00,4.817e+00,4.781e+00,5.751e+00,6.006e+00,4.720e+00,4.504e+00,5.732e+00,5.956e+00,5.732e+00,5.406e+00,6.592e+00,7.405e+00,7.218e+00,7.585e+00,7.160e+00,7.665e+00,7.278e+00,7.447e+00,8.263e+00,8.122e+00,9.234e+00,8.387e+00,7.848e+00,7.745e+00,8.593e+00,8.086e+00,9.130e+00,8.260e+00,8.405e+00,7.451e+00,8.529e+00,8.001e+00,8.111e+00,7.798e+00,8.294e+00,9.276e+00,8.135e+00,1.008e+01
4.823e-01,5.049e-01,1.117e+00,1.017e+00,1.249e+00,1.263e+00,1.465e+00,1.417e+00,2.401e+00,2.019e+00,2.459e+00,2.244e+00,3.034e+00,1.928e+00,2.879e+00,3.093e+00,3.124e+00,2.930e+00,4.001e+00,4.035e+00,4.428e+00,3.354e+00,2.996e+00,4.185e+00,4.455e+00,4.662e+00,4.018e+00,5.986e+00,6.140e+00,5.609e+00,6.400e+00,7.367e+00,6.150e+00,5.934e+00,6.759e+00,8.201e+00,7.724e+00,8.315e+00,8.019e+00,7.247e+00,6.378e+00,7.835e+00,6.272e+00,7.231e+00,6.853e+00,7.945e+00,6.617e+00,8.441e+00,7.696e+00,7.289e+00,6.192e+00,7.371e+00,7.636e+00,7.754e+00,7.948e+00
4.949e-01,1.038e+00,9.018e-01,1.243e+00,1.430e+00,1.203e+00,1.339e+00,1.476e+00,2.731e+00,2.531e+00,3.418e+00,3.479e+00,3.801e+00,3.332e+00,3.258e+00,4.626e+00,4.287e+00,4.567e+00,6.515e+00,6.489e+00,6.267e+00,6.478e+00,5.566e+00,6.343e+00,6.693e+00,6.885e+00,5.766e+00,7.929e+00,7.184e+00,8.449e+00,7.456e+00,7.586e+00,9.677e+00,8.428e+00,8.666e+00,9.268e+00,9.627e+00,1.052e+01,1.067e+01,1.099e+01,8.754e+00,1.085e+01,8.731e+00,1.062e+01,9.613e+00,1.017e+01,8.360e+00,1.045e+01,1.102e+01,1.121e+01,9.479e+00,9.277e+00,1.000e+01,1.018e+01,1.092e+01
4.082e-01,5.987e-01,6.014e-01,1.127e+00,1.130e+00,1.304e+00,9.870e-01,1.021e+00,2.185e+00,1.668e+00,2.563e+00,2.269e+00,3.412e+00,2.369e+00,3.684e+00,3.990e+00,3.554e+00,4.521e+00,4.600e+00,5.843e+00,5.276e+00,4.718e+00,4.537e+00,6.143e+00,5.481e+00,6.192e+00,5.376e+00,6.588e+00,6.685e+00,7.218e+00,7.682e+00,7.209e+00,8.485e+00,6.793e+00,7.418e+00,8.383e+00,9.462e+00,1.033e+01,9.545e+00,9.191e+00,9.298e+00,9.767e+00,8.100e+00,9.026e+00,8.137e+00,1.006e+01,7.630e+00,1.126e+01,9.887e+00,8.634e+00,8.959e+00,9.465e+00,1.056e+01,1.005e+01,1.113e+01
2.731e-01,8.067e-01,1.046e+00,1.851e+00,1.769e+00,1.994e+00,1.826e+00,2.009e+00,2.943e+00,2.592e+00,3.281e+00,3.267e+00,3.829e+00,3.019e+00,3.983e+00,4.825e+00,4.325e+00,4.779e+00,5.498e+00,7.385e+00,6.240e+00,5.699e+00,4.521e+00,7.051e+00,6.226e+00,6.254e+00,5.588e+00,8.008e+00,7.790e+00,8.226e+00,7.903e+00,7.380e+00,8.497e+00,7.712e+00,7.766e+00,9.075e+00,9.409e+00,1.083e+01,1.009e+01,9.806e+00,9.754e+00,9.855e+00,9.103e+00,1.009e+01,9.794e+00,9.417e+00,8.597e+00,1.119e+01,1.046e+01,1.036e+01,8.158e+00,1.070e+01,1.027e+01,1.037e+01,1.088e+01
2.531e-01,6.536e-01,6.586e-01,1.094e+00,1.321e+00,1.207e+00,1.305e+00,1.545e+00,2.824e+00,2.484e+00,3.088e+00,3.267e+00,4.203e+00,3.208e+00,3.960e+00,4.452e+00,4.967e+00,4.814e+00,5.898e+00,6.554e+00,6.716e+00,5.288e+00,5.143e+00,5.317e+00,6.182e+00,6.445e+00,5.855e+00,7.522e+00,6.970e+00,7.633e+00,7.987e+00,8.268e+00,8.797e+00,7.745e+00,7.347e+00,8.945e+00,9.229e+00,1.007e+01,9.501e+00,1.050e+01,8.890e+00,1.090e+01,9.200e+00,9.916e+00,1.057e+01,9.898e+00,9.460e+00,1.060e+01,1.025e+01,9.797e+00,9.397e+00,9.368e+00,1.151e+01,1.053e+01,1.019e+01
1.665e-01,5.031e-01,8.721e-01,7.246e-01,8.809e-01,5.453e-01,1.153e+00,1.130e+00,1.184e+00,1.187e+00,1.423e+00,1.589e+00,2.446e+00,2.289e+00,2.723e+00,2.932e+00,2.839e+00,3.960e+00,4.322e+00,5.291e+00,4.247e+00,4.282e+00,4.658e+00,5.231e+00,4.922e+00,5.093e+00,5.087e+00,5.781e+00,7.434e+00,6.622e+00,7.128e+00,7.089e+00,8.228e+00,7.422e+00,8.216e+00,8.110e+00,9.611e+00,1.089e+01,8.772e+00,9.996e+00,9.762e+00,1.070e+01,9.332e+00,1.013e+01,8.758e+00,1.085e+01,8.637e+00,1.110e+01,1.021e+01,9.839e+00,1.009e+01,9.245e+00,1.019e+01,1.105e+01,1.020e+01
1.498e-01,7.594e-01,1.027e+00,1.045e+00,1.091e+00,6.365e-01,1.944e+00,1.699e+00,2.182e+00,2.103e+00,1.943e+00,2.541e+00,3.432e+00,2.783e+00,3.130e+00,4.044e+00,3.025e+00,3.230e+00,3.439e+00,4.498e+00,4.558e+00,4.441e+00,4.386e+00,4.572e+00,4.706e+00,5.667e+00,4.266e+00,6.254e+00,5.706e+00,5.688e+00,6.824e+00,7.058e+00,7.960e+00,6.434e+00,7.875e+00,8.306e+00,8.363e+00,1.010e+01,8.146e+00,1.049e+01,9.984e+00,9.702e+00,9.732e+00,1.023e+01,9.343e+00,8.240e+00,8.368e+00,1.099e+01,9.170e+00,1.182e+01,8.286e+00,9.584e+00,1.038e+01,1.033e+01,9.059e+00
3.767e-01,7.058e-01,6.465e-01,1.446e+00,1.262e+00,1.846e+00,1.624e+00,1.588e+00,3.096e+00,2.561e+00,3.634e+00,3.146e+00,4.897e+00,3.351e+00,4.294e+00,4.807e+00,4.222e+00,4.885e+00,6.515e+00,7.233e+00,7.210e+00,5.142e+00,5.101e+00,6.287e+00,6.793e+00,6.933e+00,6.300e+00,7.347e+00,6.880e+00,7.463e+00,7.751e+00,6.782e+00,8.050e+00,7.491e+00,7.986e+00,1.010e+01,8.715e+00,1.071e+01,9.368e+00,9.278e+00,8.751e+00,9.830e+00,9.163e+00,1.191e+01,1.156e+01,1.124e+01,8.668e+00,1.207e+01,1.116e+01,1.051e+01,1.005e+01,1.077e+01,1.069e+01,1.187e+01,1.109e+01
3.863e-01,7.744e-01,1.038e+00,1.510e+00,1.404e+00,1.274e+00,1.582e+00,1.442e+00,2.376e+00,1.986e+00,2.628e+00,2.321e+00,3.925e+00,2.708e+00,3.672e+00,3.533e+00,3.743e+00,4.327e+00,5.580e+00,5.593e+00,5.129e+00,4.073e+00,4.241e+00,5.139e+00,5.612e+00,6.430e+00,5.477e+00,6.090e+00,5.798e+00,6.683e+00,7.710e+00,7.432e+00,7.630e+00,6.495e+00,6.702e+00,7.744e+00,8.094e+00,9.754e+00,7.519e+00,9.055e+00,8.622e+00,9.817e+00,8.666e+00,1.112e+01,1.017e+01,1.080e+01,9.845e+00,1.173e+01,1.056e+01,1.125e+01,1.037e+01,8.989e+00,1.014e+01,1.027e+01,1.086e+01
4.725e-01,8.891e-01,9.539e-01,1.614e+00,1.338e+00,1.763e+00,1.476e+00,1.576e+00,2.877e+00,2.313e+00,3.099e+00,2.829e+00,2.939e+00,2.059e+00,3.361e+00,3.932e+00,3.540e+00,3.604e+00,4.665e+00,5.067e+00,4.838e+00,4.051e+00,3.870e+00,4.873e+00,5.503e+00,5.863e+00,5.190e+00,7.198e+00,6.965e+00,6.440e+00,7.569e+00,6.980e+00,7.420e+00,6.122e+00,7.796e+00,9.435e+00,9.880e+00,1.022e+01,8.834e+00,9.972e+00,9.654e+00,1.053e+01,1.078e+01,1.201e+01,1.237e+01,1.240e+01,1.102e+01,1.409e+01,1.366e+01,1.199e+01,1.186e+01,1.022e+01,1.266e+01,1.322e+01,1.223e+01
1.006e-01,4.691e-01,8.998e-01,8.063e-01,1.257e+00,4.946e-01,1.425e+00,1.592e+00,2.407e+00,2.364e+00,2.524e+00,2.774e+00,3.838e+00,3.126e+00,3.506e+00,3.794e+00,3.109e+00,3.497e+00,4.810e+00,5.401e+00,4.762e+00,3.886e+00,3.528e+00,4.258e+00,4.314e+00,4.725e+00,4.077e+00,5.571e+00,5.886e+00,5.543e+00,6.439e+00,7.136e+00,6.413e+00,6.089e+00,5.889e+00,7.260e+00,8.614e+00,8.983e+00,7.576e+00,8.123e+00,7.301e+00,8.963e+00,8.268e+00,9.420e+00,9.415e+00,1.117e+01,9.001e+00,1.192e+01,1.234e+01,1.092e+01,9.756e+00,9.619e+00,1.006e+01,1.011e+01,1.104e+01
3.030e-01,9.690e-01,1.180e+00,1.686e+00,1.862e+00,1.802e+00,2.455e+00,2.415e+00,3.555e+00,3.073e+00,3.857e+00,3.790e+00,5.028e+00,4.112e+00,4.301e+00,5.571e+00,4.593e+00,4.854e+00,6.129e+00,7.002e+00,6.554e+00,4.988e+00,4.613e+00,6.570e+00,6.247e+00,6.942e+00,5.972e+00,7.668e+00,7.356e+00,7.070e+00,8.192e+00,7.497e+00,7.999e+00,7.592e+00,7.474e+00,1.037e+01,9.328e+00,1.052e+01,1.027e+01,1.059e+01,9.536e+00,1.078e+01,1.007e+01,1.216e+01,1.264e+01,1.259e+01,1.089e+01,1.422e+01,1.371e+01,1.403e+01,1.127e+01,1.254e+01,1.285e+01,1.287e+01,1.220e+01
3.363e-01,1.012e+00,1.320e+00,1.864e+00,1.783e+00,1.666e+00,2.536e+00,2.388e+00,3.701e+00,3.181e+00,3.811e+00,3.687e+00,5.572e+00,4.221e+00,4.879e+00,6.109e+00,5.450e+00,6.074e+00,7.226e+00,8.666e+00,8.153e+00,6.957e+00,5.997e+00,8.414e+00,7.972e+00,8.315e+00,7.443e+00,9.337e+00,9.526e+00,9.341e+00,9.768e+00,9.447e+00,9.803e+00,1.028e+01,1.007e+01,1.177e+01,1.121e+01,1.379e+01,1.178e+01,1.132e+01,1.129e+01,1.167e+01,1.141e+01,1.361e+01,1.263e+01,1.357e+01,1.178e+01,1.556e+01,1.556e+01,1.533e+01,1.302e+01,1.411e+01,1.413e+01,1.498e+01,1.615e+01
5.655e-01,1.032e+00,1.257e+00,1.775e+00,1.928e+00,1.780e+00,2.185e+00,2.118e+00,3.897e+00,2.985e+00,4.104e+00,3.443e+00,4.709e+00,3.411e+00,3.946e+00,4.696e+00,4.676e+00,4.407e+00,5.698e+00,5.556e+00,6.054e+00,5.504e+00,5.381e+00,6.356e+00,6.619e+00,6.949e+00,5.701e+00,8.198e+00,7.835e+00,7.805e+00,9.165e+00,9.474e+00,9.513e+00,8.647e+00,8.844e+00,1.051e+01,9.895e+00,1.130e+01,1.070e+01,1.145e+01,9.612e+00,1.149e+01,9.395e+00,1.140e+01,1.081e+01,1.219e+01,1.083e+01,1.281e+01,1.434e+01,1.385e+01,1.214e+01,1.257e+01,1.288e+01,1.302e+01,1.379e+01
5.391e-01,7.239e-01,8.568e-01,1.359e+00,1.474e+00,1.664e+00,1.344e+00,1.286e+00,2.463e+00,1.871e+00,2.934e+00,2.623e+00,3.975e+00,2.837e+00,3.459e+00,4.122e+00,4.057e+00,4.502e+00,4.763e+00,5.608e+00,5.598e+00,4.625e+00,4.020e+00,6.003e+00,5.738e+00,6.055e+00,5.339e+00,6.606e+00,6.844e+00,7.044e+00,7.680e+00,7.421e+00,8.358e+00,6.984e+00,8.061e+00,9.893e+00,8.931e+00,1.082e+01,1.021e+01,1.005e+01,9.487e+00,1.036e+01,8.723e+00,1.033e+01,1.019e+01,1.086e+01,9.109e+00,1.237e+01,1.168e+01,1.118e+01,1.042e+01,1.138e+01,1.194e+01,1.242e+01,1.255e+01
4.519e-01,7.179e-01,1.367e+00,1.340e+00,1.972e+00,1.457e+00,1.958e+00,2.111e+00,3.374e+00,3.493e+00,4.235e+00,4.430e+00,5.301e+00,4.882e+00,5.073e+00,6.129e+00,5.284e+00,6.154e+00,7.916e+00,8.458e+00,8.420e+00,7.157e+00,6.514e+00,7.394e+00,8.306e+00,8.011e+00,7.350e+00,9.964e+00,9.088e+00,9.738e+00,1.067e+01,1.124e+01,1.140e+01,1.001e+01,1.049e+01,1.126e+01,1.112e+01,1.233e+01,1.252e+01,1.272e+01,1.139e+01,1.372e+01,1.272e+01,1.424e+01,1.391e+01,1.478e+01,1.225e+01,1.528e+01,1.730e+01,1.581e+01,1.524e+01,1.530e+01,1.553e+01,1.556e+01,1.623e+01
5.011e-01,1.206e+00,1.494e+00,1.751e+00,1.667e+00,1.396e+00,2.381e+00,2.015e+00,2.756e+00,2.401e+00,2.805e+00,3.086e+00,3.873e+00,3.205e+00,3.372e+00,4.333e+00,3.840e+00,4.076e+00,5.448e+00,6.216e+00,6.042e+00,5.472e+00,4.471e+00,4.858e+00,5.971e+00,6.104e+00,5.317e+00,7.297e+00,6.258e+00,6.797e+00,7.870e+00,7.143e+00,8.266e+00,7.615e+00,9.119e+00,9.054e+00,9.819e+00,1.075e+01,9.175e+00,1.017e+01,9.957e+00,9.969e+00,9.525e+00,1.152e+01,1.079e+01,1.175e+01,9.614e+00,1.273e+01,1.364e+01,1.472e+01,1.169e+01,1.246e+01,1.331e+01,1.393e+01,1.341e+01
1.194e-01,1.702e-01,7.443e-01,4.915e-01,1.121e+00,6.574e-01,9.444e-01,1.265e+00,1.814e+00,2.238e+00,2.205e+00,2.924e+00,2.834e+00,2.719e+00,3.478e+00,4.172e+00,3.720e+00,4.527e+00,4.463e+00,6.289e+00,6.047e+00,5.463e+00,5.067e+00,6.043e+00,5.941e+00,6.383e+00,5.041e+00,7.454e+00,7.768e+00,7.594e+00,7.946e+00,8.279e+00,9.068e+00,8.095e+00,7.720e+00,9.472e+00,9.963e+00,1.173e+01,1.067e+01,1.152e+01,1.028e+01,1.142e+01,1.028e+01,1.125e+01,1.148e+01,1.164e+01,1.059e+01,1.305e+01,1.372e+01,1.392e+01,1.192e+01,1.346e+01,1.390e+01,1.432e+01,1.420e+01
2.419e-01,8.590e-01,6.699e-01,1.292e+00,1.241e+00,1.630e+00,1.967e+00,1.954e+00,3.224e+00,2.381e+00,3.101e+00,2.690e+00,3.364e+00,2.568e+00,3.869e+00,4.397e+00,4.340e+00,4.069e+00,5.267e+00,6.334e+00,6.064e+00,5.192e+00,4.969e+00,6.217e+00,5.058e+00,6.947e+00,6.035e+00,8.301e+00,7.841e+00,7.873e+00,7.864e+00,8.286e+00,9.139e+00,8.018e+00,8.825e+00,1.137e+01,1.049e+01,1.182e+01,1.050e+01,1.067e+01,1.018e+01,1.098e+01,1.045e+01,1.308e+01,1.190e+01,1.392e+01,1.181e+01,1.349e+01,1.396e+01,1.439e+01,1.300e+01,1.357e+01,1.429e+01,1.544e+01,1.582e+01
5.809e-01,9.461e-01,9.063e-01,1.505e+00,1.574e+00,1.822e+00,1.678e+00,1.609e+00,3.115e+00,2.457e+00,3.601e+00,3.320e+00,5.121e+00,3.619e+00,3.784e+00,5.028e+00,5.144e+00,5.062e+00,6.542e+00,7.188e+00,7.276e+00,6.635e+00,5.456e+00,7.228e+00,6.613e+00,7.636e+00,6.250e+00,9.449e+00,8.750e+00,9.366e+00,9.627e+00,9.039e+00,1.019e+01,9.887e+00,9.491e+00,1.112e+01,1.080e+01,1.183e+01,1.176e+01,1.203e+01,1.063e+01,1.249e+01,1.208e+01,1.414e+01,1.348e+01,1.455e+01,1.204e+01,1.536e+01,1.644e+01,1.522e+01,1.356e+01,1.407e+01,1.533e+01,1.642e+01,1.762e+01
