9.929e-01,8.800e-01,5.088e-01,5.821e-01,3.527e-02,8.210e-01,2.526e-01,9.558e-01,5.424e-01,1.224e-01,7.553e-01,2.493e-01,8.997e-01,7.686e-01,7.276e-01,9.589e-01,1.153e-01,1.385e-01,5.310e-01,2.673e-01,1.320e-01,2.709e-01,1.220e-01,7.575e-01,8.997e-01,9.740e-01,9.644e-01,3.027e-01,7.599e-01,4.869e-01,4.106e-01,7.980e-01,9.971e-01,7.883e-01,5.558e-01,7.257e-01,8.105e-01,2.618e-01,8.902e-01,4.093e-01,9.673e-01,9.962e-01,4.459e-01,5.247e-01,8.466e-01,6.053e-01,8.243e-01,6.563e-01,1.956e-01,4.993e-01,2.121e-01,2.306e-01,8.060e-01,1.016e-01,4.753e-01,9.236e-01,6.874e-01,8.907e-01,2.635e-01,5.287e-01,1.203e-01,9.291e-01,7.062e-01,8.957e-01,1.437e-01,8.350e-01,4.429e-02,8.110e-01,1.946e-01,5.824e-01,8.155e-01,7.853e-02,5.389e-01,3.259e-02,7.229e-01,8.125e-01,2.929e-02,3.447e-01,9.807e-01,4.949e-01,5.450e-01,7.556e-01,5.603e-01
6.393e-01,1.185e+00,1.325e+00,1.199e+00,2.672e-01,6.639e-01,1.066e+00,9.062e-01,9.667e-01,7.431e-01,8.028e-01,2.622e-01,1.369e+00,8.757e-01,9.517e-01,7.586e-01,1.098e-01,6.017e-01,7.361e-01,2.198e-01,7.294e-01,8.964e-01,1.003e+00,7.995e-01,6.466e-01,7.862e-01,1.128e+00,5.934e-01,1.080e+00,4.547e-01,3.536e-01,6.594e-01,7.335e-01,1.398e+00,8.630e-01,1.065e+00,1.234e+00,5.888e-01,1.427e+00,1.093e+00,1.555e+00,1.043e+00,4.342e-01,1.055e+00,6.625e-01,1.121e+00,1.523e+00,6.462e-01,6.630e-01,6.091e-01,6.670e-01,5.048e-01,7.964e-01,5.185e-01,9.471e-01,1.189e+00,1.311e+00,1.496e+00,8.810e-01,5.968e-01,8.504e-01,1.390e+00,5.042e-01,1.471e+00,2.699e-01,1.398e+00,9.175e-01,1.128e+00,1.093e+00,4.171e-01,1.115e+00,1.756e-01,7.021e-01,2.883e-01,6.160e-01,5.716e-01,7.462e-01,3.719e-01,1.623e+00,1.232e+00,1.026e+00,1.333e+00,7.445e-01
7.587e-02,1.274e-01,4.471e-01,1.541e-01,7.224e-02,1.246e-01,4.077e-01,3.133e-01,7.697e-01,6.045e-01,7.483e-01,5.317e-01,1.145e+00,8.076e-01,4.682e-01,7.156e-01,4.580e-01,5.788e-01,2.420e-01,7.747e-01,9.822e-01,2.121e-01,9.288e-01,7.385e-01,2.675e-01,2.694e-01,1.058e+00,3.652e-01,1.095e+00,8.548e-01,8.070e-01,1.010e+00,2.372e-01,1.496e-01,7.508e-01,6.059e-01,1.887e-01,6.025e-01,3.759e-01,5.403e-01,8.328e-01,4.196e-01,8.054e-01,1.066e+00,3.143e-01,9.931e-01,9.134e-01,8.855e-01,7.890e-01,9.695e-01,1.021e+00,8.529e-01,1.832e-01,2.745e-01,7.495e-01,4.151e-01,7.542e-01,8.870e-01,2.646e-01,1.587e-01,9.265e-01,5.568e-01,7.716e-01,7.914e-01,2.186e-01,1.108e+00,3.239e-01,1.091e+00,9.873e-01,1.005e+00,1.007e+00,1.880e-02,5.878e-01,1.799e-01,9.595e-01,4.739e-01,9.066e-01,5.812e-01,3.561e-01,3.997e-01,8.358e-01,9.791e-01,3.627e-01
7.025e-01,1.044e+00,1.271e+00,1.710e+00,7.515e-01,1.339e+00,1.062e+00,1.552e+00,1.512e+00,1.555e+00,2.000e+00,1.560e+00,2.334e+00,1.960e+00,1.792e+00,1.409e+00,1.308e+00,1.516e+00,1.136e+00,8.918e-01,1.283e+00,7.934e-01,1.881e+00,1.361e+00,1.751e+00,1.482e+00,2.134e+00,9.201e-01,1.748e+00,1.715e+00,1.665e+00,2.302e+00,1.458e+00,2.132e+00,1.761e+00,2.025e+00,1.295e+00,1.297e+00,2.179e+00,1.992e+00,1.911e+00,1.453e+00,1.928e+00,1.847e+00,1.612e+00,2.271e+00,2.209e+00,1.855e+00,1.295e+00,1.339e+00,1.251e+00,1.679e+00,1.296e+00,8.081e-01,2.077e+00,1.500e+00,1.637e+00,2.638e+00,1.180e+00,7.299e-01,2.095e+00,1.849e+00,1.117e+00,2.590e+00,9.841e-01,2.027e+00,1.769e+00,2.468e+00,2.165e+00,1.589e+00,2.115e+00,1.012e+00,1.433e+00,9.823e-01,1.565e+00,1.786e+00,1.850e+00,7.934e-01,1.825e+00,1.855e+00,1.681e+00,2.211e+00,1.185e+00
2.002e-01,2.063e-01,1.893e-01,1.899e-01,1.043e+00,8.403e-01,3.195e-01,3.064e-01,1.138e+00,5.806e-01,1.076e+00,7.679e-01,6.561e-01,1.168e+00,8.456e-01,4.547e-01,6.584e-01,1.028e+00,2.634e-01,2.258e-01,6.909e-01,9.686e-01,6.489e-01,1.253e+00,4.636e-01,1.207e+00,6.505e-01,5.328e-01,9.712e-01,2.597e-01,4.367e-01,9.441e-01,2.788e-01,4.447e-01,6.761e-01,1.050e+00,2.495e-01,5.619e-01,4.482e-01,3.362e-01,7.483e-01,1.210e+00,6.421e-01,1.189e+00,2.790e-01,4.288e-01,1.074e+00,1.195e+00,9.408e-01,4.683e-01,3.185e-01,3.892e-01,8.379e-01,5.200e-01,1.038e+00,8.017e-01,9.865e-01,7.862e-01,4.241e-01,7.414e-01,1.124e+00,9.535e-01,4.705e-01,6.495e-01,1.363e-01,1.158e+00,1.033e+00,4.180e-01,3.481e-01,7.058e-01,1.188e+00,5.223e-01,7.648e-01,6.495e-01,4.759e-01,1.232e+00,5.594e-01,1.089e+00,3.272e-01,2.109e-01,1.084e+00,4.254e-01,1.107e+00
9.298e-01,9.802e-01,7.825e-01,1.343e+00,9.359e-01,2.275e+00,1.063e+00,1.522e+00,1.608e+00,1.499e+00,2.434e+00,1.499e+00,2.048e+00,2.580e+00,1.689e+00,2.119e+00,1.350e+00,1.509e+00,1.494e+00,9.813e-01,1.170e+00,9.318e-01,2.058e+00,1.490e+00,1.986e+00,2.457e+00,2.003e+00,8.474e-01,1.375e+00,1.292e+00,1.443e+00,2.734e+00,1.537e+00,2.089e+00,1.984e+00,2.670e+00,1.542e+00,1.126e+00,1.830e+00,1.996e+00,2.041e+00,2.040e+00,2.347e+00,1.705e+00,1.500e+00,1.570e+00,1.933e+00,2.256e+00,1.833e+00,1.708e+00,8.382e-01,2.048e+00,2.276e+00,1.440e+00,2.299e+00,2.153e+00,2.221e+00,2.168e+00,9.771e-01,1.568e+00,2.153e+00,2.160e+00,1.236e+00,2.557e+00,1.658e+00,2.549e+00,1.514e+00,2.657e+00,1.753e+00,2.165e+00,2.303e+00,1.459e+00,1.408e+00,1.084e+00,1.638e+00,2.492e+00,1.421e+00,1.206e+00,2.346e+00,1.731e+00,1.575e+00,1.983e+00,1.339e+00
1.354e-01,2.342e-01,2.846e-01,4.078e-01,4.180e-01,5.803e-01,9.256e-01,1.140e+00,1.425e+00,1.483e+00,1.588e+00,5.615e-01,1.165e+00,1.738e+00,5.715e-01,6.311e-01,4.645e-01,7.161e-01,1.098e+00,8.957e-01,1.073e+00,6.366e-01,8.042e-01,6.877e-01,4.898e-01,1.276e+00,7.435e-01,1.215e+00,5.656e-01,8.535e-01,8.652e-01,1.417e+00,9.844e-01,1.192e+00,1.415e+00,1.251e+00,8.941e-01,1.329e+00,5.894e-01,1.245e+00,8.250e-01,1.478e+00,1.248e+00,7.473e-01,8.094e-01,9.113e-01,8.462e-01,8.716e-01,1.234e+00,5.427e-01,8.125e-01,6.175e-01,1.128e+00,1.332e+00,7.589e-01,1.355e+00,7.938e-01,1.228e+00,6.822e-01,1.038e+00,8.852e-01,1.170e+00,4.404e-01,1.642e+00,7.909e-01,1.201e+00,8.289e-01,7.878e-01,8.794e-01,6.229e-01,1.486e+00,1.328e+00,5.464e-01,6.323e-01,1.288e+00,1.279e+00,1.314e+00,1.091e+00,1.052e+00,1.173e+00,6.213e-01,1.331e+00,9.312e-01
4.828e-01,8.723e-01,1.184e+00,1.290e+00,1.220e+00,1.862e+00,1.521e+00,2.201e+00,2.724e+00,2.505e+00,2.928e+00,2.139e+00,3.316e+00,3.116e+00,2.732e+00,2.241e+00,1.511e+00,2.992e+00,2.354e+00,1.698e+00,2.570e+00,2.320e+00,3.267e+00,2.560e+00,1.878e+00,2.282e+00,2.537e+00,1.881e+00,2.787e+00,2.374e+00,2.538e+00,3.007e+00,1.695e+00,2.433e+00,3.151e+00,3.291e+00,1.787e+00,1.711e+00,2.681e+00,3.018e+00,2.839e+00,2.810e+00,3.153e+00,2.965e+00,1.643e+00,2.051e+00,2.879e+00,3.206e+00,3.270e+00,2.721e+00,1.917e+00,2.937e+00,2.358e+00,2.242e+00,3.342e+00,3.058e+00,2.685e+00,3.426e+00,1.944e+00,2.226e+00,3.433e+00,3.023e+00,2.142e+00,2.950e+00,2.378e+00,3.457e+00,2.379e+00,2.715e+00,2.798e+00,2.348e+00,3.411e+00,2.045e+00,2.478e+00,1.283e+00,2.567e+00,2.644e+00,2.814e+00,2.332e+00,2.412e+00,2.164e+00,2.242e+00,2.719e+00,2.062e+00
9.347e-01,1.246e+00,1.282e+00,1.722e+00,1.424e+00,2.486e+00,1.734e+00,2.912e+00,3.976e+00,3.248e+00,4.324e+00,3.131e+00,4.658e+00,3.931e+00,3.438e+00,3.286e+00,2.680e+00,4.103e+00,3.772e+00,2.747e+00,3.515e+00,2.881e+00,3.439e+00,3.485e+00,2.532e+00,3.803e+00,3.307e+00,2.289e+00,3.474e+00,2.871e+00,3.461e+00,4.267e+00,3.155e+00,3.471e+00,4.084e+00,4.147e+00,2.584e+00,2.238e+00,3.588e+00,4.249e+00,3.233e+00,3.848e+00,4.490e+00,4.010e+00,2.338e+00,2.605e+00,4.048e+00,3.935e+00,3.666e+00,2.927e+00,2.093e+00,3.725e+00,3.508e+00,2.656e+00,3.741e+00,4.513e+00,3.559e+00,4.055e+00,3.069e+00,3.294e+00,4.186e+00,3.591e+00,2.806e+00,3.759e+00,3.534e+00,3.816e+00,3.440e+00,3.578e+00,3.719e+00,3.480e+00,4.071e+00,3.512e+00,3.257e+00,2.117e+00,3.273e+00,3.518e+00,3.541e+00,3.152e+00,3.402e+00,2.981e+00,2.932e+00,3.809e+00,2.606e+00
2.591e-01,2.365e-01,4.350e-01,5.829e-01,6.712e-01,1.354e+00,8.874e-01,1.410e+00,2.548e+00,2.819e+00,2.970e+00,3.100e+00,3.550e+00,3.075e+00,2.367e+00,2.675e+00,2.924e+00,2.802e+00,2.359e+00,2.992e+00,3.518e+00,2.246e+00,3.400e+00,2.449e+00,2.101e+00,2.717e+00,2.814e+00,1.506e+00,2.401e+00,2.539e+00,3.116e+00,3.186e+00,1.925e+00,1.626e+00,3.178e+00,2.660e+00,1.388e+00,2.386e+00,2.325e+00,3.548e+00,1.806e+00,2.385e+00,3.884e+00,3.159e+00,2.225e+00,1.957e+00,3.333e+00,2.761e+00,3.142e+00,3.093e+00,2.039e+00,3.893e+00,2.812e+00,1.891e+00,2.822e+00,3.476e+00,3.099e+00,2.230e+00,2.440e+00,2.319e+00,3.408e+00,2.190e+00,2.683e+00,3.149e+00,2.791e+00,2.651e+00,2.533e+00,3.045e+00,3.328e+00,3.158e+00,2.659e+00,2.581e+00,2.907e+00,1.955e+00,3.374e+00,2.327e+00,3.440e+00,2.414e+00,2.436e+00,1.730e+00,2.033e+00,3.268e+00,2.196e+00
6.716e-01,7.514e-01,7.874e-01,7.797e-01,6.008e-01,1.478e+00,1.192e+00,1.450e+00,2.473e+00,2.044e+00,3.252e+00,2.395e+00,3.193e+00,3.671e+00,1.917e+00,2.847e+00,2.551e+00,2.651e+00,2.436e+00,2.769e+00,2.985e+00,1.656e+00,2.273e+00,2.450e+00,2.031e+00,3.471e+00,3.168e+00,1.369e+00,3.059e+00,1.724e+00,2.632e+00,3.322e+00,1.832e+00,1.986e+00,2.498e+00,3.380e+00,2.345e+00,2.291e+00,2.381e+00,3.151e+00,2.374e+00,3.041e+00,2.810e+00,3.407e+00,1.873e+00,1.981e+00,3.346e+00,2.287e+00,2.847e+00,2.941e+00,1.891e+00,2.497e+00,2.756e+00,2.241e+00,2.800e+00,3.416e+00,2.625e+00,2.867e+00,1.785e+00,2.604e+00,2.769e+00,3.071e+00,2.186e+00,2.990e+00,2.748e+00,2.732e+00,2.021e+00,3.340e+00,2.923e+00,3.138e+00,2.992e+00,1.933e+00,2.559e+00,2.089e+00,2.416e+00,2.241e+00,3.212e+00,2.800e+00,3.264e+00,2.195e+00,2.401e+00,3.070e+00,1.833e+00
3.963e-01,5.060e-01,5.342e-01,5.915e-01,9.410e-01,1.568e+00,1.126e+00,1.548e+00,2.187e+00,1.889e+00,2.868e+00,2.227e+00,2.604e+00,4.040e+00,2.468e+00,2.873e+00,1.959e+00,3.182e+00,2.351e+00,2.867e+00,3.068e+00,2.360e+00,2.660e+00,3.156e+00,2.698e+00,3.732e+00,2.621e+00,1.659e+00,2.902e+00,1.736e+00,2.691e+00,3.698e+00,1.878e+00,2.468e+00,2.833e+00,4.080e+00,2.825e+00,2.500e+00,3.061e+00,3.544e+00,2.399e+00,3.797e+00,3.263e+00,3.744e+00,2.368e+00,1.632e+00,2.887e+00,2.703e+00,3.135e+00,3.256e+00,1.893e+00,2.357e+00,3.343e+00,3.014e+00,3.141e+00,3.106e+00,2.948e+00,3.228e+00,1.827e+00,3.191e+00,3.480e+00,3.810e+00,1.943e+00,2.501e+00,3.221e+00,3.638e+00,2.189e+00,2.587e+00,2.713e+00,2.712e+00,2.996e+00,1.857e+00,3.218e+00,2.327e+00,2.961e+00,2.485e+00,3.513e+00,3.152e+00,2.958e+00,2.599e+00,2.143e+00,3.236e+00,2.489e+00
8.327e-01,8.140e-01,5.650e-01,9.151e-01,5.542e-01,1.565e+00,1.070e+00,2.454e+00,2.553e+00,2.332e+00,3.376e+00,2.635e+00,4.166e+00,4.963e+00,3.574e+00,4.013e+00,3.164e+00,4.203e+00,3.286e+00,3.445e+00,4.073e+00,2.586e+00,2.565e+00,3.468e+00,3.167e+00,4.811e+00,3.073e+00,2.803e+00,3.632e+00,2.616e+00,3.713e+00,4.778e+00,3.757e+00,3.411e+00,3.661e+00,4.692e+00,3.474e+00,3.703e+00,4.212e+00,4.606e+00,2.696e+00,4.855e+00,4.424e+00,3.711e+00,3.385e+00,2.200e+00,3.779e+00,3.501e+00,3.093e+00,3.654e+00,2.357e+00,2.813e+00,4.216e+00,3.168e+00,3.733e+00,4.575e+00,3.326e+00,4.105e+00,3.107e+00,4.082e+00,3.862e+00,3.958e+00,3.379e+00,4.118e+00,4.266e+00,3.332e+00,2.443e+00,3.664e+00,3.467e+00,2.949e+00,3.954e+00,3.033e+00,4.107e+00,3.144e+00,3.641e+00,3.066e+00,3.794e+00,3.965e+00,3.557e+00,3.009e+00,2.498e+00,4.109e+00,2.849e+00
8.693e-01,1.173e+00,1.346e+00,1.194e+00,9.998e-01,1.689e+00,1.540e+00,2.045e+00,3.232e+00,2.652e+00,3.423e+00,2.828e+00,4.439e+00,5.210e+00,3.976e+00,4.637e+00,3.557e+00,4.749e+00,3.533e+00,3.393e+00,4.409e+00,3.906e+00,3.727e+00,4.600e+00,3.058e+00,4.215e+00,4.483e+00,2.537e+00,4.070e+00,3.491e+00,4.163e+00,5.083e+00,3.154e+00,3.774e+00,3.913e+00,4.919e+00,3.904e+00,3.390e+00,4.178e+00,5.219e+00,3.546e+00,5.269e+00,5.051e+00,5.091e+00,3.404e+00,3.083e+00,4.519e+00,4.096e+00,3.541e+00,4.173e+00,3.050e+00,4.189e+00,4.444e+00,3.070e+00,4.523e+00,4.592e+00,4.475e+00,4.402e+00,3.372e+00,4.390e+00,4.602e+00,3.989e+00,4.118e+00,4.427e+00,3.575e+00,4.880e+00,3.483e+00,3.653e+00,4.590e+00,3.949e+00,4.095e+00,2.849e+00,4.485e+00,3.018e+00,4.460e+00,3.148e+00,4.466e+00,4.197e+00,4.262e+00,3.128e+00,3.630e+00,4.469e+00,3.778e+00
8.960e-01,1.043e+00,1.112e+00,9.729e-01,4.237e-01,1.352e+00,1.350e+00,2.023e+00,2.828e+00,2.547e+00,3.433e+00,2.846e+00,4.270e+00,4.516e+00,3.690e+00,4.570e+00,3.227e+00,3.594e+00,3.996e+00,4.359e+00,4.614e+00,3.210e+00,3.712e+00,3.490e+00,2.977e+00,4.507e+00,4.087e+00,3.043e+00,4.232e+00,3.692e+00,4.511e+00,5.046e+00,3.728e+00,2.835e+00,4.050e+00,4.085e+00,3.822e+00,3.444e+00,4.590e+00,4.585e+00,3.374e+00,4.364e+00,4.104e+00,4.321e+00,3.613e+00,3.287e+00,5.172e+00,3.982e+00,3.817e+00,4.798e+00,2.787e+00,3.789e+00,4.117e+00,2.865e+00,4.018e+00,4.491e+00,4.303e+00,4.683e+00,2.943e+00,3.600e+00,4.263e+00,4.327e+00,3.910e+00,4.392e+00,4.007e+00,4.228e+00,2.722e+00,4.147e+00,4.075e+00,3.582e+00,4.521e+00,3.167e+00,4.295e+00,3.270e+00,4.581e+00,3.207e+00,4.242e+00,4.057e+00,4.546e+00,3.558e+00,3.471e+00,5.022e+00,3.511e+00
4.812e-01,8.896e-01,1.028e+00,1.419e+00,1.525e+00,1.813e+00,1.233e+00,1.301e+00,2.356e+00,2.019e+00,2.774e+00,2.336e+00,3.018e+00,3.606e+00,3.071e+00,3.356e+00,3.364e+00,4.073e+00,2.652e+00,2.227e+00,3.035e+00,3.312e+00,2.860e+00,3.406e+00,2.363e+00,3.916e+00,3.316e+00,2.192e+00,3.297e+00,2.624e+00,3.183e+00,3.854e+00,3.246e+00,3.445e+00,3.577e+00,4.152e+00,2.830e+00,3.246e+00,3.827e+00,4.192e+00,2.830e+00,4.183e+00,3.177e+00,4.216e+00,3.006e+00,2.713e+00,4.052e+00,4.225e+00,2.955e+00,2.625e+00,1.868e+00,2.888e+00,3.792e+00,2.852e+00,3.578e+00,3.270e+00,3.712e+00,3.804e+00,3.218e+00,3.226e+00,4.733e+00,3.134e+00,2.742e+00,3.549e+00,3.017e+00,3.364e+00,3.550e+00,3.093e+00,3.594e+00,3.006e+00,3.653e+00,2.490e+00,3.985e+00,3.661e+00,2.749e+00,2.967e+00,2.907e+00,3.047e+00,3.371e+00,3.084e+00,2.971e+00,3.698e+00,2.759e+00
5.854e-01,5.978e-01,5.635e-01,9.184e-01,5.044e-01,1.213e+00,7.882e-01,1.979e+00,2.459e+00,2.491e+00,2.929e+00,3.074e+00,4.355e+00,4.519e+00,4.105e+00,4.474e+00,4.606e+00,5.592e+00,4.064e+00,4.151e+00,5.078e+00,3.761e+00,3.899e+00,4.576e+00,4.220e+00,5.196e+00,3.837e+00,2.967e+00,4.195e+00,4.258e+00,5.394e+00,5.596e+00,4.260e+00,3.989e+00,4.703e+00,4.460e+00,4.370e+00,4.596e+00,5.013e+00,6.046e+00,2.701e+00,5.144e+00,5.851e+00,4.745e+00,4.242e+00,3.006e+00,4.858e+00,4.197e+00,3.635e+00,4.161e+00,2.886e+00,4.490e+00,4.530e+00,3.484e+00,4.038e+00,4.829e+00,4.567e+00,4.225e+00,4.722e+00,4.348e+00,5.544e+00,3.513e+00,4.179e+00,4.367e+00,4.638e+00,3.986e+00,3.927e+00,3.764e+00,4.479e+00,3.811e+00,4.132e+00,4.075e+00,5.222e+00,3.727e+00,4.969e+00,3.344e+00,4.693e+00,4.182e+00,3.837e+00,3.993e+00,3.755e+00,4.759e+00,3.897e+00
5.711e-01,9.980e-01,1.375e+00,1.731e+00,1.051e+00,1.814e+00,1.789e+00,2.681e+00,3.073e+00,3.475e+00,3.642e+00,3.251e+00,4.757e+00,5.421e+00,4.537e+00,4.944e+00,4.194e+00,6.489e+00,4.910e+00,4.350e+00,5.622e+00,4.922e+00,5.126e+00,4.797e+00,4.257e+00,5.207e+00,5.742e+00,3.883e+00,5.048e+00,5.637e+00,5.904e+00,6.204e+00,5.259e+00,5.754e+00,6.321e+00,6.204e+00,5.218e+00,5.160e+00,6.523e+00,6.993e+00,3.922e+00,6.107e+00,6.350e+00,5.591e+00,4.994e+00,4.709e+00,5.891e+00,6.140e+00,4.888e+00,5.443e+00,3.606e+00,5.889e+00,5.310e+00,4.497e+00,5.761e+00,5.241e+00,5.699e+00,5.816e+00,4.747e+00,5.291e+00,6.951e+00,4.925e+00,4.548e+00,6.393e+00,4.746e+00,5.882e+00,5.090e+00,5.173e+00,6.463e+00,4.228e+00,5.389e+00,4.444e+00,6.261e+00,4.380e+00,6.057e+00,4.390e+00,5.890e+00,4.675e+00,5.253e+00,5.370e+00,4.749e+00,6.840e+00,4.496e+00
6.562e-01,7.627e-01,8.427e-01,1.151e+00,8.541e-01,1.589e+00,1.119e+00,2.106e+00,2.999e+00,2.518e+00,3.525e+00,2.983e+00,4.667e+00,5.033e+00,4.448e+00,5.323e+00,4.974e+00,6.342e+00,5.511e+00,4.670e+00,5.888e+00,4.361e+00,4.532e+00,5.509e+00,4.436e+00,5.915e+00,5.209e+00,3.930e+00,5.266e+00,5.744e+00,6.948e+00,6.959e+00,5.844e+00,4.628e+00,5.737e+00,5.470e+00,4.919e+00,4.905e+00,6.039e+00,6.699e+00,4.319e+00,6.668e+00,6.167e+00,5.941e+00,4.399e+00,4.044e+00,6.424e+00,5.903e+00,4.344e+00,5.228e+00,4.073e+00,5.669e+00,5.143e+00,4.038e+00,4.986e+00,5.350e+00,5.828e+00,5.967e+00,5.747e+00,5.434e+00,7.135e+00,4.262e+00,5.537e+00,5.018e+00,5.800e+00,5.529e+00,4.854e+00,5.276e+00,5.803e+00,5.309e+00,5.609e+00,5.007e+00,6.517e+00,4.370e+00,5.169e+00,4.328e+00,5.592e+00,5.403e+00,5.097e+00,4.606e+00,5.292e+00,6.124e+00,5.025e+00
5.445e-01,5.979e-01,7.240e-01,5.377e-01,4.389e-01,1.328e+00,1.354e+00,1.656e+00,2.562e+00,2.307e+00,3.042e+00,2.021e+00,3.279e+00,3.764e+00,2.537e+00,3.859e+00,2.891e+00,4.398e+00,4.519e+00,5.289e+00,5.789e+00,4.154e+00,4.385e+00,4.227e+00,4.186e+00,5.844e+00,4.780e+00,3.995e+00,5.184e+00,5.098e+00,5.572e+00,5.835e+00,5.317e+00,3.955e+00,5.411e+00,5.303e+00,4.589e+00,4.851e+00,5.043e+00,5.720e+00,4.200e+00,5.693e+00,4.485e+00,5.417e+00,3.881e+00,4.036e+00,6.205e+00,4.913e+00,5.309e+00,5.575e+00,3.103e+00,5.385e+00,4.682e+00,4.069e+00,4.421e+00,4.977e+00,5.448e+00,4.677e+00,3.792e+00,4.373e+00,5.965e+00,4.840e+00,4.306e+00,5.270e+00,4.843e+00,5.838e+00,3.725e+00,5.431e+00,5.416e+00,4.771e+00,4.955e+00,4.255e+00,5.577e+00,4.050e+00,5.611e+00,4.627e+00,4.766e+00,4.337e+00,4.514e+00,4.856e+00,5.050e+00,5.837e+00,4.628e+00
1.442e-03,9.990e-02,4.533e-01,6.898e-01,8.555e-01,9.741e-01,8.374e-01,1.393e+00,1.864e+00,2.438e+00,2.596e+00,2.971e+00,2.906e+00,3.954e+00,2.967e+00,2.870e+00,3.475e+00,4.725e+00,3.176e+00,4.361e+00,5.760e+00,4.160e+00,4.453e+00,4.636e+00,4.533e+00,5.391e+00,4.994e+00,3.047e+00,5.414e+00,4.802e+00,5.310e+00,5.316e+00,3.917e+00,3.974e+00,4.662e+00,5.670e+00,3.940e+00,5.322e+00,5.635e+00,5.952e+00,3.288e+00,5.427e+00,5.499e+00,5.476e+00,4.123e+00,3.577e+00,5.612e+00,4.093e+00,5.008e+00,5.885e+00,3.317e+00,4.934e+00,4.779e+00,3.743e+00,4.907e+00,4.879e+00,4.926e+00,4.805e+00,3.529e+00,3.939e+00,5.916e+00,4.698e+00,4.070e+00,5.276e+00,4.417e+00,5.298e+00,4.908e+00,5.228e+00,5.458e+00,4.018e+00,4.255e+00,4.058e+00,5.954e+00,4.613e+00,5.207e+00,3.803e+00,6.193e+00,4.556e+00,3.886e+00,4.839e+00,4.940e+00,5.757e+00,4.586e+00
2.868e-01,2.640e-01,2.604e-01,6.635e-01,9.299e-01,1.674e+00,7.815e-01,1.213e+00,1.899e+00,2.274e+00,2.867e+00,3.109e+00,3.113e+00,4.524e+00,3.238e+00,3.788e+00,4.244e+00,4.778e+00,3.726e+00,4.975e+00,5.825e+00,5.099e+00,5.533e+00,4.807e+00,5.685e+00,6.447e+00,4.814e+00,4.010e+00,4.776e+00,4.600e+00,6.011e+00,6.845e+00,4.905e+00,4.319e+00,4.993e+00,6.123e+00,4.305e+00,5.628e+00,5.310e+00,7.382e+00,4.757e+00,6.089e+00,5.956e+00,6.325e+00,4.851e+00,4.003e+00,6.087e+00,4.316e+00,5.798e+00,5.648e+00,3.512e+00,6.020e+00,5.465e+00,4.833e+00,5.729e+00,5.701e+00,6.388e+00,4.922e+00,4.977e+00,5.137e+00,6.502e+00,5.334e+00,5.141e+00,5.879e+00,6.032e+00,5.536e+00,4.829e+00,5.508e+00,5.750e+00,5.544e+00,4.819e+00,4.905e+00,6.857e+00,4.902e+00,5.155e+00,5.068e+00,6.333e+00,5.018e+00,4.964e+00,4.987e+00,5.593e+00,5.757e+00,5.472e+00
1.602e-01,4.466e-01,6.628e-01,7.690e-01,1.068e+00,1.105e+00,1.241e+00,1.457e+00,2.195e+00,2.369e+00,2.315e+00,1.876e+00,2.735e+00,4.297e+00,2.971e+00,3.453e+00,3.566e+00,5.217e+00,3.878e+00,3.127e+00,4.878e+00,5.095e+00,4.088e+00,5.644e+00,3.706e+00,5.033e+00,5.120e+00,4.434e+00,4.553e+00,5.403e+00,5.495e+00,5.289e+00,5.276e+00,5.160e+00,5.725e+00,5.804e+00,5.202e+00,5.296e+00,5.448e+00,7.135e+00,3.867e+00,6.702e+00,5.437e+00,5.562e+00,4.338e+00,3.758e+00,5.423e+00,5.171e+00,4.811e+00,4.412e+00,3.700e+00,5.929e+00,5.537e+00,5.297e+00,4.994e+00,4.925e+00,5.404e+00,5.537e+00,4.880e+00,5.333e+00,6.621e+00,4.491e+00,4.979e+00,5.953e+00,5.041e+00,5.940e+00,5.985e+00,4.810e+00,5.480e+00,4.292e+00,4.473e+00,4.562e+00,6.774e+00,4.224e+00,5.517e+00,3.958e+00,6.226e+00,5.479e+00,4.580e+00,4.462e+00,4.836e+00,6.102e+00,5.205e+00
8.406e-01,8.153e-01,5.864e-01,7.942e-01,8.196e-01,1.639e+00,7.550e-01,2.022e+00,2.279e+00,1.735e+00,2.815e+00,2.511e+00,3.752e+00,5.081e+00,4.424e+00,4.998e+00,4.158e+00,6.434e+00,4.657e+00,4.380e+00,5.915e+00,5.696e+00,4.503e+00,6.898e+00,5.737e+00,7.139e+00,6.471e+00,4.774e+00,7.302e+00,6.024e+00,6.429e+00,7.171e+00,6.815e+00,6.081e+00,5.916e+00,7.866e+00,6.823e+00,6.253e+00,7.456e+00,8.094e+00,5.498e+00,8.474e+00,7.885e+00,7.353e+00,5.068e+00,4.683e+00,6.182e+00,6.314e+00,5.990e+00,7.055e+00,3.808e+00,6.137e+00,6.766e+00,5.449e+00,6.824e+00,7.226e+00,6.396e+00,6.530e+00,5.614e+00,6.871e+00,6.705e+00,6.245e+00,6.610e+00,6.493e+00,6.592e+00,6.637e+00,5.568e+00,6.463e+00,6.374e+00,5.570e+00,5.699e+00,5.781e+00,8.356e+00,5.605e+00,6.087e+00,5.251e+00,6.332e+00,7.127e+00,5.821e+00,6.247e+00,6.456e+00,6.959e+00,5.735e+00
3.728e-01,4.236e-01,4.925e-01,7.018e-01,1.227e+00,1.793e+00,1.026e+00,1.784e+00,2.419e+00,2.473e+00,3.164e+00,3.046e+00,3.310e+00,4.861e+00,3.880e+00,4.065e+00,3.742e+00,5.236e+00,4.230e+00,4.555e+00,5.433e+00,5.158e+00,5.303e+00,5.483e+00,5.757e+00,6.431e+00,5.604e+00,5.364e+00,5.886e+00,6.051e+00,6.323e+00,7.419e+00,5.027e+00,5.003e+00,5.782e+00,6.597e+00,5.852e+00,5.597e+00,6.712e+00,7.667e+00,4.921e+00,7.269e+00,6.174e+00,6.238e+00,5.275e+00,4.438e+00,6.802e+00,5.301e+00,6.448e+00,6.039e+00,4.090e+00,7.114e+00,6.498e+00,5.602e+00,7.096e+00,6.246e+00,6.287e+00,6.496e+00,4.694e+00,5.407e+00,7.614e+00,6.677e+00,5.918e+00,6.234e+00,6.092e+00,6.797e+00,6.005e+00,5.934e+00,5.459e+00,5.432e+00,5.677e+00,5.667e+00,7.137e+00,5.358e+00,6.148e+00,5.884e+00,6.449e+00,6.599e+00,5.121e+00,5.109e+00,6.046e+00,5.896e+00,5.646e+00
6.973e-01,8.918e-01,1.011e+00,8.761e-01,1.043e+00,1.763e+00,1.285e+00,1.345e+00,2.641e+00,2.258e+00,2.935e+00,2.527e+00,3.627e+00,4.684e+00,3.485e+00,4.620e+00,3.900e+00,5.151e+00,4.091e+00,4.263e+00,6.007e+00,5.603e+00,5.002e+00,6.135e+00,4.835e+00,7.231e+00,7.359e+00,4.780e+00,6.494e+00,6.817e+00,6.464e+00,7.729e+00,6.401e+00,5.890e+00,6.112e+00,7.193e+00,5.579e+00,5.881e+00,7.441e+00,7.638e+00,6.428e+00,7.952e+00,6.603e+00,7.389e+00,5.426e+00,5.212e+00,7.624e+00,5.898e+00,6.168e+00,6.704e+00,4.561e+00,7.955e+00,7.272e+00,5.164e+00,6.612e+00,7.551e+00,7.503e+00,6.148e+00,5.599e+00,6.288e+00,7.465e+00,6.377e+00,7.139e+00,7.381e+00,5.640e+00,7.881e+00,6.799e+00,7.450e+00,6.862e+00,6.382e+00,5.933e+00,5.296e+00,7.767e+00,5.551e+00,6.730e+00,5.573e+00,6.897e+00,6.527e+00,6.393e+00,5.831e+00,7.391e+00,7.486e+00,6.697e+00
1.398e-01,2.799e-01,3.275e-01,7.321e-01,7.911e-01,8.538e-01,6.635e-01,1.433e+00,1.473e+00,1.740e+00,1.721e+00,1.600e+00,2.273e+00,2.929e+00,3.100e+00,3.190e+00,3.198e+00,4.633e+00,3.917e+00,2.925e+00,4.292e+00,4.989e+00,3.978e+00,4.834e+00,3.794e+00,5.496e+00,5.660e+00,5.169e+00,5.994e+00,6.901e+00,6.559e+00,6.298e+00,6.861e+00,5.589e+00,6.897e+00,5.900e+00,5.637e+00,6.382e+00,6.964e+00,7.437e+00,5.901e+00,7.037e+00,6.842e+00,6.043e+00,5.268e+00,4.907e+00,6.006e+00,6.076e+00,6.108e+00,5.374e+00,4.443e+00,6.413e+00,6.306e+00,5.195e+00,5.300e+00,5.967e+00,5.922e+00,5.882e+00,6.807e+00,5.951e+00,7.215e+00,5.478e+00,6.456e+00,6.055e+00,5.210e+00,6.128e+00,6.424e+00,5.740e+00,5.500e+00,5.030e+00,6.316e+00,5.995e+00,8.112e+00,5.381e+00,5.682e+00,4.810e+00,6.395e+00,5.715e+00,5.633e+00,7.024e+00,6.280e+00,7.795e+00,5.742e+00
9.916e-01,1.403e+00,1.462e+00,1.850e+00,8.814e-01,2.176e+00,1.602e+00,2.375e+00,2.936e+00,2.818e+00,3.557e+00,3.034e+00,4.266e+00,3.988e+00,3.918e+00,4.433e+00,3.693e+00,5.282e+00,5.190e+00,4.350e+00,5.559e+00,5.090e+00,5.344e+00,5.507e+00,5.502e+00,7.219e+00,7.308e+00,5.674e+00,7.707e+00,7.745e+00,6.863e+00,8.475e+00,7.630e+00,7.235e+00,7.721e+00,7.938e+00,7.046e+00,6.455e+00,9.252e+00,9.094e+00,7.343e+00,7.526e+00,7.343e+00,6.975e+00,6.485e+00,6.078e+00,8.207e+00,6.648e+00,6.898e+00,6.787e+00,4.926e+00,9.135e+00,8.180e+00,5.988e+00,7.643e+00,8.136e+00,7.282e+00,7.652e+00,5.975e+00,6.779e+00,8.303e+00,7.840e+00,6.752e+00,7.758e+00,6.623e+00,8.013e+00,7.605e+00,8.365e+00,7.421e+00,6.916e+00,6.967e+00,6.920e+00,8.218e+00,6.071e+00,7.867e+00,6.316e+00,7.484e+00,6.376e+00,7.633e+00,7.605e+00,7.852e+00,8.176e+00,6.555e+00
8.818e-01,9.169e-01,8.176e-01,9.044e-01,1.034e+00,1.652e+00,1.359e+00,1.958e+00,2.786e+00,2.660e+00,3.442e+00,2.746e+00,3.385e+00,5.489e+00,3.428e+00,4.336e+00,4.252e+00,5.510e+00,4.831e+00,5.294e+00,6.726e+00,5.753e+00,4.767e+00,7.013e+00,6.575e+00,8.389e+00,7.886e+00,6.125e+00,8.513e+00,8.633e+00,8.776e+00,9.886e+00,8.557e+00,7.793e+00,8.568e+00,9.212e+00,7.830e+00,9.276e+00,9.197e+00,1.036e+01,7.543e+00,1.040e+01,8.205e+00,8.535e+00,8.034e+00,6.443e+00,8.993e+00,6.350e+00,7.923e+00,8.106e+00,6.793e+00,9.721e+00,9.669e+00,6.482e+00,8.116e+00,9.138e+00,7.911e+00,8.123e+00,6.766e+00,8.051e+00,9.715e+00,8.600e+00,8.341e+00,8.781e+00,6.954e+00,9.950e+00,8.205e+00,8.856e+00,8.593e+00,7.746e+00,7.600e+00,7.446e+00,9.640e+00,7.426e+00,9.121e+00,6.778e+00,9.336e+00,7.965e+00,8.379e+00,7.972e+00,8.679e+00,8.873e+00,8.561e+00
1.857e-01,5.443e-01,7.275e-01,1.259e+00,9.756e-01,1.479e+00,1.376e+00,2.183e+00,2.944e+00,3.335e+00,3.619e+00,3.526e+00,4.466e+00,5.061e+00,4.527e+00,5.075e+00,5.095e+00,6.780e+00,5.768e+00,5.072e+00,6.517e+00,5.741e+00,5.138e+00,5.395e+00,4.547e+00,7.001e+00,6.331e+00,5.283e+00,7.185e+00,7.706e+00,8.480e+00,8.604e+00,8.071e+00,7.272e+00,8.744e+00,8.071e+00,6.988e+00,7.774e+00,9.674e+00,9.882e+00,6.670e+00,8.705e+00,8.387e+00,7.462e+00,7.147e+00,5.696e+00,8.491e+00,7.878e+00,7.294e+00,7.257e+00,5.694e+00,8.430e+00,8.990e+00,6.906e+00,7.648e+00,8.396e+00,7.351e+00,7.578e+00,6.922e+00,7.890e+00,9.427e+00,7.340e+00,7.552e+00,7.478e+00,7.538e+00,7.736e+00,7.445e+00,7.699e+00,8.627e+00,6.750e+00,7.814e+00,8.027e+00,9.189e+00,7.381e+00,7.608e+00,6.111e+00,8.217e+00,6.968e+00,7.936e+00,8.456e+00,6.888e+00,9.198e+00,6.382e+00
3.918e-01,5.439e-01,6.317e-01,6.418e-01,4.728e-01,8.626e-01,9.398e-01,1.665e+00,2.318e+00,1.893e+00,2.420e+00,1.914e+00,2.941e+00,3.316e+00,2.868e+00,3.553e+00,2.542e+00,4.576e+00,4.624e+00,3.863e+00,4.596e+00,4.530e+00,3.764e+00,4.937e+00,3.585e+00,5.339e+00,5.749e+00,5.034e+00,5.586e+00,7.253e+00,8.026e+00,7.428e+00,7.547e+00,6.133e+00,7.372e+00,6.801e+00,6.341e+00,5.988e+00,8.060e+00,8.905e+00,7.529e+00,8.148e+00,7.230e+00,7.260e+00,6.383e+00,5.532e+00,7.269e+00,6.624e+00,6.232e+00,5.944e+00,6.037e+00,8.258e+00,7.616e+00,6.218e+00,6.054e+00,7.012e+00,6.660e+00,6.990e+00,6.664e+00,6.943e+00,8.004e+00,6.784e+00,8.048e+00,6.903e+00,6.648e+00,8.184e+00,7.280e+00,7.486e+00,7.057e+00,6.557e+00,7.055e+00,6.604e+00,8.754e+00,4.550e+00,6.981e+00,5.829e+00,8.314e+00,6.562e+00,6.920e+00,7.666e+00,6.744e+00,8.994e+00,6.404e+00
3.827e-01,5.131e-01,6.565e-01,4.948e-01,1.105e+00,1.558e+00,1.269e+00,1.912e+00,2.823e+00,2.757e+00,2.923e+00,2.591e+00,3.530e+00,4.621e+00,3.763e+00,4.490e+00,3.867e+00,6.166e+00,4.867e+00,5.004e+00,6.346e+00,6.874e+00,5.714e+00,6.793e+00,5.482e+00,6.586e+00,7.067e+00,5.905e+00,8.054e+00,8.282e+00,8.667e+00,8.560e+00,8.859e+00,7.119e+00,9.766e+00,9.125e+00,7.832e+00,8.952e+00,9.293e+00,1.125e+01,9.394e+00,1.097e+01,8.991e+00,9.979e+00,7.992e+00,6.923e+00,8.600e+00,9.483e+00,8.753e+00,8.812e+00,6.906e+00,9.657e+00,9.950e+00,7.832e+00,8.344e+00,9.375e+00,8.484e+00,7.936e+00,8.199e+00,9.122e+00,9.755e+00,8.511e+00,9.731e+00,8.030e+00,7.315e+00,1.007e+01,7.850e+00,8.281e+00,8.901e+00,8.960e+00,8.493e+00,8.392e+00,1.166e+01,7.266e+00,9.027e+00,7.824e+00,9.096e+00,7.831e+00,8.082e+00,8.974e+00,7.939e+00,1.028e+01,8.278e+00
7.372e-01,1.195e+00,1.281e+00,1.332e+00,9.516e-01,1.362e+00,1.415e+00,1.599e+00,2.334e+00,1.976e+00,2.424e+00,1.740e+00,2.776e+00,3.009e+00,2.871e+00,3.232e+00,2.524e+00,3.986e+00,3.972e+00,3.458e+00,4.801e+00,5.028e+00,4.037e+00,4.900e+00,4.283e+00,6.350e+00,6.351e+00,5.116e+00,6.211e+00,6.599e+00,5.951e+00,7.163e+00,6.956e+00,6.262e+00,7.083e+00,6.895e+00,6.611e+00,6.331e+00,8.683e+00,8.447e+00,7.269e+00,8.395e+00,6.346e+00,7.136e+00,6.328e+00,5.959e+00,8.826e+00,6.712e+00,5.973e+00,5.773e+00,5.001e+00,6.831e+00,8.222e+00,6.204e+00,6.229e+00,7.893e+00,7.980e+00,6.994e+00,6.595e+00,6.122e+00,7.363e+00,7.419e+00,7.456e+00,7.089e+00,5.556e+00,7.791e+00,7.584e+00,7.553e+00,6.259e+00,6.074e+00,6.564e+00,6.679e+00,8.371e+00,6.652e+00,6.746e+00,6.012e+00,6.699e+00,6.934e+00,6.907e+00,7.720e+00,7.501e+00,9.003e+00,7.101e+00
7.883e-01,7.334e-01,6.241e-01,6.289e-01,6.176e-01,1.331e+00,8.336e-01,1.911e+00,2.799e+00,2.050e+00,3.219e+00,2.659e+00,4.157e+00,4.604e+00,3.954e+00,5.408e+00,4.476e+00,5.834e+00,4.959e+00,4.637e+00,5.318e+00,5.714e+00,4.124e+00,5.708e+00,4.432e+00,6.442e+00,7.094e+00,5.697e+00,7.659e+00,7.801e+00,8.342e+00,9.320e+00,8.447e+00,7.476e+00,9.172e+00,9.047e+00,8.504e+00,8.672e+00,9.573e+00,1.108e+01,8.674e+00,1.114e+01,9.339e+00,1.032e+01,8.929e+00,7.268e+00,9.811e+00,9.050e+00,7.894e+00,8.527e+00,7.108e+00,9.177e+00,9.985e+00,8.009e+00,8.841e+00,1.009e+01,8.548e+00,9.011e+00,8.826e+00,8.954e+00,8.872e+00,9.255e+00,1.148e+01,8.796e+00,7.842e+00,9.526e+00,8.631e+00,9.429e+00,8.867e+00,9.437e+00,9.050e+00,9.264e+00,1.105e+01,8.173e+00,9.021e+00,7.996e+00,8.757e+00,9.281e+00,8.983e+00,8.613e+00,7.886e+00,1.088e+01,8.269e+00
7.641e-01,9.675e-01,8.617e-01,9.046e-01,1.180e+00,1.791e+00,1.297e+00,1.921e+00,2.803e+00,2.493e+00,3.238e+00,2.675e+00,3.725e+00,4.495e+00,3.620e+00,4.140e+00,4.223e+00,5.962e+00,4.837e+00,4.117e+00,5.565e+00,6.043e+00,4.947e+00,5.816e+00,5.053e+00,7.595e+00,6.905e+00,6.198e+00,7.436e+00,7.311e+00,7.660e+00,8.384e+00,8.583e+00,7.444e+00,9.929e+00,9.592e+00,8.940e+00,9.367e+00,1.054e+01,1.133e+01,8.879e+00,1.083e+01,7.916e+00,9.460e+00,9.059e+00,7.741e+00,1.027e+01,9.615e+00,7.892e+00,8.055e+00,7.048e+00,9.275e+00,1.025e+01,9.359e+00,8.903e+00,1.054e+01,9.727e+00,9.435e+00,9.143e+00,8.968e+00,9.702e+00,9.474e+00,9.602e+00,9.467e+00,8.178e+00,8.902e+00,8.921e+00,9.463e+00,8.259e+00,8.885e+00,9.327e+00,8.975e+00,1.168e+01,7.910e+00,8.602e+00,8.129e+00,8.661e+00,9.708e+00,9.576e+00,9.091e+00,8.717e+00,1.104e+01,9.252e+00
4.438e-01,9.695e-01,1.407e+00,1.677e+00,1.250e+00,1.720e+00,1.887e+00,2.745e+00,3.655e+00,3.684e+00,4.082e+00,3.407e+00,5.033e+00,4.853e+00,3.886e+00,3.751e+00,3.980e+00,5.491e+00,4.495e+00,4.321e+00,5.816e+00,4.791e+00,5.087e+00,5.784e+00,4.923e+00,5.943e+00,6.240e+00,6.211e+00,7.750e+00,7.740e+00,8.261e+00,8.616e+00,7.901e+00,7.125e+00,9.132e+00,9.047e+00,7.249e+00,8.646e+00,9.410e+00,1.094e+01,8.887e+00,9.420e+00,8.460e+00,8.971e+00,7.798e+00,6.903e+00,9.540e+00,8.187e+00,8.247e+00,6.785e+00,7.931e+00,1.059e+01,8.821e+00,7.706e+00,8.883e+00,9.094e+00,7.366e+00,9.509e+00,7.597e+00,7.449e+00,1.009e+01,8.815e+00,8.883e+00,9.166e+00,8.255e+00,9.161e+00,9.054e+00,9.161e+00,8.708e+00,8.006e+00,9.124e+00,8.397e+00,1.037e+01,7.018e+00,8.617e+00,7.394e+00,9.738e+00,8.254e+00,8.008e+00,8.131e+00,7.878e+00,9.198e+00,7.419e+00
4.669e-02,1.264e-01,4.566e-01,8.079e-01,9.858e-01,1.079e+00,1.097e+00,2.124e+00,2.719e+00,3.164e+00,3.457e+00,3.402e+00,3.663e+00,5.091e+00,4.162e+00,4.241e+00,4.374e+00,5.587e+00,5.457e+00,5.263e+00,6.138e+00,5.314e+00,5.706e+00,6.126e+00,5.639e+00,6.777e+00,6.888e+00,6.179e+00,7.082e+00,9.316e+00,1.045e+01,1.039e+01,9.384e+00,7.500e+00,1.059e+01,9.678e+00,9.291e+00,1.066e+01,1.210e+01,1.322e+01,1.013e+01,1.212e+01,1.056e+01,1.065e+01,1.061e+01,9.565e+00,1.079e+01,1.089e+01,8.407e+00,9.726e+00,8.987e+00,1.092e+01,1.091e+01,9.748e+00,9.445e+00,1.147e+01,9.774e+00,1.114e+01,1.019e+01,9.415e+00,1.139e+01,1.047e+01,1.152e+01,1.005e+01,1.007e+01,1.109e+01,9.916e+00,1.020e+01,9.684e+00,9.952e+00,1.016e+01,1.070e+01,1.342e+01,8.398e+00,1.062e+01,9.362e+00,1.221e+01,1.092e+01,1.030e+01,1.119e+01,9.687e+00,1.305e+01,1.134e+01
4.078e-01,5.726e-01,6.776e-01,1.240e+00,1.505e+00,1.934e+00,1.242e+00,2.164e+00,2.754e+00,3.038e+00,3.561e+00,3.371e+00,3.571e+00,4.857e+00,4.255e+00,4.240e+00,4.018e+00,5.810e+00,5.155e+00,4.929e+00,6.052e+00,6.033e+00,5.744e+00,6.105e+00,6.216e+00,7.792e+00,7.603e+00,7.173e+00,7.751e+00,9.335e+00,9.617e+00,1.025e+01,9.659e+00,8.589e+00,1.072e+01,1.093e+01,1.034e+01,1.102e+01,1.382e+01,1.354e+01,1.137e+01,1.415e+01,1.057e+01,1.182e+01,1.148e+01,1.053e+01,1.315e+01,1.183e+01,1.027e+01,1.042e+01,9.834e+00,1.243e+01,1.170e+01,1.060e+01,1.196e+01,1.264e+01,1.145e+01,1.220e+01,1.036e+01,1.032e+01,1.278e+01,1.215e+01,1.309e+01,1.217e+01,1.004e+01,1.225e+01,1.309e+01,1.179e+01,1.030e+01,1.014e+01,1.185e+01,1.221e+01,1.503e+01,9.808e+00,1.164e+01,1.179e+01,1.207e+01,1.204e+01,1.071e+01,1.203e+01,1.045e+01,1.434e+01,1.197e+01
4.197e-01,4.568e-01,5.069e-01,8.230e-01,1.126e+00,1.420e+00,9.836e-01,1.687e+00,2.327e+00,2.470e+00,2.882e+00,2.691e+00,3.223e+00,5.021e+00,4.129e+00,4.980e+00,4.584e+00,6.237e+00,4.892e+00,4.406e+00,5.890e+00,5.986e+00,4.704e+00,6.359e+00,4.792e+00,7.437e+00,7.268e+00,5.692e+00,7.164e+00,8.319e+00,8.211e+00,9.121e+00,8.404e+00,8.126e+00,8.894e+00,9.669e+00,8.204e+00,9.656e+00,1.135e+01,1.146e+01,8.458e+00,1.221e+01,9.071e+00,1.045e+01,1.087e+01,8.325e+00,1.044e+01,9.587e+00,8.256e+00,9.400e+00,8.398e+00,1.052e+01,9.827e+00,8.353e+00,9.710e+00,1.052e+01,9.458e+00,1.051e+01,8.366e+00,9.617e+00,1.117e+01,8.913e+00,1.103e+01,1.065e+01,7.900e+00,1.076e+01,1.173e+01,9.108e+00,9.674e+00,8.393e+00,9.970e+00,9.618e+00,1.201e+01,8.813e+00,1.190e+01,8.653e+00,1.085e+01,1.036e+01,9.115e+00,1.001e+01,9.233e+00,1.148e+01,9.935e+00
8.460e-02,5.543e-01,1.078e+00,1.021e+00,7.562e-01,1.140e+00,1.827e+00,2.332e+00,3.472e+00,3.909e+00,3.931e+00,3.656e+00,4.827e+00,5.069e+00,3.931e+00,4.561e+00,4.379e+00,5.479e+00,5.314e+00,5.757e+00,7.060e+00,5.564e+00,5.673e+00,5.730e+00,4.716e+00,6.748e+00,6.954e+00,5.389e+00,7.511e+00,8.431e+00,9.268e+00,9.175e+00,7.881e+00,7.202e+00,9.985e+00,8.791e+00,7.971e+00,9.693e+00,1.128e+01,1.231e+01,9.919e+00,1.258e+01,9.729e+00,1.185e+01,1.033e+01,8.812e+00,1.203e+01,9.053e+00,1.003e+01,1.106e+01,9.531e+00,1.125e+01,1.048e+01,8.383e+00,8.941e+00,1.224e+01,9.903e+00,1.077e+01,1.029e+01,9.462e+00,1.224e+01,1.046e+01,1.195e+01,1.053e+01,8.590e+00,1.176e+01,1.118e+01,1.073e+01,1.133e+01,1.018e+01,1.051e+01,1.062e+01,1.269e+01,9.458e+00,1.109e+01,8.434e+00,1.213e+01,1.032e+01,1.051e+01,1.010e+01,8.617e+00,1.298e+01,9.772e+00
7.099e-01,7.930e-01,6.648e-01,9.812e-01,5.143e-01,1.292e+00,1.123e+00,2.420e+00,2.674e+00,2.701e+00,3.423e+00,3.048e+00,3.806e+00,4.750e+00,3.901e+00,4.956e+00,4.486e+00,6.293e+00,6.383e+00,5.501e+00,6.282e+00,6.024e+00,4.855e+00,6.212e+00,5.468e+00,7.289e+00,7.579e+00,5.344e+00,7.582e+00,8.361e+00,9.526e+00,8.633e+00,9.023e+00,7.536e+00,9.763e+00,9.725e+00,8.828e+00,9.462e+00,1.082e+01,1.257e+01,9.483e+00,1.281e+01,1.033e+01,1.132e+01,1.069e+01,9.176e+00,1.056e+01,9.224e+00,8.744e+00,9.871e+00,8.528e+00,1.040e+01,1.073e+01,8.862e+00,8.582e+00,1.151e+01,9.668e+00,1.051e+01,1.042e+01,9.954e+00,1.160e+01,1.003e+01,1.086e+01,1.050e+01,9.671e+00,1.020e+01,1.052e+01,1.037e+01,1.036e+01,9.778e+00,1.051e+01,1.037e+01,1.308e+01,9.521e+00,9.900e+00,8.230e+00,1.148e+01,1.036e+01,1.126e+01,1.067e+01,8.982e+00,1.244e+01,9.923e+00
8.490e-01,9.746e-01,1.036e+00,1.220e+00,6.298e-01,1.754e+00,1.388e+00,2.541e+00,3.020e+00,3.143e+00,3.652e+00,3.238e+00,4.458e+00,4.626e+00,3.754e+00,4.431e+00,3.593e+00,4.646e+00,4.601e+00,4.938e+00,6.108e+00,5.255e+00,5.121e+00,5.505e+00,4.987e+00,6.798e+00,7.162e+00,5.791e+00,7.861e+00,8.545e+00,8.849e+00,9.442e+00,8.413e+00,7.598e+00,8.900e+00,1.000e+01,7.546e+00,9.358e+00,1.111e+01,1.281e+01,1.121e+01,1.263e+01,1.070e+01,1.160e+01,1.082e+01,9.116e+00,1.223e+01,9.765e+00,1.122e+01,1.109e+01,9.511e+00,1.265e+01,1.096e+01,8.620e+00,1.030e+01,1.290e+01,1.010e+01,1.120e+01,8.418e+00,1.043e+01,1.159e+01,1.077e+01,1.331e+01,1.213e+01,9.224e+00,1.182e+01,1.193e+01,1.208e+01,1.149e+01,9.757e+00,1.058e+01,1.042e+01,1.286e+01,8.769e+00,1.178e+01,1.004e+01,1.197e+01,1.071e+01,9.946e+00,1.097e+01,9.581e+00,1.209e+01,1.014e+01
7.062e-01,1.171e+00,1.429e+00,1.387e+00,9.987e-01,1.684e+00,2.077e+00,2.649e+00,3.744e+00,3.409e+00,4.051e+00,2.762e+00,4.637e+00,5.531e+00,4.195e+00,5.139e+00,4.339e+00,5.825e+00,6.052e+00,4.814e+00,6.042e+00,5.894e+00,5.597e+00,6.203e+00,4.550e+00,6.556e+00,6.846e+00,6.029e+00,7.251e+00,8.165e+00,8.899e+00,9.344e+00,8.362e+00,7.395e+00,1.016e+01,9.667e+00,9.413e+00,9.637e+00,1.096e+01,1.343e+01,1.173e+01,1.361e+01,1.042e+01,1.278e+01,1.047e+01,1.077e+01,1.179e+01,1.166e+01,9.610e+00,1.049e+01,1.073e+01,1.211e+01,1.149e+01,1.038e+01,9.900e+00,1.260e+01,1.107e+01,1.236e+01,1.181e+01,1.141e+01,1.264e+01,1.059e+01,1.228e+01,1.090e+01,9.756e+00,1.267e+01,1.124e+01,1.008e+01,1.063e+01,1.211e+01,1.200e+01,1.170e+01,1.390e+01,9.204e+00,1.196e+01,1.051e+01,1.186e+01,1.173e+01,1.127e+01,1.135e+01,1.054e+01,1.359e+01,1.144e+01
4.977e-02,5.448e-01,1.118e+00,8.919e-01,9.539e-01,1.113e+00,1.742e+00,1.520e+00,2.884e+00,3.283e+00,3.219e+00,3.042e+00,3.814e+00,4.700e+00,3.622e+00,4.113e+00,3.812e+00,4.833e+00,4.663e+00,5.765e+00,7.149e+00,5.574e+00,5.895e+00,5.683e+00,5.412e+00,6.831e+00,6.826e+00,5.596e+00,7.520e+00,7.895e+00,8.657e+00,8.192e+00,7.107e+00,6.373e+00,8.416e+00,9.302e+00,8.149e+00,1.040e+01,1.049e+01,1.130e+01,9.246e+00,1.295e+01,9.896e+00,1.259e+01,1.033e+01,9.969e+00,1.307e+01,1.004e+01,1.057e+01,1.189e+01,1.027e+01,1.189e+01,1.048e+01,9.665e+00,1.054e+01,1.185e+01,1.183e+01,1.192e+01,1.085e+01,1.026e+01,1.220e+01,1.082e+01,1.223e+01,1.095e+01,9.314e+00,1.226e+01,1.190e+01,1.155e+01,1.081e+01,1.033e+01,1.106e+01,1.103e+01,1.239e+01,9.288e+00,1.078e+01,1.002e+01,1.136e+01,1.132e+01,1.017e+01,1.123e+01,9.852e+00,1.281e+01,1.068e+01
3.438e-01,5.902e-01,8.228e-01,1.131e+00,1.375e+00,1.830e+00,1.549e+00,2.551e+00,3.496e+00,3.815e+00,4.076e+00,3.934e+00,4.697e+00,5.538e+00,4.526e+00,4.425e+00,4.740e+00,6.129e+00,4.756e+00,5.336e+00,6.913e+00,6.662e+00,6.452e+00,6.980e+00,6.052e+00,7.814e+00,7.172e+00,5.859e+00,8.097e+00,8.211e+00,9.242e+00,1.001e+01,8.911e+00,8.094e+00,1.055e+01,9.931e+00,8.812e+00,1.090e+01,1.199e+01,1.375e+01,1.068e+01,1.358e+01,1.237e+01,1.394e+01,1.224e+01,1.203e+01,1.386e+01,1.229e+01,1.317e+01,1.241e+01,1.044e+01,1.265e+01,1.201e+01,1.136e+01,1.207e+01,1.560e+01,1.313e+01,1.262e+01,1.236e+01,1.287e+01,1.304e+01,1.266e+01,1.454e+01,1.259e+01,1.089e+01,1.366e+01,1.323e+01,1.198e+01,1.176e+01,1.186e+01,1.188e+01,1.348e+01,1.468e+01,1.083e+01,1.256e+01,1.147e+01,1.370e+01,1.316e+01,1.115e+01,1.372e+01,1.187e+01,1.479e+01,1.169e+01
9.373e-01,1.368e+00,1.602e+00,1.920e+00,1.317e+00,2.386e+00,1.917e+00,2.690e+00,3.469e+00,3.557e+00,4.366e+00,3.809e+00,4.833e+00,5.666e+00,4.122e+00,4.881e+00,4.776e+00,6.360e+00,5.587e+00,4.396e+00,5.778e+00,5.698e+00,5.735e+00,5.733e+00,5.143e+00,6.200e+00,8.092e+00,4.583e+00,7.218e+00,7.674e+00,8.942e+00,8.678e+00,7.822e+00,7.914e+00,1.013e+01,1.031e+01,8.715e+00,9.802e+00,1.078e+01,1.276e+01,9.795e+00,1.260e+01,1.043e+01,1.200e+01,1.106e+01,1.162e+01,1.281e+01,1.115e+01,1.053e+01,1.140e+01,1.012e+01,1.193e+01,1.153e+01,1.010e+01,1.110e+01,1.341e+01,1.114e+01,1.168e+01,1.227e+01,1.140e+01,1.301e+01,1.170e+01,1.219e+01,1.249e+01,1.078e+01,1.310e+01,1.107e+01,1.266e+01,1.176e+01,1.233e+01,1.208e+01,1.162e+01,1.412e+01,9.698e+00,1.087e+01,1.065e+01,1.267e+01,1.160e+01,1.243e+01,1.090e+01,1.104e+01,1.343e+01,1.094e+01
9.227e-01,1.095e+00,9.974e-01,1.290e+00,4.420e-01,1.273e+00,1.118e+00,2.082e+00,2.239e+00,2.286e+00,2.702e+00,2.311e+00,3.419e+00,3.954e+00,3.063e+00,3.989e+00,3.752e+00,4.622e+00,4.156e+00,3.710e+00,4.487e+00,5.000e+00,3.815e+00,5.250e+00,4.710e+00,5.294e+00,6.526e+00,4.443e+00,6.379e+00,6.855e+00,7.083e+00,7.304e+00,8.005e+00,7.218e+00,7.729e+00,8.274e+00,7.513e+00,8.553e+00,9.223e+00,1.080e+01,8.821e+00,1.083e+01,8.654e+00,9.620e+00,9.589e+00,9.517e+00,1.077e+01,1.026e+01,8.979e+00,9.121e+00,8.754e+00,1.030e+01,1.055e+01,9.110e+00,9.433e+00,1.105e+01,9.112e+00,9.461e+00,9.622e+00,1.082e+01,1.018e+01,9.806e+00,1.112e+01,1.066e+01,8.735e+00,1.118e+01,9.789e+00,1.013e+01,9.761e+00,1.049e+01,1.023e+01,1.128e+01,1.239e+01,9.355e+00,1.038e+01,9.481e+00,1.042e+01,9.968e+00,1.049e+01,1.039e+01,9.594e+00,1.122e+01,8.645e+00
2.140e-01,4.344e-01,5.517e-01,9.068e-01,8.046e-01,1.229e+00,1.013e+00,1.328e+00,1.639e+00,2.338e+00,2.107e+00,2.121e+00,2.304e+00,3.351e+00,3.035e+00,3.413e+00,3.537e+00,4.685e+00,4.647e+00,4.144e+00,5.577e+00,5.948e+00,5.470e+00,5.267e+00,5.064e+00,6.452e+00,6.502e+00,5.705e+00,6.214e+00,7.679e+00,7.598e+00,7.464e+00,7.678e+00,6.994e+00,8.682e+00,8.775e+00,8.632e+00,9.456e+00,1.035e+01,1.148e+01,8.536e+00,1.185e+01,9.772e+00,1.137e+01,1.059e+01,1.069e+01,1.210e+01,1.110e+01,1.079e+01,1.157e+01,8.988e+00,1.248e+01,1.080e+01,1.028e+01,1.047e+01,1.298e+01,1.222e+01,1.149e+01,1.103e+01,1.024e+01,1.193e+01,1.097e+01,1.233e+01,1.332e+01,1.065e+01,1.285e+01,1.340e+01,1.163e+01,1.059e+01,1.021e+01,1.070e+01,1.277e+01,1.377e+01,1.027e+01,1.224e+01,1.094e+01,1.241e+01,1.237e+01,1.054e+01,1.157e+01,1.104e+01,1.304e+01,1.169e+01
2.231e-01,5.767e-01,8.728e-01,1.323e+00,7.907e-01,1.039e+00,1.296e+00,1.897e+00,2.743e+00,3.268e+00,3.313e+00,3.435e+00,3.931e+00,4.414e+00,3.829e+00,3.935e+00,4.640e+00,5.885e+00,5.220e+00,5.210e+00,6.613e+00,5.330e+00,5.123e+00,5.535e+00,5.366e+00,7.299e+00,6.761e+00,5.551e+00,7.121e+00,8.055e+00,8.644e+00,8.522e+00,7.890e+00,7.396e+00,9.107e+00,9.697e+00,9.502e+00,1.037e+01,1.185e+01,1.329e+01,8.918e+00,1.226e+01,1.056e+01,1.085e+01,1.100e+01,1.076e+01,1.338e+01,1.111e+01,1.125e+01,1.157e+01,1.024e+01,1.281e+01,1.177e+01,1.047e+01,1.084e+01,1.369e+01,1.258e+01,1.175e+01,1.073e+01,1.062e+01,1.299e+01,1.115e+01,1.320e+01,1.379e+01,1.139e+01,1.301e+01,1.360e+01,1.260e+01,1.139e+01,1.059e+01,1.151e+01,1.344e+01,1.468e+01,1.149e+01,1.215e+01,1.124e+01,1.365e+01,1.347e+01,1.098e+01,1.331e+01,1.203e+01,1.420e+01,1.241e+01
5.332e-02,3.252e-01,6.368e-01,8.806e-01,5.289e-01,6.027e-01,7.718e-01,1.748e+00,2.268e+00,2.658e+00,2.678e+00,3.365e+00,3.925e+00,4.237e+00,4.178e+00,4.217e+00,4.369e+00,5.375e+00,4.655e+00,4.522e+00,5.276e+00,4.654e+00,4.345e+00,4.390e+00,4.461e+00,5.020e+00,5.663e+00,4.777e+00,6.018e+00,7.499e+00,8.337e+00,7.973e+00,6.204e+00,5.972e+00,7.639e+00,7.584e+00,7.542e+00,8.204e+00,1.023e+01,1.120e+01,8.091e+00,1.146e+01,9.552e+00,1.068e+01,1.027e+01,1.003e+01,1.221e+01,1.051e+01,1.058e+01,1.240e+01,1.156e+01,1.353e+01,1.096e+01,9.460e+00,1.211e+01,1.321e+01,1.227e+01,1.269e+01,1.103e+01,1.085e+01,1.380e+01,1.029e+01,1.358e+01,1.215e+01,1.117e+01,1.189e+01,1.334e+01,1.118e+01,1.135e+01,1.086e+01,1.142e+01,1.347e+01,1.285e+01,1.130e+01,1.051e+01,1.108e+01,1.203e+01,1.317e+01,1.023e+01,1.173e+01,9.864e+00,1.235e+01,1.096e+01
4.262e-01,6.990e-01,9.089e-01,7.401e-01,3.840e-01,9.475e-01,1.243e+00,1.608e+00,2.208e+00,2.017e+00,2.529e+00,1.941e+00,3.238e+00,3.879e+00,3.123e+00,4.420e+00,3.557e+00,5.039e+00,4.755e+00,4.167e+00,4.755e+00,5.027e+00,4.517e+00,5.665e+00,4.593e+00,6.013e+00,6.739e+00,5.769e+00,6.900e+00,7.974e+00,7.909e+00,8.359e+00,7.678e+00,6.793e+00,8.740e+00,8.029e+00,8.909e+00,8.490e+00,1.039e+01,1.111e+01,9.786e+00,1.201e+01,8.911e+00,1.144e+01,1.065e+01,1.006e+01,1.235e+01,1.092e+01,1.106e+01,1.111e+01,1.064e+01,1.257e+01,1.162e+01,1.185e+01,1.049e+01,1.315e+01,1.163e+01,1.233e+01,1.199e+01,1.182e+01,1.349e+01,1.184e+01,1.287e+01,1.208e+01,1.189e+01,1.388e+01,1.296e+01,1.258e+01,1.081e+01,1.287e+01,1.364e+01,1.329e+01,1.461e+01,1.177e+01,1.222e+01,1.268e+01,1.306e+01,1.357e+01,1.170e+01,1.219e+01,1.146e+01,1.327e+01,1.118e+01
4.016e-01,9.204e-01,1.273e+00,1.244e+00,5.114e-01,1.030e+00,1.710e+00,1.732e+00,2.796e+00,2.575e+00,2.996e+00,1.988e+00,3.960e+00,4.060e+00,2.828e+00,3.582e+00,3.438e+00,4.926e+00,4.216e+00,4.137e+00,5.682e+00,4.016e+00,3.914e+00,4.665e+00,3.802e+00,6.562e+00,5.746e+00,5.368e+00,7.084e+00,7.139e+00,7.430e+00,8.620e+00,7.941e+00,7.102e+00,8.851e+00,8.628e+00,8.064e+00,8.539e+00,9.884e+00,1.117e+01,9.871e+00,1.131e+01,9.175e+00,1.138e+01,1.051e+01,1.074e+01,1.259e+01,1.013e+01,1.110e+01,1.107e+01,1.098e+01,1.356e+01,1.172e+01,9.463e+00,1.114e+01,1.492e+01,1.230e+01,1.230e+01,1.180e+01,1.191e+01,1.337e+01,1.157e+01,1.371e+01,1.402e+01,1.147e+01,1.410e+01,1.433e+01,1.394e+01,1.205e+01,1.206e+01,1.257e+01,1.389e+01,1.337e+01,1.128e+01,1.254e+01,1.223e+01,1.354e+01,1.271e+01,1.163e+01,1.297e+01,1.216e+01,1.298e+01,1.179e+01
5.970e-01,1.054e+00,1.162e+00,1.682e+00,1.470e+00,1.951e+00,1.480e+00,2.180e+00,3.134e+00,2.810e+00,3.405e+00,2.809e+00,3.761e+00,3.817e+00,3.619e+00,3.288e+00,3.607e+00,5.461e+00,4.774e+00,3.515e+00,5.381e+00,5.019e+00,4.618e+00,5.468e+00,4.657e+00,6.513e+00,6.316e+00,4.809e+00,7.191e+00,7.340e+00,7.830e+00,8.141e+00,8.182e+00,7.671e+00,9.043e+00,9.279e+00,8.212e+00,9.414e+00,1.130e+01,1.159e+01,1.024e+01,1.356e+01,1.108e+01,1.306e+01,1.065e+01,1.173e+01,1.404e+01,1.313e+01,1.201e+01,1.369e+01,1.191e+01,1.407e+01,1.344e+01,1.197e+01,1.265e+01,1.628e+01,1.457e+01,1.486e+01,1.568e+01,1.435e+01,1.608e+01,1.219e+01,1.462e+01,1.397e+01,1.367e+01,1.592e+01,1.532e+01,1.498e+01,1.367e+01,1.436e+01,1.511e+01,1.652e+01,1.598e+01,1.267e+01,1.315e+01,1.513e+01,1.480e+01,1.591e+01,1.310e+01,1.526e+01,1.421e+01,1.535e+01,1.380e+01
3.086e-01,5.115e-01,5.612e-01,9.229e-01,5.330e-01,8.293e-01,1.090e+00,1.981e+00,1.912e+00,2.447e+00,2.652e+00,2.385e+00,2.842e+00,4.622e+00,3.591e+00,3.931e+00,3.771e+00,4.718e+00,4.798e+00,4.773e+00,5.073e+00,4.942e+00,4.319e+00,4.523e+00,5.204e+00,6.693e+00,5.572e+00,5.922e+00,5.863e+00,8.011e+00,8.430e+00,8.901e+00,7.615e+00,7.221e+00,7.801e+00,8.303e+00,8.306e+00,8.513e+00,1.053e+01,1.077e+01,9.184e+00,1.125e+01,8.281e+00,1.078e+01,1.167e+01,9.610e+00,1.226e+01,1.085e+01,1.052e+01,1.172e+01,1.113e+01,1.392e+01,1.194e+01,1.190e+01,1.217e+01,1.318e+01,1.265e+01,1.432e+01,1.110e+01,1.232e+01,1.338e+01,1.203e+01,1.401e+01,1.409e+01,1.284e+01,1.397e+01,1.392e+01,1.236e+01,1.163e+01,1.221e+01,1.350e+01,1.573e+01,1.351e+01,1.253e+01,1.392e+01,1.379e+01,1.367e+01,1.418e+01,1.214e+01,1.361e+01,1.203e+01,1.312e+01,1.254e+01
3.767e-01,8.370e-01,1.013e+00,1.220e+00,7.403e-01,1.037e+00,1.247e+00,2.155e+00,2.339e+00,2.563e+00,2.338e+00,2.251e+00,3.708e+00,4.056e+00,3.872e+00,3.737e+00,3.628e+00,5.978e+00,4.532e+00,3.106e+00,5.089e+00,5.286e+00,4.233e+00,5.356e+00,4.123e+00,5.767e+00,6.003e+00,5.329e+00,6.079e+00,7.465e+00,7.881e+00,7.676e+00,7.666e+00,7.683e+00,8.703e+00,8.537e+00,8.283e+00,8.550e+00,1.091e+01,1.113e+01,8.269e+00,1.123e+01,8.987e+00,9.936e+00,1.077e+01,9.281e+00,1.143e+01,1.027e+01,9.617e+00,1.057e+01,9.787e+00,1.236e+01,1.171e+01,1.060e+01,1.189e+01,1.442e+01,1.193e+01,1.314e+01,1.293e+01,1.298e+01,1.299e+01,1.162e+01,1.449e+01,1.306e+01,1.168e+01,1.397e+01,1.422e+01,1.294e+01,1.155e+01,1.111e+01,1.293e+01,1.365e+01,1.382e+01,1.054e+01,1.254e+01,1.235e+01,1.380e+01,1.342e+01,1.183e+01,1.306e+01,1.184e+01,1.307e+01,1.205e+01
6.416e-02,9.192e-02,2.889e-01,5.807e-01,9.972e-01,1.281e+00,6.620e-01,1.462e+00,2.471e+00,2.176e+00,3.064e+00,3.143e+00,3.708e+00,4.312e+00,3.596e+00,4.420e+00,4.840e+00,7.049e+00,4.887e+00,5.019e+00,6.190e+00,5.418e+00,4.648e+00,6.597e+00,5.183e+00,6.959e+00,6.505e+00,5.149e+00,7.673e+00,7.745e+00,8.831e+00,8.428e+00,8.163e+00,7.227e+00,9.136e+00,9.630e+00,8.219e+00,9.083e+00,1.010e+01,1.218e+01,8.468e+00,1.225e+01,1.050e+01,1.292e+01,1.051e+01,9.210e+00,1.260e+01,1.195e+01,1.071e+01,1.132e+01,1.091e+01,1.321e+01,1.204e+01,1.119e+01,1.156e+01,1.426e+01,1.389e+01,1.365e+01,1.339e+01,1.326e+01,1.571e+01,1.283e+01,1.489e+01,1.327e+01,1.421e+01,1.445e+01,1.508e+01,1.432e+01,1.383e+01,1.386e+01,1.284e+01,1.495e+01,1.639e+01,1.374e+01,1.371e+01,1.282e+01,1.452e+01,1.562e+01,1.204e+01,1.227e+01,1.249e+01,1.546e+01,1.253e+01
1.193e-01,6.740e-01,1.168e+00,1.229e+00,1.294e+00,1.729e+00,1.972e+00,1.951e+00,3.363e+00,3.631e+00,4.021e+00,3.667e+00,4.800e+00,6.010e+00,4.407e+00,5.059e+00,4.676e+00,5.939e+00,4.598e+00,5.422e+00,6.961e+00,5.711e+00,6.017e+00,6.125e+00,5.225e+00,7.078e+00,6.425e+00,5.513e+00,7.498e+00,6.713e+00,7.950e+00,8.868e+00,6.569e+00,6.837e+00,8.597e+00,9.537e+00,7.909e+00,9.900e+00,1.002e+01,1.163e+01,8.953e+00,1.301e+01,1.041e+01,1.278e+01,1.096e+01,9.993e+00,1.257e+01,9.654e+00,1.141e+01,1.200e+01,1.139e+01,1.226e+01,1.219e+01,1.098e+01,1.293e+01,1.446e+01,1.403e+01,1.484e+01,1.458e+01,1.382e+01,1.620e+01,1.382e+01,1.534e+01,1.343e+01,1.332e+01,1.587e+01,1.475e+01,1.435e+01,1.361e+01,1.357e+01,1.485e+01,1.428e+01,1.534e+01,1.394e+01,1.387e+01,1.359e+01,1.521e+01,1.475e+01,1.378e+01,1.357e+01,1.257e+01,1.563e+01,1.295e+01
1.125e-01,6.699e-01,1.118e+00,1.532e+00,1.574e+00,1.519e+00,1.328e+00,1.269e+00,2.906e+00,2.580e+00,3.509e+00,3.493e+00,4.265e+00,4.801e+00,4.058e+00,3.990e+00,4.916e+00,6.686e+00,4.065e+00,4.658e+00,6.816e+00,5.183e+00,4.810e+00,6.113e+00,4.984e+00,7.621e+00,6.240e+00,5.324e+00,8.463e+00,6.388e+00,7.467e+00,8.873e+00,7.921e+00,7.593e+00,8.381e+00,1.008e+01,8.179e+00,9.644e+00,1.111e+01,1.157e+01,9.170e+00,1.217e+01,9.876e+00,1.299e+01,1.077e+01,1.102e+01,1.404e+01,1.174e+01,1.238e+01,1.340e+01,1.115e+01,1.269e+01,1.220e+01,1.100e+01,1.352e+01,1.547e+01,1.513e+01,1.543e+01,1.436e+01,1.501e+01,1.607e+01,1.512e+01,1.624e+01,1.533e+01,1.436e+01,1.664e+01,1.730e+01,1.719e+01,1.560e+01,1.432e+01,1.491e+01,1.656e+01,1.800e+01,1.596e+01,1.480e+01,1.537e+01,1.720e+01,1.601e+01,1.378e+01,1.505e+01,1.488e+01,1.665e+01,1.420e+01
7.615e-01,1.261e+00,1.632e+00,1.467e+00,1.335e+00,1.954e+00,2.285e+00,3.074e+00,4.405e+00,4.033e+00,4.867e+00,3.839e+00,5.722e+00,6.866e+00,4.984e+00,5.540e+00,5.078e+00,7.149e+00,6.014e+00,5.476e+00,7.290e+00,6.391e+00,6.202e+00,8.090e+00,6.208e+00,8.283e+00,8.650e+00,6.822e+00,9.402e+00,9.061e+00,9.758e+00,1.043e+01,9.213e+00,8.756e+00,1.064e+01,1.179e+01,1.045e+01,1.151e+01,1.275e+01,1.468e+01,1.250e+01,1.575e+01,1.245e+01,1.468e+01,1.232e+01,1.223e+01,1.499e+01,1.453e+01,1.308e+01,1.416e+01,1.356e+01,1.539e+01,1.543e+01,1.446e+01,1.432e+01,1.769e+01,1.616e+01,1.757e+01,1.711e+01,1.666e+01,1.847e+01,1.610e+01,1.755e+01,1.736e+01,1.648e+01,1.899e+01,1.733e+01,1.754e+01,1.556e+01,1.618e+01,1.763e+01,1.784e+01,1.918e+01,1.539e+01,1.753e+01,1.652e+01,1.916e+01,1.902e+01,1.709e+01,1.663e+01,1.713e+01,1.826e+01,1.672e+01
7.417e-01,1.058e+00,1.037e+00,1.267e+00,4.966e-01,1.627e+00,1.745e+00,2.813e+00,2.620e+00,3.292e+00,3.274e+00,2.571e+00,3.918e+00,4.846e+00,3.949e+00,4.657e+00,3.638e+00,4.673e+00,5.368e+00,5.044e+00,5.916e+00,6.280e+00,5.950e+00,6.336e+00,6.450e+00,7.511e+00,7.578e+00,7.226e+00,7.559e+00,9.167e+00,9.106e+00,9.086e+00,9.155e+00,8.262e+00,9.820e+00,9.841e+00,9.980e+00,1.068e+01,1.170e+01,1.427e+01,1.085e+01,1.428e+01,1.134e+01,1.208e+01,1.147e+01,1.126e+01,1.316e+01,1.113e+01,1.207e+01,1.161e+01,1.140e+01,1.266e+01,1.369e+01,1.284e+01,1.284e+01,1.630e+01,1.423e+01,1.441e+01,1.580e+01,1.479e+01,1.553e+01,1.490e+01,1.752e+01,1.559e+01,1.489e+01,1.611e+01,1.556e+01,1.611e+01,1.360e+01,1.477e+01,1.576e+01,1.552e+01,1.782e+01,1.402e+01,1.761e+01,1.508e+01,1.507e+01,1.591e+01,1.497e+01,1.524e+01,1.423e+01,1.738e+01,1.568e+01
3.201e-01,5.581e-01,7.990e-01,6.332e-01,1.131e+00,1.240e+00,1.018e+00,8.850e-01,2.723e+00,1.821e+00,2.847e+00,2.407e+00,3.670e+00,4.302e+00,3.720e+00,4.624e+00,4.336e+00,6.023e+00,4.613e+00,4.800e+00,6.679e+00,5.785e+00,4.829e+00,5.931e+00,4.327e+00,7.794e+00,6.857e+00,6.095e+00,8.671e+00,7.922e+00,8.396e+00,1.040e+01,8.956e+00,7.605e+00,9.760e+00,1.039e+01,8.747e+00,1.040e+01,1.118e+01,1.221e+01,1.045e+01,1.286e+01,1.051e+01,1.259e+01,1.037e+01,1.119e+01,1.445e+01,1.301e+01,1.267e+01,1.480e+01,1.191e+01,1.398e+01,1.409e+01,1.161e+01,1.361e+01,1.656e+01,1.700e+01,1.606e+01,1.645e+01,1.604e+01,1.948e+01,1.649e+01,1.882e+01,1.813e+01,1.670e+01,1.869e+01,1.753e+01,1.973e+01,1.716e+01,1.725e+01,1.748e+01,1.765e+01,2.096e+01,1.777e+01,1.793e+01,1.741e+01,1.820e+01,1.955e+01,1.712e+01,1.697e+01,1.833e+01,1.928e+01,1.945e+01
1.731e-01,4.832e-01,7.325e-01,5.756e-01,4.768e-01,8.046e-01,1.305e+00,1.508e+00,2.149e+00,2.033e+00,2.541e+00,1.876e+00,2.905e+00,4.393e+00,2.665e+00,3.567e+00,3.258e+00,5.086e+00,3.874e+00,3.732e+00,4.941e+00,4.290e+00,3.701e+00,6.030e+00,4.913e+00,6.488e+00,6.644e+00,4.880e+00,6.970e+00,7.064e+00,7.273e+00,7.917e+00,7.054e+00,7.453e+00,8.057e+00,9.207e+00,9.236e+00,9.506e+00,1.055e+01,1.199e+01,8.831e+00,1.348e+01,1.005e+01,1.189e+01,1.058e+01,1.085e+01,1.164e+01,1.018e+01,1.148e+01,1.197e+01,1.138e+01,1.156e+01,1.252e+01,1.190e+01,1.180e+01,1.580e+01,1.423e+01,1.390e+01,1.356e+01,1.430e+01,1.537e+01,1.533e+01,1.653e+01,1.629e+01,1.453e+01,1.594e+01,1.688e+01,1.731e+01,1.405e+01,1.404e+01,1.462e+01,1.511e+01,1.827e+01,1.438e+01,1.582e+01,1.426e+01,1.664e+01,1.811e+01,1.502e+01,1.508e+01,1.404e+01,1.604e+01,1.483e+01
1.087e-01,3.061e-01,5.415e-01,4.138e-01,6.545e-01,7.201e-01,9.806e-01,1.489e+00,2.593e+00,2.651e+00,2.871e+00,2.997e+00,3.406e+00,3.651e+00,2.903e+00,3.215e+00,3.365e+00,4.561e+00,4.190e+00,5.077e+00,6.023e+00,5.047e+00,4.252e+00,5.569e+00,4.727e+00,6.635e+00,6.615e+00,5.336e+00,7.238e+00,7.406e+00,7.937e+00,7.228e+00,7.951e+00,6.607e+00,7.870e+00,8.431e+00,7.017e+00,9.239e+00,1.002e+01,1.079e+01,8.400e+00,1.264e+01,9.331e+00,1.297e+01,1.134e+01,9.909e+00,1.309e+01,1.048e+01,1.251e+01,1.405e+01,1.174e+01,1.346e+01,1.179e+01,1.118e+01,1.246e+01,1.698e+01,1.454e+01,1.518e+01,1.548e+01,1.502e+01,1.750e+01,1.584e+01,1.837e+01,1.829e+01,1.724e+01,1.764e+01,1.869e+01,1.953e+01,1.720e+01,1.539e+01,1.689e+01,1.704e+01,1.984e+01,1.674e+01,1.870e+01,1.740e+01,1.959e+01,1.976e+01,1.591e+01,1.665e+01,1.600e+01,1.837e+01,1.744e+01
8.950e-01,1.120e+00,1.265e+00,1.583e+00,7.413e-01,1.527e+00,1.472e+00,2.910e+00,3.303e+00,3.448e+00,3.679e+00,3.418e+00,5.258e+00,5.380e+00,4.790e+00,5.328e+00,5.166e+00,6.592e+00,5.299e+00,5.059e+00,6.191e+00,5.723e+00,5.359e+00,6.791e+00,6.046e+00,6.600e+00,6.961e+00,6.065e+00,7.206e+00,8.545e+00,8.643e+00,9.053e+00,8.428e+00,7.722e+00,9.585e+00,8.680e+00,9.172e+00,9.235e+00,1.063e+01,1.332e+01,9.685e+00,1.341e+01,1.110e+01,1.250e+01,1.219e+01,1.181e+01,1.404e+01,1.246e+01,1.160e+01,1.218e+01,1.178e+01,1.395e+01,1.319e+01,1.159e+01,1.262e+01,1.555e+01,1.364e+01,1.439e+01,1.543e+01,1.457e+01,1.701e+01,1.420e+01,1.676e+01,1.689e+01,1.418e+01,1.758e+01,1.684e+01,1.689e+01,1.500e+01,1.604e+01,1.617e+01,1.706e+01,1.858e+01,1.549e+01,1.766e+01,1.627e+01,1.714e+01,1.712e+01,1.471e+01,1.564e+01,1.504e+01,1.710e+01,1.604e+01
5.538e-01,5.034e-01,3.453e-01,4.265e-01,2.509e-01,1.303e+00,8.686e-01,1.507e+00,1.855e+00,1.885e+00,2.579e+00,2.239e+00,3.028e+00,4.039e+00,2.741e+00,4.009e+00,3.475e+00,4.491e+00,3.778e+00,4.752e+00,5.637e+00,5.220e+00,4.659e+00,5.908e+00,5.969e+00,7.590e+00,6.878e+00,5.712e+00,8.011e+00,7.592e+00,8.278e+00,9.537e+00,8.234e+00,7.683e+00,8.944e+00,1.038e+01,8.853e+00,1.067e+01,1.058e+01,1.384e+01,1.091e+01,1.407e+01,1.158e+01,1.299e+01,1.207e+01,1.096e+01,1.345e+01,1.076e+01,1.330e+01,1.379e+01,1.274e+01,1.389e+01,1.464e+01,1.217e+01,1.284e+01,1.644e+01,1.513e+01,1.395e+01,1.544e+01,1.456e+01,1.735e+01,1.538e+01,1.804e+01,1.789e+01,1.571e+01,1.911e+01,1.742e+01,2.024e+01,1.641e+01,1.744e+01,1.710e+01,1.887e+01,2.011e+01,1.787e+01,1.894e+01,1.597e+01,1.888e+01,1.922e+01,1.749e+01,1.735e+01,1.687e+01,1.857e+01,1.674e+01
7.657e-02,4.090e-01,5.957e-01,8.541e-01,9.084e-01,1.443e+00,1.535e+00,1.883e+00,2.303e+00,2.601e+00,2.612e+00,1.764e+00,2.811e+00,3.968e+00,3.264e+00,3.793e+00,2.636e+00,5.119e+00,4.938e+00,4.606e+00,5.580e+00,5.518e+00,5.372e+00,5.094e+00,5.206e+00,6.969e+00,5.595e+00,6.845e+00,5.822e+00,7.773e+00,8.003e+00,9.302e+00,8.588e+00,7.978e+00,9.333e+00,9.307e+00,8.463e+00,9.723e+00,1.098e+01,1.206e+01,9.120e+00,1.304e+01,9.965e+00,1.213e+01,1.245e+01,1.110e+01,1.294e+01,1.192e+01,1.169e+01,1.294e+01,1.099e+01,1.363e+01,1.215e+01,1.222e+01,1.216e+01,1.495e+01,1.471e+01,1.513e+01,1.413e+01,1.393e+01,1.703e+01,1.501e+01,1.564e+01,1.723e+01,1.444e+01,1.827e+01,1.759e+01,1.763e+01,1.646e+01,1.500e+01,1.680e+01,1.802e+01,1.807e+01,1.541e+01,1.786e+01,1.653e+01,1.763e+01,1.800e+01,1.558e+01,1.589e+01,1.582e+01,1.731e+01,1.655e+01
3.435e-02,6.032e-01,1.221e+00,1.240e+00,1.494e+00,1.307e+00,1.716e+00,1.919e+00,3.682e+00,3.519e+00,3.834e+00,3.696e+00,4.667e+00,5.615e+00,4.408e+00,4.827e+00,5.502e+00,8.058e+00,5.595e+00,5.370e+00,7.540e+00,6.956e+00,5.861e+00,7.741e+00,5.725e+00,8.035e+00,8.751e+00,5.667e+00,8.998e+00,8.912e+00,9.228e+00,9.346e+00,8.462e+00,8.299e+00,9.955e+00,1.054e+01,9.210e+00,1.015e+01,1.182e+01,1.353e+01,1.073e+01,1.432e+01,1.164e+01,1.450e+01,1.132e+01,1.200e+01,1.425e+01,1.276e+01,1.307e+01,1.370e+01,1.230e+01,1.435e+01,1.372e+01,1.184e+01,1.266e+01,1.631e+01,1.518e+01,1.483e+01,1.589e+01,1.588e+01,1.785e+01,1.402e+01,1.648e+01,1.558e+01,1.405e+01,1.880e+01,1.932e+01,1.857e+01,1.787e+01,1.707e+01,1.770e+01,1.789e+01,2.170e+01,1.772e+01,1.701e+01,1.699e+01,2.065e+01,1.853e+01,1.718e+01,1.842e+01,1.903e+01,1.960e+01,1.831e+01
5.724e-01,9.785e-01,1.292e+00,1.597e+00,7.277e-01,1.578e+00,1.511e+00,2.554e+00,2.710e+00,2.839e+00,3.458e+00,3.091e+00,4.626e+00,4.732e+00,3.937e+00,4.047e+00,3.967e+00,5.620e+00,4.396e+00,4.849e+00,6.484e+00,4.778e+00,5.327e+00,6.722e+00,6.474e+00,7.757e+00,7.429e+00,6.052e+00,8.835e+00,8.787e+00,8.821e+00,9.398e+00,8.320e+00,7.960e+00,9.129e+00,9.780e+00,8.867e+00,9.451e+00,1.157e+01,1.294e+01,1.103e+01,1.362e+01,1.108e+01,1.311e+01,1.058e+01,1.124e+01,1.452e+01,1.054e+01,1.254e+01,1.292e+01,1.169e+01,1.363e+01,1.287e+01,1.127e+01,1.285e+01,1.588e+01,1.402e+01,1.616e+01,1.680e+01,1.509e+01,1.798e+01,1.523e+01,1.751e+01,1.552e+01,1.591e+01,1.942e+01,1.851e+01,2.197e+01,1.892e+01,1.785e+01,1.827e+01,1.816e+01,2.229e+01,1.807e+01,1.874e+01,1.791e+01,2.020e+01,1.815e+01,1.758e+01,1.869e+01,1.961e+01,1.987e+01,1.941e+01
1.988e-01,4.953e-01,8.226e-01,1.261e+00,6.976e-01,1.014e+00,1.312e+00,2.393e+00,2.296e+00,2.771e+00,2.777e+00,2.147e+00,3.647e+00,4.219e+00,3.588e+00,3.879e+00,3.733e+00,5.038e+00,4.589e+00,3.999e+00,5.126e+00,4.887e+00,4.633e+00,4.878e+00,4.274e+00,5.442e+00,5.635e+00,6.167e+00,6.452e+00,8.191e+00,8.641e+00,8.834e+00,8.554e+00,7.715e+00,9.597e+00,9.831e+00,7.981e+00,1.030e+01,1.024e+01,1.276e+01,9.998e+00,1.200e+01,9.995e+00,1.180e+01,1.216e+01,1.031e+01,1.276e+01,1.239e+01,1.066e+01,1.165e+01,1.213e+01,1.366e+01,1.188e+01,1.135e+01,1.234e+01,1.400e+01,1.295e+01,1.578e+01,1.421e+01,1.400e+01,1.553e+01,1.310e+01,1.729e+01,1.616e+01,1.416e+01,1.625e+01,1.687e+01,1.723e+01,1.706e+01,1.533e+01,1.684e+01,1.748e+01,1.850e+01,1.543e+01,1.800e+01,1.658e+01,1.673e+01,1.746e+01,1.554e+01,1.639e+01,1.580e+01,1.798e+01,1.740e+01
7.307e-01,7.837e-01,6.661e-01,7.255e-01,1.087e+00,1.868e+00,1.379e+00,1.998e+00,3.228e+00,2.780e+00,3.632e+00,2.805e+00,3.772e+00,5.197e+00,3.477e+00,4.660e+00,3.861e+00,5.714e+00,4.843e+00,4.877e+00,6.258e+00,5.920e+00,4.530e+00,6.177e+00,4.666e+00,7.357e+00,6.851e+00,5.227e+00,7.156e+00,7.321e+00,7.967e+00,8.589e+00,7.910e+00,7.201e+00,9.300e+00,1.070e+01,8.911e+00,9.253e+00,1.028e+01,1.226e+01,1.005e+01,1.351e+01,1.100e+01,1.304e+01,1.114e+01,1.038e+01,1.404e+01,1.290e+01,1.203e+01,1.356e+01,1.197e+01,1.469e+01,1.471e+01,1.275e+01,1.301e+01,1.565e+01,1.551e+01,1.509e+01,1.435e+01,1.544e+01,1.689e+01,1.498e+01,1.726e+01,1.791e+01,1.641e+01,1.930e+01,1.761e+01,1.933e+01,1.721e+01,1.770e+01,1.938e+01,1.976e+01,2.141e+01,1.781e+01,1.841e+01,1.919e+01,2.045e+01,2.149e+01,1.713e+01,1.916e+01,1.789e+01,1.964e+01,1.995e+01
5.148e-01,5.055e-01,6.440e-01,4.390e-01,4.277e-01,1.356e+00,1.356e+00,1.755e+00,3.046e+00,2.769e+00,3.784e+00,2.938e+00,4.267e+00,5.569e+00,3.111e+00,5.382e+00,5.224e+00,6.232e+00,5.228e+00,5.493e+00,6.352e+00,5.221e+00,4.652e+00,6.787e+00,5.323e+00,7.162e+00,7.709e+00,5.044e+00,7.904e+00,8.170e+00,9.186e+00,8.934e+00,7.644e+00,7.275e+00,9.169e+00,9.919e+00,8.968e+00,9.949e+00,9.525e+00,1.333e+01,9.122e+00,1.421e+01,1.087e+01,1.338e+01,1.102e+01,1.084e+01,1.179e+01,9.744e+00,1.207e+01,1.302e+01,1.255e+01,1.350e+01,1.238e+01,1.123e+01,1.209e+01,1.553e+01,1.425e+01,1.408e+01,1.335e+01,1.357e+01,1.691e+01,1.342e+01,1.684e+01,1.607e+01,1.501e+01,1.687e+01,1.626e+01,1.849e+01,1.811e+01,1.686e+01,1.719e+01,1.763e+01,2.125e+01,1.754e+01,1.793e+01,1.611e+01,1.826e+01,1.943e+01,1.697e+01,1.676e+01,1.634e+01,1.934e+01,1.805e+01
2.098e-01,2.946e-01,4.895e-01,7.185e-01,4.200e-01,7.891e-01,5.741e-01,9.337e-01,1.633e+00,1.651e+00,1.942e+00,2.185e+00,2.557e+00,3.036e+00,2.606e+00,3.767e+00,3.837e+00,4.551e+00,3.748e+00,3.924e+00,4.410e+00,4.899e+00,4.323e+00,5.527e+00,4.899e+00,5.614e+00,6.366e+00,4.962e+00,5.973e+00,8.221e+00,8.159e+00,9.264e+00,7.828e+00,7.367e+00,8.387e+00,7.942e+00,7.461e+00,8.029e+00,9.861e+00,1.199e+01,9.091e+00,1.053e+01,8.921e+00,1.044e+01,1.056e+01,1.030e+01,1.152e+01,9.583e+00,1.060e+01,9.789e+00,1.030e+01,1.315e+01,1.195e+01,1.017e+01,1.077e+01,1.236e+01,1.224e+01,1.211e+01,1.313e+01,1.345e+01,1.568e+01,1.269e+01,1.527e+01,1.343e+01,1.308e+01,1.595e+01,1.456e+01,1.647e+01,1.483e+01,1.485e+01,1.417e+01,1.545e+01,1.918e+01,1.539e+01,1.611e+01,1.591e+01,1.765e+01,1.528e+01,1.512e+01,1.608e+01,1.648e+01,1.662e+01,1.634e+01
4.698e-01,1.006e+00,1.358e+00,1.294e+00,9.099e-01,1.249e+00,1.734e+00,2.346e+00,3.066e+00,3.205e+00,3.411e+00,3.034e+00,4.465e+00,4.753e+00,4.222e+00,4.102e+00,3.525e+00,4.787e+00,4.737e+00,5.054e+00,6.474e+00,5.528e+00,5.517e+00,6.168e+00,5.460e+00,6.905e+00,6.685e+00,6.786e+00,7.843e+00,7.905e+00,8.038e+00,8.408e+00,8.615e+00,6.703e+00,8.920e+00,9.191e+00,8.896e+00,9.627e+00,1.212e+01,1.272e+01,1.110e+01,1.365e+01,1.023e+01,1.262e+01,1.072e+01,1.215e+01,1.464e+01,1.263e+01,1.336e+01,1.330e+01,1.200e+01,1.318e+01,1.284e+01,1.281e+01,1.328e+01,1.682e+01,1.529e+01,1.611e+01,1.557e+01,1.553e+01,1.749e+01,1.601e+01,1.816e+01,1.748e+01,1.777e+01,1.864e+01,1.711e+01,2.052e+01,1.855e+01,1.643e+01,1.959e+01,1.941e+01,2.425e+01,1.923e+01,1.992e+01,2.089e+01,2.119e+01,2.218e+01,1.748e+01,1.965e+01,1.993e+01,2.178e+01,2.162e+01
3.858e-01,4.435e-01,5.546e-01,8.079e-01,7.559e-01,1.205e+00,1.121e+00,1.545e+00,2.526e+00,2.765e+00,3.357e+00,3.075e+00,3.998e+00,5.139e+00,3.167e+00,4.204e+00,4.875e+00,5.223e+00,4.059e+00,5.125e+00,6.580e+00,4.935e+00,4.535e+00,6.284e+00,5.703e+00,7.682e+00,7.335e+00,6.124e+00,8.083e+00,8.254e+00,9.449e+00,9.623e+00,9.639e+00,7.931e+00,9.983e+00,1.105e+01,9.311e+00,1.249e+01,1.190e+01,1.450e+01,1.143e+01,1.548e+01,1.186e+01,1.451e+01,1.271e+01,1.253e+01,1.516e+01,1.292e+01,1.333e+01,1.423e+01,1.405e+01,1.486e+01,1.440e+01,1.321e+01,1.349e+01,1.695e+01,1.605e+01,1.610e+01,1.704e+01,1.594e+01,1.845e+01,1.531e+01,1.983e+01,1.870e+01,1.762e+01,1.965e+01,1.876e+01,2.187e+01,1.987e+01,1.821e+01,1.905e+01,2.060e+01,2.501e+01,2.092e+01,2.076e+01,2.076e+01,2.284e+01,2.199e+01,1.920e+01,2.040e+01,2.043e+01,2.300e+01,2.292e+01
7.521e-01,7.829e-01,8.095e-01,1.050e+00,6.857e-01,1.276e+00,7.515e-01,1.795e+00,2.424e+00,2.015e+00,2.916e+00,2.849e+00,3.576e+00,3.668e+00,3.468e+00,4.118e+00,3.825e+00,4.704e+00,4.199e+00,4.012e+00,4.825e+00,4.209e+00,3.781e+00,5.253e+00,4.686e+00,5.327e+00,6.245e+00,3.869e+00,6.651e+00,6.740e+00,7.271e+00,8.281e+00,6.666e+00,6.069e+00,7.347e+00,7.590e+00,6.777e+00,8.256e+00,1.020e+01,1.000e+01,8.490e+00,1.164e+01,9.160e+00,1.188e+01,1.091e+01,9.514e+00,1.123e+01,1.003e+01,9.138e+00,1.113e+01,1.096e+01,1.206e+01,1.100e+01,8.820e+00,1.154e+01,1.470e+01,1.291e+01,1.427e+01,1.309e+01,1.305e+01,1.479e+01,1.285e+01,1.611e+01,1.331e+01,1.300e+01,1.699e+01,1.628e+01,1.565e+01,1.530e+01,1.501e+01,1.668e+01,1.647e+01,1.843e+01,1.650e+01,1.699e+01,1.760e+01,1.941e+01,1.874e+01,1.628e+01,1.649e+01,1.744e+01,1.785e+01,1.828e+01
7.947e-01,8.201e-01,6.800e-01,7.214e-01,6.190e-01,1.684e+00,1.053e+00,1.219e+00,2.383e+00,1.692e+00,2.809e+00,2.005e+00,3.563e+00,4.509e+00,3.338e+00,5.218e+00,3.912e+00,4.920e+00,4.185e+00,3.758e+00,4.766e+00,4.620e+00,4.086e+00,5.269e+00,3.924e+00,6.634e+00,6.091e+00,4.845e+00,5.686e+00,6.469e+00,7.182e+00,9.377e+00,7.723e+00,6.999e+00,8.771e+00,8.972e+00,8.455e+00,8.345e+00,1.012e+01,1.138e+01,9.440e+00,1.233e+01,9.983e+00,1.151e+01,1.095e+01,1.015e+01,1.196e+01,1.004e+01,9.667e+00,1.067e+01,9.812e+00,1.150e+01,1.158e+01,1.029e+01,1.148e+01,1.445e+01,1.341e+01,1.247e+01,1.273e+01,1.303e+01,1.331e+01,1.284e+01,1.573e+01,1.442e+01,1.292e+01,1.578e+01,1.595e+01,1.748e+01,1.539e+01,1.530e+01,1.610e+01,1.521e+01,1.755e+01,1.517e+01,1.543e+01,1.601e+01,1.654e+01,1.810e+01,1.707e+01,1.522e+01,1.493e+01,1.832e+01,1.789e+01
9.185e-01,1.359e+00,1.559e+00,1.534e+00,6.895e-01,1.859e+00,2.056e+00,2.679e+00,3.172e+00,3.041e+00,3.920e+00,2.761e+00,5.085e+00,5.834e+00,4.390e+00,5.306e+00,3.593e+00,5.753e+00,5.275e+00,5.529e+00,7.279e+00,5.443e+00,5.670e+00,6.069e+00,5.421e+00,7.851e+00,7.154e+00,7.187e+00,8.984e+00,8.252e+00,9.145e+00,1.068e+01,9.574e+00,8.059e+00,1.026e+01,1.102e+01,9.634e+00,1.080e+01,1.303e+01,1.359e+01,1.228e+01,1.459e+01,1.123e+01,1.262e+01,1.174e+01,1.224e+01,1.487e+01,1.341e+01,1.302e+01,1.392e+01,1.345e+01,1.498e+01,1.449e+01,1.163e+01,1.467e+01,1.734e+01,1.576e+01,1.634e+01,1.392e+01,1.477e+01,1.865e+01,1.639e+01,1.748e+01,1.869e+01,1.585e+01,1.958e+01,1.805e+01,2.002e+01,1.757e+01,1.597e+01,1.957e+01,1.833e+01,2.201e+01,1.791e+01,1.848e+01,1.885e+01,2.182e+01,2.142e+01,1.973e+01,1.955e+01,1.932e+01,2.193e+01,2.046e+01
7.135e-01,7.559e-01,5.706e-01,8.644e-01,7.456e-01,1.207e+00,8.959e-01,1.817e+00,2.239e+00,2.034e+00,2.877e+00,2.402e+00,3.474e+00,4.746e+00,3.358e+00,3.786e+00,3.809e+00,4.421e+00,3.492e+00,3.672e+00,5.086e+00,4.734e+00,3.581e+00,4.757e+00,4.412e+00,6.402e+00,5.776e+00,5.111e+00,6.667e+00,5.805e+00,6.638e+00,8.739e+00,7.082e+00,6.267e+00,7.203e+00,8.454e+00,6.610e+00,8.812e+00,9.043e+00,1.058e+01,9.214e+00,1.148e+01,9.181e+00,1.029e+01,1.032e+01,9.980e+00,1.134e+01,9.345e+00,1.026e+01,1.051e+01,9.603e+00,1.106e+01,1.112e+01,8.148e+00,1.116e+01,1.448e+01,1.220e+01,1.245e+01,1.222e+01,1.270e+01,1.437e+01,1.427e+01,1.533e+01,1.675e+01,1.278e+01,1.621e+01,1.510e+01,1.682e+01,1.577e+01,1.444e+01,1.717e+01,1.722e+01,1.922e+01,1.799e+01,1.647e+01,1.672e+01,2.114e+01,2.067e+01,1.990e+01,1.717e+01,1.954e+01,1.794e+01,2.044e+01
6.003e-01,6.781e-01,7.133e-01,1.122e+00,1.459e+00,1.670e+00,9.253e-01,1.896e+00,2.916e+00,2.723e+00,3.294e+00,3.462e+00,3.851e+00,4.460e+00,4.476e+00,4.125e+00,3.880e+00,5.332e+00,4.377e+00,5.169e+00,6.528e+00,5.686e+00,5.156e+00,5.836e+00,5.687e+00,7.306e+00,6.219e+00,6.035e+00,7.520e+00,7.584e+00,7.902e+00,9.217e+00,7.715e+00,6.922e+00,8.419e+00,9.534e+00,8.022e+00,1.010e+01,1.122e+01,1.166e+01,9.571e+00,1.379e+01,1.114e+01,1.289e+01,1.139e+01,1.130e+01,1.413e+01,1.206e+01,1.172e+01,1.332e+01,1.156e+01,1.368e+01,1.359e+01,1.082e+01,1.231e+01,1.477e+01,1.472e+01,1.421e+01,1.470e+01,1.357e+01,1.704e+01,1.430e+01,1.561e+01,1.599e+01,1.362e+01,1.850e+01,1.761e+01,1.788e+01,1.638e+01,1.589e+01,1.833e+01,1.830e+01,2.068e+01,1.834e+01,1.855e+01,1.999e+01,2.011e+01,2.004e+01,1.804e+01,1.818e+01,1.930e+01,2.052e+01,2.240e+01
6.613e-01,5.998e-01,5.601e-01,8.514e-01,4.778e-01,1.390e+00,9.490e-01,1.899e+00,2.156e+00,2.037e+00,2.925e+00,2.271e+00,3.329e+00,4.081e+00,3.381e+00,4.589e+00,3.692e+00,5.234e+00,5.088e+00,5.049e+00,5.436e+00,4.254e+00,4.209e+00,5.041e+00,5.214e+00,7.084e+00,6.323e+00,5.402e+00,6.753e+00,8.220e+00,8.461e+00,9.563e+00,9.335e+00,7.331e+00,9.323e+00,8.751e+00,8.040e+00,8.675e+00,1.083e+01,1.060e+01,9.096e+00,1.163e+01,9.203e+00,1.197e+01,1.249e+01,1.163e+01,1.316e+01,1.237e+01,1.069e+01,1.264e+01,1.093e+01,1.370e+01,1.270e+01,1.095e+01,1.153e+01,1.455e+01,1.366e+01,1.463e+01,1.391e+01,1.419e+01,1.582e+01,1.419e+01,1.639e+01,1.655e+01,1.488e+01,1.714e+01,1.690e+01,1.940e+01,1.609e+01,1.650e+01,1.838e+01,1.785e+01,2.084e+01,1.849e+01,1.989e+01,1.968e+01,1.981e+01,1.958e+01,1.870e+01,1.977e+01,1.980e+01,2.034e+01,2.103e+01
1.135e-01,5.315e-01,1.026e+00,1.303e+00,1.276e+00,1.565e+00,1.583e+00,1.633e+00,3.115e+00,3.275e+00,3.626e+00,3.275e+00,4.344e+00,4.725e+00,3.944e+00,4.541e+00,4.705e+00,5.887e+00,5.052e+00,5.492e+00,7.239e+00,6.054e+00,6.117e+00,5.655e+00,5.233e+00,7.714e+00,7.419e+00,6.432e+00,8.002e+00,8.412e+00,8.547e+00,1.017e+01,9.350e+00,7.900e+00,9.814e+00,1.077e+01,8.213e+00,1.126e+01,1.246e+01,1.347e+01,1.155e+01,1.457e+01,1.136e+01,1.425e+01,1.316e+01,1.394e+01,1.631e+01,1.390e+01,1.401e+01,1.455e+01,1.272e+01,1.516e+01,1.342e+01,1.262e+01,1.436e+01,1.789e+01,1.693e+01,1.589e+01,1.560e+01,1.613e+01,1.818e+01,1.670e+01,1.860e+01,1.858e+01,1.629e+01,1.878e+01,1.879e+01,2.062e+01,1.965e+01,1.757e+01,1.970e+01,2.034e+01,2.342e+01,2.026e+01,1.961e+01,2.013e+01,2.130e+01,2.286e+01,2.076e+01,2.118e+01,2.100e+01,2.298e+01,2.343e+01
7.044e-01,9.067e-01,9.705e-01,9.534e-01,8.207e-01,1.478e+00,1.261e+00,2.228e+00,2.745e+00,2.387e+00,2.907e+00,2.246e+00,3.966e+00,4.112e+00,4.004e+00,4.456e+00,3.242e+00,4.770e+00,4.517e+00,3.887e+00,4.880e+00,4.885e+00,4.534e+00,5.474e+00,4.377e+00,5.380e+00,5.717e+00,5.827e+00,7.057e+00,7.354e+00,7.926e+00,8.324e+00,8.557e+00,6.766e+00,9.003e+00,9.186e+00,8.293e+00,1.010e+01,1.126e+01,1.200e+01,1.112e+01,1.404e+01,1.030e+01,1.277e+01,1.180e+01,1.156e+01,1.313e+01,1.339e+01,1.127e+01,1.256e+01,1.239e+01,1.316e+01,1.276e+01,1.216e+01,1.285e+01,1.544e+01,1.376e+01,1.560e+01,1.602e+01,1.527e+01,1.679e+01,1.458e+01,1.765e+01,1.541e+01,1.503e+01,1.841e+01,1.660e+01,1.808e+01,1.667e+01,1.709e+01,1.990e+01,1.854e+01,2.149e+01,1.763e+01,1.885e+01,2.013e+01,2.011e+01,2.107e+01,1.950e+01,1.955e+01,1.904e+01,2.151e+01,2.084e+01
6.042e-01,8.518e-01,1.041e+00,9.687e-01,8.496e-01,1.775e+00,1.459e+00,1.952e+00,2.763e+00,2.986e+00,3.305e+00,3.250e+00,4.131e+00,4.943e+00,4.180e+00,4.859e+00,4.030e+00,5.589e+00,5.027e+00,4.941e+00,6.421e+00,5.475e+00,5.868e+00,6.323e+00,5.503e+00,6.747e+00,7.068e+00,5.284e+00,7.760e+00,8.006e+00,8.808e+00,8.862e+00,7.610e+00,6.667e+00,9.718e+00,9.075e+00,9.078e+00,9.479e+00,1.145e+01,1.214e+01,9.558e+00,1.300e+01,1.051e+01,1.139e+01,1.071e+01,1.084e+01,1.270e+01,1.095e+01,1.146e+01,1.287e+01,1.057e+01,1.336e+01,1.230e+01,9.455e+00,1.228e+01,1.513e+01,1.341e+01,1.316e+01,1.283e+01,1.235e+01,1.593e+01,1.429e+01,1.501e+01,1.424e+01,1.242e+01,1.712e+01,1.547e+01,1.650e+01,1.500e+01,1.388e+01,1.587e+01,1.598e+01,1.909e+01,1.627e+01,1.539e+01,1.516e+01,1.962e+01,1.756e+01,1.787e+01,1.684e+01,1.643e+01,1.978e+01,2.007e+01
