1.855e-01,5.612e-01,9.691e-02,4.003e-01,3.005e-01,1.398e-02,9.085e-01,8.589e-01,7.347e-01,2.227e-01,6.631e-01,6.011e-01,9.708e-01,7.746e-01,8.951e-01,4.303e-01,3.477e-01,3.866e-01,7.568e-01,5.892e-01,6.186e-01,5.468e-01,8.433e-01,3.299e-01,9.535e-01,8.846e-01,7.176e-01,3.052e-01,3.574e-01,6.424e-01,8.839e-01,5.885e-01,2.216e-01,9.711e-01,6.400e-01,9.485e-01,8.824e-01,5.508e-01,9.190e-01,4.568e-01,3.250e-01,3.086e-01,6.508e-01,7.448e-01,6.938e-01,3.732e-02,8.237e-01,3.217e-01,3.091e-01,6.153e-01,7.266e-01,9.990e-01,6.815e-01,9.610e-01,4.795e-01,1.732e-01,4.290e-01,3.810e-03,2.756e-01,9.571e-01,9.936e-01,6.719e-01,4.314e-01,5.470e-01,3.333e-02,4.598e-01,5.629e-01,4.854e-01
8.335e-02,1.144e+00,1.613e-01,1.827e-01,3.161e-01,5.897e-01,4.902e-01,1.293e+00,9.611e-01,4.387e-01,4.482e-01,8.123e-01,8.722e-01,6.771e-01,9.513e-01,3.502e-01,6.226e-01,3.826e-01,7.731e-01,4.366e-01,8.897e-01,9.251e-01,4.195e-01,1.018e+00,7.750e-01,7.989e-01,4.469e-01,3.933e-01,2.793e-01,1.120e+00,9.094e-01,9.686e-01,8.817e-01,1.014e+00,1.024e+00,1.037e+00,4.291e-01,1.067e+00,6.913e-01,6.611e-01,1.082e+00,5.089e-01,6.047e-01,7.970e-01,6.385e-01,3.668e-01,8.983e-01,5.140e-01,8.501e-01,1.073e+00,4.973e-01,1.173e+00,5.642e-01,7.691e-01,5.645e-01,4.502e-01,3.450e-01,9.284e-02,2.774e-01,1.375e+00,4.911e-01,3.342e-01,7.027e-01,7.558e-01,4.434e-01,3.608e-01,9.117e-01,4.703e-01
8.798e-02,6.650e-01,7.830e-01,1.176e+00,6.586e-01,4.179e-01,8.632e-01,1.070e+00,1.603e+00,1.204e+00,8.878e-01,7.581e-01,1.457e+00,1.185e+00,1.058e+00,1.221e+00,1.262e+00,3.276e-01,1.147e+00,4.488e-01,1.198e+00,9.613e-01,6.895e-01,1.221e+00,1.243e+00,1.369e+00,1.283e+00,5.291e-01,1.146e+00,6.783e-01,1.281e+00,1.325e+00,9.474e-01,9.939e-01,1.247e+00,1.390e+00,5.652e-01,7.646e-01,9.355e-01,9.511e-01,1.198e+00,7.599e-01,5.391e-01,9.930e-01,1.295e+00,3.141e-01,8.831e-01,4.852e-01,1.083e+00,1.328e+00,1.077e+00,1.511e+00,9.278e-01,1.143e+00,1.301e+00,1.031e+00,7.070e-01,2.280e-01,5.516e-01,1.305e+00,1.113e+00,7.024e-01,1.370e+00,1.152e+00,6.035e-01,4.005e-01,9.931e-01,1.093e+00
2.883e-03,7.763e-02,5.973e-01,1.413e+00,1.160e+00,8.912e-01,1.121e+00,3.275e-01,1.005e+00,9.547e-01,1.225e+00,9.224e-01,1.304e+00,1.253e+00,8.643e-01,1.729e+00,1.291e+00,3.617e-01,8.877e-01,1.055e+00,8.108e-01,8.057e-01,9.892e-01,6.598e-01,6.260e-01,8.509e-01,1.088e+00,1.112e+00,1.500e+00,2.596e-01,9.329e-01,1.542e+00,6.894e-01,8.863e-01,7.521e-01,6.582e-01,2.052e-01,3.884e-01,1.045e+00,8.923e-01,1.240e+00,8.220e-01,4.710e-01,5.712e-01,1.190e+00,1.010e+00,5.916e-01,1.097e+00,1.581e+00,1.567e+00,5.868e-01,9.762e-01,9.262e-01,7.367e-01,1.816e+00,1.137e+00,9.840e-01,9.602e-01,1.273e+00,1.428e+00,7.707e-01,1.259e+00,1.241e+00,1.412e+00,5.664e-01,5.176e-01,1.392e+00,1.655e+00
1.411e-01,5.273e-01,7.041e-01,1.454e+00,1.466e+00,1.103e+00,2.212e+00,1.489e+00,2.402e+00,1.335e+00,1.859e+00,1.421e+00,1.780e+00,1.601e+00,1.939e+00,1.985e+00,1.654e+00,1.195e+00,1.878e+00,1.909e+00,1.277e+00,1.153e+00,1.908e+00,1.634e+00,1.835e+00,1.583e+00,1.892e+00,1.456e+00,1.656e+00,1.639e+00,2.133e+00,2.398e+00,1.263e+00,2.101e+00,1.938e+00,1.906e+00,1.571e+00,8.434e-01,1.435e+00,1.148e+00,1.230e+00,1.618e+00,1.034e+00,1.498e+00,2.182e+00,1.440e+00,1.983e+00,1.515e+00,1.735e+00,1.911e+00,1.595e+00,2.616e+00,1.999e+00,1.825e+00,2.509e+00,1.310e+00,1.502e+00,1.052e+00,1.136e+00,2.083e+00,1.802e+00,1.338e+00,2.174e+00,2.305e+00,1.237e+00,1.402e+00,1.660e+00,1.983e+00
1.503e-01,1.222e+00,3.147e-01,8.134e-01,9.045e-01,1.594e+00,1.372e+00,1.833e+00,2.410e+00,1.616e+00,1.726e+00,1.814e+00,1.728e+00,1.937e+00,1.715e+00,2.066e+00,2.088e+00,1.577e+00,2.164e+00,1.500e+00,1.634e+00,1.671e+00,1.770e+00,1.944e+00,1.541e+00,1.580e+00,1.961e+00,1.213e+00,1.349e+00,1.825e+00,1.513e+00,1.823e+00,1.401e+00,1.838e+00,1.426e+00,2.091e+00,1.087e+00,1.809e+00,1.798e+00,1.594e+00,2.087e+00,1.038e+00,1.690e+00,1.909e+00,2.141e+00,1.663e+00,1.882e+00,1.644e+00,2.374e+00,2.354e+00,1.017e+00,1.990e+00,1.518e+00,1.776e+00,2.372e+00,1.018e+00,1.612e+00,6.326e-01,1.338e+00,2.882e+00,1.181e+00,2.114e+00,1.610e+00,2.050e+00,1.181e+00,1.211e+00,2.526e+00,1.411e+00
8.348e-02,1.107e+00,3.461e-01,7.934e-01,1.035e+00,1.693e+00,1.524e+00,1.960e+00,2.918e+00,1.673e+00,2.302e+00,1.874e+00,2.287e+00,2.105e+00,1.819e+00,2.152e+00,2.200e+00,2.151e+00,2.431e+00,2.423e+00,1.619e+00,2.373e+00,1.704e+00,2.280e+00,1.515e+00,1.381e+00,2.352e+00,1.911e+00,1.696e+00,2.452e+00,2.454e+00,2.226e+00,2.273e+00,2.204e+00,1.872e+00,1.880e+00,1.146e+00,1.754e+00,1.554e+00,1.880e+00,2.999e+00,1.301e+00,1.530e+00,2.428e+00,2.139e+00,1.855e+00,2.374e+00,2.352e+00,2.391e+00,2.871e+00,1.658e+00,2.605e+00,2.136e+00,2.474e+00,3.113e+00,1.495e+00,1.983e+00,1.070e+00,2.261e+00,3.016e+00,1.699e+00,2.326e+00,2.321e+00,2.232e+00,2.086e+00,1.386e+00,2.953e+00,1.975e+00
1.338e-01,8.829e-01,6.216e-01,1.543e+00,1.479e+00,1.520e+00,1.937e+00,1.894e+00,2.575e+00,2.358e+00,2.151e+00,2.809e+00,2.527e+00,2.256e+00,2.026e+00,2.658e+00,2.115e+00,2.007e+00,2.648e+00,2.003e+00,2.216e+00,2.649e+00,2.547e+00,1.770e+00,2.172e+00,2.157e+00,2.749e+00,1.996e+00,2.499e+00,2.260e+00,1.979e+00,3.202e+00,1.652e+00,2.489e+00,2.185e+00,1.929e+00,1.735e+00,1.475e+00,2.129e+00,2.444e+00,3.017e+00,1.547e+00,2.058e+00,2.267e+00,2.310e+00,2.461e+00,2.247e+00,2.459e+00,3.242e+00,2.777e+00,1.976e+00,2.329e+00,2.557e+00,2.337e+00,3.523e+00,2.299e+00,1.944e+00,1.538e+00,2.672e+00,3.680e+00,1.620e+00,2.513e+00,2.580e+00,3.226e+00,1.863e+00,1.492e+00,3.362e+00,2.685e+00
9.961e-03,1.316e-01,1.579e-01,7.073e-01,9.408e-01,1.428e+00,1.113e+00,7.737e-01,1.994e+00,2.454e+00,1.979e+00,1.874e+00,1.793e+00,2.265e+00,1.628e+00,2.597e+00,1.643e+00,1.829e+00,2.309e+00,1.933e+00,1.980e+00,1.941e+00,2.426e+00,1.639e+00,1.540e+00,1.496e+00,2.566e+00,2.308e+00,1.931e+00,1.652e+00,8.730e-01,2.629e+00,1.723e+00,1.359e+00,1.154e+00,1.748e+00,1.212e+00,8.400e-01,2.085e+00,1.869e+00,2.277e+00,1.134e+00,1.914e+00,1.368e+00,2.332e+00,2.579e+00,2.206e+00,2.115e+00,2.392e+00,1.907e+00,1.390e+00,1.691e+00,2.149e+00,1.834e+00,2.980e+00,1.451e+00,1.597e+00,1.585e+00,2.367e+00,3.051e+00,1.151e+00,2.582e+00,1.593e+00,2.612e+00,1.920e+00,1.276e+00,3.023e+00,1.693e+00
1.465e-01,1.198e+00,7.661e-01,1.701e+00,1.517e+00,1.502e+00,1.949e+00,1.880e+00,2.566e+00,2.170e+00,2.916e+00,2.092e+00,2.780e+00,3.386e+00,3.038e+00,3.170e+00,3.008e+00,2.075e+00,2.361e+00,2.031e+00,2.982e+00,2.400e+00,2.613e+00,2.914e+00,2.617e+00,2.296e+00,3.013e+00,2.747e+00,2.767e+00,1.936e+00,3.180e+00,3.358e+00,2.144e+00,2.846e+00,2.932e+00,2.435e+00,1.468e+00,2.156e+00,3.128e+00,2.397e+00,2.817e+00,1.475e+00,2.437e+00,2.696e+00,3.081e+00,2.518e+00,2.747e+00,2.177e+00,3.395e+00,3.013e+00,2.362e+00,3.572e+00,2.241e+00,2.409e+00,3.900e+00,2.157e+00,1.955e+00,1.560e+00,2.808e+00,3.696e+00,2.584e+00,2.350e+00,3.109e+00,2.680e+00,2.209e+00,2.098e+00,3.049e+00,2.953e+00
1.234e-01,5.398e-01,1.139e-01,3.836e-01,6.295e-01,6.025e-01,1.365e+00,1.298e+00,1.928e+00,1.287e+00,2.459e+00,1.419e+00,2.262e+00,3.084e+00,2.918e+00,2.590e+00,1.751e+00,2.334e+00,2.466e+00,2.673e+00,2.416e+00,1.969e+00,2.427e+00,2.420e+00,2.188e+00,2.311e+00,3.245e+00,3.205e+00,2.458e+00,2.430e+00,2.981e+00,2.331e+00,2.776e+00,2.171e+00,3.136e+00,2.661e+00,2.142e+00,1.367e+00,2.145e+00,2.272e+00,1.750e+00,1.823e+00,2.428e+00,2.786e+00,2.500e+00,2.428e+00,2.859e+00,2.211e+00,1.657e+00,2.513e+00,2.984e+00,3.112e+00,2.804e+00,2.840e+00,3.254e+00,2.108e+00,1.486e+00,2.022e+00,2.770e+00,2.548e+00,3.195e+00,1.589e+00,2.505e+00,2.393e+00,2.633e+00,1.950e+00,1.984e+00,2.675e+00
5.882e-02,3.456e-01,2.626e-01,6.154e-01,9.785e-01,1.124e+00,1.623e+00,1.344e+00,2.352e+00,1.534e+00,2.642e+00,1.961e+00,2.628e+00,3.664e+00,3.452e+00,3.770e+00,3.234e+00,2.822e+00,2.636e+00,3.355e+00,2.714e+00,2.139e+00,2.904e+00,2.775e+00,2.776e+00,2.408e+00,4.106e+00,3.385e+00,2.781e+00,3.228e+00,3.183e+00,3.544e+00,2.903e+00,2.885e+00,3.654e+00,3.117e+00,2.361e+00,1.457e+00,2.154e+00,2.350e+00,2.280e+00,2.794e+00,2.658e+00,3.047e+00,3.561e+00,3.149e+00,3.819e+00,3.380e+00,2.975e+00,3.132e+00,3.196e+00,3.269e+00,3.218e+00,3.315e+00,4.724e+00,3.155e+00,2.240e+00,2.258e+00,3.044e+00,2.844e+00,3.856e+00,2.241e+00,3.231e+00,3.177e+00,3.711e+00,2.521e+00,2.278e+00,3.405e+00
3.832e-02,5.526e-01,3.139e-01,8.029e-01,1.058e+00,1.167e+00,1.440e+00,1.270e+00,2.092e+00,1.524e+00,2.232e+00,1.791e+00,3.505e+00,2.983e+00,2.723e+00,2.869e+00,2.329e+00,2.300e+00,2.340e+00,3.505e+00,2.285e+00,2.762e+00,2.607e+00,2.778e+00,2.941e+00,2.349e+00,3.287e+00,2.922e+00,2.361e+00,3.311e+00,3.083e+00,3.156e+00,2.998e+00,2.559e+00,3.197e+00,2.420e+00,1.651e+00,1.940e+00,2.753e+00,2.009e+00,2.957e+00,2.585e+00,2.129e+00,2.238e+00,2.591e+00,2.345e+00,3.537e+00,3.663e+00,2.481e+00,3.265e+00,3.143e+00,3.540e+00,3.256e+00,2.990e+00,4.388e+00,3.144e+00,2.564e+00,2.422e+00,2.932e+00,3.062e+00,2.841e+00,2.970e+00,2.777e+00,3.156e+00,3.400e+00,2.240e+00,2.546e+00,3.145e+00
1.211e-01,1.089e+00,4.052e-01,8.122e-01,9.196e-01,1.326e+00,1.491e+00,2.032e+00,3.038e+00,2.621e+00,2.714e+00,2.579e+00,3.959e+00,4.767e+00,3.668e+00,4.796e+00,3.636e+00,3.494e+00,4.546e+00,4.274e+00,3.840e+00,3.768e+00,3.421e+00,3.397e+00,4.305e+00,3.832e+00,5.281e+00,4.369e+00,3.718e+00,4.014e+00,3.537e+00,4.583e+00,4.575e+00,3.562e+00,4.530e+00,4.197e+00,2.735e+00,2.807e+00,3.914e+00,3.978e+00,3.878e+00,3.614e+00,3.889e+00,4.187e+00,4.465e+00,3.482e+00,5.078e+00,4.427e+00,3.520e+00,4.343e+00,3.981e+00,3.853e+00,4.313e+00,4.389e+00,5.120e+00,3.921e+00,2.954e+00,2.777e+00,3.953e+00,5.065e+00,3.704e+00,3.559e+00,4.065e+00,4.117e+00,4.714e+00,3.101e+00,3.893e+00,4.264e+00
7.459e-02,5.978e-01,6.889e-01,1.030e+00,8.294e-01,6.845e-01,1.268e+00,1.465e+00,2.607e+00,2.510e+00,2.208e+00,1.819e+00,3.864e+00,3.986e+00,3.857e+00,3.908e+00,2.966e+00,3.147e+00,4.385e+00,3.907e+00,3.970e+00,3.611e+00,3.642e+00,3.821e+00,4.684e+00,3.824e+00,5.366e+00,4.163e+00,4.169e+00,4.344e+00,3.724e+00,4.409e+00,4.358e+00,3.313e+00,4.212e+00,4.006e+00,3.043e+00,3.105e+00,3.534e+00,3.742e+00,3.945e+00,3.608e+00,3.209e+00,3.536e+00,4.231e+00,2.854e+00,4.570e+00,4.336e+00,3.557e+00,3.655e+00,4.327e+00,3.957e+00,4.336e+00,3.958e+00,5.414e+00,4.028e+00,2.757e+00,3.345e+00,3.606e+00,4.005e+00,4.110e+00,2.907e+00,4.096e+00,4.401e+00,4.555e+00,2.679e+00,3.104e+00,3.853e+00
2.876e-03,6.148e-01,1.253e-01,2.104e-01,6.339e-01,1.554e+00,9.814e-01,1.713e+00,2.970e+00,2.848e+00,2.487e+00,2.485e+00,3.102e+00,3.229e+00,2.893e+00,3.633e+00,2.740e+00,4.294e+00,4.654e+00,3.589e+00,4.009e+00,4.307e+00,3.775e+00,4.338e+00,3.463e+00,3.461e+00,5.038e+00,4.399e+00,3.084e+00,4.388e+00,3.361e+00,3.589e+00,4.518e+00,3.649e+00,3.574e+00,3.115e+00,2.779e+00,3.142e+00,3.141e+00,3.714e+00,4.867e+00,3.158e+00,3.409e+00,4.233e+00,4.239e+00,3.780e+00,5.057e+00,4.150e+00,4.007e+00,3.698e+00,4.510e+00,4.273e+00,4.411e+00,4.319e+00,5.930e+00,4.069e+00,3.385e+00,2.884e+00,4.209e+00,4.770e+00,2.712e+00,3.423e+00,4.091e+00,4.028e+00,5.268e+00,3.617e+00,4.273e+00,3.333e+00
1.227e-02,7.874e-01,4.221e-01,6.321e-01,1.022e+00,1.654e+00,1.334e+00,1.683e+00,2.817e+00,2.493e+00,2.214e+00,2.119e+00,2.987e+00,3.474e+00,3.268e+00,3.724e+00,3.158e+00,3.371e+00,4.056e+00,3.498e+00,4.027e+00,2.799e+00,3.443e+00,4.399e+00,4.247e+00,3.698e+00,4.357e+00,3.746e+00,2.789e+00,4.317e+00,3.721e+00,4.069e+00,4.039e+00,3.315e+00,3.996e+00,3.685e+00,2.158e+00,2.848e+00,3.745e+00,2.923e+00,3.197e+00,3.602e+00,2.963e+00,2.973e+00,4.689e+00,3.876e+00,5.292e+00,4.577e+00,4.057e+00,3.631e+00,3.430e+00,3.985e+00,4.122e+00,3.369e+00,5.206e+00,4.216e+00,3.082e+00,3.095e+00,2.966e+00,3.824e+00,3.538e+00,3.128e+00,4.175e+00,3.853e+00,4.459e+00,2.987e+00,3.959e+00,3.975e+00
1.160e-01,1.194e+00,2.290e-01,4.614e-01,6.960e-01,1.098e+00,1.166e+00,1.969e+00,2.237e+00,1.700e+00,1.641e+00,2.340e+00,3.105e+00,3.139e+00,2.972e+00,3.256e+00,2.809e+00,4.146e+00,5.384e+00,4.530e+00,4.517e+00,3.529e+00,3.858e+00,3.785e+00,4.960e+00,3.966e+00,5.247e+00,3.844e+00,3.067e+00,5.015e+00,4.233e+00,4.073e+00,4.114e+00,4.400e+00,4.537e+00,3.771e+00,3.256e+00,4.130e+00,3.797e+00,3.790e+00,4.068e+00,3.595e+00,3.323e+00,3.963e+00,4.961e+00,3.299e+00,5.237e+00,5.152e+00,4.178e+00,4.572e+00,3.755e+00,3.577e+00,4.961e+00,4.119e+00,5.560e+00,4.836e+00,3.055e+00,3.492e+00,3.645e+00,4.292e+00,4.126e+00,3.412e+00,4.743e+00,3.707e+00,4.961e+00,3.175e+00,4.808e+00,4.837e+00
1.663e-01,9.334e-01,7.498e-01,1.659e+00,1.729e+00,1.832e+00,2.560e+00,2.242e+00,3.615e+00,2.957e+00,3.637e+00,3.111e+00,3.892e+00,5.571e+00,4.723e+00,6.276e+00,4.916e+00,4.723e+00,6.787e+00,5.877e+00,5.874e+00,4.472e+00,5.453e+00,5.079e+00,5.621e+00,5.247e+00,6.969e+00,6.239e+00,5.536e+00,5.375e+00,5.306e+00,5.942e+00,5.762e+00,6.174e+00,5.601e+00,5.826e+00,4.107e+00,4.032e+00,5.028e+00,5.674e+00,4.778e+00,5.805e+00,4.607e+00,5.880e+00,6.982e+00,5.696e+00,6.826e+00,5.813e+00,5.663e+00,5.749e+00,5.907e+00,5.654e+00,5.703e+00,6.192e+00,7.438e+00,6.178e+00,4.317e+00,4.610e+00,5.057e+00,5.959e+00,6.226e+00,4.839e+00,6.610e+00,5.025e+00,5.825e+00,5.540e+00,5.447e+00,6.893e+00
2.383e-02,6.306e-01,2.123e-01,4.955e-01,7.822e-01,1.440e+00,1.145e+00,1.543e+00,2.796e+00,2.721e+00,3.023e+00,2.407e+00,4.034e+00,4.846e+00,3.802e+00,4.924e+00,4.105e+00,5.096e+00,5.697e+00,5.897e+00,5.909e+00,5.262e+00,5.051e+00,5.868e+00,6.143e+00,4.903e+00,6.830e+00,5.932e+00,5.039e+00,6.297e+00,5.720e+00,5.865e+00,6.086e+00,5.405e+00,5.906e+00,4.389e+00,3.831e+00,4.759e+00,6.148e+00,4.760e+00,5.780e+00,4.665e+00,4.969e+00,5.344e+00,6.285e+00,5.193e+00,7.672e+00,6.139e+00,5.266e+00,5.924e+00,6.001e+00,5.578e+00,6.434e+00,5.537e+00,8.197e+00,6.807e+00,4.922e+00,4.762e+00,5.922e+00,5.693e+00,6.073e+00,5.808e+00,6.464e+00,4.786e+00,6.984e+00,5.123e+00,5.439e+00,6.446e+00
5.935e-02,6.130e-01,6.593e-01,1.428e+00,1.332e+00,1.540e+00,1.660e+00,1.489e+00,2.672e+00,2.209e+00,2.622e+00,2.284e+00,3.293e+00,3.772e+00,2.962e+00,4.317e+00,3.400e+00,3.611e+00,4.921e+00,4.785e+00,4.618e+00,4.119e+00,4.878e+00,5.224e+00,4.957e+00,5.075e+00,5.343e+00,5.299e+00,5.283e+00,4.611e+00,5.231e+00,4.815e+00,4.761e+00,4.895e+00,4.764e+00,4.623e+00,3.275e+00,4.462e+00,4.871e+00,4.584e+00,4.881e+00,4.649e+00,3.929e+00,5.025e+00,5.656e+00,4.908e+00,5.057e+00,5.069e+00,5.393e+00,6.069e+00,5.307e+00,4.466e+00,5.263e+00,5.065e+00,7.180e+00,6.052e+00,4.592e+00,4.375e+00,4.568e+00,4.899e+00,5.113e+00,5.391e+00,5.678e+00,4.641e+00,5.134e+00,4.434e+00,5.507e+00,6.779e+00
1.909e-02,8.052e-02,2.985e-01,8.245e-01,7.714e-01,8.071e-01,1.012e+00,9.265e-01,2.123e+00,2.856e+00,2.631e+00,2.529e+00,3.935e+00,4.209e+00,3.215e+00,4.175e+00,2.757e+00,4.035e+00,4.847e+00,4.797e+00,5.452e+00,5.177e+00,6.060e+00,5.235e+00,6.051e+00,5.354e+00,6.699e+00,6.031e+00,5.902e+00,6.113e+00,5.531e+00,5.750e+00,5.678e+00,4.801e+00,5.080e+00,4.292e+00,4.466e+00,4.326e+00,5.596e+00,5.156e+00,5.757e+00,4.412e+00,5.414e+00,4.609e+00,5.360e+00,5.400e+00,6.397e+00,5.884e+00,5.895e+00,5.956e+00,6.404e+00,4.627e+00,6.577e+00,5.532e+00,8.364e+00,6.679e+00,4.892e+00,4.881e+00,5.892e+00,5.714e+00,6.171e+00,6.322e+00,5.704e+00,5.936e+00,6.533e+00,4.144e+00,6.142e+00,6.981e+00
1.301e-01,1.174e+00,6.509e-01,1.387e+00,1.279e+00,1.481e+00,1.733e+00,2.184e+00,3.072e+00,3.171e+00,3.182e+00,3.138e+00,4.578e+00,5.085e+00,4.442e+00,5.300e+00,4.377e+00,5.708e+00,7.613e+00,6.091e+00,7.644e+00,6.133e+00,7.926e+00,8.092e+00,8.106e+00,7.172e+00,8.487e+00,8.043e+00,6.385e+00,7.269e+00,7.104e+00,6.542e+00,6.681e+00,8.248e+00,7.063e+00,6.666e+00,5.762e+00,6.790e+00,7.355e+00,6.873e+00,7.789e+00,6.427e+00,5.932e+00,7.130e+00,8.757e+00,6.273e+00,7.863e+00,7.387e+00,8.131e+00,8.059e+00,7.896e+00,7.431e+00,7.955e+00,8.098e+00,1.014e+01,8.382e+00,6.199e+00,5.789e+00,6.546e+00,7.008e+00,7.277e+00,6.762e+00,8.483e+00,5.981e+00,8.587e+00,6.897e+00,8.853e+00,9.033e+00
1.482e-01,1.054e+00,2.461e-01,7.641e-01,1.067e+00,1.376e+00,1.668e+00,2.046e+00,2.409e+00,2.311e+00,2.345e+00,2.770e+00,3.089e+00,3.680e+00,3.583e+00,4.012e+00,3.154e+00,4.792e+00,6.185e+00,5.575e+00,5.305e+00,5.262e+00,6.445e+00,6.489e+00,7.275e+00,5.023e+00,7.156e+00,6.231e+00,6.089e+00,7.531e+00,5.637e+00,6.588e+00,5.769e+00,7.065e+00,6.429e+00,5.012e+00,5.950e+00,5.803e+00,6.165e+00,6.228e+00,5.935e+00,5.655e+00,6.103e+00,6.483e+00,6.412e+00,5.622e+00,7.357e+00,6.052e+00,6.169e+00,6.741e+00,6.881e+00,6.746e+00,7.276e+00,6.416e+00,8.526e+00,6.131e+00,5.319e+00,5.539e+00,6.391e+00,6.467e+00,5.965e+00,5.577e+00,6.800e+00,6.858e+00,6.906e+00,6.516e+00,6.614e+00,7.420e+00
6.843e-02,7.445e-01,4.550e-01,8.663e-01,1.019e+00,1.122e+00,1.518e+00,1.858e+00,2.868e+00,2.777e+00,2.700e+00,2.775e+00,4.226e+00,4.068e+00,3.632e+00,3.944e+00,2.733e+00,3.692e+00,4.540e+00,4.570e+00,4.391e+00,4.520e+00,5.430e+00,5.621e+00,6.200e+00,5.090e+00,7.410e+00,6.067e+00,5.840e+00,6.403e+00,5.890e+00,6.443e+00,6.245e+00,5.461e+00,6.731e+00,5.632e+00,4.751e+00,4.169e+00,5.360e+00,5.894e+00,5.216e+00,5.705e+00,5.222e+00,5.250e+00,6.142e+00,5.196e+00,6.717e+00,5.566e+00,4.882e+00,6.629e+00,6.742e+00,6.165e+00,6.886e+00,6.972e+00,7.753e+00,5.929e+00,5.205e+00,4.766e+00,5.654e+00,5.778e+00,5.769e+00,5.416e+00,6.066e+00,7.114e+00,6.904e+00,5.046e+00,6.349e+00,6.402e+00
1.828e-01,1.418e+00,4.761e-01,1.092e+00,1.074e+00,1.475e+00,1.782e+00,2.500e+00,3.409e+00,2.978e+00,3.422e+00,2.884e+00,4.056e+00,4.589e+00,3.898e+00,4.269e+00,3.825e+00,4.973e+00,6.363e+00,5.621e+00,6.030e+00,5.479e+00,6.280e+00,6.743e+00,6.825e+00,6.078e+00,8.097e+00,7.067e+00,6.720e+00,6.681e+00,7.144e+00,6.749e+00,6.572e+00,8.271e+00,6.386e+00,7.344e+00,5.838e+00,6.554e+00,6.925e+00,7.520e+00,6.645e+00,6.447e+00,5.600e+00,8.155e+00,8.677e+00,5.945e+00,7.557e+00,6.469e+00,6.493e+00,7.437e+00,7.912e+00,6.988e+00,6.760e+00,8.918e+00,9.037e+00,7.310e+00,5.919e+00,5.092e+00,6.222e+00,7.519e+00,7.204e+00,7.005e+00,7.349e+00,6.407e+00,7.277e+00,6.793e+00,8.415e+00,7.394e+00
5.481e-02,9.804e-01,6.052e-01,1.044e+00,1.103e+00,1.549e+00,1.353e+00,1.808e+00,2.689e+00,2.413e+00,1.999e+00,2.362e+00,2.790e+00,3.327e+00,3.304e+00,3.928e+00,3.131e+00,3.438e+00,5.330e+00,4.269e+00,4.783e+00,4.692e+00,6.095e+00,6.424e+00,6.106e+00,5.468e+00,7.752e+00,6.586e+00,7.393e+00,7.238e+00,5.548e+00,6.672e+00,6.254e+00,6.622e+00,5.997e+00,6.077e+00,5.641e+00,5.585e+00,5.463e+00,7.227e+00,6.856e+00,6.454e+00,5.415e+00,6.822e+00,7.425e+00,6.136e+00,6.539e+00,6.267e+00,6.883e+00,7.807e+00,6.569e+00,6.529e+00,6.917e+00,7.211e+00,9.154e+00,6.244e+00,5.521e+00,5.421e+00,5.084e+00,7.218e+00,5.763e+00,5.462e+00,6.536e+00,7.335e+00,6.850e+00,5.746e+00,7.375e+00,6.962e+00
1.205e-01,1.170e+00,2.873e-01,5.315e-01,1.018e+00,1.706e+00,1.721e+00,2.350e+00,3.258e+00,2.742e+00,2.704e+00,2.731e+00,3.659e+00,4.037e+00,4.209e+00,3.981e+00,3.661e+00,4.699e+00,5.431e+00,5.127e+00,5.443e+00,4.829e+00,6.931e+00,7.572e+00,7.693e+00,5.689e+00,7.702e+00,7.190e+00,6.207e+00,9.078e+00,6.795e+00,6.744e+00,6.351e+00,7.786e+00,7.600e+00,6.882e+00,5.964e+00,6.937e+00,7.071e+00,6.622e+00,7.077e+00,6.489e+00,6.358e+00,7.117e+00,8.262e+00,6.628e+00,8.919e+00,7.974e+00,7.714e+00,7.965e+00,7.604e+00,8.004e+00,7.618e+00,7.299e+00,1.035e+01,6.832e+00,6.149e+00,5.634e+00,5.810e+00,6.848e+00,7.329e+00,6.201e+00,7.702e+00,7.205e+00,8.323e+00,6.721e+00,7.799e+00,7.628e+00
5.623e-02,2.668e-01,2.488e-01,6.315e-01,7.358e-01,7.640e-01,1.110e+00,9.570e-01,1.605e+00,1.560e+00,1.940e+00,1.594e+00,2.459e+00,2.847e+00,2.522e+00,3.049e+00,2.075e+00,3.792e+00,5.110e+00,5.037e+00,4.856e+00,4.063e+00,5.767e+00,6.141e+00,6.276e+00,5.566e+00,6.936e+00,6.992e+00,7.361e+00,7.425e+00,7.056e+00,6.289e+00,6.308e+00,8.202e+00,6.975e+00,6.815e+00,5.581e+00,7.132e+00,6.808e+00,6.795e+00,6.042e+00,6.913e+00,5.445e+00,7.658e+00,8.259e+00,6.340e+00,7.984e+00,6.978e+00,5.718e+00,8.260e+00,8.135e+00,7.310e+00,7.450e+00,7.608e+00,9.077e+00,8.117e+00,5.965e+00,6.578e+00,5.892e+00,6.099e+00,8.091e+00,6.677e+00,7.718e+00,6.963e+00,7.702e+00,7.126e+00,7.589e+00,8.732e+00
3.797e-02,8.650e-01,4.269e-01,7.290e-01,7.554e-01,1.215e+00,9.961e-01,1.644e+00,2.670e+00,2.805e+00,2.826e+00,2.358e+00,3.940e+00,4.406e+00,3.665e+00,4.060e+00,3.041e+00,3.752e+00,4.583e+00,4.476e+00,5.280e+00,4.847e+00,5.725e+00,6.848e+00,6.056e+00,6.107e+00,6.904e+00,6.685e+00,6.453e+00,7.193e+00,6.454e+00,6.052e+00,7.220e+00,7.146e+00,6.882e+00,6.970e+00,5.303e+00,6.429e+00,6.926e+00,6.725e+00,6.726e+00,5.627e+00,6.310e+00,7.263e+00,7.135e+00,5.803e+00,7.732e+00,6.312e+00,6.615e+00,7.827e+00,7.668e+00,7.531e+00,7.483e+00,7.232e+00,9.111e+00,7.894e+00,5.721e+00,5.186e+00,6.907e+00,7.279e+00,7.711e+00,6.716e+00,7.063e+00,6.958e+00,7.825e+00,5.375e+00,7.559e+00,7.803e+00
1.145e-01,6.631e-01,2.819e-01,8.785e-01,1.149e+00,1.086e+00,1.799e+00,1.496e+00,2.236e+00,1.555e+00,2.240e+00,1.824e+00,2.628e+00,2.473e+00,2.449e+00,2.479e+00,1.846e+00,2.616e+00,3.375e+00,3.335e+00,3.129e+00,3.236e+00,4.620e+00,4.890e+00,4.679e+00,4.096e+00,5.641e+00,5.533e+00,4.960e+00,5.518e+00,5.622e+00,5.842e+00,5.764e+00,6.245e+00,5.561e+00,5.422e+00,4.438e+00,5.238e+00,5.967e+00,5.559e+00,5.638e+00,5.638e+00,4.936e+00,6.035e+00,6.983e+00,5.255e+00,6.516e+00,5.398e+00,5.260e+00,6.454e+00,6.323e+00,6.671e+00,5.921e+00,7.140e+00,8.086e+00,5.270e+00,5.625e+00,4.186e+00,5.243e+00,6.576e+00,5.689e+00,5.798e+00,6.135e+00,6.644e+00,6.107e+00,5.550e+00,7.477e+00,6.522e+00
1.561e-01,1.170e+00,6.882e-01,1.384e+00,1.553e+00,1.594e+00,2.327e+00,2.565e+00,3.491e+00,3.170e+00,3.363e+00,3.473e+00,4.474e+00,5.040e+00,5.209e+00,5.182e+00,4.373e+00,5.056e+00,6.649e+00,6.213e+00,6.471e+00,5.967e+00,7.116e+00,6.939e+00,7.855e+00,6.436e+00,9.554e+00,7.867e+00,9.264e+00,9.547e+00,8.263e+00,1.014e+01,8.443e+00,1.101e+01,9.201e+00,9.640e+00,7.155e+00,8.874e+00,8.227e+00,9.266e+00,8.474e+00,9.333e+00,7.471e+00,9.500e+00,1.034e+01,8.242e+00,1.050e+01,9.017e+00,9.024e+00,9.280e+00,1.012e+01,9.822e+00,8.766e+00,1.066e+01,1.224e+01,9.491e+00,7.800e+00,7.555e+00,7.319e+00,1.001e+01,9.766e+00,8.101e+00,9.700e+00,9.979e+00,9.705e+00,8.681e+00,9.552e+00,1.024e+01
1.509e-01,1.105e+00,3.851e-01,1.060e+00,1.460e+00,1.687e+00,2.257e+00,2.138e+00,3.134e+00,2.389e+00,3.332e+00,2.671e+00,3.764e+00,5.002e+00,4.447e+00,5.128e+00,3.730e+00,4.256e+00,6.110e+00,6.371e+00,5.326e+00,4.848e+00,6.393e+00,6.261e+00,6.555e+00,5.448e+00,7.547e+00,7.474e+00,7.224e+00,7.706e+00,6.584e+00,7.879e+00,8.140e+00,9.078e+00,8.559e+00,8.193e+00,6.467e+00,7.721e+00,8.097e+00,7.150e+00,7.444e+00,7.627e+00,7.278e+00,8.255e+00,8.869e+00,6.589e+00,8.585e+00,7.939e+00,7.185e+00,9.100e+00,8.113e+00,8.544e+00,8.718e+00,8.858e+00,1.053e+01,7.999e+00,7.221e+00,6.359e+00,6.805e+00,8.566e+00,8.902e+00,7.093e+00,8.967e+00,8.476e+00,8.589e+00,7.166e+00,9.039e+00,9.774e+00
2.139e-03,7.565e-01,3.390e-01,3.873e-01,4.956e-01,1.003e+00,5.311e-01,1.230e+00,1.624e+00,1.449e+00,1.132e+00,1.362e+00,1.775e+00,2.193e+00,2.000e+00,2.552e+00,2.200e+00,2.988e+00,4.152e+00,3.424e+00,3.745e+00,2.998e+00,4.050e+00,5.745e+00,5.150e+00,4.394e+00,6.018e+00,5.252e+00,5.075e+00,6.142e+00,5.153e+00,5.624e+00,7.257e+00,7.386e+00,8.259e+00,7.093e+00,5.662e+00,8.062e+00,7.857e+00,7.644e+00,6.429e+00,7.947e+00,5.872e+00,7.730e+00,8.589e+00,6.039e+00,7.360e+00,6.624e+00,6.701e+00,7.656e+00,7.539e+00,7.999e+00,8.065e+00,8.212e+00,9.542e+00,7.382e+00,6.895e+00,5.742e+00,5.903e+00,7.042e+00,6.618e+00,5.795e+00,8.403e+00,7.105e+00,7.651e+00,6.759e+00,9.132e+00,8.541e+00
5.934e-02,5.931e-01,2.363e-01,7.984e-01,1.167e+00,1.707e+00,1.624e+00,1.618e+00,2.815e+00,2.950e+00,3.166e+00,2.817e+00,3.593e+00,4.527e+00,4.139e+00,4.677e+00,3.706e+00,4.521e+00,5.045e+00,5.187e+00,5.062e+00,4.940e+00,5.982e+00,5.793e+00,6.262e+00,4.950e+00,8.329e+00,7.373e+00,7.538e+00,8.137e+00,6.875e+00,7.919e+00,8.621e+00,8.058e+00,8.932e+00,8.461e+00,6.595e+00,9.326e+00,1.004e+01,9.778e+00,8.725e+00,8.424e+00,8.554e+00,9.558e+00,9.962e+00,9.148e+00,9.617e+00,8.902e+00,8.221e+00,9.023e+00,8.917e+00,8.495e+00,9.414e+00,9.003e+00,1.317e+01,9.086e+00,8.570e+00,7.189e+00,8.440e+00,9.776e+00,9.042e+00,8.845e+00,9.321e+00,9.694e+00,9.752e+00,7.898e+00,1.054e+01,9.671e+00
1.265e-01,4.506e-01,6.461e-01,1.640e+00,1.524e+00,1.180e+00,2.143e+00,1.305e+00,2.353e+00,1.750e+00,2.885e+00,1.745e+00,3.003e+00,3.228e+00,3.207e+00,3.579e+00,2.867e+00,3.786e+00,4.760e+00,4.139e+00,4.832e+00,4.260e+00,6.073e+00,6.331e+00,5.907e+00,5.420e+00,6.882e+00,6.736e+00,7.095e+00,6.447e+00,7.448e+00,6.841e+00,6.967e+00,8.564e+00,7.276e+00,7.079e+00,6.033e+00,9.107e+00,9.253e+00,8.193e+00,9.057e+00,7.765e+00,6.848e+00,8.934e+00,1.015e+01,8.142e+00,8.513e+00,7.470e+00,8.444e+00,9.391e+00,8.492e+00,9.216e+00,9.164e+00,9.412e+00,1.260e+01,8.487e+00,8.829e+00,7.251e+00,7.579e+00,8.921e+00,8.586e+00,7.698e+00,8.975e+00,8.566e+00,8.540e+00,8.280e+00,1.066e+01,1.079e+01
8.058e-02,2.722e-01,3.956e-01,7.574e-01,7.412e-01,1.179e+00,1.356e+00,1.356e+00,3.010e+00,2.497e+00,2.546e+00,1.951e+00,3.173e+00,3.658e+00,2.911e+00,4.164e+00,3.061e+00,4.513e+00,5.881e+00,5.070e+00,5.056e+00,4.166e+00,6.167e+00,6.925e+00,6.620e+00,6.062e+00,8.140e+00,6.625e+00,6.764e+00,8.108e+00,6.968e+00,6.895e+00,8.133e+00,9.244e+00,8.550e+00,8.784e+00,7.374e+00,9.921e+00,9.080e+00,8.813e+00,8.090e+00,8.955e+00,8.054e+00,9.651e+00,1.037e+01,7.894e+00,1.006e+01,8.367e+00,8.617e+00,1.002e+01,9.669e+00,1.018e+01,1.086e+01,1.082e+01,1.261e+01,9.815e+00,8.690e+00,7.442e+00,8.749e+00,9.424e+00,1.061e+01,9.096e+00,9.534e+00,9.367e+00,1.085e+01,7.713e+00,1.169e+01,1.169e+01
5.696e-02,4.082e-01,3.852e-01,6.361e-01,8.644e-01,9.543e-01,1.378e+00,1.223e+00,2.276e+00,2.015e+00,2.231e+00,1.616e+00,3.316e+00,3.663e+00,3.906e+00,3.756e+00,2.896e+00,3.579e+00,4.853e+00,4.939e+00,5.092e+00,4.224e+00,5.861e+00,6.162e+00,5.966e+00,5.252e+00,7.012e+00,6.874e+00,6.983e+00,8.210e+00,6.843e+00,7.069e+00,8.249e+00,8.597e+00,8.401e+00,8.875e+00,6.448e+00,1.083e+01,9.842e+00,8.743e+00,9.317e+00,1.007e+01,7.461e+00,9.938e+00,1.110e+01,9.076e+00,9.976e+00,9.224e+00,8.069e+00,9.851e+00,1.102e+01,1.043e+01,9.657e+00,1.002e+01,1.337e+01,1.022e+01,8.915e+00,8.181e+00,7.052e+00,9.011e+00,1.041e+01,8.987e+00,9.491e+00,9.459e+00,9.554e+00,9.242e+00,1.089e+01,1.134e+01
2.810e-02,2.389e-01,3.963e-01,7.186e-01,9.349e-01,1.150e+00,1.476e+00,1.538e+00,3.000e+00,2.967e+00,2.834e+00,2.609e+00,3.199e+00,4.088e+00,3.621e+00,4.620e+00,3.470e+00,4.919e+00,6.125e+00,5.265e+00,5.994e+00,5.477e+00,6.944e+00,7.130e+00,7.118e+00,6.163e+00,8.765e+00,7.975e+00,7.610e+00,7.777e+00,7.279e+00,8.562e+00,8.347e+00,8.958e+00,8.824e+00,8.790e+00,7.469e+00,9.340e+00,9.841e+00,1.040e+01,9.744e+00,1.125e+01,8.054e+00,1.100e+01,1.176e+01,1.009e+01,1.123e+01,8.389e+00,9.458e+00,1.012e+01,1.164e+01,9.175e+00,1.171e+01,1.180e+01,1.369e+01,1.058e+01,9.993e+00,8.323e+00,8.808e+00,8.843e+00,1.045e+01,9.445e+00,1.083e+01,1.015e+01,1.116e+01,1.046e+01,1.284e+01,1.214e+01
3.469e-02,4.801e-01,3.391e-01,5.557e-01,5.975e-01,7.121e-01,8.539e-01,9.998e-01,1.834e+00,1.865e+00,1.863e+00,1.325e+00,3.044e+00,3.354e+00,2.938e+00,3.554e+00,2.073e+00,3.298e+00,4.835e+00,4.432e+00,4.911e+00,4.870e+00,6.382e+00,7.420e+00,6.787e+00,6.343e+00,8.302e+00,8.610e+00,8.213e+00,7.934e+00,7.397e+00,8.064e+00,9.025e+00,9.021e+00,1.017e+01,9.358e+00,7.274e+00,1.098e+01,1.075e+01,1.063e+01,1.058e+01,1.187e+01,9.303e+00,1.182e+01,1.192e+01,9.982e+00,1.074e+01,8.721e+00,8.530e+00,1.170e+01,1.221e+01,1.135e+01,1.181e+01,1.226e+01,1.446e+01,1.088e+01,9.961e+00,9.060e+00,8.961e+00,1.059e+01,1.049e+01,1.034e+01,1.102e+01,1.101e+01,1.193e+01,1.035e+01,1.252e+01,1.307e+01
1.721e-01,5.961e-01,5.465e-01,1.321e+00,1.044e+00,7.388e-01,1.718e+00,1.356e+00,2.185e+00,1.810e+00,2.732e+00,1.919e+00,3.252e+00,4.135e+00,3.797e+00,4.249e+00,3.622e+00,3.801e+00,4.924e+00,4.112e+00,5.425e+00,4.458e+00,5.797e+00,5.801e+00,6.299e+00,5.618e+00,7.956e+00,6.637e+00,7.169e+00,6.592e+00,7.110e+00,7.424e+00,7.432e+00,8.826e+00,8.019e+00,7.915e+00,6.899e+00,9.709e+00,9.828e+00,9.460e+00,9.732e+00,9.744e+00,8.178e+00,1.086e+01,1.103e+01,8.343e+00,1.029e+01,8.236e+00,9.792e+00,1.003e+01,1.044e+01,9.041e+00,1.084e+01,1.123e+01,1.360e+01,1.001e+01,9.218e+00,7.039e+00,8.328e+00,1.009e+01,1.087e+01,8.930e+00,1.080e+01,9.422e+00,1.036e+01,8.205e+00,1.145e+01,1.199e+01
1.651e-01,8.449e-01,5.077e-01,1.282e+00,1.431e+00,1.364e+00,2.236e+00,1.911e+00,2.870e+00,2.211e+00,2.974e+00,2.483e+00,3.180e+00,4.185e+00,3.938e+00,4.582e+00,3.288e+00,4.594e+00,6.315e+00,5.072e+00,5.743e+00,4.268e+00,6.406e+00,6.308e+00,6.534e+00,6.413e+00,8.045e+00,7.549e+00,7.358e+00,7.097e+00,7.742e+00,7.487e+00,8.275e+00,9.148e+00,8.840e+00,8.669e+00,7.084e+00,9.637e+00,9.756e+00,9.250e+00,8.382e+00,9.281e+00,8.547e+00,1.014e+01,1.201e+01,9.318e+00,1.005e+01,8.784e+00,9.156e+00,1.002e+01,9.470e+00,9.390e+00,1.099e+01,1.025e+01,1.282e+01,1.038e+01,8.543e+00,7.874e+00,8.717e+00,1.061e+01,1.029e+01,8.892e+00,1.142e+01,9.907e+00,9.995e+00,8.398e+00,1.189e+01,1.218e+01
5.413e-02,8.405e-01,4.964e-01,6.877e-01,5.912e-01,9.387e-01,8.130e-01,1.387e+00,2.179e+00,2.159e+00,2.241e+00,1.602e+00,2.489e+00,3.949e+00,3.301e+00,4.040e+00,3.144e+00,3.453e+00,4.581e+00,3.424e+00,5.136e+00,3.595e+00,4.301e+00,5.410e+00,4.684e+00,5.480e+00,6.563e+00,6.638e+00,5.667e+00,5.475e+00,5.711e+00,6.019e+00,7.567e+00,7.618e+00,8.282e+00,8.443e+00,5.756e+00,9.954e+00,8.790e+00,8.724e+00,8.605e+00,9.363e+00,9.088e+00,1.110e+01,1.173e+01,1.021e+01,1.042e+01,7.864e+00,9.435e+00,9.317e+00,1.104e+01,9.154e+00,9.923e+00,1.113e+01,1.346e+01,1.001e+01,8.115e+00,7.863e+00,8.577e+00,1.065e+01,9.919e+00,7.551e+00,1.023e+01,9.613e+00,1.019e+01,9.605e+00,1.047e+01,1.148e+01
4.157e-02,2.251e-01,1.169e-01,5.452e-01,9.413e-01,1.551e+00,1.372e+00,1.044e+00,2.148e+00,1.958e+00,2.482e+00,1.971e+00,2.490e+00,3.925e+00,3.786e+00,4.763e+00,4.068e+00,5.037e+00,6.239e+00,5.326e+00,5.694e+00,4.422e+00,6.865e+00,7.120e+00,6.679e+00,5.595e+00,8.053e+00,7.691e+00,7.200e+00,7.803e+00,6.651e+00,7.432e+00,6.996e+00,9.589e+00,6.876e+00,8.177e+00,5.762e+00,9.542e+00,8.056e+00,8.982e+00,8.783e+00,1.051e+01,8.617e+00,1.227e+01,1.296e+01,1.198e+01,1.305e+01,9.493e+00,1.134e+01,9.989e+00,1.156e+01,9.794e+00,1.055e+01,1.159e+01,1.390e+01,1.042e+01,9.388e+00,9.111e+00,8.808e+00,1.005e+01,1.097e+01,9.724e+00,1.112e+01,1.035e+01,1.181e+01,1.198e+01,1.100e+01,1.230e+01
1.192e-01,8.906e-01,2.240e-01,7.450e-01,1.002e+00,1.615e+00,1.617e+00,2.082e+00,3.222e+00,3.210e+00,3.094e+00,3.377e+00,4.009e+00,5.047e+00,4.363e+00,5.368e+00,4.266e+00,5.682e+00,7.271e+00,6.150e+00,6.365e+00,5.816e+00,6.841e+00,6.553e+00,7.515e+00,6.299e+00,9.860e+00,8.104e+00,8.065e+00,9.097e+00,7.008e+00,8.438e+00,8.369e+00,8.838e+00,7.999e+00,8.285e+00,7.258e+00,8.787e+00,9.077e+00,1.048e+01,1.035e+01,1.032e+01,9.516e+00,1.316e+01,1.249e+01,1.178e+01,1.346e+01,1.130e+01,1.133e+01,1.126e+01,1.171e+01,9.840e+00,1.275e+01,1.215e+01,1.542e+01,1.175e+01,8.978e+00,8.914e+00,1.012e+01,1.182e+01,1.204e+01,1.021e+01,1.140e+01,1.186e+01,1.218e+01,1.003e+01,1.233e+01,1.239e+01
3.471e-02,1.650e-01,5.375e-02,4.809e-01,1.026e+00,1.673e+00,1.517e+00,1.330e+00,2.414e+00,2.300e+00,2.244e+00,2.485e+00,1.600e+00,2.563e+00,2.395e+00,3.641e+00,2.752e+00,4.233e+00,4.645e+00,3.755e+00,4.044e+00,4.074e+00,5.666e+00,5.598e+00,4.881e+00,4.524e+00,6.094e+00,6.352e+00,5.305e+00,6.154e+00,4.622e+00,5.634e+00,5.380e+00,7.193e+00,6.113e+00,5.799e+00,6.238e+00,7.238e+00,7.513e+00,7.807e+00,8.278e+00,8.116e+00,8.349e+00,1.099e+01,1.070e+01,1.108e+01,1.072e+01,7.995e+00,1.054e+01,9.394e+00,9.502e+00,8.936e+00,1.138e+01,9.492e+00,1.361e+01,1.033e+01,8.445e+00,7.079e+00,9.378e+00,9.278e+00,9.695e+00,9.485e+00,1.015e+01,1.044e+01,1.043e+01,9.974e+00,1.106e+01,1.089e+01
9.253e-02,1.025e+00,2.065e-01,5.501e-01,1.083e+00,1.458e+00,1.647e+00,1.818e+00,2.455e+00,1.867e+00,2.314e+00,2.029e+00,2.425e+00,3.237e+00,3.234e+00,3.375e+00,2.668e+00,3.533e+00,4.688e+00,4.244e+00,4.459e+00,3.723e+00,4.867e+00,4.842e+00,5.029e+00,4.412e+00,5.903e+00,6.060e+00,5.166e+00,6.089e+00,5.925e+00,6.820e+00,6.597e+00,7.871e+00,7.268e+00,7.895e+00,5.380e+00,8.608e+00,8.279e+00,8.192e+00,8.186e+00,9.512e+00,7.668e+00,1.082e+01,1.117e+01,1.034e+01,1.208e+01,8.354e+00,1.014e+01,1.012e+01,1.004e+01,9.402e+00,1.084e+01,1.053e+01,1.265e+01,1.053e+01,8.915e+00,7.809e+00,8.187e+00,9.767e+00,1.041e+01,9.705e+00,1.068e+01,1.011e+01,1.130e+01,9.802e+00,1.120e+01,1.206e+01
8.646e-02,9.773e-01,7.495e-01,1.066e+00,9.609e-01,1.035e+00,1.381e+00,1.767e+00,2.622e+00,1.973e+00,1.927e+00,1.809e+00,3.489e+00,3.570e+00,3.916e+00,3.778e+00,3.335e+00,3.483e+00,5.188e+00,4.736e+00,5.112e+00,4.381e+00,6.343e+00,6.789e+00,6.932e+00,5.663e+00,8.014e+00,7.034e+00,7.185e+00,8.637e+00,7.108e+00,6.863e+00,7.659e+00,8.575e+00,9.037e+00,8.944e+00,7.205e+00,1.065e+01,8.922e+00,9.301e+00,1.008e+01,1.005e+01,8.784e+00,1.104e+01,1.177e+01,1.036e+01,1.184e+01,1.046e+01,1.161e+01,1.319e+01,1.191e+01,1.197e+01,1.322e+01,1.171e+01,1.589e+01,1.176e+01,1.024e+01,9.977e+00,1.001e+01,1.049e+01,1.265e+01,9.812e+00,1.199e+01,1.239e+01,1.299e+01,1.100e+01,1.199e+01,1.372e+01
1.625e-01,8.612e-01,3.610e-01,1.110e+00,1.131e+00,1.176e+00,1.749e+00,1.711e+00,2.547e+00,2.687e+00,3.091e+00,2.791e+00,4.590e+00,4.914e+00,4.498e+00,4.599e+00,3.079e+00,4.421e+00,6.315e+00,6.544e+00,6.378e+00,5.840e+00,7.771e+00,7.103e+00,7.523e+00,7.277e+00,8.789e+00,8.492e+00,8.429e+00,8.859e+00,7.710e+00,7.757e+00,8.974e+00,9.749e+00,9.664e+00,1.013e+01,8.215e+00,1.164e+01,1.076e+01,1.096e+01,1.082e+01,1.188e+01,1.049e+01,1.303e+01,1.360e+01,1.322e+01,1.274e+01,1.108e+01,1.289e+01,1.367e+01,1.393e+01,1.366e+01,1.500e+01,1.445e+01,1.835e+01,1.462e+01,1.106e+01,1.245e+01,1.354e+01,1.413e+01,1.572e+01,1.413e+01,1.303e+01,1.395e+01,1.372e+01,1.253e+01,1.461e+01,1.587e+01
2.173e-02,2.517e-01,2.471e-01,5.871e-01,5.595e-01,5.177e-01,6.804e-01,7.141e-01,1.227e+00,1.585e+00,1.344e+00,1.497e+00,2.468e+00,2.516e+00,2.201e+00,2.621e+00,1.670e+00,2.945e+00,4.284e+00,4.218e+00,3.830e+00,3.855e+00,5.168e+00,4.801e+00,5.448e+00,4.769e+00,6.214e+00,5.727e+00,6.708e+00,6.472e+00,5.326e+00,6.241e+00,6.033e+00,7.305e+00,6.057e+00,7.060e+00,6.208e+00,8.460e+00,7.283e+00,9.077e+00,7.911e+00,9.360e+00,7.338e+00,1.104e+01,9.274e+00,9.293e+00,9.376e+00,8.439e+00,9.164e+00,1.001e+01,1.009e+01,9.936e+00,1.168e+01,1.110e+01,1.313e+01,1.132e+01,8.362e+00,9.945e+00,1.011e+01,1.093e+01,1.195e+01,1.048e+01,8.719e+00,1.085e+01,1.154e+01,9.730e+00,1.178e+01,1.234e+01
1.824e-01,1.060e+00,4.888e-01,1.064e+00,9.367e-01,1.164e+00,1.664e+00,2.241e+00,3.190e+00,3.029e+00,3.008e+00,2.947e+00,4.208e+00,4.286e+00,3.646e+00,4.065e+00,3.427e+00,4.457e+00,5.551e+00,5.073e+00,5.394e+00,5.158e+00,6.146e+00,6.387e+00,6.879e+00,5.603e+00,8.540e+00,6.632e+00,7.700e+00,7.443e+00,6.955e+00,8.225e+00,6.989e+00,8.991e+00,8.690e+00,8.418e+00,6.384e+00,8.793e+00,8.992e+00,9.256e+00,9.160e+00,9.594e+00,8.072e+00,1.200e+01,1.210e+01,1.042e+01,1.150e+01,9.358e+00,1.022e+01,1.187e+01,1.245e+01,1.299e+01,1.295e+01,1.295e+01,1.537e+01,1.175e+01,1.091e+01,1.051e+01,1.120e+01,1.216e+01,1.290e+01,1.188e+01,1.195e+01,1.292e+01,1.232e+01,1.214e+01,1.396e+01,1.285e+01
1.521e-01,1.289e+00,8.301e-01,1.678e+00,1.671e+00,1.754e+00,2.268e+00,2.503e+00,3.543e+00,3.376e+00,2.968e+00,3.180e+00,4.416e+00,4.173e+00,4.183e+00,4.476e+00,3.362e+00,4.584e+00,6.937e+00,6.223e+00,6.250e+00,6.347e+00,7.278e+00,7.013e+00,7.827e+00,6.694e+00,8.557e+00,7.990e+00,8.566e+00,9.490e+00,8.118e+00,9.036e+00,9.581e+00,1.115e+01,1.011e+01,1.069e+01,8.174e+00,1.306e+01,1.170e+01,1.141e+01,1.220e+01,1.197e+01,1.055e+01,1.263e+01,1.359e+01,1.238e+01,1.307e+01,1.117e+01,1.293e+01,1.365e+01,1.400e+01,1.438e+01,1.460e+01,1.511e+01,1.852e+01,1.507e+01,1.369e+01,1.292e+01,1.361e+01,1.550e+01,1.472e+01,1.342e+01,1.448e+01,1.528e+01,1.414e+01,1.422e+01,1.599e+01,1.668e+01
1.244e-01,9.581e-01,4.285e-01,1.130e+00,1.336e+00,1.431e+00,1.893e+00,1.854e+00,2.549e+00,2.302e+00,2.806e+00,2.465e+00,3.704e+00,4.133e+00,3.597e+00,4.216e+00,3.226e+00,3.830e+00,4.513e+00,4.639e+00,4.478e+00,4.602e+00,6.322e+00,6.399e+00,6.911e+00,5.500e+00,6.850e+00,7.289e+00,6.403e+00,7.325e+00,6.877e+00,7.126e+00,7.545e+00,8.600e+00,8.901e+00,7.798e+00,6.727e+00,9.737e+00,1.026e+01,8.967e+00,9.583e+00,1.034e+01,1.000e+01,1.202e+01,1.194e+01,1.123e+01,1.265e+01,1.025e+01,1.200e+01,1.224e+01,1.277e+01,1.312e+01,1.421e+01,1.267e+01,1.661e+01,1.319e+01,1.206e+01,1.085e+01,1.302e+01,1.340e+01,1.306e+01,1.340e+01,1.329e+01,1.419e+01,1.464e+01,1.255e+01,1.471e+01,1.579e+01
1.306e-01,6.933e-01,3.811e-01,1.010e+00,1.054e+00,1.472e+00,1.653e+00,1.612e+00,2.757e+00,2.366e+00,2.849e+00,2.528e+00,3.164e+00,4.453e+00,3.985e+00,4.703e+00,3.925e+00,3.756e+00,5.245e+00,5.145e+00,4.853e+00,4.340e+00,6.565e+00,6.111e+00,6.143e+00,5.221e+00,8.374e+00,6.908e+00,8.341e+00,7.713e+00,6.191e+00,8.055e+00,6.913e+00,8.787e+00,8.037e+00,9.302e+00,7.269e+00,9.604e+00,8.887e+00,9.784e+00,9.458e+00,1.074e+01,9.100e+00,1.273e+01,1.313e+01,1.244e+01,1.192e+01,1.028e+01,1.167e+01,1.316e+01,1.251e+01,1.173e+01,1.282e+01,1.375e+01,1.690e+01,1.248e+01,1.114e+01,1.129e+01,1.178e+01,1.237e+01,1.378e+01,1.250e+01,1.175e+01,1.409e+01,1.296e+01,1.308e+01,1.356e+01,1.506e+01
1.035e-02,4.393e-01,5.599e-01,8.664e-01,7.418e-01,9.692e-01,9.282e-01,1.087e+00,2.238e+00,1.919e+00,1.792e+00,1.465e+00,2.755e+00,3.243e+00,2.895e+00,3.654e+00,3.009e+00,3.800e+00,5.820e+00,5.048e+00,4.857e+00,3.727e+00,4.686e+00,5.675e+00,5.864e+00,4.874e+00,7.488e+00,5.960e+00,6.493e+00,6.702e+00,5.898e+00,6.567e+00,7.488e+00,7.050e+00,7.590e+00,7.486e+00,5.986e+00,9.752e+00,8.599e+00,9.442e+00,9.154e+00,1.157e+01,7.022e+00,1.112e+01,1.210e+01,1.023e+01,1.061e+01,9.622e+00,9.942e+00,1.119e+01,1.163e+01,1.165e+01,1.287e+01,1.345e+01,1.582e+01,1.331e+01,1.147e+01,1.281e+01,1.238e+01,1.212e+01,1.358e+01,1.173e+01,1.248e+01,1.285e+01,1.277e+01,1.199e+01,1.457e+01,1.538e+01
1.815e-01,1.388e+00,5.353e-01,1.135e+00,1.386e+00,1.636e+00,2.182e+00,2.587e+00,3.340e+00,2.693e+00,2.924e+00,3.059e+00,3.876e+00,4.336e+00,4.408e+00,4.378e+00,3.195e+00,4.709e+00,6.404e+00,5.367e+00,5.529e+00,4.503e+00,6.764e+00,6.691e+00,7.362e+00,6.234e+00,8.346e+00,7.184e+00,7.056e+00,8.036e+00,7.476e+00,7.057e+00,7.811e+00,8.042e+00,9.061e+00,8.667e+00,6.677e+00,8.970e+00,9.082e+00,9.487e+00,9.132e+00,8.835e+00,9.207e+00,1.136e+01,1.131e+01,1.098e+01,1.122e+01,9.971e+00,1.063e+01,1.283e+01,1.089e+01,1.158e+01,1.395e+01,1.196e+01,1.604e+01,1.346e+01,1.164e+01,1.235e+01,1.286e+01,1.335e+01,1.364e+01,1.149e+01,1.304e+01,1.369e+01,1.459e+01,1.193e+01,1.411e+01,1.588e+01
1.653e-01,1.358e+00,4.471e-01,7.779e-01,6.847e-01,1.235e+00,1.241e+00,2.367e+00,3.123e+00,2.872e+00,2.164e+00,2.747e+00,3.870e+00,3.645e+00,3.449e+00,3.803e+00,2.834e+00,4.877e+00,6.760e+00,4.798e+00,5.583e+00,5.275e+00,6.067e+00,6.382e+00,6.792e+00,6.532e+00,8.740e+00,7.244e+00,7.122e+00,7.874e+00,6.827e+00,6.487e+00,7.478e+00,8.059e+00,7.966e+00,8.475e+00,6.750e+00,1.010e+01,8.669e+00,1.038e+01,1.115e+01,9.428e+00,8.056e+00,1.251e+01,1.225e+01,9.961e+00,1.105e+01,9.420e+00,1.022e+01,1.223e+01,1.160e+01,1.115e+01,1.369e+01,1.247e+01,1.588e+01,1.227e+01,1.054e+01,1.127e+01,1.189e+01,1.345e+01,1.247e+01,1.147e+01,1.204e+01,1.311e+01,1.329e+01,1.131e+01,1.443e+01,1.383e+01
1.452e-01,1.205e+00,4.577e-01,8.039e-01,7.213e-01,1.116e+00,1.163e+00,2.097e+00,2.705e+00,3.031e+00,2.262e+00,2.916e+00,3.618e+00,4.453e+00,4.097e+00,4.648e+00,3.841e+00,4.474e+00,5.951e+00,4.369e+00,6.560e+00,5.898e+00,7.463e+00,7.480e+00,7.827e+00,7.013e+00,8.779e+00,8.013e+00,8.092e+00,8.663e+00,7.362e+00,8.639e+00,8.789e+00,1.004e+01,9.441e+00,9.589e+00,8.057e+00,1.184e+01,1.113e+01,1.015e+01,1.157e+01,1.058e+01,1.035e+01,1.322e+01,1.310e+01,1.118e+01,1.278e+01,1.056e+01,1.324e+01,1.346e+01,1.315e+01,1.331e+01,1.459e+01,1.393e+01,1.845e+01,1.483e+01,1.353e+01,1.162e+01,1.417e+01,1.549e+01,1.642e+01,1.392e+01,1.501e+01,1.618e+01,1.576e+01,1.365e+01,1.729e+01,1.683e+01
4.549e-02,3.943e-01,4.792e-01,1.221e+00,1.103e+00,1.163e+00,1.248e+00,8.924e-01,1.896e+00,2.499e+00,2.658e+00,2.078e+00,3.151e+00,4.759e+00,3.625e+00,5.238e+00,4.063e+00,4.060e+00,5.773e+00,4.816e+00,6.076e+00,4.509e+00,5.987e+00,6.184e+00,6.442e+00,5.752e+00,8.595e+00,7.813e+00,7.395e+00,6.783e+00,6.201e+00,8.123e+00,8.418e+00,9.194e+00,8.446e+00,8.288e+00,6.669e+00,9.618e+00,1.089e+01,1.049e+01,1.020e+01,1.110e+01,9.041e+00,1.187e+01,1.306e+01,1.125e+01,1.226e+01,1.019e+01,1.229e+01,1.164e+01,1.185e+01,1.292e+01,1.376e+01,1.352e+01,1.729e+01,1.399e+01,1.207e+01,1.208e+01,1.447e+01,1.525e+01,1.468e+01,1.469e+01,1.392e+01,1.393e+01,1.521e+01,1.266e+01,1.683e+01,1.714e+01
1.791e-01,1.132e+00,4.086e-01,1.284e+00,1.664e+00,1.957e+00,2.493e+00,2.476e+00,3.318e+00,2.971e+00,3.528e+00,3.600e+00,3.664e+00,4.688e+00,4.544e+00,4.992e+00,3.717e+00,5.208e+00,6.774e+00,6.276e+00,5.852e+00,5.323e+00,7.495e+00,6.445e+00,7.231e+00,6.144e+00,9.299e+00,8.220e+00,8.433e+00,8.831e+00,7.717e+00,8.187e+00,8.389e+00,9.866e+00,9.812e+00,9.681e+00,8.330e+00,1.056e+01,1.035e+01,1.166e+01,1.023e+01,1.140e+01,9.901e+00,1.327e+01,1.292e+01,1.331e+01,1.297e+01,1.095e+01,1.263e+01,1.354e+01,1.256e+01,1.329e+01,1.478e+01,1.436e+01,1.766e+01,1.477e+01,1.193e+01,1.294e+01,1.449e+01,1.601e+01,1.566e+01,1.550e+01,1.433e+01,1.525e+01,1.649e+01,1.438e+01,1.676e+01,1.893e+01
4.697e-03,1.634e-01,5.108e-01,1.247e+00,1.218e+00,1.206e+00,1.308e+00,9.211e-01,1.776e+00,2.160e+00,1.930e+00,2.438e+00,2.910e+00,3.375e+00,2.649e+00,4.353e+00,3.154e+00,3.418e+00,4.852e+00,4.553e+00,4.733e+00,4.620e+00,5.340e+00,4.850e+00,5.392e+00,5.043e+00,7.042e+00,6.348e+00,7.068e+00,6.208e+00,5.436e+00,7.715e+00,7.205e+00,7.930e+00,7.584e+00,7.269e+00,5.440e+00,8.414e+00,8.635e+00,8.711e+00,1.002e+01,9.869e+00,8.693e+00,1.096e+01,1.158e+01,1.160e+01,1.057e+01,9.846e+00,1.062e+01,1.166e+01,1.121e+01,1.187e+01,1.351e+01,1.347e+01,1.794e+01,1.484e+01,1.350e+01,1.326e+01,1.464e+01,1.616e+01,1.506e+01,1.555e+01,1.431e+01,1.497e+01,1.636e+01,1.445e+01,1.522e+01,1.874e+01
1.373e-01,6.227e-01,3.369e-01,8.489e-01,9.853e-01,1.379e+00,1.700e+00,1.812e+00,2.905e+00,2.468e+00,2.410e+00,2.490e+00,2.761e+00,3.407e+00,2.758e+00,4.090e+00,3.103e+00,4.516e+00,5.982e+00,5.556e+00,4.901e+00,4.945e+00,6.754e+00,6.283e+00,6.812e+00,5.450e+00,7.800e+00,6.908e+00,7.637e+00,7.851e+00,6.524e+00,7.711e+00,6.609e+00,9.442e+00,8.621e+00,8.557e+00,7.291e+00,9.778e+00,9.445e+00,9.280e+00,1.005e+01,9.581e+00,9.178e+00,1.248e+01,1.187e+01,1.142e+01,1.143e+01,9.492e+00,1.049e+01,1.265e+01,1.133e+01,1.223e+01,1.365e+01,1.273e+01,1.627e+01,1.302e+01,1.255e+01,1.218e+01,1.260e+01,1.403e+01,1.430e+01,1.610e+01,1.431e+01,1.429e+01,1.689e+01,1.454e+01,1.697e+01,1.818e+01
3.236e-02,8.704e-01,7.463e-01,1.466e+00,1.570e+00,1.902e+00,1.851e+00,2.010e+00,3.372e+00,3.535e+00,3.187e+00,3.095e+00,3.792e+00,4.609e+00,4.090e+00,5.258e+00,4.114e+00,4.898e+00,6.492e+00,5.428e+00,6.448e+00,5.883e+00,6.650e+00,6.832e+00,6.930e+00,6.263e+00,8.812e+00,8.388e+00,8.433e+00,8.410e+00,7.773e+00,8.980e+00,9.475e+00,9.980e+00,9.577e+00,9.179e+00,7.207e+00,1.151e+01,1.099e+01,1.113e+01,1.185e+01,1.095e+01,1.007e+01,1.240e+01,1.311e+01,1.192e+01,1.263e+01,1.165e+01,1.351e+01,1.344e+01,1.206e+01,1.388e+01,1.470e+01,1.403e+01,1.896e+01,1.557e+01,1.412e+01,1.308e+01,1.541e+01,1.691e+01,1.577e+01,1.639e+01,1.642e+01,1.675e+01,1.847e+01,1.401e+01,1.847e+01,1.919e+01
4.036e-02,2.180e-01,6.603e-01,1.340e+00,1.065e+00,1.151e+00,1.356e+00,1.038e+00,2.550e+00,2.609e+00,2.775e+00,1.937e+00,3.568e+00,3.971e+00,3.155e+00,4.305e+00,3.528e+00,3.177e+00,3.982e+00,4.075e+00,4.646e+00,4.581e+00,5.493e+00,6.033e+00,5.532e+00,5.405e+00,7.212e+00,6.539e+00,7.528e+00,6.536e+00,6.919e+00,7.379e+00,8.143e+00,8.305e+00,7.183e+00,8.324e+00,5.383e+00,9.886e+00,9.573e+00,9.549e+00,1.049e+01,1.018e+01,9.135e+00,1.279e+01,1.149e+01,1.115e+01,1.131e+01,9.246e+00,1.087e+01,1.202e+01,1.265e+01,1.270e+01,1.246e+01,1.286e+01,1.729e+01,1.423e+01,1.242e+01,1.102e+01,1.404e+01,1.481e+01,1.577e+01,1.671e+01,1.499e+01,1.642e+01,1.614e+01,1.426e+01,1.764e+01,1.660e+01
1.523e-01,1.095e+00,5.871e-01,1.149e+00,1.294e+00,1.649e+00,2.122e+00,2.325e+00,3.755e+00,2.998e+00,3.483e+00,2.688e+00,4.310e+00,5.129e+00,4.681e+00,5.117e+00,4.312e+00,4.885e+00,6.405e+00,6.285e+00,5.954e+00,5.098e+00,7.597e+00,7.893e+00,8.121e+00,6.695e+00,1.007e+01,8.589e+00,8.549e+00,9.116e+00,8.530e+00,8.628e+00,8.930e+00,9.863e+00,9.979e+00,1.032e+01,8.172e+00,1.037e+01,1.011e+01,1.097e+01,1.010e+01,1.126e+01,9.655e+00,1.339e+01,1.397e+01,1.224e+01,1.288e+01,1.079e+01,1.161e+01,1.368e+01,1.346e+01,1.430e+01,1.426e+01,1.430e+01,1.788e+01,1.328e+01,1.152e+01,1.174e+01,1.304e+01,1.482e+01,1.531e+01,1.528e+01,1.521e+01,1.576e+01,1.726e+01,1.485e+01,1.789e+01,1.737e+01
1.086e-01,4.729e-01,6.062e-01,1.052e+00,1.048e+00,1.004e+00,1.724e+00,1.583e+00,2.829e+00,2.341e+00,2.233e+00,2.008e+00,3.326e+00,3.275e+00,3.616e+00,3.806e+00,2.475e+00,3.961e+00,6.001e+00,4.963e+00,5.102e+00,4.700e+00,5.916e+00,6.423e+00,6.306e+00,6.296e+00,7.758e+00,7.017e+00,7.046e+00,7.956e+00,6.963e+00,7.166e+00,9.052e+00,8.930e+00,8.206e+00,8.866e+00,6.782e+00,9.569e+00,8.572e+00,9.259e+00,9.871e+00,1.133e+01,9.502e+00,1.268e+01,1.171e+01,1.053e+01,1.258e+01,9.834e+00,1.031e+01,1.099e+01,1.346e+01,1.137e+01,1.300e+01,1.321e+01,1.648e+01,1.361e+01,1.188e+01,1.116e+01,1.184e+01,1.331e+01,1.408e+01,1.339e+01,1.437e+01,1.520e+01,1.498e+01,1.463e+01,1.494e+01,1.665e+01
1.425e-01,4.564e-01,6.153e-01,1.567e+00,1.444e+00,1.219e+00,2.170e+00,1.417e+00,2.729e+00,2.025e+00,3.066e+00,2.021e+00,3.970e+00,4.267e+00,3.641e+00,4.666e+00,3.646e+00,4.302e+00,6.042e+00,6.154e+00,5.248e+00,4.983e+00,6.840e+00,6.655e+00,7.210e+00,6.146e+00,7.884e+00,7.452e+00,7.361e+00,7.288e+00,7.794e+00,7.123e+00,8.125e+00,9.004e+00,7.870e+00,8.350e+00,7.281e+00,9.602e+00,9.715e+00,9.082e+00,8.666e+00,1.088e+01,7.892e+00,1.097e+01,1.184e+01,9.777e+00,1.096e+01,9.592e+00,1.035e+01,1.126e+01,1.252e+01,1.202e+01,1.332e+01,1.319e+01,1.683e+01,1.389e+01,1.227e+01,1.212e+01,1.366e+01,1.339e+01,1.551e+01,1.544e+01,1.470e+01,1.488e+01,1.567e+01,1.494e+01,1.831e+01,1.849e+01
1.193e-01,6.905e-01,6.487e-01,1.240e+00,1.139e+00,1.521e+00,1.792e+00,2.081e+00,3.834e+00,4.052e+00,3.486e+00,2.989e+00,3.750e+00,4.444e+00,4.034e+00,4.451e+00,3.575e+00,4.345e+00,5.152e+00,4.140e+00,5.335e+00,5.234e+00,6.479e+00,6.309e+00,6.498e+00,5.272e+00,8.429e+00,7.228e+00,7.781e+00,7.710e+00,6.725e+00,7.990e+00,7.397e+00,8.172e+00,8.499e+00,8.287e+00,6.375e+00,9.243e+00,8.984e+00,9.101e+00,1.020e+01,8.719e+00,8.877e+00,1.030e+01,1.079e+01,1.018e+01,1.077e+01,8.841e+00,1.135e+01,1.117e+01,1.163e+01,1.247e+01,1.209e+01,1.256e+01,1.666e+01,1.242e+01,1.194e+01,1.153e+01,1.353e+01,1.489e+01,1.420e+01,1.448e+01,1.410e+01,1.507e+01,1.530e+01,1.356e+01,1.720e+01,1.693e+01
