2.222e-01,6.440e-01,3.483e-01,7.142e-01,6.940e-01,9.610e-01,7.413e-01,6.113e-02,2.673e-01,1.158e-01,1.172e-02,6.607e-01,5.589e-01,5.702e-01,4.669e-01,2.128e-01,9.394e-01,2.630e-01,2.655e-01,2.063e-01,1.461e-01,9.383e-01,3.061e-01,6.587e-01,6.403e-01,1.491e-01,4.299e-01,9.801e-01,6.522e-01,6.706e-01,5.336e-01,8.031e-01,2.451e-01,3.431e-01,2.382e-01,2.383e-01,2.089e-02,8.280e-01,7.948e-01,8.388e-01,2.212e-01,8.654e-01,1.980e-02,6.560e-01,9.443e-01,1.946e-01,1.159e-01,7.209e-01,5.006e-01,7.339e-01,8.028e-01,1.283e-01,4.436e-01,9.369e-01,4.632e-01,9.824e-01,6.289e-02,7.282e-01,3.246e-01,4.113e-01,3.530e-01,3.059e-01,2.772e-01,5.482e-01,1.946e-02,9.730e-01,9.666e-01,3.023e-01,2.214e-02,8.776e-01,3.461e-01,2.210e-01,8.850e-01,9.399e-01,5.424e-01,2.468e-01,3.763e-01,5.255e-01,2.616e-01
1.588e-01,5.570e-01,3.418e-01,9.573e-01,1.078e+00,1.274e+00,1.356e+00,7.389e-01,5.491e-01,6.282e-01,7.340e-01,1.320e+00,7.525e-01,8.526e-01,1.016e+00,8.100e-01,9.675e-01,4.769e-01,1.017e+00,8.441e-01,8.556e-01,1.171e+00,1.162e+00,1.389e+00,8.486e-01,3.508e-01,1.293e+00,1.327e+00,1.226e+00,6.449e-01,1.078e+00,1.368e+00,1.101e+00,8.941e-01,1.071e+00,7.054e-01,7.609e-01,1.247e+00,8.624e-01,1.207e+00,7.234e-01,1.090e+00,8.891e-01,4.721e-01,1.476e+00,1.095e+00,7.634e-01,1.087e+00,4.284e-01,1.435e+00,1.123e+00,8.135e-01,4.959e-01,7.168e-01,1.044e+00,1.466e+00,5.613e-01,8.985e-01,5.071e-01,7.723e-01,3.660e-01,9.565e-01,4.427e-01,6.507e-01,9.083e-01,1.610e+00,7.705e-01,4.979e-01,6.828e-01,7.458e-01,6.845e-01,6.413e-01,1.146e+00,1.468e+00,7.493e-01,9.846e-01,5.282e-01,8.730e-01,1.144e+00
9.660e-02,3.733e-01,5.474e-01,1.001e+00,1.265e+00,1.116e+00,1.450e+00,8.257e-01,4.853e-01,1.347e+00,7.932e-01,1.788e+00,1.070e+00,1.389e+00,1.752e+00,1.106e+00,7.630e-01,8.033e-01,1.452e+00,8.882e-01,1.219e+00,1.281e+00,1.990e+00,1.965e+00,7.244e-01,5.864e-01,1.648e+00,1.627e+00,1.374e+00,1.257e+00,1.798e+00,1.897e+00,1.749e+00,1.396e+00,1.126e+00,9.664e-01,1.631e+00,1.522e+00,9.491e-01,1.175e+00,8.108e-01,1.818e+00,1.321e+00,1.099e+00,1.541e+00,1.951e+00,1.162e+00,1.789e+00,5.650e-01,1.359e+00,1.294e+00,1.319e+00,9.589e-01,1.231e+00,1.356e+00,1.923e+00,1.277e+00,1.555e+00,1.077e+00,7.221e-01,1.055e+00,1.441e+00,1.047e+00,1.192e+00,1.194e+00,1.835e+00,1.326e+00,5.458e-01,8.261e-01,1.011e+00,5.751e-01,1.321e+00,1.276e+00,1.762e+00,8.515e-01,1.585e+00,1.170e+00,1.437e+00,1.299e+00
7.768e-03,9.668e-02,3.074e-01,1.012e+00,9.056e-01,1.419e+00,1.612e+00,1.111e+00,8.485e-01,1.607e+00,1.033e+00,1.714e+00,1.024e+00,1.536e+00,1.560e+00,1.148e+00,1.156e+00,1.209e+00,1.712e+00,1.514e+00,1.848e+00,1.294e+00,2.409e+00,2.096e+00,1.323e+00,1.080e+00,1.700e+00,1.922e+00,1.451e+00,8.821e-01,1.376e+00,1.339e+00,1.909e+00,1.197e+00,1.126e+00,8.075e-01,1.512e+00,1.149e+00,1.027e+00,9.390e-01,1.073e+00,1.988e+00,1.152e+00,1.531e+00,1.124e+00,1.664e+00,1.741e+00,1.814e+00,9.515e-01,9.588e-01,1.344e+00,1.331e+00,1.209e+00,1.455e+00,1.525e+00,2.093e+00,1.325e+00,1.271e+00,7.704e-01,1.296e+00,1.598e+00,1.304e+00,9.132e-01,1.489e+00,1.194e+00,1.590e+00,9.062e-01,1.064e+00,1.106e+00,9.094e-01,1.196e+00,1.566e+00,1.341e+00,1.644e+00,9.963e-01,2.020e+00,7.838e-01,1.835e+00,1.104e+00
1.817e-01,5.913e-01,3.535e-01,1.245e+00,1.108e+00,1.965e+00,2.060e+00,1.344e+00,1.364e+00,1.872e+00,1.716e+00,1.844e+00,1.649e+00,2.255e+00,1.908e+00,1.193e+00,2.262e+00,1.787e+00,1.777e+00,1.850e+00,1.519e+00,1.622e+00,1.978e+00,2.141e+00,1.877e+00,8.810e-01,1.654e+00,2.981e+00,1.707e+00,1.105e+00,1.348e+00,1.749e+00,1.782e+00,1.169e+00,1.443e+00,1.408e+00,1.472e+00,1.654e+00,2.150e+00,1.548e+00,1.905e+00,2.027e+00,7.839e-01,2.148e+00,2.356e+00,1.007e+00,1.848e+00,2.353e+00,1.763e+00,2.054e+00,2.432e+00,9.876e-01,1.161e+00,2.364e+00,1.362e+00,2.368e+00,8.889e-01,2.019e+00,1.146e+00,1.820e+00,1.167e+00,1.733e+00,9.036e-01,1.797e+00,1.555e+00,2.489e+00,1.087e+00,1.405e+00,1.464e+00,1.665e+00,1.304e+00,1.279e+00,1.748e+00,1.917e+00,2.076e+00,2.276e+00,5.493e-01,1.939e+00,1.148e+00
1.708e-01,5.530e-01,5.747e-01,1.210e+00,1.277e+00,2.286e+00,2.343e+00,1.030e+00,1.608e+00,2.542e+00,1.346e+00,2.657e+00,1.679e+00,2.705e+00,2.157e+00,2.016e+00,1.723e+00,2.059e+00,2.293e+00,1.599e+00,1.380e+00,2.461e+00,2.580e+00,2.183e+00,1.336e+00,7.931e-01,2.275e+00,2.285e+00,2.453e+00,1.733e+00,2.517e+00,2.671e+00,2.029e+00,1.489e+00,1.749e+00,1.263e+00,1.978e+00,1.675e+00,2.370e+00,1.966e+00,1.184e+00,2.748e+00,1.703e+00,2.282e+00,2.705e+00,2.438e+00,2.076e+00,2.807e+00,1.146e+00,1.832e+00,2.212e+00,1.545e+00,1.349e+00,2.746e+00,1.852e+00,2.694e+00,1.638e+00,2.255e+00,1.548e+00,1.482e+00,1.855e+00,2.041e+00,1.819e+00,1.918e+00,1.569e+00,3.087e+00,1.973e+00,9.331e-01,1.910e+00,1.866e+00,1.815e+00,2.288e+00,1.627e+00,2.360e+00,1.778e+00,2.435e+00,1.786e+00,2.493e+00,1.591e+00
1.444e-01,4.687e-01,4.549e-01,1.171e+00,1.090e+00,1.877e+00,2.020e+00,8.943e-01,1.092e+00,2.145e+00,1.599e+00,2.770e+00,1.692e+00,2.212e+00,2.329e+00,1.931e+00,1.621e+00,1.512e+00,2.277e+00,1.733e+00,1.829e+00,2.412e+00,2.542e+00,2.321e+00,1.666e+00,1.443e+00,2.519e+00,2.497e+00,2.082e+00,2.137e+00,2.417e+00,1.951e+00,1.816e+00,1.555e+00,1.311e+00,9.260e-01,1.806e+00,1.402e+00,1.870e+00,1.471e+00,1.233e+00,2.844e+00,1.161e+00,2.405e+00,2.243e+00,2.300e+00,2.020e+00,2.571e+00,1.768e+00,2.050e+00,1.945e+00,1.209e+00,1.744e+00,2.876e+00,1.686e+00,2.513e+00,1.686e+00,2.208e+00,9.838e-01,1.864e+00,1.603e+00,1.611e+00,1.434e+00,2.329e+00,1.969e+00,2.581e+00,2.007e+00,1.877e+00,1.441e+00,2.255e+00,2.284e+00,2.565e+00,1.868e+00,2.363e+00,2.196e+00,2.282e+00,1.151e+00,2.895e+00,1.943e+00
1.255e-01,3.726e-01,4.589e-01,9.114e-01,8.573e-01,1.739e+00,1.828e+00,1.074e+00,1.403e+00,2.938e+00,1.612e+00,2.970e+00,1.970e+00,2.694e+00,2.324e+00,2.803e+00,1.951e+00,1.915e+00,2.436e+00,1.527e+00,2.409e+00,3.079e+00,2.413e+00,2.888e+00,1.738e+00,1.577e+00,3.141e+00,2.526e+00,2.545e+00,2.491e+00,3.282e+00,2.342e+00,2.561e+00,2.072e+00,1.825e+00,1.551e+00,2.650e+00,1.526e+00,2.150e+00,2.316e+00,1.381e+00,3.462e+00,1.611e+00,3.263e+00,2.610e+00,2.379e+00,2.413e+00,2.754e+00,1.792e+00,1.806e+00,2.610e+00,1.809e+00,2.630e+00,3.993e+00,1.652e+00,2.499e+00,2.502e+00,2.884e+00,1.625e+00,1.907e+00,1.923e+00,2.479e+00,2.695e+00,2.442e+00,2.352e+00,3.411e+00,2.264e+00,2.510e+00,1.665e+00,2.891e+00,2.284e+00,2.747e+00,2.534e+00,2.214e+00,2.680e+00,2.656e+00,1.931e+00,3.137e+00,2.324e+00
2.005e-01,6.273e-01,5.029e-01,1.168e+00,1.155e+00,1.889e+00,1.918e+00,9.689e-01,1.445e+00,2.784e+00,1.337e+00,2.748e+00,1.853e+00,2.382e+00,2.857e+00,2.103e+00,2.478e+00,1.858e+00,2.537e+00,1.479e+00,2.193e+00,3.387e+00,2.727e+00,2.711e+00,2.265e+00,1.673e+00,3.229e+00,2.436e+00,2.813e+00,2.831e+00,2.752e+00,2.565e+00,2.756e+00,1.847e+00,1.753e+00,1.309e+00,2.541e+00,1.651e+00,2.035e+00,2.969e+00,2.211e+00,3.442e+00,1.503e+00,2.864e+00,2.728e+00,2.172e+00,1.976e+00,2.893e+00,2.201e+00,2.766e+00,2.489e+00,2.215e+00,1.945e+00,3.677e+00,1.871e+00,2.826e+00,1.829e+00,2.477e+00,1.248e+00,2.329e+00,1.908e+00,2.231e+00,2.049e+00,2.822e+00,2.141e+00,2.914e+00,2.790e+00,2.076e+00,1.362e+00,2.315e+00,1.914e+00,2.909e+00,2.542e+00,2.454e+00,2.466e+00,2.872e+00,1.727e+00,2.740e+00,1.841e+00
1.494e-01,4.869e-01,5.552e-01,1.110e+00,1.213e+00,1.966e+00,2.217e+00,1.189e+00,1.671e+00,3.244e+00,2.104e+00,3.786e+00,2.142e+00,3.996e+00,3.377e+00,3.067e+00,2.608e+00,2.635e+00,3.566e+00,2.301e+00,2.788e+00,3.482e+00,3.221e+00,3.341e+00,2.152e+00,1.573e+00,3.259e+00,3.309e+00,3.273e+00,3.135e+00,3.310e+00,3.422e+00,2.720e+00,2.351e+00,2.393e+00,2.444e+00,2.953e+00,2.456e+00,2.647e+00,3.317e+00,2.846e+00,3.607e+00,2.147e+00,3.042e+00,3.646e+00,2.497e+00,3.295e+00,3.658e+00,2.319e+00,2.654e+00,3.493e+00,2.427e+00,1.799e+00,3.726e+00,2.703e+00,2.992e+00,2.670e+00,3.390e+00,2.544e+00,2.322e+00,2.144e+00,3.095e+00,2.545e+00,3.126e+00,2.825e+00,3.482e+00,3.130e+00,2.187e+00,2.253e+00,3.077e+00,1.948e+00,3.057e+00,2.897e+00,2.692e+00,3.300e+00,3.448e+00,2.237e+00,3.177e+00,1.998e+00
3.143e-02,1.216e-01,1.000e-01,7.108e-01,4.589e-01,1.748e+00,1.781e+00,1.395e+00,1.904e+00,3.355e+00,2.828e+00,2.932e+00,2.693e+00,3.542e+00,2.810e+00,3.351e+00,2.949e+00,3.245e+00,3.725e+00,2.894e+00,3.906e+00,4.173e+00,3.689e+00,2.959e+00,3.370e+00,2.720e+00,4.448e+00,3.246e+00,3.692e+00,2.505e+00,3.601e+00,2.182e+00,3.592e+00,2.279e+00,2.607e+00,2.010e+00,3.388e+00,1.517e+00,2.149e+00,3.638e+00,2.956e+00,3.406e+00,2.518e+00,3.335e+00,2.943e+00,2.759e+00,2.964e+00,2.834e+00,2.716e+00,3.000e+00,3.608e+00,2.509e+00,3.301e+00,4.310e+00,2.834e+00,2.947e+00,3.060e+00,3.458e+00,1.723e+00,3.069e+00,2.553e+00,3.532e+00,2.595e+00,3.660e+00,2.928e+00,4.023e+00,2.208e+00,3.023e+00,2.541e+00,2.830e+00,3.393e+00,3.172e+00,2.946e+00,2.210e+00,3.095e+00,3.707e+00,2.389e+00,3.936e+00,2.139e+00
1.273e-01,3.926e-01,3.698e-01,7.154e-01,7.781e-01,1.002e+00,1.199e+00,1.064e+00,9.274e-01,2.033e+00,1.544e+00,2.771e+00,2.626e+00,2.642e+00,2.078e+00,2.274e+00,2.782e+00,2.254e+00,2.734e+00,1.987e+00,3.001e+00,2.497e+00,2.314e+00,2.724e+00,2.452e+00,1.784e+00,2.947e+00,2.789e+00,1.970e+00,1.948e+00,2.696e+00,2.820e+00,3.032e+00,2.266e+00,1.753e+00,2.610e+00,3.006e+00,2.701e+00,2.307e+00,2.403e+00,2.285e+00,2.781e+00,1.580e+00,3.354e+00,2.881e+00,1.340e+00,2.435e+00,2.788e+00,2.430e+00,1.863e+00,3.492e+00,1.951e+00,2.055e+00,3.540e+00,1.774e+00,2.599e+00,2.402e+00,2.911e+00,2.093e+00,1.732e+00,2.100e+00,3.393e+00,2.880e+00,2.750e+00,2.048e+00,3.344e+00,2.398e+00,2.203e+00,1.580e+00,2.768e+00,9.625e-01,2.117e+00,3.135e+00,1.957e+00,2.595e+00,2.926e+00,1.588e+00,2.114e+00,1.784e+00
5.110e-03,9.589e-02,2.149e-01,5.289e-01,6.833e-01,1.218e+00,1.567e+00,1.188e+00,1.262e+00,2.641e+00,2.446e+00,3.487e+00,3.185e+00,3.382e+00,2.655e+00,4.123e+00,2.885e+00,2.866e+00,3.664e+00,3.120e+00,3.841e+00,3.455e+00,3.794e+00,3.198e+00,2.410e+00,2.332e+00,5.017e+00,3.085e+00,2.996e+00,2.854e+00,4.605e+00,3.552e+00,4.188e+00,2.760e+00,2.717e+00,2.769e+00,3.659e+00,2.814e+00,2.120e+00,3.173e+00,2.189e+00,3.844e+00,3.649e+00,2.859e+00,3.263e+00,3.352e+00,3.504e+00,2.805e+00,2.899e+00,2.968e+00,3.567e+00,3.324e+00,3.446e+00,3.388e+00,2.731e+00,3.397e+00,3.790e+00,3.938e+00,1.989e+00,2.746e+00,2.041e+00,4.598e+00,3.592e+00,2.865e+00,3.379e+00,4.159e+00,2.402e+00,2.913e+00,2.517e+00,3.092e+00,2.747e+00,3.450e+00,3.087e+00,2.301e+00,2.749e+00,3.597e+00,2.732e+00,3.649e+00,3.246e+00
2.014e-01,6.167e-01,4.551e-01,9.438e-01,9.907e-01,1.578e+00,1.602e+00,9.681e-01,1.200e+00,2.284e+00,2.181e+00,3.326e+00,2.882e+00,3.935e+00,2.761e+00,3.705e+00,3.860e+00,3.468e+00,3.552e+00,2.634e+00,4.427e+00,4.692e+00,3.410e+00,4.023e+00,2.995e+00,2.524e+00,5.071e+00,4.005e+00,4.083e+00,3.448e+00,4.223e+00,3.222e+00,3.847e+00,2.726e+00,2.689e+00,3.052e+00,3.622e+00,2.837e+00,2.482e+00,4.283e+00,3.072e+00,4.064e+00,2.995e+00,3.993e+00,3.847e+00,2.913e+00,3.044e+00,3.691e+00,2.902e+00,3.553e+00,4.855e+00,3.241e+00,3.569e+00,4.284e+00,3.680e+00,3.330e+00,3.534e+00,4.655e+00,2.472e+00,2.753e+00,2.921e+00,3.890e+00,3.183e+00,4.212e+00,3.391e+00,5.135e+00,3.747e+00,3.107e+00,2.728e+00,4.340e+00,2.865e+00,2.605e+00,3.666e+00,3.481e+00,3.888e+00,3.241e+00,3.302e+00,3.881e+00,3.259e+00
1.551e-01,4.670e-01,3.470e-01,1.065e+00,8.368e-01,1.902e+00,1.877e+00,9.550e-01,1.306e+00,2.290e+00,1.902e+00,3.622e+00,2.790e+00,3.724e+00,2.808e+00,4.390e+00,4.454e+00,3.010e+00,3.564e+00,3.515e+00,4.313e+00,4.493e+00,3.552e+00,4.247e+00,3.097e+00,2.652e+00,4.922e+00,4.458e+00,3.443e+00,3.477e+00,4.284e+00,3.358e+00,3.566e+00,3.131e+00,2.182e+00,3.035e+00,2.882e+00,3.245e+00,3.064e+00,3.835e+00,3.560e+00,5.263e+00,3.095e+00,3.836e+00,4.032e+00,2.683e+00,4.336e+00,4.281e+00,4.159e+00,3.751e+00,4.869e+00,3.779e+00,3.384e+00,4.691e+00,3.157e+00,4.124e+00,3.357e+00,4.736e+00,2.517e+00,3.499e+00,3.329e+00,4.024e+00,3.906e+00,4.064e+00,3.220e+00,3.809e+00,3.584e+00,3.845e+00,2.659e+00,4.787e+00,3.757e+00,4.093e+00,3.963e+00,3.366e+00,3.629e+00,3.853e+00,3.142e+00,4.006e+00,3.774e+00
2.000e-01,6.112e-01,5.268e-01,9.938e-01,1.074e+00,1.639e+00,1.769e+00,8.634e-01,1.353e+00,3.037e+00,2.500e+00,3.971e+00,3.750e+00,4.247e+00,3.849e+00,5.102e+00,5.188e+00,4.633e+00,4.588e+00,3.674e+00,5.224e+00,6.481e+00,4.581e+00,4.508e+00,4.109e+00,3.837e+00,6.528e+00,4.941e+00,4.931e+00,4.524e+00,5.803e+00,4.762e+00,4.985e+00,4.240e+00,3.162e+00,3.847e+00,4.507e+00,4.185e+00,3.328e+00,5.419e+00,4.034e+00,5.455e+00,4.641e+00,5.587e+00,4.699e+00,4.217e+00,4.367e+00,5.486e+00,4.831e+00,5.560e+00,5.810e+00,4.648e+00,4.822e+00,5.914e+00,4.619e+00,4.784e+00,4.404e+00,5.850e+00,3.385e+00,4.607e+00,3.817e+00,5.185e+00,5.021e+00,6.278e+00,3.888e+00,5.483e+00,5.091e+00,4.661e+00,3.204e+00,5.921e+00,4.293e+00,5.364e+00,4.412e+00,4.638e+00,4.757e+00,5.200e+00,4.847e+00,4.901e+00,4.752e+00
7.834e-02,2.794e-01,3.623e-01,1.021e+00,9.446e-01,2.104e+00,2.355e+00,1.426e+00,1.979e+00,3.651e+00,3.083e+00,4.002e+00,4.175e+00,4.690e+00,3.812e+00,4.387e+00,4.901e+00,4.538e+00,5.683e+00,4.329e+00,5.120e+00,5.069e+00,5.439e+00,4.703e+00,4.671e+00,3.307e+00,6.078e+00,5.449e+00,4.681e+00,4.394e+00,5.271e+00,4.191e+00,5.849e+00,3.748e+00,3.132e+00,4.090e+00,4.542e+00,4.231e+00,4.286e+00,4.867e+00,4.303e+00,5.287e+00,4.052e+00,4.578e+00,5.112e+00,3.883e+00,4.608e+00,4.677e+00,4.885e+00,4.491e+00,5.099e+00,4.411e+00,4.690e+00,5.328e+00,3.937e+00,5.627e+00,4.213e+00,5.996e+00,2.753e+00,4.691e+00,4.016e+00,6.246e+00,5.083e+00,5.146e+00,4.251e+00,5.743e+00,4.033e+00,3.647e+00,3.540e+00,4.569e+00,3.944e+00,5.166e+00,4.320e+00,3.620e+00,3.920e+00,5.840e+00,3.657e+00,5.841e+00,3.655e+00
1.252e-01,4.424e-01,5.158e-01,1.325e+00,1.305e+00,2.511e+00,2.763e+00,1.552e+00,2.018e+00,3.794e+00,2.888e+00,4.288e+00,3.345e+00,4.591e+00,3.894e+00,5.307e+00,4.913e+00,5.073e+00,5.469e+00,4.857e+00,5.939e+00,6.499e+00,5.616e+00,5.477e+00,4.790e+00,4.327e+00,7.085e+00,6.043e+00,6.151e+00,5.545e+00,5.898e+00,4.889e+00,5.774e+00,4.940e+00,4.700e+00,4.690e+00,4.812e+00,4.669e+00,4.467e+00,6.032e+00,4.208e+00,6.540e+00,5.023e+00,5.419e+00,5.968e+00,4.643e+00,5.567e+00,6.087e+00,4.874e+00,5.076e+00,5.674e+00,4.883e+00,5.696e+00,6.348e+00,5.398e+00,5.940e+00,4.894e+00,6.215e+00,3.904e+00,5.316e+00,4.033e+00,6.330e+00,5.689e+00,5.879e+00,5.517e+00,6.724e+00,4.942e+00,5.381e+00,3.679e+00,6.451e+00,5.437e+00,6.494e+00,4.302e+00,4.886e+00,5.618e+00,6.131e+00,4.698e+00,6.618e+00,5.678e+00
1.258e-01,4.139e-01,3.165e-01,8.222e-01,8.244e-01,1.422e+00,1.434e+00,9.462e-01,1.212e+00,2.225e+00,1.972e+00,3.116e+00,2.982e+00,3.601e+00,2.749e+00,3.906e+00,4.176e+00,3.641e+00,5.100e+00,4.379e+00,5.962e+00,5.908e+00,4.752e+00,5.062e+00,4.658e+00,4.147e+00,6.120e+00,4.747e+00,5.255e+00,4.733e+00,4.780e+00,4.531e+00,5.807e+00,4.216e+00,4.009e+00,4.192e+00,4.462e+00,3.924e+00,3.189e+00,5.976e+00,3.877e+00,5.076e+00,4.103e+00,4.436e+00,4.649e+00,3.367e+00,4.005e+00,3.916e+00,4.576e+00,4.585e+00,5.627e+00,4.619e+00,5.325e+00,4.426e+00,4.711e+00,4.996e+00,4.166e+00,5.409e+00,2.785e+00,4.644e+00,3.154e+00,5.607e+00,4.091e+00,4.383e+00,4.498e+00,5.528e+00,3.908e+00,4.435e+00,3.110e+00,5.238e+00,3.855e+00,3.941e+00,4.570e+00,3.641e+00,4.586e+00,5.141e+00,4.227e+00,4.766e+00,3.500e+00
1.371e-01,4.779e-01,3.869e-01,1.321e+00,1.177e+00,2.045e+00,2.100e+00,1.524e+00,1.519e+00,2.535e+00,1.906e+00,2.980e+00,3.341e+00,3.388e+00,2.955e+00,4.598e+00,5.976e+00,4.441e+00,4.689e+00,5.331e+00,6.506e+00,7.006e+00,5.673e+00,6.316e+00,5.240e+00,4.376e+00,7.006e+00,6.339e+00,5.509e+00,4.723e+00,5.381e+00,5.194e+00,6.425e+00,4.821e+00,4.240e+00,5.273e+00,4.802e+00,5.473e+00,4.669e+00,6.496e+00,4.770e+00,5.890e+00,5.369e+00,6.515e+00,5.792e+00,4.527e+00,5.384e+00,6.327e+00,5.714e+00,6.447e+00,6.990e+00,5.861e+00,5.536e+00,5.839e+00,5.337e+00,6.984e+00,4.265e+00,6.503e+00,3.900e+00,5.724e+00,4.452e+00,5.913e+00,6.033e+00,5.795e+00,4.584e+00,5.915e+00,4.693e+00,5.450e+00,3.932e+00,5.941e+00,4.896e+00,5.267e+00,5.732e+00,5.047e+00,4.642e+00,6.542e+00,5.355e+00,5.190e+00,5.701e+00
9.415e-02,3.656e-01,2.633e-01,1.166e+00,1.028e+00,2.447e+00,2.501e+00,1.692e+00,2.256e+00,3.512e+00,2.545e+00,3.677e+00,2.692e+00,4.370e+00,3.423e+00,4.610e+00,5.065e+00,4.578e+00,5.644e+00,5.060e+00,7.357e+00,7.442e+00,6.411e+00,6.728e+00,5.523e+00,5.017e+00,7.474e+00,5.758e+00,7.036e+00,5.685e+00,5.835e+00,5.394e+00,7.107e+00,4.563e+00,5.672e+00,5.469e+00,5.059e+00,4.869e+00,5.182e+00,8.012e+00,5.731e+00,6.890e+00,5.287e+00,5.620e+00,6.996e+00,4.192e+00,6.071e+00,5.743e+00,5.086e+00,5.369e+00,6.408e+00,6.216e+00,5.365e+00,6.565e+00,5.684e+00,6.245e+00,4.762e+00,6.027e+00,3.851e+00,5.777e+00,4.521e+00,6.708e+00,5.627e+00,5.497e+00,5.811e+00,6.888e+00,4.999e+00,5.052e+00,4.919e+00,6.513e+00,5.745e+00,5.685e+00,5.498e+00,4.431e+00,5.460e+00,6.977e+00,4.524e+00,6.026e+00,5.521e+00
3.691e-02,1.313e-01,3.064e-01,6.401e-01,6.506e-01,1.051e+00,1.439e+00,1.312e+00,1.415e+00,3.499e+00,2.664e+00,3.678e+00,3.373e+00,3.973e+00,3.688e+00,3.986e+00,4.333e+00,3.978e+00,5.562e+00,3.888e+00,6.541e+00,7.045e+00,6.326e+00,5.950e+00,5.995e+00,5.156e+00,6.480e+00,5.112e+00,6.049e+00,5.744e+00,6.143e+00,5.932e+00,7.049e+00,5.040e+00,4.900e+00,5.611e+00,5.778e+00,4.814e+00,4.595e+00,6.899e+00,5.519e+00,6.206e+00,4.274e+00,6.616e+00,5.742e+00,4.393e+00,5.806e+00,5.394e+00,5.465e+00,5.268e+00,6.724e+00,5.553e+00,5.875e+00,7.288e+00,4.442e+00,5.426e+00,4.645e+00,6.544e+00,4.059e+00,5.580e+00,4.750e+00,6.426e+00,6.073e+00,6.815e+00,4.774e+00,5.887e+00,4.914e+00,5.220e+00,4.973e+00,6.157e+00,4.111e+00,5.158e+00,6.279e+00,4.265e+00,5.536e+00,7.133e+00,4.366e+00,5.809e+00,4.509e+00
5.251e-02,2.185e-01,3.839e-01,7.665e-01,9.186e-01,1.450e+00,1.764e+00,1.078e+00,1.489e+00,3.025e+00,2.390e+00,2.794e+00,2.991e+00,3.370e+00,3.148e+00,3.409e+00,3.544e+00,4.279e+00,4.789e+00,3.898e+00,5.041e+00,5.987e+00,5.486e+00,4.756e+00,5.148e+00,4.739e+00,5.662e+00,4.538e+00,5.966e+00,4.541e+00,5.942e+00,5.903e+00,6.387e+00,4.842e+00,4.072e+00,4.514e+00,5.488e+00,4.485e+00,4.544e+00,6.131e+00,4.539e+00,5.184e+00,5.352e+00,5.682e+00,5.003e+00,4.849e+00,4.660e+00,5.254e+00,5.003e+00,5.922e+00,5.151e+00,4.688e+00,5.445e+00,5.310e+00,4.893e+00,5.890e+00,4.731e+00,5.396e+00,4.098e+00,5.128e+00,4.079e+00,6.074e+00,5.106e+00,6.138e+00,4.039e+00,6.138e+00,4.913e+00,4.202e+00,4.482e+00,5.752e+00,4.973e+00,5.161e+00,4.629e+00,4.692e+00,4.184e+00,6.936e+00,4.978e+00,5.234e+00,4.925e+00
8.742e-02,2.663e-01,3.079e-01,5.445e-01,6.043e-01,1.267e+00,1.546e+00,9.327e-01,1.543e+00,3.344e+00,2.162e+00,2.821e+00,2.802e+00,3.601e+00,3.510e+00,4.650e+00,4.695e+00,4.212e+00,3.867e+00,3.904e+00,5.203e+00,7.174e+00,5.691e+00,6.127e+00,5.542e+00,5.402e+00,7.671e+00,5.481e+00,6.256e+00,7.060e+00,7.489e+00,6.588e+00,6.665e+00,5.622e+00,5.818e+00,5.557e+00,5.123e+00,5.320e+00,5.213e+00,7.864e+00,5.502e+00,7.917e+00,5.348e+00,6.444e+00,6.229e+00,5.154e+00,6.159e+00,6.953e+00,6.747e+00,7.401e+00,6.914e+00,6.352e+00,6.443e+00,8.372e+00,5.344e+00,6.011e+00,5.102e+00,7.491e+00,4.766e+00,6.572e+00,4.487e+00,6.129e+00,7.128e+00,6.718e+00,5.622e+00,6.225e+00,5.351e+00,6.463e+00,5.069e+00,7.438e+00,6.114e+00,6.369e+00,5.173e+00,4.855e+00,6.096e+00,6.559e+00,6.016e+00,6.619e+00,7.037e+00
2.072e-02,8.373e-02,9.111e-02,2.193e-01,2.629e-01,9.493e-01,1.030e+00,4.421e-01,1.080e+00,1.865e+00,1.628e+00,2.517e+00,2.475e+00,2.681e+00,1.983e+00,3.360e+00,3.062e+00,3.232e+00,3.912e+00,4.368e+00,5.023e+00,6.173e+00,5.260e+00,4.503e+00,5.863e+00,5.022e+00,7.308e+00,4.429e+00,5.424e+00,5.510e+00,6.590e+00,6.030e+00,5.618e+00,4.466e+00,5.003e+00,4.877e+00,5.159e+00,5.048e+00,4.867e+00,7.035e+00,4.404e+00,6.079e+00,4.889e+00,5.326e+00,6.332e+00,5.199e+00,4.806e+00,6.246e+00,5.088e+00,6.440e+00,6.927e+00,5.439e+00,5.285e+00,6.128e+00,4.914e+00,5.940e+00,5.148e+00,6.405e+00,3.970e+00,5.114e+00,5.248e+00,5.287e+00,6.039e+00,5.666e+00,5.141e+00,5.694e+00,4.898e+00,5.203e+00,5.186e+00,6.017e+00,6.291e+00,5.610e+00,5.481e+00,4.161e+00,4.687e+00,5.875e+00,5.407e+00,5.033e+00,5.478e+00
1.922e-01,5.711e-01,3.356e-01,9.610e-01,8.227e-01,1.850e+00,1.800e+00,1.319e+00,1.777e+00,2.846e+00,2.493e+00,2.454e+00,3.450e+00,4.436e+00,3.049e+00,3.760e+00,5.465e+00,5.004e+00,4.430e+00,4.323e+00,6.380e+00,6.396e+00,5.770e+00,6.188e+00,6.967e+00,6.095e+00,8.624e+00,7.227e+00,6.925e+00,7.027e+00,7.395e+00,6.013e+00,8.354e+00,5.310e+00,6.040e+00,6.358e+00,6.593e+00,5.993e+00,5.224e+00,8.560e+00,6.161e+00,8.213e+00,5.055e+00,6.767e+00,7.142e+00,4.792e+00,5.782e+00,6.587e+00,6.404e+00,6.232e+00,7.942e+00,6.501e+00,7.599e+00,7.567e+00,5.926e+00,6.653e+00,6.567e+00,8.776e+00,3.994e+00,6.612e+00,5.539e+00,7.625e+00,6.973e+00,7.350e+00,7.141e+00,8.299e+00,6.138e+00,6.920e+00,4.689e+00,7.360e+00,6.009e+00,6.052e+00,5.879e+00,5.174e+00,6.441e+00,6.556e+00,5.984e+00,7.570e+00,6.399e+00
5.807e-02,2.217e-01,2.583e-01,9.180e-01,7.977e-01,1.833e+00,2.139e+00,1.733e+00,1.859e+00,3.625e+00,3.469e+00,4.119e+00,4.465e+00,4.889e+00,3.767e+00,5.404e+00,5.825e+00,5.293e+00,6.318e+00,5.837e+00,7.600e+00,7.114e+00,6.514e+00,7.149e+00,7.697e+00,6.428e+00,1.042e+01,8.006e+00,7.802e+00,7.652e+00,9.009e+00,6.392e+00,8.779e+00,7.425e+00,6.239e+00,7.419e+00,7.680e+00,6.726e+00,6.616e+00,8.762e+00,7.035e+00,9.019e+00,5.878e+00,8.041e+00,8.740e+00,6.493e+00,6.859e+00,8.608e+00,7.988e+00,8.078e+00,9.487e+00,7.266e+00,8.143e+00,9.246e+00,6.495e+00,8.594e+00,7.833e+00,9.964e+00,5.124e+00,7.199e+00,6.999e+00,9.075e+00,8.393e+00,8.454e+00,8.087e+00,9.538e+00,7.142e+00,7.886e+00,5.519e+00,8.340e+00,7.422e+00,7.562e+00,7.592e+00,5.702e+00,7.667e+00,8.257e+00,7.205e+00,9.140e+00,7.896e+00
4.744e-02,1.858e-01,4.264e-01,7.487e-01,8.924e-01,1.214e+00,1.593e+00,1.021e+00,1.263e+00,3.032e+00,2.639e+00,3.225e+00,3.294e+00,4.394e+00,3.803e+00,4.883e+00,4.659e+00,4.628e+00,5.817e+00,5.813e+00,6.986e+00,8.133e+00,7.274e+00,7.246e+00,7.285e+00,6.962e+00,9.091e+00,8.342e+00,8.994e+00,9.586e+00,1.000e+01,7.777e+00,8.671e+00,8.728e+00,6.778e+00,8.592e+00,7.643e+00,7.490e+00,7.319e+00,1.006e+01,7.739e+00,9.302e+00,7.733e+00,8.522e+00,9.288e+00,7.939e+00,7.926e+00,8.359e+00,8.720e+00,9.416e+00,9.199e+00,7.681e+00,9.072e+00,9.132e+00,8.285e+00,9.867e+00,7.711e+00,9.984e+00,6.746e+00,7.865e+00,6.941e+00,9.964e+00,8.985e+00,9.327e+00,8.286e+00,9.464e+00,8.377e+00,8.320e+00,6.122e+00,8.691e+00,7.456e+00,7.599e+00,8.478e+00,6.860e+00,7.463e+00,9.209e+00,9.341e+00,1.007e+01,8.658e+00
4.817e-02,1.869e-01,4.095e-01,9.306e-01,9.378e-01,1.710e+00,2.097e+00,1.397e+00,1.799e+00,3.839e+00,2.867e+00,4.111e+00,3.721e+00,4.837e+00,4.185e+00,4.552e+00,5.094e+00,5.656e+00,5.602e+00,4.909e+00,6.711e+00,6.555e+00,6.332e+00,6.031e+00,6.783e+00,6.106e+00,8.522e+00,6.706e+00,6.724e+00,7.097e+00,8.786e+00,7.266e+00,8.154e+00,6.447e+00,6.199e+00,6.566e+00,7.414e+00,6.680e+00,6.248e+00,8.645e+00,6.230e+00,8.710e+00,6.314e+00,8.028e+00,7.708e+00,6.025e+00,7.219e+00,8.361e+00,7.252e+00,7.281e+00,7.935e+00,7.074e+00,7.762e+00,8.757e+00,6.835e+00,8.209e+00,7.624e+00,7.701e+00,5.692e+00,7.173e+00,6.905e+00,7.829e+00,7.654e+00,8.711e+00,7.204e+00,7.990e+00,6.925e+00,7.393e+00,5.420e+00,8.840e+00,6.496e+00,7.886e+00,6.800e+00,6.014e+00,7.764e+00,9.058e+00,6.632e+00,7.233e+00,6.727e+00
6.650e-02,2.336e-01,4.265e-01,9.793e-01,9.349e-01,1.562e+00,1.775e+00,1.386e+00,1.524e+00,3.477e+00,2.267e+00,3.971e+00,3.492e+00,4.327e+00,3.756e+00,4.959e+00,5.135e+00,4.402e+00,5.189e+00,4.748e+00,7.230e+00,7.603e+00,6.851e+00,6.943e+00,6.293e+00,6.108e+00,8.246e+00,6.528e+00,7.258e+00,7.913e+00,9.716e+00,8.249e+00,8.923e+00,7.558e+00,6.471e+00,7.526e+00,7.373e+00,7.089e+00,6.420e+00,9.444e+00,6.269e+00,8.283e+00,6.990e+00,8.569e+00,8.056e+00,6.887e+00,7.835e+00,7.699e+00,8.025e+00,7.167e+00,7.831e+00,7.517e+00,7.849e+00,8.456e+00,6.412e+00,9.040e+00,7.589e+00,7.805e+00,5.777e+00,7.509e+00,6.801e+00,8.569e+00,8.043e+00,8.253e+00,7.048e+00,8.454e+00,7.857e+00,8.093e+00,5.897e+00,7.950e+00,6.380e+00,7.281e+00,8.586e+00,6.593e+00,6.570e+00,9.381e+00,6.923e+00,7.749e+00,7.336e+00
1.096e-02,5.627e-02,5.722e-02,5.020e-01,3.155e-01,1.361e+00,1.405e+00,7.558e-01,1.239e+00,1.979e+00,1.939e+00,2.704e+00,2.382e+00,3.358e+00,2.223e+00,3.663e+00,3.826e+00,3.554e+00,3.946e+00,4.218e+00,5.153e+00,5.175e+00,4.826e+00,4.871e+00,5.010e+00,4.565e+00,6.570e+00,5.496e+00,5.721e+00,6.476e+00,8.969e+00,6.229e+00,7.035e+00,6.045e+00,5.687e+00,7.008e+00,5.823e+00,6.021e+00,6.437e+00,8.336e+00,5.264e+00,7.085e+00,5.849e+00,6.308e+00,7.276e+00,6.543e+00,7.165e+00,6.654e+00,7.360e+00,7.177e+00,7.229e+00,5.978e+00,6.911e+00,7.274e+00,6.461e+00,8.132e+00,7.132e+00,6.970e+00,5.373e+00,7.058e+00,6.801e+00,6.915e+00,6.511e+00,6.701e+00,6.951e+00,8.205e+00,6.878e+00,7.474e+00,5.906e+00,7.719e+00,7.038e+00,6.826e+00,7.122e+00,6.157e+00,6.400e+00,8.497e+00,6.630e+00,7.679e+00,6.719e+00
9.499e-02,3.569e-01,4.519e-01,9.248e-01,1.109e+00,1.703e+00,2.090e+00,1.088e+00,1.507e+00,3.201e+00,2.494e+00,3.757e+00,3.335e+00,3.885e+00,3.751e+00,4.045e+00,4.159e+00,4.208e+00,5.286e+00,4.462e+00,6.090e+00,7.197e+00,6.625e+00,6.672e+00,6.333e+00,6.445e+00,8.710e+00,5.881e+00,7.315e+00,7.539e+00,9.152e+00,7.975e+00,9.276e+00,7.339e+00,6.460e+00,7.075e+00,8.018e+00,6.894e+00,6.507e+00,8.867e+00,6.680e+00,9.497e+00,6.423e+00,8.673e+00,8.277e+00,7.864e+00,7.274e+00,8.711e+00,8.254e+00,9.317e+00,9.157e+00,7.282e+00,7.278e+00,8.751e+00,6.575e+00,8.351e+00,7.912e+00,9.394e+00,5.331e+00,7.236e+00,7.276e+00,7.770e+00,7.290e+00,8.888e+00,8.295e+00,9.028e+00,7.508e+00,7.093e+00,6.759e+00,8.362e+00,8.208e+00,7.966e+00,7.133e+00,7.213e+00,7.196e+00,9.034e+00,8.257e+00,8.579e+00,8.771e+00
1.690e-01,5.009e-01,3.749e-01,7.916e-01,7.664e-01,1.111e+00,1.181e+00,4.840e-01,7.949e-01,1.901e+00,1.792e+00,2.792e+00,3.396e+00,3.167e+00,3.046e+00,3.837e+00,5.038e+00,4.402e+00,4.211e+00,4.240e+00,6.090e+00,6.466e+00,5.439e+00,5.368e+00,6.871e+00,6.623e+00,8.602e+00,6.292e+00,6.016e+00,6.816e+00,8.481e+00,6.727e+00,8.256e+00,6.592e+00,6.139e+00,6.593e+00,6.943e+00,7.816e+00,5.916e+00,9.240e+00,6.513e+00,8.933e+00,6.043e+00,7.509e+00,7.100e+00,6.313e+00,6.220e+00,8.416e+00,7.833e+00,8.071e+00,8.266e+00,7.495e+00,7.598e+00,8.670e+00,6.669e+00,8.078e+00,7.824e+00,9.302e+00,5.209e+00,7.502e+00,6.853e+00,7.931e+00,7.755e+00,8.867e+00,6.885e+00,7.801e+00,8.459e+00,7.887e+00,4.944e+00,9.370e+00,7.393e+00,9.069e+00,6.870e+00,7.024e+00,7.517e+00,8.500e+00,7.353e+00,7.846e+00,7.753e+00
5.065e-02,1.480e-01,3.090e-01,3.641e-01,4.930e-01,7.198e-01,1.071e+00,5.881e-01,1.054e+00,2.738e+00,2.334e+00,2.880e+00,2.458e+00,3.955e+00,3.446e+00,3.821e+00,3.760e+00,3.951e+00,4.943e+00,4.203e+00,5.856e+00,6.852e+00,5.488e+00,6.290e+00,5.809e+00,5.790e+00,7.525e+00,6.194e+00,6.866e+00,8.396e+00,9.211e+00,6.792e+00,8.119e+00,8.798e+00,7.811e+00,8.775e+00,7.380e+00,8.687e+00,8.086e+00,1.091e+01,7.852e+00,8.755e+00,6.451e+00,8.604e+00,9.750e+00,7.899e+00,8.217e+00,9.996e+00,9.051e+00,9.561e+00,9.208e+00,7.124e+00,7.576e+00,1.000e+01,7.650e+00,8.987e+00,8.236e+00,1.082e+01,7.629e+00,8.625e+00,7.898e+00,8.463e+00,8.081e+00,9.061e+00,8.917e+00,9.256e+00,8.416e+00,8.677e+00,6.480e+00,9.405e+00,8.062e+00,8.662e+00,7.705e+00,7.319e+00,9.539e+00,9.847e+00,8.830e+00,1.044e+01,8.124e+00
1.792e-01,5.555e-01,3.764e-01,1.163e+00,9.993e-01,2.267e+00,2.367e+00,1.564e+00,1.972e+00,3.330e+00,3.038e+00,3.860e+00,3.678e+00,4.595e+00,3.360e+00,4.421e+00,4.741e+00,4.188e+00,4.735e+00,4.875e+00,6.105e+00,6.999e+00,6.421e+00,6.090e+00,6.986e+00,5.448e+00,7.896e+00,6.796e+00,6.584e+00,6.809e+00,9.020e+00,7.532e+00,8.339e+00,7.042e+00,8.389e+00,8.142e+00,7.958e+00,8.906e+00,8.363e+00,1.053e+01,7.420e+00,9.179e+00,6.378e+00,8.796e+00,9.221e+00,7.335e+00,8.584e+00,9.657e+00,7.874e+00,8.630e+00,1.024e+01,7.173e+00,8.152e+00,1.002e+01,6.478e+00,1.015e+01,8.465e+00,1.121e+01,7.545e+00,8.685e+00,8.416e+00,8.648e+00,8.321e+00,8.815e+00,7.958e+00,9.580e+00,8.145e+00,8.983e+00,7.632e+00,9.156e+00,8.122e+00,8.818e+00,8.991e+00,8.086e+00,8.691e+00,1.069e+01,7.938e+00,1.006e+01,8.354e+00
4.180e-03,2.328e-02,2.870e-01,6.400e-01,5.675e-01,1.344e+00,1.680e+00,1.163e+00,1.449e+00,3.141e+00,2.608e+00,3.108e+00,3.158e+00,4.176e+00,3.240e+00,4.341e+00,4.669e+00,4.921e+00,5.662e+00,5.684e+00,7.330e+00,7.757e+00,6.835e+00,7.658e+00,7.293e+00,7.258e+00,9.082e+00,8.249e+00,8.241e+00,9.389e+00,1.054e+01,7.755e+00,9.755e+00,9.569e+00,8.688e+00,1.073e+01,1.026e+01,9.676e+00,1.031e+01,1.179e+01,9.105e+00,1.092e+01,7.927e+00,1.211e+01,1.134e+01,9.075e+00,1.005e+01,1.173e+01,9.838e+00,1.020e+01,1.128e+01,8.486e+00,1.015e+01,1.123e+01,9.268e+00,1.236e+01,1.015e+01,1.317e+01,8.858e+00,1.002e+01,1.038e+01,1.069e+01,1.058e+01,1.171e+01,1.041e+01,1.195e+01,9.710e+00,1.086e+01,8.148e+00,1.124e+01,9.627e+00,9.771e+00,9.437e+00,9.081e+00,1.023e+01,1.179e+01,1.082e+01,1.234e+01,1.095e+01
1.610e-01,5.344e-01,3.368e-01,1.140e+00,1.033e+00,1.933e+00,1.925e+00,1.091e+00,1.313e+00,1.928e+00,1.612e+00,2.871e+00,2.718e+00,2.659e+00,2.220e+00,2.809e+00,4.118e+00,3.242e+00,4.620e+00,4.369e+00,5.974e+00,6.612e+00,6.083e+00,6.451e+00,7.599e+00,6.437e+00,8.195e+00,6.427e+00,7.283e+00,7.872e+00,9.593e+00,8.077e+00,9.623e+00,8.383e+00,8.427e+00,9.372e+00,9.856e+00,1.022e+01,1.006e+01,1.203e+01,8.259e+00,1.053e+01,7.770e+00,1.088e+01,1.073e+01,8.520e+00,9.525e+00,1.050e+01,8.939e+00,9.666e+00,1.020e+01,8.308e+00,9.671e+00,1.045e+01,8.182e+00,1.312e+01,9.805e+00,1.222e+01,7.587e+00,9.908e+00,1.055e+01,9.946e+00,9.694e+00,1.108e+01,9.869e+00,1.146e+01,1.006e+01,1.054e+01,7.528e+00,1.001e+01,8.595e+00,9.769e+00,1.035e+01,9.140e+00,9.107e+00,1.148e+01,9.112e+00,1.106e+01,1.076e+01
2.148e-01,6.963e-01,6.045e-01,1.298e+00,1.434e+00,2.283e+00,2.525e+00,1.353e+00,1.852e+00,3.230e+00,2.887e+00,3.700e+00,3.357e+00,4.785e+00,3.795e+00,4.417e+00,4.672e+00,4.630e+00,4.870e+00,5.016e+00,5.427e+00,7.383e+00,6.269e+00,5.988e+00,5.844e+00,4.842e+00,7.586e+00,6.981e+00,7.603e+00,7.821e+00,9.210e+00,7.400e+00,7.232e+00,8.114e+00,7.603e+00,8.403e+00,8.164e+00,8.703e+00,9.082e+00,1.101e+01,7.961e+00,9.178e+00,7.319e+00,9.383e+00,1.100e+01,9.072e+00,8.785e+00,1.101e+01,8.862e+00,1.043e+01,1.075e+01,7.129e+00,8.467e+00,1.052e+01,8.194e+00,1.062e+01,7.988e+00,1.089e+01,8.133e+00,8.959e+00,9.015e+00,8.478e+00,8.432e+00,9.959e+00,8.473e+00,1.122e+01,8.911e+00,9.469e+00,8.108e+00,8.931e+00,8.552e+00,8.566e+00,9.054e+00,9.305e+00,9.482e+00,9.700e+00,9.177e+00,1.129e+01,9.293e+00
6.339e-02,2.033e-01,4.133e-01,8.750e-01,8.231e-01,1.799e+00,2.037e+00,1.309e+00,1.901e+00,3.994e+00,2.337e+00,3.500e+00,2.842e+00,4.099e+00,3.763e+00,4.629e+00,4.642e+00,4.358e+00,4.964e+00,4.140e+00,5.665e+00,7.512e+00,5.948e+00,6.785e+00,7.025e+00,5.735e+00,8.863e+00,6.780e+00,7.880e+00,8.431e+00,1.010e+01,7.865e+00,8.482e+00,8.299e+00,7.523e+00,8.388e+00,9.249e+00,8.301e+00,8.703e+00,1.255e+01,8.896e+00,1.110e+01,7.545e+00,1.089e+01,1.049e+01,9.525e+00,8.657e+00,1.205e+01,9.872e+00,1.107e+01,1.071e+01,9.183e+00,1.011e+01,1.155e+01,8.089e+00,1.128e+01,1.007e+01,1.158e+01,8.142e+00,9.856e+00,1.042e+01,9.142e+00,1.054e+01,1.123e+01,9.036e+00,1.111e+01,1.008e+01,1.061e+01,8.607e+00,1.072e+01,1.005e+01,9.879e+00,9.948e+00,9.118e+00,9.318e+00,1.147e+01,1.003e+01,1.159e+01,1.041e+01
7.621e-02,2.853e-01,4.107e-01,7.782e-01,9.418e-01,1.145e+00,1.417e+00,7.405e-01,9.841e-01,2.386e+00,1.665e+00,3.190e+00,2.925e+00,3.308e+00,3.321e+00,4.378e+00,4.801e+00,4.126e+00,4.525e+00,4.095e+00,5.594e+00,7.110e+00,6.181e+00,6.140e+00,6.620e+00,6.253e+00,8.543e+00,5.942e+00,7.068e+00,8.461e+00,1.029e+01,8.442e+00,9.354e+00,8.631e+00,7.756e+00,8.299e+00,8.818e+00,9.246e+00,7.600e+00,1.269e+01,8.316e+00,1.114e+01,8.816e+00,9.738e+00,1.016e+01,1.076e+01,9.804e+00,1.112e+01,1.078e+01,1.190e+01,1.045e+01,9.520e+00,1.082e+01,1.090e+01,9.202e+00,1.128e+01,1.038e+01,1.167e+01,7.964e+00,1.038e+01,1.000e+01,1.061e+01,1.116e+01,1.149e+01,1.001e+01,1.046e+01,1.094e+01,1.125e+01,7.897e+00,1.073e+01,9.874e+00,1.057e+01,1.020e+01,1.006e+01,8.697e+00,1.133e+01,1.027e+01,1.106e+01,1.159e+01
1.740e-01,5.515e-01,4.515e-01,1.101e+00,1.079e+00,1.683e+00,1.734e+00,1.266e+00,1.221e+00,2.157e+00,1.555e+00,2.421e+00,2.621e+00,2.930e+00,2.243e+00,3.241e+00,4.392e+00,3.591e+00,4.337e+00,3.892e+00,5.549e+00,6.141e+00,4.955e+00,6.088e+00,5.521e+00,4.553e+00,6.513e+00,6.128e+00,6.192e+00,6.558e+00,7.371e+00,6.189e+00,7.947e+00,7.302e+00,7.154e+00,8.480e+00,7.400e+00,8.395e+00,7.590e+00,1.021e+01,7.161e+00,9.030e+00,6.925e+00,9.830e+00,9.401e+00,7.913e+00,7.989e+00,9.760e+00,8.813e+00,8.993e+00,9.560e+00,7.725e+00,9.534e+00,9.211e+00,8.182e+00,1.011e+01,8.184e+00,1.053e+01,6.879e+00,8.919e+00,8.203e+00,9.127e+00,8.417e+00,9.309e+00,8.674e+00,1.117e+01,8.582e+00,9.284e+00,6.839e+00,9.109e+00,7.421e+00,8.152e+00,8.837e+00,8.880e+00,8.946e+00,1.009e+01,9.156e+00,1.088e+01,8.328e+00
2.207e-01,6.732e-01,6.088e-01,1.285e+00,1.283e+00,1.850e+00,2.017e+00,1.103e+00,1.323e+00,2.803e+00,2.447e+00,3.148e+00,3.260e+00,4.065e+00,3.644e+00,3.940e+00,4.747e+00,4.439e+00,3.980e+00,4.652e+00,6.281e+00,7.376e+00,6.136e+00,6.938e+00,6.803e+00,6.875e+00,8.867e+00,7.643e+00,7.451e+00,8.123e+00,9.585e+00,7.146e+00,8.289e+00,8.142e+00,7.394e+00,8.043e+00,8.880e+00,9.596e+00,8.925e+00,1.138e+01,9.142e+00,1.192e+01,8.738e+00,1.149e+01,1.177e+01,9.646e+00,9.300e+00,1.315e+01,1.056e+01,1.222e+01,1.201e+01,9.265e+00,1.095e+01,1.166e+01,9.645e+00,1.205e+01,1.021e+01,1.316e+01,9.235e+00,9.827e+00,9.774e+00,1.000e+01,1.064e+01,1.196e+01,1.039e+01,1.192e+01,1.101e+01,1.154e+01,7.679e+00,1.193e+01,1.092e+01,1.106e+01,9.968e+00,1.094e+01,1.056e+01,1.077e+01,1.113e+01,1.242e+01,1.197e+01
1.311e-02,4.191e-02,1.723e-01,2.836e-01,2.972e-01,5.000e-01,6.994e-01,4.676e-01,7.292e-01,2.030e+00,2.035e+00,2.645e+00,2.398e+00,3.204e+00,2.691e+00,3.125e+00,2.874e+00,3.197e+00,4.578e+00,3.948e+00,5.950e+00,6.122e+00,5.298e+00,5.081e+00,5.458e+00,5.527e+00,6.642e+00,5.065e+00,5.977e+00,6.671e+00,8.343e+00,6.224e+00,6.976e+00,6.966e+00,6.447e+00,7.617e+00,6.627e+00,7.384e+00,6.938e+00,9.834e+00,6.709e+00,8.230e+00,7.225e+00,9.048e+00,9.129e+00,7.950e+00,8.638e+00,9.415e+00,9.314e+00,9.498e+00,1.057e+01,7.950e+00,9.620e+00,9.899e+00,8.914e+00,9.369e+00,9.115e+00,9.983e+00,8.145e+00,9.505e+00,8.728e+00,8.324e+00,7.803e+00,9.156e+00,8.804e+00,1.013e+01,8.725e+00,9.843e+00,6.977e+00,1.017e+01,8.937e+00,9.475e+00,8.384e+00,8.133e+00,8.782e+00,9.962e+00,8.661e+00,1.097e+01,7.828e+00
4.878e-02,2.246e-01,4.429e-01,1.183e+00,1.165e+00,2.218e+00,2.600e+00,1.879e+00,2.126e+00,4.381e+00,3.164e+00,4.740e+00,3.449e+00,5.319e+00,4.450e+00,5.714e+00,5.304e+00,5.090e+00,6.969e+00,6.349e+00,8.886e+00,8.984e+00,7.804e+00,9.486e+00,7.939e+00,7.659e+00,1.123e+01,8.961e+00,8.924e+00,1.076e+01,1.233e+01,9.270e+00,1.158e+01,9.979e+00,1.067e+01,1.051e+01,1.043e+01,1.067e+01,1.008e+01,1.462e+01,9.137e+00,1.300e+01,1.002e+01,1.282e+01,1.394e+01,1.186e+01,1.238e+01,1.387e+01,1.269e+01,1.333e+01,1.432e+01,1.194e+01,1.375e+01,1.412e+01,1.193e+01,1.427e+01,1.382e+01,1.541e+01,1.091e+01,1.313e+01,1.228e+01,1.255e+01,1.256e+01,1.253e+01,1.530e+01,1.439e+01,1.150e+01,1.485e+01,1.012e+01,1.421e+01,1.269e+01,1.362e+01,1.247e+01,1.176e+01,1.245e+01,1.415e+01,1.265e+01,1.533e+01,1.360e+01
1.712e-01,5.675e-01,3.863e-01,1.024e+00,1.082e+00,1.526e+00,1.774e+00,1.234e+00,1.130e+00,2.110e+00,2.549e+00,2.697e+00,3.138e+00,3.676e+00,2.973e+00,4.304e+00,4.643e+00,4.040e+00,4.190e+00,5.465e+00,6.451e+00,6.939e+00,5.692e+00,6.848e+00,5.744e+00,5.878e+00,8.364e+00,7.086e+00,6.844e+00,7.268e+00,8.921e+00,6.776e+00,8.021e+00,7.645e+00,7.558e+00,8.539e+00,6.945e+00,8.030e+00,7.336e+00,1.128e+01,7.281e+00,1.060e+01,7.814e+00,1.027e+01,1.076e+01,9.364e+00,1.002e+01,1.183e+01,1.095e+01,1.281e+01,1.317e+01,9.129e+00,1.193e+01,1.184e+01,9.875e+00,1.060e+01,1.077e+01,1.229e+01,9.577e+00,1.011e+01,8.455e+00,1.022e+01,9.249e+00,1.038e+01,1.039e+01,1.156e+01,8.713e+00,1.141e+01,7.612e+00,1.254e+01,1.170e+01,9.084e+00,9.996e+00,9.138e+00,1.059e+01,1.069e+01,1.115e+01,1.193e+01,1.079e+01
2.160e-01,6.779e-01,5.500e-01,1.321e+00,1.300e+00,2.120e+00,2.325e+00,1.605e+00,1.811e+00,3.623e+00,2.712e+00,4.224e+00,3.069e+00,4.778e+00,4.081e+00,5.183e+00,5.459e+00,4.476e+00,4.851e+00,4.522e+00,7.102e+00,8.295e+00,6.454e+00,7.785e+00,6.851e+00,6.624e+00,9.430e+00,7.710e+00,8.095e+00,9.163e+00,1.027e+01,7.901e+00,9.200e+00,8.954e+00,8.966e+00,9.598e+00,8.623e+00,9.581e+00,8.513e+00,1.310e+01,9.959e+00,1.321e+01,8.707e+00,1.186e+01,1.294e+01,1.034e+01,1.197e+01,1.366e+01,1.212e+01,1.252e+01,1.328e+01,1.151e+01,1.133e+01,1.458e+01,1.050e+01,1.149e+01,1.230e+01,1.410e+01,1.006e+01,1.013e+01,1.079e+01,1.156e+01,1.150e+01,1.278e+01,1.203e+01,1.323e+01,1.183e+01,1.270e+01,9.004e+00,1.377e+01,1.108e+01,1.253e+01,1.218e+01,1.066e+01,1.277e+01,1.186e+01,1.173e+01,1.388e+01,1.254e+01
1.808e-01,5.560e-01,3.683e-01,9.635e-01,9.012e-01,1.987e+00,1.952e+00,1.006e+00,1.754e+00,2.893e+00,2.000e+00,3.634e+00,2.386e+00,4.087e+00,3.127e+00,4.120e+00,4.596e+00,4.045e+00,4.837e+00,4.286e+00,5.854e+00,7.597e+00,5.481e+00,6.411e+00,6.782e+00,5.218e+00,8.070e+00,6.523e+00,7.077e+00,8.272e+00,9.420e+00,7.684e+00,7.824e+00,7.806e+00,8.041e+00,8.419e+00,7.470e+00,9.221e+00,8.386e+00,1.218e+01,7.923e+00,1.012e+01,7.795e+00,1.015e+01,1.175e+01,9.844e+00,9.993e+00,1.274e+01,1.112e+01,1.242e+01,1.295e+01,1.060e+01,1.109e+01,1.235e+01,1.083e+01,1.118e+01,1.099e+01,1.310e+01,9.224e+00,1.094e+01,1.091e+01,9.945e+00,9.942e+00,1.260e+01,1.129e+01,1.178e+01,1.036e+01,1.229e+01,9.370e+00,1.242e+01,1.160e+01,1.147e+01,1.225e+01,1.157e+01,1.180e+01,1.154e+01,1.114e+01,1.286e+01,1.033e+01
7.257e-02,3.065e-01,2.928e-01,1.182e+00,1.076e+00,2.106e+00,2.443e+00,1.865e+00,1.841e+00,3.293e+00,3.405e+00,3.582e+00,3.275e+00,4.484e+00,3.566e+00,5.231e+00,5.303e+00,5.055e+00,5.776e+00,5.471e+00,7.282e+00,7.308e+00,5.964e+00,7.381e+00,7.085e+00,6.012e+00,9.117e+00,7.933e+00,7.867e+00,6.935e+00,9.811e+00,7.357e+00,8.820e+00,8.760e+00,7.959e+00,8.794e+00,9.001e+00,8.996e+00,9.002e+00,1.186e+01,9.463e+00,1.129e+01,9.603e+00,1.144e+01,1.235e+01,1.031e+01,1.085e+01,1.474e+01,1.234e+01,1.423e+01,1.399e+01,1.169e+01,1.397e+01,1.185e+01,1.118e+01,1.351e+01,1.237e+01,1.542e+01,1.026e+01,1.291e+01,1.155e+01,1.258e+01,1.121e+01,1.379e+01,1.228e+01,1.410e+01,1.098e+01,1.373e+01,1.011e+01,1.495e+01,1.309e+01,1.189e+01,1.217e+01,1.209e+01,1.281e+01,1.459e+01,1.188e+01,1.456e+01,1.295e+01
1.023e-01,3.359e-01,3.295e-01,8.036e-01,7.983e-01,1.333e+00,1.495e+00,1.016e+00,1.079e+00,2.093e+00,2.116e+00,2.479e+00,2.802e+00,3.341e+00,2.508e+00,3.817e+00,3.960e+00,3.396e+00,3.650e+00,3.509e+00,4.340e+00,4.547e+00,3.993e+00,5.210e+00,4.744e+00,4.025e+00,6.006e+00,6.123e+00,5.100e+00,6.316e+00,8.965e+00,6.173e+00,7.187e+00,7.446e+00,5.909e+00,7.395e+00,5.699e+00,8.305e+00,7.110e+00,9.499e+00,6.122e+00,8.131e+00,7.486e+00,7.905e+00,8.491e+00,7.827e+00,8.599e+00,9.926e+00,1.177e+01,1.170e+01,1.059e+01,8.162e+00,1.150e+01,1.053e+01,9.160e+00,1.058e+01,1.083e+01,1.147e+01,8.120e+00,1.149e+01,9.017e+00,1.058e+01,9.421e+00,1.021e+01,9.923e+00,1.241e+01,9.922e+00,1.163e+01,7.654e+00,1.060e+01,1.006e+01,9.910e+00,1.070e+01,9.812e+00,9.474e+00,1.094e+01,1.039e+01,1.212e+01,1.143e+01
1.576e-01,5.281e-01,4.636e-01,1.211e+00,1.210e+00,2.410e+00,2.502e+00,1.632e+00,2.251e+00,3.848e+00,2.215e+00,4.046e+00,3.093e+00,4.134e+00,3.469e+00,4.033e+00,4.586e+00,4.283e+00,4.866e+00,3.802e+00,5.653e+00,6.418e+00,5.669e+00,5.787e+00,5.534e+00,5.451e+00,6.944e+00,5.100e+00,6.695e+00,6.699e+00,8.142e+00,7.159e+00,8.849e+00,6.765e+00,7.784e+00,7.668e+00,9.216e+00,7.504e+00,7.773e+00,1.076e+01,8.333e+00,1.081e+01,8.033e+00,1.060e+01,1.059e+01,9.373e+00,1.070e+01,1.129e+01,1.096e+01,1.124e+01,1.103e+01,1.091e+01,1.109e+01,1.288e+01,9.996e+00,1.259e+01,1.291e+01,1.390e+01,1.006e+01,1.049e+01,1.087e+01,1.268e+01,1.125e+01,1.356e+01,1.151e+01,1.298e+01,1.213e+01,1.136e+01,9.318e+00,1.320e+01,9.875e+00,1.326e+01,1.187e+01,1.161e+01,1.056e+01,1.207e+01,1.129e+01,1.307e+01,1.178e+01
1.726e-01,5.856e-01,3.527e-01,1.369e+00,1.183e+00,2.263e+00,2.241e+00,1.499e+00,1.580e+00,2.452e+00,1.926e+00,3.020e+00,2.640e+00,3.306e+00,2.817e+00,4.715e+00,5.509e+00,4.096e+00,3.918e+00,4.940e+00,6.829e+00,7.360e+00,5.767e+00,7.235e+00,6.189e+00,5.838e+00,9.119e+00,7.005e+00,6.986e+00,7.431e+00,9.630e+00,7.026e+00,8.662e+00,7.936e+00,8.442e+00,8.389e+00,7.399e+00,9.989e+00,8.768e+00,1.314e+01,8.143e+00,1.113e+01,8.996e+00,1.053e+01,1.172e+01,1.042e+01,1.123e+01,1.370e+01,1.245e+01,1.425e+01,1.379e+01,1.247e+01,1.300e+01,1.477e+01,1.210e+01,1.348e+01,1.337e+01,1.448e+01,1.067e+01,1.387e+01,1.192e+01,1.294e+01,1.249e+01,1.254e+01,1.251e+01,1.438e+01,1.272e+01,1.528e+01,1.041e+01,1.521e+01,1.369e+01,1.427e+01,1.344e+01,1.323e+01,1.284e+01,1.319e+01,1.157e+01,1.507e+01,1.491e+01
1.351e-01,4.487e-01,3.302e-01,1.027e+00,9.507e-01,1.860e+00,1.980e+00,1.088e+00,1.538e+00,2.652e+00,2.510e+00,3.295e+00,3.657e+00,3.643e+00,3.187e+00,3.391e+00,4.149e+00,4.190e+00,4.481e+00,4.628e+00,4.992e+00,4.994e+00,5.295e+00,4.588e+00,6.102e+00,6.038e+00,7.229e+00,5.636e+00,5.688e+00,6.716e+00,8.190e+00,6.156e+00,7.702e+00,6.969e+00,6.697e+00,6.611e+00,7.743e+00,7.112e+00,7.144e+00,9.136e+00,7.501e+00,1.010e+01,7.322e+00,8.527e+00,9.883e+00,8.747e+00,9.539e+00,1.134e+01,1.227e+01,1.248e+01,1.136e+01,9.706e+00,1.197e+01,1.360e+01,1.071e+01,1.236e+01,1.344e+01,1.448e+01,1.021e+01,1.233e+01,1.173e+01,1.367e+01,1.085e+01,1.371e+01,1.270e+01,1.418e+01,1.186e+01,1.286e+01,9.788e+00,1.341e+01,1.232e+01,1.371e+01,1.099e+01,1.205e+01,1.154e+01,1.202e+01,1.154e+01,1.472e+01,1.340e+01
1.865e-01,5.493e-01,5.299e-01,1.228e+00,1.060e+00,1.703e+00,1.724e+00,7.767e-01,9.535e-01,2.136e+00,2.077e+00,3.113e+00,3.749e+00,3.799e+00,3.249e+00,4.405e+00,5.461e+00,4.485e+00,4.505e+00,4.682e+00,5.969e+00,6.667e+00,6.025e+00,6.040e+00,6.734e+00,6.101e+00,8.364e+00,6.959e+00,6.740e+00,7.992e+00,9.476e+00,6.577e+00,8.616e+00,8.496e+00,6.579e+00,7.769e+00,7.718e+00,8.247e+00,7.232e+00,1.067e+01,8.061e+00,1.236e+01,8.601e+00,1.040e+01,1.062e+01,1.024e+01,1.074e+01,1.221e+01,1.333e+01,1.370e+01,1.260e+01,1.141e+01,1.443e+01,1.486e+01,1.129e+01,1.378e+01,1.412e+01,1.553e+01,1.109e+01,1.279e+01,1.221e+01,1.328e+01,1.255e+01,1.458e+01,1.152e+01,1.418e+01,1.246e+01,1.355e+01,9.223e+00,1.498e+01,1.277e+01,1.334e+01,1.224e+01,1.286e+01,1.278e+01,1.174e+01,1.302e+01,1.461e+01,1.270e+01
1.699e-01,5.347e-01,5.665e-01,1.247e+00,1.227e+00,1.871e+00,2.050e+00,1.324e+00,1.411e+00,2.996e+00,2.175e+00,4.284e+00,3.773e+00,4.636e+00,3.705e+00,4.768e+00,5.584e+00,4.406e+00,5.462e+00,4.959e+00,6.951e+00,7.380e+00,6.684e+00,7.770e+00,7.773e+00,6.599e+00,9.745e+00,7.667e+00,7.879e+00,9.079e+00,1.020e+01,8.724e+00,9.665e+00,8.965e+00,8.028e+00,9.506e+00,1.027e+01,1.025e+01,9.182e+00,1.271e+01,9.268e+00,1.272e+01,8.738e+00,1.258e+01,1.183e+01,1.094e+01,1.216e+01,1.443e+01,1.292e+01,1.431e+01,1.544e+01,1.238e+01,1.423e+01,1.570e+01,1.254e+01,1.483e+01,1.568e+01,1.808e+01,1.200e+01,1.428e+01,1.494e+01,1.399e+01,1.317e+01,1.582e+01,1.413e+01,1.535e+01,1.366e+01,1.576e+01,1.163e+01,1.604e+01,1.272e+01,1.343e+01,1.439e+01,1.428e+01,1.338e+01,1.339e+01,1.278e+01,1.693e+01,1.533e+01
4.661e-02,1.680e-01,3.282e-01,6.594e-01,7.044e-01,9.775e-01,1.280e+00,7.978e-01,8.827e-01,2.179e+00,2.143e+00,2.447e+00,2.368e+00,3.271e+00,2.821e+00,3.186e+00,3.285e+00,3.750e+00,4.708e+00,4.815e+00,6.069e+00,6.399e+00,5.490e+00,6.122e+00,5.593e+00,5.900e+00,7.301e+00,6.185e+00,6.756e+00,7.257e+00,8.141e+00,6.086e+00,7.403e+00,7.624e+00,7.518e+00,8.045e+00,7.055e+00,7.275e+00,7.338e+00,9.931e+00,7.163e+00,8.779e+00,6.803e+00,9.398e+00,9.840e+00,8.981e+00,9.386e+00,1.214e+01,1.151e+01,1.197e+01,1.267e+01,1.022e+01,1.098e+01,1.393e+01,1.181e+01,1.148e+01,1.305e+01,1.571e+01,1.123e+01,1.183e+01,1.103e+01,1.195e+01,9.464e+00,1.282e+01,1.194e+01,1.383e+01,1.157e+01,1.279e+01,1.017e+01,1.497e+01,1.284e+01,1.256e+01,1.098e+01,1.170e+01,1.359e+01,1.276e+01,1.229e+01,1.526e+01,1.342e+01
9.362e-03,1.179e-01,1.145e-01,8.283e-01,7.261e-01,1.701e+00,1.992e+00,1.730e+00,1.777e+00,3.104e+00,2.437e+00,3.070e+00,2.440e+00,3.346e+00,2.911e+00,4.505e+00,4.397e+00,3.750e+00,4.121e+00,4.502e+00,5.883e+00,6.396e+00,5.690e+00,6.124e+00,5.811e+00,5.527e+00,7.792e+00,5.690e+00,6.853e+00,6.615e+00,8.762e+00,6.750e+00,8.360e+00,7.512e+00,8.270e+00,8.365e+00,7.649e+00,7.960e+00,7.487e+00,1.119e+01,7.947e+00,1.079e+01,7.557e+00,9.038e+00,9.934e+00,8.812e+00,1.055e+01,1.214e+01,1.189e+01,1.271e+01,1.345e+01,1.097e+01,1.179e+01,1.404e+01,1.025e+01,1.245e+01,1.254e+01,1.554e+01,1.144e+01,1.313e+01,1.090e+01,1.291e+01,1.192e+01,1.323e+01,1.214e+01,1.354e+01,1.219e+01,1.428e+01,1.094e+01,1.389e+01,1.285e+01,1.347e+01,1.218e+01,1.248e+01,1.278e+01,1.339e+01,1.220e+01,1.411e+01,1.523e+01
7.956e-02,2.358e-01,3.774e-01,9.176e-01,7.643e-01,1.802e+00,1.916e+00,1.135e+00,1.721e+00,3.186e+00,1.850e+00,2.832e+00,2.929e+00,4.031e+00,3.260e+00,4.183e+00,5.121e+00,4.787e+00,3.954e+00,4.838e+00,5.184e+00,6.278e+00,5.765e+00,5.948e+00,6.554e+00,5.419e+00,8.248e+00,6.871e+00,6.443e+00,7.894e+00,9.146e+00,7.184e+00,7.608e+00,7.320e+00,7.198e+00,7.868e+00,7.209e+00,7.842e+00,7.482e+00,1.045e+01,6.997e+00,1.063e+01,7.159e+00,9.104e+00,9.846e+00,8.854e+00,9.992e+00,1.247e+01,1.212e+01,1.288e+01,1.257e+01,1.035e+01,1.177e+01,1.389e+01,1.148e+01,1.290e+01,1.349e+01,1.582e+01,1.117e+01,1.333e+01,1.169e+01,1.230e+01,1.277e+01,1.364e+01,1.133e+01,1.362e+01,1.148e+01,1.429e+01,1.047e+01,1.473e+01,1.266e+01,1.368e+01,1.226e+01,1.268e+01,1.254e+01,1.178e+01,1.269e+01,1.423e+01,1.334e+01
1.130e-02,7.213e-02,8.526e-02,4.058e-01,3.785e-01,1.235e+00,1.498e+00,1.266e+00,1.728e+00,3.488e+00,3.138e+00,3.235e+00,3.175e+00,4.054e+00,3.456e+00,5.097e+00,4.277e+00,3.914e+00,5.468e+00,5.022e+00,6.286e+00,7.698e+00,5.872e+00,6.640e+00,6.809e+00,6.348e+00,9.046e+00,7.072e+00,7.514e+00,8.238e+00,1.064e+01,7.169e+00,9.113e+00,9.146e+00,8.671e+00,9.377e+00,9.249e+00,8.851e+00,8.662e+00,1.188e+01,9.433e+00,1.073e+01,8.956e+00,1.077e+01,1.128e+01,1.078e+01,1.151e+01,1.280e+01,1.265e+01,1.501e+01,1.437e+01,1.230e+01,1.395e+01,1.633e+01,1.217e+01,1.435e+01,1.695e+01,1.998e+01,1.359e+01,1.693e+01,1.335e+01,1.598e+01,1.469e+01,1.717e+01,1.579e+01,1.729e+01,1.455e+01,1.702e+01,1.481e+01,1.761e+01,1.501e+01,1.632e+01,1.422e+01,1.594e+01,1.563e+01,1.571e+01,1.658e+01,1.869e+01,1.610e+01
1.049e-01,3.252e-01,1.864e-01,5.105e-01,4.906e-01,1.354e+00,1.423e+00,6.403e-01,1.191e+00,1.993e+00,2.102e+00,3.009e+00,2.403e+00,2.983e+00,2.115e+00,3.728e+00,3.355e+00,3.194e+00,4.742e+00,4.504e+00,5.628e+00,7.357e+00,5.570e+00,5.667e+00,7.106e+00,6.019e+00,7.902e+00,6.221e+00,7.644e+00,7.795e+00,9.708e+00,7.481e+00,7.730e+00,7.778e+00,7.635e+00,9.183e+00,8.344e+00,8.738e+00,9.067e+00,1.244e+01,8.302e+00,1.093e+01,8.172e+00,1.102e+01,1.245e+01,1.070e+01,1.130e+01,1.323e+01,1.270e+01,1.476e+01,1.495e+01,1.162e+01,1.459e+01,1.622e+01,1.264e+01,1.435e+01,1.603e+01,1.877e+01,1.451e+01,1.581e+01,1.448e+01,1.635e+01,1.494e+01,1.718e+01,1.514e+01,1.711e+01,1.541e+01,1.692e+01,1.499e+01,1.877e+01,1.606e+01,1.494e+01,1.682e+01,1.492e+01,1.544e+01,1.644e+01,1.485e+01,1.793e+01,1.798e+01
1.373e-01,4.713e-01,5.013e-01,1.374e+00,1.308e+00,2.634e+00,2.852e+00,1.725e+00,2.331e+00,4.073e+00,3.347e+00,4.552e+00,4.302e+00,5.736e+00,4.458e+00,5.400e+00,5.886e+00,5.687e+00,5.846e+00,5.843e+00,7.147e+00,8.113e+00,8.004e+00,6.833e+00,7.559e+00,6.296e+00,9.962e+00,8.392e+00,8.429e+00,8.813e+00,1.135e+01,8.441e+00,9.771e+00,8.540e+00,9.015e+00,9.183e+00,9.709e+00,9.845e+00,9.785e+00,1.277e+01,9.679e+00,1.243e+01,9.265e+00,1.122e+01,1.285e+01,1.149e+01,1.151e+01,1.447e+01,1.294e+01,1.457e+01,1.541e+01,1.330e+01,1.443e+01,1.671e+01,1.282e+01,1.575e+01,1.608e+01,1.948e+01,1.391e+01,1.642e+01,1.597e+01,1.684e+01,1.560e+01,1.857e+01,1.588e+01,1.807e+01,1.541e+01,1.655e+01,1.585e+01,1.869e+01,1.628e+01,1.651e+01,1.603e+01,1.738e+01,1.665e+01,1.702e+01,1.542e+01,1.956e+01,1.645e+01
1.662e-01,5.065e-01,5.871e-01,1.043e+00,1.135e+00,2.011e+00,2.204e+00,1.444e+00,2.022e+00,3.979e+00,2.717e+00,3.657e+00,3.713e+00,4.990e+00,3.913e+00,5.050e+00,5.347e+00,5.294e+00,5.925e+00,5.277e+00,6.887e+00,8.444e+00,6.700e+00,7.490e+00,7.504e+00,6.419e+00,9.060e+00,7.625e+00,8.781e+00,8.588e+00,1.018e+01,8.203e+00,9.840e+00,8.884e+00,8.057e+00,9.558e+00,9.652e+00,8.552e+00,8.644e+00,1.255e+01,8.684e+00,1.163e+01,8.222e+00,1.119e+01,1.125e+01,1.028e+01,1.096e+01,1.315e+01,1.216e+01,1.420e+01,1.492e+01,1.130e+01,1.363e+01,1.573e+01,1.153e+01,1.321e+01,1.555e+01,1.813e+01,1.395e+01,1.424e+01,1.480e+01,1.622e+01,1.479e+01,1.671e+01,1.602e+01,1.715e+01,1.438e+01,1.554e+01,1.405e+01,1.804e+01,1.555e+01,1.551e+01,1.521e+01,1.496e+01,1.513e+01,1.562e+01,1.531e+01,1.906e+01,1.622e+01
1.025e-01,3.755e-01,3.677e-01,1.246e+00,1.106e+00,2.132e+00,2.222e+00,1.281e+00,1.683e+00,2.969e+00,2.306e+00,3.784e+00,2.747e+00,4.077e+00,3.527e+00,3.571e+00,4.297e+00,4.305e+00,5.634e+00,5.111e+00,7.079e+00,7.618e+00,7.132e+00,6.627e+00,7.287e+00,6.494e+00,8.691e+00,6.124e+00,8.170e+00,8.248e+00,9.698e+00,7.955e+00,9.665e+00,8.709e+00,9.474e+00,9.313e+00,9.934e+00,9.188e+00,9.151e+00,1.367e+01,9.860e+00,1.211e+01,8.731e+00,1.183e+01,1.223e+01,1.187e+01,1.157e+01,1.420e+01,1.242e+01,1.334e+01,1.379e+01,1.226e+01,1.334e+01,1.637e+01,1.319e+01,1.493e+01,1.598e+01,1.785e+01,1.363e+01,1.544e+01,1.596e+01,1.696e+01,1.338e+01,1.830e+01,1.682e+01,1.754e+01,1.688e+01,1.690e+01,1.507e+01,1.849e+01,1.687e+01,1.656e+01,1.563e+01,1.743e+01,1.690e+01,1.787e+01,1.529e+01,1.985e+01,1.633e+01
9.837e-02,3.006e-01,1.994e-01,8.558e-01,5.795e-01,1.463e+00,1.365e+00,1.128e+00,1.244e+00,2.217e+00,1.925e+00,2.632e+00,2.607e+00,3.316e+00,2.451e+00,4.363e+00,4.717e+00,3.361e+00,4.506e+00,4.642e+00,6.727e+00,7.245e+00,5.348e+00,6.990e+00,6.713e+00,6.308e+00,8.460e+00,6.989e+00,6.954e+00,7.358e+00,1.016e+01,7.088e+00,9.033e+00,8.701e+00,8.118e+00,9.049e+00,7.991e+00,9.361e+00,8.324e+00,1.260e+01,8.378e+00,1.054e+01,8.198e+00,1.093e+01,1.068e+01,1.026e+01,1.132e+01,1.233e+01,1.290e+01,1.413e+01,1.454e+01,1.121e+01,1.435e+01,1.531e+01,1.199e+01,1.375e+01,1.478e+01,1.681e+01,1.190e+01,1.616e+01,1.346e+01,1.464e+01,1.494e+01,1.508e+01,1.445e+01,1.668e+01,1.549e+01,1.796e+01,1.285e+01,1.660e+01,1.491e+01,1.487e+01,1.541e+01,1.510e+01,1.410e+01,1.541e+01,1.572e+01,1.656e+01,1.610e+01
1.072e-01,3.985e-01,3.577e-01,1.081e+00,1.081e+00,1.623e+00,1.794e+00,1.113e+00,1.022e+00,1.748e+00,1.712e+00,2.739e+00,2.745e+00,2.780e+00,2.396e+00,3.365e+00,4.200e+00,3.622e+00,4.010e+00,4.475e+00,5.580e+00,5.783e+00,5.586e+00,5.395e+00,5.831e+00,5.189e+00,7.307e+00,5.846e+00,6.670e+00,6.614e+00,7.627e+00,5.853e+00,7.600e+00,7.351e+00,6.671e+00,7.863e+00,8.010e+00,8.239e+00,7.958e+00,1.058e+01,8.346e+00,1.104e+01,7.883e+00,9.677e+00,1.084e+01,9.423e+00,8.947e+00,1.245e+01,1.108e+01,1.253e+01,1.263e+01,1.101e+01,1.227e+01,1.371e+01,1.122e+01,1.415e+01,1.422e+01,1.703e+01,1.302e+01,1.321e+01,1.365e+01,1.466e+01,1.264e+01,1.667e+01,1.462e+01,1.649e+01,1.458e+01,1.480e+01,1.520e+01,1.684e+01,1.587e+01,1.449e+01,1.403e+01,1.591e+01,1.375e+01,1.455e+01,1.467e+01,1.794e+01,1.621e+01
4.038e-02,2.087e-01,4.346e-01,1.060e+00,1.150e+00,2.020e+00,2.523e+00,1.864e+00,1.934e+00,4.049e+00,3.487e+00,4.267e+00,3.800e+00,4.897e+00,4.012e+00,5.319e+00,4.872e+00,5.419e+00,6.334e+00,5.755e+00,7.727e+00,8.119e+00,7.512e+00,7.596e+00,7.626e+00,6.835e+00,1.063e+01,8.826e+00,8.847e+00,9.647e+00,1.192e+01,7.971e+00,1.028e+01,9.621e+00,9.084e+00,1.121e+01,1.026e+01,9.895e+00,9.493e+00,1.342e+01,9.292e+00,1.275e+01,9.543e+00,1.248e+01,1.382e+01,1.258e+01,1.148e+01,1.426e+01,1.266e+01,1.481e+01,1.443e+01,1.167e+01,1.536e+01,1.605e+01,1.383e+01,1.484e+01,1.657e+01,1.852e+01,1.332e+01,1.519e+01,1.485e+01,1.724e+01,1.629e+01,1.843e+01,1.855e+01,2.054e+01,1.591e+01,1.790e+01,1.608e+01,1.938e+01,1.779e+01,1.645e+01,1.775e+01,1.693e+01,1.740e+01,1.715e+01,1.696e+01,2.039e+01,1.783e+01
1.578e-01,5.064e-01,5.878e-01,1.202e+00,1.241e+00,1.632e+00,1.869e+00,1.109e+00,1.188e+00,3.015e+00,2.077e+00,3.539e+00,3.514e+00,3.578e+00,3.776e+00,4.264e+00,4.858e+00,4.208e+00,4.812e+00,4.683e+00,6.542e+00,6.963e+00,6.110e+00,6.485e+00,6.512e+00,5.997e+00,8.563e+00,7.170e+00,6.653e+00,8.219e+00,9.448e+00,6.474e+00,8.445e+00,7.845e+00,6.838e+00,8.150e+00,8.488e+00,9.269e+00,8.307e+00,1.189e+01,8.433e+00,1.119e+01,8.561e+00,1.050e+01,1.138e+01,1.091e+01,1.059e+01,1.393e+01,1.379e+01,1.451e+01,1.380e+01,1.261e+01,1.530e+01,1.784e+01,1.384e+01,1.402e+01,1.741e+01,1.870e+01,1.364e+01,1.681e+01,1.493e+01,1.716e+01,1.566e+01,1.881e+01,1.661e+01,2.087e+01,1.903e+01,1.989e+01,1.586e+01,2.077e+01,1.940e+01,1.934e+01,1.894e+01,1.839e+01,1.830e+01,1.739e+01,1.702e+01,2.069e+01,1.951e+01
1.230e-01,3.988e-01,3.026e-01,7.656e-01,7.701e-01,1.255e+00,1.380e+00,7.507e-01,9.841e-01,2.045e+00,1.640e+00,2.817e+00,1.732e+00,2.696e+00,2.536e+00,2.926e+00,2.973e+00,2.497e+00,3.915e+00,3.034e+00,4.593e+00,5.644e+00,4.648e+00,4.978e+00,5.528e+00,4.624e+00,6.483e+00,5.110e+00,6.387e+00,7.917e+00,8.573e+00,6.068e+00,7.430e+00,8.063e+00,8.068e+00,8.001e+00,7.302e+00,8.474e+00,8.038e+00,1.094e+01,7.388e+00,9.786e+00,7.023e+00,9.139e+00,1.086e+01,9.553e+00,1.029e+01,1.135e+01,1.081e+01,1.179e+01,1.169e+01,1.048e+01,1.199e+01,1.409e+01,1.035e+01,1.259e+01,1.390e+01,1.542e+01,1.232e+01,1.375e+01,1.283e+01,1.392e+01,1.268e+01,1.527e+01,1.520e+01,1.571e+01,1.417e+01,1.567e+01,1.432e+01,1.748e+01,1.529e+01,1.587e+01,1.538e+01,1.582e+01,1.661e+01,1.518e+01,1.459e+01,1.820e+01,1.566e+01
1.784e-01,6.120e-01,5.635e-01,1.331e+00,1.429e+00,1.884e+00,2.110e+00,1.414e+00,1.256e+00,2.629e+00,1.959e+00,3.391e+00,2.230e+00,3.057e+00,2.969e+00,3.425e+00,3.071e+00,2.445e+00,3.735e+00,3.132e+00,4.626e+00,5.803e+00,4.945e+00,5.393e+00,5.069e+00,4.310e+00,6.137e+00,5.017e+00,6.080e+00,6.240e+00,7.358e+00,6.074e+00,6.885e+00,6.943e+00,5.971e+00,6.527e+00,7.218e+00,7.007e+00,6.165e+00,8.951e+00,6.827e+00,9.272e+00,7.200e+00,8.648e+00,9.153e+00,9.239e+00,9.409e+00,1.035e+01,1.027e+01,1.215e+01,1.109e+01,8.890e+00,1.129e+01,1.265e+01,9.696e+00,1.117e+01,1.343e+01,1.449e+01,1.048e+01,1.267e+01,1.174e+01,1.441e+01,1.192e+01,1.551e+01,1.534e+01,1.628e+01,1.533e+01,1.624e+01,1.420e+01,1.497e+01,1.432e+01,1.528e+01,1.708e+01,1.567e+01,1.434e+01,1.374e+01,1.500e+01,1.743e+01,1.640e+01
8.476e-02,2.582e-01,3.581e-01,9.454e-01,7.599e-01,1.541e+00,1.617e+00,1.225e+00,1.408e+00,3.048e+00,2.160e+00,2.983e+00,3.460e+00,3.855e+00,3.332e+00,4.875e+00,5.905e+00,5.140e+00,5.633e+00,5.227e+00,7.695e+00,8.223e+00,6.504e+00,7.514e+00,7.449e+00,7.205e+00,9.530e+00,7.580e+00,7.801e+00,8.321e+00,9.689e+00,7.015e+00,1.025e+01,9.041e+00,8.082e+00,9.180e+00,9.404e+00,9.041e+00,8.156e+00,1.165e+01,8.458e+00,1.192e+01,8.452e+00,1.176e+01,1.076e+01,9.349e+00,1.102e+01,1.292e+01,1.177e+01,1.201e+01,1.422e+01,1.172e+01,1.464e+01,1.538e+01,1.106e+01,1.347e+01,1.470e+01,1.673e+01,1.207e+01,1.503e+01,1.304e+01,1.493e+01,1.541e+01,1.696e+01,1.512e+01,1.754e+01,1.375e+01,1.875e+01,1.431e+01,1.882e+01,1.786e+01,1.865e+01,1.500e+01,1.797e+01,1.748e+01,1.556e+01,1.784e+01,2.040e+01,1.735e+01
1.539e-01,4.953e-01,5.151e-01,1.363e+00,1.235e+00,2.517e+00,2.654e+00,1.468e+00,2.083e+00,3.718e+00,2.575e+00,4.345e+00,3.443e+00,4.830e+00,3.927e+00,4.448e+00,5.200e+00,4.849e+00,6.312e+00,5.617e+00,7.151e+00,7.796e+00,7.292e+00,7.317e+00,7.240e+00,6.778e+00,8.462e+00,8.022e+00,8.744e+00,9.326e+00,1.030e+01,8.472e+00,1.014e+01,9.315e+00,8.238e+00,1.017e+01,9.903e+00,1.029e+01,1.053e+01,1.321e+01,9.610e+00,1.309e+01,9.942e+00,1.334e+01,1.343e+01,1.139e+01,1.325e+01,1.367e+01,1.403e+01,1.404e+01,1.382e+01,1.259e+01,1.499e+01,1.701e+01,1.344e+01,1.676e+01,1.654e+01,1.938e+01,1.339e+01,1.611e+01,1.454e+01,1.811e+01,1.574e+01,1.857e+01,1.637e+01,1.908e+01,1.749e+01,1.757e+01,1.477e+01,2.029e+01,1.659e+01,1.850e+01,1.754e+01,1.755e+01,1.801e+01,1.877e+01,1.668e+01,2.070e+01,1.793e+01
2.156e-01,7.214e-01,4.399e-01,1.571e+00,1.418e+00,2.712e+00,2.765e+00,1.859e+00,2.040e+00,3.055e+00,2.838e+00,3.836e+00,3.035e+00,4.146e+00,3.159e+00,4.068e+00,4.862e+00,4.189e+00,5.980e+00,5.569e+00,6.871e+00,7.565e+00,6.005e+00,6.720e+00,7.186e+00,5.079e+00,8.029e+00,8.005e+00,7.892e+00,7.652e+00,8.955e+00,6.629e+00,7.899e+00,7.921e+00,7.749e+00,8.990e+00,7.437e+00,8.514e+00,9.069e+00,1.173e+01,7.926e+00,9.521e+00,7.761e+00,1.022e+01,1.207e+01,9.278e+00,9.971e+00,1.184e+01,1.118e+01,1.276e+01,1.435e+01,1.028e+01,1.270e+01,1.524e+01,1.247e+01,1.402e+01,1.282e+01,1.513e+01,1.108e+01,1.479e+01,1.362e+01,1.515e+01,1.272e+01,1.519e+01,1.598e+01,1.851e+01,1.430e+01,1.608e+01,1.411e+01,1.754e+01,1.604e+01,1.587e+01,1.633e+01,1.715e+01,1.689e+01,1.624e+01,1.423e+01,1.816e+01,1.681e+01
1.627e-01,5.235e-01,4.867e-01,1.255e+00,1.179e+00,2.247e+00,2.400e+00,1.294e+00,1.795e+00,3.330e+00,2.485e+00,3.491e+00,2.882e+00,3.736e+00,3.491e+00,3.993e+00,4.394e+00,4.167e+00,5.526e+00,4.635e+00,5.771e+00,7.015e+00,5.522e+00,5.962e+00,6.480e+00,5.210e+00,7.940e+00,7.218e+00,7.352e+00,7.841e+00,9.205e+00,5.958e+00,8.129e+00,8.192e+00,7.735e+00,8.664e+00,8.460e+00,8.622e+00,9.208e+00,1.219e+01,8.645e+00,1.107e+01,7.600e+00,1.083e+01,1.183e+01,1.052e+01,1.035e+01,1.325e+01,1.177e+01,1.326e+01,1.344e+01,1.082e+01,1.266e+01,1.588e+01,1.174e+01,1.362e+01,1.426e+01,1.676e+01,1.140e+01,1.378e+01,1.422e+01,1.515e+01,1.342e+01,1.656e+01,1.585e+01,1.798e+01,1.654e+01,1.760e+01,1.464e+01,1.934e+01,1.792e+01,1.848e+01,1.754e+01,1.732e+01,2.039e+01,1.815e+01,1.729e+01,2.117e+01,1.893e+01
1.921e-01,5.971e-01,4.965e-01,1.381e+00,1.215e+00,2.257e+00,2.328e+00,1.553e+00,1.924e+00,3.427e+00,2.289e+00,3.972e+00,3.688e+00,4.712e+00,3.885e+00,4.036e+00,5.639e+00,4.747e+00,5.503e+00,6.080e+00,7.160e+00,7.511e+00,6.895e+00,7.566e+00,7.631e+00,6.637e+00,8.956e+00,8.241e+00,7.829e+00,9.492e+00,9.463e+00,7.977e+00,9.102e+00,8.290e+00,8.720e+00,8.973e+00,9.152e+00,9.229e+00,9.760e+00,1.261e+01,9.456e+00,1.248e+01,8.768e+00,1.223e+01,1.266e+01,9.942e+00,1.106e+01,1.377e+01,1.289e+01,1.423e+01,1.427e+01,1.140e+01,1.396e+01,1.484e+01,1.270e+01,1.626e+01,1.474e+01,1.751e+01,1.412e+01,1.543e+01,1.422e+01,1.747e+01,1.468e+01,1.744e+01,1.833e+01,1.793e+01,1.724e+01,1.931e+01,1.628e+01,2.050e+01,1.660e+01,1.754e+01,1.962e+01,1.873e+01,1.987e+01,1.937e+01,1.824e+01,2.231e+01,1.953e+01
7.122e-02,2.078e-01,2.953e-01,7.953e-01,6.211e-01,1.612e+00,1.803e+00,9.898e-01,1.433e+00,2.786e+00,2.451e+00,3.536e+00,3.197e+00,4.282e+00,3.186e+00,4.497e+00,4.988e+00,4.674e+00,5.043e+00,4.852e+00,6.451e+00,6.880e+00,6.315e+00,6.502e+00,6.708e+00,6.393e+00,7.822e+00,6.851e+00,6.742e+00,7.563e+00,8.927e+00,6.974e+00,8.382e+00,7.578e+00,7.790e+00,8.377e+00,7.976e+00,9.504e+00,8.841e+00,1.096e+01,8.927e+00,1.175e+01,8.779e+00,1.106e+01,1.152e+01,1.005e+01,1.233e+01,1.354e+01,1.227e+01,1.235e+01,1.343e+01,1.219e+01,1.345e+01,1.611e+01,1.212e+01,1.342e+01,1.529e+01,1.810e+01,1.358e+01,1.453e+01,1.403e+01,1.528e+01,1.455e+01,1.774e+01,1.676e+01,1.610e+01,1.587e+01,1.776e+01,1.632e+01,2.095e+01,1.747e+01,1.974e+01,1.686e+01,1.863e+01,1.924e+01,1.699e+01,1.670e+01,2.212e+01,1.987e+01
5.384e-02,1.611e-01,1.620e-01,4.237e-01,3.726e-01,1.108e+00,1.245e+00,1.110e+00,1.425e+00,2.624e+00,1.719e+00,2.543e+00,3.050e+00,3.233e+00,2.383e+00,4.149e+00,4.996e+00,3.932e+00,3.721e+00,3.779e+00,5.303e+00,5.515e+00,4.384e+00,5.684e+00,5.608e+00,5.058e+00,7.804e+00,6.464e+00,5.573e+00,6.687e+00,1.015e+01,7.284e+00,8.721e+00,7.864e+00,6.937e+00,9.283e+00,7.753e+00,9.416e+00,8.765e+00,1.034e+01,7.743e+00,1.004e+01,7.849e+00,1.040e+01,1.061e+01,7.945e+00,9.583e+00,1.179e+01,1.149e+01,1.106e+01,1.246e+01,1.016e+01,1.051e+01,1.355e+01,9.478e+00,1.233e+01,1.265e+01,1.485e+01,1.076e+01,1.282e+01,1.313e+01,1.466e+01,1.437e+01,1.431e+01,1.510e+01,1.639e+01,1.438e+01,1.687e+01,1.330e+01,1.682e+01,1.515e+01,1.732e+01,1.645e+01,1.561e+01,1.763e+01,1.719e+01,1.628e+01,1.941e+01,1.942e+01
1.703e-01,5.610e-01,5.123e-01,1.352e+00,1.291e+00,2.251e+00,2.334e+00,1.385e+00,1.629e+00,2.781e+00,1.897e+00,3.240e+00,2.694e+00,3.556e+00,2.950e+00,3.841e+00,4.630e+00,3.956e+00,5.101e+00,4.562e+00,6.211e+00,6.704e+00,5.487e+00,7.016e+00,6.411e+00,5.440e+00,7.213e+00,7.141e+00,6.925e+00,7.337e+00,9.161e+00,7.741e+00,9.050e+00,8.280e+00,6.521e+00,8.791e+00,7.996e+00,9.257e+00,8.596e+00,1.145e+01,8.144e+00,1.116e+01,9.182e+00,1.118e+01,1.120e+01,9.153e+00,1.049e+01,1.169e+01,1.163e+01,1.247e+01,1.224e+01,1.130e+01,1.306e+01,1.366e+01,1.194e+01,1.419e+01,1.392e+01,1.488e+01,1.176e+01,1.406e+01,1.303e+01,1.541e+01,1.279e+01,1.546e+01,1.563e+01,1.670e+01,1.442e+01,1.623e+01,1.384e+01,1.826e+01,1.611e+01,1.585e+01,1.624e+01,1.719e+01,1.638e+01,1.654e+01,1.450e+01,1.879e+01,1.813e+01
1.964e-01,5.797e-01,4.048e-01,1.046e+00,9.123e-01,2.317e+00,2.249e+00,1.211e+00,2.092e+00,3.190e+00,2.307e+00,3.770e+00,3.858e+00,4.741e+00,3.182e+00,4.342e+00,5.546e+00,4.994e+00,5.294e+00,5.539e+00,6.657e+00,7.169e+00,6.366e+00,6.137e+00,6.597e+00,5.944e+00,8.400e+00,7.193e+00,7.267e+00,7.980e+00,1.062e+01,8.361e+00,9.853e+00,8.777e+00,9.057e+00,1.045e+01,1.005e+01,1.079e+01,1.133e+01,1.350e+01,9.525e+00,1.231e+01,9.741e+00,1.304e+01,1.439e+01,1.183e+01,1.375e+01,1.579e+01,1.468e+01,1.471e+01,1.657e+01,1.355e+01,1.515e+01,1.865e+01,1.334e+01,1.655e+01,1.725e+01,1.985e+01,1.514e+01,1.688e+01,1.597e+01,1.864e+01,1.563e+01,1.826e+01,1.643e+01,1.987e+01,1.798e+01,1.886e+01,1.529e+01,2.055e+01,1.764e+01,2.026e+01,1.860e+01,1.824e+01,2.015e+01,1.932e+01,1.782e+01,2.177e+01,1.916e+01
1.545e-02,7.130e-02,2.020e-01,5.317e-01,4.899e-01,1.331e+00,1.494e+00,1.148e+00,1.571e+00,3.100e+00,1.915e+00,2.867e+00,2.634e+00,3.748e+00,2.996e+00,4.972e+00,5.065e+00,4.490e+00,4.543e+00,4.802e+00,6.522e+00,7.158e+00,5.503e+00,7.167e+00,6.673e+00,6.009e+00,9.360e+00,7.357e+00,7.187e+00,8.503e+00,1.009e+01,7.510e+00,8.960e+00,8.229e+00,7.585e+00,8.894e+00,8.440e+00,9.747e+00,8.655e+00,1.292e+01,9.165e+00,1.188e+01,9.843e+00,1.113e+01,1.190e+01,1.018e+01,1.047e+01,1.308e+01,1.319e+01,1.401e+01,1.310e+01,1.239e+01,1.413e+01,1.534e+01,1.280e+01,1.395e+01,1.459e+01,1.636e+01,1.178e+01,1.554e+01,1.373e+01,1.623e+01,1.587e+01,1.659e+01,1.680e+01,1.769e+01,1.663e+01,1.912e+01,1.519e+01,1.831e+01,1.797e+01,1.833e+01,1.737e+01,1.694e+01,1.807e+01,1.729e+01,1.844e+01,2.067e+01,2.089e+01
1.416e-01,4.401e-01,3.237e-01,6.585e-01,7.209e-01,1.001e+00,1.097e+00,8.265e-01,8.735e-01,2.015e+00,1.981e+00,3.062e+00,2.432e+00,3.052e+00,2.468e+00,4.035e+00,3.599e+00,2.967e+00,4.820e+00,4.326e+00,6.440e+00,7.155e+00,4.648e+00,6.520e+00,6.148e+00,5.872e+00,7.265e+00,6.143e+00,6.832e+00,7.205e+00,9.301e+00,6.991e+00,7.796e+00,8.174e+00,7.625e+00,8.736e+00,7.442e+00,8.823e+00,7.923e+00,1.149e+01,7.604e+00,8.673e+00,7.459e+00,9.497e+00,1.031e+01,8.689e+00,9.849e+00,1.103e+01,1.114e+01,1.227e+01,1.220e+01,1.014e+01,1.159e+01,1.399e+01,1.132e+01,1.204e+01,1.465e+01,1.563e+01,1.211e+01,1.257e+01,1.198e+01,1.418e+01,1.258e+01,1.461e+01,1.399e+01,1.579e+01,1.356e+01,1.611e+01,1.318e+01,1.771e+01,1.414e+01,1.658e+01,1.672e+01,1.578e+01,1.762e+01,1.594e+01,1.660e+01,2.016e+01,1.936e+01
