3.324e-02,9.584e-01,5.016e-01,1.551e-01,1.044e-02,3.319e-01,8.579e-01,2.105e-01,2.088e-01,9.681e-01,4.171e-01,2.101e-01,5.835e-01,6.566e-01,6.989e-01,1.222e-01,8.906e-01,6.305e-01,7.888e-01,9.695e-01,3.877e-01,5.866e-01,9.583e-01,7.936e-01,7.785e-01,7.581e-01,2.994e-01,1.205e-02,2.772e-02,9.083e-01,5.629e-01,5.084e-01,8.374e-01,1.816e-01,5.044e-01,7.034e-01,1.732e-01,2.747e-01,9.935e-01,5.319e-01,4.236e-01,1.182e-01,3.018e-01,2.935e-01,3.646e-01,6.534e-01,2.770e-01,6.752e-01,4.399e-02,3.111e-01,4.556e-01,5.349e-01,5.616e-01,4.873e-01,4.419e-01,4.124e-01,3.505e-01,8.447e-01,2.708e-01,7.675e-01,9.942e-01,5.625e-01,2.799e-01,5.730e-01,3.313e-02,1.371e-01,1.967e-01,7.481e-01,3.711e-01,5.393e-02,2.298e-01,1.347e-01,9.985e-01,8.008e-01,6.361e-01,8.389e-01,2.412e-01,5.156e-02,7.928e-01,7.554e-01,5.384e-01,4.028e-02,5.430e-01,4.864e-01,5.491e-01,5.308e-01,2.080e-01,6.322e-01,5.824e-01,8.512e-01,5.456e-01,9.884e-02,4.948e-01
1.985e-02,1.056e+00,6.523e-01,2.122e-01,5.385e-01,9.636e-01,5.340e-01,8.188e-01,3.823e-01,9.182e-01,7.675e-01,8.570e-01,4.009e-01,4.720e-01,1.037e+00,9.932e-02,1.194e+00,7.936e-01,1.425e+00,1.183e+00,1.058e+00,3.918e-01,9.651e-01,1.229e+00,1.432e+00,1.409e+00,5.647e-01,6.493e-01,7.920e-01,1.002e+00,5.475e-01,1.220e+00,5.657e-01,9.909e-01,8.331e-01,9.016e-01,2.133e-01,6.720e-01,1.414e+00,6.650e-01,4.619e-01,6.930e-01,9.676e-01,9.740e-01,6.466e-01,1.233e+00,5.628e-01,9.019e-01,3.480e-02,4.940e-01,1.103e+00,7.669e-01,4.163e-01,5.111e-01,3.503e-01,8.686e-01,8.860e-01,7.717e-01,7.062e-01,1.155e+00,1.036e+00,1.020e+00,1.808e-01,9.197e-01,3.515e-01,9.568e-01,1.115e+00,8.277e-01,1.039e+00,3.898e-01,9.038e-01,2.151e-01,1.204e+00,5.458e-01,1.312e+00,1.112e+00,5.644e-01,4.443e-01,1.055e+00,9.763e-01,3.758e-01,9.794e-01,8.835e-01,8.182e-01,1.254e+00,1.261e+00,1.640e-01,8.861e-01,7.804e-01,1.011e+00,6.504e-01,1.029e+00,8.493e-01
1.343e-02,4.307e-01,1.100e+00,2.573e-01,4.010e-01,7.679e-01,1.043e+00,8.162e-01,4.993e-01,6.534e-01,8.109e-01,3.677e-01,1.089e+00,7.272e-01,1.100e+00,4.640e-01,4.922e-01,3.910e-01,6.622e-01,6.314e-01,4.157e-01,5.499e-01,1.214e+00,7.976e-01,7.532e-01,8.034e-01,2.779e-01,4.907e-01,9.478e-02,1.330e+00,1.071e+00,9.290e-01,1.128e+00,7.354e-01,5.368e-01,1.039e+00,1.039e+00,6.731e-01,1.090e+00,9.191e-01,8.441e-01,6.207e-01,5.834e-01,8.012e-01,5.107e-01,8.627e-01,1.747e-01,4.136e-01,9.628e-01,4.854e-01,3.899e-01,2.914e-01,5.155e-01,3.632e-01,7.105e-01,4.204e-01,2.976e-01,5.237e-01,6.337e-01,8.552e-01,1.260e+00,7.149e-01,7.181e-01,3.509e-01,5.779e-01,7.514e-01,2.647e-01,1.052e+00,9.439e-01,8.688e-01,1.036e+00,3.965e-01,1.345e+00,8.705e-01,8.466e-01,1.314e+00,5.897e-01,4.989e-01,1.033e+00,8.454e-01,9.538e-01,5.457e-01,1.199e+00,6.085e-01,1.113e+00,6.471e-01,4.011e-01,4.792e-01,8.303e-01,1.229e+00,9.656e-01,6.608e-01,7.428e-01
2.596e-02,8.198e-01,1.170e+00,4.116e-01,5.184e-01,1.481e+00,1.798e+00,1.155e+00,1.197e+00,1.471e+00,1.724e+00,8.742e-01,1.354e+00,1.816e+00,1.910e+00,7.693e-01,1.338e+00,1.592e+00,1.384e+00,1.502e+00,1.095e+00,7.265e-01,2.118e+00,2.068e+00,1.844e+00,1.110e+00,4.341e-01,1.048e+00,9.693e-01,2.346e+00,1.768e+00,1.743e+00,1.871e+00,1.036e+00,1.324e+00,2.025e+00,1.816e+00,1.498e+00,2.412e+00,1.486e+00,1.122e+00,1.476e+00,1.395e+00,1.541e+00,1.516e+00,1.967e+00,7.985e-01,1.359e+00,1.519e+00,1.404e+00,8.509e-01,1.355e+00,1.019e+00,1.171e+00,1.003e+00,1.291e+00,1.442e+00,1.354e+00,8.168e-01,1.703e+00,1.800e+00,1.204e+00,8.379e-01,9.666e-01,1.478e+00,1.300e+00,1.107e+00,1.732e+00,1.564e+00,1.216e+00,1.476e+00,4.780e-01,2.207e+00,1.408e+00,1.601e+00,2.043e+00,7.953e-01,9.368e-01,1.547e+00,1.635e+00,1.731e+00,1.343e+00,1.450e+00,1.173e+00,1.785e+00,1.797e+00,5.770e-01,1.332e+00,1.973e+00,1.909e+00,2.050e+00,1.207e+00,1.284e+00
1.654e-02,9.104e-01,1.354e+00,4.527e-01,1.646e+00,2.770e+00,1.855e+00,1.807e+00,1.264e+00,1.493e+00,2.217e+00,1.543e+00,1.335e+00,1.668e+00,2.861e+00,1.382e+00,1.868e+00,1.922e+00,2.086e+00,2.001e+00,2.284e+00,7.567e-01,2.448e+00,2.661e+00,2.456e+00,2.386e+00,8.420e-01,1.931e+00,1.916e+00,3.271e+00,2.310e+00,2.778e+00,1.686e+00,1.918e+00,2.116e+00,2.371e+00,2.224e+00,2.590e+00,2.750e+00,2.514e+00,1.926e+00,2.720e+00,2.573e+00,2.365e+00,1.856e+00,2.773e+00,1.283e+00,1.748e+00,2.024e+00,2.111e+00,1.721e+00,1.491e+00,9.831e-01,1.293e+00,1.090e+00,1.689e+00,2.180e+00,2.093e+00,1.553e+00,2.327e+00,2.308e+00,2.436e+00,1.398e+00,2.036e+00,1.702e+00,2.557e+00,1.928e+00,2.476e+00,2.234e+00,1.829e+00,2.493e+00,6.028e-01,2.672e+00,1.422e+00,2.151e+00,2.633e+00,1.971e+00,1.907e+00,2.491e+00,2.546e+00,2.422e+00,2.455e+00,2.673e+00,1.950e+00,2.351e+00,2.379e+00,1.096e+00,2.168e+00,2.580e+00,2.521e+00,2.220e+00,2.193e+00,2.037e+00
2.500e-02,1.156e+00,1.160e+00,4.273e-01,1.386e+00,3.363e+00,2.490e+00,1.904e+00,1.944e+00,2.603e+00,2.466e+00,1.612e+00,1.816e+00,2.355e+00,2.807e+00,1.217e+00,2.267e+00,2.987e+00,2.867e+00,2.754e+00,2.226e+00,1.373e+00,3.043e+00,3.314e+00,3.274e+00,2.339e+00,1.398e+00,2.113e+00,2.371e+00,3.927e+00,2.690e+00,3.314e+00,2.590e+00,2.097e+00,2.782e+00,2.410e+00,1.959e+00,3.279e+00,2.797e+00,2.898e+00,2.134e+00,3.224e+00,2.708e+00,2.991e+00,2.719e+00,3.312e+00,2.228e+00,2.781e+00,2.030e+00,2.184e+00,1.808e+00,2.006e+00,1.708e+00,1.540e+00,1.985e+00,1.851e+00,2.974e+00,3.083e+00,2.344e+00,2.383e+00,2.756e+00,2.374e+00,2.115e+00,2.176e+00,1.642e+00,2.512e+00,2.121e+00,2.364e+00,2.101e+00,2.142e+00,2.670e+00,6.180e-01,3.204e+00,2.060e+00,2.753e+00,3.310e+00,2.235e+00,2.299e+00,2.696e+00,3.138e+00,2.611e+00,3.023e+00,2.372e+00,2.663e+00,2.447e+00,2.894e+00,9.955e-01,3.135e+00,3.338e+00,3.123e+00,2.542e+00,2.957e+00,2.711e+00
7.472e-03,3.783e-01,2.912e-01,1.769e-01,4.655e-01,1.354e+00,1.934e+00,1.418e+00,1.225e+00,1.900e+00,1.745e+00,1.709e+00,8.677e-01,1.191e+00,1.198e+00,1.009e+00,1.756e+00,2.310e+00,2.082e+00,1.956e+00,1.202e+00,1.265e+00,1.565e+00,1.632e+00,2.293e+00,1.429e+00,9.504e-01,1.372e+00,1.346e+00,2.389e+00,1.324e+00,2.120e+00,1.512e+00,8.990e-01,2.150e+00,1.248e+00,1.792e+00,2.279e+00,1.965e+00,1.846e+00,1.216e+00,1.874e+00,1.528e+00,1.714e+00,2.260e+00,1.570e+00,1.204e+00,1.784e+00,1.709e+00,1.690e+00,1.238e+00,1.931e+00,1.139e+00,1.731e+00,8.046e-01,1.761e+00,2.255e+00,1.914e+00,9.754e-01,1.207e+00,1.213e+00,1.455e+00,1.399e+00,9.933e-01,1.076e+00,1.078e+00,1.602e+00,1.206e+00,1.862e+00,1.364e+00,1.794e+00,6.206e-01,1.503e+00,1.585e+00,1.762e+00,1.393e+00,1.506e+00,1.185e+00,1.324e+00,1.348e+00,1.240e+00,2.174e+00,7.706e-01,1.415e+00,1.752e+00,1.504e+00,1.061e+00,1.588e+00,2.033e+00,1.344e+00,1.917e+00,1.235e+00,1.522e+00
1.080e-02,4.573e-01,9.450e-01,3.456e-01,1.185e+00,2.605e+00,2.680e+00,2.351e+00,2.290e+00,2.577e+00,3.224e+00,2.081e+00,2.651e+00,2.160e+00,3.376e+00,2.115e+00,2.265e+00,2.904e+00,3.348e+00,2.547e+00,2.634e+00,1.994e+00,3.169e+00,3.158e+00,3.133e+00,2.206e+00,1.553e+00,2.600e+00,2.849e+00,4.319e+00,3.170e+00,3.459e+00,2.911e+00,2.430e+00,3.710e+00,2.339e+00,3.208e+00,3.438e+00,2.981e+00,3.492e+00,2.677e+00,3.527e+00,2.617e+00,2.758e+00,3.470e+00,3.287e+00,2.022e+00,2.939e+00,3.658e+00,3.025e+00,2.165e+00,2.455e+00,1.981e+00,2.625e+00,1.510e+00,1.948e+00,3.305e+00,3.197e+00,1.984e+00,2.154e+00,2.887e+00,2.583e+00,2.963e+00,2.359e+00,2.180e+00,2.868e+00,1.883e+00,3.005e+00,2.786e+00,2.615e+00,3.354e+00,1.280e+00,3.119e+00,2.498e+00,2.631e+00,3.140e+00,2.938e+00,2.272e+00,2.471e+00,2.607e+00,2.962e+00,2.909e+00,2.449e+00,2.300e+00,2.814e+00,2.161e+00,2.237e+00,2.759e+00,3.498e+00,3.232e+00,3.617e+00,2.864e+00,2.320e+00
1.589e-02,9.125e-01,1.083e+00,3.330e-01,1.203e+00,2.666e+00,2.469e+00,2.349e+00,2.441e+00,2.973e+00,3.298e+00,2.841e+00,3.043e+00,2.424e+00,3.616e+00,2.381e+00,2.759e+00,3.013e+00,4.412e+00,2.957e+00,3.223e+00,2.067e+00,3.417e+00,3.142e+00,3.921e+00,3.418e+00,2.100e+00,3.237e+00,2.933e+00,4.406e+00,2.595e+00,4.055e+00,2.774e+00,2.733e+00,3.807e+00,2.038e+00,3.053e+00,3.680e+00,3.424e+00,3.625e+00,2.813e+00,3.670e+00,2.890e+00,3.356e+00,3.269e+00,3.792e+00,2.257e+00,3.675e+00,2.726e+00,2.393e+00,2.616e+00,3.106e+00,2.727e+00,3.026e+00,1.715e+00,2.074e+00,3.930e+00,3.615e+00,2.898e+00,2.278e+00,3.058e+00,2.867e+00,3.235e+00,2.315e+00,1.537e+00,2.706e+00,2.987e+00,2.777e+00,3.227e+00,2.493e+00,3.247e+00,1.931e+00,2.999e+00,2.609e+00,3.219e+00,3.208e+00,3.387e+00,2.934e+00,3.032e+00,3.340e+00,2.435e+00,3.972e+00,2.907e+00,2.877e+00,3.046e+00,3.230e+00,2.064e+00,2.970e+00,3.800e+00,3.774e+00,2.998e+00,3.204e+00,2.635e+00
3.150e-02,1.278e+00,1.216e+00,3.568e-01,8.923e-01,1.724e+00,2.088e+00,2.095e+00,1.699e+00,3.035e+00,3.508e+00,2.659e+00,3.189e+00,1.740e+00,3.957e+00,2.019e+00,3.477e+00,3.109e+00,3.821e+00,3.070e+00,3.123e+00,2.032e+00,3.594e+00,2.910e+00,3.609e+00,3.689e+00,2.178e+00,2.694e+00,2.953e+00,4.180e+00,3.218e+00,3.770e+00,2.704e+00,3.199e+00,3.894e+00,2.228e+00,3.012e+00,2.551e+00,3.811e+00,3.218e+00,2.423e+00,2.761e+00,2.398e+00,2.845e+00,2.878e+00,3.872e+00,2.425e+00,2.887e+00,2.438e+00,2.754e+00,3.426e+00,3.209e+00,1.933e+00,2.658e+00,1.185e+00,2.602e+00,2.904e+00,3.680e+00,2.730e+00,2.415e+00,3.243e+00,3.440e+00,2.471e+00,3.071e+00,1.969e+00,2.600e+00,1.927e+00,2.953e+00,3.609e+00,2.157e+00,2.779e+00,2.371e+00,3.171e+00,3.204e+00,3.207e+00,3.650e+00,3.263e+00,1.705e+00,3.103e+00,2.341e+00,2.124e+00,2.726e+00,2.590e+00,2.494e+00,2.859e+00,2.303e+00,2.510e+00,2.344e+00,3.539e+00,3.385e+00,3.312e+00,2.478e+00,2.549e+00
2.630e-02,9.628e-01,5.732e-01,2.771e-01,5.513e-01,1.944e+00,1.830e+00,1.340e+00,2.193e+00,2.723e+00,3.277e+00,2.592e+00,3.124e+00,2.855e+00,3.625e+00,2.699e+00,2.700e+00,3.249e+00,3.615e+00,2.613e+00,3.059e+00,1.745e+00,3.950e+00,3.765e+00,4.167e+00,3.463e+00,2.360e+00,3.532e+00,3.655e+00,3.935e+00,2.419e+00,3.393e+00,3.184e+00,2.992e+00,3.835e+00,2.318e+00,3.440e+00,3.627e+00,3.954e+00,3.363e+00,2.245e+00,3.408e+00,2.390e+00,3.062e+00,3.075e+00,4.607e+00,2.908e+00,3.686e+00,2.201e+00,3.072e+00,3.184e+00,3.363e+00,2.860e+00,3.617e+00,1.798e+00,2.469e+00,3.553e+00,4.183e+00,3.040e+00,2.632e+00,3.184e+00,2.431e+00,2.366e+00,2.824e+00,2.057e+00,2.374e+00,3.170e+00,2.630e+00,3.106e+00,1.747e+00,2.466e+00,2.440e+00,2.697e+00,2.422e+00,3.183e+00,2.984e+00,3.359e+00,2.725e+00,2.565e+00,2.961e+00,3.038e+00,3.451e+00,2.825e+00,2.394e+00,2.557e+00,3.543e+00,2.266e+00,2.783e+00,3.840e+00,4.147e+00,3.346e+00,3.038e+00,2.402e+00
2.005e-02,8.306e-01,8.701e-01,3.289e-01,8.509e-01,1.922e+00,1.963e+00,1.819e+00,1.958e+00,2.480e+00,3.331e+00,3.513e+00,3.244e+00,2.545e+00,3.839e+00,3.477e+00,3.249e+00,3.021e+00,3.640e+00,3.298e+00,3.159e+00,2.326e+00,4.384e+00,3.993e+00,4.739e+00,3.786e+00,2.288e+00,4.078e+00,3.924e+00,4.008e+00,2.912e+00,4.193e+00,3.737e+00,3.201e+00,4.338e+00,3.379e+00,4.287e+00,3.699e+00,4.477e+00,3.753e+00,3.209e+00,3.702e+00,3.333e+00,3.579e+00,3.105e+00,4.609e+00,2.676e+00,3.464e+00,3.612e+00,3.608e+00,4.018e+00,3.980e+00,2.422e+00,3.573e+00,2.272e+00,3.298e+00,4.123e+00,3.962e+00,2.605e+00,2.628e+00,3.771e+00,3.625e+00,2.534e+00,3.216e+00,2.490e+00,2.852e+00,2.936e+00,3.021e+00,3.510e+00,2.282e+00,3.737e+00,2.996e+00,2.864e+00,2.535e+00,3.568e+00,3.586e+00,4.099e+00,2.904e+00,3.560e+00,3.176e+00,3.872e+00,3.348e+00,2.838e+00,2.394e+00,3.100e+00,3.582e+00,2.874e+00,3.097e+00,4.517e+00,4.154e+00,3.811e+00,3.301e+00,2.631e+00
1.869e-02,5.848e-01,4.411e-01,1.935e-01,7.570e-01,2.036e+00,1.811e+00,1.122e+00,1.468e+00,2.035e+00,2.133e+00,1.672e+00,2.111e+00,1.999e+00,2.690e+00,2.976e+00,2.050e+00,2.704e+00,2.435e+00,2.739e+00,2.533e+00,2.594e+00,3.761e+00,3.745e+00,3.460e+00,2.481e+00,1.999e+00,2.739e+00,3.256e+00,3.874e+00,2.740e+00,2.847e+00,3.645e+00,2.861e+00,3.021e+00,2.704e+00,2.756e+00,3.403e+00,2.442e+00,3.155e+00,2.508e+00,3.273e+00,2.781e+00,2.438e+00,2.897e+00,4.038e+00,2.926e+00,2.573e+00,2.866e+00,2.792e+00,2.481e+00,2.582e+00,1.793e+00,2.361e+00,2.662e+00,2.203e+00,3.411e+00,3.693e+00,2.934e+00,2.408e+00,3.105e+00,2.556e+00,2.707e+00,3.162e+00,2.449e+00,2.787e+00,2.308e+00,2.612e+00,1.853e+00,1.938e+00,2.784e+00,1.893e+00,2.296e+00,1.953e+00,3.023e+00,2.998e+00,3.506e+00,2.981e+00,2.334e+00,3.205e+00,3.282e+00,2.670e+00,2.765e+00,2.796e+00,1.782e+00,2.192e+00,2.416e+00,2.968e+00,3.088e+00,3.806e+00,3.326e+00,2.736e+00,3.048e+00
6.960e-03,5.130e-01,3.861e-01,1.990e-01,5.968e-01,1.263e+00,1.352e+00,1.282e+00,1.064e+00,1.662e+00,2.114e+00,2.253e+00,1.310e+00,1.999e+00,2.475e+00,2.580e+00,2.422e+00,3.071e+00,2.326e+00,2.483e+00,2.569e+00,2.274e+00,2.815e+00,2.892e+00,3.889e+00,2.966e+00,2.172e+00,3.497e+00,3.578e+00,3.079e+00,2.102e+00,3.273e+00,3.042e+00,2.525e+00,2.717e+00,2.926e+00,3.409e+00,2.964e+00,3.687e+00,2.833e+00,2.505e+00,3.235e+00,2.736e+00,3.003e+00,3.347e+00,3.986e+00,2.359e+00,2.701e+00,2.332e+00,3.251e+00,2.589e+00,2.692e+00,1.506e+00,3.254e+00,1.635e+00,2.777e+00,3.015e+00,2.970e+00,2.704e+00,3.170e+00,2.467e+00,2.886e+00,2.463e+00,2.514e+00,2.433e+00,3.114e+00,3.635e+00,2.395e+00,2.720e+00,1.939e+00,2.807e+00,2.551e+00,2.164e+00,2.498e+00,3.118e+00,2.434e+00,3.678e+00,2.988e+00,2.480e+00,2.853e+00,2.933e+00,3.295e+00,2.414e+00,2.205e+00,2.932e+00,2.707e+00,2.329e+00,1.958e+00,2.852e+00,2.774e+00,2.948e+00,2.145e+00,3.231e+00
2.015e-03,3.966e-01,9.319e-01,2.979e-01,7.534e-01,1.823e+00,1.908e+00,2.000e+00,2.101e+00,2.601e+00,3.383e+00,2.920e+00,3.008e+00,2.743e+00,4.798e+00,3.843e+00,4.023e+00,4.242e+00,3.906e+00,4.070e+00,4.031e+00,2.821e+00,4.593e+00,4.003e+00,4.961e+00,3.871e+00,3.325e+00,4.674e+00,4.475e+00,4.484e+00,4.228e+00,5.132e+00,4.047e+00,4.189e+00,3.696e+00,4.039e+00,4.927e+00,3.749e+00,4.685e+00,4.110e+00,4.235e+00,4.539e+00,4.099e+00,4.623e+00,4.722e+00,5.349e+00,3.013e+00,4.161e+00,3.275e+00,4.190e+00,3.098e+00,4.152e+00,3.002e+00,4.017e+00,2.818e+00,3.626e+00,4.378e+00,4.121e+00,4.216e+00,3.377e+00,4.073e+00,3.869e+00,4.286e+00,3.575e+00,3.274e+00,4.123e+00,4.441e+00,3.544e+00,4.110e+00,3.425e+00,3.905e+00,4.313e+00,3.875e+00,3.680e+00,4.036e+00,4.174e+00,5.007e+00,4.004e+00,3.714e+00,3.870e+00,3.179e+00,4.555e+00,3.136e+00,3.829e+00,3.760e+00,4.080e+00,3.241e+00,3.332e+00,4.977e+00,4.035e+00,4.044e+00,3.236e+00,3.982e+00
3.005e-02,1.340e+00,1.183e+00,4.046e-01,1.196e+00,2.562e+00,2.633e+00,2.296e+00,1.855e+00,2.947e+00,3.001e+00,3.202e+00,2.528e+00,2.645e+00,3.629e+00,3.409e+00,4.142e+00,3.742e+00,4.818e+00,4.453e+00,3.364e+00,3.369e+00,4.677e+00,4.704e+00,4.957e+00,4.777e+00,3.015e+00,4.644e+00,3.758e+00,5.191e+00,3.962e+00,4.688e+00,4.254e+00,3.432e+00,4.976e+00,4.155e+00,4.276e+00,3.868e+00,5.426e+00,4.503e+00,4.618e+00,4.335e+00,4.149e+00,4.226e+00,3.880e+00,5.048e+00,3.200e+00,4.204e+00,3.667e+00,3.979e+00,4.276e+00,4.069e+00,2.471e+00,4.340e+00,2.578e+00,4.068e+00,4.411e+00,3.863e+00,3.691e+00,3.650e+00,4.806e+00,4.821e+00,3.940e+00,4.013e+00,3.003e+00,4.265e+00,4.129e+00,3.496e+00,3.974e+00,3.214e+00,4.129e+00,3.341e+00,3.726e+00,4.030e+00,4.468e+00,4.443e+00,4.214e+00,3.451e+00,5.040e+00,4.710e+00,4.087e+00,4.333e+00,2.977e+00,3.817e+00,3.871e+00,4.211e+00,2.591e+00,3.692e+00,5.216e+00,4.689e+00,3.727e+00,3.848e+00,4.452e+00
7.543e-03,3.690e-01,4.657e-01,1.976e-01,9.147e-01,2.039e+00,1.679e+00,1.253e+00,1.631e+00,2.208e+00,2.742e+00,2.186e+00,2.262e+00,2.671e+00,3.727e+00,2.959e+00,3.681e+00,4.568e+00,3.661e+00,3.552e+00,3.500e+00,2.861e+00,4.325e+00,4.039e+00,3.995e+00,4.451e+00,2.980e+00,4.423e+00,4.414e+00,4.169e+00,3.690e+00,4.568e+00,3.854e+00,3.478e+00,3.686e+00,3.285e+00,3.972e+00,4.110e+00,4.901e+00,4.340e+00,4.402e+00,4.489e+00,4.186e+00,4.408e+00,4.173e+00,5.001e+00,3.592e+00,4.005e+00,2.750e+00,3.696e+00,3.724e+00,3.307e+00,2.511e+00,3.838e+00,2.156e+00,3.339e+00,4.109e+00,4.511e+00,3.930e+00,3.250e+00,3.332e+00,3.875e+00,3.737e+00,3.178e+00,3.092e+00,4.130e+00,4.295e+00,3.138e+00,3.897e+00,2.887e+00,3.549e+00,3.830e+00,3.662e+00,3.518e+00,3.850e+00,3.835e+00,4.403e+00,4.224e+00,4.121e+00,4.065e+00,4.029e+00,4.712e+00,2.862e+00,3.543e+00,3.667e+00,3.445e+00,2.869e+00,3.037e+00,4.697e+00,4.390e+00,3.114e+00,2.705e+00,3.664e+00
3.238e-02,1.388e+00,1.002e+00,3.975e-01,1.079e+00,2.261e+00,2.211e+00,1.786e+00,1.506e+00,2.976e+00,3.271e+00,2.821e+00,2.248e+00,2.425e+00,4.000e+00,3.322e+00,4.778e+00,5.653e+00,5.290e+00,5.728e+00,4.173e+00,4.409e+00,5.657e+00,5.776e+00,5.340e+00,6.046e+00,3.937e+00,4.399e+00,5.513e+00,5.748e+00,5.225e+00,5.809e+00,5.558e+00,5.577e+00,4.512e+00,4.973e+00,4.304e+00,5.069e+00,5.886e+00,4.809e+00,4.646e+00,5.234e+00,5.225e+00,4.478e+00,4.957e+00,6.197e+00,4.878e+00,4.598e+00,3.438e+00,4.312e+00,5.152e+00,4.709e+00,2.224e+00,4.038e+00,3.348e+00,4.937e+00,4.969e+00,5.739e+00,5.030e+00,4.666e+00,4.436e+00,5.614e+00,3.406e+00,5.080e+00,4.787e+00,4.654e+00,5.422e+00,3.803e+00,5.209e+00,3.673e+00,4.004e+00,4.228e+00,4.361e+00,4.714e+00,6.213e+00,5.547e+00,5.016e+00,4.531e+00,5.417e+00,5.206e+00,4.264e+00,5.760e+00,4.409e+00,4.886e+00,4.778e+00,4.117e+00,3.706e+00,3.978e+00,5.534e+00,6.001e+00,4.587e+00,3.990e+00,5.051e+00
2.936e-02,9.498e-01,6.451e-01,2.626e-01,3.522e-01,1.554e+00,2.147e+00,1.320e+00,1.830e+00,3.045e+00,3.022e+00,2.482e+00,2.803e+00,2.728e+00,4.181e+00,3.121e+00,4.565e+00,5.256e+00,5.380e+00,5.806e+00,3.920e+00,4.358e+00,5.383e+00,4.800e+00,5.655e+00,5.196e+00,3.580e+00,4.164e+00,4.666e+00,5.111e+00,4.656e+00,5.240e+00,5.707e+00,4.281e+00,4.256e+00,4.348e+00,4.759e+00,4.457e+00,5.729e+00,5.082e+00,4.828e+00,4.383e+00,4.609e+00,5.116e+00,5.198e+00,5.427e+00,3.825e+00,5.211e+00,3.220e+00,4.389e+00,4.492e+00,5.161e+00,3.111e+00,4.753e+00,4.043e+00,4.327e+00,4.990e+00,5.604e+00,4.259e+00,3.754e+00,4.702e+00,4.864e+00,4.363e+00,4.120e+00,4.251e+00,3.881e+00,4.451e+00,4.315e+00,4.312e+00,3.191e+00,4.360e+00,4.337e+00,5.292e+00,4.173e+00,5.217e+00,4.816e+00,4.896e+00,4.411e+00,4.449e+00,4.907e+00,4.246e+00,5.228e+00,3.201e+00,4.347e+00,4.792e+00,3.989e+00,3.370e+00,3.801e+00,6.253e+00,5.333e+00,4.039e+00,3.326e+00,3.918e+00
8.655e-03,6.878e-01,4.983e-01,2.249e-01,1.221e+00,2.173e+00,1.566e+00,1.873e+00,1.993e+00,2.223e+00,3.309e+00,3.106e+00,2.747e+00,2.361e+00,4.432e+00,4.051e+00,3.690e+00,4.223e+00,5.653e+00,5.176e+00,5.318e+00,4.015e+00,4.895e+00,5.977e+00,5.303e+00,6.168e+00,4.576e+00,5.644e+00,6.190e+00,5.263e+00,4.742e+00,6.170e+00,4.887e+00,5.634e+00,5.274e+00,4.136e+00,5.505e+00,5.996e+00,5.996e+00,5.669e+00,5.233e+00,5.888e+00,5.250e+00,4.718e+00,5.767e+00,6.389e+00,4.164e+00,5.657e+00,4.144e+00,4.764e+00,4.783e+00,4.604e+00,3.799e+00,5.129e+00,3.756e+00,4.392e+00,5.023e+00,5.943e+00,5.339e+00,4.448e+00,5.196e+00,5.466e+00,4.941e+00,5.671e+00,3.844e+00,4.927e+00,5.805e+00,4.226e+00,5.491e+00,3.636e+00,5.067e+00,4.725e+00,4.031e+00,4.267e+00,5.184e+00,4.781e+00,6.144e+00,4.932e+00,4.890e+00,5.388e+00,4.428e+00,5.945e+00,5.034e+00,4.167e+00,4.815e+00,4.406e+00,3.951e+00,4.337e+00,5.689e+00,6.115e+00,4.329e+00,5.150e+00,4.104e+00
1.694e-02,8.087e-01,5.637e-01,2.129e-01,1.107e+00,2.073e+00,1.959e+00,1.904e+00,1.935e+00,2.590e+00,3.378e+00,3.473e+00,3.172e+00,2.721e+00,5.288e+00,5.533e+00,5.017e+00,4.752e+00,6.289e+00,5.961e+00,6.125e+00,5.831e+00,7.367e+00,7.357e+00,7.043e+00,7.622e+00,5.093e+00,6.794e+00,6.563e+00,6.683e+00,5.724e+00,6.031e+00,6.747e+00,6.198e+00,6.412e+00,5.199e+00,6.936e+00,6.415e+00,7.654e+00,6.851e+00,6.639e+00,6.366e+00,6.189e+00,6.513e+00,6.690e+00,7.161e+00,5.083e+00,6.785e+00,4.614e+00,6.478e+00,6.441e+00,5.772e+00,4.276e+00,6.949e+00,4.591e+00,5.281e+00,5.996e+00,7.084e+00,6.205e+00,5.523e+00,6.822e+00,6.870e+00,6.907e+00,6.804e+00,4.999e+00,6.149e+00,7.057e+00,5.805e+00,5.524e+00,4.364e+00,6.910e+00,6.455e+00,5.294e+00,4.435e+00,5.910e+00,5.778e+00,6.853e+00,6.701e+00,5.658e+00,6.306e+00,6.588e+00,6.607e+00,4.913e+00,5.133e+00,5.643e+00,5.168e+00,4.856e+00,4.961e+00,7.396e+00,7.148e+00,5.437e+00,5.112e+00,5.735e+00
2.333e-02,9.337e-01,1.402e+00,4.061e-01,8.488e-01,2.439e+00,2.534e+00,2.198e+00,2.233e+00,2.970e+00,3.222e+00,2.870e+00,3.636e+00,3.192e+00,4.394e+00,4.227e+00,4.429e+00,4.647e+00,5.883e+00,6.311e+00,4.781e+00,6.421e+00,7.172e+00,7.842e+00,7.631e+00,6.678e+00,5.568e+00,7.239e+00,5.970e+00,6.868e+00,6.279e+00,6.710e+00,8.453e+00,6.696e+00,6.551e+00,6.176e+00,6.844e+00,5.942e+00,7.714e+00,6.897e+00,7.019e+00,6.584e+00,6.554e+00,7.403e+00,7.319e+00,8.241e+00,5.220e+00,6.626e+00,6.384e+00,6.150e+00,6.632e+00,6.335e+00,4.381e+00,5.853e+00,6.270e+00,5.507e+00,5.740e+00,6.178e+00,6.874e+00,5.233e+00,7.297e+00,7.224e+00,7.276e+00,6.570e+00,5.602e+00,6.310e+00,5.848e+00,5.782e+00,5.395e+00,5.095e+00,7.947e+00,6.316e+00,6.300e+00,5.968e+00,6.715e+00,6.956e+00,7.000e+00,5.710e+00,6.733e+00,7.140e+00,6.627e+00,6.250e+00,4.741e+00,5.957e+00,6.577e+00,5.107e+00,4.009e+00,5.348e+00,7.649e+00,7.506e+00,5.519e+00,6.735e+00,6.357e+00
1.585e-02,6.180e-01,5.150e-01,2.363e-01,7.363e-01,2.023e+00,2.086e+00,1.709e+00,2.162e+00,2.958e+00,3.501e+00,2.603e+00,3.083e+00,2.913e+00,4.964e+00,4.205e+00,4.760e+00,5.089e+00,5.736e+00,5.663e+00,5.040e+00,5.064e+00,6.800e+00,7.040e+00,7.586e+00,6.859e+00,5.473e+00,7.012e+00,6.235e+00,6.561e+00,6.154e+00,6.377e+00,7.426e+00,6.246e+00,6.657e+00,5.911e+00,6.531e+00,5.295e+00,7.620e+00,7.105e+00,6.781e+00,6.710e+00,6.230e+00,6.475e+00,6.855e+00,7.689e+00,4.791e+00,6.864e+00,4.868e+00,6.352e+00,6.322e+00,6.555e+00,4.571e+00,6.266e+00,4.837e+00,5.579e+00,6.231e+00,6.432e+00,6.915e+00,5.097e+00,6.810e+00,6.646e+00,7.351e+00,7.163e+00,5.778e+00,5.663e+00,6.324e+00,5.494e+00,5.724e+00,4.698e+00,6.085e+00,6.666e+00,6.288e+00,5.397e+00,5.688e+00,5.786e+00,6.393e+00,6.251e+00,6.365e+00,6.451e+00,5.817e+00,6.231e+00,4.656e+00,6.534e+00,6.195e+00,5.746e+00,4.527e+00,5.034e+00,7.720e+00,6.695e+00,5.020e+00,5.370e+00,6.501e+00
1.768e-02,5.182e-01,5.125e-01,2.251e-01,2.335e-01,8.696e-01,1.562e+00,1.087e+00,1.450e+00,2.078e+00,2.656e+00,2.875e+00,2.589e+00,2.742e+00,4.063e+00,4.427e+00,4.688e+00,4.801e+00,5.391e+00,6.360e+00,4.788e+00,5.912e+00,6.846e+00,7.871e+00,7.668e+00,7.703e+00,5.843e+00,7.911e+00,6.882e+00,6.406e+00,6.284e+00,7.562e+00,8.408e+00,6.488e+00,6.165e+00,7.126e+00,7.631e+00,5.705e+00,8.559e+00,7.096e+00,7.369e+00,6.571e+00,6.748e+00,6.872e+00,7.550e+00,7.835e+00,5.064e+00,7.630e+00,5.534e+00,6.170e+00,6.435e+00,7.216e+00,5.054e+00,6.587e+00,6.249e+00,6.437e+00,6.348e+00,6.543e+00,6.764e+00,5.738e+00,7.534e+00,8.224e+00,6.700e+00,7.584e+00,6.263e+00,5.537e+00,6.946e+00,5.168e+00,6.015e+00,5.681e+00,6.984e+00,7.430e+00,5.812e+00,6.369e+00,6.656e+00,6.439e+00,7.088e+00,6.446e+00,7.027e+00,7.039e+00,6.481e+00,6.250e+00,5.334e+00,5.878e+00,7.250e+00,5.796e+00,4.923e+00,5.435e+00,8.582e+00,7.456e+00,5.584e+00,5.270e+00,6.775e+00
1.771e-02,7.878e-01,7.941e-01,3.101e-01,9.379e-01,2.515e+00,2.058e+00,1.711e+00,2.339e+00,2.792e+00,3.433e+00,3.264e+00,3.442e+00,3.504e+00,4.495e+00,3.870e+00,3.649e+00,4.641e+00,5.151e+00,5.420e+00,4.793e+00,4.885e+00,5.910e+00,7.005e+00,8.076e+00,6.862e+00,6.077e+00,7.369e+00,7.278e+00,7.092e+00,5.941e+00,7.756e+00,8.164e+00,7.312e+00,6.918e+00,6.157e+00,7.189e+00,6.597e+00,7.679e+00,6.628e+00,5.977e+00,7.869e+00,6.411e+00,7.089e+00,7.705e+00,8.784e+00,5.581e+00,7.900e+00,6.518e+00,6.775e+00,5.910e+00,6.618e+00,5.310e+00,5.424e+00,5.750e+00,5.588e+00,6.134e+00,6.949e+00,6.644e+00,5.406e+00,6.521e+00,7.777e+00,6.782e+00,7.309e+00,5.297e+00,4.905e+00,6.384e+00,5.202e+00,5.601e+00,5.303e+00,7.220e+00,6.249e+00,5.013e+00,6.782e+00,6.714e+00,6.890e+00,7.712e+00,5.917e+00,6.545e+00,6.972e+00,6.721e+00,6.748e+00,6.364e+00,5.793e+00,6.891e+00,6.608e+00,4.981e+00,5.804e+00,7.401e+00,7.486e+00,5.618e+00,7.145e+00,5.830e+00
2.194e-02,6.863e-01,4.537e-01,1.937e-01,7.868e-01,1.726e+00,1.628e+00,1.114e+00,1.568e+00,2.368e+00,2.957e+00,2.885e+00,2.994e+00,2.848e+00,4.186e+00,3.936e+00,4.012e+00,4.603e+00,5.226e+00,5.578e+00,4.818e+00,5.744e+00,6.587e+00,7.290e+00,8.387e+00,8.277e+00,6.112e+00,7.761e+00,8.326e+00,8.178e+00,6.443e+00,7.888e+00,9.254e+00,7.897e+00,8.228e+00,7.278e+00,7.978e+00,6.820e+00,9.220e+00,7.902e+00,7.242e+00,7.907e+00,7.927e+00,7.431e+00,8.128e+00,9.413e+00,6.330e+00,8.324e+00,6.657e+00,7.695e+00,8.134e+00,7.977e+00,5.084e+00,6.495e+00,6.680e+00,6.445e+00,7.712e+00,7.343e+00,7.296e+00,6.158e+00,7.581e+00,9.450e+00,7.567e+00,9.197e+00,7.313e+00,5.788e+00,6.420e+00,6.633e+00,6.541e+00,5.649e+00,7.883e+00,7.299e+00,6.624e+00,7.067e+00,8.066e+00,7.340e+00,8.371e+00,7.174e+00,7.592e+00,7.960e+00,8.168e+00,7.352e+00,6.912e+00,6.986e+00,8.256e+00,6.257e+00,6.744e+00,5.991e+00,8.630e+00,8.376e+00,6.128e+00,6.389e+00,7.719e+00
2.818e-02,1.113e+00,1.305e+00,3.895e-01,6.884e-01,1.724e+00,2.107e+00,1.868e+00,1.770e+00,2.821e+00,3.348e+00,3.476e+00,3.567e+00,2.913e+00,4.931e+00,5.281e+00,5.087e+00,4.949e+00,6.262e+00,6.938e+00,4.848e+00,6.374e+00,7.668e+00,8.007e+00,9.064e+00,8.327e+00,7.188e+00,8.511e+00,8.004e+00,8.777e+00,7.510e+00,8.295e+00,1.044e+01,9.212e+00,8.308e+00,9.221e+00,8.573e+00,6.533e+00,9.493e+00,7.987e+00,7.814e+00,8.397e+00,8.183e+00,7.547e+00,8.675e+00,1.060e+01,6.909e+00,8.561e+00,7.414e+00,8.344e+00,8.656e+00,9.045e+00,5.894e+00,7.225e+00,7.134e+00,7.772e+00,8.298e+00,7.103e+00,8.699e+00,6.442e+00,8.432e+00,9.621e+00,8.291e+00,9.201e+00,8.226e+00,6.889e+00,8.093e+00,6.490e+00,7.474e+00,6.408e+00,8.235e+00,8.203e+00,6.622e+00,7.784e+00,9.082e+00,8.030e+00,8.961e+00,7.236e+00,8.072e+00,8.889e+00,8.225e+00,8.232e+00,7.729e+00,7.911e+00,8.402e+00,7.171e+00,7.338e+00,6.076e+00,8.774e+00,8.958e+00,6.976e+00,8.015e+00,8.516e+00
6.067e-03,5.485e-01,8.503e-01,3.178e-01,1.326e+00,2.233e+00,1.383e+00,1.542e+00,1.298e+00,1.406e+00,2.336e+00,2.331e+00,1.748e+00,1.866e+00,3.203e+00,3.323e+00,2.789e+00,3.342e+00,4.474e+00,4.828e+00,4.130e+00,4.771e+00,5.479e+00,6.426e+00,6.765e+00,6.524e+00,4.751e+00,6.848e+00,6.792e+00,7.418e+00,6.091e+00,6.852e+00,8.217e+00,7.308e+00,6.859e+00,7.140e+00,7.162e+00,6.351e+00,7.702e+00,7.171e+00,5.940e+00,7.552e+00,7.220e+00,6.133e+00,7.224e+00,7.929e+00,5.570e+00,7.105e+00,6.169e+00,6.910e+00,6.979e+00,6.932e+00,3.855e+00,5.259e+00,5.801e+00,5.775e+00,7.821e+00,6.073e+00,6.580e+00,5.635e+00,6.685e+00,8.278e+00,6.741e+00,7.886e+00,7.345e+00,6.132e+00,6.617e+00,5.970e+00,6.633e+00,5.473e+00,7.714e+00,5.419e+00,5.121e+00,5.076e+00,7.717e+00,7.266e+00,7.358e+00,6.639e+00,6.306e+00,7.298e+00,7.774e+00,7.782e+00,7.503e+00,6.100e+00,7.116e+00,6.408e+00,6.209e+00,5.554e+00,7.054e+00,7.956e+00,5.894e+00,6.925e+00,6.492e+00
2.945e-02,9.405e-01,1.214e+00,3.609e-01,8.860e-01,1.827e+00,1.986e+00,1.521e+00,1.374e+00,2.252e+00,2.790e+00,1.742e+00,2.743e+00,2.200e+00,4.249e+00,3.064e+00,3.394e+00,3.669e+00,3.898e+00,4.458e+00,3.643e+00,3.932e+00,5.346e+00,5.819e+00,6.054e+00,5.763e+00,4.578e+00,6.403e+00,6.233e+00,7.634e+00,6.644e+00,6.511e+00,7.987e+00,6.770e+00,6.575e+00,7.641e+00,6.898e+00,6.128e+00,7.490e+00,7.799e+00,6.692e+00,6.896e+00,6.339e+00,6.120e+00,7.448e+00,8.206e+00,4.783e+00,7.069e+00,5.388e+00,7.101e+00,6.103e+00,6.483e+00,4.421e+00,6.348e+00,6.155e+00,5.457e+00,6.451e+00,5.616e+00,7.196e+00,5.655e+00,7.811e+00,7.406e+00,6.850e+00,7.341e+00,6.164e+00,6.302e+00,5.426e+00,6.548e+00,6.444e+00,5.363e+00,7.075e+00,4.983e+00,6.868e+00,6.115e+00,6.738e+00,6.553e+00,8.036e+00,5.095e+00,5.835e+00,6.305e+00,7.033e+00,6.046e+00,6.740e+00,5.680e+00,7.316e+00,4.848e+00,6.271e+00,5.671e+00,7.478e+00,7.089e+00,5.934e+00,5.996e+00,7.087e+00
4.748e-03,2.283e-01,4.874e-01,2.269e-01,5.297e-01,1.811e+00,1.589e+00,1.409e+00,2.193e+00,2.087e+00,2.745e+00,2.115e+00,2.781e+00,3.142e+00,4.004e+00,3.566e+00,2.898e+00,3.765e+00,3.977e+00,4.521e+00,4.734e+00,4.920e+00,5.712e+00,6.837e+00,7.475e+00,5.519e+00,5.674e+00,7.716e+00,7.681e+00,7.306e+00,6.726e+00,8.122e+00,9.649e+00,8.246e+00,8.311e+00,7.899e+00,8.557e+00,6.763e+00,9.385e+00,8.413e+00,7.058e+00,8.587e+00,8.191e+00,7.376e+00,9.932e+00,1.006e+01,6.480e+00,9.175e+00,7.528e+00,7.784e+00,6.487e+00,7.628e+00,5.750e+00,6.787e+00,7.169e+00,6.304e+00,8.946e+00,7.114e+00,7.862e+00,5.808e+00,8.074e+00,7.826e+00,9.227e+00,8.915e+00,7.507e+00,7.378e+00,7.666e+00,7.520e+00,6.886e+00,5.911e+00,8.521e+00,6.900e+00,6.372e+00,7.066e+00,7.943e+00,8.096e+00,8.578e+00,7.286e+00,6.438e+00,8.382e+00,8.709e+00,7.773e+00,6.964e+00,6.738e+00,8.040e+00,7.378e+00,7.220e+00,6.766e+00,7.692e+00,8.466e+00,7.168e+00,7.369e+00,7.679e+00
6.058e-03,2.947e-01,7.960e-01,2.828e-01,6.863e-01,1.408e+00,1.462e+00,1.590e+00,2.040e+00,2.083e+00,3.712e+00,3.000e+00,3.611e+00,2.769e+00,5.001e+00,5.159e+00,4.289e+00,4.540e+00,5.439e+00,5.245e+00,5.610e+00,5.003e+00,7.263e+00,8.277e+00,7.292e+00,8.391e+00,6.609e+00,8.527e+00,8.543e+00,8.022e+00,7.211e+00,8.836e+00,1.007e+01,9.788e+00,9.415e+00,8.440e+00,9.244e+00,8.010e+00,1.069e+01,8.862e+00,8.097e+00,8.944e+00,8.921e+00,7.708e+00,9.334e+00,1.144e+01,7.312e+00,8.995e+00,7.585e+00,8.453e+00,9.001e+00,8.825e+00,6.682e+00,7.988e+00,6.525e+00,8.451e+00,9.311e+00,8.253e+00,8.778e+00,6.344e+00,8.711e+00,9.176e+00,8.812e+00,9.826e+00,8.948e+00,7.709e+00,8.968e+00,6.873e+00,9.509e+00,6.587e+00,8.868e+00,9.051e+00,6.996e+00,7.408e+00,8.828e+00,7.368e+00,9.050e+00,7.633e+00,7.273e+00,8.327e+00,8.365e+00,9.093e+00,8.620e+00,7.956e+00,9.362e+00,7.278e+00,7.824e+00,5.823e+00,8.911e+00,9.971e+00,8.287e+00,6.920e+00,8.163e+00
2.026e-02,1.045e+00,7.682e-01,2.602e-01,6.100e-01,1.873e+00,2.035e+00,1.955e+00,1.842e+00,2.693e+00,2.453e+00,3.089e+00,2.491e+00,2.088e+00,2.647e+00,2.652e+00,3.247e+00,3.133e+00,4.438e+00,4.299e+00,3.316e+00,3.905e+00,4.579e+00,5.499e+00,6.099e+00,5.508e+00,4.591e+00,5.992e+00,6.038e+00,6.661e+00,4.764e+00,7.606e+00,7.562e+00,7.068e+00,8.156e+00,6.977e+00,6.626e+00,6.738e+00,7.938e+00,6.929e+00,5.969e+00,6.175e+00,6.633e+00,6.151e+00,8.320e+00,8.201e+00,5.729e+00,8.242e+00,5.799e+00,5.855e+00,6.732e+00,7.009e+00,5.065e+00,5.741e+00,5.393e+00,6.486e+00,8.071e+00,6.226e+00,6.675e+00,5.391e+00,7.119e+00,7.268e+00,7.023e+00,7.080e+00,5.912e+00,5.454e+00,6.307e+00,5.382e+00,6.949e+00,5.976e+00,7.036e+00,5.317e+00,4.860e+00,5.969e+00,7.256e+00,6.700e+00,7.033e+00,5.843e+00,5.799e+00,6.339e+00,6.405e+00,6.789e+00,5.419e+00,5.745e+00,6.802e+00,5.945e+00,6.561e+00,6.272e+00,7.146e+00,6.808e+00,6.367e+00,7.116e+00,6.452e+00
9.095e-03,6.212e-01,6.747e-01,2.006e-01,1.033e+00,1.572e+00,1.480e+00,1.722e+00,1.265e+00,1.967e+00,2.563e+00,3.158e+00,2.375e+00,1.617e+00,4.233e+00,4.762e+00,4.829e+00,4.090e+00,5.566e+00,6.265e+00,5.065e+00,5.435e+00,6.452e+00,7.560e+00,7.676e+00,8.194e+00,6.682e+00,8.073e+00,7.299e+00,7.682e+00,7.157e+00,8.396e+00,9.198e+00,9.093e+00,8.605e+00,8.896e+00,8.710e+00,7.218e+00,9.884e+00,9.130e+00,8.408e+00,8.747e+00,9.468e+00,7.901e+00,9.355e+00,9.836e+00,6.427e+00,8.740e+00,7.589e+00,8.172e+00,8.194e+00,8.396e+00,6.458e+00,7.826e+00,7.224e+00,8.582e+00,8.442e+00,7.590e+00,8.214e+00,5.951e+00,8.620e+00,1.023e+01,9.370e+00,1.017e+01,7.920e+00,7.718e+00,8.456e+00,7.400e+00,8.252e+00,6.953e+00,8.884e+00,8.380e+00,7.011e+00,8.204e+00,8.626e+00,7.865e+00,9.520e+00,7.549e+00,8.022e+00,8.448e+00,7.829e+00,7.944e+00,7.298e+00,7.976e+00,9.173e+00,7.920e+00,8.183e+00,6.945e+00,8.975e+00,9.206e+00,7.082e+00,8.029e+00,8.358e+00
2.849e-02,9.243e-01,7.468e-01,2.723e-01,5.133e-01,1.618e+00,1.726e+00,1.316e+00,2.030e+00,2.662e+00,3.135e+00,2.585e+00,3.468e+00,2.935e+00,4.215e+00,4.172e+00,3.782e+00,3.755e+00,4.899e+00,4.624e+00,4.735e+00,5.334e+00,6.728e+00,7.151e+00,6.832e+00,6.170e+00,5.294e+00,6.819e+00,6.293e+00,7.403e+00,6.306e+00,7.056e+00,9.353e+00,8.942e+00,8.851e+00,7.951e+00,8.178e+00,6.872e+00,8.578e+00,7.898e+00,6.644e+00,8.434e+00,7.279e+00,7.497e+00,9.480e+00,1.020e+01,7.399e+00,8.991e+00,7.820e+00,7.434e+00,7.072e+00,7.735e+00,6.235e+00,7.366e+00,6.875e+00,6.700e+00,7.979e+00,8.739e+00,8.167e+00,6.021e+00,8.059e+00,9.091e+00,9.004e+00,9.284e+00,7.043e+00,7.276e+00,8.051e+00,6.936e+00,6.013e+00,6.351e+00,7.514e+00,7.254e+00,6.096e+00,7.905e+00,7.545e+00,8.710e+00,8.016e+00,7.266e+00,7.447e+00,8.724e+00,8.756e+00,7.528e+00,6.712e+00,6.792e+00,7.665e+00,6.904e+00,6.791e+00,6.786e+00,8.545e+00,9.150e+00,8.267e+00,8.061e+00,8.031e+00
2.453e-02,1.042e+00,1.209e+00,4.217e-01,8.250e-01,2.192e+00,2.264e+00,2.063e+00,2.138e+00,3.054e+00,3.754e+00,2.849e+00,3.357e+00,2.599e+00,4.760e+00,3.872e+00,4.608e+00,4.721e+00,5.497e+00,5.991e+00,5.025e+00,4.683e+00,6.840e+00,7.617e+00,7.107e+00,7.137e+00,5.770e+00,7.377e+00,6.857e+00,7.808e+00,7.518e+00,8.644e+00,9.453e+00,9.715e+00,9.983e+00,9.718e+00,1.024e+01,9.847e+00,1.091e+01,9.417e+00,8.876e+00,9.288e+00,8.426e+00,8.482e+00,1.059e+01,1.112e+01,7.709e+00,9.987e+00,8.108e+00,9.101e+00,8.752e+00,9.137e+00,6.811e+00,8.675e+00,8.111e+00,8.960e+00,9.484e+00,9.919e+00,9.330e+00,7.644e+00,9.898e+00,9.538e+00,9.870e+00,1.100e+01,9.092e+00,7.867e+00,9.100e+00,7.890e+00,1.016e+01,7.408e+00,8.581e+00,8.066e+00,8.782e+00,7.687e+00,8.918e+00,9.077e+00,9.645e+00,7.561e+00,8.016e+00,8.839e+00,8.734e+00,9.829e+00,8.383e+00,8.539e+00,9.810e+00,8.727e+00,8.374e+00,8.371e+00,1.066e+01,1.018e+01,9.166e+00,9.373e+00,9.078e+00
7.031e-03,2.057e-01,6.740e-01,2.091e-01,4.594e-01,1.406e+00,1.453e+00,1.075e+00,1.580e+00,1.537e+00,2.029e+00,1.835e+00,2.418e+00,2.502e+00,3.235e+00,3.385e+00,2.681e+00,3.840e+00,3.838e+00,4.371e+00,3.802e+00,5.068e+00,5.925e+00,6.479e+00,6.255e+00,5.960e+00,4.966e+00,6.544e+00,6.708e+00,6.337e+00,6.673e+00,7.886e+00,9.807e+00,8.428e+00,7.541e+00,8.436e+00,8.848e+00,8.308e+00,8.960e+00,9.164e+00,7.594e+00,9.625e+00,7.692e+00,7.194e+00,9.510e+00,9.520e+00,7.208e+00,9.415e+00,8.282e+00,7.647e+00,6.349e+00,6.630e+00,5.644e+00,7.459e+00,8.298e+00,7.128e+00,8.125e+00,9.091e+00,7.288e+00,6.203e+00,8.922e+00,8.548e+00,9.321e+00,9.279e+00,7.322e+00,7.597e+00,8.996e+00,7.404e+00,7.743e+00,7.295e+00,8.218e+00,7.823e+00,7.199e+00,8.227e+00,8.185e+00,8.741e+00,8.544e+00,8.259e+00,7.662e+00,7.965e+00,9.576e+00,8.531e+00,7.567e+00,6.902e+00,9.339e+00,8.028e+00,7.951e+00,7.528e+00,8.218e+00,9.702e+00,8.702e+00,7.032e+00,7.956e+00
2.428e-02,1.003e+00,1.104e+00,3.270e-01,8.129e-01,1.724e+00,1.882e+00,1.770e+00,1.902e+00,2.698e+00,3.425e+00,3.064e+00,3.494e+00,2.765e+00,4.601e+00,4.195e+00,4.086e+00,4.066e+00,5.558e+00,4.985e+00,5.178e+00,5.351e+00,6.875e+00,6.533e+00,7.282e+00,7.627e+00,5.246e+00,6.891e+00,7.519e+00,8.565e+00,6.429e+00,7.682e+00,9.504e+00,9.351e+00,9.637e+00,9.717e+00,1.129e+01,1.026e+01,1.236e+01,1.029e+01,9.133e+00,1.017e+01,9.258e+00,8.940e+00,1.154e+01,1.213e+01,9.057e+00,1.105e+01,8.443e+00,9.855e+00,1.008e+01,1.003e+01,7.531e+00,1.048e+01,8.171e+00,9.695e+00,9.836e+00,1.074e+01,1.031e+01,9.258e+00,9.683e+00,1.067e+01,1.216e+01,1.111e+01,9.457e+00,9.195e+00,1.018e+01,9.554e+00,9.927e+00,8.062e+00,9.339e+00,9.584e+00,9.693e+00,9.392e+00,9.766e+00,8.947e+00,1.019e+01,1.016e+01,8.262e+00,1.017e+01,1.095e+01,1.111e+01,8.289e+00,9.350e+00,1.033e+01,8.878e+00,1.121e+01,8.563e+00,1.064e+01,1.014e+01,9.777e+00,1.006e+01,1.001e+01
1.977e-02,7.433e-01,4.752e-01,1.499e-01,8.529e-01,1.603e+00,1.900e+00,1.683e+00,1.632e+00,2.765e+00,3.309e+00,3.589e+00,3.392e+00,2.276e+00,4.347e+00,4.428e+00,4.579e+00,4.778e+00,5.620e+00,5.386e+00,4.452e+00,5.129e+00,6.269e+00,6.582e+00,7.548e+00,7.888e+00,6.018e+00,8.701e+00,8.100e+00,7.941e+00,6.414e+00,8.506e+00,8.989e+00,8.386e+00,9.775e+00,9.435e+00,1.012e+01,9.908e+00,1.136e+01,1.048e+01,9.612e+00,1.028e+01,8.378e+00,8.184e+00,1.082e+01,1.128e+01,8.635e+00,1.046e+01,9.308e+00,9.564e+00,1.035e+01,9.885e+00,7.277e+00,1.013e+01,8.508e+00,8.351e+00,1.044e+01,1.015e+01,8.915e+00,7.812e+00,1.000e+01,1.019e+01,1.035e+01,1.118e+01,8.265e+00,8.327e+00,9.088e+00,8.167e+00,1.032e+01,7.206e+00,8.471e+00,8.779e+00,9.055e+00,8.864e+00,9.740e+00,8.560e+00,1.156e+01,8.487e+00,9.211e+00,9.198e+00,1.042e+01,1.045e+01,9.241e+00,8.322e+00,1.107e+01,7.964e+00,1.104e+01,8.568e+00,1.060e+01,1.086e+01,8.357e+00,9.199e+00,1.040e+01
3.101e-02,1.365e+00,8.546e-01,3.530e-01,1.109e+00,2.205e+00,1.866e+00,1.679e+00,1.676e+00,2.847e+00,3.545e+00,3.731e+00,2.943e+00,2.563e+00,4.960e+00,4.145e+00,4.913e+00,4.621e+00,4.771e+00,5.213e+00,5.006e+00,3.810e+00,6.801e+00,7.255e+00,7.509e+00,7.635e+00,5.131e+00,7.615e+00,7.555e+00,7.644e+00,6.461e+00,8.619e+00,8.353e+00,8.056e+00,8.540e+00,9.118e+00,9.363e+00,9.379e+00,1.188e+01,9.733e+00,8.132e+00,9.571e+00,9.038e+00,9.114e+00,1.013e+01,1.074e+01,8.364e+00,1.047e+01,7.389e+00,9.967e+00,9.331e+00,1.042e+01,7.592e+00,9.558e+00,7.802e+00,8.939e+00,1.019e+01,1.052e+01,9.757e+00,9.057e+00,9.860e+00,1.012e+01,9.496e+00,1.082e+01,7.740e+00,8.165e+00,1.046e+01,8.535e+00,9.543e+00,8.238e+00,9.132e+00,8.368e+00,8.810e+00,8.827e+00,9.776e+00,8.399e+00,1.010e+01,8.314e+00,8.474e+00,9.239e+00,9.726e+00,9.790e+00,8.678e+00,8.638e+00,9.535e+00,9.066e+00,9.477e+00,8.909e+00,1.134e+01,1.005e+01,9.256e+00,8.562e+00,1.033e+01
5.302e-03,6.174e-01,1.173e+00,3.259e-01,1.240e+00,2.059e+00,1.789e+00,2.191e+00,1.872e+00,2.115e+00,3.050e+00,3.322e+00,2.916e+00,2.141e+00,3.989e+00,3.486e+00,3.543e+00,3.251e+00,5.433e+00,4.664e+00,4.522e+00,4.661e+00,5.603e+00,5.679e+00,6.926e+00,6.885e+00,4.713e+00,6.217e+00,5.777e+00,6.945e+00,5.506e+00,7.591e+00,8.234e+00,8.048e+00,8.161e+00,7.146e+00,8.775e+00,7.817e+00,1.006e+01,9.286e+00,7.808e+00,9.448e+00,8.490e+00,9.011e+00,9.728e+00,9.554e+00,7.150e+00,9.950e+00,8.675e+00,7.999e+00,9.190e+00,8.902e+00,6.202e+00,8.521e+00,6.016e+00,8.122e+00,8.264e+00,8.304e+00,7.825e+00,7.685e+00,8.144e+00,1.004e+01,9.818e+00,8.866e+00,7.580e+00,7.128e+00,8.758e+00,8.321e+00,8.717e+00,7.508e+00,9.460e+00,8.027e+00,8.211e+00,8.084e+00,8.579e+00,7.947e+00,8.127e+00,8.451e+00,8.469e+00,8.803e+00,8.550e+00,9.329e+00,6.840e+00,8.496e+00,9.336e+00,8.210e+00,9.006e+00,7.837e+00,9.694e+00,8.620e+00,8.000e+00,8.517e+00,7.635e+00
1.197e-02,5.328e-01,8.931e-01,2.342e-01,4.968e-01,1.418e+00,2.203e+00,2.093e+00,2.217e+00,3.083e+00,3.661e+00,3.802e+00,4.049e+00,2.409e+00,4.891e+00,4.966e+00,5.037e+00,4.751e+00,6.052e+00,6.409e+00,5.357e+00,5.566e+00,7.229e+00,7.213e+00,7.554e+00,7.681e+00,6.183e+00,7.573e+00,7.412e+00,7.612e+00,7.352e+00,9.321e+00,9.752e+00,1.031e+01,1.042e+01,9.333e+00,1.101e+01,1.026e+01,1.179e+01,1.095e+01,1.108e+01,9.992e+00,1.037e+01,1.013e+01,1.232e+01,1.198e+01,9.151e+00,1.106e+01,9.827e+00,1.052e+01,9.783e+00,1.138e+01,8.239e+00,9.936e+00,9.469e+00,1.023e+01,1.122e+01,1.115e+01,1.149e+01,8.236e+00,1.139e+01,1.035e+01,1.243e+01,1.113e+01,8.657e+00,8.657e+00,1.008e+01,9.430e+00,1.095e+01,9.037e+00,1.021e+01,1.012e+01,1.001e+01,1.024e+01,1.040e+01,9.722e+00,1.117e+01,9.226e+00,9.420e+00,1.043e+01,9.827e+00,1.067e+01,8.072e+00,1.023e+01,1.053e+01,9.167e+00,1.051e+01,1.013e+01,1.208e+01,1.065e+01,1.029e+01,1.044e+01,9.207e+00
1.123e-02,5.142e-01,1.126e+00,3.535e-01,7.854e-01,1.884e+00,2.113e+00,1.989e+00,2.207e+00,2.270e+00,3.059e+00,3.081e+00,3.267e+00,2.996e+00,4.774e+00,4.764e+00,4.406e+00,4.267e+00,5.672e+00,5.916e+00,4.845e+00,5.286e+00,7.036e+00,7.353e+00,7.569e+00,7.182e+00,5.815e+00,8.178e+00,7.586e+00,7.957e+00,7.658e+00,9.353e+00,1.065e+01,9.667e+00,1.029e+01,1.099e+01,1.166e+01,1.045e+01,1.306e+01,1.099e+01,1.176e+01,1.207e+01,1.212e+01,1.132e+01,1.315e+01,1.277e+01,1.005e+01,1.317e+01,1.146e+01,1.257e+01,1.067e+01,1.201e+01,9.500e+00,1.203e+01,9.532e+00,1.061e+01,1.336e+01,1.147e+01,1.142e+01,1.011e+01,1.172e+01,1.166e+01,1.386e+01,1.210e+01,1.095e+01,9.964e+00,1.197e+01,1.090e+01,1.231e+01,9.945e+00,1.197e+01,1.082e+01,1.174e+01,9.852e+00,1.201e+01,1.021e+01,1.166e+01,1.095e+01,1.051e+01,1.291e+01,1.202e+01,1.271e+01,9.738e+00,1.167e+01,1.312e+01,1.162e+01,1.152e+01,1.145e+01,1.344e+01,1.221e+01,1.101e+01,1.126e+01,1.146e+01
4.487e-03,1.566e-01,5.028e-01,2.087e-01,8.352e-01,1.752e+00,1.859e+00,1.599e+00,1.897e+00,2.122e+00,3.165e+00,2.978e+00,3.014e+00,2.496e+00,4.155e+00,4.232e+00,3.367e+00,3.750e+00,3.817e+00,4.113e+00,4.215e+00,3.635e+00,5.431e+00,6.102e+00,6.085e+00,5.893e+00,4.816e+00,7.162e+00,7.483e+00,7.391e+00,6.356e+00,8.300e+00,8.864e+00,8.008e+00,8.913e+00,9.385e+00,9.894e+00,9.796e+00,1.057e+01,9.762e+00,9.760e+00,1.051e+01,9.984e+00,9.673e+00,1.135e+01,1.142e+01,9.869e+00,1.113e+01,9.591e+00,1.086e+01,8.526e+00,1.047e+01,8.876e+00,1.008e+01,8.789e+00,9.572e+00,1.168e+01,1.054e+01,1.076e+01,8.375e+00,9.796e+00,9.839e+00,1.180e+01,1.089e+01,8.140e+00,8.873e+00,1.056e+01,8.473e+00,1.001e+01,9.043e+00,1.026e+01,8.523e+00,9.209e+00,9.825e+00,9.457e+00,8.307e+00,1.161e+01,9.635e+00,7.589e+00,1.037e+01,1.129e+01,1.045e+01,9.660e+00,9.032e+00,1.106e+01,8.970e+00,1.112e+01,1.024e+01,1.138e+01,1.019e+01,1.063e+01,1.005e+01,1.009e+01
9.921e-03,4.477e-01,9.361e-01,3.254e-01,8.857e-01,2.347e+00,2.715e+00,2.274e+00,2.565e+00,3.232e+00,3.871e+00,2.950e+00,3.494e+00,3.085e+00,4.989e+00,4.280e+00,4.683e+00,5.644e+00,6.044e+00,6.158e+00,5.262e+00,5.697e+00,7.162e+00,7.640e+00,7.836e+00,7.377e+00,6.176e+00,7.572e+00,7.776e+00,8.345e+00,7.692e+00,9.493e+00,1.065e+01,9.031e+00,9.238e+00,9.355e+00,9.465e+00,9.916e+00,1.190e+01,1.077e+01,1.033e+01,1.181e+01,1.145e+01,1.232e+01,1.296e+01,1.327e+01,1.116e+01,1.312e+01,1.108e+01,1.154e+01,1.032e+01,1.235e+01,1.026e+01,1.182e+01,9.888e+00,1.006e+01,1.323e+01,1.307e+01,1.176e+01,9.672e+00,1.106e+01,1.190e+01,1.390e+01,1.214e+01,1.059e+01,9.715e+00,1.246e+01,1.034e+01,1.220e+01,1.012e+01,1.159e+01,1.092e+01,1.187e+01,1.111e+01,1.179e+01,1.015e+01,1.208e+01,1.123e+01,1.017e+01,1.276e+01,1.150e+01,1.300e+01,1.049e+01,1.247e+01,1.344e+01,1.064e+01,1.180e+01,1.084e+01,1.351e+01,1.231e+01,1.107e+01,1.098e+01,1.289e+01
4.085e-03,2.699e-01,6.710e-01,2.307e-01,6.429e-01,1.954e+00,1.862e+00,1.418e+00,1.831e+00,2.471e+00,3.064e+00,3.209e+00,3.093e+00,2.697e+00,3.372e+00,4.112e+00,3.784e+00,4.299e+00,4.958e+00,4.916e+00,3.456e+00,4.644e+00,6.318e+00,6.884e+00,8.367e+00,7.790e+00,6.052e+00,8.800e+00,6.797e+00,8.133e+00,6.092e+00,7.998e+00,9.899e+00,8.839e+00,9.873e+00,8.489e+00,9.950e+00,8.124e+00,1.007e+01,1.053e+01,8.491e+00,9.886e+00,8.955e+00,9.910e+00,9.839e+00,1.206e+01,9.014e+00,1.064e+01,9.626e+00,1.009e+01,1.022e+01,1.155e+01,8.412e+00,1.019e+01,9.835e+00,9.778e+00,1.086e+01,9.497e+00,1.020e+01,8.045e+00,1.053e+01,1.157e+01,1.033e+01,1.198e+01,9.274e+00,8.516e+00,1.007e+01,8.467e+00,9.877e+00,9.148e+00,1.051e+01,8.777e+00,9.669e+00,1.086e+01,1.146e+01,9.745e+00,1.055e+01,8.423e+00,1.007e+01,1.045e+01,1.066e+01,1.040e+01,9.298e+00,1.006e+01,1.064e+01,1.024e+01,9.848e+00,9.656e+00,1.181e+01,1.106e+01,1.035e+01,9.594e+00,1.060e+01
9.930e-03,6.627e-01,6.839e-01,2.805e-01,7.502e-01,1.768e+00,1.785e+00,1.708e+00,1.476e+00,2.294e+00,2.903e+00,3.214e+00,2.311e+00,2.598e+00,3.820e+00,4.394e+00,4.265e+00,5.205e+00,4.932e+00,5.614e+00,4.444e+00,5.961e+00,6.851e+00,7.514e+00,8.364e+00,7.662e+00,6.712e+00,7.977e+00,8.719e+00,8.392e+00,7.454e+00,9.183e+00,1.142e+01,1.060e+01,1.006e+01,1.088e+01,1.112e+01,1.123e+01,1.353e+01,1.010e+01,9.989e+00,1.244e+01,1.157e+01,1.158e+01,1.350e+01,1.387e+01,1.309e+01,1.384e+01,1.197e+01,1.331e+01,1.186e+01,1.322e+01,9.649e+00,1.197e+01,1.008e+01,1.212e+01,1.298e+01,1.293e+01,1.271e+01,1.183e+01,1.067e+01,1.191e+01,1.341e+01,1.344e+01,1.117e+01,1.122e+01,1.437e+01,1.114e+01,1.222e+01,1.050e+01,1.152e+01,1.153e+01,1.131e+01,1.291e+01,1.385e+01,1.099e+01,1.294e+01,1.152e+01,1.057e+01,1.309e+01,1.386e+01,1.360e+01,1.108e+01,1.193e+01,1.446e+01,1.192e+01,1.281e+01,1.142e+01,1.321e+01,1.318e+01,1.233e+01,1.223e+01,1.428e+01
1.393e-02,6.291e-01,8.150e-01,3.255e-01,1.007e+00,2.441e+00,1.952e+00,1.667e+00,2.281e+00,2.330e+00,3.066e+00,3.064e+00,3.098e+00,3.439e+00,4.702e+00,4.555e+00,3.953e+00,4.453e+00,5.082e+00,5.660e+00,4.917e+00,4.820e+00,6.310e+00,7.216e+00,7.618e+00,6.384e+00,5.553e+00,7.965e+00,7.798e+00,7.576e+00,7.073e+00,9.298e+00,1.049e+01,9.533e+00,9.809e+00,1.083e+01,1.055e+01,1.109e+01,1.224e+01,1.144e+01,1.056e+01,1.290e+01,1.264e+01,1.325e+01,1.342e+01,1.400e+01,1.170e+01,1.513e+01,1.324e+01,1.296e+01,1.174e+01,1.381e+01,1.193e+01,1.419e+01,1.187e+01,1.195e+01,1.470e+01,1.366e+01,1.260e+01,1.259e+01,1.290e+01,1.328e+01,1.536e+01,1.439e+01,1.132e+01,1.192e+01,1.406e+01,1.266e+01,1.416e+01,1.170e+01,1.310e+01,1.213e+01,1.394e+01,1.306e+01,1.408e+01,1.325e+01,1.470e+01,1.238e+01,1.266e+01,1.407e+01,1.468e+01,1.401e+01,1.201e+01,1.330e+01,1.521e+01,1.359e+01,1.397e+01,1.334e+01,1.578e+01,1.492e+01,1.303e+01,1.396e+01,1.397e+01
7.160e-04,3.995e-01,1.023e+00,2.705e-01,9.278e-01,2.147e+00,1.880e+00,2.206e+00,2.234e+00,2.695e+00,3.641e+00,3.432e+00,3.866e+00,2.709e+00,4.793e+00,4.592e+00,4.216e+00,5.040e+00,5.735e+00,5.537e+00,5.173e+00,6.081e+00,7.538e+00,7.905e+00,8.380e+00,8.068e+00,6.794e+00,8.318e+00,8.604e+00,8.227e+00,7.828e+00,9.908e+00,1.165e+01,1.158e+01,1.066e+01,1.035e+01,1.072e+01,1.071e+01,1.138e+01,1.185e+01,9.757e+00,1.237e+01,1.054e+01,1.141e+01,1.281e+01,1.308e+01,1.070e+01,1.394e+01,1.241e+01,1.126e+01,1.090e+01,1.133e+01,9.417e+00,1.185e+01,1.016e+01,1.125e+01,1.157e+01,1.327e+01,1.278e+01,1.056e+01,1.208e+01,1.286e+01,1.354e+01,1.306e+01,9.981e+00,1.088e+01,1.311e+01,1.044e+01,1.253e+01,1.108e+01,1.216e+01,1.140e+01,1.206e+01,1.217e+01,1.248e+01,1.265e+01,1.319e+01,1.133e+01,1.202e+01,1.173e+01,1.292e+01,1.206e+01,1.057e+01,1.107e+01,1.372e+01,1.067e+01,1.191e+01,1.046e+01,1.310e+01,1.286e+01,1.284e+01,1.230e+01,1.276e+01
2.484e-02,8.130e-01,8.884e-01,2.543e-01,3.974e-01,1.741e+00,2.648e+00,1.770e+00,2.080e+00,3.165e+00,3.082e+00,3.147e+00,3.486e+00,3.067e+00,3.752e+00,4.095e+00,4.102e+00,5.116e+00,5.815e+00,6.149e+00,4.779e+00,6.526e+00,7.193e+00,7.472e+00,8.004e+00,7.941e+00,6.406e+00,7.784e+00,8.114e+00,8.583e+00,7.452e+00,8.945e+00,1.118e+01,9.418e+00,1.023e+01,9.900e+00,1.145e+01,1.178e+01,1.321e+01,1.265e+01,1.083e+01,1.268e+01,1.168e+01,1.237e+01,1.412e+01,1.344e+01,1.206e+01,1.509e+01,1.208e+01,1.350e+01,1.211e+01,1.410e+01,1.228e+01,1.481e+01,1.329e+01,1.213e+01,1.345e+01,1.485e+01,1.501e+01,1.266e+01,1.376e+01,1.401e+01,1.641e+01,1.451e+01,1.058e+01,1.162e+01,1.409e+01,1.249e+01,1.448e+01,1.127e+01,1.473e+01,1.251e+01,1.485e+01,1.406e+01,1.457e+01,1.294e+01,1.426e+01,1.239e+01,1.249e+01,1.495e+01,1.543e+01,1.426e+01,1.133e+01,1.306e+01,1.453e+01,1.190e+01,1.423e+01,1.325e+01,1.495e+01,1.411e+01,1.311e+01,1.364e+01,1.406e+01
1.735e-02,7.705e-01,7.400e-01,2.498e-01,8.376e-01,1.656e+00,1.502e+00,1.415e+00,1.375e+00,2.129e+00,2.739e+00,2.371e+00,2.466e+00,2.280e+00,4.416e+00,4.208e+00,4.410e+00,4.292e+00,5.093e+00,5.655e+00,5.314e+00,5.502e+00,6.965e+00,8.207e+00,8.036e+00,8.352e+00,6.472e+00,8.773e+00,7.464e+00,8.206e+00,7.777e+00,9.113e+00,1.102e+01,1.035e+01,1.017e+01,1.074e+01,1.085e+01,9.951e+00,1.280e+01,1.219e+01,1.053e+01,1.106e+01,1.077e+01,1.128e+01,1.279e+01,1.296e+01,1.024e+01,1.326e+01,1.100e+01,1.293e+01,1.062e+01,1.305e+01,1.036e+01,1.247e+01,1.207e+01,1.200e+01,1.222e+01,1.311e+01,1.345e+01,1.200e+01,1.372e+01,1.319e+01,1.500e+01,1.463e+01,1.166e+01,1.219e+01,1.334e+01,1.271e+01,1.262e+01,1.143e+01,1.286e+01,1.235e+01,1.345e+01,1.303e+01,1.249e+01,1.184e+01,1.375e+01,1.145e+01,1.234e+01,1.316e+01,1.295e+01,1.202e+01,1.070e+01,1.200e+01,1.412e+01,1.263e+01,1.132e+01,1.209e+01,1.419e+01,1.398e+01,1.237e+01,1.291e+01,1.363e+01
3.214e-02,1.212e+00,8.459e-01,2.689e-01,6.479e-01,2.025e+00,2.730e+00,2.122e+00,2.141e+00,3.503e+00,3.244e+00,3.455e+00,3.397e+00,2.816e+00,4.440e+00,4.403e+00,5.206e+00,5.449e+00,6.826e+00,7.086e+00,4.862e+00,6.307e+00,6.783e+00,7.745e+00,8.455e+00,8.109e+00,7.264e+00,8.835e+00,7.739e+00,9.161e+00,8.222e+00,1.005e+01,1.171e+01,1.088e+01,1.165e+01,1.113e+01,1.145e+01,1.235e+01,1.311e+01,1.264e+01,1.166e+01,1.295e+01,1.181e+01,1.334e+01,1.461e+01,1.451e+01,1.244e+01,1.555e+01,1.359e+01,1.471e+01,1.289e+01,1.526e+01,1.266e+01,1.437e+01,1.326e+01,1.356e+01,1.462e+01,1.553e+01,1.457e+01,1.291e+01,1.456e+01,1.448e+01,1.662e+01,1.576e+01,1.147e+01,1.280e+01,1.523e+01,1.352e+01,1.468e+01,1.331e+01,1.400e+01,1.281e+01,1.426e+01,1.596e+01,1.461e+01,1.356e+01,1.678e+01,1.207e+01,1.327e+01,1.361e+01,1.436e+01,1.467e+01,1.294e+01,1.382e+01,1.613e+01,1.389e+01,1.380e+01,1.452e+01,1.618e+01,1.559e+01,1.482e+01,1.477e+01,1.504e+01
1.668e-02,8.365e-01,1.100e+00,4.094e-01,9.367e-01,2.382e+00,2.043e+00,1.955e+00,2.079e+00,2.725e+00,3.566e+00,2.919e+00,3.133e+00,2.802e+00,4.177e+00,3.975e+00,3.966e+00,4.519e+00,5.088e+00,5.213e+00,4.434e+00,4.864e+00,7.077e+00,7.815e+00,7.466e+00,7.413e+00,5.849e+00,7.708e+00,8.412e+00,9.130e+00,8.218e+00,9.099e+00,1.100e+01,1.038e+01,1.069e+01,1.149e+01,1.112e+01,1.091e+01,1.238e+01,1.074e+01,1.021e+01,1.237e+01,1.166e+01,1.085e+01,1.291e+01,1.410e+01,1.296e+01,1.506e+01,1.226e+01,1.371e+01,1.240e+01,1.483e+01,1.218e+01,1.362e+01,1.255e+01,1.462e+01,1.498e+01,1.651e+01,1.617e+01,1.371e+01,1.434e+01,1.408e+01,1.657e+01,1.571e+01,1.405e+01,1.267e+01,1.508e+01,1.325e+01,1.543e+01,1.382e+01,1.274e+01,1.380e+01,1.474e+01,1.501e+01,1.474e+01,1.423e+01,1.562e+01,1.354e+01,1.289e+01,1.460e+01,1.549e+01,1.497e+01,1.311e+01,1.473e+01,1.576e+01,1.541e+01,1.464e+01,1.499e+01,1.513e+01,1.594e+01,1.547e+01,1.559e+01,1.628e+01
2.568e-02,8.567e-01,7.994e-01,2.205e-01,8.633e-01,2.089e+00,2.383e+00,1.445e+00,1.246e+00,2.459e+00,2.190e+00,2.640e+00,2.411e+00,2.111e+00,3.051e+00,3.413e+00,3.290e+00,3.662e+00,3.456e+00,4.336e+00,3.114e+00,4.252e+00,5.186e+00,5.821e+00,6.749e+00,6.238e+00,5.239e+00,6.637e+00,5.596e+00,7.358e+00,5.763e+00,7.266e+00,9.103e+00,7.228e+00,7.941e+00,7.869e+00,8.391e+00,9.192e+00,9.568e+00,9.477e+00,8.322e+00,1.042e+01,9.421e+00,1.126e+01,1.114e+01,1.089e+01,9.727e+00,1.206e+01,1.072e+01,1.207e+01,1.006e+01,1.215e+01,1.179e+01,1.245e+01,1.159e+01,1.111e+01,1.148e+01,1.472e+01,1.270e+01,1.144e+01,1.199e+01,1.325e+01,1.429e+01,1.244e+01,9.398e+00,9.209e+00,1.195e+01,1.132e+01,1.200e+01,1.146e+01,1.319e+01,1.077e+01,1.210e+01,1.317e+01,1.251e+01,1.113e+01,1.447e+01,1.074e+01,9.704e+00,1.164e+01,1.291e+01,1.112e+01,1.163e+01,1.280e+01,1.364e+01,1.237e+01,1.320e+01,1.300e+01,1.259e+01,1.296e+01,1.242e+01,1.279e+01,1.294e+01
1.436e-02,5.536e-01,6.464e-01,2.731e-01,4.306e-01,1.516e+00,2.176e+00,1.912e+00,2.182e+00,2.937e+00,3.718e+00,3.571e+00,3.543e+00,2.772e+00,4.317e+00,4.429e+00,4.068e+00,4.522e+00,4.698e+00,5.070e+00,4.239e+00,4.521e+00,6.234e+00,7.115e+00,7.825e+00,6.533e+00,6.005e+00,8.653e+00,7.849e+00,7.696e+00,6.713e+00,9.117e+00,9.539e+00,9.024e+00,9.905e+00,9.977e+00,1.132e+01,9.503e+00,1.190e+01,1.175e+01,9.401e+00,1.174e+01,1.044e+01,1.082e+01,1.297e+01,1.402e+01,1.222e+01,1.437e+01,1.297e+01,1.279e+01,1.130e+01,1.495e+01,1.361e+01,1.524e+01,1.389e+01,1.369e+01,1.587e+01,1.573e+01,1.574e+01,1.376e+01,1.529e+01,1.377e+01,1.583e+01,1.630e+01,1.217e+01,1.283e+01,1.421e+01,1.340e+01,1.506e+01,1.319e+01,1.286e+01,1.201e+01,1.459e+01,1.509e+01,1.544e+01,1.357e+01,1.628e+01,1.195e+01,1.314e+01,1.523e+01,1.537e+01,1.364e+01,1.175e+01,1.474e+01,1.517e+01,1.498e+01,1.629e+01,1.530e+01,1.528e+01,1.584e+01,1.548e+01,1.395e+01,1.635e+01
2.321e-02,7.532e-01,7.842e-01,3.111e-01,4.878e-01,1.554e+00,2.539e+00,1.640e+00,1.571e+00,2.427e+00,2.601e+00,2.909e+00,2.241e+00,2.339e+00,3.244e+00,4.151e+00,3.971e+00,4.698e+00,4.819e+00,6.013e+00,3.920e+00,5.260e+00,6.163e+00,7.284e+00,6.871e+00,6.713e+00,5.864e+00,7.266e+00,6.773e+00,7.590e+00,7.133e+00,8.531e+00,9.797e+00,8.816e+00,8.855e+00,9.448e+00,1.035e+01,1.028e+01,1.136e+01,1.029e+01,9.067e+00,1.029e+01,1.023e+01,9.702e+00,1.195e+01,1.223e+01,1.048e+01,1.364e+01,1.150e+01,1.224e+01,1.025e+01,1.282e+01,1.124e+01,1.290e+01,1.210e+01,1.323e+01,1.388e+01,1.382e+01,1.372e+01,1.221e+01,1.357e+01,1.204e+01,1.370e+01,1.376e+01,1.136e+01,1.174e+01,1.395e+01,1.229e+01,1.355e+01,1.165e+01,1.201e+01,1.165e+01,1.302e+01,1.298e+01,1.483e+01,1.229e+01,1.471e+01,1.110e+01,1.117e+01,1.396e+01,1.436e+01,1.338e+01,1.216e+01,1.301e+01,1.449e+01,1.317e+01,1.352e+01,1.388e+01,1.392e+01,1.546e+01,1.232e+01,1.322e+01,1.391e+01
1.267e-02,7.799e-01,1.083e+00,3.233e-01,1.427e+00,2.232e+00,2.144e+00,2.037e+00,1.092e+00,2.080e+00,2.703e+00,3.249e+00,2.063e+00,1.922e+00,3.422e+00,3.928e+00,3.865e+00,3.854e+00,4.093e+00,4.817e+00,4.474e+00,4.900e+00,6.213e+00,7.118e+00,7.097e+00,7.848e+00,5.389e+00,7.625e+00,6.603e+00,7.279e+00,6.607e+00,8.157e+00,8.884e+00,8.481e+00,8.860e+00,9.479e+00,1.032e+01,1.108e+01,1.237e+01,1.118e+01,1.060e+01,1.174e+01,1.072e+01,1.153e+01,1.225e+01,1.235e+01,1.068e+01,1.269e+01,1.132e+01,1.228e+01,1.133e+01,1.217e+01,1.066e+01,1.352e+01,1.193e+01,1.394e+01,1.229e+01,1.592e+01,1.630e+01,1.513e+01,1.434e+01,1.462e+01,1.731e+01,1.526e+01,1.066e+01,1.294e+01,1.405e+01,1.177e+01,1.476e+01,1.311e+01,1.380e+01,1.296e+01,1.322e+01,1.341e+01,1.381e+01,1.223e+01,1.549e+01,1.342e+01,1.283e+01,1.400e+01,1.468e+01,1.293e+01,1.192e+01,1.417e+01,1.533e+01,1.307e+01,1.454e+01,1.383e+01,1.510e+01,1.397e+01,1.384e+01,1.448e+01,1.538e+01
8.996e-03,2.660e-01,6.177e-01,1.538e-01,3.070e-01,1.166e+00,1.777e+00,1.180e+00,1.353e+00,2.016e+00,2.160e+00,2.622e+00,2.642e+00,2.255e+00,3.161e+00,4.298e+00,3.260e+00,3.759e+00,4.432e+00,5.539e+00,4.152e+00,5.767e+00,6.301e+00,6.538e+00,7.259e+00,7.107e+00,5.673e+00,6.378e+00,6.632e+00,6.965e+00,6.682e+00,8.047e+00,1.032e+01,8.564e+00,8.709e+00,9.115e+00,1.040e+01,9.260e+00,1.160e+01,1.012e+01,9.125e+00,1.020e+01,1.019e+01,1.023e+01,1.166e+01,1.130e+01,1.072e+01,1.341e+01,1.172e+01,1.149e+01,9.677e+00,1.211e+01,1.177e+01,1.328e+01,1.403e+01,1.396e+01,1.429e+01,1.641e+01,1.497e+01,1.391e+01,1.473e+01,1.441e+01,1.753e+01,1.624e+01,1.298e+01,1.306e+01,1.449e+01,1.272e+01,1.332e+01,1.424e+01,1.411e+01,1.418e+01,1.476e+01,1.463e+01,1.580e+01,1.416e+01,1.506e+01,1.403e+01,1.249e+01,1.518e+01,1.525e+01,1.316e+01,1.203e+01,1.380e+01,1.547e+01,1.385e+01,1.480e+01,1.437e+01,1.550e+01,1.630e+01,1.447e+01,1.480e+01,1.590e+01
2.586e-02,1.108e+00,9.222e-01,3.718e-01,7.185e-01,2.350e+00,2.420e+00,2.074e+00,2.313e+00,3.191e+00,3.478e+00,3.234e+00,3.238e+00,3.224e+00,4.956e+00,4.471e+00,4.941e+00,5.575e+00,5.724e+00,6.708e+00,5.342e+00,5.850e+00,7.314e+00,8.466e+00,7.883e+00,6.891e+00,6.453e+00,8.473e+00,8.674e+00,8.836e+00,8.742e+00,9.879e+00,1.118e+01,9.746e+00,9.797e+00,1.085e+01,1.091e+01,1.133e+01,1.234e+01,1.139e+01,1.070e+01,1.282e+01,1.157e+01,1.320e+01,1.377e+01,1.336e+01,1.206e+01,1.516e+01,1.186e+01,1.405e+01,1.092e+01,1.428e+01,1.226e+01,1.471e+01,1.345e+01,1.246e+01,1.492e+01,1.688e+01,1.493e+01,1.363e+01,1.465e+01,1.499e+01,1.709e+01,1.470e+01,1.204e+01,1.323e+01,1.603e+01,1.284e+01,1.456e+01,1.351e+01,1.548e+01,1.329e+01,1.428e+01,1.470e+01,1.608e+01,1.449e+01,1.692e+01,1.343e+01,1.257e+01,1.569e+01,1.667e+01,1.531e+01,1.351e+01,1.437e+01,1.617e+01,1.502e+01,1.547e+01,1.529e+01,1.682e+01,1.596e+01,1.593e+01,1.519e+01,1.587e+01
3.080e-02,1.250e+00,8.292e-01,2.912e-01,7.312e-01,1.540e+00,1.606e+00,1.574e+00,1.446e+00,2.336e+00,2.552e+00,2.677e+00,2.458e+00,2.403e+00,3.948e+00,3.026e+00,4.287e+00,4.397e+00,4.921e+00,5.269e+00,4.498e+00,5.105e+00,5.758e+00,6.474e+00,6.540e+00,6.557e+00,5.127e+00,6.043e+00,6.766e+00,6.372e+00,6.591e+00,7.687e+00,8.691e+00,8.163e+00,7.397e+00,7.892e+00,7.247e+00,8.113e+00,1.077e+01,8.204e+00,9.153e+00,9.567e+00,9.961e+00,1.073e+01,1.123e+01,1.103e+01,1.020e+01,1.247e+01,1.026e+01,1.142e+01,9.906e+00,1.231e+01,1.030e+01,1.154e+01,1.116e+01,1.204e+01,1.305e+01,1.479e+01,1.408e+01,1.425e+01,1.280e+01,1.331e+01,1.614e+01,1.425e+01,1.134e+01,1.256e+01,1.383e+01,1.272e+01,1.387e+01,1.312e+01,1.411e+01,1.280e+01,1.520e+01,1.544e+01,1.548e+01,1.351e+01,1.585e+01,1.155e+01,1.378e+01,1.340e+01,1.435e+01,1.287e+01,1.142e+01,1.253e+01,1.541e+01,1.258e+01,1.424e+01,1.534e+01,1.429e+01,1.546e+01,1.436e+01,1.439e+01,1.394e+01
2.200e-02,7.838e-01,1.272e+00,3.804e-01,1.138e+00,2.855e+00,2.519e+00,1.846e+00,2.148e+00,2.588e+00,2.795e+00,2.039e+00,3.088e+00,2.859e+00,4.234e+00,3.726e+00,3.499e+00,4.485e+00,4.794e+00,5.341e+00,4.419e+00,5.654e+00,7.186e+00,7.897e+00,7.421e+00,6.505e+00,5.429e+00,6.824e+00,7.061e+00,8.194e+00,7.461e+00,8.800e+00,1.143e+01,9.663e+00,8.578e+00,1.036e+01,9.103e+00,1.080e+01,1.066e+01,1.081e+01,1.035e+01,1.153e+01,1.112e+01,1.129e+01,1.266e+01,1.285e+01,1.095e+01,1.414e+01,1.231e+01,1.216e+01,1.051e+01,1.350e+01,1.151e+01,1.228e+01,1.406e+01,1.301e+01,1.430e+01,1.651e+01,1.557e+01,1.500e+01,1.495e+01,1.406e+01,1.922e+01,1.554e+01,1.322e+01,1.377e+01,1.570e+01,1.400e+01,1.503e+01,1.506e+01,1.606e+01,1.445e+01,1.736e+01,1.575e+01,1.712e+01,1.445e+01,1.760e+01,1.470e+01,1.458e+01,1.586e+01,1.691e+01,1.546e+01,1.459e+01,1.566e+01,1.719e+01,1.415e+01,1.572e+01,1.636e+01,1.635e+01,1.671e+01,1.699e+01,1.644e+01,1.637e+01
2.785e-02,8.036e-01,1.126e+00,3.374e-01,8.482e-01,2.218e+00,3.091e+00,2.248e+00,2.373e+00,3.343e+00,3.584e+00,3.350e+00,3.941e+00,3.002e+00,4.660e+00,4.718e+00,4.344e+00,4.542e+00,5.655e+00,5.998e+00,4.645e+00,6.026e+00,7.074e+00,7.631e+00,7.711e+00,6.826e+00,5.817e+00,8.174e+00,6.963e+00,8.901e+00,7.755e+00,9.592e+00,1.092e+01,9.377e+00,1.036e+01,1.055e+01,1.076e+01,1.013e+01,1.119e+01,1.155e+01,1.008e+01,1.105e+01,9.986e+00,1.061e+01,1.300e+01,1.208e+01,1.086e+01,1.424e+01,1.305e+01,1.176e+01,9.837e+00,1.306e+01,1.189e+01,1.342e+01,1.272e+01,1.224e+01,1.453e+01,1.566e+01,1.420e+01,1.434e+01,1.626e+01,1.422e+01,1.863e+01,1.584e+01,1.351e+01,1.382e+01,1.525e+01,1.373e+01,1.394e+01,1.567e+01,1.479e+01,1.415e+01,1.420e+01,1.616e+01,1.625e+01,1.516e+01,1.770e+01,1.380e+01,1.444e+01,1.629e+01,1.719e+01,1.484e+01,1.395e+01,1.404e+01,1.531e+01,1.471e+01,1.478e+01,1.606e+01,1.698e+01,1.746e+01,1.669e+01,1.582e+01,1.616e+01
1.057e-03,4.854e-01,8.306e-01,3.026e-01,8.449e-01,1.569e+00,9.320e-01,1.472e+00,1.613e+00,1.299e+00,2.609e+00,2.765e+00,2.282e+00,2.396e+00,3.310e+00,3.546e+00,2.821e+00,2.941e+00,5.144e+00,3.981e+00,3.854e+00,3.962e+00,5.286e+00,6.042e+00,6.742e+00,6.894e+00,4.690e+00,7.528e+00,6.431e+00,6.910e+00,5.540e+00,7.075e+00,8.881e+00,8.073e+00,8.445e+00,9.216e+00,9.859e+00,9.083e+00,1.227e+01,9.945e+00,9.559e+00,1.050e+01,1.018e+01,1.151e+01,1.128e+01,1.256e+01,1.118e+01,1.359e+01,1.114e+01,1.199e+01,1.128e+01,1.347e+01,1.138e+01,1.404e+01,1.143e+01,1.274e+01,1.430e+01,1.497e+01,1.473e+01,1.399e+01,1.436e+01,1.359e+01,1.832e+01,1.540e+01,1.454e+01,1.419e+01,1.617e+01,1.455e+01,1.523e+01,1.348e+01,1.361e+01,1.425e+01,1.569e+01,1.379e+01,1.642e+01,1.270e+01,1.664e+01,1.468e+01,1.383e+01,1.646e+01,1.647e+01,1.598e+01,1.320e+01,1.534e+01,1.720e+01,1.623e+01,1.508e+01,1.546e+01,1.687e+01,1.791e+01,1.495e+01,1.597e+01,1.697e+01
2.840e-02,1.159e+00,7.335e-01,2.797e-01,7.827e-01,1.998e+00,2.288e+00,1.639e+00,1.683e+00,2.700e+00,2.692e+00,3.305e+00,2.441e+00,2.543e+00,3.522e+00,3.891e+00,4.269e+00,4.232e+00,5.068e+00,5.325e+00,4.415e+00,4.492e+00,6.145e+00,7.273e+00,7.447e+00,7.860e+00,5.854e+00,7.578e+00,6.817e+00,7.544e+00,5.610e+00,8.350e+00,8.598e+00,8.040e+00,8.958e+00,8.327e+00,9.295e+00,9.274e+00,1.173e+01,9.931e+00,8.880e+00,9.135e+00,9.553e+00,8.983e+00,1.076e+01,1.144e+01,1.018e+01,1.373e+01,1.036e+01,9.953e+00,1.044e+01,1.256e+01,1.130e+01,1.229e+01,1.058e+01,1.278e+01,1.405e+01,1.359e+01,1.365e+01,1.293e+01,1.406e+01,1.169e+01,1.553e+01,1.469e+01,1.260e+01,1.194e+01,1.643e+01,1.263e+01,1.504e+01,1.354e+01,1.359e+01,1.265e+01,1.552e+01,1.389e+01,1.728e+01,1.382e+01,1.552e+01,1.193e+01,1.346e+01,1.475e+01,1.482e+01,1.496e+01,1.304e+01,1.392e+01,1.482e+01,1.473e+01,1.409e+01,1.504e+01,1.512e+01,1.607e+01,1.418e+01,1.312e+01,1.588e+01
3.025e-02,8.755e-01,1.029e+00,2.631e-01,5.905e-01,1.833e+00,2.501e+00,1.411e+00,1.433e+00,2.893e+00,2.600e+00,2.664e+00,3.116e+00,2.507e+00,3.919e+00,4.175e+00,4.353e+00,4.457e+00,4.003e+00,5.557e+00,4.273e+00,5.609e+00,7.332e+00,7.565e+00,7.868e+00,7.628e+00,6.280e+00,7.652e+00,6.694e+00,7.875e+00,7.248e+00,8.840e+00,1.073e+01,9.011e+00,9.394e+00,9.058e+00,9.453e+00,9.601e+00,1.112e+01,1.020e+01,9.650e+00,1.043e+01,1.056e+01,1.173e+01,1.171e+01,1.251e+01,1.134e+01,1.320e+01,1.140e+01,1.255e+01,1.087e+01,1.416e+01,1.240e+01,1.240e+01,1.389e+01,1.323e+01,1.428e+01,1.681e+01,1.597e+01,1.490e+01,1.573e+01,1.518e+01,1.959e+01,1.754e+01,1.430e+01,1.379e+01,1.716e+01,1.391e+01,1.703e+01,1.659e+01,1.706e+01,1.596e+01,1.712e+01,1.818e+01,1.856e+01,1.604e+01,1.911e+01,1.423e+01,1.599e+01,1.642e+01,1.743e+01,1.545e+01,1.480e+01,1.631e+01,1.660e+01,1.572e+01,1.532e+01,1.658e+01,1.748e+01,1.722e+01,1.799e+01,1.499e+01,1.890e+01
1.246e-02,3.694e-01,3.905e-01,1.825e-01,2.227e-01,1.164e+00,1.491e+00,1.125e+00,1.918e+00,2.159e+00,2.857e+00,2.798e+00,3.119e+00,2.715e+00,3.909e+00,4.187e+00,3.589e+00,3.649e+00,4.968e+00,4.766e+00,4.277e+00,4.780e+00,6.167e+00,6.181e+00,6.856e+00,6.314e+00,4.941e+00,6.846e+00,6.607e+00,7.761e+00,6.769e+00,7.544e+00,1.047e+01,9.305e+00,1.020e+01,9.373e+00,1.077e+01,9.558e+00,1.146e+01,1.100e+01,8.640e+00,1.091e+01,1.003e+01,1.182e+01,1.278e+01,1.288e+01,1.045e+01,1.531e+01,1.205e+01,1.294e+01,1.097e+01,1.405e+01,1.257e+01,1.582e+01,1.272e+01,1.372e+01,1.449e+01,1.644e+01,1.425e+01,1.486e+01,1.567e+01,1.631e+01,1.972e+01,1.672e+01,1.625e+01,1.501e+01,1.767e+01,1.582e+01,1.699e+01,1.622e+01,1.710e+01,1.645e+01,1.689e+01,1.718e+01,1.936e+01,1.674e+01,1.855e+01,1.449e+01,1.577e+01,1.744e+01,1.848e+01,1.688e+01,1.383e+01,1.547e+01,1.700e+01,1.672e+01,1.679e+01,1.682e+01,1.857e+01,1.731e+01,1.780e+01,1.716e+01,1.833e+01
2.005e-02,8.270e-01,1.246e+00,3.541e-01,7.789e-01,1.759e+00,2.002e+00,1.832e+00,1.606e+00,2.287e+00,2.919e+00,3.127e+00,3.223e+00,2.436e+00,4.514e+00,4.963e+00,4.085e+00,3.942e+00,4.577e+00,5.587e+00,4.222e+00,4.711e+00,6.390e+00,6.604e+00,6.697e+00,6.224e+00,5.183e+00,6.391e+00,6.446e+00,6.883e+00,6.904e+00,8.194e+00,9.772e+00,9.480e+00,8.717e+00,1.016e+01,9.949e+00,9.221e+00,1.054e+01,1.055e+01,9.303e+00,1.056e+01,1.014e+01,1.050e+01,1.176e+01,1.229e+01,9.770e+00,1.217e+01,1.151e+01,1.109e+01,9.980e+00,1.193e+01,1.112e+01,1.307e+01,1.218e+01,1.350e+01,1.232e+01,1.522e+01,1.450e+01,1.376e+01,1.498e+01,1.411e+01,1.663e+01,1.574e+01,1.481e+01,1.455e+01,1.686e+01,1.462e+01,1.632e+01,1.612e+01,1.554e+01,1.533e+01,1.650e+01,1.643e+01,1.803e+01,1.509e+01,1.788e+01,1.423e+01,1.507e+01,1.626e+01,1.634e+01,1.459e+01,1.398e+01,1.495e+01,1.633e+01,1.559e+01,1.582e+01,1.647e+01,1.753e+01,1.662e+01,1.739e+01,1.507e+01,1.828e+01
2.926e-02,1.053e+00,9.180e-01,2.745e-01,9.875e-01,1.803e+00,2.291e+00,1.852e+00,1.449e+00,2.865e+00,3.160e+00,3.183e+00,2.993e+00,2.393e+00,4.463e+00,3.849e+00,4.851e+00,5.055e+00,5.721e+00,6.098e+00,4.956e+00,6.232e+00,7.062e+00,7.486e+00,8.855e+00,9.030e+00,6.278e+00,7.968e+00,8.088e+00,8.626e+00,7.019e+00,9.209e+00,1.062e+01,9.122e+00,9.803e+00,9.645e+00,1.002e+01,8.886e+00,1.226e+01,1.089e+01,9.901e+00,1.022e+01,1.057e+01,1.075e+01,1.153e+01,1.193e+01,1.017e+01,1.324e+01,1.133e+01,1.144e+01,1.134e+01,1.269e+01,1.090e+01,1.261e+01,1.247e+01,1.320e+01,1.428e+01,1.490e+01,1.404e+01,1.441e+01,1.533e+01,1.621e+01,1.775e+01,1.832e+01,1.613e+01,1.453e+01,1.748e+01,1.495e+01,1.705e+01,1.679e+01,1.786e+01,1.631e+01,1.836e+01,1.603e+01,2.028e+01,1.608e+01,1.949e+01,1.597e+01,1.679e+01,1.908e+01,1.857e+01,1.639e+01,1.562e+01,1.675e+01,1.898e+01,1.684e+01,1.670e+01,1.715e+01,1.863e+01,1.771e+01,1.720e+01,1.595e+01,1.961e+01
1.171e-02,3.528e-01,7.434e-01,2.218e-01,5.653e-01,1.306e+00,1.698e+00,1.326e+00,1.222e+00,1.748e+00,2.363e+00,1.949e+00,2.404e+00,1.686e+00,3.319e+00,3.885e+00,3.157e+00,4.055e+00,4.088e+00,4.602e+00,3.484e+00,4.993e+00,5.983e+00,6.177e+00,5.917e+00,6.049e+00,5.249e+00,6.115e+00,6.407e+00,6.999e+00,6.760e+00,7.634e+00,1.074e+01,9.432e+00,8.566e+00,9.952e+00,9.503e+00,9.991e+00,1.130e+01,1.010e+01,9.369e+00,1.046e+01,1.023e+01,1.014e+01,1.189e+01,1.159e+01,1.084e+01,1.276e+01,1.196e+01,1.301e+01,1.091e+01,1.330e+01,1.186e+01,1.348e+01,1.275e+01,1.411e+01,1.421e+01,1.676e+01,1.546e+01,1.479e+01,1.427e+01,1.389e+01,1.839e+01,1.591e+01,1.605e+01,1.431e+01,1.874e+01,1.537e+01,1.790e+01,1.787e+01,1.769e+01,1.696e+01,1.688e+01,1.673e+01,2.028e+01,1.541e+01,1.917e+01,1.588e+01,1.466e+01,1.726e+01,1.921e+01,1.674e+01,1.640e+01,1.718e+01,1.804e+01,1.745e+01,1.827e+01,1.720e+01,1.689e+01,1.853e+01,1.941e+01,1.757e+01,1.795e+01
2.428e-02,9.726e-01,1.425e+00,4.256e-01,1.334e+00,3.083e+00,3.121e+00,2.425e+00,2.518e+00,3.379e+00,3.661e+00,3.561e+00,3.754e+00,3.750e+00,4.786e+00,4.379e+00,4.767e+00,5.221e+00,6.141e+00,6.148e+00,4.836e+00,5.620e+00,6.763e+00,6.992e+00,7.879e+00,7.442e+00,5.593e+00,7.997e+00,6.672e+00,8.483e+00,7.281e+00,9.407e+00,1.063e+01,9.271e+00,1.043e+01,1.007e+01,1.083e+01,1.073e+01,1.281e+01,1.204e+01,1.161e+01,1.234e+01,1.188e+01,1.317e+01,1.408e+01,1.371e+01,1.093e+01,1.464e+01,1.318e+01,1.291e+01,1.197e+01,1.394e+01,1.222e+01,1.465e+01,1.258e+01,1.379e+01,1.499e+01,1.727e+01,1.551e+01,1.539e+01,1.538e+01,1.603e+01,1.955e+01,1.571e+01,1.424e+01,1.512e+01,1.653e+01,1.524e+01,1.773e+01,1.734e+01,1.762e+01,1.675e+01,1.826e+01,1.783e+01,1.907e+01,1.707e+01,1.808e+01,1.577e+01,1.703e+01,1.891e+01,1.896e+01,1.709e+01,1.448e+01,1.732e+01,1.875e+01,1.656e+01,1.715e+01,1.766e+01,1.941e+01,1.792e+01,1.805e+01,1.835e+01,1.694e+01
2.631e-02,1.228e+00,8.188e-01,3.001e-01,1.053e+00,2.517e+00,2.411e+00,1.906e+00,1.556e+00,3.236e+00,2.942e+00,2.718e+00,2.205e+00,1.913e+00,3.294e+00,3.421e+00,4.559e+00,4.860e+00,5.674e+00,6.304e+00,4.835e+00,5.839e+00,6.955e+00,8.173e+00,7.821e+00,8.359e+00,5.988e+00,7.112e+00,7.326e+00,9.196e+00,7.439e+00,8.125e+00,9.904e+00,9.234e+00,9.661e+00,9.574e+00,9.843e+00,1.022e+01,1.229e+01,1.185e+01,9.683e+00,1.134e+01,1.165e+01,1.178e+01,1.273e+01,1.320e+01,1.286e+01,1.357e+01,1.084e+01,1.250e+01,1.140e+01,1.431e+01,1.216e+01,1.330e+01,1.400e+01,1.451e+01,1.464e+01,1.587e+01,1.715e+01,1.491e+01,1.536e+01,1.543e+01,1.870e+01,1.719e+01,1.381e+01,1.554e+01,1.734e+01,1.503e+01,1.696e+01,1.742e+01,1.743e+01,1.588e+01,1.899e+01,1.897e+01,1.996e+01,1.677e+01,1.839e+01,1.651e+01,1.753e+01,1.931e+01,1.953e+01,1.735e+01,1.428e+01,1.798e+01,1.857e+01,1.656e+01,1.576e+01,1.816e+01,1.970e+01,1.777e+01,1.832e+01,1.718e+01,2.087e+01
3.276e-02,1.010e+00,1.352e+00,3.624e-01,1.021e+00,1.930e+00,2.013e+00,1.493e+00,1.311e+00,2.026e+00,2.383e+00,1.372e+00,2.643e+00,2.036e+00,3.674e+00,2.850e+00,2.901e+00,2.964e+00,3.933e+00,4.167e+00,3.792e+00,4.259e+00,5.486e+00,6.204e+00,5.584e+00,6.309e+00,4.199e+00,6.361e+00,5.899e+00,7.693e+00,6.540e+00,7.919e+00,9.489e+00,8.840e+00,9.314e+00,9.880e+00,9.512e+00,9.030e+00,1.046e+01,1.151e+01,9.525e+00,9.657e+00,1.032e+01,1.030e+01,1.175e+01,1.286e+01,1.071e+01,1.412e+01,1.216e+01,1.179e+01,1.049e+01,1.319e+01,1.215e+01,1.383e+01,1.389e+01,1.313e+01,1.518e+01,1.645e+01,1.560e+01,1.590e+01,1.685e+01,1.524e+01,1.907e+01,1.830e+01,1.587e+01,1.598e+01,1.657e+01,1.740e+01,1.901e+01,1.812e+01,1.783e+01,1.625e+01,2.108e+01,1.877e+01,2.062e+01,1.906e+01,2.068e+01,1.620e+01,1.889e+01,2.048e+01,2.138e+01,1.659e+01,1.702e+01,1.872e+01,2.057e+01,1.839e+01,1.798e+01,2.000e+01,1.933e+01,2.072e+01,2.089e+01,1.782e+01,2.100e+01
3.277e-02,1.125e+00,1.191e+00,3.854e-01,9.637e-01,2.186e+00,2.399e+00,1.723e+00,1.985e+00,3.108e+00,3.877e+00,3.368e+00,3.792e+00,3.272e+00,5.617e+00,4.781e+00,5.090e+00,5.385e+00,5.923e+00,6.407e+00,5.424e+00,5.240e+00,7.536e+00,7.524e+00,8.368e+00,8.619e+00,6.276e+00,7.990e+00,7.515e+00,8.389e+00,7.579e+00,9.118e+00,1.028e+01,9.194e+00,9.552e+00,9.481e+00,1.110e+01,9.952e+00,1.285e+01,1.076e+01,9.952e+00,1.099e+01,1.022e+01,1.143e+01,1.181e+01,1.299e+01,9.953e+00,1.320e+01,1.054e+01,1.324e+01,1.114e+01,1.378e+01,1.134e+01,1.276e+01,1.185e+01,1.318e+01,1.377e+01,1.612e+01,1.392e+01,1.386e+01,1.427e+01,1.472e+01,1.692e+01,1.602e+01,1.465e+01,1.275e+01,1.605e+01,1.415e+01,1.635e+01,1.553e+01,1.587e+01,1.748e+01,1.845e+01,1.615e+01,1.892e+01,1.540e+01,1.867e+01,1.482e+01,1.592e+01,1.794e+01,1.749e+01,1.738e+01,1.619e+01,1.656e+01,1.705e+01,1.642e+01,1.579e+01,1.653e+01,1.919e+01,1.774e+01,1.677e+01,1.623e+01,1.762e+01
1.314e-04,1.956e-01,5.581e-01,1.389e-01,8.228e-01,1.620e+00,1.315e+00,1.301e+00,1.303e+00,1.896e+00,2.436e+00,2.180e+00,2.431e+00,1.763e+00,3.431e+00,4.066e+00,3.600e+00,3.734e+00,4.703e+00,4.717e+00,4.355e+00,5.149e+00,6.308e+00,6.264e+00,6.047e+00,6.824e+00,4.804e+00,6.824e+00,6.271e+00,7.131e+00,6.336e+00,6.294e+00,8.024e+00,8.124e+00,8.371e+00,7.842e+00,8.907e+00,8.276e+00,9.579e+00,1.001e+01,8.749e+00,9.267e+00,9.049e+00,9.356e+00,9.779e+00,9.934e+00,8.440e+00,9.957e+00,8.844e+00,1.064e+01,1.011e+01,1.133e+01,8.957e+00,1.161e+01,1.108e+01,1.055e+01,1.127e+01,1.274e+01,1.426e+01,1.324e+01,1.385e+01,1.357e+01,1.706e+01,1.569e+01,1.445e+01,1.343e+01,1.429e+01,1.361e+01,1.513e+01,1.430e+01,1.575e+01,1.551e+01,1.603e+01,1.504e+01,1.768e+01,1.472e+01,1.816e+01,1.476e+01,1.560e+01,1.693e+01,1.713e+01,1.559e+01,1.309e+01,1.640e+01,1.459e+01,1.479e+01,1.428e+01,1.557e+01,1.697e+01,1.581e+01,1.663e+01,1.543e+01,1.779e+01
1.267e-02,8.454e-01,8.302e-01,3.029e-01,7.252e-01,1.667e+00,1.778e+00,1.860e+00,1.522e+00,2.630e+00,2.993e+00,3.561e+00,2.466e+00,2.232e+00,3.468e+00,3.789e+00,4.450e+00,4.323e+00,5.168e+00,5.929e+00,4.772e+00,5.515e+00,6.307e+00,6.706e+00,7.651e+00,7.284e+00,5.069e+00,6.731e+00,7.275e+00,7.925e+00,6.655e+00,8.202e+00,1.009e+01,8.171e+00,8.835e+00,9.138e+00,8.919e+00,8.487e+00,1.153e+01,9.793e+00,8.282e+00,1.003e+01,1.026e+01,1.142e+01,1.100e+01,1.156e+01,1.048e+01,1.298e+01,1.088e+01,1.098e+01,1.124e+01,1.446e+01,1.137e+01,1.269e+01,1.257e+01,1.427e+01,1.509e+01,1.562e+01,1.491e+01,1.353e+01,1.403e+01,1.623e+01,1.715e+01,1.577e+01,1.492e+01,1.448e+01,1.681e+01,1.294e+01,1.682e+01,1.646e+01,1.803e+01,1.601e+01,1.751e+01,1.705e+01,2.009e+01,1.798e+01,1.789e+01,1.562e+01,1.492e+01,1.792e+01,1.836e+01,1.692e+01,1.470e+01,1.684e+01,1.784e+01,1.622e+01,1.630e+01,1.568e+01,1.974e+01,1.691e+01,1.872e+01,1.735e+01,1.876e+01
2.002e-02,1.015e+00,7.064e-01,2.360e-01,6.328e-01,1.344e+00,1.183e+00,1.277e+00,1.251e+00,1.915e+00,2.172e+00,2.433e+00,1.996e+00,1.701e+00,3.523e+00,2.687e+00,3.519e+00,3.344e+00,4.681e+00,4.831e+00,3.854e+00,3.647e+00,4.700e+00,5.240e+00,6.392e+00,6.218e+00,4.693e+00,6.150e+00,5.868e+00,6.550e+00,5.937e+00,7.547e+00,8.432e+00,8.694e+00,8.486e+00,9.067e+00,9.341e+00,9.689e+00,1.100e+01,9.722e+00,9.272e+00,9.838e+00,8.700e+00,9.906e+00,1.144e+01,1.062e+01,8.549e+00,1.295e+01,9.929e+00,1.114e+01,9.654e+00,1.180e+01,9.298e+00,1.203e+01,1.100e+01,1.190e+01,1.198e+01,1.336e+01,1.297e+01,1.328e+01,1.387e+01,1.289e+01,1.614e+01,1.363e+01,1.226e+01,1.180e+01,1.523e+01,1.301e+01,1.601e+01,1.459e+01,1.510e+01,1.532e+01,1.650e+01,1.454e+01,1.940e+01,1.562e+01,1.882e+01,1.482e+01,1.644e+01,1.699e+01,1.788e+01,1.709e+01,1.561e+01,1.684e+01,1.875e+01,1.658e+01,1.621e+01,1.770e+01,1.868e+01,1.694e+01,1.702e+01,1.713e+01,1.716e+01
2.591e-02,1.006e+00,7.089e-01,2.708e-01,4.267e-01,1.121e+00,2.023e+00,1.865e+00,1.699e+00,2.734e+00,3.287e+00,3.876e+00,3.181e+00,2.590e+00,4.507e+00,4.572e+00,4.937e+00,4.774e+00,5.043e+00,5.675e+00,5.143e+00,5.576e+00,7.088e+00,7.940e+00,8.503e+00,8.070e+00,6.224e+00,8.081e+00,8.334e+00,7.572e+00,6.505e+00,8.803e+00,9.932e+00,9.482e+00,9.528e+00,9.993e+00,1.108e+01,1.069e+01,1.279e+01,1.021e+01,1.054e+01,1.131e+01,1.045e+01,1.129e+01,1.339e+01,1.334e+01,1.158e+01,1.513e+01,1.252e+01,1.282e+01,1.199e+01,1.398e+01,1.265e+01,1.466e+01,1.257e+01,1.493e+01,1.489e+01,1.606e+01,1.518e+01,1.542e+01,1.544e+01,1.459e+01,1.764e+01,1.679e+01,1.400e+01,1.349e+01,1.688e+01,1.425e+01,1.903e+01,1.657e+01,1.790e+01,1.822e+01,1.898e+01,1.777e+01,2.129e+01,1.928e+01,2.151e+01,1.647e+01,1.840e+01,1.878e+01,2.203e+01,1.893e+01,1.723e+01,1.858e+01,2.130e+01,1.765e+01,1.960e+01,2.007e+01,1.961e+01,1.964e+01,2.052e+01,1.925e+01,1.988e+01
2.224e-02,9.431e-01,1.278e+00,4.333e-01,1.410e+00,2.750e+00,2.473e+00,2.323e+00,2.290e+00,2.922e+00,4.130e+00,3.153e+00,3.716e+00,2.966e+00,5.708e+00,4.967e+00,4.649e+00,4.849e+00,6.041e+00,5.996e+00,5.925e+00,5.441e+00,7.412e+00,7.886e+00,7.304e+00,7.542e+00,5.216e+00,7.661e+00,7.655e+00,9.391e+00,7.955e+00,8.504e+00,1.017e+01,9.370e+00,9.637e+00,9.707e+00,1.057e+01,1.009e+01,1.178e+01,1.162e+01,9.474e+00,1.117e+01,1.095e+01,1.212e+01,1.286e+01,1.322e+01,1.155e+01,1.448e+01,1.197e+01,1.292e+01,1.168e+01,1.405e+01,1.256e+01,1.507e+01,1.308e+01,1.358e+01,1.593e+01,1.750e+01,1.577e+01,1.629e+01,1.630e+01,1.615e+01,1.928e+01,1.707e+01,1.544e+01,1.665e+01,1.729e+01,1.663e+01,1.857e+01,1.793e+01,1.918e+01,1.618e+01,1.938e+01,1.790e+01,2.192e+01,2.035e+01,2.203e+01,1.893e+01,1.927e+01,2.010e+01,2.321e+01,1.823e+01,1.863e+01,1.894e+01,2.108e+01,1.867e+01,1.831e+01,2.005e+01,2.259e+01,2.212e+01,2.271e+01,1.948e+01,2.163e+01
2.185e-02,9.337e-01,1.363e+00,3.625e-01,8.294e-01,1.945e+00,2.400e+00,2.017e+00,1.578e+00,2.438e+00,2.468e+00,2.351e+00,2.521e+00,2.117e+00,3.690e+00,3.436e+00,3.934e+00,4.308e+00,4.951e+00,5.397e+00,3.825e+00,5.216e+00,6.439e+00,7.305e+00,7.361e+00,7.393e+00,6.194e+00,7.286e+00,6.937e+00,7.978e+00,7.187e+00,8.724e+00,1.040e+01,9.091e+00,8.506e+00,1.008e+01,8.918e+00,8.766e+00,1.115e+01,1.041e+01,9.556e+00,1.053e+01,1.052e+01,1.113e+01,1.184e+01,1.170e+01,1.047e+01,1.374e+01,1.095e+01,1.103e+01,9.936e+00,1.263e+01,1.311e+01,1.378e+01,1.353e+01,1.282e+01,1.459e+01,1.478e+01,1.539e+01,1.494e+01,1.566e+01,1.518e+01,1.864e+01,1.722e+01,1.529e+01,1.421e+01,1.881e+01,1.430e+01,1.861e+01,1.908e+01,1.928e+01,1.687e+01,1.957e+01,1.924e+01,2.369e+01,2.019e+01,2.169e+01,1.875e+01,1.954e+01,2.183e+01,2.288e+01,1.973e+01,1.949e+01,2.090e+01,2.169e+01,1.987e+01,1.949e+01,2.035e+01,2.125e+01,2.029e+01,2.176e+01,2.098e+01,2.354e+01
2.440e-02,8.178e-01,8.560e-01,3.092e-01,1.041e+00,1.902e+00,2.040e+00,1.455e+00,1.531e+00,2.264e+00,3.136e+00,2.706e+00,2.749e+00,2.873e+00,4.966e+00,5.005e+00,4.128e+00,4.386e+00,4.545e+00,5.549e+00,5.269e+00,4.678e+00,6.155e+00,7.238e+00,7.238e+00,7.176e+00,6.291e+00,7.974e+00,7.414e+00,7.657e+00,6.689e+00,8.440e+00,9.115e+00,9.014e+00,8.846e+00,1.008e+01,1.030e+01,1.022e+01,1.058e+01,9.796e+00,9.555e+00,1.070e+01,1.091e+01,1.062e+01,1.205e+01,1.327e+01,1.008e+01,1.363e+01,1.125e+01,1.351e+01,1.127e+01,1.412e+01,1.294e+01,1.440e+01,1.345e+01,1.368e+01,1.498e+01,1.765e+01,1.621e+01,1.641e+01,1.505e+01,1.500e+01,1.964e+01,1.816e+01,1.595e+01,1.523e+01,1.895e+01,1.554e+01,1.934e+01,1.830e+01,1.789e+01,1.972e+01,1.911e+01,1.851e+01,2.256e+01,1.924e+01,2.280e+01,1.934e+01,1.947e+01,2.096e+01,2.241e+01,1.925e+01,2.097e+01,2.073e+01,2.069e+01,2.000e+01,2.014e+01,2.091e+01,2.164e+01,2.020e+01,2.098e+01,2.230e+01,2.359e+01
3.602e-03,3.996e-01,2.817e-01,1.956e-01,9.251e-01,2.095e+00,1.571e+00,1.354e+00,1.682e+00,2.331e+00,3.163e+00,3.717e+00,2.628e+00,2.654e+00,3.744e+00,4.636e+00,4.259e+00,4.891e+00,4.843e+00,5.627e+00,4.925e+00,5.078e+00,6.597e+00,7.994e+00,8.633e+00,8.209e+00,6.235e+00,9.309e+00,7.944e+00,7.909e+00,6.499e+00,9.842e+00,1.108e+01,1.012e+01,1.049e+01,9.874e+00,1.079e+01,1.137e+01,1.289e+01,1.149e+01,1.047e+01,1.159e+01,1.147e+01,1.309e+01,1.289e+01,1.478e+01,1.193e+01,1.361e+01,1.215e+01,1.365e+01,1.306e+01,1.563e+01,1.186e+01,1.296e+01,1.345e+01,1.484e+01,1.627e+01,1.688e+01,1.562e+01,1.529e+01,1.558e+01,1.586e+01,1.871e+01,1.865e+01,1.691e+01,1.558e+01,1.923e+01,1.483e+01,1.782e+01,1.816e+01,1.922e+01,1.850e+01,1.646e+01,1.753e+01,2.251e+01,1.738e+01,2.276e+01,1.847e+01,1.874e+01,2.066e+01,2.234e+01,2.065e+01,2.069e+01,1.989e+01,2.006e+01,2.030e+01,1.856e+01,2.073e+01,2.242e+01,2.159e+01,2.174e+01,2.145e+01,2.175e+01
2.504e-02,7.314e-01,6.894e-01,2.953e-01,6.038e-01,1.792e+00,2.404e+00,1.516e+00,1.773e+00,2.957e+00,3.385e+00,3.277e+00,3.123e+00,2.876e+00,4.438e+00,4.538e+00,4.867e+00,5.429e+00,4.512e+00,6.062e+00,4.914e+00,5.643e+00,7.669e+00,8.058e+00,8.445e+00,7.713e+00,6.305e+00,8.030e+00,7.958e+00,8.163e+00,8.129e+00,9.528e+00,1.182e+01,9.955e+00,1.032e+01,1.099e+01,1.081e+01,1.080e+01,1.261e+01,1.063e+01,1.064e+01,1.195e+01,1.179e+01,1.186e+01,1.323e+01,1.335e+01,1.164e+01,1.496e+01,1.260e+01,1.373e+01,1.228e+01,1.511e+01,1.343e+01,1.429e+01,1.375e+01,1.539e+01,1.699e+01,1.935e+01,1.632e+01,1.534e+01,1.533e+01,1.621e+01,1.965e+01,1.739e+01,1.607e+01,1.399e+01,1.807e+01,1.436e+01,1.888e+01,1.790e+01,1.881e+01,1.858e+01,1.859e+01,1.807e+01,2.258e+01,2.079e+01,2.172e+01,1.971e+01,1.861e+01,1.941e+01,2.388e+01,1.913e+01,2.020e+01,2.115e+01,2.169e+01,2.062e+01,2.165e+01,2.188e+01,2.247e+01,2.141e+01,2.190e+01,2.206e+01,2.262e+01
2.858e-03,3.204e-01,8.131e-01,2.528e-01,1.277e+00,2.270e+00,1.931e+00,1.831e+00,1.529e+00,2.315e+00,3.122e+00,2.971e+00,2.661e+00,2.318e+00,4.377e+00,4.007e+00,4.468e+00,4.743e+00,5.308e+00,5.954e+00,4.553e+00,5.029e+00,5.960e+00,6.523e+00,7.587e+00,7.740e+00,6.009e+00,8.639e+00,6.942e+00,8.014e+00,7.582e+00,9.352e+00,9.887e+00,8.822e+00,9.781e+00,1.000e+01,1.095e+01,9.829e+00,1.160e+01,1.183e+01,1.036e+01,1.161e+01,1.072e+01,1.165e+01,1.240e+01,1.299e+01,1.051e+01,1.381e+01,1.199e+01,1.299e+01,1.155e+01,1.355e+01,1.101e+01,1.419e+01,1.313e+01,1.337e+01,1.439e+01,1.696e+01,1.444e+01,1.406e+01,1.499e+01,1.597e+01,1.892e+01,1.747e+01,1.554e+01,1.495e+01,1.679e+01,1.497e+01,1.833e+01,1.731e+01,1.807e+01,1.799e+01,1.810e+01,1.710e+01,2.176e+01,1.830e+01,2.127e+01,1.858e+01,1.902e+01,2.046e+01,2.172e+01,1.974e+01,1.882e+01,2.133e+01,2.072e+01,2.077e+01,1.986e+01,1.978e+01,2.376e+01,2.015e+01,2.085e+01,2.128e+01,2.404e+01
1.083e-02,6.256e-01,9.023e-01,3.197e-01,1.118e+00,2.403e+00,2.457e+00,2.204e+00,1.960e+00,2.564e+00,3.020e+00,2.973e+00,2.558e+00,2.405e+00,3.780e+00,4.232e+00,3.961e+00,4.552e+00,5.710e+00,5.952e+00,4.741e+00,6.010e+00,6.505e+00,7.388e+00,7.628e+00,7.010e+00,5.532e+00,7.458e+00,7.094e+00,8.412e+00,6.871e+00,8.729e+00,1.075e+01,9.673e+00,9.952e+00,9.435e+00,9.574e+00,1.044e+01,1.080e+01,1.083e+01,9.723e+00,1.117e+01,1.125e+01,1.203e+01,1.278e+01,1.262e+01,1.051e+01,1.300e+01,1.178e+01,1.218e+01,1.209e+01,1.311e+01,9.919e+00,1.222e+01,1.072e+01,1.155e+01,1.353e+01,1.320e+01,1.344e+01,1.330e+01,1.286e+01,1.380e+01,1.662e+01,1.511e+01,1.426e+01,1.343e+01,1.578e+01,1.418e+01,1.724e+01,1.509e+01,1.785e+01,1.507e+01,1.719e+01,1.567e+01,2.032e+01,1.725e+01,1.937e+01,1.714e+01,1.767e+01,1.853e+01,2.075e+01,1.935e+01,1.743e+01,2.075e+01,1.937e+01,1.727e+01,1.716e+01,1.899e+01,2.231e+01,1.993e+01,2.106e+01,1.968e+01,2.148e+01
1.044e-02,4.891e-01,4.224e-01,2.066e-01,4.851e-01,1.798e+00,2.100e+00,1.615e+00,1.960e+00,2.844e+00,2.963e+00,2.467e+00,2.454e+00,2.220e+00,3.297e+00,3.066e+00,4.141e+00,5.221e+00,5.863e+00,6.029e+00,4.405e+00,5.608e+00,6.390e+00,7.008e+00,6.796e+00,7.033e+00,5.432e+00,6.355e+00,6.836e+00,7.535e+00,7.337e+00,8.770e+00,1.054e+01,9.046e+00,9.519e+00,9.218e+00,9.835e+00,1.093e+01,1.268e+01,1.114e+01,1.020e+01,1.135e+01,1.146e+01,1.260e+01,1.389e+01,1.294e+01,1.228e+01,1.564e+01,1.215e+01,1.351e+01,1.240e+01,1.538e+01,1.244e+01,1.452e+01,1.332e+01,1.458e+01,1.431e+01,1.833e+01,1.614e+01,1.515e+01,1.540e+01,1.590e+01,2.046e+01,1.786e+01,1.658e+01,1.453e+01,1.936e+01,1.561e+01,1.953e+01,1.854e+01,1.883e+01,1.976e+01,1.976e+01,1.979e+01,2.244e+01,1.976e+01,2.237e+01,2.002e+01,2.002e+01,2.297e+01,2.423e+01,2.184e+01,2.092e+01,2.421e+01,2.301e+01,2.295e+01,2.077e+01,2.298e+01,2.536e+01,2.391e+01,2.400e+01,2.421e+01,2.504e+01
8.501e-03,2.890e-01,2.814e-01,1.670e-01,2.832e-01,1.089e+00,1.663e+00,1.342e+00,1.584e+00,2.358e+00,2.963e+00,2.975e+00,2.662e+00,2.326e+00,3.227e+00,3.229e+00,3.882e+00,4.887e+00,4.361e+00,5.036e+00,4.191e+00,5.191e+00,6.136e+00,6.856e+00,6.860e+00,7.143e+00,5.694e+00,6.753e+00,8.102e+00,6.667e+00,6.497e+00,8.775e+00,9.671e+00,8.964e+00,9.472e+00,8.676e+00,9.209e+00,9.423e+00,1.097e+01,9.439e+00,8.645e+00,1.038e+01,1.032e+01,1.062e+01,1.168e+01,1.111e+01,1.091e+01,1.270e+01,1.073e+01,1.204e+01,1.186e+01,1.427e+01,1.243e+01,1.233e+01,1.280e+01,1.435e+01,1.457e+01,1.652e+01,1.595e+01,1.634e+01,1.423e+01,1.565e+01,1.834e+01,1.686e+01,1.553e+01,1.392e+01,1.869e+01,1.419e+01,1.851e+01,1.863e+01,1.865e+01,1.852e+01,1.874e+01,1.836e+01,2.252e+01,1.907e+01,2.112e+01,1.890e+01,1.954e+01,1.933e+01,2.170e+01,1.968e+01,1.825e+01,2.015e+01,1.995e+01,2.175e+01,2.046e+01,2.128e+01,2.364e+01,2.038e+01,2.229e+01,2.093e+01,2.345e+01
1.142e-02,6.522e-01,1.107e+00,3.974e-01,1.437e+00,2.861e+00,2.816e+00,2.487e+00,2.500e+00,2.936e+00,3.872e+00,3.534e+00,3.223e+00,3.461e+00,5.480e+00,5.092e+00,4.748e+00,5.391e+00,6.210e+00,6.532e+00,6.118e+00,5.863e+00,7.088e+00,7.812e+00,8.111e+00,7.505e+00,5.587e+00,8.563e+00,7.535e+00,8.469e+00,7.327e+00,9.232e+00,9.568e+00,8.500e+00,8.937e+00,9.551e+00,1.143e+01,1.082e+01,1.214e+01,1.123e+01,1.082e+01,1.136e+01,1.140e+01,1.180e+01,1.324e+01,1.226e+01,9.940e+00,1.388e+01,1.146e+01,1.339e+01,1.022e+01,1.411e+01,1.203e+01,1.422e+01,1.255e+01,1.288e+01,1.554e+01,1.600e+01,1.490e+01,1.546e+01,1.455e+01,1.428e+01,1.871e+01,1.450e+01,1.357e+01,1.455e+01,1.725e+01,1.485e+01,1.659e+01,1.735e+01,1.775e+01,1.579e+01,1.772e+01,1.625e+01,1.978e+01,1.707e+01,1.911e+01,1.721e+01,1.682e+01,1.881e+01,2.023e+01,1.917e+01,1.729e+01,1.889e+01,1.834e+01,1.936e+01,1.649e+01,1.889e+01,2.157e+01,2.020e+01,2.039e+01,2.108e+01,1.990e+01
1.315e-03,5.198e-01,4.192e-01,2.095e-01,1.048e+00,1.969e+00,1.047e+00,1.684e+00,1.768e+00,2.169e+00,3.460e+00,3.293e+00,2.897e+00,2.001e+00,4.605e+00,4.403e+00,4.462e+00,4.247e+00,4.825e+00,4.763e+00,5.515e+00,4.379e+00,7.106e+00,8.400e+00,7.582e+00,8.027e+00,6.038e+00,8.508e+00,7.887e+00,6.920e+00,6.490e+00,8.400e+00,8.519e+00,9.244e+00,9.085e+00,7.666e+00,8.895e+00,8.547e+00,1.131e+01,9.811e+00,8.350e+00,9.878e+00,1.010e+01,9.930e+00,1.067e+01,1.218e+01,1.026e+01,1.180e+01,9.860e+00,1.165e+01,1.208e+01,1.352e+01,1.108e+01,1.199e+01,1.169e+01,1.338e+01,1.379e+01,1.591e+01,1.568e+01,1.422e+01,1.421e+01,1.354e+01,1.652e+01,1.703e+01,1.371e+01,1.418e+01,1.630e+01,1.403e+01,1.662e+01,1.565e+01,1.677e+01,1.660e+01,1.636e+01,1.613e+01,2.051e+01,1.749e+01,2.032e+01,1.692e+01,1.766e+01,1.718e+01,2.023e+01,1.750e+01,1.763e+01,2.050e+01,1.963e+01,2.066e+01,1.799e+01,2.097e+01,2.123e+01,2.290e+01,2.305e+01,2.036e+01,2.392e+01
3.000e-02,1.254e+00,1.558e+00,4.536e-01,1.239e+00,2.683e+00,2.365e+00,2.267e+00,2.022e+00,2.821e+00,3.309e+00,3.031e+00,3.589e+00,2.692e+00,5.127e+00,4.433e+00,4.680e+00,4.424e+00,5.918e+00,6.674e+00,5.087e+00,5.722e+00,7.626e+00,8.741e+00,8.795e+00,8.398e+00,6.626e+00,8.093e+00,8.281e+00,8.999e+00,8.275e+00,1.015e+01,1.169e+01,1.106e+01,1.053e+01,1.108e+01,9.558e+00,9.256e+00,1.118e+01,1.111e+01,1.021e+01,1.040e+01,1.119e+01,1.046e+01,1.185e+01,1.326e+01,9.385e+00,1.394e+01,1.140e+01,1.111e+01,1.218e+01,1.348e+01,1.184e+01,1.252e+01,1.320e+01,1.431e+01,1.447e+01,1.494e+01,1.637e+01,1.642e+01,1.789e+01,1.632e+01,1.943e+01,1.867e+01,1.697e+01,1.548e+01,1.750e+01,1.574e+01,1.836e+01,1.872e+01,1.925e+01,1.749e+01,1.913e+01,1.773e+01,2.305e+01,1.949e+01,2.255e+01,1.862e+01,2.076e+01,2.143e+01,2.241e+01,1.814e+01,1.919e+01,2.254e+01,2.161e+01,2.236e+01,1.991e+01,2.383e+01,2.443e+01,2.504e+01,2.433e+01,2.335e+01,2.610e+01
3.088e-03,3.119e-01,8.557e-01,2.208e-01,9.255e-01,1.858e+00,1.647e+00,1.506e+00,1.191e+00,1.587e+00,1.774e+00,1.799e+00,1.769e+00,1.680e+00,2.731e+00,2.561e+00,2.819e+00,3.735e+00,3.719e+00,4.185e+00,2.801e+00,4.367e+00,4.667e+00,5.279e+00,6.007e+00,5.511e+00,4.720e+00,5.513e+00,5.429e+00,5.675e+00,5.365e+00,6.896e+00,8.527e+00,7.784e+00,6.703e+00,8.128e+00,7.646e+00,8.583e+00,8.748e+00,8.140e+00,9.073e+00,9.995e+00,9.274e+00,9.514e+00,1.043e+01,1.028e+01,9.396e+00,1.130e+01,1.073e+01,1.048e+01,8.748e+00,1.051e+01,9.352e+00,9.428e+00,1.000e+01,1.110e+01,1.097e+01,1.146e+01,1.294e+01,1.227e+01,1.151e+01,1.173e+01,1.569e+01,1.303e+01,1.118e+01,1.206e+01,1.469e+01,1.174e+01,1.508e+01,1.456e+01,1.516e+01,1.375e+01,1.561e+01,1.532e+01,1.805e+01,1.429e+01,1.701e+01,1.510e+01,1.579e+01,1.757e+01,1.843e+01,1.649e+01,1.562e+01,1.815e+01,1.926e+01,1.650e+01,1.563e+01,1.745e+01,1.883e+01,1.855e+01,1.886e+01,1.889e+01,2.122e+01
2.957e-02,1.266e+00,1.155e+00,4.377e-01,7.786e-01,2.601e+00,2.694e+00,2.324e+00,2.701e+00,3.548e+00,3.980e+00,3.348e+00,3.716e+00,3.475e+00,5.278e+00,4.440e+00,5.269e+00,5.681e+00,6.864e+00,6.712e+00,5.462e+00,5.588e+00,7.877e+00,8.668e+00,8.516e+00,8.196e+00,6.117e+00,8.099e+00,7.927e+00,8.613e+00,7.257e+00,9.181e+00,1.054e+01,9.555e+00,1.019e+01,1.016e+01,1.062e+01,9.750e+00,1.271e+01,1.155e+01,9.711e+00,1.076e+01,1.073e+01,1.202e+01,1.301e+01,1.266e+01,1.064e+01,1.380e+01,1.132e+01,1.277e+01,1.087e+01,1.316e+01,1.196e+01,1.399e+01,1.295e+01,1.336e+01,1.497e+01,1.612e+01,1.422e+01,1.498e+01,1.542e+01,1.516e+01,1.847e+01,1.728e+01,1.646e+01,1.550e+01,1.890e+01,1.556e+01,1.770e+01,1.781e+01,1.926e+01,1.784e+01,2.157e+01,1.802e+01,2.439e+01,2.121e+01,2.218e+01,2.000e+01,2.045e+01,2.268e+01,2.323e+01,2.131e+01,1.976e+01,2.161e+01,2.282e+01,2.310e+01,2.001e+01,2.207e+01,2.696e+01,2.452e+01,2.533e+01,2.471e+01,2.784e+01
1.856e-02,9.985e-01,9.891e-01,3.659e-01,9.548e-01,2.040e+00,1.988e+00,1.884e+00,1.513e+00,2.291e+00,2.664e+00,2.444e+00,1.836e+00,2.440e+00,3.695e+00,2.763e+00,3.995e+00,4.617e+00,4.790e+00,5.105e+00,4.267e+00,4.464e+00,5.384e+00,5.888e+00,6.559e+00,6.532e+00,4.308e+00,5.487e+00,6.420e+00,6.383e+00,5.257e+00,6.814e+00,7.461e+00,7.107e+00,7.175e+00,7.879e+00,9.005e+00,9.499e+00,1.195e+01,9.453e+00,9.115e+00,1.012e+01,1.024e+01,1.142e+01,1.140e+01,1.181e+01,1.104e+01,1.217e+01,1.060e+01,1.231e+01,1.113e+01,1.309e+01,1.089e+01,1.300e+01,1.211e+01,1.325e+01,1.401e+01,1.468e+01,1.351e+01,1.502e+01,1.390e+01,1.311e+01,1.720e+01,1.528e+01,1.433e+01,1.424e+01,1.715e+01,1.533e+01,1.716e+01,1.603e+01,1.558e+01,1.622e+01,1.949e+01,1.682e+01,2.027e+01,1.616e+01,1.893e+01,1.678e+01,1.782e+01,1.836e+01,2.060e+01,1.947e+01,1.635e+01,2.016e+01,2.106e+01,2.074e+01,1.946e+01,2.158e+01,2.193e+01,2.251e+01,2.179e+01,2.235e+01,2.529e+01
1.740e-02,8.893e-01,5.993e-01,2.786e-01,6.684e-01,1.840e+00,1.784e+00,1.837e+00,2.257e+00,2.606e+00,3.389e+00,3.255e+00,3.100e+00,2.757e+00,4.476e+00,3.975e+00,3.944e+00,4.428e+00,5.924e+00,5.335e+00,5.177e+00,5.056e+00,6.779e+00,7.409e+00,8.010e+00,7.263e+00,5.336e+00,7.862e+00,8.109e+00,7.834e+00,6.562e+00,8.642e+00,1.016e+01,9.053e+00,9.615e+00,9.640e+00,9.866e+00,1.017e+01,1.237e+01,1.105e+01,9.734e+00,1.038e+01,1.079e+01,1.116e+01,1.270e+01,1.239e+01,1.053e+01,1.475e+01,1.034e+01,1.200e+01,1.149e+01,1.373e+01,1.146e+01,1.437e+01,1.188e+01,1.233e+01,1.553e+01,1.539e+01,1.535e+01,1.519e+01,1.555e+01,1.352e+01,1.845e+01,1.565e+01,1.487e+01,1.439e+01,1.848e+01,1.558e+01,1.803e+01,1.621e+01,1.821e+01,1.649e+01,1.830e+01,1.546e+01,2.192e+01,1.747e+01,2.159e+01,1.868e+01,1.796e+01,2.113e+01,2.252e+01,1.957e+01,1.854e+01,2.010e+01,2.103e+01,2.063e+01,1.943e+01,2.158e+01,2.360e+01,2.311e+01,2.318e+01,2.094e+01,2.483e+01
2.141e-03,1.281e-01,1.365e-01,9.635e-02,2.545e-01,1.362e+00,1.400e+00,1.025e+00,1.594e+00,2.206e+00,2.313e+00,2.340e+00,2.344e+00,2.133e+00,3.064e+00,3.362e+00,3.683e+00,4.164e+00,4.323e+00,4.909e+00,3.582e+00,4.838e+00,5.814e+00,6.424e+00,7.235e+00,6.310e+00,5.791e+00,7.032e+00,7.370e+00,7.865e+00,6.756e+00,8.001e+00,1.025e+01,9.468e+00,9.535e+00,9.978e+00,9.945e+00,9.998e+00,1.216e+01,1.128e+01,9.828e+00,1.166e+01,1.095e+01,1.191e+01,1.339e+01,1.376e+01,1.185e+01,1.455e+01,1.256e+01,1.275e+01,1.179e+01,1.481e+01,1.216e+01,1.377e+01,1.341e+01,1.412e+01,1.449e+01,1.519e+01,1.628e+01,1.454e+01,1.560e+01,1.565e+01,1.963e+01,1.770e+01,1.582e+01,1.521e+01,1.788e+01,1.536e+01,1.752e+01,1.729e+01,1.822e+01,1.784e+01,1.862e+01,1.900e+01,2.224e+01,1.764e+01,2.139e+01,1.832e+01,1.854e+01,2.162e+01,2.300e+01,1.907e+01,1.743e+01,2.166e+01,2.100e+01,2.042e+01,2.087e+01,2.171e+01,2.318e+01,2.179e+01,2.188e+01,2.301e+01,2.654e+01
