2.186e-01,2.544e-02,4.669e-01,8.725e-01,7.523e-01,4.888e-01,2.409e-01,5.247e-01,2.882e-02,4.152e-01,9.575e-01,9.509e-02,4.596e-02,2.078e-01,5.664e-01,8.204e-02,2.674e-01,3.233e-01,6.930e-01,1.463e-01,2.194e-02,8.263e-01,6.606e-02,5.265e-01,6.768e-01,6.065e-01,2.555e-01,2.961e-01,2.659e-01,8.952e-01,3.811e-01,4.194e-01,4.305e-01,5.346e-01,6.707e-01,6.213e-01,6.578e-01,8.864e-01,3.116e-01,4.873e-02,8.465e-01,9.739e-01,4.813e-02,3.751e-01,2.408e-02,7.588e-01,1.174e-01,6.965e-01,3.774e-01,8.236e-01,2.505e-01,8.485e-01,4.262e-01,3.841e-01,5.359e-01,3.516e-01,9.827e-02,2.233e-01,9.403e-01,9.443e-01,4.739e-01,8.572e-01,1.629e-01,6.307e-01,8.275e-01,3.145e-01,1.911e-01,4.045e-01,8.363e-01,1.598e-01,9.657e-01,3.671e-01,8.015e-01,5.633e-01,5.775e-01,1.522e-01,1.690e-01,1.957e-02,6.094e-01,7.725e-01,1.216e-02,8.256e-01,4.414e-02,5.276e-01,9.978e-01,2.263e-01,3.616e-01,4.464e-01,4.147e-01
1.377e-01,4.497e-01,9.153e-01,1.235e+00,5.687e-01,8.533e-01,7.133e-01,7.655e-01,8.274e-01,6.684e-01,1.085e+00,6.811e-01,9.222e-01,2.120e-01,4.889e-01,1.808e-01,2.994e-01,3.567e-01,5.872e-01,6.132e-01,4.899e-01,1.243e+00,5.326e-01,7.421e-01,9.587e-01,1.009e+00,7.574e-01,7.467e-01,2.408e-01,1.471e+00,7.322e-01,7.674e-01,6.162e-01,7.651e-01,6.577e-01,8.291e-01,8.266e-01,6.721e-01,6.677e-01,4.359e-01,8.527e-01,1.088e+00,6.742e-01,4.949e-01,1.111e-01,1.326e+00,1.069e+00,1.420e+00,3.924e-01,9.322e-01,4.528e-01,1.159e+00,7.969e-01,5.809e-01,8.613e-01,1.078e+00,7.190e-01,2.070e-01,1.272e+00,6.921e-01,1.148e+00,1.156e+00,4.045e-01,5.253e-01,8.397e-01,7.944e-01,6.333e-01,8.224e-01,1.234e+00,6.901e-01,1.163e+00,1.208e+00,1.379e+00,3.739e-01,7.819e-01,6.125e-01,8.823e-01,8.463e-01,6.523e-01,5.683e-01,6.529e-01,5.366e-01,8.711e-01,9.017e-01,9.302e-01,3.523e-01,9.192e-01,8.466e-01,2.911e-01
4.486e-02,1.070e-01,6.987e-01,1.062e+00,8.533e-01,3.297e-01,1.117e+00,8.034e-01,3.545e-01,4.665e-01,4.476e-01,1.134e+00,1.184e+00,1.020e+00,7.922e-01,7.702e-01,6.305e-01,2.732e-01,1.177e+00,1.094e+00,6.567e-01,4.638e-01,6.057e-01,8.819e-01,9.299e-01,1.143e+00,2.099e-01,6.521e-01,9.889e-01,6.898e-01,2.392e-01,1.003e+00,6.375e-01,1.159e+00,5.592e-01,5.539e-01,7.006e-01,5.790e-01,2.830e-01,5.759e-01,7.714e-01,1.124e+00,9.012e-01,1.095e+00,4.553e-01,4.437e-01,4.603e-01,8.338e-01,4.386e-01,1.042e+00,6.914e-01,1.094e+00,7.117e-01,5.119e-01,1.199e+00,9.743e-01,2.880e-01,6.724e-01,5.951e-01,5.071e-01,3.624e-01,7.390e-01,3.677e-01,1.804e-01,2.868e-01,7.882e-01,6.628e-01,6.042e-01,8.407e-01,1.096e+00,6.576e-01,1.243e+00,1.219e+00,4.338e-01,2.878e-01,8.148e-01,9.921e-01,2.974e-01,4.080e-01,9.752e-01,1.089e+00,2.617e-01,8.026e-01,1.224e+00,5.638e-01,7.672e-01,2.718e-01,1.189e+00,9.978e-01
1.418e-01,2.861e-01,9.047e-01,1.656e+00,1.576e+00,9.495e-01,1.738e+00,9.809e-01,7.097e-01,1.387e+00,1.763e+00,1.801e+00,1.067e+00,9.767e-01,1.073e+00,5.111e-01,7.274e-01,9.888e-01,1.477e+00,1.836e+00,6.394e-01,1.285e+00,7.975e-01,1.528e+00,1.538e+00,1.667e+00,7.989e-01,1.689e+00,1.097e+00,1.418e+00,1.492e+00,1.898e+00,1.244e+00,1.749e+00,8.076e-01,1.434e+00,1.901e+00,9.057e-01,1.213e+00,1.038e+00,1.471e+00,2.188e+00,1.258e+00,1.029e+00,6.019e-01,1.698e+00,1.113e+00,2.106e+00,1.244e+00,2.061e+00,1.397e+00,1.341e+00,1.676e+00,1.311e+00,1.586e+00,1.181e+00,1.322e+00,9.554e-01,1.193e+00,1.777e+00,1.855e+00,1.273e+00,1.205e+00,1.404e+00,7.738e-01,1.638e+00,1.285e+00,1.553e+00,1.660e+00,1.195e+00,1.257e+00,1.305e+00,1.798e+00,1.113e+00,7.625e-01,1.265e+00,1.104e+00,6.617e-01,1.659e+00,1.597e+00,1.360e+00,1.525e+00,8.772e-01,1.949e+00,1.179e+00,1.524e+00,1.435e+00,1.528e+00,7.380e-01
1.873e-01,1.599e-01,6.515e-01,1.139e+00,1.790e+00,9.088e-01,8.572e-01,1.365e+00,5.292e-01,1.081e+00,1.784e+00,1.118e+00,7.843e-01,1.304e+00,1.645e+00,1.058e+00,1.308e+00,1.464e+00,1.008e+00,1.398e+00,6.911e-01,1.622e+00,7.696e-01,1.576e+00,1.632e+00,1.934e+00,1.122e+00,7.867e-01,1.173e+00,1.410e+00,1.447e+00,1.608e+00,8.435e-01,1.150e+00,1.262e+00,1.798e+00,1.499e+00,1.714e+00,1.211e+00,1.317e+00,1.484e+00,1.462e+00,1.230e+00,1.116e+00,1.140e+00,1.815e+00,1.293e+00,1.685e+00,1.536e+00,1.979e+00,1.022e+00,1.514e+00,1.168e+00,1.303e+00,1.324e+00,1.136e+00,1.063e+00,8.552e-01,1.966e+00,1.810e+00,1.540e+00,1.866e+00,9.152e-01,1.373e+00,1.512e+00,1.707e+00,1.517e+00,9.594e-01,1.896e+00,6.354e-01,1.907e+00,1.350e+00,1.380e+00,1.194e+00,1.008e+00,7.982e-01,1.310e+00,1.117e+00,1.667e+00,1.402e+00,1.185e+00,1.745e+00,1.038e+00,1.666e+00,1.155e+00,6.493e-01,1.255e+00,1.274e+00,6.301e-01
7.256e-02,3.556e-01,7.164e-01,1.186e+00,1.064e+00,1.076e+00,1.530e+00,1.087e+00,1.474e+00,1.939e+00,1.520e+00,2.170e+00,1.049e+00,1.317e+00,1.530e+00,6.196e-01,8.174e-01,8.633e-01,1.357e+00,1.794e+00,8.820e-01,1.934e+00,1.674e+00,1.855e+00,1.942e+00,1.682e+00,1.199e+00,2.107e+00,1.643e+00,1.306e+00,1.505e+00,1.538e+00,1.851e+00,2.130e+00,1.484e+00,1.514e+00,2.054e+00,9.195e-01,1.835e+00,1.760e+00,1.446e+00,1.957e+00,1.990e+00,9.179e-01,1.098e+00,1.673e+00,2.105e+00,2.694e+00,1.490e+00,1.648e+00,2.047e+00,1.590e+00,1.538e+00,1.527e+00,2.072e+00,1.784e+00,1.885e+00,1.623e+00,1.226e+00,1.406e+00,2.373e+00,1.417e+00,1.447e+00,1.930e+00,1.371e+00,1.723e+00,1.425e+00,1.633e+00,1.731e+00,1.743e+00,2.006e+00,1.787e+00,2.119e+00,1.307e+00,1.610e+00,1.494e+00,1.357e+00,1.561e+00,2.287e+00,1.502e+00,1.724e+00,1.536e+00,1.435e+00,2.338e+00,1.522e+00,1.664e+00,1.793e+00,1.408e+00,4.427e-01
4.488e-02,4.152e-01,9.194e-01,1.409e+00,1.469e+00,9.676e-01,1.908e+00,1.259e+00,1.967e+00,1.654e+00,1.760e+00,2.142e+00,2.256e+00,1.862e+00,1.623e+00,1.445e+00,1.662e+00,1.750e+00,2.138e+00,2.310e+00,1.246e+00,2.096e+00,2.120e+00,2.360e+00,2.569e+00,2.135e+00,1.676e+00,1.848e+00,2.006e+00,1.440e+00,2.210e+00,2.844e+00,1.594e+00,2.245e+00,1.495e+00,2.536e+00,2.013e+00,1.429e+00,1.676e+00,1.879e+00,2.027e+00,2.617e+00,2.666e+00,1.893e+00,1.444e+00,2.545e+00,1.868e+00,2.252e+00,1.484e+00,2.211e+00,2.003e+00,2.088e+00,1.649e+00,1.451e+00,2.462e+00,1.760e+00,2.429e+00,1.383e+00,2.429e+00,1.934e+00,2.026e+00,1.727e+00,1.225e+00,1.966e+00,1.834e+00,2.669e+00,1.922e+00,1.932e+00,1.954e+00,1.973e+00,2.458e+00,2.205e+00,2.235e+00,1.668e+00,1.238e+00,1.594e+00,1.832e+00,2.315e+00,2.312e+00,1.448e+00,2.071e+00,1.301e+00,2.171e+00,3.017e+00,9.029e-01,1.909e+00,2.084e+00,1.693e+00,7.753e-01
1.967e-01,2.567e-01,7.593e-01,1.337e+00,1.396e+00,1.093e+00,1.307e+00,1.659e+00,2.243e+00,1.839e+00,2.758e+00,2.147e+00,1.741e+00,1.968e+00,2.667e+00,1.700e+00,1.837e+00,1.629e+00,2.320e+00,1.892e+00,9.128e-01,2.370e+00,1.869e+00,2.362e+00,2.635e+00,1.915e+00,1.589e+00,2.609e+00,2.338e+00,2.088e+00,2.234e+00,2.879e+00,1.915e+00,2.149e+00,1.899e+00,2.652e+00,2.753e+00,1.723e+00,2.168e+00,2.253e+00,3.019e+00,2.572e+00,2.457e+00,1.411e+00,1.556e+00,2.343e+00,2.492e+00,2.419e+00,1.519e+00,2.325e+00,2.324e+00,2.780e+00,1.789e+00,2.131e+00,3.003e+00,1.544e+00,2.583e+00,1.753e+00,3.023e+00,2.662e+00,2.098e+00,2.167e+00,1.647e+00,2.891e+00,2.775e+00,2.390e+00,1.585e+00,1.961e+00,2.405e+00,2.126e+00,3.137e+00,2.670e+00,2.839e+00,2.353e+00,1.904e+00,1.994e+00,1.525e+00,2.333e+00,2.814e+00,1.743e+00,2.225e+00,2.406e+00,1.930e+00,3.419e+00,1.873e+00,2.165e+00,2.288e+00,2.002e+00,1.221e+00
1.374e-01,4.496e-02,7.016e-01,1.338e+00,2.009e+00,8.967e-01,1.783e+00,1.968e+00,2.627e+00,2.558e+00,3.260e+00,3.151e+00,2.416e+00,3.762e+00,3.694e+00,3.290e+00,3.216e+00,2.826e+00,3.003e+00,3.531e+00,2.035e+00,2.832e+00,2.709e+00,3.381e+00,3.165e+00,2.754e+00,2.461e+00,3.142e+00,3.476e+00,2.344e+00,2.468e+00,4.074e+00,2.121e+00,3.111e+00,2.884e+00,3.573e+00,3.752e+00,2.846e+00,2.627e+00,3.281e+00,3.516e+00,2.883e+00,3.239e+00,2.268e+00,2.812e+00,2.796e+00,3.255e+00,3.002e+00,2.748e+00,2.935e+00,3.297e+00,3.482e+00,2.569e+00,2.757e+00,3.593e+00,2.830e+00,2.693e+00,2.387e+00,3.491e+00,3.546e+00,2.464e+00,2.278e+00,2.545e+00,3.798e+00,3.612e+00,2.929e+00,2.606e+00,2.910e+00,2.634e+00,2.931e+00,4.144e+00,2.940e+00,3.359e+00,2.781e+00,2.643e+00,2.667e+00,2.631e+00,3.100e+00,3.356e+00,3.129e+00,3.659e+00,3.005e+00,2.855e+00,4.735e+00,1.813e+00,2.644e+00,2.418e+00,3.111e+00,2.124e+00
4.424e-02,7.710e-02,3.446e-01,8.141e-01,1.523e+00,6.653e-01,1.348e+00,1.074e+00,1.250e+00,2.425e+00,2.593e+00,2.661e+00,1.613e+00,2.519e+00,2.657e+00,1.978e+00,2.532e+00,2.183e+00,2.225e+00,2.664e+00,1.234e+00,2.163e+00,1.786e+00,2.805e+00,2.688e+00,2.477e+00,1.837e+00,2.397e+00,2.013e+00,1.712e+00,2.433e+00,2.775e+00,1.875e+00,1.964e+00,1.785e+00,2.235e+00,2.577e+00,1.667e+00,2.410e+00,2.107e+00,2.297e+00,2.660e+00,2.342e+00,1.237e+00,1.689e+00,2.735e+00,2.827e+00,2.191e+00,2.720e+00,2.159e+00,2.404e+00,1.754e+00,2.381e+00,2.514e+00,2.705e+00,2.220e+00,2.621e+00,1.960e+00,1.975e+00,2.885e+00,2.179e+00,1.594e+00,1.998e+00,2.961e+00,2.486e+00,2.247e+00,2.674e+00,2.356e+00,2.435e+00,1.670e+00,2.626e+00,2.019e+00,2.494e+00,2.210e+00,1.418e+00,1.926e+00,2.111e+00,2.297e+00,2.936e+00,2.224e+00,3.017e+00,2.472e+00,1.890e+00,3.547e+00,1.070e+00,1.774e+00,1.813e+00,2.515e+00,9.302e-01
3.114e-02,2.354e-01,7.837e-01,1.256e+00,1.799e+00,9.221e-01,1.838e+00,1.966e+00,2.073e+00,2.113e+00,2.624e+00,3.995e+00,3.086e+00,3.406e+00,3.564e+00,3.072e+00,3.083e+00,2.286e+00,2.907e+00,3.699e+00,2.541e+00,2.986e+00,2.827e+00,3.261e+00,3.121e+00,2.814e+00,2.297e+00,3.014e+00,3.710e+00,2.052e+00,3.122e+00,3.958e+00,2.632e+00,3.202e+00,2.156e+00,2.712e+00,3.171e+00,2.328e+00,3.202e+00,3.677e+00,3.392e+00,2.515e+00,3.779e+00,2.717e+00,2.795e+00,3.216e+00,3.669e+00,2.899e+00,2.756e+00,2.667e+00,2.722e+00,3.566e+00,2.356e+00,2.587e+00,4.252e+00,3.262e+00,3.184e+00,2.668e+00,2.852e+00,3.417e+00,2.584e+00,2.608e+00,2.593e+00,2.992e+00,2.597e+00,3.034e+00,3.110e+00,3.091e+00,2.728e+00,3.167e+00,3.240e+00,3.681e+00,3.526e+00,2.325e+00,2.369e+00,2.650e+00,3.145e+00,2.683e+00,3.533e+00,3.130e+00,3.891e+00,2.557e+00,2.828e+00,4.677e+00,1.564e+00,3.049e+00,2.981e+00,3.196e+00,2.459e+00
1.726e-01,2.612e-01,1.017e+00,1.623e+00,1.903e+00,1.146e+00,1.645e+00,2.143e+00,2.356e+00,2.304e+00,3.145e+00,3.533e+00,2.853e+00,4.112e+00,3.749e+00,3.031e+00,2.968e+00,2.891e+00,2.874e+00,3.722e+00,2.473e+00,3.597e+00,2.922e+00,3.847e+00,3.379e+00,3.504e+00,2.880e+00,3.176e+00,3.380e+00,2.750e+00,3.270e+00,4.384e+00,2.390e+00,2.899e+00,3.140e+00,3.717e+00,4.198e+00,3.348e+00,3.391e+00,3.611e+00,3.684e+00,3.077e+00,3.199e+00,3.113e+00,2.496e+00,3.952e+00,3.969e+00,3.258e+00,2.974e+00,3.051e+00,3.306e+00,4.531e+00,2.639e+00,3.023e+00,3.822e+00,4.000e+00,3.396e+00,2.779e+00,3.600e+00,3.479e+00,2.866e+00,3.471e+00,2.390e+00,3.772e+00,3.388e+00,3.688e+00,2.927e+00,3.411e+00,3.031e+00,3.740e+00,4.569e+00,4.418e+00,4.502e+00,2.803e+00,2.984e+00,2.878e+00,3.264e+00,3.303e+00,3.338e+00,3.349e+00,4.398e+00,3.497e+00,3.389e+00,5.315e+00,2.978e+00,2.826e+00,2.746e+00,3.455e+00,2.236e+00
6.575e-02,2.556e-01,7.665e-01,1.185e+00,1.193e+00,7.541e-01,1.427e+00,1.298e+00,1.891e+00,1.914e+00,2.278e+00,2.728e+00,3.180e+00,2.929e+00,3.417e+00,2.750e+00,2.979e+00,2.483e+00,2.491e+00,3.328e+00,2.647e+00,3.488e+00,2.991e+00,3.313e+00,3.276e+00,3.444e+00,2.368e+00,3.001e+00,2.388e+00,2.151e+00,3.204e+00,3.401e+00,2.758e+00,2.622e+00,2.334e+00,3.543e+00,3.056e+00,2.328e+00,2.481e+00,3.240e+00,3.459e+00,2.590e+00,3.182e+00,2.275e+00,2.263e+00,3.445e+00,2.967e+00,2.837e+00,3.114e+00,2.401e+00,2.649e+00,2.969e+00,2.216e+00,2.627e+00,3.517e+00,3.746e+00,2.954e+00,2.071e+00,2.766e+00,3.313e+00,2.735e+00,3.093e+00,2.214e+00,3.294e+00,3.256e+00,3.527e+00,2.332e+00,2.759e+00,3.130e+00,2.899e+00,3.924e+00,3.166e+00,3.434e+00,2.050e+00,2.673e+00,2.269e+00,3.027e+00,3.054e+00,2.577e+00,2.526e+00,3.457e+00,2.889e+00,3.250e+00,4.822e+00,1.903e+00,3.007e+00,2.044e+00,2.984e+00,2.135e+00
1.975e-01,1.614e-01,1.021e+00,1.779e+00,2.283e+00,1.008e+00,1.875e+00,1.759e+00,1.975e+00,2.410e+00,3.230e+00,3.436e+00,3.247e+00,4.909e+00,4.044e+00,3.694e+00,3.674e+00,3.749e+00,3.663e+00,4.938e+00,3.256e+00,4.194e+00,3.325e+00,5.161e+00,4.516e+00,3.818e+00,3.886e+00,3.660e+00,3.399e+00,3.322e+00,4.283e+00,5.239e+00,3.568e+00,4.259e+00,4.137e+00,5.129e+00,4.452e+00,4.472e+00,3.495e+00,4.184e+00,4.066e+00,4.693e+00,3.730e+00,4.008e+00,3.016e+00,5.489e+00,3.448e+00,3.586e+00,3.789e+00,4.216e+00,3.341e+00,5.116e+00,3.626e+00,3.229e+00,4.925e+00,4.601e+00,3.873e+00,3.328e+00,4.334e+00,5.212e+00,3.792e+00,3.550e+00,3.030e+00,3.980e+00,3.871e+00,4.579e+00,3.727e+00,4.753e+00,3.552e+00,3.898e+00,5.170e+00,3.949e+00,5.078e+00,2.868e+00,3.776e+00,2.929e+00,4.139e+00,3.643e+00,4.053e+00,4.781e+00,4.173e+00,4.144e+00,3.477e+00,5.585e+00,3.315e+00,3.434e+00,3.036e+00,3.849e+00,2.744e+00
1.313e-01,4.308e-01,1.117e+00,1.674e+00,1.636e+00,1.329e+00,1.967e+00,1.846e+00,2.506e+00,2.678e+00,2.605e+00,3.878e+00,4.053e+00,3.594e+00,4.421e+00,3.929e+00,4.412e+00,3.144e+00,3.882e+00,4.163e+00,4.140e+00,5.536e+00,5.049e+00,5.077e+00,5.080e+00,4.784e+00,3.249e+00,3.859e+00,4.729e+00,3.095e+00,5.421e+00,4.784e+00,4.860e+00,4.563e+00,4.285e+00,5.335e+00,3.795e+00,3.618e+00,4.139e+00,4.476e+00,5.009e+00,4.842e+00,5.616e+00,3.894e+00,3.470e+00,5.121e+00,4.675e+00,4.464e+00,4.682e+00,3.818e+00,4.081e+00,4.365e+00,2.698e+00,3.801e+00,6.135e+00,5.790e+00,5.266e+00,4.035e+00,4.144e+00,4.886e+00,4.799e+00,5.148e+00,3.547e+00,4.815e+00,4.761e+00,5.048e+00,3.446e+00,3.840e+00,4.912e+00,4.710e+00,5.476e+00,5.076e+00,5.347e+00,3.807e+00,4.120e+00,3.650e+00,4.514e+00,4.578e+00,5.088e+00,4.110e+00,4.046e+00,3.786e+00,4.565e+00,6.818e+00,3.576e+00,4.521e+00,4.177e+00,3.551e+00,3.589e+00
1.542e-01,3.993e-01,1.167e+00,1.802e+00,1.414e+00,1.033e+00,1.619e+00,1.529e+00,1.686e+00,1.767e+00,2.690e+00,3.054e+00,3.362e+00,3.060e+00,3.712e+00,4.040e+00,3.941e+00,3.260e+00,3.502e+00,4.774e+00,3.892e+00,4.665e+00,4.185e+00,4.934e+00,4.433e+00,4.633e+00,3.728e+00,3.916e+00,3.898e+00,4.047e+00,4.730e+00,5.228e+00,4.411e+00,4.122e+00,3.803e+00,5.480e+00,4.038e+00,4.068e+00,3.678e+00,3.800e+00,5.300e+00,4.425e+00,3.907e+00,3.716e+00,3.295e+00,4.656e+00,4.756e+00,4.094e+00,4.156e+00,4.528e+00,3.106e+00,3.932e+00,3.038e+00,3.692e+00,5.138e+00,5.400e+00,4.563e+00,3.558e+00,4.320e+00,5.220e+00,4.848e+00,4.794e+00,3.786e+00,4.453e+00,4.157e+00,4.319e+00,3.378e+00,4.346e+00,5.067e+00,3.975e+00,5.128e+00,5.155e+00,5.032e+00,3.537e+00,3.541e+00,4.003e+00,4.106e+00,4.099e+00,3.603e+00,4.126e+00,4.051e+00,4.306e+00,4.383e+00,5.669e+00,3.675e+00,4.306e+00,3.269e+00,4.376e+00,3.741e+00
1.484e-01,1.911e-02,5.962e-01,1.099e+00,1.388e+00,7.818e-01,1.431e+00,1.472e+00,2.112e+00,2.269e+00,2.283e+00,3.440e+00,2.780e+00,4.290e+00,3.794e+00,3.469e+00,3.883e+00,3.471e+00,4.923e+00,4.611e+00,3.731e+00,5.250e+00,4.812e+00,5.177e+00,4.924e+00,3.357e+00,3.458e+00,4.411e+00,4.838e+00,2.962e+00,4.680e+00,5.792e+00,5.093e+00,5.323e+00,4.790e+00,4.920e+00,4.026e+00,4.782e+00,3.955e+00,4.917e+00,4.396e+00,5.493e+00,4.506e+00,4.829e+00,3.412e+00,5.332e+00,4.588e+00,3.636e+00,3.429e+00,4.511e+00,4.339e+00,4.976e+00,3.243e+00,3.110e+00,6.028e+00,5.293e+00,4.902e+00,4.887e+00,4.602e+00,5.320e+00,3.891e+00,4.227e+00,3.044e+00,4.734e+00,4.484e+00,4.022e+00,3.696e+00,4.952e+00,3.512e+00,4.997e+00,5.251e+00,4.814e+00,5.864e+00,3.879e+00,3.751e+00,3.405e+00,4.417e+00,4.526e+00,5.170e+00,5.212e+00,4.649e+00,4.541e+00,4.223e+00,6.101e+00,4.271e+00,4.689e+00,3.752e+00,3.638e+00,3.810e+00
1.504e-04,2.027e-01,3.134e-01,3.884e-01,5.957e-01,6.213e-01,8.599e-01,9.923e-01,2.159e+00,1.694e+00,1.513e+00,2.436e+00,2.473e+00,3.656e+00,3.197e+00,2.842e+00,2.677e+00,3.673e+00,3.114e+00,3.967e+00,3.947e+00,4.527e+00,3.973e+00,4.300e+00,3.839e+00,3.964e+00,3.738e+00,4.121e+00,3.835e+00,2.694e+00,4.714e+00,4.062e+00,4.457e+00,3.557e+00,3.950e+00,4.622e+00,3.664e+00,3.673e+00,3.587e+00,5.055e+00,3.592e+00,3.123e+00,4.147e+00,3.657e+00,3.162e+00,4.875e+00,4.516e+00,3.711e+00,3.121e+00,3.218e+00,4.082e+00,4.719e+00,3.160e+00,2.798e+00,4.396e+00,4.932e+00,4.193e+00,4.232e+00,4.017e+00,3.953e+00,4.165e+00,3.678e+00,2.607e+00,4.347e+00,3.494e+00,4.483e+00,3.266e+00,4.266e+00,3.706e+00,4.686e+00,5.027e+00,4.567e+00,4.694e+00,2.872e+00,4.194e+00,3.222e+00,3.317e+00,4.146e+00,3.742e+00,3.832e+00,3.567e+00,3.829e+00,3.985e+00,5.273e+00,3.667e+00,3.345e+00,3.538e+00,2.769e+00,2.792e+00
8.207e-02,2.919e-01,9.645e-01,1.520e+00,1.774e+00,9.855e-01,1.781e+00,1.609e+00,1.182e+00,2.045e+00,2.117e+00,3.352e+00,2.667e+00,3.387e+00,3.279e+00,3.078e+00,3.430e+00,3.514e+00,4.704e+00,4.850e+00,4.332e+00,4.866e+00,3.565e+00,5.141e+00,4.275e+00,5.050e+00,3.281e+00,4.932e+00,4.656e+00,4.302e+00,5.951e+00,5.486e+00,5.281e+00,4.944e+00,3.968e+00,4.183e+00,4.258e+00,4.749e+00,4.286e+00,5.648e+00,3.855e+00,5.700e+00,5.484e+00,4.346e+00,3.674e+00,5.280e+00,5.330e+00,4.918e+00,3.629e+00,5.208e+00,4.919e+00,5.499e+00,4.767e+00,3.829e+00,5.631e+00,5.451e+00,4.992e+00,5.672e+00,4.263e+00,4.944e+00,5.071e+00,5.031e+00,3.779e+00,3.775e+00,3.865e+00,4.177e+00,4.917e+00,4.814e+00,5.200e+00,5.345e+00,4.831e+00,5.089e+00,5.827e+00,3.900e+00,4.029e+00,4.482e+00,5.008e+00,3.722e+00,4.913e+00,5.561e+00,4.829e+00,4.230e+00,4.749e+00,6.102e+00,4.021e+00,3.843e+00,4.649e+00,4.466e+00,4.649e+00
4.248e-02,2.800e-01,7.300e-01,1.164e+00,1.489e+00,8.470e-01,1.597e+00,1.354e+00,1.927e+00,2.245e+00,2.547e+00,3.124e+00,2.843e+00,3.429e+00,3.255e+00,3.597e+00,3.968e+00,4.163e+00,4.299e+00,5.661e+00,4.048e+00,5.917e+00,4.648e+00,5.870e+00,4.770e+00,5.385e+00,4.327e+00,5.011e+00,4.445e+00,4.077e+00,5.458e+00,6.337e+00,4.765e+00,5.089e+00,4.093e+00,5.389e+00,4.887e+00,4.660e+00,4.078e+00,5.693e+00,5.374e+00,4.905e+00,4.767e+00,4.870e+00,4.705e+00,6.025e+00,5.577e+00,4.907e+00,4.412e+00,5.203e+00,4.694e+00,4.619e+00,4.015e+00,3.482e+00,5.374e+00,5.424e+00,5.406e+00,4.392e+00,5.173e+00,5.290e+00,5.153e+00,5.077e+00,4.031e+00,5.736e+00,4.987e+00,4.851e+00,5.109e+00,5.729e+00,4.713e+00,4.963e+00,5.457e+00,4.958e+00,5.555e+00,4.776e+00,3.577e+00,4.508e+00,5.153e+00,5.734e+00,4.939e+00,5.072e+00,5.449e+00,5.310e+00,5.918e+00,6.127e+00,3.245e+00,4.138e+00,4.128e+00,4.677e+00,4.075e+00
5.805e-02,4.029e-01,8.805e-01,1.284e+00,1.013e+00,9.436e-01,1.606e+00,1.546e+00,2.988e+00,2.655e+00,3.259e+00,3.603e+00,3.481e+00,3.371e+00,3.705e+00,4.139e+00,4.752e+00,3.912e+00,5.009e+00,4.782e+00,4.220e+00,5.496e+00,5.238e+00,5.696e+00,4.830e+00,4.817e+00,4.486e+00,5.933e+00,5.786e+00,5.086e+00,5.952e+00,7.260e+00,5.515e+00,5.172e+00,4.386e+00,5.145e+00,4.897e+00,5.151e+00,4.898e+00,5.575e+00,5.127e+00,6.493e+00,6.299e+00,4.414e+00,4.766e+00,5.826e+00,7.059e+00,5.352e+00,4.446e+00,5.413e+00,5.783e+00,4.829e+00,4.273e+00,5.068e+00,6.313e+00,5.961e+00,6.377e+00,5.052e+00,6.048e+00,5.651e+00,4.703e+00,5.008e+00,4.242e+00,5.883e+00,5.757e+00,4.288e+00,5.254e+00,5.633e+00,5.096e+00,5.422e+00,6.282e+00,5.618e+00,6.088e+00,5.202e+00,4.592e+00,5.563e+00,5.346e+00,5.770e+00,5.401e+00,5.477e+00,6.209e+00,4.789e+00,6.058e+00,8.071e+00,3.600e+00,5.467e+00,5.392e+00,5.686e+00,4.672e+00
4.103e-02,1.372e-01,7.069e-01,1.373e+00,1.673e+00,8.630e-01,2.241e+00,1.430e+00,1.768e+00,2.423e+00,2.089e+00,3.817e+00,3.039e+00,3.901e+00,3.919e+00,3.812e+00,3.855e+00,3.585e+00,4.570e+00,5.542e+00,3.983e+00,5.320e+00,5.768e+00,6.692e+00,5.508e+00,5.253e+00,3.762e+00,5.147e+00,5.344e+00,3.709e+00,5.761e+00,6.673e+00,5.826e+00,6.416e+00,4.908e+00,6.149e+00,5.346e+00,4.511e+00,4.475e+00,5.886e+00,5.669e+00,6.304e+00,5.382e+00,5.051e+00,4.394e+00,5.728e+00,5.037e+00,5.501e+00,5.206e+00,5.393e+00,4.751e+00,5.311e+00,3.934e+00,4.303e+00,7.020e+00,6.280e+00,5.844e+00,5.645e+00,4.554e+00,5.969e+00,5.609e+00,5.451e+00,4.954e+00,5.843e+00,4.863e+00,5.896e+00,4.324e+00,5.314e+00,5.364e+00,6.038e+00,5.776e+00,5.489e+00,5.954e+00,4.754e+00,3.976e+00,5.082e+00,4.476e+00,4.769e+00,5.905e+00,5.050e+00,5.179e+00,5.501e+00,4.873e+00,6.831e+00,4.587e+00,5.364e+00,4.276e+00,4.983e+00,4.571e+00
1.083e-01,7.451e-02,7.107e-01,1.185e+00,1.308e+00,6.657e-01,1.393e+00,1.444e+00,1.990e+00,2.476e+00,2.645e+00,3.264e+00,3.431e+00,4.427e+00,4.513e+00,4.331e+00,4.773e+00,4.872e+00,5.266e+00,5.660e+00,5.425e+00,6.902e+00,5.995e+00,7.556e+00,6.393e+00,7.755e+00,5.644e+00,7.187e+00,6.570e+00,5.558e+00,6.900e+00,7.913e+00,7.272e+00,6.672e+00,5.906e+00,6.514e+00,6.748e+00,6.843e+00,5.141e+00,7.703e+00,6.583e+00,7.061e+00,6.889e+00,6.657e+00,6.617e+00,8.182e+00,6.949e+00,6.777e+00,7.036e+00,6.778e+00,7.536e+00,6.568e+00,5.089e+00,5.466e+00,8.057e+00,8.594e+00,6.433e+00,6.161e+00,6.728e+00,7.241e+00,5.881e+00,6.902e+00,4.971e+00,7.942e+00,7.376e+00,6.531e+00,6.092e+00,7.201e+00,6.428e+00,7.098e+00,7.935e+00,6.207e+00,7.547e+00,6.508e+00,6.030e+00,6.710e+00,6.285e+00,6.840e+00,6.744e+00,7.856e+00,7.015e+00,7.489e+00,6.900e+00,9.105e+00,5.948e+00,6.257e+00,5.184e+00,6.706e+00,6.904e+00
1.748e-01,2.549e-01,9.759e-01,1.578e+00,1.612e+00,1.056e+00,1.578e+00,1.684e+00,2.019e+00,2.269e+00,2.672e+00,2.921e+00,2.730e+00,3.503e+00,3.479e+00,3.309e+00,3.508e+00,3.422e+00,3.940e+00,4.549e+00,3.218e+00,5.462e+00,4.802e+00,6.542e+00,6.085e+00,6.327e+00,5.466e+00,5.510e+00,4.983e+00,4.866e+00,5.586e+00,6.856e+00,5.427e+00,5.697e+00,5.536e+00,6.427e+00,6.803e+00,6.280e+00,5.461e+00,6.108e+00,6.502e+00,6.141e+00,6.066e+00,6.128e+00,5.557e+00,6.591e+00,5.906e+00,6.436e+00,5.876e+00,5.852e+00,5.276e+00,6.348e+00,3.786e+00,4.228e+00,6.369e+00,7.056e+00,6.463e+00,5.076e+00,5.876e+00,6.188e+00,5.249e+00,6.080e+00,5.048e+00,6.924e+00,6.871e+00,6.306e+00,4.760e+00,6.141e+00,5.811e+00,5.629e+00,7.598e+00,5.240e+00,6.470e+00,5.502e+00,5.029e+00,5.348e+00,5.043e+00,6.302e+00,6.405e+00,5.852e+00,5.591e+00,5.787e+00,6.456e+00,7.218e+00,5.309e+00,4.549e+00,4.153e+00,6.222e+00,5.379e+00
7.645e-02,4.858e-02,2.586e-01,7.065e-01,1.614e+00,8.308e-01,1.416e+00,1.482e+00,2.288e+00,2.302e+00,2.698e+00,2.946e+00,2.290e+00,3.148e+00,3.728e+00,3.839e+00,4.151e+00,4.349e+00,4.519e+00,4.650e+00,4.011e+00,5.391e+00,4.929e+00,5.742e+00,5.575e+00,6.439e+00,5.127e+00,6.343e+00,6.835e+00,4.481e+00,7.724e+00,7.704e+00,6.553e+00,5.895e+00,6.239e+00,6.824e+00,6.891e+00,6.678e+00,5.871e+00,6.861e+00,7.362e+00,5.892e+00,7.747e+00,5.352e+00,6.499e+00,5.665e+00,7.266e+00,6.413e+00,5.445e+00,6.077e+00,6.311e+00,5.841e+00,4.237e+00,5.067e+00,6.998e+00,6.600e+00,7.963e+00,6.272e+00,5.878e+00,7.214e+00,6.589e+00,6.173e+00,5.588e+00,7.727e+00,7.421e+00,6.418e+00,5.128e+00,6.353e+00,6.895e+00,6.031e+00,7.210e+00,5.504e+00,5.927e+00,6.105e+00,5.958e+00,5.956e+00,4.807e+00,6.654e+00,7.386e+00,6.081e+00,5.176e+00,5.962e+00,7.231e+00,8.304e+00,4.917e+00,5.522e+00,5.739e+00,5.294e+00,6.230e+00
1.030e-02,2.480e-01,5.119e-01,7.693e-01,9.983e-01,7.162e-01,1.195e+00,1.110e+00,1.583e+00,1.648e+00,1.604e+00,2.283e+00,1.841e+00,2.833e+00,2.537e+00,2.393e+00,2.557e+00,2.432e+00,2.853e+00,3.907e+00,2.833e+00,3.913e+00,3.327e+00,5.096e+00,4.513e+00,4.473e+00,5.192e+00,6.329e+00,4.827e+00,4.242e+00,4.852e+00,5.724e+00,5.942e+00,5.852e+00,5.087e+00,5.473e+00,5.969e+00,5.532e+00,4.874e+00,6.126e+00,4.070e+00,6.375e+00,6.121e+00,4.932e+00,5.648e+00,5.639e+00,4.927e+00,5.972e+00,4.349e+00,6.015e+00,5.174e+00,4.907e+00,3.706e+00,4.126e+00,5.786e+00,5.740e+00,5.995e+00,5.122e+00,5.246e+00,5.310e+00,5.490e+00,4.925e+00,4.223e+00,4.797e+00,4.976e+00,4.705e+00,5.291e+00,6.281e+00,4.751e+00,4.949e+00,5.291e+00,4.443e+00,5.407e+00,4.111e+00,4.976e+00,5.537e+00,5.550e+00,5.641e+00,6.151e+00,6.217e+00,4.931e+00,4.771e+00,5.238e+00,6.009e+00,4.588e+00,5.362e+00,4.633e+00,5.141e+00,4.349e+00
1.188e-05,3.750e-01,5.880e-01,8.911e-01,9.209e-01,7.489e-01,1.398e+00,1.180e+00,2.599e+00,1.823e+00,2.738e+00,3.320e+00,3.426e+00,3.803e+00,3.499e+00,3.504e+00,3.585e+00,4.160e+00,3.972e+00,5.169e+00,4.302e+00,5.403e+00,5.162e+00,6.484e+00,5.523e+00,5.731e+00,6.456e+00,8.006e+00,6.152e+00,5.500e+00,7.703e+00,8.994e+00,7.809e+00,6.757e+00,6.289e+00,7.320e+00,7.834e+00,7.157e+00,6.404e+00,8.777e+00,7.515e+00,7.004e+00,8.206e+00,6.206e+00,6.310e+00,7.973e+00,7.520e+00,6.987e+00,5.453e+00,6.787e+00,6.372e+00,7.702e+00,5.897e+00,6.009e+00,8.745e+00,7.661e+00,8.791e+00,6.688e+00,7.045e+00,7.772e+00,6.400e+00,5.988e+00,5.900e+00,7.278e+00,6.632e+00,7.562e+00,5.913e+00,8.703e+00,6.420e+00,7.141e+00,7.090e+00,6.842e+00,7.300e+00,5.010e+00,6.463e+00,6.311e+00,6.198e+00,6.650e+00,7.804e+00,6.548e+00,6.605e+00,6.904e+00,6.965e+00,8.949e+00,6.009e+00,6.776e+00,6.108e+00,6.990e+00,6.805e+00
3.328e-02,8.569e-03,1.113e-01,5.162e-01,1.302e+00,6.134e-01,1.150e+00,9.517e-01,1.301e+00,2.513e+00,2.588e+00,2.917e+00,1.666e+00,3.338e+00,3.577e+00,3.329e+00,3.622e+00,3.672e+00,3.700e+00,4.296e+00,3.668e+00,4.329e+00,3.568e+00,6.000e+00,5.210e+00,5.896e+00,6.016e+00,7.927e+00,6.594e+00,5.813e+00,7.749e+00,6.802e+00,8.225e+00,6.622e+00,6.307e+00,7.367e+00,8.082e+00,6.354e+00,7.004e+00,8.303e+00,6.830e+00,7.492e+00,7.952e+00,5.368e+00,6.635e+00,6.983e+00,6.654e+00,7.802e+00,6.191e+00,7.398e+00,7.780e+00,6.304e+00,6.229e+00,6.479e+00,8.141e+00,7.164e+00,8.585e+00,7.470e+00,6.228e+00,7.751e+00,7.931e+00,6.205e+00,6.045e+00,7.547e+00,6.607e+00,6.411e+00,6.962e+00,7.662e+00,7.853e+00,6.410e+00,6.791e+00,5.816e+00,7.287e+00,6.433e+00,6.412e+00,7.372e+00,6.281e+00,6.228e+00,9.344e+00,7.771e+00,5.969e+00,6.395e+00,5.291e+00,8.378e+00,6.056e+00,5.914e+00,6.718e+00,6.492e+00,6.746e+00
1.751e-01,4.161e-01,1.082e+00,1.747e+00,1.831e+00,1.216e+00,1.630e+00,1.529e+00,1.575e+00,1.802e+00,2.643e+00,2.626e+00,2.772e+00,2.726e+00,3.102e+00,3.326e+00,3.682e+00,3.802e+00,3.133e+00,4.913e+00,3.916e+00,6.074e+00,5.156e+00,6.506e+00,5.647e+00,6.831e+00,5.893e+00,6.328e+00,5.916e+00,5.711e+00,7.121e+00,8.649e+00,6.960e+00,6.764e+00,6.591e+00,7.956e+00,8.068e+00,7.331e+00,5.577e+00,7.027e+00,7.954e+00,7.530e+00,6.791e+00,7.194e+00,6.701e+00,8.217e+00,6.654e+00,7.704e+00,7.471e+00,7.345e+00,5.707e+00,6.646e+00,4.437e+00,6.014e+00,7.352e+00,8.121e+00,7.889e+00,5.572e+00,7.399e+00,7.510e+00,6.886e+00,7.661e+00,6.364e+00,8.153e+00,7.515e+00,7.881e+00,5.868e+00,7.626e+00,7.156e+00,6.711e+00,7.021e+00,6.487e+00,7.252e+00,5.626e+00,6.023e+00,7.047e+00,6.338e+00,7.421e+00,7.493e+00,7.422e+00,5.980e+00,7.606e+00,6.792e+00,8.208e+00,6.158e+00,5.989e+00,5.764e+00,6.757e+00,6.347e+00
1.339e-02,2.832e-01,7.557e-01,1.315e+00,1.892e+00,1.048e+00,2.129e+00,1.910e+00,2.183e+00,2.501e+00,2.859e+00,4.397e+00,3.702e+00,4.169e+00,4.721e+00,4.299e+00,4.574e+00,4.127e+00,4.835e+00,6.769e+00,4.621e+00,6.577e+00,5.734e+00,7.057e+00,6.151e+00,6.052e+00,5.064e+00,6.962e+00,6.198e+00,5.459e+00,7.515e+00,9.112e+00,7.468e+00,8.115e+00,5.924e+00,7.819e+00,7.435e+00,7.259e+00,6.496e+00,8.979e+00,8.320e+00,7.596e+00,7.680e+00,7.019e+00,7.498e+00,7.793e+00,7.298e+00,7.107e+00,7.090e+00,7.413e+00,6.046e+00,7.602e+00,5.243e+00,6.452e+00,8.413e+00,7.322e+00,8.532e+00,6.976e+00,6.921e+00,7.921e+00,7.258e+00,7.745e+00,6.770e+00,8.300e+00,7.009e+00,7.313e+00,6.711e+00,7.957e+00,7.210e+00,8.041e+00,7.300e+00,7.116e+00,8.319e+00,6.012e+00,6.192e+00,7.328e+00,7.428e+00,7.716e+00,7.648e+00,8.170e+00,7.799e+00,7.599e+00,7.539e+00,9.156e+00,4.974e+00,6.712e+00,5.823e+00,7.077e+00,6.367e+00
7.489e-02,3.840e-02,5.742e-01,9.445e-01,1.639e+00,5.678e-01,1.256e+00,1.450e+00,1.283e+00,1.284e+00,1.503e+00,1.952e+00,2.066e+00,2.776e+00,2.537e+00,3.091e+00,3.398e+00,3.135e+00,3.673e+00,3.735e+00,3.152e+00,4.124e+00,3.865e+00,4.969e+00,4.642e+00,5.200e+00,5.392e+00,6.104e+00,6.510e+00,5.168e+00,6.367e+00,7.671e+00,7.999e+00,7.696e+00,7.134e+00,7.737e+00,7.535e+00,8.554e+00,6.837e+00,8.170e+00,7.463e+00,8.307e+00,8.353e+00,7.030e+00,7.266e+00,6.678e+00,6.365e+00,7.423e+00,6.209e+00,7.961e+00,6.490e+00,6.723e+00,5.106e+00,5.830e+00,7.718e+00,6.619e+00,8.774e+00,7.679e+00,7.393e+00,7.395e+00,6.155e+00,7.158e+00,5.248e+00,6.854e+00,6.477e+00,7.004e+00,7.325e+00,7.527e+00,6.937e+00,7.226e+00,7.283e+00,6.115e+00,7.699e+00,6.257e+00,6.543e+00,7.659e+00,7.475e+00,7.420e+00,8.148e+00,7.961e+00,6.737e+00,5.736e+00,7.452e+00,8.843e+00,5.676e+00,6.613e+00,6.402e+00,7.466e+00,7.422e+00
5.526e-02,1.057e-01,4.401e-01,8.931e-01,1.088e+00,6.992e-01,1.548e+00,1.196e+00,2.297e+00,2.616e+00,2.735e+00,4.119e+00,3.193e+00,4.118e+00,3.882e+00,3.711e+00,4.395e+00,3.778e+00,5.088e+00,5.152e+00,4.309e+00,6.419e+00,5.800e+00,7.167e+00,5.724e+00,6.095e+00,5.819e+00,8.540e+00,8.421e+00,5.900e+00,9.365e+00,1.138e+01,1.078e+01,9.426e+00,9.057e+00,8.508e+00,9.968e+00,8.655e+00,7.661e+00,9.627e+00,1.011e+01,1.039e+01,9.897e+00,7.776e+00,7.965e+00,9.385e+00,9.407e+00,8.826e+00,7.592e+00,8.271e+00,8.589e+00,8.800e+00,7.150e+00,8.122e+00,1.193e+01,8.837e+00,1.191e+01,9.294e+00,8.520e+00,9.414e+00,8.177e+00,7.820e+00,7.313e+00,9.673e+00,8.892e+00,9.225e+00,8.794e+00,1.092e+01,8.338e+00,9.888e+00,7.823e+00,8.883e+00,1.059e+01,8.411e+00,8.547e+00,1.000e+01,8.445e+00,9.085e+00,1.065e+01,9.861e+00,8.829e+00,8.254e+00,8.191e+00,1.199e+01,7.618e+00,9.427e+00,8.920e+00,8.147e+00,8.671e+00
2.491e-02,3.981e-01,9.046e-01,1.436e+00,1.764e+00,1.107e+00,2.049e+00,1.851e+00,2.489e+00,2.500e+00,3.077e+00,4.068e+00,3.427e+00,3.790e+00,3.884e+00,3.960e+00,4.090e+00,4.187e+00,4.153e+00,5.951e+00,4.216e+00,5.710e+00,5.001e+00,6.085e+00,5.534e+00,6.136e+00,5.806e+00,6.766e+00,6.302e+00,5.800e+00,7.272e+00,9.364e+00,7.425e+00,7.735e+00,7.249e+00,8.967e+00,9.147e+00,7.819e+00,7.305e+00,9.553e+00,8.771e+00,7.334e+00,8.782e+00,7.706e+00,8.265e+00,8.311e+00,8.878e+00,8.701e+00,7.877e+00,7.556e+00,6.899e+00,8.556e+00,6.401e+00,6.906e+00,8.686e+00,8.251e+00,1.003e+01,7.284e+00,8.344e+00,8.361e+00,8.002e+00,8.141e+00,6.779e+00,9.593e+00,7.651e+00,7.670e+00,7.561e+00,8.763e+00,8.924e+00,8.641e+00,8.527e+00,7.903e+00,8.905e+00,7.251e+00,7.166e+00,9.057e+00,7.623e+00,8.510e+00,8.837e+00,8.915e+00,8.749e+00,6.893e+00,8.159e+00,1.009e+01,6.062e+00,7.282e+00,6.423e+00,8.409e+00,7.075e+00
6.731e-02,1.559e-01,4.003e-01,5.869e-01,9.071e-01,5.702e-01,7.606e-01,1.220e+00,2.305e+00,1.904e+00,2.680e+00,2.619e+00,3.111e+00,4.070e+00,4.122e+00,4.487e+00,4.662e+00,4.832e+00,4.651e+00,5.355e+00,5.168e+00,6.627e+00,5.276e+00,7.423e+00,6.349e+00,7.273e+00,6.598e+00,7.680e+00,7.239e+00,6.920e+00,9.117e+00,9.818e+00,9.039e+00,8.983e+00,9.324e+00,9.469e+00,9.188e+00,9.779e+00,7.718e+00,1.113e+01,1.022e+01,9.250e+00,9.771e+00,8.473e+00,9.305e+00,1.062e+01,9.437e+00,9.178e+00,8.779e+00,8.177e+00,8.730e+00,9.747e+00,7.403e+00,7.844e+00,1.123e+01,9.157e+00,1.077e+01,8.661e+00,9.942e+00,1.016e+01,9.084e+00,9.139e+00,7.581e+00,1.036e+01,9.546e+00,9.309e+00,8.297e+00,9.602e+00,8.924e+00,9.451e+00,9.737e+00,7.699e+00,1.087e+01,9.485e+00,9.092e+00,1.010e+01,8.945e+00,1.031e+01,9.967e+00,1.077e+01,9.011e+00,8.345e+00,8.954e+00,1.190e+01,7.750e+00,8.224e+00,7.649e+00,8.490e+00,8.733e+00
4.476e-02,1.283e-02,3.492e-01,6.320e-01,1.291e+00,5.254e-01,1.020e+00,1.372e+00,1.652e+00,2.165e+00,2.354e+00,2.724e+00,2.851e+00,3.805e+00,4.285e+00,4.309e+00,4.652e+00,4.078e+00,4.128e+00,4.929e+00,4.068e+00,5.584e+00,5.460e+00,7.004e+00,5.911e+00,6.846e+00,5.959e+00,6.808e+00,6.697e+00,5.990e+00,7.551e+00,9.101e+00,8.486e+00,8.168e+00,8.631e+00,9.655e+00,8.961e+00,8.500e+00,7.284e+00,1.082e+01,9.508e+00,8.343e+00,9.561e+00,7.326e+00,8.793e+00,8.240e+00,9.383e+00,9.501e+00,8.821e+00,8.059e+00,7.531e+00,8.762e+00,7.303e+00,7.910e+00,1.056e+01,9.356e+00,1.008e+01,8.549e+00,8.547e+00,9.636e+00,9.061e+00,9.036e+00,7.473e+00,9.387e+00,9.326e+00,8.898e+00,8.660e+00,9.238e+00,1.025e+01,8.397e+00,9.918e+00,7.268e+00,9.030e+00,8.805e+00,8.615e+00,9.306e+00,8.373e+00,8.855e+00,1.010e+01,9.011e+00,9.406e+00,7.200e+00,8.590e+00,1.167e+01,7.075e+00,8.338e+00,6.728e+00,8.817e+00,8.558e+00
5.709e-02,1.796e-02,3.351e-01,5.727e-01,5.590e-01,3.015e-01,8.204e-01,7.002e-01,1.884e+00,2.030e+00,2.105e+00,2.241e+00,2.398e+00,3.602e+00,3.092e+00,3.575e+00,4.003e+00,3.810e+00,4.807e+00,4.787e+00,3.528e+00,5.367e+00,5.144e+00,6.579e+00,5.875e+00,5.131e+00,5.671e+00,6.449e+00,5.702e+00,5.975e+00,7.182e+00,9.111e+00,7.908e+00,8.876e+00,8.648e+00,9.526e+00,8.688e+00,1.036e+01,7.841e+00,1.034e+01,9.802e+00,1.038e+01,8.179e+00,7.963e+00,7.681e+00,9.143e+00,8.967e+00,8.217e+00,7.808e+00,7.544e+00,7.273e+00,9.118e+00,7.721e+00,7.519e+00,9.837e+00,8.706e+00,1.012e+01,9.078e+00,8.648e+00,9.379e+00,8.432e+00,8.721e+00,7.902e+00,8.852e+00,9.393e+00,7.900e+00,7.978e+00,9.575e+00,8.392e+00,8.657e+00,9.851e+00,6.943e+00,1.040e+01,8.174e+00,7.729e+00,8.866e+00,8.042e+00,1.016e+01,9.973e+00,9.669e+00,9.394e+00,7.636e+00,8.237e+00,1.106e+01,7.622e+00,7.954e+00,6.845e+00,8.763e+00,8.064e+00
7.129e-02,8.573e-02,3.745e-01,5.959e-01,1.033e+00,4.576e-01,6.621e-01,8.779e-01,1.063e+00,1.225e+00,1.543e+00,1.543e+00,1.576e+00,3.271e+00,2.383e+00,2.942e+00,3.017e+00,4.035e+00,3.473e+00,4.183e+00,3.681e+00,4.475e+00,3.854e+00,5.237e+00,4.851e+00,5.083e+00,5.822e+00,5.741e+00,5.278e+00,4.850e+00,5.797e+00,7.338e+00,7.593e+00,6.130e+00,7.757e+00,8.595e+00,7.964e+00,8.877e+00,6.412e+00,9.307e+00,8.407e+00,8.349e+00,7.663e+00,8.297e+00,7.330e+00,8.755e+00,8.771e+00,7.586e+00,6.630e+00,7.739e+00,6.223e+00,8.350e+00,7.647e+00,6.875e+00,8.565e+00,7.841e+00,9.339e+00,8.366e+00,8.664e+00,7.950e+00,7.404e+00,7.618e+00,6.783e+00,8.312e+00,7.294e+00,7.961e+00,7.300e+00,9.873e+00,7.758e+00,7.981e+00,8.290e+00,7.280e+00,8.535e+00,6.403e+00,7.190e+00,7.977e+00,6.710e+00,8.615e+00,8.970e+00,8.651e+00,6.844e+00,7.250e+00,7.346e+00,8.586e+00,8.262e+00,7.086e+00,5.849e+00,7.510e+00,6.955e+00
1.972e-01,6.265e-02,7.506e-01,1.357e+00,1.947e+00,8.599e-01,1.374e+00,1.915e+00,1.889e+00,1.733e+00,2.803e+00,2.629e+00,2.740e+00,3.465e+00,3.839e+00,3.911e+00,4.035e+00,3.656e+00,4.223e+00,4.466e+00,3.303e+00,5.250e+00,4.526e+00,6.465e+00,5.488e+00,6.676e+00,5.520e+00,6.483e+00,7.157e+00,5.719e+00,7.425e+00,8.919e+00,7.966e+00,8.797e+00,8.968e+00,9.886e+00,1.027e+01,1.027e+01,8.070e+00,1.142e+01,1.170e+01,1.080e+01,1.039e+01,8.915e+00,1.064e+01,9.901e+00,9.592e+00,1.072e+01,9.224e+00,9.169e+00,8.371e+00,9.911e+00,7.958e+00,9.002e+00,1.231e+01,8.572e+00,1.221e+01,8.896e+00,1.036e+01,1.091e+01,9.859e+00,1.106e+01,8.556e+00,1.044e+01,1.005e+01,9.786e+00,9.530e+00,1.103e+01,9.891e+00,1.035e+01,1.042e+01,8.700e+00,1.077e+01,1.034e+01,9.559e+00,1.109e+01,8.892e+00,1.112e+01,1.214e+01,1.065e+01,1.033e+01,9.023e+00,1.025e+01,1.249e+01,8.410e+00,1.016e+01,8.118e+00,9.959e+00,1.004e+01
1.697e-01,1.415e-01,6.382e-01,1.066e+00,1.079e+00,7.236e-01,8.904e-01,1.423e+00,2.148e+00,1.847e+00,3.078e+00,3.046e+00,3.259e+00,3.880e+00,4.321e+00,4.172e+00,4.210e+00,3.864e+00,4.418e+00,5.038e+00,4.232e+00,5.812e+00,4.515e+00,6.380e+00,5.293e+00,5.775e+00,5.700e+00,7.165e+00,6.401e+00,6.233e+00,8.222e+00,8.993e+00,7.990e+00,7.753e+00,7.972e+00,9.105e+00,9.973e+00,8.783e+00,8.280e+00,1.164e+01,1.192e+01,9.231e+00,9.554e+00,7.894e+00,9.867e+00,9.759e+00,9.399e+00,1.061e+01,8.015e+00,8.098e+00,9.308e+00,1.040e+01,8.415e+00,9.194e+00,1.263e+01,8.954e+00,1.209e+01,8.607e+00,1.060e+01,1.122e+01,1.041e+01,1.027e+01,8.846e+00,9.938e+00,1.079e+01,9.446e+00,8.759e+00,1.049e+01,9.664e+00,1.038e+01,1.058e+01,8.726e+00,1.128e+01,9.554e+00,9.259e+00,1.001e+01,8.379e+00,9.855e+00,1.187e+01,1.047e+01,1.031e+01,8.790e+00,8.466e+00,1.151e+01,9.042e+00,9.641e+00,7.913e+00,8.770e+00,1.018e+01
2.637e-02,1.289e-02,1.613e-01,5.667e-01,1.151e+00,5.671e-01,1.212e+00,8.058e-01,1.170e+00,2.062e+00,1.966e+00,2.876e+00,2.089e+00,2.799e+00,3.212e+00,2.451e+00,2.924e+00,3.151e+00,3.258e+00,4.236e+00,3.330e+00,4.770e+00,4.328e+00,5.826e+00,5.110e+00,6.180e+00,5.761e+00,7.474e+00,6.113e+00,4.561e+00,6.987e+00,7.856e+00,8.233e+00,7.570e+00,7.501e+00,7.903e+00,9.223e+00,8.359e+00,8.396e+00,1.166e+01,1.045e+01,9.075e+00,9.940e+00,7.919e+00,8.955e+00,8.352e+00,9.144e+00,1.021e+01,9.275e+00,7.258e+00,8.274e+00,9.431e+00,7.344e+00,8.669e+00,1.071e+01,9.463e+00,1.070e+01,9.033e+00,8.280e+00,9.965e+00,9.593e+00,8.901e+00,8.996e+00,9.188e+00,9.077e+00,9.130e+00,7.970e+00,9.797e+00,9.203e+00,9.057e+00,9.265e+00,7.086e+00,9.003e+00,8.633e+00,8.718e+00,8.717e+00,7.039e+00,8.303e+00,1.167e+01,9.578e+00,9.176e+00,8.262e+00,8.399e+00,1.143e+01,8.199e+00,9.558e+00,7.459e+00,8.919e+00,8.822e+00
2.035e-01,1.969e-01,1.067e+00,1.958e+00,1.922e+00,9.967e-01,1.925e+00,1.619e+00,1.441e+00,2.228e+00,3.198e+00,3.466e+00,2.955e+00,3.779e+00,3.937e+00,3.302e+00,3.445e+00,3.171e+00,3.867e+00,4.707e+00,3.397e+00,4.436e+00,3.220e+00,5.374e+00,4.818e+00,5.785e+00,5.077e+00,7.440e+00,6.201e+00,5.655e+00,7.139e+00,8.253e+00,8.313e+00,7.175e+00,7.774e+00,8.409e+00,9.398e+00,7.560e+00,6.946e+00,9.694e+00,1.153e+01,1.049e+01,8.346e+00,8.579e+00,7.879e+00,8.869e+00,9.490e+00,9.818e+00,8.416e+00,8.889e+00,7.950e+00,1.018e+01,8.627e+00,9.773e+00,1.122e+01,9.508e+00,1.102e+01,9.041e+00,9.101e+00,9.876e+00,1.035e+01,8.713e+00,9.005e+00,8.608e+00,8.433e+00,9.102e+00,8.602e+00,1.034e+01,1.008e+01,9.305e+00,8.087e+00,9.042e+00,1.110e+01,7.821e+00,9.201e+00,8.907e+00,8.241e+00,8.729e+00,1.081e+01,1.033e+01,9.416e+00,8.996e+00,7.841e+00,1.146e+01,8.288e+00,9.136e+00,8.525e+00,8.317e+00,9.201e+00
3.093e-02,3.820e-01,1.024e+00,1.688e+00,1.495e+00,1.083e+00,2.532e+00,1.824e+00,2.924e+00,2.589e+00,2.868e+00,4.921e+00,4.411e+00,4.204e+00,4.337e+00,3.814e+00,3.996e+00,3.975e+00,5.268e+00,5.727e+00,4.941e+00,6.216e+00,5.555e+00,6.409e+00,5.526e+00,6.578e+00,4.929e+00,7.711e+00,7.306e+00,4.876e+00,7.684e+00,8.324e+00,7.765e+00,7.916e+00,6.536e+00,8.269e+00,8.345e+00,7.331e+00,8.326e+00,1.128e+01,1.063e+01,1.036e+01,1.026e+01,8.993e+00,9.746e+00,1.043e+01,1.016e+01,1.017e+01,8.793e+00,8.135e+00,9.137e+00,1.105e+01,8.456e+00,9.026e+00,1.196e+01,1.032e+01,1.187e+01,1.041e+01,9.494e+00,9.147e+00,9.848e+00,9.639e+00,8.904e+00,9.619e+00,7.732e+00,1.010e+01,9.050e+00,1.015e+01,9.087e+00,1.127e+01,9.789e+00,9.768e+00,1.132e+01,8.955e+00,9.412e+00,9.482e+00,8.341e+00,9.378e+00,1.119e+01,1.055e+01,1.089e+01,9.333e+00,8.774e+00,1.319e+01,7.766e+00,1.012e+01,9.401e+00,9.343e+00,9.710e+00
9.677e-03,2.957e-01,5.564e-01,7.890e-01,1.073e+00,7.470e-01,1.071e+00,1.540e+00,1.783e+00,1.680e+00,2.363e+00,2.747e+00,3.013e+00,3.208e+00,4.123e+00,3.834e+00,3.738e+00,3.313e+00,3.218e+00,4.756e+00,3.598e+00,4.917e+00,4.602e+00,6.767e+00,5.690e+00,6.948e+00,6.399e+00,7.679e+00,7.021e+00,6.426e+00,7.788e+00,9.255e+00,9.141e+00,7.934e+00,7.661e+00,8.939e+00,9.758e+00,8.946e+00,7.410e+00,1.150e+01,1.252e+01,1.090e+01,9.743e+00,9.675e+00,1.181e+01,1.033e+01,1.132e+01,1.147e+01,9.455e+00,1.043e+01,8.974e+00,1.069e+01,8.797e+00,1.104e+01,1.288e+01,1.022e+01,1.327e+01,9.429e+00,1.170e+01,1.042e+01,1.214e+01,1.066e+01,1.102e+01,1.076e+01,1.118e+01,1.000e+01,9.665e+00,1.157e+01,1.081e+01,1.017e+01,1.052e+01,1.051e+01,1.167e+01,1.051e+01,1.108e+01,1.073e+01,9.077e+00,1.137e+01,1.196e+01,1.100e+01,1.041e+01,1.009e+01,1.035e+01,1.207e+01,9.176e+00,1.136e+01,8.825e+00,1.012e+01,9.609e+00
2.117e-01,4.072e-01,1.251e+00,2.131e+00,1.963e+00,1.451e+00,2.363e+00,2.125e+00,2.975e+00,2.657e+00,3.493e+00,3.766e+00,3.741e+00,3.917e+00,4.671e+00,3.491e+00,3.759e+00,3.575e+00,5.059e+00,5.645e+00,3.868e+00,6.423e+00,5.369e+00,7.275e+00,6.947e+00,6.400e+00,5.868e+00,8.705e+00,6.345e+00,6.322e+00,7.473e+00,9.906e+00,9.706e+00,9.769e+00,8.041e+00,1.005e+01,9.601e+00,9.889e+00,8.464e+00,1.311e+01,1.303e+01,1.252e+01,1.126e+01,9.910e+00,1.196e+01,1.079e+01,1.138e+01,1.221e+01,1.033e+01,1.055e+01,1.015e+01,1.297e+01,1.013e+01,1.136e+01,1.449e+01,1.074e+01,1.360e+01,1.070e+01,1.187e+01,1.218e+01,1.154e+01,1.134e+01,1.124e+01,1.114e+01,1.171e+01,1.192e+01,1.008e+01,1.366e+01,1.069e+01,1.240e+01,1.166e+01,1.078e+01,1.296e+01,1.020e+01,1.191e+01,1.068e+01,9.810e+00,1.169e+01,1.392e+01,1.271e+01,1.104e+01,1.163e+01,1.164e+01,1.374e+01,9.739e+00,1.212e+01,9.347e+00,1.131e+01,1.148e+01
7.493e-02,1.773e-01,5.727e-01,1.065e+00,1.556e+00,7.779e-01,1.572e+00,1.396e+00,2.539e+00,2.393e+00,3.205e+00,3.028e+00,3.382e+00,3.708e+00,4.225e+00,4.239e+00,4.427e+00,4.624e+00,4.514e+00,5.235e+00,4.480e+00,5.453e+00,4.768e+00,6.637e+00,5.899e+00,7.271e+00,6.971e+00,8.538e+00,7.942e+00,6.521e+00,8.702e+00,9.610e+00,9.408e+00,8.782e+00,8.435e+00,1.015e+01,1.013e+01,1.050e+01,8.702e+00,1.247e+01,1.257e+01,1.197e+01,1.149e+01,9.650e+00,1.263e+01,1.114e+01,1.198e+01,1.262e+01,1.108e+01,1.074e+01,1.056e+01,1.163e+01,1.045e+01,1.143e+01,1.347e+01,1.120e+01,1.367e+01,1.047e+01,1.218e+01,1.274e+01,1.311e+01,1.162e+01,1.179e+01,1.211e+01,1.144e+01,1.090e+01,1.130e+01,1.362e+01,1.196e+01,1.136e+01,1.157e+01,1.080e+01,1.239e+01,1.084e+01,1.225e+01,1.185e+01,1.003e+01,1.197e+01,1.388e+01,1.278e+01,1.158e+01,1.025e+01,1.198e+01,1.471e+01,8.855e+00,1.242e+01,1.062e+01,1.146e+01,1.119e+01
1.971e-01,2.688e-01,1.187e+00,1.932e+00,1.832e+00,1.155e+00,1.959e+00,1.842e+00,2.433e+00,2.997e+00,3.368e+00,3.489e+00,3.269e+00,4.039e+00,4.237e+00,4.338e+00,4.622e+00,3.876e+00,5.014e+00,5.475e+00,4.044e+00,6.078e+00,5.502e+00,7.623e+00,6.547e+00,6.731e+00,6.064e+00,6.962e+00,6.915e+00,6.975e+00,7.389e+00,9.947e+00,8.948e+00,9.871e+00,9.619e+00,9.763e+00,1.030e+01,1.043e+01,8.887e+00,1.098e+01,1.153e+01,1.191e+01,1.062e+01,9.190e+00,1.090e+01,1.196e+01,1.193e+01,1.309e+01,1.240e+01,1.003e+01,9.556e+00,1.197e+01,1.030e+01,1.083e+01,1.395e+01,1.068e+01,1.277e+01,1.059e+01,1.255e+01,1.254e+01,1.098e+01,1.124e+01,1.090e+01,1.142e+01,1.179e+01,1.126e+01,1.068e+01,1.128e+01,1.115e+01,1.143e+01,1.304e+01,9.317e+00,1.299e+01,1.125e+01,1.144e+01,1.264e+01,1.027e+01,1.149e+01,1.264e+01,1.271e+01,1.185e+01,9.877e+00,1.099e+01,1.309e+01,1.010e+01,1.124e+01,9.667e+00,1.184e+01,1.135e+01
1.629e-01,1.833e-01,7.553e-01,1.332e+00,1.938e+00,1.160e+00,1.549e+00,1.930e+00,2.149e+00,2.747e+00,3.181e+00,3.887e+00,2.983e+00,4.325e+00,4.443e+00,3.916e+00,4.257e+00,3.833e+00,4.102e+00,5.273e+00,4.007e+00,6.515e+00,5.070e+00,7.277e+00,5.715e+00,6.952e+00,5.465e+00,6.880e+00,6.781e+00,5.902e+00,8.495e+00,9.375e+00,7.812e+00,8.676e+00,8.277e+00,9.168e+00,9.678e+00,9.273e+00,9.013e+00,1.198e+01,1.204e+01,1.084e+01,1.014e+01,9.016e+00,1.100e+01,1.041e+01,1.188e+01,1.307e+01,1.157e+01,9.552e+00,1.069e+01,1.275e+01,9.685e+00,1.165e+01,1.341e+01,1.150e+01,1.357e+01,1.063e+01,1.133e+01,1.194e+01,1.233e+01,1.225e+01,1.197e+01,1.134e+01,1.210e+01,1.159e+01,1.055e+01,1.233e+01,1.159e+01,1.234e+01,1.151e+01,1.101e+01,1.308e+01,1.145e+01,1.103e+01,1.135e+01,1.059e+01,1.178e+01,1.442e+01,1.223e+01,1.225e+01,1.039e+01,1.204e+01,1.420e+01,9.471e+00,1.049e+01,1.051e+01,1.015e+01,1.182e+01
1.025e-01,2.654e-01,6.405e-01,1.163e+00,1.204e+00,8.796e-01,1.364e+00,1.103e+00,1.476e+00,2.094e+00,2.536e+00,2.846e+00,2.747e+00,3.200e+00,3.837e+00,3.389e+00,3.943e+00,4.301e+00,4.721e+00,5.142e+00,4.829e+00,6.201e+00,5.191e+00,6.941e+00,6.590e+00,7.240e+00,5.987e+00,8.359e+00,6.699e+00,6.809e+00,9.139e+00,1.001e+01,1.045e+01,9.279e+00,9.565e+00,1.060e+01,1.018e+01,9.923e+00,8.872e+00,1.333e+01,1.219e+01,1.154e+01,1.137e+01,1.015e+01,1.209e+01,1.260e+01,1.380e+01,1.469e+01,1.269e+01,1.212e+01,1.199e+01,1.345e+01,1.288e+01,1.274e+01,1.611e+01,1.265e+01,1.552e+01,1.236e+01,1.415e+01,1.443e+01,1.335e+01,1.343e+01,1.288e+01,1.372e+01,1.311e+01,1.338e+01,1.097e+01,1.390e+01,1.357e+01,1.382e+01,1.344e+01,1.142e+01,1.452e+01,1.238e+01,1.306e+01,1.374e+01,1.167e+01,1.226e+01,1.603e+01,1.504e+01,1.225e+01,1.217e+01,1.237e+01,1.418e+01,1.309e+01,1.396e+01,1.083e+01,1.232e+01,1.350e+01
7.634e-02,4.208e-01,9.805e-01,1.411e+00,1.689e+00,1.184e+00,1.659e+00,2.085e+00,2.187e+00,2.314e+00,2.892e+00,4.093e+00,3.817e+00,3.739e+00,4.406e+00,4.101e+00,4.732e+00,3.963e+00,4.687e+00,5.434e+00,4.776e+00,6.661e+00,5.253e+00,6.225e+00,5.819e+00,6.543e+00,4.976e+00,6.795e+00,6.850e+00,5.728e+00,8.332e+00,9.206e+00,8.376e+00,7.889e+00,7.841e+00,8.824e+00,8.815e+00,8.681e+00,7.675e+00,1.186e+01,1.158e+01,1.043e+01,9.729e+00,1.007e+01,1.020e+01,1.157e+01,1.312e+01,1.264e+01,1.186e+01,1.108e+01,1.019e+01,1.319e+01,1.163e+01,1.179e+01,1.476e+01,1.278e+01,1.360e+01,1.145e+01,1.218e+01,1.273e+01,1.310e+01,1.346e+01,1.310e+01,1.182e+01,1.198e+01,1.267e+01,1.094e+01,1.239e+01,1.192e+01,1.270e+01,1.183e+01,1.274e+01,1.412e+01,1.192e+01,1.158e+01,1.218e+01,1.183e+01,1.220e+01,1.483e+01,1.315e+01,1.242e+01,1.085e+01,1.334e+01,1.508e+01,1.099e+01,1.210e+01,1.171e+01,1.252e+01,1.210e+01
6.617e-02,9.078e-02,4.001e-01,7.890e-01,1.431e+00,6.148e-01,1.088e+00,1.333e+00,1.486e+00,1.859e+00,2.716e+00,2.995e+00,2.648e+00,3.559e+00,3.810e+00,3.501e+00,3.761e+00,3.884e+00,3.791e+00,4.648e+00,4.060e+00,5.063e+00,3.698e+00,5.734e+00,5.013e+00,6.099e+00,5.368e+00,7.114e+00,6.007e+00,5.375e+00,7.576e+00,7.803e+00,8.542e+00,7.661e+00,7.830e+00,8.648e+00,8.867e+00,8.473e+00,8.590e+00,1.259e+01,1.227e+01,1.069e+01,1.007e+01,9.891e+00,1.194e+01,1.241e+01,1.361e+01,1.487e+01,1.304e+01,1.286e+01,1.194e+01,1.486e+01,1.436e+01,1.315e+01,1.671e+01,1.256e+01,1.476e+01,1.308e+01,1.420e+01,1.510e+01,1.406e+01,1.329e+01,1.518e+01,1.315e+01,1.279e+01,1.465e+01,1.285e+01,1.408e+01,1.240e+01,1.343e+01,1.350e+01,1.163e+01,1.504e+01,1.256e+01,1.379e+01,1.368e+01,1.276e+01,1.317e+01,1.603e+01,1.501e+01,1.316e+01,1.188e+01,1.339e+01,1.534e+01,1.185e+01,1.372e+01,1.302e+01,1.295e+01,1.424e+01
1.029e-01,8.372e-02,4.093e-01,9.333e-01,1.556e+00,6.939e-01,1.342e+00,1.093e+00,1.561e+00,1.846e+00,2.550e+00,2.837e+00,2.546e+00,3.227e+00,3.218e+00,2.990e+00,3.347e+00,3.652e+00,3.714e+00,4.512e+00,3.455e+00,5.353e+00,4.107e+00,6.244e+00,4.581e+00,5.831e+00,4.900e+00,6.710e+00,5.952e+00,4.848e+00,7.886e+00,8.115e+00,7.010e+00,6.704e+00,6.240e+00,8.271e+00,9.391e+00,7.449e+00,6.978e+00,1.132e+01,1.086e+01,1.047e+01,9.475e+00,9.186e+00,1.049e+01,1.039e+01,9.544e+00,1.115e+01,9.875e+00,9.892e+00,1.096e+01,1.315e+01,1.101e+01,1.157e+01,1.330e+01,1.038e+01,1.294e+01,1.056e+01,1.112e+01,1.174e+01,1.176e+01,1.280e+01,1.200e+01,1.185e+01,1.152e+01,1.220e+01,1.031e+01,1.294e+01,1.047e+01,1.290e+01,1.070e+01,9.752e+00,1.092e+01,1.026e+01,1.144e+01,1.242e+01,1.005e+01,1.077e+01,1.487e+01,1.174e+01,1.101e+01,1.160e+01,1.166e+01,1.351e+01,8.401e+00,1.165e+01,1.022e+01,1.047e+01,1.104e+01
7.004e-02,2.428e-01,7.190e-01,1.048e+00,1.466e+00,9.065e-01,1.455e+00,1.828e+00,2.457e+00,2.149e+00,2.505e+00,3.661e+00,3.671e+00,4.111e+00,4.169e+00,3.965e+00,4.391e+00,3.974e+00,4.794e+00,5.087e+00,4.369e+00,6.513e+00,5.790e+00,7.017e+00,6.818e+00,6.895e+00,6.535e+00,7.844e+00,7.834e+00,5.943e+00,8.728e+00,1.084e+01,1.042e+01,9.892e+00,9.986e+00,1.069e+01,1.084e+01,1.050e+01,9.445e+00,1.362e+01,1.363e+01,1.172e+01,1.209e+01,1.157e+01,1.288e+01,1.246e+01,1.384e+01,1.395e+01,1.261e+01,1.217e+01,1.203e+01,1.587e+01,1.266e+01,1.243e+01,1.797e+01,1.376e+01,1.632e+01,1.310e+01,1.461e+01,1.547e+01,1.387e+01,1.421e+01,1.390e+01,1.431e+01,1.460e+01,1.478e+01,1.306e+01,1.588e+01,1.388e+01,1.510e+01,1.415e+01,1.317e+01,1.570e+01,1.289e+01,1.435e+01,1.476e+01,1.304e+01,1.512e+01,1.724e+01,1.537e+01,1.327e+01,1.235e+01,1.425e+01,1.593e+01,1.229e+01,1.465e+01,1.213e+01,1.370e+01,1.370e+01
1.730e-01,4.336e-01,1.401e+00,2.271e+00,2.068e+00,1.279e+00,2.361e+00,1.802e+00,2.166e+00,2.830e+00,3.527e+00,4.259e+00,3.632e+00,4.729e+00,3.996e+00,3.913e+00,4.244e+00,4.141e+00,5.077e+00,6.341e+00,4.634e+00,6.351e+00,4.727e+00,7.435e+00,6.001e+00,6.461e+00,6.351e+00,8.456e+00,6.894e+00,7.285e+00,8.575e+00,1.040e+01,9.329e+00,9.737e+00,9.714e+00,9.887e+00,1.103e+01,9.595e+00,8.376e+00,1.187e+01,1.130e+01,1.282e+01,1.053e+01,1.018e+01,1.074e+01,1.300e+01,1.232e+01,1.479e+01,1.233e+01,1.283e+01,1.204e+01,1.527e+01,1.383e+01,1.391e+01,1.701e+01,1.337e+01,1.560e+01,1.291e+01,1.422e+01,1.440e+01,1.425e+01,1.368e+01,1.356e+01,1.301e+01,1.254e+01,1.360e+01,1.205e+01,1.511e+01,1.319e+01,1.489e+01,1.255e+01,1.315e+01,1.548e+01,1.165e+01,1.345e+01,1.463e+01,1.440e+01,1.252e+01,1.562e+01,1.584e+01,1.501e+01,1.265e+01,1.315e+01,1.529e+01,1.180e+01,1.333e+01,1.142e+01,1.317e+01,1.332e+01
2.004e-01,3.535e-01,1.095e+00,1.831e+00,1.584e+00,1.260e+00,1.960e+00,1.836e+00,3.195e+00,3.066e+00,3.788e+00,3.577e+00,3.432e+00,4.406e+00,4.433e+00,3.506e+00,3.861e+00,4.500e+00,5.528e+00,5.593e+00,4.223e+00,6.595e+00,4.877e+00,7.042e+00,6.807e+00,7.203e+00,6.745e+00,9.461e+00,7.156e+00,6.962e+00,8.465e+00,9.702e+00,9.504e+00,9.119e+00,9.038e+00,9.418e+00,1.116e+01,9.533e+00,8.176e+00,1.163e+01,1.204e+01,1.177e+01,1.005e+01,9.362e+00,1.076e+01,1.286e+01,1.256e+01,1.287e+01,1.018e+01,1.175e+01,1.171e+01,1.509e+01,1.340e+01,1.298e+01,1.667e+01,1.315e+01,1.482e+01,1.344e+01,1.371e+01,1.441e+01,1.430e+01,1.386e+01,1.347e+01,1.359e+01,1.457e+01,1.360e+01,1.156e+01,1.500e+01,1.304e+01,1.423e+01,1.440e+01,1.310e+01,1.425e+01,1.251e+01,1.422e+01,1.458e+01,1.253e+01,1.354e+01,1.516e+01,1.388e+01,1.259e+01,1.254e+01,1.379e+01,1.627e+01,1.270e+01,1.406e+01,1.142e+01,1.305e+01,1.274e+01
6.222e-02,2.334e-01,7.457e-01,1.201e+00,1.231e+00,7.235e-01,1.482e+00,1.384e+00,2.031e+00,2.104e+00,2.755e+00,3.458e+00,3.636e+00,4.404e+00,4.466e+00,4.644e+00,4.839e+00,4.921e+00,5.264e+00,6.376e+00,5.774e+00,6.901e+00,6.046e+00,7.996e+00,6.351e+00,7.699e+00,6.927e+00,9.446e+00,8.173e+00,7.896e+00,1.034e+01,1.143e+01,1.145e+01,1.108e+01,1.107e+01,1.124e+01,1.238e+01,1.210e+01,9.969e+00,1.527e+01,1.448e+01,1.500e+01,1.274e+01,1.228e+01,1.430e+01,1.476e+01,1.504e+01,1.626e+01,1.394e+01,1.407e+01,1.370e+01,1.765e+01,1.529e+01,1.606e+01,1.987e+01,1.661e+01,1.906e+01,1.572e+01,1.748e+01,1.850e+01,1.763e+01,1.772e+01,1.721e+01,1.652e+01,1.551e+01,1.686e+01,1.532e+01,1.796e+01,1.587e+01,1.882e+01,1.601e+01,1.512e+01,1.870e+01,1.503e+01,1.856e+01,1.836e+01,1.580e+01,1.676e+01,1.884e+01,1.788e+01,1.683e+01,1.575e+01,1.768e+01,1.994e+01,1.499e+01,1.847e+01,1.382e+01,1.774e+01,1.654e+01
1.478e-01,2.990e-01,1.015e+00,1.737e+00,1.756e+00,1.131e+00,2.121e+00,1.515e+00,2.746e+00,3.247e+00,3.555e+00,4.038e+00,3.647e+00,4.284e+00,4.204e+00,4.237e+00,4.750e+00,3.953e+00,4.842e+00,5.586e+00,4.298e+00,6.344e+00,5.185e+00,6.996e+00,6.459e+00,6.155e+00,5.948e+00,7.120e+00,6.272e+00,5.676e+00,7.538e+00,8.842e+00,8.259e+00,9.352e+00,9.411e+00,8.909e+00,9.522e+00,8.911e+00,8.444e+00,1.055e+01,1.157e+01,1.181e+01,1.031e+01,9.305e+00,1.128e+01,1.173e+01,1.160e+01,1.323e+01,1.165e+01,1.046e+01,1.021e+01,1.448e+01,1.156e+01,1.303e+01,1.679e+01,1.356e+01,1.681e+01,1.238e+01,1.522e+01,1.599e+01,1.544e+01,1.363e+01,1.506e+01,1.438e+01,1.514e+01,1.462e+01,1.259e+01,1.598e+01,1.267e+01,1.589e+01,1.468e+01,1.253e+01,1.673e+01,1.379e+01,1.566e+01,1.510e+01,1.306e+01,1.458e+01,1.608e+01,1.600e+01,1.354e+01,1.253e+01,1.610e+01,1.660e+01,1.237e+01,1.544e+01,1.214e+01,1.560e+01,1.280e+01
2.013e-03,4.134e-01,6.806e-01,9.053e-01,1.227e+00,1.019e+00,1.339e+00,1.571e+00,2.396e+00,2.606e+00,2.797e+00,3.726e+00,3.389e+00,3.931e+00,4.129e+00,4.128e+00,4.381e+00,4.307e+00,3.687e+00,5.603e+00,4.591e+00,6.630e+00,5.734e+00,6.912e+00,6.005e+00,6.658e+00,6.351e+00,6.864e+00,5.945e+00,5.805e+00,7.557e+00,8.526e+00,8.046e+00,8.082e+00,8.239e+00,1.001e+01,9.518e+00,8.865e+00,9.223e+00,1.303e+01,1.230e+01,9.964e+00,1.044e+01,1.013e+01,1.104e+01,1.126e+01,1.300e+01,1.359e+01,1.269e+01,1.051e+01,9.863e+00,1.493e+01,1.185e+01,1.267e+01,1.528e+01,1.328e+01,1.587e+01,1.217e+01,1.446e+01,1.461e+01,1.475e+01,1.426e+01,1.504e+01,1.387e+01,1.405e+01,1.359e+01,1.289e+01,1.551e+01,1.406e+01,1.578e+01,1.416e+01,1.324e+01,1.549e+01,1.258e+01,1.268e+01,1.365e+01,1.279e+01,1.436e+01,1.620e+01,1.382e+01,1.401e+01,1.215e+01,1.500e+01,1.563e+01,1.168e+01,1.243e+01,1.237e+01,1.460e+01,1.305e+01
1.091e-01,6.133e-02,6.956e-01,1.290e+00,1.931e+00,7.261e-01,1.665e+00,1.702e+00,1.915e+00,2.411e+00,3.214e+00,3.912e+00,3.851e+00,4.433e+00,4.655e+00,4.539e+00,4.964e+00,4.609e+00,4.838e+00,5.322e+00,4.642e+00,5.812e+00,5.273e+00,6.560e+00,5.808e+00,6.474e+00,5.363e+00,6.336e+00,6.764e+00,5.637e+00,7.826e+00,9.098e+00,7.884e+00,7.900e+00,7.449e+00,8.596e+00,8.669e+00,8.620e+00,8.015e+00,1.039e+01,1.076e+01,9.500e+00,9.245e+00,9.120e+00,1.035e+01,1.067e+01,1.083e+01,1.106e+01,1.063e+01,1.024e+01,9.261e+00,1.291e+01,1.079e+01,1.217e+01,1.439e+01,1.193e+01,1.480e+01,1.175e+01,1.435e+01,1.421e+01,1.348e+01,1.360e+01,1.320e+01,1.382e+01,1.387e+01,1.414e+01,1.183e+01,1.437e+01,1.196e+01,1.418e+01,1.373e+01,1.326e+01,1.520e+01,1.267e+01,1.285e+01,1.309e+01,1.241e+01,1.194e+01,1.422e+01,1.390e+01,1.298e+01,1.116e+01,1.436e+01,1.659e+01,1.122e+01,1.407e+01,1.085e+01,1.387e+01,1.195e+01
1.021e-01,3.798e-02,6.712e-01,1.183e+00,1.244e+00,5.126e-01,1.460e+00,1.413e+00,1.914e+00,1.637e+00,2.222e+00,2.791e+00,3.125e+00,3.872e+00,3.750e+00,3.889e+00,3.957e+00,4.189e+00,5.181e+00,5.233e+00,4.292e+00,5.767e+00,5.469e+00,6.962e+00,6.506e+00,7.130e+00,6.310e+00,7.909e+00,7.196e+00,6.063e+00,7.647e+00,1.003e+01,9.414e+00,9.263e+00,9.306e+00,1.006e+01,1.029e+01,9.691e+00,8.157e+00,1.190e+01,1.205e+01,1.165e+01,1.061e+01,1.127e+01,1.256e+01,1.236e+01,1.303e+01,1.405e+01,1.241e+01,1.235e+01,1.150e+01,1.479e+01,1.234e+01,1.286e+01,1.734e+01,1.488e+01,1.719e+01,1.342e+01,1.750e+01,1.703e+01,1.578e+01,1.625e+01,1.422e+01,1.564e+01,1.562e+01,1.622e+01,1.291e+01,1.652e+01,1.559e+01,1.675e+01,1.565e+01,1.448e+01,1.643e+01,1.442e+01,1.662e+01,1.674e+01,1.425e+01,1.486e+01,1.715e+01,1.609e+01,1.515e+01,1.500e+01,1.728e+01,1.732e+01,1.434e+01,1.754e+01,1.294e+01,1.658e+01,1.591e+01
1.508e-01,8.680e-02,4.624e-01,9.690e-01,1.438e+00,9.307e-01,1.149e+00,1.496e+00,2.081e+00,2.849e+00,3.288e+00,3.139e+00,1.953e+00,3.834e+00,3.974e+00,3.558e+00,4.020e+00,3.972e+00,3.958e+00,4.417e+00,3.560e+00,5.183e+00,4.787e+00,6.118e+00,5.345e+00,5.669e+00,5.259e+00,6.865e+00,6.814e+00,6.145e+00,7.462e+00,9.486e+00,8.580e+00,8.239e+00,9.037e+00,8.375e+00,9.462e+00,8.615e+00,7.440e+00,1.037e+01,1.103e+01,1.046e+01,9.052e+00,8.119e+00,1.105e+01,1.134e+01,1.269e+01,1.317e+01,1.115e+01,1.102e+01,1.183e+01,1.225e+01,1.187e+01,1.294e+01,1.584e+01,1.231e+01,1.560e+01,1.226e+01,1.549e+01,1.557e+01,1.506e+01,1.405e+01,1.382e+01,1.463e+01,1.568e+01,1.436e+01,1.228e+01,1.486e+01,1.385e+01,1.443e+01,1.497e+01,1.225e+01,1.583e+01,1.364e+01,1.548e+01,1.610e+01,1.330e+01,1.347e+01,1.707e+01,1.569e+01,1.342e+01,1.477e+01,1.327e+01,1.630e+01,1.257e+01,1.536e+01,1.328e+01,1.414e+01,1.385e+01
2.020e-01,3.778e-02,6.391e-01,1.429e+00,2.202e+00,1.037e+00,1.707e+00,1.589e+00,1.616e+00,2.584e+00,3.062e+00,2.792e+00,2.154e+00,3.436e+00,3.936e+00,3.168e+00,3.860e+00,4.451e+00,4.621e+00,4.979e+00,4.065e+00,5.933e+00,4.440e+00,5.735e+00,5.654e+00,6.174e+00,4.799e+00,7.204e+00,5.948e+00,5.575e+00,7.319e+00,8.426e+00,8.284e+00,8.603e+00,8.944e+00,1.031e+01,9.686e+00,9.061e+00,7.506e+00,1.264e+01,1.115e+01,1.085e+01,9.903e+00,9.595e+00,1.139e+01,1.121e+01,1.125e+01,1.327e+01,1.132e+01,1.153e+01,1.032e+01,1.359e+01,1.292e+01,1.214e+01,1.599e+01,1.311e+01,1.595e+01,1.289e+01,1.501e+01,1.649e+01,1.723e+01,1.667e+01,1.593e+01,1.578e+01,1.626e+01,1.568e+01,1.384e+01,1.658e+01,1.484e+01,1.651e+01,1.555e+01,1.441e+01,1.758e+01,1.458e+01,1.547e+01,1.514e+01,1.391e+01,1.437e+01,1.828e+01,1.689e+01,1.369e+01,1.443e+01,1.507e+01,1.762e+01,1.441e+01,1.561e+01,1.345e+01,1.671e+01,1.456e+01
2.095e-01,4.486e-01,1.478e+00,2.461e+00,2.435e+00,1.606e+00,2.652e+00,2.348e+00,2.572e+00,2.999e+00,3.676e+00,4.756e+00,4.123e+00,4.565e+00,4.853e+00,3.749e+00,3.852e+00,4.381e+00,4.900e+00,6.387e+00,4.981e+00,7.144e+00,5.424e+00,7.692e+00,6.928e+00,8.722e+00,6.416e+00,8.635e+00,7.324e+00,6.546e+00,9.100e+00,1.001e+01,9.209e+00,9.241e+00,8.541e+00,9.321e+00,1.202e+01,9.659e+00,9.051e+00,1.305e+01,1.378e+01,1.176e+01,1.109e+01,1.118e+01,1.242e+01,1.304e+01,1.267e+01,1.511e+01,1.263e+01,1.195e+01,1.212e+01,1.550e+01,1.322e+01,1.308e+01,1.785e+01,1.511e+01,1.711e+01,1.351e+01,1.480e+01,1.631e+01,1.764e+01,1.743e+01,1.729e+01,1.571e+01,1.737e+01,1.730e+01,1.395e+01,1.769e+01,1.534e+01,1.772e+01,1.706e+01,1.585e+01,1.835e+01,1.521e+01,1.660e+01,1.507e+01,1.439e+01,1.498e+01,1.881e+01,1.617e+01,1.503e+01,1.542e+01,1.661e+01,1.837e+01,1.576e+01,1.687e+01,1.398e+01,1.666e+01,1.575e+01
2.100e-02,2.105e-01,7.121e-01,1.012e+00,1.527e+00,8.800e-01,1.625e+00,2.181e+00,3.017e+00,2.377e+00,2.739e+00,3.671e+00,3.817e+00,4.920e+00,5.158e+00,4.598e+00,4.481e+00,4.318e+00,4.685e+00,5.829e+00,4.891e+00,5.874e+00,5.113e+00,6.522e+00,6.282e+00,6.594e+00,6.360e+00,8.387e+00,7.081e+00,5.861e+00,7.230e+00,8.742e+00,9.678e+00,9.480e+00,9.042e+00,9.793e+00,1.002e+01,9.797e+00,8.431e+00,1.289e+01,1.120e+01,9.961e+00,1.100e+01,9.163e+00,1.126e+01,1.078e+01,1.170e+01,1.237e+01,1.078e+01,1.150e+01,1.116e+01,1.397e+01,1.245e+01,1.150e+01,1.518e+01,1.201e+01,1.437e+01,1.340e+01,1.406e+01,1.384e+01,1.432e+01,1.332e+01,1.311e+01,1.287e+01,1.329e+01,1.341e+01,1.290e+01,1.560e+01,1.359e+01,1.500e+01,1.422e+01,1.290e+01,1.522e+01,1.258e+01,1.431e+01,1.425e+01,1.473e+01,1.367e+01,1.610e+01,1.422e+01,1.496e+01,1.303e+01,1.432e+01,1.566e+01,1.211e+01,1.550e+01,1.109e+01,1.345e+01,1.408e+01
1.135e-01,3.758e-01,1.116e+00,1.901e+00,2.520e+00,1.401e+00,2.528e+00,2.197e+00,2.539e+00,3.135e+00,3.609e+00,4.623e+00,3.970e+00,4.401e+00,4.750e+00,4.636e+00,4.972e+00,5.030e+00,5.559e+00,6.477e+00,5.014e+00,6.706e+00,6.045e+00,7.635e+00,7.291e+00,7.576e+00,6.896e+00,7.731e+00,7.716e+00,6.248e+00,8.392e+00,1.006e+01,9.263e+00,8.979e+00,8.645e+00,1.093e+01,9.618e+00,9.978e+00,9.449e+00,1.237e+01,1.186e+01,1.054e+01,1.108e+01,9.764e+00,1.005e+01,1.053e+01,1.231e+01,1.269e+01,1.106e+01,1.143e+01,9.514e+00,1.429e+01,1.190e+01,1.168e+01,1.561e+01,1.259e+01,1.508e+01,1.313e+01,1.561e+01,1.566e+01,1.627e+01,1.534e+01,1.644e+01,1.521e+01,1.669e+01,1.672e+01,1.410e+01,1.805e+01,1.675e+01,1.695e+01,1.698e+01,1.552e+01,1.701e+01,1.559e+01,1.672e+01,1.643e+01,1.547e+01,1.516e+01,1.798e+01,1.688e+01,1.384e+01,1.447e+01,1.566e+01,1.719e+01,1.500e+01,1.818e+01,1.415e+01,1.732e+01,1.411e+01
8.618e-02,2.625e-01,8.128e-01,1.259e+00,1.774e+00,9.163e-01,1.508e+00,1.845e+00,2.181e+00,1.825e+00,2.684e+00,2.872e+00,3.144e+00,4.436e+00,4.131e+00,3.788e+00,3.505e+00,4.190e+00,3.545e+00,5.345e+00,4.110e+00,5.084e+00,4.143e+00,6.691e+00,5.961e+00,6.985e+00,6.461e+00,7.138e+00,5.907e+00,6.393e+00,7.690e+00,8.836e+00,7.890e+00,7.855e+00,7.176e+00,9.129e+00,9.590e+00,9.669e+00,7.824e+00,1.131e+01,1.040e+01,9.929e+00,9.723e+00,9.116e+00,1.242e+01,1.167e+01,1.043e+01,1.347e+01,1.101e+01,1.152e+01,1.084e+01,1.259e+01,1.103e+01,1.224e+01,1.494e+01,1.164e+01,1.493e+01,1.014e+01,1.441e+01,1.427e+01,1.381e+01,1.473e+01,1.305e+01,1.370e+01,1.499e+01,1.592e+01,1.285e+01,1.650e+01,1.389e+01,1.553e+01,1.565e+01,1.266e+01,1.590e+01,1.304e+01,1.534e+01,1.495e+01,1.465e+01,1.492e+01,1.618e+01,1.627e+01,1.404e+01,1.505e+01,1.525e+01,1.528e+01,1.206e+01,1.461e+01,1.176e+01,1.484e+01,1.358e+01
3.329e-02,3.836e-01,7.491e-01,1.089e+00,1.045e+00,8.124e-01,1.440e+00,1.217e+00,2.313e+00,1.827e+00,2.489e+00,3.148e+00,3.316e+00,3.088e+00,3.067e+00,3.187e+00,3.637e+00,3.961e+00,4.547e+00,4.689e+00,4.514e+00,5.543e+00,4.797e+00,5.686e+00,5.197e+00,5.618e+00,6.098e+00,8.068e+00,6.819e+00,5.923e+00,8.258e+00,9.239e+00,8.958e+00,7.835e+00,7.650e+00,8.830e+00,9.112e+00,8.749e+00,8.572e+00,1.210e+01,1.096e+01,1.079e+01,1.088e+01,9.913e+00,1.012e+01,1.055e+01,1.191e+01,1.246e+01,1.049e+01,1.055e+01,1.013e+01,1.417e+01,1.153e+01,1.185e+01,1.451e+01,1.275e+01,1.588e+01,1.286e+01,1.557e+01,1.557e+01,1.591e+01,1.526e+01,1.575e+01,1.379e+01,1.611e+01,1.648e+01,1.554e+01,1.889e+01,1.561e+01,1.851e+01,1.606e+01,1.553e+01,1.790e+01,1.478e+01,1.784e+01,1.613e+01,1.646e+01,1.463e+01,1.897e+01,1.711e+01,1.461e+01,1.577e+01,1.696e+01,1.733e+01,1.473e+01,1.910e+01,1.623e+01,1.758e+01,1.690e+01
1.355e-01,3.454e-01,1.108e+00,1.711e+00,1.547e+00,9.605e-01,1.620e+00,1.672e+00,1.830e+00,2.170e+00,3.128e+00,3.694e+00,3.419e+00,3.931e+00,3.721e+00,3.867e+00,4.147e+00,4.445e+00,5.137e+00,5.606e+00,4.590e+00,5.959e+00,5.204e+00,6.878e+00,5.921e+00,6.694e+00,6.502e+00,7.619e+00,7.154e+00,7.297e+00,8.460e+00,1.069e+01,9.230e+00,8.350e+00,8.298e+00,9.252e+00,1.038e+01,9.814e+00,9.236e+00,1.152e+01,1.202e+01,1.123e+01,9.925e+00,1.053e+01,1.183e+01,1.226e+01,1.380e+01,1.406e+01,1.174e+01,1.239e+01,1.124e+01,1.604e+01,1.350e+01,1.387e+01,1.612e+01,1.416e+01,1.614e+01,1.350e+01,1.730e+01,1.748e+01,1.700e+01,1.669e+01,1.728e+01,1.578e+01,1.641e+01,1.748e+01,1.834e+01,1.994e+01,1.737e+01,1.945e+01,1.810e+01,1.700e+01,2.013e+01,1.687e+01,1.779e+01,1.917e+01,1.725e+01,1.595e+01,1.877e+01,1.882e+01,1.666e+01,1.640e+01,1.728e+01,1.871e+01,1.684e+01,1.913e+01,1.536e+01,1.962e+01,1.753e+01
2.074e-01,1.149e-01,6.066e-01,1.280e+00,1.568e+00,9.346e-01,1.367e+00,1.378e+00,2.295e+00,2.257e+00,3.310e+00,2.731e+00,2.696e+00,3.587e+00,4.026e+00,3.954e+00,4.460e+00,5.017e+00,4.828e+00,5.330e+00,4.687e+00,6.802e+00,5.713e+00,6.646e+00,6.075e+00,6.828e+00,6.137e+00,8.558e+00,7.169e+00,6.337e+00,8.767e+00,1.035e+01,9.479e+00,9.151e+00,9.432e+00,1.107e+01,1.053e+01,9.652e+00,8.022e+00,1.249e+01,1.299e+01,1.179e+01,9.603e+00,9.677e+00,1.123e+01,1.216e+01,1.192e+01,1.385e+01,1.018e+01,1.185e+01,1.088e+01,1.308e+01,1.222e+01,1.200e+01,1.571e+01,1.382e+01,1.586e+01,1.236e+01,1.648e+01,1.631e+01,1.709e+01,1.554e+01,1.550e+01,1.583e+01,1.696e+01,1.646e+01,1.289e+01,1.914e+01,1.692e+01,1.718e+01,1.614e+01,1.576e+01,1.836e+01,1.768e+01,1.641e+01,1.583e+01,1.557e+01,1.577e+01,2.001e+01,1.563e+01,1.517e+01,1.712e+01,1.717e+01,1.710e+01,1.663e+01,1.822e+01,1.348e+01,1.614e+01,1.667e+01
1.652e-01,2.196e-01,7.100e-01,1.402e+00,1.892e+00,1.213e+00,1.872e+00,1.853e+00,3.191e+00,3.266e+00,4.036e+00,3.677e+00,3.231e+00,4.815e+00,5.172e+00,4.851e+00,5.265e+00,5.352e+00,5.667e+00,6.697e+00,5.183e+00,7.798e+00,6.185e+00,8.706e+00,7.589e+00,7.927e+00,7.642e+00,1.049e+01,8.188e+00,7.873e+00,1.013e+01,1.152e+01,1.091e+01,1.083e+01,1.087e+01,1.219e+01,1.271e+01,1.131e+01,1.024e+01,1.402e+01,1.348e+01,1.353e+01,1.257e+01,1.087e+01,1.347e+01,1.280e+01,1.319e+01,1.534e+01,1.339e+01,1.428e+01,1.358e+01,1.674e+01,1.407e+01,1.430e+01,1.797e+01,1.486e+01,1.896e+01,1.511e+01,1.732e+01,1.851e+01,1.904e+01,1.850e+01,1.852e+01,1.824e+01,2.008e+01,1.885e+01,1.794e+01,2.158e+01,1.793e+01,2.169e+01,1.971e+01,1.842e+01,2.153e+01,1.901e+01,1.989e+01,1.988e+01,1.970e+01,1.977e+01,2.186e+01,2.032e+01,1.781e+01,1.885e+01,1.954e+01,2.184e+01,1.795e+01,1.949e+01,1.655e+01,1.954e+01,1.845e+01
1.397e-01,2.632e-01,9.142e-01,1.465e+00,1.363e+00,8.241e-01,1.470e+00,1.567e+00,1.992e+00,1.476e+00,2.491e+00,2.496e+00,2.805e+00,3.248e+00,3.156e+00,3.199e+00,3.286e+00,3.679e+00,4.353e+00,4.770e+00,3.544e+00,5.487e+00,4.542e+00,6.325e+00,5.996e+00,6.678e+00,6.101e+00,7.770e+00,6.654e+00,6.057e+00,7.371e+00,9.460e+00,8.334e+00,8.304e+00,8.639e+00,8.874e+00,9.647e+00,8.656e+00,7.531e+00,1.038e+01,1.183e+01,1.036e+01,9.092e+00,9.966e+00,1.091e+01,1.144e+01,1.141e+01,1.202e+01,1.016e+01,1.176e+01,1.042e+01,1.474e+01,1.190e+01,1.235e+01,1.589e+01,1.287e+01,1.569e+01,1.347e+01,1.606e+01,1.487e+01,1.616e+01,1.477e+01,1.505e+01,1.436e+01,1.692e+01,1.747e+01,1.385e+01,1.737e+01,1.437e+01,1.717e+01,1.616e+01,1.734e+01,1.888e+01,1.635e+01,1.725e+01,1.679e+01,1.563e+01,1.644e+01,1.778e+01,1.720e+01,1.446e+01,1.733e+01,1.716e+01,1.756e+01,1.643e+01,1.783e+01,1.445e+01,1.659e+01,1.598e+01
2.067e-01,4.113e-01,1.153e+00,1.750e+00,1.988e+00,1.341e+00,1.467e+00,2.269e+00,2.148e+00,2.130e+00,3.370e+00,3.132e+00,2.914e+00,3.300e+00,3.843e+00,3.271e+00,3.643e+00,4.022e+00,4.094e+00,4.320e+00,3.989e+00,5.718e+00,4.153e+00,5.447e+00,5.226e+00,6.651e+00,5.431e+00,7.307e+00,6.854e+00,6.829e+00,8.134e+00,9.545e+00,8.987e+00,9.111e+00,9.781e+00,1.019e+01,1.094e+01,1.034e+01,8.687e+00,1.287e+01,1.248e+01,1.149e+01,1.088e+01,1.025e+01,1.205e+01,1.253e+01,1.396e+01,1.449e+01,1.182e+01,1.225e+01,1.098e+01,1.589e+01,1.382e+01,1.388e+01,1.658e+01,1.342e+01,1.666e+01,1.355e+01,1.685e+01,1.618e+01,1.663e+01,1.760e+01,1.551e+01,1.575e+01,1.784e+01,1.774e+01,1.534e+01,1.960e+01,1.769e+01,1.957e+01,1.795e+01,1.753e+01,2.010e+01,1.700e+01,1.838e+01,1.913e+01,1.850e+01,1.797e+01,2.099e+01,1.913e+01,1.661e+01,1.745e+01,1.895e+01,2.055e+01,1.714e+01,1.904e+01,1.675e+01,1.803e+01,1.715e+01
6.218e-02,4.245e-01,7.401e-01,1.207e+00,1.166e+00,1.187e+00,1.836e+00,1.505e+00,2.958e+00,2.431e+00,2.654e+00,3.577e+00,3.020e+00,3.264e+00,3.467e+00,2.675e+00,3.024e+00,3.264e+00,3.970e+00,4.471e+00,3.560e+00,5.531e+00,5.031e+00,5.690e+00,5.512e+00,4.839e+00,5.122e+00,7.351e+00,6.157e+00,5.266e+00,7.410e+00,9.476e+00,9.352e+00,8.947e+00,7.921e+00,9.107e+00,8.936e+00,8.663e+00,8.114e+00,1.106e+01,1.076e+01,1.042e+01,1.023e+01,8.951e+00,1.070e+01,1.023e+01,1.163e+01,1.233e+01,1.091e+01,1.079e+01,1.033e+01,1.407e+01,1.107e+01,1.271e+01,1.540e+01,1.132e+01,1.657e+01,1.232e+01,1.481e+01,1.412e+01,1.435e+01,1.330e+01,1.373e+01,1.409e+01,1.529e+01,1.573e+01,1.401e+01,1.851e+01,1.455e+01,1.841e+01,1.567e+01,1.643e+01,1.876e+01,1.582e+01,1.856e+01,1.711e+01,1.581e+01,1.636e+01,1.860e+01,1.826e+01,1.469e+01,1.616e+01,1.659e+01,1.799e+01,1.478e+01,1.796e+01,1.575e+01,1.644e+01,1.517e+01
2.652e-02,2.230e-01,4.690e-01,8.650e-01,1.289e+00,7.897e-01,1.397e+00,1.243e+00,1.620e+00,1.965e+00,2.286e+00,2.966e+00,2.321e+00,2.715e+00,3.064e+00,2.880e+00,3.066e+00,3.363e+00,3.699e+00,4.458e+00,3.354e+00,4.919e+00,4.326e+00,6.257e+00,4.652e+00,6.098e+00,5.136e+00,6.608e+00,6.396e+00,5.339e+00,7.444e+00,8.390e+00,7.994e+00,7.802e+00,7.324e+00,8.476e+00,9.407e+00,8.417e+00,8.519e+00,1.186e+01,1.108e+01,1.119e+01,1.038e+01,9.059e+00,1.163e+01,1.098e+01,1.200e+01,1.340e+01,1.132e+01,1.020e+01,1.071e+01,1.306e+01,1.210e+01,1.239e+01,1.544e+01,1.179e+01,1.636e+01,1.300e+01,1.561e+01,1.491e+01,1.613e+01,1.481e+01,1.470e+01,1.373e+01,1.450e+01,1.557e+01,1.475e+01,1.682e+01,1.555e+01,1.613e+01,1.563e+01,1.477e+01,1.692e+01,1.676e+01,1.715e+01,1.762e+01,1.516e+01,1.514e+01,1.953e+01,1.629e+01,1.589e+01,1.619e+01,1.657e+01,1.849e+01,1.475e+01,1.773e+01,1.598e+01,1.711e+01,1.516e+01
1.757e-01,2.719e-01,7.911e-01,1.292e+00,1.502e+00,1.070e+00,1.202e+00,1.637e+00,2.372e+00,2.215e+00,3.221e+00,2.859e+00,2.297e+00,3.559e+00,3.495e+00,3.901e+00,3.875e+00,4.226e+00,3.797e+00,4.728e+00,4.218e+00,5.277e+00,4.466e+00,5.939e+00,5.521e+00,5.763e+00,6.922e+00,7.332e+00,7.036e+00,6.551e+00,6.924e+00,8.424e+00,8.366e+00,8.205e+00,8.967e+00,9.814e+00,1.002e+01,9.404e+00,8.879e+00,1.120e+01,1.079e+01,1.088e+01,1.028e+01,1.025e+01,1.270e+01,1.236e+01,1.269e+01,1.441e+01,1.263e+01,1.287e+01,1.162e+01,1.509e+01,1.364e+01,1.323e+01,1.647e+01,1.407e+01,1.740e+01,1.436e+01,1.798e+01,1.734e+01,1.744e+01,1.633e+01,1.675e+01,1.668e+01,1.756e+01,1.710e+01,1.603e+01,1.908e+01,1.681e+01,1.854e+01,1.888e+01,1.723e+01,1.939e+01,1.833e+01,2.048e+01,1.973e+01,1.791e+01,1.720e+01,2.153e+01,2.015e+01,1.705e+01,1.774e+01,1.852e+01,1.980e+01,1.725e+01,1.956e+01,1.726e+01,1.955e+01,1.814e+01
1.199e-01,1.477e-01,6.521e-01,1.063e+00,1.638e+00,9.847e-01,1.310e+00,1.910e+00,2.083e+00,2.158e+00,2.443e+00,2.976e+00,2.508e+00,3.996e+00,4.226e+00,3.783e+00,3.838e+00,3.654e+00,4.240e+00,5.474e+00,3.801e+00,5.897e+00,4.970e+00,6.805e+00,6.578e+00,6.092e+00,6.592e+00,7.421e+00,6.693e+00,5.901e+00,6.683e+00,9.328e+00,9.748e+00,9.615e+00,9.938e+00,1.031e+01,1.050e+01,1.042e+01,8.537e+00,1.287e+01,1.254e+01,1.191e+01,1.069e+01,1.111e+01,1.329e+01,1.227e+01,1.366e+01,1.503e+01,1.302e+01,1.312e+01,1.173e+01,1.563e+01,1.374e+01,1.346e+01,1.768e+01,1.385e+01,1.716e+01,1.504e+01,1.734e+01,1.720e+01,1.767e+01,1.716e+01,1.781e+01,1.590e+01,1.843e+01,1.821e+01,1.720e+01,2.149e+01,1.816e+01,1.889e+01,1.966e+01,1.776e+01,2.094e+01,1.974e+01,2.072e+01,2.110e+01,2.118e+01,2.042e+01,2.302e+01,2.140e+01,1.865e+01,2.028e+01,2.071e+01,2.097e+01,1.746e+01,2.179e+01,1.673e+01,2.006e+01,1.835e+01
1.726e-01,3.424e-01,1.224e+00,1.866e+00,1.500e+00,1.015e+00,1.644e+00,1.813e+00,2.171e+00,2.065e+00,3.163e+00,3.723e+00,4.048e+00,3.934e+00,4.386e+00,4.548e+00,4.807e+00,4.529e+00,5.026e+00,6.267e+00,5.450e+00,7.333e+00,6.165e+00,7.263e+00,5.752e+00,7.221e+00,6.150e+00,7.923e+00,7.242e+00,6.780e+00,7.772e+00,9.944e+00,9.058e+00,9.382e+00,8.408e+00,9.570e+00,9.941e+00,9.846e+00,7.970e+00,1.193e+01,1.216e+01,1.182e+01,9.851e+00,1.113e+01,1.175e+01,1.244e+01,1.261e+01,1.260e+01,1.153e+01,1.122e+01,9.110e+00,1.387e+01,1.157e+01,1.242e+01,1.512e+01,1.399e+01,1.594e+01,1.220e+01,1.596e+01,1.530e+01,1.633e+01,1.631e+01,1.496e+01,1.562e+01,1.629e+01,1.593e+01,1.497e+01,1.959e+01,1.580e+01,1.867e+01,1.664e+01,1.731e+01,1.942e+01,1.700e+01,1.866e+01,1.786e+01,1.805e+01,1.735e+01,1.926e+01,1.814e+01,1.761e+01,1.846e+01,2.086e+01,1.984e+01,1.709e+01,2.035e+01,1.699e+01,1.986e+01,1.660e+01
1.854e-01,3.486e-01,1.056e+00,1.802e+00,1.981e+00,1.250e+00,1.871e+00,1.875e+00,2.377e+00,2.871e+00,3.875e+00,3.773e+00,3.131e+00,4.375e+00,4.240e+00,3.633e+00,4.139e+00,4.687e+00,5.179e+00,5.900e+00,4.364e+00,6.484e+00,4.780e+00,7.145e+00,6.379e+00,6.913e+00,6.804e+00,9.057e+00,7.186e+00,6.911e+00,8.058e+00,9.506e+00,9.784e+00,9.654e+00,9.444e+00,9.774e+00,1.071e+01,1.006e+01,9.135e+00,1.317e+01,1.281e+01,1.318e+01,1.072e+01,1.120e+01,1.201e+01,1.338e+01,1.384e+01,1.408e+01,1.237e+01,1.284e+01,1.176e+01,1.524e+01,1.380e+01,1.370e+01,1.743e+01,1.357e+01,1.711e+01,1.396e+01,1.688e+01,1.770e+01,1.755e+01,1.697e+01,1.624e+01,1.551e+01,1.762e+01,1.693e+01,1.647e+01,2.023e+01,1.624e+01,1.859e+01,1.755e+01,1.799e+01,2.092e+01,1.773e+01,1.931e+01,1.931e+01,1.858e+01,2.052e+01,2.230e+01,2.122e+01,1.757e+01,2.002e+01,1.961e+01,2.298e+01,1.821e+01,2.130e+01,1.874e+01,1.867e+01,1.729e+01
6.269e-02,4.258e-01,8.139e-01,1.168e+00,1.489e+00,1.226e+00,1.453e+00,1.908e+00,2.684e+00,2.752e+00,3.229e+00,3.490e+00,3.251e+00,3.356e+00,4.460e+00,4.330e+00,4.715e+00,4.730e+00,4.158e+00,5.472e+00,5.260e+00,6.605e+00,5.667e+00,6.318e+00,5.650e+00,7.262e+00,6.191e+00,7.618e+00,7.420e+00,6.510e+00,7.905e+00,8.502e+00,8.194e+00,7.815e+00,7.782e+00,8.113e+00,8.932e+00,8.512e+00,7.645e+00,1.097e+01,1.075e+01,9.739e+00,9.734e+00,8.778e+00,1.201e+01,1.166e+01,1.261e+01,1.373e+01,1.136e+01,1.127e+01,1.107e+01,1.226e+01,1.096e+01,1.237e+01,1.514e+01,1.350e+01,1.429e+01,1.134e+01,1.543e+01,1.454e+01,1.501e+01,1.481e+01,1.433e+01,1.456e+01,1.500e+01,1.447e+01,1.382e+01,1.535e+01,1.463e+01,1.617e+01,1.677e+01,1.553e+01,1.702e+01,1.777e+01,1.938e+01,1.813e+01,1.761e+01,1.821e+01,2.022e+01,1.904e+01,1.784e+01,1.906e+01,1.985e+01,2.063e+01,1.871e+01,1.987e+01,1.734e+01,1.787e+01,1.827e+01
2.185e-01,2.359e-01,1.224e+00,2.022e+00,1.861e+00,1.204e+00,2.023e+00,1.980e+00,2.485e+00,2.673e+00,3.106e+00,3.765e+00,3.602e+00,4.462e+00,4.686e+00,4.394e+00,4.325e+00,3.898e+00,4.145e+00,5.454e+00,4.964e+00,6.514e+00,5.478e+00,7.015e+00,6.097e+00,7.188e+00,5.675e+00,7.359e+00,6.954e+00,6.329e+00,7.756e+00,9.088e+00,8.835e+00,8.853e+00,9.117e+00,1.004e+01,1.067e+01,9.644e+00,8.137e+00,1.276e+01,1.363e+01,1.178e+01,1.026e+01,1.138e+01,1.143e+01,1.139e+01,1.162e+01,1.387e+01,1.200e+01,1.113e+01,1.109e+01,1.490e+01,1.197e+01,1.209e+01,1.594e+01,1.388e+01,1.481e+01,1.205e+01,1.447e+01,1.546e+01,1.619e+01,1.552e+01,1.720e+01,1.570e+01,1.652e+01,1.647e+01,1.371e+01,1.779e+01,1.474e+01,1.790e+01,1.644e+01,1.613e+01,2.010e+01,1.723e+01,1.910e+01,1.749e+01,1.714e+01,1.890e+01,2.205e+01,2.054e+01,1.727e+01,1.892e+01,1.925e+01,2.224e+01,1.836e+01,2.036e+01,1.626e+01,1.837e+01,1.830e+01
9.584e-02,1.610e-01,5.320e-01,9.112e-01,8.216e-01,7.646e-01,1.067e+00,1.173e+00,1.508e+00,2.063e+00,1.955e+00,2.428e+00,1.573e+00,2.831e+00,2.998e+00,2.997e+00,3.006e+00,3.124e+00,4.134e+00,3.999e+00,3.364e+00,4.861e+00,4.486e+00,6.493e+00,5.945e+00,6.426e+00,5.815e+00,6.993e+00,6.587e+00,6.164e+00,6.923e+00,7.675e+00,8.505e+00,8.002e+00,8.682e+00,8.631e+00,1.003e+01,8.556e+00,8.507e+00,1.107e+01,1.102e+01,1.063e+01,1.008e+01,9.890e+00,1.153e+01,1.159e+01,1.320e+01,1.416e+01,1.242e+01,1.106e+01,1.061e+01,1.384e+01,1.220e+01,1.221e+01,1.563e+01,1.246e+01,1.590e+01,1.330e+01,1.507e+01,1.548e+01,1.614e+01,1.530e+01,1.506e+01,1.452e+01,1.587e+01,1.502e+01,1.392e+01,1.820e+01,1.662e+01,1.792e+01,1.717e+01,1.625e+01,1.861e+01,1.831e+01,1.853e+01,1.992e+01,1.664e+01,1.735e+01,2.149e+01,1.870e+01,1.755e+01,1.846e+01,2.055e+01,1.942e+01,1.892e+01,1.930e+01,1.730e+01,1.911e+01,1.840e+01
2.149e-01,8.611e-02,6.869e-01,1.477e+00,2.223e+00,1.158e+00,1.779e+00,1.936e+00,2.090e+00,2.924e+00,3.584e+00,3.606e+00,2.812e+00,4.154e+00,4.605e+00,3.786e+00,4.410e+00,4.542e+00,5.101e+00,5.088e+00,3.735e+00,6.409e+00,5.466e+00,7.587e+00,6.497e+00,7.361e+00,6.058e+00,7.942e+00,7.652e+00,6.263e+00,8.479e+00,9.131e+00,8.794e+00,8.745e+00,8.837e+00,1.008e+01,1.054e+01,9.409e+00,9.401e+00,1.244e+01,1.219e+01,1.218e+01,1.105e+01,9.715e+00,1.189e+01,1.235e+01,1.195e+01,1.326e+01,1.157e+01,1.112e+01,1.176e+01,1.442e+01,1.213e+01,1.372e+01,1.643e+01,1.248e+01,1.670e+01,1.384e+01,1.661e+01,1.685e+01,1.646e+01,1.661e+01,1.550e+01,1.579e+01,1.519e+01,1.623e+01,1.553e+01,1.752e+01,1.612e+01,1.783e+01,1.724e+01,1.637e+01,1.897e+01,1.917e+01,1.800e+01,1.989e+01,1.738e+01,1.820e+01,2.316e+01,1.884e+01,1.999e+01,2.122e+01,1.989e+01,2.338e+01,1.905e+01,2.119e+01,1.925e+01,2.073e+01,1.809e+01
4.504e-03,1.154e-01,5.603e-01,1.057e+00,1.403e+00,5.513e-01,1.686e+00,1.384e+00,1.520e+00,1.928e+00,2.428e+00,3.548e+00,3.025e+00,3.963e+00,3.860e+00,4.064e+00,4.259e+00,4.259e+00,5.004e+00,5.615e+00,4.575e+00,5.135e+00,4.714e+00,6.496e+00,6.220e+00,7.032e+00,6.623e+00,8.688e+00,7.650e+00,6.119e+00,8.137e+00,1.013e+01,1.031e+01,8.803e+00,9.103e+00,1.020e+01,1.052e+01,1.065e+01,9.243e+00,1.179e+01,1.190e+01,1.250e+01,1.096e+01,1.043e+01,1.119e+01,1.143e+01,1.273e+01,1.229e+01,1.109e+01,1.274e+01,1.122e+01,1.417e+01,1.274e+01,1.281e+01,1.579e+01,1.340e+01,1.669e+01,1.528e+01,1.505e+01,1.528e+01,1.555e+01,1.573e+01,1.596e+01,1.458e+01,1.529e+01,1.607e+01,1.433e+01,1.930e+01,1.592e+01,1.793e+01,1.678e+01,1.724e+01,1.919e+01,1.799e+01,1.843e+01,2.037e+01,1.868e+01,1.792e+01,2.152e+01,2.019e+01,1.881e+01,2.080e+01,2.101e+01,2.269e+01,1.885e+01,2.091e+01,1.875e+01,2.056e+01,1.894e+01
8.370e-03,3.190e-01,5.637e-01,8.878e-01,8.554e-01,7.267e-01,1.260e+00,9.310e-01,1.849e+00,2.203e+00,2.592e+00,3.399e+00,2.649e+00,3.477e+00,3.076e+00,3.111e+00,3.178e+00,3.601e+00,3.662e+00,5.107e+00,3.764e+00,4.855e+00,3.814e+00,5.482e+00,4.792e+00,5.078e+00,5.751e+00,6.498e+00,4.949e+00,5.323e+00,7.037e+00,7.357e+00,7.550e+00,7.445e+00,7.406e+00,8.147e+00,8.680e+00,8.400e+00,8.711e+00,1.039e+01,9.887e+00,8.809e+00,8.508e+00,7.764e+00,9.241e+00,1.031e+01,1.229e+01,1.205e+01,1.013e+01,9.175e+00,8.317e+00,1.274e+01,1.168e+01,1.157e+01,1.398e+01,1.141e+01,1.469e+01,1.137e+01,1.308e+01,1.467e+01,1.494e+01,1.418e+01,1.477e+01,1.304e+01,1.416e+01,1.504e+01,1.526e+01,1.940e+01,1.470e+01,1.724e+01,1.632e+01,1.517e+01,1.798e+01,1.640e+01,1.860e+01,1.795e+01,1.818e+01,1.848e+01,1.896e+01,1.890e+01,1.799e+01,1.841e+01,2.084e+01,2.136e+01,1.873e+01,2.079e+01,1.855e+01,1.909e+01,1.793e+01
2.513e-04,3.394e-01,6.795e-01,1.032e+00,1.432e+00,8.938e-01,1.536e+00,1.470e+00,2.180e+00,2.120e+00,2.701e+00,3.484e+00,2.758e+00,3.683e+00,3.388e+00,4.022e+00,3.803e+00,4.342e+00,3.615e+00,5.480e+00,4.812e+00,5.016e+00,4.299e+00,5.381e+00,4.044e+00,5.557e+00,5.261e+00,6.507e+00,6.568e+00,5.690e+00,7.560e+00,8.836e+00,7.265e+00,7.528e+00,7.807e+00,8.692e+00,8.759e+00,8.914e+00,7.923e+00,1.155e+01,1.102e+01,9.312e+00,9.487e+00,8.311e+00,1.022e+01,9.925e+00,1.309e+01,1.179e+01,1.021e+01,9.947e+00,9.889e+00,1.406e+01,1.185e+01,1.227e+01,1.410e+01,1.216e+01,1.304e+01,1.248e+01,1.289e+01,1.360e+01,1.523e+01,1.460e+01,1.595e+01,1.322e+01,1.372e+01,1.442e+01,1.395e+01,1.686e+01,1.444e+01,1.626e+01,1.449e+01,1.596e+01,1.649e+01,1.553e+01,1.741e+01,1.786e+01,1.663e+01,1.718e+01,1.892e+01,1.755e+01,1.566e+01,1.685e+01,1.750e+01,2.134e+01,1.713e+01,1.919e+01,1.727e+01,1.681e+01,1.669e+01
7.816e-02,4.173e-01,1.002e+00,1.504e+00,1.381e+00,1.066e+00,1.790e+00,1.851e+00,2.541e+00,2.068e+00,2.910e+00,4.083e+00,4.175e+00,4.202e+00,4.562e+00,4.377e+00,4.449e+00,4.273e+00,5.090e+00,6.306e+00,4.935e+00,6.793e+00,6.002e+00,7.362e+00,6.148e+00,6.613e+00,6.217e+00,8.227e+00,7.138e+00,6.566e+00,8.644e+00,1.020e+01,9.242e+00,9.727e+00,8.440e+00,1.092e+01,1.006e+01,1.016e+01,1.011e+01,1.415e+01,1.373e+01,1.175e+01,1.113e+01,1.084e+01,1.261e+01,1.244e+01,1.405e+01,1.524e+01,1.241e+01,1.312e+01,1.209e+01,1.705e+01,1.389e+01,1.461e+01,1.819e+01,1.357e+01,1.725e+01,1.435e+01,1.798e+01,1.788e+01,1.850e+01,1.837e+01,1.842e+01,1.581e+01,1.644e+01,1.722e+01,1.630e+01,2.075e+01,1.771e+01,2.041e+01,1.817e+01,1.966e+01,2.172e+01,1.946e+01,1.963e+01,2.068e+01,2.108e+01,2.062e+01,2.323e+01,2.148e+01,2.215e+01,2.224e+01,2.257e+01,2.417e+01,2.135e+01,2.584e+01,2.041e+01,2.062e+01,2.160e+01
1.845e-01,2.085e-01,1.103e+00,1.743e+00,2.181e+00,1.185e+00,1.763e+00,2.173e+00,1.563e+00,2.509e+00,2.597e+00,3.663e+00,3.436e+00,4.214e+00,4.601e+00,3.419e+00,3.964e+00,3.194e+00,4.213e+00,4.573e+00,3.589e+00,5.501e+00,4.766e+00,5.956e+00,5.621e+00,5.592e+00,4.542e+00,5.883e+00,5.968e+00,4.939e+00,6.175e+00,7.942e+00,8.054e+00,8.411e+00,7.976e+00,7.849e+00,8.286e+00,8.150e+00,7.310e+00,1.008e+01,1.024e+01,1.064e+01,8.943e+00,8.285e+00,9.531e+00,9.959e+00,9.364e+00,1.093e+01,1.025e+01,9.691e+00,8.592e+00,1.299e+01,9.628e+00,1.135e+01,1.496e+01,1.232e+01,1.353e+01,1.192e+01,1.332e+01,1.401e+01,1.338e+01,1.503e+01,1.303e+01,1.224e+01,1.504e+01,1.473e+01,1.326e+01,1.516e+01,1.432e+01,1.757e+01,1.506e+01,1.540e+01,1.639e+01,1.517e+01,1.676e+01,1.674e+01,1.660e+01,1.574e+01,2.055e+01,1.780e+01,1.656e+01,1.762e+01,1.858e+01,2.163e+01,1.865e+01,2.099e+01,1.791e+01,1.877e+01,1.753e+01
6.687e-03,3.536e-01,5.509e-01,6.442e-01,3.196e-01,7.092e-01,9.471e-01,9.604e-01,2.329e+00,2.149e+00,2.031e+00,3.083e+00,3.541e+00,2.959e+00,3.658e+00,3.644e+00,4.219e+00,3.558e+00,4.514e+00,4.780e+00,4.445e+00,6.655e+00,6.196e+00,6.884e+00,6.744e+00,6.656e+00,7.172e+00,7.931e+00,7.505e+00,6.222e+00,8.391e+00,9.546e+00,1.039e+01,9.264e+00,9.314e+00,9.866e+00,9.203e+00,1.022e+01,9.214e+00,1.170e+01,1.197e+01,1.124e+01,1.109e+01,1.028e+01,1.155e+01,1.167e+01,1.438e+01,1.325e+01,1.238e+01,1.108e+01,1.015e+01,1.513e+01,1.226e+01,1.365e+01,1.652e+01,1.392e+01,1.702e+01,1.420e+01,1.643e+01,1.705e+01,1.751e+01,1.683e+01,1.770e+01,1.594e+01,1.940e+01,1.754e+01,1.588e+01,2.077e+01,1.781e+01,1.918e+01,1.933e+01,1.914e+01,2.052e+01,1.955e+01,2.149e+01,2.194e+01,2.011e+01,2.158e+01,2.455e+01,2.241e+01,1.826e+01,2.017e+01,2.481e+01,2.694e+01,2.178e+01,2.634e+01,2.404e+01,2.367e+01,2.120e+01
2.064e-01,9.941e-02,9.019e-01,1.817e+00,2.016e+00,1.099e+00,2.224e+00,1.675e+00,2.495e+00,3.052e+00,3.496e+00,3.809e+00,3.151e+00,3.951e+00,4.398e+00,3.915e+00,4.440e+00,4.666e+00,5.949e+00,6.164e+00,4.828e+00,7.211e+00,6.195e+00,7.808e+00,7.108e+00,7.086e+00,6.821e+00,9.469e+00,7.944e+00,6.757e+00,7.812e+00,1.004e+01,9.925e+00,9.993e+00,8.303e+00,9.703e+00,1.077e+01,8.880e+00,8.541e+00,1.230e+01,1.204e+01,1.253e+01,1.080e+01,1.070e+01,1.293e+01,1.255e+01,1.118e+01,1.394e+01,1.123e+01,1.226e+01,1.133e+01,1.458e+01,1.174e+01,1.213e+01,1.567e+01,1.372e+01,1.554e+01,1.336e+01,1.615e+01,1.565e+01,1.540e+01,1.342e+01,1.456e+01,1.525e+01,1.640e+01,1.538e+01,1.434e+01,1.772e+01,1.489e+01,1.748e+01,1.622e+01,1.433e+01,1.718e+01,1.587e+01,1.711e+01,1.739e+01,1.439e+01,1.594e+01,2.032e+01,1.920e+01,1.472e+01,1.799e+01,1.734e+01,1.938e+01,1.729e+01,1.909e+01,1.774e+01,1.908e+01,1.825e+01
1.238e-01,2.026e-01,8.395e-01,1.534e+00,2.225e+00,1.133e+00,2.113e+00,2.025e+00,2.295e+00,2.794e+00,3.162e+00,3.738e+00,3.455e+00,4.524e+00,4.765e+00,3.851e+00,4.171e+00,4.535e+00,5.166e+00,5.881e+00,4.042e+00,6.324e+00,5.035e+00,7.264e+00,7.250e+00,7.506e+00,6.676e+00,8.318e+00,7.211e+00,6.199e+00,8.378e+00,9.138e+00,1.017e+01,9.796e+00,9.445e+00,1.083e+01,1.054e+01,9.840e+00,9.674e+00,1.317e+01,1.342e+01,1.181e+01,1.125e+01,1.040e+01,1.279e+01,1.295e+01,1.280e+01,1.423e+01,1.179e+01,1.185e+01,1.180e+01,1.410e+01,1.245e+01,1.325e+01,1.671e+01,1.196e+01,1.629e+01,1.363e+01,1.642e+01,1.622e+01,1.633e+01,1.592e+01,1.520e+01,1.506e+01,1.598e+01,1.792e+01,1.594e+01,1.851e+01,1.546e+01,1.754e+01,1.650e+01,1.667e+01,1.897e+01,1.716e+01,1.770e+01,1.902e+01,1.766e+01,1.875e+01,2.174e+01,1.925e+01,1.732e+01,1.939e+01,1.859e+01,2.094e+01,1.780e+01,2.175e+01,1.870e+01,1.916e+01,1.983e+01
