7.985e-01,1.799e-01,6.017e-01,6.424e-01,5.246e-02,5.328e-01,7.968e-01,2.342e-01,7.848e-01,6.417e-01,9.684e-01,3.986e-01,8.761e-01,3.694e-01,1.307e-01,8.253e-01,6.190e-01,2.674e-01,6.257e-01,7.266e-01,8.562e-01,4.366e-01,9.686e-01,7.700e-01,6.577e-01,9.378e-01,9.943e-01,9.664e-01,5.927e-01,6.328e-01,7.303e-01,1.832e-01,3.588e-01,5.646e-01,7.675e-01,9.017e-02,5.902e-02,2.294e-01,9.675e-01,5.489e-02,9.150e-01,8.424e-01,1.249e-01,3.646e-01,6.852e-02,2.767e-01,2.700e-01,5.422e-01,4.756e-01,5.030e-01,7.295e-01,3.532e-01,7.000e-01,1.039e-01,4.499e-02,5.594e-01,5.383e-01,5.530e-01,4.428e-01,4.858e-01,6.337e-01,6.715e-01,1.697e-01,4.238e-01,9.402e-02,5.706e-02,1.995e-01,8.667e-01,2.964e-01,6.802e-01,5.735e-01,2.239e-01,5.975e-01,2.959e-01,5.016e-02,2.379e-01,2.843e-01,5.477e-02,6.536e-02
1.818e-01,4.184e-01,2.854e-01,8.126e-01,1.503e-02,5.975e-01,2.133e-01,3.297e-01,1.907e-01,9.462e-01,5.209e-01,9.552e-01,7.587e-01,5.274e-01,4.938e-01,9.040e-01,8.904e-01,4.393e-01,8.667e-01,1.161e+00,1.083e+00,6.658e-01,9.528e-01,7.227e-01,7.670e-01,1.171e+00,3.976e-01,4.730e-01,4.651e-01,4.124e-01,1.004e+00,9.806e-01,7.950e-01,1.998e-01,5.557e-01,5.796e-01,7.722e-01,1.114e-01,4.659e-01,3.139e-01,3.791e-01,6.061e-01,7.720e-02,1.749e-01,3.988e-01,8.715e-01,7.039e-01,2.418e-01,9.641e-01,3.492e-01,8.560e-01,1.025e+00,3.310e-01,6.800e-01,5.391e-01,3.458e-01,3.051e-01,1.013e+00,4.675e-01,7.523e-01,4.568e-01,4.220e-01,6.571e-01,1.033e+00,1.540e-01,6.756e-01,7.984e-01,9.082e-01,9.512e-01,6.513e-01,8.655e-01,2.889e-01,6.674e-01,5.711e-01,6.834e-01,1.900e-01,1.162e-01,6.491e-01,8.354e-01
7.175e-01,2.708e-01,6.087e-01,8.703e-01,4.543e-01,8.476e-01,1.400e+00,3.717e-01,1.321e+00,1.487e+00,1.114e+00,1.107e+00,1.517e+00,9.255e-01,8.123e-01,1.781e+00,8.713e-01,1.325e+00,1.005e+00,1.129e+00,1.241e+00,9.252e-01,1.817e+00,1.258e+00,1.533e+00,1.291e+00,1.825e+00,1.238e+00,6.558e-01,8.152e-01,1.452e+00,1.296e+00,1.434e+00,8.591e-01,1.001e+00,6.840e-01,5.495e-01,4.229e-01,9.968e-01,1.511e-01,1.449e+00,1.838e+00,4.651e-01,5.229e-01,1.732e-01,9.528e-01,1.256e+00,1.394e+00,1.245e+00,1.196e+00,1.643e+00,1.139e+00,1.122e+00,1.132e+00,4.377e-01,7.287e-01,6.074e-01,1.266e+00,9.070e-01,1.368e+00,7.139e-01,7.375e-01,1.083e+00,7.098e-01,1.030e+00,1.189e+00,7.517e-01,1.465e+00,1.260e+00,1.480e+00,1.058e+00,1.070e+00,1.559e+00,1.163e+00,9.086e-01,3.166e-01,8.626e-01,6.483e-01,9.920e-01
5.591e-01,1.835e-01,4.497e-01,6.994e-01,9.821e-01,1.177e+00,8.586e-01,8.857e-01,1.072e+00,1.657e+00,9.460e-01,9.863e-01,1.625e+00,6.577e-01,1.098e+00,1.514e+00,1.018e+00,8.644e-01,1.428e+00,9.623e-01,1.609e+00,1.277e+00,1.150e+00,1.175e+00,1.513e+00,1.514e+00,9.731e-01,9.504e-01,5.541e-01,7.770e-01,1.425e+00,5.826e-01,1.528e+00,5.235e-01,1.584e+00,5.338e-01,7.720e-01,4.836e-01,1.459e+00,1.016e+00,1.126e+00,1.214e+00,2.240e-01,6.864e-01,1.073e+00,1.348e+00,5.079e-01,8.340e-01,1.587e+00,1.442e+00,1.427e+00,1.450e+00,1.209e+00,1.161e+00,5.671e-01,1.263e+00,8.089e-01,1.243e+00,1.383e+00,9.450e-01,1.403e+00,6.152e-01,1.305e+00,1.325e+00,1.073e+00,1.318e+00,4.521e-01,1.519e+00,7.978e-01,9.738e-01,1.165e+00,8.017e-01,1.054e+00,5.405e-01,1.020e+00,5.193e-01,1.151e+00,1.148e+00,6.066e-01
2.406e-02,1.594e-01,9.679e-02,4.859e-01,1.610e+00,1.352e+00,1.101e+00,9.889e-01,1.270e+00,2.327e+00,6.888e-01,1.998e+00,1.729e+00,8.571e-01,2.359e+00,2.292e+00,1.165e+00,1.688e+00,1.339e+00,1.239e+00,1.962e+00,1.787e+00,2.008e+00,1.606e+00,1.604e+00,1.303e+00,1.477e+00,8.532e-01,3.217e-01,6.699e-01,1.544e+00,1.240e+00,2.303e+00,7.134e-01,1.655e+00,1.306e+00,1.784e+00,1.345e+00,9.012e-01,1.123e+00,1.320e+00,1.980e+00,6.899e-01,8.738e-01,1.740e+00,2.382e+00,1.311e+00,9.858e-01,1.815e+00,1.912e+00,1.646e+00,1.862e+00,1.761e+00,2.192e+00,1.327e+00,1.640e+00,1.495e+00,1.639e+00,2.140e+00,1.603e+00,1.151e+00,3.139e-01,2.390e+00,1.534e+00,2.039e+00,1.946e+00,1.054e+00,2.183e+00,2.012e+00,1.773e+00,1.290e+00,2.006e+00,1.603e+00,1.824e+00,2.084e+00,5.242e-01,2.109e+00,1.630e+00,1.949e+00
1.046e-01,2.557e-01,1.777e-01,5.826e-01,7.761e-01,1.740e+00,1.523e+00,1.491e+00,1.476e+00,2.368e+00,1.546e+00,1.606e+00,1.269e+00,6.889e-01,1.563e+00,1.861e+00,9.610e-01,1.224e+00,1.144e+00,1.818e+00,1.595e+00,1.498e+00,1.463e+00,1.132e+00,2.034e+00,1.346e+00,1.528e+00,1.381e+00,9.132e-01,5.622e-01,1.767e+00,1.239e+00,2.011e+00,5.921e-01,1.587e+00,1.853e+00,1.997e+00,1.362e+00,1.390e+00,1.579e+00,1.409e+00,2.119e+00,1.058e+00,5.602e-01,1.358e+00,2.500e+00,1.232e+00,9.404e-01,1.468e+00,1.125e+00,1.192e+00,2.237e+00,1.049e+00,2.282e+00,1.162e+00,1.597e+00,1.778e+00,1.557e+00,1.860e+00,1.434e+00,1.232e+00,5.263e-01,2.002e+00,1.923e+00,1.322e+00,1.406e+00,1.368e+00,1.911e+00,1.388e+00,2.076e+00,1.400e+00,1.403e+00,1.655e+00,1.313e+00,2.158e+00,6.242e-01,1.480e+00,1.319e+00,1.603e+00
7.633e-01,3.024e-01,6.435e-01,9.822e-01,1.075e+00,1.865e+00,2.181e+00,2.084e+00,2.378e+00,2.943e+00,2.274e+00,2.614e+00,2.398e+00,1.101e+00,2.027e+00,2.718e+00,2.256e+00,2.292e+00,2.411e+00,2.550e+00,2.421e+00,2.319e+00,2.727e+00,2.078e+00,2.366e+00,2.314e+00,2.633e+00,2.781e+00,1.921e+00,1.584e+00,2.191e+00,1.837e+00,2.548e+00,1.448e+00,2.990e+00,2.240e+00,1.709e+00,1.542e+00,2.377e+00,1.595e+00,2.655e+00,2.865e+00,1.250e+00,1.714e+00,1.299e+00,2.972e+00,2.190e+00,2.130e+00,2.758e+00,1.834e+00,2.253e+00,2.399e+00,2.663e+00,2.936e+00,1.869e+00,2.697e+00,2.187e+00,2.879e+00,2.957e+00,2.418e+00,1.934e+00,1.472e+00,2.817e+00,1.828e+00,1.735e+00,1.789e+00,2.261e+00,2.584e+00,1.792e+00,2.527e+00,2.182e+00,1.859e+00,2.454e+00,2.033e+00,2.379e+00,1.409e+00,1.957e+00,1.541e+00,2.422e+00
1.090e-02,3.304e-02,3.155e-02,2.270e-01,1.454e+00,1.396e+00,1.238e+00,2.254e+00,1.582e+00,2.684e+00,1.925e+00,2.612e+00,1.954e+00,1.609e+00,2.784e+00,2.401e+00,1.277e+00,2.495e+00,1.905e+00,1.771e+00,1.719e+00,2.048e+00,2.620e+00,1.659e+00,1.842e+00,1.799e+00,1.966e+00,1.867e+00,1.417e+00,1.692e+00,1.906e+00,1.685e+00,2.160e+00,1.112e+00,2.849e+00,1.978e+00,2.630e+00,1.580e+00,1.398e+00,2.017e+00,2.411e+00,2.384e+00,1.563e+00,1.938e+00,2.019e+00,3.351e+00,1.248e+00,1.314e+00,2.180e+00,2.631e+00,1.675e+00,1.894e+00,2.602e+00,2.463e+00,2.176e+00,2.286e+00,2.704e+00,2.414e+00,3.037e+00,1.860e+00,1.400e+00,1.169e+00,2.473e+00,2.140e+00,2.201e+00,1.818e+00,1.800e+00,2.233e+00,1.620e+00,2.494e+00,2.254e+00,2.027e+00,2.358e+00,2.436e+00,2.553e+00,1.282e+00,2.251e+00,1.690e+00,2.307e+00
3.890e-01,1.403e-01,3.375e-01,5.920e-01,1.283e+00,1.475e+00,1.697e+00,1.972e+00,2.892e+00,3.417e+00,2.308e+00,2.846e+00,2.872e+00,2.466e+00,2.420e+00,3.166e+00,2.378e+00,3.024e+00,2.853e+00,2.368e+00,2.740e+00,2.635e+00,3.628e+00,2.349e+00,2.537e+00,2.914e+00,2.715e+00,2.767e+00,1.629e+00,2.011e+00,2.995e+00,2.768e+00,3.355e+00,1.476e+00,3.069e+00,2.703e+00,2.291e+00,1.964e+00,1.814e+00,2.290e+00,2.772e+00,3.151e+00,2.266e+00,2.571e+00,2.375e+00,3.940e+00,2.198e+00,2.270e+00,2.856e+00,2.716e+00,2.349e+00,2.742e+00,2.731e+00,3.335e+00,2.702e+00,2.659e+00,2.578e+00,2.696e+00,3.693e+00,2.424e+00,1.480e+00,2.295e+00,2.960e+00,1.988e+00,2.414e+00,2.364e+00,2.648e+00,2.512e+00,2.053e+00,3.445e+00,2.521e+00,2.829e+00,2.873e+00,3.085e+00,2.460e+00,1.602e+00,2.089e+00,2.307e+00,2.932e+00
4.370e-01,3.486e-01,4.413e-01,9.624e-01,1.113e+00,1.714e+00,1.387e+00,1.603e+00,1.700e+00,2.901e+00,1.705e+00,2.413e+00,2.659e+00,2.167e+00,2.762e+00,2.950e+00,2.628e+00,2.116e+00,2.616e+00,2.493e+00,2.787e+00,2.326e+00,2.279e+00,2.711e+00,2.771e+00,2.565e+00,2.388e+00,2.248e+00,1.952e+00,2.144e+00,3.194e+00,2.481e+00,2.925e+00,1.614e+00,2.541e+00,2.479e+00,2.556e+00,1.389e+00,1.971e+00,1.800e+00,2.226e+00,2.460e+00,9.207e-01,2.082e+00,1.745e+00,2.938e+00,1.954e+00,1.777e+00,2.824e+00,2.248e+00,2.381e+00,3.144e+00,2.301e+00,2.895e+00,1.889e+00,2.364e+00,2.363e+00,2.550e+00,3.267e+00,2.759e+00,1.744e+00,1.713e+00,3.332e+00,2.589e+00,1.728e+00,2.315e+00,1.885e+00,2.968e+00,1.886e+00,2.957e+00,2.360e+00,1.885e+00,2.191e+00,1.897e+00,2.282e+00,1.005e+00,1.911e+00,2.803e+00,1.896e+00
1.420e-01,3.809e-02,1.261e-01,3.075e-01,1.130e+00,1.208e+00,1.121e+00,2.050e+00,2.322e+00,2.982e+00,2.428e+00,2.642e+00,2.790e+00,3.206e+00,2.768e+00,3.542e+00,2.692e+00,3.531e+00,3.057e+00,2.154e+00,2.421e+00,2.956e+00,3.820e+00,2.648e+00,2.617e+00,3.404e+00,2.896e+00,2.677e+00,2.269e+00,2.983e+00,3.942e+00,3.535e+00,3.851e+00,1.660e+00,3.313e+00,3.492e+00,2.470e+00,2.307e+00,1.750e+00,3.063e+00,3.146e+00,2.800e+00,2.543e+00,3.361e+00,3.202e+00,3.732e+00,2.599e+00,2.532e+00,3.095e+00,3.653e+00,2.632e+00,3.632e+00,3.329e+00,3.606e+00,3.278e+00,3.240e+00,2.706e+00,3.085e+00,3.618e+00,2.231e+00,1.840e+00,2.826e+00,3.072e+00,2.918e+00,2.980e+00,2.581e+00,3.325e+00,2.302e+00,1.752e+00,3.593e+00,3.480e+00,3.007e+00,2.707e+00,2.760e+00,2.297e+00,2.379e+00,2.568e+00,2.747e+00,3.229e+00
4.599e-01,2.148e-01,4.125e-01,7.153e-01,1.057e+00,1.324e+00,1.573e+00,1.022e+00,1.854e+00,2.427e+00,1.584e+00,2.954e+00,2.665e+00,1.906e+00,2.810e+00,3.108e+00,2.854e+00,3.278e+00,2.726e+00,2.348e+00,2.549e+00,2.895e+00,3.265e+00,2.779e+00,2.630e+00,2.244e+00,3.446e+00,2.773e+00,2.196e+00,2.654e+00,3.086e+00,2.857e+00,3.585e+00,1.972e+00,2.927e+00,2.789e+00,2.703e+00,2.663e+00,2.378e+00,1.894e+00,2.598e+00,3.337e+00,1.311e+00,2.626e+00,2.061e+00,2.859e+00,3.099e+00,2.189e+00,2.533e+00,3.017e+00,2.946e+00,3.422e+00,3.230e+00,3.063e+00,2.683e+00,2.321e+00,2.077e+00,3.084e+00,3.096e+00,2.900e+00,2.039e+00,1.697e+00,2.626e+00,2.556e+00,2.736e+00,2.707e+00,2.288e+00,3.283e+00,2.673e+00,2.786e+00,2.172e+00,3.234e+00,2.643e+00,2.507e+00,2.344e+00,2.017e+00,3.114e+00,2.304e+00,2.756e+00
5.925e-01,3.289e-01,5.407e-01,9.889e-01,1.226e+00,1.902e+00,1.865e+00,1.559e+00,2.615e+00,3.418e+00,2.353e+00,3.342e+00,4.052e+00,3.329e+00,4.134e+00,4.290e+00,4.460e+00,4.527e+00,4.449e+00,3.764e+00,4.420e+00,3.683e+00,5.046e+00,3.657e+00,3.594e+00,3.838e+00,3.948e+00,4.223e+00,3.096e+00,3.172e+00,4.740e+00,3.750e+00,5.369e+00,2.528e+00,3.606e+00,4.636e+00,3.841e+00,3.395e+00,3.703e+00,3.738e+00,4.171e+00,3.881e+00,2.744e+00,3.535e+00,3.652e+00,4.165e+00,4.179e+00,3.366e+00,4.192e+00,4.047e+00,3.585e+00,5.440e+00,4.194e+00,4.752e+00,3.678e+00,4.126e+00,3.820e+00,3.640e+00,4.956e+00,3.939e+00,3.420e+00,2.783e+00,4.204e+00,3.504e+00,3.506e+00,3.173e+00,3.794e+00,3.972e+00,3.581e+00,4.850e+00,4.025e+00,4.565e+00,3.146e+00,3.845e+00,3.022e+00,2.862e+00,3.609e+00,3.889e+00,4.166e+00
4.580e-02,2.473e-02,6.468e-02,2.575e-01,1.310e+00,1.373e+00,1.534e+00,1.560e+00,2.289e+00,2.894e+00,1.468e+00,2.881e+00,3.052e+00,2.726e+00,3.765e+00,3.469e+00,3.940e+00,3.680e+00,4.177e+00,3.519e+00,3.445e+00,3.162e+00,3.443e+00,3.231e+00,3.304e+00,2.706e+00,3.560e+00,3.711e+00,3.175e+00,3.379e+00,3.696e+00,3.592e+00,4.302e+00,2.693e+00,2.993e+00,4.655e+00,4.263e+00,2.674e+00,2.715e+00,3.361e+00,3.904e+00,3.483e+00,2.176e+00,3.196e+00,3.121e+00,4.577e+00,3.523e+00,3.208e+00,4.186e+00,3.497e+00,3.215e+00,3.963e+00,3.345e+00,4.569e+00,3.485e+00,4.117e+00,3.303e+00,3.180e+00,5.173e+00,3.606e+00,2.742e+00,2.062e+00,4.035e+00,2.711e+00,3.486e+00,2.967e+00,3.671e+00,4.087e+00,3.504e+00,4.767e+00,2.785e+00,4.254e+00,3.458e+00,3.860e+00,3.804e+00,2.021e+00,3.084e+00,4.084e+00,4.037e+00
4.310e-01,4.034e-01,4.649e-01,1.072e+00,1.340e+00,1.731e+00,1.502e+00,2.071e+00,2.176e+00,3.671e+00,2.633e+00,4.294e+00,4.287e+00,4.115e+00,5.131e+00,4.842e+00,5.255e+00,5.990e+00,5.658e+00,4.977e+00,5.226e+00,5.028e+00,5.917e+00,5.096e+00,4.525e+00,4.728e+00,5.249e+00,4.778e+00,4.345e+00,4.928e+00,5.359e+00,5.330e+00,6.011e+00,4.140e+00,5.290e+00,5.586e+00,6.226e+00,3.728e+00,3.996e+00,4.681e+00,5.071e+00,4.359e+00,2.988e+00,5.085e+00,4.640e+00,5.811e+00,4.887e+00,3.536e+00,5.341e+00,5.294e+00,5.192e+00,5.430e+00,5.808e+00,5.356e+00,5.133e+00,5.154e+00,4.819e+00,5.133e+00,6.250e+00,4.491e+00,3.605e+00,3.457e+00,5.144e+00,5.138e+00,4.364e+00,4.612e+00,5.236e+00,5.443e+00,4.579e+00,5.465e+00,5.475e+00,5.502e+00,4.662e+00,5.216e+00,4.522e+00,3.948e+00,4.730e+00,4.609e+00,5.323e+00
4.670e-01,3.365e-01,4.574e-01,8.960e-01,8.461e-01,1.642e+00,1.731e+00,1.980e+00,1.981e+00,2.918e+00,2.221e+00,3.798e+00,3.288e+00,2.603e+00,3.920e+00,4.241e+00,5.004e+00,4.626e+00,4.662e+00,5.151e+00,4.560e+00,4.194e+00,4.473e+00,4.686e+00,3.943e+00,3.309e+00,4.960e+00,5.077e+00,4.748e+00,4.569e+00,4.127e+00,4.994e+00,4.802e+00,3.912e+00,5.375e+00,5.360e+00,5.268e+00,3.697e+00,4.654e+00,4.264e+00,4.653e+00,3.890e+00,2.413e+00,4.141e+00,3.231e+00,4.582e+00,4.833e+00,3.870e+00,5.139e+00,4.416e+00,4.834e+00,4.901e+00,5.228e+00,5.018e+00,4.655e+00,5.193e+00,4.729e+00,5.096e+00,5.960e+00,4.708e+00,3.357e+00,3.319e+00,5.166e+00,4.546e+00,3.873e+00,4.082e+00,4.849e+00,5.258e+00,4.464e+00,5.100e+00,4.704e+00,4.594e+00,4.202e+00,4.328e+00,4.285e+00,4.083e+00,4.385e+00,4.540e+00,4.763e+00
5.997e-01,4.595e-01,5.947e-01,1.184e+00,9.013e-01,1.688e+00,1.556e+00,1.683e+00,1.850e+00,3.129e+00,2.531e+00,3.181e+00,3.563e+00,3.637e+00,4.064e+00,4.837e+00,5.037e+00,4.602e+00,4.480e+00,4.895e+00,4.588e+00,3.666e+00,5.878e+00,5.482e+00,4.509e+00,4.226e+00,4.546e+00,4.477e+00,4.949e+00,5.134e+00,5.422e+00,5.417e+00,5.526e+00,3.821e+00,4.584e+00,5.435e+00,5.226e+00,3.510e+00,4.476e+00,4.334e+00,5.794e+00,3.776e+00,3.134e+00,3.750e+00,3.768e+00,5.072e+00,4.389e+00,4.536e+00,4.915e+00,5.788e+00,4.598e+00,5.367e+00,4.699e+00,5.186e+00,4.571e+00,5.826e+00,5.179e+00,5.148e+00,5.590e+00,4.179e+00,3.431e+00,4.024e+00,5.216e+00,5.363e+00,4.163e+00,3.641e+00,5.385e+00,5.254e+00,4.337e+00,6.329e+00,5.550e+00,4.448e+00,4.379e+00,4.397e+00,4.216e+00,3.563e+00,4.003e+00,4.512e+00,5.309e+00
8.790e-02,1.723e-01,1.484e-01,4.746e-01,7.534e-01,1.025e+00,1.131e+00,1.113e+00,1.809e+00,2.322e+00,1.436e+00,2.638e+00,2.858e+00,2.557e+00,3.083e+00,3.620e+00,4.282e+00,5.075e+00,4.703e+00,4.764e+00,4.770e+00,4.313e+00,4.934e+00,4.019e+00,3.589e+00,3.186e+00,4.137e+00,4.516e+00,4.304e+00,3.834e+00,4.279e+00,5.147e+00,5.213e+00,3.383e+00,4.725e+00,5.062e+00,4.653e+00,3.949e+00,5.131e+00,5.224e+00,4.696e+00,4.173e+00,3.913e+00,3.882e+00,3.621e+00,5.186e+00,5.325e+00,4.666e+00,4.989e+00,5.162e+00,4.812e+00,5.022e+00,4.720e+00,5.531e+00,5.256e+00,5.586e+00,4.153e+00,4.982e+00,5.912e+00,4.291e+00,3.214e+00,3.953e+00,5.127e+00,3.939e+00,4.773e+00,4.568e+00,5.835e+00,4.461e+00,5.157e+00,5.321e+00,4.994e+00,5.288e+00,4.582e+00,4.711e+00,4.122e+00,3.888e+00,4.151e+00,4.434e+00,6.060e+00
3.742e-01,1.978e-01,3.279e-01,5.587e-01,7.555e-01,1.133e+00,1.121e+00,1.876e+00,1.461e+00,2.180e+00,1.920e+00,3.175e+00,2.431e+00,1.894e+00,3.110e+00,3.308e+00,4.546e+00,4.137e+00,5.272e+00,5.739e+00,4.874e+00,4.082e+00,5.572e+00,4.866e+00,3.698e+00,3.449e+00,4.781e+00,4.862e+00,5.566e+00,5.717e+00,3.619e+00,4.852e+00,4.175e+00,4.683e+00,5.846e+00,5.027e+00,5.949e+00,4.757e+00,6.084e+00,4.541e+00,5.814e+00,4.125e+00,3.439e+00,4.565e+00,3.273e+00,5.831e+00,4.707e+00,4.334e+00,4.696e+00,5.129e+00,5.184e+00,3.771e+00,5.227e+00,5.581e+00,5.233e+00,6.430e+00,5.408e+00,5.488e+00,6.826e+00,4.125e+00,3.957e+00,4.468e+00,4.816e+00,4.573e+00,4.835e+00,3.826e+00,5.659e+00,5.517e+00,5.236e+00,5.205e+00,5.215e+00,4.950e+00,5.373e+00,4.816e+00,4.692e+00,4.861e+00,4.984e+00,3.802e+00,5.909e+00
5.844e-03,2.246e-01,9.954e-02,4.438e-01,5.002e-01,1.425e+00,1.412e+00,2.175e+00,1.862e+00,2.749e+00,2.474e+00,3.337e+00,2.789e+00,2.859e+00,3.644e+00,3.570e+00,4.528e+00,4.692e+00,4.776e+00,5.475e+00,5.019e+00,4.423e+00,6.373e+00,4.870e+00,4.088e+00,4.328e+00,4.772e+00,6.000e+00,6.001e+00,5.087e+00,4.881e+00,5.776e+00,5.186e+00,4.407e+00,4.859e+00,5.880e+00,6.538e+00,4.601e+00,5.965e+00,5.674e+00,6.689e+00,5.125e+00,4.837e+00,4.636e+00,4.269e+00,5.896e+00,5.582e+00,4.718e+00,5.320e+00,5.809e+00,4.633e+00,5.796e+00,5.033e+00,6.168e+00,5.486e+00,6.517e+00,5.735e+00,5.656e+00,6.985e+00,5.045e+00,4.374e+00,4.021e+00,4.825e+00,4.790e+00,5.369e+00,3.918e+00,6.147e+00,5.457e+00,5.222e+00,6.691e+00,5.982e+00,4.975e+00,4.902e+00,5.241e+00,5.456e+00,5.005e+00,4.330e+00,4.716e+00,5.913e+00
7.187e-01,2.282e-01,5.681e-01,7.416e-01,4.611e-01,1.087e+00,1.181e+00,1.677e+00,2.018e+00,2.225e+00,2.166e+00,2.662e+00,2.801e+00,2.164e+00,2.378e+00,2.779e+00,4.359e+00,3.645e+00,5.593e+00,5.103e+00,5.259e+00,4.534e+00,5.923e+00,4.222e+00,3.649e+00,4.265e+00,4.705e+00,5.791e+00,5.489e+00,5.413e+00,3.646e+00,4.451e+00,4.192e+00,4.945e+00,4.831e+00,4.685e+00,5.844e+00,3.825e+00,5.713e+00,4.521e+00,6.319e+00,4.365e+00,4.018e+00,5.065e+00,3.931e+00,5.940e+00,4.187e+00,4.515e+00,4.958e+00,4.050e+00,4.645e+00,4.196e+00,4.483e+00,5.311e+00,4.620e+00,6.145e+00,4.975e+00,4.834e+00,6.283e+00,3.766e+00,4.146e+00,4.278e+00,3.866e+00,4.361e+00,4.402e+00,3.403e+00,5.024e+00,5.401e+00,4.741e+00,5.438e+00,4.944e+00,4.554e+00,5.577e+00,5.045e+00,4.546e+00,4.332e+00,4.186e+00,4.044e+00,5.415e+00
5.028e-01,1.687e-01,4.236e-01,6.954e-01,1.308e+00,1.693e+00,1.918e+00,1.971e+00,2.687e+00,3.308e+00,2.432e+00,3.689e+00,3.905e+00,3.174e+00,4.257e+00,4.407e+00,5.203e+00,5.902e+00,5.893e+00,5.309e+00,6.231e+00,6.062e+00,7.070e+00,5.951e+00,5.171e+00,5.387e+00,7.080e+00,6.889e+00,6.110e+00,6.029e+00,6.013e+00,6.184e+00,6.937e+00,5.701e+00,6.536e+00,6.427e+00,7.451e+00,5.856e+00,7.336e+00,6.019e+00,7.411e+00,6.124e+00,4.905e+00,6.959e+00,5.466e+00,6.867e+00,6.895e+00,5.894e+00,6.506e+00,5.752e+00,6.767e+00,7.261e+00,6.827e+00,7.206e+00,6.696e+00,7.569e+00,6.214e+00,6.902e+00,7.916e+00,6.003e+00,5.431e+00,5.413e+00,6.505e+00,6.243e+00,6.522e+00,5.716e+00,6.764e+00,6.645e+00,6.017e+00,7.218e+00,6.632e+00,6.740e+00,6.127e+00,6.735e+00,5.549e+00,5.517e+00,6.893e+00,5.863e+00,7.360e+00
3.106e-01,3.911e-01,3.639e-01,9.324e-01,9.712e-01,1.404e+00,8.240e-01,1.530e+00,1.441e+00,2.722e+00,2.007e+00,2.946e+00,2.931e+00,2.966e+00,3.389e+00,4.169e+00,4.378e+00,3.914e+00,4.386e+00,4.473e+00,5.689e+00,5.473e+00,7.013e+00,6.566e+00,4.754e+00,6.257e+00,6.405e+00,6.742e+00,6.201e+00,6.523e+00,5.912e+00,6.756e+00,6.140e+00,5.115e+00,5.198e+00,5.920e+00,7.884e+00,4.891e+00,6.297e+00,6.440e+00,7.487e+00,6.084e+00,5.371e+00,5.915e+00,5.962e+00,6.328e+00,5.651e+00,4.933e+00,6.489e+00,6.642e+00,6.530e+00,7.062e+00,5.944e+00,5.789e+00,6.023e+00,7.536e+00,5.896e+00,6.634e+00,6.473e+00,5.059e+00,4.842e+00,4.608e+00,5.685e+00,7.670e+00,6.977e+00,5.186e+00,6.364e+00,6.836e+00,6.313e+00,7.949e+00,7.493e+00,4.970e+00,5.104e+00,6.512e+00,5.743e+00,4.726e+00,5.994e+00,6.806e+00,7.378e+00
5.439e-01,1.448e-01,4.375e-01,5.879e-01,9.598e-01,1.069e+00,1.590e+00,1.718e+00,2.769e+00,2.920e+00,2.487e+00,3.908e+00,3.648e+00,3.214e+00,3.773e+00,4.373e+00,5.220e+00,5.970e+00,5.447e+00,5.048e+00,6.296e+00,6.496e+00,7.728e+00,6.146e+00,4.210e+00,6.625e+00,7.063e+00,8.421e+00,6.729e+00,6.379e+00,5.327e+00,7.381e+00,7.138e+00,5.646e+00,6.676e+00,6.512e+00,6.934e+00,5.569e+00,6.848e+00,7.045e+00,7.953e+00,7.326e+00,6.125e+00,6.750e+00,6.314e+00,6.539e+00,7.343e+00,6.061e+00,7.381e+00,7.199e+00,7.015e+00,6.767e+00,7.589e+00,7.055e+00,7.405e+00,7.813e+00,5.828e+00,7.059e+00,7.483e+00,6.082e+00,4.507e+00,5.387e+00,5.803e+00,5.365e+00,7.003e+00,5.848e+00,7.751e+00,6.311e+00,6.917e+00,7.477e+00,7.202e+00,6.773e+00,6.406e+00,6.871e+00,5.940e+00,6.790e+00,6.166e+00,5.718e+00,8.154e+00
5.180e-01,2.949e-01,4.668e-01,8.361e-01,7.437e-01,1.887e+00,1.795e+00,2.603e+00,2.901e+00,3.635e+00,3.137e+00,3.897e+00,3.729e+00,3.554e+00,3.865e+00,4.658e+00,6.208e+00,5.750e+00,6.990e+00,7.095e+00,7.072e+00,6.733e+00,7.074e+00,6.712e+00,6.517e+00,6.989e+00,7.906e+00,7.762e+00,8.249e+00,8.311e+00,6.898e+00,8.151e+00,7.406e+00,6.494e+00,7.935e+00,7.934e+00,8.219e+00,6.627e+00,8.481e+00,8.233e+00,8.690e+00,7.320e+00,6.652e+00,7.150e+00,6.371e+00,8.200e+00,7.869e+00,6.557e+00,8.076e+00,7.138e+00,7.611e+00,7.214e+00,7.943e+00,8.689e+00,8.462e+00,9.432e+00,6.835e+00,7.748e+00,9.597e+00,6.856e+00,5.498e+00,6.748e+00,7.057e+00,6.859e+00,6.627e+00,6.665e+00,8.869e+00,7.657e+00,6.660e+00,8.051e+00,8.445e+00,6.722e+00,7.874e+00,6.531e+00,7.366e+00,6.852e+00,7.064e+00,6.428e+00,8.159e+00
2.062e-01,3.405e-01,2.900e-01,8.294e-01,1.218e+00,1.515e+00,1.414e+00,1.506e+00,2.146e+00,3.339e+00,1.961e+00,3.332e+00,3.034e+00,3.136e+00,3.758e+00,4.389e+00,4.410e+00,4.292e+00,4.900e+00,5.415e+00,5.937e+00,4.987e+00,7.152e+00,6.682e+00,5.323e+00,7.091e+00,7.651e+00,6.747e+00,6.595e+00,7.800e+00,6.106e+00,8.296e+00,7.392e+00,5.913e+00,6.344e+00,6.692e+00,8.737e+00,6.918e+00,7.343e+00,6.686e+00,8.077e+00,8.060e+00,6.430e+00,5.655e+00,5.864e+00,7.817e+00,6.883e+00,6.037e+00,7.250e+00,7.610e+00,7.402e+00,6.597e+00,6.232e+00,7.693e+00,7.583e+00,8.084e+00,6.926e+00,7.463e+00,8.609e+00,6.776e+00,4.607e+00,6.302e+00,6.942e+00,6.964e+00,7.299e+00,6.521e+00,7.590e+00,7.387e+00,7.996e+00,8.739e+00,7.433e+00,6.964e+00,7.367e+00,7.467e+00,7.085e+00,5.691e+00,6.815e+00,6.451e+00,8.499e+00
2.191e-01,3.824e-01,3.133e-01,8.823e-01,8.631e-01,1.622e+00,1.549e+00,2.256e+00,2.240e+00,3.470e+00,2.721e+00,4.124e+00,3.879e+00,3.907e+00,4.692e+00,4.685e+00,5.588e+00,6.068e+00,6.427e+00,6.456e+00,7.016e+00,6.464e+00,8.036e+00,6.267e+00,5.313e+00,6.760e+00,7.069e+00,8.883e+00,7.800e+00,7.507e+00,6.322e+00,8.814e+00,7.646e+00,7.075e+00,6.652e+00,7.961e+00,8.872e+00,5.615e+00,7.811e+00,7.413e+00,9.384e+00,7.658e+00,6.314e+00,7.689e+00,7.006e+00,7.627e+00,7.552e+00,6.981e+00,8.318e+00,7.482e+00,7.513e+00,7.865e+00,7.525e+00,9.118e+00,7.767e+00,8.848e+00,7.504e+00,7.472e+00,9.222e+00,7.389e+00,5.648e+00,5.892e+00,6.631e+00,6.740e+00,7.877e+00,6.300e+00,8.447e+00,7.237e+00,7.486e+00,9.000e+00,8.763e+00,7.327e+00,7.681e+00,7.878e+00,7.336e+00,7.091e+00,7.038e+00,7.154e+00,8.615e+00
5.778e-01,4.014e-01,5.604e-01,1.101e+00,1.137e+00,2.290e+00,2.316e+00,2.871e+00,2.609e+00,3.918e+00,3.297e+00,3.530e+00,3.569e+00,3.264e+00,4.124e+00,4.791e+00,4.616e+00,4.787e+00,5.271e+00,5.880e+00,6.017e+00,5.491e+00,7.125e+00,6.227e+00,6.350e+00,7.937e+00,8.273e+00,9.330e+00,8.620e+00,8.588e+00,6.860e+00,9.776e+00,8.669e+00,7.285e+00,7.419e+00,7.938e+00,9.633e+00,5.838e+00,8.240e+00,8.823e+00,1.065e+01,8.749e+00,7.699e+00,6.424e+00,7.671e+00,8.728e+00,7.671e+00,7.189e+00,1.004e+01,8.785e+00,7.966e+00,8.072e+00,7.909e+00,8.952e+00,8.124e+00,1.007e+01,8.152e+00,9.028e+00,9.947e+00,8.294e+00,6.687e+00,5.703e+00,6.986e+00,8.298e+00,8.369e+00,7.184e+00,8.912e+00,8.270e+00,7.759e+00,1.051e+01,9.030e+00,6.961e+00,8.487e+00,8.519e+00,8.834e+00,6.832e+00,7.079e+00,7.747e+00,8.483e+00
6.821e-01,4.253e-01,6.228e-01,1.086e+00,6.110e-01,1.568e+00,1.477e+00,2.399e+00,2.166e+00,2.985e+00,2.753e+00,3.435e+00,3.438e+00,2.590e+00,3.189e+00,3.292e+00,4.673e+00,4.733e+00,5.962e+00,5.927e+00,6.348e+00,5.243e+00,7.398e+00,5.257e+00,4.575e+00,6.929e+00,6.571e+00,9.096e+00,8.119e+00,7.686e+00,5.985e+00,8.711e+00,7.550e+00,7.010e+00,7.559e+00,7.140e+00,8.522e+00,6.816e+00,9.347e+00,7.776e+00,9.730e+00,7.749e+00,7.253e+00,7.508e+00,6.891e+00,8.331e+00,7.878e+00,6.941e+00,8.424e+00,7.883e+00,7.386e+00,7.358e+00,7.233e+00,9.116e+00,7.987e+00,9.819e+00,7.756e+00,8.565e+00,1.021e+01,7.966e+00,6.352e+00,6.928e+00,6.452e+00,6.964e+00,7.967e+00,6.726e+00,8.339e+00,7.510e+00,8.064e+00,9.382e+00,8.872e+00,6.603e+00,8.313e+00,8.698e+00,7.365e+00,7.686e+00,7.310e+00,6.447e+00,9.339e+00
6.602e-01,4.291e-01,6.187e-01,1.077e+00,4.461e-01,1.339e+00,1.527e+00,1.777e+00,2.551e+00,3.193e+00,2.635e+00,4.021e+00,3.531e+00,3.392e+00,3.321e+00,4.397e+00,5.733e+00,4.531e+00,5.147e+00,5.767e+00,5.657e+00,5.007e+00,6.525e+00,6.418e+00,5.034e+00,6.247e+00,6.982e+00,8.263e+00,7.922e+00,8.667e+00,7.183e+00,9.593e+00,7.232e+00,6.964e+00,7.412e+00,8.302e+00,8.498e+00,7.001e+00,7.603e+00,7.538e+00,9.232e+00,8.238e+00,6.667e+00,7.855e+00,7.282e+00,7.990e+00,8.412e+00,7.625e+00,7.829e+00,8.869e+00,7.318e+00,6.840e+00,7.545e+00,8.570e+00,8.169e+00,9.208e+00,7.814e+00,8.568e+00,1.031e+01,7.853e+00,5.543e+00,7.571e+00,6.442e+00,7.314e+00,7.856e+00,6.881e+00,8.294e+00,8.344e+00,7.281e+00,9.516e+00,8.822e+00,6.770e+00,8.255e+00,7.746e+00,7.621e+00,7.268e+00,6.909e+00,7.653e+00,8.296e+00
8.389e-02,2.150e-01,1.493e-01,5.293e-01,8.071e-01,1.043e+00,7.390e-01,1.208e+00,1.018e+00,1.850e+00,9.537e-01,1.974e+00,1.793e+00,1.140e+00,2.050e+00,2.197e+00,2.543e+00,2.805e+00,3.305e+00,3.450e+00,4.031e+00,3.607e+00,3.731e+00,3.245e+00,3.488e+00,3.798e+00,4.141e+00,4.576e+00,4.593e+00,4.989e+00,4.758e+00,6.202e+00,5.774e+00,4.582e+00,5.596e+00,5.538e+00,5.958e+00,5.492e+00,5.399e+00,6.575e+00,6.417e+00,5.876e+00,6.037e+00,5.734e+00,6.391e+00,5.756e+00,5.862e+00,5.719e+00,6.457e+00,6.242e+00,5.753e+00,4.660e+00,5.443e+00,6.523e+00,6.050e+00,6.618e+00,5.655e+00,5.774e+00,7.679e+00,5.401e+00,4.403e+00,5.242e+00,5.313e+00,5.128e+00,6.287e+00,6.356e+00,5.852e+00,6.148e+00,5.222e+00,5.551e+00,6.542e+00,5.401e+00,7.095e+00,5.173e+00,6.515e+00,5.822e+00,6.183e+00,6.108e+00,5.865e+00
8.624e-02,2.517e-01,1.634e-01,5.104e-01,2.315e-01,6.419e-01,5.782e-01,7.682e-01,6.383e-01,1.256e+00,9.008e-01,1.897e+00,1.381e+00,1.257e+00,1.740e+00,1.796e+00,2.399e+00,2.222e+00,3.047e+00,3.109e+00,2.885e+00,2.670e+00,3.499e+00,2.927e+00,3.009e+00,3.268e+00,4.229e+00,3.967e+00,4.106e+00,4.856e+00,3.879e+00,5.991e+00,4.490e+00,4.299e+00,4.065e+00,5.209e+00,5.902e+00,4.652e+00,5.149e+00,5.089e+00,5.390e+00,4.980e+00,4.628e+00,5.181e+00,4.874e+00,4.517e+00,4.714e+00,4.529e+00,5.509e+00,5.083e+00,5.483e+00,4.531e+00,4.693e+00,5.128e+00,4.874e+00,5.682e+00,4.891e+00,4.711e+00,6.172e+00,5.039e+00,3.917e+00,4.257e+00,4.072e+00,4.401e+00,5.624e+00,4.843e+00,4.879e+00,5.638e+00,4.780e+00,4.959e+00,5.617e+00,4.719e+00,5.609e+00,4.683e+00,5.230e+00,4.218e+00,5.172e+00,5.385e+00,5.011e+00
4.455e-01,1.205e-01,3.604e-01,5.158e-01,8.387e-01,1.544e+00,1.879e+00,1.741e+00,2.377e+00,2.732e+00,2.317e+00,2.692e+00,3.176e+00,2.904e+00,3.597e+00,4.407e+00,4.499e+00,4.682e+00,4.968e+00,5.359e+00,5.695e+00,5.200e+00,6.157e+00,5.531e+00,5.207e+00,6.632e+00,8.132e+00,9.426e+00,8.254e+00,8.391e+00,7.943e+00,1.042e+01,9.450e+00,8.072e+00,7.947e+00,1.029e+01,9.654e+00,8.351e+00,9.430e+00,1.021e+01,1.171e+01,1.017e+01,8.999e+00,8.494e+00,9.569e+00,8.875e+00,9.582e+00,9.665e+00,1.071e+01,1.022e+01,9.522e+00,9.164e+00,8.866e+00,1.046e+01,9.516e+00,1.142e+01,9.630e+00,9.517e+00,1.250e+01,9.276e+00,7.918e+00,8.470e+00,8.258e+00,8.262e+00,1.091e+01,8.787e+00,1.011e+01,9.545e+00,9.068e+00,1.186e+01,1.016e+01,9.555e+00,9.859e+00,9.959e+00,1.009e+01,8.357e+00,9.338e+00,9.892e+00,1.069e+01
7.979e-01,2.784e-01,6.553e-01,9.644e-01,1.006e+00,1.695e+00,1.833e+00,1.577e+00,2.513e+00,2.936e+00,2.270e+00,2.550e+00,3.429e+00,2.563e+00,3.003e+00,4.294e+00,4.732e+00,4.146e+00,5.157e+00,5.319e+00,5.900e+00,4.670e+00,7.052e+00,5.907e+00,5.375e+00,6.712e+00,7.169e+00,8.401e+00,7.418e+00,8.040e+00,6.441e+00,9.319e+00,8.466e+00,7.360e+00,8.356e+00,9.026e+00,9.257e+00,7.441e+00,1.023e+01,1.029e+01,1.081e+01,9.844e+00,8.251e+00,6.868e+00,8.057e+00,8.789e+00,8.146e+00,9.213e+00,9.543e+00,1.092e+01,9.415e+00,9.027e+00,8.319e+00,9.205e+00,8.170e+00,1.140e+01,9.730e+00,9.533e+00,1.067e+01,7.826e+00,7.847e+00,8.207e+00,8.521e+00,8.306e+00,9.893e+00,8.740e+00,9.224e+00,9.334e+00,8.587e+00,1.069e+01,9.583e+00,8.538e+00,9.010e+00,8.358e+00,8.699e+00,8.186e+00,7.978e+00,8.805e+00,9.868e+00
2.241e-01,7.825e-02,1.839e-01,3.304e-01,6.828e-01,1.305e+00,1.150e+00,2.057e+00,1.663e+00,2.429e+00,2.254e+00,2.794e+00,2.845e+00,2.880e+00,3.568e+00,2.935e+00,4.237e+00,4.481e+00,4.889e+00,4.559e+00,5.083e+00,5.064e+00,5.859e+00,5.487e+00,5.280e+00,5.906e+00,7.097e+00,7.371e+00,7.265e+00,8.041e+00,6.348e+00,8.875e+00,8.061e+00,8.018e+00,8.154e+00,8.669e+00,1.064e+01,8.039e+00,9.250e+00,9.604e+00,1.058e+01,8.388e+00,8.516e+00,9.256e+00,9.065e+00,8.366e+00,7.785e+00,8.374e+00,8.777e+00,9.259e+00,8.797e+00,8.984e+00,8.447e+00,9.274e+00,8.081e+00,9.980e+00,9.251e+00,8.606e+00,1.152e+01,8.528e+00,7.349e+00,8.258e+00,8.012e+00,8.714e+00,8.764e+00,8.432e+00,8.547e+00,9.121e+00,7.290e+00,9.819e+00,9.417e+00,8.163e+00,9.288e+00,7.690e+00,9.776e+00,8.934e+00,8.599e+00,7.874e+00,7.763e+00
2.725e-01,2.402e-01,2.834e-01,5.813e-01,2.552e-01,7.533e-01,8.030e-01,1.755e+00,1.763e+00,2.188e+00,2.284e+00,2.911e+00,2.785e+00,3.048e+00,2.809e+00,3.697e+00,4.895e+00,4.978e+00,5.486e+00,5.323e+00,5.316e+00,4.990e+00,7.330e+00,6.098e+00,4.792e+00,7.857e+00,7.646e+00,8.703e+00,8.213e+00,8.839e+00,7.399e+00,1.065e+01,9.030e+00,8.101e+00,9.114e+00,9.989e+00,1.169e+01,9.032e+00,1.079e+01,1.140e+01,1.251e+01,9.216e+00,9.742e+00,9.543e+00,1.050e+01,9.573e+00,1.114e+01,9.713e+00,1.046e+01,1.166e+01,1.168e+01,9.840e+00,9.796e+00,9.876e+00,9.834e+00,1.135e+01,9.174e+00,1.104e+01,1.189e+01,8.568e+00,9.107e+00,9.731e+00,8.685e+00,1.008e+01,1.100e+01,9.226e+00,1.188e+01,9.806e+00,1.009e+01,1.141e+01,1.115e+01,9.598e+00,1.014e+01,1.001e+01,9.435e+00,1.104e+01,8.753e+00,9.022e+00,1.113e+01
2.661e-01,2.744e-01,3.016e-01,7.512e-01,1.133e+00,2.052e+00,2.012e+00,2.997e+00,3.119e+00,4.071e+00,3.317e+00,3.751e+00,3.277e+00,3.134e+00,3.350e+00,4.335e+00,4.115e+00,4.680e+00,4.405e+00,4.400e+00,4.629e+00,5.066e+00,6.048e+00,5.085e+00,5.377e+00,6.831e+00,6.988e+00,7.534e+00,6.669e+00,7.145e+00,7.524e+00,9.750e+00,8.606e+00,6.759e+00,8.497e+00,9.448e+00,1.047e+01,8.022e+00,8.736e+00,1.087e+01,1.144e+01,9.919e+00,9.100e+00,9.453e+00,1.013e+01,9.923e+00,9.205e+00,8.990e+00,9.684e+00,1.012e+01,1.023e+01,1.013e+01,9.942e+00,1.089e+01,9.279e+00,1.104e+01,8.875e+00,9.796e+00,1.216e+01,8.744e+00,8.433e+00,8.535e+00,8.853e+00,8.878e+00,9.667e+00,9.448e+00,1.098e+01,9.402e+00,7.684e+00,1.189e+01,1.084e+01,8.978e+00,9.500e+00,9.197e+00,1.005e+01,9.529e+00,9.039e+00,9.035e+00,1.007e+01
1.853e-01,2.675e-01,2.353e-01,6.539e-01,8.543e-01,1.185e+00,8.622e-01,1.592e+00,1.778e+00,2.692e+00,2.014e+00,3.351e+00,2.876e+00,2.925e+00,3.332e+00,3.767e+00,4.865e+00,4.993e+00,4.993e+00,4.687e+00,5.438e+00,5.946e+00,6.351e+00,6.203e+00,4.807e+00,6.590e+00,7.033e+00,7.719e+00,7.608e+00,8.242e+00,7.675e+00,1.015e+01,8.984e+00,7.835e+00,9.579e+00,9.244e+00,1.159e+01,9.152e+00,1.073e+01,1.156e+01,1.179e+01,1.032e+01,9.859e+00,1.138e+01,1.114e+01,1.073e+01,1.070e+01,1.045e+01,9.593e+00,1.141e+01,1.176e+01,1.122e+01,1.059e+01,1.057e+01,1.120e+01,1.182e+01,9.882e+00,1.221e+01,1.187e+01,9.321e+00,9.181e+00,1.088e+01,1.065e+01,1.149e+01,1.106e+01,1.021e+01,1.271e+01,1.103e+01,9.405e+00,1.156e+01,1.013e+01,1.078e+01,1.099e+01,9.795e+00,9.722e+00,1.062e+01,9.785e+00,1.038e+01,1.180e+01
3.671e-01,1.039e-01,2.946e-01,4.207e-01,7.771e-01,1.589e+00,1.847e+00,2.059e+00,2.529e+00,2.864e+00,2.690e+00,2.832e+00,2.648e+00,2.619e+00,3.176e+00,3.768e+00,4.573e+00,4.711e+00,4.368e+00,4.546e+00,5.202e+00,5.659e+00,6.845e+00,6.246e+00,5.553e+00,6.297e+00,7.508e+00,8.103e+00,7.740e+00,7.900e+00,7.167e+00,9.673e+00,9.193e+00,8.294e+00,8.645e+00,9.944e+00,1.052e+01,8.962e+00,9.871e+00,1.171e+01,1.252e+01,1.114e+01,1.036e+01,1.100e+01,1.065e+01,1.014e+01,9.446e+00,9.975e+00,9.910e+00,1.072e+01,1.040e+01,1.099e+01,1.040e+01,1.162e+01,1.067e+01,1.299e+01,1.000e+01,1.089e+01,1.205e+01,9.686e+00,8.589e+00,9.375e+00,9.915e+00,9.899e+00,1.132e+01,9.556e+00,1.216e+01,1.150e+01,8.662e+00,1.281e+01,1.053e+01,1.020e+01,1.085e+01,9.814e+00,1.087e+01,1.139e+01,1.102e+01,8.825e+00,1.112e+01
7.410e-02,1.535e-01,1.340e-01,4.586e-01,1.216e+00,1.386e+00,1.565e+00,1.646e+00,2.187e+00,3.045e+00,2.227e+00,3.008e+00,2.971e+00,3.189e+00,3.785e+00,4.236e+00,3.524e+00,4.614e+00,4.223e+00,4.234e+00,4.825e+00,4.248e+00,7.342e+00,5.262e+00,4.636e+00,6.118e+00,6.376e+00,6.651e+00,5.858e+00,6.728e+00,7.168e+00,8.994e+00,8.671e+00,6.413e+00,7.226e+00,8.972e+00,9.752e+00,8.189e+00,8.799e+00,1.047e+01,1.210e+01,1.115e+01,1.046e+01,1.030e+01,1.047e+01,9.480e+00,9.395e+00,1.108e+01,9.705e+00,1.065e+01,1.066e+01,1.108e+01,9.950e+00,1.089e+01,9.510e+00,1.091e+01,1.059e+01,1.039e+01,1.201e+01,9.478e+00,9.455e+00,9.934e+00,9.860e+00,9.046e+00,1.274e+01,8.734e+00,1.135e+01,1.021e+01,9.307e+00,1.139e+01,1.051e+01,1.125e+01,1.084e+01,9.608e+00,9.520e+00,1.008e+01,9.534e+00,1.025e+01,1.120e+01
5.713e-02,3.433e-01,1.813e-01,7.070e-01,6.437e-01,9.110e-01,6.334e-01,1.302e+00,1.487e+00,2.358e+00,1.211e+00,3.150e+00,2.969e+00,2.707e+00,3.435e+00,3.369e+00,4.955e+00,4.157e+00,5.499e+00,5.224e+00,5.676e+00,4.846e+00,5.429e+00,4.712e+00,3.634e+00,5.594e+00,5.697e+00,7.155e+00,6.384e+00,6.612e+00,5.910e+00,8.717e+00,7.568e+00,6.647e+00,6.315e+00,8.117e+00,8.473e+00,6.794e+00,7.854e+00,8.407e+00,9.820e+00,8.975e+00,8.209e+00,9.631e+00,9.120e+00,8.730e+00,9.083e+00,9.105e+00,1.023e+01,8.041e+00,9.324e+00,9.181e+00,8.496e+00,9.874e+00,1.001e+01,1.070e+01,9.070e+00,9.648e+00,1.228e+01,9.513e+00,7.822e+00,8.743e+00,9.396e+00,8.422e+00,1.013e+01,8.048e+00,1.033e+01,1.054e+01,9.822e+00,1.027e+01,9.544e+00,9.053e+00,9.017e+00,9.965e+00,8.940e+00,8.345e+00,8.971e+00,9.888e+00,1.084e+01
3.274e-02,3.485e-02,4.748e-02,2.174e-01,1.037e+00,9.993e-01,8.953e-01,1.242e+00,1.272e+00,1.841e+00,9.171e-01,2.235e+00,1.849e+00,1.054e+00,2.338e+00,2.280e+00,3.051e+00,3.475e+00,3.883e+00,3.964e+00,4.587e+00,4.307e+00,4.800e+00,4.770e+00,3.937e+00,4.085e+00,5.506e+00,6.302e+00,5.598e+00,6.074e+00,5.002e+00,7.231e+00,6.355e+00,6.743e+00,7.129e+00,6.699e+00,9.047e+00,6.847e+00,8.937e+00,8.621e+00,9.028e+00,9.978e+00,7.641e+00,9.340e+00,8.509e+00,9.233e+00,8.699e+00,8.216e+00,8.351e+00,9.197e+00,1.040e+01,8.202e+00,9.621e+00,9.881e+00,8.361e+00,9.519e+00,9.020e+00,1.006e+01,1.119e+01,7.740e+00,8.741e+00,7.663e+00,8.143e+00,7.935e+00,1.114e+01,8.073e+00,9.126e+00,9.342e+00,7.951e+00,9.732e+00,9.808e+00,9.331e+00,8.796e+00,8.717e+00,8.109e+00,8.946e+00,9.339e+00,9.098e+00,8.709e+00
4.255e-01,4.187e-01,4.483e-01,1.026e+00,8.915e-01,1.670e+00,1.077e+00,2.448e+00,2.333e+00,3.552e+00,2.948e+00,3.742e+00,4.111e+00,4.103e+00,4.274e+00,4.544e+00,6.157e+00,5.991e+00,6.424e+00,5.873e+00,6.711e+00,6.312e+00,7.727e+00,6.740e+00,5.736e+00,7.650e+00,7.088e+00,8.379e+00,8.130e+00,8.328e+00,8.580e+00,1.054e+01,1.016e+01,7.587e+00,9.146e+00,1.009e+01,1.164e+01,9.291e+00,1.107e+01,1.284e+01,1.347e+01,1.163e+01,1.283e+01,1.334e+01,1.401e+01,1.218e+01,1.174e+01,1.265e+01,1.299e+01,1.228e+01,1.290e+01,1.365e+01,1.251e+01,1.293e+01,1.388e+01,1.442e+01,1.234e+01,1.406e+01,1.533e+01,1.229e+01,1.046e+01,1.295e+01,1.349e+01,1.354e+01,1.248e+01,1.078e+01,1.457e+01,1.404e+01,1.107e+01,1.514e+01,1.426e+01,1.240e+01,1.264e+01,1.336e+01,1.198e+01,1.248e+01,1.235e+01,1.369e+01,1.409e+01
6.820e-01,4.473e-01,6.506e-01,1.267e+00,1.439e+00,2.275e+00,2.213e+00,2.220e+00,3.145e+00,4.190e+00,2.698e+00,3.612e+00,4.301e+00,3.472e+00,4.369e+00,5.015e+00,5.393e+00,5.454e+00,6.723e+00,6.557e+00,7.683e+00,6.327e+00,7.323e+00,6.190e+00,6.034e+00,7.763e+00,8.144e+00,8.314e+00,7.217e+00,7.473e+00,7.892e+00,9.353e+00,8.866e+00,7.973e+00,8.305e+00,9.433e+00,1.102e+01,8.409e+00,1.049e+01,1.064e+01,1.217e+01,1.216e+01,9.588e+00,1.109e+01,1.191e+01,1.174e+01,1.228e+01,1.071e+01,1.235e+01,1.086e+01,1.399e+01,1.146e+01,1.176e+01,1.337e+01,1.126e+01,1.294e+01,1.076e+01,1.160e+01,1.541e+01,1.069e+01,1.006e+01,1.027e+01,1.151e+01,1.013e+01,1.171e+01,1.130e+01,1.274e+01,1.296e+01,1.166e+01,1.429e+01,1.379e+01,1.150e+01,1.103e+01,1.301e+01,1.168e+01,1.064e+01,1.188e+01,1.180e+01,1.282e+01
2.829e-02,2.443e-01,1.353e-01,5.918e-01,1.144e+00,1.223e+00,1.191e+00,2.102e+00,2.027e+00,3.224e+00,2.368e+00,4.083e+00,3.377e+00,3.721e+00,4.308e+00,4.552e+00,4.479e+00,5.408e+00,5.283e+00,5.025e+00,5.068e+00,5.241e+00,6.578e+00,5.550e+00,4.629e+00,6.663e+00,7.651e+00,7.462e+00,6.707e+00,8.181e+00,7.340e+00,1.009e+01,8.248e+00,6.748e+00,8.287e+00,9.295e+00,1.005e+01,8.289e+00,9.319e+00,1.048e+01,1.114e+01,1.219e+01,1.036e+01,1.216e+01,1.177e+01,1.144e+01,1.133e+01,1.192e+01,1.273e+01,1.220e+01,1.270e+01,1.202e+01,1.164e+01,1.158e+01,1.279e+01,1.208e+01,1.158e+01,1.313e+01,1.377e+01,1.243e+01,9.224e+00,1.176e+01,1.109e+01,1.163e+01,1.336e+01,1.028e+01,1.380e+01,1.192e+01,1.176e+01,1.355e+01,1.206e+01,1.196e+01,1.229e+01,1.247e+01,1.089e+01,1.038e+01,1.191e+01,1.193e+01,1.356e+01
4.133e-01,1.770e-01,3.549e-01,5.868e-01,1.105e+00,1.548e+00,1.718e+00,2.343e+00,2.741e+00,3.531e+00,2.962e+00,4.429e+00,3.740e+00,3.710e+00,4.581e+00,4.906e+00,5.322e+00,5.609e+00,5.403e+00,5.677e+00,5.948e+00,5.695e+00,6.929e+00,6.352e+00,5.408e+00,6.887e+00,8.894e+00,8.853e+00,8.105e+00,9.161e+00,7.507e+00,1.027e+01,8.949e+00,8.561e+00,1.006e+01,9.761e+00,1.074e+01,9.011e+00,1.024e+01,1.051e+01,1.255e+01,1.242e+01,1.010e+01,1.270e+01,1.239e+01,1.240e+01,1.195e+01,1.190e+01,1.328e+01,1.246e+01,1.318e+01,1.281e+01,1.359e+01,1.288e+01,1.426e+01,1.426e+01,1.391e+01,1.500e+01,1.637e+01,1.361e+01,1.070e+01,1.265e+01,1.262e+01,1.218e+01,1.286e+01,1.143e+01,1.398e+01,1.353e+01,1.141e+01,1.535e+01,1.299e+01,1.272e+01,1.205e+01,1.365e+01,1.233e+01,1.272e+01,1.344e+01,1.225e+01,1.331e+01
1.378e-03,2.669e-01,1.142e-01,6.287e-01,1.027e+00,1.540e+00,9.044e-01,2.008e+00,1.906e+00,3.248e+00,2.299e+00,3.250e+00,3.163e+00,3.674e+00,3.684e+00,4.375e+00,4.353e+00,4.110e+00,4.786e+00,4.537e+00,5.022e+00,4.956e+00,5.844e+00,5.304e+00,5.337e+00,6.227e+00,6.764e+00,6.136e+00,6.637e+00,8.361e+00,8.045e+00,9.496e+00,8.034e+00,7.007e+00,7.780e+00,9.368e+00,1.092e+01,8.761e+00,8.670e+00,1.116e+01,1.184e+01,1.163e+01,1.088e+01,1.156e+01,1.256e+01,1.180e+01,1.143e+01,1.147e+01,1.196e+01,1.289e+01,1.344e+01,1.247e+01,1.174e+01,1.267e+01,1.247e+01,1.259e+01,1.226e+01,1.307e+01,1.537e+01,1.096e+01,1.045e+01,1.191e+01,1.222e+01,1.251e+01,1.284e+01,1.168e+01,1.230e+01,1.386e+01,1.069e+01,1.413e+01,1.364e+01,1.153e+01,1.283e+01,1.275e+01,1.230e+01,1.151e+01,1.238e+01,1.374e+01,1.239e+01
7.665e-01,2.178e-01,6.195e-01,8.366e-01,1.119e+00,2.071e+00,2.749e+00,2.315e+00,3.575e+00,3.841e+00,3.414e+00,3.990e+00,3.763e+00,3.225e+00,3.778e+00,5.268e+00,4.973e+00,5.260e+00,5.917e+00,5.957e+00,5.804e+00,5.700e+00,7.837e+00,5.744e+00,6.072e+00,6.564e+00,9.022e+00,8.991e+00,8.009e+00,9.049e+00,7.973e+00,1.088e+01,9.761e+00,8.904e+00,9.158e+00,1.124e+01,1.126e+01,1.017e+01,1.098e+01,1.158e+01,1.410e+01,1.311e+01,1.131e+01,1.165e+01,1.219e+01,1.187e+01,1.147e+01,1.292e+01,1.273e+01,1.313e+01,1.332e+01,1.260e+01,1.227e+01,1.424e+01,1.275e+01,1.498e+01,1.326e+01,1.314e+01,1.544e+01,1.225e+01,1.085e+01,1.208e+01,1.167e+01,1.217e+01,1.421e+01,1.170e+01,1.333e+01,1.417e+01,1.186e+01,1.510e+01,1.348e+01,1.283e+01,1.352e+01,1.360e+01,1.275e+01,1.233e+01,1.415e+01,1.273e+01,1.448e+01
4.276e-01,3.978e-01,4.578e-01,9.764e-01,5.266e-01,1.143e+00,1.191e+00,1.399e+00,2.043e+00,2.620e+00,1.873e+00,3.233e+00,2.992e+00,2.650e+00,2.804e+00,4.048e+00,5.492e+00,4.901e+00,5.700e+00,5.675e+00,5.900e+00,5.627e+00,6.831e+00,6.428e+00,5.667e+00,6.616e+00,8.065e+00,7.292e+00,7.547e+00,8.668e+00,7.573e+00,1.021e+01,9.058e+00,7.952e+00,8.759e+00,9.554e+00,1.108e+01,9.745e+00,1.028e+01,1.118e+01,1.234e+01,1.071e+01,1.100e+01,1.180e+01,1.170e+01,1.109e+01,1.203e+01,1.256e+01,1.270e+01,1.263e+01,1.343e+01,1.225e+01,1.173e+01,1.294e+01,1.368e+01,1.487e+01,1.230e+01,1.407e+01,1.470e+01,1.315e+01,1.109e+01,1.307e+01,1.275e+01,1.404e+01,1.308e+01,1.233e+01,1.442e+01,1.387e+01,1.240e+01,1.342e+01,1.315e+01,1.224e+01,1.352e+01,1.372e+01,1.202e+01,1.397e+01,1.380e+01,1.324e+01,1.423e+01
7.799e-01,5.195e-01,7.367e-01,1.402e+00,1.281e+00,2.076e+00,1.777e+00,2.180e+00,2.384e+00,3.855e+00,2.868e+00,3.950e+00,4.304e+00,3.571e+00,4.395e+00,4.875e+00,4.661e+00,5.030e+00,5.390e+00,5.700e+00,6.768e+00,5.562e+00,7.083e+00,6.067e+00,5.370e+00,6.979e+00,6.861e+00,8.091e+00,6.706e+00,6.782e+00,7.112e+00,8.464e+00,8.055e+00,6.094e+00,8.047e+00,7.856e+00,9.469e+00,7.180e+00,9.081e+00,1.010e+01,1.103e+01,1.188e+01,9.246e+00,9.853e+00,1.085e+01,9.847e+00,9.923e+00,1.036e+01,1.243e+01,1.308e+01,1.415e+01,1.204e+01,1.197e+01,1.268e+01,1.252e+01,1.291e+01,1.234e+01,1.274e+01,1.436e+01,1.254e+01,1.031e+01,1.131e+01,1.214e+01,1.153e+01,1.255e+01,1.217e+01,1.157e+01,1.383e+01,1.224e+01,1.399e+01,1.393e+01,1.187e+01,1.214e+01,1.298e+01,1.224e+01,1.270e+01,1.249e+01,1.414e+01,1.331e+01
8.980e-02,2.212e-01,1.687e-01,5.822e-01,1.135e+00,1.114e+00,1.165e+00,1.648e+00,1.460e+00,2.506e+00,1.636e+00,3.175e+00,2.502e+00,2.295e+00,3.354e+00,3.851e+00,3.874e+00,4.611e+00,4.104e+00,4.565e+00,5.416e+00,5.511e+00,6.703e+00,6.169e+00,4.854e+00,6.107e+00,7.371e+00,7.551e+00,7.361e+00,7.740e+00,5.873e+00,9.519e+00,7.535e+00,7.660e+00,8.336e+00,8.231e+00,1.011e+01,7.548e+00,1.006e+01,9.752e+00,1.182e+01,1.064e+01,9.431e+00,1.045e+01,1.127e+01,1.069e+01,1.155e+01,1.175e+01,1.300e+01,1.394e+01,1.559e+01,1.312e+01,1.277e+01,1.326e+01,1.318e+01,1.456e+01,1.334e+01,1.485e+01,1.531e+01,1.419e+01,1.117e+01,1.203e+01,1.300e+01,1.305e+01,1.523e+01,1.253e+01,1.344e+01,1.377e+01,1.426e+01,1.367e+01,1.501e+01,1.189e+01,1.314e+01,1.358e+01,1.377e+01,1.340e+01,1.283e+01,1.361e+01,1.451e+01
3.541e-01,2.748e-01,3.462e-01,7.054e-01,6.422e-01,1.010e+00,7.923e-01,1.969e+00,1.507e+00,2.393e+00,2.006e+00,3.105e+00,2.854e+00,2.616e+00,3.067e+00,2.752e+00,4.449e+00,3.934e+00,4.315e+00,4.033e+00,4.578e+00,4.393e+00,5.334e+00,5.093e+00,4.305e+00,6.162e+00,5.396e+00,7.409e+00,7.385e+00,7.453e+00,6.718e+00,8.788e+00,7.693e+00,6.776e+00,8.057e+00,8.328e+00,9.559e+00,7.428e+00,9.801e+00,1.079e+01,1.271e+01,1.072e+01,1.080e+01,1.132e+01,1.206e+01,1.062e+01,1.113e+01,1.243e+01,1.300e+01,1.396e+01,1.392e+01,1.257e+01,1.347e+01,1.300e+01,1.372e+01,1.461e+01,1.377e+01,1.474e+01,1.655e+01,1.391e+01,1.206e+01,1.326e+01,1.319e+01,1.261e+01,1.379e+01,1.136e+01,1.445e+01,1.384e+01,1.167e+01,1.370e+01,1.406e+01,1.251e+01,1.432e+01,1.341e+01,1.381e+01,1.433e+01,1.255e+01,1.391e+01,1.292e+01
7.325e-01,2.952e-01,6.262e-01,1.021e+00,1.582e+00,1.888e+00,2.093e+00,2.016e+00,3.046e+00,3.925e+00,2.720e+00,4.360e+00,4.461e+00,3.840e+00,4.826e+00,5.241e+00,5.581e+00,5.625e+00,6.115e+00,5.548e+00,6.548e+00,6.257e+00,7.325e+00,6.399e+00,5.727e+00,7.113e+00,8.335e+00,8.687e+00,7.498e+00,8.709e+00,7.215e+00,9.521e+00,8.698e+00,7.350e+00,9.100e+00,9.399e+00,1.124e+01,8.650e+00,1.061e+01,1.145e+01,1.295e+01,1.242e+01,1.086e+01,1.205e+01,1.188e+01,1.197e+01,1.154e+01,1.318e+01,1.324e+01,1.378e+01,1.530e+01,1.378e+01,1.443e+01,1.462e+01,1.447e+01,1.593e+01,1.370e+01,1.509e+01,1.665e+01,1.513e+01,1.246e+01,1.414e+01,1.431e+01,1.395e+01,1.497e+01,1.300e+01,1.432e+01,1.454e+01,1.525e+01,1.559e+01,1.514e+01,1.415e+01,1.520e+01,1.351e+01,1.375e+01,1.417e+01,1.376e+01,1.478e+01,1.542e+01
5.214e-01,4.735e-01,5.522e-01,1.149e+00,5.309e-01,1.418e+00,1.483e+00,1.649e+00,1.730e+00,2.738e+00,2.348e+00,2.741e+00,2.604e+00,2.621e+00,2.590e+00,3.648e+00,3.757e+00,4.098e+00,3.702e+00,4.224e+00,4.885e+00,5.007e+00,5.979e+00,5.415e+00,4.453e+00,5.425e+00,5.851e+00,6.132e+00,6.295e+00,6.266e+00,7.039e+00,8.746e+00,7.365e+00,7.430e+00,7.781e+00,8.040e+00,9.240e+00,7.075e+00,8.489e+00,9.558e+00,1.138e+01,9.979e+00,9.722e+00,1.143e+01,1.163e+01,1.099e+01,1.122e+01,1.280e+01,1.159e+01,1.169e+01,1.234e+01,1.295e+01,1.110e+01,1.247e+01,1.324e+01,1.423e+01,1.221e+01,1.569e+01,1.529e+01,1.375e+01,1.189e+01,1.373e+01,1.186e+01,1.428e+01,1.398e+01,1.284e+01,1.438e+01,1.401e+01,1.354e+01,1.422e+01,1.323e+01,1.169e+01,1.367e+01,1.207e+01,1.333e+01,1.388e+01,1.211e+01,1.234e+01,1.404e+01
7.743e-01,2.987e-01,6.476e-01,9.426e-01,1.023e+00,1.897e+00,2.328e+00,2.358e+00,3.088e+00,3.795e+00,3.516e+00,3.945e+00,3.555e+00,3.579e+00,3.965e+00,4.785e+00,4.891e+00,5.391e+00,4.809e+00,5.332e+00,6.102e+00,6.257e+00,7.858e+00,7.241e+00,5.528e+00,7.806e+00,8.600e+00,8.657e+00,8.020e+00,8.360e+00,8.214e+00,9.661e+00,9.090e+00,7.795e+00,8.861e+00,9.058e+00,1.073e+01,9.562e+00,1.020e+01,1.017e+01,1.283e+01,1.222e+01,1.081e+01,1.200e+01,1.189e+01,1.125e+01,1.198e+01,1.181e+01,1.200e+01,1.335e+01,1.435e+01,1.299e+01,1.268e+01,1.345e+01,1.473e+01,1.526e+01,1.401e+01,1.503e+01,1.647e+01,1.389e+01,1.163e+01,1.353e+01,1.344e+01,1.376e+01,1.467e+01,1.167e+01,1.478e+01,1.499e+01,1.432e+01,1.503e+01,1.440e+01,1.329e+01,1.507e+01,1.432e+01,1.389e+01,1.387e+01,1.370e+01,1.242e+01,1.485e+01
6.154e-01,4.946e-01,6.216e-01,1.237e+00,6.621e-01,1.984e+00,1.981e+00,1.974e+00,2.344e+00,3.499e+00,2.860e+00,3.070e+00,3.706e+00,3.661e+00,3.857e+00,4.787e+00,4.961e+00,4.535e+00,5.181e+00,6.134e+00,6.472e+00,4.809e+00,7.562e+00,6.515e+00,6.394e+00,7.075e+00,7.641e+00,8.534e+00,8.400e+00,8.509e+00,8.456e+00,1.047e+01,8.825e+00,8.462e+00,7.878e+00,1.000e+01,1.174e+01,8.130e+00,1.098e+01,1.116e+01,1.393e+01,1.159e+01,1.076e+01,1.066e+01,1.204e+01,1.221e+01,1.256e+01,1.355e+01,1.328e+01,1.396e+01,1.495e+01,1.404e+01,1.367e+01,1.453e+01,1.385e+01,1.688e+01,1.575e+01,1.525e+01,1.854e+01,1.505e+01,1.466e+01,1.444e+01,1.346e+01,1.512e+01,1.612e+01,1.340e+01,1.503e+01,1.575e+01,1.516e+01,1.750e+01,1.688e+01,1.443e+01,1.589e+01,1.486e+01,1.491e+01,1.490e+01,1.444e+01,1.557e+01,1.584e+01
3.099e-01,3.604e-01,3.623e-01,8.847e-01,1.149e+00,1.766e+00,1.756e+00,2.092e+00,2.355e+00,3.410e+00,2.445e+00,3.913e+00,3.504e+00,3.208e+00,4.342e+00,5.178e+00,5.438e+00,5.185e+00,5.846e+00,6.356e+00,6.801e+00,6.223e+00,7.481e+00,6.348e+00,5.419e+00,7.545e+00,8.332e+00,9.265e+00,9.092e+00,9.035e+00,8.356e+00,1.108e+01,9.803e+00,8.558e+00,9.758e+00,1.062e+01,1.181e+01,9.612e+00,1.094e+01,1.247e+01,1.388e+01,1.324e+01,1.154e+01,1.155e+01,1.281e+01,1.303e+01,1.300e+01,1.260e+01,1.511e+01,1.498e+01,1.589e+01,1.433e+01,1.421e+01,1.585e+01,1.674e+01,1.798e+01,1.473e+01,1.770e+01,1.891e+01,1.628e+01,1.408e+01,1.424e+01,1.528e+01,1.451e+01,1.518e+01,1.482e+01,1.769e+01,1.782e+01,1.650e+01,1.961e+01,1.561e+01,1.681e+01,1.719e+01,1.634e+01,1.690e+01,1.704e+01,1.629e+01,1.515e+01,1.792e+01
6.965e-01,3.785e-01,6.169e-01,1.014e+00,8.991e-01,1.862e+00,1.968e+00,2.150e+00,2.696e+00,3.534e+00,3.173e+00,3.719e+00,3.791e+00,3.848e+00,4.584e+00,5.335e+00,5.688e+00,5.410e+00,5.891e+00,6.474e+00,7.423e+00,6.581e+00,8.122e+00,7.007e+00,5.680e+00,8.217e+00,8.933e+00,9.235e+00,8.752e+00,8.800e+00,8.868e+00,1.033e+01,9.576e+00,8.784e+00,9.692e+00,1.056e+01,1.236e+01,9.622e+00,1.128e+01,1.276e+01,1.480e+01,1.236e+01,1.242e+01,1.266e+01,1.363e+01,1.217e+01,1.317e+01,1.354e+01,1.362e+01,1.362e+01,1.501e+01,1.466e+01,1.423e+01,1.365e+01,1.606e+01,1.749e+01,1.628e+01,1.647e+01,1.910e+01,1.573e+01,1.585e+01,1.544e+01,1.582e+01,1.615e+01,1.618e+01,1.375e+01,1.832e+01,1.704e+01,1.682e+01,1.770e+01,1.624e+01,1.687e+01,1.675e+01,1.554e+01,1.508e+01,1.682e+01,1.457e+01,1.565e+01,1.785e+01
1.444e-01,9.146e-02,1.325e-01,3.323e-01,8.280e-01,1.021e+00,5.988e-01,1.885e+00,1.867e+00,2.523e+00,2.121e+00,2.501e+00,2.633e+00,2.815e+00,2.532e+00,3.227e+00,3.502e+00,3.528e+00,4.501e+00,4.072e+00,4.899e+00,4.464e+00,6.390e+00,5.011e+00,4.421e+00,6.360e+00,5.804e+00,7.291e+00,6.422e+00,7.499e+00,6.167e+00,8.701e+00,7.317e+00,6.159e+00,7.819e+00,8.282e+00,9.612e+00,7.559e+00,9.413e+00,1.133e+01,1.124e+01,1.146e+01,1.077e+01,1.071e+01,1.158e+01,1.137e+01,9.447e+00,1.169e+01,1.280e+01,1.465e+01,1.415e+01,1.294e+01,1.324e+01,1.352e+01,1.459e+01,1.597e+01,1.503e+01,1.464e+01,1.700e+01,1.462e+01,1.411e+01,1.469e+01,1.347e+01,1.474e+01,1.709e+01,1.339e+01,1.513e+01,1.450e+01,1.481e+01,1.698e+01,1.674e+01,1.490e+01,1.646e+01,1.385e+01,1.443e+01,1.674e+01,1.534e+01,1.535e+01,1.611e+01
5.964e-01,2.574e-01,5.197e-01,8.834e-01,1.125e+00,1.853e+00,1.998e+00,2.097e+00,2.992e+00,3.522e+00,2.402e+00,2.945e+00,3.126e+00,2.222e+00,2.421e+00,3.402e+00,3.909e+00,3.892e+00,4.824e+00,4.627e+00,5.168e+00,4.733e+00,5.539e+00,4.546e+00,5.025e+00,5.646e+00,5.899e+00,6.151e+00,6.119e+00,6.521e+00,6.344e+00,8.714e+00,8.273e+00,6.829e+00,8.833e+00,7.986e+00,9.220e+00,8.372e+00,9.968e+00,1.046e+01,1.125e+01,1.142e+01,1.062e+01,1.125e+01,1.200e+01,1.259e+01,1.091e+01,1.329e+01,1.310e+01,1.275e+01,1.410e+01,1.314e+01,1.207e+01,1.433e+01,1.423e+01,1.582e+01,1.456e+01,1.606e+01,1.886e+01,1.597e+01,1.396e+01,1.621e+01,1.546e+01,1.511e+01,1.599e+01,1.638e+01,1.674e+01,1.745e+01,1.616e+01,1.645e+01,1.589e+01,1.519e+01,1.697e+01,1.406e+01,1.680e+01,1.781e+01,1.562e+01,1.491e+01,1.652e+01
2.373e-03,8.607e-03,2.096e-02,1.882e-01,1.172e+00,1.575e+00,1.525e+00,1.740e+00,1.775e+00,2.559e+00,1.623e+00,2.021e+00,2.001e+00,1.884e+00,2.972e+00,3.439e+00,3.269e+00,3.622e+00,3.435e+00,4.311e+00,5.254e+00,5.134e+00,5.525e+00,6.395e+00,5.393e+00,6.108e+00,7.646e+00,8.159e+00,7.412e+00,7.371e+00,6.443e+00,9.640e+00,8.843e+00,7.644e+00,8.357e+00,8.419e+00,1.114e+01,8.328e+00,1.056e+01,1.104e+01,1.188e+01,1.156e+01,1.077e+01,1.086e+01,1.209e+01,1.177e+01,1.125e+01,1.273e+01,1.367e+01,1.401e+01,1.573e+01,1.448e+01,1.319e+01,1.435e+01,1.502e+01,1.690e+01,1.610e+01,1.645e+01,1.809e+01,1.556e+01,1.514e+01,1.502e+01,1.591e+01,1.719e+01,1.769e+01,1.602e+01,1.670e+01,1.627e+01,1.738e+01,1.743e+01,1.669e+01,1.533e+01,1.565e+01,1.491e+01,1.676e+01,1.646e+01,1.563e+01,1.795e+01,1.802e+01
1.885e-01,3.107e-01,2.579e-01,6.724e-01,2.943e-01,1.458e+00,1.473e+00,2.090e+00,2.152e+00,3.005e+00,2.664e+00,2.842e+00,2.998e+00,3.352e+00,3.347e+00,3.434e+00,3.800e+00,4.621e+00,4.680e+00,5.237e+00,5.515e+00,4.877e+00,5.828e+00,4.607e+00,4.602e+00,5.976e+00,6.641e+00,8.664e+00,6.899e+00,6.420e+00,6.552e+00,8.915e+00,7.902e+00,6.548e+00,7.341e+00,8.537e+00,1.094e+01,7.411e+00,9.456e+00,1.114e+01,1.197e+01,1.133e+01,1.131e+01,1.121e+01,1.111e+01,1.177e+01,1.027e+01,1.194e+01,1.322e+01,1.186e+01,1.312e+01,1.343e+01,1.209e+01,1.331e+01,1.453e+01,1.522e+01,1.524e+01,1.476e+01,1.766e+01,1.496e+01,1.284e+01,1.428e+01,1.583e+01,1.622e+01,1.480e+01,1.401e+01,1.733e+01,1.566e+01,1.685e+01,1.901e+01,1.628e+01,1.575e+01,1.714e+01,1.592e+01,1.589e+01,1.488e+01,1.519e+01,1.669e+01,1.697e+01
4.714e-01,2.436e-01,4.145e-01,6.570e-01,5.526e-01,8.678e-01,1.073e+00,1.742e+00,1.349e+00,2.025e+00,2.133e+00,3.278e+00,2.417e+00,2.360e+00,3.121e+00,3.509e+00,4.402e+00,4.025e+00,4.642e+00,5.029e+00,4.750e+00,4.573e+00,6.396e+00,5.957e+00,4.100e+00,6.055e+00,7.011e+00,7.450e+00,7.569e+00,8.005e+00,6.440e+00,9.061e+00,7.281e+00,7.827e+00,8.735e+00,8.648e+00,1.040e+01,7.862e+00,1.006e+01,9.806e+00,1.229e+01,1.042e+01,9.064e+00,1.133e+01,1.116e+01,1.099e+01,1.085e+01,1.190e+01,1.290e+01,1.337e+01,1.356e+01,1.214e+01,1.246e+01,1.150e+01,1.392e+01,1.566e+01,1.394e+01,1.606e+01,1.657e+01,1.364e+01,1.403e+01,1.415e+01,1.415e+01,1.560e+01,1.528e+01,1.426e+01,1.817e+01,1.659e+01,1.672e+01,1.703e+01,1.416e+01,1.550e+01,1.625e+01,1.444e+01,1.528e+01,1.607e+01,1.525e+01,1.518e+01,1.682e+01
5.529e-01,1.375e-01,4.392e-01,6.331e-01,9.961e-01,1.741e+00,1.964e+00,2.279e+00,2.446e+00,3.020e+00,2.379e+00,2.609e+00,3.442e+00,2.808e+00,3.601e+00,3.841e+00,4.744e+00,4.642e+00,5.215e+00,5.494e+00,5.803e+00,4.735e+00,5.695e+00,5.185e+00,5.009e+00,4.467e+00,5.730e+00,7.119e+00,6.789e+00,6.062e+00,6.040e+00,6.961e+00,6.548e+00,5.966e+00,7.323e+00,7.681e+00,8.091e+00,6.348e+00,9.427e+00,9.288e+00,1.047e+01,8.618e+00,8.977e+00,8.871e+00,8.350e+00,8.797e+00,8.998e+00,1.075e+01,1.019e+01,1.064e+01,1.131e+01,1.093e+01,1.037e+01,1.141e+01,1.207e+01,1.399e+01,1.235e+01,1.247e+01,1.588e+01,1.305e+01,1.260e+01,1.254e+01,1.455e+01,1.330e+01,1.311e+01,1.281e+01,1.422e+01,1.386e+01,1.402e+01,1.610e+01,1.418e+01,1.367e+01,1.470e+01,1.295e+01,1.316e+01,1.414e+01,1.284e+01,1.424e+01,1.524e+01
2.764e-01,3.759e-01,3.557e-01,9.080e-01,8.982e-01,1.192e+00,1.346e+00,1.599e+00,1.961e+00,2.874e+00,2.013e+00,4.171e+00,3.621e+00,3.300e+00,4.165e+00,4.795e+00,5.759e+00,5.754e+00,5.378e+00,5.345e+00,5.794e+00,5.874e+00,7.051e+00,6.331e+00,4.727e+00,7.080e+00,7.644e+00,8.673e+00,8.187e+00,8.535e+00,8.242e+00,1.114e+01,9.519e+00,7.708e+00,8.764e+00,9.872e+00,9.977e+00,8.599e+00,9.506e+00,1.027e+01,1.199e+01,1.155e+01,1.005e+01,1.130e+01,1.257e+01,1.038e+01,1.282e+01,1.294e+01,1.387e+01,1.452e+01,1.339e+01,1.373e+01,1.317e+01,1.369e+01,1.647e+01,1.650e+01,1.444e+01,1.726e+01,1.798e+01,1.617e+01,1.467e+01,1.498e+01,1.515e+01,1.651e+01,1.765e+01,1.628e+01,1.955e+01,1.764e+01,1.857e+01,1.822e+01,1.710e+01,1.765e+01,1.803e+01,1.740e+01,1.771e+01,1.865e+01,1.778e+01,1.832e+01,1.994e+01
7.385e-01,4.657e-01,6.962e-01,1.307e+00,1.489e+00,2.666e+00,2.801e+00,2.736e+00,3.095e+00,4.248e+00,3.060e+00,4.119e+00,3.959e+00,2.456e+00,4.215e+00,4.451e+00,5.022e+00,5.299e+00,5.882e+00,6.119e+00,6.494e+00,5.825e+00,7.467e+00,6.151e+00,6.357e+00,7.413e+00,8.254e+00,8.749e+00,7.726e+00,7.922e+00,6.899e+00,9.142e+00,9.332e+00,7.570e+00,9.027e+00,8.919e+00,1.104e+01,8.688e+00,1.121e+01,1.108e+01,1.271e+01,1.329e+01,1.092e+01,1.070e+01,1.155e+01,1.359e+01,1.221e+01,1.269e+01,1.384e+01,1.352e+01,1.491e+01,1.380e+01,1.416e+01,1.527e+01,1.510e+01,1.718e+01,1.524e+01,1.750e+01,2.001e+01,1.678e+01,1.664e+01,1.505e+01,1.737e+01,1.754e+01,1.782e+01,1.811e+01,2.015e+01,1.903e+01,2.028e+01,1.983e+01,1.809e+01,1.749e+01,1.893e+01,1.696e+01,1.936e+01,1.841e+01,1.811e+01,1.786e+01,2.022e+01
7.773e-01,2.928e-01,6.380e-01,9.724e-01,1.175e+00,1.916e+00,1.756e+00,2.016e+00,2.448e+00,3.249e+00,2.808e+00,2.944e+00,3.662e+00,3.077e+00,3.733e+00,4.205e+00,4.432e+00,4.728e+00,6.131e+00,5.655e+00,6.799e+00,6.011e+00,7.789e+00,5.815e+00,5.856e+00,7.638e+00,8.297e+00,8.445e+00,7.580e+00,8.716e+00,7.582e+00,8.844e+00,8.583e+00,8.025e+00,8.407e+00,9.060e+00,1.087e+01,8.809e+00,1.051e+01,1.143e+01,1.326e+01,1.314e+01,1.181e+01,1.177e+01,1.261e+01,1.201e+01,1.139e+01,1.225e+01,1.273e+01,1.334e+01,1.423e+01,1.308e+01,1.341e+01,1.403e+01,1.531e+01,1.749e+01,1.533e+01,1.596e+01,1.884e+01,1.424e+01,1.536e+01,1.463e+01,1.528e+01,1.777e+01,1.779e+01,1.643e+01,1.818e+01,1.925e+01,1.861e+01,1.980e+01,1.919e+01,1.723e+01,1.924e+01,1.724e+01,1.824e+01,1.763e+01,1.912e+01,1.843e+01,2.024e+01
3.379e-02,3.620e-01,1.892e-01,8.124e-01,9.586e-01,1.236e+00,1.121e+00,2.227e+00,2.221e+00,3.458e+00,2.449e+00,3.803e+00,3.661e+00,4.122e+00,4.129e+00,5.032e+00,5.070e+00,5.779e+00,5.842e+00,5.837e+00,6.586e+00,6.367e+00,7.429e+00,5.989e+00,5.160e+00,7.495e+00,7.851e+00,8.178e+00,7.598e+00,8.030e+00,7.955e+00,1.033e+01,8.143e+00,7.022e+00,8.036e+00,9.179e+00,1.063e+01,7.448e+00,8.942e+00,1.101e+01,1.229e+01,1.097e+01,1.090e+01,1.218e+01,1.257e+01,1.159e+01,1.239e+01,1.297e+01,1.463e+01,1.300e+01,1.436e+01,1.399e+01,1.247e+01,1.349e+01,1.559e+01,1.600e+01,1.424e+01,1.601e+01,1.807e+01,1.625e+01,1.335e+01,1.495e+01,1.564e+01,1.790e+01,1.795e+01,1.581e+01,1.941e+01,1.858e+01,2.018e+01,1.939e+01,1.982e+01,1.632e+01,1.934e+01,1.805e+01,1.892e+01,1.673e+01,1.776e+01,1.954e+01,2.114e+01
6.008e-01,4.617e-01,5.997e-01,1.168e+00,8.828e-01,1.558e+00,1.683e+00,1.655e+00,1.855e+00,2.914e+00,2.375e+00,3.249e+00,3.392e+00,2.854e+00,3.757e+00,4.384e+00,4.518e+00,5.066e+00,4.741e+00,5.337e+00,5.192e+00,3.861e+00,7.025e+00,5.357e+00,4.491e+00,5.072e+00,5.934e+00,6.807e+00,6.086e+00,6.628e+00,6.582e+00,8.533e+00,8.009e+00,6.813e+00,8.315e+00,8.743e+00,9.948e+00,8.159e+00,9.846e+00,1.013e+01,1.188e+01,1.052e+01,9.708e+00,1.052e+01,1.082e+01,1.124e+01,1.147e+01,1.210e+01,1.205e+01,1.442e+01,1.559e+01,1.301e+01,1.270e+01,1.366e+01,1.321e+01,1.500e+01,1.533e+01,1.551e+01,1.760e+01,1.397e+01,1.373e+01,1.393e+01,1.551e+01,1.599e+01,1.705e+01,1.547e+01,1.713e+01,1.717e+01,1.896e+01,1.826e+01,1.904e+01,1.694e+01,1.755e+01,1.738e+01,1.675e+01,1.723e+01,1.735e+01,1.753e+01,1.898e+01
6.283e-01,2.990e-01,5.597e-01,9.754e-01,1.385e+00,2.346e+00,2.554e+00,2.638e+00,3.575e+00,4.483e+00,3.489e+00,4.197e+00,4.208e+00,3.693e+00,4.220e+00,5.249e+00,4.702e+00,5.274e+00,5.820e+00,5.980e+00,6.148e+00,5.537e+00,7.463e+00,5.991e+00,6.244e+00,7.444e+00,8.710e+00,9.235e+00,7.468e+00,8.484e+00,7.730e+00,1.055e+01,9.288e+00,7.710e+00,8.630e+00,9.549e+00,1.121e+01,8.156e+00,1.029e+01,1.052e+01,1.171e+01,1.183e+01,9.570e+00,1.079e+01,1.154e+01,1.226e+01,1.073e+01,1.153e+01,1.321e+01,1.249e+01,1.364e+01,1.281e+01,1.248e+01,1.329e+01,1.347e+01,1.480e+01,1.437e+01,1.438e+01,1.724e+01,1.516e+01,1.367e+01,1.362e+01,1.348e+01,1.651e+01,1.780e+01,1.591e+01,1.676e+01,1.623e+01,1.892e+01,1.963e+01,1.784e+01,1.814e+01,1.793e+01,1.703e+01,1.840e+01,1.624e+01,1.807e+01,1.815e+01,1.838e+01
3.127e-01,3.708e-01,3.666e-01,8.669e-01,8.416e-01,1.236e+00,1.225e+00,1.262e+00,1.825e+00,2.657e+00,1.707e+00,3.434e+00,2.989e+00,2.489e+00,3.342e+00,3.548e+00,4.439e+00,4.401e+00,4.346e+00,4.502e+00,5.542e+00,5.395e+00,6.171e+00,5.513e+00,4.502e+00,6.269e+00,6.832e+00,7.379e+00,7.251e+00,6.911e+00,6.989e+00,8.735e+00,7.741e+00,6.524e+00,6.983e+00,7.637e+00,1.003e+01,8.043e+00,9.306e+00,9.712e+00,1.113e+01,1.050e+01,9.450e+00,9.807e+00,1.118e+01,1.022e+01,1.164e+01,1.040e+01,1.152e+01,1.181e+01,1.312e+01,1.190e+01,1.190e+01,1.240e+01,1.406e+01,1.423e+01,1.224e+01,1.458e+01,1.684e+01,1.489e+01,1.363e+01,1.329e+01,1.519e+01,1.601e+01,1.545e+01,1.662e+01,1.835e+01,1.746e+01,1.898e+01,1.865e+01,1.708e+01,1.771e+01,1.797e+01,1.755e+01,1.769e+01,1.782e+01,1.806e+01,1.819e+01,1.935e+01
3.011e-01,1.863e-01,2.850e-01,5.403e-01,6.192e-01,1.221e+00,1.325e+00,1.367e+00,1.494e+00,2.097e+00,1.749e+00,2.709e+00,2.541e+00,2.360e+00,3.366e+00,3.390e+00,4.405e+00,4.513e+00,4.593e+00,4.670e+00,5.110e+00,5.180e+00,5.714e+00,5.991e+00,5.129e+00,6.131e+00,7.754e+00,7.765e+00,7.509e+00,8.071e+00,6.832e+00,9.113e+00,8.238e+00,8.144e+00,8.021e+00,9.032e+00,1.070e+01,8.349e+00,9.593e+00,1.003e+01,1.132e+01,1.008e+01,9.156e+00,1.045e+01,1.076e+01,9.795e+00,1.165e+01,1.044e+01,1.037e+01,1.116e+01,1.235e+01,1.178e+01,1.238e+01,1.230e+01,1.248e+01,1.511e+01,1.252e+01,1.462e+01,1.672e+01,1.319e+01,1.342e+01,1.318e+01,1.375e+01,1.702e+01,1.669e+01,1.492e+01,1.661e+01,1.664e+01,1.811e+01,1.731e+01,1.720e+01,1.852e+01,1.931e+01,1.736e+01,1.772e+01,1.899e+01,1.853e+01,1.741e+01,1.919e+01
7.793e-01,5.148e-01,7.403e-01,1.357e+00,8.060e-01,2.141e+00,2.215e+00,2.068e+00,3.131e+00,4.041e+00,3.102e+00,3.790e+00,3.805e+00,3.441e+00,3.280e+00,4.816e+00,5.147e+00,4.464e+00,5.674e+00,6.097e+00,5.839e+00,5.143e+00,6.288e+00,5.623e+00,5.796e+00,6.175e+00,6.906e+00,7.553e+00,7.297e+00,7.931e+00,8.180e+00,1.029e+01,8.736e+00,7.605e+00,8.315e+00,9.489e+00,9.882e+00,8.106e+00,9.649e+00,9.704e+00,1.157e+01,1.125e+01,9.769e+00,1.163e+01,1.256e+01,1.265e+01,1.159e+01,1.312e+01,1.361e+01,1.311e+01,1.438e+01,1.305e+01,1.173e+01,1.414e+01,1.430e+01,1.503e+01,1.439e+01,1.556e+01,1.790e+01,1.561e+01,1.293e+01,1.507e+01,1.387e+01,1.589e+01,1.579e+01,1.580e+01,1.706e+01,1.807e+01,1.788e+01,1.966e+01,1.753e+01,1.812e+01,1.991e+01,1.771e+01,2.025e+01,1.902e+01,1.874e+01,1.894e+01,1.869e+01
5.075e-01,4.916e-01,5.419e-01,1.225e+00,9.530e-01,2.210e+00,1.781e+00,2.135e+00,2.795e+00,3.869e+00,2.638e+00,3.507e+00,4.083e+00,3.319e+00,3.788e+00,4.184e+00,5.264e+00,4.729e+00,5.442e+00,5.034e+00,6.015e+00,5.335e+00,5.797e+00,5.027e+00,4.939e+00,6.547e+00,5.380e+00,7.933e+00,6.435e+00,5.903e+00,7.072e+00,8.482e+00,8.365e+00,6.099e+00,6.735e+00,8.419e+00,8.592e+00,6.533e+00,9.049e+00,9.110e+00,1.004e+01,8.751e+00,7.886e+00,9.017e+00,1.100e+01,9.678e+00,1.088e+01,9.915e+00,1.154e+01,1.213e+01,1.242e+01,1.273e+01,1.095e+01,1.266e+01,1.249e+01,1.344e+01,1.178e+01,1.301e+01,1.519e+01,1.294e+01,1.339e+01,1.182e+01,1.347e+01,1.400e+01,1.433e+01,1.379e+01,1.546e+01,1.483e+01,1.670e+01,1.627e+01,1.485e+01,1.565e+01,1.703e+01,1.551e+01,1.754e+01,1.682e+01,1.570e+01,1.776e+01,1.880e+01
5.719e-01,2.054e-01,4.834e-01,6.992e-01,6.681e-01,9.810e-01,1.532e+00,1.181e+00,2.148e+00,2.287e+00,1.772e+00,2.865e+00,2.657e+00,2.135e+00,2.525e+00,3.630e+00,4.052e+00,4.401e+00,4.868e+00,5.029e+00,5.313e+00,5.229e+00,5.548e+00,4.999e+00,4.335e+00,5.695e+00,7.565e+00,7.209e+00,6.555e+00,7.021e+00,5.715e+00,8.754e+00,7.090e+00,7.044e+00,7.685e+00,7.555e+00,9.519e+00,7.517e+00,9.650e+00,9.418e+00,1.052e+01,9.680e+00,9.293e+00,9.312e+00,9.458e+00,9.523e+00,1.058e+01,1.082e+01,1.189e+01,1.080e+01,1.278e+01,1.041e+01,1.115e+01,1.093e+01,1.255e+01,1.302e+01,1.119e+01,1.375e+01,1.491e+01,1.299e+01,1.112e+01,1.228e+01,1.311e+01,1.404e+01,1.353e+01,1.409e+01,1.546e+01,1.581e+01,1.627e+01,1.629e+01,1.428e+01,1.588e+01,1.725e+01,1.501e+01,1.762e+01,1.561e+01,1.677e+01,1.615e+01,1.712e+01
2.013e-01,3.526e-01,2.881e-01,8.615e-01,1.325e+00,1.506e+00,1.203e+00,1.726e+00,1.547e+00,3.072e+00,1.852e+00,3.572e+00,3.360e+00,3.077e+00,4.557e+00,3.935e+00,4.544e+00,5.212e+00,5.838e+00,5.680e+00,5.990e+00,5.145e+00,6.694e+00,6.083e+00,5.873e+00,7.417e+00,8.290e+00,7.347e+00,7.336e+00,8.899e+00,7.572e+00,9.812e+00,9.425e+00,7.956e+00,9.093e+00,9.634e+00,1.307e+01,9.776e+00,1.124e+01,1.195e+01,1.342e+01,1.251e+01,1.169e+01,1.210e+01,1.353e+01,1.323e+01,1.297e+01,1.332e+01,1.510e+01,1.519e+01,1.678e+01,1.397e+01,1.390e+01,1.425e+01,1.576e+01,1.559e+01,1.510e+01,1.655e+01,1.992e+01,1.732e+01,1.623e+01,1.604e+01,1.711e+01,1.863e+01,1.829e+01,1.826e+01,2.023e+01,1.927e+01,2.138e+01,2.099e+01,1.900e+01,2.148e+01,2.308e+01,2.100e+01,2.172e+01,2.175e+01,2.310e+01,2.235e+01,2.279e+01
4.803e-01,2.391e-01,4.169e-01,7.409e-01,1.125e+00,1.558e+00,1.319e+00,1.686e+00,1.696e+00,2.506e+00,1.828e+00,2.398e+00,2.340e+00,1.691e+00,2.627e+00,3.388e+00,3.484e+00,2.941e+00,3.629e+00,3.964e+00,5.052e+00,4.760e+00,5.310e+00,5.215e+00,4.533e+00,6.145e+00,6.336e+00,7.123e+00,6.827e+00,7.136e+00,6.459e+00,8.431e+00,7.298e+00,6.361e+00,7.737e+00,7.840e+00,9.888e+00,7.823e+00,9.914e+00,1.058e+01,1.209e+01,1.087e+01,1.023e+01,1.038e+01,1.207e+01,1.057e+01,1.047e+01,1.239e+01,1.303e+01,1.323e+01,1.420e+01,1.262e+01,1.241e+01,1.237e+01,1.376e+01,1.489e+01,1.371e+01,1.433e+01,1.702e+01,1.414e+01,1.431e+01,1.411e+01,1.537e+01,1.528e+01,1.554e+01,1.550e+01,1.723e+01,1.764e+01,1.787e+01,1.837e+01,1.836e+01,1.649e+01,2.024e+01,1.612e+01,2.030e+01,1.860e+01,1.924e+01,2.115e+01,2.051e+01
7.416e-01,2.427e-01,5.991e-01,7.910e-01,6.002e-01,1.525e+00,1.930e+00,1.644e+00,2.452e+00,2.710e+00,2.769e+00,2.941e+00,3.053e+00,2.682e+00,3.054e+00,3.731e+00,3.907e+00,4.367e+00,4.809e+00,4.726e+00,5.052e+00,4.749e+00,6.591e+00,4.663e+00,4.985e+00,6.446e+00,7.547e+00,8.198e+00,7.262e+00,7.847e+00,6.567e+00,8.864e+00,8.284e+00,7.347e+00,7.428e+00,8.450e+00,8.992e+00,7.704e+00,9.234e+00,9.584e+00,1.140e+01,1.169e+01,9.678e+00,1.027e+01,1.111e+01,1.101e+01,1.082e+01,1.079e+01,1.234e+01,1.239e+01,1.400e+01,1.207e+01,1.268e+01,1.332e+01,1.410e+01,1.469e+01,1.348e+01,1.425e+01,1.667e+01,1.371e+01,1.351e+01,1.337e+01,1.202e+01,1.450e+01,1.662e+01,1.488e+01,1.619e+01,1.727e+01,1.793e+01,1.786e+01,1.732e+01,1.874e+01,2.002e+01,1.858e+01,1.918e+01,2.005e+01,1.945e+01,1.899e+01,2.129e+01
3.160e-01,2.739e-01,3.323e-01,7.602e-01,1.109e+00,1.496e+00,1.359e+00,1.632e+00,1.597e+00,2.594e+00,1.836e+00,2.587e+00,2.743e+00,2.339e+00,3.314e+00,3.532e+00,3.851e+00,4.092e+00,4.417e+00,4.337e+00,4.900e+00,4.511e+00,6.011e+00,5.398e+00,4.535e+00,6.482e+00,6.426e+00,6.582e+00,6.269e+00,6.667e+00,5.901e+00,7.330e+00,7.237e+00,6.255e+00,7.019e+00,7.547e+00,8.464e+00,6.747e+00,8.982e+00,8.368e+00,1.026e+01,1.015e+01,7.960e+00,8.230e+00,9.784e+00,1.016e+01,1.043e+01,1.034e+01,1.220e+01,1.314e+01,1.353e+01,1.195e+01,1.113e+01,1.260e+01,1.217e+01,1.435e+01,1.268e+01,1.503e+01,1.604e+01,1.326e+01,1.253e+01,1.252e+01,1.379e+01,1.452e+01,1.566e+01,1.490e+01,1.691e+01,1.553e+01,1.777e+01,1.691e+01,1.720e+01,1.549e+01,1.633e+01,1.721e+01,1.825e+01,1.796e+01,1.820e+01,1.664e+01,2.000e+01
