6.090e-01,1.092e-01,4.920e-01,8.885e-01,4.574e-01,8.718e-01,6.552e-01,6.257e-02,9.643e-01,4.907e-02,3.232e-01,2.095e-01,4.434e-02,2.357e-01,8.487e-02,2.973e-01,4.765e-01,8.124e-01,2.931e-01,7.023e-01,9.772e-01,3.512e-01,3.995e-01,6.192e-02,9.905e-01,1.827e-01,6.479e-01,7.576e-01,3.654e-01,5.230e-01,8.129e-01,5.841e-01,7.134e-01,4.918e-01,9.329e-01,5.360e-01,8.605e-01,5.654e-01,5.234e-01,8.539e-01,2.030e-01,9.759e-01,3.728e-01,2.483e-02,8.091e-01,4.185e-01,1.943e-01,2.416e-01,1.338e-01,8.396e-01,2.046e-01,2.626e-02,9.196e-01,1.168e-01,4.939e-01,6.667e-01,7.551e-01,4.637e-01,8.765e-01,6.944e-01,8.708e-01,7.831e-01,5.580e-01,3.775e-01,8.783e-01,2.354e-01,8.277e-01,5.461e-01,6.967e-01,3.286e-01,4.206e-01,3.244e-01,9.710e-02,3.074e-01,5.066e-01,1.966e-02
4.076e-01,9.689e-01,1.045e+00,1.486e+00,8.655e-01,1.529e+00,5.495e-01,7.899e-01,1.605e+00,7.552e-01,1.116e+00,2.419e-01,2.210e-01,4.187e-01,1.042e+00,2.638e-01,9.453e-01,1.460e+00,2.607e-01,7.864e-01,1.063e+00,9.405e-01,5.543e-01,2.451e-01,1.022e+00,7.767e-01,5.375e-01,1.251e+00,1.024e+00,8.398e-01,7.704e-01,5.457e-01,1.098e+00,4.778e-01,1.599e+00,6.490e-01,5.825e-01,4.459e-01,8.868e-01,8.076e-01,7.821e-01,1.011e+00,1.077e+00,7.013e-01,1.308e+00,6.208e-01,4.794e-01,8.930e-01,6.881e-01,7.270e-01,3.535e-01,3.921e-01,1.230e+00,1.462e-01,5.123e-01,1.092e+00,1.502e+00,1.101e+00,6.950e-01,1.281e+00,1.194e+00,1.046e+00,6.923e-01,5.504e-01,1.011e+00,9.163e-01,6.739e-01,4.463e-01,5.293e-01,3.377e-01,1.143e+00,5.756e-01,3.932e-01,8.127e-01,5.000e-01,7.050e-01
2.074e-01,3.554e-01,4.462e-01,7.110e-01,1.140e+00,1.499e+00,7.789e-01,6.110e-01,1.028e+00,5.053e-01,4.478e-01,1.097e+00,1.037e+00,1.097e+00,7.892e-01,3.918e-01,7.007e-01,1.306e+00,2.067e-01,5.343e-01,1.259e+00,8.171e-01,1.026e+00,5.429e-01,6.401e-01,1.264e+00,1.192e+00,1.188e+00,1.043e+00,7.898e-01,5.450e-01,7.895e-01,1.193e+00,3.593e-01,9.054e-01,1.035e+00,1.262e+00,1.172e+00,1.300e+00,6.251e-01,7.172e-01,4.752e-01,7.605e-01,6.462e-01,9.728e-01,8.132e-01,3.763e-01,7.900e-01,7.412e-01,6.260e-01,6.474e-01,5.111e-01,8.210e-01,9.711e-01,7.293e-01,1.293e+00,1.429e+00,1.186e+00,5.726e-01,7.101e-01,1.313e+00,8.197e-01,8.440e-01,9.070e-01,7.182e-01,3.762e-01,8.086e-01,3.019e-01,1.079e+00,2.459e-01,5.479e-01,9.257e-01,6.070e-01,1.261e+00,3.953e-01,1.119e+00
8.801e-02,4.884e-01,4.532e-01,1.478e+00,5.811e-01,1.016e+00,4.326e-01,7.678e-01,1.381e+00,7.150e-01,8.769e-01,9.616e-01,1.252e+00,6.071e-01,1.501e+00,7.053e-01,1.297e+00,9.813e-01,3.487e-01,1.191e+00,8.427e-01,7.038e-01,6.574e-01,7.674e-01,1.229e+00,7.716e-01,4.408e-01,1.486e+00,6.749e-01,4.512e-01,1.183e+00,1.086e+00,1.407e+00,5.834e-01,1.184e+00,1.346e+00,4.395e-01,4.334e-01,6.458e-01,7.834e-01,1.305e+00,5.916e-01,1.006e+00,9.285e-01,1.297e+00,7.314e-01,5.518e-01,1.014e+00,1.206e+00,5.510e-01,7.115e-01,8.209e-01,9.901e-01,4.391e-01,8.780e-01,7.850e-01,1.263e+00,6.846e-01,5.572e-01,1.304e+00,1.523e+00,1.146e+00,1.223e+00,4.440e-01,1.224e+00,1.041e+00,2.753e-01,3.554e-01,8.658e-01,5.157e-01,1.195e+00,1.232e+00,1.261e+00,7.283e-01,2.472e-01,9.368e-01
2.550e-01,7.946e-01,8.250e-01,1.239e+00,1.934e+00,2.060e+00,1.136e+00,1.808e+00,2.057e+00,8.450e-01,1.914e+00,1.555e+00,2.012e+00,1.193e+00,2.107e+00,6.933e-01,1.703e+00,2.572e+00,7.579e-01,1.479e+00,2.351e+00,1.651e+00,1.994e+00,1.519e+00,1.529e+00,2.124e+00,1.190e+00,2.008e+00,1.820e+00,1.470e+00,1.407e+00,1.304e+00,1.539e+00,9.286e-01,2.390e+00,1.674e+00,1.246e+00,1.557e+00,1.899e+00,1.758e+00,1.301e+00,1.549e+00,1.441e+00,1.340e+00,2.149e+00,1.520e+00,1.381e+00,1.174e+00,2.000e+00,1.345e+00,1.450e+00,9.559e-01,1.390e+00,1.877e+00,1.708e+00,2.140e+00,2.742e+00,1.934e+00,7.023e-01,1.997e+00,2.091e+00,1.464e+00,1.425e+00,1.730e+00,1.107e+00,1.756e+00,1.373e+00,1.223e+00,1.824e+00,8.665e-01,1.146e+00,1.540e+00,7.965e-01,1.818e+00,1.005e+00,2.197e+00
5.498e-01,8.021e-01,1.025e+00,1.798e+00,1.617e+00,3.294e+00,1.369e+00,2.050e+00,2.519e+00,1.451e+00,1.952e+00,2.147e+00,1.441e+00,2.181e+00,2.577e+00,8.451e-01,1.640e+00,3.018e+00,1.535e+00,2.232e+00,2.632e+00,2.223e+00,1.876e+00,1.483e+00,2.584e+00,2.126e+00,1.962e+00,2.823e+00,2.501e+00,2.091e+00,2.291e+00,2.093e+00,2.626e+00,1.239e+00,3.123e+00,2.028e+00,2.536e+00,1.489e+00,2.365e+00,2.287e+00,1.363e+00,2.138e+00,2.028e+00,1.926e+00,2.939e+00,1.534e+00,1.504e+00,1.340e+00,1.421e+00,2.071e+00,1.593e+00,1.744e+00,2.422e+00,1.439e+00,1.575e+00,2.934e+00,2.952e+00,2.421e+00,1.424e+00,1.854e+00,2.687e+00,1.717e+00,1.600e+00,2.198e+00,1.584e+00,1.289e+00,2.088e+00,1.651e+00,1.722e+00,9.955e-01,1.384e+00,2.262e+00,1.162e+00,2.429e+00,1.691e+00,1.772e+00
4.868e-01,1.188e-01,4.419e-01,1.623e+00,1.335e+00,2.127e+00,1.538e+00,1.257e+00,2.774e+00,1.021e+00,1.809e+00,2.197e+00,2.539e+00,1.795e+00,2.233e+00,1.512e+00,2.076e+00,2.668e+00,1.283e+00,2.128e+00,2.674e+00,1.366e+00,2.312e+00,1.963e+00,2.411e+00,2.559e+00,1.944e+00,2.538e+00,2.249e+00,1.812e+00,2.137e+00,2.807e+00,2.779e+00,2.008e+00,2.490e+00,2.505e+00,2.775e+00,2.184e+00,2.133e+00,2.393e+00,1.762e+00,2.327e+00,2.257e+00,1.733e+00,2.506e+00,1.867e+00,1.916e+00,2.103e+00,2.517e+00,1.821e+00,2.103e+00,2.160e+00,2.390e+00,1.826e+00,2.156e+00,2.111e+00,2.699e+00,1.927e+00,1.901e+00,2.051e+00,2.894e+00,2.365e+00,1.944e+00,1.760e+00,2.505e+00,1.506e+00,1.758e+00,1.292e+00,2.994e+00,1.336e+00,1.644e+00,2.241e+00,1.993e+00,1.758e+00,1.177e+00,1.660e+00
5.444e-02,1.822e-01,2.018e-01,1.010e+00,1.291e+00,1.875e+00,1.152e+00,2.053e+00,2.668e+00,1.975e+00,2.199e+00,3.298e+00,3.214e+00,2.304e+00,3.480e+00,1.583e+00,2.427e+00,3.073e+00,1.617e+00,2.222e+00,2.402e+00,2.252e+00,3.163e+00,2.421e+00,2.229e+00,2.903e+00,2.168e+00,2.986e+00,2.507e+00,2.412e+00,2.669e+00,2.879e+00,2.459e+00,1.925e+00,2.580e+00,2.432e+00,2.890e+00,2.427e+00,2.507e+00,3.148e+00,2.003e+00,2.234e+00,3.045e+00,2.744e+00,2.774e+00,2.048e+00,3.049e+00,1.809e+00,3.153e+00,2.111e+00,2.897e+00,2.805e+00,2.387e+00,2.291e+00,3.078e+00,2.259e+00,3.010e+00,2.305e+00,1.788e+00,2.687e+00,2.545e+00,2.421e+00,2.020e+00,2.016e+00,2.606e+00,2.069e+00,1.548e+00,1.491e+00,3.085e+00,2.186e+00,2.103e+00,3.130e+00,2.358e+00,1.995e+00,1.972e+00,2.250e+00
3.037e-01,4.366e-01,5.745e-01,1.110e+00,1.340e+00,1.919e+00,1.158e+00,1.249e+00,2.834e+00,2.525e+00,2.454e+00,2.566e+00,3.165e+00,2.364e+00,2.999e+00,1.427e+00,2.750e+00,3.264e+00,1.698e+00,1.662e+00,2.188e+00,2.004e+00,2.728e+00,2.213e+00,2.058e+00,2.862e+00,2.523e+00,2.685e+00,2.641e+00,2.645e+00,2.764e+00,2.445e+00,2.495e+00,1.812e+00,2.009e+00,2.230e+00,3.334e+00,2.681e+00,3.093e+00,3.276e+00,1.795e+00,2.655e+00,2.815e+00,2.881e+00,2.701e+00,2.270e+00,2.448e+00,1.939e+00,2.401e+00,2.226e+00,3.113e+00,2.176e+00,2.627e+00,1.840e+00,3.293e+00,2.194e+00,3.327e+00,3.071e+00,1.887e+00,3.150e+00,2.601e+00,3.099e+00,1.800e+00,1.748e+00,3.036e+00,2.036e+00,2.252e+00,1.664e+00,2.915e+00,2.007e+00,2.869e+00,3.214e+00,2.327e+00,2.091e+00,2.473e+00,2.512e+00
1.945e-01,2.478e-01,3.450e-01,9.674e-01,1.493e+00,1.768e+00,1.272e+00,1.995e+00,2.814e+00,1.876e+00,3.259e+00,2.847e+00,4.197e+00,1.994e+00,3.386e+00,1.905e+00,3.477e+00,3.738e+00,2.493e+00,2.919e+00,3.558e+00,2.808e+00,3.220e+00,2.990e+00,2.368e+00,3.570e+00,2.517e+00,3.558e+00,2.811e+00,2.635e+00,3.311e+00,3.612e+00,2.915e+00,2.900e+00,3.687e+00,2.929e+00,3.026e+00,2.935e+00,3.514e+00,3.529e+00,1.894e+00,3.427e+00,3.124e+00,3.083e+00,3.033e+00,2.439e+00,3.571e+00,2.694e+00,3.766e+00,2.962e+00,3.890e+00,2.800e+00,3.284e+00,2.531e+00,3.292e+00,2.459e+00,3.840e+00,3.138e+00,1.817e+00,3.191e+00,2.778e+00,2.752e+00,2.834e+00,2.628e+00,3.352e+00,2.922e+00,2.247e+00,2.535e+00,3.813e+00,2.560e+00,2.443e+00,3.586e+00,2.526e+00,2.419e+00,2.879e+00,3.285e+00
4.770e-01,7.107e-01,9.027e-01,1.598e+00,1.848e+00,2.572e+00,1.550e+00,2.215e+00,3.784e+00,2.734e+00,3.870e+00,3.768e+00,4.139e+00,2.663e+00,4.651e+00,1.913e+00,3.508e+00,4.743e+00,3.276e+00,2.715e+00,3.429e+00,3.152e+00,3.700e+00,3.203e+00,3.804e+00,3.692e+00,2.896e+00,4.412e+00,3.533e+00,3.842e+00,4.481e+00,3.870e+00,3.050e+00,2.573e+00,3.647e+00,3.150e+00,4.269e+00,3.589e+00,4.104e+00,4.699e+00,2.217e+00,4.442e+00,4.201e+00,4.387e+00,3.958e+00,3.202e+00,3.437e+00,2.887e+00,3.792e+00,3.266e+00,3.877e+00,3.278e+00,3.946e+00,2.691e+00,4.862e+00,3.405e+00,5.338e+00,4.289e+00,2.416e+00,4.348e+00,3.847e+00,4.594e+00,2.358e+00,2.948e+00,4.390e+00,3.018e+00,3.173e+00,2.850e+00,3.845e+00,3.013e+00,3.740e+00,4.468e+00,3.124e+00,2.855e+00,3.649e+00,4.058e+00
8.053e-02,7.407e-02,1.274e-01,2.357e-01,7.937e-01,1.418e+00,7.758e-01,1.326e+00,1.802e+00,1.843e+00,2.209e+00,3.443e+00,3.256e+00,2.109e+00,3.032e+00,1.707e+00,2.470e+00,3.386e+00,3.263e+00,1.639e+00,2.382e+00,2.663e+00,2.527e+00,2.925e+00,2.692e+00,2.462e+00,2.007e+00,2.632e+00,3.280e+00,3.228e+00,2.945e+00,3.275e+00,1.999e+00,1.836e+00,2.533e+00,2.097e+00,3.248e+00,2.802e+00,3.421e+00,3.539e+00,1.367e+00,3.383e+00,3.086e+00,3.658e+00,2.849e+00,1.976e+00,2.585e+00,1.963e+00,2.389e+00,2.231e+00,3.146e+00,3.295e+00,3.233e+00,2.603e+00,3.259e+00,2.874e+00,3.446e+00,2.761e+00,2.285e+00,2.798e+00,2.891e+00,3.515e+00,1.987e+00,2.347e+00,3.351e+00,1.970e+00,2.206e+00,2.400e+00,2.550e+00,1.977e+00,2.245e+00,3.607e+00,1.961e+00,2.560e+00,2.648e+00,2.729e+00
9.596e-02,5.759e-01,5.459e-01,8.739e-01,1.593e+00,1.826e+00,9.340e-01,1.726e+00,2.241e+00,2.257e+00,2.743e+00,3.178e+00,4.238e+00,2.627e+00,3.737e+00,2.553e+00,3.695e+00,4.143e+00,2.739e+00,2.200e+00,3.572e+00,3.713e+00,3.107e+00,3.496e+00,2.483e+00,2.885e+00,2.555e+00,3.842e+00,3.931e+00,2.939e+00,4.131e+00,3.717e+00,2.806e+00,2.203e+00,3.154e+00,2.939e+00,3.225e+00,2.875e+00,4.495e+00,4.309e+00,2.030e+00,3.384e+00,2.741e+00,4.375e+00,3.956e+00,2.934e+00,3.077e+00,2.786e+00,2.814e+00,3.439e+00,4.158e+00,2.475e+00,3.076e+00,3.342e+00,3.529e+00,3.630e+00,4.641e+00,3.948e+00,2.606e+00,3.584e+00,3.843e+00,3.435e+00,3.116e+00,2.937e+00,4.135e+00,3.498e+00,3.038e+00,3.011e+00,3.392e+00,2.288e+00,3.265e+00,4.390e+00,2.212e+00,2.999e+00,3.581e+00,4.389e+00
5.770e-01,7.355e-01,9.945e-01,1.648e+00,1.885e+00,3.257e+00,1.727e+00,2.280e+00,3.508e+00,2.024e+00,3.023e+00,3.798e+00,3.486e+00,3.763e+00,4.143e+00,3.342e+00,3.751e+00,5.076e+00,3.913e+00,2.956e+00,5.072e+00,3.826e+00,3.918e+00,4.357e+00,3.953e+00,4.305e+00,3.095e+00,4.683e+00,5.156e+00,4.292e+00,4.091e+00,4.728e+00,4.067e+00,3.251e+00,5.369e+00,3.275e+00,5.369e+00,4.060e+00,5.272e+00,5.066e+00,2.305e+00,4.843e+00,4.880e+00,4.656e+00,4.634e+00,2.972e+00,4.158e+00,4.329e+00,4.372e+00,3.494e+00,4.201e+00,4.808e+00,4.631e+00,3.887e+00,4.039e+00,4.897e+00,5.609e+00,4.470e+00,4.423e+00,3.757e+00,4.922e+00,4.248e+00,2.999e+00,3.737e+00,4.585e+00,3.867e+00,3.188e+00,3.778e+00,4.196e+00,2.368e+00,3.102e+00,4.157e+00,2.605e+00,3.569e+00,3.100e+00,3.947e+00
2.925e-01,3.310e-01,4.800e-01,1.170e+00,1.217e+00,1.902e+00,1.003e+00,1.113e+00,1.625e+00,8.046e-01,1.123e+00,2.582e+00,2.428e+00,2.611e+00,2.470e+00,2.953e+00,3.456e+00,3.299e+00,2.596e+00,2.566e+00,4.234e+00,3.041e+00,2.393e+00,3.837e+00,2.718e+00,3.154e+00,2.313e+00,4.153e+00,3.613e+00,2.923e+00,3.001e+00,4.006e+00,3.555e+00,2.208e+00,4.118e+00,3.344e+00,4.259e+00,2.732e+00,3.805e+00,3.406e+00,2.354e+00,2.973e+00,2.721e+00,3.800e+00,3.249e+00,1.974e+00,2.283e+00,2.958e+00,3.663e+00,2.444e+00,3.394e+00,3.117e+00,2.878e+00,3.532e+00,3.023e+00,3.664e+00,4.212e+00,3.485e+00,3.801e+00,2.678e+00,4.014e+00,3.557e+00,3.296e+00,2.867e+00,3.747e+00,3.178e+00,2.602e+00,3.305e+00,2.941e+00,1.900e+00,2.384e+00,3.588e+00,1.878e+00,2.836e+00,2.298e+00,3.793e+00
2.437e-01,6.801e-01,7.106e-01,1.126e+00,9.434e-01,1.436e+00,6.825e-01,1.231e+00,2.184e+00,1.803e+00,2.177e+00,2.199e+00,2.436e+00,1.638e+00,2.962e+00,2.419e+00,4.122e+00,4.318e+00,2.418e+00,2.312e+00,2.924e+00,2.943e+00,2.387e+00,3.053e+00,2.474e+00,2.979e+00,2.984e+00,4.812e+00,2.808e+00,3.402e+00,3.266e+00,3.965e+00,3.401e+00,2.394e+00,3.335e+00,3.435e+00,3.463e+00,2.331e+00,3.193e+00,3.607e+00,2.713e+00,3.777e+00,3.099e+00,4.600e+00,3.730e+00,2.260e+00,2.848e+00,2.844e+00,3.640e+00,3.383e+00,3.190e+00,2.851e+00,3.180e+00,2.704e+00,3.474e+00,2.890e+00,4.412e+00,3.539e+00,3.023e+00,3.878e+00,3.276e+00,4.028e+00,2.747e+00,3.035e+00,4.546e+00,3.376e+00,3.249e+00,2.999e+00,3.538e+00,3.099e+00,3.572e+00,3.483e+00,2.330e+00,2.598e+00,3.377e+00,4.344e+00
4.045e-01,9.331e-01,1.027e+00,2.166e+00,1.779e+00,2.465e+00,1.375e+00,2.201e+00,3.689e+00,2.453e+00,3.632e+00,3.162e+00,4.394e+00,3.035e+00,4.638e+00,3.835e+00,6.180e+00,6.109e+00,3.663e+00,4.576e+00,5.406e+00,5.203e+00,4.225e+00,6.064e+00,4.495e+00,4.779e+00,4.070e+00,6.302e+00,5.003e+00,4.290e+00,5.670e+00,6.119e+00,4.909e+00,4.216e+00,6.719e+00,4.707e+00,5.722e+00,3.999e+00,5.550e+00,6.238e+00,4.621e+00,5.932e+00,4.333e+00,6.641e+00,5.349e+00,3.923e+00,5.094e+00,5.119e+00,5.927e+00,4.446e+00,5.645e+00,5.061e+00,4.845e+00,5.077e+00,5.786e+00,4.808e+00,6.850e+00,5.524e+00,4.793e+00,6.192e+00,6.050e+00,6.075e+00,5.276e+00,4.795e+00,6.440e+00,5.457e+00,4.439e+00,5.050e+00,5.294e+00,4.181e+00,5.045e+00,5.402e+00,3.281e+00,4.234e+00,4.817e+00,5.505e+00
4.908e-01,8.476e-01,1.010e+00,1.634e+00,1.671e+00,2.360e+00,1.383e+00,2.232e+00,3.578e+00,2.320e+00,4.552e+00,2.928e+00,4.714e+00,2.289e+00,4.382e+00,3.731e+00,6.459e+00,6.968e+00,4.974e+00,5.113e+00,5.619e+00,5.126e+00,4.330e+00,6.134e+00,4.876e+00,5.478e+00,4.152e+00,7.115e+00,5.725e+00,5.676e+00,6.190e+00,6.594e+00,5.442e+00,5.171e+00,6.897e+00,5.080e+00,5.670e+00,3.711e+00,5.808e+00,6.207e+00,3.593e+00,6.865e+00,5.177e+00,7.145e+00,6.422e+00,4.276e+00,5.456e+00,5.057e+00,6.173e+00,5.420e+00,6.297e+00,4.510e+00,6.421e+00,4.934e+00,4.831e+00,5.445e+00,7.209e+00,6.306e+00,4.388e+00,6.675e+00,5.461e+00,6.322e+00,5.490e+00,5.918e+00,7.349e+00,6.107e+00,5.927e+00,6.206e+00,6.413e+00,4.862e+00,5.383e+00,6.110e+00,3.870e+00,4.665e+00,5.627e+00,6.595e+00
5.975e-01,3.621e-01,7.022e-01,1.758e+00,1.195e+00,2.012e+00,1.175e+00,9.979e-01,2.577e+00,2.023e+00,1.952e+00,3.661e+00,3.790e+00,2.683e+00,3.514e+00,3.623e+00,5.123e+00,5.206e+00,4.074e+00,4.544e+00,4.778e+00,4.948e+00,4.289e+00,5.276e+00,4.504e+00,4.592e+00,4.671e+00,6.874e+00,4.770e+00,4.723e+00,6.710e+00,5.869e+00,5.311e+00,4.144e+00,5.304e+00,4.999e+00,5.693e+00,4.144e+00,5.936e+00,5.657e+00,3.949e+00,5.770e+00,4.647e+00,6.918e+00,5.739e+00,4.463e+00,3.789e+00,3.770e+00,5.020e+00,5.243e+00,5.773e+00,4.070e+00,5.430e+00,4.601e+00,5.462e+00,4.831e+00,6.146e+00,5.159e+00,5.105e+00,6.017e+00,5.566e+00,6.208e+00,5.173e+00,4.703e+00,7.081e+00,4.873e+00,4.904e+00,4.684e+00,6.101e+00,4.233e+00,5.817e+00,6.750e+00,3.728e+00,4.000e+00,5.129e+00,5.735e+00
4.450e-01,5.224e-01,7.272e-01,1.833e+00,1.403e+00,2.860e+00,1.449e+00,2.313e+00,3.491e+00,2.557e+00,3.392e+00,4.346e+00,4.242e+00,3.945e+00,5.212e+00,4.298e+00,5.371e+00,6.356e+00,4.916e+00,4.916e+00,5.303e+00,5.045e+00,4.691e+00,5.839e+00,5.514e+00,4.656e+00,4.661e+00,7.781e+00,5.746e+00,5.871e+00,6.675e+00,7.060e+00,5.303e+00,4.660e+00,6.814e+00,5.188e+00,6.865e+00,4.643e+00,6.920e+00,7.620e+00,4.153e+00,6.775e+00,5.607e+00,7.461e+00,6.586e+00,4.863e+00,5.244e+00,6.021e+00,5.658e+00,5.768e+00,5.472e+00,6.377e+00,5.792e+00,5.598e+00,6.748e+00,6.046e+00,7.388e+00,6.331e+00,5.898e+00,5.999e+00,6.892e+00,6.517e+00,4.914e+00,5.684e+00,7.210e+00,5.289e+00,5.272e+00,5.234e+00,6.257e+00,4.153e+00,5.162e+00,6.480e+00,4.664e+00,4.396e+00,5.902e+00,5.952e+00
1.288e-01,9.180e-01,8.264e-01,1.843e+00,1.160e+00,2.347e+00,8.560e-01,2.158e+00,2.858e+00,2.444e+00,3.376e+00,3.560e+00,4.195e+00,2.961e+00,4.668e+00,3.824e+00,6.184e+00,6.104e+00,4.808e+00,4.813e+00,5.149e+00,5.722e+00,4.422e+00,7.139e+00,5.723e+00,5.108e+00,4.979e+00,7.384e+00,5.522e+00,4.745e+00,6.985e+00,7.348e+00,5.638e+00,5.025e+00,7.005e+00,5.143e+00,5.892e+00,4.323e+00,5.958e+00,5.841e+00,5.501e+00,6.700e+00,5.484e+00,7.958e+00,5.954e+00,4.768e+00,5.476e+00,5.840e+00,6.353e+00,5.301e+00,6.329e+00,6.880e+00,5.771e+00,5.265e+00,6.538e+00,5.912e+00,7.293e+00,5.567e+00,5.293e+00,6.849e+00,6.843e+00,6.744e+00,5.327e+00,6.252e+00,7.424e+00,6.309e+00,5.225e+00,5.772e+00,5.409e+00,4.482e+00,5.567e+00,6.661e+00,4.722e+00,4.957e+00,5.427e+00,6.626e+00
2.875e-01,3.557e-01,4.934e-01,8.212e-01,1.511e+00,2.211e+00,1.208e+00,2.043e+00,2.527e+00,2.104e+00,2.863e+00,3.342e+00,3.528e+00,3.164e+00,3.884e+00,2.971e+00,4.719e+00,5.381e+00,4.083e+00,4.602e+00,4.833e+00,5.743e+00,5.110e+00,6.751e+00,4.902e+00,5.915e+00,5.149e+00,7.407e+00,5.194e+00,5.808e+00,6.714e+00,6.633e+00,5.153e+00,4.557e+00,6.602e+00,4.555e+00,7.022e+00,4.398e+00,5.912e+00,6.634e+00,4.277e+00,6.176e+00,5.209e+00,7.427e+00,5.786e+00,4.938e+00,5.491e+00,5.021e+00,6.597e+00,4.468e+00,6.852e+00,5.164e+00,5.598e+00,5.649e+00,6.192e+00,6.089e+00,6.754e+00,6.787e+00,5.078e+00,6.263e+00,5.415e+00,6.472e+00,5.509e+00,6.181e+00,6.046e+00,5.611e+00,6.057e+00,6.109e+00,5.545e+00,4.483e+00,5.042e+00,6.715e+00,4.768e+00,4.513e+00,5.816e+00,5.868e+00
1.919e-01,8.798e-01,8.324e-01,1.622e+00,1.365e+00,1.549e+00,8.594e-01,1.967e+00,3.009e+00,2.297e+00,3.448e+00,3.212e+00,4.255e+00,2.587e+00,4.634e+00,3.950e+00,5.860e+00,5.931e+00,4.442e+00,4.631e+00,4.883e+00,6.107e+00,5.076e+00,7.663e+00,5.011e+00,6.362e+00,5.793e+00,8.410e+00,5.785e+00,5.710e+00,8.061e+00,7.624e+00,5.622e+00,5.390e+00,7.721e+00,5.763e+00,6.143e+00,5.121e+00,7.130e+00,7.641e+00,6.063e+00,8.549e+00,5.804e+00,8.713e+00,7.369e+00,6.265e+00,5.954e+00,7.025e+00,7.489e+00,6.081e+00,6.813e+00,6.906e+00,5.638e+00,6.835e+00,7.815e+00,5.849e+00,8.160e+00,6.232e+00,6.656e+00,7.771e+00,7.464e+00,7.462e+00,6.008e+00,6.466e+00,7.198e+00,7.125e+00,6.029e+00,6.497e+00,6.799e+00,4.825e+00,7.300e+00,7.386e+00,5.301e+00,4.641e+00,7.111e+00,7.164e+00
6.158e-02,5.325e-01,4.841e-01,1.066e+00,1.553e+00,2.030e+00,1.050e+00,2.190e+00,2.338e+00,1.601e+00,2.540e+00,3.548e+00,3.904e+00,2.687e+00,4.018e+00,3.386e+00,4.807e+00,5.313e+00,3.374e+00,3.826e+00,4.976e+00,6.086e+00,4.254e+00,7.360e+00,4.971e+00,5.377e+00,5.463e+00,7.013e+00,5.502e+00,4.927e+00,6.039e+00,7.133e+00,5.313e+00,4.517e+00,6.877e+00,5.771e+00,6.064e+00,4.039e+00,5.935e+00,6.629e+00,4.939e+00,6.495e+00,4.124e+00,7.597e+00,6.164e+00,4.397e+00,5.235e+00,6.194e+00,6.299e+00,4.899e+00,6.491e+00,5.665e+00,5.101e+00,6.306e+00,5.678e+00,5.987e+00,6.581e+00,6.001e+00,6.101e+00,5.864e+00,6.194e+00,6.499e+00,6.622e+00,5.533e+00,5.795e+00,5.895e+00,5.469e+00,6.297e+00,5.350e+00,4.715e+00,5.243e+00,6.860e+00,3.703e+00,5.031e+00,5.526e+00,5.887e+00
1.225e-01,8.178e-01,7.545e-01,1.284e+00,1.505e+00,1.951e+00,1.005e+00,1.662e+00,2.650e+00,1.910e+00,2.547e+00,2.763e+00,3.198e+00,2.860e+00,3.730e+00,3.325e+00,5.010e+00,5.383e+00,3.426e+00,3.970e+00,4.456e+00,4.716e+00,4.426e+00,6.796e+00,5.252e+00,5.861e+00,6.571e+00,7.302e+00,5.328e+00,5.760e+00,5.945e+00,6.395e+00,5.399e+00,5.713e+00,7.547e+00,6.092e+00,6.763e+00,5.260e+00,6.883e+00,6.922e+00,5.923e+00,7.128e+00,5.475e+00,7.553e+00,5.764e+00,5.117e+00,5.434e+00,7.025e+00,7.160e+00,5.234e+00,5.816e+00,6.932e+00,5.685e+00,6.581e+00,6.956e+00,6.255e+00,7.259e+00,7.278e+00,6.009e+00,6.598e+00,6.864e+00,7.149e+00,5.974e+00,6.261e+00,6.367e+00,6.469e+00,5.131e+00,6.020e+00,6.777e+00,4.959e+00,6.269e+00,7.012e+00,5.094e+00,5.015e+00,5.690e+00,6.478e+00
2.745e-01,5.642e-01,6.523e-01,1.702e+00,1.798e+00,2.002e+00,1.435e+00,1.962e+00,3.128e+00,1.367e+00,3.094e+00,2.851e+00,4.206e+00,2.036e+00,3.542e+00,2.833e+00,4.238e+00,4.661e+00,3.150e+00,4.006e+00,4.716e+00,4.578e+00,4.732e+00,6.595e+00,4.878e+00,6.042e+00,5.571e+00,6.748e+00,5.789e+00,4.683e+00,6.415e+00,7.370e+00,5.259e+00,5.604e+00,7.197e+00,5.396e+00,5.827e+00,4.833e+00,6.010e+00,5.653e+00,5.413e+00,6.929e+00,5.845e+00,6.789e+00,6.238e+00,6.114e+00,5.591e+00,5.994e+00,7.293e+00,5.058e+00,6.479e+00,6.143e+00,5.707e+00,6.416e+00,5.657e+00,5.845e+00,7.026e+00,5.068e+00,5.494e+00,6.379e+00,6.991e+00,6.323e+00,6.271e+00,6.068e+00,5.846e+00,6.209e+00,5.158e+00,5.657e+00,6.221e+00,4.049e+00,5.788e+00,6.595e+00,5.061e+00,4.700e+00,5.036e+00,5.843e+00
1.094e-01,3.648e-01,3.821e-01,1.186e+00,1.428e+00,1.912e+00,1.162e+00,1.959e+00,2.415e+00,1.215e+00,2.480e+00,2.603e+00,3.287e+00,2.646e+00,3.372e+00,3.569e+00,5.311e+00,5.170e+00,3.450e+00,4.225e+00,5.043e+00,4.771e+00,4.171e+00,6.939e+00,4.335e+00,6.173e+00,6.699e+00,7.528e+00,5.334e+00,5.349e+00,6.067e+00,8.195e+00,6.106e+00,5.695e+00,8.513e+00,6.593e+00,7.372e+00,4.855e+00,5.976e+00,6.789e+00,6.604e+00,7.407e+00,5.264e+00,8.443e+00,7.028e+00,5.399e+00,5.457e+00,6.451e+00,7.993e+00,5.710e+00,6.420e+00,6.688e+00,6.123e+00,7.388e+00,6.290e+00,6.123e+00,7.697e+00,5.796e+00,6.798e+00,6.249e+00,6.993e+00,6.272e+00,7.091e+00,7.024e+00,5.267e+00,7.231e+00,5.385e+00,7.114e+00,6.548e+00,4.564e+00,5.528e+00,6.185e+00,5.025e+00,5.377e+00,5.196e+00,7.097e+00
4.713e-01,6.282e-01,8.180e-01,1.825e+00,8.386e-01,2.491e+00,1.079e+00,1.815e+00,3.248e+00,2.762e+00,3.458e+00,3.080e+00,3.675e+00,2.877e+00,4.130e+00,3.004e+00,4.754e+00,5.150e+00,4.313e+00,4.940e+00,4.589e+00,5.217e+00,4.075e+00,6.400e+00,6.152e+00,5.275e+00,7.778e+00,7.480e+00,6.978e+00,6.611e+00,8.641e+00,8.377e+00,6.669e+00,7.413e+00,9.757e+00,7.497e+00,8.563e+00,6.197e+00,8.619e+00,8.616e+00,6.527e+00,8.872e+00,6.471e+00,9.486e+00,8.535e+00,7.018e+00,6.298e+00,7.596e+00,6.440e+00,7.986e+00,7.111e+00,8.383e+00,8.777e+00,7.277e+00,7.736e+00,7.693e+00,8.777e+00,7.914e+00,7.467e+00,7.415e+00,8.404e+00,7.484e+00,8.134e+00,7.405e+00,7.765e+00,7.344e+00,6.234e+00,8.223e+00,7.735e+00,5.903e+00,8.080e+00,9.548e+00,6.823e+00,6.085e+00,7.255e+00,6.406e+00
3.225e-01,6.146e-01,7.199e-01,1.820e+00,1.298e+00,2.333e+00,1.147e+00,1.807e+00,2.904e+00,2.169e+00,2.783e+00,3.380e+00,3.811e+00,2.506e+00,3.828e+00,3.007e+00,5.118e+00,5.468e+00,3.967e+00,4.986e+00,4.550e+00,5.480e+00,4.861e+00,7.455e+00,6.460e+00,5.851e+00,7.207e+00,7.980e+00,6.681e+00,6.660e+00,8.071e+00,8.120e+00,6.814e+00,6.855e+00,8.749e+00,7.100e+00,7.344e+00,5.629e+00,7.706e+00,7.465e+00,6.726e+00,8.219e+00,6.641e+00,9.103e+00,7.741e+00,6.707e+00,5.926e+00,8.085e+00,7.760e+00,7.556e+00,7.558e+00,7.680e+00,8.139e+00,7.219e+00,8.468e+00,7.783e+00,8.307e+00,7.416e+00,7.324e+00,8.724e+00,8.200e+00,8.215e+00,7.680e+00,7.463e+00,7.479e+00,7.599e+00,6.387e+00,7.883e+00,8.118e+00,6.042e+00,7.686e+00,9.376e+00,7.171e+00,6.159e+00,6.678e+00,7.192e+00
3.062e-01,8.680e-01,9.132e-01,1.888e+00,1.543e+00,2.112e+00,1.207e+00,1.610e+00,2.956e+00,1.429e+00,2.684e+00,2.217e+00,3.226e+00,2.468e+00,3.565e+00,3.079e+00,3.752e+00,4.038e+00,2.723e+00,3.910e+00,4.814e+00,4.272e+00,4.146e+00,5.693e+00,4.789e+00,5.640e+00,6.020e+00,7.566e+00,7.000e+00,6.429e+00,7.459e+00,8.512e+00,7.125e+00,6.772e+00,9.488e+00,7.030e+00,7.873e+00,6.174e+00,8.401e+00,7.068e+00,6.534e+00,7.290e+00,7.223e+00,8.431e+00,7.953e+00,7.352e+00,6.019e+00,9.293e+00,8.013e+00,7.215e+00,7.378e+00,6.656e+00,8.068e+00,7.767e+00,7.463e+00,8.212e+00,9.006e+00,8.745e+00,7.230e+00,6.683e+00,7.979e+00,6.724e+00,7.496e+00,7.100e+00,7.293e+00,7.669e+00,6.236e+00,7.630e+00,8.603e+00,5.614e+00,7.994e+00,9.689e+00,8.543e+00,5.668e+00,6.225e+00,7.858e+00
4.430e-01,1.632e-01,4.370e-01,1.079e+00,1.325e+00,2.306e+00,1.428e+00,2.196e+00,3.119e+00,2.252e+00,3.322e+00,4.042e+00,4.437e+00,3.802e+00,4.556e+00,4.721e+00,6.232e+00,6.702e+00,5.260e+00,5.696e+00,6.640e+00,6.057e+00,5.735e+00,8.019e+00,5.990e+00,6.291e+00,6.883e+00,8.426e+00,7.843e+00,7.484e+00,8.344e+00,1.008e+01,7.502e+00,8.187e+00,1.073e+01,7.219e+00,1.005e+01,7.432e+00,9.197e+00,1.019e+01,7.267e+00,9.140e+00,7.459e+00,1.018e+01,9.060e+00,7.157e+00,7.446e+00,8.834e+00,8.396e+00,9.118e+00,9.553e+00,8.546e+00,8.525e+00,8.517e+00,9.426e+00,8.137e+00,1.003e+01,8.910e+00,9.704e+00,8.830e+00,8.368e+00,7.926e+00,7.787e+00,8.940e+00,8.230e+00,8.570e+00,7.257e+00,8.974e+00,9.150e+00,6.941e+00,7.877e+00,9.490e+00,6.985e+00,6.510e+00,8.756e+00,8.458e+00
4.796e-01,9.301e-02,4.095e-01,1.051e+00,1.287e+00,2.079e+00,1.291e+00,1.553e+00,2.202e+00,1.312e+00,2.409e+00,3.320e+00,3.531e+00,2.936e+00,3.447e+00,3.538e+00,4.675e+00,5.373e+00,4.642e+00,4.848e+00,5.284e+00,5.703e+00,5.266e+00,7.804e+00,6.326e+00,6.533e+00,8.163e+00,9.050e+00,7.239e+00,7.042e+00,1.020e+01,1.032e+01,8.735e+00,9.016e+00,1.082e+01,8.540e+00,1.068e+01,8.101e+00,8.953e+00,8.365e+00,8.259e+00,9.292e+00,7.815e+00,1.112e+01,1.003e+01,8.985e+00,7.619e+00,1.005e+01,8.591e+00,9.180e+00,9.716e+00,8.916e+00,9.733e+00,9.071e+00,9.502e+00,9.741e+00,1.076e+01,1.007e+01,8.507e+00,8.743e+00,9.618e+00,8.017e+00,8.093e+00,1.095e+01,9.489e+00,8.842e+00,9.464e+00,1.061e+01,1.032e+01,8.035e+00,9.426e+00,1.134e+01,9.992e+00,7.391e+00,8.797e+00,9.259e+00
2.453e-01,7.150e-01,7.527e-01,1.227e+00,1.650e+00,2.685e+00,1.250e+00,2.335e+00,2.642e+00,1.752e+00,3.234e+00,3.120e+00,3.841e+00,2.792e+00,3.755e+00,3.102e+00,4.533e+00,5.508e+00,4.367e+00,5.064e+00,5.645e+00,6.096e+00,5.381e+00,8.233e+00,6.340e+00,7.202e+00,7.516e+00,8.527e+00,8.507e+00,7.156e+00,8.763e+00,9.325e+00,7.650e+00,8.964e+00,1.042e+01,7.490e+00,9.075e+00,6.586e+00,8.767e+00,8.828e+00,7.063e+00,9.377e+00,8.455e+00,9.533e+00,9.306e+00,8.347e+00,7.965e+00,9.362e+00,9.124e+00,8.568e+00,9.013e+00,9.217e+00,8.826e+00,8.951e+00,8.381e+00,9.306e+00,1.020e+01,8.770e+00,8.666e+00,8.380e+00,9.456e+00,8.507e+00,8.760e+00,1.021e+01,8.272e+00,8.839e+00,8.062e+00,9.347e+00,9.338e+00,6.273e+00,8.607e+00,1.080e+01,8.687e+00,7.294e+00,8.228e+00,8.695e+00
4.137e-01,6.240e-01,7.832e-01,1.984e+00,1.216e+00,2.215e+00,1.242e+00,1.776e+00,3.500e+00,2.606e+00,3.821e+00,3.593e+00,4.785e+00,3.491e+00,5.035e+00,4.282e+00,5.787e+00,5.687e+00,5.143e+00,5.395e+00,5.720e+00,5.999e+00,5.383e+00,7.597e+00,6.201e+00,7.066e+00,7.260e+00,9.768e+00,7.475e+00,7.126e+00,9.970e+00,9.681e+00,8.681e+00,9.504e+00,1.017e+01,8.801e+00,1.024e+01,7.360e+00,9.986e+00,9.793e+00,7.645e+00,1.013e+01,9.933e+00,1.147e+01,9.353e+00,9.366e+00,8.822e+00,1.117e+01,1.091e+01,8.783e+00,1.063e+01,9.803e+00,1.017e+01,8.821e+00,1.011e+01,8.935e+00,1.108e+01,1.031e+01,8.304e+00,9.014e+00,1.032e+01,1.014e+01,8.704e+00,9.254e+00,1.094e+01,1.008e+01,8.202e+00,9.533e+00,1.044e+01,7.943e+00,1.090e+01,1.181e+01,1.039e+01,6.922e+00,8.876e+00,9.619e+00
5.775e-01,4.972e-01,7.930e-01,1.296e+00,1.475e+00,2.535e+00,1.489e+00,2.073e+00,3.547e+00,2.714e+00,4.012e+00,3.715e+00,4.676e+00,3.321e+00,4.433e+00,4.076e+00,6.329e+00,7.037e+00,5.319e+00,5.471e+00,6.586e+00,6.783e+00,6.098e+00,8.935e+00,7.098e+00,7.503e+00,9.526e+00,9.125e+00,9.187e+00,8.228e+00,1.025e+01,1.146e+01,9.246e+00,1.137e+01,1.275e+01,1.046e+01,1.207e+01,1.004e+01,1.144e+01,1.267e+01,1.011e+01,1.280e+01,1.019e+01,1.294e+01,1.143e+01,1.068e+01,1.056e+01,1.199e+01,1.071e+01,1.202e+01,1.187e+01,1.190e+01,1.169e+01,1.086e+01,1.275e+01,1.041e+01,1.334e+01,1.147e+01,1.183e+01,1.135e+01,1.209e+01,1.104e+01,1.056e+01,1.184e+01,1.153e+01,1.128e+01,1.059e+01,1.131e+01,1.204e+01,9.478e+00,1.204e+01,1.365e+01,1.045e+01,9.098e+00,1.123e+01,1.042e+01
2.520e-01,3.950e-01,4.875e-01,1.475e+00,7.483e-01,1.521e+00,8.260e-01,1.312e+00,2.560e+00,2.135e+00,3.239e+00,2.467e+00,4.074e+00,2.040e+00,3.498e+00,3.156e+00,5.413e+00,5.068e+00,4.114e+00,4.935e+00,4.445e+00,5.362e+00,4.175e+00,7.255e+00,5.864e+00,5.660e+00,7.309e+00,8.221e+00,6.082e+00,6.420e+00,8.091e+00,9.304e+00,7.685e+00,8.189e+00,9.442e+00,8.627e+00,8.252e+00,6.342e+00,9.242e+00,8.835e+00,8.242e+00,1.015e+01,7.519e+00,1.053e+01,9.058e+00,8.080e+00,7.326e+00,1.006e+01,8.431e+00,9.133e+00,9.653e+00,8.697e+00,8.904e+00,7.489e+00,1.001e+01,8.238e+00,8.694e+00,8.617e+00,8.390e+00,9.561e+00,8.799e+00,9.036e+00,9.527e+00,8.998e+00,9.154e+00,8.907e+00,7.869e+00,9.305e+00,9.788e+00,6.995e+00,9.248e+00,1.072e+01,8.988e+00,7.131e+00,9.013e+00,8.043e+00
2.180e-01,5.312e-01,5.904e-01,1.303e+00,1.523e+00,2.627e+00,1.207e+00,2.211e+00,2.717e+00,2.339e+00,2.923e+00,4.374e+00,4.155e+00,3.835e+00,4.799e+00,3.630e+00,4.662e+00,5.633e+00,4.869e+00,4.211e+00,4.835e+00,5.725e+00,5.159e+00,8.063e+00,6.552e+00,6.217e+00,7.325e+00,8.497e+00,7.893e+00,7.284e+00,9.388e+00,9.723e+00,8.161e+00,8.414e+00,1.027e+01,8.968e+00,1.190e+01,9.087e+00,9.810e+00,1.044e+01,9.027e+00,9.848e+00,9.788e+00,1.233e+01,1.085e+01,9.204e+00,9.741e+00,1.202e+01,9.537e+00,9.206e+00,1.004e+01,1.059e+01,1.033e+01,9.510e+00,1.133e+01,1.073e+01,1.245e+01,1.032e+01,1.027e+01,1.049e+01,1.101e+01,9.888e+00,9.451e+00,1.187e+01,1.080e+01,1.015e+01,1.015e+01,1.085e+01,1.041e+01,8.246e+00,1.046e+01,1.214e+01,1.049e+01,8.706e+00,1.009e+01,9.285e+00
1.550e-01,7.865e-01,7.360e-01,1.260e+00,7.935e-01,1.743e+00,6.145e-01,1.364e+00,2.096e+00,1.747e+00,2.781e+00,1.364e+00,2.570e+00,2.057e+00,2.811e+00,2.630e+00,4.695e+00,4.490e+00,3.441e+00,4.026e+00,3.951e+00,5.017e+00,3.376e+00,6.832e+00,5.011e+00,5.375e+00,6.011e+00,6.774e+00,4.832e+00,5.194e+00,6.829e+00,7.442e+00,7.228e+00,6.867e+00,8.438e+00,7.906e+00,7.983e+00,7.056e+00,8.391e+00,8.713e+00,8.548e+00,9.930e+00,7.050e+00,9.934e+00,8.267e+00,7.384e+00,8.187e+00,1.095e+01,8.673e+00,7.936e+00,9.254e+00,9.210e+00,8.350e+00,7.701e+00,9.454e+00,8.468e+00,9.226e+00,9.256e+00,7.756e+00,8.175e+00,8.395e+00,9.149e+00,9.045e+00,8.942e+00,9.939e+00,9.312e+00,8.758e+00,9.430e+00,8.786e+00,7.378e+00,9.317e+00,1.017e+01,8.347e+00,7.649e+00,8.359e+00,7.571e+00
9.253e-02,8.308e-01,7.360e-01,1.657e+00,1.362e+00,1.891e+00,9.211e-01,2.034e+00,3.131e+00,2.713e+00,3.376e+00,3.744e+00,4.546e+00,2.358e+00,4.569e+00,2.919e+00,5.192e+00,5.398e+00,4.083e+00,4.599e+00,4.127e+00,5.521e+00,5.038e+00,7.054e+00,5.591e+00,6.455e+00,7.186e+00,8.034e+00,7.454e+00,7.192e+00,9.053e+00,9.731e+00,7.900e+00,8.900e+00,1.093e+01,9.460e+00,1.026e+01,9.969e+00,1.007e+01,1.169e+01,1.194e+01,1.162e+01,1.104e+01,1.222e+01,1.159e+01,1.073e+01,1.074e+01,1.246e+01,1.180e+01,1.021e+01,1.141e+01,1.054e+01,1.125e+01,1.009e+01,1.268e+01,1.012e+01,1.342e+01,1.138e+01,1.029e+01,1.203e+01,1.159e+01,1.126e+01,1.102e+01,1.220e+01,1.199e+01,1.224e+01,9.969e+00,1.097e+01,1.126e+01,1.041e+01,1.288e+01,1.422e+01,1.208e+01,9.287e+00,1.166e+01,9.915e+00
4.196e-01,4.440e-01,6.477e-01,1.112e+00,1.414e+00,2.261e+00,1.144e+00,1.769e+00,2.321e+00,1.898e+00,3.188e+00,3.179e+00,3.954e+00,2.589e+00,3.875e+00,2.850e+00,4.753e+00,5.248e+00,4.177e+00,4.435e+00,5.181e+00,5.230e+00,3.680e+00,5.826e+00,5.070e+00,5.060e+00,6.736e+00,7.667e+00,6.584e+00,6.152e+00,7.950e+00,9.032e+00,6.605e+00,7.119e+00,9.827e+00,8.749e+00,9.061e+00,7.413e+00,9.389e+00,1.017e+01,8.378e+00,9.910e+00,7.576e+00,1.051e+01,9.377e+00,8.252e+00,7.896e+00,9.768e+00,8.168e+00,9.559e+00,8.982e+00,8.461e+00,8.863e+00,9.627e+00,1.031e+01,9.369e+00,1.091e+01,9.846e+00,8.616e+00,8.315e+00,1.024e+01,8.633e+00,9.838e+00,9.159e+00,9.682e+00,8.167e+00,8.789e+00,9.479e+00,9.288e+00,8.539e+00,9.252e+00,1.126e+01,8.307e+00,7.746e+00,1.016e+01,9.645e+00
5.354e-01,8.808e-01,1.079e+00,2.147e+00,2.076e+00,2.625e+00,1.567e+00,2.148e+00,3.819e+00,2.666e+00,3.592e+00,3.941e+00,4.898e+00,3.599e+00,5.040e+00,4.237e+00,6.139e+00,6.217e+00,4.179e+00,4.952e+00,6.191e+00,5.508e+00,5.099e+00,7.097e+00,6.030e+00,5.905e+00,6.581e+00,8.191e+00,7.343e+00,7.212e+00,8.172e+00,9.028e+00,7.737e+00,8.312e+00,1.074e+01,9.507e+00,1.077e+01,9.757e+00,1.089e+01,1.349e+01,1.121e+01,1.187e+01,9.891e+00,1.221e+01,1.176e+01,1.032e+01,1.036e+01,1.281e+01,1.154e+01,1.028e+01,1.027e+01,1.089e+01,1.052e+01,1.116e+01,1.287e+01,1.026e+01,1.437e+01,1.173e+01,1.119e+01,1.087e+01,1.234e+01,1.194e+01,1.089e+01,1.109e+01,1.219e+01,1.211e+01,9.511e+00,1.048e+01,1.149e+01,9.571e+00,1.239e+01,1.381e+01,1.040e+01,8.298e+00,1.112e+01,1.034e+01
3.988e-01,1.823e-01,4.256e-01,7.505e-01,1.365e+00,1.475e+00,1.209e+00,1.265e+00,2.029e+00,6.035e-01,2.050e+00,2.444e+00,2.746e+00,1.746e+00,2.650e+00,2.477e+00,3.231e+00,3.935e+00,2.934e+00,3.582e+00,4.853e+00,3.736e+00,3.768e+00,4.876e+00,4.120e+00,4.723e+00,5.278e+00,5.814e+00,5.469e+00,5.261e+00,5.844e+00,7.221e+00,5.939e+00,7.168e+00,8.874e+00,7.750e+00,9.047e+00,8.067e+00,7.933e+00,1.005e+01,8.010e+00,9.015e+00,8.454e+00,9.564e+00,9.503e+00,8.579e+00,7.789e+00,1.025e+01,9.478e+00,8.663e+00,8.466e+00,8.180e+00,9.025e+00,8.523e+00,1.094e+01,7.735e+00,1.192e+01,9.155e+00,9.842e+00,8.678e+00,8.762e+00,8.697e+00,9.068e+00,9.263e+00,8.473e+00,9.480e+00,8.659e+00,8.483e+00,1.043e+01,8.004e+00,9.676e+00,1.060e+01,8.290e+00,7.153e+00,8.778e+00,8.502e+00
4.129e-01,6.736e-01,8.129e-01,1.889e+00,8.896e-01,1.514e+00,8.739e-01,1.239e+00,2.903e+00,2.084e+00,2.781e+00,2.358e+00,3.356e+00,2.073e+00,3.590e+00,2.870e+00,4.291e+00,4.224e+00,3.238e+00,4.431e+00,4.039e+00,4.532e+00,4.402e+00,6.151e+00,5.766e+00,5.038e+00,6.753e+00,7.490e+00,5.876e+00,5.593e+00,8.134e+00,8.120e+00,6.657e+00,7.669e+00,9.158e+00,7.929e+00,8.717e+00,7.861e+00,8.842e+00,9.183e+00,9.467e+00,1.072e+01,1.016e+01,1.196e+01,9.979e+00,1.007e+01,1.015e+01,1.258e+01,1.065e+01,1.081e+01,1.056e+01,1.060e+01,1.112e+01,9.123e+00,1.158e+01,9.329e+00,1.163e+01,1.005e+01,9.882e+00,1.136e+01,1.007e+01,1.116e+01,1.199e+01,9.790e+00,1.186e+01,1.164e+01,9.946e+00,1.137e+01,1.276e+01,9.473e+00,1.226e+01,1.273e+01,1.141e+01,9.087e+00,1.114e+01,9.533e+00
2.838e-02,3.385e-01,3.046e-01,5.915e-01,1.090e+00,1.382e+00,8.625e-01,1.549e+00,2.392e+00,2.196e+00,3.189e+00,2.944e+00,4.361e+00,2.595e+00,3.644e+00,3.376e+00,5.396e+00,5.052e+00,4.294e+00,4.838e+00,5.546e+00,5.102e+00,5.228e+00,7.593e+00,5.048e+00,6.933e+00,6.579e+00,7.612e+00,7.636e+00,7.246e+00,7.850e+00,9.312e+00,8.181e+00,9.115e+00,1.048e+01,9.484e+00,1.026e+01,9.566e+00,1.081e+01,1.157e+01,1.048e+01,1.184e+01,1.125e+01,1.270e+01,1.238e+01,1.137e+01,1.089e+01,1.323e+01,1.243e+01,1.210e+01,1.373e+01,1.216e+01,1.191e+01,1.159e+01,1.442e+01,1.110e+01,1.335e+01,1.208e+01,1.243e+01,1.240e+01,1.106e+01,1.158e+01,1.278e+01,1.242e+01,1.256e+01,1.259e+01,1.176e+01,1.279e+01,1.436e+01,1.077e+01,1.260e+01,1.539e+01,1.307e+01,1.053e+01,1.198e+01,1.142e+01
8.279e-02,5.004e-01,4.606e-01,1.053e+00,9.195e-01,2.022e+00,8.969e-01,2.139e+00,2.773e+00,2.460e+00,4.111e+00,3.172e+00,4.335e+00,2.607e+00,4.472e+00,2.829e+00,4.650e+00,5.230e+00,5.230e+00,5.363e+00,4.779e+00,5.367e+00,5.066e+00,7.816e+00,6.520e+00,6.589e+00,6.131e+00,7.959e+00,7.249e+00,6.866e+00,9.285e+00,9.185e+00,7.734e+00,8.318e+00,9.486e+00,7.263e+00,9.701e+00,8.410e+00,9.239e+00,1.035e+01,9.144e+00,1.057e+01,1.028e+01,1.229e+01,1.314e+01,1.149e+01,1.063e+01,1.248e+01,1.149e+01,1.024e+01,1.228e+01,1.200e+01,1.145e+01,1.038e+01,1.141e+01,1.025e+01,1.359e+01,1.189e+01,1.088e+01,1.200e+01,9.657e+00,1.089e+01,1.116e+01,1.329e+01,1.062e+01,1.198e+01,1.181e+01,1.169e+01,1.170e+01,9.718e+00,1.217e+01,1.352e+01,1.167e+01,9.432e+00,1.268e+01,1.040e+01
5.342e-02,8.823e-01,7.582e-01,1.131e+00,1.167e+00,1.719e+00,7.672e-01,1.335e+00,2.491e+00,2.066e+00,1.896e+00,2.675e+00,2.784e+00,2.696e+00,3.098e+00,2.713e+00,3.363e+00,3.662e+00,2.561e+00,2.351e+00,3.645e+00,4.437e+00,4.187e+00,5.827e+00,3.715e+00,5.905e+00,6.552e+00,5.701e+00,6.016e+00,5.043e+00,5.948e+00,6.495e+00,5.728e+00,6.541e+00,7.892e+00,6.785e+00,8.006e+00,8.179e+00,7.901e+00,9.670e+00,9.700e+00,9.928e+00,9.581e+00,1.075e+01,1.002e+01,8.787e+00,9.474e+00,1.270e+01,1.103e+01,1.003e+01,9.639e+00,1.086e+01,1.016e+01,9.229e+00,1.082e+01,9.204e+00,1.199e+01,9.177e+00,1.144e+01,1.068e+01,1.044e+01,1.029e+01,1.132e+01,9.627e+00,9.841e+00,1.168e+01,8.503e+00,1.084e+01,1.084e+01,8.938e+00,1.145e+01,1.123e+01,1.047e+01,8.732e+00,1.044e+01,9.375e+00
4.193e-01,4.514e-01,6.591e-01,1.160e+00,1.680e+00,2.120e+00,1.442e+00,1.720e+00,2.903e+00,1.568e+00,3.137e+00,3.171e+00,3.951e+00,2.855e+00,3.598e+00,3.797e+00,5.514e+00,5.984e+00,4.710e+00,4.234e+00,5.572e+00,5.210e+00,4.845e+00,8.209e+00,6.049e+00,7.162e+00,7.907e+00,8.239e+00,7.600e+00,7.974e+00,8.063e+00,9.534e+00,8.429e+00,8.706e+00,1.107e+01,1.005e+01,1.043e+01,9.357e+00,1.031e+01,1.139e+01,1.018e+01,1.297e+01,1.032e+01,1.369e+01,1.327e+01,1.127e+01,1.117e+01,1.501e+01,1.351e+01,1.218e+01,1.252e+01,1.433e+01,1.321e+01,1.455e+01,1.360e+01,1.227e+01,1.519e+01,1.305e+01,1.318e+01,1.299e+01,1.277e+01,1.399e+01,1.377e+01,1.290e+01,1.269e+01,1.353e+01,1.251e+01,1.482e+01,1.522e+01,1.087e+01,1.337e+01,1.433e+01,1.313e+01,1.189e+01,1.219e+01,1.301e+01
3.215e-01,3.218e-01,4.877e-01,1.217e+00,1.418e+00,2.441e+00,1.364e+00,2.249e+00,3.213e+00,2.679e+00,3.764e+00,4.421e+00,4.876e+00,3.965e+00,5.245e+00,3.818e+00,5.083e+00,5.758e+00,5.140e+00,4.597e+00,5.384e+00,5.354e+00,4.982e+00,6.831e+00,5.647e+00,5.774e+00,6.067e+00,7.614e+00,6.325e+00,6.007e+00,8.031e+00,8.487e+00,6.722e+00,7.280e+00,8.562e+00,7.053e+00,9.582e+00,8.473e+00,9.405e+00,1.126e+01,8.383e+00,1.075e+01,9.922e+00,1.107e+01,1.114e+01,9.467e+00,1.043e+01,1.346e+01,1.210e+01,1.091e+01,1.218e+01,1.285e+01,1.100e+01,1.126e+01,1.334e+01,1.036e+01,1.388e+01,1.097e+01,1.191e+01,1.153e+01,1.092e+01,1.189e+01,1.138e+01,1.178e+01,1.138e+01,1.133e+01,1.056e+01,1.153e+01,1.264e+01,1.006e+01,1.143e+01,1.268e+01,1.105e+01,9.899e+00,1.216e+01,1.127e+01
9.709e-02,3.723e-02,9.736e-02,9.169e-01,6.856e-01,6.299e-01,6.719e-01,1.171e+00,2.207e+00,1.964e+00,2.678e+00,2.479e+00,3.865e+00,2.059e+00,3.442e+00,3.184e+00,5.275e+00,4.343e+00,3.518e+00,4.290e+00,3.941e+00,4.519e+00,4.306e+00,7.152e+00,5.133e+00,5.286e+00,5.787e+00,6.818e+00,5.042e+00,5.821e+00,7.422e+00,7.928e+00,6.819e+00,6.928e+00,7.962e+00,8.278e+00,7.953e+00,7.439e+00,8.192e+00,1.005e+01,9.487e+00,1.050e+01,8.109e+00,1.127e+01,9.870e+00,8.811e+00,9.794e+00,1.207e+01,1.139e+01,1.052e+01,1.148e+01,1.016e+01,1.046e+01,1.022e+01,1.252e+01,9.455e+00,1.200e+01,1.051e+01,1.035e+01,1.256e+01,9.652e+00,1.175e+01,1.112e+01,1.015e+01,1.203e+01,1.220e+01,9.937e+00,1.177e+01,1.222e+01,1.038e+01,1.218e+01,1.336e+01,1.161e+01,9.035e+00,1.135e+01,1.061e+01
3.672e-01,1.885e-01,4.118e-01,1.377e+00,1.397e+00,2.270e+00,1.418e+00,2.041e+00,3.010e+00,2.056e+00,3.350e+00,4.054e+00,4.863e+00,3.593e+00,4.567e+00,4.349e+00,5.915e+00,6.195e+00,5.313e+00,5.733e+00,6.046e+00,5.810e+00,5.659e+00,7.901e+00,6.508e+00,6.329e+00,6.797e+00,8.820e+00,6.514e+00,6.530e+00,8.926e+00,9.352e+00,7.814e+00,8.405e+00,9.690e+00,8.472e+00,1.058e+01,8.691e+00,9.305e+00,1.139e+01,9.149e+00,1.121e+01,1.068e+01,1.233e+01,1.200e+01,1.049e+01,1.207e+01,1.416e+01,1.350e+01,1.223e+01,1.234e+01,1.315e+01,1.390e+01,1.189e+01,1.330e+01,1.205e+01,1.589e+01,1.199e+01,1.255e+01,1.300e+01,1.296e+01,1.324e+01,1.315e+01,1.331e+01,1.428e+01,1.379e+01,1.234e+01,1.339e+01,1.481e+01,1.236e+01,1.356e+01,1.431e+01,1.319e+01,1.104e+01,1.273e+01,1.269e+01
2.335e-01,6.221e-02,2.163e-01,8.222e-01,7.826e-01,9.661e-01,7.759e-01,7.772e-01,1.881e+00,1.622e+00,2.093e+00,2.210e+00,3.202e+00,1.925e+00,2.720e+00,2.566e+00,3.985e+00,3.988e+00,3.270e+00,4.335e+00,3.548e+00,4.287e+00,4.367e+00,6.460e+00,4.824e+00,5.645e+00,6.738e+00,7.617e+00,6.053e+00,6.367e+00,7.940e+00,8.166e+00,6.902e+00,8.334e+00,8.652e+00,8.738e+00,9.862e+00,8.201e+00,9.473e+00,1.117e+01,9.930e+00,1.110e+01,1.075e+01,1.244e+01,1.228e+01,1.201e+01,1.172e+01,1.464e+01,1.383e+01,1.279e+01,1.349e+01,1.322e+01,1.408e+01,1.344e+01,1.480e+01,1.285e+01,1.538e+01,1.329e+01,1.318e+01,1.456e+01,1.295e+01,1.481e+01,1.521e+01,1.440e+01,1.450e+01,1.497e+01,1.312e+01,1.463e+01,1.529e+01,1.368e+01,1.502e+01,1.576e+01,1.537e+01,1.262e+01,1.550e+01,1.336e+01
1.496e-01,2.852e-01,3.348e-01,8.203e-01,1.112e+00,1.487e+00,9.217e-01,1.797e+00,2.280e+00,1.728e+00,3.459e+00,2.435e+00,3.841e+00,2.102e+00,3.604e+00,2.595e+00,4.870e+00,4.732e+00,3.934e+00,4.441e+00,4.606e+00,5.170e+00,4.104e+00,6.657e+00,5.190e+00,5.614e+00,5.903e+00,7.050e+00,5.974e+00,5.923e+00,7.261e+00,7.899e+00,6.034e+00,7.230e+00,8.656e+00,7.598e+00,7.711e+00,7.184e+00,7.908e+00,9.831e+00,8.268e+00,1.050e+01,8.651e+00,1.024e+01,1.014e+01,9.899e+00,1.016e+01,1.192e+01,1.283e+01,1.071e+01,1.199e+01,1.252e+01,1.219e+01,1.194e+01,1.281e+01,1.149e+01,1.455e+01,1.251e+01,1.059e+01,1.156e+01,1.174e+01,1.345e+01,1.302e+01,1.251e+01,1.184e+01,1.398e+01,1.198e+01,1.307e+01,1.245e+01,1.165e+01,1.200e+01,1.441e+01,1.315e+01,1.192e+01,1.362e+01,1.235e+01
5.487e-01,9.801e-01,1.163e+00,1.985e+00,1.900e+00,3.068e+00,1.602e+00,2.403e+00,3.838e+00,2.435e+00,4.313e+00,3.592e+00,4.436e+00,3.538e+00,5.140e+00,3.731e+00,4.966e+00,6.053e+00,5.081e+00,5.033e+00,6.238e+00,6.089e+00,5.451e+00,7.386e+00,6.432e+00,7.041e+00,6.804e+00,8.976e+00,8.509e+00,7.680e+00,9.348e+00,9.727e+00,8.668e+00,9.805e+00,1.152e+01,9.835e+00,1.119e+01,9.296e+00,1.167e+01,1.241e+01,1.035e+01,1.310e+01,1.167e+01,1.353e+01,1.412e+01,1.308e+01,1.202e+01,1.659e+01,1.485e+01,1.290e+01,1.384e+01,1.449e+01,1.600e+01,1.446e+01,1.500e+01,1.438e+01,1.845e+01,1.570e+01,1.360e+01,1.496e+01,1.473e+01,1.538e+01,1.441e+01,1.562e+01,1.545e+01,1.610e+01,1.349e+01,1.469e+01,1.614e+01,1.262e+01,1.576e+01,1.718e+01,1.587e+01,1.274e+01,1.535e+01,1.407e+01
2.391e-01,3.192e-01,4.192e-01,1.318e+00,1.137e+00,2.123e+00,1.019e+00,2.346e+00,2.508e+00,2.058e+00,3.193e+00,4.047e+00,4.402e+00,3.267e+00,4.632e+00,3.672e+00,5.073e+00,5.005e+00,5.240e+00,5.637e+00,5.758e+00,6.202e+00,5.282e+00,8.229e+00,6.583e+00,6.681e+00,7.502e+00,8.840e+00,7.181e+00,6.738e+00,9.923e+00,9.566e+00,8.261e+00,9.569e+00,1.111e+01,9.557e+00,1.097e+01,9.408e+00,1.038e+01,1.150e+01,9.936e+00,1.190e+01,1.064e+01,1.344e+01,1.231e+01,1.111e+01,1.193e+01,1.349e+01,1.306e+01,1.303e+01,1.364e+01,1.546e+01,1.437e+01,1.393e+01,1.471e+01,1.436e+01,1.734e+01,1.348e+01,1.314e+01,1.437e+01,1.390e+01,1.561e+01,1.514e+01,1.556e+01,1.472e+01,1.670e+01,1.176e+01,1.666e+01,1.504e+01,1.445e+01,1.520e+01,1.650e+01,1.487e+01,1.370e+01,1.583e+01,1.500e+01
2.975e-01,5.101e-01,6.133e-01,1.029e+00,1.323e+00,2.204e+00,1.149e+00,2.223e+00,2.759e+00,2.008e+00,3.736e+00,3.219e+00,4.179e+00,3.274e+00,4.436e+00,4.239e+00,6.027e+00,6.545e+00,5.261e+00,5.183e+00,6.144e+00,6.438e+00,5.128e+00,8.908e+00,6.321e+00,6.777e+00,7.335e+00,8.796e+00,8.123e+00,7.059e+00,9.476e+00,1.014e+01,7.566e+00,8.534e+00,1.067e+01,8.560e+00,1.097e+01,8.110e+00,9.186e+00,1.121e+01,9.801e+00,1.173e+01,9.274e+00,1.356e+01,1.334e+01,1.086e+01,1.126e+01,1.402e+01,1.266e+01,1.199e+01,1.192e+01,1.429e+01,1.361e+01,1.359e+01,1.337e+01,1.468e+01,1.704e+01,1.333e+01,1.342e+01,1.535e+01,1.394e+01,1.411e+01,1.489e+01,1.622e+01,1.348e+01,1.631e+01,1.366e+01,1.619e+01,1.483e+01,1.281e+01,1.365e+01,1.439e+01,1.363e+01,1.303e+01,1.552e+01,1.484e+01
2.342e-01,6.662e-01,6.952e-01,1.090e+00,1.132e+00,2.074e+00,9.178e-01,1.946e+00,2.526e+00,1.966e+00,2.589e+00,2.847e+00,2.335e+00,2.659e+00,3.757e+00,2.157e+00,3.451e+00,4.396e+00,3.671e+00,4.605e+00,4.011e+00,4.648e+00,4.564e+00,5.358e+00,4.491e+00,5.374e+00,4.750e+00,6.758e+00,5.208e+00,5.893e+00,6.304e+00,5.919e+00,4.925e+00,5.262e+00,7.850e+00,5.441e+00,8.186e+00,6.415e+00,7.775e+00,7.769e+00,6.268e+00,7.785e+00,8.662e+00,1.008e+01,7.924e+00,7.999e+00,8.601e+00,9.535e+00,9.812e+00,7.940e+00,8.912e+00,1.087e+01,1.093e+01,1.042e+01,1.153e+01,1.224e+01,1.302e+01,1.083e+01,9.619e+00,1.226e+01,9.947e+00,1.201e+01,1.068e+01,1.114e+01,1.031e+01,1.146e+01,9.490e+00,1.075e+01,1.225e+01,1.043e+01,1.155e+01,1.133e+01,1.046e+01,9.670e+00,1.182e+01,1.078e+01
5.469e-01,7.621e-01,9.935e-01,1.649e+00,2.112e+00,3.276e+00,1.764e+00,2.686e+00,3.771e+00,2.580e+00,4.382e+00,3.616e+00,4.780e+00,3.337e+00,4.799e+00,3.698e+00,6.413e+00,7.435e+00,4.710e+00,5.665e+00,6.689e+00,7.105e+00,5.389e+00,8.477e+00,7.030e+00,6.986e+00,8.661e+00,9.051e+00,7.867e+00,7.518e+00,8.729e+00,1.024e+01,8.811e+00,9.800e+00,1.185e+01,1.048e+01,1.183e+01,9.277e+00,1.108e+01,1.234e+01,1.024e+01,1.190e+01,8.845e+00,1.359e+01,1.281e+01,1.084e+01,1.127e+01,1.335e+01,1.185e+01,1.225e+01,1.426e+01,1.380e+01,1.423e+01,1.377e+01,1.334e+01,1.510e+01,1.775e+01,1.543e+01,1.417e+01,1.483e+01,1.444e+01,1.605e+01,1.547e+01,1.660e+01,1.511e+01,1.580e+01,1.396e+01,1.530e+01,1.514e+01,1.322e+01,1.410e+01,1.639e+01,1.297e+01,1.391e+01,1.550e+01,1.419e+01
4.779e-01,5.141e-01,7.469e-01,1.513e+00,1.602e+00,2.917e+00,1.531e+00,2.220e+00,2.980e+00,1.649e+00,3.078e+00,3.271e+00,3.580e+00,3.475e+00,4.006e+00,4.183e+00,5.842e+00,6.339e+00,4.725e+00,5.281e+00,6.711e+00,6.384e+00,5.332e+00,9.204e+00,6.564e+00,8.010e+00,9.021e+00,1.002e+01,7.979e+00,7.494e+00,9.528e+00,1.187e+01,1.050e+01,9.920e+00,1.251e+01,1.101e+01,1.273e+01,1.072e+01,1.094e+01,1.241e+01,1.241e+01,1.401e+01,1.090e+01,1.563e+01,1.492e+01,1.264e+01,1.258e+01,1.673e+01,1.462e+01,1.496e+01,1.480e+01,1.650e+01,1.530e+01,1.623e+01,1.544e+01,1.670e+01,2.019e+01,1.561e+01,1.761e+01,1.589e+01,1.622e+01,1.737e+01,1.747e+01,1.823e+01,1.690e+01,1.821e+01,1.660e+01,1.902e+01,1.737e+01,1.649e+01,1.754e+01,1.853e+01,1.611e+01,1.563e+01,1.707e+01,1.791e+01
2.385e-01,7.397e-02,2.319e-01,1.229e+00,1.006e+00,1.391e+00,9.762e-01,1.244e+00,2.244e+00,1.766e+00,2.238e+00,3.636e+00,4.321e+00,2.574e+00,3.681e+00,3.583e+00,5.155e+00,4.651e+00,3.967e+00,4.762e+00,5.291e+00,5.101e+00,4.792e+00,7.600e+00,6.016e+00,5.673e+00,6.944e+00,7.902e+00,6.532e+00,6.184e+00,8.231e+00,9.221e+00,7.500e+00,8.179e+00,9.281e+00,1.009e+01,9.681e+00,8.709e+00,1.037e+01,1.112e+01,1.011e+01,1.119e+01,9.833e+00,1.203e+01,1.108e+01,1.084e+01,1.007e+01,1.266e+01,1.208e+01,1.232e+01,1.272e+01,1.316e+01,1.310e+01,1.284e+01,1.535e+01,1.401e+01,1.615e+01,1.253e+01,1.442e+01,1.561e+01,1.503e+01,1.574e+01,1.586e+01,1.449e+01,1.626e+01,1.567e+01,1.273e+01,1.510e+01,1.533e+01,1.469e+01,1.458e+01,1.695e+01,1.433e+01,1.266e+01,1.453e+01,1.474e+01
5.947e-01,3.826e-01,7.049e-01,1.328e+00,1.333e+00,2.286e+00,1.388e+00,2.151e+00,3.241e+00,2.160e+00,3.248e+00,3.562e+00,3.445e+00,2.726e+00,4.096e+00,2.904e+00,4.112e+00,5.301e+00,4.403e+00,4.554e+00,4.851e+00,5.554e+00,5.562e+00,7.408e+00,6.709e+00,6.251e+00,7.773e+00,7.896e+00,7.462e+00,7.478e+00,9.328e+00,9.530e+00,8.147e+00,9.575e+00,1.083e+01,8.780e+00,1.102e+01,9.454e+00,9.949e+00,1.220e+01,1.051e+01,1.298e+01,1.123e+01,1.321e+01,1.384e+01,1.202e+01,1.153e+01,1.356e+01,1.322e+01,1.339e+01,1.315e+01,1.430e+01,1.440e+01,1.298e+01,1.385e+01,1.420e+01,1.618e+01,1.273e+01,1.435e+01,1.378e+01,1.432e+01,1.501e+01,1.468e+01,1.560e+01,1.393e+01,1.565e+01,1.369e+01,1.561e+01,1.628e+01,1.428e+01,1.618e+01,1.714e+01,1.418e+01,1.278e+01,1.445e+01,1.360e+01
5.615e-01,6.245e-01,8.890e-01,1.430e+00,1.435e+00,2.642e+00,1.371e+00,1.656e+00,2.995e+00,2.147e+00,3.310e+00,3.036e+00,3.473e+00,3.257e+00,3.787e+00,3.131e+00,4.618e+00,5.258e+00,4.577e+00,3.616e+00,4.786e+00,4.339e+00,4.004e+00,6.517e+00,5.721e+00,6.159e+00,7.707e+00,7.477e+00,6.280e+00,6.134e+00,7.824e+00,8.408e+00,7.901e+00,9.289e+00,9.787e+00,9.037e+00,1.096e+01,9.118e+00,9.508e+00,1.081e+01,9.678e+00,1.163e+01,1.038e+01,1.142e+01,1.149e+01,1.037e+01,1.058e+01,1.407e+01,1.254e+01,1.223e+01,1.246e+01,1.486e+01,1.445e+01,1.254e+01,1.386e+01,1.457e+01,1.740e+01,1.367e+01,1.477e+01,1.423e+01,1.638e+01,1.721e+01,1.504e+01,1.721e+01,1.641e+01,1.704e+01,1.481e+01,1.726e+01,1.621e+01,1.525e+01,1.660e+01,1.660e+01,1.608e+01,1.441e+01,1.607e+01,1.639e+01
5.975e-01,6.308e-01,9.157e-01,2.231e+00,1.751e+00,3.180e+00,1.754e+00,2.567e+00,3.911e+00,2.287e+00,3.926e+00,3.280e+00,4.173e+00,3.492e+00,4.816e+00,3.541e+00,4.946e+00,5.834e+00,4.003e+00,5.281e+00,5.617e+00,5.678e+00,4.822e+00,6.409e+00,5.643e+00,5.690e+00,6.630e+00,8.018e+00,6.404e+00,5.933e+00,9.035e+00,9.350e+00,7.784e+00,7.276e+00,1.039e+01,8.418e+00,9.596e+00,7.684e+00,9.272e+00,1.071e+01,9.525e+00,1.083e+01,8.364e+00,1.219e+01,1.298e+01,1.066e+01,9.686e+00,1.303e+01,1.065e+01,1.205e+01,1.178e+01,1.230e+01,1.324e+01,1.233e+01,1.269e+01,1.319e+01,1.565e+01,1.240e+01,1.306e+01,1.339e+01,1.344e+01,1.321e+01,1.466e+01,1.502e+01,1.384e+01,1.424e+01,1.336e+01,1.603e+01,1.619e+01,1.248e+01,1.361e+01,1.438e+01,1.414e+01,1.297e+01,1.402e+01,1.409e+01
4.641e-01,6.294e-01,8.332e-01,2.003e+00,1.904e+00,3.280e+00,1.594e+00,2.579e+00,3.265e+00,2.317e+00,3.479e+00,3.551e+00,4.041e+00,3.306e+00,4.469e+00,2.866e+00,5.431e+00,5.739e+00,4.161e+00,5.670e+00,5.578e+00,5.724e+00,4.749e+00,7.230e+00,6.066e+00,6.806e+00,8.202e+00,8.740e+00,7.142e+00,6.687e+00,9.086e+00,9.327e+00,8.096e+00,8.625e+00,1.149e+01,1.081e+01,1.082e+01,8.569e+00,1.003e+01,1.060e+01,1.042e+01,1.108e+01,9.526e+00,1.261e+01,1.222e+01,1.138e+01,1.054e+01,1.264e+01,1.231e+01,1.149e+01,1.223e+01,1.365e+01,1.319e+01,1.342e+01,1.410e+01,1.337e+01,1.728e+01,1.384e+01,1.287e+01,1.500e+01,1.509e+01,1.534e+01,1.634e+01,1.646e+01,1.518e+01,1.561e+01,1.443e+01,1.598e+01,1.612e+01,1.320e+01,1.453e+01,1.753e+01,1.460e+01,1.528e+01,1.593e+01,1.491e+01
3.777e-01,4.806e-01,6.391e-01,1.576e+00,1.190e+00,1.926e+00,1.189e+00,1.888e+00,3.131e+00,2.038e+00,4.085e+00,3.039e+00,4.638e+00,2.374e+00,4.362e+00,3.423e+00,5.353e+00,5.693e+00,5.074e+00,5.400e+00,5.466e+00,5.572e+00,4.999e+00,8.193e+00,7.199e+00,6.084e+00,6.730e+00,8.025e+00,7.752e+00,6.881e+00,9.244e+00,9.521e+00,7.680e+00,8.900e+00,1.024e+01,8.830e+00,9.645e+00,8.958e+00,1.012e+01,1.143e+01,1.010e+01,1.246e+01,1.039e+01,1.331e+01,1.250e+01,1.144e+01,1.208e+01,1.533e+01,1.374e+01,1.370e+01,1.351e+01,1.358e+01,1.508e+01,1.301e+01,1.438e+01,1.462e+01,1.800e+01,1.456e+01,1.453e+01,1.692e+01,1.573e+01,1.738e+01,1.706e+01,1.736e+01,1.701e+01,1.833e+01,1.557e+01,1.791e+01,1.736e+01,1.603e+01,1.811e+01,1.885e+01,1.565e+01,1.549e+01,1.737e+01,1.756e+01
2.927e-01,6.067e-01,6.984e-01,1.569e+00,1.439e+00,2.798e+00,1.208e+00,2.179e+00,2.813e+00,2.413e+00,2.771e+00,4.383e+00,3.969e+00,3.396e+00,4.601e+00,2.955e+00,4.124e+00,5.093e+00,4.454e+00,4.924e+00,5.097e+00,6.291e+00,5.514e+00,8.002e+00,7.191e+00,6.647e+00,8.283e+00,8.805e+00,8.180e+00,7.561e+00,1.017e+01,1.024e+01,8.343e+00,8.775e+00,1.121e+01,9.120e+00,1.070e+01,9.352e+00,1.086e+01,1.108e+01,1.053e+01,1.107e+01,1.022e+01,1.218e+01,1.199e+01,1.138e+01,9.409e+00,1.257e+01,1.125e+01,1.178e+01,1.274e+01,1.319e+01,1.384e+01,1.257e+01,1.376e+01,1.523e+01,1.541e+01,1.333e+01,1.406e+01,1.425e+01,1.552e+01,1.558e+01,1.459e+01,1.642e+01,1.516e+01,1.661e+01,1.591e+01,1.753e+01,1.733e+01,1.580e+01,1.746e+01,1.955e+01,1.739e+01,1.538e+01,1.796e+01,1.595e+01
9.669e-02,2.997e-01,3.221e-01,6.329e-01,1.175e+00,1.332e+00,8.132e-01,1.235e+00,1.649e+00,1.230e+00,1.642e+00,2.677e+00,3.188e+00,2.379e+00,2.727e+00,3.036e+00,3.592e+00,4.045e+00,2.915e+00,3.288e+00,3.950e+00,4.515e+00,4.041e+00,6.163e+00,4.496e+00,5.125e+00,6.983e+00,7.063e+00,6.132e+00,6.062e+00,6.897e+00,8.012e+00,6.410e+00,7.335e+00,8.701e+00,8.096e+00,9.067e+00,8.301e+00,9.174e+00,9.856e+00,8.881e+00,9.481e+00,9.234e+00,1.087e+01,1.136e+01,1.010e+01,1.092e+01,1.372e+01,1.193e+01,1.128e+01,1.075e+01,1.199e+01,1.316e+01,1.267e+01,1.176e+01,1.299e+01,1.586e+01,1.272e+01,1.339e+01,1.442e+01,1.354e+01,1.439e+01,1.625e+01,1.581e+01,1.490e+01,1.626e+01,1.502e+01,1.701e+01,1.683e+01,1.527e+01,1.668e+01,1.620e+01,1.525e+01,1.490e+01,1.668e+01,1.511e+01
3.074e-01,9.497e-01,9.770e-01,1.839e+00,1.394e+00,2.277e+00,1.114e+00,1.724e+00,3.406e+00,2.728e+00,3.456e+00,3.692e+00,4.425e+00,3.129e+00,4.812e+00,3.857e+00,5.587e+00,5.804e+00,4.473e+00,4.365e+00,5.211e+00,5.775e+00,4.808e+00,8.011e+00,6.177e+00,6.721e+00,6.833e+00,8.880e+00,8.190e+00,7.796e+00,9.004e+00,1.026e+01,8.843e+00,8.647e+00,1.045e+01,9.527e+00,1.142e+01,8.669e+00,9.875e+00,1.183e+01,1.028e+01,1.206e+01,1.115e+01,1.375e+01,1.294e+01,1.130e+01,1.132e+01,1.553e+01,1.407e+01,1.290e+01,1.431e+01,1.344e+01,1.640e+01,1.431e+01,1.499e+01,1.503e+01,1.990e+01,1.550e+01,1.576e+01,1.705e+01,1.575e+01,1.856e+01,1.789e+01,1.710e+01,1.876e+01,1.951e+01,1.709e+01,2.040e+01,1.921e+01,1.929e+01,1.987e+01,2.163e+01,2.024e+01,1.704e+01,1.824e+01,1.873e+01
2.448e-01,6.936e-01,7.359e-01,1.878e+00,1.434e+00,2.911e+00,1.204e+00,2.336e+00,3.242e+00,3.124e+00,3.555e+00,4.023e+00,4.582e+00,3.890e+00,5.245e+00,3.685e+00,6.061e+00,5.992e+00,4.569e+00,5.964e+00,5.888e+00,6.926e+00,5.583e+00,7.909e+00,6.374e+00,6.892e+00,7.759e+00,1.005e+01,7.389e+00,7.526e+00,1.012e+01,1.084e+01,9.475e+00,8.883e+00,1.133e+01,1.005e+01,1.209e+01,9.031e+00,1.053e+01,1.273e+01,1.119e+01,1.122e+01,1.043e+01,1.454e+01,1.339e+01,1.136e+01,1.130e+01,1.489e+01,1.297e+01,1.262e+01,1.417e+01,1.383e+01,1.502e+01,1.382e+01,1.619e+01,1.521e+01,1.805e+01,1.520e+01,1.508e+01,1.565e+01,1.468e+01,1.615e+01,1.662e+01,1.714e+01,1.689e+01,1.786e+01,1.741e+01,1.879e+01,1.912e+01,1.786e+01,1.805e+01,2.090e+01,2.028e+01,1.686e+01,1.919e+01,1.771e+01
7.962e-02,2.385e-01,2.630e-01,7.728e-01,1.176e+00,1.318e+00,8.471e-01,1.250e+00,1.844e+00,1.516e+00,1.896e+00,3.619e+00,3.821e+00,2.292e+00,3.283e+00,2.700e+00,3.542e+00,4.029e+00,3.554e+00,3.051e+00,3.608e+00,4.825e+00,4.653e+00,7.071e+00,5.285e+00,5.668e+00,6.700e+00,7.569e+00,6.694e+00,6.476e+00,8.123e+00,9.348e+00,7.308e+00,7.915e+00,8.811e+00,8.241e+00,9.841e+00,8.192e+00,8.506e+00,9.243e+00,8.757e+00,9.620e+00,1.077e+01,1.260e+01,1.170e+01,1.132e+01,1.054e+01,1.343e+01,1.220e+01,1.109e+01,1.303e+01,1.261e+01,1.403e+01,1.331e+01,1.321e+01,1.381e+01,1.545e+01,1.248e+01,1.403e+01,1.529e+01,1.384e+01,1.549e+01,1.588e+01,1.595e+01,1.489e+01,1.563e+01,1.546e+01,1.828e+01,1.851e+01,1.543e+01,1.829e+01,1.751e+01,1.825e+01,1.661e+01,1.582e+01,1.646e+01
2.951e-01,4.532e-01,5.709e-01,9.311e-01,1.466e+00,1.934e+00,1.053e+00,1.950e+00,2.452e+00,2.183e+00,2.906e+00,2.934e+00,3.576e+00,3.102e+00,4.037e+00,3.257e+00,5.075e+00,5.384e+00,3.466e+00,4.551e+00,5.006e+00,5.276e+00,4.442e+00,6.458e+00,4.272e+00,5.254e+00,5.401e+00,7.468e+00,6.029e+00,5.622e+00,7.018e+00,7.424e+00,5.868e+00,6.606e+00,8.655e+00,7.194e+00,9.849e+00,6.876e+00,8.197e+00,1.054e+01,8.200e+00,9.223e+00,8.376e+00,1.057e+01,1.071e+01,9.516e+00,1.109e+01,1.272e+01,1.222e+01,1.074e+01,1.125e+01,1.190e+01,1.299e+01,1.299e+01,1.335e+01,1.336e+01,1.699e+01,1.302e+01,1.355e+01,1.495e+01,1.489e+01,1.557e+01,1.589e+01,1.639e+01,1.587e+01,1.656e+01,1.602e+01,1.650e+01,1.699e+01,1.708e+01,1.638e+01,1.708e+01,1.578e+01,1.525e+01,1.829e+01,1.693e+01
5.918e-01,1.609e-01,5.372e-01,1.448e+00,1.385e+00,1.893e+00,1.495e+00,1.434e+00,3.303e+00,2.252e+00,3.302e+00,3.502e+00,4.870e+00,2.739e+00,3.848e+00,3.722e+00,5.555e+00,5.742e+00,4.187e+00,4.808e+00,5.698e+00,5.286e+00,5.334e+00,7.239e+00,5.567e+00,5.861e+00,6.184e+00,7.339e+00,7.446e+00,6.353e+00,8.486e+00,9.510e+00,7.443e+00,8.186e+00,9.342e+00,8.839e+00,9.912e+00,9.356e+00,1.041e+01,1.120e+01,1.010e+01,1.151e+01,1.014e+01,1.182e+01,1.115e+01,1.126e+01,1.164e+01,1.302e+01,1.178e+01,1.174e+01,1.296e+01,1.271e+01,1.292e+01,1.294e+01,1.476e+01,1.322e+01,1.634e+01,1.331e+01,1.368e+01,1.599e+01,1.436e+01,1.624e+01,1.440e+01,1.550e+01,1.760e+01,1.673e+01,1.545e+01,1.675e+01,1.728e+01,1.628e+01,1.709e+01,1.885e+01,1.707e+01,1.570e+01,1.789e+01,1.712e+01
4.170e-01,1.907e-01,4.531e-01,1.390e+00,1.387e+00,2.564e+00,1.367e+00,1.746e+00,2.684e+00,2.320e+00,3.092e+00,4.053e+00,4.608e+00,3.416e+00,4.400e+00,3.285e+00,5.095e+00,5.486e+00,4.859e+00,5.980e+00,5.726e+00,5.982e+00,5.392e+00,7.758e+00,6.882e+00,6.662e+00,8.130e+00,9.767e+00,8.123e+00,7.976e+00,1.029e+01,1.080e+01,8.500e+00,8.846e+00,1.105e+01,9.145e+00,1.157e+01,8.464e+00,1.042e+01,1.130e+01,9.540e+00,1.129e+01,1.081e+01,1.240e+01,1.273e+01,1.181e+01,9.868e+00,1.267e+01,1.238e+01,1.164e+01,1.295e+01,1.208e+01,1.365e+01,1.303e+01,1.447e+01,1.433e+01,1.752e+01,1.447e+01,1.343e+01,1.468e+01,1.422e+01,1.546e+01,1.588e+01,1.702e+01,1.479e+01,1.569e+01,1.491e+01,1.653e+01,1.784e+01,1.481e+01,1.609e+01,2.100e+01,1.795e+01,1.584e+01,1.742e+01,1.682e+01
2.361e-01,1.959e-01,3.154e-01,8.094e-01,7.179e-01,9.226e-01,5.994e-01,1.012e+00,1.624e+00,1.482e+00,2.551e+00,2.293e+00,3.399e+00,1.982e+00,2.950e+00,2.746e+00,4.345e+00,3.989e+00,4.060e+00,3.416e+00,3.548e+00,3.782e+00,3.324e+00,6.530e+00,5.659e+00,4.139e+00,6.237e+00,6.049e+00,5.143e+00,5.452e+00,7.738e+00,7.510e+00,6.228e+00,7.220e+00,8.380e+00,7.723e+00,8.283e+00,8.008e+00,8.342e+00,9.158e+00,8.346e+00,1.008e+01,7.985e+00,1.011e+01,9.858e+00,8.809e+00,9.357e+00,1.249e+01,1.033e+01,1.065e+01,1.053e+01,1.198e+01,1.286e+01,1.169e+01,1.288e+01,1.257e+01,1.476e+01,1.208e+01,1.214e+01,1.315e+01,1.296e+01,1.431e+01,1.421e+01,1.492e+01,1.414e+01,1.464e+01,1.383e+01,1.576e+01,1.580e+01,1.407e+01,1.486e+01,1.647e+01,1.514e+01,1.463e+01,1.546e+01,1.620e+01
2.977e-01,4.539e-01,5.688e-01,1.635e+00,1.021e+00,1.554e+00,8.551e-01,1.265e+00,2.331e+00,1.807e+00,2.273e+00,2.859e+00,3.157e+00,2.296e+00,3.625e+00,2.734e+00,4.516e+00,4.502e+00,3.614e+00,4.292e+00,3.436e+00,4.787e+00,4.181e+00,6.454e+00,5.891e+00,5.030e+00,6.798e+00,8.176e+00,5.536e+00,6.570e+00,8.619e+00,8.485e+00,7.397e+00,7.746e+00,9.244e+00,8.449e+00,9.275e+00,7.331e+00,8.564e+00,8.940e+00,9.002e+00,9.017e+00,9.224e+00,1.173e+01,1.020e+01,1.016e+01,8.724e+00,1.168e+01,1.134e+01,9.695e+00,1.158e+01,1.173e+01,1.306e+01,1.177e+01,1.292e+01,1.371e+01,1.523e+01,1.300e+01,1.069e+01,1.449e+01,1.395e+01,1.523e+01,1.355e+01,1.452e+01,1.457e+01,1.572e+01,1.409e+01,1.733e+01,1.739e+01,1.697e+01,1.832e+01,1.841e+01,1.907e+01,1.655e+01,1.778e+01,1.676e+01
5.384e-01,8.901e-01,1.076e+00,2.257e+00,1.650e+00,2.765e+00,1.355e+00,2.287e+00,3.167e+00,1.690e+00,3.153e+00,3.539e+00,3.665e+00,2.196e+00,4.108e+00,2.803e+00,4.376e+00,5.127e+00,4.337e+00,5.157e+00,5.194e+00,5.183e+00,4.694e+00,6.962e+00,7.088e+00,5.952e+00,7.299e+00,8.388e+00,7.857e+00,7.619e+00,8.965e+00,9.440e+00,8.214e+00,9.051e+00,1.145e+01,9.132e+00,9.162e+00,8.598e+00,1.011e+01,1.045e+01,9.592e+00,1.151e+01,1.051e+01,1.198e+01,1.278e+01,1.118e+01,9.403e+00,1.285e+01,1.242e+01,1.319e+01,1.189e+01,1.367e+01,1.429e+01,1.320e+01,1.308e+01,1.459e+01,1.616e+01,1.264e+01,1.346e+01,1.485e+01,1.487e+01,1.534e+01,1.563e+01,1.504e+01,1.441e+01,1.551e+01,1.426e+01,1.693e+01,1.691e+01,1.488e+01,1.653e+01,1.867e+01,1.662e+01,1.531e+01,1.685e+01,1.694e+01
3.793e-01,4.187e-01,5.967e-01,1.294e+00,1.006e+00,1.947e+00,9.458e-01,1.323e+00,2.045e+00,1.472e+00,2.477e+00,1.956e+00,2.815e+00,2.296e+00,2.847e+00,2.607e+00,4.146e+00,3.910e+00,3.466e+00,4.374e+00,4.649e+00,4.217e+00,3.608e+00,6.545e+00,5.199e+00,5.720e+00,6.150e+00,7.069e+00,6.239e+00,5.536e+00,7.824e+00,7.589e+00,7.685e+00,8.520e+00,8.991e+00,8.943e+00,9.613e+00,8.555e+00,8.896e+00,1.048e+01,9.680e+00,1.066e+01,9.479e+00,1.096e+01,1.165e+01,1.083e+01,1.022e+01,1.422e+01,1.252e+01,1.219e+01,1.270e+01,1.352e+01,1.398e+01,1.312e+01,1.409e+01,1.444e+01,1.746e+01,1.441e+01,1.443e+01,1.469e+01,1.479e+01,1.631e+01,1.591e+01,1.727e+01,1.559e+01,1.737e+01,1.589e+01,1.783e+01,1.789e+01,1.640e+01,1.820e+01,1.952e+01,1.841e+01,1.646e+01,1.915e+01,1.827e+01
