3.364e-01,6.470e-01,7.547e-01,5.962e-01,5.223e-01,3.464e-01,9.859e-01,5.674e-01,6.077e-01,5.456e-02,9.870e-01,1.001e-01,2.511e-01,5.832e-01,5.652e-01,3.325e-02,5.310e-01,6.882e-01,5.289e-02,5.128e-01,9.940e-01,5.195e-01,5.469e-01,2.693e-01,1.152e-01,9.812e-01,7.854e-01,3.487e-01,7.888e-01,6.435e-02,9.554e-01,4.214e-01,1.114e-01,1.267e-01,3.948e-02,4.749e-02,3.142e-01,7.454e-01,8.612e-02,7.667e-01,7.607e-02,5.211e-01,9.627e-01,3.238e-01,6.561e-02,9.103e-01,3.414e-01,8.916e-01,9.587e-01,7.736e-01,3.448e-02,7.918e-02,4.219e-01,1.295e-01,7.074e-01,7.139e-01,8.654e-01,5.735e-01,4.610e-02,3.913e-01,9.043e-01,9.517e-01,6.739e-01,7.413e-01,1.735e-01,9.602e-01,1.949e-01,8.701e-01,5.246e-02,7.311e-01,7.547e-01,2.517e-01,5.995e-01,4.969e-02,3.665e-01,2.619e-01,4.756e-01,4.277e-01,8.493e-01,7.714e-01,8.619e-01
1.152e-01,7.894e-01,6.814e-01,8.744e-01,7.559e-01,4.855e-01,5.088e-01,4.060e-01,8.182e-01,9.439e-01,1.102e+00,1.261e-01,2.366e-01,7.354e-01,4.058e-01,8.226e-02,5.717e-01,4.843e-01,9.997e-01,1.028e+00,4.344e-01,3.967e-01,1.140e+00,9.728e-01,6.263e-01,9.695e-01,6.992e-01,6.127e-01,4.343e-01,2.828e-01,9.714e-01,3.094e-01,2.873e-01,1.827e-01,1.574e-01,9.842e-01,1.081e+00,6.704e-01,5.315e-01,7.966e-01,7.827e-01,1.143e+00,1.310e+00,4.484e-01,6.860e-01,7.639e-01,9.750e-01,1.214e+00,1.052e+00,5.912e-01,7.839e-02,7.985e-01,2.461e-01,7.395e-01,9.910e-01,3.231e-01,4.352e-01,1.167e+00,3.905e-01,6.746e-01,1.077e+00,1.186e+00,3.322e-01,1.144e+00,4.940e-01,1.090e+00,1.523e-01,7.022e-01,6.476e-01,6.206e-01,1.086e+00,1.074e+00,6.153e-01,7.239e-02,1.032e+00,7.245e-01,1.011e+00,6.787e-01,1.036e+00,1.253e+00,1.266e+00
3.697e-02,1.182e-01,9.966e-01,1.090e+00,1.094e+00,8.584e-02,7.178e-01,9.097e-01,1.076e+00,8.201e-01,7.150e-01,5.590e-01,7.453e-01,2.452e-01,8.503e-01,8.761e-01,3.631e-01,9.728e-01,1.077e-01,8.373e-01,6.558e-01,8.720e-01,6.595e-01,4.497e-01,7.018e-01,3.081e-01,8.140e-01,1.494e-01,2.078e-01,4.423e-01,6.376e-01,4.062e-01,8.366e-01,2.425e-01,5.066e-01,2.181e-01,9.323e-01,1.056e+00,1.032e+00,4.245e-01,3.241e-01,8.197e-01,7.819e-01,4.563e-01,4.637e-01,6.641e-01,9.079e-01,1.002e+00,9.518e-01,7.795e-01,9.599e-01,5.874e-01,2.683e-01,7.126e-01,3.361e-01,1.581e-01,6.033e-01,7.918e-01,4.122e-01,2.074e-01,6.307e-01,2.499e-01,4.303e-01,2.137e-01,2.905e-01,7.707e-01,2.239e-01,2.622e-01,8.703e-01,7.637e-01,1.853e-01,4.643e-01,2.819e-01,2.061e-01,8.330e-01,9.313e-01,3.050e-01,5.159e-01,1.054e+00,8.838e-01,1.110e+00
1.917e-01,7.784e-01,1.144e+00,2.236e+00,1.626e+00,5.025e-01,1.621e+00,8.729e-01,1.615e+00,1.692e+00,1.382e+00,9.790e-01,8.790e-01,1.680e+00,1.515e+00,1.170e+00,1.519e+00,1.574e+00,7.601e-01,2.178e+00,1.004e+00,1.422e+00,2.025e+00,1.314e+00,1.466e+00,1.824e+00,2.026e+00,8.967e-01,1.074e+00,6.156e-01,2.090e+00,1.153e+00,1.459e+00,1.198e+00,8.616e-01,8.715e-01,2.191e+00,2.050e+00,1.090e+00,1.862e+00,1.426e+00,2.031e+00,2.164e+00,1.142e+00,7.978e-01,1.881e+00,1.904e+00,1.653e+00,1.677e+00,9.951e-01,6.145e-01,1.706e+00,1.022e+00,1.375e+00,1.813e+00,1.134e+00,1.357e+00,1.517e+00,7.145e-01,8.689e-01,1.692e+00,1.572e+00,7.319e-01,1.933e+00,6.184e-01,2.305e+00,6.483e-01,1.025e+00,1.567e+00,1.800e+00,1.974e+00,1.500e+00,1.542e+00,7.512e-01,1.777e+00,1.010e+00,1.009e+00,1.624e+00,2.208e+00,2.114e+00,2.456e+00
2.654e-01,7.568e-01,1.657e+00,2.105e+00,2.072e+00,1.055e+00,2.376e+00,1.874e+00,2.572e+00,1.847e+00,1.803e+00,1.262e+00,1.148e+00,1.591e+00,2.462e+00,1.514e+00,2.165e+00,1.887e+00,8.274e-01,1.986e+00,1.517e+00,1.924e+00,2.522e+00,1.821e+00,1.867e+00,2.240e+00,2.111e+00,1.159e+00,1.723e+00,7.137e-01,2.356e+00,1.826e+00,1.458e+00,9.624e-01,1.496e+00,7.772e-01,2.226e+00,2.508e+00,1.438e+00,1.833e+00,1.044e+00,2.320e+00,2.969e+00,1.637e+00,1.433e+00,1.794e+00,2.072e+00,2.963e+00,2.857e+00,1.798e+00,1.264e+00,1.453e+00,1.790e+00,1.473e+00,2.021e+00,1.656e+00,2.302e+00,1.945e+00,1.034e+00,1.484e+00,2.539e+00,1.923e+00,1.623e+00,2.298e+00,6.881e-01,3.024e+00,1.416e+00,1.588e+00,2.335e+00,2.590e+00,2.053e+00,1.856e+00,1.576e+00,1.020e+00,1.659e+00,1.374e+00,1.843e+00,1.989e+00,2.511e+00,2.424e+00,2.719e+00
7.184e-02,2.082e-01,2.925e-01,8.159e-01,5.197e-01,2.899e-01,6.802e-01,4.848e-01,1.128e+00,1.441e+00,8.811e-01,7.410e-01,4.071e-01,1.624e+00,9.401e-01,6.653e-01,1.587e+00,1.151e+00,1.127e+00,1.003e+00,1.059e+00,6.444e-01,8.320e-01,4.296e-01,1.514e+00,1.369e+00,8.359e-01,6.519e-01,8.805e-01,9.586e-01,1.126e+00,1.014e+00,1.503e+00,8.709e-01,5.712e-01,9.216e-01,1.347e+00,1.133e+00,5.725e-01,1.681e+00,5.300e-01,1.313e+00,7.865e-01,5.164e-01,8.119e-01,1.169e+00,9.544e-01,4.937e-01,9.389e-01,8.095e-01,8.576e-01,1.512e+00,1.276e+00,5.815e-01,1.102e+00,7.458e-01,7.687e-01,9.607e-01,1.022e+00,8.461e-01,1.375e+00,1.121e+00,6.923e-01,1.385e+00,9.423e-01,1.679e+00,4.939e-01,9.382e-01,9.785e-01,1.051e+00,1.482e+00,8.530e-01,1.116e+00,6.069e-01,6.625e-01,2.891e-01,4.409e-01,1.488e+00,1.665e+00,9.433e-01,1.704e+00
1.230e-01,2.761e-01,3.960e-01,1.247e+00,9.068e-01,6.372e-01,1.795e+00,8.051e-01,2.281e+00,1.533e+00,1.434e+00,1.563e+00,6.113e-01,2.174e+00,2.172e+00,1.764e+00,2.983e+00,1.575e+00,9.898e-01,2.041e+00,1.047e+00,1.220e+00,1.689e+00,1.146e+00,2.609e+00,2.588e+00,2.232e+00,1.461e+00,1.425e+00,1.414e+00,2.334e+00,1.975e+00,2.348e+00,1.223e+00,1.881e+00,1.246e+00,1.821e+00,1.976e+00,9.599e-01,2.609e+00,1.150e+00,2.268e+00,2.168e+00,1.550e+00,1.695e+00,1.493e+00,1.957e+00,1.669e+00,1.646e+00,1.013e+00,9.163e-01,1.529e+00,2.496e+00,1.383e+00,2.525e+00,2.209e+00,2.233e+00,1.603e+00,1.049e+00,1.363e+00,1.789e+00,1.846e+00,2.023e+00,2.250e+00,1.151e+00,3.179e+00,1.894e+00,1.792e+00,1.924e+00,1.860e+00,2.289e+00,1.857e+00,2.159e+00,1.373e+00,9.033e-01,9.511e-01,1.822e+00,1.976e+00,2.635e+00,1.999e+00,2.788e+00
2.876e-01,7.339e-01,9.022e-01,1.434e+00,1.164e+00,7.727e-01,1.982e+00,1.635e+00,2.355e+00,1.341e+00,2.038e+00,1.604e+00,1.502e+00,2.473e+00,2.767e+00,2.068e+00,3.357e+00,1.763e+00,1.923e+00,2.056e+00,2.301e+00,1.324e+00,2.597e+00,1.399e+00,2.853e+00,3.027e+00,2.619e+00,1.526e+00,2.162e+00,2.034e+00,2.491e+00,1.794e+00,2.101e+00,1.826e+00,1.536e+00,2.106e+00,1.991e+00,2.237e+00,1.536e+00,2.680e+00,1.278e+00,2.748e+00,2.618e+00,2.454e+00,2.378e+00,1.788e+00,2.119e+00,2.160e+00,2.453e+00,1.806e+00,1.365e+00,2.060e+00,2.387e+00,1.925e+00,2.583e+00,2.616e+00,3.020e+00,2.087e+00,1.434e+00,1.417e+00,2.069e+00,2.550e+00,2.431e+00,2.877e+00,1.188e+00,3.419e+00,2.090e+00,2.907e+00,2.591e+00,1.899e+00,2.369e+00,1.962e+00,2.737e+00,1.677e+00,1.737e+00,1.696e+00,2.004e+00,2.392e+00,3.159e+00,2.330e+00,3.207e+00
2.033e-01,9.550e-01,1.373e+00,2.196e+00,1.798e+00,8.581e-01,1.989e+00,1.866e+00,4.017e+00,3.267e+00,3.102e+00,2.762e+00,2.287e+00,3.420e+00,3.910e+00,3.097e+00,4.377e+00,3.266e+00,2.991e+00,3.608e+00,3.009e+00,1.916e+00,4.004e+00,2.043e+00,3.942e+00,3.479e+00,3.309e+00,2.268e+00,2.774e+00,3.271e+00,3.570e+00,2.361e+00,3.211e+00,2.935e+00,2.161e+00,3.583e+00,3.393e+00,3.411e+00,2.510e+00,4.005e+00,2.375e+00,3.952e+00,3.949e+00,3.445e+00,3.201e+00,3.250e+00,3.789e+00,2.689e+00,3.898e+00,2.613e+00,2.060e+00,3.391e+00,2.773e+00,2.959e+00,3.471e+00,2.422e+00,3.794e+00,3.489e+00,2.289e+00,1.875e+00,3.656e+00,3.302e+00,2.569e+00,4.229e+00,2.224e+00,4.397e+00,2.761e+00,3.407e+00,3.870e+00,3.160e+00,3.448e+00,2.777e+00,3.919e+00,2.328e+00,3.384e+00,2.956e+00,3.220e+00,3.258e+00,4.592e+00,3.235e+00,4.725e+00
2.174e-01,4.561e-01,7.760e-01,1.010e+00,8.860e-01,5.861e-01,1.360e+00,1.422e+00,2.000e+00,1.938e+00,2.008e+00,1.647e+00,1.620e+00,2.791e+00,2.407e+00,2.227e+00,3.182e+00,2.148e+00,2.155e+00,1.840e+00,2.678e+00,1.875e+00,2.576e+00,1.187e+00,2.980e+00,3.188e+00,1.859e+00,1.888e+00,1.850e+00,2.226e+00,1.904e+00,1.937e+00,2.039e+00,2.075e+00,1.724e+00,2.356e+00,2.569e+00,2.335e+00,1.987e+00,2.794e+00,1.081e+00,2.480e+00,2.633e+00,2.278e+00,2.785e+00,2.113e+00,2.367e+00,2.089e+00,2.981e+00,2.068e+00,1.946e+00,2.374e+00,2.551e+00,1.972e+00,2.629e+00,2.076e+00,2.149e+00,2.540e+00,2.165e+00,2.014e+00,2.624e+00,2.394e+00,2.593e+00,2.468e+00,1.665e+00,2.679e+00,2.087e+00,3.106e+00,2.543e+00,1.956e+00,2.105e+00,1.403e+00,2.611e+00,1.313e+00,1.456e+00,1.312e+00,1.507e+00,2.871e+00,3.239e+00,2.086e+00,2.719e+00
7.216e-02,3.758e-01,9.798e-01,1.514e+00,1.344e+00,5.634e-01,1.505e+00,1.399e+00,3.193e+00,2.823e+00,3.250e+00,2.500e+00,2.620e+00,3.175e+00,3.994e+00,3.743e+00,4.450e+00,3.046e+00,2.932e+00,3.264e+00,2.559e+00,2.993e+00,3.155e+00,1.831e+00,4.559e+00,4.188e+00,2.616e+00,2.963e+00,2.638e+00,3.530e+00,3.087e+00,2.780e+00,3.024e+00,3.199e+00,3.005e+00,2.953e+00,4.126e+00,3.498e+00,2.753e+00,3.665e+00,2.003e+00,3.630e+00,4.120e+00,3.126e+00,3.231e+00,2.786e+00,3.887e+00,3.366e+00,3.755e+00,2.906e+00,2.301e+00,3.598e+00,2.875e+00,3.457e+00,3.776e+00,2.820e+00,3.529e+00,3.669e+00,3.090e+00,2.513e+00,3.740e+00,3.357e+00,3.602e+00,2.990e+00,2.844e+00,3.642e+00,3.210e+00,3.917e+00,3.918e+00,3.264e+00,2.476e+00,2.359e+00,3.881e+00,2.682e+00,2.529e+00,3.197e+00,3.228e+00,3.287e+00,4.895e+00,3.318e+00,3.705e+00
2.785e-01,6.016e-01,1.244e+00,1.561e+00,1.546e+00,1.016e+00,2.371e+00,2.308e+00,3.606e+00,2.417e+00,2.858e+00,2.754e+00,2.610e+00,3.653e+00,5.154e+00,3.693e+00,4.690e+00,2.988e+00,2.673e+00,3.540e+00,3.964e+00,2.515e+00,4.301e+00,2.754e+00,4.876e+00,4.803e+00,3.848e+00,2.399e+00,3.686e+00,3.228e+00,3.900e+00,3.683e+00,2.980e+00,3.728e+00,3.129e+00,3.065e+00,3.133e+00,4.114e+00,3.059e+00,3.739e+00,1.985e+00,4.179e+00,4.585e+00,3.683e+00,3.672e+00,3.188e+00,3.542e+00,3.310e+00,4.233e+00,3.397e+00,2.916e+00,3.485e+00,3.847e+00,3.257e+00,3.772e+00,4.103e+00,4.958e+00,3.750e+00,2.548e+00,3.014e+00,4.042e+00,3.758e+00,4.371e+00,3.954e+00,2.189e+00,4.805e+00,3.387e+00,4.146e+00,4.938e+00,4.260e+00,3.764e+00,2.398e+00,3.890e+00,3.391e+00,2.762e+00,2.916e+00,3.511e+00,4.150e+00,4.853e+00,3.440e+00,4.597e+00
2.747e-01,6.397e-01,1.320e+00,1.682e+00,1.589e+00,8.148e-01,2.247e+00,1.966e+00,3.531e+00,2.054e+00,2.892e+00,2.686e+00,3.590e+00,3.569e+00,5.677e+00,4.367e+00,4.702e+00,3.105e+00,2.765e+00,3.910e+00,4.401e+00,2.509e+00,4.132e+00,3.457e+00,4.719e+00,4.553e+00,4.716e+00,2.711e+00,3.919e+00,3.842e+00,4.944e+00,3.543e+00,3.185e+00,4.151e+00,3.879e+00,2.988e+00,2.946e+00,4.733e+00,3.538e+00,3.953e+00,2.407e+00,3.984e+00,5.171e+00,4.402e+00,2.976e+00,3.948e+00,4.497e+00,3.798e+00,4.019e+00,3.702e+00,2.929e+00,3.434e+00,3.568e+00,3.260e+00,3.814e+00,3.948e+00,5.323e+00,4.207e+00,2.214e+00,2.706e+00,4.196e+00,3.749e+00,3.996e+00,4.436e+00,2.307e+00,5.310e+00,3.343e+00,3.907e+00,4.749e+00,5.184e+00,3.374e+00,2.808e+00,4.542e+00,3.595e+00,3.310e+00,3.851e+00,3.960e+00,4.301e+00,4.850e+00,4.056e+00,4.629e+00
1.408e-01,2.901e-01,7.798e-01,1.552e+00,1.255e+00,6.359e-01,1.799e+00,1.396e+00,2.524e+00,2.295e+00,2.436e+00,2.205e+00,2.744e+00,4.391e+00,5.299e+00,3.803e+00,4.466e+00,3.474e+00,2.757e+00,3.665e+00,3.821e+00,3.492e+00,3.446e+00,3.259e+00,4.961e+00,5.346e+00,4.310e+00,2.803e+00,3.298e+00,3.759e+00,4.578e+00,4.037e+00,3.175e+00,4.145e+00,3.635e+00,2.745e+00,4.023e+00,4.762e+00,3.182e+00,4.312e+00,2.833e+00,3.784e+00,4.353e+00,3.595e+00,3.210e+00,3.678e+00,4.425e+00,3.422e+00,3.448e+00,3.774e+00,2.584e+00,4.359e+00,3.962e+00,3.626e+00,4.431e+00,4.150e+00,3.807e+00,4.346e+00,3.676e+00,3.022e+00,3.798e+00,3.540e+00,4.579e+00,4.009e+00,2.861e+00,5.043e+00,3.663e+00,4.413e+00,4.544e+00,4.749e+00,3.199e+00,3.225e+00,4.325e+00,3.448e+00,2.835e+00,2.771e+00,3.200e+00,4.380e+00,5.196e+00,4.042e+00,4.050e+00
2.056e-01,5.708e-01,8.906e-01,1.138e+00,9.711e-01,4.540e-01,1.362e+00,1.276e+00,2.042e+00,1.346e+00,2.503e+00,1.498e+00,2.274e+00,3.218e+00,3.912e+00,3.494e+00,3.629e+00,3.029e+00,3.542e+00,3.490e+00,3.960e+00,2.918e+00,2.714e+00,2.924e+00,4.910e+00,4.542e+00,4.416e+00,3.155e+00,2.891e+00,4.137e+00,4.187e+00,3.321e+00,3.102e+00,3.059e+00,3.261e+00,2.991e+00,3.359e+00,4.100e+00,3.573e+00,3.741e+00,2.122e+00,4.070e+00,3.540e+00,3.634e+00,2.930e+00,2.627e+00,4.211e+00,3.580e+00,3.019e+00,3.129e+00,2.557e+00,3.559e+00,3.298e+00,3.563e+00,3.768e+00,4.014e+00,3.202e+00,4.544e+00,3.006e+00,2.807e+00,3.445e+00,3.892e+00,3.937e+00,3.704e+00,2.938e+00,4.519e+00,2.690e+00,4.024e+00,3.422e+00,3.521e+00,2.428e+00,3.288e+00,3.605e+00,2.964e+00,3.131e+00,2.958e+00,3.264e+00,3.921e+00,4.980e+00,3.853e+00,4.101e+00
2.959e-01,7.726e-01,1.508e+00,1.713e+00,1.606e+00,6.545e-01,1.757e+00,1.542e+00,2.050e+00,1.626e+00,2.310e+00,1.335e+00,2.109e+00,2.617e+00,3.478e+00,3.175e+00,2.937e+00,2.927e+00,3.398e+00,3.848e+00,4.066e+00,3.904e+00,4.054e+00,3.547e+00,4.206e+00,4.316e+00,4.631e+00,3.414e+00,3.367e+00,3.365e+00,4.354e+00,3.909e+00,2.961e+00,3.323e+00,3.646e+00,2.841e+00,4.047e+00,4.227e+00,3.801e+00,3.168e+00,1.988e+00,3.755e+00,4.809e+00,3.730e+00,3.182e+00,3.690e+00,4.590e+00,4.103e+00,3.929e+00,3.413e+00,2.834e+00,3.449e+00,3.647e+00,3.247e+00,3.788e+00,3.686e+00,3.519e+00,4.967e+00,2.881e+00,3.319e+00,3.911e+00,3.719e+00,3.794e+00,4.056e+00,2.357e+00,4.326e+00,2.171e+00,3.890e+00,4.099e+00,4.005e+00,3.222e+00,3.411e+00,2.797e+00,2.979e+00,3.859e+00,2.872e+00,3.400e+00,4.252e+00,4.420e+00,3.979e+00,4.427e+00
6.013e-02,4.312e-01,4.293e-01,1.013e+00,8.033e-01,6.363e-01,1.078e+00,1.286e+00,2.092e+00,2.025e+00,1.751e+00,1.724e+00,1.784e+00,2.938e+00,2.955e+00,2.656e+00,4.298e+00,2.230e+00,3.852e+00,3.326e+00,3.615e+00,2.267e+00,4.164e+00,2.804e+00,4.711e+00,3.510e+00,3.299e+00,3.089e+00,3.418e+00,4.065e+00,3.360e+00,3.460e+00,3.095e+00,4.052e+00,2.664e+00,3.905e+00,3.839e+00,3.198e+00,2.686e+00,3.923e+00,2.041e+00,3.667e+00,3.507e+00,3.775e+00,3.777e+00,2.817e+00,4.079e+00,3.191e+00,3.771e+00,3.176e+00,2.867e+00,4.081e+00,3.359e+00,3.298e+00,4.122e+00,3.675e+00,4.032e+00,3.990e+00,3.546e+00,3.357e+00,3.536e+00,3.793e+00,3.310e+00,4.870e+00,2.384e+00,3.910e+00,3.234e+00,3.575e+00,4.900e+00,3.289e+00,3.667e+00,2.991e+00,3.610e+00,2.745e+00,2.872e+00,3.054e+00,3.009e+00,4.675e+00,4.523e+00,2.666e+00,4.695e+00
1.708e-01,4.849e-01,7.113e-01,1.458e+00,1.104e+00,6.255e-01,1.699e+00,1.270e+00,2.449e+00,2.204e+00,2.512e+00,2.150e+00,2.499e+00,4.224e+00,4.541e+00,4.165e+00,4.774e+00,3.892e+00,4.803e+00,4.511e+00,5.156e+00,4.303e+00,4.700e+00,3.915e+00,6.419e+00,5.709e+00,5.822e+00,4.490e+00,4.063e+00,4.978e+00,5.506e+00,4.585e+00,4.559e+00,4.618e+00,4.308e+00,4.462e+00,5.163e+00,5.480e+00,4.109e+00,4.852e+00,3.347e+00,4.973e+00,4.965e+00,5.559e+00,4.860e+00,4.364e+00,5.674e+00,4.683e+00,4.802e+00,3.894e+00,3.745e+00,4.665e+00,5.610e+00,4.547e+00,5.440e+00,5.742e+00,4.672e+00,6.150e+00,4.573e+00,4.323e+00,5.130e+00,4.607e+00,5.381e+00,5.461e+00,4.187e+00,5.847e+00,4.038e+00,5.689e+00,5.704e+00,4.819e+00,4.042e+00,5.049e+00,4.784e+00,3.925e+00,3.879e+00,3.936e+00,4.357e+00,5.362e+00,6.475e+00,4.626e+00,5.710e+00
3.674e-02,4.306e-01,7.872e-01,1.564e+00,1.388e+00,8.475e-01,1.592e+00,1.381e+00,2.680e+00,2.589e+00,2.042e+00,1.981e+00,2.148e+00,3.243e+00,3.670e+00,3.572e+00,4.524e+00,3.393e+00,4.924e+00,5.147e+00,5.188e+00,4.349e+00,5.372e+00,4.165e+00,5.840e+00,5.136e+00,5.774e+00,5.276e+00,4.444e+00,4.602e+00,5.535e+00,4.723e+00,4.248e+00,4.137e+00,4.627e+00,5.052e+00,5.755e+00,5.619e+00,3.795e+00,4.724e+00,3.603e+00,4.894e+00,5.152e+00,6.019e+00,4.855e+00,4.196e+00,6.116e+00,5.257e+00,5.818e+00,4.040e+00,4.437e+00,5.030e+00,4.820e+00,4.395e+00,5.742e+00,5.279e+00,5.018e+00,6.409e+00,5.165e+00,4.909e+00,6.100e+00,4.352e+00,4.862e+00,6.233e+00,3.800e+00,6.061e+00,4.313e+00,4.353e+00,6.630e+00,5.199e+00,3.891e+00,5.091e+00,5.031e+00,3.485e+00,4.104e+00,4.887e+00,5.050e+00,5.964e+00,6.094e+00,4.909e+00,5.635e+00
2.806e-01,7.695e-01,1.573e+00,2.457e+00,2.071e+00,9.269e-01,2.472e+00,1.909e+00,3.262e+00,2.853e+00,2.725e+00,2.204e+00,2.318e+00,3.981e+00,4.644e+00,3.352e+00,4.161e+00,3.707e+00,2.928e+00,4.591e+00,4.422e+00,4.568e+00,4.313e+00,3.574e+00,5.298e+00,5.236e+00,4.917e+00,3.251e+00,4.054e+00,3.812e+00,5.081e+00,4.854e+00,4.411e+00,4.117e+00,4.369e+00,3.747e+00,4.675e+00,5.740e+00,4.099e+00,4.380e+00,3.546e+00,5.139e+00,5.180e+00,3.760e+00,3.891e+00,4.791e+00,5.118e+00,4.589e+00,5.161e+00,3.841e+00,3.169e+00,4.685e+00,4.787e+00,3.498e+00,4.915e+00,3.982e+00,4.640e+00,5.189e+00,4.153e+00,3.216e+00,4.973e+00,4.397e+00,4.052e+00,5.567e+00,2.770e+00,5.752e+00,3.123e+00,4.433e+00,5.529e+00,5.259e+00,4.601e+00,3.661e+00,4.303e+00,3.954e+00,4.042e+00,3.762e+00,4.155e+00,5.190e+00,5.938e+00,5.085e+00,5.627e+00
1.511e-01,8.021e-01,1.498e+00,2.386e+00,2.132e+00,1.121e+00,2.135e+00,2.090e+00,3.324e+00,3.330e+00,2.895e+00,2.183e+00,2.981e+00,4.043e+00,4.786e+00,4.207e+00,5.407e+00,3.847e+00,5.656e+00,6.376e+00,7.247e+00,5.730e+00,6.469e+00,6.182e+00,7.465e+00,6.848e+00,6.733e+00,6.243e+00,6.323e+00,6.219e+00,7.231e+00,7.001e+00,5.246e+00,5.861e+00,6.394e+00,6.560e+00,7.148e+00,7.009e+00,5.469e+00,5.801e+00,4.272e+00,6.749e+00,7.120e+00,6.684e+00,5.186e+00,5.562e+00,7.370e+00,7.325e+00,7.118e+00,5.670e+00,5.942e+00,6.813e+00,6.268e+00,5.330e+00,7.129e+00,6.135e+00,6.926e+00,7.551e+00,6.184e+00,6.586e+00,7.959e+00,6.341e+00,5.173e+00,8.549e+00,4.012e+00,7.266e+00,4.688e+00,5.683e+00,8.297e+00,7.050e+00,5.859e+00,6.014e+00,6.005e+00,5.553e+00,5.768e+00,6.620e+00,6.581e+00,8.131e+00,7.753e+00,6.285e+00,7.881e+00
2.766e-01,6.363e-01,1.492e+00,2.345e+00,1.929e+00,7.741e-01,2.494e+00,2.200e+00,3.620e+00,2.968e+00,3.197e+00,2.794e+00,3.394e+00,5.072e+00,5.806e+00,5.068e+00,5.950e+00,4.720e+00,5.207e+00,6.433e+00,7.456e+00,6.475e+00,7.031e+00,5.798e+00,8.787e+00,7.452e+00,8.246e+00,6.657e+00,6.329e+00,7.583e+00,8.318e+00,7.300e+00,6.573e+00,6.730e+00,6.930e+00,6.564e+00,6.670e+00,8.061e+00,6.273e+00,7.137e+00,5.489e+00,6.732e+00,7.370e+00,7.556e+00,6.153e+00,7.357e+00,7.701e+00,7.258e+00,7.828e+00,5.973e+00,5.903e+00,7.488e+00,7.298e+00,5.624e+00,7.844e+00,7.520e+00,7.497e+00,8.308e+00,6.793e+00,6.227e+00,7.081e+00,6.399e+00,7.390e+00,8.631e+00,5.100e+00,8.737e+00,5.589e+00,7.393e+00,8.624e+00,7.641e+00,6.234e+00,6.116e+00,7.145e+00,5.754e+00,6.545e+00,6.580e+00,7.051e+00,8.575e+00,8.564e+00,7.454e+00,8.535e+00
7.615e-02,2.701e-01,1.080e+00,1.775e+00,1.481e+00,3.267e-01,1.507e+00,1.335e+00,2.805e+00,2.480e+00,2.205e+00,2.605e+00,2.951e+00,3.584e+00,4.796e+00,4.483e+00,4.404e+00,4.013e+00,3.338e+00,5.567e+00,5.736e+00,5.309e+00,6.743e+00,5.232e+00,7.778e+00,5.709e+00,6.977e+00,5.995e+00,5.864e+00,6.686e+00,6.828e+00,6.410e+00,5.386e+00,6.779e+00,6.234e+00,6.108e+00,5.997e+00,7.159e+00,6.289e+00,5.723e+00,5.839e+00,6.444e+00,7.089e+00,6.757e+00,5.307e+00,6.375e+00,7.590e+00,7.362e+00,7.549e+00,5.400e+00,4.997e+00,6.383e+00,5.485e+00,5.926e+00,6.968e+00,6.834e+00,6.995e+00,7.101e+00,6.499e+00,5.646e+00,6.443e+00,5.405e+00,5.743e+00,7.318e+00,4.513e+00,6.582e+00,5.646e+00,5.919e+00,7.690e+00,7.741e+00,5.168e+00,5.170e+00,6.154e+00,5.387e+00,5.992e+00,7.103e+00,6.453e+00,7.141e+00,8.044e+00,6.127e+00,7.700e+00
1.795e-01,3.781e-01,5.417e-01,1.088e+00,8.104e-01,5.499e-01,1.421e+00,1.393e+00,2.399e+00,1.868e+00,1.950e+00,2.031e+00,2.263e+00,3.873e+00,4.611e+00,3.234e+00,4.188e+00,3.666e+00,3.997e+00,3.812e+00,5.733e+00,4.174e+00,5.135e+00,4.631e+00,6.789e+00,5.559e+00,6.754e+00,4.924e+00,5.521e+00,6.005e+00,6.438e+00,6.031e+00,5.245e+00,5.980e+00,5.060e+00,5.219e+00,4.754e+00,5.879e+00,4.547e+00,6.115e+00,5.244e+00,4.984e+00,5.399e+00,6.428e+00,5.086e+00,6.187e+00,5.162e+00,5.951e+00,6.416e+00,5.016e+00,4.508e+00,5.815e+00,6.449e+00,4.474e+00,5.781e+00,6.774e+00,6.216e+00,6.155e+00,5.988e+00,5.332e+00,6.151e+00,5.188e+00,6.212e+00,6.860e+00,4.745e+00,6.559e+00,5.328e+00,6.933e+00,6.554e+00,5.991e+00,4.726e+00,5.292e+00,5.815e+00,5.615e+00,5.873e+00,5.214e+00,6.036e+00,6.287e+00,7.082e+00,5.444e+00,6.588e+00
2.587e-01,8.414e-01,1.113e+00,1.204e+00,1.134e+00,6.582e-01,1.327e+00,1.533e+00,2.135e+00,1.443e+00,2.726e+00,1.408e+00,2.463e+00,2.837e+00,4.099e+00,2.581e+00,3.919e+00,2.965e+00,3.854e+00,4.626e+00,5.908e+00,4.682e+00,5.625e+00,4.483e+00,6.924e+00,6.634e+00,6.134e+00,6.552e+00,6.288e+00,6.157e+00,7.143e+00,6.119e+00,4.811e+00,6.610e+00,5.029e+00,6.541e+00,5.503e+00,6.293e+00,5.057e+00,5.354e+00,6.028e+00,5.599e+00,6.579e+00,6.597e+00,4.756e+00,5.672e+00,5.766e+00,7.713e+00,8.111e+00,6.372e+00,5.246e+00,6.364e+00,4.847e+00,5.966e+00,7.146e+00,7.106e+00,7.227e+00,6.578e+00,6.781e+00,6.047e+00,7.287e+00,5.949e+00,6.696e+00,7.708e+00,4.584e+00,6.457e+00,5.634e+00,6.638e+00,8.004e+00,6.692e+00,4.526e+00,5.108e+00,6.417e+00,5.173e+00,6.151e+00,8.193e+00,7.319e+00,6.330e+00,7.684e+00,6.390e+00,6.915e+00
2.186e-01,6.662e-01,1.265e+00,2.043e+00,1.695e+00,7.736e-01,2.137e+00,1.948e+00,3.683e+00,2.973e+00,3.427e+00,3.014e+00,3.866e+00,4.509e+00,5.913e+00,5.436e+00,6.192e+00,4.385e+00,5.362e+00,6.043e+00,7.031e+00,5.249e+00,7.073e+00,5.914e+00,8.859e+00,8.516e+00,7.947e+00,7.517e+00,7.451e+00,7.928e+00,8.124e+00,8.570e+00,6.633e+00,8.049e+00,7.765e+00,7.381e+00,8.039e+00,7.822e+00,7.213e+00,7.255e+00,6.448e+00,8.022e+00,8.719e+00,8.576e+00,6.649e+00,7.001e+00,8.826e+00,9.186e+00,8.222e+00,7.203e+00,6.524e+00,7.244e+00,6.970e+00,6.945e+00,8.556e+00,8.299e+00,8.906e+00,8.392e+00,7.524e+00,7.623e+00,8.563e+00,7.271e+00,6.940e+00,9.223e+00,5.057e+00,8.193e+00,6.938e+00,7.884e+00,8.506e+00,8.390e+00,6.406e+00,6.623e+00,7.427e+00,6.923e+00,7.197e+00,8.408e+00,8.082e+00,8.396e+00,1.005e+01,7.730e+00,9.310e+00
2.872e-01,6.866e-01,1.471e+00,1.771e+00,1.754e+00,9.994e-01,2.453e+00,2.203e+00,3.733e+00,2.570e+00,3.060e+00,2.706e+00,3.150e+00,4.082e+00,5.326e+00,4.860e+00,5.684e+00,4.178e+00,4.682e+00,5.642e+00,6.422e+00,4.573e+00,6.217e+00,5.330e+00,7.532e+00,6.991e+00,8.404e+00,6.322e+00,6.104e+00,6.896e+00,7.426e+00,7.623e+00,6.454e+00,6.951e+00,7.571e+00,6.219e+00,7.365e+00,7.174e+00,6.581e+00,7.568e+00,4.974e+00,6.672e+00,8.072e+00,7.380e+00,6.967e+00,7.228e+00,8.161e+00,8.027e+00,8.513e+00,6.881e+00,6.291e+00,6.448e+00,7.087e+00,6.364e+00,8.289e+00,7.510e+00,8.113e+00,8.268e+00,6.851e+00,7.359e+00,7.569e+00,6.643e+00,7.841e+00,8.221e+00,5.334e+00,8.139e+00,6.737e+00,7.154e+00,8.410e+00,7.974e+00,5.990e+00,6.242e+00,6.874e+00,6.159e+00,6.033e+00,7.298e+00,7.522e+00,7.998e+00,8.745e+00,6.974e+00,8.761e+00
7.675e-02,4.397e-01,8.529e-01,1.675e+00,1.289e+00,3.854e-01,1.310e+00,1.097e+00,2.037e+00,1.725e+00,1.453e+00,1.634e+00,1.757e+00,2.479e+00,3.194e+00,2.936e+00,2.894e+00,2.810e+00,2.719e+00,4.010e+00,4.260e+00,3.483e+00,4.270e+00,4.361e+00,5.978e+00,5.397e+00,6.532e+00,5.943e+00,5.026e+00,6.766e+00,7.241e+00,6.921e+00,6.215e+00,6.767e+00,6.947e+00,5.534e+00,5.965e+00,6.392e+00,6.640e+00,5.979e+00,6.664e+00,5.785e+00,6.699e+00,6.835e+00,5.493e+00,6.421e+00,6.086e+00,7.798e+00,6.788e+00,5.503e+00,5.211e+00,6.217e+00,6.486e+00,6.449e+00,6.785e+00,6.500e+00,6.380e+00,6.818e+00,6.318e+00,6.391e+00,6.881e+00,5.741e+00,5.554e+00,7.692e+00,4.519e+00,6.061e+00,5.327e+00,6.078e+00,7.551e+00,6.535e+00,5.313e+00,5.557e+00,6.077e+00,6.333e+00,6.722e+00,6.754e+00,7.147e+00,6.743e+00,7.300e+00,6.569e+00,8.026e+00
1.460e-01,2.829e-01,7.434e-01,9.594e-01,9.272e-01,4.662e-01,1.405e+00,1.130e+00,1.914e+00,1.010e+00,1.401e+00,1.401e+00,1.690e+00,2.376e+00,3.396e+00,2.597e+00,3.191e+00,2.344e+00,1.997e+00,3.757e+00,4.864e+00,3.109e+00,3.921e+00,4.333e+00,5.147e+00,5.232e+00,6.040e+00,5.024e+00,5.594e+00,6.246e+00,7.456e+00,7.001e+00,4.621e+00,5.616e+00,6.786e+00,5.764e+00,5.931e+00,5.972e+00,5.506e+00,6.117e+00,5.888e+00,5.577e+00,6.091e+00,6.963e+00,5.288e+00,5.368e+00,6.271e+00,7.806e+00,6.673e+00,6.410e+00,4.878e+00,6.056e+00,5.715e+00,5.510e+00,6.845e+00,6.863e+00,7.572e+00,6.288e+00,6.442e+00,6.776e+00,6.907e+00,5.380e+00,6.281e+00,6.867e+00,4.287e+00,6.166e+00,6.416e+00,5.409e+00,7.180e+00,6.696e+00,4.988e+00,5.460e+00,5.991e+00,5.731e+00,4.795e+00,7.391e+00,6.983e+00,6.194e+00,7.329e+00,6.313e+00,7.867e+00
2.036e-01,5.954e-01,1.420e+00,2.053e+00,1.816e+00,7.413e-01,1.960e+00,1.624e+00,2.526e+00,2.342e+00,2.672e+00,1.767e+00,2.230e+00,3.616e+00,4.799e+00,3.171e+00,3.964e+00,3.548e+00,3.484e+00,4.601e+00,4.575e+00,4.922e+00,5.311e+00,4.715e+00,6.687e+00,7.568e+00,6.837e+00,5.814e+00,6.544e+00,6.641e+00,8.079e+00,8.906e+00,6.447e+00,8.500e+00,7.018e+00,6.703e+00,8.322e+00,7.444e+00,7.123e+00,7.015e+00,7.616e+00,6.687e+00,8.994e+00,6.728e+00,7.164e+00,7.722e+00,7.985e+00,9.166e+00,8.057e+00,8.196e+00,6.247e+00,7.794e+00,7.710e+00,7.571e+00,8.603e+00,8.036e+00,8.622e+00,8.176e+00,8.265e+00,8.098e+00,8.666e+00,6.516e+00,8.897e+00,7.802e+00,5.508e+00,7.214e+00,7.035e+00,7.816e+00,8.938e+00,7.604e+00,6.773e+00,7.288e+00,6.126e+00,6.793e+00,6.899e+00,7.675e+00,8.199e+00,7.222e+00,9.933e+00,8.263e+00,8.946e+00
5.403e-02,2.658e-01,4.421e-01,1.254e+00,9.489e-01,5.253e-01,1.276e+00,1.034e+00,1.838e+00,1.680e+00,1.685e+00,1.696e+00,2.720e+00,2.980e+00,3.848e+00,3.742e+00,4.226e+00,2.826e+00,4.514e+00,4.201e+00,5.223e+00,3.862e+00,5.412e+00,4.854e+00,7.249e+00,6.414e+00,7.616e+00,7.183e+00,6.765e+00,7.532e+00,9.710e+00,8.614e+00,7.320e+00,9.216e+00,8.314e+00,7.596e+00,8.243e+00,6.991e+00,8.047e+00,7.889e+00,7.740e+00,6.780e+00,8.870e+00,8.630e+00,6.284e+00,7.216e+00,7.659e+00,9.160e+00,8.800e+00,8.103e+00,6.608e+00,8.110e+00,6.928e+00,7.647e+00,8.098e+00,8.654e+00,8.283e+00,7.632e+00,7.915e+00,8.285e+00,8.864e+00,7.430e+00,7.839e+00,9.164e+00,6.840e+00,8.135e+00,6.852e+00,7.245e+00,9.465e+00,8.245e+00,6.485e+00,7.837e+00,7.451e+00,7.284e+00,8.116e+00,8.836e+00,8.928e+00,7.890e+00,9.157e+00,8.307e+00,9.200e+00
1.106e-01,4.582e-01,7.663e-01,1.537e+00,1.158e+00,5.341e-01,1.265e+00,1.440e+00,2.059e+00,2.391e+00,1.830e+00,1.820e+00,2.040e+00,3.621e+00,3.479e+00,3.288e+00,4.100e+00,3.300e+00,4.429e+00,4.679e+00,6.147e+00,4.311e+00,5.478e+00,4.897e+00,7.010e+00,6.311e+00,6.784e+00,6.198e+00,5.821e+00,7.787e+00,8.039e+00,9.038e+00,7.069e+00,9.259e+00,7.709e+00,8.565e+00,8.610e+00,7.671e+00,8.555e+00,7.428e+00,7.543e+00,7.239e+00,8.720e+00,7.613e+00,7.452e+00,7.476e+00,8.258e+00,7.894e+00,8.475e+00,7.312e+00,7.355e+00,7.928e+00,8.671e+00,8.240e+00,8.427e+00,8.555e+00,7.953e+00,8.009e+00,8.392e+00,8.616e+00,8.697e+00,7.595e+00,6.966e+00,9.998e+00,6.748e+00,7.910e+00,6.403e+00,7.454e+00,9.665e+00,8.066e+00,7.495e+00,7.883e+00,7.286e+00,7.283e+00,7.560e+00,6.973e+00,8.050e+00,8.488e+00,9.320e+00,7.562e+00,9.116e+00
2.073e-01,9.045e-01,1.433e+00,1.964e+00,1.878e+00,1.208e+00,2.254e+00,2.283e+00,4.275e+00,3.409e+00,3.903e+00,2.868e+00,3.281e+00,4.363e+00,5.707e+00,4.441e+00,5.979e+00,4.182e+00,5.102e+00,4.797e+00,4.921e+00,4.532e+00,6.322e+00,4.800e+00,7.682e+00,7.162e+00,7.030e+00,6.397e+00,6.523e+00,7.718e+00,8.308e+00,8.874e+00,8.183e+00,9.585e+00,8.237e+00,8.253e+00,9.005e+00,7.721e+00,8.771e+00,8.667e+00,8.267e+00,7.782e+00,1.044e+01,8.018e+00,8.020e+00,8.089e+00,9.125e+00,9.798e+00,1.054e+01,8.598e+00,6.841e+00,8.995e+00,7.905e+00,8.006e+00,8.639e+00,8.864e+00,9.232e+00,8.778e+00,8.547e+00,8.728e+00,9.523e+00,8.736e+00,8.700e+00,9.881e+00,7.914e+00,9.413e+00,7.965e+00,9.213e+00,1.031e+01,8.823e+00,7.569e+00,7.896e+00,8.324e+00,8.298e+00,9.126e+00,8.230e+00,1.014e+01,8.140e+00,1.089e+01,9.430e+00,9.830e+00
3.596e-02,8.456e-02,7.334e-01,1.463e+00,1.285e+00,5.748e-01,1.665e+00,1.261e+00,3.041e+00,2.618e+00,2.456e+00,2.679e+00,3.093e+00,3.618e+00,5.080e+00,4.499e+00,5.003e+00,3.784e+00,4.005e+00,5.110e+00,5.509e+00,5.784e+00,5.926e+00,4.819e+00,7.244e+00,6.218e+00,7.075e+00,7.063e+00,6.734e+00,8.259e+00,9.666e+00,8.608e+00,7.990e+00,1.002e+01,9.692e+00,8.490e+00,9.073e+00,8.469e+00,9.192e+00,8.241e+00,8.500e+00,6.943e+00,1.104e+01,9.441e+00,8.137e+00,9.150e+00,8.379e+00,9.581e+00,1.042e+01,8.283e+00,7.311e+00,9.590e+00,9.621e+00,8.675e+00,8.948e+00,8.728e+00,1.007e+01,8.964e+00,8.786e+00,8.218e+00,9.743e+00,7.781e+00,8.740e+00,9.966e+00,8.095e+00,8.583e+00,7.479e+00,9.023e+00,1.243e+01,9.250e+00,7.767e+00,8.264e+00,9.630e+00,8.755e+00,8.548e+00,9.562e+00,1.075e+01,8.531e+00,9.597e+00,8.774e+00,9.808e+00
1.717e-01,8.192e-01,1.118e+00,1.490e+00,1.468e+00,1.073e+00,1.750e+00,1.576e+00,3.298e+00,2.907e+00,2.972e+00,2.221e+00,2.478e+00,4.029e+00,4.729e+00,3.459e+00,4.818e+00,3.957e+00,4.327e+00,4.823e+00,5.590e+00,4.733e+00,5.913e+00,5.256e+00,7.142e+00,7.544e+00,7.084e+00,6.715e+00,6.197e+00,7.258e+00,8.835e+00,9.101e+00,6.627e+00,8.489e+00,8.147e+00,9.123e+00,9.500e+00,8.661e+00,8.608e+00,8.582e+00,9.208e+00,7.829e+00,1.060e+01,8.354e+00,8.825e+00,8.611e+00,9.560e+00,1.087e+01,9.894e+00,8.660e+00,6.741e+00,8.085e+00,8.850e+00,7.898e+00,9.709e+00,8.331e+00,9.354e+00,9.629e+00,9.563e+00,9.211e+00,1.017e+01,8.276e+00,8.918e+00,1.085e+01,7.125e+00,8.560e+00,8.601e+00,8.681e+00,9.857e+00,9.211e+00,7.739e+00,9.387e+00,8.147e+00,6.964e+00,8.234e+00,8.774e+00,1.025e+01,8.166e+00,1.048e+01,9.698e+00,9.300e+00
2.389e-01,8.799e-01,1.680e+00,2.634e+00,2.348e+00,1.157e+00,2.800e+00,2.256e+00,3.803e+00,2.951e+00,3.308e+00,2.738e+00,3.247e+00,4.569e+00,6.300e+00,4.953e+00,5.303e+00,4.574e+00,4.184e+00,5.654e+00,5.904e+00,5.320e+00,6.703e+00,6.514e+00,8.070e+00,8.833e+00,8.980e+00,7.486e+00,7.129e+00,8.512e+00,1.073e+01,1.009e+01,7.961e+00,1.017e+01,9.655e+00,9.575e+00,1.020e+01,9.894e+00,1.047e+01,9.476e+00,9.558e+00,8.904e+00,1.282e+01,1.014e+01,8.438e+00,8.967e+00,1.066e+01,1.206e+01,1.064e+01,9.770e+00,8.513e+00,1.026e+01,9.785e+00,1.027e+01,1.067e+01,1.029e+01,1.105e+01,9.867e+00,9.093e+00,1.096e+01,1.108e+01,9.565e+00,1.068e+01,1.167e+01,7.718e+00,1.059e+01,8.825e+00,1.096e+01,1.125e+01,1.051e+01,9.307e+00,1.084e+01,9.507e+00,9.364e+00,1.027e+01,9.799e+00,1.207e+01,9.246e+00,1.246e+01,1.131e+01,1.127e+01
2.683e-01,9.413e-01,1.721e+00,2.658e+00,2.221e+00,9.460e-01,2.494e+00,2.394e+00,3.917e+00,3.345e+00,3.549e+00,2.860e+00,3.662e+00,4.673e+00,5.451e+00,4.856e+00,6.010e+00,4.428e+00,5.369e+00,6.074e+00,7.152e+00,4.913e+00,6.327e+00,5.519e+00,8.553e+00,7.671e+00,8.335e+00,6.562e+00,6.757e+00,7.702e+00,8.814e+00,8.843e+00,8.914e+00,9.449e+00,8.620e+00,9.355e+00,1.079e+01,9.295e+00,1.008e+01,9.374e+00,9.035e+00,8.976e+00,1.105e+01,9.909e+00,9.950e+00,9.676e+00,1.009e+01,1.081e+01,1.197e+01,9.887e+00,8.753e+00,9.983e+00,1.030e+01,8.607e+00,1.025e+01,9.548e+00,1.112e+01,9.896e+00,9.054e+00,1.028e+01,1.138e+01,1.005e+01,1.006e+01,1.107e+01,7.897e+00,9.868e+00,8.650e+00,9.777e+00,1.219e+01,1.043e+01,9.221e+00,8.493e+00,9.762e+00,8.830e+00,9.064e+00,1.037e+01,9.505e+00,9.690e+00,1.257e+01,9.977e+00,1.221e+01
1.676e-01,4.818e-01,5.128e-01,1.166e+00,9.614e-01,9.392e-01,1.716e+00,1.499e+00,2.446e+00,2.345e+00,2.051e+00,1.981e+00,1.715e+00,3.895e+00,3.860e+00,2.894e+00,4.637e+00,3.064e+00,4.227e+00,3.939e+00,5.297e+00,4.344e+00,5.716e+00,4.555e+00,6.264e+00,7.121e+00,6.614e+00,6.370e+00,5.933e+00,7.144e+00,8.220e+00,8.913e+00,7.094e+00,9.262e+00,8.177e+00,9.448e+00,9.749e+00,7.545e+00,9.834e+00,9.558e+00,9.182e+00,7.842e+00,1.115e+01,9.451e+00,9.556e+00,9.516e+00,9.218e+00,9.823e+00,1.036e+01,8.884e+00,7.873e+00,9.271e+00,1.073e+01,8.526e+00,1.027e+01,9.892e+00,1.093e+01,9.536e+00,9.808e+00,1.003e+01,9.835e+00,8.455e+00,1.006e+01,1.081e+01,7.769e+00,9.193e+00,8.946e+00,1.069e+01,1.173e+01,8.819e+00,9.790e+00,1.047e+01,9.790e+00,8.672e+00,8.715e+00,8.351e+00,1.031e+01,8.421e+00,1.056e+01,8.890e+00,1.004e+01
3.252e-01,1.097e+00,1.516e+00,1.955e+00,1.759e+00,1.072e+00,2.142e+00,1.669e+00,3.093e+00,2.848e+00,3.659e+00,2.057e+00,2.396e+00,4.633e+00,5.246e+00,3.846e+00,4.731e+00,4.238e+00,5.056e+00,5.730e+00,5.936e+00,5.853e+00,6.195e+00,5.281e+00,7.651e+00,7.947e+00,7.362e+00,6.797e+00,6.159e+00,6.840e+00,8.563e+00,7.305e+00,6.650e+00,7.259e+00,7.537e+00,7.510e+00,8.793e+00,8.526e+00,8.695e+00,7.771e+00,7.509e+00,8.205e+00,1.093e+01,8.571e+00,9.389e+00,8.600e+00,8.656e+00,9.274e+00,9.994e+00,7.594e+00,6.304e+00,9.580e+00,1.015e+01,9.101e+00,9.733e+00,9.933e+00,9.532e+00,1.021e+01,8.776e+00,8.994e+00,9.927e+00,8.664e+00,9.819e+00,9.038e+00,7.502e+00,9.863e+00,7.084e+00,1.034e+01,1.094e+01,9.827e+00,8.972e+00,8.607e+00,8.436e+00,8.277e+00,7.722e+00,8.821e+00,9.646e+00,8.772e+00,1.091e+01,8.907e+00,9.824e+00
3.085e-01,9.107e-01,1.499e+00,2.243e+00,1.991e+00,1.206e+00,2.495e+00,2.361e+00,3.784e+00,3.293e+00,3.539e+00,2.905e+00,3.426e+00,4.882e+00,6.683e+00,4.435e+00,5.750e+00,4.610e+00,4.959e+00,5.551e+00,6.766e+00,6.128e+00,7.190e+00,6.054e+00,7.593e+00,8.365e+00,7.421e+00,6.426e+00,8.578e+00,7.677e+00,9.656e+00,1.022e+01,7.162e+00,1.001e+01,9.157e+00,9.438e+00,1.118e+01,9.642e+00,9.672e+00,1.027e+01,1.013e+01,9.699e+00,1.277e+01,1.129e+01,1.086e+01,1.062e+01,1.000e+01,1.201e+01,1.172e+01,1.070e+01,8.026e+00,1.197e+01,1.118e+01,9.957e+00,1.062e+01,1.099e+01,1.340e+01,1.083e+01,1.031e+01,1.088e+01,1.294e+01,1.105e+01,1.122e+01,1.172e+01,8.516e+00,1.027e+01,9.383e+00,1.284e+01,1.385e+01,1.092e+01,1.085e+01,9.790e+00,1.130e+01,1.080e+01,1.033e+01,1.094e+01,1.142e+01,1.021e+01,1.276e+01,1.113e+01,1.173e+01
1.094e-01,7.224e-01,1.199e+00,2.335e+00,1.914e+00,9.992e-01,2.024e+00,1.871e+00,3.833e+00,3.966e+00,3.162e+00,3.118e+00,2.929e+00,4.360e+00,5.080e+00,4.418e+00,5.790e+00,4.366e+00,5.285e+00,6.030e+00,5.728e+00,5.133e+00,7.307e+00,4.823e+00,7.850e+00,6.698e+00,6.452e+00,6.417e+00,6.404e+00,6.550e+00,7.161e+00,6.953e+00,6.474e+00,7.972e+00,6.465e+00,7.439e+00,8.588e+00,7.456e+00,7.164e+00,7.779e+00,6.942e+00,8.170e+00,9.220e+00,9.000e+00,8.266e+00,8.424e+00,8.224e+00,8.871e+00,9.916e+00,7.696e+00,7.096e+00,8.783e+00,8.460e+00,8.332e+00,9.118e+00,8.393e+00,1.002e+01,9.650e+00,8.031e+00,8.017e+00,1.009e+01,8.383e+00,8.404e+00,9.496e+00,6.602e+00,8.748e+00,7.035e+00,9.045e+00,1.110e+01,8.751e+00,8.254e+00,6.907e+00,8.645e+00,7.809e+00,8.277e+00,8.773e+00,9.113e+00,8.977e+00,1.024e+01,7.705e+00,1.014e+01
1.161e-01,3.832e-01,5.889e-01,1.081e+00,9.716e-01,7.641e-01,1.505e+00,1.183e+00,2.585e+00,2.326e+00,2.587e+00,2.236e+00,3.047e+00,4.100e+00,5.052e+00,4.563e+00,5.279e+00,3.664e+00,5.130e+00,4.920e+00,6.418e+00,5.229e+00,6.129e+00,6.098e+00,8.163e+00,7.502e+00,7.348e+00,7.546e+00,7.454e+00,8.479e+00,1.004e+01,9.784e+00,8.186e+00,1.050e+01,9.987e+00,1.044e+01,1.052e+01,9.709e+00,1.185e+01,9.928e+00,1.055e+01,9.903e+00,1.396e+01,1.199e+01,1.118e+01,1.181e+01,1.193e+01,1.302e+01,1.220e+01,1.122e+01,9.489e+00,1.145e+01,1.296e+01,1.190e+01,1.125e+01,1.265e+01,1.367e+01,1.282e+01,1.109e+01,1.250e+01,1.365e+01,1.199e+01,1.167e+01,1.264e+01,1.037e+01,1.092e+01,1.025e+01,1.357e+01,1.409e+01,1.283e+01,1.127e+01,1.171e+01,1.175e+01,1.182e+01,1.162e+01,1.176e+01,1.251e+01,1.082e+01,1.307e+01,1.165e+01,1.206e+01
1.178e-01,5.305e-01,8.549e-01,1.728e+00,1.421e+00,8.675e-01,1.700e+00,1.529e+00,2.388e+00,2.589e+00,2.527e+00,1.816e+00,2.419e+00,3.513e+00,3.887e+00,3.367e+00,4.650e+00,2.977e+00,4.530e+00,4.308e+00,4.820e+00,4.897e+00,5.094e+00,4.225e+00,7.039e+00,5.973e+00,5.776e+00,5.641e+00,5.613e+00,6.284e+00,7.260e+00,7.725e+00,7.195e+00,8.303e+00,7.826e+00,7.736e+00,1.009e+01,8.322e+00,9.762e+00,9.301e+00,8.784e+00,9.327e+00,1.225e+01,1.067e+01,1.039e+01,1.103e+01,9.622e+00,1.053e+01,1.177e+01,1.061e+01,9.116e+00,1.137e+01,1.108e+01,1.137e+01,1.069e+01,1.180e+01,1.292e+01,1.112e+01,1.047e+01,1.064e+01,1.188e+01,1.152e+01,1.101e+01,1.133e+01,9.787e+00,1.153e+01,8.848e+00,1.392e+01,1.420e+01,1.161e+01,1.247e+01,1.043e+01,1.200e+01,1.122e+01,1.035e+01,1.143e+01,1.135e+01,1.062e+01,1.255e+01,1.062e+01,1.130e+01
2.715e-01,9.873e-01,1.324e+00,1.977e+00,1.641e+00,8.445e-01,1.985e+00,1.858e+00,3.189e+00,2.371e+00,2.835e+00,2.253e+00,2.489e+00,3.575e+00,4.508e+00,3.392e+00,4.895e+00,3.590e+00,4.339e+00,5.156e+00,5.698e+00,4.330e+00,6.067e+00,4.629e+00,6.596e+00,6.287e+00,6.136e+00,5.769e+00,6.021e+00,7.073e+00,7.802e+00,7.826e+00,6.969e+00,9.098e+00,6.664e+00,9.470e+00,8.682e+00,8.365e+00,9.053e+00,7.768e+00,8.701e+00,8.131e+00,1.169e+01,9.521e+00,9.972e+00,9.410e+00,1.038e+01,9.891e+00,1.108e+01,9.642e+00,8.093e+00,1.016e+01,1.014e+01,1.103e+01,1.059e+01,9.876e+00,1.186e+01,9.819e+00,9.127e+00,1.045e+01,1.177e+01,1.012e+01,1.001e+01,1.248e+01,7.435e+00,9.491e+00,9.053e+00,1.102e+01,1.295e+01,1.040e+01,1.051e+01,9.877e+00,1.032e+01,9.257e+00,9.446e+00,9.899e+00,1.007e+01,9.559e+00,1.152e+01,9.420e+00,1.090e+01
2.142e-01,7.143e-01,7.523e-01,1.179e+00,1.058e+00,8.870e-01,1.821e+00,1.495e+00,2.703e+00,1.837e+00,2.612e+00,2.151e+00,2.581e+00,3.810e+00,4.592e+00,3.661e+00,4.978e+00,3.175e+00,4.223e+00,4.917e+00,6.137e+00,4.441e+00,6.180e+00,5.381e+00,6.955e+00,7.767e+00,7.667e+00,7.473e+00,6.402e+00,6.907e+00,8.495e+00,7.805e+00,6.217e+00,7.722e+00,7.950e+00,8.268e+00,8.308e+00,7.413e+00,7.806e+00,8.464e+00,8.492e+00,7.440e+00,1.100e+01,1.110e+01,1.026e+01,1.023e+01,9.514e+00,1.110e+01,1.193e+01,1.048e+01,8.456e+00,1.019e+01,1.024e+01,1.060e+01,1.106e+01,1.177e+01,1.240e+01,1.034e+01,1.045e+01,1.125e+01,1.127e+01,9.193e+00,1.159e+01,1.135e+01,8.412e+00,1.083e+01,1.006e+01,1.184e+01,1.250e+01,1.081e+01,8.706e+00,9.779e+00,1.152e+01,9.233e+00,9.099e+00,1.112e+01,1.187e+01,1.031e+01,1.116e+01,9.386e+00,1.030e+01
2.099e-01,8.689e-01,1.258e+00,2.263e+00,1.830e+00,9.038e-01,2.016e+00,1.470e+00,2.872e+00,2.649e+00,2.359e+00,2.120e+00,2.689e+00,3.883e+00,4.924e+00,3.296e+00,4.315e+00,3.789e+00,3.846e+00,5.708e+00,6.349e+00,4.960e+00,6.693e+00,5.702e+00,6.631e+00,7.469e+00,7.776e+00,6.883e+00,6.804e+00,7.352e+00,1.021e+01,8.943e+00,6.961e+00,9.733e+00,8.428e+00,1.002e+01,1.037e+01,1.015e+01,1.067e+01,1.009e+01,1.102e+01,9.517e+00,1.342e+01,1.213e+01,1.072e+01,1.363e+01,1.292e+01,1.323e+01,1.415e+01,1.283e+01,1.075e+01,1.280e+01,1.217e+01,1.249e+01,1.316e+01,1.325e+01,1.538e+01,1.303e+01,1.329e+01,1.410e+01,1.432e+01,1.128e+01,1.282e+01,1.506e+01,9.632e+00,1.296e+01,1.154e+01,1.289e+01,1.533e+01,1.513e+01,1.290e+01,1.345e+01,1.371e+01,1.212e+01,1.218e+01,1.326e+01,1.493e+01,1.178e+01,1.452e+01,1.220e+01,1.219e+01
3.074e-01,6.988e-01,8.045e-01,1.171e+00,1.010e+00,8.728e-01,1.835e+00,1.404e+00,2.230e+00,1.792e+00,2.369e+00,1.864e+00,2.066e+00,3.890e+00,4.608e+00,2.959e+00,4.371e+00,3.153e+00,3.351e+00,4.510e+00,5.709e+00,4.942e+00,5.499e+00,4.990e+00,6.121e+00,7.408e+00,6.451e+00,5.785e+00,6.919e+00,6.875e+00,8.239e+00,9.441e+00,6.298e+00,9.106e+00,8.322e+00,9.225e+00,9.632e+00,9.122e+00,9.569e+00,9.947e+00,9.791e+00,8.595e+00,1.266e+01,1.072e+01,1.175e+01,1.162e+01,1.130e+01,1.268e+01,1.294e+01,1.182e+01,9.015e+00,1.218e+01,1.349e+01,1.218e+01,1.299e+01,1.313e+01,1.483e+01,1.177e+01,1.212e+01,1.425e+01,1.369e+01,1.185e+01,1.411e+01,1.331e+01,9.299e+00,1.174e+01,1.178e+01,1.445e+01,1.401e+01,1.296e+01,1.238e+01,1.084e+01,1.181e+01,1.196e+01,1.081e+01,1.181e+01,1.266e+01,1.122e+01,1.422e+01,1.203e+01,1.156e+01
2.644e-01,1.005e+00,9.771e-01,1.268e+00,1.215e+00,1.073e+00,1.881e+00,1.402e+00,3.246e+00,2.057e+00,3.259e+00,2.259e+00,3.081e+00,4.283e+00,6.066e+00,4.039e+00,5.146e+00,3.751e+00,4.482e+00,5.394e+00,6.216e+00,4.349e+00,5.742e+00,5.757e+00,7.384e+00,7.691e+00,7.647e+00,6.653e+00,6.799e+00,7.858e+00,1.013e+01,8.252e+00,7.285e+00,9.730e+00,8.370e+00,9.682e+00,8.678e+00,8.974e+00,1.051e+01,9.531e+00,9.936e+00,9.488e+00,1.350e+01,1.136e+01,1.009e+01,1.170e+01,1.191e+01,1.258e+01,1.350e+01,1.353e+01,1.034e+01,1.232e+01,1.321e+01,1.369e+01,1.377e+01,1.400e+01,1.540e+01,1.282e+01,1.166e+01,1.366e+01,1.424e+01,1.321e+01,1.467e+01,1.470e+01,1.098e+01,1.403e+01,1.146e+01,1.452e+01,1.551e+01,1.506e+01,1.308e+01,1.287e+01,1.376e+01,1.330e+01,1.152e+01,1.415e+01,1.445e+01,1.095e+01,1.506e+01,1.234e+01,1.367e+01
1.098e-01,4.465e-01,7.527e-01,1.760e+00,1.360e+00,6.735e-01,1.811e+00,1.031e+00,2.850e+00,2.313e+00,2.217e+00,2.375e+00,2.169e+00,3.169e+00,4.640e+00,3.377e+00,4.110e+00,3.235e+00,2.728e+00,5.453e+00,4.745e+00,4.711e+00,5.898e+00,4.726e+00,6.602e+00,6.773e+00,7.254e+00,6.428e+00,6.052e+00,6.480e+00,8.648e+00,8.745e+00,6.339e+00,8.791e+00,8.099e+00,7.836e+00,9.258e+00,9.169e+00,8.165e+00,8.906e+00,9.610e+00,7.786e+00,1.120e+01,9.527e+00,9.388e+00,1.153e+01,1.056e+01,1.162e+01,1.314e+01,1.155e+01,9.408e+00,1.196e+01,1.185e+01,1.172e+01,1.284e+01,1.266e+01,1.395e+01,1.098e+01,1.269e+01,1.392e+01,1.239e+01,1.149e+01,1.317e+01,1.374e+01,9.907e+00,1.290e+01,1.072e+01,1.124e+01,1.423e+01,1.444e+01,1.206e+01,1.045e+01,1.223e+01,1.178e+01,1.092e+01,1.234e+01,1.399e+01,1.099e+01,1.371e+01,1.251e+01,1.170e+01
1.205e-01,6.743e-01,1.031e+00,2.014e+00,1.715e+00,1.087e+00,1.974e+00,1.919e+00,3.179e+00,3.086e+00,2.571e+00,2.298e+00,2.952e+00,4.412e+00,5.201e+00,3.817e+00,5.477e+00,3.933e+00,5.122e+00,4.946e+00,5.713e+00,5.043e+00,6.600e+00,5.293e+00,7.920e+00,7.178e+00,7.260e+00,6.832e+00,7.298e+00,8.276e+00,8.962e+00,8.628e+00,8.420e+00,1.015e+01,8.276e+00,1.044e+01,9.728e+00,9.134e+00,1.043e+01,9.767e+00,9.638e+00,1.025e+01,1.267e+01,1.111e+01,1.129e+01,1.212e+01,1.261e+01,1.274e+01,1.467e+01,1.251e+01,1.087e+01,1.443e+01,1.365e+01,1.433e+01,1.326e+01,1.270e+01,1.489e+01,1.284e+01,1.371e+01,1.453e+01,1.451e+01,1.316e+01,1.329e+01,1.586e+01,1.108e+01,1.411e+01,1.127e+01,1.447e+01,1.580e+01,1.497e+01,1.315e+01,1.273e+01,1.327e+01,1.357e+01,1.315e+01,1.460e+01,1.431e+01,1.339e+01,1.473e+01,1.323e+01,1.392e+01
3.172e-01,8.258e-01,1.218e+00,1.836e+00,1.465e+00,6.883e-01,1.892e+00,1.289e+00,2.666e+00,2.153e+00,2.177e+00,2.100e+00,2.485e+00,3.594e+00,4.557e+00,3.437e+00,3.977e+00,3.814e+00,3.127e+00,5.452e+00,5.950e+00,4.492e+00,6.338e+00,5.290e+00,6.588e+00,5.957e+00,7.447e+00,5.793e+00,6.275e+00,6.944e+00,8.783e+00,8.834e+00,6.584e+00,9.563e+00,7.853e+00,9.082e+00,9.502e+00,1.032e+01,1.103e+01,1.091e+01,1.060e+01,9.778e+00,1.330e+01,1.096e+01,1.067e+01,1.216e+01,1.239e+01,1.226e+01,1.364e+01,1.185e+01,1.051e+01,1.374e+01,1.406e+01,1.365e+01,1.422e+01,1.424e+01,1.556e+01,1.316e+01,1.237e+01,1.479e+01,1.458e+01,1.371e+01,1.461e+01,1.510e+01,1.132e+01,1.464e+01,1.169e+01,1.378e+01,1.563e+01,1.562e+01,1.466e+01,1.259e+01,1.369e+01,1.255e+01,1.287e+01,1.352e+01,1.363e+01,1.366e+01,1.582e+01,1.422e+01,1.453e+01
1.883e-01,7.057e-01,9.283e-01,1.417e+00,1.249e+00,8.483e-01,1.797e+00,1.695e+00,3.008e+00,2.182e+00,2.966e+00,2.138e+00,3.059e+00,3.830e+00,4.503e+00,4.329e+00,5.523e+00,3.543e+00,5.342e+00,4.955e+00,6.072e+00,3.894e+00,5.082e+00,4.619e+00,7.683e+00,6.746e+00,7.159e+00,6.901e+00,6.477e+00,7.935e+00,9.415e+00,8.153e+00,8.456e+00,9.248e+00,8.867e+00,1.023e+01,9.997e+00,9.100e+00,1.200e+01,1.058e+01,9.663e+00,1.052e+01,1.276e+01,1.176e+01,1.130e+01,1.138e+01,1.260e+01,1.330e+01,1.399e+01,1.306e+01,1.108e+01,1.480e+01,1.352e+01,1.408e+01,1.383e+01,1.511e+01,1.584e+01,1.353e+01,1.363e+01,1.520e+01,1.534e+01,1.532e+01,1.441e+01,1.534e+01,1.315e+01,1.523e+01,1.167e+01,1.547e+01,1.678e+01,1.507e+01,1.392e+01,1.405e+01,1.465e+01,1.373e+01,1.345e+01,1.512e+01,1.497e+01,1.318e+01,1.694e+01,1.350e+01,1.488e+01
3.663e-02,2.510e-01,6.563e-01,1.213e+00,1.157e+00,8.107e-01,1.563e+00,1.793e+00,3.263e+00,2.750e+00,2.633e+00,2.694e+00,3.078e+00,3.876e+00,5.137e+00,4.202e+00,5.329e+00,3.166e+00,4.613e+00,4.131e+00,4.589e+00,4.032e+00,6.239e+00,4.281e+00,7.076e+00,6.982e+00,6.843e+00,6.515e+00,6.979e+00,7.388e+00,8.024e+00,7.947e+00,7.037e+00,8.661e+00,7.874e+00,8.717e+00,8.907e+00,7.103e+00,9.040e+00,8.653e+00,8.668e+00,7.887e+00,1.179e+01,1.009e+01,1.007e+01,1.060e+01,1.048e+01,1.032e+01,1.177e+01,1.146e+01,8.875e+00,1.207e+01,1.203e+01,1.155e+01,1.234e+01,1.241e+01,1.347e+01,1.117e+01,1.188e+01,1.310e+01,1.303e+01,1.108e+01,1.369e+01,1.318e+01,1.023e+01,1.230e+01,1.108e+01,1.402e+01,1.400e+01,1.302e+01,1.172e+01,1.190e+01,1.209e+01,1.180e+01,1.162e+01,1.242e+01,1.216e+01,1.119e+01,1.380e+01,1.134e+01,1.254e+01
1.708e-01,6.972e-01,9.494e-01,1.225e+00,1.161e+00,7.144e-01,1.270e+00,1.540e+00,1.877e+00,1.583e+00,1.766e+00,1.479e+00,1.858e+00,2.978e+00,3.959e+00,2.454e+00,3.045e+00,2.640e+00,3.775e+00,4.436e+00,5.334e+00,4.703e+00,6.548e+00,4.750e+00,5.824e+00,6.185e+00,7.086e+00,5.739e+00,6.206e+00,5.913e+00,7.605e+00,7.453e+00,6.496e+00,8.493e+00,7.442e+00,9.795e+00,9.130e+00,8.001e+00,1.002e+01,7.743e+00,9.568e+00,8.526e+00,1.260e+01,1.054e+01,1.142e+01,1.117e+01,1.101e+01,1.113e+01,1.407e+01,1.249e+01,1.055e+01,1.402e+01,1.327e+01,1.402e+01,1.295e+01,1.489e+01,1.577e+01,1.200e+01,1.395e+01,1.527e+01,1.312e+01,1.280e+01,1.521e+01,1.510e+01,1.176e+01,1.487e+01,1.130e+01,1.533e+01,1.677e+01,1.499e+01,1.440e+01,1.372e+01,1.348e+01,1.371e+01,1.342e+01,1.433e+01,1.480e+01,1.219e+01,1.497e+01,1.282e+01,1.441e+01
1.802e-01,8.981e-01,1.416e+00,2.125e+00,1.844e+00,9.157e-01,1.976e+00,2.013e+00,3.351e+00,2.941e+00,2.999e+00,2.314e+00,2.241e+00,3.835e+00,4.229e+00,3.444e+00,4.564e+00,3.236e+00,4.170e+00,5.326e+00,5.369e+00,4.336e+00,5.963e+00,4.761e+00,8.084e+00,7.120e+00,7.108e+00,6.206e+00,5.990e+00,7.132e+00,8.189e+00,8.521e+00,7.843e+00,8.699e+00,7.709e+00,9.080e+00,8.636e+00,8.420e+00,1.016e+01,9.846e+00,9.451e+00,9.699e+00,1.078e+01,9.220e+00,1.064e+01,1.095e+01,1.032e+01,1.186e+01,1.294e+01,1.041e+01,9.333e+00,1.201e+01,1.206e+01,1.253e+01,1.307e+01,1.393e+01,1.417e+01,1.303e+01,1.224e+01,1.422e+01,1.253e+01,1.208e+01,1.397e+01,1.348e+01,1.077e+01,1.298e+01,1.130e+01,1.370e+01,1.557e+01,1.339e+01,1.308e+01,1.143e+01,1.257e+01,1.170e+01,1.238e+01,1.239e+01,1.252e+01,1.179e+01,1.442e+01,1.370e+01,1.385e+01
1.273e-01,8.037e-01,1.422e+00,1.885e+00,1.828e+00,1.015e+00,1.857e+00,1.773e+00,4.083e+00,3.344e+00,3.259e+00,2.549e+00,2.260e+00,3.932e+00,5.245e+00,3.417e+00,5.207e+00,4.341e+00,4.669e+00,5.961e+00,6.093e+00,5.449e+00,7.345e+00,6.122e+00,8.448e+00,7.249e+00,7.867e+00,7.623e+00,7.609e+00,8.754e+00,1.069e+01,9.779e+00,8.239e+00,1.030e+01,8.727e+00,1.096e+01,1.077e+01,1.006e+01,1.066e+01,1.029e+01,1.141e+01,9.458e+00,1.450e+01,1.167e+01,1.167e+01,1.256e+01,1.188e+01,1.348e+01,1.413e+01,1.359e+01,1.123e+01,1.491e+01,1.411e+01,1.488e+01,1.461e+01,1.534e+01,1.718e+01,1.360e+01,1.478e+01,1.617e+01,1.635e+01,1.440e+01,1.643e+01,1.709e+01,1.306e+01,1.558e+01,1.375e+01,1.587e+01,1.883e+01,1.613e+01,1.627e+01,1.585e+01,1.631e+01,1.398e+01,1.487e+01,1.466e+01,1.724e+01,1.444e+01,1.748e+01,1.477e+01,1.776e+01
4.276e-02,6.119e-01,1.009e+00,1.358e+00,1.231e+00,4.456e-01,9.366e-01,9.644e-01,2.518e+00,2.261e+00,2.319e+00,1.752e+00,2.406e+00,2.840e+00,3.236e+00,3.502e+00,3.539e+00,2.856e+00,4.099e+00,4.883e+00,4.536e+00,4.158e+00,5.873e+00,4.883e+00,6.516e+00,6.429e+00,7.198e+00,7.174e+00,5.335e+00,7.105e+00,7.653e+00,8.042e+00,7.388e+00,8.337e+00,8.423e+00,9.356e+00,8.968e+00,8.072e+00,1.050e+01,8.442e+00,1.004e+01,8.241e+00,1.217e+01,1.023e+01,1.053e+01,1.164e+01,1.196e+01,1.211e+01,1.252e+01,1.097e+01,1.010e+01,1.155e+01,1.181e+01,1.213e+01,1.302e+01,1.351e+01,1.428e+01,1.354e+01,1.252e+01,1.481e+01,1.315e+01,1.172e+01,1.377e+01,1.398e+01,1.112e+01,1.383e+01,1.159e+01,1.434e+01,1.457e+01,1.418e+01,1.253e+01,1.264e+01,1.304e+01,1.207e+01,1.449e+01,1.342e+01,1.502e+01,1.228e+01,1.522e+01,1.437e+01,1.316e+01
2.687e-01,5.659e-01,1.008e+00,1.154e+00,1.064e+00,6.220e-01,1.591e+00,1.733e+00,2.288e+00,1.870e+00,2.930e+00,1.907e+00,2.848e+00,3.618e+00,4.161e+00,3.871e+00,5.063e+00,3.749e+00,4.901e+00,4.331e+00,6.656e+00,5.303e+00,5.555e+00,4.571e+00,8.120e+00,7.298e+00,6.883e+00,7.305e+00,7.271e+00,9.009e+00,8.633e+00,9.266e+00,8.273e+00,1.034e+01,8.626e+00,1.059e+01,1.062e+01,9.375e+00,1.181e+01,9.812e+00,9.897e+00,1.031e+01,1.259e+01,1.132e+01,1.210e+01,1.209e+01,1.281e+01,1.372e+01,1.483e+01,1.318e+01,1.126e+01,1.327e+01,1.569e+01,1.537e+01,1.606e+01,1.689e+01,1.752e+01,1.464e+01,1.567e+01,1.771e+01,1.730e+01,1.594e+01,1.738e+01,1.750e+01,1.419e+01,1.567e+01,1.493e+01,1.800e+01,1.843e+01,1.701e+01,1.574e+01,1.571e+01,1.604e+01,1.570e+01,1.448e+01,1.564e+01,1.548e+01,1.397e+01,1.958e+01,1.400e+01,1.610e+01
1.679e-01,7.526e-01,1.459e+00,2.236e+00,2.076e+00,1.114e+00,2.224e+00,2.062e+00,3.198e+00,2.883e+00,2.231e+00,2.212e+00,2.593e+00,3.713e+00,4.683e+00,3.338e+00,4.355e+00,3.411e+00,3.602e+00,5.029e+00,5.223e+00,5.033e+00,6.884e+00,5.379e+00,6.215e+00,6.506e+00,7.477e+00,6.790e+00,6.455e+00,7.225e+00,1.031e+01,9.418e+00,7.686e+00,9.816e+00,9.475e+00,9.775e+00,1.087e+01,9.447e+00,1.114e+01,1.015e+01,1.123e+01,8.723e+00,1.437e+01,1.161e+01,1.189e+01,1.296e+01,1.219e+01,1.293e+01,1.484e+01,1.385e+01,1.094e+01,1.488e+01,1.392e+01,1.358e+01,1.383e+01,1.460e+01,1.605e+01,1.332e+01,1.408e+01,1.627e+01,1.565e+01,1.416e+01,1.592e+01,1.736e+01,1.300e+01,1.606e+01,1.388e+01,1.471e+01,1.879e+01,1.752e+01,1.536e+01,1.565e+01,1.562e+01,1.401e+01,1.498e+01,1.472e+01,1.603e+01,1.449e+01,1.570e+01,1.512e+01,1.577e+01
4.719e-02,4.920e-01,1.155e+00,2.052e+00,1.807e+00,8.680e-01,1.744e+00,1.947e+00,3.298e+00,3.380e+00,2.767e+00,2.651e+00,2.998e+00,4.212e+00,5.363e+00,3.893e+00,4.949e+00,3.885e+00,4.000e+00,4.843e+00,4.883e+00,4.998e+00,5.929e+00,4.292e+00,7.115e+00,6.465e+00,5.618e+00,5.293e+00,5.723e+00,6.860e+00,7.631e+00,7.900e+00,6.975e+00,8.638e+00,7.338e+00,7.953e+00,9.076e+00,8.704e+00,9.291e+00,9.509e+00,9.274e+00,9.586e+00,1.102e+01,1.026e+01,1.018e+01,1.119e+01,1.136e+01,1.170e+01,1.328e+01,1.238e+01,1.016e+01,1.340e+01,1.280e+01,1.461e+01,1.397e+01,1.532e+01,1.591e+01,1.409e+01,1.467e+01,1.663e+01,1.572e+01,1.517e+01,1.610e+01,1.660e+01,1.363e+01,1.743e+01,1.442e+01,1.742e+01,1.924e+01,1.705e+01,1.778e+01,1.459e+01,1.678e+01,1.615e+01,1.486e+01,1.627e+01,1.551e+01,1.402e+01,1.831e+01,1.588e+01,1.555e+01
4.842e-03,3.573e-01,3.872e-01,1.147e+00,9.442e-01,7.943e-01,1.183e+00,1.002e+00,2.644e+00,2.877e+00,1.946e+00,2.197e+00,2.454e+00,4.288e+00,4.527e+00,3.466e+00,5.011e+00,3.549e+00,4.523e+00,4.767e+00,6.023e+00,4.217e+00,6.125e+00,5.698e+00,6.658e+00,6.517e+00,6.841e+00,6.216e+00,5.905e+00,7.286e+00,7.911e+00,7.770e+00,6.584e+00,8.557e+00,7.594e+00,9.346e+00,9.345e+00,8.307e+00,9.151e+00,9.181e+00,8.926e+00,8.038e+00,1.183e+01,1.038e+01,1.009e+01,1.137e+01,1.226e+01,1.136e+01,1.248e+01,1.143e+01,9.761e+00,1.170e+01,1.348e+01,1.272e+01,1.336e+01,1.445e+01,1.488e+01,1.257e+01,1.368e+01,1.664e+01,1.495e+01,1.283e+01,1.421e+01,1.735e+01,1.227e+01,1.537e+01,1.425e+01,1.599e+01,1.634e+01,1.706e+01,1.554e+01,1.573e+01,1.590e+01,1.389e+01,1.306e+01,1.310e+01,1.441e+01,1.346e+01,1.636e+01,1.366e+01,1.484e+01
3.270e-01,7.596e-01,1.602e+00,2.150e+00,1.951e+00,9.446e-01,2.526e+00,1.922e+00,3.609e+00,2.863e+00,2.974e+00,2.782e+00,2.559e+00,3.622e+00,4.925e+00,3.732e+00,4.220e+00,3.878e+00,2.574e+00,4.951e+00,5.132e+00,4.268e+00,5.754e+00,4.083e+00,5.578e+00,6.809e+00,6.385e+00,5.157e+00,5.901e+00,4.406e+00,7.725e+00,7.722e+00,6.075e+00,7.320e+00,7.335e+00,6.659e+00,8.611e+00,7.485e+00,8.761e+00,8.627e+00,8.404e+00,8.665e+00,1.141e+01,9.476e+00,9.561e+00,1.131e+01,1.031e+01,1.182e+01,1.387e+01,1.260e+01,9.103e+00,1.170e+01,1.132e+01,1.227e+01,1.295e+01,1.492e+01,1.528e+01,1.263e+01,1.326e+01,1.599e+01,1.555e+01,1.435e+01,1.516e+01,1.498e+01,1.274e+01,1.606e+01,1.446e+01,1.682e+01,1.785e+01,1.749e+01,1.639e+01,1.298e+01,1.638e+01,1.505e+01,1.464e+01,1.397e+01,1.550e+01,1.382e+01,1.781e+01,1.525e+01,1.503e+01
5.724e-02,2.087e-01,8.424e-01,1.459e+00,1.172e+00,2.041e-01,1.289e+00,9.489e-01,2.299e+00,1.813e+00,1.983e+00,1.929e+00,2.402e+00,2.764e+00,3.424e+00,3.831e+00,4.068e+00,3.368e+00,3.381e+00,4.523e+00,4.847e+00,4.059e+00,4.583e+00,4.407e+00,6.335e+00,5.546e+00,6.468e+00,6.423e+00,5.070e+00,6.819e+00,8.193e+00,7.568e+00,6.682e+00,7.709e+00,7.509e+00,8.206e+00,9.211e+00,7.895e+00,9.583e+00,9.185e+00,8.867e+00,7.741e+00,1.166e+01,1.030e+01,9.803e+00,1.059e+01,1.147e+01,1.103e+01,1.155e+01,1.202e+01,1.016e+01,1.176e+01,1.313e+01,1.363e+01,1.334e+01,1.385e+01,1.418e+01,1.240e+01,1.308e+01,1.578e+01,1.501e+01,1.339e+01,1.556e+01,1.650e+01,1.246e+01,1.433e+01,1.374e+01,1.558e+01,1.667e+01,1.643e+01,1.546e+01,1.542e+01,1.580e+01,1.391e+01,1.414e+01,1.450e+01,1.366e+01,1.426e+01,1.642e+01,1.428e+01,1.583e+01
1.300e-01,5.172e-01,9.156e-01,1.300e+00,1.101e+00,4.931e-01,1.302e+00,1.584e+00,2.727e+00,2.377e+00,3.063e+00,2.246e+00,2.993e+00,4.375e+00,4.932e+00,4.457e+00,5.008e+00,3.746e+00,5.097e+00,5.116e+00,6.246e+00,4.884e+00,5.891e+00,5.067e+00,8.494e+00,7.663e+00,7.104e+00,7.025e+00,6.192e+00,8.318e+00,8.852e+00,8.345e+00,7.022e+00,8.266e+00,7.734e+00,9.587e+00,9.025e+00,8.856e+00,1.030e+01,9.313e+00,9.330e+00,9.324e+00,1.052e+01,1.086e+01,1.056e+01,1.097e+01,1.153e+01,1.078e+01,1.190e+01,1.093e+01,9.509e+00,1.201e+01,1.236e+01,1.305e+01,1.283e+01,1.501e+01,1.448e+01,1.336e+01,1.353e+01,1.583e+01,1.530e+01,1.441e+01,1.529e+01,1.640e+01,1.327e+01,1.585e+01,1.426e+01,1.682e+01,1.720e+01,1.675e+01,1.612e+01,1.535e+01,1.721e+01,1.414e+01,1.546e+01,1.373e+01,1.450e+01,1.468e+01,1.650e+01,1.532e+01,1.491e+01
1.258e-01,3.578e-01,8.226e-01,1.685e+00,1.382e+00,7.335e-01,1.915e+00,1.281e+00,3.175e+00,2.565e+00,2.481e+00,2.451e+00,3.000e+00,3.808e+00,5.042e+00,4.366e+00,5.477e+00,4.137e+00,4.249e+00,5.425e+00,5.544e+00,5.187e+00,6.420e+00,5.382e+00,7.955e+00,7.012e+00,7.975e+00,7.663e+00,7.061e+00,8.332e+00,8.729e+00,8.732e+00,7.056e+00,9.142e+00,8.517e+00,9.064e+00,1.024e+01,9.955e+00,1.038e+01,1.073e+01,9.808e+00,9.391e+00,1.381e+01,1.168e+01,1.086e+01,1.301e+01,1.346e+01,1.302e+01,1.409e+01,1.242e+01,1.083e+01,1.414e+01,1.346e+01,1.366e+01,1.514e+01,1.571e+01,1.704e+01,1.354e+01,1.439e+01,1.689e+01,1.681e+01,1.514e+01,1.589e+01,1.934e+01,1.481e+01,1.801e+01,1.722e+01,1.865e+01,1.939e+01,2.060e+01,1.902e+01,1.837e+01,1.946e+01,1.607e+01,1.666e+01,1.758e+01,1.817e+01,1.766e+01,1.902e+01,1.633e+01,1.594e+01
1.728e-01,5.816e-01,1.209e+00,1.906e+00,1.730e+00,9.614e-01,2.016e+00,2.060e+00,3.104e+00,2.799e+00,2.570e+00,2.439e+00,3.313e+00,3.882e+00,5.138e+00,4.128e+00,5.236e+00,3.977e+00,4.862e+00,5.348e+00,6.742e+00,4.552e+00,6.423e+00,5.296e+00,7.536e+00,7.671e+00,7.495e+00,7.128e+00,7.546e+00,7.493e+00,9.600e+00,9.881e+00,7.443e+00,1.004e+01,8.393e+00,9.824e+00,1.080e+01,1.028e+01,1.089e+01,1.063e+01,1.057e+01,9.878e+00,1.339e+01,1.245e+01,1.164e+01,1.166e+01,1.256e+01,1.268e+01,1.385e+01,1.322e+01,1.154e+01,1.339e+01,1.361e+01,1.508e+01,1.430e+01,1.551e+01,1.649e+01,1.359e+01,1.520e+01,1.751e+01,1.898e+01,1.537e+01,1.724e+01,1.841e+01,1.370e+01,1.782e+01,1.617e+01,1.762e+01,1.998e+01,1.841e+01,1.849e+01,1.699e+01,1.907e+01,1.602e+01,1.562e+01,1.705e+01,1.652e+01,1.734e+01,2.036e+01,1.577e+01,1.701e+01
2.207e-01,7.698e-01,1.277e+00,1.921e+00,1.564e+00,6.619e-01,1.869e+00,1.842e+00,3.064e+00,2.672e+00,3.058e+00,2.289e+00,3.069e+00,4.277e+00,4.026e+00,4.213e+00,5.509e+00,3.627e+00,4.675e+00,4.671e+00,5.749e+00,3.791e+00,5.076e+00,4.504e+00,7.069e+00,6.275e+00,6.822e+00,5.739e+00,5.439e+00,7.788e+00,7.456e+00,7.457e+00,7.070e+00,7.994e+00,7.197e+00,8.578e+00,8.481e+00,7.851e+00,9.001e+00,9.569e+00,7.188e+00,8.317e+00,1.069e+01,9.549e+00,1.070e+01,1.126e+01,1.144e+01,1.061e+01,1.198e+01,1.134e+01,1.005e+01,1.199e+01,1.228e+01,1.253e+01,1.295e+01,1.226e+01,1.370e+01,1.256e+01,1.302e+01,1.431e+01,1.370e+01,1.298e+01,1.419e+01,1.476e+01,1.172e+01,1.474e+01,1.323e+01,1.660e+01,1.612e+01,1.588e+01,1.608e+01,1.429e+01,1.626e+01,1.439e+01,1.339e+01,1.529e+01,1.489e+01,1.512e+01,1.849e+01,1.351e+01,1.544e+01
4.520e-02,4.657e-01,7.995e-01,1.885e+00,1.526e+00,9.086e-01,1.817e+00,1.806e+00,3.221e+00,3.352e+00,2.824e+00,2.711e+00,3.419e+00,5.112e+00,5.517e+00,4.872e+00,6.092e+00,4.507e+00,5.915e+00,5.427e+00,6.957e+00,5.840e+00,7.113e+00,6.066e+00,9.556e+00,8.252e+00,8.076e+00,7.918e+00,7.483e+00,9.239e+00,9.682e+00,9.538e+00,8.513e+00,9.759e+00,9.308e+00,1.077e+01,1.150e+01,1.053e+01,1.188e+01,1.083e+01,1.126e+01,1.137e+01,1.363e+01,1.345e+01,1.281e+01,1.285e+01,1.366e+01,1.369e+01,1.498e+01,1.331e+01,1.142e+01,1.434e+01,1.528e+01,1.523e+01,1.548e+01,1.746e+01,1.756e+01,1.500e+01,1.685e+01,1.839e+01,1.849e+01,1.681e+01,1.698e+01,1.998e+01,1.578e+01,1.960e+01,1.720e+01,2.039e+01,2.079e+01,2.067e+01,2.076e+01,1.901e+01,2.013e+01,1.749e+01,1.704e+01,1.823e+01,1.851e+01,1.730e+01,2.178e+01,1.729e+01,1.822e+01
2.256e-01,4.840e-01,1.147e+00,1.827e+00,1.424e+00,4.284e-01,1.909e+00,1.521e+00,2.807e+00,2.105e+00,2.853e+00,2.162e+00,2.366e+00,3.425e+00,3.998e+00,3.614e+00,4.909e+00,3.781e+00,4.131e+00,4.975e+00,5.461e+00,5.033e+00,4.882e+00,3.673e+00,7.119e+00,6.509e+00,6.523e+00,5.859e+00,6.206e+00,6.945e+00,7.744e+00,8.087e+00,7.368e+00,7.970e+00,6.943e+00,7.806e+00,8.735e+00,7.494e+00,7.952e+00,9.191e+00,7.783e+00,8.369e+00,9.118e+00,8.978e+00,9.327e+00,9.330e+00,9.694e+00,1.044e+01,1.128e+01,1.087e+01,9.196e+00,1.100e+01,1.195e+01,1.129e+01,1.303e+01,1.421e+01,1.470e+01,1.212e+01,1.308e+01,1.436e+01,1.409e+01,1.407e+01,1.506e+01,1.485e+01,1.295e+01,1.600e+01,1.425e+01,1.707e+01,1.773e+01,1.669e+01,1.836e+01,1.500e+01,1.643e+01,1.514e+01,1.502e+01,1.753e+01,1.611e+01,1.511e+01,1.979e+01,1.475e+01,1.691e+01
2.044e-01,8.661e-01,1.194e+00,1.480e+00,1.534e+00,1.117e+00,1.804e+00,1.657e+00,2.367e+00,1.781e+00,1.863e+00,1.269e+00,1.889e+00,3.129e+00,4.013e+00,2.431e+00,3.314e+00,2.798e+00,3.659e+00,4.339e+00,5.521e+00,3.860e+00,5.476e+00,5.308e+00,5.216e+00,7.026e+00,7.266e+00,6.539e+00,6.311e+00,6.479e+00,9.774e+00,8.465e+00,6.281e+00,7.618e+00,8.566e+00,9.685e+00,9.460e+00,9.154e+00,1.018e+01,8.120e+00,1.027e+01,8.589e+00,1.238e+01,1.122e+01,1.037e+01,1.087e+01,1.144e+01,1.237e+01,1.211e+01,1.231e+01,1.040e+01,1.246e+01,1.351e+01,1.344e+01,1.301e+01,1.458e+01,1.481e+01,1.391e+01,1.447e+01,1.643e+01,1.621e+01,1.408e+01,1.563e+01,1.838e+01,1.394e+01,1.739e+01,1.512e+01,1.827e+01,2.021e+01,1.970e+01,1.937e+01,1.869e+01,1.940e+01,1.730e+01,1.731e+01,1.810e+01,1.871e+01,1.698e+01,2.018e+01,1.722e+01,1.826e+01
6.585e-02,3.883e-01,1.121e+00,1.712e+00,1.540e+00,5.404e-01,1.550e+00,1.387e+00,2.684e+00,2.364e+00,2.065e+00,2.099e+00,2.584e+00,3.176e+00,3.829e+00,3.887e+00,3.657e+00,2.958e+00,3.351e+00,4.484e+00,4.642e+00,4.076e+00,5.503e+00,4.831e+00,6.620e+00,6.362e+00,7.055e+00,6.652e+00,5.662e+00,7.257e+00,8.836e+00,8.370e+00,7.619e+00,8.482e+00,8.785e+00,9.277e+00,8.915e+00,9.036e+00,1.159e+01,9.146e+00,1.034e+01,8.626e+00,1.241e+01,1.083e+01,1.108e+01,1.144e+01,1.206e+01,1.270e+01,1.346e+01,1.212e+01,1.012e+01,1.299e+01,1.408e+01,1.411e+01,1.382e+01,1.441e+01,1.629e+01,1.355e+01,1.447e+01,1.722e+01,1.634e+01,1.437e+01,1.709e+01,1.699e+01,1.407e+01,1.772e+01,1.513e+01,1.813e+01,1.897e+01,1.933e+01,1.922e+01,1.731e+01,1.891e+01,1.744e+01,1.883e+01,1.779e+01,1.839e+01,1.805e+01,2.033e+01,1.768e+01,1.904e+01
2.901e-02,2.587e-01,4.955e-01,1.440e+00,1.004e+00,3.982e-01,1.318e+00,1.077e+00,2.783e+00,2.398e+00,1.999e+00,2.491e+00,2.448e+00,3.815e+00,4.548e+00,4.027e+00,4.718e+00,3.340e+00,4.206e+00,5.716e+00,5.712e+00,4.889e+00,6.289e+00,5.031e+00,8.003e+00,6.719e+00,7.597e+00,7.091e+00,6.821e+00,8.241e+00,9.488e+00,8.526e+00,8.026e+00,9.470e+00,8.662e+00,1.019e+01,8.941e+00,9.008e+00,1.074e+01,9.392e+00,9.947e+00,8.803e+00,1.175e+01,1.141e+01,1.054e+01,1.249e+01,1.156e+01,1.095e+01,1.378e+01,1.209e+01,1.016e+01,1.389e+01,1.304e+01,1.270e+01,1.326e+01,1.403e+01,1.697e+01,1.305e+01,1.465e+01,1.609e+01,1.548e+01,1.424e+01,1.636e+01,1.766e+01,1.411e+01,1.693e+01,1.518e+01,1.762e+01,2.128e+01,1.925e+01,2.063e+01,1.800e+01,2.132e+01,1.894e+01,1.939e+01,1.869e+01,1.953e+01,1.862e+01,2.019e+01,1.666e+01,1.864e+01
1.226e-01,2.587e-01,8.212e-01,1.071e+00,1.146e+00,7.690e-01,1.577e+00,1.421e+00,2.081e+00,1.870e+00,1.778e+00,1.569e+00,2.272e+00,3.417e+00,3.939e+00,3.561e+00,3.803e+00,3.229e+00,3.679e+00,4.298e+00,5.422e+00,4.967e+00,4.848e+00,4.958e+00,6.504e+00,6.766e+00,7.037e+00,6.796e+00,5.565e+00,6.864e+00,8.583e+00,8.992e+00,6.698e+00,7.706e+00,8.992e+00,7.812e+00,9.015e+00,8.788e+00,9.933e+00,8.926e+00,9.141e+00,7.835e+00,1.100e+01,9.807e+00,1.013e+01,1.003e+01,1.039e+01,1.161e+01,1.243e+01,1.055e+01,8.826e+00,1.210e+01,1.294e+01,1.210e+01,1.314e+01,1.404e+01,1.293e+01,1.285e+01,1.335e+01,1.604e+01,1.586e+01,1.458e+01,1.516e+01,1.632e+01,1.433e+01,1.636e+01,1.493e+01,1.741e+01,1.822e+01,1.853e+01,1.726e+01,1.555e+01,1.838e+01,1.646e+01,1.708e+01,1.649e+01,1.773e+01,1.726e+01,1.972e+01,1.733e+01,1.728e+01
2.147e-01,6.217e-01,1.500e+00,2.497e+00,1.954e+00,5.343e-01,1.977e+00,1.989e+00,2.614e+00,2.665e+00,2.297e+00,2.002e+00,2.783e+00,3.800e+00,3.725e+00,3.380e+00,4.538e+00,3.649e+00,3.891e+00,4.444e+00,5.384e+00,4.215e+00,5.342e+00,3.847e+00,6.082e+00,5.513e+00,6.582e+00,4.884e+00,5.442e+00,6.534e+00,6.766e+00,7.523e+00,7.294e+00,8.200e+00,6.893e+00,7.849e+00,9.506e+00,8.036e+00,9.249e+00,8.832e+00,8.323e+00,8.374e+00,9.972e+00,8.895e+00,1.001e+01,1.088e+01,1.127e+01,1.035e+01,1.167e+01,1.079e+01,9.249e+00,1.206e+01,1.115e+01,1.136e+01,1.259e+01,1.380e+01,1.423e+01,1.241e+01,1.294e+01,1.387e+01,1.352e+01,1.235e+01,1.317e+01,1.525e+01,1.315e+01,1.490e+01,1.411e+01,1.636e+01,1.776e+01,1.733e+01,1.676e+01,1.548e+01,1.704e+01,1.599e+01,1.610e+01,1.585e+01,1.554e+01,1.650e+01,1.967e+01,1.461e+01,1.715e+01
3.202e-03,1.632e-01,6.107e-01,1.173e+00,1.040e+00,5.148e-01,1.340e+00,1.326e+00,2.655e+00,2.241e+00,2.241e+00,2.171e+00,2.623e+00,3.602e+00,4.103e+00,4.274e+00,4.900e+00,3.331e+00,4.477e+00,4.503e+00,4.947e+00,3.703e+00,4.642e+00,4.355e+00,6.993e+00,6.200e+00,6.977e+00,6.264e+00,5.505e+00,7.154e+00,7.318e+00,7.128e+00,6.927e+00,7.062e+00,7.655e+00,7.653e+00,8.666e+00,7.517e+00,9.215e+00,9.031e+00,7.902e+00,8.234e+00,1.077e+01,9.845e+00,1.025e+01,1.029e+01,1.123e+01,1.041e+01,1.119e+01,1.130e+01,9.752e+00,1.228e+01,1.233e+01,1.267e+01,1.284e+01,1.396e+01,1.465e+01,1.205e+01,1.349e+01,1.576e+01,1.545e+01,1.383e+01,1.576e+01,1.593e+01,1.351e+01,1.653e+01,1.481e+01,1.790e+01,1.798e+01,1.862e+01,1.870e+01,1.693e+01,1.990e+01,1.773e+01,1.698e+01,1.821e+01,1.857e+01,1.869e+01,2.266e+01,1.666e+01,1.976e+01
3.044e-01,8.289e-01,1.253e+00,1.876e+00,1.497e+00,6.874e-01,1.902e+00,1.586e+00,2.503e+00,2.262e+00,2.841e+00,2.108e+00,3.244e+00,4.695e+00,5.375e+00,4.669e+00,4.755e+00,4.227e+00,5.278e+00,5.660e+00,6.967e+00,5.850e+00,6.410e+00,6.050e+00,7.887e+00,7.343e+00,8.743e+00,6.943e+00,6.900e+00,8.238e+00,1.034e+01,9.050e+00,8.620e+00,9.893e+00,9.659e+00,9.222e+00,9.994e+00,1.005e+01,1.175e+01,1.036e+01,1.006e+01,9.509e+00,1.290e+01,1.100e+01,1.110e+01,1.297e+01,1.261e+01,1.291e+01,1.336e+01,1.232e+01,1.030e+01,1.476e+01,1.542e+01,1.400e+01,1.409e+01,1.656e+01,1.600e+01,1.514e+01,1.427e+01,1.795e+01,1.578e+01,1.659e+01,1.720e+01,1.814e+01,1.648e+01,1.827e+01,1.496e+01,2.011e+01,2.148e+01,2.109e+01,2.062e+01,1.854e+01,2.092e+01,1.928e+01,2.027e+01,1.952e+01,1.946e+01,2.028e+01,2.285e+01,1.964e+01,2.054e+01
1.880e-01,7.550e-01,1.443e+00,2.231e+00,2.043e+00,1.077e+00,2.258e+00,1.864e+00,3.420e+00,2.970e+00,2.496e+00,2.521e+00,2.428e+00,3.552e+00,5.176e+00,3.428e+00,4.048e+00,3.937e+00,3.100e+00,4.698e+00,4.789e+00,4.671e+00,6.547e+00,4.982e+00,6.282e+00,6.262e+00,6.497e+00,5.886e+00,6.332e+00,6.667e+00,8.852e+00,7.693e+00,5.757e+00,8.147e+00,6.922e+00,7.614e+00,8.345e+00,8.339e+00,8.762e+00,8.612e+00,9.438e+00,8.755e+00,1.146e+01,1.018e+01,9.268e+00,1.084e+01,1.023e+01,1.121e+01,1.214e+01,1.062e+01,8.017e+00,1.101e+01,1.210e+01,1.289e+01,1.273e+01,1.309e+01,1.455e+01,1.266e+01,1.219e+01,1.441e+01,1.536e+01,1.304e+01,1.426e+01,1.596e+01,1.257e+01,1.520e+01,1.392e+01,1.716e+01,1.904e+01,1.790e+01,1.876e+01,1.658e+01,1.931e+01,1.693e+01,1.730e+01,1.721e+01,1.806e+01,1.711e+01,1.934e+01,1.735e+01,1.822e+01
3.157e-01,1.017e+00,1.728e+00,2.389e+00,1.991e+00,7.553e-01,2.095e+00,2.134e+00,3.345e+00,2.993e+00,3.146e+00,2.520e+00,3.543e+00,4.248e+00,4.563e+00,4.375e+00,4.903e+00,4.263e+00,4.482e+00,4.883e+00,6.361e+00,4.074e+00,5.976e+00,4.691e+00,6.890e+00,7.160e+00,7.480e+00,6.613e+00,5.933e+00,7.766e+00,8.470e+00,8.204e+00,7.428e+00,9.035e+00,8.129e+00,9.657e+00,1.000e+01,9.129e+00,1.104e+01,9.687e+00,9.569e+00,9.654e+00,1.223e+01,1.087e+01,1.090e+01,1.251e+01,1.274e+01,1.261e+01,1.326e+01,1.226e+01,1.046e+01,1.225e+01,1.232e+01,1.396e+01,1.328e+01,1.408e+01,1.585e+01,1.383e+01,1.427e+01,1.619e+01,1.600e+01,1.452e+01,1.498e+01,1.867e+01,1.550e+01,1.754e+01,1.602e+01,1.820e+01,1.984e+01,1.972e+01,1.938e+01,1.826e+01,2.187e+01,1.819e+01,2.011e+01,1.913e+01,1.938e+01,2.013e+01,2.229e+01,1.913e+01,1.915e+01
1.511e-01,6.151e-01,1.273e+00,1.438e+00,1.588e+00,1.037e+00,1.843e+00,2.096e+00,3.659e+00,2.941e+00,3.108e+00,2.620e+00,3.235e+00,4.088e+00,5.561e+00,4.653e+00,5.406e+00,4.457e+00,5.225e+00,4.786e+00,5.585e+00,4.710e+00,6.540e+00,5.372e+00,7.690e+00,7.171e+00,7.867e+00,7.494e+00,6.685e+00,8.966e+00,8.990e+00,8.816e+00,7.834e+00,9.641e+00,8.896e+00,9.000e+00,9.569e+00,9.547e+00,1.038e+01,9.775e+00,9.385e+00,8.817e+00,1.301e+01,1.133e+01,1.160e+01,1.237e+01,1.258e+01,1.348e+01,1.369e+01,1.273e+01,1.080e+01,1.351e+01,1.338e+01,1.365e+01,1.389e+01,1.515e+01,1.601e+01,1.503e+01,1.391e+01,1.686e+01,1.599e+01,1.502e+01,1.706e+01,1.839e+01,1.568e+01,1.709e+01,1.569e+01,1.928e+01,1.943e+01,1.956e+01,1.797e+01,1.702e+01,1.934e+01,1.746e+01,1.956e+01,1.767e+01,2.021e+01,1.899e+01,2.308e+01,1.994e+01,1.937e+01
9.561e-02,5.395e-01,7.074e-01,8.539e-01,8.735e-01,6.141e-01,9.425e-01,1.334e+00,1.789e+00,1.534e+00,2.191e+00,1.461e+00,2.656e+00,3.186e+00,4.224e+00,3.581e+00,3.865e+00,2.601e+00,4.889e+00,4.831e+00,6.095e+00,4.765e+00,5.641e+00,5.354e+00,6.841e+00,6.776e+00,7.233e+00,6.826e+00,6.208e+00,7.817e+00,7.955e+00,7.440e+00,6.106e+00,8.145e+00,8.315e+00,8.577e+00,8.667e+00,7.922e+00,9.788e+00,8.212e+00,8.527e+00,8.224e+00,1.192e+01,1.035e+01,1.061e+01,1.106e+01,1.034e+01,1.166e+01,1.219e+01,1.145e+01,1.064e+01,1.379e+01,1.363e+01,1.284e+01,1.379e+01,1.434e+01,1.467e+01,1.396e+01,1.314e+01,1.544e+01,1.436e+01,1.440e+01,1.597e+01,1.655e+01,1.398e+01,1.493e+01,1.444e+01,1.815e+01,2.012e+01,1.818e+01,1.755e+01,1.623e+01,1.881e+01,1.785e+01,1.744e+01,1.834e+01,1.840e+01,1.794e+01,2.007e+01,1.870e+01,1.928e+01
1.141e-01,2.542e-01,7.514e-01,1.085e+00,9.235e-01,2.518e-01,1.247e+00,1.174e+00,1.854e+00,1.227e+00,2.158e+00,1.745e+00,2.964e+00,3.723e+00,4.807e+00,4.495e+00,4.174e+00,3.232e+00,4.061e+00,4.837e+00,5.609e+00,4.607e+00,4.925e+00,5.205e+00,7.140e+00,7.044e+00,8.124e+00,6.416e+00,6.366e+00,7.702e+00,8.584e+00,8.677e+00,8.175e+00,9.357e+00,9.469e+00,8.942e+00,8.988e+00,7.951e+00,1.124e+01,8.521e+00,9.032e+00,8.441e+00,1.152e+01,9.598e+00,9.711e+00,9.426e+00,1.137e+01,1.105e+01,1.168e+01,1.169e+01,9.232e+00,1.268e+01,1.203e+01,1.239e+01,1.237e+01,1.402e+01,1.388e+01,1.225e+01,1.298e+01,1.488e+01,1.428e+01,1.361e+01,1.547e+01,1.535e+01,1.502e+01,1.542e+01,1.444e+01,1.777e+01,1.890e+01,1.824e+01,1.770e+01,1.655e+01,1.934e+01,1.853e+01,1.868e+01,1.934e+01,1.823e+01,1.832e+01,2.178e+01,1.830e+01,2.069e+01
