1.387e-01,4.170e-01,3.516e-02,5.487e-01,8.952e-01,5.723e-01,4.768e-01,9.029e-01,4.408e-01,4.409e-01,1.900e-01,8.826e-01,9.314e-01,3.589e-01,6.937e-01,9.077e-02,6.506e-01,3.547e-01,5.654e-02,8.486e-02,7.793e-01,8.761e-01,1.738e-01,6.302e-01,5.580e-01,3.962e-01,1.380e-01,8.073e-01,4.115e-01,8.942e-01,7.658e-01,6.002e-01,6.830e-01,9.151e-01,6.352e-01,8.602e-01,3.227e-01,2.828e-01,6.478e-01,5.322e-02,5.093e-01,9.586e-01,7.891e-02,6.119e-01,5.656e-01,6.461e-01,6.426e-01,3.117e-01,6.548e-01,7.078e-01,9.820e-01,9.753e-01,2.979e-01,2.416e-01,4.014e-01,4.274e-01,2.119e-01,3.675e-01,1.758e-01,1.601e-02,1.061e-01,1.590e-01,1.757e-01,5.961e-01,5.541e-01,1.068e-01,4.006e-01,3.964e-01,3.246e-01,5.147e-01,5.565e-01,7.981e-01,2.896e-01,8.818e-02,1.257e-01
6.689e-02,7.749e-01,6.206e-01,6.045e-01,1.421e+00,1.258e+00,7.960e-01,8.318e-01,6.653e-01,9.924e-01,1.185e-01,8.975e-01,7.859e-01,3.129e-01,6.436e-01,9.546e-01,3.577e-01,1.904e-01,4.510e-01,1.734e-01,1.225e+00,1.155e+00,8.110e-01,5.816e-01,7.327e-01,7.332e-01,5.199e-01,1.203e+00,2.570e-01,6.265e-01,8.701e-01,7.126e-01,5.875e-01,5.815e-01,1.253e+00,1.345e+00,8.544e-01,4.619e-01,6.518e-01,1.022e+00,3.699e-01,1.354e+00,6.774e-01,3.512e-01,6.788e-01,1.172e+00,1.139e+00,5.030e-01,1.148e+00,1.262e+00,1.347e+00,5.580e-01,9.040e-01,3.762e-01,7.098e-01,7.651e-01,4.333e-01,3.038e-01,1.820e-01,7.932e-01,3.478e-01,9.549e-01,1.841e-01,9.490e-01,5.324e-01,9.143e-01,2.888e-01,9.660e-01,6.891e-01,9.615e-01,4.514e-01,9.352e-01,4.235e-01,1.029e+00,2.289e-01
1.367e-01,5.832e-01,6.903e-01,9.725e-01,1.421e+00,1.412e+00,7.146e-01,1.359e+00,5.727e-01,1.078e+00,1.136e+00,1.993e+00,1.638e+00,7.001e-01,1.364e+00,5.623e-01,1.147e+00,1.099e+00,1.090e+00,3.038e-01,1.213e+00,1.436e+00,4.083e-01,1.670e+00,7.146e-01,1.277e+00,8.252e-01,1.721e+00,8.738e-01,1.163e+00,1.555e+00,1.614e+00,9.745e-01,1.658e+00,1.569e+00,1.382e+00,1.285e+00,7.863e-01,1.396e+00,6.553e-01,1.000e+00,2.206e+00,1.109e+00,1.138e+00,1.113e+00,1.226e+00,1.788e+00,1.323e+00,1.085e+00,1.354e+00,1.320e+00,1.761e+00,6.289e-01,4.062e-01,7.253e-01,9.091e-01,1.006e+00,1.269e+00,9.400e-01,1.123e+00,7.054e-01,5.576e-01,6.779e-01,1.690e+00,1.388e+00,1.326e+00,7.563e-01,1.386e+00,1.196e+00,9.490e-01,1.080e+00,1.642e+00,4.452e-01,8.043e-01,9.186e-01
8.598e-02,4.850e-01,6.321e-01,1.089e+00,1.828e+00,1.982e+00,7.699e-01,1.115e+00,1.168e+00,1.785e+00,1.156e+00,2.316e+00,1.325e+00,8.625e-01,1.884e+00,1.223e+00,1.721e+00,9.560e-01,1.129e+00,9.098e-01,1.760e+00,1.608e+00,4.855e-01,1.605e+00,1.274e+00,1.263e+00,1.637e+00,1.738e+00,9.022e-01,1.641e+00,1.935e+00,2.013e+00,1.542e+00,1.423e+00,2.127e+00,1.510e+00,1.356e+00,1.261e+00,1.188e+00,1.461e+00,1.596e+00,2.625e+00,1.360e+00,1.007e+00,1.350e+00,1.771e+00,1.897e+00,1.435e+00,1.230e+00,1.231e+00,1.782e+00,1.599e+00,1.232e+00,1.036e+00,8.991e-01,1.179e+00,1.357e+00,1.477e+00,1.081e+00,1.912e+00,1.052e+00,1.551e+00,6.177e-01,1.886e+00,1.863e+00,1.930e+00,1.505e+00,1.400e+00,1.396e+00,1.763e+00,1.324e+00,1.449e+00,1.042e+00,1.666e+00,1.413e+00
3.136e-02,2.775e-01,6.041e-01,6.344e-01,1.808e+00,1.670e+00,1.064e+00,8.028e-01,4.990e-01,1.518e+00,1.607e+00,1.858e+00,1.750e+00,8.068e-01,1.338e+00,1.667e+00,1.514e+00,1.026e+00,1.234e+00,8.090e-01,1.725e+00,1.337e+00,9.729e-01,1.756e+00,1.172e+00,1.421e+00,1.135e+00,1.431e+00,7.253e-01,1.262e+00,1.572e+00,2.094e+00,1.701e+00,1.468e+00,1.667e+00,9.972e-01,1.157e+00,9.094e-01,1.615e+00,1.567e+00,1.473e+00,1.691e+00,1.851e+00,1.413e+00,8.837e-01,1.610e+00,2.076e+00,1.476e+00,1.578e+00,1.008e+00,1.028e+00,1.337e+00,6.652e-01,9.663e-01,8.256e-01,1.679e+00,1.044e+00,2.018e+00,1.039e+00,1.686e+00,9.321e-01,8.355e-01,1.080e+00,1.750e+00,1.745e+00,2.064e+00,1.682e+00,1.833e+00,1.100e+00,8.909e-01,1.741e+00,1.784e+00,1.373e+00,1.342e+00,1.494e+00
1.231e-01,4.780e-01,3.333e-01,8.565e-01,1.444e+00,1.497e+00,1.308e+00,1.966e+00,1.427e+00,1.545e+00,9.303e-01,2.602e+00,1.710e+00,1.429e+00,1.411e+00,8.942e-01,1.250e+00,8.769e-01,1.144e+00,1.314e+00,2.153e+00,2.182e+00,8.882e-01,1.537e+00,1.636e+00,1.657e+00,1.466e+00,1.586e+00,1.604e+00,1.531e+00,2.192e+00,2.132e+00,1.920e+00,1.833e+00,1.446e+00,2.118e+00,1.511e+00,1.751e+00,1.489e+00,1.639e+00,1.318e+00,2.033e+00,1.288e+00,1.862e+00,1.047e+00,1.779e+00,2.233e+00,1.125e+00,1.852e+00,1.734e+00,1.663e+00,2.321e+00,1.464e+00,1.637e+00,8.658e-01,1.727e+00,1.116e+00,1.694e+00,9.092e-01,1.569e+00,1.170e+00,1.043e+00,1.178e+00,2.056e+00,1.741e+00,1.498e+00,1.465e+00,1.851e+00,1.427e+00,1.974e+00,1.232e+00,1.677e+00,9.286e-01,1.728e+00,1.236e+00
1.217e-01,7.646e-01,6.109e-01,1.173e+00,2.938e+00,2.600e+00,1.911e+00,2.435e+00,2.173e+00,3.309e+00,1.775e+00,3.312e+00,2.542e+00,2.130e+00,2.171e+00,2.427e+00,2.898e+00,1.061e+00,1.612e+00,1.806e+00,3.861e+00,3.087e+00,2.221e+00,2.326e+00,2.723e+00,1.883e+00,1.969e+00,3.085e+00,1.576e+00,2.339e+00,2.812e+00,2.930e+00,3.562e+00,2.968e+00,3.429e+00,2.552e+00,2.058e+00,1.792e+00,2.664e+00,2.998e+00,2.304e+00,3.630e+00,2.780e+00,2.266e+00,2.355e+00,3.071e+00,3.269e+00,1.994e+00,2.927e+00,2.416e+00,2.941e+00,2.560e+00,2.653e+00,2.577e+00,1.700e+00,3.206e+00,2.287e+00,3.018e+00,1.157e+00,2.286e+00,2.139e+00,2.447e+00,1.864e+00,3.319e+00,2.861e+00,2.743e+00,2.723e+00,2.301e+00,2.237e+00,2.305e+00,2.547e+00,2.481e+00,2.122e+00,2.581e+00,1.869e+00
2.529e-02,2.220e-01,4.356e-01,5.443e-01,1.702e+00,1.595e+00,1.376e+00,2.327e+00,1.698e+00,3.114e+00,2.565e+00,2.590e+00,2.077e+00,2.489e+00,1.661e+00,2.687e+00,2.079e+00,1.856e+00,2.134e+00,1.611e+00,2.826e+00,2.587e+00,2.425e+00,2.658e+00,1.965e+00,2.473e+00,1.889e+00,2.749e+00,1.575e+00,1.423e+00,2.065e+00,2.558e+00,3.235e+00,2.782e+00,2.806e+00,1.698e+00,2.373e+00,1.578e+00,2.883e+00,3.148e+00,1.685e+00,2.306e+00,3.258e+00,2.134e+00,1.659e+00,2.411e+00,2.493e+00,2.402e+00,2.162e+00,2.016e+00,1.618e+00,1.944e+00,2.331e+00,2.013e+00,1.537e+00,3.295e+00,2.125e+00,3.232e+00,1.601e+00,1.900e+00,2.481e+00,1.987e+00,2.008e+00,2.499e+00,2.925e+00,3.053e+00,2.432e+00,2.486e+00,2.159e+00,1.718e+00,2.707e+00,1.939e+00,2.244e+00,2.110e+00,2.115e+00
5.012e-02,3.572e-01,6.648e-01,9.718e-01,2.091e+00,2.312e+00,1.643e+00,2.718e+00,2.874e+00,3.668e+00,3.166e+00,4.110e+00,2.825e+00,2.975e+00,2.397e+00,2.955e+00,3.193e+00,2.679e+00,3.471e+00,2.386e+00,3.515e+00,4.143e+00,2.618e+00,3.429e+00,2.669e+00,3.301e+00,3.285e+00,3.062e+00,2.451e+00,2.852e+00,3.148e+00,3.786e+00,3.853e+00,3.489e+00,3.984e+00,2.711e+00,3.584e+00,2.857e+00,3.385e+00,3.887e+00,2.558e+00,3.641e+00,3.911e+00,2.581e+00,2.265e+00,3.533e+00,3.537e+00,3.553e+00,2.559e+00,3.078e+00,2.134e+00,2.852e+00,3.071e+00,2.806e+00,2.592e+00,3.576e+00,3.157e+00,3.507e+00,3.051e+00,3.021e+00,3.391e+00,2.548e+00,2.591e+00,3.409e+00,4.444e+00,3.821e+00,3.114e+00,3.899e+00,2.842e+00,3.605e+00,3.766e+00,2.814e+00,2.400e+00,3.535e+00,2.959e+00
6.982e-02,6.347e-01,5.583e-01,9.419e-01,2.494e+00,2.334e+00,1.676e+00,2.461e+00,2.297e+00,3.545e+00,2.756e+00,3.415e+00,3.029e+00,2.677e+00,3.122e+00,4.073e+00,2.708e+00,2.399e+00,2.630e+00,2.579e+00,4.003e+00,3.698e+00,2.654e+00,3.500e+00,2.593e+00,3.066e+00,2.616e+00,3.447e+00,1.779e+00,2.697e+00,3.184e+00,2.850e+00,3.817e+00,2.894e+00,3.953e+00,2.952e+00,3.273e+00,2.250e+00,3.328e+00,3.733e+00,2.781e+00,3.381e+00,3.981e+00,2.003e+00,2.102e+00,3.303e+00,2.825e+00,2.663e+00,3.324e+00,2.602e+00,3.286e+00,2.435e+00,2.999e+00,2.593e+00,2.601e+00,4.257e+00,2.805e+00,3.752e+00,2.419e+00,2.434e+00,2.554e+00,3.513e+00,1.670e+00,2.659e+00,3.925e+00,4.223e+00,3.066e+00,3.288e+00,3.180e+00,3.178e+00,2.848e+00,3.019e+00,2.615e+00,2.814e+00,2.325e+00
5.808e-02,2.256e-01,1.142e-01,3.420e-01,1.028e+00,7.733e-01,7.685e-01,1.279e+00,1.182e+00,1.618e+00,2.128e+00,2.082e+00,3.090e+00,2.501e+00,2.054e+00,2.577e+00,2.050e+00,2.377e+00,2.001e+00,2.386e+00,2.978e+00,3.018e+00,2.395e+00,3.033e+00,1.424e+00,2.690e+00,1.944e+00,2.708e+00,1.820e+00,2.858e+00,2.417e+00,2.258e+00,2.908e+00,2.514e+00,2.529e+00,1.608e+00,2.833e+00,1.253e+00,2.569e+00,2.351e+00,2.765e+00,2.059e+00,3.131e+00,1.310e+00,1.806e+00,1.912e+00,2.031e+00,2.213e+00,2.453e+00,1.968e+00,2.180e+00,1.991e+00,1.493e+00,2.383e+00,1.997e+00,3.489e+00,2.449e+00,2.506e+00,2.372e+00,8.566e-01,1.761e+00,2.321e+00,1.528e+00,1.504e+00,2.913e+00,2.332e+00,2.636e+00,2.947e+00,2.606e+00,2.501e+00,2.244e+00,2.435e+00,1.499e+00,1.917e+00,1.321e+00
1.054e-01,4.600e-01,5.210e-01,9.498e-01,1.941e+00,1.926e+00,1.601e+00,2.610e+00,2.586e+00,2.991e+00,2.429e+00,4.435e+00,3.746e+00,3.599e+00,2.017e+00,2.234e+00,4.212e+00,2.551e+00,3.004e+00,2.886e+00,4.019e+00,3.956e+00,2.635e+00,3.025e+00,3.345e+00,2.695e+00,2.861e+00,3.025e+00,2.855e+00,3.390e+00,3.189e+00,3.849e+00,3.844e+00,4.478e+00,3.801e+00,2.932e+00,3.837e+00,3.211e+00,3.407e+00,3.220e+00,3.102e+00,3.941e+00,3.304e+00,3.297e+00,3.466e+00,3.674e+00,4.461e+00,3.648e+00,2.985e+00,3.374e+00,3.019e+00,3.476e+00,3.158e+00,3.110e+00,3.099e+00,4.025e+00,3.466e+00,4.031e+00,2.998e+00,2.918e+00,3.552e+00,2.163e+00,2.578e+00,3.917e+00,4.571e+00,3.056e+00,2.817e+00,3.631e+00,3.065e+00,3.747e+00,3.289e+00,3.451e+00,1.760e+00,3.139e+00,2.997e+00
2.101e-02,6.300e-01,1.052e+00,8.201e-01,2.249e+00,2.363e+00,1.930e+00,2.703e+00,2.097e+00,3.433e+00,3.372e+00,3.888e+00,4.058e+00,3.198e+00,3.152e+00,4.932e+00,2.745e+00,3.812e+00,4.118e+00,2.964e+00,4.784e+00,4.567e+00,3.816e+00,4.105e+00,3.330e+00,4.401e+00,3.519e+00,3.916e+00,3.141e+00,2.972e+00,3.353e+00,4.065e+00,4.367e+00,3.883e+00,4.115e+00,3.346e+00,4.820e+00,3.446e+00,4.671e+00,4.510e+00,3.442e+00,3.980e+00,4.727e+00,3.232e+00,2.330e+00,3.585e+00,4.740e+00,3.841e+00,3.787e+00,3.314e+00,2.992e+00,3.248e+00,3.485e+00,3.399e+00,2.925e+00,5.131e+00,3.125e+00,5.198e+00,3.818e+00,3.968e+00,3.262e+00,3.915e+00,2.621e+00,3.814e+00,5.022e+00,5.724e+00,3.053e+00,5.017e+00,4.015e+00,3.653e+00,3.444e+00,3.841e+00,2.967e+00,3.338e+00,3.708e+00
4.167e-02,4.852e-01,5.962e-01,8.509e-01,1.780e+00,1.966e+00,1.381e+00,2.555e+00,2.451e+00,3.350e+00,2.177e+00,3.439e+00,3.133e+00,4.052e+00,2.731e+00,3.513e+00,3.684e+00,3.564e+00,3.096e+00,3.319e+00,5.651e+00,4.902e+00,4.323e+00,3.157e+00,4.233e+00,4.113e+00,4.423e+00,4.883e+00,3.749e+00,4.096e+00,4.138e+00,4.458e+00,4.756e+00,3.939e+00,4.491e+00,3.542e+00,4.583e+00,3.255e+00,4.102e+00,5.242e+00,3.686e+00,4.533e+00,4.324e+00,2.820e+00,3.898e+00,3.784e+00,5.164e+00,3.451e+00,3.239e+00,3.294e+00,3.958e+00,3.863e+00,4.512e+00,4.681e+00,2.193e+00,5.031e+00,3.280e+00,4.555e+00,3.176e+00,3.957e+00,4.230e+00,4.857e+00,2.790e+00,4.508e+00,5.074e+00,4.682e+00,4.196e+00,4.378e+00,3.987e+00,4.470e+00,3.148e+00,2.754e+00,3.292e+00,4.057e+00,3.527e+00
1.226e-01,6.111e-01,4.887e-01,8.994e-01,1.620e+00,1.492e+00,9.802e-01,1.893e+00,2.042e+00,2.232e+00,1.775e+00,2.935e+00,2.666e+00,2.080e+00,2.885e+00,2.471e+00,4.271e+00,2.532e+00,2.480e+00,1.804e+00,4.171e+00,4.618e+00,3.156e+00,2.512e+00,2.496e+00,2.185e+00,2.547e+00,3.729e+00,2.380e+00,3.196e+00,3.218e+00,3.337e+00,2.882e+00,3.671e+00,4.308e+00,3.328e+00,2.870e+00,2.451e+00,3.618e+00,2.584e+00,2.933e+00,3.987e+00,3.072e+00,1.904e+00,3.111e+00,3.466e+00,3.297e+00,3.119e+00,2.438e+00,2.900e+00,3.744e+00,3.468e+00,3.255e+00,2.953e+00,2.530e+00,3.453e+00,3.547e+00,3.099e+00,2.986e+00,2.841e+00,3.603e+00,2.768e+00,2.398e+00,3.635e+00,4.458e+00,3.420e+00,2.555e+00,3.042e+00,2.874e+00,3.225e+00,2.815e+00,2.767e+00,1.461e+00,2.878e+00,2.287e+00
1.232e-01,4.781e-01,6.148e-01,1.208e+00,2.376e+00,2.341e+00,1.461e+00,2.065e+00,1.891e+00,2.710e+00,2.836e+00,4.439e+00,4.351e+00,3.505e+00,4.191e+00,4.652e+00,6.219e+00,4.392e+00,3.942e+00,4.361e+00,6.255e+00,5.725e+00,4.236e+00,4.574e+00,4.252e+00,4.684e+00,4.570e+00,5.552e+00,4.345e+00,5.284e+00,5.367e+00,6.049e+00,4.880e+00,4.923e+00,5.044e+00,5.124e+00,4.514e+00,4.584e+00,4.571e+00,4.507e+00,5.296e+00,5.098e+00,4.922e+00,3.981e+00,4.934e+00,5.121e+00,5.238e+00,4.569e+00,4.688e+00,3.502e+00,5.400e+00,5.072e+00,3.883e+00,4.360e+00,3.764e+00,5.794e+00,5.044e+00,5.390e+00,4.326e+00,4.902e+00,5.265e+00,4.692e+00,3.597e+00,5.485e+00,6.584e+00,5.188e+00,4.938e+00,4.982e+00,4.805e+00,4.689e+00,4.100e+00,4.696e+00,3.373e+00,4.002e+00,4.590e+00
1.026e-01,6.374e-01,6.440e-01,1.011e+00,2.372e+00,2.230e+00,1.816e+00,2.543e+00,2.019e+00,2.977e+00,2.042e+00,3.839e+00,4.033e+00,3.863e+00,2.728e+00,4.084e+00,4.576e+00,4.121e+00,4.182e+00,4.403e+00,6.669e+00,5.262e+00,5.070e+00,4.309e+00,4.607e+00,4.854e+00,4.607e+00,5.069e+00,4.478e+00,4.569e+00,4.310e+00,5.576e+00,5.422e+00,5.092e+00,4.626e+00,5.038e+00,5.242e+00,4.147e+00,4.365e+00,5.012e+00,5.322e+00,5.015e+00,4.307e+00,4.550e+00,4.811e+00,5.049e+00,6.288e+00,3.969e+00,5.415e+00,3.709e+00,5.142e+00,4.408e+00,4.084e+00,5.203e+00,3.519e+00,6.238e+00,4.445e+00,4.824e+00,3.136e+00,4.502e+00,4.600e+00,4.607e+00,3.425e+00,5.820e+00,5.649e+00,4.180e+00,4.741e+00,5.274e+00,4.753e+00,4.724e+00,4.289e+00,4.356e+00,3.660e+00,3.922e+00,4.075e+00
7.389e-02,4.037e-01,2.209e-01,5.198e-01,1.162e+00,1.071e+00,1.072e+00,1.971e+00,1.631e+00,2.060e+00,1.809e+00,2.726e+00,3.241e+00,3.029e+00,2.714e+00,3.833e+00,3.574e+00,4.257e+00,3.731e+00,3.596e+00,5.444e+00,4.602e+00,4.258e+00,3.979e+00,4.687e+00,4.140e+00,4.351e+00,4.496e+00,3.570e+00,4.127e+00,4.024e+00,4.500e+00,4.961e+00,4.672e+00,4.853e+00,5.288e+00,4.923e+00,3.522e+00,4.763e+00,4.813e+00,4.361e+00,4.379e+00,4.455e+00,3.387e+00,3.845e+00,4.610e+00,4.513e+00,3.402e+00,4.932e+00,3.269e+00,4.716e+00,3.698e+00,4.522e+00,4.978e+00,4.098e+00,5.255e+00,3.732e+00,5.229e+00,3.387e+00,4.219e+00,3.788e+00,5.049e+00,2.646e+00,4.364e+00,5.304e+00,4.447e+00,3.860e+00,4.761e+00,4.407e+00,4.877e+00,3.204e+00,3.859e+00,3.217e+00,2.633e+00,3.679e+00
8.466e-02,7.723e-01,6.876e-01,9.618e-01,2.050e+00,2.003e+00,1.180e+00,1.583e+00,1.566e+00,2.215e+00,1.715e+00,3.040e+00,3.214e+00,2.490e+00,2.994e+00,4.094e+00,3.627e+00,3.858e+00,4.222e+00,4.453e+00,5.736e+00,4.766e+00,4.610e+00,4.598e+00,4.846e+00,4.906e+00,4.477e+00,4.855e+00,3.031e+00,4.912e+00,5.053e+00,4.972e+00,4.831e+00,4.285e+00,6.045e+00,6.000e+00,5.589e+00,3.857e+00,4.532e+00,4.856e+00,5.076e+00,5.037e+00,5.283e+00,3.386e+00,4.169e+00,5.991e+00,4.853e+00,3.692e+00,6.102e+00,3.862e+00,5.464e+00,3.992e+00,4.781e+00,4.448e+00,5.087e+00,5.953e+00,4.327e+00,5.279e+00,3.666e+00,5.196e+00,3.725e+00,5.821e+00,2.694e+00,4.360e+00,5.072e+00,4.644e+00,3.885e+00,5.621e+00,5.160e+00,5.660e+00,3.402e+00,4.343e+00,3.438e+00,4.009e+00,3.986e+00
5.670e-02,2.516e-01,4.012e-01,6.916e-01,1.467e+00,1.432e+00,9.235e-01,1.716e+00,1.706e+00,2.456e+00,2.229e+00,3.184e+00,3.042e+00,3.067e+00,2.284e+00,3.033e+00,4.793e+00,3.983e+00,4.255e+00,4.843e+00,5.837e+00,5.031e+00,5.433e+00,4.782e+00,5.440e+00,4.226e+00,5.009e+00,5.817e+00,3.745e+00,5.010e+00,5.183e+00,5.384e+00,6.085e+00,5.940e+00,7.077e+00,6.008e+00,5.230e+00,3.687e+00,5.824e+00,5.200e+00,5.376e+00,5.600e+00,5.509e+00,4.530e+00,5.095e+00,6.690e+00,5.572e+00,4.859e+00,5.331e+00,3.970e+00,5.562e+00,5.144e+00,5.682e+00,4.841e+00,4.787e+00,6.025e+00,4.886e+00,6.528e+00,4.602e+00,5.791e+00,5.555e+00,5.674e+00,3.976e+00,6.086e+00,6.288e+00,4.713e+00,4.554e+00,5.615e+00,5.262e+00,5.335e+00,4.301e+00,4.206e+00,4.109e+00,4.510e+00,5.198e+00
5.239e-03,4.238e-01,8.111e-01,5.582e-01,1.245e+00,1.547e+00,1.348e+00,1.751e+00,1.208e+00,1.835e+00,1.977e+00,3.081e+00,3.161e+00,2.608e+00,2.849e+00,3.557e+00,2.977e+00,3.468e+00,3.641e+00,3.635e+00,5.769e+00,5.521e+00,5.113e+00,4.261e+00,3.663e+00,4.400e+00,4.633e+00,5.017e+00,3.524e+00,3.389e+00,4.709e+00,4.898e+00,3.731e+00,4.572e+00,5.033e+00,4.797e+00,4.790e+00,3.728e+00,5.045e+00,4.501e+00,4.600e+00,3.649e+00,5.045e+00,3.855e+00,3.304e+00,5.328e+00,5.687e+00,4.522e+00,5.190e+00,3.660e+00,5.011e+00,4.810e+00,4.250e+00,4.235e+00,3.571e+00,5.667e+00,4.378e+00,5.045e+00,4.471e+00,4.642e+00,4.903e+00,4.229e+00,3.814e+00,4.939e+00,5.589e+00,5.287e+00,3.975e+00,5.342e+00,5.102e+00,4.804e+00,3.186e+00,4.120e+00,2.976e+00,4.177e+00,3.661e+00
4.775e-02,6.846e-01,7.591e-01,9.255e-01,2.325e+00,2.343e+00,1.617e+00,1.764e+00,2.297e+00,2.748e+00,2.037e+00,3.908e+00,3.863e+00,3.683e+00,3.253e+00,4.539e+00,5.448e+00,4.478e+00,4.364e+00,5.072e+00,7.240e+00,6.785e+00,6.642e+00,4.897e+00,6.435e+00,5.667e+00,6.592e+00,6.398e+00,4.729e+00,6.437e+00,6.958e+00,6.974e+00,6.664e+00,6.243e+00,7.770e+00,7.466e+00,6.621e+00,5.919e+00,6.148e+00,6.638e+00,6.808e+00,6.243e+00,6.775e+00,4.639e+00,6.121e+00,8.431e+00,6.909e+00,6.119e+00,6.042e+00,4.946e+00,6.849e+00,5.843e+00,6.755e+00,5.807e+00,5.672e+00,6.971e+00,5.831e+00,7.339e+00,6.274e+00,7.168e+00,7.083e+00,6.291e+00,4.732e+00,7.066e+00,7.831e+00,6.702e+00,5.354e+00,7.435e+00,6.416e+00,7.552e+00,4.863e+00,5.165e+00,4.379e+00,7.119e+00,6.249e+00
1.029e-01,8.288e-01,5.826e-01,9.577e-01,2.870e+00,2.390e+00,1.889e+00,2.088e+00,1.971e+00,3.015e+00,2.255e+00,3.760e+00,4.571e+00,3.864e+00,3.834e+00,5.117e+00,4.960e+00,3.845e+00,3.383e+00,5.072e+00,7.347e+00,6.410e+00,7.408e+00,5.722e+00,5.373e+00,5.550e+00,5.679e+00,7.039e+00,4.168e+00,6.399e+00,6.219e+00,6.647e+00,6.251e+00,5.980e+00,6.755e+00,6.216e+00,5.933e+00,5.525e+00,6.776e+00,6.406e+00,7.541e+00,5.399e+00,5.932e+00,5.230e+00,5.575e+00,7.527e+00,6.291e+00,5.586e+00,6.446e+00,5.003e+00,6.959e+00,6.127e+00,5.958e+00,5.626e+00,4.877e+00,8.184e+00,5.573e+00,7.202e+00,5.745e+00,6.354e+00,6.050e+00,6.293e+00,4.993e+00,6.373e+00,7.143e+00,6.714e+00,5.798e+00,6.496e+00,5.833e+00,6.220e+00,4.863e+00,5.107e+00,4.983e+00,6.824e+00,5.623e+00
3.679e-02,2.755e-01,3.716e-01,3.851e-01,1.484e+00,1.255e+00,1.460e+00,2.025e+00,1.347e+00,2.331e+00,2.204e+00,2.628e+00,3.036e+00,2.806e+00,2.646e+00,4.395e+00,4.588e+00,4.337e+00,4.276e+00,4.007e+00,6.617e+00,5.861e+00,6.650e+00,5.321e+00,5.650e+00,5.988e+00,5.665e+00,7.340e+00,4.395e+00,4.856e+00,5.853e+00,6.262e+00,6.896e+00,6.955e+00,6.842e+00,7.346e+00,5.683e+00,5.539e+00,6.739e+00,6.776e+00,6.345e+00,5.847e+00,7.042e+00,5.462e+00,6.257e+00,7.276e+00,5.974e+00,6.137e+00,6.313e+00,4.256e+00,6.796e+00,5.360e+00,6.682e+00,5.769e+00,5.511e+00,7.293e+00,6.416e+00,7.011e+00,5.580e+00,6.139e+00,7.372e+00,5.822e+00,5.440e+00,8.081e+00,7.530e+00,6.317e+00,6.148e+00,6.889e+00,6.421e+00,5.108e+00,5.750e+00,5.605e+00,5.416e+00,5.029e+00,5.360e+00
1.298e-01,7.867e-01,9.103e-01,1.346e+00,2.349e+00,2.506e+00,1.496e+00,2.576e+00,2.270e+00,3.014e+00,2.614e+00,4.326e+00,4.186e+00,3.848e+00,3.739e+00,4.349e+00,5.001e+00,5.193e+00,5.028e+00,5.586e+00,7.747e+00,7.393e+00,7.051e+00,6.353e+00,6.768e+00,6.948e+00,7.983e+00,9.309e+00,6.271e+00,7.134e+00,8.066e+00,8.392e+00,8.126e+00,7.117e+00,8.419e+00,7.806e+00,7.336e+00,6.074e+00,7.877e+00,7.445e+00,7.941e+00,8.205e+00,7.918e+00,6.298e+00,6.541e+00,8.375e+00,8.288e+00,7.365e+00,7.074e+00,5.891e+00,7.537e+00,7.211e+00,7.227e+00,6.818e+00,6.013e+00,8.135e+00,6.533e+00,7.792e+00,7.372e+00,8.090e+00,7.532e+00,8.362e+00,6.084e+00,8.578e+00,8.423e+00,7.115e+00,6.685e+00,8.547e+00,7.436e+00,8.088e+00,5.404e+00,5.604e+00,6.105e+00,7.289e+00,6.682e+00
1.058e-02,1.806e-01,2.937e-01,4.957e-01,9.320e-01,1.090e+00,4.355e-01,8.825e-01,1.590e+00,1.788e+00,1.658e+00,2.344e+00,2.221e+00,2.495e+00,2.813e+00,3.492e+00,4.859e+00,4.102e+00,3.976e+00,3.971e+00,5.865e+00,5.812e+00,6.024e+00,4.528e+00,5.090e+00,5.493e+00,6.483e+00,7.711e+00,4.506e+00,6.128e+00,6.718e+00,6.836e+00,5.377e+00,5.761e+00,7.589e+00,6.108e+00,5.687e+00,5.756e+00,6.529e+00,6.557e+00,7.185e+00,6.213e+00,7.145e+00,5.038e+00,5.840e+00,7.009e+00,6.014e+00,6.273e+00,5.580e+00,4.492e+00,6.852e+00,5.558e+00,6.964e+00,5.975e+00,5.590e+00,6.697e+00,6.056e+00,5.473e+00,6.730e+00,7.058e+00,7.664e+00,7.211e+00,6.023e+00,7.243e+00,7.792e+00,6.095e+00,5.946e+00,6.385e+00,6.346e+00,6.140e+00,5.772e+00,4.568e+00,5.357e+00,6.561e+00,5.392e+00
1.201e-01,5.851e-01,3.310e-01,8.662e-01,2.319e+00,1.878e+00,1.455e+00,1.538e+00,1.766e+00,2.194e+00,2.087e+00,3.377e+00,4.326e+00,3.140e+00,3.344e+00,4.425e+00,5.129e+00,4.771e+00,4.200e+00,4.649e+00,6.904e+00,6.086e+00,6.033e+00,5.351e+00,6.149e+00,6.113e+00,6.855e+00,8.515e+00,5.499e+00,7.183e+00,7.732e+00,7.877e+00,8.214e+00,7.463e+00,8.045e+00,7.395e+00,6.673e+00,6.645e+00,7.629e+00,7.438e+00,9.261e+00,7.604e+00,7.783e+00,7.260e+00,6.098e+00,7.189e+00,7.567e+00,6.913e+00,7.388e+00,5.707e+00,8.379e+00,6.539e+00,7.237e+00,7.217e+00,6.901e+00,8.045e+00,6.437e+00,6.513e+00,7.722e+00,7.893e+00,7.569e+00,7.908e+00,5.636e+00,8.534e+00,8.505e+00,6.538e+00,7.467e+00,8.971e+00,6.782e+00,7.017e+00,6.560e+00,6.463e+00,6.981e+00,7.002e+00,5.897e+00
1.233e-01,4.802e-01,3.533e-01,8.573e-01,2.077e+00,1.734e+00,1.419e+00,2.384e+00,2.007e+00,2.881e+00,2.524e+00,3.412e+00,3.535e+00,3.388e+00,2.768e+00,3.560e+00,4.597e+00,3.887e+00,3.556e+00,3.926e+00,5.928e+00,5.687e+00,5.722e+00,4.680e+00,5.549e+00,5.507e+00,5.850e+00,8.490e+00,5.799e+00,6.406e+00,8.304e+00,7.686e+00,8.329e+00,7.105e+00,8.313e+00,6.242e+00,6.771e+00,6.344e+00,7.823e+00,7.517e+00,7.931e+00,7.107e+00,8.472e+00,7.321e+00,6.088e+00,7.248e+00,7.292e+00,6.708e+00,5.963e+00,5.472e+00,7.236e+00,6.827e+00,7.910e+00,6.014e+00,6.572e+00,7.877e+00,5.843e+00,6.954e+00,8.112e+00,7.791e+00,8.252e+00,7.470e+00,6.406e+00,8.884e+00,8.173e+00,6.376e+00,6.770e+00,7.638e+00,6.503e+00,5.857e+00,6.438e+00,5.829e+00,6.499e+00,7.910e+00,6.139e+00
5.779e-02,2.777e-01,3.190e-01,7.318e-01,1.878e+00,1.843e+00,1.602e+00,2.101e+00,1.969e+00,2.664e+00,2.136e+00,3.810e+00,3.416e+00,3.563e+00,2.840e+00,3.468e+00,4.758e+00,3.619e+00,3.405e+00,4.481e+00,6.594e+00,5.904e+00,5.991e+00,5.066e+00,5.908e+00,5.555e+00,6.541e+00,7.918e+00,5.389e+00,6.000e+00,8.250e+00,7.735e+00,8.130e+00,7.293e+00,7.286e+00,6.686e+00,6.914e+00,6.803e+00,7.610e+00,8.065e+00,7.692e+00,6.151e+00,7.868e+00,7.546e+00,6.847e+00,8.353e+00,7.754e+00,7.133e+00,7.090e+00,5.262e+00,8.077e+00,7.293e+00,8.280e+00,6.969e+00,6.712e+00,8.608e+00,6.367e+00,7.445e+00,7.428e+00,8.142e+00,8.532e+00,7.343e+00,6.645e+00,9.057e+00,8.370e+00,6.372e+00,8.358e+00,7.221e+00,7.036e+00,6.351e+00,6.846e+00,6.724e+00,6.254e+00,7.224e+00,6.520e+00
1.045e-01,5.492e-01,7.350e-01,1.227e+00,2.613e+00,2.599e+00,1.652e+00,2.270e+00,2.292e+00,3.183e+00,2.839e+00,4.484e+00,3.973e+00,3.259e+00,3.210e+00,4.263e+00,5.230e+00,4.164e+00,4.637e+00,4.961e+00,6.139e+00,5.649e+00,5.324e+00,5.494e+00,6.104e+00,5.540e+00,6.460e+00,7.212e+00,5.694e+00,7.109e+00,8.396e+00,8.149e+00,9.330e+00,6.928e+00,8.153e+00,7.391e+00,8.283e+00,7.401e+00,7.823e+00,7.766e+00,8.110e+00,8.236e+00,8.567e+00,8.018e+00,6.935e+00,9.473e+00,7.331e+00,7.135e+00,7.279e+00,5.555e+00,7.447e+00,6.841e+00,8.080e+00,7.021e+00,7.600e+00,8.716e+00,7.025e+00,9.075e+00,7.631e+00,9.005e+00,7.844e+00,7.764e+00,6.411e+00,8.776e+00,8.650e+00,6.877e+00,7.057e+00,8.186e+00,7.594e+00,7.769e+00,6.768e+00,6.667e+00,6.315e+00,7.810e+00,8.038e+00
4.368e-02,5.213e-01,8.080e-01,8.018e-01,1.888e+00,2.000e+00,1.618e+00,2.701e+00,1.955e+00,3.207e+00,2.941e+00,4.058e+00,3.977e+00,4.042e+00,2.894e+00,4.645e+00,4.266e+00,4.394e+00,4.856e+00,5.479e+00,6.776e+00,6.127e+00,7.221e+00,6.652e+00,5.804e+00,6.810e+00,6.892e+00,9.282e+00,5.526e+00,6.558e+00,8.835e+00,8.174e+00,9.079e+00,7.953e+00,9.077e+00,8.846e+00,8.879e+00,8.390e+00,9.467e+00,9.497e+00,9.078e+00,8.018e+00,9.666e+00,9.206e+00,7.113e+00,9.313e+00,7.910e+00,7.319e+00,8.553e+00,7.133e+00,9.259e+00,8.191e+00,9.391e+00,7.511e+00,8.029e+00,1.023e+01,7.754e+00,8.757e+00,8.489e+00,9.112e+00,1.022e+01,8.837e+00,8.140e+00,9.426e+00,8.926e+00,7.947e+00,7.439e+00,9.268e+00,9.511e+00,7.689e+00,7.059e+00,6.939e+00,7.402e+00,8.921e+00,7.791e+00
3.099e-02,3.541e-01,3.903e-01,4.129e-01,1.393e+00,1.169e+00,1.012e+00,1.722e+00,1.400e+00,2.406e+00,2.167e+00,2.526e+00,3.576e+00,3.550e+00,2.378e+00,3.783e+00,3.323e+00,3.983e+00,3.576e+00,4.183e+00,6.299e+00,5.435e+00,6.554e+00,5.004e+00,5.649e+00,5.351e+00,5.756e+00,7.040e+00,4.452e+00,6.198e+00,7.130e+00,7.083e+00,8.876e+00,7.139e+00,8.996e+00,7.097e+00,8.730e+00,6.315e+00,8.907e+00,8.522e+00,7.984e+00,6.302e+00,9.231e+00,7.377e+00,6.932e+00,8.840e+00,7.280e+00,6.533e+00,8.120e+00,6.055e+00,8.107e+00,6.665e+00,9.221e+00,7.394e+00,7.913e+00,9.574e+00,6.223e+00,8.616e+00,8.000e+00,7.305e+00,8.174e+00,7.708e+00,6.459e+00,7.099e+00,8.393e+00,6.442e+00,6.893e+00,8.064e+00,8.420e+00,7.620e+00,6.440e+00,5.966e+00,6.538e+00,7.348e+00,6.485e+00
7.963e-03,2.461e-01,4.591e-01,4.063e-01,8.877e-01,1.010e+00,7.183e-01,1.856e+00,1.977e+00,2.555e+00,2.284e+00,2.322e+00,2.151e+00,3.007e+00,1.711e+00,2.444e+00,3.244e+00,3.773e+00,3.694e+00,2.770e+00,4.999e+00,5.513e+00,5.751e+00,4.804e+00,4.726e+00,5.108e+00,5.897e+00,6.838e+00,4.044e+00,5.546e+00,6.912e+00,5.953e+00,8.732e+00,6.808e+00,9.376e+00,7.623e+00,8.281e+00,6.373e+00,7.795e+00,9.389e+00,7.039e+00,6.969e+00,9.297e+00,6.003e+00,8.355e+00,9.414e+00,7.035e+00,7.706e+00,6.024e+00,6.056e+00,8.215e+00,6.429e+00,9.274e+00,6.270e+00,7.309e+00,8.168e+00,6.950e+00,7.957e+00,8.032e+00,6.957e+00,9.724e+00,6.379e+00,6.719e+00,8.547e+00,8.710e+00,5.916e+00,8.218e+00,7.380e+00,8.491e+00,7.481e+00,7.144e+00,6.029e+00,6.098e+00,7.664e+00,5.838e+00
1.814e-02,4.844e-01,7.024e-01,6.662e-01,1.830e+00,1.784e+00,1.062e+00,1.531e+00,1.315e+00,2.562e+00,2.357e+00,2.623e+00,3.005e+00,2.723e+00,3.160e+00,4.566e+00,3.541e+00,3.684e+00,3.242e+00,3.756e+00,5.504e+00,5.190e+00,5.994e+00,5.037e+00,4.566e+00,5.573e+00,5.868e+00,8.040e+00,4.826e+00,5.253e+00,6.912e+00,6.890e+00,7.863e+00,7.329e+00,7.928e+00,7.035e+00,7.953e+00,7.232e+00,8.477e+00,8.668e+00,8.310e+00,6.577e+00,8.311e+00,7.131e+00,6.616e+00,7.524e+00,7.166e+00,8.149e+00,6.596e+00,6.284e+00,8.462e+00,6.745e+00,8.032e+00,6.439e+00,7.108e+00,9.223e+00,6.554e+00,7.077e+00,8.649e+00,8.484e+00,9.028e+00,8.092e+00,6.343e+00,8.459e+00,7.794e+00,8.137e+00,7.803e+00,7.813e+00,7.931e+00,6.618e+00,6.348e+00,6.629e+00,6.525e+00,8.364e+00,6.767e+00
1.099e-01,5.567e-01,7.129e-01,1.111e+00,2.577e+00,2.399e+00,1.675e+00,2.602e+00,2.447e+00,3.524e+00,3.530e+00,4.747e+00,5.366e+00,4.882e+00,3.669e+00,5.482e+00,6.194e+00,5.773e+00,5.410e+00,5.650e+00,7.791e+00,7.333e+00,7.426e+00,6.791e+00,7.493e+00,8.204e+00,7.703e+00,9.423e+00,6.586e+00,9.270e+00,9.545e+00,9.407e+00,1.113e+01,9.404e+00,1.072e+01,9.075e+00,1.147e+01,1.023e+01,1.058e+01,1.179e+01,1.081e+01,1.008e+01,1.114e+01,9.699e+00,1.046e+01,1.100e+01,9.657e+00,1.049e+01,8.137e+00,8.735e+00,1.088e+01,8.746e+00,1.094e+01,9.111e+00,9.563e+00,1.137e+01,9.463e+00,1.126e+01,1.090e+01,1.007e+01,1.126e+01,1.004e+01,8.888e+00,1.079e+01,1.100e+01,9.825e+00,9.669e+00,1.080e+01,1.091e+01,1.018e+01,9.504e+00,9.219e+00,8.807e+00,1.006e+01,9.487e+00
2.166e-02,4.270e-01,8.576e-01,7.491e-01,1.745e+00,1.869e+00,1.247e+00,2.359e+00,1.760e+00,3.223e+00,3.349e+00,3.811e+00,4.228e+00,4.205e+00,3.901e+00,5.621e+00,5.224e+00,5.284e+00,4.819e+00,5.261e+00,6.913e+00,6.421e+00,7.571e+00,6.875e+00,5.495e+00,6.899e+00,7.547e+00,1.002e+01,6.995e+00,6.643e+00,8.835e+00,9.522e+00,1.056e+01,9.503e+00,1.064e+01,1.029e+01,1.193e+01,1.029e+01,1.260e+01,1.212e+01,1.140e+01,9.575e+00,1.180e+01,1.001e+01,1.037e+01,1.063e+01,9.436e+00,1.090e+01,9.933e+00,8.996e+00,1.121e+01,9.420e+00,1.175e+01,1.070e+01,9.908e+00,1.273e+01,9.840e+00,1.015e+01,1.208e+01,1.107e+01,1.257e+01,1.095e+01,9.588e+00,1.217e+01,1.108e+01,1.126e+01,9.592e+00,1.042e+01,1.174e+01,9.342e+00,9.302e+00,8.994e+00,7.726e+00,1.182e+01,1.001e+01
5.732e-02,4.813e-01,4.832e-01,6.788e-01,2.137e+00,1.796e+00,1.427e+00,1.585e+00,1.464e+00,2.473e+00,2.147e+00,3.259e+00,3.745e+00,3.058e+00,2.590e+00,4.028e+00,4.778e+00,3.447e+00,3.567e+00,4.808e+00,6.191e+00,5.012e+00,6.055e+00,5.408e+00,6.059e+00,5.364e+00,5.670e+00,7.835e+00,4.598e+00,6.434e+00,7.915e+00,6.927e+00,8.869e+00,7.695e+00,9.109e+00,8.102e+00,9.546e+00,8.538e+00,9.810e+00,9.972e+00,9.697e+00,7.964e+00,1.005e+01,8.375e+00,9.213e+00,9.821e+00,7.974e+00,8.239e+00,9.256e+00,6.816e+00,1.004e+01,8.344e+00,1.092e+01,8.273e+00,8.661e+00,1.034e+01,7.626e+00,1.016e+01,9.341e+00,9.257e+00,9.750e+00,9.873e+00,8.081e+00,1.021e+01,9.052e+00,8.487e+00,8.264e+00,7.853e+00,9.832e+00,7.672e+00,8.378e+00,8.221e+00,7.617e+00,8.663e+00,8.060e+00
4.538e-02,7.012e-01,7.806e-01,9.342e-01,2.195e+00,2.316e+00,1.645e+00,2.135e+00,2.218e+00,2.920e+00,1.953e+00,3.660e+00,3.268e+00,3.410e+00,2.779e+00,3.960e+00,4.128e+00,4.083e+00,4.566e+00,4.804e+00,6.747e+00,5.840e+00,6.283e+00,5.397e+00,6.359e+00,6.683e+00,6.733e+00,7.757e+00,4.568e+00,6.687e+00,8.337e+00,7.249e+00,8.841e+00,7.390e+00,1.006e+01,9.703e+00,1.047e+01,9.342e+00,1.014e+01,1.105e+01,1.040e+01,9.339e+00,1.103e+01,8.488e+00,9.718e+00,1.006e+01,9.300e+00,8.488e+00,1.015e+01,8.909e+00,1.143e+01,9.748e+00,1.151e+01,9.581e+00,8.359e+00,1.078e+01,7.717e+00,1.036e+01,9.262e+00,9.959e+00,1.019e+01,1.105e+01,8.488e+00,9.926e+00,9.242e+00,9.035e+00,9.731e+00,1.006e+01,1.092e+01,1.001e+01,8.664e+00,8.711e+00,8.122e+00,1.026e+01,7.757e+00
1.254e-01,9.421e-01,6.899e-01,1.206e+00,3.232e+00,2.861e+00,2.291e+00,2.833e+00,2.596e+00,3.721e+00,2.728e+00,4.738e+00,5.447e+00,4.621e+00,4.415e+00,6.052e+00,5.459e+00,4.631e+00,4.255e+00,5.858e+00,8.374e+00,7.075e+00,7.115e+00,5.838e+00,6.771e+00,7.010e+00,6.785e+00,9.003e+00,6.596e+00,8.037e+00,8.917e+00,8.762e+00,1.040e+01,8.324e+00,9.802e+00,8.860e+00,1.056e+01,9.731e+00,1.167e+01,1.117e+01,1.136e+01,1.002e+01,1.150e+01,9.502e+00,1.003e+01,1.012e+01,1.019e+01,9.181e+00,1.061e+01,8.382e+00,1.194e+01,9.900e+00,1.181e+01,9.651e+00,8.882e+00,1.283e+01,8.557e+00,1.115e+01,1.113e+01,1.091e+01,1.046e+01,1.145e+01,8.440e+00,1.081e+01,1.133e+01,1.010e+01,9.365e+00,1.068e+01,1.105e+01,1.010e+01,8.781e+00,9.465e+00,8.673e+00,1.119e+01,8.828e+00
1.996e-02,5.771e-01,8.266e-01,6.368e-01,1.606e+00,1.777e+00,1.585e+00,2.515e+00,2.133e+00,2.923e+00,2.511e+00,3.813e+00,3.681e+00,3.898e+00,2.522e+00,4.502e+00,4.265e+00,4.292e+00,4.844e+00,5.098e+00,6.096e+00,5.773e+00,6.758e+00,5.945e+00,4.948e+00,6.430e+00,6.258e+00,8.183e+00,5.346e+00,5.965e+00,7.807e+00,7.545e+00,9.507e+00,8.230e+00,9.284e+00,1.017e+01,1.102e+01,1.042e+01,1.169e+01,1.243e+01,1.097e+01,9.920e+00,1.190e+01,1.060e+01,1.077e+01,1.120e+01,9.399e+00,9.946e+00,1.153e+01,9.301e+00,1.260e+01,1.092e+01,1.304e+01,1.015e+01,1.009e+01,1.277e+01,1.031e+01,1.060e+01,1.090e+01,1.058e+01,1.290e+01,1.062e+01,9.699e+00,1.143e+01,1.156e+01,9.674e+00,9.526e+00,1.111e+01,1.214e+01,1.004e+01,9.645e+00,9.614e+00,8.924e+00,1.121e+01,9.889e+00
1.542e-02,3.138e-01,7.311e-01,5.429e-01,1.130e+00,1.292e+00,8.929e-01,1.387e+00,8.542e-01,1.698e+00,1.859e+00,2.450e+00,2.636e+00,2.447e+00,2.628e+00,3.646e+00,4.257e+00,3.890e+00,3.603e+00,4.048e+00,6.135e+00,5.767e+00,6.736e+00,5.335e+00,5.159e+00,5.494e+00,6.909e+00,9.235e+00,5.824e+00,5.285e+00,8.132e+00,8.502e+00,9.058e+00,8.239e+00,8.643e+00,9.301e+00,8.984e+00,8.824e+00,1.085e+01,1.051e+01,1.026e+01,8.559e+00,1.013e+01,9.789e+00,9.099e+00,9.892e+00,1.001e+01,9.594e+00,9.954e+00,8.074e+00,1.052e+01,1.012e+01,1.111e+01,9.487e+00,9.548e+00,1.063e+01,8.770e+00,9.608e+00,1.014e+01,1.165e+01,1.199e+01,1.078e+01,9.986e+00,1.113e+01,9.193e+00,8.740e+00,1.051e+01,9.387e+00,1.074e+01,8.826e+00,7.954e+00,8.071e+00,7.893e+00,9.478e+00,8.931e+00
8.184e-02,7.910e-01,7.654e-01,9.233e-01,2.296e+00,2.130e+00,1.476e+00,2.022e+00,2.193e+00,2.859e+00,2.438e+00,3.411e+00,3.596e+00,3.128e+00,3.572e+00,4.927e+00,5.250e+00,4.459e+00,4.318e+00,3.839e+00,6.831e+00,7.048e+00,6.448e+00,5.049e+00,5.520e+00,6.537e+00,6.732e+00,9.122e+00,5.438e+00,6.910e+00,8.937e+00,8.114e+00,8.837e+00,7.634e+00,9.934e+00,8.787e+00,1.009e+01,9.434e+00,1.124e+01,1.142e+01,1.058e+01,1.102e+01,1.322e+01,9.462e+00,1.109e+01,1.177e+01,1.069e+01,1.163e+01,1.097e+01,9.542e+00,1.226e+01,1.048e+01,1.327e+01,1.017e+01,1.022e+01,1.179e+01,1.033e+01,1.008e+01,1.151e+01,1.081e+01,1.294e+01,1.181e+01,9.869e+00,1.179e+01,1.164e+01,1.031e+01,1.076e+01,1.110e+01,1.171e+01,1.023e+01,1.092e+01,9.724e+00,9.177e+00,1.075e+01,9.205e+00
1.245e-01,7.154e-01,4.802e-01,1.089e+00,2.657e+00,2.281e+00,1.433e+00,1.694e+00,2.208e+00,2.777e+00,2.392e+00,3.793e+00,4.609e+00,3.599e+00,3.844e+00,4.698e+00,5.487e+00,4.882e+00,4.210e+00,4.768e+00,7.706e+00,7.059e+00,6.561e+00,5.504e+00,7.010e+00,6.516e+00,6.925e+00,8.424e+00,5.341e+00,8.728e+00,8.829e+00,8.523e+00,9.761e+00,8.245e+00,1.123e+01,8.850e+00,1.032e+01,8.723e+00,1.123e+01,1.146e+01,1.097e+01,1.016e+01,1.213e+01,9.409e+00,1.119e+01,1.132e+01,1.147e+01,1.002e+01,1.014e+01,8.800e+00,1.314e+01,1.012e+01,1.345e+01,1.005e+01,1.079e+01,1.119e+01,8.942e+00,1.132e+01,1.173e+01,1.149e+01,1.091e+01,1.166e+01,8.923e+00,1.095e+01,1.196e+01,1.016e+01,1.116e+01,1.052e+01,1.168e+01,1.156e+01,1.031e+01,1.039e+01,9.151e+00,1.027e+01,9.108e+00
1.230e-01,8.485e-01,9.739e-01,1.092e+00,2.474e+00,2.287e+00,1.851e+00,3.180e+00,2.628e+00,3.651e+00,3.210e+00,4.187e+00,4.551e+00,4.013e+00,3.525e+00,5.161e+00,5.510e+00,5.071e+00,5.344e+00,4.984e+00,7.766e+00,8.028e+00,8.840e+00,7.228e+00,6.192e+00,7.599e+00,7.761e+00,1.072e+01,6.514e+00,7.169e+00,8.827e+00,9.208e+00,1.024e+01,1.003e+01,1.061e+01,9.783e+00,9.976e+00,9.578e+00,1.197e+01,1.134e+01,1.249e+01,1.165e+01,1.315e+01,1.078e+01,1.169e+01,1.188e+01,1.126e+01,1.217e+01,1.204e+01,1.043e+01,1.285e+01,1.221e+01,1.413e+01,1.067e+01,1.039e+01,1.207e+01,1.132e+01,1.277e+01,1.242e+01,1.316e+01,1.376e+01,1.285e+01,1.158e+01,1.325e+01,1.238e+01,1.137e+01,1.114e+01,1.146e+01,1.300e+01,1.093e+01,1.095e+01,1.090e+01,1.032e+01,1.137e+01,1.085e+01
1.181e-01,8.290e-01,7.277e-01,9.612e-01,2.088e+00,1.991e+00,1.729e+00,3.007e+00,2.307e+00,3.130e+00,2.756e+00,4.122e+00,4.712e+00,4.293e+00,3.694e+00,5.316e+00,4.705e+00,5.633e+00,5.593e+00,5.828e+00,8.364e+00,7.897e+00,8.616e+00,7.294e+00,7.010e+00,8.028e+00,8.034e+00,1.028e+01,6.478e+00,7.997e+00,9.668e+00,8.961e+00,1.090e+01,9.273e+00,1.141e+01,1.087e+01,1.202e+01,1.057e+01,1.269e+01,1.260e+01,1.215e+01,1.136e+01,1.394e+01,1.145e+01,1.234e+01,1.442e+01,1.309e+01,1.304e+01,1.277e+01,1.049e+01,1.421e+01,1.218e+01,1.535e+01,1.185e+01,1.173e+01,1.474e+01,1.115e+01,1.328e+01,1.313e+01,1.325e+01,1.385e+01,1.251e+01,1.137e+01,1.347e+01,1.282e+01,1.243e+01,1.213e+01,1.212e+01,1.465e+01,1.213e+01,1.196e+01,1.105e+01,1.046e+01,1.212e+01,1.141e+01
1.247e-01,4.374e-01,4.473e-01,8.759e-01,1.696e+00,1.552e+00,1.227e+00,2.716e+00,2.355e+00,3.048e+00,3.013e+00,3.854e+00,4.078e+00,4.097e+00,3.421e+00,4.619e+00,5.898e+00,5.125e+00,4.994e+00,4.723e+00,7.004e+00,7.299e+00,7.429e+00,6.033e+00,5.745e+00,6.999e+00,6.841e+00,9.273e+00,6.731e+00,7.841e+00,9.675e+00,9.375e+00,1.050e+01,8.868e+00,1.002e+01,9.096e+00,1.120e+01,1.068e+01,1.181e+01,1.151e+01,1.212e+01,1.126e+01,1.335e+01,1.179e+01,1.173e+01,1.337e+01,1.211e+01,1.176e+01,1.199e+01,1.060e+01,1.337e+01,1.296e+01,1.514e+01,1.175e+01,1.203e+01,1.386e+01,1.155e+01,1.297e+01,1.346e+01,1.447e+01,1.488e+01,1.311e+01,1.291e+01,1.251e+01,1.219e+01,1.109e+01,1.196e+01,1.160e+01,1.426e+01,1.207e+01,1.203e+01,1.080e+01,1.057e+01,1.207e+01,1.179e+01
9.643e-02,7.813e-01,5.684e-01,9.892e-01,2.540e+00,2.265e+00,1.582e+00,2.214e+00,2.541e+00,3.253e+00,2.056e+00,3.527e+00,3.398e+00,3.733e+00,3.236e+00,4.679e+00,5.706e+00,3.997e+00,3.520e+00,4.457e+00,7.084e+00,7.065e+00,7.412e+00,5.374e+00,6.334e+00,6.430e+00,7.808e+00,1.022e+01,6.248e+00,7.600e+00,9.503e+00,9.070e+00,1.007e+01,8.888e+00,1.059e+01,9.653e+00,1.004e+01,1.037e+01,1.223e+01,1.272e+01,1.176e+01,1.125e+01,1.265e+01,1.063e+01,1.238e+01,1.421e+01,1.208e+01,1.387e+01,1.257e+01,1.172e+01,1.545e+01,1.269e+01,1.551e+01,1.350e+01,1.157e+01,1.418e+01,1.166e+01,1.327e+01,1.363e+01,1.515e+01,1.478e+01,1.340e+01,1.362e+01,1.340e+01,1.289e+01,1.266e+01,1.254e+01,1.126e+01,1.485e+01,1.247e+01,1.251e+01,1.163e+01,1.134e+01,1.381e+01,1.244e+01
6.255e-03,1.318e-01,3.547e-01,5.124e-01,1.440e+00,1.472e+00,9.909e-01,1.078e+00,1.263e+00,1.957e+00,2.148e+00,2.576e+00,3.178e+00,2.862e+00,3.029e+00,4.675e+00,4.400e+00,4.286e+00,4.034e+00,4.986e+00,6.344e+00,5.617e+00,6.096e+00,4.597e+00,5.631e+00,6.307e+00,6.493e+00,7.896e+00,5.594e+00,6.635e+00,7.184e+00,7.605e+00,8.848e+00,6.324e+00,7.723e+00,7.570e+00,8.614e+00,8.676e+00,1.032e+01,9.630e+00,9.765e+00,9.352e+00,1.060e+01,9.432e+00,9.278e+00,9.452e+00,1.004e+01,1.117e+01,1.079e+01,9.738e+00,1.058e+01,1.037e+01,1.183e+01,1.039e+01,9.223e+00,1.246e+01,9.211e+00,1.095e+01,1.105e+01,1.250e+01,1.149e+01,1.262e+01,1.028e+01,1.069e+01,9.746e+00,1.084e+01,1.086e+01,1.177e+01,1.142e+01,9.735e+00,9.258e+00,8.884e+00,9.978e+00,1.042e+01,1.022e+01
1.205e-01,8.651e-01,8.487e-01,1.009e+00,1.899e+00,1.827e+00,1.218e+00,2.444e+00,1.640e+00,2.601e+00,2.183e+00,3.042e+00,3.418e+00,3.088e+00,3.414e+00,3.966e+00,3.851e+00,4.368e+00,3.722e+00,3.661e+00,6.602e+00,6.425e+00,6.529e+00,5.434e+00,5.373e+00,5.959e+00,6.428e+00,9.196e+00,5.561e+00,6.005e+00,8.186e+00,7.653e+00,8.863e+00,7.730e+00,9.796e+00,9.161e+00,9.155e+00,7.501e+00,1.041e+01,9.878e+00,9.441e+00,9.986e+00,1.131e+01,8.597e+00,1.023e+01,1.111e+01,1.192e+01,1.122e+01,1.140e+01,9.962e+00,1.274e+01,1.153e+01,1.428e+01,1.076e+01,1.150e+01,1.299e+01,1.041e+01,1.152e+01,1.191e+01,1.312e+01,1.208e+01,1.189e+01,1.034e+01,1.212e+01,1.114e+01,1.162e+01,1.096e+01,1.092e+01,1.331e+01,1.087e+01,9.789e+00,1.074e+01,9.283e+00,1.142e+01,9.952e+00
1.095e-01,6.921e-01,7.771e-01,1.027e+00,1.922e+00,1.987e+00,1.518e+00,2.889e+00,2.152e+00,3.030e+00,2.249e+00,3.601e+00,2.950e+00,3.276e+00,2.283e+00,3.092e+00,3.793e+00,3.460e+00,4.017e+00,4.121e+00,5.970e+00,5.848e+00,6.487e+00,5.702e+00,5.586e+00,6.436e+00,6.420e+00,9.415e+00,5.055e+00,6.829e+00,8.687e+00,7.613e+00,8.740e+00,7.898e+00,9.780e+00,9.020e+00,1.014e+01,9.578e+00,1.151e+01,1.141e+01,1.004e+01,1.077e+01,1.272e+01,1.071e+01,1.114e+01,1.157e+01,1.037e+01,1.087e+01,1.279e+01,1.163e+01,1.332e+01,1.301e+01,1.652e+01,1.123e+01,1.052e+01,1.396e+01,1.139e+01,1.188e+01,1.248e+01,1.434e+01,1.426e+01,1.400e+01,1.196e+01,1.364e+01,1.167e+01,1.171e+01,1.178e+01,1.233e+01,1.389e+01,1.044e+01,1.210e+01,1.140e+01,1.156e+01,1.274e+01,1.125e+01
7.600e-02,6.751e-01,9.208e-01,9.686e-01,1.993e+00,1.995e+00,1.109e+00,1.693e+00,1.224e+00,2.287e+00,2.225e+00,2.987e+00,3.289e+00,2.285e+00,3.341e+00,4.673e+00,4.207e+00,4.031e+00,3.754e+00,3.711e+00,5.466e+00,5.032e+00,5.587e+00,5.186e+00,4.869e+00,5.431e+00,6.098e+00,8.629e+00,5.258e+00,5.799e+00,7.597e+00,7.830e+00,9.470e+00,7.846e+00,9.337e+00,9.606e+00,1.009e+01,1.015e+01,1.149e+01,1.104e+01,1.127e+01,1.044e+01,1.119e+01,1.145e+01,1.072e+01,1.150e+01,1.148e+01,1.216e+01,1.332e+01,1.195e+01,1.509e+01,1.366e+01,1.644e+01,1.301e+01,1.326e+01,1.461e+01,1.157e+01,1.330e+01,1.371e+01,1.687e+01,1.374e+01,1.474e+01,1.261e+01,1.362e+01,1.195e+01,1.322e+01,1.229e+01,1.193e+01,1.568e+01,1.123e+01,1.198e+01,1.232e+01,1.188e+01,1.265e+01,1.308e+01
8.216e-02,7.700e-01,8.170e-01,8.660e-01,2.298e+00,2.076e+00,1.605e+00,1.677e+00,1.252e+00,2.075e+00,1.510e+00,2.689e+00,2.900e+00,2.035e+00,1.926e+00,2.896e+00,2.685e+00,2.871e+00,3.314e+00,3.680e+00,5.485e+00,4.856e+00,5.779e+00,4.585e+00,4.861e+00,4.795e+00,5.540e+00,7.097e+00,4.914e+00,5.581e+00,7.492e+00,7.010e+00,8.215e+00,6.435e+00,8.520e+00,7.518e+00,8.840e+00,7.222e+00,1.049e+01,9.395e+00,9.835e+00,9.196e+00,1.037e+01,9.435e+00,9.685e+00,1.160e+01,1.154e+01,1.056e+01,1.151e+01,9.296e+00,1.235e+01,1.222e+01,1.423e+01,1.184e+01,1.098e+01,1.412e+01,8.491e+00,1.196e+01,1.203e+01,1.389e+01,1.122e+01,1.185e+01,1.167e+01,1.325e+01,1.109e+01,1.120e+01,1.114e+01,1.063e+01,1.276e+01,1.036e+01,1.235e+01,1.120e+01,1.053e+01,1.319e+01,1.206e+01
3.442e-02,2.820e-01,4.264e-01,5.290e-01,1.555e+00,1.476e+00,1.395e+00,2.188e+00,1.942e+00,2.797e+00,2.587e+00,3.306e+00,3.517e+00,3.470e+00,2.694e+00,4.503e+00,4.799e+00,4.140e+00,4.508e+00,5.237e+00,6.582e+00,6.051e+00,7.259e+00,5.852e+00,6.123e+00,6.693e+00,6.835e+00,9.524e+00,6.195e+00,6.924e+00,8.617e+00,8.446e+00,1.068e+01,8.792e+00,9.563e+00,9.088e+00,1.001e+01,9.918e+00,1.200e+01,1.158e+01,1.072e+01,1.023e+01,1.200e+01,1.088e+01,1.067e+01,1.147e+01,1.035e+01,1.158e+01,1.071e+01,1.039e+01,1.297e+01,1.153e+01,1.468e+01,1.156e+01,1.088e+01,1.456e+01,1.145e+01,1.263e+01,1.333e+01,1.452e+01,1.395e+01,1.363e+01,1.203e+01,1.397e+01,1.180e+01,1.218e+01,1.254e+01,1.315e+01,1.345e+01,1.065e+01,1.176e+01,1.138e+01,1.059e+01,1.233e+01,1.153e+01
8.836e-02,5.650e-01,4.432e-01,7.974e-01,1.893e+00,1.660e+00,1.043e+00,1.760e+00,1.938e+00,2.579e+00,2.009e+00,2.888e+00,3.198e+00,3.214e+00,2.420e+00,3.757e+00,4.166e+00,3.831e+00,3.601e+00,4.258e+00,5.955e+00,5.907e+00,6.824e+00,5.554e+00,6.160e+00,6.329e+00,6.872e+00,8.562e+00,4.992e+00,7.441e+00,7.446e+00,7.985e+00,9.386e+00,7.848e+00,9.601e+00,8.222e+00,1.002e+01,8.839e+00,1.164e+01,1.113e+01,1.022e+01,1.002e+01,1.125e+01,1.018e+01,1.153e+01,1.220e+01,1.046e+01,1.148e+01,1.098e+01,1.061e+01,1.334e+01,1.165e+01,1.619e+01,1.238e+01,1.308e+01,1.463e+01,1.153e+01,1.357e+01,1.412e+01,1.415e+01,1.393e+01,1.472e+01,1.363e+01,1.374e+01,1.346e+01,1.230e+01,1.302e+01,1.299e+01,1.440e+01,1.276e+01,1.331e+01,1.226e+01,1.174e+01,1.263e+01,1.182e+01
1.042e-01,3.912e-01,5.808e-01,8.017e-01,1.637e+00,1.496e+00,1.158e+00,2.215e+00,1.530e+00,2.458e+00,2.867e+00,3.654e+00,4.203e+00,3.494e+00,3.433e+00,4.539e+00,5.725e+00,5.274e+00,4.726e+00,4.729e+00,6.732e+00,6.304e+00,6.749e+00,5.853e+00,6.373e+00,6.365e+00,6.716e+00,9.274e+00,6.752e+00,7.344e+00,8.879e+00,8.936e+00,1.051e+01,9.487e+00,1.010e+01,9.415e+00,1.185e+01,1.019e+01,1.363e+01,1.151e+01,1.097e+01,1.055e+01,1.262e+01,1.188e+01,1.241e+01,1.258e+01,1.263e+01,1.361e+01,1.308e+01,1.190e+01,1.542e+01,1.480e+01,1.793e+01,1.570e+01,1.512e+01,1.853e+01,1.342e+01,1.696e+01,1.730e+01,1.831e+01,1.637e+01,1.668e+01,1.554e+01,1.715e+01,1.592e+01,1.672e+01,1.556e+01,1.526e+01,1.802e+01,1.352e+01,1.515e+01,1.644e+01,1.348e+01,1.470e+01,1.482e+01
8.531e-02,8.075e-01,8.633e-01,1.178e+00,2.747e+00,2.694e+00,1.834e+00,2.382e+00,2.844e+00,3.506e+00,2.592e+00,4.719e+00,4.461e+00,4.033e+00,3.889e+00,4.687e+00,6.376e+00,4.512e+00,4.855e+00,5.850e+00,8.327e+00,7.844e+00,7.624e+00,5.715e+00,6.962e+00,6.310e+00,7.370e+00,9.518e+00,6.458e+00,7.927e+00,1.006e+01,9.258e+00,1.045e+01,9.373e+00,1.209e+01,1.001e+01,1.067e+01,9.836e+00,1.192e+01,1.214e+01,1.224e+01,1.134e+01,1.252e+01,1.086e+01,1.152e+01,1.329e+01,1.342e+01,1.335e+01,1.336e+01,1.267e+01,1.591e+01,1.437e+01,1.729e+01,1.358e+01,1.384e+01,1.722e+01,1.317e+01,1.464e+01,1.557e+01,1.803e+01,1.592e+01,1.578e+01,1.390e+01,1.569e+01,1.465e+01,1.445e+01,1.499e+01,1.503e+01,1.642e+01,1.405e+01,1.333e+01,1.429e+01,1.255e+01,1.580e+01,1.342e+01
3.371e-02,1.139e-01,4.075e-01,5.886e-01,1.170e+00,1.370e+00,1.180e+00,2.265e+00,1.676e+00,2.581e+00,2.815e+00,3.718e+00,3.820e+00,4.182e+00,2.778e+00,3.604e+00,4.177e+00,4.704e+00,4.364e+00,4.874e+00,6.089e+00,5.312e+00,5.443e+00,5.572e+00,5.159e+00,5.638e+00,6.293e+00,7.126e+00,5.771e+00,6.315e+00,7.803e+00,6.997e+00,8.579e+00,6.770e+00,7.844e+00,7.441e+00,9.597e+00,7.139e+00,9.041e+00,9.397e+00,9.103e+00,9.113e+00,1.017e+01,8.366e+00,9.213e+00,9.371e+00,9.488e+00,9.825e+00,9.407e+00,8.618e+00,1.060e+01,1.037e+01,1.268e+01,1.139e+01,1.069e+01,1.427e+01,1.075e+01,1.241e+01,1.135e+01,1.219e+01,1.324e+01,1.300e+01,1.054e+01,1.368e+01,1.236e+01,1.236e+01,1.243e+01,1.273e+01,1.235e+01,1.171e+01,1.074e+01,1.143e+01,1.070e+01,1.185e+01,1.181e+01
8.826e-02,4.266e-01,2.335e-01,6.861e-01,1.541e+00,1.357e+00,1.098e+00,2.458e+00,2.668e+00,3.169e+00,2.234e+00,3.208e+00,3.033e+00,3.464e+00,2.997e+00,4.416e+00,5.815e+00,4.539e+00,4.870e+00,4.467e+00,7.264e+00,7.249e+00,7.554e+00,5.125e+00,6.253e+00,5.812e+00,6.646e+00,8.315e+00,6.053e+00,6.964e+00,8.477e+00,8.089e+00,1.008e+01,8.459e+00,1.048e+01,9.093e+00,1.115e+01,1.029e+01,1.181e+01,1.123e+01,1.149e+01,1.095e+01,1.230e+01,1.133e+01,1.211e+01,1.286e+01,1.271e+01,1.269e+01,1.241e+01,1.220e+01,1.450e+01,1.378e+01,1.708e+01,1.323e+01,1.419e+01,1.670e+01,1.279e+01,1.639e+01,1.553e+01,1.684e+01,1.728e+01,1.746e+01,1.543e+01,1.588e+01,1.519e+01,1.397e+01,1.666e+01,1.416e+01,1.688e+01,1.519e+01,1.449e+01,1.453e+01,1.366e+01,1.414e+01,1.406e+01
5.944e-02,4.744e-01,5.371e-01,7.582e-01,2.179e+00,1.908e+00,1.407e+00,1.725e+00,1.857e+00,2.743e+00,2.173e+00,3.006e+00,3.217e+00,2.745e+00,2.396e+00,3.996e+00,4.826e+00,3.713e+00,4.054e+00,4.580e+00,6.651e+00,5.955e+00,7.107e+00,5.493e+00,6.712e+00,5.544e+00,6.568e+00,8.272e+00,5.094e+00,7.539e+00,8.191e+00,8.040e+00,1.036e+01,7.795e+00,1.017e+01,9.104e+00,1.050e+01,9.605e+00,1.185e+01,1.204e+01,1.067e+01,1.009e+01,1.166e+01,1.108e+01,1.139e+01,1.268e+01,1.135e+01,1.051e+01,1.244e+01,1.097e+01,1.429e+01,1.373e+01,1.745e+01,1.306e+01,1.310e+01,1.597e+01,1.186e+01,1.565e+01,1.473e+01,1.714e+01,1.595e+01,1.709e+01,1.479e+01,1.598e+01,1.467e+01,1.407e+01,1.569e+01,1.342e+01,1.603e+01,1.323e+01,1.440e+01,1.391e+01,1.468e+01,1.359e+01,1.458e+01
6.751e-02,4.149e-01,7.044e-01,9.216e-01,2.278e+00,2.135e+00,1.334e+00,1.406e+00,1.177e+00,2.279e+00,2.415e+00,3.519e+00,3.905e+00,3.063e+00,3.601e+00,4.551e+00,5.645e+00,4.347e+00,3.473e+00,3.905e+00,6.372e+00,5.627e+00,6.092e+00,5.406e+00,5.603e+00,5.629e+00,6.537e+00,8.143e+00,4.966e+00,7.022e+00,7.934e+00,8.248e+00,8.535e+00,7.981e+00,8.615e+00,8.664e+00,9.348e+00,9.747e+00,1.096e+01,1.086e+01,1.097e+01,1.002e+01,1.042e+01,1.053e+01,1.075e+01,1.164e+01,1.136e+01,1.151e+01,1.120e+01,1.022e+01,1.274e+01,1.172e+01,1.291e+01,1.207e+01,1.127e+01,1.381e+01,1.139e+01,1.427e+01,1.347e+01,1.545e+01,1.528e+01,1.398e+01,1.331e+01,1.415e+01,1.414e+01,1.371e+01,1.543e+01,1.312e+01,1.510e+01,1.298e+01,1.201e+01,1.314e+01,1.313e+01,1.241e+01,1.309e+01
1.133e-01,5.088e-01,3.687e-01,6.950e-01,1.672e+00,1.314e+00,1.045e+00,1.761e+00,1.702e+00,2.178e+00,2.615e+00,2.871e+00,3.870e+00,2.996e+00,3.103e+00,4.429e+00,4.987e+00,5.058e+00,4.705e+00,4.186e+00,6.808e+00,7.016e+00,6.583e+00,5.907e+00,6.069e+00,6.560e+00,6.659e+00,8.693e+00,5.026e+00,7.891e+00,9.446e+00,7.594e+00,9.369e+00,8.862e+00,1.087e+01,9.393e+00,1.041e+01,8.674e+00,1.150e+01,1.053e+01,1.068e+01,1.060e+01,1.426e+01,9.824e+00,1.197e+01,1.303e+01,1.164e+01,1.274e+01,1.307e+01,1.151e+01,1.502e+01,1.315e+01,1.646e+01,1.323e+01,1.337e+01,1.589e+01,1.241e+01,1.569e+01,1.644e+01,1.651e+01,1.760e+01,1.665e+01,1.529e+01,1.686e+01,1.688e+01,1.553e+01,1.801e+01,1.605e+01,1.799e+01,1.515e+01,1.622e+01,1.663e+01,1.458e+01,1.456e+01,1.473e+01
9.423e-03,1.693e-01,5.984e-01,6.981e-01,1.556e+00,1.785e+00,1.137e+00,1.737e+00,1.846e+00,2.656e+00,2.555e+00,3.178e+00,2.881e+00,2.696e+00,3.146e+00,3.848e+00,3.994e+00,4.004e+00,4.011e+00,3.341e+00,5.559e+00,5.531e+00,6.120e+00,5.086e+00,4.866e+00,5.925e+00,6.666e+00,7.779e+00,5.377e+00,6.353e+00,7.762e+00,8.292e+00,8.932e+00,7.232e+00,8.795e+00,7.478e+00,9.557e+00,9.280e+00,1.093e+01,1.098e+01,1.108e+01,1.035e+01,1.162e+01,1.029e+01,1.033e+01,1.143e+01,1.058e+01,1.158e+01,1.129e+01,9.396e+00,1.189e+01,1.211e+01,1.621e+01,1.265e+01,1.153e+01,1.507e+01,1.166e+01,1.336e+01,1.618e+01,1.562e+01,1.589e+01,1.517e+01,1.410e+01,1.717e+01,1.611e+01,1.589e+01,1.395e+01,1.510e+01,1.561e+01,1.375e+01,1.434e+01,1.399e+01,1.389e+01,1.556e+01,1.465e+01
1.009e-02,1.293e-01,4.002e-01,3.433e-01,1.168e+00,1.075e+00,1.003e+00,1.525e+00,1.200e+00,2.102e+00,2.175e+00,2.566e+00,2.977e+00,3.122e+00,2.080e+00,3.396e+00,4.417e+00,3.463e+00,3.418e+00,4.181e+00,5.823e+00,5.287e+00,6.194e+00,4.546e+00,5.447e+00,5.506e+00,5.618e+00,8.124e+00,4.963e+00,6.392e+00,8.562e+00,7.442e+00,9.462e+00,7.870e+00,9.942e+00,8.435e+00,9.531e+00,8.732e+00,1.157e+01,1.093e+01,9.864e+00,9.947e+00,1.337e+01,9.997e+00,1.141e+01,1.207e+01,1.017e+01,1.081e+01,1.093e+01,9.550e+00,1.363e+01,1.198e+01,1.551e+01,1.212e+01,1.129e+01,1.459e+01,1.152e+01,1.415e+01,1.521e+01,1.467e+01,1.587e+01,1.446e+01,1.399e+01,1.684e+01,1.537e+01,1.364e+01,1.424e+01,1.493e+01,1.717e+01,1.296e+01,1.379e+01,1.385e+01,1.314e+01,1.500e+01,1.358e+01
1.829e-02,3.789e-01,7.866e-01,7.845e-01,1.804e+00,2.034e+00,1.525e+00,2.700e+00,2.615e+00,3.638e+00,3.646e+00,4.346e+00,4.451e+00,4.643e+00,4.139e+00,5.305e+00,5.551e+00,5.628e+00,5.511e+00,5.046e+00,8.206e+00,8.225e+00,8.031e+00,6.662e+00,6.510e+00,7.855e+00,8.296e+00,1.015e+01,6.226e+00,8.091e+00,9.304e+00,9.179e+00,9.971e+00,8.585e+00,1.096e+01,8.777e+00,1.143e+01,9.738e+00,1.209e+01,1.247e+01,1.122e+01,1.068e+01,1.379e+01,1.024e+01,1.119e+01,1.195e+01,1.259e+01,1.306e+01,1.214e+01,1.195e+01,1.370e+01,1.302e+01,1.594e+01,1.446e+01,1.253e+01,1.814e+01,1.354e+01,1.578e+01,1.611e+01,1.632e+01,1.767e+01,1.660e+01,1.571e+01,1.850e+01,1.779e+01,1.731e+01,1.844e+01,1.805e+01,1.829e+01,1.651e+01,1.639e+01,1.544e+01,1.747e+01,1.647e+01,1.442e+01
7.581e-02,6.662e-01,6.280e-01,9.782e-01,2.713e+00,2.458e+00,1.756e+00,2.217e+00,2.530e+00,3.468e+00,2.806e+00,3.668e+00,3.993e+00,3.671e+00,3.541e+00,5.061e+00,5.079e+00,5.043e+00,4.836e+00,4.824e+00,7.781e+00,7.375e+00,7.481e+00,6.054e+00,6.843e+00,6.746e+00,7.726e+00,8.674e+00,5.783e+00,7.605e+00,8.913e+00,8.655e+00,9.818e+00,8.034e+00,1.052e+01,8.946e+00,1.001e+01,8.055e+00,1.127e+01,1.127e+01,1.091e+01,1.036e+01,1.251e+01,8.997e+00,1.075e+01,1.207e+01,1.232e+01,1.195e+01,1.301e+01,1.095e+01,1.362e+01,1.313e+01,1.580e+01,1.370e+01,1.329e+01,1.610e+01,1.206e+01,1.551e+01,1.472e+01,1.617e+01,1.591e+01,1.745e+01,1.475e+01,1.778e+01,1.746e+01,1.657e+01,1.770e+01,1.719e+01,1.683e+01,1.694e+01,1.609e+01,1.644e+01,1.541e+01,1.601e+01,1.557e+01
3.137e-02,2.442e-01,5.226e-01,6.676e-01,1.649e+00,1.658e+00,1.051e+00,1.211e+00,1.365e+00,2.028e+00,2.150e+00,3.053e+00,3.302e+00,3.157e+00,2.277e+00,2.891e+00,3.893e+00,3.927e+00,3.565e+00,3.994e+00,5.419e+00,4.976e+00,5.423e+00,4.909e+00,4.854e+00,5.155e+00,6.256e+00,6.607e+00,5.102e+00,6.713e+00,7.293e+00,7.801e+00,8.850e+00,7.207e+00,8.966e+00,7.957e+00,1.068e+01,8.942e+00,1.121e+01,1.163e+01,1.128e+01,1.012e+01,1.236e+01,1.065e+01,1.166e+01,1.271e+01,1.350e+01,1.274e+01,1.307e+01,1.149e+01,1.491e+01,1.410e+01,1.700e+01,1.398e+01,1.353e+01,1.755e+01,1.211e+01,1.547e+01,1.604e+01,1.794e+01,1.644e+01,1.587e+01,1.605e+01,1.865e+01,1.674e+01,1.628e+01,1.766e+01,1.749e+01,1.940e+01,1.742e+01,1.813e+01,1.697e+01,1.678e+01,1.752e+01,1.684e+01
1.352e-01,4.254e-01,1.552e-01,8.903e-01,2.315e+00,1.940e+00,1.974e+00,3.408e+00,3.185e+00,3.977e+00,3.221e+00,4.439e+00,4.409e+00,4.690e+00,3.389e+00,4.418e+00,5.737e+00,4.525e+00,4.172e+00,4.883e+00,7.662e+00,7.660e+00,7.177e+00,5.630e+00,6.090e+00,5.514e+00,6.667e+00,8.563e+00,5.857e+00,6.949e+00,8.147e+00,7.681e+00,1.028e+01,8.647e+00,1.015e+01,8.276e+00,9.243e+00,8.599e+00,1.246e+01,1.143e+01,1.066e+01,1.060e+01,1.244e+01,1.079e+01,1.162e+01,1.293e+01,1.189e+01,1.265e+01,1.282e+01,1.227e+01,1.490e+01,1.469e+01,1.693e+01,1.398e+01,1.114e+01,1.675e+01,1.200e+01,1.565e+01,1.530e+01,1.552e+01,1.716e+01,1.612e+01,1.546e+01,1.756e+01,1.686e+01,1.494e+01,1.740e+01,1.635e+01,1.779e+01,1.493e+01,1.805e+01,1.654e+01,1.684e+01,1.638e+01,1.604e+01
9.780e-02,7.045e-01,5.541e-01,9.969e-01,2.642e+00,2.400e+00,1.923e+00,2.278e+00,2.223e+00,2.999e+00,2.033e+00,3.679e+00,3.800e+00,3.373e+00,3.595e+00,4.473e+00,4.664e+00,4.228e+00,3.828e+00,4.158e+00,7.570e+00,6.926e+00,6.855e+00,5.201e+00,5.980e+00,5.843e+00,6.738e+00,7.527e+00,5.010e+00,7.091e+00,8.007e+00,7.472e+00,8.916e+00,7.365e+00,9.448e+00,8.671e+00,9.934e+00,8.732e+00,1.074e+01,1.071e+01,1.017e+01,9.527e+00,1.128e+01,9.653e+00,1.107e+01,1.238e+01,1.122e+01,1.208e+01,1.253e+01,1.003e+01,1.292e+01,1.165e+01,1.553e+01,1.298e+01,1.170e+01,1.552e+01,1.208e+01,1.419e+01,1.521e+01,1.498e+01,1.533e+01,1.477e+01,1.261e+01,1.761e+01,1.649e+01,1.656e+01,1.689e+01,1.777e+01,1.653e+01,1.651e+01,1.655e+01,1.718e+01,1.531e+01,1.664e+01,1.584e+01
2.484e-02,4.886e-01,7.057e-01,8.026e-01,2.185e+00,2.127e+00,1.386e+00,1.811e+00,1.804e+00,3.035e+00,2.441e+00,3.027e+00,3.115e+00,2.525e+00,3.079e+00,4.851e+00,4.238e+00,3.865e+00,4.367e+00,4.572e+00,6.545e+00,5.762e+00,6.736e+00,5.933e+00,5.796e+00,6.157e+00,7.053e+00,9.440e+00,5.570e+00,6.757e+00,8.460e+00,7.909e+00,1.098e+01,8.400e+00,1.114e+01,9.997e+00,1.095e+01,1.061e+01,1.203e+01,1.297e+01,1.248e+01,1.173e+01,1.399e+01,1.115e+01,1.210e+01,1.301e+01,1.137e+01,1.286e+01,1.364e+01,1.075e+01,1.540e+01,1.334e+01,1.813e+01,1.315e+01,1.337e+01,1.653e+01,1.380e+01,1.512e+01,1.702e+01,1.682e+01,1.709e+01,1.709e+01,1.472e+01,2.063e+01,1.695e+01,1.804e+01,1.604e+01,1.880e+01,2.047e+01,1.835e+01,1.799e+01,1.852e+01,1.838e+01,1.943e+01,1.777e+01
8.992e-02,4.610e-01,5.542e-01,9.543e-01,2.161e+00,2.131e+00,1.747e+00,2.630e+00,2.100e+00,3.064e+00,2.376e+00,3.851e+00,3.626e+00,3.758e+00,3.351e+00,4.048e+00,4.845e+00,3.934e+00,3.382e+00,4.162e+00,6.726e+00,6.132e+00,6.071e+00,4.626e+00,5.616e+00,5.553e+00,6.242e+00,7.999e+00,5.705e+00,5.947e+00,7.822e+00,7.811e+00,9.492e+00,7.876e+00,8.627e+00,8.837e+00,9.452e+00,9.328e+00,1.160e+01,1.160e+01,1.037e+01,1.041e+01,1.152e+01,9.737e+00,1.067e+01,1.097e+01,1.105e+01,1.151e+01,1.203e+01,1.047e+01,1.382e+01,1.394e+01,1.541e+01,1.327e+01,1.111e+01,1.629e+01,1.230e+01,1.401e+01,1.512e+01,1.534e+01,1.647e+01,1.564e+01,1.378e+01,1.857e+01,1.670e+01,1.653e+01,1.582e+01,1.769e+01,1.839e+01,1.635e+01,1.585e+01,1.616e+01,1.641e+01,1.724e+01,1.680e+01
1.133e-01,9.041e-01,1.019e+00,1.136e+00,2.164e+00,2.203e+00,1.559e+00,2.743e+00,2.081e+00,2.986e+00,2.295e+00,3.849e+00,3.742e+00,3.084e+00,2.742e+00,3.873e+00,3.918e+00,3.985e+00,4.649e+00,3.971e+00,6.186e+00,5.676e+00,5.340e+00,5.374e+00,5.255e+00,5.930e+00,5.678e+00,7.878e+00,5.020e+00,5.316e+00,7.427e+00,6.522e+00,8.727e+00,8.073e+00,8.752e+00,8.512e+00,9.768e+00,7.956e+00,1.012e+01,9.957e+00,9.802e+00,1.171e+01,1.207e+01,9.157e+00,1.155e+01,1.129e+01,1.209e+01,1.209e+01,1.221e+01,1.035e+01,1.431e+01,1.258e+01,1.553e+01,1.187e+01,1.321e+01,1.559e+01,1.263e+01,1.428e+01,1.353e+01,1.482e+01,1.472e+01,1.538e+01,1.318e+01,1.779e+01,1.503e+01,1.419e+01,1.532e+01,1.641e+01,1.861e+01,1.604e+01,1.646e+01,1.884e+01,1.529e+01,1.622e+01,1.571e+01
1.070e-01,4.259e-01,3.107e-01,7.010e-01,1.743e+00,1.424e+00,1.240e+00,1.656e+00,1.397e+00,1.910e+00,1.942e+00,2.786e+00,3.309e+00,2.416e+00,2.924e+00,3.369e+00,4.147e+00,3.439e+00,3.289e+00,3.942e+00,6.167e+00,6.086e+00,6.855e+00,5.504e+00,5.169e+00,5.323e+00,6.400e+00,8.339e+00,5.463e+00,6.640e+00,7.806e+00,7.590e+00,8.428e+00,6.916e+00,8.766e+00,7.542e+00,8.659e+00,8.427e+00,1.105e+01,1.018e+01,1.090e+01,9.690e+00,1.118e+01,9.382e+00,1.074e+01,1.225e+01,1.126e+01,1.250e+01,1.163e+01,1.059e+01,1.370e+01,1.327e+01,1.538e+01,1.277e+01,1.160e+01,1.681e+01,1.287e+01,1.429e+01,1.603e+01,1.640e+01,1.612e+01,1.511e+01,1.494e+01,1.690e+01,1.545e+01,1.553e+01,1.602e+01,1.540e+01,1.774e+01,1.524e+01,1.600e+01,1.784e+01,1.641e+01,1.784e+01,1.678e+01
1.000e-01,5.297e-01,4.668e-01,8.784e-01,1.922e+00,1.768e+00,1.191e+00,1.857e+00,1.995e+00,2.512e+00,2.693e+00,3.573e+00,4.450e+00,3.700e+00,4.180e+00,5.243e+00,5.581e+00,5.441e+00,4.478e+00,4.669e+00,7.485e+00,7.338e+00,7.324e+00,6.363e+00,6.269e+00,6.663e+00,7.903e+00,9.262e+00,6.084e+00,8.118e+00,8.254e+00,9.176e+00,8.588e+00,7.909e+00,9.451e+00,8.463e+00,9.062e+00,8.356e+00,1.104e+01,1.020e+01,1.077e+01,9.947e+00,1.201e+01,8.839e+00,1.052e+01,1.164e+01,1.182e+01,1.160e+01,1.270e+01,1.018e+01,1.333e+01,1.293e+01,1.550e+01,1.326e+01,1.268e+01,1.585e+01,1.210e+01,1.418e+01,1.453e+01,1.614e+01,1.446e+01,1.577e+01,1.401e+01,1.624e+01,1.626e+01,1.548e+01,1.574e+01,1.541e+01,1.750e+01,1.569e+01,1.714e+01,1.772e+01,1.715e+01,1.776e+01,1.755e+01
4.464e-02,6.347e-01,8.631e-01,7.094e-01,2.182e+00,1.934e+00,1.390e+00,1.098e+00,1.060e+00,1.887e+00,2.356e+00,2.823e+00,3.882e+00,2.218e+00,2.971e+00,4.218e+00,3.821e+00,4.114e+00,4.299e+00,4.113e+00,6.135e+00,5.666e+00,6.500e+00,5.955e+00,5.338e+00,6.124e+00,6.038e+00,7.618e+00,3.981e+00,7.124e+00,8.295e+00,7.373e+00,8.646e+00,7.544e+00,1.008e+01,9.096e+00,1.019e+01,8.730e+00,1.119e+01,1.046e+01,1.096e+01,9.254e+00,1.249e+01,8.881e+00,9.649e+00,1.197e+01,1.044e+01,1.049e+01,1.357e+01,9.962e+00,1.398e+01,1.274e+01,1.528e+01,1.265e+01,1.302e+01,1.610e+01,1.158e+01,1.394e+01,1.466e+01,1.621e+01,1.450e+01,1.485e+01,1.340e+01,1.640e+01,1.565e+01,1.523e+01,1.487e+01,1.737e+01,1.866e+01,1.640e+01,1.717e+01,1.857e+01,1.596e+01,1.804e+01,1.699e+01
9.644e-02,5.029e-01,4.824e-01,7.586e-01,1.711e+00,1.595e+00,1.460e+00,2.280e+00,1.846e+00,2.393e+00,2.134e+00,3.585e+00,3.910e+00,3.794e+00,2.861e+00,3.711e+00,4.527e+00,3.821e+00,3.672e+00,4.893e+00,6.907e+00,6.753e+00,7.614e+00,5.832e+00,5.817e+00,6.455e+00,7.241e+00,9.673e+00,6.267e+00,6.920e+00,9.330e+00,9.067e+00,9.278e+00,8.689e+00,9.461e+00,8.546e+00,9.332e+00,9.550e+00,1.208e+01,1.147e+01,1.215e+01,1.084e+01,1.326e+01,1.118e+01,1.161e+01,1.300e+01,1.328e+01,1.426e+01,1.460e+01,1.244e+01,1.532e+01,1.581e+01,1.731e+01,1.377e+01,1.338e+01,1.652e+01,1.397e+01,1.555e+01,1.658e+01,1.835e+01,1.654e+01,1.713e+01,1.560e+01,1.860e+01,1.569e+01,1.645e+01,1.643e+01,1.741e+01,1.862e+01,1.715e+01,1.586e+01,1.744e+01,1.635e+01,1.889e+01,1.928e+01
