3.022e-01,3.401e-01,8.526e-01,3.818e-01,1.812e-01,1.954e-01,9.590e-01,7.236e-01,9.246e-01,2.186e-01,4.612e-01,9.896e-01,7.593e-01,9.951e-01,2.842e-01,1.187e-01,1.797e-01,3.111e-01,6.581e-02,3.748e-01,6.926e-01,9.176e-02,9.063e-01,4.147e-01,7.183e-01,9.462e-01,6.082e-03,4.097e-01,6.191e-01,4.716e-01,9.429e-01,9.731e-01,3.722e-01,1.762e-02,3.207e-01,3.036e-01,4.191e-01,5.371e-01,6.551e-01,5.531e-01,5.184e-01,9.612e-02,6.085e-01,6.973e-01,5.642e-02,6.602e-01,9.717e-02,5.113e-01,4.980e-01,3.815e-01,8.998e-01,3.936e-01,7.711e-01,4.670e-01,3.088e-02,4.422e-01,2.000e-01,8.900e-01,5.555e-01,3.959e-01,1.629e-01,9.749e-01,6.050e-04,7.517e-01,1.335e-01,4.212e-01,6.548e-01,4.692e-01,4.885e-01,2.003e-02,9.748e-01,8.173e-01,3.241e-01,7.481e-01,3.856e-01,5.746e-01,7.757e-01,6.257e-01,3.332e-01,3.698e-01,2.436e-01,7.336e-01,3.333e-01,7.334e-03,8.507e-01,2.616e-01,3.757e-01,7.837e-01,1.943e-01,7.179e-01,1.069e-01
1.355e-02,1.184e-01,5.898e-01,7.637e-01,7.971e-01,6.545e-01,3.929e-01,8.490e-01,4.546e-01,3.572e-01,4.989e-02,8.107e-01,5.031e-01,1.421e-01,8.302e-01,7.743e-01,2.175e-01,3.659e-01,6.543e-01,2.449e-01,2.302e-01,9.905e-01,6.605e-02,5.406e-01,8.314e-01,2.224e-01,8.726e-01,9.348e-01,1.134e-01,7.417e-01,9.685e-01,9.101e-01,6.685e-01,7.492e-01,8.613e-01,2.568e-01,5.011e-01,3.216e-01,3.379e-01,1.282e-01,5.936e-01,1.014e-01,8.256e-01,6.451e-01,2.781e-01,8.014e-01,7.273e-01,1.022e+00,8.924e-01,5.592e-01,4.212e-01,1.009e+00,8.874e-01,1.239e-01,1.552e-01,3.112e-01,4.990e-01,1.384e-01,7.764e-01,6.035e-01,5.089e-01,9.783e-01,6.617e-01,8.180e-02,6.941e-01,8.747e-01,6.662e-01,5.930e-01,1.751e-01,6.164e-01,3.349e-01,5.635e-01,5.909e-01,2.139e-01,5.339e-01,7.629e-01,3.862e-01,6.773e-01,5.252e-01,3.395e-01,3.450e-01,2.826e-01,9.815e-01,1.778e-01,7.667e-01,6.754e-01,8.095e-01,9.971e-01,2.181e-01,1.701e-01,7.563e-01
2.066e-01,2.954e-01,1.850e+00,1.281e+00,1.511e+00,9.587e-01,1.169e+00,1.513e+00,1.772e+00,1.289e+00,5.301e-01,1.601e+00,1.581e+00,1.350e+00,1.058e+00,8.227e-01,2.618e-01,1.122e+00,7.396e-01,1.195e+00,7.856e-01,1.641e+00,9.994e-01,7.609e-01,1.715e+00,1.207e+00,1.148e+00,1.680e+00,7.117e-01,1.320e+00,1.755e+00,1.763e+00,1.284e+00,8.087e-01,8.588e-01,1.196e+00,1.111e+00,8.411e-01,1.633e+00,1.180e+00,1.335e+00,3.251e-01,1.113e+00,9.814e-01,1.124e+00,1.715e+00,1.407e+00,1.436e+00,1.401e+00,9.683e-01,1.424e+00,1.012e+00,1.970e+00,4.883e-01,1.104e+00,5.119e-01,6.729e-01,1.296e+00,1.427e+00,1.295e+00,8.010e-01,1.441e+00,1.311e+00,8.922e-01,1.109e+00,1.405e+00,1.713e+00,1.077e+00,1.392e+00,1.339e+00,1.788e+00,1.515e+00,1.415e+00,1.177e+00,1.545e+00,8.564e-01,1.312e+00,1.596e+00,1.081e+00,6.504e-01,4.348e-01,8.783e-01,1.373e+00,1.733e-01,1.162e+00,6.394e-01,8.264e-01,1.505e+00,9.346e-01,6.006e-01,1.452e+00
1.534e-01,2.478e-01,1.212e+00,1.310e+00,1.937e+00,8.205e-01,1.736e+00,1.577e+00,1.884e+00,9.777e-01,1.138e+00,1.957e+00,1.327e+00,1.287e+00,9.140e-01,1.176e+00,9.213e-01,8.282e-01,1.114e+00,7.909e-01,1.336e+00,1.199e+00,7.555e-01,1.311e+00,1.937e+00,1.212e+00,1.147e+00,2.023e+00,1.007e+00,1.966e+00,2.338e+00,2.163e+00,1.475e+00,9.364e-01,1.505e+00,1.084e+00,1.459e+00,1.082e+00,1.350e+00,9.195e-01,1.157e+00,3.580e-01,1.212e+00,1.469e+00,1.343e+00,1.335e+00,1.020e+00,1.313e+00,1.131e+00,8.450e-01,1.379e+00,1.854e+00,1.394e+00,7.162e-01,6.452e-01,8.943e-01,1.047e+00,1.436e+00,1.730e+00,1.517e+00,1.389e+00,2.008e+00,8.509e-01,7.965e-01,1.241e+00,1.213e+00,2.088e+00,1.705e+00,1.266e+00,9.134e-01,1.223e+00,1.227e+00,9.678e-01,1.209e+00,1.862e+00,1.046e+00,1.271e+00,1.145e+00,1.759e+00,1.032e+00,1.253e+00,8.398e-01,1.644e+00,4.967e-01,1.143e+00,1.365e+00,1.555e+00,1.255e+00,8.934e-01,5.638e-01,1.693e+00
2.966e-01,4.267e-01,2.086e+00,1.832e+00,2.776e+00,1.538e+00,2.878e+00,2.987e+00,2.934e+00,2.108e+00,2.096e+00,3.516e+00,2.785e+00,2.864e+00,2.285e+00,2.178e+00,1.211e+00,2.271e+00,1.965e+00,2.150e+00,1.835e+00,2.272e+00,1.768e+00,2.566e+00,3.221e+00,2.551e+00,2.054e+00,2.919e+00,1.565e+00,3.353e+00,3.957e+00,3.124e+00,2.151e+00,1.297e+00,2.439e+00,2.255e+00,2.611e+00,1.689e+00,2.179e+00,1.663e+00,2.483e+00,1.491e+00,2.039e+00,2.596e+00,2.470e+00,2.794e+00,1.686e+00,2.554e+00,2.224e+00,2.111e+00,2.393e+00,3.088e+00,2.533e+00,1.608e+00,1.995e+00,1.180e+00,1.818e+00,2.158e+00,3.258e+00,2.917e+00,2.408e+00,2.948e+00,2.260e+00,1.592e+00,2.414e+00,2.071e+00,2.988e+00,2.831e+00,2.080e+00,2.350e+00,2.330e+00,2.318e+00,1.974e+00,2.134e+00,2.875e+00,2.027e+00,2.678e+00,2.169e+00,2.986e+00,1.443e+00,2.374e+00,2.201e+00,3.112e+00,7.015e-01,2.660e+00,2.480e+00,1.958e+00,2.342e+00,1.556e+00,1.259e+00,3.162e+00
2.945e-01,3.517e-01,1.764e+00,1.298e+00,2.049e+00,1.211e+00,3.069e+00,2.438e+00,2.742e+00,2.157e+00,2.653e+00,3.373e+00,2.709e+00,2.910e+00,2.280e+00,1.796e+00,1.613e+00,2.292e+00,1.303e+00,2.125e+00,1.922e+00,1.495e+00,1.851e+00,2.701e+00,3.387e+00,3.110e+00,1.959e+00,2.161e+00,1.645e+00,3.398e+00,3.456e+00,2.574e+00,2.154e+00,1.520e+00,1.780e+00,2.773e+00,2.619e+00,1.668e+00,2.647e+00,1.626e+00,2.780e+00,1.654e+00,1.909e+00,2.413e+00,2.007e+00,2.394e+00,2.076e+00,2.590e+00,2.074e+00,1.981e+00,2.264e+00,2.519e+00,1.905e+00,2.153e+00,2.115e+00,1.374e+00,2.164e+00,2.984e+00,3.088e+00,2.820e+00,1.696e+00,2.379e+00,1.861e+00,1.979e+00,2.345e+00,1.436e+00,2.897e+00,2.794e+00,2.631e+00,2.579e+00,2.106e+00,2.570e+00,2.395e+00,1.930e+00,2.617e+00,1.848e+00,2.876e+00,2.165e+00,2.366e+00,2.008e+00,1.684e+00,2.186e+00,2.730e+00,1.332e+00,2.705e+00,2.374e+00,1.701e+00,2.060e+00,1.769e+00,1.594e+00,2.683e+00
2.103e-01,3.307e-01,1.101e+00,9.910e-01,1.100e+00,9.165e-01,1.799e+00,2.572e+00,2.136e+00,1.585e+00,1.339e+00,2.464e+00,2.024e+00,1.569e+00,1.653e+00,1.636e+00,1.389e+00,1.799e+00,9.977e-01,1.881e+00,1.506e+00,1.697e+00,9.883e-01,2.336e+00,2.196e+00,2.182e+00,2.113e+00,2.157e+00,1.252e+00,2.191e+00,2.573e+00,2.304e+00,1.963e+00,8.790e-01,1.840e+00,1.528e+00,1.914e+00,1.524e+00,1.862e+00,1.549e+00,1.413e+00,1.342e+00,2.128e+00,1.784e+00,1.120e+00,2.474e+00,1.130e+00,2.020e+00,2.127e+00,1.254e+00,1.622e+00,1.800e+00,1.606e+00,1.014e+00,7.095e-01,8.497e-01,1.201e+00,1.141e+00,2.109e+00,2.068e+00,1.337e+00,2.370e+00,1.115e+00,1.195e+00,1.234e+00,1.303e+00,1.706e+00,2.204e+00,1.496e+00,1.207e+00,1.475e+00,1.579e+00,1.485e+00,1.587e+00,1.343e+00,1.715e+00,1.654e+00,1.872e+00,1.539e+00,1.478e+00,1.505e+00,1.701e+00,2.019e+00,3.697e-01,2.173e+00,2.268e+00,1.463e+00,2.612e+00,1.326e+00,8.601e-01,1.604e+00
1.391e-01,2.579e-01,1.320e+00,1.367e+00,2.046e+00,1.370e+00,2.545e+00,3.128e+00,2.933e+00,2.322e+00,2.895e+00,3.537e+00,3.396e+00,2.751e+00,3.058e+00,2.695e+00,2.233e+00,2.321e+00,1.774e+00,2.242e+00,1.765e+00,2.903e+00,1.707e+00,3.262e+00,3.215e+00,3.074e+00,3.272e+00,3.391e+00,1.714e+00,3.456e+00,3.942e+00,3.570e+00,2.495e+00,2.047e+00,2.531e+00,2.967e+00,2.622e+00,1.725e+00,2.487e+00,2.285e+00,3.204e+00,2.114e+00,2.516e+00,3.385e+00,2.124e+00,3.244e+00,2.292e+00,3.213e+00,3.334e+00,2.104e+00,2.040e+00,3.665e+00,2.368e+00,1.817e+00,1.800e+00,1.401e+00,2.404e+00,2.783e+00,4.040e+00,3.186e+00,2.007e+00,3.505e+00,2.408e+00,2.441e+00,2.554e+00,2.273e+00,2.671e+00,3.601e+00,2.510e+00,2.752e+00,2.296e+00,2.323e+00,2.955e+00,2.380e+00,2.824e+00,2.369e+00,2.933e+00,2.757e+00,2.460e+00,2.306e+00,2.374e+00,2.631e+00,3.068e+00,1.497e+00,2.807e+00,3.788e+00,2.612e+00,3.005e+00,2.217e+00,1.410e+00,2.888e+00
8.820e-02,9.941e-02,3.088e-01,3.219e-01,6.902e-01,4.939e-01,2.022e+00,2.205e+00,3.151e+00,2.797e+00,3.813e+00,2.899e+00,2.913e+00,2.681e+00,2.971e+00,1.911e+00,3.393e+00,2.071e+00,8.338e-01,1.974e+00,2.311e+00,1.901e+00,1.657e+00,3.921e+00,2.345e+00,3.657e+00,3.395e+00,2.742e+00,2.447e+00,2.909e+00,3.502e+00,2.645e+00,2.476e+00,1.799e+00,2.169e+00,2.924e+00,2.520e+00,2.167e+00,3.228e+00,2.614e+00,3.153e+00,2.874e+00,2.793e+00,3.576e+00,1.426e+00,3.241e+00,1.641e+00,3.061e+00,2.990e+00,2.023e+00,1.573e+00,2.548e+00,1.830e+00,2.091e+00,1.978e+00,1.892e+00,2.152e+00,3.445e+00,3.905e+00,2.448e+00,1.524e+00,3.469e+00,1.532e+00,3.011e+00,1.694e+00,1.872e+00,2.023e+00,4.032e+00,2.434e+00,2.598e+00,2.235e+00,2.060e+00,2.811e+00,2.551e+00,2.399e+00,2.041e+00,2.515e+00,2.674e+00,2.120e+00,2.397e+00,2.147e+00,2.220e+00,2.588e+00,1.717e+00,2.627e+00,3.804e+00,2.049e+00,2.656e+00,2.633e+00,2.058e+00,2.347e+00
1.120e-01,1.728e-01,1.086e+00,1.024e+00,1.800e+00,9.744e-01,1.816e+00,2.063e+00,1.986e+00,1.935e+00,2.057e+00,2.714e+00,2.873e+00,2.038e+00,2.731e+00,2.039e+00,1.290e+00,2.271e+00,1.493e+00,2.462e+00,1.850e+00,2.035e+00,1.275e+00,2.848e+00,2.627e+00,2.309e+00,1.769e+00,2.653e+00,1.990e+00,2.923e+00,3.263e+00,2.537e+00,1.629e+00,1.579e+00,2.448e+00,2.395e+00,1.883e+00,1.369e+00,1.592e+00,1.324e+00,1.873e+00,2.266e+00,1.611e+00,2.558e+00,2.111e+00,2.420e+00,1.554e+00,2.737e+00,2.117e+00,1.824e+00,2.112e+00,2.747e+00,2.425e+00,2.002e+00,2.199e+00,1.061e+00,2.001e+00,1.734e+00,3.206e+00,2.246e+00,2.010e+00,2.040e+00,2.041e+00,1.407e+00,2.095e+00,1.540e+00,2.481e+00,2.628e+00,1.756e+00,2.748e+00,2.449e+00,1.625e+00,2.288e+00,1.687e+00,2.346e+00,1.778e+00,2.271e+00,2.289e+00,2.784e+00,1.246e+00,2.683e+00,2.556e+00,2.718e+00,1.350e+00,2.522e+00,2.847e+00,2.190e+00,1.817e+00,1.820e+00,1.361e+00,2.444e+00
2.092e-01,2.495e-01,7.489e-01,7.051e-01,1.234e+00,6.192e-01,2.351e+00,2.290e+00,2.587e+00,1.852e+00,2.936e+00,3.406e+00,2.672e+00,3.100e+00,2.525e+00,1.862e+00,2.837e+00,1.941e+00,1.758e+00,2.857e+00,2.146e+00,2.385e+00,1.482e+00,3.711e+00,2.974e+00,3.203e+00,2.984e+00,2.574e+00,2.936e+00,3.495e+00,4.187e+00,2.867e+00,2.871e+00,1.445e+00,2.299e+00,2.470e+00,2.521e+00,1.774e+00,2.920e+00,2.606e+00,2.493e+00,2.072e+00,2.842e+00,3.290e+00,1.701e+00,2.965e+00,1.691e+00,2.888e+00,2.864e+00,2.348e+00,2.537e+00,2.605e+00,2.395e+00,1.873e+00,1.628e+00,1.719e+00,2.603e+00,2.586e+00,3.477e+00,3.073e+00,2.105e+00,2.755e+00,1.219e+00,2.138e+00,2.334e+00,1.492e+00,2.314e+00,3.229e+00,2.548e+00,1.969e+00,2.367e+00,1.872e+00,2.708e+00,2.710e+00,2.314e+00,1.834e+00,2.731e+00,2.952e+00,2.835e+00,2.362e+00,2.798e+00,3.055e+00,2.471e+00,1.230e+00,3.240e+00,3.190e+00,2.628e+00,3.059e+00,2.456e+00,1.828e+00,2.583e+00
6.721e-02,9.514e-02,7.555e-01,7.249e-01,1.339e+00,7.402e-01,2.111e+00,2.238e+00,2.908e+00,2.943e+00,3.261e+00,3.905e+00,3.130e+00,2.922e+00,3.481e+00,2.971e+00,3.408e+00,2.810e+00,1.603e+00,3.978e+00,3.021e+00,3.201e+00,1.842e+00,5.211e+00,4.064e+00,4.067e+00,3.539e+00,3.926e+00,4.083e+00,4.452e+00,4.758e+00,2.842e+00,3.640e+00,2.953e+00,3.124e+00,3.419e+00,3.639e+00,2.535e+00,3.804e+00,2.527e+00,2.654e+00,3.624e+00,3.306e+00,4.211e+00,2.385e+00,3.747e+00,2.551e+00,4.039e+00,3.731e+00,2.729e+00,3.107e+00,3.138e+00,2.973e+00,3.472e+00,2.751e+00,2.404e+00,2.880e+00,3.573e+00,4.429e+00,3.721e+00,2.382e+00,2.955e+00,1.795e+00,3.008e+00,3.252e+00,1.872e+00,3.045e+00,4.392e+00,3.664e+00,4.158e+00,3.233e+00,2.682e+00,3.816e+00,3.054e+00,2.808e+00,2.152e+00,3.133e+00,4.138e+00,3.840e+00,2.705e+00,3.278e+00,3.267e+00,3.710e+00,1.973e+00,3.846e+00,4.239e+00,3.051e+00,3.052e+00,3.722e+00,3.048e+00,3.082e+00
1.183e-01,1.418e-01,1.171e+00,8.607e-01,1.546e+00,9.998e-01,2.556e+00,2.941e+00,3.195e+00,2.895e+00,3.542e+00,4.315e+00,4.391e+00,4.764e+00,3.898e+00,3.269e+00,3.493e+00,3.128e+00,2.451e+00,4.717e+00,2.510e+00,4.948e+00,2.456e+00,5.666e+00,5.131e+00,4.887e+00,4.431e+00,4.854e+00,3.715e+00,5.462e+00,5.550e+00,3.552e+00,4.387e+00,3.704e+00,3.426e+00,4.466e+00,3.773e+00,2.522e+00,4.877e+00,3.881e+00,3.599e+00,3.270e+00,3.518e+00,4.580e+00,2.815e+00,4.975e+00,4.042e+00,4.353e+00,5.282e+00,3.115e+00,3.639e+00,3.656e+00,3.882e+00,3.600e+00,3.392e+00,2.569e+00,3.730e+00,4.040e+00,4.914e+00,4.939e+00,2.740e+00,3.394e+00,2.573e+00,3.505e+00,4.625e+00,2.369e+00,3.185e+00,5.138e+00,5.118e+00,4.896e+00,3.836e+00,3.194e+00,4.967e+00,3.956e+00,3.983e+00,2.525e+00,4.437e+00,5.440e+00,3.829e+00,3.451e+00,3.656e+00,4.350e+00,4.135e+00,2.884e+00,4.552e+00,4.943e+00,4.144e+00,4.695e+00,4.411e+00,2.574e+00,3.445e+00
2.678e-01,3.026e-01,1.644e+00,9.781e-01,1.523e+00,1.064e+00,2.746e+00,3.274e+00,3.910e+00,3.525e+00,3.802e+00,4.285e+00,4.814e+00,4.639e+00,4.721e+00,3.446e+00,3.609e+00,3.770e+00,2.116e+00,4.757e+00,3.492e+00,4.331e+00,3.809e+00,6.241e+00,4.656e+00,5.624e+00,4.564e+00,4.636e+00,3.639e+00,5.238e+00,5.573e+00,4.500e+00,4.107e+00,3.857e+00,3.599e+00,5.406e+00,4.433e+00,3.291e+00,4.735e+00,4.591e+00,4.619e+00,4.170e+00,3.597e+00,5.212e+00,3.695e+00,5.244e+00,3.920e+00,5.201e+00,5.571e+00,3.779e+00,4.410e+00,4.373e+00,4.489e+00,3.652e+00,3.858e+00,3.266e+00,3.061e+00,4.562e+00,5.846e+00,4.103e+00,3.313e+00,3.874e+00,3.539e+00,4.453e+00,3.627e+00,3.210e+00,4.341e+00,6.034e+00,4.679e+00,5.480e+00,5.235e+00,3.782e+00,5.124e+00,4.017e+00,4.014e+00,3.429e+00,4.573e+00,5.685e+00,4.005e+00,3.533e+00,3.631e+00,4.886e+00,4.494e+00,3.246e+00,4.963e+00,5.388e+00,4.241e+00,4.308e+00,4.358e+00,3.640e+00,3.916e+00
2.408e-01,2.716e-01,1.246e+00,9.558e-01,1.585e+00,5.958e-01,2.105e+00,1.987e+00,2.649e+00,1.914e+00,2.368e+00,3.433e+00,2.910e+00,3.089e+00,2.623e+00,2.569e+00,2.955e+00,2.189e+00,2.433e+00,3.890e+00,2.800e+00,3.683e+00,2.183e+00,4.886e+00,3.857e+00,3.629e+00,3.454e+00,3.870e+00,4.395e+00,3.957e+00,4.914e+00,4.069e+00,3.291e+00,3.300e+00,3.169e+00,3.380e+00,3.179e+00,2.849e+00,3.681e+00,3.389e+00,2.576e+00,2.891e+00,3.295e+00,4.426e+00,2.932e+00,4.009e+00,3.117e+00,3.282e+00,3.877e+00,2.801e+00,4.009e+00,2.986e+00,3.892e+00,3.528e+00,2.912e+00,2.503e+00,2.768e+00,3.248e+00,4.038e+00,3.993e+00,2.647e+00,2.753e+00,2.327e+00,2.647e+00,3.465e+00,2.637e+00,3.439e+00,4.405e+00,4.067e+00,3.886e+00,3.636e+00,3.209e+00,3.269e+00,3.957e+00,3.529e+00,2.323e+00,3.367e+00,4.627e+00,3.780e+00,2.531e+00,3.939e+00,3.601e+00,3.602e+00,2.202e+00,4.037e+00,4.099e+00,4.133e+00,2.769e+00,3.123e+00,2.762e+00,3.040e+00
9.619e-02,2.013e-01,1.469e+00,1.321e+00,1.766e+00,1.245e+00,1.959e+00,2.362e+00,2.885e+00,2.735e+00,2.876e+00,3.959e+00,3.440e+00,3.706e+00,4.219e+00,4.059e+00,3.976e+00,3.208e+00,2.650e+00,4.245e+00,3.339e+00,5.070e+00,3.094e+00,6.277e+00,4.887e+00,4.547e+00,5.162e+00,4.690e+00,4.569e+00,5.121e+00,6.062e+00,4.283e+00,5.182e+00,5.355e+00,4.150e+00,4.779e+00,4.808e+00,2.752e+00,5.062e+00,3.626e+00,4.416e+00,3.940e+00,3.930e+00,5.729e+00,2.818e+00,4.826e+00,4.809e+00,5.306e+00,5.609e+00,3.725e+00,3.926e+00,4.218e+00,4.737e+00,4.112e+00,4.243e+00,3.468e+00,3.787e+00,4.816e+00,5.052e+00,5.012e+00,3.541e+00,4.248e+00,3.256e+00,3.989e+00,4.875e+00,3.609e+00,4.163e+00,5.524e+00,5.210e+00,6.210e+00,3.958e+00,4.133e+00,5.602e+00,4.229e+00,4.790e+00,3.615e+00,4.649e+00,6.035e+00,3.908e+00,3.771e+00,3.527e+00,4.238e+00,5.376e+00,3.322e+00,5.374e+00,5.014e+00,4.866e+00,4.487e+00,4.601e+00,3.705e+00,3.810e+00
7.743e-02,1.605e-01,1.533e+00,1.499e+00,2.350e+00,1.208e+00,2.430e+00,2.766e+00,3.708e+00,3.153e+00,3.362e+00,3.730e+00,3.727e+00,3.611e+00,3.585e+00,2.891e+00,3.886e+00,2.927e+00,2.867e+00,4.230e+00,3.477e+00,5.292e+00,1.960e+00,5.423e+00,4.577e+00,4.237e+00,5.035e+00,5.806e+00,4.444e+00,4.980e+00,6.297e+00,4.930e+00,4.760e+00,4.613e+00,3.971e+00,5.067e+00,4.401e+00,3.508e+00,5.697e+00,3.826e+00,4.168e+00,3.810e+00,3.905e+00,5.353e+00,2.845e+00,5.838e+00,4.158e+00,4.460e+00,5.634e+00,3.326e+00,4.154e+00,4.263e+00,4.977e+00,3.720e+00,4.004e+00,3.383e+00,3.477e+00,4.889e+00,5.342e+00,4.361e+00,3.509e+00,5.077e+00,3.673e+00,3.380e+00,4.089e+00,3.996e+00,4.092e+00,5.779e+00,5.442e+00,4.953e+00,3.530e+00,3.582e+00,5.062e+00,4.658e+00,4.720e+00,2.920e+00,4.533e+00,5.075e+00,4.618e+00,3.468e+00,4.243e+00,3.656e+00,4.803e+00,3.664e+00,4.927e+00,4.801e+00,4.953e+00,4.693e+00,4.361e+00,2.297e+00,4.701e+00
2.496e-01,3.828e-01,1.364e+00,1.230e+00,1.374e+00,1.115e+00,2.469e+00,2.891e+00,3.215e+00,2.734e+00,3.080e+00,4.352e+00,3.876e+00,3.653e+00,4.202e+00,4.058e+00,4.159e+00,3.640e+00,3.292e+00,5.186e+00,4.767e+00,5.301e+00,3.939e+00,7.827e+00,5.361e+00,5.231e+00,5.100e+00,6.489e+00,6.176e+00,5.822e+00,6.542e+00,5.745e+00,5.581e+00,5.917e+00,5.454e+00,5.310e+00,5.314e+00,4.461e+00,5.761e+00,4.162e+00,4.452e+00,5.466e+00,5.089e+00,6.773e+00,2.544e+00,5.764e+00,4.906e+00,6.020e+00,6.883e+00,3.725e+00,5.019e+00,4.519e+00,5.386e+00,5.855e+00,4.774e+00,4.504e+00,4.208e+00,5.787e+00,5.927e+00,5.221e+00,3.695e+00,5.184e+00,3.295e+00,4.555e+00,4.715e+00,4.552e+00,5.127e+00,6.469e+00,6.142e+00,6.415e+00,4.343e+00,4.622e+00,5.879e+00,4.781e+00,4.615e+00,4.131e+00,5.131e+00,6.570e+00,4.867e+00,4.234e+00,5.063e+00,5.066e+00,6.545e+00,4.279e+00,6.992e+00,5.857e+00,6.364e+00,5.685e+00,5.012e+00,4.127e+00,3.922e+00
1.239e-01,1.617e-01,9.723e-01,9.042e-01,1.479e+00,5.985e-01,1.604e+00,1.573e+00,2.994e+00,2.297e+00,3.209e+00,3.386e+00,3.111e+00,3.856e+00,3.442e+00,3.118e+00,4.127e+00,2.084e+00,3.215e+00,4.683e+00,3.861e+00,5.363e+00,3.778e+00,6.766e+00,4.973e+00,4.354e+00,5.009e+00,6.273e+00,6.246e+00,4.728e+00,6.502e+00,5.050e+00,4.942e+00,5.395e+00,4.076e+00,5.226e+00,4.979e+00,4.182e+00,6.060e+00,4.363e+00,4.531e+00,4.682e+00,4.475e+00,7.294e+00,3.128e+00,5.826e+00,4.614e+00,4.588e+00,6.060e+00,4.015e+00,4.351e+00,4.547e+00,5.260e+00,5.098e+00,4.397e+00,4.479e+00,3.641e+00,5.892e+00,5.325e+00,4.624e+00,3.454e+00,4.994e+00,3.201e+00,4.348e+00,4.531e+00,4.205e+00,4.601e+00,6.525e+00,5.340e+00,5.662e+00,4.517e+00,4.418e+00,4.885e+00,5.153e+00,4.834e+00,3.868e+00,4.872e+00,6.092e+00,5.083e+00,3.632e+00,4.688e+00,4.203e+00,5.091e+00,3.916e+00,5.465e+00,4.994e+00,5.740e+00,3.948e+00,5.241e+00,4.141e+00,4.598e+00
3.781e-02,5.361e-02,9.858e-01,6.527e-01,1.165e+00,8.336e-01,1.367e+00,1.839e+00,2.396e+00,2.767e+00,2.930e+00,3.094e+00,3.918e+00,3.656e+00,4.336e+00,3.384e+00,3.375e+00,3.615e+00,2.685e+00,5.740e+00,4.244e+00,5.232e+00,4.332e+00,6.627e+00,4.429e+00,4.690e+00,4.455e+00,5.789e+00,5.640e+00,5.259e+00,6.135e+00,4.716e+00,5.388e+00,5.549e+00,5.082e+00,6.138e+00,5.276e+00,3.686e+00,5.259e+00,4.712e+00,5.032e+00,5.695e+00,4.038e+00,6.595e+00,3.693e+00,5.615e+00,5.157e+00,5.664e+00,6.174e+00,3.876e+00,4.828e+00,5.044e+00,5.907e+00,5.240e+00,5.611e+00,4.093e+00,4.030e+00,5.164e+00,6.112e+00,4.234e+00,4.184e+00,4.756e+00,4.561e+00,4.737e+00,4.825e+00,3.824e+00,4.902e+00,5.850e+00,5.746e+00,7.340e+00,5.323e+00,3.867e+00,6.402e+00,5.100e+00,4.813e+00,3.468e+00,5.412e+00,6.686e+00,5.155e+00,4.002e+00,5.236e+00,5.971e+00,6.221e+00,4.351e+00,6.348e+00,5.740e+00,5.790e+00,4.936e+00,5.289e+00,4.479e+00,4.269e+00
1.006e-01,1.602e-01,9.226e-01,9.178e-01,1.593e+00,8.748e-01,1.714e+00,2.097e+00,2.679e+00,2.473e+00,2.894e+00,3.319e+00,3.156e+00,3.329e+00,4.073e+00,3.883e+00,3.916e+00,3.455e+00,3.752e+00,5.663e+00,5.459e+00,5.877e+00,5.214e+00,8.594e+00,4.464e+00,5.230e+00,6.105e+00,6.644e+00,6.438e+00,5.529e+00,7.048e+00,6.831e+00,5.850e+00,6.609e+00,6.095e+00,7.416e+00,6.451e+00,5.054e+00,6.112e+00,5.873e+00,6.211e+00,7.276e+00,4.583e+00,8.384e+00,5.175e+00,6.396e+00,5.291e+00,6.191e+00,7.656e+00,5.494e+00,6.010e+00,6.562e+00,6.280e+00,6.530e+00,6.506e+00,5.110e+00,3.988e+00,6.064e+00,7.217e+00,4.898e+00,5.154e+00,6.326e+00,5.732e+00,5.993e+00,4.550e+00,5.271e+00,5.946e+00,7.364e+00,6.091e+00,7.754e+00,5.954e+00,4.978e+00,6.148e+00,6.048e+00,5.399e+00,4.966e+00,5.865e+00,6.466e+00,6.450e+00,4.770e+00,6.815e+00,6.733e+00,6.773e+00,5.084e+00,7.431e+00,6.112e+00,7.226e+00,4.541e+00,5.719e+00,4.912e+00,5.595e+00
1.390e-01,2.213e-01,1.162e+00,1.043e+00,1.572e+00,9.977e-01,1.894e+00,2.516e+00,2.489e+00,2.175e+00,2.193e+00,3.316e+00,2.970e+00,3.031e+00,3.119e+00,3.375e+00,3.012e+00,3.189e+00,2.550e+00,4.703e+00,3.679e+00,5.324e+00,3.308e+00,6.157e+00,4.591e+00,4.830e+00,4.773e+00,5.645e+00,4.409e+00,5.227e+00,6.190e+00,5.404e+00,5.134e+00,4.183e+00,5.111e+00,5.084e+00,5.332e+00,3.951e+00,4.355e+00,4.633e+00,4.484e+00,4.688e+00,3.828e+00,6.043e+00,3.554e+00,5.074e+00,4.223e+00,5.276e+00,5.287e+00,4.133e+00,4.594e+00,5.034e+00,5.237e+00,4.570e+00,4.201e+00,3.251e+00,3.689e+00,4.750e+00,5.332e+00,5.135e+00,4.022e+00,4.565e+00,4.139e+00,4.670e+00,4.755e+00,3.966e+00,5.114e+00,5.474e+00,4.750e+00,5.903e+00,3.869e+00,4.070e+00,5.303e+00,4.926e+00,4.819e+00,3.282e+00,5.293e+00,5.389e+00,4.875e+00,3.940e+00,4.772e+00,5.047e+00,5.720e+00,3.384e+00,6.118e+00,5.546e+00,4.905e+00,4.793e+00,4.194e+00,3.610e+00,4.375e+00
9.313e-02,1.540e-01,1.113e+00,9.865e-01,1.642e+00,1.044e+00,1.936e+00,2.253e+00,2.173e+00,2.047e+00,2.323e+00,3.242e+00,2.670e+00,3.081e+00,2.967e+00,2.664e+00,2.860e+00,2.915e+00,3.641e+00,5.684e+00,3.952e+00,5.520e+00,4.942e+00,7.984e+00,4.986e+00,5.441e+00,6.183e+00,6.708e+00,6.159e+00,5.958e+00,6.879e+00,5.908e+00,5.857e+00,5.416e+00,5.337e+00,6.326e+00,5.775e+00,5.076e+00,6.022e+00,5.879e+00,6.094e+00,5.733e+00,5.941e+00,7.282e+00,4.365e+00,5.915e+00,5.605e+00,5.696e+00,6.260e+00,5.166e+00,5.751e+00,5.606e+00,6.297e+00,6.485e+00,6.063e+00,4.292e+00,4.695e+00,5.290e+00,6.818e+00,5.321e+00,3.897e+00,5.422e+00,4.793e+00,4.675e+00,5.362e+00,4.621e+00,6.589e+00,6.608e+00,5.560e+00,6.720e+00,5.130e+00,4.995e+00,5.638e+00,5.881e+00,5.484e+00,4.168e+00,5.748e+00,6.083e+00,6.058e+00,4.627e+00,6.277e+00,6.249e+00,6.428e+00,4.028e+00,7.209e+00,5.705e+00,6.462e+00,5.489e+00,5.674e+00,3.924e+00,5.552e+00
6.830e-03,8.118e-02,7.191e-01,1.007e+00,1.675e+00,7.640e-01,1.369e+00,1.671e+00,2.403e+00,2.251e+00,2.494e+00,2.870e+00,2.408e+00,2.097e+00,3.131e+00,2.970e+00,3.381e+00,2.494e+00,2.415e+00,4.587e+00,4.617e+00,5.057e+00,3.589e+00,8.024e+00,5.121e+00,5.641e+00,6.300e+00,7.021e+00,6.465e+00,5.642e+00,6.870e+00,5.985e+00,6.013e+00,5.754e+00,6.790e+00,5.883e+00,6.221e+00,5.685e+00,5.279e+00,5.756e+00,5.026e+00,6.654e+00,5.385e+00,7.740e+00,5.244e+00,5.732e+00,5.398e+00,6.368e+00,5.757e+00,5.235e+00,5.615e+00,6.275e+00,6.452e+00,5.921e+00,5.080e+00,4.350e+00,4.761e+00,5.748e+00,6.282e+00,5.204e+00,4.740e+00,6.151e+00,5.287e+00,5.354e+00,5.782e+00,4.356e+00,6.559e+00,7.105e+00,4.511e+00,7.192e+00,5.739e+00,5.171e+00,5.189e+00,5.523e+00,6.266e+00,4.129e+00,5.592e+00,6.697e+00,6.650e+00,4.416e+00,6.247e+00,6.219e+00,6.431e+00,4.285e+00,7.144e+00,6.065e+00,6.825e+00,4.818e+00,5.415e+00,4.824e+00,5.824e+00
2.484e-01,3.800e-01,1.343e+00,1.148e+00,1.204e+00,1.007e+00,2.026e+00,2.908e+00,3.115e+00,2.557e+00,2.895e+00,3.999e+00,4.145e+00,3.680e+00,4.216e+00,3.455e+00,3.970e+00,3.250e+00,2.984e+00,6.026e+00,4.738e+00,6.426e+00,4.569e+00,8.906e+00,6.690e+00,7.825e+00,7.086e+00,8.811e+00,7.837e+00,7.148e+00,8.745e+00,7.238e+00,7.508e+00,7.162e+00,6.850e+00,6.979e+00,6.546e+00,6.294e+00,7.107e+00,6.530e+00,5.977e+00,6.677e+00,7.609e+00,8.900e+00,3.755e+00,8.337e+00,6.366e+00,7.006e+00,8.444e+00,5.291e+00,7.179e+00,7.309e+00,8.487e+00,6.892e+00,5.273e+00,5.219e+00,5.899e+00,6.738e+00,7.663e+00,5.767e+00,5.062e+00,8.066e+00,4.980e+00,6.074e+00,6.281e+00,5.948e+00,6.956e+00,8.858e+00,6.508e+00,7.469e+00,6.595e+00,5.867e+00,7.566e+00,7.550e+00,6.843e+00,5.479e+00,7.478e+00,8.312e+00,7.348e+00,5.767e+00,6.591e+00,7.461e+00,7.051e+00,5.159e+00,8.190e+00,7.502e+00,8.547e+00,7.266e+00,7.666e+00,4.971e+00,5.677e+00
1.379e-01,1.583e-01,7.600e-01,7.291e-01,1.364e+00,4.655e-01,1.780e+00,1.708e+00,2.229e+00,1.656e+00,2.296e+00,2.595e+00,2.919e+00,2.800e+00,2.962e+00,2.753e+00,3.033e+00,2.681e+00,2.354e+00,4.277e+00,4.364e+00,4.011e+00,3.849e+00,7.132e+00,4.172e+00,5.542e+00,5.377e+00,6.164e+00,5.543e+00,6.146e+00,6.654e+00,5.472e+00,5.324e+00,5.815e+00,5.505e+00,6.329e+00,5.422e+00,4.408e+00,5.191e+00,5.206e+00,4.871e+00,6.047e+00,4.667e+00,6.238e+00,5.332e+00,5.020e+00,4.937e+00,4.905e+00,6.425e+00,4.363e+00,6.171e+00,5.856e+00,6.080e+00,5.372e+00,4.914e+00,4.639e+00,3.929e+00,5.376e+00,5.926e+00,4.639e+00,5.260e+00,6.132e+00,4.867e+00,5.062e+00,4.331e+00,4.095e+00,5.771e+00,6.766e+00,5.117e+00,6.229e+00,5.729e+00,4.188e+00,5.215e+00,5.602e+00,5.389e+00,4.515e+00,5.729e+00,5.555e+00,5.768e+00,4.334e+00,5.635e+00,6.947e+00,4.845e+00,5.477e+00,6.197e+00,5.210e+00,6.802e+00,4.632e+00,6.394e+00,3.999e+00,4.673e+00
1.610e-01,2.078e-01,1.457e+00,1.052e+00,1.731e+00,9.862e-01,2.069e+00,2.797e+00,3.420e+00,3.351e+00,3.151e+00,4.049e+00,3.962e+00,3.903e+00,4.075e+00,3.034e+00,3.655e+00,3.849e+00,3.427e+00,6.763e+00,4.883e+00,5.983e+00,4.632e+00,8.481e+00,5.842e+00,6.961e+00,6.690e+00,9.163e+00,8.363e+00,7.670e+00,8.494e+00,7.024e+00,7.312e+00,6.399e+00,6.868e+00,7.632e+00,7.249e+00,6.884e+00,7.610e+00,7.673e+00,6.164e+00,7.808e+00,7.924e+00,8.475e+00,6.323e+00,8.013e+00,6.194e+00,7.062e+00,8.253e+00,6.601e+00,8.058e+00,7.113e+00,8.754e+00,7.521e+00,7.084e+00,5.617e+00,6.401e+00,6.595e+00,8.459e+00,6.394e+00,6.028e+00,7.168e+00,5.722e+00,6.086e+00,6.275e+00,6.325e+00,7.042e+00,8.545e+00,6.871e+00,8.107e+00,7.741e+00,6.050e+00,8.096e+00,7.766e+00,6.651e+00,4.894e+00,7.485e+00,7.930e+00,8.721e+00,5.106e+00,7.869e+00,8.498e+00,7.264e+00,5.102e+00,8.752e+00,7.165e+00,7.826e+00,7.367e+00,8.569e+00,5.459e+00,7.266e+00
2.198e-01,2.672e-01,1.417e+00,9.299e-01,1.275e+00,8.010e-01,1.789e+00,1.861e+00,2.418e+00,2.037e+00,2.211e+00,3.375e+00,2.804e+00,3.471e+00,3.074e+00,2.869e+00,2.967e+00,2.486e+00,2.609e+00,4.557e+00,3.478e+00,5.402e+00,3.903e+00,7.582e+00,5.369e+00,6.497e+00,6.449e+00,7.695e+00,7.509e+00,7.612e+00,7.317e+00,6.813e+00,6.442e+00,7.450e+00,6.976e+00,6.326e+00,7.096e+00,6.421e+00,6.813e+00,8.218e+00,5.869e+00,6.886e+00,7.580e+00,8.276e+00,7.162e+00,6.827e+00,7.338e+00,6.869e+00,7.712e+00,6.937e+00,7.729e+00,6.907e+00,8.408e+00,7.333e+00,5.963e+00,5.488e+00,5.809e+00,6.874e+00,7.290e+00,6.971e+00,5.513e+00,6.742e+00,6.232e+00,7.043e+00,7.585e+00,6.434e+00,6.694e+00,8.606e+00,7.037e+00,8.798e+00,7.130e+00,7.022e+00,7.166e+00,7.443e+00,7.259e+00,4.565e+00,7.060e+00,8.714e+00,7.513e+00,4.455e+00,7.081e+00,7.848e+00,7.099e+00,5.100e+00,8.985e+00,6.543e+00,7.564e+00,7.270e+00,7.450e+00,5.934e+00,6.987e+00
2.698e-01,3.704e-01,1.596e+00,1.331e+00,1.862e+00,1.144e+00,2.761e+00,3.254e+00,3.921e+00,3.069e+00,3.507e+00,4.755e+00,3.890e+00,4.789e+00,4.087e+00,3.600e+00,4.286e+00,3.256e+00,3.505e+00,6.213e+00,5.106e+00,6.673e+00,5.235e+00,9.957e+00,6.638e+00,7.979e+00,8.201e+00,9.460e+00,8.652e+00,9.517e+00,1.045e+01,7.992e+00,8.087e+00,8.199e+00,8.403e+00,8.211e+00,8.454e+00,8.004e+00,8.911e+00,9.009e+00,7.348e+00,8.608e+00,9.322e+00,1.021e+01,7.272e+00,8.783e+00,7.965e+00,7.792e+00,1.016e+01,7.458e+00,8.782e+00,8.729e+00,9.223e+00,8.446e+00,6.758e+00,6.556e+00,5.888e+00,8.356e+00,9.016e+00,7.594e+00,6.978e+00,9.287e+00,6.731e+00,7.896e+00,7.317e+00,7.213e+00,8.187e+00,1.016e+01,7.806e+00,9.302e+00,8.258e+00,7.025e+00,7.750e+00,8.853e+00,7.432e+00,6.121e+00,8.015e+00,9.066e+00,9.162e+00,6.025e+00,8.044e+00,9.246e+00,8.200e+00,6.250e+00,9.888e+00,7.854e+00,8.946e+00,8.792e+00,9.275e+00,6.951e+00,8.605e+00
9.646e-02,2.065e-01,1.266e+00,1.260e+00,1.731e+00,1.072e+00,1.631e+00,2.321e+00,2.313e+00,1.920e+00,1.980e+00,3.250e+00,3.246e+00,3.081e+00,3.414e+00,3.145e+00,2.676e+00,2.491e+00,3.386e+00,4.400e+00,3.390e+00,5.744e+00,3.762e+00,7.975e+00,5.400e+00,6.069e+00,6.703e+00,8.697e+00,7.254e+00,8.793e+00,8.109e+00,8.189e+00,6.274e+00,8.171e+00,8.437e+00,7.530e+00,7.361e+00,7.449e+00,7.231e+00,8.252e+00,6.401e+00,7.448e+00,8.887e+00,8.891e+00,6.855e+00,7.269e+00,8.549e+00,7.207e+00,9.204e+00,7.123e+00,8.480e+00,8.494e+00,8.943e+00,8.033e+00,6.277e+00,5.917e+00,6.706e+00,7.028e+00,8.464e+00,6.701e+00,6.448e+00,7.041e+00,7.075e+00,6.552e+00,7.581e+00,7.322e+00,7.380e+00,9.340e+00,7.233e+00,9.553e+00,7.844e+00,7.313e+00,8.129e+00,7.766e+00,8.005e+00,5.937e+00,7.061e+00,8.581e+00,8.232e+00,5.094e+00,7.688e+00,8.089e+00,7.470e+00,5.958e+00,9.536e+00,7.364e+00,9.169e+00,8.065e+00,8.594e+00,5.633e+00,7.825e+00
2.713e-01,3.557e-01,1.703e+00,1.428e+00,2.115e+00,1.174e+00,3.059e+00,3.041e+00,4.200e+00,3.311e+00,4.188e+00,5.006e+00,4.251e+00,5.096e+00,4.880e+00,4.444e+00,5.293e+00,4.025e+00,3.980e+00,6.300e+00,5.813e+00,7.119e+00,5.628e+00,1.034e+01,6.870e+00,8.046e+00,8.071e+00,9.225e+00,8.759e+00,9.821e+00,1.108e+01,9.865e+00,8.797e+00,8.839e+00,9.256e+00,9.159e+00,1.024e+01,8.827e+00,8.837e+00,9.139e+00,9.080e+00,9.078e+00,9.350e+00,1.170e+01,7.269e+00,8.848e+00,9.173e+00,8.849e+00,1.041e+01,8.277e+00,9.707e+00,8.878e+00,9.777e+00,9.341e+00,7.972e+00,8.191e+00,7.180e+00,1.023e+01,1.048e+01,7.933e+00,7.448e+00,8.532e+00,7.905e+00,9.131e+00,8.331e+00,8.630e+00,9.701e+00,1.131e+01,8.897e+00,1.026e+01,8.252e+00,7.999e+00,9.678e+00,9.309e+00,8.801e+00,6.283e+00,9.055e+00,9.730e+00,9.675e+00,6.532e+00,8.093e+00,9.300e+00,9.044e+00,7.634e+00,1.143e+01,9.211e+00,9.222e+00,9.307e+00,9.438e+00,7.956e+00,9.059e+00
2.530e-01,3.513e-01,1.439e+00,1.309e+00,1.803e+00,9.227e-01,2.518e+00,3.023e+00,3.724e+00,2.631e+00,3.257e+00,3.919e+00,3.787e+00,3.383e+00,3.564e+00,3.029e+00,3.848e+00,2.886e+00,2.753e+00,4.870e+00,4.724e+00,5.078e+00,4.137e+00,8.183e+00,5.658e+00,6.459e+00,6.879e+00,7.882e+00,7.070e+00,7.314e+00,8.261e+00,9.778e+00,7.266e+00,6.658e+00,8.026e+00,7.879e+00,8.087e+00,8.292e+00,8.166e+00,9.408e+00,7.477e+00,8.144e+00,8.121e+00,9.556e+00,7.586e+00,7.994e+00,7.579e+00,7.268e+00,8.998e+00,7.807e+00,7.827e+00,7.882e+00,8.008e+00,7.605e+00,6.252e+00,6.188e+00,6.537e+00,8.168e+00,8.266e+00,7.374e+00,6.164e+00,7.912e+00,6.932e+00,7.175e+00,6.946e+00,7.311e+00,8.670e+00,1.014e+01,6.832e+00,8.044e+00,8.562e+00,7.481e+00,7.596e+00,7.440e+00,7.375e+00,6.047e+00,7.122e+00,8.281e+00,8.025e+00,5.850e+00,7.631e+00,8.804e+00,6.803e+00,6.028e+00,9.771e+00,8.623e+00,8.410e+00,8.656e+00,7.760e+00,6.271e+00,7.911e+00
2.252e-01,3.165e-01,1.683e+00,1.480e+00,2.209e+00,1.152e+00,2.561e+00,2.746e+00,3.486e+00,2.493e+00,3.253e+00,4.515e+00,3.883e+00,4.895e+00,4.188e+00,4.235e+00,4.287e+00,3.174e+00,3.518e+00,5.753e+00,4.775e+00,7.110e+00,5.714e+00,9.186e+00,6.873e+00,8.012e+00,7.665e+00,9.271e+00,7.799e+00,9.544e+00,1.027e+01,9.042e+00,9.831e+00,8.405e+00,8.641e+00,8.840e+00,9.180e+00,7.369e+00,8.752e+00,9.410e+00,9.380e+00,7.868e+00,9.573e+00,1.110e+01,8.232e+00,9.050e+00,9.400e+00,8.029e+00,1.058e+01,8.350e+00,9.736e+00,9.954e+00,9.927e+00,8.651e+00,6.952e+00,7.036e+00,7.628e+00,9.448e+00,9.664e+00,8.535e+00,7.589e+00,9.981e+00,8.489e+00,9.020e+00,9.016e+00,7.951e+00,9.390e+00,1.078e+01,8.888e+00,1.013e+01,8.393e+00,8.106e+00,9.759e+00,9.505e+00,9.758e+00,6.613e+00,9.445e+00,9.874e+00,9.299e+00,7.584e+00,8.066e+00,9.337e+00,8.890e+00,6.906e+00,1.084e+01,9.696e+00,9.269e+00,9.115e+00,9.704e+00,7.323e+00,7.865e+00
2.477e-01,3.641e-01,1.770e+00,1.634e+00,2.356e+00,1.167e+00,2.529e+00,2.824e+00,3.289e+00,2.454e+00,2.583e+00,3.737e+00,3.763e+00,3.456e+00,3.596e+00,3.684e+00,3.776e+00,3.590e+00,3.777e+00,5.678e+00,5.182e+00,6.303e+00,4.183e+00,8.438e+00,6.308e+00,6.051e+00,6.572e+00,8.973e+00,8.380e+00,8.944e+00,9.714e+00,1.058e+01,7.903e+00,8.743e+00,1.006e+01,1.037e+01,9.906e+00,9.171e+00,9.693e+00,9.453e+00,8.174e+00,9.592e+00,9.368e+00,1.161e+01,7.914e+00,9.957e+00,1.015e+01,8.383e+00,1.018e+01,8.951e+00,9.524e+00,9.714e+00,1.064e+01,1.003e+01,8.398e+00,7.139e+00,8.095e+00,9.616e+00,9.016e+00,8.556e+00,7.815e+00,9.606e+00,8.524e+00,7.754e+00,8.377e+00,9.673e+00,1.055e+01,1.171e+01,1.010e+01,1.057e+01,7.706e+00,8.992e+00,9.265e+00,9.828e+00,9.794e+00,7.748e+00,9.410e+00,9.515e+00,9.879e+00,6.958e+00,9.222e+00,8.712e+00,9.643e+00,7.358e+00,1.249e+01,1.016e+01,1.012e+01,9.706e+00,9.207e+00,6.721e+00,9.168e+00
2.271e-01,3.564e-01,1.731e+00,1.535e+00,1.973e+00,1.259e+00,2.289e+00,2.619e+00,3.222e+00,2.583e+00,3.124e+00,4.152e+00,4.128e+00,4.264e+00,4.651e+00,3.833e+00,4.104e+00,3.295e+00,3.801e+00,5.272e+00,4.814e+00,6.924e+00,4.887e+00,9.202e+00,6.414e+00,7.636e+00,7.556e+00,9.081e+00,8.383e+00,9.614e+00,1.056e+01,1.050e+01,9.369e+00,9.499e+00,1.112e+01,1.022e+01,9.599e+00,9.415e+00,9.057e+00,1.107e+01,9.866e+00,9.825e+00,1.096e+01,1.214e+01,8.643e+00,1.027e+01,1.184e+01,9.767e+00,1.210e+01,9.205e+00,1.106e+01,9.998e+00,1.220e+01,1.080e+01,9.299e+00,8.397e+00,9.592e+00,9.833e+00,1.101e+01,8.664e+00,8.162e+00,1.061e+01,9.957e+00,9.985e+00,1.000e+01,1.082e+01,1.083e+01,1.196e+01,1.047e+01,1.127e+01,9.735e+00,8.879e+00,1.070e+01,1.136e+01,9.946e+00,7.655e+00,1.039e+01,1.133e+01,1.023e+01,7.473e+00,9.737e+00,1.109e+01,1.023e+01,8.706e+00,1.275e+01,1.079e+01,1.135e+01,1.094e+01,1.060e+01,8.752e+00,8.781e+00
4.828e-02,5.765e-02,1.811e-01,1.839e-01,4.561e-01,3.232e-01,1.199e+00,1.708e+00,2.125e+00,2.189e+00,2.756e+00,2.718e+00,3.053e+00,3.371e+00,3.793e+00,2.789e+00,3.856e+00,3.176e+00,3.005e+00,5.674e+00,4.601e+00,5.046e+00,5.270e+00,8.919e+00,4.645e+00,6.759e+00,6.229e+00,7.352e+00,7.895e+00,7.764e+00,8.193e+00,7.726e+00,8.746e+00,7.541e+00,8.661e+00,9.078e+00,8.787e+00,8.319e+00,8.093e+00,9.639e+00,9.176e+00,9.083e+00,1.021e+01,1.121e+01,6.983e+00,9.368e+00,9.638e+00,8.146e+00,1.005e+01,8.019e+00,9.424e+00,8.307e+00,1.043e+01,9.778e+00,8.582e+00,7.549e+00,9.014e+00,8.028e+00,9.645e+00,6.777e+00,7.376e+00,9.248e+00,8.180e+00,8.317e+00,7.721e+00,8.376e+00,9.587e+00,1.102e+01,8.995e+00,9.888e+00,7.965e+00,7.385e+00,9.752e+00,9.643e+00,8.473e+00,6.134e+00,8.336e+00,9.637e+00,9.683e+00,6.943e+00,8.871e+00,9.923e+00,9.248e+00,7.059e+00,1.175e+01,1.026e+01,9.658e+00,9.619e+00,1.021e+01,7.171e+00,7.162e+00
3.245e-02,1.250e-01,9.502e-01,1.227e+00,2.012e+00,1.120e+00,2.106e+00,2.208e+00,2.900e+00,2.753e+00,3.345e+00,3.513e+00,3.376e+00,3.588e+00,4.688e+00,4.018e+00,4.625e+00,3.582e+00,4.553e+00,6.223e+00,6.072e+00,6.424e+00,6.069e+00,1.083e+01,6.380e+00,7.014e+00,8.083e+00,9.425e+00,9.633e+00,9.422e+00,9.759e+00,1.043e+01,9.509e+00,1.072e+01,1.018e+01,1.114e+01,1.058e+01,1.001e+01,1.080e+01,1.100e+01,1.061e+01,1.134e+01,1.133e+01,1.376e+01,9.676e+00,1.122e+01,1.171e+01,1.001e+01,1.287e+01,9.872e+00,1.015e+01,1.184e+01,1.146e+01,1.174e+01,1.004e+01,9.199e+00,9.034e+00,1.079e+01,1.052e+01,9.936e+00,9.727e+00,1.178e+01,1.100e+01,9.261e+00,9.415e+00,1.077e+01,1.142e+01,1.304e+01,1.140e+01,1.376e+01,9.574e+00,1.070e+01,1.071e+01,9.968e+00,1.054e+01,8.886e+00,9.592e+00,1.169e+01,1.079e+01,8.504e+00,1.065e+01,1.104e+01,1.204e+01,1.005e+01,1.441e+01,1.166e+01,1.236e+01,1.027e+01,1.062e+01,8.372e+00,1.143e+01
6.227e-02,9.413e-02,6.645e-01,4.742e-01,8.538e-01,9.091e-01,1.742e+00,1.971e+00,1.667e+00,2.049e+00,2.522e+00,3.200e+00,2.841e+00,2.854e+00,3.806e+00,3.486e+00,2.763e+00,3.044e+00,2.262e+00,4.982e+00,3.319e+00,3.798e+00,4.382e+00,6.719e+00,5.288e+00,5.789e+00,5.328e+00,6.346e+00,6.323e+00,7.595e+00,7.178e+00,7.102e+00,6.383e+00,6.933e+00,6.680e+00,8.756e+00,8.801e+00,7.611e+00,7.385e+00,8.207e+00,8.420e+00,9.082e+00,8.126e+00,9.688e+00,7.911e+00,8.114e+00,8.801e+00,6.926e+00,9.537e+00,8.482e+00,7.743e+00,9.546e+00,8.449e+00,8.441e+00,6.656e+00,6.085e+00,7.396e+00,8.143e+00,7.913e+00,7.857e+00,8.163e+00,7.491e+00,8.315e+00,8.225e+00,7.060e+00,7.082e+00,7.882e+00,9.587e+00,7.158e+00,1.036e+01,7.944e+00,8.081e+00,8.849e+00,7.756e+00,6.658e+00,7.022e+00,8.089e+00,8.060e+00,9.103e+00,6.749e+00,6.450e+00,9.750e+00,7.237e+00,6.574e+00,1.039e+01,8.451e+00,8.824e+00,7.373e+00,9.661e+00,7.186e+00,8.120e+00
9.723e-02,2.007e-01,1.615e+00,1.361e+00,1.893e+00,1.450e+00,2.458e+00,3.260e+00,3.573e+00,3.733e+00,3.672e+00,4.773e+00,4.852e+00,4.619e+00,5.582e+00,4.109e+00,4.543e+00,4.316e+00,4.057e+00,7.543e+00,5.473e+00,7.713e+00,4.881e+00,9.936e+00,7.418e+00,7.946e+00,8.067e+00,1.027e+01,9.333e+00,1.073e+01,1.074e+01,1.067e+01,9.762e+00,1.009e+01,1.135e+01,1.226e+01,1.142e+01,1.065e+01,1.169e+01,1.254e+01,1.095e+01,1.260e+01,1.240e+01,1.402e+01,9.748e+00,1.274e+01,1.339e+01,1.107e+01,1.388e+01,1.141e+01,1.177e+01,1.239e+01,1.352e+01,1.252e+01,1.066e+01,9.877e+00,1.101e+01,1.073e+01,1.236e+01,1.017e+01,1.050e+01,1.191e+01,1.128e+01,1.117e+01,1.142e+01,1.182e+01,1.167e+01,1.412e+01,1.241e+01,1.450e+01,1.204e+01,1.050e+01,1.291e+01,1.246e+01,9.750e+00,8.800e+00,1.152e+01,1.368e+01,1.290e+01,9.271e+00,1.152e+01,1.257e+01,1.160e+01,9.739e+00,1.535e+01,1.254e+01,1.373e+01,1.325e+01,1.272e+01,9.407e+00,1.148e+01
1.751e-01,2.650e-01,1.326e+00,1.182e+00,1.782e+00,1.158e+00,2.235e+00,2.447e+00,2.506e+00,2.276e+00,2.737e+00,3.633e+00,3.391e+00,3.538e+00,3.843e+00,2.816e+00,2.992e+00,2.955e+00,3.382e+00,5.210e+00,4.075e+00,5.473e+00,3.980e+00,7.821e+00,5.682e+00,6.293e+00,6.258e+00,7.562e+00,7.076e+00,8.110e+00,9.023e+00,9.279e+00,7.695e+00,7.504e+00,9.945e+00,9.429e+00,9.165e+00,9.325e+00,8.225e+00,1.124e+01,9.691e+00,9.714e+00,1.046e+01,1.161e+01,9.424e+00,1.117e+01,1.051e+01,9.471e+00,1.042e+01,1.008e+01,1.018e+01,1.072e+01,1.133e+01,1.082e+01,9.602e+00,7.744e+00,9.782e+00,9.247e+00,1.088e+01,9.348e+00,9.272e+00,9.857e+00,9.802e+00,9.356e+00,9.806e+00,1.031e+01,1.002e+01,1.091e+01,9.761e+00,1.116e+01,9.776e+00,8.886e+00,1.024e+01,1.018e+01,9.858e+00,8.212e+00,1.011e+01,1.085e+01,1.084e+01,7.542e+00,9.250e+00,1.139e+01,9.290e+00,8.817e+00,1.298e+01,1.105e+01,1.128e+01,1.031e+01,1.009e+01,8.265e+00,9.820e+00
1.691e-01,2.003e-01,9.386e-01,7.648e-01,1.469e+00,9.642e-01,2.689e+00,2.679e+00,3.439e+00,3.333e+00,4.377e+00,4.266e+00,4.037e+00,4.160e+00,4.542e+00,3.595e+00,4.672e+00,4.031e+00,3.533e+00,5.534e+00,5.171e+00,5.916e+00,4.904e+00,1.047e+01,5.991e+00,8.697e+00,8.543e+00,9.282e+00,9.242e+00,8.405e+00,9.371e+00,9.053e+00,7.797e+00,8.802e+00,9.049e+00,1.019e+01,9.602e+00,8.968e+00,9.343e+00,9.629e+00,9.962e+00,1.230e+01,1.023e+01,1.269e+01,8.245e+00,1.152e+01,8.617e+00,1.021e+01,1.082e+01,9.669e+00,1.006e+01,1.124e+01,1.178e+01,1.126e+01,1.110e+01,7.984e+00,1.044e+01,1.126e+01,1.152e+01,1.023e+01,8.624e+00,1.176e+01,8.850e+00,9.791e+00,9.244e+00,1.061e+01,9.900e+00,1.348e+01,1.116e+01,1.264e+01,9.379e+00,1.039e+01,1.120e+01,1.022e+01,1.081e+01,7.655e+00,1.125e+01,1.058e+01,1.121e+01,8.295e+00,1.061e+01,1.156e+01,9.611e+00,8.809e+00,1.346e+01,1.168e+01,1.180e+01,9.814e+00,1.048e+01,7.158e+00,1.082e+01
4.645e-02,1.436e-01,9.345e-01,9.893e-01,1.362e+00,9.542e-01,1.408e+00,2.454e+00,2.657e+00,2.341e+00,2.376e+00,2.899e+00,3.104e+00,2.563e+00,3.310e+00,3.185e+00,3.063e+00,2.562e+00,2.292e+00,4.581e+00,3.611e+00,4.776e+00,4.013e+00,6.539e+00,4.781e+00,5.409e+00,5.853e+00,7.646e+00,6.376e+00,6.610e+00,7.335e+00,8.038e+00,7.068e+00,6.982e+00,7.957e+00,8.848e+00,9.437e+00,8.047e+00,7.703e+00,8.984e+00,8.475e+00,8.768e+00,1.020e+01,1.177e+01,8.094e+00,1.004e+01,9.437e+00,7.728e+00,9.239e+00,9.121e+00,9.289e+00,1.130e+01,1.038e+01,9.716e+00,7.754e+00,8.011e+00,8.655e+00,8.564e+00,9.698e+00,7.660e+00,8.547e+00,1.033e+01,8.993e+00,8.628e+00,8.887e+00,9.402e+00,9.183e+00,1.193e+01,9.562e+00,1.059e+01,8.919e+00,9.285e+00,1.033e+01,9.310e+00,9.220e+00,7.985e+00,9.215e+00,1.040e+01,1.045e+01,7.612e+00,8.553e+00,9.172e+00,8.928e+00,7.607e+00,1.182e+01,1.159e+01,9.610e+00,9.254e+00,9.941e+00,7.500e+00,8.990e+00
3.088e-02,9.522e-02,1.142e+00,1.217e+00,2.180e+00,1.198e+00,2.481e+00,2.946e+00,3.748e+00,3.616e+00,3.774e+00,3.792e+00,3.714e+00,3.605e+00,4.138e+00,3.721e+00,4.462e+00,3.918e+00,3.393e+00,5.687e+00,5.342e+00,6.139e+00,5.291e+00,1.016e+01,6.263e+00,7.912e+00,8.428e+00,9.381e+00,8.428e+00,9.173e+00,1.021e+01,9.698e+00,9.076e+00,9.222e+00,1.035e+01,1.155e+01,1.085e+01,1.058e+01,1.050e+01,1.232e+01,1.170e+01,1.206e+01,1.312e+01,1.501e+01,1.194e+01,1.410e+01,1.303e+01,1.199e+01,1.238e+01,1.210e+01,1.216e+01,1.352e+01,1.449e+01,1.448e+01,1.317e+01,1.033e+01,1.277e+01,1.277e+01,1.299e+01,1.170e+01,1.112e+01,1.347e+01,1.194e+01,1.233e+01,1.195e+01,1.280e+01,1.346e+01,1.582e+01,1.321e+01,1.547e+01,1.093e+01,1.279e+01,1.391e+01,1.306e+01,1.376e+01,1.154e+01,1.276e+01,1.357e+01,1.384e+01,1.079e+01,1.227e+01,1.308e+01,1.266e+01,1.168e+01,1.577e+01,1.532e+01,1.263e+01,1.172e+01,1.384e+01,1.064e+01,1.234e+01
1.446e-01,2.160e-01,1.198e+00,1.177e+00,1.889e+00,9.948e-01,2.422e+00,2.694e+00,3.108e+00,2.327e+00,3.131e+00,4.034e+00,3.599e+00,3.749e+00,3.762e+00,4.226e+00,4.208e+00,3.377e+00,3.408e+00,5.954e+00,4.885e+00,6.104e+00,5.608e+00,8.877e+00,6.482e+00,7.522e+00,7.173e+00,8.660e+00,8.101e+00,8.238e+00,9.659e+00,9.483e+00,8.615e+00,8.402e+00,8.174e+00,1.063e+01,1.004e+01,8.709e+00,8.735e+00,1.043e+01,1.006e+01,1.070e+01,9.906e+00,1.335e+01,9.591e+00,1.146e+01,1.139e+01,1.027e+01,1.203e+01,1.051e+01,1.146e+01,1.262e+01,1.273e+01,1.190e+01,1.067e+01,9.122e+00,1.143e+01,1.271e+01,1.112e+01,1.084e+01,9.694e+00,1.144e+01,1.007e+01,1.198e+01,1.047e+01,1.090e+01,1.249e+01,1.447e+01,1.200e+01,1.259e+01,1.098e+01,1.085e+01,1.289e+01,1.151e+01,1.082e+01,9.995e+00,1.209e+01,1.288e+01,1.189e+01,1.074e+01,1.042e+01,1.205e+01,1.036e+01,9.833e+00,1.257e+01,1.260e+01,1.280e+01,9.961e+00,1.253e+01,1.043e+01,1.097e+01
7.569e-02,1.644e-01,1.446e+00,1.370e+00,2.000e+00,1.072e+00,1.840e+00,2.508e+00,3.087e+00,2.588e+00,2.916e+00,3.796e+00,4.086e+00,3.700e+00,4.160e+00,3.714e+00,4.016e+00,3.146e+00,3.351e+00,5.198e+00,4.120e+00,6.380e+00,3.568e+00,7.382e+00,5.450e+00,5.721e+00,6.480e+00,7.335e+00,6.932e+00,7.590e+00,8.420e+00,8.518e+00,7.556e+00,7.566e+00,8.601e+00,9.782e+00,8.008e+00,7.517e+00,8.708e+00,1.026e+01,8.926e+00,9.605e+00,1.020e+01,1.258e+01,1.011e+01,1.196e+01,1.308e+01,1.034e+01,1.266e+01,1.074e+01,1.110e+01,1.234e+01,1.373e+01,1.165e+01,1.074e+01,9.212e+00,1.233e+01,1.072e+01,1.111e+01,1.094e+01,1.053e+01,1.141e+01,1.118e+01,1.128e+01,1.101e+01,1.170e+01,1.123e+01,1.292e+01,1.238e+01,1.375e+01,1.097e+01,1.099e+01,1.345e+01,1.171e+01,1.056e+01,9.829e+00,1.132e+01,1.382e+01,1.148e+01,1.091e+01,1.120e+01,1.177e+01,1.119e+01,1.063e+01,1.407e+01,1.260e+01,1.305e+01,1.122e+01,1.222e+01,9.624e+00,9.970e+00
1.439e-01,1.893e-01,8.614e-01,6.516e-01,9.540e-01,6.050e-01,1.554e+00,2.314e+00,2.601e+00,2.216e+00,2.533e+00,3.197e+00,3.625e+00,3.842e+00,3.641e+00,2.879e+00,3.439e+00,3.050e+00,3.437e+00,6.130e+00,4.846e+00,6.432e+00,5.337e+00,9.898e+00,5.546e+00,7.090e+00,7.494e+00,9.165e+00,8.088e+00,8.084e+00,8.996e+00,9.240e+00,8.111e+00,8.425e+00,1.001e+01,1.059e+01,9.886e+00,1.031e+01,9.593e+00,1.262e+01,1.014e+01,1.154e+01,1.136e+01,1.359e+01,1.159e+01,1.341e+01,1.312e+01,1.124e+01,1.338e+01,1.259e+01,1.293e+01,1.301e+01,1.480e+01,1.467e+01,1.333e+01,1.117e+01,1.268e+01,1.154e+01,1.300e+01,1.158e+01,1.171e+01,1.220e+01,1.216e+01,1.202e+01,1.261e+01,1.305e+01,1.305e+01,1.541e+01,1.329e+01,1.408e+01,1.299e+01,1.166e+01,1.268e+01,1.206e+01,1.144e+01,9.962e+00,1.185e+01,1.497e+01,1.343e+01,1.013e+01,1.296e+01,1.505e+01,1.239e+01,1.246e+01,1.665e+01,1.417e+01,1.477e+01,1.321e+01,1.392e+01,1.086e+01,1.156e+01
3.312e-02,1.387e-01,1.565e+00,1.554e+00,2.277e+00,1.222e+00,1.711e+00,2.470e+00,2.901e+00,2.457e+00,2.252e+00,3.404e+00,3.489e+00,2.732e+00,3.695e+00,3.819e+00,3.186e+00,2.976e+00,3.683e+00,5.467e+00,4.647e+00,6.735e+00,4.636e+00,8.020e+00,5.523e+00,5.555e+00,6.613e+00,9.042e+00,7.531e+00,7.665e+00,7.836e+00,1.021e+01,7.462e+00,8.972e+00,8.496e+00,1.006e+01,9.177e+00,8.509e+00,9.174e+00,1.143e+01,9.662e+00,1.024e+01,9.824e+00,1.287e+01,1.013e+01,1.150e+01,1.217e+01,1.108e+01,1.228e+01,1.215e+01,1.174e+01,1.280e+01,1.259e+01,1.367e+01,1.171e+01,9.446e+00,1.052e+01,1.210e+01,1.235e+01,1.069e+01,1.043e+01,1.153e+01,1.164e+01,1.153e+01,1.135e+01,1.306e+01,1.225e+01,1.423e+01,1.273e+01,1.360e+01,1.130e+01,1.060e+01,1.318e+01,1.077e+01,1.104e+01,9.838e+00,1.047e+01,1.347e+01,1.274e+01,9.408e+00,1.102e+01,1.136e+01,1.167e+01,1.030e+01,1.365e+01,1.290e+01,1.401e+01,1.119e+01,1.210e+01,1.024e+01,1.109e+01
5.069e-02,1.417e-01,1.005e+00,1.250e+00,2.118e+00,1.112e+00,2.325e+00,2.958e+00,3.499e+00,3.191e+00,3.467e+00,4.042e+00,3.774e+00,3.407e+00,4.293e+00,4.032e+00,4.342e+00,3.920e+00,3.867e+00,6.199e+00,5.638e+00,5.872e+00,5.071e+00,9.471e+00,5.584e+00,6.405e+00,7.128e+00,9.451e+00,8.889e+00,8.522e+00,9.477e+00,9.014e+00,8.218e+00,8.824e+00,8.818e+00,1.068e+01,1.006e+01,9.208e+00,9.346e+00,1.051e+01,9.581e+00,1.161e+01,1.052e+01,1.313e+01,1.079e+01,1.198e+01,1.147e+01,1.227e+01,1.290e+01,1.228e+01,1.285e+01,1.293e+01,1.402e+01,1.413e+01,1.284e+01,9.750e+00,1.230e+01,1.316e+01,1.274e+01,1.142e+01,1.155e+01,1.276e+01,1.174e+01,1.198e+01,1.025e+01,1.267e+01,1.317e+01,1.479e+01,1.265e+01,1.351e+01,1.145e+01,1.149e+01,1.377e+01,1.131e+01,1.195e+01,1.070e+01,1.130e+01,1.340e+01,1.425e+01,1.062e+01,1.266e+01,1.280e+01,1.238e+01,1.089e+01,1.443e+01,1.307e+01,1.471e+01,1.201e+01,1.311e+01,1.177e+01,1.210e+01
1.206e-01,1.635e-01,7.120e-01,5.605e-01,9.369e-01,6.836e-01,1.515e+00,2.324e+00,2.883e+00,2.787e+00,3.366e+00,3.769e+00,3.863e+00,3.839e+00,4.667e+00,4.063e+00,4.362e+00,3.686e+00,3.106e+00,6.276e+00,5.193e+00,6.179e+00,5.281e+00,8.947e+00,4.895e+00,6.639e+00,7.002e+00,8.683e+00,9.079e+00,8.437e+00,9.767e+00,8.866e+00,7.967e+00,8.557e+00,9.916e+00,9.565e+00,1.028e+01,9.096e+00,8.184e+00,1.121e+01,9.712e+00,1.235e+01,1.121e+01,1.442e+01,1.181e+01,1.255e+01,1.236e+01,1.156e+01,1.367e+01,1.345e+01,1.328e+01,1.424e+01,1.509e+01,1.389e+01,1.306e+01,1.137e+01,1.258e+01,1.291e+01,1.402e+01,1.103e+01,1.317e+01,1.246e+01,1.279e+01,1.372e+01,1.216e+01,1.388e+01,1.321e+01,1.611e+01,1.274e+01,1.567e+01,1.319e+01,1.194e+01,1.466e+01,1.312e+01,1.093e+01,1.056e+01,1.277e+01,1.625e+01,1.480e+01,1.126e+01,1.411e+01,1.511e+01,1.325e+01,1.232e+01,1.608e+01,1.499e+01,1.408e+01,1.300e+01,1.397e+01,1.375e+01,1.255e+01
2.090e-01,2.613e-01,1.339e+00,9.885e-01,1.528e+00,8.796e-01,2.181e+00,2.579e+00,3.019e+00,2.687e+00,2.811e+00,3.918e+00,3.744e+00,3.551e+00,3.950e+00,3.679e+00,3.687e+00,3.393e+00,3.151e+00,6.375e+00,5.020e+00,6.217e+00,4.614e+00,8.843e+00,6.522e+00,7.366e+00,6.895e+00,8.676e+00,8.575e+00,9.101e+00,9.439e+00,1.001e+01,8.335e+00,8.488e+00,9.666e+00,9.908e+00,9.766e+00,9.294e+00,9.782e+00,1.084e+01,9.662e+00,1.171e+01,1.140e+01,1.345e+01,1.129e+01,1.367e+01,1.235e+01,1.106e+01,1.385e+01,1.342e+01,1.339e+01,1.370e+01,1.432e+01,1.445e+01,1.227e+01,1.020e+01,1.174e+01,1.338e+01,1.305e+01,1.211e+01,1.211e+01,1.352e+01,1.345e+01,1.301e+01,1.207e+01,1.358e+01,1.270e+01,1.616e+01,1.320e+01,1.578e+01,1.210e+01,1.345e+01,1.353e+01,1.269e+01,1.232e+01,1.159e+01,1.246e+01,1.428e+01,1.356e+01,1.176e+01,1.270e+01,1.396e+01,1.242e+01,1.135e+01,1.555e+01,1.443e+01,1.427e+01,1.154e+01,1.338e+01,1.255e+01,1.281e+01
7.533e-02,1.202e-01,8.731e-01,8.540e-01,1.450e+00,7.093e-01,1.757e+00,2.141e+00,2.911e+00,2.581e+00,2.626e+00,2.913e+00,2.573e+00,3.119e+00,2.811e+00,2.293e+00,3.385e+00,2.629e+00,2.674e+00,4.341e+00,3.940e+00,5.143e+00,3.252e+00,7.795e+00,4.941e+00,6.254e+00,6.422e+00,7.170e+00,6.188e+00,6.746e+00,7.160e+00,6.631e+00,7.030e+00,5.825e+00,7.866e+00,7.964e+00,7.427e+00,7.957e+00,7.707e+00,9.928e+00,7.981e+00,9.452e+00,9.567e+00,1.061e+01,9.148e+00,1.088e+01,1.073e+01,1.114e+01,1.100e+01,1.249e+01,1.286e+01,1.227e+01,1.327e+01,1.398e+01,1.303e+01,9.159e+00,1.262e+01,1.226e+01,1.159e+01,1.141e+01,1.292e+01,1.158e+01,1.179e+01,1.251e+01,1.146e+01,1.355e+01,1.312e+01,1.361e+01,1.259e+01,1.315e+01,1.145e+01,1.266e+01,1.234e+01,1.088e+01,1.301e+01,1.025e+01,1.184e+01,1.327e+01,1.338e+01,1.174e+01,1.201e+01,1.341e+01,1.276e+01,1.115e+01,1.390e+01,1.353e+01,1.434e+01,1.205e+01,1.237e+01,1.122e+01,1.294e+01
2.030e-01,2.347e-01,1.430e+00,9.253e-01,1.317e+00,6.507e-01,1.517e+00,1.543e+00,2.263e+00,1.848e+00,1.913e+00,3.051e+00,2.891e+00,3.175e+00,3.009e+00,3.025e+00,2.768e+00,2.619e+00,2.291e+00,5.152e+00,4.016e+00,4.615e+00,4.936e+00,7.304e+00,5.117e+00,5.883e+00,5.398e+00,7.207e+00,7.465e+00,6.877e+00,7.141e+00,6.697e+00,7.480e+00,7.483e+00,7.602e+00,9.277e+00,9.057e+00,7.408e+00,7.612e+00,9.998e+00,8.318e+00,9.218e+00,9.553e+00,1.141e+01,1.122e+01,1.077e+01,1.138e+01,1.136e+01,1.111e+01,1.214e+01,1.407e+01,1.376e+01,1.360e+01,1.375e+01,1.242e+01,1.082e+01,1.261e+01,1.306e+01,1.320e+01,1.121e+01,1.203e+01,1.215e+01,1.278e+01,1.222e+01,1.268e+01,1.253e+01,1.323e+01,1.443e+01,1.312e+01,1.457e+01,1.260e+01,1.404e+01,1.339e+01,1.171e+01,1.347e+01,1.135e+01,1.219e+01,1.482e+01,1.269e+01,1.129e+01,1.187e+01,1.431e+01,1.174e+01,1.134e+01,1.546e+01,1.372e+01,1.426e+01,1.270e+01,1.336e+01,1.289e+01,1.218e+01
1.382e-02,1.059e-01,6.305e-01,7.935e-01,1.095e+00,8.103e-01,8.360e-01,1.433e+00,1.775e+00,1.831e+00,1.968e+00,2.474e+00,2.046e+00,2.826e+00,3.598e+00,3.246e+00,3.487e+00,2.467e+00,3.223e+00,4.004e+00,3.582e+00,5.121e+00,4.494e+00,8.149e+00,4.195e+00,5.866e+00,6.692e+00,6.345e+00,6.976e+00,6.948e+00,7.677e+00,7.497e+00,7.909e+00,8.169e+00,8.342e+00,8.290e+00,8.633e+00,7.382e+00,8.050e+00,9.638e+00,9.967e+00,9.725e+00,1.097e+01,1.271e+01,9.488e+00,1.190e+01,1.241e+01,1.041e+01,1.255e+01,1.222e+01,1.178e+01,1.387e+01,1.340e+01,1.286e+01,1.294e+01,1.167e+01,1.223e+01,1.268e+01,1.284e+01,1.131e+01,1.246e+01,1.228e+01,1.424e+01,1.149e+01,1.332e+01,1.367e+01,1.243e+01,1.630e+01,1.272e+01,1.506e+01,1.177e+01,1.258e+01,1.386e+01,1.171e+01,1.331e+01,1.227e+01,1.165e+01,1.600e+01,1.321e+01,1.182e+01,1.234e+01,1.290e+01,1.281e+01,1.230e+01,1.629e+01,1.426e+01,1.484e+01,1.260e+01,1.330e+01,1.269e+01,1.209e+01
2.111e-01,2.902e-01,1.354e+00,9.822e-01,1.304e+00,1.043e+00,2.227e+00,2.893e+00,3.466e+00,3.359e+00,3.424e+00,4.260e+00,4.327e+00,4.376e+00,5.105e+00,3.820e+00,4.056e+00,3.665e+00,2.915e+00,6.290e+00,4.986e+00,5.774e+00,5.049e+00,8.858e+00,6.066e+00,6.729e+00,6.462e+00,8.150e+00,7.433e+00,7.910e+00,8.413e+00,7.324e+00,7.065e+00,7.965e+00,7.614e+00,8.857e+00,8.740e+00,7.714e+00,8.810e+00,9.594e+00,8.213e+00,1.010e+01,9.978e+00,1.231e+01,1.036e+01,1.201e+01,1.068e+01,1.092e+01,1.254e+01,1.171e+01,1.182e+01,1.340e+01,1.242e+01,1.287e+01,1.180e+01,1.180e+01,1.154e+01,1.115e+01,1.347e+01,1.068e+01,1.207e+01,1.181e+01,1.174e+01,1.215e+01,1.130e+01,1.276e+01,1.228e+01,1.563e+01,1.224e+01,1.549e+01,1.368e+01,1.295e+01,1.314e+01,1.089e+01,1.081e+01,1.177e+01,1.197e+01,1.581e+01,1.302e+01,1.114e+01,1.342e+01,1.420e+01,1.206e+01,1.258e+01,1.507e+01,1.444e+01,1.431e+01,1.316e+01,1.248e+01,1.301e+01,1.286e+01
2.088e-01,2.666e-01,9.610e-01,6.715e-01,7.737e-01,5.737e-01,1.515e+00,1.840e+00,2.196e+00,1.787e+00,2.061e+00,2.875e+00,2.690e+00,2.383e+00,2.669e+00,2.491e+00,2.763e+00,2.137e+00,2.322e+00,4.629e+00,3.556e+00,4.801e+00,3.667e+00,7.550e+00,5.205e+00,5.891e+00,5.885e+00,7.232e+00,6.671e+00,5.237e+00,6.655e+00,7.351e+00,5.955e+00,6.470e+00,6.681e+00,8.324e+00,7.969e+00,8.318e+00,7.607e+00,9.097e+00,8.219e+00,9.916e+00,8.837e+00,1.150e+01,8.672e+00,1.075e+01,1.022e+01,9.476e+00,1.056e+01,1.140e+01,1.150e+01,1.105e+01,1.198e+01,1.335e+01,1.218e+01,1.033e+01,1.162e+01,1.228e+01,1.152e+01,1.093e+01,1.054e+01,1.198e+01,1.224e+01,1.167e+01,1.204e+01,1.221e+01,1.220e+01,1.509e+01,1.139e+01,1.243e+01,1.227e+01,1.206e+01,1.203e+01,1.064e+01,1.021e+01,1.054e+01,1.131e+01,1.379e+01,1.262e+01,9.918e+00,1.212e+01,1.255e+01,1.097e+01,1.156e+01,1.382e+01,1.319e+01,1.405e+01,1.273e+01,1.174e+01,1.123e+01,1.069e+01
1.639e-01,2.426e-01,1.056e+00,1.102e+00,1.686e+00,9.062e-01,2.363e+00,2.364e+00,3.165e+00,2.571e+00,3.358e+00,3.602e+00,3.563e+00,3.554e+00,3.960e+00,3.289e+00,3.938e+00,2.883e+00,2.905e+00,4.349e+00,4.311e+00,4.858e+00,4.093e+00,7.604e+00,4.987e+00,5.924e+00,5.921e+00,7.824e+00,7.122e+00,8.011e+00,8.806e+00,7.989e+00,6.451e+00,8.031e+00,8.145e+00,8.851e+00,8.587e+00,7.850e+00,8.398e+00,8.787e+00,8.720e+00,9.579e+00,9.633e+00,1.169e+01,8.400e+00,1.052e+01,1.042e+01,9.795e+00,1.079e+01,1.066e+01,1.096e+01,1.227e+01,1.229e+01,1.264e+01,1.163e+01,1.037e+01,1.142e+01,1.298e+01,1.255e+01,9.673e+00,1.142e+01,1.261e+01,1.045e+01,1.168e+01,1.156e+01,1.274e+01,1.214e+01,1.505e+01,1.152e+01,1.265e+01,1.122e+01,1.166e+01,1.297e+01,1.156e+01,1.189e+01,1.084e+01,1.149e+01,1.310e+01,1.324e+01,1.047e+01,1.156e+01,1.204e+01,1.182e+01,1.144e+01,1.316e+01,1.281e+01,1.399e+01,1.271e+01,1.292e+01,1.138e+01,1.123e+01
1.102e-01,1.659e-01,5.514e-01,5.681e-01,7.527e-01,5.984e-01,1.770e+00,2.178e+00,2.881e+00,2.406e+00,3.134e+00,3.325e+00,2.972e+00,3.136e+00,3.308e+00,3.028e+00,3.932e+00,2.245e+00,2.430e+00,4.398e+00,4.080e+00,5.128e+00,3.876e+00,8.432e+00,4.994e+00,6.500e+00,7.264e+00,8.227e+00,7.776e+00,7.440e+00,7.961e+00,7.800e+00,7.302e+00,8.435e+00,8.083e+00,9.364e+00,8.901e+00,8.469e+00,9.495e+00,1.069e+01,9.107e+00,1.158e+01,1.084e+01,1.269e+01,1.046e+01,1.182e+01,1.108e+01,1.011e+01,1.280e+01,1.159e+01,1.227e+01,1.361e+01,1.186e+01,1.366e+01,1.152e+01,1.111e+01,1.265e+01,1.406e+01,1.334e+01,1.148e+01,1.227e+01,1.488e+01,1.222e+01,1.347e+01,1.311e+01,1.447e+01,1.189e+01,1.589e+01,1.361e+01,1.404e+01,1.303e+01,1.414e+01,1.431e+01,1.297e+01,1.255e+01,1.251e+01,1.282e+01,1.510e+01,1.347e+01,1.241e+01,1.302e+01,1.419e+01,1.212e+01,1.323e+01,1.490e+01,1.444e+01,1.542e+01,1.464e+01,1.455e+01,1.266e+01,1.381e+01
1.055e-01,1.528e-01,6.180e-01,5.607e-01,7.713e-01,4.716e-01,1.174e+00,1.400e+00,1.806e+00,1.706e+00,1.956e+00,2.944e+00,2.240e+00,2.544e+00,2.888e+00,2.887e+00,3.176e+00,2.463e+00,2.869e+00,5.525e+00,4.354e+00,4.530e+00,4.481e+00,8.249e+00,5.098e+00,5.451e+00,5.793e+00,7.527e+00,8.632e+00,6.981e+00,7.569e+00,7.296e+00,7.304e+00,7.865e+00,7.880e+00,8.455e+00,9.314e+00,8.205e+00,8.043e+00,8.830e+00,7.302e+00,9.418e+00,1.005e+01,1.167e+01,9.193e+00,1.007e+01,1.079e+01,9.316e+00,1.123e+01,1.077e+01,1.245e+01,1.235e+01,1.165e+01,1.337e+01,1.118e+01,1.156e+01,1.172e+01,1.185e+01,1.282e+01,9.362e+00,1.129e+01,1.092e+01,1.171e+01,1.158e+01,1.280e+01,1.202e+01,1.240e+01,1.532e+01,1.294e+01,1.306e+01,1.220e+01,1.306e+01,1.222e+01,1.223e+01,1.161e+01,1.186e+01,1.160e+01,1.476e+01,1.384e+01,1.087e+01,1.334e+01,1.462e+01,1.167e+01,1.179e+01,1.587e+01,1.324e+01,1.321e+01,1.238e+01,1.394e+01,1.245e+01,1.228e+01
1.499e-01,2.094e-01,1.022e+00,9.673e-01,1.474e+00,7.418e-01,1.900e+00,1.761e+00,2.650e+00,2.149e+00,2.772e+00,3.417e+00,2.557e+00,3.317e+00,3.021e+00,2.595e+00,3.475e+00,2.057e+00,2.646e+00,4.317e+00,3.845e+00,5.012e+00,3.665e+00,7.248e+00,5.415e+00,6.295e+00,6.022e+00,7.335e+00,7.558e+00,8.324e+00,8.590e+00,7.499e+00,8.068e+00,7.228e+00,8.670e+00,7.902e+00,8.107e+00,7.868e+00,8.852e+00,9.952e+00,9.510e+00,8.873e+00,1.187e+01,1.239e+01,9.708e+00,1.245e+01,1.217e+01,9.236e+00,1.225e+01,1.225e+01,1.179e+01,1.291e+01,1.348e+01,1.316e+01,1.188e+01,1.075e+01,1.329e+01,1.397e+01,1.470e+01,1.221e+01,1.398e+01,1.619e+01,1.425e+01,1.409e+01,1.459e+01,1.458e+01,1.255e+01,1.676e+01,1.400e+01,1.504e+01,1.215e+01,1.374e+01,1.538e+01,1.505e+01,1.431e+01,1.384e+01,1.383e+01,1.621e+01,1.579e+01,1.365e+01,1.398e+01,1.480e+01,1.503e+01,1.365e+01,1.629e+01,1.468e+01,1.524e+01,1.359e+01,1.635e+01,1.342e+01,1.257e+01
2.717e-01,3.202e-01,1.060e+00,7.811e-01,1.274e+00,9.254e-01,2.717e+00,2.506e+00,3.324e+00,3.098e+00,4.497e+00,4.685e+00,4.338e+00,4.646e+00,5.212e+00,3.592e+00,4.568e+00,3.881e+00,3.789e+00,6.793e+00,5.940e+00,5.496e+00,5.721e+00,9.526e+00,6.131e+00,6.733e+00,6.270e+00,8.265e+00,9.182e+00,7.681e+00,8.781e+00,8.151e+00,8.192e+00,7.799e+00,8.116e+00,1.050e+01,9.621e+00,8.213e+00,9.708e+00,9.217e+00,1.002e+01,1.149e+01,1.072e+01,1.423e+01,8.811e+00,1.243e+01,1.101e+01,1.120e+01,1.316e+01,1.255e+01,1.262e+01,1.449e+01,1.258e+01,1.490e+01,1.333e+01,1.211e+01,1.335e+01,1.429e+01,1.440e+01,1.137e+01,1.423e+01,1.449e+01,1.290e+01,1.318e+01,1.312e+01,1.514e+01,1.375e+01,1.669e+01,1.517e+01,1.449e+01,1.345e+01,1.376e+01,1.483e+01,1.239e+01,1.275e+01,1.300e+01,1.395e+01,1.579e+01,1.545e+01,1.281e+01,1.444e+01,1.510e+01,1.542e+01,1.472e+01,1.819e+01,1.667e+01,1.572e+01,1.450e+01,1.491e+01,1.369e+01,1.446e+01
7.967e-02,9.645e-02,9.843e-01,8.623e-01,1.715e+00,9.115e-01,2.341e+00,2.393e+00,3.521e+00,3.256e+00,3.933e+00,3.857e+00,3.571e+00,3.929e+00,3.978e+00,3.632e+00,4.231e+00,3.331e+00,3.312e+00,4.730e+00,4.511e+00,5.837e+00,4.824e+00,9.208e+00,4.963e+00,6.869e+00,7.166e+00,7.728e+00,7.000e+00,7.381e+00,8.229e+00,8.072e+00,6.753e+00,7.755e+00,8.141e+00,1.003e+01,8.757e+00,8.206e+00,8.794e+00,1.006e+01,9.938e+00,1.140e+01,9.448e+00,1.271e+01,9.905e+00,1.108e+01,1.152e+01,1.081e+01,1.220e+01,1.305e+01,1.287e+01,1.397e+01,1.321e+01,1.509e+01,1.517e+01,1.191e+01,1.348e+01,1.555e+01,1.638e+01,1.368e+01,1.537e+01,1.605e+01,1.563e+01,1.713e+01,1.480e+01,1.734e+01,1.599e+01,1.934e+01,1.629e+01,1.721e+01,1.629e+01,1.640e+01,1.499e+01,1.563e+01,1.604e+01,1.430e+01,1.601e+01,1.737e+01,1.563e+01,1.544e+01,1.541e+01,1.684e+01,1.631e+01,1.655e+01,1.686e+01,1.707e+01,1.854e+01,1.541e+01,1.582e+01,1.456e+01,1.723e+01
9.756e-02,1.853e-01,9.370e-01,9.564e-01,1.348e+00,9.028e-01,1.576e+00,1.926e+00,1.952e+00,1.826e+00,2.206e+00,3.018e+00,2.646e+00,2.753e+00,3.696e+00,2.971e+00,3.276e+00,2.816e+00,3.304e+00,4.810e+00,3.978e+00,5.133e+00,4.539e+00,8.189e+00,5.068e+00,6.273e+00,6.778e+00,7.490e+00,7.991e+00,8.725e+00,8.861e+00,1.002e+01,8.784e+00,8.675e+00,9.798e+00,9.944e+00,9.643e+00,9.352e+00,9.406e+00,1.198e+01,1.072e+01,1.120e+01,1.256e+01,1.366e+01,1.106e+01,1.171e+01,1.390e+01,1.136e+01,1.301e+01,1.476e+01,1.389e+01,1.471e+01,1.467e+01,1.494e+01,1.498e+01,1.315e+01,1.495e+01,1.454e+01,1.607e+01,1.388e+01,1.547e+01,1.619e+01,1.697e+01,1.688e+01,1.617e+01,1.722e+01,1.751e+01,2.045e+01,1.616e+01,1.816e+01,1.758e+01,1.666e+01,1.676e+01,1.618e+01,1.682e+01,1.602e+01,1.664e+01,1.968e+01,1.667e+01,1.580e+01,1.641e+01,1.875e+01,1.641e+01,1.633e+01,1.967e+01,1.890e+01,1.991e+01,1.742e+01,1.738e+01,1.617e+01,1.714e+01
1.063e-01,1.825e-01,1.299e+00,1.072e+00,1.466e+00,9.447e-01,1.365e+00,1.613e+00,2.456e+00,2.298e+00,2.114e+00,2.782e+00,2.242e+00,2.729e+00,2.968e+00,2.988e+00,2.938e+00,2.525e+00,2.351e+00,4.056e+00,3.938e+00,4.653e+00,4.451e+00,7.080e+00,4.375e+00,5.563e+00,5.780e+00,6.794e+00,6.560e+00,6.641e+00,7.541e+00,7.423e+00,7.678e+00,7.602e+00,8.499e+00,9.520e+00,9.819e+00,7.923e+00,8.329e+00,9.684e+00,1.000e+01,1.002e+01,9.744e+00,1.176e+01,1.012e+01,1.147e+01,1.168e+01,9.771e+00,1.177e+01,1.196e+01,1.280e+01,1.311e+01,1.307e+01,1.316e+01,1.274e+01,1.115e+01,1.279e+01,1.367e+01,1.463e+01,1.062e+01,1.346e+01,1.520e+01,1.535e+01,1.492e+01,1.485e+01,1.471e+01,1.422e+01,1.643e+01,1.529e+01,1.555e+01,1.464e+01,1.556e+01,1.508e+01,1.477e+01,1.504e+01,1.397e+01,1.477e+01,1.690e+01,1.431e+01,1.394e+01,1.401e+01,1.488e+01,1.371e+01,1.374e+01,1.649e+01,1.473e+01,1.578e+01,1.453e+01,1.616e+01,1.385e+01,1.386e+01
1.781e-01,2.393e-01,9.198e-01,8.813e-01,1.449e+00,7.508e-01,2.162e+00,2.574e+00,2.808e+00,2.363e+00,2.887e+00,3.855e+00,3.761e+00,3.922e+00,3.797e+00,3.024e+00,3.389e+00,3.076e+00,3.542e+00,6.378e+00,4.951e+00,6.043e+00,5.009e+00,9.446e+00,6.857e+00,7.529e+00,6.586e+00,9.789e+00,8.239e+00,8.899e+00,8.954e+00,8.595e+00,8.744e+00,7.362e+00,9.495e+00,9.527e+00,8.908e+00,9.419e+00,8.861e+00,1.053e+01,9.184e+00,1.043e+01,1.186e+01,1.283e+01,1.063e+01,1.312e+01,1.171e+01,1.172e+01,1.287e+01,1.316e+01,1.434e+01,1.408e+01,1.464e+01,1.522e+01,1.402e+01,1.192e+01,1.547e+01,1.452e+01,1.534e+01,1.257e+01,1.487e+01,1.582e+01,1.505e+01,1.525e+01,1.598e+01,1.548e+01,1.578e+01,1.974e+01,1.542e+01,1.714e+01,1.566e+01,1.559e+01,1.746e+01,1.508e+01,1.652e+01,1.536e+01,1.677e+01,1.835e+01,1.841e+01,1.629e+01,1.716e+01,1.812e+01,1.640e+01,1.530e+01,1.805e+01,1.860e+01,1.872e+01,1.636e+01,1.689e+01,1.573e+01,1.445e+01
2.080e-01,2.414e-01,1.118e+00,6.864e-01,9.033e-01,6.295e-01,1.637e+00,1.727e+00,2.655e+00,2.269e+00,3.068e+00,3.117e+00,3.456e+00,3.615e+00,3.824e+00,2.818e+00,3.798e+00,2.728e+00,2.479e+00,4.478e+00,3.939e+00,5.438e+00,4.203e+00,7.515e+00,4.929e+00,6.598e+00,6.390e+00,6.906e+00,6.994e+00,7.304e+00,8.614e+00,8.244e+00,7.531e+00,7.158e+00,9.194e+00,9.257e+00,8.439e+00,8.491e+00,7.963e+00,1.120e+01,1.020e+01,9.753e+00,1.104e+01,1.304e+01,9.823e+00,1.214e+01,1.345e+01,1.202e+01,1.192e+01,1.325e+01,1.290e+01,1.339e+01,1.525e+01,1.549e+01,1.559e+01,1.286e+01,1.597e+01,1.582e+01,1.566e+01,1.441e+01,1.549e+01,1.653e+01,1.735e+01,1.780e+01,1.753e+01,1.839e+01,1.711e+01,2.032e+01,1.721e+01,1.888e+01,1.736e+01,1.808e+01,1.796e+01,1.839e+01,1.862e+01,1.798e+01,1.767e+01,2.144e+01,1.743e+01,1.662e+01,1.622e+01,1.936e+01,1.774e+01,1.870e+01,1.878e+01,2.027e+01,1.968e+01,1.774e+01,1.871e+01,1.854e+01,1.635e+01
2.722e-01,3.534e-01,1.173e+00,9.058e-01,1.183e+00,9.405e-01,2.409e+00,2.567e+00,2.772e+00,2.268e+00,3.170e+00,3.879e+00,3.671e+00,3.326e+00,3.788e+00,3.460e+00,3.412e+00,3.369e+00,2.839e+00,5.326e+00,5.197e+00,5.434e+00,5.796e+00,9.055e+00,5.854e+00,7.900e+00,6.776e+00,8.672e+00,7.943e+00,8.689e+00,8.864e+00,9.231e+00,8.053e+00,7.407e+00,9.346e+00,9.121e+00,8.450e+00,8.343e+00,8.371e+00,9.993e+00,1.011e+01,1.085e+01,1.043e+01,1.235e+01,8.538e+00,1.035e+01,1.166e+01,1.069e+01,1.163e+01,1.222e+01,1.210e+01,1.338e+01,1.345e+01,1.447e+01,1.360e+01,1.088e+01,1.318e+01,1.408e+01,1.501e+01,1.333e+01,1.364e+01,1.615e+01,1.537e+01,1.691e+01,1.405e+01,1.597e+01,1.610e+01,1.777e+01,1.497e+01,1.781e+01,1.597e+01,1.618e+01,1.594e+01,1.649e+01,1.598e+01,1.569e+01,1.695e+01,1.720e+01,1.621e+01,1.623e+01,1.607e+01,1.800e+01,1.603e+01,1.511e+01,1.730e+01,1.758e+01,1.887e+01,1.663e+01,1.679e+01,1.533e+01,1.473e+01
1.759e-01,2.674e-01,1.485e+00,1.280e+00,1.938e+00,1.310e+00,2.743e+00,3.212e+00,3.855e+00,3.736e+00,3.964e+00,4.750e+00,4.341e+00,4.373e+00,4.979e+00,4.041e+00,4.756e+00,4.146e+00,4.057e+00,7.139e+00,5.495e+00,7.180e+00,5.581e+00,1.076e+01,7.286e+00,8.221e+00,8.448e+00,1.061e+01,9.585e+00,9.970e+00,1.124e+01,1.018e+01,9.535e+00,9.645e+00,1.080e+01,1.269e+01,1.226e+01,1.135e+01,1.144e+01,1.209e+01,1.234e+01,1.305e+01,1.392e+01,1.587e+01,1.233e+01,1.561e+01,1.474e+01,1.322e+01,1.494e+01,1.528e+01,1.611e+01,1.582e+01,1.724e+01,1.752e+01,1.587e+01,1.358e+01,1.718e+01,1.656e+01,1.715e+01,1.386e+01,1.564e+01,1.730e+01,1.670e+01,1.651e+01,1.707e+01,1.825e+01,1.805e+01,2.162e+01,1.900e+01,1.912e+01,1.709e+01,1.830e+01,1.984e+01,1.876e+01,1.843e+01,1.729e+01,1.844e+01,2.009e+01,2.040e+01,1.621e+01,1.857e+01,1.820e+01,1.843e+01,1.753e+01,2.070e+01,2.118e+01,1.985e+01,1.885e+01,1.948e+01,1.825e+01,1.774e+01
1.625e-01,2.258e-01,9.002e-01,8.736e-01,1.243e+00,5.565e-01,1.571e+00,1.880e+00,2.872e+00,1.968e+00,2.510e+00,2.927e+00,2.589e+00,2.877e+00,2.814e+00,3.015e+00,3.326e+00,2.010e+00,2.434e+00,4.379e+00,4.591e+00,5.222e+00,5.471e+00,7.888e+00,4.781e+00,6.196e+00,6.058e+00,8.272e+00,7.195e+00,7.542e+00,8.274e+00,9.078e+00,7.773e+00,7.549e+00,8.742e+00,9.437e+00,9.141e+00,9.095e+00,8.893e+00,1.121e+01,1.015e+01,9.825e+00,1.102e+01,1.357e+01,1.078e+01,1.223e+01,1.215e+01,1.095e+01,1.273e+01,1.241e+01,1.212e+01,1.451e+01,1.356e+01,1.443e+01,1.268e+01,1.114e+01,1.366e+01,1.510e+01,1.382e+01,1.292e+01,1.405e+01,1.726e+01,1.482e+01,1.682e+01,1.441e+01,1.683e+01,1.668e+01,1.900e+01,1.775e+01,1.827e+01,1.705e+01,1.756e+01,1.759e+01,1.829e+01,1.760e+01,1.682e+01,1.674e+01,1.884e+01,1.733e+01,1.658e+01,1.614e+01,1.733e+01,1.734e+01,1.665e+01,1.881e+01,2.073e+01,1.831e+01,1.629e+01,1.804e+01,1.795e+01,1.666e+01
1.295e-01,2.175e-01,1.106e+00,1.071e+00,1.707e+00,1.140e+00,2.212e+00,2.772e+00,2.639e+00,2.509e+00,2.762e+00,3.870e+00,3.554e+00,3.827e+00,4.137e+00,3.609e+00,3.371e+00,3.424e+00,3.411e+00,5.208e+00,3.936e+00,5.590e+00,4.398e+00,8.952e+00,5.669e+00,6.970e+00,7.023e+00,7.875e+00,7.128e+00,8.485e+00,8.754e+00,8.463e+00,8.147e+00,8.279e+00,8.903e+00,9.579e+00,9.500e+00,8.196e+00,8.716e+00,9.809e+00,9.669e+00,9.851e+00,1.100e+01,1.223e+01,1.014e+01,1.205e+01,1.147e+01,1.056e+01,1.218e+01,1.281e+01,1.318e+01,1.397e+01,1.342e+01,1.416e+01,1.347e+01,1.096e+01,1.415e+01,1.375e+01,1.485e+01,1.265e+01,1.448e+01,1.592e+01,1.481e+01,1.493e+01,1.563e+01,1.579e+01,1.544e+01,1.928e+01,1.737e+01,1.694e+01,1.645e+01,1.710e+01,1.707e+01,1.629e+01,1.852e+01,1.638e+01,1.647e+01,1.823e+01,1.880e+01,1.527e+01,1.700e+01,1.851e+01,1.795e+01,1.608e+01,1.857e+01,1.862e+01,1.857e+01,1.618e+01,1.883e+01,1.506e+01,1.599e+01
2.501e-01,3.316e-01,1.306e+00,1.204e+00,1.811e+00,9.691e-01,2.571e+00,2.268e+00,2.666e+00,1.912e+00,2.891e+00,4.044e+00,3.702e+00,4.181e+00,4.075e+00,4.196e+00,3.788e+00,3.193e+00,3.772e+00,5.714e+00,5.349e+00,5.946e+00,5.944e+00,1.035e+01,6.892e+00,7.887e+00,7.418e+00,9.232e+00,8.415e+00,9.233e+00,9.450e+00,8.969e+00,8.243e+00,9.704e+00,9.315e+00,1.073e+01,1.020e+01,8.459e+00,9.787e+00,9.733e+00,1.041e+01,1.171e+01,1.050e+01,1.368e+01,1.038e+01,1.217e+01,1.288e+01,1.104e+01,1.372e+01,1.398e+01,1.448e+01,1.569e+01,1.433e+01,1.574e+01,1.459e+01,1.333e+01,1.398e+01,1.602e+01,1.580e+01,1.370e+01,1.507e+01,1.666e+01,1.626e+01,1.579e+01,1.673e+01,1.636e+01,1.687e+01,2.095e+01,1.826e+01,2.096e+01,1.859e+01,1.983e+01,1.758e+01,1.762e+01,1.919e+01,1.813e+01,1.828e+01,2.080e+01,1.893e+01,1.843e+01,1.782e+01,2.040e+01,1.733e+01,1.738e+01,2.088e+01,2.000e+01,2.180e+01,1.771e+01,2.023e+01,1.707e+01,1.731e+01
2.172e-01,2.857e-01,8.539e-01,8.820e-01,1.307e+00,5.510e-01,1.849e+00,1.973e+00,2.485e+00,1.378e+00,2.454e+00,3.328e+00,2.960e+00,4.039e+00,3.234e+00,2.951e+00,3.404e+00,2.048e+00,3.722e+00,5.187e+00,4.414e+00,5.660e+00,5.590e+00,8.348e+00,5.445e+00,6.594e+00,6.145e+00,9.181e+00,8.751e+00,9.595e+00,9.604e+00,1.011e+01,8.725e+00,8.892e+00,9.742e+00,8.952e+00,9.731e+00,9.573e+00,9.161e+00,1.254e+01,1.004e+01,9.770e+00,1.249e+01,1.356e+01,1.064e+01,1.155e+01,1.233e+01,1.039e+01,1.330e+01,1.270e+01,1.387e+01,1.532e+01,1.386e+01,1.445e+01,1.255e+01,1.316e+01,1.375e+01,1.530e+01,1.496e+01,1.152e+01,1.561e+01,1.455e+01,1.441e+01,1.565e+01,1.632e+01,1.701e+01,1.650e+01,1.966e+01,1.645e+01,1.770e+01,1.832e+01,1.787e+01,1.940e+01,1.826e+01,1.862e+01,1.707e+01,1.719e+01,2.030e+01,2.063e+01,1.667e+01,1.816e+01,1.955e+01,1.799e+01,1.711e+01,1.891e+01,1.944e+01,2.041e+01,1.842e+01,1.987e+01,1.794e+01,1.735e+01
2.714e-01,3.839e-01,1.680e+00,1.489e+00,2.129e+00,1.345e+00,3.309e+00,3.722e+00,3.969e+00,2.975e+00,3.635e+00,4.956e+00,4.570e+00,4.700e+00,4.364e+00,4.845e+00,4.410e+00,4.200e+00,3.668e+00,6.458e+00,5.808e+00,6.614e+00,5.940e+00,1.008e+01,7.349e+00,7.883e+00,7.605e+00,9.681e+00,7.604e+00,9.125e+00,9.268e+00,9.457e+00,8.461e+00,8.398e+00,8.864e+00,1.117e+01,1.099e+01,8.820e+00,1.013e+01,1.029e+01,1.089e+01,1.223e+01,1.045e+01,1.422e+01,1.047e+01,1.336e+01,1.223e+01,1.223e+01,1.384e+01,1.364e+01,1.326e+01,1.570e+01,1.429e+01,1.517e+01,1.501e+01,1.347e+01,1.484e+01,1.717e+01,1.672e+01,1.576e+01,1.655e+01,1.842e+01,1.632e+01,1.770e+01,1.679e+01,1.728e+01,1.740e+01,2.205e+01,1.868e+01,2.067e+01,1.802e+01,2.008e+01,1.934e+01,1.801e+01,1.947e+01,1.994e+01,1.955e+01,2.127e+01,1.941e+01,1.933e+01,1.835e+01,2.012e+01,1.954e+01,1.919e+01,2.056e+01,2.077e+01,2.239e+01,1.934e+01,1.960e+01,1.785e+01,1.879e+01
1.253e-01,2.233e-01,1.599e+00,1.285e+00,1.776e+00,1.306e+00,1.925e+00,2.806e+00,3.163e+00,2.985e+00,3.048e+00,3.854e+00,3.970e+00,3.602e+00,4.256e+00,3.294e+00,3.336e+00,3.215e+00,3.420e+00,5.263e+00,3.749e+00,5.888e+00,4.041e+00,7.441e+00,5.093e+00,5.783e+00,6.496e+00,7.744e+00,7.199e+00,7.673e+00,7.881e+00,8.609e+00,7.182e+00,7.124e+00,8.053e+00,8.696e+00,8.228e+00,7.951e+00,8.680e+00,1.071e+01,9.987e+00,1.040e+01,1.067e+01,1.200e+01,1.018e+01,1.209e+01,1.236e+01,1.154e+01,1.384e+01,1.351e+01,1.305e+01,1.377e+01,1.387e+01,1.383e+01,1.392e+01,1.134e+01,1.377e+01,1.501e+01,1.507e+01,1.349e+01,1.489e+01,1.487e+01,1.723e+01,1.515e+01,1.557e+01,1.712e+01,1.557e+01,1.825e+01,1.697e+01,1.997e+01,1.865e+01,1.838e+01,1.928e+01,1.795e+01,1.783e+01,1.686e+01,1.650e+01,2.094e+01,1.840e+01,1.740e+01,1.798e+01,1.877e+01,1.799e+01,1.643e+01,1.877e+01,1.859e+01,2.092e+01,1.886e+01,1.917e+01,1.731e+01,1.814e+01
9.358e-02,1.585e-01,6.389e-01,7.394e-01,1.268e+00,9.764e-01,2.354e+00,2.646e+00,2.610e+00,2.587e+00,3.601e+00,3.928e+00,4.056e+00,3.908e+00,4.590e+00,3.448e+00,3.980e+00,3.116e+00,3.168e+00,4.862e+00,3.841e+00,5.522e+00,3.781e+00,8.620e+00,5.371e+00,6.815e+00,7.147e+00,7.624e+00,7.409e+00,8.690e+00,9.286e+00,8.430e+00,7.304e+00,9.009e+00,9.162e+00,9.251e+00,7.944e+00,8.079e+00,8.708e+00,1.058e+01,8.986e+00,9.637e+00,1.101e+01,1.222e+01,1.055e+01,1.175e+01,1.270e+01,1.033e+01,1.196e+01,1.258e+01,1.270e+01,1.374e+01,1.353e+01,1.508e+01,1.371e+01,1.109e+01,1.372e+01,1.177e+01,1.476e+01,1.272e+01,1.357e+01,1.497e+01,1.454e+01,1.528e+01,1.523e+01,1.609e+01,1.485e+01,1.909e+01,1.690e+01,1.865e+01,1.729e+01,1.690e+01,1.715e+01,1.990e+01,1.776e+01,1.740e+01,1.860e+01,1.954e+01,1.879e+01,1.713e+01,1.961e+01,1.989e+01,1.874e+01,1.774e+01,1.908e+01,2.179e+01,2.069e+01,1.949e+01,1.937e+01,1.774e+01,1.738e+01
7.660e-02,1.038e-01,6.299e-01,5.654e-01,1.143e+00,8.314e-01,1.926e+00,1.941e+00,2.332e+00,2.487e+00,3.174e+00,3.110e+00,2.839e+00,3.056e+00,3.452e+00,2.489e+00,2.888e+00,2.773e+00,2.604e+00,4.627e+00,3.707e+00,3.796e+00,4.456e+00,7.536e+00,4.995e+00,5.849e+00,5.485e+00,7.162e+00,7.277e+00,7.681e+00,7.246e+00,6.351e+00,6.486e+00,6.306e+00,8.109e+00,8.614e+00,8.320e+00,8.139e+00,7.286e+00,9.435e+00,8.532e+00,1.052e+01,1.039e+01,1.164e+01,9.525e+00,1.002e+01,1.186e+01,1.067e+01,1.104e+01,1.214e+01,1.226e+01,1.335e+01,1.274e+01,1.436e+01,1.368e+01,1.178e+01,1.430e+01,1.421e+01,1.361e+01,1.166e+01,1.340e+01,1.329e+01,1.436e+01,1.503e+01,1.486e+01,1.460e+01,1.654e+01,1.846e+01,1.560e+01,1.825e+01,1.687e+01,1.842e+01,1.599e+01,1.743e+01,1.742e+01,1.830e+01,1.789e+01,2.099e+01,1.967e+01,1.723e+01,1.802e+01,2.043e+01,1.979e+01,1.726e+01,1.892e+01,2.038e+01,1.973e+01,1.714e+01,1.983e+01,1.905e+01,1.875e+01
2.951e-01,3.508e-01,1.252e+00,7.174e-01,6.728e-01,5.710e-01,1.867e+00,2.168e+00,2.770e+00,2.039e+00,2.221e+00,3.165e+00,2.972e+00,3.522e+00,2.494e+00,2.471e+00,3.150e+00,2.636e+00,2.591e+00,5.860e+00,4.858e+00,5.364e+00,5.519e+00,8.937e+00,6.038e+00,7.420e+00,6.513e+00,8.760e+00,8.972e+00,8.474e+00,8.779e+00,8.819e+00,8.758e+00,8.617e+00,9.018e+00,9.744e+00,9.879e+00,9.274e+00,1.068e+01,1.065e+01,9.136e+00,1.073e+01,1.198e+01,1.344e+01,9.024e+00,1.244e+01,1.327e+01,1.058e+01,1.305e+01,1.280e+01,1.348e+01,1.328e+01,1.408e+01,1.522e+01,1.297e+01,1.184e+01,1.291e+01,1.513e+01,1.358e+01,1.174e+01,1.423e+01,1.677e+01,1.452e+01,1.667e+01,1.575e+01,1.565e+01,1.676e+01,2.043e+01,1.780e+01,1.793e+01,1.834e+01,1.809e+01,1.775e+01,1.971e+01,1.828e+01,1.890e+01,1.924e+01,2.179e+01,2.068e+01,1.876e+01,1.842e+01,1.877e+01,1.977e+01,1.743e+01,2.075e+01,2.096e+01,2.084e+01,1.946e+01,2.010e+01,1.893e+01,1.777e+01
2.382e-01,3.193e-01,1.827e+00,1.515e+00,2.210e+00,9.607e-01,2.406e+00,3.109e+00,4.150e+00,2.876e+00,3.154e+00,4.012e+00,4.371e+00,4.384e+00,3.457e+00,3.259e+00,4.214e+00,3.144e+00,3.919e+00,5.956e+00,4.696e+00,6.671e+00,4.504e+00,8.129e+00,5.896e+00,6.463e+00,7.005e+00,9.740e+00,8.711e+00,8.784e+00,9.490e+00,1.077e+01,8.844e+00,8.271e+00,9.153e+00,9.939e+00,1.013e+01,9.368e+00,1.085e+01,1.230e+01,1.038e+01,1.023e+01,1.203e+01,1.319e+01,1.074e+01,1.289e+01,1.281e+01,1.035e+01,1.400e+01,1.221e+01,1.386e+01,1.322e+01,1.437e+01,1.375e+01,1.328e+01,1.300e+01,1.383e+01,1.493e+01,1.561e+01,1.326e+01,1.483e+01,1.579e+01,1.622e+01,1.499e+01,1.631e+01,1.716e+01,1.650e+01,2.073e+01,1.872e+01,1.918e+01,1.903e+01,1.930e+01,1.985e+01,2.085e+01,1.898e+01,1.957e+01,1.963e+01,2.297e+01,2.186e+01,1.819e+01,2.134e+01,2.027e+01,1.929e+01,1.887e+01,2.024e+01,2.176e+01,2.114e+01,2.204e+01,2.229e+01,1.826e+01,1.889e+01
2.987e-01,3.449e-01,1.088e+00,6.432e-01,8.046e-01,6.017e-01,1.965e+00,2.234e+00,2.438e+00,1.749e+00,2.340e+00,3.299e+00,3.529e+00,3.637e+00,2.991e+00,3.296e+00,3.049e+00,3.006e+00,3.074e+00,5.590e+00,4.631e+00,6.294e+00,5.050e+00,8.460e+00,5.962e+00,7.164e+00,5.741e+00,8.549e+00,7.664e+00,7.721e+00,8.391e+00,9.785e+00,7.428e+00,7.816e+00,9.516e+00,9.776e+00,9.498e+00,9.204e+00,8.527e+00,1.069e+01,9.370e+00,1.105e+01,1.021e+01,1.347e+01,9.535e+00,1.276e+01,1.188e+01,1.093e+01,1.272e+01,1.114e+01,1.234e+01,1.289e+01,1.360e+01,1.388e+01,1.242e+01,1.143e+01,1.314e+01,1.462e+01,1.445e+01,1.305e+01,1.282e+01,1.526e+01,1.416e+01,1.513e+01,1.527e+01,1.611e+01,1.438e+01,1.872e+01,1.651e+01,1.681e+01,1.533e+01,1.639e+01,1.793e+01,1.778e+01,1.631e+01,1.654e+01,1.899e+01,2.055e+01,1.954e+01,1.784e+01,1.789e+01,1.909e+01,1.757e+01,1.852e+01,1.913e+01,2.066e+01,1.918e+01,1.859e+01,1.785e+01,1.798e+01,1.628e+01
1.505e-01,2.477e-01,1.373e+00,1.417e+00,2.121e+00,1.129e+00,2.801e+00,2.883e+00,3.841e+00,3.379e+00,3.733e+00,4.709e+00,3.689e+00,3.500e+00,4.540e+00,4.077e+00,4.646e+00,3.392e+00,2.637e+00,5.130e+00,4.886e+00,5.193e+00,4.393e+00,9.415e+00,6.265e+00,7.629e+00,7.478e+00,7.961e+00,7.512e+00,9.028e+00,9.552e+00,8.880e+00,8.747e+00,8.196e+00,9.190e+00,9.686e+00,1.019e+01,9.017e+00,9.276e+00,1.037e+01,1.029e+01,1.044e+01,1.216e+01,1.335e+01,1.152e+01,1.180e+01,1.293e+01,1.199e+01,1.315e+01,1.349e+01,1.401e+01,1.445e+01,1.367e+01,1.476e+01,1.281e+01,1.260e+01,1.383e+01,1.449e+01,1.552e+01,1.385e+01,1.454e+01,1.570e+01,1.652e+01,1.488e+01,1.590e+01,1.598e+01,1.714e+01,1.974e+01,1.624e+01,1.921e+01,1.787e+01,1.821e+01,1.698e+01,1.782e+01,1.765e+01,1.686e+01,1.799e+01,2.177e+01,1.960e+01,1.940e+01,1.860e+01,2.068e+01,1.910e+01,1.922e+01,2.133e+01,2.320e+01,2.052e+01,2.052e+01,1.817e+01,1.966e+01,1.881e+01
1.358e-01,2.437e-01,1.073e+00,9.964e-01,1.153e+00,1.057e+00,1.857e+00,2.225e+00,2.513e+00,2.381e+00,3.157e+00,3.874e+00,3.446e+00,3.364e+00,4.411e+00,3.645e+00,4.306e+00,3.129e+00,3.726e+00,6.063e+00,4.994e+00,5.897e+00,5.742e+00,1.032e+01,6.379e+00,7.540e+00,8.536e+00,8.885e+00,9.896e+00,8.783e+00,9.514e+00,9.283e+00,9.042e+00,9.595e+00,1.010e+01,1.050e+01,1.014e+01,9.702e+00,1.020e+01,1.131e+01,1.097e+01,1.250e+01,1.268e+01,1.403e+01,9.879e+00,1.226e+01,1.351e+01,1.178e+01,1.433e+01,1.305e+01,1.306e+01,1.337e+01,1.472e+01,1.490e+01,1.410e+01,1.223e+01,1.394e+01,1.471e+01,1.465e+01,1.280e+01,1.429e+01,1.611e+01,1.476e+01,1.498e+01,1.555e+01,1.606e+01,1.634e+01,1.972e+01,1.676e+01,1.877e+01,1.667e+01,1.678e+01,1.714e+01,1.867e+01,1.630e+01,1.843e+01,1.936e+01,2.154e+01,2.168e+01,1.925e+01,2.065e+01,2.277e+01,2.062e+01,1.915e+01,2.158e+01,2.200e+01,2.106e+01,2.009e+01,2.127e+01,1.991e+01,1.827e+01
1.966e-01,2.534e-01,8.746e-01,8.270e-01,1.336e+00,6.943e-01,1.931e+00,1.912e+00,2.573e+00,1.941e+00,3.046e+00,3.530e+00,3.206e+00,4.248e+00,4.011e+00,3.298e+00,3.965e+00,2.833e+00,3.850e+00,4.940e+00,4.578e+00,6.334e+00,4.653e+00,8.688e+00,5.144e+00,6.341e+00,6.576e+00,8.266e+00,7.727e+00,8.471e+00,9.237e+00,8.610e+00,7.557e+00,8.056e+00,9.324e+00,9.844e+00,8.958e+00,8.542e+00,8.476e+00,1.063e+01,9.692e+00,1.059e+01,1.115e+01,1.409e+01,9.575e+00,1.134e+01,1.191e+01,1.150e+01,1.297e+01,1.420e+01,1.368e+01,1.473e+01,1.451e+01,1.522e+01,1.462e+01,1.288e+01,1.428e+01,1.478e+01,1.509e+01,1.318e+01,1.550e+01,1.453e+01,1.539e+01,1.552e+01,1.482e+01,1.737e+01,1.642e+01,1.893e+01,1.660e+01,1.839e+01,1.606e+01,1.705e+01,1.783e+01,1.748e+01,1.782e+01,1.779e+01,2.032e+01,2.135e+01,2.111e+01,2.005e+01,2.125e+01,2.164e+01,2.035e+01,2.162e+01,2.203e+01,2.392e+01,2.216e+01,2.032e+01,1.936e+01,1.976e+01,1.995e+01
4.935e-02,1.462e-01,1.436e+00,1.428e+00,2.312e+00,1.313e+00,2.037e+00,3.013e+00,3.254e+00,3.127e+00,3.090e+00,4.309e+00,4.199e+00,3.762e+00,4.671e+00,4.440e+00,4.146e+00,4.128e+00,4.283e+00,6.744e+00,4.911e+00,7.325e+00,4.731e+00,8.830e+00,5.888e+00,6.083e+00,7.097e+00,9.407e+00,8.457e+00,8.774e+00,9.735e+00,9.829e+00,9.043e+00,8.317e+00,9.474e+00,1.016e+01,1.012e+01,9.039e+00,9.040e+00,1.088e+01,1.041e+01,1.142e+01,1.162e+01,1.373e+01,1.137e+01,1.239e+01,1.307e+01,1.170e+01,1.386e+01,1.373e+01,1.506e+01,1.517e+01,1.519e+01,1.582e+01,1.560e+01,1.307e+01,1.466e+01,1.475e+01,1.649e+01,1.378e+01,1.563e+01,1.502e+01,1.656e+01,1.578e+01,1.629e+01,1.757e+01,1.763e+01,1.947e+01,1.803e+01,1.865e+01,1.721e+01,1.822e+01,1.975e+01,1.866e+01,1.797e+01,1.828e+01,1.945e+01,2.201e+01,2.289e+01,1.832e+01,2.157e+01,2.232e+01,2.196e+01,2.093e+01,2.160e+01,2.390e+01,2.101e+01,2.175e+01,2.222e+01,1.985e+01,1.942e+01
1.565e-02,7.845e-02,1.250e+00,1.333e+00,2.256e+00,1.042e+00,2.129e+00,2.514e+00,3.195e+00,2.776e+00,2.969e+00,3.436e+00,3.609e+00,2.765e+00,3.655e+00,4.012e+00,4.114e+00,3.554e+00,3.316e+00,5.245e+00,4.705e+00,5.576e+00,4.738e+00,8.301e+00,5.479e+00,6.479e+00,6.833e+00,7.898e+00,7.290e+00,7.384e+00,8.075e+00,9.094e+00,8.569e+00,7.990e+00,8.454e+00,9.776e+00,9.075e+00,8.172e+00,7.922e+00,9.661e+00,9.595e+00,9.574e+00,1.033e+01,1.237e+01,9.575e+00,1.061e+01,1.254e+01,9.802e+00,1.142e+01,1.080e+01,1.279e+01,1.282e+01,1.254e+01,1.388e+01,1.303e+01,1.097e+01,1.434e+01,1.339e+01,1.432e+01,1.186e+01,1.336e+01,1.482e+01,1.450e+01,1.447e+01,1.477e+01,1.580e+01,1.625e+01,1.765e+01,1.697e+01,1.726e+01,1.607e+01,1.828e+01,1.862e+01,1.817e+01,1.902e+01,1.772e+01,1.917e+01,2.024e+01,1.979e+01,1.913e+01,1.822e+01,1.896e+01,2.078e+01,1.858e+01,1.903e+01,2.266e+01,2.082e+01,1.884e+01,2.092e+01,1.854e+01,1.868e+01
1.256e-01,1.817e-01,7.338e-01,8.427e-01,1.371e+00,7.134e-01,2.355e+00,2.485e+00,3.144e+00,2.478e+00,3.228e+00,3.384e+00,3.065e+00,3.286e+00,3.207e+00,2.950e+00,4.040e+00,2.895e+00,2.783e+00,4.722e+00,4.933e+00,4.878e+00,4.303e+00,8.941e+00,5.282e+00,7.087e+00,7.336e+00,8.132e+00,7.186e+00,7.493e+00,8.365e+00,8.134e+00,8.497e+00,7.919e+00,8.640e+00,9.769e+00,9.254e+00,8.708e+00,8.725e+00,1.008e+01,9.050e+00,1.037e+01,1.050e+01,1.219e+01,1.041e+01,1.106e+01,1.109e+01,8.966e+00,1.139e+01,1.129e+01,1.272e+01,1.272e+01,1.179e+01,1.294e+01,1.239e+01,1.189e+01,1.333e+01,1.272e+01,1.429e+01,1.134e+01,1.369e+01,1.593e+01,1.415e+01,1.536e+01,1.414e+01,1.439e+01,1.461e+01,1.840e+01,1.545e+01,1.638e+01,1.673e+01,1.673e+01,1.565e+01,1.696e+01,1.677e+01,1.690e+01,1.910e+01,2.000e+01,1.891e+01,1.873e+01,1.906e+01,2.002e+01,1.892e+01,2.121e+01,2.009e+01,2.302e+01,2.040e+01,2.213e+01,2.155e+01,1.889e+01,1.977e+01
5.690e-02,1.004e-01,1.270e+00,9.414e-01,1.380e+00,8.822e-01,1.234e+00,1.580e+00,2.466e+00,2.457e+00,2.655e+00,2.893e+00,3.040e+00,3.126e+00,3.502e+00,2.649e+00,3.541e+00,2.662e+00,3.342e+00,5.363e+00,3.847e+00,6.357e+00,3.980e+00,7.360e+00,5.562e+00,5.965e+00,6.658e+00,7.990e+00,7.697e+00,7.444e+00,8.516e+00,8.976e+00,8.564e+00,7.352e+00,9.200e+00,1.014e+01,9.359e+00,9.004e+00,9.304e+00,1.049e+01,1.078e+01,1.023e+01,1.179e+01,1.311e+01,9.461e+00,1.287e+01,1.314e+01,1.050e+01,1.313e+01,1.301e+01,1.318e+01,1.224e+01,1.422e+01,1.403e+01,1.367e+01,1.104e+01,1.426e+01,1.354e+01,1.506e+01,1.196e+01,1.307e+01,1.589e+01,1.631e+01,1.501e+01,1.439e+01,1.652e+01,1.529e+01,1.737e+01,1.690e+01,1.865e+01,1.534e+01,1.642e+01,1.745e+01,1.960e+01,1.663e+01,1.652e+01,1.946e+01,2.024e+01,1.882e+01,1.824e+01,1.876e+01,1.988e+01,1.934e+01,1.893e+01,2.174e+01,2.316e+01,2.040e+01,2.095e+01,2.090e+01,1.884e+01,1.853e+01
8.911e-02,1.985e-01,9.505e-01,9.891e-01,1.238e+00,1.024e+00,1.484e+00,1.733e+00,1.433e+00,1.608e+00,1.863e+00,3.342e+00,2.688e+00,2.486e+00,4.025e+00,3.850e+00,3.104e+00,2.791e+00,3.197e+00,5.131e+00,4.132e+00,6.019e+00,4.689e+00,9.078e+00,5.983e+00,6.581e+00,6.944e+00,7.694e+00,7.336e+00,7.515e+00,7.778e+00,8.716e+00,7.425e+00,9.016e+00,8.078e+00,8.886e+00,8.461e+00,7.573e+00,8.363e+00,1.044e+01,9.719e+00,9.905e+00,1.016e+01,1.297e+01,1.032e+01,1.166e+01,1.241e+01,1.172e+01,1.232e+01,1.332e+01,1.199e+01,1.476e+01,1.364e+01,1.539e+01,1.433e+01,1.246e+01,1.474e+01,1.490e+01,1.428e+01,1.369e+01,1.434e+01,1.435e+01,1.542e+01,1.541e+01,1.752e+01,1.610e+01,1.619e+01,1.992e+01,1.607e+01,1.988e+01,1.760e+01,1.900e+01,1.859e+01,1.752e+01,1.871e+01,1.958e+01,1.851e+01,2.452e+01,2.128e+01,1.941e+01,1.985e+01,2.191e+01,2.157e+01,2.199e+01,2.251e+01,2.469e+01,2.475e+01,2.190e+01,2.096e+01,2.221e+01,2.053e+01
4.836e-02,7.904e-02,5.749e-01,4.706e-01,7.940e-01,6.473e-01,1.525e+00,2.311e+00,2.705e+00,2.683e+00,2.957e+00,2.739e+00,3.221e+00,2.490e+00,3.446e+00,2.904e+00,3.573e+00,3.062e+00,1.983e+00,4.518e+00,4.125e+00,4.776e+00,4.403e+00,8.609e+00,4.850e+00,7.555e+00,7.499e+00,7.248e+00,7.250e+00,7.668e+00,8.152e+00,8.845e+00,7.796e+00,7.755e+00,8.896e+00,8.786e+00,8.411e+00,8.854e+00,8.024e+00,1.088e+01,9.787e+00,1.027e+01,1.100e+01,1.214e+01,9.612e+00,1.155e+01,1.185e+01,9.533e+00,1.157e+01,1.169e+01,1.163e+01,1.227e+01,1.278e+01,1.334e+01,1.273e+01,1.004e+01,1.259e+01,1.304e+01,1.461e+01,1.129e+01,1.368e+01,1.516e+01,1.559e+01,1.556e+01,1.494e+01,1.528e+01,1.483e+01,1.894e+01,1.517e+01,1.820e+01,1.641e+01,1.706e+01,1.834e+01,1.915e+01,1.832e+01,1.836e+01,1.894e+01,2.055e+01,1.989e+01,1.971e+01,1.904e+01,1.997e+01,2.046e+01,1.923e+01,2.074e+01,2.304e+01,2.230e+01,2.044e+01,2.267e+01,2.064e+01,2.133e+01
1.601e-02,6.525e-02,6.035e-01,6.475e-01,1.149e+00,9.205e-01,1.917e+00,2.585e+00,3.128e+00,3.389e+00,3.986e+00,3.876e+00,4.188e+00,3.875e+00,4.937e+00,3.722e+00,4.795e+00,3.621e+00,3.297e+00,6.009e+00,4.654e+00,6.627e+00,4.167e+00,1.028e+01,6.646e+00,8.424e+00,8.828e+00,9.641e+00,9.061e+00,9.087e+00,1.013e+01,9.775e+00,8.504e+00,9.707e+00,1.004e+01,1.095e+01,1.057e+01,1.027e+01,1.083e+01,1.153e+01,1.123e+01,1.285e+01,1.251e+01,1.459e+01,1.006e+01,1.419e+01,1.322e+01,1.167e+01,1.426e+01,1.473e+01,1.413e+01,1.554e+01,1.532e+01,1.638e+01,1.514e+01,1.272e+01,1.563e+01,1.590e+01,1.674e+01,1.359e+01,1.602e+01,1.674e+01,1.646e+01,1.584e+01,1.795e+01,1.814e+01,1.665e+01,2.234e+01,1.810e+01,2.072e+01,1.841e+01,2.020e+01,1.968e+01,1.997e+01,2.002e+01,1.970e+01,2.013e+01,2.308e+01,2.336e+01,1.943e+01,2.111e+01,2.273e+01,2.120e+01,2.153e+01,2.286e+01,2.592e+01,2.456e+01,2.337e+01,2.463e+01,2.205e+01,2.311e+01
1.644e-01,2.549e-01,1.551e+00,1.209e+00,1.502e+00,1.067e+00,1.884e+00,2.337e+00,3.012e+00,2.615e+00,2.849e+00,3.471e+00,3.404e+00,3.684e+00,4.140e+00,3.043e+00,3.877e+00,2.991e+00,2.770e+00,4.655e+00,4.047e+00,5.699e+00,4.143e+00,8.437e+00,5.474e+00,6.844e+00,7.739e+00,6.992e+00,6.542e+00,7.537e+00,8.143e+00,7.637e+00,7.999e+00,7.503e+00,7.474e+00,8.605e+00,7.956e+00,7.312e+00,8.980e+00,1.038e+01,1.033e+01,9.947e+00,1.068e+01,1.193e+01,9.673e+00,1.209e+01,1.183e+01,1.168e+01,1.273e+01,1.257e+01,1.239e+01,1.376e+01,1.317e+01,1.323e+01,1.396e+01,1.174e+01,1.405e+01,1.520e+01,1.449e+01,1.307e+01,1.560e+01,1.557e+01,1.509e+01,1.546e+01,1.567e+01,1.606e+01,1.512e+01,1.835e+01,1.559e+01,1.847e+01,1.756e+01,1.788e+01,1.809e+01,1.619e+01,1.811e+01,1.803e+01,1.778e+01,2.142e+01,1.950e+01,1.866e+01,1.728e+01,2.104e+01,1.974e+01,2.051e+01,2.023e+01,2.220e+01,2.238e+01,2.236e+01,2.318e+01,2.157e+01,2.119e+01
2.407e-01,2.780e-01,9.521e-01,8.123e-01,1.411e+00,6.129e-01,2.146e+00,2.024e+00,3.180e+00,2.348e+00,3.506e+00,3.610e+00,3.458e+00,4.015e+00,3.420e+00,3.291e+00,3.968e+00,2.543e+00,3.151e+00,5.065e+00,4.877e+00,5.696e+00,5.363e+00,8.686e+00,6.125e+00,7.287e+00,6.348e+00,8.769e+00,8.489e+00,8.362e+00,9.854e+00,9.682e+00,7.884e+00,7.883e+00,1.044e+01,9.890e+00,9.865e+00,1.028e+01,8.942e+00,1.125e+01,1.024e+01,1.089e+01,1.161e+01,1.439e+01,9.451e+00,1.233e+01,1.283e+01,1.063e+01,1.211e+01,1.239e+01,1.280e+01,1.370e+01,1.492e+01,1.604e+01,1.452e+01,1.169e+01,1.497e+01,1.472e+01,1.496e+01,1.289e+01,1.462e+01,1.668e+01,1.447e+01,1.673e+01,1.531e+01,1.771e+01,1.656e+01,1.912e+01,1.674e+01,1.856e+01,1.716e+01,1.898e+01,1.782e+01,1.998e+01,1.869e+01,1.779e+01,1.959e+01,2.161e+01,2.156e+01,1.864e+01,1.890e+01,2.111e+01,2.144e+01,2.011e+01,2.041e+01,2.427e+01,2.268e+01,2.159e+01,2.464e+01,2.358e+01,2.111e+01
2.871e-01,3.282e-01,1.632e+00,1.130e+00,1.654e+00,7.851e-01,2.360e+00,2.006e+00,2.707e+00,1.763e+00,2.168e+00,3.017e+00,2.755e+00,3.592e+00,2.199e+00,2.486e+00,2.976e+00,2.727e+00,2.833e+00,4.982e+00,4.387e+00,5.278e+00,5.128e+00,8.003e+00,5.668e+00,6.893e+00,6.256e+00,7.739e+00,7.169e+00,7.635e+00,8.384e+00,8.142e+00,8.064e+00,7.281e+00,7.649e+00,8.532e+00,8.310e+00,7.901e+00,8.885e+00,1.058e+01,9.600e+00,9.093e+00,9.888e+00,1.148e+01,9.224e+00,1.024e+01,1.126e+01,9.538e+00,1.114e+01,1.236e+01,1.216e+01,1.232e+01,1.338e+01,1.367e+01,1.346e+01,1.090e+01,1.290e+01,1.567e+01,1.298e+01,1.414e+01,1.436e+01,1.508e+01,1.471e+01,1.508e+01,1.564e+01,1.486e+01,1.650e+01,1.761e+01,1.685e+01,1.771e+01,1.718e+01,1.860e+01,1.827e+01,1.739e+01,1.900e+01,1.832e+01,1.907e+01,2.174e+01,1.967e+01,1.927e+01,1.882e+01,2.034e+01,2.015e+01,2.052e+01,2.100e+01,2.273e+01,2.317e+01,2.135e+01,2.201e+01,2.223e+01,2.043e+01
