6.877e-01,3.546e-01,4.195e-01,4.485e-01,3.848e-01,7.641e-01,1.823e-01,1.538e-01,2.041e-01,6.359e-01,2.371e-01,1.221e-01,1.845e-01,7.742e-01,7.508e-01,5.043e-01,9.778e-01,6.857e-01,4.425e-01,2.578e-02,7.280e-01,1.888e-01,3.291e-01,2.489e-01,5.940e-02,4.817e-01,2.070e-01,4.651e-01,7.788e-02,3.130e-01,6.082e-01,7.528e-01,7.972e-01,5.229e-01,5.847e-01,2.201e-01,5.077e-01,8.961e-01,1.448e-01,4.161e-01,3.044e-02,2.693e-01,8.510e-01,1.819e-02,2.991e-01,5.501e-01,5.015e-01,5.610e-01,9.403e-01,3.357e-01,9.359e-01,3.227e-01,6.458e-01,5.715e-01,3.961e-01,2.440e-01,2.095e-01,7.426e-01,9.175e-01,2.097e-01,9.254e-01,8.185e-01,8.330e-01,6.788e-01,8.363e-01,1.857e-01,8.496e-01,2.178e-01,7.573e-01,7.896e-01,5.877e-01,2.419e-01,4.445e-01,3.449e-01,2.050e-01,9.472e-01,8.395e-01,6.841e-01,5.740e-01
2.088e-01,8.071e-01,4.528e-01,6.400e-01,2.037e-01,1.090e+00,7.722e-01,2.575e-01,9.000e-01,9.101e-01,1.111e-01,3.783e-02,6.404e-01,4.312e-01,1.031e+00,4.953e-01,2.973e-01,8.554e-01,3.263e-01,3.584e-01,3.617e-01,5.145e-01,8.336e-01,5.177e-01,9.769e-01,8.091e-01,1.435e-01,1.049e+00,1.449e-01,1.002e-01,8.048e-01,1.225e+00,3.343e-01,6.560e-01,4.501e-01,2.447e-01,2.119e-01,2.986e-01,3.534e-01,3.818e-01,3.992e-01,9.227e-01,1.121e+00,9.782e-01,5.428e-01,5.501e-01,9.166e-01,8.673e-01,1.264e+00,3.322e-01,6.107e-01,5.390e-01,3.727e-01,5.954e-01,1.119e+00,7.884e-01,7.633e-02,9.440e-01,1.109e+00,8.298e-01,3.935e-01,1.122e+00,1.019e+00,1.114e+00,9.164e-01,3.775e-01,3.911e-01,3.971e-01,6.193e-01,1.012e+00,1.032e+00,7.366e-01,9.540e-01,9.389e-01,3.465e-01,7.632e-01,1.183e+00,1.181e+00,4.346e-01
3.039e-01,7.339e-01,1.375e+00,9.295e-01,8.364e-01,1.674e+00,1.611e+00,2.700e-01,1.584e+00,1.021e+00,1.095e+00,8.021e-01,1.487e+00,7.180e-01,1.583e+00,1.208e+00,1.016e+00,1.258e+00,1.267e+00,1.009e+00,1.207e+00,1.337e+00,1.732e+00,1.043e+00,1.741e+00,9.974e-01,3.153e-01,1.752e+00,9.134e-01,9.833e-01,1.651e+00,1.317e+00,8.584e-01,1.003e+00,1.119e+00,5.358e-01,3.372e-01,9.924e-01,1.181e+00,1.260e+00,9.540e-01,1.458e+00,1.692e+00,1.114e+00,1.251e+00,1.295e+00,1.162e+00,1.688e+00,1.850e+00,6.941e-01,1.080e+00,5.324e-01,7.251e-01,1.532e+00,1.365e+00,1.537e+00,7.111e-01,1.569e+00,1.674e+00,1.719e+00,6.073e-01,1.568e+00,1.546e+00,1.696e+00,1.140e+00,1.207e+00,1.157e+00,1.192e+00,1.185e+00,1.532e+00,1.592e+00,1.178e+00,1.397e+00,1.824e+00,5.127e-01,8.664e-01,1.479e+00,1.725e+00,5.163e-01
4.487e-01,5.652e-01,7.911e-01,8.360e-01,7.071e-01,1.234e+00,1.060e+00,7.650e-01,1.642e+00,1.125e+00,1.402e+00,5.412e-01,8.102e-01,7.450e-01,1.596e+00,1.276e+00,1.779e+00,1.215e+00,7.900e-01,6.248e-01,1.565e+00,8.194e-01,1.337e+00,1.343e+00,1.354e+00,1.480e+00,6.579e-01,1.323e+00,7.029e-01,7.016e-01,1.532e+00,1.427e+00,1.252e+00,1.129e+00,9.682e-01,1.150e+00,1.245e+00,1.138e+00,1.034e+00,1.071e+00,5.756e-01,1.660e+00,1.743e+00,1.145e+00,1.353e+00,1.259e+00,1.441e+00,1.475e+00,1.928e+00,7.782e-01,1.806e+00,8.529e-01,1.254e+00,1.201e+00,1.547e+00,1.091e+00,1.111e+00,1.416e+00,1.632e+00,1.846e+00,1.145e+00,1.392e+00,1.568e+00,1.331e+00,1.343e+00,1.276e+00,1.223e+00,8.273e-01,9.501e-01,1.844e+00,1.794e+00,1.528e+00,1.161e+00,1.763e+00,1.193e+00,1.160e+00,1.421e+00,1.306e+00,1.207e+00
4.243e-01,7.624e-01,6.330e-01,8.199e-01,9.328e-01,2.072e+00,1.558e+00,7.540e-01,1.399e+00,1.565e+00,1.671e+00,8.334e-01,1.621e+00,1.422e+00,2.073e+00,1.343e+00,1.329e+00,1.294e+00,9.462e-01,7.092e-01,1.144e+00,1.436e+00,1.641e+00,1.145e+00,1.344e+00,1.627e+00,1.444e+00,1.425e+00,8.052e-01,9.933e-01,1.595e+00,1.879e+00,1.718e+00,1.201e+00,1.539e+00,1.275e+00,1.755e+00,1.410e+00,1.472e+00,8.159e-01,1.210e+00,1.703e+00,2.343e+00,2.104e+00,1.068e+00,1.296e+00,1.636e+00,2.231e+00,2.603e+00,1.497e+00,2.114e+00,1.632e+00,1.258e+00,1.664e+00,2.442e+00,1.107e+00,1.135e+00,1.782e+00,1.934e+00,1.463e+00,1.141e+00,1.910e+00,2.288e+00,2.195e+00,1.873e+00,9.502e-01,9.699e-01,1.477e+00,1.503e+00,1.973e+00,2.032e+00,1.534e+00,1.153e+00,1.721e+00,1.247e+00,1.189e+00,1.994e+00,1.748e+00,1.002e+00
3.687e-01,8.503e-01,8.753e-01,9.478e-01,6.782e-01,2.210e+00,1.416e+00,9.724e-01,2.273e+00,1.956e+00,1.170e+00,9.551e-01,1.362e+00,1.731e+00,2.618e+00,1.486e+00,1.425e+00,2.041e+00,1.324e+00,1.090e+00,2.270e+00,1.309e+00,2.103e+00,1.577e+00,1.863e+00,1.562e+00,1.423e+00,2.285e+00,9.683e-01,8.116e-01,1.997e+00,1.778e+00,1.329e+00,1.180e+00,1.966e+00,1.722e+00,1.793e+00,1.783e+00,1.072e+00,1.568e+00,1.440e+00,2.332e+00,2.573e+00,1.602e+00,1.671e+00,1.633e+00,2.294e+00,2.543e+00,2.404e+00,1.526e+00,2.559e+00,1.933e+00,1.581e+00,1.461e+00,2.525e+00,1.952e+00,1.793e+00,1.987e+00,2.095e+00,2.471e+00,1.226e+00,2.549e+00,1.962e+00,2.526e+00,2.218e+00,2.066e+00,1.304e+00,1.082e+00,1.944e+00,2.025e+00,2.847e+00,2.491e+00,1.939e+00,1.925e+00,1.311e+00,1.650e+00,2.336e+00,2.375e+00,1.077e+00
6.183e-01,3.764e-01,5.291e-01,4.896e-01,5.153e-01,1.479e+00,1.270e+00,8.691e-01,1.350e+00,1.915e+00,1.260e+00,7.494e-01,1.296e+00,2.008e+00,1.866e+00,1.117e+00,1.566e+00,2.048e+00,1.520e+00,5.455e-01,2.326e+00,9.583e-01,2.030e+00,1.205e+00,1.321e+00,8.276e-01,1.434e+00,1.463e+00,8.786e-01,1.613e+00,2.073e+00,1.818e+00,1.406e+00,9.883e-01,1.963e+00,1.929e+00,1.417e+00,1.773e+00,6.066e-01,1.507e+00,1.079e+00,1.395e+00,2.149e+00,7.475e-01,1.509e+00,1.801e+00,1.966e+00,1.933e+00,1.853e+00,2.037e+00,2.547e+00,2.058e+00,1.116e+00,1.383e+00,1.782e+00,1.122e+00,1.746e+00,1.372e+00,2.226e+00,1.403e+00,1.209e+00,2.251e+00,1.706e+00,2.097e+00,1.866e+00,1.847e+00,1.421e+00,1.294e+00,2.321e+00,1.296e+00,2.000e+00,1.425e+00,1.317e+00,1.198e+00,7.237e-01,1.404e+00,2.229e+00,1.511e+00,1.304e+00
4.470e-01,5.180e-01,9.225e-01,7.599e-01,7.106e-01,1.723e+00,1.835e+00,1.559e+00,2.410e+00,2.251e+00,2.408e+00,1.285e+00,2.529e+00,2.407e+00,2.476e+00,2.214e+00,2.485e+00,3.229e+00,2.472e+00,1.818e+00,3.602e+00,1.431e+00,2.855e+00,2.114e+00,2.518e+00,1.316e+00,2.066e+00,2.298e+00,1.980e+00,2.670e+00,2.989e+00,2.873e+00,2.115e+00,2.071e+00,2.813e+00,2.545e+00,1.806e+00,1.953e+00,1.882e+00,2.556e+00,1.810e+00,3.033e+00,3.125e+00,1.503e+00,2.227e+00,2.754e+00,3.012e+00,3.036e+00,3.024e+00,2.470e+00,3.319e+00,2.901e+00,2.297e+00,1.899e+00,2.511e+00,1.732e+00,2.694e+00,1.952e+00,2.716e+00,2.428e+00,1.608e+00,2.719e+00,2.249e+00,3.170e+00,2.866e+00,3.184e+00,1.671e+00,1.686e+00,3.069e+00,2.667e+00,3.145e+00,2.904e+00,2.763e+00,2.555e+00,1.517e+00,1.855e+00,3.244e+00,2.259e+00,2.428e+00
2.756e-01,3.355e-01,1.063e+00,5.974e-01,1.073e+00,1.787e+00,1.970e+00,6.563e-01,1.445e+00,2.039e+00,3.096e+00,1.993e+00,2.586e+00,1.788e+00,2.031e+00,2.322e+00,1.851e+00,2.372e+00,2.611e+00,1.778e+00,2.286e+00,1.935e+00,2.941e+00,1.746e+00,2.352e+00,1.656e+00,2.260e+00,1.702e+00,2.473e+00,2.841e+00,3.040e+00,2.611e+00,2.747e+00,1.650e+00,2.524e+00,2.155e+00,1.983e+00,2.236e+00,2.205e+00,1.815e+00,1.809e+00,1.723e+00,2.252e+00,2.269e+00,1.768e+00,2.684e+00,2.502e+00,3.394e+00,3.354e+00,2.526e+00,2.237e+00,2.098e+00,1.411e+00,2.638e+00,2.328e+00,1.343e+00,1.829e+00,2.535e+00,2.790e+00,2.364e+00,9.671e-01,2.684e+00,2.601e+00,3.358e+00,2.092e+00,2.225e+00,1.376e+00,2.603e+00,2.556e+00,2.276e+00,2.828e+00,2.330e+00,1.622e+00,2.571e+00,1.517e+00,1.641e+00,2.239e+00,2.144e+00,1.396e+00
2.311e-02,1.772e-01,6.173e-01,4.835e-01,6.287e-01,1.319e+00,1.728e+00,1.534e+00,2.490e+00,2.841e+00,4.027e+00,2.593e+00,2.655e+00,2.434e+00,2.861e+00,3.151e+00,3.020e+00,3.150e+00,3.293e+00,2.846e+00,4.290e+00,1.543e+00,3.650e+00,2.780e+00,3.725e+00,2.021e+00,3.538e+00,2.360e+00,2.946e+00,3.092e+00,4.125e+00,3.376e+00,2.583e+00,2.077e+00,3.169e+00,3.651e+00,3.245e+00,2.448e+00,2.508e+00,2.781e+00,2.440e+00,3.097e+00,3.430e+00,2.288e+00,2.836e+00,3.156e+00,3.729e+00,4.051e+00,3.545e+00,3.754e+00,3.340e+00,3.138e+00,2.270e+00,2.780e+00,3.574e+00,2.510e+00,3.579e+00,2.872e+00,3.265e+00,4.160e+00,1.491e+00,3.831e+00,2.644e+00,3.694e+00,2.694e+00,4.151e+00,2.370e+00,2.986e+00,3.639e+00,2.720e+00,4.115e+00,3.641e+00,2.747e+00,3.449e+00,2.304e+00,2.360e+00,3.327e+00,2.349e+00,2.802e+00
6.974e-02,4.123e-01,5.267e-01,5.143e-01,6.487e-01,1.369e+00,1.323e+00,1.000e+00,1.479e+00,1.770e+00,3.391e+00,2.213e+00,2.858e+00,1.882e+00,2.382e+00,2.373e+00,2.673e+00,2.513e+00,2.951e+00,2.541e+00,2.745e+00,1.678e+00,3.158e+00,2.422e+00,3.347e+00,1.508e+00,3.299e+00,2.383e+00,2.762e+00,2.920e+00,2.616e+00,3.232e+00,2.944e+00,2.558e+00,2.250e+00,2.613e+00,2.943e+00,2.464e+00,2.881e+00,2.166e+00,2.043e+00,2.535e+00,3.514e+00,2.520e+00,1.908e+00,2.768e+00,2.436e+00,3.225e+00,3.608e+00,2.683e+00,2.420e+00,2.572e+00,2.139e+00,2.365e+00,2.993e+00,2.242e+00,3.035e+00,2.202e+00,2.624e+00,2.344e+00,1.598e+00,3.325e+00,2.994e+00,3.679e+00,2.416e+00,3.255e+00,2.363e+00,2.588e+00,2.631e+00,2.809e+00,3.420e+00,2.983e+00,2.918e+00,3.304e+00,2.176e+00,2.145e+00,2.606e+00,2.015e+00,2.846e+00
5.542e-02,7.141e-01,9.684e-01,8.436e-01,9.701e-01,2.145e+00,2.133e+00,1.107e+00,2.200e+00,2.259e+00,3.442e+00,2.667e+00,3.187e+00,2.520e+00,3.643e+00,3.478e+00,3.212e+00,2.571e+00,3.580e+00,2.764e+00,3.278e+00,2.216e+00,4.030e+00,3.003e+00,4.076e+00,2.294e+00,3.481e+00,2.898e+00,3.415e+00,2.917e+00,3.338e+00,3.755e+00,2.770e+00,2.313e+00,2.745e+00,3.082e+00,3.207e+00,2.651e+00,3.412e+00,2.811e+00,3.201e+00,2.992e+00,4.509e+00,3.538e+00,2.380e+00,3.429e+00,3.415e+00,3.886e+00,4.552e+00,3.714e+00,3.184e+00,2.640e+00,2.186e+00,3.770e+00,4.419e+00,2.647e+00,3.445e+00,3.737e+00,3.130e+00,4.049e+00,1.481e+00,4.294e+00,3.999e+00,4.686e+00,2.615e+00,3.104e+00,2.488e+00,3.088e+00,3.317e+00,3.162e+00,4.302e+00,4.004e+00,2.922e+00,4.321e+00,2.399e+00,2.159e+00,3.682e+00,3.316e+00,3.118e+00
6.486e-01,3.942e-01,1.206e+00,8.806e-01,1.367e+00,2.246e+00,1.956e+00,1.417e+00,2.183e+00,2.370e+00,4.204e+00,2.686e+00,3.491e+00,3.017e+00,3.848e+00,3.579e+00,4.332e+00,4.239e+00,4.772e+00,3.458e+00,4.322e+00,3.211e+00,4.300e+00,3.812e+00,4.218e+00,2.974e+00,4.481e+00,3.227e+00,4.249e+00,4.368e+00,4.380e+00,4.703e+00,4.691e+00,3.270e+00,3.700e+00,3.778e+00,4.580e+00,3.980e+00,3.971e+00,3.470e+00,3.169e+00,3.172e+00,4.810e+00,2.954e+00,2.674e+00,4.333e+00,3.786e+00,5.130e+00,5.553e+00,3.593e+00,4.819e+00,3.935e+00,3.699e+00,3.810e+00,3.996e+00,2.503e+00,4.478e+00,3.882e+00,4.156e+00,3.278e+00,3.402e+00,4.800e+00,4.577e+00,5.643e+00,3.634e+00,4.448e+00,3.146e+00,3.834e+00,3.921e+00,4.475e+00,4.646e+00,4.889e+00,3.325e+00,4.129e+00,2.986e+00,3.345e+00,4.317e+00,3.081e+00,3.858e+00
4.379e-01,9.016e-01,9.848e-01,1.004e+00,7.754e-01,1.830e+00,2.138e+00,1.117e+00,2.309e+00,3.129e+00,3.899e+00,2.534e+00,2.927e+00,2.511e+00,3.928e+00,4.525e+00,4.231e+00,4.190e+00,4.739e+00,3.628e+00,4.680e+00,3.062e+00,5.735e+00,4.153e+00,5.401e+00,4.208e+00,5.116e+00,3.815e+00,4.050e+00,4.594e+00,6.071e+00,5.992e+00,4.595e+00,3.134e+00,3.472e+00,4.904e+00,4.719e+00,3.796e+00,3.782e+00,3.429e+00,3.432e+00,2.763e+00,4.953e+00,4.201e+00,4.034e+00,4.303e+00,4.689e+00,5.117e+00,6.185e+00,4.382e+00,4.413e+00,4.048e+00,2.578e+00,4.615e+00,5.225e+00,3.092e+00,4.067e+00,5.239e+00,5.280e+00,5.355e+00,2.803e+00,5.787e+00,4.736e+00,6.056e+00,3.040e+00,4.791e+00,3.557e+00,5.118e+00,4.444e+00,4.047e+00,4.806e+00,4.571e+00,3.692e+00,5.418e+00,3.453e+00,3.770e+00,4.675e+00,3.756e+00,4.581e+00
8.565e-02,3.536e-01,8.311e-01,6.567e-01,1.091e+00,2.088e+00,1.930e+00,1.233e+00,2.197e+00,2.418e+00,3.861e+00,2.777e+00,2.974e+00,2.670e+00,3.632e+00,4.931e+00,3.513e+00,3.446e+00,3.937e+00,4.022e+00,4.941e+00,2.915e+00,5.541e+00,3.414e+00,3.922e+00,3.538e+00,5.225e+00,3.849e+00,3.667e+00,4.649e+00,5.105e+00,4.276e+00,5.145e+00,2.829e+00,4.504e+00,5.331e+00,5.153e+00,4.171e+00,4.371e+00,3.150e+00,3.954e+00,3.297e+00,4.521e+00,5.086e+00,3.437e+00,3.591e+00,4.417e+00,5.929e+00,5.431e+00,4.258e+00,4.461e+00,4.517e+00,2.738e+00,4.580e+00,5.311e+00,2.453e+00,4.681e+00,5.116e+00,3.709e+00,5.251e+00,2.644e+00,4.889e+00,4.537e+00,5.498e+00,3.433e+00,4.789e+00,3.252e+00,4.225e+00,4.327e+00,3.521e+00,4.614e+00,5.329e+00,3.427e+00,5.486e+00,4.368e+00,2.960e+00,4.439e+00,4.167e+00,3.547e+00
3.067e-01,2.267e-01,4.246e-01,4.929e-01,8.276e-01,1.287e+00,1.429e+00,1.002e+00,1.480e+00,2.255e+00,3.961e+00,2.692e+00,2.301e+00,2.324e+00,3.312e+00,4.518e+00,4.637e+00,2.702e+00,4.482e+00,3.508e+00,4.016e+00,2.559e+00,5.018e+00,4.061e+00,4.608e+00,3.538e+00,4.610e+00,3.528e+00,4.059e+00,4.248e+00,4.204e+00,4.657e+00,4.766e+00,2.575e+00,3.734e+00,4.662e+00,4.868e+00,4.124e+00,3.747e+00,2.912e+00,3.750e+00,2.905e+00,4.678e+00,4.038e+00,2.809e+00,3.813e+00,3.638e+00,5.156e+00,5.370e+00,4.842e+00,3.750e+00,3.460e+00,3.121e+00,5.125e+00,5.433e+00,2.431e+00,4.826e+00,4.620e+00,4.450e+00,5.109e+00,2.982e+00,5.592e+00,4.764e+00,4.610e+00,3.175e+00,4.406e+00,4.337e+00,3.912e+00,4.258e+00,3.195e+00,5.074e+00,4.438e+00,2.787e+00,4.739e+00,4.269e+00,3.268e+00,4.118e+00,3.029e+00,4.282e+00
6.610e-01,7.558e-01,9.933e-01,9.475e-01,1.170e+00,2.697e+00,2.166e+00,1.426e+00,2.216e+00,2.816e+00,3.280e+00,2.338e+00,3.210e+00,3.436e+00,3.950e+00,4.436e+00,4.739e+00,4.568e+00,4.729e+00,3.998e+00,5.100e+00,3.478e+00,5.187e+00,3.732e+00,4.265e+00,4.141e+00,4.917e+00,4.202e+00,3.618e+00,4.815e+00,5.301e+00,5.621e+00,4.654e+00,3.067e+00,4.763e+00,4.452e+00,4.368e+00,4.684e+00,4.205e+00,3.260e+00,4.114e+00,4.640e+00,5.160e+00,3.832e+00,3.271e+00,4.181e+00,4.598e+00,6.204e+00,6.302e+00,4.625e+00,5.366e+00,5.214e+00,4.587e+00,4.719e+00,5.836e+00,2.992e+00,5.313e+00,4.713e+00,5.320e+00,5.410e+00,3.886e+00,5.280e+00,4.956e+00,6.257e+00,5.131e+00,4.578e+00,4.201e+00,4.438e+00,5.728e+00,4.174e+00,6.064e+00,4.585e+00,4.224e+00,5.059e+00,4.002e+00,3.930e+00,5.606e+00,4.118e+00,4.505e+00
4.660e-01,8.320e-01,1.353e+00,1.042e+00,1.260e+00,2.940e+00,2.610e+00,1.227e+00,2.567e+00,3.119e+00,4.095e+00,3.167e+00,3.883e+00,3.466e+00,4.455e+00,4.917e+00,4.736e+00,4.914e+00,5.984e+00,4.884e+00,5.575e+00,4.338e+00,6.816e+00,4.599e+00,6.193e+00,4.948e+00,5.866e+00,5.757e+00,4.535e+00,6.248e+00,6.243e+00,5.918e+00,6.103e+00,4.010e+00,5.047e+00,5.346e+00,5.752e+00,6.135e+00,4.742e+00,4.391e+00,4.863e+00,5.222e+00,6.580e+00,4.538e+00,4.570e+00,5.617e+00,5.178e+00,7.435e+00,7.579e+00,6.068e+00,5.049e+00,4.919e+00,4.355e+00,5.682e+00,6.615e+00,4.719e+00,5.802e+00,5.945e+00,6.072e+00,6.430e+00,3.724e+00,7.134e+00,5.712e+00,7.290e+00,4.633e+00,6.583e+00,4.787e+00,5.642e+00,6.365e+00,4.226e+00,6.769e+00,5.120e+00,5.476e+00,5.867e+00,4.761e+00,4.142e+00,5.604e+00,4.988e+00,5.208e+00
5.961e-01,9.328e-01,8.701e-01,1.050e+00,8.045e-01,2.370e+00,1.550e+00,1.247e+00,2.400e+00,2.869e+00,2.659e+00,2.081e+00,2.160e+00,2.815e+00,3.941e+00,4.629e+00,4.238e+00,4.391e+00,4.671e+00,4.108e+00,5.205e+00,4.023e+00,5.721e+00,4.370e+00,4.986e+00,5.850e+00,5.086e+00,4.913e+00,4.061e+00,5.288e+00,5.758e+00,6.135e+00,5.660e+00,3.222e+00,4.415e+00,5.419e+00,5.567e+00,5.416e+00,3.662e+00,3.449e+00,3.875e+00,4.263e+00,5.231e+00,4.314e+00,4.291e+00,4.477e+00,5.360e+00,6.636e+00,6.906e+00,5.418e+00,5.530e+00,5.208e+00,4.074e+00,5.359e+00,6.630e+00,3.836e+00,5.267e+00,6.239e+00,5.666e+00,6.868e+00,4.451e+00,6.033e+00,5.173e+00,6.346e+00,4.286e+00,5.681e+00,4.203e+00,4.435e+00,5.224e+00,4.795e+00,6.903e+00,6.064e+00,4.493e+00,5.524e+00,4.856e+00,4.738e+00,5.661e+00,4.751e+00,4.913e+00
5.395e-01,9.741e-01,1.251e+00,1.233e+00,1.305e+00,2.815e+00,2.574e+00,1.371e+00,2.867e+00,3.666e+00,4.579e+00,3.174e+00,3.242e+00,3.169e+00,4.639e+00,5.933e+00,5.538e+00,4.944e+00,5.635e+00,5.201e+00,6.251e+00,5.308e+00,7.624e+00,5.586e+00,6.391e+00,6.876e+00,6.894e+00,5.796e+00,5.096e+00,6.109e+00,8.202e+00,7.695e+00,6.495e+00,4.054e+00,5.533e+00,7.077e+00,6.104e+00,5.996e+00,5.858e+00,4.604e+00,5.700e+00,5.867e+00,6.611e+00,5.514e+00,5.344e+00,5.010e+00,6.390e+00,8.052e+00,8.861e+00,6.895e+00,6.289e+00,5.791e+00,4.668e+00,7.485e+00,8.263e+00,4.417e+00,6.937e+00,7.289e+00,7.063e+00,8.274e+00,5.199e+00,7.512e+00,6.818e+00,7.489e+00,5.935e+00,6.404e+00,6.326e+00,6.458e+00,6.878e+00,6.103e+00,7.838e+00,6.989e+00,4.718e+00,7.057e+00,6.168e+00,5.545e+00,6.734e+00,5.388e+00,6.048e+00
3.133e-01,3.872e-01,7.255e-01,5.498e-01,7.830e-01,1.562e+00,1.215e+00,6.596e-01,1.144e+00,1.208e+00,1.967e+00,1.439e+00,2.186e+00,1.837e+00,2.557e+00,3.348e+00,3.084e+00,3.369e+00,4.274e+00,4.177e+00,4.237e+00,4.368e+00,4.779e+00,3.453e+00,4.326e+00,4.269e+00,4.844e+00,4.630e+00,4.055e+00,5.205e+00,4.581e+00,5.537e+00,4.746e+00,3.219e+00,3.841e+00,4.381e+00,4.721e+00,4.728e+00,4.063e+00,3.287e+00,3.777e+00,4.307e+00,4.729e+00,3.661e+00,2.841e+00,3.879e+00,3.875e+00,6.058e+00,5.440e+00,3.879e+00,4.868e+00,4.304e+00,4.140e+00,4.801e+00,4.989e+00,2.756e+00,5.057e+00,4.894e+00,4.776e+00,4.445e+00,4.781e+00,5.358e+00,4.557e+00,5.192e+00,4.203e+00,5.366e+00,3.864e+00,4.611e+00,4.544e+00,4.271e+00,5.364e+00,5.116e+00,3.650e+00,4.011e+00,4.078e+00,3.962e+00,4.897e+00,4.061e+00,3.783e+00
4.002e-01,3.228e-01,4.079e-01,4.339e-01,5.181e-01,1.072e+00,1.331e+00,1.149e+00,1.362e+00,2.540e+00,3.403e+00,2.104e+00,2.588e+00,2.570e+00,2.861e+00,4.737e+00,3.998e+00,4.040e+00,4.964e+00,4.563e+00,5.584e+00,4.254e+00,6.201e+00,4.116e+00,5.991e+00,5.035e+00,6.362e+00,5.151e+00,5.070e+00,6.969e+00,6.714e+00,7.089e+00,6.019e+00,3.978e+00,5.354e+00,6.633e+00,5.839e+00,4.930e+00,4.873e+00,4.076e+00,4.160e+00,5.004e+00,5.488e+00,5.089e+00,4.701e+00,4.950e+00,5.147e+00,7.003e+00,6.124e+00,5.685e+00,5.695e+00,6.129e+00,4.325e+00,5.841e+00,5.874e+00,3.137e+00,5.628e+00,6.350e+00,6.412e+00,6.399e+00,5.208e+00,6.212e+00,5.284e+00,5.691e+00,4.887e+00,6.686e+00,4.290e+00,5.904e+00,6.484e+00,5.277e+00,6.731e+00,6.101e+00,4.520e+00,5.219e+00,5.085e+00,5.373e+00,6.617e+00,4.342e+00,5.071e+00
2.659e-01,4.212e-01,6.561e-01,5.274e-01,6.081e-01,1.649e+00,1.631e+00,8.694e-01,1.740e+00,2.489e+00,2.820e+00,2.339e+00,2.270e+00,2.610e+00,3.330e+00,4.928e+00,4.392e+00,4.611e+00,5.478e+00,4.996e+00,5.927e+00,4.568e+00,8.024e+00,5.505e+00,5.951e+00,6.127e+00,6.565e+00,5.877e+00,5.249e+00,7.232e+00,7.858e+00,6.844e+00,7.480e+00,4.364e+00,5.574e+00,7.384e+00,6.206e+00,7.323e+00,4.786e+00,5.165e+00,5.743e+00,5.824e+00,5.996e+00,5.365e+00,5.189e+00,6.187e+00,5.731e+00,8.053e+00,8.043e+00,6.919e+00,6.124e+00,6.453e+00,4.751e+00,6.815e+00,7.632e+00,4.344e+00,6.795e+00,6.948e+00,6.404e+00,8.006e+00,5.444e+00,7.548e+00,6.086e+00,6.873e+00,5.314e+00,6.984e+00,6.104e+00,5.824e+00,7.072e+00,4.483e+00,7.733e+00,7.082e+00,5.847e+00,7.200e+00,6.114e+00,5.659e+00,6.714e+00,6.027e+00,6.511e+00
3.331e-01,6.987e-01,7.811e-01,7.417e-01,7.382e-01,2.065e+00,1.595e+00,8.588e-01,1.733e+00,2.433e+00,2.632e+00,2.435e+00,2.452e+00,2.786e+00,3.659e+00,4.238e+00,3.538e+00,3.501e+00,4.377e+00,4.208e+00,5.147e+00,3.730e+00,6.834e+00,5.278e+00,5.344e+00,5.298e+00,6.044e+00,5.957e+00,5.120e+00,5.754e+00,6.746e+00,5.785e+00,6.362e+00,4.791e+00,5.533e+00,6.932e+00,5.945e+00,6.223e+00,5.645e+00,5.724e+00,6.405e+00,6.684e+00,7.454e+00,5.044e+00,4.961e+00,5.975e+00,5.271e+00,7.451e+00,7.231e+00,6.273e+00,5.961e+00,4.998e+00,3.976e+00,7.114e+00,7.475e+00,4.367e+00,6.199e+00,6.467e+00,5.828e+00,6.925e+00,4.943e+00,7.844e+00,6.451e+00,6.853e+00,5.907e+00,5.746e+00,5.577e+00,5.223e+00,6.608e+00,4.702e+00,6.633e+00,7.604e+00,5.350e+00,6.749e+00,5.577e+00,5.728e+00,6.647e+00,5.955e+00,6.198e+00
5.103e-01,8.201e-01,6.271e-01,7.851e-01,7.099e-01,2.016e+00,1.981e+00,1.018e+00,1.772e+00,2.911e+00,2.864e+00,1.988e+00,2.443e+00,2.734e+00,3.395e+00,4.027e+00,4.101e+00,4.390e+00,4.577e+00,3.728e+00,5.331e+00,4.089e+00,6.502e+00,4.624e+00,5.881e+00,6.675e+00,6.455e+00,5.650e+00,5.549e+00,6.497e+00,7.764e+00,7.841e+00,6.722e+00,4.248e+00,4.992e+00,6.871e+00,5.931e+00,6.049e+00,4.665e+00,4.908e+00,5.601e+00,5.814e+00,6.679e+00,5.019e+00,5.396e+00,6.537e+00,6.318e+00,7.000e+00,7.526e+00,6.704e+00,6.621e+00,6.047e+00,4.257e+00,6.941e+00,7.451e+00,4.398e+00,5.966e+00,7.051e+00,7.508e+00,7.552e+00,5.126e+00,7.122e+00,6.744e+00,8.015e+00,5.836e+00,6.512e+00,4.555e+00,6.580e+00,6.442e+00,5.004e+00,7.682e+00,6.144e+00,5.543e+00,7.032e+00,5.786e+00,6.022e+00,6.196e+00,6.106e+00,6.451e+00
4.103e-01,9.074e-01,1.361e+00,1.140e+00,9.388e-01,2.310e+00,2.379e+00,1.595e+00,3.053e+00,3.031e+00,3.530e+00,2.246e+00,3.314e+00,2.783e+00,3.561e+00,4.424e+00,3.698e+00,4.684e+00,4.314e+00,4.237e+00,6.065e+00,3.936e+00,6.484e+00,4.568e+00,5.856e+00,5.783e+00,5.969e+00,6.105e+00,5.719e+00,6.965e+00,8.294e+00,6.877e+00,6.656e+00,5.592e+00,6.235e+00,6.869e+00,5.492e+00,5.305e+00,5.054e+00,5.847e+00,6.125e+00,6.496e+00,6.867e+00,4.738e+00,6.176e+00,6.147e+00,6.377e+00,7.171e+00,7.094e+00,6.406e+00,6.761e+00,6.209e+00,4.371e+00,6.986e+00,7.409e+00,5.200e+00,5.851e+00,7.365e+00,7.088e+00,7.666e+00,4.903e+00,6.756e+00,6.327e+00,7.689e+00,5.617e+00,7.904e+00,4.804e+00,6.116e+00,6.628e+00,6.613e+00,7.085e+00,7.321e+00,6.530e+00,7.914e+00,6.317e+00,5.839e+00,6.907e+00,6.855e+00,6.511e+00
4.012e-01,2.291e-01,1.023e+00,6.032e-01,1.214e+00,1.998e+00,1.906e+00,9.611e-01,1.629e+00,2.373e+00,3.889e+00,2.708e+00,3.064e+00,2.757e+00,3.142e+00,4.546e+00,3.674e+00,4.033e+00,4.813e+00,4.945e+00,5.729e+00,4.438e+00,6.102e+00,4.016e+00,5.223e+00,5.605e+00,6.796e+00,5.965e+00,5.180e+00,8.459e+00,7.643e+00,6.873e+00,7.617e+00,5.954e+00,6.425e+00,7.325e+00,6.879e+00,6.524e+00,6.592e+00,5.561e+00,5.433e+00,5.970e+00,6.454e+00,5.095e+00,5.976e+00,6.111e+00,5.216e+00,8.383e+00,6.671e+00,6.694e+00,7.251e+00,6.924e+00,5.443e+00,7.350e+00,7.786e+00,5.248e+00,5.888e+00,7.640e+00,6.884e+00,7.640e+00,5.340e+00,6.769e+00,6.274e+00,7.302e+00,5.564e+00,7.807e+00,5.537e+00,7.999e+00,7.877e+00,5.873e+00,6.869e+00,7.050e+00,5.509e+00,7.149e+00,5.763e+00,5.800e+00,7.821e+00,6.019e+00,5.362e+00
3.711e-01,6.680e-01,5.189e-01,7.256e-01,4.918e-01,1.397e+00,1.240e+00,1.011e+00,1.732e+00,2.094e+00,2.300e+00,1.493e+00,1.780e+00,1.936e+00,2.840e+00,3.925e+00,3.942e+00,4.013e+00,4.307e+00,4.318e+00,5.059e+00,4.714e+00,6.503e+00,5.755e+00,5.920e+00,7.559e+00,6.783e+00,7.160e+00,6.821e+00,8.289e+00,8.587e+00,8.465e+00,8.544e+00,6.635e+00,6.644e+00,8.800e+00,7.175e+00,6.807e+00,6.848e+00,6.770e+00,7.159e+00,7.667e+00,8.149e+00,5.639e+00,7.237e+00,7.000e+00,6.471e+00,8.377e+00,8.262e+00,7.989e+00,8.426e+00,7.331e+00,5.929e+00,8.490e+00,1.001e+01,6.062e+00,7.247e+00,7.953e+00,8.434e+00,8.909e+00,7.175e+00,8.151e+00,7.795e+00,7.971e+00,6.838e+00,7.947e+00,6.813e+00,7.977e+00,7.776e+00,7.134e+00,8.243e+00,8.739e+00,6.944e+00,8.092e+00,8.040e+00,8.036e+00,8.902e+00,7.090e+00,8.727e+00
6.630e-01,5.010e-01,1.336e+00,9.062e-01,1.064e+00,2.089e+00,1.480e+00,9.990e-01,2.069e+00,2.546e+00,3.598e+00,3.053e+00,2.793e+00,3.013e+00,3.862e+00,4.984e+00,5.370e+00,4.766e+00,5.646e+00,4.621e+00,6.289e+00,3.872e+00,7.376e+00,5.930e+00,6.013e+00,5.338e+00,6.520e+00,7.054e+00,7.580e+00,7.986e+00,7.723e+00,8.255e+00,8.714e+00,5.982e+00,7.734e+00,8.394e+00,7.608e+00,8.714e+00,7.335e+00,7.367e+00,7.100e+00,8.084e+00,7.801e+00,5.839e+00,6.462e+00,8.538e+00,6.925e+00,8.933e+00,8.406e+00,6.382e+00,8.463e+00,7.345e+00,6.378e+00,8.494e+00,8.480e+00,5.817e+00,7.602e+00,7.325e+00,8.315e+00,8.345e+00,6.283e+00,9.371e+00,8.001e+00,8.777e+00,8.058e+00,8.270e+00,6.851e+00,6.624e+00,8.328e+00,6.569e+00,9.107e+00,9.182e+00,6.832e+00,8.851e+00,7.222e+00,8.450e+00,8.190e+00,7.893e+00,8.196e+00
3.524e-01,5.127e-01,1.261e+00,8.007e-01,8.964e-01,1.728e+00,1.868e+00,9.698e-01,2.030e+00,2.246e+00,3.195e+00,2.290e+00,2.964e+00,2.404e+00,3.226e+00,4.992e+00,3.952e+00,4.562e+00,5.444e+00,5.460e+00,5.516e+00,4.412e+00,6.991e+00,5.516e+00,6.641e+00,6.554e+00,6.538e+00,7.019e+00,7.213e+00,9.645e+00,1.018e+01,9.086e+00,9.657e+00,7.021e+00,9.172e+00,8.492e+00,8.087e+00,8.019e+00,7.291e+00,7.343e+00,8.358e+00,7.973e+00,7.983e+00,6.438e+00,7.149e+00,8.493e+00,6.749e+00,1.043e+01,9.110e+00,8.042e+00,8.063e+00,8.640e+00,6.145e+00,9.101e+00,1.001e+01,7.342e+00,6.985e+00,8.673e+00,8.391e+00,8.888e+00,7.076e+00,9.182e+00,7.805e+00,8.555e+00,7.333e+00,9.338e+00,6.699e+00,8.441e+00,9.373e+00,6.975e+00,8.457e+00,8.595e+00,8.394e+00,9.251e+00,8.089e+00,8.789e+00,9.603e+00,8.397e+00,9.093e+00
3.990e-01,4.453e-01,1.100e+00,8.429e-01,9.471e-01,1.530e+00,1.666e+00,9.309e-01,2.057e+00,1.514e+00,2.555e+00,1.555e+00,1.920e+00,1.595e+00,2.746e+00,3.134e+00,3.889e+00,3.677e+00,3.868e+00,3.628e+00,4.597e+00,4.007e+00,5.372e+00,4.669e+00,5.277e+00,6.125e+00,4.979e+00,5.711e+00,5.788e+00,7.599e+00,7.580e+00,8.280e+00,7.401e+00,5.984e+00,6.646e+00,7.594e+00,7.214e+00,6.315e+00,6.598e+00,6.067e+00,5.376e+00,6.971e+00,7.456e+00,5.930e+00,6.425e+00,7.251e+00,5.466e+00,8.208e+00,7.562e+00,6.313e+00,8.205e+00,7.555e+00,5.348e+00,7.570e+00,8.713e+00,5.898e+00,6.669e+00,7.005e+00,7.279e+00,8.343e+00,6.827e+00,7.176e+00,6.974e+00,7.318e+00,6.038e+00,7.659e+00,5.845e+00,6.990e+00,6.532e+00,6.374e+00,7.688e+00,7.625e+00,6.929e+00,8.525e+00,7.250e+00,7.009e+00,7.768e+00,6.962e+00,7.222e+00
5.415e-01,8.473e-01,1.495e+00,1.184e+00,1.116e+00,2.594e+00,2.639e+00,1.426e+00,3.159e+00,2.904e+00,2.962e+00,2.186e+00,2.754e+00,2.986e+00,4.091e+00,4.240e+00,4.228e+00,3.772e+00,4.324e+00,3.259e+00,5.540e+00,4.940e+00,7.072e+00,5.392e+00,6.277e+00,6.071e+00,5.820e+00,7.079e+00,6.245e+00,8.120e+00,8.537e+00,9.584e+00,7.790e+00,7.172e+00,8.471e+00,1.007e+01,8.117e+00,7.364e+00,8.774e+00,8.736e+00,8.154e+00,9.499e+00,9.147e+00,7.243e+00,9.004e+00,8.207e+00,7.318e+00,9.434e+00,9.385e+00,9.004e+00,9.747e+00,9.571e+00,6.609e+00,1.023e+01,1.125e+01,7.962e+00,7.772e+00,8.533e+00,8.676e+00,1.076e+01,6.254e+00,9.720e+00,8.703e+00,7.984e+00,7.958e+00,9.702e+00,7.805e+00,8.042e+00,9.546e+00,8.689e+00,8.705e+00,9.261e+00,7.021e+00,9.775e+00,8.236e+00,7.750e+00,1.082e+01,9.035e+00,8.555e+00
4.827e-01,3.219e-01,6.332e-01,6.225e-01,9.875e-01,1.888e+00,1.973e+00,1.726e+00,2.198e+00,2.837e+00,3.870e+00,2.363e+00,3.154e+00,3.398e+00,3.910e+00,5.053e+00,4.875e+00,5.641e+00,5.530e+00,5.349e+00,6.729e+00,4.747e+00,7.232e+00,5.395e+00,6.003e+00,6.677e+00,7.756e+00,6.429e+00,7.075e+00,1.046e+01,1.032e+01,1.100e+01,1.079e+01,8.378e+00,9.168e+00,1.127e+01,9.690e+00,9.098e+00,8.720e+00,7.980e+00,8.324e+00,8.682e+00,9.150e+00,8.539e+00,8.426e+00,1.009e+01,8.308e+00,1.153e+01,1.085e+01,9.961e+00,1.089e+01,1.193e+01,7.711e+00,9.835e+00,1.181e+01,7.484e+00,9.204e+00,1.006e+01,8.656e+00,9.860e+00,8.878e+00,9.974e+00,9.401e+00,1.001e+01,8.707e+00,1.048e+01,8.222e+00,9.833e+00,1.028e+01,9.211e+00,1.012e+01,1.048e+01,8.364e+00,1.049e+01,8.949e+00,8.854e+00,1.214e+01,9.346e+00,9.733e+00
4.635e-01,8.035e-01,1.087e+00,9.182e-01,9.102e-01,2.509e+00,1.894e+00,1.228e+00,2.224e+00,2.682e+00,2.920e+00,2.365e+00,3.275e+00,3.177e+00,3.944e+00,3.745e+00,3.530e+00,4.477e+00,4.900e+00,4.999e+00,5.461e+00,4.452e+00,5.990e+00,4.621e+00,5.665e+00,4.608e+00,6.032e+00,5.889e+00,5.956e+00,6.776e+00,7.648e+00,9.634e+00,7.565e+00,6.165e+00,7.892e+00,8.649e+00,8.125e+00,7.818e+00,8.205e+00,8.062e+00,8.157e+00,9.330e+00,9.011e+00,6.171e+00,6.595e+00,7.886e+00,7.991e+00,9.806e+00,9.051e+00,8.069e+00,9.761e+00,1.018e+01,7.042e+00,9.600e+00,1.103e+01,7.647e+00,8.408e+00,8.223e+00,7.511e+00,8.035e+00,7.496e+00,1.030e+01,8.686e+00,8.612e+00,9.130e+00,9.345e+00,7.620e+00,7.667e+00,8.826e+00,8.078e+00,9.059e+00,9.691e+00,7.226e+00,8.952e+00,6.056e+00,8.346e+00,1.057e+01,9.158e+00,7.887e+00
6.740e-01,5.854e-01,1.163e+00,9.012e-01,1.026e+00,2.273e+00,1.485e+00,1.235e+00,2.101e+00,2.709e+00,3.307e+00,2.632e+00,2.934e+00,3.221e+00,3.887e+00,4.361e+00,4.333e+00,5.270e+00,5.250e+00,5.508e+00,6.672e+00,4.573e+00,6.570e+00,5.446e+00,5.443e+00,5.892e+00,7.116e+00,6.665e+00,6.505e+00,8.539e+00,9.483e+00,1.013e+01,9.012e+00,8.319e+00,9.596e+00,1.028e+01,9.729e+00,1.031e+01,1.001e+01,9.183e+00,9.400e+00,1.070e+01,9.956e+00,7.009e+00,7.592e+00,9.617e+00,8.380e+00,1.220e+01,1.039e+01,8.279e+00,1.023e+01,1.014e+01,8.659e+00,1.092e+01,1.092e+01,8.701e+00,9.452e+00,9.221e+00,8.905e+00,9.417e+00,9.273e+00,1.122e+01,9.914e+00,1.027e+01,1.081e+01,1.029e+01,9.558e+00,9.202e+00,1.079e+01,9.880e+00,9.370e+00,1.113e+01,8.080e+00,1.074e+01,8.704e+00,9.595e+00,1.114e+01,9.984e+00,9.440e+00
5.913e-01,3.897e-01,9.893e-01,7.398e-01,1.036e+00,1.739e+00,1.561e+00,1.190e+00,1.684e+00,1.896e+00,3.018e+00,2.001e+00,2.771e+00,2.703e+00,3.170e+00,3.821e+00,3.760e+00,3.918e+00,4.531e+00,4.178e+00,4.909e+00,4.448e+00,5.601e+00,4.669e+00,5.150e+00,5.505e+00,6.043e+00,5.932e+00,5.734e+00,8.736e+00,8.354e+00,9.271e+00,9.223e+00,8.127e+00,8.774e+00,1.021e+01,1.026e+01,9.140e+00,1.014e+01,8.815e+00,8.532e+00,1.004e+01,1.042e+01,7.618e+00,8.910e+00,9.959e+00,7.766e+00,1.076e+01,1.035e+01,9.084e+00,9.575e+00,1.021e+01,7.760e+00,1.070e+01,1.105e+01,8.960e+00,8.258e+00,9.775e+00,7.734e+00,9.454e+00,8.122e+00,1.037e+01,9.158e+00,8.823e+00,9.224e+00,9.853e+00,8.671e+00,9.935e+00,1.083e+01,8.983e+00,8.578e+00,1.017e+01,8.216e+00,9.759e+00,8.328e+00,8.597e+00,1.103e+01,9.360e+00,9.586e+00
1.207e-01,1.994e-01,6.234e-01,3.976e-01,8.465e-01,1.685e+00,1.688e+00,1.024e+00,1.563e+00,2.051e+00,3.505e+00,2.465e+00,3.024e+00,2.476e+00,2.842e+00,3.629e+00,3.610e+00,4.097e+00,4.515e+00,4.519e+00,4.972e+00,4.205e+00,6.079e+00,4.308e+00,5.129e+00,5.131e+00,6.435e+00,5.165e+00,5.844e+00,7.798e+00,7.816e+00,8.349e+00,8.204e+00,6.435e+00,7.590e+00,9.103e+00,9.376e+00,9.072e+00,8.731e+00,7.192e+00,8.527e+00,8.940e+00,8.712e+00,7.398e+00,7.564e+00,8.262e+00,7.678e+00,1.012e+01,9.269e+00,8.208e+00,8.711e+00,1.045e+01,7.664e+00,1.078e+01,1.002e+01,8.366e+00,9.408e+00,9.314e+00,7.625e+00,9.280e+00,7.270e+00,9.415e+00,9.364e+00,9.262e+00,8.402e+00,1.000e+01,8.773e+00,8.885e+00,9.061e+00,8.723e+00,9.063e+00,9.994e+00,7.197e+00,1.086e+01,8.188e+00,7.922e+00,9.192e+00,8.837e+00,9.031e+00
3.992e-02,6.767e-01,7.121e-01,7.491e-01,6.974e-01,1.836e+00,1.782e+00,9.594e-01,2.109e+00,2.166e+00,2.900e+00,2.178e+00,2.448e+00,2.058e+00,3.466e+00,4.390e+00,4.005e+00,4.226e+00,4.871e+00,4.943e+00,5.727e+00,5.370e+00,7.878e+00,5.631e+00,7.537e+00,7.573e+00,7.713e+00,8.592e+00,6.776e+00,9.311e+00,8.729e+00,9.314e+00,9.751e+00,8.248e+00,8.020e+00,1.142e+01,1.027e+01,1.033e+01,1.117e+01,8.898e+00,9.584e+00,1.118e+01,1.144e+01,9.909e+00,1.079e+01,1.057e+01,8.719e+00,1.205e+01,1.066e+01,9.194e+00,1.018e+01,1.093e+01,8.990e+00,1.269e+01,1.195e+01,9.576e+00,1.002e+01,1.187e+01,1.002e+01,1.248e+01,8.501e+00,1.143e+01,1.113e+01,1.045e+01,9.944e+00,1.245e+01,9.763e+00,1.090e+01,1.062e+01,1.095e+01,1.134e+01,1.218e+01,9.047e+00,1.236e+01,1.150e+01,9.273e+00,1.133e+01,1.056e+01,9.777e+00
1.440e-02,4.540e-01,5.452e-01,5.563e-01,7.943e-01,2.143e+00,1.696e+00,1.083e+00,2.038e+00,2.612e+00,3.111e+00,2.446e+00,2.504e+00,2.545e+00,3.329e+00,3.876e+00,3.279e+00,3.714e+00,4.452e+00,4.527e+00,4.472e+00,4.766e+00,5.736e+00,4.889e+00,5.850e+00,6.491e+00,6.240e+00,5.736e+00,5.617e+00,7.392e+00,7.883e+00,8.411e+00,7.450e+00,5.533e+00,9.085e+00,8.616e+00,9.891e+00,8.320e+00,9.765e+00,6.680e+00,8.959e+00,1.014e+01,9.986e+00,8.142e+00,8.340e+00,8.541e+00,7.391e+00,1.145e+01,9.609e+00,8.568e+00,9.576e+00,1.201e+01,8.188e+00,1.140e+01,1.215e+01,8.999e+00,8.539e+00,9.791e+00,8.752e+00,1.176e+01,8.293e+00,1.086e+01,8.782e+00,9.515e+00,9.205e+00,9.958e+00,7.502e+00,8.974e+00,1.061e+01,8.573e+00,1.125e+01,1.050e+01,7.998e+00,1.033e+01,8.402e+00,8.846e+00,1.086e+01,9.035e+00,8.210e+00
2.062e-01,7.302e-01,7.089e-01,7.354e-01,6.708e-01,2.252e+00,1.484e+00,1.178e+00,2.053e+00,2.316e+00,2.450e+00,2.093e+00,2.783e+00,2.767e+00,3.372e+00,3.689e+00,3.211e+00,4.247e+00,4.287e+00,3.992e+00,5.379e+00,4.830e+00,6.354e+00,4.198e+00,6.005e+00,5.872e+00,6.755e+00,6.712e+00,6.002e+00,8.100e+00,7.538e+00,9.096e+00,8.360e+00,6.671e+00,8.067e+00,9.591e+00,9.521e+00,1.012e+01,1.036e+01,7.773e+00,9.402e+00,1.066e+01,1.164e+01,9.304e+00,9.462e+00,1.024e+01,9.225e+00,1.194e+01,1.097e+01,8.985e+00,1.027e+01,1.220e+01,9.808e+00,1.162e+01,1.190e+01,1.019e+01,9.533e+00,1.107e+01,9.529e+00,1.171e+01,9.202e+00,1.119e+01,1.094e+01,1.141e+01,1.050e+01,1.203e+01,8.425e+00,9.995e+00,1.090e+01,1.130e+01,1.213e+01,1.111e+01,9.217e+00,1.092e+01,9.663e+00,9.619e+00,1.159e+01,1.151e+01,9.230e+00
6.320e-01,3.265e-01,1.045e+00,7.507e-01,9.774e-01,1.515e+00,1.149e+00,7.876e-01,1.558e+00,1.994e+00,3.160e+00,2.379e+00,2.026e+00,2.248e+00,3.229e+00,4.415e+00,4.334e+00,3.857e+00,4.917e+00,4.519e+00,5.597e+00,4.194e+00,6.133e+00,4.776e+00,5.225e+00,5.485e+00,5.897e+00,5.930e+00,6.086e+00,7.693e+00,7.467e+00,8.801e+00,8.666e+00,6.801e+00,7.317e+00,9.866e+00,9.956e+00,9.878e+00,9.870e+00,7.846e+00,9.348e+00,9.361e+00,1.132e+01,9.399e+00,8.620e+00,1.100e+01,9.069e+00,1.239e+01,1.144e+01,9.474e+00,1.013e+01,1.037e+01,9.091e+00,1.255e+01,1.115e+01,9.590e+00,9.739e+00,1.164e+01,8.693e+00,1.171e+01,9.570e+00,1.251e+01,1.144e+01,9.758e+00,1.020e+01,1.102e+01,1.110e+01,1.090e+01,1.053e+01,1.042e+01,1.082e+01,1.141e+01,8.417e+00,1.102e+01,1.057e+01,1.018e+01,1.165e+01,1.068e+01,9.321e+00
5.228e-01,5.042e-01,5.638e-01,6.869e-01,5.613e-01,1.434e+00,1.027e+00,1.168e+00,1.806e+00,2.571e+00,2.984e+00,2.072e+00,1.929e+00,2.418e+00,3.040e+00,3.705e+00,3.571e+00,3.664e+00,3.833e+00,3.909e+00,5.311e+00,3.264e+00,5.903e+00,4.636e+00,5.240e+00,5.005e+00,5.937e+00,5.896e+00,5.355e+00,7.308e+00,7.862e+00,9.023e+00,8.385e+00,7.128e+00,7.832e+00,1.001e+01,9.650e+00,9.034e+00,9.170e+00,8.245e+00,7.977e+00,9.772e+00,1.129e+01,8.822e+00,9.022e+00,1.049e+01,9.113e+00,1.176e+01,1.001e+01,9.413e+00,9.816e+00,1.082e+01,9.352e+00,1.125e+01,1.142e+01,9.921e+00,8.738e+00,1.018e+01,8.778e+00,1.159e+01,9.154e+00,1.137e+01,1.041e+01,8.974e+00,1.082e+01,1.099e+01,1.043e+01,9.983e+00,1.082e+01,9.343e+00,1.048e+01,1.083e+01,8.662e+00,1.038e+01,9.437e+00,1.052e+01,1.135e+01,1.085e+01,9.782e+00
5.700e-01,4.218e-01,8.180e-01,6.486e-01,8.774e-01,1.706e+00,1.574e+00,9.543e-01,1.537e+00,2.590e+00,3.684e+00,2.634e+00,2.765e+00,2.768e+00,3.355e+00,4.227e+00,4.518e+00,4.786e+00,5.475e+00,4.782e+00,6.061e+00,4.751e+00,7.060e+00,5.024e+00,6.123e+00,6.266e+00,7.243e+00,6.201e+00,6.902e+00,9.251e+00,9.134e+00,9.616e+00,8.826e+00,7.430e+00,8.333e+00,1.000e+01,1.113e+01,1.060e+01,9.882e+00,8.373e+00,8.818e+00,1.005e+01,1.240e+01,9.277e+00,1.030e+01,1.125e+01,1.054e+01,1.332e+01,1.095e+01,1.049e+01,1.194e+01,1.239e+01,1.049e+01,1.332e+01,1.223e+01,1.109e+01,1.109e+01,1.233e+01,1.110e+01,1.243e+01,1.060e+01,1.196e+01,1.276e+01,1.151e+01,1.131e+01,1.194e+01,1.148e+01,1.212e+01,1.150e+01,1.062e+01,1.201e+01,1.184e+01,9.737e+00,1.228e+01,1.079e+01,1.249e+01,1.168e+01,1.196e+01,1.161e+01
1.213e-01,2.625e-01,4.494e-01,4.360e-01,6.851e-01,1.201e+00,1.368e+00,8.664e-01,1.394e+00,1.927e+00,3.193e+00,1.961e+00,2.102e+00,1.616e+00,2.145e+00,3.054e+00,3.439e+00,3.320e+00,3.620e+00,3.411e+00,3.613e+00,3.527e+00,5.175e+00,4.392e+00,5.075e+00,5.373e+00,5.293e+00,5.445e+00,5.339e+00,6.868e+00,6.639e+00,7.995e+00,8.040e+00,6.558e+00,7.412e+00,9.544e+00,8.943e+00,7.691e+00,1.023e+01,7.636e+00,7.860e+00,1.009e+01,1.051e+01,9.499e+00,1.011e+01,1.029e+01,8.892e+00,1.177e+01,1.042e+01,9.336e+00,9.810e+00,1.099e+01,9.543e+00,1.154e+01,1.128e+01,8.793e+00,9.573e+00,9.238e+00,8.942e+00,1.171e+01,7.919e+00,1.055e+01,1.014e+01,9.650e+00,1.151e+01,9.834e+00,9.595e+00,1.044e+01,1.052e+01,9.094e+00,1.050e+01,9.789e+00,8.381e+00,1.081e+01,9.878e+00,9.376e+00,1.084e+01,9.578e+00,8.882e+00
6.310e-01,8.044e-01,8.210e-01,8.312e-01,7.175e-01,1.873e+00,1.392e+00,9.457e-01,1.453e+00,2.278e+00,2.708e+00,2.078e+00,2.721e+00,2.730e+00,3.266e+00,4.542e+00,3.975e+00,4.127e+00,4.767e+00,4.335e+00,5.086e+00,4.058e+00,6.651e+00,4.427e+00,5.714e+00,5.682e+00,6.246e+00,6.818e+00,6.210e+00,8.818e+00,7.823e+00,9.749e+00,9.630e+00,7.328e+00,8.314e+00,9.617e+00,9.401e+00,9.039e+00,1.026e+01,8.597e+00,8.742e+00,9.095e+00,1.221e+01,9.838e+00,1.057e+01,1.157e+01,1.055e+01,1.309e+01,1.184e+01,1.172e+01,1.166e+01,1.296e+01,1.020e+01,1.411e+01,1.339e+01,1.080e+01,9.748e+00,1.240e+01,9.900e+00,1.230e+01,1.005e+01,1.240e+01,1.229e+01,1.176e+01,1.179e+01,1.187e+01,1.122e+01,1.084e+01,1.207e+01,1.084e+01,1.178e+01,1.091e+01,1.003e+01,1.308e+01,1.114e+01,1.153e+01,1.279e+01,1.263e+01,1.072e+01
4.147e-01,3.722e-01,7.518e-01,5.930e-01,8.012e-01,1.537e+00,1.493e+00,1.047e+00,1.607e+00,2.498e+00,3.360e+00,2.265e+00,2.545e+00,2.491e+00,2.879e+00,4.487e+00,3.830e+00,3.969e+00,4.766e+00,4.267e+00,4.901e+00,4.725e+00,6.384e+00,5.221e+00,5.540e+00,6.250e+00,6.466e+00,5.727e+00,6.785e+00,8.485e+00,8.817e+00,8.872e+00,8.971e+00,6.860e+00,9.096e+00,9.743e+00,9.275e+00,8.684e+00,9.456e+00,7.698e+00,9.420e+00,1.007e+01,1.114e+01,9.713e+00,1.053e+01,1.172e+01,1.037e+01,1.442e+01,1.305e+01,1.144e+01,1.208e+01,1.354e+01,1.069e+01,1.401e+01,1.307e+01,1.084e+01,1.045e+01,1.169e+01,1.122e+01,1.347e+01,1.097e+01,1.253e+01,1.119e+01,1.205e+01,1.198e+01,1.140e+01,1.144e+01,1.170e+01,1.213e+01,1.217e+01,1.218e+01,1.136e+01,9.148e+00,1.187e+01,1.068e+01,1.184e+01,1.281e+01,1.171e+01,1.146e+01
3.777e-01,3.687e-01,9.188e-01,6.966e-01,9.507e-01,1.678e+00,1.413e+00,1.084e+00,1.786e+00,2.250e+00,3.616e+00,2.799e+00,2.725e+00,2.753e+00,3.495e+00,4.904e+00,4.487e+00,3.829e+00,5.339e+00,4.693e+00,5.491e+00,4.215e+00,6.148e+00,4.880e+00,5.738e+00,5.573e+00,6.442e+00,6.254e+00,6.411e+00,8.313e+00,7.714e+00,9.451e+00,8.970e+00,6.848e+00,8.381e+00,9.181e+00,1.012e+01,9.855e+00,1.125e+01,8.923e+00,9.132e+00,1.050e+01,1.240e+01,1.011e+01,1.024e+01,1.217e+01,1.062e+01,1.489e+01,1.390e+01,1.111e+01,1.298e+01,1.330e+01,1.226e+01,1.528e+01,1.413e+01,1.106e+01,1.117e+01,1.313e+01,1.023e+01,1.364e+01,1.026e+01,1.420e+01,1.176e+01,1.218e+01,1.246e+01,1.249e+01,1.176e+01,1.215e+01,1.288e+01,1.183e+01,1.287e+01,1.262e+01,1.115e+01,1.272e+01,1.093e+01,1.139e+01,1.403e+01,1.287e+01,1.121e+01
1.167e-01,4.962e-01,8.755e-01,7.699e-01,7.199e-01,1.757e+00,1.751e+00,1.330e+00,2.683e+00,2.362e+00,2.725e+00,1.823e+00,2.077e+00,2.041e+00,3.097e+00,4.390e+00,3.469e+00,3.792e+00,4.087e+00,4.158e+00,5.536e+00,4.811e+00,7.059e+00,5.739e+00,6.095e+00,6.737e+00,6.310e+00,7.877e+00,6.807e+00,9.010e+00,8.767e+00,1.029e+01,1.010e+01,7.938e+00,1.064e+01,1.251e+01,1.129e+01,1.058e+01,1.254e+01,1.027e+01,1.156e+01,1.328e+01,1.382e+01,1.200e+01,1.347e+01,1.476e+01,1.270e+01,1.757e+01,1.481e+01,1.300e+01,1.580e+01,1.637e+01,1.283e+01,1.764e+01,1.660e+01,1.401e+01,1.208e+01,1.512e+01,1.273e+01,1.626e+01,1.260e+01,1.546e+01,1.427e+01,1.368e+01,1.678e+01,1.512e+01,1.339e+01,1.372e+01,1.496e+01,1.391e+01,1.453e+01,1.566e+01,1.216e+01,1.508e+01,1.485e+01,1.499e+01,1.526e+01,1.548e+01,1.255e+01
5.717e-01,9.548e-01,1.059e+00,1.029e+00,8.109e-01,2.055e+00,2.142e+00,1.370e+00,2.257e+00,2.403e+00,2.399e+00,1.275e+00,2.861e+00,2.512e+00,3.025e+00,3.510e+00,3.095e+00,4.307e+00,3.928e+00,3.672e+00,5.291e+00,4.967e+00,6.402e+00,4.397e+00,6.186e+00,6.664e+00,6.232e+00,6.990e+00,6.074e+00,9.526e+00,9.326e+00,9.969e+00,9.077e+00,8.611e+00,8.547e+00,1.056e+01,9.602e+00,8.856e+00,9.808e+00,8.610e+00,1.002e+01,1.164e+01,1.295e+01,1.035e+01,1.202e+01,1.344e+01,1.142e+01,1.468e+01,1.369e+01,1.297e+01,1.419e+01,1.562e+01,1.146e+01,1.504e+01,1.396e+01,1.406e+01,1.124e+01,1.363e+01,1.298e+01,1.384e+01,1.212e+01,1.273e+01,1.393e+01,1.350e+01,1.353e+01,1.326e+01,1.207e+01,1.376e+01,1.373e+01,1.372e+01,1.341e+01,1.203e+01,1.157e+01,1.336e+01,1.213e+01,1.404e+01,1.501e+01,1.406e+01,1.222e+01
4.808e-01,4.236e-01,6.685e-01,6.214e-01,8.560e-01,2.065e+00,1.213e+00,1.188e+00,1.684e+00,2.221e+00,2.791e+00,2.144e+00,2.543e+00,2.839e+00,3.086e+00,3.534e+00,3.335e+00,3.800e+00,3.807e+00,3.617e+00,4.529e+00,2.994e+00,5.026e+00,4.272e+00,3.895e+00,4.409e+00,5.390e+00,5.121e+00,5.336e+00,6.557e+00,6.482e+00,7.243e+00,7.889e+00,5.536e+00,7.702e+00,7.629e+00,8.084e+00,8.099e+00,7.963e+00,6.816e+00,7.773e+00,8.352e+00,1.007e+01,7.152e+00,7.529e+00,9.346e+00,8.428e+00,1.160e+01,1.002e+01,9.185e+00,1.106e+01,1.069e+01,1.041e+01,1.151e+01,1.165e+01,9.931e+00,9.182e+00,9.933e+00,9.480e+00,1.058e+01,8.687e+00,1.063e+01,1.035e+01,1.118e+01,1.206e+01,9.971e+00,9.631e+00,9.499e+00,1.033e+01,9.333e+00,1.037e+01,1.038e+01,8.889e+00,1.017e+01,9.369e+00,1.135e+01,1.027e+01,1.061e+01,9.145e+00
8.528e-02,6.939e-01,6.690e-01,7.801e-01,5.166e-01,1.247e+00,1.601e+00,1.244e+00,2.187e+00,2.551e+00,3.824e+00,2.642e+00,2.831e+00,2.260e+00,3.627e+00,4.370e+00,4.667e+00,4.632e+00,5.166e+00,4.767e+00,5.508e+00,3.695e+00,6.242e+00,5.116e+00,6.809e+00,6.009e+00,6.591e+00,6.076e+00,6.830e+00,8.373e+00,8.564e+00,1.009e+01,7.676e+00,7.417e+00,7.494e+00,9.140e+00,9.666e+00,7.519e+00,9.698e+00,7.853e+00,8.189e+00,9.805e+00,1.156e+01,8.885e+00,9.682e+00,1.161e+01,1.106e+01,1.446e+01,1.340e+01,1.186e+01,1.497e+01,1.432e+01,1.249e+01,1.404e+01,1.469e+01,1.268e+01,1.167e+01,1.406e+01,1.283e+01,1.454e+01,1.133e+01,1.352e+01,1.363e+01,1.434e+01,1.345e+01,1.232e+01,1.221e+01,1.355e+01,1.226e+01,1.280e+01,1.333e+01,1.255e+01,1.226e+01,1.429e+01,1.211e+01,1.399e+01,1.383e+01,1.357e+01,1.299e+01
3.105e-01,5.674e-01,1.285e+00,8.619e-01,8.850e-01,1.722e+00,1.866e+00,9.746e-01,2.195e+00,2.220e+00,3.052e+00,2.228e+00,2.654e+00,2.188e+00,3.057e+00,4.480e+00,3.653e+00,4.048e+00,4.425e+00,4.313e+00,5.724e+00,3.964e+00,6.873e+00,4.940e+00,5.641e+00,5.382e+00,5.743e+00,6.431e+00,6.068e+00,8.301e+00,7.970e+00,9.077e+00,8.576e+00,7.160e+00,8.359e+00,9.926e+00,8.759e+00,9.370e+00,1.102e+01,8.734e+00,9.550e+00,1.061e+01,1.165e+01,1.071e+01,1.087e+01,1.360e+01,1.135e+01,1.522e+01,1.272e+01,1.138e+01,1.388e+01,1.559e+01,1.308e+01,1.605e+01,1.436e+01,1.312e+01,1.192e+01,1.405e+01,1.226e+01,1.653e+01,1.230e+01,1.426e+01,1.323e+01,1.329e+01,1.494e+01,1.334e+01,1.324e+01,1.398e+01,1.277e+01,1.450e+01,1.492e+01,1.358e+01,1.227e+01,1.488e+01,1.287e+01,1.340e+01,1.408e+01,1.410e+01,1.152e+01
3.126e-02,6.454e-01,7.575e-01,7.013e-01,4.728e-01,1.455e+00,1.985e+00,1.050e+00,2.315e+00,2.319e+00,2.482e+00,1.498e+00,2.181e+00,1.683e+00,2.694e+00,3.854e+00,3.193e+00,4.207e+00,4.259e+00,4.290e+00,5.194e+00,4.735e+00,7.015e+00,5.026e+00,6.218e+00,6.737e+00,6.056e+00,6.146e+00,5.662e+00,7.884e+00,9.326e+00,9.143e+00,8.147e+00,6.368e+00,7.903e+00,9.705e+00,8.981e+00,8.638e+00,7.925e+00,7.211e+00,8.818e+00,9.525e+00,9.988e+00,8.762e+00,9.886e+00,1.048e+01,9.908e+00,1.328e+01,1.270e+01,1.041e+01,1.239e+01,1.334e+01,1.153e+01,1.506e+01,1.449e+01,1.201e+01,1.179e+01,1.478e+01,1.274e+01,1.498e+01,1.151e+01,1.321e+01,1.266e+01,1.350e+01,1.354e+01,1.389e+01,1.214e+01,1.352e+01,1.274e+01,1.283e+01,1.348e+01,1.311e+01,1.187e+01,1.389e+01,1.186e+01,1.237e+01,1.248e+01,1.319e+01,1.168e+01
4.228e-01,6.121e-01,1.001e+00,7.990e-01,9.813e-01,2.428e+00,2.350e+00,1.461e+00,2.495e+00,3.167e+00,3.461e+00,2.608e+00,3.244e+00,3.464e+00,3.959e+00,4.539e+00,4.170e+00,4.358e+00,4.959e+00,3.653e+00,5.590e+00,4.051e+00,6.559e+00,5.078e+00,5.681e+00,5.373e+00,6.121e+00,6.054e+00,6.901e+00,7.286e+00,7.612e+00,8.721e+00,7.566e+00,5.155e+00,8.662e+00,8.938e+00,9.150e+00,8.727e+00,9.984e+00,8.243e+00,9.743e+00,1.014e+01,1.209e+01,8.660e+00,9.233e+00,1.101e+01,1.046e+01,1.299e+01,1.246e+01,1.048e+01,1.449e+01,1.404e+01,1.185e+01,1.546e+01,1.441e+01,1.141e+01,1.207e+01,1.378e+01,1.302e+01,1.429e+01,1.034e+01,1.481e+01,1.389e+01,1.352e+01,1.375e+01,1.256e+01,1.109e+01,1.203e+01,1.297e+01,1.161e+01,1.352e+01,1.361e+01,1.183e+01,1.345e+01,1.202e+01,1.258e+01,1.417e+01,1.385e+01,1.265e+01
4.320e-01,6.178e-01,1.217e+00,9.488e-01,9.570e-01,2.138e+00,2.211e+00,1.475e+00,2.820e+00,2.871e+00,3.527e+00,2.674e+00,2.985e+00,3.209e+00,4.175e+00,4.973e+00,5.100e+00,4.935e+00,5.452e+00,4.808e+00,6.670e+00,4.718e+00,7.691e+00,6.138e+00,6.662e+00,6.833e+00,7.061e+00,6.567e+00,6.929e+00,8.992e+00,1.030e+01,1.086e+01,9.086e+00,7.074e+00,9.262e+00,1.018e+01,9.927e+00,1.002e+01,9.914e+00,9.224e+00,9.659e+00,1.092e+01,1.138e+01,9.068e+00,1.084e+01,1.310e+01,1.103e+01,1.340e+01,1.321e+01,1.123e+01,1.500e+01,1.538e+01,1.199e+01,1.549e+01,1.497e+01,1.285e+01,1.169e+01,1.505e+01,1.286e+01,1.596e+01,1.141e+01,1.492e+01,1.292e+01,1.273e+01,1.368e+01,1.446e+01,1.301e+01,1.404e+01,1.471e+01,1.239e+01,1.530e+01,1.438e+01,1.347e+01,1.587e+01,1.238e+01,1.415e+01,1.436e+01,1.432e+01,1.353e+01
4.397e-01,3.415e-01,8.607e-01,5.929e-01,8.726e-01,1.707e+00,1.238e+00,6.152e-01,1.327e+00,1.959e+00,2.873e+00,2.319e+00,2.222e+00,2.244e+00,3.046e+00,4.268e+00,3.728e+00,3.727e+00,4.769e+00,4.212e+00,4.868e+00,4.257e+00,7.068e+00,5.362e+00,5.441e+00,5.521e+00,6.546e+00,6.415e+00,6.364e+00,8.000e+00,7.706e+00,7.598e+00,9.571e+00,6.692e+00,8.783e+00,9.622e+00,9.340e+00,1.007e+01,9.750e+00,8.230e+00,9.801e+00,9.827e+00,1.102e+01,9.644e+00,9.964e+00,1.189e+01,9.800e+00,1.405e+01,1.215e+01,1.049e+01,1.386e+01,1.498e+01,1.342e+01,1.716e+01,1.497e+01,1.258e+01,1.380e+01,1.633e+01,1.430e+01,1.633e+01,1.395e+01,1.571e+01,1.637e+01,1.483e+01,1.555e+01,1.404e+01,1.403e+01,1.543e+01,1.511e+01,1.427e+01,1.541e+01,1.431e+01,1.415e+01,1.628e+01,1.416e+01,1.474e+01,1.484e+01,1.416e+01,1.252e+01
7.233e-02,5.694e-01,5.772e-01,6.280e-01,6.298e-01,1.861e+00,1.867e+00,1.308e+00,2.249e+00,2.570e+00,3.010e+00,2.147e+00,2.733e+00,2.611e+00,3.439e+00,3.819e+00,3.151e+00,4.033e+00,4.283e+00,3.816e+00,4.732e+00,3.692e+00,6.132e+00,4.350e+00,5.899e+00,5.327e+00,5.954e+00,5.875e+00,5.239e+00,7.958e+00,7.837e+00,8.360e+00,8.318e+00,6.322e+00,8.623e+00,9.186e+00,9.945e+00,9.268e+00,1.005e+01,7.904e+00,9.226e+00,1.073e+01,1.209e+01,1.066e+01,1.138e+01,1.235e+01,1.112e+01,1.510e+01,1.335e+01,1.159e+01,1.460e+01,1.568e+01,1.344e+01,1.544e+01,1.519e+01,1.354e+01,1.311e+01,1.594e+01,1.311e+01,1.504e+01,1.240e+01,1.568e+01,1.462e+01,1.479e+01,1.572e+01,1.442e+01,1.266e+01,1.468e+01,1.484e+01,1.318e+01,1.517e+01,1.394e+01,1.433e+01,1.522e+01,1.277e+01,1.510e+01,1.560e+01,1.467e+01,1.225e+01
2.123e-01,2.493e-01,3.856e-01,4.302e-01,7.844e-01,1.817e+00,1.814e+00,1.374e+00,1.955e+00,2.338e+00,2.952e+00,1.775e+00,2.527e+00,2.594e+00,3.099e+00,3.191e+00,3.256e+00,3.977e+00,4.303e+00,3.831e+00,5.168e+00,5.624e+00,6.554e+00,4.831e+00,6.238e+00,6.321e+00,7.179e+00,6.706e+00,6.517e+00,8.487e+00,8.442e+00,9.930e+00,8.736e+00,6.775e+00,8.033e+00,1.067e+01,1.050e+01,8.870e+00,9.424e+00,8.121e+00,9.221e+00,1.101e+01,1.165e+01,9.948e+00,1.118e+01,1.163e+01,1.124e+01,1.486e+01,1.358e+01,1.254e+01,1.485e+01,1.502e+01,1.311e+01,1.588e+01,1.497e+01,1.234e+01,1.355e+01,1.591e+01,1.280e+01,1.420e+01,1.311e+01,1.491e+01,1.506e+01,1.386e+01,1.582e+01,1.552e+01,1.402e+01,1.496e+01,1.502e+01,1.397e+01,1.479e+01,1.511e+01,1.235e+01,1.331e+01,1.291e+01,1.605e+01,1.496e+01,1.373e+01,1.222e+01
6.053e-01,4.422e-01,9.267e-01,7.189e-01,1.093e+00,1.965e+00,1.578e+00,1.095e+00,1.487e+00,2.253e+00,3.894e+00,2.805e+00,3.326e+00,3.042e+00,3.500e+00,4.355e+00,4.438e+00,4.013e+00,4.968e+00,4.382e+00,4.960e+00,3.260e+00,6.024e+00,4.738e+00,5.070e+00,4.443e+00,6.091e+00,5.139e+00,5.972e+00,7.061e+00,7.166e+00,8.108e+00,8.896e+00,6.080e+00,7.367e+00,7.761e+00,8.543e+00,8.586e+00,8.969e+00,7.619e+00,9.304e+00,9.143e+00,1.134e+01,8.629e+00,8.258e+00,1.144e+01,9.840e+00,1.287e+01,1.321e+01,1.120e+01,1.323e+01,1.397e+01,1.278e+01,1.552e+01,1.395e+01,1.228e+01,1.291e+01,1.424e+01,1.253e+01,1.350e+01,1.219e+01,1.685e+01,1.488e+01,1.461e+01,1.463e+01,1.410e+01,1.479e+01,1.338e+01,1.311e+01,1.344e+01,1.463e+01,1.435e+01,1.415e+01,1.425e+01,1.128e+01,1.432e+01,1.475e+01,1.453e+01,1.334e+01
4.148e-02,4.170e-02,2.415e-01,1.871e-01,4.954e-01,7.434e-01,1.380e+00,8.734e-01,1.112e+00,1.493e+00,3.072e+00,1.731e+00,2.360e+00,1.651e+00,2.141e+00,3.502e+00,3.893e+00,3.998e+00,4.682e+00,4.720e+00,4.588e+00,4.283e+00,5.995e+00,4.764e+00,5.998e+00,6.159e+00,6.455e+00,6.206e+00,5.774e+00,8.577e+00,8.172e+00,9.080e+00,8.848e+00,6.533e+00,7.681e+00,9.130e+00,8.854e+00,7.989e+00,9.083e+00,6.987e+00,8.323e+00,9.282e+00,1.032e+01,7.990e+00,9.260e+00,1.027e+01,8.961e+00,1.285e+01,1.206e+01,1.093e+01,1.223e+01,1.317e+01,1.183e+01,1.492e+01,1.429e+01,1.172e+01,1.406e+01,1.376e+01,1.315e+01,1.483e+01,1.315e+01,1.511e+01,1.526e+01,1.508e+01,1.500e+01,1.544e+01,1.391e+01,1.477e+01,1.401e+01,1.233e+01,1.354e+01,1.238e+01,1.331e+01,1.438e+01,1.396e+01,1.460e+01,1.368e+01,1.238e+01,1.381e+01
4.292e-01,6.325e-01,1.079e+00,9.365e-01,1.164e+00,2.479e+00,2.259e+00,1.384e+00,2.577e+00,2.620e+00,3.440e+00,2.183e+00,2.910e+00,2.678e+00,3.535e+00,4.560e+00,4.245e+00,4.590e+00,4.572e+00,4.683e+00,6.086e+00,5.422e+00,8.114e+00,5.683e+00,6.381e+00,6.751e+00,6.980e+00,7.556e+00,5.861e+00,8.332e+00,8.689e+00,8.556e+00,9.187e+00,6.671e+00,8.884e+00,1.046e+01,9.495e+00,9.126e+00,1.008e+01,8.347e+00,9.108e+00,1.175e+01,1.179e+01,9.881e+00,1.058e+01,1.136e+01,1.105e+01,1.512e+01,1.327e+01,1.157e+01,1.519e+01,1.536e+01,1.310e+01,1.643e+01,1.549e+01,1.263e+01,1.510e+01,1.651e+01,1.501e+01,1.753e+01,1.610e+01,1.838e+01,1.818e+01,1.576e+01,1.879e+01,1.675e+01,1.708e+01,1.646e+01,1.618e+01,1.548e+01,1.712e+01,1.701e+01,1.708e+01,1.731e+01,1.726e+01,1.784e+01,1.635e+01,1.604e+01,1.496e+01
5.080e-01,6.202e-01,1.082e+00,9.613e-01,1.193e+00,2.140e+00,2.043e+00,1.413e+00,2.312e+00,2.760e+00,4.267e+00,2.637e+00,3.242e+00,2.726e+00,3.612e+00,4.921e+00,4.780e+00,4.411e+00,4.988e+00,4.818e+00,5.259e+00,4.009e+00,6.379e+00,5.833e+00,5.719e+00,5.944e+00,6.223e+00,6.106e+00,6.052e+00,7.804e+00,8.114e+00,9.064e+00,8.858e+00,6.735e+00,8.221e+00,8.242e+00,7.981e+00,7.830e+00,9.698e+00,7.674e+00,8.680e+00,9.459e+00,1.057e+01,7.953e+00,8.114e+00,1.061e+01,9.228e+00,1.389e+01,1.363e+01,1.073e+01,1.400e+01,1.323e+01,1.322e+01,1.500e+01,1.519e+01,1.133e+01,1.177e+01,1.411e+01,1.369e+01,1.532e+01,1.273e+01,1.597e+01,1.548e+01,1.582e+01,1.589e+01,1.472e+01,1.496e+01,1.566e+01,1.518e+01,1.422e+01,1.509e+01,1.487e+01,1.470e+01,1.471e+01,1.383e+01,1.552e+01,1.535e+01,1.441e+01,1.322e+01
6.428e-01,7.856e-01,1.269e+00,1.136e+00,1.277e+00,2.654e+00,2.627e+00,1.512e+00,2.896e+00,3.182e+00,4.292e+00,2.778e+00,3.435e+00,3.259e+00,4.629e+00,4.598e+00,5.226e+00,4.924e+00,5.476e+00,4.498e+00,6.057e+00,5.090e+00,7.251e+00,6.171e+00,6.789e+00,6.870e+00,7.338e+00,7.037e+00,6.723e+00,8.176e+00,9.158e+00,1.038e+01,8.874e+00,7.122e+00,8.699e+00,1.047e+01,1.046e+01,8.790e+00,1.059e+01,9.163e+00,9.990e+00,1.086e+01,1.334e+01,9.674e+00,1.099e+01,1.250e+01,1.164e+01,1.480e+01,1.430e+01,1.270e+01,1.665e+01,1.514e+01,1.388e+01,1.646e+01,1.617e+01,1.467e+01,1.424e+01,1.560e+01,1.683e+01,1.711e+01,1.431e+01,1.876e+01,1.843e+01,1.783e+01,1.833e+01,1.694e+01,1.770e+01,1.928e+01,1.625e+01,1.567e+01,1.668e+01,1.598e+01,1.623e+01,1.722e+01,1.540e+01,1.683e+01,1.737e+01,1.677e+01,1.539e+01
2.874e-01,4.421e-01,9.092e-01,6.912e-01,9.021e-01,1.936e+00,2.094e+00,1.378e+00,2.312e+00,2.689e+00,3.985e+00,2.683e+00,3.388e+00,2.867e+00,3.600e+00,4.162e+00,4.615e+00,5.325e+00,5.351e+00,5.074e+00,6.643e+00,4.755e+00,8.411e+00,6.207e+00,6.925e+00,5.853e+00,7.752e+00,7.374e+00,6.993e+00,1.013e+01,1.022e+01,1.012e+01,9.558e+00,8.986e+00,1.014e+01,1.101e+01,1.117e+01,1.076e+01,1.066e+01,8.934e+00,9.606e+00,1.244e+01,1.211e+01,1.051e+01,1.064e+01,1.300e+01,1.043e+01,1.519e+01,1.328e+01,1.049e+01,1.429e+01,1.536e+01,1.289e+01,1.565e+01,1.448e+01,1.214e+01,1.434e+01,1.541e+01,1.409e+01,1.644e+01,1.367e+01,1.713e+01,1.617e+01,1.619e+01,1.730e+01,1.622e+01,1.614e+01,1.724e+01,1.729e+01,1.530e+01,1.651e+01,1.663e+01,1.655e+01,1.754e+01,1.482e+01,1.551e+01,1.706e+01,1.571e+01,1.570e+01
8.190e-02,4.572e-01,8.560e-01,6.949e-01,7.962e-01,1.912e+00,2.160e+00,1.533e+00,2.746e+00,3.219e+00,4.564e+00,3.113e+00,3.539e+00,3.003e+00,4.009e+00,4.969e+00,4.593e+00,5.429e+00,5.931e+00,5.536e+00,6.359e+00,4.629e+00,7.190e+00,5.448e+00,6.965e+00,6.117e+00,7.353e+00,6.520e+00,6.077e+00,8.295e+00,8.646e+00,9.076e+00,8.229e+00,6.161e+00,6.763e+00,8.762e+00,8.185e+00,7.141e+00,7.989e+00,6.844e+00,7.793e+00,8.104e+00,9.619e+00,7.550e+00,8.038e+00,9.995e+00,9.054e+00,1.272e+01,1.254e+01,1.140e+01,1.275e+01,1.306e+01,1.144e+01,1.310e+01,1.365e+01,1.191e+01,1.232e+01,1.426e+01,1.277e+01,1.456e+01,1.165e+01,1.522e+01,1.413e+01,1.468e+01,1.507e+01,1.582e+01,1.459e+01,1.712e+01,1.529e+01,1.379e+01,1.529e+01,1.429e+01,1.482e+01,1.359e+01,1.342e+01,1.427e+01,1.500e+01,1.368e+01,1.311e+01
1.758e-01,1.356e-01,1.480e-01,3.177e-01,4.542e-01,1.239e+00,7.883e-01,1.277e+00,1.683e+00,2.339e+00,3.259e+00,2.527e+00,2.127e+00,2.759e+00,3.413e+00,4.213e+00,4.505e+00,4.510e+00,4.776e+00,4.198e+00,5.985e+00,3.798e+00,5.918e+00,4.696e+00,5.204e+00,5.492e+00,7.406e+00,5.408e+00,5.932e+00,6.890e+00,7.216e+00,8.068e+00,7.492e+00,5.582e+00,7.081e+00,9.231e+00,9.078e+00,8.565e+00,9.222e+00,6.964e+00,8.673e+00,8.807e+00,1.053e+01,8.580e+00,9.540e+00,1.110e+01,1.062e+01,1.320e+01,1.222e+01,1.022e+01,1.306e+01,1.310e+01,1.198e+01,1.393e+01,1.318e+01,1.049e+01,1.284e+01,1.414e+01,1.270e+01,1.466e+01,1.282e+01,1.595e+01,1.519e+01,1.664e+01,1.648e+01,1.557e+01,1.551e+01,1.672e+01,1.571e+01,1.493e+01,1.554e+01,1.569e+01,1.381e+01,1.627e+01,1.419e+01,1.516e+01,1.628e+01,1.493e+01,1.362e+01
2.099e-01,6.735e-01,5.702e-01,6.109e-01,6.899e-01,2.147e+00,1.517e+00,9.786e-01,1.564e+00,2.414e+00,2.452e+00,2.155e+00,2.756e+00,2.884e+00,3.428e+00,3.773e+00,2.603e+00,3.689e+00,4.055e+00,3.713e+00,4.730e+00,4.280e+00,5.815e+00,4.156e+00,5.169e+00,5.446e+00,6.698e+00,5.900e+00,6.131e+00,6.824e+00,6.997e+00,7.712e+00,7.438e+00,6.009e+00,7.400e+00,9.058e+00,8.642e+00,7.083e+00,8.523e+00,6.971e+00,8.891e+00,9.286e+00,1.098e+01,9.480e+00,9.401e+00,1.062e+01,1.013e+01,1.309e+01,1.245e+01,1.104e+01,1.340e+01,1.339e+01,1.188e+01,1.444e+01,1.430e+01,1.155e+01,1.297e+01,1.474e+01,1.354e+01,1.526e+01,1.291e+01,1.609e+01,1.545e+01,1.701e+01,1.796e+01,1.515e+01,1.485e+01,1.798e+01,1.633e+01,1.573e+01,1.543e+01,1.694e+01,1.458e+01,1.542e+01,1.458e+01,1.707e+01,1.770e+01,1.651e+01,1.434e+01
4.250e-01,3.820e-01,5.250e-01,5.304e-01,8.587e-01,1.903e+00,1.832e+00,1.408e+00,1.791e+00,2.960e+00,3.682e+00,2.326e+00,3.060e+00,3.097e+00,3.369e+00,3.816e+00,3.790e+00,5.411e+00,5.099e+00,5.004e+00,5.414e+00,4.163e+00,6.125e+00,4.515e+00,6.026e+00,6.042e+00,6.453e+00,5.554e+00,5.708e+00,8.981e+00,8.861e+00,9.232e+00,9.139e+00,7.210e+00,8.021e+00,9.673e+00,9.627e+00,8.570e+00,8.255e+00,6.919e+00,7.800e+00,9.332e+00,9.816e+00,8.256e+00,9.042e+00,1.119e+01,1.026e+01,1.409e+01,1.217e+01,1.155e+01,1.249e+01,1.414e+01,1.154e+01,1.270e+01,1.350e+01,1.130e+01,1.260e+01,1.485e+01,1.270e+01,1.403e+01,1.265e+01,1.401e+01,1.463e+01,1.583e+01,1.587e+01,1.442e+01,1.512e+01,1.863e+01,1.721e+01,1.579e+01,1.576e+01,1.603e+01,1.436e+01,1.551e+01,1.340e+01,1.678e+01,1.801e+01,1.553e+01,1.438e+01
6.253e-01,7.199e-01,1.330e+00,1.025e+00,1.004e+00,1.991e+00,1.995e+00,1.167e+00,2.250e+00,2.053e+00,2.372e+00,1.402e+00,2.483e+00,2.212e+00,2.883e+00,3.467e+00,3.491e+00,3.764e+00,3.869e+00,3.292e+00,4.422e+00,4.029e+00,5.352e+00,4.723e+00,5.069e+00,5.439e+00,4.649e+00,6.667e+00,5.616e+00,7.737e+00,6.978e+00,7.968e+00,7.953e+00,6.710e+00,7.257e+00,8.851e+00,7.902e+00,7.802e+00,8.954e+00,7.791e+00,8.388e+00,1.024e+01,1.069e+01,8.228e+00,9.548e+00,1.069e+01,9.578e+00,1.282e+01,1.201e+01,1.044e+01,1.216e+01,1.117e+01,1.206e+01,1.413e+01,1.303e+01,1.169e+01,1.187e+01,1.367e+01,1.230e+01,1.423e+01,1.167e+01,1.428e+01,1.500e+01,1.386e+01,1.652e+01,1.450e+01,1.549e+01,1.754e+01,1.646e+01,1.515e+01,1.489e+01,1.540e+01,1.406e+01,1.523e+01,1.521e+01,1.636e+01,1.711e+01,1.390e+01,1.423e+01
3.098e-02,6.839e-01,1.100e+00,8.543e-01,7.238e-01,1.500e+00,2.067e+00,1.107e+00,2.361e+00,2.032e+00,3.041e+00,1.814e+00,2.876e+00,1.656e+00,2.881e+00,3.852e+00,3.091e+00,4.250e+00,4.511e+00,4.600e+00,4.826e+00,4.506e+00,6.954e+00,5.247e+00,6.551e+00,5.703e+00,5.607e+00,6.336e+00,5.767e+00,7.838e+00,7.854e+00,8.421e+00,8.499e+00,6.899e+00,7.207e+00,9.485e+00,8.794e+00,8.564e+00,9.950e+00,8.557e+00,7.897e+00,1.012e+01,1.041e+01,8.992e+00,1.019e+01,1.102e+01,9.785e+00,1.236e+01,1.139e+01,9.153e+00,1.154e+01,1.242e+01,1.111e+01,1.372e+01,1.324e+01,1.063e+01,1.092e+01,1.457e+01,1.185e+01,1.475e+01,1.119e+01,1.406e+01,1.350e+01,1.394e+01,1.521e+01,1.505e+01,1.326e+01,1.650e+01,1.571e+01,1.616e+01,1.542e+01,1.645e+01,1.595e+01,1.671e+01,1.408e+01,1.491e+01,1.574e+01,1.604e+01,1.394e+01
2.606e-01,4.473e-01,8.096e-01,6.635e-01,1.023e+00,2.012e+00,1.998e+00,9.829e-01,1.854e+00,2.621e+00,4.071e+00,2.802e+00,3.054e+00,2.507e+00,3.449e+00,3.788e+00,4.005e+00,4.132e+00,5.169e+00,4.489e+00,4.801e+00,4.355e+00,6.480e+00,5.006e+00,5.830e+00,5.189e+00,6.330e+00,5.244e+00,5.867e+00,7.292e+00,7.741e+00,8.819e+00,8.211e+00,6.670e+00,7.539e+00,8.662e+00,9.197e+00,9.116e+00,9.408e+00,7.779e+00,9.241e+00,9.601e+00,1.096e+01,9.421e+00,9.086e+00,1.207e+01,1.015e+01,1.490e+01,1.384e+01,1.211e+01,1.321e+01,1.443e+01,1.343e+01,1.543e+01,1.523e+01,1.310e+01,1.314e+01,1.418e+01,1.338e+01,1.597e+01,1.365e+01,1.660e+01,1.585e+01,1.605e+01,1.651e+01,1.566e+01,1.560e+01,1.703e+01,1.548e+01,1.624e+01,1.756e+01,1.552e+01,1.611e+01,1.549e+01,1.503e+01,1.586e+01,1.697e+01,1.620e+01,1.495e+01
4.245e-01,3.219e-01,3.625e-01,3.910e-01,5.909e-01,1.344e+00,1.129e+00,8.737e-01,9.822e-01,1.879e+00,2.244e+00,1.462e+00,2.025e+00,2.241e+00,2.234e+00,3.105e+00,2.858e+00,3.551e+00,3.306e+00,3.458e+00,4.787e+00,3.327e+00,4.641e+00,3.399e+00,3.492e+00,4.804e+00,5.685e+00,4.727e+00,4.900e+00,7.296e+00,7.023e+00,7.921e+00,6.725e+00,5.980e+00,7.806e+00,8.342e+00,8.535e+00,8.153e+00,8.970e+00,6.475e+00,7.848e+00,9.061e+00,9.823e+00,8.833e+00,9.131e+00,1.088e+01,9.706e+00,1.344e+01,1.145e+01,9.351e+00,1.430e+01,1.351e+01,1.152e+01,1.406e+01,1.233e+01,1.062e+01,1.139e+01,1.347e+01,1.225e+01,1.343e+01,1.256e+01,1.480e+01,1.349e+01,1.443e+01,1.605e+01,1.371e+01,1.451e+01,1.631e+01,1.546e+01,1.428e+01,1.493e+01,1.568e+01,1.566e+01,1.649e+01,1.574e+01,1.703e+01,1.645e+01,1.530e+01,1.452e+01
1.926e-01,1.969e-01,5.148e-01,4.274e-01,6.750e-01,1.192e+00,1.629e+00,1.283e+00,1.722e+00,1.809e+00,3.217e+00,1.780e+00,2.767e+00,2.173e+00,2.677e+00,3.639e+00,4.218e+00,4.379e+00,4.640e+00,4.606e+00,5.607e+00,4.587e+00,6.150e+00,4.634e+00,5.774e+00,5.334e+00,6.709e+00,6.084e+00,6.389e+00,8.633e+00,8.229e+00,9.821e+00,8.102e+00,6.860e+00,8.696e+00,9.801e+00,9.528e+00,8.904e+00,1.086e+01,7.957e+00,9.351e+00,1.092e+01,1.186e+01,9.965e+00,1.011e+01,1.126e+01,1.009e+01,1.409e+01,1.285e+01,1.036e+01,1.498e+01,1.565e+01,1.354e+01,1.468e+01,1.470e+01,1.141e+01,1.332e+01,1.470e+01,1.322e+01,1.455e+01,1.496e+01,1.644e+01,1.459e+01,1.476e+01,1.686e+01,1.591e+01,1.589e+01,1.767e+01,1.636e+01,1.695e+01,1.756e+01,1.699e+01,1.816e+01,1.754e+01,1.672e+01,1.664e+01,1.913e+01,1.729e+01,1.701e+01
3.540e-01,7.947e-01,5.088e-01,8.064e-01,7.324e-01,1.870e+00,1.865e+00,1.444e+00,2.079e+00,3.267e+00,4.430e+00,2.817e+00,3.344e+00,2.949e+00,3.922e+00,5.224e+00,4.973e+00,5.204e+00,5.723e+00,5.314e+00,5.642e+00,4.195e+00,7.632e+00,6.312e+00,7.113e+00,7.042e+00,7.648e+00,6.612e+00,7.018e+00,9.046e+00,9.742e+00,1.106e+01,1.053e+01,8.301e+00,9.367e+00,1.068e+01,1.095e+01,9.861e+00,1.078e+01,9.042e+00,9.818e+00,1.067e+01,1.221e+01,1.067e+01,1.056e+01,1.268e+01,1.098e+01,1.563e+01,1.456e+01,1.321e+01,1.381e+01,1.528e+01,1.346e+01,1.556e+01,1.553e+01,1.332e+01,1.387e+01,1.415e+01,1.435e+01,1.668e+01,1.362e+01,1.728e+01,1.628e+01,1.678e+01,1.835e+01,1.591e+01,1.683e+01,1.786e+01,1.787e+01,1.682e+01,1.759e+01,1.734e+01,1.788e+01,1.935e+01,1.837e+01,1.944e+01,1.971e+01,1.864e+01,1.902e+01
7.895e-02,4.277e-01,3.429e-01,4.833e-01,5.904e-01,1.764e+00,1.771e+00,1.448e+00,2.143e+00,2.814e+00,3.497e+00,2.313e+00,2.910e+00,2.773e+00,3.447e+00,4.184e+00,4.011e+00,5.098e+00,5.167e+00,5.063e+00,5.541e+00,4.515e+00,6.931e+00,4.995e+00,6.865e+00,6.437e+00,7.346e+00,6.676e+00,6.206e+00,9.004e+00,9.057e+00,9.106e+00,9.448e+00,7.678e+00,8.807e+00,1.068e+01,1.004e+01,9.161e+00,9.228e+00,7.768e+00,9.708e+00,1.043e+01,1.103e+01,1.004e+01,1.030e+01,1.155e+01,1.069e+01,1.498e+01,1.354e+01,1.220e+01,1.347e+01,1.501e+01,1.373e+01,1.472e+01,1.517e+01,1.246e+01,1.346e+01,1.634e+01,1.409e+01,1.630e+01,1.309e+01,1.534e+01,1.608e+01,1.638e+01,1.612e+01,1.650e+01,1.546e+01,1.819e+01,1.838e+01,1.623e+01,1.685e+01,1.694e+01,1.683e+01,1.817e+01,1.660e+01,1.759e+01,1.982e+01,1.746e+01,1.548e+01
1.181e-01,1.704e-01,2.365e-01,3.309e-01,6.443e-01,1.601e+00,1.526e+00,1.346e+00,1.828e+00,2.263e+00,2.897e+00,2.222e+00,2.387e+00,3.026e+00,3.643e+00,4.560e+00,4.280e+00,3.973e+00,4.913e+00,4.477e+00,6.000e+00,4.591e+00,6.870e+00,5.054e+00,6.086e+00,6.041e+00,7.524e+00,5.878e+00,5.979e+00,7.717e+00,8.532e+00,9.062e+00,7.841e+00,6.117e+00,8.387e+00,9.750e+00,9.708e+00,8.872e+00,9.279e+00,7.510e+00,9.636e+00,9.786e+00,1.069e+01,9.815e+00,8.395e+00,1.076e+01,9.142e+00,1.405e+01,1.229e+01,1.125e+01,1.180e+01,1.320e+01,1.151e+01,1.273e+01,1.305e+01,1.030e+01,1.144e+01,1.224e+01,1.084e+01,1.488e+01,1.329e+01,1.458e+01,1.382e+01,1.396e+01,1.423e+01,1.448e+01,1.394e+01,1.537e+01,1.552e+01,1.444e+01,1.548e+01,1.444e+01,1.503e+01,1.624e+01,1.549e+01,1.630e+01,1.704e+01,1.678e+01,1.543e+01
2.463e-01,8.065e-01,5.912e-01,7.663e-01,7.943e-01,2.185e+00,1.929e+00,1.096e+00,1.842e+00,2.512e+00,3.021e+00,2.084e+00,2.849e+00,2.489e+00,3.253e+00,3.465e+00,3.499e+00,3.368e+00,4.107e+00,3.763e+00,4.220e+00,4.579e+00,5.883e+00,5.121e+00,5.680e+00,6.007e+00,6.333e+00,6.154e+00,6.500e+00,7.400e+00,7.695e+00,9.931e+00,8.098e+00,6.660e+00,7.896e+00,8.996e+00,8.614e+00,8.467e+00,1.011e+01,7.840e+00,1.028e+01,1.034e+01,1.190e+01,9.105e+00,9.747e+00,1.165e+01,9.960e+00,1.331e+01,1.295e+01,1.182e+01,1.395e+01,1.455e+01,1.215e+01,1.602e+01,1.570e+01,1.271e+01,1.259e+01,1.548e+01,1.412e+01,1.587e+01,1.432e+01,1.834e+01,1.653e+01,1.586e+01,1.731e+01,1.570e+01,1.704e+01,1.754e+01,1.682e+01,1.670e+01,1.860e+01,1.787e+01,1.752e+01,1.805e+01,1.679e+01,2.001e+01,2.029e+01,1.926e+01,1.747e+01
4.549e-02,2.169e-01,8.580e-01,5.675e-01,1.016e+00,1.750e+00,2.150e+00,1.226e+00,2.251e+00,2.432e+00,4.360e+00,2.923e+00,3.158e+00,2.418e+00,3.239e+00,4.041e+00,4.682e+00,4.486e+00,5.641e+00,4.865e+00,5.251e+00,4.775e+00,6.631e+00,5.830e+00,6.386e+00,6.414e+00,6.259e+00,6.130e+00,6.835e+00,8.989e+00,7.925e+00,9.557e+00,9.000e+00,6.864e+00,8.412e+00,9.698e+00,1.015e+01,9.745e+00,1.019e+01,8.202e+00,8.699e+00,1.094e+01,1.210e+01,9.501e+00,1.021e+01,1.220e+01,1.054e+01,1.521e+01,1.420e+01,1.285e+01,1.414e+01,1.429e+01,1.394e+01,1.633e+01,1.647e+01,1.318e+01,1.477e+01,1.409e+01,1.328e+01,1.652e+01,1.350e+01,1.591e+01,1.561e+01,1.640e+01,1.715e+01,1.537e+01,1.548e+01,1.730e+01,1.643e+01,1.446e+01,1.838e+01,1.624e+01,1.685e+01,1.764e+01,1.591e+01,1.795e+01,1.824e+01,1.746e+01,1.731e+01
5.979e-01,8.939e-01,1.204e+00,1.132e+00,1.083e+00,2.235e+00,2.450e+00,1.455e+00,2.588e+00,2.628e+00,3.238e+00,1.630e+00,3.014e+00,2.457e+00,3.406e+00,4.149e+00,4.239e+00,4.535e+00,4.523e+00,4.229e+00,5.290e+00,4.767e+00,6.496e+00,5.401e+00,6.201e+00,6.583e+00,6.020e+00,6.119e+00,5.865e+00,8.374e+00,9.352e+00,1.008e+01,8.291e+00,7.117e+00,9.258e+00,9.143e+00,1.003e+01,9.048e+00,9.632e+00,7.883e+00,8.898e+00,1.117e+01,1.105e+01,9.755e+00,1.029e+01,1.123e+01,1.045e+01,1.438e+01,1.332e+01,9.800e+00,1.382e+01,1.432e+01,1.319e+01,1.545e+01,1.450e+01,1.171e+01,1.319e+01,1.439e+01,1.388e+01,1.611e+01,1.309e+01,1.549e+01,1.446e+01,1.512e+01,1.687e+01,1.416e+01,1.440e+01,1.686e+01,1.621e+01,1.624e+01,1.672e+01,1.605e+01,1.697e+01,1.736e+01,1.511e+01,1.752e+01,1.878e+01,1.746e+01,1.798e+01
