9.466e-01,5.687e-01,9.464e-01,4.122e-02,3.318e-01,6.396e-01,7.783e-01,1.201e-01,1.356e-01,5.988e-01,7.395e-01,9.519e-01,5.669e-01,8.594e-01,5.860e-02,2.911e-01,6.796e-01,5.144e-02,8.931e-01,2.207e-01,7.350e-01,6.573e-01,1.154e-01,6.202e-01,5.228e-01,4.261e-01,5.856e-01,5.286e-01,3.311e-01,5.249e-01,3.116e-01,4.930e-01,7.832e-01,1.007e-01,1.659e-01,8.677e-01,1.982e-01,9.044e-01,1.749e-02,6.854e-01,2.970e-01,5.732e-01,4.443e-01,5.995e-01,3.920e-01,8.621e-01,4.793e-01,9.315e-02,4.683e-01,6.191e-01,1.808e-01,9.989e-01,1.150e-01,8.025e-01,1.345e-01,1.265e-01,9.747e-01,8.945e-01,9.562e-01,3.799e-02,4.964e-01
2.684e-01,8.628e-01,1.091e+00,7.100e-01,1.023e+00,5.341e-01,1.015e+00,3.376e-01,6.430e-01,1.704e-01,3.776e-01,7.650e-01,7.964e-01,3.987e-01,8.074e-01,1.035e+00,3.246e-01,6.016e-01,3.164e-01,7.408e-01,8.506e-01,1.051e+00,7.297e-02,1.893e-01,7.836e-01,2.818e-01,4.070e-01,3.135e-01,5.574e-01,8.036e-01,9.671e-01,7.308e-01,4.936e-01,8.613e-01,1.010e+00,5.187e-01,9.315e-01,5.017e-01,7.662e-01,2.040e-01,6.204e-01,9.067e-01,2.369e-01,3.386e-01,8.842e-01,8.852e-01,5.342e-01,4.879e-01,1.850e-01,9.230e-01,7.383e-01,8.335e-01,9.679e-01,9.966e-01,7.609e-01,1.617e-01,4.184e-01,4.268e-01,5.812e-01,6.554e-02,6.897e-01
4.711e-01,8.256e-01,1.704e+00,1.297e+00,1.487e+00,8.236e-01,1.614e+00,4.179e-01,1.478e+00,7.814e-01,1.474e+00,1.098e+00,9.286e-01,1.121e+00,9.656e-01,1.774e+00,7.495e-01,1.147e+00,5.301e-01,7.218e-01,1.816e+00,1.172e+00,8.961e-02,8.310e-01,1.255e+00,8.017e-01,1.283e+00,8.088e-01,9.843e-01,1.256e+00,1.210e+00,1.327e+00,6.762e-01,1.105e+00,9.344e-01,1.095e+00,1.006e+00,8.308e-01,1.404e+00,7.321e-01,1.210e+00,1.451e+00,7.887e-01,1.113e+00,1.285e+00,1.734e+00,1.142e+00,4.437e-01,7.047e-01,1.574e+00,1.311e+00,1.762e+00,1.179e+00,1.966e+00,1.507e+00,6.684e-01,1.289e+00,1.550e+00,1.293e+00,9.261e-01,1.045e+00
5.231e-01,9.383e-01,1.407e+00,1.705e+00,1.602e+00,1.390e+00,2.017e+00,7.696e-01,1.420e+00,6.203e-01,1.484e+00,1.058e+00,1.450e+00,8.558e-01,1.235e+00,1.997e+00,1.389e+00,1.130e+00,1.024e+00,1.565e+00,2.137e+00,1.259e+00,5.544e-01,6.979e-01,1.779e+00,1.235e+00,1.720e+00,1.363e+00,1.137e+00,1.935e+00,1.306e+00,1.324e+00,1.196e+00,1.409e+00,1.862e+00,1.403e+00,1.498e+00,1.015e+00,1.607e+00,1.071e+00,1.622e+00,2.007e+00,6.407e-01,1.532e+00,1.824e+00,1.866e+00,1.482e+00,9.271e-01,1.167e+00,1.579e+00,1.102e+00,1.609e+00,1.558e+00,1.874e+00,1.419e+00,1.218e+00,1.822e+00,1.770e+00,1.030e+00,1.186e+00,1.481e+00
8.952e-01,6.945e-01,1.095e+00,5.001e-01,1.477e+00,1.665e+00,2.140e+00,1.225e+00,1.195e+00,8.325e-01,1.392e+00,1.155e+00,1.040e+00,1.556e+00,5.558e-01,1.534e+00,1.811e+00,8.890e-01,1.133e+00,1.141e+00,1.337e+00,1.732e+00,5.908e-01,1.423e+00,1.389e+00,1.537e+00,1.062e+00,8.460e-01,1.314e+00,1.645e+00,1.522e+00,1.587e+00,1.175e+00,6.240e-01,9.423e-01,2.076e+00,1.394e+00,1.603e+00,4.662e-01,1.472e+00,1.584e+00,1.770e+00,1.248e+00,1.278e+00,1.599e+00,1.512e+00,1.690e+00,3.913e-01,1.425e+00,1.771e+00,5.169e-01,1.523e+00,1.386e+00,2.046e+00,1.163e+00,1.379e+00,1.803e+00,1.494e+00,1.227e+00,1.303e+00,1.145e+00
3.005e-01,5.092e-01,1.272e+00,1.933e+00,2.164e+00,1.984e+00,2.822e+00,1.700e+00,3.086e+00,1.147e+00,2.425e+00,9.649e-01,1.932e+00,1.641e+00,1.410e+00,3.193e+00,2.904e+00,1.858e+00,1.710e+00,2.199e+00,3.190e+00,1.619e+00,1.259e+00,1.568e+00,2.380e+00,2.719e+00,3.101e+00,2.455e+00,2.464e+00,2.462e+00,2.183e+00,2.521e+00,1.923e+00,1.672e+00,2.259e+00,2.357e+00,2.055e+00,1.780e+00,2.567e+00,2.522e+00,3.325e+00,3.311e+00,1.459e+00,3.057e+00,3.339e+00,2.272e+00,3.020e+00,1.255e+00,2.237e+00,3.256e+00,1.958e+00,2.850e+00,2.262e+00,3.306e+00,2.847e+00,2.532e+00,3.074e+00,3.398e+00,1.978e+00,3.001e+00,2.319e+00
4.549e-01,4.639e-01,1.040e+00,6.859e-01,8.859e-01,8.117e-01,1.754e+00,1.254e+00,2.152e+00,1.682e+00,1.720e+00,8.781e-01,1.866e+00,1.324e+00,1.405e+00,2.382e+00,2.462e+00,1.458e+00,1.927e+00,1.285e+00,2.220e+00,9.181e-01,8.618e-01,1.467e+00,1.635e+00,1.798e+00,2.080e+00,1.787e+00,2.212e+00,9.044e-01,1.160e+00,2.257e+00,1.734e+00,1.657e+00,1.337e+00,2.021e+00,9.640e-01,1.815e+00,2.019e+00,2.165e+00,1.884e+00,2.664e+00,8.518e-01,2.734e+00,2.709e+00,1.510e+00,1.867e+00,1.410e+00,1.163e+00,2.723e+00,1.973e+00,2.974e+00,1.223e+00,1.931e+00,1.560e+00,1.686e+00,2.361e+00,2.611e+00,2.515e+00,1.421e+00,1.967e+00
8.218e-01,9.658e-01,1.882e+00,1.573e+00,2.059e+00,1.759e+00,3.030e+00,2.179e+00,3.452e+00,2.465e+00,3.519e+00,2.239e+00,2.101e+00,2.141e+00,1.921e+00,4.196e+00,3.535e+00,2.920e+00,2.588e+00,2.612e+00,3.555e+00,2.402e+00,9.081e-01,2.607e+00,3.401e+00,2.343e+00,3.019e+00,2.244e+00,3.287e+00,2.281e+00,2.626e+00,3.131e+00,2.440e+00,2.540e+00,2.092e+00,3.349e+00,2.854e+00,2.511e+00,2.963e+00,2.524e+00,2.921e+00,4.170e+00,2.070e+00,3.827e+00,3.724e+00,2.791e+00,3.380e+00,1.582e+00,2.386e+00,4.001e+00,2.300e+00,3.665e+00,2.923e+00,3.549e+00,2.614e+00,3.266e+00,3.919e+00,3.538e+00,2.561e+00,2.667e+00,3.096e+00
7.265e-01,4.720e-01,1.150e+00,1.183e+00,1.684e+00,1.807e+00,2.480e+00,1.696e+00,2.923e+00,2.037e+00,2.858e+00,1.959e+00,1.451e+00,2.293e+00,1.724e+00,3.786e+00,3.073e+00,2.685e+00,2.559e+00,2.066e+00,3.210e+00,2.572e+00,1.752e+00,2.089e+00,2.646e+00,2.124e+00,2.915e+00,2.212e+00,2.895e+00,2.218e+00,2.517e+00,2.909e+00,2.583e+00,1.744e+00,1.510e+00,2.987e+00,2.111e+00,2.490e+00,1.944e+00,2.860e+00,3.097e+00,2.950e+00,1.933e+00,3.350e+00,3.125e+00,2.314e+00,3.492e+00,1.114e+00,3.114e+00,2.970e+00,1.826e+00,2.696e+00,2.265e+00,3.642e+00,2.064e+00,3.233e+00,3.431e+00,3.662e+00,1.599e+00,3.011e+00,2.848e+00
5.150e-01,3.776e-01,1.069e+00,7.818e-01,8.352e-01,8.247e-01,1.675e+00,1.615e+00,3.362e+00,3.422e+00,3.739e+00,2.093e+00,2.022e+00,1.986e+00,2.751e+00,4.166e+00,4.021e+00,3.381e+00,3.300e+00,2.696e+00,3.548e+00,2.003e+00,1.937e+00,2.735e+00,2.876e+00,2.547e+00,3.672e+00,2.876e+00,3.519e+00,1.761e+00,2.305e+00,3.920e+00,3.981e+00,2.749e+00,2.113e+00,2.930e+00,2.522e+00,3.008e+00,3.398e+00,3.368e+00,2.904e+00,3.651e+00,1.916e+00,4.848e+00,4.209e+00,2.526e+00,4.217e+00,2.149e+00,3.358e+00,3.725e+00,3.268e+00,3.618e+00,2.521e+00,3.871e+00,2.122e+00,3.219e+00,3.763e+00,4.356e+00,2.902e+00,2.768e+00,3.843e+00
8.014e-01,9.921e-01,1.937e+00,1.787e+00,2.199e+00,1.928e+00,2.980e+00,1.863e+00,3.413e+00,2.361e+00,3.841e+00,3.162e+00,2.207e+00,2.180e+00,2.500e+00,5.102e+00,3.801e+00,3.075e+00,3.141e+00,2.918e+00,4.336e+00,2.901e+00,1.883e+00,2.606e+00,4.095e+00,2.900e+00,3.806e+00,2.954e+00,3.617e+00,3.228e+00,3.483e+00,4.375e+00,3.933e+00,3.041e+00,2.634e+00,3.489e+00,3.530e+00,3.230e+00,3.483e+00,3.380e+00,3.300e+00,4.831e+00,2.321e+00,3.996e+00,4.344e+00,4.037e+00,3.904e+00,2.427e+00,3.044e+00,4.534e+00,3.435e+00,3.849e+00,3.344e+00,4.499e+00,3.501e+00,3.458e+00,4.711e+00,4.255e+00,2.707e+00,3.015e+00,3.728e+00
6.378e-01,4.789e-01,7.919e-01,9.041e-01,1.272e+00,1.596e+00,2.123e+00,1.550e+00,2.015e+00,1.477e+00,2.239e+00,2.233e+00,1.665e+00,1.940e+00,1.903e+00,3.677e+00,2.882e+00,2.380e+00,2.916e+00,2.022e+00,3.340e+00,2.402e+00,1.950e+00,1.859e+00,3.346e+00,2.483e+00,3.275e+00,2.209e+00,3.167e+00,2.185e+00,2.684e+00,2.753e+00,2.867e+00,2.605e+00,2.605e+00,3.005e+00,2.669e+00,2.792e+00,2.317e+00,2.675e+00,2.426e+00,3.693e+00,2.196e+00,3.261e+00,3.400e+00,2.925e+00,3.566e+00,2.146e+00,2.557e+00,3.089e+00,1.872e+00,2.800e+00,2.647e+00,2.863e+00,1.853e+00,3.169e+00,3.404e+00,2.720e+00,2.554e+00,2.865e+00,2.596e+00
6.910e-01,4.295e-01,9.988e-01,8.353e-01,9.380e-01,1.130e+00,1.691e+00,9.641e-01,1.703e+00,1.844e+00,2.496e+00,2.085e+00,1.581e+00,1.939e+00,2.611e+00,3.311e+00,3.544e+00,2.082e+00,3.264e+00,1.930e+00,3.519e+00,2.202e+00,2.108e+00,2.751e+00,3.229e+00,2.621e+00,3.737e+00,2.656e+00,2.678e+00,2.678e+00,2.594e+00,2.992e+00,3.823e+00,2.325e+00,2.143e+00,2.690e+00,2.745e+00,3.168e+00,2.295e+00,3.150e+00,2.563e+00,3.384e+00,2.048e+00,3.672e+00,3.392e+00,3.339e+00,3.514e+00,2.350e+00,2.861e+00,3.009e+00,2.479e+00,3.146e+00,2.603e+00,2.986e+00,2.000e+00,3.066e+00,3.386e+00,3.445e+00,3.201e+00,2.740e+00,2.495e+00
1.360e-01,5.495e-01,9.767e-01,1.047e+00,1.838e+00,1.408e+00,2.593e+00,2.048e+00,2.952e+00,2.056e+00,2.405e+00,1.887e+00,2.054e+00,2.931e+00,3.936e+00,5.528e+00,4.177e+00,3.278e+00,3.830e+00,2.549e+00,4.318e+00,3.865e+00,3.005e+00,3.539e+00,3.602e+00,3.765e+00,3.460e+00,3.243e+00,3.823e+00,3.625e+00,3.703e+00,4.572e+00,4.476e+00,3.820e+00,2.706e+00,3.770e+00,3.996e+00,3.437e+00,3.043e+00,4.353e+00,4.287e+00,5.173e+00,2.392e+00,4.094e+00,4.477e+00,3.606e+00,4.793e+00,3.359e+00,3.553e+00,4.532e+00,3.219e+00,4.543e+00,3.876e+00,4.603e+00,3.607e+00,4.328e+00,4.144e+00,4.278e+00,3.962e+00,4.062e+00,3.741e+00
5.597e-01,3.717e-01,7.693e-01,4.491e-01,8.103e-01,9.852e-01,1.765e+00,1.537e+00,2.169e+00,2.158e+00,2.301e+00,1.483e+00,1.799e+00,2.358e+00,3.375e+00,4.043e+00,4.675e+00,3.188e+00,4.569e+00,2.731e+00,4.394e+00,3.233e+00,2.650e+00,3.506e+00,3.426e+00,3.159e+00,4.239e+00,3.616e+00,3.288e+00,3.281e+00,2.560e+00,3.610e+00,4.376e+00,3.590e+00,2.215e+00,3.145e+00,3.267e+00,3.743e+00,2.722e+00,3.993e+00,4.002e+00,4.165e+00,2.140e+00,4.369e+00,3.652e+00,3.287e+00,4.238e+00,3.237e+00,3.502e+00,3.761e+00,2.862e+00,4.315e+00,3.130e+00,3.277e+00,3.133e+00,4.367e+00,4.029e+00,3.867e+00,4.273e+00,3.489e+00,3.426e+00
7.492e-01,6.383e-01,1.360e+00,1.415e+00,1.430e+00,1.532e+00,2.576e+00,2.018e+00,3.591e+00,3.583e+00,4.263e+00,2.864e+00,2.562e+00,3.347e+00,4.694e+00,7.281e+00,6.308e+00,5.204e+00,5.620e+00,4.384e+00,6.779e+00,4.476e+00,3.645e+00,4.933e+00,5.696e+00,4.806e+00,6.749e+00,5.419e+00,5.587e+00,4.434e+00,3.877e+00,5.708e+00,6.358e+00,5.562e+00,3.918e+00,4.554e+00,4.816e+00,4.945e+00,4.783e+00,6.078e+00,5.125e+00,5.968e+00,3.406e+00,6.614e+00,6.010e+00,5.650e+00,7.238e+00,4.929e+00,5.612e+00,5.235e+00,4.511e+00,6.399e+00,4.569e+00,5.564e+00,4.542e+00,6.029e+00,5.936e+00,6.331e+00,5.773e+00,5.226e+00,5.518e+00
4.207e-01,3.935e-01,8.745e-01,1.197e+00,1.600e+00,1.675e+00,2.257e+00,1.690e+00,2.664e+00,1.800e+00,2.783e+00,1.985e+00,1.725e+00,2.378e+00,2.969e+00,4.461e+00,4.737e+00,3.366e+00,4.105e+00,4.032e+00,5.226e+00,3.546e+00,3.084e+00,3.215e+00,4.800e+00,4.095e+00,5.735e+00,3.433e+00,4.264e+00,3.404e+00,4.358e+00,3.787e+00,4.999e+00,3.263e+00,3.853e+00,4.168e+00,4.513e+00,3.731e+00,3.613e+00,4.680e+00,4.871e+00,4.157e+00,3.057e+00,5.148e+00,4.557e+00,4.656e+00,5.274e+00,3.732e+00,4.173e+00,4.330e+00,2.726e+00,4.675e+00,3.828e+00,4.147e+00,3.302e+00,4.977e+00,4.354e+00,4.044e+00,3.806e+00,4.492e+00,3.683e+00
7.554e-01,8.263e-01,1.555e+00,1.502e+00,1.723e+00,1.740e+00,2.519e+00,1.785e+00,3.502e+00,2.706e+00,3.843e+00,3.105e+00,2.399e+00,3.075e+00,4.064e+00,6.840e+00,6.019e+00,4.889e+00,6.207e+00,5.221e+00,7.665e+00,5.669e+00,4.761e+00,4.748e+00,6.599e+00,5.306e+00,7.019e+00,5.962e+00,5.744e+00,5.118e+00,5.698e+00,6.188e+00,8.038e+00,5.662e+00,4.946e+00,4.906e+00,6.189e+00,5.059e+00,5.638e+00,7.117e+00,6.787e+00,6.374e+00,4.050e+00,6.718e+00,6.084e+00,6.486e+00,6.939e+00,6.280e+00,6.240e+00,6.469e+00,4.457e+00,7.240e+00,4.791e+00,6.861e+00,5.558e+00,6.207e+00,6.506e+00,7.265e+00,6.097e+00,5.946e+00,6.622e+00
5.350e-01,1.009e+00,1.643e+00,1.314e+00,1.931e+00,1.476e+00,2.540e+00,1.455e+00,2.573e+00,2.203e+00,2.832e+00,2.643e+00,2.214e+00,2.428e+00,3.723e+00,5.906e+00,4.312e+00,3.911e+00,4.246e+00,4.434e+00,5.570e+00,4.869e+00,3.857e+00,4.311e+00,5.267e+00,4.166e+00,5.451e+00,4.914e+00,4.926e+00,4.118e+00,4.947e+00,5.951e+00,5.760e+00,5.518e+00,4.308e+00,4.357e+00,4.562e+00,4.592e+00,4.653e+00,5.843e+00,5.103e+00,5.145e+00,3.224e+00,4.778e+00,5.156e+00,6.203e+00,5.992e+00,5.570e+00,5.131e+00,5.283e+00,4.799e+00,5.909e+00,4.195e+00,6.154e+00,5.091e+00,4.988e+00,4.538e+00,5.171e+00,5.053e+00,4.348e+00,5.622e+00
4.196e-01,5.031e-01,7.928e-01,9.096e-01,1.016e+00,1.132e+00,1.654e+00,1.387e+00,2.350e+00,2.116e+00,2.792e+00,2.445e+00,1.887e+00,2.523e+00,4.274e+00,5.932e+00,5.394e+00,4.603e+00,6.159e+00,4.812e+00,7.175e+00,6.598e+00,5.683e+00,6.129e+00,6.240e+00,4.860e+00,7.185e+00,6.814e+00,5.560e+00,5.410e+00,5.369e+00,6.177e+00,7.759e+00,6.854e+00,5.046e+00,4.536e+00,6.167e+00,5.740e+00,5.833e+00,7.141e+00,6.785e+00,6.003e+00,4.122e+00,6.370e+00,6.087e+00,6.725e+00,7.353e+00,7.129e+00,7.065e+00,6.442e+00,4.493e+00,6.998e+00,5.320e+00,6.588e+00,6.038e+00,6.785e+00,5.611e+00,6.575e+00,6.114e+00,6.406e+00,6.376e+00
7.605e-01,9.302e-01,1.698e+00,1.378e+00,1.717e+00,1.574e+00,2.446e+00,1.352e+00,2.628e+00,2.082e+00,2.983e+00,2.572e+00,2.295e+00,2.126e+00,2.893e+00,4.609e+00,4.227e+00,3.147e+00,4.190e+00,4.176e+00,5.923e+00,4.513e+00,4.401e+00,5.005e+00,5.327e+00,4.427e+00,6.750e+00,5.230e+00,5.159e+00,4.626e+00,5.471e+00,5.588e+00,6.029e+00,5.051e+00,4.907e+00,4.796e+00,4.681e+00,5.124e+00,5.161e+00,5.917e+00,5.559e+00,4.864e+00,3.240e+00,5.554e+00,5.793e+00,6.757e+00,6.212e+00,5.790e+00,5.437e+00,5.934e+00,4.942e+00,5.923e+00,4.185e+00,6.270e+00,4.858e+00,5.474e+00,4.820e+00,5.564e+00,4.815e+00,4.435e+00,5.649e+00
5.427e-01,5.351e-01,1.031e+00,1.055e+00,1.355e+00,1.459e+00,2.182e+00,1.778e+00,3.045e+00,2.179e+00,2.796e+00,2.262e+00,2.112e+00,2.768e+00,3.733e+00,5.618e+00,5.312e+00,4.323e+00,5.618e+00,4.464e+00,6.621e+00,6.047e+00,5.436e+00,5.372e+00,5.565e+00,5.243e+00,7.785e+00,6.219e+00,6.532e+00,5.015e+00,5.421e+00,5.115e+00,6.280e+00,5.723e+00,4.586e+00,5.039e+00,5.655e+00,6.259e+00,4.891e+00,6.459e+00,6.868e+00,5.540e+00,3.545e+00,6.467e+00,5.879e+00,6.143e+00,7.641e+00,5.635e+00,7.051e+00,6.349e+00,5.591e+00,6.871e+00,5.406e+00,5.979e+00,5.134e+00,7.513e+00,5.410e+00,6.319e+00,5.869e+00,6.317e+00,6.551e+00
3.690e-01,3.585e-01,1.115e+00,1.392e+00,1.779e+00,1.536e+00,2.483e+00,1.704e+00,2.948e+00,1.962e+00,2.851e+00,2.298e+00,1.560e+00,2.834e+00,3.090e+00,5.388e+00,4.045e+00,4.185e+00,4.315e+00,3.417e+00,6.423e+00,5.325e+00,4.946e+00,5.248e+00,6.540e+00,4.727e+00,7.294e+00,5.491e+00,6.367e+00,4.724e+00,5.628e+00,5.627e+00,6.079e+00,5.297e+00,4.921e+00,5.429e+00,5.377e+00,5.420e+00,5.326e+00,6.178e+00,6.211e+00,5.177e+00,4.212e+00,6.568e+00,6.036e+00,7.050e+00,7.229e+00,5.692e+00,6.248e+00,6.622e+00,4.216e+00,6.732e+00,5.161e+00,6.224e+00,5.249e+00,6.525e+00,5.224e+00,5.792e+00,5.623e+00,5.881e+00,5.314e+00
6.092e-01,6.660e-01,1.323e+00,1.306e+00,2.038e+00,1.984e+00,3.146e+00,2.552e+00,3.927e+00,2.942e+00,3.863e+00,3.231e+00,2.606e+00,3.054e+00,4.198e+00,6.493e+00,6.185e+00,5.038e+00,6.143e+00,4.918e+00,6.915e+00,6.566e+00,5.760e+00,6.045e+00,7.742e+00,6.599e+00,7.710e+00,6.185e+00,7.718e+00,5.625e+00,7.327e+00,6.682e+00,8.485e+00,6.158e+00,5.870e+00,6.343e+00,7.136e+00,7.055e+00,6.182e+00,7.894e+00,8.123e+00,7.168e+00,4.682e+00,8.130e+00,7.663e+00,7.426e+00,8.152e+00,6.481e+00,7.764e+00,8.130e+00,6.572e+00,8.485e+00,7.040e+00,6.946e+00,5.529e+00,8.686e+00,6.961e+00,7.372e+00,7.213e+00,7.084e+00,7.982e+00
1.627e-01,7.823e-01,1.397e+00,1.728e+00,2.233e+00,1.569e+00,2.785e+00,2.019e+00,3.104e+00,2.367e+00,3.487e+00,2.263e+00,1.997e+00,2.233e+00,3.887e+00,5.477e+00,4.666e+00,4.310e+00,4.030e+00,4.518e+00,5.817e+00,5.751e+00,4.827e+00,6.302e+00,6.735e+00,5.407e+00,6.645e+00,6.400e+00,6.262e+00,6.067e+00,7.181e+00,6.431e+00,7.158e+00,6.206e+00,6.189e+00,5.474e+00,7.645e+00,6.239e+00,6.271e+00,7.061e+00,7.423e+00,6.358e+00,4.535e+00,6.941e+00,6.647e+00,7.229e+00,8.122e+00,6.376e+00,7.018e+00,7.902e+00,6.300e+00,6.991e+00,6.867e+00,7.187e+00,6.628e+00,7.663e+00,5.701e+00,6.861e+00,6.282e+00,6.360e+00,7.302e+00
4.887e-01,6.467e-01,1.033e+00,1.364e+00,1.348e+00,1.456e+00,2.097e+00,1.669e+00,3.037e+00,2.509e+00,3.320e+00,2.803e+00,2.261e+00,2.480e+00,3.991e+00,5.705e+00,4.738e+00,4.825e+00,5.857e+00,4.850e+00,7.080e+00,6.127e+00,5.824e+00,5.725e+00,6.710e+00,5.655e+00,8.482e+00,7.371e+00,6.529e+00,6.455e+00,8.038e+00,6.735e+00,8.591e+00,7.783e+00,7.390e+00,5.451e+00,7.386e+00,6.741e+00,7.261e+00,8.292e+00,9.084e+00,7.039e+00,5.059e+00,7.858e+00,7.396e+00,7.464e+00,8.810e+00,7.955e+00,7.821e+00,8.465e+00,6.727e+00,7.852e+00,7.094e+00,7.542e+00,6.940e+00,8.277e+00,6.908e+00,7.632e+00,7.166e+00,7.247e+00,8.848e+00
3.514e-01,4.109e-01,9.743e-01,1.345e+00,1.550e+00,1.499e+00,2.303e+00,1.647e+00,3.021e+00,2.502e+00,3.120e+00,1.806e+00,2.019e+00,2.517e+00,3.732e+00,5.321e+00,4.915e+00,4.164e+00,4.186e+00,3.742e+00,5.791e+00,4.745e+00,4.775e+00,5.254e+00,5.596e+00,5.548e+00,7.972e+00,6.561e+00,6.621e+00,5.902e+00,6.341e+00,6.434e+00,7.774e+00,6.125e+00,5.735e+00,5.582e+00,6.539e+00,6.953e+00,6.223e+00,7.574e+00,8.114e+00,6.288e+00,4.384e+00,7.346e+00,7.243e+00,7.153e+00,8.682e+00,5.810e+00,7.088e+00,7.617e+00,7.164e+00,7.430e+00,6.798e+00,7.134e+00,7.108e+00,7.770e+00,6.635e+00,7.539e+00,7.356e+00,6.652e+00,7.734e+00
7.610e-01,1.005e+00,1.552e+00,1.578e+00,2.031e+00,1.929e+00,3.169e+00,2.201e+00,2.878e+00,2.203e+00,3.014e+00,2.553e+00,2.468e+00,2.627e+00,3.692e+00,6.152e+00,5.612e+00,4.016e+00,4.915e+00,4.930e+00,6.492e+00,5.134e+00,4.215e+00,6.062e+00,7.389e+00,5.383e+00,8.349e+00,6.682e+00,7.900e+00,5.449e+00,6.539e+00,6.812e+00,7.588e+00,6.700e+00,6.609e+00,6.169e+00,6.441e+00,6.667e+00,5.879e+00,7.917e+00,6.948e+00,7.092e+00,4.547e+00,7.149e+00,7.603e+00,8.273e+00,8.811e+00,7.076e+00,7.141e+00,7.753e+00,6.181e+00,8.783e+00,6.979e+00,6.908e+00,7.176e+00,8.606e+00,6.860e+00,5.927e+00,7.476e+00,5.691e+00,7.193e+00
5.697e-01,4.049e-01,7.672e-01,9.657e-01,1.206e+00,1.472e+00,2.066e+00,1.572e+00,2.190e+00,2.000e+00,2.658e+00,1.561e+00,1.667e+00,2.277e+00,2.871e+00,3.997e+00,4.224e+00,3.140e+00,4.312e+00,3.871e+00,4.975e+00,4.365e+00,4.326e+00,5.380e+00,5.534e+00,5.602e+00,7.070e+00,6.285e+00,7.085e+00,5.845e+00,7.298e+00,5.789e+00,8.105e+00,6.266e+00,6.269e+00,6.725e+00,6.518e+00,6.385e+00,6.497e+00,7.961e+00,8.295e+00,7.331e+00,5.035e+00,7.781e+00,7.240e+00,7.746e+00,9.221e+00,6.886e+00,8.023e+00,7.584e+00,7.191e+00,7.928e+00,7.428e+00,7.870e+00,7.718e+00,8.919e+00,7.659e+00,7.247e+00,8.103e+00,6.767e+00,8.710e+00
3.302e-01,3.227e-01,9.013e-01,1.413e+00,1.299e+00,1.289e+00,2.051e+00,1.261e+00,2.588e+00,2.416e+00,3.012e+00,2.273e+00,1.962e+00,2.708e+00,3.762e+00,5.280e+00,3.699e+00,3.975e+00,4.561e+00,3.480e+00,6.074e+00,5.126e+00,5.753e+00,5.170e+00,5.727e+00,5.741e+00,7.281e+00,6.225e+00,6.969e+00,6.132e+00,7.672e+00,6.717e+00,8.432e+00,6.939e+00,6.840e+00,6.679e+00,6.705e+00,7.044e+00,7.298e+00,8.023e+00,8.336e+00,7.723e+00,4.790e+00,7.110e+00,7.362e+00,7.707e+00,9.573e+00,7.188e+00,8.207e+00,7.618e+00,7.469e+00,8.298e+00,7.266e+00,8.403e+00,6.400e+00,8.966e+00,7.205e+00,8.088e+00,8.109e+00,7.543e+00,9.415e+00
6.926e-01,4.763e-01,1.275e+00,9.603e-01,9.926e-01,1.069e+00,2.009e+00,1.236e+00,2.763e+00,2.450e+00,2.770e+00,2.948e+00,2.358e+00,2.814e+00,3.684e+00,5.662e+00,4.616e+00,3.439e+00,5.164e+00,2.733e+00,6.209e+00,4.450e+00,4.686e+00,4.757e+00,6.091e+00,5.038e+00,7.953e+00,5.992e+00,7.316e+00,4.733e+00,7.580e+00,6.972e+00,8.473e+00,6.607e+00,5.683e+00,7.114e+00,5.865e+00,7.395e+00,7.021e+00,8.104e+00,8.168e+00,8.562e+00,5.033e+00,8.556e+00,9.051e+00,8.207e+00,8.658e+00,7.130e+00,6.902e+00,8.947e+00,7.326e+00,9.405e+00,7.071e+00,7.042e+00,7.319e+00,7.169e+00,7.700e+00,8.884e+00,9.535e+00,6.385e+00,7.197e+00
2.527e-01,6.124e-01,8.551e-01,1.387e+00,1.685e+00,1.669e+00,2.443e+00,1.761e+00,2.670e+00,2.088e+00,2.706e+00,1.882e+00,2.342e+00,1.867e+00,3.584e+00,4.693e+00,4.541e+00,3.926e+00,4.511e+00,5.157e+00,5.777e+00,5.202e+00,5.191e+00,4.636e+00,5.955e+00,5.321e+00,6.792e+00,6.220e+00,6.734e+00,5.195e+00,7.717e+00,7.787e+00,8.634e+00,7.005e+00,8.009e+00,7.470e+00,8.074e+00,7.194e+00,7.236e+00,9.049e+00,8.779e+00,7.797e+00,5.046e+00,8.231e+00,8.526e+00,8.157e+00,9.420e+00,7.659e+00,7.973e+00,8.545e+00,7.179e+00,8.421e+00,7.472e+00,7.703e+00,7.989e+00,8.712e+00,6.944e+00,7.404e+00,7.480e+00,6.720e+00,8.682e+00
8.304e-01,6.988e-01,1.117e+00,5.645e-01,1.531e+00,1.665e+00,2.430e+00,1.947e+00,2.371e+00,2.539e+00,3.246e+00,2.826e+00,1.805e+00,3.077e+00,3.340e+00,5.211e+00,4.623e+00,3.449e+00,4.866e+00,4.553e+00,5.611e+00,6.389e+00,5.505e+00,6.172e+00,6.179e+00,6.540e+00,6.622e+00,5.905e+00,7.304e+00,6.068e+00,8.910e+00,8.183e+00,9.669e+00,7.251e+00,7.404e+00,9.697e+00,9.260e+00,8.758e+00,7.685e+00,9.945e+00,1.055e+01,9.575e+00,5.659e+00,8.274e+00,9.047e+00,9.340e+00,1.034e+01,8.416e+00,9.299e+00,1.006e+01,7.830e+00,1.067e+01,9.261e+00,9.498e+00,8.733e+00,9.356e+00,8.291e+00,8.529e+00,1.002e+01,7.764e+00,9.276e+00
2.064e-01,2.044e-01,5.790e-01,1.179e+00,1.014e+00,1.142e+00,1.704e+00,1.524e+00,2.832e+00,2.331e+00,3.144e+00,2.074e+00,1.817e+00,2.108e+00,3.510e+00,5.468e+00,4.888e+00,4.131e+00,4.866e+00,4.130e+00,6.009e+00,4.460e+00,4.528e+00,4.649e+00,6.076e+00,5.164e+00,7.457e+00,6.829e+00,6.765e+00,5.423e+00,7.234e+00,7.489e+00,9.493e+00,8.035e+00,7.255e+00,7.121e+00,8.746e+00,7.639e+00,7.859e+00,9.275e+00,9.836e+00,8.302e+00,5.608e+00,8.680e+00,8.952e+00,7.670e+00,9.777e+00,7.461e+00,7.895e+00,9.265e+00,8.481e+00,9.876e+00,8.260e+00,8.644e+00,9.666e+00,9.527e+00,8.032e+00,8.530e+00,9.317e+00,7.705e+00,9.246e+00
5.274e-01,7.458e-01,1.378e+00,1.707e+00,1.676e+00,1.629e+00,2.688e+00,2.048e+00,3.637e+00,2.629e+00,3.663e+00,2.915e+00,2.668e+00,2.266e+00,3.713e+00,6.565e+00,5.776e+00,4.288e+00,5.288e+00,4.668e+00,6.695e+00,5.130e+00,4.767e+00,5.333e+00,7.110e+00,6.230e+00,7.917e+00,6.771e+00,8.125e+00,6.123e+00,8.220e+00,7.772e+00,9.555e+00,8.025e+00,8.151e+00,8.711e+00,9.262e+00,9.185e+00,9.236e+00,1.106e+01,1.113e+01,1.044e+01,5.863e+00,9.411e+00,1.067e+01,8.934e+00,1.084e+01,9.401e+00,9.436e+00,1.061e+01,1.065e+01,1.225e+01,9.942e+00,9.982e+00,1.032e+01,1.164e+01,8.788e+00,9.414e+00,1.068e+01,8.118e+00,1.049e+01
9.168e-02,3.855e-01,8.087e-01,1.470e+00,1.570e+00,1.407e+00,2.369e+00,2.045e+00,3.281e+00,2.047e+00,3.000e+00,2.612e+00,2.194e+00,2.235e+00,3.715e+00,6.541e+00,5.446e+00,4.368e+00,4.973e+00,4.590e+00,6.959e+00,5.381e+00,5.183e+00,5.553e+00,7.675e+00,6.536e+00,9.188e+00,6.772e+00,8.296e+00,6.151e+00,8.419e+00,6.941e+00,8.376e+00,7.383e+00,7.594e+00,8.541e+00,9.013e+00,8.529e+00,9.767e+00,1.078e+01,1.062e+01,9.946e+00,6.393e+00,1.009e+01,1.056e+01,9.520e+00,1.040e+01,9.902e+00,8.454e+00,1.089e+01,9.345e+00,1.081e+01,9.587e+00,8.440e+00,1.017e+01,1.033e+01,8.308e+00,8.514e+00,9.468e+00,8.734e+00,8.487e+00
5.894e-02,3.745e-01,1.052e+00,1.629e+00,1.459e+00,1.116e+00,2.253e+00,1.801e+00,3.431e+00,2.150e+00,2.985e+00,2.334e+00,2.312e+00,2.181e+00,3.592e+00,6.109e+00,5.100e+00,4.433e+00,5.407e+00,4.955e+00,7.447e+00,5.728e+00,6.045e+00,6.167e+00,8.195e+00,6.738e+00,9.878e+00,7.953e+00,9.216e+00,5.942e+00,9.030e+00,7.569e+00,9.243e+00,8.270e+00,8.499e+00,8.911e+00,1.020e+01,9.773e+00,1.053e+01,1.136e+01,1.179e+01,1.060e+01,7.033e+00,1.136e+01,1.153e+01,1.078e+01,1.130e+01,1.020e+01,9.615e+00,1.238e+01,1.078e+01,1.147e+01,9.702e+00,9.940e+00,1.106e+01,1.192e+01,9.107e+00,1.037e+01,1.146e+01,9.485e+00,1.052e+01
4.867e-01,9.330e-01,1.623e+00,1.453e+00,1.935e+00,1.468e+00,2.662e+00,1.602e+00,2.901e+00,2.283e+00,2.898e+00,2.743e+00,2.339e+00,2.725e+00,4.227e+00,6.574e+00,4.918e+00,3.929e+00,4.387e+00,3.639e+00,6.220e+00,5.500e+00,4.678e+00,5.705e+00,6.233e+00,6.059e+00,7.540e+00,6.355e+00,7.284e+00,6.804e+00,8.467e+00,8.484e+00,8.958e+00,8.415e+00,7.566e+00,9.110e+00,9.926e+00,1.010e+01,1.007e+01,1.122e+01,1.162e+01,1.182e+01,7.239e+00,1.063e+01,1.265e+01,1.057e+01,1.199e+01,9.987e+00,9.980e+00,1.183e+01,1.103e+01,1.219e+01,1.125e+01,1.092e+01,1.190e+01,1.129e+01,9.338e+00,1.041e+01,1.216e+01,9.450e+00,1.066e+01
3.379e-01,5.690e-01,1.272e+00,1.532e+00,1.642e+00,1.341e+00,2.347e+00,1.706e+00,3.014e+00,2.539e+00,3.466e+00,2.056e+00,2.052e+00,2.108e+00,3.307e+00,5.351e+00,4.791e+00,4.424e+00,3.978e+00,4.244e+00,5.815e+00,5.137e+00,4.228e+00,5.435e+00,6.368e+00,6.109e+00,7.348e+00,5.946e+00,7.779e+00,5.392e+00,7.857e+00,7.522e+00,9.025e+00,8.211e+00,8.096e+00,8.061e+00,9.881e+00,9.149e+00,9.206e+00,1.037e+01,1.091e+01,1.075e+01,7.286e+00,9.861e+00,1.118e+01,9.897e+00,1.193e+01,9.563e+00,9.705e+00,1.125e+01,1.119e+01,1.265e+01,1.111e+01,1.025e+01,1.115e+01,1.150e+01,8.877e+00,9.382e+00,1.152e+01,8.692e+00,1.079e+01
3.073e-01,4.500e-01,8.641e-01,7.530e-01,9.537e-01,7.728e-01,1.529e+00,1.232e+00,2.018e+00,1.801e+00,2.365e+00,2.425e+00,1.518e+00,2.025e+00,3.290e+00,5.554e+00,4.382e+00,3.797e+00,4.657e+00,3.881e+00,6.124e+00,5.030e+00,4.581e+00,5.603e+00,6.253e+00,5.134e+00,7.353e+00,6.230e+00,6.815e+00,5.804e+00,7.859e+00,6.848e+00,8.250e+00,7.762e+00,6.451e+00,6.914e+00,8.261e+00,8.163e+00,7.991e+00,9.994e+00,1.015e+01,9.816e+00,6.283e+00,8.520e+00,1.008e+01,9.808e+00,1.102e+01,9.770e+00,8.634e+00,1.013e+01,9.417e+00,1.040e+01,9.687e+00,9.071e+00,1.004e+01,1.142e+01,8.630e+00,9.109e+00,1.009e+01,7.584e+00,1.078e+01
3.268e-01,6.702e-01,1.365e+00,1.377e+00,1.684e+00,1.317e+00,2.568e+00,1.897e+00,3.196e+00,2.418e+00,2.962e+00,1.845e+00,2.476e+00,2.178e+00,3.135e+00,5.371e+00,4.828e+00,3.606e+00,3.869e+00,4.470e+00,5.753e+00,4.658e+00,4.441e+00,5.532e+00,6.207e+00,6.587e+00,8.220e+00,6.204e+00,8.640e+00,5.055e+00,8.079e+00,7.598e+00,8.389e+00,7.473e+00,7.906e+00,8.027e+00,7.942e+00,8.779e+00,8.669e+00,1.016e+01,1.112e+01,1.123e+01,6.792e+00,1.027e+01,1.089e+01,1.000e+01,1.133e+01,9.980e+00,1.061e+01,1.181e+01,1.048e+01,1.290e+01,1.083e+01,1.018e+01,1.047e+01,1.098e+01,8.247e+00,8.929e+00,1.169e+01,8.473e+00,1.073e+01
2.056e-01,3.594e-01,9.053e-01,1.579e+00,1.857e+00,1.746e+00,2.685e+00,1.847e+00,2.844e+00,1.793e+00,2.876e+00,2.328e+00,2.104e+00,2.520e+00,3.541e+00,6.049e+00,4.953e+00,4.171e+00,4.993e+00,4.745e+00,6.752e+00,5.592e+00,5.508e+00,5.002e+00,7.475e+00,6.445e+00,8.281e+00,6.671e+00,8.291e+00,5.844e+00,8.263e+00,8.000e+00,9.371e+00,7.775e+00,7.923e+00,9.095e+00,9.747e+00,9.099e+00,9.258e+00,1.130e+01,1.175e+01,1.318e+01,8.773e+00,1.187e+01,1.183e+01,1.187e+01,1.259e+01,1.141e+01,1.108e+01,1.249e+01,1.103e+01,1.275e+01,1.173e+01,1.107e+01,1.245e+01,1.271e+01,1.022e+01,1.095e+01,1.211e+01,1.076e+01,1.240e+01
6.836e-01,1.110e+00,1.865e+00,1.900e+00,2.016e+00,1.697e+00,2.666e+00,1.371e+00,2.886e+00,2.073e+00,2.956e+00,2.345e+00,2.330e+00,2.628e+00,3.611e+00,5.779e+00,4.262e+00,3.581e+00,4.263e+00,4.311e+00,6.522e+00,5.896e+00,5.139e+00,6.413e+00,6.248e+00,6.181e+00,8.416e+00,7.503e+00,7.658e+00,7.039e+00,8.244e+00,8.072e+00,9.264e+00,8.534e+00,8.345e+00,8.568e+00,8.636e+00,8.834e+00,9.855e+00,1.165e+01,1.180e+01,1.084e+01,7.078e+00,1.038e+01,1.218e+01,1.190e+01,1.279e+01,1.121e+01,1.191e+01,1.111e+01,1.078e+01,1.224e+01,1.185e+01,1.254e+01,1.233e+01,1.110e+01,9.047e+00,1.055e+01,1.159e+01,9.221e+00,1.256e+01
6.913e-01,4.491e-01,7.428e-01,2.241e-01,8.292e-01,1.102e+00,1.643e+00,1.230e+00,1.470e+00,1.697e+00,1.777e+00,1.373e+00,1.466e+00,1.932e+00,2.200e+00,3.066e+00,3.675e+00,2.501e+00,3.587e+00,3.275e+00,4.276e+00,4.623e+00,4.307e+00,4.382e+00,4.136e+00,5.062e+00,6.404e+00,4.574e+00,7.006e+00,4.945e+00,7.611e+00,6.393e+00,7.745e+00,6.852e+00,6.476e+00,9.440e+00,8.770e+00,9.066e+00,8.723e+00,1.025e+01,1.119e+01,1.147e+01,7.801e+00,1.100e+01,1.280e+01,1.093e+01,1.198e+01,1.135e+01,1.163e+01,1.181e+01,1.190e+01,1.299e+01,1.233e+01,1.089e+01,1.195e+01,1.239e+01,9.286e+00,1.025e+01,1.227e+01,9.811e+00,1.217e+01
6.601e-01,7.109e-01,1.134e+00,5.870e-01,1.125e+00,1.057e+00,1.618e+00,1.022e+00,1.598e+00,1.720e+00,2.246e+00,2.144e+00,1.318e+00,2.096e+00,2.989e+00,4.554e+00,3.995e+00,3.247e+00,3.909e+00,3.359e+00,4.952e+00,4.918e+00,4.117e+00,4.243e+00,4.863e+00,4.735e+00,5.980e+00,5.569e+00,6.533e+00,5.565e+00,7.038e+00,6.928e+00,8.058e+00,6.189e+00,6.033e+00,7.292e+00,8.360e+00,8.395e+00,6.787e+00,9.898e+00,9.835e+00,1.019e+01,6.612e+00,9.234e+00,1.122e+01,1.116e+01,1.236e+01,1.021e+01,1.117e+01,1.082e+01,1.160e+01,1.199e+01,1.204e+01,1.025e+01,1.158e+01,1.136e+01,8.757e+00,9.955e+00,1.105e+01,8.408e+00,1.186e+01
2.728e-01,5.081e-01,1.074e+00,1.057e+00,1.538e+00,1.242e+00,2.048e+00,1.655e+00,2.920e+00,2.088e+00,2.940e+00,2.084e+00,1.693e+00,2.097e+00,3.260e+00,5.307e+00,5.021e+00,4.433e+00,4.962e+00,5.047e+00,6.692e+00,5.929e+00,5.045e+00,5.646e+00,6.257e+00,5.263e+00,7.375e+00,6.479e+00,6.657e+00,6.112e+00,8.422e+00,7.957e+00,9.172e+00,7.651e+00,7.368e+00,8.674e+00,9.870e+00,9.321e+00,1.014e+01,1.159e+01,1.181e+01,1.173e+01,8.379e+00,1.079e+01,1.193e+01,1.222e+01,1.220e+01,1.194e+01,1.188e+01,1.258e+01,1.180e+01,1.286e+01,1.217e+01,1.250e+01,1.337e+01,1.307e+01,9.633e+00,1.064e+01,1.171e+01,1.097e+01,1.374e+01
4.605e-01,8.709e-01,1.737e+00,1.365e+00,2.303e+00,1.620e+00,3.001e+00,2.274e+00,3.934e+00,3.039e+00,3.679e+00,2.931e+00,2.153e+00,3.243e+00,3.886e+00,6.301e+00,4.221e+00,5.022e+00,4.313e+00,3.938e+00,5.808e+00,6.087e+00,4.742e+00,5.548e+00,5.711e+00,5.228e+00,6.589e+00,5.717e+00,7.817e+00,5.348e+00,8.277e+00,7.593e+00,7.569e+00,7.871e+00,7.064e+00,8.747e+00,8.961e+00,9.306e+00,8.631e+00,9.893e+00,1.093e+01,1.136e+01,8.052e+00,1.074e+01,1.159e+01,1.083e+01,1.336e+01,1.067e+01,1.263e+01,1.260e+01,1.300e+01,1.264e+01,1.276e+01,1.372e+01,1.233e+01,1.335e+01,9.109e+00,1.048e+01,1.121e+01,1.109e+01,1.387e+01
4.230e-01,3.220e-01,8.287e-01,1.229e+00,1.193e+00,1.397e+00,1.861e+00,1.556e+00,2.895e+00,2.289e+00,3.599e+00,2.696e+00,1.834e+00,1.785e+00,2.858e+00,4.902e+00,4.875e+00,3.507e+00,4.777e+00,5.062e+00,6.273e+00,5.070e+00,5.529e+00,5.660e+00,6.636e+00,6.299e+00,8.562e+00,6.562e+00,7.483e+00,6.039e+00,7.942e+00,7.068e+00,9.034e+00,6.582e+00,7.184e+00,8.254e+00,8.772e+00,9.056e+00,9.849e+00,1.076e+01,1.132e+01,1.122e+01,7.274e+00,1.111e+01,1.210e+01,1.235e+01,1.276e+01,1.233e+01,1.317e+01,1.381e+01,1.350e+01,1.377e+01,1.213e+01,1.344e+01,1.247e+01,1.371e+01,1.068e+01,1.062e+01,1.176e+01,1.129e+01,1.397e+01
6.438e-01,5.355e-01,9.974e-01,5.283e-01,1.158e+00,1.207e+00,1.937e+00,1.620e+00,2.437e+00,2.066e+00,2.652e+00,2.872e+00,1.637e+00,2.640e+00,3.268e+00,5.919e+00,5.186e+00,4.129e+00,5.853e+00,4.749e+00,6.669e+00,6.154e+00,5.350e+00,6.054e+00,7.221e+00,5.821e+00,7.764e+00,6.652e+00,8.169e+00,5.777e+00,8.973e+00,7.874e+00,9.925e+00,8.669e+00,7.492e+00,1.036e+01,1.063e+01,1.036e+01,1.005e+01,1.257e+01,1.277e+01,1.284e+01,9.104e+00,1.259e+01,1.384e+01,1.360e+01,1.441e+01,1.323e+01,1.415e+01,1.524e+01,1.544e+01,1.612e+01,1.430e+01,1.539e+01,1.529e+01,1.576e+01,1.185e+01,1.245e+01,1.612e+01,1.319e+01,1.596e+01
8.802e-01,7.301e-01,1.531e+00,1.096e+00,1.877e+00,1.905e+00,3.022e+00,2.457e+00,3.816e+00,3.232e+00,4.033e+00,2.830e+00,2.402e+00,3.091e+00,3.197e+00,6.126e+00,5.755e+00,4.630e+00,4.973e+00,4.958e+00,6.795e+00,6.180e+00,5.482e+00,6.907e+00,7.300e+00,6.873e+00,8.839e+00,6.864e+00,9.310e+00,5.898e+00,8.674e+00,8.212e+00,9.210e+00,8.194e+00,7.788e+00,1.040e+01,9.314e+00,1.022e+01,9.666e+00,1.165e+01,1.257e+01,1.196e+01,8.310e+00,1.310e+01,1.432e+01,1.356e+01,1.496e+01,1.235e+01,1.543e+01,1.542e+01,1.466e+01,1.651e+01,1.556e+01,1.552e+01,1.432e+01,1.555e+01,1.135e+01,1.317e+01,1.626e+01,1.267e+01,1.681e+01
5.400e-01,9.511e-01,1.534e+00,1.125e+00,1.679e+00,1.260e+00,2.324e+00,1.763e+00,2.832e+00,2.137e+00,2.740e+00,2.543e+00,2.050e+00,2.672e+00,3.645e+00,5.098e+00,4.481e+00,3.981e+00,5.326e+00,4.671e+00,6.331e+00,5.996e+00,4.969e+00,5.769e+00,6.630e+00,5.429e+00,7.184e+00,5.923e+00,7.116e+00,5.780e+00,8.951e+00,6.622e+00,8.970e+00,7.650e+00,7.745e+00,8.530e+00,9.429e+00,8.759e+00,8.823e+00,9.487e+00,1.182e+01,1.058e+01,6.841e+00,9.720e+00,1.063e+01,1.013e+01,1.162e+01,1.003e+01,1.091e+01,1.262e+01,1.242e+01,1.328e+01,1.276e+01,1.343e+01,1.201e+01,1.388e+01,1.024e+01,1.216e+01,1.401e+01,1.081e+01,1.352e+01
6.530e-01,8.022e-01,1.443e+00,1.542e+00,1.582e+00,1.486e+00,2.519e+00,1.774e+00,3.175e+00,2.560e+00,3.358e+00,2.841e+00,2.197e+00,2.620e+00,3.577e+00,6.834e+00,4.884e+00,4.278e+00,4.733e+00,3.922e+00,6.361e+00,4.991e+00,4.401e+00,5.023e+00,6.251e+00,5.140e+00,7.464e+00,6.568e+00,7.989e+00,5.752e+00,6.612e+00,7.949e+00,8.629e+00,8.397e+00,6.930e+00,8.684e+00,8.861e+00,8.908e+00,9.056e+00,1.062e+01,1.049e+01,1.173e+01,7.326e+00,1.118e+01,1.323e+01,1.190e+01,1.322e+01,1.134e+01,1.255e+01,1.308e+01,1.460e+01,1.587e+01,1.450e+01,1.399e+01,1.544e+01,1.460e+01,1.108e+01,1.313e+01,1.494e+01,1.261e+01,1.577e+01
4.225e-01,6.704e-01,1.451e+00,1.725e+00,1.852e+00,1.606e+00,2.497e+00,1.493e+00,3.271e+00,2.102e+00,3.058e+00,2.176e+00,2.210e+00,2.459e+00,3.343e+00,5.763e+00,4.897e+00,3.545e+00,4.638e+00,5.023e+00,6.614e+00,4.961e+00,5.181e+00,5.512e+00,6.328e+00,6.110e+00,8.350e+00,7.379e+00,7.684e+00,6.004e+00,8.595e+00,7.032e+00,8.276e+00,6.828e+00,7.181e+00,8.755e+00,8.543e+00,8.853e+00,9.192e+00,1.134e+01,1.214e+01,1.112e+01,7.151e+00,1.171e+01,1.217e+01,1.174e+01,1.404e+01,1.179e+01,1.273e+01,1.447e+01,1.500e+01,1.527e+01,1.311e+01,1.587e+01,1.560e+01,1.596e+01,1.192e+01,1.460e+01,1.503e+01,1.304e+01,1.593e+01
5.736e-01,8.403e-01,1.719e+00,1.342e+00,2.070e+00,1.617e+00,2.672e+00,1.991e+00,3.551e+00,2.089e+00,3.195e+00,2.674e+00,1.915e+00,2.527e+00,2.691e+00,5.586e+00,4.285e+00,4.294e+00,4.303e+00,4.138e+00,6.087e+00,6.262e+00,4.544e+00,5.758e+00,6.810e+00,5.784e+00,7.791e+00,7.016e+00,8.175e+00,5.957e+00,9.129e+00,7.678e+00,8.489e+00,8.305e+00,8.017e+00,9.028e+00,1.010e+01,9.468e+00,9.983e+00,1.147e+01,1.226e+01,1.181e+01,8.369e+00,1.136e+01,1.335e+01,1.135e+01,1.388e+01,1.094e+01,1.219e+01,1.411e+01,1.344e+01,1.545e+01,1.433e+01,1.349e+01,1.516e+01,1.450e+01,1.057e+01,1.320e+01,1.500e+01,1.339e+01,1.526e+01
3.679e-01,2.861e-01,4.991e-01,3.267e-01,1.117e+00,1.185e+00,1.784e+00,1.678e+00,2.136e+00,1.807e+00,2.061e+00,1.729e+00,1.233e+00,2.616e+00,2.777e+00,4.719e+00,3.964e+00,3.592e+00,4.272e+00,3.497e+00,4.969e+00,5.133e+00,4.409e+00,4.475e+00,5.388e+00,5.212e+00,5.468e+00,4.993e+00,6.535e+00,4.803e+00,6.755e+00,6.616e+00,7.993e+00,6.502e+00,6.696e+00,7.770e+00,8.653e+00,8.305e+00,7.845e+00,1.028e+01,1.083e+01,1.031e+01,7.035e+00,9.525e+00,1.110e+01,9.840e+00,1.228e+01,1.063e+01,1.220e+01,1.257e+01,1.180e+01,1.456e+01,1.354e+01,1.382e+01,1.351e+01,1.485e+01,1.076e+01,1.165e+01,1.579e+01,1.219e+01,1.553e+01
1.063e-02,6.340e-01,9.958e-01,1.657e+00,2.085e+00,1.603e+00,2.695e+00,2.033e+00,3.040e+00,1.956e+00,2.900e+00,2.410e+00,2.050e+00,2.561e+00,4.520e+00,6.690e+00,5.168e+00,4.870e+00,5.555e+00,5.334e+00,6.907e+00,6.630e+00,5.626e+00,5.509e+00,6.788e+00,5.633e+00,7.117e+00,6.630e+00,7.494e+00,6.919e+00,9.641e+00,8.672e+00,9.623e+00,9.184e+00,8.404e+00,8.846e+00,1.070e+01,9.626e+00,9.506e+00,1.156e+01,1.366e+01,1.433e+01,8.936e+00,1.144e+01,1.336e+01,1.221e+01,1.442e+01,1.332e+01,1.387e+01,1.412e+01,1.404e+01,1.570e+01,1.570e+01,1.534e+01,1.551e+01,1.688e+01,1.262e+01,1.480e+01,1.610e+01,1.429e+01,1.685e+01
7.678e-01,8.027e-01,1.640e+00,1.606e+00,1.970e+00,1.860e+00,3.117e+00,2.078e+00,3.621e+00,2.829e+00,3.494e+00,2.692e+00,2.554e+00,3.153e+00,4.100e+00,6.247e+00,5.419e+00,4.713e+00,5.791e+00,4.464e+00,7.180e+00,6.048e+00,5.368e+00,6.148e+00,6.271e+00,4.958e+00,7.548e+00,6.448e+00,6.863e+00,5.891e+00,7.084e+00,7.285e+00,7.943e+00,7.943e+00,6.314e+00,8.775e+00,8.369e+00,9.255e+00,9.202e+00,1.043e+01,1.177e+01,1.132e+01,7.567e+00,1.180e+01,1.318e+01,1.188e+01,1.303e+01,1.110e+01,1.247e+01,1.320e+01,1.278e+01,1.398e+01,1.261e+01,1.465e+01,1.433e+01,1.494e+01,1.174e+01,1.347e+01,1.491e+01,1.275e+01,1.587e+01
9.355e-01,1.113e+00,2.126e+00,1.309e+00,1.762e+00,1.414e+00,2.542e+00,1.232e+00,2.836e+00,2.150e+00,2.539e+00,2.310e+00,2.390e+00,2.899e+00,3.735e+00,4.931e+00,4.680e+00,3.908e+00,5.253e+00,3.866e+00,6.745e+00,5.397e+00,4.817e+00,5.261e+00,6.274e+00,5.208e+00,8.512e+00,7.212e+00,7.237e+00,6.277e+00,8.637e+00,7.429e+00,9.144e+00,7.736e+00,7.861e+00,8.633e+00,9.663e+00,1.043e+01,9.640e+00,1.181e+01,1.269e+01,1.254e+01,8.767e+00,1.189e+01,1.342e+01,1.251e+01,1.401e+01,1.206e+01,1.298e+01,1.433e+01,1.453e+01,1.530e+01,1.386e+01,1.496e+01,1.551e+01,1.589e+01,1.169e+01,1.462e+01,1.733e+01,1.328e+01,1.812e+01
2.884e-01,5.342e-01,1.220e+00,1.252e+00,1.788e+00,1.378e+00,2.212e+00,1.344e+00,2.795e+00,1.937e+00,2.621e+00,2.264e+00,1.661e+00,2.918e+00,4.082e+00,5.880e+00,4.596e+00,4.207e+00,4.892e+00,4.309e+00,6.564e+00,6.075e+00,5.512e+00,5.662e+00,5.793e+00,6.010e+00,7.623e+00,6.273e+00,6.862e+00,6.441e+00,8.024e+00,7.116e+00,8.443e+00,7.443e+00,6.399e+00,7.726e+00,8.395e+00,8.269e+00,7.827e+00,9.766e+00,1.103e+01,9.599e+00,6.459e+00,9.851e+00,1.081e+01,1.151e+01,1.212e+01,1.040e+01,1.239e+01,1.193e+01,1.371e+01,1.391e+01,1.230e+01,1.426e+01,1.352e+01,1.522e+01,1.086e+01,1.262e+01,1.582e+01,1.338e+01,1.692e+01
4.187e-01,4.676e-01,8.282e-01,1.118e+00,1.549e+00,1.646e+00,2.203e+00,1.949e+00,3.122e+00,2.302e+00,3.220e+00,2.298e+00,1.774e+00,2.224e+00,3.058e+00,5.172e+00,4.978e+00,4.212e+00,4.478e+00,4.953e+00,6.160e+00,5.280e+00,5.058e+00,5.699e+00,6.645e+00,5.693e+00,8.219e+00,6.670e+00,8.168e+00,5.973e+00,8.564e+00,7.992e+00,9.266e+00,7.445e+00,8.677e+00,9.976e+00,1.049e+01,1.014e+01,1.021e+01,1.222e+01,1.247e+01,1.233e+01,8.484e+00,1.249e+01,1.350e+01,1.174e+01,1.498e+01,1.235e+01,1.304e+01,1.388e+01,1.368e+01,1.474e+01,1.444e+01,1.479e+01,1.596e+01,1.657e+01,1.257e+01,1.394e+01,1.461e+01,1.326e+01,1.631e+01
2.302e-01,6.960e-01,1.330e+00,1.459e+00,1.746e+00,1.301e+00,2.347e+00,1.839e+00,3.302e+00,2.243e+00,3.271e+00,2.673e+00,2.178e+00,1.805e+00,3.009e+00,5.557e+00,4.445e+00,3.944e+00,4.015e+00,4.345e+00,5.752e+00,3.975e+00,3.701e+00,4.485e+00,6.645e+00,5.200e+00,7.208e+00,5.524e+00,6.884e+00,5.060e+00,8.192e+00,7.173e+00,8.324e+00,7.201e+00,7.171e+00,7.555e+00,8.467e+00,7.586e+00,8.402e+00,9.266e+00,1.027e+01,1.051e+01,6.703e+00,1.015e+01,1.241e+01,1.154e+01,1.172e+01,9.931e+00,1.044e+01,1.344e+01,1.398e+01,1.375e+01,1.360e+01,1.351e+01,1.421e+01,1.380e+01,1.139e+01,1.345e+01,1.658e+01,1.242e+01,1.795e+01
