1.514e-01,4.955e-01,3.562e-01,8.725e-01,9.240e-01,8.515e-01,4.201e-01,9.840e-02,9.289e-01,5.148e-01,8.290e-01,5.673e-01,3.996e-01,7.253e-01,2.813e-01,2.175e-01,7.451e-01,3.838e-02,5.721e-03,8.302e-01,1.120e-01,3.587e-01,1.482e-01,8.403e-01,2.878e-01,7.423e-01,4.671e-01,8.053e-01,2.841e-01,6.912e-01,4.834e-01,2.908e-01,2.379e-01,5.296e-01,5.975e-01,3.621e-01,9.138e-01,5.181e-01,9.174e-01,6.355e-01,9.223e-01,8.181e-01,6.388e-01,6.237e-01,8.798e-01,2.178e-01,2.252e-01,6.619e-01,6.998e-01,9.759e-01,3.376e-01,1.017e-01,5.568e-01,8.916e-02,7.939e-01,6.963e-02,9.230e-01,8.000e-01,4.417e-01,6.236e-01,2.310e-01,9.160e-01,2.307e-01,8.387e-01,5.570e-01,6.386e-01,9.891e-01,4.596e-02,9.441e-01,2.651e-02,8.778e-01,4.377e-01,8.194e-01
3.336e-02,2.799e-01,3.291e-01,1.170e+00,6.551e-01,4.823e-01,4.882e-01,9.781e-02,3.519e-01,7.383e-01,4.409e-01,6.379e-01,9.438e-01,1.021e+00,7.258e-01,8.979e-01,9.376e-01,8.515e-01,5.037e-01,3.835e-01,2.546e-01,6.443e-01,2.259e-01,3.356e-01,9.230e-01,1.899e-01,9.830e-01,4.933e-01,6.378e-01,5.172e-01,2.205e-01,2.528e-01,8.194e-01,9.298e-01,9.813e-01,9.685e-01,3.265e-01,9.833e-01,2.465e-01,5.058e-01,8.118e-01,8.864e-01,7.361e-01,8.987e-01,1.056e+00,2.243e-01,1.020e-01,2.106e-01,2.734e-01,2.290e-01,3.488e-01,1.245e-01,1.490e-01,8.454e-01,1.138e+00,3.892e-01,2.202e-01,1.011e+00,6.825e-01,8.633e-01,5.785e-01,1.153e+00,6.383e-01,1.856e-01,5.804e-01,8.539e-01,6.629e-01,2.056e-01,7.524e-01,9.834e-01,8.734e-01,7.485e-01,3.714e-01
8.681e-02,2.883e-01,4.492e-01,6.276e-01,7.427e-01,8.983e-01,4.042e-01,4.731e-01,6.909e-01,4.678e-01,1.296e+00,1.281e+00,1.165e+00,7.280e-01,5.560e-01,1.118e+00,9.042e-01,6.619e-01,7.356e-01,5.945e-01,8.403e-01,4.988e-01,9.711e-01,9.461e-01,9.946e-01,4.294e-01,5.895e-01,8.044e-01,1.175e+00,4.709e-01,6.070e-01,4.969e-01,1.080e+00,7.615e-01,7.623e-01,6.486e-01,9.516e-01,8.502e-01,7.421e-01,1.212e+00,1.384e+00,8.508e-01,1.328e+00,1.149e+00,6.135e-01,5.996e-01,8.492e-01,9.371e-01,5.027e-01,6.655e-01,1.091e+00,9.391e-01,9.462e-01,4.257e-01,1.021e+00,1.634e-01,9.083e-01,6.922e-01,8.553e-01,1.048e+00,1.097e+00,1.327e+00,1.032e+00,1.160e+00,5.567e-01,5.515e-01,9.722e-01,3.746e-01,1.151e+00,8.751e-01,1.395e+00,1.046e+00,1.050e+00
2.421e-02,1.537e-01,2.996e-01,1.409e+00,8.075e-01,9.180e-01,8.148e-01,8.528e-01,9.807e-01,1.185e+00,7.141e-01,1.408e+00,9.860e-01,1.482e+00,1.309e+00,1.290e+00,1.699e+00,1.673e+00,1.463e+00,4.484e-01,7.724e-01,4.663e-01,1.254e+00,1.118e+00,9.439e-01,2.841e-01,8.032e-01,5.418e-01,1.454e+00,1.112e+00,3.321e-01,1.134e+00,1.818e+00,1.087e+00,1.097e+00,1.202e+00,8.511e-01,1.657e+00,5.173e-01,8.357e-01,1.439e+00,1.537e+00,9.357e-01,1.541e+00,1.247e+00,6.805e-01,9.779e-01,7.939e-01,5.726e-01,3.034e-01,1.238e+00,1.201e+00,9.954e-01,9.520e-01,1.413e+00,7.927e-01,9.584e-01,1.054e+00,1.095e+00,9.376e-01,1.784e+00,1.862e+00,1.410e+00,1.497e+00,1.204e+00,8.812e-01,1.033e+00,3.288e-01,7.825e-01,1.119e+00,1.794e+00,1.177e+00,1.358e+00
6.552e-02,3.334e-01,5.210e-01,1.723e+00,1.979e+00,1.628e+00,1.886e+00,1.785e+00,1.262e+00,1.974e+00,1.261e+00,2.352e+00,2.344e+00,2.716e+00,2.010e+00,2.459e+00,2.167e+00,2.377e+00,2.146e+00,1.317e+00,1.173e+00,9.278e-01,2.300e+00,1.433e+00,2.116e+00,7.161e-01,1.631e+00,1.144e+00,2.274e+00,1.475e+00,9.700e-01,1.191e+00,2.802e+00,2.069e+00,1.622e+00,2.056e+00,2.050e+00,2.626e+00,1.465e+00,1.759e+00,2.368e+00,2.466e+00,2.445e+00,2.650e+00,2.068e+00,8.337e-01,1.154e+00,1.323e+00,1.653e+00,1.037e+00,1.949e+00,1.411e+00,1.906e+00,1.532e+00,2.210e+00,1.672e+00,1.264e+00,2.092e+00,2.231e+00,1.616e+00,2.657e+00,2.980e+00,2.605e+00,1.878e+00,2.087e+00,1.349e+00,2.261e+00,1.401e+00,1.446e+00,1.620e+00,2.631e+00,2.098e+00,1.975e+00
9.928e-02,3.682e-01,4.405e-01,1.393e+00,1.444e+00,2.097e+00,1.760e+00,1.312e+00,1.302e+00,1.520e+00,2.004e+00,2.652e+00,1.887e+00,2.780e+00,1.538e+00,2.030e+00,2.493e+00,2.242e+00,1.385e+00,1.920e+00,1.628e+00,1.403e+00,1.525e+00,1.916e+00,1.991e+00,1.238e+00,1.379e+00,1.474e+00,2.353e+00,2.112e+00,1.035e+00,1.840e+00,2.148e+00,1.396e+00,2.092e+00,2.174e+00,2.149e+00,1.868e+00,1.730e+00,1.501e+00,1.925e+00,2.346e+00,2.468e+00,2.188e+00,2.107e+00,6.811e-01,1.486e+00,1.452e+00,1.337e+00,1.068e+00,1.974e+00,1.806e+00,1.687e+00,1.613e+00,2.586e+00,1.702e+00,1.285e+00,1.535e+00,2.385e+00,1.356e+00,2.670e+00,3.104e+00,1.925e+00,2.510e+00,2.306e+00,1.288e+00,2.129e+00,1.522e+00,1.850e+00,1.547e+00,2.813e+00,1.762e+00,1.821e+00
9.285e-02,4.441e-01,6.401e-01,1.852e+00,1.418e+00,1.786e+00,1.947e+00,1.884e+00,2.188e+00,2.423e+00,2.556e+00,2.510e+00,2.166e+00,3.431e+00,2.320e+00,3.166e+00,3.290e+00,2.567e+00,1.749e+00,2.368e+00,1.782e+00,1.821e+00,1.990e+00,2.147e+00,2.967e+00,1.401e+00,1.701e+00,1.486e+00,2.529e+00,1.878e+00,1.627e+00,2.076e+00,3.185e+00,1.953e+00,2.265e+00,2.127e+00,2.413e+00,2.460e+00,1.588e+00,1.796e+00,2.842e+00,2.907e+00,2.775e+00,2.401e+00,2.788e+00,1.373e+00,1.599e+00,1.962e+00,1.846e+00,1.480e+00,2.356e+00,2.317e+00,1.615e+00,1.794e+00,3.520e+00,1.418e+00,1.518e+00,1.739e+00,2.190e+00,2.317e+00,3.261e+00,3.969e+00,2.116e+00,2.302e+00,2.250e+00,2.323e+00,2.184e+00,1.441e+00,2.393e+00,2.321e+00,3.290e+00,2.734e+00,2.428e+00
9.802e-02,4.646e-01,4.783e-01,2.119e+00,1.392e+00,1.633e+00,1.433e+00,1.846e+00,1.755e+00,2.321e+00,1.821e+00,2.573e+00,1.708e+00,3.484e+00,1.815e+00,2.559e+00,2.979e+00,2.844e+00,1.527e+00,1.780e+00,1.748e+00,1.931e+00,1.974e+00,2.060e+00,1.944e+00,1.088e+00,1.967e+00,1.449e+00,2.324e+00,2.357e+00,8.585e-01,2.163e+00,2.362e+00,2.288e+00,2.152e+00,2.848e+00,1.965e+00,2.553e+00,1.486e+00,1.248e+00,2.625e+00,2.851e+00,2.135e+00,2.777e+00,2.334e+00,8.901e-01,1.649e+00,1.520e+00,1.946e+00,8.789e-01,1.813e+00,2.094e+00,1.258e+00,2.160e+00,3.323e+00,1.371e+00,1.993e+00,2.488e+00,1.793e+00,2.016e+00,3.027e+00,2.862e+00,1.779e+00,2.437e+00,2.589e+00,2.096e+00,2.557e+00,1.711e+00,2.160e+00,2.378e+00,2.673e+00,1.962e+00,1.724e+00
1.037e-02,1.023e-01,2.789e-01,5.421e-01,4.126e-01,5.534e-01,4.189e-01,1.093e+00,1.137e+00,1.772e+00,1.991e+00,2.303e+00,1.366e+00,1.551e+00,7.899e-01,2.582e+00,1.585e+00,1.899e+00,1.367e+00,8.696e-01,2.148e+00,1.381e+00,1.493e+00,1.606e+00,1.835e+00,2.739e-01,1.630e+00,9.720e-01,1.968e+00,1.460e+00,1.179e+00,1.859e+00,1.924e+00,2.047e+00,1.518e+00,2.285e+00,1.240e+00,1.691e+00,1.145e+00,1.777e+00,1.837e+00,1.265e+00,2.253e+00,1.681e+00,1.296e+00,1.051e+00,1.943e+00,1.435e+00,9.559e-01,5.142e-01,1.278e+00,1.755e+00,1.378e+00,1.889e+00,1.619e+00,1.231e+00,1.216e+00,1.246e+00,9.163e-01,1.507e+00,2.553e+00,1.533e+00,1.306e+00,1.039e+00,1.943e+00,1.534e+00,2.104e+00,1.167e+00,1.975e+00,1.787e+00,1.389e+00,1.406e+00,1.534e+00
1.142e-01,4.110e-01,4.769e-01,1.602e+00,2.042e+00,2.390e+00,2.876e+00,3.174e+00,3.208e+00,4.489e+00,4.233e+00,4.550e+00,3.384e+00,5.733e+00,3.415e+00,4.471e+00,4.967e+00,4.345e+00,2.856e+00,4.248e+00,3.722e+00,3.350e+00,4.048e+00,3.747e+00,4.028e+00,2.538e+00,2.968e+00,2.713e+00,4.060e+00,4.061e+00,3.367e+00,4.181e+00,4.328e+00,3.262e+00,3.239e+00,4.373e+00,4.855e+00,3.917e+00,3.426e+00,3.004e+00,4.488e+00,4.725e+00,4.528e+00,3.326e+00,4.285e+00,2.128e+00,3.721e+00,3.964e+00,3.850e+00,2.699e+00,3.864e+00,3.587e+00,3.532e+00,3.013e+00,4.727e+00,3.339e+00,3.127e+00,2.463e+00,3.113e+00,2.531e+00,5.172e+00,5.415e+00,3.222e+00,4.135e+00,4.814e+00,3.559e+00,4.860e+00,3.367e+00,3.391e+00,2.886e+00,4.795e+00,3.475e+00,4.153e+00
1.784e-02,1.904e-01,3.488e-01,1.489e+00,1.294e+00,1.372e+00,2.052e+00,2.614e+00,2.152e+00,3.146e+00,3.338e+00,3.496e+00,2.935e+00,4.328e+00,2.580e+00,4.222e+00,3.927e+00,3.659e+00,3.051e+00,2.670e+00,3.007e+00,2.259e+00,3.214e+00,2.723e+00,3.270e+00,1.807e+00,2.872e+00,1.907e+00,3.388e+00,2.618e+00,2.119e+00,3.287e+00,3.773e+00,3.226e+00,2.576e+00,3.174e+00,2.823e+00,3.853e+00,1.972e+00,1.847e+00,3.195e+00,3.524e+00,3.425e+00,2.719e+00,3.281e+00,1.601e+00,2.607e+00,2.250e+00,2.487e+00,1.901e+00,2.676e+00,3.535e+00,2.865e+00,2.798e+00,4.331e+00,2.666e+00,2.165e+00,2.263e+00,2.391e+00,2.887e+00,3.969e+00,4.144e+00,3.122e+00,3.028e+00,3.612e+00,2.749e+00,3.521e+00,2.703e+00,2.400e+00,3.441e+00,3.792e+00,3.458e+00,2.957e+00
1.497e-01,5.721e-01,6.367e-01,1.590e+00,1.626e+00,1.584e+00,1.515e+00,1.392e+00,2.348e+00,2.794e+00,3.175e+00,3.941e+00,2.592e+00,3.168e+00,2.403e+00,3.520e+00,3.616e+00,2.747e+00,2.700e+00,3.399e+00,3.227e+00,2.613e+00,3.160e+00,2.715e+00,3.061e+00,2.543e+00,2.894e+00,2.136e+00,3.044e+00,3.291e+00,2.960e+00,2.647e+00,3.043e+00,3.022e+00,2.521e+00,3.129e+00,3.131e+00,3.616e+00,2.471e+00,2.499e+00,3.979e+00,3.264e+00,3.189e+00,2.761e+00,3.358e+00,1.711e+00,3.282e+00,3.487e+00,2.776e+00,2.215e+00,2.822e+00,2.677e+00,3.421e+00,2.667e+00,3.435e+00,2.520e+00,2.446e+00,2.480e+00,2.420e+00,2.932e+00,3.461e+00,3.835e+00,2.801e+00,3.343e+00,2.966e+00,3.447e+00,3.378e+00,2.393e+00,2.846e+00,2.314e+00,3.964e+00,3.312e+00,3.821e+00
1.206e-01,5.619e-01,6.388e-01,1.849e+00,2.068e+00,2.276e+00,2.709e+00,3.115e+00,2.707e+00,3.852e+00,4.151e+00,5.067e+00,4.531e+00,6.479e+00,3.239e+00,5.920e+00,5.735e+00,5.275e+00,3.939e+00,4.903e+00,4.866e+00,4.403e+00,4.450e+00,3.333e+00,4.622e+00,3.817e+00,4.453e+00,3.484e+00,4.689e+00,4.119e+00,3.918e+00,3.975e+00,4.348e+00,4.366e+00,4.242e+00,4.748e+00,5.098e+00,4.699e+00,3.582e+00,3.503e+00,5.531e+00,4.977e+00,5.737e+00,4.356e+00,4.533e+00,2.208e+00,4.035e+00,3.829e+00,4.883e+00,2.669e+00,4.448e+00,4.441e+00,4.003e+00,4.385e+00,5.935e+00,3.842e+00,2.938e+00,3.703e+00,3.811e+00,4.624e+00,5.899e+00,5.322e+00,3.884e+00,4.647e+00,4.876e+00,4.952e+00,4.722e+00,4.684e+00,4.520e+00,4.061e+00,5.762e+00,5.098e+00,4.760e+00
2.924e-02,2.213e-01,3.212e-01,1.203e+00,1.494e+00,1.284e+00,1.909e+00,2.284e+00,1.819e+00,3.234e+00,2.716e+00,3.464e+00,3.326e+00,4.837e+00,3.100e+00,4.184e+00,4.530e+00,4.367e+00,3.262e+00,3.598e+00,3.538e+00,3.162e+00,3.559e+00,3.024e+00,3.949e+00,2.972e+00,3.538e+00,2.638e+00,4.037e+00,2.930e+00,2.888e+00,3.083e+00,3.958e+00,3.580e+00,2.949e+00,4.079e+00,3.790e+00,3.689e+00,3.094e+00,3.331e+00,3.884e+00,4.264e+00,4.654e+00,3.017e+00,4.009e+00,2.503e+00,3.417e+00,3.161e+00,3.329e+00,1.897e+00,3.713e+00,3.563e+00,3.823e+00,3.547e+00,4.282e+00,3.664e+00,2.556e+00,2.582e+00,2.503e+00,2.800e+00,4.671e+00,4.271e+00,3.276e+00,3.381e+00,4.474e+00,4.009e+00,4.271e+00,3.588e+00,3.300e+00,3.044e+00,3.995e+00,3.832e+00,4.232e+00
1.344e-01,4.485e-01,5.454e-01,1.379e+00,1.348e+00,2.046e+00,1.620e+00,1.856e+00,2.135e+00,2.706e+00,3.755e+00,4.179e+00,3.158e+00,4.604e+00,3.530e+00,3.796e+00,5.815e+00,4.581e+00,3.139e+00,4.798e+00,4.338e+00,4.071e+00,4.378e+00,3.852e+00,4.195e+00,4.227e+00,3.372e+00,3.303e+00,4.398e+00,4.424e+00,3.022e+00,3.565e+00,3.781e+00,2.753e+00,3.679e+00,4.525e+00,4.769e+00,3.436e+00,3.229e+00,2.953e+00,5.193e+00,4.554e+00,4.875e+00,3.311e+00,4.704e+00,2.796e+00,5.040e+00,4.606e+00,3.865e+00,2.380e+00,4.304e+00,4.350e+00,3.845e+00,3.743e+00,5.677e+00,3.327e+00,3.383e+00,3.192e+00,2.940e+00,3.352e+00,5.111e+00,5.076e+00,3.836e+00,5.873e+00,4.173e+00,3.954e+00,4.779e+00,3.498e+00,4.006e+00,4.062e+00,5.121e+00,3.945e+00,4.567e+00
2.878e-02,1.678e-01,2.795e-01,8.451e-01,1.046e+00,1.209e+00,1.530e+00,1.445e+00,1.151e+00,2.082e+00,2.451e+00,3.415e+00,3.339e+00,3.955e+00,2.500e+00,3.576e+00,4.098e+00,4.334e+00,3.691e+00,3.827e+00,3.802e+00,3.818e+00,4.258e+00,1.957e+00,3.478e+00,3.568e+00,3.096e+00,2.807e+00,3.408e+00,3.462e+00,3.398e+00,3.400e+00,3.435e+00,2.756e+00,3.168e+00,3.475e+00,4.099e+00,4.142e+00,2.282e+00,2.531e+00,4.745e+00,4.251e+00,3.717e+00,3.078e+00,3.319e+00,2.036e+00,4.058e+00,3.056e+00,3.225e+00,2.068e+00,4.186e+00,3.611e+00,3.455e+00,3.352e+00,3.848e+00,3.681e+00,1.846e+00,2.144e+00,3.357e+00,3.607e+00,4.327e+00,4.211e+00,3.146e+00,4.578e+00,3.988e+00,3.440e+00,3.310e+00,3.853e+00,2.438e+00,2.884e+00,5.223e+00,4.314e+00,4.169e+00
1.140e-01,3.755e-01,4.018e-01,8.883e-01,1.599e+00,1.841e+00,1.753e+00,1.885e+00,1.633e+00,2.170e+00,3.384e+00,3.748e+00,3.376e+00,3.956e+00,1.750e+00,3.765e+00,3.710e+00,4.751e+00,3.379e+00,3.325e+00,4.187e+00,3.417e+00,4.382e+00,3.104e+00,3.379e+00,3.182e+00,3.823e+00,3.363e+00,3.857e+00,3.236e+00,3.364e+00,4.038e+00,3.826e+00,3.408e+00,3.241e+00,4.143e+00,4.138e+00,4.010e+00,3.875e+00,3.252e+00,5.084e+00,4.772e+00,4.909e+00,3.258e+00,3.270e+00,2.404e+00,4.342e+00,3.256e+00,3.223e+00,2.807e+00,4.380e+00,3.901e+00,4.173e+00,3.695e+00,4.164e+00,3.915e+00,3.212e+00,3.081e+00,3.354e+00,4.383e+00,4.359e+00,4.505e+00,3.924e+00,4.894e+00,4.387e+00,3.237e+00,4.262e+00,4.016e+00,3.078e+00,3.344e+00,5.414e+00,4.212e+00,4.579e+00
1.497e-01,4.995e-01,4.078e-01,1.625e+00,1.521e+00,1.846e+00,1.719e+00,2.180e+00,2.615e+00,3.117e+00,3.901e+00,4.141e+00,3.016e+00,4.894e+00,2.947e+00,4.143e+00,5.615e+00,6.032e+00,4.378e+00,5.087e+00,4.790e+00,4.886e+00,5.799e+00,4.176e+00,4.095e+00,5.105e+00,4.057e+00,4.125e+00,5.118e+00,5.152e+00,4.139e+00,5.782e+00,4.734e+00,4.544e+00,4.848e+00,5.769e+00,5.653e+00,5.542e+00,4.501e+00,3.141e+00,5.941e+00,5.880e+00,5.023e+00,4.693e+00,5.379e+00,3.773e+00,6.250e+00,4.398e+00,4.483e+00,4.009e+00,4.637e+00,5.473e+00,4.683e+00,4.456e+00,5.924e+00,5.120e+00,4.589e+00,3.584e+00,3.642e+00,4.754e+00,6.178e+00,6.001e+00,4.692e+00,7.112e+00,6.050e+00,5.124e+00,5.722e+00,4.366e+00,4.145e+00,4.591e+00,6.729e+00,4.792e+00,5.869e+00
7.877e-02,3.160e-01,3.124e-01,8.628e-01,1.524e+00,1.240e+00,1.925e+00,2.406e+00,2.084e+00,3.100e+00,3.078e+00,3.342e+00,3.386e+00,4.984e+00,3.343e+00,4.569e+00,5.436e+00,5.517e+00,4.736e+00,5.522e+00,5.315e+00,4.570e+00,5.211e+00,3.717e+00,4.634e+00,5.116e+00,5.315e+00,3.861e+00,4.905e+00,4.241e+00,4.549e+00,4.365e+00,4.812e+00,4.589e+00,4.431e+00,5.326e+00,5.710e+00,5.084e+00,5.262e+00,4.280e+00,5.988e+00,5.766e+00,6.464e+00,3.856e+00,5.338e+00,3.665e+00,5.296e+00,5.020e+00,5.301e+00,3.750e+00,4.601e+00,5.064e+00,5.322e+00,4.605e+00,6.257e+00,4.817e+00,4.428e+00,4.592e+00,3.797e+00,4.823e+00,5.805e+00,5.848e+00,5.512e+00,6.239e+00,5.373e+00,5.243e+00,5.398e+00,4.890e+00,5.018e+00,5.141e+00,5.355e+00,4.902e+00,6.520e+00
5.333e-02,2.905e-01,4.113e-01,1.307e+00,8.977e-01,1.243e+00,1.401e+00,1.423e+00,1.773e+00,2.342e+00,2.712e+00,3.072e+00,2.378e+00,3.445e+00,2.377e+00,3.421e+00,3.829e+00,4.628e+00,3.211e+00,3.813e+00,4.432e+00,4.191e+00,4.903e+00,3.365e+00,4.161e+00,3.346e+00,4.269e+00,3.374e+00,4.005e+00,3.869e+00,3.577e+00,4.925e+00,4.810e+00,3.630e+00,4.542e+00,4.384e+00,4.104e+00,4.663e+00,3.557e+00,3.279e+00,5.458e+00,5.064e+00,3.923e+00,4.137e+00,4.459e+00,3.825e+00,5.025e+00,3.660e+00,3.135e+00,2.999e+00,4.164e+00,4.880e+00,3.847e+00,4.450e+00,4.741e+00,4.461e+00,3.851e+00,2.647e+00,3.621e+00,4.704e+00,5.395e+00,5.622e+00,4.560e+00,4.719e+00,4.198e+00,4.720e+00,3.807e+00,3.736e+00,3.049e+00,4.666e+00,5.523e+00,4.703e+00,4.530e+00
1.388e-01,6.113e-01,6.900e-01,1.886e+00,1.616e+00,2.051e+00,2.025e+00,1.871e+00,2.206e+00,3.023e+00,3.643e+00,3.584e+00,3.499e+00,5.100e+00,3.008e+00,3.784e+00,4.830e+00,4.537e+00,3.276e+00,4.836e+00,4.932e+00,5.457e+00,5.272e+00,4.484e+00,4.836e+00,4.239e+00,5.307e+00,4.623e+00,4.967e+00,4.410e+00,4.833e+00,4.845e+00,5.293e+00,4.188e+00,5.715e+00,5.056e+00,5.528e+00,5.574e+00,5.184e+00,4.029e+00,5.913e+00,5.913e+00,5.386e+00,4.577e+00,5.571e+00,3.423e+00,4.611e+00,4.323e+00,4.545e+00,4.171e+00,4.611e+00,5.384e+00,4.841e+00,4.384e+00,6.665e+00,4.442e+00,4.811e+00,3.597e+00,4.960e+00,5.240e+00,6.238e+00,7.385e+00,5.475e+00,5.905e+00,4.838e+00,5.387e+00,5.303e+00,4.126e+00,5.044e+00,5.447e+00,6.130e+00,4.481e+00,5.303e+00
1.202e-02,1.810e-01,3.756e-01,1.015e+00,7.430e-01,1.224e+00,1.524e+00,1.549e+00,1.831e+00,2.776e+00,3.880e+00,4.439e+00,3.257e+00,3.911e+00,2.627e+00,4.701e+00,4.533e+00,4.650e+00,4.689e+00,4.663e+00,5.920e+00,5.744e+00,5.725e+00,4.872e+00,5.747e+00,4.312e+00,6.265e+00,4.665e+00,5.353e+00,4.600e+00,5.189e+00,5.714e+00,6.237e+00,5.397e+00,5.754e+00,5.378e+00,4.809e+00,6.251e+00,5.039e+00,4.610e+00,5.136e+00,5.797e+00,5.737e+00,4.225e+00,5.477e+00,3.716e+00,5.248e+00,4.580e+00,4.399e+00,3.725e+00,5.024e+00,6.347e+00,6.473e+00,5.774e+00,6.450e+00,5.709e+00,4.105e+00,3.573e+00,5.818e+00,6.116e+00,6.852e+00,7.181e+00,6.431e+00,6.342e+00,5.556e+00,5.605e+00,5.711e+00,4.950e+00,5.721e+00,5.652e+00,6.290e+00,5.257e+00,6.528e+00
3.032e-02,1.167e-01,3.207e-01,9.741e-01,1.128e+00,1.575e+00,1.851e+00,2.805e+00,1.949e+00,3.025e+00,3.496e+00,4.133e+00,3.896e+00,5.580e+00,3.714e+00,4.869e+00,6.116e+00,6.232e+00,5.051e+00,5.340e+00,6.339e+00,6.524e+00,7.688e+00,5.245e+00,6.672e+00,5.262e+00,6.443e+00,6.294e+00,6.195e+00,5.953e+00,5.257e+00,6.213e+00,7.877e+00,4.618e+00,5.814e+00,5.706e+00,7.030e+00,6.416e+00,6.010e+00,5.257e+00,7.856e+00,7.970e+00,6.692e+00,5.845e+00,6.225e+00,4.497e+00,7.307e+00,5.338e+00,6.859e+00,4.270e+00,7.411e+00,7.409e+00,6.506e+00,6.702e+00,7.789e+00,5.955e+00,5.029e+00,4.451e+00,5.883e+00,7.269e+00,8.300e+00,8.205e+00,6.921e+00,9.058e+00,6.370e+00,5.738e+00,6.740e+00,6.476e+00,5.874e+00,6.879e+00,7.484e+00,6.356e+00,7.884e+00
8.094e-02,3.477e-01,4.148e-01,1.159e+00,1.064e+00,1.161e+00,1.457e+00,2.132e+00,2.034e+00,2.480e+00,3.338e+00,3.575e+00,2.899e+00,4.187e+00,3.042e+00,4.674e+00,5.309e+00,5.398e+00,4.779e+00,5.428e+00,5.750e+00,6.425e+00,7.100e+00,5.191e+00,6.595e+00,6.679e+00,6.860e+00,6.247e+00,5.770e+00,5.703e+00,5.412e+00,5.906e+00,7.661e+00,5.819e+00,5.805e+00,6.372e+00,7.109e+00,6.811e+00,6.644e+00,4.623e+00,7.794e+00,7.546e+00,6.735e+00,6.323e+00,6.603e+00,4.718e+00,7.395e+00,5.826e+00,7.281e+00,4.870e+00,6.907e+00,7.592e+00,6.392e+00,6.836e+00,8.056e+00,6.372e+00,5.720e+00,5.292e+00,6.718e+00,8.660e+00,7.780e+00,8.874e+00,7.840e+00,9.059e+00,6.536e+00,6.538e+00,6.753e+00,6.190e+00,6.175e+00,7.675e+00,7.219e+00,7.005e+00,8.423e+00
2.668e-02,1.393e-01,3.543e-01,1.230e+00,1.324e+00,1.342e+00,1.869e+00,2.293e+00,1.905e+00,2.486e+00,2.496e+00,3.419e+00,2.507e+00,3.480e+00,3.020e+00,3.878e+00,4.035e+00,4.955e+00,4.590e+00,4.133e+00,4.445e+00,4.356e+00,6.288e+00,4.117e+00,5.889e+00,5.226e+00,5.906e+00,4.318e+00,5.397e+00,4.987e+00,4.773e+00,5.882e+00,7.787e+00,5.033e+00,4.471e+00,5.988e+00,5.219e+00,6.613e+00,5.851e+00,4.160e+00,6.724e+00,7.430e+00,5.445e+00,6.004e+00,5.766e+00,4.880e+00,6.436e+00,5.465e+00,5.604e+00,4.042e+00,6.203e+00,6.454e+00,6.098e+00,5.342e+00,6.417e+00,5.990e+00,5.576e+00,4.237e+00,5.655e+00,7.044e+00,6.390e+00,8.076e+00,7.305e+00,7.632e+00,5.386e+00,5.704e+00,5.453e+00,5.470e+00,4.336e+00,6.373e+00,7.097e+00,5.864e+00,7.410e+00
1.078e-01,3.737e-01,3.136e-01,1.460e+00,1.675e+00,1.500e+00,2.062e+00,2.517e+00,2.607e+00,3.064e+00,2.222e+00,3.384e+00,2.097e+00,4.139e+00,2.711e+00,3.723e+00,4.063e+00,4.450e+00,3.385e+00,4.136e+00,4.567e+00,5.107e+00,6.741e+00,4.891e+00,5.377e+00,5.022e+00,6.780e+00,5.339e+00,4.935e+00,5.321e+00,5.728e+00,5.934e+00,7.253e+00,4.763e+00,4.926e+00,5.175e+00,6.502e+00,6.442e+00,6.649e+00,4.289e+00,7.360e+00,7.863e+00,5.017e+00,5.908e+00,6.236e+00,4.506e+00,6.012e+00,5.638e+00,6.459e+00,4.576e+00,6.363e+00,6.670e+00,6.694e+00,5.973e+00,6.151e+00,6.051e+00,5.380e+00,4.148e+00,6.016e+00,7.417e+00,7.288e+00,8.344e+00,6.858e+00,7.479e+00,6.033e+00,6.880e+00,6.048e+00,5.679e+00,5.141e+00,5.217e+00,6.863e+00,6.666e+00,6.991e+00
3.579e-02,2.804e-01,3.311e-01,1.149e+00,1.334e+00,8.316e-01,1.441e+00,1.882e+00,1.307e+00,2.771e+00,2.509e+00,3.254e+00,3.152e+00,4.145e+00,3.052e+00,3.952e+00,4.376e+00,5.530e+00,3.816e+00,4.452e+00,4.927e+00,5.837e+00,6.921e+00,4.173e+00,5.585e+00,5.070e+00,6.810e+00,5.342e+00,5.953e+00,5.455e+00,5.826e+00,5.332e+00,6.262e+00,5.349e+00,6.168e+00,6.777e+00,5.744e+00,7.106e+00,5.993e+00,4.394e+00,7.403e+00,7.555e+00,5.652e+00,5.357e+00,6.755e+00,4.538e+00,7.291e+00,5.488e+00,6.392e+00,4.739e+00,5.289e+00,6.049e+00,6.358e+00,6.391e+00,6.545e+00,6.178e+00,5.899e+00,4.720e+00,4.707e+00,6.591e+00,6.916e+00,7.135e+00,7.434e+00,6.778e+00,6.082e+00,7.107e+00,6.722e+00,5.663e+00,5.064e+00,7.123e+00,6.303e+00,5.844e+00,6.756e+00
1.069e-01,3.604e-01,3.759e-01,9.571e-01,1.714e+00,1.590e+00,2.192e+00,2.982e+00,2.809e+00,3.507e+00,3.804e+00,4.098e+00,2.800e+00,4.555e+00,3.187e+00,5.081e+00,5.087e+00,5.467e+00,4.214e+00,5.331e+00,5.273e+00,5.316e+00,6.635e+00,5.111e+00,6.452e+00,5.976e+00,6.597e+00,6.252e+00,6.824e+00,6.926e+00,6.763e+00,7.077e+00,7.610e+00,6.464e+00,6.438e+00,7.462e+00,7.197e+00,7.806e+00,7.517e+00,5.700e+00,8.588e+00,8.516e+00,7.050e+00,6.192e+00,8.356e+00,4.776e+00,8.545e+00,6.688e+00,7.849e+00,6.258e+00,6.850e+00,7.667e+00,7.207e+00,7.187e+00,8.188e+00,7.190e+00,6.216e+00,5.958e+00,6.155e+00,7.594e+00,8.001e+00,8.866e+00,7.680e+00,8.360e+00,7.502e+00,8.072e+00,7.732e+00,6.711e+00,6.494e+00,7.221e+00,7.741e+00,6.930e+00,8.465e+00
1.416e-01,5.588e-01,5.227e-01,2.166e+00,2.155e+00,2.385e+00,2.802e+00,3.164e+00,2.929e+00,3.722e+00,3.867e+00,4.330e+00,3.466e+00,6.205e+00,4.028e+00,4.899e+00,6.336e+00,6.395e+00,4.539e+00,5.922e+00,5.206e+00,5.694e+00,6.672e+00,5.474e+00,6.720e+00,6.036e+00,7.504e+00,6.527e+00,7.849e+00,7.009e+00,6.155e+00,7.574e+00,8.068e+00,5.816e+00,6.697e+00,7.728e+00,7.963e+00,8.107e+00,8.287e+00,5.275e+00,8.780e+00,1.091e+01,7.525e+00,7.275e+00,8.213e+00,4.859e+00,8.104e+00,6.467e+00,7.370e+00,5.710e+00,7.830e+00,7.982e+00,7.752e+00,7.530e+00,8.720e+00,6.477e+00,6.675e+00,5.730e+00,6.390e+00,8.265e+00,7.738e+00,1.026e+01,8.326e+00,1.043e+01,8.359e+00,7.890e+00,7.966e+00,7.459e+00,6.782e+00,7.717e+00,8.443e+00,7.998e+00,9.290e+00
9.670e-03,1.685e-01,3.664e-01,1.659e+00,9.359e-01,1.505e+00,1.488e+00,1.768e+00,1.922e+00,3.017e+00,2.825e+00,3.796e+00,2.613e+00,4.188e+00,2.982e+00,3.893e+00,4.733e+00,5.207e+00,4.232e+00,3.883e+00,4.713e+00,4.148e+00,4.324e+00,4.199e+00,4.957e+00,4.870e+00,6.206e+00,5.015e+00,7.509e+00,7.059e+00,5.681e+00,7.824e+00,6.941e+00,6.295e+00,6.687e+00,8.874e+00,6.997e+00,7.758e+00,7.626e+00,5.997e+00,7.485e+00,8.954e+00,6.813e+00,7.565e+00,7.434e+00,4.954e+00,8.391e+00,6.654e+00,6.066e+00,5.043e+00,7.125e+00,8.046e+00,6.479e+00,6.492e+00,6.923e+00,6.134e+00,6.569e+00,4.455e+00,6.247e+00,6.741e+00,7.730e+00,9.280e+00,7.713e+00,8.814e+00,7.715e+00,7.440e+00,6.359e+00,6.224e+00,6.239e+00,7.733e+00,7.757e+00,6.619e+00,8.798e+00
2.723e-02,1.424e-01,3.736e-01,1.002e+00,1.407e+00,1.596e+00,2.125e+00,2.490e+00,2.077e+00,2.963e+00,2.828e+00,3.615e+00,2.727e+00,3.925e+00,2.789e+00,4.117e+00,3.767e+00,4.413e+00,3.652e+00,3.903e+00,4.208e+00,4.244e+00,5.593e+00,4.329e+00,6.378e+00,4.863e+00,5.922e+00,5.103e+00,6.377e+00,5.559e+00,5.314e+00,7.449e+00,9.007e+00,6.164e+00,6.655e+00,8.091e+00,7.722e+00,6.825e+00,7.584e+00,5.534e+00,8.082e+00,9.066e+00,7.500e+00,7.786e+00,7.471e+00,5.606e+00,7.777e+00,6.077e+00,7.235e+00,5.208e+00,7.883e+00,7.131e+00,6.395e+00,7.008e+00,6.518e+00,7.324e+00,6.861e+00,4.303e+00,6.318e+00,8.050e+00,7.995e+00,9.650e+00,8.686e+00,8.290e+00,7.235e+00,7.445e+00,7.190e+00,6.645e+00,5.576e+00,7.185e+00,8.102e+00,7.004e+00,8.744e+00
1.188e-01,3.959e-01,4.995e-01,1.491e+00,1.616e+00,2.195e+00,1.841e+00,2.326e+00,2.454e+00,3.195e+00,3.660e+00,4.382e+00,3.356e+00,5.099e+00,3.064e+00,4.340e+00,5.433e+00,6.119e+00,4.290e+00,4.663e+00,6.191e+00,5.719e+00,6.592e+00,6.030e+00,6.165e+00,5.841e+00,8.070e+00,6.989e+00,8.177e+00,7.608e+00,7.431e+00,9.430e+00,8.936e+00,6.856e+00,8.848e+00,1.005e+01,9.667e+00,9.535e+00,1.058e+01,7.882e+00,1.114e+01,1.190e+01,9.540e+00,8.228e+00,9.728e+00,7.093e+00,1.050e+01,8.624e+00,8.746e+00,6.932e+00,9.974e+00,9.576e+00,9.559e+00,8.172e+00,9.102e+00,8.106e+00,9.202e+00,5.880e+00,7.805e+00,9.240e+00,1.074e+01,1.096e+01,1.006e+01,1.190e+01,9.369e+00,9.521e+00,8.935e+00,8.173e+00,8.230e+00,9.507e+00,9.735e+00,9.102e+00,1.092e+01
1.124e-01,5.035e-01,6.976e-01,2.301e+00,1.963e+00,2.423e+00,2.395e+00,2.776e+00,3.050e+00,3.913e+00,4.134e+00,5.226e+00,4.136e+00,5.805e+00,3.678e+00,6.065e+00,6.657e+00,7.914e+00,5.810e+00,5.423e+00,6.573e+00,6.670e+00,7.831e+00,5.817e+00,7.078e+00,5.913e+00,7.425e+00,7.192e+00,8.130e+00,7.375e+00,6.488e+00,9.000e+00,1.012e+01,7.919e+00,9.629e+00,1.067e+01,1.052e+01,8.940e+00,9.323e+00,7.423e+00,1.082e+01,1.057e+01,9.970e+00,8.926e+00,1.001e+01,6.790e+00,1.017e+01,8.178e+00,9.680e+00,6.669e+00,9.803e+00,9.234e+00,7.750e+00,1.001e+01,9.678e+00,8.728e+00,8.122e+00,7.318e+00,8.158e+00,1.032e+01,1.113e+01,1.134e+01,1.068e+01,1.147e+01,9.717e+00,9.922e+00,8.809e+00,7.939e+00,8.663e+00,9.319e+00,1.085e+01,9.558e+00,1.098e+01
1.183e-01,5.518e-01,7.052e-01,2.244e+00,1.690e+00,1.684e+00,1.883e+00,2.006e+00,2.510e+00,3.150e+00,2.967e+00,3.642e+00,3.672e+00,5.142e+00,3.803e+00,4.548e+00,5.966e+00,5.910e+00,4.700e+00,5.017e+00,5.123e+00,5.697e+00,6.624e+00,4.546e+00,5.731e+00,5.686e+00,6.950e+00,6.037e+00,6.974e+00,6.443e+00,6.758e+00,7.482e+00,7.388e+00,6.242e+00,8.595e+00,8.270e+00,9.107e+00,8.742e+00,8.096e+00,7.299e+00,1.062e+01,1.024e+01,7.859e+00,7.957e+00,9.109e+00,6.424e+00,8.626e+00,8.018e+00,8.234e+00,6.609e+00,8.916e+00,8.609e+00,7.868e+00,7.418e+00,8.637e+00,6.521e+00,7.271e+00,5.926e+00,7.469e+00,8.866e+00,9.108e+00,9.691e+00,9.240e+00,9.947e+00,7.937e+00,9.610e+00,7.748e+00,7.273e+00,7.751e+00,8.351e+00,9.988e+00,8.903e+00,9.723e+00
2.164e-02,2.200e-01,4.430e-01,1.452e+00,1.577e+00,1.852e+00,2.209e+00,2.147e+00,1.512e+00,2.694e+00,2.858e+00,3.957e+00,4.063e+00,5.196e+00,3.295e+00,4.717e+00,5.209e+00,5.993e+00,4.830e+00,4.689e+00,5.560e+00,6.334e+00,6.891e+00,5.225e+00,7.212e+00,5.972e+00,7.492e+00,6.549e+00,6.915e+00,5.829e+00,6.141e+00,7.378e+00,9.050e+00,6.165e+00,8.928e+00,8.418e+00,9.378e+00,8.874e+00,8.660e+00,7.660e+00,9.700e+00,9.534e+00,8.888e+00,8.727e+00,9.470e+00,6.957e+00,7.792e+00,7.363e+00,8.437e+00,6.067e+00,9.972e+00,9.454e+00,8.757e+00,8.801e+00,9.345e+00,9.016e+00,7.391e+00,5.833e+00,9.144e+00,9.925e+00,1.075e+01,1.056e+01,9.884e+00,1.042e+01,9.154e+00,9.180e+00,8.334e+00,8.072e+00,7.411e+00,8.539e+00,9.301e+00,9.699e+00,9.799e+00
1.036e-01,4.378e-01,5.971e-01,1.637e+00,1.465e+00,1.633e+00,1.678e+00,1.808e+00,2.468e+00,3.284e+00,3.521e+00,3.992e+00,3.603e+00,4.763e+00,3.367e+00,4.543e+00,5.528e+00,5.508e+00,4.292e+00,4.700e+00,5.729e+00,5.740e+00,6.438e+00,5.151e+00,6.438e+00,6.167e+00,7.061e+00,6.256e+00,6.505e+00,6.818e+00,6.918e+00,8.678e+00,8.993e+00,6.629e+00,9.022e+00,1.005e+01,1.070e+01,9.691e+00,9.938e+00,8.562e+00,1.296e+01,1.130e+01,9.692e+00,9.357e+00,1.101e+01,8.050e+00,1.027e+01,9.262e+00,9.294e+00,7.777e+00,1.128e+01,9.938e+00,9.014e+00,9.143e+00,1.023e+01,9.015e+00,9.264e+00,6.610e+00,8.671e+00,1.094e+01,1.120e+01,1.120e+01,9.959e+00,1.153e+01,9.495e+00,1.112e+01,8.792e+00,7.916e+00,7.653e+00,9.760e+00,1.081e+01,1.076e+01,1.121e+01
6.827e-02,3.249e-01,4.287e-01,1.770e+00,1.833e+00,2.111e+00,2.255e+00,1.911e+00,2.071e+00,3.392e+00,3.392e+00,5.101e+00,3.969e+00,5.169e+00,3.829e+00,4.745e+00,6.062e+00,6.567e+00,5.655e+00,5.543e+00,6.383e+00,5.992e+00,6.908e+00,5.302e+00,6.744e+00,6.472e+00,8.476e+00,6.758e+00,7.622e+00,8.510e+00,7.163e+00,9.863e+00,9.365e+00,7.834e+00,9.560e+00,1.146e+01,1.131e+01,1.110e+01,1.047e+01,8.922e+00,1.236e+01,1.340e+01,1.081e+01,9.822e+00,1.213e+01,7.572e+00,1.158e+01,1.043e+01,1.027e+01,8.314e+00,1.171e+01,1.124e+01,1.085e+01,1.082e+01,1.110e+01,1.037e+01,9.439e+00,8.640e+00,9.830e+00,1.134e+01,1.099e+01,1.294e+01,1.168e+01,1.298e+01,1.141e+01,1.079e+01,1.034e+01,9.640e+00,8.457e+00,1.036e+01,1.248e+01,1.186e+01,1.192e+01
5.637e-02,2.325e-01,2.306e-01,7.307e-01,1.200e+00,9.318e-01,1.523e+00,1.900e+00,1.860e+00,2.860e+00,2.382e+00,2.841e+00,2.446e+00,3.822e+00,2.717e+00,3.611e+00,4.153e+00,5.099e+00,3.497e+00,4.341e+00,4.250e+00,4.829e+00,5.729e+00,3.874e+00,5.386e+00,5.383e+00,6.213e+00,5.399e+00,6.059e+00,6.038e+00,6.103e+00,7.579e+00,7.249e+00,6.367e+00,7.199e+00,9.274e+00,9.192e+00,7.881e+00,1.009e+01,7.184e+00,1.073e+01,9.941e+00,8.327e+00,8.089e+00,1.011e+01,7.223e+00,8.891e+00,9.188e+00,9.493e+00,7.536e+00,1.022e+01,8.494e+00,7.637e+00,8.981e+00,8.474e+00,8.329e+00,8.367e+00,6.705e+00,6.896e+00,9.241e+00,9.701e+00,1.005e+01,9.725e+00,1.106e+01,8.927e+00,1.044e+01,8.223e+00,8.455e+00,7.372e+00,8.587e+00,9.226e+00,8.841e+00,1.056e+01
1.147e-01,4.667e-01,4.655e-01,1.231e+00,1.031e+00,1.188e+00,9.491e-01,1.365e+00,1.711e+00,2.234e+00,3.180e+00,3.873e+00,2.564e+00,3.475e+00,2.562e+00,3.908e+00,4.665e+00,4.939e+00,3.631e+00,4.731e+00,5.195e+00,5.078e+00,5.598e+00,4.143e+00,4.757e+00,5.441e+00,6.127e+00,5.295e+00,6.351e+00,6.140e+00,5.443e+00,7.061e+00,5.828e+00,6.492e+00,7.930e+00,9.063e+00,8.365e+00,7.920e+00,9.452e+00,7.135e+00,1.045e+01,9.497e+00,8.023e+00,8.115e+00,9.760e+00,6.086e+00,9.532e+00,8.630e+00,8.907e+00,7.355e+00,9.174e+00,8.865e+00,8.258e+00,8.802e+00,9.742e+00,7.617e+00,8.593e+00,7.038e+00,7.237e+00,9.159e+00,9.268e+00,9.326e+00,9.816e+00,1.115e+01,8.397e+00,9.853e+00,8.735e+00,7.823e+00,7.181e+00,9.933e+00,9.203e+00,9.375e+00,9.547e+00
8.543e-02,3.440e-01,4.146e-01,1.585e+00,1.855e+00,2.197e+00,2.423e+00,2.654e+00,2.055e+00,3.005e+00,3.653e+00,5.121e+00,4.235e+00,5.874e+00,3.737e+00,5.021e+00,6.172e+00,6.766e+00,5.126e+00,5.577e+00,6.450e+00,6.186e+00,7.890e+00,5.846e+00,6.473e+00,7.164e+00,8.548e+00,7.514e+00,8.704e+00,7.716e+00,7.370e+00,8.719e+00,8.894e+00,7.503e+00,9.224e+00,1.048e+01,1.144e+01,1.081e+01,1.308e+01,1.044e+01,1.360e+01,1.421e+01,1.076e+01,1.154e+01,1.320e+01,8.271e+00,1.202e+01,1.162e+01,1.282e+01,1.078e+01,1.406e+01,1.342e+01,1.289e+01,1.226e+01,1.306e+01,1.101e+01,1.156e+01,8.661e+00,1.123e+01,1.291e+01,1.363e+01,1.500e+01,1.417e+01,1.546e+01,1.245e+01,1.267e+01,1.199e+01,1.131e+01,9.104e+00,1.256e+01,1.306e+01,1.381e+01,1.340e+01
2.460e-02,2.337e-01,4.351e-01,1.762e+00,1.357e+00,1.851e+00,1.899e+00,2.451e+00,1.937e+00,3.210e+00,3.269e+00,4.771e+00,3.735e+00,5.220e+00,2.966e+00,5.122e+00,5.272e+00,6.643e+00,4.844e+00,4.256e+00,5.881e+00,5.744e+00,6.542e+00,4.801e+00,5.792e+00,5.538e+00,7.282e+00,5.600e+00,7.328e+00,6.358e+00,5.937e+00,8.885e+00,8.591e+00,7.586e+00,9.504e+00,1.123e+01,1.088e+01,1.025e+01,1.118e+01,8.781e+00,1.268e+01,1.208e+01,1.123e+01,1.116e+01,1.265e+01,8.066e+00,1.057e+01,1.135e+01,1.137e+01,8.689e+00,1.337e+01,1.249e+01,1.053e+01,1.220e+01,1.215e+01,1.144e+01,1.124e+01,9.245e+00,9.588e+00,1.282e+01,1.363e+01,1.383e+01,1.247e+01,1.377e+01,1.238e+01,1.230e+01,1.133e+01,1.026e+01,9.365e+00,1.155e+01,1.291e+01,1.299e+01,1.223e+01
1.054e-01,3.671e-01,4.164e-01,1.255e+00,1.112e+00,1.835e+00,1.842e+00,1.987e+00,2.710e+00,3.037e+00,3.464e+00,3.685e+00,2.258e+00,4.243e+00,2.725e+00,3.898e+00,4.739e+00,4.757e+00,3.271e+00,4.544e+00,5.052e+00,4.535e+00,4.718e+00,4.781e+00,5.089e+00,4.366e+00,5.669e+00,4.447e+00,5.612e+00,5.651e+00,5.493e+00,7.534e+00,7.161e+00,5.359e+00,6.933e+00,8.082e+00,8.169e+00,6.771e+00,9.250e+00,7.650e+00,9.834e+00,1.092e+01,8.744e+00,7.340e+00,1.019e+01,6.687e+00,8.137e+00,9.353e+00,8.455e+00,7.365e+00,1.118e+01,1.012e+01,9.081e+00,9.117e+00,8.794e+00,8.045e+00,8.174e+00,6.541e+00,7.003e+00,9.287e+00,9.981e+00,1.096e+01,9.529e+00,1.123e+01,1.006e+01,9.152e+00,1.007e+01,8.406e+00,9.055e+00,8.072e+00,1.024e+01,9.680e+00,1.135e+01
1.271e-02,1.881e-01,2.626e-01,1.668e+00,1.519e+00,1.406e+00,2.054e+00,2.677e+00,2.219e+00,4.007e+00,3.106e+00,4.104e+00,3.663e+00,5.676e+00,3.372e+00,4.825e+00,5.394e+00,6.314e+00,5.009e+00,4.480e+00,5.824e+00,6.003e+00,6.850e+00,5.232e+00,6.415e+00,5.786e+00,8.524e+00,7.176e+00,7.637e+00,8.075e+00,7.342e+00,9.386e+00,9.461e+00,7.901e+00,9.768e+00,1.066e+01,1.114e+01,1.157e+01,1.172e+01,1.025e+01,1.315e+01,1.417e+01,1.062e+01,1.095e+01,1.331e+01,8.440e+00,1.249e+01,1.111e+01,1.307e+01,1.060e+01,1.352e+01,1.332e+01,1.201e+01,1.178e+01,1.196e+01,1.096e+01,1.199e+01,8.963e+00,1.088e+01,1.221e+01,1.389e+01,1.464e+01,1.294e+01,1.440e+01,1.346e+01,1.245e+01,1.321e+01,1.106e+01,9.991e+00,1.278e+01,1.225e+01,1.278e+01,1.390e+01
1.461e-02,5.211e-02,1.594e-01,9.235e-01,1.218e+00,1.712e+00,1.876e+00,2.590e+00,1.362e+00,2.699e+00,2.665e+00,4.127e+00,3.251e+00,5.044e+00,3.150e+00,3.802e+00,4.874e+00,6.860e+00,4.258e+00,4.814e+00,5.974e+00,6.276e+00,8.124e+00,4.914e+00,5.534e+00,5.763e+00,6.846e+00,6.433e+00,7.162e+00,7.027e+00,6.084e+00,8.899e+00,8.183e+00,6.728e+00,7.876e+00,1.023e+01,1.022e+01,9.119e+00,1.058e+01,7.742e+00,1.191e+01,1.195e+01,9.325e+00,1.019e+01,1.115e+01,8.683e+00,1.257e+01,1.048e+01,1.189e+01,8.733e+00,1.281e+01,1.201e+01,1.016e+01,1.110e+01,1.109e+01,1.042e+01,1.077e+01,8.278e+00,1.036e+01,1.120e+01,1.293e+01,1.332e+01,1.218e+01,1.396e+01,1.162e+01,1.174e+01,1.053e+01,1.096e+01,8.204e+00,1.143e+01,1.192e+01,1.137e+01,1.106e+01
3.316e-03,1.606e-01,2.493e-01,1.048e+00,7.665e-01,8.896e-01,1.474e+00,2.104e+00,1.999e+00,3.592e+00,3.281e+00,3.647e+00,2.888e+00,4.837e+00,3.583e+00,4.621e+00,5.555e+00,6.163e+00,4.435e+00,5.541e+00,6.312e+00,7.204e+00,7.114e+00,5.732e+00,7.522e+00,7.165e+00,9.066e+00,7.087e+00,7.439e+00,7.810e+00,7.729e+00,9.540e+00,9.571e+00,8.062e+00,9.760e+00,1.202e+01,1.158e+01,1.070e+01,1.269e+01,1.029e+01,1.380e+01,1.390e+01,1.106e+01,1.121e+01,1.426e+01,1.094e+01,1.337e+01,1.343e+01,1.413e+01,1.093e+01,1.432e+01,1.345e+01,1.293e+01,1.342e+01,1.394e+01,1.251e+01,1.273e+01,1.063e+01,1.223e+01,1.408e+01,1.474e+01,1.517e+01,1.419e+01,1.612e+01,1.441e+01,1.474e+01,1.305e+01,1.194e+01,1.181e+01,1.408e+01,1.313e+01,1.378e+01,1.494e+01
1.808e-02,1.426e-01,1.652e-01,7.536e-01,4.665e-01,8.443e-01,8.896e-01,9.671e-01,1.274e+00,1.977e+00,2.545e+00,2.648e+00,2.191e+00,3.217e+00,2.095e+00,3.359e+00,4.273e+00,5.605e+00,4.020e+00,4.197e+00,5.580e+00,6.489e+00,6.504e+00,5.415e+00,6.318e+00,5.909e+00,7.804e+00,7.388e+00,6.369e+00,7.040e+00,6.650e+00,9.209e+00,8.699e+00,7.431e+00,9.865e+00,1.001e+01,9.929e+00,9.614e+00,1.075e+01,9.885e+00,1.173e+01,1.267e+01,9.877e+00,9.463e+00,1.313e+01,1.050e+01,1.273e+01,1.118e+01,1.238e+01,1.079e+01,1.371e+01,1.329e+01,1.176e+01,1.305e+01,1.187e+01,1.275e+01,1.054e+01,9.346e+00,1.177e+01,1.299e+01,1.363e+01,1.358e+01,1.297e+01,1.406e+01,1.372e+01,1.288e+01,1.274e+01,1.143e+01,1.207e+01,1.285e+01,1.280e+01,1.262e+01,1.361e+01
4.531e-02,2.278e-01,3.233e-01,1.106e+00,1.344e+00,1.786e+00,2.225e+00,2.731e+00,1.822e+00,3.135e+00,3.434e+00,4.531e+00,3.476e+00,5.383e+00,3.524e+00,4.500e+00,5.254e+00,6.154e+00,3.874e+00,5.489e+00,5.843e+00,6.034e+00,7.189e+00,4.526e+00,5.713e+00,5.311e+00,7.159e+00,5.220e+00,6.671e+00,6.114e+00,6.069e+00,6.805e+00,6.978e+00,5.435e+00,7.940e+00,9.033e+00,9.891e+00,8.886e+00,1.030e+01,8.466e+00,1.157e+01,1.238e+01,9.433e+00,9.816e+00,1.208e+01,8.468e+00,1.193e+01,1.308e+01,1.269e+01,1.132e+01,1.373e+01,1.366e+01,1.242e+01,1.218e+01,1.299e+01,1.137e+01,1.272e+01,1.015e+01,1.079e+01,1.305e+01,1.408e+01,1.437e+01,1.289e+01,1.466e+01,1.322e+01,1.355e+01,1.299e+01,1.250e+01,1.016e+01,1.260e+01,1.251e+01,1.369e+01,1.288e+01
4.098e-02,2.803e-01,4.013e-01,1.424e+00,1.235e+00,1.622e+00,1.754e+00,1.329e+00,1.559e+00,2.442e+00,3.105e+00,4.157e+00,3.296e+00,3.966e+00,2.698e+00,4.249e+00,4.708e+00,5.489e+00,4.375e+00,4.254e+00,5.803e+00,5.456e+00,5.981e+00,4.966e+00,6.024e+00,5.481e+00,7.896e+00,5.750e+00,6.309e+00,6.133e+00,5.980e+00,7.660e+00,8.166e+00,6.269e+00,8.518e+00,9.141e+00,9.431e+00,8.980e+00,1.061e+01,9.180e+00,1.153e+01,1.179e+01,1.010e+01,1.022e+01,1.250e+01,9.896e+00,1.178e+01,1.302e+01,1.246e+01,1.123e+01,1.523e+01,1.344e+01,1.372e+01,1.354e+01,1.244e+01,1.318e+01,1.163e+01,1.035e+01,1.343e+01,1.477e+01,1.488e+01,1.593e+01,1.430e+01,1.495e+01,1.400e+01,1.388e+01,1.366e+01,1.223e+01,1.135e+01,1.321e+01,1.302e+01,1.437e+01,1.455e+01
1.157e-01,4.986e-01,6.482e-01,2.034e+00,1.957e+00,1.893e+00,1.775e+00,1.705e+00,1.994e+00,2.570e+00,3.049e+00,4.522e+00,3.681e+00,4.047e+00,2.847e+00,4.379e+00,4.700e+00,5.962e+00,5.248e+00,4.159e+00,5.296e+00,4.249e+00,6.098e+00,4.020e+00,4.572e+00,5.045e+00,6.765e+00,4.896e+00,7.298e+00,6.514e+00,6.394e+00,7.540e+00,6.876e+00,6.644e+00,7.963e+00,9.014e+00,7.974e+00,9.671e+00,9.883e+00,9.196e+00,1.155e+01,1.181e+01,8.720e+00,9.654e+00,1.072e+01,7.857e+00,1.058e+01,1.094e+01,1.080e+01,1.009e+01,1.287e+01,1.124e+01,1.280e+01,1.059e+01,1.003e+01,1.000e+01,1.030e+01,8.626e+00,1.061e+01,1.160e+01,1.232e+01,1.290e+01,1.275e+01,1.347e+01,1.173e+01,1.188e+01,1.165e+01,1.014e+01,9.834e+00,1.127e+01,1.252e+01,1.164e+01,1.406e+01
1.247e-01,5.549e-01,5.492e-01,2.300e+00,1.829e+00,2.198e+00,2.117e+00,1.790e+00,2.015e+00,2.864e+00,3.393e+00,3.938e+00,3.710e+00,5.251e+00,3.197e+00,3.794e+00,5.608e+00,5.651e+00,4.678e+00,4.798e+00,5.654e+00,5.675e+00,6.241e+00,5.455e+00,5.456e+00,6.572e+00,8.120e+00,6.227e+00,6.969e+00,7.467e+00,6.560e+00,8.401e+00,8.128e+00,6.584e+00,9.606e+00,1.052e+01,1.056e+01,1.042e+01,1.090e+01,8.434e+00,1.223e+01,1.184e+01,1.004e+01,1.062e+01,1.230e+01,8.538e+00,1.060e+01,1.223e+01,1.196e+01,1.084e+01,1.404e+01,1.296e+01,1.266e+01,1.209e+01,1.349e+01,1.154e+01,1.333e+01,1.022e+01,1.301e+01,1.411e+01,1.453e+01,1.591e+01,1.443e+01,1.561e+01,1.314e+01,1.368e+01,1.269e+01,1.131e+01,1.053e+01,1.327e+01,1.288e+01,1.225e+01,1.514e+01
1.643e-02,1.527e-01,2.353e-01,1.299e+00,1.185e+00,1.318e+00,1.854e+00,2.210e+00,1.797e+00,2.793e+00,2.046e+00,3.404e+00,2.632e+00,4.515e+00,3.074e+00,4.003e+00,4.636e+00,6.132e+00,4.695e+00,4.864e+00,5.263e+00,6.007e+00,6.854e+00,4.560e+00,5.553e+00,5.618e+00,6.650e+00,5.258e+00,6.155e+00,5.430e+00,5.879e+00,7.547e+00,7.799e+00,6.661e+00,8.222e+00,9.429e+00,9.792e+00,9.259e+00,1.139e+01,9.120e+00,1.180e+01,1.126e+01,9.429e+00,9.698e+00,1.199e+01,1.000e+01,1.086e+01,1.282e+01,1.255e+01,1.060e+01,1.591e+01,1.343e+01,1.264e+01,1.302e+01,1.308e+01,1.312e+01,1.368e+01,1.064e+01,1.308e+01,1.297e+01,1.724e+01,1.567e+01,1.469e+01,1.622e+01,1.436e+01,1.579e+01,1.219e+01,1.330e+01,1.177e+01,1.366e+01,1.321e+01,1.318e+01,1.581e+01
4.705e-02,2.453e-01,3.491e-01,8.499e-01,9.196e-01,1.327e+00,1.596e+00,2.299e+00,1.925e+00,2.743e+00,3.058e+00,3.301e+00,2.274e+00,4.132e+00,2.550e+00,4.157e+00,4.075e+00,5.174e+00,2.797e+00,4.456e+00,4.588e+00,5.914e+00,5.983e+00,4.769e+00,6.042e+00,4.785e+00,5.615e+00,5.253e+00,6.442e+00,5.439e+00,5.914e+00,7.530e+00,7.496e+00,6.287e+00,7.514e+00,9.056e+00,8.434e+00,8.204e+00,9.344e+00,6.735e+00,9.425e+00,1.099e+01,9.447e+00,8.646e+00,1.139e+01,8.430e+00,1.109e+01,1.041e+01,1.180e+01,1.027e+01,1.474e+01,1.323e+01,1.316e+01,1.211e+01,1.270e+01,1.238e+01,1.194e+01,1.087e+01,1.190e+01,1.307e+01,1.589e+01,1.556e+01,1.283e+01,1.459e+01,1.309e+01,1.390e+01,1.373e+01,1.319e+01,1.175e+01,1.284e+01,1.222e+01,1.197e+01,1.456e+01
7.281e-02,2.671e-01,3.386e-01,6.765e-01,1.131e+00,1.311e+00,1.516e+00,1.939e+00,1.595e+00,2.601e+00,3.188e+00,3.326e+00,3.309e+00,4.530e+00,3.144e+00,3.921e+00,5.155e+00,5.957e+00,4.385e+00,5.601e+00,6.066e+00,6.859e+00,7.579e+00,5.221e+00,6.510e+00,6.871e+00,7.539e+00,6.737e+00,6.390e+00,6.324e+00,6.525e+00,7.525e+00,8.265e+00,6.198e+00,7.905e+00,9.479e+00,1.070e+01,8.533e+00,1.128e+01,9.039e+00,1.208e+01,1.191e+01,1.051e+01,9.236e+00,1.231e+01,1.015e+01,1.233e+01,1.292e+01,1.388e+01,1.095e+01,1.530e+01,1.377e+01,1.287e+01,1.294e+01,1.304e+01,1.339e+01,1.385e+01,1.022e+01,1.383e+01,1.423e+01,1.580e+01,1.577e+01,1.543e+01,1.790e+01,1.394e+01,1.333e+01,1.432e+01,1.287e+01,1.232e+01,1.418e+01,1.355e+01,1.404e+01,1.581e+01
5.326e-02,2.014e-01,2.466e-01,1.128e+00,1.149e+00,1.141e+00,1.755e+00,2.846e+00,2.732e+00,3.576e+00,2.916e+00,3.326e+00,2.464e+00,4.703e+00,3.121e+00,4.548e+00,5.181e+00,5.537e+00,3.778e+00,4.276e+00,4.716e+00,5.057e+00,6.326e+00,4.684e+00,5.567e+00,4.765e+00,6.050e+00,5.834e+00,5.708e+00,6.034e+00,5.468e+00,7.428e+00,7.673e+00,6.309e+00,7.422e+00,8.399e+00,9.433e+00,7.214e+00,8.193e+00,8.175e+00,1.065e+01,1.057e+01,8.015e+00,8.881e+00,1.115e+01,8.969e+00,1.073e+01,1.114e+01,1.329e+01,9.855e+00,1.397e+01,1.243e+01,1.227e+01,1.365e+01,1.304e+01,1.258e+01,1.272e+01,1.236e+01,1.263e+01,1.363e+01,1.523e+01,1.456e+01,1.411e+01,1.507e+01,1.421e+01,1.472e+01,1.386e+01,1.316e+01,1.218e+01,1.309e+01,1.237e+01,1.280e+01,1.421e+01
1.057e-02,1.295e-01,3.734e-01,7.426e-01,8.304e-01,7.724e-01,1.329e+00,2.085e+00,1.573e+00,2.674e+00,3.256e+00,3.803e+00,3.338e+00,4.014e+00,3.067e+00,4.179e+00,4.171e+00,5.052e+00,3.852e+00,4.391e+00,5.721e+00,5.960e+00,7.796e+00,4.956e+00,6.544e+00,5.780e+00,7.803e+00,6.183e+00,6.695e+00,6.417e+00,7.095e+00,8.270e+00,9.059e+00,6.957e+00,8.603e+00,1.022e+01,1.032e+01,1.018e+01,1.087e+01,9.230e+00,1.295e+01,1.234e+01,9.054e+00,1.103e+01,1.219e+01,1.072e+01,1.287e+01,1.266e+01,1.384e+01,1.148e+01,1.536e+01,1.423e+01,1.424e+01,1.353e+01,1.458e+01,1.363e+01,1.615e+01,1.225e+01,1.466e+01,1.650e+01,1.596e+01,1.586e+01,1.680e+01,1.696e+01,1.373e+01,1.640e+01,1.369e+01,1.427e+01,1.075e+01,1.659e+01,1.432e+01,1.524e+01,1.632e+01
9.052e-02,4.131e-01,5.107e-01,1.732e+00,1.214e+00,1.495e+00,1.373e+00,1.681e+00,2.026e+00,2.709e+00,2.719e+00,3.449e+00,2.559e+00,3.931e+00,2.815e+00,3.698e+00,4.662e+00,5.242e+00,4.104e+00,4.369e+00,4.870e+00,4.729e+00,5.220e+00,3.950e+00,4.769e+00,5.089e+00,6.047e+00,4.321e+00,5.840e+00,6.128e+00,5.237e+00,7.780e+00,7.122e+00,6.400e+00,8.112e+00,1.011e+01,9.253e+00,9.104e+00,1.084e+01,9.085e+00,1.200e+01,1.203e+01,9.651e+00,1.023e+01,1.242e+01,9.573e+00,1.112e+01,1.234e+01,1.218e+01,1.090e+01,1.510e+01,1.324e+01,1.299e+01,1.280e+01,1.423e+01,1.414e+01,1.567e+01,1.263e+01,1.406e+01,1.401e+01,1.694e+01,1.675e+01,1.619e+01,1.742e+01,1.422e+01,1.517e+01,1.452e+01,1.323e+01,1.300e+01,1.684e+01,1.370e+01,1.425e+01,1.580e+01
4.940e-02,3.228e-01,4.979e-01,1.472e+00,1.132e+00,1.120e+00,1.556e+00,2.330e+00,1.977e+00,3.133e+00,2.905e+00,2.910e+00,2.806e+00,4.406e+00,3.071e+00,3.909e+00,4.323e+00,4.344e+00,3.361e+00,4.244e+00,4.549e+00,4.901e+00,5.422e+00,4.006e+00,5.810e+00,5.051e+00,6.560e+00,5.295e+00,5.907e+00,6.699e+00,5.660e+00,7.583e+00,7.524e+00,6.155e+00,7.814e+00,8.961e+00,8.792e+00,8.982e+00,8.683e+00,7.541e+00,1.127e+01,1.035e+01,7.924e+00,1.015e+01,1.028e+01,9.258e+00,1.160e+01,1.042e+01,1.218e+01,9.770e+00,1.315e+01,1.176e+01,1.079e+01,1.107e+01,1.305e+01,1.130e+01,1.456e+01,1.140e+01,1.397e+01,1.351e+01,1.528e+01,1.497e+01,1.405e+01,1.562e+01,1.309e+01,1.530e+01,1.206e+01,1.294e+01,1.159e+01,1.663e+01,1.198e+01,1.198e+01,1.565e+01
3.835e-02,2.707e-01,3.086e-01,1.588e+00,1.510e+00,1.099e+00,1.874e+00,2.091e+00,2.215e+00,3.390e+00,2.032e+00,3.526e+00,2.167e+00,3.681e+00,2.893e+00,3.928e+00,3.833e+00,4.308e+00,4.014e+00,4.012e+00,4.198e+00,3.674e+00,4.661e+00,3.109e+00,4.379e+00,4.069e+00,6.003e+00,3.831e+00,5.568e+00,6.073e+00,5.511e+00,6.741e+00,6.691e+00,6.148e+00,6.610e+00,8.666e+00,8.459e+00,8.813e+00,8.962e+00,6.450e+00,9.227e+00,1.015e+01,7.784e+00,8.460e+00,1.052e+01,7.142e+00,9.026e+00,1.014e+01,1.052e+01,8.938e+00,1.145e+01,1.084e+01,1.096e+01,1.042e+01,1.073e+01,1.080e+01,1.109e+01,1.129e+01,1.221e+01,1.187e+01,1.362e+01,1.359e+01,1.360e+01,1.438e+01,1.357e+01,1.315e+01,1.187e+01,1.194e+01,1.127e+01,1.193e+01,1.159e+01,1.183e+01,1.436e+01
1.469e-01,5.359e-01,5.352e-01,1.285e+00,1.952e+00,1.874e+00,1.886e+00,1.745e+00,2.070e+00,2.757e+00,3.648e+00,4.095e+00,3.411e+00,4.029e+00,2.675e+00,4.208e+00,4.695e+00,5.295e+00,4.547e+00,4.951e+00,5.573e+00,5.316e+00,6.297e+00,5.226e+00,5.693e+00,6.371e+00,8.155e+00,6.384e+00,7.262e+00,6.907e+00,7.318e+00,8.061e+00,7.569e+00,7.268e+00,9.473e+00,1.005e+01,1.059e+01,1.034e+01,1.208e+01,1.022e+01,1.231e+01,1.285e+01,1.071e+01,1.028e+01,1.368e+01,9.286e+00,1.153e+01,1.337e+01,1.321e+01,1.253e+01,1.444e+01,1.361e+01,1.495e+01,1.289e+01,1.385e+01,1.413e+01,1.580e+01,1.303e+01,1.556e+01,1.533e+01,1.761e+01,1.818e+01,1.731e+01,1.894e+01,1.703e+01,1.711e+01,1.705e+01,1.385e+01,1.533e+01,1.605e+01,1.540e+01,1.586e+01,1.861e+01
2.371e-02,2.088e-01,3.170e-01,1.520e+00,1.099e+00,1.229e+00,1.801e+00,2.077e+00,2.236e+00,3.153e+00,2.491e+00,3.459e+00,2.843e+00,4.681e+00,3.476e+00,4.656e+00,5.642e+00,6.291e+00,4.966e+00,5.162e+00,5.392e+00,6.144e+00,6.822e+00,4.762e+00,6.836e+00,6.681e+00,7.110e+00,6.396e+00,6.557e+00,6.892e+00,6.119e+00,7.572e+00,8.801e+00,6.474e+00,7.961e+00,8.519e+00,9.429e+00,8.849e+00,9.668e+00,9.024e+00,1.143e+01,1.254e+01,9.267e+00,1.109e+01,1.229e+01,1.020e+01,1.322e+01,1.116e+01,1.386e+01,1.080e+01,1.518e+01,1.448e+01,1.354e+01,1.361e+01,1.339e+01,1.398e+01,1.436e+01,1.224e+01,1.444e+01,1.547e+01,1.854e+01,1.779e+01,1.574e+01,1.791e+01,1.683e+01,1.662e+01,1.530e+01,1.468e+01,1.413e+01,1.650e+01,1.538e+01,1.555e+01,1.759e+01
9.452e-03,1.445e-01,2.245e-01,9.040e-01,7.315e-01,9.960e-01,1.463e+00,1.413e+00,1.639e+00,2.914e+00,3.377e+00,3.551e+00,2.844e+00,3.923e+00,2.816e+00,3.655e+00,4.371e+00,5.439e+00,4.182e+00,4.833e+00,5.838e+00,6.389e+00,6.982e+00,5.133e+00,6.631e+00,5.361e+00,8.218e+00,6.965e+00,7.025e+00,7.198e+00,7.228e+00,8.882e+00,8.905e+00,6.649e+00,9.419e+00,9.458e+00,9.135e+00,1.045e+01,1.058e+01,8.015e+00,1.132e+01,1.246e+01,8.751e+00,8.962e+00,1.308e+01,9.941e+00,1.235e+01,1.158e+01,1.250e+01,1.103e+01,1.466e+01,1.358e+01,1.368e+01,1.406e+01,1.433e+01,1.493e+01,1.532e+01,1.282e+01,1.413e+01,1.501e+01,1.855e+01,1.810e+01,1.675e+01,1.875e+01,1.680e+01,1.768e+01,1.596e+01,1.638e+01,1.542e+01,1.919e+01,1.543e+01,1.510e+01,1.746e+01
1.504e-01,5.671e-01,6.049e-01,1.805e+00,1.642e+00,2.311e+00,2.157e+00,1.848e+00,2.533e+00,2.707e+00,3.214e+00,3.266e+00,2.756e+00,4.623e+00,2.800e+00,3.764e+00,5.005e+00,4.919e+00,3.360e+00,4.621e+00,4.284e+00,5.412e+00,5.276e+00,5.296e+00,6.310e+00,5.828e+00,6.541e+00,7.081e+00,6.562e+00,6.439e+00,6.052e+00,7.560e+00,8.563e+00,6.233e+00,9.087e+00,8.625e+00,1.014e+01,8.445e+00,1.011e+01,8.335e+00,1.050e+01,1.159e+01,9.510e+00,9.203e+00,1.272e+01,8.586e+00,1.022e+01,1.118e+01,1.275e+01,1.008e+01,1.384e+01,1.317e+01,1.135e+01,1.224e+01,1.254e+01,1.261e+01,1.327e+01,1.107e+01,1.293e+01,1.410e+01,1.532e+01,1.658e+01,1.480e+01,1.637e+01,1.532e+01,1.530e+01,1.447e+01,1.276e+01,1.400e+01,1.362e+01,1.429e+01,1.463e+01,1.661e+01
1.367e-01,5.786e-01,7.196e-01,1.671e+00,1.856e+00,2.199e+00,2.039e+00,1.989e+00,2.103e+00,3.005e+00,4.033e+00,4.792e+00,4.172e+00,5.238e+00,3.663e+00,5.007e+00,6.020e+00,6.326e+00,4.508e+00,5.815e+00,6.424e+00,6.193e+00,6.819e+00,5.447e+00,6.983e+00,6.603e+00,8.493e+00,7.291e+00,8.600e+00,8.180e+00,7.702e+00,9.269e+00,8.792e+00,7.802e+00,9.986e+00,1.119e+01,1.062e+01,1.081e+01,1.228e+01,9.609e+00,1.346e+01,1.436e+01,1.160e+01,1.072e+01,1.367e+01,9.438e+00,1.420e+01,1.252e+01,1.335e+01,1.150e+01,1.510e+01,1.418e+01,1.393e+01,1.278e+01,1.419e+01,1.277e+01,1.455e+01,1.180e+01,1.339e+01,1.532e+01,1.673e+01,1.751e+01,1.647e+01,1.850e+01,1.571e+01,1.813e+01,1.649e+01,1.454e+01,1.494e+01,1.801e+01,1.712e+01,1.665e+01,1.908e+01
3.407e-02,1.496e-01,2.258e-01,9.514e-01,1.034e+00,1.184e+00,1.342e+00,1.758e+00,1.495e+00,2.460e+00,2.713e+00,3.596e+00,3.323e+00,4.437e+00,3.075e+00,4.054e+00,5.430e+00,6.813e+00,5.383e+00,4.999e+00,6.277e+00,6.644e+00,7.834e+00,5.354e+00,6.262e+00,6.744e+00,7.900e+00,7.111e+00,7.320e+00,6.668e+00,6.793e+00,7.799e+00,8.641e+00,6.739e+00,8.225e+00,9.122e+00,9.525e+00,8.961e+00,1.054e+01,8.199e+00,1.113e+01,1.175e+01,9.927e+00,9.274e+00,1.081e+01,8.972e+00,1.277e+01,1.074e+01,1.271e+01,1.056e+01,1.426e+01,1.229e+01,1.325e+01,1.325e+01,1.292e+01,1.364e+01,1.350e+01,1.266e+01,1.411e+01,1.457e+01,1.650e+01,1.709e+01,1.630e+01,1.896e+01,1.674e+01,1.713e+01,1.596e+01,1.562e+01,1.556e+01,1.694e+01,1.738e+01,1.430e+01,1.944e+01
9.971e-02,4.069e-01,5.700e-01,1.761e+00,1.674e+00,1.628e+00,1.742e+00,2.728e+00,2.665e+00,3.501e+00,3.739e+00,4.113e+00,3.510e+00,4.804e+00,2.757e+00,4.855e+00,4.751e+00,5.891e+00,5.062e+00,4.146e+00,5.650e+00,5.484e+00,7.060e+00,5.306e+00,6.196e+00,4.990e+00,7.791e+00,6.664e+00,7.020e+00,7.079e+00,6.632e+00,8.815e+00,9.089e+00,7.319e+00,7.672e+00,8.918e+00,8.840e+00,1.005e+01,9.699e+00,8.671e+00,1.094e+01,1.200e+01,8.424e+00,9.695e+00,1.005e+01,9.538e+00,1.196e+01,1.008e+01,1.211e+01,9.536e+00,1.313e+01,1.244e+01,1.214e+01,1.182e+01,1.203e+01,1.165e+01,1.322e+01,1.021e+01,1.381e+01,1.412e+01,1.569e+01,1.527e+01,1.465e+01,1.683e+01,1.649e+01,1.602e+01,1.511e+01,1.443e+01,1.483e+01,1.646e+01,1.539e+01,1.578e+01,1.746e+01
1.220e-01,5.322e-01,6.690e-01,2.305e+00,2.310e+00,2.281e+00,2.356e+00,2.953e+00,2.762e+00,4.091e+00,3.590e+00,5.311e+00,4.296e+00,5.997e+00,4.008e+00,5.761e+00,6.529e+00,7.084e+00,5.655e+00,5.381e+00,6.351e+00,6.214e+00,7.338e+00,5.366e+00,6.506e+00,6.718e+00,8.203e+00,6.157e+00,7.217e+00,7.838e+00,6.859e+00,8.789e+00,8.903e+00,8.203e+00,9.145e+00,1.134e+01,1.100e+01,1.071e+01,1.047e+01,8.735e+00,1.357e+01,1.278e+01,1.149e+01,1.100e+01,1.253e+01,9.552e+00,1.309e+01,1.267e+01,1.358e+01,9.575e+00,1.521e+01,1.372e+01,1.308e+01,1.266e+01,1.406e+01,1.341e+01,1.585e+01,1.394e+01,1.516e+01,1.544e+01,1.904e+01,1.758e+01,1.725e+01,1.875e+01,1.806e+01,1.869e+01,1.833e+01,1.608e+01,1.663e+01,1.749e+01,1.784e+01,1.741e+01,1.997e+01
1.591e-02,5.741e-02,1.689e-01,9.233e-01,1.156e+00,1.641e+00,1.858e+00,2.152e+00,1.759e+00,2.710e+00,3.239e+00,4.257e+00,2.887e+00,3.984e+00,2.542e+00,3.931e+00,4.312e+00,4.838e+00,4.576e+00,3.987e+00,5.077e+00,3.972e+00,5.205e+00,4.156e+00,4.513e+00,3.953e+00,5.367e+00,4.315e+00,5.708e+00,5.493e+00,4.355e+00,6.176e+00,6.306e+00,4.900e+00,6.024e+00,6.712e+00,6.533e+00,7.148e+00,7.489e+00,6.069e+00,7.446e+00,7.990e+00,7.335e+00,6.568e+00,8.403e+00,5.656e+00,8.165e+00,7.911e+00,8.171e+00,6.578e+00,9.931e+00,1.046e+01,9.537e+00,8.950e+00,9.318e+00,9.618e+00,1.065e+01,8.588e+00,1.039e+01,9.993e+00,1.496e+01,1.323e+01,1.296e+01,1.475e+01,1.382e+01,1.234e+01,1.485e+01,1.295e+01,1.400e+01,1.414e+01,1.426e+01,1.288e+01,1.561e+01
6.000e-02,3.558e-01,5.400e-01,1.389e+00,1.143e+00,1.099e+00,1.355e+00,1.475e+00,1.767e+00,2.355e+00,2.317e+00,3.002e+00,2.475e+00,3.058e+00,2.226e+00,3.819e+00,3.415e+00,4.068e+00,3.796e+00,3.685e+00,4.384e+00,4.518e+00,4.971e+00,3.458e+00,5.295e+00,3.747e+00,6.133e+00,4.710e+00,5.337e+00,5.059e+00,5.191e+00,5.744e+00,6.754e+00,5.181e+00,6.679e+00,6.523e+00,7.068e+00,7.936e+00,8.598e+00,8.210e+00,9.713e+00,1.064e+01,7.629e+00,8.946e+00,9.467e+00,6.585e+00,9.132e+00,8.739e+00,1.040e+01,9.271e+00,1.264e+01,1.039e+01,1.197e+01,1.123e+01,1.172e+01,1.134e+01,1.300e+01,1.134e+01,1.412e+01,1.383e+01,1.551e+01,1.568e+01,1.432e+01,1.685e+01,1.460e+01,1.558e+01,1.450e+01,1.307e+01,1.447e+01,1.595e+01,1.488e+01,1.535e+01,1.863e+01
1.246e-01,5.309e-01,7.028e-01,1.618e+00,1.381e+00,1.627e+00,1.569e+00,1.996e+00,2.489e+00,2.898e+00,3.996e+00,4.325e+00,3.859e+00,4.819e+00,3.230e+00,5.366e+00,5.971e+00,5.933e+00,5.002e+00,5.256e+00,6.467e+00,5.464e+00,6.153e+00,5.017e+00,6.454e+00,6.809e+00,8.705e+00,6.592e+00,7.289e+00,7.353e+00,7.201e+00,8.665e+00,8.681e+00,7.478e+00,8.870e+00,1.033e+01,1.082e+01,1.049e+01,1.132e+01,9.798e+00,1.373e+01,1.347e+01,1.134e+01,1.041e+01,1.317e+01,1.024e+01,1.269e+01,1.349e+01,1.308e+01,1.118e+01,1.505e+01,1.513e+01,1.339e+01,1.324e+01,1.386e+01,1.299e+01,1.472e+01,1.267e+01,1.429e+01,1.702e+01,1.734e+01,1.750e+01,1.698e+01,1.901e+01,1.672e+01,1.804e+01,1.803e+01,1.566e+01,1.789e+01,1.943e+01,1.912e+01,2.061e+01,2.075e+01
8.307e-02,3.582e-01,4.038e-01,1.162e+00,1.025e+00,1.099e+00,1.248e+00,1.825e+00,2.223e+00,2.815e+00,3.590e+00,3.761e+00,2.532e+00,3.610e+00,2.382e+00,4.269e+00,4.307e+00,5.076e+00,3.759e+00,4.134e+00,4.769e+00,4.235e+00,5.087e+00,4.050e+00,4.294e+00,4.910e+00,5.730e+00,4.743e+00,6.072e+00,5.462e+00,5.517e+00,6.896e+00,5.890e+00,6.667e+00,7.927e+00,9.079e+00,8.653e+00,8.862e+00,1.011e+01,9.019e+00,1.168e+01,1.096e+01,8.677e+00,9.410e+00,1.277e+01,9.554e+00,1.144e+01,1.304e+01,1.285e+01,1.143e+01,1.537e+01,1.417e+01,1.348e+01,1.395e+01,1.432e+01,1.410e+01,1.659e+01,1.339e+01,1.417e+01,1.501e+01,1.796e+01,1.683e+01,1.733e+01,1.829e+01,1.803e+01,1.979e+01,1.864e+01,1.571e+01,1.697e+01,2.042e+01,1.696e+01,1.869e+01,2.099e+01
2.369e-02,9.026e-02,1.608e-01,9.440e-01,9.063e-01,8.688e-01,1.382e+00,2.341e+00,2.000e+00,2.857e+00,2.230e+00,3.312e+00,2.122e+00,4.008e+00,3.180e+00,3.680e+00,4.489e+00,5.207e+00,4.110e+00,4.655e+00,4.345e+00,4.727e+00,6.185e+00,3.495e+00,4.872e+00,5.161e+00,4.624e+00,4.575e+00,5.845e+00,6.114e+00,5.374e+00,6.574e+00,6.646e+00,5.362e+00,6.404e+00,7.474e+00,7.794e+00,8.515e+00,7.946e+00,6.573e+00,1.009e+01,1.011e+01,6.965e+00,9.180e+00,1.093e+01,9.109e+00,1.188e+01,1.037e+01,1.231e+01,9.936e+00,1.334e+01,1.236e+01,1.166e+01,1.208e+01,1.189e+01,1.301e+01,1.342e+01,1.231e+01,1.305e+01,1.358e+01,1.687e+01,1.505e+01,1.482e+01,1.779e+01,1.766e+01,1.808e+01,1.677e+01,1.650e+01,1.650e+01,1.779e+01,1.854e+01,1.845e+01,2.166e+01
9.061e-02,4.186e-01,5.122e-01,2.053e+00,1.708e+00,2.182e+00,2.423e+00,3.032e+00,2.993e+00,4.159e+00,4.182e+00,4.783e+00,3.732e+00,6.105e+00,3.652e+00,5.512e+00,6.363e+00,7.027e+00,5.166e+00,5.422e+00,6.707e+00,6.379e+00,7.053e+00,5.673e+00,6.969e+00,5.753e+00,8.536e+00,6.576e+00,7.216e+00,8.242e+00,7.063e+00,9.524e+00,9.932e+00,7.219e+00,9.314e+00,1.060e+01,1.020e+01,1.090e+01,1.084e+01,8.655e+00,1.291e+01,1.382e+01,1.077e+01,1.012e+01,1.304e+01,9.293e+00,1.277e+01,1.215e+01,1.335e+01,1.061e+01,1.551e+01,1.413e+01,1.349e+01,1.391e+01,1.559e+01,1.381e+01,1.475e+01,1.364e+01,1.431e+01,1.563e+01,1.729e+01,1.797e+01,1.558e+01,1.818e+01,1.701e+01,1.799e+01,1.768e+01,1.518e+01,1.735e+01,1.971e+01,1.758e+01,1.939e+01,2.045e+01
1.370e-01,5.498e-01,5.852e-01,1.927e+00,1.793e+00,1.650e+00,1.784e+00,2.403e+00,2.318e+00,2.937e+00,3.127e+00,3.314e+00,2.870e+00,4.370e+00,2.949e+00,3.815e+00,4.615e+00,4.787e+00,3.843e+00,4.257e+00,4.529e+00,4.685e+00,6.049e+00,4.682e+00,5.046e+00,5.118e+00,6.576e+00,5.818e+00,5.780e+00,5.990e+00,5.173e+00,6.936e+00,6.975e+00,6.720e+00,7.988e+00,8.165e+00,8.464e+00,8.481e+00,8.523e+00,7.638e+00,1.132e+01,1.063e+01,7.816e+00,9.248e+00,1.138e+01,8.711e+00,1.055e+01,1.073e+01,1.225e+01,1.030e+01,1.283e+01,1.254e+01,1.118e+01,1.189e+01,1.256e+01,1.166e+01,1.384e+01,1.222e+01,1.261e+01,1.368e+01,1.558e+01,1.513e+01,1.487e+01,1.592e+01,1.483e+01,1.524e+01,1.568e+01,1.321e+01,1.495e+01,1.651e+01,1.536e+01,1.591e+01,1.846e+01
