5.160e-01,7.468e-01,8.278e-01,4.622e-01,4.299e-02,7.992e-02,1.522e-01,2.758e-01,3.200e-01,2.175e-01,5.879e-01,4.227e-01,2.354e-01,9.793e-01,9.798e-01,3.973e-02,6.365e-01,7.012e-01,2.334e-01,6.402e-01,1.666e-01,1.381e-01,7.952e-01,6.109e-01,7.375e-01,2.296e-01,2.579e-01,5.835e-01,9.209e-01,7.529e-02,5.339e-02,3.816e-01,1.893e-01,8.413e-01,1.265e-01,1.629e-02,5.895e-01,3.092e-01,4.481e-01,9.403e-01,4.975e-01,8.866e-01,6.713e-01,1.397e-01,6.498e-01,3.906e-01,7.965e-01,5.284e-01,7.770e-01,1.043e-01,2.786e-01,6.120e-01,9.586e-01,3.293e-01,7.386e-01,3.838e-01,8.043e-01,8.343e-01,3.083e-01,9.698e-01,9.392e-01,1.114e-01,1.313e-01,3.530e-01,8.032e-01,3.532e-01,4.317e-01,2.671e-01,8.415e-02,7.010e-01,8.016e-01,8.362e-01,4.651e-01,7.117e-01,3.455e-01,9.593e-01,6.434e-02,6.420e-01,6.021e-01,8.675e-01,1.655e-01,3.421e-01,2.156e-01,9.842e-01,8.732e-01,1.532e-01,3.393e-01,3.487e-01,4.246e-01,3.771e-01,1.518e-01,9.828e-01,2.818e-02,1.127e-01,3.497e-01,8.562e-01,3.664e-01,4.582e-01,7.258e-01
1.295e-01,9.807e-01,4.807e-01,5.286e-01,6.720e-01,2.794e-01,9.724e-01,5.544e-01,5.983e-01,7.232e-01,4.194e-01,4.564e-01,9.773e-01,1.245e+00,4.828e-01,5.202e-01,3.564e-01,2.371e-01,7.320e-01,8.745e-01,8.183e-01,9.302e-02,2.213e-01,5.032e-01,8.519e-01,4.716e-01,6.651e-01,4.479e-01,2.925e-01,7.706e-01,9.798e-01,6.908e-01,5.206e-01,3.164e-01,7.398e-01,9.196e-01,9.480e-01,6.736e-01,8.743e-01,1.082e+00,3.700e-01,7.930e-01,6.527e-01,9.083e-01,7.125e-01,2.538e-01,8.192e-01,8.360e-01,1.106e+00,6.226e-01,2.067e-01,9.695e-01,3.782e-01,5.274e-01,4.607e-01,8.291e-01,6.480e-01,5.810e-01,2.192e-01,4.533e-01,9.706e-01,8.520e-01,9.230e-01,6.308e-01,1.135e+00,3.978e-01,5.674e-01,8.745e-01,5.145e-02,8.961e-01,7.177e-01,4.443e-01,1.023e+00,1.081e+00,1.053e+00,1.091e+00,3.374e-01,2.938e-01,3.520e-01,2.737e-01,9.951e-01,3.194e-01,6.546e-01,7.039e-01,6.778e-01,8.647e-01,9.486e-01,3.626e-01,8.765e-01,8.755e-01,6.992e-01,3.614e-01,3.396e-01,7.045e-01,1.025e-01,1.161e+00,7.981e-01,2.619e-01,6.915e-01
3.804e-01,9.027e-01,1.420e+00,1.337e+00,1.243e+00,5.783e-01,1.344e+00,1.105e+00,8.693e-01,4.639e-01,9.343e-01,6.240e-01,1.480e+00,1.746e+00,1.596e+00,6.082e-01,7.312e-01,1.011e+00,1.358e+00,1.571e+00,1.113e+00,2.442e-01,8.988e-01,1.032e+00,1.198e+00,7.973e-01,1.072e+00,1.297e+00,1.305e+00,7.797e-01,1.141e+00,1.179e+00,8.250e-01,1.062e+00,1.333e+00,1.204e+00,1.504e+00,1.341e+00,1.562e+00,1.882e+00,9.627e-01,1.573e+00,9.232e-01,6.265e-01,1.477e+00,1.171e+00,9.519e-01,9.002e-01,1.313e+00,5.448e-01,5.235e-01,1.610e+00,1.401e+00,4.495e-01,8.838e-01,1.286e+00,1.327e+00,1.711e+00,5.778e-01,9.126e-01,1.396e+00,1.172e+00,7.599e-01,1.450e+00,1.134e+00,1.239e+00,1.065e+00,6.994e-01,7.140e-01,1.204e+00,1.356e+00,8.388e-01,1.657e+00,1.701e+00,1.031e+00,1.762e+00,6.622e-01,5.370e-01,1.214e+00,1.149e+00,1.316e+00,1.059e+00,4.256e-01,1.741e+00,1.426e+00,9.538e-01,1.513e+00,6.851e-01,1.368e+00,1.311e+00,9.206e-01,1.182e+00,4.726e-01,6.927e-01,1.217e+00,1.833e+00,8.456e-01,8.963e-01,8.087e-01
3.552e-02,3.607e-01,7.347e-01,1.863e+00,1.347e+00,6.099e-01,1.843e+00,1.099e+00,1.236e+00,3.364e-01,9.839e-01,7.230e-01,1.475e+00,1.236e+00,1.220e+00,9.659e-01,9.972e-01,1.006e+00,1.449e+00,1.487e+00,1.399e+00,1.291e-01,8.111e-01,8.852e-01,7.180e-01,1.482e+00,1.353e+00,1.150e+00,1.280e+00,9.454e-01,1.395e+00,8.458e-01,8.871e-01,8.362e-01,1.244e+00,1.525e+00,1.060e+00,1.819e+00,1.994e+00,2.003e+00,5.465e-01,1.198e+00,1.157e+00,6.660e-01,1.736e+00,1.274e+00,6.493e-01,5.590e-01,1.327e+00,1.164e+00,3.940e-01,1.591e+00,1.372e+00,3.704e-01,9.307e-01,1.690e+00,1.119e+00,1.393e+00,6.474e-01,9.215e-01,1.393e+00,1.489e+00,1.514e+00,1.558e+00,1.293e+00,1.732e+00,1.433e+00,1.444e+00,1.406e+00,1.437e+00,1.332e+00,1.001e+00,1.411e+00,1.162e+00,1.324e+00,1.634e+00,1.491e+00,6.639e-01,1.497e+00,7.865e-01,1.561e+00,1.438e+00,5.153e-01,1.856e+00,1.302e+00,1.057e+00,2.033e+00,8.176e-01,1.898e+00,1.869e+00,6.968e-01,1.104e+00,4.327e-01,1.103e+00,8.919e-01,1.838e+00,5.666e-01,5.614e-01,8.687e-01
2.547e-01,1.049e+00,1.046e+00,1.666e+00,2.140e+00,8.820e-01,2.196e+00,1.305e+00,2.026e+00,1.533e+00,1.394e+00,1.201e+00,2.222e+00,2.750e+00,1.903e+00,1.020e+00,1.671e+00,1.949e+00,1.609e+00,2.132e+00,1.541e+00,5.142e-01,1.085e+00,1.077e+00,1.750e+00,1.693e+00,1.783e+00,1.360e+00,1.763e+00,1.558e+00,1.675e+00,1.348e+00,1.376e+00,1.305e+00,1.541e+00,1.642e+00,1.589e+00,2.543e+00,2.103e+00,3.064e+00,1.733e+00,1.963e+00,1.683e+00,1.583e+00,2.292e+00,1.319e+00,1.199e+00,1.270e+00,2.334e+00,1.183e+00,5.669e-01,2.021e+00,1.691e+00,1.507e+00,1.918e+00,2.179e+00,1.397e+00,2.115e+00,1.125e+00,1.240e+00,2.380e+00,1.719e+00,2.447e+00,1.774e+00,1.938e+00,2.415e+00,1.819e+00,2.069e+00,1.619e+00,1.878e+00,2.405e+00,1.634e+00,2.447e+00,1.751e+00,2.300e+00,2.295e+00,1.735e+00,1.155e+00,1.546e+00,1.162e+00,1.767e+00,1.829e+00,1.071e+00,2.723e+00,1.813e+00,1.608e+00,2.977e+00,1.838e+00,2.815e+00,2.259e+00,1.343e+00,1.803e+00,6.517e-01,1.423e+00,1.003e+00,2.748e+00,1.833e+00,1.467e+00,1.832e+00
1.239e-01,5.869e-01,7.513e-01,1.463e+00,1.422e+00,1.364e+00,2.207e+00,1.699e+00,2.174e+00,1.429e+00,1.446e+00,1.475e+00,2.133e+00,2.124e+00,2.217e+00,1.506e+00,2.014e+00,2.049e+00,1.405e+00,1.528e+00,1.304e+00,1.026e+00,9.089e-01,8.181e-01,1.457e+00,1.486e+00,2.206e+00,1.137e+00,2.053e+00,1.368e+00,1.447e+00,9.416e-01,1.162e+00,1.868e+00,1.822e+00,2.219e+00,1.674e+00,2.025e+00,2.083e+00,2.576e+00,9.522e-01,2.140e+00,1.827e+00,1.526e+00,2.272e+00,1.543e+00,9.492e-01,1.302e+00,2.140e+00,1.589e+00,4.980e-01,2.244e+00,1.276e+00,1.609e+00,1.335e+00,2.351e+00,1.082e+00,2.060e+00,1.473e+00,1.291e+00,2.131e+00,1.890e+00,2.154e+00,2.072e+00,1.414e+00,2.111e+00,2.323e+00,2.032e+00,1.366e+00,1.699e+00,2.089e+00,1.591e+00,1.774e+00,1.924e+00,1.710e+00,1.947e+00,1.456e+00,1.310e+00,1.375e+00,1.656e+00,2.024e+00,1.440e+00,6.456e-01,2.324e+00,1.566e+00,1.590e+00,2.855e+00,1.214e+00,1.947e+00,1.701e+00,1.490e+00,2.049e+00,1.257e+00,1.144e+00,1.351e+00,2.208e+00,1.455e+00,1.737e+00,1.611e+00
5.052e-01,1.162e+00,1.306e+00,1.402e+00,1.715e+00,8.828e-01,2.543e+00,1.448e+00,2.396e+00,2.228e+00,1.805e+00,1.964e+00,2.607e+00,3.319e+00,2.673e+00,1.137e+00,2.202e+00,2.979e+00,1.830e+00,2.613e+00,1.971e+00,8.363e-01,1.981e+00,1.273e+00,2.044e+00,1.539e+00,1.836e+00,1.517e+00,2.616e+00,1.601e+00,1.889e+00,2.062e+00,1.796e+00,2.231e+00,1.968e+00,1.330e+00,1.973e+00,3.106e+00,2.160e+00,3.320e+00,1.831e+00,2.190e+00,2.236e+00,1.462e+00,2.458e+00,1.421e+00,1.575e+00,1.740e+00,2.677e+00,1.623e+00,9.088e-01,2.078e+00,1.859e+00,1.659e+00,2.428e+00,2.813e+00,2.082e+00,2.869e+00,1.782e+00,1.934e+00,2.680e+00,1.954e+00,2.180e+00,2.473e+00,2.390e+00,2.185e+00,2.664e+00,1.720e+00,1.996e+00,2.249e+00,2.731e+00,1.826e+00,3.154e+00,1.901e+00,2.254e+00,2.334e+00,1.729e+00,1.650e+00,1.521e+00,2.444e+00,1.660e+00,2.252e+00,1.320e+00,3.557e+00,2.461e+00,1.978e+00,3.404e+00,2.501e+00,2.476e+00,2.628e+00,2.019e+00,2.182e+00,1.351e+00,1.915e+00,1.688e+00,2.653e+00,2.653e+00,1.865e+00,2.359e+00
4.083e-01,6.444e-01,1.260e+00,1.926e+00,1.246e+00,1.102e+00,2.694e+00,2.188e+00,2.847e+00,2.100e+00,2.436e+00,2.552e+00,3.378e+00,2.534e+00,3.468e+00,2.223e+00,2.981e+00,3.669e+00,2.223e+00,3.026e+00,2.229e+00,1.065e+00,2.328e+00,2.016e+00,1.640e+00,2.484e+00,3.092e+00,1.677e+00,3.296e+00,2.272e+00,2.777e+00,2.186e+00,2.429e+00,2.577e+00,3.131e+00,1.882e+00,2.032e+00,3.266e+00,2.899e+00,4.059e+00,1.727e+00,2.392e+00,2.596e+00,1.659e+00,3.155e+00,2.489e+00,1.532e+00,2.032e+00,2.922e+00,2.758e+00,1.129e+00,3.169e+00,2.665e+00,1.323e+00,2.862e+00,3.373e+00,2.964e+00,3.674e+00,2.844e+00,2.631e+00,3.134e+00,2.291e+00,2.719e+00,3.453e+00,2.266e+00,2.796e+00,3.863e+00,2.211e+00,2.370e+00,2.571e+00,2.478e+00,2.227e+00,2.811e+00,2.826e+00,1.766e+00,2.815e+00,2.690e+00,2.303e+00,2.083e+00,3.398e+00,2.739e+00,2.453e+00,1.417e+00,3.915e+00,2.958e+00,2.375e+00,4.130e+00,2.552e+00,2.537e+00,2.718e+00,2.146e+00,3.321e+00,1.937e+00,2.584e+00,2.337e+00,2.501e+00,2.371e+00,1.973e+00,2.201e+00
8.777e-02,4.932e-01,8.667e-01,1.296e+00,1.228e+00,1.014e+00,2.068e+00,1.549e+00,2.073e+00,1.924e+00,1.966e+00,1.562e+00,3.013e+00,1.938e+00,2.390e+00,1.608e+00,1.479e+00,2.227e+00,2.367e+00,2.028e+00,2.034e+00,1.300e+00,1.932e+00,1.839e+00,1.824e+00,1.391e+00,2.297e+00,1.422e+00,1.849e+00,1.942e+00,2.444e+00,1.624e+00,1.440e+00,1.623e+00,2.772e+00,2.666e+00,2.421e+00,1.968e+00,2.123e+00,2.597e+00,1.689e+00,2.205e+00,1.756e+00,1.983e+00,2.249e+00,1.548e+00,1.262e+00,1.271e+00,1.976e+00,2.008e+00,1.479e+00,2.357e+00,1.877e+00,1.507e+00,1.146e+00,3.019e+00,1.952e+00,2.099e+00,1.902e+00,1.826e+00,2.370e+00,2.608e+00,2.471e+00,2.568e+00,1.960e+00,2.459e+00,2.344e+00,1.830e+00,2.157e+00,1.949e+00,2.320e+00,1.685e+00,2.320e+00,2.175e+00,1.813e+00,1.799e+00,1.267e+00,1.400e+00,2.064e+00,2.358e+00,2.034e+00,1.649e+00,6.870e-01,2.911e+00,1.663e+00,2.154e+00,2.487e+00,1.987e+00,2.337e+00,2.243e+00,1.653e+00,2.461e+00,1.845e+00,1.824e+00,1.780e+00,1.863e+00,1.878e+00,2.120e+00,1.531e+00
4.766e-01,8.689e-01,1.008e+00,1.063e+00,1.236e+00,1.283e+00,2.401e+00,1.734e+00,3.114e+00,3.931e+00,2.830e+00,3.556e+00,3.914e+00,4.090e+00,3.956e+00,1.884e+00,3.644e+00,3.997e+00,2.115e+00,2.742e+00,2.382e+00,2.407e+00,3.397e+00,2.551e+00,2.934e+00,1.932e+00,3.224e+00,2.504e+00,3.937e+00,2.767e+00,3.161e+00,2.649e+00,2.323e+00,2.964e+00,2.945e+00,2.597e+00,2.651e+00,3.835e+00,2.393e+00,3.913e+00,3.323e+00,3.854e+00,3.095e+00,3.080e+00,3.004e+00,1.902e+00,1.858e+00,2.058e+00,3.713e+00,2.939e+00,1.840e+00,2.627e+00,3.158e+00,3.509e+00,3.326e+00,3.908e+00,3.031e+00,3.446e+00,2.973e+00,3.682e+00,4.071e+00,2.618e+00,3.245e+00,3.593e+00,3.198e+00,3.678e+00,3.910e+00,2.619e+00,3.229e+00,3.074e+00,4.168e+00,2.831e+00,3.822e+00,2.707e+00,3.157e+00,2.994e+00,1.776e+00,2.852e+00,2.414e+00,4.088e+00,2.020e+00,2.696e+00,1.905e+00,4.423e+00,2.896e+00,2.511e+00,4.395e+00,3.228e+00,2.933e+00,2.962e+00,3.056e+00,4.159e+00,2.332e+00,2.851e+00,3.079e+00,2.792e+00,3.705e+00,3.455e+00,3.654e+00
4.963e-01,1.479e+00,1.270e+00,1.694e+00,1.498e+00,1.203e+00,2.633e+00,1.801e+00,2.890e+00,3.196e+00,3.462e+00,3.269e+00,4.001e+00,4.677e+00,4.402e+00,2.400e+00,3.115e+00,3.370e+00,3.142e+00,3.379e+00,3.226e+00,2.694e+00,3.445e+00,3.309e+00,3.466e+00,2.542e+00,3.416e+00,2.363e+00,4.056e+00,2.797e+00,4.118e+00,2.450e+00,2.708e+00,2.881e+00,3.000e+00,3.301e+00,3.084e+00,3.894e+00,3.292e+00,4.210e+00,2.979e+00,4.150e+00,3.702e+00,3.579e+00,3.983e+00,2.292e+00,3.012e+00,3.017e+00,4.603e+00,3.744e+00,2.411e+00,3.764e+00,3.051e+00,3.411e+00,2.744e+00,4.717e+00,3.546e+00,3.193e+00,2.922e+00,4.172e+00,4.590e+00,3.714e+00,4.222e+00,3.310e+00,3.621e+00,3.807e+00,3.488e+00,3.783e+00,3.412e+00,3.973e+00,3.969e+00,2.979e+00,4.134e+00,3.117e+00,3.853e+00,3.482e+00,2.186e+00,2.527e+00,3.643e+00,3.424e+00,2.582e+00,3.211e+00,2.234e+00,4.735e+00,3.064e+00,2.934e+00,4.005e+00,3.314e+00,3.440e+00,3.795e+00,2.790e+00,4.074e+00,2.341e+00,3.295e+00,2.208e+00,3.424e+00,3.528e+00,3.308e+00,3.450e+00
3.850e-01,1.086e+00,1.112e+00,1.250e+00,1.004e+00,1.152e+00,2.537e+00,2.138e+00,2.990e+00,3.392e+00,2.895e+00,3.317e+00,5.234e+00,3.735e+00,4.165e+00,3.197e+00,3.088e+00,4.450e+00,2.831e+00,3.612e+00,2.918e+00,2.243e+00,3.893e+00,3.353e+00,3.551e+00,2.369e+00,3.627e+00,2.684e+00,3.805e+00,3.936e+00,4.476e+00,3.588e+00,2.841e+00,3.154e+00,4.793e+00,3.543e+00,3.575e+00,4.081e+00,3.580e+00,4.371e+00,3.555e+00,3.740e+00,3.658e+00,3.135e+00,4.030e+00,2.758e+00,2.601e+00,3.229e+00,3.656e+00,3.507e+00,2.173e+00,4.003e+00,3.407e+00,2.748e+00,3.357e+00,4.589e+00,4.163e+00,3.948e+00,3.350e+00,4.045e+00,3.992e+00,3.549e+00,4.107e+00,3.760e+00,3.605e+00,3.570e+00,4.646e+00,2.821e+00,3.137e+00,3.185e+00,3.998e+00,3.173e+00,4.379e+00,3.861e+00,2.784e+00,3.478e+00,2.954e+00,2.728e+00,2.999e+00,3.977e+00,3.488e+00,3.087e+00,2.098e+00,4.215e+00,3.194e+00,3.859e+00,4.430e+00,3.111e+00,3.373e+00,3.124e+00,3.182e+00,4.892e+00,3.442e+00,3.800e+00,3.070e+00,3.457e+00,3.658e+00,3.276e+00,3.049e+00
1.334e-01,5.098e-01,6.730e-01,1.238e+00,1.052e+00,9.812e-01,2.327e+00,1.649e+00,2.363e+00,2.436e+00,2.362e+00,2.770e+00,4.161e+00,3.568e+00,4.372e+00,3.290e+00,3.332e+00,4.052e+00,3.205e+00,3.790e+00,3.115e+00,2.008e+00,3.798e+00,2.485e+00,2.936e+00,2.568e+00,3.125e+00,2.447e+00,4.180e+00,3.439e+00,3.814e+00,3.135e+00,3.393e+00,3.027e+00,3.558e+00,2.765e+00,2.694e+00,4.708e+00,3.955e+00,4.002e+00,2.970e+00,3.504e+00,3.994e+00,2.787e+00,3.595e+00,2.739e+00,2.778e+00,3.310e+00,3.552e+00,4.046e+00,1.819e+00,3.593e+00,2.925e+00,2.272e+00,3.178e+00,4.690e+00,3.184e+00,3.848e+00,2.931e+00,3.989e+00,3.167e+00,3.053e+00,3.741e+00,3.356e+00,3.093e+00,3.406e+00,4.012e+00,3.252e+00,3.119e+00,3.010e+00,3.552e+00,2.957e+00,4.487e+00,2.816e+00,3.133e+00,2.609e+00,3.309e+00,2.571e+00,3.380e+00,3.179e+00,2.744e+00,3.139e+00,2.269e+00,4.135e+00,2.724e+00,2.979e+00,4.283e+00,3.055e+00,3.565e+00,3.641e+00,3.013e+00,4.001e+00,3.350e+00,4.071e+00,2.743e+00,2.896e+00,3.269e+00,3.468e+00,3.235e+00
3.498e-01,6.697e-01,6.838e-01,6.620e-01,5.504e-01,7.986e-01,1.761e+00,1.153e+00,2.162e+00,2.965e+00,2.607e+00,2.976e+00,3.349e+00,4.579e+00,4.478e+00,2.396e+00,3.633e+00,3.489e+00,3.315e+00,3.361e+00,3.213e+00,3.343e+00,4.049e+00,2.856e+00,2.833e+00,2.038e+00,3.338e+00,2.243e+00,3.855e+00,2.628e+00,3.263e+00,3.407e+00,2.561e+00,3.490e+00,2.629e+00,2.796e+00,2.744e+00,4.166e+00,2.577e+00,4.101e+00,2.835e+00,3.901e+00,3.618e+00,3.559e+00,3.238e+00,2.150e+00,2.697e+00,3.285e+00,3.754e+00,3.619e+00,2.155e+00,3.080e+00,3.371e+00,3.723e+00,3.397e+00,4.904e+00,3.230e+00,3.866e+00,3.067e+00,4.538e+00,3.769e+00,3.327e+00,3.261e+00,3.699e+00,3.139e+00,3.535e+00,3.762e+00,3.167e+00,3.853e+00,3.753e+00,4.016e+00,3.397e+00,4.014e+00,2.892e+00,3.622e+00,2.847e+00,2.679e+00,2.901e+00,3.283e+00,4.337e+00,2.194e+00,2.784e+00,2.232e+00,4.684e+00,2.545e+00,3.148e+00,3.391e+00,3.982e+00,2.872e+00,3.379e+00,2.861e+00,4.068e+00,2.685e+00,3.919e+00,2.879e+00,2.807e+00,4.211e+00,3.998e+00,3.971e+00
5.050e-01,1.474e+00,1.210e+00,1.779e+00,1.579e+00,8.297e-01,2.704e+00,1.862e+00,3.136e+00,3.444e+00,3.058e+00,3.213e+00,4.802e+00,4.966e+00,5.350e+00,3.214e+00,4.941e+00,5.264e+00,4.349e+00,5.417e+00,4.357e+00,3.041e+00,4.541e+00,4.494e+00,3.923e+00,3.796e+00,4.395e+00,3.025e+00,4.045e+00,3.990e+00,5.368e+00,4.146e+00,3.617e+00,4.297e+00,4.595e+00,4.195e+00,4.314e+00,5.652e+00,4.683e+00,6.157e+00,4.214e+00,4.164e+00,4.606e+00,4.627e+00,4.690e+00,3.061e+00,3.343e+00,3.975e+00,4.751e+00,4.101e+00,2.499e+00,4.713e+00,5.031e+00,3.518e+00,5.594e+00,5.619e+00,4.475e+00,5.280e+00,3.695e+00,5.609e+00,5.046e+00,4.173e+00,5.012e+00,4.766e+00,5.290e+00,5.044e+00,5.254e+00,4.470e+00,4.679e+00,4.669e+00,5.625e+00,4.988e+00,5.364e+00,5.050e+00,4.508e+00,4.697e+00,4.238e+00,3.764e+00,4.621e+00,4.838e+00,4.217e+00,4.348e+00,3.635e+00,6.174e+00,4.016e+00,4.964e+00,5.243e+00,4.667e+00,5.422e+00,5.021e+00,3.696e+00,5.501e+00,3.084e+00,5.453e+00,3.391e+00,4.338e+00,5.157e+00,4.100e+00,4.832e+00
3.359e-01,9.357e-01,7.004e-01,6.393e-01,9.948e-01,1.057e+00,1.636e+00,1.323e+00,2.284e+00,3.112e+00,2.287e+00,2.834e+00,3.553e+00,4.719e+00,4.966e+00,3.468e+00,4.830e+00,5.095e+00,4.157e+00,4.613e+00,3.262e+00,3.888e+00,4.212e+00,3.163e+00,3.769e+00,2.846e+00,3.984e+00,3.246e+00,4.166e+00,3.813e+00,4.639e+00,3.322e+00,3.678e+00,4.511e+00,3.364e+00,3.600e+00,4.201e+00,5.585e+00,4.146e+00,4.788e+00,3.800e+00,4.558e+00,4.672e+00,4.759e+00,4.417e+00,2.777e+00,3.171e+00,3.707e+00,4.505e+00,4.445e+00,2.513e+00,4.122e+00,4.349e+00,4.048e+00,4.587e+00,5.654e+00,3.531e+00,5.019e+00,3.081e+00,5.554e+00,4.181e+00,3.137e+00,4.653e+00,4.242e+00,4.384e+00,4.455e+00,4.894e+00,4.467e+00,4.434e+00,4.449e+00,5.682e+00,4.437e+00,5.312e+00,4.514e+00,5.044e+00,3.996e+00,3.616e+00,3.879e+00,4.684e+00,5.046e+00,3.456e+00,3.999e+00,3.247e+00,5.273e+00,3.509e+00,3.745e+00,4.882e+00,3.682e+00,3.947e+00,4.018e+00,3.857e+00,5.580e+00,3.781e+00,4.646e+00,3.552e+00,3.719e+00,5.012e+00,4.988e+00,4.919e+00
4.995e-01,1.239e+00,1.196e+00,1.826e+00,1.314e+00,1.334e+00,2.568e+00,2.264e+00,3.158e+00,3.291e+00,3.161e+00,3.819e+00,5.131e+00,5.451e+00,6.112e+00,4.276e+00,6.001e+00,6.351e+00,4.979e+00,5.874e+00,4.749e+00,4.012e+00,5.195e+00,4.494e+00,5.083e+00,4.381e+00,5.345e+00,3.759e+00,6.465e+00,5.147e+00,5.690e+00,5.008e+00,4.902e+00,5.362e+00,4.896e+00,4.686e+00,4.413e+00,6.771e+00,6.095e+00,6.706e+00,5.261e+00,5.770e+00,6.381e+00,5.409e+00,5.648e+00,4.111e+00,3.893e+00,5.407e+00,5.519e+00,5.110e+00,2.645e+00,5.764e+00,5.337e+00,4.571e+00,6.036e+00,6.697e+00,5.173e+00,5.982e+00,4.778e+00,6.309e+00,5.393e+00,4.660e+00,6.211e+00,5.271e+00,5.179e+00,5.771e+00,5.856e+00,5.323e+00,4.263e+00,4.812e+00,6.381e+00,5.476e+00,6.281e+00,5.853e+00,5.403e+00,5.383e+00,5.012e+00,4.286e+00,4.757e+00,5.792e+00,4.347e+00,4.891e+00,3.505e+00,5.954e+00,4.702e+00,4.332e+00,6.693e+00,4.403e+00,5.417e+00,4.655e+00,4.235e+00,6.693e+00,4.676e+00,5.718e+00,4.198e+00,5.674e+00,5.230e+00,5.865e+00,5.515e+00
2.669e-01,4.785e-01,1.094e+00,1.044e+00,1.762e+00,8.552e-01,1.654e+00,1.437e+00,2.250e+00,2.845e+00,2.664e+00,2.876e+00,4.665e+00,4.716e+00,5.021e+00,3.039e+00,3.948e+00,5.671e+00,4.419e+00,5.381e+00,4.304e+00,4.154e+00,5.344e+00,4.337e+00,4.974e+00,3.708e+00,4.307e+00,3.780e+00,4.415e+00,4.367e+00,6.087e+00,4.683e+00,4.376e+00,4.427e+00,4.512e+00,3.825e+00,4.371e+00,6.088e+00,5.156e+00,5.210e+00,5.171e+00,4.959e+00,5.080e+00,4.150e+00,5.254e+00,3.904e+00,3.048e+00,3.667e+00,4.617e+00,3.557e+00,3.646e+00,4.773e+00,5.086e+00,4.504e+00,5.535e+00,5.852e+00,4.726e+00,5.268e+00,4.038e+00,5.183e+00,4.960e+00,4.688e+00,4.714e+00,4.265e+00,4.132e+00,5.850e+00,5.125e+00,3.967e+00,5.181e+00,4.709e+00,5.541e+00,4.343e+00,5.809e+00,5.238e+00,4.484e+00,4.521e+00,4.346e+00,3.369e+00,5.254e+00,5.308e+00,3.634e+00,5.788e+00,3.114e+00,5.381e+00,4.215e+00,4.445e+00,5.628e+00,4.748e+00,5.188e+00,4.163e+00,4.637e+00,5.903e+00,4.138e+00,5.331e+00,4.884e+00,4.870e+00,5.379e+00,5.187e+00,4.826e+00
8.149e-02,1.989e-01,1.630e-01,3.144e-01,5.556e-01,6.522e-01,8.670e-01,9.992e-01,1.618e+00,2.244e+00,1.919e+00,2.585e+00,3.161e+00,3.850e+00,4.191e+00,2.871e+00,4.078e+00,3.870e+00,3.250e+00,3.982e+00,3.888e+00,4.054e+00,4.433e+00,3.333e+00,3.272e+00,3.265e+00,4.272e+00,2.870e+00,5.053e+00,4.313e+00,3.929e+00,4.047e+00,3.941e+00,3.595e+00,3.020e+00,3.164e+00,2.702e+00,5.066e+00,3.641e+00,4.953e+00,4.065e+00,4.642e+00,4.405e+00,4.145e+00,3.943e+00,3.215e+00,2.656e+00,4.320e+00,4.350e+00,4.372e+00,2.719e+00,3.986e+00,3.636e+00,4.045e+00,4.575e+00,5.138e+00,3.396e+00,4.122e+00,4.175e+00,4.767e+00,3.913e+00,3.811e+00,4.826e+00,3.844e+00,2.872e+00,4.781e+00,4.548e+00,3.874e+00,3.653e+00,3.781e+00,4.586e+00,4.180e+00,5.088e+00,3.888e+00,4.438e+00,3.975e+00,3.849e+00,3.379e+00,3.960e+00,4.657e+00,2.551e+00,3.984e+00,3.389e+00,4.336e+00,3.346e+00,3.798e+00,5.017e+00,3.997e+00,3.245e+00,3.429e+00,3.399e+00,5.255e+00,3.648e+00,4.482e+00,3.263e+00,3.643e+00,4.329e+00,5.033e+00,4.705e+00
2.738e-01,6.536e-01,5.725e-01,1.227e+00,7.596e-01,6.509e-01,1.426e+00,9.566e-01,1.694e+00,1.730e+00,2.164e+00,2.186e+00,2.685e+00,3.732e+00,3.872e+00,2.536e+00,3.423e+00,3.416e+00,3.344e+00,4.182e+00,3.934e+00,3.489e+00,4.903e+00,3.501e+00,4.149e+00,3.120e+00,3.576e+00,3.094e+00,4.914e+00,4.416e+00,4.360e+00,4.002e+00,3.114e+00,4.103e+00,2.629e+00,4.231e+00,3.754e+00,4.631e+00,3.823e+00,4.919e+00,3.545e+00,4.458e+00,4.801e+00,3.707e+00,4.870e+00,3.059e+00,3.897e+00,3.494e+00,5.017e+00,4.149e+00,3.675e+00,4.641e+00,3.766e+00,3.720e+00,4.105e+00,5.533e+00,3.225e+00,3.720e+00,3.941e+00,4.837e+00,4.251e+00,4.700e+00,5.103e+00,3.744e+00,3.840e+00,4.551e+00,4.393e+00,4.680e+00,4.905e+00,4.972e+00,4.841e+00,4.905e+00,5.338e+00,4.252e+00,4.495e+00,4.773e+00,3.738e+00,4.145e+00,5.598e+00,4.849e+00,2.775e+00,4.815e+00,3.762e+00,4.743e+00,3.918e+00,4.546e+00,4.364e+00,4.227e+00,4.415e+00,4.560e+00,3.357e+00,4.975e+00,3.633e+00,4.190e+00,3.596e+00,3.841e+00,4.224e+00,4.960e+00,4.681e+00
9.956e-02,7.778e-01,8.156e-01,1.350e+00,1.737e+00,1.092e+00,2.576e+00,1.878e+00,2.718e+00,3.017e+00,2.608e+00,3.035e+00,4.819e+00,4.627e+00,4.339e+00,3.517e+00,4.071e+00,5.486e+00,4.901e+00,5.401e+00,5.128e+00,4.072e+00,5.026e+00,3.953e+00,5.291e+00,4.482e+00,5.287e+00,3.677e+00,5.954e+00,5.672e+00,6.674e+00,5.540e+00,5.351e+00,4.670e+00,5.400e+00,4.603e+00,5.091e+00,6.999e+00,5.787e+00,5.724e+00,5.510e+00,4.994e+00,6.448e+00,5.313e+00,6.001e+00,4.121e+00,3.966e+00,4.648e+00,5.017e+00,5.144e+00,4.107e+00,5.379e+00,4.777e+00,4.708e+00,5.749e+00,7.250e+00,5.485e+00,5.456e+00,5.082e+00,4.612e+00,5.317e+00,5.883e+00,5.925e+00,5.498e+00,4.364e+00,6.041e+00,5.920e+00,5.172e+00,4.772e+00,4.661e+00,6.008e+00,5.023e+00,6.406e+00,6.226e+00,5.506e+00,5.372e+00,5.460e+00,3.748e+00,4.615e+00,5.556e+00,4.795e+00,5.682e+00,3.548e+00,5.596e+00,5.261e+00,5.027e+00,7.156e+00,5.080e+00,5.494e+00,4.751e+00,4.770e+00,5.432e+00,5.470e+00,5.421e+00,4.474e+00,5.896e+00,5.651e+00,5.560e+00,4.619e+00
3.711e-01,1.091e+00,1.465e+00,1.744e+00,2.075e+00,1.003e+00,2.856e+00,2.060e+00,3.124e+00,3.295e+00,2.998e+00,2.789e+00,5.116e+00,4.803e+00,5.394e+00,3.309e+00,4.374e+00,5.859e+00,5.489e+00,6.505e+00,5.484e+00,4.219e+00,6.463e+00,4.386e+00,5.826e+00,4.833e+00,5.394e+00,3.803e+00,5.991e+00,6.365e+00,7.485e+00,6.665e+00,6.006e+00,5.318e+00,5.545e+00,5.661e+00,6.299e+00,6.822e+00,5.796e+00,7.141e+00,5.804e+00,5.147e+00,6.913e+00,5.459e+00,6.702e+00,4.538e+00,5.563e+00,4.456e+00,5.800e+00,5.642e+00,5.110e+00,6.717e+00,6.279e+00,5.012e+00,6.369e+00,7.534e+00,5.817e+00,6.990e+00,6.157e+00,5.845e+00,6.775e+00,6.105e+00,5.793e+00,5.722e+00,5.457e+00,7.066e+00,6.267e+00,6.089e+00,6.302e+00,6.042e+00,6.273e+00,6.126e+00,6.770e+00,7.399e+00,5.219e+00,5.880e+00,5.925e+00,5.489e+00,6.728e+00,7.396e+00,5.184e+00,6.401e+00,4.661e+00,7.718e+00,5.416e+00,5.886e+00,6.725e+00,7.305e+00,7.260e+00,5.803e+00,5.467e+00,6.509e+00,5.238e+00,6.652e+00,6.218e+00,5.689e+00,6.839e+00,6.660e+00,6.105e+00
1.510e-01,3.560e-01,3.254e-01,8.116e-01,6.077e-01,1.013e+00,1.667e+00,1.364e+00,2.070e+00,1.955e+00,1.829e+00,2.275e+00,2.329e+00,3.185e+00,3.848e+00,2.503e+00,4.028e+00,4.101e+00,3.290e+00,3.996e+00,4.181e+00,4.524e+00,4.775e+00,3.017e+00,4.455e+00,4.489e+00,5.279e+00,3.853e+00,5.501e+00,5.225e+00,5.753e+00,4.711e+00,5.371e+00,5.202e+00,3.320e+00,4.860e+00,5.217e+00,6.232e+00,4.302e+00,5.248e+00,3.642e+00,5.090e+00,5.760e+00,4.800e+00,5.523e+00,3.862e+00,4.227e+00,4.587e+00,5.710e+00,5.744e+00,4.504e+00,5.164e+00,4.628e+00,4.518e+00,5.517e+00,6.050e+00,4.357e+00,5.573e+00,5.600e+00,5.021e+00,5.761e+00,5.320e+00,4.833e+00,4.975e+00,4.389e+00,6.460e+00,6.368e+00,5.974e+00,5.188e+00,5.452e+00,5.540e+00,5.726e+00,5.350e+00,6.237e+00,5.100e+00,4.999e+00,4.599e+00,5.301e+00,5.421e+00,6.839e+00,4.164e+00,6.032e+00,4.561e+00,5.936e+00,5.186e+00,4.849e+00,6.416e+00,5.032e+00,4.844e+00,4.201e+00,4.569e+00,6.108e+00,5.006e+00,5.541e+00,5.408e+00,5.068e+00,5.152e+00,5.670e+00,5.413e+00
4.863e-01,1.376e+00,1.250e+00,1.921e+00,1.278e+00,1.218e+00,2.464e+00,1.950e+00,2.622e+00,2.836e+00,2.802e+00,3.368e+00,4.517e+00,5.236e+00,5.711e+00,3.857e+00,5.482e+00,5.895e+00,5.173e+00,6.403e+00,5.616e+00,4.923e+00,6.761e+00,5.943e+00,7.925e+00,5.936e+00,6.511e+00,5.191e+00,7.446e+00,7.698e+00,8.594e+00,7.493e+00,6.402e+00,7.556e+00,5.313e+00,7.086e+00,7.710e+00,8.665e+00,7.451e+00,7.510e+00,6.609e+00,7.213e+00,8.672e+00,6.411e+00,8.279e+00,4.791e+00,6.903e+00,5.977e+00,8.050e+00,6.874e+00,5.859e+00,7.381e+00,7.388e+00,6.315e+00,7.809e+00,7.937e+00,6.258e+00,6.831e+00,7.033e+00,7.177e+00,7.909e+00,7.311e+00,7.406e+00,6.459e+00,7.619e+00,7.616e+00,7.449e+00,8.137e+00,7.180e+00,7.644e+00,7.714e+00,7.383e+00,7.996e+00,8.538e+00,6.932e+00,7.533e+00,6.324e+00,6.586e+00,7.793e+00,8.100e+00,6.256e+00,7.659e+00,5.744e+00,7.432e+00,7.201e+00,6.627e+00,7.592e+00,5.739e+00,8.138e+00,6.217e+00,6.719e+00,8.231e+00,6.748e+00,7.904e+00,7.181e+00,6.955e+00,7.385e+00,8.221e+00,7.605e+00
9.384e-02,5.396e-01,6.688e-01,1.042e+00,1.207e+00,1.075e+00,2.423e+00,1.545e+00,2.346e+00,3.084e+00,2.671e+00,3.294e+00,3.874e+00,4.977e+00,5.193e+00,3.278e+00,4.788e+00,5.293e+00,5.350e+00,5.941e+00,5.978e+00,5.826e+00,6.497e+00,5.076e+00,6.978e+00,6.109e+00,6.917e+00,4.967e+00,7.325e+00,6.873e+00,9.448e+00,7.779e+00,7.054e+00,7.429e+00,5.421e+00,6.417e+00,7.896e+00,9.373e+00,7.201e+00,7.022e+00,6.563e+00,6.644e+00,8.419e+00,6.634e+00,8.055e+00,4.604e+00,6.280e+00,5.781e+00,7.966e+00,7.534e+00,7.344e+00,6.594e+00,7.243e+00,7.340e+00,7.862e+00,9.265e+00,6.512e+00,6.577e+00,7.080e+00,6.434e+00,8.176e+00,8.214e+00,6.697e+00,7.337e+00,6.156e+00,7.296e+00,7.726e+00,7.700e+00,8.625e+00,7.533e+00,6.958e+00,7.124e+00,8.418e+00,8.684e+00,6.803e+00,6.964e+00,7.015e+00,6.767e+00,8.417e+00,8.916e+00,6.482e+00,7.852e+00,6.239e+00,8.255e+00,7.188e+00,6.991e+00,7.377e+00,7.146e+00,7.515e+00,7.093e+00,7.906e+00,7.019e+00,6.770e+00,8.211e+00,7.933e+00,5.767e+00,8.281e+00,8.041e+00,7.325e+00
1.516e-02,4.656e-01,3.286e-01,4.312e-01,7.680e-01,4.489e-01,9.987e-01,1.034e+00,1.302e+00,1.428e+00,1.327e+00,1.460e+00,3.046e+00,2.367e+00,3.591e+00,2.818e+00,3.263e+00,4.488e+00,3.914e+00,4.770e+00,4.203e+00,3.287e+00,4.335e+00,3.248e+00,5.045e+00,5.594e+00,4.832e+00,4.115e+00,5.389e+00,5.883e+00,6.976e+00,5.915e+00,7.081e+00,5.236e+00,4.645e+00,4.453e+00,5.569e+00,6.926e+00,6.783e+00,5.352e+00,6.162e+00,4.821e+00,6.747e+00,4.672e+00,5.598e+00,4.310e+00,4.514e+00,5.533e+00,5.104e+00,5.376e+00,4.786e+00,5.487e+00,5.244e+00,4.322e+00,6.006e+00,6.270e+00,5.599e+00,5.583e+00,5.530e+00,4.537e+00,5.528e+00,5.972e+00,5.362e+00,4.745e+00,4.893e+00,5.219e+00,5.474e+00,5.469e+00,4.996e+00,4.370e+00,4.959e+00,5.510e+00,6.361e+00,7.363e+00,4.918e+00,4.904e+00,5.379e+00,4.794e+00,5.570e+00,5.973e+00,4.954e+00,5.937e+00,4.291e+00,5.127e+00,5.117e+00,4.341e+00,5.677e+00,5.212e+00,6.600e+00,5.003e+00,5.919e+00,6.052e+00,5.713e+00,6.316e+00,5.565e+00,4.769e+00,5.535e+00,6.146e+00,5.115e+00
3.748e-01,1.279e+00,1.537e+00,2.411e+00,2.479e+00,1.406e+00,3.133e+00,2.347e+00,3.273e+00,2.800e+00,2.919e+00,2.807e+00,5.013e+00,5.036e+00,5.436e+00,3.405e+00,5.126e+00,6.393e+00,5.579e+00,6.377e+00,5.708e+00,4.730e+00,5.620e+00,5.873e+00,7.869e+00,7.361e+00,7.625e+00,6.577e+00,7.558e+00,7.847e+00,9.429e+00,8.355e+00,8.388e+00,8.330e+00,7.535e+00,7.618e+00,9.601e+00,1.091e+01,9.154e+00,9.218e+00,8.884e+00,7.298e+00,8.881e+00,7.157e+00,9.848e+00,5.466e+00,6.701e+00,7.365e+00,8.897e+00,6.687e+00,6.348e+00,7.599e+00,9.143e+00,7.151e+00,9.724e+00,8.644e+00,8.247e+00,8.282e+00,8.211e+00,6.312e+00,9.265e+00,8.962e+00,8.590e+00,8.267e+00,7.704e+00,8.995e+00,8.837e+00,8.771e+00,8.811e+00,7.302e+00,8.285e+00,8.066e+00,9.590e+00,1.004e+01,7.712e+00,8.180e+00,7.975e+00,6.695e+00,8.123e+00,9.129e+00,7.892e+00,9.015e+00,5.698e+00,9.415e+00,8.293e+00,7.938e+00,8.560e+00,7.177e+00,1.012e+01,7.371e+00,7.818e+00,9.018e+00,7.316e+00,8.417e+00,8.261e+00,8.931e+00,8.484e+00,9.024e+00,7.225e+00
3.349e-01,8.383e-01,1.285e+00,1.931e+00,1.603e+00,8.364e-01,2.024e+00,1.676e+00,2.126e+00,1.941e+00,2.229e+00,2.262e+00,4.046e+00,3.685e+00,4.295e+00,3.024e+00,3.788e+00,4.924e+00,4.319e+00,5.683e+00,5.030e+00,3.777e+00,6.243e+00,4.659e+00,5.971e+00,5.481e+00,5.383e+00,6.420e+00,7.720e+00,8.089e+00,7.719e+00,7.353e+00,6.950e+00,7.096e+00,6.775e+00,6.528e+00,7.622e+00,8.358e+00,7.454e+00,7.962e+00,7.998e+00,6.225e+00,8.451e+00,5.940e+00,8.753e+00,5.521e+00,6.620e+00,4.610e+00,7.222e+00,6.605e+00,6.255e+00,7.261e+00,7.495e+00,5.831e+00,8.301e+00,8.193e+00,7.058e+00,7.565e+00,6.917e+00,6.552e+00,7.553e+00,8.193e+00,7.102e+00,7.819e+00,6.761e+00,7.217e+00,8.314e+00,7.301e+00,8.177e+00,6.562e+00,7.434e+00,7.500e+00,8.992e+00,9.008e+00,7.026e+00,8.610e+00,6.403e+00,6.395e+00,8.308e+00,7.920e+00,6.826e+00,8.861e+00,5.941e+00,7.653e+00,7.775e+00,7.892e+00,8.039e+00,7.053e+00,8.266e+00,7.386e+00,7.132e+00,8.463e+00,6.562e+00,6.824e+00,7.381e+00,7.413e+00,7.189e+00,7.692e+00,6.244e+00
3.349e-01,6.851e-01,1.292e+00,1.744e+00,1.995e+00,1.504e+00,2.921e+00,2.319e+00,3.397e+00,3.674e+00,3.292e+00,3.795e+00,5.014e+00,5.585e+00,6.513e+00,3.634e+00,5.835e+00,5.960e+00,4.965e+00,5.950e+00,5.353e+00,4.979e+00,6.253e+00,4.855e+00,6.080e+00,6.213e+00,7.276e+00,6.380e+00,8.381e+00,7.894e+00,8.904e+00,7.823e+00,8.589e+00,8.070e+00,6.575e+00,6.672e+00,8.000e+00,1.114e+01,7.802e+00,9.515e+00,8.184e+00,7.850e+00,8.666e+00,7.739e+00,8.949e+00,5.361e+00,6.544e+00,6.880e+00,9.382e+00,8.666e+00,6.120e+00,7.511e+00,8.302e+00,7.624e+00,8.928e+00,9.196e+00,7.928e+00,8.636e+00,7.732e+00,8.021e+00,8.639e+00,7.547e+00,7.923e+00,8.676e+00,6.538e+00,9.144e+00,8.835e+00,8.297e+00,9.148e+00,6.857e+00,8.008e+00,8.294e+00,9.975e+00,8.703e+00,8.104e+00,7.949e+00,7.222e+00,7.213e+00,8.274e+00,9.708e+00,6.917e+00,8.855e+00,6.184e+00,9.956e+00,7.966e+00,7.218e+00,8.830e+00,8.076e+00,8.401e+00,8.215e+00,8.059e+00,9.151e+00,6.726e+00,8.619e+00,8.487e+00,7.268e+00,8.368e+00,9.033e+00,8.204e+00
5.091e-01,1.437e+00,1.575e+00,1.738e+00,2.027e+00,1.346e+00,2.530e+00,2.124e+00,2.963e+00,3.306e+00,2.861e+00,3.097e+00,4.848e+00,5.632e+00,5.231e+00,3.497e+00,4.766e+00,5.613e+00,5.001e+00,5.909e+00,4.738e+00,4.564e+00,5.777e+00,4.590e+00,6.427e+00,4.922e+00,6.037e+00,5.707e+00,6.988e+00,8.072e+00,8.636e+00,8.109e+00,7.253e+00,7.751e+00,6.750e+00,6.960e+00,8.585e+00,9.350e+00,7.620e+00,9.521e+00,7.843e+00,7.659e+00,9.163e+00,7.629e+00,9.427e+00,5.615e+00,6.812e+00,6.416e+00,8.635e+00,6.882e+00,5.802e+00,8.460e+00,8.232e+00,7.530e+00,8.147e+00,8.759e+00,8.240e+00,8.640e+00,7.320e+00,7.286e+00,8.192e+00,7.920e+00,7.783e+00,8.317e+00,7.148e+00,8.458e+00,7.921e+00,7.900e+00,8.023e+00,7.689e+00,7.625e+00,7.784e+00,9.274e+00,9.389e+00,7.848e+00,8.817e+00,6.874e+00,6.865e+00,7.729e+00,9.211e+00,7.153e+00,8.299e+00,5.408e+00,8.382e+00,7.706e+00,7.911e+00,8.525e+00,7.539e+00,8.494e+00,7.645e+00,7.397e+00,8.506e+00,7.087e+00,7.132e+00,8.256e+00,8.001e+00,8.256e+00,8.830e+00,8.389e+00
4.342e-01,1.299e+00,1.446e+00,2.038e+00,2.080e+00,1.284e+00,2.628e+00,1.864e+00,2.652e+00,2.077e+00,2.251e+00,2.001e+00,3.959e+00,4.163e+00,4.520e+00,3.265e+00,4.347e+00,6.351e+00,5.331e+00,6.178e+00,5.426e+00,4.486e+00,5.760e+00,4.548e+00,6.981e+00,5.862e+00,5.800e+00,5.671e+00,7.588e+00,7.689e+00,8.876e+00,8.240e+00,7.917e+00,9.053e+00,7.142e+00,7.037e+00,9.114e+00,9.750e+00,9.475e+00,9.420e+00,8.236e+00,8.233e+00,1.008e+01,8.053e+00,9.534e+00,6.058e+00,6.971e+00,6.307e+00,7.702e+00,8.098e+00,7.060e+00,8.069e+00,8.349e+00,6.734e+00,8.310e+00,1.004e+01,7.201e+00,7.353e+00,6.665e+00,7.213e+00,8.339e+00,9.419e+00,9.137e+00,7.834e+00,8.834e+00,8.607e+00,8.529e+00,8.138e+00,8.115e+00,6.827e+00,8.785e+00,9.388e+00,9.947e+00,1.011e+01,7.953e+00,8.702e+00,7.272e+00,7.699e+00,9.702e+00,8.889e+00,8.198e+00,9.169e+00,6.167e+00,8.768e+00,8.641e+00,8.494e+00,9.747e+00,7.541e+00,9.026e+00,9.114e+00,8.038e+00,9.787e+00,7.810e+00,8.353e+00,7.201e+00,8.369e+00,7.509e+00,8.124e+00,8.699e+00
5.277e-02,8.487e-01,6.741e-01,1.779e+00,1.646e+00,8.179e-01,2.404e+00,1.541e+00,2.488e+00,2.619e+00,2.978e+00,2.726e+00,4.588e+00,4.849e+00,4.948e+00,3.750e+00,4.402e+00,5.136e+00,5.970e+00,6.254e+00,6.017e+00,5.159e+00,6.263e+00,5.158e+00,6.878e+00,6.223e+00,6.467e+00,5.243e+00,7.538e+00,8.849e+00,1.058e+01,9.137e+00,8.399e+00,8.253e+00,6.520e+00,8.022e+00,8.388e+00,1.052e+01,9.048e+00,9.735e+00,8.165e+00,8.477e+00,1.111e+01,9.234e+00,9.803e+00,6.600e+00,8.400e+00,7.626e+00,9.038e+00,9.364e+00,8.093e+00,9.122e+00,8.332e+00,8.416e+00,8.370e+00,1.043e+01,9.221e+00,8.317e+00,7.501e+00,8.820e+00,9.714e+00,9.584e+00,1.007e+01,8.658e+00,8.450e+00,1.027e+01,8.375e+00,9.751e+00,1.014e+01,8.176e+00,8.533e+00,9.721e+00,1.063e+01,9.688e+00,9.211e+00,8.529e+00,8.147e+00,7.754e+00,9.932e+00,9.616e+00,8.151e+00,9.932e+00,7.325e+00,9.478e+00,8.267e+00,8.263e+00,8.907e+00,9.641e+00,9.701e+00,9.645e+00,8.230e+00,9.650e+00,7.768e+00,9.753e+00,8.706e+00,7.833e+00,8.186e+00,9.258e+00,9.273e+00
2.577e-01,9.781e-01,6.261e-01,6.916e-01,1.051e+00,6.596e-01,1.841e+00,1.054e+00,2.082e+00,3.275e+00,2.469e+00,3.055e+00,3.904e+00,5.314e+00,4.972e+00,2.931e+00,4.482e+00,4.326e+00,4.567e+00,5.218e+00,5.563e+00,5.225e+00,6.569e+00,4.265e+00,5.152e+00,5.056e+00,5.436e+00,5.927e+00,8.129e+00,7.844e+00,7.734e+00,8.247e+00,8.167e+00,7.432e+00,6.708e+00,6.867e+00,8.352e+00,9.919e+00,7.288e+00,8.409e+00,8.570e+00,8.700e+00,1.013e+01,7.394e+00,8.980e+00,6.920e+00,8.336e+00,6.931e+00,8.639e+00,8.832e+00,7.635e+00,8.111e+00,8.506e+00,7.932e+00,8.198e+00,8.961e+00,8.687e+00,8.732e+00,7.697e+00,8.352e+00,9.164e+00,7.895e+00,8.382e+00,9.121e+00,7.720e+00,9.495e+00,8.637e+00,8.247e+00,9.024e+00,8.243e+00,9.289e+00,8.814e+00,1.035e+01,8.767e+00,9.180e+00,8.039e+00,7.134e+00,7.415e+00,8.458e+00,1.030e+01,6.171e+00,9.175e+00,7.590e+00,9.315e+00,8.124e+00,7.696e+00,8.839e+00,9.118e+00,8.458e+00,9.085e+00,8.279e+00,9.022e+00,8.401e+00,7.491e+00,8.916e+00,7.501e+00,9.356e+00,1.001e+01,9.315e+00
2.459e-01,1.042e+00,8.184e-01,8.469e-01,1.173e+00,5.058e-01,1.580e+00,1.172e+00,1.967e+00,2.447e+00,2.418e+00,2.052e+00,3.924e+00,3.812e+00,3.907e+00,3.107e+00,3.341e+00,5.013e+00,5.001e+00,5.538e+00,4.977e+00,4.783e+00,5.694e+00,4.975e+00,6.686e+00,5.824e+00,5.734e+00,5.658e+00,6.965e+00,8.876e+00,1.014e+01,8.970e+00,8.628e+00,8.403e+00,7.423e+00,8.432e+00,9.672e+00,1.044e+01,8.039e+00,8.620e+00,9.251e+00,8.517e+00,1.057e+01,8.998e+00,9.690e+00,7.383e+00,8.600e+00,7.125e+00,8.016e+00,9.239e+00,8.658e+00,9.158e+00,8.526e+00,6.253e+00,8.133e+00,9.461e+00,9.346e+00,8.944e+00,8.785e+00,7.761e+00,9.173e+00,9.491e+00,9.882e+00,8.673e+00,9.535e+00,1.055e+01,9.486e+00,8.819e+00,1.010e+01,8.119e+00,9.293e+00,9.604e+00,1.019e+01,1.128e+01,8.915e+00,8.811e+00,8.040e+00,9.059e+00,9.773e+00,1.024e+01,8.589e+00,9.460e+00,8.042e+00,8.774e+00,9.515e+00,9.212e+00,9.933e+00,8.757e+00,9.685e+00,8.763e+00,8.215e+00,9.725e+00,9.658e+00,9.209e+00,8.577e+00,8.104e+00,8.951e+00,9.217e+00,8.417e+00
5.126e-01,1.090e+00,1.584e+00,1.766e+00,1.765e+00,9.959e-01,2.369e+00,1.633e+00,2.166e+00,2.109e+00,2.390e+00,2.610e+00,4.005e+00,5.427e+00,5.457e+00,2.918e+00,4.606e+00,5.579e+00,5.116e+00,6.030e+00,5.552e+00,4.645e+00,6.212e+00,4.533e+00,6.769e+00,5.611e+00,5.645e+00,6.511e+00,8.077e+00,7.447e+00,8.649e+00,8.811e+00,8.196e+00,9.497e+00,7.693e+00,7.613e+00,9.539e+00,1.152e+01,1.021e+01,9.539e+00,9.322e+00,9.201e+00,1.096e+01,8.011e+00,1.014e+01,7.921e+00,8.370e+00,8.168e+00,9.326e+00,8.289e+00,7.856e+00,9.679e+00,9.332e+00,8.592e+00,1.006e+01,1.036e+01,9.230e+00,9.619e+00,7.872e+00,9.048e+00,1.042e+01,9.531e+00,9.304e+00,9.835e+00,9.305e+00,1.072e+01,9.633e+00,8.708e+00,1.059e+01,8.449e+00,9.618e+00,9.811e+00,1.082e+01,1.119e+01,9.003e+00,9.805e+00,7.924e+00,8.803e+00,9.376e+00,1.112e+01,8.219e+00,1.076e+01,7.905e+00,1.019e+01,9.920e+00,8.776e+00,1.062e+01,9.073e+00,9.954e+00,9.407e+00,9.464e+00,9.703e+00,8.714e+00,9.770e+00,9.378e+00,1.045e+01,9.291e+00,1.021e+01,9.140e+00
2.047e-01,3.439e-01,8.350e-01,1.164e+00,1.039e+00,8.394e-01,1.988e+00,1.597e+00,2.179e+00,2.684e+00,2.235e+00,3.095e+00,4.394e+00,4.311e+00,4.923e+00,3.390e+00,4.520e+00,5.280e+00,4.483e+00,5.785e+00,5.489e+00,4.113e+00,6.700e+00,4.996e+00,6.266e+00,5.791e+00,6.252e+00,5.903e+00,7.878e+00,8.910e+00,8.453e+00,9.959e+00,8.317e+00,9.228e+00,7.799e+00,6.964e+00,9.429e+00,1.096e+01,1.049e+01,1.058e+01,9.270e+00,9.921e+00,1.134e+01,7.902e+00,1.058e+01,9.016e+00,9.258e+00,8.358e+00,9.728e+00,1.035e+01,8.770e+00,9.777e+00,1.039e+01,8.866e+00,1.069e+01,1.056e+01,8.933e+00,9.733e+00,9.320e+00,8.990e+00,1.129e+01,1.069e+01,1.089e+01,1.064e+01,1.013e+01,1.082e+01,1.069e+01,9.752e+00,1.077e+01,9.578e+00,9.618e+00,1.031e+01,1.105e+01,1.049e+01,8.598e+00,9.529e+00,8.333e+00,1.048e+01,9.902e+00,1.272e+01,8.614e+00,1.008e+01,8.509e+00,9.930e+00,1.086e+01,9.460e+00,1.183e+01,9.680e+00,9.891e+00,1.060e+01,1.096e+01,1.084e+01,9.939e+00,1.091e+01,1.004e+01,9.022e+00,9.632e+00,1.130e+01,1.128e+01
5.043e-01,9.010e-01,1.082e+00,1.148e+00,1.175e+00,9.107e-01,1.744e+00,1.506e+00,2.457e+00,2.941e+00,2.964e+00,3.285e+00,3.793e+00,4.555e+00,4.563e+00,2.536e+00,3.723e+00,4.443e+00,3.173e+00,4.384e+00,3.716e+00,3.666e+00,5.251e+00,4.189e+00,5.784e+00,5.144e+00,5.395e+00,4.929e+00,6.908e+00,6.715e+00,7.441e+00,7.555e+00,7.217e+00,7.621e+00,6.036e+00,5.377e+00,8.102e+00,8.851e+00,7.740e+00,9.393e+00,9.146e+00,9.594e+00,9.982e+00,7.286e+00,9.605e+00,7.130e+00,8.214e+00,6.088e+00,8.739e+00,8.989e+00,8.127e+00,8.441e+00,8.821e+00,8.290e+00,9.362e+00,8.516e+00,8.317e+00,8.730e+00,7.910e+00,7.963e+00,1.024e+01,8.939e+00,9.393e+00,8.050e+00,9.002e+00,8.976e+00,9.407e+00,8.921e+00,8.868e+00,8.014e+00,9.020e+00,9.184e+00,9.100e+00,9.611e+00,7.278e+00,8.140e+00,7.540e+00,9.494e+00,9.312e+00,1.050e+01,7.276e+00,8.193e+00,7.738e+00,8.443e+00,9.718e+00,7.004e+00,1.049e+01,8.500e+00,9.277e+00,8.471e+00,9.083e+00,9.598e+00,7.633e+00,9.026e+00,8.088e+00,8.437e+00,8.489e+00,8.375e+00,9.159e+00
4.198e-02,4.035e-01,3.719e-01,4.736e-01,8.641e-01,9.073e-01,1.486e+00,1.277e+00,2.087e+00,2.420e+00,2.143e+00,2.105e+00,4.088e+00,3.532e+00,4.665e+00,3.911e+00,4.109e+00,6.130e+00,5.368e+00,5.972e+00,5.115e+00,5.042e+00,6.351e+00,5.043e+00,7.747e+00,6.257e+00,6.464e+00,6.483e+00,7.743e+00,9.940e+00,1.007e+01,9.775e+00,9.949e+00,1.073e+01,8.784e+00,8.132e+00,1.211e+01,1.253e+01,1.158e+01,1.100e+01,1.197e+01,1.050e+01,1.294e+01,9.553e+00,1.263e+01,8.563e+00,1.119e+01,9.244e+00,1.137e+01,1.119e+01,1.018e+01,1.166e+01,1.104e+01,1.102e+01,1.100e+01,1.168e+01,1.066e+01,1.028e+01,1.016e+01,1.022e+01,1.145e+01,1.125e+01,1.316e+01,1.053e+01,1.087e+01,1.120e+01,1.160e+01,1.175e+01,1.255e+01,1.024e+01,1.107e+01,1.162e+01,1.344e+01,1.271e+01,1.100e+01,1.073e+01,9.594e+00,1.118e+01,1.233e+01,1.387e+01,1.031e+01,1.287e+01,9.514e+00,1.135e+01,1.140e+01,1.040e+01,1.171e+01,1.124e+01,1.214e+01,1.069e+01,1.218e+01,1.264e+01,1.191e+01,1.140e+01,1.110e+01,1.012e+01,1.122e+01,1.339e+01,1.116e+01
3.942e-01,1.122e+00,1.008e+00,1.075e+00,1.277e+00,1.131e+00,2.348e+00,1.756e+00,2.583e+00,2.949e+00,2.632e+00,3.179e+00,3.885e+00,4.792e+00,4.683e+00,3.310e+00,4.547e+00,6.016e+00,4.994e+00,6.174e+00,5.869e+00,5.477e+00,6.612e+00,4.500e+00,7.670e+00,6.293e+00,6.421e+00,6.005e+00,8.731e+00,9.128e+00,9.749e+00,8.722e+00,9.154e+00,8.916e+00,6.272e+00,7.873e+00,9.742e+00,1.135e+01,1.013e+01,1.062e+01,1.025e+01,1.091e+01,1.310e+01,9.460e+00,1.119e+01,8.337e+00,1.029e+01,8.630e+00,1.043e+01,1.021e+01,9.026e+00,1.119e+01,8.758e+00,1.042e+01,1.040e+01,1.080e+01,1.102e+01,1.093e+01,1.018e+01,9.456e+00,1.070e+01,1.104e+01,1.144e+01,9.250e+00,1.044e+01,1.160e+01,1.163e+01,1.060e+01,1.057e+01,1.009e+01,1.110e+01,1.055e+01,1.231e+01,1.266e+01,1.106e+01,1.129e+01,8.917e+00,1.098e+01,1.021e+01,1.285e+01,8.426e+00,1.228e+01,8.928e+00,1.028e+01,1.144e+01,8.394e+00,1.331e+01,1.025e+01,1.065e+01,9.147e+00,1.104e+01,1.121e+01,1.084e+01,1.013e+01,1.001e+01,1.065e+01,1.049e+01,1.144e+01,1.077e+01
1.496e-01,5.199e-01,9.623e-01,1.406e+00,1.640e+00,6.999e-01,1.698e+00,1.289e+00,1.862e+00,1.989e+00,2.199e+00,2.002e+00,3.814e+00,3.675e+00,4.430e+00,3.035e+00,3.768e+00,4.879e+00,4.756e+00,5.218e+00,4.523e+00,4.072e+00,5.173e+00,4.507e+00,5.258e+00,5.451e+00,5.172e+00,6.222e+00,6.988e+00,8.179e+00,9.116e+00,7.832e+00,8.490e+00,8.451e+00,7.968e+00,7.557e+00,9.792e+00,1.186e+01,1.033e+01,1.041e+01,1.047e+01,1.048e+01,1.155e+01,9.703e+00,1.116e+01,9.440e+00,1.017e+01,7.811e+00,9.577e+00,1.044e+01,8.651e+00,1.061e+01,1.139e+01,8.932e+00,1.027e+01,1.090e+01,1.123e+01,1.069e+01,8.581e+00,1.055e+01,1.047e+01,1.025e+01,1.148e+01,1.072e+01,1.054e+01,1.283e+01,1.094e+01,1.039e+01,1.176e+01,9.775e+00,1.079e+01,1.075e+01,1.180e+01,1.233e+01,1.142e+01,1.142e+01,9.261e+00,1.048e+01,1.070e+01,1.117e+01,1.045e+01,1.232e+01,9.130e+00,1.146e+01,1.030e+01,9.971e+00,1.225e+01,1.046e+01,1.091e+01,1.088e+01,1.071e+01,1.161e+01,1.069e+01,9.752e+00,1.016e+01,1.003e+01,9.975e+00,1.149e+01,9.701e+00
1.353e-01,2.435e-01,5.505e-01,1.220e+00,1.005e+00,6.986e-01,1.860e+00,1.111e+00,1.927e+00,1.762e+00,1.833e+00,1.876e+00,2.722e+00,2.882e+00,3.945e+00,2.369e+00,3.637e+00,4.260e+00,3.735e+00,4.504e+00,4.074e+00,3.165e+00,4.950e+00,3.457e+00,5.342e+00,5.153e+00,4.865e+00,4.907e+00,6.112e+00,6.626e+00,7.723e+00,6.989e+00,7.181e+00,7.607e+00,5.065e+00,6.079e+00,7.672e+00,1.002e+01,8.715e+00,9.088e+00,8.413e+00,9.233e+00,1.110e+01,8.133e+00,9.273e+00,7.276e+00,9.692e+00,6.718e+00,8.540e+00,9.754e+00,8.253e+00,7.843e+00,9.680e+00,8.969e+00,9.795e+00,9.565e+00,8.790e+00,8.749e+00,7.698e+00,8.508e+00,8.385e+00,9.556e+00,9.059e+00,8.738e+00,8.759e+00,1.083e+01,9.714e+00,9.342e+00,1.052e+01,8.582e+00,8.797e+00,1.104e+01,1.061e+01,1.046e+01,9.690e+00,9.408e+00,8.850e+00,1.035e+01,1.026e+01,1.002e+01,8.551e+00,1.075e+01,7.486e+00,1.064e+01,9.767e+00,8.315e+00,9.655e+00,9.675e+00,1.065e+01,1.024e+01,9.813e+00,1.011e+01,8.719e+00,9.632e+00,8.694e+00,7.839e+00,8.549e+00,9.518e+00,8.999e+00
4.113e-01,7.055e-01,1.281e+00,1.156e+00,1.343e+00,8.595e-01,1.419e+00,1.369e+00,1.634e+00,1.495e+00,1.784e+00,1.764e+00,2.628e+00,3.578e+00,3.498e+00,2.106e+00,3.252e+00,4.566e+00,4.104e+00,4.695e+00,4.055e+00,3.698e+00,4.431e+00,3.647e+00,5.562e+00,4.780e+00,4.827e+00,4.769e+00,6.509e+00,6.447e+00,6.459e+00,6.985e+00,6.770e+00,8.041e+00,6.039e+00,5.655e+00,7.600e+00,8.722e+00,8.469e+00,8.868e+00,8.727e+00,9.879e+00,1.110e+01,7.307e+00,1.044e+01,7.643e+00,8.474e+00,5.923e+00,8.780e+00,8.031e+00,8.292e+00,8.471e+00,9.480e+00,8.852e+00,1.031e+01,9.712e+00,9.123e+00,9.553e+00,9.196e+00,8.373e+00,9.469e+00,9.490e+00,9.403e+00,9.520e+00,8.577e+00,1.002e+01,1.027e+01,8.889e+00,9.742e+00,8.805e+00,8.996e+00,8.823e+00,9.354e+00,1.141e+01,9.272e+00,1.064e+01,8.135e+00,9.154e+00,8.681e+00,1.041e+01,8.590e+00,9.370e+00,7.682e+00,9.214e+00,1.064e+01,8.039e+00,1.057e+01,8.457e+00,8.805e+00,7.863e+00,9.537e+00,9.943e+00,8.932e+00,8.251e+00,8.157e+00,9.698e+00,9.474e+00,1.045e+01,7.709e+00
4.515e-01,1.025e+00,9.516e-01,8.919e-01,1.170e+00,6.216e-01,1.733e+00,1.325e+00,2.205e+00,2.982e+00,2.264e+00,3.123e+00,4.127e+00,4.548e+00,4.641e+00,3.160e+00,4.931e+00,6.524e+00,4.644e+00,6.444e+00,5.564e+00,5.413e+00,6.690e+00,5.357e+00,7.393e+00,6.179e+00,6.070e+00,6.128e+00,8.144e+00,9.076e+00,1.075e+01,9.838e+00,9.256e+00,9.519e+00,7.233e+00,7.775e+00,1.017e+01,1.201e+01,1.046e+01,1.182e+01,1.124e+01,1.297e+01,1.473e+01,1.108e+01,1.309e+01,1.037e+01,1.138e+01,9.082e+00,1.123e+01,1.178e+01,1.175e+01,1.183e+01,1.295e+01,1.137e+01,1.282e+01,1.186e+01,1.245e+01,1.258e+01,1.100e+01,1.260e+01,1.158e+01,1.153e+01,1.347e+01,1.161e+01,1.221e+01,1.400e+01,1.384e+01,1.200e+01,1.289e+01,1.133e+01,1.260e+01,1.331e+01,1.451e+01,1.430e+01,1.258e+01,1.292e+01,1.190e+01,1.296e+01,1.324e+01,1.389e+01,1.151e+01,1.378e+01,1.128e+01,1.260e+01,1.275e+01,1.161e+01,1.417e+01,1.176e+01,1.237e+01,1.234e+01,1.287e+01,1.384e+01,1.196e+01,1.178e+01,1.191e+01,1.199e+01,1.230e+01,1.235e+01,1.231e+01
7.874e-02,2.721e-01,8.326e-01,1.496e+00,1.408e+00,8.317e-01,2.138e+00,1.737e+00,2.431e+00,2.664e+00,2.405e+00,2.698e+00,4.663e+00,3.532e+00,4.571e+00,3.865e+00,4.318e+00,5.791e+00,5.020e+00,6.056e+00,4.921e+00,4.517e+00,6.258e+00,4.717e+00,5.561e+00,5.523e+00,5.913e+00,5.489e+00,6.635e+00,8.305e+00,9.588e+00,8.385e+00,7.959e+00,8.140e+00,7.914e+00,8.020e+00,9.122e+00,1.140e+01,1.025e+01,1.144e+01,9.985e+00,1.154e+01,1.220e+01,1.034e+01,1.228e+01,1.070e+01,1.064e+01,8.198e+00,1.027e+01,1.241e+01,1.085e+01,1.148e+01,1.289e+01,9.892e+00,1.129e+01,1.218e+01,1.086e+01,1.152e+01,1.107e+01,1.169e+01,1.161e+01,1.106e+01,1.329e+01,1.189e+01,1.155e+01,1.401e+01,1.311e+01,1.096e+01,1.279e+01,1.174e+01,1.097e+01,1.208e+01,1.182e+01,1.417e+01,1.141e+01,1.242e+01,1.210e+01,1.347e+01,1.332e+01,1.316e+01,1.198e+01,1.205e+01,1.005e+01,1.325e+01,1.201e+01,1.159e+01,1.405e+01,1.140e+01,1.261e+01,1.197e+01,1.158e+01,1.351e+01,1.185e+01,1.218e+01,1.126e+01,1.074e+01,1.085e+01,1.186e+01,1.106e+01
3.867e-01,1.227e+00,1.077e+00,1.241e+00,1.283e+00,1.310e+00,2.724e+00,1.844e+00,2.902e+00,3.598e+00,3.320e+00,3.645e+00,4.493e+00,5.526e+00,5.311e+00,3.227e+00,4.173e+00,4.788e+00,4.580e+00,4.978e+00,5.197e+00,5.231e+00,6.196e+00,4.479e+00,6.592e+00,5.215e+00,6.489e+00,6.163e+00,7.852e+00,7.548e+00,8.452e+00,8.335e+00,8.336e+00,8.604e+00,7.441e+00,7.192e+00,9.966e+00,1.076e+01,9.382e+00,1.067e+01,9.588e+00,1.164e+01,1.165e+01,9.607e+00,1.233e+01,8.669e+00,1.131e+01,1.006e+01,1.166e+01,1.101e+01,1.087e+01,1.070e+01,1.117e+01,1.180e+01,1.139e+01,1.156e+01,1.048e+01,1.036e+01,1.071e+01,1.087e+01,1.286e+01,1.171e+01,1.214e+01,1.126e+01,1.098e+01,1.245e+01,1.294e+01,1.168e+01,1.196e+01,1.100e+01,1.056e+01,1.088e+01,1.279e+01,1.290e+01,1.123e+01,1.043e+01,9.143e+00,1.236e+01,1.155e+01,1.380e+01,9.733e+00,1.181e+01,1.052e+01,1.317e+01,1.130e+01,1.101e+01,1.248e+01,1.103e+01,1.148e+01,1.079e+01,1.148e+01,1.251e+01,1.044e+01,1.143e+01,1.079e+01,1.179e+01,1.162e+01,1.222e+01,1.071e+01
2.051e-01,1.013e+00,8.014e-01,1.699e+00,1.251e+00,1.070e+00,2.450e+00,1.987e+00,2.931e+00,3.365e+00,3.101e+00,3.354e+00,4.856e+00,4.580e+00,4.666e+00,3.603e+00,4.446e+00,4.498e+00,4.590e+00,5.024e+00,5.244e+00,4.457e+00,5.756e+00,5.408e+00,5.343e+00,6.272e+00,7.118e+00,5.276e+00,6.982e+00,8.181e+00,8.784e+00,8.457e+00,8.085e+00,8.506e+00,8.236e+00,7.661e+00,9.482e+00,1.131e+01,1.019e+01,1.196e+01,1.050e+01,1.308e+01,1.312e+01,1.081e+01,1.348e+01,1.160e+01,1.184e+01,9.331e+00,1.158e+01,1.405e+01,1.215e+01,1.252e+01,1.429e+01,1.176e+01,1.201e+01,1.261e+01,1.273e+01,1.205e+01,1.241e+01,1.204e+01,1.344e+01,1.234e+01,1.507e+01,1.370e+01,1.272e+01,1.482e+01,1.491e+01,1.315e+01,1.254e+01,1.229e+01,1.258e+01,1.348e+01,1.225e+01,1.472e+01,1.303e+01,1.355e+01,1.221e+01,1.347e+01,1.338e+01,1.428e+01,1.386e+01,1.153e+01,1.073e+01,1.383e+01,1.389e+01,1.198e+01,1.495e+01,1.193e+01,1.322e+01,1.251e+01,1.216e+01,1.463e+01,1.213e+01,1.145e+01,1.135e+01,1.180e+01,1.274e+01,1.344e+01,1.200e+01
3.532e-01,1.189e+00,1.145e+00,1.630e+00,1.765e+00,1.272e+00,2.638e+00,2.154e+00,3.070e+00,2.833e+00,3.153e+00,3.120e+00,4.892e+00,4.833e+00,5.536e+00,3.870e+00,4.469e+00,5.737e+00,4.533e+00,5.812e+00,5.136e+00,4.053e+00,5.604e+00,4.576e+00,5.856e+00,5.442e+00,5.737e+00,5.307e+00,7.419e+00,7.531e+00,8.034e+00,6.848e+00,7.771e+00,7.719e+00,7.310e+00,6.459e+00,7.832e+00,1.000e+01,8.911e+00,9.517e+00,8.745e+00,1.006e+01,1.161e+01,8.247e+00,1.127e+01,9.172e+00,1.041e+01,8.680e+00,1.086e+01,1.154e+01,9.393e+00,1.040e+01,1.043e+01,1.023e+01,1.051e+01,1.087e+01,9.992e+00,1.008e+01,9.983e+00,9.874e+00,1.056e+01,9.999e+00,1.156e+01,1.072e+01,9.755e+00,1.254e+01,1.168e+01,1.110e+01,1.006e+01,1.012e+01,9.949e+00,1.108e+01,1.238e+01,1.210e+01,1.102e+01,1.164e+01,9.838e+00,9.746e+00,1.175e+01,1.119e+01,1.086e+01,1.241e+01,8.816e+00,1.203e+01,1.160e+01,9.970e+00,1.253e+01,1.028e+01,1.144e+01,1.142e+01,9.978e+00,1.265e+01,1.048e+01,9.971e+00,9.539e+00,1.061e+01,1.048e+01,1.059e+01,9.457e+00
1.304e-02,5.981e-01,5.560e-01,1.622e+00,1.801e+00,1.082e+00,2.404e+00,1.636e+00,2.515e+00,2.371e+00,2.405e+00,2.628e+00,3.846e+00,3.667e+00,3.468e+00,3.335e+00,3.250e+00,4.334e+00,3.570e+00,4.491e+00,3.775e+00,3.850e+00,4.706e+00,4.024e+00,6.282e+00,6.436e+00,6.256e+00,6.747e+00,7.814e+00,9.486e+00,9.987e+00,8.451e+00,9.078e+00,8.138e+00,7.384e+00,7.623e+00,1.047e+01,1.183e+01,9.524e+00,1.084e+01,1.037e+01,1.105e+01,1.246e+01,9.760e+00,1.422e+01,1.012e+01,1.218e+01,1.005e+01,1.303e+01,1.350e+01,1.185e+01,1.310e+01,1.369e+01,1.217e+01,1.252e+01,1.243e+01,1.241e+01,1.267e+01,1.234e+01,1.031e+01,1.314e+01,1.267e+01,1.489e+01,1.289e+01,1.281e+01,1.398e+01,1.403e+01,1.539e+01,1.417e+01,1.237e+01,1.148e+01,1.220e+01,1.506e+01,1.514e+01,1.326e+01,1.359e+01,1.249e+01,1.403e+01,1.417e+01,1.433e+01,1.332e+01,1.472e+01,1.116e+01,1.277e+01,1.322e+01,1.265e+01,1.522e+01,1.198e+01,1.474e+01,1.375e+01,1.300e+01,1.446e+01,1.333e+01,1.151e+01,1.303e+01,1.310e+01,1.353e+01,1.296e+01,1.093e+01
9.601e-02,8.896e-01,1.025e+00,1.283e+00,2.135e+00,1.071e+00,2.617e+00,1.936e+00,2.924e+00,3.570e+00,2.916e+00,2.961e+00,5.401e+00,4.587e+00,4.849e+00,4.011e+00,4.089e+00,6.012e+00,5.718e+00,6.577e+00,5.696e+00,4.725e+00,6.476e+00,4.861e+00,6.431e+00,5.819e+00,6.126e+00,5.359e+00,7.655e+00,9.455e+00,9.872e+00,9.027e+00,9.155e+00,8.126e+00,8.542e+00,7.743e+00,1.042e+01,1.138e+01,1.115e+01,1.205e+01,1.127e+01,1.222e+01,1.356e+01,1.135e+01,1.442e+01,1.212e+01,1.381e+01,1.098e+01,1.250e+01,1.558e+01,1.361e+01,1.500e+01,1.451e+01,1.414e+01,1.333e+01,1.504e+01,1.357e+01,1.397e+01,1.382e+01,1.263e+01,1.509e+01,1.413e+01,1.740e+01,1.368e+01,1.485e+01,1.608e+01,1.552e+01,1.494e+01,1.444e+01,1.404e+01,1.431e+01,1.394e+01,1.582e+01,1.696e+01,1.444e+01,1.433e+01,1.343e+01,1.510e+01,1.555e+01,1.673e+01,1.462e+01,1.549e+01,1.257e+01,1.527e+01,1.403e+01,1.328e+01,1.822e+01,1.446e+01,1.522e+01,1.537e+01,1.523e+01,1.634e+01,1.517e+01,1.332e+01,1.413e+01,1.400e+01,1.481e+01,1.595e+01,1.363e+01
5.745e-02,8.614e-01,4.336e-01,1.374e+00,1.486e+00,7.398e-01,2.317e+00,1.255e+00,2.257e+00,2.891e+00,2.152e+00,2.804e+00,3.612e+00,3.942e+00,3.688e+00,2.594e+00,4.219e+00,4.374e+00,4.198e+00,5.130e+00,5.524e+00,4.420e+00,5.600e+00,4.768e+00,6.389e+00,6.120e+00,6.055e+00,5.676e+00,7.820e+00,8.321e+00,9.377e+00,8.430e+00,8.473e+00,7.959e+00,7.034e+00,7.840e+00,9.364e+00,1.171e+01,9.992e+00,1.021e+01,1.057e+01,1.072e+01,1.248e+01,1.040e+01,1.190e+01,9.240e+00,1.166e+01,8.850e+00,1.180e+01,1.355e+01,1.172e+01,1.195e+01,1.343e+01,1.258e+01,1.274e+01,1.255e+01,1.109e+01,1.065e+01,1.230e+01,1.113e+01,1.314e+01,1.249e+01,1.455e+01,1.197e+01,1.215e+01,1.497e+01,1.330e+01,1.372e+01,1.337e+01,1.201e+01,1.189e+01,1.280e+01,1.383e+01,1.407e+01,1.348e+01,1.334e+01,1.208e+01,1.369e+01,1.369e+01,1.464e+01,1.217e+01,1.363e+01,1.243e+01,1.370e+01,1.258e+01,1.262e+01,1.502e+01,1.288e+01,1.345e+01,1.379e+01,1.301e+01,1.344e+01,1.265e+01,1.317e+01,1.166e+01,1.276e+01,1.318e+01,1.327e+01,1.223e+01
1.262e-01,5.900e-01,4.985e-01,5.121e-01,8.964e-01,1.026e+00,1.555e+00,1.406e+00,2.206e+00,2.541e+00,2.179e+00,2.233e+00,4.128e+00,3.767e+00,4.532e+00,3.849e+00,3.930e+00,5.890e+00,4.967e+00,5.462e+00,4.545e+00,4.879e+00,6.082e+00,3.883e+00,6.868e+00,4.898e+00,5.535e+00,5.314e+00,6.617e+00,8.357e+00,8.978e+00,8.234e+00,8.864e+00,9.126e+00,8.021e+00,8.109e+00,1.029e+01,1.119e+01,1.050e+01,1.034e+01,1.010e+01,1.177e+01,1.353e+01,1.087e+01,1.318e+01,1.136e+01,1.298e+01,1.022e+01,1.206e+01,1.362e+01,1.285e+01,1.354e+01,1.386e+01,1.358e+01,1.334e+01,1.358e+01,1.254e+01,1.330e+01,1.313e+01,1.327e+01,1.454e+01,1.247e+01,1.612e+01,1.288e+01,1.318e+01,1.616e+01,1.496e+01,1.396e+01,1.402e+01,1.308e+01,1.358e+01,1.401e+01,1.403e+01,1.551e+01,1.382e+01,1.221e+01,1.324e+01,1.463e+01,1.437e+01,1.693e+01,1.389e+01,1.485e+01,1.104e+01,1.462e+01,1.290e+01,1.351e+01,1.607e+01,1.399e+01,1.467e+01,1.371e+01,1.455e+01,1.562e+01,1.637e+01,1.363e+01,1.386e+01,1.476e+01,1.349e+01,1.535e+01,1.267e+01
2.897e-01,9.932e-01,1.047e+00,1.351e+00,1.552e+00,9.998e-01,2.233e+00,1.712e+00,2.548e+00,3.243e+00,2.968e+00,3.280e+00,4.436e+00,5.018e+00,5.292e+00,3.247e+00,4.611e+00,4.810e+00,4.768e+00,5.608e+00,5.414e+00,4.667e+00,6.077e+00,4.992e+00,6.165e+00,5.978e+00,6.427e+00,6.426e+00,7.856e+00,8.020e+00,8.399e+00,8.492e+00,9.062e+00,8.002e+00,7.386e+00,6.946e+00,9.292e+00,1.061e+01,8.505e+00,9.723e+00,9.907e+00,1.016e+01,1.029e+01,8.932e+00,1.132e+01,9.248e+00,1.019e+01,9.306e+00,1.148e+01,1.189e+01,1.077e+01,1.273e+01,1.318e+01,1.115e+01,1.210e+01,1.185e+01,1.114e+01,1.241e+01,1.222e+01,1.039e+01,1.340e+01,1.223e+01,1.449e+01,1.305e+01,1.280e+01,1.334e+01,1.367e+01,1.298e+01,1.220e+01,1.209e+01,1.257e+01,1.187e+01,1.452e+01,1.365e+01,1.284e+01,1.192e+01,1.122e+01,1.222e+01,1.353e+01,1.493e+01,1.236e+01,1.266e+01,9.799e+00,1.299e+01,1.154e+01,1.252e+01,1.454e+01,1.304e+01,1.433e+01,1.328e+01,1.249e+01,1.445e+01,1.290e+01,1.135e+01,1.355e+01,1.252e+01,1.354e+01,1.383e+01,1.207e+01
1.474e-01,3.765e-01,4.124e-01,7.690e-01,1.063e+00,8.983e-01,1.978e+00,1.499e+00,2.666e+00,2.812e+00,2.103e+00,2.573e+00,4.113e+00,3.484e+00,3.912e+00,2.855e+00,3.770e+00,5.316e+00,3.462e+00,4.462e+00,3.954e+00,3.932e+00,5.135e+00,3.370e+00,5.623e+00,5.631e+00,5.762e+00,5.914e+00,6.439e+00,7.717e+00,8.194e+00,8.139e+00,8.440e+00,7.987e+00,7.170e+00,6.814e+00,8.756e+00,1.091e+01,9.178e+00,9.827e+00,9.621e+00,9.286e+00,1.095e+01,7.810e+00,1.109e+01,9.232e+00,9.670e+00,9.132e+00,1.039e+01,1.123e+01,9.493e+00,1.059e+01,1.259e+01,1.208e+01,1.212e+01,1.135e+01,1.193e+01,1.155e+01,1.165e+01,1.092e+01,1.241e+01,1.155e+01,1.198e+01,1.187e+01,1.102e+01,1.344e+01,1.336e+01,1.178e+01,1.137e+01,1.080e+01,1.095e+01,1.204e+01,1.250e+01,1.288e+01,1.068e+01,1.113e+01,1.096e+01,1.216e+01,1.160e+01,1.532e+01,1.170e+01,1.334e+01,9.447e+00,1.287e+01,1.248e+01,1.041e+01,1.268e+01,1.263e+01,1.255e+01,1.085e+01,1.140e+01,1.354e+01,1.134e+01,1.132e+01,1.218e+01,1.146e+01,1.199e+01,1.272e+01,1.050e+01
2.790e-01,8.942e-01,1.195e+00,1.611e+00,1.672e+00,1.256e+00,2.248e+00,1.790e+00,2.519e+00,2.731e+00,2.905e+00,2.724e+00,4.216e+00,4.845e+00,5.617e+00,3.415e+00,4.649e+00,4.985e+00,5.131e+00,5.507e+00,5.047e+00,4.857e+00,5.749e+00,5.074e+00,5.631e+00,5.412e+00,5.905e+00,5.554e+00,7.208e+00,7.377e+00,8.362e+00,7.059e+00,6.967e+00,8.158e+00,7.416e+00,8.069e+00,1.001e+01,1.017e+01,9.394e+00,9.879e+00,9.281e+00,9.961e+00,1.143e+01,8.763e+00,1.217e+01,1.001e+01,1.033e+01,8.959e+00,1.034e+01,1.245e+01,1.127e+01,1.338e+01,1.342e+01,1.328e+01,1.211e+01,1.344e+01,1.181e+01,1.327e+01,1.267e+01,1.239e+01,1.316e+01,1.275e+01,1.398e+01,1.399e+01,1.369e+01,1.396e+01,1.486e+01,1.364e+01,1.345e+01,1.340e+01,1.402e+01,1.342e+01,1.388e+01,1.521e+01,1.255e+01,1.291e+01,1.156e+01,1.405e+01,1.436e+01,1.658e+01,1.340e+01,1.372e+01,1.166e+01,1.393e+01,1.399e+01,1.257e+01,1.435e+01,1.272e+01,1.465e+01,1.396e+01,1.266e+01,1.449e+01,1.286e+01,1.211e+01,1.291e+01,1.233e+01,1.421e+01,1.450e+01,1.203e+01
3.829e-02,1.164e-01,2.878e-01,4.948e-01,6.016e-01,8.142e-01,1.102e+00,1.043e+00,1.458e+00,1.374e+00,1.195e+00,1.479e+00,2.640e+00,2.182e+00,3.342e+00,2.267e+00,3.351e+00,4.463e+00,3.230e+00,3.737e+00,3.732e+00,3.653e+00,4.161e+00,3.500e+00,5.371e+00,4.819e+00,4.535e+00,5.634e+00,6.531e+00,7.318e+00,7.398e+00,7.009e+00,7.745e+00,8.457e+00,7.268e+00,7.415e+00,9.569e+00,9.771e+00,9.049e+00,8.977e+00,9.782e+00,9.871e+00,1.174e+01,8.910e+00,1.120e+01,8.963e+00,9.954e+00,8.273e+00,9.846e+00,1.123e+01,1.019e+01,1.199e+01,1.247e+01,1.263e+01,1.407e+01,1.383e+01,1.267e+01,1.363e+01,1.323e+01,1.222e+01,1.232e+01,1.421e+01,1.391e+01,1.317e+01,1.431e+01,1.480e+01,1.591e+01,1.404e+01,1.316e+01,1.142e+01,1.412e+01,1.411e+01,1.442e+01,1.645e+01,1.268e+01,1.332e+01,1.257e+01,1.431e+01,1.303e+01,1.623e+01,1.422e+01,1.527e+01,1.252e+01,1.188e+01,1.388e+01,1.324e+01,1.568e+01,1.244e+01,1.447e+01,1.320e+01,1.472e+01,1.510e+01,1.494e+01,1.239e+01,1.403e+01,1.404e+01,1.444e+01,1.508e+01,1.133e+01
1.177e-01,3.855e-01,8.909e-01,1.033e+00,1.732e+00,1.332e+00,1.959e+00,1.901e+00,2.562e+00,2.603e+00,2.375e+00,2.535e+00,4.058e+00,4.049e+00,4.622e+00,2.906e+00,4.119e+00,4.978e+00,4.083e+00,4.629e+00,4.140e+00,4.664e+00,4.476e+00,4.264e+00,5.916e+00,5.780e+00,6.599e+00,5.691e+00,7.238e+00,7.548e+00,7.933e+00,7.624e+00,7.822e+00,8.159e+00,7.445e+00,7.468e+00,9.372e+00,1.067e+01,9.429e+00,1.038e+01,1.041e+01,9.934e+00,1.138e+01,9.208e+00,1.218e+01,9.288e+00,9.335e+00,9.735e+00,1.157e+01,1.227e+01,1.118e+01,1.256e+01,1.330e+01,1.452e+01,1.406e+01,1.368e+01,1.275e+01,1.433e+01,1.447e+01,1.285e+01,1.532e+01,1.336e+01,1.486e+01,1.377e+01,1.294e+01,1.448e+01,1.607e+01,1.435e+01,1.463e+01,1.221e+01,1.375e+01,1.238e+01,1.494e+01,1.529e+01,1.243e+01,1.337e+01,1.340e+01,1.389e+01,1.425e+01,1.665e+01,1.528e+01,1.416e+01,1.191e+01,1.429e+01,1.403e+01,1.316e+01,1.612e+01,1.387e+01,1.390e+01,1.293e+01,1.384e+01,1.562e+01,1.299e+01,1.325e+01,1.302e+01,1.454e+01,1.398e+01,1.541e+01,1.171e+01
5.039e-01,8.757e-01,1.461e+00,2.216e+00,1.942e+00,1.104e+00,3.036e+00,2.095e+00,3.227e+00,2.675e+00,3.141e+00,3.227e+00,4.845e+00,4.957e+00,6.069e+00,4.055e+00,5.351e+00,7.398e+00,5.490e+00,7.053e+00,5.694e+00,4.715e+00,6.842e+00,4.985e+00,6.296e+00,6.978e+00,6.329e+00,6.988e+00,8.737e+00,8.711e+00,1.017e+01,8.586e+00,9.655e+00,1.025e+01,8.803e+00,8.099e+00,1.085e+01,1.375e+01,1.299e+01,1.291e+01,1.120e+01,1.166e+01,1.445e+01,9.623e+00,1.446e+01,1.173e+01,1.127e+01,1.032e+01,1.233e+01,1.413e+01,1.141e+01,1.421e+01,1.487e+01,1.402e+01,1.512e+01,1.590e+01,1.601e+01,1.569e+01,1.464e+01,1.623e+01,1.536e+01,1.475e+01,1.567e+01,1.567e+01,1.636e+01,1.688e+01,1.792e+01,1.486e+01,1.653e+01,1.583e+01,1.528e+01,1.561e+01,1.634e+01,1.742e+01,1.466e+01,1.634e+01,1.474e+01,1.654e+01,1.685e+01,1.877e+01,1.567e+01,1.823e+01,1.375e+01,1.685e+01,1.682e+01,1.410e+01,1.776e+01,1.451e+01,1.593e+01,1.524e+01,1.564e+01,1.743e+01,1.398e+01,1.485e+01,1.401e+01,1.459e+01,1.498e+01,1.642e+01,1.369e+01
3.223e-01,8.971e-01,7.587e-01,1.268e+00,1.303e+00,1.243e+00,2.028e+00,1.833e+00,3.049e+00,2.975e+00,2.835e+00,2.713e+00,4.333e+00,4.260e+00,5.161e+00,3.601e+00,4.711e+00,5.558e+00,4.307e+00,4.994e+00,4.071e+00,3.955e+00,5.077e+00,4.431e+00,5.701e+00,5.221e+00,6.124e+00,4.307e+00,5.872e+00,7.015e+00,7.440e+00,6.409e+00,6.596e+00,7.999e+00,6.544e+00,6.551e+00,8.652e+00,9.566e+00,9.274e+00,1.065e+01,8.767e+00,9.533e+00,1.113e+01,9.194e+00,1.145e+01,8.430e+00,9.140e+00,9.149e+00,1.034e+01,1.114e+01,1.035e+01,1.241e+01,1.188e+01,1.312e+01,1.274e+01,1.298e+01,1.110e+01,1.347e+01,1.373e+01,1.377e+01,1.384e+01,1.279e+01,1.493e+01,1.262e+01,1.322e+01,1.443e+01,1.581e+01,1.431e+01,1.355e+01,1.199e+01,1.309e+01,1.387e+01,1.364e+01,1.478e+01,1.245e+01,1.250e+01,1.323e+01,1.447e+01,1.341e+01,1.597e+01,1.389e+01,1.361e+01,1.210e+01,1.418e+01,1.313e+01,1.333e+01,1.525e+01,1.291e+01,1.450e+01,1.383e+01,1.306e+01,1.519e+01,1.319e+01,1.355e+01,1.213e+01,1.407e+01,1.408e+01,1.432e+01,1.325e+01
2.763e-01,6.353e-01,7.624e-01,1.302e+00,1.484e+00,9.405e-01,1.838e+00,1.603e+00,2.776e+00,2.710e+00,2.891e+00,2.709e+00,4.298e+00,4.459e+00,5.400e+00,3.912e+00,5.372e+00,6.868e+00,5.696e+00,6.696e+00,5.871e+00,5.918e+00,6.815e+00,5.629e+00,7.426e+00,7.075e+00,7.509e+00,6.592e+00,8.591e+00,9.282e+00,1.040e+01,9.189e+00,9.699e+00,9.471e+00,8.431e+00,8.571e+00,1.107e+01,1.274e+01,1.058e+01,1.200e+01,1.099e+01,1.145e+01,1.296e+01,1.096e+01,1.440e+01,1.151e+01,1.231e+01,1.194e+01,1.309e+01,1.468e+01,1.378e+01,1.505e+01,1.628e+01,1.331e+01,1.537e+01,1.601e+01,1.406e+01,1.553e+01,1.686e+01,1.416e+01,1.578e+01,1.630e+01,1.807e+01,1.574e+01,1.597e+01,1.854e+01,1.795e+01,1.824e+01,1.656e+01,1.586e+01,1.570e+01,1.752e+01,1.751e+01,1.880e+01,1.567e+01,1.588e+01,1.609e+01,1.729e+01,1.772e+01,1.931e+01,1.590e+01,1.763e+01,1.411e+01,1.640e+01,1.557e+01,1.678e+01,1.805e+01,1.613e+01,1.712e+01,1.717e+01,1.531e+01,1.789e+01,1.619e+01,1.465e+01,1.624e+01,1.663e+01,1.716e+01,1.770e+01,1.433e+01
7.430e-02,4.420e-01,7.754e-01,1.208e+00,1.438e+00,8.651e-01,1.737e+00,1.234e+00,1.537e+00,1.492e+00,1.927e+00,1.994e+00,3.042e+00,4.034e+00,4.578e+00,3.121e+00,4.131e+00,4.804e+00,5.054e+00,5.281e+00,4.746e+00,4.239e+00,4.550e+00,4.092e+00,5.868e+00,5.408e+00,5.209e+00,6.001e+00,7.383e+00,7.186e+00,7.868e+00,6.879e+00,7.929e+00,8.023e+00,6.235e+00,6.797e+00,8.162e+00,1.066e+01,9.116e+00,8.599e+00,8.925e+00,8.857e+00,1.101e+01,8.857e+00,1.129e+01,8.713e+00,1.041e+01,9.583e+00,1.052e+01,1.174e+01,9.776e+00,1.126e+01,1.182e+01,1.193e+01,1.269e+01,1.272e+01,1.125e+01,1.343e+01,1.301e+01,1.247e+01,1.258e+01,1.377e+01,1.347e+01,1.426e+01,1.390e+01,1.444e+01,1.453e+01,1.533e+01,1.463e+01,1.329e+01,1.359e+01,1.347e+01,1.625e+01,1.613e+01,1.386e+01,1.370e+01,1.276e+01,1.399e+01,1.458e+01,1.468e+01,1.390e+01,1.691e+01,1.194e+01,1.278e+01,1.424e+01,1.302e+01,1.472e+01,1.227e+01,1.477e+01,1.491e+01,1.349e+01,1.407e+01,1.413e+01,1.289e+01,1.380e+01,1.396e+01,1.507e+01,1.505e+01,1.148e+01
1.982e-02,6.177e-01,2.983e-01,7.067e-01,6.973e-01,5.585e-01,1.831e+00,1.119e+00,1.948e+00,2.799e+00,2.229e+00,2.532e+00,3.434e+00,3.243e+00,2.983e+00,2.749e+00,3.118e+00,3.992e+00,4.312e+00,4.577e+00,4.728e+00,4.534e+00,5.138e+00,3.868e+00,5.086e+00,4.543e+00,4.916e+00,4.599e+00,6.401e+00,7.730e+00,8.685e+00,7.354e+00,7.142e+00,6.884e+00,6.856e+00,7.502e+00,9.229e+00,9.123e+00,8.054e+00,9.211e+00,8.992e+00,9.911e+00,1.114e+01,9.237e+00,1.127e+01,8.418e+00,9.627e+00,8.049e+00,1.007e+01,1.078e+01,1.102e+01,1.238e+01,1.133e+01,1.188e+01,1.149e+01,1.358e+01,1.282e+01,1.215e+01,1.322e+01,1.349e+01,1.403e+01,1.445e+01,1.556e+01,1.437e+01,1.447e+01,1.527e+01,1.486e+01,1.415e+01,1.508e+01,1.452e+01,1.429e+01,1.431e+01,1.521e+01,1.718e+01,1.393e+01,1.439e+01,1.339e+01,1.635e+01,1.409e+01,1.778e+01,1.307e+01,1.540e+01,1.347e+01,1.294e+01,1.452e+01,1.458e+01,1.642e+01,1.523e+01,1.422e+01,1.461e+01,1.434e+01,1.488e+01,1.451e+01,1.259e+01,1.482e+01,1.412e+01,1.574e+01,1.563e+01,1.364e+01
3.055e-01,1.094e+00,7.720e-01,1.260e+00,1.313e+00,1.264e+00,2.675e+00,2.111e+00,3.502e+00,3.839e+00,3.567e+00,3.650e+00,4.853e+00,5.186e+00,5.299e+00,3.801e+00,5.077e+00,5.866e+00,5.206e+00,5.546e+00,5.181e+00,5.347e+00,5.397e+00,4.526e+00,5.540e+00,5.219e+00,6.507e+00,4.044e+00,7.047e+00,7.311e+00,8.986e+00,8.033e+00,8.177e+00,8.242e+00,7.678e+00,7.446e+00,8.993e+00,1.038e+01,9.160e+00,1.164e+01,9.229e+00,1.221e+01,1.331e+01,1.136e+01,1.323e+01,1.066e+01,1.172e+01,1.045e+01,1.159e+01,1.349e+01,1.187e+01,1.332e+01,1.379e+01,1.359e+01,1.323e+01,1.481e+01,1.494e+01,1.457e+01,1.632e+01,1.543e+01,1.553e+01,1.624e+01,1.789e+01,1.625e+01,1.616e+01,1.933e+01,1.889e+01,1.718e+01,1.707e+01,1.668e+01,1.607e+01,1.810e+01,1.684e+01,1.889e+01,1.551e+01,1.612e+01,1.598e+01,1.808e+01,1.666e+01,1.951e+01,1.666e+01,1.715e+01,1.516e+01,1.699e+01,1.597e+01,1.669e+01,1.818e+01,1.768e+01,1.531e+01,1.666e+01,1.524e+01,1.778e+01,1.525e+01,1.457e+01,1.568e+01,1.597e+01,1.782e+01,1.752e+01,1.577e+01
2.400e-01,4.543e-01,5.325e-01,6.478e-01,7.757e-01,4.225e-01,1.360e+00,1.035e+00,1.878e+00,2.125e+00,2.303e+00,2.387e+00,3.447e+00,3.797e+00,4.761e+00,3.054e+00,4.179e+00,5.443e+00,4.612e+00,6.017e+00,5.637e+00,5.118e+00,6.818e+00,5.137e+00,6.445e+00,6.164e+00,5.795e+00,5.029e+00,8.177e+00,8.423e+00,9.002e+00,9.079e+00,9.098e+00,8.992e+00,8.016e+00,7.015e+00,1.049e+01,1.125e+01,1.026e+01,1.037e+01,1.076e+01,1.036e+01,1.293e+01,8.824e+00,1.332e+01,1.089e+01,1.292e+01,1.028e+01,1.206e+01,1.369e+01,1.280e+01,1.400e+01,1.426e+01,1.360e+01,1.408e+01,1.428e+01,1.359e+01,1.386e+01,1.571e+01,1.375e+01,1.622e+01,1.550e+01,1.785e+01,1.498e+01,1.656e+01,1.773e+01,1.737e+01,1.666e+01,1.676e+01,1.674e+01,1.562e+01,1.727e+01,1.775e+01,1.831e+01,1.447e+01,1.622e+01,1.519e+01,1.663e+01,1.777e+01,1.938e+01,1.592e+01,1.884e+01,1.526e+01,1.679e+01,1.612e+01,1.636e+01,1.910e+01,1.794e+01,1.584e+01,1.663e+01,1.656e+01,1.766e+01,1.617e+01,1.475e+01,1.675e+01,1.570e+01,1.773e+01,1.802e+01,1.611e+01
2.734e-02,9.437e-02,5.920e-01,1.384e+00,1.711e+00,1.299e+00,2.098e+00,1.670e+00,2.456e+00,1.722e+00,1.866e+00,1.854e+00,3.046e+00,2.918e+00,4.283e+00,3.023e+00,4.384e+00,5.786e+00,4.416e+00,5.267e+00,4.225e+00,3.749e+00,4.449e+00,3.768e+00,6.413e+00,6.148e+00,5.619e+00,5.074e+00,6.702e+00,7.669e+00,8.320e+00,7.476e+00,8.434e+00,9.573e+00,6.617e+00,7.361e+00,9.035e+00,1.090e+01,9.907e+00,9.635e+00,9.509e+00,1.062e+01,1.211e+01,8.910e+00,1.167e+01,9.909e+00,1.000e+01,8.153e+00,1.091e+01,1.160e+01,1.128e+01,1.249e+01,1.215e+01,1.199e+01,1.237e+01,1.265e+01,1.134e+01,1.314e+01,1.428e+01,1.308e+01,1.384e+01,1.459e+01,1.633e+01,1.535e+01,1.578e+01,1.681e+01,1.715e+01,1.498e+01,1.666e+01,1.476e+01,1.521e+01,1.686e+01,1.702e+01,1.827e+01,1.441e+01,1.411e+01,1.505e+01,1.641e+01,1.578e+01,1.735e+01,1.551e+01,1.826e+01,1.388e+01,1.478e+01,1.594e+01,1.531e+01,1.741e+01,1.578e+01,1.697e+01,1.653e+01,1.571e+01,1.609e+01,1.705e+01,1.434e+01,1.622e+01,1.598e+01,1.718e+01,1.742e+01,1.495e+01
2.232e-01,6.405e-01,9.742e-01,1.634e+00,1.412e+00,1.213e+00,2.494e+00,1.965e+00,2.661e+00,2.607e+00,2.635e+00,3.001e+00,4.381e+00,4.068e+00,5.402e+00,3.929e+00,5.252e+00,6.744e+00,5.624e+00,6.353e+00,5.618e+00,4.474e+00,5.967e+00,5.444e+00,7.273e+00,6.449e+00,6.667e+00,5.194e+00,7.322e+00,7.976e+00,1.001e+01,8.237e+00,8.616e+00,9.220e+00,7.512e+00,7.273e+00,9.685e+00,1.178e+01,1.095e+01,9.947e+00,9.036e+00,1.069e+01,1.284e+01,1.006e+01,1.210e+01,1.003e+01,1.098e+01,9.900e+00,1.064e+01,1.141e+01,1.091e+01,1.215e+01,1.291e+01,1.104e+01,1.310e+01,1.361e+01,1.225e+01,1.287e+01,1.385e+01,1.292e+01,1.365e+01,1.400e+01,1.518e+01,1.495e+01,1.632e+01,1.695e+01,1.660e+01,1.625e+01,1.512e+01,1.524e+01,1.488e+01,1.591e+01,1.663e+01,1.806e+01,1.524e+01,1.496e+01,1.410e+01,1.594e+01,1.623e+01,1.661e+01,1.635e+01,1.782e+01,1.271e+01,1.487e+01,1.576e+01,1.636e+01,1.810e+01,1.414e+01,1.671e+01,1.488e+01,1.630e+01,1.678e+01,1.648e+01,1.504e+01,1.587e+01,1.423e+01,1.591e+01,1.679e+01,1.464e+01
2.954e-01,8.928e-01,1.079e+00,1.874e+00,1.381e+00,1.152e+00,3.036e+00,1.999e+00,2.901e+00,3.162e+00,2.784e+00,3.440e+00,4.724e+00,4.829e+00,5.128e+00,3.462e+00,5.061e+00,5.736e+00,5.219e+00,5.777e+00,5.920e+00,4.411e+00,6.105e+00,5.037e+00,6.595e+00,5.980e+00,6.840e+00,6.904e+00,8.073e+00,8.104e+00,8.762e+00,9.053e+00,8.713e+00,9.730e+00,8.511e+00,8.045e+00,1.045e+01,1.298e+01,1.131e+01,1.230e+01,1.108e+01,1.227e+01,1.263e+01,9.982e+00,1.213e+01,9.939e+00,1.057e+01,9.865e+00,1.267e+01,1.403e+01,1.109e+01,1.291e+01,1.472e+01,1.374e+01,1.480e+01,1.534e+01,1.462e+01,1.452e+01,1.514e+01,1.545e+01,1.615e+01,1.609e+01,1.689e+01,1.680e+01,1.755e+01,1.774e+01,1.890e+01,1.740e+01,1.730e+01,1.669e+01,1.803e+01,1.898e+01,1.899e+01,1.872e+01,1.614e+01,1.604e+01,1.590e+01,1.863e+01,1.751e+01,2.128e+01,1.686e+01,1.799e+01,1.597e+01,1.678e+01,1.913e+01,1.625e+01,1.978e+01,1.692e+01,1.703e+01,1.780e+01,1.721e+01,1.839e+01,1.675e+01,1.681e+01,1.609e+01,1.730e+01,1.748e+01,1.858e+01,1.586e+01
2.812e-01,9.229e-01,9.876e-01,1.616e+00,1.701e+00,8.885e-01,2.537e+00,1.807e+00,2.820e+00,3.057e+00,2.613e+00,3.090e+00,4.859e+00,4.922e+00,4.456e+00,3.308e+00,4.148e+00,4.920e+00,4.099e+00,5.380e+00,4.778e+00,4.090e+00,5.997e+00,5.165e+00,6.681e+00,6.138e+00,6.685e+00,6.529e+00,8.136e+00,9.560e+00,8.976e+00,1.006e+01,8.563e+00,8.813e+00,8.016e+00,7.588e+00,9.659e+00,1.154e+01,8.473e+00,1.081e+01,1.031e+01,1.023e+01,1.193e+01,9.269e+00,1.381e+01,9.466e+00,1.239e+01,9.747e+00,1.204e+01,1.275e+01,1.205e+01,1.213e+01,1.405e+01,1.308e+01,1.493e+01,1.487e+01,1.438e+01,1.493e+01,1.658e+01,1.377e+01,1.621e+01,1.589e+01,1.711e+01,1.678e+01,1.750e+01,1.775e+01,1.976e+01,1.828e+01,1.966e+01,1.713e+01,1.765e+01,1.896e+01,1.964e+01,2.018e+01,1.625e+01,1.631e+01,1.636e+01,1.807e+01,1.815e+01,1.916e+01,1.850e+01,1.935e+01,1.718e+01,1.675e+01,1.743e+01,1.903e+01,1.863e+01,1.770e+01,1.855e+01,1.841e+01,1.902e+01,1.925e+01,1.662e+01,1.615e+01,1.803e+01,1.714e+01,1.950e+01,1.935e+01,1.571e+01
3.571e-01,1.135e+00,1.315e+00,1.677e+00,1.639e+00,1.052e+00,2.402e+00,1.984e+00,2.518e+00,2.743e+00,2.739e+00,3.037e+00,4.406e+00,4.852e+00,5.190e+00,3.488e+00,5.040e+00,5.953e+00,5.598e+00,6.726e+00,6.258e+00,5.524e+00,6.265e+00,5.857e+00,6.978e+00,6.274e+00,6.788e+00,6.234e+00,7.595e+00,8.340e+00,9.640e+00,8.571e+00,8.511e+00,8.739e+00,7.666e+00,8.266e+00,1.056e+01,1.107e+01,1.072e+01,1.180e+01,1.037e+01,1.219e+01,1.312e+01,1.039e+01,1.453e+01,1.070e+01,1.229e+01,1.099e+01,1.299e+01,1.322e+01,1.305e+01,1.472e+01,1.522e+01,1.531e+01,1.601e+01,1.575e+01,1.540e+01,1.640e+01,1.765e+01,1.574e+01,1.601e+01,1.779e+01,1.860e+01,1.677e+01,1.878e+01,1.955e+01,2.096e+01,1.945e+01,1.917e+01,2.025e+01,1.917e+01,2.002e+01,2.097e+01,2.323e+01,1.855e+01,1.958e+01,1.832e+01,2.021e+01,1.945e+01,2.197e+01,1.926e+01,2.123e+01,1.831e+01,1.887e+01,1.881e+01,1.932e+01,2.196e+01,1.755e+01,1.784e+01,2.019e+01,2.057e+01,2.019e+01,1.766e+01,1.730e+01,1.837e+01,1.958e+01,2.101e+01,2.059e+01,1.830e+01
3.785e-02,3.488e-01,2.769e-01,7.135e-01,1.064e+00,8.934e-01,1.764e+00,1.459e+00,2.449e+00,3.090e+00,2.530e+00,3.201e+00,4.486e+00,4.338e+00,4.884e+00,3.975e+00,4.730e+00,5.726e+00,4.537e+00,5.366e+00,4.580e+00,5.032e+00,5.802e+00,4.312e+00,5.886e+00,5.725e+00,6.271e+00,5.689e+00,7.840e+00,8.335e+00,8.991e+00,7.976e+00,8.670e+00,7.978e+00,7.556e+00,7.110e+00,9.003e+00,1.131e+01,9.386e+00,1.036e+01,9.963e+00,1.017e+01,1.158e+01,9.626e+00,1.216e+01,9.429e+00,1.059e+01,9.335e+00,1.073e+01,1.275e+01,1.058e+01,1.140e+01,1.240e+01,1.139e+01,1.342e+01,1.356e+01,1.212e+01,1.364e+01,1.354e+01,1.427e+01,1.507e+01,1.438e+01,1.613e+01,1.473e+01,1.539e+01,1.772e+01,1.677e+01,1.766e+01,1.803e+01,1.682e+01,1.706e+01,1.841e+01,1.825e+01,1.968e+01,1.614e+01,1.556e+01,1.698e+01,1.859e+01,1.772e+01,1.877e+01,1.665e+01,1.899e+01,1.723e+01,1.675e+01,1.645e+01,1.635e+01,1.993e+01,1.568e+01,1.617e+01,1.775e+01,1.772e+01,1.786e+01,1.544e+01,1.650e+01,1.669e+01,1.573e+01,1.891e+01,1.858e+01,1.628e+01
4.710e-01,7.178e-01,7.708e-01,9.369e-01,3.891e-01,7.668e-01,1.442e+00,1.155e+00,1.983e+00,2.143e+00,2.224e+00,2.504e+00,3.125e+00,3.417e+00,4.418e+00,2.678e+00,4.010e+00,4.991e+00,3.363e+00,4.488e+00,3.769e+00,3.653e+00,5.373e+00,4.017e+00,5.646e+00,3.948e+00,4.175e+00,4.786e+00,6.632e+00,6.462e+00,7.139e+00,6.445e+00,6.134e+00,8.419e+00,6.685e+00,6.643e+00,8.708e+00,9.419e+00,9.545e+00,9.854e+00,9.507e+00,1.059e+01,1.294e+01,9.279e+00,1.195e+01,9.599e+00,1.139e+01,8.607e+00,1.072e+01,1.275e+01,1.138e+01,1.262e+01,1.350e+01,1.434e+01,1.416e+01,1.368e+01,1.258e+01,1.371e+01,1.360e+01,1.510e+01,1.421e+01,1.412e+01,1.469e+01,1.383e+01,1.593e+01,1.582e+01,1.730e+01,1.541e+01,1.762e+01,1.661e+01,1.683e+01,1.777e+01,1.696e+01,1.883e+01,1.588e+01,1.597e+01,1.484e+01,1.841e+01,1.798e+01,1.839e+01,1.768e+01,1.904e+01,1.581e+01,1.664e+01,1.748e+01,1.600e+01,1.919e+01,1.456e+01,1.701e+01,1.738e+01,1.735e+01,1.808e+01,1.556e+01,1.610e+01,1.466e+01,1.525e+01,1.664e+01,1.761e+01,1.485e+01
1.769e-01,4.355e-01,9.006e-01,1.078e+00,1.766e+00,1.219e+00,2.122e+00,1.707e+00,2.809e+00,3.047e+00,3.036e+00,2.895e+00,4.921e+00,4.864e+00,5.498e+00,3.564e+00,4.122e+00,5.795e+00,4.959e+00,5.555e+00,4.758e+00,4.772e+00,6.255e+00,4.330e+00,6.895e+00,5.644e+00,6.018e+00,5.792e+00,7.894e+00,8.276e+00,8.443e+00,8.504e+00,8.462e+00,8.307e+00,7.441e+00,7.845e+00,9.091e+00,1.113e+01,9.754e+00,1.023e+01,1.045e+01,1.110e+01,1.249e+01,9.576e+00,1.275e+01,1.132e+01,1.172e+01,1.022e+01,1.136e+01,1.234e+01,1.265e+01,1.394e+01,1.381e+01,1.308e+01,1.329e+01,1.486e+01,1.349e+01,1.516e+01,1.570e+01,1.345e+01,1.535e+01,1.538e+01,1.761e+01,1.513e+01,1.590e+01,1.754e+01,1.816e+01,1.672e+01,1.900e+01,1.760e+01,1.710e+01,1.799e+01,1.877e+01,1.978e+01,1.793e+01,1.582e+01,1.658e+01,1.838e+01,1.834e+01,1.889e+01,1.779e+01,1.886e+01,1.596e+01,1.812e+01,1.618e+01,1.757e+01,1.955e+01,1.847e+01,1.905e+01,1.839e+01,1.817e+01,1.846e+01,1.787e+01,1.704e+01,1.745e+01,1.789e+01,1.867e+01,2.158e+01,1.597e+01
3.834e-01,1.078e+00,8.042e-01,1.542e+00,1.073e+00,1.170e+00,2.136e+00,1.844e+00,2.769e+00,2.663e+00,2.767e+00,3.121e+00,4.252e+00,4.857e+00,4.908e+00,4.109e+00,4.641e+00,5.444e+00,4.314e+00,5.253e+00,4.503e+00,5.080e+00,6.264e+00,4.502e+00,6.071e+00,6.369e+00,6.849e+00,5.700e+00,7.816e+00,8.342e+00,8.722e+00,8.159e+00,8.436e+00,8.368e+00,7.538e+00,6.911e+00,1.012e+01,1.095e+01,1.032e+01,1.105e+01,9.519e+00,1.154e+01,1.337e+01,9.956e+00,1.486e+01,1.107e+01,1.287e+01,1.101e+01,1.157e+01,1.307e+01,1.220e+01,1.367e+01,1.450e+01,1.447e+01,1.408e+01,1.462e+01,1.460e+01,1.501e+01,1.571e+01,1.473e+01,1.671e+01,1.519e+01,1.728e+01,1.521e+01,1.732e+01,1.736e+01,1.973e+01,1.888e+01,1.920e+01,2.093e+01,2.027e+01,2.084e+01,1.868e+01,2.407e+01,1.958e+01,1.847e+01,1.966e+01,2.110e+01,1.970e+01,2.131e+01,2.158e+01,2.177e+01,1.812e+01,1.937e+01,2.004e+01,1.897e+01,2.303e+01,1.860e+01,1.946e+01,1.998e+01,2.110e+01,2.119e+01,1.911e+01,1.795e+01,1.840e+01,2.003e+01,2.041e+01,2.182e+01,1.959e+01
2.657e-01,4.556e-01,8.659e-01,1.311e+00,1.607e+00,1.234e+00,2.420e+00,1.791e+00,3.116e+00,3.112e+00,3.290e+00,3.229e+00,4.496e+00,5.033e+00,5.922e+00,3.619e+00,5.327e+00,6.986e+00,5.764e+00,6.450e+00,6.207e+00,5.980e+00,6.855e+00,5.765e+00,7.387e+00,7.448e+00,7.509e+00,5.978e+00,8.647e+00,8.819e+00,1.059e+01,8.797e+00,9.405e+00,1.025e+01,8.194e+00,8.181e+00,1.137e+01,1.296e+01,1.153e+01,1.175e+01,1.135e+01,1.170e+01,1.399e+01,1.057e+01,1.384e+01,9.904e+00,1.037e+01,1.082e+01,1.232e+01,1.277e+01,1.275e+01,1.448e+01,1.351e+01,1.540e+01,1.497e+01,1.715e+01,1.503e+01,1.603e+01,1.711e+01,1.597e+01,1.693e+01,1.787e+01,1.797e+01,1.744e+01,1.872e+01,1.914e+01,1.988e+01,1.799e+01,2.074e+01,1.970e+01,2.002e+01,2.094e+01,2.118e+01,2.358e+01,1.954e+01,1.912e+01,2.060e+01,2.128e+01,2.043e+01,2.286e+01,1.999e+01,2.309e+01,1.835e+01,2.072e+01,2.020e+01,2.014e+01,2.343e+01,2.005e+01,2.173e+01,2.118e+01,2.085e+01,2.062e+01,2.045e+01,1.918e+01,1.904e+01,1.955e+01,2.167e+01,2.302e+01,2.078e+01
4.116e-01,1.356e+00,1.067e+00,1.840e+00,1.758e+00,8.509e-01,2.547e+00,1.656e+00,2.883e+00,2.717e+00,2.856e+00,2.534e+00,3.745e+00,4.365e+00,4.226e+00,3.173e+00,4.085e+00,5.125e+00,4.670e+00,5.374e+00,4.460e+00,3.931e+00,4.975e+00,4.098e+00,5.706e+00,5.927e+00,6.163e+00,5.634e+00,6.583e+00,7.382e+00,8.728e+00,7.127e+00,8.008e+00,7.726e+00,6.735e+00,6.423e+00,8.778e+00,1.043e+01,8.443e+00,1.008e+01,8.301e+00,9.612e+00,1.073e+01,9.672e+00,1.141e+01,9.138e+00,9.916e+00,8.707e+00,1.105e+01,1.262e+01,1.117e+01,1.107e+01,1.295e+01,1.135e+01,1.307e+01,1.436e+01,1.273e+01,1.301e+01,1.317e+01,1.344e+01,1.491e+01,1.475e+01,1.627e+01,1.482e+01,1.605e+01,1.726e+01,1.721e+01,1.613e+01,1.698e+01,1.696e+01,1.576e+01,1.921e+01,1.795e+01,2.150e+01,1.833e+01,1.745e+01,1.903e+01,1.925e+01,1.940e+01,1.918e+01,1.972e+01,2.007e+01,1.773e+01,1.920e+01,1.883e+01,1.794e+01,2.091e+01,1.834e+01,1.835e+01,1.824e+01,1.777e+01,1.942e+01,1.579e+01,1.729e+01,1.587e+01,1.903e+01,1.778e+01,1.893e+01,1.690e+01
3.313e-01,4.939e-01,5.672e-01,5.489e-01,5.884e-01,8.543e-01,1.312e+00,1.298e+00,2.184e+00,2.947e+00,2.686e+00,3.389e+00,4.041e+00,4.411e+00,5.192e+00,3.257e+00,4.351e+00,4.821e+00,3.332e+00,4.594e+00,4.351e+00,4.196e+00,6.213e+00,4.589e+00,5.964e+00,6.019e+00,6.315e+00,6.152e+00,8.713e+00,8.159e+00,7.754e+00,8.326e+00,8.454e+00,8.851e+00,7.440e+00,6.327e+00,8.454e+00,1.202e+01,1.048e+01,1.068e+01,1.132e+01,1.243e+01,1.320e+01,9.081e+00,1.299e+01,1.112e+01,1.286e+01,1.096e+01,1.301e+01,1.446e+01,1.296e+01,1.188e+01,1.460e+01,1.459e+01,1.461e+01,1.386e+01,1.357e+01,1.341e+01,1.604e+01,1.473e+01,1.688e+01,1.471e+01,1.596e+01,1.534e+01,1.497e+01,1.735e+01,1.800e+01,1.676e+01,1.812e+01,1.766e+01,1.710e+01,1.818e+01,1.892e+01,2.072e+01,1.847e+01,1.830e+01,1.897e+01,2.071e+01,2.019e+01,2.054e+01,1.998e+01,2.038e+01,1.875e+01,2.048e+01,1.967e+01,1.773e+01,2.132e+01,1.876e+01,1.979e+01,1.920e+01,2.028e+01,2.016e+01,1.915e+01,1.822e+01,1.731e+01,1.687e+01,1.964e+01,2.191e+01,1.796e+01
5.768e-02,4.324e-01,8.189e-01,1.543e+00,1.692e+00,1.272e+00,2.539e+00,1.889e+00,2.842e+00,2.969e+00,3.162e+00,3.150e+00,5.246e+00,5.144e+00,5.352e+00,3.786e+00,4.015e+00,4.888e+00,4.822e+00,5.159e+00,5.190e+00,5.005e+00,6.204e+00,5.013e+00,6.023e+00,5.868e+00,6.516e+00,5.861e+00,7.850e+00,8.228e+00,8.380e+00,8.382e+00,7.610e+00,8.270e+00,7.451e+00,7.990e+00,8.384e+00,1.097e+01,8.860e+00,1.003e+01,9.985e+00,1.093e+01,1.168e+01,9.271e+00,1.263e+01,1.087e+01,1.068e+01,9.756e+00,1.029e+01,1.270e+01,1.245e+01,1.272e+01,1.263e+01,1.295e+01,1.202e+01,1.447e+01,1.263e+01,1.331e+01,1.395e+01,1.360e+01,1.376e+01,1.463e+01,1.573e+01,1.535e+01,1.489e+01,1.627e+01,1.724e+01,1.442e+01,1.754e+01,1.576e+01,1.602e+01,1.795e+01,1.809e+01,2.003e+01,1.742e+01,1.626e+01,1.869e+01,1.780e+01,1.895e+01,1.840e+01,1.920e+01,1.946e+01,1.607e+01,1.848e+01,1.722e+01,1.793e+01,1.849e+01,1.742e+01,1.997e+01,1.824e+01,1.868e+01,1.898e+01,1.763e+01,1.654e+01,1.636e+01,1.735e+01,1.978e+01,2.139e+01,1.514e+01
2.014e-01,3.373e-01,4.701e-01,7.878e-01,7.583e-01,6.356e-01,1.652e+00,1.158e+00,2.331e+00,2.781e+00,2.719e+00,2.745e+00,3.916e+00,3.389e+00,4.198e+00,2.832e+00,3.502e+00,5.127e+00,3.995e+00,4.599e+00,4.205e+00,3.591e+00,5.365e+00,4.336e+00,5.362e+00,4.520e+00,4.658e+00,4.632e+00,6.395e+00,7.111e+00,7.705e+00,7.240e+00,7.533e+00,7.688e+00,6.772e+00,5.259e+00,8.078e+00,8.879e+00,7.983e+00,9.188e+00,9.085e+00,9.946e+00,1.205e+01,8.943e+00,1.221e+01,8.169e+00,1.043e+01,8.047e+00,1.024e+01,1.102e+01,1.084e+01,1.009e+01,1.207e+01,1.216e+01,1.258e+01,1.346e+01,1.155e+01,1.291e+01,1.412e+01,1.305e+01,1.259e+01,1.315e+01,1.505e+01,1.377e+01,1.455e+01,1.412e+01,1.618e+01,1.637e+01,1.682e+01,1.478e+01,1.497e+01,1.689e+01,1.688e+01,1.884e+01,1.565e+01,1.535e+01,1.635e+01,1.790e+01,1.777e+01,1.747e+01,1.802e+01,1.840e+01,1.524e+01,1.645e+01,1.793e+01,1.742e+01,1.818e+01,1.771e+01,1.775e+01,1.861e+01,1.954e+01,1.892e+01,1.658e+01,1.611e+01,1.553e+01,1.655e+01,1.894e+01,1.815e+01,1.601e+01
1.486e-01,6.098e-01,7.746e-01,8.283e-01,1.161e+00,8.084e-01,2.035e+00,1.554e+00,2.102e+00,2.780e+00,2.265e+00,3.013e+00,4.335e+00,4.070e+00,4.667e+00,3.099e+00,4.050e+00,5.161e+00,4.224e+00,5.247e+00,4.963e+00,3.986e+00,5.346e+00,4.644e+00,6.283e+00,5.347e+00,5.877e+00,5.985e+00,7.151e+00,7.980e+00,9.356e+00,8.871e+00,9.225e+00,9.511e+00,8.650e+00,7.107e+00,9.762e+00,1.231e+01,1.088e+01,1.168e+01,1.108e+01,1.212e+01,1.330e+01,1.048e+01,1.215e+01,9.774e+00,1.111e+01,9.503e+00,1.220e+01,1.311e+01,1.171e+01,1.175e+01,1.316e+01,1.355e+01,1.555e+01,1.423e+01,1.306e+01,1.365e+01,1.332e+01,1.327e+01,1.454e+01,1.539e+01,1.624e+01,1.604e+01,1.718e+01,1.697e+01,1.770e+01,1.482e+01,1.644e+01,1.529e+01,1.549e+01,1.830e+01,1.911e+01,2.047e+01,1.669e+01,1.623e+01,1.828e+01,1.916e+01,1.942e+01,1.910e+01,1.922e+01,2.085e+01,1.743e+01,1.855e+01,2.015e+01,1.867e+01,2.025e+01,1.839e+01,1.998e+01,1.902e+01,2.119e+01,1.896e+01,1.860e+01,1.976e+01,1.792e+01,1.938e+01,2.078e+01,1.984e+01,1.816e+01
5.155e-01,8.499e-01,8.763e-01,1.336e+00,6.897e-01,7.523e-01,1.843e+00,1.559e+00,2.734e+00,3.080e+00,2.859e+00,3.316e+00,4.635e+00,4.284e+00,5.195e+00,3.847e+00,4.998e+00,6.482e+00,4.510e+00,5.849e+00,4.624e+00,4.350e+00,6.842e+00,5.431e+00,6.605e+00,6.010e+00,6.146e+00,5.831e+00,7.423e+00,8.266e+00,8.341e+00,8.585e+00,8.238e+00,9.302e+00,7.872e+00,6.781e+00,9.618e+00,1.128e+01,1.055e+01,1.066e+01,1.072e+01,1.051e+01,1.270e+01,9.176e+00,1.223e+01,1.045e+01,1.129e+01,8.844e+00,1.062e+01,1.247e+01,1.084e+01,1.258e+01,1.387e+01,1.221e+01,1.312e+01,1.343e+01,1.306e+01,1.431e+01,1.442e+01,1.435e+01,1.517e+01,1.327e+01,1.633e+01,1.368e+01,1.614e+01,1.533e+01,1.792e+01,1.563e+01,1.724e+01,1.594e+01,1.681e+01,1.792e+01,1.702e+01,1.935e+01,1.636e+01,1.683e+01,1.842e+01,1.869e+01,1.986e+01,2.028e+01,1.988e+01,2.062e+01,1.856e+01,1.859e+01,1.941e+01,1.783e+01,2.086e+01,1.966e+01,1.861e+01,1.852e+01,2.089e+01,2.073e+01,1.873e+01,1.891e+01,1.656e+01,1.918e+01,2.000e+01,2.217e+01,1.977e+01
1.708e-01,4.404e-01,4.542e-01,1.364e+00,1.163e+00,8.993e-01,2.203e+00,1.626e+00,2.964e+00,2.730e+00,2.793e+00,2.763e+00,4.345e+00,3.244e+00,4.308e+00,3.971e+00,4.000e+00,5.884e+00,4.094e+00,5.026e+00,3.620e+00,3.012e+00,4.918e+00,3.837e+00,4.756e+00,4.687e+00,4.863e+00,4.162e+00,6.028e+00,6.949e+00,7.112e+00,6.149e+00,6.796e+00,6.892e+00,7.221e+00,5.082e+00,8.130e+00,8.805e+00,8.409e+00,9.467e+00,8.110e+00,8.923e+00,1.017e+01,7.934e+00,1.140e+01,8.342e+00,9.358e+00,8.464e+00,9.586e+00,1.140e+01,9.961e+00,1.163e+01,1.185e+01,1.137e+01,1.274e+01,1.364e+01,1.259e+01,1.196e+01,1.400e+01,1.263e+01,1.305e+01,1.418e+01,1.653e+01,1.405e+01,1.711e+01,1.572e+01,1.755e+01,1.596e+01,1.673e+01,1.795e+01,1.632e+01,1.790e+01,1.749e+01,1.984e+01,1.674e+01,1.668e+01,1.854e+01,2.027e+01,1.944e+01,2.055e+01,1.970e+01,2.098e+01,1.847e+01,1.872e+01,1.802e+01,1.926e+01,2.165e+01,1.845e+01,1.957e+01,1.954e+01,2.017e+01,2.123e+01,1.854e+01,1.932e+01,1.689e+01,1.797e+01,2.028e+01,2.133e+01,1.734e+01
5.009e-01,1.094e+00,1.561e+00,2.151e+00,1.485e+00,1.346e+00,3.196e+00,2.563e+00,3.275e+00,2.667e+00,3.143e+00,3.295e+00,5.329e+00,4.604e+00,6.296e+00,4.763e+00,5.598e+00,7.837e+00,6.149e+00,7.236e+00,5.885e+00,4.784e+00,6.814e+00,4.971e+00,7.217e+00,6.486e+00,6.659e+00,6.713e+00,9.251e+00,9.131e+00,1.048e+01,9.133e+00,1.017e+01,1.015e+01,9.440e+00,8.205e+00,1.142e+01,1.239e+01,1.148e+01,1.168e+01,1.046e+01,1.119e+01,1.403e+01,1.021e+01,1.362e+01,1.083e+01,1.138e+01,1.077e+01,1.180e+01,1.448e+01,1.166e+01,1.524e+01,1.455e+01,1.222e+01,1.454e+01,1.572e+01,1.527e+01,1.695e+01,1.562e+01,1.543e+01,1.521e+01,1.592e+01,1.710e+01,1.660e+01,1.769e+01,1.870e+01,1.910e+01,1.857e+01,1.852e+01,1.796e+01,1.812e+01,2.049e+01,2.055e+01,2.376e+01,1.918e+01,2.060e+01,2.132e+01,2.072e+01,2.245e+01,2.302e+01,2.289e+01,2.438e+01,2.096e+01,2.119e+01,2.099e+01,2.139e+01,2.501e+01,2.023e+01,2.138e+01,2.254e+01,2.236e+01,2.418e+01,2.151e+01,2.116e+01,2.023e+01,2.218e+01,2.302e+01,2.345e+01,2.069e+01
1.334e-01,8.770e-01,8.680e-01,1.244e+00,1.329e+00,1.298e+00,2.661e+00,2.047e+00,2.580e+00,2.795e+00,2.461e+00,3.020e+00,4.302e+00,4.291e+00,4.395e+00,3.779e+00,4.179e+00,5.699e+00,5.138e+00,5.994e+00,5.837e+00,5.196e+00,6.098e+00,4.555e+00,7.027e+00,6.213e+00,6.639e+00,6.455e+00,7.992e+00,9.418e+00,1.021e+01,9.221e+00,9.419e+00,9.645e+00,7.806e+00,8.780e+00,1.007e+01,1.176e+01,1.057e+01,1.094e+01,9.873e+00,1.151e+01,1.307e+01,1.056e+01,1.260e+01,9.704e+00,1.091e+01,8.875e+00,1.154e+01,1.300e+01,1.042e+01,1.299e+01,1.197e+01,1.122e+01,1.269e+01,1.512e+01,1.231e+01,1.418e+01,1.442e+01,1.305e+01,1.458e+01,1.661e+01,1.642e+01,1.541e+01,1.765e+01,1.672e+01,1.831e+01,1.711e+01,1.849e+01,1.883e+01,1.787e+01,1.921e+01,1.923e+01,2.205e+01,1.827e+01,1.837e+01,1.662e+01,1.994e+01,2.043e+01,2.044e+01,2.056e+01,2.149e+01,1.863e+01,1.798e+01,2.064e+01,2.095e+01,2.394e+01,1.962e+01,1.911e+01,2.132e+01,2.114e+01,2.058e+01,2.000e+01,2.075e+01,1.771e+01,1.977e+01,2.030e+01,2.188e+01,2.057e+01
4.847e-01,1.249e+00,1.411e+00,1.297e+00,1.272e+00,1.240e+00,2.166e+00,1.788e+00,2.301e+00,2.664e+00,2.837e+00,3.014e+00,4.401e+00,5.191e+00,4.988e+00,3.679e+00,4.081e+00,5.846e+00,5.288e+00,5.955e+00,5.395e+00,5.755e+00,6.533e+00,4.978e+00,7.338e+00,4.951e+00,5.992e+00,5.947e+00,8.049e+00,7.765e+00,8.959e+00,8.929e+00,8.020e+00,9.272e+00,7.858e+00,7.771e+00,1.092e+01,1.045e+01,1.076e+01,1.181e+01,1.051e+01,1.352e+01,1.400e+01,1.056e+01,1.495e+01,1.074e+01,1.324e+01,1.053e+01,1.258e+01,1.297e+01,1.365e+01,1.424e+01,1.524e+01,1.540e+01,1.531e+01,1.573e+01,1.457e+01,1.517e+01,1.518e+01,1.554e+01,1.646e+01,1.797e+01,1.929e+01,1.552e+01,1.755e+01,1.866e+01,2.020e+01,1.851e+01,1.877e+01,1.829e+01,1.964e+01,1.957e+01,2.159e+01,2.167e+01,1.884e+01,1.913e+01,1.927e+01,2.087e+01,2.218e+01,2.321e+01,2.141e+01,2.278e+01,1.935e+01,2.240e+01,1.933e+01,2.214e+01,2.357e+01,2.109e+01,2.053e+01,2.225e+01,2.258e+01,2.380e+01,2.147e+01,2.010e+01,2.102e+01,2.277e+01,2.304e+01,2.357e+01,2.057e+01
1.408e-01,2.971e-01,6.133e-01,1.202e+00,1.174e+00,9.797e-01,2.213e+00,1.447e+00,2.365e+00,2.036e+00,2.272e+00,2.313e+00,3.711e+00,3.986e+00,5.168e+00,3.511e+00,4.527e+00,5.731e+00,4.866e+00,5.515e+00,4.762e+00,4.243e+00,5.594e+00,4.438e+00,6.504e+00,6.354e+00,5.999e+00,5.240e+00,7.814e+00,7.985e+00,8.990e+00,8.494e+00,8.260e+00,9.586e+00,7.144e+00,7.230e+00,9.755e+00,1.183e+01,1.038e+01,9.850e+00,9.785e+00,1.034e+01,1.315e+01,8.742e+00,1.295e+01,9.419e+00,1.192e+01,1.070e+01,1.127e+01,1.286e+01,1.233e+01,1.264e+01,1.337e+01,1.462e+01,1.422e+01,1.511e+01,1.358e+01,1.399e+01,1.525e+01,1.473e+01,1.540e+01,1.598e+01,1.653e+01,1.652e+01,1.827e+01,1.761e+01,1.851e+01,1.781e+01,1.982e+01,1.915e+01,1.857e+01,2.067e+01,2.085e+01,2.229e+01,1.899e+01,1.792e+01,1.897e+01,2.056e+01,2.145e+01,2.181e+01,2.141e+01,2.446e+01,1.955e+01,2.119e+01,2.134e+01,2.095e+01,2.244e+01,2.142e+01,2.277e+01,2.308e+01,2.328e+01,2.275e+01,2.137e+01,2.175e+01,2.076e+01,1.996e+01,2.288e+01,2.455e+01,2.079e+01
2.652e-01,1.115e+00,1.086e+00,1.507e+00,1.989e+00,8.654e-01,2.337e+00,1.478e+00,2.433e+00,2.820e+00,2.547e+00,2.623e+00,4.661e+00,5.020e+00,4.591e+00,3.441e+00,4.092e+00,5.779e+00,5.351e+00,6.385e+00,5.514e+00,4.679e+00,6.273e+00,4.935e+00,7.292e+00,5.374e+00,5.601e+00,5.979e+00,6.946e+00,8.471e+00,9.502e+00,8.320e+00,7.700e+00,8.416e+00,7.433e+00,8.237e+00,1.016e+01,1.140e+01,1.089e+01,1.177e+01,1.080e+01,1.213e+01,1.343e+01,1.072e+01,1.361e+01,1.083e+01,1.184e+01,1.056e+01,1.291e+01,1.387e+01,1.311e+01,1.459e+01,1.468e+01,1.593e+01,1.528e+01,1.607e+01,1.480e+01,1.516e+01,1.503e+01,1.551e+01,1.569e+01,1.689e+01,1.923e+01,1.632e+01,1.886e+01,1.931e+01,1.916e+01,1.826e+01,2.032e+01,1.972e+01,1.971e+01,2.113e+01,2.174e+01,2.315e+01,2.014e+01,1.943e+01,2.112e+01,2.336e+01,2.380e+01,2.403e+01,2.209e+01,2.493e+01,2.169e+01,2.335e+01,2.274e+01,2.258e+01,2.603e+01,2.211e+01,2.455e+01,2.519e+01,2.431e+01,2.460e+01,2.238e+01,2.349e+01,2.050e+01,2.404e+01,2.423e+01,2.556e+01,2.329e+01
3.095e-01,4.630e-01,1.057e+00,1.372e+00,9.542e-01,7.637e-01,2.062e+00,1.361e+00,1.701e+00,1.652e+00,2.121e+00,2.519e+00,2.957e+00,3.607e+00,4.331e+00,2.391e+00,3.465e+00,3.974e+00,3.359e+00,4.222e+00,4.187e+00,3.592e+00,4.809e+00,4.384e+00,5.055e+00,5.395e+00,5.254e+00,5.369e+00,6.913e+00,6.045e+00,7.875e+00,7.343e+00,7.277e+00,8.273e+00,6.348e+00,6.412e+00,8.951e+00,1.130e+01,9.221e+00,9.573e+00,9.453e+00,1.133e+01,1.237e+01,8.391e+00,1.226e+01,1.044e+01,1.147e+01,8.525e+00,1.035e+01,1.310e+01,1.260e+01,1.180e+01,1.400e+01,1.248e+01,1.357e+01,1.369e+01,1.422e+01,1.464e+01,1.489e+01,1.410e+01,1.404e+01,1.597e+01,1.617e+01,1.598e+01,1.622e+01,1.736e+01,1.966e+01,1.634e+01,1.871e+01,1.838e+01,1.859e+01,2.016e+01,1.977e+01,2.167e+01,1.882e+01,1.917e+01,2.134e+01,2.062e+01,2.206e+01,2.161e+01,2.278e+01,2.370e+01,2.118e+01,2.143e+01,2.238e+01,2.188e+01,2.456e+01,2.166e+01,2.200e+01,2.406e+01,2.347e+01,2.344e+01,2.185e+01,2.080e+01,2.114e+01,2.109e+01,2.408e+01,2.512e+01,2.201e+01
2.753e-01,6.043e-01,1.084e+00,2.003e+00,1.772e+00,8.982e-01,2.353e+00,1.757e+00,2.689e+00,2.293e+00,3.103e+00,2.781e+00,4.326e+00,3.941e+00,5.195e+00,3.540e+00,4.475e+00,6.271e+00,5.414e+00,6.567e+00,5.482e+00,4.280e+00,6.354e+00,4.701e+00,6.706e+00,6.450e+00,5.550e+00,5.490e+00,7.994e+00,8.233e+00,9.782e+00,7.768e+00,8.906e+00,7.894e+00,7.007e+00,7.388e+00,9.519e+00,1.047e+01,1.049e+01,1.034e+01,1.001e+01,1.018e+01,1.302e+01,8.554e+00,1.356e+01,1.055e+01,1.138e+01,9.654e+00,1.144e+01,1.275e+01,1.202e+01,1.446e+01,1.368e+01,1.278e+01,1.279e+01,1.346e+01,1.347e+01,1.370e+01,1.486e+01,1.399e+01,1.426e+01,1.472e+01,1.627e+01,1.441e+01,1.609e+01,1.689e+01,1.654e+01,1.705e+01,1.687e+01,1.740e+01,1.585e+01,1.795e+01,1.812e+01,2.039e+01,1.668e+01,1.728e+01,1.778e+01,1.962e+01,2.177e+01,2.137e+01,1.901e+01,2.219e+01,1.871e+01,2.028e+01,2.068e+01,1.801e+01,2.348e+01,2.108e+01,2.236e+01,2.088e+01,2.128e+01,2.180e+01,2.036e+01,2.004e+01,1.970e+01,2.072e+01,2.212e+01,2.327e+01,1.992e+01
1.631e-01,3.694e-01,9.090e-01,1.635e+00,1.248e+00,7.450e-01,2.145e+00,1.396e+00,1.745e+00,1.764e+00,1.617e+00,2.367e+00,3.567e+00,3.888e+00,4.284e+00,2.953e+00,4.234e+00,4.956e+00,4.393e+00,5.415e+00,5.293e+00,4.535e+00,6.263e+00,4.677e+00,6.325e+00,6.807e+00,6.557e+00,7.263e+00,7.386e+00,7.996e+00,9.407e+00,9.125e+00,8.305e+00,8.895e+00,6.823e+00,8.167e+00,9.973e+00,1.286e+01,1.106e+01,1.078e+01,1.030e+01,1.252e+01,1.348e+01,9.209e+00,1.252e+01,1.125e+01,1.149e+01,9.428e+00,1.070e+01,1.272e+01,1.203e+01,1.264e+01,1.567e+01,1.318e+01,1.537e+01,1.486e+01,1.577e+01,1.581e+01,1.496e+01,1.510e+01,1.588e+01,1.689e+01,1.632e+01,1.623e+01,1.792e+01,1.990e+01,2.028e+01,1.832e+01,1.926e+01,1.956e+01,2.000e+01,2.093e+01,1.990e+01,2.218e+01,1.964e+01,1.950e+01,2.011e+01,2.194e+01,2.119e+01,2.261e+01,2.152e+01,2.215e+01,1.944e+01,2.000e+01,2.221e+01,2.083e+01,2.480e+01,2.227e+01,2.294e+01,2.205e+01,2.359e+01,2.516e+01,2.126e+01,2.098e+01,2.179e+01,2.088e+01,2.272e+01,2.581e+01,2.174e+01
4.283e-01,7.440e-01,7.755e-01,1.159e+00,4.190e-01,9.319e-01,1.454e+00,1.416e+00,1.991e+00,1.680e+00,2.082e+00,2.262e+00,3.254e+00,3.838e+00,4.789e+00,3.301e+00,4.404e+00,5.152e+00,4.136e+00,4.770e+00,4.015e+00,3.879e+00,5.334e+00,3.555e+00,6.047e+00,5.293e+00,5.579e+00,5.023e+00,6.384e+00,6.517e+00,7.171e+00,7.351e+00,7.171e+00,8.656e+00,5.645e+00,6.238e+00,7.787e+00,1.011e+01,9.728e+00,9.660e+00,8.534e+00,1.061e+01,1.150e+01,8.364e+00,1.114e+01,9.155e+00,1.046e+01,1.043e+01,1.066e+01,1.080e+01,1.068e+01,1.243e+01,1.239e+01,1.282e+01,1.246e+01,1.320e+01,1.252e+01,1.288e+01,1.426e+01,1.429e+01,1.465e+01,1.413e+01,1.577e+01,1.428e+01,1.579e+01,1.645e+01,1.711e+01,1.660e+01,1.708e+01,1.734e+01,1.664e+01,1.899e+01,1.726e+01,2.097e+01,1.773e+01,1.678e+01,1.744e+01,2.011e+01,2.010e+01,2.201e+01,1.955e+01,2.196e+01,1.923e+01,2.023e+01,1.948e+01,2.009e+01,2.303e+01,2.132e+01,2.320e+01,2.220e+01,2.336e+01,2.367e+01,2.247e+01,2.175e+01,2.203e+01,2.168e+01,2.288e+01,2.552e+01,2.322e+01
3.366e-01,6.899e-01,7.331e-01,8.487e-01,1.164e+00,6.215e-01,1.567e+00,1.271e+00,2.430e+00,3.159e+00,2.502e+00,2.959e+00,4.437e+00,4.375e+00,4.527e+00,3.139e+00,4.385e+00,5.868e+00,4.237e+00,5.540e+00,4.415e+00,4.589e+00,6.192e+00,5.206e+00,6.868e+00,5.968e+00,6.003e+00,5.522e+00,6.915e+00,8.607e+00,9.673e+00,8.799e+00,8.124e+00,8.735e+00,7.227e+00,7.707e+00,9.289e+00,1.171e+01,9.678e+00,1.024e+01,1.076e+01,1.091e+01,1.323e+01,9.651e+00,1.332e+01,1.041e+01,1.227e+01,9.902e+00,1.187e+01,1.314e+01,1.263e+01,1.288e+01,1.459e+01,1.435e+01,1.444e+01,1.331e+01,1.417e+01,1.432e+01,1.592e+01,1.431e+01,1.629e+01,1.473e+01,1.736e+01,1.573e+01,1.714e+01,1.919e+01,1.835e+01,1.740e+01,2.007e+01,1.840e+01,1.808e+01,1.957e+01,1.983e+01,2.220e+01,1.836e+01,1.888e+01,1.988e+01,2.235e+01,2.207e+01,2.208e+01,2.160e+01,2.399e+01,2.084e+01,2.241e+01,2.172e+01,2.180e+01,2.328e+01,2.266e+01,2.426e+01,2.276e+01,2.361e+01,2.448e+01,2.268e+01,2.366e+01,2.276e+01,2.115e+01,2.580e+01,2.629e+01,2.311e+01
2.164e-01,3.624e-01,6.418e-01,1.119e+00,8.567e-01,6.313e-01,1.832e+00,1.067e+00,1.748e+00,1.794e+00,2.074e+00,2.355e+00,2.795e+00,3.606e+00,4.186e+00,2.652e+00,3.606e+00,4.186e+00,3.848e+00,4.558e+00,4.328e+00,3.492e+00,5.199e+00,3.574e+00,5.154e+00,5.288e+00,4.811e+00,5.120e+00,6.927e+00,6.559e+00,6.818e+00,7.005e+00,7.462e+00,7.236e+00,5.277e+00,5.631e+00,8.209e+00,9.559e+00,8.331e+00,8.434e+00,8.289e+00,9.785e+00,1.046e+01,7.358e+00,1.078e+01,9.120e+00,1.022e+01,9.147e+00,9.579e+00,1.173e+01,1.069e+01,1.153e+01,1.222e+01,1.188e+01,1.267e+01,1.305e+01,1.276e+01,1.380e+01,1.431e+01,1.347e+01,1.394e+01,1.436e+01,1.474e+01,1.425e+01,1.585e+01,1.591e+01,1.689e+01,1.527e+01,1.633e+01,1.654e+01,1.601e+01,1.662e+01,1.676e+01,1.821e+01,1.586e+01,1.619e+01,1.606e+01,1.821e+01,1.836e+01,1.947e+01,1.849e+01,2.033e+01,1.872e+01,1.901e+01,1.811e+01,1.893e+01,2.249e+01,1.887e+01,2.044e+01,2.153e+01,2.211e+01,2.249e+01,2.170e+01,1.981e+01,1.978e+01,1.928e+01,2.216e+01,2.408e+01,2.216e+01
2.544e-01,5.501e-01,1.021e+00,1.789e+00,1.528e+00,1.370e+00,2.699e+00,1.992e+00,3.085e+00,2.737e+00,3.367e+00,3.029e+00,4.609e+00,4.675e+00,5.502e+00,4.016e+00,4.388e+00,5.782e+00,5.250e+00,5.587e+00,4.932e+00,5.084e+00,6.164e+00,4.530e+00,5.871e+00,5.307e+00,6.156e+00,5.557e+00,8.185e+00,7.916e+00,8.554e+00,8.170e+00,8.342e+00,9.092e+00,7.331e+00,7.397e+00,8.615e+00,1.099e+01,9.510e+00,1.101e+01,9.210e+00,1.051e+01,1.241e+01,9.524e+00,1.274e+01,9.092e+00,1.106e+01,9.040e+00,1.074e+01,1.207e+01,1.068e+01,1.227e+01,1.251e+01,1.250e+01,1.235e+01,1.455e+01,1.311e+01,1.316e+01,1.385e+01,1.332e+01,1.327e+01,1.511e+01,1.642e+01,1.477e+01,1.506e+01,1.675e+01,1.749e+01,1.651e+01,1.849e+01,1.690e+01,1.656e+01,1.920e+01,1.976e+01,2.047e+01,1.915e+01,1.811e+01,1.950e+01,2.016e+01,2.230e+01,2.132e+01,2.039e+01,2.339e+01,1.914e+01,2.186e+01,1.949e+01,2.211e+01,2.267e+01,2.210e+01,2.378e+01,2.314e+01,2.341e+01,2.479e+01,2.273e+01,2.222e+01,2.096e+01,2.085e+01,2.529e+01,2.643e+01,2.368e+01
4.600e-01,8.970e-01,1.115e+00,1.310e+00,1.566e+00,1.191e+00,2.328e+00,1.746e+00,3.006e+00,3.536e+00,3.405e+00,3.712e+00,4.249e+00,5.578e+00,5.463e+00,3.246e+00,5.210e+00,6.178e+00,5.098e+00,5.744e+00,5.074e+00,5.715e+00,5.886e+00,5.148e+00,6.873e+00,5.932e+00,6.614e+00,5.485e+00,8.263e+00,7.993e+00,9.810e+00,8.307e+00,8.394e+00,9.033e+00,6.576e+00,7.585e+00,9.355e+00,1.233e+01,1.014e+01,1.136e+01,1.046e+01,1.232e+01,1.358e+01,1.104e+01,1.335e+01,1.046e+01,1.218e+01,1.055e+01,1.248e+01,1.339e+01,1.215e+01,1.370e+01,1.455e+01,1.506e+01,1.399e+01,1.445e+01,1.552e+01,1.534e+01,1.564e+01,1.513e+01,1.653e+01,1.616e+01,1.867e+01,1.602e+01,1.677e+01,1.949e+01,1.841e+01,1.754e+01,1.914e+01,1.894e+01,1.823e+01,1.952e+01,2.009e+01,2.134e+01,2.075e+01,1.989e+01,2.032e+01,2.121e+01,2.127e+01,2.275e+01,2.066e+01,2.334e+01,1.940e+01,2.329e+01,2.060e+01,2.078e+01,2.474e+01,2.436e+01,2.230e+01,2.263e+01,2.319e+01,2.432e+01,2.307e+01,2.215e+01,2.229e+01,2.411e+01,2.477e+01,2.782e+01,2.445e+01
8.792e-02,3.533e-01,7.138e-01,9.637e-01,9.696e-01,1.051e+00,1.730e+00,1.678e+00,2.236e+00,2.811e+00,2.899e+00,3.042e+00,4.337e+00,3.984e+00,5.471e+00,3.977e+00,4.699e+00,5.831e+00,5.466e+00,6.156e+00,5.410e+00,5.721e+00,6.540e+00,5.854e+00,6.792e+00,5.918e+00,6.488e+00,5.037e+00,7.260e+00,8.511e+00,1.064e+01,8.293e+00,8.727e+00,9.402e+00,7.593e+00,8.090e+00,9.902e+00,1.136e+01,9.909e+00,1.050e+01,1.041e+01,1.221e+01,1.382e+01,1.096e+01,1.418e+01,1.131e+01,1.290e+01,9.002e+00,1.195e+01,1.473e+01,1.382e+01,1.509e+01,1.574e+01,1.447e+01,1.373e+01,1.505e+01,1.360e+01,1.439e+01,1.606e+01,1.579e+01,1.406e+01,1.618e+01,1.787e+01,1.680e+01,1.792e+01,1.872e+01,2.042e+01,1.792e+01,1.971e+01,1.975e+01,1.865e+01,2.073e+01,2.046e+01,2.329e+01,2.025e+01,1.976e+01,1.994e+01,2.216e+01,2.304e+01,2.283e+01,2.407e+01,2.392e+01,1.980e+01,2.279e+01,2.254e+01,2.330e+01,2.369e+01,2.320e+01,2.471e+01,2.382e+01,2.407e+01,2.564e+01,2.403e+01,2.380e+01,2.352e+01,2.238e+01,2.711e+01,2.874e+01,2.381e+01
4.716e-01,6.957e-01,8.333e-01,8.903e-01,3.413e-01,4.112e-01,9.359e-01,1.012e+00,1.460e+00,1.803e+00,2.025e+00,2.499e+00,3.182e+00,3.408e+00,4.117e+00,2.823e+00,3.715e+00,4.463e+00,2.983e+00,4.388e+00,3.211e+00,3.845e+00,5.214e+00,4.230e+00,5.514e+00,4.737e+00,4.564e+00,5.858e+00,7.113e+00,7.700e+00,8.352e+00,7.294e+00,7.236e+00,8.100e+00,6.277e+00,6.605e+00,8.241e+00,1.034e+01,8.497e+00,9.488e+00,9.560e+00,1.032e+01,1.186e+01,8.970e+00,1.255e+01,9.154e+00,1.192e+01,8.508e+00,1.138e+01,1.204e+01,1.067e+01,1.162e+01,1.331e+01,1.264e+01,1.283e+01,1.197e+01,1.285e+01,1.311e+01,1.313e+01,1.568e+01,1.373e+01,1.241e+01,1.436e+01,1.385e+01,1.595e+01,1.549e+01,1.725e+01,1.691e+01,1.820e+01,1.635e+01,1.707e+01,1.848e+01,1.878e+01,2.022e+01,1.808e+01,1.739e+01,1.820e+01,2.026e+01,2.151e+01,2.058e+01,2.051e+01,2.313e+01,2.007e+01,2.059e+01,1.948e+01,1.871e+01,2.061e+01,2.070e+01,2.154e+01,2.103e+01,2.289e+01,2.279e+01,2.170e+01,2.079e+01,2.101e+01,2.207e+01,2.299e+01,2.473e+01,2.109e+01
2.615e-01,7.511e-01,1.008e+00,1.105e+00,1.019e+00,1.148e+00,2.020e+00,1.771e+00,2.326e+00,2.936e+00,2.532e+00,2.931e+00,4.351e+00,3.880e+00,5.157e+00,3.667e+00,4.733e+00,5.777e+00,4.970e+00,5.559e+00,4.635e+00,4.313e+00,5.495e+00,4.735e+00,6.621e+00,5.542e+00,5.977e+00,6.954e+00,7.432e+00,8.560e+00,1.005e+01,8.808e+00,9.254e+00,9.675e+00,8.077e+00,8.444e+00,1.048e+01,1.209e+01,1.068e+01,1.060e+01,1.099e+01,1.189e+01,1.311e+01,1.064e+01,1.185e+01,9.511e+00,1.136e+01,9.643e+00,1.181e+01,1.277e+01,1.069e+01,1.244e+01,1.424e+01,1.294e+01,1.386e+01,1.484e+01,1.341e+01,1.400e+01,1.374e+01,1.405e+01,1.393e+01,1.501e+01,1.584e+01,1.592e+01,1.724e+01,1.756e+01,1.694e+01,1.726e+01,1.821e+01,1.797e+01,1.773e+01,2.014e+01,2.071e+01,2.328e+01,1.995e+01,1.897e+01,1.916e+01,2.186e+01,2.336e+01,2.277e+01,2.196e+01,2.398e+01,2.038e+01,2.103e+01,2.171e+01,2.150e+01,2.453e+01,2.089e+01,2.408e+01,2.397e+01,2.543e+01,2.457e+01,2.335e+01,2.401e+01,2.342e+01,2.269e+01,2.535e+01,2.667e+01,2.577e+01
1.190e-02,3.555e-01,3.457e-01,6.986e-01,9.683e-01,9.810e-01,1.597e+00,1.321e+00,2.050e+00,2.374e+00,2.358e+00,2.563e+00,4.143e+00,4.489e+00,4.859e+00,3.543e+00,4.070e+00,4.755e+00,4.569e+00,5.007e+00,5.182e+00,5.193e+00,5.940e+00,5.206e+00,6.806e+00,5.991e+00,6.839e+00,5.872e+00,7.598e+00,8.737e+00,8.941e+00,8.927e+00,8.027e+00,8.943e+00,7.403e+00,8.044e+00,1.036e+01,1.190e+01,1.032e+01,1.209e+01,1.085e+01,1.306e+01,1.336e+01,1.057e+01,1.350e+01,9.654e+00,1.144e+01,1.104e+01,1.260e+01,1.283e+01,1.215e+01,1.321e+01,1.412e+01,1.417e+01,1.466e+01,1.472e+01,1.471e+01,1.490e+01,1.603e+01,1.523e+01,1.618e+01,1.757e+01,1.753e+01,1.617e+01,1.613e+01,1.839e+01,1.852e+01,1.762e+01,1.814e+01,1.832e+01,1.775e+01,1.849e+01,1.907e+01,2.072e+01,1.916e+01,2.017e+01,1.998e+01,1.925e+01,2.082e+01,2.053e+01,2.096e+01,2.065e+01,1.881e+01,2.004e+01,1.889e+01,2.079e+01,2.287e+01,2.097e+01,2.122e+01,2.191e+01,2.250e+01,2.403e+01,2.180e+01,2.084e+01,2.204e+01,2.110e+01,2.373e+01,2.745e+01,2.279e+01
3.553e-01,8.159e-01,7.643e-01,7.455e-01,7.096e-01,3.569e-01,1.154e+00,7.237e-01,1.190e+00,1.763e+00,1.738e+00,2.085e+00,2.394e+00,3.347e+00,3.600e+00,2.557e+00,3.189e+00,4.217e+00,3.819e+00,5.007e+00,4.190e+00,3.227e+00,5.553e+00,3.487e+00,5.795e+00,4.668e+00,4.302e+00,5.010e+00,6.490e+00,6.853e+00,7.187e+00,6.638e+00,6.976e+00,7.071e+00,4.992e+00,4.880e+00,7.836e+00,9.225e+00,8.517e+00,8.702e+00,8.445e+00,1.038e+01,1.155e+01,7.401e+00,1.123e+01,9.131e+00,1.152e+01,7.912e+00,1.121e+01,1.168e+01,1.218e+01,1.146e+01,1.255e+01,1.215e+01,1.248e+01,1.252e+01,1.206e+01,1.273e+01,1.443e+01,1.399e+01,1.371e+01,1.440e+01,1.564e+01,1.466e+01,1.623e+01,1.583e+01,1.795e+01,1.751e+01,1.731e+01,1.837e+01,1.717e+01,1.886e+01,1.950e+01,2.128e+01,1.846e+01,1.732e+01,1.828e+01,2.055e+01,2.133e+01,2.135e+01,1.925e+01,2.366e+01,2.129e+01,1.999e+01,2.050e+01,2.047e+01,2.372e+01,2.100e+01,2.232e+01,2.365e+01,2.409e+01,2.260e+01,2.215e+01,2.151e+01,2.231e+01,2.240e+01,2.491e+01,2.564e+01,2.372e+01
7.341e-02,4.151e-01,3.575e-01,7.872e-01,9.117e-01,9.864e-01,1.988e+00,1.599e+00,2.381e+00,2.950e+00,2.226e+00,3.185e+00,3.777e+00,3.663e+00,4.247e+00,3.052e+00,4.438e+00,4.631e+00,3.539e+00,4.704e+00,4.579e+00,3.678e+00,4.882e+00,4.389e+00,5.968e+00,5.692e+00,6.141e+00,5.667e+00,7.362e+00,8.275e+00,8.024e+00,8.351e+00,8.169e+00,7.756e+00,6.178e+00,6.652e+00,8.879e+00,9.935e+00,8.375e+00,1.015e+01,9.376e+00,1.082e+01,1.125e+01,9.004e+00,1.156e+01,9.401e+00,1.029e+01,1.022e+01,1.099e+01,1.248e+01,1.163e+01,1.209e+01,1.271e+01,1.275e+01,1.391e+01,1.285e+01,1.363e+01,1.385e+01,1.562e+01,1.212e+01,1.358e+01,1.611e+01,1.751e+01,1.574e+01,1.650e+01,1.633e+01,1.892e+01,1.618e+01,1.632e+01,1.713e+01,1.650e+01,1.871e+01,1.907e+01,2.050e+01,1.746e+01,1.768e+01,1.773e+01,2.034e+01,1.907e+01,2.169e+01,2.000e+01,2.033e+01,1.922e+01,1.919e+01,2.043e+01,2.100e+01,2.428e+01,2.132e+01,2.194e+01,2.257e+01,2.289e+01,2.500e+01,2.238e+01,2.205e+01,2.298e+01,2.230e+01,2.450e+01,2.761e+01,2.549e+01
