4.235e-01,8.232e-01,9.708e-01,6.211e-01,5.167e-02,6.939e-01,8.817e-01,9.170e-01,2.138e-01,1.937e-01,8.975e-01,1.131e-01,8.121e-01,8.489e-01,4.200e-01,7.990e-01,3.598e-01,3.443e-01,2.884e-01,1.287e-01,4.039e-01,7.263e-01,1.342e-01,3.880e-01,1.980e-01,7.104e-02,6.620e-01,7.160e-01,3.976e-01,9.494e-02,2.519e-01,7.847e-01,5.042e-02,1.802e-01,1.266e-01,8.227e-01,4.164e-01,3.042e-02,3.275e-01,6.516e-01,6.693e-01,9.492e-01,8.697e-01,2.336e-01,7.100e-01,1.571e-01,4.088e-01,4.754e-01,2.823e-01,6.726e-01,7.845e-01,7.646e-01,1.030e-01,5.264e-01,5.959e-01,8.268e-01,6.598e-01,7.831e-01,5.331e-02,6.248e-01,4.335e-01,5.134e-01,2.759e-01
3.028e-01,7.540e-01,1.087e+00,7.785e-01,1.838e-01,1.181e+00,6.625e-01,1.009e+00,1.150e+00,1.072e+00,1.255e+00,5.707e-01,8.166e-01,1.446e+00,8.808e-01,1.397e+00,1.094e+00,7.410e-01,7.190e-01,3.152e-01,5.286e-01,6.399e-01,8.425e-01,1.055e+00,7.414e-01,8.961e-01,1.085e+00,5.259e-01,9.402e-01,5.197e-01,7.159e-01,1.214e+00,3.177e-01,2.165e-01,8.311e-01,1.348e+00,6.278e-01,1.387e-01,8.309e-01,9.422e-01,8.055e-01,7.064e-01,1.512e+00,6.160e-01,1.179e+00,5.239e-01,3.604e-01,1.140e+00,3.098e-01,9.273e-01,1.494e+00,8.416e-01,8.660e-01,3.931e-01,1.268e+00,9.436e-01,6.498e-01,8.305e-01,7.779e-01,1.309e+00,5.067e-01,1.274e+00,4.599e-01
2.150e-01,5.723e-01,1.022e+00,7.465e-01,5.822e-01,1.423e+00,1.152e+00,9.068e-01,1.521e+00,1.390e+00,1.850e+00,1.492e+00,1.386e+00,1.916e+00,1.192e+00,1.488e+00,1.183e+00,1.403e+00,1.364e+00,2.766e-01,8.198e-01,1.164e+00,9.480e-01,1.741e+00,1.480e+00,1.775e+00,1.139e+00,1.115e+00,1.383e+00,5.977e-01,1.617e+00,1.932e+00,4.305e-01,5.320e-01,8.331e-01,1.913e+00,7.276e-01,2.293e-01,1.444e+00,1.159e+00,8.618e-01,5.727e-01,1.451e+00,1.318e+00,1.129e+00,1.326e+00,3.202e-01,1.588e+00,1.231e+00,1.384e+00,2.006e+00,1.329e+00,1.117e+00,1.085e+00,1.440e+00,8.371e-01,1.280e+00,1.236e+00,1.096e+00,1.634e+00,7.058e-01,1.198e+00,8.509e-01
2.996e-01,5.835e-01,7.658e-01,5.081e-01,5.835e-01,7.565e-01,1.063e+00,7.175e-01,5.100e-01,8.639e-01,1.314e+00,1.231e+00,1.445e+00,1.692e+00,9.327e-01,1.425e+00,1.128e+00,1.478e+00,1.354e+00,4.453e-01,1.126e+00,1.290e+00,1.010e+00,1.527e+00,5.765e-01,5.191e-01,1.339e+00,9.017e-01,1.316e+00,1.119e+00,7.531e-01,1.435e+00,1.032e+00,4.724e-01,6.314e-01,1.804e+00,1.377e+00,5.734e-01,8.677e-01,1.299e+00,1.363e+00,1.011e+00,1.384e+00,7.383e-01,7.929e-01,1.330e+00,3.734e-01,1.430e+00,1.188e+00,1.101e+00,1.815e+00,9.268e-01,3.555e-01,1.349e+00,1.469e+00,7.642e-01,1.789e+00,9.847e-01,6.349e-01,1.446e+00,5.518e-01,8.279e-01,4.531e-01
1.231e-01,2.968e-01,4.469e-01,3.228e-01,4.669e-01,1.453e+00,1.168e+00,1.032e+00,8.387e-01,8.225e-01,8.070e-01,1.481e+00,1.390e+00,1.818e+00,7.783e-01,1.370e+00,1.648e+00,1.069e+00,1.340e+00,6.446e-01,9.797e-01,1.484e+00,9.856e-01,1.635e+00,1.089e+00,9.934e-01,1.721e+00,1.261e+00,1.524e+00,1.331e+00,8.738e-01,1.024e+00,7.265e-01,1.129e+00,1.329e+00,2.035e+00,1.460e+00,6.535e-01,1.214e+00,9.092e-01,1.099e+00,9.396e-01,1.424e+00,1.103e+00,5.992e-01,1.280e+00,8.500e-01,1.769e+00,9.838e-01,1.130e+00,1.667e+00,1.356e+00,1.323e+00,6.624e-01,1.589e+00,7.361e-01,1.646e+00,1.465e+00,9.455e-01,1.711e+00,7.282e-01,1.070e+00,3.245e-01
4.422e-03,4.850e-02,1.396e-01,1.186e-01,3.650e-01,6.307e-01,6.870e-01,1.218e+00,1.131e+00,1.460e+00,6.221e-01,1.885e+00,1.527e+00,1.028e+00,9.720e-01,1.199e+00,1.095e+00,1.437e+00,1.034e+00,1.233e+00,1.071e+00,1.137e+00,8.514e-01,1.989e+00,9.295e-01,6.323e-01,1.337e+00,4.316e-01,1.184e+00,1.653e+00,7.092e-01,1.098e+00,1.390e+00,8.582e-01,1.122e+00,1.509e+00,1.801e+00,5.887e-01,6.994e-01,9.927e-01,9.495e-01,1.139e+00,1.464e+00,1.472e+00,6.964e-01,1.072e+00,6.182e-01,1.672e+00,1.551e+00,8.563e-01,1.342e+00,1.148e+00,1.420e+00,1.091e+00,9.581e-01,6.614e-01,1.355e+00,1.053e+00,1.498e+00,1.643e+00,3.982e-01,7.544e-01,9.693e-01
1.111e-01,2.711e-01,4.787e-01,3.504e-01,5.991e-01,9.640e-01,1.343e+00,1.277e+00,1.072e+00,2.282e+00,2.166e+00,2.266e+00,1.705e+00,2.671e+00,1.693e+00,1.709e+00,1.974e+00,1.863e+00,2.328e+00,7.903e-01,1.294e+00,1.923e+00,1.264e+00,2.345e+00,1.828e+00,1.494e+00,1.738e+00,1.194e+00,1.798e+00,1.919e+00,1.859e+00,1.861e+00,1.278e+00,1.240e+00,1.692e+00,2.347e+00,1.566e+00,8.487e-01,2.035e+00,1.858e+00,2.017e+00,9.400e-01,1.658e+00,1.764e+00,1.309e+00,1.950e+00,9.823e-01,2.349e+00,2.115e+00,1.595e+00,2.162e+00,1.951e+00,1.388e+00,1.356e+00,1.470e+00,7.323e-01,2.169e+00,1.475e+00,1.768e+00,2.702e+00,1.402e+00,1.630e+00,1.189e+00
2.658e-01,5.507e-01,7.059e-01,4.717e-01,2.281e-01,1.093e+00,1.140e+00,1.819e+00,7.300e-01,1.315e+00,1.178e+00,1.272e+00,2.181e+00,1.533e+00,1.230e+00,1.345e+00,1.332e+00,8.336e-01,1.643e+00,5.373e-01,1.393e+00,2.008e+00,7.358e-01,1.642e+00,1.177e+00,8.494e-01,1.785e+00,1.786e+00,1.364e+00,1.190e+00,1.732e+00,1.269e+00,1.452e+00,1.441e+00,1.517e+00,2.248e+00,1.834e+00,6.604e-01,1.348e+00,1.754e+00,1.753e+00,1.936e+00,1.323e+00,1.903e+00,1.748e+00,9.954e-01,1.313e+00,1.996e+00,1.685e+00,1.876e+00,1.975e+00,2.102e+00,1.540e+00,9.544e-01,1.477e+00,1.725e+00,1.987e+00,1.556e+00,9.873e-01,2.023e+00,1.045e+00,1.211e+00,1.195e+00
1.371e-01,3.333e-01,5.084e-01,3.700e-01,4.817e-01,1.039e+00,1.148e+00,1.757e+00,2.133e+00,2.789e+00,2.428e+00,3.123e+00,2.486e+00,2.235e+00,1.865e+00,1.931e+00,2.542e+00,2.616e+00,2.201e+00,2.105e+00,2.016e+00,2.475e+00,1.925e+00,2.984e+00,1.895e+00,1.554e+00,2.082e+00,1.883e+00,1.929e+00,2.987e+00,2.325e+00,2.543e+00,2.019e+00,1.975e+00,1.945e+00,3.190e+00,2.838e+00,1.246e+00,1.532e+00,2.655e+00,2.812e+00,1.689e+00,2.222e+00,2.526e+00,1.924e+00,1.750e+00,1.739e+00,2.497e+00,2.918e+00,1.700e+00,2.350e+00,2.246e+00,2.315e+00,1.777e+00,1.694e+00,1.629e+00,3.049e+00,2.513e+00,2.717e+00,3.248e+00,1.059e+00,1.471e+00,2.054e+00
2.337e-01,5.214e-01,7.505e-01,5.267e-01,5.881e-01,1.537e+00,1.841e+00,2.369e+00,1.590e+00,3.521e+00,2.927e+00,3.335e+00,2.842e+00,3.564e+00,2.569e+00,3.296e+00,2.982e+00,2.251e+00,2.837e+00,1.574e+00,2.850e+00,2.988e+00,2.187e+00,3.592e+00,2.314e+00,2.634e+00,3.262e+00,2.180e+00,2.388e+00,3.306e+00,3.088e+00,3.284e+00,2.753e+00,3.017e+00,3.102e+00,3.590e+00,3.298e+00,1.341e+00,2.926e+00,3.274e+00,3.598e+00,2.145e+00,2.552e+00,3.357e+00,3.064e+00,2.239e+00,2.147e+00,3.494e+00,2.899e+00,3.207e+00,3.755e+00,3.585e+00,2.918e+00,2.070e+00,2.090e+00,1.755e+00,3.208e+00,2.874e+00,2.730e+00,3.698e+00,2.709e+00,2.428e+00,1.830e+00
2.505e-01,5.470e-01,7.443e-01,5.164e-01,4.273e-01,1.005e+00,1.299e+00,2.078e+00,1.246e+00,2.956e+00,2.738e+00,3.033e+00,3.282e+00,2.754e+00,2.655e+00,2.817e+00,3.089e+00,2.138e+00,3.061e+00,1.804e+00,3.410e+00,2.350e+00,2.728e+00,3.112e+00,1.743e+00,2.390e+00,3.369e+00,2.149e+00,2.479e+00,2.678e+00,3.081e+00,3.133e+00,2.751e+00,2.387e+00,3.017e+00,3.172e+00,3.369e+00,1.122e+00,2.466e+00,3.253e+00,3.180e+00,2.524e+00,2.191e+00,3.193e+00,3.358e+00,2.464e+00,2.150e+00,3.803e+00,3.196e+00,3.669e+00,3.382e+00,2.976e+00,3.199e+00,2.404e+00,2.720e+00,2.606e+00,2.898e+00,2.652e+00,2.187e+00,3.463e+00,2.501e+00,2.797e+00,2.109e+00
3.977e-02,1.795e-01,3.886e-01,3.148e-01,5.627e-01,7.366e-01,8.895e-01,1.369e+00,1.296e+00,3.199e+00,2.805e+00,3.443e+00,3.468e+00,3.206e+00,3.007e+00,3.022e+00,3.702e+00,2.992e+00,3.875e+00,2.099e+00,3.692e+00,2.449e+00,3.411e+00,3.153e+00,2.413e+00,3.087e+00,3.331e+00,2.630e+00,2.558e+00,2.944e+00,3.241e+00,3.362e+00,3.408e+00,3.037e+00,3.629e+00,3.005e+00,3.618e+00,1.457e+00,3.187e+00,3.560e+00,3.936e+00,2.037e+00,2.443e+00,3.345e+00,3.360e+00,2.871e+00,1.923e+00,3.979e+00,3.114e+00,3.464e+00,3.859e+00,2.898e+00,3.924e+00,2.388e+00,3.242e+00,2.508e+00,3.282e+00,2.386e+00,2.666e+00,3.790e+00,2.564e+00,2.932e+00,2.440e+00
3.525e-02,1.815e-01,4.059e-01,3.282e-01,4.742e-01,7.726e-01,7.819e-01,1.215e+00,1.822e+00,2.971e+00,2.977e+00,3.346e+00,4.076e+00,3.324e+00,3.029e+00,2.588e+00,4.328e+00,3.139e+00,4.085e+00,2.838e+00,3.417e+00,3.165e+00,3.374e+00,3.571e+00,2.880e+00,3.412e+00,2.925e+00,3.092e+00,2.366e+00,3.372e+00,3.937e+00,3.693e+00,2.927e+00,2.887e+00,3.614e+00,3.784e+00,3.192e+00,2.179e+00,3.464e+00,3.914e+00,4.752e+00,2.347e+00,2.891e+00,3.717e+00,3.495e+00,2.659e+00,2.035e+00,4.001e+00,3.214e+00,3.026e+00,4.136e+00,2.726e+00,4.343e+00,2.359e+00,3.116e+00,3.268e+00,4.012e+00,2.983e+00,3.166e+00,4.588e+00,1.998e+00,2.679e+00,3.010e+00
8.890e-02,1.938e-01,3.197e-01,2.284e-01,5.333e-01,1.097e+00,1.165e+00,1.247e+00,1.533e+00,2.201e+00,2.060e+00,3.150e+00,3.252e+00,2.761e+00,2.151e+00,3.623e+00,3.283e+00,2.894e+00,3.367e+00,2.554e+00,3.601e+00,3.344e+00,2.881e+00,3.746e+00,2.654e+00,2.950e+00,3.037e+00,3.028e+00,2.002e+00,3.629e+00,2.923e+00,3.842e+00,3.019e+00,3.589e+00,2.841e+00,3.806e+00,3.611e+00,1.912e+00,2.935e+00,3.243e+00,3.840e+00,2.289e+00,3.428e+00,3.309e+00,2.858e+00,2.276e+00,2.614e+00,3.817e+00,3.086e+00,3.354e+00,4.145e+00,3.085e+00,3.974e+00,3.164e+00,2.735e+00,2.852e+00,3.746e+00,4.023e+00,2.651e+00,4.151e+00,2.385e+00,2.272e+00,2.631e+00
2.798e-01,7.008e-01,1.044e+00,7.590e-01,6.102e-01,1.607e+00,1.305e+00,2.071e+00,2.311e+00,2.898e+00,2.869e+00,3.481e+00,3.819e+00,3.064e+00,2.823e+00,4.085e+00,4.443e+00,3.908e+00,4.566e+00,2.581e+00,3.666e+00,3.827e+00,3.913e+00,3.719e+00,3.272e+00,3.139e+00,3.680e+00,3.812e+00,3.720e+00,3.371e+00,3.078e+00,4.467e+00,3.857e+00,2.765e+00,3.327e+00,4.796e+00,4.322e+00,1.861e+00,2.671e+00,3.712e+00,3.712e+00,3.460e+00,3.770e+00,3.371e+00,4.033e+00,3.214e+00,2.890e+00,4.166e+00,3.577e+00,3.764e+00,4.004e+00,3.272e+00,4.342e+00,2.710e+00,4.336e+00,3.299e+00,4.196e+00,4.209e+00,3.019e+00,4.382e+00,2.601e+00,2.930e+00,3.582e+00
3.676e-01,8.458e-01,1.168e+00,8.211e-01,5.432e-01,2.089e+00,2.036e+00,3.044e+00,2.322e+00,3.848e+00,3.491e+00,4.052e+00,4.441e+00,4.253e+00,3.452e+00,5.608e+00,5.428e+00,4.111e+00,6.141e+00,3.238e+00,5.084e+00,5.535e+00,4.384e+00,5.311e+00,4.141e+00,4.072e+00,4.882e+00,5.142e+00,4.341e+00,5.210e+00,5.069e+00,6.030e+00,4.741e+00,5.045e+00,4.511e+00,5.943e+00,5.412e+00,2.260e+00,4.544e+00,5.437e+00,5.231e+00,4.624e+00,5.116e+00,4.809e+00,5.389e+00,3.941e+00,4.858e+00,5.543e+00,4.283e+00,5.440e+00,5.950e+00,5.476e+00,5.616e+00,3.972e+00,4.720e+00,4.796e+00,5.066e+00,6.302e+00,4.564e+00,6.643e+00,4.415e+00,4.257e+00,4.292e+00
2.816e-01,6.649e-01,1.081e+00,7.656e-01,6.752e-01,2.230e+00,2.188e+00,2.768e+00,2.162e+00,2.729e+00,2.665e+00,3.790e+00,4.935e+00,3.594e+00,3.100e+00,4.663e+00,5.350e+00,4.457e+00,6.038e+00,3.003e+00,4.682e+00,5.158e+00,3.474e+00,5.099e+00,4.486e+00,4.898e+00,4.882e+00,4.785e+00,4.086e+00,4.075e+00,5.080e+00,5.313e+00,4.488e+00,4.502e+00,3.933e+00,5.603e+00,4.530e+00,2.569e+00,5.153e+00,4.064e+00,4.526e+00,5.164e+00,4.735e+00,5.386e+00,5.419e+00,4.046e+00,4.157e+00,5.767e+00,4.202e+00,5.670e+00,5.813e+00,5.772e+00,6.530e+00,4.303e+00,4.571e+00,4.884e+00,4.735e+00,6.248e+00,4.193e+00,5.399e+00,4.548e+00,3.915e+00,4.368e+00
1.294e-01,2.894e-01,3.908e-01,2.765e-01,4.064e-01,1.139e+00,1.051e+00,1.831e+00,1.396e+00,2.441e+00,2.144e+00,3.214e+00,3.976e+00,2.534e+00,2.553e+00,3.499e+00,4.700e+00,3.810e+00,5.126e+00,3.049e+00,4.739e+00,4.223e+00,4.594e+00,4.254e+00,2.851e+00,3.869e+00,4.531e+00,4.115e+00,3.268e+00,4.835e+00,5.230e+00,4.482e+00,4.602e+00,4.168e+00,4.529e+00,5.396e+00,5.055e+00,2.729e+00,4.470e+00,4.041e+00,4.743e+00,4.228e+00,4.093e+00,5.077e+00,4.865e+00,3.553e+00,4.011e+00,5.038e+00,4.052e+00,5.121e+00,5.294e+00,4.756e+00,5.368e+00,3.832e+00,4.560e+00,4.487e+00,4.961e+00,4.948e+00,3.727e+00,4.510e+00,4.295e+00,3.664e+00,3.529e+00
3.613e-01,7.583e-01,1.033e+00,7.062e-01,6.417e-01,1.200e+00,1.381e+00,1.681e+00,1.210e+00,2.613e+00,2.976e+00,3.151e+00,4.815e+00,3.681e+00,3.292e+00,4.345e+00,5.294e+00,4.316e+00,5.919e+00,3.285e+00,5.642e+00,5.299e+00,6.035e+00,5.045e+00,3.364e+00,4.646e+00,4.800e+00,4.647e+00,4.194e+00,4.862e+00,5.786e+00,6.143e+00,5.585e+00,4.515e+00,5.170e+00,5.763e+00,5.724e+00,3.256e+00,5.598e+00,4.892e+00,6.553e+00,5.513e+00,4.882e+00,5.620e+00,5.679e+00,4.643e+00,4.058e+00,5.404e+00,3.832e+00,5.664e+00,6.642e+00,5.148e+00,6.181e+00,4.913e+00,5.967e+00,5.328e+00,6.249e+00,5.071e+00,3.702e+00,5.534e+00,5.060e+00,4.472e+00,3.930e+00
3.899e-01,7.985e-01,1.090e+00,7.362e-01,7.806e-01,1.943e+00,2.163e+00,2.302e+00,2.026e+00,2.883e+00,3.569e+00,3.916e+00,4.495e+00,3.846e+00,2.957e+00,4.061e+00,5.330e+00,4.569e+00,5.858e+00,3.990e+00,5.244e+00,5.772e+00,5.904e+00,5.891e+00,4.716e+00,5.110e+00,5.523e+00,5.462e+00,4.606e+00,5.471e+00,6.333e+00,6.370e+00,4.854e+00,4.473e+00,4.728e+00,6.940e+00,5.606e+00,3.399e+00,5.960e+00,4.907e+00,6.697e+00,5.565e+00,5.414e+00,6.190e+00,5.533e+00,5.332e+00,5.267e+00,6.279e+00,4.844e+00,5.743e+00,6.146e+00,6.024e+00,6.447e+00,5.042e+00,5.594e+00,4.966e+00,6.524e+00,6.605e+00,3.993e+00,6.618e+00,4.884e+00,4.583e+00,4.558e+00
1.946e-02,1.660e-01,3.529e-01,2.987e-01,4.800e-01,1.163e+00,1.078e+00,1.766e+00,2.026e+00,3.864e+00,3.097e+00,3.768e+00,2.900e+00,3.508e+00,2.912e+00,3.976e+00,5.317e+00,4.259e+00,5.266e+00,3.979e+00,5.389e+00,4.864e+00,5.636e+00,6.276e+00,4.479e+00,5.475e+00,5.321e+00,4.269e+00,4.831e+00,6.210e+00,6.519e+00,6.413e+00,5.205e+00,5.385e+00,5.182e+00,5.059e+00,6.134e+00,3.138e+00,6.708e+00,4.880e+00,7.134e+00,4.836e+00,5.306e+00,6.208e+00,5.807e+00,5.426e+00,5.912e+00,6.064e+00,4.545e+00,5.733e+00,6.249e+00,5.843e+00,7.077e+00,4.385e+00,4.877e+00,4.296e+00,5.585e+00,6.252e+00,5.090e+00,7.124e+00,5.518e+00,5.227e+00,4.413e+00
4.774e-02,2.502e-01,6.028e-01,4.807e-01,6.740e-01,1.467e+00,1.175e+00,1.672e+00,1.731e+00,2.899e+00,2.675e+00,3.230e+00,4.039e+00,3.336e+00,3.109e+00,4.253e+00,4.673e+00,3.278e+00,5.645e+00,3.030e+00,5.003e+00,5.258e+00,5.908e+00,6.482e+00,5.159e+00,6.728e+00,5.877e+00,5.236e+00,5.118e+00,5.009e+00,7.488e+00,7.557e+00,5.097e+00,3.857e+00,5.812e+00,6.775e+00,5.607e+00,3.519e+00,7.009e+00,5.477e+00,6.380e+00,5.307e+00,5.010e+00,7.029e+00,5.877e+00,5.861e+00,4.834e+00,6.899e+00,4.821e+00,7.055e+00,7.404e+00,5.327e+00,6.612e+00,4.240e+00,5.598e+00,5.106e+00,6.162e+00,5.681e+00,3.738e+00,7.423e+00,4.934e+00,5.494e+00,5.012e+00
2.364e-01,5.521e-01,8.651e-01,6.192e-01,8.163e-01,1.847e+00,1.769e+00,1.735e+00,2.002e+00,2.795e+00,2.874e+00,3.352e+00,3.029e+00,3.577e+00,2.401e+00,4.755e+00,5.043e+00,4.821e+00,6.099e+00,3.083e+00,4.526e+00,5.451e+00,5.648e+00,5.701e+00,5.509e+00,5.163e+00,5.388e+00,5.725e+00,4.771e+00,6.162e+00,6.778e+00,7.371e+00,5.049e+00,5.234e+00,4.571e+00,7.479e+00,5.170e+00,3.692e+00,6.476e+00,5.694e+00,6.336e+00,4.805e+00,5.562e+00,6.153e+00,5.820e+00,5.685e+00,5.515e+00,6.412e+00,4.264e+00,5.525e+00,7.286e+00,6.448e+00,5.920e+00,4.880e+00,5.234e+00,4.898e+00,6.199e+00,7.362e+00,5.195e+00,6.986e+00,5.790e+00,5.109e+00,4.809e+00
3.419e-01,7.024e-01,8.984e-01,6.040e-01,5.172e-01,1.530e+00,1.515e+00,1.996e+00,1.536e+00,2.476e+00,2.770e+00,3.278e+00,3.981e+00,3.055e+00,2.641e+00,4.613e+00,4.662e+00,3.845e+00,5.451e+00,3.563e+00,5.592e+00,5.503e+00,5.817e+00,6.283e+00,4.679e+00,5.659e+00,5.898e+00,6.329e+00,4.698e+00,5.376e+00,6.729e+00,7.505e+00,6.277e+00,6.125e+00,5.595e+00,6.733e+00,6.698e+00,3.353e+00,6.601e+00,6.364e+00,6.712e+00,6.574e+00,5.877e+00,6.415e+00,6.028e+00,5.680e+00,5.754e+00,6.009e+00,4.680e+00,7.289e+00,6.818e+00,6.159e+00,7.130e+00,6.016e+00,5.540e+00,6.499e+00,7.098e+00,7.476e+00,3.909e+00,7.478e+00,5.808e+00,4.927e+00,5.287e+00
3.184e-01,7.051e-01,9.463e-01,6.564e-01,4.983e-01,1.759e+00,1.665e+00,2.164e+00,1.543e+00,2.831e+00,2.918e+00,3.139e+00,3.995e+00,3.831e+00,2.845e+00,4.185e+00,5.480e+00,3.989e+00,5.879e+00,3.123e+00,5.172e+00,5.590e+00,4.967e+00,6.052e+00,4.824e+00,5.613e+00,6.828e+00,6.616e+00,5.073e+00,6.662e+00,7.838e+00,7.728e+00,6.095e+00,6.348e+00,6.480e+00,6.829e+00,6.277e+00,3.741e+00,7.502e+00,6.691e+00,8.099e+00,6.257e+00,6.418e+00,6.911e+00,6.367e+00,5.598e+00,6.520e+00,6.550e+00,4.374e+00,7.535e+00,7.895e+00,7.000e+00,7.868e+00,5.439e+00,6.087e+00,6.421e+00,7.011e+00,7.513e+00,5.016e+00,8.258e+00,6.205e+00,6.195e+00,4.831e+00
1.851e-03,1.389e-01,3.536e-01,3.005e-01,3.467e-01,8.944e-01,8.052e-01,1.518e+00,2.174e+00,3.423e+00,3.197e+00,3.640e+00,3.299e+00,2.953e+00,2.886e+00,3.148e+00,5.161e+00,4.614e+00,5.768e+00,3.447e+00,4.651e+00,5.163e+00,5.496e+00,5.660e+00,5.122e+00,6.452e+00,5.529e+00,6.526e+00,5.430e+00,6.652e+00,8.532e+00,7.854e+00,6.088e+00,5.728e+00,6.213e+00,6.438e+00,6.339e+00,3.960e+00,7.808e+00,6.725e+00,7.696e+00,5.906e+00,5.910e+00,7.272e+00,6.328e+00,6.715e+00,6.138e+00,5.754e+00,5.351e+00,6.834e+00,7.321e+00,5.844e+00,7.883e+00,5.390e+00,5.431e+00,6.344e+00,7.619e+00,6.647e+00,6.015e+00,7.927e+00,5.671e+00,6.389e+00,6.593e+00
3.282e-01,7.693e-01,1.154e+00,8.212e-01,7.451e-01,1.877e+00,1.660e+00,1.862e+00,2.412e+00,3.226e+00,3.379e+00,3.571e+00,3.343e+00,3.639e+00,2.705e+00,4.588e+00,4.542e+00,4.063e+00,4.509e+00,3.164e+00,4.872e+00,5.194e+00,5.324e+00,6.583e+00,4.753e+00,6.235e+00,6.386e+00,5.795e+00,5.929e+00,6.885e+00,7.525e+00,8.264e+00,6.257e+00,5.844e+00,5.763e+00,6.962e+00,6.452e+00,3.779e+00,7.424e+00,6.595e+00,8.170e+00,6.406e+00,6.392e+00,7.552e+00,6.778e+00,5.817e+00,5.977e+00,6.384e+00,5.557e+00,6.928e+00,7.797e+00,6.516e+00,7.357e+00,6.082e+00,5.683e+00,5.915e+00,7.725e+00,7.290e+00,5.210e+00,8.174e+00,5.743e+00,5.700e+00,5.331e+00
3.422e-01,6.890e-01,9.809e-01,6.544e-01,5.281e-01,1.358e+00,1.831e+00,1.836e+00,1.143e+00,2.158e+00,2.791e+00,2.745e+00,3.720e+00,3.150e+00,2.512e+00,3.294e+00,4.041e+00,3.738e+00,5.080e+00,2.507e+00,4.158e+00,4.885e+00,3.715e+00,5.029e+00,4.634e+00,5.657e+00,5.537e+00,6.299e+00,4.836e+00,5.227e+00,7.360e+00,6.958e+00,5.290e+00,4.929e+00,5.033e+00,6.246e+00,5.376e+00,4.053e+00,7.651e+00,5.751e+00,7.576e+00,5.947e+00,5.464e+00,7.355e+00,6.373e+00,5.665e+00,5.611e+00,6.731e+00,4.934e+00,6.645e+00,6.968e+00,7.018e+00,6.825e+00,5.613e+00,5.259e+00,5.786e+00,6.151e+00,6.788e+00,4.501e+00,6.614e+00,5.602e+00,5.877e+00,5.862e+00
7.772e-02,2.460e-01,4.376e-01,3.403e-01,5.606e-01,1.107e+00,1.008e+00,1.356e+00,2.033e+00,3.148e+00,2.954e+00,3.737e+00,3.431e+00,3.312e+00,2.847e+00,4.556e+00,5.011e+00,4.245e+00,5.426e+00,4.417e+00,5.742e+00,5.047e+00,7.045e+00,6.663e+00,5.569e+00,5.812e+00,5.908e+00,5.767e+00,5.555e+00,8.070e+00,8.454e+00,9.186e+00,6.716e+00,6.523e+00,6.645e+00,7.544e+00,6.660e+00,4.176e+00,8.167e+00,7.019e+00,8.275e+00,6.201e+00,7.317e+00,7.719e+00,6.607e+00,7.435e+00,7.557e+00,8.198e+00,5.988e+00,6.461e+00,8.623e+00,6.655e+00,8.312e+00,6.913e+00,6.897e+00,6.750e+00,7.374e+00,7.898e+00,5.942e+00,9.055e+00,6.253e+00,7.116e+00,6.763e+00
7.222e-02,2.207e-01,4.830e-01,3.705e-01,8.209e-01,1.555e+00,1.809e+00,1.940e+00,1.947e+00,3.214e+00,2.831e+00,3.991e+00,3.763e+00,3.890e+00,2.950e+00,4.626e+00,5.700e+00,5.432e+00,7.162e+00,4.171e+00,5.351e+00,6.498e+00,6.703e+00,7.645e+00,6.706e+00,6.809e+00,6.371e+00,7.165e+00,6.989e+00,9.064e+00,9.499e+00,1.043e+01,9.118e+00,7.831e+00,8.273e+00,9.387e+00,8.298e+00,6.459e+00,1.028e+01,7.672e+00,9.645e+00,9.264e+00,9.139e+00,9.895e+00,8.333e+00,9.723e+00,8.068e+00,9.627e+00,6.944e+00,7.955e+00,9.146e+00,9.011e+00,9.721e+00,9.324e+00,7.952e+00,8.026e+00,9.416e+00,9.920e+00,8.017e+00,1.017e+01,8.499e+00,8.411e+00,9.081e+00
2.011e-01,5.501e-01,8.778e-01,6.475e-01,4.371e-01,1.694e+00,1.289e+00,2.006e+00,1.765e+00,2.644e+00,2.381e+00,2.618e+00,3.003e+00,2.971e+00,2.439e+00,4.286e+00,4.466e+00,3.724e+00,5.723e+00,2.456e+00,4.203e+00,4.811e+00,4.561e+00,5.200e+00,4.498e+00,5.156e+00,5.460e+00,5.893e+00,5.548e+00,7.222e+00,8.113e+00,7.738e+00,7.867e+00,6.562e+00,7.560e+00,8.170e+00,6.578e+00,4.412e+00,8.108e+00,7.052e+00,7.468e+00,7.420e+00,8.093e+00,7.262e+00,7.433e+00,7.333e+00,7.673e+00,7.476e+00,6.147e+00,7.879e+00,7.606e+00,7.490e+00,8.234e+00,7.207e+00,6.914e+00,7.284e+00,7.730e+00,7.706e+00,6.899e+00,8.268e+00,6.671e+00,6.657e+00,7.251e+00
2.596e-01,6.656e-01,1.094e+00,7.965e-01,6.592e-01,1.577e+00,1.351e+00,1.625e+00,2.212e+00,3.160e+00,3.235e+00,3.096e+00,2.793e+00,3.173e+00,2.563e+00,4.011e+00,3.899e+00,4.045e+00,4.627e+00,2.478e+00,4.172e+00,4.587e+00,5.789e+00,5.766e+00,5.184e+00,6.330e+00,5.851e+00,6.400e+00,5.775e+00,7.363e+00,9.096e+00,9.635e+00,8.829e+00,7.393e+00,8.000e+00,9.097e+00,7.619e+00,6.145e+00,8.980e+00,8.169e+00,9.649e+00,8.339e+00,8.743e+00,8.877e+00,8.854e+00,8.279e+00,7.665e+00,8.333e+00,6.432e+00,9.088e+00,9.464e+00,8.778e+00,8.866e+00,9.126e+00,7.222e+00,8.008e+00,9.368e+00,8.479e+00,7.486e+00,9.239e+00,7.486e+00,8.091e+00,7.908e+00
3.141e-01,7.150e-01,1.055e+00,7.379e-01,5.568e-01,2.006e+00,1.945e+00,2.362e+00,1.688e+00,2.923e+00,3.192e+00,3.405e+00,4.458e+00,3.979e+00,3.196e+00,4.437e+00,4.936e+00,3.074e+00,5.294e+00,3.020e+00,5.577e+00,5.513e+00,5.698e+00,6.991e+00,5.365e+00,6.781e+00,6.500e+00,6.762e+00,6.678e+00,6.811e+00,9.602e+00,9.195e+00,8.372e+00,8.236e+00,9.280e+00,9.911e+00,8.663e+00,5.916e+00,1.020e+01,8.569e+00,1.027e+01,9.005e+00,8.653e+00,1.022e+01,9.195e+00,8.740e+00,8.639e+00,1.010e+01,7.970e+00,1.078e+01,1.057e+01,9.587e+00,1.076e+01,9.341e+00,7.622e+00,1.001e+01,9.731e+00,1.027e+01,6.742e+00,1.059e+01,8.358e+00,8.375e+00,8.260e+00
4.088e-02,1.880e-01,3.634e-01,2.954e-01,4.620e-01,1.158e+00,8.537e-01,1.354e+00,1.678e+00,2.633e+00,2.092e+00,2.889e+00,2.654e+00,2.697e+00,2.195e+00,3.638e+00,3.850e+00,3.065e+00,4.369e+00,2.986e+00,4.640e+00,4.649e+00,5.252e+00,6.137e+00,4.177e+00,4.943e+00,5.640e+00,5.774e+00,5.823e+00,7.852e+00,8.034e+00,8.860e+00,7.849e+00,8.013e+00,8.147e+00,7.470e+00,8.398e+00,6.158e+00,8.418e+00,7.784e+00,9.803e+00,7.875e+00,8.937e+00,8.471e+00,7.254e+00,7.458e+00,8.471e+00,8.300e+00,6.624e+00,8.079e+00,9.002e+00,7.859e+00,9.026e+00,8.148e+00,7.901e+00,8.120e+00,8.818e+00,8.510e+00,6.969e+00,1.051e+01,6.405e+00,8.453e+00,7.304e+00
3.375e-01,8.060e-01,1.234e+00,8.778e-01,6.479e-01,2.116e+00,1.819e+00,2.365e+00,2.604e+00,3.298e+00,3.860e+00,4.049e+00,5.059e+00,3.923e+00,3.454e+00,4.391e+00,5.472e+00,3.820e+00,5.479e+00,3.417e+00,5.375e+00,5.713e+00,5.986e+00,6.740e+00,5.871e+00,7.120e+00,6.824e+00,8.024e+00,6.578e+00,7.741e+00,1.025e+01,1.094e+01,8.648e+00,8.469e+00,9.812e+00,1.096e+01,8.726e+00,6.997e+00,1.048e+01,1.010e+01,1.066e+01,1.038e+01,8.948e+00,1.088e+01,9.353e+00,9.302e+00,8.776e+00,9.911e+00,7.911e+00,1.045e+01,1.106e+01,9.189e+00,1.114e+01,9.875e+00,8.890e+00,1.070e+01,1.125e+01,1.029e+01,7.547e+00,1.159e+01,7.967e+00,9.530e+00,9.886e+00
1.069e-01,2.921e-01,5.606e-01,4.136e-01,5.163e-01,1.328e+00,1.513e+00,1.555e+00,1.733e+00,2.773e+00,3.066e+00,3.560e+00,3.348e+00,3.324e+00,2.803e+00,4.459e+00,5.139e+00,5.001e+00,6.755e+00,3.370e+00,5.065e+00,5.801e+00,6.132e+00,6.457e+00,7.231e+00,7.280e+00,6.667e+00,8.686e+00,6.791e+00,8.250e+00,1.052e+01,1.102e+01,9.035e+00,8.956e+00,9.350e+00,1.076e+01,9.137e+00,7.410e+00,1.132e+01,9.390e+00,1.133e+01,8.788e+00,1.019e+01,1.031e+01,9.865e+00,1.024e+01,1.038e+01,1.014e+01,8.601e+00,1.101e+01,1.096e+01,1.107e+01,1.158e+01,9.934e+00,9.304e+00,1.050e+01,1.046e+01,1.193e+01,8.483e+00,1.119e+01,9.868e+00,1.021e+01,1.037e+01
2.134e-01,4.311e-01,5.435e-01,3.577e-01,1.590e-01,8.962e-01,1.156e+00,1.578e+00,7.780e-01,1.793e+00,1.936e+00,1.782e+00,2.476e+00,2.205e+00,1.798e+00,2.254e+00,2.756e+00,2.046e+00,3.443e+00,1.574e+00,2.926e+00,4.272e+00,3.333e+00,3.781e+00,3.903e+00,3.795e+00,3.961e+00,5.658e+00,5.227e+00,5.761e+00,6.888e+00,6.974e+00,7.589e+00,7.602e+00,7.965e+00,7.749e+00,8.313e+00,7.307e+00,8.999e+00,8.329e+00,9.813e+00,9.171e+00,7.236e+00,9.376e+00,7.945e+00,7.845e+00,8.107e+00,8.169e+00,7.698e+00,8.133e+00,8.836e+00,8.998e+00,8.579e+00,8.841e+00,7.543e+00,8.849e+00,1.025e+01,8.327e+00,7.193e+00,9.750e+00,6.944e+00,8.239e+00,8.638e+00
1.258e-01,2.715e-01,4.465e-01,3.099e-01,4.771e-01,1.481e+00,1.754e+00,2.171e+00,1.636e+00,2.262e+00,2.328e+00,3.486e+00,3.775e+00,2.616e+00,2.339e+00,2.783e+00,4.587e+00,3.707e+00,5.433e+00,3.928e+00,4.755e+00,5.285e+00,5.403e+00,6.308e+00,5.650e+00,5.679e+00,6.281e+00,6.568e+00,6.271e+00,7.446e+00,9.577e+00,8.672e+00,7.255e+00,7.467e+00,7.775e+00,9.577e+00,8.211e+00,8.078e+00,1.051e+01,9.132e+00,1.043e+01,9.555e+00,8.413e+00,1.052e+01,8.874e+00,9.759e+00,1.005e+01,1.045e+01,8.736e+00,1.021e+01,1.045e+01,1.086e+01,1.112e+01,1.006e+01,8.132e+00,9.701e+00,1.067e+01,1.072e+01,8.994e+00,1.160e+01,8.415e+00,9.737e+00,9.446e+00
2.900e-01,6.027e-01,8.342e-01,5.707e-01,6.251e-01,1.047e+00,1.507e+00,2.070e+00,1.334e+00,3.214e+00,3.172e+00,3.338e+00,4.518e+00,3.759e+00,3.311e+00,4.420e+00,5.369e+00,4.362e+00,6.552e+00,3.472e+00,5.891e+00,6.093e+00,5.807e+00,6.784e+00,5.034e+00,6.147e+00,7.330e+00,6.723e+00,6.557e+00,9.390e+00,1.030e+01,1.016e+01,9.672e+00,8.327e+00,9.777e+00,1.041e+01,9.686e+00,8.645e+00,1.202e+01,1.100e+01,1.300e+01,1.190e+01,1.007e+01,1.243e+01,1.116e+01,1.055e+01,1.057e+01,1.102e+01,9.272e+00,1.187e+01,1.318e+01,1.138e+01,1.222e+01,1.223e+01,9.566e+00,1.088e+01,1.348e+01,1.060e+01,9.949e+00,1.357e+01,9.445e+00,1.112e+01,1.086e+01
4.185e-02,1.988e-01,4.351e-01,3.495e-01,5.850e-01,1.417e+00,1.124e+00,1.453e+00,1.873e+00,2.637e+00,2.469e+00,3.640e+00,3.591e+00,3.010e+00,2.705e+00,4.405e+00,5.604e+00,5.194e+00,6.712e+00,3.614e+00,5.133e+00,5.335e+00,6.113e+00,5.431e+00,5.101e+00,6.464e+00,6.184e+00,7.008e+00,5.945e+00,7.754e+00,8.293e+00,8.472e+00,8.908e+00,7.785e+00,8.531e+00,9.737e+00,9.293e+00,7.868e+00,9.585e+00,9.601e+00,1.119e+01,9.781e+00,9.567e+00,1.137e+01,1.122e+01,9.344e+00,8.594e+00,9.124e+00,8.744e+00,1.042e+01,1.145e+01,1.043e+01,1.197e+01,1.011e+01,8.645e+00,1.015e+01,1.139e+01,1.082e+01,1.013e+01,1.090e+01,8.683e+00,9.190e+00,1.039e+01
1.865e-01,5.037e-01,8.017e-01,5.894e-01,3.197e-01,1.123e+00,9.979e-01,2.183e+00,2.197e+00,3.091e+00,2.916e+00,3.338e+00,4.189e+00,2.713e+00,3.068e+00,4.027e+00,4.988e+00,4.329e+00,5.915e+00,3.630e+00,4.756e+00,4.919e+00,5.608e+00,5.938e+00,5.797e+00,5.917e+00,5.919e+00,6.464e+00,5.478e+00,7.020e+00,8.767e+00,9.076e+00,8.915e+00,8.200e+00,8.694e+00,9.635e+00,8.778e+00,8.400e+00,1.054e+01,1.075e+01,1.054e+01,1.190e+01,1.022e+01,1.154e+01,1.066e+01,9.872e+00,9.742e+00,1.078e+01,9.928e+00,1.113e+01,1.254e+01,1.111e+01,1.244e+01,1.221e+01,9.382e+00,1.126e+01,1.207e+01,1.174e+01,9.413e+00,1.317e+01,9.572e+00,1.048e+01,1.112e+01
1.046e-01,2.271e-01,4.545e-01,3.248e-01,7.588e-01,1.241e+00,1.751e+00,1.666e+00,1.853e+00,3.024e+00,3.371e+00,4.098e+00,3.609e+00,3.208e+00,2.671e+00,2.639e+00,4.734e+00,4.680e+00,5.460e+00,3.125e+00,4.488e+00,4.930e+00,5.215e+00,6.208e+00,5.351e+00,6.312e+00,6.151e+00,6.456e+00,6.115e+00,7.288e+00,9.525e+00,8.346e+00,7.588e+00,7.440e+00,7.915e+00,9.137e+00,8.540e+00,7.219e+00,1.034e+01,9.171e+00,1.026e+01,9.851e+00,8.326e+00,1.029e+01,9.074e+00,1.049e+01,9.364e+00,9.375e+00,9.919e+00,1.110e+01,1.089e+01,1.046e+01,1.011e+01,1.106e+01,8.126e+00,9.501e+00,1.264e+01,1.050e+01,9.463e+00,1.213e+01,9.078e+00,9.243e+00,8.857e+00
2.020e-01,4.887e-01,8.074e-01,5.788e-01,5.210e-01,1.198e+00,1.465e+00,1.950e+00,2.315e+00,3.160e+00,3.381e+00,3.915e+00,4.226e+00,3.224e+00,3.061e+00,3.320e+00,4.061e+00,3.809e+00,4.377e+00,3.545e+00,4.316e+00,4.351e+00,4.370e+00,5.908e+00,5.316e+00,6.146e+00,6.007e+00,6.801e+00,5.630e+00,7.450e+00,8.953e+00,9.271e+00,8.392e+00,7.117e+00,9.046e+00,9.420e+00,9.031e+00,7.402e+00,1.052e+01,1.050e+01,1.154e+01,1.007e+01,1.102e+01,1.194e+01,1.017e+01,1.134e+01,1.070e+01,1.119e+01,9.977e+00,1.129e+01,1.251e+01,1.122e+01,1.354e+01,1.225e+01,8.959e+00,1.030e+01,1.284e+01,1.095e+01,9.697e+00,1.339e+01,8.241e+00,1.043e+01,1.152e+01
9.604e-02,2.814e-01,4.549e-01,3.416e-01,2.045e-01,6.935e-01,6.477e-01,1.225e+00,1.057e+00,2.142e+00,2.026e+00,2.014e+00,2.517e+00,2.220e+00,2.140e+00,2.538e+00,4.026e+00,3.168e+00,4.396e+00,2.479e+00,3.290e+00,3.249e+00,4.144e+00,4.197e+00,4.426e+00,5.171e+00,5.171e+00,5.345e+00,4.343e+00,5.929e+00,6.960e+00,6.946e+00,7.431e+00,5.998e+00,7.874e+00,8.154e+00,7.442e+00,7.597e+00,9.126e+00,8.162e+00,9.829e+00,8.922e+00,8.049e+00,1.148e+01,1.056e+01,8.707e+00,8.480e+00,9.764e+00,7.479e+00,1.057e+01,1.068e+01,1.052e+01,1.151e+01,1.018e+01,7.502e+00,8.782e+00,1.076e+01,1.085e+01,9.120e+00,1.074e+01,9.971e+00,9.121e+00,9.334e+00
1.115e-01,3.436e-01,5.936e-01,4.471e-01,3.028e-01,1.321e+00,1.203e+00,2.041e+00,1.610e+00,3.091e+00,2.791e+00,3.046e+00,3.174e+00,2.878e+00,2.806e+00,3.833e+00,4.842e+00,3.547e+00,5.759e+00,3.240e+00,5.174e+00,5.116e+00,5.859e+00,5.656e+00,4.589e+00,5.802e+00,5.689e+00,5.656e+00,6.236e+00,7.257e+00,8.834e+00,8.145e+00,8.226e+00,7.909e+00,8.537e+00,8.188e+00,8.749e+00,7.903e+00,1.075e+01,1.011e+01,1.105e+01,1.186e+01,1.049e+01,1.249e+01,1.205e+01,1.144e+01,1.290e+01,1.092e+01,1.130e+01,1.260e+01,1.318e+01,1.247e+01,1.441e+01,1.312e+01,1.110e+01,1.132e+01,1.344e+01,1.293e+01,1.201e+01,1.478e+01,1.201e+01,1.201e+01,1.103e+01
3.255e-01,7.381e-01,1.152e+00,8.118e-01,8.610e-01,1.968e+00,1.967e+00,1.979e+00,2.131e+00,2.596e+00,3.238e+00,3.749e+00,4.425e+00,3.671e+00,2.890e+00,4.121e+00,5.641e+00,5.502e+00,6.973e+00,3.397e+00,5.232e+00,6.266e+00,6.074e+00,6.720e+00,5.934e+00,6.399e+00,6.440e+00,7.623e+00,6.995e+00,7.584e+00,9.768e+00,9.346e+00,7.956e+00,8.113e+00,7.803e+00,9.813e+00,9.115e+00,8.016e+00,1.118e+01,1.047e+01,1.066e+01,1.016e+01,9.551e+00,1.205e+01,1.035e+01,1.167e+01,1.167e+01,1.117e+01,1.078e+01,1.235e+01,1.414e+01,1.215e+01,1.241e+01,1.225e+01,1.140e+01,1.215e+01,1.385e+01,1.378e+01,1.205e+01,1.422e+01,1.112e+01,1.107e+01,1.035e+01
1.395e-01,3.554e-01,6.663e-01,4.927e-01,8.258e-01,1.143e+00,1.498e+00,1.744e+00,1.833e+00,3.675e+00,3.259e+00,3.739e+00,3.720e+00,3.836e+00,3.125e+00,4.103e+00,4.492e+00,4.502e+00,5.364e+00,3.343e+00,4.830e+00,5.121e+00,5.854e+00,6.776e+00,5.746e+00,6.536e+00,6.592e+00,5.690e+00,5.582e+00,8.862e+00,9.701e+00,9.924e+00,8.740e+00,7.184e+00,8.391e+00,9.503e+00,8.352e+00,8.032e+00,1.083e+01,1.016e+01,1.227e+01,1.036e+01,1.042e+01,1.288e+01,1.144e+01,1.141e+01,1.136e+01,1.172e+01,1.153e+01,1.117e+01,1.437e+01,1.231e+01,1.251e+01,1.281e+01,9.673e+00,1.088e+01,1.344e+01,1.203e+01,1.215e+01,1.478e+01,1.123e+01,1.215e+01,1.160e+01
2.963e-01,6.968e-01,1.023e+00,7.223e-01,4.743e-01,1.942e+00,1.966e+00,2.674e+00,2.187e+00,3.189e+00,2.882e+00,3.398e+00,3.551e+00,3.626e+00,2.724e+00,3.943e+00,3.695e+00,2.989e+00,3.961e+00,3.031e+00,3.803e+00,4.857e+00,4.005e+00,6.485e+00,5.299e+00,5.876e+00,6.477e+00,5.838e+00,5.378e+00,7.193e+00,7.828e+00,8.522e+00,6.690e+00,6.022e+00,8.157e+00,8.745e+00,8.014e+00,6.612e+00,9.792e+00,8.657e+00,1.005e+01,9.292e+00,9.604e+00,1.108e+01,8.974e+00,9.849e+00,1.049e+01,1.096e+01,9.883e+00,1.176e+01,1.178e+01,1.149e+01,1.182e+01,1.100e+01,8.812e+00,1.021e+01,1.267e+01,1.190e+01,1.067e+01,1.445e+01,9.874e+00,1.060e+01,1.012e+01
6.073e-02,1.936e-01,4.663e-01,3.569e-01,8.136e-01,1.711e+00,1.804e+00,1.639e+00,1.923e+00,2.790e+00,2.602e+00,3.682e+00,3.415e+00,3.662e+00,2.533e+00,3.896e+00,4.931e+00,4.348e+00,5.383e+00,3.342e+00,4.124e+00,5.046e+00,4.764e+00,6.149e+00,5.677e+00,6.649e+00,6.327e+00,6.438e+00,6.037e+00,8.572e+00,9.117e+00,9.207e+00,8.593e+00,7.773e+00,8.160e+00,9.796e+00,8.419e+00,9.091e+00,1.106e+01,1.040e+01,1.217e+01,1.141e+01,1.138e+01,1.328e+01,1.236e+01,1.269e+01,1.279e+01,1.244e+01,1.166e+01,1.337e+01,1.530e+01,1.337e+01,1.475e+01,1.476e+01,1.142e+01,1.261e+01,1.572e+01,1.544e+01,1.446e+01,1.613e+01,1.206e+01,1.332e+01,1.220e+01
3.131e-02,1.488e-01,3.776e-01,2.963e-01,4.699e-01,1.228e+00,9.971e-01,1.059e+00,1.434e+00,1.836e+00,1.959e+00,2.383e+00,2.937e+00,2.499e+00,2.052e+00,3.189e+00,4.417e+00,3.264e+00,4.989e+00,2.924e+00,3.780e+00,4.590e+00,4.976e+00,5.047e+00,4.869e+00,6.249e+00,5.473e+00,5.731e+00,4.890e+00,6.870e+00,8.543e+00,8.309e+00,6.899e+00,6.184e+00,7.246e+00,9.429e+00,7.143e+00,8.360e+00,1.009e+01,9.391e+00,1.022e+01,1.052e+01,9.170e+00,1.151e+01,1.027e+01,1.095e+01,1.069e+01,1.069e+01,1.036e+01,1.168e+01,1.355e+01,1.175e+01,1.272e+01,1.297e+01,1.108e+01,1.314e+01,1.397e+01,1.326e+01,1.217e+01,1.418e+01,1.156e+01,1.350e+01,1.160e+01
2.969e-03,1.387e-01,4.593e-01,3.741e-01,5.290e-01,1.193e+00,9.083e-01,1.031e+00,2.007e+00,2.494e+00,2.240e+00,2.932e+00,2.384e+00,2.303e+00,2.078e+00,3.553e+00,3.063e+00,3.572e+00,3.867e+00,2.548e+00,3.517e+00,3.915e+00,5.268e+00,4.657e+00,5.295e+00,5.755e+00,4.232e+00,6.016e+00,4.626e+00,6.206e+00,7.728e+00,8.629e+00,8.125e+00,7.702e+00,8.134e+00,9.370e+00,8.654e+00,8.168e+00,9.622e+00,9.569e+00,1.034e+01,9.337e+00,1.047e+01,1.141e+01,9.909e+00,1.174e+01,1.111e+01,9.998e+00,1.019e+01,1.142e+01,1.367e+01,1.232e+01,1.318e+01,1.400e+01,1.088e+01,1.275e+01,1.374e+01,1.365e+01,1.161e+01,1.326e+01,1.169e+01,1.208e+01,1.235e+01
2.648e-01,5.398e-01,7.379e-01,4.955e-01,4.717e-01,1.352e+00,1.417e+00,1.368e+00,9.692e-01,1.307e+00,1.731e+00,2.089e+00,3.326e+00,2.733e+00,1.970e+00,3.490e+00,4.148e+00,3.520e+00,4.970e+00,2.731e+00,3.933e+00,5.071e+00,4.616e+00,5.087e+00,4.727e+00,5.545e+00,5.565e+00,6.238e+00,5.189e+00,6.877e+00,8.119e+00,8.121e+00,7.589e+00,6.607e+00,8.079e+00,9.817e+00,8.226e+00,8.680e+00,1.093e+01,9.526e+00,1.086e+01,1.086e+01,9.998e+00,1.123e+01,9.988e+00,1.163e+01,1.201e+01,1.068e+01,1.063e+01,1.341e+01,1.373e+01,1.299e+01,1.398e+01,1.509e+01,1.252e+01,1.453e+01,1.634e+01,1.546e+01,1.294e+01,1.550e+01,1.322e+01,1.366e+01,1.334e+01
2.699e-01,6.035e-01,8.662e-01,6.071e-01,5.440e-01,1.208e+00,1.517e+00,2.282e+00,1.660e+00,3.217e+00,3.194e+00,3.730e+00,5.107e+00,3.871e+00,3.618e+00,4.768e+00,6.138e+00,5.286e+00,7.593e+00,4.319e+00,6.078e+00,6.449e+00,6.610e+00,7.222e+00,6.211e+00,6.772e+00,7.348e+00,7.855e+00,6.456e+00,9.001e+00,1.008e+01,1.070e+01,9.986e+00,8.263e+00,9.725e+00,9.912e+00,9.153e+00,7.650e+00,1.079e+01,1.033e+01,1.188e+01,1.213e+01,1.236e+01,1.241e+01,1.106e+01,1.157e+01,1.160e+01,1.198e+01,1.089e+01,1.328e+01,1.474e+01,1.261e+01,1.506e+01,1.491e+01,1.277e+01,1.451e+01,1.453e+01,1.564e+01,1.204e+01,1.606e+01,1.292e+01,1.380e+01,1.306e+01
3.238e-01,7.251e-01,1.054e+00,7.353e-01,6.597e-01,2.128e+00,2.100e+00,2.919e+00,2.319e+00,2.856e+00,2.779e+00,4.106e+00,4.947e+00,3.357e+00,2.955e+00,3.885e+00,4.980e+00,4.682e+00,5.840e+00,4.087e+00,4.896e+00,5.698e+00,5.408e+00,6.295e+00,5.707e+00,5.904e+00,6.604e+00,7.265e+00,6.014e+00,7.740e+00,8.338e+00,8.608e+00,8.501e+00,7.819e+00,8.597e+00,1.027e+01,9.697e+00,8.280e+00,9.981e+00,9.585e+00,1.100e+01,1.082e+01,1.025e+01,1.203e+01,1.062e+01,1.097e+01,1.028e+01,1.125e+01,1.048e+01,1.188e+01,1.283e+01,1.239e+01,1.358e+01,1.389e+01,1.187e+01,1.396e+01,1.540e+01,1.479e+01,1.276e+01,1.448e+01,1.103e+01,1.262e+01,1.270e+01
6.181e-02,2.438e-01,4.476e-01,3.556e-01,4.228e-01,1.214e+00,1.125e+00,1.989e+00,1.685e+00,2.711e+00,2.052e+00,3.218e+00,3.806e+00,3.015e+00,2.765e+00,3.307e+00,4.793e+00,3.606e+00,5.216e+00,3.533e+00,4.030e+00,4.325e+00,5.135e+00,5.227e+00,4.903e+00,5.021e+00,5.665e+00,5.582e+00,5.451e+00,7.017e+00,7.504e+00,7.628e+00,7.110e+00,5.751e+00,7.440e+00,8.178e+00,6.826e+00,6.611e+00,8.631e+00,8.202e+00,9.165e+00,8.606e+00,7.970e+00,9.967e+00,8.955e+00,9.582e+00,9.288e+00,9.308e+00,7.821e+00,1.030e+01,1.093e+01,9.548e+00,1.257e+01,1.194e+01,1.069e+01,1.257e+01,1.263e+01,1.268e+01,1.211e+01,1.315e+01,1.070e+01,1.253e+01,1.085e+01
1.627e-01,4.532e-01,8.351e-01,6.255e-01,9.068e-01,1.850e+00,1.686e+00,2.053e+00,2.385e+00,3.494e+00,3.097e+00,4.027e+00,4.165e+00,3.916e+00,3.035e+00,4.324e+00,4.797e+00,4.440e+00,5.200e+00,3.487e+00,5.423e+00,5.784e+00,5.591e+00,7.864e+00,5.875e+00,7.456e+00,7.866e+00,7.169e+00,6.917e+00,8.955e+00,9.667e+00,1.029e+01,1.034e+01,8.778e+00,9.688e+00,1.041e+01,1.069e+01,8.412e+00,1.138e+01,1.000e+01,1.359e+01,1.192e+01,1.106e+01,1.407e+01,1.239e+01,1.133e+01,1.186e+01,1.203e+01,1.158e+01,1.493e+01,1.501e+01,1.325e+01,1.516e+01,1.611e+01,1.289e+01,1.593e+01,1.747e+01,1.732e+01,1.471e+01,1.753e+01,1.402e+01,1.467e+01,1.364e+01
2.323e-01,4.676e-01,5.734e-01,3.795e-01,2.836e-01,1.071e+00,1.376e+00,2.134e+00,1.184e+00,2.343e+00,2.396e+00,2.971e+00,4.196e+00,2.839e+00,2.737e+00,3.322e+00,4.757e+00,3.262e+00,5.297e+00,3.391e+00,4.599e+00,5.209e+00,5.362e+00,5.379e+00,5.049e+00,5.332e+00,6.050e+00,6.456e+00,5.493e+00,6.946e+00,8.303e+00,8.565e+00,7.655e+00,6.723e+00,8.014e+00,8.768e+00,7.335e+00,6.414e+00,9.059e+00,9.097e+00,1.022e+01,1.157e+01,8.935e+00,1.143e+01,1.058e+01,1.086e+01,1.173e+01,1.086e+01,1.013e+01,1.248e+01,1.311e+01,1.203e+01,1.340e+01,1.418e+01,1.223e+01,1.537e+01,1.618e+01,1.562e+01,1.417e+01,1.712e+01,1.332e+01,1.344e+01,1.377e+01
1.886e-01,4.641e-01,8.091e-01,5.887e-01,8.633e-01,1.811e+00,1.838e+00,1.996e+00,2.251e+00,3.041e+00,2.992e+00,4.196e+00,4.021e+00,3.461e+00,2.802e+00,3.739e+00,4.786e+00,4.436e+00,5.024e+00,3.835e+00,5.162e+00,4.846e+00,5.662e+00,7.117e+00,5.101e+00,6.596e+00,6.819e+00,5.995e+00,6.218e+00,8.179e+00,9.111e+00,9.473e+00,9.367e+00,8.759e+00,8.938e+00,9.677e+00,9.872e+00,7.924e+00,1.075e+01,9.939e+00,1.133e+01,1.142e+01,1.065e+01,1.161e+01,1.023e+01,1.166e+01,1.050e+01,1.087e+01,1.067e+01,1.257e+01,1.362e+01,1.208e+01,1.349e+01,1.490e+01,1.151e+01,1.431e+01,1.534e+01,1.435e+01,1.315e+01,1.469e+01,1.162e+01,1.322e+01,1.290e+01
2.514e-01,5.850e-01,9.312e-01,6.658e-01,8.906e-01,1.960e+00,1.937e+00,1.977e+00,2.247e+00,3.506e+00,3.953e+00,4.479e+00,4.811e+00,4.454e+00,3.487e+00,4.946e+00,5.999e+00,4.786e+00,6.848e+00,4.348e+00,6.462e+00,6.518e+00,7.575e+00,7.776e+00,5.922e+00,7.528e+00,7.467e+00,7.666e+00,6.553e+00,8.773e+00,1.096e+01,1.082e+01,9.677e+00,9.366e+00,9.875e+00,1.171e+01,1.008e+01,8.521e+00,1.156e+01,1.193e+01,1.315e+01,1.171e+01,1.164e+01,1.278e+01,1.180e+01,1.204e+01,1.199e+01,1.219e+01,1.155e+01,1.389e+01,1.541e+01,1.349e+01,1.472e+01,1.521e+01,1.309e+01,1.675e+01,1.677e+01,1.596e+01,1.457e+01,1.806e+01,1.320e+01,1.427e+01,1.370e+01
4.154e-01,8.861e-01,1.182e+00,8.025e-01,4.347e-01,1.774e+00,1.934e+00,2.469e+00,1.566e+00,2.995e+00,3.347e+00,2.822e+00,3.298e+00,3.615e+00,2.686e+00,4.335e+00,4.887e+00,4.330e+00,6.457e+00,2.441e+00,4.855e+00,6.392e+00,5.320e+00,6.536e+00,5.704e+00,6.419e+00,6.609e+00,7.448e+00,6.577e+00,8.213e+00,1.057e+01,9.640e+00,8.788e+00,8.874e+00,9.577e+00,1.086e+01,9.096e+00,7.949e+00,1.256e+01,1.112e+01,1.183e+01,1.244e+01,1.161e+01,1.237e+01,1.122e+01,1.210e+01,1.318e+01,1.105e+01,1.174e+01,1.421e+01,1.471e+01,1.431e+01,1.507e+01,1.579e+01,1.298e+01,1.568e+01,1.814e+01,1.692e+01,1.405e+01,1.759e+01,1.569e+01,1.545e+01,1.597e+01
2.887e-01,5.907e-01,7.804e-01,5.229e-01,4.687e-01,1.625e+00,1.809e+00,2.056e+00,1.271e+00,2.603e+00,2.896e+00,3.226e+00,4.007e+00,3.694e+00,2.794e+00,4.297e+00,5.095e+00,3.737e+00,6.022e+00,3.388e+00,5.657e+00,6.100e+00,5.650e+00,6.937e+00,5.316e+00,6.885e+00,7.274e+00,7.873e+00,6.785e+00,8.790e+00,1.027e+01,1.016e+01,9.315e+00,9.184e+00,8.943e+00,9.451e+00,9.117e+00,7.230e+00,1.102e+01,9.814e+00,1.176e+01,1.148e+01,1.032e+01,1.189e+01,1.097e+01,1.112e+01,1.237e+01,1.173e+01,1.118e+01,1.309e+01,1.344e+01,1.281e+01,1.318e+01,1.451e+01,1.199e+01,1.680e+01,1.589e+01,1.648e+01,1.505e+01,1.701e+01,1.487e+01,1.529e+01,1.440e+01
3.583e-02,1.489e-01,3.539e-01,2.761e-01,4.403e-01,1.191e+00,1.185e+00,2.014e+00,2.059e+00,3.096e+00,2.438e+00,3.338e+00,3.909e+00,2.929e+00,2.732e+00,3.967e+00,4.669e+00,4.347e+00,5.684e+00,3.426e+00,4.801e+00,6.033e+00,5.494e+00,6.643e+00,5.884e+00,6.203e+00,5.967e+00,6.179e+00,4.969e+00,7.947e+00,9.517e+00,9.064e+00,8.631e+00,7.902e+00,8.916e+00,1.019e+01,8.567e+00,7.583e+00,1.061e+01,9.124e+00,1.060e+01,9.965e+00,9.780e+00,1.114e+01,9.610e+00,9.770e+00,1.153e+01,1.058e+01,1.018e+01,1.248e+01,1.291e+01,1.276e+01,1.309e+01,1.301e+01,1.131e+01,1.433e+01,1.511e+01,1.395e+01,1.339e+01,1.587e+01,1.318e+01,1.337e+01,1.395e+01
2.980e-01,6.161e-01,8.165e-01,5.484e-01,3.534e-01,1.178e+00,1.423e+00,2.022e+00,1.075e+00,2.132e+00,2.281e+00,2.540e+00,3.271e+00,2.406e+00,2.316e+00,3.436e+00,3.705e+00,3.421e+00,5.113e+00,2.559e+00,4.554e+00,5.241e+00,5.347e+00,5.826e+00,5.045e+00,5.649e+00,6.066e+00,6.800e+00,6.007e+00,6.640e+00,8.857e+00,8.936e+00,7.713e+00,6.814e+00,8.710e+00,9.367e+00,9.320e+00,7.399e+00,1.076e+01,9.395e+00,1.005e+01,1.040e+01,9.498e+00,1.215e+01,9.900e+00,1.209e+01,1.274e+01,1.164e+01,1.076e+01,1.406e+01,1.375e+01,1.297e+01,1.374e+01,1.438e+01,1.253e+01,1.404e+01,1.623e+01,1.539e+01,1.317e+01,1.615e+01,1.476e+01,1.505e+01,1.460e+01
