9.780e-01,9.575e-01,7.310e-01,2.599e-01,2.101e-01,3.998e-01,9.924e-01,2.964e-02,8.965e-01,4.286e-01,6.833e-01,6.158e-01,8.632e-01,8.147e-01,6.847e-01,7.610e-01,3.701e-02,4.628e-01,2.506e-01,2.313e-01,3.050e-01,6.809e-01,2.590e-01,5.045e-01,6.180e-01,1.954e-01,8.820e-01,1.102e-01,5.301e-01,5.933e-01,3.592e-01,5.227e-01,9.103e-01,6.717e-01,2.397e-01,2.277e-01,4.782e-01,5.040e-01,1.966e-01,7.049e-01,4.540e-01,7.789e-01,2.580e-01,2.140e-01,3.172e-01,6.388e-01,1.802e-01,9.880e-01,1.550e-01,8.607e-01,8.880e-01,1.959e-01,1.887e-01,3.348e-01,7.353e-02,7.235e-01,4.485e-01,7.414e-01,6.904e-01,9.068e-02,6.998e-01,7.609e-01,6.212e-01,5.428e-01,2.780e-01,3.247e-01,5.310e-01,5.282e-01,3.375e-01,6.560e-01,6.493e-01,3.263e-01,8.967e-01,6.038e-01,6.093e-01,4.174e-01,5.812e-01,8.922e-02,8.525e-01,7.733e-01,8.024e-01,9.196e-01,3.449e-01,4.439e-02,2.193e-01,4.492e-01,9.135e-01,2.384e-01,4.320e-01,2.261e-01,5.397e-01,7.355e-01
6.486e-02,8.781e-01,9.211e-01,9.099e-01,9.972e-01,9.318e-01,6.157e-01,6.960e-02,2.618e-01,9.470e-01,9.810e-01,4.768e-01,4.698e-01,1.041e+00,1.204e-01,7.715e-01,6.207e-01,1.793e-01,5.395e-01,5.672e-01,3.022e-01,1.074e-01,9.552e-02,5.479e-01,2.102e-01,8.244e-01,5.678e-01,9.495e-01,6.499e-01,2.840e-01,9.844e-01,9.515e-01,4.678e-01,4.468e-02,7.780e-01,9.266e-01,2.057e-01,1.001e+00,1.515e-01,1.651e-01,1.758e-01,5.306e-02,1.095e-01,2.478e-01,6.618e-01,4.483e-01,8.658e-01,6.023e-01,3.139e-01,4.282e-01,3.468e-01,9.472e-01,5.333e-01,6.805e-02,8.299e-01,1.015e+00,6.536e-01,9.909e-01,5.737e-01,3.064e-01,9.114e-01,7.827e-02,9.396e-01,4.346e-02,9.174e-02,9.174e-01,8.935e-01,5.864e-01,6.035e-01,9.744e-01,7.841e-01,7.748e-01,6.824e-01,3.951e-01,5.666e-01,9.774e-01,7.764e-01,2.402e-01,2.054e-01,2.204e-01,5.524e-01,1.702e-01,1.016e+00,8.803e-01,3.650e-01,5.312e-01,7.305e-01,8.219e-01,7.949e-01,8.462e-01,2.203e-01,8.810e-01
5.088e-01,1.255e+00,1.413e+00,1.521e+00,1.227e+00,1.341e+00,1.071e+00,8.313e-01,9.892e-01,1.169e+00,1.265e+00,1.515e+00,8.787e-01,1.493e+00,1.225e+00,1.418e+00,1.393e+00,1.040e+00,1.316e+00,1.507e+00,1.196e+00,8.102e-01,5.757e-01,1.264e+00,1.021e+00,1.586e+00,1.593e+00,1.255e+00,1.678e+00,7.915e-01,1.774e+00,1.547e+00,1.718e+00,7.574e-01,1.548e+00,1.198e+00,1.187e+00,2.020e+00,6.565e-01,1.182e+00,4.530e-01,1.073e+00,3.240e-01,5.533e-01,1.003e+00,8.440e-01,1.302e+00,1.945e+00,1.115e+00,1.320e+00,1.134e+00,1.329e+00,6.987e-01,6.743e-01,1.196e+00,1.308e+00,1.200e+00,1.524e+00,9.907e-01,8.028e-01,1.185e+00,8.268e-01,2.039e+00,1.218e+00,1.140e+00,1.369e+00,1.541e+00,1.022e+00,1.515e+00,1.505e+00,1.178e+00,1.271e+00,1.796e+00,1.096e+00,1.611e+00,1.841e+00,1.875e+00,4.570e-01,6.107e-01,6.771e-01,1.726e+00,1.530e+00,1.596e+00,1.043e+00,6.054e-01,9.215e-01,1.254e+00,1.020e+00,1.795e+00,1.120e+00,6.048e-01,1.166e+00
9.525e-01,1.735e+00,1.644e+00,1.568e+00,1.422e+00,1.930e+00,1.621e+00,7.978e-01,1.475e+00,2.166e+00,2.489e+00,1.848e+00,1.439e+00,1.958e+00,1.080e+00,2.103e+00,1.411e+00,1.337e+00,1.297e+00,1.920e+00,1.783e+00,1.470e+00,1.363e+00,1.949e+00,1.316e+00,1.298e+00,1.771e+00,1.727e+00,1.899e+00,1.589e+00,1.876e+00,2.140e+00,2.333e+00,9.249e-01,1.223e+00,1.388e+00,1.126e+00,2.249e+00,1.394e+00,1.199e+00,1.026e+00,1.536e+00,4.997e-01,9.023e-01,1.897e+00,1.585e+00,1.744e+00,2.722e+00,8.929e-01,1.567e+00,1.315e+00,1.834e+00,1.259e+00,9.197e-01,1.628e+00,2.432e+00,1.243e+00,2.242e+00,2.125e+00,8.460e-01,2.428e+00,1.205e+00,2.509e+00,1.318e+00,1.630e+00,1.440e+00,2.514e+00,1.181e+00,1.580e+00,2.374e+00,1.453e+00,1.204e+00,1.735e+00,2.013e+00,2.302e+00,1.746e+00,2.469e+00,1.357e+00,1.314e+00,1.175e+00,2.291e+00,1.464e+00,1.759e+00,1.875e+00,7.902e-01,1.584e+00,2.454e+00,1.440e+00,2.295e+00,1.974e+00,1.717e+00,1.848e+00
3.823e-01,5.592e-01,4.897e-01,4.311e-01,1.179e+00,1.608e+00,1.205e+00,5.372e-01,1.072e+00,1.222e+00,1.751e+00,1.432e+00,6.740e-01,7.290e-01,7.502e-01,1.001e+00,7.747e-01,5.785e-01,1.143e+00,1.201e+00,1.331e+00,1.371e+00,5.786e-01,8.752e-01,5.196e-01,9.746e-01,8.981e-01,1.397e+00,1.173e+00,1.555e+00,1.365e+00,1.116e+00,1.078e+00,1.209e+00,7.304e-01,1.175e+00,3.573e-01,1.060e+00,6.748e-01,4.662e-01,7.898e-01,9.137e-01,4.278e-01,1.227e+00,7.726e-01,1.040e+00,1.173e+00,1.863e+00,9.747e-01,1.259e+00,4.484e-01,9.513e-01,6.434e-01,4.961e-01,1.112e+00,9.549e-01,5.039e-01,1.657e+00,1.777e+00,7.341e-01,1.748e+00,1.364e+00,9.373e-01,1.371e+00,8.296e-01,5.757e-01,1.418e+00,7.300e-01,8.881e-01,8.629e-01,9.346e-01,6.859e-01,1.381e+00,1.412e+00,1.638e+00,6.116e-01,1.529e+00,1.178e+00,9.039e-01,1.343e+00,1.062e+00,5.762e-01,9.777e-01,1.034e+00,1.230e+00,1.152e+00,9.534e-01,1.141e+00,9.290e-01,9.340e-01,7.887e-01,1.564e+00
2.370e-01,8.286e-01,1.017e+00,1.381e+00,1.820e+00,2.801e+00,1.686e+00,1.824e+00,2.184e+00,2.551e+00,2.918e+00,2.869e+00,1.365e+00,1.283e+00,1.996e+00,2.040e+00,2.589e+00,1.643e+00,2.686e+00,2.550e+00,2.348e+00,2.110e+00,1.301e+00,2.593e+00,1.146e+00,2.800e+00,1.932e+00,2.985e+00,2.803e+00,2.568e+00,2.896e+00,2.569e+00,2.507e+00,1.750e+00,1.762e+00,2.389e+00,1.850e+00,3.150e+00,1.273e+00,1.966e+00,1.121e+00,2.111e+00,1.110e+00,2.334e+00,1.947e+00,1.895e+00,2.712e+00,3.519e+00,2.460e+00,1.883e+00,1.514e+00,2.194e+00,1.714e+00,1.207e+00,2.746e+00,2.019e+00,1.923e+00,2.366e+00,2.403e+00,1.564e+00,2.904e+00,1.751e+00,2.436e+00,2.521e+00,2.198e+00,1.858e+00,3.253e+00,1.984e+00,2.055e+00,2.073e+00,1.505e+00,1.605e+00,2.228e+00,2.316e+00,3.387e+00,2.243e+00,2.909e+00,1.793e+00,1.280e+00,1.508e+00,2.945e+00,2.335e+00,2.185e+00,2.482e+00,2.442e+00,2.584e+00,2.115e+00,2.557e+00,2.407e+00,2.485e+00,1.604e+00,2.791e+00
1.818e-01,5.888e-01,7.718e-01,1.049e+00,8.103e-01,1.056e+00,8.916e-01,1.855e+00,1.232e+00,9.844e-01,1.694e+00,1.637e+00,1.141e+00,1.538e+00,1.151e+00,1.684e+00,1.519e+00,1.104e+00,1.190e+00,1.459e+00,2.025e+00,1.636e+00,1.403e+00,1.423e+00,1.043e+00,1.302e+00,2.002e+00,1.353e+00,1.553e+00,1.582e+00,1.939e+00,1.220e+00,1.918e+00,1.211e+00,1.668e+00,9.677e-01,1.975e+00,1.950e+00,9.052e-01,1.691e+00,7.960e-01,1.026e+00,9.172e-01,1.016e+00,1.222e+00,1.334e+00,1.250e+00,2.471e+00,1.051e+00,1.326e+00,1.321e+00,1.703e+00,1.476e+00,1.003e+00,1.479e+00,1.459e+00,1.706e+00,1.676e+00,1.464e+00,1.286e+00,1.554e+00,9.025e-01,1.584e+00,1.797e+00,1.493e+00,1.414e+00,1.688e+00,1.206e+00,1.545e+00,1.417e+00,8.159e-01,1.823e+00,1.620e+00,1.637e+00,1.801e+00,1.734e+00,2.413e+00,1.023e+00,1.118e+00,1.447e+00,2.394e+00,1.426e+00,1.501e+00,1.627e+00,7.758e-01,1.078e+00,1.681e+00,1.002e+00,2.240e+00,1.146e+00,1.504e+00,1.113e+00
9.033e-01,1.321e+00,1.350e+00,1.375e+00,1.311e+00,1.940e+00,1.732e+00,2.455e+00,2.232e+00,1.945e+00,2.460e+00,3.057e+00,1.766e+00,2.748e+00,2.309e+00,2.192e+00,2.463e+00,1.658e+00,2.280e+00,2.137e+00,2.731e+00,2.598e+00,1.930e+00,2.394e+00,2.011e+00,2.102e+00,2.791e+00,2.267e+00,2.765e+00,2.265e+00,2.416e+00,2.785e+00,3.102e+00,1.785e+00,2.138e+00,2.031e+00,1.964e+00,2.624e+00,1.570e+00,2.098e+00,2.042e+00,2.045e+00,9.794e-01,2.141e+00,1.760e+00,2.023e+00,2.654e+00,4.208e+00,1.671e+00,2.463e+00,2.075e+00,2.483e+00,1.681e+00,1.666e+00,1.975e+00,2.844e+00,2.362e+00,2.822e+00,2.277e+00,1.975e+00,2.483e+00,2.297e+00,3.180e+00,2.645e+00,2.341e+00,2.002e+00,2.913e+00,2.376e+00,2.618e+00,2.913e+00,2.052e+00,2.225e+00,3.259e+00,3.032e+00,3.409e+00,2.145e+00,3.688e+00,1.999e+00,1.632e+00,2.454e+00,3.497e+00,2.886e+00,2.577e+00,2.553e+00,1.831e+00,1.805e+00,3.138e+00,2.423e+00,2.506e+00,2.375e+00,2.290e+00,2.878e+00
3.172e-01,5.835e-01,7.433e-01,1.148e+00,1.210e+00,2.226e+00,1.320e+00,1.894e+00,2.084e+00,2.775e+00,3.108e+00,2.938e+00,2.077e+00,1.877e+00,2.528e+00,2.606e+00,2.642e+00,2.330e+00,2.644e+00,3.037e+00,3.316e+00,2.729e+00,1.739e+00,2.899e+00,1.823e+00,2.483e+00,2.075e+00,2.939e+00,2.904e+00,2.550e+00,3.131e+00,3.109e+00,3.024e+00,2.155e+00,1.642e+00,1.915e+00,1.937e+00,3.297e+00,1.525e+00,2.235e+00,2.058e+00,2.989e+00,1.957e+00,2.372e+00,2.296e+00,2.690e+00,2.731e+00,4.046e+00,2.899e+00,2.130e+00,1.573e+00,2.762e+00,2.041e+00,1.887e+00,3.191e+00,1.985e+00,1.877e+00,2.743e+00,3.008e+00,1.428e+00,3.101e+00,2.341e+00,2.480e+00,3.338e+00,2.663e+00,1.793e+00,3.406e+00,1.740e+00,2.605e+00,2.541e+00,2.109e+00,1.822e+00,2.372e+00,2.757e+00,3.504e+00,2.177e+00,2.753e+00,2.298e+00,1.496e+00,1.717e+00,3.276e+00,2.558e+00,2.397e+00,2.568e+00,2.282e+00,3.039e+00,2.736e+00,2.555e+00,2.642e+00,3.276e+00,2.058e+00,3.021e+00
4.831e-01,8.951e-01,1.013e+00,1.152e+00,1.276e+00,1.620e+00,1.377e+00,1.734e+00,1.575e+00,2.323e+00,3.232e+00,2.393e+00,2.163e+00,2.382e+00,2.794e+00,2.905e+00,2.031e+00,1.866e+00,2.738e+00,2.998e+00,3.303e+00,3.089e+00,2.002e+00,2.000e+00,2.287e+00,2.671e+00,2.594e+00,2.292e+00,2.665e+00,2.871e+00,2.800e+00,3.081e+00,3.407e+00,2.329e+00,2.638e+00,1.604e+00,1.846e+00,2.934e+00,1.458e+00,2.074e+00,1.919e+00,2.781e+00,2.299e+00,2.534e+00,1.559e+00,2.492e+00,2.435e+00,3.485e+00,2.346e+00,2.670e+00,1.829e+00,3.146e+00,1.883e+00,2.232e+00,2.486e+00,2.507e+00,1.988e+00,2.798e+00,2.956e+00,2.380e+00,2.711e+00,2.943e+00,2.543e+00,3.128e+00,2.455e+00,2.118e+00,3.038e+00,2.278e+00,2.306e+00,2.237e+00,1.872e+00,2.888e+00,3.058e+00,2.531e+00,3.012e+00,2.635e+00,3.202e+00,2.431e+00,2.040e+00,2.106e+00,3.043e+00,2.174e+00,2.168e+00,1.919e+00,2.402e+00,2.712e+00,2.481e+00,2.431e+00,2.629e+00,2.503e+00,1.883e+00,2.464e+00
6.909e-02,7.319e-01,8.888e-01,1.195e+00,1.711e+00,2.442e+00,1.673e+00,2.561e+00,2.197e+00,3.467e+00,5.272e+00,3.457e+00,2.931e+00,4.002e+00,3.248e+00,4.203e+00,3.162e+00,2.775e+00,3.886e+00,3.893e+00,4.421e+00,4.557e+00,2.849e+00,3.058e+00,3.307e+00,4.289e+00,3.600e+00,4.059e+00,3.502e+00,4.685e+00,4.055e+00,4.544e+00,4.029e+00,3.479e+00,3.941e+00,2.905e+00,2.594e+00,4.009e+00,2.417e+00,3.366e+00,2.856e+00,4.043e+00,3.268e+00,4.001e+00,2.761e+00,4.193e+00,3.801e+00,4.751e+00,3.485e+00,3.051e+00,2.229e+00,4.798e+00,3.758e+00,3.170e+00,4.830e+00,4.017e+00,3.376e+00,4.214e+00,4.492e+00,3.128e+00,4.867e+00,3.776e+00,3.779e+00,4.832e+00,3.009e+00,3.860e+00,4.346e+00,3.539e+00,3.239e+00,3.449e+00,2.995e+00,4.108e+00,3.696e+00,4.102e+00,4.613e+00,3.445e+00,4.843e+00,3.486e+00,2.798e+00,3.656e+00,4.363e+00,2.564e+00,4.003e+00,4.117e+00,4.280e+00,4.676e+00,4.235e+00,3.854e+00,3.364e+00,3.964e+00,3.161e+00,4.725e+00
1.503e-01,3.201e-01,4.200e-01,7.143e-01,1.134e+00,2.034e+00,1.176e+00,1.703e+00,1.809e+00,2.249e+00,3.182e+00,3.167e+00,1.955e+00,3.005e+00,2.276e+00,2.356e+00,3.189e+00,2.271e+00,3.599e+00,3.324e+00,3.135e+00,3.048e+00,2.185e+00,3.274e+00,2.613e+00,3.638e+00,3.012e+00,3.700e+00,3.124e+00,3.436e+00,2.886e+00,3.180e+00,2.574e+00,2.686e+00,2.769e+00,2.253e+00,2.263e+00,3.171e+00,2.749e+00,2.643e+00,2.064e+00,3.097e+00,2.150e+00,3.100e+00,2.056e+00,3.519e+00,3.082e+00,4.272e+00,3.162e+00,1.888e+00,1.931e+00,3.189e+00,2.581e+00,2.395e+00,3.674e+00,2.466e+00,2.650e+00,2.985e+00,3.125e+00,2.404e+00,3.977e+00,2.796e+00,3.775e+00,3.657e+00,2.490e+00,3.059e+00,3.381e+00,2.174e+00,2.801e+00,3.249e+00,3.047e+00,1.866e+00,3.061e+00,3.957e+00,4.213e+00,2.375e+00,4.033e+00,2.829e+00,2.144e+00,2.786e+00,3.169e+00,3.046e+00,3.323e+00,3.797e+00,3.015e+00,3.259e+00,3.076e+00,2.985e+00,2.027e+00,3.302e+00,2.449e+00,3.825e+00
3.817e-01,9.738e-01,9.459e-01,8.351e-01,1.160e+00,1.578e+00,1.471e+00,1.951e+00,1.790e+00,2.235e+00,3.079e+00,2.403e+00,2.831e+00,3.818e+00,2.262e+00,2.880e+00,3.031e+00,1.811e+00,2.369e+00,2.468e+00,3.784e+00,3.388e+00,2.310e+00,2.581e+00,2.041e+00,2.642e+00,3.300e+00,3.376e+00,3.000e+00,3.308e+00,3.667e+00,3.830e+00,3.025e+00,2.961e+00,2.626e+00,2.672e+00,2.324e+00,2.948e+00,1.623e+00,2.881e+00,2.438e+00,2.724e+00,2.688e+00,3.346e+00,1.811e+00,3.102e+00,3.373e+00,4.084e+00,2.537e+00,3.084e+00,2.546e+00,3.460e+00,2.601e+00,1.906e+00,3.274e+00,3.285e+00,3.362e+00,4.126e+00,3.563e+00,2.210e+00,3.752e+00,2.800e+00,2.717e+00,2.720e+00,1.934e+00,3.288e+00,3.439e+00,3.366e+00,2.561e+00,3.157e+00,3.186e+00,3.657e+00,3.772e+00,3.572e+00,3.075e+00,2.426e+00,3.301e+00,2.971e+00,2.298e+00,3.517e+00,3.910e+00,2.832e+00,3.208e+00,3.664e+00,2.618e+00,3.387e+00,3.417e+00,3.619e+00,2.844e+00,3.280e+00,2.700e+00,3.620e+00
1.748e-01,5.744e-01,5.792e-01,7.437e-01,9.952e-01,1.529e+00,9.170e-01,1.483e+00,1.234e+00,2.152e+00,2.859e+00,2.500e+00,2.030e+00,4.302e+00,2.150e+00,2.388e+00,3.444e+00,2.150e+00,3.139e+00,3.712e+00,3.919e+00,3.273e+00,3.241e+00,3.013e+00,2.494e+00,3.224e+00,3.433e+00,3.909e+00,3.614e+00,3.315e+00,3.353e+00,3.514e+00,2.762e+00,2.560e+00,3.294e+00,2.384e+00,2.390e+00,2.787e+00,3.223e+00,2.096e+00,2.996e+00,2.943e+00,2.144e+00,3.361e+00,2.058e+00,3.935e+00,3.243e+00,4.333e+00,2.993e+00,2.855e+00,2.490e+00,3.913e+00,3.141e+00,2.518e+00,3.971e+00,3.182e+00,2.768e+00,3.286e+00,4.016e+00,2.929e+00,3.743e+00,3.000e+00,4.223e+00,2.994e+00,2.762e+00,3.265e+00,3.814e+00,2.683e+00,2.733e+00,3.679e+00,3.248e+00,2.760e+00,3.417e+00,4.437e+00,4.498e+00,2.727e+00,4.425e+00,3.209e+00,2.051e+00,3.744e+00,3.153e+00,3.473e+00,3.216e+00,4.092e+00,2.776e+00,2.968e+00,3.338e+00,3.131e+00,2.553e+00,4.290e+00,3.060e+00,4.156e+00
9.373e-01,1.287e+00,1.202e+00,1.046e+00,1.147e+00,1.948e+00,1.995e+00,2.688e+00,2.667e+00,2.957e+00,4.432e+00,3.564e+00,3.391e+00,5.217e+00,4.353e+00,4.223e+00,4.045e+00,3.691e+00,4.236e+00,4.174e+00,5.816e+00,5.482e+00,4.699e+00,3.710e+00,4.502e+00,4.749e+00,5.700e+00,4.609e+00,5.299e+00,5.331e+00,4.722e+00,5.772e+00,5.003e+00,4.783e+00,4.406e+00,3.418e+00,4.523e+00,3.979e+00,3.431e+00,4.541e+00,4.434e+00,5.318e+00,3.388e+00,4.663e+00,3.600e+00,4.807e+00,4.088e+00,6.049e+00,4.484e+00,5.021e+00,3.980e+00,5.081e+00,4.827e+00,3.834e+00,4.705e+00,4.774e+00,4.433e+00,4.462e+00,5.692e+00,4.470e+00,5.096e+00,4.846e+00,5.659e+00,4.971e+00,4.319e+00,4.434e+00,5.318e+00,5.225e+00,4.044e+00,4.372e+00,4.218e+00,5.260e+00,5.738e+00,6.065e+00,6.263e+00,4.389e+00,6.012e+00,4.214e+00,4.050e+00,5.067e+00,6.062e+00,5.083e+00,4.546e+00,4.743e+00,4.463e+00,4.529e+00,5.766e+00,4.497e+00,4.108e+00,5.270e+00,4.878e+00,5.790e+00
8.915e-01,1.061e+00,8.830e-01,6.405e-01,1.175e+00,1.770e+00,1.807e+00,1.234e+00,1.870e+00,2.512e+00,4.034e+00,2.659e+00,2.971e+00,4.220e+00,3.411e+00,4.708e+00,3.737e+00,3.485e+00,3.677e+00,4.526e+00,6.155e+00,5.240e+00,4.721e+00,3.610e+00,4.455e+00,4.266e+00,4.857e+00,4.224e+00,5.393e+00,5.598e+00,4.884e+00,5.039e+00,4.445e+00,5.630e+00,4.226e+00,3.252e+00,3.546e+00,3.400e+00,3.622e+00,4.367e+00,4.364e+00,5.120e+00,3.641e+00,4.855e+00,3.759e+00,5.230e+00,3.730e+00,5.628e+00,5.088e+00,5.072e+00,3.058e+00,4.302e+00,4.184e+00,3.316e+00,4.750e+00,4.262e+00,3.855e+00,4.839e+00,6.655e+00,4.124e+00,5.722e+00,4.921e+00,4.696e+00,4.602e+00,3.814e+00,3.689e+00,4.930e+00,3.852e+00,4.022e+00,4.124e+00,4.522e+00,5.150e+00,5.713e+00,6.014e+00,5.427e+00,4.332e+00,5.122e+00,4.142e+00,4.563e+00,5.504e+00,4.942e+00,4.625e+00,4.438e+00,3.978e+00,4.492e+00,4.958e+00,5.127e+00,3.600e+00,3.451e+00,4.388e+00,4.378e+00,5.230e+00
7.666e-01,1.420e+00,1.426e+00,1.343e+00,1.664e+00,2.415e+00,2.232e+00,3.053e+00,2.843e+00,3.093e+00,4.519e+00,3.975e+00,3.624e+00,5.507e+00,4.200e+00,4.775e+00,5.679e+00,4.249e+00,5.265e+00,5.255e+00,6.404e+00,6.022e+00,5.771e+00,4.568e+00,5.190e+00,5.998e+00,6.783e+00,5.975e+00,6.958e+00,6.817e+00,6.481e+00,6.398e+00,5.882e+00,5.445e+00,5.138e+00,4.351e+00,4.909e+00,5.484e+00,4.611e+00,5.515e+00,4.517e+00,5.847e+00,4.283e+00,6.429e+00,4.650e+00,5.768e+00,5.804e+00,7.628e+00,5.376e+00,5.778e+00,4.890e+00,6.265e+00,5.417e+00,3.728e+00,6.217e+00,5.666e+00,6.023e+00,6.252e+00,6.651e+00,5.461e+00,6.401e+00,5.017e+00,6.458e+00,5.376e+00,5.052e+00,5.388e+00,5.938e+00,6.354e+00,4.711e+00,5.547e+00,5.169e+00,6.081e+00,6.996e+00,7.174e+00,6.443e+00,5.650e+00,6.664e+00,4.844e+00,5.036e+00,6.242e+00,6.872e+00,6.399e+00,5.891e+00,6.251e+00,5.661e+00,5.691e+00,6.782e+00,5.786e+00,4.732e+00,5.578e+00,4.912e+00,6.877e+00
3.971e-01,5.217e-01,4.781e-01,3.837e-01,6.404e-01,1.062e+00,9.711e-01,7.912e-01,1.194e+00,1.418e+00,2.037e+00,1.595e+00,1.720e+00,2.328e+00,1.938e+00,2.541e+00,2.474e+00,2.666e+00,2.734e+00,3.357e+00,3.375e+00,3.636e+00,3.148e+00,2.435e+00,2.970e+00,3.024e+00,3.533e+00,2.690e+00,3.802e+00,3.999e+00,3.731e+00,4.009e+00,3.188e+00,3.971e+00,2.412e+00,2.245e+00,2.090e+00,2.713e+00,2.297e+00,3.326e+00,2.447e+00,3.513e+00,2.528e+00,3.071e+00,2.906e+00,3.528e+00,2.984e+00,3.517e+00,3.797e+00,3.614e+00,1.989e+00,3.231e+00,3.034e+00,2.182e+00,3.873e+00,3.234e+00,3.442e+00,3.928e+00,4.069e+00,2.082e+00,3.912e+00,3.381e+00,3.096e+00,3.357e+00,2.294e+00,3.141e+00,3.516e+00,3.037e+00,2.335e+00,2.907e+00,2.800e+00,3.513e+00,4.185e+00,4.024e+00,3.327e+00,3.394e+00,2.506e+00,2.778e+00,3.275e+00,3.700e+00,3.945e+00,3.850e+00,3.402e+00,3.236e+00,2.764e+00,3.293e+00,3.300e+00,3.018e+00,2.048e+00,3.426e+00,2.392e+00,3.959e+00
1.877e-01,5.749e-01,6.146e-01,8.005e-01,7.253e-01,1.298e+00,7.763e-01,1.259e+00,1.201e+00,2.239e+00,2.713e+00,2.065e+00,2.050e+00,3.435e+00,2.702e+00,2.922e+00,3.804e+00,3.074e+00,3.908e+00,5.003e+00,4.852e+00,4.569e+00,5.112e+00,4.214e+00,4.076e+00,4.782e+00,5.113e+00,4.719e+00,4.951e+00,4.543e+00,4.803e+00,5.322e+00,4.025e+00,4.424e+00,3.874e+00,3.578e+00,4.179e+00,4.106e+00,4.534e+00,3.997e+00,3.742e+00,4.184e+00,2.863e+00,4.110e+00,4.183e+00,5.097e+00,3.679e+00,5.146e+00,4.886e+00,4.402e+00,3.917e+00,4.671e+00,4.420e+00,3.186e+00,4.679e+00,4.770e+00,3.795e+00,4.339e+00,5.175e+00,4.330e+00,4.307e+00,4.146e+00,5.769e+00,3.362e+00,4.293e+00,3.814e+00,4.776e+00,3.946e+00,3.261e+00,4.824e+00,4.004e+00,4.176e+00,4.267e+00,5.803e+00,5.525e+00,4.386e+00,4.724e+00,3.681e+00,3.826e+00,3.853e+00,4.511e+00,4.844e+00,4.022e+00,4.754e+00,4.018e+00,4.493e+00,4.992e+00,4.471e+00,3.888e+00,5.726e+00,3.928e+00,5.356e+00
1.004e-01,4.288e-01,4.453e-01,6.259e-01,7.537e-01,1.460e+00,8.890e-01,1.876e+00,1.536e+00,2.766e+00,3.753e+00,2.547e+00,2.209e+00,3.272e+00,2.700e+00,3.953e+00,3.725e+00,2.943e+00,3.795e+00,3.974e+00,4.636e+00,4.706e+00,5.053e+00,3.995e+00,4.457e+00,4.732e+00,4.265e+00,4.313e+00,5.398e+00,5.590e+00,3.793e+00,5.526e+00,4.191e+00,4.199e+00,4.310e+00,3.551e+00,3.115e+00,4.013e+00,4.494e+00,4.703e+00,4.535e+00,5.061e+00,4.177e+00,5.284e+00,4.354e+00,5.191e+00,5.173e+00,5.591e+00,4.788e+00,3.724e+00,3.185e+00,4.817e+00,4.487e+00,3.548e+00,5.639e+00,5.514e+00,4.294e+00,4.349e+00,5.138e+00,4.410e+00,5.878e+00,3.678e+00,5.497e+00,4.471e+00,3.579e+00,3.727e+00,4.925e+00,4.039e+00,3.508e+00,5.147e+00,4.451e+00,4.222e+00,4.943e+00,5.511e+00,5.395e+00,4.701e+00,5.107e+00,3.704e+00,4.038e+00,3.843e+00,4.834e+00,4.819e+00,4.809e+00,4.690e+00,5.512e+00,4.925e+00,5.971e+00,4.909e+00,2.863e+00,4.507e+00,4.664e+00,5.553e+00
4.083e-01,1.067e+00,1.038e+00,1.089e+00,1.687e+00,2.548e+00,1.730e+00,1.744e+00,2.061e+00,2.794e+00,3.511e+00,3.065e+00,2.284e+00,4.209e+00,2.427e+00,3.275e+00,4.476e+00,2.830e+00,3.906e+00,4.672e+00,5.442e+00,4.508e+00,4.613e+00,4.740e+00,3.537e+00,4.758e+00,5.309e+00,5.234e+00,5.794e+00,5.995e+00,6.021e+00,5.567e+00,4.259e+00,4.463e+00,4.779e+00,4.548e+00,4.110e+00,4.198e+00,4.123e+00,3.784e+00,4.479e+00,4.644e+00,2.958e+00,5.801e+00,4.206e+00,5.715e+00,5.527e+00,6.156e+00,4.982e+00,5.103e+00,3.688e+00,5.334e+00,4.755e+00,3.230e+00,5.909e+00,5.849e+00,4.900e+00,5.825e+00,6.568e+00,3.995e+00,5.529e+00,4.081e+00,5.702e+00,4.517e+00,4.015e+00,4.781e+00,5.730e+00,4.149e+00,3.851e+00,5.165e+00,4.856e+00,4.961e+00,5.066e+00,6.420e+00,6.061e+00,4.611e+00,5.577e+00,4.080e+00,3.636e+00,5.996e+00,4.705e+00,5.252e+00,5.008e+00,5.310e+00,5.195e+00,5.335e+00,5.478e+00,4.911e+00,4.098e+00,5.813e+00,4.329e+00,6.041e+00
2.589e-01,7.787e-01,9.223e-01,1.276e+00,1.020e+00,1.651e+00,1.145e+00,2.699e+00,1.877e+00,2.752e+00,3.766e+00,3.206e+00,2.803e+00,4.389e+00,3.472e+00,4.085e+00,4.533e+00,3.991e+00,4.589e+00,5.179e+00,6.088e+00,5.731e+00,5.899e+00,4.731e+00,5.478e+00,5.637e+00,6.472e+00,5.396e+00,6.822e+00,6.488e+00,6.045e+00,6.479e+00,5.252e+00,4.964e+00,5.397e+00,4.358e+00,5.668e+00,5.113e+00,4.946e+00,5.265e+00,5.178e+00,6.056e+00,4.167e+00,5.703e+00,5.210e+00,6.283e+00,5.328e+00,7.014e+00,6.174e+00,5.113e+00,4.793e+00,6.804e+00,5.886e+00,4.826e+00,6.280e+00,5.544e+00,5.090e+00,5.197e+00,5.921e+00,6.000e+00,6.379e+00,5.171e+00,6.696e+00,5.929e+00,5.082e+00,4.973e+00,5.670e+00,5.430e+00,4.899e+00,6.601e+00,4.952e+00,5.570e+00,6.671e+00,7.789e+00,6.276e+00,6.066e+00,6.820e+00,5.140e+00,5.292e+00,5.161e+00,7.068e+00,5.653e+00,5.784e+00,6.177e+00,4.691e+00,5.127e+00,6.754e+00,5.831e+00,5.398e+00,6.588e+00,5.923e+00,6.214e+00
5.462e-01,7.368e-01,8.347e-01,9.843e-01,9.312e-01,1.460e+00,1.125e+00,1.239e+00,1.493e+00,1.937e+00,2.429e+00,2.554e+00,2.361e+00,3.196e+00,3.004e+00,2.770e+00,3.341e+00,3.066e+00,3.502e+00,4.270e+00,4.561e+00,4.071e+00,3.413e+00,3.775e+00,4.510e+00,4.589e+00,5.006e+00,4.667e+00,5.923e+00,4.889e+00,4.785e+00,5.218e+00,4.229e+00,5.159e+00,4.009e+00,3.641e+00,4.549e+00,4.817e+00,4.064e+00,4.489e+00,4.158e+00,5.289e+00,3.314e+00,4.005e+00,3.435e+00,5.059e+00,4.508e+00,5.131e+00,5.021e+00,4.898e+00,4.343e+00,4.893e+00,4.203e+00,4.213e+00,4.990e+00,3.875e+00,4.296e+00,4.801e+00,4.865e+00,3.579e+00,4.551e+00,4.418e+00,5.182e+00,5.313e+00,4.115e+00,4.434e+00,4.422e+00,3.932e+00,3.655e+00,4.461e+00,4.130e+00,3.801e+00,5.805e+00,6.178e+00,5.111e+00,4.808e+00,5.141e+00,3.970e+00,3.881e+00,3.842e+00,5.039e+00,5.434e+00,3.968e+00,4.076e+00,3.861e+00,4.223e+00,4.537e+00,4.931e+00,4.105e+00,4.817e+00,4.014e+00,4.711e+00
2.028e-01,5.784e-01,6.150e-01,7.442e-01,1.248e+00,1.804e+00,1.257e+00,1.641e+00,1.559e+00,2.551e+00,3.552e+00,2.609e+00,2.450e+00,4.031e+00,2.942e+00,3.999e+00,4.573e+00,3.563e+00,4.245e+00,5.513e+00,6.641e+00,5.722e+00,6.165e+00,5.566e+00,6.280e+00,6.222e+00,6.856e+00,6.531e+00,8.520e+00,8.483e+00,7.844e+00,6.917e+00,5.996e+00,7.006e+00,6.439e+00,5.341e+00,5.936e+00,5.456e+00,5.903e+00,6.186e+00,6.734e+00,7.187e+00,5.175e+00,8.310e+00,6.475e+00,8.352e+00,7.729e+00,8.068e+00,7.611e+00,7.383e+00,5.314e+00,7.578e+00,6.807e+00,5.171e+00,8.550e+00,6.848e+00,6.261e+00,7.738e+00,8.734e+00,6.161e+00,7.154e+00,5.698e+00,6.800e+00,7.458e+00,5.718e+00,5.278e+00,6.354e+00,5.880e+00,5.123e+00,6.264e+00,6.250e+00,6.962e+00,7.226e+00,8.255e+00,7.131e+00,6.935e+00,6.828e+00,5.600e+00,5.863e+00,7.510e+00,6.078e+00,7.036e+00,5.778e+00,6.377e+00,7.749e+00,6.592e+00,7.129e+00,6.741e+00,5.095e+00,6.879e+00,5.856e+00,7.196e+00
3.316e-01,4.270e-01,3.814e-01,2.615e-01,9.077e-01,1.350e+00,1.335e+00,1.390e+00,1.587e+00,1.775e+00,3.073e+00,2.105e+00,2.308e+00,2.937e+00,2.267e+00,3.510e+00,3.076e+00,3.081e+00,3.550e+00,4.593e+00,4.964e+00,5.804e+00,5.220e+00,4.463e+00,6.252e+00,6.303e+00,6.449e+00,5.962e+00,7.981e+00,8.170e+00,6.712e+00,6.506e+00,5.264e+00,7.640e+00,5.757e+00,5.455e+00,5.378e+00,6.035e+00,5.200e+00,6.391e+00,6.026e+00,7.099e+00,5.092e+00,7.076e+00,6.121e+00,7.855e+00,6.453e+00,7.424e+00,7.839e+00,6.577e+00,6.110e+00,6.773e+00,6.781e+00,5.256e+00,8.396e+00,6.604e+00,6.230e+00,7.677e+00,7.579e+00,5.987e+00,7.758e+00,5.959e+00,5.586e+00,7.077e+00,5.163e+00,5.564e+00,5.898e+00,5.325e+00,4.330e+00,6.276e+00,5.757e+00,6.702e+00,7.621e+00,8.346e+00,6.022e+00,6.932e+00,6.384e+00,5.251e+00,7.149e+00,7.050e+00,6.010e+00,7.065e+00,5.398e+00,5.656e+00,6.804e+00,5.759e+00,6.344e+00,7.272e+00,4.944e+00,5.860e+00,5.599e+00,7.091e+00
2.537e-01,4.581e-01,5.298e-01,6.795e-01,9.717e-01,1.529e+00,1.100e+00,2.072e+00,1.650e+00,1.888e+00,2.488e+00,2.817e+00,2.114e+00,3.698e+00,2.771e+00,2.573e+00,4.076e+00,2.854e+00,4.395e+00,4.846e+00,4.730e+00,4.822e+00,4.909e+00,4.534e+00,4.745e+00,5.407e+00,6.516e+00,5.893e+00,6.600e+00,6.104e+00,6.324e+00,6.314e+00,4.809e+00,6.068e+00,5.672e+00,4.341e+00,5.506e+00,4.842e+00,5.375e+00,5.192e+00,5.181e+00,4.975e+00,4.551e+00,6.000e+00,4.718e+00,6.373e+00,6.102e+00,6.961e+00,6.128e+00,5.591e+00,4.940e+00,6.771e+00,5.107e+00,4.535e+00,6.595e+00,5.993e+00,6.009e+00,6.396e+00,6.199e+00,5.658e+00,5.964e+00,5.132e+00,5.786e+00,5.565e+00,5.204e+00,4.784e+00,5.751e+00,5.286e+00,4.213e+00,6.272e+00,5.508e+00,5.747e+00,7.056e+00,7.715e+00,6.892e+00,5.702e+00,6.203e+00,4.915e+00,5.907e+00,5.876e+00,5.989e+00,6.975e+00,4.889e+00,5.708e+00,5.763e+00,4.594e+00,5.735e+00,6.607e+00,4.566e+00,6.838e+00,4.825e+00,6.566e+00
5.707e-01,1.312e+00,1.407e+00,1.435e+00,1.228e+00,1.544e+00,1.537e+00,2.697e+00,2.011e+00,2.219e+00,3.360e+00,3.091e+00,2.899e+00,5.476e+00,3.112e+00,3.786e+00,4.020e+00,2.970e+00,3.460e+00,4.202e+00,5.678e+00,5.245e+00,4.882e+00,4.601e+00,5.104e+00,5.509e+00,7.617e+00,6.440e+00,7.276e+00,6.908e+00,7.971e+00,7.474e+00,5.872e+00,6.991e+00,7.636e+00,5.604e+00,6.899e+00,5.702e+00,5.869e+00,6.257e+00,6.790e+00,6.307e+00,5.360e+00,7.298e+00,5.501e+00,8.048e+00,7.594e+00,8.103e+00,7.209e+00,6.763e+00,6.048e+00,8.480e+00,6.274e+00,5.838e+00,7.751e+00,7.788e+00,7.160e+00,7.598e+00,7.606e+00,5.930e+00,7.386e+00,5.295e+00,7.454e+00,7.054e+00,5.573e+00,6.311e+00,6.303e+00,6.888e+00,5.935e+00,7.740e+00,6.490e+00,7.959e+00,8.765e+00,8.687e+00,8.054e+00,7.121e+00,8.357e+00,5.304e+00,6.490e+00,7.654e+00,7.469e+00,8.003e+00,6.741e+00,5.864e+00,6.800e+00,5.539e+00,7.089e+00,7.585e+00,6.789e+00,7.240e+00,6.720e+00,7.365e+00
6.994e-01,9.033e-01,8.011e-01,6.084e-01,5.644e-01,1.104e+00,1.346e+00,2.090e+00,1.927e+00,1.630e+00,2.309e+00,2.480e+00,2.502e+00,3.882e+00,2.348e+00,2.883e+00,3.625e+00,2.590e+00,3.685e+00,4.265e+00,4.986e+00,4.887e+00,5.405e+00,5.795e+00,5.950e+00,5.381e+00,7.549e+00,6.430e+00,8.185e+00,8.025e+00,7.939e+00,7.483e+00,6.457e+00,7.632e+00,6.491e+00,5.476e+00,7.823e+00,6.390e+00,7.035e+00,6.204e+00,7.810e+00,6.177e+00,4.910e+00,7.191e+00,6.685e+00,9.001e+00,7.690e+00,8.603e+00,7.776e+00,6.784e+00,6.934e+00,8.245e+00,7.612e+00,6.852e+00,7.656e+00,8.651e+00,8.187e+00,8.149e+00,7.865e+00,6.494e+00,7.485e+00,5.332e+00,7.975e+00,7.004e+00,6.935e+00,6.915e+00,6.981e+00,6.652e+00,6.528e+00,8.231e+00,6.696e+00,7.699e+00,8.665e+00,9.564e+00,8.244e+00,7.983e+00,8.407e+00,5.999e+00,7.426e+00,7.489e+00,7.348e+00,9.515e+00,6.675e+00,6.628e+00,7.523e+00,5.962e+00,8.401e+00,7.967e+00,6.039e+00,7.502e+00,6.926e+00,7.385e+00
8.709e-01,1.478e+00,1.417e+00,1.373e+00,1.730e+00,2.516e+00,2.229e+00,2.314e+00,2.510e+00,2.998e+00,4.431e+00,3.245e+00,2.735e+00,3.940e+00,2.973e+00,4.429e+00,3.645e+00,2.925e+00,3.639e+00,4.355e+00,5.474e+00,5.168e+00,4.783e+00,4.397e+00,4.839e+00,5.320e+00,5.916e+00,5.646e+00,7.626e+00,7.705e+00,6.570e+00,7.129e+00,6.418e+00,6.599e+00,6.305e+00,5.079e+00,5.665e+00,6.782e+00,5.296e+00,5.676e+00,6.589e+00,6.154e+00,4.177e+00,6.978e+00,5.358e+00,6.724e+00,6.194e+00,7.641e+00,6.619e+00,5.973e+00,5.354e+00,6.931e+00,6.873e+00,5.925e+00,7.031e+00,7.661e+00,6.809e+00,6.610e+00,7.391e+00,5.724e+00,8.365e+00,5.893e+00,6.638e+00,6.198e+00,5.713e+00,6.410e+00,7.554e+00,6.262e+00,5.104e+00,6.451e+00,5.773e+00,7.000e+00,8.270e+00,8.215e+00,7.472e+00,7.548e+00,8.779e+00,5.460e+00,7.012e+00,6.406e+00,6.764e+00,7.796e+00,5.780e+00,5.930e+00,6.262e+00,6.446e+00,7.396e+00,6.428e+00,6.345e+00,5.760e+00,6.349e+00,6.383e+00
1.514e-01,7.789e-01,9.244e-01,1.106e+00,1.647e+00,2.319e+00,1.550e+00,2.131e+00,2.031e+00,3.046e+00,4.133e+00,3.402e+00,2.873e+00,4.282e+00,3.799e+00,4.203e+00,4.986e+00,3.456e+00,5.127e+00,5.273e+00,6.547e+00,5.923e+00,5.475e+00,5.414e+00,5.795e+00,7.357e+00,7.072e+00,6.743e+00,8.566e+00,9.678e+00,8.026e+00,9.702e+00,7.398e+00,7.637e+00,7.957e+00,6.424e+00,6.843e+00,6.943e+00,5.923e+00,7.619e+00,7.257e+00,8.581e+00,6.319e+00,8.817e+00,5.977e+00,8.101e+00,8.149e+00,8.344e+00,8.249e+00,7.714e+00,5.825e+00,8.029e+00,8.117e+00,7.158e+00,9.151e+00,8.261e+00,8.250e+00,7.863e+00,8.536e+00,6.989e+00,8.915e+00,6.569e+00,7.973e+00,7.463e+00,6.171e+00,8.514e+00,8.761e+00,7.717e+00,6.005e+00,7.005e+00,8.262e+00,8.365e+00,9.191e+00,9.173e+00,8.819e+00,8.156e+00,9.363e+00,6.259e+00,7.472e+00,6.673e+00,7.403e+00,8.355e+00,7.455e+00,7.148e+00,8.778e+00,8.600e+00,8.063e+00,8.925e+00,6.339e+00,7.066e+00,6.682e+00,7.261e+00
5.085e-01,9.352e-01,1.019e+00,1.139e+00,8.874e-01,1.355e+00,1.106e+00,1.706e+00,1.569e+00,2.647e+00,3.681e+00,2.871e+00,2.954e+00,4.894e+00,3.920e+00,4.687e+00,4.656e+00,4.056e+00,4.774e+00,5.927e+00,6.635e+00,6.172e+00,5.851e+00,6.203e+00,7.803e+00,7.476e+00,7.868e+00,7.168e+00,9.328e+00,9.231e+00,9.586e+00,9.898e+00,8.613e+00,9.674e+00,8.352e+00,6.984e+00,8.111e+00,8.102e+00,7.482e+00,8.201e+00,8.205e+00,8.748e+00,6.157e+00,9.251e+00,8.130e+00,1.076e+01,8.554e+00,9.465e+00,1.007e+01,8.601e+00,7.161e+00,1.008e+01,8.540e+00,8.782e+00,1.015e+01,9.414e+00,8.649e+00,9.201e+00,9.231e+00,8.297e+00,9.936e+00,8.703e+00,9.058e+00,9.383e+00,7.987e+00,8.633e+00,8.846e+00,8.923e+00,8.197e+00,8.601e+00,8.132e+00,1.014e+01,1.070e+01,1.047e+01,9.201e+00,9.923e+00,1.005e+01,8.091e+00,8.613e+00,8.683e+00,9.204e+00,9.692e+00,8.143e+00,7.673e+00,8.846e+00,9.186e+00,8.804e+00,9.413e+00,7.618e+00,9.097e+00,8.315e+00,8.021e+00
2.024e-01,8.045e-01,9.860e-01,1.289e+00,1.179e+00,1.538e+00,1.008e+00,1.662e+00,1.307e+00,2.172e+00,2.925e+00,2.535e+00,2.276e+00,4.070e+00,3.127e+00,4.019e+00,4.580e+00,3.665e+00,4.017e+00,5.115e+00,6.377e+00,4.921e+00,5.473e+00,4.982e+00,6.348e+00,6.627e+00,6.756e+00,6.459e+00,9.251e+00,8.241e+00,8.744e+00,9.635e+00,7.646e+00,8.550e+00,8.191e+00,6.755e+00,8.429e+00,7.968e+00,6.711e+00,6.829e+00,8.071e+00,8.455e+00,5.708e+00,8.157e+00,7.091e+00,9.181e+00,7.400e+00,8.774e+00,9.138e+00,8.003e+00,7.558e+00,9.090e+00,8.616e+00,7.645e+00,9.722e+00,8.199e+00,7.876e+00,8.986e+00,8.427e+00,8.414e+00,8.844e+00,7.650e+00,8.662e+00,8.712e+00,8.595e+00,8.286e+00,8.821e+00,6.923e+00,7.324e+00,7.952e+00,7.996e+00,9.921e+00,9.709e+00,9.788e+00,8.716e+00,9.905e+00,1.028e+01,7.076e+00,6.930e+00,8.005e+00,7.829e+00,9.194e+00,7.418e+00,7.609e+00,7.643e+00,8.336e+00,9.278e+00,7.976e+00,7.516e+00,8.599e+00,7.575e+00,6.679e+00
3.941e-01,1.066e+00,1.080e+00,1.127e+00,1.402e+00,1.818e+00,1.336e+00,1.089e+00,1.309e+00,2.257e+00,3.004e+00,2.008e+00,1.625e+00,2.394e+00,2.069e+00,3.380e+00,2.921e+00,2.278e+00,3.327e+00,4.098e+00,4.563e+00,4.302e+00,4.683e+00,4.991e+00,5.530e+00,5.476e+00,6.033e+00,5.714e+00,6.890e+00,7.075e+00,7.321e+00,7.736e+00,7.340e+00,8.294e+00,6.719e+00,6.327e+00,6.427e+00,6.746e+00,6.984e+00,7.252e+00,6.569e+00,6.209e+00,5.320e+00,7.409e+00,8.189e+00,8.314e+00,7.724e+00,8.342e+00,7.977e+00,6.874e+00,5.240e+00,7.503e+00,7.079e+00,6.535e+00,8.589e+00,8.487e+00,6.871e+00,8.120e+00,7.712e+00,6.793e+00,7.996e+00,6.287e+00,7.158e+00,6.783e+00,6.512e+00,6.628e+00,7.863e+00,6.461e+00,6.814e+00,7.018e+00,6.741e+00,8.166e+00,8.886e+00,8.734e+00,8.374e+00,8.445e+00,7.727e+00,6.039e+00,8.062e+00,6.566e+00,7.344e+00,7.634e+00,7.122e+00,6.268e+00,7.811e+00,7.089e+00,7.496e+00,8.215e+00,6.591e+00,7.070e+00,6.773e+00,7.064e+00
7.771e-01,1.314e+00,1.211e+00,1.127e+00,1.306e+00,2.129e+00,1.852e+00,1.896e+00,2.257e+00,2.806e+00,3.647e+00,3.010e+00,3.048e+00,4.100e+00,2.547e+00,3.686e+00,3.944e+00,3.051e+00,3.832e+00,4.795e+00,5.753e+00,5.249e+00,5.258e+00,5.628e+00,5.317e+00,5.733e+00,6.942e+00,6.469e+00,8.328e+00,8.680e+00,8.095e+00,9.272e+00,7.982e+00,8.390e+00,7.509e+00,6.830e+00,8.399e+00,8.508e+00,7.728e+00,7.383e+00,8.105e+00,8.283e+00,6.750e+00,9.462e+00,7.772e+00,9.394e+00,8.686e+00,9.732e+00,9.443e+00,7.610e+00,7.830e+00,8.943e+00,9.786e+00,8.282e+00,1.021e+01,9.365e+00,8.682e+00,9.141e+00,9.131e+00,7.607e+00,9.648e+00,7.349e+00,9.211e+00,7.739e+00,8.184e+00,9.048e+00,1.045e+01,6.956e+00,7.119e+00,9.282e+00,8.498e+00,9.128e+00,1.029e+01,1.074e+01,9.984e+00,9.662e+00,1.075e+01,7.517e+00,9.487e+00,8.656e+00,8.344e+00,9.960e+00,8.240e+00,8.913e+00,7.016e+00,8.759e+00,9.787e+00,8.934e+00,7.960e+00,8.688e+00,8.225e+00,7.874e+00
6.681e-01,8.831e-01,9.508e-01,1.184e+00,1.034e+00,1.819e+00,1.563e+00,2.877e+00,2.309e+00,2.375e+00,3.547e+00,3.357e+00,2.639e+00,3.844e+00,3.050e+00,3.504e+00,3.953e+00,3.152e+00,4.176e+00,5.345e+00,6.054e+00,5.783e+00,5.849e+00,5.478e+00,5.091e+00,5.102e+00,7.211e+00,5.709e+00,6.720e+00,8.033e+00,8.103e+00,8.109e+00,8.859e+00,8.043e+00,7.884e+00,6.008e+00,8.506e+00,7.910e+00,8.405e+00,7.896e+00,7.731e+00,7.381e+00,6.647e+00,8.366e+00,7.785e+00,1.009e+01,8.556e+00,1.028e+01,8.639e+00,7.679e+00,6.862e+00,8.828e+00,8.975e+00,8.891e+00,9.711e+00,9.693e+00,8.627e+00,8.358e+00,8.469e+00,7.929e+00,8.305e+00,7.294e+00,9.331e+00,8.136e+00,8.420e+00,8.697e+00,1.015e+01,7.945e+00,7.719e+00,8.413e+00,7.816e+00,9.253e+00,1.011e+01,1.007e+01,1.066e+01,9.266e+00,1.085e+01,7.367e+00,9.144e+00,8.572e+00,9.315e+00,8.789e+00,8.402e+00,7.860e+00,7.796e+00,8.644e+00,8.685e+00,8.842e+00,8.862e+00,8.378e+00,8.576e+00,7.705e+00
3.541e-01,1.024e+00,1.108e+00,1.263e+00,1.386e+00,1.891e+00,1.329e+00,1.713e+00,1.594e+00,2.447e+00,3.344e+00,2.764e+00,2.306e+00,4.308e+00,2.797e+00,3.886e+00,4.696e+00,3.363e+00,4.303e+00,5.625e+00,5.658e+00,5.450e+00,5.820e+00,5.594e+00,5.980e+00,6.336e+00,6.978e+00,7.073e+00,8.124e+00,8.553e+00,8.691e+00,8.908e+00,8.049e+00,8.617e+00,8.260e+00,7.461e+00,7.904e+00,7.547e+00,8.246e+00,8.696e+00,7.735e+00,8.876e+00,6.675e+00,9.764e+00,7.700e+00,1.121e+01,9.746e+00,1.001e+01,9.753e+00,8.975e+00,7.607e+00,9.515e+00,9.231e+00,8.194e+00,1.026e+01,9.082e+00,8.643e+00,8.942e+00,9.543e+00,8.141e+00,8.937e+00,7.512e+00,1.012e+01,8.627e+00,7.761e+00,8.425e+00,9.207e+00,8.722e+00,7.792e+00,9.118e+00,8.910e+00,9.451e+00,1.007e+01,1.058e+01,1.111e+01,1.004e+01,1.060e+01,7.567e+00,8.975e+00,8.678e+00,8.608e+00,9.410e+00,8.705e+00,8.574e+00,9.386e+00,8.818e+00,9.655e+00,9.668e+00,8.050e+00,8.422e+00,7.401e+00,9.069e+00
6.489e-01,9.679e-01,9.689e-01,1.032e+00,8.887e-01,1.416e+00,1.176e+00,1.221e+00,1.448e+00,2.071e+00,2.910e+00,2.476e+00,2.405e+00,4.317e+00,2.923e+00,3.225e+00,3.868e+00,3.679e+00,3.988e+00,5.468e+00,5.884e+00,5.315e+00,5.797e+00,4.943e+00,5.722e+00,6.045e+00,7.764e+00,6.748e+00,8.011e+00,8.090e+00,8.516e+00,9.419e+00,8.164e+00,9.194e+00,8.913e+00,7.118e+00,9.003e+00,7.821e+00,9.470e+00,9.120e+00,8.468e+00,1.074e+01,7.420e+00,1.012e+01,7.812e+00,1.124e+01,1.016e+01,1.109e+01,1.121e+01,9.308e+00,8.855e+00,1.004e+01,9.516e+00,9.338e+00,1.167e+01,9.846e+00,9.015e+00,9.538e+00,1.018e+01,9.218e+00,9.117e+00,8.267e+00,1.107e+01,1.003e+01,8.831e+00,9.287e+00,1.043e+01,8.555e+00,7.919e+00,9.567e+00,9.978e+00,1.103e+01,1.192e+01,1.172e+01,1.238e+01,1.115e+01,1.057e+01,8.169e+00,9.929e+00,1.057e+01,9.843e+00,1.111e+01,8.925e+00,8.855e+00,8.891e+00,8.958e+00,9.613e+00,1.045e+01,9.473e+00,1.035e+01,8.602e+00,9.348e+00
8.080e-01,1.578e+00,1.534e+00,1.411e+00,1.496e+00,2.143e+00,1.907e+00,2.007e+00,2.257e+00,2.948e+00,4.137e+00,3.452e+00,3.373e+00,5.478e+00,3.526e+00,4.713e+00,4.931e+00,4.170e+00,4.701e+00,5.418e+00,6.614e+00,6.268e+00,6.108e+00,5.991e+00,7.338e+00,7.441e+00,8.346e+00,7.723e+00,9.527e+00,8.944e+00,8.719e+00,1.039e+01,7.981e+00,9.754e+00,8.831e+00,8.350e+00,9.460e+00,9.615e+00,9.788e+00,1.042e+01,1.049e+01,1.145e+01,8.339e+00,1.121e+01,9.343e+00,1.192e+01,1.165e+01,1.169e+01,1.222e+01,1.019e+01,9.965e+00,1.099e+01,1.169e+01,1.019e+01,1.317e+01,1.143e+01,1.105e+01,1.042e+01,1.104e+01,1.040e+01,1.074e+01,9.777e+00,1.188e+01,1.077e+01,8.627e+00,1.002e+01,1.140e+01,1.037e+01,8.396e+00,1.129e+01,1.164e+01,1.210e+01,1.336e+01,1.253e+01,1.271e+01,1.263e+01,1.276e+01,8.454e+00,1.163e+01,1.120e+01,1.149e+01,1.115e+01,1.088e+01,1.071e+01,1.020e+01,1.142e+01,1.271e+01,1.188e+01,9.531e+00,1.126e+01,1.045e+01,1.088e+01
5.683e-01,9.636e-01,9.215e-01,7.780e-01,1.380e+00,1.999e+00,1.738e+00,1.291e+00,1.938e+00,2.695e+00,3.667e+00,2.552e+00,2.573e+00,3.267e+00,3.237e+00,3.410e+00,3.269e+00,3.516e+00,4.534e+00,4.925e+00,5.007e+00,5.212e+00,4.513e+00,4.435e+00,5.721e+00,6.366e+00,6.715e+00,6.219e+00,8.196e+00,9.410e+00,8.938e+00,9.129e+00,8.437e+00,8.567e+00,8.157e+00,6.929e+00,8.190e+00,7.922e+00,7.325e+00,7.980e+00,8.730e+00,1.145e+01,9.216e+00,1.196e+01,8.786e+00,1.232e+01,1.097e+01,1.016e+01,1.212e+01,9.696e+00,8.285e+00,1.120e+01,1.100e+01,1.001e+01,1.239e+01,9.519e+00,9.031e+00,9.594e+00,1.125e+01,1.000e+01,9.729e+00,9.407e+00,9.084e+00,1.052e+01,8.882e+00,1.023e+01,1.085e+01,9.571e+00,8.134e+00,9.226e+00,8.667e+00,1.138e+01,1.172e+01,1.176e+01,1.218e+01,1.190e+01,1.148e+01,9.080e+00,1.181e+01,1.127e+01,1.048e+01,9.464e+00,9.296e+00,9.161e+00,1.048e+01,1.037e+01,1.036e+01,1.115e+01,8.670e+00,1.059e+01,8.910e+00,9.762e+00
2.303e-01,3.630e-01,4.191e-01,5.289e-01,3.957e-01,6.137e-01,4.511e-01,1.006e+00,7.550e-01,1.821e+00,2.605e+00,1.883e+00,2.099e+00,3.872e+00,2.842e+00,3.528e+00,3.379e+00,2.995e+00,3.650e+00,5.049e+00,5.054e+00,5.189e+00,5.029e+00,4.665e+00,6.194e+00,5.800e+00,6.421e+00,5.967e+00,7.813e+00,7.934e+00,7.674e+00,8.862e+00,7.597e+00,8.866e+00,8.855e+00,6.257e+00,7.911e+00,7.128e+00,9.118e+00,9.961e+00,1.024e+01,1.062e+01,9.175e+00,9.790e+00,7.488e+00,1.189e+01,1.089e+01,1.033e+01,1.156e+01,9.197e+00,7.890e+00,9.868e+00,9.997e+00,1.031e+01,1.210e+01,1.044e+01,9.350e+00,9.578e+00,9.296e+00,9.696e+00,9.319e+00,8.871e+00,9.189e+00,9.993e+00,8.085e+00,9.710e+00,9.571e+00,9.939e+00,7.377e+00,9.493e+00,9.874e+00,1.065e+01,1.195e+01,1.116e+01,1.204e+01,1.197e+01,1.050e+01,7.238e+00,1.018e+01,1.038e+01,1.043e+01,1.003e+01,9.192e+00,8.747e+00,1.052e+01,1.068e+01,1.041e+01,1.150e+01,8.346e+00,1.035e+01,9.454e+00,9.514e+00
2.917e-01,8.151e-01,9.017e-01,1.179e+00,1.709e+00,2.641e+00,1.818e+00,3.048e+00,2.533e+00,3.535e+00,4.663e+00,3.940e+00,3.300e+00,5.106e+00,4.385e+00,4.150e+00,5.354e+00,4.237e+00,5.932e+00,6.667e+00,7.486e+00,7.056e+00,6.951e+00,6.016e+00,6.401e+00,7.125e+00,8.381e+00,7.835e+00,8.911e+00,9.064e+00,9.052e+00,1.079e+01,9.339e+00,9.969e+00,8.844e+00,7.337e+00,9.410e+00,8.513e+00,8.697e+00,9.496e+00,9.577e+00,1.021e+01,1.022e+01,1.146e+01,9.228e+00,1.159e+01,1.137e+01,1.203e+01,1.196e+01,1.112e+01,8.491e+00,1.146e+01,1.225e+01,9.502e+00,1.252e+01,1.062e+01,1.026e+01,1.095e+01,1.144e+01,1.044e+01,1.012e+01,1.075e+01,1.069e+01,1.013e+01,1.072e+01,1.023e+01,1.277e+01,1.079e+01,8.225e+00,1.048e+01,9.785e+00,1.220e+01,1.219e+01,1.273e+01,1.433e+01,1.226e+01,1.263e+01,1.022e+01,1.091e+01,1.110e+01,1.133e+01,1.128e+01,9.449e+00,1.131e+01,1.006e+01,9.967e+00,1.174e+01,1.140e+01,9.506e+00,1.228e+01,9.843e+00,1.130e+01
2.486e-01,2.576e-01,2.283e-01,1.859e-01,7.852e-01,1.414e+00,1.096e+00,1.177e+00,1.488e+00,1.341e+00,2.397e+00,2.165e+00,1.436e+00,3.051e+00,2.605e+00,2.439e+00,3.668e+00,3.763e+00,4.512e+00,5.083e+00,5.552e+00,5.980e+00,6.499e+00,4.702e+00,6.441e+00,7.356e+00,8.166e+00,6.684e+00,9.381e+00,1.021e+01,8.430e+00,9.614e+00,7.608e+00,9.278e+00,8.753e+00,8.063e+00,9.214e+00,7.963e+00,9.206e+00,9.370e+00,9.778e+00,1.291e+01,8.728e+00,1.130e+01,9.665e+00,1.201e+01,1.122e+01,1.105e+01,1.344e+01,1.040e+01,9.486e+00,1.089e+01,1.316e+01,1.001e+01,1.344e+01,1.146e+01,9.713e+00,1.053e+01,1.131e+01,1.086e+01,9.795e+00,1.001e+01,1.121e+01,1.094e+01,9.389e+00,1.147e+01,1.151e+01,1.021e+01,8.116e+00,1.006e+01,1.059e+01,1.166e+01,1.268e+01,1.357e+01,1.333e+01,1.250e+01,1.215e+01,8.772e+00,1.171e+01,1.125e+01,1.107e+01,1.120e+01,1.037e+01,1.039e+01,1.137e+01,1.012e+01,1.231e+01,1.155e+01,1.013e+01,1.075e+01,1.017e+01,1.125e+01
3.069e-01,4.764e-01,5.653e-01,7.160e-01,9.639e-01,1.591e+00,1.247e+00,1.799e+00,1.781e+00,2.012e+00,2.752e+00,2.600e+00,2.550e+00,3.579e+00,3.149e+00,3.592e+00,4.613e+00,3.719e+00,4.421e+00,5.941e+00,6.839e+00,6.374e+00,6.715e+00,6.268e+00,6.807e+00,7.095e+00,8.107e+00,7.348e+00,1.045e+01,1.037e+01,9.961e+00,1.005e+01,9.333e+00,1.041e+01,8.697e+00,8.058e+00,9.855e+00,9.560e+00,9.633e+00,1.098e+01,1.074e+01,1.252e+01,9.549e+00,1.267e+01,1.038e+01,1.450e+01,1.231e+01,1.426e+01,1.436e+01,1.196e+01,1.056e+01,1.156e+01,1.312e+01,1.177e+01,1.467e+01,1.174e+01,1.050e+01,1.269e+01,1.186e+01,1.156e+01,1.097e+01,1.143e+01,1.096e+01,1.213e+01,1.019e+01,1.201e+01,1.239e+01,1.080e+01,9.987e+00,1.111e+01,1.210e+01,1.285e+01,1.419e+01,1.433e+01,1.334e+01,1.408e+01,1.288e+01,9.555e+00,1.240e+01,1.260e+01,1.269e+01,1.310e+01,1.077e+01,1.225e+01,1.211e+01,1.195e+01,1.304e+01,1.333e+01,1.066e+01,1.166e+01,1.176e+01,1.081e+01
4.212e-01,1.008e+00,9.885e-01,9.148e-01,1.229e+00,1.659e+00,1.361e+00,1.492e+00,1.541e+00,2.036e+00,2.670e+00,2.272e+00,1.838e+00,2.963e+00,2.186e+00,2.785e+00,3.432e+00,2.734e+00,4.098e+00,4.411e+00,4.323e+00,4.502e+00,4.916e+00,5.197e+00,6.318e+00,6.304e+00,7.188e+00,6.525e+00,7.848e+00,7.761e+00,7.994e+00,8.320e+00,7.173e+00,8.245e+00,7.810e+00,7.417e+00,8.196e+00,7.772e+00,7.685e+00,7.956e+00,8.297e+00,8.959e+00,7.942e+00,1.075e+01,9.433e+00,1.215e+01,1.163e+01,1.165e+01,1.083e+01,9.686e+00,9.118e+00,1.134e+01,1.145e+01,9.477e+00,1.106e+01,1.225e+01,1.025e+01,1.188e+01,1.047e+01,1.067e+01,8.684e+00,9.156e+00,9.784e+00,9.426e+00,1.066e+01,1.103e+01,1.124e+01,9.292e+00,9.249e+00,1.044e+01,1.052e+01,1.152e+01,1.115e+01,1.262e+01,1.200e+01,1.185e+01,1.070e+01,9.909e+00,1.133e+01,1.076e+01,1.002e+01,1.053e+01,9.107e+00,1.077e+01,1.183e+01,9.627e+00,1.260e+01,1.195e+01,9.911e+00,1.019e+01,9.306e+00,1.149e+01
8.883e-01,1.573e+00,1.497e+00,1.248e+00,1.778e+00,2.543e+00,2.424e+00,2.382e+00,2.820e+00,3.305e+00,4.511e+00,3.787e+00,3.811e+00,5.265e+00,4.092e+00,4.403e+00,4.930e+00,4.304e+00,5.907e+00,6.208e+00,6.363e+00,6.957e+00,6.848e+00,6.141e+00,7.119e+00,7.946e+00,8.964e+00,8.171e+00,1.000e+01,9.843e+00,9.197e+00,9.903e+00,9.078e+00,9.653e+00,8.521e+00,7.613e+00,9.034e+00,9.667e+00,9.442e+00,1.042e+01,9.922e+00,1.196e+01,1.055e+01,1.247e+01,1.188e+01,1.408e+01,1.285e+01,1.437e+01,1.397e+01,1.233e+01,1.046e+01,1.304e+01,1.353e+01,1.143e+01,1.515e+01,1.202e+01,1.131e+01,1.243e+01,1.300e+01,1.237e+01,1.201e+01,1.122e+01,1.229e+01,1.157e+01,1.067e+01,1.141e+01,1.368e+01,1.191e+01,9.824e+00,1.215e+01,1.225e+01,1.232e+01,1.452e+01,1.361e+01,1.447e+01,1.344e+01,1.357e+01,1.077e+01,1.396e+01,1.243e+01,1.348e+01,1.298e+01,1.180e+01,1.267e+01,1.191e+01,1.143e+01,1.337e+01,1.428e+01,1.045e+01,1.213e+01,1.215e+01,1.299e+01
1.290e-02,5.189e-01,6.457e-01,8.037e-01,1.442e+00,2.109e+00,1.517e+00,2.564e+00,2.133e+00,2.160e+00,3.347e+00,3.236e+00,2.250e+00,4.228e+00,3.132e+00,3.607e+00,4.680e+00,2.881e+00,4.477e+00,4.136e+00,5.640e+00,4.866e+00,5.051e+00,4.910e+00,5.188e+00,6.508e+00,6.464e+00,6.709e+00,7.724e+00,7.731e+00,7.514e+00,8.345e+00,7.088e+00,8.757e+00,8.498e+00,7.112e+00,7.736e+00,7.110e+00,6.909e+00,8.303e+00,8.643e+00,9.498e+00,8.833e+00,1.120e+01,9.697e+00,1.384e+01,1.182e+01,1.261e+01,1.209e+01,1.134e+01,8.688e+00,1.202e+01,1.168e+01,1.056e+01,1.313e+01,1.064e+01,1.017e+01,1.129e+01,1.223e+01,1.109e+01,1.021e+01,1.089e+01,1.123e+01,1.039e+01,1.049e+01,1.071e+01,1.272e+01,1.055e+01,1.045e+01,1.127e+01,1.068e+01,1.280e+01,1.251e+01,1.270e+01,1.420e+01,1.191e+01,1.415e+01,1.057e+01,1.091e+01,1.229e+01,1.091e+01,1.165e+01,1.121e+01,1.059e+01,1.243e+01,1.066e+01,1.211e+01,1.195e+01,9.792e+00,1.105e+01,1.124e+01,1.057e+01
3.614e-01,4.619e-01,4.535e-01,5.781e-01,9.234e-01,1.797e+00,1.242e+00,2.041e+00,1.940e+00,2.626e+00,3.458e+00,2.809e+00,2.025e+00,3.308e+00,3.336e+00,3.312e+00,3.871e+00,3.295e+00,4.233e+00,4.647e+00,5.364e+00,5.302e+00,5.601e+00,4.056e+00,4.636e+00,5.435e+00,5.842e+00,5.472e+00,7.117e+00,7.389e+00,6.197e+00,7.487e+00,6.855e+00,6.787e+00,6.889e+00,6.167e+00,6.809e+00,6.642e+00,8.142e+00,8.092e+00,8.721e+00,1.035e+01,9.265e+00,1.090e+01,8.532e+00,1.211e+01,1.323e+01,1.300e+01,1.180e+01,1.142e+01,8.946e+00,1.057e+01,1.253e+01,1.169e+01,1.275e+01,1.140e+01,9.122e+00,1.022e+01,1.242e+01,1.114e+01,9.523e+00,1.089e+01,1.062e+01,1.012e+01,1.098e+01,9.972e+00,1.320e+01,1.050e+01,8.825e+00,1.060e+01,9.977e+00,1.186e+01,1.235e+01,1.331e+01,1.473e+01,1.204e+01,1.275e+01,1.073e+01,1.111e+01,1.228e+01,1.122e+01,1.072e+01,1.108e+01,1.058e+01,1.303e+01,1.197e+01,1.254e+01,1.256e+01,1.056e+01,1.099e+01,1.107e+01,1.163e+01
3.788e-01,1.060e+00,1.178e+00,1.427e+00,1.748e+00,2.647e+00,1.721e+00,1.721e+00,2.147e+00,3.628e+00,4.243e+00,3.196e+00,2.977e+00,3.394e+00,3.830e+00,4.599e+00,5.236e+00,4.573e+00,5.952e+00,7.168e+00,7.009e+00,6.583e+00,6.759e+00,6.809e+00,7.376e+00,8.391e+00,8.626e+00,8.498e+00,1.088e+01,1.147e+01,1.128e+01,1.251e+01,1.086e+01,1.118e+01,1.008e+01,9.259e+00,1.060e+01,1.078e+01,1.028e+01,1.156e+01,1.080e+01,1.432e+01,1.089e+01,1.470e+01,1.173e+01,1.529e+01,1.481e+01,1.504e+01,1.658e+01,1.345e+01,1.199e+01,1.525e+01,1.430e+01,1.395e+01,1.577e+01,1.385e+01,1.298e+01,1.458e+01,1.503e+01,1.323e+01,1.336e+01,1.297e+01,1.380e+01,1.385e+01,1.276e+01,1.373e+01,1.579e+01,1.306e+01,1.114e+01,1.346e+01,1.269e+01,1.514e+01,1.618e+01,1.649e+01,1.654e+01,1.601e+01,1.518e+01,1.313e+01,1.449e+01,1.370e+01,1.449e+01,1.449e+01,1.253e+01,1.386e+01,1.383e+01,1.456e+01,1.524e+01,1.591e+01,1.295e+01,1.477e+01,1.209e+01,1.283e+01
3.795e-01,1.052e+00,1.092e+00,1.148e+00,1.490e+00,1.971e+00,1.552e+00,1.529e+00,1.677e+00,2.859e+00,3.760e+00,2.447e+00,2.719e+00,3.190e+00,2.896e+00,4.171e+00,3.796e+00,3.177e+00,4.311e+00,5.334e+00,6.067e+00,5.536e+00,5.636e+00,5.340e+00,6.287e+00,6.738e+00,7.028e+00,6.879e+00,9.283e+00,9.625e+00,9.081e+00,1.079e+01,9.718e+00,1.020e+01,9.101e+00,8.412e+00,9.061e+00,1.045e+01,9.003e+00,9.511e+00,1.026e+01,1.150e+01,9.167e+00,1.248e+01,1.024e+01,1.427e+01,1.363e+01,1.415e+01,1.407e+01,1.294e+01,1.179e+01,1.439e+01,1.458e+01,1.506e+01,1.394e+01,1.392e+01,1.306e+01,1.435e+01,1.378e+01,1.287e+01,1.327e+01,1.245e+01,1.332e+01,1.273e+01,1.297e+01,1.354e+01,1.540e+01,1.195e+01,1.199e+01,1.221e+01,1.224e+01,1.478e+01,1.559e+01,1.599e+01,1.461e+01,1.537e+01,1.476e+01,1.312e+01,1.312e+01,1.293e+01,1.214e+01,1.382e+01,1.290e+01,1.343e+01,1.304e+01,1.374e+01,1.449e+01,1.489e+01,1.345e+01,1.258e+01,1.254e+01,1.232e+01
7.334e-01,1.268e+00,1.237e+00,1.228e+00,1.690e+00,2.569e+00,1.962e+00,1.360e+00,2.172e+00,2.879e+00,4.017e+00,3.119e+00,2.305e+00,3.326e+00,2.670e+00,3.615e+00,3.756e+00,3.420e+00,4.706e+00,5.289e+00,4.458e+00,5.271e+00,4.979e+00,5.085e+00,5.850e+00,6.777e+00,7.197e+00,7.188e+00,9.095e+00,9.844e+00,8.768e+00,9.487e+00,8.641e+00,8.779e+00,8.316e+00,7.472e+00,8.357e+00,9.531e+00,9.924e+00,9.448e+00,9.276e+00,1.144e+01,8.707e+00,1.091e+01,9.145e+00,1.286e+01,1.257e+01,1.280e+01,1.213e+01,1.076e+01,1.066e+01,1.312e+01,1.250e+01,1.319e+01,1.396e+01,1.281e+01,1.213e+01,1.259e+01,1.237e+01,1.156e+01,1.326e+01,1.031e+01,1.156e+01,1.232e+01,1.083e+01,1.288e+01,1.226e+01,1.158e+01,1.006e+01,1.153e+01,1.119e+01,1.123e+01,1.415e+01,1.432e+01,1.408e+01,1.416e+01,1.397e+01,9.951e+00,1.223e+01,1.171e+01,1.262e+01,1.263e+01,1.143e+01,1.257e+01,1.330e+01,1.266e+01,1.290e+01,1.391e+01,1.190e+01,1.171e+01,1.126e+01,1.229e+01
7.236e-01,9.507e-01,9.696e-01,9.698e-01,9.459e-01,1.503e+00,1.539e+00,2.552e+00,2.160e+00,2.398e+00,3.625e+00,3.275e+00,2.997e+00,4.693e+00,3.716e+00,3.924e+00,3.877e+00,3.450e+00,4.507e+00,5.193e+00,5.919e+00,5.956e+00,5.444e+00,5.096e+00,5.974e+00,5.606e+00,7.073e+00,5.594e+00,7.423e+00,7.858e+00,7.065e+00,8.609e+00,7.557e+00,8.199e+00,8.187e+00,5.532e+00,7.960e+00,6.837e+00,7.145e+00,8.547e+00,9.318e+00,9.772e+00,9.096e+00,1.032e+01,7.511e+00,1.281e+01,1.152e+01,1.168e+01,1.172e+01,1.202e+01,1.034e+01,1.390e+01,1.256e+01,1.327e+01,1.208e+01,1.184e+01,1.248e+01,1.190e+01,1.324e+01,1.127e+01,1.167e+01,1.175e+01,1.178e+01,1.269e+01,1.079e+01,1.122e+01,1.238e+01,1.152e+01,9.394e+00,1.238e+01,1.063e+01,1.267e+01,1.321e+01,1.471e+01,1.420e+01,1.327e+01,1.455e+01,1.016e+01,1.163e+01,1.336e+01,1.168e+01,1.234e+01,1.127e+01,1.289e+01,1.131e+01,1.149e+01,1.301e+01,1.260e+01,1.138e+01,1.267e+01,1.197e+01,1.170e+01
9.224e-02,7.250e-01,8.814e-01,1.276e+00,1.599e+00,2.107e+00,1.262e+00,2.381e+00,1.608e+00,2.825e+00,4.194e+00,3.231e+00,2.303e+00,4.614e+00,3.058e+00,4.187e+00,4.449e+00,3.988e+00,4.619e+00,6.022e+00,6.943e+00,6.486e+00,6.524e+00,5.245e+00,7.006e+00,7.288e+00,7.944e+00,7.669e+00,9.557e+00,1.040e+01,1.005e+01,1.087e+01,9.047e+00,9.416e+00,9.499e+00,7.640e+00,8.592e+00,8.630e+00,8.855e+00,8.538e+00,1.029e+01,1.187e+01,9.584e+00,1.218e+01,1.076e+01,1.502e+01,1.373e+01,1.489e+01,1.398e+01,1.291e+01,1.087e+01,1.621e+01,1.563e+01,1.417e+01,1.622e+01,1.454e+01,1.236e+01,1.541e+01,1.620e+01,1.382e+01,1.383e+01,1.240e+01,1.349e+01,1.438e+01,1.359e+01,1.416e+01,1.510e+01,1.302e+01,1.242e+01,1.412e+01,1.315e+01,1.583e+01,1.530e+01,1.715e+01,1.653e+01,1.391e+01,1.665e+01,1.356e+01,1.334e+01,1.485e+01,1.342e+01,1.311e+01,1.275e+01,1.437e+01,1.435e+01,1.415e+01,1.581e+01,1.497e+01,1.435e+01,1.395e+01,1.420e+01,1.321e+01
5.174e-01,5.305e-01,5.707e-01,7.656e-01,1.007e+00,1.944e+00,1.507e+00,2.716e+00,2.378e+00,2.938e+00,4.276e+00,3.714e+00,3.093e+00,4.771e+00,4.274e+00,4.666e+00,5.516e+00,4.636e+00,5.714e+00,6.649e+00,7.213e+00,7.318e+00,7.434e+00,5.823e+00,7.015e+00,7.600e+00,8.564e+00,8.021e+00,1.066e+01,1.104e+01,1.027e+01,1.071e+01,1.012e+01,1.030e+01,9.986e+00,8.204e+00,1.030e+01,1.009e+01,1.141e+01,1.131e+01,1.131e+01,1.312e+01,1.050e+01,1.369e+01,1.050e+01,1.445e+01,1.496e+01,1.621e+01,1.521e+01,1.293e+01,1.208e+01,1.508e+01,1.624e+01,1.557e+01,1.710e+01,1.468e+01,1.445e+01,1.386e+01,1.538e+01,1.634e+01,1.524e+01,1.348e+01,1.382e+01,1.517e+01,1.395e+01,1.345e+01,1.583e+01,1.513e+01,1.298e+01,1.411e+01,1.385e+01,1.564e+01,1.806e+01,1.740e+01,1.713e+01,1.601e+01,1.593e+01,1.364e+01,1.503e+01,1.567e+01,1.545e+01,1.576e+01,1.368e+01,1.541e+01,1.465e+01,1.587e+01,1.598e+01,1.669e+01,1.444e+01,1.447e+01,1.423e+01,1.467e+01
2.552e-01,3.451e-01,2.981e-01,2.573e-01,5.556e-01,1.127e+00,9.905e-01,1.621e+00,1.530e+00,2.176e+00,2.841e+00,2.057e+00,2.282e+00,2.794e+00,2.726e+00,2.554e+00,3.030e+00,2.373e+00,3.827e+00,4.258e+00,4.300e+00,4.641e+00,4.740e+00,4.299e+00,4.753e+00,5.295e+00,5.414e+00,5.309e+00,6.568e+00,6.962e+00,6.199e+00,7.673e+00,6.376e+00,6.670e+00,6.923e+00,6.246e+00,7.938e+00,7.184e+00,7.177e+00,7.169e+00,8.571e+00,9.990e+00,8.837e+00,1.020e+01,7.761e+00,1.211e+01,1.142e+01,1.141e+01,1.197e+01,1.063e+01,1.081e+01,1.168e+01,1.327e+01,1.288e+01,1.316e+01,1.279e+01,1.114e+01,1.199e+01,1.230e+01,1.307e+01,1.066e+01,1.220e+01,1.074e+01,1.216e+01,1.183e+01,1.154e+01,1.284e+01,1.121e+01,8.853e+00,1.250e+01,1.166e+01,1.331e+01,1.212e+01,1.363e+01,1.375e+01,1.349e+01,1.408e+01,1.100e+01,1.126e+01,1.334e+01,1.116e+01,1.090e+01,9.858e+00,1.306e+01,1.221e+01,1.237e+01,1.378e+01,1.339e+01,1.168e+01,1.273e+01,1.094e+01,1.135e+01
7.470e-01,1.527e+00,1.608e+00,1.641e+00,1.704e+00,2.235e+00,1.822e+00,2.045e+00,2.105e+00,2.569e+00,3.243e+00,3.327e+00,2.578e+00,4.155e+00,3.030e+00,3.208e+00,3.740e+00,2.804e+00,3.694e+00,4.037e+00,4.457e+00,4.205e+00,3.617e+00,4.200e+00,4.539e+00,5.200e+00,5.640e+00,5.631e+00,6.237e+00,5.555e+00,6.740e+00,7.696e+00,6.901e+00,7.023e+00,6.826e+00,6.289e+00,6.767e+00,7.472e+00,6.517e+00,7.572e+00,6.960e+00,8.480e+00,7.636e+00,9.658e+00,8.613e+00,1.125e+01,1.095e+01,1.264e+01,1.119e+01,1.073e+01,9.539e+00,1.230e+01,1.199e+01,1.174e+01,1.281e+01,1.272e+01,1.234e+01,1.331e+01,1.234e+01,1.165e+01,1.235e+01,1.241e+01,1.211e+01,1.232e+01,1.191e+01,1.181e+01,1.366e+01,1.166e+01,1.139e+01,1.362e+01,1.255e+01,1.252e+01,1.328e+01,1.425e+01,1.347e+01,1.246e+01,1.397e+01,1.090e+01,1.194e+01,1.292e+01,1.168e+01,1.303e+01,1.129e+01,1.392e+01,1.119e+01,1.177e+01,1.340e+01,1.463e+01,1.223e+01,1.148e+01,1.226e+01,1.158e+01
6.091e-01,1.383e+00,1.499e+00,1.634e+00,1.354e+00,1.742e+00,1.385e+00,1.434e+00,1.542e+00,2.677e+00,3.159e+00,2.323e+00,2.465e+00,3.258e+00,3.315e+00,4.277e+00,3.898e+00,3.180e+00,3.555e+00,4.905e+00,6.075e+00,5.021e+00,5.220e+00,5.560e+00,6.482e+00,6.460e+00,7.281e+00,7.043e+00,9.141e+00,8.656e+00,9.662e+00,1.053e+01,9.623e+00,1.037e+01,9.462e+00,8.222e+00,9.949e+00,9.326e+00,9.116e+00,1.017e+01,1.003e+01,1.051e+01,9.490e+00,1.166e+01,1.069e+01,1.364e+01,1.286e+01,1.320e+01,1.291e+01,1.240e+01,1.075e+01,1.453e+01,1.444e+01,1.391e+01,1.490e+01,1.466e+01,1.445e+01,1.447e+01,1.572e+01,1.427e+01,1.363e+01,1.233e+01,1.379e+01,1.356e+01,1.435e+01,1.359e+01,1.527e+01,1.417e+01,1.341e+01,1.518e+01,1.347e+01,1.581e+01,1.562e+01,1.654e+01,1.585e+01,1.589e+01,1.618e+01,1.238e+01,1.510e+01,1.315e+01,1.335e+01,1.504e+01,1.351e+01,1.428e+01,1.397e+01,1.527e+01,1.515e+01,1.556e+01,1.524e+01,1.355e+01,1.354e+01,1.342e+01
3.306e-01,8.550e-01,1.033e+00,1.379e+00,1.086e+00,1.855e+00,1.301e+00,3.002e+00,2.245e+00,2.850e+00,4.000e+00,3.710e+00,2.838e+00,5.241e+00,4.129e+00,4.414e+00,5.256e+00,4.954e+00,5.577e+00,6.183e+00,7.018e+00,6.471e+00,6.867e+00,5.609e+00,7.084e+00,7.452e+00,8.696e+00,7.183e+00,9.124e+00,8.895e+00,8.852e+00,1.037e+01,8.676e+00,8.975e+00,8.713e+00,6.709e+00,8.960e+00,8.632e+00,8.491e+00,8.684e+00,9.158e+00,1.057e+01,8.795e+00,1.097e+01,1.098e+01,1.224e+01,1.139e+01,1.283e+01,1.297e+01,1.180e+01,1.011e+01,1.526e+01,1.525e+01,1.310e+01,1.504e+01,1.459e+01,1.510e+01,1.439e+01,1.634e+01,1.315e+01,1.318e+01,1.353e+01,1.518e+01,1.484e+01,1.427e+01,1.450e+01,1.568e+01,1.401e+01,1.282e+01,1.543e+01,1.248e+01,1.539e+01,1.502e+01,1.738e+01,1.608e+01,1.456e+01,1.747e+01,1.319e+01,1.366e+01,1.379e+01,1.434e+01,1.556e+01,1.379e+01,1.599e+01,1.356e+01,1.427e+01,1.702e+01,1.471e+01,1.413e+01,1.458e+01,1.392e+01,1.415e+01
9.236e-01,1.593e+00,1.647e+00,1.613e+00,1.609e+00,2.225e+00,1.947e+00,2.287e+00,2.362e+00,2.405e+00,3.201e+00,3.529e+00,2.624e+00,4.621e+00,3.685e+00,4.286e+00,5.117e+00,4.060e+00,4.720e+00,5.479e+00,6.586e+00,6.344e+00,6.294e+00,5.596e+00,6.379e+00,7.160e+00,8.834e+00,7.514e+00,1.018e+01,1.028e+01,1.038e+01,1.214e+01,9.485e+00,1.053e+01,1.029e+01,9.133e+00,1.056e+01,9.018e+00,9.385e+00,1.057e+01,1.033e+01,1.204e+01,9.506e+00,1.266e+01,1.032e+01,1.422e+01,1.398e+01,1.471e+01,1.424e+01,1.416e+01,1.220e+01,1.599e+01,1.582e+01,1.501e+01,1.533e+01,1.585e+01,1.592e+01,1.655e+01,1.758e+01,1.660e+01,1.685e+01,1.377e+01,1.769e+01,1.659e+01,1.543e+01,1.603e+01,1.730e+01,1.581e+01,1.541e+01,1.754e+01,1.561e+01,1.724e+01,1.818e+01,1.981e+01,1.927e+01,1.628e+01,1.929e+01,1.471e+01,1.625e+01,1.547e+01,1.653e+01,1.699e+01,1.625e+01,1.744e+01,1.541e+01,1.720e+01,1.844e+01,1.736e+01,1.743e+01,1.468e+01,1.591e+01,1.602e+01
8.672e-01,1.210e+00,1.096e+00,9.798e-01,1.474e+00,2.371e+00,2.038e+00,1.545e+00,2.334e+00,3.075e+00,4.444e+00,3.344e+00,3.357e+00,5.068e+00,3.524e+00,4.532e+00,4.670e+00,4.200e+00,4.966e+00,6.609e+00,7.021e+00,6.929e+00,6.580e+00,6.308e+00,6.917e+00,7.450e+00,8.781e+00,8.256e+00,9.895e+00,1.049e+01,1.015e+01,1.038e+01,8.361e+00,1.034e+01,8.847e+00,7.691e+00,9.752e+00,8.867e+00,1.008e+01,9.468e+00,1.017e+01,1.172e+01,1.047e+01,1.106e+01,1.048e+01,1.421e+01,1.285e+01,1.361e+01,1.391e+01,1.331e+01,1.198e+01,1.449e+01,1.465e+01,1.465e+01,1.664e+01,1.603e+01,1.582e+01,1.691e+01,1.819e+01,1.430e+01,1.689e+01,1.474e+01,1.576e+01,1.603e+01,1.559e+01,1.495e+01,1.643e+01,1.439e+01,1.259e+01,1.688e+01,1.549e+01,1.569e+01,1.590e+01,1.835e+01,1.698e+01,1.591e+01,1.858e+01,1.411e+01,1.572e+01,1.615e+01,1.538e+01,1.565e+01,1.501e+01,1.686e+01,1.693e+01,1.649e+01,1.592e+01,1.746e+01,1.509e+01,1.538e+01,1.526e+01,1.560e+01
6.122e-01,1.223e+00,1.192e+00,1.160e+00,1.781e+00,2.719e+00,2.067e+00,2.021e+00,2.498e+00,3.320e+00,4.311e+00,3.473e+00,2.816e+00,4.309e+00,3.657e+00,4.216e+00,4.812e+00,3.899e+00,5.201e+00,6.017e+00,6.759e+00,6.624e+00,6.712e+00,6.534e+00,7.261e+00,8.109e+00,8.288e+00,8.111e+00,1.020e+01,1.033e+01,9.696e+00,1.051e+01,9.391e+00,1.001e+01,8.870e+00,8.882e+00,9.122e+00,9.652e+00,9.134e+00,9.904e+00,1.048e+01,1.215e+01,9.592e+00,1.214e+01,1.163e+01,1.473e+01,1.366e+01,1.516e+01,1.430e+01,1.363e+01,1.201e+01,1.496e+01,1.564e+01,1.441e+01,1.663e+01,1.549e+01,1.476e+01,1.660e+01,1.687e+01,1.539e+01,1.710e+01,1.522e+01,1.645e+01,1.646e+01,1.512e+01,1.565e+01,1.725e+01,1.447e+01,1.428e+01,1.720e+01,1.521e+01,1.597e+01,1.624e+01,1.861e+01,1.802e+01,1.641e+01,1.828e+01,1.460e+01,1.526e+01,1.505e+01,1.542e+01,1.583e+01,1.528e+01,1.702e+01,1.691e+01,1.605e+01,1.683e+01,1.759e+01,1.562e+01,1.607e+01,1.523e+01,1.677e+01
3.836e-01,8.167e-01,7.802e-01,8.043e-01,9.961e-01,1.734e+00,1.330e+00,1.886e+00,1.854e+00,2.616e+00,3.628e+00,2.569e+00,2.102e+00,3.077e+00,2.346e+00,3.488e+00,3.472e+00,2.647e+00,3.889e+00,4.411e+00,4.489e+00,5.082e+00,5.189e+00,5.040e+00,5.043e+00,5.649e+00,6.006e+00,5.322e+00,6.320e+00,7.809e+00,6.455e+00,7.869e+00,6.726e+00,6.706e+00,7.282e+00,6.142e+00,7.050e+00,6.398e+00,6.917e+00,8.094e+00,7.450e+00,8.590e+00,7.894e+00,1.004e+01,7.795e+00,1.108e+01,1.033e+01,1.103e+01,1.035e+01,9.821e+00,9.286e+00,1.202e+01,1.277e+01,1.204e+01,1.247e+01,1.409e+01,1.378e+01,1.272e+01,1.392e+01,1.338e+01,1.439e+01,1.212e+01,1.357e+01,1.392e+01,1.185e+01,1.285e+01,1.401e+01,1.302e+01,1.140e+01,1.487e+01,1.241e+01,1.353e+01,1.299e+01,1.701e+01,1.526e+01,1.355e+01,1.539e+01,1.225e+01,1.428e+01,1.405e+01,1.324e+01,1.349e+01,1.206e+01,1.588e+01,1.397e+01,1.494e+01,1.604e+01,1.594e+01,1.323e+01,1.302e+01,1.356e+01,1.411e+01
3.289e-02,3.591e-01,4.476e-01,5.626e-01,8.100e-01,9.482e-01,7.506e-01,1.546e+00,9.384e-01,8.502e-01,1.452e+00,1.719e+00,1.519e+00,3.277e+00,1.782e+00,2.291e+00,3.877e+00,2.499e+00,3.355e+00,4.346e+00,5.359e+00,4.848e+00,5.742e+00,4.433e+00,4.811e+00,5.507e+00,7.413e+00,5.886e+00,8.557e+00,8.997e+00,8.782e+00,8.838e+00,7.339e+00,8.527e+00,8.796e+00,6.782e+00,9.291e+00,7.116e+00,8.121e+00,8.949e+00,9.082e+00,9.170e+00,8.979e+00,1.087e+01,8.879e+00,1.221e+01,1.129e+01,1.206e+01,1.213e+01,1.147e+01,9.737e+00,1.282e+01,1.334e+01,1.294e+01,1.465e+01,1.369e+01,1.421e+01,1.369e+01,1.425e+01,1.409e+01,1.453e+01,1.281e+01,1.346e+01,1.429e+01,1.303e+01,1.451e+01,1.456e+01,1.468e+01,1.100e+01,1.497e+01,1.430e+01,1.573e+01,1.627e+01,1.680e+01,1.549e+01,1.560e+01,1.675e+01,1.304e+01,1.543e+01,1.589e+01,1.548e+01,1.463e+01,1.361e+01,1.516e+01,1.369e+01,1.517e+01,1.470e+01,1.608e+01,1.379e+01,1.331e+01,1.516e+01,1.264e+01
2.111e-01,8.000e-01,1.009e+00,1.457e+00,1.626e+00,2.224e+00,1.409e+00,2.240e+00,1.780e+00,2.881e+00,4.177e+00,3.164e+00,2.387e+00,3.816e+00,3.141e+00,4.443e+00,4.405e+00,4.140e+00,4.732e+00,6.237e+00,6.279e+00,6.104e+00,5.970e+00,5.277e+00,6.749e+00,6.913e+00,7.042e+00,6.582e+00,8.514e+00,8.975e+00,8.353e+00,8.636e+00,8.206e+00,8.526e+00,8.534e+00,6.460e+00,7.652e+00,7.533e+00,7.861e+00,9.388e+00,8.225e+00,1.123e+01,9.339e+00,1.133e+01,9.140e+00,1.329e+01,1.234e+01,1.335e+01,1.330e+01,1.117e+01,9.456e+00,1.256e+01,1.290e+01,1.214e+01,1.535e+01,1.257e+01,1.254e+01,1.420e+01,1.517e+01,1.423e+01,1.458e+01,1.418e+01,1.481e+01,1.702e+01,1.415e+01,1.388e+01,1.592e+01,1.463e+01,1.315e+01,1.654e+01,1.307e+01,1.684e+01,1.598e+01,1.795e+01,1.795e+01,1.582e+01,1.770e+01,1.478e+01,1.557e+01,1.728e+01,1.679e+01,1.475e+01,1.372e+01,1.627e+01,1.541e+01,1.596e+01,1.582e+01,1.628e+01,1.407e+01,1.539e+01,1.439e+01,1.354e+01
4.652e-01,4.916e-01,5.202e-01,7.528e-01,1.115e+00,2.215e+00,1.595e+00,2.197e+00,2.346e+00,2.829e+00,4.043e+00,3.331e+00,2.736e+00,3.131e+00,3.421e+00,3.823e+00,4.420e+00,3.601e+00,5.239e+00,6.137e+00,6.202e+00,6.563e+00,6.217e+00,6.692e+00,7.075e+00,7.751e+00,8.280e+00,7.885e+00,9.194e+00,1.038e+01,9.063e+00,1.077e+01,9.576e+00,1.128e+01,9.495e+00,8.326e+00,1.010e+01,9.134e+00,9.741e+00,1.145e+01,9.335e+00,1.256e+01,1.076e+01,1.297e+01,1.049e+01,1.559e+01,1.418e+01,1.498e+01,1.473e+01,1.341e+01,1.169e+01,1.393e+01,1.370e+01,1.460e+01,1.581e+01,1.544e+01,1.429e+01,1.589e+01,1.576e+01,1.567e+01,1.674e+01,1.616e+01,1.563e+01,1.717e+01,1.658e+01,1.598e+01,1.809e+01,1.622e+01,1.378e+01,1.735e+01,1.460e+01,1.807e+01,1.727e+01,2.041e+01,1.992e+01,1.802e+01,1.887e+01,1.638e+01,1.717e+01,1.846e+01,1.892e+01,1.734e+01,1.585e+01,1.736e+01,1.735e+01,1.738e+01,1.708e+01,1.939e+01,1.633e+01,1.700e+01,1.715e+01,1.567e+01
4.529e-01,1.211e+00,1.170e+00,1.020e+00,1.828e+00,2.113e+00,1.707e+00,8.925e-01,1.411e+00,2.702e+00,4.049e+00,2.419e+00,2.310e+00,3.992e+00,2.937e+00,3.567e+00,3.052e+00,3.346e+00,4.094e+00,4.881e+00,5.157e+00,5.526e+00,5.053e+00,3.556e+00,5.809e+00,6.693e+00,6.530e+00,6.753e+00,8.201e+00,8.661e+00,8.154e+00,9.393e+00,7.406e+00,8.193e+00,8.020e+00,7.111e+00,7.379e+00,8.128e+00,7.868e+00,8.087e+00,9.326e+00,1.166e+01,8.839e+00,1.115e+01,8.962e+00,1.316e+01,1.211e+01,1.322e+01,1.356e+01,1.215e+01,1.081e+01,1.396e+01,1.504e+01,1.451e+01,1.562e+01,1.399e+01,1.340e+01,1.481e+01,1.613e+01,1.563e+01,1.669e+01,1.376e+01,1.566e+01,1.614e+01,1.446e+01,1.588e+01,1.674e+01,1.559e+01,1.390e+01,1.650e+01,1.576e+01,1.676e+01,1.716e+01,1.820e+01,1.808e+01,1.732e+01,1.830e+01,1.453e+01,1.607e+01,1.752e+01,1.469e+01,1.483e+01,1.498e+01,1.659e+01,1.528e+01,1.598e+01,1.662e+01,1.794e+01,1.587e+01,1.458e+01,1.452e+01,1.569e+01
2.150e-01,4.481e-01,4.925e-01,6.815e-01,1.286e+00,1.896e+00,1.209e+00,1.407e+00,1.455e+00,2.691e+00,3.700e+00,2.515e+00,1.969e+00,3.008e+00,3.153e+00,3.159e+00,3.327e+00,3.580e+00,4.519e+00,5.382e+00,5.700e+00,5.751e+00,5.749e+00,4.726e+00,7.091e+00,7.365e+00,7.547e+00,7.429e+00,9.590e+00,1.011e+01,8.458e+00,1.007e+01,8.119e+00,9.345e+00,9.056e+00,7.543e+00,8.905e+00,8.024e+00,8.848e+00,9.386e+00,1.066e+01,1.388e+01,1.135e+01,1.281e+01,1.047e+01,1.487e+01,1.387e+01,1.268e+01,1.383e+01,1.362e+01,1.068e+01,1.456e+01,1.475e+01,1.383e+01,1.652e+01,1.389e+01,1.315e+01,1.428e+01,1.586e+01,1.492e+01,1.465e+01,1.437e+01,1.459e+01,1.771e+01,1.552e+01,1.541e+01,1.731e+01,1.631e+01,1.277e+01,1.627e+01,1.519e+01,1.828e+01,1.671e+01,1.911e+01,1.940e+01,1.815e+01,1.854e+01,1.577e+01,1.652e+01,1.750e+01,1.738e+01,1.503e+01,1.469e+01,1.632e+01,1.793e+01,1.643e+01,1.738e+01,1.859e+01,1.544e+01,1.731e+01,1.776e+01,1.598e+01
5.496e-01,1.309e+00,1.326e+00,1.277e+00,1.888e+00,2.605e+00,2.137e+00,2.144e+00,2.415e+00,2.621e+00,3.891e+00,3.413e+00,2.702e+00,4.819e+00,3.306e+00,3.671e+00,4.925e+00,3.822e+00,5.227e+00,5.824e+00,6.700e+00,6.252e+00,6.806e+00,5.989e+00,6.154e+00,7.345e+00,8.775e+00,7.616e+00,9.378e+00,1.007e+01,9.735e+00,1.030e+01,8.726e+00,9.317e+00,9.055e+00,8.545e+00,1.064e+01,8.988e+00,9.639e+00,9.735e+00,1.022e+01,1.179e+01,8.999e+00,1.176e+01,1.092e+01,1.494e+01,1.285e+01,1.473e+01,1.315e+01,1.375e+01,1.231e+01,1.515e+01,1.588e+01,1.364e+01,1.632e+01,1.461e+01,1.503e+01,1.586e+01,1.761e+01,1.534e+01,1.440e+01,1.396e+01,1.705e+01,1.773e+01,1.478e+01,1.590e+01,1.895e+01,1.571e+01,1.489e+01,1.709e+01,1.540e+01,1.750e+01,1.746e+01,1.988e+01,1.990e+01,1.755e+01,1.959e+01,1.546e+01,1.606e+01,1.808e+01,1.789e+01,1.711e+01,1.602e+01,1.732e+01,1.680e+01,1.806e+01,2.027e+01,1.838e+01,1.522e+01,1.706e+01,1.780e+01,1.632e+01
7.715e-01,7.815e-01,6.918e-01,6.094e-01,6.777e-01,1.599e+00,1.480e+00,1.994e+00,2.259e+00,2.721e+00,3.572e+00,3.077e+00,2.972e+00,3.518e+00,3.595e+00,3.752e+00,4.181e+00,3.848e+00,4.981e+00,5.233e+00,5.625e+00,5.936e+00,6.185e+00,5.629e+00,6.839e+00,6.780e+00,7.401e+00,6.635e+00,8.839e+00,9.415e+00,7.426e+00,1.010e+01,8.737e+00,9.176e+00,7.390e+00,6.735e+00,7.999e+00,8.652e+00,8.660e+00,9.556e+00,9.675e+00,1.242e+01,1.075e+01,1.159e+01,9.648e+00,1.448e+01,1.307e+01,1.315e+01,1.220e+01,1.285e+01,1.131e+01,1.472e+01,1.436e+01,1.382e+01,1.524e+01,1.442e+01,1.504e+01,1.415e+01,1.586e+01,1.430e+01,1.577e+01,1.393e+01,1.446e+01,1.665e+01,1.463e+01,1.550e+01,1.707e+01,1.613e+01,1.468e+01,1.703e+01,1.552e+01,1.785e+01,1.672e+01,1.913e+01,1.959e+01,1.853e+01,1.820e+01,1.562e+01,1.690e+01,1.716e+01,1.712e+01,1.804e+01,1.421e+01,1.625e+01,1.712e+01,1.651e+01,1.869e+01,1.824e+01,1.552e+01,1.676e+01,1.762e+01,1.569e+01
2.176e-01,6.843e-01,8.504e-01,1.148e+00,1.546e+00,2.117e+00,1.382e+00,2.481e+00,1.878e+00,2.351e+00,3.380e+00,3.551e+00,2.243e+00,4.675e+00,3.532e+00,3.093e+00,4.564e+00,3.676e+00,4.799e+00,5.217e+00,6.246e+00,5.698e+00,5.573e+00,5.162e+00,6.662e+00,7.142e+00,7.929e+00,7.696e+00,8.918e+00,8.463e+00,9.114e+00,8.995e+00,7.515e+00,8.658e+00,8.782e+00,7.659e+00,9.600e+00,8.206e+00,9.009e+00,8.974e+00,1.041e+01,1.112e+01,9.404e+00,1.180e+01,9.949e+00,1.455e+01,1.325e+01,1.425e+01,1.346e+01,1.248e+01,1.090e+01,1.428e+01,1.386e+01,1.404e+01,1.576e+01,1.342e+01,1.424e+01,1.434e+01,1.582e+01,1.544e+01,1.496e+01,1.488e+01,1.614e+01,1.712e+01,1.598e+01,1.491e+01,1.843e+01,1.726e+01,1.544e+01,1.863e+01,1.635e+01,1.834e+01,1.781e+01,2.056e+01,2.026e+01,1.872e+01,2.036e+01,1.677e+01,1.711e+01,1.922e+01,1.813e+01,1.714e+01,1.659e+01,1.750e+01,1.731e+01,1.701e+01,1.749e+01,1.982e+01,1.668e+01,1.803e+01,1.801e+01,1.639e+01
4.616e-01,1.135e+00,1.129e+00,1.196e+00,1.787e+00,2.305e+00,1.634e+00,1.143e+00,1.537e+00,2.821e+00,3.988e+00,2.723e+00,2.270e+00,4.026e+00,2.630e+00,3.552e+00,3.244e+00,3.326e+00,3.827e+00,5.144e+00,5.457e+00,5.262e+00,4.615e+00,4.572e+00,6.237e+00,6.480e+00,6.458e+00,6.699e+00,8.248e+00,8.353e+00,8.217e+00,8.550e+00,7.913e+00,8.373e+00,7.885e+00,6.927e+00,6.956e+00,8.513e+00,7.211e+00,7.457e+00,8.578e+00,9.209e+00,6.696e+00,9.506e+00,9.388e+00,1.145e+01,9.840e+00,1.123e+01,1.135e+01,1.091e+01,9.067e+00,1.279e+01,1.258e+01,1.268e+01,1.406e+01,1.199e+01,1.185e+01,1.296e+01,1.432e+01,1.187e+01,1.407e+01,1.373e+01,1.317e+01,1.439e+01,1.316e+01,1.343e+01,1.605e+01,1.421e+01,1.162e+01,1.489e+01,1.391e+01,1.573e+01,1.672e+01,1.811e+01,1.582e+01,1.607e+01,1.712e+01,1.470e+01,1.603e+01,1.626e+01,1.492e+01,1.460e+01,1.392e+01,1.579e+01,1.366e+01,1.587e+01,1.429e+01,1.612e+01,1.497e+01,1.489e+01,1.370e+01,1.501e+01
7.234e-01,8.780e-01,7.761e-01,5.530e-01,7.244e-01,1.329e+00,1.385e+00,1.271e+00,1.778e+00,1.758e+00,2.350e+00,2.204e+00,2.254e+00,3.200e+00,2.940e+00,2.606e+00,3.405e+00,2.990e+00,3.456e+00,3.705e+00,5.210e+00,4.562e+00,5.096e+00,4.556e+00,5.166e+00,5.394e+00,7.052e+00,5.813e+00,7.369e+00,7.535e+00,7.442e+00,8.389e+00,7.485e+00,8.339e+00,7.335e+00,6.616e+00,8.803e+00,7.340e+00,8.337e+00,9.594e+00,9.544e+00,1.105e+01,9.704e+00,1.072e+01,9.689e+00,1.259e+01,1.174e+01,1.238e+01,1.218e+01,1.217e+01,1.023e+01,1.209e+01,1.289e+01,1.252e+01,1.376e+01,1.184e+01,1.228e+01,1.208e+01,1.386e+01,1.338e+01,1.285e+01,1.278e+01,1.407e+01,1.403e+01,1.289e+01,1.303e+01,1.541e+01,1.481e+01,1.266e+01,1.440e+01,1.509e+01,1.624e+01,1.695e+01,1.741e+01,1.817e+01,1.625e+01,1.599e+01,1.443e+01,1.615e+01,1.584e+01,1.726e+01,1.553e+01,1.556e+01,1.464e+01,1.534e+01,1.566e+01,1.695e+01,1.759e+01,1.515e+01,1.596e+01,1.595e+01,1.580e+01
4.160e-01,1.093e+00,1.190e+00,1.304e+00,1.318e+00,1.595e+00,1.410e+00,2.264e+00,1.673e+00,2.564e+00,3.873e+00,2.782e+00,2.819e+00,4.570e+00,3.134e+00,4.019e+00,3.709e+00,3.500e+00,4.299e+00,5.469e+00,5.842e+00,5.898e+00,5.371e+00,4.978e+00,6.302e+00,5.910e+00,7.404e+00,6.209e+00,7.649e+00,8.622e+00,8.848e+00,8.754e+00,8.738e+00,8.518e+00,8.361e+00,6.345e+00,7.958e+00,7.511e+00,8.370e+00,8.757e+00,8.437e+00,1.025e+01,8.764e+00,1.114e+01,9.821e+00,1.330e+01,1.323e+01,1.348e+01,1.326e+01,1.203e+01,9.970e+00,1.441e+01,1.350e+01,1.413e+01,1.454e+01,1.463e+01,1.358e+01,1.553e+01,1.571e+01,1.421e+01,1.459e+01,1.331e+01,1.571e+01,1.624e+01,1.521e+01,1.601e+01,1.834e+01,1.621e+01,1.542e+01,1.756e+01,1.505e+01,1.975e+01,1.969e+01,2.068e+01,2.041e+01,1.869e+01,1.901e+01,1.775e+01,1.887e+01,1.937e+01,1.895e+01,1.743e+01,1.836e+01,1.958e+01,1.691e+01,1.876e+01,1.854e+01,1.974e+01,1.830e+01,1.749e+01,1.772e+01,1.749e+01
9.895e-02,5.941e-01,7.037e-01,8.636e-01,1.526e+00,2.272e+00,1.675e+00,2.979e+00,2.418e+00,3.038e+00,4.171e+00,3.718e+00,3.222e+00,4.580e+00,4.043e+00,4.121e+00,5.268e+00,4.074e+00,5.768e+00,5.593e+00,7.263e+00,6.758e+00,6.787e+00,6.267e+00,7.384e+00,7.924e+00,9.003e+00,8.623e+00,1.086e+01,1.130e+01,1.082e+01,1.180e+01,9.767e+00,1.069e+01,9.637e+00,9.215e+00,1.135e+01,1.019e+01,1.009e+01,1.064e+01,1.216e+01,1.331e+01,1.126e+01,1.412e+01,1.211e+01,1.645e+01,1.512e+01,1.542e+01,1.454e+01,1.464e+01,1.271e+01,1.791e+01,1.747e+01,1.669e+01,1.889e+01,1.603e+01,1.752e+01,1.633e+01,1.836e+01,1.768e+01,1.796e+01,1.692e+01,1.714e+01,2.003e+01,1.676e+01,1.673e+01,1.895e+01,1.962e+01,1.708e+01,2.043e+01,1.982e+01,2.160e+01,2.172e+01,2.296e+01,2.343e+01,2.219e+01,2.207e+01,1.914e+01,2.123e+01,2.045e+01,2.130e+01,2.070e+01,1.936e+01,2.191e+01,2.089e+01,2.102e+01,2.285e+01,2.375e+01,1.955e+01,2.117e+01,2.070e+01,1.945e+01
8.635e-02,4.881e-01,5.719e-01,6.866e-01,1.259e+00,1.843e+00,1.418e+00,2.638e+00,2.024e+00,2.502e+00,3.845e+00,2.978e+00,2.622e+00,4.342e+00,3.377e+00,3.695e+00,4.471e+00,3.358e+00,4.441e+00,4.787e+00,5.929e+00,6.102e+00,5.648e+00,4.532e+00,5.476e+00,6.278e+00,7.018e+00,6.581e+00,8.516e+00,9.945e+00,9.216e+00,9.511e+00,8.908e+00,8.560e+00,8.489e+00,7.296e+00,8.142e+00,7.809e+00,7.586e+00,9.219e+00,9.029e+00,1.054e+01,9.506e+00,1.178e+01,8.803e+00,1.310e+01,1.296e+01,1.334e+01,1.244e+01,1.296e+01,1.016e+01,1.316e+01,1.365e+01,1.401e+01,1.508e+01,1.366e+01,1.363e+01,1.418e+01,1.506e+01,1.433e+01,1.613e+01,1.496e+01,1.373e+01,1.757e+01,1.475e+01,1.661e+01,1.733e+01,1.752e+01,1.313e+01,1.648e+01,1.587e+01,1.998e+01,1.969e+01,1.956e+01,2.092e+01,1.938e+01,2.068e+01,1.841e+01,1.772e+01,2.054e+01,2.127e+01,1.706e+01,1.766e+01,1.909e+01,2.028e+01,1.990e+01,1.849e+01,2.067e+01,1.731e+01,1.693e+01,1.894e+01,1.814e+01
4.534e-01,7.091e-01,6.773e-01,6.878e-01,9.069e-01,1.393e+00,1.233e+00,1.470e+00,1.480e+00,1.954e+00,2.954e+00,2.133e+00,2.298e+00,3.449e+00,2.602e+00,3.519e+00,3.959e+00,3.200e+00,3.525e+00,4.783e+00,5.996e+00,5.311e+00,5.764e+00,4.878e+00,5.734e+00,5.608e+00,6.826e+00,5.977e+00,7.989e+00,8.697e+00,7.721e+00,8.323e+00,7.586e+00,8.536e+00,7.434e+00,6.883e+00,8.602e+00,7.251e+00,7.615e+00,8.762e+00,8.224e+00,9.997e+00,8.654e+00,1.077e+01,9.054e+00,1.279e+01,1.137e+01,1.190e+01,1.111e+01,1.272e+01,1.060e+01,1.341e+01,1.439e+01,1.343e+01,1.420e+01,1.281e+01,1.404e+01,1.417e+01,1.666e+01,1.446e+01,1.503e+01,1.442e+01,1.545e+01,1.731e+01,1.513e+01,1.544e+01,1.767e+01,1.649e+01,1.462e+01,1.751e+01,1.588e+01,1.872e+01,1.807e+01,2.054e+01,2.206e+01,1.890e+01,2.066e+01,1.876e+01,1.938e+01,1.968e+01,1.917e+01,1.786e+01,1.769e+01,1.975e+01,1.790e+01,2.114e+01,2.142e+01,1.971e+01,1.811e+01,1.798e+01,1.927e+01,1.855e+01
6.951e-01,8.883e-01,8.255e-01,8.375e-01,8.644e-01,1.507e+00,1.414e+00,2.375e+00,1.968e+00,2.532e+00,3.794e+00,3.024e+00,2.658e+00,3.950e+00,3.113e+00,3.704e+00,3.462e+00,2.794e+00,3.871e+00,4.601e+00,5.596e+00,5.748e+00,5.777e+00,5.506e+00,6.788e+00,6.194e+00,7.240e+00,6.658e+00,8.145e+00,8.685e+00,7.163e+00,9.168e+00,8.614e+00,9.070e+00,8.027e+00,7.179e+00,9.157e+00,8.423e+00,9.979e+00,9.979e+00,9.893e+00,1.069e+01,9.023e+00,1.065e+01,9.496e+00,1.164e+01,1.195e+01,1.327e+01,1.188e+01,1.083e+01,1.117e+01,1.271e+01,1.439e+01,1.359e+01,1.454e+01,1.448e+01,1.388e+01,1.354e+01,1.500e+01,1.538e+01,1.476e+01,1.251e+01,1.467e+01,1.563e+01,1.465e+01,1.544e+01,1.713e+01,1.512e+01,1.514e+01,1.714e+01,1.603e+01,1.811e+01,1.902e+01,2.040e+01,2.235e+01,1.996e+01,2.007e+01,1.741e+01,2.050e+01,1.972e+01,1.977e+01,1.890e+01,1.749e+01,2.022e+01,1.835e+01,1.988e+01,2.214e+01,2.175e+01,1.855e+01,1.790e+01,1.949e+01,1.870e+01
9.435e-02,4.761e-01,5.505e-01,6.586e-01,8.417e-01,1.300e+00,8.637e-01,1.471e+00,1.294e+00,1.769e+00,2.617e+00,2.157e+00,1.575e+00,3.185e+00,2.507e+00,2.578e+00,3.314e+00,3.288e+00,3.799e+00,4.038e+00,4.312e+00,4.728e+00,4.629e+00,4.054e+00,5.583e+00,5.832e+00,6.465e+00,5.632e+00,6.997e+00,7.920e+00,7.406e+00,8.170e+00,6.889e+00,7.299e+00,7.443e+00,6.273e+00,7.561e+00,6.461e+00,7.173e+00,9.331e+00,8.597e+00,1.095e+01,8.322e+00,1.096e+01,9.022e+00,1.308e+01,1.257e+01,1.259e+01,1.238e+01,1.189e+01,9.729e+00,1.359e+01,1.446e+01,1.367e+01,1.432e+01,1.267e+01,1.293e+01,1.308e+01,1.387e+01,1.446e+01,1.380e+01,1.267e+01,1.362e+01,1.611e+01,1.267e+01,1.554e+01,1.624e+01,1.626e+01,1.369e+01,1.554e+01,1.549e+01,1.745e+01,1.790e+01,1.899e+01,2.126e+01,1.877e+01,1.877e+01,1.646e+01,1.960e+01,1.965e+01,2.004e+01,1.614e+01,1.770e+01,2.101e+01,1.826e+01,1.951e+01,2.064e+01,1.996e+01,1.747e+01,1.828e+01,1.916e+01,1.816e+01
8.166e-02,4.458e-01,5.018e-01,6.274e-01,6.225e-01,1.088e+00,8.078e-01,1.879e+00,1.372e+00,1.695e+00,2.687e+00,2.279e+00,2.047e+00,4.119e+00,2.663e+00,2.712e+00,3.894e+00,3.500e+00,4.120e+00,4.259e+00,4.556e+00,4.747e+00,5.110e+00,3.591e+00,5.250e+00,5.997e+00,6.453e+00,5.670e+00,7.337e+00,7.446e+00,6.855e+00,8.825e+00,7.449e+00,7.813e+00,7.437e+00,6.069e+00,8.052e+00,7.516e+00,7.935e+00,7.816e+00,7.369e+00,9.815e+00,8.387e+00,9.821e+00,9.393e+00,1.124e+01,1.044e+01,1.154e+01,1.159e+01,1.059e+01,1.002e+01,1.329e+01,1.413e+01,1.291e+01,1.542e+01,1.418e+01,1.473e+01,1.439e+01,1.478e+01,1.518e+01,1.538e+01,1.375e+01,1.580e+01,1.552e+01,1.580e+01,1.706e+01,1.807e+01,1.676e+01,1.476e+01,1.730e+01,1.562e+01,1.895e+01,1.731e+01,1.902e+01,1.951e+01,1.849e+01,1.954e+01,1.737e+01,1.805e+01,1.839e+01,1.945e+01,1.801e+01,1.731e+01,2.097e+01,1.650e+01,1.939e+01,2.015e+01,1.936e+01,1.846e+01,1.792e+01,1.895e+01,1.728e+01
4.541e-01,1.102e+00,1.216e+00,1.428e+00,1.655e+00,2.348e+00,1.615e+00,1.971e+00,2.008e+00,3.456e+00,4.528e+00,3.400e+00,2.773e+00,4.160e+00,3.658e+00,4.290e+00,3.706e+00,3.372e+00,4.577e+00,5.203e+00,5.678e+00,5.269e+00,4.340e+00,5.344e+00,5.998e+00,6.094e+00,6.053e+00,5.934e+00,7.551e+00,8.559e+00,7.988e+00,8.738e+00,8.713e+00,7.960e+00,7.943e+00,6.408e+00,7.158e+00,7.531e+00,7.915e+00,8.712e+00,8.750e+00,1.085e+01,8.934e+00,1.172e+01,9.935e+00,1.311e+01,1.317e+01,1.321e+01,1.287e+01,1.164e+01,8.632e+00,1.385e+01,1.394e+01,1.403e+01,1.575e+01,1.409e+01,1.379e+01,1.383e+01,1.617e+01,1.356e+01,1.446e+01,1.349e+01,1.479e+01,1.625e+01,1.421e+01,1.577e+01,1.939e+01,1.602e+01,1.682e+01,1.777e+01,1.635e+01,1.989e+01,1.995e+01,2.073e+01,2.194e+01,2.018e+01,2.037e+01,1.891e+01,2.237e+01,2.065e+01,2.087e+01,1.971e+01,2.031e+01,2.104e+01,1.964e+01,2.153e+01,2.121e+01,2.204e+01,1.908e+01,1.913e+01,2.052e+01,1.876e+01
4.516e-01,1.062e+00,1.201e+00,1.387e+00,1.656e+00,2.508e+00,1.768e+00,1.773e+00,2.256e+00,3.007e+00,3.619e+00,3.263e+00,2.905e+00,4.077e+00,3.884e+00,3.973e+00,5.077e+00,4.216e+00,5.310e+00,6.330e+00,6.926e+00,6.140e+00,6.299e+00,6.616e+00,6.850e+00,7.817e+00,8.781e+00,8.301e+00,1.056e+01,1.006e+01,1.061e+01,1.044e+01,9.092e+00,1.020e+01,8.781e+00,8.692e+00,1.015e+01,9.702e+00,9.719e+00,1.046e+01,1.018e+01,1.237e+01,9.208e+00,1.210e+01,1.084e+01,1.474e+01,1.441e+01,1.515e+01,1.443e+01,1.320e+01,1.182e+01,1.448e+01,1.461e+01,1.417e+01,1.679e+01,1.487e+01,1.465e+01,1.566e+01,1.678e+01,1.493e+01,1.481e+01,1.436e+01,1.510e+01,1.782e+01,1.446e+01,1.585e+01,1.759e+01,1.620e+01,1.506e+01,1.698e+01,1.753e+01,1.993e+01,1.993e+01,2.026e+01,2.203e+01,2.040e+01,1.897e+01,1.751e+01,2.029e+01,1.931e+01,2.146e+01,2.075e+01,1.854e+01,2.095e+01,1.991e+01,2.022e+01,2.097e+01,2.296e+01,1.843e+01,2.033e+01,1.962e+01,1.888e+01
2.148e-01,4.604e-01,4.339e-01,4.774e-01,1.160e+00,1.825e+00,1.463e+00,2.453e+00,1.982e+00,2.099e+00,3.342e+00,2.936e+00,2.369e+00,3.624e+00,2.684e+00,3.499e+00,4.241e+00,2.970e+00,4.372e+00,4.369e+00,5.898e+00,5.447e+00,5.487e+00,5.027e+00,5.927e+00,6.061e+00,6.705e+00,6.309e+00,8.190e+00,8.562e+00,6.992e+00,8.194e+00,7.522e+00,8.885e+00,7.845e+00,7.044e+00,7.976e+00,7.852e+00,8.018e+00,9.107e+00,9.407e+00,1.053e+01,9.235e+00,1.298e+01,9.791e+00,1.321e+01,1.233e+01,1.319e+01,1.387e+01,1.198e+01,1.074e+01,1.357e+01,1.448e+01,1.472e+01,1.452e+01,1.466e+01,1.584e+01,1.498e+01,1.539e+01,1.512e+01,1.619e+01,1.513e+01,1.533e+01,1.664e+01,1.507e+01,1.825e+01,1.937e+01,1.659e+01,1.678e+01,1.870e+01,1.643e+01,1.958e+01,2.016e+01,2.261e+01,2.168e+01,2.096e+01,2.251e+01,1.877e+01,2.129e+01,2.262e+01,2.292e+01,2.215e+01,1.998e+01,2.453e+01,2.029e+01,2.058e+01,2.305e+01,2.316e+01,1.995e+01,2.076e+01,2.315e+01,1.974e+01
1.413e-01,2.482e-01,3.535e-01,5.223e-01,8.486e-01,1.200e+00,7.702e-01,1.021e+00,9.999e-01,1.285e+00,2.216e+00,2.173e+00,1.466e+00,2.703e+00,2.519e+00,2.255e+00,2.787e+00,2.874e+00,3.564e+00,3.988e+00,4.351e+00,4.449e+00,3.846e+00,4.044e+00,6.000e+00,5.985e+00,6.228e+00,5.808e+00,6.698e+00,7.002e+00,6.900e+00,8.576e+00,7.035e+00,9.199e+00,8.081e+00,6.465e+00,8.327e+00,7.064e+00,8.164e+00,9.669e+00,8.670e+00,1.046e+01,8.800e+00,1.012e+01,8.967e+00,1.210e+01,1.129e+01,1.144e+01,1.269e+01,1.137e+01,9.430e+00,1.116e+01,1.295e+01,1.295e+01,1.406e+01,1.159e+01,1.203e+01,1.294e+01,1.269e+01,1.374e+01,1.320e+01,1.391e+01,1.330e+01,1.541e+01,1.362e+01,1.426e+01,1.498e+01,1.366e+01,1.360e+01,1.548e+01,1.507e+01,1.700e+01,1.785e+01,1.868e+01,2.044e+01,1.743e+01,1.828e+01,1.503e+01,1.935e+01,1.880e+01,1.943e+01,1.860e+01,1.858e+01,1.931e+01,1.840e+01,1.925e+01,1.993e+01,2.035e+01,1.775e+01,1.925e+01,1.853e+01,1.718e+01
3.296e-01,1.016e+00,1.042e+00,1.052e+00,1.722e+00,2.371e+00,1.909e+00,2.653e+00,2.345e+00,3.177e+00,4.701e+00,3.485e+00,3.207e+00,4.787e+00,3.886e+00,4.898e+00,5.216e+00,4.317e+00,5.662e+00,6.048e+00,7.489e+00,7.522e+00,7.338e+00,6.494e+00,8.140e+00,8.135e+00,9.141e+00,8.167e+00,1.030e+01,1.104e+01,9.726e+00,1.083e+01,8.921e+00,1.050e+01,9.023e+00,8.201e+00,9.298e+00,8.328e+00,8.644e+00,1.045e+01,1.001e+01,1.153e+01,1.005e+01,1.288e+01,1.119e+01,1.447e+01,1.362e+01,1.380e+01,1.343e+01,1.343e+01,1.043e+01,1.564e+01,1.485e+01,1.305e+01,1.579e+01,1.503e+01,1.551e+01,1.575e+01,1.715e+01,1.530e+01,1.664e+01,1.485e+01,1.755e+01,1.773e+01,1.533e+01,1.566e+01,1.881e+01,1.950e+01,1.578e+01,1.901e+01,1.757e+01,2.089e+01,2.028e+01,2.176e+01,2.309e+01,2.019e+01,2.090e+01,1.950e+01,2.165e+01,2.101e+01,2.231e+01,2.155e+01,2.184e+01,2.331e+01,2.098e+01,2.294e+01,2.426e+01,2.411e+01,1.960e+01,2.151e+01,2.202e+01,2.289e+01
4.199e-01,8.494e-01,8.152e-01,7.837e-01,1.272e+00,1.650e+00,1.335e+00,1.080e+00,1.315e+00,2.184e+00,3.232e+00,2.216e+00,2.203e+00,3.754e+00,2.642e+00,3.378e+00,3.417e+00,3.132e+00,3.493e+00,4.314e+00,5.212e+00,4.414e+00,4.332e+00,3.807e+00,5.215e+00,4.953e+00,5.547e+00,5.561e+00,7.058e+00,6.934e+00,7.379e+00,7.508e+00,6.584e+00,7.655e+00,6.287e+00,5.513e+00,6.758e+00,6.482e+00,6.556e+00,6.128e+00,7.252e+00,8.507e+00,7.202e+00,9.606e+00,8.519e+00,1.164e+01,9.537e+00,1.060e+01,1.063e+01,1.062e+01,8.759e+00,1.260e+01,1.133e+01,1.156e+01,1.297e+01,1.140e+01,1.143e+01,1.330e+01,1.373e+01,1.209e+01,1.344e+01,1.327e+01,1.382e+01,1.535e+01,1.338e+01,1.334e+01,1.546e+01,1.345e+01,1.327e+01,1.553e+01,1.400e+01,1.637e+01,1.644e+01,1.765e+01,1.801e+01,1.660e+01,1.822e+01,1.664e+01,1.709e+01,1.856e+01,1.878e+01,1.731e+01,1.628e+01,1.896e+01,1.755e+01,1.923e+01,1.951e+01,1.817e+01,1.690e+01,1.824e+01,1.990e+01,1.713e+01
7.802e-01,1.567e+00,1.543e+00,1.544e+00,2.018e+00,3.049e+00,2.280e+00,1.980e+00,2.669e+00,3.813e+00,4.478e+00,3.687e+00,3.114e+00,4.011e+00,3.744e+00,4.218e+00,4.703e+00,3.740e+00,5.270e+00,5.882e+00,6.334e+00,5.950e+00,6.188e+00,6.129e+00,5.807e+00,6.944e+00,7.551e+00,7.451e+00,8.654e+00,8.043e+00,8.251e+00,9.553e+00,7.308e+00,8.078e+00,7.453e+00,7.847e+00,8.320e+00,8.670e+00,8.446e+00,8.108e+00,9.396e+00,1.093e+01,9.784e+00,1.093e+01,1.041e+01,1.383e+01,1.257e+01,1.333e+01,1.212e+01,1.201e+01,1.058e+01,1.371e+01,1.306e+01,1.133e+01,1.430e+01,1.453e+01,1.292e+01,1.465e+01,1.578e+01,1.406e+01,1.393e+01,1.384e+01,1.535e+01,1.530e+01,1.476e+01,1.461e+01,1.820e+01,1.443e+01,1.451e+01,1.822e+01,1.699e+01,1.763e+01,1.750e+01,1.939e+01,2.117e+01,1.944e+01,1.922e+01,1.715e+01,2.022e+01,1.870e+01,2.042e+01,1.991e+01,1.969e+01,2.023e+01,2.108e+01,2.108e+01,2.476e+01,2.331e+01,1.975e+01,2.054e+01,2.139e+01,2.197e+01
2.551e-01,8.248e-01,1.013e+00,1.408e+00,1.363e+00,2.086e+00,1.196e+00,2.245e+00,1.822e+00,2.685e+00,2.910e+00,3.059e+00,1.964e+00,3.251e+00,2.846e+00,2.673e+00,3.686e+00,2.681e+00,4.091e+00,4.715e+00,4.455e+00,4.109e+00,4.122e+00,4.202e+00,3.750e+00,4.989e+00,5.441e+00,5.225e+00,6.711e+00,6.683e+00,7.040e+00,8.915e+00,7.377e+00,6.441e+00,7.028e+00,6.321e+00,7.233e+00,7.933e+00,7.299e+00,7.092e+00,8.350e+00,9.746e+00,8.085e+00,9.218e+00,8.263e+00,1.095e+01,1.119e+01,1.147e+01,1.113e+01,1.069e+01,9.835e+00,1.398e+01,1.352e+01,1.348e+01,1.399e+01,1.366e+01,1.422e+01,1.394e+01,1.454e+01,1.451e+01,1.507e+01,1.385e+01,1.498e+01,1.673e+01,1.489e+01,1.636e+01,1.843e+01,1.523e+01,1.541e+01,1.846e+01,1.582e+01,1.801e+01,1.786e+01,1.875e+01,2.096e+01,1.906e+01,2.022e+01,1.756e+01,1.939e+01,1.767e+01,2.085e+01,1.930e+01,1.968e+01,2.109e+01,1.934e+01,2.183e+01,2.327e+01,2.206e+01,2.081e+01,2.162e+01,2.083e+01,1.901e+01
3.762e-01,1.034e+00,1.002e+00,1.091e+00,1.142e+00,1.724e+00,1.343e+00,1.709e+00,1.620e+00,2.969e+00,4.342e+00,2.479e+00,2.664e+00,4.206e+00,2.416e+00,3.992e+00,3.314e+00,3.406e+00,3.902e+00,5.011e+00,5.070e+00,5.332e+00,5.303e+00,4.479e+00,5.808e+00,6.104e+00,6.579e+00,6.202e+00,7.570e+00,8.201e+00,7.052e+00,8.370e+00,6.798e+00,7.156e+00,7.931e+00,6.248e+00,7.392e+00,7.758e+00,7.784e+00,7.389e+00,8.389e+00,1.046e+01,8.472e+00,1.027e+01,8.534e+00,1.251e+01,1.186e+01,1.185e+01,1.184e+01,1.054e+01,1.053e+01,1.386e+01,1.393e+01,1.244e+01,1.433e+01,1.377e+01,1.232e+01,1.330e+01,1.468e+01,1.401e+01,1.398e+01,1.228e+01,1.413e+01,1.524e+01,1.318e+01,1.419e+01,1.660e+01,1.379e+01,1.268e+01,1.638e+01,1.338e+01,1.748e+01,1.600e+01,1.781e+01,1.883e+01,1.681e+01,1.791e+01,1.624e+01,1.706e+01,1.717e+01,1.809e+01,1.747e+01,1.623e+01,1.958e+01,1.738e+01,1.913e+01,2.044e+01,1.932e+01,1.924e+01,1.999e+01,1.852e+01,1.927e+01
6.831e-01,1.225e+00,1.311e+00,1.491e+00,1.915e+00,2.871e+00,2.259e+00,3.133e+00,2.902e+00,2.921e+00,4.102e+00,4.034e+00,2.644e+00,3.782e+00,3.403e+00,3.856e+00,4.492e+00,3.523e+00,5.099e+00,5.757e+00,6.214e+00,6.688e+00,6.317e+00,6.432e+00,6.750e+00,7.473e+00,8.472e+00,7.741e+00,9.984e+00,1.033e+01,1.031e+01,1.042e+01,1.001e+01,1.018e+01,9.559e+00,9.481e+00,1.052e+01,1.078e+01,1.013e+01,1.113e+01,1.117e+01,1.257e+01,9.898e+00,1.325e+01,1.229e+01,1.603e+01,1.543e+01,1.741e+01,1.603e+01,1.407e+01,1.262e+01,1.566e+01,1.697e+01,1.622e+01,1.778e+01,1.686e+01,1.540e+01,1.671e+01,1.612e+01,1.740e+01,1.721e+01,1.755e+01,1.610e+01,1.894e+01,1.729e+01,1.762e+01,2.052e+01,1.872e+01,1.719e+01,1.958e+01,1.807e+01,2.120e+01,2.212e+01,2.265e+01,2.372e+01,2.305e+01,2.234e+01,2.015e+01,2.310e+01,2.291e+01,2.424e+01,2.217e+01,2.293e+01,2.310e+01,2.293e+01,2.419e+01,2.631e+01,2.739e+01,2.350e+01,2.357e+01,2.486e+01,2.300e+01
2.872e-01,6.607e-01,7.810e-01,9.980e-01,1.358e+00,2.047e+00,1.545e+00,2.345e+00,2.081e+00,2.672e+00,4.036e+00,3.203e+00,2.757e+00,3.637e+00,3.598e+00,3.716e+00,4.387e+00,4.029e+00,5.310e+00,5.674e+00,5.940e+00,6.288e+00,5.971e+00,4.789e+00,5.965e+00,6.839e+00,7.758e+00,6.856e+00,8.406e+00,9.779e+00,9.034e+00,1.045e+01,9.482e+00,9.360e+00,8.910e+00,7.529e+00,9.148e+00,9.308e+00,8.419e+00,9.760e+00,8.961e+00,1.168e+01,1.039e+01,1.237e+01,1.005e+01,1.536e+01,1.395e+01,1.481e+01,1.349e+01,1.409e+01,1.165e+01,1.632e+01,1.609e+01,1.644e+01,1.549e+01,1.533e+01,1.559e+01,1.644e+01,1.673e+01,1.712e+01,1.728e+01,1.619e+01,1.643e+01,1.844e+01,1.722e+01,1.747e+01,1.938e+01,1.946e+01,1.581e+01,1.770e+01,1.704e+01,2.048e+01,2.080e+01,2.215e+01,2.354e+01,2.154e+01,2.308e+01,2.068e+01,2.207e+01,2.072e+01,2.403e+01,2.123e+01,2.161e+01,2.411e+01,2.217e+01,2.406e+01,2.486e+01,2.508e+01,2.324e+01,2.226e+01,2.406e+01,2.287e+01
3.766e-01,3.879e-01,3.725e-01,5.472e-01,7.760e-01,1.797e+00,1.328e+00,2.016e+00,2.114e+00,2.833e+00,4.129e+00,2.983e+00,2.955e+00,3.528e+00,3.198e+00,4.361e+00,4.502e+00,3.710e+00,4.511e+00,5.593e+00,6.507e+00,5.995e+00,5.789e+00,6.289e+00,6.187e+00,6.114e+00,7.236e+00,6.960e+00,7.512e+00,8.920e+00,8.927e+00,9.035e+00,8.631e+00,9.992e+00,8.141e+00,7.353e+00,8.791e+00,7.902e+00,9.001e+00,1.021e+01,8.575e+00,1.098e+01,9.591e+00,1.248e+01,1.035e+01,1.425e+01,1.351e+01,1.393e+01,1.314e+01,1.206e+01,9.659e+00,1.350e+01,1.382e+01,1.305e+01,1.467e+01,1.499e+01,1.387e+01,1.562e+01,1.592e+01,1.418e+01,1.558e+01,1.453e+01,1.453e+01,1.698e+01,1.573e+01,1.566e+01,1.907e+01,1.623e+01,1.553e+01,1.805e+01,1.671e+01,1.964e+01,1.875e+01,2.120e+01,2.246e+01,1.926e+01,1.842e+01,1.936e+01,2.159e+01,2.256e+01,2.153e+01,2.077e+01,2.105e+01,2.266e+01,2.048e+01,2.375e+01,2.508e+01,2.395e+01,2.011e+01,2.217e+01,2.364e+01,2.295e+01
8.455e-01,1.184e+00,1.227e+00,1.396e+00,1.539e+00,2.336e+00,1.793e+00,2.188e+00,2.205e+00,2.724e+00,4.033e+00,3.619e+00,2.388e+00,4.268e+00,3.964e+00,4.418e+00,4.879e+00,4.652e+00,5.319e+00,6.591e+00,7.306e+00,7.188e+00,7.370e+00,5.734e+00,7.190e+00,7.381e+00,8.971e+00,7.509e+00,9.725e+00,9.906e+00,9.853e+00,1.072e+01,9.554e+00,1.039e+01,9.095e+00,8.275e+00,9.586e+00,9.282e+00,1.106e+01,1.036e+01,1.007e+01,1.204e+01,8.984e+00,1.210e+01,1.103e+01,1.342e+01,1.382e+01,1.524e+01,1.493e+01,1.338e+01,1.147e+01,1.443e+01,1.477e+01,1.449e+01,1.566e+01,1.588e+01,1.442e+01,1.614e+01,1.754e+01,1.618e+01,1.702e+01,1.645e+01,1.816e+01,1.826e+01,1.589e+01,1.612e+01,1.909e+01,1.707e+01,1.560e+01,1.991e+01,1.746e+01,2.043e+01,2.233e+01,2.282e+01,2.381e+01,2.091e+01,2.228e+01,1.978e+01,2.119e+01,2.093e+01,2.303e+01,2.197e+01,2.110e+01,2.287e+01,2.105e+01,2.311e+01,2.399e+01,2.421e+01,2.250e+01,2.284e+01,2.350e+01,2.260e+01
8.654e-01,1.324e+00,1.207e+00,8.914e-01,1.221e+00,1.490e+00,1.602e+00,1.379e+00,1.608e+00,2.307e+00,3.441e+00,2.557e+00,2.613e+00,4.800e+00,3.698e+00,4.181e+00,4.143e+00,4.017e+00,4.646e+00,5.415e+00,6.148e+00,6.383e+00,6.293e+00,4.275e+00,6.771e+00,6.737e+00,7.553e+00,6.299e+00,9.578e+00,9.568e+00,8.867e+00,1.008e+01,9.310e+00,9.384e+00,8.181e+00,7.286e+00,7.312e+00,8.581e+00,8.875e+00,8.684e+00,9.424e+00,1.101e+01,8.484e+00,1.211e+01,9.988e+00,1.264e+01,1.278e+01,1.377e+01,1.344e+01,1.262e+01,1.042e+01,1.323e+01,1.381e+01,1.347e+01,1.415e+01,1.473e+01,1.333e+01,1.465e+01,1.541e+01,1.385e+01,1.520e+01,1.460e+01,1.459e+01,1.498e+01,1.441e+01,1.648e+01,1.770e+01,1.592e+01,1.519e+01,1.536e+01,1.517e+01,1.882e+01,2.009e+01,1.960e+01,1.974e+01,1.978e+01,1.967e+01,1.782e+01,1.970e+01,2.015e+01,2.089e+01,2.099e+01,2.110e+01,2.080e+01,2.031e+01,2.095e+01,2.276e+01,2.270e+01,1.930e+01,2.013e+01,2.201e+01,2.074e+01
