9.474e-02,5.868e-01,9.615e-01,9.494e-01,9.367e-01,7.574e-01,3.082e-01,4.428e-01,9.402e-01,3.155e-01,5.172e-01,9.005e-01,7.433e-01,4.584e-01,2.240e-02,1.249e-01,9.911e-01,7.293e-02,6.508e-01,5.243e-01,5.005e-01,4.800e-01,5.708e-01,9.032e-01,1.944e-01,8.467e-01,3.539e-01,1.633e-01,7.402e-01,3.483e-01,1.387e-01,9.057e-01,5.911e-01,6.293e-01,3.329e-01,1.535e-01,8.511e-01,1.273e-01,8.902e-02,2.061e-01,8.954e-01,7.434e-01,1.164e-01,7.009e-01,7.016e-01,6.465e-01,5.127e-01,4.897e-01,8.130e-01,7.684e-01,6.349e-01,6.134e-02,6.163e-01,4.143e-01,6.647e-01,8.690e-01,5.362e-01,1.056e-01,5.330e-01,5.666e-01,9.401e-02,9.688e-01,9.312e-01,2.686e-01,7.610e-01,4.276e-01,1.555e-01,4.629e-01,2.854e-01,4.647e-01,4.819e-01,2.874e-01,3.407e-01,4.978e-01,9.759e-01,4.152e-01,1.807e-01,7.876e-01,2.481e-01,7.271e-01,9.213e-02,3.496e-02
7.876e-03,4.904e-01,7.246e-01,4.504e-01,8.316e-01,1.446e-01,3.380e-01,5.548e-01,9.513e-01,1.644e-01,5.887e-01,7.521e-01,8.458e-02,6.320e-01,3.351e-01,3.545e-01,9.341e-01,8.151e-01,3.747e-01,2.762e-01,1.428e-01,5.175e-01,6.849e-01,3.945e-01,6.241e-02,1.018e-01,3.974e-01,3.049e-01,8.385e-01,5.810e-01,8.265e-01,1.693e-01,9.314e-01,3.332e-01,5.862e-01,4.580e-01,6.129e-01,3.775e-01,1.672e-01,3.149e-01,8.716e-02,8.337e-01,5.058e-01,8.374e-01,2.383e-01,2.386e-01,8.586e-01,1.649e-01,4.861e-01,4.508e-01,7.055e-01,4.303e-01,1.696e-01,2.785e-01,6.746e-01,9.915e-01,2.892e-01,6.183e-01,6.927e-01,4.069e-01,4.758e-01,1.040e+00,2.347e-01,4.874e-02,8.558e-01,8.816e-01,6.737e-01,5.102e-01,7.130e-01,6.023e-02,3.934e-01,4.793e-01,3.352e-01,2.634e-01,4.517e-01,4.632e-01,3.591e-01,2.176e-01,7.274e-01,9.464e-01,5.933e-01,5.891e-01
2.345e-02,3.444e-01,8.691e-01,4.160e-01,1.177e+00,1.001e+00,9.229e-01,1.333e+00,1.573e+00,1.103e+00,7.369e-01,1.094e+00,8.803e-01,1.055e+00,3.162e-01,8.432e-01,1.484e+00,1.188e+00,4.950e-01,9.376e-01,1.042e+00,9.084e-01,1.403e+00,8.094e-01,7.814e-01,1.140e+00,6.433e-01,9.807e-01,1.058e+00,9.978e-01,1.229e+00,1.167e+00,1.195e+00,8.125e-01,9.458e-01,6.454e-01,8.466e-01,3.873e-01,8.797e-01,9.576e-01,1.090e+00,1.356e+00,1.037e+00,1.067e+00,4.497e-01,3.644e-01,8.628e-01,1.918e-01,5.014e-01,1.069e+00,9.096e-01,6.328e-01,7.791e-01,1.181e+00,1.133e+00,7.858e-01,1.110e+00,3.256e-01,8.123e-01,6.957e-01,4.585e-01,9.620e-01,4.473e-01,9.684e-01,1.482e+00,5.471e-01,1.041e+00,1.059e+00,9.581e-01,4.886e-01,6.699e-01,4.853e-01,8.092e-01,5.314e-01,8.409e-01,8.882e-01,3.335e-01,1.203e+00,5.978e-01,1.355e+00,1.198e+00,3.943e-01
1.490e-02,4.371e-01,8.466e-01,6.543e-01,1.348e+00,8.182e-01,1.237e+00,1.610e+00,2.006e+00,7.579e-01,1.313e+00,1.007e+00,5.348e-01,1.629e+00,9.891e-01,1.442e+00,1.969e+00,1.255e+00,1.343e+00,1.162e+00,1.309e+00,1.141e+00,1.331e+00,1.463e+00,6.991e-01,1.093e+00,1.326e+00,1.029e+00,1.840e+00,1.416e+00,1.977e+00,9.951e-01,1.297e+00,9.901e-01,1.715e+00,1.581e+00,1.014e+00,1.312e+00,9.078e-01,1.451e+00,1.210e+00,1.198e+00,1.788e+00,1.342e+00,4.179e-01,7.410e-01,1.486e+00,5.263e-01,5.900e-01,1.061e+00,1.556e+00,1.246e+00,1.391e+00,1.065e+00,1.369e+00,1.713e+00,9.763e-01,1.067e+00,1.604e+00,1.453e+00,1.007e+00,1.901e+00,5.608e-01,8.637e-01,1.749e+00,1.305e+00,1.060e+00,1.123e+00,1.753e+00,1.009e+00,8.409e-01,5.799e-01,9.694e-01,4.292e-01,1.412e+00,1.080e+00,1.309e+00,1.649e+00,8.201e-01,1.249e+00,1.973e+00,1.064e+00
4.185e-02,6.796e-01,1.087e+00,8.819e-01,2.121e+00,1.318e+00,1.243e+00,1.448e+00,2.367e+00,1.140e+00,1.734e+00,1.840e+00,9.751e-01,1.263e+00,1.346e+00,1.809e+00,2.063e+00,1.158e+00,2.015e+00,1.776e+00,1.036e+00,1.802e+00,1.663e+00,1.437e+00,4.671e-01,1.701e+00,1.376e+00,1.559e+00,1.997e+00,2.011e+00,1.481e+00,1.703e+00,2.093e+00,1.618e+00,1.397e+00,1.111e+00,1.937e+00,1.314e+00,1.288e+00,9.003e-01,1.705e+00,2.155e+00,1.718e+00,1.898e+00,6.030e-01,1.541e+00,1.751e+00,1.393e+00,1.637e+00,1.812e+00,1.335e+00,1.348e+00,1.183e+00,1.103e+00,1.764e+00,1.991e+00,1.083e+00,1.050e+00,1.343e+00,1.567e+00,8.110e-01,2.130e+00,1.457e+00,1.139e+00,1.566e+00,1.630e+00,1.233e+00,9.878e-01,1.891e+00,1.254e+00,1.349e+00,8.420e-01,9.910e-01,7.168e-01,1.233e+00,1.764e+00,1.684e+00,1.845e+00,1.495e+00,1.865e+00,1.688e+00,1.111e+00
8.062e-02,5.127e-01,1.022e+00,8.673e-01,1.567e+00,1.527e+00,1.769e+00,1.555e+00,2.165e+00,1.302e+00,1.149e+00,2.255e+00,2.224e+00,1.875e+00,1.308e+00,1.449e+00,2.220e+00,9.492e-01,2.200e+00,1.541e+00,1.331e+00,1.749e+00,1.879e+00,2.281e+00,9.908e-01,2.124e+00,1.374e+00,1.183e+00,2.272e+00,1.742e+00,1.093e+00,2.293e+00,2.135e+00,1.648e+00,1.521e+00,1.187e+00,1.438e+00,1.221e+00,1.110e+00,1.478e+00,2.186e+00,1.855e+00,1.289e+00,1.684e+00,8.406e-01,2.102e+00,1.490e+00,1.052e+00,1.948e+00,2.106e+00,1.599e+00,1.308e+00,1.351e+00,1.924e+00,1.593e+00,1.646e+00,1.651e+00,9.352e-01,9.108e-01,1.484e+00,7.014e-01,1.562e+00,2.056e+00,1.609e+00,1.830e+00,1.649e+00,1.227e+00,1.080e+00,1.932e+00,1.753e+00,1.460e+00,1.038e+00,1.258e+00,7.569e-01,1.481e+00,1.695e+00,1.525e+00,2.529e+00,1.302e+00,1.391e+00,1.569e+00,4.345e-01
3.495e-02,2.905e-01,4.896e-01,5.265e-01,7.570e-01,5.785e-01,1.125e+00,1.546e+00,2.002e+00,7.094e-01,9.307e-01,1.506e+00,8.151e-01,1.156e+00,1.447e+00,1.038e+00,1.314e+00,8.724e-01,1.451e+00,1.342e+00,1.571e+00,1.043e+00,8.487e-01,2.221e+00,7.299e-01,1.271e+00,1.202e+00,9.326e-01,1.567e+00,1.878e+00,1.716e+00,1.196e+00,1.152e+00,1.726e+00,1.236e+00,1.722e+00,6.886e-01,1.542e+00,1.314e+00,1.515e+00,1.346e+00,1.350e+00,1.460e+00,1.206e+00,8.658e-01,1.452e+00,1.448e+00,1.506e+00,8.991e-01,1.293e+00,1.327e+00,1.779e+00,1.289e+00,1.561e+00,1.535e+00,1.664e+00,8.178e-01,1.386e+00,1.722e+00,1.901e+00,1.426e+00,1.571e+00,1.736e+00,6.310e-01,1.527e+00,1.883e+00,7.851e-01,1.182e+00,1.743e+00,1.778e+00,1.373e+00,1.002e+00,1.282e+00,5.379e-01,1.908e+00,1.648e+00,1.137e+00,1.952e+00,6.705e-01,6.839e-01,1.227e+00,1.080e+00
4.674e-02,3.509e-01,6.223e-01,5.990e-01,1.486e+00,1.248e+00,1.072e+00,1.827e+00,2.210e+00,1.483e+00,1.911e+00,2.003e+00,1.150e+00,1.388e+00,1.506e+00,1.569e+00,1.776e+00,1.650e+00,1.766e+00,2.640e+00,1.279e+00,2.042e+00,1.955e+00,2.328e+00,9.278e-01,2.763e+00,1.200e+00,1.672e+00,1.856e+00,1.875e+00,1.419e+00,2.153e+00,2.500e+00,1.856e+00,1.151e+00,9.692e-01,1.885e+00,1.245e+00,1.778e+00,1.086e+00,1.999e+00,2.549e+00,2.249e+00,1.470e+00,1.445e+00,2.080e+00,1.466e+00,1.577e+00,1.997e+00,2.582e+00,1.108e+00,2.222e+00,1.753e+00,1.934e+00,1.599e+00,1.440e+00,1.065e+00,1.549e+00,1.451e+00,2.415e+00,7.263e-01,2.207e+00,2.146e+00,1.368e+00,2.014e+00,1.488e+00,1.659e+00,1.755e+00,2.002e+00,2.417e+00,2.115e+00,1.617e+00,1.312e+00,1.617e+00,1.959e+00,2.365e+00,1.438e+00,2.339e+00,1.224e+00,2.036e+00,1.263e+00,1.090e+00
8.276e-02,7.893e-01,1.359e+00,1.087e+00,1.699e+00,1.191e+00,1.353e+00,2.090e+00,3.566e+00,1.784e+00,1.971e+00,3.182e+00,2.064e+00,1.966e+00,1.770e+00,1.591e+00,2.386e+00,2.046e+00,1.968e+00,2.233e+00,1.893e+00,2.574e+00,2.782e+00,3.096e+00,1.587e+00,3.090e+00,1.321e+00,1.421e+00,2.428e+00,2.616e+00,2.729e+00,2.980e+00,2.459e+00,2.684e+00,1.701e+00,2.014e+00,2.495e+00,2.295e+00,2.094e+00,2.330e+00,2.862e+00,2.802e+00,2.317e+00,2.590e+00,2.003e+00,2.542e+00,2.741e+00,1.814e+00,2.532e+00,3.118e+00,2.046e+00,2.603e+00,2.326e+00,2.855e+00,2.891e+00,2.548e+00,1.534e+00,2.625e+00,2.902e+00,2.894e+00,1.864e+00,3.366e+00,2.986e+00,1.317e+00,2.701e+00,2.599e+00,2.362e+00,2.395e+00,2.215e+00,2.592e+00,2.355e+00,1.916e+00,2.337e+00,1.400e+00,2.463e+00,2.802e+00,1.622e+00,2.964e+00,2.110e+00,2.906e+00,1.985e+00,1.747e+00
3.302e-02,5.419e-01,1.141e+00,7.287e-01,1.805e+00,1.418e+00,2.382e+00,3.043e+00,3.827e+00,3.013e+00,2.398e+00,3.287e+00,3.045e+00,3.088e+00,3.352e+00,2.385e+00,3.334e+00,2.674e+00,3.458e+00,3.486e+00,2.541e+00,3.498e+00,3.313e+00,4.237e+00,2.558e+00,3.052e+00,2.550e+00,2.819e+00,3.833e+00,4.185e+00,4.201e+00,3.512e+00,3.892e+00,3.526e+00,3.486e+00,3.558e+00,2.088e+00,2.556e+00,3.189e+00,2.993e+00,3.177e+00,3.162e+00,3.985e+00,2.716e+00,2.221e+00,3.585e+00,3.477e+00,1.922e+00,3.034e+00,3.631e+00,3.331e+00,3.451e+00,2.771e+00,3.552e+00,3.265e+00,3.243e+00,2.560e+00,2.865e+00,3.619e+00,3.330e+00,2.628e+00,3.888e+00,3.782e+00,2.775e+00,4.124e+00,3.431e+00,2.933e+00,3.411e+00,3.886e+00,3.012e+00,3.329e+00,3.109e+00,2.570e+00,2.152e+00,3.139e+00,3.699e+00,2.551e+00,4.001e+00,2.244e+00,3.035e+00,2.886e+00,2.669e+00
1.505e-02,1.857e-01,4.384e-01,2.551e-01,8.076e-01,7.288e-01,1.143e+00,1.868e+00,2.105e+00,1.538e+00,1.662e+00,2.311e+00,2.160e+00,2.130e+00,1.856e+00,1.761e+00,2.110e+00,1.796e+00,1.859e+00,2.724e+00,1.835e+00,2.694e+00,2.194e+00,3.452e+00,1.695e+00,2.845e+00,1.178e+00,2.232e+00,2.504e+00,2.943e+00,2.812e+00,2.661e+00,2.764e+00,2.589e+00,1.587e+00,1.726e+00,2.069e+00,2.085e+00,2.310e+00,2.015e+00,2.523e+00,2.258e+00,3.015e+00,1.758e+00,1.984e+00,2.168e+00,1.633e+00,1.583e+00,2.086e+00,2.668e+00,2.025e+00,2.959e+00,2.473e+00,2.481e+00,2.422e+00,1.785e+00,2.006e+00,2.654e+00,2.099e+00,2.303e+00,2.184e+00,2.520e+00,2.500e+00,1.727e+00,2.776e+00,2.013e+00,2.588e+00,2.614e+00,2.319e+00,2.194e+00,2.228e+00,2.834e+00,1.588e+00,1.823e+00,2.003e+00,2.600e+00,1.421e+00,2.816e+00,1.655e+00,2.682e+00,2.005e+00,1.683e+00
4.294e-02,5.284e-01,1.093e+00,8.186e-01,1.695e+00,1.356e+00,2.167e+00,2.579e+00,3.497e+00,2.399e+00,2.338e+00,4.038e+00,4.160e+00,3.834e+00,3.852e+00,3.260e+00,3.767e+00,2.399e+00,4.179e+00,3.657e+00,3.160e+00,4.058e+00,3.926e+00,4.513e+00,3.241e+00,3.426e+00,3.208e+00,3.262e+00,4.038e+00,4.679e+00,4.659e+00,3.769e+00,3.992e+00,4.096e+00,3.412e+00,3.843e+00,3.157e+00,3.856e+00,3.747e+00,3.971e+00,4.171e+00,3.247e+00,4.123e+00,3.209e+00,2.675e+00,3.397e+00,3.890e+00,2.572e+00,3.119e+00,4.288e+00,3.950e+00,3.565e+00,3.311e+00,3.312e+00,3.939e+00,3.313e+00,3.000e+00,3.537e+00,4.183e+00,3.645e+00,3.743e+00,4.873e+00,3.450e+00,3.399e+00,4.419e+00,3.882e+00,3.075e+00,3.858e+00,4.138e+00,3.055e+00,3.037e+00,3.250e+00,2.831e+00,1.860e+00,2.890e+00,3.654e+00,2.759e+00,4.922e+00,2.971e+00,4.041e+00,4.211e+00,3.058e+00
3.227e-02,2.578e-01,5.393e-01,5.403e-01,1.037e+00,9.024e-01,1.387e+00,1.885e+00,2.583e+00,1.387e+00,1.704e+00,2.162e+00,2.821e+00,2.135e+00,2.107e+00,2.487e+00,3.256e+00,1.387e+00,3.004e+00,2.875e+00,2.854e+00,2.629e+00,2.342e+00,4.319e+00,1.927e+00,3.420e+00,1.829e+00,2.578e+00,3.471e+00,4.172e+00,3.623e+00,3.085e+00,2.464e+00,3.561e+00,2.110e+00,2.625e+00,2.344e+00,3.751e+00,2.737e+00,2.563e+00,3.162e+00,2.511e+00,3.079e+00,2.302e+00,1.728e+00,2.666e+00,2.661e+00,2.445e+00,2.314e+00,3.178e+00,3.172e+00,3.205e+00,3.266e+00,2.866e+00,3.199e+00,2.442e+00,2.479e+00,2.881e+00,3.007e+00,3.499e+00,3.416e+00,3.211e+00,3.118e+00,1.939e+00,2.883e+00,2.333e+00,2.373e+00,3.085e+00,3.250e+00,3.004e+00,2.841e+00,2.895e+00,2.711e+00,1.891e+00,2.354e+00,2.988e+00,2.238e+00,3.542e+00,2.206e+00,3.230e+00,3.505e+00,2.273e+00
8.764e-02,9.248e-01,1.702e+00,1.385e+00,2.506e+00,1.870e+00,2.381e+00,2.817e+00,4.215e+00,2.249e+00,2.801e+00,3.927e+00,3.790e+00,4.349e+00,3.457e+00,3.443e+00,5.044e+00,3.550e+00,4.273e+00,3.782e+00,3.035e+00,4.559e+00,4.448e+00,5.445e+00,2.809e+00,4.718e+00,3.207e+00,2.831e+00,5.304e+00,4.162e+00,4.619e+00,4.811e+00,4.448e+00,3.819e+00,3.949e+00,3.120e+00,3.944e+00,4.856e+00,3.631e+00,3.545e+00,4.448e+00,4.642e+00,3.849e+00,4.228e+00,2.555e+00,3.783e+00,4.934e+00,2.309e+00,4.412e+00,5.031e+00,4.032e+00,4.220e+00,4.133e+00,4.425e+00,4.254e+00,3.728e+00,2.894e+00,3.873e+00,4.400e+00,4.940e+00,3.856e+00,5.819e+00,4.169e+00,3.447e+00,4.514e+00,3.557e+00,3.624e+00,3.784e+00,4.990e+00,4.685e+00,3.687e+00,3.437e+00,3.869e+00,2.849e+00,3.586e+00,4.176e+00,3.635e+00,5.028e+00,4.207e+00,4.972e+00,5.229e+00,3.251e+00
1.397e-03,1.510e-01,2.487e-01,1.570e-01,3.661e-01,2.151e-01,9.246e-01,1.385e+00,2.097e+00,1.645e+00,1.903e+00,3.527e+00,3.821e+00,3.540e+00,4.221e+00,3.312e+00,3.547e+00,2.810e+00,3.340e+00,3.453e+00,2.976e+00,5.001e+00,4.671e+00,5.043e+00,3.760e+00,3.719e+00,3.334e+00,2.972e+00,4.057e+00,4.164e+00,4.629e+00,4.449e+00,4.672e+00,3.883e+00,3.271e+00,2.996e+00,3.835e+00,5.385e+00,4.751e+00,3.957e+00,4.478e+00,4.095e+00,3.714e+00,3.475e+00,3.277e+00,3.585e+00,4.075e+00,2.790e+00,4.326e+00,5.031e+00,4.029e+00,4.417e+00,3.809e+00,4.314e+00,4.474e+00,3.083e+00,2.674e+00,5.165e+00,4.969e+00,4.568e+00,4.609e+00,5.197e+00,4.495e+00,3.570e+00,3.904e+00,4.067e+00,4.327e+00,4.026e+00,4.676e+00,4.136e+00,4.150e+00,4.074e+00,3.197e+00,3.229e+00,2.820e+00,3.657e+00,2.694e+00,4.190e+00,3.776e+00,5.412e+00,3.992e+00,3.859e+00
2.095e-02,4.694e-01,8.248e-01,5.923e-01,1.384e+00,8.978e-01,1.630e+00,1.804e+00,2.986e+00,1.878e+00,2.220e+00,3.463e+00,3.659e+00,3.384e+00,3.723e+00,4.387e+00,4.955e+00,2.763e+00,4.625e+00,3.258e+00,3.913e+00,5.103e+00,4.989e+00,5.755e+00,3.806e+00,3.986e+00,3.943e+00,4.042e+00,4.941e+00,5.065e+00,5.004e+00,5.468e+00,4.996e+00,4.734e+00,4.044e+00,3.841e+00,4.789e+00,5.190e+00,4.528e+00,4.584e+00,5.317e+00,4.284e+00,3.969e+00,4.127e+00,3.225e+00,4.400e+00,4.334e+00,3.556e+00,5.043e+00,4.903e+00,4.911e+00,4.167e+00,4.671e+00,4.854e+00,5.573e+00,4.044e+00,3.428e+00,4.904e+00,5.474e+00,4.532e+00,4.164e+00,4.757e+00,4.330e+00,4.013e+00,4.321e+00,4.297e+00,4.813e+00,4.162e+00,4.659e+00,4.002e+00,4.690e+00,3.775e+00,3.541e+00,2.958e+00,2.705e+00,4.128e+00,3.294e+00,4.238e+00,4.565e+00,5.400e+00,4.430e+00,3.546e+00
8.502e-02,7.525e-01,1.336e+00,1.068e+00,1.983e+00,1.521e+00,1.263e+00,1.729e+00,2.446e+00,1.460e+00,1.837e+00,2.705e+00,2.576e+00,2.437e+00,2.022e+00,2.846e+00,4.522e+00,2.908e+00,3.575e+00,3.621e+00,2.803e+00,4.177e+00,3.716e+00,5.205e+00,3.141e+00,3.945e+00,2.993e+00,3.210e+00,3.774e+00,4.255e+00,3.185e+00,4.858e+00,4.673e+00,3.464e+00,2.734e+00,2.432e+00,4.347e+00,3.685e+00,2.945e+00,2.993e+00,4.504e+00,4.669e+00,3.292e+00,3.521e+00,2.946e+00,3.065e+00,3.097e+00,3.143e+00,4.242e+00,4.163e+00,3.194e+00,3.179e+00,3.337e+00,3.780e+00,3.855e+00,3.606e+00,3.118e+00,3.491e+00,3.392e+00,3.967e+00,2.761e+00,3.805e+00,3.248e+00,3.464e+00,3.525e+00,2.463e+00,3.352e+00,3.782e+00,3.892e+00,3.681e+00,3.912e+00,3.398e+00,3.321e+00,3.087e+00,3.114e+00,3.511e+00,2.840e+00,3.170e+00,3.432e+00,4.536e+00,3.081e+00,2.136e+00
1.312e-02,4.918e-01,9.700e-01,5.329e-01,1.984e+00,1.384e+00,1.558e+00,2.323e+00,3.592e+00,2.363e+00,2.244e+00,3.025e+00,2.180e+00,2.163e+00,2.740e+00,3.204e+00,3.752e+00,3.565e+00,3.976e+00,3.803e+00,3.505e+00,4.729e+00,4.835e+00,5.020e+00,4.110e+00,4.630e+00,3.608e+00,3.945e+00,4.354e+00,5.307e+00,4.598e+00,5.640e+00,4.718e+00,4.447e+00,3.084e+00,3.453e+00,4.292e+00,4.204e+00,3.784e+00,3.799e+00,4.374e+00,4.681e+00,4.825e+00,4.149e+00,2.683e+00,3.483e+00,4.422e+00,3.956e+00,3.872e+00,4.186e+00,3.849e+00,4.187e+00,3.335e+00,5.044e+00,4.540e+00,4.272e+00,2.773e+00,3.876e+00,4.605e+00,4.244e+00,3.525e+00,4.501e+00,4.300e+00,3.580e+00,3.443e+00,3.062e+00,4.172e+00,3.882e+00,4.694e+00,3.753e+00,4.008e+00,3.480e+00,4.059e+00,2.575e+00,2.971e+00,4.859e+00,3.473e+00,3.626e+00,3.937e+00,4.899e+00,4.201e+00,3.358e+00
6.858e-02,7.435e-01,1.164e+00,1.027e+00,1.741e+00,1.080e+00,1.160e+00,1.792e+00,2.761e+00,1.676e+00,2.284e+00,2.948e+00,2.868e+00,2.619e+00,2.997e+00,3.420e+00,4.754e+00,2.866e+00,4.684e+00,4.454e+00,3.844e+00,5.165e+00,5.297e+00,7.137e+00,4.176e+00,4.425e+00,4.385e+00,4.313e+00,5.750e+00,5.477e+00,4.906e+00,6.576e+00,6.022e+00,5.432e+00,3.544e+00,3.579e+00,5.431e+00,4.916e+00,4.102e+00,4.048e+00,5.447e+00,5.101e+00,5.135e+00,4.464e+00,4.416e+00,4.725e+00,4.433e+00,4.935e+00,5.204e+00,4.682e+00,5.025e+00,4.171e+00,4.298e+00,4.688e+00,5.131e+00,5.583e+00,4.303e+00,5.063e+00,5.506e+00,5.523e+00,4.681e+00,5.191e+00,5.188e+00,4.302e+00,4.600e+00,4.501e+00,4.811e+00,5.022e+00,5.465e+00,4.869e+00,4.826e+00,5.008e+00,4.172e+00,3.770e+00,4.154e+00,5.214e+00,3.757e+00,3.779e+00,4.158e+00,6.176e+00,3.923e+00,4.441e+00
2.483e-03,1.336e-01,3.880e-01,2.569e-01,1.361e+00,1.202e+00,1.522e+00,2.062e+00,2.770e+00,2.286e+00,2.378e+00,3.126e+00,3.521e+00,3.191e+00,3.926e+00,4.292e+00,4.598e+00,3.244e+00,4.777e+00,4.682e+00,4.556e+00,6.076e+00,6.123e+00,6.474e+00,4.832e+00,4.957e+00,5.139e+00,4.697e+00,5.848e+00,5.524e+00,5.322e+00,6.703e+00,5.795e+00,5.843e+00,4.346e+00,3.739e+00,5.468e+00,6.223e+00,5.921e+00,4.491e+00,5.801e+00,5.235e+00,5.651e+00,4.795e+00,3.650e+00,5.592e+00,5.136e+00,5.142e+00,5.483e+00,5.758e+00,5.727e+00,5.312e+00,5.464e+00,5.331e+00,5.503e+00,4.206e+00,4.586e+00,5.136e+00,5.529e+00,6.606e+00,4.773e+00,5.453e+00,5.368e+00,4.859e+00,5.182e+00,4.855e+00,4.990e+00,5.672e+00,6.046e+00,6.163e+00,5.399e+00,5.386e+00,5.289e+00,3.686e+00,3.482e+00,5.349e+00,4.274e+00,5.604e+00,4.857e+00,6.733e+00,5.925e+00,5.014e+00
2.143e-02,4.591e-01,1.004e+00,5.609e-01,2.072e+00,1.670e+00,2.074e+00,2.605e+00,3.251e+00,2.865e+00,2.607e+00,4.123e+00,4.518e+00,3.609e+00,4.203e+00,4.056e+00,5.158e+00,3.702e+00,5.189e+00,5.438e+00,4.523e+00,7.247e+00,7.986e+00,7.190e+00,6.506e+00,5.364e+00,6.009e+00,5.060e+00,7.120e+00,7.021e+00,5.583e+00,7.664e+00,7.947e+00,6.584e+00,5.342e+00,4.559e+00,5.616e+00,6.599e+00,6.384e+00,4.979e+00,6.322e+00,6.365e+00,6.401e+00,5.801e+00,4.563e+00,5.878e+00,5.328e+00,5.672e+00,6.317e+00,7.214e+00,6.965e+00,6.125e+00,4.666e+00,6.034e+00,5.558e+00,5.709e+00,5.944e+00,5.666e+00,5.570e+00,7.092e+00,4.875e+00,6.617e+00,6.600e+00,5.403e+00,6.165e+00,6.155e+00,5.708e+00,6.309e+00,7.707e+00,5.711e+00,5.928e+00,6.096e+00,5.746e+00,4.263e+00,4.296e+00,5.860e+00,5.554e+00,6.487e+00,4.554e+00,8.399e+00,6.756e+00,5.367e+00
6.239e-02,4.185e-01,7.974e-01,8.559e-01,1.623e+00,1.431e+00,1.586e+00,2.215e+00,2.699e+00,2.356e+00,2.536e+00,3.119e+00,3.289e+00,3.400e+00,4.048e+00,3.787e+00,4.830e+00,3.615e+00,5.763e+00,5.282e+00,4.421e+00,6.983e+00,5.790e+00,7.406e+00,5.898e+00,5.299e+00,6.506e+00,5.038e+00,5.845e+00,6.820e+00,5.655e+00,7.288e+00,6.817e+00,5.705e+00,5.063e+00,4.777e+00,5.662e+00,5.641e+00,5.677e+00,4.735e+00,6.083e+00,5.773e+00,7.168e+00,4.832e+00,4.586e+00,5.789e+00,5.814e+00,5.761e+00,6.711e+00,6.390e+00,6.310e+00,5.999e+00,5.843e+00,6.152e+00,5.772e+00,5.771e+00,4.509e+00,5.244e+00,6.114e+00,7.318e+00,4.159e+00,6.474e+00,5.721e+00,6.100e+00,5.711e+00,5.135e+00,4.993e+00,6.910e+00,6.780e+00,6.745e+00,6.234e+00,6.440e+00,6.087e+00,4.427e+00,4.899e+00,5.889e+00,5.439e+00,6.274e+00,4.503e+00,6.642e+00,5.713e+00,4.880e+00
8.811e-03,8.936e-02,2.156e-01,1.677e-01,3.594e-01,3.456e-01,8.040e-01,1.391e+00,1.574e+00,1.414e+00,1.435e+00,2.154e+00,2.719e+00,2.408e+00,2.837e+00,2.274e+00,3.101e+00,2.474e+00,3.296e+00,3.618e+00,3.080e+00,4.397e+00,5.288e+00,6.595e+00,4.543e+00,4.334e+00,4.426e+00,3.918e+00,5.126e+00,4.561e+00,5.086e+00,5.899e+00,5.353e+00,5.010e+00,3.681e+00,3.571e+00,4.058e+00,5.508e+00,4.834e+00,4.331e+00,4.329e+00,3.926e+00,4.619e+00,3.386e+00,3.998e+00,4.631e+00,4.549e+00,4.106e+00,4.457e+00,4.856e+00,4.799e+00,4.789e+00,3.837e+00,4.627e+00,3.979e+00,4.636e+00,3.735e+00,4.321e+00,4.389e+00,4.942e+00,4.405e+00,5.208e+00,5.005e+00,3.669e+00,3.984e+00,4.320e+00,4.477e+00,4.483e+00,5.243e+00,4.842e+00,4.205e+00,5.165e+00,3.864e+00,4.017e+00,4.141e+00,5.132e+00,4.083e+00,3.802e+00,3.953e+00,5.813e+00,4.585e+00,4.561e+00
7.191e-04,4.223e-01,6.816e-01,4.593e-01,1.505e+00,8.660e-01,1.532e+00,1.826e+00,2.609e+00,2.108e+00,2.290e+00,2.651e+00,3.249e+00,2.902e+00,3.848e+00,3.611e+00,4.743e+00,2.940e+00,4.440e+00,4.418e+00,3.689e+00,6.685e+00,6.164e+00,7.804e+00,5.645e+00,4.483e+00,5.789e+00,5.063e+00,7.066e+00,6.783e+00,5.943e+00,7.433e+00,6.961e+00,6.791e+00,5.774e+00,4.672e+00,5.249e+00,7.768e+00,6.631e+00,5.070e+00,6.169e+00,6.251e+00,6.368e+00,5.757e+00,4.854e+00,6.035e+00,6.280e+00,5.208e+00,7.027e+00,6.756e+00,6.513e+00,6.774e+00,5.487e+00,6.313e+00,6.091e+00,6.450e+00,5.567e+00,6.248e+00,5.595e+00,7.502e+00,5.393e+00,6.619e+00,6.542e+00,5.002e+00,5.202e+00,6.718e+00,6.030e+00,6.150e+00,7.392e+00,6.493e+00,6.043e+00,6.803e+00,5.909e+00,5.076e+00,4.934e+00,6.369e+00,6.345e+00,6.074e+00,4.862e+00,7.830e+00,6.722e+00,5.608e+00
4.834e-02,4.576e-01,1.001e+00,6.495e-01,1.983e+00,1.790e+00,2.130e+00,2.817e+00,3.493e+00,2.986e+00,2.422e+00,3.540e+00,3.528e+00,2.976e+00,3.587e+00,3.250e+00,4.217e+00,3.225e+00,4.478e+00,4.495e+00,3.815e+00,5.441e+00,5.454e+00,6.191e+00,4.419e+00,5.900e+00,5.349e+00,4.630e+00,5.854e+00,6.298e+00,5.373e+00,7.252e+00,6.814e+00,5.701e+00,4.364e+00,3.607e+00,4.090e+00,5.248e+00,5.372e+00,4.238e+00,5.624e+00,5.537e+00,5.749e+00,4.784e+00,3.824e+00,5.742e+00,4.873e+00,4.764e+00,5.691e+00,6.185e+00,5.400e+00,5.583e+00,5.151e+00,6.433e+00,5.621e+00,4.826e+00,4.340e+00,4.712e+00,5.552e+00,5.875e+00,4.190e+00,5.509e+00,6.263e+00,5.170e+00,5.085e+00,4.807e+00,4.841e+00,5.206e+00,6.593e+00,5.483e+00,5.479e+00,5.610e+00,4.884e+00,4.744e+00,4.802e+00,6.387e+00,4.606e+00,5.775e+00,4.635e+00,6.612e+00,5.607e+00,3.978e+00
3.068e-02,5.255e-01,8.599e-01,7.301e-01,1.728e+00,1.160e+00,1.878e+00,2.299e+00,3.199e+00,2.319e+00,2.757e+00,3.987e+00,3.750e+00,3.917e+00,4.833e+00,4.153e+00,4.512e+00,3.296e+00,5.432e+00,4.726e+00,4.206e+00,6.628e+00,6.757e+00,7.573e+00,5.798e+00,5.815e+00,7.210e+00,5.999e+00,8.329e+00,7.247e+00,7.042e+00,8.621e+00,8.518e+00,7.575e+00,5.638e+00,5.537e+00,6.168e+00,7.539e+00,6.693e+00,6.152e+00,7.120e+00,7.056e+00,7.282e+00,6.513e+00,5.870e+00,7.027e+00,7.314e+00,6.050e+00,7.763e+00,7.724e+00,7.259e+00,7.371e+00,6.140e+00,7.167e+00,7.719e+00,6.776e+00,6.034e+00,7.705e+00,7.966e+00,8.134e+00,6.830e+00,7.746e+00,6.991e+00,6.498e+00,6.574e+00,7.435e+00,6.318e+00,6.573e+00,8.265e+00,7.130e+00,5.707e+00,6.768e+00,5.779e+00,5.332e+00,5.749e+00,7.920e+00,6.150e+00,7.451e+00,5.702e+00,8.251e+00,8.035e+00,6.055e+00
2.941e-02,6.237e-01,1.026e+00,6.882e-01,1.911e+00,1.181e+00,1.351e+00,2.077e+00,2.884e+00,2.158e+00,2.466e+00,3.542e+00,3.366e+00,2.681e+00,3.456e+00,3.421e+00,4.348e+00,2.889e+00,4.077e+00,4.457e+00,3.459e+00,5.210e+00,6.499e+00,7.048e+00,4.850e+00,5.280e+00,5.962e+00,6.018e+00,7.633e+00,7.096e+00,6.348e+00,7.367e+00,8.696e+00,7.359e+00,5.296e+00,5.263e+00,6.177e+00,7.206e+00,7.137e+00,5.664e+00,6.075e+00,7.225e+00,6.274e+00,5.774e+00,5.698e+00,6.779e+00,7.020e+00,6.429e+00,7.868e+00,7.674e+00,7.042e+00,6.724e+00,5.140e+00,5.928e+00,6.967e+00,6.874e+00,6.248e+00,6.656e+00,5.834e+00,7.373e+00,6.167e+00,7.254e+00,6.514e+00,5.238e+00,6.890e+00,7.654e+00,6.541e+00,6.758e+00,7.197e+00,6.750e+00,6.457e+00,7.045e+00,5.829e+00,5.772e+00,6.078e+00,7.378e+00,5.393e+00,6.281e+00,5.803e+00,8.603e+00,6.731e+00,6.374e+00
3.459e-02,5.430e-01,9.082e-01,6.356e-01,1.143e+00,6.465e-01,9.739e-01,1.368e+00,1.956e+00,1.430e+00,1.739e+00,2.745e+00,3.235e+00,2.886e+00,2.814e+00,2.741e+00,4.289e+00,2.922e+00,3.806e+00,4.002e+00,3.395e+00,6.099e+00,6.348e+00,7.869e+00,5.691e+00,4.799e+00,6.236e+00,5.886e+00,8.423e+00,8.327e+00,7.039e+00,8.049e+00,8.690e+00,7.496e+00,6.580e+00,5.567e+00,6.757e+00,7.970e+00,6.835e+00,5.745e+00,6.189e+00,7.016e+00,7.292e+00,6.455e+00,6.762e+00,7.185e+00,8.003e+00,6.976e+00,9.216e+00,8.054e+00,8.235e+00,7.833e+00,5.879e+00,6.669e+00,8.071e+00,7.931e+00,7.936e+00,7.968e+00,6.517e+00,8.961e+00,7.535e+00,7.366e+00,7.061e+00,6.601e+00,8.071e+00,8.044e+00,7.620e+00,7.886e+00,8.048e+00,8.264e+00,6.747e+00,8.858e+00,6.990e+00,6.582e+00,6.279e+00,7.413e+00,6.268e+00,6.697e+00,6.038e+00,9.299e+00,7.526e+00,7.381e+00
8.774e-02,7.201e-01,1.413e+00,1.087e+00,2.336e+00,2.037e+00,2.343e+00,2.883e+00,3.827e+00,2.606e+00,2.318e+00,4.542e+00,4.500e+00,3.751e+00,4.406e+00,4.024e+00,5.351e+00,3.399e+00,5.189e+00,5.030e+00,4.723e+00,6.138e+00,7.252e+00,8.561e+00,5.812e+00,5.811e+00,6.854e+00,5.904e+00,8.925e+00,8.678e+00,6.850e+00,9.324e+00,8.719e+00,8.355e+00,7.326e+00,5.659e+00,6.050e+00,8.160e+00,8.140e+00,6.847e+00,7.572e+00,8.105e+00,6.220e+00,7.330e+00,6.324e+00,7.681e+00,8.132e+00,7.861e+00,8.652e+00,9.372e+00,7.622e+00,7.569e+00,6.284e+00,7.423e+00,7.659e+00,8.198e+00,7.482e+00,6.337e+00,6.955e+00,8.847e+00,7.367e+00,7.907e+00,8.112e+00,7.250e+00,8.171e+00,8.822e+00,6.512e+00,7.620e+00,8.985e+00,8.566e+00,7.707e+00,7.335e+00,6.826e+00,6.711e+00,7.467e+00,8.074e+00,6.565e+00,7.738e+00,6.102e+00,9.349e+00,7.819e+00,7.210e+00
9.016e-02,6.830e-01,1.280e+00,1.207e+00,1.810e+00,1.531e+00,2.062e+00,2.273e+00,3.461e+00,1.715e+00,2.066e+00,3.204e+00,3.519e+00,3.442e+00,3.365e+00,3.426e+00,5.086e+00,2.842e+00,4.204e+00,3.912e+00,4.161e+00,6.293e+00,5.327e+00,7.563e+00,5.218e+00,5.086e+00,5.922e+00,4.228e+00,7.537e+00,8.640e+00,6.564e+00,8.302e+00,7.087e+00,6.905e+00,7.512e+00,5.747e+00,6.091e+00,8.639e+00,6.513e+00,6.358e+00,7.811e+00,7.213e+00,6.633e+00,7.420e+00,5.269e+00,6.321e+00,7.193e+00,7.389e+00,8.884e+00,8.491e+00,7.491e+00,8.224e+00,6.585e+00,8.074e+00,8.315e+00,8.223e+00,6.742e+00,7.871e+00,7.160e+00,8.858e+00,7.439e+00,7.629e+00,8.076e+00,6.709e+00,7.574e+00,7.668e+00,6.375e+00,7.791e+00,8.783e+00,8.317e+00,7.497e+00,7.440e+00,7.805e+00,6.206e+00,7.141e+00,6.920e+00,6.516e+00,7.224e+00,5.504e+00,8.136e+00,7.809e+00,6.687e+00
7.287e-02,8.622e-01,1.578e+00,1.106e+00,2.096e+00,1.509e+00,2.000e+00,2.173e+00,3.361e+00,2.574e+00,2.305e+00,3.737e+00,4.618e+00,3.478e+00,3.355e+00,3.588e+00,5.531e+00,2.897e+00,5.273e+00,4.157e+00,3.882e+00,5.394e+00,6.415e+00,7.851e+00,5.171e+00,5.669e+00,6.096e+00,6.171e+00,9.398e+00,9.165e+00,8.127e+00,9.767e+00,9.189e+00,9.596e+00,7.630e+00,6.629e+00,7.658e+00,8.721e+00,7.391e+00,6.962e+00,8.557e+00,7.979e+00,7.021e+00,8.335e+00,7.657e+00,8.272e+00,9.128e+00,7.878e+00,1.067e+01,1.005e+01,8.860e+00,8.049e+00,6.916e+00,8.130e+00,9.823e+00,9.082e+00,8.238e+00,8.254e+00,8.362e+00,9.559e+00,9.339e+00,8.865e+00,8.968e+00,8.653e+00,9.408e+00,8.256e+00,7.885e+00,8.686e+00,9.107e+00,8.101e+00,8.473e+00,8.902e+00,7.844e+00,7.458e+00,7.677e+00,9.652e+00,6.821e+00,7.056e+00,7.310e+00,1.048e+01,9.137e+00,8.182e+00
3.817e-02,4.495e-01,7.096e-01,6.679e-01,1.442e+00,1.011e+00,1.406e+00,1.833e+00,2.887e+00,2.081e+00,2.355e+00,3.493e+00,3.493e+00,3.068e+00,4.040e+00,3.518e+00,4.104e+00,3.062e+00,5.134e+00,4.449e+00,4.005e+00,6.403e+00,6.772e+00,7.469e+00,5.988e+00,5.352e+00,6.339e+00,5.015e+00,8.584e+00,8.356e+00,6.824e+00,9.537e+00,8.411e+00,8.729e+00,7.424e+00,6.567e+00,7.001e+00,8.879e+00,7.844e+00,7.197e+00,8.503e+00,7.258e+00,7.990e+00,8.911e+00,7.786e+00,7.500e+00,8.925e+00,8.396e+00,9.649e+00,9.611e+00,8.461e+00,8.347e+00,7.062e+00,8.453e+00,8.212e+00,8.753e+00,7.516e+00,7.575e+00,8.776e+00,1.038e+01,8.242e+00,9.509e+00,9.172e+00,7.762e+00,7.934e+00,8.871e+00,7.402e+00,8.222e+00,9.704e+00,8.092e+00,8.843e+00,8.914e+00,7.884e+00,7.275e+00,7.670e+00,9.280e+00,7.729e+00,7.477e+00,6.854e+00,1.042e+01,8.840e+00,9.217e+00
4.057e-02,6.584e-01,1.160e+00,7.757e-01,1.852e+00,1.204e+00,1.256e+00,1.774e+00,3.050e+00,1.791e+00,2.099e+00,3.066e+00,2.624e+00,2.816e+00,3.063e+00,3.658e+00,4.814e+00,3.774e+00,3.974e+00,3.879e+00,4.027e+00,6.900e+00,6.464e+00,7.242e+00,5.652e+00,5.604e+00,6.386e+00,5.450e+00,7.466e+00,8.046e+00,7.119e+00,9.369e+00,9.111e+00,8.083e+00,7.543e+00,5.941e+00,8.029e+00,9.051e+00,7.402e+00,7.303e+00,8.451e+00,8.745e+00,8.370e+00,8.745e+00,7.193e+00,7.126e+00,9.201e+00,8.286e+00,1.040e+01,9.502e+00,8.427e+00,9.103e+00,7.450e+00,1.015e+01,1.032e+01,8.833e+00,8.249e+00,8.512e+00,9.130e+00,1.055e+01,8.014e+00,8.339e+00,8.838e+00,8.114e+00,7.734e+00,8.135e+00,8.685e+00,8.050e+00,9.895e+00,9.248e+00,8.227e+00,9.524e+00,8.434e+00,7.413e+00,7.142e+00,9.747e+00,7.731e+00,7.067e+00,7.798e+00,1.052e+01,9.078e+00,8.263e+00
4.940e-02,6.909e-01,1.120e+00,9.534e-01,1.632e+00,9.898e-01,1.774e+00,1.896e+00,2.845e+00,1.147e+00,1.696e+00,2.546e+00,2.074e+00,2.748e+00,2.756e+00,2.571e+00,4.027e+00,2.942e+00,3.813e+00,3.074e+00,3.257e+00,5.507e+00,5.381e+00,7.184e+00,5.237e+00,4.319e+00,5.845e+00,4.548e+00,8.175e+00,7.993e+00,6.285e+00,8.081e+00,7.165e+00,7.098e+00,8.000e+00,6.507e+00,5.731e+00,8.710e+00,6.697e+00,6.609e+00,6.547e+00,7.617e+00,7.329e+00,8.124e+00,6.688e+00,6.783e+00,9.215e+00,7.228e+00,8.557e+00,8.179e+00,7.348e+00,8.747e+00,5.822e+00,7.771e+00,7.893e+00,8.742e+00,8.154e+00,6.963e+00,7.019e+00,9.631e+00,7.815e+00,7.878e+00,7.884e+00,6.899e+00,7.497e+00,7.904e+00,6.897e+00,6.935e+00,8.949e+00,8.235e+00,6.765e+00,7.370e+00,6.423e+00,6.918e+00,6.985e+00,7.430e+00,7.989e+00,6.447e+00,5.658e+00,8.233e+00,7.855e+00,6.873e+00
1.145e-02,2.555e-01,5.774e-01,3.530e-01,9.358e-01,7.614e-01,1.559e+00,2.362e+00,2.679e+00,1.940e+00,1.858e+00,2.808e+00,2.582e+00,3.312e+00,3.587e+00,3.250e+00,4.263e+00,3.777e+00,4.216e+00,4.138e+00,4.302e+00,6.190e+00,7.093e+00,8.884e+00,5.947e+00,5.030e+00,6.721e+00,5.531e+00,8.387e+00,6.979e+00,7.276e+00,9.503e+00,8.661e+00,8.545e+00,8.923e+00,7.479e+00,7.353e+00,8.482e+00,8.765e+00,8.148e+00,7.878e+00,8.262e+00,8.204e+00,8.342e+00,8.754e+00,8.566e+00,9.886e+00,9.094e+00,9.735e+00,9.935e+00,8.362e+00,9.760e+00,7.659e+00,1.017e+01,8.775e+00,9.055e+00,9.409e+00,7.222e+00,9.571e+00,1.109e+01,7.864e+00,9.319e+00,9.386e+00,8.375e+00,9.457e+00,9.418e+00,7.968e+00,8.630e+00,1.039e+01,1.049e+01,8.678e+00,9.836e+00,8.265e+00,7.719e+00,7.900e+00,1.001e+01,8.277e+00,8.031e+00,7.276e+00,1.009e+01,8.786e+00,9.262e+00
1.121e-02,1.818e-01,3.866e-01,3.443e-01,9.477e-01,7.702e-01,1.285e+00,1.709e+00,2.228e+00,1.726e+00,1.885e+00,2.222e+00,2.749e+00,2.686e+00,3.033e+00,3.159e+00,3.804e+00,2.691e+00,4.539e+00,4.009e+00,3.787e+00,5.529e+00,4.753e+00,6.902e+00,4.819e+00,5.650e+00,6.009e+00,5.895e+00,7.401e+00,8.896e+00,7.635e+00,8.282e+00,8.545e+00,7.705e+00,8.045e+00,7.553e+00,7.573e+00,8.682e+00,8.086e+00,7.492e+00,7.566e+00,8.122e+00,1.009e+01,7.760e+00,7.577e+00,8.637e+00,9.226e+00,9.190e+00,1.001e+01,9.318e+00,8.555e+00,1.032e+01,7.292e+00,9.858e+00,1.027e+01,9.053e+00,9.386e+00,8.500e+00,1.001e+01,9.873e+00,1.025e+01,8.598e+00,9.953e+00,9.333e+00,9.548e+00,7.555e+00,8.010e+00,8.181e+00,1.052e+01,8.922e+00,8.143e+00,1.060e+01,7.171e+00,8.249e+00,7.624e+00,9.097e+00,8.120e+00,7.778e+00,7.783e+00,9.610e+00,9.335e+00,8.678e+00
3.689e-02,4.549e-01,7.743e-01,7.125e-01,1.757e+00,1.281e+00,1.583e+00,2.234e+00,3.545e+00,2.323e+00,2.555e+00,3.553e+00,2.912e+00,2.729e+00,3.803e+00,3.774e+00,3.966e+00,3.107e+00,4.927e+00,4.655e+00,3.964e+00,6.045e+00,5.790e+00,7.704e+00,5.697e+00,5.268e+00,5.924e+00,5.780e+00,7.128e+00,8.770e+00,7.269e+00,9.033e+00,7.731e+00,9.237e+00,8.040e+00,7.441e+00,9.067e+00,9.994e+00,9.540e+00,8.349e+00,9.122e+00,8.660e+00,8.959e+00,8.605e+00,8.608e+00,9.101e+00,9.389e+00,9.284e+00,1.080e+01,1.093e+01,8.213e+00,1.065e+01,7.950e+00,1.001e+01,1.012e+01,1.009e+01,8.752e+00,8.864e+00,1.031e+01,1.084e+01,9.942e+00,9.713e+00,9.618e+00,9.162e+00,9.493e+00,9.794e+00,8.243e+00,8.354e+00,9.897e+00,9.394e+00,9.334e+00,1.007e+01,8.845e+00,8.272e+00,8.706e+00,1.023e+01,8.778e+00,8.685e+00,7.472e+00,1.048e+01,9.920e+00,9.156e+00
8.393e-02,7.998e-01,1.405e+00,1.145e+00,1.983e+00,1.491e+00,1.989e+00,2.903e+00,4.303e+00,2.720e+00,3.042e+00,4.485e+00,4.403e+00,4.187e+00,4.322e+00,4.053e+00,6.005e+00,4.586e+00,5.406e+00,5.760e+00,4.743e+00,7.804e+00,7.388e+00,1.018e+01,6.453e+00,7.810e+00,6.981e+00,6.566e+00,9.372e+00,9.948e+00,8.830e+00,1.057e+01,1.054e+01,8.860e+00,8.288e+00,8.088e+00,9.274e+00,1.089e+01,9.734e+00,9.403e+00,1.022e+01,1.152e+01,1.083e+01,9.857e+00,8.965e+00,9.498e+00,1.157e+01,9.384e+00,1.205e+01,1.141e+01,1.031e+01,1.196e+01,8.959e+00,1.248e+01,1.160e+01,1.066e+01,1.111e+01,1.013e+01,1.138e+01,1.228e+01,1.134e+01,1.184e+01,1.125e+01,9.973e+00,1.059e+01,1.024e+01,1.090e+01,9.939e+00,1.213e+01,1.125e+01,1.002e+01,1.195e+01,9.837e+00,1.043e+01,1.021e+01,1.065e+01,9.751e+00,9.778e+00,8.815e+00,1.223e+01,1.025e+01,9.686e+00
6.220e-02,4.887e-01,8.849e-01,7.333e-01,1.699e+00,1.450e+00,1.389e+00,1.919e+00,2.733e+00,2.074e+00,2.434e+00,3.850e+00,4.214e+00,3.047e+00,3.014e+00,3.558e+00,4.721e+00,3.275e+00,5.206e+00,5.184e+00,4.192e+00,6.927e+00,7.076e+00,8.188e+00,5.939e+00,7.121e+00,6.406e+00,5.913e+00,7.359e+00,8.240e+00,6.867e+00,9.558e+00,8.909e+00,8.464e+00,6.144e+00,5.806e+00,8.619e+00,8.777e+00,8.298e+00,7.913e+00,9.107e+00,8.868e+00,8.905e+00,8.838e+00,7.429e+00,9.021e+00,9.519e+00,9.962e+00,1.009e+01,1.092e+01,9.507e+00,1.006e+01,7.723e+00,9.486e+00,9.014e+00,9.375e+00,8.723e+00,7.431e+00,8.222e+00,9.843e+00,8.942e+00,1.034e+01,9.760e+00,9.421e+00,9.063e+00,8.204e+00,9.126e+00,9.826e+00,1.046e+01,9.560e+00,8.645e+00,1.091e+01,8.759e+00,8.105e+00,8.319e+00,9.626e+00,8.272e+00,9.212e+00,8.205e+00,1.148e+01,9.030e+00,8.690e+00
2.225e-03,2.161e-01,6.543e-01,3.919e-01,1.467e+00,1.262e+00,1.808e+00,2.362e+00,3.040e+00,2.153e+00,2.288e+00,2.575e+00,2.851e+00,3.019e+00,3.055e+00,4.023e+00,4.402e+00,2.692e+00,3.809e+00,3.894e+00,4.331e+00,5.848e+00,6.443e+00,7.279e+00,5.175e+00,5.602e+00,6.459e+00,5.828e+00,7.305e+00,8.006e+00,7.927e+00,9.193e+00,8.358e+00,8.398e+00,8.771e+00,7.186e+00,8.126e+00,9.942e+00,9.236e+00,9.632e+00,1.071e+01,9.070e+00,9.721e+00,9.575e+00,9.322e+00,8.909e+00,1.008e+01,1.044e+01,1.075e+01,1.077e+01,1.028e+01,1.195e+01,8.853e+00,1.102e+01,1.130e+01,1.024e+01,1.166e+01,9.145e+00,1.117e+01,1.133e+01,1.081e+01,1.083e+01,1.029e+01,1.066e+01,1.097e+01,1.060e+01,1.122e+01,9.161e+00,1.214e+01,1.002e+01,9.262e+00,1.073e+01,8.420e+00,1.038e+01,9.451e+00,1.051e+01,9.156e+00,9.643e+00,8.822e+00,1.173e+01,1.073e+01,1.004e+01
2.381e-02,3.249e-01,7.438e-01,5.040e-01,1.424e+00,1.233e+00,1.902e+00,2.169e+00,3.296e+00,2.677e+00,2.120e+00,3.773e+00,3.979e+00,3.641e+00,4.916e+00,4.401e+00,5.073e+00,3.888e+00,5.756e+00,4.968e+00,5.149e+00,7.660e+00,8.249e+00,9.440e+00,7.973e+00,6.391e+00,8.701e+00,6.857e+00,8.743e+00,9.278e+00,8.916e+00,1.138e+01,1.025e+01,1.037e+01,9.604e+00,8.357e+00,8.588e+00,1.170e+01,1.043e+01,1.126e+01,1.242e+01,1.160e+01,1.082e+01,1.093e+01,1.115e+01,1.109e+01,1.251e+01,1.128e+01,1.315e+01,1.279e+01,1.124e+01,1.237e+01,9.245e+00,1.285e+01,1.224e+01,1.137e+01,1.141e+01,1.048e+01,1.314e+01,1.304e+01,1.277e+01,1.277e+01,1.238e+01,1.232e+01,1.079e+01,1.219e+01,1.143e+01,1.047e+01,1.354e+01,1.228e+01,1.025e+01,1.200e+01,1.053e+01,1.089e+01,1.106e+01,1.250e+01,1.107e+01,1.073e+01,1.018e+01,1.331e+01,1.277e+01,1.131e+01
3.622e-02,6.094e-01,1.215e+00,8.097e-01,2.076e+00,1.572e+00,2.357e+00,3.086e+00,3.669e+00,2.714e+00,2.764e+00,3.897e+00,3.584e+00,3.985e+00,4.169e+00,3.932e+00,5.420e+00,4.265e+00,4.894e+00,5.006e+00,4.243e+00,6.729e+00,6.350e+00,7.695e+00,5.944e+00,5.821e+00,6.809e+00,5.711e+00,7.816e+00,9.225e+00,7.571e+00,8.712e+00,9.861e+00,7.786e+00,8.109e+00,6.574e+00,7.047e+00,9.149e+00,8.822e+00,9.347e+00,9.935e+00,1.038e+01,1.073e+01,1.011e+01,9.092e+00,9.409e+00,1.121e+01,9.923e+00,1.239e+01,1.151e+01,1.045e+01,1.232e+01,9.021e+00,1.189e+01,1.102e+01,1.082e+01,1.016e+01,9.460e+00,1.110e+01,1.201e+01,1.093e+01,1.112e+01,1.078e+01,1.190e+01,1.146e+01,1.152e+01,1.113e+01,1.038e+01,1.293e+01,1.072e+01,1.134e+01,1.175e+01,9.062e+00,1.098e+01,1.044e+01,1.087e+01,9.331e+00,1.068e+01,9.383e+00,1.188e+01,1.082e+01,9.918e+00
5.274e-03,1.207e-01,1.864e-01,3.105e-01,1.121e+00,8.910e-01,1.465e+00,1.861e+00,2.997e+00,2.385e+00,2.564e+00,2.967e+00,3.667e+00,2.742e+00,3.985e+00,3.637e+00,3.834e+00,2.533e+00,5.243e+00,4.703e+00,3.741e+00,5.998e+00,5.892e+00,7.386e+00,4.949e+00,6.338e+00,6.020e+00,5.459e+00,8.403e+00,9.604e+00,8.130e+00,9.597e+00,8.071e+00,9.138e+00,7.840e+00,6.897e+00,8.080e+00,1.043e+01,9.993e+00,8.266e+00,9.604e+00,9.904e+00,1.116e+01,1.014e+01,9.273e+00,1.082e+01,1.194e+01,1.084e+01,1.219e+01,1.331e+01,1.074e+01,1.320e+01,9.388e+00,1.115e+01,1.150e+01,1.206e+01,1.040e+01,9.647e+00,1.192e+01,1.255e+01,1.330e+01,1.263e+01,1.297e+01,1.199e+01,1.159e+01,1.056e+01,1.035e+01,1.121e+01,1.339e+01,1.103e+01,1.116e+01,1.248e+01,9.589e+00,1.089e+01,1.042e+01,1.162e+01,1.087e+01,1.083e+01,9.076e+00,1.357e+01,1.192e+01,1.202e+01
1.767e-02,2.947e-01,7.011e-01,4.007e-01,1.642e+00,1.401e+00,1.684e+00,2.567e+00,3.455e+00,2.913e+00,2.604e+00,3.984e+00,4.366e+00,3.263e+00,4.406e+00,4.227e+00,4.956e+00,3.519e+00,4.712e+00,5.699e+00,4.801e+00,7.463e+00,6.313e+00,7.866e+00,6.292e+00,6.412e+00,6.598e+00,6.494e+00,7.146e+00,9.865e+00,7.961e+00,9.112e+00,8.642e+00,8.918e+00,7.291e+00,6.743e+00,8.479e+00,1.033e+01,1.004e+01,8.263e+00,1.062e+01,1.134e+01,1.084e+01,9.814e+00,9.472e+00,1.007e+01,1.042e+01,9.816e+00,1.323e+01,1.248e+01,1.003e+01,1.352e+01,9.338e+00,1.211e+01,1.241e+01,9.755e+00,1.092e+01,1.121e+01,1.240e+01,1.235e+01,1.291e+01,1.153e+01,1.214e+01,1.120e+01,1.130e+01,1.130e+01,9.661e+00,1.114e+01,1.186e+01,1.168e+01,1.143e+01,1.277e+01,1.014e+01,1.042e+01,9.392e+00,1.079e+01,9.116e+00,1.117e+01,9.354e+00,1.298e+01,1.198e+01,1.044e+01
2.899e-02,6.144e-01,1.012e+00,6.663e-01,1.324e+00,7.088e-01,1.556e+00,2.175e+00,2.784e+00,1.332e+00,1.658e+00,3.196e+00,2.292e+00,3.230e+00,3.248e+00,2.719e+00,3.787e+00,3.407e+00,3.625e+00,3.475e+00,3.166e+00,4.522e+00,4.340e+00,6.514e+00,3.496e+00,3.494e+00,4.630e+00,3.942e+00,6.137e+00,5.967e+00,5.766e+00,6.252e+00,7.165e+00,6.165e+00,6.210e+00,5.712e+00,6.214e+00,6.857e+00,7.222e+00,7.433e+00,7.513e+00,9.103e+00,8.958e+00,9.277e+00,9.568e+00,8.396e+00,1.055e+01,9.401e+00,1.159e+01,9.637e+00,9.243e+00,1.125e+01,7.168e+00,1.099e+01,9.872e+00,1.105e+01,9.350e+00,8.689e+00,1.098e+01,1.075e+01,1.201e+01,1.081e+01,1.102e+01,1.074e+01,1.141e+01,1.113e+01,9.645e+00,9.764e+00,1.102e+01,1.012e+01,1.056e+01,1.118e+01,8.243e+00,9.246e+00,1.010e+01,1.055e+01,8.365e+00,9.738e+00,9.429e+00,1.093e+01,8.918e+00,1.142e+01
6.116e-02,4.202e-01,8.237e-01,6.802e-01,1.642e+00,1.507e+00,1.385e+00,1.745e+00,2.492e+00,1.828e+00,1.948e+00,3.007e+00,3.297e+00,2.615e+00,2.733e+00,3.229e+00,4.247e+00,2.685e+00,3.758e+00,3.724e+00,3.167e+00,5.021e+00,5.136e+00,6.336e+00,4.287e+00,5.077e+00,4.481e+00,4.879e+00,6.677e+00,6.556e+00,5.007e+00,7.414e+00,7.270e+00,7.540e+00,7.390e+00,5.481e+00,7.531e+00,8.543e+00,7.986e+00,6.572e+00,8.170e+00,9.216e+00,7.207e+00,8.006e+00,8.856e+00,8.566e+00,9.674e+00,9.909e+00,1.225e+01,1.206e+01,8.430e+00,1.190e+01,8.295e+00,1.006e+01,1.084e+01,8.745e+00,1.132e+01,9.631e+00,9.415e+00,1.146e+01,1.043e+01,9.497e+00,1.109e+01,9.720e+00,1.063e+01,1.007e+01,8.675e+00,8.299e+00,1.098e+01,1.074e+01,1.047e+01,1.105e+01,8.872e+00,9.033e+00,7.736e+00,1.016e+01,8.216e+00,9.953e+00,9.345e+00,1.144e+01,1.047e+01,9.201e+00
4.228e-02,4.948e-01,8.886e-01,7.998e-01,1.745e+00,1.311e+00,1.764e+00,2.395e+00,3.054e+00,1.727e+00,2.509e+00,3.148e+00,2.659e+00,3.484e+00,3.506e+00,3.478e+00,4.327e+00,3.466e+00,4.138e+00,4.568e+00,3.877e+00,6.513e+00,6.178e+00,7.256e+00,5.080e+00,5.532e+00,6.298e+00,4.836e+00,7.548e+00,7.114e+00,6.518e+00,8.291e+00,8.871e+00,7.237e+00,7.443e+00,6.266e+00,8.076e+00,9.202e+00,8.531e+00,8.341e+00,8.881e+00,9.997e+00,1.026e+01,9.863e+00,8.239e+00,9.349e+00,1.095e+01,1.099e+01,1.222e+01,1.191e+01,1.085e+01,1.281e+01,9.696e+00,1.230e+01,1.194e+01,1.198e+01,1.195e+01,1.068e+01,1.170e+01,1.202e+01,1.213e+01,1.210e+01,1.124e+01,1.091e+01,1.194e+01,1.189e+01,1.100e+01,1.075e+01,1.299e+01,1.149e+01,1.056e+01,1.224e+01,9.577e+00,1.067e+01,1.058e+01,1.082e+01,1.093e+01,1.125e+01,9.865e+00,1.267e+01,1.092e+01,1.121e+01
4.945e-02,4.418e-01,8.863e-01,8.109e-01,1.739e+00,1.440e+00,1.570e+00,2.059e+00,2.851e+00,1.997e+00,2.311e+00,3.063e+00,3.456e+00,3.272e+00,3.883e+00,4.199e+00,5.014e+00,3.024e+00,5.027e+00,4.464e+00,4.572e+00,6.301e+00,7.037e+00,8.146e+00,6.251e+00,6.154e+00,7.580e+00,6.458e+00,8.362e+00,8.083e+00,7.887e+00,9.523e+00,9.023e+00,9.188e+00,7.814e+00,7.105e+00,8.238e+00,1.005e+01,9.246e+00,8.130e+00,9.410e+00,9.389e+00,8.761e+00,9.107e+00,9.083e+00,8.871e+00,1.101e+01,1.108e+01,1.320e+01,1.233e+01,1.046e+01,1.204e+01,9.458e+00,1.091e+01,1.193e+01,1.077e+01,1.023e+01,1.008e+01,1.091e+01,1.212e+01,1.127e+01,1.193e+01,1.126e+01,1.109e+01,1.043e+01,1.123e+01,9.751e+00,1.027e+01,1.236e+01,1.067e+01,1.099e+01,1.080e+01,9.566e+00,9.502e+00,9.828e+00,1.158e+01,1.020e+01,9.917e+00,1.044e+01,1.306e+01,1.188e+01,1.143e+01
1.126e-02,2.047e-01,3.496e-01,3.946e-01,6.815e-01,4.135e-01,8.471e-01,1.702e+00,2.470e+00,1.387e+00,1.936e+00,2.596e+00,2.055e+00,2.282e+00,2.989e+00,2.808e+00,3.085e+00,2.701e+00,3.159e+00,3.585e+00,3.734e+00,5.456e+00,6.287e+00,6.778e+00,5.722e+00,5.310e+00,6.537e+00,4.849e+00,6.613e+00,7.012e+00,7.334e+00,8.305e+00,8.312e+00,8.397e+00,7.420e+00,7.131e+00,7.626e+00,1.000e+01,9.167e+00,8.726e+00,8.931e+00,8.723e+00,9.538e+00,9.179e+00,9.927e+00,1.017e+01,1.083e+01,1.241e+01,1.417e+01,1.355e+01,1.200e+01,1.396e+01,1.105e+01,1.178e+01,1.260e+01,1.353e+01,1.152e+01,1.200e+01,1.216e+01,1.274e+01,1.300e+01,1.322e+01,1.180e+01,1.168e+01,1.321e+01,1.313e+01,1.147e+01,1.265e+01,1.301e+01,1.131e+01,1.220e+01,1.220e+01,1.050e+01,1.155e+01,1.228e+01,1.271e+01,1.190e+01,1.187e+01,1.194e+01,1.472e+01,1.265e+01,1.332e+01
8.852e-02,7.952e-01,1.545e+00,1.196e+00,2.288e+00,1.851e+00,1.986e+00,3.170e+00,4.241e+00,3.101e+00,2.969e+00,4.442e+00,4.179e+00,3.647e+00,3.978e+00,3.987e+00,5.340e+00,3.858e+00,5.604e+00,5.485e+00,5.223e+00,7.179e+00,7.296e+00,8.529e+00,6.496e+00,6.704e+00,6.807e+00,6.639e+00,8.555e+00,9.475e+00,8.251e+00,1.010e+01,9.117e+00,9.610e+00,7.918e+00,7.487e+00,8.909e+00,8.538e+00,9.168e+00,8.494e+00,1.028e+01,1.076e+01,1.045e+01,1.028e+01,1.001e+01,1.019e+01,1.158e+01,1.196e+01,1.429e+01,1.383e+01,1.187e+01,1.339e+01,1.170e+01,1.391e+01,1.358e+01,1.151e+01,1.239e+01,1.037e+01,1.400e+01,1.280e+01,1.251e+01,1.357e+01,1.289e+01,1.206e+01,1.383e+01,1.304e+01,1.156e+01,1.314e+01,1.250e+01,1.164e+01,1.290e+01,1.216e+01,1.119e+01,1.155e+01,1.115e+01,1.292e+01,1.073e+01,1.147e+01,1.070e+01,1.398e+01,1.294e+01,1.230e+01
8.897e-02,5.896e-01,1.188e+00,1.019e+00,2.003e+00,1.869e+00,1.894e+00,2.063e+00,2.900e+00,2.593e+00,2.331e+00,3.514e+00,4.556e+00,3.222e+00,3.508e+00,3.687e+00,5.055e+00,2.641e+00,5.612e+00,5.128e+00,4.488e+00,7.176e+00,6.434e+00,8.251e+00,6.424e+00,6.698e+00,7.258e+00,6.776e+00,8.556e+00,9.969e+00,7.962e+00,1.036e+01,9.472e+00,9.354e+00,8.146e+00,7.627e+00,9.481e+00,1.034e+01,1.041e+01,8.953e+00,1.112e+01,1.129e+01,1.115e+01,1.014e+01,9.993e+00,1.083e+01,1.233e+01,1.302e+01,1.487e+01,1.435e+01,1.233e+01,1.473e+01,1.202e+01,1.288e+01,1.410e+01,1.338e+01,1.519e+01,1.141e+01,1.229e+01,1.384e+01,1.437e+01,1.376e+01,1.418e+01,1.462e+01,1.360e+01,1.315e+01,1.249e+01,1.259e+01,1.568e+01,1.304e+01,1.309e+01,1.490e+01,1.161e+01,1.288e+01,1.240e+01,1.188e+01,1.306e+01,1.327e+01,1.228e+01,1.559e+01,1.429e+01,1.283e+01
9.935e-03,4.933e-01,8.471e-01,5.257e-01,1.200e+00,5.799e-01,1.203e+00,2.300e+00,3.145e+00,2.258e+00,2.531e+00,3.466e+00,3.261e+00,3.218e+00,3.647e+00,3.094e+00,4.147e+00,3.543e+00,3.729e+00,4.574e+00,3.774e+00,6.441e+00,6.159e+00,7.776e+00,5.681e+00,6.007e+00,6.606e+00,5.886e+00,7.211e+00,8.512e+00,8.717e+00,8.734e+00,9.539e+00,8.947e+00,7.660e+00,7.156e+00,8.335e+00,1.038e+01,9.550e+00,8.823e+00,9.505e+00,9.433e+00,1.018e+01,9.005e+00,9.416e+00,9.864e+00,1.138e+01,1.198e+01,1.371e+01,1.279e+01,1.147e+01,1.411e+01,1.210e+01,1.281e+01,1.409e+01,1.251e+01,1.265e+01,1.292e+01,1.209e+01,1.263e+01,1.356e+01,1.374e+01,1.284e+01,1.219e+01,1.360e+01,1.394e+01,1.248e+01,1.238e+01,1.329e+01,1.247e+01,1.272e+01,1.506e+01,1.222e+01,1.165e+01,1.170e+01,1.280e+01,1.166e+01,1.239e+01,1.179e+01,1.467e+01,1.308e+01,1.256e+01
2.071e-02,5.344e-01,9.526e-01,6.486e-01,2.023e+00,1.394e+00,1.975e+00,2.531e+00,3.996e+00,3.140e+00,3.130e+00,4.695e+00,5.219e+00,4.300e+00,5.200e+00,4.947e+00,5.740e+00,4.153e+00,6.789e+00,5.843e+00,4.671e+00,7.729e+00,7.373e+00,9.299e+00,6.642e+00,7.503e+00,7.462e+00,7.603e+00,1.044e+01,1.134e+01,9.745e+00,1.121e+01,1.106e+01,1.093e+01,9.435e+00,9.493e+00,1.002e+01,1.192e+01,1.192e+01,1.038e+01,1.214e+01,1.309e+01,1.258e+01,1.269e+01,1.296e+01,1.197e+01,1.543e+01,1.363e+01,1.730e+01,1.624e+01,1.356e+01,1.643e+01,1.312e+01,1.537e+01,1.625e+01,1.536e+01,1.528e+01,1.461e+01,1.611e+01,1.661e+01,1.780e+01,1.809e+01,1.622e+01,1.642e+01,1.655e+01,1.700e+01,1.429e+01,1.443e+01,1.691e+01,1.507e+01,1.599e+01,1.714e+01,1.439e+01,1.466e+01,1.387e+01,1.525e+01,1.432e+01,1.571e+01,1.420e+01,1.838e+01,1.648e+01,1.638e+01
4.415e-02,4.729e-01,9.838e-01,6.366e-01,1.764e+00,1.470e+00,1.380e+00,1.783e+00,2.703e+00,2.781e+00,2.279e+00,3.134e+00,3.937e+00,2.669e+00,3.158e+00,3.732e+00,4.828e+00,3.021e+00,5.305e+00,4.779e+00,4.108e+00,6.223e+00,7.002e+00,7.754e+00,6.247e+00,5.534e+00,5.909e+00,6.238e+00,8.459e+00,9.018e+00,6.842e+00,9.969e+00,9.133e+00,8.969e+00,8.488e+00,6.944e+00,7.797e+00,8.397e+00,8.640e+00,8.732e+00,9.952e+00,9.731e+00,9.976e+00,1.001e+01,1.048e+01,1.015e+01,1.170e+01,1.286e+01,1.387e+01,1.350e+01,1.154e+01,1.251e+01,1.171e+01,1.296e+01,1.429e+01,1.410e+01,1.486e+01,1.252e+01,1.259e+01,1.310e+01,1.381e+01,1.443e+01,1.353e+01,1.488e+01,1.465e+01,1.448e+01,1.424e+01,1.340e+01,1.463e+01,1.235e+01,1.402e+01,1.438e+01,1.182e+01,1.356e+01,1.256e+01,1.327e+01,1.279e+01,1.285e+01,1.274e+01,1.579e+01,1.238e+01,1.464e+01
7.313e-02,6.277e-01,1.306e+00,9.967e-01,2.020e+00,1.743e+00,1.801e+00,2.401e+00,3.615e+00,3.220e+00,2.928e+00,3.321e+00,3.989e+00,3.637e+00,3.307e+00,3.415e+00,4.916e+00,3.678e+00,4.999e+00,5.425e+00,3.786e+00,7.078e+00,6.770e+00,8.687e+00,5.978e+00,6.527e+00,5.946e+00,5.928e+00,8.012e+00,8.467e+00,8.350e+00,1.063e+01,9.194e+00,9.436e+00,8.965e+00,7.461e+00,9.303e+00,9.506e+00,8.913e+00,8.969e+00,1.090e+01,9.706e+00,1.138e+01,1.030e+01,1.033e+01,1.047e+01,1.186e+01,1.158e+01,1.492e+01,1.329e+01,1.104e+01,1.404e+01,1.223e+01,1.342e+01,1.488e+01,1.437e+01,1.423e+01,1.294e+01,1.346e+01,1.389e+01,1.355e+01,1.542e+01,1.465e+01,1.417e+01,1.440e+01,1.377e+01,1.411e+01,1.441e+01,1.538e+01,1.413e+01,1.348e+01,1.591e+01,1.263e+01,1.367e+01,1.352e+01,1.378e+01,1.379e+01,1.295e+01,1.411e+01,1.548e+01,1.312e+01,1.460e+01
3.189e-02,6.319e-01,1.175e+00,8.094e-01,2.068e+00,1.448e+00,2.350e+00,3.208e+00,4.122e+00,2.175e+00,2.578e+00,3.708e+00,2.563e+00,3.182e+00,3.096e+00,3.660e+00,4.816e+00,4.025e+00,4.907e+00,4.584e+00,4.838e+00,6.078e+00,7.364e+00,9.027e+00,6.122e+00,6.534e+00,7.161e+00,5.871e+00,8.836e+00,8.361e+00,7.837e+00,1.105e+01,8.960e+00,9.825e+00,8.077e+00,7.545e+00,8.857e+00,9.996e+00,9.268e+00,1.047e+01,1.155e+01,1.050e+01,1.054e+01,1.119e+01,1.063e+01,1.176e+01,1.107e+01,1.293e+01,1.428e+01,1.425e+01,1.233e+01,1.530e+01,1.245e+01,1.372e+01,1.290e+01,1.461e+01,1.423e+01,1.294e+01,1.466e+01,1.437e+01,1.429e+01,1.467e+01,1.443e+01,1.449e+01,1.427e+01,1.614e+01,1.373e+01,1.410e+01,1.727e+01,1.377e+01,1.436e+01,1.505e+01,1.326e+01,1.413e+01,1.506e+01,1.547e+01,1.273e+01,1.393e+01,1.299e+01,1.566e+01,1.605e+01,1.432e+01
9.425e-02,7.083e-01,1.362e+00,1.082e+00,2.144e+00,1.860e+00,1.544e+00,1.769e+00,2.749e+00,1.959e+00,1.941e+00,3.570e+00,3.923e+00,2.862e+00,2.680e+00,3.178e+00,4.137e+00,2.336e+00,4.635e+00,3.824e+00,3.802e+00,5.635e+00,5.797e+00,5.918e+00,4.926e+00,5.451e+00,5.432e+00,4.897e+00,6.567e+00,7.282e+00,5.342e+00,7.924e+00,6.707e+00,6.829e+00,5.958e+00,4.773e+00,7.779e+00,7.345e+00,7.282e+00,6.508e+00,8.477e+00,8.247e+00,8.515e+00,8.888e+00,8.544e+00,9.029e+00,9.793e+00,1.123e+01,1.271e+01,1.164e+01,1.071e+01,1.265e+01,1.094e+01,1.265e+01,1.342e+01,1.215e+01,1.427e+01,1.278e+01,1.325e+01,1.278e+01,1.365e+01,1.442e+01,1.376e+01,1.447e+01,1.340e+01,1.377e+01,1.277e+01,1.199e+01,1.464e+01,1.179e+01,1.384e+01,1.400e+01,1.278e+01,1.259e+01,1.171e+01,1.260e+01,1.224e+01,1.421e+01,1.281e+01,1.489e+01,1.393e+01,1.365e+01
8.527e-02,7.497e-01,1.226e+00,1.063e+00,1.935e+00,1.451e+00,1.479e+00,1.689e+00,3.011e+00,2.594e+00,2.405e+00,3.212e+00,3.381e+00,2.337e+00,3.002e+00,3.079e+00,4.487e+00,2.838e+00,5.343e+00,4.591e+00,3.753e+00,6.538e+00,6.847e+00,7.919e+00,5.777e+00,5.656e+00,6.321e+00,5.150e+00,7.359e+00,7.439e+00,6.241e+00,1.013e+01,8.200e+00,8.458e+00,7.155e+00,6.628e+00,9.451e+00,8.808e+00,8.869e+00,8.383e+00,1.047e+01,9.759e+00,1.025e+01,1.024e+01,9.661e+00,1.157e+01,1.149e+01,1.189e+01,1.503e+01,1.423e+01,1.170e+01,1.395e+01,1.255e+01,1.355e+01,1.449e+01,1.483e+01,1.523e+01,1.401e+01,1.459e+01,1.369e+01,1.362e+01,1.556e+01,1.545e+01,1.482e+01,1.415e+01,1.559e+01,1.416e+01,1.454e+01,1.599e+01,1.374e+01,1.581e+01,1.698e+01,1.400e+01,1.370e+01,1.473e+01,1.412e+01,1.429e+01,1.364e+01,1.454e+01,1.704e+01,1.423e+01,1.543e+01
4.971e-02,6.289e-01,1.086e+00,9.612e-01,1.870e+00,1.274e+00,1.847e+00,2.572e+00,3.668e+00,2.516e+00,2.555e+00,3.764e+00,3.842e+00,3.153e+00,4.712e+00,4.146e+00,5.283e+00,3.248e+00,5.880e+00,5.026e+00,5.296e+00,6.374e+00,7.227e+00,8.467e+00,6.744e+00,5.844e+00,7.933e+00,6.429e+00,8.259e+00,9.451e+00,8.008e+00,8.858e+00,9.713e+00,9.308e+00,9.365e+00,8.938e+00,8.091e+00,1.122e+01,1.081e+01,1.043e+01,9.855e+00,1.070e+01,1.227e+01,9.999e+00,1.042e+01,1.098e+01,1.330e+01,1.299e+01,1.311e+01,1.321e+01,1.262e+01,1.486e+01,1.159e+01,1.400e+01,1.516e+01,1.544e+01,1.556e+01,1.553e+01,1.578e+01,1.668e+01,1.498e+01,1.767e+01,1.580e+01,1.655e+01,1.631e+01,1.731e+01,1.519e+01,1.433e+01,1.892e+01,1.497e+01,1.609e+01,1.734e+01,1.470e+01,1.552e+01,1.627e+01,1.522e+01,1.466e+01,1.638e+01,1.428e+01,1.752e+01,1.665e+01,1.652e+01
4.995e-02,5.951e-01,9.771e-01,9.273e-01,1.728e+00,1.200e+00,2.007e+00,2.243e+00,3.300e+00,2.291e+00,2.584e+00,3.214e+00,3.665e+00,3.415e+00,3.911e+00,3.512e+00,4.763e+00,2.970e+00,5.639e+00,4.412e+00,4.023e+00,6.442e+00,5.523e+00,7.346e+00,5.218e+00,5.750e+00,6.254e+00,5.052e+00,7.828e+00,8.350e+00,7.081e+00,8.568e+00,7.623e+00,7.536e+00,7.324e+00,6.764e+00,6.879e+00,8.267e+00,7.051e+00,7.008e+00,9.073e+00,8.388e+00,9.421e+00,8.978e+00,8.447e+00,9.317e+00,1.108e+01,1.111e+01,1.236e+01,1.220e+01,1.025e+01,1.253e+01,1.080e+01,1.147e+01,1.281e+01,1.212e+01,1.297e+01,1.371e+01,1.351e+01,1.364e+01,1.324e+01,1.532e+01,1.459e+01,1.268e+01,1.358e+01,1.380e+01,1.204e+01,1.301e+01,1.581e+01,1.343e+01,1.500e+01,1.438e+01,1.274e+01,1.181e+01,1.184e+01,1.320e+01,1.206e+01,1.314e+01,1.213e+01,1.424e+01,1.415e+01,1.295e+01
2.222e-02,5.746e-01,9.912e-01,7.723e-01,2.056e+00,1.317e+00,1.914e+00,2.775e+00,3.745e+00,2.072e+00,2.572e+00,3.146e+00,2.362e+00,3.098e+00,3.786e+00,3.742e+00,4.650e+00,3.801e+00,4.616e+00,4.594e+00,4.206e+00,6.313e+00,6.039e+00,7.866e+00,5.392e+00,5.717e+00,6.456e+00,5.653e+00,7.577e+00,8.202e+00,7.542e+00,8.652e+00,8.521e+00,8.430e+00,8.473e+00,7.512e+00,8.372e+00,1.028e+01,9.751e+00,8.781e+00,9.205e+00,1.076e+01,1.102e+01,1.024e+01,9.590e+00,1.074e+01,1.170e+01,1.174e+01,1.415e+01,1.417e+01,1.233e+01,1.535e+01,1.185e+01,1.418e+01,1.427e+01,1.520e+01,1.434e+01,1.477e+01,1.636e+01,1.603e+01,1.662e+01,1.731e+01,1.577e+01,1.572e+01,1.606e+01,1.742e+01,1.613e+01,1.602e+01,1.793e+01,1.518e+01,1.609e+01,1.756e+01,1.601e+01,1.601e+01,1.715e+01,1.679e+01,1.553e+01,1.589e+01,1.469e+01,1.822e+01,1.759e+01,1.772e+01
3.618e-02,5.724e-01,9.917e-01,7.543e-01,1.651e+00,1.085e+00,1.555e+00,1.946e+00,3.128e+00,2.078e+00,2.026e+00,2.856e+00,3.049e+00,2.362e+00,3.352e+00,3.650e+00,5.077e+00,3.035e+00,4.730e+00,3.957e+00,4.509e+00,6.154e+00,6.551e+00,7.535e+00,5.615e+00,5.796e+00,7.295e+00,5.757e+00,7.852e+00,9.598e+00,8.127e+00,9.640e+00,9.474e+00,8.753e+00,9.101e+00,7.922e+00,8.668e+00,1.088e+01,9.832e+00,9.371e+00,1.034e+01,1.033e+01,9.809e+00,1.100e+01,1.016e+01,1.092e+01,1.298e+01,1.343e+01,1.412e+01,1.358e+01,1.319e+01,1.405e+01,1.220e+01,1.366e+01,1.471e+01,1.467e+01,1.518e+01,1.332e+01,1.515e+01,1.554e+01,1.585e+01,1.701e+01,1.671e+01,1.637e+01,1.615e+01,1.824e+01,1.630e+01,1.488e+01,1.762e+01,1.708e+01,1.809e+01,1.720e+01,1.639e+01,1.573e+01,1.593e+01,1.668e+01,1.441e+01,1.459e+01,1.478e+01,1.787e+01,1.561e+01,1.704e+01
7.719e-02,8.432e-01,1.398e+00,1.194e+00,1.952e+00,1.254e+00,1.376e+00,1.798e+00,2.924e+00,1.365e+00,2.175e+00,2.792e+00,2.775e+00,2.555e+00,1.854e+00,2.800e+00,4.288e+00,2.447e+00,4.257e+00,3.246e+00,3.252e+00,4.177e+00,5.746e+00,6.438e+00,3.887e+00,5.285e+00,4.669e+00,4.886e+00,8.257e+00,7.195e+00,6.605e+00,8.152e+00,7.980e+00,8.030e+00,7.125e+00,6.404e+00,8.227e+00,7.922e+00,7.265e+00,7.899e+00,8.249e+00,9.209e+00,8.774e+00,1.033e+01,9.354e+00,9.775e+00,1.239e+01,1.158e+01,1.400e+01,1.307e+01,1.165e+01,1.331e+01,1.073e+01,1.181e+01,1.330e+01,1.375e+01,1.380e+01,1.179e+01,1.360e+01,1.380e+01,1.555e+01,1.592e+01,1.432e+01,1.552e+01,1.606e+01,1.660e+01,1.428e+01,1.340e+01,1.637e+01,1.417e+01,1.503e+01,1.554e+01,1.340e+01,1.442e+01,1.502e+01,1.552e+01,1.396e+01,1.402e+01,1.432e+01,1.702e+01,1.532e+01,1.591e+01
5.680e-02,6.353e-01,1.275e+00,9.129e-01,2.030e+00,1.580e+00,1.645e+00,2.291e+00,3.492e+00,2.792e+00,2.302e+00,2.811e+00,3.215e+00,2.770e+00,3.395e+00,3.502e+00,4.773e+00,3.092e+00,4.592e+00,4.049e+00,4.102e+00,5.652e+00,5.766e+00,7.158e+00,5.052e+00,5.725e+00,6.289e+00,5.750e+00,6.973e+00,7.562e+00,7.783e+00,8.883e+00,7.551e+00,8.493e+00,7.454e+00,6.238e+00,8.123e+00,9.204e+00,9.007e+00,7.506e+00,9.310e+00,9.083e+00,8.048e+00,8.528e+00,8.431e+00,8.794e+00,1.130e+01,1.088e+01,1.274e+01,1.214e+01,1.034e+01,1.211e+01,1.095e+01,1.257e+01,1.366e+01,1.244e+01,1.279e+01,1.300e+01,1.400e+01,1.394e+01,1.357e+01,1.556e+01,1.369e+01,1.497e+01,1.501e+01,1.629e+01,1.509e+01,1.375e+01,1.586e+01,1.446e+01,1.625e+01,1.606e+01,1.582e+01,1.497e+01,1.547e+01,1.610e+01,1.421e+01,1.466e+01,1.428e+01,1.715e+01,1.634e+01,1.564e+01
1.752e-02,2.512e-01,4.559e-01,4.792e-01,9.186e-01,6.461e-01,1.061e+00,1.417e+00,2.072e+00,1.256e+00,1.845e+00,1.793e+00,2.332e+00,2.429e+00,2.671e+00,3.296e+00,4.171e+00,2.425e+00,3.848e+00,3.454e+00,3.971e+00,5.747e+00,5.948e+00,7.233e+00,5.153e+00,5.662e+00,6.911e+00,5.086e+00,7.369e+00,7.821e+00,7.301e+00,9.056e+00,8.036e+00,7.415e+00,7.248e+00,6.361e+00,8.204e+00,1.012e+01,8.693e+00,8.340e+00,9.096e+00,8.083e+00,9.844e+00,9.740e+00,8.570e+00,9.605e+00,1.089e+01,1.075e+01,1.372e+01,1.251e+01,1.193e+01,1.449e+01,1.298e+01,1.310e+01,1.430e+01,1.395e+01,1.431e+01,1.386e+01,1.569e+01,1.550e+01,1.531e+01,1.548e+01,1.461e+01,1.498e+01,1.530e+01,1.863e+01,1.638e+01,1.514e+01,1.810e+01,1.609e+01,1.674e+01,1.835e+01,1.608e+01,1.695e+01,1.600e+01,1.509e+01,1.453e+01,1.497e+01,1.521e+01,1.699e+01,1.645e+01,1.651e+01
3.856e-02,5.961e-01,1.194e+00,7.253e-01,1.863e+00,1.383e+00,1.564e+00,1.931e+00,2.908e+00,2.541e+00,2.122e+00,3.229e+00,3.614e+00,3.092e+00,3.450e+00,3.252e+00,4.208e+00,3.028e+00,4.417e+00,3.850e+00,3.858e+00,6.283e+00,6.876e+00,6.563e+00,5.948e+00,4.999e+00,6.004e+00,5.641e+00,7.821e+00,7.718e+00,7.312e+00,8.754e+00,8.465e+00,8.743e+00,8.726e+00,6.725e+00,7.864e+00,8.916e+00,8.837e+00,7.532e+00,9.123e+00,8.869e+00,9.337e+00,9.365e+00,9.621e+00,9.617e+00,1.117e+01,1.166e+01,1.432e+01,1.293e+01,1.124e+01,1.299e+01,9.996e+00,1.192e+01,1.395e+01,1.337e+01,1.354e+01,1.470e+01,1.361e+01,1.294e+01,1.383e+01,1.604e+01,1.566e+01,1.447e+01,1.606e+01,1.746e+01,1.475e+01,1.442e+01,1.668e+01,1.386e+01,1.701e+01,1.643e+01,1.551e+01,1.510e+01,1.584e+01,1.648e+01,1.448e+01,1.507e+01,1.573e+01,1.769e+01,1.685e+01,1.603e+01
7.536e-02,7.072e-01,1.157e+00,1.071e+00,1.689e+00,1.160e+00,1.232e+00,1.907e+00,2.894e+00,1.619e+00,2.581e+00,3.762e+00,3.624e+00,3.626e+00,3.284e+00,3.827e+00,5.117e+00,3.625e+00,5.170e+00,4.882e+00,4.242e+00,6.364e+00,7.019e+00,8.789e+00,6.074e+00,5.888e+00,5.903e+00,5.588e+00,7.390e+00,6.693e+00,6.670e+00,8.819e+00,7.675e+00,8.385e+00,6.471e+00,6.278e+00,9.705e+00,9.760e+00,8.838e+00,8.606e+00,9.626e+00,9.107e+00,9.386e+00,9.690e+00,1.090e+01,1.008e+01,1.153e+01,1.036e+01,1.335e+01,1.307e+01,1.149e+01,1.336e+01,1.120e+01,1.216e+01,1.298e+01,1.480e+01,1.386e+01,1.455e+01,1.486e+01,1.545e+01,1.484e+01,1.750e+01,1.416e+01,1.521e+01,1.614e+01,1.716e+01,1.695e+01,1.574e+01,1.724e+01,1.632e+01,1.766e+01,1.793e+01,1.606e+01,1.650e+01,1.769e+01,1.625e+01,1.486e+01,1.717e+01,1.571e+01,1.923e+01,1.616e+01,1.743e+01
3.982e-02,6.259e-01,1.251e+00,8.218e-01,1.781e+00,1.280e+00,1.841e+00,2.776e+00,3.834e+00,2.889e+00,2.764e+00,4.035e+00,4.395e+00,4.332e+00,4.648e+00,4.396e+00,6.135e+00,4.598e+00,5.308e+00,5.441e+00,4.962e+00,7.630e+00,8.129e+00,9.650e+00,6.952e+00,6.699e+00,7.656e+00,6.736e+00,1.012e+01,1.016e+01,9.526e+00,1.098e+01,1.113e+01,1.003e+01,9.872e+00,7.955e+00,8.451e+00,1.071e+01,1.011e+01,1.027e+01,1.132e+01,1.191e+01,1.151e+01,1.201e+01,1.207e+01,1.133e+01,1.455e+01,1.366e+01,1.654e+01,1.644e+01,1.435e+01,1.636e+01,1.423e+01,1.535e+01,1.690e+01,1.620e+01,1.646e+01,1.631e+01,1.726e+01,1.816e+01,1.680e+01,1.928e+01,1.673e+01,1.819e+01,1.947e+01,2.028e+01,1.924e+01,1.914e+01,2.170e+01,1.948e+01,1.940e+01,1.983e+01,1.826e+01,1.891e+01,1.980e+01,1.941e+01,1.729e+01,1.850e+01,1.813e+01,2.203e+01,1.918e+01,1.979e+01
6.378e-02,6.448e-01,1.067e+00,8.577e-01,1.530e+00,1.028e+00,8.731e-01,1.602e+00,2.716e+00,2.334e+00,2.267e+00,2.835e+00,3.170e+00,2.616e+00,3.099e+00,2.906e+00,4.404e+00,3.322e+00,4.485e+00,4.347e+00,3.143e+00,5.758e+00,5.681e+00,7.605e+00,4.803e+00,5.755e+00,5.384e+00,5.282e+00,6.977e+00,7.457e+00,7.107e+00,8.826e+00,7.663e+00,7.635e+00,6.874e+00,5.824e+00,7.521e+00,7.961e+00,8.581e+00,7.377e+00,8.420e+00,9.705e+00,8.753e+00,9.732e+00,9.722e+00,9.963e+00,1.281e+01,1.109e+01,1.434e+01,1.308e+01,1.022e+01,1.283e+01,1.112e+01,1.243e+01,1.284e+01,1.343e+01,1.177e+01,1.112e+01,1.376e+01,1.411e+01,1.512e+01,1.641e+01,1.466e+01,1.591e+01,1.575e+01,1.769e+01,1.580e+01,1.578e+01,1.613e+01,1.666e+01,1.786e+01,1.847e+01,1.579e+01,1.722e+01,1.728e+01,1.694e+01,1.568e+01,1.501e+01,1.577e+01,1.831e+01,1.518e+01,1.733e+01
3.955e-02,5.948e-01,1.000e+00,6.960e-01,1.763e+00,1.190e+00,1.514e+00,1.941e+00,2.855e+00,1.696e+00,1.836e+00,3.762e+00,3.086e+00,3.022e+00,3.823e+00,3.272e+00,3.683e+00,2.853e+00,3.835e+00,3.794e+00,3.503e+00,5.615e+00,5.063e+00,6.254e+00,4.622e+00,4.234e+00,5.639e+00,4.989e+00,6.598e+00,7.143e+00,6.420e+00,7.630e+00,7.348e+00,7.995e+00,6.996e+00,6.331e+00,8.261e+00,9.276e+00,9.712e+00,7.551e+00,8.382e+00,9.021e+00,7.829e+00,9.642e+00,8.511e+00,9.087e+00,1.098e+01,1.222e+01,1.275e+01,1.332e+01,1.048e+01,1.386e+01,1.101e+01,1.126e+01,1.323e+01,1.331e+01,1.255e+01,1.172e+01,1.225e+01,1.251e+01,1.430e+01,1.481e+01,1.450e+01,1.376e+01,1.556e+01,1.736e+01,1.359e+01,1.469e+01,1.731e+01,1.490e+01,1.700e+01,1.671e+01,1.526e+01,1.430e+01,1.572e+01,1.645e+01,1.524e+01,1.625e+01,1.486e+01,1.744e+01,1.615e+01,1.530e+01
8.110e-02,6.261e-01,1.242e+00,1.023e+00,2.061e+00,1.769e+00,1.580e+00,2.377e+00,3.587e+00,2.779e+00,2.658e+00,3.267e+00,3.733e+00,2.595e+00,2.719e+00,3.436e+00,5.009e+00,3.076e+00,4.707e+00,5.188e+00,4.101e+00,6.072e+00,6.179e+00,8.372e+00,5.478e+00,6.430e+00,5.914e+00,6.379e+00,8.496e+00,1.012e+01,7.931e+00,1.039e+01,8.793e+00,9.500e+00,8.384e+00,8.072e+00,1.032e+01,9.946e+00,1.013e+01,9.441e+00,1.156e+01,1.148e+01,1.158e+01,1.079e+01,1.136e+01,1.161e+01,1.295e+01,1.319e+01,1.631e+01,1.542e+01,1.216e+01,1.561e+01,1.269e+01,1.417e+01,1.552e+01,1.555e+01,1.652e+01,1.479e+01,1.473e+01,1.714e+01,1.638e+01,1.642e+01,1.573e+01,1.709e+01,1.798e+01,1.814e+01,1.657e+01,1.716e+01,1.893e+01,1.746e+01,1.937e+01,2.016e+01,1.776e+01,1.778e+01,1.838e+01,1.834e+01,1.625e+01,1.797e+01,1.694e+01,2.037e+01,1.791e+01,1.787e+01
4.630e-02,5.677e-01,8.954e-01,7.463e-01,1.409e+00,9.099e-01,1.315e+00,1.543e+00,2.367e+00,1.468e+00,1.853e+00,3.184e+00,3.334e+00,2.847e+00,3.232e+00,3.105e+00,4.153e+00,2.583e+00,4.363e+00,3.411e+00,3.301e+00,5.251e+00,5.724e+00,6.876e+00,4.880e+00,5.172e+00,6.097e+00,5.456e+00,8.213e+00,8.321e+00,7.040e+00,8.602e+00,8.521e+00,8.554e+00,7.610e+00,6.389e+00,8.305e+00,9.739e+00,9.449e+00,8.573e+00,9.611e+00,1.085e+01,9.076e+00,1.029e+01,1.033e+01,1.061e+01,1.297e+01,1.237e+01,1.527e+01,1.444e+01,1.170e+01,1.492e+01,1.164e+01,1.300e+01,1.418e+01,1.296e+01,1.492e+01,1.299e+01,1.468e+01,1.522e+01,1.662e+01,1.581e+01,1.601e+01,1.679e+01,1.542e+01,1.902e+01,1.554e+01,1.409e+01,1.814e+01,1.682e+01,1.769e+01,1.903e+01,1.760e+01,1.746e+01,1.721e+01,1.643e+01,1.642e+01,1.664e+01,1.626e+01,1.941e+01,1.903e+01,1.717e+01
6.416e-02,7.406e-01,1.268e+00,1.087e+00,2.125e+00,1.446e+00,1.608e+00,2.795e+00,3.798e+00,2.756e+00,3.194e+00,3.591e+00,3.360e+00,3.690e+00,4.275e+00,4.103e+00,5.493e+00,4.316e+00,5.798e+00,5.959e+00,5.124e+00,8.011e+00,6.934e+00,9.693e+00,6.996e+00,7.316e+00,7.959e+00,7.078e+00,9.389e+00,9.969e+00,9.370e+00,1.161e+01,1.002e+01,1.051e+01,8.345e+00,7.747e+00,9.542e+00,1.074e+01,1.036e+01,9.910e+00,1.233e+01,1.160e+01,1.272e+01,1.162e+01,1.133e+01,1.131e+01,1.285e+01,1.263e+01,1.522e+01,1.450e+01,1.285e+01,1.541e+01,1.347e+01,1.427e+01,1.503e+01,1.505e+01,1.420e+01,1.547e+01,1.645e+01,1.721e+01,1.621e+01,1.885e+01,1.619e+01,1.654e+01,1.714e+01,1.914e+01,1.768e+01,1.903e+01,2.019e+01,1.825e+01,1.949e+01,2.091e+01,1.898e+01,2.059e+01,2.145e+01,2.079e+01,1.978e+01,1.915e+01,1.818e+01,2.170e+01,2.108e+01,1.949e+01
4.007e-02,6.842e-01,1.110e+00,9.246e-01,1.501e+00,7.928e-01,1.625e+00,2.077e+00,3.098e+00,1.678e+00,2.144e+00,2.738e+00,2.761e+00,3.267e+00,3.380e+00,3.075e+00,4.711e+00,3.289e+00,4.446e+00,3.779e+00,3.445e+00,5.302e+00,6.161e+00,8.514e+00,5.329e+00,4.885e+00,6.103e+00,5.060e+00,8.869e+00,7.812e+00,7.511e+00,9.073e+00,8.308e+00,8.761e+00,9.442e+00,7.990e+00,8.162e+00,1.041e+01,9.400e+00,9.305e+00,1.020e+01,1.109e+01,1.037e+01,1.064e+01,1.180e+01,1.105e+01,1.276e+01,1.252e+01,1.520e+01,1.473e+01,1.178e+01,1.564e+01,1.198e+01,1.358e+01,1.378e+01,1.458e+01,1.510e+01,1.499e+01,1.625e+01,1.653e+01,1.611e+01,1.794e+01,1.629e+01,1.580e+01,1.762e+01,1.922e+01,1.595e+01,1.598e+01,1.962e+01,1.716e+01,1.824e+01,1.846e+01,1.839e+01,1.933e+01,2.017e+01,1.800e+01,1.781e+01,1.720e+01,1.820e+01,2.056e+01,2.084e+01,1.985e+01
1.316e-02,5.179e-01,9.739e-01,6.686e-01,1.974e+00,1.289e+00,1.610e+00,2.106e+00,3.384e+00,2.123e+00,2.495e+00,2.854e+00,2.800e+00,3.152e+00,3.698e+00,4.366e+00,4.912e+00,3.176e+00,4.183e+00,3.972e+00,4.217e+00,6.363e+00,5.987e+00,6.533e+00,4.542e+00,5.158e+00,6.287e+00,5.778e+00,8.303e+00,8.749e+00,8.103e+00,8.841e+00,8.770e+00,8.362e+00,9.141e+00,7.129e+00,8.300e+00,9.818e+00,9.280e+00,7.778e+00,9.252e+00,9.900e+00,9.629e+00,1.010e+01,8.986e+00,9.186e+00,1.171e+01,1.188e+01,1.282e+01,1.270e+01,1.134e+01,1.381e+01,1.155e+01,1.155e+01,1.481e+01,1.309e+01,1.487e+01,1.381e+01,1.422e+01,1.455e+01,1.403e+01,1.520e+01,1.462e+01,1.424e+01,1.617e+01,1.668e+01,1.541e+01,1.477e+01,1.847e+01,1.642e+01,1.608e+01,1.642e+01,1.580e+01,1.655e+01,1.780e+01,1.698e+01,1.741e+01,1.658e+01,1.753e+01,1.937e+01,1.846e+01,1.677e+01
7.601e-02,7.710e-01,1.433e+00,1.151e+00,2.503e+00,1.915e+00,1.854e+00,2.996e+00,3.763e+00,2.269e+00,2.974e+00,3.377e+00,3.037e+00,3.164e+00,2.927e+00,3.844e+00,5.241e+00,3.411e+00,4.411e+00,5.131e+00,4.726e+00,6.539e+00,6.483e+00,8.192e+00,5.265e+00,6.634e+00,6.349e+00,5.817e+00,8.505e+00,8.221e+00,7.100e+00,9.998e+00,9.139e+00,9.415e+00,8.438e+00,6.643e+00,9.368e+00,1.036e+01,1.026e+01,8.936e+00,1.134e+01,1.264e+01,1.161e+01,1.118e+01,1.087e+01,1.075e+01,1.179e+01,1.361e+01,1.522e+01,1.476e+01,1.259e+01,1.569e+01,1.291e+01,1.518e+01,1.537e+01,1.526e+01,1.655e+01,1.553e+01,1.559e+01,1.692e+01,1.667e+01,1.773e+01,1.674e+01,1.716e+01,1.838e+01,1.890e+01,1.820e+01,1.791e+01,2.067e+01,1.803e+01,1.950e+01,2.038e+01,1.954e+01,1.981e+01,2.159e+01,2.027e+01,1.855e+01,2.025e+01,1.885e+01,2.442e+01,2.139e+01,2.040e+01
5.400e-02,5.983e-01,9.933e-01,8.913e-01,1.778e+00,1.233e+00,1.428e+00,2.085e+00,3.418e+00,2.564e+00,2.705e+00,3.491e+00,3.271e+00,2.673e+00,3.955e+00,4.081e+00,4.598e+00,2.834e+00,5.295e+00,4.380e+00,4.580e+00,6.667e+00,7.449e+00,8.091e+00,6.300e+00,5.975e+00,7.414e+00,6.327e+00,8.270e+00,8.260e+00,7.675e+00,1.019e+01,8.977e+00,9.681e+00,7.563e+00,7.016e+00,8.924e+00,9.223e+00,9.679e+00,8.849e+00,9.745e+00,9.778e+00,1.003e+01,1.051e+01,1.001e+01,1.098e+01,1.166e+01,1.048e+01,1.472e+01,1.441e+01,1.234e+01,1.455e+01,1.165e+01,1.333e+01,1.410e+01,1.473e+01,1.289e+01,1.455e+01,1.737e+01,1.585e+01,1.482e+01,1.675e+01,1.594e+01,1.576e+01,1.603e+01,1.978e+01,1.726e+01,1.710e+01,1.841e+01,1.721e+01,1.958e+01,1.964e+01,1.843e+01,1.805e+01,2.060e+01,2.089e+01,1.718e+01,1.950e+01,1.894e+01,2.269e+01,2.081e+01,2.124e+01
7.025e-02,7.172e-01,1.307e+00,9.722e-01,1.767e+00,1.347e+00,1.825e+00,2.492e+00,3.495e+00,1.988e+00,2.219e+00,3.546e+00,2.707e+00,3.345e+00,2.810e+00,2.321e+00,3.894e+00,3.978e+00,3.529e+00,4.185e+00,3.090e+00,5.701e+00,5.696e+00,7.358e+00,5.111e+00,5.295e+00,4.739e+00,4.222e+00,6.973e+00,6.267e+00,6.074e+00,8.398e+00,7.868e+00,7.876e+00,7.399e+00,6.455e+00,8.102e+00,9.240e+00,7.555e+00,8.608e+00,9.407e+00,1.071e+01,9.716e+00,1.050e+01,9.754e+00,9.112e+00,1.134e+01,9.474e+00,1.253e+01,1.220e+01,1.015e+01,1.365e+01,9.947e+00,1.347e+01,1.269e+01,1.201e+01,1.381e+01,1.360e+01,1.383e+01,1.468e+01,1.437e+01,1.488e+01,1.377e+01,1.320e+01,1.367e+01,1.535e+01,1.532e+01,1.455e+01,1.580e+01,1.623e+01,1.444e+01,1.724e+01,1.578e+01,1.595e+01,1.849e+01,1.742e+01,1.651e+01,1.566e+01,1.674e+01,1.892e+01,1.836e+01,1.693e+01
6.616e-03,7.316e-02,2.675e-01,2.201e-01,8.932e-01,8.735e-01,1.240e+00,1.361e+00,2.058e+00,1.901e+00,1.689e+00,2.462e+00,3.451e+00,2.796e+00,3.579e+00,3.876e+00,4.666e+00,3.085e+00,5.065e+00,4.134e+00,4.370e+00,6.860e+00,6.648e+00,7.781e+00,6.448e+00,5.445e+00,6.749e+00,5.972e+00,8.142e+00,9.047e+00,7.329e+00,9.786e+00,7.617e+00,8.460e+00,8.593e+00,7.173e+00,8.257e+00,9.723e+00,8.816e+00,8.026e+00,1.000e+01,9.673e+00,9.175e+00,1.006e+01,9.923e+00,1.004e+01,1.184e+01,1.233e+01,1.576e+01,1.339e+01,1.192e+01,1.477e+01,1.258e+01,1.423e+01,1.512e+01,1.331e+01,1.554e+01,1.519e+01,1.570e+01,1.686e+01,1.636e+01,1.723e+01,1.567e+01,1.766e+01,1.828e+01,2.080e+01,1.853e+01,1.833e+01,1.948e+01,1.934e+01,2.174e+01,2.007e+01,1.986e+01,2.090e+01,1.993e+01,2.141e+01,2.078e+01,2.003e+01,2.176e+01,2.349e+01,2.232e+01,2.303e+01
6.451e-02,6.395e-01,1.059e+00,9.737e-01,1.625e+00,1.106e+00,1.192e+00,2.021e+00,3.027e+00,1.595e+00,2.314e+00,3.036e+00,2.345e+00,2.526e+00,2.620e+00,2.865e+00,3.801e+00,2.903e+00,3.621e+00,3.487e+00,3.573e+00,5.674e+00,6.247e+00,6.777e+00,5.097e+00,5.585e+00,6.013e+00,4.757e+00,7.082e+00,6.997e+00,6.504e+00,8.358e+00,7.619e+00,7.743e+00,7.382e+00,6.641e+00,7.724e+00,8.857e+00,9.016e+00,8.572e+00,9.216e+00,9.723e+00,9.066e+00,1.023e+01,9.535e+00,9.291e+00,1.192e+01,1.118e+01,1.330e+01,1.277e+01,1.087e+01,1.353e+01,1.022e+01,1.219e+01,1.243e+01,1.273e+01,1.317e+01,1.174e+01,1.417e+01,1.450e+01,1.254e+01,1.637e+01,1.387e+01,1.363e+01,1.365e+01,1.653e+01,1.534e+01,1.454e+01,1.650e+01,1.661e+01,1.805e+01,1.758e+01,1.630e+01,1.757e+01,1.907e+01,1.687e+01,1.692e+01,1.658e+01,1.739e+01,2.013e+01,1.850e+01,1.825e+01
6.898e-03,3.239e-01,6.721e-01,3.542e-01,1.253e+00,9.154e-01,1.410e+00,1.924e+00,2.816e+00,2.583e+00,2.394e+00,3.836e+00,4.600e+00,3.874e+00,4.761e+00,4.154e+00,5.073e+00,3.780e+00,4.871e+00,4.940e+00,4.432e+00,7.499e+00,7.260e+00,7.669e+00,6.757e+00,6.205e+00,6.867e+00,6.366e+00,9.003e+00,9.775e+00,8.512e+00,1.021e+01,9.840e+00,9.245e+00,9.465e+00,7.933e+00,9.483e+00,1.159e+01,1.066e+01,9.785e+00,1.112e+01,1.149e+01,1.123e+01,1.180e+01,1.146e+01,1.175e+01,1.362e+01,1.202e+01,1.553e+01,1.622e+01,1.362e+01,1.633e+01,1.341e+01,1.469e+01,1.571e+01,1.463e+01,1.737e+01,1.696e+01,1.867e+01,1.755e+01,1.849e+01,1.809e+01,1.794e+01,1.774e+01,1.841e+01,2.011e+01,1.828e+01,1.823e+01,2.183e+01,1.923e+01,2.046e+01,2.206e+01,1.905e+01,2.023e+01,2.174e+01,2.102e+01,1.794e+01,2.158e+01,2.098e+01,2.607e+01,2.498e+01,2.356e+01
6.265e-02,4.176e-01,9.073e-01,7.176e-01,1.564e+00,1.465e+00,1.205e+00,1.729e+00,2.915e+00,2.123e+00,1.872e+00,2.995e+00,2.699e+00,2.266e+00,2.706e+00,2.818e+00,3.225e+00,2.658e+00,3.259e+00,3.509e+00,3.238e+00,5.533e+00,5.443e+00,5.821e+00,5.336e+00,5.530e+00,5.674e+00,4.907e+00,6.909e+00,8.317e+00,6.820e+00,9.193e+00,7.712e+00,8.180e+00,7.780e+00,6.743e+00,8.505e+00,9.653e+00,9.691e+00,8.217e+00,9.980e+00,9.755e+00,8.450e+00,1.015e+01,1.007e+01,9.028e+00,1.126e+01,1.160e+01,1.367e+01,1.480e+01,1.063e+01,1.402e+01,1.126e+01,1.209e+01,1.350e+01,1.404e+01,1.371e+01,1.281e+01,1.465e+01,1.450e+01,1.363e+01,1.598e+01,1.372e+01,1.522e+01,1.544e+01,1.639e+01,1.497e+01,1.435e+01,1.789e+01,1.543e+01,1.733e+01,1.639e+01,1.617e+01,1.774e+01,1.913e+01,1.779e+01,1.636e+01,1.802e+01,1.613e+01,2.066e+01,2.015e+01,2.009e+01
