5.957e-01,7.233e-02,6.025e-01,9.031e-01,8.776e-01,8.508e-01,9.492e-01,1.106e-02,9.232e-01,3.180e-01,8.058e-01,8.419e-01,1.239e-01,5.038e-01,8.379e-01,7.064e-01,9.522e-01,1.726e-01,4.827e-01,2.595e-01,4.062e-01,5.531e-01,2.253e-01,1.101e-01,8.139e-01,2.257e-01,8.367e-02,5.624e-02,1.028e-01,7.568e-01,8.065e-02,2.839e-01,3.136e-01,9.541e-01,9.934e-01,6.800e-02,8.238e-01,6.214e-01,4.903e-02,2.883e-01,5.251e-01,4.043e-01,4.410e-01,3.323e-02,6.354e-02,3.626e-01,8.941e-01,8.973e-01,8.492e-01,6.192e-02,7.749e-02,1.513e-01,9.208e-01,2.633e-01,4.916e-01,9.634e-01,1.856e-01,5.819e-01,6.264e-01,1.228e-01,4.860e-01,7.452e-01,1.624e-01,5.111e-01,8.126e-01,2.253e-01,8.906e-02,4.551e-01,3.306e-01,8.089e-01,1.602e-01,8.046e-01,7.546e-01,6.489e-01,8.622e-02,2.826e-01,6.975e-01,7.519e-01,8.932e-01,5.420e-01,2.724e-01,7.017e-01,2.671e-01,1.603e-01,7.943e-01,3.426e-02,2.563e-01,4.537e-01,9.222e-01,8.774e-01,9.342e-02,3.906e-01,9.285e-01,9.451e-01,3.226e-01,2.753e-01,1.413e-01,4.916e-01,8.397e-01
5.733e-01,2.757e-01,1.365e+00,1.028e+00,1.653e+00,9.227e-01,1.212e+00,4.758e-01,1.455e+00,7.051e-01,1.027e+00,9.056e-01,4.413e-01,1.272e+00,9.586e-01,1.623e+00,1.207e+00,1.005e+00,1.456e+00,6.428e-01,1.373e+00,7.416e-01,2.961e-01,1.026e+00,1.285e+00,6.606e-01,7.819e-01,8.421e-01,8.343e-01,1.155e+00,9.963e-02,5.292e-01,1.246e+00,1.707e+00,1.836e+00,8.853e-01,1.771e+00,1.254e+00,5.008e-02,9.299e-01,1.051e+00,5.311e-01,1.308e+00,3.601e-01,3.231e-01,7.056e-01,9.279e-01,1.782e+00,8.418e-01,8.385e-01,9.817e-01,6.005e-01,1.073e+00,8.205e-01,1.113e+00,1.457e+00,9.584e-01,1.556e+00,1.358e+00,8.954e-01,6.397e-01,9.135e-01,2.702e-01,6.640e-01,1.397e+00,6.050e-01,1.320e-01,7.548e-01,4.241e-01,1.051e+00,6.033e-01,1.704e+00,1.473e+00,1.062e+00,9.435e-02,7.414e-01,1.564e+00,1.096e+00,1.069e+00,1.087e+00,1.124e+00,1.469e+00,8.576e-01,1.065e+00,1.587e+00,6.268e-01,1.224e+00,1.015e+00,1.550e+00,1.144e+00,1.493e-01,5.789e-01,1.351e+00,1.091e+00,1.214e+00,1.011e+00,5.440e-01,9.510e-01,1.004e+00
4.429e-01,8.109e-02,6.876e-01,1.590e+00,8.380e-01,1.434e+00,8.924e-01,3.901e-01,1.516e+00,8.710e-01,7.866e-01,1.073e+00,5.279e-01,1.226e+00,1.574e+00,1.480e+00,1.427e+00,5.350e-01,8.135e-01,4.215e-01,1.141e+00,8.309e-01,2.152e-01,1.067e+00,7.533e-01,5.840e-01,6.889e-01,9.467e-01,5.582e-01,1.585e+00,1.212e-01,3.966e-01,5.693e-01,1.255e+00,1.744e+00,1.045e+00,9.921e-01,1.210e+00,1.996e-01,9.111e-01,1.238e+00,4.690e-01,8.718e-01,1.559e-01,3.319e-01,6.424e-01,8.891e-01,8.033e-01,9.438e-01,1.553e-01,5.321e-01,1.006e+00,9.323e-01,3.264e-01,1.086e+00,1.519e+00,3.936e-01,1.087e+00,9.152e-01,4.238e-01,8.882e-01,9.280e-01,1.089e+00,9.620e-01,1.563e+00,4.937e-01,9.261e-01,1.253e+00,3.264e-01,6.796e-01,5.896e-01,1.139e+00,1.138e+00,1.191e+00,1.037e+00,4.861e-01,1.621e+00,6.898e-01,1.207e+00,1.128e+00,1.063e+00,1.087e+00,3.822e-01,3.291e-01,7.602e-01,5.575e-01,7.593e-01,7.560e-01,1.588e+00,1.364e+00,2.480e-01,8.087e-01,9.179e-01,8.129e-01,1.191e+00,6.313e-01,2.325e-01,1.368e+00,8.186e-01
3.936e-01,2.170e-01,1.093e+00,1.330e+00,2.208e+00,1.598e+00,1.532e+00,9.646e-01,2.332e+00,1.717e+00,9.376e-01,1.689e+00,1.095e+00,1.833e+00,1.264e+00,2.308e+00,1.254e+00,1.038e+00,1.801e+00,9.510e-01,1.719e+00,7.231e-01,3.375e-01,1.884e+00,1.438e+00,9.913e-01,1.825e+00,1.638e+00,9.646e-01,1.396e+00,1.192e-01,6.509e-01,1.184e+00,1.738e+00,2.090e+00,1.138e+00,2.321e+00,1.279e+00,9.445e-01,1.247e+00,1.864e+00,6.906e-01,1.209e+00,1.254e+00,8.120e-01,6.635e-01,8.394e-01,2.154e+00,9.517e-01,1.149e+00,1.852e+00,8.784e-01,1.818e+00,1.255e+00,1.189e+00,1.928e+00,1.562e+00,1.796e+00,1.474e+00,1.354e+00,9.183e-01,1.664e+00,7.913e-01,1.250e+00,1.908e+00,9.892e-01,6.352e-01,1.367e+00,4.949e-01,1.249e+00,1.331e+00,2.222e+00,2.035e+00,1.215e+00,1.104e+00,1.303e+00,1.939e+00,1.475e+00,1.508e+00,1.124e+00,1.348e+00,2.121e+00,1.090e+00,1.375e+00,1.417e+00,9.420e-01,1.434e+00,9.081e-01,2.352e+00,1.578e+00,9.168e-01,1.184e+00,1.648e+00,1.712e+00,2.250e+00,1.303e+00,1.258e+00,1.388e+00,1.377e+00
4.481e-01,2.226e-01,1.172e+00,1.420e+00,2.100e+00,2.083e+00,2.187e+00,1.567e+00,2.436e+00,1.712e+00,1.461e+00,2.283e+00,1.052e+00,2.145e+00,1.672e+00,2.926e+00,2.245e+00,1.659e+00,1.854e+00,1.253e+00,2.293e+00,8.919e-01,7.176e-01,1.636e+00,2.100e+00,1.034e+00,1.726e+00,2.296e+00,1.894e+00,1.947e+00,4.655e-01,1.306e+00,1.735e+00,2.449e+00,2.406e+00,1.651e+00,2.627e+00,2.111e+00,8.605e-01,2.023e+00,2.510e+00,1.430e+00,1.653e+00,8.145e-01,7.281e-01,1.591e+00,1.768e+00,2.403e+00,1.097e+00,8.705e-01,2.141e+00,1.486e+00,1.649e+00,1.888e+00,2.200e+00,1.978e+00,1.381e+00,1.700e+00,2.303e+00,1.366e+00,1.476e+00,1.950e+00,1.036e+00,1.055e+00,2.734e+00,1.429e+00,7.943e-01,1.397e+00,9.674e-01,1.685e+00,1.180e+00,2.017e+00,2.486e+00,1.494e+00,1.197e+00,9.697e-01,2.338e+00,2.070e+00,1.866e+00,1.484e+00,2.009e+00,2.699e+00,1.737e+00,1.988e+00,1.569e+00,9.764e-01,1.932e+00,1.581e+00,2.422e+00,1.899e+00,1.421e+00,1.754e+00,2.346e+00,1.787e+00,2.644e+00,2.083e+00,1.416e+00,1.558e+00,1.953e+00
7.640e-02,1.634e-01,6.650e-01,4.191e-01,1.462e+00,1.221e+00,1.104e+00,1.331e+00,1.867e+00,1.535e+00,1.063e+00,1.815e+00,9.765e-01,1.292e+00,1.345e+00,1.988e+00,1.630e+00,1.803e+00,1.880e+00,1.090e+00,2.070e+00,6.356e-01,5.027e-01,2.136e+00,1.789e+00,1.019e+00,1.876e+00,1.619e+00,1.275e+00,1.202e+00,4.312e-01,1.027e+00,1.923e+00,1.952e+00,1.472e+00,1.606e+00,1.749e+00,1.382e+00,8.197e-01,1.705e+00,2.253e+00,1.571e+00,1.572e+00,1.294e+00,7.421e-01,1.437e+00,1.348e+00,1.555e+00,7.560e-01,1.212e+00,1.591e+00,1.464e+00,1.621e+00,1.335e+00,1.509e+00,1.047e+00,2.098e+00,1.754e+00,2.090e+00,1.602e+00,9.658e-01,1.706e+00,9.077e-01,1.574e+00,1.453e+00,1.203e+00,9.023e-01,7.440e-01,1.290e+00,1.695e+00,1.140e+00,1.856e+00,1.587e+00,1.551e+00,1.465e+00,8.919e-01,1.999e+00,1.940e+00,1.046e+00,9.343e-01,1.721e+00,2.391e+00,1.986e+00,2.164e+00,1.729e+00,6.846e-01,1.929e+00,7.393e-01,1.980e+00,1.039e+00,1.687e+00,1.351e+00,1.365e+00,1.996e+00,2.510e+00,2.121e+00,1.498e+00,1.638e+00,1.701e+00
3.839e-01,1.050e-01,6.253e-01,7.774e-01,1.116e+00,1.255e+00,2.138e+00,1.085e+00,1.871e+00,1.297e+00,1.359e+00,2.409e+00,8.976e-01,1.354e+00,2.092e+00,1.903e+00,2.079e+00,1.904e+00,1.572e+00,1.246e+00,1.849e+00,7.543e-01,8.924e-01,1.790e+00,1.543e+00,7.348e-01,1.407e+00,1.671e+00,1.365e+00,2.036e+00,1.306e+00,1.656e+00,2.212e+00,2.070e+00,2.276e+00,1.885e+00,2.079e+00,1.425e+00,7.471e-01,1.890e+00,2.111e+00,1.720e+00,1.702e+00,1.427e+00,4.236e-01,1.858e+00,2.233e+00,1.642e+00,1.936e+00,9.894e-01,1.709e+00,1.542e+00,1.757e+00,1.237e+00,2.047e+00,1.685e+00,2.112e+00,1.873e+00,2.440e+00,8.976e-01,1.344e+00,2.140e+00,1.409e+00,1.279e+00,1.857e+00,1.249e+00,1.473e+00,1.560e+00,1.529e+00,2.055e+00,6.788e-01,2.018e+00,2.249e+00,2.030e+00,1.358e+00,1.285e+00,2.367e+00,2.085e+00,1.683e+00,1.408e+00,1.476e+00,2.136e+00,1.781e+00,1.759e+00,2.276e+00,9.041e-01,1.644e+00,9.277e-01,2.349e+00,1.629e+00,1.439e+00,1.518e+00,1.610e+00,2.552e+00,2.457e+00,2.055e+00,1.474e+00,1.332e+00,2.088e+00
7.411e-02,1.611e-01,7.889e-01,1.357e+00,1.732e+00,1.778e+00,1.450e+00,1.754e+00,3.050e+00,2.104e+00,1.442e+00,2.167e+00,1.999e+00,2.969e+00,2.356e+00,2.856e+00,2.253e+00,1.831e+00,2.510e+00,1.847e+00,2.254e+00,1.643e+00,1.098e+00,3.078e+00,1.715e+00,1.119e+00,2.626e+00,3.040e+00,2.129e+00,2.460e+00,6.788e-01,1.175e+00,2.126e+00,1.892e+00,2.487e+00,2.394e+00,2.794e+00,2.020e+00,1.477e+00,2.447e+00,3.098e+00,1.353e+00,1.587e+00,1.848e+00,1.136e+00,1.649e+00,1.632e+00,2.184e+00,9.510e-01,1.948e+00,2.395e+00,2.088e+00,2.112e+00,2.203e+00,2.388e+00,1.954e+00,2.353e+00,2.334e+00,2.182e+00,1.631e+00,1.288e+00,1.846e+00,1.906e+00,1.963e+00,2.415e+00,1.576e+00,1.624e+00,2.113e+00,1.492e+00,1.310e+00,1.667e+00,2.064e+00,2.244e+00,2.184e+00,2.279e+00,1.971e+00,3.004e+00,2.103e+00,1.839e+00,1.430e+00,2.811e+00,3.104e+00,1.856e+00,2.087e+00,1.260e+00,2.207e+00,2.312e+00,1.220e+00,3.209e+00,2.153e+00,1.571e+00,1.730e+00,2.192e+00,1.607e+00,3.511e+00,1.779e+00,2.259e+00,2.181e+00,2.207e+00
1.009e-01,7.613e-02,3.668e-01,3.845e-01,6.625e-01,6.466e-01,1.341e+00,8.186e-01,1.402e+00,1.804e+00,1.180e+00,2.378e+00,9.634e-01,1.890e+00,1.966e+00,1.825e+00,1.934e+00,2.163e+00,1.353e+00,9.608e-01,2.173e+00,8.857e-01,1.572e+00,1.822e+00,1.296e+00,6.148e-01,1.362e+00,1.402e+00,2.008e+00,2.316e+00,1.029e+00,2.076e+00,2.236e+00,1.809e+00,2.386e+00,2.236e+00,2.264e+00,1.178e+00,6.257e-01,1.801e+00,2.029e+00,1.259e+00,1.485e+00,1.451e+00,3.976e-01,2.049e+00,1.283e+00,1.556e+00,1.863e+00,9.660e-01,1.660e+00,1.022e+00,1.825e+00,1.744e+00,1.563e+00,1.843e+00,2.231e+00,1.512e+00,2.438e+00,9.802e-01,1.253e+00,1.359e+00,1.067e+00,7.399e-01,2.022e+00,1.530e+00,1.884e+00,1.989e+00,1.777e+00,1.419e+00,9.082e-01,2.186e+00,2.278e+00,1.256e+00,9.828e-01,1.479e+00,2.492e+00,1.253e+00,1.737e+00,1.256e+00,1.974e+00,1.670e+00,1.684e+00,1.869e+00,2.032e+00,1.053e+00,2.046e+00,7.300e-01,1.906e+00,1.891e+00,8.863e-01,1.923e+00,1.910e+00,2.159e+00,2.004e+00,2.276e+00,2.008e+00,1.513e+00,1.928e+00
1.907e-01,2.260e-01,1.088e+00,1.515e+00,2.194e+00,2.298e+00,2.537e+00,2.352e+00,3.930e+00,3.585e+00,3.066e+00,4.580e+00,2.938e+00,3.764e+00,4.416e+00,4.076e+00,4.277e+00,4.147e+00,3.850e+00,2.896e+00,4.574e+00,2.320e+00,2.096e+00,4.987e+00,3.307e+00,2.653e+00,4.037e+00,4.717e+00,3.678e+00,4.101e+00,2.132e+00,2.518e+00,4.190e+00,3.390e+00,4.772e+00,4.294e+00,4.685e+00,3.706e+00,1.876e+00,4.317e+00,4.613e+00,3.549e+00,3.090e+00,3.559e+00,1.493e+00,3.770e+00,3.861e+00,2.991e+00,2.565e+00,3.526e+00,3.919e+00,3.585e+00,3.900e+00,3.282e+00,4.189e+00,3.411e+00,4.402e+00,4.040e+00,3.993e+00,2.721e+00,3.124e+00,3.972e+00,3.615e+00,2.839e+00,3.670e+00,2.972e+00,3.580e+00,3.408e+00,3.448e+00,3.154e+00,2.257e+00,3.973e+00,3.913e+00,4.065e+00,3.962e+00,3.441e+00,4.807e+00,3.599e+00,3.665e+00,2.807e+00,3.962e+00,4.555e+00,3.557e+00,4.351e+00,3.790e+00,3.458e+00,3.746e+00,2.468e+00,5.046e+00,3.959e+00,3.522e+00,3.188e+00,3.099e+00,4.485e+00,5.371e+00,4.451e+00,3.232e+00,3.437e+00,4.152e+00
5.308e-01,8.321e-02,6.946e-01,1.398e+00,1.224e+00,2.020e+00,2.647e+00,1.598e+00,2.858e+00,2.232e+00,2.590e+00,3.907e+00,2.244e+00,2.789e+00,3.997e+00,3.849e+00,4.240e+00,3.681e+00,2.898e+00,2.401e+00,3.929e+00,2.247e+00,1.983e+00,3.068e+00,3.146e+00,1.648e+00,2.588e+00,3.669e+00,3.491e+00,4.044e+00,2.472e+00,3.328e+00,3.243e+00,3.681e+00,4.255e+00,3.201e+00,3.658e+00,2.642e+00,1.404e+00,3.404e+00,3.691e+00,3.608e+00,2.458e+00,2.079e+00,8.880e-01,3.807e+00,3.969e+00,2.720e+00,2.769e+00,2.285e+00,2.520e+00,2.554e+00,3.847e+00,2.387e+00,3.535e+00,3.439e+00,3.029e+00,2.498e+00,4.287e+00,1.747e+00,2.919e+00,3.677e+00,2.456e+00,2.561e+00,3.563e+00,3.009e+00,3.352e+00,3.176e+00,2.888e+00,3.471e+00,1.492e+00,3.059e+00,3.228e+00,3.031e+00,2.655e+00,2.040e+00,4.441e+00,2.934e+00,3.355e+00,2.698e+00,3.727e+00,3.337e+00,3.192e+00,2.860e+00,3.142e+00,2.750e+00,3.326e+00,1.847e+00,3.791e+00,3.853e+00,2.776e+00,3.507e+00,3.510e+00,4.131e+00,3.935e+00,3.822e+00,3.382e+00,3.252e+00,3.636e+00
4.896e-01,2.103e-01,1.072e+00,1.046e+00,1.980e+00,1.388e+00,2.528e+00,1.440e+00,3.023e+00,2.615e+00,2.626e+00,4.367e+00,2.452e+00,4.221e+00,4.018e+00,3.440e+00,4.143e+00,3.987e+00,3.142e+00,2.598e+00,3.957e+00,3.037e+00,2.322e+00,3.801e+00,3.691e+00,2.372e+00,2.956e+00,3.247e+00,3.232e+00,4.025e+00,2.619e+00,3.313e+00,4.415e+00,3.334e+00,4.363e+00,3.356e+00,5.365e+00,3.155e+00,2.027e+00,3.554e+00,3.720e+00,3.546e+00,2.572e+00,3.173e+00,1.854e+00,3.390e+00,3.448e+00,3.578e+00,3.160e+00,3.103e+00,3.111e+00,2.870e+00,4.120e+00,3.711e+00,3.469e+00,3.710e+00,4.525e+00,3.334e+00,3.786e+00,2.301e+00,3.033e+00,3.390e+00,2.675e+00,2.775e+00,3.592e+00,2.765e+00,3.414e+00,3.644e+00,3.073e+00,2.974e+00,1.893e+00,4.525e+00,4.116e+00,3.746e+00,2.913e+00,3.478e+00,4.751e+00,3.098e+00,3.736e+00,2.637e+00,3.674e+00,3.530e+00,2.860e+00,3.254e+00,3.861e+00,3.516e+00,3.732e+00,1.847e+00,4.617e+00,3.848e+00,2.438e+00,3.352e+00,4.144e+00,4.388e+00,4.028e+00,3.601e+00,4.045e+00,3.276e+00,4.620e+00
5.030e-01,2.398e-01,1.240e+00,1.464e+00,2.405e+00,2.224e+00,2.518e+00,2.002e+00,3.846e+00,3.320e+00,3.297e+00,4.856e+00,4.122e+00,4.427e+00,4.838e+00,5.526e+00,5.575e+00,5.709e+00,4.979e+00,3.561e+00,5.569e+00,3.434e+00,2.856e+00,5.371e+00,4.889e+00,3.112e+00,4.948e+00,4.776e+00,4.640e+00,4.625e+00,3.008e+00,3.711e+00,5.465e+00,4.784e+00,5.511e+00,4.233e+00,6.466e+00,4.667e+00,3.056e+00,4.515e+00,5.704e+00,5.047e+00,3.226e+00,3.690e+00,2.569e+00,5.192e+00,4.543e+00,4.020e+00,3.043e+00,4.557e+00,3.768e+00,4.178e+00,5.648e+00,4.255e+00,5.034e+00,5.223e+00,4.901e+00,4.684e+00,5.796e+00,3.295e+00,4.666e+00,5.035e+00,3.691e+00,4.256e+00,4.643e+00,4.421e+00,4.872e+00,4.165e+00,4.273e+00,4.192e+00,3.267e+00,5.621e+00,4.480e+00,4.360e+00,4.098e+00,4.047e+00,5.804e+00,4.233e+00,4.623e+00,4.123e+00,5.722e+00,5.117e+00,4.247e+00,4.485e+00,4.835e+00,4.231e+00,5.319e+00,3.077e+00,5.469e+00,5.140e+00,4.520e+00,4.653e+00,5.477e+00,6.102e+00,6.025e+00,5.634e+00,5.383e+00,4.605e+00,5.490e+00
5.863e-01,1.441e-01,9.733e-01,1.739e+00,1.919e+00,2.483e+00,2.745e+00,1.845e+00,3.353e+00,2.623e+00,2.953e+00,4.167e+00,2.599e+00,3.568e+00,5.034e+00,4.393e+00,4.855e+00,3.916e+00,3.751e+00,3.443e+00,4.776e+00,2.806e+00,2.735e+00,4.174e+00,4.119e+00,2.329e+00,4.012e+00,4.352e+00,4.054e+00,4.247e+00,2.575e+00,3.620e+00,3.659e+00,4.367e+00,5.144e+00,3.504e+00,4.662e+00,3.892e+00,1.758e+00,4.545e+00,4.895e+00,4.463e+00,3.347e+00,2.952e+00,1.392e+00,4.001e+00,4.852e+00,3.613e+00,2.842e+00,3.416e+00,3.028e+00,3.682e+00,5.104e+00,3.368e+00,4.721e+00,4.119e+00,3.568e+00,3.041e+00,4.919e+00,2.540e+00,3.356e+00,4.275e+00,2.903e+00,3.274e+00,4.779e+00,3.504e+00,3.692e+00,3.293e+00,3.777e+00,3.577e+00,1.868e+00,3.829e+00,3.642e+00,4.146e+00,3.598e+00,2.820e+00,5.031e+00,3.927e+00,4.612e+00,3.332e+00,4.563e+00,4.407e+00,3.802e+00,4.095e+00,3.793e+00,3.754e+00,4.297e+00,2.879e+00,4.613e+00,4.891e+00,4.243e+00,3.726e+00,4.042e+00,5.053e+00,4.882e+00,4.855e+00,4.174e+00,4.205e+00,3.936e+00
4.559e-01,1.597e-01,9.207e-01,1.405e+00,2.033e+00,1.998e+00,2.586e+00,1.762e+00,3.402e+00,2.446e+00,2.389e+00,4.145e+00,2.957e+00,4.470e+00,4.973e+00,4.346e+00,5.289e+00,5.195e+00,4.319e+00,3.842e+00,5.362e+00,3.596e+00,3.328e+00,4.806e+00,4.533e+00,2.903e+00,4.754e+00,4.889e+00,4.239e+00,4.628e+00,3.479e+00,4.033e+00,5.170e+00,5.084e+00,5.654e+00,4.274e+00,6.376e+00,4.662e+00,2.994e+00,4.434e+00,6.033e+00,5.387e+00,3.876e+00,4.287e+00,3.089e+00,4.549e+00,4.724e+00,4.795e+00,3.557e+00,4.107e+00,3.463e+00,4.510e+00,6.108e+00,4.209e+00,5.106e+00,4.566e+00,5.087e+00,4.344e+00,5.650e+00,3.138e+00,3.848e+00,4.617e+00,3.600e+00,4.868e+00,4.906e+00,4.260e+00,4.438e+00,4.509e+00,4.101e+00,3.905e+00,2.740e+00,5.667e+00,4.400e+00,4.887e+00,4.372e+00,4.403e+00,5.558e+00,4.141e+00,5.142e+00,4.100e+00,5.180e+00,4.463e+00,4.383e+00,4.307e+00,4.044e+00,4.830e+00,4.902e+00,2.423e+00,5.817e+00,5.474e+00,4.378e+00,4.011e+00,5.370e+00,5.900e+00,6.088e+00,5.098e+00,5.636e+00,4.557e+00,4.943e+00
3.849e-01,1.732e-01,9.578e-01,1.263e+00,1.419e+00,1.679e+00,1.582e+00,1.487e+00,2.704e+00,2.461e+00,2.706e+00,3.618e+00,2.714e+00,3.883e+00,3.966e+00,4.423e+00,5.579e+00,5.268e+00,3.595e+00,3.072e+00,5.355e+00,4.094e+00,3.073e+00,4.581e+00,4.517e+00,2.731e+00,3.796e+00,4.502e+00,5.194e+00,4.960e+00,2.750e+00,4.031e+00,4.000e+00,4.229e+00,5.054e+00,4.623e+00,5.132e+00,4.826e+00,2.250e+00,4.221e+00,4.830e+00,4.126e+00,3.123e+00,2.877e+00,2.160e+00,4.857e+00,3.637e+00,3.522e+00,3.287e+00,3.608e+00,3.306e+00,3.603e+00,5.236e+00,4.062e+00,4.228e+00,4.238e+00,3.679e+00,4.076e+00,4.980e+00,2.896e+00,4.250e+00,3.484e+00,3.174e+00,3.677e+00,4.925e+00,4.610e+00,4.051e+00,4.000e+00,3.677e+00,3.479e+00,2.446e+00,4.617e+00,3.987e+00,3.738e+00,3.294e+00,2.827e+00,5.148e+00,3.122e+00,4.746e+00,3.729e+00,5.591e+00,4.497e+00,3.771e+00,4.432e+00,3.640e+00,4.451e+00,5.008e+00,2.484e+00,4.401e+00,5.021e+00,2.981e+00,4.014e+00,5.575e+00,5.019e+00,4.877e+00,4.505e+00,4.413e+00,4.546e+00,4.367e+00
3.611e-01,2.182e-01,1.163e+00,1.764e+00,2.362e+00,2.675e+00,2.498e+00,2.270e+00,3.612e+00,2.980e+00,2.760e+00,4.117e+00,3.116e+00,3.900e+00,3.994e+00,4.919e+00,6.638e+00,5.916e+00,4.344e+00,3.644e+00,5.868e+00,3.509e+00,3.200e+00,6.230e+00,5.223e+00,3.418e+00,5.180e+00,5.693e+00,4.931e+00,4.654e+00,3.387e+00,4.094e+00,5.071e+00,4.394e+00,5.868e+00,5.033e+00,6.072e+00,6.792e+00,3.339e+00,5.307e+00,6.205e+00,4.906e+00,3.928e+00,3.802e+00,3.028e+00,5.415e+00,4.704e+00,4.461e+00,4.133e+00,4.416e+00,5.345e+00,5.077e+00,5.393e+00,4.421e+00,5.390e+00,5.168e+00,3.961e+00,5.784e+00,5.957e+00,3.540e+00,5.009e+00,5.349e+00,4.870e+00,4.294e+00,5.377e+00,4.780e+00,4.196e+00,4.551e+00,3.956e+00,4.070e+00,3.870e+00,6.003e+00,4.948e+00,5.470e+00,4.522e+00,3.630e+00,4.936e+00,4.435e+00,5.429e+00,5.058e+00,5.362e+00,5.708e+00,4.624e+00,5.800e+00,3.996e+00,4.513e+00,4.844e+00,3.640e+00,5.746e+00,5.454e+00,4.693e+00,4.301e+00,5.715e+00,6.092e+00,6.728e+00,5.850e+00,4.683e+00,4.415e+00,5.046e+00
3.035e-01,7.636e-02,5.853e-01,1.353e+00,9.004e-01,1.667e+00,1.267e+00,1.293e+00,2.418e+00,1.869e+00,2.470e+00,3.125e+00,3.045e+00,3.551e+00,4.641e+00,3.983e+00,6.302e+00,6.168e+00,4.785e+00,4.377e+00,6.180e+00,4.467e+00,4.579e+00,5.573e+00,5.493e+00,3.867e+00,4.960e+00,5.442e+00,5.769e+00,5.037e+00,4.148e+00,4.275e+00,4.912e+00,4.717e+00,5.788e+00,5.232e+00,6.012e+00,7.097e+00,3.083e+00,5.743e+00,6.299e+00,6.138e+00,3.872e+00,4.510e+00,3.615e+00,6.183e+00,5.138e+00,4.396e+00,3.901e+00,4.694e+00,4.103e+00,5.511e+00,6.648e+00,4.953e+00,6.304e+00,5.283e+00,4.271e+00,5.399e+00,6.523e+00,3.256e+00,5.128e+00,4.976e+00,5.542e+00,5.435e+00,5.808e+00,5.960e+00,5.481e+00,5.163e+00,4.915e+00,4.265e+00,3.785e+00,5.806e+00,4.693e+00,5.633e+00,5.547e+00,4.452e+00,5.418e+00,4.791e+00,6.132e+00,5.643e+00,6.524e+00,5.100e+00,4.193e+00,5.246e+00,3.955e+00,6.050e+00,5.564e+00,3.800e+00,5.883e+00,6.317e+00,5.292e+00,4.255e+00,6.220e+00,6.748e+00,6.429e+00,6.060e+00,5.552e+00,5.650e+00,4.809e+00
3.193e-01,1.005e-01,5.733e-01,7.544e-01,1.233e+00,1.297e+00,1.248e+00,1.107e+00,2.152e+00,1.939e+00,2.234e+00,2.820e+00,2.279e+00,2.221e+00,2.929e+00,2.888e+00,4.746e+00,4.357e+00,3.818e+00,2.925e+00,4.560e+00,3.587e+00,3.402e+00,5.090e+00,4.725e+00,2.802e+00,3.867e+00,3.969e+00,4.434e+00,4.105e+00,3.450e+00,3.205e+00,3.979e+00,3.469e+00,4.609e+00,4.145e+00,4.305e+00,5.029e+00,3.080e+00,4.303e+00,4.592e+00,4.413e+00,3.528e+00,4.070e+00,2.391e+00,4.383e+00,4.079e+00,3.634e+00,3.954e+00,4.496e+00,3.741e+00,3.609e+00,4.956e+00,3.445e+00,4.710e+00,4.077e+00,3.988e+00,5.174e+00,5.114e+00,2.860e+00,3.891e+00,4.310e+00,4.256e+00,3.698e+00,4.437e+00,4.149e+00,3.429e+00,4.143e+00,3.757e+00,3.647e+00,3.699e+00,5.003e+00,3.550e+00,5.056e+00,4.268e+00,2.796e+00,4.421e+00,3.914e+00,4.090e+00,4.388e+00,4.207e+00,4.569e+00,3.324e+00,5.187e+00,3.589e+00,3.838e+00,4.187e+00,3.111e+00,4.877e+00,4.113e+00,4.306e+00,3.248e+00,4.411e+00,5.644e+00,4.852e+00,4.737e+00,4.474e+00,3.573e+00,4.830e+00
5.122e-01,1.687e-01,9.485e-01,1.070e+00,1.709e+00,1.868e+00,2.820e+00,1.909e+00,3.182e+00,2.840e+00,3.231e+00,4.605e+00,3.306e+00,3.930e+00,4.932e+00,4.953e+00,6.364e+00,6.512e+00,5.260e+00,4.705e+00,6.738e+00,4.908e+00,5.158e+00,6.133e+00,6.276e+00,3.465e+00,5.228e+00,6.140e+00,6.636e+00,6.697e+00,5.027e+00,5.692e+00,6.739e+00,6.985e+00,7.484e+00,6.460e+00,6.916e+00,6.507e+00,4.506e+00,6.057e+00,7.041e+00,7.394e+00,5.649e+00,5.939e+00,3.526e+00,6.791e+00,6.300e+00,6.527e+00,4.897e+00,5.863e+00,4.922e+00,4.683e+00,7.412e+00,5.292e+00,7.201e+00,6.127e+00,6.077e+00,5.866e+00,8.031e+00,4.058e+00,5.526e+00,6.276e+00,4.843e+00,5.256e+00,6.291e+00,6.268e+00,5.527e+00,6.355e+00,5.579e+00,5.636e+00,4.036e+00,6.530e+00,5.444e+00,5.914e+00,4.927e+00,5.186e+00,7.085e+00,5.239e+00,6.542e+00,5.799e+00,6.955e+00,5.892e+00,5.640e+00,6.500e+00,5.648e+00,5.913e+00,6.147e+00,4.535e+00,6.515e+00,7.058e+00,5.546e+00,5.522e+00,6.580e+00,7.483e+00,6.977e+00,7.615e+00,7.326e+00,5.277e+00,7.043e+00
5.624e-01,1.658e-01,1.073e+00,1.989e+00,2.250e+00,2.687e+00,2.750e+00,2.055e+00,4.009e+00,3.505e+00,3.223e+00,4.959e+00,3.396e+00,4.784e+00,5.031e+00,5.102e+00,6.059e+00,5.456e+00,4.699e+00,3.941e+00,6.842e+00,4.899e+00,5.120e+00,5.474e+00,6.395e+00,3.905e+00,5.305e+00,5.956e+00,5.505e+00,6.058e+00,4.222e+00,4.899e+00,6.179e+00,5.898e+00,6.470e+00,5.579e+00,6.984e+00,5.981e+00,4.120e+00,5.577e+00,7.144e+00,6.078e+00,4.675e+00,5.170e+00,3.390e+00,5.872e+00,5.411e+00,6.235e+00,4.006e+00,4.502e+00,5.487e+00,4.428e+00,6.517e+00,5.480e+00,6.386e+00,6.584e+00,4.948e+00,4.800e+00,7.106e+00,3.762e+00,5.523e+00,5.669e+00,5.112e+00,4.580e+00,6.641e+00,5.340e+00,5.538e+00,6.427e+00,5.231e+00,5.195e+00,4.316e+00,6.698e+00,5.763e+00,5.452e+00,4.950e+00,5.247e+00,6.901e+00,5.261e+00,6.445e+00,4.956e+00,6.602e+00,5.573e+00,5.120e+00,4.917e+00,4.329e+00,5.608e+00,6.125e+00,3.821e+00,6.479e+00,6.544e+00,4.918e+00,6.016e+00,6.544e+00,7.139e+00,6.290e+00,6.226e+00,6.040e+00,5.580e+00,6.511e+00
2.220e-01,6.226e-02,3.832e-01,6.087e-01,9.832e-01,1.309e+00,1.186e+00,1.280e+00,2.136e+00,1.912e+00,1.981e+00,2.944e+00,2.373e+00,2.927e+00,3.528e+00,3.245e+00,5.542e+00,5.549e+00,4.574e+00,4.245e+00,5.922e+00,5.046e+00,6.347e+00,6.014e+00,7.044e+00,4.398e+00,4.768e+00,5.446e+00,6.104e+00,6.301e+00,5.443e+00,5.483e+00,6.056e+00,5.859e+00,6.063e+00,5.778e+00,6.370e+00,7.756e+00,5.479e+00,6.665e+00,7.450e+00,7.761e+00,5.914e+00,6.289e+00,4.374e+00,7.070e+00,6.055e+00,6.842e+00,4.505e+00,5.724e+00,4.687e+00,5.147e+00,7.399e+00,5.456e+00,6.727e+00,5.604e+00,6.258e+00,5.543e+00,8.298e+00,4.346e+00,5.014e+00,6.060e+00,5.756e+00,6.078e+00,6.530e+00,6.792e+00,5.133e+00,6.445e+00,5.833e+00,5.440e+00,5.052e+00,7.052e+00,4.939e+00,6.188e+00,5.337e+00,5.374e+00,6.070e+00,5.572e+00,6.203e+00,5.743e+00,6.583e+00,6.357e+00,4.857e+00,6.864e+00,4.919e+00,5.853e+00,5.996e+00,4.762e+00,6.654e+00,6.654e+00,5.935e+00,5.278e+00,6.473e+00,7.776e+00,6.809e+00,7.196e+00,7.318e+00,6.155e+00,7.157e+00
4.051e-01,2.048e-01,1.011e+00,9.712e-01,2.074e+00,1.751e+00,2.208e+00,1.668e+00,2.840e+00,2.504e+00,2.519e+00,3.532e+00,2.214e+00,2.800e+00,3.119e+00,3.649e+00,4.328e+00,4.506e+00,4.006e+00,3.301e+00,5.316e+00,3.637e+00,4.253e+00,4.615e+00,5.615e+00,3.977e+00,4.309e+00,6.089e+00,5.173e+00,5.609e+00,4.036e+00,4.454e+00,5.258e+00,5.769e+00,6.040e+00,5.010e+00,5.813e+00,5.153e+00,3.688e+00,5.610e+00,6.263e+00,6.191e+00,5.010e+00,5.277e+00,2.675e+00,5.136e+00,5.368e+00,5.545e+00,4.322e+00,4.971e+00,5.365e+00,3.458e+00,6.529e+00,4.872e+00,5.470e+00,4.908e+00,5.635e+00,4.935e+00,5.678e+00,3.898e+00,4.398e+00,5.374e+00,4.165e+00,4.485e+00,5.989e+00,4.983e+00,3.912e+00,4.790e+00,4.400e+00,5.082e+00,4.115e+00,5.822e+00,4.810e+00,4.320e+00,4.643e+00,4.101e+00,5.104e+00,4.610e+00,4.944e+00,4.076e+00,4.911e+00,5.952e+00,4.676e+00,5.501e+00,4.148e+00,5.238e+00,4.690e+00,4.211e+00,6.073e+00,5.625e+00,4.648e+00,4.912e+00,5.613e+00,6.459e+00,5.773e+00,5.813e+00,5.614e+00,5.039e+00,5.705e+00
7.851e-02,6.911e-02,3.185e-01,3.838e-01,1.097e+00,1.031e+00,1.574e+00,1.314e+00,1.881e+00,2.091e+00,1.995e+00,3.263e+00,3.049e+00,3.347e+00,3.771e+00,3.968e+00,5.165e+00,5.727e+00,4.100e+00,4.167e+00,5.501e+00,4.011e+00,4.739e+00,6.216e+00,5.518e+00,3.772e+00,5.471e+00,5.356e+00,6.580e+00,5.184e+00,4.467e+00,5.143e+00,5.848e+00,5.466e+00,5.601e+00,5.039e+00,7.144e+00,6.372e+00,4.552e+00,5.964e+00,6.465e+00,6.542e+00,4.969e+00,5.414e+00,4.184e+00,6.243e+00,5.096e+00,5.155e+00,3.907e+00,6.102e+00,4.272e+00,4.781e+00,7.302e+00,5.941e+00,6.126e+00,5.573e+00,5.190e+00,5.521e+00,6.717e+00,4.305e+00,5.635e+00,5.691e+00,4.387e+00,4.739e+00,5.962e+00,6.556e+00,5.540e+00,5.581e+00,5.857e+00,4.419e+00,3.615e+00,6.394e+00,4.984e+00,4.947e+00,4.377e+00,4.920e+00,5.894e+00,4.252e+00,6.542e+00,5.072e+00,6.940e+00,5.654e+00,4.867e+00,5.685e+00,5.317e+00,6.172e+00,5.599e+00,4.641e+00,5.365e+00,6.525e+00,6.050e+00,4.911e+00,6.449e+00,6.838e+00,6.801e+00,6.719e+00,6.438e+00,5.181e+00,5.688e+00
3.247e-01,6.259e-02,5.064e-01,1.155e+00,1.011e+00,1.862e+00,1.873e+00,1.664e+00,2.771e+00,2.195e+00,2.855e+00,3.830e+00,2.990e+00,3.013e+00,4.506e+00,3.973e+00,5.796e+00,5.560e+00,4.397e+00,4.128e+00,5.918e+00,4.946e+00,4.865e+00,6.066e+00,7.278e+00,5.081e+00,5.411e+00,7.184e+00,6.670e+00,7.251e+00,5.655e+00,5.319e+00,6.071e+00,5.844e+00,6.567e+00,6.522e+00,6.756e+00,7.693e+00,5.362e+00,6.730e+00,7.736e+00,7.908e+00,6.250e+00,6.469e+00,4.075e+00,7.405e+00,6.991e+00,6.155e+00,5.344e+00,6.807e+00,4.569e+00,6.196e+00,7.906e+00,5.268e+00,7.036e+00,6.137e+00,6.867e+00,5.646e+00,7.923e+00,4.801e+00,5.857e+00,6.788e+00,6.101e+00,6.579e+00,6.493e+00,6.472e+00,6.146e+00,6.574e+00,5.799e+00,5.783e+00,4.233e+00,7.053e+00,4.814e+00,6.241e+00,5.807e+00,5.545e+00,6.482e+00,5.735e+00,6.163e+00,5.831e+00,6.370e+00,7.201e+00,5.878e+00,6.752e+00,5.170e+00,6.734e+00,5.649e+00,4.906e+00,6.881e+00,7.437e+00,6.033e+00,5.219e+00,6.495e+00,8.235e+00,7.627e+00,7.344e+00,6.768e+00,6.372e+00,7.485e+00
2.778e-01,1.761e-01,8.587e-01,9.078e-01,1.711e+00,1.579e+00,2.074e+00,1.619e+00,2.594e+00,2.217e+00,2.130e+00,3.522e+00,2.776e+00,3.292e+00,3.341e+00,4.233e+00,4.953e+00,5.353e+00,4.415e+00,3.594e+00,6.491e+00,4.710e+00,4.346e+00,5.408e+00,7.343e+00,4.891e+00,5.665e+00,7.401e+00,6.754e+00,7.000e+00,6.068e+00,6.388e+00,7.356e+00,6.707e+00,6.772e+00,6.891e+00,6.968e+00,6.986e+00,5.644e+00,5.678e+00,7.176e+00,7.863e+00,5.935e+00,6.972e+00,4.440e+00,6.741e+00,6.217e+00,7.526e+00,5.975e+00,7.046e+00,6.050e+00,5.354e+00,7.225e+00,6.175e+00,6.500e+00,7.150e+00,6.425e+00,5.626e+00,8.005e+00,4.972e+00,6.326e+00,6.529e+00,5.767e+00,6.465e+00,7.006e+00,6.370e+00,6.159e+00,7.260e+00,4.495e+00,6.030e+00,5.652e+00,8.257e+00,5.834e+00,5.811e+00,5.612e+00,5.514e+00,7.345e+00,6.257e+00,6.134e+00,6.386e+00,5.957e+00,6.690e+00,6.076e+00,6.636e+00,4.802e+00,6.934e+00,5.932e+00,4.721e+00,7.035e+00,7.016e+00,5.948e+00,6.520e+00,6.694e+00,8.087e+00,6.749e+00,6.962e+00,7.956e+00,6.179e+00,7.423e+00
2.713e-01,2.333e-01,1.082e+00,1.085e+00,2.067e+00,1.633e+00,2.280e+00,1.671e+00,3.128e+00,3.283e+00,2.440e+00,4.475e+00,3.481e+00,4.387e+00,4.478e+00,5.266e+00,5.844e+00,6.518e+00,5.282e+00,4.379e+00,7.185e+00,5.360e+00,5.522e+00,8.222e+00,8.176e+00,5.663e+00,6.811e+00,8.040e+00,8.914e+00,9.119e+00,6.556e+00,7.700e+00,8.652e+00,7.498e+00,8.809e+00,8.196e+00,9.601e+00,8.235e+00,7.066e+00,8.598e+00,8.304e+00,8.470e+00,7.943e+00,8.686e+00,6.084e+00,8.750e+00,6.543e+00,8.473e+00,7.255e+00,8.687e+00,7.253e+00,6.668e+00,9.540e+00,7.176e+00,7.794e+00,9.223e+00,8.779e+00,8.005e+00,9.911e+00,6.745e+00,7.818e+00,8.218e+00,7.100e+00,7.275e+00,9.174e+00,7.711e+00,7.573e+00,8.546e+00,6.700e+00,7.004e+00,6.918e+00,1.022e+01,7.285e+00,7.339e+00,6.525e+00,6.578e+00,8.939e+00,6.827e+00,8.146e+00,7.534e+00,8.049e+00,8.672e+00,6.708e+00,8.526e+00,7.438e+00,8.004e+00,7.580e+00,6.108e+00,8.608e+00,8.618e+00,6.845e+00,7.545e+00,7.972e+00,9.897e+00,9.005e+00,9.505e+00,9.723e+00,8.032e+00,8.777e+00
2.529e-01,2.226e-01,1.043e+00,1.002e+00,1.733e+00,1.559e+00,2.321e+00,1.752e+00,2.726e+00,2.531e+00,2.299e+00,3.999e+00,2.238e+00,4.193e+00,4.534e+00,3.920e+00,5.724e+00,6.003e+00,4.249e+00,4.107e+00,6.975e+00,4.778e+00,5.900e+00,6.952e+00,7.528e+00,5.783e+00,6.364e+00,9.033e+00,9.463e+00,9.442e+00,7.421e+00,8.972e+00,9.725e+00,8.719e+00,9.125e+00,9.112e+00,9.905e+00,8.746e+00,6.496e+00,8.629e+00,9.374e+00,9.344e+00,8.452e+00,9.266e+00,6.463e+00,9.478e+00,8.046e+00,8.739e+00,7.558e+00,8.757e+00,8.033e+00,7.294e+00,9.525e+00,8.537e+00,7.769e+00,8.473e+00,8.526e+00,7.756e+00,9.908e+00,6.820e+00,8.251e+00,8.318e+00,7.243e+00,7.905e+00,1.001e+01,8.157e+00,7.789e+00,8.859e+00,7.884e+00,7.481e+00,6.808e+00,1.002e+01,7.718e+00,7.874e+00,7.143e+00,6.769e+00,9.419e+00,7.338e+00,8.798e+00,7.017e+00,8.056e+00,8.870e+00,8.169e+00,8.543e+00,7.751e+00,8.858e+00,7.717e+00,7.227e+00,9.119e+00,8.706e+00,7.833e+00,8.336e+00,8.166e+00,9.433e+00,8.776e+00,8.860e+00,8.747e+00,8.991e+00,8.195e+00
9.218e-02,2.681e-02,2.664e-01,9.304e-01,3.694e-01,1.093e+00,1.098e+00,1.138e+00,2.127e+00,1.487e+00,1.612e+00,2.368e+00,2.619e+00,2.892e+00,3.870e+00,3.226e+00,4.283e+00,4.365e+00,3.912e+00,3.920e+00,4.472e+00,4.345e+00,4.380e+00,6.052e+00,5.269e+00,3.593e+00,4.649e+00,5.714e+00,7.557e+00,7.786e+00,5.845e+00,6.676e+00,6.438e+00,6.102e+00,6.141e+00,6.995e+00,6.092e+00,7.508e+00,5.220e+00,7.463e+00,7.297e+00,6.773e+00,5.841e+00,7.108e+00,4.571e+00,7.355e+00,5.576e+00,5.443e+00,5.105e+00,6.893e+00,5.124e+00,5.989e+00,7.660e+00,5.645e+00,6.631e+00,6.629e+00,6.537e+00,6.106e+00,8.199e+00,4.418e+00,5.736e+00,5.883e+00,5.912e+00,6.622e+00,7.263e+00,6.807e+00,6.621e+00,6.714e+00,6.546e+00,5.511e+00,5.027e+00,6.365e+00,5.307e+00,6.087e+00,6.214e+00,5.283e+00,8.143e+00,5.717e+00,7.024e+00,6.296e+00,7.143e+00,6.822e+00,5.599e+00,5.740e+00,5.502e+00,6.935e+00,6.655e+00,5.261e+00,6.904e+00,6.530e+00,6.074e+00,5.707e+00,6.675e+00,7.387e+00,7.517e+00,6.274e+00,7.586e+00,7.795e+00,5.828e+00
1.593e-01,1.915e-01,8.770e-01,9.920e-01,2.002e+00,2.021e+00,2.030e+00,2.221e+00,3.448e+00,3.137e+00,2.473e+00,4.215e+00,2.859e+00,4.271e+00,4.264e+00,4.695e+00,6.290e+00,6.373e+00,4.761e+00,4.283e+00,7.290e+00,5.331e+00,6.028e+00,7.423e+00,8.350e+00,5.616e+00,6.652e+00,8.412e+00,8.638e+00,9.496e+00,7.142e+00,8.473e+00,1.005e+01,8.747e+00,8.319e+00,9.055e+00,9.532e+00,9.632e+00,7.478e+00,8.955e+00,1.002e+01,9.560e+00,8.580e+00,9.004e+00,6.083e+00,9.207e+00,7.885e+00,9.754e+00,6.818e+00,8.688e+00,7.219e+00,7.341e+00,9.712e+00,8.104e+00,7.989e+00,7.991e+00,8.520e+00,7.594e+00,1.049e+01,7.518e+00,7.235e+00,8.470e+00,6.569e+00,8.748e+00,8.999e+00,8.435e+00,7.257e+00,9.037e+00,8.089e+00,7.790e+00,7.200e+00,1.040e+01,7.221e+00,7.240e+00,6.493e+00,7.671e+00,9.362e+00,7.562e+00,8.848e+00,7.305e+00,8.614e+00,9.353e+00,9.080e+00,9.537e+00,6.948e+00,8.675e+00,8.304e+00,6.211e+00,8.823e+00,9.800e+00,8.238e+00,8.614e+00,8.311e+00,1.068e+01,1.010e+01,9.532e+00,9.690e+00,8.585e+00,9.843e+00
5.046e-01,1.649e-01,1.012e+00,1.767e+00,1.995e+00,2.219e+00,2.205e+00,1.506e+00,3.461e+00,3.259e+00,2.799e+00,4.345e+00,3.087e+00,3.676e+00,4.507e+00,4.480e+00,5.136e+00,5.376e+00,4.755e+00,3.495e+00,5.958e+00,3.639e+00,4.548e+00,5.934e+00,5.920e+00,4.853e+00,5.182e+00,6.677e+00,6.982e+00,8.121e+00,6.301e+00,6.551e+00,8.073e+00,7.775e+00,8.793e+00,6.874e+00,8.725e+00,8.490e+00,5.287e+00,9.028e+00,8.954e+00,7.692e+00,7.470e+00,7.138e+00,4.219e+00,7.785e+00,7.273e+00,6.929e+00,6.395e+00,7.543e+00,6.575e+00,6.154e+00,9.843e+00,6.786e+00,7.556e+00,7.450e+00,7.857e+00,7.728e+00,7.739e+00,6.395e+00,6.736e+00,7.579e+00,6.312e+00,6.860e+00,8.405e+00,7.605e+00,7.599e+00,7.565e+00,7.853e+00,6.628e+00,6.311e+00,8.753e+00,7.206e+00,6.061e+00,7.215e+00,6.616e+00,8.710e+00,5.942e+00,8.414e+00,7.430e+00,6.927e+00,8.328e+00,6.660e+00,6.862e+00,5.872e+00,7.738e+00,6.795e+00,6.010e+00,9.009e+00,9.040e+00,7.930e+00,7.732e+00,8.084e+00,9.679e+00,9.427e+00,8.767e+00,8.079e+00,7.988e+00,7.526e+00
1.173e-01,2.142e-01,8.898e-01,5.481e-01,1.661e+00,1.072e+00,1.744e+00,1.370e+00,2.101e+00,2.611e+00,2.107e+00,3.405e+00,2.904e+00,3.115e+00,3.160e+00,4.197e+00,5.083e+00,6.070e+00,4.700e+00,3.452e+00,6.614e+00,3.468e+00,5.186e+00,5.787e+00,6.637e+00,5.017e+00,5.648e+00,7.815e+00,8.594e+00,8.249e+00,8.006e+00,8.035e+00,9.502e+00,7.673e+00,9.311e+00,7.736e+00,1.040e+01,9.983e+00,7.446e+00,9.183e+00,8.778e+00,8.184e+00,8.413e+00,8.894e+00,6.009e+00,1.026e+01,7.901e+00,9.299e+00,7.271e+00,9.160e+00,8.500e+00,6.825e+00,1.009e+01,6.838e+00,8.344e+00,8.550e+00,8.036e+00,8.566e+00,1.002e+01,7.235e+00,8.365e+00,8.932e+00,7.626e+00,7.461e+00,9.497e+00,8.392e+00,8.004e+00,8.058e+00,8.708e+00,7.333e+00,8.045e+00,1.104e+01,7.586e+00,7.464e+00,6.670e+00,7.728e+00,9.228e+00,7.752e+00,9.230e+00,9.022e+00,6.774e+00,8.959e+00,8.598e+00,1.034e+01,7.151e+00,8.536e+00,8.409e+00,6.801e+00,9.092e+00,9.058e+00,9.102e+00,9.104e+00,8.470e+00,1.149e+01,1.018e+01,9.977e+00,9.472e+00,7.300e+00,8.419e+00
4.825e-01,2.508e-01,1.278e+00,1.275e+00,1.619e+00,1.521e+00,2.199e+00,1.485e+00,2.980e+00,2.430e+00,2.468e+00,3.468e+00,2.429e+00,3.680e+00,4.599e+00,4.357e+00,5.984e+00,6.180e+00,5.340e+00,4.588e+00,7.413e+00,5.618e+00,6.094e+00,7.158e+00,7.735e+00,4.623e+00,6.124e+00,7.713e+00,8.938e+00,9.923e+00,7.491e+00,8.612e+00,1.028e+01,9.206e+00,1.039e+01,1.027e+01,8.739e+00,9.975e+00,6.629e+00,1.045e+01,9.158e+00,8.752e+00,8.920e+00,9.632e+00,5.760e+00,9.845e+00,7.526e+00,9.557e+00,8.652e+00,9.271e+00,8.460e+00,7.270e+00,1.009e+01,7.738e+00,9.042e+00,9.898e+00,9.097e+00,9.060e+00,1.114e+01,7.450e+00,7.467e+00,8.357e+00,7.890e+00,8.969e+00,1.087e+01,7.893e+00,8.188e+00,9.281e+00,8.269e+00,8.777e+00,7.490e+00,1.010e+01,7.991e+00,9.195e+00,7.794e+00,7.694e+00,9.986e+00,8.663e+00,9.932e+00,9.480e+00,9.093e+00,8.973e+00,8.756e+00,9.260e+00,7.432e+00,8.827e+00,9.269e+00,6.910e+00,9.592e+00,1.025e+01,7.741e+00,8.329e+00,8.421e+00,1.118e+01,9.595e+00,9.898e+00,1.003e+01,9.536e+00,8.741e+00
4.633e-01,1.174e-01,7.776e-01,1.257e+00,1.376e+00,2.039e+00,2.332e+00,1.685e+00,2.596e+00,1.992e+00,2.503e+00,3.756e+00,2.263e+00,3.349e+00,4.438e+00,4.126e+00,5.752e+00,5.150e+00,3.945e+00,3.820e+00,6.252e+00,4.830e+00,5.066e+00,5.511e+00,7.304e+00,4.647e+00,5.584e+00,7.707e+00,8.051e+00,8.804e+00,6.956e+00,7.570e+00,8.933e+00,8.789e+00,9.399e+00,9.117e+00,9.197e+00,9.591e+00,6.918e+00,9.746e+00,9.675e+00,8.691e+00,8.523e+00,8.598e+00,5.707e+00,1.016e+01,8.980e+00,8.190e+00,7.912e+00,8.477e+00,7.742e+00,7.619e+00,1.014e+01,7.399e+00,9.056e+00,9.269e+00,8.062e+00,8.291e+00,9.674e+00,7.421e+00,8.508e+00,9.104e+00,7.407e+00,8.702e+00,1.098e+01,7.819e+00,7.846e+00,8.301e+00,9.279e+00,7.639e+00,6.952e+00,9.893e+00,7.303e+00,8.531e+00,8.298e+00,6.736e+00,9.791e+00,8.864e+00,9.226e+00,8.756e+00,8.197e+00,9.777e+00,9.663e+00,8.702e+00,6.828e+00,8.300e+00,8.894e+00,7.662e+00,8.859e+00,9.267e+00,8.201e+00,9.060e+00,9.412e+00,1.062e+01,1.003e+01,9.049e+00,8.824e+00,8.542e+00,9.055e+00
3.384e-01,5.968e-02,4.804e-01,1.003e+00,9.582e-01,1.659e+00,2.227e+00,1.562e+00,2.556e+00,2.292e+00,2.690e+00,4.459e+00,2.894e+00,3.777e+00,4.817e+00,3.628e+00,5.374e+00,5.344e+00,3.977e+00,4.015e+00,5.504e+00,4.557e+00,4.828e+00,5.222e+00,6.151e+00,4.337e+00,4.744e+00,6.027e+00,7.128e+00,8.012e+00,6.550e+00,7.182e+00,9.081e+00,7.958e+00,8.032e+00,8.579e+00,8.090e+00,9.758e+00,6.623e+00,8.541e+00,8.812e+00,9.811e+00,6.913e+00,8.083e+00,5.769e+00,9.825e+00,8.115e+00,6.588e+00,6.560e+00,7.870e+00,6.816e+00,7.058e+00,8.280e+00,8.581e+00,8.294e+00,8.372e+00,7.847e+00,7.539e+00,8.830e+00,5.969e+00,8.351e+00,7.448e+00,7.543e+00,8.553e+00,8.847e+00,8.106e+00,8.741e+00,7.686e+00,8.869e+00,7.571e+00,5.978e+00,8.753e+00,7.293e+00,8.261e+00,8.428e+00,7.756e+00,9.314e+00,8.388e+00,8.793e+00,8.087e+00,8.057e+00,8.525e+00,7.325e+00,6.814e+00,7.048e+00,7.821e+00,7.809e+00,7.224e+00,9.270e+00,8.489e+00,8.344e+00,8.383e+00,8.359e+00,9.034e+00,8.109e+00,8.237e+00,8.902e+00,8.906e+00,9.167e+00
3.759e-01,2.328e-01,1.119e+00,1.115e+00,2.293e+00,1.788e+00,2.156e+00,1.817e+00,3.338e+00,3.056e+00,2.916e+00,4.435e+00,3.195e+00,4.502e+00,4.213e+00,4.519e+00,5.446e+00,5.537e+00,4.435e+00,3.977e+00,6.176e+00,4.995e+00,4.541e+00,6.658e+00,7.503e+00,5.314e+00,6.067e+00,7.501e+00,7.943e+00,8.456e+00,6.627e+00,7.774e+00,1.051e+01,8.957e+00,9.242e+00,9.228e+00,1.095e+01,1.077e+01,8.289e+00,1.003e+01,9.650e+00,1.000e+01,9.122e+00,8.926e+00,7.333e+00,1.022e+01,8.791e+00,1.005e+01,7.672e+00,1.028e+01,8.091e+00,7.223e+00,1.123e+01,1.070e+01,9.152e+00,9.420e+00,1.010e+01,8.895e+00,8.671e+00,9.414e+00,9.562e+00,9.858e+00,7.985e+00,1.048e+01,1.047e+01,9.408e+00,9.581e+00,1.007e+01,9.435e+00,8.731e+00,7.026e+00,1.099e+01,9.000e+00,9.469e+00,8.445e+00,9.737e+00,1.017e+01,8.246e+00,1.012e+01,8.202e+00,9.890e+00,1.084e+01,9.595e+00,8.415e+00,8.560e+00,1.021e+01,9.302e+00,8.146e+00,9.776e+00,1.063e+01,9.656e+00,1.018e+01,9.772e+00,1.029e+01,9.906e+00,1.022e+01,9.974e+00,9.821e+00,1.050e+01
1.372e-01,1.645e-01,7.334e-01,6.393e-01,1.457e+00,1.556e+00,2.383e+00,2.033e+00,2.930e+00,3.409e+00,3.203e+00,5.197e+00,3.016e+00,4.095e+00,4.969e+00,4.351e+00,6.265e+00,6.657e+00,4.715e+00,3.817e+00,7.589e+00,4.231e+00,5.246e+00,6.905e+00,7.711e+00,5.404e+00,6.064e+00,7.841e+00,8.715e+00,8.568e+00,7.843e+00,8.492e+00,1.078e+01,8.677e+00,9.751e+00,9.850e+00,1.189e+01,1.102e+01,8.745e+00,1.029e+01,1.001e+01,1.084e+01,9.903e+00,9.428e+00,6.954e+00,1.205e+01,1.063e+01,1.021e+01,8.678e+00,1.041e+01,8.972e+00,8.065e+00,1.131e+01,1.035e+01,1.001e+01,1.064e+01,9.786e+00,9.642e+00,1.107e+01,9.562e+00,1.046e+01,1.130e+01,8.943e+00,1.001e+01,9.983e+00,1.014e+01,1.092e+01,1.092e+01,1.153e+01,9.332e+00,8.213e+00,1.247e+01,8.919e+00,1.030e+01,9.366e+00,9.635e+00,1.149e+01,9.877e+00,1.072e+01,9.622e+00,1.028e+01,1.030e+01,1.189e+01,1.053e+01,9.158e+00,1.022e+01,9.938e+00,8.115e+00,1.090e+01,1.088e+01,1.117e+01,1.125e+01,9.998e+00,1.156e+01,1.085e+01,1.183e+01,1.058e+01,9.772e+00,1.162e+01
5.492e-01,1.701e-01,1.007e+00,1.417e+00,1.677e+00,1.619e+00,2.056e+00,9.673e-01,2.505e+00,2.145e+00,1.799e+00,3.366e+00,1.868e+00,3.309e+00,3.890e+00,3.418e+00,5.312e+00,5.138e+00,3.886e+00,3.650e+00,6.351e+00,5.308e+00,5.042e+00,6.118e+00,6.422e+00,4.226e+00,5.287e+00,6.595e+00,7.537e+00,8.925e+00,7.284e+00,8.000e+00,9.025e+00,8.569e+00,9.672e+00,9.581e+00,8.736e+00,9.985e+00,7.819e+00,8.835e+00,8.722e+00,9.504e+00,9.480e+00,9.662e+00,7.494e+00,9.461e+00,8.013e+00,9.470e+00,8.395e+00,8.993e+00,8.523e+00,7.707e+00,9.607e+00,8.535e+00,8.720e+00,9.966e+00,8.283e+00,9.586e+00,9.623e+00,7.807e+00,9.253e+00,8.697e+00,9.000e+00,1.010e+01,1.102e+01,8.747e+00,9.183e+00,1.027e+01,8.827e+00,8.666e+00,8.191e+00,1.071e+01,8.746e+00,9.941e+00,8.618e+00,7.522e+00,1.048e+01,9.100e+00,1.107e+01,9.280e+00,8.602e+00,8.836e+00,8.880e+00,8.376e+00,7.611e+00,9.179e+00,9.441e+00,7.611e+00,9.934e+00,9.762e+00,8.762e+00,9.731e+00,9.479e+00,1.117e+01,8.928e+00,8.896e+00,9.955e+00,9.974e+00,8.995e+00
1.742e-01,1.155e-01,6.208e-01,1.004e+00,1.328e+00,1.603e+00,1.910e+00,1.465e+00,2.286e+00,2.693e+00,2.116e+00,3.839e+00,2.821e+00,3.560e+00,3.811e+00,4.236e+00,5.300e+00,5.857e+00,4.327e+00,3.766e+00,6.676e+00,3.992e+00,5.824e+00,5.993e+00,7.110e+00,5.300e+00,5.495e+00,7.721e+00,9.201e+00,9.150e+00,7.800e+00,8.551e+00,1.022e+01,9.193e+00,9.505e+00,9.235e+00,1.182e+01,1.124e+01,9.600e+00,1.100e+01,1.072e+01,1.108e+01,9.495e+00,1.027e+01,8.670e+00,1.280e+01,9.918e+00,1.128e+01,7.869e+00,1.029e+01,9.352e+00,8.683e+00,1.204e+01,9.364e+00,1.034e+01,1.134e+01,9.731e+00,9.479e+00,1.177e+01,9.632e+00,1.034e+01,1.207e+01,9.139e+00,1.091e+01,1.205e+01,1.095e+01,1.090e+01,1.082e+01,1.124e+01,1.002e+01,9.050e+00,1.269e+01,9.583e+00,9.704e+00,8.989e+00,1.020e+01,1.118e+01,1.002e+01,1.175e+01,9.827e+00,1.060e+01,1.009e+01,1.115e+01,1.008e+01,9.522e+00,1.025e+01,1.041e+01,9.653e+00,1.097e+01,1.091e+01,1.113e+01,1.152e+01,1.067e+01,1.210e+01,1.204e+01,1.141e+01,1.075e+01,1.085e+01,1.103e+01
2.318e-01,1.758e-01,8.555e-01,9.041e-01,1.256e+00,1.448e+00,1.847e+00,1.583e+00,2.567e+00,2.143e+00,2.101e+00,3.129e+00,2.127e+00,2.999e+00,4.280e+00,3.817e+00,5.308e+00,5.200e+00,4.541e+00,4.260e+00,6.735e+00,5.120e+00,4.957e+00,7.840e+00,6.949e+00,4.292e+00,5.719e+00,6.921e+00,8.343e+00,8.888e+00,7.258e+00,8.286e+00,1.031e+01,9.451e+00,9.228e+00,9.424e+00,8.973e+00,9.649e+00,8.256e+00,1.158e+01,9.641e+00,1.063e+01,1.010e+01,9.811e+00,7.052e+00,1.042e+01,8.921e+00,1.095e+01,8.794e+00,1.035e+01,8.732e+00,7.767e+00,1.120e+01,8.681e+00,1.030e+01,1.015e+01,9.542e+00,1.065e+01,1.109e+01,9.282e+00,9.349e+00,1.073e+01,8.830e+00,1.025e+01,1.178e+01,8.994e+00,9.470e+00,9.982e+00,9.691e+00,1.036e+01,7.980e+00,1.138e+01,8.895e+00,1.128e+01,9.561e+00,8.537e+00,1.152e+01,9.606e+00,1.098e+01,9.397e+00,1.062e+01,1.003e+01,1.093e+01,1.042e+01,9.619e+00,1.016e+01,9.750e+00,8.931e+00,1.102e+01,9.849e+00,1.007e+01,1.034e+01,8.139e+00,1.144e+01,1.073e+01,1.001e+01,1.037e+01,1.098e+01,1.012e+01
2.521e-01,7.131e-02,4.539e-01,9.210e-01,1.339e+00,1.422e+00,1.586e+00,1.244e+00,2.616e+00,2.293e+00,1.857e+00,3.101e+00,2.461e+00,2.914e+00,3.501e+00,3.308e+00,4.634e+00,4.708e+00,4.285e+00,3.375e+00,6.098e+00,4.450e+00,5.330e+00,6.215e+00,7.123e+00,4.726e+00,6.081e+00,7.626e+00,7.565e+00,8.520e+00,7.209e+00,7.473e+00,9.824e+00,8.801e+00,8.670e+00,8.519e+00,1.040e+01,9.768e+00,9.730e+00,9.901e+00,1.133e+01,1.143e+01,1.143e+01,1.109e+01,8.908e+00,1.093e+01,1.017e+01,1.192e+01,9.830e+00,1.118e+01,9.132e+00,8.523e+00,1.315e+01,1.028e+01,1.166e+01,1.114e+01,1.089e+01,1.069e+01,1.070e+01,9.985e+00,1.083e+01,1.194e+01,1.060e+01,1.193e+01,1.212e+01,1.000e+01,1.143e+01,1.197e+01,1.110e+01,1.080e+01,1.010e+01,1.311e+01,9.520e+00,1.127e+01,9.843e+00,9.735e+00,1.157e+01,1.078e+01,1.077e+01,9.667e+00,1.058e+01,1.085e+01,1.206e+01,9.949e+00,8.823e+00,1.109e+01,1.041e+01,8.898e+00,1.140e+01,1.104e+01,1.191e+01,1.218e+01,1.130e+01,1.313e+01,1.149e+01,1.077e+01,1.235e+01,1.113e+01,1.110e+01
5.459e-01,1.372e-01,9.351e-01,1.731e+00,1.700e+00,2.254e+00,1.860e+00,1.601e+00,3.412e+00,2.719e+00,2.735e+00,3.850e+00,2.794e+00,4.196e+00,4.892e+00,4.552e+00,6.163e+00,5.133e+00,4.668e+00,4.064e+00,5.998e+00,5.127e+00,4.914e+00,7.179e+00,6.577e+00,4.010e+00,5.266e+00,6.002e+00,8.111e+00,8.787e+00,6.046e+00,7.631e+00,8.848e+00,8.798e+00,8.811e+00,8.447e+00,9.568e+00,1.059e+01,7.931e+00,1.124e+01,1.020e+01,1.095e+01,1.017e+01,9.255e+00,6.959e+00,1.099e+01,1.033e+01,1.026e+01,9.176e+00,1.050e+01,8.025e+00,8.251e+00,1.308e+01,1.093e+01,1.073e+01,1.075e+01,1.020e+01,1.099e+01,1.096e+01,9.812e+00,1.037e+01,1.111e+01,9.729e+00,1.179e+01,1.313e+01,1.092e+01,1.030e+01,1.053e+01,1.053e+01,9.678e+00,8.800e+00,1.170e+01,9.675e+00,1.102e+01,1.002e+01,8.692e+00,1.237e+01,1.039e+01,1.158e+01,9.903e+00,1.223e+01,1.155e+01,1.044e+01,1.001e+01,9.386e+00,1.041e+01,1.110e+01,9.144e+00,1.184e+01,1.112e+01,1.089e+01,1.206e+01,1.149e+01,1.174e+01,1.195e+01,1.030e+01,1.196e+01,1.230e+01,1.113e+01
5.590e-01,1.536e-01,1.009e+00,1.944e+00,2.392e+00,2.880e+00,2.812e+00,2.061e+00,3.851e+00,3.317e+00,3.191e+00,4.775e+00,2.894e+00,3.584e+00,4.563e+00,4.647e+00,5.954e+00,5.128e+00,4.678e+00,3.784e+00,6.962e+00,4.831e+00,5.144e+00,6.390e+00,8.074e+00,5.817e+00,5.990e+00,8.780e+00,8.216e+00,9.080e+00,7.306e+00,7.187e+00,7.821e+00,7.906e+00,8.882e+00,8.269e+00,9.613e+00,9.593e+00,8.341e+00,9.514e+00,1.107e+01,1.172e+01,1.078e+01,1.141e+01,7.814e+00,1.150e+01,1.230e+01,1.178e+01,9.503e+00,1.180e+01,9.337e+00,1.018e+01,1.392e+01,9.981e+00,1.055e+01,1.080e+01,1.084e+01,1.006e+01,1.293e+01,1.068e+01,1.080e+01,1.346e+01,1.100e+01,1.212e+01,1.381e+01,1.166e+01,1.014e+01,1.243e+01,9.556e+00,1.096e+01,9.035e+00,1.308e+01,9.948e+00,1.171e+01,9.979e+00,9.579e+00,1.239e+01,1.139e+01,1.013e+01,9.464e+00,1.141e+01,1.147e+01,1.100e+01,1.138e+01,9.604e+00,1.097e+01,1.033e+01,1.027e+01,1.263e+01,1.228e+01,1.188e+01,1.178e+01,1.057e+01,1.362e+01,1.316e+01,1.113e+01,1.121e+01,1.155e+01,1.240e+01
3.639e-01,4.965e-02,4.300e-01,9.175e-01,8.987e-01,1.186e+00,1.774e+00,1.110e+00,2.420e+00,1.786e+00,2.375e+00,3.382e+00,2.547e+00,3.122e+00,4.325e+00,2.981e+00,4.937e+00,4.595e+00,3.898e+00,4.009e+00,5.639e+00,5.333e+00,5.398e+00,5.612e+00,6.659e+00,4.562e+00,4.906e+00,6.551e+00,6.395e+00,7.695e+00,7.456e+00,6.918e+00,8.042e+00,6.824e+00,7.652e+00,7.500e+00,9.193e+00,9.861e+00,9.160e+00,9.007e+00,9.113e+00,1.161e+01,1.085e+01,1.078e+01,8.808e+00,1.161e+01,1.247e+01,1.187e+01,9.201e+00,1.085e+01,8.554e+00,9.069e+00,1.229e+01,1.096e+01,1.104e+01,1.030e+01,1.077e+01,1.003e+01,1.112e+01,1.028e+01,1.078e+01,1.228e+01,1.174e+01,1.242e+01,1.216e+01,1.150e+01,1.195e+01,1.234e+01,1.066e+01,1.015e+01,8.470e+00,1.257e+01,9.759e+00,1.223e+01,9.528e+00,1.059e+01,1.146e+01,1.116e+01,1.161e+01,9.071e+00,1.126e+01,1.057e+01,1.044e+01,1.066e+01,9.285e+00,1.168e+01,1.120e+01,8.525e+00,1.191e+01,1.184e+01,1.182e+01,1.183e+01,1.064e+01,1.254e+01,1.054e+01,1.005e+01,1.180e+01,1.112e+01,1.182e+01
5.578e-01,1.593e-01,9.353e-01,1.272e+00,2.117e+00,2.210e+00,2.301e+00,1.832e+00,3.407e+00,2.378e+00,2.796e+00,4.149e+00,3.192e+00,3.823e+00,4.563e+00,4.756e+00,6.908e+00,6.393e+00,5.350e+00,4.661e+00,7.437e+00,6.054e+00,6.168e+00,7.417e+00,8.823e+00,5.825e+00,6.582e+00,8.814e+00,8.423e+00,8.926e+00,8.026e+00,8.147e+00,9.246e+00,8.832e+00,1.002e+01,9.105e+00,1.062e+01,1.099e+01,9.543e+00,1.115e+01,1.123e+01,1.331e+01,1.152e+01,1.079e+01,9.966e+00,1.350e+01,1.308e+01,1.311e+01,9.751e+00,1.237e+01,9.955e+00,1.012e+01,1.359e+01,1.085e+01,1.100e+01,1.170e+01,1.140e+01,1.155e+01,1.371e+01,1.193e+01,1.225e+01,1.361e+01,1.199e+01,1.343e+01,1.435e+01,1.342e+01,1.127e+01,1.281e+01,1.091e+01,1.183e+01,1.095e+01,1.482e+01,1.014e+01,1.311e+01,1.170e+01,1.012e+01,1.269e+01,1.181e+01,1.254e+01,1.069e+01,1.228e+01,1.359e+01,1.206e+01,1.104e+01,9.270e+00,1.261e+01,1.177e+01,1.026e+01,1.346e+01,1.205e+01,1.211e+01,1.288e+01,1.254e+01,1.413e+01,1.260e+01,1.293e+01,1.341e+01,1.234e+01,1.316e+01
1.495e-01,2.013e-01,9.030e-01,9.797e-01,2.237e+00,2.083e+00,2.670e+00,2.247e+00,3.067e+00,2.537e+00,1.763e+00,3.637e+00,2.039e+00,3.549e+00,3.551e+00,3.936e+00,4.540e+00,4.774e+00,4.193e+00,4.135e+00,6.450e+00,4.306e+00,5.220e+00,5.845e+00,7.056e+00,4.693e+00,6.015e+00,8.371e+00,7.769e+00,8.494e+00,7.807e+00,8.512e+00,1.047e+01,9.637e+00,9.937e+00,9.810e+00,1.073e+01,1.069e+01,9.923e+00,1.100e+01,1.173e+01,1.165e+01,1.160e+01,1.223e+01,1.014e+01,1.371e+01,1.253e+01,1.420e+01,1.059e+01,1.144e+01,1.168e+01,1.064e+01,1.395e+01,1.182e+01,1.270e+01,1.082e+01,1.209e+01,1.101e+01,1.294e+01,1.244e+01,1.173e+01,1.372e+01,1.197e+01,1.257e+01,1.478e+01,1.258e+01,1.239e+01,1.354e+01,1.155e+01,1.172e+01,1.013e+01,1.397e+01,1.166e+01,1.346e+01,1.092e+01,1.135e+01,1.306e+01,1.205e+01,1.255e+01,1.008e+01,1.214e+01,1.355e+01,1.316e+01,1.221e+01,1.028e+01,1.241e+01,1.206e+01,1.102e+01,1.292e+01,1.286e+01,1.252e+01,1.345e+01,1.091e+01,1.364e+01,1.340e+01,1.253e+01,1.288e+01,1.163e+01,1.280e+01
1.345e-02,1.413e-02,8.320e-02,2.351e-01,2.862e-01,6.551e-01,9.199e-01,9.786e-01,1.701e+00,2.080e+00,2.009e+00,3.186e+00,2.166e+00,2.453e+00,3.441e+00,2.266e+00,4.381e+00,4.582e+00,3.561e+00,3.252e+00,5.008e+00,4.410e+00,5.042e+00,6.137e+00,5.906e+00,4.295e+00,4.443e+00,5.999e+00,7.132e+00,7.842e+00,6.591e+00,6.760e+00,9.121e+00,7.227e+00,8.406e+00,9.183e+00,8.316e+00,9.875e+00,8.358e+00,1.015e+01,8.565e+00,1.101e+01,9.873e+00,1.089e+01,8.614e+00,1.276e+01,1.118e+01,1.064e+01,1.089e+01,1.133e+01,9.324e+00,8.945e+00,1.193e+01,1.151e+01,1.075e+01,1.071e+01,1.125e+01,1.133e+01,1.177e+01,1.122e+01,1.165e+01,1.251e+01,1.238e+01,1.195e+01,1.262e+01,1.219e+01,1.244e+01,1.300e+01,1.072e+01,1.039e+01,1.007e+01,1.227e+01,1.038e+01,1.237e+01,1.148e+01,9.958e+00,1.140e+01,1.148e+01,1.113e+01,1.000e+01,1.153e+01,1.200e+01,1.093e+01,1.162e+01,9.661e+00,1.111e+01,1.019e+01,9.683e+00,1.209e+01,1.211e+01,1.084e+01,1.224e+01,1.011e+01,1.242e+01,1.063e+01,1.181e+01,1.301e+01,1.119e+01,1.288e+01
1.854e-01,1.467e-01,6.720e-01,6.438e-01,1.767e+00,1.648e+00,2.208e+00,1.877e+00,2.749e+00,2.998e+00,2.624e+00,4.374e+00,2.850e+00,3.869e+00,4.306e+00,4.262e+00,5.534e+00,5.748e+00,4.933e+00,4.378e+00,6.676e+00,4.558e+00,5.972e+00,7.061e+00,8.233e+00,5.493e+00,6.279e+00,7.613e+00,8.836e+00,8.445e+00,6.955e+00,8.226e+00,9.686e+00,8.875e+00,8.886e+00,8.826e+00,1.048e+01,1.079e+01,8.943e+00,1.085e+01,1.106e+01,1.258e+01,1.118e+01,1.112e+01,8.824e+00,1.307e+01,1.180e+01,1.240e+01,1.179e+01,1.356e+01,1.125e+01,1.081e+01,1.590e+01,1.301e+01,1.283e+01,1.221e+01,1.289e+01,1.116e+01,1.475e+01,1.302e+01,1.229e+01,1.371e+01,1.192e+01,1.328e+01,1.460e+01,1.339e+01,1.277e+01,1.270e+01,1.224e+01,1.115e+01,9.877e+00,1.461e+01,1.181e+01,1.335e+01,1.079e+01,1.136e+01,1.317e+01,1.171e+01,1.233e+01,1.044e+01,1.354e+01,1.403e+01,1.374e+01,1.307e+01,1.104e+01,1.364e+01,1.241e+01,1.232e+01,1.335e+01,1.369e+01,1.290e+01,1.345e+01,1.232e+01,1.426e+01,1.362e+01,1.480e+01,1.544e+01,1.316e+01,1.412e+01
1.035e-01,2.033e-01,8.980e-01,7.464e-01,1.046e+00,1.143e+00,1.643e+00,1.765e+00,2.760e+00,2.303e+00,2.381e+00,3.357e+00,3.146e+00,4.059e+00,4.989e+00,4.524e+00,6.025e+00,6.735e+00,5.313e+00,4.753e+00,6.917e+00,5.381e+00,6.325e+00,7.974e+00,7.278e+00,5.107e+00,6.882e+00,9.024e+00,1.106e+01,1.119e+01,8.682e+00,9.804e+00,1.155e+01,1.029e+01,1.115e+01,1.164e+01,1.095e+01,1.184e+01,9.122e+00,1.234e+01,1.243e+01,1.203e+01,1.134e+01,1.236e+01,8.621e+00,1.459e+01,1.156e+01,1.181e+01,1.180e+01,1.442e+01,1.042e+01,1.230e+01,1.531e+01,1.314e+01,1.309e+01,1.334e+01,1.331e+01,1.268e+01,1.578e+01,1.237e+01,1.236e+01,1.279e+01,1.214e+01,1.348e+01,1.584e+01,1.394e+01,1.350e+01,1.312e+01,1.353e+01,1.202e+01,1.078e+01,1.402e+01,1.112e+01,1.337e+01,1.099e+01,1.016e+01,1.474e+01,1.292e+01,1.334e+01,1.152e+01,1.470e+01,1.326e+01,1.343e+01,1.393e+01,1.270e+01,1.289e+01,1.328e+01,1.142e+01,1.456e+01,1.422e+01,1.320e+01,1.304e+01,1.315e+01,1.493e+01,1.494e+01,1.287e+01,1.516e+01,1.491e+01,1.332e+01
2.643e-01,1.079e-01,6.139e-01,1.046e+00,1.754e+00,1.898e+00,2.699e+00,1.813e+00,2.933e+00,3.056e+00,2.324e+00,4.655e+00,2.807e+00,3.961e+00,4.143e+00,4.618e+00,5.764e+00,6.069e+00,4.069e+00,3.696e+00,6.929e+00,4.571e+00,5.088e+00,6.013e+00,6.888e+00,4.764e+00,5.962e+00,8.122e+00,7.716e+00,8.344e+00,7.419e+00,8.066e+00,9.802e+00,9.081e+00,1.041e+01,9.349e+00,1.101e+01,1.033e+01,9.438e+00,1.055e+01,1.124e+01,1.215e+01,1.149e+01,1.109e+01,9.631e+00,1.383e+01,1.223e+01,1.348e+01,1.177e+01,1.309e+01,1.166e+01,1.093e+01,1.533e+01,1.353e+01,1.192e+01,1.336e+01,1.353e+01,1.340e+01,1.446e+01,1.381e+01,1.381e+01,1.438e+01,1.319e+01,1.392e+01,1.599e+01,1.449e+01,1.415e+01,1.379e+01,1.182e+01,1.160e+01,1.120e+01,1.639e+01,1.218e+01,1.362e+01,1.175e+01,1.240e+01,1.350e+01,1.170e+01,1.391e+01,1.152e+01,1.311e+01,1.427e+01,1.434e+01,1.193e+01,1.119e+01,1.363e+01,1.243e+01,1.108e+01,1.420e+01,1.376e+01,1.228e+01,1.472e+01,1.353e+01,1.491e+01,1.515e+01,1.419e+01,1.498e+01,1.345e+01,1.466e+01
1.222e-01,9.892e-02,4.649e-01,5.970e-01,1.251e+00,9.697e-01,1.777e+00,1.338e+00,2.600e+00,2.768e+00,2.386e+00,4.120e+00,2.825e+00,4.088e+00,4.436e+00,3.299e+00,4.993e+00,5.456e+00,4.214e+00,3.764e+00,6.440e+00,5.439e+00,6.196e+00,6.423e+00,7.078e+00,5.232e+00,6.294e+00,8.194e+00,8.241e+00,9.291e+00,7.829e+00,7.655e+00,1.007e+01,8.641e+00,9.798e+00,9.796e+00,1.103e+01,9.872e+00,9.482e+00,9.830e+00,1.131e+01,1.105e+01,1.188e+01,1.255e+01,1.023e+01,1.296e+01,1.196e+01,1.240e+01,1.174e+01,1.348e+01,1.144e+01,1.135e+01,1.502e+01,1.255e+01,1.258e+01,1.284e+01,1.464e+01,1.337e+01,1.464e+01,1.350e+01,1.255e+01,1.427e+01,1.358e+01,1.359e+01,1.605e+01,1.377e+01,1.427e+01,1.480e+01,1.386e+01,1.039e+01,1.142e+01,1.648e+01,1.174e+01,1.368e+01,1.230e+01,1.282e+01,1.385e+01,1.290e+01,1.303e+01,1.079e+01,1.331e+01,1.362e+01,1.485e+01,1.277e+01,1.090e+01,1.404e+01,1.338e+01,1.116e+01,1.402e+01,1.379e+01,1.227e+01,1.293e+01,1.382e+01,1.479e+01,1.396e+01,1.361e+01,1.517e+01,1.352e+01,1.502e+01
4.261e-01,8.713e-02,6.632e-01,1.417e+00,1.416e+00,1.991e+00,2.154e+00,1.562e+00,2.984e+00,2.850e+00,2.888e+00,4.408e+00,2.344e+00,3.940e+00,4.874e+00,3.516e+00,6.405e+00,5.745e+00,4.645e+00,4.129e+00,7.541e+00,5.638e+00,6.884e+00,6.916e+00,8.226e+00,5.967e+00,6.036e+00,8.855e+00,8.815e+00,9.773e+00,8.582e+00,8.636e+00,1.036e+01,9.513e+00,1.066e+01,9.636e+00,1.121e+01,1.163e+01,9.203e+00,1.117e+01,1.122e+01,1.258e+01,1.253e+01,1.201e+01,9.134e+00,1.309e+01,1.361e+01,1.333e+01,1.261e+01,1.322e+01,1.212e+01,1.118e+01,1.642e+01,1.453e+01,1.398e+01,1.473e+01,1.387e+01,1.403e+01,1.604e+01,1.358e+01,1.439e+01,1.485e+01,1.491e+01,1.450e+01,1.627e+01,1.513e+01,1.448e+01,1.480e+01,1.338e+01,1.171e+01,1.299e+01,1.724e+01,1.235e+01,1.506e+01,1.358e+01,1.274e+01,1.443e+01,1.308e+01,1.536e+01,1.242e+01,1.338e+01,1.413e+01,1.471e+01,1.422e+01,1.105e+01,1.417e+01,1.286e+01,1.097e+01,1.555e+01,1.452e+01,1.399e+01,1.519e+01,1.397e+01,1.604e+01,1.458e+01,1.490e+01,1.611e+01,1.374e+01,1.558e+01
1.122e-01,1.183e-01,6.248e-01,1.260e+00,1.813e+00,2.115e+00,2.418e+00,2.114e+00,3.381e+00,3.026e+00,2.089e+00,4.318e+00,3.055e+00,4.278e+00,4.261e+00,4.731e+00,5.365e+00,5.701e+00,4.713e+00,4.273e+00,7.057e+00,5.225e+00,5.238e+00,6.757e+00,7.257e+00,5.192e+00,6.151e+00,8.596e+00,8.587e+00,9.092e+00,7.936e+00,8.764e+00,9.357e+00,9.236e+00,1.000e+01,9.851e+00,9.828e+00,1.039e+01,9.416e+00,1.042e+01,1.108e+01,1.241e+01,1.024e+01,1.108e+01,9.145e+00,1.291e+01,1.129e+01,1.242e+01,1.055e+01,1.281e+01,1.143e+01,1.071e+01,1.449e+01,1.400e+01,1.267e+01,1.346e+01,1.387e+01,1.261e+01,1.428e+01,1.277e+01,1.352e+01,1.352e+01,1.386e+01,1.421e+01,1.629e+01,1.492e+01,1.490e+01,1.500e+01,1.191e+01,1.170e+01,1.136e+01,1.530e+01,1.266e+01,1.389e+01,1.341e+01,1.197e+01,1.464e+01,1.274e+01,1.413e+01,1.110e+01,1.453e+01,1.356e+01,1.323e+01,1.131e+01,1.114e+01,1.344e+01,1.227e+01,1.189e+01,1.449e+01,1.355e+01,1.370e+01,1.399e+01,1.320e+01,1.387e+01,1.334e+01,1.322e+01,1.512e+01,1.532e+01,1.418e+01
8.666e-03,1.994e-01,7.976e-01,3.939e-01,9.441e-01,6.890e-01,1.156e+00,1.383e+00,1.875e+00,1.601e+00,1.965e+00,2.798e+00,2.806e+00,3.602e+00,3.755e+00,3.485e+00,5.141e+00,5.687e+00,4.181e+00,3.595e+00,6.176e+00,5.008e+00,4.932e+00,6.086e+00,6.690e+00,4.903e+00,5.939e+00,7.202e+00,7.411e+00,8.047e+00,7.530e+00,6.935e+00,9.961e+00,7.706e+00,8.402e+00,9.076e+00,8.852e+00,1.039e+01,7.823e+00,9.538e+00,1.030e+01,1.107e+01,9.783e+00,1.006e+01,7.471e+00,1.182e+01,1.089e+01,1.054e+01,1.019e+01,1.316e+01,9.682e+00,1.128e+01,1.320e+01,1.236e+01,1.312e+01,1.297e+01,1.389e+01,1.288e+01,1.439e+01,1.336e+01,1.311e+01,1.239e+01,1.325e+01,1.369e+01,1.495e+01,1.350e+01,1.311e+01,1.315e+01,1.258e+01,1.112e+01,1.108e+01,1.633e+01,1.051e+01,1.408e+01,1.272e+01,1.324e+01,1.373e+01,1.113e+01,1.401e+01,1.210e+01,1.379e+01,1.409e+01,1.434e+01,1.288e+01,1.103e+01,1.311e+01,1.246e+01,1.074e+01,1.304e+01,1.323e+01,1.326e+01,1.327e+01,1.254e+01,1.522e+01,1.403e+01,1.346e+01,1.445e+01,1.213e+01,1.434e+01
3.637e-01,2.331e-01,1.098e+00,9.507e-01,2.172e+00,1.780e+00,2.771e+00,1.924e+00,3.098e+00,3.001e+00,2.731e+00,4.649e+00,2.900e+00,4.153e+00,4.551e+00,4.462e+00,5.490e+00,6.192e+00,5.083e+00,4.219e+00,7.159e+00,4.615e+00,6.301e+00,6.648e+00,8.387e+00,6.223e+00,6.795e+00,9.337e+00,9.788e+00,1.002e+01,7.997e+00,8.538e+00,1.123e+01,9.738e+00,9.941e+00,9.686e+00,1.248e+01,1.057e+01,9.157e+00,1.063e+01,1.118e+01,1.186e+01,1.116e+01,1.210e+01,9.298e+00,1.296e+01,1.157e+01,1.299e+01,1.082e+01,1.220e+01,1.043e+01,1.024e+01,1.452e+01,1.384e+01,1.331e+01,1.389e+01,1.462e+01,1.359e+01,1.608e+01,1.301e+01,1.330e+01,1.395e+01,1.342e+01,1.358e+01,1.565e+01,1.364e+01,1.382e+01,1.454e+01,1.291e+01,1.153e+01,1.281e+01,1.670e+01,1.218e+01,1.296e+01,1.290e+01,1.321e+01,1.347e+01,1.218e+01,1.441e+01,1.094e+01,1.344e+01,1.499e+01,1.459e+01,1.408e+01,1.234e+01,1.329e+01,1.282e+01,1.135e+01,1.458e+01,1.395e+01,1.363e+01,1.373e+01,1.347e+01,1.609e+01,1.494e+01,1.450e+01,1.464e+01,1.309e+01,1.513e+01
1.059e-01,1.919e-02,2.255e-01,1.020e+00,1.080e+00,1.480e+00,1.603e+00,1.146e+00,2.242e+00,2.426e+00,1.633e+00,3.229e+00,2.126e+00,2.782e+00,3.782e+00,3.041e+00,5.092e+00,5.098e+00,3.774e+00,4.057e+00,6.105e+00,4.397e+00,6.165e+00,7.094e+00,7.136e+00,5.493e+00,6.055e+00,7.694e+00,8.180e+00,8.631e+00,7.416e+00,8.054e+00,8.796e+00,7.582e+00,9.139e+00,8.879e+00,9.437e+00,1.130e+01,8.889e+00,1.172e+01,1.040e+01,1.227e+01,1.142e+01,1.239e+01,1.017e+01,1.382e+01,1.188e+01,1.270e+01,1.157e+01,1.289e+01,1.129e+01,1.131e+01,1.544e+01,1.408e+01,1.355e+01,1.509e+01,1.589e+01,1.391e+01,1.641e+01,1.563e+01,1.432e+01,1.595e+01,1.584e+01,1.558e+01,1.750e+01,1.641e+01,1.662e+01,1.594e+01,1.393e+01,1.351e+01,1.381e+01,1.687e+01,1.370e+01,1.555e+01,1.416e+01,1.440e+01,1.300e+01,1.351e+01,1.644e+01,1.206e+01,1.544e+01,1.613e+01,1.470e+01,1.406e+01,1.236e+01,1.519e+01,1.386e+01,1.240e+01,1.505e+01,1.633e+01,1.487e+01,1.510e+01,1.478e+01,1.716e+01,1.567e+01,1.511e+01,1.561e+01,1.626e+01,1.454e+01
5.919e-01,1.045e-01,7.275e-01,9.617e-01,1.360e+00,1.544e+00,2.222e+00,1.025e+00,1.879e+00,2.048e+00,2.624e+00,3.629e+00,2.274e+00,2.684e+00,3.974e+00,3.565e+00,5.948e+00,5.882e+00,4.145e+00,4.299e+00,6.487e+00,4.526e+00,6.283e+00,5.283e+00,7.128e+00,4.771e+00,5.572e+00,6.743e+00,7.983e+00,8.275e+00,7.101e+00,7.941e+00,1.010e+01,9.691e+00,9.722e+00,9.706e+00,1.029e+01,1.257e+01,8.965e+00,1.119e+01,1.141e+01,1.352e+01,1.065e+01,1.149e+01,8.774e+00,1.456e+01,1.327e+01,1.281e+01,1.205e+01,1.283e+01,1.141e+01,1.105e+01,1.604e+01,1.474e+01,1.476e+01,1.514e+01,1.529e+01,1.451e+01,1.624e+01,1.462e+01,1.632e+01,1.659e+01,1.470e+01,1.639e+01,1.745e+01,1.691e+01,1.657e+01,1.534e+01,1.494e+01,1.391e+01,1.374e+01,1.784e+01,1.434e+01,1.567e+01,1.423e+01,1.621e+01,1.416e+01,1.445e+01,1.701e+01,1.365e+01,1.613e+01,1.580e+01,1.656e+01,1.416e+01,1.382e+01,1.526e+01,1.372e+01,1.421e+01,1.468e+01,1.701e+01,1.535e+01,1.536e+01,1.550e+01,1.818e+01,1.489e+01,1.558e+01,1.660e+01,1.619e+01,1.668e+01
2.953e-01,5.693e-02,4.131e-01,8.541e-01,1.360e+00,1.850e+00,1.764e+00,1.765e+00,2.950e+00,2.401e+00,2.539e+00,3.738e+00,2.652e+00,3.327e+00,4.351e+00,3.812e+00,5.688e+00,5.237e+00,4.491e+00,4.387e+00,6.339e+00,5.593e+00,6.566e+00,6.700e+00,8.189e+00,5.262e+00,6.438e+00,8.235e+00,8.827e+00,9.499e+00,7.422e+00,8.402e+00,9.597e+00,9.026e+00,8.903e+00,9.578e+00,1.017e+01,1.128e+01,9.837e+00,1.145e+01,1.193e+01,1.284e+01,1.224e+01,1.188e+01,1.041e+01,1.387e+01,1.298e+01,1.344e+01,1.130e+01,1.311e+01,1.098e+01,1.151e+01,1.543e+01,1.433e+01,1.395e+01,1.456e+01,1.479e+01,1.433e+01,1.671e+01,1.528e+01,1.616e+01,1.589e+01,1.615e+01,1.695e+01,1.889e+01,1.679e+01,1.545e+01,1.639e+01,1.528e+01,1.290e+01,1.399e+01,1.831e+01,1.413e+01,1.596e+01,1.591e+01,1.445e+01,1.558e+01,1.496e+01,1.649e+01,1.156e+01,1.618e+01,1.760e+01,1.628e+01,1.560e+01,1.300e+01,1.599e+01,1.471e+01,1.380e+01,1.615e+01,1.534e+01,1.577e+01,1.528e+01,1.567e+01,1.678e+01,1.531e+01,1.575e+01,1.752e+01,1.599e+01,1.620e+01
5.110e-01,8.613e-02,7.216e-01,1.602e+00,1.490e+00,2.380e+00,2.611e+00,1.855e+00,3.305e+00,2.733e+00,2.622e+00,4.217e+00,2.785e+00,3.599e+00,4.265e+00,4.482e+00,6.156e+00,5.633e+00,4.031e+00,3.500e+00,5.525e+00,3.976e+00,4.996e+00,5.737e+00,6.149e+00,3.837e+00,5.586e+00,7.434e+00,8.767e+00,9.340e+00,7.045e+00,8.517e+00,1.029e+01,9.291e+00,1.045e+01,1.048e+01,1.056e+01,1.247e+01,9.338e+00,1.163e+01,1.250e+01,1.174e+01,1.084e+01,1.097e+01,9.417e+00,1.579e+01,1.268e+01,1.293e+01,1.337e+01,1.341e+01,1.169e+01,1.179e+01,1.526e+01,1.443e+01,1.322e+01,1.506e+01,1.574e+01,1.567e+01,1.737e+01,1.655e+01,1.767e+01,1.698e+01,1.525e+01,1.720e+01,1.891e+01,1.746e+01,1.801e+01,1.632e+01,1.493e+01,1.435e+01,1.450e+01,1.858e+01,1.645e+01,1.650e+01,1.556e+01,1.498e+01,1.651e+01,1.498e+01,1.684e+01,1.370e+01,1.613e+01,1.925e+01,1.703e+01,1.684e+01,1.407e+01,1.587e+01,1.439e+01,1.402e+01,1.754e+01,1.749e+01,1.568e+01,1.660e+01,1.722e+01,1.741e+01,1.742e+01,1.597e+01,1.724e+01,1.683e+01,1.640e+01
2.820e-01,1.560e-01,8.180e-01,1.122e+00,1.784e+00,1.844e+00,2.341e+00,1.822e+00,2.813e+00,2.219e+00,2.000e+00,3.640e+00,3.052e+00,3.970e+00,3.643e+00,4.666e+00,6.399e+00,6.648e+00,4.927e+00,4.361e+00,6.675e+00,4.899e+00,5.639e+00,6.542e+00,7.924e+00,5.341e+00,6.381e+00,8.548e+00,8.548e+00,8.881e+00,7.882e+00,8.519e+00,9.831e+00,8.914e+00,9.760e+00,9.216e+00,1.123e+01,1.206e+01,9.961e+00,1.052e+01,1.252e+01,1.213e+01,1.037e+01,1.138e+01,9.753e+00,1.437e+01,1.195e+01,1.326e+01,1.290e+01,1.285e+01,1.195e+01,1.165e+01,1.590e+01,1.412e+01,1.456e+01,1.501e+01,1.629e+01,1.546e+01,1.748e+01,1.582e+01,1.587e+01,1.732e+01,1.549e+01,1.701e+01,1.794e+01,1.695e+01,1.770e+01,1.609e+01,1.438e+01,1.383e+01,1.494e+01,1.898e+01,1.529e+01,1.627e+01,1.506e+01,1.516e+01,1.521e+01,1.444e+01,1.551e+01,1.404e+01,1.618e+01,1.769e+01,1.614e+01,1.674e+01,1.401e+01,1.569e+01,1.420e+01,1.358e+01,1.767e+01,1.661e+01,1.577e+01,1.516e+01,1.828e+01,1.721e+01,1.671e+01,1.579e+01,1.703e+01,1.656e+01,1.683e+01
3.465e-01,1.606e-01,8.498e-01,1.160e+00,1.893e+00,1.798e+00,1.673e+00,1.476e+00,3.009e+00,3.221e+00,2.828e+00,4.437e+00,2.454e+00,4.071e+00,4.564e+00,3.671e+00,6.267e+00,6.061e+00,4.837e+00,3.986e+00,7.000e+00,4.938e+00,6.097e+00,6.667e+00,7.639e+00,5.831e+00,5.547e+00,8.177e+00,9.043e+00,9.895e+00,8.153e+00,8.778e+00,9.787e+00,9.317e+00,1.137e+01,1.016e+01,1.111e+01,1.213e+01,8.460e+00,1.177e+01,1.162e+01,1.190e+01,1.121e+01,1.294e+01,8.936e+00,1.428e+01,1.275e+01,1.275e+01,1.251e+01,1.348e+01,1.194e+01,1.129e+01,1.712e+01,1.426e+01,1.356e+01,1.484e+01,1.720e+01,1.600e+01,1.767e+01,1.605e+01,1.665e+01,1.878e+01,1.638e+01,1.845e+01,1.958e+01,1.845e+01,1.738e+01,1.752e+01,1.617e+01,1.372e+01,1.595e+01,1.935e+01,1.620e+01,1.773e+01,1.675e+01,1.583e+01,1.738e+01,1.571e+01,1.720e+01,1.426e+01,1.598e+01,1.815e+01,1.680e+01,1.814e+01,1.535e+01,1.593e+01,1.563e+01,1.399e+01,1.794e+01,1.822e+01,1.638e+01,1.712e+01,1.823e+01,1.914e+01,1.798e+01,1.711e+01,1.779e+01,1.705e+01,1.774e+01
1.366e-01,3.264e-02,2.118e-01,5.635e-01,1.340e+00,1.459e+00,1.605e+00,1.264e+00,2.092e+00,2.499e+00,1.954e+00,3.594e+00,2.725e+00,2.452e+00,3.169e+00,3.531e+00,3.799e+00,4.202e+00,3.503e+00,2.664e+00,4.788e+00,2.824e+00,3.517e+00,4.603e+00,4.912e+00,3.833e+00,4.921e+00,6.707e+00,7.426e+00,7.001e+00,6.392e+00,6.463e+00,7.625e+00,7.138e+00,8.455e+00,7.416e+00,8.974e+00,7.697e+00,8.055e+00,8.176e+00,8.254e+00,9.923e+00,8.080e+00,9.987e+00,7.419e+00,1.175e+01,1.084e+01,9.227e+00,9.291e+00,1.201e+01,9.067e+00,9.293e+00,1.291e+01,1.182e+01,1.006e+01,1.206e+01,1.219e+01,1.187e+01,1.334e+01,1.315e+01,1.361e+01,1.534e+01,1.354e+01,1.588e+01,1.578e+01,1.571e+01,1.513e+01,1.378e+01,1.325e+01,1.095e+01,1.212e+01,1.475e+01,1.214e+01,1.348e+01,1.294e+01,1.231e+01,1.395e+01,1.279e+01,1.561e+01,1.097e+01,1.366e+01,1.383e+01,1.338e+01,1.409e+01,1.303e+01,1.299e+01,1.284e+01,1.195e+01,1.503e+01,1.428e+01,1.549e+01,1.411e+01,1.415e+01,1.369e+01,1.521e+01,1.421e+01,1.442e+01,1.347e+01,1.539e+01
3.486e-01,2.051e-01,1.003e+00,9.806e-01,1.780e+00,1.377e+00,2.262e+00,1.538e+00,2.768e+00,2.504e+00,2.562e+00,3.532e+00,3.332e+00,3.649e+00,4.004e+00,4.545e+00,5.669e+00,6.232e+00,5.417e+00,4.740e+00,7.074e+00,4.797e+00,6.168e+00,6.433e+00,7.228e+00,4.851e+00,6.268e+00,8.446e+00,8.609e+00,8.574e+00,7.557e+00,8.605e+00,9.458e+00,8.958e+00,9.863e+00,9.242e+00,9.361e+00,9.758e+00,7.450e+00,9.336e+00,1.020e+01,1.131e+01,9.890e+00,1.129e+01,9.014e+00,1.252e+01,1.146e+01,1.248e+01,1.019e+01,1.253e+01,1.161e+01,1.018e+01,1.351e+01,1.323e+01,1.213e+01,1.483e+01,1.296e+01,1.326e+01,1.681e+01,1.392e+01,1.463e+01,1.565e+01,1.488e+01,1.573e+01,1.712e+01,1.727e+01,1.597e+01,1.738e+01,1.485e+01,1.260e+01,1.506e+01,1.722e+01,1.462e+01,1.498e+01,1.408e+01,1.495e+01,1.674e+01,1.351e+01,1.618e+01,1.286e+01,1.641e+01,1.565e+01,1.643e+01,1.525e+01,1.324e+01,1.726e+01,1.467e+01,1.512e+01,1.626e+01,1.688e+01,1.559e+01,1.566e+01,1.726e+01,1.609e+01,1.650e+01,1.609e+01,1.726e+01,1.596e+01,1.592e+01
5.083e-01,2.469e-01,1.279e+00,1.362e+00,2.083e+00,2.011e+00,3.025e+00,1.800e+00,2.883e+00,2.552e+00,2.365e+00,4.393e+00,2.613e+00,4.293e+00,4.448e+00,5.210e+00,6.627e+00,6.576e+00,4.649e+00,4.591e+00,7.331e+00,5.576e+00,5.503e+00,7.438e+00,8.735e+00,5.584e+00,6.233e+00,8.478e+00,9.782e+00,1.071e+01,8.749e+00,1.017e+01,1.078e+01,9.884e+00,1.105e+01,1.067e+01,1.211e+01,1.285e+01,9.978e+00,1.278e+01,1.141e+01,1.234e+01,1.261e+01,1.189e+01,1.040e+01,1.392e+01,1.184e+01,1.462e+01,1.226e+01,1.290e+01,1.207e+01,1.200e+01,1.506e+01,1.413e+01,1.395e+01,1.608e+01,1.545e+01,1.505e+01,1.660e+01,1.609e+01,1.667e+01,1.778e+01,1.579e+01,1.845e+01,1.964e+01,1.695e+01,1.666e+01,1.793e+01,1.637e+01,1.442e+01,1.503e+01,1.971e+01,1.721e+01,1.763e+01,1.437e+01,1.559e+01,1.850e+01,1.415e+01,1.906e+01,1.477e+01,1.654e+01,1.802e+01,1.740e+01,1.798e+01,1.629e+01,1.723e+01,1.666e+01,1.466e+01,1.727e+01,1.822e+01,1.673e+01,1.741e+01,1.818e+01,1.929e+01,1.776e+01,1.687e+01,1.844e+01,1.682e+01,1.701e+01
5.637e-03,1.503e-01,7.062e-01,1.195e+00,1.388e+00,1.718e+00,9.815e-01,1.464e+00,2.502e+00,2.133e+00,1.208e+00,2.704e+00,2.613e+00,3.287e+00,3.444e+00,3.876e+00,4.245e+00,4.756e+00,3.989e+00,3.252e+00,5.982e+00,4.569e+00,4.248e+00,6.035e+00,6.150e+00,4.801e+00,6.041e+00,7.229e+00,6.921e+00,8.239e+00,6.750e+00,7.113e+00,1.002e+01,8.738e+00,8.401e+00,9.409e+00,1.005e+01,1.019e+01,9.692e+00,9.740e+00,1.080e+01,1.121e+01,1.095e+01,1.141e+01,9.896e+00,1.182e+01,1.097e+01,1.153e+01,1.041e+01,1.171e+01,1.092e+01,1.085e+01,1.428e+01,1.381e+01,1.385e+01,1.434e+01,1.481e+01,1.454e+01,1.514e+01,1.516e+01,1.603e+01,1.631e+01,1.616e+01,1.866e+01,1.928e+01,1.685e+01,1.809e+01,1.684e+01,1.559e+01,1.297e+01,1.605e+01,1.853e+01,1.436e+01,1.750e+01,1.714e+01,1.576e+01,1.692e+01,1.439e+01,1.655e+01,1.331e+01,1.709e+01,1.768e+01,1.677e+01,1.514e+01,1.491e+01,1.693e+01,1.737e+01,1.316e+01,1.732e+01,1.610e+01,1.751e+01,1.740e+01,1.692e+01,1.675e+01,1.742e+01,1.514e+01,1.642e+01,1.772e+01,1.671e+01
3.293e-01,1.911e-01,9.866e-01,1.178e+00,1.319e+00,1.401e+00,1.624e+00,1.111e+00,2.186e+00,2.063e+00,1.995e+00,3.232e+00,2.382e+00,3.021e+00,3.618e+00,3.845e+00,5.117e+00,5.749e+00,4.172e+00,3.889e+00,6.111e+00,4.576e+00,4.693e+00,6.187e+00,6.716e+00,5.404e+00,4.935e+00,7.019e+00,7.324e+00,8.285e+00,6.647e+00,7.548e+00,9.116e+00,8.612e+00,9.359e+00,9.098e+00,9.955e+00,1.105e+01,8.804e+00,1.085e+01,9.781e+00,1.176e+01,1.025e+01,1.078e+01,9.980e+00,1.386e+01,1.193e+01,1.239e+01,1.171e+01,1.175e+01,1.084e+01,1.067e+01,1.451e+01,1.355e+01,1.318e+01,1.426e+01,1.342e+01,1.382e+01,1.477e+01,1.394e+01,1.488e+01,1.548e+01,1.566e+01,1.703e+01,1.749e+01,1.738e+01,1.831e+01,1.636e+01,1.523e+01,1.371e+01,1.358e+01,1.824e+01,1.608e+01,1.717e+01,1.578e+01,1.528e+01,1.659e+01,1.465e+01,1.791e+01,1.395e+01,1.685e+01,1.697e+01,1.590e+01,1.628e+01,1.475e+01,1.644e+01,1.508e+01,1.525e+01,1.727e+01,1.756e+01,1.580e+01,1.663e+01,1.702e+01,1.693e+01,1.706e+01,1.571e+01,1.593e+01,1.659e+01,1.575e+01
4.284e-01,2.164e-01,1.186e+00,1.772e+00,2.241e+00,2.555e+00,2.983e+00,2.268e+00,3.737e+00,2.952e+00,2.785e+00,4.425e+00,3.443e+00,4.227e+00,4.591e+00,5.309e+00,6.103e+00,6.074e+00,4.956e+00,4.229e+00,6.260e+00,3.781e+00,4.007e+00,6.178e+00,6.289e+00,4.280e+00,5.783e+00,7.243e+00,6.833e+00,7.011e+00,5.604e+00,6.386e+00,8.552e+00,7.620e+00,8.885e+00,7.890e+00,9.366e+00,1.021e+01,7.144e+00,9.251e+00,9.014e+00,9.717e+00,8.508e+00,7.991e+00,7.577e+00,1.104e+01,9.555e+00,1.043e+01,8.934e+00,1.031e+01,9.232e+00,9.774e+00,1.225e+01,1.223e+01,1.174e+01,1.384e+01,1.216e+01,1.216e+01,1.413e+01,1.260e+01,1.397e+01,1.478e+01,1.448e+01,1.662e+01,1.702e+01,1.637e+01,1.689e+01,1.616e+01,1.490e+01,1.226e+01,1.257e+01,1.738e+01,1.533e+01,1.789e+01,1.529e+01,1.545e+01,1.668e+01,1.475e+01,1.745e+01,1.345e+01,1.662e+01,1.611e+01,1.597e+01,1.654e+01,1.494e+01,1.605e+01,1.465e+01,1.387e+01,1.628e+01,1.834e+01,1.700e+01,1.472e+01,1.676e+01,1.624e+01,1.848e+01,1.642e+01,1.633e+01,1.565e+01,1.620e+01
2.700e-01,1.572e-01,8.680e-01,1.521e+00,2.005e+00,2.325e+00,2.455e+00,1.966e+00,3.258e+00,3.269e+00,2.619e+00,4.294e+00,3.533e+00,3.902e+00,4.530e+00,5.230e+00,5.623e+00,5.649e+00,4.611e+00,3.728e+00,6.116e+00,3.059e+00,4.541e+00,6.114e+00,5.767e+00,4.411e+00,6.306e+00,8.133e+00,8.141e+00,8.392e+00,6.416e+00,7.654e+00,9.890e+00,8.757e+00,9.901e+00,8.562e+00,1.066e+01,9.963e+00,8.229e+00,1.012e+01,1.043e+01,1.080e+01,1.025e+01,1.047e+01,8.415e+00,1.312e+01,1.212e+01,1.054e+01,1.067e+01,1.258e+01,1.126e+01,1.165e+01,1.505e+01,1.343e+01,1.307e+01,1.462e+01,1.387e+01,1.432e+01,1.594e+01,1.467e+01,1.475e+01,1.745e+01,1.512e+01,1.744e+01,1.889e+01,1.773e+01,1.821e+01,1.683e+01,1.884e+01,1.329e+01,1.626e+01,1.958e+01,1.600e+01,1.895e+01,1.640e+01,1.674e+01,1.852e+01,1.662e+01,1.870e+01,1.623e+01,1.762e+01,1.870e+01,1.821e+01,1.779e+01,1.743e+01,1.773e+01,1.726e+01,1.620e+01,1.800e+01,2.036e+01,1.836e+01,1.800e+01,1.821e+01,1.877e+01,2.134e+01,1.825e+01,1.942e+01,1.822e+01,1.853e+01
4.571e-03,2.049e-01,8.227e-01,6.325e-01,1.771e+00,1.329e+00,1.689e+00,1.774e+00,2.485e+00,2.175e+00,1.556e+00,3.014e+00,2.978e+00,3.572e+00,2.742e+00,4.317e+00,4.575e+00,5.508e+00,4.347e+00,3.855e+00,5.993e+00,4.672e+00,4.542e+00,5.913e+00,6.980e+00,4.867e+00,6.026e+00,7.769e+00,7.491e+00,7.990e+00,6.695e+00,7.472e+00,9.137e+00,8.097e+00,8.223e+00,8.744e+00,8.909e+00,9.837e+00,8.333e+00,9.491e+00,9.848e+00,1.060e+01,1.031e+01,1.044e+01,9.413e+00,1.134e+01,9.866e+00,1.158e+01,9.002e+00,1.115e+01,1.031e+01,1.013e+01,1.306e+01,1.167e+01,1.176e+01,1.310e+01,1.306e+01,1.205e+01,1.462e+01,1.308e+01,1.354e+01,1.423e+01,1.436e+01,1.682e+01,1.749e+01,1.715e+01,1.625e+01,1.612e+01,1.471e+01,1.202e+01,1.442e+01,1.801e+01,1.477e+01,1.532e+01,1.455e+01,1.595e+01,1.719e+01,1.519e+01,1.761e+01,1.471e+01,1.600e+01,1.674e+01,1.552e+01,1.453e+01,1.279e+01,1.644e+01,1.578e+01,1.317e+01,1.560e+01,1.619e+01,1.546e+01,1.613e+01,1.790e+01,1.649e+01,1.731e+01,1.631e+01,1.797e+01,1.503e+01,1.638e+01
9.365e-02,2.170e-01,9.979e-01,1.219e+00,1.471e+00,1.421e+00,1.815e+00,1.517e+00,2.760e+00,2.952e+00,1.902e+00,3.731e+00,2.408e+00,4.087e+00,4.208e+00,3.988e+00,5.558e+00,6.324e+00,4.634e+00,3.570e+00,6.848e+00,4.058e+00,5.589e+00,7.519e+00,6.961e+00,5.822e+00,6.099e+00,8.412e+00,9.180e+00,9.798e+00,7.862e+00,8.737e+00,9.934e+00,8.563e+00,1.068e+01,9.806e+00,1.053e+01,1.184e+01,7.995e+00,1.202e+01,1.143e+01,1.165e+01,1.257e+01,1.128e+01,1.010e+01,1.422e+01,1.174e+01,1.309e+01,1.321e+01,1.352e+01,1.201e+01,1.268e+01,1.660e+01,1.480e+01,1.461e+01,1.606e+01,1.727e+01,1.626e+01,1.828e+01,1.650e+01,1.651e+01,1.643e+01,1.842e+01,1.781e+01,2.122e+01,2.066e+01,1.978e+01,2.049e+01,1.896e+01,1.450e+01,1.734e+01,2.305e+01,1.936e+01,2.046e+01,1.922e+01,1.865e+01,2.105e+01,1.757e+01,2.171e+01,1.705e+01,1.944e+01,2.054e+01,1.950e+01,1.917e+01,1.667e+01,2.039e+01,1.803e+01,1.672e+01,2.078e+01,2.040e+01,1.912e+01,1.901e+01,1.944e+01,2.029e+01,2.162e+01,2.124e+01,2.202e+01,2.007e+01,1.913e+01
4.594e-01,2.039e-01,1.116e+00,1.444e+00,1.568e+00,1.754e+00,1.570e+00,1.428e+00,3.011e+00,2.237e+00,2.439e+00,3.550e+00,2.957e+00,4.215e+00,4.647e+00,4.440e+00,6.119e+00,5.888e+00,4.883e+00,3.998e+00,6.886e+00,5.584e+00,5.035e+00,6.973e+00,7.653e+00,5.025e+00,5.839e+00,7.085e+00,7.465e+00,8.539e+00,6.372e+00,7.206e+00,9.361e+00,8.659e+00,8.937e+00,8.789e+00,9.696e+00,1.004e+01,7.938e+00,1.022e+01,1.081e+01,1.172e+01,1.059e+01,1.030e+01,8.714e+00,1.199e+01,1.088e+01,1.180e+01,1.022e+01,1.209e+01,9.552e+00,1.062e+01,1.476e+01,1.234e+01,1.294e+01,1.492e+01,1.429e+01,1.320e+01,1.551e+01,1.400e+01,1.539e+01,1.536e+01,1.444e+01,1.677e+01,1.673e+01,1.582e+01,1.582e+01,1.622e+01,1.503e+01,1.464e+01,1.548e+01,1.932e+01,1.496e+01,1.711e+01,1.605e+01,1.563e+01,1.890e+01,1.599e+01,1.742e+01,1.513e+01,1.750e+01,1.787e+01,1.736e+01,1.510e+01,1.551e+01,1.679e+01,1.584e+01,1.394e+01,1.706e+01,1.612e+01,1.624e+01,1.775e+01,1.814e+01,1.829e+01,1.887e+01,1.760e+01,1.932e+01,1.797e+01,1.727e+01
9.167e-02,3.188e-02,2.210e-01,6.217e-01,9.812e-01,1.441e+00,1.871e+00,1.521e+00,2.154e+00,2.156e+00,1.975e+00,3.418e+00,2.844e+00,2.459e+00,3.133e+00,3.684e+00,4.965e+00,5.305e+00,4.100e+00,4.017e+00,5.549e+00,4.308e+00,5.554e+00,5.903e+00,6.925e+00,4.956e+00,5.232e+00,7.559e+00,8.023e+00,8.395e+00,8.100e+00,8.218e+00,8.994e+00,7.687e+00,8.891e+00,8.696e+00,8.877e+00,1.122e+01,8.750e+00,1.105e+01,9.917e+00,1.132e+01,1.054e+01,1.157e+01,8.964e+00,1.372e+01,1.202e+01,1.169e+01,1.085e+01,1.194e+01,1.158e+01,1.054e+01,1.490e+01,1.269e+01,1.313e+01,1.280e+01,1.422e+01,1.292e+01,1.621e+01,1.371e+01,1.482e+01,1.572e+01,1.675e+01,1.627e+01,1.834e+01,1.754e+01,1.771e+01,1.786e+01,1.609e+01,1.317e+01,1.508e+01,1.811e+01,1.645e+01,1.819e+01,1.711e+01,1.648e+01,1.849e+01,1.719e+01,1.963e+01,1.601e+01,1.769e+01,1.908e+01,1.645e+01,1.790e+01,1.560e+01,1.750e+01,1.780e+01,1.561e+01,1.792e+01,1.868e+01,1.778e+01,1.802e+01,1.672e+01,1.935e+01,1.933e+01,1.870e+01,1.981e+01,1.794e+01,1.777e+01
2.332e-01,1.250e-01,7.291e-01,1.474e+00,1.721e+00,2.198e+00,1.956e+00,1.818e+00,3.356e+00,3.358e+00,2.480e+00,4.471e+00,2.775e+00,4.022e+00,4.407e+00,4.568e+00,5.935e+00,5.891e+00,3.991e+00,3.490e+00,6.722e+00,4.791e+00,4.295e+00,6.893e+00,6.585e+00,4.803e+00,5.856e+00,7.206e+00,8.220e+00,8.677e+00,5.876e+00,7.424e+00,8.789e+00,8.448e+00,8.509e+00,9.165e+00,9.073e+00,9.824e+00,7.505e+00,9.394e+00,9.784e+00,9.712e+00,9.420e+00,9.995e+00,8.661e+00,1.224e+01,9.695e+00,1.067e+01,1.096e+01,1.096e+01,9.940e+00,1.040e+01,1.491e+01,1.219e+01,1.195e+01,1.356e+01,1.368e+01,1.270e+01,1.512e+01,1.329e+01,1.395e+01,1.440e+01,1.475e+01,1.568e+01,1.711e+01,1.636e+01,1.692e+01,1.642e+01,1.532e+01,1.301e+01,1.315e+01,1.907e+01,1.676e+01,1.770e+01,1.556e+01,1.616e+01,1.930e+01,1.715e+01,1.950e+01,1.551e+01,1.925e+01,1.798e+01,1.776e+01,1.630e+01,1.609e+01,1.661e+01,1.646e+01,1.473e+01,1.743e+01,1.808e+01,1.665e+01,1.619e+01,1.784e+01,1.875e+01,1.918e+01,1.734e+01,1.923e+01,1.825e+01,1.773e+01
1.686e-01,8.281e-02,4.120e-01,4.721e-01,1.272e+00,1.291e+00,1.840e+00,1.385e+00,1.971e+00,2.371e+00,2.262e+00,3.700e+00,2.433e+00,2.655e+00,3.113e+00,3.386e+00,5.317e+00,5.590e+00,4.093e+00,3.322e+00,6.031e+00,3.826e+00,5.261e+00,5.834e+00,7.011e+00,5.244e+00,5.119e+00,7.578e+00,8.423e+00,7.565e+00,7.231e+00,7.215e+00,7.571e+00,7.075e+00,8.050e+00,7.971e+00,9.782e+00,1.047e+01,8.961e+00,8.573e+00,9.548e+00,1.218e+01,1.030e+01,1.057e+01,9.662e+00,1.368e+01,1.249e+01,1.237e+01,1.096e+01,1.357e+01,1.022e+01,1.052e+01,1.480e+01,1.331e+01,1.281e+01,1.337e+01,1.493e+01,1.391e+01,1.624e+01,1.527e+01,1.629e+01,1.758e+01,1.662e+01,1.869e+01,1.835e+01,2.053e+01,1.834e+01,1.827e+01,1.775e+01,1.391e+01,1.658e+01,2.113e+01,1.785e+01,1.989e+01,1.696e+01,1.815e+01,2.016e+01,1.797e+01,1.994e+01,1.678e+01,1.821e+01,2.086e+01,1.929e+01,2.023e+01,1.835e+01,1.979e+01,1.808e+01,1.792e+01,1.997e+01,1.858e+01,2.086e+01,1.848e+01,2.014e+01,2.038e+01,2.124e+01,2.027e+01,2.041e+01,1.972e+01,2.101e+01
3.674e-01,9.705e-02,6.485e-01,1.230e+00,1.550e+00,1.875e+00,2.314e+00,1.511e+00,2.515e+00,2.187e+00,2.035e+00,3.319e+00,2.296e+00,2.791e+00,3.027e+00,3.715e+00,5.419e+00,5.190e+00,3.897e+00,3.520e+00,6.174e+00,4.203e+00,5.657e+00,5.211e+00,6.827e+00,4.600e+00,5.172e+00,7.483e+00,6.899e+00,7.266e+00,7.189e+00,7.403e+00,7.723e+00,7.710e+00,9.180e+00,8.267e+00,8.525e+00,1.002e+01,7.402e+00,9.312e+00,1.057e+01,1.016e+01,9.990e+00,1.038e+01,8.216e+00,1.290e+01,1.188e+01,1.182e+01,1.155e+01,1.185e+01,1.269e+01,1.098e+01,1.473e+01,1.334e+01,1.271e+01,1.473e+01,1.448e+01,1.418e+01,1.685e+01,1.510e+01,1.593e+01,1.761e+01,1.641e+01,1.587e+01,1.916e+01,1.854e+01,1.786e+01,1.941e+01,1.719e+01,1.374e+01,1.704e+01,1.960e+01,1.772e+01,1.931e+01,1.744e+01,1.757e+01,1.957e+01,1.832e+01,1.938e+01,1.688e+01,1.925e+01,2.078e+01,1.932e+01,1.762e+01,1.607e+01,1.937e+01,1.799e+01,1.767e+01,1.906e+01,2.096e+01,1.798e+01,1.891e+01,2.031e+01,2.078e+01,2.150e+01,1.905e+01,2.147e+01,2.026e+01,1.941e+01
2.759e-01,1.479e-01,7.581e-01,8.970e-01,1.623e+00,1.808e+00,1.940e+00,1.761e+00,2.488e+00,2.209e+00,2.470e+00,3.555e+00,3.030e+00,3.172e+00,3.560e+00,4.431e+00,6.019e+00,6.158e+00,4.879e+00,4.057e+00,6.484e+00,3.916e+00,5.129e+00,6.058e+00,7.751e+00,5.417e+00,5.842e+00,7.887e+00,8.378e+00,7.852e+00,7.213e+00,7.943e+00,8.982e+00,8.206e+00,8.262e+00,7.661e+00,9.907e+00,1.137e+01,8.196e+00,1.048e+01,1.119e+01,1.208e+01,1.023e+01,9.862e+00,9.327e+00,1.329e+01,1.149e+01,1.208e+01,1.030e+01,1.208e+01,1.078e+01,1.108e+01,1.486e+01,1.310e+01,1.339e+01,1.380e+01,1.495e+01,1.404e+01,1.631e+01,1.466e+01,1.559e+01,1.703e+01,1.596e+01,1.784e+01,1.845e+01,1.861e+01,1.820e+01,1.705e+01,1.741e+01,1.400e+01,1.626e+01,2.082e+01,1.713e+01,1.861e+01,1.667e+01,1.872e+01,1.975e+01,1.803e+01,2.053e+01,1.754e+01,1.868e+01,2.114e+01,1.942e+01,1.903e+01,1.833e+01,1.900e+01,1.813e+01,1.731e+01,1.956e+01,1.957e+01,2.117e+01,1.778e+01,2.124e+01,2.080e+01,2.099e+01,1.980e+01,2.232e+01,2.112e+01,2.040e+01
8.018e-02,3.925e-02,2.992e-01,1.019e+00,1.285e+00,1.952e+00,2.400e+00,1.928e+00,2.634e+00,2.498e+00,2.065e+00,3.699e+00,2.930e+00,2.771e+00,3.264e+00,4.042e+00,4.989e+00,4.749e+00,3.497e+00,3.460e+00,4.806e+00,3.057e+00,3.496e+00,6.222e+00,5.301e+00,3.525e+00,5.092e+00,6.313e+00,7.042e+00,6.699e+00,6.029e+00,6.741e+00,7.936e+00,6.702e+00,7.674e+00,7.747e+00,7.956e+00,8.927e+00,7.247e+00,9.296e+00,8.893e+00,8.513e+00,7.276e+00,9.046e+00,7.393e+00,1.183e+01,1.010e+01,9.486e+00,9.769e+00,1.101e+01,1.013e+01,1.021e+01,1.269e+01,1.117e+01,1.212e+01,1.305e+01,1.241e+01,1.246e+01,1.495e+01,1.393e+01,1.430e+01,1.689e+01,1.408e+01,1.453e+01,1.685e+01,1.701e+01,1.720e+01,1.668e+01,1.558e+01,1.262e+01,1.368e+01,1.647e+01,1.590e+01,1.796e+01,1.559e+01,1.598e+01,1.882e+01,1.826e+01,1.934e+01,1.635e+01,1.861e+01,1.909e+01,1.732e+01,1.831e+01,1.652e+01,1.671e+01,1.682e+01,1.611e+01,1.714e+01,1.917e+01,1.889e+01,1.680e+01,1.767e+01,1.837e+01,2.061e+01,1.781e+01,1.905e+01,1.776e+01,1.903e+01
5.410e-01,7.247e-02,6.009e-01,1.106e+00,1.503e+00,2.064e+00,2.899e+00,1.880e+00,3.267e+00,2.923e+00,3.475e+00,5.326e+00,3.020e+00,4.203e+00,5.944e+00,4.511e+00,6.728e+00,6.199e+00,4.811e+00,5.037e+00,6.623e+00,4.828e+00,5.647e+00,6.315e+00,7.747e+00,4.905e+00,5.732e+00,7.586e+00,8.428e+00,9.331e+00,7.741e+00,9.619e+00,9.963e+00,9.675e+00,1.085e+01,9.656e+00,9.630e+00,1.181e+01,7.477e+00,1.275e+01,1.144e+01,1.331e+01,1.168e+01,1.097e+01,8.643e+00,1.394e+01,1.287e+01,1.200e+01,1.112e+01,1.252e+01,1.069e+01,1.172e+01,1.543e+01,1.438e+01,1.235e+01,1.454e+01,1.432e+01,1.292e+01,1.582e+01,1.421e+01,1.415e+01,1.493e+01,1.518e+01,1.692e+01,1.793e+01,1.703e+01,1.740e+01,1.659e+01,1.717e+01,1.375e+01,1.371e+01,1.741e+01,1.640e+01,1.832e+01,1.666e+01,1.664e+01,1.978e+01,1.867e+01,2.070e+01,1.811e+01,1.936e+01,1.984e+01,1.826e+01,1.777e+01,1.670e+01,1.849e+01,1.756e+01,1.645e+01,1.970e+01,2.099e+01,1.938e+01,1.939e+01,1.960e+01,2.008e+01,2.038e+01,2.044e+01,2.262e+01,2.129e+01,1.959e+01
1.044e-01,1.558e-01,7.579e-01,1.082e+00,1.428e+00,1.726e+00,1.951e+00,1.675e+00,2.381e+00,2.444e+00,1.750e+00,3.378e+00,2.285e+00,3.271e+00,3.489e+00,3.829e+00,4.957e+00,5.269e+00,3.966e+00,3.050e+00,6.184e+00,3.537e+00,4.662e+00,5.329e+00,6.345e+00,4.531e+00,5.713e+00,7.890e+00,7.733e+00,8.288e+00,6.915e+00,7.259e+00,9.156e+00,8.505e+00,9.784e+00,9.842e+00,9.987e+00,1.103e+01,8.834e+00,9.713e+00,1.181e+01,1.148e+01,1.206e+01,1.184e+01,1.016e+01,1.393e+01,1.233e+01,1.288e+01,1.255e+01,1.345e+01,1.201e+01,1.219e+01,1.605e+01,1.339e+01,1.472e+01,1.556e+01,1.649e+01,1.525e+01,1.783e+01,1.667e+01,1.817e+01,1.859e+01,1.711e+01,1.950e+01,2.051e+01,1.935e+01,1.900e+01,1.912e+01,1.764e+01,1.479e+01,1.732e+01,2.209e+01,1.838e+01,2.100e+01,1.834e+01,1.958e+01,2.182e+01,1.936e+01,2.094e+01,1.910e+01,1.976e+01,2.310e+01,2.180e+01,2.099e+01,1.824e+01,2.055e+01,2.026e+01,1.893e+01,2.119e+01,2.092e+01,2.144e+01,2.053e+01,2.160e+01,2.257e+01,2.249e+01,2.137e+01,2.407e+01,2.137e+01,2.106e+01
2.164e-01,7.254e-02,4.541e-01,8.042e-01,1.040e+00,1.735e+00,2.059e+00,1.895e+00,2.684e+00,2.393e+00,2.894e+00,4.299e+00,3.103e+00,3.756e+00,5.162e+00,4.081e+00,6.810e+00,6.446e+00,4.678e+00,4.643e+00,6.649e+00,5.021e+00,5.769e+00,7.224e+00,7.454e+00,4.939e+00,6.325e+00,7.794e+00,7.955e+00,8.322e+00,7.097e+00,7.900e+00,9.824e+00,9.036e+00,9.594e+00,9.454e+00,9.855e+00,1.095e+01,8.569e+00,1.074e+01,1.188e+01,1.270e+01,1.058e+01,1.108e+01,9.074e+00,1.374e+01,1.265e+01,1.123e+01,1.158e+01,1.265e+01,1.064e+01,1.151e+01,1.484e+01,1.377e+01,1.429e+01,1.398e+01,1.428e+01,1.416e+01,1.604e+01,1.354e+01,1.475e+01,1.589e+01,1.554e+01,1.611e+01,1.747e+01,1.575e+01,1.677e+01,1.607e+01,1.707e+01,1.274e+01,1.370e+01,1.846e+01,1.504e+01,1.831e+01,1.676e+01,1.493e+01,1.848e+01,1.791e+01,1.940e+01,1.732e+01,2.008e+01,1.999e+01,1.913e+01,1.942e+01,1.814e+01,1.766e+01,1.904e+01,1.773e+01,1.982e+01,1.901e+01,1.983e+01,1.881e+01,2.036e+01,1.926e+01,1.969e+01,1.936e+01,2.146e+01,2.038e+01,1.964e+01
4.148e-02,1.280e-01,5.923e-01,7.286e-01,8.564e-01,1.262e+00,1.047e+00,1.593e+00,2.485e+00,2.331e+00,2.134e+00,3.388e+00,2.664e+00,3.988e+00,4.275e+00,3.912e+00,5.498e+00,5.596e+00,3.781e+00,3.370e+00,5.681e+00,4.549e+00,4.852e+00,5.881e+00,5.687e+00,3.914e+00,5.191e+00,6.600e+00,7.058e+00,7.808e+00,5.211e+00,6.663e+00,8.696e+00,7.192e+00,7.659e+00,8.125e+00,8.895e+00,8.147e+00,6.879e+00,8.295e+00,8.940e+00,8.270e+00,8.055e+00,7.867e+00,6.613e+00,1.012e+01,8.021e+00,7.688e+00,8.237e+00,8.923e+00,8.289e+00,8.816e+00,1.106e+01,1.013e+01,1.058e+01,1.062e+01,1.195e+01,1.118e+01,1.216e+01,1.162e+01,1.248e+01,1.317e+01,1.183e+01,1.434e+01,1.528e+01,1.386e+01,1.573e+01,1.406e+01,1.656e+01,1.170e+01,1.368e+01,1.547e+01,1.455e+01,1.709e+01,1.508e+01,1.418e+01,1.736e+01,1.721e+01,1.703e+01,1.664e+01,1.825e+01,1.997e+01,1.839e+01,1.921e+01,1.726e+01,1.862e+01,1.812e+01,1.439e+01,1.785e+01,1.984e+01,1.855e+01,1.753e+01,1.895e+01,1.928e+01,2.007e+01,1.813e+01,1.970e+01,2.065e+01,1.900e+01
9.511e-02,1.382e-01,6.633e-01,8.336e-01,1.117e+00,1.355e+00,1.574e+00,1.365e+00,1.731e+00,1.792e+00,1.600e+00,2.650e+00,2.222e+00,2.485e+00,2.545e+00,3.864e+00,5.298e+00,5.814e+00,3.790e+00,3.125e+00,6.631e+00,3.764e+00,4.568e+00,5.494e+00,6.686e+00,5.056e+00,5.281e+00,8.064e+00,8.266e+00,7.614e+00,7.331e+00,7.638e+00,8.574e+00,7.943e+00,8.768e+00,8.598e+00,9.522e+00,1.066e+01,7.909e+00,9.506e+00,9.320e+00,1.005e+01,9.351e+00,9.406e+00,8.568e+00,1.245e+01,1.032e+01,1.152e+01,1.021e+01,1.122e+01,1.053e+01,9.139e+00,1.338e+01,1.190e+01,1.147e+01,1.399e+01,1.243e+01,1.273e+01,1.541e+01,1.326e+01,1.486e+01,1.556e+01,1.427e+01,1.578e+01,1.745e+01,1.755e+01,1.659e+01,1.644e+01,1.500e+01,1.365e+01,1.529e+01,1.983e+01,1.626e+01,1.791e+01,1.635e+01,1.702e+01,1.871e+01,1.675e+01,2.044e+01,1.771e+01,1.823e+01,2.139e+01,1.991e+01,1.912e+01,1.806e+01,1.994e+01,1.977e+01,1.787e+01,2.021e+01,1.988e+01,2.061e+01,1.931e+01,2.048e+01,2.055e+01,2.095e+01,1.928e+01,2.104e+01,1.961e+01,1.828e+01
2.036e-01,9.106e-02,4.929e-01,7.793e-01,1.321e+00,1.308e+00,1.142e+00,1.013e+00,2.025e+00,2.016e+00,1.372e+00,2.856e+00,1.780e+00,3.096e+00,3.308e+00,2.817e+00,3.837e+00,3.849e+00,3.148e+00,2.986e+00,5.109e+00,4.414e+00,5.077e+00,5.279e+00,6.356e+00,4.507e+00,5.154e+00,5.947e+00,6.451e+00,7.712e+00,6.093e+00,6.400e+00,9.049e+00,8.115e+00,8.177e+00,7.871e+00,9.560e+00,9.318e+00,8.754e+00,9.825e+00,9.470e+00,9.764e+00,9.777e+00,9.732e+00,8.412e+00,1.088e+01,9.714e+00,1.148e+01,1.029e+01,1.059e+01,9.235e+00,9.180e+00,1.340e+01,1.173e+01,1.246e+01,1.275e+01,1.324e+01,1.189e+01,1.355e+01,1.367e+01,1.299e+01,1.400e+01,1.373e+01,1.451e+01,1.682e+01,1.450e+01,1.548e+01,1.598e+01,1.595e+01,1.244e+01,1.391e+01,1.779e+01,1.437e+01,1.686e+01,1.669e+01,1.643e+01,1.821e+01,1.872e+01,2.070e+01,1.808e+01,1.941e+01,2.091e+01,2.046e+01,2.040e+01,1.679e+01,1.891e+01,1.900e+01,1.722e+01,1.978e+01,2.100e+01,2.110e+01,1.971e+01,1.983e+01,2.190e+01,2.044e+01,2.118e+01,2.226e+01,2.090e+01,2.167e+01
4.570e-01,1.304e-01,8.655e-01,1.777e+00,2.080e+00,2.575e+00,2.045e+00,1.818e+00,3.504e+00,2.751e+00,2.688e+00,4.216e+00,3.052e+00,4.075e+00,4.645e+00,4.517e+00,6.092e+00,5.066e+00,4.288e+00,3.799e+00,5.770e+00,4.938e+00,3.790e+00,6.323e+00,6.665e+00,4.539e+00,5.715e+00,7.300e+00,7.381e+00,8.040e+00,6.152e+00,6.666e+00,7.721e+00,7.277e+00,9.006e+00,8.612e+00,9.572e+00,1.028e+01,8.709e+00,9.254e+00,1.015e+01,1.048e+01,9.439e+00,9.942e+00,8.738e+00,1.224e+01,1.129e+01,1.036e+01,1.063e+01,1.184e+01,9.485e+00,1.173e+01,1.441e+01,1.269e+01,1.249e+01,1.331e+01,1.332e+01,1.302e+01,1.417e+01,1.398e+01,1.493e+01,1.504e+01,1.532e+01,1.734e+01,1.711e+01,1.617e+01,1.713e+01,1.689e+01,1.585e+01,1.345e+01,1.420e+01,1.792e+01,1.578e+01,1.953e+01,1.744e+01,1.583e+01,1.916e+01,1.767e+01,1.858e+01,1.675e+01,1.974e+01,2.074e+01,1.896e+01,2.077e+01,1.940e+01,1.898e+01,1.782e+01,1.906e+01,2.099e+01,2.025e+01,2.118e+01,1.861e+01,2.164e+01,2.030e+01,2.130e+01,1.935e+01,2.092e+01,2.226e+01,2.120e+01
2.490e-01,9.775e-02,5.161e-01,6.050e-01,1.120e+00,1.060e+00,1.361e+00,9.975e-01,1.924e+00,2.076e+00,2.229e+00,3.386e+00,1.942e+00,2.638e+00,3.440e+00,2.445e+00,4.518e+00,4.542e+00,2.957e+00,2.820e+00,5.262e+00,3.904e+00,4.099e+00,5.233e+00,5.512e+00,4.354e+00,4.649e+00,6.258e+00,6.645e+00,7.271e+00,6.530e+00,6.524e+00,8.831e+00,7.293e+00,7.923e+00,7.780e+00,9.278e+00,8.503e+00,6.973e+00,8.884e+00,8.447e+00,8.905e+00,9.648e+00,9.750e+00,7.962e+00,1.041e+01,1.004e+01,9.481e+00,9.346e+00,1.135e+01,1.008e+01,1.020e+01,1.383e+01,1.112e+01,1.162e+01,1.209e+01,1.190e+01,1.229e+01,1.295e+01,1.303e+01,1.402e+01,1.387e+01,1.405e+01,1.409e+01,1.517e+01,1.508e+01,1.518e+01,1.530e+01,1.583e+01,1.211e+01,1.360e+01,1.722e+01,1.406e+01,1.679e+01,1.477e+01,1.526e+01,1.912e+01,1.601e+01,1.957e+01,1.637e+01,1.721e+01,1.866e+01,1.855e+01,1.723e+01,1.797e+01,1.878e+01,1.744e+01,1.709e+01,1.817e+01,1.863e+01,1.949e+01,1.929e+01,1.953e+01,2.040e+01,2.039e+01,2.000e+01,2.149e+01,1.990e+01,1.960e+01
5.050e-01,2.264e-01,1.193e+00,1.418e+00,2.046e+00,1.668e+00,1.837e+00,1.375e+00,3.130e+00,2.513e+00,2.788e+00,3.736e+00,3.521e+00,4.132e+00,4.136e+00,4.521e+00,5.467e+00,5.488e+00,4.859e+00,3.696e+00,5.867e+00,5.049e+00,4.925e+00,6.025e+00,7.164e+00,5.375e+00,6.035e+00,8.591e+00,8.746e+00,9.514e+00,7.578e+00,7.413e+00,9.854e+00,8.574e+00,1.063e+01,9.516e+00,1.114e+01,1.076e+01,8.718e+00,1.037e+01,1.062e+01,1.065e+01,1.113e+01,1.203e+01,9.563e+00,1.367e+01,1.205e+01,1.188e+01,1.143e+01,1.358e+01,1.097e+01,1.156e+01,1.510e+01,1.260e+01,1.219e+01,1.365e+01,1.515e+01,1.471e+01,1.556e+01,1.519e+01,1.542e+01,1.717e+01,1.595e+01,1.829e+01,1.881e+01,1.706e+01,1.770e+01,1.830e+01,1.683e+01,1.276e+01,1.592e+01,1.886e+01,1.718e+01,1.886e+01,1.627e+01,1.822e+01,2.072e+01,1.930e+01,2.074e+01,1.846e+01,2.009e+01,2.233e+01,2.019e+01,2.110e+01,1.783e+01,2.291e+01,2.126e+01,2.007e+01,2.241e+01,2.361e+01,2.131e+01,2.064e+01,2.208e+01,2.271e+01,2.296e+01,2.153e+01,2.423e+01,2.335e+01,2.372e+01
2.732e-02,1.010e-02,1.628e-01,9.696e-01,9.703e-01,1.807e+00,1.232e+00,1.421e+00,2.206e+00,2.162e+00,1.486e+00,3.232e+00,1.954e+00,2.454e+00,3.099e+00,2.870e+00,4.581e+00,4.568e+00,3.236e+00,2.988e+00,5.150e+00,3.770e+00,3.743e+00,5.401e+00,6.223e+00,4.941e+00,4.883e+00,7.123e+00,6.564e+00,7.659e+00,6.211e+00,6.750e+00,7.944e+00,7.387e+00,7.403e+00,8.282e+00,7.745e+00,8.905e+00,7.558e+00,7.504e+00,8.606e+00,9.766e+00,8.389e+00,1.022e+01,8.602e+00,1.082e+01,1.019e+01,1.031e+01,1.061e+01,1.080e+01,9.760e+00,1.024e+01,1.285e+01,1.160e+01,1.092e+01,1.266e+01,1.416e+01,1.282e+01,1.550e+01,1.465e+01,1.505e+01,1.667e+01,1.626e+01,1.815e+01,1.755e+01,1.788e+01,1.746e+01,1.796e+01,1.557e+01,1.249e+01,1.641e+01,1.927e+01,1.699e+01,1.838e+01,1.905e+01,1.839e+01,1.941e+01,1.786e+01,2.024e+01,1.756e+01,1.930e+01,2.300e+01,2.178e+01,2.154e+01,2.001e+01,2.357e+01,2.150e+01,2.198e+01,2.379e+01,2.282e+01,2.280e+01,2.224e+01,2.336e+01,2.161e+01,2.348e+01,2.335e+01,2.456e+01,2.525e+01,2.515e+01
1.936e-01,3.062e-02,3.138e-01,9.462e-01,5.956e-01,1.144e+00,9.851e-01,8.553e-01,1.843e+00,1.822e+00,1.697e+00,2.707e+00,2.181e+00,3.024e+00,3.814e+00,2.906e+00,4.795e+00,4.632e+00,3.772e+00,3.122e+00,5.599e+00,3.676e+00,4.992e+00,5.258e+00,5.635e+00,4.019e+00,4.782e+00,6.124e+00,6.718e+00,7.067e+00,6.060e+00,6.782e+00,8.956e+00,7.680e+00,7.966e+00,7.482e+00,8.563e+00,8.153e+00,6.650e+00,9.000e+00,8.962e+00,9.576e+00,8.034e+00,9.252e+00,8.081e+00,1.121e+01,9.961e+00,1.094e+01,1.100e+01,1.088e+01,9.739e+00,9.413e+00,1.309e+01,1.181e+01,1.196e+01,1.313e+01,1.283e+01,1.239e+01,1.477e+01,1.407e+01,1.447e+01,1.574e+01,1.411e+01,1.589e+01,1.678e+01,1.582e+01,1.865e+01,1.689e+01,1.693e+01,1.316e+01,1.646e+01,1.914e+01,1.766e+01,1.941e+01,1.777e+01,1.712e+01,1.982e+01,1.808e+01,2.062e+01,1.899e+01,2.052e+01,2.133e+01,2.164e+01,2.041e+01,1.911e+01,2.267e+01,2.018e+01,1.951e+01,2.248e+01,2.295e+01,2.298e+01,2.207e+01,2.230e+01,2.258e+01,2.191e+01,2.295e+01,2.379e+01,2.485e+01,2.173e+01
1.757e-02,1.423e-01,5.632e-01,3.432e-01,1.392e+00,1.412e+00,2.344e+00,2.233e+00,2.901e+00,3.082e+00,2.948e+00,4.875e+00,3.333e+00,4.397e+00,5.024e+00,4.576e+00,6.087e+00,6.680e+00,4.969e+00,4.940e+00,6.618e+00,5.021e+00,5.494e+00,7.670e+00,7.725e+00,5.120e+00,6.833e+00,8.119e+00,1.025e+01,9.757e+00,7.265e+00,9.105e+00,1.092e+01,9.295e+00,9.467e+00,1.114e+01,1.139e+01,1.195e+01,9.540e+00,1.183e+01,1.188e+01,1.307e+01,1.179e+01,1.246e+01,9.751e+00,1.492e+01,1.264e+01,1.196e+01,1.164e+01,1.401e+01,1.112e+01,1.246e+01,1.619e+01,1.596e+01,1.426e+01,1.515e+01,1.592e+01,1.527e+01,1.764e+01,1.539e+01,1.650e+01,1.633e+01,1.621e+01,1.870e+01,1.877e+01,1.913e+01,1.828e+01,1.747e+01,1.970e+01,1.452e+01,1.517e+01,2.108e+01,1.789e+01,2.089e+01,1.921e+01,1.982e+01,2.200e+01,2.112e+01,2.287e+01,1.995e+01,2.232e+01,2.485e+01,2.245e+01,2.296e+01,2.120e+01,2.271e+01,2.231e+01,2.005e+01,2.384e+01,2.325e+01,2.423e+01,2.275e+01,2.418e+01,2.376e+01,2.546e+01,2.363e+01,2.658e+01,2.516e+01,2.466e+01
4.330e-01,1.018e-01,7.170e-01,1.450e+00,1.654e+00,2.309e+00,2.303e+00,1.656e+00,3.080e+00,3.005e+00,2.290e+00,4.131e+00,2.091e+00,3.151e+00,4.158e+00,4.047e+00,5.022e+00,4.825e+00,4.094e+00,3.495e+00,6.379e+00,3.961e+00,5.255e+00,5.350e+00,7.150e+00,4.375e+00,5.292e+00,6.617e+00,7.346e+00,8.795e+00,6.516e+00,8.118e+00,9.283e+00,9.034e+00,8.841e+00,9.070e+00,9.339e+00,1.015e+01,8.419e+00,1.111e+01,1.144e+01,1.188e+01,1.141e+01,1.089e+01,9.304e+00,1.288e+01,1.159e+01,1.380e+01,1.170e+01,1.223e+01,1.175e+01,1.187e+01,1.622e+01,1.376e+01,1.450e+01,1.531e+01,1.546e+01,1.420e+01,1.798e+01,1.609e+01,1.637e+01,1.777e+01,1.656e+01,1.874e+01,2.036e+01,1.872e+01,1.877e+01,1.839e+01,1.720e+01,1.554e+01,1.624e+01,2.136e+01,1.795e+01,1.941e+01,1.749e+01,1.798e+01,2.116e+01,1.915e+01,2.271e+01,1.817e+01,2.048e+01,2.232e+01,2.218e+01,2.024e+01,1.974e+01,2.170e+01,2.163e+01,2.031e+01,2.364e+01,2.352e+01,2.416e+01,2.475e+01,2.503e+01,2.473e+01,2.379e+01,2.449e+01,2.599e+01,2.589e+01,2.500e+01
1.937e-03,2.480e-02,1.519e-01,5.856e-01,8.557e-01,1.063e+00,1.301e+00,1.233e+00,2.118e+00,2.227e+00,1.964e+00,3.275e+00,2.767e+00,2.971e+00,3.606e+00,3.304e+00,4.969e+00,5.716e+00,4.352e+00,4.006e+00,6.216e+00,4.634e+00,5.573e+00,6.429e+00,6.529e+00,5.408e+00,5.697e+00,8.191e+00,8.562e+00,8.511e+00,7.847e+00,7.582e+00,8.889e+00,8.074e+00,9.162e+00,8.533e+00,1.064e+01,1.061e+01,9.005e+00,1.088e+01,1.047e+01,1.121e+01,1.103e+01,1.131e+01,9.637e+00,1.271e+01,1.114e+01,1.120e+01,1.018e+01,1.222e+01,1.079e+01,1.006e+01,1.560e+01,1.312e+01,1.304e+01,1.355e+01,1.454e+01,1.466e+01,1.432e+01,1.430e+01,1.606e+01,1.660e+01,1.680e+01,1.858e+01,1.864e+01,1.875e+01,1.798e+01,1.777e+01,1.848e+01,1.396e+01,1.538e+01,2.031e+01,1.655e+01,1.903e+01,1.799e+01,1.892e+01,2.044e+01,1.749e+01,2.206e+01,1.814e+01,1.960e+01,2.088e+01,1.967e+01,2.155e+01,1.938e+01,2.200e+01,2.013e+01,1.951e+01,2.326e+01,2.268e+01,2.563e+01,2.193e+01,2.467e+01,2.416e+01,2.435e+01,2.364e+01,2.420e+01,2.468e+01,2.436e+01
3.148e-01,1.270e-01,6.653e-01,7.283e-01,1.343e+00,1.036e+00,1.346e+00,8.741e-01,1.944e+00,2.288e+00,2.125e+00,3.273e+00,2.301e+00,3.317e+00,3.580e+00,3.192e+00,4.927e+00,4.990e+00,3.829e+00,3.402e+00,5.512e+00,4.402e+00,5.357e+00,5.473e+00,6.361e+00,4.425e+00,5.253e+00,6.190e+00,7.166e+00,7.845e+00,6.510e+00,6.900e+00,8.284e+00,7.214e+00,9.135e+00,8.231e+00,9.334e+00,1.010e+01,7.584e+00,1.009e+01,1.034e+01,1.024e+01,1.075e+01,1.037e+01,8.366e+00,1.178e+01,1.078e+01,1.088e+01,1.131e+01,1.226e+01,1.039e+01,1.142e+01,1.432e+01,1.311e+01,1.231e+01,1.348e+01,1.268e+01,1.354e+01,1.462e+01,1.463e+01,1.513e+01,1.468e+01,1.448e+01,1.626e+01,1.781e+01,1.689e+01,1.694e+01,1.737e+01,1.804e+01,1.269e+01,1.489e+01,1.855e+01,1.703e+01,1.889e+01,1.623e+01,1.644e+01,1.937e+01,1.758e+01,2.051e+01,1.776e+01,1.902e+01,2.196e+01,2.026e+01,2.121e+01,1.748e+01,2.184e+01,2.073e+01,1.912e+01,2.102e+01,2.433e+01,2.346e+01,2.202e+01,2.364e+01,2.408e+01,2.288e+01,2.154e+01,2.437e+01,2.264e+01,2.436e+01
5.801e-01,1.457e-01,9.334e-01,1.428e+00,1.699e+00,2.057e+00,2.299e+00,1.555e+00,3.162e+00,2.907e+00,3.194e+00,4.850e+00,3.336e+00,4.272e+00,5.289e+00,5.038e+00,6.866e+00,6.882e+00,5.289e+00,4.998e+00,7.459e+00,6.396e+00,5.689e+00,7.697e+00,8.668e+00,5.983e+00,6.599e+00,8.219e+00,9.500e+00,9.995e+00,7.371e+00,8.616e+00,1.007e+01,9.804e+00,1.032e+01,1.052e+01,1.078e+01,1.162e+01,8.787e+00,1.068e+01,1.040e+01,1.251e+01,1.073e+01,1.129e+01,8.753e+00,1.320e+01,1.215e+01,1.148e+01,1.181e+01,1.331e+01,1.035e+01,1.177e+01,1.639e+01,1.434e+01,1.368e+01,1.513e+01,1.396e+01,1.366e+01,1.607e+01,1.487e+01,1.652e+01,1.555e+01,1.563e+01,1.836e+01,1.798e+01,1.877e+01,1.830e+01,1.750e+01,1.632e+01,1.316e+01,1.406e+01,1.893e+01,1.689e+01,1.805e+01,1.653e+01,1.697e+01,2.091e+01,1.899e+01,2.120e+01,1.774e+01,2.032e+01,2.116e+01,1.947e+01,2.077e+01,1.868e+01,2.144e+01,2.024e+01,1.943e+01,2.152e+01,2.302e+01,2.237e+01,2.156e+01,2.333e+01,2.317e+01,2.378e+01,2.266e+01,2.472e+01,2.452e+01,2.588e+01
1.417e-01,1.334e-01,7.061e-01,1.266e+00,1.447e+00,1.868e+00,2.037e+00,1.655e+00,2.740e+00,2.797e+00,2.059e+00,4.238e+00,2.445e+00,3.772e+00,4.320e+00,4.001e+00,5.258e+00,5.595e+00,3.846e+00,3.349e+00,6.134e+00,3.496e+00,3.304e+00,5.537e+00,5.534e+00,4.368e+00,4.598e+00,6.224e+00,6.257e+00,7.119e+00,6.351e+00,6.995e+00,8.179e+00,7.527e+00,9.186e+00,8.601e+00,8.770e+00,9.458e+00,6.452e+00,9.712e+00,8.936e+00,9.681e+00,8.527e+00,8.715e+00,7.278e+00,1.112e+01,9.621e+00,9.972e+00,1.002e+01,1.045e+01,1.011e+01,1.047e+01,1.317e+01,1.157e+01,1.163e+01,1.288e+01,1.294e+01,1.205e+01,1.419e+01,1.423e+01,1.416e+01,1.457e+01,1.414e+01,1.529e+01,1.530e+01,1.510e+01,1.681e+01,1.602e+01,1.359e+01,1.223e+01,1.332e+01,1.636e+01,1.551e+01,1.619e+01,1.646e+01,1.471e+01,1.752e+01,1.572e+01,1.849e+01,1.554e+01,1.705e+01,1.937e+01,1.937e+01,1.706e+01,1.552e+01,1.926e+01,1.703e+01,1.666e+01,1.962e+01,1.966e+01,2.047e+01,2.050e+01,2.018e+01,2.170e+01,2.220e+01,2.178e+01,2.208e+01,2.318e+01,2.127e+01
5.501e-01,1.759e-01,1.065e+00,1.687e+00,1.827e+00,1.889e+00,2.229e+00,1.206e+00,2.898e+00,2.448e+00,2.403e+00,3.896e+00,2.613e+00,3.740e+00,4.421e+00,3.914e+00,5.433e+00,5.109e+00,3.737e+00,3.314e+00,6.041e+00,4.723e+00,4.147e+00,5.865e+00,6.131e+00,4.582e+00,5.782e+00,7.098e+00,7.309e+00,8.205e+00,6.867e+00,6.954e+00,9.198e+00,7.690e+00,9.133e+00,8.786e+00,1.039e+01,1.006e+01,8.791e+00,8.663e+00,9.861e+00,1.019e+01,1.018e+01,1.033e+01,8.806e+00,1.157e+01,1.073e+01,1.097e+01,1.075e+01,1.289e+01,9.983e+00,1.162e+01,1.414e+01,1.220e+01,1.230e+01,1.350e+01,1.227e+01,1.366e+01,1.407e+01,1.385e+01,1.557e+01,1.511e+01,1.410e+01,1.652e+01,1.699e+01,1.605e+01,1.727e+01,1.551e+01,1.490e+01,1.297e+01,1.334e+01,1.840e+01,1.587e+01,1.878e+01,1.472e+01,1.640e+01,1.940e+01,1.863e+01,1.942e+01,1.739e+01,1.841e+01,2.017e+01,1.848e+01,2.004e+01,1.932e+01,2.110e+01,1.951e+01,1.817e+01,2.264e+01,2.237e+01,2.397e+01,2.164e+01,2.281e+01,2.348e+01,2.364e+01,2.153e+01,2.380e+01,2.481e+01,2.514e+01
8.390e-02,7.353e-02,3.412e-01,3.212e-01,5.613e-01,6.950e-01,5.455e-01,8.742e-01,1.517e+00,1.456e+00,1.666e+00,2.509e+00,1.898e+00,2.489e+00,2.871e+00,2.468e+00,4.877e+00,4.945e+00,3.218e+00,2.830e+00,4.868e+00,3.779e+00,3.388e+00,4.947e+00,5.356e+00,3.770e+00,3.914e+00,5.243e+00,6.115e+00,6.094e+00,6.045e+00,6.896e+00,7.413e+00,6.088e+00,7.013e+00,7.318e+00,7.463e+00,9.205e+00,6.447e+00,8.129e+00,7.790e+00,9.044e+00,7.918e+00,7.887e+00,6.890e+00,1.034e+01,8.649e+00,9.241e+00,9.394e+00,1.037e+01,9.164e+00,9.434e+00,1.305e+01,1.120e+01,1.029e+01,1.222e+01,1.207e+01,1.187e+01,1.371e+01,1.275e+01,1.440e+01,1.369e+01,1.360e+01,1.548e+01,1.568e+01,1.559e+01,1.494e+01,1.416e+01,1.421e+01,1.078e+01,1.333e+01,1.680e+01,1.483e+01,1.746e+01,1.512e+01,1.483e+01,1.670e+01,1.536e+01,1.669e+01,1.524e+01,1.732e+01,1.894e+01,1.805e+01,1.742e+01,1.725e+01,1.957e+01,1.869e+01,1.672e+01,2.054e+01,1.896e+01,2.061e+01,2.002e+01,2.147e+01,2.054e+01,2.037e+01,2.079e+01,2.338e+01,2.472e+01,2.235e+01
6.463e-02,9.182e-02,4.051e-01,3.941e-01,9.129e-01,1.034e+00,1.255e+00,1.207e+00,1.802e+00,2.238e+00,1.977e+00,3.594e+00,2.410e+00,2.981e+00,3.454e+00,3.318e+00,4.550e+00,5.229e+00,3.831e+00,3.372e+00,5.486e+00,3.919e+00,4.284e+00,5.123e+00,5.933e+00,4.443e+00,4.057e+00,5.872e+00,7.137e+00,7.030e+00,6.307e+00,6.774e+00,7.036e+00,6.206e+00,7.481e+00,7.350e+00,7.776e+00,8.109e+00,6.427e+00,8.706e+00,7.726e+00,9.822e+00,7.924e+00,9.489e+00,8.498e+00,1.189e+01,9.838e+00,1.056e+01,9.388e+00,1.048e+01,9.357e+00,1.005e+01,1.242e+01,1.138e+01,1.066e+01,1.168e+01,1.334e+01,1.153e+01,1.505e+01,1.381e+01,1.419e+01,1.596e+01,1.413e+01,1.524e+01,1.700e+01,1.717e+01,1.699e+01,1.649e+01,1.541e+01,1.271e+01,1.474e+01,1.714e+01,1.672e+01,1.828e+01,1.602e+01,1.491e+01,1.885e+01,1.685e+01,1.889e+01,1.644e+01,1.956e+01,2.018e+01,1.900e+01,1.997e+01,2.007e+01,2.194e+01,2.154e+01,1.981e+01,2.282e+01,2.303e+01,2.257e+01,2.236e+01,2.401e+01,2.308e+01,2.243e+01,2.388e+01,2.490e+01,2.740e+01,2.437e+01
5.655e-01,1.513e-01,9.144e-01,1.301e+00,1.855e+00,1.813e+00,1.853e+00,1.065e+00,2.572e+00,2.158e+00,2.279e+00,3.620e+00,2.135e+00,2.779e+00,3.655e+00,3.353e+00,5.272e+00,4.898e+00,3.552e+00,2.931e+00,5.487e+00,4.202e+00,3.968e+00,5.890e+00,7.024e+00,5.470e+00,5.329e+00,7.363e+00,7.568e+00,8.668e+00,6.798e+00,6.859e+00,8.991e+00,8.243e+00,9.169e+00,8.650e+00,9.553e+00,1.061e+01,7.856e+00,9.858e+00,9.628e+00,1.090e+01,1.069e+01,1.155e+01,9.316e+00,1.235e+01,1.097e+01,1.113e+01,1.074e+01,1.183e+01,8.558e+00,9.800e+00,1.403e+01,1.092e+01,1.145e+01,1.283e+01,1.457e+01,1.346e+01,1.404e+01,1.360e+01,1.468e+01,1.581e+01,1.435e+01,1.679e+01,1.752e+01,1.554e+01,1.606e+01,1.664e+01,1.519e+01,1.329e+01,1.479e+01,1.934e+01,1.648e+01,1.827e+01,1.653e+01,1.672e+01,1.944e+01,1.947e+01,2.054e+01,1.845e+01,1.860e+01,2.198e+01,2.042e+01,2.123e+01,1.979e+01,2.043e+01,2.108e+01,2.002e+01,2.257e+01,2.332e+01,2.374e+01,2.179e+01,2.338e+01,2.537e+01,2.436e+01,2.305e+01,2.418e+01,2.699e+01,2.514e+01
2.526e-01,1.217e-01,7.197e-01,1.418e+00,1.533e+00,1.926e+00,1.508e+00,1.646e+00,3.196e+00,2.783e+00,2.725e+00,3.559e+00,3.012e+00,3.351e+00,4.041e+00,3.836e+00,5.830e+00,5.187e+00,4.319e+00,3.702e+00,5.737e+00,4.733e+00,4.537e+00,7.097e+00,6.060e+00,4.405e+00,5.502e+00,7.293e+00,7.832e+00,8.222e+00,6.787e+00,7.046e+00,8.531e+00,7.686e+00,9.285e+00,8.862e+00,9.237e+00,1.131e+01,8.895e+00,9.989e+00,1.012e+01,1.046e+01,1.073e+01,1.049e+01,8.841e+00,1.260e+01,1.119e+01,1.016e+01,1.010e+01,1.381e+01,1.080e+01,1.110e+01,1.492e+01,1.333e+01,1.297e+01,1.347e+01,1.471e+01,1.463e+01,1.411e+01,1.445e+01,1.525e+01,1.587e+01,1.661e+01,1.769e+01,1.762e+01,1.687e+01,1.770e+01,1.635e+01,1.739e+01,1.397e+01,1.425e+01,1.828e+01,1.595e+01,2.068e+01,1.685e+01,1.688e+01,1.984e+01,1.838e+01,2.015e+01,1.763e+01,1.947e+01,2.023e+01,1.924e+01,1.970e+01,1.873e+01,2.028e+01,1.918e+01,1.845e+01,2.187e+01,2.175e+01,2.445e+01,2.155e+01,2.233e+01,2.220e+01,2.395e+01,2.282e+01,2.353e+01,2.627e+01,2.350e+01
