4.477e-01,6.200e-01,7.486e-01,2.962e-01,6.232e-01,1.704e-02,6.327e-01,9.898e-01,5.524e-02,3.849e-01,5.676e-01,4.041e-01,2.032e-01,4.136e-01,4.452e-01,1.993e-01,9.203e-01,2.545e-01,6.502e-03,7.334e-01,9.618e-01,9.913e-01,2.202e-01,1.693e-01,1.047e-01,8.988e-01,3.942e-01,7.506e-01,9.628e-01,4.127e-01,2.561e-01,3.277e-01,4.869e-01,7.064e-02,3.756e-01,2.388e-01,8.945e-01,4.648e-01,2.907e-02,1.116e-01,8.999e-01,9.283e-01,4.992e-01,6.233e-01,2.264e-01,2.257e-01,8.225e-01,1.078e-01,2.497e-01,6.806e-01,5.581e-01,8.232e-01,5.266e-01,4.553e-01,8.539e-01,9.758e-01,9.652e-01,9.009e-01,9.077e-01,7.435e-01,2.041e-02,3.875e-01,5.759e-01,2.769e-01,9.161e-01,7.957e-01,9.551e-01,7.626e-01,5.206e-01,5.324e-01
4.359e-01,8.907e-01,7.684e-01,1.254e+00,9.558e-01,2.812e-01,1.368e+00,1.007e+00,4.744e-01,5.653e-01,1.150e+00,1.119e+00,4.528e-01,4.821e-01,1.115e+00,6.485e-01,1.830e+00,7.391e-01,3.273e-01,8.359e-01,1.297e+00,1.721e+00,5.090e-01,2.311e-01,7.867e-01,1.280e+00,1.208e+00,1.181e+00,1.832e+00,4.301e-01,4.532e-01,6.802e-01,1.413e+00,2.035e-01,6.530e-01,6.073e-01,1.265e+00,5.721e-01,2.911e-01,1.195e-01,1.417e+00,1.078e+00,5.552e-01,1.334e+00,7.577e-01,1.084e+00,1.376e+00,9.890e-01,3.161e-01,1.111e+00,1.168e+00,1.324e+00,5.270e-01,1.369e+00,1.216e+00,1.524e+00,1.257e+00,1.686e+00,9.686e-01,1.328e+00,5.190e-01,1.055e+00,1.445e+00,1.089e+00,9.512e-01,1.127e+00,1.348e+00,1.062e+00,1.132e+00,1.509e+00
3.487e-01,5.772e-01,1.485e+00,1.254e+00,1.392e+00,4.669e-01,7.981e-01,1.046e+00,8.206e-01,5.275e-01,1.626e+00,1.522e+00,2.831e-01,4.755e-01,1.492e+00,1.149e+00,1.049e+00,6.022e-01,7.975e-01,1.166e+00,1.738e+00,1.590e+00,1.038e+00,3.934e-01,7.433e-01,1.633e+00,1.009e+00,1.031e+00,1.069e+00,6.056e-01,3.729e-01,9.358e-01,1.279e+00,8.465e-01,7.559e-01,5.877e-01,1.082e+00,1.306e+00,5.959e-01,5.810e-01,9.862e-01,1.497e+00,1.072e+00,1.679e+00,8.266e-01,5.280e-01,1.356e+00,1.028e+00,2.826e-01,7.421e-01,1.061e+00,1.234e+00,8.613e-01,9.473e-01,1.213e+00,1.906e+00,1.344e+00,1.814e+00,1.512e+00,1.113e+00,7.537e-01,6.537e-01,1.478e+00,8.017e-01,1.341e+00,9.015e-01,1.703e+00,1.490e+00,1.111e+00,1.207e+00
1.544e-02,2.775e-01,1.135e-01,1.399e+00,7.246e-01,1.049e+00,1.000e+00,2.080e-01,7.525e-01,6.395e-01,1.357e+00,8.594e-01,7.512e-01,6.562e-01,1.391e+00,5.491e-01,9.016e-01,1.105e+00,1.032e+00,9.581e-01,4.391e-01,1.582e+00,7.928e-01,6.412e-01,1.400e+00,6.112e-01,1.610e+00,1.243e+00,9.531e-01,8.470e-01,8.928e-01,4.372e-01,9.075e-01,1.055e+00,3.266e-01,6.354e-01,6.901e-01,1.021e+00,1.187e+00,1.649e-01,9.047e-01,9.240e-01,7.144e-01,1.709e+00,6.489e-01,1.570e+00,1.410e+00,9.323e-01,3.882e-01,5.306e-01,1.580e+00,1.449e+00,5.332e-01,1.838e+00,5.286e-01,7.134e-01,4.931e-01,1.086e+00,6.570e-01,8.925e-01,1.229e+00,8.680e-01,1.134e+00,7.855e-01,5.699e-01,6.712e-01,1.101e+00,1.192e+00,6.954e-01,1.200e+00
4.475e-01,7.732e-01,1.051e+00,1.506e+00,1.570e+00,1.596e+00,1.670e+00,1.709e+00,1.393e+00,1.112e+00,2.068e+00,1.353e+00,1.320e+00,1.156e+00,1.912e+00,1.200e+00,2.374e+00,1.250e+00,1.705e+00,1.880e+00,1.509e+00,3.350e+00,1.187e+00,1.060e+00,2.060e+00,1.826e+00,2.249e+00,1.974e+00,2.002e+00,2.171e+00,1.145e+00,1.496e+00,1.543e+00,1.428e+00,7.921e-01,9.105e-01,1.657e+00,2.543e+00,1.535e+00,8.205e-01,2.352e+00,2.469e+00,1.631e+00,2.321e+00,9.069e-01,2.415e+00,2.688e+00,1.480e+00,7.297e-01,1.848e+00,2.583e+00,2.195e+00,1.209e+00,2.206e+00,1.721e+00,2.001e+00,1.770e+00,2.338e+00,1.896e+00,1.661e+00,1.911e+00,1.184e+00,2.077e+00,1.450e+00,2.527e+00,2.064e+00,2.524e+00,2.844e+00,1.883e+00,2.029e+00
3.266e-01,6.591e-01,1.072e+00,1.488e+00,1.327e+00,1.702e+00,1.957e+00,1.407e+00,1.666e+00,1.551e+00,2.425e+00,1.626e+00,1.308e+00,8.629e-01,1.724e+00,1.832e+00,2.011e+00,1.781e+00,1.318e+00,1.389e+00,1.681e+00,2.543e+00,1.869e+00,1.573e+00,2.280e+00,2.009e+00,1.866e+00,1.526e+00,1.633e+00,1.131e+00,1.158e+00,1.420e+00,1.652e+00,1.138e+00,1.233e+00,1.400e+00,1.704e+00,2.251e+00,1.544e+00,7.797e-01,1.591e+00,2.175e+00,1.565e+00,1.914e+00,1.525e+00,1.420e+00,2.394e+00,1.770e+00,6.611e-01,2.099e+00,1.973e+00,2.411e+00,1.471e+00,2.138e+00,1.943e+00,2.405e+00,1.372e+00,2.784e+00,1.447e+00,1.637e+00,1.607e+00,1.969e+00,1.920e+00,1.750e+00,2.064e+00,1.436e+00,2.440e+00,2.489e+00,1.774e+00,2.214e+00
3.805e-01,7.704e-01,9.631e-01,1.501e+00,1.358e+00,1.604e+00,2.964e+00,2.026e+00,2.360e+00,1.943e+00,2.675e+00,2.033e+00,1.932e+00,9.857e-01,2.144e+00,2.535e+00,3.420e+00,1.807e+00,2.367e+00,1.668e+00,2.145e+00,3.898e+00,1.908e+00,2.150e+00,2.944e+00,2.210e+00,2.525e+00,1.978e+00,2.088e+00,1.876e+00,1.731e+00,2.161e+00,1.981e+00,1.101e+00,1.178e+00,1.411e+00,2.635e+00,2.454e+00,1.568e+00,1.304e+00,2.518e+00,2.356e+00,2.030e+00,2.523e+00,2.004e+00,2.373e+00,3.309e+00,2.349e+00,1.275e+00,2.615e+00,2.716e+00,3.165e+00,1.994e+00,2.420e+00,2.065e+00,2.547e+00,2.542e+00,3.331e+00,1.763e+00,2.175e+00,1.866e+00,2.100e+00,2.933e+00,1.979e+00,2.971e+00,1.846e+00,3.237e+00,2.623e+00,2.258e+00,3.133e+00
3.017e-01,6.640e-01,8.692e-01,1.547e+00,1.317e+00,1.392e+00,2.198e+00,1.886e+00,2.598e+00,1.741e+00,3.215e+00,2.536e+00,1.878e+00,1.209e+00,2.216e+00,2.352e+00,3.047e+00,1.449e+00,2.493e+00,2.194e+00,2.145e+00,3.504e+00,2.307e+00,2.241e+00,3.280e+00,1.858e+00,2.787e+00,2.137e+00,2.732e+00,2.484e+00,1.601e+00,2.277e+00,1.972e+00,1.254e+00,1.756e+00,1.135e+00,2.724e+00,2.268e+00,1.424e+00,1.108e+00,2.859e+00,2.286e+00,1.855e+00,2.592e+00,1.771e+00,3.194e+00,3.356e+00,2.044e+00,1.721e+00,2.926e+00,2.528e+00,2.958e+00,1.505e+00,2.616e+00,1.659e+00,2.125e+00,2.191e+00,3.007e+00,2.453e+00,2.545e+00,2.359e+00,1.821e+00,3.021e+00,2.190e+00,2.490e+00,1.863e+00,3.573e+00,2.786e+00,2.098e+00,3.324e+00
2.700e-01,5.266e-01,5.968e-01,9.734e-01,8.524e-01,1.292e+00,2.487e+00,1.856e+00,3.371e+00,3.104e+00,3.116e+00,2.344e+00,2.557e+00,1.615e+00,1.823e+00,2.998e+00,3.420e+00,2.583e+00,2.727e+00,2.345e+00,2.558e+00,3.678e+00,3.256e+00,3.778e+00,3.459e+00,2.527e+00,3.244e+00,1.930e+00,2.482e+00,2.075e+00,2.095e+00,2.185e+00,2.389e+00,1.685e+00,2.715e+00,2.042e+00,3.059e+00,2.319e+00,1.629e+00,1.695e+00,2.629e+00,2.180e+00,2.047e+00,2.418e+00,2.522e+00,2.884e+00,4.025e+00,1.927e+00,2.743e+00,3.159e+00,3.107e+00,3.903e+00,2.365e+00,2.664e+00,2.498e+00,2.429e+00,3.128e+00,3.394e+00,3.044e+00,2.684e+00,2.454e+00,2.243e+00,3.644e+00,2.460e+00,2.737e+00,1.769e+00,3.833e+00,2.486e+00,2.367e+00,3.454e+00
1.298e-01,4.599e-01,4.923e-01,1.442e+00,1.036e+00,1.595e+00,1.689e+00,1.281e+00,2.751e+00,2.153e+00,2.943e+00,2.917e+00,2.292e+00,2.290e+00,1.915e+00,2.900e+00,3.260e+00,2.636e+00,2.492e+00,2.524e+00,2.227e+00,3.814e+00,3.003e+00,2.815e+00,3.705e+00,2.473e+00,3.241e+00,1.617e+00,3.353e+00,2.760e+00,1.491e+00,2.766e+00,3.211e+00,2.028e+00,2.817e+00,2.653e+00,1.968e+00,2.919e+00,1.860e+00,1.379e+00,2.433e+00,2.701e+00,1.744e+00,2.550e+00,2.334e+00,3.194e+00,3.807e+00,2.287e+00,2.202e+00,3.619e+00,3.336e+00,3.460e+00,1.872e+00,3.172e+00,2.320e+00,2.215e+00,2.115e+00,2.871e+00,3.217e+00,2.772e+00,3.695e+00,2.803e+00,3.118e+00,3.590e+00,2.506e+00,2.254e+00,3.415e+00,3.331e+00,2.879e+00,3.096e+00
3.531e-01,6.336e-01,1.489e+00,1.850e+00,1.817e+00,1.735e+00,1.690e+00,1.551e+00,1.924e+00,1.575e+00,3.307e+00,3.364e+00,2.408e+00,2.064e+00,2.869e+00,2.454e+00,2.169e+00,2.831e+00,2.723e+00,2.973e+00,2.450e+00,3.491e+00,2.647e+00,2.692e+00,3.553e+00,2.610e+00,3.206e+00,2.411e+00,2.227e+00,2.161e+00,1.754e+00,2.347e+00,2.271e+00,2.060e+00,1.846e+00,2.377e+00,2.067e+00,3.841e+00,2.574e+00,1.518e+00,2.272e+00,3.346e+00,2.892e+00,3.347e+00,1.865e+00,2.187e+00,3.828e+00,2.616e+00,1.962e+00,2.788e+00,2.824e+00,3.569e+00,2.034e+00,3.531e+00,2.306e+00,3.399e+00,2.796e+00,3.860e+00,2.778e+00,2.578e+00,3.313e+00,2.480e+00,2.866e+00,2.182e+00,3.332e+00,2.154e+00,3.754e+00,4.061e+00,3.042e+00,3.158e+00
6.690e-02,1.919e-01,6.431e-01,9.873e-01,9.751e-01,1.269e+00,1.566e+00,1.191e+00,2.132e+00,1.449e+00,2.284e+00,3.813e+00,3.382e+00,2.678e+00,2.758e+00,3.269e+00,2.648e+00,2.433e+00,3.315e+00,2.439e+00,2.747e+00,3.905e+00,2.873e+00,2.866e+00,3.812e+00,2.739e+00,2.931e+00,2.003e+00,2.100e+00,2.265e+00,1.634e+00,3.462e+00,2.357e+00,2.481e+00,1.738e+00,3.129e+00,1.855e+00,4.158e+00,2.310e+00,1.900e+00,2.873e+00,2.735e+00,2.702e+00,2.588e+00,2.580e+00,2.739e+00,3.796e+00,3.488e+00,2.231e+00,3.636e+00,3.172e+00,3.061e+00,2.052e+00,3.525e+00,2.328e+00,2.539e+00,2.761e+00,3.156e+00,2.429e+00,2.909e+00,3.236e+00,3.056e+00,2.920e+00,2.962e+00,3.543e+00,2.625e+00,3.991e+00,3.840e+00,3.547e+00,3.605e+00
3.832e-01,5.349e-01,1.088e+00,8.916e-01,1.248e+00,1.210e+00,1.407e+00,1.804e+00,1.944e+00,1.520e+00,2.932e+00,3.735e+00,3.779e+00,3.630e+00,3.516e+00,3.751e+00,2.807e+00,2.643e+00,3.754e+00,4.095e+00,3.632e+00,3.932e+00,3.225e+00,3.054e+00,4.795e+00,2.889e+00,3.699e+00,3.203e+00,3.610e+00,3.465e+00,1.880e+00,3.259e+00,3.026e+00,2.832e+00,2.845e+00,3.241e+00,2.470e+00,4.323e+00,3.124e+00,2.316e+00,3.368e+00,3.891e+00,3.244e+00,2.878e+00,2.417e+00,3.202e+00,4.996e+00,2.904e+00,2.613e+00,4.453e+00,3.477e+00,4.119e+00,3.023e+00,3.647e+00,2.850e+00,3.654e+00,3.190e+00,4.337e+00,3.637e+00,3.627e+00,3.423e+00,2.850e+00,3.354e+00,3.222e+00,4.231e+00,3.046e+00,5.036e+00,4.521e+00,3.556e+00,4.196e+00
3.756e-01,5.711e-01,1.216e+00,1.113e+00,1.416e+00,1.294e+00,1.290e+00,1.736e+00,1.801e+00,1.243e+00,2.560e+00,3.121e+00,2.647e+00,2.575e+00,3.252e+00,2.536e+00,3.005e+00,2.593e+00,2.582e+00,2.820e+00,3.188e+00,4.019e+00,3.335e+00,2.328e+00,3.781e+00,3.466e+00,3.397e+00,2.613e+00,3.098e+00,2.999e+00,2.014e+00,3.236e+00,2.545e+00,2.461e+00,2.631e+00,2.839e+00,2.452e+00,4.337e+00,2.846e+00,1.716e+00,3.666e+00,3.588e+00,3.457e+00,2.727e+00,2.344e+00,3.638e+00,3.877e+00,2.760e+00,2.290e+00,3.489e+00,3.336e+00,3.139e+00,2.109e+00,3.621e+00,2.644e+00,2.943e+00,2.672e+00,3.912e+00,2.924e+00,3.142e+00,2.936e+00,2.881e+00,3.629e+00,2.582e+00,3.745e+00,3.302e+00,3.868e+00,4.063e+00,4.017e+00,4.230e+00
3.319e-01,6.581e-01,1.442e+00,1.901e+00,1.878e+00,2.258e+00,2.599e+00,2.280e+00,3.483e+00,2.632e+00,4.344e+00,5.143e+00,4.705e+00,4.351e+00,5.395e+00,5.818e+00,5.143e+00,5.245e+00,5.537e+00,4.968e+00,5.179e+00,6.430e+00,6.023e+00,4.830e+00,7.476e+00,5.040e+00,5.539e+00,4.185e+00,5.326e+00,4.667e+00,3.181e+00,5.406e+00,4.982e+00,5.075e+00,4.235e+00,5.249e+00,4.298e+00,6.264e+00,5.408e+00,3.663e+00,5.415e+00,5.581e+00,5.063e+00,4.355e+00,4.972e+00,5.954e+00,7.555e+00,5.215e+00,4.086e+00,5.958e+00,6.138e+00,5.696e+00,4.069e+00,5.665e+00,4.214e+00,5.737e+00,4.076e+00,6.667e+00,4.719e+00,5.851e+00,5.682e+00,4.994e+00,6.028e+00,5.253e+00,6.318e+00,4.690e+00,6.783e+00,6.509e+00,6.297e+00,6.801e+00
4.092e-01,7.338e-01,1.379e+00,1.662e+00,1.703e+00,1.555e+00,1.677e+00,1.774e+00,2.445e+00,2.079e+00,2.987e+00,2.930e+00,2.743e+00,2.767e+00,3.267e+00,4.159e+00,3.693e+00,3.258e+00,3.640e+00,3.443e+00,4.232e+00,4.811e+00,3.581e+00,3.503e+00,4.790e+00,4.299e+00,4.313e+00,3.181e+00,4.182e+00,3.417e+00,2.821e+00,3.124e+00,3.996e+00,3.830e+00,3.950e+00,3.730e+00,3.040e+00,4.603e+00,3.199e+00,2.817e+00,3.843e+00,4.286e+00,2.961e+00,3.589e+00,2.576e+00,3.598e+00,5.132e+00,2.821e+00,2.628e+00,4.091e+00,4.661e+00,4.490e+00,2.754e+00,3.907e+00,3.349e+00,4.267e+00,3.450e+00,5.098e+00,4.411e+00,3.658e+00,4.043e+00,3.015e+00,4.950e+00,3.486e+00,4.274e+00,3.352e+00,4.689e+00,4.850e+00,4.489e+00,4.897e+00
2.149e-01,5.022e-01,1.081e+00,1.788e+00,1.481e+00,1.843e+00,2.216e+00,1.513e+00,2.763e+00,2.359e+00,3.493e+00,3.465e+00,3.020e+00,2.621e+00,3.639e+00,4.230e+00,4.316e+00,3.768e+00,3.814e+00,3.271e+00,4.471e+00,4.892e+00,4.584e+00,4.446e+00,5.903e+00,4.084e+00,4.601e+00,3.750e+00,3.757e+00,3.110e+00,3.224e+00,4.258e+00,3.244e+00,4.697e+00,4.202e+00,3.882e+00,3.476e+00,5.111e+00,4.270e+00,3.003e+00,3.951e+00,3.890e+00,3.942e+00,4.637e+00,4.057e+00,3.757e+00,5.591e+00,4.044e+00,3.323e+00,4.716e+00,5.306e+00,4.695e+00,2.930e+00,4.519e+00,3.511e+00,3.713e+00,3.798e+00,5.034e+00,4.465e+00,3.994e+00,3.970e+00,3.838e+00,4.702e+00,4.060e+00,3.875e+00,3.145e+00,5.577e+00,4.577e+00,4.448e+00,5.332e+00
3.904e-01,7.054e-01,1.144e+00,1.296e+00,1.269e+00,1.226e+00,2.150e+00,1.751e+00,2.531e+00,2.406e+00,3.290e+00,4.176e+00,3.997e+00,3.849e+00,3.901e+00,5.200e+00,4.566e+00,5.007e+00,4.536e+00,5.169e+00,5.379e+00,5.061e+00,5.267e+00,5.220e+00,7.236e+00,5.117e+00,5.809e+00,4.759e+00,5.459e+00,3.779e+00,3.448e+00,4.991e+00,5.264e+00,5.017e+00,5.647e+00,5.765e+00,4.362e+00,5.991e+00,4.608e+00,3.591e+00,4.198e+00,4.571e+00,4.735e+00,4.672e+00,4.306e+00,3.809e+00,7.316e+00,4.779e+00,4.236e+00,5.917e+00,5.583e+00,5.769e+00,4.024e+00,5.284e+00,4.529e+00,5.394e+00,4.817e+00,6.413e+00,5.224e+00,5.345e+00,4.504e+00,5.365e+00,5.787e+00,5.026e+00,5.111e+00,3.714e+00,6.993e+00,5.077e+00,5.900e+00,6.542e+00
1.522e-02,2.958e-01,7.455e-01,1.822e+00,1.342e+00,2.006e+00,1.856e+00,1.033e+00,2.308e+00,1.566e+00,2.816e+00,3.471e+00,3.267e+00,3.341e+00,4.638e+00,4.832e+00,4.136e+00,4.508e+00,5.078e+00,4.107e+00,4.257e+00,5.766e+00,5.577e+00,3.930e+00,6.858e+00,5.288e+00,5.306e+00,3.962e+00,4.725e+00,4.725e+00,3.889e+00,4.974e+00,5.450e+00,6.089e+00,4.307e+00,5.334e+00,3.693e+00,5.624e+00,5.601e+00,3.930e+00,5.020e+00,4.819e+00,4.250e+00,3.961e+00,4.753e+00,5.550e+00,6.919e+00,5.539e+00,3.002e+00,5.111e+00,6.150e+00,4.663e+00,3.877e+00,5.674e+00,3.622e+00,5.141e+00,2.697e+00,5.669e+00,4.373e+00,5.241e+00,5.259e+00,5.034e+00,5.430e+00,5.047e+00,5.594e+00,4.363e+00,5.425e+00,5.530e+00,5.747e+00,6.323e+00
4.005e-01,7.625e-01,1.316e+00,1.883e+00,1.831e+00,2.121e+00,2.228e+00,2.101e+00,2.863e+00,2.270e+00,3.582e+00,3.760e+00,3.291e+00,3.125e+00,3.912e+00,3.932e+00,4.505e+00,4.291e+00,4.268e+00,5.712e+00,4.685e+00,6.593e+00,6.159e+00,4.761e+00,6.841e+00,5.164e+00,6.060e+00,4.659e+00,5.290e+00,4.455e+00,3.890e+00,5.281e+00,4.762e+00,5.500e+00,4.358e+00,5.679e+00,5.159e+00,6.763e+00,4.634e+00,3.846e+00,4.978e+00,4.656e+00,5.423e+00,4.837e+00,4.719e+00,5.332e+00,7.856e+00,5.054e+00,4.095e+00,5.382e+00,6.540e+00,5.166e+00,3.853e+00,5.848e+00,5.195e+00,5.608e+00,4.438e+00,5.431e+00,5.537e+00,5.917e+00,5.347e+00,5.143e+00,5.902e+00,5.042e+00,5.267e+00,4.624e+00,7.329e+00,6.176e+00,5.825e+00,6.421e+00
2.053e-01,3.590e-01,5.303e-01,6.793e-01,6.836e-01,5.967e-01,8.618e-01,8.496e-01,1.172e+00,1.089e+00,1.786e+00,2.752e+00,2.200e+00,2.744e+00,2.724e+00,3.070e+00,3.361e+00,3.984e+00,3.206e+00,3.489e+00,3.258e+00,4.292e+00,4.200e+00,4.082e+00,5.363e+00,4.330e+00,4.185e+00,3.007e+00,4.725e+00,3.483e+00,3.406e+00,4.758e+00,4.819e+00,4.760e+00,4.473e+00,4.651e+00,3.881e+00,4.156e+00,4.021e+00,3.123e+00,3.928e+00,4.131e+00,4.269e+00,3.150e+00,4.286e+00,4.004e+00,5.301e+00,3.821e+00,3.950e+00,4.623e+00,4.468e+00,4.212e+00,3.062e+00,4.398e+00,3.316e+00,3.713e+00,2.865e+00,4.553e+00,4.713e+00,5.066e+00,4.873e+00,4.577e+00,4.230e+00,3.870e+00,4.212e+00,3.845e+00,4.332e+00,4.352e+00,5.633e+00,4.947e+00
4.010e-01,6.986e-01,1.052e+00,1.513e+00,1.441e+00,1.437e+00,2.497e+00,1.886e+00,2.293e+00,2.096e+00,3.534e+00,4.208e+00,3.778e+00,3.813e+00,4.222e+00,4.905e+00,4.304e+00,4.365e+00,5.133e+00,4.905e+00,4.906e+00,7.064e+00,5.722e+00,6.319e+00,7.323e+00,6.739e+00,5.861e+00,4.653e+00,5.840e+00,5.460e+00,6.236e+00,6.210e+00,6.464e+00,5.982e+00,6.062e+00,6.690e+00,6.316e+00,6.237e+00,4.749e+00,4.409e+00,6.067e+00,6.350e+00,5.400e+00,5.515e+00,5.425e+00,5.039e+00,7.605e+00,5.143e+00,5.302e+00,6.501e+00,6.777e+00,7.456e+00,5.543e+00,6.861e+00,4.909e+00,5.633e+00,5.170e+00,6.658e+00,6.272e+00,6.893e+00,6.546e+00,6.901e+00,6.023e+00,4.706e+00,6.607e+00,4.872e+00,7.510e+00,6.780e+00,6.587e+00,7.267e+00
2.303e-01,5.871e-01,1.258e+00,2.037e+00,1.789e+00,2.329e+00,3.029e+00,2.167e+00,3.958e+00,3.099e+00,4.259e+00,4.265e+00,4.367e+00,3.603e+00,4.832e+00,5.598e+00,6.120e+00,5.345e+00,5.751e+00,5.454e+00,5.445e+00,7.339e+00,7.028e+00,7.018e+00,9.001e+00,6.279e+00,8.420e+00,5.657e+00,6.270e+00,5.662e+00,5.994e+00,6.461e+00,6.826e+00,5.957e+00,6.913e+00,6.732e+00,5.627e+00,7.214e+00,7.100e+00,5.265e+00,5.781e+00,6.562e+00,6.432e+00,5.730e+00,6.675e+00,6.193e+00,9.129e+00,6.087e+00,5.837e+00,6.714e+00,7.707e+00,7.878e+00,5.794e+00,7.165e+00,6.734e+00,7.177e+00,6.335e+00,8.136e+00,7.098e+00,6.181e+00,7.483e+00,5.612e+00,8.056e+00,6.078e+00,7.049e+00,4.972e+00,8.175e+00,7.261e+00,7.762e+00,8.101e+00
2.841e-01,6.747e-01,1.383e+00,1.850e+00,1.662e+00,1.352e+00,2.557e+00,2.062e+00,3.597e+00,2.600e+00,3.756e+00,4.335e+00,3.204e+00,2.985e+00,4.094e+00,5.281e+00,6.047e+00,4.531e+00,4.750e+00,4.765e+00,5.538e+00,6.894e+00,6.747e+00,7.063e+00,7.885e+00,6.519e+00,6.708e+00,4.598e+00,6.903e+00,5.647e+00,4.818e+00,6.874e+00,7.046e+00,5.761e+00,6.482e+00,6.240e+00,6.015e+00,6.650e+00,5.688e+00,4.972e+00,6.093e+00,5.436e+00,6.282e+00,6.285e+00,6.652e+00,6.445e+00,8.202e+00,6.328e+00,6.641e+00,6.876e+00,8.114e+00,7.030e+00,5.062e+00,5.838e+00,6.644e+00,7.038e+00,6.654e+00,7.196e+00,6.692e+00,6.918e+00,7.188e+00,6.647e+00,7.946e+00,5.947e+00,6.598e+00,4.883e+00,7.978e+00,6.792e+00,7.409e+00,7.472e+00
2.685e-01,5.161e-01,1.038e+00,1.279e+00,1.314e+00,1.596e+00,2.468e+00,1.861e+00,2.519e+00,1.920e+00,2.782e+00,2.811e+00,2.550e+00,1.620e+00,2.565e+00,3.949e+00,4.198e+00,3.078e+00,4.076e+00,3.482e+00,3.876e+00,5.664e+00,4.815e+00,6.505e+00,7.094e+00,5.824e+00,5.634e+00,4.764e+00,5.196e+00,5.549e+00,5.434e+00,6.034e+00,6.445e+00,5.693e+00,5.161e+00,6.057e+00,5.962e+00,6.384e+00,5.449e+00,4.902e+00,5.858e+00,5.021e+00,5.930e+00,5.298e+00,5.352e+00,4.736e+00,7.511e+00,6.725e+00,5.261e+00,7.193e+00,6.499e+00,6.246e+00,4.676e+00,5.590e+00,6.112e+00,6.953e+00,6.248e+00,6.881e+00,6.078e+00,6.673e+00,6.145e+00,6.672e+00,6.023e+00,4.959e+00,6.957e+00,4.275e+00,7.148e+00,6.314e+00,6.311e+00,7.152e+00
1.262e-01,3.202e-01,4.249e-01,7.664e-01,7.123e-01,1.448e+00,1.521e+00,1.160e+00,2.224e+00,1.948e+00,1.986e+00,2.906e+00,3.484e+00,3.689e+00,3.355e+00,4.669e+00,4.906e+00,4.581e+00,3.975e+00,4.776e+00,4.747e+00,5.741e+00,6.339e+00,6.166e+00,8.308e+00,6.262e+00,7.042e+00,5.252e+00,7.550e+00,6.139e+00,5.259e+00,6.962e+00,8.430e+00,7.377e+00,6.898e+00,8.894e+00,5.502e+00,7.964e+00,7.521e+00,5.595e+00,5.835e+00,5.635e+00,7.229e+00,5.198e+00,7.343e+00,6.192e+00,9.314e+00,6.753e+00,5.811e+00,8.359e+00,8.405e+00,7.042e+00,5.730e+00,6.618e+00,7.845e+00,7.799e+00,6.406e+00,7.406e+00,7.149e+00,8.244e+00,7.622e+00,7.414e+00,7.100e+00,6.932e+00,7.440e+00,5.559e+00,7.462e+00,6.919e+00,8.543e+00,7.685e+00
3.898e-02,1.997e-01,6.337e-01,1.100e+00,9.491e-01,1.829e+00,1.956e+00,1.451e+00,2.940e+00,2.116e+00,3.484e+00,3.641e+00,3.164e+00,2.486e+00,2.761e+00,3.871e+00,3.359e+00,4.121e+00,4.270e+00,4.711e+00,3.167e+00,4.870e+00,5.888e+00,5.999e+00,7.232e+00,4.798e+00,6.900e+00,4.669e+00,5.711e+00,5.087e+00,5.549e+00,6.127e+00,6.194e+00,5.234e+00,6.242e+00,6.177e+00,5.801e+00,6.129e+00,5.454e+00,3.911e+00,4.608e+00,5.549e+00,6.004e+00,4.586e+00,5.022e+00,5.486e+00,7.630e+00,6.214e+00,5.619e+00,6.379e+00,6.188e+00,6.366e+00,5.198e+00,6.236e+00,5.686e+00,6.721e+00,5.016e+00,6.248e+00,6.047e+00,6.041e+00,6.644e+00,6.596e+00,6.376e+00,5.035e+00,6.647e+00,3.935e+00,7.182e+00,6.813e+00,6.683e+00,6.578e+00
2.047e-01,4.964e-01,5.498e-01,1.307e+00,1.083e+00,1.641e+00,1.660e+00,1.419e+00,2.295e+00,1.768e+00,2.869e+00,2.921e+00,2.652e+00,2.859e+00,3.033e+00,4.053e+00,4.133e+00,4.043e+00,3.907e+00,4.457e+00,3.677e+00,5.712e+00,5.545e+00,5.088e+00,6.957e+00,4.752e+00,6.637e+00,4.627e+00,7.277e+00,5.937e+00,6.079e+00,6.421e+00,6.989e+00,6.381e+00,5.902e+00,7.629e+00,6.291e+00,6.195e+00,6.045e+00,4.918e+00,5.598e+00,7.030e+00,6.108e+00,4.512e+00,5.955e+00,7.212e+00,8.683e+00,5.236e+00,5.957e+00,6.153e+00,7.295e+00,7.455e+00,4.864e+00,6.651e+00,6.034e+00,7.942e+00,5.032e+00,6.645e+00,6.489e+00,6.863e+00,8.141e+00,6.055e+00,7.316e+00,5.425e+00,7.195e+00,5.294e+00,6.732e+00,7.569e+00,8.018e+00,7.173e+00
3.099e-01,5.911e-01,9.371e-01,1.302e+00,1.213e+00,1.545e+00,2.551e+00,2.046e+00,3.007e+00,2.401e+00,3.788e+00,3.516e+00,2.922e+00,2.420e+00,3.205e+00,4.041e+00,4.633e+00,3.568e+00,3.777e+00,3.893e+00,4.180e+00,5.382e+00,5.359e+00,5.893e+00,6.776e+00,4.815e+00,5.924e+00,4.594e+00,7.108e+00,6.359e+00,5.703e+00,6.474e+00,6.503e+00,5.698e+00,6.665e+00,6.647e+00,7.063e+00,6.115e+00,5.643e+00,5.304e+00,5.962e+00,5.849e+00,6.440e+00,6.360e+00,5.622e+00,6.689e+00,7.871e+00,6.108e+00,6.086e+00,6.891e+00,7.076e+00,7.943e+00,5.584e+00,6.583e+00,6.320e+00,7.624e+00,6.713e+00,7.652e+00,6.665e+00,6.400e+00,6.797e+00,6.716e+00,7.431e+00,5.064e+00,6.760e+00,5.022e+00,7.163e+00,6.726e+00,6.984e+00,7.587e+00
2.357e-01,4.581e-01,9.348e-01,1.109e+00,1.139e+00,1.495e+00,1.597e+00,1.441e+00,2.478e+00,2.157e+00,2.544e+00,3.037e+00,3.282e+00,3.043e+00,3.434e+00,4.508e+00,4.037e+00,4.423e+00,3.881e+00,4.170e+00,4.556e+00,5.140e+00,5.374e+00,5.049e+00,6.694e+00,5.393e+00,6.252e+00,4.707e+00,6.914e+00,6.369e+00,5.595e+00,6.583e+00,7.853e+00,7.855e+00,7.637e+00,7.954e+00,6.399e+00,7.147e+00,7.178e+00,6.602e+00,6.579e+00,7.055e+00,7.337e+00,5.124e+00,5.472e+00,7.543e+00,9.147e+00,7.625e+00,6.164e+00,7.004e+00,7.690e+00,6.966e+00,6.263e+00,7.043e+00,7.734e+00,8.825e+00,7.023e+00,8.748e+00,7.486e+00,7.024e+00,6.280e+00,7.405e+00,7.969e+00,6.453e+00,7.311e+00,6.313e+00,6.666e+00,7.545e+00,8.241e+00,8.882e+00
2.847e-01,5.009e-01,1.094e+00,1.436e+00,1.461e+00,2.172e+00,2.359e+00,1.800e+00,2.491e+00,2.185e+00,3.298e+00,3.763e+00,3.902e+00,3.043e+00,3.848e+00,4.502e+00,4.264e+00,4.692e+00,4.853e+00,4.663e+00,4.554e+00,5.864e+00,6.350e+00,7.653e+00,8.892e+00,6.922e+00,7.797e+00,6.846e+00,7.380e+00,7.158e+00,8.058e+00,8.488e+00,9.561e+00,9.817e+00,8.166e+00,9.384e+00,7.777e+00,9.588e+00,9.677e+00,6.896e+00,8.204e+00,8.540e+00,9.482e+00,7.643e+00,7.908e+00,7.711e+00,1.145e+01,1.022e+01,8.177e+00,1.015e+01,1.030e+01,8.816e+00,7.306e+00,8.911e+00,9.232e+00,1.045e+01,8.386e+00,1.002e+01,8.342e+00,9.454e+00,9.162e+00,9.578e+00,8.934e+00,7.548e+00,1.018e+01,7.030e+00,9.388e+00,1.025e+01,9.717e+00,9.942e+00
1.582e-01,3.079e-01,7.965e-01,8.314e-01,8.426e-01,9.797e-01,1.117e+00,1.157e+00,1.849e+00,1.294e+00,2.400e+00,2.623e+00,2.070e+00,1.996e+00,2.799e+00,3.874e+00,3.682e+00,3.536e+00,3.876e+00,3.818e+00,4.310e+00,4.785e+00,5.838e+00,6.272e+00,7.547e+00,6.556e+00,5.977e+00,5.031e+00,7.807e+00,7.174e+00,7.552e+00,8.050e+00,9.730e+00,9.771e+00,9.381e+00,9.003e+00,8.600e+00,7.265e+00,7.788e+00,7.737e+00,8.125e+00,7.880e+00,7.683e+00,7.377e+00,7.209e+00,7.580e+00,1.015e+01,8.716e+00,7.949e+00,9.225e+00,8.719e+00,8.325e+00,7.091e+00,8.166e+00,7.547e+00,9.627e+00,6.633e+00,9.438e+00,8.614e+00,8.803e+00,9.238e+00,8.544e+00,9.146e+00,7.366e+00,8.187e+00,7.784e+00,7.894e+00,8.665e+00,9.133e+00,1.014e+01
5.085e-02,3.127e-01,9.478e-01,1.519e+00,1.139e+00,1.173e+00,1.250e+00,9.628e-01,2.808e+00,2.109e+00,3.230e+00,4.307e+00,3.540e+00,3.674e+00,3.811e+00,4.993e+00,4.072e+00,4.074e+00,4.208e+00,5.192e+00,5.340e+00,5.868e+00,6.783e+00,6.346e+00,7.646e+00,6.354e+00,7.158e+00,4.711e+00,7.704e+00,5.442e+00,6.587e+00,7.455e+00,9.962e+00,9.412e+00,9.591e+00,8.976e+00,8.190e+00,7.953e+00,7.423e+00,7.560e+00,6.466e+00,7.295e+00,7.859e+00,6.945e+00,8.073e+00,6.707e+00,9.517e+00,7.760e+00,7.754e+00,8.520e+00,9.861e+00,8.464e+00,8.084e+00,7.863e+00,8.326e+00,8.523e+00,7.591e+00,8.791e+00,9.528e+00,8.811e+00,9.218e+00,8.018e+00,9.483e+00,7.731e+00,6.706e+00,7.109e+00,9.053e+00,9.484e+00,8.799e+00,9.526e+00
8.695e-02,1.590e-01,8.492e-01,8.582e-01,9.243e-01,7.887e-01,1.096e+00,9.292e-01,2.007e+00,1.610e+00,2.006e+00,3.273e+00,3.140e+00,2.514e+00,3.063e+00,4.204e+00,2.868e+00,3.683e+00,4.724e+00,3.897e+00,4.051e+00,4.696e+00,5.240e+00,5.791e+00,6.262e+00,5.707e+00,5.116e+00,4.126e+00,5.009e+00,5.407e+00,6.236e+00,6.750e+00,7.965e+00,9.943e+00,7.440e+00,8.613e+00,7.368e+00,7.146e+00,7.318e+00,7.523e+00,7.279e+00,7.348e+00,6.284e+00,6.282e+00,6.815e+00,6.541e+00,9.966e+00,8.911e+00,7.495e+00,7.012e+00,7.909e+00,7.004e+00,6.473e+00,7.910e+00,6.950e+00,8.702e+00,7.657e+00,8.837e+00,7.213e+00,7.134e+00,8.221e+00,7.807e+00,8.317e+00,6.460e+00,8.063e+00,6.854e+00,7.587e+00,8.525e+00,7.982e+00,8.485e+00
4.160e-01,7.485e-01,8.784e-01,1.009e+00,1.053e+00,6.576e-01,1.728e+00,1.616e+00,1.920e+00,1.731e+00,1.923e+00,2.721e+00,2.473e+00,2.461e+00,2.666e+00,3.042e+00,3.757e+00,2.715e+00,3.211e+00,3.789e+00,3.733e+00,5.617e+00,4.799e+00,5.112e+00,5.051e+00,5.929e+00,5.570e+00,3.996e+00,6.317e+00,5.451e+00,6.045e+00,6.117e+00,8.636e+00,7.588e+00,7.039e+00,7.384e+00,7.514e+00,6.912e+00,6.145e+00,6.029e+00,7.443e+00,7.288e+00,7.575e+00,5.861e+00,7.536e+00,7.016e+00,9.252e+00,8.153e+00,7.990e+00,8.152e+00,8.652e+00,7.139e+00,7.305e+00,7.274e+00,7.619e+00,8.886e+00,6.922e+00,8.011e+00,7.665e+00,8.238e+00,8.142e+00,7.392e+00,9.345e+00,6.617e+00,7.650e+00,8.166e+00,6.758e+00,8.710e+00,7.769e+00,8.959e+00
3.862e-01,7.983e-01,8.199e-01,1.465e+00,1.200e+00,1.229e+00,2.598e+00,1.828e+00,2.631e+00,2.430e+00,3.054e+00,3.817e+00,3.950e+00,3.939e+00,4.661e+00,5.650e+00,5.690e+00,5.498e+00,5.417e+00,5.871e+00,5.907e+00,7.419e+00,7.283e+00,7.273e+00,8.868e+00,7.384e+00,7.677e+00,5.906e+00,8.828e+00,7.400e+00,7.474e+00,8.589e+00,1.023e+01,1.022e+01,9.754e+00,1.065e+01,1.024e+01,9.600e+00,9.427e+00,8.870e+00,1.013e+01,9.802e+00,1.002e+01,8.212e+00,1.051e+01,1.070e+01,1.261e+01,9.292e+00,1.005e+01,9.174e+00,1.135e+01,1.099e+01,1.031e+01,1.064e+01,9.559e+00,1.165e+01,8.720e+00,1.148e+01,9.525e+00,1.097e+01,1.113e+01,1.049e+01,1.215e+01,8.453e+00,9.452e+00,1.023e+01,1.073e+01,1.091e+01,1.137e+01,1.212e+01
1.590e-01,3.683e-01,1.057e+00,1.637e+00,1.441e+00,1.948e+00,2.148e+00,1.695e+00,3.327e+00,2.626e+00,4.024e+00,3.482e+00,3.324e+00,2.558e+00,3.874e+00,4.270e+00,4.007e+00,4.743e+00,5.082e+00,4.998e+00,3.969e+00,5.142e+00,6.064e+00,6.943e+00,7.981e+00,5.527e+00,6.877e+00,5.268e+00,7.102e+00,7.292e+00,6.644e+00,6.882e+00,9.160e+00,9.180e+00,7.986e+00,8.305e+00,8.200e+00,8.393e+00,9.156e+00,8.067e+00,8.116e+00,8.258e+00,9.105e+00,8.156e+00,8.115e+00,9.401e+00,1.191e+01,9.567e+00,8.725e+00,8.538e+00,9.369e+00,9.282e+00,7.556e+00,9.340e+00,7.783e+00,1.113e+01,8.291e+00,1.117e+01,8.602e+00,8.501e+00,9.952e+00,8.472e+00,1.009e+01,7.041e+00,8.878e+00,7.676e+00,8.828e+00,9.875e+00,9.072e+00,1.015e+01
1.358e-02,6.186e-02,2.319e-01,6.889e-01,5.382e-01,1.315e+00,1.492e+00,9.793e-01,2.177e+00,1.845e+00,2.683e+00,2.836e+00,3.327e+00,2.773e+00,3.280e+00,4.090e+00,3.269e+00,4.037e+00,4.437e+00,4.195e+00,3.839e+00,5.047e+00,6.217e+00,7.574e+00,7.889e+00,5.951e+00,7.329e+00,5.476e+00,7.338e+00,6.481e+00,8.330e+00,7.382e+00,8.779e+00,9.096e+00,9.684e+00,9.418e+00,9.564e+00,9.552e+00,9.479e+00,8.315e+00,9.515e+00,1.007e+01,1.023e+01,8.565e+00,1.059e+01,1.041e+01,1.101e+01,9.787e+00,1.080e+01,9.174e+00,1.111e+01,1.075e+01,1.027e+01,1.057e+01,8.855e+00,1.177e+01,9.140e+00,1.131e+01,9.254e+00,9.844e+00,1.174e+01,9.921e+00,1.138e+01,7.060e+00,1.006e+01,9.543e+00,1.092e+01,1.193e+01,1.034e+01,1.152e+01
3.249e-01,4.782e-01,7.502e-01,7.414e-01,8.987e-01,1.396e+00,1.834e+00,1.652e+00,2.052e+00,1.965e+00,2.746e+00,2.392e+00,2.648e+00,2.518e+00,2.948e+00,3.594e+00,3.228e+00,3.789e+00,3.923e+00,4.356e+00,3.386e+00,4.693e+00,5.947e+00,5.931e+00,7.085e+00,5.594e+00,5.879e+00,5.282e+00,6.685e+00,6.633e+00,7.135e+00,7.202e+00,9.262e+00,9.674e+00,8.717e+00,9.347e+00,9.326e+00,8.621e+00,1.022e+01,8.738e+00,1.024e+01,1.037e+01,9.970e+00,7.714e+00,1.094e+01,9.937e+00,1.295e+01,1.068e+01,9.474e+00,9.837e+00,1.097e+01,9.913e+00,1.047e+01,1.020e+01,9.407e+00,1.131e+01,8.705e+00,1.160e+01,9.892e+00,1.061e+01,1.105e+01,1.053e+01,9.720e+00,8.199e+00,1.091e+01,9.160e+00,1.115e+01,1.076e+01,9.453e+00,1.107e+01
2.777e-01,6.552e-01,7.547e-01,1.624e+00,1.235e+00,1.217e+00,2.301e+00,1.617e+00,2.540e+00,2.025e+00,3.262e+00,3.477e+00,2.634e+00,2.995e+00,3.611e+00,4.378e+00,4.848e+00,3.957e+00,4.406e+00,4.423e+00,4.632e+00,6.699e+00,6.035e+00,6.035e+00,7.120e+00,6.803e+00,6.715e+00,4.900e+00,7.811e+00,7.024e+00,7.415e+00,7.631e+00,9.095e+00,8.910e+00,8.974e+00,9.043e+00,8.969e+00,9.031e+00,8.642e+00,8.944e+00,1.072e+01,9.946e+00,9.958e+00,8.603e+00,1.091e+01,1.101e+01,1.263e+01,9.922e+00,9.392e+00,9.462e+00,1.215e+01,1.063e+01,1.029e+01,1.139e+01,9.400e+00,1.010e+01,9.882e+00,1.160e+01,1.043e+01,1.081e+01,1.122e+01,1.166e+01,1.068e+01,8.569e+00,1.023e+01,9.732e+00,1.107e+01,1.044e+01,1.057e+01,1.191e+01
2.557e-01,5.828e-01,9.631e-01,1.797e+00,1.525e+00,1.880e+00,1.831e+00,1.609e+00,2.853e+00,2.305e+00,3.464e+00,3.672e+00,3.318e+00,3.429e+00,4.040e+00,4.195e+00,4.600e+00,4.560e+00,4.193e+00,4.876e+00,4.715e+00,6.225e+00,6.403e+00,6.235e+00,7.493e+00,6.320e+00,7.014e+00,5.074e+00,7.665e+00,6.742e+00,6.000e+00,6.700e+00,8.622e+00,8.647e+00,8.574e+00,9.149e+00,8.271e+00,1.014e+01,9.201e+00,7.884e+00,9.522e+00,8.798e+00,1.068e+01,9.549e+00,1.021e+01,1.095e+01,1.202e+01,9.944e+00,9.299e+00,9.593e+00,1.161e+01,1.045e+01,9.993e+00,1.080e+01,9.234e+00,1.106e+01,8.839e+00,1.124e+01,9.699e+00,1.071e+01,1.191e+01,9.987e+00,1.114e+01,8.090e+00,9.500e+00,9.902e+00,1.087e+01,1.137e+01,1.103e+01,1.129e+01
1.593e-01,3.353e-01,9.304e-01,1.016e+00,1.018e+00,6.952e-01,9.950e-01,1.231e+00,2.384e+00,1.631e+00,2.595e+00,3.351e+00,2.242e+00,2.517e+00,2.569e+00,3.778e+00,3.632e+00,3.034e+00,3.258e+00,3.905e+00,4.412e+00,4.556e+00,5.263e+00,5.579e+00,6.423e+00,5.604e+00,5.840e+00,4.549e+00,6.988e+00,6.058e+00,5.475e+00,6.766e+00,9.015e+00,8.811e+00,8.708e+00,8.410e+00,7.971e+00,8.358e+00,7.895e+00,7.691e+00,8.453e+00,8.702e+00,8.758e+00,9.485e+00,9.142e+00,8.733e+00,1.066e+01,9.881e+00,9.101e+00,9.571e+00,9.976e+00,9.104e+00,8.534e+00,9.883e+00,8.498e+00,1.002e+01,9.646e+00,1.008e+01,1.004e+01,9.652e+00,1.092e+01,9.876e+00,1.028e+01,8.355e+00,9.145e+00,9.964e+00,1.061e+01,1.061e+01,9.762e+00,1.080e+01
3.283e-01,4.893e-01,9.583e-01,1.085e+00,1.197e+00,1.369e+00,1.992e+00,1.888e+00,2.829e+00,2.494e+00,3.492e+00,3.263e+00,3.082e+00,2.668e+00,3.092e+00,4.084e+00,4.128e+00,3.349e+00,4.226e+00,3.868e+00,4.463e+00,5.436e+00,5.184e+00,6.088e+00,6.751e+00,5.172e+00,5.552e+00,4.804e+00,5.820e+00,6.485e+00,6.837e+00,7.044e+00,7.396e+00,8.868e+00,8.976e+00,7.811e+00,8.478e+00,7.905e+00,8.065e+00,8.666e+00,9.813e+00,1.012e+01,1.021e+01,9.282e+00,1.030e+01,9.802e+00,1.256e+01,1.024e+01,9.825e+00,1.063e+01,1.039e+01,1.072e+01,1.088e+01,1.000e+01,8.820e+00,1.087e+01,9.337e+00,1.114e+01,1.037e+01,1.094e+01,1.045e+01,9.928e+00,1.044e+01,9.525e+00,1.053e+01,1.032e+01,1.185e+01,1.028e+01,9.409e+00,1.251e+01
3.474e-01,6.192e-01,1.258e+00,1.276e+00,1.281e+00,7.486e-01,1.173e+00,1.229e+00,1.969e+00,1.900e+00,2.336e+00,2.535e+00,2.353e+00,2.550e+00,3.043e+00,4.377e+00,4.094e+00,4.114e+00,4.032e+00,5.241e+00,5.140e+00,5.073e+00,6.055e+00,6.039e+00,7.093e+00,5.606e+00,7.422e+00,5.661e+00,7.490e+00,5.224e+00,7.005e+00,6.337e+00,9.352e+00,9.952e+00,9.911e+00,9.380e+00,9.640e+00,8.378e+00,8.926e+00,9.037e+00,8.241e+00,9.626e+00,1.019e+01,9.519e+00,1.065e+01,9.418e+00,1.247e+01,9.325e+00,1.042e+01,9.744e+00,1.222e+01,1.074e+01,1.176e+01,9.635e+00,9.802e+00,1.335e+01,1.053e+01,1.187e+01,1.090e+01,1.097e+01,1.189e+01,8.439e+00,1.239e+01,8.576e+00,1.057e+01,1.003e+01,1.180e+01,1.179e+01,1.021e+01,1.200e+01
4.203e-01,6.432e-01,1.031e+00,1.174e+00,1.297e+00,1.855e+00,2.449e+00,2.205e+00,2.864e+00,2.639e+00,4.145e+00,4.009e+00,3.670e+00,3.864e+00,4.069e+00,4.865e+00,4.331e+00,4.915e+00,4.899e+00,6.275e+00,4.967e+00,6.795e+00,7.315e+00,6.630e+00,8.056e+00,6.117e+00,7.197e+00,5.747e+00,7.916e+00,7.462e+00,7.863e+00,8.131e+00,8.728e+00,9.685e+00,9.108e+00,9.684e+00,1.021e+01,9.884e+00,9.345e+00,9.373e+00,1.057e+01,1.170e+01,1.192e+01,8.970e+00,1.250e+01,1.303e+01,1.552e+01,1.149e+01,1.230e+01,1.126e+01,1.263e+01,1.213e+01,1.301e+01,1.318e+01,1.118e+01,1.341e+01,1.080e+01,1.304e+01,1.155e+01,1.267e+01,1.264e+01,1.275e+01,1.212e+01,9.879e+00,1.290e+01,1.165e+01,1.397e+01,1.308e+01,1.099e+01,1.408e+01
3.210e-01,6.338e-01,9.706e-01,1.330e+00,1.169e+00,1.243e+00,2.459e+00,1.898e+00,2.716e+00,2.170e+00,3.753e+00,4.048e+00,3.241e+00,3.186e+00,4.034e+00,5.427e+00,4.525e+00,4.547e+00,4.931e+00,4.936e+00,5.078e+00,5.794e+00,6.181e+00,6.073e+00,7.994e+00,5.720e+00,6.362e+00,5.523e+00,7.770e+00,6.675e+00,6.937e+00,8.139e+00,9.474e+00,9.588e+00,8.460e+00,8.739e+00,9.950e+00,7.984e+00,9.100e+00,8.870e+00,1.022e+01,1.108e+01,1.133e+01,9.058e+00,1.099e+01,1.268e+01,1.450e+01,1.109e+01,1.172e+01,1.190e+01,1.145e+01,1.215e+01,1.185e+01,1.138e+01,9.748e+00,1.307e+01,8.918e+00,1.238e+01,1.125e+01,1.350e+01,1.245e+01,1.174e+01,1.239e+01,1.008e+01,1.151e+01,1.204e+01,1.283e+01,1.246e+01,1.172e+01,1.392e+01
2.167e-01,3.983e-01,5.914e-01,7.359e-01,8.413e-01,1.561e+00,1.976e+00,1.747e+00,2.868e+00,2.398e+00,2.813e+00,2.928e+00,3.246e+00,2.896e+00,3.115e+00,4.442e+00,4.863e+00,4.642e+00,4.535e+00,5.080e+00,4.339e+00,6.291e+00,6.750e+00,6.885e+00,8.080e+00,6.255e+00,7.581e+00,5.041e+00,7.463e+00,7.407e+00,6.864e+00,6.676e+00,9.187e+00,7.915e+00,8.086e+00,9.275e+00,8.759e+00,9.436e+00,9.117e+00,9.045e+00,9.197e+00,9.549e+00,1.129e+01,7.801e+00,1.087e+01,1.119e+01,1.381e+01,9.945e+00,1.118e+01,1.105e+01,1.232e+01,1.131e+01,1.141e+01,1.108e+01,1.134e+01,1.434e+01,1.185e+01,1.231e+01,1.143e+01,1.287e+01,1.254e+01,1.138e+01,1.265e+01,9.798e+00,1.311e+01,1.123e+01,1.206e+01,1.261e+01,1.130e+01,1.321e+01
2.267e-01,3.652e-01,1.131e+00,9.147e-01,1.094e+00,7.642e-01,1.464e+00,1.297e+00,2.062e+00,1.725e+00,2.203e+00,3.077e+00,2.301e+00,2.547e+00,3.254e+00,4.237e+00,3.799e+00,3.882e+00,3.603e+00,3.305e+00,4.319e+00,5.258e+00,5.530e+00,5.041e+00,5.646e+00,5.738e+00,4.927e+00,3.625e+00,6.009e+00,5.943e+00,6.300e+00,6.758e+00,8.495e+00,8.759e+00,8.075e+00,8.978e+00,8.139e+00,8.209e+00,8.793e+00,9.339e+00,9.581e+00,9.923e+00,1.016e+01,7.541e+00,1.098e+01,1.069e+01,1.317e+01,1.157e+01,1.152e+01,1.030e+01,1.216e+01,1.119e+01,1.169e+01,1.060e+01,1.222e+01,1.290e+01,1.176e+01,1.288e+01,1.119e+01,1.159e+01,1.181e+01,1.184e+01,1.312e+01,1.019e+01,1.263e+01,1.149e+01,1.022e+01,1.165e+01,1.035e+01,1.347e+01
6.070e-03,2.111e-01,5.995e-01,1.428e+00,1.046e+00,1.642e+00,2.244e+00,1.303e+00,3.016e+00,2.254e+00,3.246e+00,3.420e+00,3.297e+00,2.925e+00,3.687e+00,4.531e+00,4.224e+00,4.099e+00,4.941e+00,4.829e+00,4.276e+00,6.093e+00,6.391e+00,6.413e+00,8.098e+00,6.470e+00,7.271e+00,5.509e+00,7.165e+00,7.325e+00,7.489e+00,7.794e+00,1.000e+01,9.527e+00,9.197e+00,9.259e+00,8.631e+00,8.426e+00,8.965e+00,8.775e+00,8.903e+00,8.422e+00,1.022e+01,9.156e+00,1.052e+01,1.049e+01,1.364e+01,1.150e+01,1.024e+01,1.235e+01,1.275e+01,1.218e+01,1.167e+01,1.139e+01,1.181e+01,1.157e+01,1.114e+01,1.274e+01,1.217e+01,1.284e+01,1.137e+01,1.204e+01,1.236e+01,1.018e+01,1.260e+01,9.847e+00,1.206e+01,1.089e+01,1.081e+01,1.269e+01
2.582e-01,5.104e-01,5.546e-01,1.060e+00,8.910e-01,1.414e+00,2.218e+00,1.537e+00,2.214e+00,2.024e+00,2.855e+00,3.157e+00,3.179e+00,2.817e+00,3.288e+00,3.913e+00,3.705e+00,3.664e+00,3.901e+00,4.120e+00,3.651e+00,5.201e+00,5.352e+00,4.974e+00,6.186e+00,4.260e+00,5.333e+00,4.355e+00,6.348e+00,5.494e+00,5.995e+00,6.755e+00,6.894e+00,8.234e+00,7.417e+00,7.889e+00,8.350e+00,7.182e+00,7.956e+00,8.232e+00,9.231e+00,1.004e+01,1.006e+01,9.168e+00,1.068e+01,1.186e+01,1.370e+01,1.126e+01,1.103e+01,1.159e+01,1.247e+01,1.245e+01,1.265e+01,1.156e+01,1.190e+01,1.265e+01,1.077e+01,1.186e+01,1.111e+01,1.268e+01,1.273e+01,1.243e+01,1.200e+01,1.084e+01,1.327e+01,1.230e+01,1.274e+01,1.250e+01,1.057e+01,1.270e+01
1.314e-02,2.875e-01,4.575e-01,1.316e+00,9.101e-01,1.334e+00,2.008e+00,1.084e+00,2.166e+00,1.340e+00,2.046e+00,2.004e+00,1.719e+00,1.381e+00,2.700e+00,3.593e+00,4.026e+00,2.997e+00,3.222e+00,2.864e+00,3.311e+00,5.343e+00,5.067e+00,5.122e+00,6.221e+00,5.108e+00,6.237e+00,4.359e+00,7.073e+00,6.542e+00,6.713e+00,6.703e+00,8.339e+00,7.991e+00,8.017e+00,9.153e+00,9.628e+00,8.713e+00,8.856e+00,9.362e+00,1.028e+01,1.009e+01,1.155e+01,9.582e+00,1.190e+01,1.317e+01,1.372e+01,1.261e+01,1.269e+01,1.126e+01,1.389e+01,1.393e+01,1.403e+01,1.361e+01,1.470e+01,1.645e+01,1.377e+01,1.470e+01,1.238e+01,1.388e+01,1.546e+01,1.428e+01,1.629e+01,1.074e+01,1.467e+01,1.358e+01,1.374e+01,1.423e+01,1.347e+01,1.534e+01
6.272e-02,1.353e-01,6.095e-01,8.496e-01,9.118e-01,1.785e+00,1.729e+00,1.261e+00,2.274e+00,1.813e+00,2.306e+00,1.860e+00,2.318e+00,1.978e+00,2.338e+00,3.703e+00,3.013e+00,3.268e+00,3.609e+00,3.314e+00,2.860e+00,3.930e+00,3.787e+00,4.249e+00,5.729e+00,3.798e+00,4.655e+00,3.729e+00,4.217e+00,4.675e+00,4.362e+00,4.789e+00,6.714e+00,7.553e+00,6.182e+00,6.389e+00,6.331e+00,7.472e+00,7.263e+00,6.325e+00,5.914e+00,7.520e+00,7.978e+00,6.590e+00,8.421e+00,7.091e+00,1.114e+01,9.101e+00,9.140e+00,9.371e+00,1.060e+01,9.971e+00,1.127e+01,1.051e+01,1.116e+01,1.095e+01,1.053e+01,1.154e+01,1.005e+01,9.436e+00,1.202e+01,1.088e+01,1.254e+01,9.835e+00,1.149e+01,1.004e+01,9.698e+00,1.194e+01,9.620e+00,1.214e+01
2.848e-01,4.027e-01,6.634e-01,5.889e-01,8.129e-01,1.215e+00,1.190e+00,1.249e+00,1.211e+00,1.181e+00,2.105e+00,2.693e+00,2.401e+00,2.464e+00,1.947e+00,2.511e+00,2.659e+00,2.822e+00,2.648e+00,3.666e+00,2.833e+00,3.947e+00,4.268e+00,4.956e+00,5.571e+00,4.189e+00,4.988e+00,4.155e+00,5.873e+00,5.262e+00,4.716e+00,5.653e+00,6.454e+00,6.237e+00,6.647e+00,7.502e+00,7.060e+00,7.593e+00,7.058e+00,6.767e+00,7.082e+00,7.312e+00,8.091e+00,7.077e+00,8.799e+00,7.996e+00,1.008e+01,9.113e+00,9.153e+00,1.038e+01,1.025e+01,1.133e+01,1.129e+01,1.154e+01,1.268e+01,1.176e+01,1.038e+01,1.098e+01,1.137e+01,1.104e+01,1.327e+01,1.205e+01,1.197e+01,8.345e+00,1.193e+01,1.074e+01,1.152e+01,1.215e+01,9.860e+00,1.150e+01
3.032e-01,4.201e-01,1.205e+00,1.028e+00,1.281e+00,1.239e+00,1.903e+00,1.628e+00,2.552e+00,2.466e+00,2.581e+00,2.724e+00,3.160e+00,3.411e+00,4.273e+00,5.505e+00,4.764e+00,4.809e+00,5.355e+00,4.828e+00,5.736e+00,6.723e+00,7.214e+00,7.105e+00,7.907e+00,7.661e+00,6.945e+00,5.668e+00,6.851e+00,6.864e+00,7.726e+00,7.629e+00,8.906e+00,1.033e+01,9.598e+00,9.651e+00,8.820e+00,8.814e+00,9.778e+00,9.335e+00,1.031e+01,1.049e+01,1.004e+01,8.475e+00,1.196e+01,1.123e+01,1.457e+01,1.115e+01,1.230e+01,1.192e+01,1.375e+01,1.310e+01,1.381e+01,1.323e+01,1.484e+01,1.448e+01,1.282e+01,1.459e+01,1.465e+01,1.398e+01,1.422e+01,1.392e+01,1.523e+01,1.209e+01,1.549e+01,1.309e+01,1.361e+01,1.357e+01,1.302e+01,1.486e+01
2.501e-01,4.923e-01,6.916e-01,1.188e+00,1.086e+00,1.246e+00,2.112e+00,1.660e+00,2.572e+00,2.100e+00,3.160e+00,3.952e+00,4.077e+00,3.827e+00,4.013e+00,4.867e+00,4.560e+00,4.488e+00,5.704e+00,6.650e+00,4.859e+00,6.581e+00,6.569e+00,7.057e+00,8.671e+00,5.903e+00,8.255e+00,6.294e+00,8.674e+00,7.986e+00,7.468e+00,8.210e+00,1.022e+01,1.060e+01,9.278e+00,1.076e+01,1.038e+01,9.843e+00,1.014e+01,1.028e+01,9.958e+00,1.000e+01,1.102e+01,9.770e+00,1.184e+01,1.190e+01,1.578e+01,1.147e+01,1.289e+01,1.248e+01,1.420e+01,1.415e+01,1.393e+01,1.526e+01,1.547e+01,1.568e+01,1.459e+01,1.579e+01,1.493e+01,1.424e+01,1.594e+01,1.451e+01,1.622e+01,1.124e+01,1.537e+01,1.337e+01,1.436e+01,1.495e+01,1.428e+01,1.586e+01
1.454e-01,4.478e-01,4.626e-01,1.405e+00,1.034e+00,1.550e+00,1.918e+00,1.287e+00,2.475e+00,2.010e+00,2.719e+00,2.731e+00,2.874e+00,2.961e+00,2.957e+00,4.229e+00,4.140e+00,3.307e+00,4.100e+00,4.349e+00,3.899e+00,6.017e+00,5.160e+00,5.953e+00,7.033e+00,5.545e+00,7.285e+00,5.089e+00,7.819e+00,6.576e+00,7.404e+00,7.316e+00,9.782e+00,9.505e+00,8.793e+00,9.184e+00,8.809e+00,8.466e+00,9.132e+00,8.383e+00,9.052e+00,1.075e+01,1.117e+01,9.807e+00,1.191e+01,1.205e+01,1.443e+01,1.130e+01,1.264e+01,1.354e+01,1.443e+01,1.509e+01,1.424e+01,1.392e+01,1.498e+01,1.557e+01,1.328e+01,1.520e+01,1.542e+01,1.485e+01,1.710e+01,1.536e+01,1.679e+01,1.308e+01,1.598e+01,1.500e+01,1.424e+01,1.697e+01,1.529e+01,1.514e+01
1.201e-01,3.906e-01,7.400e-01,1.290e+00,1.036e+00,1.132e+00,1.433e+00,1.185e+00,2.636e+00,1.980e+00,2.748e+00,3.261e+00,2.697e+00,2.623e+00,3.004e+00,3.833e+00,4.303e+00,4.588e+00,4.076e+00,5.148e+00,4.047e+00,5.525e+00,6.483e+00,6.122e+00,7.444e+00,5.881e+00,7.539e+00,4.799e+00,7.415e+00,6.013e+00,6.965e+00,7.273e+00,1.006e+01,1.000e+01,9.810e+00,9.977e+00,9.445e+00,9.254e+00,9.766e+00,9.152e+00,9.255e+00,9.469e+00,1.050e+01,9.505e+00,1.139e+01,1.187e+01,1.444e+01,1.127e+01,1.232e+01,1.187e+01,1.328e+01,1.230e+01,1.279e+01,1.330e+01,1.328e+01,1.404e+01,1.334e+01,1.468e+01,1.383e+01,1.386e+01,1.545e+01,1.302e+01,1.598e+01,1.182e+01,1.359e+01,1.335e+01,1.364e+01,1.479e+01,1.446e+01,1.470e+01
3.499e-01,7.400e-01,6.361e-01,1.462e+00,1.127e+00,1.740e+00,2.825e+00,2.000e+00,3.076e+00,2.800e+00,3.811e+00,4.235e+00,4.536e+00,3.637e+00,4.298e+00,4.915e+00,4.920e+00,5.236e+00,5.346e+00,5.450e+00,4.721e+00,6.360e+00,6.906e+00,7.323e+00,8.862e+00,6.090e+00,7.974e+00,6.418e+00,7.970e+00,6.584e+00,7.512e+00,7.292e+00,9.206e+00,8.954e+00,8.738e+00,9.027e+00,9.542e+00,8.425e+00,9.527e+00,8.604e+00,1.052e+01,9.983e+00,1.020e+01,9.228e+00,1.102e+01,1.210e+01,1.525e+01,1.225e+01,1.266e+01,1.327e+01,1.381e+01,1.353e+01,1.318e+01,1.499e+01,1.457e+01,1.480e+01,1.354e+01,1.697e+01,1.436e+01,1.479e+01,1.527e+01,1.490e+01,1.635e+01,1.281e+01,1.530e+01,1.453e+01,1.612e+01,1.649e+01,1.497e+01,1.755e+01
3.656e-01,7.141e-01,6.586e-01,1.044e+00,8.949e-01,1.290e+00,2.476e+00,1.902e+00,2.421e+00,2.091e+00,3.186e+00,3.450e+00,3.310e+00,2.970e+00,3.518e+00,4.424e+00,4.714e+00,4.297e+00,4.117e+00,5.388e+00,4.606e+00,5.887e+00,6.973e+00,6.692e+00,8.515e+00,5.773e+00,7.372e+00,6.215e+00,9.186e+00,7.702e+00,8.106e+00,8.708e+00,1.049e+01,1.065e+01,9.821e+00,1.139e+01,1.134e+01,9.401e+00,1.059e+01,9.962e+00,1.097e+01,1.094e+01,1.174e+01,1.027e+01,1.271e+01,1.278e+01,1.657e+01,1.379e+01,1.376e+01,1.383e+01,1.439e+01,1.478e+01,1.392e+01,1.418e+01,1.619e+01,1.702e+01,1.452e+01,1.696e+01,1.567e+01,1.667e+01,1.698e+01,1.679e+01,1.811e+01,1.476e+01,1.788e+01,1.599e+01,1.735e+01,1.742e+01,1.624e+01,1.815e+01
3.661e-01,7.434e-01,1.130e+00,1.527e+00,1.477e+00,1.759e+00,2.665e+00,2.093e+00,2.771e+00,2.186e+00,3.367e+00,4.156e+00,3.839e+00,3.724e+00,4.163e+00,4.903e+00,5.484e+00,4.505e+00,4.433e+00,4.663e+00,4.963e+00,6.749e+00,6.463e+00,6.062e+00,8.126e+00,6.770e+00,7.232e+00,5.547e+00,8.112e+00,7.093e+00,6.745e+00,8.263e+00,9.762e+00,8.209e+00,9.068e+00,1.009e+01,9.073e+00,9.256e+00,8.696e+00,8.154e+00,8.949e+00,1.027e+01,1.015e+01,8.813e+00,1.133e+01,1.024e+01,1.306e+01,1.087e+01,1.035e+01,1.139e+01,1.190e+01,1.308e+01,1.345e+01,1.360e+01,1.375e+01,1.492e+01,1.308e+01,1.512e+01,1.357e+01,1.365e+01,1.641e+01,1.464e+01,1.561e+01,1.285e+01,1.581e+01,1.418e+01,1.573e+01,1.578e+01,1.619e+01,1.710e+01
6.076e-03,1.696e-01,7.715e-01,1.242e+00,1.071e+00,1.850e+00,1.486e+00,1.300e+00,3.335e+00,2.482e+00,3.619e+00,4.821e+00,4.216e+00,3.555e+00,3.498e+00,4.999e+00,4.391e+00,4.851e+00,4.879e+00,4.543e+00,4.390e+00,5.327e+00,6.437e+00,6.803e+00,8.196e+00,5.631e+00,6.717e+00,4.679e+00,7.401e+00,6.172e+00,5.957e+00,8.764e+00,9.112e+00,1.082e+01,9.572e+00,9.578e+00,8.588e+00,9.338e+00,9.429e+00,9.076e+00,9.400e+00,9.905e+00,9.982e+00,9.213e+00,1.116e+01,1.167e+01,1.473e+01,1.295e+01,1.289e+01,1.312e+01,1.265e+01,1.218e+01,1.178e+01,1.326e+01,1.497e+01,1.508e+01,1.372e+01,1.557e+01,1.561e+01,1.451e+01,1.649e+01,1.663e+01,1.577e+01,1.446e+01,1.735e+01,1.507e+01,1.605e+01,1.580e+01,1.664e+01,1.628e+01
1.752e-02,3.028e-01,6.393e-01,1.519e+00,1.025e+00,1.734e+00,2.442e+00,1.434e+00,3.189e+00,2.255e+00,3.759e+00,3.959e+00,3.085e+00,2.521e+00,3.464e+00,4.983e+00,4.372e+00,4.081e+00,4.556e+00,3.726e+00,4.054e+00,5.723e+00,5.954e+00,6.485e+00,7.704e+00,5.581e+00,6.031e+00,4.318e+00,6.761e+00,6.038e+00,6.198e+00,7.328e+00,7.926e+00,8.083e+00,7.963e+00,8.003e+00,8.485e+00,7.601e+00,7.895e+00,7.197e+00,8.832e+00,8.613e+00,1.003e+01,8.317e+00,1.026e+01,1.016e+01,1.215e+01,1.120e+01,1.046e+01,1.161e+01,1.099e+01,1.168e+01,1.137e+01,1.149e+01,1.203e+01,1.293e+01,1.079e+01,1.414e+01,1.263e+01,1.339e+01,1.518e+01,1.513e+01,1.522e+01,1.281e+01,1.566e+01,1.337e+01,1.452e+01,1.521e+01,1.519e+01,1.656e+01
1.011e-01,2.261e-01,7.172e-01,1.238e+00,1.122e+00,1.415e+00,1.132e+00,9.486e-01,1.999e+00,1.666e+00,2.503e+00,3.352e+00,3.221e+00,3.263e+00,3.586e+00,3.159e+00,3.417e+00,3.995e+00,3.896e+00,5.006e+00,4.091e+00,6.175e+00,6.420e+00,6.144e+00,6.864e+00,6.248e+00,7.177e+00,4.889e+00,6.277e+00,5.704e+00,7.396e+00,7.311e+00,8.778e+00,9.149e+00,7.830e+00,9.278e+00,8.408e+00,9.273e+00,8.485e+00,8.606e+00,8.338e+00,9.457e+00,1.159e+01,8.597e+00,1.185e+01,1.081e+01,1.245e+01,9.807e+00,1.077e+01,1.065e+01,1.262e+01,1.275e+01,1.278e+01,1.192e+01,1.227e+01,1.330e+01,1.127e+01,1.388e+01,1.337e+01,1.309e+01,1.493e+01,1.336e+01,1.536e+01,1.323e+01,1.475e+01,1.481e+01,1.590e+01,1.650e+01,1.627e+01,1.698e+01
2.121e-01,4.225e-01,8.095e-01,1.297e+00,1.142e+00,1.112e+00,1.676e+00,1.144e+00,1.837e+00,1.669e+00,2.255e+00,2.556e+00,2.715e+00,3.174e+00,3.789e+00,4.113e+00,3.646e+00,3.578e+00,4.204e+00,4.396e+00,4.572e+00,5.796e+00,5.188e+00,5.319e+00,6.509e+00,6.591e+00,6.223e+00,5.020e+00,6.900e+00,6.467e+00,6.445e+00,6.140e+00,9.004e+00,8.688e+00,7.436e+00,8.563e+00,7.615e+00,8.048e+00,7.964e+00,7.859e+00,8.577e+00,8.257e+00,9.320e+00,8.448e+00,9.440e+00,9.855e+00,1.189e+01,9.555e+00,9.728e+00,1.088e+01,1.187e+01,1.245e+01,1.174e+01,1.257e+01,1.318e+01,1.319e+01,1.243e+01,1.431e+01,1.356e+01,1.318e+01,1.405e+01,1.393e+01,1.476e+01,1.096e+01,1.539e+01,1.321e+01,1.422e+01,1.397e+01,1.438e+01,1.548e+01
3.436e-01,7.524e-01,1.048e+00,1.683e+00,1.362e+00,1.518e+00,2.641e+00,1.910e+00,3.078e+00,2.650e+00,3.890e+00,4.463e+00,4.000e+00,3.496e+00,4.311e+00,5.359e+00,4.893e+00,4.682e+00,5.031e+00,5.327e+00,5.465e+00,7.360e+00,7.216e+00,7.340e+00,8.338e+00,7.367e+00,7.932e+00,5.584e+00,9.110e+00,7.136e+00,8.731e+00,7.940e+00,1.012e+01,9.467e+00,9.565e+00,1.064e+01,1.023e+01,8.990e+00,8.685e+00,9.415e+00,1.026e+01,9.950e+00,1.095e+01,9.615e+00,1.080e+01,1.135e+01,1.453e+01,1.135e+01,1.102e+01,1.218e+01,1.316e+01,1.311e+01,1.312e+01,1.469e+01,1.441e+01,1.586e+01,1.404e+01,1.567e+01,1.456e+01,1.519e+01,1.542e+01,1.547e+01,1.605e+01,1.362e+01,1.700e+01,1.492e+01,1.553e+01,1.679e+01,1.725e+01,1.849e+01
2.220e-01,3.507e-01,4.711e-01,7.626e-01,7.686e-01,8.818e-01,1.725e+00,1.401e+00,1.996e+00,1.717e+00,2.668e+00,3.635e+00,3.541e+00,3.340e+00,3.495e+00,4.142e+00,3.520e+00,3.647e+00,4.465e+00,4.472e+00,3.968e+00,5.314e+00,5.589e+00,6.061e+00,7.087e+00,4.714e+00,5.516e+00,4.997e+00,6.382e+00,6.051e+00,5.947e+00,6.629e+00,7.469e+00,7.982e+00,6.707e+00,8.782e+00,8.800e+00,7.850e+00,7.847e+00,8.049e+00,8.806e+00,8.540e+00,9.634e+00,8.348e+00,1.201e+01,1.155e+01,1.361e+01,1.067e+01,1.203e+01,1.128e+01,1.177e+01,1.211e+01,1.208e+01,1.270e+01,1.216e+01,1.398e+01,1.226e+01,1.323e+01,1.230e+01,1.429e+01,1.408e+01,1.334e+01,1.435e+01,1.302e+01,1.602e+01,1.476e+01,1.636e+01,1.584e+01,1.585e+01,1.575e+01
8.087e-02,2.856e-01,8.074e-01,1.447e+00,1.202e+00,1.484e+00,1.497e+00,1.150e+00,2.156e+00,1.381e+00,2.826e+00,2.730e+00,2.057e+00,1.897e+00,2.789e+00,3.376e+00,2.831e+00,2.814e+00,3.790e+00,3.628e+00,3.067e+00,4.589e+00,5.063e+00,5.351e+00,6.337e+00,5.129e+00,5.800e+00,4.474e+00,6.411e+00,7.180e+00,6.344e+00,5.995e+00,8.526e+00,7.642e+00,7.345e+00,8.174e+00,7.433e+00,7.734e+00,8.396e+00,7.660e+00,8.188e+00,8.203e+00,8.089e+00,8.743e+00,8.944e+00,1.067e+01,1.181e+01,1.012e+01,9.857e+00,9.993e+00,1.127e+01,1.193e+01,1.108e+01,1.302e+01,1.276e+01,1.451e+01,1.271e+01,1.392e+01,1.295e+01,1.279e+01,1.491e+01,1.342e+01,1.569e+01,1.207e+01,1.551e+01,1.464e+01,1.540e+01,1.806e+01,1.606e+01,1.646e+01
3.934e-01,5.933e-01,7.618e-01,8.887e-01,9.833e-01,9.590e-01,1.183e+00,1.458e+00,1.938e+00,2.008e+00,2.540e+00,2.260e+00,2.576e+00,2.601e+00,2.796e+00,3.616e+00,3.907e+00,3.956e+00,3.993e+00,5.296e+00,4.499e+00,5.269e+00,5.890e+00,6.398e+00,7.402e+00,5.249e+00,7.046e+00,5.793e+00,7.270e+00,6.014e+00,7.205e+00,6.304e+00,8.490e+00,9.534e+00,8.215e+00,8.717e+00,9.029e+00,8.098e+00,8.702e+00,8.659e+00,8.419e+00,9.040e+00,1.019e+01,8.213e+00,1.007e+01,1.010e+01,1.393e+01,9.156e+00,1.159e+01,1.049e+01,1.240e+01,1.166e+01,1.108e+01,1.184e+01,1.223e+01,1.449e+01,1.259e+01,1.356e+01,1.398e+01,1.364e+01,1.493e+01,1.166e+01,1.557e+01,1.238e+01,1.513e+01,1.456e+01,1.557e+01,1.732e+01,1.708e+01,1.812e+01
7.564e-03,1.502e-01,7.239e-01,1.225e+00,9.416e-01,1.417e+00,1.395e+00,8.855e-01,2.325e+00,1.815e+00,2.985e+00,3.136e+00,2.289e+00,2.163e+00,2.529e+00,3.580e+00,3.274e+00,3.683e+00,3.176e+00,3.860e+00,3.774e+00,4.480e+00,5.624e+00,6.101e+00,7.001e+00,5.125e+00,5.883e+00,4.549e+00,6.424e+00,5.806e+00,6.413e+00,7.003e+00,8.752e+00,9.403e+00,8.304e+00,9.493e+00,8.975e+00,8.711e+00,8.499e+00,8.454e+00,7.631e+00,9.082e+00,1.049e+01,9.521e+00,1.123e+01,9.868e+00,1.264e+01,1.114e+01,1.120e+01,1.181e+01,1.170e+01,1.241e+01,1.193e+01,1.289e+01,1.358e+01,1.527e+01,1.351e+01,1.496e+01,1.446e+01,1.381e+01,1.619e+01,1.599e+01,1.727e+01,1.508e+01,1.659e+01,1.591e+01,1.754e+01,1.880e+01,1.832e+01,1.946e+01
1.167e-01,3.967e-01,5.188e-01,1.581e+00,1.060e+00,1.980e+00,2.725e+00,1.580e+00,3.758e+00,3.450e+00,4.020e+00,3.377e+00,3.325e+00,2.972e+00,3.434e+00,4.443e+00,4.699e+00,5.048e+00,4.509e+00,5.138e+00,4.357e+00,6.596e+00,7.507e+00,7.473e+00,7.815e+00,6.206e+00,7.452e+00,5.039e+00,7.470e+00,7.018e+00,8.032e+00,7.230e+00,9.183e+00,9.621e+00,9.057e+00,1.056e+01,1.034e+01,8.791e+00,9.155e+00,9.384e+00,9.855e+00,1.052e+01,1.124e+01,1.093e+01,1.227e+01,1.250e+01,1.521e+01,1.142e+01,1.257e+01,1.178e+01,1.381e+01,1.474e+01,1.321e+01,1.437e+01,1.427e+01,1.662e+01,1.434e+01,1.598e+01,1.541e+01,1.500e+01,1.762e+01,1.718e+01,1.736e+01,1.403e+01,1.819e+01,1.552e+01,1.834e+01,1.853e+01,1.775e+01,1.853e+01
