9.803e-01,1.666e-01,9.300e-01,8.250e-01,4.202e-01,5.052e-01,8.748e-01,3.314e-01,8.279e-01,1.649e-01,8.455e-01,6.571e-01,6.391e-01,5.753e-01,9.731e-02,7.871e-01,7.250e-01,6.217e-01,2.675e-01,4.700e-01,8.264e-01,3.549e-01,1.099e-01,2.196e-01,5.959e-01,9.619e-01,9.221e-01,1.035e-01,9.659e-01,9.968e-02,2.808e-01,3.811e-01,8.443e-01,1.906e-01,4.622e-01,3.719e-01,6.211e-01,9.226e-02,6.712e-01,8.786e-01,1.298e-01,5.243e-01,2.363e-01,1.599e-02,1.299e-01,3.294e-01,4.971e-01,8.513e-01,2.081e-01,9.201e-01,9.142e-01,7.113e-01,2.508e-01,6.213e-01,4.134e-01,9.600e-01,8.901e-01,9.381e-01,2.039e-01,5.460e-01,2.015e-01,9.969e-01,1.815e-01,3.481e-01,7.685e-01,8.701e-02,5.700e-01,6.738e-01,9.320e-01,5.762e-02,3.935e-01,2.527e-01,5.605e-01,8.709e-03,1.826e-01,1.176e-01,9.965e-04,4.299e-01,4.454e-01,8.252e-01,5.117e-01,8.030e-02,5.910e-01,7.021e-01,9.754e-01,2.335e-01,4.656e-01,6.497e-01,1.747e-01,3.304e-01,1.809e-02,7.333e-01,6.763e-01,4.396e-01,4.055e-02,5.256e-01,8.910e-01
9.083e-01,2.820e-01,1.732e+00,9.159e-01,6.016e-01,1.137e+00,1.748e+00,3.154e-01,1.608e+00,9.784e-01,1.624e+00,1.240e+00,1.112e+00,1.515e+00,3.813e-01,1.698e+00,1.180e+00,1.306e+00,7.932e-01,7.744e-01,1.727e+00,7.635e-01,6.381e-01,2.287e-01,1.542e+00,1.733e+00,9.209e-01,1.526e-01,1.071e+00,1.069e+00,7.270e-01,1.298e+00,1.428e+00,1.089e+00,1.103e+00,8.376e-01,1.300e+00,4.128e-01,1.553e+00,1.694e+00,1.313e-01,8.106e-01,3.333e-01,8.500e-01,1.071e+00,4.510e-01,1.459e+00,1.676e+00,1.170e+00,1.085e+00,1.812e+00,8.823e-01,1.210e+00,1.412e+00,6.573e-01,1.105e+00,8.577e-01,1.328e+00,1.149e+00,7.786e-01,7.206e-01,1.816e+00,5.845e-01,8.073e-01,1.068e+00,3.801e-01,7.847e-01,9.980e-01,1.390e+00,9.883e-01,1.000e+00,4.118e-01,6.652e-01,5.770e-01,5.198e-01,1.036e+00,7.488e-01,1.057e+00,1.376e+00,1.046e+00,1.223e+00,9.275e-01,1.079e+00,1.228e+00,1.626e+00,6.966e-01,8.255e-01,1.378e+00,6.946e-01,1.178e+00,4.629e-01,1.282e+00,1.100e+00,1.023e+00,6.402e-01,1.372e+00,1.295e+00
2.313e-01,1.374e-01,1.798e+00,8.217e-01,5.670e-01,1.623e+00,1.813e+00,9.948e-01,1.507e+00,8.512e-01,1.306e+00,1.088e+00,6.119e-01,1.047e+00,3.643e-01,1.258e+00,6.875e-01,1.172e+00,1.358e+00,8.971e-01,1.189e+00,1.109e+00,1.202e+00,7.935e-01,1.377e+00,1.095e+00,8.587e-01,1.372e-01,1.202e+00,1.178e+00,9.466e-01,1.568e+00,1.489e+00,1.453e+00,1.284e+00,1.341e+00,7.807e-01,1.020e+00,1.457e+00,8.960e-01,5.112e-01,9.958e-01,8.864e-01,9.523e-01,8.049e-01,7.706e-01,1.074e+00,1.067e+00,1.580e+00,7.509e-01,1.099e+00,5.698e-01,1.498e+00,1.762e+00,8.798e-01,1.291e+00,7.819e-01,1.332e+00,1.235e+00,1.119e+00,1.411e+00,1.030e+00,1.080e+00,5.203e-01,1.134e+00,8.181e-01,1.126e+00,5.157e-01,8.314e-01,1.655e+00,1.086e+00,4.093e-01,5.830e-01,1.188e+00,7.052e-01,1.609e+00,6.333e-01,1.035e+00,1.294e+00,1.391e+00,7.235e-01,7.013e-01,1.082e+00,1.114e+00,1.694e+00,5.478e-01,6.165e-01,1.133e+00,9.992e-01,1.299e+00,1.331e+00,1.100e+00,6.145e-01,1.007e+00,1.388e+00,1.690e+00,8.607e-01
5.418e-01,1.911e-01,1.252e+00,1.347e+00,1.256e+00,1.482e+00,1.295e+00,7.196e-01,2.009e+00,1.052e+00,1.354e+00,1.668e+00,1.312e+00,1.799e+00,1.011e+00,2.010e+00,1.484e+00,1.275e+00,1.505e+00,1.401e+00,2.210e+00,1.152e+00,1.191e+00,6.649e-01,1.625e+00,1.767e+00,1.053e+00,1.762e-01,1.622e+00,1.295e+00,1.217e+00,1.615e+00,1.062e+00,9.495e-01,1.281e+00,6.565e-01,1.429e+00,1.173e+00,2.055e+00,1.572e+00,7.421e-01,1.162e+00,1.237e+00,7.238e-01,1.046e+00,5.097e-01,2.057e+00,2.130e+00,1.268e+00,1.491e+00,2.095e+00,1.490e+00,1.330e+00,1.835e+00,6.342e-01,8.371e-01,7.040e-01,1.287e+00,1.701e+00,1.391e+00,9.869e-01,1.604e+00,5.961e-01,1.048e+00,9.165e-01,1.022e+00,1.157e+00,1.243e+00,1.397e+00,1.295e+00,1.041e+00,4.289e-01,1.329e+00,7.142e-01,1.202e+00,1.283e+00,1.298e+00,1.315e+00,1.658e+00,1.521e+00,1.724e+00,8.452e-01,1.403e+00,1.786e+00,1.293e+00,7.131e-01,8.098e-01,1.766e+00,9.311e-01,1.465e+00,1.242e+00,1.476e+00,8.747e-01,1.651e+00,9.938e-01,1.580e+00,1.097e+00
1.947e-01,1.190e-01,1.653e+00,9.888e-01,1.666e+00,2.226e+00,2.619e+00,1.567e+00,2.560e+00,1.070e+00,1.650e+00,1.996e+00,1.392e+00,1.757e+00,1.197e+00,1.762e+00,1.373e+00,1.979e+00,2.123e+00,1.853e+00,1.768e+00,1.531e+00,1.705e+00,1.505e+00,2.094e+00,1.392e+00,1.844e+00,8.102e-01,1.986e+00,1.909e+00,1.434e+00,2.402e+00,2.300e+00,1.460e+00,1.756e+00,2.212e+00,1.392e+00,1.859e+00,2.146e+00,1.842e+00,1.032e+00,1.160e+00,1.748e+00,1.060e+00,1.371e+00,9.494e-01,1.462e+00,1.410e+00,1.822e+00,1.285e+00,2.077e+00,1.777e+00,1.789e+00,2.454e+00,1.281e+00,1.666e+00,1.152e+00,1.797e+00,1.468e+00,2.225e+00,2.128e+00,1.296e+00,1.641e+00,1.511e+00,1.412e+00,1.450e+00,1.254e+00,1.088e+00,1.882e+00,2.570e+00,1.568e+00,7.539e-01,1.643e+00,1.758e+00,1.695e+00,2.607e+00,1.468e+00,1.660e+00,1.585e+00,1.995e+00,1.012e+00,1.288e+00,1.722e+00,2.012e+00,2.440e+00,8.266e-01,9.580e-01,1.998e+00,1.147e+00,1.799e+00,1.812e+00,1.408e+00,1.322e+00,1.385e+00,2.092e+00,1.965e+00,1.069e+00
4.273e-01,9.227e-02,6.286e-01,1.118e+00,1.328e+00,1.463e+00,1.481e+00,9.773e-01,2.413e+00,5.939e-01,1.362e+00,1.918e+00,1.124e+00,1.380e+00,1.052e+00,1.765e+00,1.811e+00,1.030e+00,2.281e+00,1.918e+00,1.711e+00,1.068e+00,1.695e+00,1.296e+00,1.831e+00,2.137e+00,1.361e+00,3.575e-01,2.199e+00,1.785e+00,1.594e+00,1.830e+00,1.087e+00,4.653e-01,1.860e+00,1.262e+00,1.421e+00,1.538e+00,1.635e+00,1.487e+00,8.871e-01,1.201e+00,2.289e+00,4.958e-01,1.581e+00,8.220e-01,1.547e+00,1.514e+00,1.526e+00,1.939e+00,1.781e+00,2.003e+00,9.980e-01,1.431e+00,8.571e-01,1.064e+00,1.412e+00,1.419e+00,1.457e+00,1.510e+00,1.659e+00,1.215e+00,1.369e+00,1.326e+00,8.087e-01,1.594e+00,1.166e+00,1.836e+00,2.182e+00,1.787e+00,1.185e+00,4.509e-01,1.899e+00,1.046e+00,1.260e+00,1.516e+00,1.749e+00,1.867e+00,1.610e+00,1.431e+00,2.083e+00,6.446e-01,1.471e+00,1.793e+00,1.869e+00,1.389e+00,1.344e+00,1.902e+00,7.128e-01,1.459e+00,1.946e+00,1.568e+00,1.607e+00,1.229e+00,9.486e-01,1.594e+00,8.583e-01
3.478e-01,1.289e-01,1.191e+00,7.732e-01,1.363e+00,1.659e+00,3.088e+00,1.473e+00,2.958e+00,1.022e+00,1.720e+00,2.255e+00,1.419e+00,1.713e+00,1.326e+00,2.489e+00,1.973e+00,2.203e+00,2.643e+00,2.169e+00,1.646e+00,1.293e+00,2.223e+00,2.120e+00,2.356e+00,1.901e+00,1.671e+00,7.165e-01,2.295e+00,2.116e+00,1.246e+00,2.160e+00,2.525e+00,1.737e+00,2.235e+00,2.242e+00,2.063e+00,1.833e+00,1.909e+00,2.359e+00,8.559e-01,1.837e+00,2.056e+00,1.004e+00,1.726e+00,1.520e+00,1.985e+00,1.955e+00,2.325e+00,1.714e+00,2.828e+00,1.858e+00,1.333e+00,1.919e+00,1.180e+00,1.581e+00,1.172e+00,2.447e+00,1.815e+00,2.066e+00,2.661e+00,1.368e+00,1.647e+00,2.104e+00,1.789e+00,1.743e+00,1.455e+00,1.873e+00,2.097e+00,2.747e+00,1.404e+00,1.113e+00,1.522e+00,1.449e+00,2.252e+00,2.615e+00,2.058e+00,1.953e+00,2.355e+00,1.458e+00,1.335e+00,1.299e+00,2.113e+00,2.378e+00,2.502e+00,1.864e+00,1.946e+00,1.997e+00,1.652e+00,2.085e+00,1.575e+00,1.969e+00,1.976e+00,1.815e+00,2.370e+00,2.529e+00,1.894e+00
4.509e-01,1.836e-01,1.188e+00,5.959e-01,5.832e-01,1.008e+00,2.213e+00,1.225e+00,2.549e+00,1.568e+00,1.783e+00,2.353e+00,1.229e+00,1.620e+00,9.186e-01,2.277e+00,2.200e+00,2.228e+00,1.951e+00,2.194e+00,1.450e+00,8.782e-01,2.347e+00,2.087e+00,2.442e+00,2.014e+00,1.144e+00,3.988e-01,2.371e+00,1.817e+00,1.383e+00,2.296e+00,2.694e+00,1.888e+00,1.628e+00,1.495e+00,1.970e+00,1.274e+00,1.741e+00,2.316e+00,7.445e-01,2.088e+00,1.090e+00,1.764e+00,2.332e+00,1.521e+00,2.195e+00,2.185e+00,1.876e+00,1.792e+00,2.825e+00,1.464e+00,2.018e+00,1.405e+00,1.620e+00,1.722e+00,1.263e+00,2.367e+00,2.156e+00,1.489e+00,1.666e+00,2.190e+00,1.031e+00,1.784e+00,1.777e+00,1.129e+00,1.412e+00,1.810e+00,1.412e+00,1.955e+00,1.572e+00,8.304e-01,8.190e-01,1.213e+00,1.511e+00,2.439e+00,1.523e+00,2.211e+00,2.076e+00,1.564e+00,1.362e+00,1.409e+00,1.959e+00,1.773e+00,2.145e+00,2.011e+00,1.976e+00,1.727e+00,1.558e+00,1.887e+00,8.780e-01,1.815e+00,1.561e+00,1.508e+00,2.017e+00,2.637e+00,2.438e+00
2.047e-01,1.541e-01,1.807e+00,1.423e+00,1.663e+00,2.598e+00,2.940e+00,1.756e+00,4.470e+00,2.189e+00,3.010e+00,3.357e+00,1.670e+00,2.401e+00,1.944e+00,3.403e+00,3.122e+00,2.340e+00,3.974e+00,3.285e+00,3.421e+00,2.858e+00,3.511e+00,2.759e+00,3.620e+00,2.983e+00,1.863e+00,7.305e-01,3.159e+00,3.252e+00,2.247e+00,3.539e+00,3.108e+00,2.446e+00,3.449e+00,2.738e+00,2.696e+00,3.082e+00,3.080e+00,2.719e+00,1.765e+00,2.775e+00,3.292e+00,1.695e+00,3.089e+00,2.040e+00,2.799e+00,2.913e+00,3.952e+00,2.277e+00,2.845e+00,2.484e+00,2.941e+00,3.167e+00,2.183e+00,2.323e+00,1.748e+00,2.528e+00,3.583e+00,3.023e+00,3.606e+00,2.519e+00,2.489e+00,2.578e+00,2.499e+00,2.811e+00,2.424e+00,3.065e+00,2.901e+00,3.522e+00,2.701e+00,9.200e-01,2.720e+00,3.041e+00,3.093e+00,3.347e+00,2.871e+00,3.624e+00,3.754e+00,2.399e+00,2.640e+00,2.009e+00,3.080e+00,3.535e+00,3.879e+00,2.074e+00,2.188e+00,3.080e+00,2.720e+00,3.225e+00,3.381e+00,3.111e+00,2.272e+00,2.239e+00,3.050e+00,3.850e+00,1.912e+00
6.452e-01,2.008e-01,1.437e+00,1.213e+00,1.041e+00,1.489e+00,1.701e+00,8.826e-01,2.747e+00,2.019e+00,2.397e+00,2.181e+00,2.209e+00,2.657e+00,1.556e+00,3.166e+00,2.361e+00,1.616e+00,2.765e+00,2.741e+00,3.129e+00,2.212e+00,1.860e+00,1.626e+00,3.150e+00,2.679e+00,1.926e+00,1.300e+00,2.217e+00,1.883e+00,2.184e+00,2.968e+00,2.438e+00,2.451e+00,2.051e+00,2.138e+00,2.128e+00,1.965e+00,2.709e+00,2.919e+00,1.435e+00,2.457e+00,1.803e+00,1.904e+00,2.360e+00,2.045e+00,2.235e+00,2.972e+00,2.555e+00,1.793e+00,2.203e+00,1.982e+00,2.639e+00,2.255e+00,1.554e+00,2.559e+00,1.835e+00,2.640e+00,2.703e+00,2.320e+00,1.705e+00,3.137e+00,1.957e+00,2.034e+00,1.916e+00,1.775e+00,2.113e+00,2.677e+00,2.133e+00,2.286e+00,1.706e+00,1.438e+00,1.694e+00,1.915e+00,2.634e+00,2.207e+00,2.436e+00,2.188e+00,2.994e+00,2.177e+00,2.399e+00,1.466e+00,2.339e+00,3.242e+00,3.156e+00,1.128e+00,2.128e+00,2.268e+00,2.068e+00,2.477e+00,2.413e+00,2.228e+00,1.490e+00,1.568e+00,1.579e+00,2.659e+00,2.499e+00
4.165e-01,1.321e-01,1.702e+00,1.214e+00,1.706e+00,2.329e+00,3.639e+00,2.608e+00,4.715e+00,2.715e+00,3.409e+00,4.130e+00,2.849e+00,3.756e+00,2.821e+00,4.791e+00,3.807e+00,3.577e+00,5.582e+00,5.678e+00,4.180e+00,3.669e+00,4.638e+00,4.390e+00,5.686e+00,4.137e+00,3.480e+00,2.223e+00,5.147e+00,4.046e+00,3.641e+00,5.414e+00,5.643e+00,4.627e+00,3.639e+00,4.221e+00,4.027e+00,4.330e+00,3.750e+00,4.882e+00,2.900e+00,4.227e+00,4.020e+00,3.029e+00,4.196e+00,3.962e+00,3.127e+00,3.859e+00,4.614e+00,3.770e+00,3.966e+00,3.546e+00,4.682e+00,4.003e+00,4.035e+00,5.000e+00,3.216e+00,4.578e+00,4.058e+00,4.507e+00,4.684e+00,3.878e+00,3.383e+00,4.311e+00,3.888e+00,3.311e+00,3.871e+00,4.810e+00,3.285e+00,4.650e+00,3.633e+00,3.154e+00,3.373e+00,3.573e+00,4.926e+00,5.014e+00,4.157e+00,4.524e+00,5.085e+00,3.659e+00,3.139e+00,2.547e+00,4.186e+00,4.644e+00,5.686e+00,3.120e+00,3.870e+00,3.733e+00,4.149e+00,3.924e+00,3.927e+00,4.184e+00,3.362e+00,2.675e+00,4.837e+00,4.595e+00,4.479e+00
2.509e-01,1.459e-01,1.509e+00,1.177e+00,1.634e+00,2.207e+00,3.028e+00,1.989e+00,4.110e+00,2.050e+00,2.649e+00,4.243e+00,2.103e+00,3.197e+00,2.459e+00,3.931e+00,3.326e+00,3.287e+00,4.049e+00,4.275e+00,3.490e+00,3.166e+00,3.733e+00,3.727e+00,4.304e+00,3.581e+00,2.861e+00,1.927e+00,4.227e+00,4.140e+00,3.381e+00,4.415e+00,4.562e+00,3.419e+00,3.530e+00,3.079e+00,3.159e+00,3.187e+00,3.819e+00,3.367e+00,2.822e+00,3.452e+00,3.175e+00,2.521e+00,3.300e+00,3.071e+00,3.351e+00,3.795e+00,3.722e+00,3.326e+00,4.344e+00,3.281e+00,3.753e+00,3.711e+00,3.496e+00,3.025e+00,2.205e+00,3.039e+00,4.136e+00,4.012e+00,4.016e+00,3.264e+00,2.540e+00,3.133e+00,3.018e+00,2.700e+00,2.902e+00,4.030e+00,3.552e+00,3.604e+00,3.462e+00,1.611e+00,3.346e+00,2.862e+00,3.510e+00,4.606e+00,3.972e+00,3.715e+00,4.385e+00,3.307e+00,3.257e+00,2.947e+00,3.756e+00,3.766e+00,4.002e+00,2.892e+00,2.601e+00,3.135e+00,3.526e+00,3.395e+00,3.484e+00,4.008e+00,3.146e+00,2.498e+00,3.747e+00,4.130e+00,2.984e+00
8.877e-01,1.608e-01,1.049e+00,1.242e+00,1.781e+00,1.561e+00,2.713e+00,1.633e+00,3.669e+00,1.522e+00,2.348e+00,3.585e+00,3.248e+00,2.828e+00,3.027e+00,4.090e+00,3.798e+00,2.855e+00,3.773e+00,4.550e+00,3.561e+00,2.871e+00,3.217e+00,3.625e+00,3.821e+00,3.210e+00,3.339e+00,2.173e+00,4.304e+00,3.331e+00,2.369e+00,3.722e+00,4.391e+00,2.465e+00,3.665e+00,3.125e+00,2.819e+00,3.279e+00,3.983e+00,3.923e+00,3.306e+00,3.440e+00,2.897e+00,2.397e+00,2.653e+00,2.931e+00,3.042e+00,4.096e+00,3.032e+00,3.406e+00,4.584e+00,4.046e+00,2.421e+00,2.865e+00,2.694e+00,3.434e+00,2.769e+00,3.845e+00,3.335e+00,4.143e+00,3.967e+00,3.429e+00,2.167e+00,3.804e+00,3.530e+00,2.352e+00,2.564e+00,4.512e+00,3.920e+00,3.070e+00,2.596e+00,1.468e+00,3.086e+00,2.671e+00,3.952e+00,4.167e+00,3.579e+00,3.270e+00,4.033e+00,3.563e+00,2.773e+00,3.174e+00,3.484e+00,3.964e+00,3.719e+00,2.496e+00,2.560e+00,2.991e+00,3.165e+00,3.238e+00,2.772e+00,3.441e+00,3.197e+00,2.735e+00,3.247e+00,4.091e+00,2.921e+00
7.268e-01,1.454e-01,1.129e+00,1.435e+00,1.404e+00,1.517e+00,2.110e+00,1.499e+00,3.535e+00,2.028e+00,2.574e+00,3.608e+00,2.611e+00,3.675e+00,3.393e+00,4.600e+00,3.802e+00,3.568e+00,4.151e+00,5.069e+00,4.458e+00,3.817e+00,3.325e+00,3.703e+00,4.976e+00,3.705e+00,4.111e+00,2.862e+00,4.721e+00,3.295e+00,3.346e+00,4.707e+00,4.629e+00,3.902e+00,3.999e+00,3.054e+00,3.630e+00,3.063e+00,3.894e+00,3.896e+00,3.582e+00,4.695e+00,3.008e+00,3.097e+00,2.949e+00,4.495e+00,3.377e+00,5.221e+00,3.862e+00,3.778e+00,4.532e+00,3.273e+00,4.049e+00,3.473e+00,3.131e+00,4.134e+00,2.712e+00,3.609e+00,4.025e+00,4.894e+00,3.897e+00,4.566e+00,2.993e+00,3.210e+00,3.501e+00,3.185e+00,3.578e+00,4.748e+00,3.531e+00,2.908e+00,3.281e+00,2.946e+00,4.184e+00,3.011e+00,4.788e+00,3.881e+00,4.110e+00,3.699e+00,5.387e+00,4.228e+00,3.601e+00,2.994e+00,3.974e+00,4.645e+00,4.936e+00,2.842e+00,3.165e+00,3.546e+00,4.581e+00,3.533e+00,3.554e+00,4.057e+00,3.095e+00,2.775e+00,3.841e+00,4.590e+00,4.168e+00
7.584e-01,2.161e-01,1.376e+00,1.374e+00,1.638e+00,1.741e+00,2.803e+00,1.629e+00,3.968e+00,2.115e+00,2.657e+00,3.470e+00,3.025e+00,3.167e+00,3.275e+00,5.048e+00,4.521e+00,3.771e+00,4.957e+00,5.358e+00,3.946e+00,2.949e+00,3.964e+00,3.786e+00,5.244e+00,3.921e+00,3.635e+00,2.444e+00,4.964e+00,3.572e+00,2.767e+00,4.499e+00,4.190e+00,3.435e+00,4.041e+00,3.232e+00,4.307e+00,3.658e+00,4.485e+00,4.842e+00,3.249e+00,3.912e+00,3.191e+00,3.846e+00,3.603e+00,2.996e+00,3.663e+00,4.767e+00,4.470e+00,4.070e+00,4.922e+00,4.106e+00,3.564e+00,3.720e+00,3.304e+00,4.107e+00,3.146e+00,4.470e+00,3.700e+00,3.915e+00,4.225e+00,4.046e+00,2.389e+00,4.187e+00,3.713e+00,3.214e+00,3.741e+00,4.505e+00,3.968e+00,3.744e+00,2.676e+00,2.071e+00,3.316e+00,2.724e+00,4.312e+00,4.634e+00,3.635e+00,4.197e+00,5.132e+00,4.177e+00,3.625e+00,3.544e+00,3.592e+00,4.868e+00,4.967e+00,3.521e+00,3.290e+00,3.890e+00,4.131e+00,4.090e+00,3.355e+00,3.815e+00,3.241e+00,3.791e+00,4.464e+00,4.640e+00,3.965e+00
6.688e-01,2.175e-01,1.418e+00,1.334e+00,1.372e+00,1.707e+00,2.416e+00,1.595e+00,4.222e+00,2.465e+00,2.986e+00,4.302e+00,2.749e+00,3.628e+00,3.636e+00,5.787e+00,5.063e+00,4.348e+00,5.217e+00,5.907e+00,5.127e+00,3.873e+00,4.488e+00,4.667e+00,6.420e+00,4.819e+00,3.890e+00,2.835e+00,6.293e+00,4.913e+00,3.941e+00,5.597e+00,5.867e+00,3.916e+00,4.890e+00,2.965e+00,4.200e+00,3.687e+00,5.454e+00,4.556e+00,4.836e+00,5.040e+00,3.122e+00,4.598e+00,4.482e+00,4.517e+00,4.364e+00,5.772e+00,5.269e+00,4.724e+00,6.305e+00,4.546e+00,5.152e+00,4.427e+00,3.923e+00,4.541e+00,3.332e+00,4.713e+00,5.589e+00,5.132e+00,4.931e+00,5.911e+00,2.890e+00,4.058e+00,4.166e+00,3.241e+00,4.038e+00,5.364e+00,4.280e+00,3.476e+00,4.732e+00,2.752e+00,4.708e+00,4.425e+00,5.067e+00,5.284e+00,4.448e+00,5.093e+00,6.283e+00,5.557e+00,4.295e+00,4.557e+00,4.943e+00,4.578e+00,6.052e+00,4.051e+00,3.740e+00,5.200e+00,4.734e+00,4.567e+00,3.433e+00,5.265e+00,4.622e+00,4.351e+00,5.232e+00,5.936e+00,4.376e+00
3.346e-01,7.641e-02,9.107e-01,8.355e-01,1.090e+00,1.403e+00,1.793e+00,1.589e+00,2.446e+00,1.407e+00,1.837e+00,3.152e+00,2.605e+00,3.313e+00,3.247e+00,4.283e+00,3.994e+00,4.412e+00,5.584e+00,6.006e+00,4.359e+00,4.099e+00,3.748e+00,4.532e+00,6.046e+00,4.647e+00,5.234e+00,3.747e+00,5.512e+00,4.161e+00,4.581e+00,5.599e+00,5.463e+00,5.026e+00,4.392e+00,4.438e+00,4.229e+00,4.447e+00,4.590e+00,4.293e+00,4.705e+00,4.507e+00,4.001e+00,5.035e+00,3.508e+00,4.828e+00,3.163e+00,5.122e+00,4.994e+00,4.545e+00,4.309e+00,4.725e+00,5.033e+00,4.758e+00,4.449e+00,5.793e+00,3.940e+00,4.679e+00,3.931e+00,5.111e+00,5.084e+00,4.727e+00,4.016e+00,3.847e+00,3.335e+00,3.798e+00,4.031e+00,5.410e+00,4.586e+00,3.763e+00,3.981e+00,3.729e+00,4.470e+00,3.511e+00,4.162e+00,5.369e+00,5.027e+00,4.709e+00,5.795e+00,5.342e+00,5.072e+00,4.359e+00,4.288e+00,4.681e+00,5.384e+00,4.140e+00,3.552e+00,3.995e+00,4.876e+00,4.456e+00,4.559e+00,4.601e+00,3.603e+00,3.829e+00,4.827e+00,4.681e+00,4.666e+00
3.210e-01,1.524e-01,1.420e+00,1.095e+00,1.077e+00,1.823e+00,2.119e+00,1.649e+00,3.619e+00,2.451e+00,2.910e+00,3.861e+00,3.118e+00,4.014e+00,3.753e+00,6.101e+00,5.020e+00,5.264e+00,7.095e+00,7.652e+00,5.862e+00,5.088e+00,5.935e+00,5.012e+00,7.829e+00,6.470e+00,5.598e+00,4.509e+00,6.810e+00,6.394e+00,5.268e+00,6.748e+00,6.370e+00,6.126e+00,5.871e+00,4.470e+00,4.968e+00,5.389e+00,6.401e+00,5.894e+00,5.877e+00,5.495e+00,4.673e+00,6.785e+00,5.871e+00,5.668e+00,4.137e+00,6.412e+00,6.479e+00,6.210e+00,5.524e+00,5.831e+00,6.651e+00,5.831e+00,5.811e+00,6.283e+00,5.361e+00,6.489e+00,6.106e+00,5.911e+00,5.843e+00,6.492e+00,4.422e+00,5.547e+00,4.845e+00,4.614e+00,5.961e+00,6.772e+00,5.412e+00,5.234e+00,5.821e+00,4.223e+00,5.009e+00,4.895e+00,5.706e+00,7.138e+00,5.955e+00,6.056e+00,7.174e+00,6.903e+00,5.993e+00,5.420e+00,5.310e+00,5.535e+00,7.250e+00,5.033e+00,5.271e+00,5.699e+00,6.325e+00,5.717e+00,5.828e+00,5.825e+00,4.831e+00,5.275e+00,6.242e+00,6.243e+00,5.326e+00
8.684e-01,1.917e-01,1.745e+00,1.772e+00,1.615e+00,2.199e+00,2.571e+00,2.174e+00,4.459e+00,2.636e+00,3.360e+00,4.186e+00,3.601e+00,3.613e+00,3.322e+00,5.733e+00,5.136e+00,4.411e+00,7.058e+00,7.604e+00,5.537e+00,4.854e+00,5.643e+00,5.115e+00,7.156e+00,5.661e+00,5.480e+00,4.546e+00,6.788e+00,5.688e+00,5.603e+00,6.561e+00,6.352e+00,5.043e+00,5.983e+00,4.596e+00,5.040e+00,5.886e+00,6.370e+00,5.720e+00,5.305e+00,5.588e+00,5.292e+00,5.864e+00,5.294e+00,5.656e+00,4.158e+00,6.222e+00,5.635e+00,5.359e+00,5.559e+00,5.835e+00,5.781e+00,5.747e+00,4.844e+00,6.436e+00,5.824e+00,6.585e+00,6.393e+00,6.247e+00,5.990e+00,6.519e+00,4.875e+00,5.311e+00,4.818e+00,4.171e+00,5.570e+00,6.877e+00,5.356e+00,5.234e+00,5.328e+00,3.377e+00,4.742e+00,4.765e+00,6.237e+00,6.547e+00,5.518e+00,5.716e+00,6.220e+00,6.441e+00,5.446e+00,4.575e+00,5.695e+00,6.421e+00,7.319e+00,4.381e+00,5.176e+00,6.016e+00,5.984e+00,6.082e+00,5.865e+00,5.321e+00,4.390e+00,5.498e+00,4.937e+00,6.712e+00,5.047e+00
8.552e-01,2.112e-01,1.273e+00,1.167e+00,1.667e+00,1.760e+00,3.055e+00,1.707e+00,4.065e+00,1.752e+00,2.738e+00,3.813e+00,2.870e+00,3.133e+00,3.053e+00,5.023e+00,4.799e+00,4.712e+00,6.064e+00,6.514e+00,5.352e+00,4.472e+00,5.318e+00,5.001e+00,6.803e+00,5.556e+00,5.529e+00,3.367e+00,7.006e+00,5.865e+00,4.653e+00,6.161e+00,6.746e+00,4.281e+00,5.569e+00,4.630e+00,5.914e+00,5.460e+00,5.335e+00,5.840e+00,4.983e+00,5.240e+00,5.108e+00,5.240e+00,4.588e+00,4.716e+00,4.623e+00,5.629e+00,5.753e+00,5.822e+00,6.618e+00,5.738e+00,4.915e+00,5.650e+00,4.839e+00,5.245e+00,4.774e+00,6.148e+00,5.573e+00,5.537e+00,6.191e+00,5.578e+00,4.148e+00,5.487e+00,4.896e+00,4.253e+00,4.737e+00,5.988e+00,6.034e+00,4.986e+00,5.604e+00,3.427e+00,4.881e+00,3.941e+00,5.626e+00,5.888e+00,5.695e+00,6.173e+00,6.606e+00,5.386e+00,5.253e+00,4.855e+00,5.914e+00,5.419e+00,6.108e+00,5.675e+00,4.417e+00,5.989e+00,5.727e+00,5.281e+00,4.397e+00,5.040e+00,5.303e+00,5.450e+00,5.707e+00,6.408e+00,4.883e+00
9.356e-01,2.456e-01,1.619e+00,1.559e+00,2.099e+00,2.213e+00,3.544e+00,2.160e+00,4.711e+00,2.297e+00,3.186e+00,4.218e+00,3.143e+00,3.795e+00,3.187e+00,5.950e+00,5.123e+00,5.571e+00,7.078e+00,7.231e+00,6.463e+00,5.373e+00,6.574e+00,5.603e+00,7.870e+00,6.422e+00,6.041e+00,4.755e+00,8.060e+00,6.863e+00,5.346e+00,7.359e+00,7.534e+00,5.614e+00,5.877e+00,5.323e+00,6.957e+00,6.580e+00,6.750e+00,7.398e+00,5.065e+00,5.684e+00,6.275e+00,5.987e+00,5.864e+00,6.192e+00,4.881e+00,6.603e+00,6.573e+00,6.332e+00,7.235e+00,6.568e+00,5.817e+00,7.454e+00,5.858e+00,6.621e+00,5.936e+00,7.066e+00,6.722e+00,6.207e+00,6.342e+00,6.271e+00,5.003e+00,6.130e+00,5.611e+00,4.872e+00,6.583e+00,7.358e+00,6.024e+00,6.426e+00,6.389e+00,5.010e+00,5.278e+00,4.768e+00,6.886e+00,7.411e+00,6.812e+00,6.885e+00,7.469e+00,6.194e+00,6.104e+00,5.353e+00,7.120e+00,6.787e+00,8.215e+00,6.488e+00,5.534e+00,7.034e+00,6.369e+00,6.369e+00,5.083e+00,5.857e+00,6.203e+00,7.154e+00,7.041e+00,6.798e+00,6.464e+00
4.381e-01,8.937e-02,1.413e+00,1.440e+00,1.964e+00,2.426e+00,3.089e+00,2.215e+00,4.375e+00,1.850e+00,2.917e+00,3.795e+00,2.746e+00,3.366e+00,3.431e+00,4.744e+00,4.187e+00,3.886e+00,6.115e+00,6.008e+00,5.599e+00,5.409e+00,6.360e+00,5.400e+00,6.843e+00,5.457e+00,4.943e+00,3.916e+00,7.342e+00,5.474e+00,4.552e+00,6.895e+00,6.749e+00,4.662e+00,5.378e+00,5.294e+00,5.546e+00,5.989e+00,5.835e+00,5.258e+00,4.506e+00,5.599e+00,5.903e+00,3.780e+00,4.344e+00,5.736e+00,4.298e+00,5.802e+00,6.327e+00,4.627e+00,4.999e+00,4.896e+00,5.563e+00,5.863e+00,4.485e+00,6.054e+00,4.504e+00,5.461e+00,5.786e+00,6.097e+00,6.857e+00,5.178e+00,4.700e+00,5.555e+00,4.928e+00,4.587e+00,5.404e+00,7.218e+00,5.030e+00,6.019e+00,5.684e+00,4.848e+00,5.753e+00,5.321e+00,6.680e+00,6.631e+00,5.686e+00,5.911e+00,7.007e+00,5.555e+00,4.878e+00,4.373e+00,6.427e+00,5.869e+00,7.356e+00,4.649e+00,4.032e+00,5.681e+00,5.425e+00,5.113e+00,5.490e+00,5.081e+00,5.631e+00,4.982e+00,6.102e+00,6.016e+00,5.103e+00
2.804e-01,4.961e-02,3.452e-01,8.587e-01,8.671e-01,9.251e-01,1.117e+00,1.194e+00,2.513e+00,1.295e+00,1.573e+00,2.991e+00,2.243e+00,2.606e+00,3.220e+00,4.227e+00,4.198e+00,3.843e+00,4.984e+00,5.426e+00,4.641e+00,4.179e+00,5.384e+00,4.982e+00,5.693e+00,5.327e+00,5.287e+00,3.984e+00,6.260e+00,4.970e+00,4.263e+00,5.812e+00,6.086e+00,4.535e+00,5.789e+00,4.284e+00,4.557e+00,4.736e+00,5.306e+00,4.738e+00,5.435e+00,5.445e+00,4.458e+00,5.457e+00,4.093e+00,5.861e+00,4.324e+00,6.515e+00,5.723e+00,4.655e+00,5.437e+00,5.391e+00,4.928e+00,4.834e+00,4.554e+00,5.587e+00,3.924e+00,4.823e+00,6.027e+00,5.981e+00,5.624e+00,5.802e+00,4.170e+00,4.224e+00,4.514e+00,3.992e+00,4.993e+00,6.513e+00,5.244e+00,3.895e+00,5.149e+00,3.883e+00,5.476e+00,5.097e+00,5.666e+00,5.912e+00,6.002e+00,5.135e+00,6.493e+00,6.408e+00,5.367e+00,4.649e+00,5.431e+00,5.342e+00,6.104e+00,5.067e+00,3.955e+00,4.664e+00,5.587e+00,4.805e+00,4.630e+00,5.287e+00,4.987e+00,5.103e+00,4.912e+00,6.545e+00,4.941e+00
7.741e-01,1.620e-01,1.469e+00,1.334e+00,1.194e+00,1.850e+00,2.873e+00,1.895e+00,4.041e+00,1.651e+00,2.834e+00,3.474e+00,2.530e+00,2.884e+00,3.537e+00,5.775e+00,5.193e+00,5.001e+00,7.226e+00,7.482e+00,5.845e+00,5.403e+00,8.168e+00,6.619e+00,8.488e+00,7.659e+00,7.234e+00,5.940e+00,9.277e+00,7.585e+00,5.687e+00,8.704e+00,8.687e+00,5.638e+00,7.569e+00,6.136e+00,7.462e+00,7.465e+00,7.430e+00,7.069e+00,6.314e+00,7.402e+00,7.078e+00,7.292e+00,6.756e+00,7.059e+00,6.049e+00,8.132e+00,8.697e+00,7.504e+00,7.912e+00,6.562e+00,7.441e+00,7.586e+00,6.362e+00,7.808e+00,7.255e+00,7.739e+00,8.297e+00,6.933e+00,8.467e+00,7.503e+00,6.165e+00,7.611e+00,7.042e+00,5.673e+00,8.247e+00,9.005e+00,6.960e+00,6.603e+00,7.328e+00,5.630e+00,6.922e+00,6.768e+00,8.398e+00,8.588e+00,7.290e+00,7.761e+00,8.568e+00,8.601e+00,6.580e+00,6.556e+00,7.922e+00,7.183e+00,1.040e+01,7.523e+00,5.806e+00,7.463e+00,8.144e+00,6.953e+00,6.397e+00,7.205e+00,7.389e+00,8.043e+00,8.170e+00,9.156e+00,6.517e+00
1.946e-01,9.737e-02,7.652e-01,4.544e-01,7.840e-01,1.212e+00,2.177e+00,1.135e+00,2.770e+00,1.303e+00,1.943e+00,2.996e+00,1.907e+00,2.591e+00,2.383e+00,4.014e+00,3.557e+00,3.951e+00,5.594e+00,5.716e+00,4.166e+00,4.195e+00,5.670e+00,4.787e+00,7.554e+00,6.564e+00,5.733e+00,5.002e+00,6.772e+00,6.741e+00,6.513e+00,7.303e+00,7.081e+00,5.582e+00,6.524e+00,4.931e+00,6.474e+00,5.847e+00,5.821e+00,4.691e+00,5.123e+00,5.603e+00,5.946e+00,5.960e+00,5.426e+00,5.922e+00,5.019e+00,6.586e+00,6.157e+00,5.032e+00,5.840e+00,5.099e+00,6.657e+00,5.840e+00,4.852e+00,5.848e+00,4.939e+00,5.551e+00,7.152e+00,6.113e+00,7.437e+00,6.126e+00,5.650e+00,6.124e+00,5.049e+00,4.230e+00,4.979e+00,7.689e+00,6.433e+00,5.675e+00,6.735e+00,4.649e+00,5.937e+00,4.713e+00,6.711e+00,6.763e+00,6.488e+00,5.645e+00,7.287e+00,6.298e+00,6.418e+00,5.746e+00,6.595e+00,5.549e+00,6.923e+00,5.915e+00,4.649e+00,6.413e+00,6.683e+00,5.877e+00,5.411e+00,6.063e+00,6.613e+00,5.731e+00,5.610e+00,6.382e+00,4.987e+00
8.601e-01,2.702e-01,1.801e+00,1.093e+00,8.590e-01,1.684e+00,2.515e+00,1.164e+00,3.137e+00,1.753e+00,2.683e+00,2.961e+00,2.387e+00,2.911e+00,2.134e+00,4.657e+00,3.933e+00,3.834e+00,5.360e+00,5.483e+00,4.690e+00,3.941e+00,5.178e+00,4.241e+00,6.756e+00,6.720e+00,5.336e+00,4.415e+00,7.402e+00,6.516e+00,5.419e+00,7.242e+00,6.471e+00,5.404e+00,5.850e+00,5.384e+00,5.736e+00,6.107e+00,6.059e+00,5.792e+00,4.387e+00,4.880e+00,5.481e+00,6.781e+00,6.093e+00,5.359e+00,4.910e+00,6.586e+00,6.547e+00,6.392e+00,6.357e+00,5.712e+00,6.368e+00,6.807e+00,5.889e+00,5.789e+00,5.994e+00,6.591e+00,6.810e+00,5.003e+00,5.468e+00,6.248e+00,4.967e+00,6.041e+00,5.222e+00,3.889e+00,6.353e+00,7.244e+00,6.066e+00,5.294e+00,6.087e+00,4.386e+00,4.579e+00,4.246e+00,5.389e+00,7.065e+00,6.181e+00,6.541e+00,6.814e+00,6.610e+00,6.356e+00,5.981e+00,5.785e+00,5.174e+00,8.138e+00,6.290e+00,4.764e+00,6.009e+00,5.708e+00,6.227e+00,5.536e+00,5.716e+00,5.341e+00,6.571e+00,5.598e+00,5.998e+00,5.476e+00
9.408e-01,2.249e-01,2.075e+00,1.315e+00,1.067e+00,1.827e+00,3.190e+00,1.901e+00,3.699e+00,2.139e+00,2.996e+00,3.286e+00,2.858e+00,3.118e+00,2.835e+00,5.525e+00,4.149e+00,4.649e+00,5.694e+00,6.233e+00,5.141e+00,4.858e+00,6.435e+00,5.263e+00,7.052e+00,6.759e+00,7.207e+00,5.911e+00,8.188e+00,7.725e+00,5.045e+00,7.711e+00,8.169e+00,7.648e+00,6.820e+00,6.568e+00,6.610e+00,7.139e+00,7.240e+00,7.227e+00,6.152e+00,7.073e+00,6.070e+00,7.710e+00,6.211e+00,6.933e+00,5.783e+00,8.379e+00,8.001e+00,7.220e+00,7.717e+00,6.497e+00,7.697e+00,7.877e+00,6.993e+00,7.452e+00,6.694e+00,8.206e+00,7.811e+00,7.157e+00,6.463e+00,7.517e+00,5.245e+00,7.580e+00,8.311e+00,4.931e+00,7.759e+00,8.195e+00,6.447e+00,6.495e+00,7.563e+00,5.572e+00,6.008e+00,5.542e+00,7.901e+00,8.513e+00,7.276e+00,6.360e+00,8.541e+00,8.511e+00,5.677e+00,6.432e+00,6.913e+00,6.758e+00,8.961e+00,6.157e+00,6.258e+00,6.287e+00,8.059e+00,7.277e+00,6.304e+00,6.734e+00,6.443e+00,7.210e+00,7.397e+00,7.633e+00,7.264e+00
1.717e-01,4.525e-02,4.554e-01,5.913e-01,9.430e-01,1.170e+00,1.740e+00,1.275e+00,2.886e+00,1.552e+00,2.069e+00,3.115e+00,2.293e+00,2.865e+00,2.606e+00,4.026e+00,3.499e+00,3.375e+00,5.039e+00,5.472e+00,4.330e+00,4.327e+00,5.581e+00,5.003e+00,6.590e+00,7.011e+00,6.807e+00,6.055e+00,7.568e+00,7.723e+00,7.162e+00,8.854e+00,8.306e+00,6.791e+00,7.094e+00,6.773e+00,6.993e+00,7.483e+00,6.642e+00,6.026e+00,6.077e+00,6.359e+00,7.141e+00,7.027e+00,7.243e+00,6.838e+00,6.385e+00,8.652e+00,7.798e+00,7.193e+00,7.105e+00,6.804e+00,7.571e+00,7.081e+00,6.821e+00,7.323e+00,6.301e+00,7.158e+00,8.403e+00,6.756e+00,6.843e+00,6.755e+00,6.784e+00,7.532e+00,6.917e+00,5.282e+00,6.720e+00,9.095e+00,7.533e+00,6.450e+00,7.249e+00,6.049e+00,6.406e+00,5.773e+00,7.500e+00,7.945e+00,9.065e+00,6.547e+00,8.458e+00,7.901e+00,7.216e+00,7.236e+00,7.188e+00,6.938e+00,8.455e+00,7.003e+00,5.520e+00,5.585e+00,7.557e+00,6.499e+00,6.891e+00,7.618e+00,6.483e+00,6.557e+00,6.775e+00,7.479e+00,6.203e+00
3.014e-01,6.176e-02,7.403e-01,5.997e-01,7.682e-01,9.919e-01,1.614e+00,1.041e+00,1.740e+00,8.798e-01,1.373e+00,2.263e+00,2.264e+00,2.896e+00,3.117e+00,4.513e+00,3.262e+00,3.976e+00,5.672e+00,6.290e+00,5.023e+00,5.180e+00,5.881e+00,5.352e+00,7.774e+00,6.700e+00,7.286e+00,7.429e+00,9.307e+00,8.062e+00,7.637e+00,9.960e+00,9.613e+00,7.284e+00,7.742e+00,7.256e+00,8.265e+00,8.229e+00,7.906e+00,7.096e+00,6.831e+00,7.217e+00,7.944e+00,8.355e+00,6.383e+00,8.272e+00,6.644e+00,9.212e+00,8.934e+00,7.856e+00,8.423e+00,7.324e+00,8.821e+00,8.457e+00,6.898e+00,8.587e+00,7.275e+00,8.007e+00,9.286e+00,7.563e+00,8.711e+00,7.946e+00,7.338e+00,7.723e+00,7.411e+00,5.635e+00,8.513e+00,9.911e+00,7.423e+00,7.784e+00,8.012e+00,7.424e+00,7.336e+00,6.755e+00,9.214e+00,9.136e+00,9.119e+00,6.677e+00,9.470e+00,8.486e+00,7.901e+00,8.413e+00,8.040e+00,8.245e+00,1.057e+01,8.625e+00,5.652e+00,6.775e+00,8.644e+00,7.081e+00,6.757e+00,8.263e+00,7.157e+00,9.142e+00,8.449e+00,8.724e+00,7.260e+00
4.113e-01,1.469e-01,1.590e+00,9.005e-01,1.234e+00,1.826e+00,2.654e+00,1.537e+00,2.845e+00,1.652e+00,2.182e+00,2.404e+00,2.343e+00,2.634e+00,2.480e+00,3.825e+00,3.115e+00,3.674e+00,4.455e+00,4.982e+00,3.800e+00,3.725e+00,4.611e+00,3.915e+00,6.444e+00,4.961e+00,6.097e+00,4.464e+00,6.738e+00,6.767e+00,5.820e+00,8.129e+00,7.856e+00,6.002e+00,6.673e+00,6.184e+00,6.136e+00,6.322e+00,6.484e+00,6.124e+00,5.979e+00,6.775e+00,6.090e+00,7.647e+00,5.592e+00,6.279e+00,5.780e+00,6.859e+00,6.875e+00,6.274e+00,7.346e+00,6.255e+00,7.850e+00,6.582e+00,5.782e+00,6.771e+00,5.985e+00,6.743e+00,7.338e+00,6.502e+00,6.156e+00,6.828e+00,5.307e+00,6.095e+00,6.421e+00,5.089e+00,6.361e+00,6.861e+00,6.562e+00,7.418e+00,6.728e+00,4.658e+00,6.251e+00,5.850e+00,7.869e+00,7.550e+00,6.080e+00,5.628e+00,7.664e+00,7.273e+00,6.139e+00,5.790e+00,5.779e+00,6.463e+00,7.868e+00,6.249e+00,5.054e+00,5.859e+00,6.857e+00,6.303e+00,5.632e+00,5.295e+00,5.358e+00,5.751e+00,6.540e+00,7.051e+00,6.285e+00
3.719e-01,1.237e-01,1.588e+00,8.663e-01,7.248e-01,1.640e+00,2.736e+00,1.475e+00,3.001e+00,1.689e+00,2.362e+00,2.656e+00,1.948e+00,2.632e+00,2.545e+00,4.818e+00,3.541e+00,4.347e+00,5.641e+00,5.559e+00,4.847e+00,5.141e+00,5.986e+00,5.409e+00,6.974e+00,5.942e+00,6.615e+00,6.160e+00,7.061e+00,6.946e+00,5.981e+00,8.533e+00,8.804e+00,6.638e+00,7.198e+00,6.770e+00,7.033e+00,6.924e+00,6.988e+00,6.562e+00,5.895e+00,7.659e+00,6.737e+00,7.893e+00,6.192e+00,8.205e+00,5.429e+00,7.942e+00,8.300e+00,5.734e+00,7.479e+00,5.631e+00,7.583e+00,8.007e+00,6.622e+00,6.864e+00,6.600e+00,7.659e+00,8.657e+00,6.747e+00,7.056e+00,7.097e+00,7.427e+00,5.962e+00,6.864e+00,6.005e+00,7.776e+00,7.483e+00,6.595e+00,6.860e+00,7.572e+00,6.219e+00,6.141e+00,6.430e+00,7.888e+00,8.109e+00,8.090e+00,6.481e+00,8.540e+00,8.272e+00,6.217e+00,6.713e+00,7.869e+00,7.388e+00,9.950e+00,6.812e+00,5.837e+00,6.135e+00,8.525e+00,7.211e+00,6.595e+00,7.398e+00,6.876e+00,8.171e+00,8.073e+00,8.958e+00,6.438e+00
5.154e-01,1.610e-01,1.845e+00,1.067e+00,1.275e+00,1.996e+00,3.293e+00,1.868e+00,3.090e+00,1.749e+00,2.350e+00,2.927e+00,3.084e+00,3.282e+00,3.049e+00,5.391e+00,3.684e+00,4.628e+00,6.019e+00,6.537e+00,4.488e+00,4.899e+00,6.313e+00,5.462e+00,7.952e+00,6.988e+00,7.872e+00,7.115e+00,9.461e+00,8.311e+00,8.152e+00,1.110e+01,1.105e+01,8.029e+00,9.551e+00,8.697e+00,9.636e+00,9.013e+00,8.887e+00,7.946e+00,7.295e+00,9.327e+00,8.735e+00,1.059e+01,7.457e+00,9.411e+00,8.454e+00,1.074e+01,1.037e+01,8.479e+00,9.778e+00,8.063e+00,9.939e+00,9.098e+00,8.613e+00,9.094e+00,8.170e+00,1.166e+01,1.090e+01,8.716e+00,8.802e+00,8.908e+00,8.254e+00,9.598e+00,8.644e+00,7.396e+00,9.096e+00,9.411e+00,9.049e+00,9.370e+00,9.161e+00,7.939e+00,7.613e+00,7.566e+00,1.017e+01,1.109e+01,9.687e+00,7.282e+00,1.007e+01,1.089e+01,7.564e+00,9.036e+00,9.229e+00,9.412e+00,1.169e+01,8.763e+00,7.481e+00,7.562e+00,1.016e+01,8.523e+00,8.726e+00,9.114e+00,8.006e+00,1.044e+01,9.432e+00,1.032e+01,8.333e+00
6.509e-01,2.049e-01,1.667e+00,1.341e+00,1.389e+00,2.049e+00,3.296e+00,1.669e+00,4.503e+00,2.362e+00,3.306e+00,3.888e+00,3.358e+00,3.871e+00,3.982e+00,6.612e+00,5.413e+00,5.196e+00,7.445e+00,7.443e+00,6.515e+00,5.736e+00,7.543e+00,6.201e+00,8.889e+00,8.375e+00,7.575e+00,5.976e+00,9.158e+00,9.083e+00,7.370e+00,1.076e+01,1.160e+01,8.287e+00,1.166e+01,8.717e+00,9.397e+00,1.025e+01,9.830e+00,9.162e+00,8.633e+00,1.038e+01,1.024e+01,1.072e+01,9.021e+00,1.060e+01,9.205e+00,1.108e+01,1.190e+01,8.952e+00,1.101e+01,9.411e+00,1.070e+01,9.707e+00,8.566e+00,9.762e+00,8.248e+00,1.021e+01,1.214e+01,1.010e+01,9.908e+00,9.908e+00,8.438e+00,9.633e+00,9.210e+00,7.711e+00,9.573e+00,1.146e+01,1.005e+01,9.426e+00,9.314e+00,7.480e+00,9.132e+00,9.725e+00,1.158e+01,1.179e+01,1.054e+01,9.165e+00,1.122e+01,1.066e+01,9.326e+00,8.592e+00,9.471e+00,1.040e+01,1.232e+01,9.539e+00,7.866e+00,8.616e+00,1.091e+01,9.401e+00,8.445e+00,1.045e+01,8.973e+00,1.021e+01,9.061e+00,1.128e+01,9.457e+00
9.080e-02,1.340e-01,1.658e+00,1.008e+00,1.049e+00,2.103e+00,2.452e+00,1.331e+00,2.819e+00,1.632e+00,2.279e+00,3.022e+00,2.605e+00,3.709e+00,3.221e+00,5.075e+00,3.639e+00,4.182e+00,6.725e+00,6.653e+00,5.186e+00,5.059e+00,6.151e+00,4.660e+00,7.384e+00,6.673e+00,6.661e+00,6.411e+00,7.510e+00,8.019e+00,7.345e+00,9.894e+00,9.120e+00,7.509e+00,9.728e+00,7.966e+00,9.001e+00,8.734e+00,8.312e+00,8.534e+00,7.260e+00,8.570e+00,9.081e+00,9.975e+00,7.531e+00,9.029e+00,7.557e+00,9.745e+00,1.093e+01,7.463e+00,9.042e+00,8.069e+00,9.730e+00,9.479e+00,7.792e+00,9.525e+00,8.143e+00,8.623e+00,9.652e+00,8.576e+00,8.928e+00,8.061e+00,8.306e+00,8.007e+00,7.251e+00,7.028e+00,8.969e+00,9.642e+00,8.685e+00,8.997e+00,7.971e+00,6.666e+00,8.484e+00,8.491e+00,8.629e+00,1.061e+01,9.753e+00,7.562e+00,1.020e+01,9.099e+00,8.690e+00,7.448e+00,7.582e+00,9.458e+00,1.096e+01,9.068e+00,7.100e+00,7.550e+00,1.031e+01,8.505e+00,9.202e+00,9.273e+00,7.332e+00,9.259e+00,8.124e+00,1.038e+01,8.131e+00
2.633e-01,1.428e-01,1.380e+00,1.029e+00,1.467e+00,2.120e+00,2.686e+00,1.594e+00,4.029e+00,2.103e+00,2.966e+00,3.500e+00,2.182e+00,3.328e+00,2.860e+00,4.427e+00,4.073e+00,3.822e+00,6.014e+00,5.886e+00,5.626e+00,5.106e+00,6.442e+00,4.843e+00,7.098e+00,6.426e+00,6.145e+00,4.882e+00,8.210e+00,8.358e+00,6.158e+00,9.409e+00,8.831e+00,7.207e+00,8.825e+00,8.445e+00,9.162e+00,9.199e+00,7.961e+00,8.822e+00,6.665e+00,7.994e+00,9.624e+00,8.918e+00,7.292e+00,8.661e+00,6.861e+00,8.409e+00,1.015e+01,8.049e+00,9.195e+00,8.236e+00,9.548e+00,9.337e+00,8.312e+00,8.442e+00,7.955e+00,7.272e+00,9.011e+00,8.615e+00,7.631e+00,7.622e+00,6.566e+00,8.366e+00,8.193e+00,7.258e+00,8.821e+00,9.547e+00,8.255e+00,9.317e+00,9.392e+00,6.648e+00,9.234e+00,8.061e+00,9.159e+00,9.688e+00,9.534e+00,8.939e+00,1.026e+01,7.946e+00,8.218e+00,7.450e+00,7.715e+00,8.636e+00,1.015e+01,9.011e+00,6.581e+00,7.245e+00,8.633e+00,8.366e+00,8.778e+00,7.515e+00,7.672e+00,7.676e+00,8.180e+00,8.554e+00,8.734e+00
3.943e-01,1.038e-01,1.208e+00,1.252e+00,1.874e+00,2.097e+00,2.348e+00,1.868e+00,3.804e+00,2.014e+00,2.657e+00,3.281e+00,3.077e+00,3.212e+00,3.422e+00,5.182e+00,4.518e+00,4.563e+00,6.797e+00,7.112e+00,6.185e+00,5.473e+00,6.536e+00,5.415e+00,8.218e+00,7.159e+00,7.344e+00,5.833e+00,9.035e+00,8.898e+00,7.924e+00,1.112e+01,1.116e+01,7.401e+00,1.093e+01,9.162e+00,9.902e+00,1.185e+01,1.019e+01,9.897e+00,9.535e+00,1.021e+01,1.149e+01,1.211e+01,9.547e+00,1.079e+01,8.659e+00,1.035e+01,1.081e+01,9.781e+00,1.125e+01,1.030e+01,1.060e+01,1.079e+01,1.017e+01,1.028e+01,9.997e+00,1.103e+01,1.224e+01,1.062e+01,8.801e+00,9.474e+00,8.989e+00,1.108e+01,9.328e+00,8.976e+00,1.069e+01,1.157e+01,1.003e+01,1.075e+01,1.129e+01,8.531e+00,1.057e+01,9.909e+00,1.211e+01,1.213e+01,1.078e+01,9.811e+00,1.121e+01,1.179e+01,9.256e+00,1.026e+01,1.022e+01,9.767e+00,1.297e+01,1.006e+01,8.087e+00,9.218e+00,1.072e+01,1.019e+01,9.855e+00,1.017e+01,9.782e+00,1.125e+01,1.053e+01,1.063e+01,9.359e+00
3.559e-01,1.497e-01,1.569e+00,1.090e+00,1.286e+00,2.093e+00,3.280e+00,1.751e+00,3.739e+00,1.827e+00,2.704e+00,3.284e+00,2.606e+00,3.532e+00,2.998e+00,5.242e+00,3.959e+00,4.144e+00,6.535e+00,6.133e+00,5.443e+00,4.932e+00,5.572e+00,5.430e+00,7.360e+00,6.291e+00,6.394e+00,5.158e+00,7.891e+00,7.754e+00,6.793e+00,9.885e+00,9.776e+00,7.162e+00,9.150e+00,8.815e+00,9.543e+00,9.834e+00,8.360e+00,9.564e+00,7.998e+00,1.095e+01,1.096e+01,1.097e+01,7.728e+00,1.018e+01,8.896e+00,1.018e+01,1.201e+01,9.126e+00,1.102e+01,8.030e+00,1.071e+01,1.001e+01,7.128e+00,9.598e+00,8.939e+00,1.068e+01,1.040e+01,9.199e+00,9.556e+00,8.817e+00,9.058e+00,1.057e+01,8.269e+00,8.727e+00,9.221e+00,9.912e+00,8.254e+00,1.049e+01,9.704e+00,8.473e+00,9.311e+00,9.241e+00,1.043e+01,1.009e+01,1.042e+01,8.867e+00,1.113e+01,9.848e+00,8.280e+00,8.727e+00,1.002e+01,9.180e+00,1.175e+01,1.068e+01,8.168e+00,8.829e+00,1.057e+01,9.790e+00,9.792e+00,9.286e+00,8.277e+00,1.060e+01,9.811e+00,1.123e+01,9.474e+00
5.897e-01,1.728e-01,1.072e+00,1.056e+00,9.645e-01,1.150e+00,1.645e+00,1.259e+00,3.373e+00,2.271e+00,2.518e+00,3.389e+00,2.376e+00,2.723e+00,2.521e+00,4.497e+00,4.260e+00,3.870e+00,4.862e+00,5.274e+00,5.616e+00,4.845e+00,5.649e+00,5.086e+00,6.099e+00,5.708e+00,5.215e+00,4.191e+00,6.671e+00,6.154e+00,5.314e+00,8.235e+00,9.666e+00,6.056e+00,8.714e+00,7.460e+00,8.757e+00,9.455e+00,8.496e+00,9.164e+00,8.156e+00,1.006e+01,9.421e+00,1.076e+01,8.545e+00,9.808e+00,8.165e+00,9.760e+00,9.736e+00,7.297e+00,1.012e+01,8.392e+00,8.794e+00,1.001e+01,8.811e+00,8.483e+00,8.268e+00,9.325e+00,1.140e+01,9.075e+00,7.595e+00,8.967e+00,8.092e+00,8.783e+00,9.209e+00,7.554e+00,9.025e+00,9.697e+00,9.002e+00,8.127e+00,1.008e+01,6.661e+00,8.835e+00,9.443e+00,9.542e+00,1.046e+01,9.618e+00,8.774e+00,9.599e+00,9.835e+00,7.801e+00,9.062e+00,9.532e+00,8.969e+00,1.086e+01,8.994e+00,6.760e+00,8.129e+00,1.052e+01,8.708e+00,8.082e+00,9.962e+00,9.448e+00,1.073e+01,9.378e+00,1.100e+01,9.436e+00
9.547e-03,2.361e-02,2.798e-01,3.208e-01,4.233e-01,5.118e-01,7.706e-01,5.423e-01,1.267e+00,7.086e-01,8.537e-01,1.564e+00,7.966e-01,1.763e+00,2.179e+00,2.700e+00,2.344e+00,3.258e+00,3.679e+00,4.243e+00,3.046e+00,3.319e+00,4.437e+00,3.556e+00,5.434e+00,4.935e+00,5.940e+00,5.628e+00,6.475e+00,6.313e+00,5.740e+00,7.632e+00,7.770e+00,6.340e+00,8.293e+00,7.046e+00,8.376e+00,8.911e+00,7.862e+00,8.715e+00,8.788e+00,9.868e+00,9.321e+00,1.155e+01,8.340e+00,9.667e+00,7.664e+00,1.060e+01,1.007e+01,8.279e+00,9.593e+00,7.662e+00,1.048e+01,1.051e+01,7.807e+00,9.085e+00,8.168e+00,8.283e+00,9.594e+00,9.143e+00,8.608e+00,8.222e+00,9.143e+00,9.213e+00,9.325e+00,7.049e+00,9.156e+00,9.624e+00,9.462e+00,8.248e+00,9.919e+00,8.361e+00,1.082e+01,8.734e+00,8.972e+00,1.017e+01,8.878e+00,8.562e+00,9.846e+00,1.061e+01,8.327e+00,8.188e+00,8.216e+00,8.028e+00,1.120e+01,9.316e+00,6.927e+00,8.464e+00,1.106e+01,9.061e+00,9.830e+00,8.389e+00,8.421e+00,1.036e+01,8.682e+00,9.612e+00,9.845e+00
6.912e-01,1.530e-01,1.591e+00,1.179e+00,7.896e-01,1.570e+00,2.622e+00,1.831e+00,3.038e+00,1.537e+00,2.223e+00,2.598e+00,1.723e+00,2.240e+00,2.239e+00,4.103e+00,3.874e+00,5.111e+00,5.363e+00,5.385e+00,4.296e+00,4.365e+00,5.920e+00,5.118e+00,6.974e+00,6.667e+00,6.967e+00,4.788e+00,7.895e+00,6.295e+00,6.358e+00,8.743e+00,9.176e+00,7.367e+00,9.749e+00,8.046e+00,8.819e+00,8.593e+00,7.458e+00,8.386e+00,7.648e+00,1.019e+01,9.329e+00,1.107e+01,7.923e+00,1.042e+01,7.954e+00,1.077e+01,1.069e+01,8.477e+00,1.013e+01,8.087e+00,9.142e+00,9.172e+00,8.376e+00,1.010e+01,8.473e+00,1.110e+01,1.024e+01,9.508e+00,8.055e+00,8.312e+00,8.952e+00,9.722e+00,9.504e+00,8.596e+00,9.731e+00,9.899e+00,9.455e+00,8.552e+00,9.631e+00,7.738e+00,8.974e+00,9.021e+00,9.543e+00,1.075e+01,9.125e+00,9.242e+00,1.083e+01,1.053e+01,8.721e+00,9.301e+00,9.500e+00,8.955e+00,1.164e+01,1.034e+01,8.087e+00,8.950e+00,9.833e+00,9.175e+00,8.686e+00,9.245e+00,8.191e+00,1.001e+01,9.671e+00,1.024e+01,1.044e+01
2.162e-01,1.105e-01,1.012e+00,9.218e-01,9.496e-01,1.293e+00,1.265e+00,1.285e+00,2.435e+00,1.942e+00,1.869e+00,3.087e+00,2.185e+00,3.123e+00,2.719e+00,3.589e+00,3.475e+00,4.171e+00,4.101e+00,4.982e+00,4.585e+00,4.383e+00,4.978e+00,4.860e+00,6.072e+00,6.064e+00,7.198e+00,6.125e+00,7.279e+00,6.847e+00,7.131e+00,9.587e+00,9.553e+00,7.565e+00,7.721e+00,7.607e+00,8.074e+00,8.554e+00,7.840e+00,8.785e+00,9.264e+00,1.100e+01,8.844e+00,1.168e+01,8.723e+00,1.038e+01,9.606e+00,1.314e+01,1.170e+01,8.828e+00,1.011e+01,7.852e+00,1.128e+01,1.029e+01,8.447e+00,1.098e+01,7.374e+00,1.021e+01,1.103e+01,9.333e+00,8.487e+00,1.033e+01,1.064e+01,9.229e+00,9.520e+00,7.870e+00,9.176e+00,1.013e+01,1.011e+01,8.132e+00,1.057e+01,8.869e+00,9.993e+00,9.550e+00,9.370e+00,1.121e+01,1.107e+01,8.958e+00,1.095e+01,1.126e+01,9.632e+00,9.809e+00,1.064e+01,9.580e+00,1.206e+01,9.617e+00,8.057e+00,8.796e+00,1.105e+01,9.952e+00,9.559e+00,9.583e+00,8.068e+00,1.061e+01,9.290e+00,1.128e+01,1.052e+01
7.484e-01,2.284e-01,1.484e+00,7.990e-01,1.054e+00,1.353e+00,2.962e+00,1.144e+00,3.275e+00,1.859e+00,2.541e+00,3.121e+00,3.073e+00,3.333e+00,3.555e+00,5.820e+00,4.812e+00,5.649e+00,6.382e+00,6.951e+00,5.700e+00,5.080e+00,6.382e+00,5.791e+00,8.308e+00,7.325e+00,8.174e+00,7.528e+00,9.096e+00,8.664e+00,7.313e+00,1.019e+01,1.135e+01,8.024e+00,1.094e+01,9.044e+00,1.047e+01,1.050e+01,1.033e+01,1.074e+01,1.019e+01,1.222e+01,1.106e+01,1.419e+01,1.025e+01,1.252e+01,1.114e+01,1.455e+01,1.380e+01,1.110e+01,1.413e+01,9.913e+00,1.165e+01,1.125e+01,9.087e+00,1.205e+01,1.008e+01,1.316e+01,1.320e+01,1.179e+01,1.088e+01,1.295e+01,1.163e+01,1.225e+01,1.148e+01,9.658e+00,1.140e+01,1.258e+01,1.197e+01,1.050e+01,1.234e+01,9.957e+00,1.142e+01,1.128e+01,1.354e+01,1.399e+01,1.278e+01,1.037e+01,1.302e+01,1.247e+01,1.079e+01,1.291e+01,1.280e+01,1.207e+01,1.549e+01,1.174e+01,1.050e+01,1.097e+01,1.321e+01,1.202e+01,1.060e+01,1.134e+01,1.168e+01,1.341e+01,1.071e+01,1.324e+01,1.188e+01
4.631e-01,1.107e-01,1.525e+00,9.784e-01,1.319e+00,1.986e+00,3.122e+00,1.886e+00,3.017e+00,9.873e-01,1.984e+00,2.424e+00,1.730e+00,2.155e+00,2.432e+00,4.301e+00,3.352e+00,4.606e+00,5.770e+00,5.799e+00,4.069e+00,4.135e+00,6.371e+00,4.846e+00,7.065e+00,6.282e+00,7.436e+00,6.603e+00,8.821e+00,8.555e+00,6.530e+00,9.761e+00,9.908e+00,7.204e+00,1.068e+01,8.895e+00,9.816e+00,1.016e+01,9.311e+00,9.726e+00,8.726e+00,9.610e+00,1.264e+01,1.352e+01,1.039e+01,1.217e+01,9.622e+00,1.192e+01,1.268e+01,1.048e+01,1.232e+01,1.064e+01,1.076e+01,1.269e+01,1.002e+01,1.101e+01,1.136e+01,1.153e+01,1.197e+01,1.096e+01,9.917e+00,9.861e+00,1.062e+01,1.046e+01,1.187e+01,9.493e+00,1.194e+01,1.088e+01,1.076e+01,1.210e+01,1.192e+01,9.016e+00,1.040e+01,1.103e+01,1.277e+01,1.320e+01,1.186e+01,9.411e+00,1.182e+01,1.270e+01,9.491e+00,1.162e+01,1.011e+01,1.144e+01,1.512e+01,1.210e+01,9.134e+00,1.028e+01,1.291e+01,1.036e+01,1.098e+01,1.097e+01,1.214e+01,1.225e+01,1.211e+01,1.222e+01,1.079e+01
5.061e-01,1.352e-01,1.287e+00,1.082e+00,1.335e+00,1.686e+00,2.131e+00,1.679e+00,3.466e+00,1.859e+00,2.431e+00,3.633e+00,2.256e+00,2.648e+00,2.754e+00,3.803e+00,3.951e+00,4.469e+00,4.575e+00,5.772e+00,4.666e+00,4.742e+00,5.767e+00,4.963e+00,6.299e+00,5.830e+00,6.893e+00,5.385e+00,7.978e+00,7.622e+00,6.065e+00,8.401e+00,8.853e+00,6.719e+00,8.384e+00,7.968e+00,8.104e+00,9.449e+00,8.569e+00,9.833e+00,9.600e+00,1.067e+01,1.028e+01,1.320e+01,9.185e+00,1.089e+01,9.220e+00,1.179e+01,1.109e+01,1.072e+01,1.204e+01,1.007e+01,1.051e+01,1.167e+01,9.867e+00,1.002e+01,1.026e+01,1.110e+01,1.189e+01,1.083e+01,9.058e+00,1.041e+01,1.013e+01,1.102e+01,1.214e+01,9.684e+00,1.130e+01,1.134e+01,1.145e+01,1.127e+01,1.261e+01,8.147e+00,1.166e+01,1.073e+01,1.195e+01,1.253e+01,1.122e+01,1.048e+01,1.173e+01,1.233e+01,9.728e+00,1.221e+01,1.092e+01,1.055e+01,1.346e+01,1.140e+01,8.476e+00,9.913e+00,1.208e+01,1.094e+01,1.163e+01,9.895e+00,1.038e+01,1.108e+01,1.129e+01,1.133e+01,1.066e+01
9.022e-01,2.328e-01,1.511e+00,1.598e+00,1.741e+00,2.070e+00,3.314e+00,1.705e+00,4.139e+00,1.798e+00,2.813e+00,3.604e+00,2.791e+00,3.636e+00,3.036e+00,5.375e+00,4.355e+00,3.973e+00,5.910e+00,5.814e+00,4.701e+00,3.853e+00,5.194e+00,4.758e+00,6.523e+00,6.360e+00,6.347e+00,5.084e+00,7.513e+00,6.931e+00,6.161e+00,8.774e+00,8.531e+00,6.341e+00,8.688e+00,8.516e+00,9.291e+00,9.561e+00,8.697e+00,1.102e+01,7.879e+00,1.069e+01,1.185e+01,1.291e+01,1.056e+01,1.134e+01,1.105e+01,1.241e+01,1.254e+01,1.119e+01,1.411e+01,1.114e+01,1.067e+01,1.194e+01,9.430e+00,1.004e+01,1.132e+01,1.133e+01,1.206e+01,1.100e+01,9.430e+00,9.972e+00,1.108e+01,1.076e+01,1.096e+01,1.078e+01,1.208e+01,1.150e+01,1.116e+01,1.308e+01,1.039e+01,9.847e+00,1.237e+01,9.964e+00,1.325e+01,1.162e+01,1.246e+01,1.056e+01,1.317e+01,1.263e+01,1.073e+01,1.150e+01,1.089e+01,1.259e+01,1.523e+01,1.227e+01,9.433e+00,9.363e+00,1.319e+01,1.143e+01,1.264e+01,1.119e+01,1.156e+01,1.171e+01,1.104e+01,1.201e+01,1.116e+01
8.313e-01,2.490e-01,1.561e+00,1.385e+00,1.297e+00,1.641e+00,1.882e+00,1.082e+00,2.749e+00,1.586e+00,2.157e+00,3.247e+00,2.193e+00,3.144e+00,1.970e+00,3.815e+00,2.948e+00,3.223e+00,3.523e+00,4.251e+00,4.310e+00,3.596e+00,3.807e+00,3.300e+00,5.294e+00,5.646e+00,5.480e+00,4.485e+00,6.930e+00,7.034e+00,6.362e+00,8.358e+00,8.716e+00,6.231e+00,8.013e+00,7.135e+00,8.191e+00,8.933e+00,8.725e+00,9.412e+00,8.910e+00,1.104e+01,1.053e+01,1.310e+01,9.526e+00,1.131e+01,1.159e+01,1.311e+01,1.165e+01,1.081e+01,1.334e+01,9.927e+00,1.222e+01,1.270e+01,9.757e+00,1.050e+01,1.073e+01,1.114e+01,1.286e+01,1.045e+01,8.502e+00,1.103e+01,1.082e+01,1.047e+01,1.123e+01,9.350e+00,1.058e+01,1.103e+01,1.150e+01,1.137e+01,1.210e+01,9.370e+00,1.231e+01,1.000e+01,1.131e+01,1.255e+01,1.151e+01,1.062e+01,1.167e+01,1.253e+01,1.120e+01,1.072e+01,1.115e+01,1.083e+01,1.331e+01,1.127e+01,9.066e+00,1.045e+01,1.280e+01,1.116e+01,1.138e+01,1.070e+01,1.162e+01,1.174e+01,9.545e+00,1.125e+01,1.093e+01
3.257e-01,9.084e-02,1.373e+00,1.466e+00,1.755e+00,2.129e+00,2.560e+00,2.264e+00,4.047e+00,2.000e+00,2.470e+00,3.988e+00,2.069e+00,3.019e+00,3.356e+00,4.343e+00,4.337e+00,4.808e+00,5.169e+00,5.474e+00,5.069e+00,4.932e+00,5.175e+00,5.564e+00,6.376e+00,5.297e+00,6.355e+00,4.742e+00,8.332e+00,7.012e+00,6.415e+00,9.524e+00,9.875e+00,7.466e+00,8.465e+00,7.819e+00,8.540e+00,9.592e+00,8.085e+00,7.476e+00,8.623e+00,1.132e+01,1.083e+01,1.184e+01,8.797e+00,1.211e+01,1.173e+01,1.457e+01,1.298e+01,9.783e+00,1.269e+01,1.033e+01,1.278e+01,1.285e+01,1.032e+01,1.180e+01,1.043e+01,1.116e+01,1.306e+01,1.200e+01,9.583e+00,1.048e+01,1.112e+01,1.000e+01,1.179e+01,1.140e+01,1.056e+01,1.230e+01,1.073e+01,1.150e+01,1.233e+01,1.036e+01,1.325e+01,1.070e+01,1.277e+01,1.250e+01,1.264e+01,1.229e+01,1.353e+01,1.281e+01,1.119e+01,1.256e+01,1.183e+01,1.123e+01,1.450e+01,1.109e+01,9.262e+00,1.130e+01,1.323e+01,1.176e+01,1.184e+01,1.209e+01,1.139e+01,1.130e+01,1.302e+01,1.219e+01,1.169e+01
9.337e-01,2.858e-01,1.764e+00,1.138e+00,1.145e+00,1.635e+00,2.564e+00,9.789e-01,3.234e+00,1.720e+00,2.572e+00,2.799e+00,2.665e+00,2.733e+00,2.625e+00,4.479e+00,3.973e+00,3.891e+00,4.516e+00,5.367e+00,4.852e+00,4.112e+00,6.345e+00,4.528e+00,7.188e+00,6.915e+00,7.047e+00,6.144e+00,8.734e+00,8.573e+00,6.885e+00,1.048e+01,1.044e+01,6.276e+00,9.984e+00,8.330e+00,1.054e+01,9.906e+00,1.020e+01,1.046e+01,9.549e+00,1.204e+01,1.145e+01,1.392e+01,1.030e+01,1.206e+01,1.269e+01,1.534e+01,1.411e+01,1.188e+01,1.443e+01,1.053e+01,1.299e+01,1.315e+01,1.041e+01,1.273e+01,1.194e+01,1.328e+01,1.482e+01,1.153e+01,1.082e+01,1.316e+01,1.216e+01,1.298e+01,1.424e+01,1.191e+01,1.224e+01,1.301e+01,1.306e+01,1.242e+01,1.443e+01,1.034e+01,1.361e+01,1.196e+01,1.448e+01,1.476e+01,1.401e+01,1.213e+01,1.435e+01,1.339e+01,1.144e+01,1.443e+01,1.288e+01,1.227e+01,1.566e+01,1.314e+01,1.087e+01,1.183e+01,1.366e+01,1.206e+01,1.246e+01,1.233e+01,1.389e+01,1.241e+01,1.298e+01,1.467e+01,1.292e+01
9.623e-01,2.183e-01,1.571e+00,1.730e+00,1.746e+00,1.895e+00,2.665e+00,1.848e+00,3.825e+00,1.744e+00,2.565e+00,3.448e+00,2.620e+00,3.097e+00,2.870e+00,4.993e+00,4.359e+00,4.432e+00,5.818e+00,5.858e+00,6.212e+00,5.446e+00,7.057e+00,5.853e+00,7.370e+00,7.518e+00,7.357e+00,5.916e+00,9.712e+00,8.277e+00,6.941e+00,1.013e+01,1.091e+01,7.798e+00,8.693e+00,8.757e+00,1.052e+01,1.057e+01,9.624e+00,1.003e+01,8.457e+00,1.053e+01,1.122e+01,1.088e+01,9.597e+00,1.053e+01,1.124e+01,1.408e+01,1.318e+01,1.132e+01,1.387e+01,1.202e+01,1.223e+01,1.320e+01,1.065e+01,1.254e+01,1.155e+01,1.127e+01,1.333e+01,1.149e+01,1.097e+01,1.152e+01,1.059e+01,1.191e+01,1.317e+01,1.041e+01,1.277e+01,1.384e+01,1.228e+01,1.181e+01,1.242e+01,1.082e+01,1.276e+01,1.079e+01,1.397e+01,1.198e+01,1.327e+01,1.118e+01,1.410e+01,1.223e+01,1.205e+01,1.194e+01,1.333e+01,1.289e+01,1.453e+01,1.254e+01,9.724e+00,1.109e+01,1.292e+01,1.153e+01,1.088e+01,1.281e+01,1.222e+01,1.289e+01,1.302e+01,1.354e+01,1.301e+01
9.704e-01,2.420e-01,1.861e+00,1.402e+00,1.639e+00,2.207e+00,3.244e+00,1.877e+00,4.396e+00,2.440e+00,3.497e+00,3.881e+00,3.188e+00,3.662e+00,2.624e+00,5.145e+00,4.352e+00,3.814e+00,5.684e+00,5.866e+00,5.383e+00,4.525e+00,5.380e+00,5.040e+00,7.542e+00,7.261e+00,6.827e+00,4.850e+00,7.682e+00,7.336e+00,7.400e+00,1.022e+01,1.043e+01,6.651e+00,9.237e+00,8.540e+00,9.374e+00,9.804e+00,8.645e+00,1.089e+01,1.002e+01,1.205e+01,1.132e+01,1.342e+01,1.183e+01,1.177e+01,1.241e+01,1.492e+01,1.394e+01,1.244e+01,1.454e+01,1.188e+01,1.300e+01,1.440e+01,1.217e+01,1.546e+01,1.290e+01,1.381e+01,1.603e+01,1.324e+01,1.289e+01,1.287e+01,1.527e+01,1.394e+01,1.504e+01,1.302e+01,1.276e+01,1.406e+01,1.532e+01,1.320e+01,1.428e+01,1.177e+01,1.512e+01,1.308e+01,1.530e+01,1.467e+01,1.454e+01,1.318e+01,1.501e+01,1.414e+01,1.358e+01,1.387e+01,1.445e+01,1.359e+01,1.810e+01,1.455e+01,1.210e+01,1.486e+01,1.535e+01,1.280e+01,1.337e+01,1.496e+01,1.555e+01,1.349e+01,1.544e+01,1.625e+01,1.454e+01
3.216e-01,1.491e-01,1.463e+00,1.365e+00,1.658e+00,2.241e+00,2.372e+00,1.622e+00,3.305e+00,1.506e+00,2.248e+00,3.542e+00,2.532e+00,3.452e+00,2.853e+00,4.365e+00,3.686e+00,4.518e+00,6.165e+00,6.331e+00,5.543e+00,5.057e+00,6.144e+00,4.503e+00,7.063e+00,7.364e+00,6.828e+00,5.302e+00,7.742e+00,8.158e+00,7.259e+00,8.969e+00,8.391e+00,7.410e+00,8.384e+00,7.077e+00,8.007e+00,9.584e+00,8.008e+00,8.293e+00,7.966e+00,8.518e+00,1.036e+01,1.084e+01,8.314e+00,9.386e+00,9.066e+00,1.153e+01,1.063e+01,9.834e+00,1.010e+01,1.016e+01,1.085e+01,1.242e+01,1.049e+01,1.086e+01,9.431e+00,9.838e+00,1.186e+01,1.083e+01,1.046e+01,9.482e+00,1.148e+01,1.051e+01,1.003e+01,9.154e+00,1.057e+01,1.258e+01,1.132e+01,1.047e+01,1.222e+01,9.389e+00,1.079e+01,8.487e+00,1.105e+01,1.185e+01,1.167e+01,1.020e+01,1.197e+01,1.157e+01,1.180e+01,1.011e+01,1.055e+01,1.025e+01,1.261e+01,1.155e+01,8.660e+00,1.098e+01,1.242e+01,1.085e+01,1.170e+01,1.112e+01,1.115e+01,1.177e+01,1.097e+01,1.155e+01,8.920e+00
9.669e-01,2.153e-01,1.706e+00,1.537e+00,1.186e+00,1.838e+00,2.381e+00,1.683e+00,4.063e+00,2.373e+00,3.241e+00,3.741e+00,3.023e+00,3.245e+00,3.249e+00,5.525e+00,5.135e+00,4.188e+00,6.289e+00,6.884e+00,5.681e+00,5.205e+00,6.398e+00,5.445e+00,7.556e+00,7.083e+00,7.349e+00,5.975e+00,9.657e+00,8.636e+00,7.536e+00,1.067e+01,1.079e+01,7.960e+00,1.094e+01,9.457e+00,9.831e+00,1.084e+01,9.894e+00,1.061e+01,9.866e+00,1.135e+01,1.086e+01,1.304e+01,9.937e+00,1.207e+01,1.064e+01,1.396e+01,1.382e+01,1.139e+01,1.311e+01,1.366e+01,1.421e+01,1.402e+01,1.337e+01,1.467e+01,1.300e+01,1.257e+01,1.568e+01,1.335e+01,1.088e+01,1.426e+01,1.304e+01,1.267e+01,1.489e+01,1.213e+01,1.453e+01,1.549e+01,1.404e+01,1.269e+01,1.460e+01,1.063e+01,1.441e+01,1.247e+01,1.443e+01,1.444e+01,1.393e+01,1.274e+01,1.578e+01,1.330e+01,1.314e+01,1.247e+01,1.265e+01,1.410e+01,1.685e+01,1.422e+01,1.255e+01,1.309e+01,1.416e+01,1.353e+01,1.324e+01,1.435e+01,1.397e+01,1.232e+01,1.417e+01,1.588e+01,1.485e+01
6.684e-01,1.721e-01,1.348e+00,1.305e+00,1.582e+00,1.915e+00,2.559e+00,1.816e+00,4.295e+00,2.297e+00,3.131e+00,4.143e+00,2.629e+00,3.519e+00,3.167e+00,4.938e+00,4.823e+00,4.784e+00,6.355e+00,6.803e+00,5.819e+00,5.164e+00,5.589e+00,5.617e+00,8.034e+00,7.299e+00,7.352e+00,5.596e+00,8.293e+00,8.032e+00,7.740e+00,1.014e+01,1.006e+01,7.592e+00,9.468e+00,8.317e+00,9.681e+00,1.004e+01,8.421e+00,8.230e+00,8.328e+00,9.592e+00,1.124e+01,1.120e+01,9.902e+00,1.139e+01,1.063e+01,1.368e+01,1.238e+01,1.121e+01,1.261e+01,1.118e+01,1.405e+01,1.343e+01,1.110e+01,1.298e+01,1.253e+01,1.085e+01,1.452e+01,1.282e+01,1.141e+01,1.207e+01,1.258e+01,1.287e+01,1.306e+01,1.172e+01,1.206e+01,1.304e+01,1.247e+01,1.135e+01,1.303e+01,1.023e+01,1.424e+01,1.041e+01,1.366e+01,1.321e+01,1.397e+01,1.358e+01,1.416e+01,1.227e+01,1.196e+01,1.373e+01,1.210e+01,1.245e+01,1.502e+01,1.246e+01,1.065e+01,1.246e+01,1.390e+01,1.273e+01,1.271e+01,1.383e+01,1.278e+01,1.128e+01,1.333e+01,1.350e+01,1.280e+01
7.719e-01,1.376e-01,8.111e-01,1.190e+00,1.669e+00,1.394e+00,2.082e+00,1.479e+00,3.687e+00,1.919e+00,2.506e+00,3.315e+00,3.273e+00,2.812e+00,3.191e+00,4.827e+00,4.633e+00,3.602e+00,5.726e+00,6.119e+00,5.530e+00,4.683e+00,5.147e+00,5.029e+00,6.708e+00,5.155e+00,5.103e+00,4.948e+00,7.822e+00,6.194e+00,5.868e+00,8.303e+00,8.806e+00,5.176e+00,8.275e+00,6.963e+00,7.965e+00,8.837e+00,7.995e+00,8.785e+00,7.454e+00,8.714e+00,9.535e+00,9.764e+00,7.795e+00,1.027e+01,9.111e+00,1.103e+01,1.060e+01,9.024e+00,1.136e+01,1.067e+01,1.047e+01,1.248e+01,8.389e+00,1.238e+01,1.165e+01,1.162e+01,1.438e+01,1.210e+01,1.194e+01,1.220e+01,1.192e+01,1.175e+01,1.243e+01,1.082e+01,1.080e+01,1.332e+01,1.072e+01,1.227e+01,1.145e+01,9.907e+00,1.254e+01,1.152e+01,1.368e+01,1.339e+01,1.183e+01,1.158e+01,1.298e+01,1.031e+01,1.110e+01,1.253e+01,1.129e+01,1.271e+01,1.491e+01,1.269e+01,1.075e+01,1.196e+01,1.250e+01,1.170e+01,1.009e+01,1.245e+01,1.244e+01,1.182e+01,1.238e+01,1.363e+01,1.217e+01
3.124e-01,1.061e-01,7.354e-01,8.413e-01,1.640e+00,1.541e+00,2.375e+00,1.322e+00,3.457e+00,1.624e+00,2.257e+00,3.384e+00,2.956e+00,3.411e+00,3.839e+00,5.507e+00,4.418e+00,4.763e+00,6.276e+00,7.127e+00,5.902e+00,5.456e+00,7.249e+00,5.509e+00,7.797e+00,7.171e+00,7.391e+00,6.653e+00,9.275e+00,8.968e+00,6.415e+00,9.749e+00,9.835e+00,6.896e+00,9.777e+00,8.036e+00,9.444e+00,9.862e+00,9.488e+00,1.137e+01,1.008e+01,1.066e+01,1.120e+01,1.300e+01,1.007e+01,1.140e+01,1.019e+01,1.388e+01,1.372e+01,1.184e+01,1.348e+01,1.288e+01,1.322e+01,1.471e+01,1.278e+01,1.412e+01,1.245e+01,1.384e+01,1.568e+01,1.510e+01,1.338e+01,1.277e+01,1.391e+01,1.491e+01,1.587e+01,1.291e+01,1.474e+01,1.545e+01,1.435e+01,1.278e+01,1.545e+01,1.216e+01,1.494e+01,1.312e+01,1.561e+01,1.588e+01,1.556e+01,1.367e+01,1.623e+01,1.351e+01,1.268e+01,1.494e+01,1.368e+01,1.391e+01,1.753e+01,1.511e+01,1.221e+01,1.449e+01,1.529e+01,1.384e+01,1.420e+01,1.457e+01,1.446e+01,1.351e+01,1.587e+01,1.619e+01,1.513e+01
8.982e-01,2.186e-01,1.365e+00,1.150e+00,1.150e+00,1.480e+00,2.597e+00,1.092e+00,3.557e+00,1.551e+00,2.669e+00,3.111e+00,2.500e+00,2.718e+00,2.595e+00,5.179e+00,4.328e+00,4.042e+00,6.269e+00,6.092e+00,5.731e+00,5.191e+00,6.267e+00,5.485e+00,7.480e+00,7.551e+00,6.859e+00,6.176e+00,9.016e+00,8.196e+00,7.083e+00,9.072e+00,1.010e+01,6.748e+00,9.389e+00,8.442e+00,9.773e+00,1.075e+01,9.364e+00,1.053e+01,9.546e+00,1.176e+01,1.144e+01,1.267e+01,1.090e+01,1.107e+01,1.247e+01,1.527e+01,1.457e+01,1.181e+01,1.450e+01,1.212e+01,1.275e+01,1.441e+01,1.097e+01,1.406e+01,1.318e+01,1.505e+01,1.668e+01,1.409e+01,1.413e+01,1.417e+01,1.487e+01,1.497e+01,1.503e+01,1.276e+01,1.362e+01,1.660e+01,1.456e+01,1.296e+01,1.543e+01,1.271e+01,1.549e+01,1.260e+01,1.554e+01,1.464e+01,1.480e+01,1.430e+01,1.595e+01,1.320e+01,1.419e+01,1.476e+01,1.472e+01,1.370e+01,1.746e+01,1.494e+01,1.213e+01,1.454e+01,1.624e+01,1.467e+01,1.383e+01,1.493e+01,1.495e+01,1.426e+01,1.424e+01,1.613e+01,1.462e+01
7.609e-01,2.010e-01,1.975e+00,1.639e+00,2.082e+00,2.715e+00,3.369e+00,2.143e+00,4.656e+00,2.335e+00,3.425e+00,4.371e+00,3.854e+00,4.078e+00,3.952e+00,5.534e+00,5.171e+00,5.072e+00,6.603e+00,7.085e+00,6.095e+00,5.491e+00,5.928e+00,5.421e+00,7.165e+00,6.564e+00,7.141e+00,5.536e+00,8.564e+00,8.242e+00,7.012e+00,1.027e+01,1.068e+01,7.498e+00,1.080e+01,9.528e+00,8.692e+00,1.085e+01,1.033e+01,1.006e+01,9.886e+00,1.096e+01,1.183e+01,1.334e+01,1.036e+01,1.269e+01,1.115e+01,1.350e+01,1.348e+01,1.234e+01,1.417e+01,1.382e+01,1.321e+01,1.497e+01,1.262e+01,1.421e+01,1.500e+01,1.463e+01,1.641e+01,1.547e+01,1.340e+01,1.344e+01,1.473e+01,1.318e+01,1.458e+01,1.294e+01,1.350e+01,1.530e+01,1.528e+01,1.519e+01,1.465e+01,1.285e+01,1.526e+01,1.363e+01,1.565e+01,1.678e+01,1.549e+01,1.377e+01,1.533e+01,1.551e+01,1.429e+01,1.453e+01,1.325e+01,1.510e+01,1.817e+01,1.516e+01,1.158e+01,1.414e+01,1.595e+01,1.430e+01,1.566e+01,1.420e+01,1.426e+01,1.410e+01,1.534e+01,1.594e+01,1.478e+01
7.603e-01,2.059e-01,1.663e+00,9.891e-01,1.468e+00,1.827e+00,2.747e+00,1.361e+00,3.295e+00,1.824e+00,2.707e+00,2.901e+00,3.094e+00,3.092e+00,3.000e+00,5.326e+00,4.136e+00,3.562e+00,5.792e+00,5.863e+00,5.283e+00,4.633e+00,5.329e+00,4.870e+00,7.711e+00,6.358e+00,6.073e+00,5.625e+00,7.899e+00,7.259e+00,5.968e+00,9.106e+00,9.314e+00,6.204e+00,7.783e+00,7.664e+00,8.214e+00,9.046e+00,8.910e+00,9.821e+00,8.124e+00,8.167e+00,9.748e+00,1.137e+01,8.883e+00,9.581e+00,8.502e+00,1.011e+01,1.155e+01,9.698e+00,1.197e+01,1.130e+01,1.104e+01,1.355e+01,1.097e+01,1.221e+01,1.260e+01,1.257e+01,1.495e+01,1.359e+01,1.255e+01,1.286e+01,1.347e+01,1.196e+01,1.429e+01,1.082e+01,1.310e+01,1.435e+01,1.345e+01,1.413e+01,1.346e+01,1.227e+01,1.284e+01,1.202e+01,1.481e+01,1.428e+01,1.409e+01,1.170e+01,1.476e+01,1.384e+01,1.300e+01,1.365e+01,1.312e+01,1.380e+01,1.793e+01,1.414e+01,9.718e+00,1.376e+01,1.503e+01,1.279e+01,1.235e+01,1.327e+01,1.465e+01,1.323e+01,1.613e+01,1.367e+01,1.365e+01
7.011e-02,2.729e-02,7.375e-01,3.988e-01,3.208e-01,1.002e+00,1.554e+00,1.347e+00,2.753e+00,1.797e+00,2.198e+00,2.527e+00,2.185e+00,2.223e+00,3.066e+00,4.736e+00,4.262e+00,3.265e+00,5.880e+00,6.104e+00,4.493e+00,4.665e+00,7.040e+00,6.058e+00,7.437e+00,6.370e+00,5.975e+00,6.107e+00,9.015e+00,7.347e+00,6.459e+00,9.575e+00,9.791e+00,6.211e+00,8.248e+00,7.645e+00,7.769e+00,8.794e+00,8.603e+00,8.879e+00,9.049e+00,9.692e+00,9.138e+00,1.115e+01,1.004e+01,1.088e+01,1.021e+01,1.275e+01,1.356e+01,1.019e+01,1.122e+01,1.040e+01,1.289e+01,1.208e+01,1.061e+01,1.379e+01,1.201e+01,1.276e+01,1.502e+01,1.330e+01,1.372e+01,1.250e+01,1.362e+01,1.200e+01,1.406e+01,1.035e+01,1.392e+01,1.410e+01,1.214e+01,1.364e+01,1.298e+01,1.295e+01,1.336e+01,1.316e+01,1.416e+01,1.418e+01,1.426e+01,1.366e+01,1.491e+01,1.383e+01,1.227e+01,1.293e+01,1.382e+01,1.334e+01,1.783e+01,1.349e+01,1.060e+01,1.336e+01,1.442e+01,1.280e+01,1.248e+01,1.261e+01,1.334e+01,1.210e+01,1.461e+01,1.527e+01,1.462e+01
2.498e-01,6.945e-02,6.248e-01,9.594e-01,1.239e+00,1.455e+00,1.487e+00,1.311e+00,3.471e+00,2.037e+00,2.543e+00,3.653e+00,2.254e+00,3.363e+00,3.320e+00,4.417e+00,4.462e+00,4.576e+00,5.752e+00,6.310e+00,5.572e+00,5.523e+00,6.207e+00,5.391e+00,7.215e+00,6.789e+00,6.664e+00,6.250e+00,8.020e+00,7.199e+00,7.238e+00,9.804e+00,9.475e+00,6.907e+00,9.624e+00,8.317e+00,9.279e+00,9.366e+00,8.809e+00,9.179e+00,8.403e+00,1.009e+01,1.061e+01,1.147e+01,9.835e+00,1.197e+01,9.329e+00,1.350e+01,1.227e+01,1.069e+01,1.171e+01,1.105e+01,1.309e+01,1.256e+01,1.113e+01,1.383e+01,1.316e+01,1.209e+01,1.561e+01,1.427e+01,1.291e+01,1.380e+01,1.477e+01,1.319e+01,1.391e+01,1.342e+01,1.450e+01,1.537e+01,1.441e+01,1.335e+01,1.319e+01,1.233e+01,1.658e+01,1.312e+01,1.410e+01,1.615e+01,1.629e+01,1.575e+01,1.551e+01,1.357e+01,1.438e+01,1.390e+01,1.477e+01,1.461e+01,1.774e+01,1.463e+01,1.169e+01,1.389e+01,1.471e+01,1.396e+01,1.490e+01,1.481e+01,1.304e+01,1.249e+01,1.477e+01,1.414e+01,1.644e+01
8.232e-01,1.682e-01,1.516e+00,1.505e+00,1.770e+00,2.202e+00,2.784e+00,1.880e+00,4.080e+00,1.892e+00,2.984e+00,3.894e+00,3.152e+00,3.458e+00,3.301e+00,5.069e+00,4.587e+00,4.546e+00,5.970e+00,6.659e+00,5.396e+00,5.281e+00,6.574e+00,5.443e+00,7.771e+00,7.883e+00,8.232e+00,6.410e+00,8.965e+00,8.473e+00,7.094e+00,9.868e+00,9.540e+00,7.555e+00,9.610e+00,8.549e+00,8.771e+00,9.600e+00,9.060e+00,9.553e+00,9.144e+00,1.041e+01,1.084e+01,1.231e+01,1.076e+01,1.073e+01,1.027e+01,1.366e+01,1.184e+01,1.234e+01,1.307e+01,1.221e+01,1.246e+01,1.358e+01,1.189e+01,1.433e+01,1.343e+01,1.358e+01,1.656e+01,1.515e+01,1.503e+01,1.587e+01,1.568e+01,1.528e+01,1.706e+01,1.457e+01,1.497e+01,1.655e+01,1.717e+01,1.438e+01,1.504e+01,1.264e+01,1.755e+01,1.405e+01,1.670e+01,1.755e+01,1.597e+01,1.532e+01,1.704e+01,1.510e+01,1.642e+01,1.567e+01,1.539e+01,1.567e+01,1.847e+01,1.563e+01,1.296e+01,1.556e+01,1.710e+01,1.502e+01,1.471e+01,1.534e+01,1.652e+01,1.364e+01,1.559e+01,1.503e+01,1.724e+01
3.722e-01,1.127e-01,1.242e+00,9.617e-01,1.114e+00,1.523e+00,2.056e+00,1.607e+00,3.243e+00,1.850e+00,2.280e+00,3.090e+00,2.447e+00,2.353e+00,2.736e+00,4.427e+00,3.775e+00,3.442e+00,4.664e+00,5.181e+00,4.757e+00,4.428e+00,5.741e+00,5.009e+00,5.683e+00,4.929e+00,4.592e+00,4.362e+00,7.133e+00,6.637e+00,4.812e+00,7.701e+00,8.364e+00,4.944e+00,6.629e+00,6.030e+00,6.109e+00,7.981e+00,8.203e+00,7.882e+00,8.216e+00,8.940e+00,7.853e+00,9.770e+00,8.249e+00,9.358e+00,8.587e+00,1.068e+01,1.001e+01,1.012e+01,1.112e+01,9.442e+00,1.080e+01,1.119e+01,9.421e+00,1.168e+01,1.121e+01,1.142e+01,1.464e+01,1.112e+01,1.266e+01,1.385e+01,1.217e+01,1.339e+01,1.424e+01,1.232e+01,1.345e+01,1.334e+01,1.208e+01,1.393e+01,1.315e+01,1.188e+01,1.475e+01,1.276e+01,1.450e+01,1.572e+01,1.360e+01,1.348e+01,1.453e+01,1.260e+01,1.300e+01,1.398e+01,1.445e+01,1.315e+01,1.628e+01,1.318e+01,1.103e+01,1.303e+01,1.410e+01,1.361e+01,1.246e+01,1.232e+01,1.350e+01,1.264e+01,1.560e+01,1.389e+01,1.477e+01
7.211e-01,1.396e-01,1.601e+00,1.704e+00,2.066e+00,2.367e+00,3.357e+00,2.731e+00,4.170e+00,1.830e+00,2.499e+00,4.247e+00,2.928e+00,3.275e+00,2.975e+00,4.695e+00,3.992e+00,4.208e+00,5.526e+00,6.317e+00,4.161e+00,4.153e+00,6.045e+00,5.888e+00,6.297e+00,5.706e+00,6.800e+00,5.738e+00,8.573e+00,7.137e+00,6.899e+00,9.550e+00,9.876e+00,5.814e+00,8.934e+00,8.154e+00,7.969e+00,9.627e+00,8.586e+00,1.053e+01,9.173e+00,1.163e+01,1.106e+01,1.291e+01,9.612e+00,1.203e+01,1.148e+01,1.350e+01,1.266e+01,1.165e+01,1.487e+01,1.229e+01,1.260e+01,1.462e+01,1.162e+01,1.460e+01,1.369e+01,1.438e+01,1.672e+01,1.506e+01,1.387e+01,1.402e+01,1.566e+01,1.527e+01,1.658e+01,1.364e+01,1.634e+01,1.601e+01,1.538e+01,1.628e+01,1.540e+01,1.362e+01,1.655e+01,1.491e+01,1.808e+01,1.806e+01,1.631e+01,1.482e+01,1.598e+01,1.561e+01,1.452e+01,1.543e+01,1.573e+01,1.701e+01,1.999e+01,1.675e+01,1.325e+01,1.553e+01,1.694e+01,1.523e+01,1.548e+01,1.503e+01,1.450e+01,1.463e+01,1.653e+01,1.822e+01,1.746e+01
5.453e-03,3.658e-02,1.155e+00,1.229e+00,1.286e+00,1.996e+00,1.749e+00,1.929e+00,3.647e+00,2.101e+00,2.556e+00,3.813e+00,2.691e+00,3.497e+00,4.108e+00,5.510e+00,4.612e+00,4.336e+00,7.110e+00,8.159e+00,6.236e+00,6.183e+00,8.102e+00,6.240e+00,8.981e+00,7.516e+00,7.384e+00,6.407e+00,1.021e+01,9.454e+00,8.499e+00,1.189e+01,1.117e+01,7.349e+00,1.120e+01,8.032e+00,9.808e+00,1.157e+01,1.037e+01,1.039e+01,1.213e+01,1.253e+01,1.228e+01,1.466e+01,1.158e+01,1.320e+01,1.235e+01,1.532e+01,1.468e+01,1.275e+01,1.489e+01,1.358e+01,1.566e+01,1.680e+01,1.430e+01,1.716e+01,1.603e+01,1.432e+01,1.891e+01,1.719e+01,1.708e+01,1.747e+01,1.747e+01,1.659e+01,1.945e+01,1.578e+01,1.812e+01,1.952e+01,1.808e+01,1.774e+01,1.833e+01,1.545e+01,1.978e+01,1.805e+01,2.013e+01,1.967e+01,1.895e+01,1.855e+01,2.060e+01,1.827e+01,1.879e+01,1.757e+01,1.907e+01,1.802e+01,2.219e+01,1.950e+01,1.369e+01,2.075e+01,2.166e+01,1.820e+01,1.807e+01,1.788e+01,1.875e+01,1.614e+01,2.028e+01,1.975e+01,1.956e+01
2.541e-01,1.048e-01,1.218e+00,1.000e+00,8.896e-01,1.448e+00,1.973e+00,1.539e+00,3.068e+00,2.189e+00,2.368e+00,3.099e+00,2.932e+00,3.379e+00,3.591e+00,5.364e+00,4.359e+00,4.191e+00,6.094e+00,6.613e+00,5.328e+00,5.174e+00,6.290e+00,5.629e+00,7.633e+00,6.670e+00,7.069e+00,6.643e+00,9.145e+00,8.044e+00,7.365e+00,1.079e+01,1.038e+01,8.557e+00,1.025e+01,9.217e+00,1.039e+01,1.090e+01,9.981e+00,9.800e+00,9.331e+00,1.147e+01,1.196e+01,1.393e+01,1.048e+01,1.256e+01,1.139e+01,1.429e+01,1.392e+01,1.095e+01,1.361e+01,1.176e+01,1.360e+01,1.381e+01,1.192e+01,1.370e+01,1.327e+01,1.451e+01,1.663e+01,1.430e+01,1.309e+01,1.457e+01,1.402e+01,1.568e+01,1.724e+01,1.415e+01,1.564e+01,1.603e+01,1.360e+01,1.631e+01,1.509e+01,1.439e+01,1.531e+01,1.500e+01,1.688e+01,1.691e+01,1.748e+01,1.438e+01,1.927e+01,1.664e+01,1.552e+01,1.672e+01,1.625e+01,1.664e+01,1.805e+01,1.633e+01,1.211e+01,1.407e+01,1.829e+01,1.617e+01,1.562e+01,1.566e+01,1.602e+01,1.540e+01,1.706e+01,1.655e+01,1.714e+01
4.351e-01,1.403e-01,9.335e-01,1.048e+00,1.643e+00,1.784e+00,2.386e+00,1.333e+00,3.974e+00,1.833e+00,2.751e+00,4.047e+00,2.765e+00,3.603e+00,3.568e+00,5.588e+00,4.811e+00,4.153e+00,6.926e+00,6.996e+00,5.569e+00,4.825e+00,5.351e+00,5.033e+00,7.553e+00,6.781e+00,5.969e+00,5.497e+00,7.842e+00,7.740e+00,6.846e+00,8.615e+00,8.664e+00,6.301e+00,8.971e+00,7.300e+00,8.523e+00,9.980e+00,8.677e+00,9.690e+00,9.331e+00,9.750e+00,1.041e+01,1.146e+01,1.001e+01,1.049e+01,9.964e+00,1.271e+01,1.299e+01,1.073e+01,1.296e+01,1.190e+01,1.252e+01,1.392e+01,1.221e+01,1.325e+01,1.258e+01,1.214e+01,1.527e+01,1.418e+01,1.329e+01,1.305e+01,1.485e+01,1.372e+01,1.483e+01,1.333e+01,1.478e+01,1.690e+01,1.683e+01,1.357e+01,1.543e+01,1.441e+01,1.741e+01,1.313e+01,1.591e+01,1.648e+01,1.710e+01,1.571e+01,1.765e+01,1.486e+01,1.660e+01,1.548e+01,1.581e+01,1.538e+01,1.966e+01,1.607e+01,1.285e+01,1.614e+01,1.636e+01,1.595e+01,1.508e+01,1.655e+01,1.625e+01,1.457e+01,1.587e+01,1.613e+01,1.611e+01
1.504e-01,1.515e-01,1.706e+00,8.270e-01,1.058e+00,2.141e+00,3.024e+00,1.717e+00,4.072e+00,2.180e+00,3.020e+00,3.931e+00,2.098e+00,3.239e+00,2.990e+00,4.323e+00,4.027e+00,3.990e+00,5.109e+00,5.353e+00,4.732e+00,4.518e+00,6.528e+00,5.179e+00,7.122e+00,6.521e+00,5.604e+00,5.100e+00,7.687e+00,7.778e+00,6.161e+00,9.425e+00,8.928e+00,6.745e+00,8.496e+00,7.383e+00,8.131e+00,8.725e+00,8.171e+00,8.899e+00,8.441e+00,1.002e+01,9.696e+00,1.063e+01,1.052e+01,1.013e+01,1.046e+01,1.273e+01,1.254e+01,1.023e+01,1.212e+01,9.632e+00,1.290e+01,1.361e+01,1.056e+01,1.437e+01,1.220e+01,1.178e+01,1.540e+01,1.415e+01,1.431e+01,1.422e+01,1.585e+01,1.412e+01,1.592e+01,1.353e+01,1.380e+01,1.658e+01,1.482e+01,1.570e+01,1.591e+01,1.430e+01,1.633e+01,1.496e+01,1.508e+01,1.808e+01,1.591e+01,1.576e+01,1.838e+01,1.482e+01,1.562e+01,1.678e+01,1.576e+01,1.469e+01,1.999e+01,1.730e+01,1.300e+01,1.622e+01,1.736e+01,1.577e+01,1.464e+01,1.549e+01,1.657e+01,1.352e+01,1.773e+01,1.719e+01,1.753e+01
7.941e-01,2.091e-01,1.872e+00,1.161e+00,9.905e-01,1.936e+00,3.179e+00,1.824e+00,4.303e+00,2.064e+00,3.302e+00,3.603e+00,2.568e+00,2.775e+00,3.131e+00,5.530e+00,5.000e+00,4.776e+00,6.684e+00,7.082e+00,5.038e+00,4.516e+00,6.978e+00,5.420e+00,7.658e+00,7.360e+00,7.119e+00,5.809e+00,9.069e+00,9.075e+00,6.712e+00,9.821e+00,1.034e+01,7.661e+00,1.079e+01,8.848e+00,9.628e+00,1.076e+01,9.715e+00,1.072e+01,1.018e+01,1.158e+01,1.141e+01,1.406e+01,1.230e+01,1.183e+01,1.090e+01,1.432e+01,1.381e+01,1.327e+01,1.446e+01,1.251e+01,1.370e+01,1.364e+01,1.239e+01,1.448e+01,1.444e+01,1.426e+01,1.603e+01,1.418e+01,1.414e+01,1.597e+01,1.502e+01,1.612e+01,1.868e+01,1.488e+01,1.782e+01,1.794e+01,1.854e+01,1.735e+01,1.837e+01,1.542e+01,1.831e+01,1.655e+01,1.787e+01,1.972e+01,1.745e+01,1.769e+01,1.969e+01,1.732e+01,1.742e+01,1.846e+01,1.746e+01,1.844e+01,2.212e+01,1.854e+01,1.583e+01,1.670e+01,1.971e+01,1.807e+01,1.694e+01,1.770e+01,1.772e+01,1.706e+01,1.845e+01,1.829e+01,1.947e+01
8.614e-01,2.045e-01,1.723e+00,1.375e+00,1.348e+00,1.858e+00,2.893e+00,2.021e+00,3.423e+00,1.941e+00,2.647e+00,3.320e+00,3.271e+00,3.582e+00,3.130e+00,5.425e+00,4.466e+00,5.038e+00,6.827e+00,7.349e+00,5.305e+00,4.733e+00,6.899e+00,5.687e+00,8.292e+00,8.146e+00,8.370e+00,6.712e+00,9.124e+00,8.586e+00,8.025e+00,1.063e+01,1.094e+01,8.488e+00,1.085e+01,9.630e+00,1.034e+01,1.235e+01,1.094e+01,1.208e+01,1.117e+01,1.220e+01,1.265e+01,1.532e+01,1.230e+01,1.315e+01,1.254e+01,1.546e+01,1.408e+01,1.315e+01,1.502e+01,1.341e+01,1.433e+01,1.645e+01,1.271e+01,1.594e+01,1.609e+01,1.566e+01,1.715e+01,1.620e+01,1.519e+01,1.568e+01,1.672e+01,1.668e+01,1.912e+01,1.523e+01,1.790e+01,1.877e+01,1.890e+01,2.033e+01,1.796e+01,1.830e+01,1.926e+01,1.757e+01,1.960e+01,2.099e+01,2.106e+01,1.978e+01,2.126e+01,2.168e+01,1.915e+01,1.996e+01,1.936e+01,1.965e+01,2.324e+01,1.973e+01,1.448e+01,1.911e+01,2.172e+01,1.961e+01,2.018e+01,1.762e+01,1.769e+01,1.842e+01,2.115e+01,1.938e+01,2.281e+01
5.585e-01,1.761e-01,1.468e+00,1.351e+00,1.737e+00,2.083e+00,3.203e+00,1.857e+00,4.590e+00,2.228e+00,3.065e+00,3.821e+00,2.668e+00,3.237e+00,3.172e+00,5.592e+00,4.624e+00,3.994e+00,6.102e+00,5.656e+00,5.631e+00,4.666e+00,5.670e+00,5.211e+00,6.613e+00,5.608e+00,4.974e+00,4.208e+00,7.666e+00,6.849e+00,5.418e+00,8.285e+00,9.157e+00,5.880e+00,8.342e+00,7.133e+00,8.685e+00,9.338e+00,8.450e+00,9.399e+00,8.558e+00,1.083e+01,1.061e+01,1.134e+01,1.012e+01,1.124e+01,1.168e+01,1.323e+01,1.409e+01,1.073e+01,1.436e+01,1.182e+01,1.186e+01,1.485e+01,1.046e+01,1.368e+01,1.342e+01,1.431e+01,1.695e+01,1.366e+01,1.493e+01,1.511e+01,1.489e+01,1.504e+01,1.699e+01,1.551e+01,1.522e+01,1.724e+01,1.592e+01,1.803e+01,1.694e+01,1.651e+01,1.862e+01,1.678e+01,1.865e+01,1.816e+01,1.784e+01,1.706e+01,2.134e+01,1.683e+01,1.795e+01,1.739e+01,1.830e+01,1.856e+01,2.141e+01,1.916e+01,1.488e+01,1.701e+01,1.956e+01,1.872e+01,1.610e+01,1.795e+01,1.778e+01,1.563e+01,1.966e+01,1.841e+01,1.954e+01
8.804e-01,2.418e-01,1.888e+00,1.244e+00,9.948e-01,1.848e+00,3.228e+00,1.641e+00,3.694e+00,1.743e+00,2.778e+00,3.231e+00,2.014e+00,2.635e+00,2.124e+00,5.175e+00,4.110e+00,3.745e+00,5.827e+00,5.436e+00,4.289e+00,4.105e+00,5.625e+00,5.021e+00,7.383e+00,6.286e+00,5.876e+00,5.085e+00,8.177e+00,7.473e+00,6.641e+00,8.473e+00,8.903e+00,6.269e+00,8.668e+00,7.790e+00,9.361e+00,8.757e+00,9.339e+00,9.844e+00,8.894e+00,1.046e+01,9.911e+00,1.140e+01,9.473e+00,1.085e+01,1.041e+01,1.200e+01,1.323e+01,1.079e+01,1.488e+01,1.195e+01,1.319e+01,1.399e+01,1.210e+01,1.366e+01,1.330e+01,1.201e+01,1.509e+01,1.367e+01,1.222e+01,1.381e+01,1.462e+01,1.356e+01,1.741e+01,1.441e+01,1.646e+01,1.573e+01,1.744e+01,1.712e+01,1.749e+01,1.550e+01,1.725e+01,1.542e+01,1.685e+01,1.844e+01,1.745e+01,1.744e+01,2.065e+01,1.700e+01,1.827e+01,1.692e+01,1.835e+01,1.877e+01,2.068e+01,1.868e+01,1.409e+01,1.841e+01,1.697e+01,1.684e+01,1.656e+01,1.636e+01,1.896e+01,1.568e+01,1.952e+01,1.723e+01,2.002e+01
1.108e-01,1.219e-01,1.644e+00,7.528e-01,1.249e+00,2.045e+00,2.662e+00,1.720e+00,3.282e+00,2.256e+00,2.661e+00,3.191e+00,2.913e+00,3.373e+00,3.012e+00,4.551e+00,3.831e+00,4.261e+00,5.916e+00,6.232e+00,5.012e+00,4.936e+00,5.457e+00,5.046e+00,7.278e+00,5.868e+00,6.659e+00,5.970e+00,7.290e+00,7.614e+00,6.428e+00,9.412e+00,8.904e+00,7.560e+00,7.667e+00,7.998e+00,7.680e+00,9.115e+00,8.068e+00,9.149e+00,8.787e+00,9.961e+00,1.019e+01,1.285e+01,1.048e+01,1.058e+01,1.087e+01,1.326e+01,1.300e+01,1.022e+01,1.210e+01,1.120e+01,1.290e+01,1.424e+01,1.140e+01,1.415e+01,1.305e+01,1.281e+01,1.545e+01,1.292e+01,1.337e+01,1.306e+01,1.546e+01,1.394e+01,1.715e+01,1.369e+01,1.543e+01,1.572e+01,1.668e+01,1.774e+01,1.657e+01,1.558e+01,1.644e+01,1.669e+01,1.829e+01,1.942e+01,1.808e+01,1.671e+01,1.967e+01,1.793e+01,1.814e+01,1.900e+01,1.834e+01,1.901e+01,2.119e+01,1.748e+01,1.324e+01,1.674e+01,1.825e+01,1.705e+01,1.663e+01,1.630e+01,1.686e+01,1.604e+01,1.877e+01,1.866e+01,1.877e+01
5.133e-01,9.287e-02,1.289e+00,1.548e+00,1.765e+00,2.260e+00,2.790e+00,2.529e+00,4.689e+00,2.192e+00,3.053e+00,4.723e+00,3.198e+00,3.432e+00,3.622e+00,5.487e+00,4.995e+00,4.033e+00,6.488e+00,7.029e+00,5.235e+00,4.989e+00,6.938e+00,6.189e+00,6.892e+00,6.486e+00,5.839e+00,5.131e+00,9.092e+00,7.699e+00,6.975e+00,9.526e+00,1.035e+01,6.299e+00,9.549e+00,8.543e+00,7.926e+00,1.018e+01,9.674e+00,1.104e+01,1.062e+01,1.179e+01,1.142e+01,1.240e+01,1.120e+01,1.229e+01,1.105e+01,1.400e+01,1.363e+01,1.198e+01,1.355e+01,1.280e+01,1.292e+01,1.419e+01,1.236e+01,1.443e+01,1.349e+01,1.537e+01,1.784e+01,1.560e+01,1.563e+01,1.610e+01,1.645e+01,1.506e+01,1.938e+01,1.582e+01,1.782e+01,1.887e+01,1.834e+01,1.974e+01,1.871e+01,1.683e+01,2.002e+01,1.810e+01,1.888e+01,2.249e+01,1.996e+01,1.988e+01,2.068e+01,1.933e+01,1.967e+01,1.960e+01,1.946e+01,2.011e+01,2.202e+01,2.033e+01,1.629e+01,1.807e+01,2.005e+01,1.868e+01,1.854e+01,1.993e+01,1.838e+01,1.750e+01,2.166e+01,2.141e+01,2.174e+01
6.128e-01,1.405e-01,1.567e+00,1.568e+00,1.384e+00,1.998e+00,1.971e+00,2.035e+00,3.579e+00,1.897e+00,2.554e+00,3.368e+00,2.126e+00,2.601e+00,2.456e+00,4.226e+00,4.095e+00,4.255e+00,5.574e+00,5.607e+00,5.223e+00,4.701e+00,6.223e+00,5.307e+00,6.369e+00,6.575e+00,6.045e+00,4.511e+00,7.768e+00,6.406e+00,6.199e+00,8.342e+00,9.192e+00,6.027e+00,7.779e+00,6.808e+00,7.344e+00,8.791e+00,8.088e+00,7.225e+00,8.152e+00,8.927e+00,8.739e+00,9.789e+00,9.084e+00,9.908e+00,9.945e+00,1.295e+01,1.151e+01,1.045e+01,1.176e+01,1.148e+01,1.248e+01,1.325e+01,1.103e+01,1.397e+01,1.302e+01,1.192e+01,1.511e+01,1.302e+01,1.269e+01,1.430e+01,1.393e+01,1.342e+01,1.613e+01,1.371e+01,1.485e+01,1.583e+01,1.646e+01,1.591e+01,1.669e+01,1.623e+01,1.820e+01,1.727e+01,1.764e+01,1.941e+01,1.777e+01,1.983e+01,1.934e+01,1.966e+01,1.943e+01,1.819e+01,1.873e+01,1.898e+01,2.045e+01,1.808e+01,1.380e+01,1.798e+01,1.914e+01,1.798e+01,1.729e+01,1.823e+01,1.734e+01,1.641e+01,1.961e+01,1.939e+01,1.898e+01
1.291e-01,7.348e-02,1.369e+00,1.007e+00,1.381e+00,2.153e+00,2.614e+00,2.204e+00,4.274e+00,2.542e+00,3.136e+00,4.093e+00,2.740e+00,3.331e+00,3.164e+00,4.925e+00,4.709e+00,5.101e+00,7.110e+00,7.405e+00,5.906e+00,6.025e+00,7.571e+00,6.471e+00,8.096e+00,7.250e+00,7.495e+00,6.469e+00,8.157e+00,8.556e+00,7.988e+00,1.059e+01,1.135e+01,7.759e+00,9.806e+00,9.174e+00,9.193e+00,1.128e+01,9.970e+00,1.033e+01,1.024e+01,1.205e+01,1.161e+01,1.330e+01,1.191e+01,1.249e+01,1.090e+01,1.401e+01,1.325e+01,1.176e+01,1.361e+01,1.251e+01,1.459e+01,1.478e+01,1.269e+01,1.510e+01,1.449e+01,1.376e+01,1.762e+01,1.533e+01,1.499e+01,1.541e+01,1.771e+01,1.601e+01,1.758e+01,1.558e+01,1.695e+01,1.783e+01,1.811e+01,1.930e+01,1.942e+01,1.827e+01,2.020e+01,1.871e+01,1.968e+01,2.288e+01,2.045e+01,2.192e+01,2.289e+01,2.209e+01,2.160e+01,2.075e+01,2.131e+01,2.117e+01,2.462e+01,2.006e+01,1.665e+01,1.953e+01,2.165e+01,2.033e+01,2.051e+01,1.951e+01,1.913e+01,1.889e+01,2.290e+01,2.191e+01,2.211e+01
7.799e-01,1.757e-01,1.875e+00,1.428e+00,1.006e+00,1.855e+00,2.333e+00,1.968e+00,2.956e+00,1.779e+00,2.397e+00,3.253e+00,2.576e+00,2.984e+00,2.535e+00,5.081e+00,3.945e+00,4.511e+00,5.681e+00,6.208e+00,5.118e+00,5.169e+00,5.659e+00,5.400e+00,7.513e+00,6.472e+00,7.093e+00,6.136e+00,8.926e+00,7.909e+00,7.613e+00,9.656e+00,9.664e+00,7.471e+00,7.782e+00,7.330e+00,8.320e+00,8.472e+00,9.278e+00,9.231e+00,1.001e+01,1.071e+01,9.456e+00,1.243e+01,9.238e+00,1.131e+01,1.005e+01,1.362e+01,1.247e+01,1.202e+01,1.306e+01,1.101e+01,1.328e+01,1.510e+01,1.180e+01,1.562e+01,1.420e+01,1.486e+01,1.575e+01,1.429e+01,1.426e+01,1.589e+01,1.596e+01,1.477e+01,1.946e+01,1.526e+01,1.762e+01,1.675e+01,1.775e+01,1.883e+01,1.915e+01,1.777e+01,1.819e+01,1.817e+01,1.868e+01,2.370e+01,2.070e+01,2.098e+01,2.318e+01,2.177e+01,2.179e+01,2.183e+01,2.066e+01,2.112e+01,2.344e+01,2.125e+01,1.680e+01,2.003e+01,2.075e+01,1.980e+01,1.997e+01,1.985e+01,1.908e+01,1.906e+01,2.358e+01,2.128e+01,2.364e+01
3.165e-02,1.074e-02,5.292e-01,7.871e-01,1.369e+00,1.386e+00,2.014e+00,1.737e+00,3.213e+00,1.860e+00,1.983e+00,3.191e+00,2.619e+00,3.019e+00,3.736e+00,4.436e+00,4.219e+00,4.500e+00,5.391e+00,6.199e+00,4.663e+00,4.819e+00,6.139e+00,5.703e+00,6.933e+00,6.129e+00,7.469e+00,6.362e+00,8.115e+00,7.616e+00,6.800e+00,1.052e+01,1.007e+01,7.859e+00,9.812e+00,9.119e+00,9.151e+00,1.064e+01,8.939e+00,1.003e+01,9.973e+00,1.174e+01,1.218e+01,1.488e+01,1.146e+01,1.340e+01,1.165e+01,1.503e+01,1.315e+01,1.163e+01,1.326e+01,1.307e+01,1.331e+01,1.472e+01,1.329e+01,1.444e+01,1.376e+01,1.409e+01,1.778e+01,1.489e+01,1.422e+01,1.469e+01,1.624e+01,1.514e+01,1.777e+01,1.538e+01,1.707e+01,1.772e+01,1.660e+01,1.868e+01,1.837e+01,1.645e+01,1.929e+01,1.674e+01,2.075e+01,2.163e+01,1.966e+01,1.998e+01,2.179e+01,2.147e+01,1.874e+01,2.163e+01,1.839e+01,2.116e+01,2.345e+01,2.094e+01,1.591e+01,1.737e+01,2.318e+01,2.070e+01,2.025e+01,1.969e+01,1.890e+01,1.816e+01,2.269e+01,2.082e+01,2.136e+01
1.926e-01,4.438e-02,4.355e-01,7.540e-01,1.195e+00,1.199e+00,2.038e+00,1.517e+00,3.270e+00,1.558e+00,2.035e+00,3.014e+00,2.080e+00,2.793e+00,3.363e+00,5.014e+00,4.519e+00,4.724e+00,6.424e+00,6.292e+00,5.058e+00,4.615e+00,6.089e+00,5.846e+00,7.838e+00,7.397e+00,7.270e+00,5.794e+00,8.512e+00,7.654e+00,6.861e+00,9.736e+00,1.011e+01,7.911e+00,9.450e+00,8.352e+00,9.411e+00,1.069e+01,8.511e+00,1.019e+01,1.001e+01,1.192e+01,1.196e+01,1.404e+01,1.118e+01,1.214e+01,1.138e+01,1.488e+01,1.414e+01,1.186e+01,1.386e+01,1.265e+01,1.408e+01,1.406e+01,1.203e+01,1.484e+01,1.263e+01,1.359e+01,1.658e+01,1.468e+01,1.437e+01,1.491e+01,1.663e+01,1.544e+01,1.737e+01,1.620e+01,1.658e+01,1.899e+01,1.826e+01,1.680e+01,1.771e+01,1.742e+01,1.980e+01,1.755e+01,1.897e+01,2.134e+01,2.011e+01,2.155e+01,2.235e+01,2.127e+01,2.218e+01,2.102e+01,2.050e+01,2.062e+01,2.573e+01,2.144e+01,1.721e+01,2.063e+01,2.101e+01,2.107e+01,1.927e+01,2.098e+01,2.056e+01,1.949e+01,2.303e+01,2.049e+01,2.240e+01
1.461e-01,3.160e-02,9.723e-01,1.280e+00,1.579e+00,1.843e+00,1.495e+00,1.893e+00,3.163e+00,1.889e+00,2.130e+00,3.272e+00,2.347e+00,3.130e+00,3.561e+00,4.929e+00,4.074e+00,4.705e+00,6.034e+00,6.881e+00,5.202e+00,5.045e+00,5.730e+00,5.230e+00,7.057e+00,5.824e+00,6.789e+00,6.328e+00,8.291e+00,7.443e+00,6.599e+00,9.074e+00,8.877e+00,6.756e+00,8.530e+00,7.643e+00,7.311e+00,1.007e+01,9.308e+00,1.022e+01,1.065e+01,1.117e+01,1.062e+01,1.364e+01,1.059e+01,1.217e+01,1.017e+01,1.387e+01,1.297e+01,1.233e+01,1.339e+01,1.242e+01,1.431e+01,1.504e+01,1.302e+01,1.491e+01,1.386e+01,1.415e+01,1.703e+01,1.556e+01,1.318e+01,1.583e+01,1.668e+01,1.530e+01,1.758e+01,1.615e+01,1.838e+01,1.774e+01,1.735e+01,1.779e+01,1.962e+01,1.795e+01,1.981e+01,1.797e+01,2.014e+01,2.282e+01,1.964e+01,2.220e+01,2.321e+01,2.269e+01,2.202e+01,2.278e+01,1.978e+01,2.129e+01,2.577e+01,2.137e+01,1.788e+01,2.095e+01,2.224e+01,2.203e+01,2.050e+01,2.113e+01,2.026e+01,2.007e+01,2.407e+01,2.251e+01,2.385e+01
1.492e-01,9.725e-02,1.300e+00,6.332e-01,9.138e-01,1.676e+00,2.605e+00,1.685e+00,2.898e+00,1.564e+00,2.065e+00,3.208e+00,1.843e+00,2.729e+00,2.521e+00,4.496e+00,3.679e+00,4.556e+00,5.438e+00,5.522e+00,4.197e+00,4.720e+00,6.035e+00,6.039e+00,7.570e+00,6.444e+00,7.274e+00,7.204e+00,8.513e+00,8.497e+00,7.504e+00,1.043e+01,1.065e+01,7.478e+00,8.791e+00,8.869e+00,9.050e+00,9.408e+00,9.584e+00,9.794e+00,1.037e+01,1.294e+01,1.085e+01,1.401e+01,1.128e+01,1.271e+01,1.160e+01,1.384e+01,1.440e+01,1.146e+01,1.511e+01,1.163e+01,1.420e+01,1.407e+01,1.238e+01,1.480e+01,1.383e+01,1.488e+01,1.766e+01,1.538e+01,1.439e+01,1.671e+01,1.747e+01,1.564e+01,1.796e+01,1.578e+01,1.832e+01,1.749e+01,1.819e+01,1.902e+01,1.922e+01,1.722e+01,1.931e+01,1.928e+01,2.032e+01,2.352e+01,1.986e+01,2.042e+01,2.378e+01,2.218e+01,2.247e+01,2.203e+01,2.241e+01,2.072e+01,2.540e+01,2.184e+01,1.793e+01,2.102e+01,2.199e+01,2.125e+01,1.971e+01,2.054e+01,2.182e+01,2.046e+01,2.363e+01,2.196e+01,2.445e+01
6.738e-01,2.380e-01,1.815e+00,1.103e+00,1.160e+00,2.000e+00,3.309e+00,1.303e+00,3.693e+00,1.908e+00,2.959e+00,3.313e+00,3.216e+00,3.869e+00,3.515e+00,5.554e+00,4.559e+00,4.419e+00,6.207e+00,6.260e+00,6.039e+00,5.500e+00,6.807e+00,5.373e+00,7.882e+00,7.037e+00,6.270e+00,5.144e+00,8.295e+00,7.530e+00,6.567e+00,1.014e+01,1.009e+01,6.575e+00,1.014e+01,8.869e+00,9.869e+00,9.534e+00,9.862e+00,1.064e+01,9.224e+00,1.157e+01,1.101e+01,1.227e+01,1.082e+01,1.222e+01,1.149e+01,1.412e+01,1.387e+01,1.053e+01,1.397e+01,1.199e+01,1.300e+01,1.346e+01,1.162e+01,1.406e+01,1.365e+01,1.395e+01,1.541e+01,1.458e+01,1.348e+01,1.394e+01,1.512e+01,1.418e+01,1.727e+01,1.430e+01,1.613e+01,1.607e+01,1.668e+01,1.798e+01,1.622e+01,1.654e+01,1.748e+01,1.666e+01,1.835e+01,2.011e+01,1.955e+01,1.969e+01,2.258e+01,2.027e+01,2.004e+01,2.009e+01,2.061e+01,2.109e+01,2.251e+01,2.026e+01,1.648e+01,2.018e+01,2.137e+01,1.887e+01,1.950e+01,1.969e+01,2.013e+01,1.802e+01,2.131e+01,2.205e+01,2.337e+01
7.991e-01,1.919e-01,1.644e+00,1.058e+00,9.808e-01,1.712e+00,2.798e+00,1.611e+00,3.234e+00,1.748e+00,2.732e+00,3.208e+00,2.996e+00,3.444e+00,3.048e+00,5.022e+00,4.373e+00,4.600e+00,6.655e+00,7.185e+00,5.845e+00,5.822e+00,7.602e+00,6.162e+00,8.616e+00,8.319e+00,8.278e+00,6.950e+00,1.019e+01,9.174e+00,8.629e+00,1.221e+01,1.236e+01,8.502e+00,1.097e+01,1.040e+01,1.048e+01,1.133e+01,9.993e+00,1.241e+01,1.087e+01,1.310e+01,1.283e+01,1.557e+01,1.225e+01,1.435e+01,1.257e+01,1.649e+01,1.560e+01,1.331e+01,1.509e+01,1.451e+01,1.580e+01,1.715e+01,1.453e+01,1.759e+01,1.656e+01,1.625e+01,1.936e+01,1.643e+01,1.662e+01,1.615e+01,1.904e+01,1.607e+01,2.003e+01,1.656e+01,2.008e+01,2.087e+01,2.131e+01,2.161e+01,2.095e+01,1.985e+01,2.156e+01,2.017e+01,2.213e+01,2.436e+01,2.204e+01,2.385e+01,2.549e+01,2.404e+01,2.485e+01,2.338e+01,2.342e+01,2.392e+01,2.863e+01,2.612e+01,1.985e+01,2.195e+01,2.428e+01,2.395e+01,2.294e+01,2.304e+01,2.178e+01,2.238e+01,2.563e+01,2.675e+01,2.575e+01
9.630e-01,1.685e-01,1.623e+00,1.223e+00,1.234e+00,1.631e+00,2.454e+00,1.476e+00,2.756e+00,1.348e+00,2.274e+00,2.522e+00,2.603e+00,2.406e+00,2.167e+00,3.975e+00,3.179e+00,3.199e+00,4.775e+00,5.210e+00,4.639e+00,4.807e+00,4.789e+00,4.651e+00,6.284e+00,5.651e+00,6.723e+00,5.757e+00,7.472e+00,6.960e+00,6.515e+00,9.134e+00,9.463e+00,6.295e+00,8.345e+00,8.339e+00,8.160e+00,9.518e+00,8.298e+00,9.908e+00,9.029e+00,1.074e+01,1.062e+01,1.236e+01,8.989e+00,1.123e+01,9.164e+00,1.213e+01,1.187e+01,9.603e+00,1.250e+01,1.106e+01,1.193e+01,1.345e+01,1.222e+01,1.379e+01,1.293e+01,1.293e+01,1.529e+01,1.275e+01,1.084e+01,1.299e+01,1.491e+01,1.398e+01,1.685e+01,1.320e+01,1.642e+01,1.530e+01,1.533e+01,1.512e+01,1.625e+01,1.323e+01,1.541e+01,1.536e+01,1.707e+01,1.875e+01,1.793e+01,1.813e+01,2.110e+01,1.837e+01,1.870e+01,1.866e+01,1.920e+01,1.981e+01,2.328e+01,1.991e+01,1.601e+01,1.866e+01,1.985e+01,2.104e+01,1.830e+01,2.004e+01,1.933e+01,1.844e+01,2.102e+01,2.123e+01,2.041e+01
9.274e-01,2.403e-01,1.959e+00,1.740e+00,1.847e+00,2.276e+00,3.374e+00,2.309e+00,4.733e+00,2.584e+00,3.349e+00,4.766e+00,2.892e+00,3.933e+00,3.096e+00,5.971e+00,4.916e+00,5.764e+00,6.392e+00,6.850e+00,6.675e+00,6.439e+00,7.794e+00,6.931e+00,8.383e+00,8.252e+00,8.609e+00,7.640e+00,9.985e+00,9.637e+00,7.912e+00,1.098e+01,1.231e+01,9.095e+00,1.000e+01,9.860e+00,1.099e+01,1.174e+01,1.173e+01,1.219e+01,1.118e+01,1.338e+01,1.261e+01,1.396e+01,1.222e+01,1.341e+01,1.288e+01,1.630e+01,1.480e+01,1.338e+01,1.565e+01,1.309e+01,1.454e+01,1.590e+01,1.325e+01,1.539e+01,1.446e+01,1.584e+01,1.895e+01,1.640e+01,1.544e+01,1.693e+01,1.691e+01,1.643e+01,1.978e+01,1.549e+01,1.867e+01,1.977e+01,1.951e+01,1.906e+01,2.016e+01,1.844e+01,2.024e+01,1.813e+01,2.131e+01,2.471e+01,2.278e+01,2.207e+01,2.424e+01,2.328e+01,2.282e+01,2.251e+01,2.399e+01,2.264e+01,2.656e+01,2.252e+01,1.863e+01,2.094e+01,2.354e+01,2.337e+01,2.198e+01,2.202e+01,2.210e+01,2.273e+01,2.548e+01,2.427e+01,2.639e+01
9.208e-02,1.301e-01,1.034e+00,6.413e-01,9.799e-01,1.403e+00,2.037e+00,8.555e-01,3.139e+00,2.074e+00,2.419e+00,2.797e+00,2.539e+00,3.128e+00,3.052e+00,4.728e+00,3.744e+00,4.077e+00,5.358e+00,5.602e+00,5.070e+00,4.517e+00,6.072e+00,4.273e+00,7.205e+00,6.971e+00,6.309e+00,6.013e+00,7.422e+00,8.134e+00,6.416e+00,8.827e+00,9.057e+00,7.898e+00,9.942e+00,7.998e+00,8.609e+00,9.795e+00,8.916e+00,9.848e+00,8.735e+00,1.021e+01,1.045e+01,1.247e+01,1.077e+01,1.114e+01,1.127e+01,1.375e+01,1.327e+01,9.883e+00,1.295e+01,1.185e+01,1.351e+01,1.382e+01,1.007e+01,1.253e+01,1.232e+01,1.265e+01,1.566e+01,1.441e+01,1.346e+01,1.472e+01,1.457e+01,1.470e+01,1.667e+01,1.339e+01,1.483e+01,1.725e+01,1.582e+01,1.790e+01,1.679e+01,1.606e+01,1.771e+01,1.568e+01,1.852e+01,2.030e+01,1.834e+01,1.820e+01,2.142e+01,1.989e+01,1.933e+01,2.091e+01,1.819e+01,1.932e+01,2.280e+01,2.012e+01,1.687e+01,1.906e+01,2.148e+01,2.009e+01,1.992e+01,1.941e+01,1.895e+01,1.870e+01,2.090e+01,2.081e+01,2.131e+01
7.118e-01,1.722e-01,1.145e+00,1.120e+00,1.164e+00,1.384e+00,1.881e+00,1.330e+00,3.228e+00,2.094e+00,2.625e+00,3.605e+00,3.034e+00,3.779e+00,3.505e+00,5.569e+00,4.870e+00,5.527e+00,6.218e+00,6.941e+00,6.544e+00,5.962e+00,6.545e+00,5.627e+00,8.142e+00,7.761e+00,7.945e+00,6.976e+00,8.929e+00,8.426e+00,7.235e+00,9.725e+00,1.022e+01,8.692e+00,9.186e+00,8.379e+00,9.029e+00,9.725e+00,9.954e+00,1.045e+01,9.928e+00,1.056e+01,1.038e+01,1.322e+01,1.061e+01,1.216e+01,9.746e+00,1.394e+01,1.199e+01,1.099e+01,1.224e+01,1.260e+01,1.321e+01,1.526e+01,1.142e+01,1.367e+01,1.359e+01,1.305e+01,1.512e+01,1.463e+01,1.422e+01,1.628e+01,1.474e+01,1.410e+01,1.704e+01,1.425e+01,1.533e+01,1.758e+01,1.638e+01,1.817e+01,1.837e+01,1.829e+01,1.899e+01,1.786e+01,1.838e+01,2.188e+01,1.946e+01,2.084e+01,2.394e+01,2.280e+01,2.323e+01,2.099e+01,2.119e+01,2.191e+01,2.518e+01,2.276e+01,1.915e+01,2.156e+01,2.446e+01,2.334e+01,2.268e+01,2.126e+01,2.081e+01,2.110e+01,2.452e+01,2.252e+01,2.445e+01
4.178e-01,9.787e-02,5.898e-01,4.943e-01,1.040e+00,1.075e+00,2.145e+00,1.158e+00,2.774e+00,1.197e+00,1.958e+00,3.025e+00,2.569e+00,3.002e+00,3.281e+00,4.751e+00,4.013e+00,4.259e+00,5.670e+00,6.391e+00,5.002e+00,4.597e+00,6.833e+00,5.485e+00,7.877e+00,7.423e+00,7.347e+00,7.183e+00,9.261e+00,9.335e+00,7.540e+00,1.054e+01,1.067e+01,7.086e+00,1.017e+01,8.405e+00,9.895e+00,1.062e+01,1.045e+01,1.045e+01,1.063e+01,1.153e+01,1.115e+01,1.337e+01,1.063e+01,1.222e+01,1.050e+01,1.346e+01,1.310e+01,1.198e+01,1.445e+01,1.241e+01,1.257e+01,1.380e+01,1.216e+01,1.450e+01,1.377e+01,1.359e+01,1.616e+01,1.398e+01,1.369e+01,1.357e+01,1.398e+01,1.617e+01,1.677e+01,1.358e+01,1.617e+01,1.882e+01,1.751e+01,1.647e+01,1.841e+01,1.697e+01,1.860e+01,1.757e+01,1.963e+01,2.130e+01,1.871e+01,1.817e+01,2.184e+01,2.089e+01,1.997e+01,2.016e+01,1.963e+01,1.777e+01,2.351e+01,2.142e+01,1.759e+01,1.961e+01,2.059e+01,1.967e+01,2.025e+01,1.885e+01,2.126e+01,2.036e+01,2.332e+01,2.076e+01,2.289e+01
7.070e-01,1.538e-01,1.681e+00,1.627e+00,1.325e+00,2.050e+00,2.494e+00,1.803e+00,3.729e+00,1.927e+00,2.840e+00,3.047e+00,2.929e+00,3.156e+00,3.170e+00,5.648e+00,4.599e+00,4.356e+00,7.155e+00,6.702e+00,6.811e+00,6.173e+00,7.269e+00,5.950e+00,7.397e+00,7.228e+00,7.305e+00,5.822e+00,8.501e+00,8.326e+00,6.650e+00,9.894e+00,1.085e+01,7.804e+00,1.011e+01,9.349e+00,9.585e+00,1.130e+01,1.044e+01,1.120e+01,1.013e+01,1.182e+01,1.250e+01,1.275e+01,1.022e+01,1.281e+01,1.111e+01,1.340e+01,1.480e+01,1.181e+01,1.446e+01,1.319e+01,1.342e+01,1.589e+01,1.271e+01,1.451e+01,1.530e+01,1.505e+01,1.780e+01,1.559e+01,1.555e+01,1.539e+01,1.601e+01,1.523e+01,1.788e+01,1.615e+01,1.748e+01,1.818e+01,1.727e+01,1.828e+01,1.845e+01,1.803e+01,1.859e+01,1.710e+01,1.931e+01,1.935e+01,1.989e+01,1.969e+01,2.359e+01,2.073e+01,2.204e+01,1.903e+01,2.004e+01,2.071e+01,2.430e+01,2.192e+01,1.791e+01,2.010e+01,2.364e+01,2.271e+01,2.088e+01,2.052e+01,2.169e+01,2.126e+01,2.439e+01,2.293e+01,2.422e+01
2.609e-01,1.535e-01,1.311e+00,1.023e+00,1.217e+00,1.863e+00,2.089e+00,1.214e+00,3.063e+00,1.696e+00,2.342e+00,3.046e+00,2.171e+00,3.237e+00,2.557e+00,4.442e+00,3.594e+00,4.249e+00,5.981e+00,6.152e+00,5.665e+00,5.392e+00,7.184e+00,5.061e+00,7.494e+00,7.867e+00,7.413e+00,6.608e+00,8.416e+00,9.237e+00,7.882e+00,1.121e+01,1.095e+01,7.634e+00,1.000e+01,8.875e+00,1.028e+01,1.156e+01,1.011e+01,1.075e+01,9.915e+00,1.178e+01,1.222e+01,1.409e+01,1.114e+01,1.210e+01,1.167e+01,1.413e+01,1.386e+01,1.217e+01,1.254e+01,1.175e+01,1.503e+01,1.575e+01,1.314e+01,1.515e+01,1.436e+01,1.433e+01,1.861e+01,1.358e+01,1.486e+01,1.604e+01,1.667e+01,1.665e+01,1.732e+01,1.535e+01,1.838e+01,1.861e+01,1.794e+01,2.042e+01,1.904e+01,1.748e+01,1.944e+01,1.741e+01,1.869e+01,2.361e+01,2.052e+01,2.141e+01,2.163e+01,2.172e+01,2.388e+01,2.085e+01,2.239e+01,2.294e+01,2.781e+01,2.338e+01,1.988e+01,2.255e+01,2.622e+01,2.563e+01,2.448e+01,2.334e+01,2.178e+01,2.347e+01,2.740e+01,2.474e+01,2.709e+01
6.832e-01,1.672e-01,1.522e+00,1.025e+00,1.250e+00,1.638e+00,2.296e+00,1.325e+00,2.953e+00,1.868e+00,2.597e+00,3.137e+00,2.936e+00,3.595e+00,2.903e+00,4.518e+00,3.535e+00,4.141e+00,5.474e+00,6.019e+00,5.548e+00,5.191e+00,5.323e+00,4.925e+00,7.298e+00,6.971e+00,7.546e+00,6.987e+00,7.547e+00,7.965e+00,7.373e+00,9.903e+00,1.038e+01,7.932e+00,9.454e+00,8.740e+00,8.974e+00,1.085e+01,9.522e+00,9.388e+00,9.615e+00,1.120e+01,1.131e+01,1.278e+01,1.047e+01,1.244e+01,1.171e+01,1.436e+01,1.312e+01,1.095e+01,1.312e+01,1.110e+01,1.386e+01,1.404e+01,1.148e+01,1.470e+01,1.306e+01,1.303e+01,1.609e+01,1.429e+01,1.346e+01,1.564e+01,1.486e+01,1.587e+01,1.647e+01,1.354e+01,1.569e+01,1.786e+01,1.639e+01,1.723e+01,1.778e+01,1.744e+01,1.781e+01,1.751e+01,1.959e+01,2.020e+01,1.935e+01,1.842e+01,2.205e+01,2.059e+01,2.123e+01,2.021e+01,2.129e+01,2.112e+01,2.386e+01,1.997e+01,1.823e+01,2.113e+01,2.470e+01,2.374e+01,2.182e+01,2.164e+01,2.162e+01,2.197e+01,2.294e+01,2.302e+01,2.466e+01
7.912e-01,2.015e-01,1.319e+00,8.866e-01,1.293e+00,1.536e+00,2.892e+00,1.593e+00,4.112e+00,2.203e+00,3.153e+00,4.063e+00,2.746e+00,3.588e+00,3.518e+00,5.639e+00,5.273e+00,5.172e+00,6.553e+00,7.034e+00,6.148e+00,5.551e+00,6.841e+00,6.541e+00,8.494e+00,7.766e+00,7.564e+00,6.520e+00,9.860e+00,8.187e+00,7.437e+00,1.069e+01,1.187e+01,7.485e+00,9.992e+00,9.488e+00,1.070e+01,1.085e+01,9.715e+00,1.113e+01,9.283e+00,1.090e+01,1.171e+01,1.325e+01,1.135e+01,1.197e+01,1.128e+01,1.431e+01,1.402e+01,1.204e+01,1.395e+01,1.272e+01,1.337e+01,1.381e+01,1.308e+01,1.424e+01,1.266e+01,1.415e+01,1.698e+01,1.618e+01,1.458e+01,1.487e+01,1.536e+01,1.531e+01,1.666e+01,1.353e+01,1.652e+01,1.735e+01,1.676e+01,1.635e+01,1.794e+01,1.693e+01,1.795e+01,1.659e+01,1.874e+01,1.939e+01,1.945e+01,1.981e+01,2.178e+01,1.973e+01,1.861e+01,2.083e+01,1.969e+01,2.029e+01,2.497e+01,2.135e+01,1.636e+01,2.052e+01,2.330e+01,2.062e+01,2.076e+01,2.244e+01,2.101e+01,2.213e+01,2.452e+01,2.345e+01,2.440e+01
8.025e-01,1.850e-01,1.124e+00,1.246e+00,1.030e+00,1.324e+00,2.019e+00,1.388e+00,3.423e+00,1.780e+00,2.506e+00,3.741e+00,2.372e+00,3.101e+00,2.622e+00,5.096e+00,4.276e+00,4.064e+00,5.609e+00,5.934e+00,5.480e+00,4.804e+00,5.809e+00,5.057e+00,7.113e+00,6.981e+00,5.817e+00,5.463e+00,8.828e+00,8.292e+00,7.452e+00,9.614e+00,1.019e+01,7.249e+00,9.370e+00,7.191e+00,9.032e+00,9.441e+00,9.286e+00,9.130e+00,9.378e+00,1.074e+01,1.106e+01,1.241e+01,1.008e+01,1.242e+01,1.158e+01,1.449e+01,1.299e+01,1.194e+01,1.290e+01,1.218e+01,1.354e+01,1.321e+01,1.201e+01,1.478e+01,1.284e+01,1.337e+01,1.700e+01,1.374e+01,1.383e+01,1.503e+01,1.447e+01,1.502e+01,1.723e+01,1.350e+01,1.782e+01,1.815e+01,1.726e+01,1.925e+01,1.844e+01,1.697e+01,1.822e+01,1.747e+01,2.003e+01,2.147e+01,1.981e+01,2.030e+01,2.271e+01,2.072e+01,2.195e+01,2.130e+01,2.188e+01,2.163e+01,2.535e+01,2.333e+01,1.850e+01,2.115e+01,2.358e+01,2.325e+01,2.197e+01,2.391e+01,2.258e+01,2.522e+01,2.633e+01,2.463e+01,2.603e+01
6.319e-01,1.890e-01,1.323e+00,1.401e+00,1.925e+00,1.981e+00,3.056e+00,1.613e+00,3.697e+00,1.792e+00,2.408e+00,3.546e+00,3.033e+00,3.813e+00,3.362e+00,5.194e+00,4.036e+00,4.614e+00,5.336e+00,5.793e+00,5.350e+00,4.918e+00,5.609e+00,4.945e+00,7.138e+00,6.835e+00,7.367e+00,5.908e+00,8.119e+00,8.022e+00,7.415e+00,1.010e+01,9.646e+00,7.299e+00,9.146e+00,8.084e+00,9.591e+00,9.373e+00,9.291e+00,9.909e+00,8.926e+00,1.053e+01,1.047e+01,1.144e+01,9.557e+00,1.084e+01,1.080e+01,1.396e+01,1.208e+01,1.124e+01,1.319e+01,1.164e+01,1.221e+01,1.348e+01,1.124e+01,1.351e+01,1.142e+01,1.316e+01,1.568e+01,1.332e+01,1.258e+01,1.358e+01,1.466e+01,1.454e+01,1.699e+01,1.463e+01,1.548e+01,1.669e+01,1.719e+01,1.655e+01,1.601e+01,1.557e+01,1.765e+01,1.488e+01,1.806e+01,2.190e+01,1.893e+01,1.953e+01,2.243e+01,1.979e+01,2.178e+01,2.010e+01,1.997e+01,1.992e+01,2.254e+01,2.193e+01,1.799e+01,2.003e+01,2.121e+01,2.063e+01,2.105e+01,2.198e+01,2.130e+01,2.014e+01,2.576e+01,2.285e+01,2.590e+01
5.400e-01,1.716e-01,1.821e+00,1.462e+00,1.215e+00,1.992e+00,2.430e+00,1.622e+00,2.993e+00,1.478e+00,2.136e+00,2.800e+00,2.192e+00,2.719e+00,2.693e+00,5.053e+00,3.722e+00,3.744e+00,5.533e+00,5.136e+00,4.865e+00,4.648e+00,5.321e+00,4.954e+00,6.718e+00,5.778e+00,5.623e+00,4.442e+00,7.564e+00,6.388e+00,6.043e+00,7.972e+00,8.596e+00,5.793e+00,7.510e+00,6.844e+00,8.372e+00,8.863e+00,9.505e+00,8.791e+00,9.534e+00,1.086e+01,9.612e+00,1.161e+01,7.987e+00,1.029e+01,1.101e+01,1.305e+01,1.306e+01,1.113e+01,1.291e+01,1.070e+01,1.273e+01,1.492e+01,1.050e+01,1.356e+01,1.271e+01,1.435e+01,1.624e+01,1.405e+01,1.443e+01,1.386e+01,1.469e+01,1.442e+01,1.805e+01,1.501e+01,1.569e+01,1.583e+01,1.593e+01,1.698e+01,1.682e+01,1.588e+01,1.797e+01,1.645e+01,1.736e+01,2.018e+01,1.882e+01,1.961e+01,2.270e+01,2.108e+01,2.073e+01,2.080e+01,2.003e+01,2.017e+01,2.405e+01,2.160e+01,1.835e+01,2.175e+01,2.366e+01,2.289e+01,2.260e+01,2.274e+01,2.250e+01,2.382e+01,2.805e+01,2.579e+01,2.657e+01
3.711e-01,8.416e-02,8.841e-01,1.086e+00,1.395e+00,1.726e+00,2.550e+00,1.784e+00,3.566e+00,1.327e+00,2.127e+00,3.269e+00,1.987e+00,2.472e+00,2.627e+00,4.405e+00,3.848e+00,3.401e+00,5.760e+00,5.789e+00,4.387e+00,4.107e+00,5.275e+00,5.338e+00,6.581e+00,5.307e+00,5.646e+00,5.076e+00,8.172e+00,7.015e+00,6.732e+00,8.776e+00,8.463e+00,4.719e+00,8.222e+00,7.019e+00,8.612e+00,8.832e+00,7.777e+00,8.393e+00,8.101e+00,9.876e+00,1.020e+01,9.879e+00,8.534e+00,9.737e+00,8.951e+00,1.096e+01,1.126e+01,9.440e+00,1.262e+01,9.378e+00,1.060e+01,1.214e+01,8.873e+00,1.171e+01,1.237e+01,1.274e+01,1.445e+01,1.305e+01,1.191e+01,1.256e+01,1.476e+01,1.362e+01,1.526e+01,1.333e+01,1.425e+01,1.473e+01,1.504e+01,1.571e+01,1.609e+01,1.539e+01,1.599e+01,1.494e+01,1.707e+01,1.937e+01,1.835e+01,1.870e+01,2.085e+01,1.800e+01,1.848e+01,1.920e+01,1.931e+01,1.855e+01,2.250e+01,2.160e+01,1.702e+01,1.995e+01,2.071e+01,2.023e+01,2.011e+01,1.992e+01,1.912e+01,2.066e+01,2.463e+01,2.454e+01,2.364e+01
7.183e-01,1.846e-01,1.815e+00,1.791e+00,2.258e+00,2.634e+00,2.906e+00,2.080e+00,3.991e+00,1.692e+00,2.688e+00,3.544e+00,3.110e+00,3.594e+00,3.782e+00,5.401e+00,4.678e+00,5.333e+00,6.933e+00,7.471e+00,6.672e+00,6.012e+00,7.898e+00,5.799e+00,8.526e+00,7.920e+00,8.683e+00,6.887e+00,1.091e+01,9.879e+00,7.636e+00,1.189e+01,1.194e+01,8.304e+00,1.172e+01,1.033e+01,1.139e+01,1.290e+01,1.151e+01,1.282e+01,1.164e+01,1.340e+01,1.399e+01,1.570e+01,1.095e+01,1.402e+01,1.211e+01,1.503e+01,1.550e+01,1.341e+01,1.574e+01,1.377e+01,1.521e+01,1.714e+01,1.323e+01,1.520e+01,1.562e+01,1.636e+01,1.763e+01,1.652e+01,1.500e+01,1.681e+01,1.607e+01,1.649e+01,1.874e+01,1.570e+01,1.834e+01,1.881e+01,1.902e+01,2.098e+01,2.099e+01,1.913e+01,2.047e+01,1.906e+01,2.071e+01,2.386e+01,2.054e+01,2.184e+01,2.324e+01,2.428e+01,2.245e+01,2.157e+01,2.258e+01,2.308e+01,2.693e+01,2.446e+01,2.026e+01,2.388e+01,2.687e+01,2.486e+01,2.524e+01,2.271e+01,2.312e+01,2.685e+01,2.923e+01,2.583e+01,2.904e+01
6.935e-01,1.944e-01,1.521e+00,8.945e-01,8.622e-01,1.445e+00,2.134e+00,1.278e+00,2.928e+00,1.929e+00,2.598e+00,2.641e+00,2.507e+00,2.778e+00,2.370e+00,4.946e+00,4.087e+00,3.973e+00,6.330e+00,6.404e+00,5.261e+00,4.646e+00,5.160e+00,4.992e+00,7.800e+00,6.825e+00,6.567e+00,5.575e+00,8.485e+00,7.444e+00,7.485e+00,9.686e+00,1.025e+01,6.938e+00,9.366e+00,8.678e+00,9.499e+00,1.123e+01,9.390e+00,1.104e+01,1.061e+01,1.151e+01,1.197e+01,1.515e+01,1.193e+01,1.243e+01,1.136e+01,1.392e+01,1.463e+01,1.285e+01,1.497e+01,1.304e+01,1.429e+01,1.570e+01,1.257e+01,1.515e+01,1.408e+01,1.461e+01,1.674e+01,1.461e+01,1.397e+01,1.557e+01,1.689e+01,1.615e+01,1.755e+01,1.419e+01,1.736e+01,1.603e+01,1.719e+01,1.780e+01,1.681e+01,1.602e+01,1.699e+01,1.733e+01,1.879e+01,1.967e+01,1.826e+01,1.906e+01,2.124e+01,2.033e+01,2.039e+01,2.052e+01,2.085e+01,1.976e+01,2.500e+01,2.135e+01,1.811e+01,2.174e+01,2.141e+01,2.145e+01,1.985e+01,2.098e+01,2.130e+01,2.355e+01,2.537e+01,2.467e+01,2.681e+01
