5.105e-01,8.317e-01,2.062e-01,4.521e-01,1.668e-03,9.421e-01,8.961e-01,4.038e-01,7.955e-01,8.002e-01,5.913e-01,1.084e-01,2.783e-01,1.139e-02,3.968e-01,3.980e-01,7.095e-01,8.701e-02,7.783e-01,9.612e-01,3.678e-01,2.691e-01,8.204e-01,8.283e-01,9.341e-01,6.929e-01,7.997e-01,2.926e-01,7.081e-02,4.756e-01,7.093e-01,6.069e-01,6.786e-01,1.705e-01,9.535e-01,1.043e-01,4.808e-01,8.101e-01,7.453e-01,3.912e-01,6.479e-01,3.864e-01,8.350e-01,4.943e-01,7.291e-01,2.145e-01,2.711e-01,3.734e-01,3.266e-01,4.872e-01,9.434e-01,9.529e-02,3.816e-01,7.479e-01,7.757e-01,1.076e-01,1.407e-01,2.786e-01,1.538e-03,6.421e-01,8.479e-01,2.927e-01,5.176e-01,4.752e-02,5.474e-01,8.479e-02,5.196e-01,4.119e-01,1.770e-02,2.385e-01,9.905e-01,8.229e-02,3.005e-01,2.182e-01,9.769e-01,5.170e-01,6.504e-01,5.300e-01,7.703e-01,2.707e-01,1.751e-01,4.824e-01,8.689e-01,6.781e-01,6.386e-01,2.289e-01,3.096e-01,1.196e-01,3.330e-01,2.125e-01
2.369e-01,1.130e+00,1.059e+00,9.796e-01,2.706e-01,7.729e-01,9.073e-01,2.118e-01,1.236e+00,9.141e-01,4.638e-01,8.203e-01,1.767e-01,1.426e-01,8.280e-01,5.549e-01,1.215e+00,6.558e-01,1.333e+00,9.390e-01,7.503e-01,9.807e-01,1.113e+00,1.278e+00,4.720e-01,6.865e-01,5.336e-01,4.297e-01,7.761e-01,3.048e-01,6.912e-01,6.818e-01,1.080e+00,6.165e-01,5.771e-01,9.521e-01,9.127e-01,1.307e+00,3.901e-01,8.400e-01,1.246e+00,8.409e-01,9.713e-01,3.187e-01,1.020e+00,7.091e-01,1.076e+00,2.867e-01,4.813e-01,1.183e+00,6.421e-01,8.088e-01,3.288e-01,6.184e-01,5.111e-01,7.701e-01,9.669e-01,5.646e-01,5.346e-01,3.091e-01,6.824e-01,1.089e+00,1.134e+00,6.480e-01,4.650e-01,5.216e-01,1.138e+00,3.909e-01,2.478e-01,7.179e-01,8.231e-01,8.789e-01,2.822e-01,2.903e-01,8.308e-01,1.218e+00,4.263e-01,4.858e-01,1.157e+00,8.080e-01,5.245e-01,6.338e-01,6.717e-01,1.215e+00,9.910e-01,1.912e-01,4.741e-01,9.780e-01,5.851e-01,9.138e-01
4.173e-01,7.643e-01,1.043e+00,8.860e-01,8.355e-01,1.121e+00,1.759e+00,1.137e+00,1.149e+00,9.214e-01,1.037e+00,7.520e-01,9.306e-01,1.122e-01,6.375e-01,8.309e-01,8.049e-01,1.062e+00,1.363e+00,8.815e-01,6.934e-01,7.515e-01,1.612e+00,1.035e+00,1.308e+00,1.404e+00,1.409e+00,1.150e+00,9.734e-01,6.618e-01,1.261e+00,1.359e+00,1.028e+00,1.165e+00,9.285e-01,7.446e-01,4.837e-01,1.386e+00,7.300e-01,1.276e+00,7.281e-01,1.156e+00,1.433e+00,4.930e-01,1.191e+00,2.885e-01,6.759e-01,1.265e+00,8.685e-01,6.968e-01,8.784e-01,7.223e-01,6.105e-01,1.438e+00,8.379e-01,6.257e-01,3.089e-01,1.229e+00,7.306e-01,7.794e-01,1.400e+00,8.737e-01,1.231e+00,4.296e-01,1.374e+00,6.297e-01,1.333e+00,1.318e+00,8.233e-02,9.336e-01,1.240e+00,4.547e-01,5.282e-01,7.622e-01,1.342e+00,9.849e-01,9.481e-01,5.673e-01,1.059e+00,1.229e+00,6.226e-01,9.370e-01,8.626e-01,7.305e-01,1.538e+00,5.184e-01,3.128e-01,9.851e-01,6.147e-01,1.003e+00
1.244e-01,8.284e-01,9.786e-01,9.841e-01,8.348e-01,1.399e+00,1.293e+00,6.515e-01,1.676e+00,8.635e-01,9.364e-01,1.385e+00,8.111e-01,1.010e+00,1.284e+00,1.030e+00,1.915e+00,1.191e+00,1.653e+00,1.608e+00,1.325e+00,1.556e+00,1.849e+00,1.121e+00,1.137e+00,1.503e+00,1.021e+00,1.009e+00,1.378e+00,1.223e+00,1.399e+00,1.303e+00,1.745e+00,1.447e+00,1.196e+00,9.658e-01,1.022e+00,1.213e+00,1.172e+00,1.505e+00,1.900e+00,1.333e+00,9.969e-01,1.102e+00,1.259e+00,8.387e-01,1.444e+00,5.783e-01,1.043e+00,1.821e+00,1.069e+00,1.232e+00,4.262e-01,7.603e-01,5.990e-01,1.216e+00,1.476e+00,1.028e+00,1.034e+00,2.259e-01,1.241e+00,1.486e+00,1.179e+00,1.439e+00,7.924e-01,1.106e+00,1.545e+00,1.278e+00,6.810e-01,1.512e+00,1.340e+00,1.438e+00,4.043e-01,3.526e-01,1.080e+00,1.355e+00,1.009e+00,1.118e+00,1.505e+00,1.450e+00,1.114e+00,1.186e+00,7.567e-01,1.384e+00,1.379e+00,3.860e-01,1.057e+00,1.529e+00,9.903e-01,1.806e+00
5.062e-01,1.353e+00,1.269e+00,1.213e+00,8.083e-01,1.524e+00,2.120e+00,1.450e+00,1.880e+00,1.821e+00,1.704e+00,1.336e+00,1.223e+00,8.253e-01,1.054e+00,9.413e-01,2.296e+00,1.580e+00,2.021e+00,1.911e+00,1.109e+00,1.476e+00,1.884e+00,1.665e+00,1.247e+00,2.048e+00,1.322e+00,1.184e+00,1.111e+00,8.052e-01,1.505e+00,1.583e+00,1.936e+00,1.228e+00,1.138e+00,1.242e+00,1.445e+00,1.812e+00,1.304e+00,1.554e+00,1.863e+00,2.247e+00,1.911e+00,1.526e+00,1.624e+00,1.236e+00,1.681e+00,1.307e+00,1.701e+00,2.034e+00,1.796e+00,1.434e+00,1.521e+00,1.465e+00,1.541e+00,8.966e-01,1.719e+00,1.862e+00,1.397e+00,1.187e+00,2.220e+00,2.196e+00,2.217e+00,7.636e-01,1.246e+00,7.522e-01,1.899e+00,1.086e+00,1.129e+00,1.289e+00,1.680e+00,1.823e+00,1.341e+00,1.041e+00,1.701e+00,1.446e+00,1.498e+00,1.390e+00,1.784e+00,1.806e+00,1.504e+00,1.965e+00,1.179e+00,1.701e+00,2.538e+00,1.397e+00,1.193e+00,1.619e+00,9.667e-01,1.403e+00
1.044e-01,7.015e-01,8.853e-01,7.358e-01,5.374e-01,1.662e+00,1.975e+00,1.264e+00,1.127e+00,1.457e+00,1.414e+00,2.011e+00,1.502e+00,1.200e+00,7.025e-01,5.099e-01,2.355e+00,1.427e+00,1.287e+00,1.441e+00,8.044e-01,1.327e+00,1.415e+00,1.338e+00,5.575e-01,1.778e+00,6.059e-01,1.213e+00,1.590e+00,1.079e+00,1.418e+00,1.023e+00,1.487e+00,9.056e-01,1.307e+00,1.416e+00,1.762e+00,1.690e+00,1.534e+00,1.482e+00,1.455e+00,1.728e+00,1.454e+00,9.905e-01,1.840e+00,1.853e+00,1.742e+00,6.716e-01,1.209e+00,1.912e+00,1.013e+00,2.070e+00,1.566e+00,1.498e+00,1.109e+00,9.275e-01,1.562e+00,1.488e+00,1.477e+00,7.904e-01,2.013e+00,1.770e+00,2.345e+00,1.495e+00,1.228e+00,1.304e+00,1.838e+00,9.547e-01,1.312e+00,1.587e+00,1.541e+00,1.841e+00,1.809e+00,1.440e+00,1.393e+00,1.718e+00,1.591e+00,1.001e+00,1.440e+00,2.200e+00,1.588e+00,2.080e+00,6.697e-01,1.789e+00,2.093e+00,1.740e+00,8.597e-01,2.210e+00,6.150e-01,1.007e+00
2.561e-01,4.204e-01,2.314e-01,3.939e-01,4.929e-01,2.030e+00,2.714e+00,1.966e+00,1.289e+00,1.969e+00,1.513e+00,2.348e+00,2.244e+00,1.841e+00,6.821e-01,1.572e+00,2.124e+00,1.003e+00,1.508e+00,2.128e+00,9.264e-01,1.088e+00,2.324e+00,1.274e+00,1.918e+00,1.939e+00,1.806e+00,1.629e+00,1.803e+00,1.945e+00,2.008e+00,1.943e+00,1.808e+00,1.136e+00,2.107e+00,7.362e-01,1.627e+00,2.179e+00,2.346e+00,2.347e+00,2.265e+00,2.025e+00,2.001e+00,2.067e+00,2.331e+00,1.615e+00,1.380e+00,1.546e+00,1.216e+00,2.048e+00,1.554e+00,2.094e+00,1.460e+00,1.568e+00,1.236e+00,9.061e-01,1.132e+00,1.931e+00,1.644e+00,1.294e+00,2.049e+00,1.184e+00,1.876e+00,2.124e+00,1.658e+00,1.466e+00,1.552e+00,2.287e+00,1.282e+00,2.144e+00,2.710e+00,1.581e+00,2.229e+00,1.928e+00,2.296e+00,1.609e+00,2.595e+00,1.992e+00,1.283e+00,1.996e+00,2.254e+00,2.232e+00,1.495e+00,1.864e+00,1.954e+00,1.795e+00,1.382e+00,2.338e+00,1.429e+00,1.317e+00
1.438e-01,9.715e-01,1.422e+00,1.164e+00,1.013e+00,1.379e+00,2.291e+00,2.294e+00,2.798e+00,2.777e+00,1.634e+00,2.891e+00,2.242e+00,2.031e+00,1.318e+00,2.190e+00,2.521e+00,2.434e+00,2.838e+00,2.292e+00,1.542e+00,1.816e+00,2.950e+00,2.211e+00,1.294e+00,2.870e+00,1.741e+00,1.986e+00,2.795e+00,2.016e+00,1.915e+00,2.554e+00,2.206e+00,2.502e+00,1.753e+00,1.986e+00,2.500e+00,2.378e+00,1.991e+00,3.121e+00,2.877e+00,2.753e+00,2.779e+00,1.746e+00,2.178e+00,2.511e+00,2.752e+00,2.282e+00,1.862e+00,3.366e+00,2.134e+00,2.753e+00,1.890e+00,1.903e+00,1.511e+00,1.704e+00,2.380e+00,2.458e+00,2.870e+00,1.496e+00,2.838e+00,3.096e+00,3.274e+00,2.143e+00,1.711e+00,1.825e+00,2.337e+00,2.429e+00,1.679e+00,2.824e+00,2.210e+00,3.284e+00,2.286e+00,1.650e+00,2.302e+00,2.413e+00,2.468e+00,2.411e+00,2.098e+00,2.809e+00,2.797e+00,2.442e+00,1.752e+00,2.438e+00,2.636e+00,1.738e+00,2.254e+00,3.366e+00,1.860e+00,2.390e+00
4.354e-01,9.778e-01,5.738e-01,6.995e-01,3.416e-01,1.933e+00,2.647e+00,1.994e+00,2.276e+00,3.293e+00,2.582e+00,2.364e+00,2.158e+00,2.409e+00,1.613e+00,2.323e+00,2.763e+00,1.323e+00,2.552e+00,2.407e+00,1.879e+00,2.001e+00,3.034e+00,2.443e+00,2.318e+00,2.422e+00,1.794e+00,2.097e+00,1.945e+00,2.582e+00,2.114e+00,2.583e+00,2.799e+00,1.883e+00,2.646e+00,1.949e+00,2.853e+00,3.323e+00,2.377e+00,2.481e+00,2.370e+00,2.378e+00,3.065e+00,2.575e+00,2.550e+00,2.342e+00,2.768e+00,1.761e+00,2.395e+00,3.280e+00,2.927e+00,2.880e+00,2.262e+00,2.324e+00,2.149e+00,1.405e+00,2.099e+00,2.510e+00,2.612e+00,1.665e+00,2.625e+00,2.696e+00,3.246e+00,1.918e+00,2.265e+00,2.048e+00,2.672e+00,2.607e+00,1.966e+00,2.455e+00,2.656e+00,2.221e+00,3.307e+00,2.020e+00,2.665e+00,2.274e+00,2.962e+00,2.617e+00,1.922e+00,3.019e+00,2.719e+00,2.584e+00,2.103e+00,3.130e+00,2.781e+00,2.216e+00,2.030e+00,3.167e+00,1.893e+00,1.282e+00
2.941e-01,7.597e-01,9.082e-01,9.475e-01,1.112e+00,1.995e+00,2.249e+00,1.602e+00,2.038e+00,2.129e+00,2.210e+00,2.256e+00,2.481e+00,1.987e+00,2.261e+00,2.225e+00,2.570e+00,2.323e+00,2.997e+00,3.054e+00,2.191e+00,2.166e+00,2.787e+00,2.009e+00,2.731e+00,2.511e+00,1.946e+00,2.309e+00,2.335e+00,2.598e+00,2.105e+00,2.600e+00,3.176e+00,2.645e+00,2.020e+00,1.787e+00,2.147e+00,2.037e+00,2.460e+00,2.486e+00,2.208e+00,2.544e+00,2.010e+00,1.989e+00,2.383e+00,2.039e+00,2.764e+00,1.840e+00,2.880e+00,2.551e+00,2.171e+00,2.761e+00,1.361e+00,2.095e+00,2.350e+00,1.740e+00,2.131e+00,2.192e+00,2.088e+00,1.232e+00,2.530e+00,2.138e+00,2.210e+00,2.401e+00,2.072e+00,2.339e+00,2.730e+00,3.178e+00,2.221e+00,2.739e+00,2.797e+00,2.526e+00,1.867e+00,1.692e+00,2.012e+00,2.442e+00,2.649e+00,2.832e+00,2.072e+00,2.662e+00,2.757e+00,2.992e+00,2.078e+00,1.920e+00,3.222e+00,1.355e+00,1.755e+00,2.450e+00,1.661e+00,2.128e+00
1.042e-01,8.802e-01,1.253e+00,1.058e+00,8.403e-01,1.549e+00,2.308e+00,2.066e+00,2.856e+00,3.020e+00,2.706e+00,3.929e+00,2.356e+00,2.835e+00,1.894e+00,2.902e+00,3.239e+00,2.696e+00,3.180e+00,2.483e+00,2.023e+00,2.186e+00,4.173e+00,3.197e+00,2.465e+00,3.455e+00,2.646e+00,2.503e+00,3.375e+00,3.145e+00,2.807e+00,3.276e+00,3.166e+00,3.239e+00,2.692e+00,2.340e+00,3.247e+00,3.624e+00,3.104e+00,4.233e+00,3.816e+00,2.835e+00,3.278e+00,2.505e+00,2.852e+00,3.581e+00,3.608e+00,2.204e+00,2.541e+00,3.921e+00,2.417e+00,3.533e+00,2.538e+00,2.809e+00,1.697e+00,2.916e+00,2.377e+00,2.799e+00,3.302e+00,1.720e+00,2.861e+00,3.632e+00,3.744e+00,2.918e+00,3.034e+00,3.031e+00,2.745e+00,3.233e+00,2.387e+00,4.076e+00,2.777e+00,3.250e+00,3.532e+00,2.091e+00,2.739e+00,3.723e+00,3.068e+00,3.365e+00,2.596e+00,3.914e+00,3.827e+00,2.548e+00,2.305e+00,3.075e+00,2.579e+00,1.820e+00,3.042e+00,4.242e+00,2.856e+00,2.607e+00
4.988e-01,9.410e-01,8.251e-01,9.067e-01,7.675e-01,1.942e+00,2.555e+00,2.197e+00,2.890e+00,3.390e+00,3.215e+00,3.486e+00,3.650e+00,3.640e+00,3.282e+00,4.245e+00,3.570e+00,2.699e+00,4.102e+00,3.220e+00,2.436e+00,2.328e+00,4.529e+00,3.912e+00,3.908e+00,4.041e+00,3.946e+00,3.631e+00,3.536e+00,4.065e+00,3.523e+00,4.389e+00,4.279e+00,3.676e+00,4.171e+00,2.609e+00,3.579e+00,3.863e+00,4.181e+00,5.143e+00,3.481e+00,3.107e+00,3.755e+00,3.267e+00,3.399e+00,3.480e+00,4.264e+00,3.419e+00,3.276e+00,4.050e+00,3.248e+00,4.336e+00,3.403e+00,4.214e+00,3.481e+00,2.785e+00,1.925e+00,3.390e+00,3.506e+00,2.860e+00,3.217e+00,3.572e+00,3.757e+00,3.196e+00,4.054e+00,4.210e+00,3.564e+00,4.277e+00,2.612e+00,5.025e+00,3.661e+00,3.548e+00,3.979e+00,2.734e+00,3.992e+00,3.869e+00,4.622e+00,4.093e+00,3.082e+00,4.042e+00,4.187e+00,3.741e+00,4.105e+00,3.264e+00,3.653e+00,1.677e+00,3.744e+00,4.003e+00,3.482e+00,2.572e+00
4.229e-02,3.201e-01,8.282e-01,5.874e-01,6.785e-01,1.057e+00,2.105e+00,2.090e+00,1.851e+00,2.308e+00,1.316e+00,2.949e+00,3.556e+00,3.251e+00,2.602e+00,3.292e+00,2.645e+00,2.146e+00,2.640e+00,2.169e+00,1.448e+00,1.945e+00,3.812e+00,3.151e+00,2.705e+00,2.870e+00,2.983e+00,3.244e+00,3.502e+00,2.784e+00,2.875e+00,2.977e+00,2.656e+00,2.753e+00,2.766e+00,2.191e+00,2.546e+00,2.837e+00,3.201e+00,4.408e+00,3.384e+00,2.810e+00,3.527e+00,2.177e+00,2.698e+00,2.706e+00,3.081e+00,3.878e+00,2.147e+00,3.772e+00,2.236e+00,3.928e+00,3.059e+00,2.676e+00,1.992e+00,2.141e+00,1.871e+00,3.469e+00,3.599e+00,2.027e+00,2.969e+00,2.631e+00,3.518e+00,3.277e+00,3.200e+00,3.092e+00,3.180e+00,3.236e+00,2.380e+00,4.184e+00,2.777e+00,3.710e+00,3.184e+00,2.397e+00,3.589e+00,3.250e+00,4.005e+00,2.566e+00,2.387e+00,2.914e+00,3.769e+00,3.154e+00,2.614e+00,2.173e+00,2.708e+00,2.227e+00,2.845e+00,3.619e+00,2.597e+00,2.689e+00
1.682e-03,1.754e-01,3.129e-01,3.194e-01,5.694e-01,1.175e+00,1.902e+00,2.152e+00,2.360e+00,3.225e+00,2.401e+00,3.067e+00,2.786e+00,4.214e+00,2.712e+00,3.956e+00,3.005e+00,2.900e+00,3.101e+00,2.703e+00,2.415e+00,2.461e+00,3.942e+00,2.881e+00,3.423e+00,3.602e+00,2.110e+00,2.589e+00,3.707e+00,4.160e+00,2.157e+00,3.277e+00,3.616e+00,3.539e+00,3.412e+00,2.700e+00,3.620e+00,3.318e+00,3.351e+00,3.484e+00,3.674e+00,3.217e+00,3.538e+00,3.726e+00,2.628e+00,3.471e+00,3.762e+00,3.046e+00,2.859e+00,4.617e+00,3.685e+00,4.117e+00,2.957e+00,3.079e+00,2.685e+00,2.162e+00,2.712e+00,3.284e+00,3.786e+00,2.173e+00,3.125e+00,3.837e+00,3.137e+00,3.034e+00,3.102e+00,3.729e+00,3.268e+00,4.158e+00,2.945e+00,3.950e+00,3.432e+00,3.406e+00,4.309e+00,2.547e+00,2.877e+00,3.518e+00,3.760e+00,4.535e+00,2.673e+00,3.383e+00,4.574e+00,3.599e+00,3.159e+00,3.485e+00,3.604e+00,2.285e+00,3.793e+00,3.724e+00,3.455e+00,2.896e+00
7.984e-02,7.997e-01,1.565e+00,1.251e+00,1.289e+00,1.409e+00,2.046e+00,1.548e+00,2.220e+00,1.648e+00,1.870e+00,2.878e+00,2.272e+00,3.139e+00,3.797e+00,4.136e+00,4.075e+00,3.892e+00,3.500e+00,2.761e+00,3.026e+00,2.877e+00,4.762e+00,3.753e+00,3.902e+00,4.777e+00,3.262e+00,3.318e+00,3.963e+00,3.913e+00,3.399e+00,2.942e+00,4.418e+00,4.215e+00,3.571e+00,3.012e+00,3.429e+00,3.735e+00,4.043e+00,4.501e+00,4.430e+00,4.143e+00,3.771e+00,3.548e+00,3.146e+00,3.651e+00,3.848e+00,3.845e+00,2.764e+00,4.967e+00,3.335e+00,4.163e+00,3.298e+00,3.727e+00,2.652e+00,2.759e+00,3.201e+00,4.031e+00,3.544e+00,2.210e+00,3.759e+00,3.905e+00,3.501e+00,3.696e+00,4.212e+00,4.191e+00,4.166e+00,3.578e+00,2.650e+00,4.914e+00,3.930e+00,3.654e+00,3.345e+00,2.760e+00,3.707e+00,4.305e+00,3.018e+00,3.405e+00,3.682e+00,4.170e+00,4.828e+00,3.233e+00,3.339e+00,2.952e+00,4.296e+00,2.147e+00,3.373e+00,3.265e+00,3.708e+00,4.399e+00
2.122e-01,4.529e-01,2.520e-01,3.482e-01,3.120e-01,8.809e-01,1.528e+00,1.339e+00,1.301e+00,2.204e+00,2.214e+00,2.322e+00,3.041e+00,4.036e+00,4.099e+00,5.295e+00,4.573e+00,3.689e+00,4.123e+00,3.262e+00,2.663e+00,2.635e+00,4.689e+00,4.633e+00,4.364e+00,4.488e+00,3.635e+00,3.461e+00,3.291e+00,4.397e+00,3.467e+00,3.752e+00,5.491e+00,3.553e+00,4.057e+00,3.178e+00,3.922e+00,3.753e+00,4.762e+00,4.307e+00,4.356e+00,5.242e+00,3.813e+00,4.645e+00,3.909e+00,4.446e+00,4.645e+00,4.649e+00,4.388e+00,5.789e+00,3.896e+00,5.035e+00,4.964e+00,3.687e+00,4.171e+00,3.032e+00,3.252e+00,4.632e+00,4.197e+00,3.134e+00,4.364e+00,4.261e+00,3.759e+00,4.449e+00,4.621e+00,4.748e+00,4.417e+00,4.111e+00,4.765e+00,5.636e+00,4.794e+00,4.666e+00,5.260e+00,3.622e+00,3.942e+00,4.787e+00,4.593e+00,4.543e+00,3.458e+00,4.406e+00,6.289e+00,4.541e+00,4.731e+00,3.734e+00,4.703e+00,2.847e+00,4.860e+00,3.244e+00,4.621e+00,3.423e+00
1.248e-02,5.793e-01,1.080e+00,7.964e-01,6.505e-01,1.063e+00,1.665e+00,1.121e+00,1.536e+00,1.913e+00,1.970e+00,2.481e+00,2.404e+00,2.947e+00,2.996e+00,3.406e+00,3.853e+00,2.993e+00,3.238e+00,2.114e+00,2.501e+00,2.611e+00,4.679e+00,4.053e+00,2.929e+00,3.790e+00,3.119e+00,3.659e+00,3.385e+00,3.785e+00,2.921e+00,3.409e+00,4.639e+00,3.771e+00,2.986e+00,3.218e+00,3.724e+00,3.748e+00,3.373e+00,3.904e+00,3.222e+00,3.754e+00,3.535e+00,3.178e+00,3.591e+00,3.817e+00,4.791e+00,3.103e+00,3.896e+00,4.578e+00,3.186e+00,5.054e+00,4.145e+00,3.446e+00,3.391e+00,3.086e+00,3.094e+00,3.666e+00,3.439e+00,1.784e+00,3.199e+00,4.360e+00,3.966e+00,4.244e+00,3.554e+00,4.384e+00,4.613e+00,3.973e+00,3.989e+00,4.911e+00,3.864e+00,4.268e+00,4.589e+00,3.353e+00,3.463e+00,4.218e+00,3.731e+00,3.574e+00,2.920e+00,4.765e+00,4.859e+00,3.629e+00,3.518e+00,3.644e+00,4.070e+00,1.957e+00,4.003e+00,4.348e+00,3.432e+00,2.605e+00
2.604e-01,9.333e-01,9.211e-01,9.272e-01,6.096e-01,2.117e+00,2.803e+00,2.220e+00,2.662e+00,3.480e+00,2.644e+00,4.299e+00,3.809e+00,4.210e+00,3.720e+00,5.171e+00,4.563e+00,4.297e+00,4.887e+00,4.263e+00,3.590e+00,3.870e+00,6.531e+00,5.528e+00,5.663e+00,4.988e+00,4.677e+00,3.840e+00,5.347e+00,5.602e+00,4.754e+00,5.263e+00,5.336e+00,4.424e+00,5.330e+00,4.116e+00,5.502e+00,5.296e+00,5.377e+00,5.272e+00,6.334e+00,4.752e+00,5.127e+00,3.770e+00,5.253e+00,5.394e+00,5.925e+00,5.162e+00,4.622e+00,6.624e+00,4.552e+00,5.833e+00,4.698e+00,4.906e+00,3.965e+00,4.694e+00,3.514e+00,4.315e+00,4.789e+00,2.796e+00,5.289e+00,4.668e+00,5.024e+00,5.504e+00,5.460e+00,5.218e+00,5.216e+00,5.530e+00,5.736e+00,6.275e+00,5.545e+00,5.011e+00,6.077e+00,4.143e+00,4.705e+00,6.898e+00,5.811e+00,5.579e+00,4.249e+00,5.731e+00,7.191e+00,5.634e+00,5.066e+00,5.436e+00,4.553e+00,3.881e+00,4.887e+00,5.552e+00,5.369e+00,4.553e+00
1.346e-01,2.512e-01,2.378e-01,3.177e-01,5.322e-01,1.685e+00,2.263e+00,1.938e+00,1.568e+00,2.267e+00,2.204e+00,2.848e+00,3.090e+00,4.126e+00,3.294e+00,4.611e+00,4.470e+00,3.373e+00,3.388e+00,3.357e+00,3.704e+00,2.877e+00,5.303e+00,4.246e+00,5.134e+00,5.275e+00,4.346e+00,3.973e+00,4.568e+00,4.965e+00,4.000e+00,3.859e+00,4.853e+00,4.376e+00,5.152e+00,3.524e+00,4.815e+00,4.094e+00,4.892e+00,5.361e+00,4.638e+00,5.109e+00,4.447e+00,4.872e+00,4.035e+00,5.170e+00,4.923e+00,5.035e+00,3.577e+00,6.606e+00,4.750e+00,5.733e+00,5.082e+00,4.810e+00,4.157e+00,3.225e+00,3.517e+00,4.626e+00,4.108e+00,3.888e+00,4.760e+00,4.964e+00,4.333e+00,4.409e+00,4.608e+00,5.603e+00,4.691e+00,4.713e+00,4.590e+00,5.810e+00,5.367e+00,4.838e+00,6.320e+00,4.129e+00,4.874e+00,4.557e+00,4.748e+00,4.994e+00,3.816e+00,5.251e+00,6.539e+00,4.898e+00,5.075e+00,5.120e+00,4.933e+00,3.641e+00,4.841e+00,4.866e+00,4.617e+00,3.869e+00
3.781e-01,9.318e-01,1.277e+00,1.136e+00,1.095e+00,2.484e+00,3.573e+00,2.380e+00,2.317e+00,2.768e+00,3.239e+00,3.875e+00,3.877e+00,4.622e+00,4.315e+00,5.613e+00,6.003e+00,4.502e+00,4.727e+00,4.965e+00,5.573e+00,4.381e+00,8.798e+00,6.733e+00,7.481e+00,7.509e+00,7.168e+00,6.662e+00,6.985e+00,6.767e+00,7.018e+00,6.691e+00,7.910e+00,7.171e+00,6.601e+00,5.613e+00,6.844e+00,6.708e+00,6.526e+00,7.802e+00,7.271e+00,7.104e+00,7.208e+00,6.967e+00,6.575e+00,6.296e+00,7.675e+00,7.068e+00,6.109e+00,9.051e+00,7.178e+00,7.887e+00,7.780e+00,7.238e+00,5.801e+00,6.177e+00,5.370e+00,6.759e+00,5.968e+00,5.057e+00,6.368e+00,7.348e+00,6.827e+00,6.846e+00,7.719e+00,8.158e+00,7.559e+00,7.561e+00,6.941e+00,8.144e+00,7.328e+00,6.345e+00,9.222e+00,5.841e+00,7.853e+00,7.135e+00,6.893e+00,6.977e+00,6.112e+00,7.845e+00,8.715e+00,6.714e+00,7.443e+00,7.308e+00,7.183e+00,5.194e+00,7.365e+00,8.128e+00,7.119e+00,5.202e+00
2.773e-01,9.403e-01,1.484e+00,1.240e+00,1.190e+00,1.444e+00,2.766e+00,2.137e+00,2.867e+00,3.015e+00,3.040e+00,3.238e+00,2.337e+00,2.774e+00,3.124e+00,4.764e+00,3.864e+00,3.241e+00,4.416e+00,4.014e+00,5.034e+00,3.197e+00,6.995e+00,5.582e+00,5.869e+00,5.730e+00,5.823e+00,5.648e+00,5.092e+00,5.545e+00,5.784e+00,5.675e+00,6.627e+00,6.761e+00,4.639e+00,4.692e+00,5.250e+00,5.263e+00,4.283e+00,7.147e+00,5.298e+00,6.595e+00,5.574e+00,5.963e+00,4.535e+00,5.799e+00,6.369e+00,5.079e+00,5.520e+00,7.534e+00,6.087e+00,6.246e+00,4.877e+00,5.276e+00,4.545e+00,4.952e+00,4.735e+00,5.991e+00,5.268e+00,4.751e+00,4.737e+00,6.295e+00,5.549e+00,5.115e+00,6.021e+00,5.641e+00,5.347e+00,7.074e+00,4.633e+00,6.863e+00,5.716e+00,4.629e+00,6.954e+00,4.371e+00,5.613e+00,4.708e+00,4.639e+00,5.618e+00,5.088e+00,6.651e+00,6.993e+00,3.913e+00,5.322e+00,5.208e+00,5.275e+00,3.464e+00,5.837e+00,6.324e+00,5.572e+00,4.515e+00
2.378e-02,7.246e-02,3.586e-01,3.395e-01,7.988e-01,1.061e+00,1.656e+00,1.549e+00,1.509e+00,2.019e+00,2.632e+00,2.517e+00,2.678e+00,3.812e+00,3.527e+00,4.439e+00,4.083e+00,3.494e+00,3.491e+00,4.079e+00,4.605e+00,3.636e+00,6.225e+00,4.853e+00,5.681e+00,5.415e+00,5.323e+00,5.548e+00,5.347e+00,5.137e+00,5.333e+00,5.008e+00,6.365e+00,6.159e+00,4.810e+00,4.707e+00,5.544e+00,4.298e+00,5.568e+00,5.690e+00,5.853e+00,6.120e+00,5.418e+00,6.695e+00,4.264e+00,5.135e+00,6.575e+00,5.761e+00,5.323e+00,7.693e+00,5.599e+00,6.684e+00,5.763e+00,4.698e+00,4.525e+00,4.372e+00,5.547e+00,5.853e+00,5.128e+00,4.821e+00,4.856e+00,5.630e+00,5.502e+00,5.489e+00,5.555e+00,6.334e+00,5.932e+00,6.443e+00,6.107e+00,6.625e+00,5.491e+00,5.530e+00,6.891e+00,3.838e+00,4.892e+00,4.641e+00,4.770e+00,6.651e+00,4.549e+00,5.773e+00,7.175e+00,4.898e+00,5.846e+00,4.969e+00,6.003e+00,4.368e+00,5.666e+00,5.684e+00,5.786e+00,4.828e+00
4.687e-01,1.082e+00,9.016e-01,9.927e-01,8.218e-01,2.456e+00,3.195e+00,2.631e+00,2.706e+00,3.211e+00,2.854e+00,3.691e+00,3.609e+00,4.176e+00,3.467e+00,4.168e+00,5.258e+00,3.732e+00,3.796e+00,5.134e+00,4.357e+00,3.471e+00,7.677e+00,6.212e+00,6.125e+00,7.315e+00,5.541e+00,5.838e+00,5.899e+00,5.691e+00,6.028e+00,5.376e+00,6.932e+00,6.032e+00,5.691e+00,4.649e+00,6.344e+00,5.578e+00,6.044e+00,7.050e+00,7.451e+00,6.740e+00,6.360e+00,6.953e+00,5.804e+00,6.348e+00,6.601e+00,5.929e+00,5.744e+00,8.053e+00,7.188e+00,6.365e+00,6.685e+00,6.036e+00,5.236e+00,5.066e+00,5.977e+00,5.766e+00,5.750e+00,4.911e+00,6.343e+00,6.034e+00,6.126e+00,5.807e+00,6.123e+00,6.501e+00,6.489e+00,6.952e+00,6.573e+00,7.191e+00,6.515e+00,5.802e+00,7.693e+00,5.268e+00,7.091e+00,5.794e+00,6.389e+00,7.117e+00,5.433e+00,5.807e+00,7.274e+00,6.361e+00,6.713e+00,5.652e+00,6.290e+00,4.917e+00,6.714e+00,7.331e+00,5.928e+00,4.656e+00
4.394e-01,1.238e+00,1.241e+00,1.281e+00,1.153e+00,2.219e+00,2.908e+00,2.516e+00,3.402e+00,3.445e+00,3.410e+00,3.863e+00,3.913e+00,4.548e+00,4.291e+00,5.095e+00,5.746e+00,4.073e+00,4.915e+00,4.734e+00,4.523e+00,4.369e+00,7.448e+00,6.636e+00,6.963e+00,7.521e+00,6.782e+00,6.468e+00,6.069e+00,6.472e+00,6.850e+00,6.627e+00,7.165e+00,6.823e+00,7.240e+00,5.429e+00,6.380e+00,6.285e+00,6.937e+00,8.149e+00,7.848e+00,6.918e+00,6.230e+00,7.093e+00,5.780e+00,6.596e+00,8.332e+00,6.107e+00,6.422e+00,9.211e+00,7.429e+00,7.630e+00,6.869e+00,6.881e+00,6.159e+00,4.819e+00,5.769e+00,6.889e+00,6.312e+00,5.883e+00,6.549e+00,7.707e+00,6.906e+00,6.290e+00,6.926e+00,6.085e+00,7.239e+00,7.108e+00,6.844e+00,8.228e+00,7.075e+00,6.678e+00,7.054e+00,4.769e+00,7.053e+00,6.208e+00,7.345e+00,7.159e+00,6.707e+00,7.410e+00,8.623e+00,7.133e+00,6.632e+00,6.398e+00,6.285e+00,4.691e+00,6.765e+00,6.820e+00,7.036e+00,6.290e+00
1.780e-02,6.207e-01,8.007e-01,7.423e-01,5.431e-01,1.021e+00,1.182e+00,1.203e+00,2.186e+00,2.142e+00,1.865e+00,3.219e+00,2.459e+00,3.340e+00,3.600e+00,4.315e+00,4.154e+00,3.670e+00,3.773e+00,4.176e+00,4.197e+00,3.596e+00,6.213e+00,5.514e+00,6.442e+00,6.852e+00,5.231e+00,5.554e+00,6.706e+00,5.501e+00,5.712e+00,5.376e+00,7.042e+00,6.381e+00,6.431e+00,5.757e+00,6.410e+00,5.773e+00,6.376e+00,6.433e+00,8.312e+00,5.803e+00,6.447e+00,6.392e+00,5.582e+00,6.444e+00,7.783e+00,5.359e+00,5.891e+00,8.235e+00,6.088e+00,6.591e+00,6.456e+00,5.742e+00,5.321e+00,5.049e+00,6.331e+00,5.927e+00,5.528e+00,5.523e+00,5.755e+00,6.421e+00,6.684e+00,6.202e+00,7.036e+00,6.321e+00,6.656e+00,6.095e+00,7.167e+00,7.557e+00,6.015e+00,6.340e+00,6.350e+00,4.000e+00,6.567e+00,6.930e+00,5.565e+00,6.599e+00,5.483e+00,6.376e+00,7.340e+00,6.266e+00,7.174e+00,5.463e+00,5.398e+00,5.145e+00,5.439e+00,6.429e+00,7.275e+00,6.240e+00
4.715e-01,8.806e-01,3.733e-01,6.098e-01,3.990e-01,1.856e+00,2.474e+00,2.344e+00,2.772e+00,3.954e+00,2.708e+00,2.941e+00,3.329e+00,4.171e+00,3.490e+00,4.408e+00,3.689e+00,3.211e+00,4.000e+00,4.583e+00,3.975e+00,3.502e+00,6.178e+00,5.402e+00,6.107e+00,5.989e+00,5.099e+00,5.290e+00,6.245e+00,6.416e+00,4.667e+00,5.873e+00,6.232e+00,6.380e+00,6.663e+00,5.523e+00,7.038e+00,5.797e+00,6.398e+00,5.885e+00,7.066e+00,6.135e+00,6.514e+00,6.723e+00,5.678e+00,6.284e+00,7.320e+00,5.844e+00,5.491e+00,8.290e+00,7.715e+00,7.204e+00,5.705e+00,6.041e+00,5.766e+00,3.939e+00,5.745e+00,5.883e+00,5.704e+00,5.085e+00,6.224e+00,5.509e+00,6.312e+00,5.660e+00,5.216e+00,5.882e+00,6.445e+00,7.018e+00,6.145e+00,6.737e+00,7.036e+00,5.339e+00,6.940e+00,4.647e+00,6.091e+00,5.343e+00,6.270e+00,7.710e+00,5.409e+00,5.146e+00,6.757e+00,6.547e+00,6.741e+00,5.859e+00,5.920e+00,4.441e+00,6.177e+00,6.549e+00,6.075e+00,4.972e+00
2.724e-01,1.161e+00,1.102e+00,1.040e+00,3.999e-01,1.302e+00,2.000e+00,1.522e+00,2.716e+00,3.300e+00,2.495e+00,3.363e+00,2.774e+00,4.035e+00,4.270e+00,5.297e+00,4.628e+00,3.755e+00,4.674e+00,4.254e+00,4.601e+00,3.919e+00,7.327e+00,6.660e+00,6.645e+00,6.587e+00,5.906e+00,6.459e+00,6.985e+00,6.880e+00,6.044e+00,6.686e+00,8.057e+00,7.069e+00,7.109e+00,6.502e+00,7.432e+00,6.855e+00,6.719e+00,7.816e+00,7.800e+00,6.585e+00,7.991e+00,7.151e+00,6.159e+00,7.957e+00,8.550e+00,6.702e+00,6.699e+00,9.680e+00,7.471e+00,7.717e+00,7.163e+00,6.313e+00,6.614e+00,6.124e+00,6.488e+00,6.418e+00,6.634e+00,6.025e+00,6.287e+00,7.198e+00,7.296e+00,6.920e+00,7.508e+00,7.546e+00,7.586e+00,7.031e+00,7.404e+00,8.808e+00,7.603e+00,6.354e+00,8.607e+00,5.831e+00,7.238e+00,7.293e+00,6.886e+00,7.450e+00,6.257e+00,6.743e+00,8.314e+00,6.550e+00,8.282e+00,7.437e+00,6.638e+00,5.305e+00,6.590e+00,8.083e+00,7.456e+00,5.931e+00
1.510e-01,9.517e-01,1.045e+00,9.543e-01,5.106e-01,1.642e+00,1.925e+00,1.206e+00,1.862e+00,2.012e+00,1.327e+00,2.460e+00,2.247e+00,3.009e+00,3.088e+00,3.202e+00,3.723e+00,2.931e+00,3.045e+00,3.695e+00,3.981e+00,3.637e+00,5.788e+00,5.530e+00,5.774e+00,5.972e+00,4.857e+00,5.676e+00,7.246e+00,6.449e+00,5.853e+00,5.393e+00,6.419e+00,6.711e+00,7.657e+00,7.131e+00,7.117e+00,5.975e+00,5.894e+00,6.956e+00,7.375e+00,6.999e+00,7.208e+00,6.279e+00,5.938e+00,6.992e+00,8.026e+00,5.901e+00,5.830e+00,9.780e+00,7.769e+00,7.442e+00,6.534e+00,6.577e+00,5.903e+00,5.928e+00,6.027e+00,6.575e+00,6.522e+00,5.896e+00,6.524e+00,6.798e+00,6.778e+00,6.975e+00,7.124e+00,6.542e+00,7.665e+00,7.283e+00,6.976e+00,8.016e+00,7.207e+00,5.428e+00,7.770e+00,5.262e+00,6.866e+00,5.927e+00,6.966e+00,6.971e+00,6.410e+00,6.014e+00,7.790e+00,6.818e+00,6.835e+00,7.045e+00,6.345e+00,5.417e+00,5.684e+00,7.933e+00,6.938e+00,6.319e+00
5.361e-02,3.102e-01,5.212e-01,4.855e-01,7.386e-01,1.397e+00,2.128e+00,2.292e+00,2.445e+00,2.973e+00,2.365e+00,3.018e+00,3.366e+00,4.557e+00,3.310e+00,3.991e+00,3.971e+00,2.997e+00,3.122e+00,4.036e+00,4.197e+00,4.162e+00,6.551e+00,5.402e+00,6.227e+00,6.405e+00,5.918e+00,6.752e+00,8.135e+00,7.223e+00,7.023e+00,7.567e+00,7.292e+00,7.829e+00,8.677e+00,7.963e+00,8.314e+00,6.753e+00,7.062e+00,8.223e+00,8.532e+00,7.774e+00,8.640e+00,8.380e+00,5.750e+00,7.280e+00,9.686e+00,7.413e+00,6.789e+00,1.070e+01,8.524e+00,8.566e+00,8.506e+00,6.807e+00,6.910e+00,6.402e+00,6.928e+00,8.464e+00,8.359e+00,7.099e+00,7.011e+00,7.430e+00,7.796e+00,7.643e+00,8.256e+00,7.352e+00,8.135e+00,8.470e+00,8.175e+00,9.775e+00,7.559e+00,7.343e+00,9.331e+00,6.131e+00,7.686e+00,6.312e+00,8.505e+00,8.060e+00,6.757e+00,7.355e+00,8.598e+00,7.895e+00,7.463e+00,7.873e+00,6.952e+00,7.741e+00,7.505e+00,9.232e+00,7.920e+00,7.485e+00
3.844e-01,8.632e-01,5.558e-01,7.369e-01,4.849e-01,1.905e+00,2.119e+00,1.715e+00,2.666e+00,3.267e+00,2.306e+00,2.661e+00,3.291e+00,3.511e+00,3.610e+00,4.812e+00,4.107e+00,3.031e+00,4.697e+00,4.284e+00,4.095e+00,3.084e+00,7.118e+00,6.314e+00,6.324e+00,6.957e+00,5.709e+00,7.175e+00,7.518e+00,8.304e+00,6.557e+00,8.503e+00,8.945e+00,9.094e+00,9.142e+00,7.692e+00,8.121e+00,7.792e+00,7.477e+00,8.659e+00,7.235e+00,8.210e+00,8.439e+00,7.214e+00,8.089e+00,8.910e+00,9.760e+00,6.687e+00,8.334e+00,1.007e+01,8.381e+00,8.590e+00,8.092e+00,7.320e+00,8.817e+00,7.576e+00,6.991e+00,7.500e+00,8.548e+00,6.966e+00,7.781e+00,7.982e+00,8.024e+00,8.656e+00,8.444e+00,8.219e+00,9.263e+00,9.298e+00,9.032e+00,1.090e+01,1.028e+01,7.722e+00,9.677e+00,6.772e+00,8.465e+00,7.483e+00,8.584e+00,8.101e+00,6.669e+00,8.169e+00,8.102e+00,7.971e+00,9.452e+00,8.810e+00,7.221e+00,5.662e+00,7.540e+00,1.055e+01,7.666e+00,6.194e+00
4.200e-01,8.555e-01,3.921e-01,6.530e-01,4.083e-01,1.929e+00,2.363e+00,1.587e+00,1.875e+00,2.624e+00,1.987e+00,2.434e+00,2.815e+00,2.846e+00,2.820e+00,3.630e+00,3.523e+00,2.445e+00,3.521e+00,3.850e+00,3.738e+00,3.086e+00,5.404e+00,4.599e+00,6.405e+00,5.518e+00,5.418e+00,4.940e+00,6.027e+00,6.440e+00,5.682e+00,7.032e+00,7.774e+00,6.474e+00,8.685e+00,6.813e+00,7.534e+00,6.799e+00,6.760e+00,6.925e+00,7.514e+00,7.561e+00,7.343e+00,6.981e+00,6.539e+00,7.261e+00,8.199e+00,6.015e+00,6.948e+00,8.036e+00,7.156e+00,8.033e+00,6.720e+00,7.613e+00,7.959e+00,6.502e+00,5.987e+00,6.651e+00,6.710e+00,6.485e+00,6.509e+00,7.106e+00,6.111e+00,7.028e+00,7.495e+00,6.417e+00,7.806e+00,7.523e+00,7.580e+00,9.264e+00,9.421e+00,6.269e+00,8.011e+00,6.844e+00,7.237e+00,6.546e+00,8.068e+00,7.802e+00,5.938e+00,7.180e+00,8.200e+00,8.008e+00,8.361e+00,7.942e+00,6.857e+00,5.815e+00,6.540e+00,7.781e+00,7.219e+00,5.981e+00
3.979e-01,8.548e-01,1.070e+00,1.025e+00,1.088e+00,1.913e+00,2.881e+00,2.416e+00,2.759e+00,2.981e+00,2.675e+00,3.148e+00,3.597e+00,3.767e+00,3.485e+00,4.753e+00,4.160e+00,3.391e+00,4.335e+00,3.413e+00,2.995e+00,3.268e+00,7.094e+00,6.028e+00,6.474e+00,6.950e+00,5.752e+00,6.273e+00,6.268e+00,6.603e+00,6.567e+00,7.899e+00,8.113e+00,7.781e+00,9.133e+00,6.836e+00,6.296e+00,7.277e+00,7.832e+00,8.764e+00,8.106e+00,8.365e+00,8.305e+00,7.384e+00,7.681e+00,7.959e+00,8.097e+00,7.040e+00,8.668e+00,9.346e+00,7.811e+00,8.330e+00,7.868e+00,8.147e+00,7.778e+00,6.991e+00,6.607e+00,7.675e+00,8.050e+00,7.199e+00,8.082e+00,8.450e+00,7.787e+00,7.246e+00,8.486e+00,7.272e+00,9.197e+00,8.356e+00,7.733e+00,9.746e+00,9.359e+00,6.841e+00,7.965e+00,6.662e+00,7.685e+00,7.815e+00,8.410e+00,7.837e+00,7.009e+00,7.676e+00,8.656e+00,7.689e+00,8.123e+00,7.596e+00,6.961e+00,6.003e+00,7.442e+00,9.146e+00,7.713e+00,7.069e+00
4.369e-01,7.584e-01,9.979e-01,9.597e-01,1.185e+00,2.536e+00,3.576e+00,2.797e+00,2.454e+00,3.039e+00,2.889e+00,3.395e+00,3.479e+00,3.740e+00,3.639e+00,5.171e+00,4.856e+00,4.333e+00,4.406e+00,5.059e+00,5.068e+00,3.664e+00,7.393e+00,5.921e+00,7.724e+00,8.177e+00,6.793e+00,6.919e+00,8.531e+00,8.807e+00,7.488e+00,8.216e+00,9.519e+00,1.008e+01,1.075e+01,8.476e+00,8.872e+00,8.950e+00,9.142e+00,8.938e+00,9.495e+00,9.740e+00,9.396e+00,9.169e+00,8.381e+00,9.360e+00,1.050e+01,8.345e+00,8.064e+00,1.161e+01,9.714e+00,9.371e+00,9.285e+00,9.384e+00,8.852e+00,7.237e+00,7.286e+00,9.411e+00,8.230e+00,8.611e+00,9.228e+00,8.922e+00,8.624e+00,8.996e+00,1.009e+01,8.497e+00,9.867e+00,1.061e+01,8.541e+00,1.133e+01,1.040e+01,7.671e+00,1.066e+01,8.133e+00,9.434e+00,8.166e+00,8.925e+00,9.357e+00,8.452e+00,9.884e+00,1.064e+01,8.888e+00,9.325e+00,9.175e+00,9.216e+00,8.153e+00,8.101e+00,1.043e+01,8.777e+00,8.618e+00
2.268e-01,7.723e-01,1.266e+00,1.100e+00,1.279e+00,2.531e+00,3.100e+00,2.600e+00,2.807e+00,3.012e+00,3.362e+00,4.354e+00,3.657e+00,4.218e+00,3.385e+00,4.116e+00,5.154e+00,4.453e+00,4.070e+00,4.818e+00,4.645e+00,3.627e+00,7.787e+00,6.329e+00,6.535e+00,8.351e+00,6.620e+00,7.361e+00,9.234e+00,8.289e+00,7.084e+00,7.570e+00,8.439e+00,1.066e+01,9.886e+00,8.424e+00,9.611e+00,8.671e+00,8.966e+00,1.024e+01,9.281e+00,9.866e+00,9.336e+00,8.800e+00,8.220e+00,9.536e+00,1.023e+01,7.451e+00,8.261e+00,1.097e+01,9.399e+00,1.074e+01,9.359e+00,9.615e+00,7.801e+00,7.804e+00,7.538e+00,9.248e+00,8.824e+00,7.591e+00,8.892e+00,8.722e+00,9.179e+00,8.965e+00,8.767e+00,9.699e+00,9.559e+00,1.019e+01,8.444e+00,1.189e+01,9.962e+00,8.405e+00,1.016e+01,7.474e+00,9.068e+00,8.298e+00,9.177e+00,1.047e+01,8.120e+00,9.481e+00,1.027e+01,8.352e+00,9.204e+00,8.679e+00,8.426e+00,6.669e+00,8.865e+00,1.162e+01,8.903e+00,8.045e+00
6.088e-02,6.587e-01,1.421e+00,1.116e+00,1.334e+00,1.341e+00,2.025e+00,1.545e+00,2.063e+00,1.935e+00,2.880e+00,3.071e+00,2.915e+00,3.894e+00,4.302e+00,4.936e+00,5.047e+00,4.867e+00,4.600e+00,3.569e+00,4.346e+00,4.238e+00,6.629e+00,5.616e+00,6.652e+00,6.685e+00,5.569e+00,5.405e+00,6.652e+00,6.462e+00,5.768e+00,6.481e+00,7.693e+00,8.170e+00,8.115e+00,7.335e+00,7.111e+00,7.176e+00,7.681e+00,8.210e+00,8.060e+00,8.870e+00,8.007e+00,7.128e+00,7.031e+00,8.132e+00,8.488e+00,7.793e+00,7.994e+00,9.425e+00,7.690e+00,8.809e+00,8.074e+00,7.927e+00,7.479e+00,7.263e+00,6.187e+00,8.673e+00,8.044e+00,6.017e+00,7.977e+00,8.208e+00,7.213e+00,7.213e+00,8.266e+00,8.585e+00,8.510e+00,7.104e+00,8.567e+00,9.523e+00,7.925e+00,7.410e+00,9.017e+00,6.066e+00,7.602e+00,8.506e+00,7.244e+00,7.961e+00,6.729e+00,9.443e+00,9.638e+00,8.284e+00,7.395e+00,8.495e+00,7.717e+00,6.123e+00,7.416e+00,8.552e+00,8.283e+00,8.115e+00
1.316e-01,4.221e-01,8.174e-01,7.100e-01,1.044e+00,1.576e+00,2.268e+00,1.941e+00,1.824e+00,2.355e+00,2.351e+00,2.781e+00,3.947e+00,4.063e+00,4.103e+00,4.454e+00,4.586e+00,3.800e+00,4.042e+00,4.262e+00,3.809e+00,3.504e+00,6.343e+00,5.587e+00,6.231e+00,7.133e+00,5.580e+00,6.902e+00,7.359e+00,6.898e+00,5.752e+00,7.083e+00,8.787e+00,9.097e+00,9.545e+00,8.515e+00,8.661e+00,8.411e+00,9.148e+00,1.044e+01,9.159e+00,1.054e+01,9.386e+00,9.218e+00,8.540e+00,9.893e+00,9.640e+00,8.836e+00,1.052e+01,1.113e+01,1.023e+01,1.064e+01,9.875e+00,1.010e+01,9.650e+00,8.010e+00,8.988e+00,1.040e+01,9.581e+00,8.585e+00,9.885e+00,9.151e+00,9.313e+00,9.236e+00,9.096e+00,9.821e+00,1.077e+01,9.176e+00,9.762e+00,1.099e+01,1.042e+01,8.613e+00,9.430e+00,9.035e+00,9.416e+00,8.339e+00,9.794e+00,1.072e+01,7.737e+00,8.635e+00,1.056e+01,9.608e+00,9.645e+00,8.425e+00,9.138e+00,7.650e+00,9.119e+00,1.136e+01,9.839e+00,8.780e+00
4.652e-01,1.200e+00,1.398e+00,1.324e+00,1.202e+00,2.786e+00,3.931e+00,2.724e+00,2.724e+00,3.249e+00,2.696e+00,3.516e+00,3.463e+00,3.311e+00,3.385e+00,4.847e+00,5.044e+00,3.985e+00,4.650e+00,4.275e+00,4.412e+00,4.109e+00,6.984e+00,5.327e+00,6.277e+00,6.998e+00,6.587e+00,6.171e+00,7.110e+00,7.320e+00,6.664e+00,8.223e+00,8.960e+00,8.850e+00,1.112e+01,8.782e+00,1.018e+01,1.089e+01,1.081e+01,1.047e+01,1.044e+01,1.061e+01,1.086e+01,1.018e+01,9.710e+00,1.065e+01,1.130e+01,9.980e+00,9.915e+00,1.130e+01,9.921e+00,1.089e+01,9.837e+00,1.161e+01,9.625e+00,8.766e+00,9.403e+00,1.044e+01,9.293e+00,9.024e+00,1.096e+01,1.024e+01,1.026e+01,1.078e+01,9.999e+00,9.008e+00,1.177e+01,9.680e+00,9.154e+00,1.196e+01,1.225e+01,8.461e+00,1.052e+01,1.129e+01,1.021e+01,9.286e+00,1.102e+01,1.101e+01,9.030e+00,1.070e+01,1.173e+01,1.048e+01,1.048e+01,1.130e+01,1.027e+01,8.812e+00,8.877e+00,1.252e+01,1.088e+01,1.027e+01
4.141e-01,7.297e-01,3.467e-01,5.495e-01,5.175e-01,1.451e+00,2.189e+00,1.974e+00,1.828e+00,2.712e+00,1.949e+00,2.180e+00,3.025e+00,2.662e+00,3.028e+00,3.932e+00,4.012e+00,2.894e+00,3.717e+00,5.037e+00,4.099e+00,2.600e+00,6.073e+00,5.218e+00,5.729e+00,6.334e+00,5.374e+00,6.549e+00,5.582e+00,6.251e+00,5.735e+00,5.940e+00,8.476e+00,7.125e+00,6.844e+00,6.108e+00,7.016e+00,6.273e+00,7.945e+00,7.759e+00,7.881e+00,9.181e+00,8.629e+00,9.222e+00,7.485e+00,8.619e+00,9.191e+00,7.808e+00,8.598e+00,1.039e+01,8.671e+00,7.488e+00,8.396e+00,6.526e+00,8.281e+00,7.194e+00,7.887e+00,7.886e+00,8.147e+00,7.877e+00,7.636e+00,7.415e+00,7.782e+00,8.860e+00,8.268e+00,7.650e+00,8.460e+00,8.442e+00,9.253e+00,9.861e+00,9.211e+00,7.385e+00,8.998e+00,7.259e+00,8.039e+00,6.507e+00,8.670e+00,9.511e+00,6.618e+00,6.904e+00,9.736e+00,7.677e+00,9.242e+00,7.323e+00,8.250e+00,6.460e+00,7.164e+00,8.648e+00,7.737e+00,6.323e+00
2.111e-01,4.327e-01,8.439e-01,6.782e-01,8.343e-01,1.416e+00,2.083e+00,1.684e+00,1.900e+00,2.407e+00,2.317e+00,2.309e+00,2.684e+00,2.739e+00,3.293e+00,4.099e+00,3.420e+00,3.162e+00,3.704e+00,3.238e+00,4.713e+00,3.556e+00,6.821e+00,5.841e+00,6.739e+00,6.902e+00,6.242e+00,6.552e+00,6.489e+00,7.162e+00,6.012e+00,6.834e+00,7.806e+00,8.803e+00,9.305e+00,7.607e+00,8.448e+00,8.172e+00,8.932e+00,9.077e+00,8.487e+00,9.428e+00,8.757e+00,8.471e+00,8.252e+00,1.050e+01,1.004e+01,9.018e+00,9.149e+00,1.032e+01,1.019e+01,9.563e+00,8.566e+00,9.501e+00,8.610e+00,7.680e+00,8.340e+00,9.509e+00,8.306e+00,7.815e+00,9.514e+00,8.491e+00,9.449e+00,8.261e+00,8.301e+00,8.497e+00,9.976e+00,9.900e+00,9.133e+00,1.045e+01,1.023e+01,7.155e+00,9.961e+00,8.444e+00,9.371e+00,7.581e+00,8.889e+00,9.415e+00,7.597e+00,9.456e+00,1.017e+01,8.732e+00,9.425e+00,8.978e+00,8.933e+00,6.852e+00,7.376e+00,1.088e+01,8.717e+00,7.923e+00
1.076e-01,6.673e-01,1.298e+00,1.010e+00,1.115e+00,1.388e+00,2.624e+00,2.165e+00,2.359e+00,2.930e+00,3.116e+00,3.757e+00,3.574e+00,4.094e+00,3.756e+00,5.170e+00,4.967e+00,4.416e+00,4.825e+00,3.956e+00,4.376e+00,3.929e+00,7.261e+00,6.319e+00,6.689e+00,6.980e+00,6.736e+00,6.621e+00,7.519e+00,8.009e+00,6.869e+00,8.061e+00,9.183e+00,9.029e+00,9.239e+00,8.579e+00,8.761e+00,8.440e+00,8.895e+00,1.005e+01,9.906e+00,1.138e+01,9.945e+00,9.421e+00,9.033e+00,1.076e+01,1.082e+01,9.573e+00,1.019e+01,1.262e+01,1.026e+01,1.087e+01,9.872e+00,1.063e+01,9.259e+00,9.668e+00,8.431e+00,1.099e+01,1.047e+01,8.727e+00,1.007e+01,1.113e+01,9.540e+00,1.079e+01,1.030e+01,9.142e+00,1.039e+01,1.005e+01,1.058e+01,1.263e+01,1.123e+01,8.542e+00,1.196e+01,8.966e+00,9.477e+00,9.216e+00,1.151e+01,1.107e+01,8.961e+00,1.054e+01,1.280e+01,9.705e+00,1.001e+01,9.809e+00,8.857e+00,7.356e+00,1.031e+01,1.142e+01,1.049e+01,8.523e+00
4.581e-01,8.031e-01,6.760e-01,7.962e-01,7.826e-01,2.342e+00,2.612e+00,2.034e+00,2.343e+00,2.760e+00,2.554e+00,2.864e+00,3.666e+00,3.411e+00,3.770e+00,4.890e+00,4.736e+00,3.535e+00,4.605e+00,4.810e+00,4.515e+00,3.494e+00,7.018e+00,6.094e+00,5.739e+00,6.400e+00,6.469e+00,7.433e+00,6.640e+00,7.458e+00,7.732e+00,7.958e+00,9.086e+00,8.934e+00,9.712e+00,8.085e+00,8.878e+00,7.761e+00,1.040e+01,1.018e+01,8.628e+00,1.077e+01,1.085e+01,1.026e+01,9.201e+00,1.026e+01,1.059e+01,1.001e+01,9.856e+00,1.184e+01,1.004e+01,1.097e+01,1.072e+01,1.111e+01,1.056e+01,1.007e+01,8.868e+00,1.062e+01,1.101e+01,1.033e+01,1.080e+01,9.795e+00,1.074e+01,1.089e+01,1.083e+01,1.093e+01,1.110e+01,9.777e+00,1.034e+01,1.193e+01,1.139e+01,8.539e+00,1.155e+01,9.375e+00,9.376e+00,9.533e+00,1.067e+01,1.139e+01,9.099e+00,1.030e+01,1.196e+01,9.597e+00,1.125e+01,1.104e+01,9.912e+00,8.050e+00,1.011e+01,1.174e+01,1.001e+01,9.198e+00
2.267e-01,8.588e-01,9.807e-01,8.999e-01,6.403e-01,1.094e+00,2.103e+00,1.657e+00,2.104e+00,2.719e+00,1.566e+00,2.465e+00,2.621e+00,2.977e+00,3.646e+00,5.025e+00,3.725e+00,3.656e+00,4.473e+00,4.152e+00,4.808e+00,3.799e+00,6.387e+00,5.781e+00,7.597e+00,6.569e+00,6.433e+00,6.050e+00,7.484e+00,7.423e+00,6.001e+00,7.036e+00,8.643e+00,8.784e+00,9.742e+00,8.441e+00,8.845e+00,8.620e+00,9.466e+00,9.168e+00,1.095e+01,1.166e+01,1.160e+01,1.111e+01,9.913e+00,1.218e+01,1.149e+01,1.158e+01,9.967e+00,1.381e+01,1.208e+01,1.114e+01,9.874e+00,1.093e+01,1.103e+01,9.304e+00,9.474e+00,1.210e+01,9.952e+00,1.075e+01,1.132e+01,1.079e+01,1.095e+01,1.154e+01,1.035e+01,9.927e+00,1.128e+01,1.010e+01,1.148e+01,1.191e+01,1.280e+01,9.544e+00,1.172e+01,9.738e+00,1.124e+01,1.046e+01,1.092e+01,1.150e+01,1.014e+01,1.020e+01,1.261e+01,1.148e+01,1.165e+01,1.118e+01,1.012e+01,8.206e+00,9.215e+00,1.105e+01,1.200e+01,1.129e+01
4.613e-01,1.137e+00,1.067e+00,1.051e+00,8.164e-01,2.162e+00,3.224e+00,2.421e+00,2.387e+00,3.205e+00,2.949e+00,3.269e+00,3.095e+00,3.239e+00,2.898e+00,3.918e+00,4.862e+00,3.387e+00,3.949e+00,4.061e+00,3.890e+00,3.175e+00,7.101e+00,6.089e+00,5.594e+00,6.695e+00,6.293e+00,6.507e+00,6.521e+00,6.720e+00,6.412e+00,7.366e+00,8.648e+00,8.656e+00,9.334e+00,8.095e+00,9.638e+00,9.348e+00,1.025e+01,1.088e+01,1.037e+01,1.314e+01,1.207e+01,1.323e+01,1.092e+01,1.321e+01,1.216e+01,1.165e+01,1.166e+01,1.358e+01,1.138e+01,1.223e+01,1.197e+01,1.346e+01,1.178e+01,1.157e+01,1.141e+01,1.265e+01,1.205e+01,1.202e+01,1.220e+01,1.268e+01,1.210e+01,1.252e+01,1.087e+01,1.081e+01,1.275e+01,1.106e+01,1.212e+01,1.376e+01,1.419e+01,9.921e+00,1.355e+01,1.224e+01,1.068e+01,1.024e+01,1.233e+01,1.344e+01,1.112e+01,1.040e+01,1.356e+01,1.165e+01,1.304e+01,1.237e+01,1.160e+01,9.145e+00,1.159e+01,1.424e+01,1.221e+01,1.099e+01
7.725e-02,5.940e-01,7.436e-01,6.447e-01,3.886e-01,1.463e+00,1.752e+00,1.199e+00,1.441e+00,1.890e+00,1.412e+00,2.650e+00,2.648e+00,2.631e+00,2.630e+00,3.654e+00,3.781e+00,3.049e+00,3.537e+00,3.539e+00,3.985e+00,2.933e+00,5.400e+00,5.170e+00,5.008e+00,5.991e+00,5.249e+00,5.491e+00,6.956e+00,6.559e+00,6.128e+00,7.089e+00,7.693e+00,8.335e+00,9.528e+00,8.295e+00,8.628e+00,7.797e+00,9.131e+00,8.835e+00,8.880e+00,1.038e+01,9.727e+00,1.037e+01,1.068e+01,1.123e+01,1.133e+01,1.072e+01,9.719e+00,1.240e+01,1.005e+01,1.051e+01,1.034e+01,1.138e+01,1.048e+01,1.111e+01,8.714e+00,9.737e+00,1.099e+01,9.788e+00,1.035e+01,1.121e+01,1.085e+01,1.084e+01,1.044e+01,1.050e+01,1.166e+01,9.978e+00,1.151e+01,1.252e+01,1.219e+01,8.911e+00,1.170e+01,1.008e+01,1.077e+01,9.997e+00,1.118e+01,1.064e+01,1.033e+01,1.005e+01,1.170e+01,1.163e+01,1.170e+01,1.222e+01,1.010e+01,8.542e+00,9.295e+00,1.260e+01,1.125e+01,9.187e+00
2.223e-01,1.020e+00,1.115e+00,1.127e+00,9.022e-01,2.142e+00,2.288e+00,1.738e+00,2.871e+00,2.618e+00,2.498e+00,3.469e+00,2.818e+00,3.728e+00,3.372e+00,4.405e+00,4.776e+00,3.714e+00,4.365e+00,4.443e+00,4.550e+00,3.952e+00,7.229e+00,6.123e+00,5.899e+00,6.817e+00,6.419e+00,6.388e+00,8.478e+00,8.081e+00,7.644e+00,8.787e+00,9.688e+00,1.059e+01,1.165e+01,9.746e+00,1.021e+01,8.983e+00,1.191e+01,1.080e+01,1.147e+01,1.235e+01,1.289e+01,1.308e+01,1.174e+01,1.467e+01,1.343e+01,1.331e+01,1.216e+01,1.577e+01,1.303e+01,1.377e+01,1.204e+01,1.313e+01,1.181e+01,1.325e+01,1.181e+01,1.292e+01,1.306e+01,1.158e+01,1.358e+01,1.425e+01,1.354e+01,1.294e+01,1.195e+01,1.289e+01,1.438e+01,1.280e+01,1.250e+01,1.527e+01,1.507e+01,1.135e+01,1.388e+01,1.209e+01,1.262e+01,1.191e+01,1.336e+01,1.333e+01,1.345e+01,1.161e+01,1.376e+01,1.278e+01,1.384e+01,1.449e+01,1.287e+01,9.965e+00,1.231e+01,1.557e+01,1.362e+01,1.276e+01
2.887e-01,6.191e-01,9.978e-01,7.980e-01,8.597e-01,1.930e+00,2.572e+00,1.995e+00,1.608e+00,2.281e+00,2.020e+00,2.696e+00,3.370e+00,3.022e+00,3.447e+00,4.128e+00,4.302e+00,3.997e+00,3.844e+00,3.986e+00,4.068e+00,2.748e+00,5.928e+00,5.587e+00,6.089e+00,7.121e+00,5.424e+00,7.019e+00,7.655e+00,7.717e+00,6.289e+00,6.948e+00,7.943e+00,9.078e+00,9.546e+00,8.596e+00,8.715e+00,7.545e+00,1.014e+01,1.017e+01,8.186e+00,1.168e+01,1.230e+01,1.177e+01,1.171e+01,1.430e+01,1.185e+01,1.396e+01,1.184e+01,1.484e+01,1.403e+01,1.268e+01,1.314e+01,1.458e+01,1.347e+01,1.214e+01,1.126e+01,1.352e+01,1.357e+01,1.293e+01,1.420e+01,1.331e+01,1.341e+01,1.190e+01,1.244e+01,1.369e+01,1.448e+01,1.288e+01,1.367e+01,1.385e+01,1.579e+01,1.013e+01,1.455e+01,1.282e+01,1.424e+01,1.217e+01,1.394e+01,1.258e+01,1.270e+01,1.140e+01,1.373e+01,1.450e+01,1.474e+01,1.419e+01,1.362e+01,1.053e+01,1.104e+01,1.481e+01,1.277e+01,1.169e+01
4.700e-01,1.082e+00,6.416e-01,8.066e-01,4.225e-01,2.050e+00,2.720e+00,2.170e+00,2.668e+00,3.561e+00,3.285e+00,3.456e+00,3.288e+00,4.202e+00,3.399e+00,4.547e+00,5.242e+00,3.175e+00,4.115e+00,4.255e+00,3.845e+00,3.342e+00,6.648e+00,5.741e+00,5.459e+00,6.689e+00,6.226e+00,6.573e+00,6.493e+00,7.406e+00,6.404e+00,7.663e+00,8.172e+00,8.251e+00,9.298e+00,7.044e+00,8.782e+00,8.573e+00,1.027e+01,9.718e+00,9.286e+00,9.735e+00,1.116e+01,1.195e+01,1.072e+01,1.151e+01,1.245e+01,1.135e+01,1.072e+01,1.382e+01,1.182e+01,1.085e+01,1.169e+01,1.200e+01,1.125e+01,1.007e+01,9.843e+00,1.085e+01,1.148e+01,1.044e+01,1.083e+01,1.250e+01,1.227e+01,1.102e+01,1.104e+01,1.121e+01,1.203e+01,1.039e+01,1.219e+01,1.334e+01,1.284e+01,9.660e+00,1.305e+01,1.054e+01,1.204e+01,1.072e+01,1.300e+01,1.260e+01,1.080e+01,1.046e+01,1.179e+01,1.157e+01,1.256e+01,1.267e+01,1.127e+01,8.530e+00,1.052e+01,1.330e+01,1.213e+01,1.022e+01
4.037e-01,9.470e-01,1.104e+00,1.099e+00,1.124e+00,2.361e+00,2.855e+00,2.268e+00,2.998e+00,2.990e+00,2.891e+00,2.986e+00,2.864e+00,3.188e+00,3.258e+00,4.537e+00,4.433e+00,3.428e+00,4.351e+00,4.176e+00,4.711e+00,3.959e+00,7.453e+00,5.798e+00,5.746e+00,7.362e+00,6.507e+00,7.075e+00,7.173e+00,7.733e+00,7.457e+00,8.348e+00,9.221e+00,9.888e+00,1.132e+01,9.169e+00,1.011e+01,9.563e+00,1.082e+01,1.090e+01,1.020e+01,1.155e+01,1.199e+01,1.177e+01,1.067e+01,1.212e+01,1.185e+01,1.272e+01,1.272e+01,1.455e+01,1.316e+01,1.222e+01,1.190e+01,1.430e+01,1.154e+01,1.242e+01,1.221e+01,1.231e+01,1.320e+01,1.133e+01,1.242e+01,1.289e+01,1.322e+01,1.173e+01,1.187e+01,1.224e+01,1.473e+01,1.186e+01,1.143e+01,1.399e+01,1.400e+01,9.376e+00,1.254e+01,1.111e+01,1.196e+01,1.036e+01,1.272e+01,1.361e+01,1.076e+01,1.199e+01,1.228e+01,1.182e+01,1.317e+01,1.320e+01,1.184e+01,9.353e+00,1.109e+01,1.536e+01,1.300e+01,1.187e+01
3.347e-01,1.177e+00,1.471e+00,1.327e+00,1.149e+00,2.397e+00,3.128e+00,2.130e+00,2.789e+00,3.289e+00,3.769e+00,3.937e+00,3.016e+00,3.518e+00,3.376e+00,3.729e+00,4.570e+00,3.688e+00,4.169e+00,3.879e+00,3.851e+00,3.652e+00,6.355e+00,5.857e+00,5.728e+00,6.343e+00,4.863e+00,5.769e+00,6.046e+00,6.648e+00,6.599e+00,7.178e+00,8.547e+00,8.414e+00,9.298e+00,7.837e+00,7.801e+00,8.427e+00,8.745e+00,9.709e+00,8.883e+00,1.060e+01,9.460e+00,1.086e+01,9.834e+00,1.163e+01,1.096e+01,9.957e+00,1.127e+01,1.207e+01,1.156e+01,1.094e+01,1.014e+01,1.269e+01,1.224e+01,1.149e+01,9.227e+00,1.145e+01,1.235e+01,1.091e+01,1.041e+01,1.200e+01,1.083e+01,1.032e+01,1.175e+01,1.128e+01,1.270e+01,1.211e+01,1.216e+01,1.294e+01,1.195e+01,8.749e+00,1.249e+01,1.086e+01,1.024e+01,1.071e+01,1.222e+01,1.267e+01,1.103e+01,1.187e+01,1.271e+01,1.236e+01,1.168e+01,1.238e+01,1.168e+01,8.848e+00,1.042e+01,1.373e+01,1.138e+01,1.064e+01
4.254e-01,9.371e-01,1.161e+00,1.137e+00,1.234e+00,2.541e+00,2.944e+00,2.526e+00,3.169e+00,3.383e+00,2.930e+00,3.468e+00,3.798e+00,3.344e+00,3.658e+00,4.689e+00,4.201e+00,3.971e+00,4.952e+00,4.784e+00,4.485e+00,3.663e+00,7.226e+00,6.238e+00,7.107e+00,8.067e+00,5.903e+00,7.203e+00,8.218e+00,7.962e+00,7.122e+00,8.038e+00,9.051e+00,9.830e+00,1.068e+01,9.097e+00,9.116e+00,9.001e+00,1.041e+01,1.030e+01,1.036e+01,1.215e+01,1.139e+01,1.065e+01,1.126e+01,1.238e+01,1.201e+01,1.166e+01,1.249e+01,1.504e+01,1.429e+01,1.297e+01,1.313e+01,1.403e+01,1.230e+01,1.271e+01,1.175e+01,1.398e+01,1.464e+01,1.188e+01,1.341e+01,1.224e+01,1.458e+01,1.224e+01,1.364e+01,1.353e+01,1.450e+01,1.369e+01,1.369e+01,1.448e+01,1.432e+01,1.085e+01,1.287e+01,1.089e+01,1.292e+01,1.242e+01,1.448e+01,1.394e+01,1.161e+01,1.289e+01,1.353e+01,1.332e+01,1.429e+01,1.338e+01,1.236e+01,1.007e+01,1.214e+01,1.515e+01,1.252e+01,1.212e+01
3.872e-01,1.311e+00,1.151e+00,1.209e+00,7.416e-01,1.933e+00,2.776e+00,1.979e+00,2.673e+00,2.882e+00,2.245e+00,3.225e+00,2.710e+00,3.278e+00,2.941e+00,4.010e+00,4.325e+00,3.209e+00,4.032e+00,4.610e+00,4.290e+00,3.942e+00,7.295e+00,6.288e+00,6.667e+00,6.335e+00,6.058e+00,5.322e+00,7.136e+00,6.396e+00,6.974e+00,7.780e+00,8.337e+00,8.087e+00,9.610e+00,8.260e+00,8.370e+00,8.108e+00,8.597e+00,9.455e+00,1.124e+01,1.095e+01,1.028e+01,1.053e+01,9.600e+00,1.183e+01,1.158e+01,1.194e+01,1.098e+01,1.471e+01,1.357e+01,1.139e+01,1.204e+01,1.268e+01,1.117e+01,1.211e+01,1.145e+01,1.274e+01,1.172e+01,1.244e+01,1.205e+01,1.281e+01,1.222e+01,1.090e+01,1.170e+01,1.129e+01,1.391e+01,1.343e+01,1.296e+01,1.286e+01,1.276e+01,1.091e+01,1.453e+01,1.019e+01,1.248e+01,1.162e+01,1.249e+01,1.256e+01,1.106e+01,1.167e+01,1.271e+01,1.277e+01,1.305e+01,1.348e+01,1.211e+01,1.137e+01,1.241e+01,1.514e+01,1.259e+01,1.251e+01
9.754e-02,3.009e-01,3.109e-01,3.275e-01,2.960e-01,9.433e-01,1.655e+00,1.193e+00,1.292e+00,2.166e+00,1.730e+00,2.064e+00,2.545e+00,3.173e+00,3.006e+00,4.213e+00,3.231e+00,2.406e+00,3.330e+00,3.396e+00,3.791e+00,3.156e+00,5.410e+00,4.734e+00,4.921e+00,4.731e+00,5.235e+00,5.811e+00,5.778e+00,6.140e+00,6.311e+00,7.594e+00,8.049e+00,7.427e+00,8.374e+00,7.371e+00,7.832e+00,7.111e+00,8.540e+00,8.094e+00,8.369e+00,9.716e+00,9.996e+00,1.120e+01,8.943e+00,1.022e+01,1.139e+01,1.148e+01,1.047e+01,1.341e+01,1.317e+01,1.298e+01,1.287e+01,1.285e+01,1.254e+01,1.280e+01,1.089e+01,1.245e+01,1.302e+01,1.186e+01,1.160e+01,1.165e+01,1.311e+01,1.162e+01,1.289e+01,1.313e+01,1.364e+01,1.333e+01,1.379e+01,1.337e+01,1.322e+01,1.084e+01,1.420e+01,1.192e+01,1.265e+01,1.204e+01,1.423e+01,1.225e+01,1.141e+01,1.136e+01,1.346e+01,1.320e+01,1.445e+01,1.444e+01,1.264e+01,1.082e+01,1.291e+01,1.439e+01,1.345e+01,1.209e+01
2.837e-01,8.690e-01,1.217e+00,1.006e+00,9.475e-01,1.574e+00,2.533e+00,1.908e+00,2.093e+00,2.910e+00,3.374e+00,3.286e+00,3.615e+00,3.701e+00,3.793e+00,3.946e+00,4.539e+00,3.493e+00,4.044e+00,3.327e+00,3.107e+00,3.422e+00,5.664e+00,5.739e+00,6.296e+00,6.617e+00,5.628e+00,6.621e+00,7.073e+00,7.016e+00,6.431e+00,7.953e+00,8.877e+00,8.900e+00,1.039e+01,8.823e+00,8.779e+00,8.919e+00,9.899e+00,1.067e+01,9.550e+00,1.214e+01,1.207e+01,1.243e+01,1.173e+01,1.309e+01,1.285e+01,1.234e+01,1.407e+01,1.395e+01,1.332e+01,1.420e+01,1.341e+01,1.518e+01,1.492e+01,1.277e+01,1.148e+01,1.460e+01,1.504e+01,1.265e+01,1.353e+01,1.495e+01,1.508e+01,1.235e+01,1.422e+01,1.351e+01,1.522e+01,1.344e+01,1.515e+01,1.597e+01,1.525e+01,1.157e+01,1.505e+01,1.333e+01,1.358e+01,1.339e+01,1.557e+01,1.366e+01,1.304e+01,1.333e+01,1.517e+01,1.577e+01,1.526e+01,1.479e+01,1.425e+01,1.150e+01,1.284e+01,1.584e+01,1.505e+01,1.384e+01
1.834e-01,1.010e+00,1.279e+00,1.089e+00,7.615e-01,2.026e+00,3.065e+00,2.414e+00,2.923e+00,3.723e+00,3.067e+00,4.199e+00,3.697e+00,4.687e+00,4.290e+00,6.109e+00,5.813e+00,4.577e+00,5.390e+00,4.511e+00,5.530e+00,4.715e+00,8.073e+00,7.451e+00,7.340e+00,8.036e+00,7.271e+00,6.952e+00,8.841e+00,9.259e+00,8.082e+00,9.118e+00,9.714e+00,1.081e+01,1.267e+01,1.061e+01,1.155e+01,1.112e+01,1.087e+01,1.222e+01,1.161e+01,1.376e+01,1.265e+01,1.205e+01,1.155e+01,1.404e+01,1.399e+01,1.316e+01,1.271e+01,1.746e+01,1.521e+01,1.562e+01,1.424e+01,1.689e+01,1.442e+01,1.410e+01,1.256e+01,1.538e+01,1.552e+01,1.316e+01,1.390e+01,1.497e+01,1.559e+01,1.482e+01,1.545e+01,1.468e+01,1.532e+01,1.399e+01,1.580e+01,1.687e+01,1.528e+01,1.369e+01,1.661e+01,1.342e+01,1.409e+01,1.431e+01,1.558e+01,1.510e+01,1.336e+01,1.592e+01,1.684e+01,1.502e+01,1.529e+01,1.643e+01,1.316e+01,1.149e+01,1.496e+01,1.759e+01,1.620e+01,1.414e+01
2.791e-01,9.683e-01,8.642e-01,8.658e-01,5.746e-01,1.546e+00,2.041e+00,1.423e+00,1.991e+00,2.782e+00,3.204e+00,3.027e+00,2.536e+00,3.008e+00,3.379e+00,4.325e+00,5.093e+00,3.900e+00,4.588e+00,4.731e+00,5.100e+00,3.711e+00,7.036e+00,6.616e+00,6.424e+00,7.097e+00,5.943e+00,6.389e+00,6.137e+00,6.935e+00,6.971e+00,7.464e+00,9.971e+00,8.798e+00,8.898e+00,8.233e+00,9.444e+00,8.345e+00,9.514e+00,1.028e+01,9.639e+00,1.284e+01,1.161e+01,1.318e+01,1.126e+01,1.425e+01,1.269e+01,1.218e+01,1.408e+01,1.505e+01,1.356e+01,1.328e+01,1.301e+01,1.507e+01,1.543e+01,1.465e+01,1.415e+01,1.373e+01,1.443e+01,1.309e+01,1.374e+01,1.598e+01,1.557e+01,1.389e+01,1.507e+01,1.434e+01,1.560e+01,1.345e+01,1.641e+01,1.522e+01,1.516e+01,1.184e+01,1.603e+01,1.440e+01,1.340e+01,1.359e+01,1.401e+01,1.469e+01,1.337e+01,1.345e+01,1.547e+01,1.545e+01,1.574e+01,1.620e+01,1.417e+01,1.075e+01,1.448e+01,1.666e+01,1.603e+01,1.291e+01
3.587e-01,5.933e-01,2.353e-01,4.933e-01,6.013e-01,1.609e+00,1.761e+00,1.422e+00,1.911e+00,2.400e+00,2.792e+00,1.998e+00,2.699e+00,3.899e+00,3.600e+00,3.992e+00,4.336e+00,3.115e+00,3.545e+00,3.658e+00,4.196e+00,3.564e+00,5.315e+00,4.267e+00,6.031e+00,5.648e+00,5.235e+00,4.509e+00,4.973e+00,6.585e+00,4.842e+00,6.364e+00,7.094e+00,7.145e+00,8.096e+00,5.476e+00,7.390e+00,6.250e+00,8.454e+00,7.102e+00,8.138e+00,9.176e+00,8.697e+00,9.687e+00,8.594e+00,9.888e+00,9.287e+00,1.034e+01,9.964e+00,1.202e+01,1.327e+01,1.188e+01,1.109e+01,1.275e+01,1.164e+01,1.121e+01,1.078e+01,1.241e+01,1.111e+01,9.701e+00,1.227e+01,1.282e+01,1.225e+01,9.924e+00,1.144e+01,1.142e+01,1.294e+01,1.126e+01,1.302e+01,1.168e+01,1.287e+01,1.049e+01,1.347e+01,1.134e+01,1.222e+01,1.109e+01,1.392e+01,1.210e+01,1.107e+01,1.115e+01,1.259e+01,1.363e+01,1.339e+01,1.333e+01,1.193e+01,9.000e+00,1.351e+01,1.276e+01,1.251e+01,1.079e+01
1.664e-01,4.776e-01,1.069e+00,9.327e-01,1.411e+00,1.931e+00,2.462e+00,2.170e+00,2.235e+00,2.061e+00,2.286e+00,2.936e+00,3.194e+00,3.123e+00,3.061e+00,4.216e+00,4.214e+00,4.235e+00,4.171e+00,4.239e+00,4.128e+00,3.676e+00,6.904e+00,5.539e+00,5.768e+00,7.001e+00,6.422e+00,7.001e+00,6.992e+00,7.040e+00,7.224e+00,7.522e+00,8.108e+00,8.607e+00,8.016e+00,6.755e+00,7.570e+00,6.589e+00,9.100e+00,8.862e+00,8.837e+00,9.831e+00,8.989e+00,1.030e+01,9.417e+00,1.121e+01,1.047e+01,1.148e+01,1.053e+01,1.324e+01,1.139e+01,1.137e+01,1.017e+01,1.121e+01,1.022e+01,1.070e+01,1.182e+01,1.213e+01,1.203e+01,1.049e+01,1.277e+01,1.205e+01,1.329e+01,1.174e+01,1.244e+01,1.179e+01,1.363e+01,1.249e+01,1.253e+01,1.401e+01,1.430e+01,1.073e+01,1.157e+01,1.119e+01,1.203e+01,1.032e+01,1.299e+01,1.224e+01,1.147e+01,1.148e+01,1.262e+01,1.217e+01,1.269e+01,1.145e+01,1.200e+01,9.287e+00,1.121e+01,1.292e+01,1.258e+01,1.107e+01
2.192e-02,2.840e-01,6.031e-01,5.765e-01,8.688e-01,1.972e+00,2.296e+00,1.643e+00,1.915e+00,2.560e+00,2.877e+00,3.224e+00,3.592e+00,4.403e+00,4.578e+00,5.448e+00,5.158e+00,4.094e+00,4.684e+00,4.909e+00,5.589e+00,4.697e+00,7.573e+00,6.407e+00,7.325e+00,6.968e+00,6.394e+00,7.882e+00,8.353e+00,8.439e+00,7.689e+00,8.268e+00,9.603e+00,1.049e+01,1.121e+01,1.012e+01,1.027e+01,9.534e+00,1.243e+01,1.140e+01,1.080e+01,1.269e+01,1.276e+01,1.239e+01,1.157e+01,1.392e+01,1.460e+01,1.393e+01,1.439e+01,1.757e+01,1.558e+01,1.564e+01,1.504e+01,1.619e+01,1.533e+01,1.511e+01,1.510e+01,1.657e+01,1.639e+01,1.587e+01,1.620e+01,1.545e+01,1.825e+01,1.714e+01,1.715e+01,1.652e+01,1.837e+01,1.745e+01,1.746e+01,1.743e+01,1.762e+01,1.504e+01,1.815e+01,1.434e+01,1.544e+01,1.631e+01,1.793e+01,1.724e+01,1.589e+01,1.644e+01,1.907e+01,1.683e+01,1.715e+01,1.761e+01,1.589e+01,1.384e+01,1.629e+01,1.896e+01,1.817e+01,1.608e+01
8.416e-03,5.757e-01,1.235e+00,9.072e-01,8.699e-01,1.302e+00,2.268e+00,2.057e+00,2.628e+00,3.408e+00,2.879e+00,4.123e+00,4.035e+00,4.784e+00,4.463e+00,5.895e+00,4.706e+00,4.669e+00,5.262e+00,4.418e+00,4.749e+00,4.301e+00,7.823e+00,7.277e+00,7.178e+00,8.001e+00,7.028e+00,8.315e+00,9.843e+00,8.888e+00,7.632e+00,9.451e+00,1.004e+01,1.089e+01,1.118e+01,1.079e+01,1.088e+01,1.025e+01,1.119e+01,1.215e+01,1.158e+01,1.234e+01,1.277e+01,1.270e+01,1.200e+01,1.436e+01,1.438e+01,1.421e+01,1.353e+01,1.688e+01,1.519e+01,1.499e+01,1.382e+01,1.565e+01,1.497e+01,1.458e+01,1.419e+01,1.655e+01,1.712e+01,1.652e+01,1.716e+01,1.618e+01,1.886e+01,1.705e+01,1.852e+01,1.734e+01,1.904e+01,1.783e+01,1.738e+01,1.897e+01,1.910e+01,1.556e+01,1.821e+01,1.559e+01,1.739e+01,1.734e+01,1.893e+01,1.753e+01,1.662e+01,1.619e+01,1.819e+01,1.821e+01,1.873e+01,1.764e+01,1.534e+01,1.386e+01,1.708e+01,1.860e+01,1.922e+01,1.535e+01
1.165e-01,2.039e-01,5.629e-01,5.393e-01,1.063e+00,2.059e+00,2.350e+00,2.292e+00,2.475e+00,2.974e+00,3.515e+00,3.735e+00,3.477e+00,4.098e+00,3.078e+00,4.192e+00,4.312e+00,4.006e+00,4.024e+00,3.578e+00,3.447e+00,3.435e+00,6.955e+00,6.123e+00,6.549e+00,7.944e+00,5.456e+00,6.570e+00,7.627e+00,8.086e+00,6.914e+00,8.143e+00,9.242e+00,9.647e+00,1.096e+01,8.867e+00,8.809e+00,8.935e+00,1.018e+01,9.931e+00,1.044e+01,1.156e+01,1.039e+01,1.239e+01,1.148e+01,1.370e+01,1.334e+01,1.108e+01,1.261e+01,1.415e+01,1.278e+01,1.253e+01,1.222e+01,1.471e+01,1.368e+01,1.347e+01,1.289e+01,1.410e+01,1.435e+01,1.507e+01,1.596e+01,1.574e+01,1.592e+01,1.458e+01,1.574e+01,1.372e+01,1.743e+01,1.677e+01,1.679e+01,1.736e+01,1.580e+01,1.296e+01,1.632e+01,1.335e+01,1.374e+01,1.428e+01,1.582e+01,1.561e+01,1.376e+01,1.422e+01,1.549e+01,1.706e+01,1.619e+01,1.537e+01,1.412e+01,1.200e+01,1.483e+01,1.801e+01,1.654e+01,1.362e+01
1.786e-01,9.994e-01,1.019e+00,9.931e-01,6.148e-01,1.525e+00,1.831e+00,1.165e+00,1.905e+00,2.018e+00,2.032e+00,2.902e+00,2.525e+00,2.917e+00,3.310e+00,2.991e+00,4.047e+00,2.694e+00,3.091e+00,3.945e+00,3.326e+00,3.123e+00,4.811e+00,4.856e+00,4.970e+00,4.893e+00,4.679e+00,5.083e+00,5.739e+00,6.212e+00,6.471e+00,6.500e+00,7.947e+00,7.820e+00,8.688e+00,7.217e+00,7.957e+00,7.074e+00,1.012e+01,9.573e+00,1.002e+01,1.142e+01,1.107e+01,1.175e+01,1.080e+01,1.352e+01,1.093e+01,1.215e+01,1.198e+01,1.515e+01,1.372e+01,1.334e+01,1.234e+01,1.424e+01,1.344e+01,1.462e+01,1.368e+01,1.447e+01,1.574e+01,1.408e+01,1.687e+01,1.618e+01,1.726e+01,1.563e+01,1.661e+01,1.564e+01,1.696e+01,1.370e+01,1.578e+01,1.577e+01,1.806e+01,1.292e+01,1.725e+01,1.475e+01,1.570e+01,1.551e+01,1.656e+01,1.446e+01,1.647e+01,1.396e+01,1.619e+01,1.652e+01,1.634e+01,1.670e+01,1.540e+01,1.431e+01,1.579e+01,1.612e+01,1.648e+01,1.548e+01
7.415e-02,3.788e-01,7.839e-01,6.935e-01,1.100e+00,1.813e+00,2.363e+00,2.047e+00,1.974e+00,2.548e+00,2.961e+00,3.314e+00,3.610e+00,3.674e+00,3.544e+00,4.353e+00,5.108e+00,4.258e+00,4.373e+00,4.791e+00,5.044e+00,3.757e+00,7.017e+00,5.964e+00,6.382e+00,7.341e+00,6.084e+00,6.981e+00,6.678e+00,7.302e+00,7.046e+00,7.946e+00,9.144e+00,9.225e+00,8.683e+00,7.782e+00,8.946e+00,7.489e+00,9.560e+00,1.030e+01,9.355e+00,1.230e+01,1.008e+01,1.188e+01,1.109e+01,1.294e+01,1.290e+01,1.246e+01,1.354e+01,1.508e+01,1.394e+01,1.371e+01,1.426e+01,1.483e+01,1.527e+01,1.433e+01,1.379e+01,1.438e+01,1.577e+01,1.376e+01,1.472e+01,1.585e+01,1.588e+01,1.491e+01,1.651e+01,1.646e+01,1.641e+01,1.605e+01,1.893e+01,1.787e+01,1.710e+01,1.474e+01,1.762e+01,1.499e+01,1.646e+01,1.608e+01,1.724e+01,1.551e+01,1.430e+01,1.596e+01,1.676e+01,1.641e+01,1.728e+01,1.714e+01,1.499e+01,1.406e+01,1.607e+01,1.715e+01,1.636e+01,1.445e+01
2.775e-01,5.882e-01,8.471e-01,7.689e-01,9.677e-01,1.939e+00,2.931e+00,2.794e+00,2.605e+00,3.237e+00,2.682e+00,3.670e+00,4.077e+00,4.370e+00,3.876e+00,4.921e+00,4.832e+00,3.966e+00,4.059e+00,4.511e+00,4.322e+00,3.973e+00,7.462e+00,6.120e+00,7.130e+00,8.023e+00,7.235e+00,7.636e+00,8.287e+00,7.781e+00,7.286e+00,8.138e+00,8.434e+00,9.574e+00,1.071e+01,8.646e+00,1.005e+01,9.657e+00,1.200e+01,1.143e+01,1.134e+01,1.120e+01,1.256e+01,1.300e+01,1.117e+01,1.294e+01,1.312e+01,1.371e+01,1.237e+01,1.504e+01,1.389e+01,1.453e+01,1.343e+01,1.516e+01,1.535e+01,1.313e+01,1.381e+01,1.544e+01,1.550e+01,1.425e+01,1.609e+01,1.501e+01,1.821e+01,1.567e+01,1.721e+01,1.553e+01,1.656e+01,1.618e+01,1.759e+01,1.810e+01,1.710e+01,1.451e+01,1.721e+01,1.513e+01,1.778e+01,1.566e+01,1.730e+01,1.594e+01,1.532e+01,1.571e+01,1.761e+01,1.769e+01,1.677e+01,1.667e+01,1.626e+01,1.445e+01,1.506e+01,1.754e+01,1.835e+01,1.664e+01
1.515e-01,6.141e-01,8.112e-01,6.706e-01,4.737e-01,6.135e-01,1.622e+00,1.442e+00,1.953e+00,2.763e+00,2.155e+00,2.594e+00,2.595e+00,3.332e+00,3.373e+00,4.620e+00,3.236e+00,3.089e+00,3.945e+00,3.145e+00,3.330e+00,3.166e+00,5.824e+00,5.843e+00,5.486e+00,5.835e+00,5.868e+00,6.383e+00,6.611e+00,7.299e+00,6.566e+00,8.182e+00,8.944e+00,8.914e+00,9.942e+00,8.614e+00,8.553e+00,8.005e+00,1.007e+01,9.594e+00,9.765e+00,1.108e+01,1.104e+01,1.232e+01,1.053e+01,1.274e+01,1.229e+01,1.247e+01,1.205e+01,1.512e+01,1.319e+01,1.356e+01,1.179e+01,1.419e+01,1.390e+01,1.374e+01,1.291e+01,1.352e+01,1.485e+01,1.506e+01,1.491e+01,1.583e+01,1.685e+01,1.659e+01,1.623e+01,1.592e+01,1.796e+01,1.708e+01,1.663e+01,1.813e+01,1.847e+01,1.347e+01,1.778e+01,1.491e+01,1.577e+01,1.455e+01,1.600e+01,1.544e+01,1.555e+01,1.447e+01,1.657e+01,1.715e+01,1.817e+01,1.657e+01,1.691e+01,1.390e+01,1.495e+01,1.745e+01,1.833e+01,1.552e+01
1.752e-01,7.432e-01,8.445e-01,8.350e-01,6.903e-01,1.922e+00,2.209e+00,1.679e+00,2.558e+00,2.896e+00,3.005e+00,3.574e+00,3.343e+00,4.636e+00,4.362e+00,4.525e+00,4.891e+00,3.449e+00,3.889e+00,3.951e+00,4.826e+00,4.426e+00,6.928e+00,5.863e+00,6.864e+00,6.140e+00,5.668e+00,5.655e+00,6.900e+00,7.077e+00,6.468e+00,6.881e+00,7.322e+00,8.109e+00,9.439e+00,7.799e+00,8.761e+00,8.529e+00,9.835e+00,9.912e+00,9.428e+00,9.678e+00,1.082e+01,1.105e+01,9.978e+00,1.255e+01,1.197e+01,1.226e+01,1.038e+01,1.417e+01,1.256e+01,1.258e+01,1.159e+01,1.366e+01,1.301e+01,1.337e+01,1.158e+01,1.355e+01,1.428e+01,1.321e+01,1.393e+01,1.472e+01,1.589e+01,1.451e+01,1.636e+01,1.627e+01,1.715e+01,1.554e+01,1.614e+01,1.787e+01,1.686e+01,1.334e+01,1.694e+01,1.385e+01,1.651e+01,1.544e+01,1.660e+01,1.454e+01,1.526e+01,1.439e+01,1.597e+01,1.787e+01,1.611e+01,1.752e+01,1.629e+01,1.302e+01,1.579e+01,1.714e+01,1.814e+01,1.591e+01
3.658e-01,9.795e-01,1.216e+00,1.155e+00,1.261e+00,2.226e+00,3.241e+00,3.002e+00,3.510e+00,3.915e+00,3.355e+00,3.851e+00,4.195e+00,4.545e+00,3.717e+00,5.105e+00,4.960e+00,3.923e+00,4.940e+00,4.534e+00,4.507e+00,4.313e+00,7.220e+00,5.875e+00,6.521e+00,7.561e+00,7.166e+00,7.352e+00,8.244e+00,8.192e+00,7.530e+00,9.091e+00,9.566e+00,1.011e+01,1.127e+01,8.738e+00,9.615e+00,9.381e+00,1.022e+01,1.045e+01,1.120e+01,1.170e+01,1.190e+01,1.224e+01,1.065e+01,1.196e+01,1.357e+01,1.264e+01,1.199e+01,1.658e+01,1.394e+01,1.474e+01,1.384e+01,1.514e+01,1.454e+01,1.369e+01,1.296e+01,1.477e+01,1.566e+01,1.488e+01,1.531e+01,1.657e+01,1.751e+01,1.632e+01,1.712e+01,1.718e+01,1.843e+01,1.702e+01,1.818e+01,2.000e+01,1.793e+01,1.596e+01,1.873e+01,1.542e+01,1.727e+01,1.650e+01,1.890e+01,1.707e+01,1.645e+01,1.735e+01,1.834e+01,1.835e+01,1.881e+01,1.938e+01,1.724e+01,1.430e+01,1.756e+01,1.984e+01,1.841e+01,1.690e+01
2.994e-01,7.820e-01,8.035e-01,7.889e-01,6.704e-01,1.582e+00,1.912e+00,1.759e+00,2.601e+00,3.095e+00,3.246e+00,3.196e+00,3.190e+00,4.037e+00,4.059e+00,5.208e+00,5.013e+00,4.084e+00,4.859e+00,3.933e+00,4.151e+00,3.515e+00,7.024e+00,6.426e+00,6.176e+00,7.105e+00,5.766e+00,6.877e+00,6.930e+00,7.977e+00,6.737e+00,7.913e+00,9.367e+00,9.812e+00,1.031e+01,8.000e+00,8.232e+00,8.580e+00,1.069e+01,1.001e+01,9.577e+00,1.113e+01,1.201e+01,1.154e+01,1.136e+01,1.403e+01,1.337e+01,1.305e+01,1.314e+01,1.692e+01,1.409e+01,1.376e+01,1.393e+01,1.563e+01,1.544e+01,1.495e+01,1.379e+01,1.507e+01,1.535e+01,1.580e+01,1.551e+01,1.821e+01,1.833e+01,1.642e+01,1.801e+01,1.787e+01,2.036e+01,1.792e+01,1.947e+01,1.955e+01,1.974e+01,1.745e+01,1.886e+01,1.597e+01,1.679e+01,1.847e+01,1.860e+01,1.774e+01,1.632e+01,1.677e+01,1.791e+01,1.826e+01,1.898e+01,1.895e+01,1.759e+01,1.345e+01,1.803e+01,1.990e+01,1.919e+01,1.758e+01
1.038e-01,2.384e-01,5.266e-01,5.289e-01,8.815e-01,2.081e+00,2.326e+00,1.781e+00,1.745e+00,1.975e+00,2.040e+00,2.717e+00,3.219e+00,3.961e+00,3.644e+00,4.462e+00,4.122e+00,3.306e+00,3.436e+00,3.001e+00,3.190e+00,3.009e+00,5.681e+00,4.989e+00,5.749e+00,6.765e+00,4.436e+00,6.121e+00,6.215e+00,6.858e+00,6.174e+00,6.386e+00,8.556e+00,8.038e+00,1.062e+01,7.821e+00,7.209e+00,7.812e+00,9.974e+00,9.680e+00,8.971e+00,1.022e+01,9.932e+00,1.114e+01,1.032e+01,1.237e+01,1.037e+01,1.170e+01,1.124e+01,1.391e+01,1.244e+01,1.259e+01,1.078e+01,1.460e+01,1.406e+01,1.253e+01,1.216e+01,1.331e+01,1.477e+01,1.524e+01,1.557e+01,1.614e+01,1.542e+01,1.515e+01,1.789e+01,1.655e+01,1.874e+01,1.761e+01,1.906e+01,1.873e+01,1.923e+01,1.519e+01,1.811e+01,1.615e+01,1.681e+01,1.627e+01,1.848e+01,1.645e+01,1.495e+01,1.640e+01,1.761e+01,1.789e+01,1.910e+01,1.849e+01,1.735e+01,1.504e+01,1.657e+01,1.859e+01,1.865e+01,1.722e+01
2.857e-01,8.492e-01,7.836e-01,8.327e-01,7.210e-01,1.416e+00,1.687e+00,1.221e+00,2.079e+00,2.442e+00,2.613e+00,2.002e+00,2.541e+00,3.756e+00,4.664e+00,4.440e+00,4.601e+00,3.442e+00,3.915e+00,3.785e+00,4.201e+00,3.847e+00,5.829e+00,5.901e+00,6.807e+00,6.672e+00,4.413e+00,5.609e+00,5.692e+00,7.186e+00,6.108e+00,6.272e+00,9.623e+00,9.033e+00,1.060e+01,8.693e+00,8.310e+00,8.817e+00,1.011e+01,8.921e+00,1.048e+01,1.184e+01,1.022e+01,1.213e+01,1.025e+01,1.244e+01,1.139e+01,1.214e+01,1.307e+01,1.469e+01,1.444e+01,1.282e+01,1.237e+01,1.426e+01,1.423e+01,1.347e+01,1.302e+01,1.462e+01,1.572e+01,1.373e+01,1.481e+01,1.538e+01,1.582e+01,1.415e+01,1.650e+01,1.532e+01,1.901e+01,1.685e+01,1.871e+01,1.817e+01,1.870e+01,1.500e+01,1.758e+01,1.571e+01,1.757e+01,1.618e+01,1.811e+01,1.675e+01,1.625e+01,1.677e+01,1.865e+01,1.874e+01,1.820e+01,1.841e+01,1.708e+01,1.533e+01,1.721e+01,1.774e+01,1.818e+01,1.726e+01
2.218e-01,9.715e-01,1.619e+00,1.343e+00,1.420e+00,1.984e+00,3.362e+00,2.770e+00,3.201e+00,3.727e+00,3.653e+00,4.486e+00,4.060e+00,4.642e+00,4.527e+00,5.885e+00,5.727e+00,4.932e+00,5.409e+00,4.850e+00,5.136e+00,4.666e+00,8.466e+00,6.880e+00,7.196e+00,8.499e+00,7.472e+00,7.560e+00,7.964e+00,8.016e+00,7.214e+00,8.387e+00,1.043e+01,1.003e+01,1.030e+01,8.620e+00,1.029e+01,1.031e+01,1.159e+01,1.145e+01,1.239e+01,1.332e+01,1.241e+01,1.395e+01,1.199e+01,1.352e+01,1.390e+01,1.348e+01,1.370e+01,1.536e+01,1.398e+01,1.409e+01,1.359e+01,1.542e+01,1.351e+01,1.402e+01,1.438e+01,1.595e+01,1.450e+01,1.426e+01,1.583e+01,1.575e+01,1.924e+01,1.755e+01,1.652e+01,1.786e+01,1.878e+01,1.790e+01,1.951e+01,2.120e+01,2.075e+01,1.825e+01,1.834e+01,1.827e+01,1.865e+01,1.899e+01,2.028e+01,1.963e+01,1.658e+01,1.768e+01,2.066e+01,2.107e+01,2.077e+01,1.888e+01,1.902e+01,1.438e+01,1.944e+01,2.177e+01,2.176e+01,1.905e+01
1.608e-01,8.215e-01,1.310e+00,1.148e+00,1.216e+00,2.159e+00,3.107e+00,2.203e+00,2.307e+00,2.607e+00,2.778e+00,3.952e+00,3.480e+00,4.170e+00,3.826e+00,4.525e+00,4.766e+00,4.265e+00,4.153e+00,4.592e+00,4.302e+00,4.290e+00,7.572e+00,6.405e+00,7.457e+00,7.449e+00,6.404e+00,6.533e+00,8.903e+00,7.660e+00,7.241e+00,7.846e+00,9.139e+00,9.734e+00,1.086e+01,9.768e+00,9.514e+00,9.793e+00,1.067e+01,1.078e+01,1.274e+01,1.298e+01,1.264e+01,1.348e+01,1.195e+01,1.353e+01,1.328e+01,1.394e+01,1.282e+01,1.646e+01,1.440e+01,1.396e+01,1.340e+01,1.578e+01,1.409e+01,1.533e+01,1.362e+01,1.591e+01,1.532e+01,1.547e+01,1.741e+01,1.643e+01,1.762e+01,1.811e+01,1.822e+01,1.726e+01,1.957e+01,1.914e+01,2.047e+01,2.034e+01,2.071e+01,1.734e+01,2.095e+01,1.805e+01,1.885e+01,1.952e+01,2.074e+01,1.878e+01,1.799e+01,1.762e+01,2.049e+01,2.189e+01,2.049e+01,2.121e+01,1.847e+01,1.745e+01,1.953e+01,2.280e+01,2.195e+01,2.122e+01
1.941e-01,4.242e-01,9.362e-01,7.680e-01,1.048e+00,1.783e+00,2.911e+00,2.227e+00,1.854e+00,2.257e+00,2.729e+00,3.494e+00,3.206e+00,3.780e+00,2.832e+00,4.794e+00,4.414e+00,3.991e+00,3.978e+00,3.462e+00,3.879e+00,3.426e+00,7.855e+00,6.299e+00,7.119e+00,8.221e+00,7.289e+00,6.879e+00,8.501e+00,7.977e+00,7.663e+00,8.934e+00,9.735e+00,1.035e+01,1.178e+01,9.301e+00,9.578e+00,1.037e+01,1.044e+01,1.090e+01,1.215e+01,1.335e+01,1.191e+01,1.293e+01,1.233e+01,1.209e+01,1.311e+01,1.219e+01,1.195e+01,1.525e+01,1.321e+01,1.359e+01,1.380e+01,1.540e+01,1.359e+01,1.364e+01,1.207e+01,1.476e+01,1.498e+01,1.439e+01,1.481e+01,1.542e+01,1.599e+01,1.647e+01,1.794e+01,1.719e+01,1.782e+01,1.857e+01,1.939e+01,2.055e+01,1.934e+01,1.641e+01,1.957e+01,1.695e+01,1.730e+01,1.771e+01,2.086e+01,1.894e+01,1.585e+01,1.835e+01,1.919e+01,1.974e+01,2.103e+01,2.010e+01,1.734e+01,1.547e+01,2.005e+01,2.211e+01,2.038e+01,1.802e+01
1.963e-01,6.057e-01,8.168e-01,7.852e-01,9.555e-01,1.912e+00,2.281e+00,2.057e+00,2.428e+00,2.821e+00,2.740e+00,3.170e+00,3.866e+00,4.631e+00,4.327e+00,4.415e+00,4.827e+00,3.930e+00,3.999e+00,4.366e+00,4.280e+00,4.433e+00,6.967e+00,6.417e+00,7.156e+00,7.457e+00,6.454e+00,7.376e+00,8.303e+00,8.657e+00,7.796e+00,8.423e+00,9.912e+00,1.046e+01,1.216e+01,9.678e+00,1.009e+01,8.645e+00,1.135e+01,1.071e+01,1.095e+01,1.179e+01,1.202e+01,1.171e+01,1.003e+01,1.271e+01,1.246e+01,1.195e+01,1.276e+01,1.474e+01,1.413e+01,1.495e+01,1.254e+01,1.409e+01,1.373e+01,1.248e+01,1.276e+01,1.509e+01,1.449e+01,1.477e+01,1.539e+01,1.491e+01,1.569e+01,1.565e+01,1.668e+01,1.649e+01,1.990e+01,1.818e+01,1.759e+01,1.879e+01,1.908e+01,1.708e+01,1.966e+01,1.683e+01,1.671e+01,1.656e+01,2.042e+01,1.795e+01,1.718e+01,1.786e+01,1.837e+01,1.992e+01,1.982e+01,1.862e+01,1.769e+01,1.632e+01,1.910e+01,2.060e+01,1.895e+01,1.841e+01
4.032e-01,7.799e-01,7.608e-01,8.280e-01,9.769e-01,2.579e+00,3.575e+00,3.138e+00,2.761e+00,3.852e+00,2.987e+00,4.025e+00,4.812e+00,5.079e+00,4.650e+00,5.894e+00,5.635e+00,4.651e+00,4.974e+00,5.554e+00,4.443e+00,3.705e+00,7.435e+00,6.410e+00,6.599e+00,7.849e+00,5.553e+00,6.641e+00,6.582e+00,7.069e+00,6.301e+00,6.336e+00,9.379e+00,7.832e+00,8.826e+00,7.051e+00,8.461e+00,7.949e+00,1.059e+01,9.429e+00,1.058e+01,1.158e+01,1.060e+01,1.284e+01,1.093e+01,1.222e+01,1.118e+01,1.346e+01,1.179e+01,1.406e+01,1.360e+01,1.277e+01,1.262e+01,1.451e+01,1.253e+01,1.232e+01,1.354e+01,1.455e+01,1.527e+01,1.427e+01,1.668e+01,1.450e+01,1.753e+01,1.557e+01,1.707e+01,1.739e+01,1.884e+01,1.818e+01,1.857e+01,1.904e+01,1.976e+01,1.710e+01,1.932e+01,1.768e+01,1.880e+01,1.783e+01,2.125e+01,1.988e+01,1.591e+01,1.728e+01,2.053e+01,2.146e+01,2.168e+01,1.882e+01,1.944e+01,1.589e+01,2.007e+01,1.984e+01,2.048e+01,1.881e+01
2.993e-01,7.266e-01,9.278e-01,8.621e-01,9.485e-01,1.688e+00,2.799e+00,2.236e+00,2.165e+00,2.670e+00,2.409e+00,2.700e+00,3.104e+00,3.992e+00,3.968e+00,4.945e+00,4.637e+00,3.638e+00,3.875e+00,4.466e+00,4.863e+00,4.227e+00,7.298e+00,6.283e+00,7.415e+00,7.418e+00,6.919e+00,7.241e+00,7.861e+00,7.796e+00,7.778e+00,7.653e+00,9.293e+00,9.716e+00,1.084e+01,9.115e+00,9.603e+00,9.333e+00,1.026e+01,1.058e+01,1.125e+01,1.240e+01,1.189e+01,1.289e+01,9.713e+00,1.151e+01,1.206e+01,1.226e+01,1.177e+01,1.498e+01,1.332e+01,1.353e+01,1.203e+01,1.434e+01,1.307e+01,1.228e+01,1.285e+01,1.523e+01,1.393e+01,1.446e+01,1.477e+01,1.451e+01,1.581e+01,1.500e+01,1.674e+01,1.429e+01,1.749e+01,1.675e+01,1.707e+01,1.846e+01,1.946e+01,1.664e+01,1.913e+01,1.705e+01,1.775e+01,1.745e+01,1.960e+01,1.822e+01,1.736e+01,1.760e+01,2.091e+01,1.964e+01,2.026e+01,1.870e+01,1.720e+01,1.635e+01,1.899e+01,1.965e+01,2.232e+01,2.036e+01
3.237e-01,5.721e-01,3.289e-01,4.312e-01,4.119e-01,1.730e+00,2.436e+00,2.230e+00,1.765e+00,2.756e+00,2.158e+00,2.826e+00,3.641e+00,4.240e+00,3.443e+00,4.941e+00,5.109e+00,3.841e+00,3.959e+00,3.779e+00,3.202e+00,2.729e+00,6.202e+00,6.212e+00,6.213e+00,8.084e+00,5.322e+00,6.057e+00,6.811e+00,7.278e+00,6.220e+00,6.884e+00,8.884e+00,8.079e+00,1.060e+01,8.524e+00,9.262e+00,9.334e+00,9.904e+00,1.046e+01,1.026e+01,1.291e+01,1.040e+01,1.258e+01,1.097e+01,1.318e+01,1.264e+01,1.186e+01,1.226e+01,1.481e+01,1.434e+01,1.382e+01,1.474e+01,1.606e+01,1.568e+01,1.302e+01,1.275e+01,1.592e+01,1.579e+01,1.601e+01,1.695e+01,1.607e+01,1.709e+01,1.631e+01,1.822e+01,1.830e+01,1.911e+01,1.929e+01,1.979e+01,2.113e+01,2.162e+01,1.740e+01,1.926e+01,1.911e+01,1.946e+01,2.073e+01,2.386e+01,1.951e+01,1.776e+01,1.845e+01,2.106e+01,2.319e+01,2.244e+01,2.171e+01,1.920e+01,1.652e+01,2.234e+01,2.164e+01,2.219e+01,2.042e+01
2.109e-01,6.146e-01,7.589e-01,7.980e-01,1.050e+00,2.052e+00,2.928e+00,2.609e+00,2.465e+00,2.721e+00,2.528e+00,3.546e+00,3.264e+00,3.942e+00,2.600e+00,4.092e+00,4.423e+00,3.626e+00,3.635e+00,3.810e+00,3.670e+00,3.397e+00,6.239e+00,4.829e+00,5.922e+00,6.631e+00,5.805e+00,4.841e+00,6.355e+00,6.254e+00,6.078e+00,6.978e+00,7.034e+00,7.897e+00,9.029e+00,6.390e+00,7.923e+00,8.684e+00,8.790e+00,9.481e+00,1.061e+01,1.081e+01,8.973e+00,1.192e+01,9.499e+00,1.178e+01,1.111e+01,1.176e+01,1.003e+01,1.414e+01,1.296e+01,1.183e+01,1.193e+01,1.371e+01,1.260e+01,1.282e+01,1.136e+01,1.367e+01,1.409e+01,1.432e+01,1.523e+01,1.416e+01,1.631e+01,1.376e+01,1.500e+01,1.536e+01,1.589e+01,1.638e+01,1.694e+01,1.748e+01,1.890e+01,1.601e+01,1.663e+01,1.635e+01,1.684e+01,1.817e+01,1.997e+01,1.803e+01,1.750e+01,1.711e+01,2.001e+01,2.044e+01,2.082e+01,2.057e+01,1.738e+01,1.600e+01,1.906e+01,2.043e+01,2.000e+01,2.009e+01
1.109e-01,5.536e-01,9.999e-01,8.372e-01,9.075e-01,2.005e+00,2.752e+00,1.902e+00,1.922e+00,2.614e+00,2.129e+00,3.165e+00,3.785e+00,3.921e+00,4.117e+00,5.009e+00,4.423e+00,3.837e+00,4.430e+00,4.560e+00,4.999e+00,4.358e+00,6.820e+00,5.858e+00,6.673e+00,6.211e+00,6.159e+00,7.141e+00,8.051e+00,7.930e+00,7.779e+00,8.342e+00,1.004e+01,9.300e+00,1.072e+01,9.563e+00,9.706e+00,8.562e+00,1.026e+01,1.024e+01,1.008e+01,1.172e+01,1.217e+01,1.183e+01,1.095e+01,1.315e+01,1.258e+01,1.383e+01,1.219e+01,1.518e+01,1.302e+01,1.443e+01,1.228e+01,1.507e+01,1.369e+01,1.454e+01,1.327e+01,1.486e+01,1.547e+01,1.496e+01,1.589e+01,1.655e+01,1.647e+01,1.718e+01,1.749e+01,1.821e+01,1.970e+01,1.864e+01,1.887e+01,1.952e+01,2.059e+01,1.693e+01,2.082e+01,1.831e+01,1.795e+01,1.840e+01,2.115e+01,1.861e+01,1.697e+01,1.843e+01,2.114e+01,2.175e+01,2.292e+01,2.130e+01,2.075e+01,1.794e+01,1.948e+01,2.226e+01,2.103e+01,2.034e+01
2.291e-01,6.134e-01,1.086e+00,9.116e-01,1.107e+00,1.666e+00,2.409e+00,2.183e+00,2.225e+00,2.146e+00,2.149e+00,2.974e+00,3.293e+00,3.529e+00,3.091e+00,3.432e+00,3.932e+00,3.229e+00,3.057e+00,3.439e+00,3.410e+00,2.917e+00,6.183e+00,5.061e+00,6.286e+00,6.760e+00,5.219e+00,5.760e+00,7.061e+00,6.143e+00,6.153e+00,6.334e+00,7.164e+00,8.519e+00,8.816e+00,7.238e+00,7.089e+00,7.553e+00,8.804e+00,9.268e+00,9.237e+00,9.618e+00,9.919e+00,9.233e+00,8.630e+00,1.058e+01,9.525e+00,1.061e+01,9.261e+00,1.160e+01,1.144e+01,1.101e+01,1.049e+01,1.187e+01,1.054e+01,1.086e+01,9.995e+00,1.258e+01,1.276e+01,1.189e+01,1.451e+01,1.382e+01,1.454e+01,1.277e+01,1.443e+01,1.457e+01,1.459e+01,1.509e+01,1.623e+01,1.561e+01,1.771e+01,1.551e+01,1.673e+01,1.466e+01,1.768e+01,1.695e+01,1.850e+01,1.537e+01,1.571e+01,1.588e+01,1.806e+01,1.917e+01,1.932e+01,1.876e+01,1.650e+01,1.520e+01,1.750e+01,1.894e+01,1.908e+01,1.850e+01
1.279e-01,5.159e-01,1.162e+00,8.418e-01,1.075e+00,1.611e+00,2.584e+00,2.131e+00,1.712e+00,2.532e+00,2.958e+00,3.395e+00,3.662e+00,3.790e+00,3.481e+00,4.148e+00,4.514e+00,4.422e+00,4.043e+00,3.521e+00,3.093e+00,3.387e+00,5.676e+00,5.282e+00,5.944e+00,6.779e+00,5.071e+00,6.049e+00,8.003e+00,6.970e+00,5.832e+00,7.325e+00,7.868e+00,8.694e+00,9.638e+00,9.293e+00,8.830e+00,8.756e+00,9.993e+00,9.937e+00,9.419e+00,1.197e+01,1.212e+01,1.050e+01,1.065e+01,1.208e+01,1.182e+01,1.174e+01,1.236e+01,1.348e+01,1.281e+01,1.361e+01,1.267e+01,1.465e+01,1.429e+01,1.261e+01,1.190e+01,1.597e+01,1.390e+01,1.384e+01,1.654e+01,1.584e+01,1.652e+01,1.663e+01,1.795e+01,1.618e+01,1.743e+01,1.538e+01,1.862e+01,1.735e+01,1.877e+01,1.747e+01,1.897e+01,1.724e+01,1.767e+01,1.975e+01,2.122e+01,1.718e+01,1.663e+01,1.855e+01,2.006e+01,2.173e+01,2.087e+01,1.918e+01,1.804e+01,1.761e+01,2.000e+01,2.126e+01,2.219e+01,2.064e+01
7.313e-02,3.903e-01,6.350e-01,4.996e-01,5.850e-01,1.549e+00,2.122e+00,2.134e+00,2.247e+00,3.336e+00,3.149e+00,3.621e+00,3.555e+00,4.020e+00,3.486e+00,4.435e+00,4.918e+00,3.795e+00,4.137e+00,3.970e+00,4.485e+00,3.049e+00,6.614e+00,6.192e+00,5.654e+00,7.233e+00,5.459e+00,7.123e+00,7.066e+00,7.769e+00,6.241e+00,7.487e+00,9.371e+00,9.490e+00,9.785e+00,8.846e+00,9.601e+00,8.363e+00,1.079e+01,1.081e+01,9.230e+00,1.167e+01,1.166e+01,1.272e+01,1.119e+01,1.575e+01,1.452e+01,1.420e+01,1.399e+01,1.675e+01,1.557e+01,1.509e+01,1.540e+01,1.652e+01,1.612e+01,1.527e+01,1.531e+01,1.619e+01,1.723e+01,1.740e+01,1.721e+01,1.807e+01,1.914e+01,1.647e+01,1.924e+01,1.898e+01,2.091e+01,2.031e+01,2.199e+01,2.153e+01,2.236e+01,2.059e+01,2.288e+01,2.002e+01,2.056e+01,2.115e+01,2.385e+01,2.059e+01,1.886e+01,2.161e+01,2.294e+01,2.464e+01,2.606e+01,2.460e+01,2.223e+01,1.941e+01,2.460e+01,2.552e+01,2.342e+01,2.223e+01
2.673e-01,6.064e-01,5.074e-01,5.961e-01,5.808e-01,1.818e+00,2.087e+00,1.977e+00,2.143e+00,2.697e+00,1.809e+00,2.850e+00,3.450e+00,3.702e+00,3.409e+00,4.111e+00,4.113e+00,3.720e+00,3.822e+00,4.306e+00,4.203e+00,3.394e+00,6.653e+00,5.714e+00,6.417e+00,6.682e+00,5.775e+00,6.068e+00,7.213e+00,7.362e+00,5.773e+00,6.622e+00,7.566e+00,8.871e+00,9.338e+00,7.104e+00,8.966e+00,8.224e+00,9.820e+00,9.450e+00,1.016e+01,1.022e+01,9.930e+00,1.076e+01,1.026e+01,1.255e+01,1.202e+01,1.263e+01,1.146e+01,1.406e+01,1.280e+01,1.253e+01,1.202e+01,1.416e+01,1.308e+01,1.259e+01,1.284e+01,1.355e+01,1.386e+01,1.349e+01,1.506e+01,1.456e+01,1.662e+01,1.465e+01,1.568e+01,1.480e+01,1.738e+01,1.653e+01,1.937e+01,1.868e+01,1.874e+01,1.703e+01,1.874e+01,1.739e+01,1.844e+01,1.762e+01,2.073e+01,1.926e+01,1.741e+01,1.777e+01,2.155e+01,2.217e+01,2.386e+01,1.977e+01,1.900e+01,1.666e+01,2.056e+01,2.201e+01,2.270e+01,2.077e+01
2.591e-01,7.488e-01,1.102e+00,9.704e-01,1.063e+00,1.612e+00,2.671e+00,2.598e+00,3.014e+00,3.315e+00,2.300e+00,3.104e+00,3.831e+00,4.108e+00,3.892e+00,4.760e+00,4.014e+00,3.132e+00,4.068e+00,4.190e+00,3.899e+00,3.456e+00,6.522e+00,5.311e+00,5.206e+00,6.050e+00,5.299e+00,6.580e+00,7.073e+00,6.966e+00,6.754e+00,8.025e+00,8.303e+00,9.582e+00,1.000e+01,8.516e+00,8.643e+00,8.752e+00,9.373e+00,1.045e+01,9.920e+00,1.109e+01,1.212e+01,1.133e+01,1.011e+01,1.121e+01,1.065e+01,1.356e+01,1.236e+01,1.526e+01,1.451e+01,1.391e+01,1.234e+01,1.535e+01,1.362e+01,1.410e+01,1.403e+01,1.561e+01,1.682e+01,1.527e+01,1.644e+01,1.614e+01,1.872e+01,1.682e+01,1.791e+01,1.738e+01,1.927e+01,1.769e+01,1.864e+01,1.953e+01,1.990e+01,1.841e+01,1.932e+01,1.862e+01,1.993e+01,1.996e+01,2.301e+01,1.982e+01,1.887e+01,1.833e+01,2.260e+01,2.167e+01,2.487e+01,2.242e+01,1.953e+01,1.864e+01,2.335e+01,2.324e+01,2.373e+01,2.286e+01
2.366e-01,1.065e+00,1.188e+00,1.174e+00,9.429e-01,2.516e+00,2.903e+00,2.298e+00,3.256e+00,3.716e+00,2.870e+00,4.339e+00,4.551e+00,4.863e+00,5.187e+00,6.324e+00,5.931e+00,4.668e+00,5.907e+00,5.025e+00,4.651e+00,4.314e+00,7.329e+00,6.999e+00,6.995e+00,8.197e+00,6.371e+00,7.450e+00,8.653e+00,9.296e+00,7.734e+00,9.158e+00,1.117e+01,9.791e+00,1.221e+01,9.923e+00,1.024e+01,9.629e+00,1.160e+01,1.113e+01,1.132e+01,1.243e+01,1.199e+01,1.195e+01,1.213e+01,1.441e+01,1.467e+01,1.283e+01,1.284e+01,1.659e+01,1.377e+01,1.441e+01,1.360e+01,1.517e+01,1.452e+01,1.367e+01,1.328e+01,1.532e+01,1.578e+01,1.526e+01,1.622e+01,1.622e+01,1.839e+01,1.719e+01,1.747e+01,1.845e+01,2.003e+01,1.791e+01,1.897e+01,2.120e+01,2.154e+01,1.889e+01,1.962e+01,1.839e+01,1.814e+01,2.069e+01,2.254e+01,1.951e+01,1.831e+01,1.999e+01,2.182e+01,2.278e+01,2.481e+01,2.243e+01,2.127e+01,1.817e+01,2.286e+01,2.401e+01,2.231e+01,2.322e+01
2.382e-01,9.797e-01,9.957e-01,9.572e-01,6.766e-01,1.314e+00,2.147e+00,1.800e+00,2.722e+00,3.522e+00,2.620e+00,2.823e+00,2.973e+00,3.624e+00,3.613e+00,4.513e+00,3.796e+00,3.282e+00,4.563e+00,4.403e+00,4.161e+00,4.137e+00,6.563e+00,6.036e+00,5.919e+00,5.980e+00,4.955e+00,5.893e+00,6.314e+00,5.988e+00,5.789e+00,7.018e+00,8.347e+00,7.698e+00,7.774e+00,7.886e+00,7.703e+00,7.936e+00,8.211e+00,7.948e+00,9.608e+00,9.568e+00,9.656e+00,1.087e+01,8.998e+00,1.077e+01,1.179e+01,1.094e+01,1.150e+01,1.425e+01,1.319e+01,1.173e+01,1.057e+01,1.168e+01,1.250e+01,1.149e+01,1.192e+01,1.234e+01,1.333e+01,1.316e+01,1.382e+01,1.365e+01,1.570e+01,1.418e+01,1.490e+01,1.506e+01,1.700e+01,1.753e+01,1.838e+01,1.580e+01,1.865e+01,1.731e+01,1.886e+01,1.569e+01,1.679e+01,1.866e+01,1.993e+01,1.775e+01,1.775e+01,1.813e+01,1.997e+01,2.287e+01,2.399e+01,2.117e+01,2.145e+01,1.837e+01,2.244e+01,2.459e+01,2.405e+01,2.364e+01
6.947e-02,8.539e-01,1.126e+00,9.997e-01,8.654e-01,1.790e+00,2.538e+00,2.054e+00,2.618e+00,3.331e+00,3.300e+00,4.284e+00,3.638e+00,4.292e+00,4.294e+00,5.315e+00,6.125e+00,4.690e+00,5.112e+00,4.992e+00,5.277e+00,4.611e+00,7.802e+00,7.170e+00,6.637e+00,7.914e+00,6.981e+00,6.821e+00,6.875e+00,8.218e+00,7.492e+00,8.402e+00,1.054e+01,9.634e+00,1.054e+01,8.697e+00,1.045e+01,9.229e+00,1.165e+01,1.079e+01,1.171e+01,1.318e+01,1.158e+01,1.406e+01,1.219e+01,1.411e+01,1.401e+01,1.231e+01,1.381e+01,1.508e+01,1.416e+01,1.530e+01,1.358e+01,1.486e+01,1.515e+01,1.439e+01,1.316e+01,1.413e+01,1.484e+01,1.254e+01,1.533e+01,1.560e+01,1.635e+01,1.640e+01,1.617e+01,1.637e+01,1.641e+01,1.591e+01,1.960e+01,1.844e+01,1.784e+01,1.675e+01,2.021e+01,1.762e+01,1.722e+01,1.914e+01,1.914e+01,1.766e+01,1.736e+01,1.988e+01,2.278e+01,2.195e+01,2.267e+01,2.156e+01,1.968e+01,1.921e+01,2.213e+01,2.343e+01,2.400e+01,2.275e+01
1.030e-02,5.416e-01,1.390e+00,1.036e+00,1.315e+00,1.879e+00,2.980e+00,2.461e+00,2.303e+00,2.621e+00,2.414e+00,3.709e+00,4.191e+00,4.662e+00,4.616e+00,5.394e+00,5.457e+00,4.545e+00,4.449e+00,4.614e+00,5.143e+00,4.735e+00,7.312e+00,6.545e+00,7.210e+00,8.092e+00,7.210e+00,8.102e+00,8.910e+00,8.628e+00,8.820e+00,8.816e+00,1.012e+01,1.055e+01,1.153e+01,1.005e+01,1.022e+01,9.627e+00,1.168e+01,1.176e+01,1.187e+01,1.263e+01,1.190e+01,1.237e+01,1.124e+01,1.361e+01,1.374e+01,1.407e+01,1.239e+01,1.651e+01,1.412e+01,1.489e+01,1.260e+01,1.585e+01,1.418e+01,1.354e+01,1.431e+01,1.629e+01,1.569e+01,1.531e+01,1.643e+01,1.718e+01,1.711e+01,1.646e+01,1.772e+01,1.489e+01,1.936e+01,1.864e+01,1.870e+01,1.996e+01,2.051e+01,1.744e+01,1.968e+01,1.797e+01,1.867e+01,1.763e+01,2.266e+01,1.835e+01,1.875e+01,1.885e+01,2.197e+01,2.139e+01,2.229e+01,2.048e+01,2.008e+01,1.846e+01,2.266e+01,2.437e+01,2.424e+01,2.305e+01
1.263e-01,8.399e-01,1.429e+00,1.213e+00,1.358e+00,1.663e+00,2.170e+00,2.120e+00,3.007e+00,2.636e+00,2.541e+00,3.232e+00,3.130e+00,3.716e+00,3.715e+00,4.257e+00,4.511e+00,4.075e+00,4.194e+00,3.919e+00,4.287e+00,4.038e+00,5.673e+00,4.671e+00,4.937e+00,6.388e+00,4.935e+00,5.163e+00,6.402e+00,6.435e+00,6.090e+00,6.739e+00,7.182e+00,8.216e+00,9.002e+00,7.844e+00,8.454e+00,7.497e+00,9.165e+00,9.114e+00,9.207e+00,1.078e+01,1.072e+01,1.064e+01,9.336e+00,1.080e+01,1.099e+01,1.239e+01,1.133e+01,1.394e+01,1.419e+01,1.332e+01,1.215e+01,1.495e+01,1.368e+01,1.430e+01,1.259e+01,1.463e+01,1.565e+01,1.255e+01,1.532e+01,1.512e+01,1.734e+01,1.611e+01,1.708e+01,1.804e+01,1.838e+01,1.712e+01,1.884e+01,1.913e+01,1.893e+01,1.747e+01,1.827e+01,1.725e+01,1.929e+01,2.070e+01,2.218e+01,1.791e+01,1.810e+01,1.963e+01,2.223e+01,2.431e+01,2.385e+01,2.242e+01,2.058e+01,1.848e+01,2.360e+01,2.451e+01,2.583e+01,2.523e+01
1.743e-01,3.589e-01,4.472e-01,5.400e-01,8.938e-01,1.822e+00,2.346e+00,2.014e+00,2.076e+00,2.758e+00,2.462e+00,2.701e+00,3.322e+00,4.052e+00,4.100e+00,4.633e+00,4.552e+00,3.698e+00,3.867e+00,5.046e+00,4.848e+00,3.750e+00,6.688e+00,5.252e+00,7.200e+00,7.125e+00,5.163e+00,6.873e+00,7.483e+00,8.058e+00,6.360e+00,6.911e+00,9.492e+00,9.301e+00,9.434e+00,8.475e+00,9.091e+00,8.391e+00,9.565e+00,8.947e+00,9.994e+00,1.113e+01,1.191e+01,1.275e+01,1.045e+01,1.170e+01,1.253e+01,1.251e+01,1.373e+01,1.541e+01,1.525e+01,1.420e+01,1.326e+01,1.532e+01,1.394e+01,1.466e+01,1.483e+01,1.563e+01,1.611e+01,1.520e+01,1.731e+01,1.683e+01,1.876e+01,1.723e+01,1.909e+01,1.766e+01,2.059e+01,2.045e+01,2.151e+01,2.052e+01,2.142e+01,1.935e+01,2.171e+01,1.979e+01,2.064e+01,2.179e+01,2.510e+01,2.156e+01,1.962e+01,2.088e+01,2.517e+01,2.602e+01,2.765e+01,2.357e+01,2.263e+01,2.159e+01,2.579e+01,2.623e+01,2.855e+01,2.683e+01
1.136e-01,3.316e-01,3.329e-01,3.153e-01,3.416e-01,6.416e-01,1.592e+00,1.509e+00,1.367e+00,2.201e+00,1.808e+00,1.884e+00,2.144e+00,2.866e+00,2.735e+00,4.092e+00,3.712e+00,2.766e+00,3.173e+00,3.270e+00,3.971e+00,3.465e+00,6.118e+00,5.381e+00,5.387e+00,5.940e+00,6.197e+00,5.778e+00,5.830e+00,6.438e+00,6.385e+00,7.307e+00,7.900e+00,7.547e+00,8.828e+00,7.904e+00,9.329e+00,8.064e+00,9.327e+00,9.093e+00,9.544e+00,1.115e+01,1.026e+01,1.170e+01,8.876e+00,1.148e+01,1.191e+01,1.156e+01,1.112e+01,1.331e+01,1.277e+01,1.247e+01,1.220e+01,1.207e+01,1.322e+01,1.161e+01,1.232e+01,1.429e+01,1.289e+01,1.286e+01,1.436e+01,1.319e+01,1.637e+01,1.485e+01,1.535e+01,1.492e+01,1.545e+01,1.630e+01,1.836e+01,1.751e+01,1.767e+01,1.543e+01,1.914e+01,1.734e+01,1.755e+01,1.739e+01,1.974e+01,1.645e+01,1.589e+01,1.907e+01,2.014e+01,2.156e+01,2.282e+01,2.105e+01,1.988e+01,1.890e+01,2.209e+01,2.268e+01,2.438e+01,2.579e+01
