9.656e-01,4.524e-01,1.385e-01,4.391e-01,9.863e-01,1.032e-01,7.162e-01,3.289e-01,1.287e-01,4.828e-01,2.813e-03,9.507e-01,8.664e-01,9.379e-01,2.585e-01,2.463e-01,7.323e-01,5.589e-01,2.334e-01,9.765e-01,7.148e-01,8.459e-01,6.474e-01,1.880e-02,9.112e-01,6.704e-01,5.504e-01,9.438e-01,2.366e-02,2.236e-01,5.899e-01,4.753e-01,1.151e-01,3.640e-01,3.921e-01,9.518e-01,3.351e-01,2.642e-01,4.477e-01,9.541e-01,9.031e-01,5.103e-01,8.017e-02,8.212e-01,2.730e-01,2.847e-01,7.601e-01,5.946e-01,3.750e-01,8.901e-01,5.466e-01,2.592e-01,9.888e-01,5.636e-01,6.474e-01,8.253e-01,3.153e-01,1.146e-01
5.520e-01,1.007e+00,9.495e-01,1.200e+00,8.020e-01,6.662e-01,1.335e+00,6.505e-01,3.509e-01,7.932e-01,9.477e-01,9.023e-01,1.325e+00,8.197e-01,2.331e-01,4.553e-01,1.114e+00,1.234e+00,8.336e-01,1.300e+00,5.177e-01,1.095e+00,1.132e+00,2.933e-01,6.480e-01,1.184e+00,1.126e+00,8.911e-01,4.753e-01,9.125e-01,6.043e-01,3.752e-01,6.884e-01,6.590e-01,1.148e+00,1.436e+00,2.250e-01,2.586e-01,5.257e-01,1.337e+00,7.762e-01,6.494e-01,2.582e-01,7.012e-01,2.994e-01,8.002e-01,1.180e+00,5.553e-01,3.086e-01,1.352e+00,4.109e-01,5.977e-01,9.565e-01,5.759e-01,4.901e-01,6.406e-01,1.028e+00,3.872e-01
5.706e-01,3.142e-01,4.635e-01,5.100e-01,1.050e+00,1.006e+00,1.142e+00,1.144e+00,2.332e-01,8.192e-01,4.629e-01,1.461e+00,1.395e+00,9.920e-01,2.492e-01,9.332e-01,7.580e-01,1.037e+00,1.080e+00,9.382e-01,1.042e+00,9.976e-01,8.010e-01,6.094e-01,1.153e+00,1.373e+00,9.175e-01,1.457e+00,4.056e-01,2.327e-01,5.486e-01,6.545e-01,3.140e-01,8.844e-01,8.840e-01,6.822e-01,3.661e-01,5.684e-01,1.053e+00,8.552e-01,1.497e+00,6.078e-01,5.132e-01,9.598e-01,3.855e-01,1.066e+00,1.264e+00,1.214e+00,1.155e+00,1.266e+00,6.613e-01,4.129e-01,6.226e-01,6.961e-01,7.133e-01,1.111e+00,9.156e-01,1.849e-01
9.036e-02,5.827e-01,8.349e-01,1.102e+00,6.875e-01,1.034e+00,1.861e+00,1.434e+00,1.000e+00,1.292e+00,1.552e+00,1.848e+00,1.893e+00,8.622e-01,8.527e-01,1.215e+00,1.371e+00,1.597e+00,1.172e+00,1.436e+00,7.304e-01,1.548e+00,1.107e+00,7.460e-01,1.348e+00,1.866e+00,1.668e+00,1.378e+00,1.474e+00,1.356e+00,4.904e-01,9.844e-01,1.253e+00,1.495e+00,1.383e+00,1.527e+00,8.237e-01,3.753e-01,1.330e+00,8.984e-01,1.253e+00,1.109e+00,8.649e-01,9.919e-01,8.002e-01,1.726e+00,1.643e+00,8.153e-01,9.166e-01,1.565e+00,1.126e+00,9.010e-01,1.336e+00,1.266e+00,1.070e+00,7.807e-01,1.092e+00,7.908e-01
5.063e-01,6.213e-01,7.355e-01,9.945e-01,1.038e+00,1.382e+00,2.624e+00,1.734e+00,1.686e+00,1.614e+00,1.932e+00,2.583e+00,2.093e+00,1.640e+00,1.501e+00,1.120e+00,1.820e+00,1.921e+00,1.869e+00,1.757e+00,1.171e+00,1.897e+00,1.577e+00,1.152e+00,1.434e+00,2.438e+00,1.624e+00,2.096e+00,1.306e+00,1.942e+00,1.050e+00,1.095e+00,1.436e+00,1.902e+00,1.690e+00,1.537e+00,1.525e+00,1.406e+00,1.481e+00,1.860e+00,1.928e+00,1.431e+00,1.085e+00,1.144e+00,1.521e+00,1.888e+00,1.825e+00,1.494e+00,1.853e+00,2.334e+00,1.892e+00,8.058e-01,1.950e+00,2.087e+00,1.103e+00,1.712e+00,1.348e+00,1.231e+00
7.275e-02,3.824e-01,6.887e-01,8.454e-01,6.937e-01,2.305e+00,2.237e+00,2.108e+00,1.515e+00,2.027e+00,1.749e+00,2.198e+00,2.082e+00,1.309e+00,1.544e+00,1.446e+00,1.458e+00,2.657e+00,2.585e+00,2.171e+00,9.435e-01,2.032e+00,1.288e+00,1.888e+00,1.792e+00,2.442e+00,2.480e+00,1.856e+00,2.077e+00,2.143e+00,1.046e+00,1.157e+00,2.142e+00,2.383e+00,2.388e+00,1.928e+00,1.912e+00,1.385e+00,2.396e+00,1.851e+00,2.346e+00,2.098e+00,1.798e+00,1.348e+00,1.231e+00,2.632e+00,2.410e+00,1.969e+00,2.234e+00,2.209e+00,2.006e+00,1.446e+00,1.444e+00,1.780e+00,1.429e+00,1.538e+00,1.263e+00,1.078e+00
6.947e-01,8.921e-01,9.384e-01,1.327e+00,1.251e+00,2.062e+00,2.578e+00,2.794e+00,2.041e+00,2.852e+00,1.704e+00,2.465e+00,2.916e+00,2.581e+00,1.682e+00,2.246e+00,2.535e+00,3.735e+00,2.587e+00,3.147e+00,1.853e+00,2.419e+00,1.828e+00,1.601e+00,2.653e+00,2.502e+00,2.997e+00,2.033e+00,2.808e+00,2.202e+00,1.660e+00,1.569e+00,2.702e+00,2.231e+00,2.747e+00,3.473e+00,2.496e+00,1.259e+00,2.388e+00,2.790e+00,3.037e+00,2.372e+00,1.968e+00,1.948e+00,1.052e+00,2.818e+00,3.083e+00,2.224e+00,2.188e+00,3.160e+00,2.403e+00,2.044e+00,1.964e+00,1.730e+00,2.424e+00,2.286e+00,2.324e+00,1.891e+00
4.909e-01,3.388e-01,4.283e-01,5.783e-01,9.129e-01,1.535e+00,2.201e+00,3.148e+00,2.685e+00,2.760e+00,1.677e+00,2.531e+00,2.834e+00,3.076e+00,2.147e+00,1.868e+00,2.868e+00,3.008e+00,3.077e+00,2.188e+00,2.298e+00,1.835e+00,1.725e+00,2.324e+00,2.352e+00,2.941e+00,2.638e+00,2.648e+00,2.057e+00,2.092e+00,1.394e+00,1.397e+00,2.384e+00,2.126e+00,1.893e+00,2.192e+00,2.861e+00,2.102e+00,1.821e+00,2.784e+00,3.189e+00,2.507e+00,1.997e+00,1.482e+00,1.991e+00,2.071e+00,2.792e+00,2.329e+00,3.102e+00,3.110e+00,2.295e+00,2.094e+00,1.841e+00,1.918e+00,2.294e+00,3.097e+00,2.520e+00,2.222e+00
6.887e-01,5.758e-01,5.127e-01,8.103e-01,1.021e+00,1.620e+00,2.281e+00,2.007e+00,1.872e+00,2.984e+00,2.468e+00,3.261e+00,2.662e+00,2.944e+00,2.006e+00,1.999e+00,2.293e+00,3.406e+00,3.196e+00,2.846e+00,2.390e+00,2.161e+00,2.062e+00,1.635e+00,2.305e+00,3.275e+00,2.562e+00,2.445e+00,2.000e+00,2.832e+00,2.148e+00,1.657e+00,2.177e+00,2.491e+00,2.361e+00,2.976e+00,3.075e+00,2.106e+00,2.560e+00,2.749e+00,2.760e+00,2.613e+00,1.545e+00,2.327e+00,1.539e+00,2.846e+00,2.272e+00,2.550e+00,2.417e+00,3.432e+00,3.128e+00,1.882e+00,2.455e+00,2.815e+00,1.980e+00,2.613e+00,2.227e+00,2.383e+00
8.496e-01,4.480e-01,1.925e-01,5.341e-01,9.483e-01,6.108e-01,1.310e+00,1.844e+00,1.577e+00,2.920e+00,1.352e+00,2.455e+00,2.062e+00,2.446e+00,1.912e+00,2.070e+00,2.418e+00,2.861e+00,1.828e+00,2.393e+00,1.901e+00,1.916e+00,1.410e+00,1.853e+00,2.704e+00,2.203e+00,1.958e+00,2.082e+00,2.065e+00,1.310e+00,1.382e+00,1.096e+00,1.570e+00,1.920e+00,1.776e+00,2.353e+00,2.020e+00,1.885e+00,1.346e+00,2.959e+00,2.455e+00,2.702e+00,1.272e+00,1.784e+00,1.600e+00,1.514e+00,2.593e+00,1.888e+00,1.625e+00,3.131e+00,1.711e+00,2.504e+00,2.476e+00,1.685e+00,2.137e+00,3.061e+00,2.322e+00,2.420e+00
8.880e-01,8.690e-01,6.674e-01,1.074e+00,1.121e+00,1.181e+00,1.662e+00,1.661e+00,1.177e+00,3.025e+00,2.747e+00,3.576e+00,2.704e+00,3.277e+00,2.002e+00,2.412e+00,2.747e+00,3.444e+00,3.092e+00,3.428e+00,2.637e+00,2.204e+00,2.459e+00,2.239e+00,3.204e+00,2.795e+00,3.486e+00,2.566e+00,2.251e+00,2.988e+00,1.953e+00,2.122e+00,2.040e+00,2.898e+00,2.647e+00,4.107e+00,2.462e+00,2.346e+00,2.535e+00,3.878e+00,3.049e+00,3.660e+00,1.763e+00,2.499e+00,1.387e+00,3.084e+00,3.287e+00,2.949e+00,2.006e+00,3.961e+00,2.787e+00,2.586e+00,3.320e+00,2.470e+00,2.666e+00,3.426e+00,2.636e+00,3.093e+00
3.220e-01,4.632e-01,5.943e-01,7.561e-01,7.517e-01,1.055e+00,1.767e+00,1.429e+00,1.184e+00,2.669e+00,2.739e+00,4.101e+00,2.338e+00,2.578e+00,1.970e+00,3.087e+00,2.434e+00,3.555e+00,3.557e+00,2.171e+00,2.369e+00,2.647e+00,2.774e+00,1.965e+00,2.256e+00,3.652e+00,2.219e+00,3.175e+00,1.756e+00,3.118e+00,2.422e+00,1.902e+00,1.962e+00,2.845e+00,2.155e+00,2.176e+00,2.765e+00,2.166e+00,2.323e+00,3.102e+00,2.654e+00,2.497e+00,1.419e+00,2.397e+00,2.059e+00,3.123e+00,2.244e+00,2.986e+00,1.872e+00,3.271e+00,2.744e+00,1.897e+00,2.955e+00,2.893e+00,1.930e+00,2.948e+00,3.127e+00,3.027e+00
6.923e-01,8.580e-01,9.781e-01,1.169e+00,1.253e+00,1.759e+00,2.324e+00,2.814e+00,1.956e+00,3.673e+00,2.652e+00,3.901e+00,3.740e+00,4.716e+00,2.686e+00,4.178e+00,3.380e+00,5.496e+00,4.337e+00,3.436e+00,3.705e+00,3.292e+00,3.360e+00,2.680e+00,3.861e+00,4.522e+00,3.724e+00,3.693e+00,3.181e+00,3.594e+00,3.531e+00,2.550e+00,3.218e+00,3.291e+00,3.064e+00,3.794e+00,3.717e+00,3.083e+00,3.177e+00,4.203e+00,4.303e+00,3.589e+00,2.640e+00,3.215e+00,2.754e+00,3.489e+00,4.176e+00,4.280e+00,2.742e+00,4.617e+00,3.072e+00,3.546e+00,3.557e+00,2.997e+00,3.691e+00,3.762e+00,4.678e+00,3.411e+00
5.420e-01,5.773e-01,4.716e-01,8.823e-01,8.135e-01,7.726e-01,2.112e+00,2.246e+00,2.334e+00,3.082e+00,2.631e+00,3.861e+00,3.072e+00,4.765e+00,3.428e+00,3.572e+00,4.167e+00,4.916e+00,4.342e+00,3.006e+00,3.540e+00,3.375e+00,2.981e+00,2.324e+00,3.352e+00,3.797e+00,3.259e+00,3.970e+00,3.235e+00,4.197e+00,3.408e+00,3.176e+00,3.557e+00,3.865e+00,2.525e+00,4.229e+00,4.694e+00,3.212e+00,2.977e+00,3.884e+00,3.418e+00,3.359e+00,3.097e+00,3.591e+00,3.201e+00,3.552e+00,3.123e+00,3.295e+00,2.587e+00,4.359e+00,3.413e+00,2.774e+00,3.974e+00,3.961e+00,3.427e+00,3.864e+00,4.432e+00,4.198e+00
8.065e-01,1.057e+00,1.040e+00,1.476e+00,1.335e+00,1.894e+00,3.133e+00,2.523e+00,2.323e+00,3.525e+00,3.756e+00,4.889e+00,3.760e+00,4.787e+00,3.438e+00,4.359e+00,4.720e+00,6.225e+00,5.460e+00,4.171e+00,3.700e+00,3.826e+00,3.771e+00,3.488e+00,4.510e+00,5.251e+00,5.187e+00,3.914e+00,4.129e+00,5.538e+00,3.577e+00,3.586e+00,3.799e+00,4.708e+00,4.056e+00,5.916e+00,4.708e+00,3.506e+00,3.850e+00,5.620e+00,4.339e+00,4.353e+00,3.611e+00,4.384e+00,3.475e+00,5.191e+00,4.385e+00,5.132e+00,3.767e+00,5.843e+00,5.215e+00,3.011e+00,4.797e+00,4.697e+00,4.000e+00,4.610e+00,4.166e+00,4.984e+00
1.206e-01,5.229e-01,7.269e-01,9.180e-01,6.154e-01,2.135e+00,2.504e+00,2.719e+00,2.464e+00,3.471e+00,3.815e+00,4.724e+00,3.508e+00,4.621e+00,3.736e+00,4.717e+00,4.850e+00,6.653e+00,6.396e+00,3.943e+00,3.858e+00,3.588e+00,4.011e+00,4.422e+00,4.239e+00,6.058e+00,5.748e+00,4.667e+00,4.133e+00,5.867e+00,3.759e+00,4.033e+00,4.485e+00,5.524e+00,4.226e+00,4.822e+00,5.676e+00,4.001e+00,4.905e+00,5.371e+00,4.717e+00,5.076e+00,4.786e+00,3.740e+00,4.338e+00,5.482e+00,5.301e+00,5.665e+00,5.037e+00,5.745e+00,5.359e+00,4.329e+00,4.580e+00,4.554e+00,4.216e+00,4.621e+00,4.912e+00,5.537e+00
3.669e-01,8.006e-01,9.093e-01,1.224e+00,8.623e-01,1.119e+00,2.350e+00,2.649e+00,2.319e+00,3.436e+00,2.803e+00,3.395e+00,3.233e+00,3.839e+00,3.066e+00,3.460e+00,3.786e+00,4.776e+00,4.156e+00,3.406e+00,2.910e+00,3.355e+00,3.371e+00,3.633e+00,4.349e+00,3.918e+00,3.805e+00,3.860e+00,4.272e+00,3.787e+00,2.671e+00,3.198e+00,3.463e+00,3.821e+00,3.276e+00,4.240e+00,3.185e+00,3.838e+00,2.775e+00,4.105e+00,3.393e+00,4.139e+00,3.248e+00,2.896e+00,3.398e+00,3.250e+00,4.303e+00,3.430e+00,3.242e+00,4.806e+00,2.619e+00,3.634e+00,4.412e+00,3.064e+00,3.326e+00,4.438e+00,4.515e+00,4.186e+00
9.163e-01,5.781e-01,5.218e-01,8.318e-01,1.343e+00,1.405e+00,1.809e+00,2.341e+00,1.446e+00,2.534e+00,1.252e+00,3.252e+00,2.793e+00,3.780e+00,2.726e+00,4.222e+00,4.777e+00,6.116e+00,5.652e+00,3.494e+00,4.215e+00,4.392e+00,3.671e+00,3.921e+00,4.921e+00,5.643e+00,4.347e+00,5.342e+00,4.308e+00,4.628e+00,3.921e+00,4.813e+00,3.859e+00,4.902e+00,3.908e+00,4.787e+00,4.798e+00,3.423e+00,4.730e+00,5.571e+00,4.139e+00,4.466e+00,4.608e+00,5.020e+00,4.256e+00,5.074e+00,4.939e+00,5.065e+00,4.913e+00,5.217e+00,3.954e+00,4.016e+00,4.042e+00,3.884e+00,4.184e+00,5.265e+00,5.557e+00,5.383e+00
3.162e-01,2.355e-01,2.491e-01,3.412e-01,5.121e-01,7.999e-01,1.258e+00,2.255e+00,1.989e+00,2.704e+00,1.990e+00,2.821e+00,2.675e+00,4.656e+00,2.994e+00,4.199e+00,4.429e+00,5.780e+00,5.548e+00,3.754e+00,4.679e+00,3.808e+00,3.816e+00,3.758e+00,5.228e+00,5.401e+00,4.419e+00,4.407e+00,4.861e+00,4.565e+00,4.747e+00,4.819e+00,4.168e+00,4.891e+00,4.030e+00,4.584e+00,5.938e+00,4.538e+00,5.059e+00,5.461e+00,4.644e+00,5.178e+00,5.115e+00,4.876e+00,4.807e+00,4.501e+00,4.731e+00,4.928e+00,4.696e+00,5.133e+00,4.801e+00,4.561e+00,4.070e+00,4.429e+00,4.458e+00,5.256e+00,5.830e+00,5.856e+00
9.945e-02,3.160e-01,5.851e-01,6.437e-01,6.084e-01,1.113e+00,1.465e+00,1.592e+00,1.043e+00,2.840e+00,3.200e+00,4.076e+00,2.581e+00,4.107e+00,3.269e+00,4.488e+00,3.945e+00,5.422e+00,5.306e+00,3.837e+00,4.694e+00,4.035e+00,3.522e+00,4.592e+00,6.070e+00,6.042e+00,4.885e+00,4.613e+00,5.263e+00,5.124e+00,4.376e+00,4.571e+00,3.333e+00,5.515e+00,4.357e+00,5.364e+00,4.122e+00,5.006e+00,4.319e+00,5.822e+00,4.698e+00,5.767e+00,4.747e+00,5.061e+00,4.829e+00,5.629e+00,5.265e+00,5.234e+00,3.981e+00,6.096e+00,4.714e+00,4.958e+00,5.126e+00,4.736e+00,4.402e+00,5.574e+00,5.638e+00,6.325e+00
7.891e-01,4.818e-01,4.903e-01,6.789e-01,1.213e+00,1.538e+00,2.421e+00,2.675e+00,2.328e+00,3.602e+00,3.417e+00,4.742e+00,3.292e+00,5.091e+00,3.472e+00,3.450e+00,4.404e+00,4.881e+00,5.719e+00,3.994e+00,4.883e+00,4.345e+00,3.759e+00,4.920e+00,4.824e+00,5.522e+00,4.708e+00,4.873e+00,4.026e+00,5.529e+00,3.928e+00,4.611e+00,3.771e+00,4.886e+00,3.984e+00,5.825e+00,4.990e+00,5.007e+00,4.641e+00,6.302e+00,5.727e+00,5.312e+00,4.064e+00,5.151e+00,4.533e+00,5.095e+00,5.113e+00,5.047e+00,4.616e+00,6.724e+00,5.556e+00,4.069e+00,5.208e+00,5.089e+00,3.582e+00,6.370e+00,4.903e+00,6.336e+00
2.367e-01,6.668e-01,8.659e-01,1.050e+00,7.595e-01,1.963e+00,2.427e+00,2.048e+00,1.758e+00,2.787e+00,2.997e+00,3.917e+00,2.651e+00,3.110e+00,2.953e+00,4.180e+00,4.384e+00,6.119e+00,6.006e+00,3.760e+00,3.601e+00,5.707e+00,4.481e+00,6.334e+00,5.449e+00,7.433e+00,5.871e+00,5.275e+00,5.361e+00,7.219e+00,4.750e+00,5.894e+00,5.222e+00,5.870e+00,5.826e+00,5.412e+00,5.380e+00,4.558e+00,5.732e+00,6.764e+00,5.177e+00,5.969e+00,5.081e+00,5.264e+00,5.946e+00,6.161e+00,6.076e+00,6.735e+00,5.862e+00,6.191e+00,6.236e+00,4.897e+00,5.822e+00,4.849e+00,3.636e+00,5.589e+00,5.274e+00,7.024e+00
1.944e-01,6.521e-01,8.651e-01,1.127e+00,7.682e-01,2.196e+00,2.481e+00,2.379e+00,1.911e+00,3.486e+00,2.829e+00,3.971e+00,2.877e+00,2.955e+00,3.188e+00,4.326e+00,3.927e+00,6.172e+00,5.432e+00,4.220e+00,3.036e+00,5.333e+00,4.494e+00,5.913e+00,5.794e+00,7.279e+00,5.455e+00,4.977e+00,6.298e+00,5.985e+00,4.451e+00,4.031e+00,5.225e+00,5.425e+00,6.031e+00,5.303e+00,5.640e+00,4.745e+00,5.378e+00,6.891e+00,6.061e+00,6.331e+00,4.843e+00,5.329e+00,5.096e+00,6.133e+00,5.681e+00,6.094e+00,5.015e+00,6.554e+00,6.103e+00,5.439e+00,5.115e+00,4.693e+00,4.233e+00,5.814e+00,4.985e+00,5.651e+00
3.202e-01,8.340e-01,9.793e-01,1.100e+00,7.408e-01,1.059e+00,1.724e+00,2.032e+00,1.510e+00,2.967e+00,2.934e+00,3.361e+00,2.797e+00,3.879e+00,2.701e+00,3.996e+00,4.568e+00,5.442e+00,5.166e+00,3.490e+00,4.102e+00,3.810e+00,4.157e+00,5.992e+00,6.630e+00,7.501e+00,5.924e+00,4.905e+00,5.752e+00,5.891e+00,4.258e+00,5.070e+00,5.036e+00,5.492e+00,5.243e+00,5.683e+00,5.170e+00,5.277e+00,4.515e+00,7.385e+00,5.474e+00,5.919e+00,4.535e+00,5.719e+00,4.573e+00,6.104e+00,4.922e+00,6.454e+00,4.934e+00,6.744e+00,5.193e+00,4.941e+00,5.025e+00,5.214e+00,4.704e+00,6.319e+00,6.505e+00,6.576e+00
7.885e-01,4.815e-01,4.758e-01,7.607e-01,1.245e+00,2.008e+00,2.462e+00,2.324e+00,1.877e+00,2.826e+00,2.419e+00,4.085e+00,3.185e+00,4.188e+00,3.086e+00,3.859e+00,3.628e+00,5.651e+00,5.279e+00,4.781e+00,5.085e+00,6.164e+00,4.785e+00,5.809e+00,7.145e+00,9.096e+00,6.693e+00,6.518e+00,6.003e+00,7.192e+00,6.537e+00,6.311e+00,5.626e+00,6.073e+00,6.217e+00,5.844e+00,6.200e+00,5.474e+00,7.168e+00,8.109e+00,7.712e+00,7.392e+00,6.189e+00,6.191e+00,6.877e+00,6.276e+00,8.097e+00,7.907e+00,6.361e+00,6.672e+00,7.159e+00,7.205e+00,6.483e+00,5.981e+00,6.135e+00,6.579e+00,5.789e+00,6.873e+00
9.016e-01,9.852e-01,8.287e-01,1.296e+00,1.256e+00,1.233e+00,2.710e+00,2.156e+00,2.156e+00,3.214e+00,3.176e+00,4.439e+00,3.287e+00,4.395e+00,3.192e+00,3.910e+00,4.114e+00,5.438e+00,4.716e+00,4.673e+00,4.040e+00,4.609e+00,4.538e+00,4.952e+00,6.594e+00,7.201e+00,6.242e+00,5.769e+00,5.619e+00,6.096e+00,5.007e+00,5.674e+00,5.644e+00,6.220e+00,5.142e+00,6.389e+00,5.157e+00,5.918e+00,4.916e+00,7.121e+00,6.385e+00,5.772e+00,5.041e+00,5.402e+00,5.138e+00,5.459e+00,6.866e+00,6.389e+00,5.047e+00,6.955e+00,5.763e+00,5.830e+00,6.758e+00,5.389e+00,5.095e+00,6.070e+00,6.009e+00,6.376e+00
9.368e-01,9.995e-01,1.078e+00,1.421e+00,1.610e+00,2.094e+00,2.981e+00,3.326e+00,2.406e+00,3.630e+00,3.202e+00,4.507e+00,3.986e+00,4.790e+00,3.130e+00,4.184e+00,5.134e+00,6.117e+00,6.219e+00,4.671e+00,4.898e+00,5.468e+00,4.799e+00,6.645e+00,7.205e+00,7.952e+00,7.367e+00,7.099e+00,6.943e+00,7.511e+00,5.202e+00,7.215e+00,7.037e+00,7.060e+00,6.760e+00,8.399e+00,5.832e+00,6.824e+00,6.869e+00,8.797e+00,7.444e+00,7.011e+00,5.544e+00,6.845e+00,5.768e+00,6.820e+00,8.185e+00,7.737e+00,7.011e+00,8.623e+00,7.229e+00,6.439e+00,7.389e+00,6.323e+00,5.998e+00,8.119e+00,7.180e+00,7.482e+00
8.457e-01,1.028e+00,1.065e+00,1.355e+00,1.388e+00,2.126e+00,2.585e+00,2.318e+00,1.574e+00,3.743e+00,3.449e+00,4.769e+00,3.499e+00,4.793e+00,3.791e+00,4.918e+00,5.231e+00,7.195e+00,6.815e+00,5.604e+00,5.345e+00,6.115e+00,5.174e+00,6.812e+00,8.406e+00,9.522e+00,7.508e+00,7.797e+00,7.583e+00,7.201e+00,7.362e+00,7.131e+00,7.181e+00,8.700e+00,7.839e+00,7.453e+00,6.698e+00,8.054e+00,7.295e+00,1.016e+01,8.272e+00,8.302e+00,7.285e+00,8.230e+00,7.640e+00,8.106e+00,8.785e+00,8.980e+00,7.187e+00,8.761e+00,7.663e+00,8.260e+00,8.133e+00,7.390e+00,6.614e+00,8.832e+00,8.299e+00,8.918e+00
3.557e-01,6.862e-01,9.787e-01,1.017e+00,9.886e-01,1.874e+00,2.520e+00,3.061e+00,2.372e+00,3.622e+00,3.355e+00,4.257e+00,3.524e+00,4.827e+00,3.423e+00,4.484e+00,5.403e+00,6.569e+00,7.537e+00,4.362e+00,5.017e+00,5.102e+00,5.614e+00,7.175e+00,7.503e+00,9.252e+00,6.928e+00,8.277e+00,8.540e+00,7.714e+00,7.703e+00,7.629e+00,7.875e+00,8.144e+00,8.558e+00,7.721e+00,8.370e+00,8.529e+00,7.459e+00,9.084e+00,8.049e+00,7.626e+00,7.656e+00,7.500e+00,7.506e+00,8.286e+00,7.213e+00,9.285e+00,9.736e+00,8.711e+00,7.990e+00,7.703e+00,7.981e+00,7.767e+00,6.280e+00,1.034e+01,8.816e+00,9.398e+00
6.933e-01,6.233e-01,6.798e-01,9.789e-01,1.216e+00,1.969e+00,2.120e+00,2.364e+00,1.509e+00,3.657e+00,2.635e+00,4.234e+00,3.224e+00,3.566e+00,2.663e+00,3.993e+00,3.920e+00,5.903e+00,5.858e+00,4.536e+00,4.505e+00,5.269e+00,4.836e+00,6.359e+00,7.272e+00,9.462e+00,6.659e+00,7.533e+00,7.264e+00,7.951e+00,7.428e+00,6.905e+00,6.978e+00,8.073e+00,8.210e+00,7.497e+00,7.375e+00,7.175e+00,8.297e+00,8.530e+00,7.888e+00,8.112e+00,6.959e+00,6.981e+00,5.992e+00,8.061e+00,7.394e+00,8.464e+00,8.866e+00,8.164e+00,7.746e+00,8.408e+00,7.676e+00,7.415e+00,6.453e+00,8.031e+00,8.272e+00,7.599e+00
1.865e-01,2.621e-01,5.096e-01,4.731e-01,6.367e-01,1.653e+00,1.272e+00,2.559e+00,1.554e+00,3.419e+00,2.386e+00,3.766e+00,2.817e+00,3.623e+00,2.750e+00,4.596e+00,4.406e+00,6.119e+00,6.735e+00,3.894e+00,4.612e+00,5.218e+00,4.757e+00,7.225e+00,7.085e+00,8.517e+00,6.574e+00,6.808e+00,7.793e+00,7.152e+00,7.261e+00,6.699e+00,6.673e+00,6.649e+00,8.626e+00,7.852e+00,7.932e+00,7.294e+00,7.158e+00,9.080e+00,8.073e+00,8.297e+00,6.655e+00,6.659e+00,7.170e+00,8.099e+00,7.472e+00,8.670e+00,8.244e+00,8.990e+00,7.976e+00,8.376e+00,7.107e+00,6.882e+00,6.806e+00,9.736e+00,8.111e+00,8.408e+00
6.176e-01,6.349e-01,5.142e-01,8.195e-01,8.341e-01,9.627e-01,2.243e+00,2.185e+00,2.402e+00,3.455e+00,3.060e+00,4.289e+00,2.773e+00,4.415e+00,3.512e+00,4.195e+00,4.993e+00,5.962e+00,6.047e+00,4.311e+00,4.592e+00,5.285e+00,5.376e+00,5.418e+00,6.042e+00,7.330e+00,4.997e+00,6.821e+00,6.965e+00,6.881e+00,6.401e+00,7.329e+00,7.461e+00,6.776e+00,7.513e+00,8.252e+00,8.235e+00,8.128e+00,7.216e+00,1.010e+01,7.062e+00,7.957e+00,5.871e+00,8.312e+00,7.398e+00,7.768e+00,7.545e+00,8.137e+00,7.042e+00,9.870e+00,8.253e+00,7.303e+00,7.278e+00,7.344e+00,6.394e+00,9.684e+00,7.784e+00,8.921e+00
3.767e-01,6.720e-01,7.313e-01,1.111e+00,8.349e-01,1.445e+00,2.281e+00,2.772e+00,2.371e+00,3.373e+00,2.847e+00,3.787e+00,3.342e+00,3.480e+00,3.090e+00,4.088e+00,5.110e+00,6.114e+00,6.184e+00,4.406e+00,4.337e+00,5.705e+00,4.806e+00,6.753e+00,6.848e+00,8.888e+00,7.462e+00,7.280e+00,8.291e+00,8.628e+00,6.810e+00,8.356e+00,9.295e+00,8.313e+00,9.447e+00,1.089e+01,8.004e+00,8.071e+00,9.155e+00,1.063e+01,8.644e+00,9.411e+00,8.149e+00,8.977e+00,8.993e+00,8.719e+00,1.060e+01,9.043e+00,1.006e+01,1.094e+01,9.242e+00,1.023e+01,9.501e+00,8.949e+00,7.857e+00,9.968e+00,8.738e+00,9.536e+00
9.086e-01,1.173e+00,1.094e+00,1.674e+00,1.457e+00,2.079e+00,3.514e+00,3.017e+00,2.817e+00,4.171e+00,3.443e+00,4.737e+00,3.972e+00,4.569e+00,4.110e+00,4.884e+00,5.258e+00,7.296e+00,6.154e+00,5.785e+00,4.081e+00,6.920e+00,5.672e+00,7.399e+00,8.602e+00,9.129e+00,8.095e+00,7.550e+00,9.571e+00,9.148e+00,8.056e+00,7.628e+00,9.401e+00,9.216e+00,1.032e+01,1.093e+01,8.422e+00,9.270e+00,9.781e+00,1.236e+01,1.036e+01,1.064e+01,8.777e+00,9.239e+00,9.517e+00,8.579e+00,1.045e+01,9.630e+00,9.151e+00,1.098e+01,1.013e+01,1.076e+01,1.072e+01,1.041e+01,9.201e+00,1.021e+01,9.757e+00,9.031e+00
6.795e-01,7.306e-01,8.226e-01,1.009e+00,1.195e+00,1.900e+00,2.571e+00,2.727e+00,2.186e+00,3.206e+00,3.143e+00,4.512e+00,3.759e+00,5.657e+00,3.971e+00,4.389e+00,5.159e+00,6.634e+00,7.591e+00,4.361e+00,4.929e+00,5.551e+00,5.688e+00,7.000e+00,6.755e+00,8.251e+00,7.090e+00,7.487e+00,7.089e+00,8.828e+00,7.690e+00,7.772e+00,8.245e+00,8.016e+00,8.955e+00,1.026e+01,9.373e+00,9.367e+00,9.489e+00,1.160e+01,9.499e+00,9.577e+00,8.808e+00,9.526e+00,9.287e+00,8.773e+00,9.674e+00,1.044e+01,9.794e+00,1.073e+01,9.611e+00,9.238e+00,9.113e+00,1.032e+01,9.047e+00,1.023e+01,9.703e+00,9.547e+00
9.393e-01,7.082e-01,7.181e-01,1.064e+00,1.502e+00,1.653e+00,2.266e+00,2.707e+00,1.746e+00,3.778e+00,2.518e+00,4.092e+00,3.463e+00,4.164e+00,2.935e+00,4.585e+00,4.052e+00,5.821e+00,4.241e+00,4.317e+00,4.033e+00,4.888e+00,3.670e+00,5.499e+00,7.180e+00,7.261e+00,6.396e+00,5.825e+00,7.149e+00,5.865e+00,5.574e+00,5.271e+00,6.738e+00,6.192e+00,7.933e+00,9.788e+00,6.473e+00,7.126e+00,7.635e+00,9.769e+00,8.976e+00,9.411e+00,7.138e+00,8.218e+00,7.842e+00,7.463e+00,9.706e+00,8.489e+00,7.233e+00,9.869e+00,8.319e+00,8.914e+00,8.102e+00,8.404e+00,8.382e+00,8.074e+00,7.830e+00,8.463e+00
8.456e-01,1.087e+00,1.128e+00,1.395e+00,1.375e+00,1.618e+00,2.101e+00,1.644e+00,7.895e-01,2.271e+00,2.131e+00,3.390e+00,2.890e+00,3.548e+00,2.102e+00,3.758e+00,3.701e+00,5.587e+00,5.781e+00,4.484e+00,4.212e+00,6.227e+00,5.400e+00,6.073e+00,7.004e+00,8.033e+00,6.709e+00,7.209e+00,7.141e+00,8.026e+00,8.568e+00,8.760e+00,8.670e+00,8.218e+00,9.406e+00,9.453e+00,7.346e+00,9.310e+00,1.066e+01,1.077e+01,9.827e+00,8.769e+00,9.177e+00,9.816e+00,8.613e+00,8.933e+00,1.004e+01,9.522e+00,9.449e+00,9.859e+00,8.552e+00,9.974e+00,9.841e+00,9.773e+00,8.062e+00,9.709e+00,1.000e+01,9.309e+00
5.545e-03,5.611e-01,8.524e-01,1.012e+00,5.762e-01,2.174e+00,2.401e+00,3.257e+00,2.677e+00,3.693e+00,3.020e+00,3.536e+00,3.538e+00,4.415e+00,3.511e+00,5.005e+00,4.907e+00,7.147e+00,6.167e+00,4.707e+00,4.407e+00,5.767e+00,4.666e+00,7.413e+00,7.698e+00,9.167e+00,8.246e+00,6.245e+00,8.395e+00,8.649e+00,7.760e+00,8.471e+00,9.144e+00,8.406e+00,9.948e+00,1.052e+01,1.009e+01,1.020e+01,1.138e+01,1.323e+01,1.119e+01,1.138e+01,1.096e+01,1.025e+01,1.038e+01,1.061e+01,1.224e+01,1.180e+01,1.093e+01,1.199e+01,1.137e+01,1.146e+01,8.674e+00,1.117e+01,1.105e+01,1.037e+01,1.115e+01,1.168e+01
6.077e-01,4.720e-01,4.034e-01,5.829e-01,8.292e-01,8.980e-01,1.680e+00,1.885e+00,1.764e+00,2.808e+00,2.395e+00,3.689e+00,2.700e+00,4.375e+00,2.806e+00,4.201e+00,3.878e+00,5.571e+00,5.531e+00,4.468e+00,5.190e+00,5.300e+00,5.082e+00,5.897e+00,7.909e+00,8.480e+00,6.531e+00,6.048e+00,7.452e+00,7.617e+00,7.941e+00,7.367e+00,6.719e+00,6.642e+00,7.632e+00,8.371e+00,8.103e+00,8.755e+00,9.293e+00,1.196e+01,9.862e+00,9.871e+00,9.208e+00,9.768e+00,8.631e+00,9.200e+00,9.691e+00,1.027e+01,8.989e+00,1.004e+01,9.767e+00,9.322e+00,8.305e+00,1.053e+01,1.015e+01,1.090e+01,9.789e+00,1.093e+01
5.354e-01,6.406e-01,7.584e-01,9.920e-01,1.061e+00,1.619e+00,2.108e+00,2.128e+00,1.480e+00,2.939e+00,2.181e+00,3.576e+00,2.831e+00,3.855e+00,3.242e+00,4.608e+00,4.645e+00,6.533e+00,6.165e+00,4.493e+00,4.357e+00,6.232e+00,4.888e+00,7.129e+00,8.322e+00,9.189e+00,6.968e+00,7.467e+00,8.782e+00,7.427e+00,7.827e+00,8.484e+00,9.312e+00,8.824e+00,8.993e+00,9.529e+00,8.289e+00,9.943e+00,9.906e+00,1.177e+01,1.066e+01,1.011e+01,9.677e+00,1.109e+01,9.754e+00,1.009e+01,1.083e+01,1.148e+01,9.390e+00,1.146e+01,9.623e+00,9.805e+00,9.189e+00,1.094e+01,8.376e+00,1.138e+01,1.034e+01,1.044e+01
8.902e-02,7.673e-01,1.020e+00,1.114e+00,5.825e-01,1.531e+00,1.681e+00,2.482e+00,1.678e+00,3.381e+00,3.177e+00,3.777e+00,2.998e+00,3.551e+00,2.716e+00,4.328e+00,4.540e+00,5.803e+00,6.074e+00,4.137e+00,4.073e+00,4.811e+00,4.772e+00,7.399e+00,6.870e+00,7.816e+00,7.219e+00,5.693e+00,7.169e+00,7.493e+00,6.003e+00,6.592e+00,6.940e+00,6.675e+00,7.717e+00,9.162e+00,6.770e+00,8.378e+00,8.690e+00,1.118e+01,1.021e+01,1.077e+01,9.205e+00,9.274e+00,8.888e+00,1.013e+01,1.056e+01,9.905e+00,9.167e+00,1.133e+01,9.025e+00,1.017e+01,8.933e+00,9.556e+00,8.497e+00,1.112e+01,9.681e+00,1.126e+01
3.192e-01,8.631e-01,9.514e-01,1.308e+00,7.852e-01,1.862e+00,2.290e+00,3.055e+00,2.453e+00,4.427e+00,3.330e+00,4.237e+00,3.896e+00,5.217e+00,4.040e+00,4.941e+00,5.296e+00,7.462e+00,7.170e+00,4.886e+00,4.837e+00,5.841e+00,4.989e+00,6.568e+00,6.854e+00,8.011e+00,6.972e+00,7.098e+00,7.993e+00,8.056e+00,7.062e+00,8.003e+00,8.745e+00,8.084e+00,8.337e+00,1.065e+01,9.259e+00,9.196e+00,9.892e+00,1.122e+01,9.787e+00,1.122e+01,9.974e+00,1.131e+01,9.844e+00,1.040e+01,1.142e+01,1.030e+01,9.729e+00,1.176e+01,8.887e+00,1.157e+01,1.015e+01,1.113e+01,9.838e+00,1.179e+01,1.137e+01,1.158e+01
5.401e-02,8.417e-02,2.687e-01,4.146e-01,4.692e-01,1.699e+00,1.980e+00,1.884e+00,1.824e+00,3.386e+00,2.968e+00,4.026e+00,2.275e+00,2.976e+00,3.186e+00,3.672e+00,3.114e+00,5.130e+00,5.504e+00,4.022e+00,3.505e+00,4.904e+00,4.353e+00,6.390e+00,7.103e+00,8.010e+00,6.149e+00,6.425e+00,7.480e+00,7.674e+00,6.835e+00,6.638e+00,7.140e+00,7.660e+00,8.596e+00,8.442e+00,7.753e+00,9.723e+00,9.280e+00,1.103e+01,9.590e+00,1.105e+01,1.043e+01,9.518e+00,9.540e+00,1.024e+01,1.064e+01,1.083e+01,1.018e+01,1.145e+01,1.059e+01,1.003e+01,9.057e+00,1.222e+01,9.537e+00,1.185e+01,9.670e+00,1.010e+01
9.226e-02,3.470e-01,4.853e-01,6.762e-01,4.657e-01,8.923e-01,1.814e+00,2.353e+00,2.241e+00,3.366e+00,3.262e+00,4.136e+00,2.889e+00,4.550e+00,3.702e+00,4.860e+00,4.890e+00,6.088e+00,5.748e+00,4.358e+00,4.768e+00,5.786e+00,5.311e+00,7.479e+00,7.941e+00,8.687e+00,7.189e+00,7.227e+00,9.269e+00,8.974e+00,8.491e+00,8.457e+00,8.859e+00,8.340e+00,1.017e+01,1.082e+01,9.609e+00,1.069e+01,1.037e+01,1.280e+01,1.094e+01,1.201e+01,1.169e+01,1.132e+01,1.276e+01,1.117e+01,1.247e+01,1.185e+01,1.203e+01,1.268e+01,1.329e+01,1.293e+01,1.156e+01,1.282e+01,1.146e+01,1.336e+01,1.170e+01,1.322e+01
8.372e-01,5.409e-01,3.366e-01,6.625e-01,1.011e+00,1.461e+00,2.022e+00,2.593e+00,2.360e+00,2.900e+00,1.984e+00,3.389e+00,3.018e+00,4.751e+00,3.444e+00,3.474e+00,4.675e+00,5.758e+00,6.102e+00,4.461e+00,4.595e+00,5.291e+00,5.046e+00,6.611e+00,7.036e+00,8.503e+00,6.969e+00,7.325e+00,7.373e+00,7.991e+00,7.575e+00,7.149e+00,8.375e+00,7.215e+00,9.195e+00,1.041e+01,9.674e+00,9.866e+00,9.832e+00,1.179e+01,1.149e+01,1.282e+01,1.200e+01,1.142e+01,1.233e+01,1.116e+01,1.317e+01,1.210e+01,1.276e+01,1.408e+01,1.169e+01,1.280e+01,1.094e+01,1.300e+01,1.150e+01,1.335e+01,1.119e+01,1.210e+01
5.341e-01,3.671e-01,3.529e-01,6.770e-01,9.024e-01,1.416e+00,1.907e+00,1.862e+00,1.552e+00,3.310e+00,2.708e+00,3.869e+00,2.726e+00,3.497e+00,3.318e+00,3.598e+00,3.364e+00,4.964e+00,4.185e+00,4.017e+00,4.031e+00,4.992e+00,3.243e+00,5.725e+00,7.083e+00,7.716e+00,5.940e+00,5.727e+00,6.461e+00,6.571e+00,5.954e+00,6.055e+00,6.575e+00,7.052e+00,7.452e+00,8.088e+00,6.079e+00,8.372e+00,7.682e+00,9.706e+00,9.197e+00,1.078e+01,8.970e+00,1.030e+01,9.975e+00,9.594e+00,1.106e+01,9.823e+00,8.613e+00,1.121e+01,9.662e+00,1.190e+01,1.076e+01,1.140e+01,9.649e+00,1.154e+01,9.511e+00,1.018e+01
8.499e-01,4.561e-01,5.152e-01,6.660e-01,1.355e+00,1.351e+00,2.262e+00,2.467e+00,1.890e+00,2.909e+00,2.680e+00,4.446e+00,2.990e+00,3.958e+00,2.529e+00,4.009e+00,4.111e+00,4.911e+00,4.960e+00,4.373e+00,5.132e+00,4.790e+00,4.384e+00,4.742e+00,6.566e+00,7.816e+00,5.688e+00,6.533e+00,6.558e+00,6.274e+00,7.573e+00,6.745e+00,6.385e+00,6.808e+00,8.764e+00,8.977e+00,8.091e+00,8.091e+00,9.188e+00,1.074e+01,1.005e+01,1.044e+01,9.407e+00,9.530e+00,1.061e+01,1.005e+01,1.238e+01,1.076e+01,1.124e+01,1.281e+01,1.150e+01,1.242e+01,1.151e+01,1.276e+01,1.143e+01,1.328e+01,1.160e+01,1.223e+01
4.244e-01,8.609e-01,1.039e+00,1.251e+00,9.952e-01,2.109e+00,2.671e+00,2.831e+00,2.287e+00,3.716e+00,3.263e+00,4.298e+00,3.396e+00,4.425e+00,3.370e+00,5.294e+00,5.404e+00,7.441e+00,6.299e+00,4.552e+00,4.357e+00,4.887e+00,4.847e+00,6.283e+00,7.022e+00,9.206e+00,7.352e+00,6.867e+00,8.372e+00,8.019e+00,8.073e+00,6.922e+00,8.637e+00,7.967e+00,1.027e+01,1.091e+01,9.491e+00,9.184e+00,9.187e+00,1.147e+01,1.067e+01,1.118e+01,1.114e+01,1.098e+01,1.073e+01,1.261e+01,1.180e+01,1.312e+01,1.222e+01,1.433e+01,1.282e+01,1.354e+01,1.206e+01,1.304e+01,1.203e+01,1.397e+01,1.217e+01,1.312e+01
6.822e-01,1.028e+00,9.657e-01,1.459e+00,1.117e+00,1.704e+00,2.497e+00,2.491e+00,2.059e+00,4.122e+00,3.855e+00,5.120e+00,3.850e+00,4.794e+00,3.358e+00,4.668e+00,4.305e+00,6.322e+00,5.737e+00,5.621e+00,4.980e+00,5.542e+00,5.108e+00,4.913e+00,6.996e+00,7.447e+00,6.734e+00,6.314e+00,7.317e+00,7.370e+00,6.853e+00,7.212e+00,8.056e+00,7.624e+00,8.617e+00,1.074e+01,8.735e+00,8.968e+00,1.014e+01,1.205e+01,1.107e+01,1.136e+01,9.331e+00,1.122e+01,1.053e+01,1.080e+01,1.330e+01,1.098e+01,9.815e+00,1.338e+01,1.245e+01,1.364e+01,1.243e+01,1.465e+01,1.302e+01,1.380e+01,1.381e+01,1.177e+01
1.570e-01,5.941e-01,6.439e-01,9.460e-01,4.779e-01,1.162e+00,2.217e+00,2.077e+00,2.280e+00,2.919e+00,3.113e+00,3.479e+00,2.695e+00,3.351e+00,3.035e+00,2.823e+00,3.889e+00,4.415e+00,4.603e+00,3.836e+00,3.618e+00,4.484e+00,3.735e+00,5.190e+00,5.500e+00,6.989e+00,5.501e+00,5.237e+00,5.679e+00,6.038e+00,5.592e+00,6.414e+00,7.530e+00,6.400e+00,6.987e+00,7.590e+00,6.996e+00,8.238e+00,7.291e+00,9.568e+00,8.934e+00,9.352e+00,8.767e+00,9.781e+00,1.063e+01,9.635e+00,1.123e+01,9.797e+00,9.171e+00,1.266e+01,1.184e+01,1.217e+01,1.147e+01,1.320e+01,9.917e+00,1.287e+01,1.093e+01,1.118e+01
8.442e-01,5.608e-01,6.041e-01,8.522e-01,1.379e+00,1.883e+00,2.654e+00,2.483e+00,1.991e+00,2.581e+00,2.270e+00,3.781e+00,2.766e+00,3.317e+00,2.343e+00,2.724e+00,3.136e+00,3.963e+00,4.608e+00,4.416e+00,3.825e+00,4.546e+00,4.155e+00,4.387e+00,6.301e+00,6.693e+00,5.262e+00,6.035e+00,6.797e+00,6.107e+00,7.412e+00,6.222e+00,6.933e+00,6.666e+00,9.052e+00,9.568e+00,7.923e+00,8.853e+00,9.128e+00,1.147e+01,1.064e+01,1.064e+01,9.702e+00,1.049e+01,1.057e+01,1.028e+01,1.092e+01,1.031e+01,1.058e+01,1.174e+01,1.278e+01,1.195e+01,1.072e+01,1.305e+01,1.108e+01,1.441e+01,1.011e+01,1.120e+01
8.674e-02,7.131e-01,8.904e-01,1.099e+00,5.312e-01,1.942e+00,2.284e+00,2.133e+00,1.933e+00,3.254e+00,3.067e+00,3.277e+00,2.940e+00,3.913e+00,3.341e+00,3.981e+00,3.881e+00,6.223e+00,5.499e+00,4.155e+00,3.502e+00,4.427e+00,4.412e+00,5.794e+00,6.101e+00,7.554e+00,6.465e+00,5.945e+00,7.248e+00,6.831e+00,5.858e+00,6.446e+00,8.280e+00,7.045e+00,7.793e+00,9.123e+00,7.460e+00,9.234e+00,8.550e+00,1.017e+01,9.859e+00,1.039e+01,9.186e+00,1.013e+01,9.578e+00,1.029e+01,1.218e+01,1.123e+01,9.709e+00,1.381e+01,1.088e+01,1.242e+01,1.237e+01,1.299e+01,1.123e+01,1.435e+01,1.253e+01,1.124e+01
1.532e-01,1.968e-01,3.292e-01,4.154e-01,4.790e-01,1.313e+00,1.490e+00,1.941e+00,1.653e+00,2.969e+00,2.256e+00,3.267e+00,2.186e+00,3.626e+00,2.892e+00,4.140e+00,3.958e+00,5.818e+00,5.803e+00,3.722e+00,4.534e+00,4.747e+00,4.051e+00,5.390e+00,6.217e+00,7.269e+00,5.150e+00,5.772e+00,6.741e+00,7.101e+00,6.203e+00,6.476e+00,6.924e+00,6.487e+00,7.349e+00,9.199e+00,7.146e+00,8.989e+00,8.492e+00,1.020e+01,9.040e+00,1.093e+01,1.024e+01,1.159e+01,1.001e+01,1.131e+01,1.099e+01,1.025e+01,1.088e+01,1.276e+01,1.166e+01,1.206e+01,1.236e+01,1.380e+01,1.192e+01,1.401e+01,1.277e+01,1.353e+01
6.067e-02,3.584e-01,4.035e-01,7.113e-01,3.359e-01,7.144e-01,1.422e+00,1.517e+00,1.508e+00,2.119e+00,2.431e+00,3.256e+00,2.136e+00,2.910e+00,2.480e+00,3.700e+00,3.656e+00,4.695e+00,4.703e+00,3.936e+00,3.539e+00,5.026e+00,4.663e+00,5.830e+00,7.164e+00,7.645e+00,6.621e+00,5.781e+00,7.401e+00,7.368e+00,6.368e+00,7.724e+00,7.201e+00,6.588e+00,7.976e+00,8.496e+00,7.614e+00,7.980e+00,8.251e+00,1.038e+01,8.603e+00,1.009e+01,9.996e+00,9.253e+00,9.804e+00,9.592e+00,1.121e+01,1.209e+01,1.019e+01,1.208e+01,1.207e+01,1.181e+01,1.198e+01,1.352e+01,1.234e+01,1.486e+01,1.187e+01,1.347e+01
7.135e-02,5.559e-01,9.365e-01,1.134e+00,8.308e-01,2.109e+00,2.345e+00,2.579e+00,1.706e+00,3.369e+00,3.254e+00,4.399e+00,2.919e+00,3.211e+00,3.022e+00,4.293e+00,3.977e+00,5.495e+00,5.458e+00,4.064e+00,3.464e+00,4.360e+00,4.361e+00,5.283e+00,5.891e+00,6.241e+00,5.459e+00,6.190e+00,7.284e+00,6.954e+00,6.247e+00,6.023e+00,7.224e+00,7.527e+00,8.919e+00,9.178e+00,6.693e+00,7.467e+00,8.004e+00,9.702e+00,8.802e+00,1.049e+01,9.420e+00,9.301e+00,9.597e+00,1.111e+01,1.120e+01,1.092e+01,1.097e+01,1.304e+01,1.116e+01,1.318e+01,1.398e+01,1.449e+01,1.273e+01,1.594e+01,1.305e+01,1.229e+01
6.241e-01,8.496e-01,9.684e-01,1.263e+00,1.218e+00,2.117e+00,2.562e+00,2.859e+00,2.073e+00,4.478e+00,3.251e+00,4.682e+00,3.718e+00,4.834e+00,3.513e+00,5.407e+00,4.840e+00,7.579e+00,6.622e+00,5.043e+00,5.152e+00,6.234e+00,5.014e+00,6.058e+00,7.292e+00,8.509e+00,6.585e+00,7.316e+00,8.181e+00,7.850e+00,7.845e+00,8.182e+00,8.589e+00,7.855e+00,9.502e+00,1.059e+01,8.748e+00,9.657e+00,9.762e+00,1.123e+01,1.024e+01,1.071e+01,1.002e+01,1.116e+01,1.006e+01,1.110e+01,1.245e+01,1.235e+01,1.093e+01,1.455e+01,1.189e+01,1.394e+01,1.373e+01,1.466e+01,1.335e+01,1.745e+01,1.520e+01,1.459e+01
2.924e-01,8.326e-01,8.976e-01,1.166e+00,6.672e-01,1.948e+00,2.539e+00,2.599e+00,2.488e+00,3.972e+00,3.655e+00,4.081e+00,3.242e+00,4.129e+00,3.716e+00,3.552e+00,4.588e+00,5.864e+00,5.841e+00,4.307e+00,3.857e+00,4.843e+00,4.276e+00,6.371e+00,6.239e+00,8.500e+00,6.475e+00,7.118e+00,6.946e+00,7.129e+00,6.342e+00,6.440e+00,8.290e+00,7.909e+00,8.270e+00,7.831e+00,7.802e+00,9.964e+00,7.914e+00,1.028e+01,9.559e+00,1.034e+01,9.528e+00,1.026e+01,1.088e+01,1.010e+01,1.189e+01,1.160e+01,1.134e+01,1.454e+01,1.273e+01,1.418e+01,1.333e+01,1.406e+01,1.155e+01,1.724e+01,1.422e+01,1.425e+01
2.473e-01,7.854e-01,8.721e-01,1.041e+00,5.806e-01,1.297e+00,2.232e+00,1.880e+00,1.979e+00,3.017e+00,3.106e+00,3.760e+00,2.271e+00,3.515e+00,3.067e+00,4.225e+00,4.397e+00,5.802e+00,5.283e+00,4.543e+00,4.084e+00,4.855e+00,4.621e+00,4.514e+00,5.783e+00,6.913e+00,4.839e+00,5.937e+00,7.024e+00,6.573e+00,7.017e+00,6.109e+00,7.117e+00,7.714e+00,8.740e+00,9.071e+00,8.404e+00,8.958e+00,9.424e+00,1.154e+01,9.336e+00,1.095e+01,9.965e+00,9.655e+00,1.002e+01,9.908e+00,1.148e+01,9.675e+00,9.997e+00,1.298e+01,1.126e+01,1.255e+01,1.164e+01,1.407e+01,1.171e+01,1.466e+01,1.414e+01,1.401e+01
