8.927e-01,9.942e-01,9.598e-01,9.059e-01,9.663e-01,2.595e-01,2.412e-01,2.202e-02,4.741e-01,4.587e-01,5.491e-01,8.272e-01,8.744e-01,5.388e-01,7.664e-01,1.419e-01,7.816e-01,7.904e-01,4.245e-01,5.209e-01,4.045e-01,9.180e-01,3.490e-02,6.285e-01,1.364e-01,4.134e-01,1.723e-01,6.251e-01,7.630e-01,2.173e-01,1.344e-01,4.026e-01,5.693e-01,4.148e-01,1.864e-01,7.378e-01,1.590e-02,9.415e-02,5.401e-01,7.493e-01,2.205e-01,9.532e-01,6.299e-01,5.481e-01,9.629e-01,1.584e-01,9.842e-01,1.498e-01,9.800e-02,2.368e-01,2.044e-01,2.811e-01,6.121e-01,7.665e-01,5.530e-01,2.756e-01,1.967e-01,8.199e-01,7.233e-01,5.926e-02,8.245e-01,9.200e-01,6.564e-01,7.632e-01,9.199e-01,9.236e-01,6.550e-01,6.251e-01,8.660e-01,9.260e-01,6.878e-01,5.808e-01,8.245e-01,7.151e-01,9.889e-01,5.027e-01,2.161e-01,6.823e-01,8.076e-01
8.810e-01,1.068e+00,1.544e+00,8.942e-01,1.239e+00,9.517e-01,9.286e-01,9.103e-01,1.333e+00,6.569e-01,1.453e+00,1.088e+00,1.343e+00,1.462e+00,9.921e-01,1.525e-01,1.041e+00,1.297e+00,1.169e+00,6.542e-01,1.123e+00,1.793e+00,3.671e-01,1.190e+00,8.771e-01,1.212e+00,5.673e-01,6.953e-01,1.195e+00,2.226e-01,7.941e-01,8.276e-01,5.684e-01,9.505e-01,7.739e-01,9.109e-01,7.774e-01,1.240e-01,1.283e+00,1.600e+00,5.421e-01,1.146e+00,1.273e+00,1.045e+00,1.010e+00,9.862e-01,1.704e+00,1.757e-01,9.918e-01,6.140e-01,3.883e-01,1.100e+00,1.594e+00,9.520e-01,9.654e-01,1.010e+00,4.207e-01,1.442e+00,8.823e-01,6.426e-01,8.868e-01,1.508e+00,7.882e-01,1.123e+00,1.761e+00,1.442e+00,1.168e+00,7.203e-01,1.706e+00,1.203e+00,7.989e-01,8.067e-01,8.933e-01,1.574e+00,1.091e+00,1.148e+00,5.882e-01,1.103e+00,1.148e+00
1.996e-01,2.635e-01,1.279e+00,1.073e+00,1.298e+00,3.982e-01,8.146e-01,1.048e+00,9.918e-01,1.087e+00,1.445e+00,4.035e-01,1.006e+00,1.051e+00,4.618e-01,5.954e-01,1.105e+00,9.228e-01,6.089e-01,3.808e-01,1.030e+00,1.497e+00,4.154e-01,9.859e-01,1.292e+00,9.222e-01,4.401e-01,3.424e-01,5.139e-01,4.859e-01,5.703e-01,5.802e-01,9.997e-01,5.483e-01,3.217e-01,1.135e+00,4.512e-01,7.975e-01,1.433e+00,1.216e+00,4.239e-01,6.803e-01,4.653e-01,4.080e-01,4.434e-01,9.428e-01,1.488e+00,3.932e-01,1.342e+00,4.026e-01,7.903e-01,6.893e-01,1.286e+00,8.345e-01,7.800e-01,1.141e+00,7.950e-01,8.298e-01,1.174e+00,1.171e+00,4.424e-01,1.046e+00,4.879e-01,1.323e+00,1.279e+00,9.991e-01,1.294e+00,8.565e-01,8.592e-01,9.230e-01,7.030e-01,2.825e-01,5.823e-01,8.600e-01,7.469e-01,1.068e+00,9.180e-01,5.125e-01,7.328e-01
2.188e-01,2.733e-01,6.299e-01,8.605e-01,1.408e+00,1.005e+00,9.083e-01,9.590e-01,9.776e-01,1.187e+00,1.583e+00,3.692e-01,9.780e-01,1.081e+00,5.672e-01,2.898e-01,6.448e-01,5.550e-01,1.309e+00,5.749e-01,9.570e-01,7.421e-01,1.059e+00,7.834e-01,5.123e-01,9.190e-01,5.906e-01,2.401e-01,5.235e-01,8.419e-01,1.109e+00,5.358e-01,6.278e-01,9.363e-01,1.186e+00,1.292e+00,4.779e-01,9.067e-01,6.859e-01,1.296e+00,1.124e+00,8.782e-01,1.038e+00,1.080e+00,3.064e-01,1.005e+00,9.732e-01,4.763e-01,1.324e+00,2.974e-01,9.690e-01,1.006e+00,6.718e-01,1.031e+00,7.239e-01,1.270e+00,5.522e-01,8.984e-01,8.597e-01,1.008e+00,1.116e+00,1.522e+00,5.277e-01,1.008e+00,9.930e-01,7.270e-01,1.204e+00,7.616e-01,1.353e+00,1.330e+00,7.378e-01,7.376e-01,9.392e-01,1.488e+00,4.540e-01,1.354e+00,4.969e-01,7.953e-01,6.884e-01
1.691e-01,2.677e-01,7.539e-01,3.677e-01,9.387e-01,1.121e+00,1.148e+00,1.285e+00,1.084e+00,1.289e+00,1.989e+00,9.220e-01,1.202e+00,2.039e+00,8.882e-01,2.946e-01,1.486e+00,1.161e+00,1.489e+00,4.847e-01,1.618e+00,1.720e+00,7.992e-01,1.393e+00,1.683e+00,1.878e+00,1.132e+00,2.853e-01,1.427e+00,1.042e+00,1.813e+00,7.681e-01,1.113e+00,1.664e+00,1.720e+00,1.493e+00,9.840e-01,1.146e+00,1.676e+00,1.503e+00,1.640e+00,1.474e+00,1.962e+00,1.043e+00,1.149e+00,1.590e+00,1.394e+00,7.725e-01,1.354e+00,4.599e-01,6.073e-01,1.568e+00,1.703e+00,1.224e+00,1.218e+00,1.407e+00,9.226e-01,1.856e+00,1.262e+00,1.499e+00,7.716e-01,1.256e+00,6.962e-01,1.160e+00,1.297e+00,1.491e+00,1.882e+00,1.299e+00,2.099e+00,1.396e+00,4.213e-01,1.452e+00,1.267e+00,1.960e+00,1.214e+00,1.102e+00,6.350e-01,1.620e+00,1.380e+00
6.665e-01,7.492e-01,1.325e+00,1.349e+00,1.641e+00,6.996e-01,1.538e+00,8.331e-01,1.466e+00,1.822e+00,2.628e+00,1.751e+00,1.773e+00,2.247e+00,1.546e+00,9.303e-01,3.020e+00,1.595e+00,1.204e+00,1.089e+00,1.498e+00,2.838e+00,1.226e+00,1.961e+00,2.276e+00,2.433e+00,1.215e+00,7.841e-01,2.215e+00,1.867e+00,1.621e+00,1.030e+00,2.876e+00,1.454e+00,1.637e+00,2.490e+00,3.949e-01,1.494e+00,2.094e+00,2.327e+00,2.272e+00,2.376e+00,1.703e+00,8.974e-01,2.640e+00,1.400e+00,2.354e+00,1.465e+00,1.926e+00,5.736e-01,1.183e+00,1.784e+00,2.395e+00,2.276e+00,1.520e+00,1.219e+00,1.184e+00,2.815e+00,2.818e+00,2.268e+00,1.631e+00,2.071e+00,1.203e+00,1.926e+00,2.042e+00,2.177e+00,2.807e+00,2.461e+00,2.531e+00,1.825e+00,1.796e+00,1.616e+00,2.644e+00,1.908e+00,2.094e+00,1.463e+00,1.653e+00,1.804e+00,2.263e+00
1.158e-01,1.861e-01,1.256e+00,1.137e+00,1.640e+00,9.593e-01,1.868e+00,2.442e+00,2.454e+00,2.608e+00,3.187e+00,1.770e+00,1.423e+00,2.845e+00,1.234e+00,1.703e+00,1.800e+00,2.092e+00,2.051e+00,1.325e+00,1.828e+00,2.814e+00,1.437e+00,2.111e+00,1.988e+00,1.833e+00,1.349e+00,1.348e+00,1.361e+00,1.597e+00,2.196e+00,1.504e+00,2.483e+00,2.133e+00,1.579e+00,2.733e+00,1.003e+00,1.704e+00,2.401e+00,2.091e+00,2.161e+00,1.530e+00,1.986e+00,1.589e+00,1.080e+00,2.162e+00,2.810e+00,1.139e+00,2.320e+00,7.367e-01,1.449e+00,2.174e+00,2.280e+00,2.103e+00,1.377e+00,1.835e+00,1.412e+00,2.613e+00,2.252e+00,2.043e+00,2.035e+00,2.754e+00,1.358e+00,2.262e+00,2.347e+00,1.556e+00,2.964e+00,2.290e+00,2.362e+00,1.901e+00,1.695e+00,1.741e+00,1.456e+00,2.525e+00,1.724e+00,1.986e+00,1.911e+00,1.210e+00,2.223e+00
4.671e-02,1.040e-01,5.754e-01,5.222e-01,1.023e+00,1.069e+00,1.483e+00,1.833e+00,2.538e+00,1.549e+00,2.713e+00,1.763e+00,1.910e+00,2.076e+00,1.561e+00,8.415e-01,1.483e+00,1.325e+00,2.474e+00,9.462e-01,2.052e+00,2.196e+00,2.310e+00,2.014e+00,1.832e+00,2.272e+00,1.880e+00,6.506e-01,1.682e+00,1.660e+00,2.536e+00,1.782e+00,2.362e+00,2.200e+00,2.517e+00,2.221e+00,1.652e+00,1.002e+00,1.523e+00,2.695e+00,2.681e+00,1.952e+00,1.742e+00,1.815e+00,1.388e+00,1.685e+00,2.133e+00,1.732e+00,2.049e+00,1.309e+00,1.497e+00,2.787e+00,1.768e+00,2.120e+00,1.441e+00,1.411e+00,8.613e-01,1.964e+00,2.206e+00,2.418e+00,2.376e+00,2.539e+00,1.458e+00,1.261e+00,2.337e+00,1.688e+00,2.787e+00,1.427e+00,2.285e+00,1.264e+00,1.975e+00,1.586e+00,2.001e+00,1.955e+00,1.240e+00,2.103e+00,2.066e+00,1.620e+00,1.954e+00
3.430e-01,4.539e-01,1.067e+00,6.279e-01,9.916e-01,9.459e-01,1.638e+00,1.735e+00,3.105e+00,2.069e+00,2.641e+00,1.885e+00,2.189e+00,3.355e+00,1.735e+00,1.313e+00,1.793e+00,2.137e+00,1.777e+00,2.095e+00,2.303e+00,3.365e+00,1.660e+00,2.073e+00,2.407e+00,2.035e+00,2.042e+00,1.462e+00,2.401e+00,1.688e+00,1.799e+00,1.996e+00,2.670e+00,1.855e+00,2.198e+00,2.334e+00,1.371e+00,1.058e+00,2.186e+00,2.789e+00,1.884e+00,1.645e+00,2.364e+00,2.155e+00,1.892e+00,2.433e+00,3.229e+00,1.045e+00,2.437e+00,1.227e+00,1.210e+00,2.991e+00,2.217e+00,1.954e+00,1.220e+00,1.996e+00,1.778e+00,2.973e+00,1.835e+00,1.737e+00,2.647e+00,2.780e+00,2.078e+00,2.335e+00,2.886e+00,1.790e+00,2.581e+00,2.278e+00,2.771e+00,1.720e+00,1.833e+00,2.013e+00,1.748e+00,3.141e+00,2.386e+00,1.601e+00,1.599e+00,1.228e+00,2.573e+00
8.136e-01,9.530e-01,1.931e+00,1.879e+00,2.498e+00,1.247e+00,2.052e+00,2.303e+00,3.552e+00,4.070e+00,4.284e+00,3.623e+00,3.762e+00,4.854e+00,3.247e+00,2.701e+00,3.414e+00,3.449e+00,3.693e+00,2.931e+00,4.052e+00,5.209e+00,2.723e+00,3.625e+00,3.998e+00,3.163e+00,3.612e+00,1.803e+00,3.868e+00,2.977e+00,3.472e+00,2.965e+00,4.610e+00,3.015e+00,3.072e+00,4.403e+00,2.416e+00,2.723e+00,3.464e+00,4.465e+00,3.168e+00,3.254e+00,3.887e+00,3.091e+00,3.460e+00,3.422e+00,4.633e+00,2.224e+00,3.660e+00,1.798e+00,2.162e+00,3.861e+00,3.315e+00,3.438e+00,3.156e+00,3.107e+00,2.992e+00,4.714e+00,4.078e+00,3.834e+00,4.498e+00,4.637e+00,3.062e+00,3.554e+00,4.079e+00,3.185e+00,4.419e+00,3.927e+00,4.290e+00,3.594e+00,2.920e+00,3.753e+00,4.104e+00,4.670e+00,4.362e+00,3.341e+00,2.585e+00,2.548e+00,3.760e+00
3.382e-01,3.880e-01,5.618e-01,7.729e-01,1.176e+00,8.690e-01,1.507e+00,1.894e+00,2.937e+00,2.493e+00,3.389e+00,3.044e+00,3.010e+00,3.689e+00,2.698e+00,2.034e+00,2.469e+00,2.808e+00,3.312e+00,2.489e+00,2.937e+00,3.747e+00,2.546e+00,3.037e+00,2.870e+00,2.271e+00,3.273e+00,2.378e+00,3.125e+00,3.136e+00,2.926e+00,2.313e+00,3.376e+00,2.966e+00,3.275e+00,3.528e+00,1.781e+00,1.625e+00,1.887e+00,3.430e+00,3.515e+00,3.191e+00,2.612e+00,2.759e+00,2.379e+00,2.597e+00,3.842e+00,2.657e+00,2.883e+00,2.070e+00,2.263e+00,3.221e+00,2.775e+00,3.027e+00,2.444e+00,1.947e+00,2.015e+00,3.831e+00,3.615e+00,2.971e+00,3.688e+00,3.860e+00,2.968e+00,2.888e+00,2.777e+00,2.437e+00,3.426e+00,2.903e+00,3.289e+00,2.359e+00,3.260e+00,2.757e+00,3.011e+00,3.501e+00,2.824e+00,3.233e+00,2.549e+00,2.314e+00,2.968e+00
3.653e-01,4.806e-01,1.357e+00,1.217e+00,1.990e+00,1.549e+00,2.370e+00,3.001e+00,4.268e+00,3.607e+00,4.826e+00,3.461e+00,5.096e+00,5.698e+00,3.927e+00,2.280e+00,4.310e+00,4.548e+00,4.610e+00,3.184e+00,5.187e+00,5.278e+00,4.160e+00,4.873e+00,5.053e+00,4.302e+00,4.789e+00,3.368e+00,4.302e+00,4.587e+00,4.309e+00,3.473e+00,5.126e+00,4.726e+00,5.109e+00,5.031e+00,3.140e+00,2.923e+00,3.847e+00,4.863e+00,4.509e+00,4.492e+00,4.848e+00,3.761e+00,3.901e+00,4.828e+00,6.114e+00,3.247e+00,4.358e+00,2.862e+00,3.084e+00,5.167e+00,4.320e+00,4.273e+00,3.501e+00,3.881e+00,3.609e+00,5.830e+00,5.345e+00,4.872e+00,5.336e+00,4.767e+00,4.675e+00,4.216e+00,4.974e+00,3.814e+00,5.473e+00,4.012e+00,4.869e+00,4.036e+00,3.730e+00,4.328e+00,4.556e+00,4.949e+00,4.714e+00,3.844e+00,3.548e+00,3.303e+00,4.200e+00
2.781e-01,3.800e-01,1.236e+00,8.040e-01,1.146e+00,9.134e-01,1.967e+00,2.115e+00,3.124e+00,2.512e+00,3.614e+00,2.993e+00,3.788e+00,4.960e+00,3.384e+00,3.040e+00,3.956e+00,4.291e+00,3.564e+00,3.859e+00,4.183e+00,5.540e+00,3.870e+00,4.764e+00,4.126e+00,3.870e+00,4.274e+00,4.208e+00,4.334e+00,4.059e+00,3.408e+00,3.436e+00,4.542e+00,3.540e+00,4.007e+00,4.211e+00,3.082e+00,2.655e+00,3.259e+00,4.402e+00,3.881e+00,3.418e+00,4.071e+00,2.788e+00,3.232e+00,4.829e+00,5.339e+00,2.422e+00,4.117e+00,3.037e+00,3.005e+00,3.675e+00,4.110e+00,3.600e+00,3.459e+00,3.718e+00,3.731e+00,5.363e+00,4.834e+00,4.254e+00,4.620e+00,4.637e+00,3.863e+00,4.063e+00,4.155e+00,2.637e+00,4.388e+00,3.955e+00,4.408e+00,3.399e+00,3.796e+00,3.484e+00,4.037e+00,4.673e+00,3.961e+00,3.711e+00,3.894e+00,2.259e+00,3.496e+00
7.149e-02,9.642e-02,6.763e-01,1.010e+00,1.635e+00,1.024e+00,1.524e+00,1.843e+00,2.033e+00,3.131e+00,3.118e+00,2.083e+00,2.779e+00,4.534e+00,3.184e+00,3.026e+00,2.992e+00,3.171e+00,4.096e+00,2.882e+00,3.582e+00,3.301e+00,3.221e+00,3.519e+00,3.124e+00,2.852e+00,3.099e+00,2.041e+00,3.085e+00,3.947e+00,3.966e+00,2.815e+00,3.958e+00,3.473e+00,3.374e+00,4.148e+00,2.799e+00,3.115e+00,2.939e+00,3.466e+00,3.192e+00,2.907e+00,3.721e+00,2.921e+00,2.809e+00,3.590e+00,3.847e+00,2.320e+00,3.096e+00,1.443e+00,2.273e+00,3.392e+00,2.681e+00,3.470e+00,2.943e+00,3.587e+00,3.194e+00,4.649e+00,3.938e+00,3.865e+00,4.530e+00,4.104e+00,3.362e+00,3.274e+00,3.247e+00,2.215e+00,4.495e+00,3.115e+00,3.777e+00,4.139e+00,2.558e+00,3.832e+00,3.737e+00,3.721e+00,4.009e+00,2.651e+00,2.593e+00,2.376e+00,3.025e+00
5.142e-01,5.824e-01,9.342e-01,1.278e+00,1.903e+00,1.274e+00,2.032e+00,1.892e+00,2.808e+00,3.380e+00,4.418e+00,3.785e+00,3.796e+00,5.375e+00,4.463e+00,4.056e+00,4.498e+00,4.319e+00,5.294e+00,3.976e+00,4.454e+00,5.676e+00,4.137e+00,4.907e+00,4.340e+00,4.897e+00,5.373e+00,3.761e+00,5.445e+00,5.981e+00,5.311e+00,4.420e+00,5.732e+00,4.203e+00,4.981e+00,6.193e+00,3.602e+00,4.015e+00,3.178e+00,5.999e+00,5.706e+00,5.656e+00,4.538e+00,3.805e+00,4.714e+00,4.904e+00,5.070e+00,4.182e+00,5.134e+00,2.783e+00,3.627e+00,4.913e+00,4.998e+00,4.837e+00,5.011e+00,4.591e+00,4.189e+00,6.127e+00,6.503e+00,5.092e+00,5.856e+00,5.983e+00,4.493e+00,5.199e+00,3.894e+00,3.941e+00,6.026e+00,4.987e+00,6.214e+00,4.365e+00,4.816e+00,4.358e+00,5.423e+00,5.962e+00,5.187e+00,5.069e+00,4.065e+00,4.014e+00,4.473e+00
5.863e-01,6.718e-01,1.190e+00,1.435e+00,1.944e+00,1.101e+00,1.580e+00,1.279e+00,2.321e+00,2.137e+00,2.911e+00,2.008e+00,3.325e+00,3.240e+00,3.023e+00,3.141e+00,4.016e+00,3.339e+00,3.929e+00,2.877e+00,3.497e+00,4.412e+00,4.664e+00,3.910e+00,3.110e+00,4.191e+00,3.481e+00,3.435e+00,3.391e+00,4.241e+00,3.878e+00,3.538e+00,4.537e+00,2.976e+00,4.235e+00,4.833e+00,3.059e+00,2.666e+00,2.688e+00,4.595e+00,4.033e+00,3.745e+00,3.851e+00,3.039e+00,3.187e+00,4.114e+00,4.480e+00,2.269e+00,3.722e+00,2.206e+00,3.168e+00,3.930e+00,3.148e+00,3.737e+00,3.310e+00,4.266e+00,3.632e+00,4.475e+00,4.700e+00,4.663e+00,4.988e+00,4.249e+00,4.011e+00,3.233e+00,3.750e+00,3.017e+00,4.798e+00,3.811e+00,3.973e+00,4.056e+00,4.067e+00,3.349e+00,4.807e+00,4.280e+00,4.035e+00,3.894e+00,3.326e+00,2.150e+00,3.226e+00
5.732e-01,6.463e-01,1.270e+00,1.278e+00,1.451e+00,3.623e-01,9.994e-01,1.221e+00,2.220e+00,2.079e+00,2.030e+00,1.601e+00,2.455e+00,2.765e+00,2.198e+00,2.962e+00,3.316e+00,3.809e+00,2.903e+00,3.304e+00,2.852e+00,4.955e+00,3.561e+00,3.576e+00,3.406e+00,3.519e+00,3.505e+00,3.937e+00,3.404e+00,3.639e+00,3.202e+00,3.339e+00,4.692e+00,3.035e+00,2.888e+00,4.891e+00,2.827e+00,2.717e+00,2.745e+00,3.509e+00,3.209e+00,3.683e+00,3.721e+00,2.666e+00,2.601e+00,4.356e+00,4.932e+00,1.973e+00,3.314e+00,1.982e+00,3.063e+00,3.627e+00,2.995e+00,3.072e+00,3.436e+00,3.838e+00,4.059e+00,3.496e+00,3.731e+00,3.406e+00,4.307e+00,3.862e+00,3.625e+00,3.861e+00,3.828e+00,3.402e+00,4.678e+00,3.719e+00,3.418e+00,3.108e+00,3.838e+00,2.985e+00,3.206e+00,3.773e+00,4.458e+00,2.885e+00,2.919e+00,1.992e+00,3.487e+00
7.347e-04,6.948e-02,5.448e-01,3.104e-01,8.256e-01,1.058e+00,1.181e+00,1.568e+00,2.701e+00,1.942e+00,2.630e+00,2.093e+00,3.160e+00,3.735e+00,2.927e+00,2.285e+00,2.418e+00,3.613e+00,4.056e+00,3.091e+00,4.510e+00,5.068e+00,4.026e+00,4.148e+00,4.166e+00,3.971e+00,4.249e+00,2.749e+00,4.796e+00,4.022e+00,4.185e+00,4.041e+00,4.406e+00,3.825e+00,4.276e+00,4.051e+00,3.945e+00,2.569e+00,3.261e+00,4.512e+00,3.803e+00,3.817e+00,3.643e+00,3.996e+00,2.843e+00,4.055e+00,4.424e+00,3.318e+00,3.819e+00,3.173e+00,2.635e+00,4.106e+00,3.437e+00,3.205e+00,3.807e+00,4.184e+00,4.040e+00,3.916e+00,3.968e+00,4.046e+00,5.161e+00,4.754e+00,3.573e+00,3.009e+00,4.330e+00,2.744e+00,4.370e+00,3.067e+00,4.393e+00,2.996e+00,3.767e+00,3.192e+00,4.319e+00,4.365e+00,4.062e+00,3.593e+00,3.601e+00,2.894e+00,3.064e+00
6.228e-01,7.757e-01,1.963e+00,1.780e+00,2.604e+00,1.675e+00,2.618e+00,2.915e+00,3.834e+00,3.896e+00,4.928e+00,3.203e+00,4.298e+00,6.243e+00,4.208e+00,4.381e+00,5.297e+00,6.690e+00,5.941e+00,6.043e+00,6.109e+00,8.717e+00,6.181e+00,6.935e+00,6.258e+00,6.474e+00,6.243e+00,6.055e+00,7.015e+00,7.224e+00,6.428e+00,5.898e+00,7.153e+00,6.367e+00,6.502e+00,8.111e+00,5.373e+00,5.271e+00,5.993e+00,6.781e+00,6.807e+00,7.319e+00,6.908e+00,5.676e+00,4.722e+00,7.387e+00,8.223e+00,4.917e+00,6.976e+00,4.117e+00,4.805e+00,6.632e+00,6.882e+00,5.923e+00,6.566e+00,6.772e+00,6.688e+00,7.593e+00,7.601e+00,6.171e+00,7.719e+00,7.973e+00,6.066e+00,7.149e+00,6.770e+00,5.230e+00,8.240e+00,6.573e+00,7.337e+00,5.769e+00,6.658e+00,5.427e+00,6.634e+00,7.960e+00,7.856e+00,6.432e+00,6.202e+00,4.573e+00,5.624e+00
5.381e-01,6.269e-01,1.500e+00,1.641e+00,2.226e+00,1.009e+00,1.607e+00,2.153e+00,2.717e+00,3.680e+00,3.720e+00,3.088e+00,3.533e+00,4.436e+00,3.392e+00,4.172e+00,4.297e+00,5.192e+00,5.031e+00,4.479e+00,5.544e+00,7.785e+00,5.269e+00,6.013e+00,5.486e+00,5.313e+00,5.488e+00,5.347e+00,5.447e+00,6.077e+00,6.307e+00,5.597e+00,6.113e+00,5.157e+00,5.195e+00,6.851e+00,5.279e+00,5.293e+00,4.778e+00,6.257e+00,5.777e+00,6.249e+00,5.925e+00,5.494e+00,4.115e+00,6.201e+00,6.133e+00,4.114e+00,5.694e+00,3.153e+00,4.471e+00,6.090e+00,4.885e+00,5.302e+00,6.044e+00,5.543e+00,5.978e+00,6.576e+00,6.338e+00,6.148e+00,6.940e+00,6.516e+00,5.763e+00,5.296e+00,5.224e+00,4.535e+00,7.267e+00,5.777e+00,6.154e+00,5.585e+00,5.807e+00,5.597e+00,6.634e+00,7.024e+00,6.760e+00,5.763e+00,4.629e+00,4.292e+00,4.853e+00
7.414e-02,1.475e-01,1.244e+00,8.776e-01,1.240e+00,7.198e-01,1.449e+00,1.755e+00,2.097e+00,2.147e+00,3.020e+00,1.973e+00,2.836e+00,4.122e+00,2.786e+00,3.757e+00,4.002e+00,4.547e+00,3.887e+00,3.873e+00,5.246e+00,7.156e+00,4.511e+00,5.332e+00,5.318e+00,4.904e+00,5.235e+00,5.067e+00,5.959e+00,5.456e+00,4.750e+00,5.116e+00,5.813e+00,4.155e+00,4.320e+00,5.688e+00,4.134e+00,4.053e+00,4.392e+00,6.047e+00,4.989e+00,5.261e+00,4.762e+00,4.535e+00,3.929e+00,6.349e+00,5.623e+00,4.189e+00,5.490e+00,3.250e+00,4.617e+00,5.123e+00,5.034e+00,4.726e+00,5.375e+00,5.127e+00,5.472e+00,5.921e+00,5.322e+00,5.615e+00,4.968e+00,5.272e+00,4.878e+00,5.058e+00,5.016e+00,3.825e+00,6.247e+00,4.635e+00,5.921e+00,4.296e+00,5.542e+00,3.844e+00,5.320e+00,5.770e+00,5.594e+00,5.534e+00,4.604e+00,4.092e+00,3.871e+00
1.851e-01,2.092e-01,5.764e-01,9.937e-01,1.585e+00,1.052e+00,1.538e+00,1.470e+00,2.139e+00,2.727e+00,3.123e+00,2.151e+00,3.311e+00,3.609e+00,3.061e+00,2.772e+00,4.091e+00,4.360e+00,4.132e+00,3.541e+00,5.220e+00,6.135e+00,5.807e+00,5.201e+00,4.603e+00,6.352e+00,6.197e+00,4.726e+00,5.907e+00,6.175e+00,5.335e+00,5.615e+00,6.392e+00,4.774e+00,5.797e+00,6.740e+00,4.114e+00,5.008e+00,4.657e+00,5.431e+00,6.551e+00,6.357e+00,6.208e+00,4.571e+00,4.825e+00,6.011e+00,5.070e+00,4.536e+00,5.491e+00,3.398e+00,3.796e+00,6.399e+00,4.749e+00,5.020e+00,5.214e+00,5.329e+00,5.767e+00,6.302e+00,7.014e+00,5.507e+00,7.429e+00,5.735e+00,5.477e+00,5.542e+00,5.333e+00,4.323e+00,6.525e+00,5.512e+00,5.825e+00,5.005e+00,5.307e+00,5.190e+00,7.396e+00,6.743e+00,6.836e+00,5.499e+00,4.858e+00,3.575e+00,4.383e+00
2.460e-01,3.301e-01,1.391e+00,1.174e+00,1.554e+00,9.018e-01,2.067e+00,2.437e+00,3.616e+00,3.191e+00,3.914e+00,3.318e+00,3.400e+00,4.959e+00,3.583e+00,4.393e+00,4.027e+00,4.824e+00,4.947e+00,4.156e+00,4.644e+00,6.960e+00,5.618e+00,5.273e+00,5.831e+00,4.771e+00,5.227e+00,5.302e+00,5.696e+00,5.450e+00,5.805e+00,5.298e+00,6.927e+00,4.312e+00,4.642e+00,5.942e+00,4.268e+00,3.931e+00,4.333e+00,6.250e+00,5.419e+00,4.343e+00,4.808e+00,4.519e+00,3.837e+00,5.522e+00,7.020e+00,3.849e+00,5.279e+00,3.838e+00,4.184e+00,5.359e+00,5.330e+00,4.713e+00,4.832e+00,4.737e+00,4.998e+00,6.651e+00,6.055e+00,6.213e+00,6.435e+00,6.666e+00,5.315e+00,4.972e+00,5.917e+00,4.113e+00,6.528e+00,5.653e+00,5.206e+00,5.035e+00,5.944e+00,4.727e+00,5.812e+00,5.936e+00,5.980e+00,5.422e+00,4.988e+00,3.147e+00,4.811e+00
8.385e-01,1.007e+00,1.745e+00,1.429e+00,2.089e+00,1.411e+00,1.814e+00,1.695e+00,2.919e+00,3.162e+00,3.651e+00,2.889e+00,4.435e+00,5.543e+00,4.037e+00,3.670e+00,4.845e+00,5.349e+00,4.859e+00,4.087e+00,5.768e+00,7.500e+00,5.147e+00,5.580e+00,6.249e+00,6.379e+00,6.577e+00,5.420e+00,7.727e+00,6.319e+00,6.315e+00,5.893e+00,6.794e+00,5.019e+00,6.033e+00,6.695e+00,5.110e+00,5.215e+00,6.108e+00,6.826e+00,5.773e+00,6.683e+00,6.190e+00,5.873e+00,5.637e+00,6.555e+00,7.261e+00,4.776e+00,6.043e+00,4.386e+00,4.109e+00,6.591e+00,6.802e+00,5.470e+00,5.907e+00,6.455e+00,6.536e+00,8.185e+00,6.712e+00,7.036e+00,7.236e+00,7.080e+00,7.263e+00,6.489e+00,6.777e+00,5.776e+00,7.153e+00,6.325e+00,6.764e+00,6.625e+00,5.982e+00,6.051e+00,7.889e+00,8.025e+00,8.471e+00,5.759e+00,4.240e+00,4.653e+00,5.882e+00
8.502e-01,9.833e-01,1.945e+00,1.833e+00,2.222e+00,9.528e-01,2.013e+00,1.985e+00,3.502e+00,3.186e+00,4.093e+00,3.418e+00,4.372e+00,5.162e+00,3.890e+00,3.104e+00,4.314e+00,5.007e+00,4.223e+00,4.646e+00,5.608e+00,8.042e+00,5.104e+00,6.153e+00,7.377e+00,6.405e+00,7.445e+00,6.197e+00,8.026e+00,6.448e+00,6.473e+00,6.815e+00,7.888e+00,5.969e+00,5.331e+00,6.231e+00,5.277e+00,6.515e+00,6.410e+00,8.129e+00,6.963e+00,7.876e+00,5.693e+00,6.747e+00,5.643e+00,7.149e+00,8.334e+00,6.109e+00,7.125e+00,4.804e+00,5.475e+00,7.953e+00,7.140e+00,7.076e+00,6.662e+00,5.021e+00,6.680e+00,9.278e+00,7.576e+00,7.691e+00,7.839e+00,8.745e+00,8.027e+00,7.939e+00,7.947e+00,6.362e+00,8.178e+00,6.380e+00,7.372e+00,6.502e+00,7.440e+00,6.563e+00,8.642e+00,7.557e+00,8.328e+00,7.301e+00,5.562e+00,5.652e+00,7.018e+00
5.985e-01,7.327e-01,1.554e+00,1.179e+00,1.560e+00,8.901e-01,1.348e+00,1.662e+00,2.981e+00,2.283e+00,3.026e+00,2.540e+00,4.394e+00,4.905e+00,3.998e+00,3.855e+00,4.196e+00,5.574e+00,4.807e+00,5.127e+00,6.193e+00,7.578e+00,5.636e+00,6.114e+00,6.323e+00,6.857e+00,7.973e+00,6.232e+00,8.203e+00,7.149e+00,6.198e+00,7.667e+00,7.055e+00,6.228e+00,6.719e+00,6.389e+00,6.805e+00,6.008e+00,6.586e+00,7.997e+00,6.224e+00,7.849e+00,6.807e+00,6.709e+00,5.677e+00,7.407e+00,8.148e+00,5.555e+00,6.985e+00,5.240e+00,5.466e+00,7.187e+00,7.527e+00,6.420e+00,7.261e+00,7.072e+00,7.799e+00,7.924e+00,7.353e+00,6.757e+00,8.123e+00,7.709e+00,7.554e+00,7.245e+00,7.479e+00,6.038e+00,7.765e+00,5.903e+00,6.703e+00,5.917e+00,6.598e+00,5.962e+00,7.483e+00,7.637e+00,8.609e+00,7.471e+00,6.655e+00,5.236e+00,5.854e+00
4.694e-01,5.574e-01,8.431e-01,8.078e-01,1.275e+00,1.067e+00,1.551e+00,1.123e+00,1.782e+00,1.717e+00,2.828e+00,1.957e+00,2.766e+00,4.017e+00,3.254e+00,2.800e+00,4.069e+00,4.281e+00,4.186e+00,4.608e+00,4.513e+00,6.112e+00,5.148e+00,5.478e+00,4.694e+00,6.071e+00,6.950e+00,5.824e+00,8.042e+00,7.041e+00,6.684e+00,6.240e+00,7.148e+00,5.946e+00,6.136e+00,6.498e+00,6.181e+00,5.910e+00,4.867e+00,7.343e+00,7.139e+00,8.034e+00,6.534e+00,5.727e+00,5.871e+00,7.258e+00,5.967e+00,5.203e+00,6.508e+00,4.526e+00,6.065e+00,6.405e+00,6.357e+00,6.390e+00,6.420e+00,5.870e+00,5.396e+00,7.815e+00,5.996e+00,7.063e+00,6.539e+00,6.943e+00,6.665e+00,6.521e+00,6.073e+00,5.095e+00,7.444e+00,4.741e+00,7.815e+00,5.173e+00,6.472e+00,5.917e+00,7.194e+00,7.013e+00,7.241e+00,5.480e+00,5.828e+00,6.351e+00,5.543e+00
6.222e-01,7.389e-01,1.585e+00,1.375e+00,1.781e+00,9.395e-01,1.853e+00,1.909e+00,2.953e+00,3.197e+00,3.783e+00,3.538e+00,4.120e+00,5.670e+00,4.564e+00,4.099e+00,4.651e+00,5.412e+00,5.414e+00,5.646e+00,5.698e+00,7.749e+00,6.186e+00,6.799e+00,6.939e+00,6.063e+00,7.322e+00,7.285e+00,8.716e+00,7.940e+00,8.483e+00,7.530e+00,8.791e+00,6.709e+00,6.232e+00,7.517e+00,7.300e+00,6.628e+00,6.151e+00,8.694e+00,7.909e+00,7.900e+00,6.931e+00,6.707e+00,6.334e+00,7.718e+00,8.713e+00,5.865e+00,7.770e+00,5.690e+00,6.556e+00,6.961e+00,6.911e+00,7.302e+00,8.005e+00,6.284e+00,7.092e+00,9.695e+00,8.515e+00,8.765e+00,8.540e+00,8.953e+00,8.477e+00,7.194e+00,7.177e+00,5.835e+00,8.779e+00,6.852e+00,7.881e+00,7.655e+00,7.567e+00,8.269e+00,8.459e+00,8.544e+00,8.831e+00,6.618e+00,7.295e+00,6.593e+00,6.911e+00
1.386e-01,1.817e-01,8.615e-01,9.416e-01,1.384e+00,8.391e-01,1.679e+00,1.944e+00,2.531e+00,3.047e+00,3.407e+00,2.637e+00,3.308e+00,5.335e+00,3.846e+00,4.567e+00,4.209e+00,4.999e+00,4.906e+00,5.331e+00,5.389e+00,7.550e+00,5.549e+00,6.181e+00,5.402e+00,6.455e+00,7.661e+00,6.707e+00,8.222e+00,8.264e+00,7.651e+00,8.581e+00,7.981e+00,6.664e+00,7.292e+00,8.188e+00,7.326e+00,7.382e+00,6.645e+00,7.807e+00,7.705e+00,8.196e+00,6.958e+00,7.106e+00,6.372e+00,7.517e+00,7.007e+00,5.716e+00,8.079e+00,5.255e+00,7.252e+00,7.392e+00,7.224e+00,7.926e+00,8.064e+00,7.621e+00,8.577e+00,8.995e+00,7.787e+00,7.390e+00,9.220e+00,8.435e+00,8.417e+00,8.246e+00,7.046e+00,6.355e+00,8.862e+00,6.445e+00,7.854e+00,7.895e+00,7.592e+00,7.983e+00,7.982e+00,9.307e+00,8.663e+00,7.363e+00,7.156e+00,6.187e+00,7.185e+00
7.425e-01,8.404e-01,1.463e+00,1.740e+00,2.264e+00,1.008e+00,1.501e+00,1.749e+00,2.462e+00,2.778e+00,3.117e+00,2.365e+00,2.996e+00,3.396e+00,3.058e+00,2.942e+00,3.370e+00,4.650e+00,4.184e+00,4.766e+00,5.152e+00,6.851e+00,6.147e+00,5.962e+00,4.756e+00,6.252e+00,6.770e+00,6.477e+00,7.929e+00,7.115e+00,7.738e+00,7.523e+00,8.610e+00,6.856e+00,6.523e+00,8.213e+00,5.987e+00,6.720e+00,6.319e+00,7.722e+00,8.019e+00,8.420e+00,6.671e+00,6.287e+00,5.428e+00,7.477e+00,7.553e+00,5.908e+00,7.376e+00,5.419e+00,6.289e+00,6.380e+00,6.549e+00,7.466e+00,7.661e+00,6.260e+00,6.724e+00,6.706e+00,7.941e+00,6.539e+00,8.928e+00,8.354e+00,6.614e+00,6.898e+00,8.022e+00,6.146e+00,8.182e+00,6.437e+00,7.576e+00,6.773e+00,7.657e+00,6.094e+00,7.972e+00,8.554e+00,8.468e+00,7.326e+00,7.334e+00,6.311e+00,6.133e+00
2.031e-01,2.566e-01,1.028e+00,1.040e+00,1.389e+00,7.048e-01,1.443e+00,1.867e+00,2.499e+00,2.530e+00,2.938e+00,2.444e+00,2.206e+00,3.554e+00,2.846e+00,4.124e+00,3.258e+00,4.300e+00,4.768e+00,3.409e+00,4.049e+00,6.576e+00,4.914e+00,4.641e+00,5.403e+00,6.800e+00,7.921e+00,5.684e+00,8.426e+00,7.090e+00,9.056e+00,8.729e+00,9.775e+00,7.492e+00,6.094e+00,8.842e+00,7.375e+00,7.493e+00,7.071e+00,8.635e+00,8.246e+00,8.845e+00,6.737e+00,7.931e+00,6.754e+00,7.154e+00,8.640e+00,6.532e+00,8.607e+00,5.796e+00,7.779e+00,8.081e+00,7.827e+00,8.396e+00,8.155e+00,8.075e+00,8.658e+00,8.322e+00,7.959e+00,8.796e+00,9.301e+00,8.934e+00,8.540e+00,8.193e+00,7.872e+00,7.680e+00,8.829e+00,6.487e+00,8.135e+00,6.895e+00,7.818e+00,7.751e+00,8.526e+00,8.639e+00,9.002e+00,7.766e+00,7.633e+00,7.206e+00,8.284e+00
4.032e-01,4.990e-01,9.133e-01,7.201e-01,1.150e+00,1.015e+00,1.766e+00,2.056e+00,2.849e+00,2.646e+00,3.501e+00,3.243e+00,3.021e+00,4.491e+00,3.240e+00,3.777e+00,3.965e+00,4.558e+00,4.769e+00,3.806e+00,4.761e+00,7.028e+00,5.327e+00,5.237e+00,6.021e+00,6.786e+00,8.112e+00,6.815e+00,8.812e+00,7.677e+00,9.711e+00,8.942e+00,1.062e+01,9.299e+00,8.357e+00,9.248e+00,7.965e+00,7.850e+00,7.960e+00,9.407e+00,1.007e+01,9.925e+00,8.669e+00,8.832e+00,8.024e+00,8.766e+00,1.068e+01,7.738e+00,9.637e+00,6.209e+00,8.095e+00,9.462e+00,8.560e+00,9.544e+00,8.922e+00,7.682e+00,8.791e+00,1.024e+01,9.294e+00,9.672e+00,1.062e+01,9.366e+00,1.054e+01,8.491e+00,8.583e+00,8.935e+00,9.479e+00,8.217e+00,9.580e+00,9.003e+00,9.298e+00,9.116e+00,9.471e+00,1.105e+01,1.065e+01,8.700e+00,7.994e+00,8.454e+00,9.196e+00
6.911e-01,8.312e-01,1.608e+00,1.252e+00,1.697e+00,1.060e+00,2.015e+00,2.203e+00,3.502e+00,3.543e+00,3.927e+00,3.647e+00,3.638e+00,5.433e+00,3.697e+00,3.634e+00,3.980e+00,5.445e+00,4.371e+00,5.060e+00,5.677e+00,8.175e+00,4.932e+00,5.975e+00,5.627e+00,5.742e+00,6.902e+00,6.465e+00,8.627e+00,7.175e+00,8.095e+00,7.796e+00,1.010e+01,8.002e+00,7.613e+00,9.318e+00,7.984e+00,7.041e+00,8.382e+00,9.484e+00,9.053e+00,8.855e+00,8.921e+00,8.580e+00,7.987e+00,7.816e+00,9.619e+00,6.503e+00,9.261e+00,6.862e+00,6.761e+00,7.845e+00,7.952e+00,8.280e+00,8.008e+00,7.971e+00,8.540e+00,9.726e+00,8.750e+00,8.725e+00,1.040e+01,9.731e+00,9.235e+00,8.416e+00,7.929e+00,7.297e+00,9.033e+00,8.146e+00,9.887e+00,8.340e+00,8.562e+00,8.644e+00,8.545e+00,1.091e+01,1.067e+01,7.175e+00,8.188e+00,7.784e+00,8.403e+00
5.336e-01,6.276e-01,1.370e+00,1.573e+00,2.297e+00,1.266e+00,1.573e+00,1.751e+00,2.533e+00,3.612e+00,3.717e+00,2.730e+00,4.655e+00,5.425e+00,4.242e+00,3.761e+00,4.818e+00,5.841e+00,5.229e+00,5.520e+00,6.453e+00,7.781e+00,5.958e+00,6.745e+00,6.840e+00,7.318e+00,8.586e+00,6.922e+00,8.563e+00,8.531e+00,8.139e+00,8.177e+00,9.126e+00,8.727e+00,8.599e+00,9.965e+00,8.087e+00,9.289e+00,7.853e+00,9.113e+00,8.321e+00,1.059e+01,8.568e+00,8.618e+00,7.881e+00,9.066e+00,8.807e+00,6.840e+00,9.339e+00,6.271e+00,7.830e+00,8.675e+00,8.587e+00,9.057e+00,9.784e+00,9.050e+00,1.068e+01,9.444e+00,9.551e+00,9.132e+00,1.042e+01,9.238e+00,9.214e+00,9.647e+00,8.577e+00,7.785e+00,9.753e+00,8.077e+00,9.827e+00,8.244e+00,8.203e+00,9.074e+00,9.028e+00,1.079e+01,1.018e+01,7.939e+00,7.720e+00,7.704e+00,8.237e+00
4.885e-01,5.469e-01,1.035e+00,1.462e+00,2.087e+00,1.205e+00,2.107e+00,2.112e+00,3.578e+00,4.182e+00,4.375e+00,3.639e+00,4.117e+00,6.102e+00,4.546e+00,4.558e+00,4.662e+00,5.310e+00,5.555e+00,5.926e+00,6.444e+00,8.116e+00,6.480e+00,6.759e+00,6.314e+00,6.572e+00,7.750e+00,6.288e+00,9.278e+00,8.376e+00,9.081e+00,8.770e+00,1.124e+01,9.820e+00,9.198e+00,1.159e+01,8.432e+00,9.552e+00,8.681e+00,1.100e+01,9.492e+00,1.099e+01,9.299e+00,1.044e+01,9.318e+00,1.014e+01,1.064e+01,8.615e+00,1.046e+01,6.590e+00,9.594e+00,9.803e+00,8.671e+00,1.173e+01,1.004e+01,8.860e+00,1.093e+01,1.054e+01,9.516e+00,1.025e+01,1.192e+01,1.138e+01,1.053e+01,9.549e+00,1.065e+01,8.755e+00,1.211e+01,8.869e+00,1.113e+01,9.530e+00,1.019e+01,9.888e+00,1.056e+01,1.141e+01,1.185e+01,8.834e+00,8.934e+00,8.863e+00,1.025e+01
8.743e-01,1.050e+00,1.571e+00,1.098e+00,1.535e+00,1.180e+00,1.798e+00,2.190e+00,3.553e+00,2.178e+00,3.603e+00,3.338e+00,3.840e+00,4.105e+00,3.384e+00,2.246e+00,3.703e+00,5.620e+00,4.689e+00,3.586e+00,4.421e+00,6.771e+00,4.617e+00,5.460e+00,5.685e+00,5.534e+00,6.124e+00,6.554e+00,7.842e+00,6.709e+00,7.187e+00,6.777e+00,8.681e+00,8.154e+00,7.490e+00,9.942e+00,7.401e+00,6.303e+00,8.102e+00,7.832e+00,7.740e+00,1.086e+01,7.119e+00,8.304e+00,7.225e+00,7.826e+00,1.054e+01,7.170e+00,8.962e+00,6.549e+00,7.067e+00,7.693e+00,9.594e+00,8.980e+00,8.262e+00,7.142e+00,8.279e+00,8.462e+00,8.457e+00,7.917e+00,9.050e+00,9.405e+00,9.329e+00,7.709e+00,9.561e+00,8.926e+00,9.152e+00,6.681e+00,8.297e+00,7.630e+00,9.348e+00,7.792e+00,7.811e+00,9.170e+00,1.018e+01,7.501e+00,8.495e+00,7.877e+00,8.923e+00
4.455e-01,5.294e-01,1.322e+00,1.479e+00,2.121e+00,1.195e+00,1.819e+00,1.954e+00,2.975e+00,3.572e+00,3.797e+00,2.814e+00,4.225e+00,5.436e+00,4.080e+00,4.149e+00,4.761e+00,4.947e+00,5.204e+00,5.062e+00,5.794e+00,7.169e+00,6.092e+00,6.007e+00,5.742e+00,6.524e+00,7.965e+00,6.240e+00,8.831e+00,8.142e+00,9.140e+00,8.031e+00,9.995e+00,8.278e+00,8.544e+00,1.110e+01,9.167e+00,8.441e+00,8.164e+00,1.081e+01,8.954e+00,1.121e+01,9.288e+00,8.862e+00,8.518e+00,9.964e+00,1.030e+01,7.180e+00,9.985e+00,7.407e+00,9.403e+00,8.995e+00,8.493e+00,1.083e+01,9.227e+00,9.774e+00,1.004e+01,9.864e+00,9.288e+00,1.071e+01,1.132e+01,1.048e+01,9.936e+00,9.863e+00,9.652e+00,9.086e+00,1.015e+01,8.279e+00,9.572e+00,9.893e+00,8.596e+00,9.680e+00,1.039e+01,1.098e+01,1.169e+01,8.392e+00,8.798e+00,9.095e+00,9.453e+00
3.392e-01,3.952e-01,6.227e-01,6.068e-01,9.059e-01,7.067e-01,1.399e+00,1.274e+00,1.814e+00,2.262e+00,2.863e+00,2.837e+00,2.351e+00,4.166e+00,3.304e+00,3.814e+00,3.870e+00,4.310e+00,4.645e+00,3.603e+00,3.784e+00,6.376e+00,4.353e+00,4.832e+00,5.286e+00,5.530e+00,6.375e+00,5.972e+00,7.115e+00,7.111e+00,8.263e+00,6.625e+00,8.818e+00,7.486e+00,6.622e+00,9.756e+00,7.788e+00,7.404e+00,7.533e+00,9.466e+00,8.937e+00,1.045e+01,7.698e+00,9.008e+00,8.575e+00,7.906e+00,9.325e+00,7.357e+00,9.937e+00,6.842e+00,7.605e+00,9.297e+00,8.873e+00,9.347e+00,8.964e+00,7.808e+00,9.593e+00,9.791e+00,1.012e+01,9.644e+00,1.028e+01,9.718e+00,9.734e+00,9.344e+00,8.277e+00,9.097e+00,9.268e+00,8.736e+00,9.447e+00,9.999e+00,9.037e+00,9.961e+00,8.932e+00,9.906e+00,1.076e+01,8.025e+00,8.229e+00,8.780e+00,9.477e+00
3.397e-01,3.792e-01,8.648e-01,1.016e+00,1.218e+00,5.097e-01,1.326e+00,1.246e+00,2.699e+00,2.086e+00,2.656e+00,2.235e+00,3.661e+00,4.263e+00,4.002e+00,3.846e+00,4.193e+00,5.181e+00,4.587e+00,5.021e+00,5.373e+00,7.073e+00,6.364e+00,6.192e+00,5.491e+00,6.403e+00,7.056e+00,7.145e+00,8.270e+00,8.143e+00,7.409e+00,8.356e+00,9.927e+00,8.430e+00,8.428e+00,1.074e+01,8.495e+00,8.168e+00,8.480e+00,1.002e+01,8.867e+00,1.150e+01,8.387e+00,9.796e+00,9.761e+00,9.867e+00,1.131e+01,9.210e+00,1.070e+01,7.638e+00,9.333e+00,1.047e+01,9.532e+00,1.109e+01,1.046e+01,9.671e+00,1.090e+01,1.022e+01,1.148e+01,9.412e+00,1.250e+01,1.118e+01,1.128e+01,1.095e+01,1.102e+01,9.852e+00,1.091e+01,9.538e+00,1.043e+01,1.122e+01,1.117e+01,9.478e+00,1.024e+01,1.156e+01,1.216e+01,8.965e+00,9.776e+00,8.147e+00,1.021e+01
4.368e-02,6.259e-02,3.695e-01,4.298e-01,7.569e-01,5.251e-01,9.041e-01,1.245e+00,1.677e+00,1.963e+00,2.234e+00,1.684e+00,3.170e+00,4.345e+00,3.455e+00,3.187e+00,3.605e+00,4.446e+00,3.950e+00,4.118e+00,5.189e+00,5.620e+00,5.141e+00,5.443e+00,5.516e+00,5.362e+00,6.797e+00,6.917e+00,8.603e+00,8.080e+00,8.561e+00,7.693e+00,9.847e+00,7.884e+00,7.465e+00,9.337e+00,8.079e+00,7.727e+00,8.381e+00,9.915e+00,9.687e+00,1.080e+01,8.710e+00,9.532e+00,8.990e+00,8.846e+00,1.002e+01,8.338e+00,9.507e+00,9.293e+00,8.894e+00,8.323e+00,9.176e+00,9.934e+00,9.780e+00,9.113e+00,1.035e+01,9.823e+00,1.023e+01,1.078e+01,1.038e+01,1.008e+01,1.062e+01,1.046e+01,9.202e+00,8.559e+00,1.034e+01,8.583e+00,1.059e+01,1.117e+01,8.485e+00,1.001e+01,9.880e+00,1.040e+01,1.176e+01,7.658e+00,9.495e+00,9.610e+00,9.456e+00
5.008e-01,5.723e-01,9.250e-01,1.048e+00,1.467e+00,8.986e-01,1.374e+00,1.029e+00,2.129e+00,2.002e+00,2.815e+00,2.036e+00,3.424e+00,3.668e+00,3.087e+00,2.649e+00,4.124e+00,3.483e+00,3.392e+00,3.990e+00,4.293e+00,5.890e+00,5.095e+00,4.793e+00,5.173e+00,6.629e+00,7.197e+00,5.617e+00,8.230e+00,7.207e+00,8.158e+00,7.737e+00,9.497e+00,8.319e+00,8.524e+00,9.225e+00,7.892e+00,7.907e+00,7.889e+00,1.037e+01,1.044e+01,1.151e+01,9.590e+00,9.398e+00,9.581e+00,9.026e+00,1.086e+01,8.812e+00,1.057e+01,8.831e+00,9.514e+00,9.782e+00,9.237e+00,1.053e+01,9.906e+00,9.737e+00,1.006e+01,9.926e+00,1.119e+01,1.123e+01,1.155e+01,1.107e+01,1.059e+01,1.121e+01,1.021e+01,1.051e+01,9.838e+00,9.633e+00,1.077e+01,1.100e+01,9.050e+00,9.868e+00,1.106e+01,1.137e+01,1.160e+01,9.330e+00,1.017e+01,9.295e+00,9.943e+00
6.731e-01,8.001e-01,1.267e+00,1.023e+00,1.484e+00,1.050e+00,1.556e+00,1.434e+00,2.144e+00,2.389e+00,3.234e+00,2.774e+00,3.211e+00,4.381e+00,3.042e+00,2.981e+00,4.301e+00,5.180e+00,4.388e+00,4.267e+00,5.263e+00,8.182e+00,4.979e+00,5.808e+00,6.273e+00,6.287e+00,6.911e+00,6.218e+00,8.643e+00,7.073e+00,7.949e+00,7.522e+00,9.604e+00,9.183e+00,8.254e+00,1.119e+01,8.320e+00,8.316e+00,9.570e+00,1.020e+01,9.631e+00,1.374e+01,1.057e+01,1.120e+01,1.069e+01,1.053e+01,1.210e+01,1.017e+01,1.184e+01,8.101e+00,9.683e+00,1.177e+01,1.049e+01,1.199e+01,1.113e+01,1.050e+01,1.187e+01,1.218e+01,1.185e+01,1.147e+01,1.252e+01,1.279e+01,1.195e+01,1.206e+01,1.235e+01,1.190e+01,1.122e+01,1.019e+01,1.206e+01,1.170e+01,1.157e+01,1.106e+01,1.229e+01,1.203e+01,1.338e+01,1.101e+01,1.086e+01,1.043e+01,1.144e+01
5.303e-01,5.996e-01,1.256e+00,1.481e+00,1.852e+00,7.400e-01,1.336e+00,1.434e+00,2.183e+00,2.308e+00,2.969e+00,2.208e+00,3.590e+00,4.276e+00,3.796e+00,4.262e+00,4.279e+00,5.366e+00,4.839e+00,5.421e+00,5.884e+00,8.054e+00,6.215e+00,6.709e+00,6.180e+00,7.887e+00,9.154e+00,8.245e+00,1.023e+01,9.597e+00,9.912e+00,1.059e+01,1.151e+01,1.057e+01,9.726e+00,1.268e+01,1.110e+01,1.073e+01,1.115e+01,1.259e+01,1.198e+01,1.615e+01,1.225e+01,1.373e+01,1.288e+01,1.287e+01,1.299e+01,1.244e+01,1.409e+01,1.033e+01,1.212e+01,1.346e+01,1.270e+01,1.474e+01,1.452e+01,1.339e+01,1.507e+01,1.410e+01,1.435e+01,1.395e+01,1.572e+01,1.560e+01,1.413e+01,1.542e+01,1.359e+01,1.343e+01,1.392e+01,1.112e+01,1.451e+01,1.398e+01,1.394e+01,1.320e+01,1.388e+01,1.440e+01,1.494e+01,1.350e+01,1.445e+01,1.308e+01,1.317e+01
8.518e-01,1.033e+00,1.916e+00,1.728e+00,2.514e+00,1.652e+00,1.912e+00,2.078e+00,2.594e+00,2.994e+00,3.775e+00,2.848e+00,3.503e+00,4.270e+00,3.077e+00,2.694e+00,3.279e+00,4.342e+00,4.438e+00,4.056e+00,4.846e+00,6.820e+00,4.694e+00,5.313e+00,5.304e+00,6.054e+00,6.351e+00,5.298e+00,7.362e+00,6.248e+00,8.128e+00,7.686e+00,8.634e+00,9.195e+00,8.546e+00,1.015e+01,8.430e+00,8.796e+00,9.666e+00,1.013e+01,9.810e+00,1.238e+01,9.678e+00,1.181e+01,9.846e+00,1.075e+01,1.192e+01,9.906e+00,1.268e+01,9.766e+00,9.655e+00,1.108e+01,1.118e+01,1.158e+01,1.187e+01,1.003e+01,1.206e+01,1.167e+01,1.225e+01,1.196e+01,1.316e+01,1.394e+01,1.202e+01,1.274e+01,1.280e+01,1.181e+01,1.155e+01,9.984e+00,1.253e+01,1.255e+01,1.079e+01,1.127e+01,1.239e+01,1.340e+01,1.286e+01,1.166e+01,1.062e+01,1.046e+01,1.139e+01
7.670e-01,8.819e-01,1.643e+00,1.489e+00,1.835e+00,7.727e-01,1.619e+00,1.664e+00,2.677e+00,2.893e+00,3.849e+00,3.590e+00,4.320e+00,5.302e+00,4.440e+00,4.158e+00,5.200e+00,4.936e+00,4.969e+00,4.966e+00,5.910e+00,8.391e+00,5.404e+00,6.559e+00,6.926e+00,6.816e+00,7.561e+00,5.829e+00,8.492e+00,7.384e+00,7.842e+00,7.987e+00,9.551e+00,7.694e+00,7.789e+00,9.332e+00,8.066e+00,7.932e+00,8.606e+00,1.073e+01,9.913e+00,1.159e+01,8.884e+00,9.309e+00,9.712e+00,1.009e+01,1.142e+01,9.956e+00,1.056e+01,8.726e+00,9.144e+00,1.034e+01,1.009e+01,1.093e+01,1.061e+01,9.141e+00,1.055e+01,1.211e+01,1.227e+01,1.128e+01,1.167e+01,1.206e+01,1.133e+01,1.243e+01,1.051e+01,1.147e+01,1.227e+01,1.010e+01,1.151e+01,1.148e+01,1.058e+01,1.072e+01,1.247e+01,1.089e+01,1.297e+01,1.036e+01,9.458e+00,9.292e+00,1.120e+01
7.794e-01,9.065e-01,1.293e+00,1.096e+00,1.419e+00,9.195e-01,1.440e+00,1.020e+00,2.177e+00,1.573e+00,2.616e+00,2.316e+00,2.654e+00,3.168e+00,2.848e+00,2.924e+00,3.590e+00,3.586e+00,3.626e+00,3.587e+00,4.252e+00,6.619e+00,4.949e+00,4.886e+00,5.123e+00,6.462e+00,6.219e+00,5.438e+00,7.912e+00,6.620e+00,7.732e+00,8.278e+00,8.716e+00,8.064e+00,8.043e+00,9.340e+00,7.599e+00,7.743e+00,8.647e+00,9.606e+00,8.733e+00,1.130e+01,7.905e+00,1.067e+01,9.720e+00,9.692e+00,1.205e+01,1.007e+01,1.076e+01,8.155e+00,9.634e+00,1.080e+01,1.100e+01,1.255e+01,1.082e+01,9.863e+00,1.120e+01,1.268e+01,1.145e+01,1.028e+01,1.189e+01,1.259e+01,1.186e+01,1.213e+01,1.097e+01,1.161e+01,1.105e+01,9.387e+00,1.194e+01,1.131e+01,1.173e+01,1.138e+01,1.222e+01,1.213e+01,1.230e+01,1.102e+01,1.016e+01,1.053e+01,1.183e+01
4.591e-02,6.329e-02,3.515e-01,5.300e-01,8.458e-01,5.850e-01,8.771e-01,1.280e+00,2.590e+00,2.053e+00,2.152e+00,1.892e+00,3.606e+00,3.650e+00,3.196e+00,3.029e+00,3.185e+00,3.939e+00,4.218e+00,5.146e+00,5.812e+00,6.221e+00,7.034e+00,5.708e+00,5.928e+00,5.896e+00,7.844e+00,6.363e+00,7.450e+00,7.025e+00,7.178e+00,7.910e+00,8.538e+00,7.854e+00,8.057e+00,7.872e+00,8.446e+00,7.456e+00,6.829e+00,9.576e+00,8.726e+00,1.023e+01,9.751e+00,9.645e+00,8.351e+00,1.094e+01,1.053e+01,9.860e+00,1.034e+01,9.432e+00,1.055e+01,1.133e+01,9.164e+00,1.065e+01,1.066e+01,9.157e+00,1.114e+01,1.109e+01,1.044e+01,1.274e+01,1.272e+01,1.228e+01,1.134e+01,1.110e+01,1.113e+01,9.881e+00,1.142e+01,9.228e+00,1.066e+01,1.086e+01,1.076e+01,1.145e+01,1.118e+01,1.129e+01,1.284e+01,1.004e+01,1.045e+01,9.759e+00,9.705e+00
3.105e-01,3.905e-01,9.564e-01,8.527e-01,1.302e+00,1.046e+00,1.716e+00,1.491e+00,2.516e+00,2.126e+00,3.383e+00,2.627e+00,3.810e+00,4.778e+00,3.889e+00,3.055e+00,4.259e+00,4.709e+00,4.846e+00,4.044e+00,5.119e+00,6.600e+00,5.184e+00,5.729e+00,6.661e+00,6.617e+00,7.404e+00,6.106e+00,8.266e+00,7.784e+00,8.324e+00,7.337e+00,9.382e+00,8.397e+00,7.632e+00,8.671e+00,8.371e+00,7.706e+00,8.584e+00,1.035e+01,9.621e+00,1.193e+01,8.326e+00,1.026e+01,9.999e+00,1.050e+01,1.251e+01,1.170e+01,1.250e+01,9.856e+00,1.087e+01,1.243e+01,1.238e+01,1.268e+01,1.208e+01,1.056e+01,1.240e+01,1.336e+01,1.325e+01,1.321e+01,1.354e+01,1.481e+01,1.316e+01,1.317e+01,1.247e+01,1.241e+01,1.268e+01,1.093e+01,1.328e+01,1.367e+01,1.281e+01,1.248e+01,1.284e+01,1.346e+01,1.365e+01,1.165e+01,1.041e+01,1.233e+01,1.247e+01
1.061e-01,1.930e-01,7.264e-01,4.384e-01,9.815e-01,1.194e+00,1.762e+00,2.027e+00,3.099e+00,2.498e+00,3.298e+00,2.331e+00,2.906e+00,4.424e+00,2.504e+00,2.743e+00,3.223e+00,4.813e+00,4.004e+00,4.105e+00,4.805e+00,7.084e+00,4.978e+00,4.930e+00,6.482e+00,6.544e+00,8.141e+00,6.763e+00,9.345e+00,7.686e+00,8.295e+00,8.012e+00,9.318e+00,7.930e+00,7.848e+00,8.944e+00,7.795e+00,7.689e+00,8.622e+00,9.678e+00,9.389e+00,1.148e+01,9.070e+00,1.047e+01,9.019e+00,1.077e+01,1.185e+01,1.020e+01,1.308e+01,9.788e+00,1.073e+01,1.118e+01,1.293e+01,1.199e+01,1.092e+01,1.165e+01,1.199e+01,1.230e+01,1.157e+01,1.166e+01,1.333e+01,1.328e+01,1.215e+01,1.272e+01,1.262e+01,1.169e+01,1.162e+01,1.134e+01,1.204e+01,1.165e+01,1.183e+01,1.106e+01,1.242e+01,1.359e+01,1.364e+01,1.187e+01,1.022e+01,1.175e+01,1.193e+01
2.521e-01,3.007e-01,1.112e+00,1.093e+00,1.319e+00,5.123e-01,1.525e+00,1.745e+00,2.552e+00,2.816e+00,3.311e+00,3.039e+00,3.178e+00,4.281e+00,3.303e+00,3.970e+00,3.982e+00,4.844e+00,4.113e+00,4.614e+00,4.716e+00,7.419e+00,5.305e+00,5.763e+00,6.083e+00,6.027e+00,7.487e+00,6.847e+00,7.569e+00,7.142e+00,7.647e+00,7.514e+00,9.228e+00,7.754e+00,7.416e+00,1.007e+01,7.990e+00,9.078e+00,7.676e+00,9.526e+00,8.517e+00,1.100e+01,9.537e+00,1.017e+01,1.019e+01,1.096e+01,1.145e+01,9.733e+00,1.247e+01,9.874e+00,1.132e+01,1.194e+01,1.316e+01,1.274e+01,1.278e+01,1.143e+01,1.267e+01,1.265e+01,1.253e+01,1.330e+01,1.254e+01,1.400e+01,1.308e+01,1.428e+01,1.166e+01,1.209e+01,1.287e+01,1.006e+01,1.382e+01,1.134e+01,1.227e+01,1.182e+01,1.190e+01,1.285e+01,1.371e+01,1.229e+01,1.141e+01,1.129e+01,1.203e+01
7.515e-01,8.938e-01,1.348e+00,1.174e+00,1.668e+00,1.256e+00,1.665e+00,1.370e+00,2.534e+00,2.122e+00,3.389e+00,3.087e+00,3.973e+00,4.514e+00,4.020e+00,3.957e+00,4.507e+00,5.239e+00,5.323e+00,5.090e+00,6.322e+00,8.226e+00,6.772e+00,6.727e+00,6.615e+00,7.236e+00,8.510e+00,7.834e+00,9.315e+00,9.036e+00,9.089e+00,9.707e+00,9.742e+00,8.783e+00,9.775e+00,1.069e+01,9.676e+00,9.409e+00,9.091e+00,1.219e+01,9.991e+00,1.384e+01,1.087e+01,1.243e+01,1.140e+01,1.234e+01,1.240e+01,1.155e+01,1.476e+01,1.038e+01,1.395e+01,1.420e+01,1.473e+01,1.565e+01,1.318e+01,1.447e+01,1.344e+01,1.537e+01,1.397e+01,1.476e+01,1.601e+01,1.525e+01,1.542e+01,1.415e+01,1.452e+01,1.347e+01,1.459e+01,1.286e+01,1.484e+01,1.396e+01,1.480e+01,1.302e+01,1.594e+01,1.564e+01,1.650e+01,1.561e+01,1.320e+01,1.401e+01,1.350e+01
8.549e-02,1.682e-01,8.134e-01,3.781e-01,7.144e-01,7.620e-01,1.347e+00,1.973e+00,2.491e+00,2.560e+00,2.641e+00,2.625e+00,2.193e+00,4.362e+00,2.773e+00,3.845e+00,2.647e+00,5.080e+00,4.585e+00,4.519e+00,5.151e+00,7.057e+00,5.162e+00,5.296e+00,5.424e+00,5.175e+00,6.606e+00,5.774e+00,7.247e+00,6.164e+00,7.575e+00,7.259e+00,8.486e+00,7.850e+00,6.582e+00,8.547e+00,7.554e+00,7.322e+00,7.947e+00,9.200e+00,7.479e+00,9.758e+00,9.541e+00,1.077e+01,9.198e+00,1.058e+01,1.154e+01,9.321e+00,1.165e+01,8.866e+00,1.006e+01,1.191e+01,1.183e+01,1.218e+01,1.222e+01,1.205e+01,1.257e+01,1.298e+01,1.142e+01,1.150e+01,1.333e+01,1.421e+01,1.169e+01,1.259e+01,1.267e+01,1.145e+01,1.217e+01,1.110e+01,1.312e+01,1.207e+01,1.121e+01,1.121e+01,1.288e+01,1.274e+01,1.391e+01,1.189e+01,1.074e+01,1.115e+01,1.219e+01
5.789e-01,6.591e-01,7.561e-01,8.315e-01,1.215e+00,7.622e-01,1.148e+00,1.517e+00,1.730e+00,2.673e+00,2.751e+00,3.041e+00,2.897e+00,4.251e+00,3.460e+00,3.126e+00,3.367e+00,5.572e+00,4.755e+00,3.885e+00,4.976e+00,6.336e+00,4.847e+00,5.707e+00,5.506e+00,5.179e+00,6.992e+00,7.458e+00,7.640e+00,7.574e+00,7.807e+00,7.387e+00,8.992e+00,8.179e+00,6.962e+00,9.276e+00,8.122e+00,8.601e+00,7.359e+00,9.621e+00,8.185e+00,1.080e+01,1.054e+01,1.065e+01,1.030e+01,1.082e+01,1.203e+01,9.541e+00,1.172e+01,9.803e+00,1.248e+01,1.201e+01,1.310e+01,1.415e+01,1.299e+01,1.343e+01,1.313e+01,1.495e+01,1.235e+01,1.324e+01,1.422e+01,1.544e+01,1.483e+01,1.362e+01,1.327e+01,1.384e+01,1.426e+01,1.144e+01,1.417e+01,1.476e+01,1.171e+01,1.320e+01,1.406e+01,1.351e+01,1.644e+01,1.290e+01,1.073e+01,1.389e+01,1.385e+01
1.916e-01,2.624e-01,5.555e-01,3.843e-01,7.376e-01,8.385e-01,1.321e+00,1.654e+00,2.625e+00,2.433e+00,2.821e+00,2.783e+00,2.701e+00,4.744e+00,3.339e+00,3.934e+00,2.712e+00,4.282e+00,4.522e+00,4.890e+00,4.436e+00,6.594e+00,4.523e+00,4.876e+00,5.229e+00,5.338e+00,7.828e+00,6.711e+00,8.043e+00,7.560e+00,8.448e+00,8.294e+00,8.775e+00,8.303e+00,8.008e+00,9.909e+00,9.501e+00,8.631e+00,8.045e+00,1.135e+01,9.565e+00,1.168e+01,1.009e+01,1.197e+01,1.059e+01,1.098e+01,1.255e+01,9.916e+00,1.284e+01,1.087e+01,1.219e+01,1.282e+01,1.291e+01,1.477e+01,1.387e+01,1.412e+01,1.415e+01,1.494e+01,1.398e+01,1.325e+01,1.470e+01,1.588e+01,1.502e+01,1.519e+01,1.194e+01,1.443e+01,1.386e+01,1.220e+01,1.448e+01,1.483e+01,1.246e+01,1.476e+01,1.314e+01,1.549e+01,1.540e+01,1.367e+01,1.218e+01,1.297e+01,1.414e+01
2.777e-01,3.707e-01,1.371e+00,1.125e+00,1.586e+00,1.055e+00,2.135e+00,2.364e+00,3.498e+00,2.928e+00,4.157e+00,3.180e+00,4.025e+00,5.555e+00,4.212e+00,4.564e+00,5.131e+00,5.934e+00,5.892e+00,5.146e+00,5.249e+00,7.971e+00,6.048e+00,6.155e+00,6.498e+00,6.913e+00,7.608e+00,6.424e+00,7.902e+00,8.343e+00,8.357e+00,7.853e+00,9.857e+00,8.122e+00,8.257e+00,1.114e+01,9.062e+00,7.601e+00,8.562e+00,1.070e+01,9.610e+00,1.185e+01,1.048e+01,1.063e+01,1.123e+01,1.209e+01,1.385e+01,1.099e+01,1.405e+01,1.070e+01,1.246e+01,1.300e+01,1.402e+01,1.441e+01,1.456e+01,1.550e+01,1.442e+01,1.534e+01,1.602e+01,1.460e+01,1.587e+01,1.687e+01,1.521e+01,1.610e+01,1.338e+01,1.626e+01,1.633e+01,1.236e+01,1.514e+01,1.460e+01,1.351e+01,1.400e+01,1.478e+01,1.412e+01,1.623e+01,1.445e+01,1.337e+01,1.310e+01,1.473e+01
5.215e-01,6.302e-01,1.207e+00,8.790e-01,1.222e+00,7.922e-01,1.356e+00,1.545e+00,2.467e+00,2.506e+00,3.134e+00,3.161e+00,3.423e+00,4.121e+00,3.124e+00,2.240e+00,3.302e+00,3.789e+00,3.584e+00,2.848e+00,4.958e+00,6.270e+00,3.767e+00,4.672e+00,5.335e+00,4.806e+00,6.122e+00,4.636e+00,7.643e+00,5.736e+00,6.755e+00,7.052e+00,8.706e+00,7.501e+00,7.076e+00,9.239e+00,7.330e+00,7.081e+00,8.229e+00,9.286e+00,8.120e+00,1.128e+01,9.192e+00,1.001e+01,1.088e+01,9.486e+00,1.119e+01,1.110e+01,1.187e+01,9.775e+00,1.162e+01,1.176e+01,1.218e+01,1.434e+01,1.347e+01,1.375e+01,1.307e+01,1.466e+01,1.413e+01,1.517e+01,1.479e+01,1.553e+01,1.474e+01,1.453e+01,1.287e+01,1.493e+01,1.439e+01,1.255e+01,1.488e+01,1.520e+01,1.309e+01,1.393e+01,1.565e+01,1.522e+01,1.588e+01,1.232e+01,1.160e+01,1.361e+01,1.396e+01
8.913e-01,1.026e+00,1.583e+00,1.701e+00,2.375e+00,1.429e+00,2.119e+00,1.894e+00,2.832e+00,2.956e+00,3.847e+00,2.669e+00,3.564e+00,4.495e+00,3.482e+00,3.015e+00,4.691e+00,4.724e+00,4.511e+00,4.219e+00,4.917e+00,6.840e+00,5.666e+00,5.998e+00,5.510e+00,6.159e+00,5.808e+00,6.334e+00,7.280e+00,7.551e+00,8.461e+00,7.685e+00,9.257e+00,9.164e+00,8.633e+00,1.090e+01,8.036e+00,9.117e+00,8.660e+00,1.067e+01,8.976e+00,1.280e+01,1.033e+01,1.172e+01,1.140e+01,1.099e+01,1.364e+01,1.055e+01,1.279e+01,9.696e+00,1.292e+01,1.308e+01,1.365e+01,1.713e+01,1.420e+01,1.497e+01,1.496e+01,1.603e+01,1.593e+01,1.491e+01,1.575e+01,1.672e+01,1.589e+01,1.638e+01,1.472e+01,1.625e+01,1.635e+01,1.388e+01,1.645e+01,1.745e+01,1.407e+01,1.529e+01,1.599e+01,1.566e+01,1.652e+01,1.403e+01,1.252e+01,1.502e+01,1.618e+01
1.073e-01,1.391e-01,8.645e-01,7.973e-01,1.017e+00,4.285e-01,1.208e+00,1.287e+00,1.912e+00,2.050e+00,2.727e+00,2.148e+00,3.263e+00,3.648e+00,2.746e+00,2.801e+00,3.945e+00,3.827e+00,3.158e+00,2.922e+00,4.388e+00,5.930e+00,4.372e+00,4.486e+00,5.751e+00,5.674e+00,7.098e+00,6.115e+00,7.779e+00,7.556e+00,7.313e+00,7.757e+00,9.195e+00,7.183e+00,8.087e+00,8.214e+00,7.497e+00,7.289e+00,8.038e+00,8.966e+00,9.023e+00,9.895e+00,9.070e+00,9.443e+00,1.033e+01,9.187e+00,1.124e+01,9.975e+00,1.206e+01,8.978e+00,1.103e+01,1.086e+01,1.204e+01,1.222e+01,1.178e+01,1.281e+01,1.228e+01,1.483e+01,1.370e+01,1.370e+01,1.411e+01,1.413e+01,1.473e+01,1.323e+01,1.199e+01,1.384e+01,1.303e+01,1.241e+01,1.286e+01,1.547e+01,1.296e+01,1.328e+01,1.324e+01,1.461e+01,1.470e+01,1.321e+01,1.217e+01,1.331e+01,1.244e+01
2.240e-01,3.122e-01,9.372e-01,8.409e-01,1.457e+00,1.176e+00,1.312e+00,1.896e+00,2.894e+00,2.731e+00,3.327e+00,2.764e+00,3.943e+00,4.521e+00,3.386e+00,3.274e+00,3.345e+00,4.648e+00,5.171e+00,3.979e+00,6.186e+00,7.555e+00,5.764e+00,5.773e+00,7.651e+00,6.122e+00,7.736e+00,6.539e+00,8.561e+00,7.798e+00,9.643e+00,8.607e+00,1.004e+01,9.410e+00,8.825e+00,1.030e+01,8.942e+00,8.965e+00,9.254e+00,1.102e+01,9.843e+00,1.208e+01,9.137e+00,1.236e+01,9.476e+00,1.159e+01,1.374e+01,1.165e+01,1.365e+01,1.082e+01,1.234e+01,1.375e+01,1.358e+01,1.566e+01,1.472e+01,1.411e+01,1.556e+01,1.609e+01,1.551e+01,1.734e+01,1.599e+01,1.756e+01,1.850e+01,1.591e+01,1.415e+01,1.654e+01,1.685e+01,1.320e+01,1.619e+01,1.740e+01,1.514e+01,1.595e+01,1.662e+01,1.706e+01,1.790e+01,1.624e+01,1.306e+01,1.517e+01,1.530e+01
6.305e-01,7.579e-01,1.129e+00,1.116e+00,1.858e+00,1.444e+00,1.593e+00,1.946e+00,2.941e+00,3.269e+00,3.703e+00,3.002e+00,4.129e+00,5.708e+00,4.176e+00,3.771e+00,3.924e+00,5.218e+00,5.501e+00,5.032e+00,5.594e+00,6.677e+00,4.759e+00,5.402e+00,6.183e+00,6.119e+00,8.146e+00,6.262e+00,8.863e+00,8.408e+00,9.163e+00,8.452e+00,9.359e+00,9.506e+00,9.169e+00,1.059e+01,8.750e+00,9.104e+00,8.775e+00,1.036e+01,9.486e+00,1.317e+01,1.107e+01,1.298e+01,1.211e+01,1.215e+01,1.356e+01,1.227e+01,1.460e+01,1.062e+01,1.346e+01,1.485e+01,1.520e+01,1.653e+01,1.571e+01,1.776e+01,1.704e+01,1.899e+01,1.756e+01,1.795e+01,1.851e+01,1.992e+01,2.058e+01,1.963e+01,1.581e+01,1.807e+01,1.967e+01,1.615e+01,1.926e+01,1.900e+01,1.540e+01,1.796e+01,1.808e+01,1.992e+01,1.984e+01,1.733e+01,1.540e+01,1.796e+01,1.820e+01
1.325e-01,1.689e-01,4.576e-01,7.417e-01,1.314e+00,9.878e-01,1.177e+00,1.798e+00,2.748e+00,2.938e+00,2.923e+00,2.416e+00,3.567e+00,4.326e+00,3.344e+00,3.670e+00,3.495e+00,5.052e+00,5.228e+00,4.847e+00,5.627e+00,7.303e+00,6.703e+00,5.878e+00,6.660e+00,6.972e+00,8.617e+00,7.231e+00,8.928e+00,8.221e+00,9.968e+00,8.804e+00,1.060e+01,9.449e+00,8.751e+00,1.113e+01,9.414e+00,9.439e+00,9.009e+00,1.030e+01,1.048e+01,1.219e+01,1.117e+01,1.158e+01,9.825e+00,1.096e+01,1.233e+01,1.055e+01,1.264e+01,9.248e+00,1.116e+01,1.281e+01,1.180e+01,1.383e+01,1.382e+01,1.475e+01,1.543e+01,1.418e+01,1.350e+01,1.573e+01,1.635e+01,1.755e+01,1.612e+01,1.570e+01,1.405e+01,1.495e+01,1.672e+01,1.457e+01,1.449e+01,1.642e+01,1.354e+01,1.421e+01,1.500e+01,1.665e+01,1.733e+01,1.412e+01,1.341e+01,1.470e+01,1.559e+01
5.178e-01,6.542e-01,1.246e+00,9.392e-01,1.601e+00,1.506e+00,2.088e+00,2.026e+00,3.160e+00,2.316e+00,3.916e+00,2.862e+00,4.097e+00,4.802e+00,3.822e+00,2.684e+00,4.479e+00,4.421e+00,4.718e+00,3.585e+00,5.703e+00,6.807e+00,5.397e+00,5.954e+00,5.569e+00,6.347e+00,6.447e+00,5.777e+00,7.980e+00,7.660e+00,8.508e+00,8.117e+00,9.378e+00,8.892e+00,9.365e+00,1.007e+01,8.544e+00,7.736e+00,8.578e+00,1.055e+01,9.284e+00,1.142e+01,9.622e+00,1.168e+01,1.105e+01,1.087e+01,1.156e+01,1.079e+01,1.277e+01,9.722e+00,1.249e+01,1.196e+01,1.286e+01,1.531e+01,1.273e+01,1.337e+01,1.347e+01,1.546e+01,1.423e+01,1.630e+01,1.681e+01,1.791e+01,1.719e+01,1.528e+01,1.528e+01,1.618e+01,1.810e+01,1.305e+01,1.694e+01,1.700e+01,1.533e+01,1.530e+01,1.596e+01,1.665e+01,1.618e+01,1.616e+01,1.486e+01,1.672e+01,1.568e+01
3.355e-01,3.916e-01,4.906e-01,4.558e-01,7.056e-01,6.093e-01,9.947e-01,8.319e-01,1.794e+00,2.155e+00,2.346e+00,2.659e+00,2.975e+00,4.278e+00,3.250e+00,3.301e+00,3.390e+00,4.490e+00,4.283e+00,4.235e+00,4.170e+00,6.573e+00,4.377e+00,4.761e+00,5.581e+00,5.548e+00,7.425e+00,5.802e+00,8.067e+00,7.240e+00,7.137e+00,7.523e+00,8.123e+00,7.935e+00,8.237e+00,8.374e+00,8.387e+00,7.610e+00,7.825e+00,8.679e+00,8.589e+00,1.144e+01,9.919e+00,1.125e+01,1.109e+01,9.587e+00,1.077e+01,1.025e+01,1.193e+01,9.748e+00,1.034e+01,1.227e+01,1.277e+01,1.338e+01,1.356e+01,1.339e+01,1.446e+01,1.607e+01,1.544e+01,1.463e+01,1.722e+01,1.701e+01,1.657e+01,1.735e+01,1.533e+01,1.599e+01,1.683e+01,1.438e+01,1.644e+01,1.698e+01,1.458e+01,1.663e+01,1.589e+01,1.771e+01,1.704e+01,1.521e+01,1.445e+01,1.504e+01,1.583e+01
5.086e-01,5.764e-01,1.236e+00,1.546e+00,2.090e+00,9.459e-01,1.435e+00,1.838e+00,3.197e+00,3.550e+00,3.712e+00,3.120e+00,4.968e+00,5.240e+00,4.300e+00,4.267e+00,4.851e+00,5.177e+00,5.370e+00,5.172e+00,6.303e+00,7.737e+00,6.347e+00,6.148e+00,6.538e+00,6.595e+00,8.585e+00,6.707e+00,9.013e+00,8.282e+00,8.196e+00,8.592e+00,1.019e+01,8.764e+00,9.539e+00,1.136e+01,9.651e+00,8.613e+00,9.360e+00,1.051e+01,9.805e+00,1.264e+01,1.028e+01,1.142e+01,1.082e+01,1.147e+01,1.256e+01,1.101e+01,1.305e+01,1.065e+01,1.307e+01,1.346e+01,1.237e+01,1.468e+01,1.353e+01,1.458e+01,1.491e+01,1.551e+01,1.543e+01,1.578e+01,1.733e+01,1.678e+01,1.732e+01,1.768e+01,1.439e+01,1.599e+01,1.783e+01,1.613e+01,1.615e+01,1.755e+01,1.522e+01,1.724e+01,1.644e+01,1.857e+01,1.842e+01,1.584e+01,1.498e+01,1.535e+01,1.694e+01
1.673e-01,2.413e-01,9.290e-01,7.062e-01,1.102e+00,7.905e-01,1.115e+00,1.297e+00,1.770e+00,1.977e+00,2.228e+00,1.670e+00,2.744e+00,4.040e+00,3.136e+00,3.780e+00,3.498e+00,4.243e+00,4.539e+00,4.227e+00,4.604e+00,6.124e+00,5.294e+00,5.212e+00,5.679e+00,5.497e+00,6.782e+00,6.685e+00,7.509e+00,7.615e+00,8.475e+00,7.694e+00,8.236e+00,6.712e+00,6.830e+00,8.123e+00,9.125e+00,7.802e+00,7.269e+00,9.797e+00,8.113e+00,9.838e+00,8.973e+00,9.724e+00,8.647e+00,9.610e+00,9.824e+00,8.382e+00,1.119e+01,9.322e+00,1.183e+01,1.172e+01,1.163e+01,1.315e+01,1.325e+01,1.448e+01,1.403e+01,1.442e+01,1.256e+01,1.578e+01,1.389e+01,1.619e+01,1.640e+01,1.513e+01,1.279e+01,1.416e+01,1.717e+01,1.375e+01,1.525e+01,1.740e+01,1.378e+01,1.502e+01,1.544e+01,1.587e+01,1.635e+01,1.494e+01,1.267e+01,1.496e+01,1.436e+01
2.662e-01,3.155e-01,4.256e-01,6.819e-01,1.273e+00,1.046e+00,1.105e+00,1.305e+00,1.498e+00,2.525e+00,2.782e+00,2.316e+00,2.554e+00,4.160e+00,3.156e+00,3.897e+00,3.417e+00,4.597e+00,5.044e+00,3.824e+00,5.165e+00,6.815e+00,5.004e+00,5.190e+00,5.921e+00,6.208e+00,7.854e+00,6.653e+00,8.457e+00,8.487e+00,8.758e+00,8.519e+00,8.585e+00,8.278e+00,8.705e+00,9.882e+00,8.679e+00,9.268e+00,7.957e+00,1.046e+01,9.113e+00,1.248e+01,9.791e+00,1.140e+01,1.027e+01,1.060e+01,1.034e+01,1.102e+01,1.212e+01,8.515e+00,1.191e+01,1.242e+01,1.250e+01,1.390e+01,1.282e+01,1.393e+01,1.376e+01,1.543e+01,1.344e+01,1.497e+01,1.560e+01,1.546e+01,1.605e+01,1.600e+01,1.329e+01,1.585e+01,1.721e+01,1.586e+01,1.560e+01,1.682e+01,1.442e+01,1.537e+01,1.674e+01,1.798e+01,1.778e+01,1.658e+01,1.327e+01,1.557e+01,1.497e+01
1.439e-01,2.092e-01,9.701e-01,8.950e-01,1.326e+00,8.193e-01,1.310e+00,2.046e+00,2.734e+00,2.541e+00,3.003e+00,2.334e+00,2.998e+00,4.079e+00,2.934e+00,3.656e+00,3.079e+00,4.991e+00,4.729e+00,4.574e+00,5.130e+00,7.277e+00,5.549e+00,5.447e+00,6.572e+00,6.152e+00,7.938e+00,6.777e+00,8.063e+00,7.327e+00,7.614e+00,8.337e+00,9.310e+00,8.074e+00,7.648e+00,9.269e+00,8.226e+00,8.262e+00,8.243e+00,9.673e+00,8.973e+00,1.048e+01,8.757e+00,1.045e+01,8.218e+00,1.059e+01,1.083e+01,9.773e+00,1.206e+01,8.936e+00,1.092e+01,1.107e+01,1.170e+01,1.270e+01,1.307e+01,1.309e+01,1.400e+01,1.304e+01,1.285e+01,1.414e+01,1.600e+01,1.744e+01,1.548e+01,1.638e+01,1.467e+01,1.538e+01,1.832e+01,1.557e+01,1.580e+01,1.709e+01,1.482e+01,1.397e+01,1.548e+01,1.648e+01,1.705e+01,1.763e+01,1.379e+01,1.520e+01,1.621e+01
3.068e-01,3.779e-01,1.278e+00,1.476e+00,2.118e+00,1.232e+00,2.157e+00,2.716e+00,3.668e+00,3.865e+00,4.539e+00,3.549e+00,3.551e+00,5.311e+00,3.865e+00,4.399e+00,3.814e+00,4.772e+00,5.554e+00,4.413e+00,4.894e+00,7.138e+00,5.232e+00,5.337e+00,6.440e+00,6.504e+00,8.235e+00,6.536e+00,8.630e+00,8.553e+00,9.417e+00,9.137e+00,1.034e+01,8.282e+00,8.142e+00,1.112e+01,9.448e+00,9.143e+00,9.107e+00,1.194e+01,1.089e+01,1.288e+01,1.119e+01,1.209e+01,1.155e+01,1.053e+01,1.235e+01,1.158e+01,1.402e+01,1.091e+01,1.317e+01,1.319e+01,1.367e+01,1.494e+01,1.459e+01,1.561e+01,1.543e+01,1.598e+01,1.690e+01,1.677e+01,1.769e+01,1.942e+01,1.692e+01,1.898e+01,1.463e+01,1.736e+01,1.988e+01,1.792e+01,1.840e+01,1.909e+01,1.594e+01,1.869e+01,1.792e+01,1.915e+01,1.822e+01,1.859e+01,1.687e+01,1.686e+01,1.729e+01
8.546e-01,9.781e-01,1.122e+00,1.293e+00,1.928e+00,1.378e+00,1.586e+00,1.249e+00,2.725e+00,2.639e+00,3.597e+00,3.041e+00,4.426e+00,4.575e+00,3.962e+00,3.292e+00,4.746e+00,5.056e+00,4.908e+00,4.500e+00,6.202e+00,7.937e+00,6.356e+00,6.247e+00,7.273e+00,7.859e+00,9.018e+00,7.843e+00,1.015e+01,9.129e+00,9.204e+00,9.438e+00,1.035e+01,9.185e+00,9.778e+00,1.068e+01,8.784e+00,9.677e+00,8.974e+00,1.157e+01,1.071e+01,1.414e+01,1.105e+01,1.195e+01,1.195e+01,1.147e+01,1.221e+01,1.169e+01,1.245e+01,9.782e+00,1.227e+01,1.401e+01,1.328e+01,1.372e+01,1.392e+01,1.341e+01,1.439e+01,1.523e+01,1.533e+01,1.559e+01,1.591e+01,1.588e+01,1.671e+01,1.644e+01,1.451e+01,1.593e+01,1.837e+01,1.592e+01,1.911e+01,1.805e+01,1.619e+01,1.652e+01,1.887e+01,1.903e+01,1.909e+01,1.743e+01,1.482e+01,1.732e+01,1.652e+01
6.073e-02,1.544e-01,1.332e+00,9.691e-01,1.498e+00,1.136e+00,1.975e+00,2.576e+00,3.510e+00,2.687e+00,3.647e+00,2.583e+00,3.472e+00,4.290e+00,3.195e+00,3.644e+00,3.781e+00,4.288e+00,4.793e+00,4.405e+00,5.862e+00,7.273e+00,6.429e+00,5.921e+00,6.110e+00,7.067e+00,7.995e+00,5.772e+00,7.170e+00,6.767e+00,7.729e+00,8.662e+00,8.892e+00,7.456e+00,7.604e+00,8.829e+00,8.633e+00,8.248e+00,7.996e+00,1.069e+01,8.893e+00,9.908e+00,9.818e+00,9.854e+00,8.268e+00,1.117e+01,1.099e+01,8.514e+00,1.258e+01,8.300e+00,1.133e+01,1.313e+01,1.118e+01,1.311e+01,1.174e+01,1.301e+01,1.344e+01,1.400e+01,1.316e+01,1.384e+01,1.420e+01,1.558e+01,1.506e+01,1.546e+01,1.438e+01,1.478e+01,1.799e+01,1.498e+01,1.670e+01,1.692e+01,1.436e+01,1.565e+01,1.734e+01,1.759e+01,1.749e+01,1.714e+01,1.473e+01,1.561e+01,1.661e+01
2.349e-01,2.912e-01,1.179e+00,1.060e+00,1.304e+00,4.513e-01,1.001e+00,1.401e+00,2.173e+00,1.974e+00,2.408e+00,2.045e+00,3.209e+00,3.438e+00,3.446e+00,3.211e+00,3.524e+00,4.578e+00,4.499e+00,4.618e+00,5.869e+00,7.342e+00,6.350e+00,6.369e+00,6.640e+00,7.562e+00,8.577e+00,6.677e+00,9.034e+00,7.885e+00,8.612e+00,9.383e+00,9.828e+00,8.315e+00,7.167e+00,9.455e+00,9.397e+00,9.135e+00,8.705e+00,1.072e+01,9.195e+00,1.174e+01,9.171e+00,1.056e+01,9.890e+00,1.109e+01,1.095e+01,1.071e+01,1.279e+01,1.000e+01,1.233e+01,1.287e+01,1.186e+01,1.384e+01,1.438e+01,1.362e+01,1.442e+01,1.438e+01,1.467e+01,1.583e+01,1.524e+01,1.617e+01,1.575e+01,1.571e+01,1.410e+01,1.538e+01,1.691e+01,1.306e+01,1.539e+01,1.577e+01,1.483e+01,1.535e+01,1.724e+01,1.651e+01,1.811e+01,1.573e+01,1.502e+01,1.579e+01,1.498e+01
3.487e-01,4.549e-01,1.475e+00,1.261e+00,1.802e+00,1.185e+00,2.193e+00,2.451e+00,3.182e+00,2.840e+00,4.057e+00,2.696e+00,3.058e+00,5.098e+00,3.505e+00,4.511e+00,4.372e+00,5.613e+00,5.073e+00,4.415e+00,4.676e+00,7.912e+00,5.231e+00,5.797e+00,6.787e+00,7.252e+00,7.668e+00,7.811e+00,9.485e+00,9.184e+00,9.602e+00,9.406e+00,1.101e+01,9.386e+00,9.187e+00,1.061e+01,8.543e+00,8.435e+00,9.721e+00,1.104e+01,1.137e+01,1.238e+01,9.431e+00,1.164e+01,1.056e+01,1.113e+01,1.437e+01,1.211e+01,1.386e+01,1.166e+01,1.277e+01,1.236e+01,1.473e+01,1.454e+01,1.461e+01,1.565e+01,1.533e+01,1.581e+01,1.739e+01,1.543e+01,1.744e+01,1.917e+01,1.699e+01,1.857e+01,1.581e+01,1.806e+01,1.907e+01,1.874e+01,1.918e+01,2.000e+01,1.708e+01,1.709e+01,1.976e+01,2.152e+01,1.937e+01,1.833e+01,1.622e+01,1.813e+01,1.862e+01
2.933e-01,3.948e-01,1.393e+00,1.347e+00,2.113e+00,1.523e+00,2.333e+00,2.664e+00,3.263e+00,3.379e+00,4.702e+00,3.265e+00,3.991e+00,5.708e+00,4.275e+00,4.121e+00,4.778e+00,5.727e+00,6.045e+00,4.972e+00,6.170e+00,8.423e+00,6.553e+00,7.037e+00,7.651e+00,8.187e+00,9.390e+00,8.057e+00,1.078e+01,9.567e+00,1.062e+01,9.476e+00,1.123e+01,9.422e+00,8.723e+00,1.210e+01,9.653e+00,9.964e+00,9.784e+00,1.284e+01,1.206e+01,1.471e+01,1.182e+01,1.280e+01,1.228e+01,1.337e+01,1.388e+01,1.297e+01,1.527e+01,1.186e+01,1.491e+01,1.499e+01,1.581e+01,1.694e+01,1.589e+01,1.676e+01,1.558e+01,1.735e+01,1.708e+01,1.780e+01,1.814e+01,2.025e+01,1.786e+01,2.040e+01,1.845e+01,1.898e+01,2.180e+01,1.857e+01,2.127e+01,2.119e+01,1.696e+01,1.884e+01,2.197e+01,2.337e+01,2.248e+01,2.136e+01,1.978e+01,2.103e+01,2.130e+01
2.401e-01,3.006e-01,1.060e+00,1.091e+00,1.487e+00,8.808e-01,1.705e+00,1.600e+00,2.123e+00,2.006e+00,3.108e+00,1.987e+00,2.770e+00,3.700e+00,2.830e+00,2.932e+00,3.700e+00,4.266e+00,3.907e+00,4.065e+00,3.981e+00,5.917e+00,5.236e+00,4.958e+00,5.372e+00,5.829e+00,6.543e+00,6.199e+00,6.656e+00,7.251e+00,7.199e+00,6.871e+00,7.866e+00,6.924e+00,6.933e+00,9.279e+00,7.312e+00,8.154e+00,7.341e+00,9.782e+00,8.501e+00,1.111e+01,9.245e+00,9.792e+00,9.861e+00,1.053e+01,1.257e+01,1.042e+01,1.308e+01,9.668e+00,1.253e+01,1.272e+01,1.432e+01,1.508e+01,1.419e+01,1.506e+01,1.493e+01,1.549e+01,1.621e+01,1.559e+01,1.634e+01,1.918e+01,1.695e+01,2.035e+01,1.545e+01,1.869e+01,1.941e+01,1.836e+01,1.831e+01,2.013e+01,1.519e+01,1.703e+01,1.942e+01,2.087e+01,2.103e+01,2.031e+01,1.840e+01,1.953e+01,2.005e+01
5.548e-01,6.916e-01,1.187e+00,9.601e-01,1.658e+00,1.584e+00,2.099e+00,1.862e+00,2.810e+00,2.524e+00,3.780e+00,2.857e+00,2.983e+00,4.739e+00,3.631e+00,3.983e+00,4.425e+00,4.369e+00,5.408e+00,4.644e+00,4.618e+00,7.440e+00,6.008e+00,5.645e+00,5.389e+00,7.110e+00,7.095e+00,5.956e+00,9.149e+00,8.176e+00,9.650e+00,8.570e+00,9.086e+00,8.292e+00,9.469e+00,1.018e+01,8.632e+00,7.778e+00,8.238e+00,9.766e+00,1.013e+01,1.169e+01,9.265e+00,1.043e+01,1.016e+01,9.508e+00,1.036e+01,1.040e+01,1.235e+01,1.002e+01,1.117e+01,1.233e+01,1.393e+01,1.371e+01,1.382e+01,1.418e+01,1.355e+01,1.564e+01,1.505e+01,1.631e+01,1.604e+01,1.764e+01,1.634e+01,1.605e+01,1.380e+01,1.535e+01,1.894e+01,1.558e+01,1.783e+01,1.820e+01,1.556e+01,1.693e+01,1.829e+01,1.903e+01,2.010e+01,1.662e+01,1.751e+01,1.820e+01,1.848e+01
5.146e-01,6.100e-01,1.402e+00,1.403e+00,1.916e+00,1.087e+00,1.945e+00,1.884e+00,3.255e+00,2.903e+00,3.667e+00,2.365e+00,3.368e+00,4.930e+00,3.381e+00,3.056e+00,3.576e+00,3.715e+00,3.622e+00,4.085e+00,4.439e+00,5.942e+00,4.087e+00,4.469e+00,5.031e+00,4.721e+00,4.871e+00,3.944e+00,6.146e+00,5.933e+00,6.404e+00,6.008e+00,7.958e+00,6.358e+00,6.472e+00,8.639e+00,5.793e+00,6.156e+00,7.471e+00,8.839e+00,7.742e+00,9.659e+00,7.712e+00,8.665e+00,8.584e+00,8.687e+00,1.101e+01,8.762e+00,9.899e+00,8.095e+00,9.055e+00,1.064e+01,1.011e+01,1.196e+01,1.028e+01,1.202e+01,1.201e+01,1.309e+01,1.374e+01,1.292e+01,1.309e+01,1.534e+01,1.353e+01,1.566e+01,1.244e+01,1.506e+01,1.719e+01,1.554e+01,1.571e+01,1.717e+01,1.346e+01,1.429e+01,1.604e+01,1.630e+01,1.728e+01,1.688e+01,1.448e+01,1.619e+01,1.716e+01
2.882e-01,3.605e-01,1.119e+00,1.176e+00,1.676e+00,1.112e+00,2.065e+00,2.116e+00,3.691e+00,3.043e+00,3.852e+00,2.686e+00,3.424e+00,5.284e+00,3.610e+00,4.028e+00,3.832e+00,4.304e+00,4.733e+00,5.583e+00,4.664e+00,7.261e+00,5.571e+00,5.372e+00,5.309e+00,5.965e+00,6.947e+00,5.243e+00,8.129e+00,6.904e+00,7.328e+00,7.411e+00,8.756e+00,7.319e+00,7.483e+00,9.223e+00,7.841e+00,7.343e+00,7.913e+00,9.834e+00,8.834e+00,9.658e+00,8.853e+00,1.066e+01,9.639e+00,1.030e+01,1.203e+01,1.003e+01,1.237e+01,9.402e+00,1.140e+01,1.202e+01,1.202e+01,1.396e+01,1.355e+01,1.389e+01,1.469e+01,1.457e+01,1.468e+01,1.357e+01,1.592e+01,1.877e+01,1.591e+01,1.774e+01,1.459e+01,1.676e+01,1.848e+01,1.620e+01,1.727e+01,1.825e+01,1.518e+01,1.653e+01,1.726e+01,1.893e+01,1.839e+01,1.834e+01,1.727e+01,1.730e+01,1.838e+01
3.523e-01,4.068e-01,1.246e+00,1.225e+00,1.405e+00,4.677e-01,1.569e+00,1.460e+00,2.369e+00,2.661e+00,2.931e+00,2.545e+00,2.256e+00,3.902e+00,2.748e+00,4.385e+00,3.890e+00,4.353e+00,3.881e+00,4.446e+00,4.186e+00,7.693e+00,5.417e+00,5.230e+00,5.643e+00,6.127e+00,6.699e+00,6.418e+00,8.848e+00,7.162e+00,8.445e+00,8.203e+00,9.545e+00,7.526e+00,7.075e+00,1.034e+01,7.982e+00,8.509e+00,8.842e+00,9.775e+00,8.636e+00,1.111e+01,8.855e+00,1.061e+01,1.031e+01,9.356e+00,1.179e+01,1.083e+01,1.253e+01,1.026e+01,1.271e+01,1.179e+01,1.364e+01,1.440e+01,1.367e+01,1.438e+01,1.461e+01,1.467e+01,1.516e+01,1.587e+01,1.551e+01,1.665e+01,1.542e+01,1.657e+01,1.337e+01,1.563e+01,1.777e+01,1.624e+01,1.646e+01,1.698e+01,1.541e+01,1.626e+01,1.935e+01,1.885e+01,2.045e+01,1.744e+01,1.754e+01,1.707e+01,1.933e+01
6.951e-01,8.585e-01,2.086e+00,1.798e+00,2.558e+00,1.545e+00,2.282e+00,2.606e+00,3.996e+00,3.373e+00,4.452e+00,2.718e+00,4.250e+00,5.093e+00,3.637e+00,3.648e+00,5.019e+00,5.749e+00,5.169e+00,4.325e+00,5.874e+00,8.895e+00,5.830e+00,6.164e+00,7.433e+00,8.440e+00,8.071e+00,6.536e+00,9.251e+00,8.430e+00,9.493e+00,9.671e+00,1.105e+01,1.000e+01,9.353e+00,1.191e+01,8.581e+00,9.147e+00,1.028e+01,1.122e+01,1.052e+01,1.367e+01,1.062e+01,1.246e+01,1.207e+01,1.172e+01,1.468e+01,1.277e+01,1.453e+01,1.122e+01,1.440e+01,1.605e+01,1.561e+01,1.694e+01,1.685e+01,1.747e+01,1.819e+01,1.653e+01,1.785e+01,1.752e+01,1.934e+01,2.092e+01,1.949e+01,2.136e+01,1.855e+01,2.034e+01,2.250e+01,2.012e+01,2.166e+01,2.242e+01,1.916e+01,1.913e+01,2.160e+01,2.446e+01,2.423e+01,2.144e+01,1.947e+01,2.279e+01,2.294e+01
