6.779e-01,5.955e-01,2.452e-01,4.575e-03,3.589e-01,6.881e-02,9.953e-01,4.437e-01,9.876e-01,4.278e-01,6.440e-02,3.987e-02,4.234e-01,1.386e-01,9.042e-01,2.962e-01,1.456e-01,3.847e-01,6.198e-01,1.385e-01,4.441e-01,1.194e-01,8.178e-01,7.597e-01,1.660e-01,3.326e-01,4.289e-01,3.740e-01,6.851e-01,3.473e-03,5.871e-01,3.891e-01,7.898e-01,6.004e-01,2.031e-02,7.962e-01,3.456e-01,8.675e-01,2.937e-01,5.621e-01,7.345e-01,8.583e-01,3.303e-02,7.473e-01,6.378e-01,9.976e-01,4.800e-01,4.432e-01,7.957e-01,5.072e-01,6.013e-01,9.325e-01,5.007e-01,6.077e-01,7.194e-01,2.529e-01,2.310e-01,4.969e-01,9.791e-03,2.245e-01,9.105e-01,7.268e-01,5.090e-01,4.050e-01,1.406e-01,2.449e-01,1.197e-01,3.970e-01
2.302e-01,9.827e-01,8.576e-01,1.567e-01,3.080e-01,5.990e-01,1.173e+00,9.613e-01,8.697e-01,8.787e-01,5.419e-01,3.510e-02,5.519e-01,8.790e-01,7.037e-01,8.290e-01,2.715e-01,6.273e-01,1.159e+00,8.694e-02,2.150e-01,5.508e-01,5.715e-01,5.305e-01,6.414e-01,8.481e-01,7.303e-01,8.008e-01,7.124e-01,2.999e-01,5.279e-01,1.056e+00,1.228e+00,8.630e-01,9.365e-01,1.129e+00,3.791e-01,1.089e+00,1.840e-01,7.745e-01,1.171e+00,1.185e+00,5.018e-01,4.972e-01,9.281e-01,4.308e-01,2.553e-01,1.053e+00,3.310e-01,8.543e-01,5.248e-01,1.239e+00,7.383e-01,3.216e-01,4.779e-01,2.987e-01,1.941e-01,4.910e-01,8.267e-01,1.112e-01,6.806e-01,4.451e-01,1.049e+00,1.087e+00,9.034e-02,3.688e-01,7.657e-01,1.620e-01
1.296e-01,6.406e-01,1.366e+00,3.493e-01,1.033e+00,1.141e+00,1.569e+00,1.155e+00,8.029e-01,8.678e-01,6.044e-01,3.965e-01,6.401e-01,1.562e+00,6.873e-01,6.512e-01,1.111e+00,7.356e-01,9.308e-01,1.656e-01,9.291e-01,3.935e-01,6.308e-01,7.144e-01,1.147e+00,6.475e-01,1.004e+00,1.213e+00,9.954e-01,6.083e-01,4.220e-01,1.562e+00,1.441e+00,1.433e+00,1.394e+00,8.805e-01,1.040e+00,8.772e-01,6.205e-01,7.100e-01,1.539e+00,1.471e+00,7.978e-01,7.740e-01,1.061e+00,7.804e-01,6.435e-01,8.276e-01,7.329e-01,1.267e+00,9.010e-01,1.608e+00,5.417e-01,7.751e-01,6.237e-01,4.692e-01,3.813e-01,1.143e+00,6.041e-01,2.750e-01,5.419e-01,5.375e-01,1.425e+00,9.560e-01,8.430e-01,3.037e-01,1.339e+00,1.032e+00
3.252e-01,6.757e-01,1.055e+00,3.590e-01,1.630e+00,1.607e+00,1.674e+00,1.622e+00,1.908e+00,9.330e-01,1.417e+00,6.663e-01,1.108e+00,2.123e+00,1.297e+00,6.701e-01,1.513e+00,6.958e-01,1.332e+00,1.013e+00,9.244e-01,4.434e-01,8.724e-01,1.498e+00,1.123e+00,1.553e+00,1.628e+00,1.401e+00,1.606e+00,7.285e-01,1.324e+00,1.748e+00,1.718e+00,1.751e+00,1.404e+00,1.179e+00,9.068e-01,1.771e+00,9.195e-01,1.242e+00,1.713e+00,1.927e+00,1.450e+00,8.447e-01,1.007e+00,1.647e+00,9.675e-01,1.674e+00,8.108e-01,1.774e+00,1.453e+00,1.518e+00,1.289e+00,1.478e+00,1.362e+00,9.298e-01,9.088e-01,1.662e+00,1.098e+00,2.712e-01,1.411e+00,1.380e+00,2.018e+00,1.455e+00,7.958e-01,7.046e-01,9.991e-01,1.761e+00
2.969e-01,1.021e+00,1.227e+00,2.988e-01,1.857e+00,1.499e+00,2.070e+00,1.712e+00,1.400e+00,1.332e+00,9.844e-01,7.345e-01,9.582e-01,2.445e+00,1.676e+00,1.044e+00,1.849e+00,1.044e+00,2.073e+00,1.152e+00,1.038e+00,1.524e+00,1.538e+00,1.365e+00,1.785e+00,1.652e+00,1.379e+00,1.420e+00,1.767e+00,1.451e+00,1.504e+00,2.128e+00,2.167e+00,2.136e+00,1.412e+00,1.429e+00,1.128e+00,1.879e+00,1.245e+00,1.898e+00,2.344e+00,1.874e+00,1.291e+00,9.659e-01,1.250e+00,1.388e+00,9.344e-01,2.123e+00,1.150e+00,2.101e+00,1.039e+00,2.356e+00,1.467e+00,1.850e+00,1.552e+00,8.648e-01,8.234e-01,1.224e+00,1.553e+00,5.989e-01,1.604e+00,9.475e-01,1.979e+00,2.032e+00,1.093e+00,5.621e-01,1.341e+00,1.178e+00
1.792e-01,3.515e-01,8.378e-01,2.362e-01,1.260e+00,1.321e+00,1.754e+00,1.003e+00,9.156e-01,1.418e+00,6.315e-01,9.069e-01,8.327e-01,2.177e+00,9.657e-01,9.073e-01,1.961e+00,1.304e+00,1.502e+00,1.011e+00,1.893e+00,1.328e+00,9.928e-01,1.008e+00,1.557e+00,1.259e+00,1.268e+00,1.122e+00,1.349e+00,1.042e+00,1.530e+00,1.938e+00,2.166e+00,1.780e+00,1.611e+00,1.122e+00,1.531e+00,1.387e+00,1.585e+00,1.056e+00,1.850e+00,1.136e+00,1.269e+00,1.279e+00,1.300e+00,1.776e+00,8.222e-01,1.820e+00,1.340e+00,1.943e+00,1.058e+00,1.812e+00,1.183e+00,1.185e+00,9.749e-01,1.132e+00,1.335e+00,1.254e+00,5.793e-01,1.283e+00,8.962e-01,1.187e+00,1.285e+00,1.591e+00,1.629e+00,7.539e-01,9.976e-01,1.745e+00
3.557e-01,9.206e-01,1.295e+00,3.833e-01,1.974e+00,2.092e+00,3.356e+00,2.120e+00,2.563e+00,2.462e+00,2.255e+00,1.653e+00,2.160e+00,3.854e+00,2.368e+00,2.143e+00,2.704e+00,1.682e+00,2.746e+00,2.433e+00,2.691e+00,2.573e+00,2.254e+00,2.536e+00,2.930e+00,2.505e+00,3.068e+00,2.319e+00,2.393e+00,1.777e+00,3.090e+00,3.759e+00,3.772e+00,3.282e+00,2.968e+00,2.321e+00,1.924e+00,2.955e+00,2.404e+00,2.230e+00,2.802e+00,2.795e+00,2.728e+00,1.684e+00,2.696e+00,2.650e+00,1.616e+00,3.616e+00,1.677e+00,3.396e+00,1.722e+00,3.256e+00,2.564e+00,2.013e+00,2.000e+00,2.052e+00,1.893e+00,2.401e+00,1.890e+00,1.434e+00,2.157e+00,1.914e+00,2.677e+00,3.185e+00,1.963e+00,1.727e+00,2.018e+00,2.924e+00
2.327e-01,4.998e-01,4.546e-01,1.124e-01,1.149e+00,9.942e-01,1.984e+00,1.362e+00,1.593e+00,2.549e+00,1.162e+00,1.673e+00,1.786e+00,2.665e+00,2.302e+00,1.885e+00,2.081e+00,1.179e+00,2.575e+00,1.926e+00,2.576e+00,3.047e+00,2.271e+00,1.812e+00,2.437e+00,2.168e+00,2.495e+00,1.302e+00,1.964e+00,1.841e+00,2.451e+00,2.744e+00,2.954e+00,2.190e+00,2.337e+00,1.857e+00,2.063e+00,2.520e+00,2.324e+00,1.970e+00,1.690e+00,1.497e+00,2.024e+00,1.103e+00,1.837e+00,1.828e+00,1.643e+00,2.857e+00,2.072e+00,2.438e+00,7.982e-01,2.545e+00,2.344e+00,1.444e+00,1.430e+00,2.137e+00,2.004e+00,1.836e+00,2.159e+00,1.584e+00,1.504e+00,1.804e+00,1.861e+00,2.850e+00,2.198e+00,1.200e+00,1.119e+00,1.837e+00
1.235e-01,4.561e-01,5.107e-01,1.880e-01,1.461e+00,1.191e+00,1.229e+00,1.317e+00,1.540e+00,1.330e+00,1.352e+00,9.225e-01,1.702e+00,2.627e+00,2.434e+00,1.396e+00,2.054e+00,7.665e-01,1.768e+00,1.935e+00,1.074e+00,1.493e+00,1.297e+00,1.477e+00,1.545e+00,2.205e+00,1.572e+00,1.816e+00,1.590e+00,1.483e+00,2.073e+00,1.892e+00,2.562e+00,2.305e+00,2.180e+00,1.201e+00,1.463e+00,2.332e+00,1.488e+00,2.156e+00,1.640e+00,1.493e+00,1.786e+00,7.699e-01,1.085e+00,1.661e+00,1.920e+00,2.027e+00,1.265e+00,1.981e+00,9.910e-01,2.127e+00,2.358e+00,2.277e+00,1.772e+00,1.308e+00,1.922e+00,1.885e+00,1.679e+00,1.510e+00,1.566e+00,1.739e+00,2.369e+00,1.834e+00,1.191e+00,1.163e+00,8.781e-01,1.765e+00
4.519e-01,5.811e-01,4.642e-01,1.215e-01,9.794e-01,9.016e-01,1.471e+00,1.010e+00,1.438e+00,1.412e+00,1.647e+00,1.117e+00,1.988e+00,2.002e+00,2.461e+00,1.175e+00,1.665e+00,1.367e+00,2.238e+00,1.189e+00,1.598e+00,2.026e+00,1.883e+00,1.912e+00,1.902e+00,1.920e+00,1.899e+00,1.222e+00,2.272e+00,1.155e+00,2.169e+00,2.127e+00,2.273e+00,2.071e+00,1.430e+00,1.735e+00,1.594e+00,2.331e+00,1.825e+00,1.679e+00,2.353e+00,1.661e+00,2.054e+00,1.719e+00,1.601e+00,2.742e+00,1.384e+00,1.900e+00,1.721e+00,2.609e+00,1.637e+00,2.345e+00,1.851e+00,1.881e+00,2.092e+00,1.943e+00,2.237e+00,1.698e+00,1.308e+00,1.954e+00,1.535e+00,1.809e+00,1.485e+00,2.450e+00,2.033e+00,1.836e+00,1.265e+00,2.065e+00
1.775e-01,8.037e-01,1.330e+00,3.916e-01,2.005e+00,1.904e+00,2.831e+00,2.251e+00,2.365e+00,2.908e+00,3.007e+00,2.154e+00,3.546e+00,4.816e+00,3.330e+00,3.328e+00,3.833e+00,2.155e+00,3.608e+00,3.054e+00,3.215e+00,3.509e+00,3.697e+00,2.976e+00,4.231e+00,3.022e+00,4.478e+00,3.060e+00,3.301e+00,2.608e+00,3.813e+00,4.488e+00,4.244e+00,4.019e+00,3.734e+00,2.848e+00,3.014e+00,4.003e+00,3.694e+00,2.843e+00,3.623e+00,3.565e+00,4.120e+00,2.051e+00,2.849e+00,3.343e+00,2.659e+00,4.168e+00,2.633e+00,3.620e+00,1.723e+00,4.397e+00,3.140e+00,2.611e+00,2.984e+00,3.624e+00,3.000e+00,3.241e+00,3.402e+00,2.154e+00,2.397e+00,3.337e+00,3.587e+00,4.341e+00,3.077e+00,2.514e+00,2.464e+00,3.250e+00
5.195e-02,1.167e-01,2.370e-01,1.665e-01,1.368e+00,1.128e+00,1.464e+00,1.371e+00,1.930e+00,1.862e+00,2.305e+00,2.519e+00,3.555e+00,3.872e+00,3.132e+00,2.374e+00,3.530e+00,1.758e+00,2.567e+00,3.237e+00,2.452e+00,3.385e+00,2.531e+00,2.805e+00,2.769e+00,2.688e+00,3.955e+00,2.041e+00,2.840e+00,2.146e+00,3.750e+00,3.311e+00,2.908e+00,3.571e+00,3.144e+00,2.536e+00,2.706e+00,3.758e+00,2.738e+00,2.453e+00,1.820e+00,2.366e+00,3.265e+00,1.940e+00,2.437e+00,2.679e+00,2.455e+00,3.235e+00,2.258e+00,2.617e+00,1.451e+00,3.200e+00,3.102e+00,2.550e+00,2.690e+00,3.278e+00,3.083e+00,3.139e+00,3.464e+00,1.801e+00,1.914e+00,3.010e+00,3.044e+00,3.369e+00,2.626e+00,2.362e+00,2.119e+00,2.878e+00
6.768e-01,1.060e+00,1.132e+00,2.352e-01,1.006e+00,1.211e+00,3.087e+00,1.762e+00,2.451e+00,3.297e+00,1.959e+00,2.155e+00,4.057e+00,3.717e+00,4.097e+00,3.376e+00,2.988e+00,3.396e+00,4.093e+00,2.561e+00,4.558e+00,3.890e+00,3.514e+00,3.659e+00,3.971e+00,3.332e+00,3.888e+00,3.466e+00,4.026e+00,2.511e+00,3.972e+00,4.583e+00,4.640e+00,4.486e+00,3.996e+00,3.406e+00,3.768e+00,4.633e+00,3.743e+00,2.655e+00,3.369e+00,3.035e+00,3.645e+00,3.573e+00,4.189e+00,4.490e+00,3.085e+00,3.509e+00,4.182e+00,4.490e+00,2.436e+00,5.346e+00,4.110e+00,2.828e+00,3.323e+00,3.910e+00,3.548e+00,3.796e+00,2.764e+00,3.722e+00,2.164e+00,3.320e+00,3.392e+00,4.010e+00,4.080e+00,3.018e+00,2.487e+00,3.872e+00
3.138e-01,7.793e-01,1.220e+00,3.273e-01,1.440e+00,1.373e+00,2.000e+00,1.597e+00,1.589e+00,1.648e+00,1.717e+00,1.171e+00,2.198e+00,3.118e+00,2.519e+00,1.948e+00,3.071e+00,1.846e+00,2.459e+00,1.494e+00,2.649e+00,2.817e+00,2.656e+00,2.253e+00,2.781e+00,2.775e+00,3.580e+00,2.812e+00,3.483e+00,2.007e+00,2.248e+00,3.161e+00,2.606e+00,3.135e+00,2.202e+00,2.369e+00,2.357e+00,3.048e+00,3.161e+00,1.915e+00,2.903e+00,3.259e+00,2.744e+00,2.717e+00,2.299e+00,2.968e+00,2.331e+00,2.968e+00,2.087e+00,3.335e+00,1.856e+00,3.684e+00,2.454e+00,2.358e+00,2.233e+00,2.335e+00,1.958e+00,2.272e+00,2.672e+00,2.276e+00,1.772e+00,2.375e+00,3.294e+00,2.701e+00,2.890e+00,1.962e+00,1.923e+00,2.239e+00
3.502e-01,3.299e-01,4.435e-01,1.355e-01,9.520e-01,8.608e-01,1.281e+00,7.820e-01,1.152e+00,1.072e+00,1.298e+00,1.089e+00,1.989e+00,2.206e+00,3.204e+00,1.534e+00,2.628e+00,1.645e+00,2.364e+00,2.025e+00,2.527e+00,2.294e+00,2.676e+00,2.036e+00,1.823e+00,2.989e+00,2.369e+00,2.757e+00,3.378e+00,1.759e+00,2.782e+00,3.042e+00,2.700e+00,2.916e+00,2.241e+00,1.944e+00,2.114e+00,3.084e+00,2.327e+00,1.933e+00,2.612e+00,2.030e+00,2.803e+00,3.177e+00,2.027e+00,3.140e+00,1.859e+00,2.350e+00,2.169e+00,2.928e+00,2.611e+00,3.108e+00,3.078e+00,3.185e+00,2.437e+00,2.833e+00,3.173e+00,2.864e+00,2.016e+00,3.350e+00,1.789e+00,2.004e+00,2.516e+00,2.260e+00,2.575e+00,2.245e+00,2.222e+00,2.614e+00
5.778e-02,4.194e-01,7.181e-01,1.919e-01,6.689e-01,7.664e-01,1.178e+00,8.883e-01,8.961e-01,1.098e+00,1.587e+00,1.057e+00,2.498e+00,2.629e+00,2.360e+00,2.920e+00,3.335e+00,3.050e+00,3.080e+00,2.138e+00,3.027e+00,2.775e+00,2.685e+00,2.445e+00,2.693e+00,3.326e+00,3.724e+00,2.978e+00,3.346e+00,2.110e+00,3.057e+00,3.489e+00,2.840e+00,3.490e+00,2.334e+00,2.127e+00,3.134e+00,3.368e+00,3.697e+00,2.030e+00,2.962e+00,3.294e+00,3.683e+00,3.004e+00,3.038e+00,3.390e+00,3.058e+00,2.689e+00,2.681e+00,3.434e+00,1.627e+00,4.244e+00,3.359e+00,3.186e+00,2.924e+00,2.957e+00,2.607e+00,2.183e+00,2.888e+00,3.320e+00,1.721e+00,3.028e+00,2.984e+00,2.837e+00,2.840e+00,2.644e+00,2.327e+00,2.199e+00
6.303e-01,1.091e+00,1.102e+00,2.850e-01,2.032e+00,1.595e+00,2.745e+00,2.119e+00,2.595e+00,2.501e+00,2.192e+00,2.510e+00,3.964e+00,4.461e+00,5.598e+00,3.087e+00,4.961e+00,3.574e+00,4.753e+00,4.515e+00,4.572e+00,5.457e+00,5.337e+00,4.548e+00,4.323e+00,5.887e+00,5.587e+00,4.485e+00,5.872e+00,3.412e+00,5.223e+00,6.225e+00,5.221e+00,5.745e+00,4.964e+00,4.548e+00,4.165e+00,6.546e+00,4.109e+00,4.504e+00,4.696e+00,4.281e+00,4.553e+00,5.271e+00,4.197e+00,4.680e+00,3.856e+00,5.061e+00,4.469e+00,5.374e+00,3.675e+00,6.260e+00,6.315e+00,6.020e+00,4.685e+00,4.812e+00,4.926e+00,5.463e+00,5.479e+00,4.597e+00,4.274e+00,3.817e+00,5.100e+00,4.604e+00,4.683e+00,4.107e+00,4.234e+00,4.324e+00
7.041e-02,3.318e-01,9.273e-01,3.385e-01,1.548e+00,1.524e+00,1.632e+00,1.518e+00,1.730e+00,1.557e+00,2.366e+00,1.858e+00,3.314e+00,3.819e+00,3.497e+00,2.819e+00,4.053e+00,2.876e+00,3.386e+00,3.533e+00,3.582e+00,3.173e+00,3.315e+00,3.244e+00,3.520e+00,4.104e+00,4.929e+00,4.036e+00,4.726e+00,3.452e+00,4.066e+00,5.131e+00,4.042e+00,4.608e+00,4.038e+00,3.021e+00,3.690e+00,4.709e+00,3.919e+00,2.741e+00,3.778e+00,3.743e+00,4.465e+00,3.836e+00,3.443e+00,4.624e+00,3.136e+00,3.627e+00,3.317e+00,4.561e+00,3.591e+00,4.959e+00,4.239e+00,4.337e+00,3.542e+00,4.367e+00,3.865e+00,4.441e+00,3.636e+00,3.653e+00,3.254e+00,4.335e+00,4.574e+00,4.372e+00,4.082e+00,3.138e+00,3.762e+00,3.846e+00
4.008e-01,5.530e-01,4.629e-01,1.752e-01,1.396e+00,1.112e+00,1.571e+00,1.369e+00,1.973e+00,1.341e+00,2.213e+00,1.471e+00,2.953e+00,2.952e+00,3.139e+00,2.682e+00,3.367e+00,3.333e+00,4.296e+00,3.933e+00,4.087e+00,3.333e+00,4.731e+00,4.516e+00,4.137e+00,4.545e+00,5.316e+00,4.049e+00,4.689e+00,3.092e+00,4.297e+00,5.476e+00,4.648e+00,4.895e+00,3.620e+00,3.266e+00,3.814e+00,4.964e+00,4.306e+00,3.096e+00,4.930e+00,3.914e+00,4.264e+00,4.043e+00,3.921e+00,5.015e+00,3.450e+00,4.166e+00,4.057e+00,4.650e+00,3.897e+00,5.180e+00,5.139e+00,4.692e+00,4.647e+00,4.386e+00,3.710e+00,3.937e+00,4.486e+00,3.243e+00,4.616e+00,5.101e+00,4.357e+00,4.349e+00,3.790e+00,3.712e+00,3.893e+00,3.721e+00
2.124e-01,9.485e-01,1.200e+00,3.659e-01,1.935e+00,2.111e+00,2.733e+00,2.188e+00,2.478e+00,2.727e+00,3.331e+00,2.199e+00,4.013e+00,5.218e+00,4.787e+00,3.815e+00,5.231e+00,3.883e+00,5.212e+00,5.540e+00,5.894e+00,5.953e+00,6.057e+00,5.633e+00,6.009e+00,6.291e+00,6.655e+00,5.322e+00,6.052e+00,4.395e+00,6.569e+00,7.259e+00,6.399e+00,6.255e+00,5.805e+00,5.050e+00,5.047e+00,7.412e+00,5.707e+00,4.551e+00,6.309e+00,5.366e+00,5.863e+00,5.608e+00,5.256e+00,6.074e+00,3.970e+00,6.426e+00,4.850e+00,6.952e+00,4.361e+00,7.036e+00,7.339e+00,6.243e+00,5.754e+00,5.790e+00,5.682e+00,5.560e+00,5.844e+00,5.404e+00,5.014e+00,5.255e+00,5.729e+00,6.044e+00,5.532e+00,4.868e+00,4.726e+00,5.279e+00
1.160e-01,5.886e-01,1.068e+00,2.817e-01,1.021e+00,1.256e+00,2.013e+00,1.323e+00,1.376e+00,2.036e+00,2.706e+00,2.219e+00,4.475e+00,4.261e+00,4.471e+00,4.083e+00,4.741e+00,4.454e+00,5.161e+00,4.363e+00,6.495e+00,5.003e+00,5.765e+00,5.942e+00,5.362e+00,5.338e+00,6.107e+00,5.731e+00,6.959e+00,4.376e+00,6.597e+00,7.214e+00,5.627e+00,6.505e+00,5.882e+00,4.870e+00,6.028e+00,7.232e+00,5.631e+00,3.975e+00,5.871e+00,4.845e+00,6.373e+00,6.337e+00,5.643e+00,6.895e+00,4.275e+00,5.232e+00,5.411e+00,6.563e+00,4.774e+00,7.384e+00,6.623e+00,6.064e+00,5.715e+00,6.681e+00,5.886e+00,5.442e+00,5.944e+00,5.706e+00,3.837e+00,5.843e+00,5.501e+00,6.494e+00,5.642e+00,4.695e+00,5.393e+00,5.391e+00
1.987e-03,5.144e-01,9.899e-01,2.912e-01,1.354e+00,1.539e+00,1.994e+00,1.564e+00,1.466e+00,2.399e+00,1.710e+00,2.310e+00,2.974e+00,4.014e+00,3.772e+00,2.519e+00,4.482e+00,3.238e+00,3.977e+00,3.955e+00,5.444e+00,6.246e+00,4.855e+00,4.747e+00,4.889e+00,5.970e+00,6.510e+00,5.120e+00,6.161e+00,4.791e+00,5.340e+00,7.199e+00,5.572e+00,5.415e+00,6.170e+00,4.721e+00,4.948e+00,6.849e+00,5.353e+00,4.082e+00,4.609e+00,4.115e+00,5.182e+00,6.240e+00,4.960e+00,5.684e+00,3.999e+00,6.109e+00,4.295e+00,6.684e+00,5.038e+00,5.988e+00,6.908e+00,5.682e+00,4.372e+00,5.460e+00,5.469e+00,5.162e+00,6.424e+00,4.834e+00,4.873e+00,5.081e+00,5.925e+00,5.417e+00,5.627e+00,4.637e+00,4.945e+00,5.287e+00
5.924e-01,7.249e-01,6.781e-01,2.209e-01,1.988e+00,1.525e+00,2.744e+00,1.870e+00,2.615e+00,2.312e+00,2.668e+00,2.681e+00,4.098e+00,4.203e+00,4.937e+00,3.207e+00,4.687e+00,4.205e+00,5.352e+00,4.988e+00,6.601e+00,6.489e+00,6.988e+00,7.433e+00,6.257e+00,6.825e+00,7.915e+00,5.588e+00,8.134e+00,5.558e+00,7.483e+00,8.274e+00,6.721e+00,7.490e+00,6.274e+00,5.247e+00,5.846e+00,8.535e+00,6.359e+00,5.123e+00,6.094e+00,6.001e+00,6.690e+00,6.986e+00,6.659e+00,8.613e+00,5.340e+00,6.505e+00,6.384e+00,8.853e+00,6.078e+00,7.455e+00,8.287e+00,7.372e+00,7.087e+00,7.292e+00,5.929e+00,5.917e+00,7.539e+00,5.770e+00,6.212e+00,6.496e+00,6.052e+00,7.017e+00,6.819e+00,5.543e+00,5.797e+00,6.430e+00
2.647e-01,6.263e-01,8.926e-01,2.430e-01,1.025e+00,1.104e+00,2.251e+00,1.326e+00,1.760e+00,1.705e+00,2.302e+00,1.379e+00,3.249e+00,3.324e+00,3.264e+00,3.070e+00,3.245e+00,3.481e+00,3.618e+00,4.062e+00,5.239e+00,4.472e+00,5.594e+00,6.018e+00,6.170e+00,5.094e+00,6.799e+00,6.648e+00,6.831e+00,4.605e+00,5.910e+00,7.543e+00,6.081e+00,5.705e+00,6.228e+00,4.973e+00,4.405e+00,6.811e+00,6.098e+00,3.735e+00,5.609e+00,5.238e+00,6.223e+00,6.523e+00,5.535e+00,6.542e+00,4.479e+00,5.967e+00,4.914e+00,7.007e+00,5.573e+00,7.067e+00,6.762e+00,5.556e+00,5.281e+00,5.804e+00,4.944e+00,5.201e+00,5.741e+00,5.191e+00,5.223e+00,5.003e+00,5.310e+00,5.390e+00,5.471e+00,4.832e+00,5.442e+00,6.156e+00
5.526e-01,5.850e-01,6.880e-01,2.089e-01,1.669e+00,1.331e+00,2.016e+00,1.323e+00,1.903e+00,1.518e+00,2.329e+00,2.048e+00,4.300e+00,4.181e+00,4.716e+00,3.457e+00,4.844e+00,4.205e+00,4.449e+00,4.437e+00,5.014e+00,3.959e+00,5.001e+00,5.430e+00,5.474e+00,5.687e+00,5.538e+00,6.473e+00,7.059e+00,5.233e+00,7.057e+00,7.183e+00,6.038e+00,6.505e+00,5.474e+00,5.269e+00,5.586e+00,7.883e+00,5.730e+00,4.346e+00,5.800e+00,4.810e+00,6.260e+00,6.753e+00,4.982e+00,7.702e+00,5.279e+00,5.652e+00,5.676e+00,6.669e+00,6.156e+00,7.796e+00,6.802e+00,6.787e+00,6.096e+00,7.126e+00,6.167e+00,6.354e+00,5.702e+00,6.562e+00,4.864e+00,6.540e+00,5.823e+00,6.674e+00,5.819e+00,5.436e+00,5.128e+00,6.324e+00
1.741e-01,3.954e-01,8.255e-01,2.973e-01,2.033e+00,1.856e+00,2.120e+00,1.717e+00,1.917e+00,2.339e+00,2.100e+00,2.160e+00,3.152e+00,4.349e+00,4.696e+00,2.663e+00,4.913e+00,3.327e+00,4.619e+00,4.567e+00,6.004e+00,5.618e+00,5.848e+00,5.809e+00,6.028e+00,6.796e+00,7.036e+00,6.500e+00,7.500e+00,5.033e+00,6.466e+00,7.544e+00,7.292e+00,7.063e+00,6.723e+00,5.669e+00,6.028e+00,8.117e+00,6.636e+00,4.863e+00,6.493e+00,5.449e+00,6.415e+00,7.241e+00,5.625e+00,7.363e+00,5.974e+00,7.124e+00,6.521e+00,7.726e+00,5.923e+00,7.403e+00,8.297e+00,6.800e+00,6.445e+00,6.921e+00,6.465e+00,5.922e+00,7.442e+00,6.854e+00,5.001e+00,5.597e+00,5.800e+00,6.182e+00,6.948e+00,5.636e+00,5.632e+00,6.784e+00
1.216e-01,4.521e-01,8.320e-01,3.086e-01,1.428e+00,1.504e+00,1.987e+00,1.665e+00,2.095e+00,1.925e+00,2.982e+00,2.453e+00,4.310e+00,4.272e+00,4.481e+00,3.644e+00,4.727e+00,4.053e+00,4.904e+00,4.850e+00,6.232e+00,5.341e+00,5.759e+00,6.686e+00,6.014e+00,6.089e+00,8.086e+00,6.628e+00,8.897e+00,5.320e+00,7.536e+00,8.653e+00,6.877e+00,7.377e+00,6.906e+00,6.629e+00,6.550e+00,8.622e+00,7.430e+00,4.824e+00,6.380e+00,6.645e+00,7.649e+00,7.360e+00,6.832e+00,8.089e+00,6.231e+00,6.715e+00,6.675e+00,8.608e+00,6.704e+00,8.789e+00,7.831e+00,7.032e+00,6.669e+00,7.641e+00,6.350e+00,6.706e+00,7.379e+00,6.942e+00,5.317e+00,6.394e+00,6.342e+00,7.128e+00,6.797e+00,5.816e+00,7.089e+00,7.275e+00
2.165e-01,8.945e-01,1.335e+00,3.270e-01,1.577e+00,1.630e+00,2.376e+00,1.844e+00,1.659e+00,2.828e+00,2.194e+00,1.935e+00,3.401e+00,4.128e+00,4.451e+00,3.793e+00,4.403e+00,3.719e+00,5.186e+00,3.443e+00,5.168e+00,4.891e+00,4.812e+00,4.767e+00,5.860e+00,5.717e+00,5.862e+00,6.259e+00,7.021e+00,5.273e+00,6.293e+00,7.644e+00,7.538e+00,6.527e+00,6.054e+00,5.758e+00,6.600e+00,7.732e+00,6.949e+00,5.237e+00,7.320e+00,6.158e+00,7.594e+00,6.134e+00,6.255e+00,7.560e+00,6.475e+00,6.432e+00,6.847e+00,8.391e+00,5.522e+00,8.410e+00,7.016e+00,6.480e+00,6.033e+00,6.673e+00,6.400e+00,6.166e+00,5.988e+00,7.781e+00,4.504e+00,5.805e+00,5.704e+00,6.901e+00,6.318e+00,5.521e+00,6.623e+00,6.696e+00
1.699e-01,8.208e-01,1.488e+00,4.726e-01,1.822e+00,2.228e+00,2.836e+00,2.103e+00,2.427e+00,2.223e+00,2.880e+00,1.786e+00,3.620e+00,4.689e+00,3.319e+00,3.975e+00,4.680e+00,4.432e+00,5.096e+00,4.593e+00,5.715e+00,4.181e+00,5.322e+00,5.866e+00,6.155e+00,6.107e+00,7.289e+00,7.246e+00,7.397e+00,5.139e+00,7.747e+00,9.075e+00,8.574e+00,7.802e+00,7.053e+00,6.474e+00,6.459e+00,8.427e+00,7.736e+00,5.361e+00,8.020e+00,7.585e+00,8.478e+00,7.801e+00,7.027e+00,8.743e+00,6.015e+00,8.459e+00,7.110e+00,8.607e+00,6.496e+00,8.824e+00,8.367e+00,6.960e+00,6.953e+00,7.693e+00,6.839e+00,6.042e+00,6.842e+00,6.587e+00,6.200e+00,6.903e+00,7.137e+00,6.789e+00,6.296e+00,7.059e+00,6.712e+00,8.125e+00
4.102e-01,1.005e+00,9.884e-01,2.907e-01,1.818e+00,1.790e+00,2.573e+00,1.955e+00,2.504e+00,2.181e+00,2.633e+00,1.651e+00,3.405e+00,4.115e+00,4.166e+00,2.679e+00,3.629e+00,3.219e+00,3.986e+00,4.255e+00,4.429e+00,4.805e+00,4.870e+00,5.940e+00,5.915e+00,5.873e+00,6.879e+00,6.264e+00,7.639e+00,5.734e+00,7.435e+00,7.994e+00,8.264e+00,7.683e+00,7.182e+00,7.471e+00,5.521e+00,9.312e+00,7.061e+00,5.684e+00,6.897e+00,7.092e+00,6.728e+00,7.541e+00,6.308e+00,8.242e+00,6.117e+00,8.028e+00,6.884e+00,9.390e+00,6.317e+00,8.349e+00,7.939e+00,7.689e+00,7.136e+00,7.163e+00,6.912e+00,5.787e+00,6.896e+00,6.886e+00,6.688e+00,6.810e+00,6.968e+00,7.246e+00,7.043e+00,6.742e+00,5.680e+00,7.627e+00
1.176e-01,7.070e-01,6.481e-01,1.384e-01,3.769e-01,8.086e-01,1.317e+00,1.101e+00,1.183e+00,2.050e+00,1.685e+00,1.823e+00,3.410e+00,3.199e+00,3.437e+00,3.474e+00,3.924e+00,4.043e+00,4.335e+00,3.714e+00,4.466e+00,4.907e+00,5.191e+00,4.505e+00,5.341e+00,6.118e+00,6.801e+00,5.555e+00,7.532e+00,5.152e+00,7.328e+00,9.047e+00,7.525e+00,6.626e+00,7.651e+00,6.853e+00,6.244e+00,8.233e+00,6.607e+00,5.779e+00,6.207e+00,7.245e+00,7.254e+00,8.004e+00,6.045e+00,7.538e+00,6.046e+00,6.854e+00,7.057e+00,9.000e+00,6.753e+00,9.036e+00,7.724e+00,7.134e+00,5.921e+00,8.578e+00,7.377e+00,6.577e+00,7.307e+00,7.912e+00,6.363e+00,7.117e+00,6.657e+00,7.109e+00,7.273e+00,7.770e+00,6.913e+00,6.391e+00
7.820e-02,1.451e-01,3.633e-01,1.468e-01,7.342e-01,9.935e-01,1.537e+00,9.547e-01,1.368e+00,1.962e+00,2.074e+00,1.744e+00,2.960e+00,2.942e+00,2.792e+00,3.197e+00,3.298e+00,3.463e+00,3.896e+00,3.696e+00,5.060e+00,3.803e+00,4.657e+00,4.571e+00,4.983e+00,4.988e+00,6.011e+00,4.456e+00,6.348e+00,5.008e+00,7.017e+00,8.614e+00,7.073e+00,7.278e+00,7.049e+00,6.860e+00,6.902e+00,8.582e+00,6.828e+00,4.967e+00,6.628e+00,7.938e+00,7.472e+00,7.070e+00,6.397e+00,8.467e+00,6.025e+00,6.872e+00,7.941e+00,9.853e+00,5.806e+00,8.789e+00,6.639e+00,7.607e+00,6.790e+00,9.248e+00,7.614e+00,6.363e+00,6.567e+00,7.895e+00,6.146e+00,8.390e+00,6.540e+00,7.983e+00,7.979e+00,7.694e+00,6.360e+00,6.730e+00
3.807e-01,6.536e-01,1.154e+00,3.582e-01,2.407e+00,2.116e+00,2.598e+00,2.033e+00,2.225e+00,2.753e+00,2.289e+00,2.459e+00,3.966e+00,5.168e+00,5.263e+00,3.514e+00,5.850e+00,4.257e+00,5.245e+00,4.902e+00,6.585e+00,6.314e+00,5.876e+00,6.549e+00,7.089e+00,7.301e+00,7.800e+00,7.648e+00,9.619e+00,7.559e+00,9.190e+00,1.049e+01,1.021e+01,9.414e+00,9.596e+00,9.654e+00,9.377e+00,1.165e+01,1.014e+01,7.353e+00,9.757e+00,9.288e+00,9.739e+00,1.053e+01,8.963e+00,1.145e+01,9.455e+00,1.004e+01,1.047e+01,1.339e+01,8.655e+00,1.214e+01,1.079e+01,1.084e+01,9.021e+00,1.056e+01,1.064e+01,8.931e+00,8.227e+00,1.148e+01,8.590e+00,9.966e+00,9.613e+00,9.610e+00,1.055e+01,8.724e+00,8.330e+00,9.670e+00
1.508e-01,8.224e-01,7.634e-01,2.035e-01,1.495e+00,1.326e+00,2.003e+00,1.795e+00,1.966e+00,2.536e+00,2.522e+00,2.170e+00,4.050e+00,4.387e+00,4.453e+00,4.206e+00,4.674e+00,4.328e+00,5.314e+00,5.318e+00,5.514e+00,5.943e+00,5.769e+00,6.305e+00,7.157e+00,6.863e+00,7.515e+00,7.061e+00,7.893e+00,6.417e+00,8.473e+00,9.776e+00,8.638e+00,8.301e+00,8.732e+00,8.551e+00,8.597e+00,1.121e+01,8.405e+00,7.645e+00,8.720e+00,8.249e+00,8.971e+00,8.628e+00,7.378e+00,9.219e+00,8.518e+00,9.044e+00,8.935e+00,1.039e+01,6.951e+00,1.050e+01,1.022e+01,9.249e+00,8.336e+00,8.926e+00,8.290e+00,7.720e+00,9.189e+00,8.778e+00,7.982e+00,8.506e+00,7.748e+00,9.352e+00,7.689e+00,8.359e+00,8.238e+00,8.777e+00
5.903e-01,6.860e-01,4.214e-01,1.371e-01,1.043e+00,1.171e+00,2.367e+00,1.520e+00,2.686e+00,2.701e+00,2.433e+00,2.379e+00,4.260e+00,4.140e+00,4.787e+00,3.684e+00,4.186e+00,3.218e+00,4.507e+00,4.315e+00,4.860e+00,4.656e+00,5.039e+00,4.945e+00,4.445e+00,5.437e+00,6.289e+00,5.689e+00,6.345e+00,4.449e+00,6.997e+00,7.757e+00,7.908e+00,8.040e+00,7.895e+00,7.139e+00,7.914e+00,9.357e+00,6.843e+00,6.378e+00,6.904e+00,7.935e+00,7.840e+00,8.152e+00,7.334e+00,8.626e+00,8.027e+00,7.271e+00,8.595e+00,9.712e+00,6.921e+00,8.839e+00,8.535e+00,8.143e+00,7.532e+00,8.198e+00,8.522e+00,7.191e+00,7.072e+00,7.889e+00,6.959e+00,8.894e+00,7.364e+00,7.943e+00,7.348e+00,8.022e+00,7.228e+00,7.737e+00
1.228e-01,8.472e-01,1.387e+00,3.510e-01,1.113e+00,1.556e+00,2.494e+00,1.669e+00,1.651e+00,2.554e+00,2.374e+00,1.828e+00,3.199e+00,3.835e+00,3.562e+00,3.082e+00,3.510e+00,3.085e+00,4.261e+00,3.915e+00,5.533e+00,5.255e+00,5.536e+00,5.846e+00,6.519e+00,5.313e+00,7.045e+00,6.561e+00,7.430e+00,5.841e+00,7.691e+00,9.694e+00,9.132e+00,7.665e+00,9.051e+00,9.198e+00,8.406e+00,1.055e+01,8.072e+00,6.339e+00,9.362e+00,8.179e+00,9.059e+00,9.443e+00,8.504e+00,8.957e+00,7.944e+00,9.646e+00,8.578e+00,1.175e+01,7.947e+00,1.010e+01,9.987e+00,8.437e+00,8.253e+00,9.225e+00,9.287e+00,8.054e+00,8.254e+00,9.149e+00,7.785e+00,8.723e+00,7.789e+00,9.117e+00,8.081e+00,8.644e+00,8.728e+00,9.154e+00
1.817e-01,2.653e-01,7.067e-01,2.699e-01,2.033e+00,1.665e+00,1.787e+00,1.589e+00,1.718e+00,2.131e+00,2.427e+00,2.099e+00,3.521e+00,4.243e+00,4.273e+00,2.865e+00,4.658e+00,3.357e+00,4.784e+00,4.328e+00,6.601e+00,5.053e+00,6.303e+00,6.544e+00,6.624e+00,6.128e+00,6.412e+00,6.363e+00,8.369e+00,5.920e+00,7.682e+00,8.963e+00,8.010e+00,8.896e+00,8.046e+00,8.416e+00,1.001e+01,1.149e+01,8.780e+00,7.686e+00,1.119e+01,9.489e+00,9.792e+00,9.985e+00,7.688e+00,1.134e+01,9.807e+00,9.870e+00,1.107e+01,1.269e+01,6.931e+00,1.041e+01,1.085e+01,1.041e+01,9.798e+00,1.108e+01,1.042e+01,9.304e+00,8.971e+00,1.037e+01,7.925e+00,1.024e+01,8.981e+00,1.005e+01,1.036e+01,8.835e+00,7.980e+00,8.806e+00
9.132e-02,5.442e-01,7.122e-01,2.634e-01,1.282e+00,1.412e+00,1.984e+00,1.792e+00,2.335e+00,2.491e+00,3.057e+00,2.364e+00,4.178e+00,4.361e+00,4.416e+00,3.189e+00,3.973e+00,2.694e+00,4.301e+00,4.191e+00,5.481e+00,5.382e+00,5.663e+00,6.483e+00,6.897e+00,6.015e+00,7.490e+00,6.911e+00,8.163e+00,5.446e+00,7.427e+00,9.155e+00,7.984e+00,8.331e+00,8.193e+00,8.339e+00,9.311e+00,1.049e+01,8.975e+00,8.360e+00,9.944e+00,9.473e+00,9.196e+00,9.617e+00,7.433e+00,8.914e+00,1.016e+01,9.372e+00,9.782e+00,1.218e+01,8.122e+00,1.097e+01,1.042e+01,8.828e+00,9.407e+00,9.542e+00,9.432e+00,9.041e+00,1.051e+01,8.956e+00,7.080e+00,9.515e+00,8.384e+00,9.832e+00,9.408e+00,9.933e+00,9.268e+00,9.914e+00
2.395e-01,5.363e-01,7.284e-01,2.240e-01,1.648e+00,1.330e+00,2.206e+00,1.694e+00,2.065e+00,2.541e+00,2.974e+00,2.922e+00,4.864e+00,5.153e+00,5.251e+00,3.908e+00,5.586e+00,3.731e+00,4.674e+00,4.488e+00,5.316e+00,6.653e+00,5.791e+00,5.701e+00,6.343e+00,6.498e+00,8.104e+00,6.394e+00,8.040e+00,6.267e+00,7.552e+00,8.769e+00,7.490e+00,8.779e+00,7.900e+00,7.571e+00,8.782e+00,1.060e+01,9.380e+00,8.256e+00,8.778e+00,9.207e+00,9.603e+00,9.640e+00,8.343e+00,1.027e+01,9.382e+00,9.533e+00,9.839e+00,1.225e+01,7.833e+00,1.088e+01,9.616e+00,9.897e+00,9.087e+00,9.620e+00,9.448e+00,8.941e+00,1.069e+01,8.910e+00,7.384e+00,1.080e+01,8.822e+00,1.055e+01,9.400e+00,1.004e+01,9.133e+00,9.020e+00
5.625e-01,1.248e+00,1.331e+00,3.500e-01,1.975e+00,1.975e+00,3.176e+00,2.300e+00,2.766e+00,2.852e+00,3.305e+00,2.750e+00,4.937e+00,5.445e+00,4.955e+00,4.331e+00,5.678e+00,4.953e+00,6.051e+00,4.909e+00,6.264e+00,6.455e+00,6.179e+00,6.963e+00,7.414e+00,6.972e+00,8.660e+00,7.200e+00,8.698e+00,6.520e+00,8.946e+00,1.074e+01,9.270e+00,9.746e+00,9.118e+00,1.050e+01,1.082e+01,1.311e+01,9.710e+00,9.387e+00,1.169e+01,1.155e+01,1.072e+01,1.276e+01,9.842e+00,1.224e+01,1.112e+01,1.155e+01,1.121e+01,1.394e+01,9.494e+00,1.351e+01,1.169e+01,1.074e+01,1.184e+01,1.158e+01,1.140e+01,9.736e+00,1.050e+01,1.116e+01,1.018e+01,1.220e+01,9.881e+00,1.246e+01,1.020e+01,1.083e+01,1.026e+01,1.009e+01
4.623e-01,5.709e-01,8.392e-01,2.318e-01,1.450e+00,1.184e+00,2.514e+00,1.457e+00,2.047e+00,2.048e+00,2.249e+00,2.297e+00,3.906e+00,4.363e+00,4.519e+00,3.392e+00,4.968e+00,3.303e+00,3.827e+00,4.589e+00,5.510e+00,5.429e+00,6.190e+00,6.118e+00,6.560e+00,6.035e+00,8.155e+00,7.323e+00,8.340e+00,5.825e+00,7.707e+00,9.444e+00,8.286e+00,8.791e+00,8.877e+00,8.584e+00,8.759e+00,1.109e+01,9.069e+00,8.124e+00,1.056e+01,1.057e+01,1.028e+01,1.191e+01,9.751e+00,1.057e+01,1.002e+01,1.007e+01,1.068e+01,1.202e+01,9.472e+00,1.231e+01,1.103e+01,1.033e+01,1.019e+01,1.123e+01,1.069e+01,1.083e+01,1.021e+01,1.039e+01,8.784e+00,1.040e+01,9.458e+00,1.057e+01,9.721e+00,9.182e+00,1.032e+01,9.264e+00
1.227e-01,6.307e-01,8.301e-01,2.839e-01,1.872e+00,1.879e+00,2.466e+00,1.813e+00,2.169e+00,2.307e+00,3.050e+00,2.044e+00,3.670e+00,4.854e+00,3.705e+00,3.980e+00,4.941e+00,3.998e+00,4.696e+00,4.859e+00,4.502e+00,4.901e+00,4.778e+00,5.062e+00,5.807e+00,5.684e+00,6.799e+00,5.589e+00,6.306e+00,5.216e+00,7.409e+00,8.368e+00,7.985e+00,7.379e+00,7.696e+00,7.322e+00,7.353e+00,9.257e+00,8.965e+00,7.671e+00,9.498e+00,9.460e+00,1.010e+01,9.294e+00,9.463e+00,9.751e+00,8.863e+00,1.054e+01,9.075e+00,1.256e+01,7.490e+00,1.172e+01,9.507e+00,1.045e+01,9.215e+00,9.252e+00,1.054e+01,8.239e+00,8.857e+00,9.881e+00,8.710e+00,1.066e+01,8.127e+00,1.015e+01,8.100e+00,9.321e+00,8.231e+00,9.540e+00
5.275e-01,9.449e-01,1.371e+00,3.739e-01,1.895e+00,1.751e+00,3.199e+00,2.207e+00,2.694e+00,2.951e+00,2.149e+00,2.192e+00,3.406e+00,4.213e+00,4.969e+00,3.879e+00,4.716e+00,3.786e+00,5.689e+00,4.474e+00,6.586e+00,5.703e+00,6.853e+00,6.361e+00,7.050e+00,7.478e+00,7.998e+00,7.967e+00,8.426e+00,6.736e+00,7.846e+00,1.095e+01,9.975e+00,9.757e+00,9.206e+00,9.027e+00,1.059e+01,1.190e+01,1.042e+01,9.310e+00,1.172e+01,1.172e+01,1.200e+01,1.343e+01,1.154e+01,1.173e+01,1.214e+01,1.144e+01,1.370e+01,1.474e+01,1.097e+01,1.387e+01,1.313e+01,1.266e+01,1.202e+01,1.224e+01,1.305e+01,1.144e+01,1.207e+01,1.280e+01,1.065e+01,1.233e+01,1.082e+01,1.233e+01,1.093e+01,1.193e+01,1.202e+01,1.129e+01
1.181e-01,2.082e-01,6.307e-01,2.065e-01,1.024e+00,1.022e+00,1.727e+00,1.223e+00,1.467e+00,2.234e+00,1.975e+00,2.143e+00,3.430e+00,3.248e+00,3.938e+00,3.160e+00,3.694e+00,3.506e+00,4.656e+00,4.440e+00,6.585e+00,5.575e+00,6.366e+00,6.474e+00,7.271e+00,5.936e+00,7.180e+00,6.987e+00,8.396e+00,6.733e+00,7.907e+00,9.808e+00,8.487e+00,8.244e+00,8.648e+00,8.252e+00,9.856e+00,1.107e+01,9.469e+00,8.427e+00,1.090e+01,1.047e+01,1.105e+01,1.320e+01,1.127e+01,1.244e+01,1.170e+01,1.107e+01,1.289e+01,1.433e+01,1.026e+01,1.350e+01,1.345e+01,1.136e+01,1.147e+01,1.249e+01,1.224e+01,1.096e+01,1.044e+01,1.312e+01,9.822e+00,1.123e+01,9.011e+00,1.127e+01,1.167e+01,1.047e+01,1.047e+01,1.174e+01
4.552e-01,9.500e-01,1.495e+00,3.759e-01,1.433e+00,1.688e+00,3.299e+00,1.909e+00,2.349e+00,2.952e+00,2.330e+00,2.396e+00,3.817e+00,4.629e+00,4.770e+00,3.808e+00,4.795e+00,3.358e+00,4.943e+00,3.981e+00,6.286e+00,5.352e+00,5.896e+00,5.957e+00,6.386e+00,6.187e+00,7.127e+00,7.221e+00,7.367e+00,6.074e+00,7.580e+00,1.007e+01,9.505e+00,9.104e+00,9.022e+00,8.872e+00,9.635e+00,1.048e+01,8.674e+00,8.229e+00,1.121e+01,1.129e+01,1.077e+01,1.269e+01,1.328e+01,1.143e+01,1.154e+01,1.159e+01,1.183e+01,1.523e+01,1.079e+01,1.488e+01,1.228e+01,1.182e+01,1.104e+01,1.248e+01,1.332e+01,1.174e+01,1.164e+01,1.363e+01,1.005e+01,1.306e+01,1.077e+01,1.258e+01,1.059e+01,1.145e+01,1.194e+01,1.126e+01
2.792e-01,6.684e-01,7.501e-01,1.721e-01,1.487e+00,1.205e+00,2.039e+00,1.434e+00,1.419e+00,2.230e+00,1.306e+00,2.072e+00,3.053e+00,3.822e+00,3.536e+00,2.653e+00,4.370e+00,3.624e+00,4.177e+00,4.084e+00,5.573e+00,5.687e+00,5.047e+00,5.454e+00,5.705e+00,4.989e+00,6.376e+00,5.194e+00,6.753e+00,4.790e+00,6.174e+00,7.487e+00,6.893e+00,7.476e+00,7.512e+00,8.253e+00,8.485e+00,9.890e+00,8.228e+00,7.798e+00,1.031e+01,8.763e+00,8.713e+00,1.196e+01,1.108e+01,1.094e+01,1.097e+01,1.147e+01,1.210e+01,1.316e+01,8.309e+00,1.262e+01,1.147e+01,1.033e+01,1.106e+01,1.089e+01,1.144e+01,9.490e+00,1.091e+01,1.080e+01,9.825e+00,1.115e+01,9.136e+00,1.118e+01,1.079e+01,9.133e+00,9.551e+00,9.531e+00
4.130e-01,9.336e-01,9.041e-01,2.249e-01,1.169e+00,1.334e+00,2.139e+00,1.638e+00,2.011e+00,2.421e+00,1.972e+00,1.805e+00,3.143e+00,3.574e+00,4.017e+00,3.199e+00,4.010e+00,3.524e+00,4.813e+00,3.890e+00,5.315e+00,4.818e+00,5.219e+00,5.333e+00,5.261e+00,6.081e+00,6.872e+00,6.074e+00,7.635e+00,5.390e+00,6.926e+00,8.644e+00,8.582e+00,8.590e+00,8.397e+00,9.032e+00,9.194e+00,1.078e+01,8.243e+00,7.757e+00,1.039e+01,9.748e+00,9.456e+00,1.071e+01,1.019e+01,1.136e+01,1.131e+01,1.242e+01,1.225e+01,1.391e+01,9.379e+00,1.206e+01,1.233e+01,1.146e+01,1.057e+01,1.104e+01,1.127e+01,9.894e+00,1.133e+01,1.198e+01,1.009e+01,1.322e+01,1.085e+01,1.175e+01,1.033e+01,1.101e+01,1.087e+01,9.440e+00
5.489e-01,6.504e-01,7.849e-01,2.161e-01,1.337e+00,1.249e+00,2.246e+00,1.406e+00,1.987e+00,2.077e+00,2.319e+00,1.893e+00,3.711e+00,3.516e+00,4.101e+00,3.497e+00,4.035e+00,4.114e+00,5.236e+00,4.107e+00,5.976e+00,4.559e+00,5.746e+00,6.071e+00,6.619e+00,5.667e+00,6.380e+00,6.671e+00,7.151e+00,6.017e+00,7.231e+00,8.927e+00,7.937e+00,7.901e+00,6.901e+00,7.364e+00,9.218e+00,9.709e+00,8.906e+00,6.975e+00,9.735e+00,1.006e+01,9.495e+00,1.098e+01,9.760e+00,1.110e+01,1.100e+01,1.011e+01,1.226e+01,1.428e+01,1.061e+01,1.408e+01,1.208e+01,1.160e+01,1.213e+01,1.182e+01,1.193e+01,1.016e+01,1.003e+01,1.220e+01,9.811e+00,1.285e+01,9.668e+00,1.096e+01,1.140e+01,1.108e+01,1.107e+01,1.018e+01
4.905e-01,1.167e+00,1.029e+00,2.744e-01,1.802e+00,1.734e+00,2.509e+00,2.069e+00,2.407e+00,2.343e+00,2.207e+00,1.652e+00,2.679e+00,3.635e+00,3.900e+00,2.485e+00,3.282e+00,2.254e+00,4.116e+00,3.443e+00,4.178e+00,4.596e+00,4.438e+00,5.038e+00,4.452e+00,4.837e+00,4.994e+00,4.714e+00,6.460e+00,4.605e+00,6.870e+00,7.823e+00,6.849e+00,6.414e+00,7.358e+00,7.839e+00,8.365e+00,9.577e+00,7.812e+00,8.751e+00,1.005e+01,1.015e+01,9.746e+00,1.142e+01,9.489e+00,1.112e+01,1.003e+01,1.237e+01,1.188e+01,1.465e+01,9.329e+00,1.355e+01,1.185e+01,1.204e+01,1.101e+01,1.082e+01,1.310e+01,9.523e+00,1.091e+01,1.085e+01,1.113e+01,1.241e+01,1.064e+01,1.150e+01,1.070e+01,1.075e+01,1.066e+01,1.185e+01
3.152e-01,7.720e-01,7.383e-01,2.128e-01,1.579e+00,1.545e+00,2.372e+00,1.755e+00,2.225e+00,2.685e+00,3.018e+00,2.415e+00,4.395e+00,5.137e+00,5.014e+00,4.227e+00,5.644e+00,4.108e+00,5.174e+00,5.124e+00,5.468e+00,6.529e+00,6.093e+00,5.704e+00,6.892e+00,7.185e+00,8.368e+00,7.141e+00,8.207e+00,7.072e+00,8.897e+00,1.005e+01,9.679e+00,9.904e+00,9.419e+00,1.011e+01,1.016e+01,1.269e+01,1.014e+01,9.548e+00,1.159e+01,1.221e+01,1.172e+01,1.361e+01,1.133e+01,1.320e+01,1.253e+01,1.322e+01,1.376e+01,1.725e+01,1.143e+01,1.585e+01,1.354e+01,1.369e+01,1.403e+01,1.502e+01,1.397e+01,1.127e+01,1.316e+01,1.436e+01,1.221e+01,1.509e+01,1.280e+01,1.403e+01,1.405e+01,1.326e+01,1.215e+01,1.251e+01
6.645e-01,1.137e+00,1.558e+00,4.440e-01,2.510e+00,2.054e+00,3.247e+00,2.563e+00,3.029e+00,2.662e+00,3.031e+00,2.558e+00,4.538e+00,5.080e+00,5.481e+00,4.000e+00,5.330e+00,4.167e+00,5.585e+00,5.226e+00,6.233e+00,5.481e+00,7.021e+00,7.049e+00,6.612e+00,6.535e+00,8.179e+00,7.146e+00,9.181e+00,6.348e+00,8.416e+00,1.033e+01,9.063e+00,9.752e+00,8.880e+00,9.133e+00,8.815e+00,1.217e+01,8.802e+00,8.302e+00,1.151e+01,1.082e+01,1.126e+01,1.169e+01,1.192e+01,1.245e+01,1.134e+01,1.206e+01,1.258e+01,1.528e+01,1.097e+01,1.482e+01,1.313e+01,1.390e+01,1.389e+01,1.397e+01,1.354e+01,1.279e+01,1.270e+01,1.262e+01,1.211e+01,1.404e+01,1.303e+01,1.224e+01,1.202e+01,1.185e+01,1.247e+01,1.232e+01
4.278e-01,6.558e-01,8.063e-01,2.249e-01,1.752e+00,1.452e+00,2.468e+00,1.616e+00,1.989e+00,2.283e+00,2.161e+00,2.194e+00,3.607e+00,4.011e+00,4.020e+00,3.020e+00,4.193e+00,3.857e+00,4.482e+00,4.565e+00,6.047e+00,5.183e+00,5.655e+00,6.539e+00,6.706e+00,5.666e+00,6.663e+00,5.919e+00,8.059e+00,6.127e+00,7.759e+00,9.328e+00,7.763e+00,8.708e+00,8.073e+00,8.150e+00,9.636e+00,1.071e+01,8.579e+00,8.596e+00,1.073e+01,1.069e+01,9.804e+00,1.174e+01,1.067e+01,1.256e+01,1.116e+01,1.113e+01,1.359e+01,1.642e+01,1.061e+01,1.595e+01,1.294e+01,1.395e+01,1.410e+01,1.385e+01,1.381e+01,1.276e+01,1.345e+01,1.414e+01,1.193e+01,1.480e+01,1.262e+01,1.395e+01,1.497e+01,1.254e+01,1.281e+01,1.376e+01
2.378e-01,2.175e-01,4.976e-01,2.017e-01,1.183e+00,1.038e+00,1.660e+00,1.136e+00,1.666e+00,1.357e+00,2.054e+00,1.777e+00,3.090e+00,2.872e+00,2.767e+00,2.530e+00,3.122e+00,3.156e+00,3.331e+00,3.189e+00,4.127e+00,3.675e+00,3.743e+00,4.844e+00,4.920e+00,4.020e+00,5.754e+00,5.024e+00,6.693e+00,4.626e+00,6.603e+00,7.261e+00,6.668e+00,6.790e+00,6.647e+00,7.538e+00,7.565e+00,8.808e+00,9.021e+00,7.545e+00,8.730e+00,9.554e+00,9.741e+00,1.078e+01,1.009e+01,1.108e+01,1.097e+01,1.094e+01,1.239e+01,1.494e+01,1.015e+01,1.383e+01,1.155e+01,1.193e+01,1.342e+01,1.329e+01,1.271e+01,1.021e+01,1.197e+01,1.352e+01,1.081e+01,1.339e+01,1.138e+01,1.166e+01,1.245e+01,1.216e+01,1.056e+01,1.326e+01
2.525e-01,6.523e-01,1.226e+00,3.051e-01,1.236e+00,1.447e+00,2.324e+00,1.414e+00,1.318e+00,2.264e+00,1.528e+00,1.892e+00,3.104e+00,3.819e+00,2.964e+00,2.970e+00,4.304e+00,4.067e+00,4.066e+00,3.662e+00,6.198e+00,4.727e+00,5.366e+00,5.667e+00,6.355e+00,5.275e+00,7.075e+00,6.316e+00,7.761e+00,5.704e+00,6.587e+00,8.932e+00,7.747e+00,8.772e+00,8.091e+00,8.544e+00,8.519e+00,1.029e+01,8.121e+00,6.084e+00,1.049e+01,9.212e+00,9.364e+00,1.093e+01,1.109e+01,1.114e+01,9.358e+00,1.062e+01,1.210e+01,1.400e+01,9.755e+00,1.369e+01,1.151e+01,1.225e+01,1.297e+01,1.431e+01,1.267e+01,1.258e+01,1.304e+01,1.387e+01,1.053e+01,1.449e+01,1.297e+01,1.320e+01,1.280e+01,1.232e+01,1.237e+01,1.265e+01
3.194e-01,9.123e-01,1.468e+00,3.958e-01,1.421e+00,1.696e+00,2.609e+00,1.969e+00,2.170e+00,2.711e+00,2.046e+00,1.956e+00,3.341e+00,4.054e+00,3.858e+00,3.153e+00,4.228e+00,3.658e+00,4.463e+00,4.073e+00,5.986e+00,5.410e+00,5.267e+00,5.377e+00,5.585e+00,5.755e+00,7.475e+00,6.093e+00,7.655e+00,5.170e+00,6.805e+00,9.390e+00,8.577e+00,8.637e+00,9.444e+00,9.093e+00,9.932e+00,1.112e+01,8.995e+00,9.516e+00,1.186e+01,1.166e+01,1.094e+01,1.439e+01,1.233e+01,1.289e+01,1.203e+01,1.268e+01,1.405e+01,1.586e+01,1.089e+01,1.497e+01,1.439e+01,1.318e+01,1.450e+01,1.476e+01,1.571e+01,1.378e+01,1.389e+01,1.455e+01,1.374e+01,1.640e+01,1.479e+01,1.441e+01,1.392e+01,1.419e+01,1.285e+01,1.474e+01
2.277e-01,3.853e-01,5.112e-01,2.050e-01,1.180e+00,1.395e+00,1.576e+00,1.448e+00,1.967e+00,2.433e+00,1.716e+00,2.197e+00,3.196e+00,3.700e+00,3.712e+00,3.276e+00,4.517e+00,3.631e+00,4.503e+00,4.352e+00,4.880e+00,4.437e+00,4.824e+00,4.615e+00,4.962e+00,6.406e+00,6.864e+00,5.859e+00,6.791e+00,5.041e+00,7.283e+00,8.932e+00,8.839e+00,8.310e+00,9.172e+00,9.013e+00,9.284e+00,1.167e+01,8.631e+00,8.864e+00,1.022e+01,9.906e+00,1.033e+01,1.128e+01,9.974e+00,1.116e+01,1.181e+01,1.199e+01,1.245e+01,1.445e+01,1.008e+01,1.310e+01,1.252e+01,1.253e+01,1.279e+01,1.385e+01,1.361e+01,1.266e+01,1.345e+01,1.463e+01,1.068e+01,1.486e+01,1.190e+01,1.320e+01,1.274e+01,1.294e+01,1.230e+01,1.315e+01
5.234e-01,5.544e-01,6.122e-01,2.030e-01,1.814e+00,1.321e+00,2.017e+00,1.510e+00,2.123e+00,1.842e+00,2.423e+00,2.306e+00,4.157e+00,4.068e+00,5.498e+00,2.989e+00,4.857e+00,3.831e+00,5.148e+00,4.718e+00,6.186e+00,5.564e+00,6.577e+00,6.885e+00,6.102e+00,6.584e+00,6.987e+00,6.958e+00,9.283e+00,5.538e+00,7.823e+00,9.968e+00,8.193e+00,9.232e+00,8.108e+00,8.447e+00,9.503e+00,1.063e+01,9.035e+00,9.251e+00,1.206e+01,1.037e+01,1.085e+01,1.276e+01,1.140e+01,1.254e+01,1.275e+01,1.258e+01,1.316e+01,1.736e+01,1.266e+01,1.656e+01,1.481e+01,1.495e+01,1.512e+01,1.434e+01,1.555e+01,1.464e+01,1.515e+01,1.685e+01,1.352e+01,1.655e+01,1.446e+01,1.334e+01,1.435e+01,1.514e+01,1.458e+01,1.507e+01
4.897e-01,8.812e-01,6.578e-01,2.058e-01,1.474e+00,1.464e+00,2.289e+00,1.757e+00,2.580e+00,2.293e+00,3.235e+00,2.279e+00,4.721e+00,4.752e+00,5.590e+00,4.245e+00,5.401e+00,4.595e+00,5.830e+00,5.732e+00,6.021e+00,5.804e+00,7.459e+00,6.604e+00,7.009e+00,8.085e+00,8.927e+00,7.511e+00,9.267e+00,6.576e+00,8.833e+00,1.144e+01,9.777e+00,1.037e+01,9.897e+00,9.772e+00,9.827e+00,1.260e+01,9.670e+00,9.486e+00,1.185e+01,1.201e+01,1.084e+01,1.323e+01,1.102e+01,1.294e+01,1.303e+01,1.239e+01,1.337e+01,1.681e+01,1.253e+01,1.667e+01,1.413e+01,1.448e+01,1.548e+01,1.608e+01,1.595e+01,1.570e+01,1.584e+01,1.694e+01,1.464e+01,1.853e+01,1.544e+01,1.602e+01,1.549e+01,1.590e+01,1.378e+01,1.434e+01
8.833e-02,5.081e-01,4.756e-01,1.081e-01,9.137e-01,9.657e-01,1.394e+00,9.690e-01,8.707e-01,1.678e+00,1.677e+00,2.005e+00,3.052e+00,3.053e+00,2.828e+00,2.282e+00,3.321e+00,3.490e+00,3.906e+00,3.189e+00,4.163e+00,5.116e+00,4.516e+00,5.190e+00,5.575e+00,4.482e+00,5.829e+00,4.456e+00,6.563e+00,4.998e+00,6.808e+00,7.761e+00,6.678e+00,7.415e+00,6.455e+00,7.297e+00,7.946e+00,9.757e+00,7.684e+00,7.482e+00,9.657e+00,9.439e+00,9.509e+00,1.043e+01,1.029e+01,1.180e+01,9.715e+00,1.108e+01,1.149e+01,1.374e+01,8.768e+00,1.302e+01,1.180e+01,1.167e+01,1.382e+01,1.304e+01,1.411e+01,1.266e+01,1.422e+01,1.531e+01,1.184e+01,1.426e+01,1.245e+01,1.408e+01,1.302e+01,1.378e+01,1.376e+01,1.370e+01
2.117e-01,3.382e-01,6.793e-01,1.758e-01,1.174e+00,9.574e-01,1.637e+00,1.015e+00,1.141e+00,1.821e+00,2.155e+00,2.117e+00,4.065e+00,3.881e+00,3.914e+00,3.207e+00,4.355e+00,3.893e+00,4.283e+00,4.017e+00,5.847e+00,5.382e+00,5.918e+00,6.778e+00,6.705e+00,5.287e+00,7.112e+00,6.618e+00,7.728e+00,5.973e+00,7.529e+00,8.324e+00,8.030e+00,8.847e+00,8.587e+00,8.056e+00,1.002e+01,1.126e+01,9.597e+00,8.328e+00,1.108e+01,9.917e+00,1.085e+01,1.148e+01,1.106e+01,1.273e+01,1.219e+01,1.180e+01,1.338e+01,1.555e+01,1.032e+01,1.393e+01,1.310e+01,1.375e+01,1.465e+01,1.422e+01,1.454e+01,1.315e+01,1.539e+01,1.589e+01,1.308e+01,1.722e+01,1.464e+01,1.589e+01,1.455e+01,1.515e+01,1.497e+01,1.512e+01
5.484e-01,8.253e-01,6.274e-01,1.515e-01,1.509e+00,1.139e+00,2.622e+00,1.612e+00,2.341e+00,2.322e+00,2.602e+00,2.012e+00,3.823e+00,4.136e+00,4.639e+00,3.991e+00,4.703e+00,3.948e+00,5.001e+00,4.790e+00,5.907e+00,6.074e+00,6.766e+00,6.926e+00,6.703e+00,6.817e+00,7.872e+00,6.822e+00,8.298e+00,5.729e+00,8.653e+00,1.001e+01,8.886e+00,8.407e+00,8.498e+00,8.521e+00,8.830e+00,1.073e+01,9.744e+00,8.162e+00,1.038e+01,1.035e+01,1.121e+01,1.137e+01,1.163e+01,1.280e+01,1.158e+01,1.268e+01,1.261e+01,1.541e+01,1.005e+01,1.523e+01,1.372e+01,1.389e+01,1.385e+01,1.474e+01,1.548e+01,1.393e+01,1.532e+01,1.619e+01,1.408e+01,1.756e+01,1.503e+01,1.528e+01,1.496e+01,1.581e+01,1.387e+01,1.533e+01
2.849e-01,6.841e-01,1.192e+00,2.947e-01,1.080e+00,1.377e+00,2.572e+00,1.494e+00,1.735e+00,2.733e+00,2.365e+00,2.073e+00,3.991e+00,4.456e+00,4.055e+00,4.097e+00,4.735e+00,3.965e+00,4.510e+00,4.420e+00,6.777e+00,5.523e+00,6.445e+00,6.789e+00,7.608e+00,6.324e+00,8.031e+00,7.768e+00,8.958e+00,6.760e+00,9.244e+00,1.009e+01,9.862e+00,9.064e+00,9.359e+00,9.111e+00,9.991e+00,1.224e+01,1.026e+01,9.157e+00,1.180e+01,1.140e+01,1.198e+01,1.324e+01,1.201e+01,1.344e+01,1.257e+01,1.326e+01,1.384e+01,1.630e+01,1.113e+01,1.530e+01,1.475e+01,1.400e+01,1.438e+01,1.602e+01,1.561e+01,1.589e+01,1.573e+01,1.874e+01,1.228e+01,1.808e+01,1.531e+01,1.738e+01,1.530e+01,1.774e+01,1.592e+01,1.718e+01
6.497e-01,6.532e-01,6.574e-01,2.065e-01,2.123e+00,1.416e+00,2.635e+00,1.864e+00,2.671e+00,2.505e+00,2.152e+00,2.425e+00,4.016e+00,4.586e+00,5.582e+00,4.005e+00,5.512e+00,3.931e+00,5.191e+00,5.720e+00,6.346e+00,5.931e+00,6.249e+00,6.027e+00,6.237e+00,7.080e+00,7.077e+00,6.828e+00,7.818e+00,6.799e+00,8.547e+00,9.686e+00,8.501e+00,8.722e+00,7.503e+00,8.123e+00,9.659e+00,1.181e+01,9.770e+00,9.528e+00,1.010e+01,1.166e+01,1.108e+01,1.286e+01,1.209e+01,1.313e+01,1.293e+01,1.268e+01,1.416e+01,1.596e+01,1.031e+01,1.631e+01,1.508e+01,1.529e+01,1.444e+01,1.538e+01,1.618e+01,1.555e+01,1.529e+01,1.798e+01,1.423e+01,1.697e+01,1.555e+01,1.670e+01,1.486e+01,1.599e+01,1.479e+01,1.664e+01
3.027e-01,6.722e-01,9.691e-01,3.078e-01,1.895e+00,1.599e+00,2.176e+00,1.715e+00,2.020e+00,1.551e+00,1.812e+00,1.206e+00,2.120e+00,3.360e+00,3.061e+00,2.371e+00,3.543e+00,2.465e+00,3.648e+00,3.559e+00,4.733e+00,3.764e+00,4.959e+00,5.657e+00,5.165e+00,5.573e+00,6.431e+00,6.142e+00,7.059e+00,5.138e+00,6.313e+00,8.629e+00,7.833e+00,8.159e+00,8.344e+00,7.493e+00,8.278e+00,9.477e+00,8.046e+00,7.382e+00,1.011e+01,1.043e+01,9.460e+00,1.002e+01,1.036e+01,1.123e+01,1.081e+01,1.138e+01,1.156e+01,1.478e+01,1.077e+01,1.388e+01,1.302e+01,1.347e+01,1.246e+01,1.281e+01,1.363e+01,1.273e+01,1.471e+01,1.500e+01,1.348e+01,1.599e+01,1.489e+01,1.448e+01,1.355e+01,1.428e+01,1.491e+01,1.385e+01
5.324e-01,6.273e-01,1.007e+00,2.799e-01,2.133e+00,1.628e+00,3.148e+00,1.788e+00,2.290e+00,2.509e+00,2.386e+00,2.773e+00,4.181e+00,5.055e+00,4.715e+00,3.708e+00,5.618e+00,4.129e+00,4.953e+00,5.629e+00,6.900e+00,5.921e+00,6.702e+00,7.136e+00,7.117e+00,5.830e+00,8.405e+00,7.278e+00,9.475e+00,6.334e+00,9.370e+00,1.074e+01,9.864e+00,1.063e+01,9.543e+00,1.048e+01,1.123e+01,1.250e+01,1.034e+01,9.972e+00,1.251e+01,1.261e+01,1.205e+01,1.427e+01,1.206e+01,1.322e+01,1.219e+01,1.257e+01,1.464e+01,1.561e+01,1.096e+01,1.592e+01,1.351e+01,1.399e+01,1.448e+01,1.411e+01,1.507e+01,1.439e+01,1.442e+01,1.634e+01,1.354e+01,1.604e+01,1.422e+01,1.677e+01,1.583e+01,1.663e+01,1.637e+01,1.676e+01
5.575e-01,8.731e-01,1.186e+00,3.394e-01,2.340e+00,1.949e+00,2.856e+00,1.941e+00,2.275e+00,2.045e+00,2.086e+00,2.151e+00,3.477e+00,4.493e+00,4.938e+00,2.728e+00,5.124e+00,4.062e+00,4.940e+00,4.973e+00,6.208e+00,6.089e+00,6.015e+00,6.450e+00,6.529e+00,6.736e+00,7.397e+00,7.451e+00,8.924e+00,6.554e+00,7.982e+00,9.681e+00,8.726e+00,8.962e+00,8.275e+00,8.629e+00,8.580e+00,1.121e+01,9.353e+00,8.302e+00,9.866e+00,1.024e+01,8.878e+00,1.253e+01,1.004e+01,1.205e+01,1.041e+01,1.165e+01,1.159e+01,1.396e+01,1.102e+01,1.389e+01,1.336e+01,1.316e+01,1.248e+01,1.297e+01,1.253e+01,1.173e+01,1.269e+01,1.482e+01,1.260e+01,1.390e+01,1.341e+01,1.372e+01,1.482e+01,1.543e+01,1.471e+01,1.548e+01
5.389e-01,1.109e+00,1.475e+00,4.231e-01,1.805e+00,1.805e+00,3.017e+00,2.223e+00,2.907e+00,2.267e+00,3.254e+00,2.315e+00,4.434e+00,4.570e+00,4.894e+00,2.928e+00,4.214e+00,3.286e+00,3.942e+00,4.031e+00,5.097e+00,5.497e+00,5.475e+00,7.046e+00,6.538e+00,5.947e+00,7.928e+00,6.725e+00,9.164e+00,5.820e+00,8.130e+00,9.705e+00,8.922e+00,9.172e+00,9.361e+00,1.020e+01,8.539e+00,1.159e+01,8.567e+00,8.574e+00,1.111e+01,1.125e+01,1.110e+01,1.219e+01,1.237e+01,1.212e+01,1.158e+01,1.202e+01,1.175e+01,1.656e+01,1.018e+01,1.476e+01,1.303e+01,1.296e+01,1.296e+01,1.285e+01,1.382e+01,1.364e+01,1.291e+01,1.417e+01,1.230e+01,1.454e+01,1.334e+01,1.398e+01,1.373e+01,1.489e+01,1.377e+01,1.590e+01
2.436e-01,5.780e-01,5.791e-01,1.297e-01,8.199e-01,7.479e-01,1.871e+00,1.205e+00,1.520e+00,2.136e+00,2.637e+00,1.778e+00,3.713e+00,3.313e+00,4.170e+00,3.498e+00,3.259e+00,3.095e+00,4.368e+00,3.927e+00,5.416e+00,4.745e+00,6.362e+00,6.153e+00,6.385e+00,5.147e+00,7.184e+00,6.614e+00,8.950e+00,5.780e+00,7.523e+00,9.628e+00,8.098e+00,8.461e+00,9.156e+00,8.845e+00,8.909e+00,1.053e+01,8.611e+00,8.542e+00,1.100e+01,1.111e+01,1.108e+01,1.226e+01,1.147e+01,1.281e+01,1.126e+01,1.175e+01,1.269e+01,1.580e+01,1.010e+01,1.445e+01,1.260e+01,1.260e+01,1.183e+01,1.361e+01,1.340e+01,1.245e+01,1.308e+01,1.598e+01,1.251e+01,1.552e+01,1.284e+01,1.621e+01,1.445e+01,1.527e+01,1.513e+01,1.472e+01
