3.161e-02,9.266e-01,9.744e-01,5.404e-01,8.702e-01,9.546e-01,7.995e-01,4.243e-01,5.333e-01,4.241e-01,7.693e-01,8.509e-02,7.725e-02,9.251e-01,1.507e-01,9.284e-01,5.425e-01,2.800e-01,8.901e-01,8.297e-01,3.412e-01,1.561e-01,5.704e-01,7.341e-01,1.873e-01,6.891e-01,9.461e-01,3.345e-01,7.826e-01,8.476e-01,1.189e-01,8.912e-01,7.713e-01,7.720e-01,8.004e-01,8.647e-01,6.864e-01,7.963e-01,3.985e-01,2.839e-01,9.762e-01,2.360e-01,8.759e-01,3.980e-02,2.230e-01,7.682e-01,2.351e-01,5.818e-01,3.397e-01,7.895e-01,4.062e-01,5.888e-01,8.489e-01,6.344e-02,3.741e-01,9.591e-01,6.197e-01,5.600e-01,1.780e-01,8.223e-01,6.238e-01,6.774e-01,2.850e-01,5.914e-01,9.310e-01,5.876e-01,9.359e-01,5.573e-02,4.765e-01,7.055e-01,1.467e-01,8.125e-01,2.324e-01,1.317e-01,3.660e-01,8.779e-01,3.693e-01,8.395e-01,6.503e-01,9.305e-01,8.371e-01,6.308e-01,5.766e-01,6.385e-01,8.893e-01,1.789e-01,8.782e-01,1.804e-01,2.735e-01,8.480e-01,6.252e-01,5.276e-01,6.188e-01,6.306e-01,7.705e-01,6.648e-01
5.132e-03,7.407e-01,4.238e-01,2.049e-01,4.522e-01,7.572e-01,1.046e+00,6.759e-01,2.662e-01,6.143e-01,9.456e-01,5.961e-02,5.385e-01,6.027e-01,8.675e-01,6.025e-01,9.704e-01,1.025e+00,2.335e-01,9.927e-01,1.532e-01,7.770e-01,3.216e-01,2.466e-01,2.029e-01,1.099e+00,8.333e-01,8.638e-01,3.653e-01,7.961e-01,1.700e-01,6.450e-01,6.235e-01,6.987e-01,6.161e-01,1.725e-01,5.815e-01,4.848e-01,5.326e-01,1.788e-01,1.036e+00,8.602e-01,8.210e-01,6.778e-01,7.420e-02,2.611e-01,3.257e-01,8.162e-01,6.831e-01,9.566e-01,1.019e+00,9.325e-01,8.051e-01,7.868e-01,4.103e-01,1.832e-01,8.861e-01,9.590e-01,2.962e-01,5.925e-01,7.843e-01,7.691e-01,2.401e-01,8.364e-01,2.279e-01,6.519e-01,1.690e-01,5.511e-01,5.846e-01,1.886e-01,4.673e-01,9.843e-01,6.672e-01,4.763e-01,1.192e-01,7.195e-01,5.327e-01,1.003e+00,4.939e-01,8.555e-01,3.307e-01,3.018e-01,3.497e-01,4.135e-01,2.544e-01,4.178e-01,8.934e-01,5.007e-02,9.251e-01,1.076e+00,4.392e-01,7.587e-01,6.611e-01,4.470e-01,7.017e-01,9.586e-01
2.590e-02,1.190e+00,1.498e+00,1.203e+00,1.772e+00,1.353e+00,1.388e+00,1.277e+00,8.399e-01,8.243e-01,2.092e+00,9.564e-01,1.399e+00,1.429e+00,1.625e+00,1.103e+00,1.127e+00,1.330e+00,1.082e+00,1.782e+00,7.889e-01,7.877e-01,1.058e+00,1.056e+00,5.102e-01,1.802e+00,1.357e+00,1.726e+00,1.714e+00,1.324e+00,6.635e-01,1.320e+00,1.883e+00,1.225e+00,1.509e+00,9.800e-01,1.567e+00,1.864e+00,1.224e+00,4.448e-01,2.385e+00,1.140e+00,1.828e+00,7.427e-01,7.192e-01,8.670e-01,7.991e-01,2.001e+00,8.402e-01,1.554e+00,1.209e+00,1.873e+00,1.934e+00,1.389e+00,9.819e-01,1.290e+00,1.549e+00,1.315e+00,1.017e+00,1.619e+00,1.112e+00,1.211e+00,9.969e-01,1.376e+00,8.539e-01,1.631e+00,1.165e+00,1.301e+00,1.099e+00,9.521e-01,1.042e+00,1.450e+00,6.624e-01,1.245e+00,1.179e+00,1.661e+00,9.890e-01,1.449e+00,1.242e+00,1.964e+00,1.049e+00,7.194e-01,8.010e-01,1.066e+00,1.744e+00,1.250e+00,1.985e+00,6.628e-01,1.610e+00,1.698e+00,1.553e+00,1.865e+00,1.526e+00,8.783e-01,1.912e+00,1.827e+00
2.364e-03,6.210e-01,5.679e-01,1.116e+00,1.097e+00,1.113e+00,1.744e+00,1.655e+00,6.299e-01,1.105e+00,1.514e+00,9.137e-01,1.639e+00,1.337e+00,1.775e+00,8.928e-01,1.787e+00,1.419e+00,1.084e+00,1.978e+00,6.945e-01,1.184e+00,1.423e+00,4.762e-01,1.163e+00,2.200e+00,1.209e+00,1.772e+00,1.174e+00,1.747e+00,3.967e-01,9.749e-01,1.478e+00,1.505e+00,1.392e+00,1.023e+00,9.448e-01,1.742e+00,1.713e+00,5.430e-01,1.586e+00,1.699e+00,1.994e+00,9.389e-01,9.961e-01,6.497e-01,1.202e+00,1.289e+00,6.787e-01,1.324e+00,1.370e+00,1.969e+00,1.142e+00,1.752e+00,1.076e+00,7.929e-01,1.237e+00,1.899e+00,1.567e+00,1.351e+00,1.491e+00,7.810e-01,1.416e+00,1.777e+00,4.806e-01,1.395e+00,7.535e-01,1.721e+00,9.670e-01,3.032e-01,1.451e+00,1.207e+00,1.576e+00,1.547e+00,4.923e-01,1.784e+00,1.376e+00,1.760e+00,1.105e+00,1.277e+00,1.046e+00,8.203e-01,4.898e-01,1.443e+00,7.214e-01,9.707e-01,1.870e+00,7.300e-01,1.377e+00,2.081e+00,8.588e-01,1.907e+00,1.641e+00,6.858e-01,1.677e+00,1.196e+00
3.034e-02,1.060e+00,1.014e+00,6.550e-01,1.226e+00,1.497e+00,1.451e+00,1.128e+00,9.255e-01,1.620e+00,1.197e+00,4.356e-01,1.154e+00,1.227e+00,1.151e+00,1.505e+00,1.559e+00,1.162e+00,1.917e+00,1.883e+00,1.175e+00,8.379e-01,8.741e-01,8.831e-01,1.283e+00,1.354e+00,1.791e+00,9.668e-01,1.086e+00,1.362e+00,3.110e-01,1.345e+00,1.596e+00,1.735e+00,1.484e+00,1.567e+00,1.272e+00,1.643e+00,1.197e+00,5.129e-01,1.947e+00,1.010e+00,1.892e+00,1.035e+00,4.731e-01,1.297e+00,1.080e+00,1.528e+00,5.678e-01,1.078e+00,1.268e+00,1.891e+00,1.800e+00,8.513e-01,6.012e-01,1.523e+00,1.760e+00,1.498e+00,5.507e-01,1.051e+00,1.486e+00,1.109e+00,1.256e+00,1.483e+00,1.450e+00,1.663e+00,1.494e+00,3.427e-01,1.278e+00,9.082e-01,4.012e-01,1.934e+00,9.271e-01,1.285e+00,6.535e-01,1.413e+00,1.442e+00,1.299e+00,1.141e+00,1.557e+00,1.889e+00,1.130e+00,6.585e-01,1.406e+00,1.645e+00,9.807e-01,1.986e+00,2.753e-01,1.377e+00,1.903e+00,7.838e-01,1.138e+00,1.166e+00,1.664e+00,1.225e+00,1.526e+00
2.526e-02,1.056e+00,1.100e+00,1.015e+00,1.515e+00,2.089e+00,2.187e+00,2.503e+00,1.825e+00,2.191e+00,1.798e+00,1.241e+00,1.992e+00,2.254e+00,2.450e+00,1.858e+00,2.731e+00,1.845e+00,2.677e+00,2.892e+00,2.176e+00,1.889e+00,1.359e+00,1.852e+00,2.419e+00,2.339e+00,1.889e+00,1.619e+00,1.539e+00,1.926e+00,6.145e-01,1.627e+00,2.303e+00,2.592e+00,2.127e+00,2.470e+00,2.167e+00,2.510e+00,1.937e+00,1.443e+00,2.368e+00,1.918e+00,2.824e+00,1.429e+00,1.735e+00,2.092e+00,1.980e+00,2.299e+00,8.766e-01,1.873e+00,2.406e+00,2.362e+00,2.443e+00,1.606e+00,1.897e+00,2.298e+00,2.315e+00,2.475e+00,1.910e+00,2.154e+00,1.756e+00,1.357e+00,2.385e+00,2.145e+00,2.035e+00,2.843e+00,1.723e+00,1.165e+00,1.883e+00,1.842e+00,1.669e+00,2.062e+00,1.291e+00,2.725e+00,9.205e-01,1.946e+00,2.436e+00,2.525e+00,1.562e+00,1.972e+00,2.896e+00,1.304e+00,1.203e+00,2.205e+00,2.102e+00,1.923e+00,3.356e+00,7.473e-01,1.891e+00,3.195e+00,1.731e+00,2.544e+00,2.329e+00,1.653e+00,2.586e+00,2.613e+00
2.707e-02,1.092e+00,1.135e+00,1.211e+00,1.662e+00,2.162e+00,2.526e+00,3.502e+00,1.765e+00,3.228e+00,2.626e+00,1.555e+00,2.291e+00,2.766e+00,3.441e+00,1.991e+00,3.200e+00,2.500e+00,3.412e+00,3.285e+00,2.794e+00,2.180e+00,1.708e+00,2.405e+00,2.599e+00,3.124e+00,2.804e+00,2.690e+00,2.600e+00,3.203e+00,1.162e+00,2.605e+00,2.706e+00,3.482e+00,2.962e+00,2.778e+00,2.614e+00,3.129e+00,2.817e+00,1.385e+00,3.130e+00,2.143e+00,3.242e+00,2.006e+00,2.473e+00,2.971e+00,2.726e+00,2.558e+00,1.050e+00,2.798e+00,3.341e+00,3.232e+00,3.214e+00,1.862e+00,2.273e+00,2.999e+00,3.236e+00,3.440e+00,2.177e+00,2.567e+00,2.308e+00,1.924e+00,3.241e+00,3.092e+00,2.484e+00,3.188e+00,2.759e+00,1.534e+00,2.515e+00,2.420e+00,2.445e+00,3.055e+00,2.543e+00,3.115e+00,1.915e+00,2.276e+00,3.430e+00,2.665e+00,1.812e+00,2.147e+00,3.331e+00,1.934e+00,1.879e+00,3.111e+00,2.535e+00,2.176e+00,3.481e+00,1.789e+00,2.176e+00,3.671e+00,2.067e+00,3.426e+00,2.430e+00,2.112e+00,2.629e+00,2.597e+00
5.403e-03,1.769e-01,4.935e-01,9.486e-01,1.035e+00,9.562e-01,1.216e+00,2.354e+00,1.599e+00,2.680e+00,1.678e+00,2.176e+00,2.397e+00,2.197e+00,2.368e+00,1.638e+00,2.050e+00,2.385e+00,2.519e+00,2.335e+00,2.721e+00,1.894e+00,1.985e+00,2.079e+00,2.409e+00,2.633e+00,1.389e+00,2.808e+00,2.448e+00,2.825e+00,1.833e+00,1.475e+00,2.163e+00,2.973e+00,2.341e+00,1.751e+00,2.009e+00,2.874e+00,2.166e+00,1.659e+00,2.367e+00,2.068e+00,2.890e+00,1.737e+00,2.822e+00,2.093e+00,2.783e+00,2.285e+00,4.466e-01,2.474e+00,1.907e+00,2.137e+00,2.553e+00,2.255e+00,2.037e+00,2.313e+00,2.659e+00,2.776e+00,2.437e+00,1.654e+00,1.800e+00,1.617e+00,3.014e+00,2.242e+00,1.454e+00,2.581e+00,1.711e+00,2.149e+00,2.325e+00,2.336e+00,2.381e+00,2.442e+00,1.802e+00,2.592e+00,2.405e+00,1.929e+00,2.771e+00,2.272e+00,1.232e+00,1.733e+00,2.106e+00,1.945e+00,1.750e+00,2.236e+00,1.808e+00,2.494e+00,2.153e+00,1.911e+00,1.983e+00,2.254e+00,2.044e+00,2.393e+00,2.492e+00,1.620e+00,2.301e+00,1.744e+00
2.974e-02,1.389e+00,1.272e+00,9.187e-01,1.559e+00,1.829e+00,2.063e+00,2.047e+00,1.537e+00,3.354e+00,3.238e+00,1.923e+00,1.989e+00,2.901e+00,2.488e+00,2.587e+00,3.207e+00,2.615e+00,2.741e+00,2.838e+00,2.238e+00,2.416e+00,2.290e+00,2.203e+00,2.176e+00,2.895e+00,2.778e+00,2.985e+00,2.595e+00,3.253e+00,2.070e+00,2.453e+00,3.049e+00,3.565e+00,2.941e+00,1.740e+00,2.075e+00,3.327e+00,2.624e+00,1.235e+00,3.588e+00,2.034e+00,3.365e+00,2.088e+00,1.930e+00,2.835e+00,2.092e+00,3.321e+00,1.425e+00,2.993e+00,2.325e+00,3.635e+00,3.505e+00,2.462e+00,2.261e+00,2.287e+00,3.392e+00,3.479e+00,1.764e+00,2.672e+00,2.836e+00,2.411e+00,2.604e+00,2.857e+00,1.793e+00,3.398e+00,1.996e+00,1.856e+00,2.800e+00,2.622e+00,2.276e+00,3.589e+00,2.058e+00,2.346e+00,2.338e+00,2.510e+00,3.004e+00,3.205e+00,2.265e+00,2.722e+00,2.899e+00,1.884e+00,1.546e+00,2.586e+00,2.795e+00,1.927e+00,2.570e+00,1.208e+00,2.326e+00,3.492e+00,2.533e+00,2.943e+00,2.062e+00,2.600e+00,2.447e+00,3.082e+00
2.623e-02,9.072e-01,1.094e+00,1.186e+00,1.598e+00,1.639e+00,1.827e+00,2.205e+00,1.442e+00,3.197e+00,3.431e+00,2.286e+00,2.219e+00,3.036e+00,2.610e+00,2.936e+00,3.100e+00,2.672e+00,3.318e+00,3.236e+00,2.872e+00,2.133e+00,3.220e+00,2.514e+00,2.995e+00,3.127e+00,3.386e+00,3.351e+00,3.360e+00,2.921e+00,2.559e+00,3.018e+00,3.817e+00,4.033e+00,2.988e+00,2.187e+00,2.596e+00,4.377e+00,3.705e+00,1.684e+00,3.529e+00,2.085e+00,3.753e+00,1.906e+00,2.945e+00,3.778e+00,2.930e+00,2.973e+00,1.942e+00,3.097e+00,2.049e+00,3.702e+00,3.897e+00,2.626e+00,2.838e+00,2.835e+00,3.422e+00,3.569e+00,1.969e+00,2.792e+00,2.703e+00,1.986e+00,3.755e+00,3.560e+00,2.766e+00,4.227e+00,2.851e+00,2.395e+00,2.566e+00,2.870e+00,3.163e+00,2.876e+00,2.260e+00,3.539e+00,2.928e+00,2.888e+00,3.944e+00,3.035e+00,3.192e+00,2.328e+00,3.708e+00,1.654e+00,1.817e+00,3.654e+00,3.229e+00,2.584e+00,3.053e+00,1.331e+00,2.478e+00,3.985e+00,3.009e+00,3.160e+00,2.383e+00,2.734e+00,3.079e+00,2.924e+00
2.673e-03,5.358e-01,3.695e-01,6.298e-01,6.712e-01,1.312e+00,1.872e+00,2.988e+00,1.487e+00,3.144e+00,3.981e+00,2.382e+00,2.775e+00,3.907e+00,3.683e+00,2.737e+00,4.022e+00,3.187e+00,3.132e+00,3.510e+00,3.600e+00,3.746e+00,2.824e+00,3.752e+00,3.233e+00,3.541e+00,3.390e+00,3.904e+00,3.630e+00,3.370e+00,2.882e+00,3.376e+00,3.866e+00,4.849e+00,3.547e+00,2.155e+00,2.495e+00,3.572e+00,4.180e+00,2.170e+00,2.977e+00,2.773e+00,3.479e+00,2.761e+00,4.069e+00,4.558e+00,3.606e+00,2.760e+00,2.003e+00,4.255e+00,3.639e+00,3.154e+00,3.428e+00,2.900e+00,4.386e+00,2.626e+00,3.809e+00,4.118e+00,3.209e+00,3.608e+00,2.708e+00,2.783e+00,4.046e+00,3.762e+00,2.793e+00,4.322e+00,2.104e+00,3.490e+00,3.318e+00,3.275e+00,4.228e+00,2.637e+00,3.417e+00,4.028e+00,3.303e+00,3.057e+00,4.842e+00,3.694e+00,3.395e+00,2.212e+00,3.669e+00,1.689e+00,2.345e+00,3.904e+00,2.661e+00,2.765e+00,3.515e+00,1.950e+00,2.214e+00,4.501e+00,3.666e+00,4.376e+00,3.145e+00,1.763e+00,3.119e+00,3.109e+00
3.142e-02,9.700e-01,1.279e+00,1.246e+00,1.577e+00,1.558e+00,1.551e+00,1.707e+00,1.804e+00,2.526e+00,3.239e+00,3.332e+00,2.907e+00,3.795e+00,2.428e+00,4.020e+00,2.943e+00,3.111e+00,3.186e+00,4.080e+00,3.292e+00,2.517e+00,3.857e+00,3.307e+00,3.298e+00,3.253e+00,3.699e+00,3.677e+00,4.116e+00,3.668e+00,2.860e+00,2.767e+00,4.092e+00,4.604e+00,3.323e+00,2.525e+00,2.549e+00,4.869e+00,4.199e+00,2.675e+00,3.633e+00,2.424e+00,4.234e+00,1.955e+00,4.202e+00,4.490e+00,3.595e+00,3.658e+00,2.199e+00,4.193e+00,1.845e+00,3.405e+00,4.127e+00,3.050e+00,3.736e+00,3.004e+00,3.513e+00,3.465e+00,3.478e+00,3.642e+00,3.272e+00,2.382e+00,3.661e+00,3.358e+00,2.805e+00,4.901e+00,2.593e+00,3.484e+00,2.842e+00,3.684e+00,3.432e+00,2.609e+00,1.889e+00,3.300e+00,3.605e+00,4.113e+00,4.095e+00,4.092e+00,3.796e+00,2.979e+00,3.856e+00,2.463e+00,2.383e+00,3.927e+00,3.850e+00,2.838e+00,3.333e+00,1.322e+00,2.700e+00,4.340e+00,3.539e+00,3.419e+00,3.808e+00,3.229e+00,3.888e+00,3.035e+00
1.659e-02,7.390e-01,9.678e-01,1.212e+00,1.376e+00,1.382e+00,1.627e+00,1.933e+00,1.319e+00,1.791e+00,3.107e+00,2.717e+00,3.133e+00,3.301e+00,3.754e+00,3.163e+00,3.127e+00,3.622e+00,3.557e+00,4.854e+00,2.898e+00,3.156e+00,3.917e+00,3.274e+00,3.185e+00,3.659e+00,4.193e+00,4.019e+00,3.974e+00,3.312e+00,2.216e+00,2.810e+00,3.867e+00,4.328e+00,3.300e+00,2.590e+00,2.662e+00,4.265e+00,4.766e+00,2.622e+00,3.267e+00,2.661e+00,3.813e+00,2.086e+00,4.355e+00,4.629e+00,3.533e+00,3.433e+00,2.136e+00,4.564e+00,2.348e+00,3.508e+00,3.987e+00,3.340e+00,4.415e+00,2.892e+00,3.599e+00,3.434e+00,4.047e+00,3.651e+00,3.277e+00,2.904e+00,3.649e+00,3.238e+00,2.921e+00,4.514e+00,2.730e+00,4.280e+00,3.091e+00,3.615e+00,3.445e+00,1.813e+00,2.353e+00,3.427e+00,3.467e+00,4.049e+00,4.321e+00,4.405e+00,4.371e+00,2.697e+00,4.045e+00,1.878e+00,1.936e+00,4.343e+00,3.952e+00,3.301e+00,3.982e+00,1.749e+00,2.782e+00,4.920e+00,3.743e+00,4.514e+00,4.113e+00,2.379e+00,3.567e+00,3.520e+00
2.134e-02,6.381e-01,1.045e+00,1.462e+00,1.574e+00,1.322e+00,1.647e+00,2.626e+00,1.512e+00,2.689e+00,3.457e+00,2.815e+00,3.563e+00,3.799e+00,4.302e+00,3.087e+00,3.990e+00,4.349e+00,4.108e+00,5.063e+00,4.254e+00,3.587e+00,4.501e+00,3.780e+00,3.855e+00,3.959e+00,4.424e+00,4.668e+00,4.913e+00,4.797e+00,3.499e+00,3.450e+00,4.327e+00,5.309e+00,4.005e+00,2.815e+00,2.952e+00,5.000e+00,5.011e+00,2.959e+00,3.791e+00,3.381e+00,4.200e+00,2.795e+00,4.535e+00,5.167e+00,4.920e+00,3.930e+00,2.222e+00,4.599e+00,3.323e+00,3.804e+00,4.481e+00,4.143e+00,4.594e+00,3.510e+00,4.941e+00,4.461e+00,4.705e+00,3.418e+00,3.361e+00,3.646e+00,4.771e+00,4.633e+00,3.859e+00,5.002e+00,3.410e+00,4.912e+00,3.706e+00,4.388e+00,3.710e+00,2.967e+00,3.759e+00,3.782e+00,4.655e+00,4.294e+00,4.758e+00,3.810e+00,4.484e+00,3.846e+00,3.685e+00,3.209e+00,3.385e+00,4.360e+00,4.354e+00,3.473e+00,4.362e+00,3.420e+00,2.970e+00,4.638e+00,3.667e+00,4.494e+00,4.341e+00,2.938e+00,3.792e+00,3.049e+00
2.412e-02,9.930e-01,1.259e+00,1.012e+00,1.637e+00,1.557e+00,1.603e+00,2.303e+00,1.660e+00,2.835e+00,3.457e+00,2.365e+00,3.442e+00,3.353e+00,4.157e+00,3.080e+00,4.663e+00,4.995e+00,4.096e+00,5.464e+00,4.860e+00,4.181e+00,3.771e+00,4.513e+00,4.497e+00,3.707e+00,4.277e+00,4.834e+00,4.828e+00,4.187e+00,3.529e+00,4.058e+00,4.373e+00,5.515e+00,3.744e+00,3.139e+00,3.956e+00,4.594e+00,4.812e+00,3.319e+00,4.735e+00,3.308e+00,4.424e+00,3.547e+00,4.421e+00,4.679e+00,4.581e+00,4.734e+00,2.665e+00,5.086e+00,3.745e+00,4.448e+00,5.282e+00,4.171e+00,4.243e+00,4.069e+00,5.399e+00,4.037e+00,4.014e+00,3.535e+00,3.647e+00,4.403e+00,4.206e+00,4.325e+00,4.437e+00,5.331e+00,3.266e+00,4.796e+00,4.336e+00,4.714e+00,3.974e+00,3.714e+00,3.367e+00,3.886e+00,5.099e+00,4.010e+00,4.963e+00,3.574e+00,4.857e+00,4.795e+00,4.391e+00,2.848e+00,3.817e+00,4.428e+00,4.899e+00,4.544e+00,4.997e+00,2.981e+00,4.192e+00,5.024e+00,4.115e+00,4.683e+00,4.092e+00,3.960e+00,4.275e+00,3.689e+00
1.874e-02,7.140e-01,1.150e+00,1.109e+00,1.472e+00,1.030e+00,1.052e+00,1.557e+00,1.378e+00,1.966e+00,2.863e+00,3.033e+00,3.061e+00,3.030e+00,3.927e+00,3.363e+00,4.130e+00,5.577e+00,3.932e+00,6.229e+00,4.795e+00,3.917e+00,4.994e+00,3.913e+00,3.925e+00,4.295e+00,4.547e+00,5.346e+00,5.053e+00,4.999e+00,3.741e+00,3.520e+00,4.151e+00,5.630e+00,3.694e+00,3.555e+00,4.233e+00,5.226e+00,5.374e+00,3.565e+00,4.607e+00,3.036e+00,4.630e+00,2.773e+00,5.183e+00,5.211e+00,4.950e+00,5.236e+00,3.331e+00,5.320e+00,3.168e+00,4.566e+00,5.696e+00,5.164e+00,5.310e+00,3.956e+00,5.039e+00,4.415e+00,4.685e+00,4.282e+00,4.078e+00,4.025e+00,3.920e+00,4.430e+00,3.789e+00,5.242e+00,3.391e+00,5.453e+00,3.769e+00,5.135e+00,4.497e+00,2.765e+00,2.890e+00,3.590e+00,5.000e+00,5.083e+00,4.548e+00,4.752e+00,4.804e+00,5.018e+00,4.224e+00,3.379e+00,4.227e+00,4.355e+00,5.185e+00,4.778e+00,4.485e+00,2.873e+00,4.440e+00,5.208e+00,4.116e+00,5.392e+00,4.849e+00,4.358e+00,4.336e+00,4.359e+00
1.863e-03,8.803e-02,4.050e-01,8.458e-01,8.848e-01,8.852e-01,1.138e+00,2.434e+00,1.338e+00,2.356e+00,2.661e+00,2.628e+00,2.898e+00,2.918e+00,4.204e+00,2.402e+00,4.700e+00,4.419e+00,4.695e+00,5.384e+00,4.689e+00,4.451e+00,4.335e+00,4.488e+00,4.653e+00,4.409e+00,4.138e+00,5.067e+00,4.940e+00,4.115e+00,3.059e+00,3.022e+00,3.682e+00,5.295e+00,3.244e+00,3.418e+00,3.850e+00,4.318e+00,5.643e+00,3.416e+00,3.736e+00,3.372e+00,3.588e+00,2.696e+00,5.238e+00,5.414e+00,4.999e+00,4.229e+00,2.865e+00,5.091e+00,4.199e+00,3.665e+00,4.499e+00,4.123e+00,5.150e+00,3.723e+00,4.930e+00,4.597e+00,5.077e+00,3.897e+00,3.651e+00,3.811e+00,4.555e+00,4.402e+00,3.694e+00,4.885e+00,2.984e+00,5.141e+00,4.037e+00,4.458e+00,4.077e+00,2.747e+00,3.648e+00,4.184e+00,4.734e+00,3.579e+00,5.389e+00,4.358e+00,4.832e+00,3.520e+00,4.847e+00,2.354e+00,3.109e+00,4.633e+00,4.212e+00,4.458e+00,4.803e+00,3.611e+00,3.460e+00,5.436e+00,3.783e+00,5.562e+00,4.222e+00,3.253e+00,3.482e+00,4.278e+00
8.039e-03,4.581e-01,5.925e-01,5.384e-01,8.677e-01,8.579e-01,9.736e-01,1.667e+00,1.288e+00,2.463e+00,2.502e+00,2.420e+00,2.716e+00,2.658e+00,2.947e+00,2.387e+00,3.306e+00,4.041e+00,3.604e+00,3.861e+00,4.047e+00,3.341e+00,3.001e+00,4.221e+00,4.045e+00,3.549e+00,2.970e+00,3.797e+00,4.556e+00,3.871e+00,3.031e+00,2.933e+00,3.779e+00,5.013e+00,3.790e+00,2.750e+00,3.129e+00,3.334e+00,4.314e+00,2.358e+00,3.672e+00,2.698e+00,3.094e+00,3.385e+00,4.334e+00,4.057e+00,4.290e+00,3.767e+00,2.005e+00,3.828e+00,3.467e+00,3.885e+00,3.555e+00,3.891e+00,4.153e+00,3.220e+00,4.191e+00,3.447e+00,3.666e+00,3.502e+00,3.213e+00,3.183e+00,3.467e+00,3.633e+00,2.263e+00,4.016e+00,1.911e+00,3.717e+00,3.718e+00,3.805e+00,2.941e+00,3.959e+00,2.783e+00,2.806e+00,3.841e+00,3.253e+00,3.882e+00,3.276e+00,3.569e+00,3.582e+00,3.518e+00,2.647e+00,2.726e+00,3.167e+00,4.197e+00,3.234e+00,3.388e+00,2.464e+00,3.520e+00,3.651e+00,3.736e+00,3.866e+00,3.144e+00,3.462e+00,2.596e+00,3.410e+00
5.516e-03,7.063e-01,5.443e-01,8.729e-01,9.290e-01,1.292e+00,1.925e+00,2.523e+00,1.451e+00,2.711e+00,2.650e+00,2.517e+00,3.492e+00,3.266e+00,4.270e+00,3.146e+00,4.894e+00,6.109e+00,5.628e+00,7.320e+00,5.142e+00,5.199e+00,4.519e+00,5.857e+00,5.009e+00,5.918e+00,5.031e+00,6.184e+00,5.829e+00,6.115e+00,3.263e+00,4.715e+00,4.139e+00,7.223e+00,4.629e+00,5.272e+00,4.717e+00,4.602e+00,6.682e+00,4.126e+00,5.112e+00,4.576e+00,5.655e+00,4.808e+00,6.281e+00,5.366e+00,6.412e+00,4.435e+00,3.593e+00,6.464e+00,4.818e+00,5.523e+00,5.083e+00,5.628e+00,6.388e+00,5.116e+00,5.528e+00,5.020e+00,5.204e+00,5.380e+00,5.038e+00,5.101e+00,4.219e+00,5.489e+00,4.051e+00,5.271e+00,3.124e+00,6.596e+00,5.685e+00,5.268e+00,4.950e+00,4.922e+00,4.977e+00,4.393e+00,5.567e+00,5.678e+00,5.843e+00,5.957e+00,5.518e+00,5.587e+00,5.897e+00,3.771e+00,4.333e+00,5.414e+00,4.865e+00,5.535e+00,5.254e+00,3.522e+00,5.851e+00,6.807e+00,4.819e+00,6.842e+00,6.048e+00,5.208e+00,4.177e+00,4.427e+00
2.215e-02,6.733e-01,1.050e+00,8.962e-01,1.369e+00,1.009e+00,8.814e-01,1.117e+00,1.337e+00,2.397e+00,2.751e+00,2.916e+00,2.746e+00,2.783e+00,2.906e+00,3.052e+00,3.333e+00,3.700e+00,4.385e+00,5.330e+00,4.129e+00,4.360e+00,4.504e+00,4.846e+00,3.802e+00,4.007e+00,4.655e+00,4.596e+00,4.788e+00,3.758e+00,3.139e+00,2.792e+00,4.466e+00,5.570e+00,4.059e+00,3.820e+00,3.444e+00,4.862e+00,5.674e+00,3.064e+00,4.444e+00,3.497e+00,4.657e+00,3.542e+00,4.784e+00,5.160e+00,4.720e+00,4.792e+00,2.887e+00,5.422e+00,3.127e+00,4.643e+00,4.823e+00,3.885e+00,5.025e+00,3.654e+00,5.059e+00,4.290e+00,4.421e+00,3.925e+00,4.504e+00,3.743e+00,3.650e+00,4.298e+00,3.320e+00,5.502e+00,2.987e+00,5.213e+00,4.987e+00,4.240e+00,3.294e+00,3.668e+00,3.119e+00,3.541e+00,4.770e+00,3.790e+00,5.190e+00,5.422e+00,5.099e+00,4.621e+00,4.763e+00,2.567e+00,2.499e+00,4.765e+00,5.134e+00,4.530e+00,3.977e+00,3.184e+00,3.731e+00,5.399e+00,4.296e+00,4.715e+00,3.853e+00,4.426e+00,3.292e+00,5.142e+00
2.104e-02,1.172e+00,1.213e+00,1.240e+00,1.753e+00,1.984e+00,2.332e+00,2.627e+00,1.691e+00,2.971e+00,3.881e+00,2.742e+00,3.881e+00,3.795e+00,3.977e+00,3.857e+00,5.158e+00,5.081e+00,5.287e+00,7.257e+00,6.228e+00,5.494e+00,5.057e+00,5.850e+00,6.018e+00,5.648e+00,6.694e+00,6.484e+00,6.447e+00,5.949e+00,3.863e+00,4.959e+00,6.405e+00,8.168e+00,6.089e+00,6.499e+00,4.954e+00,6.080e+00,7.070e+00,4.247e+00,6.227e+00,5.582e+00,7.256e+00,5.908e+00,6.125e+00,6.028e+00,7.296e+00,5.952e+00,4.596e+00,6.385e+00,5.808e+00,6.394e+00,5.922e+00,5.694e+00,6.464e+00,5.343e+00,6.381e+00,6.103e+00,5.288e+00,6.246e+00,6.153e+00,5.211e+00,4.882e+00,7.347e+00,5.440e+00,7.142e+00,4.021e+00,7.097e+00,6.301e+00,5.169e+00,5.897e+00,5.484e+00,5.127e+00,5.747e+00,5.993e+00,6.207e+00,7.494e+00,6.570e+00,6.947e+00,6.917e+00,7.105e+00,4.294e+00,4.930e+00,5.929e+00,6.178e+00,5.990e+00,6.248e+00,3.468e+00,5.977e+00,7.767e+00,5.737e+00,7.011e+00,5.739e+00,5.650e+00,4.840e+00,5.886e+00
2.019e-02,9.415e-01,1.025e+00,9.595e-01,1.455e+00,1.796e+00,1.982e+00,2.662e+00,1.958e+00,3.045e+00,2.835e+00,2.902e+00,3.882e+00,3.484e+00,4.263e+00,3.788e+00,4.717e+00,5.627e+00,5.565e+00,7.016e+00,5.859e+00,5.197e+00,5.529e+00,6.281e+00,5.874e+00,6.405e+00,6.536e+00,6.807e+00,6.704e+00,6.453e+00,3.642e+00,4.889e+00,5.574e+00,8.012e+00,5.214e+00,5.950e+00,5.822e+00,5.965e+00,6.541e+00,4.763e+00,5.810e+00,4.507e+00,6.632e+00,5.061e+00,6.755e+00,6.486e+00,7.233e+00,6.192e+00,3.711e+00,6.499e+00,5.904e+00,5.936e+00,5.683e+00,5.619e+00,6.268e+00,5.062e+00,6.399e+00,5.395e+00,6.248e+00,5.117e+00,5.933e+00,4.834e+00,5.090e+00,6.040e+00,4.734e+00,6.417e+00,4.364e+00,6.034e+00,6.493e+00,5.643e+00,5.132e+00,4.959e+00,4.558e+00,4.852e+00,5.271e+00,5.422e+00,7.227e+00,6.527e+00,6.240e+00,5.545e+00,6.564e+00,4.564e+00,4.650e+00,6.195e+00,6.201e+00,6.094e+00,6.535e+00,3.806e+00,5.573e+00,6.897e+00,5.742e+00,7.057e+00,6.249e+00,6.061e+00,5.218e+00,5.692e+00
4.593e-03,2.670e-01,5.098e-01,1.126e+00,1.218e+00,1.298e+00,1.619e+00,2.255e+00,1.470e+00,2.302e+00,2.225e+00,2.238e+00,3.312e+00,2.659e+00,3.677e+00,2.406e+00,3.963e+00,4.414e+00,5.397e+00,6.241e+00,5.185e+00,4.601e+00,6.230e+00,5.875e+00,5.809e+00,6.255e+00,5.777e+00,6.053e+00,5.717e+00,5.677e+00,3.572e+00,5.063e+00,5.918e+00,7.583e+00,5.928e+00,7.214e+00,5.259e+00,6.382e+00,6.854e+00,4.476e+00,4.951e+00,4.838e+00,6.509e+00,5.453e+00,6.212e+00,6.240e+00,7.675e+00,5.662e+00,3.453e+00,5.021e+00,5.598e+00,6.739e+00,4.641e+00,6.395e+00,7.214e+00,4.865e+00,5.762e+00,5.399e+00,6.363e+00,5.905e+00,5.757e+00,4.043e+00,4.905e+00,6.603e+00,4.306e+00,6.164e+00,4.187e+00,6.466e+00,6.358e+00,5.242e+00,5.616e+00,4.855e+00,5.445e+00,5.284e+00,4.629e+00,5.310e+00,6.341e+00,5.941e+00,6.741e+00,5.697e+00,6.482e+00,4.816e+00,4.225e+00,5.461e+00,5.881e+00,5.664e+00,6.026e+00,3.642e+00,5.435e+00,6.726e+00,5.601e+00,6.780e+00,5.990e+00,6.225e+00,4.352e+00,5.823e+00
3.042e-02,1.357e+00,1.434e+00,1.403e+00,2.001e+00,2.344e+00,2.604e+00,2.844e+00,2.041e+00,3.174e+00,2.990e+00,2.240e+00,3.060e+00,3.186e+00,3.846e+00,3.227e+00,4.886e+00,5.151e+00,5.896e+00,6.518e+00,5.429e+00,4.765e+00,5.716e+00,6.646e+00,6.369e+00,7.653e+00,6.133e+00,7.281e+00,7.132e+00,6.795e+00,3.986e+00,5.492e+00,6.775e+00,7.947e+00,6.446e+00,7.371e+00,6.530e+00,6.214e+00,6.568e+00,4.816e+00,6.733e+00,5.071e+00,7.151e+00,5.415e+00,6.790e+00,6.530e+00,7.099e+00,6.870e+00,4.658e+00,5.976e+00,6.291e+00,7.375e+00,5.953e+00,6.738e+00,6.856e+00,6.208e+00,6.921e+00,5.978e+00,5.869e+00,5.745e+00,6.721e+00,5.797e+00,5.105e+00,6.529e+00,4.944e+00,6.478e+00,5.101e+00,6.590e+00,7.125e+00,5.795e+00,5.848e+00,6.474e+00,4.936e+00,5.435e+00,4.932e+00,5.449e+00,7.537e+00,6.654e+00,7.022e+00,6.439e+00,7.132e+00,4.921e+00,4.999e+00,5.965e+00,6.380e+00,6.044e+00,7.349e+00,4.277e+00,6.499e+00,7.136e+00,6.382e+00,7.756e+00,5.963e+00,6.266e+00,5.183e+00,7.335e+00
2.320e-02,7.412e-01,1.163e+00,1.142e+00,1.499e+00,1.465e+00,1.383e+00,1.956e+00,1.833e+00,1.828e+00,2.021e+00,2.325e+00,2.393e+00,2.630e+00,2.721e+00,2.489e+00,3.394e+00,3.887e+00,4.854e+00,5.388e+00,5.047e+00,4.228e+00,4.865e+00,6.276e+00,5.748e+00,6.589e+00,5.429e+00,5.825e+00,6.363e+00,6.138e+00,3.569e+00,4.151e+00,6.405e+00,7.227e+00,5.511e+00,6.827e+00,6.034e+00,5.390e+00,6.324e+00,4.779e+00,5.718e+00,5.219e+00,6.342e+00,4.772e+00,6.676e+00,6.103e+00,7.050e+00,5.965e+00,4.709e+00,6.108e+00,5.747e+00,5.988e+00,4.990e+00,6.166e+00,6.302e+00,5.611e+00,5.880e+00,5.153e+00,6.157e+00,5.418e+00,6.053e+00,5.594e+00,4.755e+00,6.206e+00,4.777e+00,6.037e+00,4.665e+00,6.397e+00,6.525e+00,5.896e+00,5.164e+00,5.044e+00,4.470e+00,4.571e+00,5.815e+00,4.735e+00,6.355e+00,6.172e+00,6.309e+00,6.479e+00,6.486e+00,4.431e+00,5.243e+00,5.322e+00,6.143e+00,5.735e+00,5.958e+00,4.315e+00,5.504e+00,6.552e+00,6.758e+00,6.923e+00,5.400e+00,4.920e+00,4.545e+00,6.101e+00
1.287e-02,8.367e-01,7.999e-01,8.621e-01,1.218e+00,1.613e+00,2.014e+00,2.918e+00,2.004e+00,3.862e+00,3.610e+00,2.860e+00,3.454e+00,3.846e+00,4.294e+00,3.423e+00,5.514e+00,5.847e+00,5.700e+00,7.008e+00,6.797e+00,6.418e+00,5.743e+00,7.513e+00,6.541e+00,7.667e+00,6.573e+00,8.267e+00,8.034e+00,8.001e+00,5.985e+00,5.924e+00,7.296e+00,9.898e+00,7.280e+00,8.282e+00,6.815e+00,7.306e+00,8.359e+00,5.950e+00,6.919e+00,6.190e+00,8.244e+00,7.017e+00,8.803e+00,7.715e+00,8.834e+00,7.003e+00,5.941e+00,8.201e+00,7.319e+00,8.033e+00,7.508e+00,7.503e+00,8.587e+00,6.610e+00,8.754e+00,7.575e+00,6.788e+00,7.053e+00,7.775e+00,7.246e+00,6.626e+00,7.450e+00,6.362e+00,8.351e+00,5.681e+00,8.649e+00,8.581e+00,6.869e+00,7.849e+00,7.407e+00,6.938e+00,6.654e+00,7.549e+00,5.917e+00,8.781e+00,8.053e+00,7.622e+00,7.582e+00,8.018e+00,5.894e+00,6.954e+00,7.410e+00,6.491e+00,7.883e+00,7.288e+00,6.141e+00,6.810e+00,8.563e+00,7.683e+00,8.674e+00,6.634e+00,6.692e+00,5.104e+00,7.462e+00
2.512e-02,8.894e-01,8.640e-01,9.831e-01,1.242e+00,1.726e+00,1.952e+00,2.125e+00,1.570e+00,2.684e+00,2.735e+00,2.348e+00,3.012e+00,3.405e+00,3.879e+00,3.629e+00,5.849e+00,5.679e+00,6.450e+00,7.506e+00,5.957e+00,5.526e+00,6.129e+00,7.660e+00,7.452e+00,7.771e+00,8.098e+00,7.836e+00,8.945e+00,8.304e+00,5.501e+00,6.610e+00,7.555e+00,1.010e+01,6.899e+00,8.828e+00,7.538e+00,7.337e+00,9.390e+00,6.923e+00,6.832e+00,6.094e+00,7.975e+00,6.559e+00,9.098e+00,9.330e+00,9.237e+00,7.253e+00,6.783e+00,8.455e+00,7.447e+00,8.975e+00,7.125e+00,8.091e+00,8.129e+00,6.916e+00,8.771e+00,7.119e+00,7.892e+00,6.869e+00,8.267e+00,7.571e+00,6.593e+00,8.013e+00,7.359e+00,8.144e+00,6.515e+00,8.948e+00,8.569e+00,7.865e+00,7.370e+00,7.271e+00,7.436e+00,5.894e+00,7.528e+00,7.142e+00,9.080e+00,7.267e+00,9.656e+00,7.970e+00,9.339e+00,6.238e+00,6.812e+00,8.722e+00,7.561e+00,7.751e+00,8.558e+00,6.248e+00,6.937e+00,9.874e+00,7.747e+00,9.542e+00,7.543e+00,8.245e+00,6.071e+00,7.301e+00
1.044e-02,3.238e-01,7.321e-01,7.434e-01,9.986e-01,7.174e-01,7.211e-01,1.736e+00,1.075e+00,2.048e+00,3.340e+00,2.621e+00,2.611e+00,3.012e+00,3.949e+00,2.485e+00,3.869e+00,4.604e+00,4.517e+00,5.613e+00,5.234e+00,4.883e+00,5.016e+00,6.420e+00,5.262e+00,5.132e+00,6.255e+00,5.916e+00,6.944e+00,6.174e+00,4.953e+00,5.820e+00,6.590e+00,8.059e+00,5.481e+00,5.534e+00,6.055e+00,5.809e+00,7.287e+00,5.100e+00,5.449e+00,4.294e+00,6.049e+00,5.674e+00,6.980e+00,7.277e+00,7.315e+00,5.694e+00,4.649e+00,7.267e+00,5.610e+00,7.316e+00,6.345e+00,6.518e+00,6.835e+00,5.696e+00,6.103e+00,5.322e+00,5.849e+00,5.578e+00,6.308e+00,5.408e+00,5.254e+00,6.436e+00,5.530e+00,6.976e+00,5.576e+00,7.323e+00,7.154e+00,6.891e+00,6.140e+00,4.452e+00,5.517e+00,4.364e+00,6.756e+00,4.674e+00,7.205e+00,6.044e+00,7.836e+00,6.397e+00,6.613e+00,4.236e+00,5.007e+00,6.909e+00,7.192e+00,6.945e+00,5.907e+00,5.380e+00,5.069e+00,7.759e+00,7.608e+00,7.733e+00,5.174e+00,5.956e+00,5.094e+00,6.029e+00
1.780e-02,8.247e-01,9.284e-01,9.456e-01,1.234e+00,1.618e+00,1.906e+00,3.074e+00,2.177e+00,3.618e+00,3.273e+00,3.238e+00,2.823e+00,3.890e+00,4.250e+00,3.465e+00,5.240e+00,5.618e+00,5.255e+00,6.728e+00,6.225e+00,5.361e+00,5.589e+00,6.215e+00,5.716e+00,6.191e+00,6.323e+00,7.358e+00,7.248e+00,8.879e+00,5.695e+00,6.348e+00,6.671e+00,9.310e+00,7.012e+00,7.691e+00,6.602e+00,7.999e+00,7.434e+00,6.009e+00,6.217e+00,5.353e+00,8.511e+00,6.673e+00,7.917e+00,8.306e+00,8.577e+00,7.609e+00,5.881e+00,7.990e+00,6.722e+00,7.820e+00,8.039e+00,6.906e+00,7.400e+00,7.221e+00,7.392e+00,7.919e+00,7.238e+00,7.693e+00,7.370e+00,6.380e+00,6.422e+00,7.306e+00,5.947e+00,7.557e+00,5.905e+00,8.148e+00,8.027e+00,8.366e+00,8.281e+00,6.768e+00,6.472e+00,6.308e+00,6.964e+00,6.257e+00,8.151e+00,8.292e+00,7.271e+00,7.455e+00,8.152e+00,6.175e+00,6.852e+00,6.778e+00,6.913e+00,7.802e+00,7.006e+00,5.445e+00,6.377e+00,8.714e+00,6.734e+00,8.755e+00,7.585e+00,7.371e+00,6.482e+00,6.670e+00
2.297e-02,9.962e-01,1.332e+00,1.496e+00,1.978e+00,2.042e+00,2.297e+00,3.271e+00,2.262e+00,3.571e+00,3.723e+00,3.713e+00,4.029e+00,4.057e+00,4.426e+00,4.063e+00,5.031e+00,5.124e+00,5.934e+00,7.318e+00,5.999e+00,5.390e+00,6.580e+00,7.112e+00,6.644e+00,7.398e+00,8.517e+00,8.969e+00,8.968e+00,8.632e+00,6.340e+00,6.602e+00,8.172e+00,1.055e+01,7.746e+00,8.464e+00,8.098e+00,9.892e+00,9.228e+00,7.995e+00,8.015e+00,7.495e+00,9.460e+00,7.231e+00,9.223e+00,9.030e+00,1.086e+01,8.464e+00,6.916e+00,9.782e+00,7.890e+00,8.789e+00,8.468e+00,7.574e+00,7.636e+00,7.299e+00,8.879e+00,8.430e+00,8.937e+00,7.957e+00,8.909e+00,7.072e+00,7.040e+00,9.047e+00,7.314e+00,9.541e+00,6.915e+00,9.434e+00,9.337e+00,8.524e+00,8.573e+00,8.058e+00,7.903e+00,7.869e+00,9.365e+00,7.130e+00,1.038e+01,8.241e+00,9.676e+00,8.245e+00,9.945e+00,7.220e+00,7.270e+00,9.117e+00,7.430e+00,9.482e+00,9.053e+00,6.818e+00,7.281e+00,1.029e+01,7.733e+00,9.893e+00,9.264e+00,9.090e+00,7.471e+00,8.225e+00
7.620e-03,7.825e-01,7.628e-01,9.619e-01,1.225e+00,1.585e+00,2.105e+00,3.152e+00,2.026e+00,3.742e+00,3.964e+00,3.731e+00,4.326e+00,4.460e+00,5.538e+00,4.247e+00,6.718e+00,7.362e+00,5.832e+00,8.003e+00,6.955e+00,6.575e+00,7.417e+00,7.296e+00,7.216e+00,8.295e+00,8.089e+00,9.186e+00,9.174e+00,1.051e+01,7.820e+00,8.340e+00,9.234e+00,1.275e+01,8.151e+00,7.904e+00,9.725e+00,1.046e+01,1.037e+01,8.497e+00,8.551e+00,7.402e+00,8.872e+00,8.327e+00,1.028e+01,1.088e+01,1.199e+01,9.735e+00,7.816e+00,1.106e+01,9.277e+00,1.069e+01,9.881e+00,1.036e+01,9.692e+00,8.553e+00,1.013e+01,1.005e+01,1.003e+01,9.156e+00,1.038e+01,8.288e+00,8.835e+00,8.974e+00,7.341e+00,1.004e+01,8.151e+00,1.029e+01,1.032e+01,1.001e+01,9.333e+00,8.246e+00,9.756e+00,7.999e+00,1.004e+01,8.058e+00,1.109e+01,8.876e+00,1.005e+01,9.301e+00,9.448e+00,8.548e+00,8.206e+00,9.558e+00,8.790e+00,1.055e+01,1.009e+01,7.690e+00,8.111e+00,1.079e+01,8.541e+00,1.188e+01,1.039e+01,9.617e+00,8.236e+00,8.806e+00
4.793e-03,4.764e-01,4.789e-01,6.570e-01,8.799e-01,9.524e-01,1.290e+00,1.788e+00,1.229e+00,2.556e+00,2.186e+00,2.335e+00,3.012e+00,2.540e+00,3.580e+00,2.556e+00,4.018e+00,4.512e+00,3.535e+00,5.009e+00,4.507e+00,4.334e+00,4.988e+00,4.702e+00,5.213e+00,5.933e+00,6.636e+00,7.338e+00,7.295e+00,8.417e+00,5.757e+00,4.895e+00,7.029e+00,8.550e+00,7.089e+00,6.981e+00,5.880e+00,7.804e+00,7.551e+00,6.364e+00,6.092e+00,6.028e+00,7.758e+00,7.183e+00,7.255e+00,7.633e+00,8.461e+00,8.114e+00,6.054e+00,7.327e+00,6.641e+00,7.855e+00,7.491e+00,7.858e+00,6.668e+00,5.869e+00,8.551e+00,7.688e+00,7.544e+00,5.536e+00,8.395e+00,7.625e+00,6.743e+00,6.855e+00,6.345e+00,7.991e+00,6.646e+00,8.338e+00,7.979e+00,7.733e+00,7.131e+00,7.477e+00,6.940e+00,5.218e+00,7.440e+00,5.689e+00,7.941e+00,6.659e+00,8.614e+00,7.518e+00,6.782e+00,7.586e+00,6.839e+00,6.923e+00,6.856e+00,7.034e+00,7.685e+00,6.735e+00,6.278e+00,7.733e+00,6.761e+00,7.868e+00,6.996e+00,7.751e+00,5.459e+00,6.959e+00
3.036e-02,1.450e+00,1.502e+00,1.565e+00,2.128e+00,2.509e+00,2.991e+00,3.764e+00,2.300e+00,4.335e+00,4.853e+00,3.210e+00,4.342e+00,4.879e+00,6.192e+00,4.459e+00,6.722e+00,7.409e+00,7.215e+00,8.862e+00,6.965e+00,6.500e+00,7.635e+00,7.443e+00,6.927e+00,9.164e+00,8.849e+00,8.930e+00,9.266e+00,1.032e+01,7.591e+00,8.669e+00,1.065e+01,1.346e+01,9.160e+00,1.039e+01,1.045e+01,1.168e+01,1.149e+01,8.115e+00,9.178e+00,8.179e+00,1.029e+01,9.455e+00,1.022e+01,1.137e+01,1.273e+01,9.628e+00,9.090e+00,1.060e+01,9.933e+00,1.244e+01,1.162e+01,1.200e+01,1.195e+01,9.671e+00,1.216e+01,1.080e+01,9.579e+00,1.005e+01,1.029e+01,8.899e+00,1.042e+01,1.059e+01,9.731e+00,1.155e+01,9.911e+00,1.089e+01,1.090e+01,1.071e+01,9.753e+00,1.010e+01,1.053e+01,8.816e+00,1.015e+01,9.030e+00,1.075e+01,1.045e+01,1.168e+01,1.113e+01,1.017e+01,8.936e+00,9.001e+00,1.020e+01,1.040e+01,1.047e+01,1.135e+01,8.751e+00,9.565e+00,1.257e+01,1.038e+01,1.270e+01,1.021e+01,1.024e+01,8.552e+00,9.979e+00
1.038e-02,7.226e-01,8.622e-01,1.072e+00,1.421e+00,1.331e+00,1.734e+00,2.391e+00,1.123e+00,2.751e+00,3.099e+00,2.195e+00,2.527e+00,2.569e+00,4.293e+00,2.386e+00,4.854e+00,5.600e+00,5.237e+00,6.909e+00,5.934e+00,5.072e+00,6.074e+00,6.275e+00,6.243e+00,7.493e+00,7.348e+00,7.471e+00,7.492e+00,8.720e+00,6.010e+00,6.743e+00,8.855e+00,1.063e+01,9.464e+00,1.005e+01,8.488e+00,9.150e+00,1.002e+01,6.736e+00,8.705e+00,7.433e+00,8.560e+00,8.535e+00,8.772e+00,9.239e+00,9.862e+00,9.255e+00,8.472e+00,8.280e+00,8.224e+00,1.110e+01,8.671e+00,1.010e+01,9.774e+00,8.479e+00,9.690e+00,8.847e+00,8.143e+00,8.211e+00,9.998e+00,8.167e+00,7.306e+00,9.819e+00,7.636e+00,9.282e+00,7.690e+00,9.567e+00,8.839e+00,8.836e+00,8.390e+00,8.456e+00,8.206e+00,7.835e+00,9.104e+00,7.332e+00,8.741e+00,7.668e+00,9.331e+00,1.014e+01,9.021e+00,7.349e+00,8.371e+00,8.298e+00,9.508e+00,7.692e+00,8.793e+00,6.978e+00,8.791e+00,9.764e+00,8.132e+00,1.046e+01,7.342e+00,9.404e+00,6.244e+00,9.014e+00
2.929e-02,1.153e+00,1.347e+00,1.536e+00,1.829e+00,2.146e+00,2.549e+00,3.562e+00,1.948e+00,3.073e+00,3.844e+00,2.595e+00,3.249e+00,4.107e+00,4.479e+00,3.144e+00,4.575e+00,4.113e+00,5.878e+00,6.436e+00,4.838e+00,4.960e+00,6.026e+00,7.483e+00,5.308e+00,8.198e+00,8.140e+00,8.469e+00,8.911e+00,9.589e+00,6.371e+00,8.342e+00,9.496e+00,1.155e+01,1.045e+01,1.109e+01,1.019e+01,1.145e+01,1.095e+01,8.910e+00,8.780e+00,8.355e+00,1.041e+01,1.007e+01,1.023e+01,1.187e+01,1.131e+01,1.004e+01,8.861e+00,1.126e+01,9.512e+00,1.203e+01,1.003e+01,9.966e+00,1.085e+01,9.822e+00,1.065e+01,1.054e+01,1.008e+01,1.025e+01,1.158e+01,9.112e+00,9.041e+00,9.844e+00,9.256e+00,1.111e+01,1.025e+01,1.140e+01,1.115e+01,1.077e+01,9.598e+00,1.028e+01,1.095e+01,8.905e+00,9.758e+00,8.624e+00,1.185e+01,9.103e+00,1.164e+01,1.025e+01,1.068e+01,9.158e+00,8.165e+00,1.016e+01,9.231e+00,9.893e+00,1.104e+01,9.293e+00,8.704e+00,1.257e+01,9.118e+00,1.282e+01,1.151e+01,1.061e+01,8.407e+00,1.001e+01
1.728e-02,1.038e+00,9.573e-01,8.569e-01,1.303e+00,1.587e+00,1.923e+00,2.249e+00,1.402e+00,2.690e+00,2.920e+00,2.016e+00,2.796e+00,2.891e+00,3.648e+00,2.933e+00,4.588e+00,5.085e+00,4.705e+00,6.529e+00,5.092e+00,5.017e+00,4.999e+00,6.179e+00,5.058e+00,6.444e+00,6.789e+00,6.720e+00,7.026e+00,7.115e+00,5.616e+00,6.005e+00,7.559e+00,1.076e+01,8.065e+00,9.586e+00,9.358e+00,9.936e+00,1.014e+01,8.431e+00,9.023e+00,7.531e+00,9.301e+00,8.995e+00,9.346e+00,9.299e+00,9.837e+00,9.635e+00,8.734e+00,1.018e+01,8.732e+00,1.075e+01,9.376e+00,9.356e+00,1.016e+01,8.063e+00,1.111e+01,8.947e+00,8.866e+00,8.157e+00,1.023e+01,7.661e+00,8.642e+00,9.610e+00,9.028e+00,1.060e+01,7.729e+00,9.838e+00,9.200e+00,9.386e+00,8.169e+00,9.961e+00,8.959e+00,8.008e+00,8.950e+00,8.641e+00,1.051e+01,8.689e+00,1.026e+01,1.013e+01,8.834e+00,7.683e+00,8.390e+00,9.691e+00,8.765e+00,9.366e+00,9.205e+00,8.695e+00,8.623e+00,1.112e+01,8.210e+00,1.113e+01,9.371e+00,1.052e+01,8.115e+00,8.632e+00
2.110e-02,7.536e-01,1.055e+00,1.235e+00,1.425e+00,1.287e+00,1.467e+00,1.881e+00,1.614e+00,2.444e+00,3.249e+00,2.769e+00,2.906e+00,3.573e+00,3.099e+00,3.235e+00,4.764e+00,4.837e+00,4.944e+00,5.854e+00,5.840e+00,4.946e+00,6.297e+00,6.959e+00,6.671e+00,7.511e+00,7.028e+00,8.200e+00,9.103e+00,9.167e+00,6.972e+00,6.691e+00,9.421e+00,1.132e+01,8.707e+00,9.707e+00,9.550e+00,1.116e+01,1.030e+01,9.108e+00,8.805e+00,7.633e+00,1.026e+01,8.918e+00,1.099e+01,1.035e+01,1.125e+01,1.052e+01,9.114e+00,1.035e+01,8.953e+00,1.061e+01,9.337e+00,1.046e+01,1.014e+01,9.209e+00,1.094e+01,9.427e+00,1.081e+01,1.009e+01,1.132e+01,9.322e+00,9.524e+00,9.650e+00,8.832e+00,1.094e+01,8.318e+00,1.134e+01,9.911e+00,1.045e+01,1.001e+01,1.002e+01,9.509e+00,8.248e+00,1.010e+01,8.671e+00,1.196e+01,9.743e+00,1.154e+01,1.042e+01,9.718e+00,8.756e+00,9.781e+00,9.160e+00,9.574e+00,9.714e+00,9.437e+00,9.350e+00,8.353e+00,1.085e+01,1.055e+01,1.232e+01,9.828e+00,9.982e+00,8.426e+00,8.473e+00
1.813e-02,7.416e-01,7.896e-01,5.998e-01,1.023e+00,1.127e+00,1.235e+00,1.708e+00,1.055e+00,2.259e+00,2.380e+00,1.706e+00,2.393e+00,2.339e+00,3.068e+00,2.859e+00,4.018e+00,5.107e+00,5.027e+00,6.375e+00,5.687e+00,4.811e+00,5.457e+00,6.696e+00,5.152e+00,7.597e+00,6.813e+00,7.096e+00,7.600e+00,7.967e+00,6.056e+00,6.869e+00,8.979e+00,1.075e+01,7.752e+00,9.035e+00,1.023e+01,9.873e+00,1.019e+01,7.942e+00,8.087e+00,7.273e+00,9.129e+00,8.590e+00,9.644e+00,9.496e+00,1.175e+01,8.168e+00,9.474e+00,9.492e+00,9.235e+00,1.051e+01,9.198e+00,1.004e+01,1.025e+01,9.165e+00,1.067e+01,8.661e+00,8.444e+00,8.715e+00,1.009e+01,8.507e+00,7.374e+00,9.570e+00,8.374e+00,9.943e+00,8.932e+00,1.003e+01,1.026e+01,8.238e+00,8.693e+00,8.641e+00,9.878e+00,7.749e+00,8.820e+00,7.021e+00,1.091e+01,8.088e+00,1.017e+01,9.990e+00,8.976e+00,8.364e+00,9.417e+00,8.458e+00,8.872e+00,9.328e+00,9.944e+00,9.232e+00,9.163e+00,1.045e+01,8.947e+00,1.069e+01,8.818e+00,9.592e+00,7.172e+00,8.843e+00
2.065e-02,6.680e-01,1.059e+00,1.077e+00,1.427e+00,1.384e+00,1.333e+00,1.889e+00,1.614e+00,1.815e+00,2.413e+00,1.997e+00,2.533e+00,2.740e+00,3.402e+00,2.395e+00,4.809e+00,4.721e+00,5.308e+00,6.137e+00,5.733e+00,5.040e+00,5.668e+00,6.632e+00,6.403e+00,7.010e+00,6.362e+00,7.241e+00,8.291e+00,8.253e+00,5.976e+00,6.606e+00,8.510e+00,1.068e+01,8.136e+00,9.901e+00,9.798e+00,1.034e+01,1.036e+01,8.645e+00,8.064e+00,7.835e+00,9.652e+00,9.133e+00,1.038e+01,1.002e+01,1.118e+01,1.013e+01,8.568e+00,9.409e+00,8.856e+00,1.053e+01,1.006e+01,1.027e+01,1.107e+01,9.910e+00,1.065e+01,9.376e+00,9.452e+00,1.056e+01,1.078e+01,9.037e+00,9.652e+00,8.638e+00,9.763e+00,1.124e+01,9.770e+00,1.106e+01,1.076e+01,1.011e+01,9.134e+00,9.662e+00,8.787e+00,7.981e+00,9.426e+00,8.382e+00,1.153e+01,8.969e+00,1.112e+01,1.002e+01,1.066e+01,9.074e+00,8.989e+00,9.332e+00,1.031e+01,1.015e+01,1.037e+01,9.775e+00,9.027e+00,1.189e+01,9.880e+00,1.267e+01,1.013e+01,1.003e+01,8.663e+00,9.460e+00
3.776e-03,5.853e-01,3.369e-01,1.927e-01,3.960e-01,1.073e+00,1.388e+00,2.196e+00,1.709e+00,3.188e+00,2.899e+00,2.982e+00,2.486e+00,3.530e+00,3.776e+00,3.215e+00,5.312e+00,4.899e+00,4.339e+00,5.862e+00,5.041e+00,5.729e+00,5.398e+00,6.042e+00,4.954e+00,5.584e+00,5.464e+00,6.328e+00,5.962e+00,7.201e+00,5.764e+00,5.012e+00,6.784e+00,9.108e+00,7.099e+00,7.246e+00,7.595e+00,1.060e+01,9.945e+00,9.567e+00,7.670e+00,8.127e+00,9.295e+00,9.140e+00,9.450e+00,1.012e+01,1.037e+01,1.052e+01,9.428e+00,1.064e+01,8.918e+00,9.064e+00,9.521e+00,9.124e+00,1.116e+01,8.423e+00,1.177e+01,1.000e+01,1.091e+01,1.029e+01,1.017e+01,9.113e+00,8.776e+00,9.235e+00,8.056e+00,1.132e+01,6.864e+00,1.077e+01,1.012e+01,1.067e+01,9.688e+00,1.042e+01,9.356e+00,8.475e+00,8.781e+00,7.952e+00,1.102e+01,1.001e+01,1.077e+01,9.427e+00,8.881e+00,8.649e+00,9.380e+00,8.183e+00,8.105e+00,8.352e+00,8.945e+00,9.645e+00,7.746e+00,1.161e+01,8.591e+00,1.120e+01,9.485e+00,1.104e+01,7.951e+00,9.389e+00
2.364e-03,3.504e-01,5.355e-01,8.418e-01,9.250e-01,9.137e-01,1.174e+00,1.707e+00,1.354e+00,1.877e+00,2.683e+00,2.313e+00,2.982e+00,2.971e+00,3.227e+00,2.484e+00,4.488e+00,4.413e+00,3.843e+00,5.628e+00,5.301e+00,5.176e+00,5.354e+00,5.776e+00,5.333e+00,5.216e+00,5.106e+00,5.929e+00,6.129e+00,6.109e+00,5.433e+00,5.279e+00,7.496e+00,9.347e+00,7.384e+00,7.803e+00,7.287e+00,9.217e+00,8.817e+00,8.167e+00,7.731e+00,8.288e+00,9.521e+00,9.558e+00,9.191e+00,9.095e+00,1.061e+01,9.052e+00,8.076e+00,9.409e+00,7.838e+00,9.100e+00,8.404e+00,1.034e+01,1.061e+01,8.531e+00,1.084e+01,8.926e+00,9.742e+00,8.931e+00,8.752e+00,7.844e+00,8.445e+00,9.355e+00,8.988e+00,9.769e+00,6.564e+00,1.080e+01,1.040e+01,9.594e+00,9.739e+00,8.283e+00,8.068e+00,8.573e+00,9.140e+00,7.899e+00,9.956e+00,8.907e+00,1.113e+01,9.793e+00,8.737e+00,8.325e+00,8.124e+00,8.804e+00,9.250e+00,8.552e+00,9.442e+00,9.118e+00,8.362e+00,1.045e+01,8.527e+00,1.122e+01,9.224e+00,9.097e+00,8.934e+00,8.757e+00
8.441e-03,7.424e-01,5.778e-01,7.157e-01,1.006e+00,1.608e+00,1.994e+00,2.442e+00,1.972e+00,3.386e+00,2.881e+00,2.568e+00,3.342e+00,3.517e+00,3.945e+00,3.454e+00,6.048e+00,6.226e+00,5.423e+00,7.051e+00,6.749e+00,5.940e+00,5.777e+00,6.162e+00,7.049e+00,6.404e+00,6.713e+00,7.455e+00,7.882e+00,8.654e+00,6.864e+00,6.624e+00,8.193e+00,1.204e+01,9.374e+00,1.012e+01,9.525e+00,1.187e+01,1.108e+01,1.049e+01,9.457e+00,9.748e+00,1.207e+01,1.222e+01,1.189e+01,1.184e+01,1.285e+01,1.198e+01,9.906e+00,1.198e+01,1.049e+01,1.176e+01,1.121e+01,1.250e+01,1.299e+01,1.137e+01,1.332e+01,1.253e+01,1.126e+01,1.234e+01,1.241e+01,9.848e+00,1.065e+01,1.161e+01,1.137e+01,1.294e+01,9.506e+00,1.324e+01,1.215e+01,1.192e+01,1.246e+01,1.213e+01,1.052e+01,1.075e+01,1.105e+01,1.060e+01,1.323e+01,1.115e+01,1.292e+01,1.206e+01,1.221e+01,1.088e+01,1.119e+01,1.085e+01,1.120e+01,1.202e+01,1.124e+01,1.079e+01,1.044e+01,1.390e+01,1.101e+01,1.392e+01,1.153e+01,1.315e+01,1.086e+01,1.097e+01
1.160e-02,3.991e-01,5.142e-01,9.457e-01,1.080e+00,1.564e+00,1.790e+00,2.456e+00,1.869e+00,2.823e+00,1.950e+00,2.234e+00,2.518e+00,2.785e+00,3.145e+00,2.469e+00,4.268e+00,3.614e+00,4.847e+00,5.431e+00,4.769e+00,4.398e+00,4.948e+00,6.038e+00,5.833e+00,6.703e+00,6.367e+00,6.079e+00,7.065e+00,8.644e+00,6.148e+00,6.423e+00,9.231e+00,1.141e+01,9.244e+00,1.060e+01,9.817e+00,1.172e+01,1.051e+01,9.652e+00,8.692e+00,9.388e+00,1.206e+01,1.180e+01,1.147e+01,1.186e+01,1.253e+01,1.143e+01,1.118e+01,1.064e+01,9.824e+00,1.278e+01,1.060e+01,1.176e+01,1.211e+01,1.150e+01,1.198e+01,1.118e+01,1.105e+01,1.080e+01,1.260e+01,9.472e+00,1.079e+01,1.121e+01,1.058e+01,1.250e+01,1.047e+01,1.199e+01,1.324e+01,1.148e+01,1.053e+01,1.120e+01,1.118e+01,1.101e+01,9.975e+00,9.708e+00,1.297e+01,1.036e+01,1.136e+01,1.135e+01,1.134e+01,1.056e+01,1.015e+01,1.104e+01,1.159e+01,1.093e+01,1.176e+01,1.033e+01,9.473e+00,1.288e+01,1.055e+01,1.423e+01,1.169e+01,1.244e+01,1.080e+01,1.134e+01
1.371e-02,7.166e-01,5.949e-01,5.146e-01,8.201e-01,1.246e+00,1.552e+00,2.299e+00,1.206e+00,2.830e+00,3.195e+00,2.184e+00,3.035e+00,3.345e+00,4.645e+00,3.235e+00,5.535e+00,5.647e+00,5.501e+00,7.266e+00,6.012e+00,6.137e+00,6.693e+00,6.887e+00,5.757e+00,7.435e+00,8.878e+00,8.500e+00,8.638e+00,9.377e+00,6.618e+00,7.281e+00,8.677e+00,1.162e+01,8.724e+00,1.059e+01,9.606e+00,1.136e+01,1.172e+01,1.055e+01,9.167e+00,9.268e+00,1.195e+01,1.217e+01,1.182e+01,1.323e+01,1.354e+01,1.186e+01,1.119e+01,1.244e+01,1.186e+01,1.189e+01,1.240e+01,1.237e+01,1.419e+01,1.043e+01,1.448e+01,1.229e+01,1.244e+01,1.215e+01,1.249e+01,1.130e+01,1.063e+01,1.254e+01,1.245e+01,1.268e+01,1.110e+01,1.346e+01,1.308e+01,1.241e+01,1.256e+01,1.159e+01,1.231e+01,9.781e+00,1.096e+01,1.108e+01,1.336e+01,1.173e+01,1.428e+01,1.155e+01,1.186e+01,1.222e+01,1.191e+01,1.222e+01,1.119e+01,1.143e+01,1.205e+01,1.242e+01,1.068e+01,1.495e+01,1.128e+01,1.455e+01,1.196e+01,1.345e+01,1.085e+01,1.221e+01
2.269e-03,5.106e-01,4.120e-01,5.660e-01,8.089e-01,1.089e+00,1.512e+00,2.220e+00,1.200e+00,2.693e+00,2.732e+00,1.851e+00,2.968e+00,2.717e+00,3.500e+00,2.592e+00,4.887e+00,5.358e+00,4.282e+00,5.868e+00,5.953e+00,5.062e+00,5.492e+00,6.035e+00,5.715e+00,6.911e+00,6.003e+00,7.168e+00,7.210e+00,7.897e+00,6.249e+00,6.949e+00,8.272e+00,1.110e+01,9.181e+00,9.818e+00,9.389e+00,1.052e+01,1.063e+01,8.649e+00,8.897e+00,8.169e+00,1.040e+01,1.140e+01,1.107e+01,1.147e+01,1.199e+01,1.153e+01,1.016e+01,1.156e+01,1.044e+01,1.183e+01,1.011e+01,1.118e+01,1.258e+01,1.059e+01,1.205e+01,1.146e+01,1.056e+01,1.145e+01,1.261e+01,9.761e+00,1.062e+01,1.084e+01,1.020e+01,1.151e+01,9.623e+00,1.176e+01,1.183e+01,1.059e+01,1.165e+01,1.124e+01,1.127e+01,1.064e+01,1.026e+01,1.027e+01,1.184e+01,9.686e+00,1.087e+01,1.092e+01,1.008e+01,1.032e+01,1.072e+01,1.003e+01,1.038e+01,1.061e+01,1.140e+01,9.585e+00,9.690e+00,1.137e+01,9.762e+00,1.336e+01,1.103e+01,1.242e+01,9.271e+00,1.049e+01
9.057e-04,1.568e-01,1.777e-01,5.189e-01,4.324e-01,7.019e-01,9.537e-01,1.364e+00,1.166e+00,1.995e+00,2.062e+00,2.479e+00,1.812e+00,2.539e+00,2.365e+00,2.630e+00,3.680e+00,4.174e+00,3.607e+00,4.754e+00,4.722e+00,3.781e+00,5.465e+00,5.492e+00,6.117e+00,5.851e+00,6.353e+00,6.529e+00,7.342e+00,8.707e+00,6.590e+00,6.948e+00,8.927e+00,1.066e+01,8.456e+00,9.061e+00,8.870e+00,9.978e+00,9.428e+00,9.288e+00,7.190e+00,8.232e+00,1.061e+01,1.112e+01,1.152e+01,1.148e+01,1.302e+01,1.040e+01,1.100e+01,1.092e+01,9.922e+00,1.200e+01,1.085e+01,1.153e+01,1.196e+01,1.141e+01,1.081e+01,1.091e+01,1.103e+01,1.259e+01,1.244e+01,1.021e+01,9.489e+00,1.167e+01,1.045e+01,1.090e+01,1.037e+01,1.309e+01,1.265e+01,1.225e+01,1.272e+01,1.143e+01,1.120e+01,9.514e+00,1.026e+01,1.138e+01,1.251e+01,1.020e+01,1.194e+01,1.058e+01,1.113e+01,1.175e+01,1.107e+01,1.105e+01,1.075e+01,1.124e+01,1.101e+01,9.479e+00,1.027e+01,1.250e+01,1.077e+01,1.442e+01,1.143e+01,1.215e+01,1.090e+01,1.062e+01
2.344e-02,1.212e+00,1.295e+00,1.344e+00,1.820e+00,2.004e+00,2.382e+00,2.795e+00,1.590e+00,2.751e+00,3.716e+00,2.116e+00,3.343e+00,3.555e+00,4.743e+00,3.010e+00,6.012e+00,5.762e+00,6.362e+00,7.926e+00,6.119e+00,6.017e+00,5.936e+00,7.439e+00,6.059e+00,8.053e+00,7.805e+00,7.847e+00,8.576e+00,8.823e+00,6.370e+00,7.580e+00,9.604e+00,1.186e+01,9.854e+00,1.143e+01,1.007e+01,1.162e+01,1.227e+01,1.067e+01,1.085e+01,1.053e+01,1.250e+01,1.272e+01,1.185e+01,1.351e+01,1.511e+01,1.423e+01,1.312e+01,1.280e+01,1.337e+01,1.468e+01,1.275e+01,1.459e+01,1.625e+01,1.378e+01,1.585e+01,1.408e+01,1.296e+01,1.422e+01,1.393e+01,1.229e+01,1.219e+01,1.499e+01,1.250e+01,1.375e+01,1.197e+01,1.581e+01,1.516e+01,1.305e+01,1.334e+01,1.420e+01,1.334e+01,1.207e+01,1.147e+01,1.362e+01,1.470e+01,1.242e+01,1.529e+01,1.418e+01,1.260e+01,1.321e+01,1.274e+01,1.231e+01,1.346e+01,1.285e+01,1.495e+01,1.330e+01,1.276e+01,1.631e+01,1.264e+01,1.734e+01,1.351e+01,1.485e+01,1.233e+01,1.449e+01
1.415e-02,7.824e-01,9.423e-01,1.135e+00,1.474e+00,1.695e+00,1.997e+00,2.800e+00,2.146e+00,3.364e+00,3.572e+00,3.445e+00,4.402e+00,4.205e+00,4.942e+00,3.958e+00,5.733e+00,6.195e+00,6.069e+00,7.650e+00,6.765e+00,6.687e+00,7.543e+00,8.109e+00,7.398e+00,8.791e+00,8.778e+00,9.159e+00,9.217e+00,9.311e+00,6.830e+00,6.978e+00,1.007e+01,1.240e+01,1.002e+01,1.059e+01,1.054e+01,1.224e+01,1.232e+01,1.036e+01,1.027e+01,1.067e+01,1.338e+01,1.265e+01,1.391e+01,1.390e+01,1.490e+01,1.405e+01,1.152e+01,1.562e+01,1.276e+01,1.406e+01,1.303e+01,1.490e+01,1.496e+01,1.162e+01,1.470e+01,1.386e+01,1.438e+01,1.369e+01,1.466e+01,1.212e+01,1.222e+01,1.477e+01,1.328e+01,1.502e+01,1.149e+01,1.539e+01,1.539e+01,1.316e+01,1.405e+01,1.327e+01,1.340e+01,1.185e+01,1.261e+01,1.263e+01,1.647e+01,1.333e+01,1.573e+01,1.361e+01,1.261e+01,1.294e+01,1.227e+01,1.347e+01,1.356e+01,1.416e+01,1.284e+01,1.265e+01,1.174e+01,1.534e+01,1.318e+01,1.596e+01,1.455e+01,1.404e+01,1.297e+01,1.377e+01
6.529e-04,2.986e-01,4.136e-01,9.510e-01,9.424e-01,9.945e-01,1.467e+00,2.244e+00,1.671e+00,3.238e+00,2.829e+00,3.507e+00,3.263e+00,3.410e+00,4.321e+00,3.185e+00,5.252e+00,6.142e+00,5.809e+00,7.038e+00,5.524e+00,5.458e+00,6.978e+00,7.066e+00,6.770e+00,7.844e+00,7.064e+00,8.220e+00,8.435e+00,9.828e+00,6.776e+00,7.172e+00,8.603e+00,1.162e+01,9.451e+00,1.057e+01,9.831e+00,1.203e+01,1.221e+01,1.003e+01,9.762e+00,9.281e+00,1.246e+01,1.175e+01,1.310e+01,1.303e+01,1.389e+01,1.283e+01,1.209e+01,1.459e+01,1.166e+01,1.440e+01,1.259e+01,1.426e+01,1.381e+01,1.278e+01,1.351e+01,1.338e+01,1.359e+01,1.412e+01,1.498e+01,1.240e+01,1.288e+01,1.388e+01,1.185e+01,1.397e+01,1.068e+01,1.486e+01,1.463e+01,1.428e+01,1.382e+01,1.405e+01,1.319e+01,1.175e+01,1.293e+01,1.227e+01,1.448e+01,1.355e+01,1.514e+01,1.308e+01,1.310e+01,1.279e+01,1.225e+01,1.323e+01,1.367e+01,1.261e+01,1.230e+01,1.193e+01,1.271e+01,1.537e+01,1.240e+01,1.618e+01,1.499e+01,1.482e+01,1.234e+01,1.186e+01
1.636e-02,5.082e-01,6.675e-01,5.144e-01,7.939e-01,9.201e-01,8.839e-01,1.440e+00,9.270e-01,1.363e+00,1.539e+00,1.228e+00,1.274e+00,1.697e+00,2.509e+00,1.705e+00,3.479e+00,3.630e+00,4.307e+00,4.877e+00,4.246e+00,3.665e+00,4.351e+00,5.016e+00,4.409e+00,4.791e+00,5.648e+00,5.739e+00,6.636e+00,6.589e+00,4.699e+00,5.606e+00,5.388e+00,7.969e+00,5.411e+00,7.494e+00,7.095e+00,7.594e+00,7.789e+00,7.557e+00,6.557e+00,5.579e+00,8.045e+00,6.970e+00,8.103e+00,8.403e+00,1.042e+01,8.934e+00,8.384e+00,9.219e+00,9.217e+00,9.218e+00,9.780e+00,8.717e+00,1.019e+01,9.831e+00,9.326e+00,9.369e+00,9.036e+00,1.070e+01,1.008e+01,8.576e+00,8.523e+00,1.026e+01,9.135e+00,9.647e+00,8.624e+00,9.681e+00,1.025e+01,9.591e+00,9.746e+00,9.694e+00,9.390e+00,7.487e+00,7.988e+00,8.961e+00,1.133e+01,9.605e+00,1.119e+01,8.546e+00,1.021e+01,9.490e+00,9.426e+00,9.105e+00,8.822e+00,1.117e+01,9.789e+00,9.829e+00,8.386e+00,1.149e+01,8.372e+00,1.144e+01,1.029e+01,1.014e+01,9.002e+00,9.689e+00
3.127e-02,1.404e+00,1.413e+00,1.228e+00,1.760e+00,2.201e+00,2.480e+00,2.950e+00,2.145e+00,3.602e+00,4.223e+00,2.820e+00,3.362e+00,4.379e+00,4.543e+00,3.632e+00,5.085e+00,4.634e+00,5.716e+00,6.585e+00,4.770e+00,5.520e+00,5.044e+00,7.015e+00,5.054e+00,7.024e+00,6.758e+00,7.082e+00,6.964e+00,7.520e+00,5.383e+00,6.162e+00,8.158e+00,9.355e+00,7.663e+00,7.682e+00,7.162e+00,9.261e+00,9.054e+00,8.100e+00,8.752e+00,7.847e+00,1.029e+01,9.165e+00,9.567e+00,1.047e+01,1.050e+01,1.060e+01,1.004e+01,1.154e+01,1.110e+01,1.156e+01,1.145e+01,1.147e+01,1.362e+01,1.256e+01,1.238e+01,1.178e+01,1.141e+01,1.284e+01,1.288e+01,1.282e+01,1.009e+01,1.243e+01,9.852e+00,1.236e+01,1.006e+01,1.257e+01,1.237e+01,1.120e+01,1.165e+01,1.224e+01,1.230e+01,1.124e+01,1.081e+01,1.081e+01,1.414e+01,1.297e+01,1.307e+01,1.135e+01,1.128e+01,1.067e+01,1.134e+01,1.094e+01,1.091e+01,1.120e+01,1.275e+01,1.011e+01,1.011e+01,1.320e+01,1.241e+01,1.450e+01,1.185e+01,1.112e+01,1.043e+01,1.304e+01
2.139e-03,4.176e-01,6.059e-01,7.796e-01,1.200e+00,9.938e-01,1.196e+00,1.586e+00,9.646e-01,2.219e+00,2.240e+00,2.233e+00,2.838e+00,1.826e+00,3.652e+00,2.103e+00,3.518e+00,4.097e+00,4.717e+00,5.740e+00,3.704e+00,4.233e+00,5.246e+00,5.165e+00,4.637e+00,6.168e+00,6.465e+00,6.421e+00,6.593e+00,7.283e+00,5.225e+00,5.984e+00,8.393e+00,1.014e+01,7.678e+00,9.407e+00,9.074e+00,1.220e+01,1.115e+01,9.713e+00,9.380e+00,8.573e+00,1.107e+01,1.195e+01,1.074e+01,1.179e+01,1.384e+01,1.311e+01,1.276e+01,1.165e+01,1.169e+01,1.456e+01,1.375e+01,1.377e+01,1.473e+01,1.323e+01,1.509e+01,1.364e+01,1.343e+01,1.358e+01,1.454e+01,1.267e+01,1.277e+01,1.315e+01,1.184e+01,1.331e+01,1.261e+01,1.463e+01,1.418e+01,1.282e+01,1.265e+01,1.361e+01,1.340e+01,1.274e+01,1.272e+01,1.225e+01,1.394e+01,1.351e+01,1.487e+01,1.243e+01,1.254e+01,1.305e+01,1.184e+01,1.207e+01,1.396e+01,1.310e+01,1.481e+01,1.308e+01,1.223e+01,1.538e+01,1.300e+01,1.579e+01,1.332e+01,1.512e+01,1.199e+01,1.354e+01
1.239e-02,5.879e-01,5.354e-01,8.665e-01,1.005e+00,1.675e+00,2.112e+00,3.232e+00,1.930e+00,3.373e+00,2.628e+00,2.598e+00,3.359e+00,3.623e+00,4.517e+00,3.103e+00,5.519e+00,5.159e+00,5.344e+00,6.967e+00,6.246e+00,5.646e+00,5.656e+00,6.754e+00,6.594e+00,7.053e+00,7.007e+00,6.993e+00,7.016e+00,9.320e+00,5.927e+00,6.968e+00,9.155e+00,1.177e+01,9.362e+00,1.113e+01,9.994e+00,1.098e+01,1.106e+01,1.049e+01,9.541e+00,9.677e+00,1.206e+01,1.243e+01,1.169e+01,1.175e+01,1.306e+01,1.164e+01,1.170e+01,1.312e+01,1.267e+01,1.401e+01,1.338e+01,1.435e+01,1.573e+01,1.275e+01,1.447e+01,1.342e+01,1.415e+01,1.400e+01,1.515e+01,1.362e+01,1.216e+01,1.445e+01,1.418e+01,1.382e+01,1.301e+01,1.434e+01,1.388e+01,1.287e+01,1.498e+01,1.439e+01,1.431e+01,1.309e+01,1.242e+01,1.258e+01,1.497e+01,1.367e+01,1.512e+01,1.399e+01,1.266e+01,1.381e+01,1.422e+01,1.306e+01,1.232e+01,1.321e+01,1.440e+01,1.291e+01,1.170e+01,1.513e+01,1.224e+01,1.504e+01,1.348e+01,1.454e+01,1.120e+01,1.289e+01
2.417e-02,1.032e+00,1.121e+00,9.508e-01,1.456e+00,1.770e+00,1.849e+00,2.147e+00,1.828e+00,2.632e+00,2.698e+00,2.599e+00,3.082e+00,3.235e+00,4.209e+00,3.481e+00,5.218e+00,5.350e+00,5.346e+00,7.283e+00,5.573e+00,5.635e+00,6.793e+00,6.803e+00,6.329e+00,6.987e+00,8.061e+00,7.877e+00,7.662e+00,8.526e+00,5.818e+00,6.575e+00,8.618e+00,1.009e+01,8.427e+00,9.901e+00,9.039e+00,1.171e+01,1.039e+01,1.023e+01,8.721e+00,9.139e+00,1.197e+01,1.093e+01,1.114e+01,1.279e+01,1.372e+01,1.330e+01,1.210e+01,1.327e+01,1.224e+01,1.363e+01,1.343e+01,1.449e+01,1.478e+01,1.348e+01,1.574e+01,1.452e+01,1.478e+01,1.412e+01,1.572e+01,1.430e+01,1.261e+01,1.474e+01,1.328e+01,1.439e+01,1.252e+01,1.598e+01,1.573e+01,1.456e+01,1.512e+01,1.437e+01,1.411e+01,1.230e+01,1.279e+01,1.350e+01,1.657e+01,1.506e+01,1.686e+01,1.446e+01,1.370e+01,1.335e+01,1.352e+01,1.260e+01,1.321e+01,1.335e+01,1.508e+01,1.320e+01,1.277e+01,1.673e+01,1.254e+01,1.643e+01,1.561e+01,1.511e+01,1.281e+01,1.333e+01
1.478e-02,6.770e-01,8.557e-01,1.159e+00,1.448e+00,1.621e+00,1.998e+00,3.058e+00,1.704e+00,3.638e+00,3.940e+00,3.029e+00,3.302e+00,3.832e+00,5.040e+00,3.532e+00,5.909e+00,5.897e+00,5.379e+00,7.051e+00,6.637e+00,5.657e+00,7.256e+00,6.472e+00,7.170e+00,6.906e+00,8.268e+00,8.663e+00,8.412e+00,9.198e+00,7.306e+00,7.673e+00,9.786e+00,1.220e+01,9.553e+00,1.042e+01,1.020e+01,1.304e+01,1.132e+01,1.016e+01,1.020e+01,9.342e+00,1.289e+01,1.131e+01,1.267e+01,1.274e+01,1.407e+01,1.288e+01,1.139e+01,1.322e+01,1.187e+01,1.377e+01,1.345e+01,1.340e+01,1.483e+01,1.299e+01,1.527e+01,1.389e+01,1.392e+01,1.448e+01,1.452e+01,1.224e+01,1.337e+01,1.468e+01,1.415e+01,1.394e+01,1.251e+01,1.434e+01,1.433e+01,1.446e+01,1.602e+01,1.331e+01,1.296e+01,1.336e+01,1.311e+01,1.210e+01,1.668e+01,1.431e+01,1.536e+01,1.269e+01,1.415e+01,1.306e+01,1.333e+01,1.398e+01,1.341e+01,1.420e+01,1.451e+01,1.268e+01,1.225e+01,1.506e+01,1.257e+01,1.649e+01,1.416e+01,1.412e+01,1.255e+01,1.202e+01
1.383e-02,6.459e-01,8.906e-01,8.592e-01,1.308e+00,1.083e+00,1.202e+00,1.779e+00,1.199e+00,2.341e+00,2.915e+00,2.118e+00,3.411e+00,2.748e+00,4.029e+00,2.759e+00,4.334e+00,5.740e+00,4.994e+00,6.150e+00,5.606e+00,4.790e+00,5.861e+00,6.469e+00,5.916e+00,6.658e+00,6.340e+00,7.285e+00,7.663e+00,7.277e+00,5.997e+00,6.825e+00,8.155e+00,1.025e+01,8.029e+00,7.988e+00,8.600e+00,9.859e+00,9.937e+00,8.691e+00,9.361e+00,7.520e+00,9.458e+00,9.337e+00,1.068e+01,1.031e+01,1.209e+01,1.107e+01,9.394e+00,1.086e+01,1.049e+01,1.194e+01,1.153e+01,1.282e+01,1.387e+01,1.304e+01,1.492e+01,1.199e+01,1.178e+01,1.256e+01,1.437e+01,1.279e+01,1.180e+01,1.272e+01,1.143e+01,1.309e+01,1.119e+01,1.364e+01,1.382e+01,1.264e+01,1.237e+01,1.331e+01,1.238e+01,1.208e+01,1.292e+01,1.202e+01,1.525e+01,1.141e+01,1.451e+01,1.233e+01,1.237e+01,1.342e+01,1.251e+01,1.183e+01,1.316e+01,1.336e+01,1.396e+01,1.186e+01,1.188e+01,1.357e+01,1.254e+01,1.512e+01,1.335e+01,1.283e+01,1.120e+01,1.235e+01
7.573e-03,5.502e-01,6.132e-01,8.158e-01,9.507e-01,1.180e+00,1.579e+00,2.577e+00,1.164e+00,2.230e+00,3.043e+00,1.971e+00,2.548e+00,3.026e+00,4.189e+00,2.178e+00,4.239e+00,4.531e+00,3.871e+00,4.984e+00,5.125e+00,4.291e+00,4.916e+00,4.878e+00,5.303e+00,5.590e+00,6.509e+00,6.551e+00,7.274e+00,7.766e+00,6.154e+00,5.687e+00,7.861e+00,9.754e+00,8.763e+00,8.483e+00,7.565e+00,9.742e+00,9.405e+00,8.666e+00,7.512e+00,8.251e+00,8.959e+00,9.629e+00,1.100e+01,1.139e+01,1.364e+01,1.089e+01,1.055e+01,1.062e+01,1.258e+01,1.146e+01,1.174e+01,1.273e+01,1.516e+01,1.317e+01,1.509e+01,1.407e+01,1.373e+01,1.495e+01,1.487e+01,1.358e+01,1.225e+01,1.511e+01,1.323e+01,1.243e+01,1.248e+01,1.434e+01,1.354e+01,1.396e+01,1.517e+01,1.385e+01,1.422e+01,1.217e+01,1.253e+01,1.312e+01,1.515e+01,1.272e+01,1.404e+01,1.168e+01,1.336e+01,1.440e+01,1.378e+01,1.238e+01,1.271e+01,1.276e+01,1.503e+01,1.304e+01,1.210e+01,1.444e+01,1.209e+01,1.658e+01,1.421e+01,1.310e+01,1.126e+01,1.323e+01
1.743e-02,6.246e-01,9.909e-01,8.789e-01,1.365e+00,1.366e+00,1.391e+00,2.795e+00,1.871e+00,3.124e+00,3.028e+00,2.898e+00,3.192e+00,3.248e+00,4.778e+00,3.113e+00,4.216e+00,5.637e+00,5.043e+00,6.277e+00,5.882e+00,4.730e+00,5.789e+00,5.776e+00,5.553e+00,6.586e+00,7.781e+00,7.659e+00,7.634e+00,8.791e+00,6.252e+00,6.681e+00,8.597e+00,1.068e+01,8.050e+00,9.132e+00,9.704e+00,1.140e+01,9.979e+00,9.345e+00,8.805e+00,8.485e+00,1.208e+01,1.136e+01,1.214e+01,1.320e+01,1.441e+01,1.358e+01,1.182e+01,1.379e+01,1.317e+01,1.388e+01,1.499e+01,1.380e+01,1.567e+01,1.406e+01,1.643e+01,1.625e+01,1.517e+01,1.637e+01,1.599e+01,1.465e+01,1.436e+01,1.671e+01,1.508e+01,1.443e+01,1.525e+01,1.626e+01,1.639e+01,1.698e+01,1.626e+01,1.574e+01,1.604e+01,1.426e+01,1.443e+01,1.546e+01,1.833e+01,1.526e+01,1.569e+01,1.377e+01,1.469e+01,1.656e+01,1.541e+01,1.391e+01,1.528e+01,1.766e+01,1.530e+01,1.453e+01,1.374e+01,1.663e+01,1.440e+01,1.827e+01,1.715e+01,1.544e+01,1.397e+01,1.457e+01
2.448e-02,9.290e-01,8.574e-01,6.797e-01,9.531e-01,1.415e+00,1.537e+00,1.683e+00,1.554e+00,2.498e+00,2.597e+00,2.614e+00,2.283e+00,3.380e+00,3.327e+00,3.476e+00,5.027e+00,5.080e+00,4.637e+00,6.141e+00,5.077e+00,4.685e+00,6.485e+00,6.894e+00,6.408e+00,6.138e+00,6.412e+00,6.859e+00,7.132e+00,7.955e+00,5.536e+00,6.439e+00,6.742e+00,8.823e+00,6.372e+00,7.319e+00,6.879e+00,8.689e+00,8.019e+00,7.895e+00,7.233e+00,6.421e+00,8.512e+00,8.655e+00,9.569e+00,1.060e+01,1.142e+01,1.088e+01,8.675e+00,9.694e+00,9.473e+00,1.137e+01,1.039e+01,1.132e+01,1.301e+01,1.124e+01,1.197e+01,1.118e+01,1.200e+01,1.384e+01,1.355e+01,1.070e+01,9.858e+00,1.247e+01,1.138e+01,1.308e+01,1.135e+01,1.387e+01,1.237e+01,1.296e+01,1.210e+01,1.223e+01,1.169e+01,9.957e+00,1.074e+01,1.124e+01,1.375e+01,1.234e+01,1.338e+01,1.137e+01,1.155e+01,1.289e+01,1.147e+01,1.095e+01,1.177e+01,1.185e+01,1.290e+01,9.841e+00,1.146e+01,1.362e+01,1.163e+01,1.347e+01,1.290e+01,1.452e+01,1.157e+01,1.121e+01
1.648e-02,5.337e-01,5.996e-01,4.708e-01,7.738e-01,9.210e-01,9.094e-01,1.153e+00,1.247e+00,2.369e+00,2.546e+00,2.424e+00,2.644e+00,2.978e+00,2.774e+00,3.392e+00,4.882e+00,5.124e+00,4.688e+00,6.302e+00,6.445e+00,5.355e+00,6.275e+00,7.077e+00,6.538e+00,6.438e+00,6.819e+00,7.231e+00,7.655e+00,7.851e+00,6.129e+00,6.686e+00,8.968e+00,1.107e+01,9.105e+00,9.770e+00,8.576e+00,1.002e+01,9.780e+00,8.383e+00,8.454e+00,7.788e+00,1.020e+01,1.159e+01,1.103e+01,1.197e+01,1.191e+01,1.212e+01,1.057e+01,1.162e+01,1.077e+01,1.299e+01,1.203e+01,1.400e+01,1.492e+01,1.333e+01,1.377e+01,1.408e+01,1.306e+01,1.383e+01,1.626e+01,1.330e+01,1.263e+01,1.413e+01,1.280e+01,1.443e+01,1.315e+01,1.534e+01,1.499e+01,1.460e+01,1.539e+01,1.395e+01,1.390e+01,1.313e+01,1.389e+01,1.283e+01,1.630e+01,1.460e+01,1.578e+01,1.462e+01,1.375e+01,1.424e+01,1.442e+01,1.280e+01,1.451e+01,1.391e+01,1.423e+01,1.199e+01,1.377e+01,1.493e+01,1.363e+01,1.599e+01,1.354e+01,1.621e+01,1.158e+01,1.394e+01
1.046e-02,5.431e-01,8.948e-01,1.123e+00,1.551e+00,1.444e+00,1.666e+00,2.788e+00,1.551e+00,3.083e+00,3.507e+00,2.489e+00,3.149e+00,3.025e+00,4.210e+00,2.557e+00,4.907e+00,4.652e+00,5.509e+00,6.228e+00,5.434e+00,4.819e+00,4.856e+00,6.460e+00,5.275e+00,6.636e+00,5.915e+00,7.010e+00,6.959e+00,6.768e+00,5.296e+00,6.566e+00,8.670e+00,9.622e+00,7.897e+00,9.653e+00,8.493e+00,1.010e+01,9.848e+00,7.424e+00,8.937e+00,7.702e+00,1.055e+01,1.015e+01,1.059e+01,1.160e+01,1.240e+01,1.247e+01,1.131e+01,1.207e+01,1.220e+01,1.437e+01,1.422e+01,1.467e+01,1.542e+01,1.394e+01,1.521e+01,1.418e+01,1.472e+01,1.560e+01,1.599e+01,1.467e+01,1.443e+01,1.639e+01,1.482e+01,1.569e+01,1.370e+01,1.711e+01,1.491e+01,1.524e+01,1.660e+01,1.579e+01,1.550e+01,1.631e+01,1.404e+01,1.430e+01,1.767e+01,1.694e+01,1.705e+01,1.501e+01,1.393e+01,1.502e+01,1.391e+01,1.393e+01,1.450e+01,1.767e+01,1.691e+01,1.420e+01,1.554e+01,1.636e+01,1.426e+01,1.781e+01,1.572e+01,1.603e+01,1.374e+01,1.547e+01
2.873e-02,1.334e+00,1.551e+00,1.222e+00,1.930e+00,1.993e+00,2.113e+00,2.764e+00,2.108e+00,3.489e+00,4.457e+00,2.948e+00,3.593e+00,4.214e+00,4.844e+00,3.953e+00,6.071e+00,6.498e+00,5.657e+00,7.279e+00,6.885e+00,6.031e+00,6.606e+00,6.428e+00,6.557e+00,7.100e+00,7.528e+00,8.319e+00,8.372e+00,7.927e+00,6.881e+00,6.408e+00,8.332e+00,1.103e+01,7.890e+00,8.566e+00,9.034e+00,1.135e+01,1.018e+01,9.231e+00,9.889e+00,9.729e+00,1.169e+01,1.158e+01,1.239e+01,1.305e+01,1.472e+01,1.342e+01,1.198e+01,1.365e+01,1.267e+01,1.336e+01,1.510e+01,1.550e+01,1.713e+01,1.449e+01,1.705e+01,1.717e+01,1.410e+01,1.722e+01,1.592e+01,1.567e+01,1.511e+01,1.776e+01,1.665e+01,1.765e+01,1.483e+01,1.783e+01,1.742e+01,1.677e+01,1.780e+01,1.584e+01,1.582e+01,1.572e+01,1.652e+01,1.620e+01,1.862e+01,1.731e+01,1.717e+01,1.610e+01,1.691e+01,1.639e+01,1.609e+01,1.497e+01,1.622e+01,1.838e+01,1.606e+01,1.564e+01,1.591e+01,1.844e+01,1.583e+01,1.902e+01,1.674e+01,1.588e+01,1.601e+01,1.642e+01
1.093e-02,6.294e-01,9.715e-01,1.073e+00,1.470e+00,1.439e+00,1.531e+00,2.215e+00,1.552e+00,1.804e+00,2.637e+00,2.065e+00,3.055e+00,2.650e+00,4.035e+00,2.142e+00,4.214e+00,4.422e+00,4.967e+00,6.265e+00,5.355e+00,5.159e+00,4.923e+00,6.043e+00,5.781e+00,5.915e+00,6.755e+00,6.934e+00,7.474e+00,7.104e+00,5.575e+00,5.783e+00,8.594e+00,1.067e+01,8.853e+00,1.034e+01,9.338e+00,1.013e+01,9.846e+00,9.338e+00,8.573e+00,8.864e+00,1.105e+01,1.152e+01,1.104e+01,1.102e+01,1.326e+01,1.247e+01,1.180e+01,1.262e+01,1.241e+01,1.348e+01,1.319e+01,1.360e+01,1.572e+01,1.349e+01,1.556e+01,1.544e+01,1.476e+01,1.609e+01,1.614e+01,1.535e+01,1.406e+01,1.695e+01,1.547e+01,1.527e+01,1.479e+01,1.763e+01,1.649e+01,1.595e+01,1.715e+01,1.629e+01,1.591e+01,1.493e+01,1.455e+01,1.543e+01,1.777e+01,1.654e+01,1.744e+01,1.623e+01,1.601e+01,1.622e+01,1.465e+01,1.476e+01,1.535e+01,1.819e+01,1.681e+01,1.501e+01,1.498e+01,1.796e+01,1.581e+01,1.808e+01,1.775e+01,1.652e+01,1.304e+01,1.589e+01
2.748e-02,9.384e-01,1.288e+00,1.511e+00,1.810e+00,1.743e+00,1.983e+00,2.650e+00,1.662e+00,2.929e+00,4.097e+00,3.101e+00,3.191e+00,4.059e+00,3.718e+00,3.506e+00,4.761e+00,4.451e+00,5.087e+00,5.859e+00,5.250e+00,4.178e+00,5.525e+00,7.253e+00,6.203e+00,6.928e+00,6.844e+00,7.534e+00,8.703e+00,8.159e+00,6.341e+00,7.630e+00,9.278e+00,1.081e+01,9.235e+00,9.447e+00,9.409e+00,1.129e+01,1.069e+01,9.654e+00,9.906e+00,8.292e+00,1.168e+01,1.134e+01,1.241e+01,1.230e+01,1.237e+01,1.191e+01,1.097e+01,1.271e+01,1.089e+01,1.419e+01,1.201e+01,1.403e+01,1.539e+01,1.486e+01,1.485e+01,1.305e+01,1.409e+01,1.647e+01,1.756e+01,1.475e+01,1.279e+01,1.614e+01,1.508e+01,1.677e+01,1.435e+01,1.741e+01,1.602e+01,1.633e+01,1.803e+01,1.651e+01,1.710e+01,1.517e+01,1.544e+01,1.456e+01,1.797e+01,1.526e+01,1.740e+01,1.649e+01,1.687e+01,1.582e+01,1.582e+01,1.419e+01,1.633e+01,1.662e+01,1.625e+01,1.359e+01,1.448e+01,1.781e+01,1.678e+01,1.985e+01,1.611e+01,1.720e+01,1.470e+01,1.534e+01
2.611e-02,1.103e+00,1.330e+00,1.194e+00,1.719e+00,1.916e+00,1.969e+00,2.379e+00,2.348e+00,3.179e+00,3.229e+00,3.271e+00,3.182e+00,3.830e+00,3.691e+00,3.841e+00,4.973e+00,5.455e+00,5.270e+00,7.044e+00,5.878e+00,5.252e+00,6.658e+00,7.044e+00,6.272e+00,6.920e+00,6.964e+00,7.600e+00,8.131e+00,8.689e+00,7.223e+00,7.032e+00,7.973e+00,1.109e+01,7.636e+00,9.323e+00,9.286e+00,1.131e+01,9.637e+00,1.016e+01,9.462e+00,9.658e+00,1.209e+01,1.183e+01,1.120e+01,1.200e+01,1.385e+01,1.212e+01,1.125e+01,1.262e+01,1.038e+01,1.309e+01,1.293e+01,1.352e+01,1.449e+01,1.200e+01,1.498e+01,1.462e+01,1.332e+01,1.650e+01,1.493e+01,1.362e+01,1.303e+01,1.655e+01,1.715e+01,1.845e+01,1.382e+01,1.846e+01,1.715e+01,1.741e+01,1.666e+01,1.707e+01,1.648e+01,1.616e+01,1.529e+01,1.586e+01,1.807e+01,1.681e+01,1.723e+01,1.715e+01,1.704e+01,1.806e+01,1.593e+01,1.487e+01,1.553e+01,1.938e+01,1.529e+01,1.503e+01,1.727e+01,1.934e+01,1.511e+01,1.855e+01,1.798e+01,1.845e+01,1.548e+01,1.607e+01
3.363e-03,1.607e-01,3.609e-01,9.693e-01,9.827e-01,1.125e+00,1.538e+00,2.772e+00,1.706e+00,3.158e+00,2.347e+00,2.970e+00,3.640e+00,3.206e+00,4.274e+00,2.895e+00,4.802e+00,5.190e+00,6.078e+00,6.527e+00,5.796e+00,5.078e+00,6.375e+00,6.219e+00,6.647e+00,7.220e+00,6.858e+00,7.544e+00,7.451e+00,8.745e+00,5.411e+00,6.038e+00,8.113e+00,1.098e+01,8.471e+00,1.028e+01,8.844e+00,1.132e+01,1.123e+01,9.975e+00,9.693e+00,1.003e+01,1.172e+01,1.129e+01,1.179e+01,1.185e+01,1.387e+01,1.220e+01,1.070e+01,1.269e+01,1.281e+01,1.343e+01,1.345e+01,1.564e+01,1.723e+01,1.465e+01,1.720e+01,1.508e+01,1.563e+01,1.593e+01,1.763e+01,1.646e+01,1.516e+01,1.806e+01,1.658e+01,1.797e+01,1.579e+01,1.972e+01,1.736e+01,1.761e+01,1.894e+01,1.881e+01,1.841e+01,1.709e+01,1.749e+01,1.729e+01,1.969e+01,1.822e+01,1.984e+01,1.813e+01,1.747e+01,1.887e+01,1.662e+01,1.550e+01,1.691e+01,2.001e+01,1.764e+01,1.642e+01,1.763e+01,2.017e+01,1.711e+01,1.970e+01,1.842e+01,1.807e+01,1.479e+01,1.646e+01
1.299e-03,5.323e-01,5.826e-01,1.147e+00,1.376e+00,1.794e+00,2.437e+00,3.863e+00,1.996e+00,3.962e+00,3.557e+00,3.079e+00,4.191e+00,3.781e+00,6.058e+00,3.264e+00,5.849e+00,6.607e+00,6.643e+00,7.851e+00,6.587e+00,5.959e+00,6.783e+00,6.622e+00,7.072e+00,8.026e+00,8.267e+00,9.011e+00,8.622e+00,9.688e+00,6.897e+00,7.287e+00,8.886e+00,1.186e+01,1.032e+01,1.070e+01,9.801e+00,1.195e+01,1.157e+01,1.099e+01,1.068e+01,1.081e+01,1.297e+01,1.312e+01,1.278e+01,1.372e+01,1.468e+01,1.378e+01,1.184e+01,1.406e+01,1.310e+01,1.499e+01,1.484e+01,1.644e+01,1.803e+01,1.442e+01,1.720e+01,1.711e+01,1.701e+01,1.734e+01,1.842e+01,1.720e+01,1.533e+01,1.970e+01,1.853e+01,1.919e+01,1.701e+01,2.044e+01,1.798e+01,1.958e+01,2.110e+01,1.929e+01,2.030e+01,1.989e+01,1.772e+01,1.835e+01,2.077e+01,1.971e+01,1.948e+01,1.848e+01,1.984e+01,1.989e+01,1.887e+01,1.717e+01,1.677e+01,2.206e+01,1.975e+01,1.762e+01,1.916e+01,2.122e+01,1.733e+01,2.206e+01,1.921e+01,2.006e+01,1.556e+01,2.004e+01
1.414e-02,4.624e-01,9.186e-01,1.152e+00,1.464e+00,1.293e+00,1.397e+00,2.544e+00,2.057e+00,3.453e+00,3.239e+00,3.858e+00,3.381e+00,3.678e+00,3.972e+00,3.690e+00,5.381e+00,5.789e+00,5.387e+00,6.797e+00,6.781e+00,5.413e+00,6.678e+00,6.857e+00,6.874e+00,7.265e+00,6.461e+00,7.768e+00,8.282e+00,8.350e+00,6.761e+00,6.067e+00,8.674e+00,1.109e+01,8.614e+00,1.006e+01,9.985e+00,1.258e+01,1.209e+01,1.055e+01,9.596e+00,8.978e+00,1.179e+01,1.128e+01,1.337e+01,1.231e+01,1.365e+01,1.343e+01,1.269e+01,1.360e+01,1.182e+01,1.378e+01,1.412e+01,1.426e+01,1.639e+01,1.391e+01,1.584e+01,1.467e+01,1.547e+01,1.644e+01,1.728e+01,1.491e+01,1.396e+01,1.700e+01,1.564e+01,1.845e+01,1.533e+01,1.919e+01,1.691e+01,1.768e+01,1.850e+01,1.782e+01,1.785e+01,1.532e+01,1.725e+01,1.743e+01,1.881e+01,1.709e+01,1.843e+01,1.801e+01,1.654e+01,1.707e+01,1.831e+01,1.535e+01,1.693e+01,1.931e+01,1.666e+01,1.664e+01,1.687e+01,1.994e+01,1.733e+01,1.869e+01,1.730e+01,1.859e+01,1.527e+01,1.736e+01
5.997e-03,3.597e-01,4.190e-01,7.208e-01,9.064e-01,9.425e-01,1.269e+00,1.833e+00,1.114e+00,2.826e+00,2.427e+00,2.017e+00,2.520e+00,2.334e+00,3.042e+00,2.677e+00,4.101e+00,5.018e+00,4.637e+00,5.782e+00,5.618e+00,4.578e+00,6.055e+00,6.072e+00,5.733e+00,6.885e+00,6.278e+00,7.928e+00,7.757e+00,7.843e+00,6.629e+00,6.970e+00,8.198e+00,1.080e+01,7.998e+00,1.015e+01,9.444e+00,1.000e+01,9.345e+00,9.369e+00,9.150e+00,8.159e+00,1.099e+01,1.102e+01,1.112e+01,1.108e+01,1.306e+01,1.095e+01,1.107e+01,1.245e+01,1.180e+01,1.349e+01,1.317e+01,1.454e+01,1.495e+01,1.344e+01,1.494e+01,1.374e+01,1.290e+01,1.476e+01,1.571e+01,1.453e+01,1.342e+01,1.601e+01,1.583e+01,1.637e+01,1.406e+01,1.753e+01,1.681e+01,1.731e+01,1.753e+01,1.841e+01,1.753e+01,1.647e+01,1.599e+01,1.689e+01,1.987e+01,1.811e+01,1.891e+01,1.721e+01,1.588e+01,1.740e+01,1.732e+01,1.681e+01,1.528e+01,1.910e+01,1.687e+01,1.741e+01,1.876e+01,1.751e+01,1.517e+01,1.995e+01,1.684e+01,1.799e+01,1.464e+01,1.766e+01
3.802e-03,5.158e-01,6.530e-01,8.614e-01,1.185e+00,1.354e+00,1.674e+00,2.679e+00,1.689e+00,2.741e+00,2.740e+00,2.728e+00,3.853e+00,3.112e+00,4.271e+00,2.988e+00,4.539e+00,5.517e+00,5.459e+00,6.974e+00,6.298e+00,5.513e+00,5.531e+00,6.409e+00,5.826e+00,7.072e+00,6.699e+00,7.517e+00,7.695e+00,7.586e+00,5.575e+00,5.656e+00,7.231e+00,1.043e+01,8.657e+00,9.796e+00,8.487e+00,9.321e+00,1.015e+01,8.742e+00,8.588e+00,8.405e+00,9.823e+00,9.340e+00,1.115e+01,1.018e+01,1.293e+01,1.088e+01,1.009e+01,1.180e+01,1.164e+01,1.219e+01,1.185e+01,1.315e+01,1.482e+01,1.201e+01,1.464e+01,1.319e+01,1.346e+01,1.396e+01,1.538e+01,1.383e+01,1.218e+01,1.657e+01,1.444e+01,1.601e+01,1.320e+01,1.806e+01,1.634e+01,1.563e+01,1.675e+01,1.873e+01,1.796e+01,1.625e+01,1.615e+01,1.788e+01,1.927e+01,1.726e+01,1.748e+01,1.735e+01,1.632e+01,1.740e+01,1.779e+01,1.497e+01,1.690e+01,2.001e+01,1.707e+01,1.621e+01,1.687e+01,1.915e+01,1.564e+01,1.851e+01,1.820e+01,1.646e+01,1.406e+01,1.748e+01
7.017e-03,4.888e-01,7.188e-01,8.990e-01,1.124e+00,1.129e+00,1.356e+00,2.173e+00,1.521e+00,2.564e+00,3.473e+00,3.033e+00,3.234e+00,3.567e+00,4.302e+00,2.839e+00,4.752e+00,4.750e+00,4.752e+00,6.354e+00,5.381e+00,5.558e+00,5.763e+00,7.055e+00,5.882e+00,6.039e+00,6.655e+00,6.736e+00,7.297e+00,8.046e+00,5.907e+00,6.513e+00,8.745e+00,1.021e+01,9.055e+00,8.871e+00,7.943e+00,1.102e+01,1.067e+01,8.339e+00,8.693e+00,7.891e+00,1.094e+01,1.117e+01,1.087e+01,1.155e+01,1.153e+01,1.169e+01,1.056e+01,1.152e+01,1.078e+01,1.272e+01,1.211e+01,1.311e+01,1.451e+01,1.364e+01,1.390e+01,1.457e+01,1.435e+01,1.555e+01,1.695e+01,1.444e+01,1.323e+01,1.598e+01,1.443e+01,1.835e+01,1.384e+01,1.781e+01,1.686e+01,1.763e+01,1.724e+01,1.642e+01,1.839e+01,1.692e+01,1.756e+01,1.488e+01,1.963e+01,1.810e+01,1.951e+01,1.745e+01,1.716e+01,1.601e+01,1.764e+01,1.553e+01,1.856e+01,1.848e+01,1.666e+01,1.568e+01,1.751e+01,1.982e+01,1.706e+01,1.814e+01,1.744e+01,1.729e+01,1.668e+01,1.696e+01
2.465e-02,1.055e+00,1.162e+00,1.250e+00,1.690e+00,1.772e+00,2.027e+00,2.139e+00,1.947e+00,3.559e+00,3.394e+00,3.292e+00,3.589e+00,3.768e+00,3.454e+00,4.309e+00,4.722e+00,5.450e+00,5.366e+00,6.983e+00,6.083e+00,5.197e+00,6.430e+00,5.689e+00,5.924e+00,7.219e+00,7.848e+00,7.529e+00,8.045e+00,9.457e+00,6.897e+00,6.638e+00,1.007e+01,1.225e+01,9.891e+00,1.017e+01,9.972e+00,1.255e+01,1.141e+01,9.974e+00,9.923e+00,9.717e+00,1.307e+01,1.151e+01,1.150e+01,1.226e+01,1.383e+01,1.226e+01,1.185e+01,1.330e+01,1.235e+01,1.419e+01,1.404e+01,1.544e+01,1.502e+01,1.418e+01,1.673e+01,1.611e+01,1.419e+01,1.523e+01,1.840e+01,1.515e+01,1.419e+01,1.798e+01,1.597e+01,1.883e+01,1.550e+01,1.984e+01,1.733e+01,1.650e+01,1.845e+01,2.015e+01,1.920e+01,1.828e+01,1.762e+01,1.744e+01,2.125e+01,2.044e+01,2.106e+01,2.008e+01,1.785e+01,1.934e+01,1.939e+01,1.751e+01,1.820e+01,2.123e+01,1.852e+01,1.792e+01,1.847e+01,2.233e+01,1.866e+01,2.002e+01,1.882e+01,1.974e+01,1.673e+01,1.836e+01
1.865e-03,1.395e-01,2.336e-01,5.445e-01,6.529e-01,9.830e-01,1.276e+00,2.636e+00,1.680e+00,3.583e+00,3.250e+00,2.833e+00,3.081e+00,3.551e+00,4.106e+00,2.984e+00,5.313e+00,4.800e+00,5.386e+00,5.974e+00,6.368e+00,6.034e+00,5.613e+00,6.272e+00,6.025e+00,5.798e+00,6.405e+00,7.169e+00,7.017e+00,6.947e+00,5.976e+00,5.388e+00,7.636e+00,1.071e+01,8.170e+00,8.403e+00,8.334e+00,1.042e+01,9.656e+00,8.841e+00,8.274e+00,8.722e+00,1.031e+01,1.195e+01,1.163e+01,1.245e+01,1.333e+01,1.157e+01,1.093e+01,1.277e+01,1.220e+01,1.232e+01,1.357e+01,1.474e+01,1.640e+01,1.483e+01,1.580e+01,1.659e+01,1.407e+01,1.465e+01,1.739e+01,1.518e+01,1.378e+01,1.688e+01,1.674e+01,1.709e+01,1.575e+01,1.925e+01,1.793e+01,1.767e+01,1.834e+01,1.784e+01,1.926e+01,1.853e+01,2.028e+01,1.780e+01,2.073e+01,1.952e+01,2.142e+01,1.844e+01,1.730e+01,1.756e+01,1.838e+01,1.751e+01,1.850e+01,2.129e+01,1.840e+01,1.894e+01,1.747e+01,2.121e+01,1.844e+01,2.086e+01,1.747e+01,1.851e+01,1.672e+01,1.961e+01
1.934e-02,9.878e-01,9.337e-01,1.036e+00,1.418e+00,1.625e+00,1.994e+00,2.086e+00,1.492e+00,2.895e+00,2.629e+00,2.340e+00,3.437e+00,3.005e+00,3.749e+00,3.241e+00,4.527e+00,4.821e+00,4.687e+00,6.422e+00,4.956e+00,5.029e+00,5.007e+00,4.759e+00,5.304e+00,5.508e+00,6.432e+00,6.449e+00,6.559e+00,7.514e+00,5.151e+00,5.302e+00,6.745e+00,9.522e+00,6.854e+00,7.509e+00,6.652e+00,1.028e+01,9.498e+00,8.867e+00,8.856e+00,9.406e+00,1.162e+01,1.155e+01,1.108e+01,1.131e+01,1.396e+01,1.242e+01,1.121e+01,1.279e+01,1.082e+01,1.244e+01,1.347e+01,1.347e+01,1.520e+01,1.405e+01,1.575e+01,1.601e+01,1.367e+01,1.608e+01,1.715e+01,1.507e+01,1.487e+01,1.598e+01,1.658e+01,1.751e+01,1.633e+01,1.952e+01,1.900e+01,1.725e+01,1.836e+01,1.938e+01,1.835e+01,1.936e+01,2.023e+01,1.994e+01,2.198e+01,2.096e+01,2.028e+01,1.898e+01,1.852e+01,2.082e+01,2.049e+01,1.936e+01,1.869e+01,2.187e+01,1.954e+01,2.000e+01,1.934e+01,2.261e+01,1.744e+01,2.136e+01,2.020e+01,1.972e+01,1.705e+01,1.844e+01
8.181e-03,4.855e-01,8.077e-01,1.060e+00,1.276e+00,1.301e+00,1.548e+00,2.732e+00,1.627e+00,2.259e+00,3.013e+00,2.860e+00,3.449e+00,3.357e+00,4.354e+00,2.971e+00,4.664e+00,4.838e+00,4.682e+00,6.598e+00,5.436e+00,4.896e+00,5.598e+00,6.348e+00,5.277e+00,6.716e+00,6.225e+00,6.942e+00,6.850e+00,7.842e+00,5.862e+00,6.625e+00,8.397e+00,9.757e+00,7.159e+00,8.491e+00,8.846e+00,1.086e+01,1.002e+01,9.214e+00,8.972e+00,9.285e+00,1.095e+01,1.065e+01,1.098e+01,1.233e+01,1.419e+01,1.200e+01,1.154e+01,1.318e+01,1.194e+01,1.289e+01,1.259e+01,1.485e+01,1.543e+01,1.380e+01,1.581e+01,1.495e+01,1.443e+01,1.598e+01,1.639e+01,1.437e+01,1.309e+01,1.597e+01,1.559e+01,1.720e+01,1.470e+01,1.933e+01,1.764e+01,1.791e+01,1.787e+01,1.836e+01,1.891e+01,1.851e+01,1.920e+01,1.794e+01,2.106e+01,1.885e+01,2.087e+01,1.901e+01,1.697e+01,1.913e+01,1.851e+01,1.585e+01,1.742e+01,2.091e+01,1.913e+01,1.862e+01,1.812e+01,2.109e+01,1.759e+01,2.120e+01,1.971e+01,1.799e+01,1.646e+01,1.846e+01
2.994e-02,1.274e+00,1.590e+00,1.624e+00,2.063e+00,1.865e+00,2.132e+00,2.482e+00,1.687e+00,2.384e+00,3.047e+00,2.243e+00,2.541e+00,3.002e+00,3.263e+00,2.573e+00,3.471e+00,4.417e+00,3.952e+00,5.345e+00,4.755e+00,3.880e+00,5.541e+00,5.937e+00,4.926e+00,6.875e+00,5.670e+00,6.620e+00,7.315e+00,8.273e+00,5.964e+00,7.029e+00,8.575e+00,9.406e+00,8.191e+00,8.318e+00,8.088e+00,1.078e+01,8.701e+00,7.392e+00,8.064e+00,7.307e+00,1.028e+01,1.029e+01,9.863e+00,1.111e+01,1.206e+01,1.119e+01,9.904e+00,1.112e+01,1.105e+01,1.316e+01,1.201e+01,1.368e+01,1.373e+01,1.424e+01,1.458e+01,1.439e+01,1.233e+01,1.581e+01,1.554e+01,1.456e+01,1.198e+01,1.549e+01,1.448e+01,1.626e+01,1.472e+01,1.880e+01,1.628e+01,1.583e+01,1.710e+01,1.826e+01,1.836e+01,1.639e+01,1.646e+01,1.743e+01,2.041e+01,1.884e+01,1.976e+01,1.896e+01,1.644e+01,1.848e+01,1.774e+01,1.510e+01,1.903e+01,2.043e+01,1.819e+01,1.673e+01,1.746e+01,1.797e+01,1.805e+01,1.970e+01,1.837e+01,1.692e+01,1.700e+01,1.829e+01
2.627e-02,8.874e-01,9.923e-01,7.521e-01,1.149e+00,1.585e+00,1.622e+00,2.494e+00,1.966e+00,3.237e+00,2.927e+00,2.699e+00,2.093e+00,3.492e+00,3.770e+00,3.248e+00,5.228e+00,4.916e+00,5.237e+00,6.410e+00,6.243e+00,5.640e+00,6.250e+00,6.637e+00,5.945e+00,6.708e+00,6.948e+00,7.290e+00,7.019e+00,8.044e+00,6.099e+00,5.720e+00,8.302e+00,1.095e+01,8.848e+00,1.025e+01,9.669e+00,1.074e+01,9.985e+00,9.749e+00,9.373e+00,8.557e+00,1.105e+01,1.056e+01,1.147e+01,1.181e+01,1.230e+01,1.262e+01,1.161e+01,1.248e+01,1.245e+01,1.347e+01,1.399e+01,1.354e+01,1.631e+01,1.340e+01,1.555e+01,1.486e+01,1.411e+01,1.491e+01,1.653e+01,1.443e+01,1.252e+01,1.717e+01,1.478e+01,1.665e+01,1.500e+01,1.744e+01,1.594e+01,1.704e+01,1.679e+01,1.790e+01,1.767e+01,1.599e+01,1.699e+01,1.791e+01,2.153e+01,2.069e+01,2.050e+01,1.861e+01,1.807e+01,1.921e+01,2.051e+01,1.795e+01,1.873e+01,2.061e+01,1.889e+01,1.945e+01,1.808e+01,2.053e+01,1.813e+01,2.160e+01,1.904e+01,1.870e+01,1.605e+01,2.124e+01
1.741e-02,7.736e-01,8.176e-01,8.070e-01,1.199e+00,1.284e+00,1.455e+00,1.569e+00,1.251e+00,2.695e+00,3.169e+00,2.327e+00,3.103e+00,3.103e+00,3.782e+00,3.409e+00,5.400e+00,5.540e+00,5.881e+00,7.505e+00,6.277e+00,6.065e+00,6.469e+00,6.934e+00,6.667e+00,6.857e+00,7.717e+00,8.008e+00,8.219e+00,8.794e+00,6.615e+00,7.590e+00,9.878e+00,1.178e+01,9.962e+00,1.110e+01,9.378e+00,1.138e+01,1.201e+01,9.436e+00,9.999e+00,8.965e+00,1.259e+01,1.233e+01,1.178e+01,1.242e+01,1.352e+01,1.307e+01,1.212e+01,1.376e+01,1.200e+01,1.495e+01,1.497e+01,1.468e+01,1.626e+01,1.461e+01,1.533e+01,1.540e+01,1.487e+01,1.619e+01,1.857e+01,1.616e+01,1.465e+01,1.761e+01,1.666e+01,1.761e+01,1.630e+01,1.893e+01,1.799e+01,1.759e+01,1.920e+01,1.949e+01,2.038e+01,1.830e+01,1.870e+01,1.798e+01,2.189e+01,2.232e+01,2.257e+01,1.946e+01,2.056e+01,2.039e+01,2.088e+01,1.873e+01,2.028e+01,2.315e+01,2.088e+01,1.894e+01,2.022e+01,2.240e+01,1.876e+01,2.188e+01,1.939e+01,2.102e+01,1.648e+01,2.125e+01
4.598e-04,5.499e-01,7.104e-01,8.320e-01,1.295e+00,1.240e+00,1.472e+00,1.935e+00,1.334e+00,2.180e+00,2.576e+00,2.654e+00,3.571e+00,2.439e+00,3.664e+00,2.913e+00,3.954e+00,4.720e+00,4.142e+00,6.150e+00,4.679e+00,4.237e+00,4.856e+00,4.937e+00,4.608e+00,6.481e+00,5.737e+00,6.287e+00,5.837e+00,6.576e+00,4.566e+00,5.291e+00,7.884e+00,9.226e+00,7.354e+00,8.463e+00,8.148e+00,8.876e+00,9.089e+00,7.197e+00,8.791e+00,8.182e+00,9.177e+00,9.516e+00,8.935e+00,9.722e+00,1.185e+01,1.106e+01,1.057e+01,1.031e+01,1.131e+01,1.238e+01,1.195e+01,1.433e+01,1.422e+01,1.224e+01,1.458e+01,1.363e+01,1.277e+01,1.436e+01,1.516e+01,1.326e+01,1.256e+01,1.625e+01,1.383e+01,1.628e+01,1.421e+01,1.702e+01,1.564e+01,1.555e+01,1.543e+01,1.744e+01,1.771e+01,1.755e+01,1.734e+01,1.751e+01,2.007e+01,1.954e+01,2.209e+01,1.978e+01,1.843e+01,2.023e+01,1.944e+01,1.828e+01,1.875e+01,2.148e+01,2.118e+01,1.846e+01,2.234e+01,2.116e+01,1.838e+01,2.170e+01,2.009e+01,1.991e+01,1.698e+01,2.091e+01
8.508e-03,7.512e-01,8.051e-01,7.848e-01,1.255e+00,1.631e+00,1.844e+00,2.533e+00,1.772e+00,2.856e+00,3.506e+00,2.457e+00,3.464e+00,3.451e+00,4.841e+00,2.689e+00,5.923e+00,4.887e+00,5.370e+00,6.720e+00,5.719e+00,6.653e+00,5.680e+00,6.822e+00,6.216e+00,6.231e+00,6.028e+00,7.028e+00,6.541e+00,6.183e+00,4.879e+00,5.581e+00,7.517e+00,9.421e+00,7.932e+00,9.337e+00,7.907e+00,9.446e+00,9.876e+00,8.788e+00,8.513e+00,8.339e+00,1.023e+01,1.083e+01,1.107e+01,1.131e+01,1.075e+01,1.175e+01,1.007e+01,1.231e+01,1.170e+01,1.221e+01,1.246e+01,1.348e+01,1.581e+01,1.255e+01,1.498e+01,1.286e+01,1.401e+01,1.481e+01,1.534e+01,1.422e+01,1.158e+01,1.522e+01,1.425e+01,1.697e+01,1.279e+01,1.780e+01,1.583e+01,1.515e+01,1.677e+01,1.580e+01,1.624e+01,1.622e+01,1.563e+01,1.626e+01,1.959e+01,1.911e+01,2.017e+01,1.822e+01,1.783e+01,1.658e+01,1.725e+01,1.768e+01,1.657e+01,1.963e+01,1.844e+01,1.803e+01,1.718e+01,2.055e+01,1.864e+01,2.024e+01,1.680e+01,1.693e+01,1.543e+01,1.894e+01
2.641e-02,1.187e+00,1.189e+00,1.093e+00,1.610e+00,2.156e+00,2.410e+00,3.043e+00,1.999e+00,3.199e+00,3.055e+00,2.259e+00,2.958e+00,3.353e+00,4.064e+00,3.622e+00,4.893e+00,5.343e+00,5.386e+00,6.512e+00,5.895e+00,4.755e+00,6.212e+00,5.017e+00,5.871e+00,7.062e+00,7.094e+00,7.485e+00,6.939e+00,7.533e+00,5.421e+00,5.886e+00,8.485e+00,1.043e+01,9.276e+00,9.837e+00,9.700e+00,1.138e+01,1.042e+01,8.606e+00,8.681e+00,9.198e+00,1.066e+01,1.011e+01,1.149e+01,1.115e+01,1.301e+01,1.115e+01,1.058e+01,1.227e+01,1.191e+01,1.202e+01,1.464e+01,1.365e+01,1.555e+01,1.404e+01,1.575e+01,1.577e+01,1.437e+01,1.640e+01,1.767e+01,1.515e+01,1.459e+01,1.736e+01,1.614e+01,1.694e+01,1.605e+01,1.684e+01,1.604e+01,1.813e+01,1.792e+01,1.924e+01,1.824e+01,1.772e+01,1.852e+01,1.796e+01,2.250e+01,2.042e+01,2.119e+01,1.825e+01,2.138e+01,2.214e+01,2.084e+01,1.869e+01,1.927e+01,2.289e+01,2.012e+01,1.990e+01,2.020e+01,2.202e+01,1.890e+01,2.069e+01,2.091e+01,1.886e+01,1.613e+01,2.156e+01
1.798e-02,9.236e-01,1.166e+00,1.543e+00,1.724e+00,1.912e+00,2.334e+00,3.085e+00,1.760e+00,2.098e+00,2.715e+00,2.227e+00,2.655e+00,3.108e+00,4.492e+00,2.385e+00,4.698e+00,4.764e+00,4.895e+00,6.793e+00,4.939e+00,4.565e+00,5.502e+00,5.039e+00,5.070e+00,6.095e+00,5.718e+00,5.874e+00,5.992e+00,7.762e+00,4.651e+00,5.759e+00,7.534e+00,9.215e+00,7.442e+00,9.234e+00,7.525e+00,9.537e+00,8.777e+00,6.948e+00,7.106e+00,7.273e+00,9.626e+00,9.002e+00,8.898e+00,9.747e+00,1.136e+01,9.828e+00,9.826e+00,9.748e+00,1.068e+01,1.120e+01,1.126e+01,1.178e+01,1.295e+01,1.248e+01,1.209e+01,1.295e+01,1.222e+01,1.407e+01,1.336e+01,1.133e+01,1.177e+01,1.472e+01,1.283e+01,1.419e+01,1.203e+01,1.545e+01,1.448e+01,1.441e+01,1.427e+01,1.574e+01,1.562e+01,1.581e+01,1.559e+01,1.629e+01,1.791e+01,1.901e+01,1.892e+01,1.786e+01,1.688e+01,1.781e+01,1.849e+01,1.758e+01,1.927e+01,1.964e+01,1.872e+01,1.813e+01,1.762e+01,1.976e+01,1.720e+01,2.028e+01,1.827e+01,1.685e+01,1.647e+01,1.785e+01
6.686e-03,2.921e-01,5.085e-01,1.079e+00,1.129e+00,1.055e+00,1.391e+00,1.881e+00,1.530e+00,2.778e+00,2.062e+00,2.623e+00,2.978e+00,2.650e+00,3.634e+00,2.935e+00,4.528e+00,5.280e+00,4.875e+00,6.493e+00,5.465e+00,5.005e+00,6.825e+00,5.044e+00,5.732e+00,6.755e+00,6.228e+00,7.317e+00,7.025e+00,8.196e+00,6.277e+00,5.190e+00,7.661e+00,1.019e+01,7.193e+00,9.133e+00,8.353e+00,1.144e+01,9.577e+00,9.280e+00,8.118e+00,8.659e+00,1.161e+01,1.080e+01,1.141e+01,1.109e+01,1.346e+01,1.139e+01,1.212e+01,1.129e+01,1.036e+01,1.268e+01,1.339e+01,1.479e+01,1.504e+01,1.243e+01,1.580e+01,1.474e+01,1.459e+01,1.393e+01,1.543e+01,1.496e+01,1.451e+01,1.675e+01,1.623e+01,1.698e+01,1.529e+01,1.952e+01,1.712e+01,1.672e+01,1.831e+01,1.648e+01,1.808e+01,1.782e+01,1.823e+01,1.757e+01,2.005e+01,2.196e+01,2.137e+01,2.006e+01,1.910e+01,2.064e+01,2.151e+01,1.993e+01,1.921e+01,2.288e+01,2.139e+01,2.150e+01,2.194e+01,2.230e+01,2.031e+01,2.164e+01,2.032e+01,2.043e+01,1.838e+01,2.034e+01
7.941e-03,3.581e-01,5.978e-01,7.055e-01,9.764e-01,9.570e-01,1.142e+00,2.327e+00,1.155e+00,2.604e+00,3.419e+00,2.593e+00,3.001e+00,3.191e+00,3.865e+00,2.898e+00,4.560e+00,4.696e+00,5.252e+00,6.436e+00,6.217e+00,5.304e+00,6.070e+00,7.485e+00,5.638e+00,7.427e+00,7.463e+00,8.304e+00,8.980e+00,8.667e+00,7.421e+00,7.626e+00,9.528e+00,1.200e+01,9.643e+00,1.136e+01,9.555e+00,1.185e+01,1.221e+01,1.008e+01,9.978e+00,8.988e+00,1.124e+01,1.177e+01,1.288e+01,1.343e+01,1.564e+01,1.359e+01,1.413e+01,1.342e+01,1.425e+01,1.447e+01,1.470e+01,1.523e+01,1.914e+01,1.636e+01,1.819e+01,1.621e+01,1.573e+01,1.889e+01,1.954e+01,1.719e+01,1.583e+01,1.950e+01,1.764e+01,1.928e+01,1.746e+01,2.026e+01,1.887e+01,1.888e+01,2.102e+01,2.164e+01,2.180e+01,2.009e+01,2.033e+01,2.052e+01,2.408e+01,2.213e+01,2.411e+01,2.171e+01,2.185e+01,2.452e+01,2.462e+01,2.341e+01,2.330e+01,2.585e+01,2.481e+01,2.274e+01,2.436e+01,2.595e+01,2.267e+01,2.637e+01,2.430e+01,2.494e+01,1.988e+01,2.399e+01
1.928e-02,8.483e-01,7.615e-01,8.952e-01,1.217e+00,1.962e+00,2.292e+00,3.075e+00,2.080e+00,3.738e+00,3.184e+00,2.946e+00,3.430e+00,3.954e+00,4.757e+00,3.588e+00,5.523e+00,5.073e+00,6.012e+00,7.056e+00,5.754e+00,5.644e+00,5.837e+00,6.886e+00,6.548e+00,6.800e+00,7.423e+00,7.574e+00,7.338e+00,8.496e+00,5.754e+00,6.721e+00,8.566e+00,1.111e+01,8.933e+00,1.020e+01,8.237e+00,1.010e+01,9.742e+00,8.752e+00,8.457e+00,8.288e+00,1.068e+01,1.016e+01,1.122e+01,1.150e+01,1.285e+01,1.178e+01,1.030e+01,1.243e+01,1.146e+01,1.319e+01,1.217e+01,1.244e+01,1.494e+01,1.358e+01,1.485e+01,1.415e+01,1.396e+01,1.614e+01,1.691e+01,1.502e+01,1.317e+01,1.554e+01,1.586e+01,1.682e+01,1.512e+01,1.843e+01,1.858e+01,1.820e+01,1.815e+01,1.974e+01,1.872e+01,1.782e+01,1.752e+01,1.885e+01,2.205e+01,2.143e+01,2.209e+01,1.959e+01,2.128e+01,2.005e+01,2.061e+01,2.062e+01,2.012e+01,2.333e+01,2.209e+01,1.971e+01,2.124e+01,2.309e+01,2.026e+01,2.381e+01,2.094e+01,2.196e+01,1.887e+01,2.182e+01
1.656e-02,1.042e+00,1.190e+00,1.045e+00,1.558e+00,1.538e+00,1.786e+00,2.303e+00,1.221e+00,1.958e+00,3.445e+00,2.183e+00,3.214e+00,3.027e+00,3.927e+00,2.851e+00,3.561e+00,4.186e+00,3.461e+00,5.243e+00,4.117e+00,3.721e+00,4.431e+00,4.985e+00,3.708e+00,6.479e+00,6.190e+00,7.133e+00,7.115e+00,7.329e+00,5.336e+00,6.076e+00,7.505e+00,8.936e+00,6.980e+00,8.214e+00,8.439e+00,1.007e+01,8.676e+00,8.843e+00,9.255e+00,7.670e+00,1.062e+01,1.057e+01,1.061e+01,1.128e+01,1.174e+01,1.209e+01,1.121e+01,1.154e+01,1.154e+01,1.227e+01,1.240e+01,1.311e+01,1.521e+01,1.257e+01,1.454e+01,1.390e+01,1.296e+01,1.556e+01,1.583e+01,1.405e+01,1.316e+01,1.440e+01,1.484e+01,1.595e+01,1.585e+01,1.836e+01,1.579e+01,1.589e+01,1.786e+01,1.803e+01,1.807e+01,1.762e+01,1.787e+01,1.846e+01,2.015e+01,1.983e+01,1.938e+01,1.832e+01,1.790e+01,2.047e+01,2.071e+01,1.852e+01,1.944e+01,2.198e+01,2.094e+01,2.001e+01,2.050e+01,2.359e+01,2.101e+01,2.383e+01,2.143e+01,1.987e+01,1.901e+01,2.087e+01
1.282e-03,5.412e-01,6.243e-01,6.890e-01,1.143e+00,1.447e+00,1.775e+00,3.162e+00,1.975e+00,3.752e+00,3.528e+00,3.157e+00,3.745e+00,3.487e+00,4.536e+00,3.182e+00,5.062e+00,5.278e+00,5.283e+00,6.318e+00,5.679e+00,5.513e+00,4.967e+00,7.032e+00,5.814e+00,7.184e+00,6.428e+00,7.903e+00,7.328e+00,7.377e+00,5.643e+00,6.423e+00,7.809e+00,1.011e+01,7.486e+00,8.901e+00,9.151e+00,1.014e+01,1.019e+01,9.626e+00,9.784e+00,8.494e+00,1.062e+01,1.046e+01,1.203e+01,1.176e+01,1.311e+01,1.186e+01,1.055e+01,1.289e+01,1.208e+01,1.317e+01,1.338e+01,1.376e+01,1.493e+01,1.304e+01,1.486e+01,1.371e+01,1.371e+01,1.392e+01,1.519e+01,1.358e+01,1.228e+01,1.515e+01,1.392e+01,1.615e+01,1.320e+01,1.647e+01,1.630e+01,1.586e+01,1.653e+01,1.669e+01,1.736e+01,1.720e+01,1.886e+01,1.804e+01,2.115e+01,1.928e+01,2.010e+01,1.656e+01,1.828e+01,1.833e+01,1.824e+01,1.840e+01,1.811e+01,2.198e+01,1.924e+01,2.061e+01,2.037e+01,2.281e+01,2.150e+01,2.299e+01,1.926e+01,1.978e+01,1.960e+01,2.244e+01
2.213e-02,1.171e+00,1.164e+00,1.239e+00,1.741e+00,2.233e+00,2.603e+00,3.145e+00,2.291e+00,3.783e+00,3.554e+00,3.164e+00,4.007e+00,4.079e+00,4.461e+00,4.223e+00,5.544e+00,6.142e+00,5.931e+00,7.834e+00,6.631e+00,5.713e+00,6.498e+00,7.259e+00,6.981e+00,7.639e+00,8.185e+00,8.382e+00,8.737e+00,9.525e+00,6.272e+00,7.485e+00,9.269e+00,1.222e+01,9.715e+00,1.187e+01,9.900e+00,1.220e+01,1.138e+01,9.910e+00,9.885e+00,8.908e+00,1.362e+01,1.224e+01,1.262e+01,1.294e+01,1.435e+01,1.346e+01,1.186e+01,1.271e+01,1.311e+01,1.490e+01,1.464e+01,1.473e+01,1.652e+01,1.372e+01,1.659e+01,1.608e+01,1.514e+01,1.589e+01,1.697e+01,1.444e+01,1.490e+01,1.801e+01,1.743e+01,1.838e+01,1.646e+01,2.006e+01,1.870e+01,1.825e+01,2.000e+01,2.092e+01,1.880e+01,1.934e+01,1.868e+01,2.121e+01,2.328e+01,2.339e+01,2.312e+01,2.091e+01,2.269e+01,2.298e+01,2.295e+01,2.263e+01,2.254e+01,2.532e+01,2.364e+01,2.342e+01,2.465e+01,2.745e+01,2.318e+01,2.480e+01,2.307e+01,2.382e+01,2.336e+01,2.355e+01
1.875e-02,1.087e+00,1.304e+00,1.687e+00,2.049e+00,2.295e+00,2.748e+00,3.436e+00,2.654e+00,3.964e+00,4.478e+00,3.967e+00,4.786e+00,4.946e+00,5.335e+00,4.501e+00,6.705e+00,6.576e+00,6.619e+00,8.018e+00,6.814e+00,6.830e+00,8.015e+00,7.837e+00,8.107e+00,8.967e+00,8.665e+00,9.696e+00,9.514e+00,9.920e+00,7.384e+00,8.320e+00,1.091e+01,1.325e+01,9.942e+00,9.826e+00,1.094e+01,1.281e+01,1.216e+01,1.096e+01,1.109e+01,1.074e+01,1.362e+01,1.210e+01,1.305e+01,1.365e+01,1.494e+01,1.399e+01,1.091e+01,1.530e+01,1.307e+01,1.501e+01,1.481e+01,1.553e+01,1.612e+01,1.448e+01,1.723e+01,1.647e+01,1.671e+01,1.738e+01,1.809e+01,1.629e+01,1.531e+01,1.764e+01,1.728e+01,1.828e+01,1.656e+01,2.091e+01,1.862e+01,1.944e+01,1.977e+01,2.034e+01,2.096e+01,1.963e+01,1.986e+01,1.982e+01,2.406e+01,2.222e+01,2.412e+01,2.062e+01,2.169e+01,2.217e+01,2.109e+01,2.238e+01,2.089e+01,2.619e+01,2.373e+01,2.221e+01,2.306e+01,2.649e+01,2.435e+01,2.700e+01,2.451e+01,2.228e+01,2.291e+01,2.347e+01
2.877e-02,1.118e+00,1.098e+00,1.003e+00,1.492e+00,2.005e+00,2.136e+00,2.216e+00,1.860e+00,3.105e+00,2.857e+00,2.414e+00,2.721e+00,3.269e+00,3.724e+00,3.708e+00,4.737e+00,4.936e+00,5.398e+00,6.476e+00,4.865e+00,4.532e+00,5.958e+00,5.529e+00,5.883e+00,5.998e+00,6.634e+00,6.388e+00,6.384e+00,6.392e+00,5.093e+00,5.444e+00,7.373e+00,9.339e+00,7.135e+00,8.002e+00,7.840e+00,1.062e+01,9.623e+00,7.641e+00,7.760e+00,7.365e+00,1.012e+01,9.894e+00,9.776e+00,1.084e+01,1.209e+01,1.121e+01,1.055e+01,1.140e+01,1.042e+01,1.283e+01,1.358e+01,1.277e+01,1.548e+01,1.381e+01,1.450e+01,1.546e+01,1.189e+01,1.527e+01,1.603e+01,1.408e+01,1.305e+01,1.604e+01,1.645e+01,1.739e+01,1.615e+01,1.695e+01,1.552e+01,1.738e+01,1.731e+01,1.889e+01,1.870e+01,1.660e+01,1.758e+01,1.816e+01,2.022e+01,1.947e+01,2.002e+01,1.802e+01,1.885e+01,1.994e+01,1.965e+01,1.802e+01,1.975e+01,2.163e+01,2.069e+01,1.811e+01,2.118e+01,2.395e+01,2.040e+01,2.291e+01,2.055e+01,2.087e+01,1.904e+01,2.153e+01
2.574e-02,7.573e-01,8.823e-01,1.131e+00,1.257e+00,1.632e+00,1.835e+00,2.272e+00,1.747e+00,2.460e+00,2.434e+00,2.332e+00,2.972e+00,3.505e+00,3.184e+00,3.281e+00,4.255e+00,3.741e+00,4.857e+00,5.840e+00,4.885e+00,4.204e+00,5.238e+00,4.841e+00,4.862e+00,6.126e+00,6.689e+00,6.041e+00,6.313e+00,8.289e+00,4.850e+00,5.631e+00,8.345e+00,1.041e+01,8.113e+00,9.636e+00,7.962e+00,1.069e+01,9.711e+00,7.635e+00,7.529e+00,8.291e+00,1.121e+01,9.949e+00,9.923e+00,1.135e+01,1.336e+01,1.126e+01,1.038e+01,1.115e+01,1.129e+01,1.206e+01,1.177e+01,1.180e+01,1.425e+01,1.297e+01,1.306e+01,1.479e+01,1.327e+01,1.621e+01,1.494e+01,1.219e+01,1.332e+01,1.438e+01,1.385e+01,1.494e+01,1.427e+01,1.484e+01,1.481e+01,1.601e+01,1.492e+01,1.596e+01,1.618e+01,1.449e+01,1.523e+01,1.728e+01,1.866e+01,1.816e+01,1.880e+01,1.648e+01,1.832e+01,1.915e+01,1.819e+01,1.798e+01,1.786e+01,1.944e+01,1.976e+01,1.870e+01,1.860e+01,2.277e+01,2.041e+01,2.338e+01,2.187e+01,1.940e+01,2.010e+01,1.984e+01
2.731e-02,8.941e-01,1.207e+00,1.269e+00,1.649e+00,1.612e+00,1.781e+00,2.644e+00,1.921e+00,3.586e+00,3.803e+00,3.557e+00,3.504e+00,4.130e+00,4.325e+00,3.987e+00,5.020e+00,5.886e+00,6.601e+00,7.441e+00,6.341e+00,5.205e+00,6.199e+00,7.740e+00,6.410e+00,7.521e+00,7.420e+00,8.383e+00,9.175e+00,9.773e+00,7.089e+00,8.243e+00,9.784e+00,1.238e+01,1.033e+01,1.099e+01,1.017e+01,1.189e+01,1.168e+01,9.232e+00,1.049e+01,8.202e+00,1.212e+01,1.120e+01,1.260e+01,1.280e+01,1.332e+01,1.237e+01,1.092e+01,1.390e+01,1.144e+01,1.465e+01,1.382e+01,1.373e+01,1.557e+01,1.548e+01,1.506e+01,1.488e+01,1.380e+01,1.635e+01,1.835e+01,1.554e+01,1.404e+01,1.602e+01,1.504e+01,1.698e+01,1.556e+01,1.832e+01,1.791e+01,1.866e+01,1.844e+01,2.041e+01,1.978e+01,1.766e+01,2.022e+01,2.004e+01,2.258e+01,2.154e+01,2.282e+01,2.158e+01,2.059e+01,2.047e+01,2.114e+01,2.103e+01,2.299e+01,2.494e+01,2.211e+01,2.201e+01,2.378e+01,2.650e+01,2.574e+01,2.793e+01,2.606e+01,2.554e+01,2.340e+01,2.667e+01
1.526e-02,8.916e-01,6.745e-01,8.848e-01,1.090e+00,1.793e+00,2.270e+00,2.604e+00,1.663e+00,3.160e+00,3.229e+00,2.597e+00,3.109e+00,3.746e+00,3.836e+00,3.472e+00,5.796e+00,4.467e+00,5.154e+00,6.289e+00,5.334e+00,5.463e+00,5.684e+00,6.301e+00,6.275e+00,6.940e+00,6.865e+00,7.291e+00,6.956e+00,7.894e+00,4.885e+00,5.789e+00,7.832e+00,9.892e+00,7.830e+00,8.084e+00,7.166e+00,9.520e+00,9.184e+00,7.903e+00,8.402e+00,7.831e+00,9.696e+00,8.780e+00,9.881e+00,1.045e+01,1.185e+01,1.144e+01,9.736e+00,1.038e+01,1.099e+01,1.177e+01,1.045e+01,1.242e+01,1.394e+01,1.310e+01,1.403e+01,1.363e+01,1.372e+01,1.478e+01,1.641e+01,1.420e+01,1.322e+01,1.539e+01,1.357e+01,1.615e+01,1.419e+01,1.747e+01,1.713e+01,1.588e+01,1.688e+01,1.767e+01,1.743e+01,1.671e+01,1.746e+01,1.701e+01,2.245e+01,2.070e+01,2.182e+01,1.907e+01,2.047e+01,1.940e+01,2.001e+01,1.861e+01,1.973e+01,2.065e+01,2.252e+01,1.953e+01,2.108e+01,2.322e+01,2.264e+01,2.470e+01,2.193e+01,2.197e+01,1.967e+01,2.419e+01
3.118e-02,1.133e+00,1.423e+00,1.238e+00,1.884e+00,1.978e+00,2.033e+00,2.878e+00,2.376e+00,4.031e+00,3.561e+00,3.724e+00,3.627e+00,4.093e+00,4.979e+00,4.333e+00,6.038e+00,6.604e+00,6.534e+00,8.512e+00,6.913e+00,6.218e+00,6.955e+00,7.670e+00,6.542e+00,8.096e+00,8.684e+00,8.998e+00,9.350e+00,1.063e+01,7.549e+00,7.380e+00,9.677e+00,1.231e+01,8.871e+00,1.090e+01,1.011e+01,1.204e+01,1.144e+01,1.062e+01,1.072e+01,9.705e+00,1.342e+01,1.110e+01,1.197e+01,1.288e+01,1.405e+01,1.309e+01,1.163e+01,1.291e+01,1.203e+01,1.366e+01,1.456e+01,1.455e+01,1.544e+01,1.352e+01,1.645e+01,1.493e+01,1.496e+01,1.486e+01,1.641e+01,1.438e+01,1.347e+01,1.688e+01,1.587e+01,1.805e+01,1.479e+01,1.798e+01,1.846e+01,1.752e+01,1.745e+01,1.799e+01,1.756e+01,1.586e+01,1.734e+01,1.829e+01,2.086e+01,1.991e+01,2.124e+01,2.012e+01,2.033e+01,1.921e+01,1.993e+01,2.145e+01,2.011e+01,2.299e+01,2.157e+01,2.075e+01,2.166e+01,2.485e+01,2.147e+01,2.580e+01,2.280e+01,2.425e+01,2.229e+01,2.578e+01
6.722e-03,7.780e-01,5.649e-01,6.199e-01,9.195e-01,1.462e+00,1.884e+00,2.289e+00,1.686e+00,3.233e+00,2.830e+00,2.229e+00,2.517e+00,2.983e+00,3.204e+00,2.814e+00,4.579e+00,4.769e+00,3.816e+00,5.155e+00,4.959e+00,4.676e+00,4.501e+00,4.984e+00,5.074e+00,6.123e+00,5.074e+00,6.155e+00,6.309e+00,8.077e+00,5.953e+00,6.327e+00,8.465e+00,1.038e+01,7.809e+00,8.323e+00,8.913e+00,9.930e+00,8.969e+00,7.759e+00,7.326e+00,7.927e+00,1.030e+01,1.004e+01,9.902e+00,9.332e+00,1.190e+01,9.443e+00,9.565e+00,1.036e+01,1.042e+01,1.278e+01,1.271e+01,1.335e+01,1.335e+01,1.278e+01,1.398e+01,1.332e+01,1.251e+01,1.445e+01,1.666e+01,1.375e+01,1.322e+01,1.408e+01,1.467e+01,1.615e+01,1.546e+01,1.778e+01,1.621e+01,1.606e+01,1.740e+01,1.799e+01,1.877e+01,1.665e+01,1.767e+01,1.681e+01,1.976e+01,2.098e+01,2.097e+01,1.988e+01,1.992e+01,1.991e+01,2.067e+01,1.915e+01,1.884e+01,2.321e+01,2.161e+01,2.113e+01,2.237e+01,2.405e+01,2.277e+01,2.575e+01,2.118e+01,2.226e+01,2.182e+01,2.510e+01
2.239e-02,9.269e-01,9.728e-01,8.679e-01,1.296e+00,1.447e+00,1.619e+00,1.924e+00,1.492e+00,2.862e+00,2.632e+00,2.219e+00,2.493e+00,2.811e+00,3.381e+00,3.407e+00,4.895e+00,5.651e+00,5.104e+00,6.213e+00,5.402e+00,4.400e+00,6.606e+00,5.715e+00,5.734e+00,7.402e+00,6.533e+00,7.777e+00,7.295e+00,7.799e+00,6.287e+00,6.254e+00,8.229e+00,1.005e+01,8.341e+00,8.994e+00,9.665e+00,1.071e+01,9.918e+00,9.358e+00,9.799e+00,9.487e+00,1.051e+01,1.045e+01,1.143e+01,1.230e+01,1.381e+01,1.298e+01,1.210e+01,1.316e+01,1.194e+01,1.295e+01,1.362e+01,1.501e+01,1.514e+01,1.352e+01,1.626e+01,1.587e+01,1.427e+01,1.596e+01,1.705e+01,1.480e+01,1.399e+01,1.717e+01,1.679e+01,1.725e+01,1.536e+01,1.886e+01,1.751e+01,1.752e+01,1.722e+01,1.876e+01,1.722e+01,1.710e+01,1.739e+01,1.710e+01,2.102e+01,1.816e+01,2.169e+01,1.908e+01,1.945e+01,2.072e+01,2.030e+01,1.956e+01,1.950e+01,2.247e+01,2.057e+01,2.057e+01,2.359e+01,2.299e+01,2.040e+01,2.368e+01,2.206e+01,2.407e+01,2.115e+01,2.515e+01
