1.762e-01,9.862e-01,8.160e-03,1.031e-01,4.426e-02,1.542e-01,6.875e-01,3.215e-01,6.965e-01,1.044e-01,5.802e-02,2.607e-01,4.613e-01,2.382e-01,7.995e-01,2.902e-01,5.646e-01,6.564e-01,5.305e-01,6.144e-01,8.950e-01,8.916e-01,1.413e-01,1.067e-01,1.844e-01,2.746e-02,8.814e-01,4.116e-01,8.459e-01,6.115e-01,4.383e-01,7.370e-01,3.783e-02,4.598e-01,1.344e-01,3.718e-01,2.116e-01,3.536e-01,9.817e-01,7.424e-01,4.170e-01,3.166e-01,2.672e-02,8.717e-01,5.882e-01,3.224e-01,8.846e-01,6.985e-01,1.652e-01,2.626e-01,8.932e-02,8.083e-01,4.752e-01,5.777e-01,1.042e-01,3.108e-01,9.280e-01,1.167e-01,1.797e-01,9.004e-01,8.364e-01,9.844e-02,4.100e-01,9.319e-01,7.723e-01,7.120e-01,6.542e-01,4.213e-01,7.693e-01,9.500e-01,2.212e-01,9.253e-02,2.687e-01,4.260e-01,5.817e-01,6.153e-01,5.854e-01,4.038e-01,4.829e-01,6.557e-01,7.950e-01,3.253e-01,5.429e-02,9.440e-01,6.944e-02,2.851e-01,1.132e-01
5.376e-02,8.697e-01,3.034e-02,5.063e-01,1.591e-01,4.196e-01,8.104e-01,7.739e-01,1.014e+00,5.995e-01,2.671e-01,3.875e-01,8.002e-01,9.285e-02,2.540e-01,3.308e-01,9.967e-01,8.622e-01,1.025e+00,8.253e-01,1.212e+00,1.043e+00,5.355e-01,9.376e-01,8.768e-01,5.215e-01,4.095e-01,4.494e-01,4.785e-01,2.007e-01,7.198e-01,1.192e+00,8.364e-01,6.130e-01,1.885e-01,8.089e-01,5.491e-01,1.514e-01,6.951e-01,3.402e-01,1.075e+00,6.490e-01,9.176e-02,7.268e-01,4.532e-01,3.187e-01,7.379e-01,5.057e-01,1.294e-01,4.052e-01,4.446e-01,7.445e-01,4.820e-01,3.683e-01,6.983e-01,1.014e+00,7.234e-01,1.011e+00,4.871e-01,6.677e-01,1.200e+00,4.066e-01,1.395e-01,9.968e-01,7.308e-01,1.037e+00,5.357e-01,6.886e-01,7.839e-01,4.159e-01,5.978e-01,5.964e-01,7.630e-01,1.500e-01,1.012e+00,3.077e-01,1.856e-01,2.578e-01,5.079e-01,1.145e+00,6.423e-01,6.801e-01,9.314e-02,4.642e-01,7.772e-01,3.245e-01,4.139e-01
1.171e-01,9.865e-01,8.624e-01,3.634e-01,1.544e-01,1.301e+00,1.806e+00,6.610e-01,1.428e+00,6.564e-01,5.541e-01,1.170e+00,1.609e+00,1.840e-01,8.141e-01,1.019e+00,1.194e+00,1.807e+00,1.177e+00,9.274e-01,1.338e+00,1.795e+00,5.173e-01,1.301e+00,8.412e-01,7.954e-01,1.173e+00,9.233e-01,1.420e+00,6.977e-01,8.301e-01,1.352e+00,1.415e+00,1.251e+00,2.617e-01,8.202e-01,5.578e-01,3.643e-01,9.491e-01,1.467e+00,1.826e+00,1.326e+00,4.897e-01,1.266e+00,1.373e+00,7.238e-01,1.478e+00,1.431e+00,6.300e-01,9.898e-01,7.708e-01,1.079e+00,1.444e+00,6.449e-01,9.874e-01,9.090e-01,1.662e+00,8.711e-01,1.287e+00,9.105e-01,1.824e+00,5.833e-01,1.279e+00,1.396e+00,1.386e+00,9.859e-01,9.380e-01,7.550e-01,1.239e+00,1.183e+00,9.221e-01,5.336e-01,1.159e+00,1.235e+00,1.030e+00,6.842e-01,1.250e+00,7.617e-01,1.278e+00,1.691e+00,1.639e+00,1.493e+00,1.716e-01,9.929e-01,9.565e-01,7.322e-01,4.735e-01
5.117e-02,5.691e-01,1.626e-01,5.328e-01,3.083e-01,8.024e-01,1.085e+00,8.660e-01,1.670e+00,9.182e-01,3.542e-01,8.603e-01,1.023e+00,1.872e-01,6.633e-01,8.194e-01,7.329e-01,8.868e-01,7.793e-01,7.793e-01,8.453e-01,9.204e-01,5.879e-01,1.535e+00,1.232e+00,4.121e-01,1.012e+00,9.949e-01,5.779e-01,6.749e-01,1.349e+00,1.556e+00,1.507e+00,1.016e+00,2.992e-01,7.001e-01,1.133e+00,2.019e-01,1.438e+00,1.305e+00,1.200e+00,1.486e+00,9.919e-01,1.302e+00,1.422e+00,4.962e-01,1.041e+00,1.095e+00,8.844e-01,1.044e+00,7.602e-01,5.304e-01,5.765e-01,1.174e+00,8.892e-01,1.158e+00,1.501e+00,1.328e+00,1.288e+00,1.115e+00,1.690e+00,8.811e-01,1.030e+00,9.349e-01,1.365e+00,1.216e+00,1.276e+00,6.369e-01,1.044e+00,1.334e+00,8.234e-01,5.009e-01,1.120e+00,3.753e-01,7.124e-01,7.165e-01,4.130e-01,9.489e-01,1.180e+00,1.339e+00,1.017e+00,1.104e+00,5.709e-01,1.140e+00,8.477e-01,6.834e-01,7.863e-01
1.391e-01,7.963e-01,5.969e-01,1.620e-01,3.125e-01,1.109e+00,1.360e+00,1.282e+00,1.135e+00,1.123e+00,6.163e-01,1.010e+00,1.851e+00,2.543e-01,1.054e+00,8.599e-01,1.538e+00,1.378e+00,1.391e+00,1.290e+00,1.780e+00,2.139e+00,5.262e-01,1.595e+00,1.059e+00,1.236e+00,2.020e+00,1.443e+00,1.338e+00,1.556e+00,7.657e-01,1.909e+00,1.553e+00,1.698e+00,5.280e-01,8.248e-01,1.413e+00,6.154e-01,1.245e+00,2.297e+00,1.806e+00,1.386e+00,6.272e-01,1.487e+00,1.486e+00,1.449e+00,1.595e+00,1.692e+00,9.788e-01,9.770e-01,1.102e+00,1.132e+00,1.808e+00,1.736e+00,5.855e-01,7.580e-01,2.148e+00,1.136e+00,1.309e+00,1.258e+00,1.491e+00,6.919e-01,1.760e+00,1.131e+00,1.890e+00,1.050e+00,9.557e-01,5.516e-01,1.931e+00,1.412e+00,1.578e+00,6.372e-01,1.390e+00,1.795e+00,9.372e-01,1.371e+00,1.690e+00,1.542e+00,1.434e+00,1.595e+00,1.572e+00,1.318e+00,1.041e+00,1.391e+00,7.890e-01,1.427e+00,1.220e+00
8.420e-03,4.838e-01,4.288e-01,3.945e-01,3.070e-01,1.752e+00,1.818e+00,1.749e+00,1.640e+00,1.338e+00,9.364e-01,1.038e+00,2.453e+00,6.060e-01,1.189e+00,1.512e+00,2.415e+00,1.561e+00,1.635e+00,1.169e+00,2.314e+00,1.916e+00,1.152e+00,2.194e+00,1.626e+00,1.324e+00,1.622e+00,1.532e+00,9.209e-01,1.237e+00,1.553e+00,1.879e+00,2.625e+00,1.425e+00,1.276e+00,1.776e+00,1.650e+00,6.356e-01,9.786e-01,1.530e+00,2.303e+00,2.105e+00,1.303e+00,9.985e-01,1.502e+00,1.733e+00,1.662e+00,1.937e+00,1.476e+00,1.019e+00,1.541e+00,1.043e+00,1.500e+00,1.732e+00,1.716e+00,1.814e+00,2.187e+00,2.417e+00,1.797e+00,1.254e+00,2.177e+00,1.120e+00,1.069e+00,1.010e+00,1.555e+00,1.051e+00,6.727e-01,1.213e+00,1.603e+00,9.913e-01,2.076e+00,1.792e+00,1.832e+00,1.149e+00,1.913e+00,1.299e+00,9.545e-01,1.427e+00,1.999e+00,1.976e+00,1.799e+00,1.576e+00,1.697e+00,1.412e+00,1.192e+00,1.804e+00,2.048e+00
1.455e-01,9.571e-01,6.372e-01,2.727e-01,2.340e-01,1.645e+00,2.392e+00,1.317e+00,1.889e+00,1.591e+00,8.621e-01,1.253e+00,2.208e+00,1.392e+00,2.286e+00,2.356e+00,2.908e+00,2.001e+00,2.000e+00,1.464e+00,2.976e+00,2.759e+00,1.306e+00,2.371e+00,1.526e+00,1.093e+00,2.734e+00,2.372e+00,2.250e+00,2.381e+00,1.607e+00,2.567e+00,2.060e+00,2.110e+00,1.110e+00,1.496e+00,1.867e+00,9.612e-01,1.979e+00,2.774e+00,2.457e+00,2.075e+00,2.039e+00,1.714e+00,1.931e+00,1.948e+00,2.596e+00,2.866e+00,2.009e+00,1.393e+00,1.468e+00,1.506e+00,1.715e+00,2.373e+00,1.504e+00,1.739e+00,3.261e+00,1.634e+00,1.900e+00,2.121e+00,3.111e+00,1.391e+00,2.421e+00,1.702e+00,2.769e+00,1.565e+00,1.400e+00,2.073e+00,1.962e+00,2.262e+00,1.819e+00,2.052e+00,1.805e+00,1.584e+00,1.838e+00,1.660e+00,1.631e+00,1.461e+00,2.309e+00,2.233e+00,2.876e+00,1.811e+00,1.816e+00,2.643e+00,1.085e+00,2.238e+00,1.802e+00
1.554e-01,1.084e+00,5.760e-01,5.024e-01,4.986e-01,1.732e+00,2.331e+00,2.625e+00,3.065e+00,2.868e+00,1.430e+00,1.821e+00,2.670e+00,1.462e+00,2.967e+00,2.690e+00,3.396e+00,2.755e+00,3.239e+00,1.989e+00,3.826e+00,3.805e+00,1.720e+00,3.224e+00,2.865e+00,2.262e+00,3.911e+00,2.878e+00,2.495e+00,3.065e+00,2.707e+00,3.817e+00,3.093e+00,3.178e+00,1.703e+00,2.055e+00,2.820e+00,1.171e+00,3.475e+00,3.619e+00,3.662e+00,3.481e+00,2.611e+00,3.212e+00,2.466e+00,2.913e+00,3.017e+00,3.785e+00,2.206e+00,2.758e+00,2.325e+00,2.100e+00,2.982e+00,4.068e+00,2.184e+00,2.087e+00,4.601e+00,2.641e+00,2.861e+00,2.850e+00,4.240e+00,2.046e+00,3.284e+00,2.364e+00,4.007e+00,3.002e+00,2.462e+00,2.730e+00,2.762e+00,3.317e+00,3.198e+00,2.097e+00,2.395e+00,1.958e+00,2.200e+00,3.016e+00,2.399e+00,2.443e+00,3.114e+00,3.237e+00,3.227e+00,3.018e+00,3.032e+00,3.274e+00,1.649e+00,3.440e+00,2.969e+00
1.339e-01,1.301e+00,8.026e-01,6.446e-01,2.915e-01,1.935e+00,2.646e+00,1.692e+00,3.453e+00,2.388e+00,1.282e+00,1.775e+00,3.210e+00,1.177e+00,2.705e+00,2.350e+00,2.725e+00,3.544e+00,2.370e+00,2.237e+00,3.167e+00,3.378e+00,2.258e+00,3.043e+00,2.668e+00,2.068e+00,3.243e+00,1.824e+00,2.871e+00,1.732e+00,2.638e+00,2.869e+00,2.824e+00,2.433e+00,1.321e+00,2.657e+00,2.460e+00,1.250e+00,3.199e+00,2.388e+00,3.273e+00,3.106e+00,2.659e+00,2.457e+00,2.922e+00,2.686e+00,2.509e+00,3.332e+00,1.767e+00,2.453e+00,1.682e+00,2.220e+00,2.459e+00,2.424e+00,2.740e+00,2.822e+00,4.225e+00,2.572e+00,2.475e+00,2.049e+00,3.901e+00,1.538e+00,2.098e+00,2.307e+00,2.667e+00,2.351e+00,2.783e+00,2.437e+00,2.126e+00,2.335e+00,2.686e+00,1.683e+00,1.978e+00,1.535e+00,3.115e+00,2.362e+00,1.639e+00,1.750e+00,3.134e+00,3.079e+00,3.544e+00,2.735e+00,2.002e+00,2.683e+00,2.483e+00,2.939e+00,2.365e+00
3.890e-02,7.468e-01,6.852e-02,5.246e-01,3.169e-01,1.142e+00,1.367e+00,1.763e+00,2.306e+00,2.333e+00,1.087e+00,9.439e-01,3.011e+00,1.763e+00,2.133e+00,2.023e+00,2.873e+00,2.351e+00,2.726e+00,1.998e+00,3.149e+00,2.643e+00,2.242e+00,2.801e+00,2.774e+00,2.326e+00,2.761e+00,1.808e+00,2.367e+00,1.290e+00,2.265e+00,3.114e+00,2.703e+00,2.251e+00,2.139e+00,2.968e+00,2.432e+00,1.940e+00,3.080e+00,2.051e+00,2.896e+00,2.686e+00,2.303e+00,2.417e+00,1.898e+00,2.837e+00,2.038e+00,2.204e+00,1.388e+00,1.878e+00,1.595e+00,2.005e+00,1.990e+00,2.525e+00,2.552e+00,3.369e+00,3.620e+00,3.290e+00,2.357e+00,1.886e+00,2.892e+00,1.629e+00,1.644e+00,1.503e+00,2.015e+00,2.132e+00,2.372e+00,2.546e+00,2.033e+00,1.352e+00,2.874e+00,2.243e+00,2.392e+00,1.019e+00,3.050e+00,2.421e+00,1.589e+00,1.667e+00,2.717e+00,2.959e+00,2.651e+00,1.648e+00,2.203e+00,2.217e+00,2.438e+00,3.318e+00,3.256e+00
1.044e-01,1.087e+00,9.986e-02,5.520e-01,3.224e-01,1.151e+00,1.886e+00,1.960e+00,2.747e+00,2.812e+00,1.636e+00,1.744e+00,2.991e+00,2.562e+00,3.122e+00,3.329e+00,4.238e+00,3.314e+00,2.780e+00,2.622e+00,4.554e+00,4.189e+00,2.767e+00,3.843e+00,3.253e+00,2.702e+00,3.705e+00,3.192e+00,3.550e+00,3.463e+00,3.184e+00,3.985e+00,3.184e+00,3.027e+00,2.454e+00,2.702e+00,3.199e+00,2.273e+00,3.591e+00,3.263e+00,3.291e+00,3.108e+00,2.892e+00,2.496e+00,2.820e+00,3.190e+00,3.171e+00,3.475e+00,2.377e+00,2.513e+00,2.122e+00,3.074e+00,1.950e+00,3.908e+00,2.443e+00,3.512e+00,4.332e+00,3.212e+00,2.342e+00,3.349e+00,4.245e+00,1.932e+00,2.208e+00,2.946e+00,3.612e+00,3.114e+00,2.656e+00,3.526e+00,2.405e+00,2.445e+00,3.305e+00,2.597e+00,2.900e+00,1.391e+00,3.709e+00,3.041e+00,2.156e+00,2.106e+00,3.661e+00,3.011e+00,3.984e+00,2.853e+00,3.073e+00,3.309e+00,2.594e+00,3.823e+00,3.633e+00
1.688e-01,1.122e+00,5.696e-01,3.898e-01,3.757e-01,1.670e+00,2.171e+00,1.979e+00,2.770e+00,2.287e+00,1.543e+00,2.097e+00,3.908e+00,2.530e+00,3.555e+00,3.410e+00,4.282e+00,3.502e+00,2.857e+00,2.976e+00,3.856e+00,4.458e+00,2.508e+00,3.613e+00,3.555e+00,3.439e+00,4.416e+00,3.440e+00,3.355e+00,3.368e+00,3.144e+00,4.288e+00,4.211e+00,3.874e+00,3.290e+00,2.999e+00,3.274e+00,2.701e+00,4.101e+00,3.827e+00,3.812e+00,3.477e+00,3.058e+00,3.671e+00,3.901e+00,3.701e+00,3.190e+00,4.021e+00,2.827e+00,3.422e+00,2.711e+00,3.755e+00,3.183e+00,4.336e+00,3.236e+00,3.069e+00,4.646e+00,3.124e+00,3.313e+00,3.780e+00,4.504e+00,1.951e+00,3.101e+00,2.975e+00,4.089e+00,3.175e+00,3.266e+00,3.351e+00,3.634e+00,3.147e+00,3.357e+00,2.693e+00,3.279e+00,2.161e+00,3.628e+00,3.635e+00,3.617e+00,3.009e+00,4.634e+00,3.290e+00,3.873e+00,3.078e+00,2.771e+00,3.266e+00,2.521e+00,4.243e+00,3.814e+00
4.303e-02,5.487e-01,6.689e-01,3.325e-01,3.230e-01,1.610e+00,1.789e+00,1.756e+00,2.177e+00,2.479e+00,1.296e+00,1.447e+00,4.147e+00,2.321e+00,3.111e+00,3.134e+00,4.501e+00,3.493e+00,3.599e+00,2.843e+00,3.568e+00,3.877e+00,3.148e+00,3.936e+00,3.463e+00,3.801e+00,3.816e+00,3.363e+00,3.808e+00,2.608e+00,2.405e+00,4.435e+00,3.850e+00,3.416e+00,2.675e+00,3.470e+00,3.337e+00,2.852e+00,4.123e+00,3.958e+00,3.937e+00,2.993e+00,3.456e+00,3.172e+00,2.692e+00,3.880e+00,2.842e+00,3.235e+00,3.033e+00,3.658e+00,2.572e+00,3.475e+00,3.635e+00,4.095e+00,4.015e+00,3.119e+00,4.838e+00,3.432e+00,3.653e+00,3.294e+00,3.800e+00,2.513e+00,3.301e+00,2.764e+00,3.903e+00,3.176e+00,3.340e+00,3.130e+00,3.176e+00,1.988e+00,3.553e+00,3.614e+00,2.804e+00,2.526e+00,3.834e+00,3.214e+00,3.627e+00,2.935e+00,4.183e+00,3.249e+00,3.395e+00,2.698e+00,3.322e+00,3.417e+00,3.336e+00,4.105e+00,4.395e+00
4.182e-02,5.388e-01,1.766e-01,3.913e-01,3.061e-01,1.236e+00,1.442e+00,1.974e+00,2.301e+00,2.319e+00,1.515e+00,1.575e+00,3.556e+00,2.940e+00,4.075e+00,4.458e+00,5.233e+00,4.114e+00,4.388e+00,3.178e+00,4.421e+00,4.112e+00,3.564e+00,4.461e+00,4.039e+00,4.223e+00,3.858e+00,4.304e+00,4.318e+00,3.419e+00,3.979e+00,5.461e+00,4.438e+00,3.375e+00,4.327e+00,3.593e+00,3.828e+00,3.631e+00,4.784e+00,4.145e+00,4.176e+00,3.597e+00,4.154e+00,3.682e+00,2.803e+00,3.708e+00,3.773e+00,3.580e+00,3.688e+00,4.280e+00,3.670e+00,4.593e+00,3.993e+00,4.858e+00,4.447e+00,3.961e+00,5.494e+00,4.579e+00,4.158e+00,4.909e+00,4.867e+00,3.130e+00,3.222e+00,3.280e+00,4.581e+00,4.819e+00,4.122e+00,4.146e+00,3.404e+00,2.444e+00,3.995e+00,4.695e+00,3.508e+00,2.201e+00,4.711e+00,4.111e+00,4.528e+00,3.772e+00,4.868e+00,3.852e+00,4.070e+00,3.814e+00,4.645e+00,4.478e+00,3.649e+00,4.504e+00,5.559e+00
7.707e-02,8.639e-01,8.087e-01,4.951e-01,2.878e-01,2.120e+00,2.518e+00,1.517e+00,2.368e+00,1.682e+00,1.435e+00,1.980e+00,3.901e+00,2.363e+00,3.233e+00,4.902e+00,4.970e+00,4.817e+00,3.913e+00,2.985e+00,4.371e+00,3.702e+00,2.818e+00,4.244e+00,3.133e+00,3.302e+00,3.337e+00,3.912e+00,4.352e+00,2.739e+00,3.901e+00,5.291e+00,4.530e+00,3.356e+00,3.816e+00,4.118e+00,2.900e+00,3.108e+00,3.613e+00,4.178e+00,4.947e+00,4.384e+00,4.008e+00,3.620e+00,3.619e+00,3.595e+00,4.354e+00,3.969e+00,3.695e+00,3.405e+00,3.904e+00,4.323e+00,4.317e+00,3.730e+00,4.041e+00,4.046e+00,5.170e+00,4.602e+00,4.839e+00,4.465e+00,4.813e+00,3.627e+00,3.889e+00,3.031e+00,3.760e+00,4.464e+00,4.001e+00,3.635e+00,3.440e+00,2.701e+00,4.017e+00,4.717e+00,4.355e+00,2.395e+00,4.816e+00,3.693e+00,4.705e+00,3.813e+00,4.970e+00,4.621e+00,4.166e+00,3.889e+00,4.077e+00,3.799e+00,3.566e+00,3.796e+00,5.170e+00
1.909e-02,4.941e-01,2.571e-01,5.661e-01,4.537e-01,1.070e+00,1.196e+00,1.597e+00,2.022e+00,2.136e+00,8.944e-01,1.210e+00,2.766e+00,1.244e+00,2.072e+00,3.094e+00,3.582e+00,3.171e+00,2.839e+00,3.166e+00,3.323e+00,3.680e+00,3.204e+00,4.144e+00,3.889e+00,3.096e+00,3.501e+00,3.474e+00,3.342e+00,2.441e+00,3.237e+00,4.766e+00,3.699e+00,3.235e+00,2.683e+00,2.827e+00,4.303e+00,2.309e+00,3.839e+00,3.296e+00,3.683e+00,3.311e+00,3.790e+00,2.862e+00,3.095e+00,3.364e+00,3.416e+00,3.539e+00,3.569e+00,2.984e+00,2.887e+00,2.940e+00,3.040e+00,3.984e+00,3.490e+00,3.764e+00,4.255e+00,3.861e+00,3.111e+00,3.383e+00,4.068e+00,3.411e+00,3.410e+00,2.609e+00,3.871e+00,3.925e+00,3.621e+00,2.589e+00,3.268e+00,2.586e+00,3.893e+00,3.615e+00,3.128e+00,1.736e+00,3.595e+00,3.360e+00,3.386e+00,3.375e+00,4.210e+00,3.792e+00,3.458e+00,2.797e+00,3.939e+00,2.823e+00,3.655e+00,3.842e+00,3.777e+00
1.445e-01,1.039e+00,1.322e-01,3.642e-01,2.563e-01,1.031e+00,1.765e+00,1.658e+00,2.301e+00,2.221e+00,1.313e+00,1.503e+00,2.687e+00,2.619e+00,3.391e+00,4.064e+00,5.123e+00,4.277e+00,3.720e+00,3.738e+00,4.753e+00,4.656e+00,3.740e+00,3.959e+00,3.458e+00,3.047e+00,4.117e+00,4.457e+00,4.318e+00,4.090e+00,3.830e+00,5.258e+00,3.642e+00,4.456e+00,4.167e+00,3.225e+00,3.858e+00,3.098e+00,4.262e+00,3.989e+00,4.213e+00,3.960e+00,4.158e+00,3.339e+00,3.242e+00,4.476e+00,4.175e+00,4.478e+00,3.390e+00,3.567e+00,2.968e+00,4.258e+00,3.561e+00,5.097e+00,3.561e+00,3.533e+00,5.559e+00,3.957e+00,3.892e+00,4.814e+00,5.046e+00,3.164e+00,4.218e+00,3.328e+00,4.292e+00,4.942e+00,4.096e+00,3.976e+00,3.174e+00,4.319e+00,4.314e+00,4.414e+00,3.582e+00,2.419e+00,4.060e+00,4.516e+00,4.327e+00,2.918e+00,5.113e+00,4.148e+00,4.182e+00,3.752e+00,4.172e+00,4.231e+00,3.126e+00,4.558e+00,4.962e+00
5.706e-02,8.077e-01,3.463e-01,6.416e-01,4.933e-01,1.500e+00,1.765e+00,2.155e+00,2.893e+00,2.830e+00,1.578e+00,1.975e+00,4.043e+00,2.353e+00,3.424e+00,3.686e+00,4.639e+00,4.233e+00,4.056e+00,4.545e+00,4.691e+00,5.361e+00,4.282e+00,5.033e+00,4.520e+00,4.332e+00,4.833e+00,4.537e+00,3.738e+00,3.760e+00,4.399e+00,5.696e+00,4.967e+00,4.870e+00,3.924e+00,3.830e+00,4.811e+00,3.249e+00,5.211e+00,4.621e+00,4.787e+00,4.600e+00,4.701e+00,4.246e+00,4.616e+00,4.327e+00,3.962e+00,4.111e+00,4.163e+00,4.700e+00,3.419e+00,4.460e+00,3.599e+00,4.989e+00,3.973e+00,4.848e+00,5.992e+00,5.217e+00,4.069e+00,4.361e+00,5.697e+00,3.387e+00,4.086e+00,3.870e+00,4.761e+00,4.211e+00,4.331e+00,4.076e+00,4.666e+00,3.307e+00,4.281e+00,3.566e+00,4.166e+00,2.546e+00,4.772e+00,4.141e+00,4.459e+00,3.753e+00,5.294e+00,4.478e+00,4.664e+00,4.059e+00,4.621e+00,3.643e+00,4.433e+00,4.745e+00,5.066e+00
6.060e-02,4.587e-01,2.523e-01,3.810e-01,3.179e-01,1.485e+00,1.865e+00,1.675e+00,2.897e+00,2.673e+00,1.544e+00,1.792e+00,3.239e+00,2.982e+00,3.685e+00,4.782e+00,4.812e+00,4.588e+00,5.368e+00,4.510e+00,5.706e+00,5.384e+00,5.543e+00,4.672e+00,4.582e+00,3.910e+00,5.929e+00,5.057e+00,5.661e+00,4.144e+00,5.871e+00,5.884e+00,4.938e+00,6.163e+00,4.929e+00,5.058e+00,5.029e+00,4.674e+00,6.753e+00,5.100e+00,5.331e+00,6.570e+00,6.566e+00,5.131e+00,4.686e+00,5.266e+00,5.849e+00,5.562e+00,5.084e+00,5.198e+00,3.385e+00,4.276e+00,4.095e+00,6.495e+00,5.255e+00,5.890e+00,7.289e+00,6.111e+00,5.500e+00,5.482e+00,6.463e+00,5.300e+00,5.473e+00,4.246e+00,5.073e+00,5.880e+00,5.426e+00,5.191e+00,3.962e+00,5.824e+00,6.072e+00,4.861e+00,5.421e+00,2.953e+00,5.347e+00,5.507e+00,5.028e+00,4.345e+00,6.541e+00,5.530e+00,6.023e+00,5.240e+00,6.685e+00,5.371e+00,5.185e+00,5.768e+00,6.276e+00
3.258e-03,6.914e-02,8.413e-02,1.986e-01,2.934e-01,1.138e+00,1.068e+00,1.430e+00,1.446e+00,1.348e+00,1.119e+00,1.354e+00,2.863e+00,1.949e+00,2.645e+00,3.875e+00,4.592e+00,3.550e+00,3.589e+00,4.391e+00,4.521e+00,4.039e+00,4.926e+00,4.190e+00,3.616e+00,4.350e+00,4.561e+00,4.392e+00,4.707e+00,4.250e+00,4.940e+00,5.035e+00,4.898e+00,4.663e+00,4.103e+00,4.861e+00,4.678e+00,4.368e+00,4.695e+00,4.661e+00,4.238e+00,5.407e+00,5.159e+00,3.737e+00,4.462e+00,4.075e+00,5.116e+00,4.834e+00,5.542e+00,4.240e+00,3.993e+00,4.919e+00,3.573e+00,6.274e+00,4.787e+00,4.226e+00,5.200e+00,5.131e+00,4.948e+00,5.580e+00,4.411e+00,4.596e+00,4.227e+00,4.338e+00,5.114e+00,5.517e+00,4.636e+00,4.243e+00,4.409e+00,3.816e+00,5.388e+00,5.304e+00,5.130e+00,3.549e+00,4.946e+00,4.394e+00,4.882e+00,4.811e+00,6.074e+00,4.385e+00,4.256e+00,5.108e+00,5.775e+00,4.533e+00,4.591e+00,4.213e+00,6.274e+00
7.408e-02,8.146e-01,8.362e-01,5.209e-01,3.920e-01,1.958e+00,2.467e+00,1.936e+00,2.718e+00,2.763e+00,1.920e+00,2.496e+00,4.257e+00,3.255e+00,3.970e+00,5.938e+00,6.410e+00,5.916e+00,5.266e+00,5.079e+00,6.466e+00,6.145e+00,5.411e+00,6.739e+00,5.384e+00,5.358e+00,5.849e+00,6.680e+00,6.973e+00,5.590e+00,6.425e+00,7.706e+00,6.585e+00,6.107e+00,5.606e+00,6.394e+00,5.876e+00,5.665e+00,6.175e+00,6.552e+00,6.922e+00,6.837e+00,6.254e+00,5.548e+00,5.403e+00,5.412e+00,7.267e+00,6.476e+00,6.375e+00,5.939e+00,5.335e+00,6.971e+00,5.836e+00,6.910e+00,5.790e+00,6.057e+00,8.259e+00,6.700e+00,6.705e+00,6.674e+00,6.884e+00,5.927e+00,7.161e+00,6.005e+00,6.776e+00,7.442e+00,6.727e+00,6.846e+00,6.175e+00,4.905e+00,7.300e+00,7.236e+00,7.086e+00,4.875e+00,6.375e+00,5.900e+00,7.147e+00,5.319e+00,7.570e+00,6.904e+00,6.667e+00,6.384e+00,6.444e+00,5.677e+00,6.082e+00,6.275e+00,7.688e+00
5.023e-02,8.336e-01,7.047e-01,7.285e-01,4.412e-01,1.674e+00,2.158e+00,1.874e+00,2.829e+00,2.454e+00,1.441e+00,2.073e+00,3.133e+00,1.725e+00,2.879e+00,4.103e+00,4.687e+00,4.669e+00,4.399e+00,4.241e+00,4.757e+00,5.882e+00,5.717e+00,5.930e+00,5.239e+00,4.298e+00,5.339e+00,6.111e+00,6.297e+00,4.273e+00,5.100e+00,6.585e+00,5.913e+00,5.244e+00,4.045e+00,4.887e+00,5.195e+00,4.297e+00,6.236e+00,5.846e+00,5.282e+00,5.819e+00,5.653e+00,4.817e+00,4.694e+00,4.576e+00,6.491e+00,5.465e+00,5.479e+00,5.955e+00,4.560e+00,5.227e+00,4.228e+00,6.518e+00,5.629e+00,5.538e+00,6.722e+00,5.689e+00,5.665e+00,5.816e+00,6.136e+00,5.335e+00,6.004e+00,6.228e+00,6.887e+00,6.113e+00,5.179e+00,5.558e+00,4.856e+00,4.944e+00,5.592e+00,5.381e+00,5.450e+00,3.958e+00,4.970e+00,4.272e+00,5.570e+00,4.507e+00,6.357e+00,6.240e+00,5.788e+00,6.098e+00,5.237e+00,5.259e+00,5.205e+00,5.265e+00,5.657e+00
1.757e-01,1.533e+00,6.107e-01,6.085e-01,4.100e-01,1.555e+00,2.306e+00,2.259e+00,2.560e+00,2.605e+00,1.573e+00,1.906e+00,3.875e+00,2.583e+00,3.213e+00,3.969e+00,5.642e+00,4.647e+00,5.419e+00,4.369e+00,5.832e+00,6.398e+00,6.325e+00,5.853e+00,5.393e+00,5.258e+00,6.643e+00,6.078e+00,7.313e+00,5.509e+00,4.585e+00,7.245e+00,6.578e+00,5.901e+00,4.313e+00,6.548e+00,4.953e+00,6.145e+00,7.512e+00,7.231e+00,6.090e+00,6.539e+00,5.196e+00,6.263e+00,4.762e+00,5.307e+00,6.939e+00,5.946e+00,4.867e+00,5.792e+00,4.876e+00,6.756e+00,4.926e+00,7.764e+00,6.116e+00,5.799e+00,7.118e+00,5.672e+00,6.547e+00,7.038e+00,5.850e+00,5.081e+00,6.290e+00,7.455e+00,7.548e+00,6.427e+00,6.037e+00,6.823e+00,6.060e+00,5.933e+00,6.066e+00,6.054e+00,6.336e+00,5.248e+00,6.081e+00,5.451e+00,7.080e+00,5.297e+00,7.201e+00,7.364e+00,6.175e+00,6.235e+00,5.426e+00,6.631e+00,5.846e+00,6.249e+00,6.853e+00
1.476e-01,8.717e-01,4.259e-01,2.153e-01,2.850e-01,1.396e+00,1.806e+00,1.670e+00,2.142e+00,1.972e+00,1.369e+00,1.700e+00,3.464e+00,2.656e+00,3.710e+00,4.240e+00,4.980e+00,4.370e+00,3.904e+00,3.988e+00,4.688e+00,5.374e+00,4.554e+00,5.568e+00,4.753e+00,4.177e+00,5.947e+00,6.072e+00,5.776e+00,5.056e+00,4.965e+00,7.060e+00,5.802e+00,5.983e+00,5.526e+00,5.552e+00,5.151e+00,5.650e+00,5.723e+00,6.118e+00,5.656e+00,5.796e+00,5.215e+00,5.117e+00,4.862e+00,5.982e+00,6.648e+00,6.033e+00,4.704e+00,5.688e+00,5.352e+00,5.804e+00,4.817e+00,6.237e+00,5.218e+00,5.099e+00,6.554e+00,5.026e+00,6.287e+00,5.775e+00,5.883e+00,4.402e+00,6.580e+00,5.304e+00,6.165e+00,5.787e+00,5.515e+00,5.962e+00,5.529e+00,5.415e+00,5.460e+00,5.582e+00,6.130e+00,3.705e+00,5.305e+00,5.129e+00,6.753e+00,4.496e+00,6.836e+00,6.338e+00,6.077e+00,5.386e+00,4.784e+00,5.705e+00,3.962e+00,5.972e+00,6.773e+00
5.127e-02,5.665e-01,7.817e-01,4.414e-01,2.845e-01,1.817e+00,2.257e+00,1.542e+00,2.905e+00,2.412e+00,1.473e+00,1.984e+00,3.490e+00,2.182e+00,3.951e+00,5.215e+00,5.360e+00,5.762e+00,4.322e+00,4.657e+00,5.164e+00,5.513e+00,6.333e+00,6.691e+00,5.645e+00,5.200e+00,6.316e+00,6.835e+00,7.377e+00,5.774e+00,6.869e+00,8.073e+00,7.639e+00,5.425e+00,5.113e+00,7.596e+00,6.935e+00,6.720e+00,6.841e+00,7.131e+00,6.570e+00,7.153e+00,7.919e+00,5.201e+00,6.362e+00,6.078e+00,7.511e+00,7.109e+00,7.078e+00,6.578e+00,6.382e+00,6.899e+00,6.131e+00,7.561e+00,6.996e+00,5.877e+00,8.292e+00,6.207e+00,7.572e+00,7.412e+00,7.288e+00,6.093e+00,7.041e+00,6.628e+00,7.796e+00,7.871e+00,7.482e+00,6.848e+00,6.350e+00,6.252e+00,6.692e+00,7.324e+00,6.402e+00,5.396e+00,7.674e+00,6.423e+00,7.974e+00,6.714e+00,7.927e+00,7.730e+00,7.581e+00,7.165e+00,7.311e+00,6.875e+00,6.311e+00,7.121e+00,7.936e+00
3.747e-02,6.503e-01,6.997e-01,5.449e-01,3.926e-01,1.982e+00,2.410e+00,1.904e+00,2.673e+00,2.645e+00,1.397e+00,1.737e+00,3.354e+00,2.037e+00,3.101e+00,4.046e+00,4.735e+00,4.271e+00,4.192e+00,4.413e+00,5.174e+00,5.137e+00,5.492e+00,6.669e+00,5.028e+00,5.346e+00,5.956e+00,5.860e+00,6.280e+00,5.592e+00,6.704e+00,7.440e+00,6.785e+00,6.010e+00,4.836e+00,6.284e+00,7.159e+00,5.853e+00,6.304e+00,6.267e+00,7.222e+00,7.042e+00,6.082e+00,4.561e+00,5.435e+00,5.774e+00,7.251e+00,6.858e+00,6.373e+00,5.818e+00,5.058e+00,5.571e+00,5.313e+00,6.590e+00,5.833e+00,6.599e+00,8.306e+00,6.036e+00,6.963e+00,5.969e+00,7.277e+00,4.968e+00,6.757e+00,5.752e+00,7.195e+00,6.500e+00,7.103e+00,6.759e+00,6.589e+00,5.420e+00,6.842e+00,6.442e+00,7.102e+00,5.447e+00,6.438e+00,5.229e+00,7.225e+00,5.149e+00,7.400e+00,7.749e+00,7.373e+00,7.075e+00,6.580e+00,7.051e+00,6.305e+00,6.208e+00,7.454e+00
1.423e-03,3.162e-01,4.017e-02,4.983e-01,2.893e-01,1.272e+00,1.615e+00,1.358e+00,2.695e+00,2.445e+00,1.449e+00,1.653e+00,3.171e+00,2.923e+00,3.713e+00,4.933e+00,5.162e+00,4.892e+00,4.708e+00,4.991e+00,5.559e+00,4.981e+00,6.881e+00,6.380e+00,5.183e+00,5.106e+00,6.960e+00,6.309e+00,7.966e+00,5.920e+00,7.053e+00,7.709e+00,7.305e+00,6.780e+00,5.840e+00,7.564e+00,7.625e+00,7.733e+00,7.572e+00,6.448e+00,6.677e+00,7.357e+00,8.039e+00,5.739e+00,6.391e+00,5.901e+00,7.610e+00,6.198e+00,6.510e+00,6.085e+00,5.608e+00,6.548e+00,4.392e+00,8.451e+00,7.192e+00,7.694e+00,8.183e+00,7.145e+00,7.138e+00,7.668e+00,7.606e+00,6.225e+00,5.932e+00,6.639e+00,6.765e+00,8.236e+00,7.602e+00,7.036e+00,5.427e+00,6.703e+00,6.943e+00,7.502e+00,7.078e+00,5.295e+00,7.662e+00,6.311e+00,6.708e+00,6.696e+00,8.507e+00,7.046e+00,7.901e+00,7.205e+00,7.749e+00,7.842e+00,6.857e+00,6.371e+00,8.523e+00
2.895e-02,6.409e-01,9.433e-02,5.202e-01,3.334e-01,1.283e+00,1.471e+00,2.260e+00,2.551e+00,2.363e+00,1.445e+00,1.409e+00,3.007e+00,2.263e+00,3.279e+00,4.188e+00,4.765e+00,4.205e+00,5.260e+00,4.327e+00,5.685e+00,5.250e+00,5.969e+00,5.381e+00,5.678e+00,5.690e+00,7.549e+00,6.538e+00,7.313e+00,5.275e+00,7.288e+00,7.843e+00,8.973e+00,7.286e+00,6.171e+00,9.142e+00,7.843e+00,7.869e+00,8.781e+00,6.520e+00,7.714e+00,8.640e+00,8.361e+00,8.060e+00,7.351e+00,6.713e+00,7.780e+00,6.985e+00,7.315e+00,7.269e+00,6.864e+00,7.550e+00,6.146e+00,8.781e+00,7.997e+00,7.585e+00,8.499e+00,7.153e+00,8.177e+00,8.184e+00,8.204e+00,6.705e+00,6.701e+00,7.651e+00,8.005e+00,8.561e+00,7.821e+00,8.296e+00,7.280e+00,7.269e+00,7.636e+00,7.774e+00,7.998e+00,5.970e+00,8.172e+00,6.501e+00,7.502e+00,8.039e+00,8.295e+00,8.050e+00,7.529e+00,7.216e+00,8.512e+00,6.902e+00,7.442e+00,7.636e+00,7.953e+00
8.031e-02,6.954e-01,5.417e-01,3.890e-01,2.862e-01,1.221e+00,1.707e+00,1.370e+00,2.180e+00,2.243e+00,1.186e+00,1.535e+00,2.594e+00,2.077e+00,3.164e+00,3.840e+00,4.237e+00,4.340e+00,4.862e+00,4.344e+00,4.917e+00,5.727e+00,5.569e+00,5.501e+00,5.008e+00,4.224e+00,6.134e+00,6.555e+00,6.832e+00,5.617e+00,6.051e+00,7.872e+00,7.033e+00,7.122e+00,6.114e+00,5.938e+00,6.270e+00,6.668e+00,7.047e+00,6.303e+00,6.189e+00,6.803e+00,7.154e+00,5.887e+00,6.053e+00,5.755e+00,7.178e+00,6.619e+00,6.260e+00,6.178e+00,5.441e+00,6.238e+00,5.950e+00,7.298e+00,6.560e+00,6.255e+00,7.986e+00,6.416e+00,6.879e+00,6.740e+00,6.568e+00,5.810e+00,7.026e+00,5.547e+00,7.557e+00,7.663e+00,5.816e+00,6.592e+00,5.287e+00,6.380e+00,6.207e+00,6.007e+00,6.492e+00,4.905e+00,6.101e+00,5.743e+00,7.379e+00,5.442e+00,6.731e+00,6.903e+00,7.881e+00,6.421e+00,6.024e+00,6.146e+00,6.022e+00,7.000e+00,6.607e+00
8.593e-02,9.308e-01,1.636e-01,4.439e-01,2.847e-01,1.103e+00,1.489e+00,1.573e+00,1.688e+00,1.668e+00,8.973e-01,9.681e-01,2.902e+00,1.875e+00,2.761e+00,3.356e+00,4.303e+00,3.477e+00,4.588e+00,4.258e+00,5.037e+00,4.279e+00,4.438e+00,4.041e+00,3.769e+00,5.105e+00,5.737e+00,4.903e+00,6.395e+00,4.370e+00,5.987e+00,7.631e+00,6.985e+00,6.635e+00,5.289e+00,7.014e+00,6.932e+00,6.787e+00,7.179e+00,6.037e+00,6.075e+00,6.012e+00,6.986e+00,6.404e+00,6.411e+00,5.965e+00,7.152e+00,6.088e+00,6.618e+00,5.223e+00,5.942e+00,6.293e+00,5.273e+00,6.887e+00,6.342e+00,6.227e+00,7.283e+00,6.321e+00,6.534e+00,7.361e+00,6.469e+00,5.056e+00,4.678e+00,5.733e+00,6.855e+00,7.451e+00,6.111e+00,6.595e+00,6.436e+00,5.061e+00,5.967e+00,6.375e+00,7.119e+00,5.485e+00,7.831e+00,4.922e+00,6.797e+00,6.770e+00,6.679e+00,6.456e+00,7.169e+00,5.929e+00,7.384e+00,6.536e+00,6.785e+00,5.859e+00,6.368e+00
5.651e-02,6.163e-01,1.174e-01,5.391e-01,3.074e-01,1.400e+00,1.781e+00,1.315e+00,2.403e+00,1.485e+00,8.346e-01,1.257e+00,2.823e+00,1.850e+00,3.063e+00,3.934e+00,4.635e+00,4.025e+00,3.630e+00,4.705e+00,4.271e+00,4.711e+00,6.893e+00,6.777e+00,5.709e+00,5.163e+00,6.586e+00,7.519e+00,7.432e+00,7.425e+00,8.684e+00,1.046e+01,1.040e+01,8.106e+00,7.473e+00,9.358e+00,9.331e+00,9.356e+00,9.720e+00,8.871e+00,8.340e+00,9.153e+00,9.187e+00,7.798e+00,9.324e+00,7.195e+00,1.021e+01,9.653e+00,1.010e+01,8.080e+00,7.836e+00,9.090e+00,6.907e+00,1.050e+01,9.573e+00,8.076e+00,9.476e+00,8.855e+00,1.025e+01,9.751e+00,9.193e+00,7.823e+00,8.742e+00,9.309e+00,1.008e+01,1.032e+01,9.675e+00,9.707e+00,8.762e+00,7.859e+00,8.044e+00,8.820e+00,8.917e+00,7.578e+00,8.776e+00,6.782e+00,9.991e+00,8.461e+00,1.030e+01,8.996e+00,9.569e+00,8.971e+00,8.427e+00,9.525e+00,8.756e+00,8.251e+00,9.714e+00
5.902e-02,7.102e-01,8.345e-01,5.403e-01,4.321e-01,2.428e+00,2.724e+00,2.536e+00,3.589e+00,3.001e+00,1.860e+00,2.259e+00,4.199e+00,2.131e+00,3.696e+00,4.180e+00,5.087e+00,5.129e+00,5.616e+00,4.752e+00,5.841e+00,6.051e+00,6.587e+00,6.089e+00,5.490e+00,5.834e+00,8.072e+00,6.147e+00,7.456e+00,6.866e+00,7.493e+00,9.487e+00,9.572e+00,9.797e+00,6.695e+00,9.045e+00,8.056e+00,8.584e+00,9.537e+00,7.693e+00,9.224e+00,9.528e+00,9.122e+00,8.506e+00,9.069e+00,7.427e+00,9.338e+00,8.995e+00,8.242e+00,8.586e+00,7.169e+00,7.951e+00,7.713e+00,1.007e+01,8.769e+00,7.602e+00,1.065e+01,9.067e+00,9.151e+00,8.653e+00,8.655e+00,7.160e+00,8.463e+00,8.543e+00,9.207e+00,8.859e+00,8.169e+00,9.482e+00,8.048e+00,8.630e+00,8.833e+00,7.581e+00,8.955e+00,6.986e+00,9.092e+00,7.243e+00,9.218e+00,8.174e+00,1.032e+01,8.886e+00,9.980e+00,8.968e+00,8.677e+00,8.845e+00,8.676e+00,7.645e+00,9.017e+00
1.461e-01,9.151e-01,7.887e-01,2.947e-01,3.356e-01,1.678e+00,2.099e+00,1.470e+00,2.021e+00,1.834e+00,1.364e+00,2.032e+00,4.218e+00,2.906e+00,3.790e+00,5.145e+00,6.163e+00,5.533e+00,5.163e+00,5.273e+00,5.202e+00,6.359e+00,5.702e+00,6.234e+00,5.165e+00,5.269e+00,6.326e+00,7.838e+00,7.440e+00,6.290e+00,6.228e+00,9.716e+00,8.430e+00,9.377e+00,7.940e+00,7.387e+00,8.120e+00,8.292e+00,8.108e+00,9.045e+00,8.411e+00,8.672e+00,8.199e+00,8.105e+00,7.999e+00,7.745e+00,9.527e+00,8.072e+00,8.738e+00,8.359e+00,7.238e+00,8.714e+00,7.936e+00,8.672e+00,8.327e+00,6.341e+00,9.189e+00,7.432e+00,9.906e+00,9.396e+00,8.825e+00,6.502e+00,9.399e+00,7.852e+00,9.737e+00,8.497e+00,8.144e+00,7.248e+00,8.105e+00,8.190e+00,7.880e+00,8.392e+00,8.225e+00,7.038e+00,7.336e+00,7.087e+00,1.068e+01,7.755e+00,1.015e+01,9.272e+00,8.343e+00,7.845e+00,7.892e+00,7.689e+00,7.993e+00,8.031e+00,9.019e+00
1.140e-02,1.387e-01,3.986e-01,1.015e-01,1.139e-01,9.868e-01,1.207e+00,1.099e+00,1.964e+00,2.430e+00,1.227e+00,1.175e+00,3.338e+00,3.101e+00,4.255e+00,4.625e+00,4.909e+00,4.582e+00,5.109e+00,4.314e+00,5.174e+00,4.691e+00,5.594e+00,6.006e+00,5.260e+00,6.365e+00,7.309e+00,6.477e+00,7.701e+00,6.517e+00,8.051e+00,9.926e+00,9.116e+00,9.081e+00,8.272e+00,1.102e+01,9.455e+00,1.073e+01,9.872e+00,9.028e+00,9.328e+00,9.152e+00,1.027e+01,8.385e+00,9.161e+00,8.270e+00,9.612e+00,9.895e+00,9.500e+00,8.694e+00,8.398e+00,9.409e+00,9.322e+00,9.412e+00,9.781e+00,7.638e+00,1.007e+01,7.475e+00,1.036e+01,9.925e+00,8.865e+00,6.983e+00,9.271e+00,8.017e+00,9.414e+00,9.725e+00,1.028e+01,1.039e+01,8.839e+00,7.898e+00,9.480e+00,9.467e+00,9.735e+00,7.894e+00,9.911e+00,7.457e+00,1.088e+01,9.550e+00,1.060e+01,8.919e+00,9.722e+00,9.336e+00,1.005e+01,9.193e+00,9.692e+00,9.988e+00,1.010e+01
3.562e-02,4.377e-01,5.881e-01,2.646e-01,3.033e-01,1.287e+00,1.637e+00,1.494e+00,1.879e+00,2.633e+00,1.453e+00,1.708e+00,3.604e+00,2.682e+00,3.524e+00,4.002e+00,5.345e+00,4.618e+00,4.583e+00,5.321e+00,5.453e+00,5.696e+00,6.033e+00,6.518e+00,4.829e+00,6.348e+00,7.034e+00,6.892e+00,7.236e+00,7.570e+00,6.972e+00,9.277e+00,8.963e+00,9.123e+00,7.182e+00,9.121e+00,9.980e+00,1.006e+01,8.706e+00,9.914e+00,9.555e+00,9.005e+00,9.685e+00,7.844e+00,9.754e+00,8.016e+00,8.926e+00,9.077e+00,9.055e+00,7.748e+00,8.049e+00,8.912e+00,8.346e+00,1.008e+01,9.013e+00,7.573e+00,1.014e+01,7.113e+00,9.763e+00,9.750e+00,8.948e+00,6.503e+00,8.963e+00,7.991e+00,9.508e+00,8.688e+00,9.239e+00,8.952e+00,8.781e+00,7.729e+00,8.811e+00,8.796e+00,9.768e+00,8.672e+00,9.476e+00,7.761e+00,1.045e+01,8.727e+00,1.007e+01,9.009e+00,9.517e+00,9.255e+00,8.801e+00,9.363e+00,9.255e+00,9.695e+00,1.012e+01
1.320e-01,8.047e-01,7.011e-01,3.566e-01,3.530e-01,2.109e+00,2.739e+00,1.945e+00,3.325e+00,2.886e+00,1.606e+00,2.122e+00,4.246e+00,3.165e+00,4.857e+00,5.029e+00,5.485e+00,4.685e+00,4.394e+00,4.341e+00,5.409e+00,5.437e+00,5.290e+00,6.176e+00,5.236e+00,5.617e+00,7.585e+00,6.759e+00,7.206e+00,7.205e+00,7.368e+00,9.102e+00,9.231e+00,8.430e+00,6.899e+00,9.305e+00,9.795e+00,9.955e+00,9.834e+00,1.020e+01,9.680e+00,9.340e+00,1.087e+01,9.203e+00,9.865e+00,8.223e+00,9.640e+00,9.414e+00,1.015e+01,8.465e+00,8.620e+00,8.954e+00,8.530e+00,9.921e+00,9.771e+00,7.760e+00,1.186e+01,7.890e+00,1.025e+01,1.020e+01,1.026e+01,7.395e+00,8.984e+00,8.209e+00,1.002e+01,8.295e+00,9.779e+00,9.354e+00,9.058e+00,8.258e+00,8.437e+00,8.749e+00,9.556e+00,7.438e+00,1.006e+01,8.262e+00,1.020e+01,8.517e+00,1.090e+01,9.616e+00,1.053e+01,7.946e+00,9.875e+00,1.045e+01,9.244e+00,9.763e+00,9.220e+00
4.844e-02,4.277e-01,2.576e-01,2.771e-01,1.927e-01,6.880e-01,1.023e+00,1.144e+00,1.765e+00,1.943e+00,1.129e+00,1.301e+00,2.487e+00,2.526e+00,3.215e+00,3.965e+00,4.402e+00,4.161e+00,5.124e+00,3.881e+00,4.602e+00,4.490e+00,4.866e+00,5.068e+00,4.256e+00,4.589e+00,5.678e+00,5.840e+00,6.479e+00,5.510e+00,6.504e+00,9.060e+00,6.900e+00,8.193e+00,6.260e+00,8.780e+00,7.841e+00,1.012e+01,9.041e+00,8.861e+00,9.642e+00,7.837e+00,9.336e+00,8.012e+00,8.655e+00,6.746e+00,9.675e+00,7.172e+00,8.154e+00,8.559e+00,7.588e+00,7.997e+00,8.462e+00,9.653e+00,8.490e+00,7.064e+00,9.944e+00,7.754e+00,9.566e+00,8.638e+00,9.444e+00,7.416e+00,9.741e+00,8.565e+00,8.260e+00,9.431e+00,8.687e+00,9.663e+00,7.631e+00,7.593e+00,8.086e+00,8.397e+00,8.831e+00,6.168e+00,8.539e+00,7.643e+00,9.673e+00,8.460e+00,9.283e+00,8.968e+00,9.466e+00,8.581e+00,8.631e+00,9.033e+00,8.195e+00,8.173e+00,1.027e+01
5.924e-02,3.407e-01,2.739e-01,2.913e-01,3.353e-01,1.197e+00,1.474e+00,1.287e+00,2.235e+00,2.300e+00,1.255e+00,1.614e+00,3.460e+00,2.714e+00,3.755e+00,4.604e+00,4.906e+00,4.517e+00,4.727e+00,4.663e+00,5.111e+00,5.243e+00,6.160e+00,6.224e+00,4.944e+00,5.148e+00,7.780e+00,7.024e+00,8.673e+00,6.830e+00,7.128e+00,1.055e+01,9.006e+00,1.038e+01,8.041e+00,1.033e+01,9.706e+00,1.171e+01,1.113e+01,1.125e+01,1.048e+01,1.015e+01,1.207e+01,9.817e+00,1.147e+01,8.434e+00,1.246e+01,1.044e+01,1.047e+01,9.568e+00,1.012e+01,1.004e+01,9.203e+00,1.216e+01,1.092e+01,9.219e+00,1.165e+01,9.730e+00,1.192e+01,1.135e+01,1.006e+01,9.084e+00,1.196e+01,1.087e+01,1.098e+01,1.134e+01,1.069e+01,1.137e+01,9.432e+00,9.127e+00,1.059e+01,1.010e+01,1.164e+01,8.297e+00,9.756e+00,8.431e+00,1.067e+01,1.139e+01,1.249e+01,9.565e+00,1.206e+01,1.102e+01,1.077e+01,1.132e+01,1.083e+01,1.035e+01,1.159e+01
7.878e-02,8.302e-01,1.095e-01,4.269e-01,1.959e-01,6.469e-01,1.141e+00,1.241e+00,2.000e+00,1.964e+00,1.032e+00,1.089e+00,2.527e+00,2.082e+00,2.638e+00,3.092e+00,4.280e+00,4.016e+00,4.587e+00,4.022e+00,4.482e+00,5.215e+00,5.876e+00,5.129e+00,4.998e+00,4.810e+00,5.717e+00,6.557e+00,7.265e+00,5.059e+00,6.914e+00,9.078e+00,7.800e+00,8.241e+00,6.866e+00,9.097e+00,8.583e+00,9.760e+00,1.029e+01,9.185e+00,8.951e+00,9.172e+00,1.078e+01,8.135e+00,9.114e+00,7.834e+00,1.091e+01,8.958e+00,9.417e+00,9.725e+00,7.812e+00,8.616e+00,9.177e+00,9.599e+00,9.638e+00,7.779e+00,1.103e+01,8.726e+00,1.098e+01,1.065e+01,9.549e+00,7.955e+00,1.056e+01,1.038e+01,9.757e+00,9.995e+00,1.008e+01,1.053e+01,9.400e+00,9.140e+00,9.696e+00,9.018e+00,9.755e+00,7.962e+00,9.802e+00,7.777e+00,1.083e+01,9.402e+00,1.122e+01,9.381e+00,1.031e+01,1.029e+01,9.952e+00,1.040e+01,1.055e+01,9.655e+00,9.792e+00
1.338e-01,1.034e+00,3.248e-01,5.738e-01,4.910e-01,1.433e+00,1.872e+00,2.408e+00,3.147e+00,2.853e+00,1.773e+00,2.259e+00,3.629e+00,2.733e+00,3.837e+00,4.922e+00,5.641e+00,5.505e+00,5.304e+00,5.633e+00,6.117e+00,6.912e+00,6.975e+00,6.949e+00,6.456e+00,5.870e+00,7.838e+00,7.252e+00,7.018e+00,7.909e+00,7.929e+00,1.070e+01,9.417e+00,1.055e+01,9.089e+00,1.029e+01,9.378e+00,1.095e+01,1.075e+01,1.158e+01,1.264e+01,1.250e+01,1.213e+01,1.074e+01,1.234e+01,9.612e+00,1.289e+01,1.261e+01,1.031e+01,1.072e+01,1.052e+01,1.124e+01,1.077e+01,1.321e+01,1.120e+01,9.565e+00,1.292e+01,1.093e+01,1.226e+01,1.172e+01,1.165e+01,9.311e+00,1.359e+01,1.199e+01,1.190e+01,1.152e+01,1.219e+01,1.263e+01,1.098e+01,1.059e+01,1.171e+01,1.085e+01,1.235e+01,9.013e+00,1.074e+01,1.069e+01,1.316e+01,1.015e+01,1.449e+01,1.241e+01,1.144e+01,1.240e+01,1.096e+01,1.153e+01,1.122e+01,1.156e+01,1.232e+01
6.047e-02,7.176e-01,7.776e-01,6.262e-01,3.986e-01,1.857e+00,2.243e+00,1.493e+00,2.664e+00,1.869e+00,1.391e+00,2.242e+00,3.174e+00,1.838e+00,2.622e+00,4.335e+00,4.495e+00,4.682e+00,4.088e+00,3.974e+00,4.495e+00,4.861e+00,5.143e+00,6.496e+00,5.253e+00,4.384e+00,6.264e+00,6.850e+00,6.956e+00,7.029e+00,7.438e+00,9.878e+00,1.008e+01,9.756e+00,7.501e+00,8.803e+00,9.778e+00,1.033e+01,9.365e+00,9.776e+00,1.186e+01,1.146e+01,1.218e+01,1.048e+01,1.203e+01,7.979e+00,1.191e+01,1.075e+01,1.015e+01,9.947e+00,9.577e+00,1.049e+01,1.082e+01,1.121e+01,1.063e+01,9.039e+00,1.218e+01,1.006e+01,1.154e+01,1.199e+01,1.175e+01,8.935e+00,1.217e+01,1.130e+01,1.061e+01,1.124e+01,1.196e+01,1.106e+01,1.001e+01,1.069e+01,1.048e+01,1.116e+01,1.174e+01,9.536e+00,1.063e+01,9.339e+00,1.242e+01,1.126e+01,1.358e+01,1.101e+01,1.165e+01,1.101e+01,9.544e+00,1.156e+01,1.104e+01,8.929e+00,1.083e+01
2.934e-02,4.118e-01,2.027e-01,4.595e-01,3.357e-01,1.501e+00,1.799e+00,1.636e+00,2.344e+00,1.882e+00,1.023e+00,1.289e+00,2.695e+00,1.796e+00,2.865e+00,4.070e+00,4.541e+00,3.752e+00,3.777e+00,3.863e+00,4.616e+00,4.388e+00,6.057e+00,5.893e+00,5.209e+00,4.607e+00,6.944e+00,6.614e+00,7.409e+00,6.153e+00,6.966e+00,8.806e+00,8.809e+00,7.671e+00,6.387e+00,1.023e+01,9.009e+00,1.051e+01,9.415e+00,1.041e+01,1.064e+01,1.092e+01,1.341e+01,1.001e+01,1.153e+01,8.890e+00,1.217e+01,1.074e+01,1.056e+01,1.008e+01,1.069e+01,9.691e+00,9.418e+00,1.224e+01,1.166e+01,1.008e+01,1.289e+01,1.072e+01,1.237e+01,1.275e+01,1.048e+01,9.962e+00,1.263e+01,1.215e+01,1.113e+01,1.131e+01,1.195e+01,1.164e+01,1.024e+01,9.925e+00,1.043e+01,1.179e+01,1.193e+01,8.682e+00,1.216e+01,9.622e+00,1.206e+01,1.092e+01,1.372e+01,1.131e+01,1.156e+01,1.110e+01,1.187e+01,1.264e+01,1.063e+01,1.051e+01,1.169e+01
1.160e-01,6.720e-01,8.389e-01,2.859e-01,3.936e-01,2.050e+00,2.394e+00,2.262e+00,3.151e+00,2.974e+00,2.045e+00,2.517e+00,3.860e+00,2.781e+00,4.159e+00,5.174e+00,5.241e+00,5.464e+00,4.839e+00,4.113e+00,5.750e+00,6.036e+00,5.143e+00,5.928e+00,5.228e+00,5.068e+00,6.870e+00,7.139e+00,7.891e+00,6.571e+00,7.755e+00,9.363e+00,9.192e+00,8.167e+00,7.451e+00,8.786e+00,8.338e+00,9.481e+00,9.442e+00,1.038e+01,1.084e+01,1.084e+01,1.208e+01,1.048e+01,1.237e+01,9.542e+00,1.150e+01,1.143e+01,1.065e+01,1.023e+01,9.405e+00,9.657e+00,1.084e+01,1.294e+01,1.061e+01,9.735e+00,1.411e+01,1.140e+01,1.322e+01,1.181e+01,1.142e+01,9.373e+00,1.254e+01,9.944e+00,1.075e+01,1.165e+01,1.114e+01,1.148e+01,8.985e+00,9.687e+00,1.060e+01,9.536e+00,1.125e+01,9.241e+00,1.095e+01,9.738e+00,1.166e+01,1.070e+01,1.215e+01,1.117e+01,1.190e+01,1.144e+01,1.066e+01,1.171e+01,9.378e+00,1.149e+01,1.192e+01
1.666e-01,1.450e+00,1.583e-01,6.429e-01,3.666e-01,1.395e+00,2.282e+00,2.381e+00,3.126e+00,2.745e+00,1.557e+00,1.779e+00,3.618e+00,2.957e+00,4.453e+00,4.907e+00,6.289e+00,5.055e+00,6.338e+00,5.421e+00,7.093e+00,7.144e+00,7.335e+00,6.938e+00,6.697e+00,5.789e+00,8.333e+00,7.712e+00,8.185e+00,7.730e+00,7.933e+00,1.045e+01,9.017e+00,9.710e+00,7.934e+00,1.007e+01,9.082e+00,1.008e+01,1.098e+01,9.306e+00,9.634e+00,1.030e+01,1.080e+01,1.060e+01,1.063e+01,9.000e+00,1.250e+01,1.161e+01,1.061e+01,1.045e+01,8.975e+00,1.096e+01,9.326e+00,1.158e+01,1.072e+01,9.446e+00,1.255e+01,1.054e+01,1.088e+01,1.208e+01,1.015e+01,8.983e+00,1.169e+01,1.212e+01,1.233e+01,1.148e+01,1.047e+01,1.186e+01,1.108e+01,1.058e+01,1.036e+01,1.091e+01,1.057e+01,8.464e+00,1.138e+01,9.499e+00,1.226e+01,9.847e+00,1.236e+01,1.159e+01,1.163e+01,1.132e+01,1.164e+01,1.171e+01,1.061e+01,1.050e+01,1.035e+01
1.445e-01,1.090e+00,1.455e-01,4.240e-01,2.431e-01,7.004e-01,1.465e+00,1.609e+00,2.437e+00,2.444e+00,1.183e+00,1.290e+00,2.196e+00,2.309e+00,3.776e+00,4.413e+00,4.668e+00,4.667e+00,4.888e+00,4.550e+00,5.813e+00,5.215e+00,5.208e+00,5.409e+00,4.806e+00,4.698e+00,6.188e+00,5.966e+00,7.526e+00,6.131e+00,7.218e+00,8.949e+00,6.629e+00,7.603e+00,6.948e+00,7.944e+00,8.593e+00,8.305e+00,8.932e+00,7.749e+00,9.271e+00,9.317e+00,1.045e+01,1.034e+01,1.010e+01,8.160e+00,1.087e+01,1.071e+01,9.933e+00,8.929e+00,8.876e+00,1.085e+01,9.361e+00,1.134e+01,1.062e+01,1.031e+01,1.298e+01,9.924e+00,1.053e+01,1.216e+01,1.099e+01,8.635e+00,1.190e+01,1.016e+01,1.166e+01,1.224e+01,1.164e+01,1.143e+01,9.847e+00,8.484e+00,1.113e+01,1.031e+01,1.082e+01,8.450e+00,1.105e+01,9.599e+00,1.111e+01,1.032e+01,1.102e+01,1.157e+01,1.128e+01,1.031e+01,1.110e+01,1.149e+01,9.988e+00,1.003e+01,1.056e+01
1.458e-02,4.316e-01,1.164e-01,3.779e-01,3.272e-01,1.377e+00,1.702e+00,1.885e+00,2.332e+00,2.994e+00,1.370e+00,1.168e+00,4.088e+00,3.155e+00,3.892e+00,4.268e+00,5.916e+00,4.531e+00,5.487e+00,4.829e+00,5.705e+00,5.367e+00,6.000e+00,6.761e+00,5.131e+00,5.261e+00,6.260e+00,7.285e+00,6.861e+00,6.597e+00,7.068e+00,1.017e+01,7.959e+00,8.716e+00,7.116e+00,9.401e+00,8.751e+00,1.028e+01,9.564e+00,1.022e+01,1.088e+01,9.924e+00,1.239e+01,9.420e+00,1.129e+01,1.120e+01,1.162e+01,1.024e+01,1.155e+01,1.218e+01,1.073e+01,1.090e+01,1.114e+01,1.189e+01,1.191e+01,1.084e+01,1.482e+01,1.198e+01,1.378e+01,1.231e+01,1.162e+01,9.163e+00,1.503e+01,1.142e+01,1.202e+01,1.179e+01,1.170e+01,1.259e+01,1.164e+01,9.180e+00,1.128e+01,1.196e+01,1.251e+01,8.254e+00,1.287e+01,1.101e+01,1.380e+01,1.089e+01,1.282e+01,1.295e+01,1.272e+01,1.169e+01,1.231e+01,1.312e+01,1.103e+01,1.170e+01,1.375e+01
1.475e-01,1.391e+00,2.216e-01,6.731e-01,4.444e-01,1.166e+00,1.939e+00,2.024e+00,2.304e+00,2.440e+00,1.175e+00,1.473e+00,3.394e+00,2.254e+00,3.182e+00,4.089e+00,5.734e+00,4.697e+00,5.993e+00,5.435e+00,6.481e+00,6.307e+00,6.160e+00,6.821e+00,5.536e+00,5.615e+00,7.783e+00,7.926e+00,8.701e+00,7.164e+00,8.232e+00,1.179e+01,9.218e+00,9.965e+00,7.154e+00,1.099e+01,9.721e+00,1.088e+01,1.083e+01,1.066e+01,1.206e+01,1.088e+01,1.247e+01,1.119e+01,1.239e+01,9.666e+00,1.436e+01,1.162e+01,1.200e+01,1.207e+01,1.046e+01,1.222e+01,1.235e+01,1.336e+01,1.168e+01,1.207e+01,1.463e+01,1.185e+01,1.340e+01,1.401e+01,1.250e+01,1.146e+01,1.523e+01,1.376e+01,1.305e+01,1.448e+01,1.243e+01,1.297e+01,1.258e+01,1.132e+01,1.197e+01,1.280e+01,1.346e+01,1.029e+01,1.259e+01,1.070e+01,1.433e+01,1.280e+01,1.398e+01,1.308e+01,1.338e+01,1.294e+01,1.287e+01,1.383e+01,1.140e+01,1.107e+01,1.411e+01
1.660e-01,9.383e-01,1.310e-01,3.624e-01,3.551e-01,9.142e-01,1.512e+00,1.377e+00,2.535e+00,2.400e+00,1.028e+00,1.434e+00,3.486e+00,2.846e+00,4.207e+00,4.627e+00,5.060e+00,4.586e+00,4.649e+00,5.065e+00,5.265e+00,5.923e+00,5.912e+00,6.356e+00,5.866e+00,5.296e+00,7.943e+00,7.953e+00,8.369e+00,6.364e+00,7.697e+00,1.075e+01,8.875e+00,9.597e+00,7.756e+00,1.024e+01,1.098e+01,1.111e+01,1.165e+01,1.138e+01,1.141e+01,1.033e+01,1.427e+01,1.308e+01,1.425e+01,1.188e+01,1.457e+01,1.367e+01,1.411e+01,1.487e+01,1.170e+01,1.375e+01,1.341e+01,1.434e+01,1.374e+01,1.393e+01,1.676e+01,1.365e+01,1.373e+01,1.556e+01,1.405e+01,1.126e+01,1.686e+01,1.508e+01,1.408e+01,1.416e+01,1.623e+01,1.366e+01,1.363e+01,1.241e+01,1.292e+01,1.368e+01,1.519e+01,1.081e+01,1.478e+01,1.281e+01,1.575e+01,1.475e+01,1.588e+01,1.476e+01,1.454e+01,1.327e+01,1.473e+01,1.636e+01,1.258e+01,1.304e+01,1.322e+01
9.303e-02,9.938e-01,5.965e-01,6.720e-01,4.400e-01,1.657e+00,2.062e+00,1.854e+00,2.698e+00,2.049e+00,1.133e+00,1.742e+00,3.430e+00,1.550e+00,2.697e+00,3.685e+00,4.555e+00,4.541e+00,4.402e+00,4.227e+00,4.223e+00,4.963e+00,4.538e+00,5.426e+00,4.539e+00,4.364e+00,5.961e+00,6.104e+00,6.082e+00,5.552e+00,6.397e+00,1.004e+01,8.395e+00,9.748e+00,7.035e+00,8.816e+00,8.788e+00,9.279e+00,9.191e+00,9.845e+00,1.204e+01,1.059e+01,1.216e+01,1.144e+01,1.305e+01,1.023e+01,1.214e+01,1.168e+01,1.176e+01,1.245e+01,1.146e+01,1.162e+01,1.221e+01,1.275e+01,1.206e+01,1.151e+01,1.355e+01,1.199e+01,1.309e+01,1.283e+01,1.272e+01,9.652e+00,1.464e+01,1.268e+01,1.253e+01,1.233e+01,1.283e+01,1.220e+01,1.134e+01,1.164e+01,1.077e+01,1.252e+01,1.301e+01,1.021e+01,1.234e+01,1.120e+01,1.448e+01,1.279e+01,1.381e+01,1.382e+01,1.249e+01,1.325e+01,1.181e+01,1.320e+01,1.086e+01,1.111e+01,1.259e+01
1.513e-01,1.280e+00,3.441e-01,5.926e-01,4.556e-01,1.519e+00,2.238e+00,2.079e+00,2.480e+00,2.550e+00,1.162e+00,1.499e+00,3.792e+00,2.545e+00,3.740e+00,4.553e+00,5.678e+00,4.499e+00,5.634e+00,5.078e+00,6.302e+00,5.801e+00,5.649e+00,6.270e+00,5.336e+00,5.968e+00,7.798e+00,7.015e+00,7.481e+00,6.004e+00,7.447e+00,1.060e+01,8.990e+00,8.704e+00,6.255e+00,1.026e+01,9.343e+00,9.625e+00,1.084e+01,1.050e+01,1.089e+01,1.009e+01,1.204e+01,1.097e+01,1.298e+01,1.021e+01,1.331e+01,1.210e+01,1.228e+01,1.296e+01,1.189e+01,1.255e+01,1.315e+01,1.285e+01,1.180e+01,1.218e+01,1.483e+01,1.241e+01,1.462e+01,1.500e+01,1.274e+01,9.214e+00,1.604e+01,1.447e+01,1.315e+01,1.320e+01,1.520e+01,1.290e+01,1.399e+01,1.148e+01,1.195e+01,1.248e+01,1.499e+01,1.053e+01,1.332e+01,1.263e+01,1.518e+01,1.553e+01,1.428e+01,1.356e+01,1.424e+01,1.479e+01,1.410e+01,1.437e+01,1.235e+01,1.269e+01,1.396e+01
1.493e-01,1.334e+00,7.241e-01,6.557e-01,5.024e-01,2.197e+00,2.833e+00,2.542e+00,3.056e+00,2.746e+00,1.651e+00,2.194e+00,4.434e+00,2.749e+00,3.794e+00,4.805e+00,6.156e+00,4.839e+00,4.867e+00,4.528e+00,5.829e+00,6.606e+00,5.297e+00,6.853e+00,6.425e+00,5.966e+00,7.334e+00,7.735e+00,7.327e+00,7.063e+00,8.137e+00,1.117e+01,1.037e+01,9.320e+00,8.581e+00,9.980e+00,9.568e+00,9.973e+00,9.792e+00,1.044e+01,1.193e+01,1.049e+01,1.154e+01,9.957e+00,1.223e+01,1.077e+01,1.370e+01,1.379e+01,1.283e+01,1.218e+01,1.189e+01,1.247e+01,1.383e+01,1.296e+01,1.264e+01,1.228e+01,1.422e+01,1.244e+01,1.364e+01,1.276e+01,1.325e+01,1.010e+01,1.438e+01,1.236e+01,1.370e+01,1.329e+01,1.286e+01,1.352e+01,1.255e+01,1.205e+01,1.177e+01,1.300e+01,1.395e+01,1.138e+01,1.327e+01,1.257e+01,1.519e+01,1.284e+01,1.462e+01,1.425e+01,1.452e+01,1.376e+01,1.349e+01,1.450e+01,1.105e+01,1.350e+01,1.271e+01
1.298e-01,1.163e+00,5.790e-01,4.550e-01,2.591e-01,1.434e+00,2.241e+00,2.026e+00,2.629e+00,2.608e+00,1.839e+00,2.207e+00,3.408e+00,3.245e+00,4.374e+00,5.389e+00,6.385e+00,5.419e+00,5.028e+00,4.986e+00,6.450e+00,7.042e+00,6.052e+00,6.604e+00,6.183e+00,6.337e+00,7.645e+00,7.803e+00,8.208e+00,7.340e+00,8.121e+00,1.008e+01,9.408e+00,8.401e+00,7.631e+00,9.653e+00,9.105e+00,9.856e+00,9.408e+00,9.607e+00,1.080e+01,9.377e+00,1.104e+01,1.025e+01,1.121e+01,9.615e+00,1.217e+01,1.169e+01,1.120e+01,1.212e+01,1.146e+01,1.330e+01,1.312e+01,1.370e+01,1.234e+01,1.282e+01,1.475e+01,1.227e+01,1.325e+01,1.470e+01,1.467e+01,9.882e+00,1.510e+01,1.428e+01,1.369e+01,1.366e+01,1.410e+01,1.351e+01,1.216e+01,1.101e+01,1.192e+01,1.269e+01,1.352e+01,9.886e+00,1.358e+01,1.257e+01,1.440e+01,1.303e+01,1.525e+01,1.376e+01,1.495e+01,1.352e+01,1.292e+01,1.344e+01,1.076e+01,1.323e+01,1.373e+01
1.556e-01,1.176e+00,7.533e-01,4.860e-01,3.250e-01,1.461e+00,2.154e+00,1.845e+00,3.058e+00,2.875e+00,1.785e+00,2.270e+00,3.547e+00,2.871e+00,4.248e+00,5.068e+00,5.186e+00,5.832e+00,6.415e+00,4.869e+00,6.403e+00,6.473e+00,5.966e+00,6.342e+00,5.458e+00,6.419e+00,7.906e+00,7.180e+00,9.407e+00,7.109e+00,9.038e+00,1.152e+01,9.611e+00,1.040e+01,8.348e+00,1.071e+01,9.852e+00,1.141e+01,1.163e+01,1.159e+01,1.245e+01,1.208e+01,1.272e+01,1.236e+01,1.335e+01,1.126e+01,1.523e+01,1.344e+01,1.327e+01,1.405e+01,1.238e+01,1.394e+01,1.565e+01,1.526e+01,1.335e+01,1.472e+01,1.656e+01,1.395e+01,1.621e+01,1.567e+01,1.531e+01,1.158e+01,1.688e+01,1.558e+01,1.493e+01,1.602e+01,1.531e+01,1.419e+01,1.393e+01,1.345e+01,1.364e+01,1.426e+01,1.588e+01,1.267e+01,1.443e+01,1.455e+01,1.759e+01,1.521e+01,1.587e+01,1.661e+01,1.645e+01,1.664e+01,1.603e+01,1.671e+01,1.361e+01,1.490e+01,1.604e+01
1.612e-01,1.296e+00,5.493e-01,4.815e-01,2.725e-01,1.616e+00,2.488e+00,1.885e+00,2.634e+00,2.405e+00,1.755e+00,2.180e+00,3.672e+00,3.577e+00,4.570e+00,5.771e+00,6.425e+00,5.445e+00,5.795e+00,4.693e+00,6.574e+00,6.831e+00,6.156e+00,6.483e+00,5.949e+00,5.587e+00,7.898e+00,8.001e+00,8.643e+00,7.751e+00,7.590e+00,1.126e+01,1.002e+01,9.661e+00,8.225e+00,1.005e+01,9.267e+00,1.193e+01,1.025e+01,1.105e+01,1.118e+01,9.829e+00,1.209e+01,1.190e+01,1.233e+01,1.095e+01,1.416e+01,1.211e+01,1.249e+01,1.335e+01,1.356e+01,1.397e+01,1.343e+01,1.527e+01,1.359e+01,1.436e+01,1.588e+01,1.486e+01,1.530e+01,1.562e+01,1.506e+01,1.207e+01,1.703e+01,1.653e+01,1.392e+01,1.465e+01,1.402e+01,1.498e+01,1.385e+01,1.269e+01,1.233e+01,1.472e+01,1.607e+01,1.078e+01,1.503e+01,1.488e+01,1.712e+01,1.449e+01,1.621e+01,1.650e+01,1.686e+01,1.487e+01,1.424e+01,1.572e+01,1.187e+01,1.514e+01,1.432e+01
1.550e-01,1.362e+00,7.875e-01,5.972e-01,3.679e-01,2.092e+00,2.824e+00,2.258e+00,3.310e+00,2.684e+00,1.841e+00,2.344e+00,4.131e+00,2.538e+00,4.073e+00,4.873e+00,5.734e+00,5.378e+00,4.905e+00,4.654e+00,6.118e+00,6.382e+00,6.262e+00,6.728e+00,5.732e+00,6.423e+00,7.345e+00,6.423e+00,8.400e+00,7.479e+00,8.184e+00,9.762e+00,9.242e+00,7.783e+00,6.424e+00,8.956e+00,8.304e+00,9.431e+00,9.330e+00,9.825e+00,1.158e+01,1.078e+01,1.067e+01,8.663e+00,1.107e+01,8.594e+00,1.148e+01,1.158e+01,1.026e+01,1.065e+01,1.028e+01,1.106e+01,1.250e+01,1.380e+01,1.248e+01,1.263e+01,1.450e+01,1.192e+01,1.339e+01,1.367e+01,1.435e+01,1.093e+01,1.465e+01,1.457e+01,1.384e+01,1.335e+01,1.375e+01,1.333e+01,1.143e+01,1.009e+01,1.114e+01,1.175e+01,1.237e+01,1.040e+01,1.338e+01,1.150e+01,1.406e+01,1.255e+01,1.542e+01,1.373e+01,1.520e+01,1.441e+01,1.213e+01,1.450e+01,1.197e+01,1.302e+01,1.340e+01
1.597e-01,1.217e+00,2.076e-01,4.047e-01,2.647e-01,9.714e-01,1.599e+00,1.383e+00,1.984e+00,1.668e+00,7.731e-01,1.007e+00,2.912e+00,1.523e+00,3.166e+00,3.518e+00,4.784e+00,4.673e+00,4.664e+00,5.132e+00,5.055e+00,4.892e+00,5.203e+00,4.838e+00,3.884e+00,4.267e+00,6.015e+00,5.729e+00,6.677e+00,5.854e+00,5.939e+00,9.492e+00,7.255e+00,8.673e+00,6.081e+00,8.404e+00,9.036e+00,9.978e+00,9.090e+00,1.002e+01,1.026e+01,8.745e+00,1.239e+01,9.743e+00,1.180e+01,9.713e+00,1.218e+01,1.109e+01,1.086e+01,1.129e+01,1.128e+01,1.180e+01,1.353e+01,1.341e+01,1.205e+01,1.261e+01,1.555e+01,1.364e+01,1.422e+01,1.410e+01,1.407e+01,1.164e+01,1.563e+01,1.426e+01,1.283e+01,1.498e+01,1.418e+01,1.285e+01,1.319e+01,1.163e+01,1.146e+01,1.352e+01,1.369e+01,1.012e+01,1.443e+01,1.281e+01,1.422e+01,1.419e+01,1.564e+01,1.378e+01,1.505e+01,1.293e+01,1.417e+01,1.535e+01,1.241e+01,1.297e+01,1.283e+01
1.269e-01,1.188e+00,8.155e-01,5.889e-01,4.560e-01,1.745e+00,2.401e+00,2.192e+00,2.743e+00,2.850e+00,1.689e+00,2.240e+00,3.723e+00,2.170e+00,3.102e+00,4.476e+00,5.345e+00,4.934e+00,5.218e+00,4.751e+00,6.486e+00,6.130e+00,4.903e+00,6.379e+00,5.163e+00,5.591e+00,7.406e+00,6.494e+00,8.046e+00,6.478e+00,7.310e+00,9.577e+00,8.164e+00,9.543e+00,5.679e+00,9.204e+00,9.242e+00,9.630e+00,9.413e+00,9.555e+00,1.156e+01,9.474e+00,1.077e+01,1.053e+01,1.268e+01,1.055e+01,1.300e+01,1.202e+01,1.158e+01,1.198e+01,1.095e+01,1.258e+01,1.301e+01,1.330e+01,1.163e+01,1.279e+01,1.582e+01,1.254e+01,1.276e+01,1.351e+01,1.439e+01,1.111e+01,1.653e+01,1.463e+01,1.468e+01,1.504e+01,1.470e+01,1.509e+01,1.261e+01,1.224e+01,1.305e+01,1.270e+01,1.504e+01,1.170e+01,1.325e+01,1.219e+01,1.388e+01,1.512e+01,1.512e+01,1.451e+01,1.445e+01,1.494e+01,1.353e+01,1.482e+01,1.250e+01,1.272e+01,1.331e+01
1.328e-01,1.233e+00,9.521e-02,5.447e-01,2.605e-01,8.720e-01,1.609e+00,1.556e+00,2.478e+00,2.258e+00,1.407e+00,1.633e+00,3.109e+00,2.590e+00,3.542e+00,4.326e+00,5.237e+00,4.914e+00,4.848e+00,4.788e+00,5.968e+00,5.433e+00,5.885e+00,6.219e+00,5.130e+00,5.011e+00,6.960e+00,6.294e+00,7.984e+00,6.740e+00,6.839e+00,9.631e+00,7.981e+00,8.930e+00,6.387e+00,9.694e+00,9.498e+00,1.122e+01,9.773e+00,1.028e+01,1.005e+01,9.469e+00,1.164e+01,1.056e+01,1.157e+01,1.023e+01,1.391e+01,1.098e+01,1.137e+01,1.209e+01,1.209e+01,1.270e+01,1.193e+01,1.268e+01,1.202e+01,1.206e+01,1.433e+01,1.337e+01,1.452e+01,1.494e+01,1.423e+01,1.110e+01,1.448e+01,1.512e+01,1.257e+01,1.479e+01,1.455e+01,1.467e+01,1.317e+01,1.324e+01,1.172e+01,1.394e+01,1.453e+01,1.126e+01,1.515e+01,1.316e+01,1.494e+01,1.388e+01,1.687e+01,1.512e+01,1.524e+01,1.498e+01,1.484e+01,1.575e+01,1.318e+01,1.252e+01,1.424e+01
1.335e-01,7.522e-01,5.790e-01,1.432e-01,2.331e-01,1.259e+00,1.855e+00,1.200e+00,1.594e+00,1.886e+00,1.330e+00,1.767e+00,3.152e+00,2.814e+00,3.232e+00,4.147e+00,4.955e+00,3.909e+00,4.308e+00,3.901e+00,5.207e+00,5.694e+00,5.049e+00,5.485e+00,4.523e+00,4.886e+00,6.793e+00,6.642e+00,7.386e+00,6.704e+00,6.164e+00,8.929e+00,7.453e+00,8.786e+00,6.923e+00,8.468e+00,7.440e+00,9.611e+00,8.954e+00,9.593e+00,9.347e+00,8.519e+00,9.968e+00,8.874e+00,1.055e+01,9.357e+00,1.225e+01,1.080e+01,1.054e+01,1.121e+01,1.072e+01,1.177e+01,1.206e+01,1.216e+01,1.113e+01,1.121e+01,1.368e+01,1.064e+01,1.259e+01,1.371e+01,1.297e+01,1.076e+01,1.565e+01,1.425e+01,1.314e+01,1.290e+01,1.283e+01,1.385e+01,1.261e+01,1.173e+01,1.250e+01,1.237e+01,1.447e+01,1.059e+01,1.327e+01,1.252e+01,1.510e+01,1.266e+01,1.570e+01,1.417e+01,1.503e+01,1.398e+01,1.299e+01,1.390e+01,1.168e+01,1.296e+01,1.396e+01
1.166e-01,6.918e-01,4.366e-01,3.156e-01,3.671e-01,1.495e+00,1.907e+00,1.970e+00,2.662e+00,2.602e+00,1.688e+00,2.081e+00,3.463e+00,3.120e+00,4.189e+00,5.208e+00,5.216e+00,4.626e+00,5.013e+00,4.152e+00,5.711e+00,5.989e+00,5.521e+00,6.607e+00,5.905e+00,5.579e+00,7.646e+00,6.898e+00,7.006e+00,7.229e+00,7.495e+00,9.651e+00,8.429e+00,8.707e+00,7.271e+00,8.374e+00,8.490e+00,9.646e+00,1.012e+01,9.333e+00,1.053e+01,1.018e+01,1.041e+01,9.990e+00,1.096e+01,9.343e+00,1.162e+01,1.073e+01,1.055e+01,1.165e+01,1.086e+01,1.143e+01,1.225e+01,1.220e+01,1.171e+01,1.253e+01,1.504e+01,1.173e+01,1.387e+01,1.414e+01,1.549e+01,1.136e+01,1.625e+01,1.435e+01,1.492e+01,1.418e+01,1.513e+01,1.459e+01,1.384e+01,1.283e+01,1.253e+01,1.245e+01,1.437e+01,8.815e+00,1.437e+01,1.360e+01,1.550e+01,1.373e+01,1.656e+01,1.622e+01,1.657e+01,1.465e+01,1.391e+01,1.529e+01,1.311e+01,1.385e+01,1.509e+01
1.285e-01,1.271e+00,8.404e-01,6.447e-01,4.719e-01,1.870e+00,2.327e+00,2.290e+00,3.137e+00,2.849e+00,1.860e+00,2.466e+00,4.373e+00,2.172e+00,3.835e+00,4.666e+00,5.564e+00,6.104e+00,5.378e+00,5.892e+00,6.313e+00,6.564e+00,6.106e+00,6.952e+00,5.665e+00,7.231e+00,7.619e+00,6.646e+00,8.301e+00,7.615e+00,8.720e+00,1.062e+01,1.028e+01,9.567e+00,7.779e+00,9.971e+00,9.752e+00,1.036e+01,9.694e+00,1.022e+01,1.239e+01,1.146e+01,1.154e+01,1.084e+01,1.337e+01,1.054e+01,1.205e+01,1.309e+01,1.205e+01,1.174e+01,1.161e+01,1.384e+01,1.470e+01,1.398e+01,1.242e+01,1.373e+01,1.664e+01,1.339e+01,1.494e+01,1.556e+01,1.673e+01,1.203e+01,1.651e+01,1.609e+01,1.667e+01,1.735e+01,1.767e+01,1.460e+01,1.414e+01,1.346e+01,1.455e+01,1.414e+01,1.691e+01,1.373e+01,1.484e+01,1.437e+01,1.722e+01,1.761e+01,1.748e+01,1.732e+01,1.612e+01,1.882e+01,1.406e+01,1.576e+01,1.419e+01,1.492e+01,1.715e+01
4.067e-03,5.448e-01,1.954e-01,6.125e-01,3.221e-01,1.383e+00,1.874e+00,1.570e+00,2.196e+00,2.122e+00,1.133e+00,1.360e+00,2.912e+00,2.527e+00,3.367e+00,5.332e+00,6.122e+00,5.046e+00,5.572e+00,5.155e+00,6.024e+00,5.458e+00,6.983e+00,7.364e+00,6.082e+00,5.776e+00,7.639e+00,8.401e+00,8.806e+00,7.450e+00,8.503e+00,1.117e+01,1.038e+01,1.013e+01,8.621e+00,1.085e+01,1.147e+01,1.136e+01,1.027e+01,1.003e+01,1.186e+01,1.122e+01,1.355e+01,1.111e+01,1.208e+01,1.086e+01,1.389e+01,1.276e+01,1.310e+01,1.202e+01,1.218e+01,1.298e+01,1.252e+01,1.420e+01,1.388e+01,1.403e+01,1.590e+01,1.335e+01,1.503e+01,1.579e+01,1.627e+01,1.414e+01,1.615e+01,1.716e+01,1.570e+01,1.729e+01,1.755e+01,1.551e+01,1.461e+01,1.524e+01,1.491e+01,1.669e+01,1.728e+01,1.363e+01,1.553e+01,1.517e+01,1.671e+01,1.705e+01,1.696e+01,1.737e+01,1.601e+01,1.686e+01,1.722e+01,1.652e+01,1.467e+01,1.436e+01,1.592e+01
7.334e-02,4.154e-01,6.884e-02,6.500e-02,2.057e-01,7.754e-01,8.931e-01,1.678e+00,1.681e+00,2.082e+00,1.345e+00,1.212e+00,3.004e+00,2.705e+00,3.882e+00,4.835e+00,5.185e+00,4.493e+00,4.987e+00,4.542e+00,5.825e+00,5.069e+00,5.635e+00,4.775e+00,5.039e+00,6.155e+00,7.696e+00,5.340e+00,7.631e+00,6.461e+00,7.050e+00,9.236e+00,8.167e+00,8.100e+00,7.027e+00,9.839e+00,9.051e+00,1.104e+01,9.609e+00,9.364e+00,1.108e+01,9.557e+00,1.254e+01,1.038e+01,1.145e+01,9.691e+00,1.242e+01,1.101e+01,1.156e+01,1.147e+01,1.314e+01,1.291e+01,1.384e+01,1.444e+01,1.346e+01,1.413e+01,1.606e+01,1.425e+01,1.464e+01,1.626e+01,1.692e+01,1.376e+01,1.655e+01,1.844e+01,1.583e+01,1.789e+01,1.908e+01,1.629e+01,1.445e+01,1.379e+01,1.489e+01,1.577e+01,1.706e+01,1.246e+01,1.728e+01,1.773e+01,1.781e+01,1.916e+01,1.944e+01,1.780e+01,1.929e+01,1.823e+01,1.916e+01,1.690e+01,1.524e+01,1.658e+01,1.793e+01
1.668e-01,1.459e+00,1.417e-01,6.255e-01,3.252e-01,1.385e+00,2.236e+00,1.858e+00,2.792e+00,2.284e+00,1.120e+00,1.345e+00,3.344e+00,2.459e+00,3.757e+00,3.947e+00,5.257e+00,4.354e+00,5.072e+00,5.356e+00,6.039e+00,5.955e+00,6.387e+00,6.053e+00,5.461e+00,4.977e+00,7.716e+00,6.394e+00,7.609e+00,6.123e+00,6.912e+00,9.513e+00,8.051e+00,9.875e+00,7.875e+00,1.046e+01,1.002e+01,1.100e+01,9.820e+00,9.302e+00,1.062e+01,9.901e+00,1.145e+01,1.022e+01,1.134e+01,9.232e+00,1.318e+01,1.147e+01,1.167e+01,1.183e+01,1.176e+01,1.245e+01,1.306e+01,1.359e+01,1.305e+01,1.435e+01,1.532e+01,1.385e+01,1.446e+01,1.506e+01,1.592e+01,1.200e+01,1.665e+01,1.753e+01,1.557e+01,1.648e+01,1.789e+01,1.690e+01,1.453e+01,1.523e+01,1.593e+01,1.680e+01,1.740e+01,1.286e+01,1.615e+01,1.482e+01,1.597e+01,1.646e+01,1.906e+01,1.834e+01,1.801e+01,1.798e+01,1.620e+01,1.703e+01,1.510e+01,1.591e+01,1.735e+01
2.246e-02,2.055e-01,7.399e-01,1.777e-01,1.416e-01,1.478e+00,1.730e+00,1.119e+00,2.199e+00,2.069e+00,1.557e+00,1.913e+00,2.889e+00,2.703e+00,3.215e+00,4.386e+00,4.353e+00,4.689e+00,4.319e+00,3.803e+00,4.574e+00,4.732e+00,5.265e+00,4.511e+00,4.134e+00,5.590e+00,6.471e+00,5.859e+00,7.687e+00,6.247e+00,7.474e+00,9.089e+00,9.426e+00,9.435e+00,7.864e+00,9.642e+00,8.580e+00,1.068e+01,9.679e+00,9.304e+00,1.127e+01,1.052e+01,1.214e+01,1.083e+01,1.305e+01,1.079e+01,1.277e+01,1.150e+01,1.201e+01,1.171e+01,1.054e+01,1.213e+01,1.353e+01,1.445e+01,1.220e+01,1.344e+01,1.723e+01,1.360e+01,1.663e+01,1.518e+01,1.619e+01,1.260e+01,1.704e+01,1.645e+01,1.560e+01,1.630e+01,1.642e+01,1.600e+01,1.449e+01,1.413e+01,1.537e+01,1.515e+01,1.687e+01,1.349e+01,1.531e+01,1.492e+01,1.799e+01,1.661e+01,1.808e+01,1.794e+01,1.712e+01,1.705e+01,1.574e+01,1.522e+01,1.433e+01,1.637e+01,1.765e+01
1.670e-01,1.120e+00,6.697e-01,5.146e-01,3.600e-01,1.970e+00,2.685e+00,1.619e+00,3.532e+00,2.490e+00,1.548e+00,2.323e+00,4.353e+00,2.667e+00,4.202e+00,4.623e+00,5.468e+00,5.568e+00,4.299e+00,5.037e+00,5.056e+00,6.324e+00,6.835e+00,6.618e+00,5.716e+00,5.280e+00,8.080e+00,8.054e+00,8.895e+00,7.360e+00,7.404e+00,1.012e+01,1.025e+01,1.045e+01,7.978e+00,1.071e+01,1.047e+01,1.208e+01,1.192e+01,1.181e+01,1.137e+01,1.111e+01,1.363e+01,1.115e+01,1.339e+01,1.015e+01,1.280e+01,1.170e+01,1.332e+01,1.411e+01,1.202e+01,1.380e+01,1.388e+01,1.436e+01,1.427e+01,1.345e+01,1.725e+01,1.275e+01,1.505e+01,1.683e+01,1.635e+01,1.383e+01,1.743e+01,1.827e+01,1.722e+01,1.623e+01,1.879e+01,1.713e+01,1.574e+01,1.674e+01,1.558e+01,1.546e+01,1.811e+01,1.360e+01,1.628e+01,1.692e+01,1.832e+01,1.848e+01,2.001e+01,1.810e+01,1.920e+01,1.774e+01,1.666e+01,1.830e+01,1.627e+01,1.762e+01,1.855e+01
1.500e-01,1.404e+00,8.149e-01,5.895e-01,4.127e-01,1.621e+00,2.327e+00,1.949e+00,2.548e+00,2.816e+00,1.742e+00,2.275e+00,4.611e+00,2.972e+00,3.875e+00,5.097e+00,6.694e+00,6.211e+00,5.551e+00,5.925e+00,6.358e+00,7.075e+00,5.901e+00,7.025e+00,5.430e+00,6.939e+00,7.011e+00,7.731e+00,8.943e+00,7.445e+00,7.671e+00,1.094e+01,9.325e+00,9.547e+00,7.588e+00,8.680e+00,9.343e+00,9.522e+00,9.019e+00,1.004e+01,1.156e+01,1.004e+01,1.031e+01,9.850e+00,1.143e+01,1.047e+01,1.139e+01,1.119e+01,1.207e+01,1.269e+01,1.112e+01,1.317e+01,1.433e+01,1.442e+01,1.290e+01,1.411e+01,1.575e+01,1.357e+01,1.564e+01,1.531e+01,1.610e+01,1.245e+01,1.721e+01,1.645e+01,1.647e+01,1.663e+01,1.716e+01,1.712e+01,1.574e+01,1.407e+01,1.632e+01,1.574e+01,1.758e+01,1.390e+01,1.784e+01,1.556e+01,2.008e+01,1.659e+01,1.941e+01,1.882e+01,1.844e+01,1.782e+01,1.607e+01,1.670e+01,1.477e+01,1.747e+01,1.919e+01
1.091e-01,8.138e-01,2.840e-01,3.215e-01,2.872e-01,1.469e+00,2.057e+00,2.219e+00,3.156e+00,3.301e+00,1.802e+00,1.770e+00,3.857e+00,3.315e+00,4.610e+00,5.193e+00,6.137e+00,5.333e+00,5.710e+00,5.032e+00,6.893e+00,6.842e+00,7.114e+00,7.073e+00,6.666e+00,5.744e+00,8.744e+00,7.831e+00,8.884e+00,7.120e+00,8.490e+00,1.050e+01,9.235e+00,9.317e+00,7.243e+00,1.122e+01,1.055e+01,1.130e+01,1.094e+01,1.088e+01,1.233e+01,1.178e+01,1.411e+01,1.148e+01,1.301e+01,1.184e+01,1.452e+01,1.412e+01,1.246e+01,1.444e+01,1.181e+01,1.318e+01,1.512e+01,1.650e+01,1.500e+01,1.576e+01,1.911e+01,1.500e+01,1.638e+01,1.746e+01,1.945e+01,1.650e+01,2.052e+01,1.962e+01,1.792e+01,1.877e+01,2.020e+01,2.007e+01,1.789e+01,1.775e+01,1.885e+01,1.778e+01,2.076e+01,1.456e+01,1.917e+01,1.901e+01,1.946e+01,1.914e+01,2.255e+01,2.046e+01,2.002e+01,2.029e+01,1.906e+01,2.037e+01,1.632e+01,1.990e+01,2.089e+01
8.104e-04,8.401e-02,9.444e-02,1.252e-01,2.075e-01,1.071e+00,1.098e+00,1.624e+00,2.093e+00,2.355e+00,1.264e+00,1.091e+00,3.348e+00,2.438e+00,3.694e+00,3.784e+00,4.793e+00,3.952e+00,3.698e+00,4.139e+00,4.564e+00,4.384e+00,5.576e+00,5.182e+00,4.963e+00,5.767e+00,6.397e+00,5.369e+00,6.067e+00,5.953e+00,7.226e+00,8.289e+00,8.184e+00,6.325e+00,6.388e+00,9.569e+00,8.883e+00,9.189e+00,8.762e+00,8.264e+00,9.771e+00,9.217e+00,1.172e+01,7.938e+00,1.046e+01,8.537e+00,9.509e+00,1.084e+01,1.116e+01,1.037e+01,1.080e+01,1.111e+01,1.259e+01,1.314e+01,1.258e+01,1.241e+01,1.459e+01,1.200e+01,1.374e+01,1.413e+01,1.486e+01,1.297e+01,1.492e+01,1.484e+01,1.412e+01,1.471e+01,1.689e+01,1.585e+01,1.432e+01,1.311e+01,1.454e+01,1.534e+01,1.611e+01,1.288e+01,1.602e+01,1.603e+01,1.654e+01,1.701e+01,1.762e+01,1.549e+01,1.599e+01,1.752e+01,1.595e+01,1.588e+01,1.401e+01,1.646e+01,1.752e+01
3.760e-02,7.566e-01,1.519e-01,5.216e-01,3.184e-01,8.488e-01,1.216e+00,1.786e+00,2.147e+00,2.527e+00,1.280e+00,1.282e+00,2.907e+00,2.054e+00,3.246e+00,4.097e+00,4.918e+00,4.809e+00,5.448e+00,4.980e+00,5.875e+00,5.760e+00,5.728e+00,6.357e+00,5.487e+00,5.468e+00,6.777e+00,7.000e+00,7.439e+00,6.550e+00,8.025e+00,1.097e+01,9.038e+00,9.568e+00,7.751e+00,1.012e+01,9.881e+00,1.059e+01,9.572e+00,1.014e+01,1.151e+01,1.106e+01,1.266e+01,1.083e+01,1.232e+01,1.018e+01,1.325e+01,1.233e+01,1.220e+01,1.213e+01,1.174e+01,1.201e+01,1.353e+01,1.363e+01,1.244e+01,1.407e+01,1.557e+01,1.456e+01,1.566e+01,1.520e+01,1.599e+01,1.375e+01,1.640e+01,1.706e+01,1.683e+01,1.770e+01,1.758e+01,1.706e+01,1.560e+01,1.585e+01,1.685e+01,1.706e+01,1.860e+01,1.469e+01,1.873e+01,1.639e+01,1.947e+01,1.718e+01,1.959e+01,1.901e+01,1.906e+01,2.056e+01,1.922e+01,1.819e+01,1.648e+01,1.789e+01,1.961e+01
1.371e-01,1.291e+00,6.264e-01,5.559e-01,3.667e-01,2.036e+00,2.800e+00,2.488e+00,2.914e+00,2.765e+00,1.772e+00,2.053e+00,4.352e+00,3.170e+00,4.369e+00,5.902e+00,7.303e+00,5.805e+00,6.372e+00,5.334e+00,7.298e+00,7.058e+00,6.922e+00,6.683e+00,6.129e+00,6.591e+00,8.003e+00,7.081e+00,8.331e+00,7.743e+00,7.875e+00,1.119e+01,9.586e+00,9.858e+00,7.975e+00,1.004e+01,8.857e+00,9.977e+00,1.106e+01,1.038e+01,1.171e+01,1.202e+01,1.223e+01,1.090e+01,1.219e+01,1.002e+01,1.355e+01,1.382e+01,1.316e+01,1.265e+01,1.190e+01,1.318e+01,1.466e+01,1.508e+01,1.407e+01,1.435e+01,1.686e+01,1.470e+01,1.722e+01,1.732e+01,1.711e+01,1.556e+01,1.887e+01,1.946e+01,1.889e+01,1.904e+01,1.906e+01,1.922e+01,1.608e+01,1.790e+01,1.826e+01,1.858e+01,1.935e+01,1.475e+01,1.931e+01,1.850e+01,2.069e+01,2.000e+01,2.275e+01,2.213e+01,2.204e+01,2.335e+01,2.157e+01,2.018e+01,1.770e+01,1.922e+01,2.197e+01
9.120e-02,1.064e+00,2.686e-01,7.048e-01,3.889e-01,1.294e+00,1.863e+00,1.759e+00,2.514e+00,2.126e+00,1.334e+00,1.793e+00,3.186e+00,2.487e+00,2.804e+00,4.052e+00,5.004e+00,4.192e+00,4.779e+00,4.113e+00,5.053e+00,5.242e+00,5.215e+00,5.974e+00,5.345e+00,4.548e+00,5.903e+00,6.817e+00,6.571e+00,5.844e+00,7.014e+00,9.358e+00,8.816e+00,8.814e+00,6.969e+00,8.898e+00,9.100e+00,1.000e+01,9.605e+00,1.003e+01,1.066e+01,1.007e+01,1.090e+01,1.010e+01,1.126e+01,9.343e+00,1.233e+01,1.085e+01,1.131e+01,1.204e+01,1.155e+01,1.246e+01,1.347e+01,1.334e+01,1.330e+01,1.405e+01,1.484e+01,1.387e+01,1.505e+01,1.518e+01,1.583e+01,1.203e+01,1.730e+01,1.713e+01,1.594e+01,1.605e+01,1.746e+01,1.749e+01,1.571e+01,1.571e+01,1.724e+01,1.685e+01,1.846e+01,1.446e+01,1.765e+01,1.667e+01,1.939e+01,1.792e+01,2.060e+01,1.937e+01,1.945e+01,1.916e+01,1.837e+01,1.945e+01,1.651e+01,1.945e+01,1.855e+01
1.739e-01,1.249e+00,1.318e-01,3.475e-01,3.007e-01,8.451e-01,1.453e+00,2.166e+00,2.100e+00,2.208e+00,1.571e+00,1.686e+00,2.693e+00,2.539e+00,3.458e+00,4.445e+00,5.213e+00,4.533e+00,5.411e+00,4.571e+00,6.518e+00,6.219e+00,5.248e+00,5.156e+00,5.199e+00,4.951e+00,6.720e+00,6.340e+00,6.754e+00,6.549e+00,7.246e+00,9.387e+00,7.706e+00,8.656e+00,7.332e+00,9.243e+00,8.259e+00,9.555e+00,9.605e+00,8.798e+00,9.890e+00,9.821e+00,9.948e+00,1.097e+01,1.132e+01,9.021e+00,1.334e+01,1.201e+01,1.215e+01,1.261e+01,1.133e+01,1.323e+01,1.408e+01,1.367e+01,1.204e+01,1.335e+01,1.558e+01,1.428e+01,1.489e+01,1.487e+01,1.520e+01,1.312e+01,1.751e+01,1.733e+01,1.582e+01,1.721e+01,1.647e+01,1.702e+01,1.650e+01,1.540e+01,1.746e+01,1.682e+01,1.951e+01,1.357e+01,1.720e+01,1.858e+01,1.983e+01,1.944e+01,2.022e+01,2.163e+01,2.035e+01,1.960e+01,2.051e+01,1.947e+01,1.471e+01,1.932e+01,1.964e+01
3.757e-02,3.176e-01,6.779e-01,1.371e-01,2.586e-01,1.597e+00,1.614e+00,1.486e+00,1.553e+00,1.741e+00,1.578e+00,1.868e+00,3.405e+00,2.270e+00,2.733e+00,4.372e+00,4.605e+00,4.454e+00,4.565e+00,3.826e+00,5.247e+00,4.918e+00,5.027e+00,5.695e+00,4.604e+00,5.076e+00,6.599e+00,6.043e+00,6.900e+00,6.338e+00,6.663e+00,8.860e+00,8.438e+00,8.325e+00,6.614e+00,9.740e+00,7.713e+00,1.101e+01,7.967e+00,1.041e+01,1.090e+01,1.040e+01,1.170e+01,9.537e+00,1.100e+01,9.608e+00,1.295e+01,1.096e+01,1.032e+01,1.172e+01,1.297e+01,1.229e+01,1.409e+01,1.309e+01,1.179e+01,1.335e+01,1.564e+01,1.389e+01,1.570e+01,1.497e+01,1.604e+01,1.408e+01,1.822e+01,1.841e+01,1.535e+01,1.660e+01,1.733e+01,1.762e+01,1.700e+01,1.615e+01,1.668e+01,1.736e+01,2.089e+01,1.570e+01,1.750e+01,1.959e+01,2.062e+01,2.041e+01,2.160e+01,2.074e+01,2.055e+01,2.037e+01,1.934e+01,1.866e+01,1.585e+01,1.885e+01,2.036e+01
1.457e-01,1.112e+00,2.555e-01,3.518e-01,3.349e-01,8.857e-01,1.267e+00,1.881e+00,1.747e+00,1.909e+00,1.067e+00,1.237e+00,3.301e+00,2.044e+00,3.224e+00,3.599e+00,5.053e+00,4.155e+00,5.196e+00,5.109e+00,5.621e+00,5.577e+00,5.422e+00,5.442e+00,5.125e+00,5.664e+00,7.100e+00,5.994e+00,7.055e+00,6.621e+00,6.829e+00,1.031e+01,8.407e+00,9.666e+00,7.519e+00,1.002e+01,9.338e+00,1.077e+01,9.984e+00,9.947e+00,1.083e+01,9.810e+00,1.090e+01,1.085e+01,1.140e+01,9.459e+00,1.366e+01,1.184e+01,1.179e+01,1.178e+01,1.226e+01,1.354e+01,1.298e+01,1.401e+01,1.321e+01,1.242e+01,1.487e+01,1.307e+01,1.477e+01,1.523e+01,1.580e+01,1.278e+01,1.703e+01,1.742e+01,1.636e+01,1.787e+01,1.683e+01,1.696e+01,1.712e+01,1.374e+01,1.796e+01,1.635e+01,2.018e+01,1.435e+01,1.747e+01,1.793e+01,2.021e+01,2.036e+01,2.044e+01,2.104e+01,2.022e+01,1.934e+01,1.855e+01,1.880e+01,1.698e+01,1.908e+01,2.079e+01
1.583e-01,1.332e+00,2.280e-01,5.501e-01,3.077e-01,1.394e+00,2.228e+00,1.733e+00,2.622e+00,2.218e+00,1.214e+00,1.482e+00,3.194e+00,2.303e+00,3.220e+00,4.000e+00,5.176e+00,4.684e+00,4.539e+00,4.617e+00,5.435e+00,5.167e+00,5.054e+00,4.990e+00,3.985e+00,3.811e+00,5.360e+00,5.899e+00,5.708e+00,5.284e+00,5.717e+00,7.476e+00,6.290e+00,7.289e+00,5.880e+00,7.868e+00,6.841e+00,7.620e+00,8.089e+00,8.919e+00,8.895e+00,8.435e+00,1.032e+01,8.831e+00,9.941e+00,9.565e+00,1.012e+01,1.001e+01,1.037e+01,1.072e+01,9.833e+00,1.136e+01,1.121e+01,1.108e+01,1.030e+01,1.125e+01,1.488e+01,1.203e+01,1.331e+01,1.374e+01,1.415e+01,1.095e+01,1.513e+01,1.581e+01,1.371e+01,1.432e+01,1.715e+01,1.538e+01,1.371e+01,1.510e+01,1.535e+01,1.595e+01,1.789e+01,1.403e+01,1.580e+01,1.653e+01,1.932e+01,1.825e+01,1.963e+01,2.114e+01,1.946e+01,1.943e+01,1.975e+01,1.892e+01,1.555e+01,1.846e+01,1.867e+01
3.855e-02,5.702e-01,2.795e-01,3.635e-01,1.913e-01,8.775e-01,1.110e+00,1.049e+00,1.757e+00,1.489e+00,1.204e+00,1.529e+00,2.642e+00,1.890e+00,2.470e+00,3.125e+00,3.484e+00,3.431e+00,2.471e+00,3.658e+00,3.898e+00,4.418e+00,4.907e+00,4.998e+00,4.664e+00,4.605e+00,5.482e+00,4.914e+00,5.973e+00,5.894e+00,6.298e+00,8.349e+00,8.301e+00,7.696e+00,6.972e+00,9.122e+00,7.904e+00,1.010e+01,8.057e+00,8.022e+00,8.532e+00,7.967e+00,8.980e+00,9.542e+00,1.207e+01,7.948e+00,1.143e+01,1.127e+01,1.134e+01,1.096e+01,1.111e+01,1.261e+01,1.239e+01,1.411e+01,1.306e+01,1.535e+01,1.419e+01,1.481e+01,1.473e+01,1.488e+01,1.395e+01,1.319e+01,1.651e+01,1.770e+01,1.470e+01,1.604e+01,1.637e+01,1.776e+01,1.453e+01,1.346e+01,1.624e+01,1.574e+01,1.819e+01,1.385e+01,1.740e+01,1.638e+01,1.799e+01,1.903e+01,2.027e+01,2.039e+01,2.067e+01,1.969e+01,1.789e+01,1.789e+01,1.598e+01,1.932e+01,1.880e+01
1.214e-01,1.188e+00,7.598e-01,6.015e-01,3.931e-01,1.990e+00,2.573e+00,2.352e+00,2.967e+00,2.385e+00,1.880e+00,2.462e+00,3.496e+00,2.245e+00,3.527e+00,4.649e+00,5.480e+00,5.464e+00,5.166e+00,4.804e+00,5.978e+00,6.102e+00,5.303e+00,5.891e+00,4.976e+00,5.812e+00,6.437e+00,6.917e+00,7.035e+00,7.585e+00,8.590e+00,1.062e+01,1.034e+01,9.947e+00,8.812e+00,1.034e+01,9.544e+00,1.092e+01,1.041e+01,1.074e+01,1.273e+01,1.207e+01,1.257e+01,1.203e+01,1.399e+01,1.032e+01,1.392e+01,1.269e+01,1.354e+01,1.303e+01,1.217e+01,1.424e+01,1.530e+01,1.522e+01,1.356e+01,1.458e+01,1.876e+01,1.546e+01,1.771e+01,1.792e+01,1.826e+01,1.571e+01,1.904e+01,1.908e+01,1.733e+01,1.899e+01,1.839e+01,1.958e+01,1.862e+01,1.816e+01,1.894e+01,1.812e+01,2.214e+01,1.659e+01,1.914e+01,1.980e+01,2.340e+01,2.181e+01,2.408e+01,2.443e+01,2.342e+01,2.371e+01,2.275e+01,2.149e+01,2.022e+01,2.224e+01,2.334e+01
2.794e-02,3.087e-01,6.020e-02,1.644e-01,2.643e-01,8.045e-01,8.020e-01,1.749e+00,1.556e+00,1.995e+00,1.251e+00,1.129e+00,2.568e+00,1.801e+00,2.593e+00,3.121e+00,3.815e+00,3.332e+00,3.830e+00,3.552e+00,4.611e+00,4.301e+00,3.884e+00,4.460e+00,4.179e+00,4.403e+00,5.467e+00,4.926e+00,4.812e+00,5.314e+00,6.757e+00,8.379e+00,7.178e+00,7.205e+00,6.423e+00,9.169e+00,7.500e+00,8.726e+00,7.680e+00,7.922e+00,9.787e+00,8.884e+00,1.051e+01,9.122e+00,1.056e+01,9.215e+00,1.214e+01,1.068e+01,1.161e+01,1.104e+01,1.134e+01,1.205e+01,1.359e+01,1.170e+01,1.105e+01,1.191e+01,1.432e+01,1.297e+01,1.360e+01,1.346e+01,1.481e+01,1.287e+01,1.621e+01,1.563e+01,1.390e+01,1.564e+01,1.577e+01,1.572e+01,1.469e+01,1.380e+01,1.544e+01,1.544e+01,1.715e+01,1.413e+01,1.538e+01,1.639e+01,1.889e+01,1.877e+01,1.968e+01,2.009e+01,1.958e+01,2.039e+01,2.037e+01,1.858e+01,1.694e+01,1.713e+01,2.004e+01
4.082e-02,3.777e-01,6.488e-01,3.176e-01,2.574e-01,1.586e+00,1.991e+00,1.650e+00,2.541e+00,2.526e+00,1.369e+00,1.645e+00,2.804e+00,2.599e+00,3.727e+00,4.364e+00,4.727e+00,4.174e+00,4.922e+00,3.994e+00,4.925e+00,5.466e+00,6.112e+00,5.328e+00,5.324e+00,5.480e+00,7.762e+00,6.043e+00,7.451e+00,5.916e+00,6.117e+00,8.050e+00,8.177e+00,8.807e+00,7.215e+00,8.450e+00,8.495e+00,9.168e+00,9.983e+00,8.045e+00,9.283e+00,9.371e+00,1.160e+01,1.094e+01,1.161e+01,1.009e+01,1.122e+01,1.172e+01,1.102e+01,1.253e+01,1.051e+01,1.152e+01,1.259e+01,1.384e+01,1.245e+01,1.286e+01,1.509e+01,1.272e+01,1.460e+01,1.444e+01,1.394e+01,1.219e+01,1.606e+01,1.566e+01,1.351e+01,1.509e+01,1.660e+01,1.701e+01,1.474e+01,1.646e+01,1.578e+01,1.610e+01,1.784e+01,1.490e+01,1.707e+01,1.816e+01,1.941e+01,1.975e+01,2.109e+01,2.264e+01,2.178e+01,2.123e+01,2.169e+01,2.120e+01,1.673e+01,2.091e+01,2.058e+01
1.291e-01,8.384e-01,1.727e-01,1.919e-01,2.650e-01,1.039e+00,1.595e+00,2.112e+00,2.276e+00,2.885e+00,1.538e+00,1.387e+00,3.238e+00,3.181e+00,4.318e+00,4.387e+00,5.435e+00,4.182e+00,5.057e+00,3.958e+00,5.759e+00,5.815e+00,4.875e+00,4.819e+00,4.774e+00,4.968e+00,7.200e+00,6.207e+00,7.111e+00,6.015e+00,5.970e+00,9.266e+00,7.331e+00,8.177e+00,6.804e+00,8.542e+00,7.894e+00,9.035e+00,8.228e+00,8.042e+00,9.827e+00,8.154e+00,1.052e+01,9.748e+00,9.857e+00,9.394e+00,1.097e+01,1.041e+01,9.679e+00,1.067e+01,1.030e+01,1.126e+01,1.281e+01,1.319e+01,1.099e+01,1.242e+01,1.499e+01,1.220e+01,1.239e+01,1.315e+01,1.480e+01,1.160e+01,1.555e+01,1.438e+01,1.419e+01,1.350e+01,1.376e+01,1.559e+01,1.387e+01,1.373e+01,1.455e+01,1.474e+01,1.618e+01,1.294e+01,1.606e+01,1.597e+01,1.731e+01,1.805e+01,1.906e+01,1.891e+01,1.928e+01,1.792e+01,1.819e+01,1.745e+01,1.373e+01,1.785e+01,1.826e+01
2.461e-02,3.591e-01,9.608e-02,2.859e-01,1.870e-01,6.345e-01,8.755e-01,1.134e+00,1.897e+00,2.158e+00,1.103e+00,1.122e+00,2.687e+00,2.573e+00,2.912e+00,3.347e+00,3.952e+00,3.586e+00,4.001e+00,4.261e+00,4.393e+00,5.094e+00,6.250e+00,5.014e+00,5.162e+00,5.172e+00,7.002e+00,5.930e+00,6.840e+00,5.553e+00,6.096e+00,7.911e+00,8.089e+00,8.619e+00,7.146e+00,9.328e+00,8.214e+00,9.450e+00,1.010e+01,8.156e+00,9.370e+00,1.030e+01,1.147e+01,1.108e+01,1.220e+01,1.028e+01,1.105e+01,1.121e+01,1.150e+01,1.272e+01,1.115e+01,1.322e+01,1.272e+01,1.358e+01,1.300e+01,1.345e+01,1.436e+01,1.208e+01,1.485e+01,1.499e+01,1.489e+01,1.268e+01,1.736e+01,1.712e+01,1.454e+01,1.528e+01,1.767e+01,1.813e+01,1.598e+01,1.650e+01,1.676e+01,1.679e+01,1.930e+01,1.540e+01,1.695e+01,1.888e+01,2.056e+01,2.090e+01,2.130e+01,2.284e+01,2.098e+01,2.267e+01,2.200e+01,2.146e+01,1.977e+01,2.128e+01,2.205e+01
1.108e-01,1.168e+00,2.658e-01,7.269e-01,4.951e-01,1.952e+00,2.548e+00,2.545e+00,3.417e+00,2.852e+00,1.708e+00,2.082e+00,4.308e+00,2.583e+00,4.209e+00,4.673e+00,5.975e+00,5.045e+00,5.484e+00,5.566e+00,6.761e+00,5.814e+00,6.486e+00,7.337e+00,5.695e+00,6.219e+00,7.456e+00,7.082e+00,7.891e+00,7.978e+00,9.356e+00,1.101e+01,1.006e+01,9.112e+00,7.462e+00,1.103e+01,1.029e+01,1.086e+01,1.069e+01,1.141e+01,1.165e+01,1.154e+01,1.283e+01,1.029e+01,1.353e+01,1.037e+01,1.457e+01,1.416e+01,1.447e+01,1.383e+01,1.248e+01,1.433e+01,1.502e+01,1.620e+01,1.373e+01,1.499e+01,1.712e+01,1.600e+01,1.661e+01,1.608e+01,1.714e+01,1.339e+01,1.718e+01,1.884e+01,1.794e+01,1.965e+01,1.970e+01,1.888e+01,1.677e+01,1.633e+01,1.893e+01,1.807e+01,2.069e+01,1.662e+01,1.981e+01,1.913e+01,1.969e+01,2.152e+01,2.253e+01,2.321e+01,2.408e+01,2.521e+01,2.386e+01,2.396e+01,2.093e+01,2.056e+01,2.432e+01
1.203e-01,9.230e-01,2.565e-01,3.688e-01,3.737e-01,1.672e+00,2.214e+00,2.297e+00,2.677e+00,2.876e+00,1.566e+00,1.628e+00,4.169e+00,3.289e+00,4.782e+00,4.994e+00,6.411e+00,4.811e+00,5.249e+00,5.114e+00,6.298e+00,6.596e+00,6.698e+00,7.678e+00,6.601e+00,5.673e+00,8.481e+00,8.332e+00,7.971e+00,8.162e+00,7.807e+00,1.125e+01,9.979e+00,8.875e+00,8.263e+00,1.092e+01,1.048e+01,1.182e+01,9.865e+00,1.128e+01,1.141e+01,9.979e+00,1.245e+01,1.087e+01,1.230e+01,1.160e+01,1.392e+01,1.265e+01,1.289e+01,1.307e+01,1.457e+01,1.426e+01,1.441e+01,1.601e+01,1.541e+01,1.616e+01,1.830e+01,1.604e+01,1.761e+01,1.695e+01,1.949e+01,1.557e+01,1.992e+01,2.060e+01,1.987e+01,2.012e+01,2.132e+01,2.137e+01,1.967e+01,1.809e+01,1.923e+01,1.897e+01,2.215e+01,1.680e+01,2.158e+01,2.226e+01,2.396e+01,2.398e+01,2.476e+01,2.503e+01,2.560e+01,2.468e+01,2.445e+01,2.599e+01,2.123e+01,2.556e+01,2.667e+01
1.556e-01,1.022e+00,6.621e-01,3.051e-01,3.087e-01,1.394e+00,1.923e+00,1.724e+00,2.662e+00,2.525e+00,1.528e+00,1.931e+00,3.437e+00,2.054e+00,3.792e+00,4.043e+00,4.717e+00,5.449e+00,5.271e+00,5.164e+00,5.759e+00,6.383e+00,6.251e+00,6.913e+00,5.428e+00,5.721e+00,8.233e+00,7.226e+00,8.208e+00,7.466e+00,8.029e+00,1.084e+01,8.991e+00,1.010e+01,7.210e+00,1.067e+01,1.012e+01,1.168e+01,1.110e+01,1.153e+01,1.174e+01,1.044e+01,1.169e+01,1.103e+01,1.253e+01,1.011e+01,1.453e+01,1.217e+01,1.131e+01,1.314e+01,1.214e+01,1.289e+01,1.353e+01,1.369e+01,1.300e+01,1.367e+01,1.700e+01,1.393e+01,1.579e+01,1.553e+01,1.524e+01,1.409e+01,1.945e+01,2.045e+01,1.630e+01,1.718e+01,1.894e+01,1.823e+01,1.693e+01,1.613e+01,1.829e+01,1.564e+01,1.912e+01,1.651e+01,1.826e+01,1.904e+01,2.211e+01,2.258e+01,2.357e+01,2.237e+01,2.470e+01,2.413e+01,2.374e+01,2.258e+01,2.100e+01,2.296e+01,2.441e+01
1.692e-01,1.038e+00,5.118e-01,3.603e-01,3.395e-01,1.571e+00,2.208e+00,1.513e+00,2.402e+00,2.012e+00,1.170e+00,1.709e+00,3.565e+00,2.518e+00,3.566e+00,4.399e+00,5.109e+00,4.565e+00,4.807e+00,4.726e+00,5.289e+00,5.629e+00,5.500e+00,5.531e+00,4.577e+00,5.130e+00,7.426e+00,7.183e+00,8.280e+00,6.745e+00,7.528e+00,1.085e+01,9.103e+00,1.016e+01,7.440e+00,1.016e+01,9.480e+00,1.116e+01,1.075e+01,1.128e+01,1.187e+01,1.087e+01,1.273e+01,1.160e+01,1.428e+01,1.166e+01,1.518e+01,1.276e+01,1.446e+01,1.453e+01,1.336e+01,1.400e+01,1.560e+01,1.563e+01,1.421e+01,1.507e+01,1.817e+01,1.547e+01,1.786e+01,1.662e+01,1.787e+01,1.397e+01,2.063e+01,1.949e+01,1.927e+01,1.922e+01,1.934e+01,2.032e+01,1.910e+01,1.822e+01,1.937e+01,1.885e+01,2.198e+01,1.685e+01,2.029e+01,2.041e+01,2.352e+01,2.255e+01,2.412e+01,2.477e+01,2.529e+01,2.459e+01,2.421e+01,2.457e+01,2.118e+01,2.342e+01,2.589e+01
1.171e-01,9.694e-01,6.513e-01,3.898e-01,3.677e-01,1.937e+00,2.516e+00,2.224e+00,2.864e+00,2.953e+00,1.490e+00,1.685e+00,4.082e+00,2.392e+00,4.017e+00,3.903e+00,5.638e+00,4.890e+00,5.588e+00,5.571e+00,6.172e+00,6.366e+00,6.865e+00,5.867e+00,4.984e+00,6.156e+00,8.009e+00,6.324e+00,7.516e+00,7.395e+00,6.606e+00,8.934e+00,8.700e+00,9.316e+00,6.930e+00,8.934e+00,8.931e+00,9.215e+00,1.022e+01,9.990e+00,1.069e+01,1.071e+01,1.262e+01,1.057e+01,1.207e+01,1.039e+01,1.124e+01,1.186e+01,1.114e+01,1.079e+01,1.027e+01,1.155e+01,1.302e+01,1.470e+01,1.283e+01,1.354e+01,1.727e+01,1.362e+01,1.539e+01,1.564e+01,1.544e+01,1.362e+01,1.657e+01,1.645e+01,1.558e+01,1.566e+01,1.666e+01,1.773e+01,1.486e+01,1.588e+01,1.604e+01,1.660e+01,1.725e+01,1.650e+01,1.898e+01,1.647e+01,1.958e+01,1.821e+01,2.153e+01,2.123e+01,2.114e+01,2.084e+01,2.054e+01,2.060e+01,2.001e+01,2.181e+01,2.263e+01
