2.205e-01,7.327e-02,3.773e-01,2.660e-01,7.704e-01,5.124e-01,3.702e-01,5.093e-01,8.005e-01,9.781e-01,3.488e-01,5.465e-01,4.101e-02,9.869e-01,8.542e-01,7.677e-01,4.954e-01,1.836e-01,4.391e-01,3.311e-01,8.648e-02,8.203e-01,6.319e-01,6.716e-01,8.586e-02,9.256e-01,8.674e-01,3.894e-01,6.646e-01,9.110e-01,6.389e-01,6.110e-03,6.305e-01,2.495e-01,8.649e-01,7.772e-01,6.886e-01,4.846e-01,2.912e-01,9.666e-01,3.687e-01,8.979e-01,3.646e-01,4.705e-01,7.050e-01,5.571e-01,7.763e-01,7.761e-02,6.639e-01,2.975e-01,2.522e-02,9.633e-01,9.859e-01,7.905e-01,2.227e-01,8.923e-01,7.174e-01,7.642e-02
1.746e-01,8.587e-01,9.087e-01,2.683e-01,1.229e+00,6.091e-01,5.781e-01,9.157e-01,7.516e-01,1.232e+00,7.625e-01,1.058e+00,6.898e-02,1.454e+00,1.195e+00,7.973e-01,8.381e-01,4.466e-01,8.723e-01,4.339e-01,2.729e-01,9.719e-01,8.879e-01,1.058e+00,1.031e+00,1.088e+00,8.068e-01,1.025e+00,8.617e-01,7.818e-01,6.663e-01,7.531e-01,7.736e-01,9.789e-01,1.607e+00,1.147e+00,1.129e+00,8.967e-01,5.689e-01,1.317e+00,1.065e+00,7.998e-01,8.499e-01,1.208e+00,1.500e+00,7.307e-01,1.426e+00,8.842e-01,1.259e+00,6.825e-01,1.337e-01,7.786e-01,1.234e+00,1.058e+00,7.067e-01,9.676e-01,1.061e+00,8.738e-01
5.341e-02,2.534e-01,4.959e-01,8.904e-01,5.059e-01,1.004e+00,1.049e+00,5.773e-01,4.304e-01,6.920e-01,2.806e-01,1.004e+00,2.404e-01,7.635e-01,1.161e+00,4.325e-01,3.779e-01,2.882e-01,8.002e-01,3.802e-01,1.011e+00,4.105e-01,4.350e-01,1.184e+00,1.030e+00,4.298e-01,8.669e-01,7.266e-01,4.276e-01,5.575e-01,1.184e+00,3.816e-01,1.157e+00,5.131e-01,6.447e-01,7.365e-01,1.055e+00,1.040e+00,2.879e-01,1.136e+00,8.602e-01,8.845e-01,1.110e+00,7.163e-01,1.162e+00,1.155e+00,7.290e-01,8.353e-01,1.090e+00,9.222e-01,4.937e-01,6.999e-01,1.372e+00,9.246e-01,4.605e-01,1.151e+00,1.207e+00,6.418e-01
1.236e-01,6.991e-01,9.358e-01,1.902e+00,1.137e+00,1.583e+00,1.546e+00,1.654e+00,1.591e+00,1.756e+00,1.575e+00,2.344e+00,5.837e-01,1.960e+00,2.532e+00,9.648e-01,1.715e+00,1.443e+00,1.750e+00,8.303e-01,1.271e+00,1.171e+00,8.598e-01,2.515e+00,1.890e+00,1.886e+00,1.349e+00,1.529e+00,8.154e-01,1.469e+00,2.173e+00,1.409e+00,2.014e+00,1.131e+00,1.804e+00,2.248e+00,2.477e+00,1.731e+00,1.334e+00,2.202e+00,1.642e+00,1.246e+00,1.767e+00,1.433e+00,2.807e+00,2.163e+00,2.173e+00,2.283e+00,1.997e+00,2.057e+00,1.163e+00,1.339e+00,2.895e+00,1.720e+00,1.003e+00,1.679e+00,2.504e+00,1.652e+00
1.228e-01,3.064e-01,4.770e-01,7.580e-01,7.218e-01,1.020e+00,1.582e+00,9.880e-01,1.617e+00,1.405e+00,8.131e-01,1.853e+00,9.480e-01,1.892e+00,1.875e+00,9.144e-01,1.224e+00,1.068e+00,1.184e+00,6.259e-01,5.635e-01,1.724e+00,8.150e-01,1.217e+00,1.107e+00,1.461e+00,1.471e+00,9.330e-01,9.935e-01,1.371e+00,1.610e+00,1.124e+00,1.338e+00,1.090e+00,1.928e+00,1.579e+00,1.982e+00,1.752e+00,1.335e+00,1.541e+00,9.878e-01,1.468e+00,1.181e+00,8.390e-01,1.754e+00,1.272e+00,1.973e+00,1.690e+00,1.505e+00,1.562e+00,7.983e-01,1.563e+00,2.046e+00,1.550e+00,1.050e+00,1.417e+00,1.590e+00,1.471e+00
8.118e-02,1.804e-01,4.385e-01,1.647e+00,5.882e-01,2.372e+00,2.447e+00,1.680e+00,2.285e+00,1.787e+00,1.869e+00,2.970e+00,1.142e+00,2.624e+00,3.051e+00,1.015e+00,1.662e+00,1.702e+00,2.046e+00,1.208e+00,1.242e+00,1.693e+00,1.007e+00,2.913e+00,2.345e+00,2.455e+00,1.866e+00,1.919e+00,1.324e+00,2.345e+00,2.935e+00,1.613e+00,2.392e+00,1.793e+00,2.502e+00,2.007e+00,2.997e+00,2.634e+00,1.680e+00,2.606e+00,1.498e+00,1.512e+00,2.364e+00,1.705e+00,2.435e+00,2.842e+00,2.782e+00,2.305e+00,2.571e+00,2.883e+00,2.184e+00,1.737e+00,2.770e+00,1.755e+00,1.180e+00,2.049e+00,2.646e+00,1.667e+00
7.045e-02,2.344e-01,4.760e-01,1.398e+00,5.792e-01,2.131e+00,2.882e+00,2.221e+00,2.802e+00,1.780e+00,2.442e+00,2.696e+00,1.627e+00,2.810e+00,2.661e+00,9.894e-01,1.687e+00,2.289e+00,2.064e+00,1.837e+00,2.077e+00,2.158e+00,1.142e+00,3.516e+00,2.800e+00,2.811e+00,1.650e+00,1.762e+00,2.134e+00,2.344e+00,2.589e+00,1.594e+00,2.205e+00,2.566e+00,3.037e+00,2.543e+00,3.228e+00,3.294e+00,1.509e+00,2.778e+00,1.659e+00,2.206e+00,3.073e+00,2.222e+00,2.563e+00,2.782e+00,2.923e+00,2.354e+00,3.007e+00,2.716e+00,2.338e+00,2.268e+00,2.549e+00,2.279e+00,1.365e+00,2.618e+00,2.837e+00,2.068e+00
3.867e-02,4.138e-01,4.641e-01,8.632e-01,5.501e-01,1.620e+00,2.471e+00,2.466e+00,2.545e+00,1.842e+00,2.658e+00,2.525e+00,1.620e+00,2.647e+00,3.200e+00,8.677e-01,1.665e+00,2.443e+00,2.520e+00,2.248e+00,2.088e+00,2.746e+00,1.135e+00,3.249e+00,2.925e+00,3.124e+00,1.860e+00,2.163e+00,2.742e+00,2.297e+00,3.014e+00,1.707e+00,2.075e+00,2.624e+00,3.726e+00,2.482e+00,3.173e+00,3.775e+00,2.133e+00,2.502e+00,2.397e+00,2.119e+00,2.596e+00,2.382e+00,2.853e+00,3.020e+00,2.844e+00,2.451e+00,3.357e+00,2.700e+00,2.219e+00,2.306e+00,2.169e+00,2.503e+00,1.768e+00,2.845e+00,3.201e+00,2.984e+00
1.933e-01,1.992e-01,5.297e-01,7.761e-01,8.557e-01,1.079e+00,1.480e+00,1.827e+00,2.632e+00,2.019e+00,2.481e+00,1.862e+00,1.230e+00,2.273e+00,3.016e+00,1.412e+00,2.149e+00,1.557e+00,1.967e+00,1.975e+00,2.478e+00,2.601e+00,1.708e+00,3.264e+00,1.660e+00,2.713e+00,1.820e+00,1.557e+00,2.379e+00,2.020e+00,2.268e+00,1.151e+00,2.306e+00,1.737e+00,3.290e+00,2.899e+00,2.337e+00,3.375e+00,1.380e+00,2.086e+00,2.373e+00,2.199e+00,2.498e+00,2.115e+00,3.127e+00,3.077e+00,2.378e+00,2.126e+00,2.848e+00,1.750e+00,1.088e+00,2.634e+00,2.400e+00,3.062e+00,2.009e+00,3.424e+00,3.263e+00,2.518e+00
1.106e-01,4.279e-01,5.553e-01,4.957e-01,7.488e-01,1.299e+00,2.178e+00,2.321e+00,2.645e+00,1.944e+00,3.012e+00,2.313e+00,1.714e+00,2.794e+00,3.219e+00,1.847e+00,2.161e+00,2.403e+00,2.803e+00,2.592e+00,2.625e+00,2.949e+00,1.749e+00,3.821e+00,2.957e+00,3.110e+00,2.015e+00,2.028e+00,3.373e+00,3.115e+00,2.956e+00,2.116e+00,2.415e+00,3.342e+00,4.238e+00,3.038e+00,2.827e+00,4.122e+00,2.024e+00,2.546e+00,2.964e+00,2.513e+00,3.643e+00,3.083e+00,3.084e+00,3.881e+00,2.759e+00,2.915e+00,3.505e+00,2.730e+00,2.374e+00,3.175e+00,2.206e+00,3.377e+00,2.582e+00,4.035e+00,3.756e+00,2.992e+00
1.261e-01,6.017e-01,7.521e-01,1.403e+00,1.011e+00,1.916e+00,2.491e+00,2.702e+00,3.145e+00,2.514e+00,4.082e+00,3.610e+00,2.142e+00,3.410e+00,4.958e+00,2.460e+00,3.267e+00,2.951e+00,3.823e+00,3.187e+00,3.079e+00,3.140e+00,2.041e+00,4.829e+00,3.569e+00,4.077e+00,2.435e+00,3.461e+00,3.668e+00,3.615e+00,3.735e+00,3.272e+00,3.008e+00,3.915e+00,5.129e+00,3.572e+00,4.275e+00,4.847e+00,2.679e+00,3.754e+00,3.516e+00,3.019e+00,3.533e+00,3.770e+00,4.667e+00,4.601e+00,4.557e+00,4.287e+00,4.310e+00,4.197e+00,2.985e+00,4.007e+00,3.957e+00,4.135e+00,3.532e+00,4.337e+00,5.127e+00,4.354e+00
2.180e-01,3.648e-01,6.015e-01,7.357e-01,1.043e+00,1.758e+00,2.456e+00,2.377e+00,3.698e+00,2.691e+00,3.925e+00,3.467e+00,2.721e+00,4.029e+00,4.959e+00,3.472e+00,3.737e+00,2.910e+00,4.325e+00,3.754e+00,3.770e+00,4.168e+00,3.272e+00,5.067e+00,3.322e+00,4.285e+00,2.803e+00,3.137e+00,4.261e+00,4.065e+00,4.065e+00,3.657e+00,3.687e+00,4.087e+00,5.503e+00,4.113e+00,4.286e+00,5.234e+00,3.209e+00,4.292e+00,3.493e+00,4.009e+00,4.832e+00,3.837e+00,4.312e+00,4.865e+00,4.937e+00,4.442e+00,4.600e+00,4.224e+00,3.443e+00,5.080e+00,4.050e+00,5.223e+00,4.621e+00,5.251e+00,5.484e+00,4.095e+00
1.878e-01,7.202e-02,5.438e-01,1.357e+00,8.313e-01,2.180e+00,2.904e+00,2.556e+00,3.638e+00,2.560e+00,3.671e+00,3.257e+00,3.082e+00,3.866e+00,5.614e+00,2.982e+00,4.096e+00,2.768e+00,4.320e+00,3.491e+00,4.369e+00,4.541e+00,2.975e+00,5.508e+00,3.799e+00,4.720e+00,2.801e+00,3.672e+00,4.340e+00,3.763e+00,4.506e+00,2.899e+00,3.888e+00,3.811e+00,5.368e+00,4.383e+00,4.572e+00,5.429e+00,2.558e+00,4.575e+00,3.574e+00,4.212e+00,5.204e+00,3.653e+00,4.447e+00,5.070e+00,4.098e+00,4.188e+00,5.256e+00,4.284e+00,3.928e+00,5.098e+00,4.747e+00,4.844e+00,4.301e+00,6.068e+00,5.575e+00,4.029e+00
2.857e-03,1.327e-01,1.461e-01,4.109e-01,1.600e-01,1.326e+00,1.591e+00,1.617e+00,2.268e+00,1.381e+00,3.452e+00,2.342e+00,1.919e+00,3.211e+00,4.215e+00,2.678e+00,3.007e+00,2.677e+00,3.314e+00,3.301e+00,3.375e+00,2.485e+00,2.665e+00,4.687e+00,3.863e+00,4.032e+00,1.569e+00,3.406e+00,3.621e+00,3.701e+00,3.049e+00,2.888e+00,2.881e+00,4.035e+00,4.898e+00,2.800e+00,3.284e+00,4.721e+00,2.480e+00,3.377e+00,3.040e+00,2.655e+00,3.796e+00,3.714e+00,3.765e+00,4.824e+00,3.805e+00,3.893e+00,4.283e+00,3.628e+00,3.365e+00,4.023e+00,2.577e+00,3.371e+00,3.896e+00,4.662e+00,4.594e+00,3.689e+00
1.768e-01,1.115e-01,4.289e-01,1.354e+00,7.761e-01,1.525e+00,1.931e+00,2.209e+00,3.101e+00,2.227e+00,3.575e+00,2.921e+00,2.913e+00,3.518e+00,5.673e+00,3.601e+00,5.129e+00,3.386e+00,5.281e+00,4.335e+00,4.628e+00,4.147e+00,3.813e+00,5.076e+00,3.930e+00,5.488e+00,2.548e+00,3.991e+00,4.755e+00,3.992e+00,4.179e+00,3.668e+00,3.790e+00,3.422e+00,5.159e+00,4.653e+00,5.195e+00,5.054e+00,3.640e+00,5.220e+00,3.418e+00,4.685e+00,4.851e+00,3.961e+00,4.448e+00,4.931e+00,4.404e+00,4.810e+00,5.503e+00,5.022e+00,4.513e+00,5.433e+00,5.623e+00,4.567e+00,4.940e+00,5.159e+00,5.479e+00,3.977e+00
2.141e-01,2.485e-01,5.578e-01,7.763e-01,9.634e-01,1.456e+00,1.935e+00,1.737e+00,2.960e+00,2.395e+00,3.054e+00,3.004e+00,2.317e+00,3.580e+00,5.117e+00,3.983e+00,4.203e+00,3.146e+00,5.062e+00,4.075e+00,4.296e+00,3.918e+00,3.987e+00,4.684e+00,4.061e+00,4.773e+00,3.427e+00,3.554e+00,4.350e+00,4.604e+00,4.182e+00,3.970e+00,3.840e+00,3.397e+00,5.994e+00,4.658e+00,4.511e+00,5.253e+00,3.725e+00,4.777e+00,3.807e+00,4.563e+00,4.647e+00,4.213e+00,5.077e+00,5.219e+00,4.708e+00,4.919e+00,5.394e+00,4.735e+00,3.219e+00,5.395e+00,4.782e+00,5.117e+00,4.837e+00,5.154e+00,5.159e+00,4.316e+00
6.909e-03,1.341e-02,1.895e-01,1.010e+00,1.673e-01,1.284e+00,1.471e+00,1.033e+00,1.509e+00,9.981e-01,2.268e+00,2.126e+00,2.288e+00,2.900e+00,4.423e+00,3.673e+00,4.076e+00,3.298e+00,5.647e+00,4.181e+00,5.038e+00,2.653e+00,4.560e+00,5.312e+00,4.685e+00,5.237e+00,2.019e+00,3.820e+00,4.010e+00,4.052e+00,3.708e+00,4.528e+00,4.573e+00,4.170e+00,4.336e+00,4.324e+00,4.900e+00,4.509e+00,3.567e+00,5.138e+00,3.232e+00,4.099e+00,5.725e+00,4.630e+00,3.633e+00,5.139e+00,4.563e+00,5.190e+00,5.486e+00,4.991e+00,5.437e+00,5.406e+00,4.911e+00,4.560e+00,5.681e+00,5.166e+00,4.750e+00,3.369e+00
4.588e-03,2.324e-01,2.260e-01,8.396e-01,2.856e-01,1.374e+00,2.212e+00,2.036e+00,3.053e+00,1.778e+00,3.652e+00,2.975e+00,2.915e+00,3.970e+00,4.986e+00,3.497e+00,4.288e+00,4.790e+00,6.088e+00,5.333e+00,5.372e+00,4.280e+00,4.385e+00,6.774e+00,5.967e+00,6.858e+00,3.350e+00,4.650e+00,4.777e+00,4.686e+00,4.777e+00,4.803e+00,4.815e+00,5.432e+00,6.507e+00,5.321e+00,5.328e+00,5.949e+00,4.559e+00,5.972e+00,4.200e+00,5.022e+00,6.029e+00,5.301e+00,5.486e+00,5.905e+00,6.159e+00,6.216e+00,6.047e+00,5.405e+00,4.900e+00,6.229e+00,5.278e+00,5.135e+00,5.577e+00,5.705e+00,6.027e+00,5.618e+00
1.426e-01,3.014e-01,4.856e-01,5.433e-01,7.526e-01,1.610e+00,2.049e+00,1.793e+00,2.681e+00,2.020e+00,3.337e+00,2.922e+00,2.486e+00,3.927e+00,5.165e+00,4.084e+00,4.217e+00,3.914e+00,6.635e+00,5.608e+00,5.625e+00,4.117e+00,5.456e+00,6.907e+00,5.550e+00,6.383e+00,4.259e+00,5.409e+00,5.337e+00,5.587e+00,5.473e+00,4.803e+00,4.961e+00,6.120e+00,7.260e+00,5.302e+00,5.934e+00,6.302e+00,5.050e+00,6.383e+00,4.873e+00,5.609e+00,6.630e+00,5.861e+00,4.971e+00,6.717e+00,6.663e+00,5.807e+00,7.091e+00,6.264e+00,5.772e+00,6.560e+00,5.837e+00,5.758e+00,6.036e+00,6.472e+00,6.493e+00,5.089e+00
1.548e-01,2.914e-01,5.790e-01,1.223e+00,8.599e-01,1.764e+00,2.393e+00,2.331e+00,2.711e+00,2.204e+00,3.273e+00,3.077e+00,2.674e+00,3.914e+00,5.486e+00,3.830e+00,4.092e+00,4.185e+00,5.924e+00,5.227e+00,5.575e+00,4.981e+00,3.964e+00,6.492e+00,6.115e+00,6.250e+00,4.348e+00,5.597e+00,5.008e+00,5.517e+00,6.182e+00,4.572e+00,4.258e+00,5.350e+00,7.098e+00,5.516e+00,5.687e+00,6.007e+00,4.711e+00,6.381e+00,5.079e+00,5.276e+00,5.874e+00,5.415e+00,5.518e+00,5.912e+00,5.507e+00,5.732e+00,6.792e+00,6.001e+00,4.914e+00,6.902e+00,6.461e+00,5.073e+00,5.141e+00,6.399e+00,6.360e+00,5.368e+00
2.664e-02,7.668e-01,8.101e-01,1.254e+00,8.323e-01,1.284e+00,1.818e+00,1.826e+00,2.200e+00,1.747e+00,3.336e+00,2.901e+00,2.785e+00,3.065e+00,5.105e+00,3.466e+00,4.582e+00,3.397e+00,6.179e+00,4.696e+00,6.348e+00,3.968e+00,5.000e+00,6.831e+00,5.860e+00,5.964e+00,3.457e+00,6.165e+00,4.920e+00,4.730e+00,5.556e+00,5.179e+00,5.391e+00,5.870e+00,6.211e+00,5.363e+00,5.477e+00,5.798e+00,4.390e+00,6.584e+00,5.779e+00,5.171e+00,6.782e+00,5.800e+00,5.330e+00,6.412e+00,6.451e+00,7.093e+00,6.347e+00,5.805e+00,6.041e+00,6.247e+00,6.464e+00,5.671e+00,6.062e+00,6.567e+00,6.830e+00,6.297e+00
1.163e-01,5.042e-01,7.055e-01,1.558e+00,9.278e-01,1.397e+00,1.820e+00,1.683e+00,2.119e+00,1.816e+00,2.405e+00,2.766e+00,2.012e+00,2.833e+00,4.132e+00,2.773e+00,3.608e+00,2.728e+00,4.019e+00,2.985e+00,3.541e+00,3.795e+00,3.746e+00,4.873e+00,4.052e+00,4.050e+00,2.839e+00,4.306e+00,3.960e+00,4.036e+00,3.669e+00,4.227e+00,3.974e+00,3.130e+00,4.912e+00,4.107e+00,4.643e+00,4.163e+00,3.230e+00,4.489e+00,3.393e+00,4.349e+00,4.123e+00,3.412e+00,4.643e+00,4.146e+00,4.707e+00,4.841e+00,4.854e+00,4.540e+00,3.508e+00,4.926e+00,5.899e+00,4.578e+00,3.783e+00,4.325e+00,4.579e+00,4.197e+00
1.954e-01,8.149e-02,5.487e-01,1.069e+00,8.395e-01,2.072e+00,2.557e+00,2.012e+00,2.413e+00,2.033e+00,2.472e+00,2.688e+00,2.205e+00,3.344e+00,4.871e+00,3.297e+00,3.477e+00,3.143e+00,5.514e+00,4.789e+00,5.547e+00,4.524e+00,6.167e+00,7.036e+00,6.380e+00,6.652e+00,4.838e+00,6.127e+00,6.213e+00,6.458e+00,6.073e+00,4.973e+00,5.005e+00,5.058e+00,7.393e+00,5.502e+00,6.087e+00,7.050e+00,4.723e+00,6.579e+00,5.727e+00,6.847e+00,6.491e+00,5.292e+00,4.684e+00,6.133e+00,6.170e+00,5.897e+00,7.872e+00,6.395e+00,5.725e+00,6.507e+00,6.513e+00,6.342e+00,4.578e+00,6.830e+00,6.146e+00,5.517e+00
6.491e-02,2.722e-01,4.481e-01,1.124e+00,5.575e-01,1.359e+00,2.190e+00,2.241e+00,2.830e+00,1.947e+00,3.256e+00,2.709e+00,2.692e+00,2.968e+00,4.838e+00,3.222e+00,4.384e+00,4.452e+00,7.086e+00,6.194e+00,7.391e+00,5.089e+00,5.478e+00,8.012e+00,6.600e+00,7.911e+00,5.062e+00,5.769e+00,5.591e+00,5.890e+00,6.368e+00,5.615e+00,5.719e+00,5.699e+00,7.410e+00,7.216e+00,6.990e+00,7.087e+00,6.211e+00,7.718e+00,6.552e+00,6.205e+00,8.292e+00,7.385e+00,6.308e+00,7.294e+00,7.253e+00,7.421e+00,7.723e+00,6.558e+00,6.508e+00,7.068e+00,8.194e+00,6.451e+00,6.543e+00,6.770e+00,7.163e+00,6.216e+00
9.845e-02,6.348e-01,6.957e-01,1.166e+00,9.022e-01,1.116e+00,1.522e+00,2.212e+00,2.551e+00,1.940e+00,3.413e+00,2.508e+00,1.962e+00,2.797e+00,3.894e+00,2.516e+00,3.596e+00,3.261e+00,4.844e+00,3.989e+00,5.104e+00,4.607e+00,5.054e+00,8.098e+00,6.126e+00,6.846e+00,4.427e+00,6.618e+00,5.798e+00,7.055e+00,5.653e+00,6.206e+00,5.234e+00,6.398e+00,7.513e+00,6.848e+00,6.011e+00,6.493e+00,5.511e+00,6.714e+00,6.921e+00,5.797e+00,7.341e+00,6.558e+00,6.908e+00,7.412e+00,7.319e+00,7.329e+00,6.887e+00,5.750e+00,6.424e+00,6.018e+00,7.469e+00,7.234e+00,5.613e+00,6.834e+00,7.062e+00,6.797e+00
1.365e-01,3.266e-01,4.794e-01,3.899e-01,7.346e-01,8.202e-01,1.601e+00,1.676e+00,1.922e+00,1.556e+00,1.921e+00,1.750e+00,2.045e+00,2.745e+00,3.517e+00,2.869e+00,3.327e+00,3.325e+00,5.561e+00,4.578e+00,4.994e+00,5.054e+00,5.414e+00,6.343e+00,5.413e+00,6.111e+00,5.335e+00,5.595e+00,6.611e+00,6.301e+00,6.157e+00,5.674e+00,4.829e+00,5.600e+00,7.469e+00,6.568e+00,6.043e+00,6.065e+00,5.937e+00,6.468e+00,5.848e+00,6.039e+00,7.300e+00,5.353e+00,5.050e+00,6.056e+00,6.496e+00,5.911e+00,7.212e+00,5.815e+00,6.093e+00,6.364e+00,6.916e+00,6.520e+00,5.540e+00,6.924e+00,5.437e+00,5.649e+00
1.943e-01,1.889e-01,5.133e-01,1.357e+00,8.907e-01,1.670e+00,2.162e+00,2.597e+00,3.660e+00,2.612e+00,3.892e+00,3.076e+00,2.374e+00,3.843e+00,5.006e+00,3.343e+00,4.268e+00,4.266e+00,5.546e+00,5.000e+00,5.412e+00,5.505e+00,4.701e+00,7.849e+00,5.863e+00,6.789e+00,5.861e+00,5.818e+00,6.840e+00,7.299e+00,6.539e+00,5.699e+00,6.561e+00,5.512e+00,7.978e+00,7.133e+00,5.821e+00,6.787e+00,5.419e+00,6.541e+00,6.077e+00,6.743e+00,7.770e+00,5.840e+00,7.788e+00,7.913e+00,7.149e+00,6.765e+00,7.504e+00,6.610e+00,5.267e+00,6.884e+00,7.688e+00,7.526e+00,5.306e+00,7.462e+00,7.107e+00,6.742e+00
1.123e-01,4.124e-01,6.181e-01,1.506e+00,8.407e-01,1.417e+00,1.963e+00,1.846e+00,2.568e+00,2.000e+00,2.445e+00,2.791e+00,1.882e+00,3.258e+00,4.077e+00,3.113e+00,3.840e+00,3.992e+00,5.508e+00,4.989e+00,5.849e+00,3.993e+00,5.223e+00,6.845e+00,6.244e+00,7.004e+00,5.512e+00,6.104e+00,5.928e+00,7.716e+00,7.307e+00,5.516e+00,6.285e+00,5.993e+00,7.463e+00,7.126e+00,7.651e+00,6.826e+00,7.586e+00,8.049e+00,7.264e+00,7.056e+00,7.665e+00,6.868e+00,7.040e+00,8.120e+00,8.474e+00,8.526e+00,7.591e+00,6.612e+00,6.653e+00,7.125e+00,8.611e+00,6.119e+00,5.584e+00,6.263e+00,7.309e+00,7.073e+00
9.796e-02,5.504e-01,7.776e-01,1.352e+00,9.231e-01,2.281e+00,2.871e+00,2.147e+00,2.589e+00,2.188e+00,3.140e+00,3.649e+00,3.021e+00,3.953e+00,5.825e+00,3.709e+00,4.152e+00,3.558e+00,6.752e+00,4.614e+00,5.645e+00,4.826e+00,5.774e+00,7.700e+00,6.715e+00,6.992e+00,5.348e+00,7.485e+00,8.046e+00,8.061e+00,8.494e+00,7.258e+00,7.970e+00,8.109e+00,8.623e+00,7.767e+00,8.365e+00,7.559e+00,6.966e+00,9.265e+00,7.458e+00,7.674e+00,9.404e+00,7.616e+00,7.696e+00,9.146e+00,1.034e+01,9.265e+00,9.491e+00,8.007e+00,8.136e+00,8.494e+00,9.228e+00,9.241e+00,7.578e+00,9.093e+00,8.591e+00,8.433e+00
6.789e-02,7.106e-01,7.461e-01,1.142e+00,8.832e-01,1.536e+00,1.797e+00,2.082e+00,2.192e+00,1.908e+00,3.360e+00,2.916e+00,2.089e+00,3.277e+00,5.052e+00,3.044e+00,4.004e+00,3.693e+00,5.859e+00,4.834e+00,5.754e+00,4.584e+00,6.016e+00,8.578e+00,7.766e+00,8.225e+00,5.554e+00,8.168e+00,7.186e+00,9.025e+00,7.894e+00,8.018e+00,7.381e+00,8.127e+00,9.687e+00,8.097e+00,8.179e+00,8.647e+00,7.076e+00,8.986e+00,8.237e+00,7.971e+00,9.128e+00,8.300e+00,8.105e+00,9.318e+00,1.008e+01,9.912e+00,9.899e+00,7.793e+00,7.851e+00,7.752e+00,8.819e+00,8.442e+00,7.151e+00,8.299e+00,8.947e+00,9.417e+00
1.945e-01,6.629e-01,8.822e-01,7.673e-01,1.214e+00,1.433e+00,1.819e+00,2.297e+00,2.235e+00,2.171e+00,2.918e+00,2.423e+00,1.503e+00,3.035e+00,4.181e+00,2.985e+00,3.328e+00,3.026e+00,4.874e+00,4.417e+00,5.101e+00,4.276e+00,5.247e+00,6.602e+00,6.092e+00,6.213e+00,5.661e+00,6.641e+00,8.041e+00,8.907e+00,8.324e+00,7.215e+00,7.605e+00,6.897e+00,8.732e+00,7.842e+00,7.518e+00,8.106e+00,7.247e+00,8.186e+00,8.214e+00,8.021e+00,9.604e+00,8.143e+00,7.981e+00,9.288e+00,8.776e+00,8.808e+00,9.626e+00,7.180e+00,6.956e+00,7.031e+00,8.579e+00,8.987e+00,6.865e+00,8.603e+00,8.586e+00,8.274e+00
6.097e-02,6.088e-01,5.901e-01,1.028e+00,7.455e-01,9.268e-01,9.221e-01,1.642e+00,1.715e+00,1.591e+00,3.065e+00,2.393e+00,1.555e+00,2.245e+00,4.071e+00,2.670e+00,3.470e+00,3.036e+00,4.928e+00,4.134e+00,4.778e+00,3.813e+00,4.358e+00,6.855e+00,5.551e+00,6.314e+00,4.735e+00,6.266e+00,6.221e+00,7.178e+00,7.258e+00,6.854e+00,7.672e+00,6.915e+00,8.091e+00,7.162e+00,6.651e+00,6.861e+00,6.958e+00,8.248e+00,8.259e+00,5.893e+00,8.068e+00,7.781e+00,7.806e+00,8.388e+00,9.498e+00,8.907e+00,8.173e+00,6.560e+00,6.346e+00,7.328e+00,8.484e+00,7.285e+00,6.235e+00,8.211e+00,8.491e+00,8.105e+00
9.180e-02,2.131e-01,4.375e-01,1.067e+00,5.780e-01,1.137e+00,1.196e+00,1.383e+00,1.728e+00,1.463e+00,2.744e+00,2.167e+00,1.716e+00,2.334e+00,4.236e+00,3.072e+00,3.627e+00,2.931e+00,5.163e+00,4.479e+00,5.723e+00,4.065e+00,5.612e+00,7.722e+00,6.387e+00,6.771e+00,5.481e+00,7.041e+00,7.537e+00,8.025e+00,7.526e+00,7.734e+00,8.322e+00,7.544e+00,8.721e+00,8.028e+00,7.426e+00,8.390e+00,6.920e+00,9.245e+00,8.634e+00,7.461e+00,9.834e+00,8.797e+00,9.122e+00,9.280e+00,9.539e+00,9.454e+00,9.835e+00,7.502e+00,7.713e+00,8.588e+00,9.539e+00,1.017e+01,7.344e+00,9.715e+00,8.822e+00,8.923e+00
1.231e-01,6.891e-01,8.155e-01,1.042e+00,1.044e+00,1.319e+00,2.039e+00,2.182e+00,2.378e+00,2.078e+00,3.177e+00,2.900e+00,2.045e+00,3.728e+00,4.691e+00,3.914e+00,3.948e+00,4.499e+00,6.385e+00,5.671e+00,6.126e+00,3.877e+00,5.875e+00,7.755e+00,7.068e+00,8.111e+00,5.657e+00,6.209e+00,7.265e+00,8.126e+00,8.484e+00,7.401e+00,8.057e+00,8.911e+00,9.849e+00,8.678e+00,8.880e+00,9.262e+00,8.950e+00,1.085e+01,9.600e+00,8.085e+00,1.114e+01,1.025e+01,9.553e+00,9.764e+00,1.160e+01,1.114e+01,9.917e+00,8.385e+00,8.630e+00,9.077e+00,1.024e+01,9.895e+00,8.629e+00,1.037e+01,9.964e+00,8.882e+00
9.935e-02,2.268e-01,4.787e-01,1.255e+00,6.328e-01,1.232e+00,1.192e+00,1.623e+00,1.784e+00,1.654e+00,2.531e+00,2.176e+00,1.857e+00,2.617e+00,4.940e+00,3.354e+00,4.229e+00,3.963e+00,7.107e+00,5.941e+00,7.303e+00,4.702e+00,6.710e+00,8.210e+00,7.280e+00,8.107e+00,5.802e+00,7.904e+00,7.648e+00,8.071e+00,8.765e+00,7.523e+00,9.553e+00,8.507e+00,9.878e+00,9.433e+00,9.821e+00,1.013e+01,8.787e+00,1.098e+01,1.078e+01,9.674e+00,1.020e+01,1.039e+01,9.798e+00,1.074e+01,1.066e+01,1.077e+01,1.170e+01,8.317e+00,9.993e+00,1.092e+01,1.126e+01,1.039e+01,8.659e+00,1.030e+01,1.001e+01,9.833e+00
9.320e-02,5.347e-01,5.538e-01,6.924e-01,7.649e-01,8.233e-01,1.251e+00,1.472e+00,2.255e+00,1.654e+00,2.462e+00,2.159e+00,1.895e+00,2.828e+00,3.450e+00,3.034e+00,3.816e+00,3.358e+00,4.887e+00,4.344e+00,5.394e+00,4.023e+00,5.238e+00,6.368e+00,6.226e+00,6.371e+00,4.485e+00,5.590e+00,6.231e+00,6.979e+00,6.894e+00,7.023e+00,7.660e+00,7.607e+00,7.887e+00,8.452e+00,6.738e+00,8.226e+00,7.148e+00,9.814e+00,8.882e+00,8.170e+00,9.951e+00,8.426e+00,8.228e+00,8.557e+00,9.640e+00,9.395e+00,9.069e+00,7.573e+00,7.820e+00,7.846e+00,8.847e+00,9.424e+00,7.043e+00,9.664e+00,8.749e+00,8.872e+00
1.214e-01,6.045e-01,6.509e-01,1.068e+00,9.342e-01,1.148e+00,1.437e+00,2.085e+00,2.360e+00,2.011e+00,2.875e+00,2.551e+00,1.858e+00,3.544e+00,4.560e+00,2.950e+00,4.065e+00,4.181e+00,6.156e+00,5.082e+00,5.373e+00,4.706e+00,5.674e+00,7.644e+00,6.418e+00,7.992e+00,6.015e+00,7.124e+00,7.820e+00,8.130e+00,8.228e+00,7.074e+00,8.531e+00,8.321e+00,9.609e+00,9.833e+00,9.987e+00,9.560e+00,9.556e+00,1.156e+01,9.050e+00,9.133e+00,1.165e+01,9.953e+00,9.911e+00,1.083e+01,1.205e+01,1.078e+01,1.200e+01,9.140e+00,1.044e+01,1.049e+01,1.182e+01,1.079e+01,8.520e+00,1.027e+01,1.028e+01,1.051e+01
6.421e-02,2.113e-01,3.446e-01,1.234e+00,4.982e-01,1.256e+00,1.627e+00,1.514e+00,2.642e+00,1.820e+00,2.482e+00,2.588e+00,1.931e+00,3.320e+00,4.317e+00,3.026e+00,4.255e+00,3.527e+00,4.651e+00,3.857e+00,5.022e+00,4.305e+00,5.039e+00,6.012e+00,5.628e+00,6.317e+00,5.177e+00,5.925e+00,6.695e+00,8.099e+00,7.205e+00,7.152e+00,7.681e+00,5.636e+00,8.567e+00,8.687e+00,8.604e+00,8.804e+00,9.061e+00,8.847e+00,8.154e+00,8.280e+00,1.005e+01,8.436e+00,9.431e+00,9.556e+00,1.014e+01,1.053e+01,1.023e+01,8.288e+00,8.326e+00,8.307e+00,1.065e+01,9.439e+00,7.660e+00,8.569e+00,9.040e+00,9.165e+00
1.565e-01,3.949e-01,7.058e-01,1.354e+00,9.580e-01,2.127e+00,2.673e+00,2.704e+00,3.553e+00,2.525e+00,3.980e+00,3.264e+00,2.863e+00,4.225e+00,5.582e+00,3.524e+00,4.651e+00,3.931e+00,5.572e+00,4.911e+00,5.853e+00,5.570e+00,4.963e+00,8.265e+00,6.542e+00,7.363e+00,5.493e+00,6.395e+00,7.570e+00,8.237e+00,7.534e+00,6.038e+00,8.251e+00,7.681e+00,9.941e+00,8.976e+00,9.089e+00,9.548e+00,8.428e+00,1.130e+01,8.986e+00,9.912e+00,1.284e+01,1.047e+01,1.030e+01,1.159e+01,1.217e+01,1.099e+01,1.090e+01,9.035e+00,9.127e+00,1.073e+01,1.206e+01,1.105e+01,7.787e+00,1.110e+01,1.111e+01,9.486e+00
4.163e-02,4.464e-01,5.827e-01,1.203e+00,6.440e-01,2.173e+00,3.026e+00,2.480e+00,2.822e+00,2.101e+00,3.613e+00,3.596e+00,2.591e+00,4.100e+00,5.093e+00,3.614e+00,3.407e+00,4.389e+00,5.866e+00,4.983e+00,5.527e+00,4.864e+00,5.187e+00,7.900e+00,7.441e+00,6.663e+00,5.429e+00,7.127e+00,8.017e+00,9.257e+00,8.355e+00,7.808e+00,8.943e+00,9.495e+00,1.014e+01,8.436e+00,1.014e+01,1.130e+01,9.509e+00,1.198e+01,1.020e+01,1.119e+01,1.361e+01,1.205e+01,1.132e+01,1.252e+01,1.407e+01,1.315e+01,1.204e+01,1.017e+01,1.183e+01,1.231e+01,1.252e+01,1.346e+01,9.244e+00,1.160e+01,1.290e+01,1.262e+01
5.963e-03,3.409e-01,3.888e-01,8.940e-01,3.878e-01,9.338e-01,1.220e+00,1.589e+00,1.562e+00,1.245e+00,2.812e+00,2.063e+00,2.296e+00,2.693e+00,4.813e+00,3.184e+00,4.086e+00,3.855e+00,6.461e+00,5.578e+00,6.482e+00,4.317e+00,5.496e+00,7.935e+00,6.705e+00,8.028e+00,4.944e+00,6.568e+00,7.017e+00,6.690e+00,7.555e+00,7.305e+00,7.626e+00,7.466e+00,8.605e+00,8.742e+00,8.682e+00,9.684e+00,9.443e+00,1.114e+01,9.404e+00,9.534e+00,1.260e+01,1.091e+01,9.672e+00,1.074e+01,1.145e+01,1.150e+01,1.121e+01,8.882e+00,1.019e+01,1.004e+01,1.238e+01,1.110e+01,9.802e+00,1.083e+01,1.144e+01,1.021e+01
9.371e-02,2.127e-01,5.191e-01,9.389e-01,6.176e-01,1.283e+00,2.304e+00,1.951e+00,2.401e+00,1.730e+00,2.690e+00,2.289e+00,2.058e+00,2.523e+00,3.685e+00,2.622e+00,2.681e+00,3.479e+00,5.136e+00,4.738e+00,5.906e+00,4.016e+00,4.702e+00,6.661e+00,5.699e+00,5.964e+00,5.718e+00,5.882e+00,7.245e+00,7.559e+00,7.392e+00,6.267e+00,7.424e+00,7.507e+00,8.881e+00,7.862e+00,7.924e+00,9.324e+00,7.248e+00,9.594e+00,8.245e+00,1.031e+01,1.047e+01,9.443e+00,8.762e+00,1.065e+01,1.133e+01,1.026e+01,1.027e+01,7.990e+00,9.290e+00,1.022e+01,9.882e+00,1.069e+01,7.513e+00,9.619e+00,9.650e+00,1.022e+01
1.647e-01,3.595e-01,7.328e-01,1.036e+00,9.588e-01,1.489e+00,2.122e+00,1.881e+00,2.478e+00,2.123e+00,2.437e+00,2.466e+00,2.178e+00,3.165e+00,4.666e+00,2.821e+00,3.593e+00,2.802e+00,4.846e+00,4.102e+00,5.673e+00,4.565e+00,4.322e+00,6.381e+00,5.376e+00,6.227e+00,5.496e+00,5.803e+00,6.729e+00,7.179e+00,8.600e+00,5.844e+00,8.994e+00,7.537e+00,9.055e+00,9.349e+00,8.790e+00,9.802e+00,9.262e+00,1.175e+01,1.031e+01,1.014e+01,1.447e+01,1.216e+01,1.098e+01,1.306e+01,1.326e+01,1.257e+01,1.243e+01,9.184e+00,1.068e+01,1.200e+01,1.371e+01,1.228e+01,9.687e+00,1.327e+01,1.352e+01,1.190e+01
2.051e-01,5.779e-01,8.903e-01,1.291e+00,1.252e+00,2.126e+00,2.516e+00,2.108e+00,2.757e+00,2.463e+00,2.565e+00,3.219e+00,1.716e+00,3.808e+00,4.498e+00,3.034e+00,3.480e+00,3.347e+00,5.055e+00,3.994e+00,4.806e+00,4.185e+00,5.073e+00,6.778e+00,6.084e+00,6.980e+00,5.689e+00,5.524e+00,6.562e+00,8.102e+00,8.374e+00,7.300e+00,8.633e+00,7.053e+00,8.827e+00,8.978e+00,8.705e+00,8.819e+00,7.928e+00,9.949e+00,8.326e+00,9.015e+00,1.329e+01,1.195e+01,1.115e+01,1.144e+01,1.308e+01,1.269e+01,1.215e+01,9.414e+00,1.009e+01,1.109e+01,1.248e+01,1.193e+01,9.806e+00,1.124e+01,1.177e+01,1.094e+01
2.572e-02,2.518e-01,2.354e-01,7.265e-01,3.441e-01,1.070e+00,1.718e+00,1.458e+00,2.285e+00,1.380e+00,2.309e+00,2.304e+00,1.813e+00,2.463e+00,2.821e+00,2.400e+00,3.133e+00,3.424e+00,4.621e+00,4.166e+00,4.750e+00,4.301e+00,4.990e+00,6.713e+00,5.994e+00,6.319e+00,4.884e+00,5.792e+00,6.639e+00,8.644e+00,7.612e+00,7.981e+00,8.780e+00,7.815e+00,8.170e+00,8.486e+00,9.244e+00,9.231e+00,9.338e+00,1.068e+01,8.968e+00,1.049e+01,1.343e+01,1.209e+01,1.087e+01,1.263e+01,1.260e+01,1.354e+01,1.220e+01,8.650e+00,1.157e+01,1.225e+01,1.225e+01,1.344e+01,9.645e+00,1.020e+01,1.161e+01,1.190e+01
8.190e-02,7.968e-01,8.174e-01,1.063e+00,9.972e-01,1.198e+00,2.341e+00,2.293e+00,3.008e+00,2.191e+00,3.435e+00,3.114e+00,2.460e+00,3.890e+00,4.493e+00,3.355e+00,4.221e+00,4.238e+00,5.314e+00,4.835e+00,5.792e+00,5.106e+00,5.553e+00,7.858e+00,7.122e+00,7.383e+00,5.614e+00,7.095e+00,7.794e+00,9.229e+00,7.474e+00,7.781e+00,7.437e+00,9.078e+00,1.052e+01,9.572e+00,9.527e+00,1.020e+01,9.151e+00,1.056e+01,1.014e+01,1.096e+01,1.231e+01,1.196e+01,1.201e+01,1.292e+01,1.425e+01,1.370e+01,1.290e+01,1.075e+01,1.246e+01,1.304e+01,1.371e+01,1.309e+01,1.050e+01,1.206e+01,1.242e+01,1.242e+01
7.738e-03,1.275e-01,1.656e-01,7.819e-01,2.186e-01,1.509e+00,2.519e+00,2.230e+00,3.095e+00,1.762e+00,3.361e+00,2.855e+00,3.137e+00,3.888e+00,5.053e+00,3.268e+00,4.437e+00,4.803e+00,6.669e+00,6.061e+00,6.527e+00,5.202e+00,6.319e+00,8.382e+00,7.489e+00,9.113e+00,5.633e+00,6.663e+00,7.715e+00,7.687e+00,7.845e+00,6.994e+00,7.794e+00,8.418e+00,9.847e+00,8.096e+00,9.272e+00,1.046e+01,9.763e+00,1.183e+01,9.025e+00,1.042e+01,1.371e+01,1.153e+01,1.031e+01,1.247e+01,1.324e+01,1.339e+01,1.342e+01,9.966e+00,1.232e+01,1.292e+01,1.216e+01,1.258e+01,1.115e+01,1.201e+01,1.284e+01,1.195e+01
1.482e-01,4.327e-01,7.299e-01,1.457e+00,9.756e-01,2.241e+00,2.911e+00,2.584e+00,3.680e+00,2.526e+00,4.228e+00,3.651e+00,2.802e+00,3.931e+00,5.288e+00,3.338e+00,4.522e+00,3.793e+00,6.206e+00,5.281e+00,6.810e+00,5.031e+00,6.566e+00,9.393e+00,6.970e+00,7.937e+00,5.452e+00,7.086e+00,7.271e+00,7.813e+00,7.852e+00,8.051e+00,8.374e+00,9.574e+00,1.046e+01,9.857e+00,1.014e+01,1.100e+01,7.777e+00,1.075e+01,1.085e+01,1.011e+01,1.377e+01,1.335e+01,1.163e+01,1.185e+01,1.473e+01,1.343e+01,1.505e+01,1.230e+01,1.368e+01,1.435e+01,1.441e+01,1.515e+01,1.159e+01,1.446e+01,1.410e+01,1.242e+01
1.585e-01,8.209e-01,9.021e-01,4.670e-01,1.199e+00,1.308e+00,2.265e+00,1.858e+00,2.618e+00,2.054e+00,2.856e+00,2.773e+00,2.082e+00,4.112e+00,3.992e+00,3.581e+00,3.665e+00,3.782e+00,5.016e+00,4.953e+00,5.340e+00,4.902e+00,6.352e+00,7.886e+00,7.155e+00,7.073e+00,5.575e+00,6.455e+00,7.001e+00,8.245e+00,6.994e+00,7.513e+00,7.314e+00,8.934e+00,1.077e+01,8.763e+00,8.946e+00,1.060e+01,8.097e+00,9.854e+00,9.226e+00,1.059e+01,1.224e+01,1.131e+01,1.113e+01,1.081e+01,1.338e+01,1.298e+01,1.435e+01,1.183e+01,1.141e+01,1.447e+01,1.403e+01,1.359e+01,1.162e+01,1.249e+01,1.381e+01,1.194e+01
1.804e-02,5.758e-01,5.017e-01,1.071e+00,5.906e-01,1.344e+00,1.494e+00,2.035e+00,2.549e+00,1.845e+00,3.694e+00,2.921e+00,2.444e+00,3.236e+00,5.214e+00,3.284e+00,4.817e+00,3.812e+00,6.016e+00,5.136e+00,6.034e+00,4.091e+00,5.297e+00,6.959e+00,6.423e+00,7.160e+00,4.156e+00,6.345e+00,6.785e+00,7.130e+00,7.957e+00,7.821e+00,8.086e+00,7.915e+00,8.738e+00,8.594e+00,8.756e+00,9.892e+00,9.271e+00,1.143e+01,9.680e+00,1.015e+01,1.387e+01,1.208e+01,1.129e+01,1.311e+01,1.382e+01,1.427e+01,1.415e+01,1.173e+01,1.295e+01,1.348e+01,1.467e+01,1.474e+01,1.279e+01,1.287e+01,1.536e+01,1.369e+01
1.998e-01,4.713e-01,6.691e-01,1.109e+00,1.090e+00,1.719e+00,1.812e+00,2.280e+00,3.036e+00,2.627e+00,3.410e+00,3.265e+00,2.489e+00,3.993e+00,5.925e+00,3.593e+00,4.887e+00,3.471e+00,6.445e+00,4.606e+00,5.772e+00,6.010e+00,6.737e+00,8.070e+00,6.482e+00,7.895e+00,5.927e+00,8.153e+00,8.341e+00,9.238e+00,9.288e+00,8.284e+00,1.011e+01,9.276e+00,1.085e+01,9.839e+00,9.798e+00,9.971e+00,8.989e+00,1.135e+01,1.057e+01,9.915e+00,1.267e+01,1.182e+01,1.181e+01,1.276e+01,1.451e+01,1.297e+01,1.481e+01,1.226e+01,1.404e+01,1.489e+01,1.475e+01,1.545e+01,1.213e+01,1.437e+01,1.431e+01,1.315e+01
1.687e-01,1.692e-01,5.978e-01,1.198e+00,8.303e-01,1.622e+00,1.857e+00,1.657e+00,2.116e+00,1.867e+00,2.089e+00,2.247e+00,1.634e+00,3.245e+00,4.037e+00,3.198e+00,2.918e+00,2.807e+00,4.427e+00,3.922e+00,4.976e+00,4.241e+00,4.933e+00,6.526e+00,5.107e+00,5.110e+00,5.317e+00,5.451e+00,6.371e+00,7.490e+00,7.414e+00,5.773e+00,7.416e+00,6.660e+00,9.005e+00,8.288e+00,8.314e+00,8.713e+00,8.670e+00,1.073e+01,8.306e+00,9.969e+00,1.258e+01,1.067e+01,1.068e+01,1.214e+01,1.291e+01,1.074e+01,1.318e+01,1.081e+01,1.159e+01,1.317e+01,1.479e+01,1.401e+01,1.074e+01,1.361e+01,1.339e+01,1.197e+01
3.829e-03,2.770e-02,1.910e-01,1.489e+00,2.009e-01,1.864e+00,2.412e+00,2.565e+00,3.259e+00,1.960e+00,4.113e+00,3.091e+00,2.401e+00,3.484e+00,5.066e+00,3.242e+00,4.458e+00,4.944e+00,6.471e+00,5.818e+00,6.934e+00,3.920e+00,5.350e+00,8.031e+00,7.027e+00,8.159e+00,4.860e+00,5.929e+00,7.227e+00,8.390e+00,8.635e+00,7.599e+00,9.609e+00,7.878e+00,9.433e+00,1.003e+01,9.698e+00,1.089e+01,9.474e+00,1.110e+01,9.764e+00,1.002e+01,1.371e+01,1.233e+01,1.090e+01,1.357e+01,1.297e+01,1.332e+01,1.539e+01,1.164e+01,1.302e+01,1.297e+01,1.424e+01,1.338e+01,1.316e+01,1.432e+01,1.512e+01,1.363e+01
9.382e-02,3.663e-01,6.195e-01,9.639e-01,7.329e-01,2.127e+00,2.885e+00,1.975e+00,2.545e+00,1.850e+00,2.793e+00,2.999e+00,2.432e+00,3.933e+00,4.558e+00,3.833e+00,3.745e+00,4.300e+00,6.418e+00,5.700e+00,6.683e+00,4.916e+00,6.558e+00,8.706e+00,8.252e+00,8.069e+00,6.094e+00,6.881e+00,7.777e+00,9.132e+00,8.636e+00,8.608e+00,8.800e+00,9.020e+00,1.055e+01,9.869e+00,1.024e+01,1.089e+01,9.452e+00,1.239e+01,1.062e+01,1.147e+01,1.524e+01,1.346e+01,1.171e+01,1.313e+01,1.510e+01,1.410e+01,1.574e+01,1.228e+01,1.387e+01,1.525e+01,1.563e+01,1.586e+01,1.326e+01,1.580e+01,1.522e+01,1.521e+01
1.498e-01,8.258e-01,8.881e-01,9.332e-01,1.199e+00,1.115e+00,1.701e+00,2.239e+00,2.643e+00,2.299e+00,2.871e+00,2.650e+00,2.086e+00,3.815e+00,4.647e+00,2.850e+00,3.862e+00,3.643e+00,5.322e+00,4.392e+00,5.487e+00,5.753e+00,6.361e+00,8.292e+00,6.869e+00,8.090e+00,5.679e+00,7.529e+00,7.870e+00,8.747e+00,9.306e+00,8.366e+00,9.200e+00,8.968e+00,1.089e+01,1.096e+01,1.009e+01,1.044e+01,9.908e+00,1.106e+01,1.098e+01,1.073e+01,1.308e+01,1.212e+01,1.200e+01,1.319e+01,1.411e+01,1.433e+01,1.628e+01,1.194e+01,1.307e+01,1.600e+01,1.713e+01,1.603e+01,1.522e+01,1.645e+01,1.674e+01,1.506e+01
1.092e-01,1.601e-01,2.846e-01,8.445e-01,5.374e-01,1.429e+00,1.568e+00,1.938e+00,2.880e+00,2.071e+00,3.872e+00,2.933e+00,2.143e+00,3.747e+00,5.374e+00,3.801e+00,4.591e+00,4.478e+00,6.551e+00,5.770e+00,6.302e+00,5.241e+00,6.717e+00,9.502e+00,7.758e+00,9.509e+00,6.774e+00,8.250e+00,9.296e+00,1.095e+01,9.078e+00,9.241e+00,1.119e+01,9.814e+00,1.175e+01,1.064e+01,1.068e+01,1.188e+01,1.098e+01,1.287e+01,1.174e+01,1.168e+01,1.521e+01,1.480e+01,1.385e+01,1.527e+01,1.607e+01,1.516e+01,1.637e+01,1.311e+01,1.439e+01,1.598e+01,1.722e+01,1.682e+01,1.372e+01,1.582e+01,1.746e+01,1.733e+01
1.878e-01,3.291e-01,6.848e-01,1.432e+00,1.009e+00,2.327e+00,2.709e+00,2.387e+00,3.143e+00,2.346e+00,3.345e+00,3.278e+00,2.505e+00,3.984e+00,4.996e+00,3.404e+00,4.064e+00,4.043e+00,6.550e+00,5.212e+00,6.073e+00,4.408e+00,5.935e+00,8.217e+00,6.640e+00,8.131e+00,5.803e+00,6.727e+00,7.409e+00,7.843e+00,8.797e+00,7.279e+00,9.535e+00,9.133e+00,9.776e+00,9.309e+00,9.890e+00,9.787e+00,9.107e+00,1.256e+01,9.767e+00,9.568e+00,1.411e+01,1.212e+01,1.131e+01,1.226e+01,1.508e+01,1.310e+01,1.517e+01,1.287e+01,1.398e+01,1.505e+01,1.567e+01,1.550e+01,1.334e+01,1.623e+01,1.695e+01,1.442e+01
1.929e-01,3.628e-01,7.279e-01,1.266e+00,1.040e+00,2.101e+00,2.267e+00,2.383e+00,2.593e+00,2.297e+00,3.286e+00,3.009e+00,2.230e+00,3.849e+00,5.383e+00,3.420e+00,3.570e+00,3.639e+00,6.114e+00,5.276e+00,5.808e+00,4.090e+00,5.098e+00,7.377e+00,6.243e+00,7.112e+00,4.975e+00,7.229e+00,7.326e+00,7.935e+00,8.270e+00,5.454e+00,7.671e+00,8.018e+00,8.365e+00,7.746e+00,9.326e+00,9.368e+00,8.555e+00,1.127e+01,8.892e+00,1.044e+01,1.101e+01,1.083e+01,1.033e+01,1.242e+01,1.285e+01,1.161e+01,1.366e+01,1.129e+01,1.336e+01,1.441e+01,1.406e+01,1.302e+01,1.203e+01,1.363e+01,1.647e+01,1.429e+01
