1.189e-01,4.458e-01,1.675e-01,2.365e-01,3.150e-01,7.608e-01,7.551e-01,2.302e-01,3.802e-01,4.697e-01,9.089e-01,4.399e-02,1.783e-01,9.901e-01,4.669e-01,9.226e-01,9.605e-01,6.692e-01,4.787e-01,9.875e-01,9.727e-01,7.547e-01,7.830e-01,1.306e-01,2.479e-01,6.447e-01,4.304e-01,3.146e-01,8.755e-01,5.688e-01,9.039e-01,5.019e-01,5.015e-01,4.208e-01,6.280e-01,6.848e-01,9.492e-01,6.148e-01,4.130e-01,8.938e-01,5.017e-01,5.203e-01,9.209e-01,9.303e-01,1.454e-01,2.131e-01,1.158e-01,9.688e-02,5.877e-01,3.049e-01,2.661e-01,1.833e-01,6.585e-01,9.316e-01,8.776e-01,6.589e-01,6.580e-01,5.297e-02,5.618e-01,7.106e-01,2.653e-01,1.886e-01,7.063e-01
1.116e-01,9.146e-01,1.058e+00,9.331e-01,8.686e-01,1.562e+00,1.092e+00,8.632e-01,7.662e-01,5.961e-01,1.332e+00,5.488e-01,8.899e-01,1.785e+00,1.025e+00,1.130e+00,1.079e+00,1.178e+00,1.108e+00,1.305e+00,1.886e+00,8.368e-01,9.449e-01,5.725e-01,1.127e+00,1.113e+00,7.768e-01,1.125e+00,1.466e+00,1.302e+00,9.013e-01,7.267e-01,1.083e+00,1.104e+00,1.168e+00,6.494e-01,1.650e+00,6.943e-01,1.326e+00,8.993e-01,8.489e-01,7.632e-01,1.824e+00,1.194e+00,1.001e+00,5.190e-01,3.154e-01,9.791e-01,1.315e+00,4.009e-01,1.032e+00,1.034e+00,7.080e-01,1.745e+00,1.604e+00,1.119e+00,1.259e+00,7.824e-01,6.049e-01,9.781e-01,8.781e-01,8.792e-01,8.945e-01
1.062e-01,7.223e-01,1.553e+00,1.028e+00,1.141e+00,1.287e+00,1.434e+00,1.272e+00,6.727e-01,1.492e+00,2.080e+00,1.097e+00,6.886e-01,2.239e+00,1.277e+00,1.428e+00,1.534e+00,1.289e+00,1.163e+00,1.569e+00,2.179e+00,1.561e+00,1.306e+00,1.023e+00,1.601e+00,1.843e+00,1.453e+00,1.664e+00,1.681e+00,1.150e+00,9.759e-01,6.423e-01,1.016e+00,1.749e+00,1.861e+00,8.819e-01,1.552e+00,1.522e+00,1.333e+00,1.150e+00,1.648e+00,9.601e-01,2.408e+00,1.410e+00,1.602e+00,6.797e-01,7.515e-01,1.124e+00,1.493e+00,1.187e+00,1.475e+00,9.286e-01,1.322e+00,1.485e+00,2.013e+00,1.813e+00,1.083e+00,1.272e+00,1.295e+00,1.517e+00,1.529e+00,6.530e-01,1.289e+00
6.968e-02,6.488e-01,1.122e+00,1.503e+00,1.582e+00,1.866e+00,1.360e+00,1.020e+00,8.478e-01,1.377e+00,1.431e+00,1.665e+00,1.223e+00,2.302e+00,1.826e+00,1.144e+00,1.621e+00,1.701e+00,1.768e+00,1.673e+00,2.587e+00,1.615e+00,1.080e+00,7.282e-01,1.529e+00,1.490e+00,1.709e+00,2.116e+00,1.625e+00,1.244e+00,1.569e+00,5.320e-01,1.776e+00,2.100e+00,1.893e+00,1.155e+00,1.362e+00,1.421e+00,1.804e+00,1.344e+00,1.071e+00,9.040e-01,2.070e+00,1.859e+00,1.693e+00,1.095e+00,1.184e+00,1.256e+00,1.936e+00,6.210e-01,1.074e+00,1.774e+00,9.015e-01,1.762e+00,2.262e+00,2.055e+00,1.201e+00,9.303e-01,1.338e+00,1.471e+00,1.059e+00,1.242e+00,8.777e-01
1.792e-03,2.961e-01,6.421e-01,8.660e-01,1.220e+00,1.811e+00,1.340e+00,1.506e+00,1.317e+00,1.286e+00,1.268e+00,1.918e+00,1.440e+00,1.533e+00,1.475e+00,9.484e-01,7.242e-01,1.679e+00,1.633e+00,1.564e+00,1.659e+00,1.148e+00,1.206e+00,9.659e-01,1.018e+00,1.063e+00,1.746e+00,1.583e+00,1.165e+00,1.313e+00,8.245e-01,7.958e-01,1.477e+00,1.238e+00,1.240e+00,1.314e+00,1.320e+00,1.040e+00,1.682e+00,1.296e+00,1.148e+00,8.207e-01,1.013e+00,1.664e+00,9.801e-01,1.258e+00,7.184e-01,1.068e+00,1.390e+00,9.553e-01,9.024e-01,1.962e+00,7.796e-01,1.038e+00,1.802e+00,1.739e+00,9.630e-01,6.984e-01,8.560e-01,8.013e-01,7.968e-01,1.266e+00,8.725e-01
9.026e-02,4.829e-01,4.993e-01,5.434e-01,7.585e-01,1.682e+00,2.106e+00,1.072e+00,9.459e-01,1.779e+00,2.273e+00,1.569e+00,9.872e-01,1.665e+00,1.576e+00,1.138e+00,1.718e+00,1.908e+00,1.757e+00,2.029e+00,2.082e+00,1.320e+00,1.979e+00,8.176e-01,1.301e+00,1.741e+00,1.777e+00,1.317e+00,1.487e+00,1.435e+00,1.507e+00,7.801e-01,1.527e+00,1.319e+00,1.676e+00,1.292e+00,1.535e+00,1.529e+00,1.611e+00,1.810e+00,1.690e+00,1.171e+00,1.672e+00,2.235e+00,7.768e-01,8.658e-01,1.088e+00,6.849e-01,1.556e+00,1.527e+00,1.105e+00,1.631e+00,1.481e+00,1.355e+00,1.599e+00,1.695e+00,1.535e+00,1.317e+00,1.395e+00,9.306e-01,1.262e+00,1.469e+00,1.399e+00
5.069e-02,3.437e-01,9.824e-01,1.017e+00,1.498e+00,2.126e+00,3.090e+00,2.111e+00,1.817e+00,2.645e+00,2.938e+00,3.687e+00,1.770e+00,2.978e+00,2.582e+00,2.194e+00,2.085e+00,3.200e+00,3.154e+00,2.948e+00,3.639e+00,2.106e+00,3.065e+00,2.029e+00,1.854e+00,3.048e+00,2.975e+00,3.199e+00,2.717e+00,2.366e+00,1.787e+00,1.394e+00,2.444e+00,2.381e+00,3.358e+00,2.136e+00,2.450e+00,2.902e+00,2.419e+00,2.712e+00,2.635e+00,1.556e+00,2.233e+00,3.097e+00,1.833e+00,2.226e+00,1.984e+00,1.341e+00,2.095e+00,2.656e+00,1.545e+00,2.443e+00,1.918e+00,1.865e+00,2.943e+00,3.648e+00,1.621e+00,1.648e+00,2.044e+00,1.526e+00,2.477e+00,2.261e+00,1.876e+00
8.381e-02,5.166e-01,6.875e-01,9.452e-01,1.275e+00,2.142e+00,2.651e+00,1.720e+00,2.037e+00,2.934e+00,2.932e+00,3.754e+00,2.421e+00,2.752e+00,2.674e+00,1.987e+00,2.733e+00,3.433e+00,2.953e+00,3.507e+00,3.418e+00,1.945e+00,3.575e+00,2.445e+00,2.361e+00,3.080e+00,3.307e+00,3.261e+00,2.929e+00,3.132e+00,2.638e+00,2.117e+00,2.369e+00,2.736e+00,3.412e+00,2.153e+00,2.381e+00,2.597e+00,2.182e+00,3.127e+00,2.688e+00,1.639e+00,2.687e+00,2.948e+00,1.626e+00,1.994e+00,1.845e+00,2.041e+00,2.542e+00,2.086e+00,1.401e+00,2.484e+00,2.018e+00,2.816e+00,3.527e+00,3.332e+00,2.531e+00,2.124e+00,2.637e+00,1.537e+00,2.139e+00,2.201e+00,2.568e+00
8.380e-02,6.256e-01,8.260e-01,8.032e-01,9.310e-01,1.751e+00,2.009e+00,1.225e+00,1.365e+00,2.756e+00,2.656e+00,2.061e+00,1.498e+00,2.357e+00,2.009e+00,1.563e+00,2.007e+00,2.244e+00,2.349e+00,3.004e+00,3.359e+00,1.333e+00,3.087e+00,2.160e+00,2.342e+00,2.760e+00,2.655e+00,2.275e+00,2.531e+00,2.768e+00,2.494e+00,1.446e+00,1.671e+00,2.682e+00,2.902e+00,1.404e+00,2.654e+00,1.719e+00,2.087e+00,2.077e+00,2.152e+00,1.921e+00,2.819e+00,2.572e+00,2.026e+00,1.872e+00,1.571e+00,2.049e+00,1.829e+00,1.636e+00,2.097e+00,2.611e+00,1.775e+00,2.704e+00,2.816e+00,2.372e+00,1.990e+00,2.081e+00,1.791e+00,1.329e+00,2.172e+00,1.606e+00,1.948e+00
2.783e-02,5.190e-01,1.462e+00,1.384e+00,1.562e+00,1.877e+00,2.126e+00,1.766e+00,1.597e+00,3.524e+00,3.376e+00,4.384e+00,2.903e+00,3.201e+00,2.856e+00,2.380e+00,2.825e+00,3.745e+00,3.080e+00,3.883e+00,4.171e+00,1.998e+00,3.936e+00,2.771e+00,4.028e+00,4.139e+00,3.718e+00,3.761e+00,3.244e+00,3.563e+00,2.775e+00,2.465e+00,2.495e+00,4.231e+00,4.335e+00,2.228e+00,2.900e+00,2.661e+00,3.038e+00,2.951e+00,3.204e+00,1.987e+00,4.226e+00,3.339e+00,3.404e+00,2.084e+00,2.527e+00,2.812e+00,3.581e+00,2.830e+00,2.760e+00,3.726e+00,2.447e+00,3.256e+00,4.638e+00,3.547e+00,3.009e+00,2.918e+00,3.356e+00,2.574e+00,3.480e+00,2.356e+00,3.234e+00
1.226e-03,3.531e-01,9.067e-01,1.112e+00,1.415e+00,2.142e+00,2.456e+00,1.873e+00,1.918e+00,3.331e+00,3.414e+00,4.992e+00,3.498e+00,3.626e+00,3.524e+00,2.920e+00,3.040e+00,4.444e+00,4.178e+00,4.230e+00,4.453e+00,2.451e+00,4.254e+00,2.796e+00,3.336e+00,3.708e+00,4.196e+00,4.333e+00,3.596e+00,4.309e+00,3.392e+00,3.239e+00,2.973e+00,4.156e+00,4.047e+00,2.815e+00,3.234e+00,2.834e+00,3.576e+00,3.282e+00,3.395e+00,2.252e+00,3.881e+00,3.740e+00,2.980e+00,2.649e+00,3.176e+00,3.159e+00,3.431e+00,2.850e+00,3.263e+00,4.022e+00,2.865e+00,3.399e+00,4.820e+00,3.718e+00,3.183e+00,2.709e+00,3.556e+00,2.365e+00,3.423e+00,3.231e+00,2.808e+00
1.689e-02,9.171e-02,2.502e-01,4.144e-01,7.990e-01,1.336e+00,1.999e+00,1.462e+00,1.811e+00,2.528e+00,2.486e+00,4.302e+00,2.983e+00,3.596e+00,3.557e+00,2.662e+00,3.124e+00,4.394e+00,3.588e+00,3.439e+00,3.599e+00,2.244e+00,4.424e+00,2.712e+00,2.169e+00,3.098e+00,3.849e+00,4.144e+00,3.691e+00,4.447e+00,3.409e+00,3.440e+00,2.815e+00,2.888e+00,3.215e+00,3.102e+00,2.921e+00,3.303e+00,2.591e+00,3.356e+00,2.747e+00,2.073e+00,3.093e+00,3.151e+00,2.587e+00,2.994e+00,2.945e+00,3.296e+00,2.598e+00,3.160e+00,2.273e+00,2.928e+00,2.531e+00,2.874e+00,3.678e+00,3.355e+00,2.179e+00,1.889e+00,2.703e+00,1.733e+00,3.004e+00,2.450e+00,2.618e+00
7.316e-02,5.190e-01,1.221e+00,1.004e+00,1.338e+00,2.003e+00,3.140e+00,2.090e+00,2.063e+00,3.829e+00,4.148e+00,4.996e+00,3.235e+00,5.176e+00,4.079e+00,4.242e+00,4.449e+00,4.764e+00,4.550e+00,4.678e+00,5.346e+00,3.249e+00,5.054e+00,3.452e+00,4.359e+00,5.443e+00,5.222e+00,4.939e+00,4.410e+00,4.626e+00,4.306e+00,4.106e+00,3.591e+00,4.372e+00,5.184e+00,3.356e+00,4.289e+00,4.704e+00,3.698e+00,4.037e+00,4.956e+00,3.410e+00,4.877e+00,4.199e+00,4.124e+00,2.976e+00,3.697e+00,4.014e+00,3.570e+00,4.431e+00,3.883e+00,3.690e+00,3.775e+00,3.866e+00,5.852e+00,5.101e+00,3.554e+00,3.388e+00,4.498e+00,2.853e+00,4.655e+00,3.115e+00,3.970e+00
6.127e-02,4.534e-01,1.279e+00,1.254e+00,1.449e+00,1.633e+00,2.352e+00,1.506e+00,1.437e+00,3.715e+00,3.718e+00,4.649e+00,3.093e+00,6.150e+00,5.020e+00,4.410e+00,4.943e+00,5.255e+00,4.825e+00,5.226e+00,5.670e+00,3.537e+00,4.981e+00,3.587e+00,5.419e+00,6.242e+00,5.081e+00,5.068e+00,4.686e+00,4.638e+00,4.681e+00,3.980e+00,4.458e+00,5.012e+00,5.960e+00,4.139e+00,4.964e+00,5.291e+00,4.567e+00,3.825e+00,4.679e+00,3.756e+00,5.380e+00,5.102e+00,5.782e+00,3.736e+00,4.855e+00,4.491e+00,4.825e+00,4.796e+00,5.101e+00,4.046e+00,4.378e+00,4.149e+00,6.794e+00,5.656e+00,4.059e+00,3.725e+00,4.767e+00,4.096e+00,5.006e+00,2.944e+00,3.969e+00
9.631e-02,8.210e-01,1.707e+00,1.266e+00,1.509e+00,2.231e+00,2.728e+00,2.154e+00,2.030e+00,4.358e+00,4.608e+00,4.665e+00,3.491e+00,4.873e+00,4.318e+00,4.498e+00,4.233e+00,4.904e+00,5.067e+00,5.688e+00,5.537e+00,3.930e+00,5.934e+00,4.543e+00,4.938e+00,5.885e+00,5.964e+00,5.646e+00,4.803e+00,6.086e+00,5.355e+00,4.089e+00,3.876e+00,5.628e+00,5.408e+00,4.079e+00,4.606e+00,3.873e+00,4.819e+00,4.563e+00,5.004e+00,3.976e+00,5.788e+00,5.189e+00,4.917e+00,3.228e+00,4.392e+00,4.710e+00,5.002e+00,3.658e+00,4.796e+00,4.357e+00,4.134e+00,4.647e+00,6.271e+00,4.809e+00,4.760e+00,4.153e+00,4.578e+00,3.432e+00,4.967e+00,2.914e+00,4.332e+00
5.875e-02,5.771e-01,9.340e-01,1.354e+00,1.730e+00,2.611e+00,2.845e+00,2.109e+00,2.558e+00,3.844e+00,3.714e+00,5.547e+00,4.000e+00,5.874e+00,5.284e+00,5.499e+00,4.860e+00,6.048e+00,6.326e+00,6.986e+00,6.120e+00,4.632e+00,6.820e+00,4.493e+00,5.712e+00,7.051e+00,5.834e+00,6.685e+00,6.103e+00,6.905e+00,5.871e+00,4.800e+00,5.452e+00,5.366e+00,6.641e+00,5.813e+00,5.492e+00,5.773e+00,5.569e+00,5.290e+00,4.753e+00,4.155e+00,5.679e+00,6.200e+00,6.214e+00,5.368e+00,5.441e+00,5.014e+00,5.859e+00,4.304e+00,5.411e+00,5.456e+00,4.343e+00,5.646e+00,7.750e+00,6.994e+00,5.604e+00,4.306e+00,5.273e+00,4.169e+00,4.983e+00,4.091e+00,5.018e+00
9.847e-03,3.729e-01,9.925e-01,9.569e-01,1.326e+00,2.031e+00,2.296e+00,2.011e+00,1.989e+00,3.384e+00,3.409e+00,4.508e+00,3.307e+00,4.461e+00,4.125e+00,4.657e+00,3.938e+00,5.319e+00,5.895e+00,6.222e+00,4.831e+00,4.765e+00,5.795e+00,4.540e+00,4.663e+00,6.443e+00,6.024e+00,5.465e+00,5.325e+00,6.566e+00,5.164e+00,4.928e+00,4.724e+00,5.661e+00,5.324e+00,5.213e+00,5.154e+00,4.139e+00,5.383e+00,4.422e+00,4.868e+00,3.918e+00,5.287e+00,5.760e+00,5.465e+00,4.212e+00,4.720e+00,5.176e+00,4.966e+00,3.829e+00,5.008e+00,5.171e+00,3.791e+00,4.843e+00,6.140e+00,5.624e+00,5.332e+00,4.503e+00,4.905e+00,3.778e+00,5.306e+00,3.853e+00,4.524e+00
1.235e-02,5.417e-01,1.589e+00,1.360e+00,1.577e+00,1.832e+00,1.640e+00,1.820e+00,1.273e+00,2.287e+00,2.682e+00,3.513e+00,2.597e+00,3.610e+00,2.978e+00,3.765e+00,3.076e+00,5.054e+00,5.267e+00,5.481e+00,4.121e+00,5.136e+00,5.327e+00,3.511e+00,4.462e+00,5.966e+00,4.999e+00,4.752e+00,5.514e+00,5.337e+00,4.344e+00,4.592e+00,4.215e+00,4.823e+00,5.240e+00,5.137e+00,4.142e+00,4.145e+00,4.479e+00,4.066e+00,4.298e+00,2.760e+00,5.347e+00,4.715e+00,5.912e+00,3.782e+00,4.489e+00,4.194e+00,5.203e+00,2.908e+00,4.513e+00,5.350e+00,3.657e+00,4.496e+00,5.458e+00,5.604e+00,4.907e+00,4.751e+00,4.484e+00,4.280e+00,4.468e+00,4.256e+00,4.583e+00
8.632e-02,8.061e-01,1.065e+00,1.144e+00,1.305e+00,2.142e+00,2.195e+00,1.736e+00,2.135e+00,2.632e+00,2.935e+00,4.078e+00,3.148e+00,5.082e+00,4.083e+00,4.429e+00,3.656e+00,5.486e+00,5.944e+00,6.780e+00,5.714e+00,3.553e+00,6.018e+00,4.547e+00,5.822e+00,6.729e+00,4.755e+00,5.114e+00,5.824e+00,6.195e+00,4.330e+00,4.699e+00,5.583e+00,4.411e+00,6.142e+00,5.121e+00,5.647e+00,5.398e+00,5.124e+00,4.367e+00,4.545e+00,3.816e+00,5.758e+00,5.273e+00,6.055e+00,4.900e+00,5.067e+00,4.302e+00,5.908e+00,4.603e+00,5.002e+00,4.627e+00,3.657e+00,5.037e+00,7.380e+00,6.549e+00,5.748e+00,4.383e+00,4.221e+00,4.691e+00,4.935e+00,3.757e+00,4.961e+00
8.454e-02,4.911e-01,9.354e-01,1.264e+00,1.642e+00,2.278e+00,2.759e+00,1.699e+00,1.601e+00,2.902e+00,3.229e+00,4.293e+00,2.823e+00,5.024e+00,4.335e+00,4.370e+00,4.641e+00,5.451e+00,5.642e+00,6.363e+00,6.044e+00,5.765e+00,6.211e+00,3.546e+00,5.008e+00,6.594e+00,5.625e+00,5.783e+00,5.398e+00,5.809e+00,5.017e+00,4.566e+00,6.223e+00,5.565e+00,5.282e+00,6.313e+00,5.348e+00,6.496e+00,5.328e+00,5.539e+00,4.584e+00,4.152e+00,6.224e+00,6.578e+00,5.926e+00,4.631e+00,5.957e+00,4.646e+00,5.491e+00,5.708e+00,4.539e+00,4.803e+00,4.327e+00,5.132e+00,6.506e+00,6.307e+00,5.704e+00,4.567e+00,5.417e+00,4.396e+00,5.448e+00,4.367e+00,5.035e+00
1.007e-01,4.354e-01,9.478e-01,1.244e+00,1.776e+00,2.395e+00,3.085e+00,2.011e+00,2.036e+00,3.894e+00,4.028e+00,5.012e+00,3.090e+00,4.927e+00,4.157e+00,4.611e+00,4.600e+00,6.144e+00,6.356e+00,7.336e+00,6.483e+00,5.858e+00,7.697e+00,4.561e+00,5.456e+00,8.112e+00,6.756e+00,5.651e+00,6.483e+00,6.722e+00,5.935e+00,5.407e+00,5.983e+00,6.695e+00,7.140e+00,6.582e+00,6.400e+00,6.610e+00,5.311e+00,6.569e+00,5.845e+00,4.891e+00,6.541e+00,6.781e+00,6.348e+00,4.670e+00,6.860e+00,4.442e+00,6.000e+00,5.444e+00,5.044e+00,5.284e+00,5.475e+00,5.860e+00,7.954e+00,7.910e+00,6.107e+00,5.808e+00,6.355e+00,5.696e+00,6.315e+00,5.270e+00,6.305e+00
6.102e-02,7.050e-01,1.194e+00,9.175e-01,9.091e-01,1.509e+00,1.682e+00,1.256e+00,1.223e+00,2.383e+00,2.957e+00,3.376e+00,2.856e+00,5.352e+00,4.277e+00,4.751e+00,4.115e+00,4.797e+00,4.802e+00,5.581e+00,5.745e+00,4.552e+00,7.245e+00,4.015e+00,6.258e+00,7.561e+00,5.084e+00,5.879e+00,5.576e+00,7.146e+00,5.263e+00,4.944e+00,6.047e+00,5.871e+00,5.966e+00,5.951e+00,6.955e+00,5.839e+00,5.556e+00,5.616e+00,4.950e+00,5.866e+00,6.678e+00,6.290e+00,7.423e+00,4.904e+00,6.641e+00,5.127e+00,5.532e+00,6.000e+00,6.972e+00,5.219e+00,5.338e+00,6.330e+00,7.698e+00,6.283e+00,6.603e+00,5.296e+00,5.807e+00,5.221e+00,6.875e+00,4.255e+00,5.464e+00
1.404e-03,3.825e-02,5.269e-01,5.231e-01,9.593e-01,1.251e+00,1.850e+00,1.653e+00,1.811e+00,2.997e+00,2.895e+00,4.933e+00,3.361e+00,4.089e+00,3.894e+00,4.424e+00,3.795e+00,5.720e+00,5.560e+00,6.359e+00,5.001e+00,5.364e+00,8.802e+00,4.687e+00,5.594e+00,7.142e+00,6.677e+00,6.772e+00,6.071e+00,7.326e+00,5.505e+00,6.154e+00,5.675e+00,5.096e+00,5.945e+00,6.810e+00,5.111e+00,6.896e+00,4.910e+00,6.864e+00,5.679e+00,5.057e+00,6.390e+00,6.329e+00,6.410e+00,6.064e+00,6.843e+00,5.561e+00,6.047e+00,6.563e+00,5.600e+00,6.686e+00,4.929e+00,5.788e+00,7.889e+00,7.259e+00,6.823e+00,5.018e+00,6.711e+00,5.485e+00,6.323e+00,4.834e+00,6.414e+00
1.117e-01,7.512e-01,1.553e+00,1.524e+00,2.042e+00,2.805e+00,2.938e+00,2.424e+00,2.208e+00,4.118e+00,4.061e+00,4.362e+00,3.190e+00,5.756e+00,4.863e+00,4.412e+00,5.127e+00,6.254e+00,5.847e+00,7.047e+00,6.454e+00,6.675e+00,9.300e+00,5.115e+00,6.602e+00,8.925e+00,8.209e+00,7.026e+00,7.512e+00,8.438e+00,7.178e+00,6.384e+00,7.315e+00,6.596e+00,7.198e+00,7.687e+00,7.488e+00,7.738e+00,5.988e+00,8.068e+00,6.623e+00,6.787e+00,8.285e+00,8.165e+00,7.840e+00,6.533e+00,8.104e+00,6.516e+00,7.077e+00,6.686e+00,7.232e+00,7.520e+00,6.846e+00,7.793e+00,9.361e+00,9.203e+00,7.534e+00,7.006e+00,7.434e+00,6.649e+00,7.050e+00,5.722e+00,7.665e+00
1.068e-01,5.499e-01,1.153e+00,1.412e+00,1.933e+00,2.427e+00,2.879e+00,2.105e+00,2.174e+00,3.706e+00,3.864e+00,5.266e+00,3.639e+00,7.076e+00,5.630e+00,5.482e+00,5.372e+00,6.339e+00,6.130e+00,6.788e+00,7.551e+00,5.862e+00,8.281e+00,4.740e+00,6.533e+00,8.858e+00,7.981e+00,8.098e+00,7.095e+00,8.643e+00,7.213e+00,6.405e+00,8.204e+00,7.333e+00,7.517e+00,7.795e+00,8.266e+00,8.136e+00,6.492e+00,8.088e+00,6.910e+00,7.447e+00,8.625e+00,8.684e+00,7.985e+00,7.078e+00,9.067e+00,6.318e+00,6.624e+00,7.963e+00,7.871e+00,6.509e+00,7.452e+00,7.828e+00,1.036e+01,8.925e+00,7.557e+00,6.061e+00,7.396e+00,6.584e+00,8.292e+00,5.324e+00,7.104e+00
3.455e-02,4.673e-01,1.185e+00,1.029e+00,1.222e+00,1.524e+00,2.006e+00,1.602e+00,1.473e+00,2.414e+00,2.806e+00,3.833e+00,2.638e+00,5.628e+00,4.447e+00,5.014e+00,3.884e+00,5.575e+00,6.240e+00,6.204e+00,6.144e+00,5.208e+00,7.456e+00,5.073e+00,6.127e+00,9.365e+00,7.842e+00,6.779e+00,6.838e+00,8.796e+00,6.230e+00,6.846e+00,7.619e+00,7.357e+00,7.800e+00,7.404e+00,8.859e+00,7.213e+00,6.750e+00,7.438e+00,7.604e+00,7.398e+00,7.807e+00,9.205e+00,8.805e+00,6.817e+00,9.389e+00,6.732e+00,7.349e+00,7.652e+00,7.589e+00,7.385e+00,6.444e+00,7.875e+00,9.420e+00,9.147e+00,8.262e+00,7.482e+00,7.535e+00,6.585e+00,9.195e+00,5.931e+00,7.240e+00
1.396e-03,2.159e-01,8.753e-01,1.127e+00,1.272e+00,1.480e+00,1.838e+00,1.102e+00,8.534e-01,2.559e+00,2.696e+00,4.211e+00,2.970e+00,4.794e+00,4.483e+00,3.625e+00,4.718e+00,5.014e+00,5.194e+00,5.559e+00,5.340e+00,5.072e+00,7.484e+00,3.297e+00,6.735e+00,7.758e+00,6.920e+00,6.913e+00,6.728e+00,8.424e+00,6.570e+00,6.282e+00,8.171e+00,7.234e+00,6.233e+00,7.544e+00,6.512e+00,7.808e+00,6.312e+00,7.142e+00,7.004e+00,7.523e+00,8.913e+00,8.382e+00,8.179e+00,6.981e+00,9.781e+00,5.908e+00,8.125e+00,7.988e+00,8.079e+00,7.869e+00,6.367e+00,7.677e+00,8.973e+00,8.353e+00,8.404e+00,7.556e+00,8.883e+00,6.790e+00,8.122e+00,6.716e+00,7.424e+00
2.447e-02,1.937e-01,7.369e-01,1.007e+00,1.184e+00,1.089e+00,1.069e+00,9.210e-01,1.212e+00,3.241e+00,2.326e+00,3.475e+00,2.635e+00,4.295e+00,3.973e+00,3.313e+00,4.328e+00,4.378e+00,4.408e+00,5.313e+00,4.271e+00,4.353e+00,6.257e+00,3.848e+00,5.566e+00,6.521e+00,6.693e+00,6.332e+00,6.333e+00,7.607e+00,6.320e+00,5.490e+00,5.343e+00,6.740e+00,6.979e+00,6.055e+00,5.572e+00,6.946e+00,5.044e+00,6.623e+00,6.216e+00,6.142e+00,7.771e+00,6.807e+00,7.931e+00,6.984e+00,7.196e+00,6.397e+00,6.233e+00,5.856e+00,5.800e+00,7.682e+00,5.279e+00,7.358e+00,7.840e+00,6.913e+00,6.615e+00,6.222e+00,7.706e+00,5.824e+00,6.813e+00,4.875e+00,7.110e+00
6.114e-02,5.676e-01,1.253e+00,1.280e+00,1.684e+00,2.326e+00,2.804e+00,2.248e+00,2.179e+00,3.016e+00,3.387e+00,5.055e+00,3.352e+00,4.721e+00,4.022e+00,3.822e+00,3.770e+00,6.397e+00,5.632e+00,5.895e+00,5.705e+00,4.962e+00,7.709e+00,4.654e+00,5.246e+00,7.420e+00,7.172e+00,6.202e+00,7.482e+00,7.865e+00,5.702e+00,7.242e+00,7.208e+00,5.720e+00,6.731e+00,6.961e+00,6.730e+00,7.277e+00,5.966e+00,7.916e+00,7.133e+00,5.927e+00,7.766e+00,7.898e+00,6.704e+00,5.791e+00,7.059e+00,5.601e+00,6.673e+00,6.931e+00,5.307e+00,7.647e+00,6.087e+00,6.552e+00,8.673e+00,8.445e+00,7.554e+00,6.108e+00,6.615e+00,5.637e+00,7.062e+00,6.319e+00,6.716e+00
6.634e-02,4.892e-01,1.158e+00,1.006e+00,1.199e+00,1.470e+00,1.719e+00,1.389e+00,1.236e+00,2.615e+00,2.701e+00,3.186e+00,2.358e+00,3.299e+00,3.088e+00,2.268e+00,3.650e+00,4.057e+00,3.902e+00,4.717e+00,3.871e+00,4.141e+00,6.179e+00,3.494e+00,4.840e+00,6.112e+00,6.212e+00,5.529e+00,6.136e+00,7.106e+00,5.758e+00,6.303e+00,6.770e+00,5.790e+00,6.019e+00,6.164e+00,5.000e+00,6.593e+00,5.169e+00,7.214e+00,6.407e+00,6.177e+00,7.971e+00,6.784e+00,6.469e+00,5.463e+00,7.734e+00,5.829e+00,6.765e+00,5.490e+00,6.260e+00,5.920e+00,5.684e+00,6.487e+00,8.015e+00,6.996e+00,8.102e+00,7.324e+00,7.605e+00,6.163e+00,6.605e+00,5.752e+00,7.182e+00
1.893e-02,1.283e-01,8.178e-01,6.866e-01,1.133e+00,1.519e+00,2.339e+00,1.851e+00,1.712e+00,3.243e+00,3.190e+00,4.220e+00,2.717e+00,3.974e+00,3.568e+00,3.479e+00,4.036e+00,4.437e+00,4.368e+00,4.710e+00,3.774e+00,4.387e+00,5.748e+00,3.691e+00,4.580e+00,6.016e+00,6.222e+00,5.153e+00,4.783e+00,5.634e+00,5.476e+00,6.089e+00,5.132e+00,4.659e+00,5.983e+00,5.180e+00,5.340e+00,6.022e+00,5.378e+00,6.924e+00,6.505e+00,4.821e+00,6.232e+00,6.422e+00,5.630e+00,4.238e+00,6.020e+00,5.495e+00,6.008e+00,5.832e+00,5.984e+00,5.674e+00,5.290e+00,4.741e+00,7.328e+00,6.998e+00,6.729e+00,5.320e+00,6.735e+00,5.502e+00,5.583e+00,5.199e+00,6.627e+00
6.939e-02,2.850e-01,6.632e-01,6.248e-01,1.091e+00,1.768e+00,2.626e+00,1.705e+00,1.639e+00,3.211e+00,3.165e+00,3.113e+00,1.776e+00,4.277e+00,3.737e+00,4.216e+00,3.463e+00,4.609e+00,5.906e+00,6.570e+00,5.633e+00,5.769e+00,8.053e+00,4.851e+00,5.913e+00,8.290e+00,7.502e+00,6.742e+00,7.315e+00,8.550e+00,7.642e+00,7.261e+00,8.780e+00,7.948e+00,8.557e+00,9.534e+00,8.596e+00,9.486e+00,8.370e+00,9.753e+00,9.407e+00,9.466e+00,9.597e+00,1.084e+01,1.014e+01,8.547e+00,1.069e+01,6.324e+00,8.280e+00,8.514e+00,8.885e+00,9.315e+00,7.873e+00,8.470e+00,9.766e+00,9.944e+00,1.004e+01,8.533e+00,8.718e+00,7.398e+00,9.467e+00,8.384e+00,8.771e+00
8.257e-02,5.396e-01,5.949e-01,8.724e-01,1.127e+00,1.910e+00,1.719e+00,1.242e+00,1.391e+00,2.076e+00,2.560e+00,3.187e+00,2.636e+00,3.874e+00,3.402e+00,4.698e+00,3.712e+00,4.735e+00,5.888e+00,6.918e+00,4.850e+00,5.823e+00,7.263e+00,4.063e+00,6.132e+00,7.547e+00,6.663e+00,6.302e+00,6.945e+00,9.131e+00,6.679e+00,8.108e+00,9.580e+00,7.447e+00,7.526e+00,9.448e+00,7.746e+00,8.822e+00,8.965e+00,1.025e+01,7.737e+00,8.220e+00,1.033e+01,1.023e+01,9.453e+00,7.126e+00,9.792e+00,7.591e+00,9.118e+00,7.752e+00,8.732e+00,8.982e+00,6.507e+00,8.626e+00,1.137e+01,9.566e+00,1.190e+01,8.404e+00,9.535e+00,8.579e+00,8.370e+00,7.962e+00,9.411e+00
9.215e-02,6.461e-01,1.182e+00,1.320e+00,1.574e+00,2.252e+00,2.845e+00,1.699e+00,1.690e+00,3.571e+00,3.894e+00,4.553e+00,3.102e+00,5.967e+00,4.776e+00,5.341e+00,4.996e+00,6.415e+00,6.535e+00,7.226e+00,7.443e+00,6.320e+00,8.871e+00,4.976e+00,6.604e+00,1.007e+01,8.581e+00,7.191e+00,8.494e+00,9.745e+00,8.502e+00,9.243e+00,9.813e+00,1.086e+01,9.539e+00,1.098e+01,1.159e+01,1.029e+01,1.068e+01,1.192e+01,1.011e+01,9.476e+00,1.201e+01,1.343e+01,1.114e+01,8.690e+00,1.202e+01,9.975e+00,9.726e+00,1.009e+01,1.002e+01,1.084e+01,9.488e+00,1.093e+01,1.248e+01,1.235e+01,1.216e+01,1.009e+01,1.059e+01,9.035e+00,1.148e+01,1.045e+01,1.081e+01
5.891e-02,4.923e-01,7.680e-01,8.997e-01,1.060e+00,1.703e+00,2.082e+00,1.340e+00,1.555e+00,2.647e+00,3.044e+00,4.370e+00,3.351e+00,4.730e+00,4.129e+00,4.038e+00,4.295e+00,5.420e+00,5.604e+00,6.123e+00,5.813e+00,5.055e+00,7.161e+00,4.333e+00,6.133e+00,7.068e+00,7.042e+00,6.981e+00,6.488e+00,8.228e+00,6.785e+00,7.706e+00,9.166e+00,7.918e+00,7.412e+00,9.565e+00,7.300e+00,8.667e+00,8.400e+00,9.528e+00,9.069e+00,8.826e+00,1.025e+01,9.899e+00,9.368e+00,7.989e+00,1.015e+01,7.524e+00,7.902e+00,8.165e+00,8.430e+00,8.105e+00,7.325e+00,8.632e+00,1.044e+01,9.558e+00,1.102e+01,8.451e+00,8.730e+00,7.067e+00,8.864e+00,8.410e+00,8.702e+00
2.524e-02,2.984e-01,4.937e-01,9.516e-01,1.202e+00,1.787e+00,1.654e+00,1.126e+00,1.233e+00,2.373e+00,2.208e+00,3.062e+00,2.371e+00,4.234e+00,3.780e+00,3.407e+00,3.539e+00,4.259e+00,4.563e+00,4.824e+00,4.560e+00,3.979e+00,6.075e+00,2.981e+00,4.927e+00,6.623e+00,6.222e+00,5.433e+00,6.706e+00,8.371e+00,6.573e+00,7.480e+00,8.108e+00,7.999e+00,8.084e+00,9.878e+00,8.876e+00,9.133e+00,1.008e+01,1.058e+01,9.439e+00,1.004e+01,1.011e+01,1.095e+01,1.101e+01,8.898e+00,1.032e+01,8.103e+00,8.454e+00,9.060e+00,8.495e+00,1.078e+01,8.021e+00,9.397e+00,1.043e+01,1.133e+01,1.128e+01,9.307e+00,9.413e+00,7.798e+00,9.888e+00,9.834e+00,9.298e+00
7.500e-02,5.479e-01,6.486e-01,6.128e-01,8.511e-01,1.662e+00,1.623e+00,1.317e+00,1.412e+00,1.852e+00,2.261e+00,2.330e+00,2.067e+00,3.642e+00,3.243e+00,3.667e+00,3.157e+00,4.057e+00,4.569e+00,5.316e+00,3.927e+00,4.752e+00,6.528e+00,3.794e+00,4.732e+00,6.837e+00,6.053e+00,6.009e+00,6.348e+00,7.895e+00,6.478e+00,6.408e+00,7.797e+00,6.797e+00,5.776e+00,8.733e+00,7.356e+00,7.815e+00,8.260e+00,7.991e+00,7.351e+00,8.240e+00,8.787e+00,9.637e+00,7.937e+00,8.104e+00,9.333e+00,7.027e+00,7.784e+00,7.023e+00,9.271e+00,7.849e+00,8.000e+00,9.086e+00,9.726e+00,8.965e+00,1.033e+01,7.777e+00,7.612e+00,7.024e+00,8.619e+00,8.038e+00,8.016e+00
4.948e-02,5.172e-01,1.035e+00,9.242e-01,1.266e+00,2.126e+00,2.808e+00,2.085e+00,2.073e+00,3.023e+00,3.206e+00,4.239e+00,2.866e+00,4.649e+00,4.466e+00,3.085e+00,3.990e+00,5.847e+00,5.793e+00,6.457e+00,5.571e+00,4.538e+00,8.325e+00,4.824e+00,5.846e+00,7.763e+00,6.393e+00,6.239e+00,7.299e+00,8.132e+00,5.761e+00,6.520e+00,8.458e+00,7.136e+00,7.664e+00,9.160e+00,7.693e+00,9.550e+00,8.993e+00,9.357e+00,8.344e+00,8.603e+00,9.667e+00,8.962e+00,1.002e+01,8.712e+00,9.901e+00,8.178e+00,8.666e+00,9.455e+00,8.477e+00,8.394e+00,7.695e+00,8.656e+00,9.896e+00,1.125e+01,1.068e+01,9.376e+00,9.050e+00,8.227e+00,9.267e+00,9.470e+00,8.956e+00
5.232e-02,4.127e-01,1.204e+00,1.267e+00,1.578e+00,2.027e+00,2.585e+00,1.718e+00,1.444e+00,3.597e+00,3.487e+00,3.932e+00,2.489e+00,4.601e+00,4.569e+00,3.887e+00,4.494e+00,4.653e+00,5.404e+00,6.425e+00,5.541e+00,5.805e+00,7.418e+00,4.510e+00,6.442e+00,8.417e+00,7.119e+00,6.850e+00,5.972e+00,7.837e+00,6.363e+00,5.132e+00,7.886e+00,8.044e+00,8.053e+00,8.737e+00,7.848e+00,9.593e+00,9.570e+00,9.992e+00,8.422e+00,8.397e+00,9.416e+00,1.110e+01,1.051e+01,8.995e+00,1.134e+01,7.827e+00,9.226e+00,8.554e+00,9.281e+00,7.449e+00,8.624e+00,8.576e+00,1.139e+01,1.162e+01,1.151e+01,8.929e+00,9.796e+00,9.325e+00,1.016e+01,8.188e+00,9.871e+00
7.380e-02,5.113e-01,1.028e+00,1.211e+00,1.491e+00,2.031e+00,2.532e+00,1.603e+00,1.476e+00,2.544e+00,2.952e+00,3.788e+00,2.543e+00,5.047e+00,4.264e+00,4.255e+00,4.499e+00,5.119e+00,5.825e+00,6.089e+00,5.537e+00,5.947e+00,7.687e+00,3.920e+00,6.054e+00,7.998e+00,7.286e+00,7.274e+00,8.007e+00,8.850e+00,7.079e+00,7.498e+00,9.438e+00,8.354e+00,8.524e+00,1.086e+01,8.338e+00,1.116e+01,1.032e+01,1.115e+01,1.034e+01,1.093e+01,1.195e+01,1.241e+01,1.158e+01,1.079e+01,1.267e+01,8.750e+00,9.711e+00,1.004e+01,1.085e+01,1.089e+01,9.358e+00,1.135e+01,1.288e+01,1.384e+01,1.288e+01,1.007e+01,1.165e+01,1.010e+01,1.135e+01,1.107e+01,1.110e+01
9.105e-03,3.495e-01,1.119e+00,9.730e-01,1.046e+00,1.209e+00,1.438e+00,1.160e+00,9.474e-01,2.633e+00,2.329e+00,2.734e+00,1.876e+00,3.204e+00,3.303e+00,2.189e+00,3.110e+00,3.892e+00,4.045e+00,5.079e+00,4.196e+00,4.453e+00,6.425e+00,4.390e+00,5.633e+00,7.126e+00,6.465e+00,5.788e+00,6.227e+00,8.025e+00,5.710e+00,6.622e+00,7.920e+00,8.058e+00,7.140e+00,8.839e+00,8.154e+00,8.764e+00,1.009e+01,1.023e+01,1.020e+01,9.644e+00,1.127e+01,1.244e+01,1.142e+01,9.335e+00,1.101e+01,9.734e+00,9.516e+00,9.848e+00,9.822e+00,9.900e+00,9.020e+00,9.811e+00,1.072e+01,1.185e+01,1.276e+01,9.888e+00,1.002e+01,9.100e+00,1.115e+01,9.948e+00,1.031e+01
3.154e-02,5.814e-01,9.346e-01,9.616e-01,1.132e+00,2.068e+00,2.284e+00,1.724e+00,1.890e+00,2.874e+00,3.113e+00,4.154e+00,3.281e+00,5.061e+00,4.357e+00,3.907e+00,4.105e+00,5.659e+00,6.004e+00,6.282e+00,5.599e+00,4.116e+00,7.568e+00,4.773e+00,6.816e+00,8.393e+00,7.163e+00,6.218e+00,7.278e+00,9.307e+00,6.203e+00,6.998e+00,8.692e+00,8.198e+00,8.412e+00,9.140e+00,9.579e+00,9.809e+00,1.072e+01,1.065e+01,1.040e+01,1.125e+01,1.219e+01,1.278e+01,1.298e+01,1.121e+01,1.238e+01,1.143e+01,1.162e+01,1.186e+01,1.278e+01,1.141e+01,1.078e+01,1.208e+01,1.352e+01,1.440e+01,1.403e+01,1.091e+01,1.171e+01,1.158e+01,1.243e+01,1.130e+01,1.326e+01
1.003e-01,6.387e-01,8.121e-01,1.320e+00,1.449e+00,1.971e+00,1.758e+00,1.054e+00,1.440e+00,2.836e+00,2.831e+00,3.853e+00,3.205e+00,5.480e+00,5.088e+00,4.704e+00,5.305e+00,5.828e+00,6.143e+00,7.155e+00,5.917e+00,6.529e+00,8.036e+00,4.847e+00,6.672e+00,8.406e+00,7.573e+00,7.598e+00,7.681e+00,1.011e+01,8.239e+00,8.297e+00,1.005e+01,9.500e+00,9.277e+00,1.130e+01,9.614e+00,9.907e+00,1.105e+01,1.189e+01,9.755e+00,1.126e+01,1.253e+01,1.420e+01,1.354e+01,1.119e+01,1.329e+01,1.088e+01,1.238e+01,1.037e+01,1.203e+01,1.127e+01,9.982e+00,1.295e+01,1.398e+01,1.337e+01,1.532e+01,1.119e+01,1.277e+01,1.191e+01,1.169e+01,1.022e+01,1.310e+01
5.291e-02,5.433e-01,9.541e-01,7.989e-01,9.578e-01,1.528e+00,1.659e+00,1.437e+00,1.458e+00,2.040e+00,2.292e+00,2.808e+00,2.137e+00,3.079e+00,2.942e+00,3.311e+00,2.835e+00,4.233e+00,4.779e+00,5.706e+00,4.178e+00,5.177e+00,6.510e+00,4.578e+00,5.246e+00,7.033e+00,6.564e+00,6.346e+00,6.266e+00,8.221e+00,6.087e+00,6.971e+00,8.760e+00,7.749e+00,6.948e+00,9.302e+00,7.598e+00,8.641e+00,8.934e+00,9.766e+00,8.438e+00,9.217e+00,1.074e+01,1.324e+01,1.067e+01,1.004e+01,1.117e+01,9.412e+00,1.065e+01,9.574e+00,1.164e+01,1.046e+01,8.967e+00,1.206e+01,1.185e+01,1.089e+01,1.370e+01,1.048e+01,9.720e+00,9.134e+00,1.105e+01,9.890e+00,1.160e+01
1.755e-02,4.702e-01,1.460e+00,9.386e-01,9.688e-01,1.026e+00,1.753e+00,1.509e+00,1.328e+00,2.649e+00,3.009e+00,4.261e+00,2.984e+00,4.128e+00,3.641e+00,4.124e+00,3.667e+00,5.495e+00,5.825e+00,5.927e+00,5.686e+00,5.581e+00,8.486e+00,5.235e+00,5.791e+00,8.303e+00,7.663e+00,7.674e+00,7.985e+00,9.288e+00,7.295e+00,8.432e+00,7.865e+00,8.056e+00,8.032e+00,9.036e+00,7.535e+00,9.470e+00,9.027e+00,1.028e+01,1.014e+01,9.218e+00,1.140e+01,1.045e+01,1.232e+01,9.938e+00,1.201e+01,1.086e+01,1.042e+01,1.066e+01,1.014e+01,1.045e+01,1.059e+01,1.123e+01,1.226e+01,1.169e+01,1.329e+01,1.088e+01,1.102e+01,9.400e+00,1.188e+01,1.019e+01,1.071e+01
1.165e-01,9.081e-01,1.130e+00,1.473e+00,1.762e+00,2.760e+00,2.705e+00,2.026e+00,2.500e+00,3.213e+00,3.481e+00,4.803e+00,3.725e+00,6.317e+00,5.055e+00,5.156e+00,4.689e+00,6.511e+00,6.167e+00,7.267e+00,7.231e+00,5.199e+00,8.639e+00,4.981e+00,6.370e+00,9.200e+00,7.487e+00,7.107e+00,8.836e+00,1.032e+01,6.934e+00,8.082e+00,8.591e+00,9.382e+00,1.026e+01,1.031e+01,1.167e+01,1.092e+01,1.052e+01,1.220e+01,9.903e+00,1.023e+01,1.205e+01,1.390e+01,1.280e+01,1.256e+01,1.242e+01,1.161e+01,1.115e+01,1.254e+01,1.063e+01,1.219e+01,1.074e+01,1.357e+01,1.444e+01,1.541e+01,1.454e+01,1.158e+01,1.215e+01,1.201e+01,1.244e+01,1.154e+01,1.369e+01
8.088e-02,4.091e-01,7.920e-01,5.492e-01,7.054e-01,9.959e-01,1.855e+00,1.106e+00,1.138e+00,2.180e+00,2.717e+00,3.423e+00,2.344e+00,5.014e+00,4.146e+00,4.695e+00,4.176e+00,5.255e+00,5.385e+00,5.623e+00,5.171e+00,4.740e+00,7.514e+00,4.347e+00,5.703e+00,8.261e+00,6.518e+00,6.236e+00,7.790e+00,9.319e+00,7.338e+00,8.075e+00,8.565e+00,7.504e+00,8.524e+00,9.962e+00,9.616e+00,9.839e+00,1.050e+01,1.129e+01,1.051e+01,1.045e+01,1.209e+01,1.349e+01,1.392e+01,1.104e+01,1.359e+01,1.112e+01,1.224e+01,1.227e+01,1.267e+01,1.077e+01,1.184e+01,1.267e+01,1.357e+01,1.414e+01,1.365e+01,1.114e+01,1.261e+01,1.164e+01,1.381e+01,1.123e+01,1.379e+01
2.366e-02,5.036e-01,9.133e-01,1.198e+00,1.505e+00,2.493e+00,2.501e+00,1.888e+00,1.815e+00,2.799e+00,3.027e+00,4.314e+00,3.263e+00,4.103e+00,3.828e+00,3.053e+00,3.744e+00,5.401e+00,5.376e+00,5.410e+00,5.028e+00,4.293e+00,7.259e+00,3.729e+00,5.896e+00,7.061e+00,7.169e+00,5.838e+00,7.465e+00,8.785e+00,6.535e+00,7.796e+00,8.640e+00,7.944e+00,7.574e+00,9.142e+00,8.525e+00,9.454e+00,1.039e+01,1.118e+01,1.061e+01,1.003e+01,1.170e+01,1.214e+01,1.182e+01,1.111e+01,1.197e+01,1.054e+01,1.145e+01,1.353e+01,1.136e+01,1.293e+01,1.148e+01,1.196e+01,1.436e+01,1.474e+01,1.552e+01,1.208e+01,1.274e+01,1.202e+01,1.320e+01,1.251e+01,1.396e+01
2.140e-02,3.446e-01,1.274e+00,8.871e-01,1.111e+00,1.446e+00,2.307e+00,1.656e+00,1.149e+00,2.851e+00,3.208e+00,3.777e+00,2.473e+00,4.914e+00,4.406e+00,3.459e+00,4.476e+00,5.857e+00,6.122e+00,6.681e+00,5.665e+00,5.972e+00,7.659e+00,4.928e+00,6.403e+00,8.255e+00,7.277e+00,6.015e+00,6.883e+00,7.750e+00,5.568e+00,7.464e+00,8.573e+00,8.151e+00,8.166e+00,1.051e+01,9.037e+00,1.132e+01,1.129e+01,1.061e+01,1.075e+01,1.057e+01,1.214e+01,1.379e+01,1.424e+01,1.208e+01,1.422e+01,1.317e+01,1.393e+01,1.514e+01,1.316e+01,1.310e+01,1.304e+01,1.280e+01,1.493e+01,1.626e+01,1.622e+01,1.243e+01,1.390e+01,1.295e+01,1.441e+01,1.298e+01,1.443e+01
1.187e-01,5.004e-01,8.598e-01,6.374e-01,8.630e-01,1.238e+00,1.824e+00,1.094e+00,9.644e-01,2.229e+00,2.778e+00,2.538e+00,1.819e+00,4.060e+00,3.416e+00,2.965e+00,3.933e+00,4.835e+00,4.241e+00,5.104e+00,4.268e+00,5.064e+00,6.237e+00,3.627e+00,4.251e+00,6.567e+00,5.975e+00,5.163e+00,7.780e+00,8.491e+00,6.966e+00,8.359e+00,8.195e+00,7.707e+00,7.768e+00,9.372e+00,9.456e+00,9.669e+00,9.524e+00,1.077e+01,9.167e+00,9.315e+00,1.133e+01,1.209e+01,1.144e+01,9.806e+00,1.180e+01,9.535e+00,1.156e+01,1.175e+01,1.160e+01,1.114e+01,1.227e+01,1.174e+01,1.260e+01,1.192e+01,1.451e+01,1.186e+01,1.255e+01,1.102e+01,1.252e+01,1.178e+01,1.285e+01
1.957e-02,2.876e-01,6.748e-01,6.832e-01,9.070e-01,1.485e+00,2.049e+00,1.420e+00,1.597e+00,3.181e+00,3.070e+00,4.158e+00,2.941e+00,4.695e+00,4.253e+00,4.147e+00,4.102e+00,5.945e+00,6.090e+00,6.896e+00,5.825e+00,5.367e+00,7.554e+00,5.352e+00,6.389e+00,8.088e+00,7.099e+00,6.243e+00,6.542e+00,7.882e+00,6.648e+00,7.429e+00,8.353e+00,7.271e+00,8.366e+00,9.068e+00,8.289e+00,8.597e+00,9.126e+00,9.764e+00,9.312e+00,9.128e+00,1.003e+01,1.159e+01,1.198e+01,9.448e+00,1.081e+01,1.015e+01,1.065e+01,1.100e+01,1.130e+01,1.105e+01,9.903e+00,1.034e+01,1.195e+01,1.211e+01,1.299e+01,1.007e+01,1.006e+01,9.827e+00,1.113e+01,9.700e+00,1.242e+01
2.828e-02,1.275e-01,4.070e-01,3.671e-01,7.197e-01,1.082e+00,1.477e+00,1.294e+00,1.575e+00,2.939e+00,2.519e+00,3.349e+00,2.325e+00,3.029e+00,2.596e+00,2.941e+00,2.917e+00,4.563e+00,4.661e+00,6.139e+00,4.952e+00,4.464e+00,7.693e+00,4.792e+00,5.153e+00,7.465e+00,6.656e+00,5.079e+00,7.494e+00,8.862e+00,6.367e+00,8.166e+00,7.907e+00,8.711e+00,8.574e+00,9.944e+00,9.137e+00,9.414e+00,9.401e+00,1.100e+01,9.832e+00,1.042e+01,1.142e+01,1.254e+01,1.257e+01,1.123e+01,1.240e+01,1.040e+01,1.104e+01,1.267e+01,1.261e+01,1.311e+01,1.237e+01,1.427e+01,1.546e+01,1.533e+01,1.593e+01,1.368e+01,1.376e+01,1.249e+01,1.534e+01,1.309e+01,1.610e+01
3.142e-02,1.523e-01,1.214e-01,2.970e-01,6.702e-01,1.508e+00,1.864e+00,1.220e+00,1.399e+00,2.498e+00,2.436e+00,2.858e+00,2.121e+00,3.614e+00,3.831e+00,2.995e+00,3.381e+00,4.859e+00,5.014e+00,6.042e+00,4.356e+00,4.817e+00,7.020e+00,4.361e+00,4.666e+00,7.186e+00,6.886e+00,5.329e+00,7.262e+00,9.350e+00,6.230e+00,7.537e+00,9.015e+00,8.051e+00,7.512e+00,1.006e+01,9.153e+00,9.679e+00,9.970e+00,1.086e+01,9.290e+00,1.059e+01,1.123e+01,1.485e+01,1.208e+01,1.194e+01,1.309e+01,1.147e+01,1.158e+01,1.250e+01,1.253e+01,1.284e+01,1.164e+01,1.390e+01,1.417e+01,1.420e+01,1.540e+01,1.347e+01,1.273e+01,1.149e+01,1.410e+01,1.323e+01,1.346e+01
5.632e-02,5.109e-01,1.052e+00,9.341e-01,1.227e+00,1.707e+00,1.585e+00,1.564e+00,1.406e+00,2.384e+00,2.722e+00,3.470e+00,2.843e+00,4.609e+00,3.935e+00,3.868e+00,3.671e+00,5.065e+00,4.720e+00,5.413e+00,4.934e+00,4.383e+00,6.268e+00,3.959e+00,5.168e+00,7.179e+00,6.530e+00,5.984e+00,6.948e+00,8.963e+00,6.155e+00,7.362e+00,8.511e+00,8.111e+00,6.770e+00,9.262e+00,8.458e+00,8.720e+00,1.018e+01,9.231e+00,8.816e+00,9.881e+00,1.125e+01,1.139e+01,1.186e+01,9.464e+00,1.151e+01,1.033e+01,1.064e+01,1.186e+01,1.182e+01,1.185e+01,1.117e+01,1.298e+01,1.416e+01,1.392e+01,1.485e+01,1.268e+01,1.282e+01,1.190e+01,1.470e+01,1.230e+01,1.366e+01
3.259e-02,1.448e-01,5.217e-01,8.655e-01,1.126e+00,1.439e+00,2.112e+00,1.134e+00,1.234e+00,2.917e+00,2.707e+00,4.034e+00,2.538e+00,3.551e+00,3.730e+00,3.116e+00,4.398e+00,5.545e+00,5.722e+00,6.305e+00,4.679e+00,5.572e+00,7.664e+00,4.177e+00,5.409e+00,7.682e+00,7.154e+00,5.970e+00,7.435e+00,8.022e+00,6.851e+00,7.059e+00,7.725e+00,7.641e+00,7.887e+00,9.169e+00,6.548e+00,9.637e+00,8.310e+00,9.419e+00,8.577e+00,8.280e+00,1.026e+01,1.104e+01,1.001e+01,9.701e+00,1.139e+01,9.033e+00,1.028e+01,1.021e+01,9.601e+00,1.109e+01,9.179e+00,1.101e+01,1.270e+01,1.366e+01,1.394e+01,1.191e+01,1.207e+01,1.118e+01,1.192e+01,1.246e+01,1.353e+01
1.069e-01,6.640e-01,6.784e-01,7.318e-01,9.749e-01,1.831e+00,1.891e+00,1.373e+00,1.565e+00,1.721e+00,2.328e+00,2.633e+00,2.149e+00,3.602e+00,2.923e+00,3.422e+00,2.718e+00,4.077e+00,4.057e+00,4.585e+00,4.569e+00,3.997e+00,5.994e+00,3.211e+00,3.440e+00,5.841e+00,5.115e+00,4.782e+00,5.890e+00,7.270e+00,5.288e+00,6.230e+00,6.645e+00,6.480e+00,7.023e+00,8.041e+00,8.002e+00,8.350e+00,8.310e+00,9.411e+00,7.615e+00,8.791e+00,9.441e+00,1.223e+01,1.099e+01,9.747e+00,1.120e+01,9.821e+00,1.064e+01,1.102e+01,1.131e+01,1.138e+01,1.085e+01,1.391e+01,1.356e+01,1.506e+01,1.389e+01,1.238e+01,1.202e+01,1.209e+01,1.384e+01,1.369e+01,1.503e+01
1.270e-02,4.921e-01,1.224e+00,1.211e+00,1.404e+00,1.823e+00,2.153e+00,1.869e+00,1.912e+00,2.639e+00,2.875e+00,4.782e+00,3.448e+00,5.619e+00,4.889e+00,4.974e+00,4.280e+00,6.230e+00,6.911e+00,6.922e+00,6.025e+00,5.660e+00,7.071e+00,5.443e+00,6.606e+00,8.326e+00,7.377e+00,7.403e+00,7.640e+00,9.090e+00,7.181e+00,8.739e+00,9.642e+00,7.472e+00,8.933e+00,9.743e+00,8.738e+00,9.906e+00,1.065e+01,1.099e+01,1.073e+01,9.449e+00,1.187e+01,1.380e+01,1.397e+01,1.132e+01,1.283e+01,1.210e+01,1.261e+01,1.258e+01,1.373e+01,1.242e+01,1.150e+01,1.245e+01,1.541e+01,1.666e+01,1.723e+01,1.390e+01,1.334e+01,1.296e+01,1.501e+01,1.429e+01,1.494e+01
6.465e-02,4.904e-01,6.101e-01,1.015e+00,1.208e+00,1.801e+00,1.598e+00,1.071e+00,1.222e+00,1.846e+00,2.040e+00,2.845e+00,2.417e+00,4.581e+00,3.856e+00,3.464e+00,3.771e+00,4.076e+00,4.562e+00,4.656e+00,4.379e+00,3.866e+00,5.392e+00,2.591e+00,4.556e+00,5.136e+00,5.134e+00,5.488e+00,6.554e+00,7.487e+00,5.631e+00,6.366e+00,7.082e+00,6.875e+00,6.036e+00,7.775e+00,7.184e+00,8.868e+00,9.266e+00,8.535e+00,8.736e+00,9.057e+00,1.112e+01,1.156e+01,1.182e+01,1.068e+01,1.093e+01,1.061e+01,1.027e+01,1.145e+01,1.145e+01,1.210e+01,1.021e+01,1.282e+01,1.345e+01,1.434e+01,1.340e+01,1.092e+01,1.451e+01,1.265e+01,1.516e+01,1.402e+01,1.353e+01
4.419e-02,2.972e-01,4.953e-01,6.372e-01,7.378e-01,9.709e-01,1.169e+00,7.887e-01,1.191e+00,2.502e+00,2.294e+00,3.558e+00,2.734e+00,3.661e+00,3.517e+00,3.526e+00,3.861e+00,5.535e+00,5.508e+00,6.725e+00,5.368e+00,5.260e+00,8.303e+00,4.938e+00,5.722e+00,8.211e+00,6.818e+00,6.129e+00,7.554e+00,9.024e+00,7.305e+00,7.799e+00,7.925e+00,8.548e+00,7.771e+00,9.644e+00,8.463e+00,8.851e+00,9.433e+00,1.070e+01,9.046e+00,9.022e+00,1.178e+01,1.253e+01,1.196e+01,1.108e+01,1.228e+01,1.157e+01,1.161e+01,1.210e+01,1.175e+01,1.163e+01,1.132e+01,1.296e+01,1.386e+01,1.619e+01,1.708e+01,1.340e+01,1.434e+01,1.413e+01,1.444e+01,1.507e+01,1.748e+01
4.681e-02,3.973e-01,9.033e-01,9.260e-01,1.143e+00,1.395e+00,1.328e+00,1.249e+00,1.302e+00,2.543e+00,2.317e+00,2.862e+00,2.242e+00,3.849e+00,3.583e+00,3.113e+00,3.282e+00,4.356e+00,4.962e+00,5.744e+00,4.708e+00,4.945e+00,6.334e+00,4.654e+00,5.147e+00,6.796e+00,6.428e+00,5.701e+00,7.574e+00,9.059e+00,6.675e+00,7.003e+00,8.269e+00,8.971e+00,7.193e+00,9.246e+00,8.731e+00,8.661e+00,9.343e+00,9.775e+00,8.937e+00,9.428e+00,1.124e+01,1.229e+01,1.185e+01,1.087e+01,1.236e+01,9.972e+00,1.124e+01,1.084e+01,1.177e+01,1.157e+01,1.196e+01,1.304e+01,1.483e+01,1.464e+01,1.536e+01,1.301e+01,1.489e+01,1.305e+01,1.558e+01,1.453e+01,1.596e+01
7.527e-02,7.316e-01,1.136e+00,1.041e+00,1.082e+00,1.749e+00,1.855e+00,1.287e+00,1.236e+00,2.096e+00,2.510e+00,2.787e+00,2.261e+00,4.353e+00,3.580e+00,3.392e+00,3.557e+00,4.743e+00,5.225e+00,5.583e+00,5.223e+00,4.131e+00,7.018e+00,4.090e+00,6.247e+00,8.085e+00,6.631e+00,5.615e+00,6.809e+00,8.208e+00,6.086e+00,6.608e+00,8.719e+00,7.482e+00,7.745e+00,8.650e+00,8.216e+00,8.999e+00,8.964e+00,9.294e+00,8.345e+00,9.493e+00,1.047e+01,1.068e+01,1.182e+01,9.661e+00,1.243e+01,1.008e+01,1.187e+01,1.172e+01,1.197e+01,1.208e+01,1.160e+01,1.317e+01,1.561e+01,1.486e+01,1.513e+01,1.377e+01,1.497e+01,1.301e+01,1.657e+01,1.557e+01,1.636e+01
3.350e-02,3.909e-01,1.303e+00,1.232e+00,1.472e+00,1.497e+00,1.913e+00,1.593e+00,1.276e+00,2.240e+00,2.517e+00,3.822e+00,2.507e+00,4.917e+00,4.447e+00,4.601e+00,3.976e+00,5.077e+00,6.271e+00,5.970e+00,5.057e+00,5.745e+00,6.898e+00,4.488e+00,5.890e+00,7.556e+00,6.484e+00,7.252e+00,6.608e+00,8.003e+00,6.346e+00,5.692e+00,8.262e+00,6.826e+00,7.494e+00,9.467e+00,6.775e+00,9.556e+00,1.009e+01,9.689e+00,9.105e+00,8.770e+00,1.061e+01,1.140e+01,1.342e+01,1.171e+01,1.305e+01,1.034e+01,1.214e+01,1.164e+01,1.302e+01,1.091e+01,1.145e+01,1.259e+01,1.527e+01,1.673e+01,1.592e+01,1.339e+01,1.501e+01,1.481e+01,1.536e+01,1.551e+01,1.777e+01
5.999e-02,6.563e-01,1.588e+00,1.173e+00,1.454e+00,2.100e+00,2.843e+00,2.197e+00,1.763e+00,3.013e+00,3.643e+00,4.352e+00,2.991e+00,5.609e+00,4.873e+00,4.229e+00,4.574e+00,6.274e+00,6.187e+00,6.416e+00,6.016e+00,5.795e+00,7.668e+00,5.146e+00,6.416e+00,8.429e+00,7.750e+00,7.508e+00,8.379e+00,9.539e+00,7.050e+00,8.158e+00,9.907e+00,8.741e+00,8.766e+00,1.037e+01,9.245e+00,1.025e+01,1.062e+01,1.154e+01,1.163e+01,1.089e+01,1.291e+01,1.359e+01,1.339e+01,1.196e+01,1.232e+01,1.267e+01,1.248e+01,1.506e+01,1.359e+01,1.372e+01,1.360e+01,1.355e+01,1.521e+01,1.585e+01,1.765e+01,1.545e+01,1.514e+01,1.304e+01,1.705e+01,1.686e+01,1.761e+01
