4.863e-01,6.931e-01,2.605e-01,7.947e-01,9.027e-02,8.308e-01,9.930e-01,2.758e-01,3.027e-01,7.701e-01,6.329e-01,7.086e-01,9.352e-01,4.882e-01,2.314e-01,1.844e-01,2.046e-01,9.087e-01,9.564e-01,1.558e-01,7.733e-01,2.221e-01,7.340e-01,7.251e-01,5.647e-01,6.659e-01,5.140e-01,4.403e-01,8.119e-01,1.800e-01,1.176e-01,7.883e-01,3.369e-01,4.431e-01,8.441e-01,7.352e-01,6.987e-01,2.325e-01,1.591e-01,7.665e-01,1.199e-01,9.735e-01,6.048e-01,1.434e-01,7.754e-01,1.196e-01,2.357e-01,1.795e-01,9.267e-01,1.711e-01,7.586e-01,6.220e-01,4.973e-01,1.325e-01,7.872e-01,5.792e-01,2.091e-01,3.433e-02,7.871e-02,1.605e-01,9.973e-01,1.543e-01
2.335e-01,1.245e+00,6.663e-01,1.314e+00,7.112e-01,1.270e+00,1.080e+00,5.304e-01,3.306e-01,7.414e-01,3.959e-01,6.012e-01,1.295e+00,1.159e+00,1.064e+00,3.738e-01,4.870e-01,1.155e+00,1.241e+00,7.051e-01,1.028e+00,3.803e-01,5.022e-01,1.264e+00,9.969e-01,1.060e+00,1.076e+00,6.150e-01,8.393e-01,1.037e+00,1.797e-01,8.283e-01,4.279e-01,5.370e-01,7.360e-01,7.852e-01,3.562e-01,1.106e+00,8.802e-01,8.570e-01,9.589e-01,1.425e+00,1.138e+00,1.017e+00,1.131e+00,6.061e-01,1.440e-01,4.943e-01,1.288e+00,9.425e-01,1.171e+00,2.987e-01,4.683e-01,4.801e-01,1.294e+00,7.251e-01,1.030e-01,3.384e-01,4.885e-01,6.032e-01,1.139e+00,1.069e+00
2.112e-01,9.566e-01,1.099e+00,1.599e+00,1.141e+00,1.367e+00,1.457e+00,1.372e+00,9.387e-01,8.137e-01,7.778e-01,5.868e-01,1.190e+00,1.116e+00,9.129e-01,7.225e-01,8.917e-01,1.275e+00,1.132e+00,1.341e+00,8.212e-01,1.048e+00,1.091e+00,1.846e+00,1.323e+00,1.237e+00,1.373e+00,1.273e+00,1.549e+00,1.290e+00,1.116e+00,9.999e-01,8.007e-01,6.654e-01,9.912e-01,1.212e+00,8.698e-01,1.690e+00,7.491e-01,8.081e-01,1.400e+00,1.269e+00,1.773e+00,8.550e-01,1.697e+00,1.133e+00,2.048e-01,3.713e-01,1.591e+00,7.115e-01,1.773e+00,6.465e-01,1.180e+00,1.303e+00,1.708e+00,1.252e+00,1.014e+00,6.059e-01,5.599e-01,4.905e-01,1.242e+00,9.465e-01
2.797e-01,1.233e+00,9.066e-01,1.920e+00,1.281e+00,2.099e+00,1.772e+00,1.087e+00,9.195e-01,1.018e+00,1.609e+00,7.856e-01,1.554e+00,1.858e+00,1.819e+00,9.915e-01,9.865e-01,1.356e+00,2.208e+00,1.308e+00,1.173e+00,1.358e+00,1.013e+00,2.608e+00,1.304e+00,1.777e+00,2.215e+00,1.266e+00,1.468e+00,1.411e+00,6.611e-01,1.603e+00,1.335e+00,1.030e+00,1.397e+00,1.106e+00,1.146e+00,1.629e+00,1.482e+00,1.877e+00,1.235e+00,1.636e+00,2.191e+00,1.887e+00,1.558e+00,1.288e+00,1.088e+00,6.243e-01,1.924e+00,1.839e+00,1.611e+00,1.281e+00,1.360e+00,1.810e+00,2.072e+00,1.136e+00,1.064e+00,5.492e-01,1.029e+00,1.168e+00,1.442e+00,1.374e+00
4.281e-01,7.535e-01,4.669e-01,1.210e+00,6.508e-01,2.094e+00,1.392e+00,1.102e+00,1.341e+00,1.613e+00,2.228e+00,1.192e+00,1.396e+00,1.455e+00,1.172e+00,1.400e+00,1.113e+00,1.648e+00,1.929e+00,1.115e+00,1.774e+00,1.807e+00,1.758e+00,2.438e+00,8.338e-01,1.631e+00,2.135e+00,1.739e+00,2.043e+00,1.451e+00,1.357e+00,1.871e+00,1.853e+00,1.022e+00,1.547e+00,1.675e+00,1.581e+00,1.087e+00,1.297e+00,1.617e+00,1.016e+00,2.098e+00,2.217e+00,8.773e-01,1.140e+00,1.136e+00,1.765e+00,3.136e-01,2.281e+00,1.132e+00,1.375e+00,1.528e+00,1.886e+00,1.578e+00,2.143e+00,1.215e+00,8.691e-01,4.622e-01,7.717e-01,8.830e-01,1.689e+00,1.057e+00
1.853e-01,3.063e-01,4.229e-01,6.893e-01,5.163e-01,1.798e+00,1.768e+00,1.737e+00,1.569e+00,1.869e+00,2.468e+00,1.084e+00,1.132e+00,1.135e+00,1.594e+00,1.617e+00,1.079e+00,2.031e+00,1.830e+00,1.892e+00,1.203e+00,1.740e+00,2.089e+00,1.837e+00,1.551e+00,1.357e+00,2.208e+00,2.039e+00,1.658e+00,1.825e+00,2.288e+00,1.484e+00,1.866e+00,1.371e+00,1.322e+00,1.621e+00,1.530e+00,1.903e+00,1.658e+00,7.663e-01,9.838e-01,1.735e+00,2.212e+00,9.575e-01,9.344e-01,1.522e+00,2.071e+00,1.143e-01,2.402e+00,8.865e-01,2.064e+00,1.248e+00,2.183e+00,1.847e+00,2.112e+00,1.390e+00,1.501e+00,8.992e-01,9.986e-01,9.966e-01,1.731e+00,1.145e+00
3.013e-01,1.251e+00,1.023e+00,2.016e+00,1.450e+00,3.037e+00,2.760e+00,2.179e+00,2.377e+00,2.518e+00,3.226e+00,2.154e+00,2.096e+00,3.270e+00,3.496e+00,2.393e+00,1.990e+00,2.662e+00,3.453e+00,3.283e+00,2.905e+00,2.923e+00,2.360e+00,4.003e+00,2.802e+00,3.337e+00,4.348e+00,2.905e+00,2.744e+00,3.173e+00,2.133e+00,3.296e+00,3.085e+00,2.208e+00,2.142e+00,2.747e+00,2.867e+00,3.485e+00,2.839e+00,2.626e+00,2.758e+00,3.660e+00,4.337e+00,3.033e+00,2.438e+00,2.646e+00,2.471e+00,9.726e-01,3.648e+00,2.456e+00,3.123e+00,2.551e+00,3.204e+00,3.384e+00,3.885e+00,1.986e+00,2.238e+00,1.075e+00,2.076e+00,2.515e+00,2.553e+00,2.754e+00
4.064e-01,1.040e+00,7.540e-01,1.700e+00,1.059e+00,2.652e+00,2.617e+00,2.108e+00,2.577e+00,3.326e+00,3.574e+00,2.576e+00,2.377e+00,2.962e+00,4.009e+00,2.761e+00,1.935e+00,3.185e+00,3.855e+00,3.052e+00,2.884e+00,2.561e+00,2.663e+00,3.473e+00,3.323e+00,3.000e+00,4.519e+00,3.188e+00,3.236e+00,2.828e+00,2.737e+00,3.504e+00,3.077e+00,2.553e+00,2.530e+00,3.407e+00,3.199e+00,3.656e+00,2.692e+00,2.632e+00,2.922e+00,4.134e+00,4.292e+00,2.742e+00,3.014e+00,2.693e+00,2.808e+00,9.575e-01,3.937e+00,2.352e+00,3.168e+00,3.270e+00,3.626e+00,3.131e+00,3.703e+00,1.765e+00,2.110e+00,1.009e+00,2.709e+00,2.505e+00,3.164e+00,2.753e+00
4.836e-01,1.170e+00,9.157e-01,1.933e+00,1.156e+00,2.727e+00,2.692e+00,1.961e+00,2.657e+00,2.528e+00,3.054e+00,2.310e+00,3.107e+00,2.241e+00,3.495e+00,2.737e+00,1.549e+00,3.560e+00,3.974e+00,2.263e+00,2.087e+00,2.426e+00,3.297e+00,3.394e+00,2.477e+00,3.180e+00,3.820e+00,3.175e+00,2.682e+00,2.570e+00,2.538e+00,2.558e+00,2.488e+00,2.227e+00,2.566e+00,2.671e+00,2.301e+00,2.608e+00,2.452e+00,2.944e+00,2.065e+00,3.538e+00,3.733e+00,2.380e+00,2.535e+00,2.236e+00,3.017e+00,1.309e+00,3.411e+00,1.942e+00,2.863e+00,2.635e+00,2.704e+00,3.105e+00,3.831e+00,1.901e+00,2.700e+00,1.721e+00,2.058e+00,1.636e+00,2.674e+00,2.729e+00
2.820e-03,8.981e-03,9.844e-02,1.495e-01,2.325e-01,1.209e+00,1.390e+00,1.495e+00,1.854e+00,3.010e+00,2.500e+00,2.540e+00,1.158e+00,1.766e+00,3.501e+00,2.811e+00,1.564e+00,2.138e+00,2.872e+00,3.244e+00,1.783e+00,1.917e+00,2.412e+00,2.461e+00,3.172e+00,1.972e+00,3.497e+00,2.291e+00,2.638e+00,2.434e+00,2.392e+00,2.608e+00,3.054e+00,1.779e+00,1.240e+00,2.807e+00,2.835e+00,2.823e+00,2.889e+00,1.594e+00,2.317e+00,2.719e+00,2.841e+00,2.244e+00,2.112e+00,2.463e+00,2.930e+00,9.635e-01,2.802e+00,1.732e+00,2.849e+00,2.259e+00,2.718e+00,2.233e+00,2.252e+00,1.078e+00,2.287e+00,1.166e+00,2.097e+00,2.562e+00,2.183e+00,2.087e+00
9.041e-02,4.540e-01,5.425e-01,1.108e+00,9.168e-01,1.642e+00,1.718e+00,1.575e+00,2.507e+00,2.358e+00,2.794e+00,2.581e+00,2.305e+00,2.571e+00,4.869e+00,2.983e+00,2.306e+00,2.831e+00,3.608e+00,3.152e+00,2.425e+00,2.347e+00,3.406e+00,2.825e+00,2.996e+00,3.124e+00,4.802e+00,3.857e+00,2.442e+00,3.178e+00,2.573e+00,2.981e+00,3.363e+00,2.718e+00,2.025e+00,2.700e+00,2.929e+00,3.176e+00,2.664e+00,3.412e+00,2.979e+00,4.105e+00,4.158e+00,3.193e+00,2.870e+00,3.046e+00,2.759e+00,1.678e+00,3.157e+00,2.458e+00,3.226e+00,3.115e+00,3.673e+00,3.287e+00,4.098e+00,2.101e+00,2.856e+00,1.971e+00,2.929e+00,2.480e+00,2.181e+00,3.573e+00
1.022e-01,4.791e-01,3.505e-01,8.202e-01,6.313e-01,1.507e+00,1.110e+00,9.934e-01,1.676e+00,1.513e+00,1.967e+00,2.643e+00,1.942e+00,2.068e+00,3.451e+00,2.972e+00,1.671e+00,2.363e+00,3.160e+00,2.487e+00,2.024e+00,2.359e+00,3.165e+00,3.086e+00,1.943e+00,2.696e+00,3.683e+00,3.189e+00,1.723e+00,2.946e+00,2.400e+00,2.879e+00,3.243e+00,2.556e+00,1.764e+00,2.664e+00,1.743e+00,2.564e+00,2.235e+00,2.878e+00,2.083e+00,3.621e+00,3.071e+00,2.147e+00,2.272e+00,2.274e+00,2.272e+00,2.028e+00,2.357e+00,1.901e+00,2.432e+00,2.039e+00,2.543e+00,2.392e+00,3.265e+00,1.711e+00,2.096e+00,2.313e+00,2.272e+00,2.333e+00,1.722e+00,3.112e+00
1.391e-01,1.098e+00,6.899e-01,1.405e+00,9.794e-01,1.796e+00,1.474e+00,1.051e+00,1.882e+00,1.976e+00,1.673e+00,2.668e+00,3.402e+00,3.080e+00,4.119e+00,3.106e+00,1.886e+00,2.558e+00,3.753e+00,2.811e+00,3.260e+00,2.335e+00,2.849e+00,3.848e+00,2.833e+00,3.229e+00,4.952e+00,3.021e+00,3.117e+00,3.207e+00,1.869e+00,2.886e+00,3.137e+00,2.805e+00,2.499e+00,2.852e+00,2.536e+00,2.649e+00,3.591e+00,3.246e+00,3.329e+00,4.575e+00,3.549e+00,3.888e+00,3.369e+00,2.876e+00,3.140e+00,2.260e+00,3.430e+00,2.905e+00,3.506e+00,2.280e+00,3.237e+00,2.529e+00,4.064e+00,1.904e+00,3.099e+00,2.440e+00,2.749e+00,3.272e+00,2.958e+00,4.308e+00
2.382e-01,9.899e-01,7.272e-01,1.378e+00,8.771e-01,1.838e+00,2.243e+00,1.538e+00,1.810e+00,2.123e+00,2.081e+00,3.148e+00,2.636e+00,3.415e+00,4.553e+00,4.094e+00,2.496e+00,3.128e+00,4.778e+00,4.305e+00,3.562e+00,2.600e+00,3.583e+00,4.387e+00,3.763e+00,3.310e+00,5.013e+00,4.157e+00,2.603e+00,4.063e+00,2.533e+00,4.423e+00,3.562e+00,3.784e+00,2.872e+00,3.710e+00,2.770e+00,4.205e+00,3.255e+00,3.721e+00,3.966e+00,4.513e+00,4.070e+00,4.389e+00,4.019e+00,3.194e+00,3.288e+00,2.330e+00,4.283e+00,2.873e+00,4.002e+00,3.091e+00,4.011e+00,3.351e+00,4.886e+00,3.013e+00,3.128e+00,3.439e+00,2.869e+00,4.505e+00,3.004e+00,3.954e+00
4.444e-01,7.368e-01,5.405e-01,1.274e+00,6.618e-01,2.066e+00,2.414e+00,1.672e+00,2.477e+00,3.195e+00,2.964e+00,3.481e+00,2.835e+00,2.941e+00,4.758e+00,3.922e+00,2.324e+00,3.444e+00,5.355e+00,4.814e+00,3.950e+00,3.335e+00,4.452e+00,5.076e+00,3.918e+00,4.206e+00,5.642e+00,4.357e+00,3.730e+00,4.120e+00,3.428e+00,4.467e+00,4.089e+00,3.771e+00,3.649e+00,4.080e+00,3.988e+00,4.220e+00,4.484e+00,3.908e+00,3.845e+00,4.757e+00,4.343e+00,4.647e+00,3.931e+00,3.330e+00,4.172e+00,2.108e+00,4.614e+00,2.780e+00,4.310e+00,4.528e+00,4.131e+00,3.705e+00,5.319e+00,2.837e+00,4.167e+00,2.710e+00,2.853e+00,4.591e+00,3.239e+00,3.841e+00
4.121e-01,1.289e+00,1.168e+00,1.971e+00,1.235e+00,2.516e+00,3.008e+00,2.346e+00,2.278e+00,2.794e+00,2.730e+00,2.679e+00,3.186e+00,3.070e+00,4.254e+00,4.090e+00,2.754e+00,3.902e+00,5.446e+00,4.713e+00,3.861e+00,3.548e+00,4.197e+00,5.442e+00,4.146e+00,3.497e+00,5.810e+00,4.542e+00,4.222e+00,4.333e+00,4.117e+00,4.152e+00,4.374e+00,3.608e+00,4.077e+00,3.716e+00,3.955e+00,4.636e+00,4.597e+00,3.728e+00,4.407e+00,5.402e+00,4.406e+00,4.841e+00,4.161e+00,3.740e+00,3.978e+00,2.086e+00,5.540e+00,2.872e+00,4.940e+00,3.785e+00,4.569e+00,3.663e+00,6.070e+00,3.617e+00,4.210e+00,3.796e+00,3.168e+00,4.323e+00,3.867e+00,4.025e+00
3.877e-01,5.885e-01,7.677e-01,1.434e+00,9.851e-01,2.311e+00,2.068e+00,2.047e+00,2.834e+00,2.657e+00,3.300e+00,3.107e+00,2.569e+00,2.825e+00,4.439e+00,4.189e+00,3.760e+00,4.072e+00,5.029e+00,4.630e+00,4.522e+00,4.038e+00,6.018e+00,5.179e+00,3.627e+00,4.880e+00,5.809e+00,6.471e+00,3.903e+00,5.650e+00,4.496e+00,4.705e+00,5.281e+00,4.147e+00,4.492e+00,4.586e+00,4.208e+00,4.908e+00,4.007e+00,4.632e+00,4.331e+00,5.640e+00,5.482e+00,4.007e+00,4.407e+00,4.027e+00,3.992e+00,2.014e+00,4.986e+00,2.545e+00,4.393e+00,4.591e+00,5.487e+00,4.637e+00,6.675e+00,4.096e+00,4.114e+00,3.327e+00,2.932e+00,3.878e+00,3.156e+00,4.711e+00
1.957e-02,1.157e-01,1.632e-01,3.045e-01,3.391e-01,1.118e+00,9.382e-01,1.213e+00,1.876e+00,2.486e+00,2.181e+00,2.944e+00,2.001e+00,2.499e+00,3.899e+00,4.280e+00,2.618e+00,3.713e+00,4.876e+00,4.524e+00,4.514e+00,3.546e+00,4.252e+00,5.346e+00,4.069e+00,3.470e+00,5.499e+00,4.609e+00,4.205e+00,4.696e+00,4.423e+00,4.715e+00,5.068e+00,3.819e+00,4.133e+00,4.222e+00,4.090e+00,4.995e+00,4.977e+00,3.557e+00,4.481e+00,5.527e+00,4.328e+00,3.914e+00,4.411e+00,4.271e+00,4.822e+00,2.591e+00,4.321e+00,2.477e+00,4.047e+00,4.406e+00,4.698e+00,4.006e+00,4.719e+00,2.919e+00,3.956e+00,3.477e+00,4.013e+00,4.895e+00,3.621e+00,4.745e+00
3.133e-01,9.906e-01,7.850e-01,1.550e+00,9.881e-01,2.258e+00,2.390e+00,1.979e+00,2.618e+00,3.496e+00,3.043e+00,3.936e+00,4.019e+00,3.327e+00,5.827e+00,5.808e+00,3.460e+00,5.033e+00,8.039e+00,6.477e+00,5.881e+00,4.964e+00,6.410e+00,7.628e+00,5.342e+00,5.642e+00,7.746e+00,6.586e+00,6.227e+00,6.452e+00,6.562e+00,6.023e+00,6.744e+00,5.663e+00,6.648e+00,6.366e+00,5.322e+00,6.579e+00,7.258e+00,5.464e+00,5.839e+00,7.461e+00,5.983e+00,6.387e+00,6.344e+00,5.403e+00,6.190e+00,4.256e+00,6.358e+00,4.580e+00,6.568e+00,5.501e+00,6.514e+00,5.621e+00,8.015e+00,4.424e+00,6.126e+00,5.517e+00,5.305e+00,6.038e+00,5.736e+00,6.883e+00
4.546e-01,1.324e+00,7.336e-01,1.720e+00,8.731e-01,2.063e+00,2.024e+00,1.276e+00,1.645e+00,3.003e+00,2.237e+00,3.479e+00,3.378e+00,2.722e+00,4.627e+00,3.931e+00,2.222e+00,4.460e+00,6.235e+00,5.344e+00,4.598e+00,4.048e+00,5.449e+00,6.518e+00,5.498e+00,5.009e+00,6.170e+00,5.130e+00,4.648e+00,5.048e+00,5.138e+00,5.649e+00,5.053e+00,5.179e+00,4.932e+00,5.453e+00,4.336e+00,6.175e+00,5.816e+00,4.313e+00,4.289e+00,5.408e+00,5.533e+00,5.243e+00,6.291e+00,4.306e+00,4.810e+00,3.539e+00,4.611e+00,4.288e+00,5.291e+00,5.502e+00,4.412e+00,5.067e+00,5.361e+00,4.137e+00,4.177e+00,4.098e+00,4.638e+00,4.993e+00,5.456e+00,5.103e+00
4.460e-01,1.016e+00,6.642e-01,1.561e+00,8.137e-01,2.046e+00,2.504e+00,1.634e+00,2.181e+00,3.061e+00,2.770e+00,3.201e+00,3.371e+00,3.075e+00,4.935e+00,4.685e+00,2.765e+00,4.452e+00,7.198e+00,5.992e+00,5.822e+00,5.119e+00,5.587e+00,7.483e+00,6.091e+00,6.158e+00,7.801e+00,6.214e+00,5.311e+00,5.440e+00,6.492e+00,6.671e+00,6.788e+00,6.666e+00,6.550e+00,6.367e+00,5.554e+00,7.610e+00,7.313e+00,5.028e+00,5.394e+00,6.877e+00,6.780e+00,6.851e+00,6.966e+00,4.555e+00,6.178e+00,3.623e+00,6.660e+00,5.355e+00,6.259e+00,6.585e+00,5.762e+00,6.396e+00,7.206e+00,4.794e+00,5.447e+00,5.041e+00,5.858e+00,6.648e+00,5.783e+00,5.696e+00
3.352e-01,1.236e+00,1.195e+00,2.069e+00,1.461e+00,2.540e+00,2.064e+00,2.067e+00,2.685e+00,2.933e+00,2.751e+00,3.185e+00,3.577e+00,3.049e+00,4.817e+00,4.473e+00,3.382e+00,4.592e+00,6.183e+00,5.689e+00,5.327e+00,5.537e+00,6.393e+00,7.978e+00,4.820e+00,5.699e+00,7.835e+00,7.070e+00,6.645e+00,6.912e+00,6.274e+00,6.165e+00,6.889e+00,5.323e+00,5.978e+00,5.694e+00,5.372e+00,6.630e+00,6.848e+00,5.908e+00,5.474e+00,7.538e+00,6.415e+00,6.292e+00,6.790e+00,5.410e+00,5.327e+00,3.736e+00,5.726e+00,4.270e+00,5.905e+00,5.600e+00,6.035e+00,5.891e+00,7.908e+00,5.139e+00,5.952e+00,5.188e+00,4.683e+00,5.408e+00,5.638e+00,6.374e+00
7.579e-02,3.129e-01,7.197e-01,1.067e+00,9.682e-01,1.773e+00,2.217e+00,2.148e+00,2.219e+00,2.294e+00,2.747e+00,1.993e+00,1.581e+00,2.288e+00,4.006e+00,3.912e+00,2.859e+00,3.496e+00,5.528e+00,5.787e+00,4.257e+00,4.542e+00,5.106e+00,6.372e+00,4.827e+00,5.000e+00,6.370e+00,6.368e+00,4.971e+00,5.775e+00,6.440e+00,6.240e+00,6.555e+00,5.272e+00,5.184e+00,4.932e+00,4.834e+00,7.373e+00,5.846e+00,5.074e+00,5.032e+00,5.841e+00,5.926e+00,5.671e+00,5.206e+00,5.108e+00,5.276e+00,2.825e+00,5.985e+00,3.991e+00,5.238e+00,5.664e+00,5.779e+00,5.898e+00,7.008e+00,5.210e+00,6.128e+00,4.836e+00,4.100e+00,6.115e+00,3.981e+00,4.587e+00
2.445e-01,5.667e-01,5.140e-01,9.342e-01,5.321e-01,1.345e+00,1.881e+00,1.563e+00,1.798e+00,2.866e+00,2.335e+00,2.959e+00,2.977e+00,2.403e+00,4.741e+00,4.336e+00,3.251e+00,4.000e+00,5.801e+00,5.271e+00,4.713e+00,4.011e+00,5.802e+00,6.397e+00,5.871e+00,5.310e+00,7.524e+00,6.819e+00,5.369e+00,5.956e+00,6.481e+00,6.450e+00,7.289e+00,6.173e+00,5.985e+00,5.965e+00,5.783e+00,7.190e+00,7.424e+00,5.468e+00,4.897e+00,6.855e+00,5.979e+00,6.529e+00,6.850e+00,5.858e+00,6.424e+00,4.323e+00,5.912e+00,5.208e+00,7.034e+00,5.583e+00,6.642e+00,5.577e+00,7.318e+00,5.428e+00,6.429e+00,5.270e+00,5.656e+00,5.540e+00,6.307e+00,5.876e+00
3.706e-02,3.375e-01,2.371e-01,5.975e-01,5.350e-01,1.442e+00,9.556e-01,1.007e+00,1.348e+00,1.922e+00,2.017e+00,2.027e+00,1.340e+00,1.901e+00,3.163e+00,3.154e+00,1.965e+00,2.656e+00,4.322e+00,4.371e+00,4.019e+00,3.743e+00,3.894e+00,5.590e+00,4.639e+00,4.538e+00,5.373e+00,5.393e+00,4.125e+00,4.443e+00,5.673e+00,5.556e+00,6.093e+00,5.595e+00,4.056e+00,5.290e+00,4.259e+00,6.146e+00,5.837e+00,4.533e+00,4.143e+00,5.548e+00,5.482e+00,4.933e+00,5.411e+00,4.215e+00,5.608e+00,3.555e+00,4.863e+00,4.755e+00,4.899e+00,5.535e+00,5.014e+00,5.207e+00,5.090e+00,4.706e+00,4.486e+00,4.470e+00,4.783e+00,5.371e+00,4.189e+00,4.837e+00
5.668e-02,5.622e-01,7.934e-01,1.199e+00,1.076e+00,1.990e+00,2.049e+00,2.270e+00,2.757e+00,3.268e+00,3.074e+00,3.658e+00,3.125e+00,3.420e+00,5.331e+00,5.098e+00,3.418e+00,4.489e+00,6.719e+00,6.914e+00,6.014e+00,6.133e+00,6.381e+00,8.188e+00,6.302e+00,6.783e+00,9.709e+00,7.669e+00,7.932e+00,7.337e+00,9.020e+00,7.475e+00,8.949e+00,7.066e+00,6.796e+00,7.824e+00,6.790e+00,9.589e+00,8.074e+00,6.000e+00,7.273e+00,8.870e+00,7.475e+00,7.326e+00,7.279e+00,7.539e+00,6.317e+00,4.928e+00,6.607e+00,6.022e+00,7.787e+00,7.452e+00,7.800e+00,7.043e+00,8.615e+00,5.642e+00,7.744e+00,6.053e+00,7.358e+00,7.493e+00,7.411e+00,8.072e+00
4.063e-01,1.321e+00,1.116e+00,2.102e+00,1.419e+00,3.206e+00,2.992e+00,2.660e+00,2.813e+00,3.500e+00,3.927e+00,3.667e+00,3.777e+00,4.111e+00,5.224e+00,4.937e+00,3.263e+00,5.182e+00,7.091e+00,6.694e+00,6.758e+00,6.154e+00,6.265e+00,9.506e+00,6.858e+00,7.260e+00,1.065e+01,8.929e+00,8.341e+00,8.233e+00,1.009e+01,9.626e+00,1.081e+01,8.726e+00,7.963e+00,9.454e+00,8.032e+00,1.090e+01,9.736e+00,7.634e+00,7.353e+00,1.118e+01,9.407e+00,8.685e+00,8.841e+00,9.414e+00,8.698e+00,6.744e+00,8.335e+00,7.297e+00,1.010e+01,9.291e+00,9.276e+00,7.689e+00,1.027e+01,7.538e+00,9.143e+00,6.896e+00,8.708e+00,8.461e+00,9.492e+00,8.914e+00
3.570e-01,1.124e+00,9.362e-01,1.788e+00,1.124e+00,2.226e+00,2.459e+00,1.945e+00,2.324e+00,2.938e+00,2.774e+00,3.054e+00,3.545e+00,2.932e+00,4.680e+00,3.676e+00,2.545e+00,4.265e+00,5.082e+00,4.145e+00,4.065e+00,3.522e+00,5.063e+00,5.883e+00,5.967e+00,5.288e+00,7.186e+00,6.883e+00,6.169e+00,5.509e+00,6.282e+00,6.880e+00,7.919e+00,7.123e+00,5.603e+00,7.302e+00,5.793e+00,7.229e+00,7.216e+00,6.255e+00,4.869e+00,8.133e+00,7.319e+00,6.284e+00,8.029e+00,6.676e+00,6.533e+00,4.265e+00,6.741e+00,5.796e+00,7.469e+00,6.320e+00,6.358e+00,6.264e+00,6.507e+00,5.631e+00,6.652e+00,5.607e+00,6.489e+00,5.953e+00,6.165e+00,6.222e+00
1.983e-01,9.389e-01,7.093e-01,1.264e+00,8.884e-01,2.119e+00,1.774e+00,1.869e+00,2.549e+00,3.119e+00,2.682e+00,2.645e+00,2.967e+00,2.545e+00,4.245e+00,3.788e+00,2.405e+00,4.080e+00,4.784e+00,4.198e+00,4.239e+00,3.902e+00,4.749e+00,5.680e+00,5.060e+00,4.779e+00,6.851e+00,6.769e+00,6.481e+00,6.549e+00,6.620e+00,6.813e+00,7.289e+00,6.400e+00,5.605e+00,6.856e+00,6.096e+00,7.200e+00,6.616e+00,5.949e+00,5.951e+00,8.248e+00,6.814e+00,6.340e+00,7.231e+00,6.571e+00,6.513e+00,4.235e+00,6.355e+00,5.433e+00,6.433e+00,6.593e+00,6.501e+00,5.938e+00,7.079e+00,6.013e+00,6.566e+00,5.291e+00,5.977e+00,6.085e+00,6.848e+00,6.524e+00
3.076e-01,5.952e-01,6.709e-01,1.393e+00,9.835e-01,2.236e+00,2.102e+00,1.885e+00,2.868e+00,2.868e+00,3.334e+00,3.941e+00,3.768e+00,3.570e+00,5.724e+00,5.395e+00,3.207e+00,4.617e+00,7.195e+00,6.917e+00,6.583e+00,6.337e+00,7.405e+00,9.443e+00,6.010e+00,7.767e+00,1.045e+01,9.279e+00,7.592e+00,8.470e+00,9.136e+00,1.015e+01,1.101e+01,9.587e+00,8.889e+00,9.739e+00,8.167e+00,1.046e+01,1.041e+01,8.603e+00,7.227e+00,1.031e+01,9.304e+00,8.973e+00,9.315e+00,8.625e+00,8.980e+00,6.717e+00,7.706e+00,7.939e+00,9.221e+00,8.757e+00,8.912e+00,9.223e+00,9.995e+00,8.284e+00,1.016e+01,7.387e+00,8.114e+00,9.677e+00,8.717e+00,8.906e+00
2.248e-01,4.193e-01,5.987e-01,9.860e-01,6.642e-01,1.338e+00,1.904e+00,1.714e+00,2.140e+00,2.939e+00,2.354e+00,3.118e+00,2.436e+00,2.124e+00,4.362e+00,3.742e+00,2.410e+00,3.668e+00,5.171e+00,5.057e+00,3.964e+00,3.444e+00,4.974e+00,5.663e+00,5.431e+00,5.312e+00,6.423e+00,5.916e+00,5.407e+00,5.713e+00,6.936e+00,7.090e+00,8.038e+00,6.159e+00,6.962e+00,8.389e+00,7.168e+00,7.561e+00,8.164e+00,5.395e+00,5.593e+00,7.468e+00,7.417e+00,5.895e+00,7.434e+00,7.687e+00,6.993e+00,5.746e+00,6.457e+00,6.345e+00,8.479e+00,6.966e+00,6.388e+00,7.322e+00,6.591e+00,5.746e+00,7.647e+00,4.881e+00,6.509e+00,6.858e+00,6.750e+00,6.368e+00
2.464e-01,4.018e-01,1.733e-01,5.010e-01,1.732e-01,1.129e+00,1.331e+00,1.041e+00,1.365e+00,2.431e+00,1.993e+00,3.182e+00,2.351e+00,2.469e+00,3.739e+00,3.723e+00,2.361e+00,3.559e+00,5.260e+00,5.007e+00,5.067e+00,3.475e+00,4.951e+00,5.843e+00,4.946e+00,4.704e+00,6.290e+00,6.253e+00,6.328e+00,6.458e+00,6.979e+00,8.065e+00,9.164e+00,7.323e+00,7.515e+00,8.529e+00,8.301e+00,7.758e+00,8.906e+00,6.976e+00,6.439e+00,9.470e+00,7.347e+00,6.966e+00,8.661e+00,8.954e+00,7.653e+00,6.428e+00,6.707e+00,7.073e+00,8.255e+00,7.628e+00,8.104e+00,7.349e+00,7.315e+00,7.046e+00,8.501e+00,6.926e+00,7.835e+00,7.563e+00,7.283e+00,7.942e+00
3.312e-01,9.577e-01,8.125e-01,1.644e+00,1.075e+00,2.056e+00,1.819e+00,1.525e+00,2.154e+00,2.310e+00,2.386e+00,2.191e+00,2.718e+00,2.366e+00,3.750e+00,3.159e+00,2.617e+00,4.142e+00,5.478e+00,4.792e+00,5.315e+00,4.308e+00,5.364e+00,6.822e+00,4.965e+00,6.624e+00,7.284e+00,6.885e+00,6.390e+00,6.751e+00,6.989e+00,7.088e+00,8.166e+00,7.529e+00,8.300e+00,7.886e+00,7.622e+00,9.205e+00,8.749e+00,7.497e+00,7.624e+00,9.133e+00,9.061e+00,8.036e+00,9.192e+00,8.059e+00,7.589e+00,5.174e+00,7.291e+00,8.161e+00,7.900e+00,9.379e+00,7.849e+00,8.572e+00,8.952e+00,7.694e+00,7.863e+00,6.332e+00,7.793e+00,8.066e+00,8.085e+00,8.225e+00
4.059e-01,1.237e+00,8.309e-01,1.657e+00,9.159e-01,2.181e+00,2.659e+00,1.773e+00,2.176e+00,3.044e+00,2.467e+00,3.887e+00,3.429e+00,3.614e+00,5.116e+00,4.768e+00,2.567e+00,4.559e+00,6.671e+00,6.108e+00,5.659e+00,4.564e+00,5.360e+00,8.098e+00,6.605e+00,6.816e+00,8.728e+00,7.394e+00,6.370e+00,6.575e+00,8.239e+00,8.992e+00,8.890e+00,9.169e+00,9.313e+00,1.013e+01,8.337e+00,1.090e+01,1.117e+01,7.781e+00,8.548e+00,1.084e+01,9.388e+00,9.560e+00,1.005e+01,9.326e+00,9.379e+00,7.073e+00,9.678e+00,9.179e+00,9.528e+00,1.068e+01,8.261e+00,8.468e+00,9.677e+00,8.433e+00,8.904e+00,7.984e+00,8.666e+00,1.110e+01,8.778e+00,8.943e+00
1.180e-01,4.157e-01,6.900e-01,1.111e+00,9.406e-01,1.733e+00,1.967e+00,1.893e+00,1.995e+00,2.498e+00,2.634e+00,2.964e+00,2.278e+00,3.105e+00,4.497e+00,4.467e+00,2.812e+00,3.704e+00,5.711e+00,6.083e+00,5.083e+00,4.414e+00,4.918e+00,7.165e+00,5.254e+00,5.098e+00,7.750e+00,6.258e+00,6.009e+00,6.247e+00,6.698e+00,7.208e+00,7.819e+00,7.348e+00,7.840e+00,8.077e+00,7.381e+00,9.396e+00,9.502e+00,6.560e+00,7.467e+00,8.938e+00,8.536e+00,8.192e+00,8.162e+00,8.057e+00,8.021e+00,4.875e+00,8.759e+00,7.528e+00,8.449e+00,8.760e+00,8.323e+00,7.901e+00,9.112e+00,7.610e+00,8.016e+00,6.847e+00,6.993e+00,1.046e+01,7.930e+00,7.715e+00
3.112e-02,3.917e-01,7.530e-01,1.174e+00,1.144e+00,2.235e+00,2.141e+00,2.341e+00,2.476e+00,3.148e+00,3.420e+00,3.507e+00,2.676e+00,3.413e+00,5.255e+00,4.949e+00,3.826e+00,4.334e+00,6.633e+00,7.197e+00,5.952e+00,5.699e+00,6.637e+00,8.007e+00,6.145e+00,6.574e+00,9.075e+00,7.865e+00,7.946e+00,7.937e+00,8.616e+00,8.015e+00,1.098e+01,8.305e+00,9.315e+00,1.047e+01,9.987e+00,1.098e+01,1.153e+01,8.258e+00,8.816e+00,1.139e+01,1.096e+01,9.846e+00,1.009e+01,1.122e+01,9.907e+00,6.282e+00,9.129e+00,9.099e+00,1.024e+01,1.017e+01,1.015e+01,1.015e+01,1.066e+01,8.956e+00,1.066e+01,8.639e+00,9.310e+00,1.097e+01,8.856e+00,9.904e+00
3.604e-02,4.068e-01,5.156e-01,7.552e-01,6.258e-01,1.097e+00,1.421e+00,1.355e+00,1.729e+00,2.297e+00,1.671e+00,3.120e+00,2.936e+00,2.430e+00,4.578e+00,5.086e+00,2.466e+00,3.915e+00,6.570e+00,6.310e+00,4.854e+00,5.239e+00,5.837e+00,8.399e+00,5.973e+00,5.827e+00,8.845e+00,8.199e+00,7.609e+00,7.848e+00,9.214e+00,8.752e+00,9.825e+00,9.213e+00,9.081e+00,1.047e+01,9.670e+00,1.187e+01,1.189e+01,9.442e+00,9.606e+00,1.170e+01,8.464e+00,1.190e+01,1.145e+01,1.023e+01,1.007e+01,8.132e+00,8.244e+00,9.943e+00,1.067e+01,1.091e+01,1.072e+01,1.037e+01,1.133e+01,1.050e+01,1.250e+01,1.052e+01,9.901e+00,1.181e+01,1.089e+01,1.056e+01
9.229e-02,4.272e-01,8.110e-01,1.178e+00,1.033e+00,1.861e+00,2.406e+00,2.223e+00,2.503e+00,2.523e+00,2.875e+00,2.987e+00,2.612e+00,3.288e+00,5.308e+00,4.668e+00,3.457e+00,3.800e+00,6.345e+00,7.270e+00,5.941e+00,5.848e+00,6.385e+00,8.239e+00,6.554e+00,6.788e+00,9.398e+00,8.952e+00,7.035e+00,8.102e+00,8.897e+00,8.844e+00,1.052e+01,9.201e+00,8.852e+00,1.028e+01,9.562e+00,1.211e+01,1.239e+01,9.219e+00,8.378e+00,1.192e+01,1.073e+01,1.202e+01,1.074e+01,1.020e+01,1.032e+01,6.960e+00,1.014e+01,9.957e+00,1.216e+01,1.080e+01,1.104e+01,1.100e+01,1.305e+01,1.109e+01,1.191e+01,1.029e+01,8.647e+00,1.264e+01,9.661e+00,1.059e+01
3.660e-01,1.343e+00,7.341e-01,1.505e+00,8.363e-01,2.324e+00,1.775e+00,1.619e+00,2.491e+00,3.651e+00,2.579e+00,3.564e+00,3.799e+00,2.955e+00,4.851e+00,4.272e+00,2.935e+00,5.099e+00,6.286e+00,5.262e+00,6.230e+00,4.090e+00,5.787e+00,7.005e+00,5.704e+00,6.332e+00,7.416e+00,7.387e+00,7.444e+00,7.413e+00,7.813e+00,8.000e+00,9.433e+00,8.340e+00,1.023e+01,1.125e+01,9.889e+00,1.034e+01,1.286e+01,9.121e+00,9.072e+00,1.317e+01,1.105e+01,1.008e+01,1.182e+01,1.126e+01,1.132e+01,7.894e+00,1.058e+01,1.059e+01,1.180e+01,1.174e+01,1.054e+01,1.083e+01,1.171e+01,1.005e+01,1.009e+01,9.575e+00,1.021e+01,1.117e+01,1.021e+01,1.150e+01
4.324e-01,9.023e-01,9.506e-01,1.816e+00,1.225e+00,2.894e+00,2.997e+00,2.700e+00,3.767e+00,3.914e+00,4.278e+00,4.692e+00,4.265e+00,4.305e+00,6.550e+00,6.152e+00,3.837e+00,5.580e+00,7.840e+00,7.353e+00,6.877e+00,6.935e+00,7.681e+00,9.346e+00,7.167e+00,8.005e+00,1.124e+01,9.705e+00,8.259e+00,8.363e+00,1.004e+01,1.002e+01,1.103e+01,9.730e+00,9.707e+00,1.133e+01,9.916e+00,1.268e+01,1.181e+01,1.003e+01,1.001e+01,1.284e+01,1.259e+01,1.124e+01,1.078e+01,1.019e+01,1.055e+01,7.741e+00,1.066e+01,1.083e+01,1.166e+01,1.230e+01,1.222e+01,1.128e+01,1.425e+01,1.070e+01,1.095e+01,1.046e+01,1.019e+01,1.200e+01,1.178e+01,1.118e+01
1.624e-01,1.033e+00,7.320e-01,1.450e+00,1.000e+00,1.923e+00,1.910e+00,1.584e+00,2.048e+00,2.574e+00,2.310e+00,2.562e+00,2.755e+00,2.340e+00,4.626e+00,3.819e+00,2.454e+00,4.455e+00,5.511e+00,4.536e+00,3.801e+00,3.774e+00,5.230e+00,5.742e+00,5.664e+00,5.206e+00,6.465e+00,6.712e+00,5.224e+00,6.503e+00,6.618e+00,7.048e+00,7.677e+00,6.682e+00,6.881e+00,8.395e+00,7.072e+00,9.868e+00,8.122e+00,7.649e+00,7.734e+00,1.026e+01,9.520e+00,8.870e+00,9.708e+00,9.159e+00,8.415e+00,6.207e+00,7.593e+00,8.337e+00,9.139e+00,1.021e+01,9.160e+00,9.707e+00,9.105e+00,9.393e+00,8.915e+00,8.490e+00,8.100e+00,9.695e+00,8.342e+00,8.490e+00
4.370e-01,6.947e-01,6.773e-01,1.444e+00,8.093e-01,1.641e+00,2.045e+00,1.409e+00,2.364e+00,2.487e+00,2.337e+00,3.552e+00,2.777e+00,2.589e+00,4.573e+00,4.481e+00,2.927e+00,4.398e+00,6.994e+00,5.758e+00,5.335e+00,4.935e+00,6.139e+00,8.145e+00,5.259e+00,6.901e+00,7.977e+00,7.938e+00,7.397e+00,7.604e+00,8.556e+00,9.327e+00,1.034e+01,8.081e+00,1.040e+01,1.060e+01,9.666e+00,1.017e+01,1.135e+01,9.325e+00,8.379e+00,1.290e+01,1.040e+01,1.071e+01,1.112e+01,1.223e+01,1.027e+01,8.350e+00,8.937e+00,9.554e+00,1.087e+01,1.212e+01,1.002e+01,1.084e+01,1.171e+01,1.024e+01,1.148e+01,9.212e+00,9.728e+00,1.084e+01,9.401e+00,1.027e+01
2.150e-01,9.467e-01,5.088e-01,1.345e+00,9.070e-01,2.199e+00,1.695e+00,1.321e+00,2.115e+00,2.958e+00,2.789e+00,3.599e+00,3.120e+00,3.456e+00,5.435e+00,4.915e+00,3.063e+00,3.793e+00,6.853e+00,6.148e+00,5.685e+00,5.362e+00,5.846e+00,8.184e+00,5.483e+00,6.738e+00,9.373e+00,8.171e+00,7.770e+00,8.239e+00,8.772e+00,9.895e+00,1.091e+01,9.356e+00,1.005e+01,1.141e+01,1.014e+01,1.200e+01,1.300e+01,1.064e+01,1.075e+01,1.367e+01,1.218e+01,1.360e+01,1.284e+01,1.344e+01,1.153e+01,9.110e+00,1.069e+01,1.396e+01,1.297e+01,1.459e+01,1.285e+01,1.181e+01,1.455e+01,1.251e+01,1.217e+01,1.210e+01,1.215e+01,1.431e+01,1.260e+01,1.208e+01
1.147e-01,6.034e-01,4.091e-01,1.023e+00,7.782e-01,1.785e+00,1.559e+00,1.137e+00,2.033e+00,1.810e+00,2.279e+00,2.423e+00,2.705e+00,2.967e+00,4.261e+00,3.929e+00,2.417e+00,3.161e+00,5.054e+00,4.027e+00,4.391e+00,3.453e+00,4.029e+00,5.895e+00,3.928e+00,4.939e+00,6.712e+00,5.714e+00,4.366e+00,5.089e+00,5.170e+00,6.584e+00,7.052e+00,6.185e+00,6.467e+00,6.637e+00,6.765e+00,8.755e+00,9.147e+00,8.395e+00,7.277e+00,1.065e+01,9.130e+00,1.071e+01,9.420e+00,1.024e+01,1.078e+01,6.275e+00,9.294e+00,1.036e+01,9.436e+00,1.133e+01,1.075e+01,9.586e+00,1.190e+01,9.749e+00,1.018e+01,9.518e+00,9.211e+00,1.160e+01,8.583e+00,9.463e+00
1.924e-01,2.781e-01,3.624e-01,7.869e-01,5.356e-01,1.195e+00,1.507e+00,1.126e+00,1.951e+00,1.583e+00,1.984e+00,2.813e+00,2.663e+00,2.608e+00,3.552e+00,3.472e+00,2.335e+00,3.131e+00,4.934e+00,4.246e+00,4.783e+00,4.510e+00,5.007e+00,6.296e+00,4.920e+00,5.779e+00,6.913e+00,7.036e+00,6.528e+00,6.251e+00,6.985e+00,7.551e+00,9.355e+00,8.563e+00,8.361e+00,8.808e+00,8.713e+00,9.202e+00,9.997e+00,9.183e+00,7.619e+00,1.164e+01,9.467e+00,9.750e+00,1.078e+01,9.892e+00,9.928e+00,7.413e+00,8.500e+00,1.078e+01,9.579e+00,1.061e+01,1.157e+01,1.097e+01,1.144e+01,1.074e+01,1.121e+01,1.079e+01,1.032e+01,1.047e+01,9.802e+00,1.103e+01
2.581e-01,1.149e+00,6.411e-01,1.543e+00,9.623e-01,2.184e+00,2.021e+00,1.385e+00,1.980e+00,2.760e+00,2.514e+00,2.726e+00,2.841e+00,2.547e+00,4.612e+00,3.900e+00,2.629e+00,4.156e+00,6.550e+00,4.925e+00,4.581e+00,4.416e+00,4.930e+00,7.134e+00,4.461e+00,5.627e+00,7.353e+00,6.140e+00,6.271e+00,7.246e+00,6.349e+00,7.015e+00,8.955e+00,6.304e+00,9.300e+00,8.802e+00,9.099e+00,1.070e+01,1.182e+01,9.005e+00,8.471e+00,1.213e+01,1.002e+01,1.193e+01,1.101e+01,1.113e+01,1.066e+01,8.077e+00,9.082e+00,1.173e+01,1.103e+01,1.176e+01,1.160e+01,1.064e+01,1.324e+01,1.105e+01,1.116e+01,9.718e+00,1.011e+01,1.150e+01,1.177e+01,1.142e+01
4.317e-01,9.079e-01,6.094e-01,1.382e+00,7.769e-01,2.559e+00,2.589e+00,1.894e+00,2.312e+00,2.721e+00,3.192e+00,3.334e+00,2.810e+00,3.388e+00,4.001e+00,3.746e+00,2.776e+00,3.938e+00,5.555e+00,5.373e+00,5.843e+00,4.916e+00,5.422e+00,7.058e+00,5.027e+00,6.743e+00,7.585e+00,6.788e+00,5.627e+00,7.032e+00,6.976e+00,7.873e+00,8.783e+00,7.910e+00,8.815e+00,9.208e+00,8.144e+00,1.017e+01,1.049e+01,6.871e+00,6.644e+00,1.168e+01,1.036e+01,1.006e+01,1.071e+01,1.099e+01,1.170e+01,7.353e+00,1.071e+01,1.124e+01,1.101e+01,1.108e+01,1.233e+01,1.141e+01,1.191e+01,1.079e+01,1.108e+01,8.585e+00,1.024e+01,1.139e+01,1.146e+01,1.131e+01
3.273e-01,5.801e-01,6.161e-01,1.322e+00,8.551e-01,2.025e+00,2.235e+00,1.785e+00,1.773e+00,2.573e+00,2.933e+00,2.622e+00,2.237e+00,2.246e+00,3.489e+00,3.600e+00,2.577e+00,3.651e+00,5.128e+00,4.058e+00,3.470e+00,3.822e+00,4.695e+00,5.781e+00,5.190e+00,4.777e+00,6.538e+00,5.867e+00,6.104e+00,5.515e+00,6.751e+00,6.396e+00,8.669e+00,6.899e+00,8.767e+00,9.333e+00,8.568e+00,1.027e+01,1.014e+01,7.718e+00,8.316e+00,1.044e+01,1.037e+01,9.294e+00,1.033e+01,1.019e+01,1.025e+01,7.413e+00,9.872e+00,1.157e+01,1.182e+01,1.273e+01,1.267e+01,1.051e+01,1.168e+01,1.101e+01,1.094e+01,9.808e+00,1.048e+01,1.221e+01,1.183e+01,1.062e+01
2.130e-01,9.333e-01,9.378e-01,1.484e+00,1.028e+00,1.857e+00,2.286e+00,1.933e+00,1.522e+00,2.007e+00,2.098e+00,1.789e+00,2.312e+00,2.293e+00,3.450e+00,3.220e+00,2.262e+00,3.724e+00,4.763e+00,4.672e+00,3.850e+00,3.143e+00,4.112e+00,5.534e+00,4.387e+00,3.919e+00,5.799e+00,5.567e+00,4.756e+00,5.295e+00,5.745e+00,5.822e+00,6.193e+00,6.114e+00,6.971e+00,6.943e+00,6.030e+00,8.174e+00,8.293e+00,6.021e+00,6.565e+00,8.897e+00,8.579e+00,8.568e+00,9.526e+00,9.493e+00,9.648e+00,6.603e+00,9.715e+00,1.003e+01,1.034e+01,1.083e+01,1.195e+01,9.687e+00,1.108e+01,1.004e+01,1.010e+01,8.868e+00,1.042e+01,9.978e+00,1.013e+01,8.827e+00
1.507e-01,9.236e-01,7.426e-01,1.323e+00,9.280e-01,1.667e+00,1.833e+00,1.601e+00,1.962e+00,2.608e+00,2.164e+00,2.980e+00,2.648e+00,2.833e+00,4.857e+00,4.244e+00,2.734e+00,4.192e+00,5.921e+00,5.397e+00,4.795e+00,3.722e+00,4.908e+00,6.594e+00,5.935e+00,5.486e+00,7.561e+00,7.347e+00,6.719e+00,7.393e+00,7.978e+00,8.667e+00,9.586e+00,8.074e+00,8.708e+00,1.037e+01,9.637e+00,1.146e+01,1.113e+01,9.520e+00,9.604e+00,1.250e+01,1.035e+01,1.136e+01,1.255e+01,1.287e+01,1.192e+01,9.976e+00,1.106e+01,1.387e+01,1.379e+01,1.522e+01,1.551e+01,1.280e+01,1.413e+01,1.317e+01,1.457e+01,1.214e+01,1.435e+01,1.399e+01,1.387e+01,1.346e+01
3.425e-01,6.925e-01,6.563e-01,1.114e+00,6.540e-01,1.940e+00,2.124e+00,1.869e+00,2.348e+00,2.778e+00,2.516e+00,3.039e+00,2.799e+00,2.404e+00,4.002e+00,4.865e+00,3.007e+00,4.710e+00,6.204e+00,5.569e+00,5.003e+00,5.095e+00,6.213e+00,7.325e+00,5.808e+00,5.554e+00,7.332e+00,8.075e+00,6.889e+00,7.313e+00,8.133e+00,8.315e+00,9.638e+00,8.184e+00,8.406e+00,9.300e+00,8.832e+00,1.019e+01,1.069e+01,8.719e+00,8.976e+00,1.205e+01,9.687e+00,1.100e+01,1.189e+01,1.070e+01,1.158e+01,7.993e+00,1.057e+01,1.166e+01,1.263e+01,1.477e+01,1.376e+01,1.287e+01,1.323e+01,1.290e+01,1.282e+01,1.291e+01,1.281e+01,1.207e+01,1.261e+01,1.151e+01
1.013e-01,9.913e-01,8.823e-01,1.489e+00,1.197e+00,2.134e+00,1.490e+00,1.536e+00,1.626e+00,1.630e+00,1.972e+00,2.325e+00,2.374e+00,2.984e+00,3.440e+00,3.479e+00,2.794e+00,3.494e+00,4.415e+00,4.554e+00,4.628e+00,3.696e+00,4.547e+00,5.951e+00,4.601e+00,4.660e+00,5.887e+00,6.423e+00,5.112e+00,6.520e+00,5.827e+00,6.772e+00,7.993e+00,6.692e+00,7.276e+00,8.629e+00,8.050e+00,9.549e+00,9.458e+00,8.191e+00,8.340e+00,1.080e+01,1.035e+01,9.669e+00,1.059e+01,1.062e+01,1.045e+01,7.967e+00,9.434e+00,1.133e+01,1.114e+01,1.245e+01,1.436e+01,1.184e+01,1.289e+01,1.244e+01,1.236e+01,1.076e+01,1.152e+01,1.203e+01,1.207e+01,1.183e+01
1.791e-01,9.520e-01,6.947e-01,1.477e+00,1.041e+00,1.935e+00,1.814e+00,1.444e+00,2.422e+00,2.513e+00,2.468e+00,2.739e+00,3.363e+00,3.078e+00,5.398e+00,4.290e+00,3.188e+00,4.791e+00,6.201e+00,5.317e+00,5.325e+00,4.433e+00,6.060e+00,7.291e+00,5.865e+00,6.499e+00,8.426e+00,8.273e+00,5.808e+00,7.898e+00,7.146e+00,8.237e+00,8.440e+00,7.956e+00,8.785e+00,8.884e+00,8.442e+00,1.139e+01,1.070e+01,9.328e+00,9.112e+00,1.228e+01,1.119e+01,1.219e+01,1.217e+01,1.163e+01,1.163e+01,8.010e+00,1.064e+01,1.232e+01,1.236e+01,1.494e+01,1.522e+01,1.390e+01,1.606e+01,1.390e+01,1.466e+01,1.183e+01,1.400e+01,1.419e+01,1.470e+01,1.284e+01
1.781e-01,1.114e+00,1.154e+00,1.767e+00,1.312e+00,2.157e+00,2.621e+00,2.416e+00,2.832e+00,3.559e+00,2.695e+00,3.602e+00,4.010e+00,3.324e+00,5.730e+00,4.681e+00,3.274e+00,4.737e+00,6.115e+00,5.623e+00,4.924e+00,3.928e+00,5.872e+00,7.043e+00,6.614e+00,6.663e+00,8.713e+00,7.260e+00,7.021e+00,7.027e+00,7.216e+00,7.364e+00,9.188e+00,7.486e+00,7.805e+00,8.803e+00,8.281e+00,1.165e+01,1.047e+01,8.444e+00,9.153e+00,1.125e+01,9.518e+00,1.046e+01,1.174e+01,1.112e+01,1.009e+01,7.046e+00,9.927e+00,1.142e+01,1.286e+01,1.320e+01,1.422e+01,1.249e+01,1.423e+01,1.259e+01,1.526e+01,1.078e+01,1.369e+01,1.407e+01,1.343e+01,1.294e+01
2.813e-01,6.224e-01,6.645e-01,1.343e+00,9.522e-01,2.329e+00,2.507e+00,2.195e+00,2.970e+00,3.158e+00,3.635e+00,3.544e+00,3.233e+00,3.412e+00,5.448e+00,5.165e+00,3.344e+00,4.946e+00,6.722e+00,6.018e+00,5.579e+00,5.552e+00,6.339e+00,7.676e+00,6.670e+00,6.629e+00,9.376e+00,8.367e+00,6.704e+00,7.133e+00,9.357e+00,9.119e+00,1.091e+01,8.442e+00,8.877e+00,1.025e+01,1.021e+01,1.123e+01,1.076e+01,9.378e+00,9.379e+00,1.236e+01,1.151e+01,1.052e+01,1.136e+01,1.174e+01,1.120e+01,8.408e+00,1.084e+01,1.209e+01,1.211e+01,1.511e+01,1.505e+01,1.444e+01,1.576e+01,1.294e+01,1.565e+01,1.304e+01,1.640e+01,1.432e+01,1.485e+01,1.328e+01
3.997e-01,1.439e+00,9.566e-01,1.835e+00,1.081e+00,2.462e+00,2.173e+00,1.878e+00,2.081e+00,2.994e+00,2.690e+00,2.778e+00,3.163e+00,3.013e+00,4.546e+00,3.695e+00,3.341e+00,4.539e+00,5.374e+00,4.808e+00,5.526e+00,3.778e+00,5.470e+00,6.312e+00,5.037e+00,5.686e+00,7.181e+00,7.132e+00,5.886e+00,7.184e+00,6.863e+00,7.519e+00,7.993e+00,7.345e+00,8.980e+00,8.919e+00,7.761e+00,1.044e+01,1.056e+01,7.760e+00,8.791e+00,1.187e+01,1.054e+01,9.377e+00,1.138e+01,1.084e+01,1.057e+01,8.039e+00,1.221e+01,1.255e+01,1.331e+01,1.406e+01,1.501e+01,1.282e+01,1.530e+01,1.335e+01,1.312e+01,1.258e+01,1.451e+01,1.480e+01,1.429e+01,1.334e+01
3.023e-01,9.129e-01,4.711e-01,1.291e+00,7.611e-01,1.987e+00,1.611e+00,1.044e+00,1.854e+00,1.938e+00,2.333e+00,2.711e+00,3.169e+00,3.176e+00,4.251e+00,4.008e+00,3.173e+00,4.225e+00,6.119e+00,5.155e+00,6.473e+00,5.570e+00,6.178e+00,8.169e+00,5.774e+00,6.933e+00,8.726e+00,8.349e+00,6.808e+00,7.852e+00,7.772e+00,8.564e+00,1.015e+01,9.625e+00,9.992e+00,8.817e+00,9.195e+00,1.052e+01,1.168e+01,9.919e+00,9.346e+00,1.422e+01,1.213e+01,1.268e+01,1.262e+01,1.174e+01,1.279e+01,8.476e+00,1.210e+01,1.362e+01,1.196e+01,1.677e+01,1.607e+01,1.422e+01,1.637e+01,1.464e+01,1.475e+01,1.567e+01,1.601e+01,1.601e+01,1.572e+01,1.453e+01
2.842e-01,5.510e-01,7.047e-01,1.362e+00,1.024e+00,2.493e+00,2.514e+00,2.289e+00,3.086e+00,3.103e+00,3.743e+00,3.394e+00,2.518e+00,3.339e+00,5.279e+00,4.823e+00,3.400e+00,4.201e+00,5.854e+00,5.566e+00,4.814e+00,4.627e+00,5.723e+00,6.807e+00,5.560e+00,6.090e+00,8.502e+00,8.245e+00,7.056e+00,7.397e+00,7.562e+00,8.734e+00,9.897e+00,8.238e+00,8.327e+00,1.007e+01,9.901e+00,1.199e+01,1.075e+01,1.034e+01,1.012e+01,1.271e+01,1.186e+01,1.181e+01,1.180e+01,1.186e+01,1.231e+01,8.125e+00,1.172e+01,1.317e+01,1.295e+01,1.609e+01,1.612e+01,1.483e+01,1.613e+01,1.466e+01,1.498e+01,1.338e+01,1.472e+01,1.578e+01,1.556e+01,1.465e+01
1.147e-01,1.953e-01,4.723e-01,7.321e-01,6.287e-01,1.310e+00,1.252e+00,1.411e+00,1.426e+00,1.997e+00,2.069e+00,2.037e+00,1.655e+00,1.787e+00,3.015e+00,3.211e+00,2.194e+00,2.804e+00,4.112e+00,4.675e+00,3.530e+00,3.711e+00,4.496e+00,5.577e+00,4.682e+00,3.950e+00,5.745e+00,5.642e+00,5.421e+00,5.363e+00,6.826e+00,6.732e+00,7.504e+00,6.282e+00,6.859e+00,7.790e+00,8.541e+00,9.007e+00,8.856e+00,7.852e+00,8.451e+00,9.490e+00,9.312e+00,8.696e+00,1.059e+01,1.042e+01,1.001e+01,8.193e+00,9.076e+00,1.163e+01,1.148e+01,1.314e+01,1.424e+01,1.264e+01,1.232e+01,1.239e+01,1.293e+01,1.212e+01,1.381e+01,1.323e+01,1.352e+01,1.169e+01
6.077e-02,6.252e-01,8.436e-01,1.335e+00,1.193e+00,2.083e+00,1.792e+00,2.069e+00,2.813e+00,2.617e+00,2.802e+00,3.156e+00,3.507e+00,3.351e+00,4.949e+00,5.481e+00,3.249e+00,4.315e+00,5.974e+00,5.014e+00,5.220e+00,4.914e+00,5.599e+00,7.707e+00,5.239e+00,5.677e+00,8.570e+00,7.882e+00,6.842e+00,7.410e+00,8.011e+00,8.575e+00,9.844e+00,8.191e+00,8.681e+00,9.143e+00,8.025e+00,9.607e+00,1.041e+01,8.875e+00,9.091e+00,1.287e+01,1.103e+01,1.081e+01,1.244e+01,1.235e+01,1.242e+01,8.629e+00,1.207e+01,1.259e+01,1.244e+01,1.409e+01,1.456e+01,1.292e+01,1.516e+01,1.224e+01,1.382e+01,1.346e+01,1.562e+01,1.531e+01,1.379e+01,1.459e+01
4.051e-01,1.273e+00,7.655e-01,1.515e+00,7.826e-01,2.219e+00,2.541e+00,1.759e+00,2.047e+00,3.252e+00,2.447e+00,3.471e+00,3.295e+00,3.160e+00,4.663e+00,4.141e+00,2.622e+00,4.509e+00,5.724e+00,5.181e+00,4.671e+00,3.761e+00,5.307e+00,6.529e+00,6.574e+00,5.335e+00,7.215e+00,7.039e+00,6.794e+00,6.482e+00,7.041e+00,7.850e+00,8.085e+00,8.106e+00,8.127e+00,9.807e+00,8.867e+00,1.004e+01,9.879e+00,9.183e+00,9.312e+00,1.256e+01,1.030e+01,1.054e+01,1.175e+01,1.083e+01,1.100e+01,7.562e+00,1.153e+01,1.201e+01,1.192e+01,1.348e+01,1.363e+01,1.271e+01,1.387e+01,1.281e+01,1.399e+01,1.401e+01,1.423e+01,1.596e+01,1.625e+01,1.414e+01
2.233e-01,9.811e-01,8.126e-01,1.685e+00,1.194e+00,1.996e+00,1.912e+00,1.364e+00,2.048e+00,2.176e+00,2.333e+00,2.882e+00,2.450e+00,2.993e+00,4.763e+00,3.343e+00,3.186e+00,3.906e+00,5.805e+00,5.627e+00,5.383e+00,4.773e+00,5.639e+00,7.567e+00,6.588e+00,7.689e+00,8.634e+00,7.858e+00,7.246e+00,7.511e+00,8.090e+00,9.007e+00,1.062e+01,8.606e+00,8.910e+00,1.015e+01,1.028e+01,1.229e+01,1.162e+01,1.068e+01,9.690e+00,1.347e+01,1.268e+01,1.213e+01,1.333e+01,1.372e+01,1.240e+01,1.034e+01,1.138e+01,1.484e+01,1.540e+01,1.695e+01,1.691e+01,1.606e+01,1.608e+01,1.521e+01,1.698e+01,1.425e+01,1.792e+01,1.616e+01,1.674e+01,1.636e+01
