2.563e-01,9.299e-01,4.337e-01,9.557e-01,5.319e-01,5.241e-02,7.370e-01,4.623e-01,4.076e-01,1.174e-01,8.079e-01,3.111e-01,7.148e-01,5.434e-01,9.774e-01,5.448e-01,8.577e-01,1.425e-01,6.717e-01,8.412e-01,6.792e-01,6.798e-01,3.946e-01,4.259e-01,5.087e-01,2.220e-01,6.392e-01,8.881e-01,4.752e-01,6.180e-01,4.059e-01,2.853e-01,2.693e-01,4.099e-01,1.524e-01,6.590e-01,4.277e-01,5.509e-02,9.256e-01,4.932e-01,9.962e-01,3.251e-01,8.693e-01,2.431e-01,7.063e-01,9.104e-01,5.809e-01,1.885e-01,1.061e-01,8.721e-01,8.357e-01,8.312e-01,1.146e-01,4.428e-01,5.433e-01,4.189e-01,6.907e-01,7.852e-01,4.762e-01,3.423e-01,1.453e-01,5.138e-01,4.531e-01,2.253e-01,1.249e-02,2.851e-01,5.927e-01,5.196e-01,2.976e-01,6.535e-01,7.694e-01,2.778e-02,4.144e-01,5.006e-01,7.914e-01,1.463e-01,8.772e-01,3.560e-01,8.055e-01,7.696e-01,7.625e-01,2.789e-01,3.026e-01,5.139e-01,4.022e-01,8.189e-01,1.319e-01,4.401e-01,2.948e-01,1.225e-01,1.885e-01
1.999e-01,1.514e+00,1.184e+00,1.173e+00,1.239e+00,4.936e-01,1.502e+00,4.350e-01,3.241e-01,8.756e-01,7.212e-01,6.466e-01,1.354e+00,1.086e+00,1.086e+00,9.435e-01,1.605e+00,8.507e-01,1.015e+00,1.397e+00,7.057e-01,7.614e-01,1.248e+00,6.417e-01,1.264e+00,1.100e+00,1.429e+00,1.582e+00,7.990e-01,1.352e+00,6.175e-01,9.962e-01,2.167e-01,1.259e+00,5.274e-01,1.404e+00,5.457e-01,8.531e-01,1.436e+00,9.271e-01,9.291e-01,3.540e-01,1.663e+00,5.683e-01,1.460e+00,9.593e-01,9.935e-01,4.762e-01,2.957e-01,1.323e+00,1.569e+00,7.986e-01,4.760e-01,3.718e-01,1.084e+00,1.026e+00,1.165e+00,8.345e-01,4.175e-01,5.304e-01,5.406e-01,5.028e-01,3.557e-01,1.134e+00,2.079e-01,1.029e+00,1.338e+00,5.338e-01,1.021e+00,1.081e+00,1.147e+00,6.326e-01,7.981e-01,1.036e+00,9.306e-01,4.634e-01,1.543e+00,8.081e-01,1.119e+00,1.264e+00,1.558e+00,6.363e-01,8.793e-01,6.211e-01,7.020e-01,9.735e-01,5.438e-01,8.234e-01,6.787e-01,5.818e-01,5.886e-01
2.343e-01,9.688e-01,9.196e-01,1.267e+00,1.211e+00,5.880e-01,1.151e+00,9.022e-01,1.013e+00,5.141e-01,1.450e+00,5.451e-01,8.251e-01,8.960e-01,1.806e+00,6.512e-01,1.056e+00,3.826e-01,8.414e-01,1.589e+00,1.124e+00,1.500e+00,7.010e-01,9.174e-01,9.090e-01,9.567e-01,1.690e+00,1.470e+00,1.119e+00,9.998e-01,1.302e+00,5.118e-01,6.156e-01,6.520e-01,7.311e-01,8.635e-01,9.839e-01,1.078e+00,1.922e+00,7.711e-01,1.652e+00,1.118e+00,1.120e+00,1.071e+00,1.083e+00,1.385e+00,1.577e+00,1.134e+00,1.502e-01,1.245e+00,1.394e+00,1.471e+00,2.114e-01,1.202e+00,8.400e-01,1.001e+00,1.574e+00,1.594e+00,7.201e-01,6.407e-01,7.489e-01,6.413e-01,5.418e-01,1.239e+00,8.390e-01,4.679e-01,7.170e-01,1.294e+00,8.898e-01,1.572e+00,1.313e+00,3.527e-01,1.080e+00,1.191e+00,8.173e-01,1.110e+00,1.694e+00,9.967e-01,9.138e-01,1.347e+00,1.452e+00,9.455e-01,1.278e+00,1.500e+00,1.111e+00,9.379e-01,1.140e+00,8.326e-01,8.568e-01,5.381e-01,7.166e-01
1.639e-01,1.025e+00,1.109e+00,2.088e+00,1.737e+00,9.638e-01,1.615e+00,1.363e+00,1.122e+00,1.650e+00,1.414e+00,8.579e-01,1.934e+00,1.277e+00,2.443e+00,1.359e+00,2.178e+00,9.137e-01,9.294e-01,2.117e+00,1.623e+00,2.183e+00,1.327e+00,1.382e+00,1.627e+00,1.940e+00,2.702e+00,2.081e+00,1.745e+00,1.264e+00,1.656e+00,1.728e+00,5.528e-01,1.695e+00,1.633e+00,1.109e+00,1.049e+00,1.443e+00,2.788e+00,1.265e+00,2.235e+00,1.761e+00,1.640e+00,2.013e+00,1.550e+00,2.143e+00,2.047e+00,1.948e+00,9.732e-01,1.418e+00,2.219e+00,1.343e+00,1.276e+00,1.267e+00,1.587e+00,1.917e+00,1.578e+00,1.927e+00,9.844e-01,6.468e-01,1.116e+00,1.059e+00,1.160e+00,1.965e+00,1.598e+00,1.464e+00,1.723e+00,1.481e+00,1.538e+00,2.023e+00,1.982e+00,7.940e-01,1.928e+00,1.337e+00,1.603e+00,1.608e+00,2.020e+00,1.175e+00,1.158e+00,1.654e+00,2.412e+00,1.270e+00,1.472e+00,2.379e+00,1.685e+00,1.717e+00,1.549e+00,1.421e+00,9.472e-01,9.868e-01,1.271e+00
1.639e-01,1.295e+00,1.250e+00,2.055e+00,1.912e+00,1.811e+00,1.792e+00,1.268e+00,9.084e-01,1.894e+00,1.429e+00,1.386e+00,2.858e+00,1.835e+00,2.783e+00,2.400e+00,3.193e+00,1.296e+00,1.719e+00,2.885e+00,1.598e+00,2.373e+00,1.804e+00,2.096e+00,2.669e+00,2.125e+00,2.642e+00,2.884e+00,2.373e+00,1.642e+00,2.162e+00,2.612e+00,1.250e+00,2.801e+00,1.867e+00,2.196e+00,1.524e+00,2.251e+00,3.416e+00,1.609e+00,2.324e+00,2.271e+00,2.636e+00,2.312e+00,1.748e+00,2.390e+00,2.679e+00,2.450e+00,1.097e+00,1.603e+00,2.561e+00,1.469e+00,1.588e+00,1.658e+00,1.684e+00,2.248e+00,2.171e+00,2.283e+00,1.666e+00,1.334e+00,1.952e+00,1.118e+00,1.452e+00,2.328e+00,2.077e+00,2.435e+00,2.841e+00,1.833e+00,2.386e+00,2.685e+00,2.249e+00,9.576e-01,1.922e+00,1.345e+00,2.281e+00,1.358e+00,2.103e+00,1.648e+00,2.080e+00,2.572e+00,2.837e+00,1.398e+00,1.548e+00,2.284e+00,2.095e+00,2.346e+00,1.797e+00,1.601e+00,1.707e+00,1.509e+00,1.810e+00
1.358e-01,1.163e+00,1.311e+00,1.800e+00,1.818e+00,1.459e+00,1.937e+00,1.708e+00,1.355e+00,2.256e+00,1.522e+00,1.091e+00,2.344e+00,1.618e+00,3.256e+00,2.386e+00,3.152e+00,1.112e+00,1.813e+00,2.934e+00,1.431e+00,2.085e+00,2.467e+00,1.688e+00,2.100e+00,2.910e+00,2.914e+00,3.147e+00,2.295e+00,2.196e+00,2.262e+00,2.141e+00,1.387e+00,2.790e+00,2.465e+00,1.953e+00,2.047e+00,2.533e+00,2.757e+00,1.945e+00,2.601e+00,2.550e+00,2.631e+00,2.239e+00,1.998e+00,2.772e+00,2.308e+00,2.881e+00,1.740e+00,1.531e+00,2.244e+00,1.985e+00,1.478e+00,2.182e+00,1.803e+00,2.362e+00,2.490e+00,1.885e+00,1.951e+00,1.633e+00,2.085e+00,9.126e-01,1.821e+00,2.429e+00,2.228e+00,1.881e+00,1.972e+00,2.156e+00,2.419e+00,2.671e+00,2.454e+00,1.242e+00,1.882e+00,1.801e+00,2.337e+00,1.712e+00,2.214e+00,1.397e+00,1.693e+00,1.899e+00,3.215e+00,1.830e+00,1.925e+00,3.073e+00,2.196e+00,1.647e+00,1.670e+00,1.445e+00,1.801e+00,2.014e+00,2.253e+00
1.894e-01,1.337e+00,1.025e+00,1.165e+00,1.264e+00,1.562e+00,1.982e+00,1.116e+00,8.277e-01,2.291e+00,1.719e+00,1.838e+00,2.692e+00,2.004e+00,2.562e+00,2.879e+00,3.589e+00,1.887e+00,3.115e+00,2.883e+00,1.110e+00,2.052e+00,2.556e+00,2.094e+00,2.836e+00,2.218e+00,1.691e+00,3.350e+00,2.699e+00,2.208e+00,2.082e+00,2.644e+00,2.045e+00,3.163e+00,2.491e+00,3.117e+00,2.346e+00,2.453e+00,2.424e+00,2.669e+00,2.730e+00,2.533e+00,3.715e+00,2.188e+00,2.184e+00,2.418e+00,2.410e+00,2.452e+00,1.639e+00,1.862e+00,2.586e+00,2.088e+00,1.423e+00,2.004e+00,1.463e+00,2.067e+00,2.692e+00,1.632e+00,2.363e+00,2.706e+00,2.809e+00,1.505e+00,2.219e+00,2.479e+00,1.771e+00,2.081e+00,2.631e+00,2.277e+00,2.994e+00,2.840e+00,2.163e+00,1.231e+00,1.153e+00,2.046e+00,2.443e+00,9.820e-01,1.605e+00,2.049e+00,3.047e+00,2.679e+00,2.756e+00,2.218e+00,2.205e+00,1.881e+00,2.663e+00,2.440e+00,1.539e+00,1.555e+00,2.436e+00,2.819e+00,2.790e+00
1.120e-01,4.482e-01,2.900e-01,1.223e+00,7.800e-01,1.090e+00,7.531e-01,9.388e-01,1.224e+00,1.515e+00,1.617e+00,1.190e+00,2.314e+00,1.126e+00,2.592e+00,1.912e+00,3.096e+00,7.402e-01,1.969e+00,2.441e+00,1.944e+00,2.533e+00,1.644e+00,2.208e+00,1.948e+00,1.865e+00,1.637e+00,2.183e+00,1.804e+00,1.219e+00,2.267e+00,2.214e+00,1.586e+00,2.792e+00,1.409e+00,1.282e+00,1.478e+00,1.475e+00,2.164e+00,1.465e+00,1.926e+00,2.624e+00,1.807e+00,2.437e+00,1.259e+00,2.317e+00,1.903e+00,2.525e+00,1.796e+00,1.367e+00,2.028e+00,1.043e+00,1.371e+00,1.944e+00,1.533e+00,1.439e+00,1.756e+00,1.784e+00,2.116e+00,1.882e+00,1.810e+00,1.754e+00,1.636e+00,2.007e+00,1.849e+00,2.213e+00,1.853e+00,2.124e+00,2.059e+00,2.520e+00,1.984e+00,6.302e-01,1.490e+00,1.415e+00,2.638e+00,1.549e+00,1.228e+00,1.069e+00,2.028e+00,2.157e+00,2.106e+00,1.201e+00,1.007e+00,2.336e+00,1.486e+00,1.978e+00,1.574e+00,1.257e+00,1.788e+00,1.648e+00,1.315e+00
3.080e-02,3.742e-01,6.344e-01,1.107e+00,1.057e+00,9.562e-01,1.234e+00,1.224e+00,1.794e+00,2.369e+00,1.679e+00,1.656e+00,2.057e+00,1.148e+00,3.137e+00,2.566e+00,3.394e+00,1.807e+00,2.403e+00,2.213e+00,1.686e+00,2.373e+00,2.111e+00,2.005e+00,2.582e+00,2.326e+00,2.618e+00,2.979e+00,2.624e+00,1.959e+00,2.148e+00,2.544e+00,2.049e+00,2.578e+00,2.704e+00,1.323e+00,2.233e+00,1.947e+00,2.114e+00,1.895e+00,3.098e+00,2.643e+00,2.565e+00,2.338e+00,2.248e+00,2.363e+00,2.268e+00,3.298e+00,2.541e+00,2.012e+00,2.707e+00,1.496e+00,1.683e+00,2.602e+00,2.079e+00,2.454e+00,2.415e+00,1.713e+00,2.260e+00,2.420e+00,2.878e+00,1.923e+00,1.711e+00,2.452e+00,1.936e+00,2.334e+00,2.095e+00,2.825e+00,2.878e+00,2.367e+00,2.360e+00,1.078e+00,1.934e+00,2.452e+00,2.052e+00,2.061e+00,2.112e+00,1.424e+00,2.196e+00,2.489e+00,2.573e+00,1.823e+00,2.616e+00,2.598e+00,2.691e+00,2.140e+00,2.656e+00,1.849e+00,2.058e+00,2.081e+00,2.034e+00
8.702e-02,6.232e-01,6.510e-01,7.665e-01,9.019e-01,1.076e+00,1.215e+00,8.180e-01,1.252e+00,1.891e+00,1.655e+00,2.665e+00,2.735e+00,1.518e+00,2.639e+00,3.319e+00,3.350e+00,1.853e+00,3.183e+00,2.251e+00,1.563e+00,2.857e+00,2.598e+00,2.012e+00,2.761e+00,2.290e+00,2.321e+00,3.242e+00,2.691e+00,2.410e+00,1.839e+00,2.366e+00,2.118e+00,3.179e+00,2.813e+00,1.923e+00,2.800e+00,2.595e+00,2.023e+00,1.958e+00,3.423e+00,2.621e+00,3.008e+00,2.246e+00,2.225e+00,2.129e+00,2.809e+00,2.563e+00,2.349e+00,2.866e+00,2.455e+00,1.527e+00,1.369e+00,2.569e+00,2.320e+00,2.159e+00,2.361e+00,1.661e+00,2.915e+00,2.676e+00,3.468e+00,2.035e+00,2.137e+00,2.734e+00,2.038e+00,2.765e+00,3.004e+00,2.888e+00,3.254e+00,2.842e+00,2.367e+00,1.718e+00,1.342e+00,2.534e+00,2.395e+00,1.722e+00,2.687e+00,2.289e+00,2.788e+00,3.463e+00,2.942e+00,2.261e+00,2.678e+00,2.505e+00,2.866e+00,2.366e+00,2.677e+00,2.486e+00,2.453e+00,1.967e+00,2.352e+00
6.182e-02,5.117e-01,4.820e-01,1.055e+00,8.822e-01,1.270e+00,1.407e+00,1.215e+00,1.414e+00,2.694e+00,1.997e+00,2.319e+00,3.432e+00,2.461e+00,3.666e+00,3.743e+00,4.334e+00,2.463e+00,4.012e+00,2.802e+00,2.055e+00,3.080e+00,3.295e+00,2.590e+00,2.785e+00,3.571e+00,2.675e+00,4.058e+00,3.453e+00,2.045e+00,3.335e+00,4.002e+00,3.188e+00,4.168e+00,3.640e+00,2.949e+00,3.356e+00,2.428e+00,2.952e+00,3.408e+00,3.576e+00,3.368e+00,3.539e+00,3.836e+00,3.083e+00,3.335e+00,3.221e+00,4.110e+00,3.146e+00,2.488e+00,3.160e+00,1.711e+00,2.452e+00,2.985e+00,1.966e+00,3.019e+00,3.457e+00,1.871e+00,3.337e+00,3.277e+00,3.138e+00,2.927e+00,2.770e+00,3.699e+00,2.987e+00,3.326e+00,2.525e+00,3.145e+00,4.189e+00,3.768e+00,2.806e+00,2.216e+00,2.032e+00,3.167e+00,3.385e+00,1.990e+00,1.875e+00,2.238e+00,2.952e+00,3.263e+00,3.775e+00,3.171e+00,3.268e+00,3.127e+00,2.960e+00,2.859e+00,2.772e+00,2.435e+00,2.922e+00,3.032e+00,3.105e+00
1.185e-01,9.820e-01,9.207e-01,1.155e+00,1.187e+00,1.109e+00,1.486e+00,1.173e+00,1.318e+00,2.065e+00,1.641e+00,1.793e+00,2.945e+00,2.455e+00,3.878e+00,3.598e+00,3.812e+00,2.066e+00,3.541e+00,3.450e+00,1.848e+00,2.701e+00,3.337e+00,2.844e+00,3.011e+00,3.266e+00,3.170e+00,3.743e+00,3.034e+00,3.425e+00,2.974e+00,2.684e+00,2.654e+00,4.110e+00,2.971e+00,2.621e+00,2.678e+00,3.375e+00,3.061e+00,2.689e+00,3.019e+00,3.631e+00,3.507e+00,2.660e+00,2.409e+00,3.490e+00,2.435e+00,3.684e+00,2.534e+00,2.589e+00,2.840e+00,2.017e+00,2.465e+00,3.405e+00,2.984e+00,2.794e+00,2.569e+00,2.418e+00,2.971e+00,3.165e+00,3.081e+00,1.912e+00,2.163e+00,3.404e+00,2.260e+00,3.535e+00,2.282e+00,3.467e+00,3.720e+00,3.207e+00,3.226e+00,2.250e+00,2.198e+00,2.661e+00,3.095e+00,2.593e+00,3.077e+00,2.030e+00,2.566e+00,3.178e+00,3.571e+00,2.681e+00,2.049e+00,3.398e+00,2.893e+00,2.665e+00,2.020e+00,1.935e+00,3.123e+00,2.840e+00,2.572e+00
2.455e-01,9.648e-01,5.043e-01,1.522e+00,8.915e-01,7.008e-01,1.129e+00,1.016e+00,1.506e+00,1.601e+00,1.884e+00,2.078e+00,3.929e+00,2.760e+00,3.856e+00,4.123e+00,4.332e+00,2.478e+00,3.975e+00,3.241e+00,2.812e+00,3.838e+00,3.491e+00,2.944e+00,3.427e+00,2.709e+00,3.111e+00,3.816e+00,3.565e+00,2.812e+00,3.664e+00,3.717e+00,2.726e+00,4.371e+00,3.480e+00,2.613e+00,3.563e+00,2.289e+00,3.650e+00,2.985e+00,4.243e+00,2.996e+00,3.938e+00,2.704e+00,3.539e+00,3.619e+00,3.403e+00,3.743e+00,3.614e+00,3.510e+00,3.634e+00,1.595e+00,2.965e+00,3.433e+00,2.828e+00,3.588e+00,2.762e+00,2.977e+00,3.877e+00,3.315e+00,2.969e+00,3.294e+00,2.817e+00,2.927e+00,2.221e+00,3.692e+00,2.712e+00,3.344e+00,3.786e+00,3.750e+00,3.092e+00,2.438e+00,2.456e+00,3.035e+00,3.481e+00,2.221e+00,2.990e+00,2.484e+00,3.433e+00,3.698e+00,3.972e+00,2.921e+00,3.218e+00,3.699e+00,2.451e+00,3.558e+00,3.367e+00,2.725e+00,3.185e+00,2.619e+00,1.941e+00
1.357e-01,8.251e-01,8.888e-01,1.021e+00,1.168e+00,1.167e+00,1.527e+00,1.291e+00,2.003e+00,2.305e+00,2.193e+00,2.038e+00,2.677e+00,1.897e+00,4.668e+00,3.465e+00,5.075e+00,2.596e+00,3.842e+00,3.659e+00,2.135e+00,3.750e+00,4.110e+00,2.940e+00,4.128e+00,3.314e+00,3.369e+00,4.146e+00,3.293e+00,3.233e+00,3.565e+00,2.922e+00,3.375e+00,4.508e+00,3.849e+00,2.975e+00,3.617e+00,3.570e+00,3.179e+00,3.338e+00,4.279e+00,4.074e+00,4.471e+00,2.552e+00,3.470e+00,3.840e+00,3.121e+00,4.348e+00,3.213e+00,3.410e+00,3.715e+00,3.154e+00,2.779e+00,3.713e+00,3.449e+00,3.317e+00,4.144e+00,2.505e+00,3.507e+00,3.658e+00,4.405e+00,2.505e+00,3.030e+00,3.397e+00,2.623e+00,2.826e+00,3.051e+00,3.872e+00,4.097e+00,3.497e+00,3.435e+00,2.069e+00,2.405e+00,3.643e+00,3.066e+00,3.364e+00,3.617e+00,3.194e+00,3.849e+00,3.500e+00,4.240e+00,3.160e+00,4.158e+00,4.011e+00,3.838e+00,2.747e+00,3.941e+00,3.089e+00,3.142e+00,3.729e+00,3.283e+00
2.513e-01,9.736e-01,5.608e-01,1.503e+00,9.959e-01,1.220e+00,1.477e+00,1.430e+00,1.129e+00,1.832e+00,1.799e+00,1.588e+00,3.441e+00,2.979e+00,4.528e+00,4.973e+00,5.333e+00,2.911e+00,4.799e+00,4.194e+00,2.998e+00,3.890e+00,4.531e+00,3.957e+00,5.001e+00,3.140e+00,3.922e+00,4.355e+00,4.782e+00,3.518e+00,4.067e+00,3.864e+00,3.354e+00,5.322e+00,4.637e+00,4.450e+00,4.489e+00,3.290e+00,4.204e+00,4.462e+00,4.728e+00,4.400e+00,5.869e+00,2.969e+00,4.185e+00,4.977e+00,3.668e+00,5.138e+00,3.387e+00,3.266e+00,3.976e+00,3.722e+00,3.773e+00,3.659e+00,3.091e+00,3.927e+00,3.939e+00,3.694e+00,4.495e+00,4.102e+00,4.145e+00,2.812e+00,3.969e+00,3.508e+00,3.374e+00,3.062e+00,3.828e+00,3.427e+00,4.932e+00,4.376e+00,3.880e+00,2.655e+00,2.490e+00,3.159e+00,4.246e+00,2.449e+00,3.543e+00,3.550e+00,4.209e+00,3.195e+00,4.820e+00,3.958e+00,3.602e+00,4.721e+00,3.930e+00,4.347e+00,3.268e+00,3.114e+00,3.381e+00,4.354e+00,4.293e+00
2.269e-01,1.375e+00,1.242e+00,1.491e+00,1.600e+00,1.328e+00,1.687e+00,9.396e-01,1.195e+00,1.467e+00,1.852e+00,1.968e+00,3.521e+00,3.384e+00,3.852e+00,5.337e+00,5.135e+00,3.559e+00,4.718e+00,4.438e+00,3.303e+00,4.102e+00,4.396e+00,4.528e+00,5.402e+00,3.589e+00,5.177e+00,5.141e+00,5.268e+00,3.992e+00,4.103e+00,3.834e+00,3.340e+00,5.639e+00,4.610e+00,4.659e+00,5.057e+00,4.297e+00,4.760e+00,4.443e+00,5.047e+00,4.373e+00,5.512e+00,3.520e+00,4.525e+00,4.474e+00,4.254e+00,5.427e+00,3.135e+00,4.432e+00,4.638e+00,2.944e+00,3.513e+00,4.178e+00,3.577e+00,4.035e+00,3.840e+00,4.955e+00,4.470e+00,3.980e+00,4.045e+00,3.188e+00,3.153e+00,4.959e+00,3.892e+00,4.588e+00,4.136e+00,3.509e+00,5.378e+00,5.517e+00,3.973e+00,3.310e+00,2.773e+00,3.633e+00,4.106e+00,2.647e+00,5.266e+00,4.455e+00,3.696e+00,5.025e+00,4.584e+00,4.403e+00,4.687e+00,4.145e+00,4.160e+00,4.819e+00,3.997e+00,3.601e+00,4.037e+00,4.274e+00,3.837e+00
2.063e-01,7.699e-01,4.345e-01,9.797e-01,6.897e-01,7.399e-01,1.145e+00,7.475e-01,1.410e+00,1.654e+00,2.188e+00,2.242e+00,3.317e+00,2.621e+00,3.351e+00,4.690e+00,5.857e+00,3.727e+00,5.022e+00,4.235e+00,4.062e+00,4.652e+00,4.834e+00,4.499e+00,5.128e+00,3.692e+00,4.078e+00,4.466e+00,5.574e+00,3.590e+00,4.462e+00,4.257e+00,4.066e+00,5.508e+00,5.015e+00,4.665e+00,5.182e+00,3.614e+00,3.773e+00,5.130e+00,5.433e+00,4.476e+00,5.035e+00,4.153e+00,4.438e+00,4.253e+00,4.291e+00,5.502e+00,4.281e+00,4.360e+00,5.345e+00,3.251e+00,4.177e+00,4.718e+00,4.307e+00,3.342e+00,3.541e+00,4.291e+00,5.623e+00,5.342e+00,5.045e+00,4.257e+00,3.659e+00,4.436e+00,3.860e+00,4.848e+00,4.345e+00,4.580e+00,5.511e+00,5.247e+00,3.921e+00,3.219e+00,2.544e+00,3.835e+00,4.168e+00,3.502e+00,4.509e+00,4.381e+00,4.623e+00,5.529e+00,4.503e+00,4.857e+00,5.383e+00,4.536e+00,4.777e+00,5.159e+00,4.544e+00,3.589e+00,3.899e+00,4.785e+00,3.570e+00
1.246e-01,1.040e+00,1.205e+00,2.019e+00,1.911e+00,1.823e+00,2.112e+00,1.695e+00,1.737e+00,3.059e+00,2.485e+00,3.067e+00,5.007e+00,3.808e+00,5.258e+00,5.671e+00,6.139e+00,4.195e+00,5.729e+00,5.727e+00,4.302e+00,6.475e+00,5.940e+00,4.942e+00,6.128e+00,5.202e+00,5.762e+00,6.354e+00,6.072e+00,4.375e+00,5.860e+00,5.282e+00,4.371e+00,6.786e+00,6.091e+00,4.952e+00,6.090e+00,5.023e+00,5.905e+00,5.140e+00,6.405e+00,5.595e+00,6.206e+00,4.933e+00,4.823e+00,5.659e+00,6.117e+00,6.596e+00,5.119e+00,4.610e+00,5.220e+00,3.603e+00,5.410e+00,5.072e+00,4.467e+00,5.028e+00,4.755e+00,4.849e+00,5.265e+00,4.981e+00,5.303e+00,4.099e+00,4.875e+00,5.796e+00,4.906e+00,5.179e+00,5.280e+00,4.734e+00,7.070e+00,6.336e+00,5.726e+00,4.151e+00,3.653e+00,5.290e+00,5.148e+00,4.081e+00,5.005e+00,5.572e+00,5.164e+00,5.385e+00,6.748e+00,5.500e+00,5.865e+00,6.564e+00,5.674e+00,5.384e+00,5.149e+00,4.461e+00,5.237e+00,4.803e+00,5.017e+00
2.470e-01,9.680e-01,7.578e-01,1.468e+00,1.232e+00,1.317e+00,1.440e+00,1.156e+00,1.328e+00,1.545e+00,2.263e+00,1.945e+00,3.201e+00,2.803e+00,3.805e+00,3.611e+00,4.443e+00,3.192e+00,4.709e+00,4.695e+00,3.642e+00,5.663e+00,4.338e+00,4.426e+00,5.519e+00,3.373e+00,4.115e+00,4.912e+00,5.849e+00,3.189e+00,5.191e+00,3.940e+00,4.658e+00,4.939e+00,4.276e+00,4.744e+00,5.484e+00,3.712e+00,4.839e+00,4.898e+00,5.797e+00,3.994e+00,5.416e+00,4.656e+00,3.780e+00,4.293e+00,5.957e+00,5.354e+00,3.537e+00,3.850e+00,4.298e+00,4.111e+00,4.437e+00,4.793e+00,3.893e+00,3.545e+00,4.149e+00,4.597e+00,5.144e+00,5.162e+00,4.880e+00,3.624e+00,4.210e+00,4.369e+00,3.545e+00,4.199e+00,4.509e+00,4.919e+00,5.960e+00,5.239e+00,4.619e+00,3.520e+00,3.366e+00,4.656e+00,3.778e+00,3.145e+00,4.149e+00,5.297e+00,4.485e+00,4.975e+00,5.105e+00,4.486e+00,5.258e+00,4.998e+00,5.356e+00,4.769e+00,4.184e+00,3.803e+00,4.311e+00,4.500e+00,4.337e+00
1.423e-03,5.307e-02,3.382e-01,8.219e-01,8.158e-01,1.406e+00,7.437e-01,1.257e+00,1.386e+00,1.830e+00,1.404e+00,2.395e+00,3.936e+00,3.106e+00,5.113e+00,5.948e+00,6.244e+00,4.086e+00,5.260e+00,5.738e+00,4.265e+00,6.495e+00,6.663e+00,5.232e+00,7.022e+00,5.544e+00,6.303e+00,6.583e+00,7.593e+00,5.161e+00,6.896e+00,5.232e+00,6.483e+00,7.983e+00,7.685e+00,5.749e+00,7.627e+00,6.041e+00,5.574e+00,6.019e+00,6.980e+00,6.573e+00,6.535e+00,4.935e+00,5.150e+00,5.618e+00,6.477e+00,7.477e+00,6.310e+00,4.942e+00,5.515e+00,4.407e+00,7.036e+00,6.522e+00,5.531e+00,5.218e+00,4.855e+00,5.071e+00,7.678e+00,6.230e+00,6.744e+00,3.897e+00,5.215e+00,5.444e+00,6.213e+00,6.578e+00,6.178e+00,6.550e+00,7.574e+00,6.479e+00,6.162e+00,5.336e+00,4.416e+00,5.638e+00,5.596e+00,5.423e+00,5.937e+00,5.819e+00,5.203e+00,6.237e+00,7.474e+00,6.100e+00,6.841e+00,6.743e+00,7.025e+00,5.898e+00,6.156e+00,4.925e+00,5.765e+00,5.410e+00,5.802e+00
3.291e-02,9.023e-01,1.240e+00,1.273e+00,1.593e+00,1.050e+00,1.597e+00,9.366e-01,1.568e+00,2.202e+00,1.518e+00,1.769e+00,2.781e+00,2.656e+00,4.259e+00,4.117e+00,5.478e+00,4.166e+00,3.870e+00,4.462e+00,3.284e+00,4.628e+00,5.166e+00,5.055e+00,5.987e+00,5.010e+00,6.047e+00,5.960e+00,6.088e+00,4.481e+00,5.528e+00,5.095e+00,4.627e+00,6.553e+00,6.139e+00,5.358e+00,4.929e+00,5.123e+00,5.526e+00,5.560e+00,5.375e+00,4.766e+00,5.913e+00,4.336e+00,5.090e+00,5.196e+00,4.673e+00,6.826e+00,4.161e+00,5.218e+00,5.702e+00,3.657e+00,5.865e+00,5.057e+00,5.703e+00,4.488e+00,4.380e+00,4.874e+00,4.983e+00,4.617e+00,5.501e+00,3.978e+00,3.543e+00,5.176e+00,4.051e+00,6.237e+00,5.223e+00,5.069e+00,6.628e+00,4.712e+00,5.225e+00,4.469e+00,4.477e+00,4.951e+00,3.744e+00,5.161e+00,6.597e+00,4.904e+00,4.017e+00,5.540e+00,5.395e+00,5.044e+00,6.553e+00,4.686e+00,6.236e+00,5.505e+00,5.159e+00,4.065e+00,4.406e+00,4.504e+00,4.812e+00
7.406e-03,6.670e-01,1.013e+00,7.984e-01,1.347e+00,1.721e+00,1.461e+00,1.029e+00,1.459e+00,2.333e+00,2.088e+00,2.638e+00,4.209e+00,3.500e+00,4.129e+00,4.858e+00,5.390e+00,3.608e+00,4.997e+00,5.134e+00,3.373e+00,5.990e+00,6.452e+00,5.386e+00,5.855e+00,6.214e+00,5.275e+00,6.293e+00,6.681e+00,4.674e+00,6.208e+00,6.015e+00,4.779e+00,7.584e+00,7.038e+00,5.822e+00,6.140e+00,6.393e+00,5.941e+00,5.679e+00,6.231e+00,5.607e+00,5.941e+00,5.109e+00,5.330e+00,5.435e+00,5.637e+00,6.968e+00,4.765e+00,5.615e+00,5.522e+00,3.367e+00,5.235e+00,5.356e+00,5.028e+00,5.333e+00,4.747e+00,4.809e+00,6.530e+00,5.319e+00,6.386e+00,4.550e+00,4.946e+00,6.802e+00,5.268e+00,6.429e+00,4.632e+00,6.096e+00,7.312e+00,6.509e+00,5.076e+00,5.506e+00,3.668e+00,4.920e+00,4.678e+00,5.368e+00,6.155e+00,5.753e+00,5.147e+00,6.522e+00,6.272e+00,6.386e+00,6.023e+00,6.224e+00,5.561e+00,5.529e+00,6.000e+00,4.048e+00,5.896e+00,5.703e+00,5.393e+00
5.910e-02,9.283e-01,1.080e+00,1.213e+00,1.447e+00,1.366e+00,1.792e+00,9.950e-01,1.566e+00,2.751e+00,2.231e+00,2.828e+00,4.275e+00,3.410e+00,4.376e+00,5.321e+00,6.628e+00,4.561e+00,5.835e+00,5.210e+00,4.315e+00,6.167e+00,6.600e+00,6.013e+00,7.395e+00,6.144e+00,6.367e+00,6.599e+00,7.295e+00,5.219e+00,5.784e+00,6.200e+00,4.986e+00,7.427e+00,6.669e+00,6.439e+00,7.246e+00,5.664e+00,5.985e+00,6.599e+00,6.965e+00,5.864e+00,6.843e+00,5.721e+00,6.300e+00,5.862e+00,6.394e+00,7.725e+00,5.840e+00,5.550e+00,6.844e+00,3.814e+00,5.890e+00,5.728e+00,5.731e+00,5.619e+00,5.728e+00,5.502e+00,6.847e+00,6.250e+00,6.401e+00,4.789e+00,5.531e+00,7.657e+00,5.504e+00,7.086e+00,6.168e+00,6.413e+00,7.924e+00,6.865e+00,5.810e+00,5.183e+00,3.795e+00,6.354e+00,5.425e+00,5.292e+00,6.433e+00,6.523e+00,5.830e+00,7.104e+00,7.363e+00,6.605e+00,7.346e+00,6.880e+00,6.323e+00,5.796e+00,6.533e+00,5.291e+00,5.366e+00,6.699e+00,5.799e+00
2.509e-01,1.226e+00,8.877e-01,1.312e+00,1.121e+00,7.673e-01,1.383e+00,9.472e-01,1.341e+00,1.366e+00,1.977e+00,1.755e+00,3.252e+00,2.514e+00,3.491e+00,3.501e+00,4.506e+00,2.321e+00,3.786e+00,4.093e+00,3.271e+00,5.221e+00,5.000e+00,4.668e+00,5.671e+00,5.772e+00,5.755e+00,6.198e+00,6.146e+00,4.415e+00,5.613e+00,4.810e+00,3.988e+00,7.110e+00,5.472e+00,5.228e+00,6.780e+00,4.265e+00,5.208e+00,5.935e+00,6.422e+00,5.486e+00,5.914e+00,4.192e+00,6.104e+00,4.978e+00,5.506e+00,5.553e+00,5.104e+00,5.210e+00,5.522e+00,3.862e+00,4.319e+00,4.292e+00,4.447e+00,4.678e+00,5.107e+00,5.332e+00,6.098e+00,4.443e+00,5.020e+00,4.078e+00,5.072e+00,6.150e+00,5.197e+00,5.796e+00,5.105e+00,5.340e+00,6.030e+00,5.891e+00,5.468e+00,4.818e+00,3.726e+00,5.938e+00,5.731e+00,5.035e+00,5.976e+00,5.545e+00,4.911e+00,6.183e+00,6.904e+00,5.122e+00,6.197e+00,5.053e+00,4.757e+00,5.564e+00,5.830e+00,4.147e+00,5.245e+00,4.759e+00,4.888e+00
1.378e-01,1.257e+00,1.294e+00,1.898e+00,1.802e+00,1.264e+00,1.958e+00,1.355e+00,1.697e+00,2.603e+00,2.015e+00,2.093e+00,3.980e+00,3.188e+00,4.954e+00,5.059e+00,6.340e+00,3.969e+00,5.199e+00,5.249e+00,4.332e+00,6.625e+00,6.757e+00,6.319e+00,8.132e+00,7.820e+00,8.699e+00,8.941e+00,8.575e+00,5.316e+00,7.241e+00,6.859e+00,5.879e+00,8.720e+00,7.911e+00,7.246e+00,8.287e+00,6.075e+00,7.655e+00,7.541e+00,8.620e+00,6.576e+00,7.970e+00,6.444e+00,8.137e+00,7.502e+00,7.687e+00,8.450e+00,5.859e+00,7.366e+00,7.174e+00,5.617e+00,7.388e+00,6.264e+00,6.320e+00,6.847e+00,6.751e+00,6.703e+00,6.886e+00,5.379e+00,7.070e+00,5.567e+00,7.157e+00,8.002e+00,6.959e+00,7.499e+00,7.609e+00,6.761e+00,9.252e+00,7.812e+00,7.613e+00,6.659e+00,5.758e+00,7.705e+00,6.509e+00,6.047e+00,8.265e+00,7.565e+00,6.291e+00,7.263e+00,8.387e+00,7.119e+00,8.490e+00,7.756e+00,7.131e+00,7.688e+00,7.727e+00,6.490e+00,6.391e+00,6.089e+00,7.259e+00
2.519e-01,1.037e+00,7.761e-01,1.627e+00,1.206e+00,9.594e-01,1.519e+00,1.432e+00,2.253e+00,2.252e+00,2.569e+00,2.477e+00,4.009e+00,3.213e+00,6.094e+00,5.657e+00,7.042e+00,4.445e+00,5.964e+00,5.968e+00,4.399e+00,6.984e+00,6.977e+00,6.560e+00,8.281e+00,6.579e+00,7.545e+00,8.267e+00,8.217e+00,6.641e+00,7.263e+00,6.215e+00,7.348e+00,8.623e+00,8.335e+00,7.367e+00,8.470e+00,6.327e+00,7.892e+00,7.413e+00,9.209e+00,7.916e+00,7.895e+00,5.553e+00,7.384e+00,8.367e+00,7.467e+00,9.485e+00,7.019e+00,7.105e+00,7.998e+00,6.109e+00,7.834e+00,7.850e+00,7.231e+00,7.207e+00,7.007e+00,6.711e+00,7.355e+00,6.497e+00,7.511e+00,6.221e+00,7.473e+00,8.035e+00,6.318e+00,7.574e+00,7.180e+00,8.446e+00,9.091e+00,7.811e+00,8.206e+00,5.721e+00,5.013e+00,7.661e+00,6.415e+00,6.687e+00,8.127e+00,7.831e+00,7.437e+00,8.164e+00,8.288e+00,7.436e+00,8.259e+00,8.084e+00,7.500e+00,7.494e+00,8.232e+00,6.092e+00,6.684e+00,7.460e+00,6.418e+00
1.223e-02,4.733e-02,5.093e-02,1.508e-01,2.410e-01,1.039e+00,5.116e-01,4.740e-01,1.148e+00,1.581e+00,1.470e+00,2.087e+00,2.645e+00,1.684e+00,2.895e+00,4.566e+00,5.228e+00,3.026e+00,4.519e+00,3.679e+00,3.103e+00,4.743e+00,5.053e+00,5.718e+00,6.858e+00,5.189e+00,5.671e+00,6.692e+00,6.897e+00,4.894e+00,5.655e+00,5.885e+00,4.654e+00,7.084e+00,6.982e+00,6.530e+00,7.985e+00,4.760e+00,5.543e+00,6.631e+00,7.636e+00,6.709e+00,7.015e+00,4.342e+00,5.900e+00,6.100e+00,6.049e+00,7.422e+00,5.715e+00,5.151e+00,5.968e+00,4.734e+00,5.445e+00,5.312e+00,5.326e+00,5.479e+00,6.136e+00,6.280e+00,6.921e+00,5.445e+00,7.074e+00,4.814e+00,6.140e+00,6.566e+00,5.921e+00,6.199e+00,6.891e+00,5.828e+00,7.304e+00,6.248e+00,5.532e+00,4.604e+00,3.117e+00,6.317e+00,6.234e+00,5.125e+00,6.295e+00,6.548e+00,6.632e+00,6.402e+00,6.370e+00,5.802e+00,7.536e+00,5.980e+00,6.233e+00,6.581e+00,6.675e+00,4.487e+00,5.649e+00,6.169e+00,6.596e+00
7.032e-02,4.040e-01,5.357e-01,9.255e-01,8.734e-01,7.961e-01,8.919e-01,9.174e-01,1.333e+00,1.485e+00,1.482e+00,1.722e+00,3.023e+00,2.438e+00,3.779e+00,3.690e+00,4.319e+00,3.049e+00,3.809e+00,3.975e+00,3.268e+00,4.992e+00,5.037e+00,3.956e+00,5.278e+00,5.358e+00,5.942e+00,6.060e+00,7.021e+00,5.745e+00,7.478e+00,5.663e+00,5.845e+00,7.444e+00,7.023e+00,6.245e+00,7.610e+00,4.999e+00,7.071e+00,6.096e+00,7.470e+00,6.977e+00,6.319e+00,4.956e+00,6.975e+00,6.747e+00,7.379e+00,6.720e+00,6.534e+00,5.226e+00,6.454e+00,5.620e+00,6.336e+00,6.537e+00,5.080e+00,6.213e+00,5.550e+00,5.174e+00,6.258e+00,4.885e+00,6.139e+00,5.244e+00,5.666e+00,5.612e+00,6.041e+00,5.644e+00,5.769e+00,6.175e+00,7.208e+00,6.234e+00,6.693e+00,5.282e+00,4.171e+00,7.122e+00,5.297e+00,6.211e+00,6.221e+00,6.221e+00,6.470e+00,5.871e+00,7.865e+00,6.492e+00,8.256e+00,6.396e+00,5.975e+00,6.598e+00,8.051e+00,4.817e+00,5.743e+00,5.379e+00,4.841e+00
1.262e-02,7.807e-01,1.192e+00,1.639e+00,1.865e+00,2.176e+00,1.907e+00,1.711e+00,2.101e+00,3.335e+00,2.427e+00,2.411e+00,4.411e+00,3.704e+00,6.233e+00,5.654e+00,7.647e+00,4.619e+00,5.743e+00,6.289e+00,4.296e+00,6.322e+00,7.146e+00,6.783e+00,8.011e+00,8.426e+00,8.085e+00,8.467e+00,9.087e+00,5.611e+00,8.607e+00,7.867e+00,6.757e+00,9.726e+00,8.544e+00,7.960e+00,8.240e+00,7.413e+00,8.210e+00,8.208e+00,8.629e+00,8.629e+00,8.405e+00,7.056e+00,7.911e+00,7.989e+00,7.772e+00,9.816e+00,6.352e+00,6.961e+00,8.326e+00,6.363e+00,7.804e+00,8.033e+00,7.627e+00,7.324e+00,7.754e+00,7.164e+00,8.154e+00,7.025e+00,9.103e+00,5.866e+00,7.131e+00,8.131e+00,8.579e+00,9.220e+00,7.471e+00,8.604e+00,9.707e+00,8.200e+00,7.886e+00,6.908e+00,6.557e+00,7.594e+00,7.104e+00,8.162e+00,7.891e+00,8.033e+00,6.657e+00,8.509e+00,8.884e+00,7.576e+00,9.230e+00,8.564e+00,8.170e+00,8.525e+00,8.991e+00,6.273e+00,7.887e+00,8.166e+00,7.710e+00
2.487e-01,1.045e+00,7.261e-01,1.265e+00,1.030e+00,9.117e-01,1.456e+00,9.657e-01,1.675e+00,1.852e+00,2.287e+00,2.608e+00,3.002e+00,2.293e+00,4.626e+00,4.705e+00,5.800e+00,3.571e+00,5.231e+00,4.620e+00,3.803e+00,5.431e+00,4.993e+00,5.165e+00,7.379e+00,5.296e+00,7.261e+00,7.519e+00,7.689e+00,6.643e+00,7.466e+00,5.968e+00,6.126e+00,7.784e+00,7.640e+00,7.013e+00,8.719e+00,5.942e+00,7.553e+00,7.562e+00,9.821e+00,8.204e+00,8.591e+00,5.708e+00,7.755e+00,7.277e+00,7.810e+00,7.022e+00,6.406e+00,7.106e+00,7.929e+00,7.380e+00,6.676e+00,7.767e+00,7.594e+00,6.877e+00,8.125e+00,7.483e+00,8.265e+00,7.075e+00,8.229e+00,6.233e+00,7.269e+00,6.407e+00,7.792e+00,7.195e+00,8.402e+00,8.024e+00,8.189e+00,7.172e+00,7.894e+00,6.376e+00,5.720e+00,8.838e+00,7.806e+00,7.128e+00,8.217e+00,8.105e+00,8.636e+00,8.301e+00,8.391e+00,6.196e+00,9.657e+00,7.097e+00,8.163e+00,8.817e+00,9.147e+00,6.655e+00,7.682e+00,6.682e+00,7.246e+00
4.350e-02,5.776e-01,5.784e-01,5.379e-01,7.274e-01,8.369e-01,7.800e-01,3.764e-01,8.193e-01,1.205e+00,1.108e+00,1.906e+00,2.569e+00,1.687e+00,2.479e+00,3.432e+00,4.023e+00,2.386e+00,3.364e+00,3.219e+00,2.437e+00,3.910e+00,4.240e+00,3.986e+00,4.795e+00,4.588e+00,4.725e+00,5.331e+00,5.358e+00,4.789e+00,5.296e+00,4.897e+00,4.565e+00,7.108e+00,5.684e+00,5.550e+00,6.628e+00,5.683e+00,5.842e+00,5.405e+00,7.367e+00,6.283e+00,5.700e+00,5.289e+00,6.080e+00,6.030e+00,6.342e+00,6.356e+00,5.365e+00,5.606e+00,5.329e+00,4.621e+00,5.523e+00,6.512e+00,6.509e+00,4.930e+00,5.256e+00,5.586e+00,7.170e+00,5.228e+00,6.371e+00,5.028e+00,6.029e+00,6.151e+00,6.708e+00,6.801e+00,6.195e+00,6.592e+00,6.733e+00,6.413e+00,6.166e+00,5.680e+00,4.243e+00,6.094e+00,5.614e+00,5.476e+00,7.144e+00,6.637e+00,6.390e+00,7.449e+00,6.870e+00,5.768e+00,7.313e+00,6.398e+00,5.416e+00,5.742e+00,7.408e+00,5.777e+00,5.496e+00,6.195e+00,5.525e+00
1.433e-01,5.507e-01,5.065e-01,1.188e+00,9.037e-01,9.259e-01,1.362e+00,1.356e+00,1.965e+00,2.450e+00,2.297e+00,2.451e+00,3.066e+00,2.112e+00,4.263e+00,4.629e+00,5.750e+00,3.304e+00,4.764e+00,4.464e+00,4.013e+00,5.591e+00,5.480e+00,5.549e+00,6.890e+00,6.539e+00,7.362e+00,7.791e+00,8.465e+00,6.143e+00,7.406e+00,6.854e+00,6.727e+00,8.282e+00,8.763e+00,7.287e+00,9.382e+00,6.814e+00,7.855e+00,8.544e+00,1.006e+01,8.045e+00,8.105e+00,6.868e+00,8.350e+00,7.947e+00,8.445e+00,8.178e+00,7.125e+00,7.116e+00,7.833e+00,6.734e+00,7.548e+00,7.924e+00,7.210e+00,7.450e+00,6.979e+00,7.465e+00,8.880e+00,7.265e+00,8.421e+00,7.074e+00,8.167e+00,7.663e+00,7.993e+00,7.586e+00,8.483e+00,9.359e+00,8.987e+00,7.867e+00,8.625e+00,6.775e+00,6.419e+00,8.106e+00,7.241e+00,7.196e+00,8.413e+00,7.542e+00,8.430e+00,8.061e+00,9.077e+00,7.425e+00,9.564e+00,7.732e+00,7.920e+00,8.714e+00,8.799e+00,6.540e+00,7.114e+00,6.826e+00,7.830e+00
1.865e-01,8.501e-01,5.688e-01,9.814e-01,7.619e-01,6.425e-01,1.138e+00,8.927e-01,1.258e+00,1.507e+00,1.732e+00,2.175e+00,3.409e+00,2.524e+00,3.977e+00,4.697e+00,5.643e+00,2.969e+00,5.022e+00,3.727e+00,3.819e+00,4.967e+00,6.112e+00,4.898e+00,5.937e+00,6.313e+00,6.354e+00,6.576e+00,7.300e+00,5.607e+00,6.908e+00,6.611e+00,6.556e+00,9.472e+00,8.010e+00,8.159e+00,9.404e+00,6.652e+00,7.269e+00,8.286e+00,9.656e+00,6.948e+00,8.349e+00,6.780e+00,9.533e+00,7.997e+00,8.273e+00,8.274e+00,7.327e+00,7.608e+00,7.435e+00,6.969e+00,6.882e+00,7.237e+00,7.750e+00,6.349e+00,8.054e+00,7.215e+00,9.469e+00,7.304e+00,8.211e+00,6.875e+00,7.553e+00,7.353e+00,8.570e+00,7.496e+00,8.142e+00,7.842e+00,9.231e+00,7.325e+00,7.557e+00,7.635e+00,5.789e+00,7.568e+00,7.774e+00,6.631e+00,8.804e+00,8.339e+00,7.877e+00,8.169e+00,9.655e+00,8.101e+00,9.074e+00,9.086e+00,7.109e+00,7.899e+00,9.558e+00,7.662e+00,6.535e+00,7.435e+00,7.226e+00
3.145e-03,5.872e-01,9.849e-01,1.482e+00,1.578e+00,1.543e+00,1.424e+00,1.344e+00,1.874e+00,2.580e+00,1.802e+00,1.968e+00,3.743e+00,2.927e+00,5.208e+00,5.410e+00,6.890e+00,4.320e+00,5.119e+00,5.760e+00,4.608e+00,6.403e+00,6.665e+00,7.038e+00,8.419e+00,7.141e+00,8.409e+00,8.157e+00,9.519e+00,7.538e+00,9.404e+00,8.353e+00,7.338e+00,1.235e+01,9.511e+00,9.736e+00,1.108e+01,9.295e+00,1.053e+01,9.576e+00,1.141e+01,1.057e+01,1.063e+01,9.138e+00,1.072e+01,9.959e+00,1.063e+01,1.117e+01,9.439e+00,7.885e+00,8.990e+00,8.271e+00,9.718e+00,9.759e+00,9.344e+00,8.723e+00,8.318e+00,9.863e+00,1.057e+01,8.589e+00,9.906e+00,8.111e+00,9.013e+00,9.386e+00,1.018e+01,1.041e+01,1.001e+01,9.641e+00,1.081e+01,9.868e+00,1.083e+01,8.686e+00,7.943e+00,1.037e+01,8.961e+00,9.142e+00,1.138e+01,1.000e+01,9.152e+00,1.032e+01,1.141e+01,9.234e+00,1.195e+01,1.054e+01,9.962e+00,1.039e+01,1.102e+01,8.996e+00,8.335e+00,1.039e+01,9.247e+00
1.027e-01,4.865e-01,5.513e-01,1.301e+00,1.033e+00,1.019e+00,1.130e+00,1.266e+00,1.467e+00,1.883e+00,1.560e+00,1.652e+00,2.623e+00,1.757e+00,3.980e+00,4.167e+00,5.621e+00,3.211e+00,4.135e+00,4.733e+00,4.204e+00,6.092e+00,6.093e+00,6.281e+00,8.078e+00,6.892e+00,7.898e+00,8.033e+00,9.136e+00,6.081e+00,7.818e+00,7.337e+00,6.291e+00,9.354e+00,9.249e+00,9.074e+00,1.027e+01,7.587e+00,8.902e+00,9.501e+00,1.136e+01,8.982e+00,9.607e+00,7.735e+00,9.359e+00,8.761e+00,1.015e+01,9.637e+00,8.404e+00,7.339e+00,8.765e+00,7.973e+00,9.411e+00,7.889e+00,8.932e+00,7.508e+00,8.805e+00,8.715e+00,9.924e+00,7.611e+00,9.823e+00,7.373e+00,8.966e+00,8.826e+00,9.584e+00,9.442e+00,9.907e+00,9.164e+00,9.524e+00,8.457e+00,9.470e+00,8.106e+00,6.953e+00,9.800e+00,8.846e+00,8.955e+00,1.003e+01,9.545e+00,8.626e+00,9.862e+00,1.007e+01,8.404e+00,1.095e+01,9.909e+00,9.758e+00,9.425e+00,9.534e+00,7.648e+00,7.546e+00,8.139e+00,9.854e+00
4.002e-02,2.828e-01,2.488e-01,7.861e-01,5.262e-01,6.938e-01,1.060e+00,1.028e+00,1.207e+00,2.279e+00,1.547e+00,2.174e+00,3.361e+00,2.875e+00,4.543e+00,4.903e+00,5.605e+00,3.809e+00,5.476e+00,4.298e+00,3.544e+00,5.813e+00,6.146e+00,6.162e+00,7.316e+00,5.552e+00,6.269e+00,6.482e+00,8.100e+00,6.277e+00,6.909e+00,6.907e+00,6.458e+00,1.011e+01,8.556e+00,8.962e+00,8.914e+00,7.741e+00,8.370e+00,8.933e+00,9.017e+00,7.965e+00,1.059e+01,7.997e+00,9.592e+00,8.812e+00,8.409e+00,9.270e+00,7.780e+00,7.946e+00,7.924e+00,6.567e+00,8.484e+00,7.464e+00,8.365e+00,7.017e+00,7.575e+00,6.950e+00,9.554e+00,7.837e+00,8.581e+00,7.594e+00,8.732e+00,7.593e+00,8.079e+00,9.296e+00,8.300e+00,9.240e+00,9.385e+00,7.603e+00,8.566e+00,8.233e+00,6.846e+00,8.908e+00,8.029e+00,7.481e+00,8.434e+00,8.569e+00,7.894e+00,8.305e+00,9.238e+00,8.889e+00,8.590e+00,9.379e+00,9.515e+00,9.025e+00,7.995e+00,8.051e+00,7.265e+00,9.587e+00,8.900e+00
2.111e-03,1.517e-01,5.539e-01,7.525e-01,9.213e-01,9.442e-01,9.144e-01,1.001e+00,1.207e+00,1.573e+00,1.483e+00,1.596e+00,2.560e+00,2.636e+00,4.054e+00,4.339e+00,4.843e+00,3.748e+00,4.285e+00,4.739e+00,3.509e+00,5.499e+00,5.831e+00,5.321e+00,6.569e+00,6.613e+00,7.469e+00,7.238e+00,7.769e+00,5.918e+00,8.153e+00,6.224e+00,6.835e+00,9.424e+00,9.652e+00,8.732e+00,1.022e+01,9.544e+00,9.943e+00,9.766e+00,1.174e+01,1.002e+01,9.054e+00,8.533e+00,1.046e+01,9.677e+00,9.885e+00,1.055e+01,7.938e+00,7.658e+00,9.339e+00,8.257e+00,9.947e+00,9.668e+00,9.844e+00,8.513e+00,8.970e+00,9.303e+00,9.369e+00,7.790e+00,9.765e+00,7.826e+00,9.614e+00,9.163e+00,1.172e+01,8.542e+00,8.372e+00,9.899e+00,1.013e+01,1.008e+01,1.007e+01,8.525e+00,7.313e+00,9.609e+00,9.215e+00,9.566e+00,9.547e+00,1.079e+01,9.602e+00,1.063e+01,1.022e+01,1.032e+01,1.095e+01,1.079e+01,1.003e+01,9.650e+00,1.129e+01,8.740e+00,9.295e+00,9.909e+00,8.766e+00
1.822e-01,7.745e-01,6.326e-01,1.265e+00,1.010e+00,9.347e-01,1.450e+00,1.147e+00,1.498e+00,2.066e+00,2.304e+00,2.397e+00,3.406e+00,2.702e+00,4.314e+00,4.615e+00,6.225e+00,4.106e+00,5.279e+00,5.584e+00,4.595e+00,7.160e+00,6.744e+00,6.648e+00,8.027e+00,6.719e+00,7.277e+00,8.136e+00,9.471e+00,6.517e+00,8.293e+00,7.737e+00,7.898e+00,1.079e+01,9.609e+00,1.032e+01,1.125e+01,1.037e+01,1.082e+01,1.116e+01,1.202e+01,1.011e+01,1.117e+01,9.083e+00,1.183e+01,1.023e+01,1.079e+01,1.033e+01,9.404e+00,1.015e+01,1.057e+01,7.689e+00,1.098e+01,9.517e+00,9.671e+00,8.706e+00,9.026e+00,8.848e+00,1.206e+01,9.362e+00,1.008e+01,9.121e+00,1.081e+01,1.036e+01,1.147e+01,1.079e+01,1.044e+01,1.087e+01,1.118e+01,1.079e+01,1.111e+01,8.653e+00,7.929e+00,1.114e+01,1.008e+01,9.751e+00,1.097e+01,1.111e+01,1.089e+01,1.148e+01,1.196e+01,1.116e+01,1.179e+01,1.099e+01,1.093e+01,1.150e+01,1.133e+01,1.030e+01,1.026e+01,1.115e+01,9.623e+00
6.683e-02,7.205e-01,7.182e-01,1.087e+00,9.981e-01,7.542e-01,1.511e+00,9.469e-01,1.625e+00,2.689e+00,2.018e+00,2.589e+00,3.310e+00,2.598e+00,4.595e+00,4.840e+00,6.621e+00,4.338e+00,5.554e+00,4.889e+00,4.244e+00,6.005e+00,6.325e+00,6.369e+00,7.939e+00,6.344e+00,7.599e+00,7.292e+00,8.805e+00,7.946e+00,7.747e+00,7.280e+00,7.516e+00,9.906e+00,8.920e+00,9.145e+00,9.628e+00,9.629e+00,1.103e+01,1.142e+01,1.150e+01,1.078e+01,1.143e+01,1.025e+01,1.131e+01,1.038e+01,1.086e+01,1.079e+01,1.011e+01,9.745e+00,1.118e+01,7.889e+00,1.158e+01,1.055e+01,1.120e+01,9.580e+00,9.382e+00,8.061e+00,1.198e+01,1.004e+01,1.056e+01,1.013e+01,1.061e+01,1.074e+01,1.025e+01,1.151e+01,1.102e+01,1.154e+01,1.112e+01,1.015e+01,1.158e+01,9.015e+00,8.518e+00,1.210e+01,1.034e+01,9.674e+00,1.119e+01,1.037e+01,1.140e+01,1.119e+01,1.208e+01,1.052e+01,1.227e+01,9.973e+00,1.042e+01,1.079e+01,1.061e+01,1.034e+01,9.810e+00,1.090e+01,9.959e+00
1.121e-01,5.150e-01,3.539e-01,1.361e+00,8.348e-01,9.764e-01,1.097e+00,1.241e+00,1.144e+00,2.018e+00,1.531e+00,1.783e+00,3.090e+00,1.645e+00,3.662e+00,4.264e+00,5.882e+00,2.643e+00,4.073e+00,4.526e+00,4.024e+00,5.505e+00,5.727e+00,5.532e+00,6.730e+00,6.424e+00,7.074e+00,7.230e+00,7.186e+00,5.828e+00,6.984e+00,6.002e+00,5.523e+00,8.560e+00,8.075e+00,7.704e+00,9.036e+00,7.335e+00,9.070e+00,1.055e+01,1.104e+01,9.714e+00,9.351e+00,8.061e+00,9.991e+00,9.688e+00,9.309e+00,1.038e+01,9.322e+00,8.084e+00,8.980e+00,7.846e+00,1.077e+01,8.295e+00,9.006e+00,8.076e+00,8.409e+00,8.344e+00,1.019e+01,7.874e+00,9.172e+00,8.539e+00,1.012e+01,9.575e+00,9.902e+00,8.294e+00,1.057e+01,8.832e+00,9.413e+00,9.517e+00,1.067e+01,6.840e+00,6.803e+00,1.007e+01,9.832e+00,7.964e+00,9.676e+00,9.508e+00,1.048e+01,9.700e+00,1.066e+01,9.248e+00,1.003e+01,1.072e+01,8.934e+00,9.701e+00,9.104e+00,8.148e+00,8.344e+00,8.739e+00,8.889e+00
1.078e-01,8.064e-01,8.712e-01,1.453e+00,1.402e+00,1.469e+00,1.446e+00,1.061e+00,1.681e+00,2.262e+00,2.074e+00,2.195e+00,3.640e+00,2.508e+00,4.322e+00,4.378e+00,6.456e+00,3.988e+00,4.835e+00,5.134e+00,4.197e+00,6.433e+00,5.824e+00,6.155e+00,8.143e+00,6.212e+00,7.706e+00,7.808e+00,8.382e+00,6.329e+00,8.412e+00,7.084e+00,7.068e+00,8.854e+00,8.597e+00,8.921e+00,1.016e+01,8.372e+00,1.026e+01,1.047e+01,1.196e+01,9.792e+00,1.008e+01,9.049e+00,1.036e+01,1.004e+01,1.209e+01,1.043e+01,9.371e+00,8.658e+00,1.080e+01,8.582e+00,1.044e+01,1.042e+01,9.541e+00,8.712e+00,1.023e+01,9.216e+00,1.114e+01,9.176e+00,1.017e+01,9.145e+00,1.022e+01,9.704e+00,9.697e+00,9.758e+00,1.093e+01,1.074e+01,1.087e+01,9.854e+00,9.861e+00,8.670e+00,8.556e+00,1.047e+01,9.557e+00,8.972e+00,9.794e+00,1.129e+01,1.038e+01,1.081e+01,1.121e+01,9.669e+00,1.272e+01,1.085e+01,9.969e+00,1.000e+01,1.130e+01,9.438e+00,9.012e+00,1.006e+01,9.531e+00
1.084e-01,1.167e+00,1.262e+00,1.811e+00,1.872e+00,2.070e+00,2.128e+00,1.645e+00,2.269e+00,3.496e+00,2.596e+00,3.126e+00,4.515e+00,3.137e+00,5.936e+00,6.335e+00,7.959e+00,4.542e+00,6.423e+00,6.544e+00,5.172e+00,6.620e+00,7.292e+00,7.310e+00,9.022e+00,8.074e+00,8.804e+00,9.577e+00,9.978e+00,7.458e+00,9.116e+00,9.147e+00,7.797e+00,1.083e+01,9.999e+00,9.660e+00,1.073e+01,9.397e+00,1.126e+01,1.104e+01,1.325e+01,1.243e+01,1.196e+01,9.695e+00,1.286e+01,1.192e+01,1.230e+01,1.370e+01,1.113e+01,1.019e+01,1.197e+01,9.400e+00,1.191e+01,1.154e+01,1.212e+01,1.104e+01,1.111e+01,1.101e+01,1.298e+01,1.139e+01,1.370e+01,1.045e+01,1.098e+01,1.138e+01,1.225e+01,1.175e+01,1.251e+01,1.347e+01,1.295e+01,1.148e+01,1.320e+01,9.031e+00,1.027e+01,1.231e+01,1.152e+01,1.091e+01,1.181e+01,1.141e+01,1.261e+01,1.363e+01,1.366e+01,1.176e+01,1.246e+01,1.310e+01,1.214e+01,1.276e+01,1.182e+01,1.037e+01,1.167e+01,1.097e+01,1.172e+01
2.322e-01,1.312e+00,1.047e+00,1.521e+00,1.433e+00,1.548e+00,2.058e+00,1.425e+00,1.715e+00,2.746e+00,2.561e+00,3.457e+00,4.890e+00,4.096e+00,6.141e+00,6.618e+00,7.484e+00,5.059e+00,6.907e+00,6.309e+00,4.351e+00,7.334e+00,7.857e+00,7.233e+00,9.326e+00,7.959e+00,8.694e+00,9.990e+00,1.047e+01,8.613e+00,9.561e+00,8.498e+00,9.671e+00,1.292e+01,1.132e+01,1.204e+01,1.233e+01,1.181e+01,1.266e+01,1.210e+01,1.411e+01,1.256e+01,1.354e+01,1.093e+01,1.480e+01,1.359e+01,1.382e+01,1.319e+01,1.255e+01,1.175e+01,1.259e+01,1.062e+01,1.370e+01,1.237e+01,1.176e+01,1.121e+01,1.114e+01,1.131e+01,1.380e+01,1.166e+01,1.371e+01,1.119e+01,1.232e+01,1.268e+01,1.281e+01,1.236e+01,1.365e+01,1.384e+01,1.323e+01,1.195e+01,1.339e+01,1.092e+01,1.037e+01,1.340e+01,1.129e+01,1.147e+01,1.304e+01,1.243e+01,1.421e+01,1.463e+01,1.494e+01,1.415e+01,1.440e+01,1.410e+01,1.309e+01,1.362e+01,1.366e+01,1.235e+01,1.134e+01,1.221e+01,1.215e+01
2.471e-01,1.036e+00,6.227e-01,1.646e+00,1.079e+00,1.069e+00,1.275e+00,1.291e+00,1.582e+00,1.810e+00,1.952e+00,2.391e+00,4.324e+00,3.247e+00,4.974e+00,5.689e+00,5.954e+00,3.668e+00,5.511e+00,5.772e+00,4.414e+00,6.987e+00,6.371e+00,6.947e+00,8.330e+00,6.967e+00,8.486e+00,9.427e+00,9.999e+00,7.877e+00,9.478e+00,7.931e+00,7.479e+00,1.162e+01,9.730e+00,1.005e+01,1.124e+01,8.842e+00,1.177e+01,1.087e+01,1.324e+01,1.228e+01,1.243e+01,9.712e+00,1.302e+01,1.280e+01,1.359e+01,1.185e+01,1.243e+01,1.145e+01,1.209e+01,1.049e+01,1.262e+01,1.202e+01,1.077e+01,1.068e+01,9.835e+00,1.105e+01,1.379e+01,9.988e+00,1.263e+01,1.110e+01,1.130e+01,1.101e+01,1.134e+01,1.277e+01,1.292e+01,1.255e+01,1.248e+01,1.183e+01,1.281e+01,1.080e+01,1.055e+01,1.345e+01,1.167e+01,1.120e+01,1.282e+01,1.162e+01,1.191e+01,1.310e+01,1.334e+01,1.216e+01,1.350e+01,1.239e+01,1.192e+01,1.387e+01,1.183e+01,1.060e+01,1.210e+01,1.112e+01,1.202e+01
1.109e-01,9.196e-01,9.353e-01,1.500e+00,1.363e+00,9.803e-01,1.541e+00,1.032e+00,1.438e+00,2.248e+00,1.755e+00,2.777e+00,4.234e+00,3.293e+00,4.264e+00,5.573e+00,5.583e+00,4.358e+00,5.053e+00,5.251e+00,4.138e+00,6.441e+00,5.835e+00,5.754e+00,7.155e+00,5.925e+00,7.648e+00,8.252e+00,8.091e+00,6.629e+00,8.071e+00,6.855e+00,6.430e+00,1.010e+01,9.010e+00,7.778e+00,9.452e+00,8.517e+00,9.570e+00,8.977e+00,1.139e+01,9.986e+00,1.002e+01,8.303e+00,1.245e+01,1.079e+01,1.100e+01,1.098e+01,1.123e+01,9.890e+00,1.094e+01,7.835e+00,1.142e+01,1.093e+01,1.023e+01,9.995e+00,8.621e+00,1.083e+01,1.197e+01,9.785e+00,1.105e+01,1.011e+01,1.025e+01,9.811e+00,1.091e+01,1.034e+01,1.111e+01,1.139e+01,1.119e+01,1.009e+01,1.109e+01,9.713e+00,1.016e+01,1.151e+01,9.426e+00,9.636e+00,1.094e+01,1.041e+01,1.082e+01,1.166e+01,1.190e+01,1.177e+01,1.265e+01,1.104e+01,1.075e+01,1.202e+01,1.141e+01,1.011e+01,1.032e+01,9.185e+00,1.035e+01
5.012e-02,7.200e-01,6.841e-01,1.082e+00,1.079e+00,1.555e+00,1.441e+00,1.050e+00,1.441e+00,2.704e+00,1.880e+00,2.536e+00,4.395e+00,3.332e+00,4.973e+00,5.606e+00,7.053e+00,4.446e+00,5.505e+00,5.640e+00,3.774e+00,6.298e+00,6.684e+00,6.584e+00,8.301e+00,6.789e+00,7.221e+00,8.375e+00,8.630e+00,7.010e+00,8.887e+00,8.212e+00,7.461e+00,1.215e+01,9.792e+00,9.969e+00,1.086e+01,1.079e+01,1.179e+01,1.102e+01,1.276e+01,1.218e+01,1.224e+01,1.034e+01,1.346e+01,1.199e+01,1.267e+01,1.225e+01,1.256e+01,1.040e+01,1.266e+01,8.849e+00,1.381e+01,1.191e+01,1.161e+01,1.219e+01,1.070e+01,1.201e+01,1.412e+01,1.201e+01,1.313e+01,1.188e+01,1.266e+01,1.205e+01,1.280e+01,1.295e+01,1.283e+01,1.329e+01,1.174e+01,1.220e+01,1.226e+01,1.089e+01,1.136e+01,1.317e+01,1.190e+01,1.167e+01,1.203e+01,1.203e+01,1.321e+01,1.310e+01,1.455e+01,1.338e+01,1.546e+01,1.198e+01,1.127e+01,1.330e+01,1.303e+01,1.258e+01,1.155e+01,1.223e+01,1.244e+01
9.951e-02,7.468e-01,7.573e-01,1.100e+00,1.059e+00,7.587e-01,1.108e+00,7.449e-01,8.081e-01,1.289e+00,1.162e+00,1.837e+00,3.189e+00,2.812e+00,3.660e+00,4.758e+00,5.308e+00,3.833e+00,4.674e+00,4.484e+00,3.759e+00,5.699e+00,6.032e+00,5.312e+00,6.855e+00,5.394e+00,6.656e+00,6.183e+00,7.654e+00,5.931e+00,6.481e+00,6.075e+00,7.134e+00,9.542e+00,8.138e+00,8.917e+00,9.983e+00,8.979e+00,1.011e+01,1.062e+01,1.149e+01,1.014e+01,1.098e+01,9.597e+00,1.370e+01,1.181e+01,1.299e+01,1.320e+01,1.212e+01,1.141e+01,1.251e+01,9.838e+00,1.292e+01,1.193e+01,1.213e+01,1.133e+01,1.064e+01,1.169e+01,1.443e+01,1.177e+01,1.240e+01,1.255e+01,1.184e+01,1.292e+01,1.291e+01,1.231e+01,1.262e+01,1.390e+01,1.303e+01,1.116e+01,1.270e+01,1.161e+01,1.225e+01,1.234e+01,1.037e+01,1.083e+01,1.273e+01,1.261e+01,1.186e+01,1.294e+01,1.417e+01,1.429e+01,1.404e+01,1.296e+01,1.146e+01,1.268e+01,1.190e+01,1.298e+01,1.039e+01,1.327e+01,1.217e+01
6.854e-02,7.149e-01,8.331e-01,1.419e+00,1.399e+00,1.808e+00,1.616e+00,1.419e+00,1.396e+00,2.653e+00,1.908e+00,2.563e+00,4.153e+00,3.146e+00,5.122e+00,5.791e+00,6.770e+00,3.923e+00,5.404e+00,5.118e+00,3.741e+00,5.989e+00,6.823e+00,6.403e+00,7.630e+00,7.621e+00,7.905e+00,8.732e+00,8.700e+00,6.089e+00,8.096e+00,8.363e+00,7.830e+00,1.144e+01,1.061e+01,1.110e+01,1.099e+01,1.096e+01,1.230e+01,1.233e+01,1.274e+01,1.165e+01,1.256e+01,1.025e+01,1.459e+01,1.308e+01,1.348e+01,1.436e+01,1.244e+01,1.169e+01,1.370e+01,1.095e+01,1.385e+01,1.165e+01,1.259e+01,1.331e+01,1.371e+01,1.262e+01,1.422e+01,1.162e+01,1.425e+01,1.404e+01,1.532e+01,1.330e+01,1.547e+01,1.367e+01,1.462e+01,1.346e+01,1.403e+01,1.345e+01,1.355e+01,1.237e+01,1.192e+01,1.336e+01,1.290e+01,1.230e+01,1.316e+01,1.424e+01,1.319e+01,1.311e+01,1.519e+01,1.561e+01,1.459e+01,1.339e+01,1.253e+01,1.374e+01,1.336e+01,1.363e+01,1.260e+01,1.254e+01,1.355e+01
1.590e-01,8.949e-01,8.560e-01,1.622e+00,1.416e+00,1.488e+00,1.698e+00,1.356e+00,1.708e+00,2.566e+00,2.354e+00,2.994e+00,4.394e+00,3.283e+00,4.988e+00,5.827e+00,6.419e+00,4.263e+00,5.727e+00,5.316e+00,3.889e+00,7.023e+00,6.520e+00,6.783e+00,7.987e+00,6.615e+00,7.626e+00,8.837e+00,8.929e+00,6.564e+00,7.850e+00,7.788e+00,7.119e+00,1.100e+01,9.821e+00,9.770e+00,1.009e+01,9.640e+00,1.108e+01,1.025e+01,1.256e+01,1.075e+01,1.149e+01,9.682e+00,1.345e+01,1.271e+01,1.302e+01,1.366e+01,1.166e+01,1.219e+01,1.366e+01,1.098e+01,1.413e+01,1.265e+01,1.213e+01,1.294e+01,1.061e+01,1.270e+01,1.360e+01,1.146e+01,1.368e+01,1.324e+01,1.333e+01,1.325e+01,1.262e+01,1.303e+01,1.410e+01,1.436e+01,1.409e+01,1.288e+01,1.328e+01,1.201e+01,1.236e+01,1.313e+01,1.121e+01,1.175e+01,1.362e+01,1.293e+01,1.311e+01,1.400e+01,1.408e+01,1.515e+01,1.471e+01,1.318e+01,1.288e+01,1.422e+01,1.268e+01,1.300e+01,1.114e+01,1.346e+01,1.321e+01
2.765e-02,7.482e-01,9.769e-01,7.257e-01,1.221e+00,1.519e+00,1.572e+00,9.909e-01,1.671e+00,2.577e+00,2.138e+00,2.402e+00,3.538e+00,3.327e+00,4.732e+00,5.568e+00,6.452e+00,4.362e+00,6.140e+00,5.382e+00,4.064e+00,6.035e+00,6.820e+00,6.268e+00,7.891e+00,7.022e+00,7.566e+00,8.220e+00,9.653e+00,6.885e+00,8.271e+00,8.037e+00,8.343e+00,1.066e+01,9.450e+00,9.825e+00,1.050e+01,1.025e+01,1.040e+01,1.098e+01,1.122e+01,1.054e+01,1.114e+01,1.050e+01,1.365e+01,1.144e+01,1.235e+01,1.276e+01,1.041e+01,1.138e+01,1.292e+01,9.519e+00,1.229e+01,1.209e+01,1.115e+01,1.257e+01,1.084e+01,1.105e+01,1.307e+01,1.199e+01,1.307e+01,1.216e+01,1.286e+01,1.355e+01,1.343e+01,1.241e+01,1.222e+01,1.471e+01,1.407e+01,1.394e+01,1.247e+01,1.105e+01,1.092e+01,1.280e+01,1.143e+01,1.107e+01,1.146e+01,1.168e+01,1.189e+01,1.385e+01,1.326e+01,1.468e+01,1.399e+01,1.191e+01,1.161e+01,1.282e+01,1.268e+01,1.208e+01,1.216e+01,1.295e+01,1.261e+01
1.425e-01,5.839e-01,3.513e-01,8.530e-01,6.362e-01,1.133e+00,8.947e-01,1.097e+00,1.494e+00,1.746e+00,1.829e+00,2.404e+00,3.887e+00,2.899e+00,4.998e+00,5.941e+00,6.395e+00,3.316e+00,6.072e+00,5.653e+00,4.563e+00,6.746e+00,6.839e+00,6.738e+00,8.165e+00,6.741e+00,7.874e+00,8.324e+00,9.275e+00,7.157e+00,8.738e+00,7.190e+00,7.664e+00,1.252e+01,9.548e+00,9.699e+00,1.106e+01,9.814e+00,1.018e+01,1.134e+01,1.232e+01,1.235e+01,1.297e+01,9.627e+00,1.416e+01,1.257e+01,1.349e+01,1.327e+01,1.282e+01,1.201e+01,1.305e+01,1.239e+01,1.465e+01,1.316e+01,1.327e+01,1.274e+01,1.141e+01,1.293e+01,1.666e+01,1.336e+01,1.513e+01,1.397e+01,1.488e+01,1.224e+01,1.443e+01,1.376e+01,1.486e+01,1.550e+01,1.399e+01,1.371e+01,1.523e+01,1.283e+01,1.369e+01,1.420e+01,1.261e+01,1.300e+01,1.396e+01,1.256e+01,1.343e+01,1.412e+01,1.536e+01,1.506e+01,1.350e+01,1.445e+01,1.253e+01,1.519e+01,1.326e+01,1.380e+01,1.302e+01,1.347e+01,1.421e+01
2.401e-01,9.889e-01,7.330e-01,1.976e+00,1.286e+00,8.250e-01,1.648e+00,1.614e+00,1.679e+00,2.267e+00,2.220e+00,1.864e+00,3.392e+00,2.166e+00,4.092e+00,3.841e+00,5.397e+00,2.684e+00,4.242e+00,4.629e+00,4.203e+00,6.186e+00,5.418e+00,5.225e+00,6.150e+00,5.803e+00,6.544e+00,6.661e+00,7.196e+00,5.372e+00,7.147e+00,6.022e+00,5.945e+00,9.520e+00,7.774e+00,7.733e+00,9.450e+00,7.932e+00,9.423e+00,1.057e+01,1.176e+01,9.863e+00,1.092e+01,9.273e+00,1.224e+01,1.134e+01,1.214e+01,1.143e+01,1.217e+01,1.075e+01,1.209e+01,1.127e+01,1.342e+01,1.102e+01,1.266e+01,1.162e+01,1.125e+01,1.300e+01,1.457e+01,1.138e+01,1.343e+01,1.307e+01,1.341e+01,1.183e+01,1.303e+01,1.202e+01,1.364e+01,1.301e+01,1.338e+01,1.143e+01,1.347e+01,1.228e+01,1.251e+01,1.224e+01,1.342e+01,1.189e+01,1.254e+01,1.258e+01,1.386e+01,1.221e+01,1.476e+01,1.429e+01,1.388e+01,1.242e+01,1.182e+01,1.371e+01,1.237e+01,1.252e+01,1.151e+01,1.171e+01,1.348e+01
5.977e-02,9.279e-01,9.849e-01,1.551e+00,1.495e+00,1.596e+00,1.644e+00,1.328e+00,1.938e+00,2.990e+00,1.956e+00,2.687e+00,5.021e+00,3.840e+00,5.566e+00,6.677e+00,7.664e+00,4.917e+00,6.286e+00,6.024e+00,5.101e+00,6.076e+00,7.045e+00,6.783e+00,8.252e+00,7.405e+00,8.296e+00,8.788e+00,9.708e+00,6.878e+00,9.092e+00,9.021e+00,7.843e+00,1.127e+01,9.439e+00,9.650e+00,1.097e+01,9.906e+00,1.106e+01,1.119e+01,1.224e+01,1.151e+01,1.180e+01,1.086e+01,1.555e+01,1.397e+01,1.450e+01,1.522e+01,1.415e+01,1.181e+01,1.583e+01,1.091e+01,1.660e+01,1.594e+01,1.441e+01,1.564e+01,1.202e+01,1.388e+01,1.704e+01,1.484e+01,1.613e+01,1.511e+01,1.481e+01,1.411e+01,1.573e+01,1.562e+01,1.616e+01,1.801e+01,1.553e+01,1.482e+01,1.530e+01,1.365e+01,1.553e+01,1.503e+01,1.416e+01,1.412e+01,1.328e+01,1.265e+01,1.539e+01,1.650e+01,1.744e+01,1.711e+01,1.719e+01,1.618e+01,1.301e+01,1.600e+01,1.508e+01,1.434e+01,1.367e+01,1.425e+01,1.436e+01
8.858e-02,7.474e-01,6.337e-01,6.458e-01,8.075e-01,1.205e+00,1.260e+00,7.698e-01,1.029e+00,1.928e+00,1.518e+00,2.057e+00,3.350e+00,3.016e+00,4.077e+00,4.970e+00,5.519e+00,3.916e+00,5.250e+00,4.933e+00,2.886e+00,5.715e+00,5.964e+00,5.757e+00,7.924e+00,5.253e+00,6.372e+00,7.066e+00,8.050e+00,6.803e+00,7.350e+00,6.437e+00,7.151e+00,9.941e+00,8.662e+00,8.724e+00,9.980e+00,9.856e+00,9.479e+00,1.045e+01,1.185e+01,1.070e+01,1.138e+01,8.879e+00,1.232e+01,1.144e+01,1.200e+01,1.190e+01,1.061e+01,9.818e+00,1.212e+01,1.004e+01,1.295e+01,1.337e+01,1.336e+01,1.248e+01,1.123e+01,1.279e+01,1.476e+01,1.307e+01,1.445e+01,1.203e+01,1.410e+01,1.204e+01,1.287e+01,1.224e+01,1.271e+01,1.489e+01,1.335e+01,1.261e+01,1.301e+01,1.149e+01,1.241e+01,1.236e+01,1.199e+01,1.193e+01,1.137e+01,1.283e+01,1.422e+01,1.394e+01,1.482e+01,1.471e+01,1.439e+01,1.276e+01,1.274e+01,1.343e+01,1.257e+01,1.297e+01,1.205e+01,1.360e+01,1.353e+01
1.331e-01,1.256e+00,1.198e+00,1.214e+00,1.477e+00,1.421e+00,1.955e+00,9.160e-01,1.405e+00,2.566e+00,2.301e+00,2.851e+00,4.297e+00,3.294e+00,3.966e+00,5.502e+00,6.607e+00,4.188e+00,6.057e+00,5.264e+00,4.335e+00,6.548e+00,6.859e+00,6.258e+00,7.583e+00,6.559e+00,7.275e+00,8.009e+00,8.648e+00,7.106e+00,8.189e+00,7.712e+00,6.550e+00,1.065e+01,8.831e+00,9.469e+00,1.030e+01,9.510e+00,1.077e+01,1.155e+01,1.237e+01,1.053e+01,1.158e+01,1.076e+01,1.434e+01,1.237e+01,1.278e+01,1.250e+01,1.171e+01,1.137e+01,1.382e+01,1.068e+01,1.323e+01,1.331e+01,1.354e+01,1.389e+01,1.304e+01,1.231e+01,1.477e+01,1.290e+01,1.430e+01,1.477e+01,1.501e+01,1.352e+01,1.359e+01,1.246e+01,1.306e+01,1.374e+01,1.445e+01,1.404e+01,1.514e+01,1.279e+01,1.234e+01,1.485e+01,1.221e+01,1.208e+01,1.409e+01,1.440e+01,1.531e+01,1.422e+01,1.452e+01,1.619e+01,1.550e+01,1.366e+01,1.279e+01,1.447e+01,1.456e+01,1.361e+01,1.325e+01,1.305e+01,1.440e+01
2.551e-01,1.480e+00,1.046e+00,1.701e+00,1.327e+00,6.794e-01,2.067e+00,1.103e+00,1.423e+00,2.486e+00,2.070e+00,2.125e+00,3.538e+00,2.891e+00,4.138e+00,4.238e+00,5.748e+00,4.152e+00,5.231e+00,4.774e+00,3.762e+00,5.992e+00,5.773e+00,5.314e+00,7.236e+00,4.607e+00,6.105e+00,6.455e+00,7.330e+00,6.142e+00,6.411e+00,6.046e+00,6.468e+00,8.922e+00,7.699e+00,8.096e+00,7.963e+00,7.330e+00,9.313e+00,1.003e+01,1.074e+01,9.191e+00,1.126e+01,8.097e+00,1.265e+01,1.132e+01,1.180e+01,1.147e+01,1.127e+01,1.156e+01,1.361e+01,1.039e+01,1.437e+01,1.161e+01,1.283e+01,1.371e+01,1.071e+01,1.261e+01,1.348e+01,1.368e+01,1.413e+01,1.411e+01,1.305e+01,1.399e+01,1.059e+01,1.133e+01,1.451e+01,1.564e+01,1.422e+01,1.224e+01,1.407e+01,1.229e+01,1.401e+01,1.359e+01,1.130e+01,1.164e+01,1.334e+01,1.247e+01,1.406e+01,1.354e+01,1.473e+01,1.626e+01,1.471e+01,1.333e+01,1.217e+01,1.450e+01,1.272e+01,1.373e+01,1.208e+01,1.396e+01,1.452e+01
2.032e-01,1.258e+00,9.400e-01,1.814e+00,1.439e+00,1.434e+00,1.667e+00,1.338e+00,1.931e+00,2.574e+00,2.222e+00,2.493e+00,4.634e+00,3.514e+00,5.576e+00,5.738e+00,6.746e+00,4.116e+00,5.728e+00,5.932e+00,4.301e+00,6.331e+00,6.096e+00,6.614e+00,8.373e+00,6.666e+00,7.996e+00,8.900e+00,9.323e+00,7.977e+00,9.078e+00,7.962e+00,7.779e+00,1.076e+01,8.392e+00,8.941e+00,1.089e+01,8.819e+00,1.048e+01,9.901e+00,1.194e+01,1.090e+01,1.058e+01,9.472e+00,1.248e+01,1.169e+01,1.246e+01,1.209e+01,1.197e+01,9.174e+00,1.295e+01,9.596e+00,1.313e+01,1.403e+01,1.300e+01,1.384e+01,1.250e+01,1.551e+01,1.538e+01,1.460e+01,1.459e+01,1.267e+01,1.419e+01,1.344e+01,1.279e+01,1.408e+01,1.366e+01,1.563e+01,1.482e+01,1.387e+01,1.453e+01,1.238e+01,1.341e+01,1.452e+01,1.433e+01,1.366e+01,1.268e+01,1.218e+01,1.497e+01,1.507e+01,1.611e+01,1.530e+01,1.622e+01,1.322e+01,1.326e+01,1.591e+01,1.410e+01,1.338e+01,1.272e+01,1.191e+01,1.405e+01
8.487e-02,1.063e+00,1.264e+00,1.804e+00,1.914e+00,2.084e+00,1.932e+00,1.560e+00,1.643e+00,2.807e+00,1.928e+00,2.401e+00,4.280e+00,3.555e+00,5.237e+00,6.008e+00,6.505e+00,4.336e+00,5.648e+00,5.751e+00,4.087e+00,5.689e+00,5.894e+00,6.228e+00,8.008e+00,6.629e+00,8.178e+00,8.608e+00,9.601e+00,7.117e+00,8.765e+00,8.200e+00,7.533e+00,1.004e+01,8.497e+00,9.125e+00,1.084e+01,8.588e+00,1.103e+01,1.017e+01,1.278e+01,1.197e+01,1.127e+01,1.015e+01,1.275e+01,1.212e+01,1.392e+01,1.318e+01,1.199e+01,1.016e+01,1.348e+01,1.065e+01,1.286e+01,1.390e+01,1.315e+01,1.412e+01,1.307e+01,1.542e+01,1.616e+01,1.481e+01,1.528e+01,1.399e+01,1.398e+01,1.475e+01,1.506e+01,1.503e+01,1.468e+01,1.732e+01,1.625e+01,1.460e+01,1.386e+01,1.351e+01,1.496e+01,1.545e+01,1.476e+01,1.376e+01,1.501e+01,1.440e+01,1.408e+01,1.572e+01,1.713e+01,1.670e+01,1.730e+01,1.479e+01,1.390e+01,1.563e+01,1.463e+01,1.432e+01,1.406e+01,1.450e+01,1.577e+01
5.860e-02,4.527e-01,5.738e-01,1.088e+00,1.069e+00,1.548e+00,1.287e+00,1.152e+00,1.822e+00,2.615e+00,2.306e+00,3.360e+00,4.644e+00,3.230e+00,4.775e+00,5.875e+00,6.265e+00,4.204e+00,6.224e+00,5.029e+00,4.185e+00,6.915e+00,6.044e+00,6.058e+00,7.809e+00,6.672e+00,7.358e+00,8.544e+00,9.016e+00,6.237e+00,8.295e+00,7.284e+00,7.880e+00,1.037e+01,8.437e+00,8.816e+00,1.180e+01,8.998e+00,9.968e+00,9.928e+00,1.229e+01,1.015e+01,1.071e+01,1.028e+01,1.139e+01,1.003e+01,1.291e+01,1.118e+01,1.156e+01,9.814e+00,1.147e+01,9.645e+00,1.251e+01,1.292e+01,1.163e+01,1.198e+01,1.282e+01,1.364e+01,1.643e+01,1.353e+01,1.486e+01,1.359e+01,1.485e+01,1.344e+01,1.432e+01,1.503e+01,1.385e+01,1.504e+01,1.590e+01,1.422e+01,1.556e+01,1.395e+01,1.250e+01,1.513e+01,1.552e+01,1.208e+01,1.343e+01,1.504e+01,1.578e+01,1.549e+01,1.681e+01,1.640e+01,1.576e+01,1.409e+01,1.380e+01,1.521e+01,1.457e+01,1.521e+01,1.342e+01,1.379e+01,1.490e+01
7.387e-02,9.165e-01,1.169e+00,1.019e+00,1.403e+00,8.550e-01,1.318e+00,6.988e-01,1.347e+00,1.446e+00,1.528e+00,1.164e+00,1.712e+00,1.518e+00,3.096e+00,1.952e+00,3.545e+00,2.230e+00,3.010e+00,3.731e+00,2.980e+00,4.604e+00,3.965e+00,4.121e+00,5.779e+00,4.464e+00,5.704e+00,4.937e+00,5.590e+00,4.858e+00,5.744e+00,4.068e+00,4.691e+00,7.472e+00,5.227e+00,6.101e+00,7.147e+00,6.828e+00,7.077e+00,7.477e+00,8.662e+00,7.405e+00,8.030e+00,7.017e+00,1.046e+01,7.237e+00,9.460e+00,9.234e+00,9.026e+00,8.642e+00,1.089e+01,1.002e+01,1.031e+01,1.058e+01,1.164e+01,1.080e+01,1.144e+01,1.205e+01,1.246e+01,1.281e+01,1.304e+01,1.227e+01,1.155e+01,1.255e+01,1.220e+01,1.184e+01,1.266e+01,1.360e+01,1.274e+01,1.131e+01,1.376e+01,1.263e+01,1.311e+01,1.414e+01,1.066e+01,1.270e+01,1.366e+01,1.208e+01,1.213e+01,1.275e+01,1.288e+01,1.445e+01,1.326e+01,1.327e+01,1.200e+01,1.314e+01,1.286e+01,1.276e+01,1.212e+01,1.229e+01,1.194e+01
2.469e-01,1.431e+00,1.279e+00,1.760e+00,1.636e+00,8.650e-01,1.931e+00,1.216e+00,1.446e+00,1.909e+00,2.103e+00,2.540e+00,4.023e+00,3.479e+00,4.394e+00,5.297e+00,5.437e+00,3.622e+00,5.383e+00,4.273e+00,4.042e+00,5.523e+00,6.113e+00,5.217e+00,6.129e+00,6.047e+00,7.233e+00,6.913e+00,8.203e+00,6.839e+00,7.268e+00,7.487e+00,6.343e+00,1.029e+01,8.731e+00,9.436e+00,9.975e+00,8.587e+00,1.102e+01,1.041e+01,1.280e+01,1.081e+01,1.151e+01,1.000e+01,1.420e+01,1.207e+01,1.289e+01,1.272e+01,1.126e+01,1.183e+01,1.408e+01,1.068e+01,1.342e+01,1.299e+01,1.477e+01,1.527e+01,1.291e+01,1.411e+01,1.634e+01,1.478e+01,1.634e+01,1.686e+01,1.491e+01,1.502e+01,1.484e+01,1.447e+01,1.526e+01,1.795e+01,1.485e+01,1.501e+01,1.527e+01,1.483e+01,1.540e+01,1.664e+01,1.561e+01,1.445e+01,1.636e+01,1.492e+01,1.535e+01,1.646e+01,1.804e+01,1.876e+01,1.708e+01,1.728e+01,1.320e+01,1.713e+01,1.526e+01,1.703e+01,1.462e+01,1.540e+01,1.557e+01
1.226e-01,1.049e+00,8.858e-01,1.086e+00,1.082e+00,8.752e-01,1.345e+00,8.517e-01,1.180e+00,1.809e+00,1.134e+00,1.888e+00,2.921e+00,2.176e+00,4.125e+00,4.185e+00,4.938e+00,3.141e+00,3.898e+00,3.768e+00,2.022e+00,3.904e+00,4.779e+00,4.080e+00,6.178e+00,5.171e+00,6.231e+00,6.702e+00,6.509e+00,6.519e+00,6.165e+00,5.735e+00,6.450e+00,8.808e+00,7.348e+00,8.025e+00,9.157e+00,8.812e+00,9.926e+00,9.125e+00,1.156e+01,9.996e+00,9.665e+00,8.042e+00,1.248e+01,1.124e+01,1.149e+01,1.144e+01,1.047e+01,9.549e+00,1.248e+01,1.032e+01,1.315e+01,1.305e+01,1.276e+01,1.380e+01,1.154e+01,1.256e+01,1.405e+01,1.232e+01,1.489e+01,1.412e+01,1.493e+01,1.393e+01,1.402e+01,1.377e+01,1.440e+01,1.750e+01,1.432e+01,1.373e+01,1.663e+01,1.381e+01,1.394e+01,1.543e+01,1.423e+01,1.486e+01,1.405e+01,1.503e+01,1.621e+01,1.427e+01,1.672e+01,1.591e+01,1.539e+01,1.455e+01,1.304e+01,1.547e+01,1.478e+01,1.553e+01,1.314e+01,1.465e+01,1.414e+01
2.457e-02,7.001e-01,7.162e-01,7.347e-01,9.590e-01,1.345e+00,1.398e+00,7.379e-01,8.620e-01,2.265e+00,1.515e+00,1.970e+00,2.823e+00,2.415e+00,3.128e+00,3.834e+00,4.890e+00,3.630e+00,4.210e+00,4.944e+00,3.017e+00,5.180e+00,5.394e+00,5.802e+00,7.159e+00,6.525e+00,6.555e+00,7.857e+00,8.593e+00,6.756e+00,8.157e+00,7.533e+00,7.786e+00,1.059e+01,9.257e+00,1.019e+01,1.045e+01,1.003e+01,1.146e+01,1.093e+01,1.200e+01,1.248e+01,1.144e+01,9.732e+00,1.313e+01,1.207e+01,1.324e+01,1.289e+01,1.225e+01,1.063e+01,1.327e+01,1.050e+01,1.419e+01,1.338e+01,1.343e+01,1.308e+01,1.327e+01,1.495e+01,1.680e+01,1.470e+01,1.708e+01,1.618e+01,1.749e+01,1.629e+01,1.720e+01,1.760e+01,1.583e+01,1.910e+01,1.689e+01,1.622e+01,1.777e+01,1.581e+01,1.616e+01,1.787e+01,1.719e+01,1.757e+01,1.564e+01,1.768e+01,1.918e+01,1.724e+01,1.884e+01,1.868e+01,1.912e+01,1.561e+01,1.522e+01,1.874e+01,1.696e+01,1.785e+01,1.744e+01,1.668e+01,1.722e+01
7.074e-02,4.383e-01,5.716e-01,1.382e+00,1.112e+00,1.209e+00,1.445e+00,1.511e+00,2.263e+00,3.037e+00,2.532e+00,2.699e+00,3.806e+00,2.842e+00,5.775e+00,5.308e+00,6.577e+00,3.896e+00,5.556e+00,5.039e+00,4.143e+00,6.428e+00,6.138e+00,6.507e+00,7.698e+00,7.293e+00,8.277e+00,8.854e+00,9.237e+00,7.424e+00,9.102e+00,8.808e+00,8.834e+00,1.293e+01,1.069e+01,1.083e+01,1.210e+01,1.014e+01,1.228e+01,1.124e+01,1.327e+01,1.365e+01,1.308e+01,1.102e+01,1.545e+01,1.386e+01,1.417e+01,1.438e+01,1.366e+01,1.211e+01,1.475e+01,1.193e+01,1.471e+01,1.420e+01,1.419e+01,1.459e+01,1.464e+01,1.551e+01,1.811e+01,1.485e+01,1.747e+01,1.637e+01,1.665e+01,1.724e+01,1.770e+01,1.714e+01,1.779e+01,2.078e+01,1.867e+01,1.712e+01,1.927e+01,1.634e+01,1.715e+01,1.952e+01,1.690e+01,1.789e+01,1.705e+01,1.645e+01,1.866e+01,1.840e+01,1.991e+01,1.921e+01,1.851e+01,1.837e+01,1.611e+01,1.997e+01,1.788e+01,1.869e+01,1.654e+01,1.912e+01,1.937e+01
1.591e-01,1.168e+00,1.157e+00,1.644e+00,1.548e+00,8.266e-01,1.885e+00,1.050e+00,1.348e+00,2.258e+00,2.061e+00,2.307e+00,3.063e+00,2.724e+00,4.336e+00,3.898e+00,5.268e+00,3.963e+00,4.411e+00,4.719e+00,3.300e+00,5.718e+00,5.377e+00,5.233e+00,6.698e+00,5.801e+00,6.919e+00,6.846e+00,6.922e+00,6.052e+00,6.446e+00,6.084e+00,5.938e+00,9.257e+00,8.059e+00,8.776e+00,9.075e+00,9.636e+00,1.094e+01,1.084e+01,1.260e+01,1.163e+01,1.089e+01,9.227e+00,1.318e+01,1.138e+01,1.214e+01,1.227e+01,1.138e+01,1.116e+01,1.422e+01,1.057e+01,1.458e+01,1.252e+01,1.450e+01,1.456e+01,1.329e+01,1.493e+01,1.497e+01,1.405e+01,1.519e+01,1.545e+01,1.565e+01,1.604e+01,1.497e+01,1.526e+01,1.585e+01,1.872e+01,1.585e+01,1.514e+01,1.777e+01,1.558e+01,1.651e+01,1.781e+01,1.553e+01,1.779e+01,1.729e+01,1.779e+01,1.670e+01,1.781e+01,1.801e+01,1.837e+01,1.784e+01,1.595e+01,1.598e+01,1.838e+01,1.550e+01,1.753e+01,1.595e+01,1.659e+01,1.628e+01
4.847e-02,5.148e-01,5.311e-01,1.230e+00,1.020e+00,1.223e+00,1.071e+00,8.815e-01,7.774e-01,1.817e+00,1.222e+00,2.277e+00,4.022e+00,3.051e+00,3.922e+00,5.369e+00,5.978e+00,3.924e+00,4.932e+00,4.991e+00,4.457e+00,6.416e+00,6.868e+00,6.775e+00,8.431e+00,7.297e+00,8.042e+00,7.772e+00,9.843e+00,7.333e+00,8.916e+00,8.846e+00,7.655e+00,1.261e+01,1.068e+01,1.103e+01,1.221e+01,1.139e+01,1.289e+01,1.270e+01,1.414e+01,1.214e+01,1.281e+01,1.083e+01,1.518e+01,1.239e+01,1.402e+01,1.368e+01,1.354e+01,1.159e+01,1.398e+01,1.147e+01,1.611e+01,1.345e+01,1.468e+01,1.533e+01,1.330e+01,1.648e+01,1.867e+01,1.642e+01,1.708e+01,1.704e+01,1.761e+01,1.658e+01,1.715e+01,1.707e+01,1.892e+01,2.042e+01,1.843e+01,1.691e+01,1.927e+01,1.882e+01,1.806e+01,1.907e+01,1.760e+01,1.884e+01,2.064e+01,1.862e+01,1.937e+01,1.940e+01,2.059e+01,2.023e+01,1.998e+01,1.905e+01,1.650e+01,2.124e+01,1.901e+01,1.954e+01,1.702e+01,1.807e+01,1.772e+01
3.563e-02,5.101e-01,8.004e-01,7.862e-01,1.133e+00,1.365e+00,1.225e+00,9.807e-01,1.176e+00,1.774e+00,1.551e+00,2.028e+00,3.129e+00,2.969e+00,3.603e+00,4.815e+00,5.032e+00,3.765e+00,4.573e+00,4.389e+00,3.380e+00,5.006e+00,5.848e+00,5.935e+00,7.048e+00,7.376e+00,7.722e+00,8.108e+00,9.897e+00,6.809e+00,8.699e+00,8.314e+00,7.356e+00,9.927e+00,9.700e+00,1.017e+01,1.145e+01,9.358e+00,1.099e+01,1.097e+01,1.258e+01,1.069e+01,1.066e+01,9.350e+00,1.331e+01,1.097e+01,1.240e+01,1.236e+01,1.163e+01,1.036e+01,1.377e+01,1.014e+01,1.341e+01,1.366e+01,1.320e+01,1.516e+01,1.369e+01,1.515e+01,1.762e+01,1.539e+01,1.678e+01,1.533e+01,1.594e+01,1.596e+01,1.674e+01,1.645e+01,1.741e+01,2.095e+01,1.708e+01,1.582e+01,1.701e+01,1.823e+01,1.728e+01,1.940e+01,1.594e+01,1.758e+01,1.840e+01,1.713e+01,1.777e+01,1.730e+01,1.902e+01,2.039e+01,2.164e+01,1.777e+01,1.486e+01,2.043e+01,1.883e+01,1.757e+01,1.735e+01,1.744e+01,1.810e+01
5.703e-02,7.773e-01,8.989e-01,1.367e+00,1.389e+00,1.664e+00,1.885e+00,1.486e+00,1.508e+00,3.122e+00,1.979e+00,2.308e+00,3.488e+00,2.778e+00,4.252e+00,4.674e+00,5.498e+00,3.582e+00,4.471e+00,4.289e+00,2.245e+00,4.492e+00,4.993e+00,5.093e+00,6.424e+00,5.954e+00,5.900e+00,6.824e+00,7.233e+00,5.295e+00,5.857e+00,6.593e+00,6.287e+00,8.770e+00,8.284e+00,7.896e+00,8.565e+00,9.024e+00,8.714e+00,8.910e+00,1.156e+01,9.895e+00,9.138e+00,8.179e+00,1.032e+01,9.467e+00,1.011e+01,1.088e+01,9.223e+00,8.376e+00,1.157e+01,9.162e+00,1.063e+01,1.137e+01,1.181e+01,1.185e+01,1.134e+01,1.159e+01,1.379e+01,1.277e+01,1.441e+01,1.248e+01,1.380e+01,1.344e+01,1.380e+01,1.355e+01,1.315e+01,1.778e+01,1.427e+01,1.372e+01,1.350e+01,1.543e+01,1.474e+01,1.443e+01,1.333e+01,1.381e+01,1.488e+01,1.532e+01,1.511e+01,1.485e+01,1.536e+01,1.571e+01,1.523e+01,1.487e+01,1.293e+01,1.447e+01,1.421e+01,1.515e+01,1.401e+01,1.606e+01,1.466e+01
2.198e-04,6.113e-01,8.095e-01,6.959e-01,1.005e+00,8.368e-01,1.279e+00,5.020e-01,8.847e-01,1.923e+00,1.196e+00,2.217e+00,2.697e+00,2.271e+00,3.171e+00,4.040e+00,4.564e+00,3.682e+00,4.352e+00,3.787e+00,3.131e+00,4.778e+00,5.165e+00,4.589e+00,6.825e+00,5.087e+00,6.826e+00,6.348e+00,7.529e+00,6.573e+00,6.543e+00,6.241e+00,5.839e+00,8.140e+00,8.178e+00,8.071e+00,8.175e+00,7.939e+00,9.409e+00,8.691e+00,1.015e+01,9.850e+00,1.003e+01,7.569e+00,1.245e+01,1.064e+01,1.182e+01,1.156e+01,1.021e+01,1.022e+01,1.358e+01,1.043e+01,1.498e+01,1.289e+01,1.452e+01,1.549e+01,1.258e+01,1.395e+01,1.488e+01,1.443e+01,1.685e+01,1.574e+01,1.701e+01,1.572e+01,1.574e+01,1.510e+01,1.784e+01,2.144e+01,1.747e+01,1.778e+01,1.848e+01,1.843e+01,1.811e+01,2.044e+01,1.548e+01,1.897e+01,1.772e+01,1.718e+01,1.996e+01,1.805e+01,1.922e+01,2.040e+01,2.108e+01,1.821e+01,1.545e+01,1.924e+01,1.792e+01,2.036e+01,1.670e+01,1.720e+01,1.845e+01
5.977e-02,9.627e-01,9.801e-01,8.090e-01,1.176e+00,1.410e+00,1.625e+00,8.283e-01,8.869e-01,2.187e+00,1.339e+00,1.748e+00,2.714e+00,2.458e+00,3.476e+00,4.235e+00,5.145e+00,3.713e+00,4.872e+00,4.961e+00,3.257e+00,5.272e+00,5.861e+00,5.789e+00,8.228e+00,5.730e+00,7.147e+00,7.644e+00,8.639e+00,7.273e+00,7.727e+00,7.008e+00,7.236e+00,9.370e+00,8.927e+00,9.724e+00,1.030e+01,9.323e+00,1.024e+01,1.104e+01,1.200e+01,1.044e+01,1.149e+01,9.217e+00,1.366e+01,1.199e+01,1.318e+01,1.299e+01,1.139e+01,1.035e+01,1.435e+01,1.225e+01,1.534e+01,1.369e+01,1.461e+01,1.520e+01,1.330e+01,1.573e+01,1.631e+01,1.614e+01,1.818e+01,1.652e+01,1.761e+01,1.816e+01,1.723e+01,1.541e+01,1.893e+01,2.331e+01,1.993e+01,1.846e+01,1.976e+01,2.021e+01,1.870e+01,2.100e+01,1.843e+01,1.893e+01,1.889e+01,1.981e+01,2.130e+01,1.947e+01,2.051e+01,2.182e+01,2.149e+01,2.007e+01,1.715e+01,1.995e+01,1.873e+01,1.977e+01,1.770e+01,2.031e+01,2.058e+01
1.110e-01,6.544e-01,7.739e-01,1.005e+00,1.081e+00,8.181e-01,1.152e+00,8.432e-01,1.512e+00,1.557e+00,2.047e+00,1.677e+00,2.805e+00,2.881e+00,3.735e+00,3.816e+00,4.452e+00,3.510e+00,4.921e+00,4.879e+00,4.519e+00,5.625e+00,5.236e+00,5.724e+00,6.838e+00,6.061e+00,7.162e+00,6.750e+00,8.868e+00,6.399e+00,8.232e+00,6.556e+00,6.967e+00,8.669e+00,7.469e+00,8.514e+00,1.008e+01,9.004e+00,1.031e+01,9.940e+00,1.120e+01,1.007e+01,9.806e+00,9.758e+00,1.366e+01,1.110e+01,1.252e+01,1.159e+01,1.123e+01,1.010e+01,1.352e+01,1.023e+01,1.300e+01,1.376e+01,1.261e+01,1.252e+01,1.213e+01,1.370e+01,1.511e+01,1.433e+01,1.461e+01,1.457e+01,1.494e+01,1.492e+01,1.528e+01,1.494e+01,1.444e+01,1.973e+01,1.769e+01,1.670e+01,1.825e+01,1.717e+01,1.687e+01,1.969e+01,1.488e+01,1.730e+01,1.735e+01,1.725e+01,1.890e+01,1.753e+01,1.819e+01,2.090e+01,1.975e+01,1.860e+01,1.658e+01,1.914e+01,1.810e+01,1.793e+01,1.692e+01,1.808e+01,1.637e+01
1.267e-01,6.541e-01,7.031e-01,9.719e-01,9.766e-01,6.479e-01,9.930e-01,7.332e-01,1.015e+00,1.019e+00,1.301e+00,1.515e+00,2.413e+00,2.185e+00,3.237e+00,3.621e+00,4.350e+00,3.012e+00,3.589e+00,3.628e+00,3.274e+00,4.369e+00,4.722e+00,4.390e+00,5.961e+00,5.251e+00,6.615e+00,5.711e+00,7.617e+00,6.212e+00,7.138e+00,5.940e+00,6.830e+00,9.353e+00,8.162e+00,8.962e+00,9.975e+00,9.315e+00,1.074e+01,1.020e+01,1.193e+01,1.080e+01,1.056e+01,8.968e+00,1.423e+01,1.173e+01,1.337e+01,1.158e+01,1.228e+01,1.185e+01,1.395e+01,1.154e+01,1.478e+01,1.346e+01,1.310e+01,1.397e+01,1.201e+01,1.487e+01,1.702e+01,1.491e+01,1.682e+01,1.594e+01,1.479e+01,1.568e+01,1.605e+01,1.461e+01,1.698e+01,1.980e+01,1.567e+01,1.554e+01,1.803e+01,1.737e+01,1.829e+01,1.909e+01,1.698e+01,1.846e+01,1.917e+01,1.742e+01,1.932e+01,1.877e+01,2.046e+01,2.136e+01,2.206e+01,1.936e+01,1.524e+01,2.005e+01,1.952e+01,2.001e+01,1.619e+01,1.818e+01,1.777e+01
7.072e-02,6.826e-01,9.205e-01,1.685e+00,1.626e+00,1.840e+00,1.470e+00,1.367e+00,1.482e+00,2.268e+00,1.713e+00,2.094e+00,3.449e+00,2.674e+00,5.006e+00,5.048e+00,6.396e+00,3.835e+00,4.761e+00,5.286e+00,4.562e+00,5.805e+00,5.785e+00,5.502e+00,7.716e+00,5.884e+00,7.915e+00,7.382e+00,8.907e+00,6.439e+00,8.209e+00,7.582e+00,8.411e+00,1.010e+01,9.381e+00,9.988e+00,1.042e+01,9.917e+00,1.255e+01,1.099e+01,1.269e+01,1.193e+01,1.166e+01,1.118e+01,1.455e+01,1.262e+01,1.495e+01,1.454e+01,1.281e+01,1.071e+01,1.558e+01,1.279e+01,1.745e+01,1.507e+01,1.465e+01,1.596e+01,1.457e+01,1.498e+01,1.782e+01,1.504e+01,1.766e+01,1.655e+01,1.637e+01,1.594e+01,1.709e+01,1.623e+01,1.917e+01,2.092e+01,1.864e+01,1.793e+01,2.065e+01,1.758e+01,1.922e+01,2.089e+01,1.866e+01,1.884e+01,1.901e+01,1.799e+01,2.112e+01,1.901e+01,2.152e+01,2.235e+01,2.197e+01,1.914e+01,1.840e+01,2.094e+01,1.983e+01,2.134e+01,1.698e+01,1.828e+01,2.021e+01
1.630e-02,3.360e-01,3.439e-01,7.663e-01,6.348e-01,7.670e-01,7.714e-01,6.119e-01,9.487e-01,1.694e+00,1.368e+00,2.336e+00,3.846e+00,2.734e+00,3.057e+00,4.228e+00,4.440e+00,3.143e+00,4.894e+00,3.966e+00,3.970e+00,6.070e+00,5.808e+00,5.395e+00,6.150e+00,6.077e+00,6.191e+00,6.721e+00,7.762e+00,5.469e+00,7.431e+00,7.542e+00,6.422e+00,9.296e+00,8.046e+00,8.664e+00,1.046e+01,8.374e+00,1.034e+01,1.141e+01,1.214e+01,9.821e+00,1.067e+01,1.004e+01,1.288e+01,1.098e+01,1.329e+01,1.226e+01,1.181e+01,1.057e+01,1.283e+01,8.835e+00,1.424e+01,1.177e+01,1.289e+01,1.299e+01,1.208e+01,1.243e+01,1.613e+01,1.360e+01,1.441e+01,1.497e+01,1.385e+01,1.543e+01,1.413e+01,1.446e+01,1.499e+01,1.894e+01,1.675e+01,1.545e+01,1.728e+01,1.713e+01,1.644e+01,1.922e+01,1.675e+01,1.599e+01,1.815e+01,1.789e+01,1.756e+01,1.756e+01,1.908e+01,2.046e+01,1.851e+01,1.778e+01,1.588e+01,1.796e+01,1.670e+01,1.776e+01,1.652e+01,1.792e+01,1.902e+01
6.969e-02,2.900e-01,4.812e-01,1.178e+00,9.977e-01,1.027e+00,1.022e+00,1.064e+00,1.652e+00,1.987e+00,2.155e+00,2.768e+00,4.204e+00,3.515e+00,4.875e+00,5.802e+00,6.207e+00,4.343e+00,5.895e+00,5.138e+00,4.972e+00,7.028e+00,6.695e+00,6.130e+00,7.405e+00,6.613e+00,8.124e+00,7.665e+00,9.852e+00,7.307e+00,9.412e+00,8.638e+00,8.051e+00,1.128e+01,1.057e+01,9.936e+00,1.150e+01,9.969e+00,1.171e+01,1.067e+01,1.335e+01,1.177e+01,1.147e+01,1.071e+01,1.343e+01,1.189e+01,1.369e+01,1.289e+01,1.201e+01,1.171e+01,1.366e+01,1.098e+01,1.426e+01,1.447e+01,1.435e+01,1.492e+01,1.331e+01,1.552e+01,1.795e+01,1.552e+01,1.673e+01,1.674e+01,1.619e+01,1.514e+01,1.591e+01,1.637e+01,1.680e+01,2.165e+01,1.810e+01,1.826e+01,1.841e+01,2.010e+01,1.960e+01,2.053e+01,1.803e+01,2.006e+01,2.149e+01,2.006e+01,2.107e+01,1.967e+01,2.244e+01,2.400e+01,2.335e+01,2.044e+01,1.867e+01,2.296e+01,2.085e+01,2.186e+01,1.846e+01,2.046e+01,2.023e+01
1.383e-01,1.281e+00,1.460e+00,2.083e+00,2.094e+00,1.644e+00,2.067e+00,1.544e+00,1.961e+00,2.719e+00,2.091e+00,2.317e+00,3.884e+00,3.201e+00,5.393e+00,4.966e+00,5.819e+00,3.737e+00,4.395e+00,4.754e+00,3.452e+00,5.045e+00,5.177e+00,5.350e+00,6.691e+00,6.677e+00,8.077e+00,8.069e+00,7.700e+00,6.276e+00,8.050e+00,7.530e+00,6.604e+00,9.464e+00,8.715e+00,8.175e+00,9.051e+00,8.989e+00,1.173e+01,1.027e+01,1.196e+01,1.140e+01,1.101e+01,9.589e+00,1.279e+01,1.216e+01,1.314e+01,1.229e+01,1.119e+01,1.043e+01,1.246e+01,9.718e+00,1.334e+01,1.218e+01,1.262e+01,1.363e+01,1.265e+01,1.411e+01,1.509e+01,1.278e+01,1.485e+01,1.464e+01,1.415e+01,1.561e+01,1.497e+01,1.458e+01,1.605e+01,1.874e+01,1.640e+01,1.549e+01,1.734e+01,1.662e+01,1.741e+01,1.819e+01,1.665e+01,1.745e+01,1.921e+01,1.737e+01,1.876e+01,1.787e+01,2.018e+01,1.928e+01,2.085e+01,1.755e+01,1.623e+01,1.897e+01,1.820e+01,1.842e+01,1.698e+01,1.617e+01,1.885e+01
1.272e-01,8.078e-01,8.523e-01,1.434e+00,1.314e+00,1.238e+00,1.534e+00,1.356e+00,1.147e+00,1.991e+00,1.635e+00,1.825e+00,3.386e+00,2.973e+00,3.896e+00,4.824e+00,4.677e+00,3.203e+00,4.765e+00,4.662e+00,3.649e+00,5.553e+00,5.608e+00,5.151e+00,6.921e+00,6.293e+00,7.590e+00,7.406e+00,8.466e+00,6.197e+00,7.289e+00,6.426e+00,6.011e+00,8.772e+00,8.908e+00,8.551e+00,9.579e+00,8.007e+00,1.019e+01,9.951e+00,1.191e+01,1.073e+01,1.056e+01,9.428e+00,1.354e+01,1.184e+01,1.331e+01,1.261e+01,1.214e+01,1.051e+01,1.371e+01,1.206e+01,1.385e+01,1.331e+01,1.286e+01,1.452e+01,1.358e+01,1.455e+01,1.574e+01,1.409e+01,1.680e+01,1.613e+01,1.691e+01,1.673e+01,1.573e+01,1.506e+01,1.742e+01,2.103e+01,1.873e+01,1.829e+01,1.978e+01,2.034e+01,1.902e+01,2.124e+01,1.736e+01,1.982e+01,2.050e+01,2.093e+01,2.166e+01,1.954e+01,2.062e+01,2.413e+01,2.201e+01,2.136e+01,1.929e+01,2.257e+01,2.054e+01,2.104e+01,1.969e+01,2.030e+01,2.223e+01
1.772e-01,8.827e-01,7.744e-01,1.059e+00,1.022e+00,9.006e-01,1.492e+00,1.135e+00,1.786e+00,2.118e+00,2.433e+00,2.221e+00,3.618e+00,3.125e+00,4.123e+00,4.425e+00,5.384e+00,3.772e+00,5.127e+00,4.980e+00,3.824e+00,5.967e+00,5.953e+00,5.750e+00,6.430e+00,6.083e+00,6.150e+00,7.174e+00,7.778e+00,6.363e+00,7.752e+00,6.966e+00,7.158e+00,9.559e+00,8.790e+00,8.967e+00,1.020e+01,8.802e+00,1.069e+01,1.029e+01,1.182e+01,1.045e+01,1.055e+01,9.961e+00,1.313e+01,1.203e+01,1.270e+01,1.274e+01,1.297e+01,1.139e+01,1.416e+01,1.047e+01,1.341e+01,1.381e+01,1.274e+01,1.423e+01,1.312e+01,1.417e+01,1.690e+01,1.432e+01,1.498e+01,1.627e+01,1.501e+01,1.516e+01,1.413e+01,1.495e+01,1.525e+01,1.969e+01,1.711e+01,1.715e+01,1.645e+01,1.727e+01,1.652e+01,1.882e+01,1.566e+01,1.673e+01,1.907e+01,1.994e+01,2.109e+01,1.861e+01,2.013e+01,2.345e+01,2.153e+01,1.996e+01,1.777e+01,2.134e+01,1.910e+01,1.896e+01,1.924e+01,2.037e+01,1.921e+01
2.233e-01,1.455e+00,1.175e+00,1.491e+00,1.442e+00,9.800e-01,1.962e+00,9.066e-01,9.955e-01,2.029e+00,1.965e+00,2.782e+00,4.276e+00,3.781e+00,3.869e+00,5.277e+00,5.317e+00,4.217e+00,5.234e+00,4.772e+00,3.372e+00,5.526e+00,5.606e+00,5.440e+00,6.828e+00,6.020e+00,6.985e+00,7.309e+00,7.509e+00,6.440e+00,6.748e+00,5.837e+00,5.516e+00,1.021e+01,7.855e+00,8.480e+00,9.026e+00,8.186e+00,9.050e+00,9.295e+00,1.064e+01,1.041e+01,1.048e+01,7.743e+00,1.201e+01,1.028e+01,1.119e+01,1.048e+01,1.033e+01,1.020e+01,1.169e+01,9.380e+00,1.241e+01,1.063e+01,1.117e+01,1.112e+01,9.791e+00,1.354e+01,1.370e+01,1.252e+01,1.355e+01,1.258e+01,1.393e+01,1.521e+01,1.344e+01,1.427e+01,1.531e+01,1.848e+01,1.631e+01,1.628e+01,1.633e+01,1.715e+01,1.692e+01,1.862e+01,1.551e+01,1.666e+01,1.868e+01,1.844e+01,1.974e+01,1.931e+01,1.855e+01,2.204e+01,2.052e+01,1.967e+01,1.668e+01,2.016e+01,1.840e+01,1.974e+01,1.645e+01,1.923e+01,1.807e+01
1.440e-02,9.302e-02,2.649e-01,4.685e-01,5.841e-01,1.192e+00,6.759e-01,7.714e-01,1.256e+00,1.643e+00,1.826e+00,2.497e+00,3.625e+00,2.916e+00,3.900e+00,5.546e+00,5.672e+00,3.730e+00,5.809e+00,4.810e+00,4.274e+00,6.134e+00,6.210e+00,6.312e+00,7.039e+00,7.038e+00,7.283e+00,8.009e+00,9.157e+00,6.618e+00,8.715e+00,7.319e+00,7.914e+00,1.058e+01,8.765e+00,9.421e+00,1.170e+01,9.683e+00,1.044e+01,1.128e+01,1.156e+01,1.126e+01,1.065e+01,1.038e+01,1.266e+01,1.193e+01,1.347e+01,1.303e+01,1.225e+01,1.084e+01,1.309e+01,1.051e+01,1.487e+01,1.477e+01,1.307e+01,1.411e+01,1.318e+01,1.469e+01,1.744e+01,1.565e+01,1.645e+01,1.717e+01,1.784e+01,1.693e+01,1.683e+01,1.674e+01,1.720e+01,2.007e+01,1.893e+01,1.834e+01,1.842e+01,1.902e+01,1.796e+01,2.050e+01,1.836e+01,1.851e+01,1.980e+01,2.121e+01,2.248e+01,2.002e+01,2.227e+01,2.356e+01,2.499e+01,2.122e+01,1.771e+01,2.354e+01,2.159e+01,2.232e+01,2.074e+01,2.087e+01,2.050e+01
2.284e-01,1.032e+00,6.284e-01,1.011e+00,7.979e-01,7.665e-01,1.257e+00,8.870e-01,1.254e+00,1.545e+00,2.014e+00,2.547e+00,3.658e+00,2.942e+00,4.537e+00,5.050e+00,5.914e+00,3.320e+00,5.522e+00,4.718e+00,3.682e+00,6.016e+00,6.197e+00,5.469e+00,6.910e+00,6.178e+00,6.890e+00,7.437e+00,7.780e+00,6.571e+00,6.993e+00,5.903e+00,7.675e+00,1.050e+01,7.947e+00,8.985e+00,1.045e+01,9.646e+00,9.745e+00,1.058e+01,1.211e+01,1.116e+01,1.082e+01,1.004e+01,1.319e+01,1.167e+01,1.206e+01,1.209e+01,1.135e+01,1.091e+01,1.158e+01,1.022e+01,1.274e+01,1.276e+01,1.297e+01,1.236e+01,1.198e+01,1.352e+01,1.584e+01,1.361e+01,1.504e+01,1.375e+01,1.534e+01,1.491e+01,1.448e+01,1.409e+01,1.649e+01,2.041e+01,1.713e+01,1.708e+01,1.794e+01,1.660e+01,1.602e+01,1.961e+01,1.729e+01,1.734e+01,1.999e+01,2.001e+01,2.124e+01,1.933e+01,2.193e+01,2.482e+01,2.077e+01,2.180e+01,1.900e+01,2.205e+01,1.972e+01,2.188e+01,1.873e+01,2.124e+01,1.927e+01
1.219e-01,1.010e+00,8.419e-01,1.322e+00,1.171e+00,9.494e-01,1.638e+00,8.175e-01,9.783e-01,2.288e+00,1.590e+00,2.971e+00,3.961e+00,2.599e+00,3.662e+00,4.748e+00,5.587e+00,3.749e+00,4.852e+00,4.120e+00,3.578e+00,5.643e+00,5.510e+00,4.631e+00,7.101e+00,5.721e+00,6.809e+00,7.087e+00,6.955e+00,5.434e+00,6.032e+00,5.826e+00,5.577e+00,8.752e+00,7.326e+00,7.341e+00,9.232e+00,8.299e+00,8.983e+00,9.177e+00,1.090e+01,9.361e+00,1.002e+01,8.434e+00,1.272e+01,1.011e+01,1.188e+01,1.049e+01,1.102e+01,1.001e+01,1.247e+01,9.680e+00,1.312e+01,1.221e+01,1.300e+01,1.317e+01,1.189e+01,1.314e+01,1.500e+01,1.363e+01,1.551e+01,1.452e+01,1.559e+01,1.446e+01,1.481e+01,1.387e+01,1.724e+01,1.908e+01,1.741e+01,1.608e+01,1.725e+01,1.692e+01,1.707e+01,1.967e+01,1.633e+01,1.774e+01,1.968e+01,1.862e+01,2.121e+01,1.855e+01,2.067e+01,2.273e+01,2.326e+01,2.061e+01,1.811e+01,2.165e+01,2.065e+01,2.240e+01,1.906e+01,1.833e+01,2.024e+01
2.384e-01,1.127e+00,9.739e-01,1.566e+00,1.450e+00,1.484e+00,1.560e+00,1.289e+00,1.737e+00,1.866e+00,2.551e+00,2.474e+00,3.859e+00,2.668e+00,4.580e+00,4.447e+00,5.710e+00,2.870e+00,4.806e+00,5.348e+00,3.915e+00,6.494e+00,5.571e+00,5.446e+00,6.334e+00,5.458e+00,6.141e+00,7.112e+00,6.684e+00,5.419e+00,7.215e+00,5.719e+00,5.731e+00,9.280e+00,7.114e+00,7.523e+00,8.647e+00,8.544e+00,9.538e+00,8.238e+00,1.075e+01,1.040e+01,9.526e+00,8.739e+00,1.080e+01,1.116e+01,1.208e+01,1.087e+01,1.064e+01,1.058e+01,1.205e+01,1.049e+01,1.214e+01,1.298e+01,1.258e+01,1.256e+01,1.199e+01,1.282e+01,1.478e+01,1.262e+01,1.473e+01,1.372e+01,1.495e+01,1.285e+01,1.393e+01,1.363e+01,1.577e+01,1.743e+01,1.512e+01,1.665e+01,1.594e+01,1.595e+01,1.647e+01,1.863e+01,1.568e+01,1.626e+01,1.897e+01,1.809e+01,1.957e+01,1.748e+01,1.925e+01,2.268e+01,2.265e+01,1.944e+01,1.816e+01,2.077e+01,1.892e+01,2.066e+01,1.887e+01,1.908e+01,1.943e+01
1.659e-01,1.102e+00,9.343e-01,1.492e+00,1.382e+00,1.443e+00,1.618e+00,1.004e+00,1.124e+00,2.009e+00,1.837e+00,2.100e+00,3.623e+00,3.295e+00,4.556e+00,5.020e+00,5.839e+00,4.021e+00,5.291e+00,5.302e+00,4.082e+00,6.210e+00,6.138e+00,6.813e+00,8.886e+00,7.108e+00,8.644e+00,8.933e+00,1.026e+01,7.973e+00,9.301e+00,8.312e+00,8.218e+00,1.100e+01,9.761e+00,1.084e+01,1.114e+01,9.421e+00,1.229e+01,1.119e+01,1.252e+01,1.171e+01,1.183e+01,1.061e+01,1.411e+01,1.285e+01,1.413e+01,1.295e+01,1.227e+01,1.105e+01,1.448e+01,1.207e+01,1.518e+01,1.456e+01,1.332e+01,1.479e+01,1.394e+01,1.533e+01,1.631e+01,1.404e+01,1.640e+01,1.594e+01,1.636e+01,1.586e+01,1.559e+01,1.591e+01,1.789e+01,1.989e+01,1.859e+01,1.701e+01,1.898e+01,1.765e+01,1.772e+01,2.140e+01,1.840e+01,1.845e+01,2.054e+01,2.051e+01,2.234e+01,2.074e+01,2.164e+01,2.349e+01,2.584e+01,2.242e+01,2.142e+01,2.628e+01,2.298e+01,2.237e+01,2.027e+01,2.000e+01,2.277e+01
2.597e-02,5.209e-01,6.505e-01,1.180e+00,1.118e+00,1.358e+00,1.292e+00,1.135e+00,1.416e+00,2.448e+00,1.711e+00,2.048e+00,3.499e+00,2.755e+00,4.337e+00,4.094e+00,5.286e+00,3.468e+00,4.398e+00,4.571e+00,3.504e+00,5.250e+00,5.524e+00,5.455e+00,6.776e+00,6.507e+00,6.743e+00,7.242e+00,8.093e+00,5.805e+00,7.814e+00,7.836e+00,7.151e+00,9.986e+00,8.848e+00,9.557e+00,1.017e+01,9.374e+00,1.138e+01,1.012e+01,1.229e+01,1.204e+01,1.127e+01,9.778e+00,1.365e+01,1.158e+01,1.357e+01,1.348e+01,1.226e+01,1.021e+01,1.408e+01,1.078e+01,1.517e+01,1.358e+01,1.496e+01,1.530e+01,1.403e+01,1.549e+01,1.733e+01,1.607e+01,1.775e+01,1.592e+01,1.620e+01,1.637e+01,1.675e+01,1.692e+01,1.736e+01,2.196e+01,1.818e+01,1.705e+01,1.830e+01,1.892e+01,2.008e+01,2.094e+01,1.903e+01,2.087e+01,2.060e+01,2.016e+01,2.314e+01,2.076e+01,2.332e+01,2.584e+01,2.436e+01,2.282e+01,2.168e+01,2.486e+01,2.243e+01,2.339e+01,2.082e+01,2.248e+01,2.270e+01
1.018e-02,3.484e-01,5.067e-01,1.060e+00,9.765e-01,1.180e+00,1.037e+00,8.360e-01,1.019e+00,1.939e+00,1.305e+00,1.580e+00,2.833e+00,2.270e+00,3.019e+00,3.701e+00,4.559e+00,3.435e+00,4.024e+00,4.091e+00,3.595e+00,5.037e+00,4.960e+00,5.582e+00,6.817e+00,4.993e+00,6.004e+00,6.060e+00,8.409e+00,5.834e+00,7.285e+00,7.689e+00,6.543e+00,9.092e+00,8.663e+00,9.678e+00,9.392e+00,8.589e+00,1.122e+01,9.803e+00,1.224e+01,1.049e+01,1.109e+01,9.910e+00,1.295e+01,1.136e+01,1.260e+01,1.252e+01,1.151e+01,1.008e+01,1.306e+01,1.018e+01,1.450e+01,1.189e+01,1.332e+01,1.364e+01,1.196e+01,1.369e+01,1.609e+01,1.421e+01,1.670e+01,1.477e+01,1.435e+01,1.474e+01,1.451e+01,1.455e+01,1.569e+01,1.996e+01,1.553e+01,1.595e+01,1.734e+01,1.750e+01,1.690e+01,1.942e+01,1.634e+01,1.682e+01,1.947e+01,1.865e+01,2.115e+01,1.889e+01,1.959e+01,2.362e+01,2.138e+01,2.210e+01,1.864e+01,2.301e+01,2.185e+01,2.165e+01,1.889e+01,2.096e+01,2.042e+01
1.667e-01,7.443e-01,6.005e-01,1.405e+00,1.003e+00,6.787e-01,1.353e+00,1.096e+00,1.659e+00,2.106e+00,2.009e+00,2.100e+00,3.425e+00,2.928e+00,4.357e+00,4.760e+00,5.113e+00,3.952e+00,5.181e+00,4.833e+00,4.321e+00,5.814e+00,5.152e+00,5.726e+00,7.436e+00,5.099e+00,7.072e+00,7.091e+00,8.797e+00,6.881e+00,7.900e+00,7.164e+00,6.886e+00,9.334e+00,8.140e+00,8.254e+00,1.004e+01,8.625e+00,1.073e+01,9.754e+00,1.159e+01,1.078e+01,1.087e+01,8.377e+00,1.360e+01,1.135e+01,1.235e+01,1.176e+01,1.117e+01,1.065e+01,1.326e+01,9.457e+00,1.380e+01,1.360e+01,1.256e+01,1.395e+01,1.165e+01,1.404e+01,1.520e+01,1.451e+01,1.471e+01,1.506e+01,1.574e+01,1.504e+01,1.436e+01,1.483e+01,1.460e+01,1.999e+01,1.783e+01,1.617e+01,1.791e+01,1.574e+01,1.744e+01,1.891e+01,1.702e+01,1.748e+01,1.744e+01,1.777e+01,1.993e+01,1.846e+01,1.996e+01,2.242e+01,2.224e+01,2.077e+01,1.917e+01,2.323e+01,2.188e+01,2.166e+01,1.963e+01,2.046e+01,1.961e+01
7.511e-02,7.675e-01,1.000e+00,1.213e+00,1.363e+00,9.921e-01,1.310e+00,1.024e+00,1.290e+00,1.621e+00,1.307e+00,1.451e+00,2.518e+00,2.336e+00,4.024e+00,4.000e+00,4.535e+00,3.142e+00,3.766e+00,4.251e+00,3.160e+00,4.995e+00,4.856e+00,4.979e+00,7.256e+00,6.203e+00,8.260e+00,7.692e+00,7.743e+00,6.018e+00,7.163e+00,5.775e+00,6.248e+00,8.397e+00,7.721e+00,7.794e+00,1.037e+01,8.728e+00,9.720e+00,1.010e+01,1.154e+01,9.916e+00,9.459e+00,7.991e+00,1.195e+01,9.885e+00,1.195e+01,1.056e+01,9.559e+00,9.541e+00,1.191e+01,9.440e+00,1.286e+01,1.211e+01,1.127e+01,1.299e+01,1.200e+01,1.406e+01,1.329e+01,1.253e+01,1.356e+01,1.250e+01,1.432e+01,1.535e+01,1.330e+01,1.349e+01,1.456e+01,1.853e+01,1.648e+01,1.604e+01,1.671e+01,1.594e+01,1.689e+01,1.832e+01,1.600e+01,1.642e+01,1.873e+01,1.984e+01,1.842e+01,1.783e+01,2.049e+01,2.161e+01,2.275e+01,2.032e+01,1.865e+01,2.190e+01,2.112e+01,2.259e+01,1.948e+01,1.945e+01,2.096e+01
8.099e-02,6.480e-01,7.300e-01,7.798e-01,9.209e-01,7.174e-01,1.072e+00,7.678e-01,1.091e+00,1.375e+00,1.344e+00,1.243e+00,2.346e+00,2.397e+00,3.804e+00,3.689e+00,4.846e+00,3.476e+00,3.965e+00,4.741e+00,3.447e+00,5.054e+00,5.447e+00,4.953e+00,6.612e+00,5.069e+00,6.237e+00,6.060e+00,7.147e+00,6.298e+00,7.213e+00,5.733e+00,6.722e+00,8.862e+00,7.823e+00,8.241e+00,9.209e+00,8.145e+00,8.857e+00,8.627e+00,9.358e+00,9.490e+00,9.524e+00,7.328e+00,1.201e+01,1.042e+01,1.048e+01,1.127e+01,1.145e+01,9.126e+00,1.300e+01,1.006e+01,1.198e+01,1.201e+01,1.216e+01,1.225e+01,1.282e+01,1.387e+01,1.578e+01,1.386e+01,1.427e+01,1.363e+01,1.455e+01,1.401e+01,1.539e+01,1.439e+01,1.351e+01,1.786e+01,1.580e+01,1.477e+01,1.575e+01,1.642e+01,1.631e+01,1.780e+01,1.621e+01,1.699e+01,1.717e+01,1.807e+01,1.932e+01,1.708e+01,1.924e+01,2.211e+01,2.146e+01,1.972e+01,1.894e+01,2.092e+01,2.143e+01,2.143e+01,1.988e+01,2.075e+01,2.088e+01
1.359e-01,1.107e+00,1.126e+00,1.730e+00,1.655e+00,1.591e+00,1.857e+00,1.522e+00,1.671e+00,2.639e+00,1.847e+00,2.372e+00,3.864e+00,2.970e+00,5.126e+00,5.333e+00,5.951e+00,3.842e+00,4.920e+00,5.217e+00,3.363e+00,5.825e+00,5.856e+00,5.980e+00,7.611e+00,7.014e+00,8.261e+00,9.310e+00,8.770e+00,7.031e+00,8.931e+00,7.936e+00,8.146e+00,1.170e+01,1.016e+01,1.018e+01,1.150e+01,1.082e+01,1.279e+01,1.185e+01,1.416e+01,1.183e+01,1.246e+01,1.073e+01,1.404e+01,1.278e+01,1.398e+01,1.368e+01,1.249e+01,1.225e+01,1.446e+01,1.269e+01,1.573e+01,1.487e+01,1.541e+01,1.614e+01,1.454e+01,1.515e+01,1.685e+01,1.465e+01,1.757e+01,1.657e+01,1.787e+01,1.540e+01,1.756e+01,1.679e+01,1.828e+01,1.936e+01,1.802e+01,1.799e+01,1.946e+01,1.925e+01,1.807e+01,2.012e+01,1.843e+01,1.765e+01,2.078e+01,2.148e+01,2.205e+01,1.941e+01,2.172e+01,2.464e+01,2.418e+01,2.121e+01,2.010e+01,2.527e+01,2.330e+01,2.381e+01,2.385e+01,2.204e+01,2.338e+01
1.006e-01,5.490e-01,5.705e-01,1.180e+00,9.539e-01,9.345e-01,1.462e+00,1.390e+00,1.627e+00,2.572e+00,2.145e+00,2.693e+00,3.742e+00,3.016e+00,4.899e+00,4.868e+00,5.685e+00,3.861e+00,5.619e+00,5.039e+00,4.163e+00,6.463e+00,6.356e+00,5.159e+00,7.022e+00,7.098e+00,7.751e+00,8.056e+00,9.413e+00,7.608e+00,9.333e+00,7.305e+00,8.934e+00,1.099e+01,9.824e+00,9.268e+00,1.144e+01,8.948e+00,9.749e+00,1.045e+01,1.300e+01,1.162e+01,1.071e+01,1.026e+01,1.320e+01,1.174e+01,1.318e+01,1.249e+01,1.308e+01,9.803e+00,1.224e+01,1.234e+01,1.341e+01,1.353e+01,1.317e+01,1.287e+01,1.303e+01,1.341e+01,1.648e+01,1.481e+01,1.651e+01,1.407e+01,1.555e+01,1.449e+01,1.630e+01,1.423e+01,1.568e+01,1.915e+01,1.674e+01,1.520e+01,1.795e+01,1.785e+01,1.677e+01,1.991e+01,1.666e+01,1.870e+01,1.956e+01,1.966e+01,2.192e+01,1.766e+01,2.126e+01,2.328e+01,2.255e+01,2.117e+01,2.122e+01,2.224e+01,2.328e+01,2.341e+01,2.136e+01,2.016e+01,2.199e+01
