1.858e-01,2.916e-01,8.235e-01,5.791e-02,4.529e-02,9.226e-02,1.763e-01,8.719e-01,7.618e-01,7.003e-01,3.006e-01,4.139e-01,9.313e-01,2.717e-01,5.196e-01,3.881e-02,1.746e-01,9.513e-01,8.857e-01,5.123e-01,3.472e-01,9.601e-01,6.883e-01,3.128e-01,7.215e-01,2.224e-01,9.109e-01,5.215e-01,8.856e-01,1.539e-01,2.330e-01,3.312e-01,8.173e-01,8.118e-01,3.819e-01,9.823e-01,6.600e-01,5.008e-01,8.995e-01,2.669e-01,6.273e-01,7.807e-01,5.730e-01,9.619e-01,6.301e-01,5.493e-01,5.956e-01,3.161e-01,2.145e-01,5.385e-01,5.531e-01,5.380e-01,6.632e-01,7.724e-01,8.406e-01,8.753e-02,5.276e-02,2.118e-01,4.677e-01,9.047e-02,8.455e-01,8.987e-01,6.417e-01,9.995e-01,7.786e-01,1.553e-01,6.563e-01,9.084e-01,6.493e-01,7.284e-01,5.330e-01,1.776e-03,5.098e-01,6.748e-01,1.396e-01,4.837e-01,2.510e-01,5.870e-01,5.757e-01,3.781e-01,8.639e-01,1.420e-01,8.726e-01,5.106e-01,7.660e-01,1.568e-01,3.341e-01
1.817e-01,3.540e-01,1.233e+00,1.003e+00,7.114e-01,8.837e-01,5.291e-01,1.131e+00,1.618e+00,1.405e+00,1.192e+00,4.538e-01,1.558e+00,8.849e-01,1.076e+00,5.763e-01,6.307e-01,1.615e+00,1.592e+00,1.303e+00,4.641e-01,1.899e+00,1.418e+00,9.645e-01,7.412e-01,7.844e-01,1.800e+00,1.244e+00,1.805e+00,1.943e-01,1.017e+00,6.348e-01,1.678e+00,1.303e+00,8.645e-01,1.190e+00,1.481e+00,1.208e+00,1.535e+00,9.087e-01,7.508e-01,1.591e+00,7.979e-01,1.070e+00,1.464e+00,1.404e+00,1.174e+00,5.964e-01,9.447e-01,6.453e-01,1.170e+00,9.460e-01,9.827e-01,1.754e+00,1.056e+00,5.484e-01,4.095e-01,8.994e-01,1.284e+00,8.143e-01,1.523e+00,1.534e+00,1.461e+00,1.271e+00,1.557e+00,7.060e-01,7.574e-01,1.789e+00,6.667e-01,1.541e+00,5.676e-01,8.063e-01,1.190e+00,1.320e+00,2.693e-01,6.000e-01,9.283e-01,9.145e-01,1.273e+00,3.933e-01,1.669e+00,1.089e+00,1.609e+00,7.148e-01,1.098e+00,1.095e+00,7.436e-01
1.818e-01,2.940e-01,1.017e+00,1.162e+00,8.130e-01,7.240e-01,4.699e-01,1.039e+00,1.523e+00,8.848e-01,9.523e-01,1.186e+00,1.413e+00,1.298e+00,8.195e-01,2.447e-01,1.180e+00,1.832e+00,1.011e+00,1.509e+00,5.371e-01,1.212e+00,1.753e+00,6.096e-01,1.473e+00,1.136e+00,1.161e+00,1.525e+00,1.432e+00,1.143e+00,4.225e-01,1.190e+00,1.407e+00,1.333e+00,1.372e+00,1.142e+00,1.747e+00,1.187e+00,1.868e+00,7.333e-01,1.006e+00,1.300e+00,1.361e+00,1.290e+00,9.875e-01,1.478e+00,9.208e-01,6.686e-01,7.723e-01,9.336e-01,1.591e+00,7.296e-01,1.039e+00,1.603e+00,1.415e+00,1.095e+00,3.601e-01,5.191e-01,1.505e+00,7.568e-01,1.677e+00,1.252e+00,1.267e+00,1.626e+00,1.191e+00,7.149e-01,1.158e+00,1.387e+00,1.257e+00,1.525e+00,1.515e+00,1.103e-01,7.938e-01,1.634e+00,6.316e-01,8.868e-01,1.148e+00,6.580e-01,1.359e+00,9.884e-01,1.946e+00,4.110e-01,1.046e+00,6.906e-01,1.096e+00,1.107e+00,8.463e-01
1.543e-01,2.483e-01,7.426e-01,1.013e+00,9.159e-01,2.424e-01,7.308e-01,9.551e-01,1.658e+00,1.485e+00,1.058e+00,6.840e-01,1.445e+00,1.298e+00,5.980e-01,5.962e-01,6.735e-01,1.073e+00,1.253e+00,1.564e+00,7.204e-01,9.259e-01,1.601e+00,8.462e-01,9.309e-01,7.721e-01,1.027e+00,8.029e-01,9.812e-01,9.682e-01,6.036e-01,1.404e+00,9.382e-01,1.425e+00,5.366e-01,1.086e+00,1.321e+00,8.150e-01,1.537e+00,4.244e-01,1.357e+00,1.619e+00,1.487e+00,1.537e+00,1.300e+00,1.573e+00,1.389e+00,8.456e-01,1.003e+00,1.494e+00,1.093e+00,8.734e-01,1.608e+00,1.591e+00,1.610e+00,3.151e-01,7.784e-01,1.044e+00,1.107e+00,1.042e+00,9.339e-01,1.150e+00,7.710e-01,1.054e+00,1.141e+00,3.402e-01,1.156e+00,1.141e+00,1.370e+00,1.684e+00,8.688e-01,1.032e+00,1.412e+00,1.530e+00,5.436e-01,6.600e-01,8.817e-01,1.114e+00,1.439e+00,1.140e+00,1.485e+00,9.595e-01,1.098e+00,1.200e+00,1.456e+00,7.409e-01,1.302e+00
5.367e-02,1.060e-01,5.192e-01,1.980e+00,1.614e+00,1.432e+00,1.821e+00,1.365e+00,2.547e+00,2.266e+00,1.702e+00,1.356e+00,2.166e+00,2.398e+00,8.871e-01,8.975e-01,2.407e+00,2.256e+00,1.108e+00,2.211e+00,9.776e-01,1.042e+00,2.552e+00,1.069e+00,1.760e+00,2.380e+00,1.504e+00,2.209e+00,1.892e+00,2.099e+00,7.682e-01,2.560e+00,1.568e+00,2.183e+00,2.007e+00,1.563e+00,2.508e+00,1.633e+00,1.942e+00,1.086e+00,2.328e+00,2.710e+00,2.545e+00,1.381e+00,1.914e+00,2.203e+00,1.662e+00,1.553e+00,1.978e+00,2.067e+00,2.452e+00,1.791e+00,2.235e+00,2.252e+00,2.082e+00,1.731e+00,1.185e+00,2.181e+00,1.967e+00,2.482e+00,1.333e+00,1.954e+00,1.095e+00,2.031e+00,2.009e+00,9.734e-01,2.173e+00,1.159e+00,1.845e+00,2.868e+00,1.559e+00,1.542e+00,1.994e+00,2.913e+00,1.817e+00,1.622e+00,1.698e+00,1.709e+00,2.105e+00,2.224e+00,2.429e+00,1.905e+00,1.098e+00,1.904e+00,1.742e+00,1.590e+00,1.884e+00
7.394e-03,6.965e-02,4.175e-01,1.561e+00,1.270e+00,1.295e+00,1.455e+00,1.336e+00,1.972e+00,2.268e+00,1.816e+00,1.376e+00,2.278e+00,2.527e+00,1.268e+00,1.559e+00,1.895e+00,1.184e+00,1.967e+00,1.924e+00,1.204e+00,1.545e+00,1.926e+00,1.939e+00,1.208e+00,1.441e+00,1.263e+00,1.563e+00,2.246e+00,1.656e+00,1.100e+00,1.477e+00,1.147e+00,1.695e+00,1.269e+00,1.594e+00,1.563e+00,1.897e+00,1.962e+00,1.357e+00,1.889e+00,1.986e+00,1.964e+00,1.492e+00,2.482e+00,2.441e+00,1.943e+00,1.689e+00,1.887e+00,1.214e+00,1.980e+00,1.656e+00,2.102e+00,1.881e+00,1.519e+00,8.881e-01,9.919e-01,2.252e+00,1.437e+00,1.846e+00,1.139e+00,2.016e+00,1.020e+00,1.502e+00,1.496e+00,1.110e+00,1.100e+00,1.114e+00,1.078e+00,2.367e+00,6.734e-01,2.426e+00,2.109e+00,2.509e+00,1.601e+00,1.397e+00,1.550e+00,1.921e+00,1.846e+00,1.188e+00,1.745e+00,2.392e+00,1.917e+00,1.473e+00,1.385e+00,2.245e+00,1.578e+00
1.046e-01,1.777e-01,6.372e-01,9.137e-01,6.961e-01,9.871e-01,1.303e+00,2.134e+00,2.041e+00,1.901e+00,1.395e+00,1.172e+00,1.990e+00,2.079e+00,1.401e+00,1.053e+00,1.797e+00,2.064e+00,1.055e+00,1.576e+00,1.272e+00,1.852e+00,2.490e+00,1.200e+00,1.773e+00,2.322e+00,2.157e+00,2.464e+00,2.027e+00,1.956e+00,7.274e-01,1.346e+00,1.429e+00,2.310e+00,2.443e+00,1.501e+00,2.364e+00,2.081e+00,1.974e+00,1.594e+00,2.166e+00,2.047e+00,2.117e+00,1.076e+00,1.695e+00,1.314e+00,1.593e+00,1.481e+00,1.111e+00,2.075e+00,2.146e+00,1.528e+00,1.807e+00,1.491e+00,2.214e+00,1.512e+00,1.021e+00,1.755e+00,1.379e+00,1.576e+00,1.353e+00,2.531e+00,1.458e+00,2.075e+00,1.824e+00,6.691e-01,1.482e+00,1.101e+00,1.154e+00,1.793e+00,1.734e+00,1.620e+00,2.118e+00,2.655e+00,1.409e+00,1.430e+00,1.075e+00,2.122e+00,2.155e+00,1.687e+00,1.830e+00,1.268e+00,1.045e+00,1.563e+00,1.478e+00,1.390e+00,1.511e+00
1.659e-01,3.245e-01,1.162e+00,1.493e+00,1.179e+00,1.542e+00,1.832e+00,3.278e+00,3.360e+00,3.195e+00,2.724e+00,1.634e+00,3.377e+00,2.697e+00,1.974e+00,2.024e+00,2.816e+00,3.432e+00,2.899e+00,2.838e+00,2.297e+00,3.747e+00,3.089e+00,2.721e+00,1.974e+00,3.354e+00,3.375e+00,2.993e+00,3.324e+00,2.602e+00,1.898e+00,2.169e+00,2.990e+00,3.378e+00,3.437e+00,3.025e+00,3.289e+00,2.869e+00,3.013e+00,2.761e+00,3.436e+00,3.787e+00,2.869e+00,1.817e+00,3.597e+00,3.235e+00,3.142e+00,2.670e+00,2.491e+00,3.095e+00,2.990e+00,3.011e+00,3.093e+00,2.641e+00,3.121e+00,1.867e+00,1.362e+00,3.316e+00,2.527e+00,2.459e+00,2.701e+00,3.526e+00,2.445e+00,3.196e+00,2.984e+00,1.964e+00,2.323e+00,2.573e+00,1.683e+00,3.357e+00,2.145e+00,3.261e+00,3.499e+00,4.297e+00,1.930e+00,2.545e+00,1.820e+00,3.259e+00,2.773e+00,2.349e+00,3.288e+00,2.539e+00,2.849e+00,2.819e+00,2.982e+00,2.581e+00,2.830e+00
1.445e-01,2.791e-01,1.037e+00,1.858e+00,1.490e+00,1.308e+00,1.523e+00,2.157e+00,3.383e+00,3.431e+00,2.385e+00,1.711e+00,2.951e+00,3.015e+00,2.366e+00,1.991e+00,3.239e+00,2.634e+00,3.490e+00,2.787e+00,2.293e+00,3.210e+00,3.466e+00,2.320e+00,2.480e+00,2.944e+00,2.669e+00,2.371e+00,3.074e+00,2.897e+00,1.541e+00,2.842e+00,2.818e+00,3.570e+00,2.655e+00,2.796e+00,3.527e+00,2.929e+00,3.181e+00,2.648e+00,3.336e+00,3.738e+00,3.004e+00,2.506e+00,3.886e+00,3.513e+00,2.757e+00,2.442e+00,3.125e+00,2.303e+00,3.391e+00,2.366e+00,3.516e+00,3.271e+00,3.320e+00,1.770e+00,1.659e+00,3.145e+00,3.081e+00,2.943e+00,2.192e+00,2.689e+00,1.993e+00,3.041e+00,2.222e+00,1.679e+00,2.797e+00,2.639e+00,2.576e+00,3.545e+00,1.703e+00,2.573e+00,2.904e+00,3.532e+00,1.689e+00,1.840e+00,2.443e+00,2.826e+00,2.695e+00,1.913e+00,2.950e+00,3.221e+00,2.655e+00,2.725e+00,2.897e+00,3.135e+00,2.322e+00
3.707e-02,1.236e-01,6.033e-01,1.799e+00,1.465e+00,1.544e+00,1.881e+00,2.431e+00,3.285e+00,4.447e+00,3.335e+00,2.020e+00,3.378e+00,3.502e+00,2.727e+00,3.040e+00,3.724e+00,3.258e+00,3.793e+00,3.247e+00,3.056e+00,4.148e+00,3.552e+00,2.894e+00,2.615e+00,3.370e+00,3.469e+00,3.370e+00,3.888e+00,3.450e+00,2.249e+00,3.611e+00,3.149e+00,3.998e+00,3.327e+00,3.133e+00,3.741e+00,3.299e+00,3.654e+00,3.634e+00,4.184e+00,3.877e+00,3.273e+00,2.940e+00,4.201e+00,4.254e+00,3.264e+00,2.812e+00,3.859e+00,2.902e+00,3.362e+00,3.041e+00,3.659e+00,3.318e+00,3.766e+00,2.131e+00,2.666e+00,4.250e+00,3.616e+00,3.612e+00,2.008e+00,3.298e+00,2.051e+00,3.493e+00,2.986e+00,2.338e+00,3.361e+00,2.702e+00,2.378e+00,4.448e+00,2.214e+00,3.695e+00,3.596e+00,4.568e+00,2.360e+00,2.282e+00,2.841e+00,3.609e+00,3.166e+00,2.117e+00,2.782e+00,4.513e+00,3.482e+00,3.204e+00,2.830e+00,3.510e+00,2.894e+00
9.620e-02,2.070e-01,9.284e-01,1.913e+00,1.402e+00,1.906e+00,1.691e+00,1.924e+00,2.908e+00,3.197e+00,3.108e+00,2.744e+00,3.792e+00,3.490e+00,2.856e+00,2.512e+00,4.180e+00,3.816e+00,2.963e+00,3.372e+00,2.803e+00,3.502e+00,3.907e+00,2.529e+00,3.472e+00,3.692e+00,2.713e+00,3.370e+00,3.936e+00,2.980e+00,1.470e+00,3.162e+00,3.617e+00,3.998e+00,3.091e+00,3.060e+00,4.175e+00,3.754e+00,3.329e+00,3.011e+00,3.503e+00,3.737e+00,3.018e+00,3.189e+00,3.760e+00,3.663e+00,2.915e+00,2.202e+00,3.332e+00,1.759e+00,4.440e+00,2.427e+00,3.723e+00,3.494e+00,3.227e+00,3.157e+00,1.934e+00,3.124e+00,3.894e+00,3.028e+00,2.339e+00,3.119e+00,2.204e+00,3.731e+00,3.433e+00,2.525e+00,3.157e+00,2.756e+00,2.860e+00,4.369e+00,2.499e+00,2.785e+00,3.033e+00,3.798e+00,3.110e+00,2.603e+00,3.114e+00,2.851e+00,2.580e+00,2.750e+00,3.493e+00,3.769e+00,3.197e+00,2.364e+00,2.798e+00,3.397e+00,2.296e+00
1.535e-01,3.004e-01,1.129e+00,2.002e+00,1.593e+00,1.545e+00,1.757e+00,2.523e+00,3.346e+00,3.239e+00,2.917e+00,2.542e+00,4.098e+00,3.874e+00,2.210e+00,2.486e+00,3.286e+00,3.977e+00,3.192e+00,3.806e+00,2.532e+00,3.636e+00,3.637e+00,3.247e+00,2.639e+00,3.633e+00,3.428e+00,3.477e+00,3.946e+00,3.427e+00,2.741e+00,3.006e+00,3.786e+00,3.786e+00,3.429e+00,3.294e+00,4.419e+00,3.752e+00,4.225e+00,3.540e+00,3.959e+00,4.747e+00,3.286e+00,3.206e+00,4.276e+00,4.567e+00,3.412e+00,3.042e+00,2.984e+00,3.461e+00,4.247e+00,3.212e+00,3.908e+00,4.094e+00,3.674e+00,2.963e+00,2.355e+00,3.695e+00,3.347e+00,3.246e+00,2.579e+00,3.404e+00,2.733e+00,3.672e+00,3.170e+00,2.115e+00,2.991e+00,2.787e+00,3.056e+00,4.555e+00,2.169e+00,3.257e+00,4.011e+00,4.319e+00,3.057e+00,3.273e+00,2.692e+00,3.626e+00,3.823e+00,2.715e+00,4.416e+00,3.291e+00,3.269e+00,2.679e+00,3.246e+00,3.798e+00,3.412e+00
7.033e-02,1.451e-01,5.421e-01,7.710e-01,6.042e-01,1.045e+00,1.281e+00,2.509e+00,2.209e+00,2.728e+00,2.934e+00,2.491e+00,4.525e+00,3.145e+00,2.779e+00,3.308e+00,4.122e+00,3.187e+00,3.359e+00,3.186e+00,3.363e+00,4.406e+00,3.406e+00,3.262e+00,3.428e+00,3.295e+00,3.295e+00,3.055e+00,4.187e+00,3.233e+00,2.537e+00,2.154e+00,3.338e+00,3.936e+00,3.574e+00,3.971e+00,3.845e+00,4.050e+00,3.633e+00,3.469e+00,4.376e+00,3.805e+00,2.948e+00,2.861e+00,4.187e+00,3.998e+00,3.639e+00,2.579e+00,3.163e+00,2.562e+00,4.112e+00,2.830e+00,3.917e+00,2.578e+00,4.079e+00,3.048e+00,2.549e+00,3.540e+00,3.718e+00,2.771e+00,2.395e+00,3.267e+00,2.969e+00,3.452e+00,3.013e+00,2.986e+00,3.195e+00,3.035e+00,2.623e+00,3.935e+00,2.264e+00,4.366e+00,3.554e+00,4.523e+00,3.326e+00,3.640e+00,2.628e+00,4.236e+00,3.022e+00,3.454e+00,3.557e+00,3.681e+00,3.780e+00,2.563e+00,3.163e+00,4.019e+00,3.087e+00
1.503e-01,2.380e-01,7.735e-01,7.461e-01,5.471e-01,4.967e-01,5.634e-01,1.956e+00,1.941e+00,1.780e+00,2.227e+00,2.122e+00,2.756e+00,2.756e+00,2.182e+00,2.064e+00,3.381e+00,4.367e+00,2.399e+00,3.059e+00,2.965e+00,3.444e+00,3.343e+00,2.827e+00,2.744e+00,3.775e+00,3.139e+00,2.919e+00,3.551e+00,3.785e+00,2.282e+00,2.855e+00,4.033e+00,3.112e+00,3.528e+00,2.718e+00,3.613e+00,3.285e+00,4.142e+00,3.914e+00,3.426e+00,3.495e+00,3.021e+00,3.427e+00,3.107e+00,3.523e+00,3.058e+00,2.205e+00,2.117e+00,2.742e+00,3.977e+00,2.301e+00,3.098e+00,2.704e+00,3.308e+00,3.022e+00,2.663e+00,2.366e+00,3.077e+00,2.408e+00,2.545e+00,3.002e+00,2.853e+00,3.368e+00,2.984e+00,2.631e+00,2.576e+00,2.592e+00,2.637e+00,3.167e+00,2.645e+00,2.237e+00,3.649e+00,4.084e+00,2.343e+00,3.021e+00,2.871e+00,3.091e+00,2.986e+00,3.006e+00,3.992e+00,1.983e+00,2.802e+00,2.629e+00,3.648e+00,2.973e+00,3.262e+00
1.458e-01,2.928e-01,1.092e+00,1.615e+00,1.248e+00,1.209e+00,1.207e+00,1.875e+00,2.513e+00,2.658e+00,3.106e+00,2.162e+00,3.777e+00,3.486e+00,2.829e+00,3.440e+00,4.166e+00,5.173e+00,3.030e+00,4.631e+00,3.156e+00,3.794e+00,4.740e+00,3.592e+00,3.648e+00,4.561e+00,4.560e+00,3.646e+00,4.903e+00,3.615e+00,2.829e+00,3.188e+00,4.707e+00,3.948e+00,3.996e+00,2.921e+00,4.853e+00,4.420e+00,5.083e+00,4.095e+00,4.255e+00,4.288e+00,4.035e+00,4.563e+00,4.074e+00,4.795e+00,3.730e+00,2.762e+00,3.376e+00,3.291e+00,4.870e+00,3.004e+00,3.869e+00,3.595e+00,4.449e+00,3.437e+00,3.806e+00,3.834e+00,3.671e+00,3.653e+00,3.398e+00,3.921e+00,3.462e+00,3.953e+00,4.180e+00,3.210e+00,3.395e+00,4.031e+00,2.856e+00,5.018e+00,2.577e+00,3.675e+00,4.493e+00,5.167e+00,2.925e+00,3.591e+00,3.560e+00,4.153e+00,4.086e+00,3.342e+00,4.516e+00,4.257e+00,3.645e+00,2.973e+00,4.283e+00,4.322e+00,3.587e+00
9.910e-02,1.877e-01,7.147e-01,1.604e+00,1.308e+00,9.454e-01,1.299e+00,2.123e+00,2.716e+00,3.151e+00,2.917e+00,2.172e+00,3.359e+00,3.433e+00,2.229e+00,3.839e+00,4.161e+00,4.262e+00,3.922e+00,4.545e+00,3.314e+00,4.127e+00,4.095e+00,3.202e+00,2.914e+00,3.459e+00,4.518e+00,3.769e+00,4.255e+00,4.484e+00,2.644e+00,3.640e+00,4.338e+00,4.196e+00,4.503e+00,3.732e+00,4.648e+00,3.635e+00,4.614e+00,4.175e+00,4.617e+00,4.065e+00,4.022e+00,3.780e+00,3.994e+00,4.948e+00,3.548e+00,2.719e+00,3.854e+00,3.767e+00,3.613e+00,3.383e+00,3.781e+00,3.953e+00,4.786e+00,3.599e+00,3.175e+00,4.266e+00,4.232e+00,3.601e+00,3.081e+00,3.691e+00,3.243e+00,4.036e+00,3.512e+00,2.869e+00,3.403e+00,3.747e+00,3.251e+00,4.424e+00,3.339e+00,3.833e+00,4.414e+00,4.981e+00,3.234e+00,3.704e+00,3.601e+00,3.678e+00,4.689e+00,3.580e+00,4.262e+00,3.681e+00,4.105e+00,3.187e+00,3.396e+00,3.927e+00,4.078e+00
7.431e-02,1.272e-01,4.007e-01,7.293e-01,6.669e-01,5.453e-01,1.212e+00,2.438e+00,2.374e+00,2.856e+00,3.030e+00,2.365e+00,3.782e+00,3.745e+00,2.865e+00,4.239e+00,5.609e+00,5.893e+00,3.982e+00,4.649e+00,5.292e+00,5.100e+00,4.708e+00,4.812e+00,3.914e+00,5.786e+00,5.872e+00,4.597e+00,4.830e+00,5.455e+00,3.420e+00,4.437e+00,5.255e+00,5.643e+00,5.847e+00,4.205e+00,5.765e+00,5.590e+00,5.179e+00,5.845e+00,6.035e+00,5.504e+00,4.954e+00,4.905e+00,4.665e+00,5.363e+00,4.644e+00,4.007e+00,3.815e+00,4.809e+00,5.136e+00,4.395e+00,5.652e+00,3.974e+00,5.291e+00,5.348e+00,4.722e+00,4.507e+00,4.480e+00,4.807e+00,3.227e+00,5.019e+00,3.783e+00,5.086e+00,4.961e+00,3.729e+00,4.604e+00,3.770e+00,4.058e+00,5.017e+00,3.631e+00,5.136e+00,5.648e+00,6.190e+00,4.209e+00,4.894e+00,4.161e+00,5.405e+00,5.603e+00,4.799e+00,5.298e+00,3.961e+00,4.310e+00,4.500e+00,5.149e+00,4.503e+00,5.193e+00
3.822e-02,8.849e-02,3.976e-01,1.391e+00,1.158e+00,7.364e-01,1.125e+00,1.991e+00,2.553e+00,2.977e+00,3.458e+00,2.437e+00,3.747e+00,3.788e+00,2.870e+00,4.070e+00,5.556e+00,6.314e+00,4.567e+00,5.232e+00,5.845e+00,5.147e+00,5.344e+00,5.263e+00,5.001e+00,6.310e+00,5.749e+00,5.141e+00,4.793e+00,5.742e+00,3.506e+00,5.317e+00,5.178e+00,5.681e+00,5.555e+00,4.094e+00,6.631e+00,5.393e+00,5.981e+00,5.899e+00,6.269e+00,6.198e+00,5.591e+00,5.037e+00,4.772e+00,6.449e+00,5.097e+00,5.059e+00,5.106e+00,4.650e+00,5.894e+00,4.895e+00,5.626e+00,4.014e+00,5.917e+00,5.113e+00,5.493e+00,4.946e+00,5.114e+00,5.462e+00,3.704e+00,4.603e+00,3.471e+00,5.023e+00,4.816e+00,4.168e+00,5.275e+00,4.049e+00,3.976e+00,6.008e+00,3.786e+00,5.768e+00,5.139e+00,7.236e+00,3.726e+00,4.618e+00,5.012e+00,5.588e+00,5.737e+00,4.725e+00,5.183e+00,5.184e+00,4.684e+00,4.981e+00,5.394e+00,5.594e+00,5.318e+00
2.059e-02,3.980e-02,1.922e-01,1.181e+00,1.037e+00,7.271e-01,1.331e+00,1.713e+00,2.365e+00,2.837e+00,2.836e+00,2.255e+00,3.711e+00,3.219e+00,2.334e+00,3.812e+00,5.226e+00,4.952e+00,4.250e+00,4.774e+00,5.169e+00,4.702e+00,4.918e+00,4.981e+00,5.428e+00,5.855e+00,5.193e+00,4.441e+00,4.934e+00,5.001e+00,3.142e+00,5.251e+00,4.582e+00,5.857e+00,5.561e+00,4.278e+00,6.065e+00,4.965e+00,4.666e+00,4.729e+00,5.892e+00,5.680e+00,4.892e+00,4.437e+00,4.756e+00,6.161e+00,4.862e+00,4.962e+00,5.600e+00,4.386e+00,5.155e+00,4.386e+00,6.066e+00,3.692e+00,6.449e+00,5.002e+00,4.568e+00,4.877e+00,5.238e+00,5.363e+00,3.562e+00,3.653e+00,3.558e+00,5.528e+00,4.061e+00,3.812e+00,5.883e+00,4.313e+00,4.650e+00,6.224e+00,3.880e+00,5.598e+00,4.467e+00,6.795e+00,4.096e+00,5.157e+00,4.330e+00,5.144e+00,5.299e+00,4.699e+00,4.821e+00,5.484e+00,4.025e+00,4.886e+00,5.127e+00,5.267e+00,4.713e+00
7.453e-02,1.754e-01,8.142e-01,1.702e+00,1.236e+00,1.496e+00,1.366e+00,2.144e+00,2.647e+00,3.246e+00,3.566e+00,2.848e+00,4.106e+00,4.287e+00,3.320e+00,4.133e+00,5.145e+00,5.889e+00,4.024e+00,5.555e+00,5.018e+00,6.055e+00,5.932e+00,5.189e+00,5.613e+00,6.310e+00,6.409e+00,6.291e+00,6.971e+00,5.954e+00,4.557e+00,5.805e+00,5.780e+00,6.166e+00,5.997e+00,4.125e+00,6.814e+00,6.565e+00,6.337e+00,6.527e+00,5.554e+00,5.840e+00,4.720e+00,4.947e+00,5.609e+00,6.454e+00,4.835e+00,4.657e+00,4.869e+00,3.898e+00,6.025e+00,4.076e+00,6.184e+00,4.785e+00,6.540e+00,6.131e+00,5.143e+00,5.183e+00,5.848e+00,5.697e+00,4.614e+00,5.530e+00,4.877e+00,6.193e+00,5.687e+00,4.201e+00,5.600e+00,5.063e+00,5.070e+00,6.145e+00,4.653e+00,5.679e+00,5.904e+00,6.915e+00,5.248e+00,5.072e+00,5.563e+00,5.457e+00,6.209e+00,5.208e+00,6.188e+00,5.653e+00,5.036e+00,4.458e+00,4.952e+00,5.548e+00,4.968e+00
2.881e-02,5.550e-02,3.199e-01,1.410e+00,1.115e+00,1.030e+00,1.307e+00,2.263e+00,2.293e+00,2.581e+00,3.289e+00,3.357e+00,4.091e+00,4.312e+00,2.522e+00,4.511e+00,5.448e+00,5.621e+00,4.277e+00,5.629e+00,5.963e+00,5.130e+00,5.405e+00,5.856e+00,5.623e+00,5.930e+00,5.837e+00,5.569e+00,5.741e+00,6.130e+00,3.671e+00,5.201e+00,5.345e+00,5.646e+00,6.644e+00,4.559e+00,6.764e+00,5.708e+00,5.919e+00,6.038e+00,6.056e+00,5.286e+00,5.954e+00,5.322e+00,5.907e+00,7.233e+00,5.377e+00,5.454e+00,5.335e+00,4.786e+00,6.132e+00,4.817e+00,5.724e+00,4.911e+00,6.661e+00,5.516e+00,4.295e+00,6.048e+00,5.508e+00,5.267e+00,4.587e+00,4.491e+00,4.235e+00,5.851e+00,4.249e+00,4.869e+00,5.506e+00,4.356e+00,4.412e+00,6.684e+00,5.174e+00,6.444e+00,5.592e+00,7.545e+00,5.183e+00,6.459e+00,4.850e+00,5.296e+00,6.138e+00,5.200e+00,5.650e+00,5.083e+00,5.680e+00,4.610e+00,5.981e+00,6.371e+00,5.710e+00
1.250e-01,1.998e-01,6.600e-01,1.093e+00,9.075e-01,8.329e-01,1.323e+00,2.202e+00,2.422e+00,2.678e+00,2.219e+00,2.105e+00,3.544e+00,3.024e+00,2.291e+00,3.623e+00,4.961e+00,4.296e+00,4.040e+00,4.407e+00,4.360e+00,5.048e+00,5.737e+00,3.828e+00,4.901e+00,4.670e+00,6.057e+00,4.965e+00,5.790e+00,5.907e+00,3.426e+00,4.907e+00,4.196e+00,5.669e+00,5.617e+00,5.279e+00,6.481e+00,5.395e+00,5.863e+00,5.163e+00,6.089e+00,5.674e+00,5.223e+00,4.026e+00,5.666e+00,5.674e+00,3.903e+00,4.242e+00,4.458e+00,4.177e+00,5.490e+00,4.570e+00,5.878e+00,4.529e+00,6.460e+00,4.949e+00,3.768e+00,5.226e+00,5.505e+00,5.143e+00,4.235e+00,4.767e+00,4.517e+00,5.394e+00,4.682e+00,3.958e+00,5.828e+00,4.537e+00,4.885e+00,5.037e+00,4.649e+00,5.423e+00,5.198e+00,6.216e+00,4.976e+00,4.868e+00,4.065e+00,5.473e+00,5.302e+00,5.477e+00,5.085e+00,5.004e+00,5.296e+00,4.112e+00,5.398e+00,5.705e+00,4.306e+00
1.433e-01,2.368e-01,7.657e-01,8.191e-01,6.562e-01,9.454e-01,1.368e+00,2.875e+00,2.720e+00,3.630e+00,3.178e+00,3.138e+00,4.894e+00,4.341e+00,3.795e+00,4.489e+00,6.590e+00,6.910e+00,5.705e+00,5.724e+00,7.198e+00,7.322e+00,7.568e+00,7.218e+00,7.998e+00,7.945e+00,8.763e+00,7.566e+00,9.103e+00,8.510e+00,5.334e+00,7.526e+00,6.550e+00,8.021e+00,8.032e+00,6.761e+00,8.980e+00,8.605e+00,8.337e+00,8.761e+00,8.120e+00,8.643e+00,7.211e+00,6.513e+00,7.882e+00,8.433e+00,6.960e+00,7.972e+00,6.783e+00,6.149e+00,8.384e+00,6.342e+00,8.882e+00,5.863e+00,9.385e+00,6.813e+00,7.084e+00,6.794e+00,7.361e+00,7.911e+00,5.668e+00,7.356e+00,5.869e+00,8.591e+00,6.202e+00,5.558e+00,8.283e+00,6.061e+00,7.082e+00,8.006e+00,6.317e+00,7.895e+00,7.567e+00,9.801e+00,6.706e+00,6.936e+00,6.393e+00,8.837e+00,7.611e+00,6.642e+00,7.345e+00,7.223e+00,7.323e+00,7.400e+00,7.659e+00,8.441e+00,6.306e+00
5.474e-02,9.547e-02,4.415e-01,1.073e+00,7.784e-01,1.224e+00,1.268e+00,2.184e+00,2.136e+00,2.542e+00,2.642e+00,3.096e+00,3.792e+00,3.866e+00,2.574e+00,4.181e+00,6.209e+00,6.760e+00,4.974e+00,5.220e+00,6.036e+00,5.378e+00,5.437e+00,5.790e+00,6.635e+00,6.241e+00,7.408e+00,7.054e+00,6.359e+00,7.680e+00,4.380e+00,6.564e+00,6.721e+00,6.467e+00,7.866e+00,5.606e+00,7.995e+00,6.698e+00,6.388e+00,7.282e+00,7.111e+00,7.085e+00,6.705e+00,5.541e+00,5.880e+00,7.611e+00,5.979e+00,6.147e+00,5.946e+00,5.507e+00,6.751e+00,6.617e+00,6.720e+00,5.233e+00,7.467e+00,6.919e+00,5.776e+00,5.859e+00,6.276e+00,6.258e+00,5.518e+00,6.222e+00,4.957e+00,6.724e+00,5.576e+00,4.947e+00,6.374e+00,4.811e+00,5.774e+00,6.547e+00,6.145e+00,6.096e+00,6.438e+00,8.140e+00,5.655e+00,7.015e+00,5.654e+00,5.874e+00,7.536e+00,6.180e+00,6.500e+00,5.271e+00,7.025e+00,5.484e+00,5.449e+00,7.243e+00,6.296e+00
1.821e-01,2.885e-01,8.424e-01,5.762e-01,5.267e-01,7.257e-01,1.240e+00,2.020e+00,2.366e+00,2.957e+00,1.520e+00,1.358e+00,2.663e+00,1.851e+00,1.917e+00,2.149e+00,3.848e+00,3.837e+00,3.897e+00,2.879e+00,4.051e+00,4.580e+00,4.681e+00,3.546e+00,5.417e+00,4.100e+00,6.589e+00,5.728e+00,6.307e+00,5.597e+00,3.430e+00,6.078e+00,4.495e+00,6.045e+00,5.561e+00,5.645e+00,6.383e+00,5.464e+00,4.694e+00,5.758e+00,5.655e+00,6.653e+00,5.603e+00,4.544e+00,6.372e+00,5.086e+00,5.117e+00,5.588e+00,4.650e+00,4.681e+00,5.854e+00,5.472e+00,6.160e+00,4.904e+00,7.134e+00,4.815e+00,3.998e+00,4.853e+00,5.677e+00,5.566e+00,4.049e+00,4.986e+00,4.299e+00,6.130e+00,4.900e+00,3.684e+00,6.118e+00,4.931e+00,5.689e+00,5.805e+00,5.367e+00,5.127e+00,5.053e+00,6.155e+00,4.481e+00,4.981e+00,3.681e+00,5.593e+00,5.348e+00,4.803e+00,5.281e+00,5.177e+00,6.200e+00,5.869e+00,5.594e+00,5.610e+00,4.267e+00
6.143e-02,1.470e-01,7.365e-01,2.083e+00,1.578e+00,1.447e+00,1.355e+00,2.325e+00,3.258e+00,3.397e+00,3.789e+00,2.954e+00,4.463e+00,4.146e+00,3.370e+00,4.199e+00,6.339e+00,5.482e+00,5.031e+00,5.664e+00,5.720e+00,6.734e+00,6.926e+00,6.071e+00,7.197e+00,7.767e+00,7.689e+00,7.761e+00,8.873e+00,7.632e+00,5.973e+00,7.854e+00,6.057e+00,8.256e+00,7.642e+00,6.379e+00,9.034e+00,8.318e+00,8.010e+00,8.515e+00,7.677e+00,7.769e+00,6.994e+00,5.855e+00,8.853e+00,9.041e+00,6.958e+00,7.095e+00,7.012e+00,5.211e+00,9.092e+00,5.683e+00,8.460e+00,5.651e+00,9.737e+00,7.599e+00,5.716e+00,6.867e+00,8.659e+00,7.672e+00,6.078e+00,6.235e+00,6.323e+00,7.848e+00,6.273e+00,6.866e+00,8.308e+00,6.924e+00,6.876e+00,8.816e+00,6.262e+00,8.116e+00,7.071e+00,9.149e+00,5.861e+00,6.618e+00,5.910e+00,7.431e+00,7.000e+00,6.281e+00,7.996e+00,8.443e+00,7.358e+00,7.388e+00,8.074e+00,8.551e+00,6.106e+00
7.796e-02,1.307e-01,4.022e-01,9.171e-01,8.642e-01,7.474e-01,1.507e+00,2.142e+00,2.708e+00,3.323e+00,2.432e+00,2.305e+00,4.414e+00,3.852e+00,2.992e+00,4.079e+00,6.415e+00,6.262e+00,5.222e+00,5.356e+00,6.663e+00,6.485e+00,7.184e+00,6.136e+00,8.232e+00,7.460e+00,9.389e+00,8.366e+00,8.645e+00,9.714e+00,6.863e+00,8.637e+00,7.228e+00,8.404e+00,8.672e+00,7.249e+00,1.046e+01,8.631e+00,8.454e+00,8.668e+00,9.782e+00,1.038e+01,8.700e+00,6.827e+00,9.790e+00,8.975e+00,7.500e+00,8.447e+00,7.337e+00,7.221e+00,9.814e+00,8.103e+00,9.705e+00,6.852e+00,1.075e+01,8.129e+00,8.598e+00,8.666e+00,8.154e+00,9.561e+00,6.186e+00,7.690e+00,6.717e+00,7.355e+00,6.893e+00,6.667e+00,9.294e+00,6.953e+00,8.642e+00,7.992e+00,6.202e+00,8.833e+00,8.920e+00,9.574e+00,7.295e+00,8.532e+00,7.162e+00,9.254e+00,9.038e+00,8.937e+00,8.636e+00,8.154e+00,7.959e+00,7.496e+00,8.502e+00,9.369e+00,7.332e+00
8.240e-02,1.660e-01,6.997e-01,1.733e+00,1.377e+00,1.373e+00,1.661e+00,2.441e+00,3.036e+00,3.148e+00,3.039e+00,2.653e+00,4.675e+00,4.287e+00,2.866e+00,4.470e+00,6.887e+00,6.926e+00,5.191e+00,5.828e+00,6.230e+00,6.264e+00,6.704e+00,6.552e+00,6.692e+00,7.830e+00,9.395e+00,8.963e+00,9.527e+00,8.711e+00,6.332e+00,7.694e+00,7.473e+00,8.753e+00,1.044e+01,7.341e+00,1.023e+01,8.675e+00,8.617e+00,9.205e+00,8.893e+00,9.611e+00,9.116e+00,6.890e+00,8.597e+00,1.003e+01,7.830e+00,7.967e+00,7.736e+00,7.958e+00,9.037e+00,6.854e+00,8.688e+00,7.912e+00,1.065e+01,8.983e+00,7.224e+00,8.616e+00,9.372e+00,9.531e+00,6.034e+00,8.633e+00,6.965e+00,8.902e+00,6.396e+00,7.587e+00,9.289e+00,7.058e+00,7.567e+00,8.834e+00,7.227e+00,8.881e+00,8.963e+00,1.033e+01,7.642e+00,9.296e+00,6.906e+00,8.334e+00,9.791e+00,7.730e+00,9.341e+00,7.698e+00,7.587e+00,8.803e+00,8.132e+00,8.940e+00,8.367e+00
8.053e-02,1.738e-01,7.792e-01,1.835e+00,1.400e+00,1.428e+00,1.499e+00,2.051e+00,3.048e+00,3.200e+00,3.299e+00,2.307e+00,4.298e+00,3.957e+00,3.461e+00,3.725e+00,6.275e+00,6.007e+00,3.770e+00,5.165e+00,5.435e+00,6.009e+00,7.175e+00,5.406e+00,6.904e+00,7.895e+00,8.543e+00,8.474e+00,9.417e+00,8.441e+00,6.441e+00,8.707e+00,6.799e+00,8.482e+00,9.450e+00,6.435e+00,1.003e+01,8.871e+00,8.674e+00,9.234e+00,8.379e+00,9.154e+00,8.659e+00,6.707e+00,8.846e+00,9.695e+00,7.262e+00,6.851e+00,7.079e+00,7.497e+00,1.014e+01,6.240e+00,8.582e+00,7.201e+00,1.108e+01,8.825e+00,7.595e+00,7.836e+00,9.323e+00,9.917e+00,5.786e+00,8.241e+00,7.526e+00,8.788e+00,6.591e+00,8.060e+00,9.804e+00,7.591e+00,8.263e+00,9.136e+00,7.185e+00,9.067e+00,8.564e+00,1.002e+01,7.389e+00,7.490e+00,6.366e+00,8.732e+00,8.002e+00,7.360e+00,8.688e+00,8.767e+00,6.968e+00,8.156e+00,8.179e+00,8.870e+00,7.008e+00
1.753e-01,2.852e-01,8.585e-01,4.367e-01,3.682e-01,8.541e-01,1.286e+00,2.151e+00,2.259e+00,2.701e+00,1.988e+00,1.855e+00,3.611e+00,2.726e+00,2.824e+00,2.460e+00,4.456e+00,5.147e+00,3.857e+00,3.573e+00,5.011e+00,5.403e+00,5.831e+00,4.508e+00,6.221e+00,6.376e+00,6.734e+00,6.595e+00,7.667e+00,6.481e+00,4.553e+00,6.735e+00,6.138e+00,8.098e+00,6.589e+00,6.657e+00,8.662e+00,7.034e+00,7.168e+00,7.050e+00,7.081e+00,7.949e+00,6.665e+00,5.431e+00,7.784e+00,6.824e+00,6.228e+00,6.162e+00,6.580e+00,4.557e+00,8.381e+00,5.375e+00,7.935e+00,5.897e+00,9.076e+00,7.439e+00,5.559e+00,5.960e+00,7.736e+00,7.475e+00,4.594e+00,6.863e+00,6.401e+00,7.622e+00,5.964e+00,5.557e+00,7.598e+00,6.222e+00,7.174e+00,7.402e+00,5.706e+00,6.781e+00,7.540e+00,8.126e+00,6.457e+00,6.606e+00,6.338e+00,6.955e+00,7.094e+00,7.407e+00,7.467e+00,6.447e+00,5.443e+00,7.168e+00,7.210e+00,5.964e+00,5.741e+00
1.491e-01,2.946e-01,1.064e+00,1.208e+00,9.049e-01,1.309e+00,1.286e+00,2.473e+00,2.683e+00,3.671e+00,3.069e+00,2.345e+00,3.805e+00,3.249e+00,2.967e+00,3.338e+00,4.320e+00,5.071e+00,4.819e+00,4.259e+00,5.261e+00,6.398e+00,5.294e+00,4.994e+00,5.464e+00,5.680e+00,7.301e+00,7.282e+00,7.675e+00,6.453e+00,6.494e+00,7.796e+00,5.802e+00,8.496e+00,7.788e+00,7.067e+00,8.757e+00,7.907e+00,8.530e+00,8.925e+00,7.859e+00,7.789e+00,6.948e+00,6.677e+00,8.406e+00,9.140e+00,6.492e+00,6.966e+00,7.055e+00,5.777e+00,8.631e+00,6.605e+00,7.984e+00,6.891e+00,9.870e+00,7.443e+00,5.511e+00,7.383e+00,8.477e+00,8.359e+00,6.193e+00,7.452e+00,6.902e+00,8.331e+00,6.517e+00,6.884e+00,8.919e+00,6.951e+00,6.827e+00,8.959e+00,6.331e+00,7.983e+00,7.088e+00,8.727e+00,6.144e+00,6.159e+00,5.683e+00,7.582e+00,7.731e+00,6.333e+00,7.587e+00,8.141e+00,7.881e+00,7.184e+00,7.457e+00,7.859e+00,6.357e+00
1.550e-01,2.680e-01,9.287e-01,1.251e+00,9.644e-01,9.780e-01,1.224e+00,3.118e+00,2.978e+00,3.064e+00,3.382e+00,3.206e+00,4.971e+00,4.505e+00,3.568e+00,5.086e+00,6.558e+00,6.299e+00,5.463e+00,6.067e+00,5.528e+00,6.627e+00,7.011e+00,5.856e+00,6.507e+00,6.564e+00,7.872e+00,7.057e+00,9.171e+00,8.719e+00,5.358e+00,7.501e+00,7.679e+00,8.703e+00,9.084e+00,8.601e+00,1.007e+01,9.051e+00,9.565e+00,9.548e+00,9.023e+00,9.517e+00,8.692e+00,7.699e+00,1.013e+01,9.327e+00,8.155e+00,7.520e+00,7.815e+00,7.169e+00,1.012e+01,7.838e+00,9.039e+00,7.683e+00,1.108e+01,8.575e+00,7.718e+00,8.584e+00,8.953e+00,8.628e+00,6.855e+00,7.759e+00,8.062e+00,9.390e+00,6.489e+00,7.575e+00,7.497e+00,8.960e+00,7.916e+00,9.149e+00,7.983e+00,9.197e+00,9.294e+00,1.013e+01,8.404e+00,9.184e+00,7.524e+00,9.485e+00,8.705e+00,8.032e+00,9.244e+00,7.851e+00,7.208e+00,7.677e+00,8.743e+00,1.018e+01,7.517e+00
1.552e-02,8.044e-02,5.473e-01,2.328e+00,1.840e+00,1.613e+00,1.851e+00,2.665e+00,3.662e+00,3.460e+00,3.181e+00,2.552e+00,3.869e+00,4.651e+00,2.873e+00,3.850e+00,6.217e+00,5.697e+00,4.861e+00,5.522e+00,5.694e+00,5.774e+00,6.557e+00,6.243e+00,6.156e+00,8.130e+00,7.859e+00,8.035e+00,8.150e+00,8.473e+00,6.698e+00,8.333e+00,6.735e+00,9.749e+00,9.847e+00,8.027e+00,1.114e+01,9.817e+00,9.565e+00,1.059e+01,9.245e+00,1.021e+01,9.307e+00,7.711e+00,1.104e+01,1.045e+01,8.794e+00,9.696e+00,8.750e+00,8.255e+00,1.049e+01,8.011e+00,1.015e+01,7.951e+00,1.207e+01,8.987e+00,7.598e+00,9.504e+00,9.546e+00,1.073e+01,7.286e+00,8.270e+00,7.384e+00,9.089e+00,6.966e+00,7.450e+00,9.301e+00,7.716e+00,7.846e+00,1.080e+01,7.276e+00,9.635e+00,9.228e+00,1.104e+01,6.991e+00,7.906e+00,7.518e+00,9.615e+00,1.003e+01,8.792e+00,1.001e+01,8.395e+00,6.711e+00,9.843e+00,9.102e+00,1.049e+01,8.924e+00
8.598e-02,1.414e-01,4.620e-01,4.020e-01,3.152e-01,8.910e-01,1.221e+00,2.201e+00,1.839e+00,2.723e+00,2.400e+00,2.055e+00,3.868e+00,2.519e+00,2.401e+00,2.932e+00,4.679e+00,5.157e+00,3.438e+00,3.617e+00,4.462e+00,5.568e+00,5.220e+00,4.333e+00,6.126e+00,5.418e+00,7.387e+00,7.145e+00,7.695e+00,7.532e+00,6.164e+00,8.703e+00,6.482e+00,9.045e+00,8.665e+00,8.859e+00,9.685e+00,8.357e+00,8.447e+00,1.020e+01,8.602e+00,1.064e+01,7.533e+00,7.144e+00,9.490e+00,8.616e+00,8.461e+00,7.510e+00,7.787e+00,8.229e+00,9.926e+00,8.839e+00,9.556e+00,7.498e+00,1.207e+01,8.963e+00,8.650e+00,7.900e+00,9.214e+00,9.712e+00,6.645e+00,7.622e+00,7.538e+00,9.826e+00,8.016e+00,7.786e+00,8.846e+00,7.583e+00,8.487e+00,1.043e+01,8.428e+00,8.737e+00,8.986e+00,1.014e+01,7.978e+00,8.063e+00,6.394e+00,1.064e+01,8.139e+00,9.194e+00,9.010e+00,7.786e+00,7.820e+00,8.529e+00,8.064e+00,1.021e+01,7.647e+00
3.496e-02,7.770e-02,3.587e-01,1.111e+00,9.027e-01,1.044e+00,1.475e+00,2.031e+00,2.522e+00,3.677e+00,2.800e+00,2.095e+00,3.830e+00,3.637e+00,3.303e+00,3.993e+00,5.742e+00,5.295e+00,4.743e+00,4.361e+00,5.948e+00,6.296e+00,6.914e+00,4.921e+00,7.381e+00,6.608e+00,8.632e+00,8.850e+00,8.721e+00,8.328e+00,6.641e+00,1.012e+01,6.966e+00,1.041e+01,9.762e+00,9.379e+00,1.175e+01,1.026e+01,9.709e+00,1.206e+01,1.015e+01,1.058e+01,1.049e+01,9.085e+00,1.112e+01,1.005e+01,9.290e+00,8.960e+00,1.006e+01,8.914e+00,1.253e+01,1.004e+01,1.017e+01,9.430e+00,1.406e+01,1.060e+01,8.842e+00,9.712e+00,1.166e+01,1.183e+01,6.804e+00,8.283e+00,9.011e+00,1.067e+01,8.826e+00,9.447e+00,1.070e+01,8.656e+00,9.024e+00,1.151e+01,9.817e+00,1.127e+01,1.010e+01,1.116e+01,9.050e+00,9.000e+00,7.473e+00,1.049e+01,1.037e+01,9.763e+00,9.609e+00,1.073e+01,9.253e+00,1.052e+01,9.739e+00,1.213e+01,9.112e+00
7.231e-02,1.408e-01,5.531e-01,1.008e+00,7.785e-01,8.691e-01,1.087e+00,1.836e+00,2.351e+00,2.875e+00,2.283e+00,1.788e+00,3.482e+00,3.430e+00,3.052e+00,3.958e+00,5.678e+00,5.888e+00,4.164e+00,4.908e+00,4.751e+00,5.522e+00,6.218e+00,4.584e+00,6.127e+00,6.533e+00,7.925e+00,7.281e+00,8.455e+00,7.522e+00,5.719e+00,6.764e+00,6.898e+00,8.751e+00,9.216e+00,6.776e+00,9.569e+00,8.597e+00,9.620e+00,8.973e+00,8.652e+00,9.592e+00,8.548e+00,7.325e+00,9.088e+00,9.130e+00,7.705e+00,7.712e+00,7.826e+00,7.357e+00,9.509e+00,7.110e+00,8.491e+00,8.466e+00,1.191e+01,9.307e+00,8.163e+00,8.665e+00,9.905e+00,9.351e+00,6.991e+00,8.312e+00,8.177e+00,9.794e+00,6.953e+00,7.211e+00,9.435e+00,8.333e+00,7.781e+00,8.999e+00,7.898e+00,8.243e+00,8.663e+00,9.275e+00,8.018e+00,8.462e+00,7.982e+00,8.393e+00,9.959e+00,8.623e+00,9.123e+00,8.690e+00,6.440e+00,8.973e+00,7.825e+00,9.084e+00,8.174e+00
1.739e-01,3.199e-01,1.103e+00,1.382e+00,1.103e+00,1.083e+00,1.322e+00,2.224e+00,2.693e+00,2.582e+00,2.877e+00,2.148e+00,4.040e+00,3.262e+00,2.523e+00,3.609e+00,4.779e+00,6.064e+00,4.507e+00,5.427e+00,5.909e+00,6.231e+00,7.081e+00,6.110e+00,6.894e+00,7.022e+00,9.498e+00,9.319e+00,9.652e+00,8.725e+00,7.265e+00,9.931e+00,8.292e+00,1.129e+01,1.053e+01,9.959e+00,1.277e+01,1.060e+01,1.071e+01,1.261e+01,1.050e+01,1.347e+01,1.060e+01,9.937e+00,1.319e+01,1.161e+01,1.157e+01,1.094e+01,1.038e+01,1.032e+01,1.344e+01,1.115e+01,1.210e+01,1.204e+01,1.598e+01,1.188e+01,1.023e+01,1.091e+01,1.348e+01,1.225e+01,8.984e+00,1.145e+01,1.051e+01,1.248e+01,1.013e+01,1.039e+01,1.119e+01,9.980e+00,1.040e+01,1.329e+01,1.115e+01,1.295e+01,1.230e+01,1.162e+01,1.051e+01,1.062e+01,9.148e+00,1.234e+01,1.236e+01,1.235e+01,1.276e+01,1.020e+01,1.097e+01,1.167e+01,1.213e+01,1.230e+01,1.085e+01
1.532e-01,2.635e-01,8.484e-01,6.173e-01,4.749e-01,9.720e-01,1.118e+00,2.170e+00,1.868e+00,2.273e+00,1.672e+00,2.044e+00,3.500e+00,2.617e+00,1.831e+00,2.684e+00,4.154e+00,4.393e+00,4.032e+00,3.647e+00,4.267e+00,5.485e+00,4.453e+00,5.300e+00,6.003e+00,5.343e+00,7.675e+00,7.240e+00,8.335e+00,7.011e+00,6.570e+00,8.453e+00,6.330e+00,8.327e+00,8.563e+00,8.129e+00,9.052e+00,8.694e+00,8.920e+00,1.114e+01,8.421e+00,1.033e+01,8.394e+00,7.208e+00,1.131e+01,1.082e+01,9.266e+00,8.336e+00,7.793e+00,7.955e+00,1.011e+01,9.912e+00,9.887e+00,9.081e+00,1.261e+01,9.337e+00,8.411e+00,8.505e+00,9.596e+00,9.376e+00,7.739e+00,8.517e+00,8.598e+00,1.109e+01,7.794e+00,8.988e+00,9.337e+00,8.123e+00,8.986e+00,1.113e+01,9.114e+00,9.935e+00,9.464e+00,1.081e+01,8.904e+00,9.506e+00,6.651e+00,9.990e+00,9.502e+00,8.978e+00,1.053e+01,8.473e+00,9.140e+00,8.687e+00,9.708e+00,1.062e+01,8.635e+00
1.746e-01,2.786e-01,9.261e-01,1.473e+00,1.189e+00,6.103e-01,9.565e-01,2.163e+00,2.916e+00,2.963e+00,3.211e+00,2.837e+00,4.682e+00,4.055e+00,3.142e+00,4.243e+00,6.355e+00,6.721e+00,5.555e+00,5.991e+00,6.729e+00,6.947e+00,6.978e+00,6.556e+00,7.807e+00,7.529e+00,9.079e+00,8.791e+00,9.051e+00,9.366e+00,7.897e+00,1.038e+01,8.250e+00,1.116e+01,1.117e+01,8.828e+00,1.144e+01,9.937e+00,1.183e+01,1.252e+01,1.065e+01,1.192e+01,1.039e+01,1.008e+01,1.141e+01,1.350e+01,1.077e+01,9.699e+00,1.035e+01,1.007e+01,1.240e+01,9.680e+00,1.131e+01,1.042e+01,1.528e+01,1.175e+01,9.577e+00,8.905e+00,1.238e+01,1.154e+01,8.731e+00,1.006e+01,1.075e+01,1.203e+01,8.825e+00,1.053e+01,1.213e+01,9.748e+00,1.080e+01,1.274e+01,1.082e+01,1.117e+01,1.116e+01,1.286e+01,9.677e+00,1.012e+01,9.162e+00,1.109e+01,1.183e+01,1.085e+01,1.276e+01,9.696e+00,1.058e+01,1.096e+01,1.089e+01,1.183e+01,1.132e+01
1.509e-01,2.376e-01,8.291e-01,1.057e+00,7.702e-01,1.443e+00,1.714e+00,3.224e+00,3.122e+00,3.771e+00,3.261e+00,3.555e+00,5.245e+00,4.306e+00,3.750e+00,3.907e+00,6.482e+00,5.806e+00,4.761e+00,4.607e+00,5.358e+00,6.346e+00,6.059e+00,5.012e+00,7.500e+00,6.523e+00,7.060e+00,7.523e+00,8.338e+00,7.688e+00,5.573e+00,7.422e+00,7.111e+00,9.050e+00,9.371e+00,8.158e+00,9.415e+00,9.639e+00,9.780e+00,1.086e+01,9.835e+00,1.008e+01,9.400e+00,9.586e+00,1.151e+01,1.108e+01,1.003e+01,9.176e+00,8.937e+00,8.510e+00,1.117e+01,9.753e+00,1.060e+01,9.172e+00,1.273e+01,9.285e+00,8.359e+00,8.857e+00,1.043e+01,8.942e+00,7.596e+00,9.097e+00,9.636e+00,1.069e+01,8.746e+00,9.072e+00,1.021e+01,8.259e+00,9.189e+00,1.036e+01,1.031e+01,9.561e+00,9.717e+00,1.125e+01,1.026e+01,9.223e+00,8.257e+00,9.601e+00,9.432e+00,9.893e+00,1.114e+01,9.351e+00,9.474e+00,9.910e+00,9.148e+00,1.080e+01,1.021e+01
6.510e-02,1.610e-01,6.546e-01,9.649e-01,7.420e-01,1.494e+00,1.727e+00,2.857e+00,2.735e+00,3.343e+00,3.068e+00,2.551e+00,4.583e+00,4.026e+00,3.317e+00,4.843e+00,6.526e+00,6.835e+00,4.965e+00,5.519e+00,6.283e+00,6.951e+00,7.085e+00,6.481e+00,6.427e+00,8.194e+00,1.018e+01,9.393e+00,1.040e+01,9.503e+00,7.907e+00,9.254e+00,8.659e+00,1.132e+01,1.187e+01,1.051e+01,1.321e+01,1.263e+01,1.235e+01,1.450e+01,1.250e+01,1.427e+01,1.275e+01,1.114e+01,1.518e+01,1.406e+01,1.191e+01,1.264e+01,1.145e+01,1.141e+01,1.537e+01,1.324e+01,1.330e+01,1.281e+01,1.740e+01,1.379e+01,1.205e+01,1.269e+01,1.474e+01,1.354e+01,9.930e+00,1.399e+01,1.268e+01,1.419e+01,1.133e+01,1.164e+01,1.393e+01,1.064e+01,1.152e+01,1.377e+01,1.271e+01,1.503e+01,1.365e+01,1.318e+01,1.322e+01,1.136e+01,1.027e+01,1.335e+01,1.333e+01,1.370e+01,1.348e+01,1.245e+01,1.169e+01,1.397e+01,1.314e+01,1.360e+01,1.280e+01
3.747e-03,2.002e-02,2.074e-01,1.542e+00,1.291e+00,1.155e+00,1.823e+00,2.346e+00,3.125e+00,3.427e+00,2.678e+00,2.117e+00,3.177e+00,3.795e+00,2.402e+00,3.644e+00,5.473e+00,5.580e+00,4.390e+00,5.023e+00,5.745e+00,5.797e+00,7.142e+00,5.520e+00,6.479e+00,7.596e+00,8.627e+00,8.738e+00,8.128e+00,9.749e+00,6.184e+00,1.018e+01,6.752e+00,9.886e+00,9.747e+00,8.199e+00,1.150e+01,9.682e+00,1.003e+01,1.238e+01,1.039e+01,1.340e+01,1.104e+01,8.201e+00,1.273e+01,1.185e+01,1.061e+01,1.178e+01,1.058e+01,1.007e+01,1.322e+01,1.174e+01,1.200e+01,1.071e+01,1.440e+01,1.143e+01,1.059e+01,1.088e+01,1.187e+01,1.262e+01,7.724e+00,1.107e+01,9.760e+00,1.238e+01,9.533e+00,9.831e+00,1.162e+01,8.623e+00,1.123e+01,1.181e+01,1.216e+01,1.294e+01,1.254e+01,1.219e+01,1.141e+01,9.577e+00,8.876e+00,1.186e+01,1.167e+01,1.184e+01,1.106e+01,1.032e+01,9.537e+00,1.222e+01,1.131e+01,1.176e+01,1.095e+01
1.237e-01,2.202e-01,7.292e-01,8.425e-01,7.085e-01,1.302e+00,1.797e+00,2.856e+00,2.939e+00,3.523e+00,2.229e+00,2.149e+00,3.516e+00,3.344e+00,2.856e+00,3.241e+00,5.658e+00,5.219e+00,4.951e+00,3.702e+00,5.032e+00,5.442e+00,5.765e+00,4.915e+00,5.637e+00,6.029e+00,7.515e+00,7.002e+00,8.222e+00,7.796e+00,4.376e+00,7.103e+00,5.900e+00,8.876e+00,8.293e+00,7.835e+00,8.473e+00,7.985e+00,8.200e+00,9.289e+00,9.480e+00,1.142e+01,9.766e+00,8.729e+00,1.248e+01,9.924e+00,9.552e+00,1.071e+01,8.989e+00,8.287e+00,1.218e+01,1.082e+01,1.049e+01,9.504e+00,1.215e+01,1.076e+01,8.906e+00,9.720e+00,1.056e+01,1.038e+01,7.139e+00,1.068e+01,9.640e+00,1.175e+01,9.269e+00,9.544e+00,9.322e+00,8.237e+00,9.664e+00,1.020e+01,8.769e+00,1.094e+01,1.054e+01,1.085e+01,9.554e+00,9.777e+00,7.978e+00,1.158e+01,1.078e+01,1.006e+01,1.036e+01,9.607e+00,9.864e+00,1.108e+01,1.138e+01,9.802e+00,8.690e+00
1.059e-01,1.921e-01,7.530e-01,1.569e+00,1.221e+00,1.289e+00,1.595e+00,2.544e+00,2.968e+00,3.409e+00,2.879e+00,2.945e+00,4.353e+00,4.478e+00,3.087e+00,4.685e+00,5.902e+00,6.070e+00,5.464e+00,5.982e+00,6.013e+00,6.390e+00,7.679e+00,6.512e+00,7.870e+00,7.154e+00,9.526e+00,9.016e+00,9.606e+00,9.934e+00,6.973e+00,1.031e+01,8.085e+00,1.100e+01,1.096e+01,9.351e+00,1.237e+01,1.102e+01,1.222e+01,1.372e+01,1.155e+01,1.327e+01,1.177e+01,1.125e+01,1.454e+01,1.475e+01,1.265e+01,1.255e+01,1.319e+01,1.089e+01,1.496e+01,1.341e+01,1.363e+01,1.268e+01,1.716e+01,1.258e+01,1.238e+01,1.191e+01,1.411e+01,1.342e+01,1.045e+01,1.310e+01,1.266e+01,1.477e+01,1.081e+01,1.102e+01,1.289e+01,1.150e+01,1.239e+01,1.422e+01,1.367e+01,1.340e+01,1.327e+01,1.438e+01,1.271e+01,1.120e+01,1.109e+01,1.409e+01,1.411e+01,1.265e+01,1.377e+01,1.188e+01,1.263e+01,1.247e+01,1.301e+01,1.437e+01,1.247e+01
3.334e-02,8.993e-02,4.030e-01,1.019e+00,8.198e-01,7.295e-01,1.008e+00,1.963e+00,2.243e+00,2.687e+00,2.925e+00,1.885e+00,3.504e+00,3.501e+00,2.970e+00,4.216e+00,5.515e+00,5.816e+00,3.835e+00,4.813e+00,5.275e+00,5.651e+00,6.220e+00,5.790e+00,5.968e+00,6.841e+00,8.601e+00,7.059e+00,7.713e+00,8.222e+00,5.982e+00,8.301e+00,7.351e+00,8.615e+00,9.305e+00,6.967e+00,1.003e+01,8.993e+00,9.443e+00,1.102e+01,9.318e+00,1.152e+01,9.941e+00,8.860e+00,1.293e+01,1.267e+01,1.177e+01,9.919e+00,1.067e+01,1.101e+01,1.286e+01,1.104e+01,1.146e+01,1.046e+01,1.414e+01,1.231e+01,1.309e+01,1.112e+01,1.206e+01,1.219e+01,8.598e+00,1.097e+01,1.157e+01,1.217e+01,9.466e+00,1.095e+01,1.068e+01,9.766e+00,1.171e+01,1.250e+01,1.195e+01,1.256e+01,1.258e+01,1.247e+01,1.033e+01,1.076e+01,8.857e+00,1.252e+01,1.205e+01,1.191e+01,1.131e+01,1.097e+01,9.863e+00,1.151e+01,1.174e+01,1.193e+01,1.065e+01
5.269e-03,5.927e-02,3.584e-01,1.301e+00,1.063e+00,1.185e+00,1.555e+00,2.243e+00,2.538e+00,3.124e+00,2.750e+00,1.784e+00,3.561e+00,3.394e+00,2.290e+00,3.203e+00,4.089e+00,4.814e+00,3.757e+00,4.231e+00,4.689e+00,5.530e+00,5.644e+00,5.285e+00,5.705e+00,5.915e+00,7.525e+00,7.291e+00,7.390e+00,7.867e+00,6.728e+00,8.821e+00,6.449e+00,8.831e+00,8.651e+00,7.744e+00,1.002e+01,9.011e+00,9.920e+00,1.153e+01,9.592e+00,1.180e+01,9.505e+00,8.734e+00,1.288e+01,1.264e+01,1.196e+01,1.136e+01,1.152e+01,1.060e+01,1.282e+01,1.173e+01,1.155e+01,1.085e+01,1.467e+01,1.149e+01,1.231e+01,1.062e+01,1.244e+01,1.226e+01,9.294e+00,1.093e+01,1.146e+01,1.219e+01,9.752e+00,1.038e+01,1.099e+01,9.784e+00,1.123e+01,1.292e+01,1.149e+01,1.303e+01,1.171e+01,1.366e+01,1.069e+01,9.207e+00,1.001e+01,1.315e+01,1.273e+01,1.197e+01,1.258e+01,1.109e+01,1.037e+01,1.139e+01,1.168e+01,1.282e+01,1.094e+01
1.432e-01,2.251e-01,7.634e-01,1.463e+00,1.219e+00,1.218e+00,1.819e+00,2.502e+00,3.034e+00,3.329e+00,2.865e+00,2.516e+00,4.130e+00,3.402e+00,2.457e+00,3.308e+00,5.912e+00,5.725e+00,4.114e+00,4.797e+00,5.408e+00,5.866e+00,6.536e+00,5.145e+00,6.356e+00,6.520e+00,7.997e+00,7.486e+00,8.481e+00,8.647e+00,5.823e+00,9.753e+00,6.961e+00,9.719e+00,9.725e+00,9.000e+00,1.053e+01,9.176e+00,1.016e+01,1.044e+01,1.022e+01,1.130e+01,9.956e+00,1.034e+01,1.323e+01,1.328e+01,1.161e+01,1.082e+01,1.269e+01,1.174e+01,1.337e+01,1.184e+01,1.397e+01,1.183e+01,1.469e+01,1.280e+01,1.132e+01,1.241e+01,1.392e+01,1.317e+01,9.247e+00,1.189e+01,1.221e+01,1.341e+01,1.092e+01,1.128e+01,1.332e+01,1.131e+01,1.330e+01,1.320e+01,1.281e+01,1.239e+01,1.195e+01,1.358e+01,1.244e+01,1.147e+01,1.029e+01,1.327e+01,1.238e+01,1.262e+01,1.338e+01,1.156e+01,1.130e+01,1.218e+01,1.268e+01,1.210e+01,1.196e+01
1.674e-02,8.780e-02,4.769e-01,1.319e+00,1.043e+00,1.545e+00,1.776e+00,2.513e+00,2.736e+00,3.162e+00,2.949e+00,1.968e+00,3.778e+00,3.421e+00,2.732e+00,3.803e+00,5.915e+00,5.662e+00,4.942e+00,4.639e+00,5.775e+00,5.874e+00,5.759e+00,6.109e+00,6.590e+00,6.650e+00,8.564e+00,8.626e+00,9.094e+00,8.540e+00,5.758e+00,8.578e+00,7.481e+00,9.305e+00,9.789e+00,8.556e+00,9.912e+00,9.386e+00,8.865e+00,1.163e+01,8.982e+00,1.182e+01,1.043e+01,9.355e+00,1.316e+01,1.195e+01,1.326e+01,1.194e+01,1.172e+01,1.029e+01,1.257e+01,1.217e+01,1.234e+01,1.091e+01,1.349e+01,1.183e+01,1.191e+01,1.210e+01,1.158e+01,1.233e+01,9.017e+00,1.178e+01,1.071e+01,1.276e+01,1.090e+01,1.144e+01,1.004e+01,1.130e+01,1.139e+01,1.253e+01,1.229e+01,1.350e+01,1.314e+01,1.457e+01,1.128e+01,1.175e+01,1.071e+01,1.275e+01,1.331e+01,1.262e+01,1.335e+01,1.085e+01,1.092e+01,1.375e+01,1.130e+01,1.309e+01,1.189e+01
1.050e-01,1.751e-01,6.593e-01,1.478e+00,1.193e+00,1.378e+00,1.957e+00,2.885e+00,3.278e+00,3.874e+00,3.308e+00,2.868e+00,4.691e+00,4.144e+00,3.208e+00,3.991e+00,5.930e+00,5.840e+00,4.525e+00,5.164e+00,5.252e+00,5.768e+00,6.287e+00,4.702e+00,7.297e+00,6.649e+00,7.303e+00,8.155e+00,8.328e+00,7.527e+00,5.556e+00,8.047e+00,6.698e+00,1.005e+01,9.503e+00,7.923e+00,9.758e+00,9.124e+00,9.644e+00,1.040e+01,1.011e+01,1.159e+01,1.102e+01,1.014e+01,1.277e+01,1.214e+01,1.219e+01,1.165e+01,1.152e+01,1.112e+01,1.358e+01,1.169e+01,1.211e+01,1.149e+01,1.589e+01,1.293e+01,1.233e+01,1.250e+01,1.328e+01,1.221e+01,1.051e+01,1.140e+01,1.202e+01,1.428e+01,1.163e+01,1.235e+01,1.252e+01,1.192e+01,1.192e+01,1.336e+01,1.242e+01,1.299e+01,1.208e+01,1.475e+01,1.194e+01,1.189e+01,1.099e+01,1.278e+01,1.390e+01,1.303e+01,1.358e+01,1.297e+01,1.107e+01,1.379e+01,1.314e+01,1.284e+01,1.223e+01
7.205e-02,1.651e-01,7.464e-01,2.021e+00,1.599e+00,1.474e+00,1.671e+00,2.128e+00,3.319e+00,3.526e+00,3.313e+00,2.877e+00,4.639e+00,4.657e+00,3.409e+00,4.216e+00,5.876e+00,5.222e+00,4.625e+00,5.648e+00,4.754e+00,5.406e+00,6.575e+00,5.360e+00,6.661e+00,6.474e+00,7.131e+00,6.983e+00,8.264e+00,8.104e+00,5.828e+00,7.851e+00,7.114e+00,9.062e+00,7.994e+00,7.109e+00,9.821e+00,9.967e+00,9.873e+00,1.062e+01,9.118e+00,1.078e+01,9.627e+00,9.335e+00,1.362e+01,1.251e+01,1.153e+01,1.060e+01,1.208e+01,1.077e+01,1.452e+01,1.107e+01,1.315e+01,1.280e+01,1.456e+01,1.270e+01,1.213e+01,1.310e+01,1.403e+01,1.288e+01,1.071e+01,1.147e+01,1.110e+01,1.335e+01,1.178e+01,1.154e+01,1.131e+01,1.194e+01,1.317e+01,1.295e+01,1.197e+01,1.128e+01,1.315e+01,1.344e+01,1.155e+01,1.136e+01,1.147e+01,1.351e+01,1.296e+01,1.191e+01,1.427e+01,1.248e+01,1.231e+01,1.196e+01,1.296e+01,1.385e+01,1.222e+01
5.094e-03,3.248e-02,1.762e-01,6.999e-01,6.021e-01,9.154e-01,1.368e+00,2.102e+00,2.045e+00,2.679e+00,2.588e+00,2.285e+00,3.709e+00,3.408e+00,2.778e+00,3.819e+00,4.641e+00,4.009e+00,3.975e+00,4.095e+00,4.611e+00,4.602e+00,5.313e+00,5.119e+00,5.929e+00,5.849e+00,5.968e+00,5.846e+00,6.796e+00,6.581e+00,4.707e+00,6.682e+00,6.209e+00,8.150e+00,6.971e+00,7.133e+00,8.959e+00,7.918e+00,7.536e+00,9.395e+00,8.034e+00,9.633e+00,7.997e+00,7.935e+00,1.131e+01,1.066e+01,1.039e+01,9.053e+00,1.055e+01,8.483e+00,1.217e+01,1.073e+01,1.123e+01,1.009e+01,1.351e+01,1.026e+01,1.026e+01,1.185e+01,1.159e+01,1.075e+01,8.064e+00,1.098e+01,9.473e+00,1.207e+01,9.240e+00,9.282e+00,1.035e+01,9.214e+00,9.943e+00,1.238e+01,1.131e+01,1.211e+01,1.243e+01,1.224e+01,1.001e+01,1.045e+01,9.227e+00,1.199e+01,1.110e+01,1.167e+01,9.959e+00,1.061e+01,9.973e+00,1.083e+01,1.151e+01,1.224e+01,1.032e+01
5.047e-02,1.133e-01,5.469e-01,1.844e+00,1.478e+00,1.298e+00,1.696e+00,2.875e+00,3.278e+00,3.701e+00,3.305e+00,2.640e+00,4.165e+00,4.294e+00,2.889e+00,4.326e+00,6.052e+00,5.049e+00,5.161e+00,5.305e+00,5.675e+00,6.639e+00,6.577e+00,5.997e+00,6.744e+00,6.626e+00,8.370e+00,8.440e+00,9.046e+00,8.862e+00,6.723e+00,9.367e+00,6.642e+00,1.018e+01,1.010e+01,8.676e+00,1.069e+01,1.042e+01,1.155e+01,1.247e+01,1.103e+01,1.261e+01,1.171e+01,1.046e+01,1.541e+01,1.541e+01,1.298e+01,1.262e+01,1.291e+01,1.204e+01,1.574e+01,1.587e+01,1.422e+01,1.482e+01,1.804e+01,1.521e+01,1.418e+01,1.545e+01,1.681e+01,1.468e+01,1.251e+01,1.526e+01,1.543e+01,1.731e+01,1.329e+01,1.311e+01,1.531e+01,1.391e+01,1.381e+01,1.564e+01,1.750e+01,1.613e+01,1.531e+01,1.710e+01,1.399e+01,1.454e+01,1.285e+01,1.546e+01,1.595e+01,1.545e+01,1.526e+01,1.455e+01,1.419e+01,1.505e+01,1.542e+01,1.590e+01,1.526e+01
2.434e-02,3.974e-02,2.049e-01,8.005e-01,6.460e-01,1.209e+00,1.736e+00,2.553e+00,2.289e+00,2.912e+00,2.570e+00,2.806e+00,4.038e+00,4.050e+00,2.974e+00,3.905e+00,6.108e+00,5.509e+00,3.903e+00,4.429e+00,6.026e+00,5.755e+00,6.515e+00,5.848e+00,7.189e+00,7.224e+00,7.939e+00,7.936e+00,8.203e+00,8.281e+00,5.495e+00,8.332e+00,6.545e+00,8.937e+00,9.624e+00,8.007e+00,1.032e+01,1.016e+01,8.797e+00,1.101e+01,9.666e+00,1.073e+01,1.048e+01,9.175e+00,1.186e+01,1.127e+01,1.051e+01,1.008e+01,1.021e+01,1.152e+01,1.287e+01,1.211e+01,1.196e+01,1.060e+01,1.538e+01,1.212e+01,1.105e+01,1.183e+01,1.288e+01,1.241e+01,9.685e+00,1.135e+01,1.153e+01,1.361e+01,1.195e+01,1.184e+01,1.273e+01,1.049e+01,1.106e+01,1.310e+01,1.293e+01,1.343e+01,1.243e+01,1.389e+01,1.207e+01,1.189e+01,9.266e+00,1.289e+01,1.204e+01,1.184e+01,1.162e+01,1.258e+01,1.115e+01,1.257e+01,1.206e+01,1.413e+01,1.174e+01
1.701e-01,2.812e-01,9.398e-01,1.388e+00,1.135e+00,1.235e+00,1.694e+00,2.861e+00,3.276e+00,3.549e+00,2.613e+00,2.509e+00,3.785e+00,3.692e+00,2.757e+00,2.805e+00,5.312e+00,5.078e+00,4.371e+00,4.274e+00,5.202e+00,5.698e+00,5.941e+00,5.429e+00,6.657e+00,6.282e+00,7.384e+00,6.999e+00,7.921e+00,8.054e+00,5.822e+00,8.769e+00,6.489e+00,8.670e+00,8.622e+00,7.530e+00,9.119e+00,8.932e+00,8.862e+00,9.927e+00,9.233e+00,1.080e+01,9.680e+00,8.982e+00,1.249e+01,1.153e+01,1.077e+01,1.037e+01,1.036e+01,1.106e+01,1.352e+01,1.341e+01,1.281e+01,1.279e+01,1.734e+01,1.247e+01,1.224e+01,1.397e+01,1.505e+01,1.374e+01,1.268e+01,1.393e+01,1.354e+01,1.573e+01,1.368e+01,1.233e+01,1.399e+01,1.306e+01,1.288e+01,1.486e+01,1.463e+01,1.316e+01,1.371e+01,1.578e+01,1.161e+01,1.301e+01,1.204e+01,1.458e+01,1.328e+01,1.345e+01,1.365e+01,1.355e+01,1.348e+01,1.381e+01,1.429e+01,1.498e+01,1.312e+01
4.894e-02,1.049e-01,4.168e-01,1.225e+00,1.048e+00,8.451e-01,1.364e+00,2.372e+00,2.722e+00,3.010e+00,2.776e+00,2.156e+00,3.951e+00,3.504e+00,2.552e+00,3.691e+00,4.660e+00,4.068e+00,3.839e+00,4.392e+00,4.015e+00,4.538e+00,4.895e+00,4.440e+00,4.792e+00,5.291e+00,5.753e+00,5.445e+00,6.527e+00,6.363e+00,4.970e+00,5.937e+00,5.520e+00,7.996e+00,7.564e+00,6.878e+00,8.617e+00,8.110e+00,9.356e+00,9.802e+00,8.859e+00,1.058e+01,9.601e+00,8.447e+00,1.287e+01,1.256e+01,1.084e+01,1.068e+01,1.107e+01,1.099e+01,1.300e+01,1.121e+01,1.096e+01,1.260e+01,1.572e+01,1.223e+01,1.212e+01,1.441e+01,1.443e+01,1.258e+01,1.099e+01,1.281e+01,1.191e+01,1.439e+01,1.066e+01,1.216e+01,1.261e+01,1.235e+01,1.280e+01,1.467e+01,1.287e+01,1.382e+01,1.322e+01,1.557e+01,1.157e+01,1.188e+01,1.074e+01,1.447e+01,1.399e+01,1.290e+01,1.390e+01,1.356e+01,1.154e+01,1.294e+01,1.433e+01,1.515e+01,1.339e+01
1.725e-01,2.998e-01,1.057e+00,1.603e+00,1.262e+00,1.200e+00,1.472e+00,2.560e+00,3.035e+00,2.800e+00,3.078e+00,2.730e+00,4.586e+00,4.049e+00,2.840e+00,3.800e+00,5.727e+00,6.954e+00,4.265e+00,5.672e+00,5.002e+00,5.381e+00,6.335e+00,5.405e+00,6.566e+00,7.487e+00,7.901e+00,7.637e+00,7.758e+00,7.355e+00,5.949e+00,8.082e+00,7.864e+00,9.210e+00,8.343e+00,7.791e+00,1.101e+01,8.620e+00,1.040e+01,1.110e+01,9.690e+00,1.158e+01,9.416e+00,1.009e+01,1.252e+01,1.274e+01,1.238e+01,1.083e+01,1.219e+01,1.068e+01,1.452e+01,1.323e+01,1.315e+01,1.165e+01,1.667e+01,1.417e+01,1.288e+01,1.452e+01,1.543e+01,1.385e+01,1.171e+01,1.441e+01,1.418e+01,1.514e+01,1.425e+01,1.297e+01,1.318e+01,1.348e+01,1.269e+01,1.718e+01,1.333e+01,1.360e+01,1.446e+01,1.584e+01,1.314e+01,1.348e+01,1.288e+01,1.569e+01,1.520e+01,1.373e+01,1.571e+01,1.420e+01,1.279e+01,1.391e+01,1.506e+01,1.523e+01,1.466e+01
1.559e-01,2.989e-01,1.147e+00,1.710e+00,1.269e+00,1.686e+00,1.581e+00,2.573e+00,3.145e+00,2.737e+00,3.156e+00,2.753e+00,4.511e+00,3.446e+00,2.529e+00,3.725e+00,5.415e+00,5.839e+00,4.349e+00,5.195e+00,4.022e+00,5.292e+00,5.395e+00,4.937e+00,5.766e+00,5.923e+00,7.535e+00,7.492e+00,8.476e+00,7.616e+00,5.234e+00,6.772e+00,8.043e+00,8.191e+00,8.942e+00,7.679e+00,9.427e+00,8.646e+00,9.000e+00,9.673e+00,8.868e+00,1.089e+01,9.365e+00,9.137e+00,1.300e+01,1.293e+01,1.258e+01,1.072e+01,1.245e+01,1.167e+01,1.338e+01,1.232e+01,1.199e+01,1.260e+01,1.548e+01,1.368e+01,1.220e+01,1.371e+01,1.662e+01,1.304e+01,1.238e+01,1.578e+01,1.421e+01,1.554e+01,1.296e+01,1.253e+01,1.258e+01,1.405e+01,1.460e+01,1.522e+01,1.496e+01,1.358e+01,1.507e+01,1.437e+01,1.375e+01,1.294e+01,1.240e+01,1.408e+01,1.521e+01,1.460e+01,1.633e+01,1.397e+01,1.354e+01,1.358e+01,1.332e+01,1.550e+01,1.408e+01
7.279e-02,1.734e-01,7.345e-01,1.689e+00,1.352e+00,1.277e+00,1.430e+00,2.223e+00,3.229e+00,4.106e+00,3.421e+00,2.484e+00,3.888e+00,3.948e+00,3.077e+00,4.456e+00,5.515e+00,5.629e+00,5.564e+00,5.713e+00,5.502e+00,6.608e+00,6.066e+00,6.224e+00,6.470e+00,6.807e+00,8.277e+00,7.406e+00,8.909e+00,8.536e+00,6.734e+00,9.703e+00,8.356e+00,9.182e+00,8.959e+00,8.076e+00,1.060e+01,9.360e+00,1.020e+01,1.238e+01,9.573e+00,1.173e+01,9.924e+00,9.491e+00,1.404e+01,1.421e+01,1.198e+01,1.110e+01,1.244e+01,1.087e+01,1.420e+01,1.360e+01,1.312e+01,1.419e+01,1.754e+01,1.324e+01,1.373e+01,1.584e+01,1.617e+01,1.536e+01,1.225e+01,1.506e+01,1.421e+01,1.673e+01,1.297e+01,1.372e+01,1.468e+01,1.387e+01,1.466e+01,1.739e+01,1.476e+01,1.543e+01,1.603e+01,1.608e+01,1.398e+01,1.339e+01,1.373e+01,1.537e+01,1.507e+01,1.460e+01,1.499e+01,1.546e+01,1.447e+01,1.495e+01,1.573e+01,1.657e+01,1.451e+01
1.568e-02,2.897e-02,1.776e-01,1.204e+00,1.014e+00,5.698e-01,9.405e-01,1.396e+00,1.944e+00,2.340e+00,2.740e+00,2.260e+00,2.786e+00,3.220e+00,2.194e+00,3.593e+00,4.775e+00,4.572e+00,4.040e+00,4.706e+00,4.900e+00,4.707e+00,5.778e+00,5.049e+00,5.687e+00,5.385e+00,6.220e+00,6.297e+00,7.211e+00,8.115e+00,4.819e+00,8.243e+00,6.294e+00,8.048e+00,7.240e+00,7.135e+00,8.742e+00,8.758e+00,9.153e+00,1.033e+01,8.594e+00,1.016e+01,9.147e+00,9.287e+00,1.156e+01,1.161e+01,1.127e+01,1.036e+01,1.037e+01,1.010e+01,1.237e+01,1.221e+01,1.185e+01,1.223e+01,1.539e+01,1.195e+01,1.191e+01,1.187e+01,1.525e+01,1.305e+01,1.150e+01,1.392e+01,1.456e+01,1.538e+01,1.394e+01,1.328e+01,1.247e+01,1.258e+01,1.387e+01,1.488e+01,1.401e+01,1.438e+01,1.419e+01,1.477e+01,1.424e+01,1.149e+01,1.376e+01,1.447e+01,1.485e+01,1.372e+01,1.401e+01,1.360e+01,1.437e+01,1.390e+01,1.428e+01,1.502e+01,1.401e+01
6.006e-02,1.142e-01,4.904e-01,9.254e-01,6.737e-01,1.467e+00,1.567e+00,2.058e+00,2.080e+00,2.974e+00,2.468e+00,2.838e+00,4.208e+00,3.654e+00,2.923e+00,3.761e+00,5.577e+00,4.932e+00,3.996e+00,4.134e+00,4.930e+00,5.502e+00,6.270e+00,4.974e+00,6.670e+00,5.705e+00,7.884e+00,8.128e+00,9.709e+00,8.142e+00,5.572e+00,7.598e+00,6.595e+00,8.153e+00,9.223e+00,8.089e+00,9.363e+00,9.174e+00,9.798e+00,1.077e+01,8.791e+00,1.033e+01,1.004e+01,8.713e+00,1.231e+01,1.205e+01,1.117e+01,1.048e+01,1.063e+01,9.697e+00,1.341e+01,1.119e+01,1.106e+01,1.222e+01,1.490e+01,1.255e+01,1.104e+01,1.314e+01,1.458e+01,1.342e+01,1.052e+01,1.474e+01,1.398e+01,1.540e+01,1.258e+01,1.413e+01,1.384e+01,1.213e+01,1.439e+01,1.497e+01,1.513e+01,1.413e+01,1.377e+01,1.486e+01,1.438e+01,1.292e+01,1.158e+01,1.293e+01,1.420e+01,1.433e+01,1.383e+01,1.508e+01,1.359e+01,1.389e+01,1.337e+01,1.518e+01,1.316e+01
4.982e-02,9.453e-02,3.949e-01,8.049e-01,6.111e-01,8.912e-01,1.059e+00,2.039e+00,2.030e+00,2.535e+00,2.336e+00,1.533e+00,2.538e+00,2.245e+00,2.069e+00,3.502e+00,5.120e+00,5.327e+00,3.885e+00,4.428e+00,4.820e+00,5.585e+00,5.721e+00,4.752e+00,6.165e+00,5.764e+00,8.564e+00,7.743e+00,8.527e+00,8.884e+00,6.361e+00,9.614e+00,7.726e+00,9.559e+00,1.054e+01,9.340e+00,1.064e+01,9.980e+00,1.062e+01,1.345e+01,1.061e+01,1.257e+01,1.105e+01,1.123e+01,1.547e+01,1.333e+01,1.364e+01,1.351e+01,1.379e+01,1.420e+01,1.470e+01,1.548e+01,1.407e+01,1.424e+01,1.914e+01,1.554e+01,1.581e+01,1.642e+01,1.792e+01,1.656e+01,1.450e+01,1.656e+01,1.896e+01,1.810e+01,1.647e+01,1.759e+01,1.540e+01,1.673e+01,1.662e+01,1.851e+01,1.734e+01,1.683e+01,1.692e+01,1.771e+01,1.623e+01,1.515e+01,1.487e+01,1.832e+01,1.762e+01,1.787e+01,1.882e+01,1.674e+01,1.663e+01,1.733e+01,1.775e+01,1.924e+01,1.670e+01
7.671e-02,1.223e-01,5.035e-01,1.082e+00,8.020e-01,1.425e+00,1.610e+00,2.057e+00,2.389e+00,3.096e+00,2.040e+00,2.711e+00,4.134e+00,3.870e+00,3.132e+00,3.072e+00,6.215e+00,5.476e+00,4.576e+00,3.957e+00,5.253e+00,5.481e+00,6.506e+00,4.923e+00,7.891e+00,6.784e+00,7.659e+00,8.662e+00,9.363e+00,8.350e+00,6.138e+00,8.927e+00,6.849e+00,9.612e+00,9.492e+00,8.921e+00,1.077e+01,1.009e+01,1.053e+01,1.148e+01,9.954e+00,1.146e+01,1.120e+01,9.446e+00,1.199e+01,1.222e+01,1.092e+01,1.047e+01,1.177e+01,9.376e+00,1.525e+01,1.233e+01,1.233e+01,1.218e+01,1.732e+01,1.396e+01,1.188e+01,1.397e+01,1.679e+01,1.537e+01,1.198e+01,1.709e+01,1.517e+01,1.718e+01,1.569e+01,1.540e+01,1.692e+01,1.303e+01,1.567e+01,1.840e+01,1.563e+01,1.468e+01,1.507e+01,1.634e+01,1.576e+01,1.414e+01,1.517e+01,1.569e+01,1.607e+01,1.623e+01,1.500e+01,1.669e+01,1.432e+01,1.580e+01,1.630e+01,1.833e+01,1.506e+01
3.418e-02,1.216e-01,5.883e-01,1.457e+00,1.162e+00,1.671e+00,1.849e+00,2.517e+00,2.781e+00,3.898e+00,3.262e+00,2.315e+00,4.261e+00,3.368e+00,2.497e+00,4.218e+00,5.538e+00,5.608e+00,5.193e+00,5.058e+00,5.305e+00,6.204e+00,4.895e+00,5.536e+00,6.161e+00,6.323e+00,8.605e+00,8.736e+00,9.025e+00,7.894e+00,7.168e+00,9.637e+00,7.291e+00,1.037e+01,9.893e+00,9.238e+00,1.090e+01,9.836e+00,1.077e+01,1.230e+01,1.076e+01,1.196e+01,1.131e+01,1.009e+01,1.488e+01,1.479e+01,1.255e+01,1.213e+01,1.387e+01,1.144e+01,1.503e+01,1.443e+01,1.327e+01,1.306e+01,1.787e+01,1.479e+01,1.320e+01,1.664e+01,1.626e+01,1.669e+01,1.290e+01,1.582e+01,1.476e+01,1.733e+01,1.533e+01,1.654e+01,1.616e+01,1.527e+01,1.488e+01,1.909e+01,1.505e+01,1.704e+01,1.505e+01,1.751e+01,1.539e+01,1.558e+01,1.468e+01,1.692e+01,1.657e+01,1.576e+01,1.658e+01,1.745e+01,1.590e+01,1.685e+01,1.571e+01,1.731e+01,1.583e+01
9.922e-02,2.024e-01,7.920e-01,1.462e+00,1.142e+00,9.812e-01,9.812e-01,1.753e+00,2.367e+00,2.150e+00,2.867e+00,2.083e+00,3.900e+00,3.145e+00,2.291e+00,2.959e+00,4.490e+00,5.280e+00,3.612e+00,4.715e+00,4.260e+00,5.346e+00,5.678e+00,5.347e+00,5.740e+00,5.826e+00,6.802e+00,6.427e+00,8.145e+00,7.370e+00,6.143e+00,8.262e+00,6.874e+00,7.495e+00,7.629e+00,7.161e+00,8.639e+00,8.162e+00,9.262e+00,1.032e+01,7.903e+00,1.128e+01,8.406e+00,8.438e+00,1.183e+01,1.174e+01,1.206e+01,1.020e+01,1.026e+01,1.021e+01,1.375e+01,1.336e+01,1.244e+01,1.248e+01,1.551e+01,1.319e+01,1.413e+01,1.319e+01,1.511e+01,1.419e+01,1.261e+01,1.478e+01,1.688e+01,1.776e+01,1.538e+01,1.507e+01,1.415e+01,1.566e+01,1.576e+01,1.720e+01,1.528e+01,1.587e+01,1.637e+01,1.614e+01,1.548e+01,1.463e+01,1.535e+01,1.694e+01,1.621e+01,1.664e+01,1.676e+01,1.496e+01,1.490e+01,1.620e+01,1.608e+01,1.737e+01,1.523e+01
9.226e-02,1.948e-01,7.477e-01,1.286e+00,1.029e+00,1.250e+00,1.408e+00,1.660e+00,2.477e+00,3.440e+00,2.307e+00,1.616e+00,3.734e+00,3.131e+00,2.844e+00,3.942e+00,5.699e+00,5.306e+00,4.697e+00,4.514e+00,4.676e+00,5.734e+00,6.151e+00,4.573e+00,6.394e+00,5.340e+00,8.419e+00,7.180e+00,8.879e+00,7.324e+00,6.483e+00,8.582e+00,7.202e+00,7.878e+00,9.076e+00,8.247e+00,9.497e+00,8.757e+00,9.978e+00,1.181e+01,9.265e+00,1.085e+01,1.097e+01,1.077e+01,1.353e+01,1.403e+01,1.190e+01,1.021e+01,1.324e+01,1.236e+01,1.442e+01,1.343e+01,1.194e+01,1.289e+01,1.700e+01,1.433e+01,1.428e+01,1.524e+01,1.670e+01,1.549e+01,1.264e+01,1.535e+01,1.664e+01,1.661e+01,1.502e+01,1.570e+01,1.723e+01,1.641e+01,1.557e+01,1.860e+01,1.620e+01,1.642e+01,1.449e+01,1.649e+01,1.514e+01,1.392e+01,1.316e+01,1.659e+01,1.696e+01,1.735e+01,1.629e+01,1.821e+01,1.615e+01,1.593e+01,1.654e+01,1.942e+01,1.592e+01
8.550e-03,6.403e-02,4.321e-01,1.447e+00,1.097e+00,1.397e+00,1.453e+00,1.988e+00,2.268e+00,3.030e+00,2.942e+00,2.276e+00,4.144e+00,3.577e+00,2.531e+00,4.114e+00,5.349e+00,5.484e+00,4.687e+00,4.894e+00,5.854e+00,6.178e+00,5.378e+00,5.426e+00,6.887e+00,5.343e+00,8.299e+00,8.404e+00,7.603e+00,7.557e+00,6.028e+00,8.667e+00,6.802e+00,8.400e+00,9.093e+00,7.287e+00,9.713e+00,7.932e+00,9.009e+00,1.053e+01,9.310e+00,1.080e+01,1.006e+01,8.937e+00,1.249e+01,1.309e+01,1.138e+01,1.018e+01,1.244e+01,1.046e+01,1.427e+01,1.418e+01,1.172e+01,1.281e+01,1.664e+01,1.521e+01,1.350e+01,1.445e+01,1.584e+01,1.441e+01,1.197e+01,1.513e+01,1.555e+01,1.652e+01,1.583e+01,1.618e+01,1.706e+01,1.620e+01,1.600e+01,1.891e+01,1.734e+01,1.785e+01,1.524e+01,1.833e+01,1.577e+01,1.713e+01,1.652e+01,1.730e+01,1.810e+01,1.668e+01,1.655e+01,1.604e+01,1.666e+01,1.550e+01,1.654e+01,1.827e+01,1.751e+01
1.198e-01,1.896e-01,6.231e-01,7.467e-01,5.805e-01,7.746e-01,9.400e-01,1.832e+00,2.040e+00,2.381e+00,2.218e+00,2.268e+00,3.654e+00,2.413e+00,2.279e+00,3.834e+00,5.364e+00,5.115e+00,5.225e+00,4.910e+00,5.754e+00,5.571e+00,5.325e+00,4.935e+00,6.971e+00,5.399e+00,6.803e+00,6.387e+00,7.135e+00,6.671e+00,4.842e+00,7.959e+00,6.495e+00,8.769e+00,8.723e+00,8.167e+00,9.354e+00,7.865e+00,9.579e+00,1.048e+01,9.096e+00,1.043e+01,1.004e+01,8.372e+00,1.175e+01,1.228e+01,1.138e+01,1.069e+01,1.181e+01,9.148e+00,1.364e+01,1.336e+01,1.134e+01,1.303e+01,1.782e+01,1.352e+01,1.143e+01,1.468e+01,1.666e+01,1.474e+01,1.376e+01,1.482e+01,1.545e+01,1.916e+01,1.515e+01,1.674e+01,1.756e+01,1.739e+01,1.642e+01,2.086e+01,1.782e+01,1.804e+01,1.520e+01,1.761e+01,1.654e+01,1.658e+01,1.717e+01,1.776e+01,1.730e+01,1.870e+01,1.714e+01,1.801e+01,1.717e+01,1.747e+01,1.715e+01,1.958e+01,1.786e+01
1.800e-01,3.115e-01,1.026e+00,9.570e-01,7.490e-01,1.316e+00,1.714e+00,2.986e+00,2.938e+00,4.003e+00,2.661e+00,2.418e+00,4.635e+00,3.593e+00,3.380e+00,3.585e+00,5.050e+00,4.732e+00,4.876e+00,4.198e+00,5.305e+00,6.469e+00,6.151e+00,4.558e+00,7.803e+00,5.252e+00,8.589e+00,8.964e+00,9.080e+00,7.877e+00,6.315e+00,8.055e+00,6.582e+00,9.370e+00,9.170e+00,8.686e+00,1.011e+01,9.359e+00,9.156e+00,1.065e+01,9.854e+00,1.123e+01,1.029e+01,1.005e+01,1.318e+01,1.128e+01,1.173e+01,1.063e+01,1.023e+01,1.090e+01,1.346e+01,1.386e+01,1.220e+01,1.241e+01,1.781e+01,1.335e+01,1.291e+01,1.529e+01,1.567e+01,1.446e+01,1.282e+01,1.586e+01,1.567e+01,1.708e+01,1.617e+01,1.483e+01,1.674e+01,1.711e+01,1.660e+01,1.796e+01,1.599e+01,1.736e+01,1.663e+01,1.795e+01,1.552e+01,1.659e+01,1.535e+01,1.917e+01,1.808e+01,1.793e+01,1.700e+01,1.796e+01,1.829e+01,1.668e+01,1.615e+01,1.939e+01,1.730e+01
1.832e-01,3.209e-01,1.163e+00,1.481e+00,1.069e+00,1.337e+00,1.267e+00,2.441e+00,2.883e+00,2.501e+00,2.025e+00,2.166e+00,3.562e+00,3.244e+00,2.327e+00,2.070e+00,3.874e+00,4.310e+00,3.047e+00,3.300e+00,3.108e+00,4.311e+00,4.466e+00,3.428e+00,4.515e+00,4.453e+00,5.442e+00,5.438e+00,5.650e+00,5.459e+00,4.654e+00,6.225e+00,5.447e+00,6.572e+00,7.184e+00,6.090e+00,8.122e+00,7.347e+00,8.657e+00,8.960e+00,7.534e+00,9.793e+00,8.684e+00,7.347e+00,1.150e+01,1.211e+01,1.043e+01,9.389e+00,1.039e+01,1.012e+01,1.429e+01,1.306e+01,1.106e+01,1.371e+01,1.491e+01,1.383e+01,1.239e+01,1.376e+01,1.566e+01,1.315e+01,1.173e+01,1.512e+01,1.563e+01,1.686e+01,1.306e+01,1.347e+01,1.548e+01,1.411e+01,1.662e+01,1.785e+01,1.746e+01,1.573e+01,1.576e+01,1.596e+01,1.547e+01,1.522e+01,1.385e+01,1.611e+01,1.663e+01,1.559e+01,1.576e+01,1.468e+01,1.400e+01,1.415e+01,1.730e+01,1.701e+01,1.605e+01
1.520e-01,2.656e-01,9.190e-01,1.473e+00,1.209e+00,1.263e+00,1.645e+00,2.278e+00,3.106e+00,3.604e+00,2.617e+00,2.398e+00,3.831e+00,3.390e+00,2.407e+00,3.021e+00,4.700e+00,4.917e+00,4.266e+00,4.336e+00,3.901e+00,5.285e+00,5.593e+00,4.454e+00,5.085e+00,5.589e+00,7.070e+00,6.983e+00,8.754e+00,7.795e+00,5.939e+00,8.751e+00,6.480e+00,8.913e+00,8.997e+00,8.704e+00,9.407e+00,9.019e+00,9.983e+00,1.100e+01,9.760e+00,1.188e+01,9.697e+00,1.003e+01,1.276e+01,1.229e+01,1.110e+01,1.141e+01,1.126e+01,1.179e+01,1.360e+01,1.310e+01,1.208e+01,1.288e+01,1.643e+01,1.304e+01,1.277e+01,1.333e+01,1.612e+01,1.499e+01,1.234e+01,1.575e+01,1.586e+01,1.819e+01,1.481e+01,1.548e+01,1.685e+01,1.579e+01,1.664e+01,1.936e+01,1.718e+01,1.766e+01,1.816e+01,1.641e+01,1.805e+01,1.502e+01,1.476e+01,1.807e+01,1.689e+01,1.800e+01,1.752e+01,1.797e+01,1.612e+01,1.813e+01,1.734e+01,1.853e+01,1.628e+01
2.088e-02,3.844e-02,1.960e-01,1.169e+00,1.016e+00,1.054e+00,1.752e+00,2.286e+00,2.547e+00,3.322e+00,2.782e+00,2.637e+00,3.635e+00,4.111e+00,2.604e+00,3.679e+00,5.598e+00,5.592e+00,4.373e+00,4.746e+00,6.161e+00,5.650e+00,6.051e+00,5.686e+00,6.623e+00,7.014e+00,7.724e+00,8.197e+00,7.440e+00,8.734e+00,6.561e+00,9.480e+00,6.281e+00,8.892e+00,8.738e+00,7.370e+00,9.803e+00,9.878e+00,9.991e+00,1.188e+01,1.028e+01,1.132e+01,1.115e+01,1.003e+01,1.310e+01,1.389e+01,1.225e+01,1.186e+01,1.183e+01,1.207e+01,1.429e+01,1.402e+01,1.363e+01,1.227e+01,1.710e+01,1.482e+01,1.439e+01,1.436e+01,1.620e+01,1.518e+01,1.267e+01,1.621e+01,1.580e+01,1.696e+01,1.631e+01,1.561e+01,1.859e+01,1.568e+01,1.794e+01,1.907e+01,1.912e+01,1.943e+01,1.907e+01,1.929e+01,1.807e+01,1.675e+01,1.589e+01,1.902e+01,1.818e+01,1.990e+01,1.755e+01,1.972e+01,1.824e+01,1.968e+01,1.783e+01,1.965e+01,1.963e+01
6.151e-02,1.330e-01,5.601e-01,1.635e+00,1.354e+00,1.168e+00,1.614e+00,2.399e+00,2.736e+00,3.424e+00,3.100e+00,2.632e+00,4.248e+00,3.997e+00,2.317e+00,4.066e+00,5.052e+00,5.143e+00,4.583e+00,4.984e+00,5.482e+00,5.823e+00,5.520e+00,5.685e+00,5.819e+00,5.991e+00,8.391e+00,8.406e+00,7.983e+00,7.446e+00,7.003e+00,8.497e+00,6.543e+00,9.603e+00,9.484e+00,8.979e+00,1.101e+01,1.033e+01,1.013e+01,1.233e+01,1.030e+01,1.124e+01,1.120e+01,1.074e+01,1.442e+01,1.373e+01,1.214e+01,1.252e+01,1.267e+01,1.307e+01,1.517e+01,1.369e+01,1.331e+01,1.429e+01,1.736e+01,1.546e+01,1.390e+01,1.712e+01,1.761e+01,1.665e+01,1.310e+01,1.703e+01,1.559e+01,1.716e+01,1.655e+01,1.708e+01,1.871e+01,1.640e+01,1.850e+01,2.146e+01,1.874e+01,2.079e+01,1.963e+01,1.994e+01,1.806e+01,1.924e+01,1.749e+01,2.020e+01,2.071e+01,2.073e+01,1.980e+01,2.058e+01,1.968e+01,2.056e+01,2.066e+01,2.249e+01,2.074e+01
5.670e-02,1.203e-01,5.382e-01,1.478e+00,1.170e+00,1.244e+00,1.593e+00,2.522e+00,3.047e+00,3.802e+00,3.174e+00,2.622e+00,3.774e+00,4.267e+00,3.424e+00,4.063e+00,5.727e+00,5.832e+00,5.057e+00,5.209e+00,6.356e+00,5.928e+00,6.939e+00,6.260e+00,7.482e+00,7.664e+00,8.283e+00,8.284e+00,8.153e+00,8.730e+00,5.720e+00,9.618e+00,7.061e+00,1.005e+01,9.194e+00,7.426e+00,1.129e+01,9.907e+00,1.141e+01,1.248e+01,1.043e+01,1.200e+01,1.105e+01,9.437e+00,1.361e+01,1.406e+01,1.248e+01,1.209e+01,1.353e+01,1.056e+01,1.597e+01,1.441e+01,1.385e+01,1.391e+01,1.801e+01,1.395e+01,1.274e+01,1.596e+01,1.696e+01,1.643e+01,1.268e+01,1.775e+01,1.538e+01,1.929e+01,1.617e+01,1.672e+01,1.800e+01,1.526e+01,1.625e+01,2.054e+01,1.841e+01,1.844e+01,1.902e+01,2.024e+01,1.710e+01,1.726e+01,1.810e+01,1.980e+01,1.822e+01,1.830e+01,1.706e+01,1.872e+01,1.803e+01,1.893e+01,1.979e+01,2.022e+01,1.862e+01
1.223e-01,2.332e-01,9.475e-01,2.092e+00,1.633e+00,1.535e+00,1.630e+00,2.179e+00,3.176e+00,3.254e+00,3.122e+00,2.424e+00,3.817e+00,3.742e+00,2.546e+00,3.564e+00,5.670e+00,6.192e+00,4.508e+00,5.626e+00,5.182e+00,5.943e+00,6.771e+00,4.977e+00,6.279e+00,6.854e+00,8.153e+00,8.241e+00,8.883e+00,8.811e+00,6.802e+00,9.989e+00,8.162e+00,9.199e+00,9.094e+00,9.181e+00,1.158e+01,9.762e+00,1.206e+01,1.300e+01,1.017e+01,1.194e+01,1.206e+01,1.068e+01,1.508e+01,1.469e+01,1.328e+01,1.194e+01,1.413e+01,1.063e+01,1.679e+01,1.502e+01,1.400e+01,1.478e+01,1.829e+01,1.489e+01,1.350e+01,1.606e+01,1.823e+01,1.694e+01,1.362e+01,1.695e+01,1.728e+01,1.861e+01,1.702e+01,1.747e+01,1.787e+01,1.739e+01,1.827e+01,2.069e+01,1.950e+01,1.908e+01,2.054e+01,2.149e+01,1.843e+01,1.853e+01,1.924e+01,1.963e+01,1.944e+01,2.192e+01,2.046e+01,1.913e+01,1.861e+01,2.085e+01,2.054e+01,2.142e+01,2.078e+01
1.702e-01,3.271e-01,1.128e+00,1.578e+00,1.305e+00,1.004e+00,1.237e+00,1.936e+00,3.095e+00,3.486e+00,2.861e+00,1.931e+00,3.959e+00,3.378e+00,3.001e+00,3.857e+00,5.648e+00,6.053e+00,5.437e+00,5.291e+00,5.964e+00,6.280e+00,6.637e+00,5.837e+00,6.054e+00,6.942e+00,8.872e+00,7.646e+00,8.680e+00,7.694e+00,7.045e+00,9.191e+00,7.321e+00,1.010e+01,9.287e+00,8.789e+00,1.155e+01,1.042e+01,1.164e+01,1.200e+01,1.040e+01,1.212e+01,1.111e+01,1.042e+01,1.330e+01,1.392e+01,1.159e+01,1.196e+01,1.204e+01,1.028e+01,1.524e+01,1.264e+01,1.305e+01,1.365e+01,1.691e+01,1.417e+01,1.159e+01,1.477e+01,1.680e+01,1.571e+01,1.200e+01,1.549e+01,1.561e+01,1.667e+01,1.437e+01,1.515e+01,1.819e+01,1.565e+01,1.657e+01,1.947e+01,1.637e+01,1.755e+01,1.615e+01,1.647e+01,1.759e+01,1.489e+01,1.591e+01,1.794e+01,1.771e+01,1.672e+01,1.760e+01,1.865e+01,1.605e+01,1.835e+01,1.897e+01,1.873e+01,1.739e+01
6.731e-02,1.170e-01,4.918e-01,1.523e+00,1.244e+00,1.233e+00,1.779e+00,2.339e+00,2.903e+00,3.428e+00,3.154e+00,2.638e+00,4.326e+00,4.100e+00,3.112e+00,3.778e+00,6.074e+00,5.689e+00,3.911e+00,5.001e+00,5.735e+00,5.766e+00,7.036e+00,5.605e+00,7.935e+00,7.288e+00,8.482e+00,8.813e+00,9.150e+00,8.624e+00,6.538e+00,9.629e+00,6.863e+00,1.032e+01,1.017e+01,8.316e+00,1.079e+01,1.008e+01,1.047e+01,1.208e+01,1.058e+01,1.264e+01,1.125e+01,1.107e+01,1.414e+01,1.338e+01,1.254e+01,1.174e+01,1.162e+01,1.251e+01,1.522e+01,1.364e+01,1.317e+01,1.235e+01,1.838e+01,1.483e+01,1.405e+01,1.434e+01,1.611e+01,1.563e+01,1.282e+01,1.678e+01,1.621e+01,1.717e+01,1.652e+01,1.568e+01,1.779e+01,1.644e+01,1.732e+01,2.053e+01,1.787e+01,1.846e+01,1.850e+01,2.086e+01,1.741e+01,1.784e+01,1.626e+01,2.088e+01,1.874e+01,2.046e+01,1.967e+01,2.038e+01,1.895e+01,1.935e+01,2.047e+01,2.113e+01,1.960e+01
1.647e-01,2.652e-01,8.505e-01,1.254e+00,1.072e+00,1.253e+00,1.996e+00,3.285e+00,3.496e+00,3.845e+00,3.264e+00,3.059e+00,4.902e+00,3.969e+00,3.147e+00,4.043e+00,6.338e+00,6.331e+00,5.347e+00,5.213e+00,5.984e+00,5.591e+00,5.990e+00,5.528e+00,6.850e+00,6.941e+00,6.918e+00,6.741e+00,7.023e+00,6.993e+00,3.957e+00,7.214e+00,6.302e+00,9.246e+00,8.877e+00,8.353e+00,9.579e+00,8.749e+00,8.743e+00,9.602e+00,9.918e+00,1.123e+01,1.108e+01,1.049e+01,1.189e+01,1.202e+01,1.119e+01,1.124e+01,1.095e+01,1.148e+01,1.299e+01,1.222e+01,1.144e+01,1.051e+01,1.574e+01,1.252e+01,1.101e+01,1.291e+01,1.404e+01,1.294e+01,1.111e+01,1.373e+01,1.291e+01,1.600e+01,1.405e+01,1.414e+01,1.537e+01,1.421e+01,1.459e+01,1.827e+01,1.479e+01,1.701e+01,1.563e+01,1.775e+01,1.625e+01,1.562e+01,1.505e+01,1.859e+01,1.674e+01,1.704e+01,1.639e+01,1.883e+01,1.517e+01,1.935e+01,1.845e+01,2.000e+01,1.659e+01
4.750e-02,9.863e-02,3.778e-01,8.634e-01,7.268e-01,6.993e-01,1.076e+00,2.026e+00,2.160e+00,2.512e+00,2.447e+00,1.961e+00,3.590e+00,3.109e+00,2.307e+00,4.278e+00,5.405e+00,5.450e+00,4.428e+00,5.183e+00,5.775e+00,6.320e+00,6.552e+00,6.406e+00,7.190e+00,7.392e+00,1.002e+01,9.096e+00,9.983e+00,9.297e+00,7.875e+00,1.015e+01,8.019e+00,1.109e+01,1.134e+01,9.934e+00,1.264e+01,1.137e+01,1.140e+01,1.364e+01,1.103e+01,1.318e+01,1.182e+01,1.057e+01,1.520e+01,1.456e+01,1.347e+01,1.288e+01,1.281e+01,1.351e+01,1.590e+01,1.455e+01,1.430e+01,1.419e+01,2.065e+01,1.603e+01,1.394e+01,1.621e+01,1.811e+01,1.672e+01,1.332e+01,1.558e+01,1.648e+01,1.856e+01,1.496e+01,1.654e+01,1.855e+01,1.714e+01,1.772e+01,2.052e+01,1.888e+01,2.003e+01,1.961e+01,2.008e+01,1.852e+01,1.893e+01,1.594e+01,2.051e+01,2.008e+01,1.978e+01,1.866e+01,1.998e+01,1.850e+01,2.075e+01,2.079e+01,2.170e+01,1.935e+01
1.809e-02,4.205e-02,1.860e-01,5.283e-01,4.362e-01,5.826e-01,8.096e-01,1.030e+00,1.487e+00,2.560e+00,1.745e+00,1.599e+00,2.728e+00,2.872e+00,2.550e+00,3.549e+00,5.104e+00,4.959e+00,4.128e+00,4.080e+00,4.660e+00,4.890e+00,5.229e+00,4.496e+00,5.132e+00,5.345e+00,7.145e+00,6.438e+00,8.106e+00,7.795e+00,5.487e+00,7.517e+00,6.459e+00,7.204e+00,8.331e+00,7.170e+00,8.334e+00,7.944e+00,9.308e+00,1.104e+01,8.362e+00,1.047e+01,8.959e+00,9.594e+00,1.136e+01,1.176e+01,1.067e+01,1.053e+01,1.106e+01,1.049e+01,1.291e+01,1.289e+01,1.148e+01,1.186e+01,1.572e+01,1.366e+01,1.391e+01,1.407e+01,1.535e+01,1.519e+01,1.106e+01,1.644e+01,1.545e+01,1.740e+01,1.377e+01,1.336e+01,1.620e+01,1.546e+01,1.693e+01,1.711e+01,1.669e+01,1.718e+01,1.786e+01,1.776e+01,1.763e+01,1.654e+01,1.678e+01,1.966e+01,1.983e+01,2.115e+01,1.833e+01,1.957e+01,1.700e+01,1.985e+01,1.884e+01,1.935e+01,1.905e+01
7.256e-02,1.584e-01,7.543e-01,1.889e+00,1.423e+00,1.870e+00,1.978e+00,2.588e+00,3.190e+00,3.830e+00,2.943e+00,2.603e+00,4.249e+00,4.204e+00,2.994e+00,3.407e+00,5.928e+00,5.800e+00,4.545e+00,4.427e+00,4.869e+00,5.944e+00,5.978e+00,4.918e+00,6.238e+00,6.676e+00,7.617e+00,8.373e+00,8.628e+00,7.144e+00,5.461e+00,8.318e+00,6.687e+00,9.637e+00,9.142e+00,8.502e+00,1.055e+01,8.942e+00,1.065e+01,1.116e+01,9.375e+00,1.158e+01,1.063e+01,9.920e+00,1.312e+01,1.398e+01,1.268e+01,1.063e+01,1.283e+01,1.050e+01,1.475e+01,1.380e+01,1.284e+01,1.310e+01,1.707e+01,1.545e+01,1.361e+01,1.500e+01,1.741e+01,1.554e+01,1.355e+01,1.734e+01,1.658e+01,1.868e+01,1.600e+01,1.540e+01,1.792e+01,1.574e+01,1.693e+01,2.017e+01,1.774e+01,1.785e+01,1.773e+01,2.031e+01,1.886e+01,1.787e+01,1.776e+01,2.037e+01,2.010e+01,1.961e+01,1.977e+01,2.046e+01,1.724e+01,2.039e+01,2.055e+01,2.055e+01,2.042e+01
1.690e-01,3.021e-01,1.076e+00,1.332e+00,9.815e-01,1.202e+00,1.254e+00,3.145e+00,2.892e+00,2.772e+00,3.173e+00,2.842e+00,4.387e+00,3.863e+00,3.152e+00,3.792e+00,5.419e+00,5.737e+00,4.938e+00,4.948e+00,5.419e+00,6.017e+00,6.574e+00,6.120e+00,6.870e+00,6.856e+00,8.132e+00,8.057e+00,8.876e+00,8.096e+00,5.513e+00,7.020e+00,6.602e+00,8.555e+00,9.051e+00,7.736e+00,9.516e+00,9.415e+00,1.017e+01,1.069e+01,9.357e+00,9.825e+00,1.003e+01,9.312e+00,1.220e+01,1.204e+01,1.171e+01,1.140e+01,1.044e+01,1.001e+01,1.398e+01,1.237e+01,1.133e+01,1.161e+01,1.538e+01,1.238e+01,1.145e+01,1.229e+01,1.484e+01,1.240e+01,1.218e+01,1.474e+01,1.458e+01,1.541e+01,1.404e+01,1.522e+01,1.404e+01,1.324e+01,1.444e+01,1.636e+01,1.623e+01,1.656e+01,1.706e+01,1.841e+01,1.525e+01,1.672e+01,1.510e+01,1.772e+01,1.756e+01,1.706e+01,1.839e+01,1.826e+01,1.805e+01,1.920e+01,1.997e+01,2.010e+01,1.717e+01
9.332e-02,1.648e-01,6.405e-01,1.582e+00,1.282e+00,1.037e+00,1.527e+00,2.653e+00,3.086e+00,2.686e+00,2.592e+00,2.092e+00,3.544e+00,3.827e+00,2.510e+00,3.654e+00,5.649e+00,6.141e+00,4.495e+00,5.338e+00,6.118e+00,5.816e+00,7.508e+00,6.080e+00,7.053e+00,7.606e+00,9.128e+00,8.858e+00,8.936e+00,9.854e+00,5.914e+00,9.511e+00,7.656e+00,9.550e+00,1.056e+01,8.621e+00,1.209e+01,9.313e+00,1.042e+01,1.128e+01,1.034e+01,1.231e+01,1.143e+01,9.065e+00,1.299e+01,1.249e+01,1.182e+01,1.177e+01,1.214e+01,1.164e+01,1.460e+01,1.326e+01,1.265e+01,1.300e+01,1.728e+01,1.337e+01,1.221e+01,1.464e+01,1.535e+01,1.511e+01,1.127e+01,1.577e+01,1.489e+01,1.731e+01,1.421e+01,1.567e+01,1.707e+01,1.635e+01,1.690e+01,1.933e+01,1.761e+01,2.034e+01,1.908e+01,2.104e+01,1.778e+01,1.870e+01,1.802e+01,1.997e+01,2.079e+01,2.192e+01,2.002e+01,2.000e+01,1.898e+01,2.206e+01,2.241e+01,2.271e+01,2.054e+01
6.058e-02,1.085e-01,4.646e-01,1.341e+00,1.077e+00,1.173e+00,1.542e+00,2.172e+00,2.688e+00,2.662e+00,2.435e+00,2.394e+00,3.390e+00,3.691e+00,2.300e+00,3.353e+00,5.732e+00,6.442e+00,4.150e+00,4.846e+00,5.938e+00,5.449e+00,6.578e+00,5.835e+00,6.711e+00,7.682e+00,8.671e+00,8.448e+00,7.617e+00,8.980e+00,6.649e+00,9.596e+00,7.638e+00,1.027e+01,9.813e+00,8.441e+00,1.190e+01,9.900e+00,1.155e+01,1.318e+01,1.022e+01,1.240e+01,1.060e+01,9.113e+00,1.347e+01,1.332e+01,1.191e+01,1.164e+01,1.178e+01,1.180e+01,1.484e+01,1.375e+01,1.335e+01,1.386e+01,1.715e+01,1.461e+01,1.290e+01,1.440e+01,1.586e+01,1.507e+01,1.258e+01,1.534e+01,1.582e+01,1.727e+01,1.609e+01,1.620e+01,1.724e+01,1.554e+01,1.726e+01,2.119e+01,1.869e+01,1.767e+01,1.992e+01,1.974e+01,1.829e+01,1.749e+01,1.737e+01,1.984e+01,1.900e+01,2.083e+01,2.063e+01,1.947e+01,1.955e+01,2.056e+01,2.054e+01,2.174e+01,2.077e+01
8.248e-03,7.325e-02,4.668e-01,1.821e+00,1.455e+00,1.072e+00,1.144e+00,1.194e+00,2.532e+00,2.786e+00,2.856e+00,1.834e+00,3.504e+00,3.391e+00,2.492e+00,3.516e+00,4.684e+00,4.845e+00,4.491e+00,5.070e+00,5.416e+00,5.907e+00,6.381e+00,5.646e+00,6.924e+00,6.503e+00,7.593e+00,7.680e+00,7.719e+00,7.283e+00,7.326e+00,9.317e+00,7.146e+00,1.036e+01,8.575e+00,8.022e+00,1.135e+01,1.005e+01,1.061e+01,1.230e+01,9.638e+00,1.276e+01,1.002e+01,1.030e+01,1.415e+01,1.367e+01,1.308e+01,1.257e+01,1.338e+01,1.084e+01,1.459e+01,1.304e+01,1.446e+01,1.436e+01,1.727e+01,1.437e+01,1.297e+01,1.469e+01,1.653e+01,1.475e+01,1.174e+01,1.231e+01,1.439e+01,1.592e+01,1.478e+01,1.495e+01,1.630e+01,1.608e+01,1.628e+01,1.920e+01,1.664e+01,1.916e+01,1.747e+01,1.892e+01,1.691e+01,1.743e+01,1.721e+01,1.862e+01,2.050e+01,2.124e+01,2.014e+01,2.062e+01,1.956e+01,2.199e+01,2.094e+01,2.266e+01,2.090e+01
1.629e-01,2.851e-01,9.924e-01,1.627e+00,1.326e+00,1.303e+00,1.711e+00,2.742e+00,3.185e+00,3.259e+00,3.026e+00,2.643e+00,4.208e+00,3.826e+00,2.793e+00,4.061e+00,5.789e+00,5.516e+00,5.145e+00,5.370e+00,5.050e+00,5.567e+00,6.495e+00,5.446e+00,6.283e+00,6.451e+00,7.494e+00,7.073e+00,8.720e+00,7.945e+00,5.197e+00,7.964e+00,6.846e+00,8.520e+00,8.558e+00,8.132e+00,9.083e+00,7.979e+00,9.279e+00,9.889e+00,9.364e+00,1.042e+01,1.004e+01,9.316e+00,1.227e+01,1.172e+01,1.121e+01,1.042e+01,1.084e+01,9.446e+00,1.357e+01,1.281e+01,1.211e+01,1.152e+01,1.652e+01,1.321e+01,1.209e+01,1.367e+01,1.547e+01,1.327e+01,1.185e+01,1.519e+01,1.560e+01,1.715e+01,1.465e+01,1.513e+01,1.525e+01,1.556e+01,1.671e+01,1.855e+01,1.607e+01,1.793e+01,1.799e+01,1.810e+01,1.671e+01,1.810e+01,1.632e+01,1.878e+01,1.873e+01,1.989e+01,1.896e+01,1.938e+01,1.791e+01,2.019e+01,2.073e+01,1.997e+01,1.927e+01
1.308e-01,2.295e-01,7.983e-01,8.784e-01,6.464e-01,9.075e-01,9.117e-01,1.683e+00,2.089e+00,2.817e+00,1.938e+00,1.988e+00,2.953e+00,2.872e+00,2.548e+00,2.980e+00,4.347e+00,4.554e+00,3.782e+00,3.791e+00,4.030e+00,4.948e+00,5.096e+00,4.224e+00,6.074e+00,5.052e+00,7.881e+00,7.748e+00,8.732e+00,7.611e+00,5.969e+00,7.957e+00,6.758e+00,8.976e+00,9.328e+00,7.873e+00,9.679e+00,8.958e+00,9.354e+00,1.079e+01,8.821e+00,1.123e+01,9.825e+00,1.038e+01,1.360e+01,1.205e+01,1.218e+01,1.129e+01,1.123e+01,1.184e+01,1.373e+01,1.322e+01,1.249e+01,1.339e+01,1.740e+01,1.373e+01,1.428e+01,1.550e+01,1.563e+01,1.529e+01,1.326e+01,1.614e+01,1.567e+01,1.881e+01,1.501e+01,1.561e+01,1.682e+01,1.815e+01,1.773e+01,1.927e+01,1.755e+01,1.749e+01,1.776e+01,1.894e+01,1.718e+01,1.723e+01,1.689e+01,2.114e+01,2.083e+01,2.091e+01,2.119e+01,2.189e+01,1.943e+01,2.293e+01,2.142e+01,2.398e+01,2.038e+01
1.800e-01,3.504e-01,1.259e+00,1.278e+00,9.154e-01,1.085e+00,8.010e-01,1.695e+00,2.427e+00,2.461e+00,2.438e+00,1.803e+00,3.390e+00,3.077e+00,2.953e+00,3.256e+00,4.306e+00,5.442e+00,4.406e+00,4.408e+00,4.693e+00,5.594e+00,6.367e+00,5.046e+00,5.648e+00,5.863e+00,8.059e+00,7.550e+00,8.668e+00,7.150e+00,6.241e+00,8.455e+00,7.812e+00,8.626e+00,8.801e+00,8.293e+00,1.070e+01,9.328e+00,9.774e+00,1.285e+01,8.394e+00,1.178e+01,1.022e+01,1.079e+01,1.301e+01,1.309e+01,1.216e+01,1.036e+01,1.236e+01,1.197e+01,1.500e+01,1.347e+01,1.299e+01,1.424e+01,1.679e+01,1.426e+01,1.424e+01,1.435e+01,1.678e+01,1.428e+01,1.218e+01,1.579e+01,1.582e+01,1.775e+01,1.596e+01,1.572e+01,1.683e+01,1.679e+01,1.777e+01,1.906e+01,1.807e+01,1.809e+01,1.905e+01,1.875e+01,1.739e+01,1.696e+01,1.605e+01,1.952e+01,1.980e+01,2.064e+01,2.006e+01,2.071e+01,1.915e+01,2.065e+01,2.159e+01,2.275e+01,2.127e+01
