6.454e-01,4.277e-01,5.343e-01,7.499e-01,5.978e-01,5.692e-01,7.726e-01,7.091e-01,7.452e-01,1.070e-01,1.202e-01,8.431e-01,8.187e-01,5.277e-02,5.860e-01,5.507e-03,6.138e-01,1.633e-01,6.246e-01,8.720e-01,1.521e-01,1.320e-02,5.836e-01,5.853e-01,9.289e-01,6.795e-01,9.166e-01,8.218e-01,3.689e-01,4.349e-01,6.409e-01,2.499e-02,9.664e-01,4.307e-01,8.325e-01,4.000e-01,1.661e-01,3.072e-01,9.166e-01,2.878e-01,4.920e-01,8.986e-01,1.260e-01,6.540e-01,9.162e-01,7.767e-02,2.107e-01,9.426e-01,1.793e-01,1.001e-01,4.402e-01,2.918e-01,9.538e-01,4.376e-01,9.495e-01,7.005e-01,7.951e-01,7.432e-01,3.348e-01,5.722e-01,8.850e-01,3.276e-01,6.523e-01,9.925e-01,9.748e-01,1.086e-01,9.781e-01,6.753e-01,2.738e-01,3.321e-01,7.561e-01,7.253e-01,7.343e-01,9.540e-01,7.772e-01,8.595e-02,6.258e-01,2.710e-01,2.400e-01,6.870e-01,7.180e-01,4.725e-01
1.288e-01,7.041e-01,8.603e-01,9.967e-01,3.594e-01,6.701e-01,3.819e-01,2.059e-01,8.437e-01,7.347e-01,1.283e-01,5.773e-01,2.732e-01,1.518e-01,6.768e-01,9.087e-01,9.786e-01,7.802e-01,4.305e-01,4.112e-01,6.809e-01,8.691e-01,7.099e-01,3.556e-01,9.291e-01,7.625e-01,4.367e-01,1.033e+00,9.536e-01,6.217e-01,4.976e-01,6.996e-01,5.885e-01,3.361e-01,4.006e-01,1.296e-01,6.119e-01,4.050e-01,9.285e-01,2.140e-01,1.002e+00,3.331e-01,5.243e-01,8.368e-01,8.284e-01,6.846e-01,3.205e-01,3.087e-01,1.013e-01,4.775e-02,9.888e-01,3.348e-01,4.043e-01,5.879e-01,6.950e-01,7.262e-01,3.593e-01,8.674e-01,2.482e-01,2.488e-01,5.925e-01,8.338e-01,4.133e-01,1.010e+00,6.488e-01,6.856e-01,5.775e-01,6.838e-01,2.422e-01,6.854e-01,8.704e-01,8.494e-01,9.938e-01,7.172e-01,2.156e-01,5.145e-01,8.097e-01,8.289e-01,3.407e-01,7.342e-01,3.850e-01,4.640e-01
2.153e-01,5.428e-01,1.340e+00,8.072e-01,5.095e-01,1.385e+00,8.012e-01,9.267e-01,1.372e+00,1.167e+00,7.757e-01,5.713e-01,1.196e+00,9.983e-01,9.474e-01,1.081e+00,8.211e-01,1.392e+00,9.192e-01,1.296e+00,1.145e+00,1.163e+00,1.007e+00,9.036e-01,9.900e-01,7.291e-01,9.255e-01,1.780e+00,1.126e+00,8.880e-01,9.470e-01,9.399e-01,1.045e+00,6.419e-01,5.039e-01,1.127e+00,9.896e-01,4.875e-01,1.140e+00,3.455e-01,7.491e-01,1.074e+00,6.131e-01,1.418e+00,1.610e+00,1.369e+00,5.998e-01,1.374e+00,9.414e-01,3.780e-01,1.117e+00,3.872e-01,1.248e+00,6.267e-01,7.214e-01,1.150e+00,1.020e+00,1.630e+00,9.163e-01,8.319e-01,1.535e+00,6.940e-01,7.501e-01,1.132e+00,1.301e+00,6.390e-01,1.023e+00,1.233e+00,1.021e+00,6.508e-01,1.209e+00,1.498e+00,8.436e-01,1.042e+00,6.339e-01,5.146e-01,1.220e+00,1.049e+00,1.220e+00,1.204e+00,1.042e+00,6.094e-01
5.203e-01,5.083e-01,1.098e+00,1.053e+00,1.415e+00,2.014e+00,1.489e+00,1.321e+00,1.435e+00,1.208e+00,6.506e-01,1.074e+00,1.863e+00,7.544e-01,1.326e+00,8.483e-01,1.701e+00,1.443e+00,1.113e+00,2.246e+00,1.026e+00,1.451e+00,1.814e+00,1.067e+00,1.999e+00,1.723e+00,2.073e+00,1.919e+00,1.514e+00,1.606e+00,9.785e-01,1.519e+00,1.354e+00,1.425e+00,7.877e-01,1.046e+00,1.078e+00,4.672e-01,1.379e+00,4.101e-01,6.909e-01,1.573e+00,1.316e+00,2.094e+00,2.204e+00,8.888e-01,1.410e+00,2.268e+00,1.482e+00,1.265e+00,1.460e+00,5.053e-01,1.670e+00,1.220e+00,1.546e+00,1.165e+00,1.535e+00,1.992e+00,8.982e-01,1.450e+00,2.419e+00,6.261e-01,1.441e+00,1.432e+00,1.732e+00,1.143e+00,1.558e+00,1.300e+00,1.651e+00,1.092e+00,1.874e+00,1.612e+00,1.019e+00,1.519e+00,9.618e-01,3.168e-01,1.802e+00,1.417e+00,1.657e+00,1.671e+00,1.487e+00,9.873e-01
1.376e-01,2.745e-01,4.540e-01,5.593e-01,1.547e+00,1.089e+00,1.166e+00,1.175e+00,1.559e+00,8.328e-01,4.800e-01,6.184e-01,1.062e+00,3.609e-01,1.304e+00,1.356e+00,1.887e+00,9.840e-01,1.107e+00,1.690e+00,1.234e+00,1.639e+00,1.362e+00,1.201e+00,1.906e+00,1.800e+00,1.168e+00,1.839e+00,1.310e+00,1.011e+00,1.016e+00,9.994e-01,1.486e+00,1.013e+00,3.102e-01,6.703e-01,1.414e+00,4.136e-01,1.102e+00,1.082e+00,4.799e-01,1.248e+00,1.049e+00,1.258e+00,1.683e+00,6.091e-01,1.718e+00,1.818e+00,1.312e+00,1.518e+00,1.760e+00,3.196e-01,1.071e+00,1.409e+00,1.470e+00,8.684e-01,7.026e-01,1.604e+00,8.431e-01,1.532e+00,1.935e+00,1.063e+00,1.238e+00,1.440e+00,1.559e+00,9.271e-01,7.072e-01,7.236e-01,1.337e+00,9.532e-01,1.758e+00,1.669e+00,9.355e-01,1.350e+00,7.760e-01,3.178e-01,1.371e+00,1.716e+00,1.722e+00,1.357e+00,6.764e-01,1.005e+00
1.634e-01,4.686e-01,6.616e-01,8.067e-01,7.957e-01,1.414e+00,1.149e+00,6.818e-01,1.487e+00,1.449e+00,9.750e-01,7.180e-01,1.183e+00,6.511e-01,1.073e+00,1.362e+00,1.276e+00,9.495e-01,1.102e+00,1.740e+00,1.487e+00,1.510e+00,1.240e+00,1.210e+00,1.487e+00,2.013e+00,1.461e+00,1.544e+00,1.461e+00,1.045e+00,1.478e+00,1.344e+00,1.425e+00,1.255e+00,8.237e-01,1.290e+00,1.018e+00,8.396e-01,1.364e+00,4.055e-01,9.245e-01,1.136e+00,1.773e+00,1.677e+00,1.594e+00,1.450e+00,1.681e+00,1.411e+00,7.486e-01,1.574e+00,1.115e+00,4.237e-01,1.302e+00,1.366e+00,1.646e+00,1.349e+00,1.463e+00,1.596e+00,3.885e-01,7.343e-01,2.167e+00,7.473e-01,8.583e-01,1.939e+00,1.787e+00,1.226e+00,1.625e+00,1.227e+00,1.462e+00,1.780e+00,1.950e+00,1.314e+00,1.348e+00,9.978e-01,1.158e+00,3.825e-01,1.333e+00,1.717e+00,1.370e+00,1.505e+00,1.245e+00,1.108e+00
4.502e-02,5.686e-01,7.847e-01,8.334e-01,6.938e-01,1.188e+00,1.196e+00,1.245e+00,2.559e+00,1.881e+00,1.982e+00,1.603e+00,1.918e+00,1.354e+00,1.454e+00,2.554e+00,1.643e+00,1.028e+00,1.659e+00,2.218e+00,1.827e+00,2.275e+00,1.186e+00,1.588e+00,1.947e+00,2.286e+00,1.368e+00,1.878e+00,2.075e+00,1.668e+00,2.222e+00,1.370e+00,1.739e+00,1.207e+00,1.241e+00,1.297e+00,1.616e+00,1.717e+00,2.335e+00,1.593e+00,1.161e+00,1.357e+00,2.084e+00,2.398e+00,2.435e+00,2.648e+00,2.465e+00,1.649e+00,8.081e-01,1.772e+00,1.327e+00,4.690e-01,1.997e+00,2.285e+00,2.242e+00,2.273e+00,1.381e+00,2.318e+00,1.400e+00,1.414e+00,2.800e+00,1.850e+00,1.075e+00,2.836e+00,1.916e+00,1.702e+00,1.838e+00,2.189e+00,1.459e+00,2.432e+00,2.862e+00,1.649e+00,1.836e+00,1.529e+00,1.451e+00,1.455e+00,2.023e+00,2.167e+00,1.609e+00,1.727e+00,1.046e+00,1.807e+00
3.118e-01,4.152e-01,6.766e-01,8.410e-01,1.597e+00,1.511e+00,1.532e+00,2.412e+00,2.790e+00,1.672e+00,1.880e+00,2.420e+00,2.311e+00,1.545e+00,1.894e+00,2.594e+00,2.717e+00,1.383e+00,2.023e+00,2.904e+00,2.030e+00,2.519e+00,2.441e+00,1.754e+00,2.915e+00,3.227e+00,2.121e+00,2.058e+00,1.977e+00,2.336e+00,1.578e+00,2.372e+00,2.092e+00,2.308e+00,9.918e-01,1.398e+00,1.764e+00,1.680e+00,2.259e+00,1.880e+00,7.249e-01,2.268e+00,2.557e+00,2.771e+00,3.225e+00,1.937e+00,2.698e+00,2.888e+00,1.825e+00,2.128e+00,2.515e+00,5.709e-01,2.177e+00,2.212e+00,2.519e+00,2.597e+00,1.290e+00,2.930e+00,1.731e+00,2.366e+00,3.474e+00,2.308e+00,1.877e+00,2.791e+00,1.893e+00,1.683e+00,1.821e+00,2.405e+00,2.252e+00,1.762e+00,3.208e+00,2.697e+00,1.494e+00,2.087e+00,1.355e+00,1.479e+00,2.940e+00,2.246e+00,2.872e+00,1.935e+00,1.136e+00,1.844e+00
3.098e-01,7.420e-01,1.528e+00,1.112e+00,7.526e-01,1.836e+00,1.498e+00,1.914e+00,3.756e+00,2.999e+00,2.543e+00,2.630e+00,3.365e+00,2.353e+00,2.465e+00,2.958e+00,2.135e+00,2.127e+00,2.100e+00,3.421e+00,3.061e+00,3.215e+00,2.021e+00,2.636e+00,2.906e+00,2.855e+00,2.514e+00,3.042e+00,3.027e+00,2.008e+00,2.431e+00,2.531e+00,2.767e+00,1.934e+00,2.130e+00,2.760e+00,2.199e+00,2.791e+00,2.731e+00,1.740e+00,1.274e+00,3.009e+00,3.070e+00,3.516e+00,3.693e+00,3.596e+00,3.208e+00,2.531e+00,2.019e+00,2.263e+00,1.869e+00,8.713e-01,2.888e+00,2.135e+00,2.351e+00,3.040e+00,2.650e+00,3.299e+00,2.439e+00,2.704e+00,3.827e+00,2.639e+00,1.872e+00,3.957e+00,3.068e+00,2.313e+00,2.591e+00,2.996e+00,2.224e+00,2.917e+00,3.157e+00,3.209e+00,2.602e+00,2.766e+00,1.783e+00,1.710e+00,2.903e+00,3.072e+00,2.419e+00,2.759e+00,1.690e+00,1.869e+00
1.357e-01,3.869e-01,5.323e-01,7.047e-01,1.014e+00,1.144e+00,1.117e+00,1.269e+00,1.985e+00,2.100e+00,2.048e+00,1.772e+00,2.012e+00,1.002e+00,2.312e+00,2.697e+00,2.654e+00,1.676e+00,2.194e+00,2.589e+00,1.683e+00,2.662e+00,1.526e+00,2.134e+00,2.985e+00,2.123e+00,1.778e+00,2.163e+00,2.246e+00,2.016e+00,1.460e+00,2.017e+00,1.621e+00,1.836e+00,1.110e+00,1.695e+00,2.055e+00,1.363e+00,2.266e+00,1.789e+00,1.013e+00,1.979e+00,2.225e+00,2.305e+00,2.976e+00,2.159e+00,3.135e+00,2.464e+00,1.782e+00,2.548e+00,1.505e+00,1.067e+00,2.325e+00,2.276e+00,2.795e+00,1.700e+00,1.357e+00,2.728e+00,2.184e+00,1.786e+00,2.732e+00,1.693e+00,1.411e+00,2.305e+00,1.467e+00,1.988e+00,1.387e+00,2.540e+00,2.194e+00,2.359e+00,3.006e+00,1.969e+00,2.203e+00,1.810e+00,1.327e+00,1.793e+00,1.978e+00,2.671e+00,2.358e+00,1.616e+00,9.730e-01,2.202e+00
1.381e-01,5.953e-01,1.095e+00,9.063e-01,1.221e+00,1.373e+00,1.324e+00,2.099e+00,3.238e+00,2.662e+00,3.516e+00,3.326e+00,2.946e+00,2.265e+00,3.054e+00,3.682e+00,3.743e+00,2.390e+00,3.418e+00,3.573e+00,3.141e+00,3.675e+00,3.069e+00,3.443e+00,3.921e+00,3.112e+00,2.927e+00,3.763e+00,3.096e+00,2.856e+00,2.830e+00,2.991e+00,2.656e+00,2.337e+00,2.067e+00,2.638e+00,3.510e+00,2.471e+00,3.427e+00,3.001e+00,1.398e+00,3.532e+00,3.565e+00,3.840e+00,4.368e+00,3.297e+00,4.060e+00,3.665e+00,3.072e+00,3.175e+00,3.100e+00,1.698e+00,3.651e+00,2.823e+00,3.469e+00,3.594e+00,2.185e+00,4.580e+00,3.469e+00,2.758e+00,3.944e+00,3.539e+00,2.515e+00,4.030e+00,3.001e+00,3.104e+00,2.037e+00,3.888e+00,3.200e+00,3.321e+00,4.430e+00,3.835e+00,3.174e+00,2.684e+00,1.629e+00,3.003e+00,2.805e+00,4.211e+00,4.058e+00,2.832e+00,1.622e+00,2.401e+00
4.351e-01,5.427e-01,1.307e+00,8.660e-01,9.816e-01,1.685e+00,1.503e+00,1.707e+00,2.552e+00,2.401e+00,2.574e+00,2.714e+00,2.867e+00,2.520e+00,2.624e+00,3.506e+00,3.408e+00,2.832e+00,3.616e+00,3.670e+00,3.011e+00,3.244e+00,2.718e+00,3.809e+00,3.897e+00,2.522e+00,3.223e+00,3.905e+00,2.569e+00,2.655e+00,3.306e+00,2.543e+00,3.099e+00,2.244e+00,1.998e+00,3.181e+00,2.716e+00,2.191e+00,3.552e+00,1.994e+00,2.051e+00,3.207e+00,2.834e+00,2.716e+00,3.749e+00,3.455e+00,3.912e+00,4.167e+00,3.166e+00,3.476e+00,2.164e+00,1.601e+00,3.312e+00,2.212e+00,3.769e+00,3.193e+00,2.463e+00,4.440e+00,2.649e+00,2.301e+00,3.826e+00,2.472e+00,1.890e+00,3.650e+00,3.682e+00,2.526e+00,2.750e+00,3.311e+00,3.076e+00,3.308e+00,3.388e+00,3.692e+00,3.560e+00,3.121e+00,2.500e+00,2.521e+00,2.634e+00,3.706e+00,3.485e+00,2.753e+00,1.962e+00,2.941e+00
1.813e-01,2.637e-01,9.473e-01,4.571e-01,7.123e-01,1.463e+00,1.180e+00,2.024e+00,2.541e+00,2.060e+00,3.121e+00,2.728e+00,3.578e+00,2.579e+00,2.435e+00,3.317e+00,3.016e+00,2.832e+00,3.566e+00,3.759e+00,3.296e+00,2.842e+00,3.271e+00,3.606e+00,2.562e+00,3.536e+00,3.649e+00,3.345e+00,2.680e+00,2.452e+00,2.809e+00,3.592e+00,2.346e+00,3.096e+00,2.285e+00,2.912e+00,3.074e+00,2.159e+00,3.284e+00,2.225e+00,1.200e+00,3.242e+00,3.416e+00,4.123e+00,4.016e+00,3.447e+00,3.129e+00,3.662e+00,2.996e+00,3.257e+00,3.162e+00,1.448e+00,3.788e+00,2.199e+00,3.514e+00,4.243e+00,2.460e+00,4.236e+00,2.673e+00,2.789e+00,4.312e+00,3.090e+00,2.188e+00,4.079e+00,3.159e+00,2.521e+00,2.326e+00,3.737e+00,3.840e+00,3.510e+00,4.218e+00,3.646e+00,2.727e+00,2.533e+00,2.217e+00,2.795e+00,3.258e+00,3.092e+00,4.126e+00,3.198e+00,2.042e+00,2.677e+00
4.516e-01,6.079e-01,8.862e-01,1.055e+00,1.211e+00,1.320e+00,1.271e+00,1.371e+00,2.170e+00,2.000e+00,1.766e+00,3.009e+00,2.608e+00,2.759e+00,3.451e+00,3.967e+00,4.539e+00,2.699e+00,3.595e+00,3.469e+00,3.009e+00,3.711e+00,2.888e+00,3.370e+00,4.312e+00,2.686e+00,4.186e+00,3.583e+00,2.917e+00,3.602e+00,3.052e+00,2.896e+00,3.431e+00,2.318e+00,2.674e+00,2.005e+00,3.066e+00,2.572e+00,3.804e+00,2.106e+00,2.713e+00,3.432e+00,3.809e+00,3.212e+00,3.487e+00,2.797e+00,4.142e+00,4.195e+00,3.076e+00,3.265e+00,2.903e+00,1.839e+00,2.772e+00,2.952e+00,3.822e+00,3.067e+00,2.618e+00,4.088e+00,3.129e+00,2.769e+00,3.327e+00,3.333e+00,2.667e+00,3.584e+00,3.261e+00,3.406e+00,2.661e+00,2.937e+00,3.012e+00,4.003e+00,3.098e+00,4.009e+00,3.614e+00,4.086e+00,2.465e+00,2.748e+00,3.456e+00,3.373e+00,3.082e+00,3.094e+00,1.350e+00,2.829e+00
3.164e-01,6.017e-01,1.339e+00,9.722e-01,1.359e+00,1.957e+00,1.730e+00,2.074e+00,3.418e+00,2.915e+00,3.279e+00,3.348e+00,3.376e+00,3.608e+00,4.369e+00,4.602e+00,5.187e+00,3.718e+00,4.742e+00,4.834e+00,5.485e+00,5.066e+00,4.538e+00,4.497e+00,4.861e+00,4.172e+00,5.474e+00,5.801e+00,4.155e+00,3.622e+00,4.548e+00,4.039e+00,4.813e+00,3.280e+00,3.256e+00,4.362e+00,5.123e+00,3.509e+00,4.308e+00,3.613e+00,3.095e+00,5.703e+00,5.493e+00,4.868e+00,5.139e+00,4.435e+00,5.284e+00,6.001e+00,4.184e+00,4.886e+00,4.348e+00,2.182e+00,4.001e+00,3.684e+00,4.196e+00,4.891e+00,3.989e+00,5.644e+00,3.918e+00,3.492e+00,5.638e+00,4.736e+00,3.483e+00,5.218e+00,5.353e+00,4.006e+00,3.457e+00,4.209e+00,4.616e+00,5.657e+00,4.907e+00,5.340e+00,4.229e+00,5.067e+00,3.040e+00,3.238e+00,4.550e+00,5.421e+00,4.861e+00,4.483e+00,2.352e+00,3.202e+00
3.036e-01,4.383e-01,7.789e-01,8.897e-01,1.893e+00,1.728e+00,1.719e+00,1.925e+00,2.518e+00,2.091e+00,1.956e+00,2.058e+00,3.343e+00,2.115e+00,4.319e+00,4.971e+00,5.826e+00,4.190e+00,5.248e+00,4.880e+00,4.570e+00,4.591e+00,4.635e+00,3.917e+00,4.363e+00,4.204e+00,5.041e+00,5.104e+00,4.286e+00,3.640e+00,3.740e+00,4.766e+00,3.699e+00,4.175e+00,3.166e+00,3.085e+00,4.747e+00,2.136e+00,4.302e+00,4.157e+00,3.570e+00,5.046e+00,4.430e+00,4.359e+00,5.407e+00,3.747e+00,5.322e+00,6.355e+00,3.705e+00,5.397e+00,4.349e+00,2.682e+00,4.055e+00,4.674e+00,5.038e+00,4.440e+00,3.173e+00,5.235e+00,4.030e+00,4.119e+00,5.276e+00,4.781e+00,3.840e+00,4.668e+00,4.004e+00,3.861e+00,3.128e+00,4.290e+00,4.661e+00,5.605e+00,5.286e+00,4.824e+00,4.246e+00,4.821e+00,3.146e+00,3.291e+00,4.994e+00,4.603e+00,4.517e+00,4.807e+00,2.253e+00,4.638e+00
3.656e-02,6.949e-02,3.840e-01,3.236e-01,1.352e+00,1.517e+00,1.474e+00,1.787e+00,2.676e+00,2.557e+00,3.233e+00,3.140e+00,3.770e+00,2.464e+00,3.066e+00,3.999e+00,5.086e+00,3.277e+00,4.354e+00,5.253e+00,3.885e+00,4.678e+00,4.058e+00,4.212e+00,5.058e+00,3.964e+00,4.998e+00,4.556e+00,3.771e+00,4.131e+00,3.518e+00,4.557e+00,3.405e+00,3.340e+00,2.945e+00,3.274e+00,4.069e+00,3.501e+00,4.254e+00,3.719e+00,2.035e+00,4.679e+00,5.042e+00,4.782e+00,4.805e+00,4.424e+00,6.365e+00,5.231e+00,4.104e+00,5.825e+00,2.821e+00,2.763e+00,4.770e+00,3.763e+00,5.274e+00,4.610e+00,3.027e+00,5.425e+00,4.271e+00,4.399e+00,5.576e+00,4.190e+00,3.825e+00,4.696e+00,4.036e+00,4.622e+00,3.591e+00,4.701e+00,4.502e+00,5.011e+00,5.626e+00,4.694e+00,4.077e+00,3.677e+00,2.810e+00,3.339e+00,4.431e+00,4.983e+00,4.324e+00,4.016e+00,2.777e+00,4.141e+00
3.096e-02,1.307e-01,5.893e-01,3.187e-01,9.616e-01,1.234e+00,1.028e+00,1.845e+00,2.329e+00,1.968e+00,2.891e+00,2.704e+00,3.170e+00,3.025e+00,3.315e+00,4.084e+00,4.445e+00,3.388e+00,4.714e+00,4.501e+00,4.200e+00,3.978e+00,4.093e+00,4.231e+00,4.087e+00,3.695e+00,5.581e+00,4.311e+00,3.483e+00,4.605e+00,3.351e+00,4.787e+00,3.787e+00,3.444e+00,3.903e+00,3.452e+00,4.904e+00,2.795e+00,4.579e+00,3.493e+00,2.928e+00,4.464e+00,4.866e+00,5.370e+00,4.358e+00,4.118e+00,5.111e+00,5.363e+00,4.281e+00,4.821e+00,4.278e+00,3.190e+00,4.292e+00,3.486e+00,4.775e+00,5.107e+00,3.469e+00,5.661e+00,4.173e+00,3.918e+00,5.288e+00,4.505e+00,4.033e+00,4.256e+00,4.183e+00,4.111e+00,3.231e+00,4.534e+00,4.851e+00,4.627e+00,5.164e+00,5.023e+00,3.675e+00,3.682e+00,2.570e+00,3.844e+00,4.396e+00,4.500e+00,4.470e+00,4.277e+00,2.468e+00,3.408e+00
3.418e-01,4.845e-01,1.206e+00,8.947e-01,1.275e+00,2.116e+00,1.807e+00,2.561e+00,3.315e+00,2.555e+00,3.133e+00,3.336e+00,3.546e+00,3.657e+00,3.450e+00,4.706e+00,5.021e+00,3.686e+00,5.750e+00,5.442e+00,5.160e+00,5.008e+00,5.060e+00,4.489e+00,5.629e+00,5.004e+00,6.772e+00,5.579e+00,4.269e+00,5.564e+00,4.538e+00,5.775e+00,5.422e+00,4.683e+00,4.361e+00,4.700e+00,5.032e+00,4.116e+00,5.274e+00,4.255e+00,3.549e+00,6.138e+00,5.545e+00,6.306e+00,5.493e+00,5.906e+00,5.825e+00,6.590e+00,4.019e+00,5.992e+00,4.425e+00,2.821e+00,4.872e+00,4.358e+00,5.644e+00,5.940e+00,4.730e+00,6.807e+00,4.622e+00,4.469e+00,6.752e+00,4.949e+00,4.100e+00,5.369e+00,5.509e+00,4.431e+00,4.707e+00,5.120e+00,4.932e+00,6.166e+00,6.534e+00,6.024e+00,4.284e+00,5.039e+00,3.799e+00,3.979e+00,5.787e+00,5.222e+00,5.006e+00,4.614e+00,3.165e+00,4.656e+00
2.481e-01,6.283e-01,9.522e-01,1.043e+00,1.300e+00,1.397e+00,1.237e+00,1.465e+00,2.596e+00,2.587e+00,2.147e+00,2.817e+00,2.833e+00,1.883e+00,3.743e+00,4.181e+00,5.478e+00,3.933e+00,4.685e+00,5.040e+00,5.350e+00,5.115e+00,5.333e+00,4.257e+00,5.584e+00,4.382e+00,5.227e+00,6.246e+00,4.714e+00,4.540e+00,3.146e+00,5.786e+00,4.923e+00,3.946e+00,3.900e+00,4.600e+00,4.691e+00,4.127e+00,4.183e+00,4.514e+00,3.281e+00,5.808e+00,5.349e+00,4.665e+00,5.171e+00,4.745e+00,6.343e+00,5.462e+00,3.739e+00,6.341e+00,4.218e+00,3.556e+00,4.663e+00,4.066e+00,5.222e+00,4.337e+00,4.057e+00,6.297e+00,4.111e+00,4.855e+00,5.785e+00,4.781e+00,3.897e+00,5.487e+00,4.728e+00,4.433e+00,3.426e+00,5.014e+00,4.539e+00,5.666e+00,5.323e+00,6.026e+00,4.993e+00,5.267e+00,2.886e+00,4.072e+00,4.875e+00,5.805e+00,4.191e+00,4.547e+00,3.155e+00,4.607e+00
1.038e-02,2.752e-01,4.557e-01,5.804e-01,1.240e+00,1.478e+00,1.375e+00,1.678e+00,3.055e+00,3.113e+00,3.401e+00,3.276e+00,3.828e+00,2.979e+00,4.484e+00,5.102e+00,5.767e+00,3.985e+00,5.967e+00,5.597e+00,5.552e+00,6.457e+00,5.493e+00,5.838e+00,6.332e+00,5.927e+00,7.361e+00,5.864e+00,5.880e+00,5.647e+00,4.804e+00,7.060e+00,5.063e+00,5.695e+00,5.354e+00,5.179e+00,5.909e+00,4.293e+00,5.931e+00,4.627e+00,4.111e+00,7.443e+00,7.034e+00,6.957e+00,6.602e+00,5.976e+00,7.288e+00,6.506e+00,5.384e+00,7.671e+00,5.001e+00,4.144e+00,5.339e+00,5.774e+00,6.497e+00,5.776e+00,5.323e+00,7.526e+00,5.708e+00,5.771e+00,6.645e+00,6.437e+00,4.865e+00,5.993e+00,5.754e+00,6.145e+00,5.004e+00,5.484e+00,5.724e+00,7.698e+00,7.017e+00,6.209e+00,6.006e+00,5.261e+00,3.691e+00,4.890e+00,5.479e+00,6.589e+00,6.350e+00,5.956e+00,3.233e+00,4.932e+00
2.540e-01,7.634e-01,1.020e+00,1.127e+00,1.312e+00,1.079e+00,1.306e+00,1.647e+00,3.113e+00,1.841e+00,2.355e+00,3.580e+00,3.056e+00,3.024e+00,3.524e+00,4.460e+00,5.650e+00,3.441e+00,5.128e+00,5.270e+00,5.601e+00,6.096e+00,6.157e+00,6.160e+00,6.486e+00,5.239e+00,7.774e+00,7.644e+00,5.779e+00,6.865e+00,5.629e+00,5.840e+00,6.452e+00,4.200e+00,6.423e+00,4.648e+00,6.529e+00,5.530e+00,6.648e+00,5.852e+00,4.704e+00,6.394e+00,6.386e+00,7.221e+00,5.580e+00,6.714e+00,7.093e+00,6.739e+00,5.233e+00,7.194e+00,5.773e+00,4.243e+00,5.927e+00,5.208e+00,7.381e+00,6.316e+00,5.334e+00,8.139e+00,5.044e+00,6.065e+00,7.289e+00,6.475e+00,5.416e+00,6.510e+00,7.368e+00,5.590e+00,5.229e+00,5.842e+00,5.471e+00,7.293e+00,7.060e+00,7.223e+00,5.923e+00,6.933e+00,4.255e+00,5.949e+00,6.791e+00,6.548e+00,5.078e+00,6.211e+00,4.401e+00,4.857e+00
3.825e-01,7.962e-01,1.319e+00,1.366e+00,1.947e+00,2.195e+00,1.961e+00,2.345e+00,3.782e+00,3.237e+00,2.818e+00,3.754e+00,4.037e+00,2.913e+00,4.195e+00,5.013e+00,6.058e+00,4.504e+00,5.775e+00,6.424e+00,6.243e+00,6.177e+00,6.955e+00,7.436e+00,7.981e+00,6.752e+00,9.163e+00,8.434e+00,6.822e+00,7.246e+00,4.854e+00,8.186e+00,7.383e+00,6.463e+00,7.165e+00,7.006e+00,6.503e+00,5.809e+00,7.014e+00,5.222e+00,4.623e+00,7.231e+00,6.858e+00,8.359e+00,6.710e+00,7.227e+00,8.396e+00,7.572e+00,6.219e+00,8.759e+00,6.386e+00,5.047e+00,7.348e+00,4.990e+00,8.680e+00,6.574e+00,6.534e+00,9.119e+00,5.695e+00,6.444e+00,8.491e+00,5.431e+00,5.618e+00,7.377e+00,8.084e+00,6.119e+00,6.081e+00,7.106e+00,7.893e+00,7.141e+00,8.681e+00,9.067e+00,6.150e+00,6.591e+00,5.388e+00,6.352e+00,7.725e+00,8.209e+00,6.785e+00,6.962e+00,5.149e+00,5.409e+00
5.745e-01,6.572e-01,9.990e-01,1.133e+00,1.075e+00,1.637e+00,1.578e+00,2.048e+00,3.178e+00,3.014e+00,3.147e+00,4.001e+00,4.122e+00,3.514e+00,4.634e+00,5.239e+00,6.044e+00,4.340e+00,5.888e+00,6.173e+00,6.070e+00,5.563e+00,5.900e+00,7.684e+00,7.213e+00,6.151e+00,8.897e+00,7.778e+00,6.762e+00,6.943e+00,5.162e+00,7.860e+00,7.568e+00,6.071e+00,6.799e+00,6.660e+00,6.056e+00,6.064e+00,7.811e+00,5.102e+00,4.984e+00,7.452e+00,7.782e+00,8.218e+00,7.106e+00,6.831e+00,8.518e+00,7.951e+00,6.124e+00,8.622e+00,5.652e+00,5.883e+00,7.183e+00,5.595e+00,8.627e+00,7.058e+00,6.922e+00,8.676e+00,5.961e+00,6.548e+00,8.362e+00,5.481e+00,5.996e+00,7.510e+00,7.479e+00,6.279e+00,6.552e+00,8.160e+00,7.584e+00,7.418e+00,8.045e+00,8.982e+00,6.572e+00,6.831e+00,5.766e+00,6.506e+00,7.589e+00,7.589e+00,6.759e+00,7.375e+00,4.843e+00,5.454e+00
3.068e-01,3.225e-01,4.776e-01,5.373e-01,1.036e+00,6.974e-01,1.099e+00,1.788e+00,2.397e+00,1.448e+00,2.062e+00,3.033e+00,3.039e+00,2.164e+00,2.525e+00,4.226e+00,4.722e+00,3.323e+00,5.346e+00,4.925e+00,4.593e+00,4.846e+00,5.682e+00,6.162e+00,6.502e+00,5.376e+00,6.721e+00,6.927e+00,6.066e+00,6.779e+00,5.633e+00,7.012e+00,6.145e+00,5.913e+00,5.861e+00,5.469e+00,4.957e+00,5.410e+00,7.143e+00,5.515e+00,4.495e+00,6.308e+00,5.563e+00,6.769e+00,6.281e+00,6.789e+00,7.300e+00,7.029e+00,5.570e+00,7.950e+00,5.295e+00,5.123e+00,6.351e+00,5.928e+00,7.732e+00,6.235e+00,5.748e+00,8.488e+00,5.158e+00,7.153e+00,7.454e+00,6.024e+00,4.678e+00,6.438e+00,7.050e+00,5.625e+00,5.882e+00,6.976e+00,5.353e+00,6.455e+00,6.749e+00,7.278e+00,6.322e+00,5.683e+00,4.535e+00,6.294e+00,6.252e+00,7.098e+00,5.989e+00,6.635e+00,5.015e+00,6.368e+00
2.545e-01,7.084e-01,1.287e+00,1.059e+00,7.707e-01,1.550e+00,1.280e+00,1.539e+00,3.256e+00,2.673e+00,2.941e+00,3.532e+00,3.789e+00,3.409e+00,3.636e+00,4.316e+00,4.689e+00,3.549e+00,4.744e+00,4.932e+00,5.213e+00,5.086e+00,5.166e+00,6.097e+00,5.567e+00,4.936e+00,7.677e+00,7.274e+00,7.159e+00,7.044e+00,6.627e+00,7.092e+00,6.397e+00,5.724e+00,5.851e+00,4.849e+00,5.910e+00,6.021e+00,7.307e+00,5.519e+00,4.871e+00,7.167e+00,7.136e+00,9.164e+00,6.407e+00,6.970e+00,6.858e+00,7.634e+00,5.880e+00,6.818e+00,6.231e+00,5.082e+00,6.456e+00,5.713e+00,6.968e+00,7.154e+00,7.465e+00,7.889e+00,5.812e+00,7.330e+00,8.243e+00,6.758e+00,5.690e+00,7.774e+00,7.806e+00,6.194e+00,6.299e+00,7.803e+00,5.721e+00,7.317e+00,6.532e+00,7.577e+00,6.039e+00,6.900e+00,4.777e+00,5.797e+00,6.926e+00,7.450e+00,5.846e+00,8.140e+00,6.000e+00,5.356e+00
4.480e-01,4.131e-01,9.333e-01,8.526e-01,1.350e+00,1.835e+00,1.561e+00,2.119e+00,2.738e+00,2.401e+00,2.682e+00,3.271e+00,3.652e+00,2.596e+00,3.425e+00,3.861e+00,5.131e+00,4.107e+00,5.348e+00,5.508e+00,5.029e+00,4.979e+00,5.809e+00,6.307e+00,6.400e+00,5.634e+00,7.860e+00,6.697e+00,6.238e+00,6.993e+00,6.057e+00,7.940e+00,6.584e+00,6.532e+00,6.075e+00,6.229e+00,6.139e+00,5.022e+00,6.833e+00,5.193e+00,4.741e+00,7.412e+00,7.075e+00,7.935e+00,7.487e+00,7.000e+00,7.541e+00,8.234e+00,6.937e+00,8.492e+00,6.481e+00,5.328e+00,6.597e+00,5.676e+00,7.420e+00,7.533e+00,6.492e+00,8.607e+00,5.673e+00,7.424e+00,8.403e+00,6.336e+00,6.012e+00,6.848e+00,7.914e+00,6.169e+00,6.203e+00,7.564e+00,6.807e+00,6.833e+00,6.991e+00,7.108e+00,6.757e+00,6.302e+00,4.488e+00,5.646e+00,6.423e+00,8.072e+00,6.937e+00,7.777e+00,5.617e+00,5.513e+00
6.334e-01,8.699e-01,1.306e+00,1.394e+00,1.513e+00,1.682e+00,1.847e+00,2.253e+00,3.505e+00,2.510e+00,3.200e+00,4.151e+00,4.302e+00,2.672e+00,4.032e+00,5.012e+00,6.598e+00,4.654e+00,6.282e+00,6.452e+00,6.161e+00,6.334e+00,7.299e+00,7.185e+00,7.100e+00,6.492e+00,8.109e+00,9.050e+00,7.684e+00,6.663e+00,7.345e+00,8.309e+00,7.167e+00,7.090e+00,7.312e+00,6.513e+00,6.472e+00,6.632e+00,8.423e+00,7.324e+00,5.887e+00,8.975e+00,7.349e+00,7.788e+00,8.740e+00,7.711e+00,8.593e+00,9.030e+00,6.901e+00,9.814e+00,6.689e+00,6.086e+00,8.290e+00,6.389e+00,9.632e+00,8.912e+00,6.820e+00,9.589e+00,6.853e+00,7.619e+00,8.817e+00,7.738e+00,6.918e+00,9.014e+00,9.026e+00,6.776e+00,7.279e+00,8.606e+00,6.864e+00,8.459e+00,8.801e+00,8.158e+00,7.811e+00,7.314e+00,5.859e+00,7.097e+00,7.636e+00,8.514e+00,7.916e+00,8.750e+00,5.787e+00,6.738e+00
8.112e-02,2.055e-01,4.154e-01,5.174e-01,1.713e+00,1.357e+00,1.428e+00,2.284e+00,2.937e+00,2.492e+00,3.312e+00,3.828e+00,4.082e+00,3.469e+00,4.908e+00,5.831e+00,7.435e+00,5.000e+00,6.591e+00,6.542e+00,6.308e+00,6.789e+00,6.373e+00,6.781e+00,7.915e+00,6.431e+00,9.183e+00,8.471e+00,8.021e+00,9.480e+00,7.031e+00,9.073e+00,8.310e+00,8.226e+00,7.147e+00,7.042e+00,8.706e+00,7.451e+00,9.309e+00,7.192e+00,6.293e+00,9.159e+00,8.590e+00,9.528e+00,8.516e+00,7.788e+00,1.017e+01,9.900e+00,8.544e+00,1.064e+01,8.770e+00,6.473e+00,8.145e+00,7.690e+00,9.619e+00,9.884e+00,7.062e+00,1.053e+01,8.072e+00,9.519e+00,1.019e+01,8.706e+00,7.910e+00,8.478e+00,9.052e+00,7.714e+00,6.777e+00,9.120e+00,8.149e+00,8.463e+00,8.910e+00,9.021e+00,7.491e+00,8.136e+00,5.798e+00,7.572e+00,8.344e+00,9.766e+00,9.095e+00,9.732e+00,5.617e+00,7.426e+00
1.025e-01,1.432e-01,4.096e-01,2.730e-01,1.076e+00,9.806e-01,1.217e+00,1.898e+00,2.824e+00,2.064e+00,2.198e+00,2.178e+00,2.359e+00,2.297e+00,2.643e+00,3.900e+00,4.008e+00,2.646e+00,4.416e+00,4.719e+00,4.964e+00,4.292e+00,4.425e+00,5.197e+00,5.214e+00,4.770e+00,5.573e+00,6.554e+00,5.728e+00,7.052e+00,5.992e+00,7.975e+00,7.854e+00,6.563e+00,6.392e+00,6.493e+00,4.971e+00,7.067e+00,6.609e+00,5.827e+00,4.847e+00,7.118e+00,7.545e+00,6.425e+00,6.973e+00,7.132e+00,7.967e+00,7.017e+00,5.530e+00,8.570e+00,5.989e+00,6.473e+00,7.256e+00,6.064e+00,7.444e+00,7.321e+00,7.284e+00,8.472e+00,6.443e+00,8.163e+00,7.891e+00,6.043e+00,6.462e+00,7.628e+00,7.290e+00,5.461e+00,6.010e+00,8.092e+00,6.374e+00,5.958e+00,6.488e+00,8.506e+00,5.563e+00,6.182e+00,5.231e+00,5.727e+00,6.009e+00,8.050e+00,6.543e+00,7.525e+00,5.143e+00,5.319e+00
5.237e-01,9.121e-01,1.789e+00,1.443e+00,1.281e+00,2.195e+00,1.856e+00,2.262e+00,3.564e+00,3.147e+00,3.139e+00,3.224e+00,4.471e+00,3.423e+00,4.807e+00,5.485e+00,5.921e+00,4.990e+00,6.452e+00,6.371e+00,5.861e+00,6.258e+00,5.416e+00,6.612e+00,7.429e+00,5.727e+00,9.261e+00,8.948e+00,8.257e+00,9.193e+00,7.056e+00,8.801e+00,9.178e+00,8.616e+00,8.770e+00,8.659e+00,8.849e+00,8.230e+00,1.000e+01,6.825e+00,7.704e+00,9.962e+00,8.082e+00,1.043e+01,8.819e+00,9.034e+00,9.677e+00,9.959e+00,7.842e+00,1.033e+01,8.352e+00,7.227e+00,9.159e+00,7.368e+00,9.938e+00,9.815e+00,8.217e+00,1.126e+01,8.730e+00,9.625e+00,1.082e+01,8.245e+00,7.721e+00,9.006e+00,9.511e+00,7.460e+00,8.123e+00,1.039e+01,8.255e+00,9.051e+00,1.007e+01,9.881e+00,8.118e+00,8.865e+00,7.902e+00,7.935e+00,9.081e+00,9.488e+00,8.526e+00,9.827e+00,6.512e+00,8.188e+00
3.974e-01,8.065e-01,1.394e+00,1.242e+00,8.334e-01,1.778e+00,1.494e+00,1.717e+00,2.974e+00,2.466e+00,2.638e+00,3.431e+00,3.751e+00,3.258e+00,3.137e+00,4.868e+00,5.293e+00,4.226e+00,5.740e+00,5.705e+00,5.403e+00,5.359e+00,5.767e+00,6.764e+00,6.578e+00,5.595e+00,8.129e+00,7.650e+00,7.052e+00,8.382e+00,6.914e+00,9.225e+00,8.693e+00,7.580e+00,8.612e+00,7.973e+00,7.244e+00,8.238e+00,9.356e+00,6.574e+00,7.102e+00,7.837e+00,8.543e+00,9.568e+00,9.106e+00,9.431e+00,9.397e+00,9.308e+00,7.054e+00,1.000e+01,7.253e+00,7.022e+00,8.811e+00,7.946e+00,9.138e+00,9.385e+00,7.686e+00,1.127e+01,7.342e+00,8.994e+00,9.817e+00,7.712e+00,7.460e+00,8.744e+00,9.042e+00,7.410e+00,8.083e+00,1.010e+01,7.746e+00,8.855e+00,9.875e+00,9.852e+00,8.864e+00,8.017e+00,7.480e+00,7.669e+00,7.901e+00,8.921e+00,7.412e+00,9.747e+00,6.733e+00,7.197e+00
5.956e-01,7.139e-01,1.533e+00,1.340e+00,2.012e+00,2.536e+00,2.192e+00,2.610e+00,3.240e+00,2.351e+00,2.339e+00,2.956e+00,3.408e+00,2.470e+00,3.275e+00,3.481e+00,4.666e+00,3.702e+00,4.880e+00,5.314e+00,4.516e+00,4.897e+00,5.129e+00,4.998e+00,7.047e+00,5.296e+00,7.994e+00,7.478e+00,6.808e+00,7.482e+00,5.791e+00,7.892e+00,8.696e+00,7.847e+00,7.843e+00,8.219e+00,7.474e+00,6.865e+00,7.953e+00,7.120e+00,6.599e+00,9.289e+00,6.704e+00,9.179e+00,9.225e+00,7.957e+00,8.221e+00,9.651e+00,7.371e+00,9.566e+00,7.737e+00,5.337e+00,8.270e+00,6.874e+00,7.882e+00,8.471e+00,6.822e+00,9.651e+00,7.926e+00,8.732e+00,1.055e+01,7.039e+00,6.766e+00,8.272e+00,8.973e+00,6.401e+00,6.860e+00,8.817e+00,7.532e+00,7.183e+00,9.454e+00,8.018e+00,7.446e+00,8.188e+00,6.839e+00,7.031e+00,7.594e+00,9.483e+00,7.854e+00,8.145e+00,5.643e+00,6.870e+00
1.534e-01,6.883e-01,9.414e-01,1.170e+00,1.286e+00,1.555e+00,1.138e+00,1.060e+00,2.378e+00,2.325e+00,1.371e+00,2.297e+00,2.573e+00,2.100e+00,3.802e+00,3.635e+00,5.008e+00,3.412e+00,3.497e+00,4.231e+00,4.881e+00,5.635e+00,5.390e+00,5.189e+00,5.576e+00,4.881e+00,7.329e+00,6.967e+00,7.315e+00,7.357e+00,5.555e+00,8.385e+00,7.695e+00,7.694e+00,8.663e+00,7.199e+00,7.631e+00,7.893e+00,7.254e+00,7.187e+00,6.874e+00,8.525e+00,9.416e+00,9.740e+00,9.657e+00,8.246e+00,8.658e+00,9.204e+00,7.291e+00,9.912e+00,8.555e+00,5.940e+00,8.060e+00,8.793e+00,7.444e+00,8.437e+00,6.959e+00,9.056e+00,8.313e+00,9.312e+00,9.015e+00,7.913e+00,8.101e+00,8.250e+00,8.324e+00,7.199e+00,6.669e+00,9.368e+00,7.974e+00,8.285e+00,8.531e+00,8.976e+00,7.769e+00,9.012e+00,6.181e+00,7.529e+00,7.848e+00,9.254e+00,7.769e+00,1.014e+01,6.655e+00,6.225e+00
8.496e-02,2.912e-01,8.829e-01,5.973e-01,1.341e+00,1.641e+00,1.319e+00,1.629e+00,2.322e+00,2.417e+00,2.473e+00,2.348e+00,3.262e+00,2.860e+00,3.892e+00,4.615e+00,4.910e+00,3.932e+00,5.108e+00,5.003e+00,4.579e+00,5.492e+00,4.913e+00,5.513e+00,5.588e+00,4.293e+00,7.155e+00,6.471e+00,6.112e+00,7.522e+00,5.781e+00,7.562e+00,6.606e+00,6.827e+00,7.850e+00,7.003e+00,7.760e+00,5.908e+00,8.208e+00,7.377e+00,6.718e+00,8.180e+00,7.908e+00,9.420e+00,9.286e+00,8.678e+00,8.160e+00,9.313e+00,7.676e+00,9.339e+00,8.215e+00,6.551e+00,8.744e+00,8.011e+00,8.021e+00,7.843e+00,7.190e+00,9.941e+00,8.868e+00,8.544e+00,9.347e+00,8.038e+00,7.240e+00,8.371e+00,7.976e+00,6.714e+00,6.569e+00,8.762e+00,8.839e+00,7.592e+00,7.836e+00,7.776e+00,7.523e+00,9.130e+00,6.654e+00,8.464e+00,7.512e+00,8.771e+00,7.687e+00,8.647e+00,6.500e+00,6.761e+00
1.936e-01,6.135e-01,1.359e+00,1.080e+00,1.774e+00,2.208e+00,1.842e+00,2.202e+00,3.499e+00,2.863e+00,2.720e+00,3.409e+00,4.425e+00,3.433e+00,4.276e+00,5.604e+00,6.414e+00,5.118e+00,6.384e+00,6.604e+00,6.388e+00,6.727e+00,6.955e+00,6.423e+00,7.274e+00,6.094e+00,8.702e+00,9.030e+00,8.336e+00,8.991e+00,7.065e+00,9.722e+00,8.892e+00,8.723e+00,9.093e+00,8.942e+00,9.747e+00,8.810e+00,9.410e+00,8.807e+00,7.876e+00,9.952e+00,8.858e+00,1.117e+01,1.022e+01,9.814e+00,1.042e+01,1.105e+01,8.581e+00,1.167e+01,9.420e+00,6.747e+00,9.574e+00,8.795e+00,9.844e+00,9.840e+00,9.003e+00,1.186e+01,9.173e+00,1.044e+01,1.126e+01,9.112e+00,9.101e+00,1.019e+01,1.049e+01,8.184e+00,7.586e+00,1.008e+01,8.301e+00,9.754e+00,1.046e+01,1.069e+01,8.671e+00,1.017e+01,7.477e+00,9.127e+00,8.875e+00,1.103e+01,9.371e+00,1.081e+01,7.794e+00,8.755e+00
1.841e-01,6.107e-01,1.384e+00,1.087e+00,1.444e+00,2.451e+00,1.897e+00,2.139e+00,3.267e+00,2.967e+00,2.691e+00,2.419e+00,4.009e+00,2.779e+00,3.486e+00,5.022e+00,5.058e+00,4.427e+00,5.582e+00,5.949e+00,5.331e+00,6.021e+00,5.683e+00,5.309e+00,5.907e+00,5.865e+00,7.304e+00,7.195e+00,7.266e+00,8.532e+00,6.810e+00,8.843e+00,6.992e+00,8.772e+00,7.816e+00,7.832e+00,8.499e+00,7.559e+00,1.025e+01,7.666e+00,8.263e+00,9.325e+00,9.347e+00,1.032e+01,1.034e+01,9.543e+00,9.374e+00,9.477e+00,7.661e+00,1.051e+01,8.473e+00,7.299e+00,9.582e+00,9.534e+00,9.520e+00,1.023e+01,8.606e+00,1.156e+01,9.283e+00,1.015e+01,1.062e+01,8.723e+00,8.789e+00,9.429e+00,9.108e+00,7.494e+00,8.491e+00,1.004e+01,8.615e+00,9.131e+00,9.889e+00,9.089e+00,7.968e+00,8.624e+00,7.163e+00,8.628e+00,8.757e+00,1.015e+01,9.288e+00,1.023e+01,7.897e+00,8.447e+00
6.069e-01,8.983e-01,1.147e+00,1.585e+00,1.927e+00,2.073e+00,2.009e+00,2.060e+00,2.977e+00,2.539e+00,2.508e+00,3.785e+00,3.058e+00,3.009e+00,4.364e+00,5.207e+00,6.536e+00,3.953e+00,6.309e+00,5.458e+00,5.525e+00,6.046e+00,6.646e+00,6.280e+00,8.016e+00,6.276e+00,8.743e+00,7.874e+00,7.344e+00,8.386e+00,7.162e+00,9.098e+00,8.595e+00,8.775e+00,8.902e+00,8.705e+00,8.521e+00,9.020e+00,9.635e+00,8.109e+00,9.454e+00,9.951e+00,1.009e+01,1.114e+01,1.158e+01,9.741e+00,1.045e+01,1.138e+01,8.400e+00,1.072e+01,9.611e+00,7.179e+00,9.930e+00,1.047e+01,1.052e+01,9.940e+00,9.365e+00,1.237e+01,9.287e+00,9.125e+00,1.052e+01,9.727e+00,8.617e+00,1.005e+01,9.890e+00,9.136e+00,8.345e+00,1.136e+01,9.309e+00,9.712e+00,1.067e+01,1.128e+01,9.204e+00,9.622e+00,7.731e+00,9.367e+00,9.447e+00,1.212e+01,9.645e+00,1.017e+01,7.678e+00,8.104e+00
5.722e-01,9.383e-01,1.394e+00,1.633e+00,2.021e+00,2.192e+00,1.999e+00,2.612e+00,3.396e+00,2.799e+00,2.647e+00,4.089e+00,3.588e+00,2.866e+00,3.930e+00,5.426e+00,6.322e+00,4.473e+00,6.037e+00,5.779e+00,5.125e+00,5.525e+00,6.405e+00,6.510e+00,7.637e+00,5.977e+00,7.943e+00,7.266e+00,6.676e+00,8.153e+00,5.898e+00,8.649e+00,7.588e+00,8.144e+00,7.897e+00,7.602e+00,8.166e+00,7.143e+00,9.823e+00,8.073e+00,8.782e+00,8.755e+00,9.661e+00,1.037e+01,1.033e+01,8.869e+00,1.055e+01,1.178e+01,8.628e+00,1.068e+01,9.478e+00,7.506e+00,8.988e+00,9.032e+00,1.077e+01,9.853e+00,7.966e+00,1.182e+01,8.314e+00,9.032e+00,1.088e+01,8.323e+00,8.640e+00,9.166e+00,9.141e+00,7.830e+00,8.620e+00,1.094e+01,8.604e+00,8.363e+00,1.100e+01,1.059e+01,8.991e+00,8.910e+00,7.992e+00,9.253e+00,9.087e+00,1.129e+01,9.090e+00,9.880e+00,6.820e+00,8.710e+00
1.984e-01,6.083e-01,1.193e+00,1.003e+00,1.025e+00,1.842e+00,1.461e+00,2.111e+00,3.076e+00,2.457e+00,2.643e+00,3.009e+00,3.575e+00,3.132e+00,3.292e+00,4.929e+00,4.862e+00,4.174e+00,5.203e+00,5.215e+00,5.265e+00,5.533e+00,5.791e+00,5.957e+00,6.077e+00,5.746e+00,7.539e+00,7.563e+00,7.819e+00,8.353e+00,7.826e+00,9.235e+00,7.777e+00,8.493e+00,8.736e+00,8.171e+00,8.837e+00,9.026e+00,1.064e+01,9.358e+00,9.287e+00,9.964e+00,1.105e+01,1.162e+01,1.224e+01,1.165e+01,1.064e+01,1.120e+01,1.049e+01,1.208e+01,1.139e+01,8.741e+00,1.130e+01,1.034e+01,1.123e+01,1.227e+01,1.048e+01,1.309e+01,9.968e+00,1.093e+01,1.128e+01,1.034e+01,1.060e+01,1.059e+01,1.143e+01,9.381e+00,9.115e+00,1.232e+01,1.003e+01,9.977e+00,1.036e+01,1.002e+01,9.707e+00,1.001e+01,8.149e+00,1.102e+01,1.051e+01,1.276e+01,1.144e+01,1.201e+01,9.097e+00,8.814e+00
4.269e-01,7.677e-01,1.306e+00,1.181e+00,9.390e-01,1.501e+00,1.364e+00,1.489e+00,2.456e+00,1.633e+00,1.514e+00,1.973e+00,2.516e+00,2.472e+00,2.895e+00,3.914e+00,4.155e+00,3.262e+00,4.516e+00,4.260e+00,4.245e+00,4.482e+00,4.735e+00,5.522e+00,4.916e+00,4.144e+00,7.313e+00,7.166e+00,7.042e+00,7.735e+00,7.302e+00,7.327e+00,7.688e+00,7.145e+00,8.415e+00,6.652e+00,8.135e+00,7.558e+00,9.945e+00,8.434e+00,9.438e+00,9.184e+00,9.452e+00,1.060e+01,9.446e+00,1.015e+01,9.291e+00,1.090e+01,8.656e+00,1.072e+01,9.814e+00,8.661e+00,9.266e+00,8.703e+00,1.017e+01,1.084e+01,8.740e+00,1.187e+01,8.792e+00,1.054e+01,1.094e+01,9.048e+00,1.026e+01,9.733e+00,1.077e+01,8.534e+00,9.331e+00,1.127e+01,8.514e+00,9.520e+00,9.301e+00,9.933e+00,8.660e+00,1.014e+01,8.221e+00,8.991e+00,9.767e+00,1.059e+01,9.573e+00,1.133e+01,8.291e+00,8.434e+00
2.129e-01,7.318e-01,1.007e+00,1.146e+00,8.326e-01,1.357e+00,1.109e+00,1.772e+00,2.770e+00,2.798e+00,2.755e+00,3.352e+00,2.742e+00,2.247e+00,3.154e+00,4.270e+00,4.353e+00,3.250e+00,4.408e+00,4.300e+00,4.349e+00,4.585e+00,4.583e+00,4.836e+00,6.429e+00,4.886e+00,6.607e+00,6.429e+00,6.547e+00,7.720e+00,5.338e+00,8.206e+00,7.480e+00,8.125e+00,8.284e+00,8.565e+00,8.044e+00,8.459e+00,8.845e+00,8.021e+00,7.539e+00,9.251e+00,9.428e+00,1.100e+01,1.047e+01,1.061e+01,9.564e+00,1.027e+01,8.500e+00,1.094e+01,1.011e+01,7.917e+00,1.005e+01,8.646e+00,1.032e+01,1.059e+01,8.983e+00,1.084e+01,9.394e+00,1.018e+01,1.085e+01,8.128e+00,8.115e+00,9.986e+00,9.290e+00,7.912e+00,8.245e+00,1.109e+01,9.535e+00,8.215e+00,9.683e+00,9.808e+00,7.935e+00,1.031e+01,8.252e+00,1.030e+01,9.465e+00,1.159e+01,9.117e+00,9.536e+00,7.863e+00,8.709e+00
5.748e-01,5.848e-01,1.233e+00,1.157e+00,1.916e+00,2.300e+00,2.104e+00,2.397e+00,3.193e+00,2.436e+00,2.615e+00,3.665e+00,4.246e+00,3.062e+00,3.463e+00,4.595e+00,6.005e+00,4.397e+00,5.690e+00,6.386e+00,5.097e+00,5.801e+00,6.639e+00,7.254e+00,7.320e+00,5.946e+00,8.622e+00,8.226e+00,7.579e+00,9.091e+00,7.740e+00,8.832e+00,7.974e+00,8.839e+00,9.221e+00,8.373e+00,9.744e+00,8.555e+00,1.197e+01,9.290e+00,9.636e+00,1.046e+01,1.256e+01,1.320e+01,1.216e+01,1.120e+01,1.238e+01,1.310e+01,1.137e+01,1.364e+01,1.144e+01,1.065e+01,1.191e+01,1.134e+01,1.264e+01,1.278e+01,1.095e+01,1.477e+01,1.075e+01,1.269e+01,1.306e+01,1.086e+01,1.267e+01,1.099e+01,1.253e+01,9.906e+00,1.154e+01,1.279e+01,1.109e+01,1.067e+01,1.252e+01,1.231e+01,1.016e+01,1.144e+01,9.059e+00,1.094e+01,1.068e+01,1.338e+01,1.208e+01,1.337e+01,1.071e+01,9.855e+00
5.445e-02,5.311e-01,6.579e-01,9.179e-01,1.582e+00,1.605e+00,1.718e+00,2.155e+00,3.597e+00,2.616e+00,3.188e+00,3.959e+00,3.658e+00,3.685e+00,3.726e+00,5.470e+00,5.623e+00,3.323e+00,4.898e+00,5.465e+00,5.372e+00,6.133e+00,5.515e+00,6.393e+00,6.777e+00,6.233e+00,7.785e+00,7.267e+00,7.612e+00,8.515e+00,7.257e+00,7.938e+00,8.406e+00,7.238e+00,8.342e+00,7.261e+00,8.304e+00,8.411e+00,9.861e+00,8.117e+00,7.719e+00,8.763e+00,1.148e+01,1.143e+01,1.055e+01,1.012e+01,1.250e+01,1.161e+01,1.015e+01,1.315e+01,1.139e+01,8.196e+00,9.669e+00,1.130e+01,1.107e+01,1.190e+01,8.350e+00,1.274e+01,9.286e+00,1.092e+01,1.167e+01,1.017e+01,1.084e+01,1.038e+01,1.166e+01,9.735e+00,9.761e+00,1.125e+01,9.906e+00,1.095e+01,1.149e+01,1.086e+01,9.891e+00,1.065e+01,8.534e+00,9.718e+00,9.665e+00,1.214e+01,1.104e+01,1.184e+01,7.806e+00,8.413e+00
5.980e-01,9.943e-01,1.363e+00,1.597e+00,1.319e+00,1.841e+00,1.824e+00,2.449e+00,4.139e+00,3.631e+00,3.320e+00,4.791e+00,4.844e+00,3.191e+00,4.561e+00,6.221e+00,6.833e+00,5.190e+00,6.654e+00,6.859e+00,6.365e+00,6.736e+00,7.094e+00,7.940e+00,8.533e+00,7.064e+00,9.572e+00,8.952e+00,9.001e+00,9.576e+00,7.777e+00,1.076e+01,9.346e+00,1.039e+01,1.062e+01,9.778e+00,9.491e+00,1.076e+01,1.178e+01,1.036e+01,1.004e+01,1.184e+01,1.223e+01,1.375e+01,1.380e+01,1.416e+01,1.479e+01,1.515e+01,1.299e+01,1.584e+01,1.385e+01,1.043e+01,1.386e+01,1.294e+01,1.516e+01,1.590e+01,1.173e+01,1.594e+01,1.267e+01,1.352e+01,1.423e+01,1.297e+01,1.288e+01,1.336e+01,1.398e+01,1.198e+01,1.274e+01,1.519e+01,1.314e+01,1.327e+01,1.398e+01,1.367e+01,1.324e+01,1.378e+01,1.163e+01,1.221e+01,1.334e+01,1.490e+01,1.333e+01,1.445e+01,1.166e+01,1.189e+01
5.844e-01,6.414e-01,1.210e+00,1.121e+00,1.720e+00,1.819e+00,1.969e+00,2.802e+00,3.888e+00,2.452e+00,3.237e+00,4.233e+00,4.199e+00,3.834e+00,4.137e+00,4.914e+00,5.935e+00,3.488e+00,5.258e+00,6.138e+00,5.669e+00,5.529e+00,5.868e+00,6.385e+00,7.277e+00,5.841e+00,8.062e+00,8.574e+00,7.403e+00,8.114e+00,6.903e+00,8.018e+00,9.011e+00,6.990e+00,7.818e+00,7.678e+00,7.372e+00,9.309e+00,9.409e+00,7.883e+00,6.990e+00,1.024e+01,1.015e+01,1.105e+01,1.065e+01,1.062e+01,1.106e+01,1.134e+01,9.700e+00,1.083e+01,1.029e+01,8.187e+00,1.188e+01,9.592e+00,1.150e+01,1.082e+01,1.090e+01,1.204e+01,9.732e+00,1.193e+01,1.182e+01,1.000e+01,9.731e+00,1.067e+01,1.024e+01,1.020e+01,9.714e+00,1.173e+01,9.581e+00,8.891e+00,1.056e+01,1.220e+01,8.901e+00,1.124e+01,9.333e+00,9.905e+00,1.099e+01,1.154e+01,1.059e+01,1.135e+01,8.253e+00,8.290e+00
3.070e-01,6.443e-01,1.016e+00,1.172e+00,2.007e+00,2.004e+00,2.024e+00,2.614e+00,4.070e+00,3.250e+00,3.514e+00,4.437e+00,4.649e+00,3.421e+00,4.781e+00,5.803e+00,6.783e+00,4.618e+00,6.242e+00,6.423e+00,5.916e+00,6.790e+00,6.360e+00,7.028e+00,8.307e+00,6.853e+00,9.215e+00,8.556e+00,8.991e+00,9.258e+00,7.594e+00,9.547e+00,8.896e+00,9.583e+00,9.212e+00,8.908e+00,1.047e+01,9.326e+00,1.216e+01,1.046e+01,9.579e+00,1.240e+01,1.219e+01,1.347e+01,1.339e+01,1.286e+01,1.448e+01,1.380e+01,1.264e+01,1.533e+01,1.365e+01,1.058e+01,1.284e+01,1.265e+01,1.399e+01,1.497e+01,1.299e+01,1.551e+01,1.276e+01,1.356e+01,1.457e+01,1.205e+01,1.273e+01,1.340e+01,1.393e+01,1.192e+01,1.188e+01,1.261e+01,1.192e+01,1.322e+01,1.391e+01,1.286e+01,1.097e+01,1.366e+01,1.095e+01,1.253e+01,1.257e+01,1.546e+01,1.451e+01,1.404e+01,9.329e+00,1.093e+01
2.481e-01,3.639e-01,6.725e-01,7.540e-01,1.323e+00,1.782e+00,1.650e+00,1.519e+00,2.726e+00,2.476e+00,2.289e+00,2.319e+00,3.628e+00,2.210e+00,3.266e+00,3.704e+00,4.354e+00,3.413e+00,4.855e+00,5.293e+00,4.575e+00,4.820e+00,4.619e+00,5.941e+00,6.094e+00,5.607e+00,8.571e+00,6.711e+00,7.260e+00,7.908e+00,5.901e+00,8.623e+00,8.131e+00,8.485e+00,9.090e+00,8.209e+00,8.319e+00,8.653e+00,9.645e+00,8.569e+00,8.573e+00,1.016e+01,1.011e+01,1.236e+01,1.100e+01,1.072e+01,1.183e+01,1.155e+01,1.012e+01,1.348e+01,1.240e+01,8.249e+00,1.211e+01,1.132e+01,1.213e+01,1.319e+01,1.063e+01,1.326e+01,1.155e+01,1.161e+01,1.279e+01,1.051e+01,1.087e+01,1.180e+01,1.194e+01,1.085e+01,1.010e+01,1.199e+01,1.132e+01,1.022e+01,1.234e+01,1.078e+01,1.063e+01,1.023e+01,9.827e+00,1.059e+01,1.032e+01,1.259e+01,1.123e+01,1.245e+01,1.035e+01,9.397e+00
5.246e-01,6.583e-01,1.052e+00,1.055e+00,1.067e+00,1.447e+00,1.609e+00,1.879e+00,2.820e+00,1.978e+00,2.959e+00,3.594e+00,3.642e+00,3.227e+00,3.256e+00,4.453e+00,5.086e+00,3.472e+00,6.025e+00,5.770e+00,5.142e+00,5.259e+00,5.892e+00,7.361e+00,7.144e+00,5.787e+00,9.315e+00,8.415e+00,7.265e+00,9.545e+00,7.498e+00,8.768e+00,9.624e+00,8.431e+00,1.101e+01,9.218e+00,9.249e+00,9.977e+00,1.157e+01,9.215e+00,9.386e+00,1.060e+01,1.093e+01,1.238e+01,1.180e+01,1.394e+01,1.240e+01,1.243e+01,1.167e+01,1.504e+01,1.264e+01,1.025e+01,1.458e+01,1.201e+01,1.446e+01,1.434e+01,1.267e+01,1.687e+01,1.300e+01,1.363e+01,1.413e+01,1.186e+01,1.267e+01,1.307e+01,1.370e+01,1.295e+01,1.208e+01,1.365e+01,1.312e+01,1.214e+01,1.429e+01,1.407e+01,1.193e+01,1.378e+01,1.254e+01,1.400e+01,1.301e+01,1.373e+01,1.386e+01,1.341e+01,1.040e+01,1.080e+01
5.741e-01,9.478e-01,1.452e+00,1.657e+00,2.017e+00,2.263e+00,1.918e+00,1.791e+00,2.751e+00,2.451e+00,1.676e+00,3.159e+00,3.656e+00,2.068e+00,3.552e+00,4.175e+00,5.700e+00,4.304e+00,4.610e+00,5.513e+00,4.691e+00,5.112e+00,5.977e+00,6.640e+00,7.532e+00,5.656e+00,8.415e+00,8.591e+00,8.249e+00,9.490e+00,6.809e+00,9.311e+00,8.925e+00,8.733e+00,8.852e+00,8.394e+00,7.979e+00,8.845e+00,9.721e+00,7.600e+00,8.745e+00,9.228e+00,1.059e+01,1.224e+01,1.154e+01,1.132e+01,1.288e+01,1.305e+01,1.128e+01,1.532e+01,1.438e+01,1.072e+01,1.359e+01,1.266e+01,1.328e+01,1.403e+01,1.213e+01,1.590e+01,1.088e+01,1.356e+01,1.490e+01,1.089e+01,1.210e+01,1.290e+01,1.476e+01,1.239e+01,1.104e+01,1.424e+01,1.303e+01,1.214e+01,1.344e+01,1.415e+01,1.219e+01,1.330e+01,1.082e+01,1.239e+01,1.263e+01,1.528e+01,1.293e+01,1.477e+01,1.164e+01,1.090e+01
2.072e-01,3.348e-01,8.867e-01,5.482e-01,1.212e+00,1.447e+00,1.525e+00,1.802e+00,2.673e+00,2.345e+00,2.496e+00,1.572e+00,2.322e+00,2.292e+00,3.468e+00,4.371e+00,4.428e+00,3.221e+00,5.279e+00,4.617e+00,4.696e+00,5.151e+00,4.625e+00,5.978e+00,6.222e+00,4.577e+00,6.846e+00,7.535e+00,6.819e+00,7.890e+00,7.365e+00,7.743e+00,8.143e+00,8.503e+00,8.682e+00,9.806e+00,9.098e+00,8.318e+00,9.791e+00,8.145e+00,8.632e+00,1.009e+01,1.014e+01,1.143e+01,1.088e+01,1.247e+01,1.217e+01,1.278e+01,1.073e+01,1.468e+01,1.218e+01,1.048e+01,1.271e+01,1.295e+01,1.284e+01,1.269e+01,1.222e+01,1.471e+01,1.276e+01,1.271e+01,1.381e+01,1.148e+01,1.250e+01,1.126e+01,1.342e+01,1.113e+01,1.188e+01,1.337e+01,1.232e+01,1.216e+01,1.320e+01,1.380e+01,1.081e+01,1.286e+01,1.170e+01,1.175e+01,1.144e+01,1.380e+01,1.369e+01,1.391e+01,1.139e+01,1.148e+01
3.042e-01,6.510e-01,9.507e-01,1.188e+00,1.895e+00,2.011e+00,1.970e+00,1.945e+00,3.492e+00,2.854e+00,3.029e+00,4.162e+00,4.035e+00,3.592e+00,4.480e+00,5.611e+00,7.368e+00,4.582e+00,6.894e+00,6.733e+00,6.454e+00,6.997e+00,7.544e+00,7.290e+00,8.659e+00,6.609e+00,1.086e+01,9.206e+00,8.615e+00,1.014e+01,8.454e+00,1.022e+01,9.240e+00,9.312e+00,1.034e+01,8.774e+00,1.007e+01,9.752e+00,1.122e+01,1.028e+01,1.044e+01,1.237e+01,1.349e+01,1.405e+01,1.286e+01,1.364e+01,1.475e+01,1.548e+01,1.233e+01,1.724e+01,1.472e+01,1.235e+01,1.535e+01,1.519e+01,1.564e+01,1.638e+01,1.398e+01,1.761e+01,1.452e+01,1.529e+01,1.547e+01,1.358e+01,1.509e+01,1.396e+01,1.589e+01,1.481e+01,1.399e+01,1.481e+01,1.548e+01,1.630e+01,1.653e+01,1.624e+01,1.315e+01,1.597e+01,1.308e+01,1.374e+01,1.499e+01,1.706e+01,1.451e+01,1.638e+01,1.196e+01,1.256e+01
1.079e-01,2.828e-01,7.583e-01,6.313e-01,1.480e+00,1.783e+00,1.492e+00,2.078e+00,2.781e+00,2.435e+00,2.993e+00,3.327e+00,3.454e+00,2.696e+00,2.897e+00,3.701e+00,4.477e+00,3.088e+00,4.022e+00,4.980e+00,4.392e+00,4.847e+00,5.012e+00,4.471e+00,5.251e+00,4.874e+00,5.477e+00,5.934e+00,5.439e+00,6.613e+00,4.689e+00,7.338e+00,6.542e+00,6.958e+00,6.734e+00,7.208e+00,7.476e+00,8.422e+00,7.827e+00,7.743e+00,6.492e+00,8.669e+00,9.801e+00,9.626e+00,1.037e+01,9.320e+00,1.206e+01,1.075e+01,1.049e+01,1.271e+01,1.207e+01,8.230e+00,1.198e+01,1.223e+01,1.225e+01,1.356e+01,1.158e+01,1.385e+01,1.204e+01,1.137e+01,1.343e+01,1.110e+01,1.214e+01,1.212e+01,1.210e+01,1.154e+01,9.429e+00,1.181e+01,1.101e+01,1.193e+01,1.309e+01,1.302e+01,1.087e+01,1.115e+01,9.903e+00,1.106e+01,1.027e+01,1.316e+01,1.350e+01,1.193e+01,1.005e+01,1.007e+01
2.080e-01,1.600e-01,7.680e-01,3.260e-01,8.818e-01,1.384e+00,1.270e+00,1.689e+00,2.454e+00,2.465e+00,2.420e+00,2.337e+00,3.272e+00,2.571e+00,3.209e+00,4.310e+00,4.778e+00,4.111e+00,4.909e+00,5.501e+00,5.413e+00,5.086e+00,5.144e+00,6.435e+00,6.157e+00,4.801e+00,6.468e+00,8.084e+00,7.113e+00,7.465e+00,6.246e+00,8.614e+00,8.568e+00,8.404e+00,8.254e+00,9.733e+00,8.926e+00,9.734e+00,9.994e+00,8.773e+00,8.257e+00,9.875e+00,1.082e+01,1.054e+01,1.122e+01,1.080e+01,1.282e+01,1.211e+01,1.133e+01,1.471e+01,1.089e+01,1.040e+01,1.319e+01,1.341e+01,1.407e+01,1.354e+01,1.231e+01,1.440e+01,1.341e+01,1.418e+01,1.421e+01,1.133e+01,1.327e+01,1.237e+01,1.278e+01,1.206e+01,1.096e+01,1.525e+01,1.225e+01,1.319e+01,1.341e+01,1.493e+01,1.224e+01,1.312e+01,1.108e+01,1.229e+01,1.216e+01,1.510e+01,1.417e+01,1.427e+01,1.208e+01,1.287e+01
4.110e-01,8.614e-01,1.598e+00,1.420e+00,1.802e+00,2.460e+00,2.170e+00,2.163e+00,3.579e+00,2.712e+00,2.793e+00,3.268e+00,4.063e+00,3.360e+00,4.049e+00,5.076e+00,5.787e+00,4.599e+00,5.599e+00,6.194e+00,6.254e+00,5.745e+00,6.169e+00,6.270e+00,6.363e+00,5.950e+00,7.846e+00,8.683e+00,7.503e+00,7.479e+00,7.086e+00,7.973e+00,8.511e+00,7.009e+00,7.912e+00,7.833e+00,9.043e+00,8.524e+00,1.032e+01,9.062e+00,8.468e+00,9.618e+00,1.067e+01,1.191e+01,1.121e+01,1.117e+01,1.340e+01,1.246e+01,1.169e+01,1.476e+01,1.441e+01,1.034e+01,1.355e+01,1.335e+01,1.465e+01,1.550e+01,1.417e+01,1.650e+01,1.243e+01,1.327e+01,1.592e+01,1.354e+01,1.347e+01,1.495e+01,1.619e+01,1.327e+01,1.196e+01,1.416e+01,1.392e+01,1.502e+01,1.471e+01,1.443e+01,1.247e+01,1.386e+01,1.192e+01,1.286e+01,1.410e+01,1.612e+01,1.402e+01,1.481e+01,1.192e+01,1.198e+01
4.571e-01,3.060e-01,9.579e-01,6.234e-01,9.557e-01,1.656e+00,1.533e+00,2.024e+00,2.791e+00,2.269e+00,3.186e+00,3.149e+00,3.886e+00,2.968e+00,3.352e+00,3.633e+00,4.314e+00,3.335e+00,4.892e+00,5.444e+00,4.984e+00,4.691e+00,5.771e+00,5.513e+00,5.332e+00,4.783e+00,7.968e+00,7.236e+00,6.670e+00,7.395e+00,6.479e+00,8.151e+00,7.194e+00,8.267e+00,9.061e+00,9.136e+00,8.285e+00,9.126e+00,9.352e+00,9.122e+00,8.885e+00,1.071e+01,1.063e+01,1.316e+01,1.176e+01,1.245e+01,1.201e+01,1.332e+01,1.089e+01,1.311e+01,1.301e+01,1.031e+01,1.523e+01,1.359e+01,1.448e+01,1.599e+01,1.526e+01,1.695e+01,1.460e+01,1.392e+01,1.687e+01,1.478e+01,1.442e+01,1.549e+01,1.421e+01,1.389e+01,1.374e+01,1.584e+01,1.512e+01,1.429e+01,1.528e+01,1.509e+01,1.190e+01,1.546e+01,1.315e+01,1.455e+01,1.442e+01,1.581e+01,1.407e+01,1.551e+01,1.392e+01,1.218e+01
2.232e-01,7.594e-01,1.348e+00,1.110e+00,1.257e+00,1.551e+00,1.502e+00,1.852e+00,3.285e+00,2.721e+00,2.750e+00,2.916e+00,3.335e+00,2.776e+00,3.870e+00,4.965e+00,5.103e+00,3.996e+00,4.903e+00,4.986e+00,5.050e+00,5.700e+00,4.465e+00,5.842e+00,6.079e+00,4.789e+00,6.012e+00,7.287e+00,6.637e+00,6.839e+00,6.124e+00,6.852e+00,7.373e+00,6.507e+00,7.157e+00,7.386e+00,8.054e+00,7.945e+00,9.271e+00,7.723e+00,8.208e+00,8.847e+00,9.331e+00,9.470e+00,1.060e+01,1.064e+01,1.078e+01,1.050e+01,9.878e+00,1.291e+01,1.236e+01,8.513e+00,1.218e+01,1.231e+01,1.318e+01,1.452e+01,1.177e+01,1.559e+01,1.266e+01,1.247e+01,1.474e+01,1.304e+01,1.262e+01,1.386e+01,1.305e+01,1.354e+01,1.058e+01,1.477e+01,1.238e+01,1.284e+01,1.247e+01,1.256e+01,1.239e+01,1.302e+01,1.011e+01,1.337e+01,1.274e+01,1.537e+01,1.342e+01,1.388e+01,1.141e+01,1.198e+01
3.954e-01,2.783e-01,3.623e-01,5.672e-01,8.517e-01,1.038e+00,1.251e+00,1.331e+00,1.867e+00,1.373e+00,2.134e+00,2.243e+00,2.785e+00,1.748e+00,2.593e+00,2.828e+00,3.383e+00,2.392e+00,4.133e+00,3.914e+00,3.632e+00,3.109e+00,3.914e+00,4.749e+00,3.990e+00,4.306e+00,6.043e+00,5.409e+00,5.687e+00,6.608e+00,5.892e+00,6.691e+00,6.845e+00,7.485e+00,7.688e+00,7.283e+00,8.438e+00,7.751e+00,8.611e+00,8.385e+00,8.414e+00,9.232e+00,1.064e+01,1.100e+01,1.062e+01,1.027e+01,1.052e+01,1.192e+01,9.637e+00,1.288e+01,1.204e+01,9.034e+00,1.122e+01,1.243e+01,1.252e+01,1.500e+01,1.305e+01,1.472e+01,1.267e+01,1.265e+01,1.450e+01,1.162e+01,1.387e+01,1.309e+01,1.247e+01,1.171e+01,1.112e+01,1.344e+01,1.247e+01,1.243e+01,1.234e+01,1.297e+01,1.038e+01,1.308e+01,1.037e+01,1.294e+01,1.124e+01,1.480e+01,1.339e+01,1.355e+01,1.187e+01,1.134e+01
2.781e-02,5.225e-01,7.624e-01,8.777e-01,9.402e-01,1.263e+00,8.814e-01,1.142e+00,2.329e+00,2.580e+00,2.553e+00,3.051e+00,3.107e+00,2.163e+00,3.483e+00,3.709e+00,5.035e+00,3.429e+00,3.660e+00,4.376e+00,4.246e+00,5.007e+00,4.504e+00,5.073e+00,5.525e+00,4.456e+00,6.050e+00,6.438e+00,6.923e+00,7.039e+00,5.368e+00,8.082e+00,6.569e+00,6.690e+00,6.792e+00,6.157e+00,6.836e+00,8.227e+00,7.843e+00,6.652e+00,5.823e+00,8.521e+00,9.633e+00,9.588e+00,1.033e+01,1.005e+01,1.156e+01,1.001e+01,1.087e+01,1.306e+01,1.173e+01,1.013e+01,1.236e+01,1.113e+01,1.195e+01,1.380e+01,1.296e+01,1.551e+01,1.396e+01,1.372e+01,1.402e+01,1.253e+01,1.335e+01,1.418e+01,1.321e+01,1.435e+01,1.182e+01,1.371e+01,1.435e+01,1.344e+01,1.317e+01,1.439e+01,1.119e+01,1.367e+01,1.037e+01,1.412e+01,1.389e+01,1.523e+01,1.385e+01,1.373e+01,1.180e+01,1.024e+01
9.141e-02,2.207e-01,6.351e-01,4.170e-01,1.252e+00,1.325e+00,1.356e+00,1.448e+00,2.497e+00,2.053e+00,2.456e+00,2.226e+00,2.798e+00,2.707e+00,3.531e+00,4.188e+00,4.800e+00,3.578e+00,5.624e+00,5.089e+00,5.535e+00,5.139e+00,5.460e+00,5.915e+00,5.720e+00,4.890e+00,7.324e+00,7.178e+00,6.399e+00,7.724e+00,6.562e+00,7.983e+00,8.248e+00,7.886e+00,8.992e+00,9.474e+00,1.057e+01,8.870e+00,9.959e+00,9.476e+00,9.663e+00,1.073e+01,1.161e+01,1.245e+01,1.162e+01,1.202e+01,1.297e+01,1.335e+01,1.203e+01,1.521e+01,1.390e+01,1.110e+01,1.377e+01,1.464e+01,1.336e+01,1.494e+01,1.501e+01,1.816e+01,1.496e+01,1.533e+01,1.744e+01,1.496e+01,1.566e+01,1.595e+01,1.557e+01,1.530e+01,1.393e+01,1.662e+01,1.520e+01,1.587e+01,1.613e+01,1.716e+01,1.436e+01,1.645e+01,1.373e+01,1.567e+01,1.507e+01,1.747e+01,1.571e+01,1.671e+01,1.492e+01,1.356e+01
4.104e-01,7.925e-01,1.242e+00,1.329e+00,1.280e+00,2.026e+00,1.684e+00,1.506e+00,3.114e+00,2.862e+00,2.335e+00,3.459e+00,4.257e+00,3.301e+00,4.059e+00,5.276e+00,6.138e+00,4.807e+00,6.002e+00,6.162e+00,6.004e+00,6.106e+00,6.598e+00,7.117e+00,7.031e+00,6.320e+00,9.459e+00,8.264e+00,8.098e+00,9.206e+00,8.318e+00,1.023e+01,8.823e+00,9.223e+00,1.008e+01,8.951e+00,9.424e+00,1.014e+01,1.089e+01,8.702e+00,1.011e+01,1.111e+01,1.233e+01,1.323e+01,1.247e+01,1.306e+01,1.357e+01,1.347e+01,1.251e+01,1.453e+01,1.445e+01,1.104e+01,1.436e+01,1.418e+01,1.573e+01,1.672e+01,1.570e+01,1.746e+01,1.379e+01,1.478e+01,1.675e+01,1.501e+01,1.501e+01,1.663e+01,1.552e+01,1.694e+01,1.489e+01,1.728e+01,1.598e+01,1.699e+01,1.465e+01,1.630e+01,1.536e+01,1.674e+01,1.321e+01,1.454e+01,1.679e+01,1.818e+01,1.471e+01,1.758e+01,1.655e+01,1.368e+01
1.918e-01,3.936e-01,5.673e-01,7.096e-01,1.158e+00,1.060e+00,1.153e+00,1.895e+00,2.714e+00,1.743e+00,1.886e+00,3.166e+00,2.683e+00,2.982e+00,2.723e+00,4.104e+00,4.337e+00,2.465e+00,4.011e+00,4.004e+00,3.597e+00,4.300e+00,3.949e+00,4.834e+00,5.776e+00,4.386e+00,6.899e+00,5.421e+00,5.977e+00,7.507e+00,5.469e+00,7.472e+00,7.544e+00,6.962e+00,8.155e+00,6.710e+00,7.489e+00,8.542e+00,9.439e+00,8.935e+00,8.394e+00,9.507e+00,1.066e+01,1.216e+01,1.119e+01,1.128e+01,1.229e+01,1.288e+01,1.100e+01,1.306e+01,1.321e+01,9.792e+00,1.169e+01,1.297e+01,1.324e+01,1.520e+01,1.326e+01,1.544e+01,1.397e+01,1.351e+01,1.617e+01,1.422e+01,1.550e+01,1.591e+01,1.440e+01,1.434e+01,1.464e+01,1.570e+01,1.428e+01,1.319e+01,1.494e+01,1.527e+01,1.309e+01,1.614e+01,1.396e+01,1.514e+01,1.539e+01,1.568e+01,1.382e+01,1.555e+01,1.410e+01,1.269e+01
5.962e-01,4.728e-01,1.059e+00,8.429e-01,1.215e+00,1.499e+00,1.608e+00,2.047e+00,2.763e+00,1.822e+00,2.413e+00,2.694e+00,3.048e+00,2.426e+00,2.830e+00,3.064e+00,3.782e+00,2.689e+00,4.540e+00,5.035e+00,4.347e+00,4.025e+00,4.600e+00,5.230e+00,5.943e+00,4.428e+00,7.602e+00,7.139e+00,6.435e+00,8.651e+00,6.384e+00,7.709e+00,8.871e+00,7.578e+00,8.991e+00,8.954e+00,7.568e+00,8.647e+00,9.308e+00,7.756e+00,8.428e+00,1.040e+01,9.395e+00,1.105e+01,1.072e+01,1.077e+01,1.137e+01,1.225e+01,9.596e+00,1.257e+01,1.223e+01,1.056e+01,1.353e+01,1.330e+01,1.351e+01,1.592e+01,1.406e+01,1.661e+01,1.460e+01,1.468e+01,1.779e+01,1.364e+01,1.616e+01,1.745e+01,1.538e+01,1.492e+01,1.557e+01,1.709e+01,1.591e+01,1.488e+01,1.562e+01,1.684e+01,1.433e+01,1.654e+01,1.443e+01,1.461e+01,1.513e+01,1.724e+01,1.453e+01,1.642e+01,1.657e+01,1.268e+01
3.126e-01,8.180e-01,1.348e+00,1.340e+00,1.573e+00,2.076e+00,1.914e+00,2.704e+00,4.383e+00,3.689e+00,3.955e+00,4.881e+00,4.475e+00,4.320e+00,4.828e+00,6.652e+00,6.746e+00,4.436e+00,6.531e+00,6.559e+00,6.652e+00,7.167e+00,7.436e+00,7.591e+00,7.482e+00,6.743e+00,8.993e+00,9.178e+00,9.528e+00,1.069e+01,9.318e+00,1.068e+01,9.850e+00,1.014e+01,1.042e+01,9.742e+00,1.113e+01,1.109e+01,1.233e+01,1.140e+01,1.023e+01,1.274e+01,1.369e+01,1.379e+01,1.357e+01,1.355e+01,1.555e+01,1.486e+01,1.310e+01,1.692e+01,1.498e+01,1.149e+01,1.427e+01,1.534e+01,1.617e+01,1.824e+01,1.685e+01,1.911e+01,1.678e+01,1.660e+01,1.928e+01,1.600e+01,1.802e+01,2.016e+01,1.852e+01,1.782e+01,1.673e+01,1.954e+01,1.773e+01,1.898e+01,1.727e+01,1.999e+01,1.638e+01,1.944e+01,1.527e+01,1.924e+01,1.768e+01,2.037e+01,1.901e+01,2.018e+01,1.751e+01,1.582e+01
5.544e-01,7.952e-01,1.188e+00,1.341e+00,1.646e+00,1.890e+00,1.969e+00,1.959e+00,3.008e+00,1.951e+00,1.798e+00,1.953e+00,3.161e+00,1.435e+00,2.950e+00,3.397e+00,3.853e+00,3.119e+00,4.105e+00,4.519e+00,3.828e+00,4.000e+00,4.253e+00,5.328e+00,5.188e+00,4.983e+00,6.520e+00,6.810e+00,6.638e+00,6.814e+00,6.930e+00,7.358e+00,7.449e+00,7.633e+00,7.853e+00,6.934e+00,7.783e+00,7.701e+00,8.971e+00,7.966e+00,7.496e+00,7.642e+00,8.681e+00,1.116e+01,1.013e+01,1.082e+01,9.679e+00,1.048e+01,9.350e+00,1.164e+01,1.202e+01,8.585e+00,1.144e+01,1.063e+01,1.244e+01,1.325e+01,1.199e+01,1.407e+01,1.105e+01,1.235e+01,1.501e+01,1.097e+01,1.198e+01,1.427e+01,1.552e+01,1.186e+01,1.140e+01,1.499e+01,1.383e+01,1.387e+01,1.264e+01,1.317e+01,1.166e+01,1.367e+01,1.098e+01,1.221e+01,1.458e+01,1.586e+01,1.327e+01,1.456e+01,1.373e+01,1.236e+01
5.963e-01,5.285e-01,1.262e+00,1.084e+00,1.740e+00,2.358e+00,2.057e+00,2.099e+00,2.975e+00,2.807e+00,2.830e+00,3.024e+00,3.860e+00,3.102e+00,4.224e+00,3.944e+00,5.298e+00,3.867e+00,4.944e+00,6.118e+00,4.999e+00,5.449e+00,5.156e+00,6.280e+00,7.033e+00,4.833e+00,8.514e+00,7.934e+00,6.911e+00,8.421e+00,6.090e+00,7.498e+00,8.720e+00,7.036e+00,8.950e+00,8.676e+00,8.370e+00,8.545e+00,9.448e+00,7.203e+00,7.391e+00,9.742e+00,1.043e+01,1.182e+01,1.079e+01,1.153e+01,1.263e+01,1.187e+01,1.183e+01,1.421e+01,1.257e+01,1.061e+01,1.398e+01,1.175e+01,1.373e+01,1.447e+01,1.316e+01,1.655e+01,1.304e+01,1.346e+01,1.540e+01,1.218e+01,1.478e+01,1.501e+01,1.632e+01,1.562e+01,1.416e+01,1.691e+01,1.760e+01,1.493e+01,1.474e+01,1.682e+01,1.401e+01,1.681e+01,1.426e+01,1.400e+01,1.557e+01,1.711e+01,1.657e+01,1.725e+01,1.471e+01,1.239e+01
3.896e-01,4.819e-01,9.560e-01,9.609e-01,1.457e+00,2.072e+00,1.908e+00,2.084e+00,3.057e+00,2.343e+00,2.390e+00,2.559e+00,3.210e+00,2.556e+00,3.119e+00,3.857e+00,4.805e+00,3.228e+00,4.802e+00,5.827e+00,5.365e+00,5.652e+00,6.025e+00,5.023e+00,6.098e+00,5.537e+00,7.702e+00,7.701e+00,6.921e+00,7.926e+00,6.724e+00,8.604e+00,7.827e+00,7.868e+00,8.131e+00,7.826e+00,7.867e+00,8.625e+00,9.437e+00,9.515e+00,8.151e+00,1.045e+01,1.048e+01,1.132e+01,1.078e+01,1.096e+01,1.085e+01,1.217e+01,9.106e+00,1.352e+01,1.187e+01,9.568e+00,1.351e+01,1.361e+01,1.337e+01,1.423e+01,1.393e+01,1.473e+01,1.407e+01,1.406e+01,1.724e+01,1.273e+01,1.513e+01,1.716e+01,1.588e+01,1.566e+01,1.588e+01,1.799e+01,1.718e+01,1.773e+01,1.730e+01,1.679e+01,1.635e+01,1.773e+01,1.544e+01,1.552e+01,1.707e+01,1.790e+01,1.598e+01,1.835e+01,1.843e+01,1.579e+01
3.730e-01,7.187e-01,1.499e+00,1.094e+00,1.161e+00,1.776e+00,1.662e+00,2.364e+00,3.477e+00,2.666e+00,2.841e+00,2.622e+00,3.408e+00,2.765e+00,3.661e+00,5.022e+00,4.537e+00,4.065e+00,5.434e+00,5.302e+00,5.333e+00,5.432e+00,5.171e+00,5.382e+00,5.645e+00,4.911e+00,5.977e+00,7.095e+00,6.555e+00,7.174e+00,6.704e+00,7.432e+00,7.614e+00,7.305e+00,8.148e+00,8.383e+00,7.824e+00,7.697e+00,9.197e+00,8.516e+00,9.026e+00,9.961e+00,1.010e+01,1.041e+01,1.197e+01,1.269e+01,1.260e+01,1.367e+01,1.152e+01,1.412e+01,1.395e+01,1.043e+01,1.339e+01,1.438e+01,1.383e+01,1.586e+01,1.264e+01,1.729e+01,1.471e+01,1.470e+01,1.757e+01,1.465e+01,1.476e+01,1.677e+01,1.649e+01,1.609e+01,1.544e+01,1.868e+01,1.646e+01,1.711e+01,1.592e+01,1.814e+01,1.661e+01,1.784e+01,1.488e+01,1.573e+01,1.724e+01,1.814e+01,1.644e+01,1.785e+01,1.617e+01,1.539e+01
5.798e-01,5.842e-01,7.965e-01,1.082e+00,1.872e+00,1.411e+00,1.704e+00,2.051e+00,2.730e+00,1.751e+00,2.395e+00,3.376e+00,3.001e+00,2.275e+00,3.667e+00,3.666e+00,5.195e+00,2.924e+00,4.566e+00,4.760e+00,4.414e+00,4.932e+00,5.287e+00,5.463e+00,5.824e+00,5.077e+00,6.617e+00,6.867e+00,6.351e+00,6.331e+00,5.846e+00,6.462e+00,6.488e+00,6.010e+00,5.929e+00,5.402e+00,7.176e+00,6.031e+00,9.252e+00,8.300e+00,6.816e+00,9.703e+00,9.123e+00,9.260e+00,9.934e+00,8.259e+00,1.007e+01,1.126e+01,1.014e+01,1.218e+01,1.198e+01,9.194e+00,1.124e+01,1.153e+01,1.252e+01,1.336e+01,1.299e+01,1.516e+01,1.315e+01,1.258e+01,1.436e+01,1.321e+01,1.461e+01,1.600e+01,1.433e+01,1.508e+01,1.392e+01,1.506e+01,1.692e+01,1.536e+01,1.490e+01,1.628e+01,1.537e+01,1.686e+01,1.499e+01,1.655e+01,1.675e+01,1.745e+01,1.646e+01,1.639e+01,1.612e+01,1.269e+01
2.478e-01,3.089e-01,6.782e-01,6.997e-01,1.770e+00,1.651e+00,1.620e+00,1.983e+00,3.105e+00,2.636e+00,2.391e+00,3.355e+00,3.996e+00,3.183e+00,4.546e+00,5.121e+00,6.162e+00,4.256e+00,5.668e+00,5.670e+00,5.582e+00,6.697e+00,6.546e+00,6.935e+00,7.263e+00,6.119e+00,9.302e+00,8.114e+00,8.758e+00,8.391e+00,6.870e+00,9.145e+00,7.934e+00,9.497e+00,9.321e+00,8.460e+00,8.870e+00,8.245e+00,9.876e+00,9.033e+00,8.862e+00,1.225e+01,1.079e+01,1.220e+01,1.254e+01,1.146e+01,1.301e+01,1.404e+01,1.232e+01,1.579e+01,1.291e+01,9.947e+00,1.267e+01,1.380e+01,1.393e+01,1.543e+01,1.394e+01,1.578e+01,1.494e+01,1.460e+01,1.597e+01,1.457e+01,1.598e+01,1.688e+01,1.637e+01,1.600e+01,1.567e+01,1.747e+01,1.871e+01,1.814e+01,1.759e+01,1.924e+01,1.645e+01,1.998e+01,1.632e+01,1.805e+01,1.984e+01,2.046e+01,1.943e+01,1.926e+01,1.724e+01,1.535e+01
2.501e-01,6.851e-01,1.302e+00,1.067e+00,1.535e+00,1.830e+00,1.722e+00,2.298e+00,3.790e+00,2.902e+00,2.410e+00,3.111e+00,3.939e+00,3.020e+00,3.975e+00,5.323e+00,5.628e+00,4.584e+00,5.595e+00,5.559e+00,5.823e+00,5.880e+00,5.470e+00,7.050e+00,6.964e+00,6.278e+00,7.907e+00,8.330e+00,7.713e+00,7.037e+00,6.686e+00,9.075e+00,8.980e+00,8.357e+00,8.121e+00,8.336e+00,9.368e+00,9.285e+00,9.902e+00,9.460e+00,8.075e+00,1.057e+01,1.114e+01,1.225e+01,1.177e+01,1.265e+01,1.293e+01,1.296e+01,1.262e+01,1.582e+01,1.463e+01,9.833e+00,1.312e+01,1.321e+01,1.508e+01,1.583e+01,1.402e+01,1.772e+01,1.516e+01,1.582e+01,1.777e+01,1.462e+01,1.651e+01,1.792e+01,1.721e+01,1.724e+01,1.499e+01,1.823e+01,1.834e+01,1.828e+01,1.902e+01,2.070e+01,1.792e+01,2.038e+01,1.718e+01,1.818e+01,1.983e+01,2.057e+01,1.970e+01,1.835e+01,1.824e+01,1.721e+01
3.377e-01,7.644e-01,1.587e+00,1.316e+00,1.706e+00,2.438e+00,1.948e+00,2.806e+00,4.293e+00,3.687e+00,3.568e+00,4.814e+00,5.269e+00,4.341e+00,5.016e+00,6.278e+00,6.807e+00,5.332e+00,6.079e+00,6.725e+00,6.784e+00,7.394e+00,7.049e+00,6.805e+00,8.123e+00,7.192e+00,9.213e+00,9.096e+00,9.395e+00,9.529e+00,8.008e+00,1.092e+01,9.612e+00,1.038e+01,9.603e+00,9.935e+00,1.006e+01,1.087e+01,1.177e+01,1.054e+01,1.004e+01,1.278e+01,1.374e+01,1.490e+01,1.465e+01,1.409e+01,1.485e+01,1.569e+01,1.358e+01,1.660e+01,1.690e+01,1.078e+01,1.514e+01,1.711e+01,1.586e+01,1.882e+01,1.555e+01,1.990e+01,1.789e+01,1.808e+01,2.010e+01,1.738e+01,1.771e+01,1.990e+01,1.805e+01,1.899e+01,1.707e+01,1.899e+01,1.917e+01,1.920e+01,1.951e+01,2.100e+01,1.889e+01,2.136e+01,1.688e+01,1.984e+01,1.985e+01,2.341e+01,2.028e+01,2.023e+01,1.894e+01,1.736e+01
2.349e-02,4.602e-01,1.214e+00,6.816e-01,9.006e-01,1.534e+00,1.197e+00,1.848e+00,3.256e+00,3.018e+00,3.332e+00,3.581e+00,4.359e+00,3.545e+00,3.988e+00,5.593e+00,5.946e+00,5.004e+00,6.210e+00,6.032e+00,6.040e+00,6.492e+00,6.125e+00,6.731e+00,7.100e+00,5.702e+00,8.384e+00,8.237e+00,8.105e+00,8.878e+00,7.257e+00,9.549e+00,8.003e+00,8.887e+00,8.623e+00,9.298e+00,9.468e+00,9.803e+00,1.043e+01,8.575e+00,9.541e+00,1.109e+01,1.130e+01,1.312e+01,1.195e+01,1.251e+01,1.359e+01,1.344e+01,1.165e+01,1.425e+01,1.311e+01,1.028e+01,1.253e+01,1.412e+01,1.435e+01,1.612e+01,1.318e+01,1.730e+01,1.469e+01,1.501e+01,1.695e+01,1.527e+01,1.498e+01,1.671e+01,1.560e+01,1.628e+01,1.494e+01,1.826e+01,1.684e+01,1.720e+01,1.683e+01,1.924e+01,1.665e+01,1.799e+01,1.438e+01,1.714e+01,1.748e+01,2.062e+01,1.814e+01,1.887e+01,1.716e+01,1.622e+01
2.672e-01,3.818e-01,9.503e-01,5.976e-01,1.207e+00,1.167e+00,1.290e+00,2.074e+00,3.057e+00,2.108e+00,2.927e+00,3.571e+00,3.137e+00,3.580e+00,3.717e+00,4.691e+00,5.826e+00,3.800e+00,5.901e+00,5.280e+00,5.421e+00,6.000e+00,5.618e+00,6.255e+00,7.579e+00,5.213e+00,8.750e+00,8.252e+00,7.511e+00,8.246e+00,7.356e+00,8.140e+00,8.413e+00,8.132e+00,8.298e+00,8.355e+00,8.789e+00,8.936e+00,1.072e+01,8.706e+00,9.285e+00,1.210e+01,1.054e+01,1.129e+01,1.064e+01,1.001e+01,1.252e+01,1.296e+01,1.143e+01,1.426e+01,1.239e+01,1.050e+01,1.207e+01,1.250e+01,1.320e+01,1.535e+01,1.235e+01,1.563e+01,1.485e+01,1.437e+01,1.561e+01,1.424e+01,1.491e+01,1.588e+01,1.627e+01,1.496e+01,1.515e+01,1.714e+01,1.609e+01,1.649e+01,1.760e+01,1.888e+01,1.633e+01,1.780e+01,1.600e+01,1.774e+01,1.812e+01,1.947e+01,1.803e+01,1.923e+01,1.715e+01,1.593e+01
5.673e-01,7.162e-01,1.191e+00,1.308e+00,1.606e+00,2.169e+00,1.906e+00,2.174e+00,3.064e+00,2.473e+00,2.570e+00,3.524e+00,3.406e+00,2.840e+00,3.611e+00,3.985e+00,5.234e+00,3.675e+00,4.932e+00,5.215e+00,5.197e+00,5.449e+00,5.911e+00,5.433e+00,6.780e+00,6.060e+00,7.853e+00,7.231e+00,6.863e+00,7.787e+00,7.452e+00,8.358e+00,8.013e+00,8.392e+00,7.888e+00,8.566e+00,8.178e+00,8.634e+00,8.771e+00,7.210e+00,8.553e+00,1.055e+01,1.091e+01,1.110e+01,1.156e+01,1.151e+01,1.096e+01,1.244e+01,1.134e+01,1.327e+01,1.287e+01,9.223e+00,1.277e+01,1.313e+01,1.343e+01,1.442e+01,1.364e+01,1.610e+01,1.332e+01,1.482e+01,1.710e+01,1.424e+01,1.394e+01,1.585e+01,1.584e+01,1.606e+01,1.476e+01,1.802e+01,1.723e+01,1.755e+01,1.628e+01,1.817e+01,1.664e+01,1.942e+01,1.557e+01,1.781e+01,1.964e+01,2.028e+01,1.782e+01,1.887e+01,1.818e+01,1.616e+01
4.148e-01,6.692e-01,9.162e-01,1.235e+00,1.365e+00,1.829e+00,1.597e+00,1.678e+00,2.544e+00,2.116e+00,2.272e+00,3.090e+00,3.590e+00,1.948e+00,2.695e+00,3.585e+00,4.482e+00,3.079e+00,4.328e+00,4.642e+00,3.484e+00,4.004e+00,5.014e+00,4.740e+00,5.422e+00,4.968e+00,6.951e+00,5.829e+00,6.411e+00,7.129e+00,6.060e+00,7.856e+00,6.310e+00,7.559e+00,8.327e+00,7.035e+00,8.191e+00,7.720e+00,9.290e+00,8.287e+00,7.708e+00,8.889e+00,1.040e+01,1.220e+01,1.093e+01,1.122e+01,1.154e+01,1.178e+01,1.057e+01,1.362e+01,1.239e+01,9.501e+00,1.228e+01,1.278e+01,1.346e+01,1.489e+01,1.342e+01,1.506e+01,1.365e+01,1.409e+01,1.543e+01,1.231e+01,1.589e+01,1.677e+01,1.581e+01,1.599e+01,1.557e+01,1.744e+01,1.687e+01,1.780e+01,1.772e+01,1.772e+01,1.595e+01,1.843e+01,1.684e+01,1.894e+01,1.908e+01,2.044e+01,1.786e+01,2.033e+01,2.049e+01,1.683e+01
1.917e-01,4.953e-01,1.169e+00,8.763e-01,1.094e+00,2.011e+00,1.592e+00,2.019e+00,2.926e+00,2.607e+00,2.868e+00,2.551e+00,3.354e+00,2.548e+00,2.967e+00,4.009e+00,4.516e+00,3.636e+00,4.503e+00,5.242e+00,4.666e+00,5.101e+00,4.728e+00,4.656e+00,5.733e+00,4.847e+00,6.315e+00,6.955e+00,6.718e+00,7.929e+00,6.615e+00,8.256e+00,7.354e+00,7.956e+00,7.099e+00,7.494e+00,6.722e+00,8.551e+00,8.385e+00,6.819e+00,6.957e+00,8.933e+00,9.599e+00,1.012e+01,1.060e+01,1.038e+01,1.059e+01,1.042e+01,9.323e+00,1.177e+01,1.072e+01,9.437e+00,1.237e+01,1.177e+01,1.205e+01,1.426e+01,1.254e+01,1.541e+01,1.263e+01,1.315e+01,1.571e+01,1.271e+01,1.243e+01,1.466e+01,1.314e+01,1.443e+01,1.323e+01,1.743e+01,1.561e+01,1.461e+01,1.478e+01,1.665e+01,1.355e+01,1.674e+01,1.415e+01,1.617e+01,1.878e+01,1.873e+01,1.619e+01,1.851e+01,1.904e+01,1.529e+01
2.708e-01,1.853e-01,3.163e-01,3.661e-01,9.501e-01,8.247e-01,1.173e+00,1.355e+00,2.273e+00,1.845e+00,2.261e+00,2.627e+00,2.924e+00,2.684e+00,3.478e+00,4.296e+00,4.862e+00,3.285e+00,5.171e+00,5.106e+00,5.240e+00,4.936e+00,5.154e+00,6.506e+00,5.836e+00,4.898e+00,7.547e+00,7.546e+00,7.004e+00,7.346e+00,6.859e+00,8.610e+00,8.913e+00,7.454e+00,8.817e+00,8.426e+00,8.237e+00,9.153e+00,9.389e+00,9.536e+00,8.812e+00,1.068e+01,1.060e+01,1.057e+01,1.119e+01,1.038e+01,1.228e+01,1.290e+01,1.073e+01,1.368e+01,1.224e+01,9.920e+00,1.224e+01,1.193e+01,1.309e+01,1.310e+01,1.226e+01,1.403e+01,1.234e+01,1.356e+01,1.475e+01,1.162e+01,1.254e+01,1.498e+01,1.422e+01,1.429e+01,1.315e+01,1.666e+01,1.513e+01,1.517e+01,1.529e+01,1.680e+01,1.677e+01,1.755e+01,1.574e+01,1.712e+01,1.718e+01,1.981e+01,1.577e+01,1.860e+01,1.833e+01,1.586e+01
2.729e-01,6.433e-01,9.893e-01,9.628e-01,1.073e+00,1.328e+00,1.525e+00,1.901e+00,3.756e+00,3.213e+00,3.726e+00,4.288e+00,4.654e+00,3.471e+00,4.479e+00,5.995e+00,6.404e+00,4.632e+00,6.415e+00,6.607e+00,6.507e+00,6.418e+00,6.349e+00,7.450e+00,7.189e+00,6.190e+00,8.595e+00,8.668e+00,8.263e+00,8.588e+00,7.454e+00,8.689e+00,8.184e+00,7.798e+00,8.752e+00,8.448e+00,9.333e+00,9.477e+00,1.116e+01,9.230e+00,8.550e+00,1.046e+01,1.125e+01,1.232e+01,1.123e+01,1.211e+01,1.409e+01,1.244e+01,1.141e+01,1.570e+01,1.359e+01,1.105e+01,1.412e+01,1.396e+01,1.547e+01,1.732e+01,1.435e+01,1.775e+01,1.473e+01,1.402e+01,1.677e+01,1.495e+01,1.539e+01,1.778e+01,1.676e+01,1.640e+01,1.468e+01,1.846e+01,1.805e+01,1.876e+01,1.744e+01,1.861e+01,1.776e+01,1.838e+01,1.562e+01,1.968e+01,1.948e+01,2.146e+01,1.978e+01,2.054e+01,1.989e+01,1.737e+01
3.599e-01,5.614e-01,8.198e-01,1.069e+00,1.579e+00,1.681e+00,1.592e+00,1.759e+00,2.401e+00,2.279e+00,2.714e+00,2.910e+00,3.318e+00,2.417e+00,4.231e+00,4.673e+00,5.989e+00,4.056e+00,6.198e+00,5.521e+00,4.849e+00,5.328e+00,5.595e+00,5.561e+00,7.122e+00,5.210e+00,8.566e+00,7.837e+00,7.501e+00,9.411e+00,7.468e+00,9.408e+00,8.678e+00,9.198e+00,9.858e+00,8.882e+00,1.042e+01,9.137e+00,1.067e+01,9.552e+00,9.709e+00,1.136e+01,1.234e+01,1.328e+01,1.229e+01,1.273e+01,1.254e+01,1.356e+01,1.177e+01,1.550e+01,1.453e+01,1.246e+01,1.458e+01,1.384e+01,1.465e+01,1.599e+01,1.490e+01,1.823e+01,1.567e+01,1.601e+01,1.698e+01,1.418e+01,1.615e+01,1.655e+01,1.717e+01,1.686e+01,1.530e+01,1.896e+01,1.896e+01,1.848e+01,1.906e+01,1.993e+01,1.743e+01,2.083e+01,1.760e+01,2.042e+01,2.068e+01,2.240e+01,2.038e+01,2.264e+01,2.152e+01,2.032e+01
4.092e-01,8.262e-01,1.364e+00,1.357e+00,1.813e+00,1.848e+00,1.800e+00,2.061e+00,3.136e+00,2.564e+00,2.394e+00,2.491e+00,3.347e+00,1.585e+00,3.734e+00,4.030e+00,4.635e+00,3.507e+00,4.224e+00,4.823e+00,4.201e+00,4.809e+00,4.688e+00,5.348e+00,5.722e+00,4.599e+00,6.055e+00,7.457e+00,7.101e+00,7.983e+00,6.225e+00,7.879e+00,7.702e+00,8.066e+00,8.021e+00,7.982e+00,8.551e+00,8.306e+00,9.088e+00,9.103e+00,7.461e+00,8.982e+00,9.219e+00,1.165e+01,1.192e+01,1.203e+01,1.155e+01,1.285e+01,1.065e+01,1.319e+01,1.395e+01,9.270e+00,1.330e+01,1.257e+01,1.304e+01,1.428e+01,1.331e+01,1.633e+01,1.358e+01,1.361e+01,1.653e+01,1.248e+01,1.494e+01,1.704e+01,1.514e+01,1.498e+01,1.486e+01,1.703e+01,1.768e+01,1.514e+01,1.687e+01,1.749e+01,1.665e+01,1.978e+01,1.701e+01,1.907e+01,1.835e+01,2.112e+01,1.848e+01,2.106e+01,2.134e+01,1.738e+01
3.603e-01,5.504e-01,7.147e-01,8.679e-01,9.301e-01,8.383e-01,1.068e+00,1.381e+00,2.357e+00,1.554e+00,2.344e+00,2.903e+00,3.009e+00,1.696e+00,2.966e+00,2.910e+00,3.882e+00,2.673e+00,4.249e+00,4.008e+00,3.982e+00,3.934e+00,4.475e+00,4.810e+00,4.860e+00,4.407e+00,6.252e+00,6.053e+00,5.762e+00,5.710e+00,5.017e+00,6.781e+00,6.545e+00,6.094e+00,7.589e+00,6.917e+00,8.256e+00,6.882e+00,8.056e+00,8.831e+00,6.629e+00,9.539e+00,9.206e+00,1.031e+01,1.072e+01,1.038e+01,9.681e+00,1.007e+01,9.659e+00,1.292e+01,1.191e+01,9.101e+00,1.268e+01,1.185e+01,1.197e+01,1.381e+01,1.339e+01,1.465e+01,1.315e+01,1.368e+01,1.445e+01,1.278e+01,1.504e+01,1.625e+01,1.526e+01,1.461e+01,1.313e+01,1.575e+01,1.746e+01,1.721e+01,1.840e+01,1.758e+01,1.761e+01,2.045e+01,1.753e+01,2.026e+01,1.825e+01,2.040e+01,1.937e+01,2.076e+01,2.044e+01,1.789e+01
