1.816e-01,6.728e-02,5.111e-01,9.280e-02,6.960e-01,9.535e-01,7.475e-01,5.192e-01,1.304e-01,8.589e-01,6.617e-01,9.259e-01,9.494e-01,1.222e-01,7.735e-01,4.889e-01,6.124e-01,4.276e-01,3.353e-01,7.580e-01,8.654e-01,6.317e-01,5.776e-01,9.972e-02,1.779e-01,9.882e-01,8.539e-01,9.444e-01,1.908e-01,5.811e-01,7.030e-01,5.443e-02,9.983e-01,5.056e-01,2.051e-01,6.633e-01,1.419e-01,7.747e-01,9.464e-01,6.402e-01,9.685e-02,9.756e-01,2.899e-01,4.404e-02,8.855e-01,2.816e-01,9.264e-01
7.144e-03,1.845e-01,1.380e-01,9.207e-02,6.636e-01,1.064e-01,7.718e-01,2.730e-01,8.029e-01,7.402e-01,3.106e-02,1.026e+00,8.850e-01,8.171e-01,1.948e-01,3.650e-01,5.718e-01,9.424e-01,8.168e-01,7.008e-01,5.149e-02,2.598e-01,5.007e-01,6.200e-02,3.623e-02,4.556e-01,9.319e-01,1.156e-01,9.970e-01,4.287e-01,9.244e-01,8.971e-01,6.772e-02,2.900e-01,3.939e-01,6.053e-01,2.716e-01,8.002e-01,5.522e-01,2.979e-01,8.003e-01,4.800e-01,8.485e-01,3.169e-02,4.887e-01,8.394e-01,5.803e-01
1.567e-01,1.539e-01,1.492e+00,1.612e-01,1.177e+00,1.741e+00,1.580e+00,8.281e-01,7.616e-01,1.479e+00,1.339e+00,1.905e+00,1.886e+00,1.205e+00,1.418e+00,1.520e+00,1.002e+00,1.594e+00,1.251e+00,1.526e+00,1.408e+00,1.200e+00,1.539e+00,9.496e-01,7.043e-01,1.988e+00,1.795e+00,9.069e-01,1.183e+00,1.608e+00,2.005e+00,8.278e-01,1.856e+00,1.110e+00,6.259e-01,1.299e+00,3.773e-01,1.733e+00,1.948e+00,1.192e+00,6.255e-01,1.315e+00,1.438e+00,8.127e-01,1.230e+00,9.989e-01,1.766e+00
1.295e-01,5.533e-02,1.042e+00,7.037e-01,1.268e+00,1.781e+00,1.628e+00,1.265e+00,9.412e-01,1.447e+00,1.046e+00,1.776e+00,1.346e+00,1.453e+00,1.736e+00,1.351e+00,1.012e+00,9.420e-01,8.651e-01,9.940e-01,1.637e+00,1.820e+00,1.532e+00,9.176e-01,1.075e+00,1.427e+00,1.703e+00,1.573e+00,1.393e+00,1.657e+00,1.461e+00,1.035e+00,2.080e+00,9.004e-01,1.144e+00,1.060e+00,1.170e+00,1.976e+00,2.082e+00,1.398e+00,1.137e+00,1.263e+00,1.049e+00,1.210e+00,9.925e-01,5.139e-01,1.942e+00
1.148e-01,1.470e-01,8.670e-01,4.542e-01,2.061e+00,1.820e+00,2.068e+00,1.671e+00,1.637e+00,2.338e+00,9.934e-01,2.278e+00,2.100e+00,1.562e+00,1.646e+00,1.904e+00,1.042e+00,2.184e+00,1.799e+00,1.616e+00,1.826e+00,2.176e+00,2.017e+00,1.531e+00,1.294e+00,1.676e+00,2.341e+00,1.633e+00,2.242e+00,1.389e+00,2.131e+00,1.521e+00,2.431e+00,1.413e+00,1.420e+00,1.207e+00,1.480e+00,1.766e+00,2.650e+00,1.976e+00,2.086e+00,1.267e+00,2.078e+00,1.753e+00,1.324e+00,1.688e+00,2.125e+00
7.853e-02,9.110e-02,8.579e-01,4.021e-01,1.229e+00,2.205e+00,2.412e+00,1.776e+00,1.567e+00,2.125e+00,1.528e+00,1.815e+00,1.502e+00,1.969e+00,1.384e+00,1.666e+00,1.591e+00,1.685e+00,1.476e+00,1.557e+00,1.893e+00,2.104e+00,1.925e+00,1.760e+00,1.880e+00,1.622e+00,2.324e+00,1.914e+00,2.135e+00,1.317e+00,2.202e+00,1.581e+00,2.024e+00,1.028e+00,1.540e+00,1.824e+00,1.909e+00,1.896e+00,2.162e+00,2.190e+00,2.072e+00,1.638e+00,1.347e+00,1.162e+00,1.106e+00,1.854e+00,2.188e+00
3.211e-02,1.836e-02,2.026e-01,2.006e-01,4.686e-01,1.188e+00,1.785e+00,1.309e+00,1.058e+00,1.137e+00,8.429e-01,1.120e+00,1.330e+00,1.938e+00,1.223e+00,1.314e+00,1.174e+00,1.508e+00,1.092e+00,1.491e+00,1.422e+00,1.182e+00,9.257e-01,1.288e+00,1.837e+00,1.457e+00,1.668e+00,2.025e+00,1.295e+00,6.879e-01,1.351e+00,8.784e-01,9.627e-01,5.407e-01,1.450e+00,1.922e+00,2.097e+00,1.396e+00,1.853e+00,2.007e+00,1.672e+00,1.151e+00,5.207e-01,8.626e-01,1.444e+00,1.371e+00,1.780e+00
1.761e-01,1.643e-01,7.813e-01,5.120e-01,2.126e+00,2.416e+00,2.826e+00,2.692e+00,2.232e+00,3.709e+00,2.387e+00,2.727e+00,3.165e+00,2.840e+00,2.699e+00,2.415e+00,2.676e+00,2.925e+00,2.867e+00,2.451e+00,3.318e+00,3.572e+00,2.713e+00,2.180e+00,1.963e+00,2.859e+00,2.972e+00,3.221e+00,3.043e+00,1.740e+00,2.863e+00,1.863e+00,2.940e+00,1.596e+00,2.833e+00,2.669e+00,2.488e+00,2.698e+00,3.973e+00,3.158e+00,3.594e+00,3.020e+00,1.954e+00,1.761e+00,1.852e+00,2.543e+00,2.771e+00
1.147e-01,4.419e-02,7.362e-01,6.192e-01,1.581e+00,2.090e+00,2.350e+00,2.358e+00,1.905e+00,3.375e+00,2.285e+00,2.454e+00,2.835e+00,3.757e+00,2.795e+00,3.061e+00,3.100e+00,2.929e+00,2.886e+00,2.276e+00,3.891e+00,3.244e+00,2.896e+00,2.718e+00,2.670e+00,3.116e+00,3.385e+00,3.878e+00,2.599e+00,2.077e+00,2.676e+00,2.056e+00,2.750e+00,1.742e+00,3.248e+00,3.070e+00,2.965e+00,3.392e+00,4.441e+00,3.172e+00,3.576e+00,2.544e+00,1.465e+00,2.220e+00,2.133e+00,1.972e+00,3.196e+00
7.073e-02,1.222e-01,6.931e-01,2.619e-01,1.395e+00,2.003e+00,2.562e+00,2.126e+00,1.961e+00,3.085e+00,2.014e+00,2.930e+00,3.062e+00,3.545e+00,2.663e+00,3.224e+00,3.174e+00,3.478e+00,2.654e+00,2.996e+00,2.927e+00,3.361e+00,2.661e+00,2.820e+00,2.395e+00,3.235e+00,3.325e+00,2.788e+00,3.297e+00,2.162e+00,2.723e+00,2.335e+00,2.703e+00,2.205e+00,2.569e+00,3.271e+00,2.786e+00,2.526e+00,4.139e+00,3.176e+00,3.232e+00,2.762e+00,1.938e+00,1.654e+00,2.680e+00,2.674e+00,2.586e+00
8.697e-02,1.990e-01,1.019e+00,6.423e-01,2.253e+00,2.581e+00,3.623e+00,2.880e+00,2.861e+00,3.791e+00,2.647e+00,4.239e+00,4.565e+00,4.924e+00,3.768e+00,4.303e+00,3.919e+00,4.519e+00,3.686e+00,3.855e+00,4.033e+00,4.637e+00,3.440e+00,3.456e+00,4.034e+00,4.153e+00,4.291e+00,4.538e+00,4.323e+00,3.161e+00,3.894e+00,3.414e+00,3.276e+00,2.553e+00,3.641e+00,4.454e+00,3.686e+00,4.645e+00,5.766e+00,4.285e+00,5.109e+00,3.096e+00,3.089e+00,3.211e+00,3.155e+00,3.759e+00,4.411e+00
1.648e-01,6.234e-02,9.380e-01,5.008e-01,1.188e+00,2.253e+00,2.160e+00,1.995e+00,1.451e+00,3.065e+00,2.928e+00,3.580e+00,3.404e+00,4.227e+00,3.080e+00,3.877e+00,4.100e+00,2.841e+00,3.220e+00,3.211e+00,4.768e+00,4.260e+00,3.154e+00,2.989e+00,3.143e+00,3.491e+00,3.808e+00,5.020e+00,3.002e+00,3.310e+00,3.020e+00,2.565e+00,3.433e+00,2.208e+00,3.654e+00,3.573e+00,2.919e+00,4.836e+00,4.671e+00,2.977e+00,3.722e+00,3.819e+00,1.461e+00,2.921e+00,2.320e+00,2.981e+00,3.870e+00
1.011e-01,9.557e-02,1.058e+00,2.344e-01,1.173e+00,2.015e+00,2.441e+00,2.098e+00,1.796e+00,3.307e+00,3.019e+00,4.193e+00,5.060e+00,6.036e+00,4.873e+00,5.410e+00,5.557e+00,4.978e+00,4.889e+00,5.259e+00,5.803e+00,5.277e+00,4.317e+00,4.589e+00,4.523e+00,5.064e+00,4.680e+00,5.664e+00,4.151e+00,4.573e+00,3.851e+00,3.142e+00,4.151e+00,2.951e+00,4.308e+00,5.126e+00,3.956e+00,4.996e+00,6.488e+00,4.694e+00,4.909e+00,4.698e+00,2.741e+00,3.715e+00,4.231e+00,3.839e+00,4.437e+00
5.147e-02,1.136e-01,2.770e-01,2.798e-01,1.195e+00,1.578e+00,2.455e+00,2.148e+00,2.052e+00,3.110e+00,2.330e+00,3.433e+00,3.944e+00,5.627e+00,3.510e+00,4.465e+00,5.239e+00,4.207e+00,4.144e+00,4.764e+00,4.687e+00,4.941e+00,3.803e+00,4.075e+00,4.966e+00,3.907e+00,4.617e+00,5.491e+00,3.980e+00,3.083e+00,3.431e+00,3.702e+00,2.931e+00,2.786e+00,4.386e+00,5.180e+00,4.276e+00,4.878e+00,5.933e+00,4.303e+00,5.584e+00,4.381e+00,2.693e+00,3.320e+00,3.269e+00,4.544e+00,4.383e+00
1.079e-01,1.104e-01,4.566e-01,6.263e-01,1.551e+00,1.944e+00,2.754e+00,2.142e+00,1.886e+00,2.515e+00,1.664e+00,4.078e+00,3.817e+00,4.599e+00,4.281e+00,4.811e+00,4.973e+00,4.074e+00,3.500e+00,5.042e+00,3.778e+00,5.388e+00,3.852e+00,3.392e+00,5.040e+00,3.986e+00,4.198e+00,5.509e+00,4.522e+00,3.740e+00,3.242e+00,3.839e+00,3.664e+00,3.211e+00,3.626e+00,5.307e+00,4.392e+00,4.431e+00,5.457e+00,4.563e+00,4.853e+00,4.292e+00,2.864e+00,2.990e+00,3.994e+00,3.565e+00,4.413e+00
1.464e-01,1.837e-01,5.014e-01,3.466e-01,1.903e+00,2.001e+00,2.626e+00,2.038e+00,1.957e+00,3.082e+00,1.673e+00,3.716e+00,3.425e+00,4.166e+00,2.907e+00,4.182e+00,4.663e+00,4.126e+00,4.287e+00,5.057e+00,4.420e+00,4.866e+00,4.262e+00,3.455e+00,4.097e+00,4.112e+00,5.056e+00,4.554e+00,4.878e+00,3.003e+00,3.998e+00,4.096e+00,3.481e+00,3.569e+00,3.947e+00,4.840e+00,3.669e+00,4.470e+00,5.807e+00,4.566e+00,5.267e+00,4.537e+00,3.571e+00,2.934e+00,4.121e+00,4.672e+00,4.395e+00
1.316e-01,2.216e-01,1.255e+00,6.001e-01,2.176e+00,2.521e+00,3.291e+00,2.509e+00,2.456e+00,3.558e+00,2.397e+00,4.735e+00,4.732e+00,5.216e+00,4.354e+00,4.920e+00,5.569e+00,5.306e+00,5.176e+00,5.418e+00,5.008e+00,6.081e+00,5.134e+00,3.789e+00,4.846e+00,5.736e+00,6.023e+00,4.653e+00,5.595e+00,5.014e+00,4.884e+00,4.999e+00,4.851e+00,3.970e+00,4.154e+00,6.020e+00,4.431e+00,5.385e+00,7.160e+00,5.343e+00,6.100e+00,5.593e+00,3.945e+00,3.386e+00,5.333e+00,4.667e+00,5.389e+00
6.499e-02,1.023e-01,4.374e-01,1.364e-01,6.711e-01,1.049e+00,1.478e+00,1.352e+00,1.258e+00,2.410e+00,2.021e+00,2.830e+00,3.458e+00,4.933e+00,3.642e+00,4.114e+00,5.680e+00,4.758e+00,5.255e+00,5.225e+00,5.638e+00,5.167e+00,4.726e+00,4.624e+00,4.816e+00,4.832e+00,4.855e+00,5.423e+00,4.487e+00,4.066e+00,3.606e+00,3.671e+00,3.923e+00,3.645e+00,4.453e+00,5.485e+00,3.768e+00,5.157e+00,5.543e+00,4.591e+00,5.924e+00,5.763e+00,2.959e+00,3.372e+00,4.295e+00,4.127e+00,4.666e+00
1.510e-01,1.174e-01,5.190e-01,6.888e-01,1.919e+00,1.685e+00,2.058e+00,2.081e+00,1.770e+00,3.016e+00,1.882e+00,3.663e+00,3.630e+00,4.294e+00,3.985e+00,4.520e+00,5.052e+00,4.505e+00,5.400e+00,5.544e+00,5.441e+00,6.075e+00,4.942e+00,4.432e+00,4.899e+00,4.713e+00,5.638e+00,6.384e+00,5.994e+00,4.557e+00,4.421e+00,4.830e+00,4.511e+00,4.157e+00,5.423e+00,6.179e+00,4.700e+00,5.795e+00,6.140e+00,5.283e+00,6.610e+00,6.349e+00,3.980e+00,3.993e+00,4.486e+00,4.397e+00,5.906e+00
1.405e-01,1.406e-01,1.180e+00,6.066e-01,2.081e+00,2.758e+00,3.024e+00,2.732e+00,2.412e+00,4.256e+00,2.867e+00,3.720e+00,3.879e+00,5.186e+00,4.264e+00,5.019e+00,6.506e+00,5.080e+00,5.776e+00,5.580e+00,6.529e+00,6.867e+00,6.273e+00,4.803e+00,5.749e+00,6.541e+00,6.974e+00,6.199e+00,6.823e+00,5.950e+00,6.273e+00,6.165e+00,5.338e+00,4.551e+00,5.463e+00,8.122e+00,5.941e+00,6.063e+00,7.698e+00,6.802e+00,7.581e+00,6.720e+00,4.844e+00,3.800e+00,5.234e+00,5.664e+00,6.860e+00
1.454e-01,1.100e-01,8.345e-01,6.530e-01,1.778e+00,2.581e+00,2.989e+00,2.603e+00,2.216e+00,3.873e+00,2.622e+00,4.023e+00,3.990e+00,5.744e+00,4.589e+00,5.384e+00,6.445e+00,5.005e+00,5.404e+00,6.111e+00,6.586e+00,6.641e+00,6.508e+00,5.662e+00,6.134e+00,6.128e+00,7.288e+00,6.858e+00,6.475e+00,5.739e+00,5.302e+00,5.940e+00,5.282e+00,4.737e+00,5.990e+00,7.108e+00,6.103e+00,6.541e+00,7.582e+00,6.438e+00,7.028e+00,6.765e+00,4.019e+00,4.385e+00,6.112e+00,5.164e+00,6.801e+00
3.990e-02,5.151e-02,4.212e-01,5.702e-01,1.230e+00,1.396e+00,1.947e+00,1.817e+00,1.615e+00,2.198e+00,1.713e+00,2.955e+00,3.441e+00,4.113e+00,4.131e+00,4.182e+00,4.728e+00,4.127e+00,4.855e+00,4.896e+00,5.635e+00,5.922e+00,5.562e+00,4.631e+00,5.579e+00,6.240e+00,5.524e+00,5.693e+00,5.973e+00,5.166e+00,4.725e+00,4.905e+00,4.020e+00,3.874e+00,5.630e+00,6.333e+00,5.511e+00,5.626e+00,7.011e+00,5.930e+00,6.506e+00,5.679e+00,4.829e+00,4.960e+00,5.585e+00,4.652e+00,5.482e+00
7.846e-02,3.788e-02,5.434e-01,1.893e-01,1.337e+00,1.561e+00,1.977e+00,1.684e+00,1.389e+00,2.094e+00,1.275e+00,2.598e+00,3.136e+00,3.702e+00,3.613e+00,4.411e+00,4.800e+00,5.059e+00,5.772e+00,5.815e+00,6.210e+00,5.874e+00,7.046e+00,6.067e+00,7.233e+00,7.334e+00,7.333e+00,6.247e+00,7.101e+00,5.704e+00,6.511e+00,5.617e+00,5.809e+00,4.891e+00,6.299e+00,7.804e+00,7.178e+00,6.442e+00,8.119e+00,7.084e+00,7.430e+00,7.161e+00,5.369e+00,6.191e+00,6.695e+00,6.615e+00,7.433e+00
5.994e-02,5.333e-02,7.082e-01,2.780e-01,9.683e-01,1.416e+00,1.484e+00,1.236e+00,1.137e+00,2.109e+00,1.642e+00,2.478e+00,2.385e+00,3.285e+00,2.310e+00,3.372e+00,3.675e+00,3.405e+00,3.720e+00,3.826e+00,4.756e+00,4.181e+00,4.548e+00,4.197e+00,4.694e+00,5.241e+00,6.284e+00,4.052e+00,5.511e+00,4.290e+00,4.883e+00,4.561e+00,4.184e+00,4.650e+00,4.818e+00,5.017e+00,4.714e+00,5.526e+00,6.456e+00,4.437e+00,5.754e+00,5.023e+00,4.314e+00,4.337e+00,5.515e+00,4.564e+00,5.982e+00
1.482e-01,8.437e-02,1.179e+00,5.338e-01,1.883e+00,2.508e+00,2.679e+00,2.254e+00,1.872e+00,3.317e+00,2.445e+00,4.327e+00,4.411e+00,5.250e+00,4.524e+00,5.474e+00,5.574e+00,5.411e+00,5.772e+00,6.043e+00,7.330e+00,6.616e+00,6.322e+00,6.075e+00,7.550e+00,8.006e+00,8.042e+00,6.838e+00,8.468e+00,6.866e+00,7.853e+00,6.380e+00,7.031e+00,5.713e+00,7.344e+00,7.841e+00,7.610e+00,7.727e+00,9.689e+00,7.863e+00,8.329e+00,7.137e+00,6.575e+00,6.707e+00,7.046e+00,7.211e+00,8.508e+00
2.318e-02,1.014e-01,9.992e-01,1.386e-01,1.418e+00,1.443e+00,1.874e+00,1.757e+00,1.820e+00,3.096e+00,2.336e+00,3.714e+00,4.487e+00,5.387e+00,4.114e+00,5.361e+00,4.750e+00,5.435e+00,5.945e+00,5.582e+00,5.662e+00,5.253e+00,5.496e+00,5.862e+00,6.132e+00,7.215e+00,7.083e+00,6.231e+00,7.485e+00,5.456e+00,6.514e+00,5.368e+00,6.286e+00,4.326e+00,7.454e+00,7.202e+00,6.548e+00,6.649e+00,8.263e+00,6.842e+00,6.708e+00,6.547e+00,5.652e+00,5.759e+00,5.653e+00,6.485e+00,6.654e+00
1.159e-01,1.894e-01,9.716e-01,2.870e-01,1.501e+00,1.689e+00,2.202e+00,1.526e+00,1.669e+00,2.862e+00,1.799e+00,3.092e+00,3.507e+00,4.645e+00,3.453e+00,4.126e+00,5.221e+00,4.494e+00,4.801e+00,5.293e+00,5.011e+00,4.837e+00,6.156e+00,5.337e+00,6.190e+00,7.059e+00,7.537e+00,5.252e+00,7.124e+00,5.886e+00,6.761e+00,6.580e+00,5.211e+00,5.177e+00,6.406e+00,8.022e+00,6.466e+00,7.363e+00,8.224e+00,7.243e+00,7.030e+00,6.879e+00,6.103e+00,4.626e+00,6.259e+00,6.801e+00,7.052e+00
1.091e-01,4.926e-02,3.335e-01,1.444e-01,9.982e-01,1.471e+00,1.919e+00,1.609e+00,1.272e+00,2.400e+00,1.870e+00,3.522e+00,3.875e+00,4.804e+00,3.808e+00,4.826e+00,5.533e+00,4.812e+00,5.011e+00,5.753e+00,6.839e+00,5.935e+00,5.855e+00,5.712e+00,7.620e+00,8.204e+00,8.169e+00,7.894e+00,8.854e+00,7.434e+00,8.072e+00,6.767e+00,7.077e+00,6.465e+00,8.088e+00,8.725e+00,8.506e+00,8.756e+00,9.804e+00,8.879e+00,9.178e+00,7.553e+00,6.461e+00,7.012e+00,8.053e+00,8.726e+00,9.234e+00
1.650e-01,1.364e-01,8.898e-01,2.778e-01,1.949e+00,2.436e+00,2.876e+00,2.493e+00,2.070e+00,3.479e+00,2.572e+00,3.686e+00,4.388e+00,4.670e+00,4.240e+00,4.827e+00,5.380e+00,5.440e+00,5.766e+00,5.972e+00,6.475e+00,6.488e+00,6.139e+00,5.793e+00,7.346e+00,7.434e+00,7.085e+00,6.787e+00,8.120e+00,5.992e+00,7.414e+00,6.534e+00,6.049e+00,6.073e+00,7.697e+00,8.489e+00,7.853e+00,7.431e+00,9.161e+00,7.952e+00,8.331e+00,7.749e+00,7.364e+00,6.464e+00,6.646e+00,7.440e+00,8.193e+00
8.452e-02,1.649e-01,1.017e+00,1.937e-01,1.029e+00,1.855e+00,2.296e+00,1.595e+00,1.654e+00,2.847e+00,2.467e+00,3.827e+00,3.791e+00,5.346e+00,3.707e+00,5.122e+00,6.224e+00,5.116e+00,5.380e+00,5.906e+00,6.379e+00,6.225e+00,6.840e+00,6.046e+00,7.373e+00,8.055e+00,7.912e+00,7.302e+00,8.320e+00,7.023e+00,8.013e+00,7.103e+00,7.244e+00,6.444e+00,8.307e+00,8.994e+00,8.352e+00,9.270e+00,9.721e+00,7.738e+00,8.386e+00,8.397e+00,7.022e+00,7.566e+00,7.119e+00,8.151e+00,9.273e+00
2.412e-02,8.808e-02,8.355e-01,3.469e-01,1.288e+00,1.753e+00,2.060e+00,1.822e+00,1.748e+00,2.571e+00,2.031e+00,3.122e+00,3.388e+00,4.720e+00,3.920e+00,4.672e+00,5.373e+00,4.498e+00,5.388e+00,5.589e+00,5.560e+00,6.113e+00,5.851e+00,4.944e+00,6.517e+00,5.888e+00,6.032e+00,5.862e+00,7.997e+00,6.315e+00,7.781e+00,6.895e+00,6.361e+00,6.334e+00,7.681e+00,8.792e+00,7.762e+00,7.715e+00,8.404e+00,7.421e+00,8.475e+00,7.271e+00,7.462e+00,6.193e+00,6.342e+00,7.739e+00,8.772e+00
5.895e-02,1.133e-01,5.592e-01,4.711e-01,1.556e+00,1.366e+00,1.888e+00,1.940e+00,1.902e+00,3.224e+00,1.937e+00,2.834e+00,3.490e+00,4.807e+00,3.721e+00,4.020e+00,5.449e+00,5.060e+00,5.725e+00,5.041e+00,5.692e+00,5.721e+00,5.771e+00,5.509e+00,6.602e+00,6.381e+00,7.221e+00,5.772e+00,8.340e+00,6.762e+00,7.608e+00,8.469e+00,6.764e+00,7.402e+00,8.700e+00,9.313e+00,8.928e+00,8.727e+00,1.012e+01,8.595e+00,9.662e+00,8.846e+00,8.219e+00,7.232e+00,7.277e+00,7.841e+00,9.847e+00
9.810e-02,2.068e-01,6.167e-01,2.826e-01,1.337e+00,1.279e+00,1.904e+00,1.524e+00,1.649e+00,2.817e+00,1.949e+00,3.357e+00,3.748e+00,4.338e+00,3.897e+00,4.215e+00,6.134e+00,5.147e+00,5.714e+00,5.662e+00,6.000e+00,6.514e+00,6.922e+00,5.923e+00,7.710e+00,8.205e+00,8.507e+00,6.670e+00,9.325e+00,7.705e+00,9.204e+00,8.165e+00,8.401e+00,8.464e+00,9.571e+00,1.065e+01,9.532e+00,1.023e+01,1.057e+01,8.675e+00,1.067e+01,1.046e+01,9.830e+00,7.880e+00,9.460e+00,9.825e+00,1.108e+01
1.037e-01,7.144e-02,9.691e-01,1.638e-01,9.636e-01,2.153e+00,2.136e+00,1.579e+00,1.307e+00,2.562e+00,2.138e+00,3.036e+00,2.653e+00,3.544e+00,2.631e+00,3.963e+00,4.289e+00,3.743e+00,4.200e+00,4.437e+00,5.185e+00,4.536e+00,4.557e+00,4.436e+00,4.883e+00,5.714e+00,6.565e+00,5.813e+00,7.204e+00,6.228e+00,7.394e+00,6.055e+00,6.784e+00,6.669e+00,7.065e+00,8.350e+00,7.775e+00,7.687e+00,8.047e+00,8.096e+00,8.197e+00,7.763e+00,7.179e+00,5.476e+00,7.199e+00,8.330e+00,8.637e+00
1.336e-01,1.286e-01,4.673e-01,5.716e-01,1.690e+00,1.688e+00,2.145e+00,1.752e+00,1.604e+00,2.514e+00,1.364e+00,3.431e+00,3.069e+00,3.917e+00,3.439e+00,4.287e+00,5.367e+00,4.162e+00,4.853e+00,5.249e+00,5.734e+00,6.021e+00,6.182e+00,4.483e+00,7.056e+00,7.596e+00,7.302e+00,7.050e+00,8.847e+00,6.572e+00,8.466e+00,7.928e+00,8.377e+00,7.620e+00,1.017e+01,1.124e+01,9.626e+00,1.080e+01,1.075e+01,1.034e+01,1.014e+01,9.770e+00,9.673e+00,8.264e+00,8.721e+00,1.097e+01,1.107e+01
4.187e-02,1.968e-01,7.913e-01,4.923e-01,2.095e+00,1.797e+00,2.666e+00,2.370e+00,2.522e+00,3.521e+00,1.982e+00,4.142e+00,4.369e+00,5.470e+00,4.095e+00,4.862e+00,4.802e+00,5.472e+00,5.547e+00,5.756e+00,5.914e+00,6.173e+00,5.535e+00,5.571e+00,5.357e+00,6.547e+00,7.561e+00,6.501e+00,8.720e+00,6.290e+00,7.780e+00,7.164e+00,7.639e+00,7.380e+00,8.838e+00,1.058e+01,8.554e+00,1.011e+01,9.829e+00,9.315e+00,1.031e+01,9.562e+00,9.603e+00,7.414e+00,7.296e+00,1.063e+01,1.038e+01
3.107e-02,6.766e-02,7.981e-01,4.791e-01,1.411e+00,1.850e+00,2.306e+00,1.834e+00,1.815e+00,2.541e+00,1.743e+00,3.309e+00,3.264e+00,4.825e+00,3.408e+00,4.507e+00,4.464e+00,4.613e+00,4.705e+00,4.883e+00,6.125e+00,5.492e+00,5.361e+00,5.656e+00,6.491e+00,6.324e+00,7.581e+00,6.575e+00,7.838e+00,6.155e+00,7.509e+00,6.154e+00,6.887e+00,7.390e+00,8.573e+00,9.870e+00,8.800e+00,9.812e+00,9.525e+00,8.502e+00,1.045e+01,8.346e+00,9.297e+00,7.661e+00,9.072e+00,1.013e+01,1.094e+01
8.188e-02,1.225e-01,6.731e-01,1.956e-01,9.235e-01,9.883e-01,1.416e+00,8.422e-01,9.154e-01,1.336e+00,1.095e+00,2.497e+00,2.813e+00,3.081e+00,3.161e+00,3.567e+00,4.103e+00,3.502e+00,4.050e+00,4.906e+00,4.335e+00,4.305e+00,5.273e+00,4.296e+00,5.908e+00,6.127e+00,5.892e+00,5.663e+00,8.212e+00,6.638e+00,7.627e+00,6.935e+00,6.760e+00,6.491e+00,8.723e+00,9.708e+00,8.162e+00,1.012e+01,9.686e+00,8.974e+00,8.144e+00,8.953e+00,8.940e+00,8.695e+00,9.239e+00,9.252e+00,1.134e+01
1.677e-02,5.991e-02,1.017e+00,6.049e-01,1.617e+00,2.390e+00,2.839e+00,2.411e+00,2.284e+00,3.296e+00,2.388e+00,3.697e+00,3.640e+00,5.004e+00,3.926e+00,5.070e+00,4.717e+00,5.436e+00,5.385e+00,5.273e+00,7.225e+00,6.261e+00,6.617e+00,6.716e+00,6.658e+00,8.441e+00,8.074e+00,7.328e+00,1.010e+01,7.556e+00,8.764e+00,7.993e+00,8.391e+00,8.063e+00,1.043e+01,1.138e+01,1.006e+01,1.162e+01,1.163e+01,1.178e+01,1.172e+01,1.072e+01,1.098e+01,9.723e+00,1.123e+01,1.182e+01,1.273e+01
1.191e-01,1.761e-01,9.544e-01,3.804e-01,1.386e+00,2.152e+00,2.741e+00,1.859e+00,1.784e+00,2.579e+00,2.077e+00,3.450e+00,3.340e+00,3.850e+00,2.938e+00,3.543e+00,4.300e+00,4.286e+00,4.198e+00,4.782e+00,5.005e+00,4.899e+00,4.862e+00,4.801e+00,5.994e+00,6.886e+00,7.036e+00,5.915e+00,9.081e+00,6.923e+00,8.617e+00,7.069e+00,6.854e+00,6.909e+00,8.665e+00,1.068e+01,8.171e+00,1.077e+01,9.280e+00,1.090e+01,1.151e+01,1.061e+01,9.114e+00,7.825e+00,1.003e+01,1.199e+01,1.135e+01
9.839e-02,1.469e-01,9.750e-01,5.782e-01,1.776e+00,2.414e+00,2.942e+00,2.483e+00,2.263e+00,3.302e+00,2.370e+00,3.208e+00,3.656e+00,4.430e+00,3.965e+00,3.906e+00,4.971e+00,4.320e+00,5.308e+00,4.891e+00,5.871e+00,5.714e+00,5.746e+00,4.463e+00,5.668e+00,6.783e+00,6.730e+00,6.283e+00,8.977e+00,6.950e+00,8.589e+00,7.153e+00,7.703e+00,6.673e+00,9.244e+00,1.041e+01,8.716e+00,1.010e+01,9.921e+00,1.090e+01,1.181e+01,1.100e+01,9.890e+00,8.201e+00,1.123e+01,1.169e+01,1.157e+01
6.668e-02,1.782e-01,4.250e-01,2.862e-01,1.731e+00,1.306e+00,2.242e+00,1.897e+00,2.015e+00,2.884e+00,1.655e+00,3.300e+00,3.798e+00,3.762e+00,2.965e+00,3.643e+00,3.862e+00,4.923e+00,5.111e+00,4.672e+00,4.957e+00,4.887e+00,4.908e+00,4.961e+00,5.307e+00,6.687e+00,6.618e+00,4.965e+00,8.039e+00,5.515e+00,7.380e+00,6.958e+00,5.987e+00,6.742e+00,8.651e+00,9.348e+00,8.128e+00,8.981e+00,1.000e+01,8.873e+00,1.029e+01,9.766e+00,1.014e+01,7.891e+00,1.039e+01,1.080e+01,1.011e+01
3.220e-02,1.016e-01,6.695e-01,1.424e-01,1.232e+00,1.640e+00,2.300e+00,1.912e+00,1.908e+00,3.012e+00,2.261e+00,3.494e+00,3.992e+00,5.055e+00,3.587e+00,5.013e+00,5.318e+00,5.804e+00,5.986e+00,5.625e+00,6.769e+00,5.597e+00,5.445e+00,5.472e+00,6.311e+00,7.570e+00,7.028e+00,7.162e+00,9.020e+00,6.450e+00,8.114e+00,6.755e+00,7.084e+00,7.164e+00,8.816e+00,1.018e+01,8.272e+00,9.793e+00,1.022e+01,1.040e+01,1.114e+01,9.099e+00,9.950e+00,8.444e+00,1.062e+01,1.178e+01,1.097e+01
1.769e-01,1.078e-01,1.389e+00,4.048e-01,1.729e+00,2.896e+00,2.976e+00,2.220e+00,1.834e+00,3.486e+00,2.541e+00,3.956e+00,3.878e+00,5.026e+00,4.445e+00,5.553e+00,6.576e+00,5.224e+00,5.453e+00,5.939e+00,5.698e+00,6.439e+00,6.902e+00,5.836e+00,7.954e+00,7.202e+00,8.642e+00,6.737e+00,7.696e+00,6.749e+00,8.506e+00,7.373e+00,8.555e+00,8.209e+00,8.513e+00,1.114e+01,9.066e+00,1.040e+01,1.090e+01,9.686e+00,1.022e+01,1.137e+01,1.015e+01,8.780e+00,1.136e+01,1.107e+01,1.266e+01
5.348e-03,1.511e-01,7.421e-01,5.674e-01,1.730e+00,1.431e+00,2.040e+00,1.560e+00,1.974e+00,2.692e+00,1.459e+00,3.337e+00,3.303e+00,4.345e+00,3.278e+00,4.123e+00,4.780e+00,4.721e+00,5.167e+00,4.354e+00,5.606e+00,5.596e+00,6.406e+00,5.894e+00,7.118e+00,7.317e+00,8.304e+00,5.757e+00,8.593e+00,7.371e+00,8.458e+00,8.245e+00,7.485e+00,7.552e+00,8.869e+00,1.042e+01,9.171e+00,1.062e+01,1.029e+01,9.738e+00,1.138e+01,9.901e+00,1.143e+01,9.187e+00,1.192e+01,1.248e+01,1.286e+01
1.231e-01,1.236e-01,1.376e+00,6.253e-01,2.013e+00,3.007e+00,3.389e+00,2.882e+00,2.525e+00,4.013e+00,2.985e+00,3.927e+00,4.205e+00,5.478e+00,4.152e+00,4.784e+00,5.051e+00,5.465e+00,5.919e+00,5.588e+00,7.841e+00,6.656e+00,7.171e+00,7.025e+00,6.685e+00,8.961e+00,9.568e+00,8.001e+00,1.009e+01,8.066e+00,9.437e+00,7.913e+00,8.964e+00,8.095e+00,1.058e+01,1.093e+01,1.018e+01,1.191e+01,1.223e+01,1.154e+01,1.215e+01,1.156e+01,1.039e+01,9.924e+00,1.196e+01,1.367e+01,1.439e+01
1.776e-01,2.087e-01,1.506e+00,5.924e-01,2.413e+00,3.253e+00,3.599e+00,2.717e+00,2.500e+00,3.826e+00,2.551e+00,4.049e+00,3.903e+00,4.598e+00,3.843e+00,4.432e+00,5.033e+00,5.205e+00,5.437e+00,5.339e+00,6.816e+00,6.558e+00,7.649e+00,6.797e+00,7.753e+00,7.814e+00,9.454e+00,7.072e+00,9.879e+00,8.002e+00,9.987e+00,7.881e+00,9.479e+00,8.743e+00,9.676e+00,1.096e+01,1.108e+01,1.172e+01,1.192e+01,1.079e+01,1.293e+01,1.242e+01,1.233e+01,1.106e+01,1.301e+01,1.516e+01,1.539e+01
