9.901e-01,6.143e-01,6.484e-01,6.156e-01,1.841e-01,1.557e-01,3.017e-01,8.847e-01,4.879e-01,3.943e-01,4.097e-02,8.956e-01,9.862e-02,8.330e-01,6.892e-01,1.026e-01,9.344e-01,2.216e-01,8.430e-01,8.283e-01,5.655e-01,4.227e-01,7.536e-01,9.174e-01,8.937e-02,3.799e-01,4.218e-01,7.382e-02,9.203e-01,3.926e-01,3.118e-02,5.356e-01,2.656e-01,4.541e-01,5.772e-01,3.959e-01,4.741e-01,6.237e-01,8.325e-01,1.415e-01,4.890e-01,9.087e-01,8.678e-01,5.678e-01,7.343e-01,8.788e-01,4.741e-01,2.627e-01,2.469e-01,4.975e-01,4.654e-01,5.249e-02,9.680e-01,7.460e-01,5.885e-01,3.693e-01,5.591e-01,6.927e-02,5.339e-01,1.480e-01,2.993e-01,7.524e-01,7.617e-01,9.449e-02,2.164e-01
8.177e-01,6.318e-01,8.161e-01,8.635e-01,7.560e-01,7.311e-01,9.709e-01,1.198e+00,1.352e+00,1.073e+00,8.843e-01,9.506e-01,9.081e-01,1.649e+00,1.484e+00,6.165e-01,1.417e+00,5.800e-01,8.785e-01,1.567e+00,1.080e+00,1.265e+00,1.127e+00,1.289e+00,3.149e-01,1.305e+00,1.168e+00,9.801e-01,1.644e+00,1.309e+00,7.758e-01,5.407e-01,4.379e-01,1.180e+00,1.078e+00,4.942e-01,7.242e-01,1.392e+00,7.266e-01,4.826e-01,4.663e-01,1.679e+00,1.142e+00,9.909e-01,6.927e-01,1.394e+00,6.515e-01,1.018e+00,6.387e-01,1.238e+00,8.350e-01,5.460e-02,1.612e+00,1.541e+00,1.063e+00,1.161e+00,9.778e-01,5.740e-01,8.808e-01,4.298e-01,1.196e+00,7.326e-01,1.117e+00,1.001e+00,2.197e-01
2.168e-01,2.537e-01,1.108e+00,1.062e+00,8.951e-01,1.048e+00,1.663e+00,1.313e+00,1.939e+00,1.339e+00,1.470e+00,1.046e+00,1.777e+00,1.311e+00,1.562e+00,1.341e+00,1.091e+00,1.210e+00,1.069e+00,1.373e+00,1.281e+00,9.746e-01,1.046e+00,1.224e+00,6.096e-01,1.395e+00,1.419e+00,1.857e+00,1.445e+00,1.057e+00,1.617e+00,2.723e-01,7.985e-01,1.776e+00,9.281e-01,2.808e-01,6.981e-01,1.283e+00,2.445e-01,8.182e-01,8.296e-01,1.680e+00,1.242e+00,7.262e-01,8.012e-01,1.429e+00,5.508e-01,8.759e-01,1.470e+00,1.336e+00,7.910e-01,1.273e-01,1.914e+00,1.575e+00,9.040e-01,1.431e+00,8.171e-01,1.022e+00,9.001e-01,8.518e-01,1.570e+00,3.890e-01,1.627e+00,1.290e+00,7.844e-01
8.938e-01,5.763e-01,9.832e-01,1.049e+00,7.645e-01,7.914e-01,1.118e+00,2.164e+00,1.093e+00,8.266e-01,7.728e-01,1.963e+00,7.610e-01,1.773e+00,1.673e+00,1.507e+00,1.684e+00,1.050e+00,1.541e+00,1.136e+00,1.607e+00,6.788e-01,1.724e+00,1.267e+00,6.541e-01,9.680e-01,1.308e+00,1.651e+00,1.275e+00,1.365e+00,7.591e-01,9.761e-01,1.315e+00,1.586e+00,1.398e+00,1.244e+00,1.334e+00,1.464e+00,1.640e+00,4.196e-01,1.017e+00,1.919e+00,1.433e+00,1.618e+00,1.078e+00,1.389e+00,1.209e+00,1.250e+00,1.448e+00,8.699e-01,6.644e-01,5.066e-01,1.716e+00,1.123e+00,9.410e-01,1.560e+00,8.506e-01,1.162e+00,1.717e+00,1.210e+00,1.554e+00,1.200e+00,1.971e+00,1.168e+00,1.136e+00
7.168e-01,5.180e-01,8.385e-01,8.719e-01,9.562e-01,1.576e+00,1.176e+00,2.195e+00,1.357e+00,1.306e+00,1.187e+00,2.000e+00,1.627e+00,2.285e+00,2.270e+00,1.025e+00,1.931e+00,9.449e-01,1.678e+00,1.374e+00,1.555e+00,9.703e-01,1.567e+00,1.224e+00,4.413e-01,1.246e+00,1.333e+00,1.259e+00,1.976e+00,1.824e+00,1.539e+00,1.310e+00,1.446e+00,1.330e+00,1.385e+00,8.141e-01,1.673e+00,1.352e+00,1.378e+00,7.336e-01,1.574e+00,2.495e+00,1.773e+00,1.510e+00,1.306e+00,1.342e+00,1.570e+00,1.851e+00,1.449e+00,1.589e+00,1.397e+00,7.751e-01,2.426e+00,1.502e+00,1.629e+00,1.544e+00,8.856e-01,1.604e+00,1.090e+00,1.362e+00,1.415e+00,1.661e+00,2.286e+00,1.758e+00,1.012e+00
4.289e-01,3.850e-01,6.552e-01,8.109e-01,1.069e+00,1.949e+00,1.789e+00,2.004e+00,1.645e+00,1.813e+00,1.950e+00,2.446e+00,1.571e+00,2.986e+00,2.729e+00,1.861e+00,2.251e+00,9.793e-01,1.686e+00,1.937e+00,2.190e+00,1.982e+00,2.437e+00,2.073e+00,8.437e-01,1.641e+00,2.036e+00,2.283e+00,2.375e+00,2.664e+00,1.353e+00,1.566e+00,1.528e+00,2.197e+00,2.458e+00,1.659e+00,2.170e+00,2.548e+00,1.968e+00,5.850e-01,1.313e+00,2.804e+00,1.683e+00,1.919e+00,1.567e+00,1.723e+00,1.331e+00,2.756e+00,2.320e+00,1.562e+00,1.766e+00,7.637e-01,2.167e+00,1.619e+00,1.677e+00,1.949e+00,9.882e-01,1.527e+00,1.699e+00,1.675e+00,2.582e+00,1.184e+00,2.487e+00,2.701e+00,1.541e+00
8.490e-02,6.221e-02,2.290e-01,2.313e-01,1.951e-01,9.756e-01,1.508e+00,1.322e+00,8.236e-01,1.464e+00,1.191e+00,2.211e+00,9.946e-01,2.085e+00,1.658e+00,8.733e-01,1.010e+00,6.287e-01,1.330e+00,1.347e+00,9.912e-01,1.545e+00,1.518e+00,1.445e+00,1.040e+00,9.087e-01,1.092e+00,1.767e+00,1.871e+00,1.410e+00,1.022e+00,1.576e+00,8.494e-01,1.068e+00,1.899e+00,1.330e+00,1.896e+00,1.741e+00,1.067e+00,3.136e-01,1.730e+00,2.064e+00,1.644e+00,6.571e-01,1.531e+00,1.230e+00,5.172e-01,1.885e+00,1.825e+00,6.007e-01,1.291e+00,1.021e+00,1.060e+00,1.098e+00,1.004e+00,8.740e-01,8.738e-01,8.579e-01,9.145e-01,1.239e+00,1.939e+00,4.745e-01,1.240e+00,2.078e+00,1.794e+00
2.832e-01,2.990e-01,8.630e-01,9.592e-01,1.251e+00,2.365e+00,2.679e+00,3.462e+00,2.243e+00,2.942e+00,2.533e+00,4.000e+00,3.006e+00,4.526e+00,4.429e+00,2.406e+00,2.935e+00,2.246e+00,3.016e+00,2.553e+00,2.406e+00,3.284e+00,3.481e+00,2.601e+00,2.306e+00,3.169e+00,3.052e+00,4.269e+00,3.722e+00,3.869e+00,2.607e+00,3.116e+00,2.235e+00,2.546e+00,3.641e+00,2.403e+00,3.241e+00,3.113e+00,2.740e+00,1.827e+00,2.841e+00,4.980e+00,3.665e+00,2.466e+00,2.559e+00,2.485e+00,2.510e+00,3.830e+00,3.882e+00,2.004e+00,2.980e+00,1.941e+00,3.287e+00,2.712e+00,3.135e+00,2.904e+00,2.335e+00,2.460e+00,3.011e+00,2.805e+00,3.910e+00,1.750e+00,3.438e+00,4.116e+00,2.720e+00
7.505e-01,5.779e-01,1.012e+00,1.028e+00,9.818e-01,1.510e+00,1.951e+00,2.653e+00,2.892e+00,2.127e+00,2.336e+00,3.026e+00,2.812e+00,4.126e+00,3.656e+00,1.487e+00,2.948e+00,2.365e+00,2.614e+00,2.361e+00,1.953e+00,2.687e+00,2.477e+00,2.330e+00,2.165e+00,3.165e+00,2.498e+00,2.604e+00,3.791e+00,2.548e+00,2.384e+00,2.301e+00,2.314e+00,2.202e+00,2.630e+00,2.102e+00,2.247e+00,2.600e+00,2.029e+00,1.386e+00,2.724e+00,4.457e+00,3.631e+00,2.187e+00,2.571e+00,2.424e+00,2.447e+00,2.420e+00,2.682e+00,2.499e+00,2.148e+00,1.568e+00,3.036e+00,3.103e+00,2.633e+00,2.143e+00,2.132e+00,2.595e+00,2.203e+00,1.982e+00,2.852e+00,1.695e+00,3.083e+00,3.328e+00,2.003e+00
8.708e-01,6.393e-01,1.277e+00,1.240e+00,8.849e-01,1.207e+00,2.146e+00,2.444e+00,2.912e+00,2.699e+00,2.363e+00,2.917e+00,3.216e+00,4.328e+00,3.332e+00,2.394e+00,3.350e+00,2.909e+00,2.866e+00,3.180e+00,2.413e+00,2.359e+00,2.686e+00,2.453e+00,2.812e+00,3.240e+00,2.353e+00,3.440e+00,3.904e+00,2.357e+00,2.740e+00,1.960e+00,2.638e+00,2.461e+00,2.864e+00,2.477e+00,2.708e+00,3.350e+00,2.252e+00,1.518e+00,2.727e+00,4.545e+00,3.863e+00,2.058e+00,3.100e+00,2.903e+00,2.279e+00,1.978e+00,3.055e+00,2.836e+00,1.993e+00,1.750e+00,3.046e+00,3.800e+00,2.487e+00,2.685e+00,2.205e+00,2.728e+00,2.829e+00,2.510e+00,2.839e+00,1.354e+00,3.719e+00,3.404e+00,1.983e+00
2.445e-01,2.259e-01,8.132e-01,8.528e-01,1.068e+00,2.453e+00,2.255e+00,2.787e+00,2.457e+00,2.826e+00,3.212e+00,4.197e+00,4.034e+00,4.805e+00,4.571e+00,3.193e+00,4.361e+00,3.387e+00,4.136e+00,3.089e+00,3.310e+00,2.562e+00,4.172e+00,2.650e+00,3.343e+00,3.752e+00,3.616e+00,3.934e+00,3.932e+00,3.638e+00,3.035e+00,3.677e+00,3.203e+00,3.317e+00,3.493e+00,2.629e+00,3.774e+00,3.300e+00,3.578e+00,2.308e+00,3.699e+00,4.881e+00,4.394e+00,2.568e+00,3.411e+00,2.402e+00,3.533e+00,3.665e+00,4.585e+00,3.432e+00,3.647e+00,2.277e+00,4.286e+00,3.126e+00,3.610e+00,3.337e+00,2.025e+00,3.772e+00,3.148e+00,3.717e+00,3.279e+00,2.794e+00,4.698e+00,4.351e+00,2.978e+00
7.927e-01,5.967e-01,1.261e+00,1.324e+00,1.256e+00,1.635e+00,2.001e+00,3.038e+00,2.985e+00,1.910e+00,2.519e+00,3.527e+00,3.084e+00,4.327e+00,4.431e+00,3.259e+00,3.499e+00,3.855e+00,3.424e+00,2.865e+00,3.374e+00,2.328e+00,3.355e+00,2.973e+00,2.782e+00,3.400e+00,3.450e+00,3.184e+00,4.102e+00,3.140e+00,3.113e+00,2.899e+00,3.094e+00,3.549e+00,2.631e+00,3.167e+00,2.952e+00,2.953e+00,2.767e+00,1.666e+00,3.013e+00,5.228e+00,4.113e+00,3.559e+00,2.530e+00,2.990e+00,3.555e+00,3.137e+00,3.892e+00,3.700e+00,2.344e+00,2.161e+00,3.864e+00,3.885e+00,3.316e+00,3.754e+00,2.635e+00,3.929e+00,2.895e+00,3.051e+00,3.660e+00,2.694e+00,4.175e+00,4.080e+00,2.747e+00
4.499e-01,2.893e-01,6.169e-01,5.621e-01,4.750e-01,1.194e+00,1.043e+00,1.784e+00,1.726e+00,1.659e+00,1.974e+00,2.902e+00,3.990e+00,3.536e+00,4.149e+00,2.320e+00,3.828e+00,3.206e+00,4.254e+00,2.224e+00,3.117e+00,2.578e+00,3.722e+00,2.723e+00,3.610e+00,3.611e+00,2.711e+00,3.088e+00,3.000e+00,3.035e+00,2.316e+00,3.177e+00,2.401e+00,2.704e+00,2.183e+00,2.320e+00,2.958e+00,2.399e+00,3.290e+00,2.996e+00,3.303e+00,4.369e+00,4.303e+00,2.567e+00,2.798e+00,2.499e+00,4.099e+00,2.645e+00,3.752e+00,3.561e+00,2.760e+00,2.285e+00,3.378e+00,3.396e+00,3.035e+00,2.418e+00,2.762e+00,2.966e+00,3.276e+00,3.445e+00,2.647e+00,3.028e+00,4.112e+00,2.798e+00,2.183e+00
8.835e-01,5.583e-01,1.265e+00,1.174e+00,7.110e-01,1.794e+00,2.347e+00,2.891e+00,2.134e+00,2.710e+00,2.453e+00,4.421e+00,3.521e+00,4.554e+00,5.012e+00,3.847e+00,4.200e+00,4.203e+00,4.666e+00,3.497e+00,3.566e+00,3.134e+00,4.258e+00,3.942e+00,3.468e+00,3.875e+00,4.290e+00,4.537e+00,4.211e+00,3.649e+00,3.393e+00,4.464e+00,3.171e+00,4.034e+00,4.108e+00,2.884e+00,4.215e+00,4.058e+00,3.961e+00,2.437e+00,3.956e+00,5.666e+00,4.754e+00,2.933e+00,4.015e+00,3.933e+00,4.018e+00,3.877e+00,5.181e+00,4.169e+00,3.974e+00,3.114e+00,5.129e+00,4.097e+00,4.127e+00,3.896e+00,2.992e+00,3.629e+00,3.367e+00,4.366e+00,3.439e+00,3.693e+00,4.507e+00,4.252e+00,3.443e+00
2.591e-01,1.761e-01,5.172e-01,5.095e-01,5.762e-01,1.302e+00,1.281e+00,2.150e+00,1.684e+00,1.557e+00,1.829e+00,2.882e+00,2.813e+00,3.337e+00,3.629e+00,2.480e+00,2.958e+00,3.695e+00,3.880e+00,2.629e+00,2.431e+00,2.811e+00,2.975e+00,2.997e+00,3.060e+00,3.082e+00,3.252e+00,3.392e+00,3.361e+00,3.281e+00,2.662e+00,3.624e+00,2.655e+00,3.076e+00,2.482e+00,2.272e+00,2.519e+00,2.819e+00,3.213e+00,2.557e+00,3.560e+00,4.548e+00,4.310e+00,2.957e+00,2.942e+00,2.098e+00,4.069e+00,2.667e+00,3.444e+00,2.973e+00,3.081e+00,2.145e+00,3.871e+00,2.937e+00,2.992e+00,2.350e+00,2.173e+00,3.727e+00,2.691e+00,3.599e+00,2.853e+00,2.802e+00,3.666e+00,3.817e+00,2.899e+00
7.614e-01,5.129e-01,9.504e-01,1.011e+00,1.038e+00,2.088e+00,2.046e+00,3.320e+00,2.359e+00,2.655e+00,2.691e+00,4.571e+00,3.857e+00,5.462e+00,5.408e+00,5.347e+00,5.426e+00,4.959e+00,5.369e+00,4.631e+00,4.720e+00,3.684e+00,4.998e+00,4.465e+00,4.394e+00,4.054e+00,4.932e+00,4.741e+00,5.622e+00,5.084e+00,4.286e+00,5.210e+00,4.646e+00,4.773e+00,4.705e+00,4.610e+00,5.525e+00,5.051e+00,5.389e+00,3.086e+00,4.789e+00,7.182e+00,6.502e+00,4.691e+00,4.635e+00,4.123e+00,5.530e+00,5.045e+00,5.710e+00,5.438e+00,4.711e+00,3.865e+00,5.677e+00,4.820e+00,4.822e+00,4.512e+00,3.566e+00,5.481e+00,4.519e+00,5.997e+00,4.943e+00,4.251e+00,5.706e+00,6.068e+00,4.108e+00
4.240e-01,3.286e-01,7.701e-01,8.374e-01,9.399e-01,1.455e+00,1.683e+00,2.681e+00,1.517e+00,2.383e+00,1.772e+00,2.973e+00,3.442e+00,4.131e+00,4.507e+00,4.640e+00,4.641e+00,4.641e+00,4.886e+00,4.427e+00,4.066e+00,4.165e+00,4.655e+00,4.350e+00,4.296e+00,3.908e+00,5.058e+00,5.673e+00,4.668e+00,5.081e+00,4.370e+00,4.599e+00,3.879e+00,4.801e+00,4.735e+00,3.388e+00,4.645e+00,5.473e+00,5.192e+00,4.001e+00,3.447e+00,6.707e+00,6.106e+00,3.939e+00,4.132e+00,4.525e+00,4.983e+00,4.195e+00,4.938e+00,4.320e+00,4.802e+00,3.642e+00,5.533e+00,4.306e+00,4.568e+00,4.271e+00,3.965e+00,4.496e+00,5.053e+00,5.711e+00,5.046e+00,4.052e+00,4.837e+00,5.032e+00,3.743e+00
9.516e-01,6.491e-01,1.280e+00,1.323e+00,1.153e+00,1.634e+00,2.129e+00,3.621e+00,2.176e+00,2.150e+00,2.260e+00,4.348e+00,3.727e+00,4.464e+00,5.093e+00,4.495e+00,5.037e+00,4.854e+00,5.838e+00,4.400e+00,5.589e+00,3.888e+00,5.764e+00,4.343e+00,4.378e+00,4.784e+00,5.321e+00,5.455e+00,5.010e+00,5.523e+00,4.023e+00,5.533e+00,4.454e+00,5.529e+00,4.364e+00,3.800e+00,5.088e+00,5.271e+00,5.150e+00,4.178e+00,5.349e+00,6.734e+00,6.574e+00,4.675e+00,4.501e+00,4.561e+00,5.179e+00,5.328e+00,5.223e+00,5.177e+00,5.000e+00,3.677e+00,6.020e+00,4.425e+00,4.606e+00,4.380e+00,4.530e+00,5.610e+00,5.602e+00,5.907e+00,5.993e+00,5.006e+00,5.467e+00,5.056e+00,4.458e+00
8.704e-01,5.856e-01,1.057e+00,1.018e+00,7.467e-01,1.398e+00,1.386e+00,2.015e+00,2.492e+00,1.788e+00,2.175e+00,2.880e+00,3.550e+00,4.000e+00,4.636e+00,3.813e+00,4.416e+00,4.535e+00,5.143e+00,4.275e+00,4.867e+00,4.583e+00,5.142e+00,5.168e+00,4.311e+00,4.510e+00,4.480e+00,4.316e+00,5.061e+00,5.174e+00,4.402e+00,5.119e+00,4.519e+00,5.321e+00,4.333e+00,3.808e+00,3.809e+00,5.497e+00,4.843e+00,3.697e+00,4.975e+00,6.178e+00,6.025e+00,4.684e+00,4.799e+00,4.308e+00,5.707e+00,4.836e+00,4.946e+00,5.534e+00,4.391e+00,3.971e+00,5.745e+00,4.665e+00,4.707e+00,3.764e+00,4.444e+00,5.622e+00,4.389e+00,5.988e+00,5.002e+00,4.388e+00,6.029e+00,5.219e+00,3.180e+00
1.741e-01,1.351e-01,2.744e-01,3.565e-01,4.591e-01,6.756e-01,1.192e+00,1.829e+00,1.448e+00,1.524e+00,1.621e+00,2.514e+00,2.388e+00,3.483e+00,3.095e+00,3.083e+00,3.492e+00,3.392e+00,3.708e+00,4.313e+00,3.832e+00,3.731e+00,5.387e+00,3.910e+00,4.556e+00,4.201e+00,3.623e+00,4.973e+00,4.440e+00,4.475e+00,3.805e+00,5.106e+00,4.203e+00,4.807e+00,4.979e+00,4.433e+00,4.481e+00,5.605e+00,4.543e+00,3.248e+00,4.200e+00,5.250e+00,5.523e+00,3.901e+00,4.283e+00,3.752e+00,3.974e+00,4.528e+00,4.066e+00,3.657e+00,4.405e+00,4.867e+00,4.650e+00,4.101e+00,3.969e+00,4.202e+00,4.308e+00,5.279e+00,4.556e+00,5.738e+00,5.446e+00,3.169e+00,4.292e+00,5.667e+00,3.359e+00
1.538e-01,1.559e-01,9.111e-01,9.630e-01,9.814e-01,1.678e+00,2.041e+00,2.434e+00,2.106e+00,2.114e+00,2.353e+00,3.207e+00,3.617e+00,3.913e+00,4.827e+00,4.752e+00,3.961e+00,4.689e+00,4.873e+00,4.715e+00,5.292e+00,5.127e+00,6.666e+00,6.425e+00,5.036e+00,4.914e+00,5.123e+00,6.723e+00,4.975e+00,6.536e+00,5.279e+00,5.682e+00,5.110e+00,6.529e+00,5.768e+00,4.995e+00,5.404e+00,6.562e+00,5.703e+00,4.347e+00,4.895e+00,7.162e+00,6.398e+00,5.608e+00,5.550e+00,5.689e+00,5.421e+00,5.955e+00,6.785e+00,5.183e+00,5.354e+00,5.890e+00,6.532e+00,5.180e+00,4.917e+00,6.012e+00,5.161e+00,6.750e+00,5.870e+00,6.925e+00,7.106e+00,4.689e+00,5.918e+00,7.247e+00,4.470e+00
3.943e-01,3.587e-01,1.166e+00,1.170e+00,1.062e+00,1.521e+00,2.098e+00,2.366e+00,2.584e+00,2.233e+00,2.329e+00,2.917e+00,3.429e+00,3.931e+00,5.001e+00,5.107e+00,4.261e+00,5.449e+00,4.822e+00,5.230e+00,4.472e+00,5.675e+00,5.643e+00,6.507e+00,5.410e+00,5.478e+00,6.170e+00,6.590e+00,6.166e+00,6.040e+00,5.649e+00,5.966e+00,4.887e+00,7.542e+00,6.098e+00,4.588e+00,5.258e+00,6.754e+00,5.573e+00,4.583e+00,4.709e+00,7.591e+00,7.202e+00,5.479e+00,5.124e+00,6.155e+00,5.576e+00,5.053e+00,6.128e+00,6.044e+00,6.261e+00,4.758e+00,7.938e+00,6.183e+00,5.501e+00,5.676e+00,5.515e+00,6.366e+00,5.528e+00,6.324e+00,6.333e+00,5.116e+00,5.050e+00,6.925e+00,4.670e+00
1.171e-01,8.965e-02,2.411e-01,2.413e-01,3.092e-01,7.665e-01,5.807e-01,8.951e-01,1.500e+00,1.048e+00,1.576e+00,1.801e+00,2.704e+00,2.967e+00,3.633e+00,3.138e+00,3.162e+00,4.094e+00,3.704e+00,3.132e+00,3.652e+00,4.265e+00,4.416e+00,4.946e+00,5.675e+00,4.554e+00,4.632e+00,4.435e+00,5.179e+00,5.562e+00,4.776e+00,5.169e+00,5.437e+00,5.488e+00,4.991e+00,3.831e+00,4.518e+00,5.740e+00,4.468e+00,3.907e+00,5.166e+00,5.815e+00,5.715e+00,4.531e+00,5.125e+00,4.858e+00,5.052e+00,4.414e+00,5.349e+00,5.549e+00,4.404e+00,4.280e+00,5.688e+00,4.884e+00,4.300e+00,4.200e+00,4.668e+00,5.869e+00,4.761e+00,5.893e+00,4.306e+00,4.570e+00,5.243e+00,5.434e+00,3.879e+00
6.261e-01,3.994e-01,7.946e-01,7.909e-01,5.587e-01,9.123e-01,1.496e+00,2.504e+00,2.149e+00,1.586e+00,1.828e+00,3.233e+00,2.988e+00,3.926e+00,4.428e+00,3.222e+00,3.842e+00,3.813e+00,4.420e+00,3.819e+00,3.441e+00,5.308e+00,5.495e+00,6.537e+00,5.961e+00,5.498e+00,4.557e+00,5.341e+00,5.983e+00,5.546e+00,5.435e+00,6.481e+00,5.376e+00,5.772e+00,5.754e+00,5.133e+00,5.125e+00,5.605e+00,5.382e+00,4.599e+00,5.390e+00,7.390e+00,7.067e+00,5.326e+00,5.948e+00,6.097e+00,6.022e+00,5.450e+00,5.912e+00,4.976e+00,5.531e+00,5.667e+00,7.283e+00,5.786e+00,4.776e+00,5.139e+00,5.555e+00,6.141e+00,5.951e+00,6.420e+00,6.006e+00,5.176e+00,5.870e+00,6.872e+00,3.987e+00
2.046e-01,1.379e-01,4.769e-01,5.376e-01,6.838e-01,1.173e+00,1.397e+00,2.542e+00,1.161e+00,1.863e+00,1.500e+00,3.053e+00,2.966e+00,3.864e+00,4.253e+00,4.064e+00,3.531e+00,4.374e+00,4.272e+00,3.820e+00,4.042e+00,3.636e+00,4.872e+00,4.292e+00,4.780e+00,4.629e+00,5.115e+00,5.976e+00,5.314e+00,5.344e+00,4.993e+00,5.738e+00,4.952e+00,5.259e+00,5.480e+00,4.528e+00,5.128e+00,5.750e+00,4.866e+00,3.514e+00,4.517e+00,7.257e+00,5.795e+00,4.937e+00,4.291e+00,5.063e+00,5.157e+00,5.630e+00,6.069e+00,4.523e+00,4.693e+00,5.190e+00,5.932e+00,4.784e+00,5.376e+00,5.706e+00,4.976e+00,5.638e+00,5.628e+00,6.823e+00,5.475e+00,4.471e+00,5.545e+00,5.854e+00,4.776e+00
4.505e-01,2.797e-01,6.628e-01,6.415e-01,5.016e-01,1.545e+00,1.446e+00,1.889e+00,1.466e+00,1.649e+00,1.927e+00,3.235e+00,2.454e+00,3.192e+00,3.859e+00,3.651e+00,3.970e+00,3.584e+00,4.687e+00,4.334e+00,4.188e+00,5.344e+00,6.195e+00,6.793e+00,5.815e+00,5.074e+00,6.193e+00,5.629e+00,6.947e+00,7.792e+00,5.767e+00,7.916e+00,6.550e+00,7.245e+00,7.240e+00,5.528e+00,6.100e+00,7.427e+00,6.655e+00,5.449e+00,7.053e+00,7.233e+00,7.804e+00,5.591e+00,7.386e+00,6.595e+00,6.160e+00,7.001e+00,7.375e+00,6.478e+00,7.270e+00,6.107e+00,8.506e+00,5.523e+00,6.092e+00,6.058e+00,5.751e+00,7.631e+00,5.975e+00,7.070e+00,6.547e+00,6.265e+00,6.683e+00,7.528e+00,6.046e+00
1.061e-02,5.033e-02,4.294e-01,5.255e-01,8.667e-01,1.772e+00,1.637e+00,2.360e+00,1.505e+00,1.599e+00,2.104e+00,3.140e+00,3.277e+00,3.542e+00,4.358e+00,3.743e+00,3.780e+00,3.535e+00,4.593e+00,3.895e+00,4.566e+00,5.140e+00,6.080e+00,6.291e+00,6.140e+00,4.968e+00,6.464e+00,7.064e+00,6.745e+00,8.342e+00,6.445e+00,7.067e+00,6.519e+00,7.907e+00,7.662e+00,5.574e+00,6.856e+00,8.095e+00,6.480e+00,5.456e+00,6.693e+00,8.388e+00,8.257e+00,6.813e+00,6.963e+00,6.601e+00,6.927e+00,7.664e+00,7.630e+00,6.584e+00,6.839e+00,5.979e+00,8.343e+00,5.975e+00,5.985e+00,6.647e+00,5.991e+00,8.249e+00,6.972e+00,7.855e+00,7.189e+00,6.127e+00,7.066e+00,7.886e+00,6.733e+00
5.554e-01,4.342e-01,1.233e+00,1.193e+00,9.296e-01,1.752e+00,2.273e+00,2.258e+00,2.611e+00,2.374e+00,2.512e+00,3.217e+00,3.579e+00,3.871e+00,4.720e+00,4.261e+00,4.192e+00,4.688e+00,5.082e+00,4.966e+00,5.265e+00,5.661e+00,6.265e+00,7.359e+00,5.541e+00,6.180e+00,7.203e+00,7.954e+00,7.741e+00,8.838e+00,6.310e+00,7.242e+00,7.273e+00,9.137e+00,8.306e+00,6.316e+00,6.713e+00,9.033e+00,6.674e+00,6.747e+00,6.762e+00,9.073e+00,8.354e+00,6.789e+00,8.490e+00,8.237e+00,6.854e+00,7.718e+00,7.973e+00,7.454e+00,8.511e+00,5.988e+00,8.889e+00,7.314e+00,6.310e+00,6.974e+00,6.375e+00,7.706e+00,8.120e+00,7.903e+00,8.381e+00,5.819e+00,7.505e+00,8.703e+00,7.516e+00
4.972e-01,3.303e-01,8.405e-01,8.719e-01,7.489e-01,1.208e+00,1.573e+00,2.379e+00,1.673e+00,1.942e+00,1.977e+00,3.307e+00,3.208e+00,3.807e+00,3.877e+00,3.912e+00,3.707e+00,4.110e+00,4.373e+00,3.740e+00,4.299e+00,2.710e+00,4.766e+00,4.158e+00,4.587e+00,4.130e+00,4.634e+00,6.156e+00,5.826e+00,6.933e+00,5.373e+00,5.576e+00,5.496e+00,7.448e+00,6.713e+00,6.266e+00,5.884e+00,6.692e+00,5.638e+00,4.906e+00,5.535e+00,7.211e+00,7.417e+00,6.034e+00,6.833e+00,5.460e+00,7.139e+00,6.303e+00,6.154e+00,6.639e+00,5.948e+00,4.653e+00,6.989e+00,6.827e+00,5.096e+00,6.305e+00,5.123e+00,7.199e+00,6.372e+00,6.896e+00,6.212e+00,4.262e+00,7.124e+00,6.973e+00,5.566e+00
7.365e-01,4.631e-01,8.340e-01,8.859e-01,8.522e-01,1.486e+00,1.283e+00,2.832e+00,1.649e+00,1.498e+00,1.567e+00,3.299e+00,3.089e+00,3.809e+00,4.564e+00,3.867e+00,4.179e+00,3.951e+00,5.046e+00,4.267e+00,4.951e+00,4.617e+00,6.354e+00,6.357e+00,5.756e+00,4.421e+00,5.783e+00,6.399e+00,7.295e+00,9.154e+00,6.568e+00,7.574e+00,7.964e+00,8.953e+00,8.894e+00,7.977e+00,7.332e+00,8.471e+00,7.701e+00,6.093e+00,6.739e+00,8.894e+00,9.098e+00,7.290e+00,8.301e+00,7.927e+00,8.070e+00,8.301e+00,7.966e+00,7.440e+00,7.173e+00,6.761e+00,8.777e+00,7.628e+00,6.388e+00,7.155e+00,7.487e+00,8.553e+00,7.840e+00,9.078e+00,8.426e+00,6.190e+00,8.449e+00,8.576e+00,7.301e+00
2.814e-01,2.465e-01,3.955e-01,4.579e-01,6.473e-01,1.300e+00,1.384e+00,1.968e+00,1.812e+00,2.102e+00,1.922e+00,2.842e+00,2.693e+00,4.226e+00,4.298e+00,3.820e+00,3.719e+00,4.277e+00,3.726e+00,4.297e+00,3.382e+00,4.556e+00,4.697e+00,5.992e+00,5.237e+00,5.532e+00,6.353e+00,6.711e+00,7.354e+00,7.293e+00,6.696e+00,7.298e+00,6.289e+00,8.027e+00,8.680e+00,7.040e+00,6.895e+00,8.036e+00,7.157e+00,5.887e+00,5.825e+00,9.557e+00,8.077e+00,7.017e+00,8.552e+00,7.672e+00,7.036e+00,7.157e+00,7.335e+00,6.945e+00,8.458e+00,6.006e+00,8.993e+00,7.528e+00,6.630e+00,7.640e+00,6.593e+00,7.755e+00,7.474e+00,8.034e+00,7.476e+00,5.393e+00,6.492e+00,8.855e+00,6.088e+00
1.230e-01,1.311e-01,7.979e-01,7.642e-01,7.026e-01,1.710e+00,1.891e+00,1.700e+00,1.721e+00,1.839e+00,1.898e+00,2.549e+00,3.030e+00,2.839e+00,4.023e+00,3.152e+00,2.856e+00,3.145e+00,3.996e+00,3.749e+00,4.454e+00,4.528e+00,5.427e+00,6.126e+00,4.423e+00,4.879e+00,5.447e+00,6.441e+00,6.476e+00,7.241e+00,6.709e+00,7.898e+00,6.593e+00,9.483e+00,8.278e+00,7.341e+00,7.078e+00,8.927e+00,6.320e+00,6.889e+00,6.304e+00,8.896e+00,7.412e+00,6.915e+00,7.666e+00,8.901e+00,7.050e+00,8.978e+00,8.403e+00,6.816e+00,8.837e+00,6.616e+00,8.973e+00,7.625e+00,6.654e+00,8.038e+00,7.381e+00,7.723e+00,7.761e+00,8.605e+00,9.413e+00,6.041e+00,7.518e+00,8.604e+00,6.662e+00
7.958e-01,5.590e-01,1.150e+00,1.162e+00,8.607e-01,1.253e+00,2.193e+00,2.795e+00,2.318e+00,2.428e+00,2.345e+00,3.769e+00,3.486e+00,4.526e+00,4.753e+00,4.287e+00,4.403e+00,4.583e+00,4.930e+00,4.656e+00,4.625e+00,5.165e+00,5.876e+00,6.422e+00,6.472e+00,5.921e+00,6.251e+00,7.006e+00,7.475e+00,8.227e+00,6.443e+00,8.055e+00,8.042e+00,9.631e+00,8.499e+00,7.752e+00,8.550e+00,9.660e+00,7.471e+00,6.984e+00,8.325e+00,1.030e+01,8.938e+00,7.325e+00,8.709e+00,9.076e+00,8.055e+00,7.788e+00,9.156e+00,8.096e+00,7.800e+00,6.565e+00,9.865e+00,8.501e+00,6.769e+00,8.702e+00,7.663e+00,9.651e+00,7.979e+00,8.977e+00,8.536e+00,6.697e+00,7.841e+00,8.890e+00,6.992e+00
8.003e-01,5.607e-01,1.318e+00,1.294e+00,9.960e-01,2.045e+00,2.630e+00,3.096e+00,2.910e+00,2.969e+00,2.872e+00,4.244e+00,3.519e+00,4.879e+00,4.497e+00,3.419e+00,4.013e+00,3.950e+00,4.471e+00,4.158e+00,3.797e+00,4.298e+00,4.887e+00,6.011e+00,5.065e+00,4.665e+00,5.261e+00,6.395e+00,6.958e+00,6.831e+00,6.267e+00,6.045e+00,7.431e+00,9.362e+00,8.730e+00,7.117e+00,7.477e+00,8.581e+00,6.834e+00,6.042e+00,7.203e+00,9.793e+00,9.187e+00,7.020e+00,9.539e+00,7.895e+00,8.256e+00,7.723e+00,8.230e+00,6.879e+00,8.300e+00,5.685e+00,9.655e+00,7.451e+00,5.918e+00,7.797e+00,6.068e+00,8.833e+00,7.984e+00,8.165e+00,8.069e+00,6.050e+00,7.833e+00,9.860e+00,7.257e+00
9.276e-01,6.324e-01,1.366e+00,1.334e+00,8.903e-01,1.307e+00,2.221e+00,3.100e+00,2.862e+00,2.356e+00,2.281e+00,3.793e+00,3.861e+00,4.655e+00,5.462e+00,3.871e+00,4.125e+00,4.895e+00,5.436e+00,4.430e+00,4.450e+00,5.981e+00,5.862e+00,6.929e+00,5.805e+00,6.149e+00,6.198e+00,7.570e+00,7.710e+00,8.672e+00,6.774e+00,7.815e+00,7.266e+00,1.061e+01,1.057e+01,9.295e+00,7.641e+00,9.254e+00,8.905e+00,7.727e+00,7.647e+00,1.038e+01,1.073e+01,8.631e+00,9.437e+00,9.331e+00,9.895e+00,9.086e+00,9.038e+00,8.535e+00,8.795e+00,7.597e+00,1.109e+01,1.021e+01,8.065e+00,8.515e+00,9.756e+00,9.404e+00,9.886e+00,9.793e+00,1.012e+01,6.984e+00,8.655e+00,1.023e+01,8.590e+00
5.976e-01,4.674e-01,1.160e+00,1.121e+00,9.503e-01,1.976e+00,2.093e+00,2.061e+00,2.746e+00,2.369e+00,2.519e+00,2.835e+00,3.866e+00,3.875e+00,4.492e+00,2.783e+00,3.643e+00,3.060e+00,3.951e+00,3.096e+00,4.081e+00,4.275e+00,4.474e+00,5.972e+00,4.781e+00,5.043e+00,5.071e+00,5.788e+00,6.497e+00,6.911e+00,5.336e+00,5.651e+00,7.257e+00,8.574e+00,7.681e+00,6.504e+00,7.347e+00,9.019e+00,5.973e+00,6.534e+00,6.403e+00,8.724e+00,7.741e+00,6.079e+00,8.554e+00,8.326e+00,8.302e+00,7.895e+00,8.349e+00,7.567e+00,7.985e+00,5.977e+00,9.168e+00,8.593e+00,5.779e+00,7.639e+00,6.589e+00,7.081e+00,7.589e+00,8.151e+00,7.869e+00,6.663e+00,8.641e+00,7.973e+00,6.919e+00
6.330e-01,4.315e-01,8.298e-01,8.880e-01,8.049e-01,1.720e+00,2.188e+00,2.910e+00,1.710e+00,2.747e+00,2.221e+00,4.228e+00,3.039e+00,4.790e+00,4.591e+00,4.321e+00,4.224e+00,4.322e+00,4.937e+00,5.499e+00,4.913e+00,4.455e+00,6.626e+00,6.401e+00,5.575e+00,4.889e+00,5.962e+00,7.115e+00,7.647e+00,8.220e+00,6.669e+00,7.898e+00,7.906e+00,9.941e+00,1.034e+01,9.249e+00,1.024e+01,1.059e+01,8.484e+00,7.101e+00,8.369e+00,1.092e+01,1.074e+01,8.740e+00,1.014e+01,9.284e+00,9.904e+00,9.973e+00,9.957e+00,7.912e+00,1.051e+01,9.138e+00,1.160e+01,9.469e+00,9.045e+00,1.020e+01,8.901e+00,1.087e+01,9.563e+00,1.125e+01,1.098e+01,7.655e+00,9.548e+00,1.154e+01,8.763e+00
9.302e-02,1.647e-01,6.751e-01,7.862e-01,1.109e+00,2.113e+00,2.174e+00,2.433e+00,2.099e+00,2.563e+00,2.867e+00,3.489e+00,3.491e+00,4.355e+00,4.317e+00,3.895e+00,4.461e+00,4.111e+00,4.502e+00,4.543e+00,4.618e+00,4.066e+00,5.806e+00,5.668e+00,5.758e+00,6.023e+00,7.404e+00,7.797e+00,7.767e+00,8.356e+00,7.026e+00,8.377e+00,7.811e+00,9.908e+00,9.579e+00,7.236e+00,8.646e+00,1.133e+01,8.068e+00,8.149e+00,8.014e+00,1.078e+01,1.008e+01,8.604e+00,9.988e+00,8.776e+00,9.160e+00,1.076e+01,1.016e+01,8.142e+00,1.133e+01,7.779e+00,1.131e+01,9.592e+00,8.554e+00,1.037e+01,6.885e+00,9.853e+00,9.811e+00,9.645e+00,1.005e+01,7.841e+00,9.202e+00,1.076e+01,8.385e+00
2.139e-01,2.302e-01,3.735e-01,4.796e-01,9.297e-01,1.903e+00,1.463e+00,2.094e+00,1.320e+00,1.786e+00,1.956e+00,2.824e+00,2.462e+00,3.540e+00,4.180e+00,3.966e+00,3.955e+00,3.587e+00,3.858e+00,3.963e+00,3.511e+00,4.366e+00,4.301e+00,5.527e+00,3.839e+00,4.830e+00,6.522e+00,5.761e+00,6.471e+00,7.575e+00,5.760e+00,7.759e+00,6.298e+00,8.650e+00,8.789e+00,6.638e+00,8.267e+00,9.505e+00,8.042e+00,7.478e+00,7.682e+00,9.670e+00,1.045e+01,8.642e+00,1.012e+01,8.652e+00,1.019e+01,1.104e+01,8.873e+00,8.570e+00,1.190e+01,8.453e+00,1.264e+01,9.626e+00,9.434e+00,9.573e+00,8.004e+00,9.996e+00,8.290e+00,1.005e+01,9.324e+00,9.407e+00,7.771e+00,1.108e+01,7.573e+00
2.468e-01,2.329e-01,4.048e-01,5.655e-01,9.624e-01,1.313e+00,1.177e+00,2.224e+00,1.296e+00,1.824e+00,1.772e+00,2.530e+00,3.234e+00,4.018e+00,4.385e+00,4.563e+00,4.426e+00,4.256e+00,4.243e+00,4.463e+00,4.235e+00,4.323e+00,5.480e+00,5.566e+00,6.033e+00,5.816e+00,6.143e+00,7.403e+00,6.722e+00,8.020e+00,6.372e+00,7.810e+00,8.188e+00,9.902e+00,9.851e+00,8.453e+00,9.061e+00,1.026e+01,8.451e+00,8.031e+00,7.003e+00,1.061e+01,1.033e+01,9.364e+00,9.608e+00,9.858e+00,1.033e+01,1.062e+01,9.158e+00,9.264e+00,1.063e+01,8.670e+00,1.151e+01,1.050e+01,9.163e+00,1.029e+01,8.783e+00,9.481e+00,1.031e+01,1.232e+01,1.013e+01,8.794e+00,8.826e+00,1.168e+01,8.578e+00
4.037e-01,3.075e-01,9.110e-01,8.821e-01,7.661e-01,1.294e+00,1.790e+00,2.250e+00,2.186e+00,1.910e+00,2.194e+00,3.111e+00,2.998e+00,3.753e+00,4.255e+00,4.498e+00,4.036e+00,5.110e+00,4.603e+00,4.810e+00,3.615e+00,3.873e+00,4.611e+00,5.453e+00,5.119e+00,4.641e+00,6.399e+00,5.735e+00,6.586e+00,6.474e+00,6.230e+00,7.047e+00,6.411e+00,9.465e+00,8.704e+00,7.069e+00,8.371e+00,9.700e+00,7.763e+00,6.898e+00,9.024e+00,9.857e+00,1.174e+01,8.049e+00,1.036e+01,8.705e+00,1.074e+01,9.429e+00,9.828e+00,8.787e+00,1.046e+01,8.568e+00,1.251e+01,1.053e+01,9.081e+00,9.982e+00,9.193e+00,1.025e+01,7.908e+00,1.066e+01,9.583e+00,8.621e+00,8.342e+00,1.048e+01,7.750e+00
7.161e-01,5.622e-01,7.474e-01,8.378e-01,1.068e+00,2.203e+00,1.896e+00,2.660e+00,2.169e+00,2.737e+00,2.670e+00,3.996e+00,3.507e+00,5.277e+00,5.650e+00,4.586e+00,5.254e+00,4.678e+00,5.157e+00,5.278e+00,5.167e+00,5.313e+00,6.239e+00,6.170e+00,5.163e+00,6.060e+00,6.774e+00,6.277e+00,7.661e+00,8.034e+00,6.333e+00,8.116e+00,7.237e+00,8.955e+00,9.209e+00,7.500e+00,8.839e+00,9.701e+00,8.050e+00,7.202e+00,8.366e+00,1.126e+01,1.167e+01,9.433e+00,1.050e+01,9.349e+00,1.092e+01,1.089e+01,9.568e+00,1.026e+01,1.112e+01,9.107e+00,1.210e+01,1.031e+01,1.025e+01,9.527e+00,9.463e+00,1.051e+01,9.164e+00,1.121e+01,1.011e+01,9.538e+00,9.767e+00,1.184e+01,8.556e+00
5.362e-01,4.557e-01,8.761e-01,1.024e+00,1.178e+00,1.764e+00,2.458e+00,3.382e+00,2.428e+00,2.692e+00,2.727e+00,4.390e+00,3.599e+00,5.312e+00,5.777e+00,4.574e+00,4.680e+00,4.877e+00,5.493e+00,5.334e+00,5.335e+00,6.682e+00,7.345e+00,7.814e+00,7.015e+00,7.184e+00,7.572e+00,8.610e+00,8.842e+00,1.086e+01,7.451e+00,9.536e+00,9.537e+00,1.161e+01,1.138e+01,1.006e+01,9.314e+00,1.144e+01,9.881e+00,9.287e+00,1.019e+01,1.304e+01,1.315e+01,1.116e+01,1.292e+01,1.228e+01,1.231e+01,1.398e+01,1.216e+01,1.069e+01,1.246e+01,1.015e+01,1.388e+01,1.168e+01,1.109e+01,1.235e+01,1.130e+01,1.208e+01,1.227e+01,1.395e+01,1.394e+01,1.022e+01,1.120e+01,1.424e+01,1.124e+01
4.467e-01,3.218e-01,9.514e-01,9.306e-01,7.054e-01,1.527e+00,1.950e+00,2.080e+00,1.737e+00,2.485e+00,2.210e+00,3.270e+00,3.145e+00,3.644e+00,3.779e+00,4.550e+00,4.497e+00,4.271e+00,5.235e+00,5.518e+00,4.672e+00,4.895e+00,6.267e+00,6.722e+00,5.678e+00,4.771e+00,5.863e+00,6.478e+00,7.030e+00,8.240e+00,6.719e+00,7.987e+00,7.546e+00,9.643e+00,9.731e+00,8.685e+00,8.290e+00,9.712e+00,9.045e+00,8.898e+00,9.299e+00,9.124e+00,1.259e+01,9.071e+00,1.268e+01,9.911e+00,1.099e+01,1.121e+01,1.020e+01,9.421e+00,1.217e+01,1.004e+01,1.312e+01,1.086e+01,9.520e+00,9.993e+00,1.084e+01,1.138e+01,1.070e+01,1.227e+01,1.134e+01,8.943e+00,1.093e+01,1.285e+01,1.004e+01
2.670e-01,2.406e-01,4.849e-01,5.021e-01,5.767e-01,1.492e+00,1.571e+00,1.647e+00,1.564e+00,2.451e+00,2.097e+00,2.839e+00,3.596e+00,3.989e+00,4.620e+00,3.669e+00,4.376e+00,4.537e+00,5.349e+00,5.561e+00,4.589e+00,6.409e+00,6.939e+00,8.147e+00,7.316e+00,6.497e+00,7.096e+00,8.011e+00,7.856e+00,8.983e+00,7.186e+00,8.992e+00,7.588e+00,1.052e+01,1.082e+01,8.414e+00,9.498e+00,1.214e+01,1.029e+01,1.047e+01,9.366e+00,1.143e+01,1.351e+01,1.046e+01,1.403e+01,1.184e+01,1.221e+01,1.293e+01,1.155e+01,1.042e+01,1.452e+01,1.130e+01,1.508e+01,1.275e+01,1.173e+01,1.212e+01,1.179e+01,1.127e+01,1.252e+01,1.405e+01,1.370e+01,1.159e+01,1.163e+01,1.395e+01,1.101e+01
8.076e-01,6.116e-01,9.244e-01,9.843e-01,9.210e-01,1.470e+00,1.791e+00,2.183e+00,2.595e+00,2.242e+00,2.356e+00,3.003e+00,3.514e+00,4.738e+00,5.156e+00,4.149e+00,4.788e+00,4.678e+00,4.968e+00,5.229e+00,5.027e+00,5.789e+00,5.955e+00,7.122e+00,5.919e+00,5.610e+00,6.380e+00,6.381e+00,7.835e+00,7.913e+00,7.233e+00,7.348e+00,8.054e+00,9.922e+00,9.334e+00,8.047e+00,8.830e+00,1.068e+01,8.287e+00,7.499e+00,8.130e+00,1.229e+01,1.216e+01,1.017e+01,1.094e+01,1.154e+01,1.112e+01,1.087e+01,1.096e+01,1.083e+01,1.111e+01,9.151e+00,1.259e+01,1.258e+01,9.740e+00,1.017e+01,1.073e+01,1.054e+01,1.120e+01,1.251e+01,1.118e+01,9.994e+00,1.082e+01,1.249e+01,9.250e+00
1.355e-03,2.824e-02,6.774e-01,6.831e-01,8.112e-01,1.985e+00,2.018e+00,2.565e+00,1.733e+00,2.052e+00,2.167e+00,3.579e+00,3.655e+00,3.688e+00,4.836e+00,4.357e+00,3.650e+00,3.906e+00,4.948e+00,4.140e+00,4.655e+00,4.832e+00,6.002e+00,6.638e+00,5.989e+00,4.855e+00,5.891e+00,6.926e+00,7.105e+00,8.310e+00,6.584e+00,7.650e+00,7.469e+00,9.568e+00,8.673e+00,8.487e+00,9.538e+00,9.937e+00,8.233e+00,8.276e+00,9.446e+00,1.043e+01,1.116e+01,9.690e+00,1.183e+01,1.000e+01,1.190e+01,1.065e+01,1.114e+01,1.143e+01,1.162e+01,1.011e+01,1.337e+01,1.235e+01,1.024e+01,1.075e+01,1.192e+01,1.220e+01,1.088e+01,1.363e+01,1.129e+01,9.836e+00,1.298e+01,1.263e+01,1.162e+01
8.433e-01,5.271e-01,8.257e-01,8.772e-01,6.847e-01,1.333e+00,1.278e+00,2.412e+00,1.635e+00,2.067e+00,1.875e+00,3.440e+00,2.674e+00,4.314e+00,4.390e+00,4.963e+00,4.998e+00,4.906e+00,5.253e+00,5.550e+00,4.879e+00,5.315e+00,6.930e+00,7.655e+00,6.164e+00,5.909e+00,6.406e+00,6.887e+00,7.414e+00,8.385e+00,7.078e+00,8.810e+00,8.444e+00,9.544e+00,1.004e+01,9.119e+00,9.975e+00,1.101e+01,1.053e+01,8.985e+00,9.323e+00,1.172e+01,1.253e+01,1.150e+01,1.398e+01,1.088e+01,1.312e+01,1.270e+01,1.145e+01,1.204e+01,1.524e+01,1.231e+01,1.629e+01,1.266e+01,1.332e+01,1.252e+01,1.265e+01,1.401e+01,1.268e+01,1.601e+01,1.299e+01,1.144e+01,1.419e+01,1.479e+01,1.078e+01
3.350e-01,3.285e-01,6.872e-01,7.963e-01,1.178e+00,2.398e+00,2.427e+00,3.314e+00,2.104e+00,3.140e+00,2.721e+00,4.319e+00,4.007e+00,5.284e+00,5.508e+00,4.052e+00,4.653e+00,3.713e+00,5.125e+00,4.949e+00,4.918e+00,5.492e+00,6.514e+00,6.121e+00,5.276e+00,6.629e+00,6.204e+00,7.573e+00,7.812e+00,8.646e+00,6.891e+00,8.634e+00,7.105e+00,9.277e+00,1.002e+01,8.715e+00,9.311e+00,9.416e+00,8.922e+00,8.257e+00,8.499e+00,1.144e+01,1.089e+01,9.886e+00,1.164e+01,9.385e+00,1.142e+01,1.246e+01,1.048e+01,1.102e+01,1.271e+01,1.086e+01,1.427e+01,1.186e+01,1.217e+01,1.083e+01,1.226e+01,1.192e+01,1.192e+01,1.393e+01,1.251e+01,9.090e+00,1.274e+01,1.325e+01,1.044e+01
4.318e-01,3.126e-01,4.705e-01,5.118e-01,7.089e-01,1.331e+00,9.941e-01,2.065e+00,1.232e+00,1.478e+00,1.552e+00,2.772e+00,2.465e+00,3.444e+00,4.046e+00,3.500e+00,3.292e+00,4.537e+00,4.106e+00,3.995e+00,3.740e+00,3.740e+00,4.564e+00,5.018e+00,3.887e+00,4.326e+00,5.302e+00,5.500e+00,5.232e+00,6.758e+00,5.136e+00,7.266e+00,6.357e+00,7.899e+00,7.340e+00,7.044e+00,8.193e+00,8.947e+00,7.833e+00,7.421e+00,8.254e+00,1.009e+01,1.091e+01,1.009e+01,1.139e+01,8.486e+00,1.190e+01,1.186e+01,9.744e+00,1.174e+01,1.372e+01,1.252e+01,1.412e+01,1.228e+01,1.260e+01,1.134e+01,1.134e+01,1.250e+01,1.027e+01,1.332e+01,1.207e+01,1.105e+01,1.127e+01,1.332e+01,1.017e+01
3.991e-01,3.203e-01,6.471e-01,7.779e-01,9.095e-01,1.424e+00,1.658e+00,2.440e+00,1.674e+00,1.819e+00,1.803e+00,3.029e+00,2.858e+00,4.022e+00,5.051e+00,5.047e+00,4.237e+00,4.414e+00,4.580e+00,3.980e+00,4.512e+00,5.543e+00,5.183e+00,6.626e+00,5.426e+00,5.047e+00,6.740e+00,6.706e+00,7.015e+00,8.233e+00,6.181e+00,7.509e+00,6.961e+00,8.553e+00,8.745e+00,8.019e+00,9.055e+00,1.019e+01,8.385e+00,8.384e+00,7.948e+00,1.118e+01,1.137e+01,1.003e+01,1.077e+01,1.068e+01,1.153e+01,1.141e+01,1.080e+01,1.062e+01,1.263e+01,1.098e+01,1.274e+01,1.282e+01,1.151e+01,1.076e+01,1.152e+01,1.145e+01,1.216e+01,1.309e+01,1.271e+01,1.023e+01,1.196e+01,1.258e+01,1.089e+01
8.595e-01,5.536e-01,7.763e-01,7.376e-01,5.996e-01,1.705e+00,1.267e+00,2.098e+00,1.442e+00,2.148e+00,1.587e+00,3.095e+00,2.923e+00,3.784e+00,4.041e+00,3.620e+00,4.358e+00,3.990e+00,5.261e+00,5.140e+00,5.053e+00,4.573e+00,5.886e+00,6.018e+00,5.441e+00,4.469e+00,6.205e+00,5.560e+00,7.955e+00,7.939e+00,6.582e+00,7.699e+00,7.800e+00,9.720e+00,9.616e+00,8.003e+00,8.882e+00,1.042e+01,9.307e+00,8.470e+00,9.486e+00,1.110e+01,1.242e+01,9.453e+00,1.121e+01,1.046e+01,1.133e+01,1.139e+01,1.068e+01,1.195e+01,1.338e+01,1.120e+01,1.425e+01,1.318e+01,1.271e+01,1.197e+01,1.223e+01,1.207e+01,1.185e+01,1.453e+01,1.315e+01,1.161e+01,1.306e+01,1.306e+01,1.226e+01
8.534e-01,5.408e-01,1.220e+00,1.165e+00,6.783e-01,9.779e-01,1.803e+00,2.551e+00,2.130e+00,2.013e+00,1.746e+00,3.143e+00,2.810e+00,3.868e+00,4.056e+00,4.254e+00,3.848e+00,5.018e+00,4.848e+00,4.701e+00,4.820e+00,4.383e+00,5.333e+00,6.135e+00,5.400e+00,5.058e+00,6.327e+00,7.077e+00,7.420e+00,7.795e+00,7.221e+00,7.189e+00,7.873e+00,9.429e+00,8.957e+00,7.309e+00,8.067e+00,1.043e+01,7.742e+00,7.226e+00,8.807e+00,1.152e+01,1.207e+01,1.018e+01,1.259e+01,1.107e+01,1.157e+01,1.118e+01,1.101e+01,1.175e+01,1.250e+01,1.098e+01,1.485e+01,1.376e+01,1.196e+01,1.238e+01,1.231e+01,1.265e+01,1.230e+01,1.543e+01,1.333e+01,1.089e+01,1.427e+01,1.332e+01,1.161e+01
2.981e-01,2.056e-01,5.975e-01,5.744e-01,5.868e-01,1.259e+00,1.398e+00,2.139e+00,1.554e+00,1.732e+00,1.805e+00,2.900e+00,2.854e+00,3.279e+00,3.346e+00,2.514e+00,3.220e+00,3.409e+00,3.985e+00,3.436e+00,3.088e+00,3.882e+00,4.482e+00,4.817e+00,5.473e+00,3.879e+00,4.809e+00,5.112e+00,6.352e+00,6.913e+00,6.457e+00,6.128e+00,7.162e+00,8.180e+00,7.929e+00,6.184e+00,7.982e+00,7.959e+00,6.568e+00,6.508e+00,8.479e+00,9.631e+00,1.089e+01,7.846e+00,9.885e+00,7.887e+00,9.829e+00,9.310e+00,8.860e+00,9.953e+00,1.087e+01,9.845e+00,1.254e+01,1.148e+01,1.103e+01,9.668e+00,1.127e+01,1.278e+01,1.090e+01,1.228e+01,1.097e+01,8.980e+00,1.177e+01,1.192e+01,1.051e+01
1.380e-01,1.529e-01,6.211e-01,6.075e-01,6.386e-01,1.329e+00,1.467e+00,1.645e+00,2.264e+00,1.974e+00,2.490e+00,2.869e+00,4.212e+00,3.882e+00,4.683e+00,3.818e+00,4.668e+00,4.738e+00,5.510e+00,5.170e+00,4.572e+00,5.401e+00,6.732e+00,7.234e+00,7.340e+00,6.370e+00,6.490e+00,6.915e+00,7.803e+00,8.345e+00,6.819e+00,8.288e+00,8.243e+00,1.055e+01,9.394e+00,8.813e+00,8.890e+00,1.009e+01,9.065e+00,9.945e+00,9.527e+00,1.063e+01,1.214e+01,9.334e+00,1.245e+01,1.072e+01,1.237e+01,1.116e+01,1.123e+01,1.193e+01,1.451e+01,1.255e+01,1.594e+01,1.484e+01,1.371e+01,1.396e+01,1.545e+01,1.378e+01,1.396e+01,1.693e+01,1.510e+01,1.237e+01,1.588e+01,1.504e+01,1.292e+01
7.570e-01,4.890e-01,7.369e-01,7.643e-01,7.136e-01,1.725e+00,1.845e+00,3.072e+00,1.628e+00,2.374e+00,1.930e+00,4.094e+00,3.360e+00,4.681e+00,5.322e+00,3.721e+00,4.642e+00,4.740e+00,5.994e+00,5.036e+00,5.204e+00,6.152e+00,6.879e+00,7.416e+00,6.475e+00,6.055e+00,7.037e+00,7.937e+00,7.866e+00,9.069e+00,7.194e+00,9.432e+00,7.948e+00,1.008e+01,1.043e+01,8.128e+00,1.016e+01,1.212e+01,1.037e+01,1.009e+01,1.042e+01,1.308e+01,1.432e+01,1.198e+01,1.438e+01,1.197e+01,1.314e+01,1.354e+01,1.173e+01,1.282e+01,1.678e+01,1.307e+01,1.675e+01,1.657e+01,1.474e+01,1.398e+01,1.562e+01,1.508e+01,1.646e+01,1.784e+01,1.691e+01,1.475e+01,1.620e+01,1.659e+01,1.536e+01
6.301e-01,4.552e-01,1.112e+00,1.133e+00,9.361e-01,1.499e+00,2.301e+00,2.902e+00,2.139e+00,2.266e+00,2.181e+00,3.552e+00,2.621e+00,3.891e+00,3.936e+00,3.689e+00,3.958e+00,3.525e+00,4.200e+00,4.629e+00,4.154e+00,4.595e+00,5.858e+00,5.986e+00,5.181e+00,5.885e+00,6.818e+00,7.758e+00,7.723e+00,8.434e+00,6.927e+00,9.107e+00,8.981e+00,1.084e+01,1.135e+01,8.987e+00,9.628e+00,1.154e+01,8.972e+00,8.970e+00,9.576e+00,1.166e+01,1.246e+01,1.016e+01,1.298e+01,1.160e+01,1.134e+01,1.359e+01,1.130e+01,9.854e+00,1.391e+01,1.150e+01,1.530e+01,1.402e+01,1.304e+01,1.413e+01,1.392e+01,1.390e+01,1.429e+01,1.719e+01,1.618e+01,1.241e+01,1.351e+01,1.629e+01,1.347e+01
7.028e-01,5.052e-01,8.046e-01,8.899e-01,8.814e-01,1.088e+00,1.129e+00,2.224e+00,1.893e+00,1.554e+00,1.915e+00,2.939e+00,2.938e+00,3.842e+00,4.277e+00,4.128e+00,4.419e+00,4.250e+00,4.439e+00,4.179e+00,4.338e+00,4.042e+00,5.523e+00,5.776e+00,5.892e+00,5.598e+00,5.762e+00,5.583e+00,7.114e+00,7.954e+00,6.626e+00,7.680e+00,7.782e+00,9.568e+00,9.211e+00,8.859e+00,8.115e+00,9.257e+00,8.622e+00,8.018e+00,8.365e+00,1.000e+01,1.109e+01,9.702e+00,1.118e+01,1.030e+01,1.104e+01,1.117e+01,1.066e+01,1.188e+01,1.239e+01,1.066e+01,1.371e+01,1.449e+01,1.163e+01,1.352e+01,1.407e+01,1.318e+01,1.558e+01,1.703e+01,1.567e+01,1.325e+01,1.510e+01,1.604e+01,1.230e+01
5.194e-03,2.678e-02,6.055e-01,5.383e-01,5.419e-01,1.535e+00,1.716e+00,2.066e+00,2.063e+00,2.448e+00,2.344e+00,3.376e+00,3.888e+00,4.329e+00,4.945e+00,4.922e+00,4.213e+00,5.326e+00,4.911e+00,4.584e+00,4.170e+00,5.078e+00,5.533e+00,6.618e+00,6.428e+00,5.446e+00,6.282e+00,7.108e+00,7.353e+00,8.259e+00,6.886e+00,6.950e+00,7.602e+00,8.390e+00,9.110e+00,7.275e+00,8.926e+00,8.771e+00,7.813e+00,7.328e+00,8.768e+00,1.103e+01,1.203e+01,8.747e+00,1.213e+01,9.694e+00,1.078e+01,1.024e+01,1.106e+01,1.121e+01,1.235e+01,1.142e+01,1.380e+01,1.341e+01,1.215e+01,1.190e+01,1.329e+01,1.246e+01,1.343e+01,1.693e+01,1.531e+01,1.229e+01,1.438e+01,1.635e+01,1.276e+01
1.991e-01,2.216e-01,3.597e-01,4.879e-01,7.229e-01,1.370e+00,1.810e+00,1.914e+00,2.096e+00,2.567e+00,2.588e+00,3.117e+00,3.765e+00,4.914e+00,4.685e+00,4.336e+00,4.729e+00,4.391e+00,4.859e+00,4.774e+00,4.747e+00,5.696e+00,5.550e+00,6.114e+00,6.344e+00,6.110e+00,5.596e+00,6.788e+00,7.131e+00,7.530e+00,6.270e+00,7.069e+00,6.565e+00,8.118e+00,8.419e+00,7.743e+00,8.135e+00,9.585e+00,8.004e+00,7.428e+00,7.804e+00,9.734e+00,1.026e+01,8.248e+00,1.000e+01,8.456e+00,9.987e+00,1.083e+01,9.087e+00,1.087e+01,1.180e+01,1.052e+01,1.212e+01,1.301e+01,1.068e+01,1.068e+01,1.276e+01,1.137e+01,1.331e+01,1.486e+01,1.452e+01,1.117e+01,1.400e+01,1.526e+01,1.119e+01
3.447e-01,2.798e-01,9.729e-01,9.195e-01,8.390e-01,1.427e+00,1.616e+00,2.048e+00,2.482e+00,2.106e+00,2.231e+00,2.520e+00,3.569e+00,3.815e+00,4.148e+00,4.364e+00,4.369e+00,4.697e+00,4.324e+00,4.280e+00,3.657e+00,4.344e+00,4.462e+00,6.025e+00,5.772e+00,5.262e+00,6.689e+00,5.915e+00,7.519e+00,7.146e+00,7.531e+00,6.999e+00,8.662e+00,9.597e+00,9.694e+00,7.873e+00,9.081e+00,9.818e+00,8.416e+00,8.547e+00,8.636e+00,1.159e+01,1.239e+01,9.457e+00,1.255e+01,1.198e+01,1.218e+01,1.131e+01,1.169e+01,1.238e+01,1.351e+01,1.079e+01,1.537e+01,1.378e+01,1.337e+01,1.300e+01,1.390e+01,1.393e+01,1.429e+01,1.705e+01,1.513e+01,1.396e+01,1.546e+01,1.677e+01,1.503e+01
5.595e-02,4.519e-02,1.029e-01,2.210e-01,6.526e-01,1.864e+00,1.034e+00,1.924e+00,1.084e+00,1.381e+00,1.977e+00,3.190e+00,3.165e+00,3.683e+00,4.770e+00,3.687e+00,4.357e+00,3.779e+00,4.760e+00,3.578e+00,5.064e+00,4.512e+00,6.481e+00,6.541e+00,5.510e+00,5.949e+00,6.472e+00,6.435e+00,6.765e+00,8.342e+00,5.964e+00,8.915e+00,7.544e+00,9.566e+00,9.606e+00,8.025e+00,9.401e+00,1.000e+01,9.292e+00,9.072e+00,8.188e+00,1.052e+01,1.139e+01,1.012e+01,1.194e+01,1.079e+01,1.192e+01,1.365e+01,1.182e+01,1.188e+01,1.535e+01,1.391e+01,1.551e+01,1.469e+01,1.365e+01,1.398e+01,1.414e+01,1.401e+01,1.466e+01,1.691e+01,1.660e+01,1.521e+01,1.543e+01,1.732e+01,1.490e+01
1.573e-01,1.696e-01,5.897e-01,6.305e-01,7.503e-01,1.136e+00,1.561e+00,2.112e+00,2.238e+00,2.015e+00,2.226e+00,2.844e+00,3.392e+00,4.291e+00,4.581e+00,4.314e+00,4.330e+00,5.181e+00,4.738e+00,4.757e+00,4.687e+00,5.516e+00,5.815e+00,6.629e+00,6.671e+00,6.483e+00,6.886e+00,6.714e+00,8.229e+00,8.171e+00,8.359e+00,8.377e+00,8.817e+00,1.036e+01,9.707e+00,8.493e+00,8.218e+00,1.040e+01,8.847e+00,8.462e+00,9.282e+00,1.246e+01,1.254e+01,1.047e+01,1.331e+01,1.181e+01,1.194e+01,1.279e+01,1.154e+01,1.336e+01,1.414e+01,1.218e+01,1.625e+01,1.495e+01,1.439e+01,1.486e+01,1.615e+01,1.478e+01,1.483e+01,1.817e+01,1.629e+01,1.490e+01,1.731e+01,1.860e+01,1.593e+01
9.895e-01,6.435e-01,1.169e+00,1.147e+00,9.032e-01,1.924e+00,2.240e+00,3.370e+00,1.855e+00,2.352e+00,1.934e+00,4.140e+00,2.876e+00,4.036e+00,4.220e+00,3.260e+00,4.208e+00,3.445e+00,5.229e+00,5.317e+00,4.514e+00,4.360e+00,6.382e+00,6.153e+00,5.197e+00,4.206e+00,5.604e+00,6.213e+00,7.090e+00,7.592e+00,5.969e+00,7.560e+00,7.744e+00,9.467e+00,9.424e+00,7.343e+00,9.061e+00,9.531e+00,8.391e+00,7.403e+00,8.897e+00,1.049e+01,1.198e+01,9.270e+00,1.201e+01,1.026e+01,1.026e+01,1.143e+01,9.949e+00,1.129e+01,1.358e+01,1.113e+01,1.533e+01,1.390e+01,1.236e+01,1.153e+01,1.424e+01,1.320e+01,1.325e+01,1.684e+01,1.495e+01,1.244e+01,1.624e+01,1.615e+01,1.598e+01
8.161e-01,5.527e-01,7.146e-01,8.312e-01,9.540e-01,2.009e+00,1.579e+00,2.786e+00,1.921e+00,1.919e+00,2.276e+00,3.813e+00,2.907e+00,4.522e+00,4.866e+00,3.179e+00,4.443e+00,3.538e+00,4.475e+00,3.888e+00,3.944e+00,4.110e+00,5.609e+00,5.299e+00,4.264e+00,4.900e+00,5.841e+00,6.073e+00,6.156e+00,6.851e+00,4.355e+00,6.983e+00,6.022e+00,8.575e+00,8.576e+00,6.881e+00,7.898e+00,9.374e+00,8.343e+00,6.643e+00,7.898e+00,9.977e+00,1.097e+01,9.354e+00,1.012e+01,8.609e+00,1.137e+01,1.069e+01,9.797e+00,1.024e+01,1.188e+01,1.067e+01,1.343e+01,1.305e+01,1.233e+01,1.185e+01,1.195e+01,1.179e+01,1.156e+01,1.285e+01,1.265e+01,1.283e+01,1.317e+01,1.378e+01,1.305e+01
