7.061e-01,1.819e-02,1.295e-02,9.588e-01,7.028e-01,7.596e-01,6.849e-01,7.856e-01,2.775e-01,2.801e-01,5.112e-01,1.222e-01,7.785e-01,7.055e-01,5.830e-01,7.583e-01,6.525e-01,7.784e-01,4.852e-01,6.570e-01,5.651e-01,1.114e-01,7.001e-02,6.431e-02,4.338e-01,2.452e-01,2.676e-01,1.151e-02,3.389e-01,5.903e-01,9.359e-01,6.960e-01,8.568e-01,2.664e-01,6.563e-01,1.163e-01,4.623e-03,3.265e-01,8.565e-01,7.282e-01,9.419e-01,8.950e-01,6.192e-01,1.378e-01,9.259e-02,6.605e-01,5.598e-01,9.636e-02,5.389e-01,7.983e-01,7.585e-01,8.066e-01,2.522e-01,1.810e-01,9.292e-01
5.927e-01,4.015e-01,7.930e-01,1.043e+00,1.286e+00,1.357e+00,1.100e+00,1.569e+00,6.668e-01,2.777e-01,9.225e-01,1.088e-01,1.502e+00,6.777e-01,1.461e+00,7.128e-01,1.469e+00,1.104e+00,8.354e-01,1.148e+00,7.202e-01,1.974e-01,7.181e-01,5.122e-01,1.202e+00,1.064e+00,7.253e-01,2.329e-01,9.359e-01,6.007e-01,9.014e-01,1.432e+00,1.039e+00,1.176e+00,1.209e+00,4.452e-01,1.369e-01,1.044e+00,1.446e+00,1.068e+00,1.217e+00,9.372e-01,1.022e+00,2.024e-01,1.178e-01,5.609e-01,8.207e-01,2.275e-01,1.175e+00,1.251e+00,1.412e+00,1.294e+00,3.808e-01,1.133e+00,1.511e+00
2.733e-01,6.793e-02,1.041e+00,9.440e-01,4.287e-01,1.278e+00,7.599e-01,5.414e-01,5.116e-01,3.284e-01,8.845e-01,8.364e-01,1.302e+00,6.378e-01,1.138e+00,3.418e-01,1.003e+00,8.430e-01,1.185e+00,9.572e-01,5.847e-01,3.390e-01,8.918e-01,5.142e-01,3.424e-01,3.436e-01,3.294e-01,6.091e-01,6.323e-01,5.910e-01,1.038e+00,1.139e+00,1.204e+00,5.237e-01,1.127e+00,6.989e-01,4.178e-01,1.055e+00,4.608e-01,8.168e-01,5.223e-01,6.823e-01,7.428e-01,9.466e-02,7.395e-01,2.741e-01,1.234e+00,3.676e-01,9.547e-01,1.088e+00,1.244e+00,1.138e+00,8.211e-01,4.532e-01,1.116e+00
5.320e-01,2.298e-01,1.156e+00,1.461e+00,1.551e+00,2.133e+00,1.550e+00,1.635e+00,1.137e+00,7.202e-01,1.801e+00,7.683e-01,1.775e+00,1.007e+00,1.882e+00,1.555e+00,1.853e+00,1.241e+00,1.886e+00,1.894e+00,1.214e+00,4.461e-01,1.695e+00,8.617e-01,1.690e+00,8.712e-01,1.397e+00,1.232e+00,1.682e+00,1.342e+00,1.763e+00,1.612e+00,1.795e+00,1.141e+00,2.310e+00,1.614e+00,8.958e-01,1.901e+00,1.342e+00,1.611e+00,1.067e+00,1.237e+00,1.530e+00,7.708e-01,1.467e+00,5.910e-01,2.206e+00,7.618e-01,1.682e+00,2.188e+00,2.329e+00,2.279e+00,1.491e+00,1.334e+00,2.158e+00
2.439e-01,2.444e-01,1.284e+00,1.100e+00,1.804e+00,1.940e+00,2.036e+00,1.677e+00,1.030e+00,8.593e-01,2.229e+00,1.334e+00,1.994e+00,1.172e+00,1.955e+00,2.073e+00,2.299e+00,1.023e+00,1.770e+00,1.728e+00,1.160e+00,8.133e-01,2.404e+00,1.517e+00,1.966e+00,9.142e-01,1.793e+00,1.862e+00,1.691e+00,1.538e+00,1.751e+00,1.462e+00,1.982e+00,1.287e+00,2.158e+00,2.341e+00,1.642e+00,2.109e+00,1.681e+00,1.680e+00,9.456e-01,1.528e+00,2.097e+00,8.370e-01,2.025e+00,1.125e+00,2.672e+00,1.058e+00,1.608e+00,2.752e+00,2.585e+00,2.116e+00,2.189e+00,1.630e+00,1.963e+00
3.916e-01,1.401e-01,5.017e-01,8.575e-01,1.330e+00,1.310e+00,1.785e+00,1.436e+00,8.972e-01,7.499e-01,1.611e+00,7.179e-01,2.030e+00,1.819e+00,1.515e+00,1.750e+00,1.856e+00,8.129e-01,1.366e+00,1.209e+00,1.270e+00,1.380e+00,1.492e+00,1.444e+00,2.135e+00,1.000e+00,1.698e+00,1.020e+00,1.928e+00,1.342e+00,2.033e+00,1.090e+00,1.470e+00,1.204e+00,1.920e+00,2.065e+00,1.455e+00,1.351e+00,2.085e+00,2.116e+00,1.167e+00,1.441e+00,2.342e+00,6.228e-01,1.232e+00,1.203e+00,1.626e+00,7.030e-01,1.751e+00,2.722e+00,2.257e+00,1.876e+00,1.485e+00,1.064e+00,2.089e+00
5.120e-01,4.617e-02,8.710e-01,1.264e+00,8.795e-01,1.635e+00,1.364e+00,1.791e+00,1.748e+00,9.015e-01,2.038e+00,1.643e+00,2.093e+00,2.316e+00,1.682e+00,1.403e+00,2.208e+00,1.068e+00,1.656e+00,1.764e+00,1.849e+00,1.223e+00,1.875e+00,1.008e+00,1.587e+00,8.379e-01,1.023e+00,8.962e-01,2.088e+00,2.045e+00,2.555e+00,1.654e+00,2.528e+00,1.575e+00,2.201e+00,1.446e+00,9.149e-01,1.450e+00,1.975e+00,1.958e+00,1.704e+00,2.084e+00,2.351e+00,9.276e-01,1.578e+00,9.355e-01,2.375e+00,8.658e-01,2.103e+00,2.224e+00,2.515e+00,1.963e+00,1.373e+00,1.420e+00,2.394e+00
4.825e-01,2.937e-01,1.330e+00,1.421e+00,2.008e+00,2.232e+00,2.271e+00,2.431e+00,1.628e+00,1.393e+00,2.844e+00,2.191e+00,3.153e+00,2.486e+00,2.939e+00,2.551e+00,3.400e+00,1.413e+00,2.169e+00,2.900e+00,1.739e+00,1.760e+00,3.554e+00,2.031e+00,3.304e+00,2.020e+00,2.730e+00,2.150e+00,2.713e+00,2.839e+00,2.638e+00,2.607e+00,2.948e+00,2.750e+00,3.035e+00,3.056e+00,1.844e+00,2.338e+00,2.564e+00,2.465e+00,2.478e+00,2.111e+00,3.444e+00,1.369e+00,2.472e+00,1.834e+00,3.924e+00,1.787e+00,2.758e+00,3.883e+00,3.109e+00,2.952e+00,3.026e+00,2.374e+00,3.066e+00
3.968e-01,2.756e-01,8.939e-01,9.273e-01,1.378e+00,1.419e+00,1.751e+00,2.086e+00,2.312e+00,1.825e+00,2.678e+00,2.098e+00,3.106e+00,2.943e+00,2.603e+00,2.178e+00,3.631e+00,1.289e+00,1.730e+00,2.448e+00,1.772e+00,2.741e+00,2.687e+00,2.214e+00,3.633e+00,2.663e+00,2.920e+00,2.008e+00,2.683e+00,2.671e+00,3.125e+00,3.089e+00,3.172e+00,2.651e+00,2.789e+00,2.796e+00,2.186e+00,2.475e+00,2.555e+00,3.072e+00,2.897e+00,2.463e+00,3.185e+00,1.758e+00,1.857e+00,1.910e+00,3.072e+00,1.711e+00,2.734e+00,4.003e+00,2.924e+00,2.664e+00,2.059e+00,2.593e+00,2.526e+00
1.348e-01,2.573e-01,8.206e-01,6.829e-01,1.356e+00,1.427e+00,1.584e+00,1.762e+00,1.340e+00,1.270e+00,2.572e+00,2.042e+00,2.671e+00,2.094e+00,2.538e+00,2.364e+00,3.063e+00,1.500e+00,1.882e+00,1.933e+00,2.007e+00,1.599e+00,2.728e+00,1.787e+00,3.062e+00,2.419e+00,2.856e+00,1.618e+00,2.710e+00,2.477e+00,2.424e+00,2.629e+00,2.465e+00,2.455e+00,2.829e+00,3.145e+00,1.690e+00,2.641e+00,2.942e+00,2.285e+00,2.193e+00,1.994e+00,2.853e+00,1.256e+00,2.422e+00,1.176e+00,2.675e+00,1.901e+00,2.758e+00,3.277e+00,2.491e+00,2.988e+00,2.255e+00,2.039e+00,2.378e+00
3.797e-01,2.944e-01,1.472e+00,1.390e+00,1.557e+00,2.323e+00,1.982e+00,2.174e+00,2.503e+00,1.612e+00,3.597e+00,2.386e+00,4.022e+00,2.936e+00,2.837e+00,2.967e+00,3.686e+00,2.007e+00,3.555e+00,2.587e+00,2.444e+00,2.609e+00,2.995e+00,2.372e+00,4.324e+00,2.494e+00,3.045e+00,2.564e+00,3.798e+00,3.262e+00,4.282e+00,3.458e+00,3.448e+00,2.750e+00,3.867e+00,3.771e+00,2.694e+00,4.066e+00,2.566e+00,3.988e+00,2.648e+00,2.750e+00,3.449e+00,1.710e+00,2.563e+00,1.932e+00,4.055e+00,2.176e+00,3.464e+00,4.648e+00,4.150e+00,3.543e+00,2.733e+00,3.240e+00,3.230e+00
5.901e-01,2.748e-01,1.427e+00,1.510e+00,1.456e+00,2.155e+00,2.111e+00,2.182e+00,2.334e+00,1.968e+00,3.649e+00,3.539e+00,5.167e+00,3.635e+00,3.985e+00,3.474e+00,4.452e+00,2.699e+00,3.738e+00,3.288e+00,2.908e+00,3.290e+00,3.848e+00,3.127e+00,4.041e+00,4.161e+00,3.956e+00,2.945e+00,3.623e+00,3.844e+00,4.872e+00,4.527e+00,4.488e+00,3.512e+00,4.513e+00,4.391e+00,3.103e+00,4.514e+00,3.928e+00,4.515e+00,4.024e+00,4.287e+00,4.379e+00,2.154e+00,3.039e+00,2.618e+00,4.409e+00,2.857e+00,3.988e+00,5.458e+00,4.483e+00,4.342e+00,3.393e+00,3.329e+00,3.887e+00
5.675e-01,1.849e-01,6.516e-01,1.208e+00,1.820e+00,1.736e+00,2.126e+00,2.355e+00,2.116e+00,1.819e+00,3.935e+00,2.985e+00,3.888e+00,4.062e+00,3.090e+00,4.783e+00,4.599e+00,3.102e+00,3.959e+00,2.884e+00,3.810e+00,2.458e+00,3.350e+00,3.317e+00,4.579e+00,2.976e+00,3.515e+00,2.532e+00,4.371e+00,4.282e+00,5.201e+00,4.149e+00,4.568e+00,3.078e+00,3.799e+00,5.039e+00,3.326e+00,4.466e+00,4.423e+00,4.650e+00,4.204e+00,4.204e+00,4.688e+00,2.860e+00,3.240e+00,2.597e+00,4.903e+00,3.395e+00,4.088e+00,4.989e+00,4.542e+00,4.628e+00,3.654e+00,3.249e+00,3.374e+00
9.328e-03,2.883e-01,8.713e-01,3.903e-01,1.130e+00,1.043e+00,1.559e+00,1.435e+00,1.467e+00,1.646e+00,3.052e+00,3.046e+00,4.236e+00,3.776e+00,4.042e+00,4.677e+00,5.093e+00,3.427e+00,4.310e+00,3.028e+00,3.303e+00,3.645e+00,3.975e+00,4.452e+00,5.018e+00,4.025e+00,4.295e+00,3.131e+00,4.253e+00,4.154e+00,5.259e+00,4.474e+00,3.821e+00,4.036e+00,4.323e+00,5.475e+00,3.915e+00,4.614e+00,4.370e+00,4.637e+00,4.606e+00,4.136e+00,5.044e+00,3.523e+00,3.326e+00,2.640e+00,4.918e+00,3.922e+00,4.361e+00,5.019e+00,3.805e+00,4.506e+00,3.944e+00,3.906e+00,3.184e+00
3.466e-01,3.290e-01,1.558e+00,1.385e+00,1.709e+00,2.420e+00,2.224e+00,2.591e+00,3.088e+00,2.179e+00,4.246e+00,3.532e+00,5.424e+00,4.836e+00,4.931e+00,6.114e+00,6.688e+00,4.240e+00,6.548e+00,4.839e+00,4.286e+00,5.312e+00,5.484e+00,5.655e+00,6.864e+00,4.921e+00,4.900e+00,4.523e+00,5.866e+00,5.938e+00,7.200e+00,5.552e+00,6.010e+00,5.170e+00,6.357e+00,6.160e+00,4.955e+00,6.410e+00,4.819e+00,6.145e+00,5.204e+00,5.680e+00,6.483e+00,5.231e+00,4.852e+00,3.196e+00,7.062e+00,4.085e+00,6.326e+00,7.130e+00,6.428e+00,5.777e+00,5.158e+00,5.129e+00,5.372e+00
2.367e-01,3.502e-01,1.605e+00,1.177e+00,1.349e+00,2.090e+00,1.626e+00,1.876e+00,1.690e+00,1.137e+00,2.667e+00,2.435e+00,3.762e+00,3.024e+00,4.063e+00,4.688e+00,5.959e+00,3.855e+00,5.589e+00,3.952e+00,3.263e+00,3.669e+00,4.703e+00,5.061e+00,4.832e+00,4.315e+00,4.018e+00,4.042e+00,4.405e+00,4.583e+00,5.198e+00,4.525e+00,5.122e+00,3.954e+00,4.732e+00,5.090e+00,4.241e+00,5.607e+00,3.871e+00,4.218e+00,3.939e+00,5.078e+00,4.872e+00,4.553e+00,4.346e+00,2.703e+00,5.969e+00,3.877e+00,5.614e+00,5.093e+00,5.291e+00,5.420e+00,4.073e+00,3.658e+00,4.417e+00
6.113e-01,2.449e-01,1.184e+00,1.433e+00,1.784e+00,1.971e+00,2.153e+00,2.309e+00,2.271e+00,2.220e+00,3.790e+00,3.617e+00,4.531e+00,4.110e+00,4.433e+00,5.575e+00,7.408e+00,4.619e+00,5.991e+00,5.124e+00,4.280e+00,4.827e+00,4.992e+00,5.218e+00,6.264e+00,4.868e+00,5.529e+00,4.459e+00,4.436e+00,5.920e+00,6.769e+00,6.433e+00,6.929e+00,4.844e+00,5.859e+00,6.135e+00,4.616e+00,6.532e+00,4.899e+00,5.774e+00,6.074e+00,5.725e+00,6.035e+00,4.880e+00,4.826e+00,4.128e+00,7.209e+00,4.274e+00,6.080e+00,7.230e+00,5.640e+00,5.770e+00,5.184e+00,4.135e+00,4.860e+00
2.341e-01,3.116e-01,1.533e+00,1.062e+00,1.173e+00,1.814e+00,1.600e+00,1.438e+00,1.377e+00,1.147e+00,2.705e+00,2.413e+00,3.532e+00,2.432e+00,3.431e+00,3.840e+00,5.523e+00,4.207e+00,5.911e+00,3.087e+00,3.781e+00,3.516e+00,4.142e+00,4.527e+00,5.193e+00,3.706e+00,4.724e+00,3.646e+00,4.271e+00,3.924e+00,5.747e+00,5.582e+00,5.230e+00,4.129e+00,5.101e+00,4.984e+00,4.500e+00,5.844e+00,4.456e+00,4.519e+00,4.475e+00,4.758e+00,4.195e+00,3.366e+00,3.749e+00,3.579e+00,5.341e+00,4.212e+00,5.665e+00,5.245e+00,5.315e+00,4.835e+00,3.868e+00,4.059e+00,4.071e+00
1.102e-01,1.425e-01,8.975e-01,6.429e-01,9.039e-01,1.209e+00,1.483e+00,1.456e+00,2.011e+00,1.861e+00,3.052e+00,3.059e+00,3.671e+00,3.444e+00,3.470e+00,4.425e+00,6.047e+00,3.783e+00,5.893e+00,4.533e+00,4.563e+00,5.522e+00,5.516e+00,4.917e+00,6.088e+00,4.900e+00,5.408e+00,3.973e+00,4.590e+00,5.155e+00,6.208e+00,6.405e+00,6.387e+00,4.986e+00,5.527e+00,6.406e+00,5.651e+00,6.314e+00,5.479e+00,4.942e+00,5.286e+00,5.586e+00,5.854e+00,4.826e+00,5.254e+00,4.023e+00,6.277e+00,4.905e+00,6.449e+00,6.338e+00,5.931e+00,5.434e+00,4.503e+00,4.892e+00,5.014e+00
6.559e-01,2.715e-01,6.206e-01,1.229e+00,1.669e+00,1.662e+00,1.720e+00,1.986e+00,1.205e+00,1.165e+00,2.259e+00,1.562e+00,2.967e+00,3.159e+00,3.546e+00,4.765e+00,6.211e+00,4.476e+00,6.117e+00,5.975e+00,5.323e+00,4.670e+00,5.387e+00,5.041e+00,6.619e+00,4.660e+00,5.564e+00,3.940e+00,5.506e+00,5.473e+00,6.221e+00,6.549e+00,6.507e+00,5.026e+00,5.842e+00,7.032e+00,5.078e+00,6.344e+00,6.591e+00,5.039e+00,6.626e+00,5.559e+00,6.601e+00,5.039e+00,5.097e+00,4.894e+00,6.397e+00,4.983e+00,6.843e+00,6.462e+00,6.233e+00,6.630e+00,4.317e+00,5.146e+00,5.999e+00
4.913e-01,6.802e-02,6.069e-01,1.033e+00,1.208e+00,1.341e+00,1.751e+00,1.837e+00,1.586e+00,1.444e+00,2.938e+00,2.924e+00,3.815e+00,3.724e+00,3.082e+00,4.815e+00,5.965e+00,4.001e+00,6.152e+00,4.482e+00,5.051e+00,5.086e+00,5.945e+00,5.996e+00,6.790e+00,4.417e+00,5.430e+00,4.936e+00,5.023e+00,5.876e+00,7.015e+00,6.040e+00,7.397e+00,5.577e+00,5.886e+00,6.285e+00,5.770e+00,6.313e+00,6.279e+00,5.480e+00,6.213e+00,5.518e+00,6.992e+00,4.270e+00,5.264e+00,5.394e+00,7.343e+00,4.977e+00,7.345e+00,7.727e+00,6.425e+00,5.574e+00,5.610e+00,4.563e+00,6.043e+00
6.707e-01,3.343e-01,8.668e-01,1.288e+00,2.003e+00,1.739e+00,2.060e+00,2.481e+00,2.065e+00,1.810e+00,3.176e+00,2.483e+00,3.578e+00,3.714e+00,3.944e+00,5.504e+00,6.139e+00,4.430e+00,5.657e+00,4.868e+00,4.969e+00,5.277e+00,5.983e+00,5.865e+00,7.740e+00,5.070e+00,5.935e+00,5.319e+00,6.265e+00,5.743e+00,7.072e+00,6.880e+00,7.202e+00,6.096e+00,5.750e+00,6.283e+00,5.651e+00,6.452e+00,7.450e+00,5.765e+00,7.494e+00,6.723e+00,7.184e+00,4.983e+00,5.396e+00,4.814e+00,7.392e+00,5.369e+00,6.933e+00,7.497e+00,7.326e+00,6.430e+00,5.107e+00,6.653e+00,6.069e+00
2.204e-01,2.043e-01,1.037e+00,8.208e-01,1.112e+00,1.364e+00,1.487e+00,1.695e+00,1.313e+00,9.781e-01,2.711e+00,2.578e+00,3.406e+00,3.301e+00,2.630e+00,3.601e+00,4.702e+00,3.114e+00,4.919e+00,3.974e+00,3.986e+00,3.585e+00,5.341e+00,5.147e+00,5.831e+00,3.912e+00,5.091e+00,4.707e+00,5.941e+00,5.033e+00,5.567e+00,5.745e+00,5.840e+00,5.217e+00,4.848e+00,6.520e+00,4.542e+00,5.654e+00,5.656e+00,5.814e+00,5.840e+00,5.300e+00,6.252e+00,3.217e+00,3.974e+00,4.879e+00,7.273e+00,4.723e+00,6.377e+00,6.163e+00,6.185e+00,5.496e+00,5.360e+00,4.485e+00,5.678e+00
4.245e-01,1.567e-01,7.222e-01,1.017e+00,1.629e+00,1.571e+00,2.227e+00,2.109e+00,1.968e+00,1.634e+00,3.624e+00,3.086e+00,4.490e+00,4.053e+00,3.716e+00,5.559e+00,5.792e+00,3.809e+00,5.867e+00,3.722e+00,4.871e+00,5.198e+00,6.263e+00,6.687e+00,7.556e+00,5.826e+00,6.736e+00,6.756e+00,7.524e+00,6.656e+00,7.844e+00,6.436e+00,7.208e+00,6.687e+00,7.470e+00,8.181e+00,6.627e+00,7.367e+00,8.159e+00,7.749e+00,7.419e+00,8.511e+00,7.992e+00,4.765e+00,6.139e+00,5.661e+00,8.706e+00,6.301e+00,7.779e+00,7.945e+00,7.720e+00,7.057e+00,6.479e+00,6.045e+00,7.212e+00
5.899e-01,2.613e-01,1.220e+00,1.505e+00,2.010e+00,2.257e+00,2.511e+00,2.314e+00,2.200e+00,1.985e+00,3.783e+00,2.741e+00,3.910e+00,3.370e+00,3.642e+00,4.655e+00,5.688e+00,3.717e+00,4.923e+00,4.379e+00,4.702e+00,4.321e+00,4.990e+00,4.849e+00,6.672e+00,5.134e+00,5.023e+00,5.514e+00,5.433e+00,5.357e+00,6.457e+00,6.583e+00,7.698e+00,5.549e+00,6.585e+00,6.740e+00,5.264e+00,7.123e+00,7.192e+00,6.206e+00,6.261e+00,6.675e+00,7.300e+00,4.586e+00,6.409e+00,4.699e+00,7.343e+00,4.471e+00,6.344e+00,7.873e+00,6.729e+00,6.733e+00,5.534e+00,4.794e+00,6.573e+00
3.300e-01,4.226e-02,4.505e-01,8.606e-01,1.434e+00,1.352e+00,1.880e+00,1.836e+00,1.793e+00,1.910e+00,3.444e+00,3.001e+00,3.362e+00,3.427e+00,3.380e+00,5.163e+00,6.444e+00,4.129e+00,6.025e+00,4.483e+00,5.128e+00,5.446e+00,5.867e+00,5.479e+00,8.291e+00,6.373e+00,7.462e+00,6.254e+00,7.691e+00,7.293e+00,7.643e+00,8.120e+00,8.119e+00,7.798e+00,8.169e+00,8.087e+00,6.637e+00,7.739e+00,8.386e+00,7.360e+00,8.502e+00,8.170e+00,8.636e+00,5.633e+00,7.877e+00,6.941e+00,8.745e+00,6.067e+00,7.799e+00,8.793e+00,6.936e+00,7.039e+00,7.145e+00,5.800e+00,7.531e+00
2.160e-01,1.693e-01,8.708e-01,7.786e-01,1.048e+00,1.365e+00,1.663e+00,2.111e+00,2.379e+00,1.732e+00,3.019e+00,2.810e+00,3.623e+00,4.393e+00,3.588e+00,4.552e+00,6.140e+00,3.513e+00,5.373e+00,4.654e+00,4.882e+00,5.965e+00,6.318e+00,6.115e+00,7.787e+00,6.203e+00,6.510e+00,6.153e+00,7.880e+00,7.097e+00,7.285e+00,7.745e+00,8.661e+00,7.798e+00,7.338e+00,7.896e+00,6.573e+00,7.369e+00,8.446e+00,7.234e+00,8.585e+00,8.551e+00,9.465e+00,5.836e+00,7.512e+00,6.213e+00,9.478e+00,6.238e+00,7.935e+00,8.297e+00,7.472e+00,7.969e+00,7.109e+00,7.210e+00,7.950e+00
3.100e-01,7.053e-02,1.043e+00,1.077e+00,1.148e+00,1.613e+00,1.648e+00,1.698e+00,1.840e+00,1.743e+00,3.532e+00,3.523e+00,3.882e+00,3.594e+00,3.566e+00,4.840e+00,5.798e+00,3.665e+00,4.968e+00,4.353e+00,4.346e+00,4.392e+00,5.824e+00,5.660e+00,6.794e+00,5.404e+00,5.608e+00,6.406e+00,7.583e+00,7.488e+00,7.212e+00,7.697e+00,7.922e+00,6.856e+00,7.875e+00,8.108e+00,5.592e+00,7.511e+00,7.725e+00,6.490e+00,8.147e+00,7.506e+00,7.904e+00,5.182e+00,7.334e+00,6.546e+00,9.287e+00,5.918e+00,6.987e+00,7.817e+00,6.937e+00,7.330e+00,7.085e+00,5.805e+00,6.749e+00
2.530e-01,2.127e-02,1.476e-01,5.945e-01,1.155e+00,9.247e-01,1.266e+00,1.659e+00,1.440e+00,9.944e-01,2.149e+00,1.770e+00,1.797e+00,2.170e+00,1.941e+00,3.317e+00,4.022e+00,2.179e+00,3.954e+00,3.608e+00,3.927e+00,3.555e+00,4.734e+00,3.910e+00,5.051e+00,3.876e+00,5.124e+00,5.194e+00,5.652e+00,6.716e+00,6.743e+00,5.964e+00,7.691e+00,6.068e+00,7.723e+00,7.189e+00,6.113e+00,7.273e+00,7.384e+00,6.509e+00,7.611e+00,7.666e+00,8.048e+00,4.808e+00,7.004e+00,5.666e+00,9.248e+00,5.426e+00,5.466e+00,6.501e+00,6.810e+00,7.073e+00,7.063e+00,5.748e+00,7.381e+00
8.800e-02,1.390e-01,9.781e-01,7.061e-01,1.242e+00,1.390e+00,1.827e+00,1.953e+00,1.803e+00,1.609e+00,3.308e+00,3.456e+00,3.631e+00,3.336e+00,3.271e+00,4.314e+00,5.548e+00,3.439e+00,5.318e+00,3.954e+00,4.725e+00,5.010e+00,6.584e+00,6.177e+00,7.308e+00,6.253e+00,6.718e+00,6.787e+00,7.750e+00,7.933e+00,8.379e+00,8.851e+00,9.314e+00,9.256e+00,9.331e+00,8.509e+00,7.372e+00,9.354e+00,9.128e+00,9.180e+00,9.662e+00,8.888e+00,9.774e+00,5.296e+00,8.274e+00,6.674e+00,1.033e+01,6.183e+00,8.295e+00,9.960e+00,8.922e+00,7.657e+00,8.967e+00,6.184e+00,9.051e+00
4.655e-01,2.756e-01,1.149e+00,1.233e+00,1.282e+00,1.859e+00,1.655e+00,2.072e+00,2.239e+00,1.576e+00,3.055e+00,2.691e+00,4.443e+00,3.590e+00,3.614e+00,4.054e+00,5.906e+00,3.517e+00,6.211e+00,5.979e+00,4.860e+00,5.922e+00,6.888e+00,5.876e+00,7.610e+00,7.125e+00,7.606e+00,6.558e+00,8.587e+00,7.858e+00,8.719e+00,1.099e+01,9.575e+00,9.128e+00,1.023e+01,1.038e+01,8.348e+00,1.057e+01,9.000e+00,9.840e+00,1.079e+01,9.962e+00,9.808e+00,6.775e+00,8.526e+00,8.959e+00,1.104e+01,7.267e+00,9.328e+00,9.909e+00,9.744e+00,9.831e+00,8.093e+00,8.848e+00,9.706e+00
5.333e-01,2.894e-01,1.417e+00,1.544e+00,1.715e+00,2.402e+00,2.256e+00,2.218e+00,2.303e+00,2.023e+00,3.991e+00,3.128e+00,4.865e+00,3.635e+00,4.185e+00,4.786e+00,6.286e+00,4.028e+00,5.702e+00,4.335e+00,4.666e+00,5.558e+00,5.988e+00,5.671e+00,8.179e+00,6.127e+00,7.003e+00,6.904e+00,7.237e+00,7.340e+00,8.581e+00,8.900e+00,9.742e+00,8.523e+00,9.273e+00,9.199e+00,8.019e+00,1.055e+01,8.831e+00,8.953e+00,9.125e+00,9.851e+00,1.005e+01,6.222e+00,8.422e+00,6.930e+00,1.093e+01,7.142e+00,8.815e+00,9.510e+00,9.098e+00,9.822e+00,8.580e+00,8.150e+00,9.492e+00
4.490e-01,1.099e-01,9.030e-01,1.146e+00,1.055e+00,1.577e+00,1.517e+00,1.851e+00,2.278e+00,1.810e+00,3.273e+00,3.244e+00,4.088e+00,3.805e+00,3.812e+00,4.840e+00,6.099e+00,4.025e+00,5.833e+00,4.407e+00,4.754e+00,5.580e+00,5.970e+00,6.110e+00,7.353e+00,6.471e+00,6.773e+00,6.812e+00,7.784e+00,7.821e+00,8.913e+00,9.221e+00,1.039e+01,9.245e+00,1.015e+01,8.843e+00,8.944e+00,1.073e+01,9.786e+00,1.008e+01,1.036e+01,1.098e+01,1.057e+01,7.907e+00,9.009e+00,7.929e+00,1.152e+01,7.882e+00,9.729e+00,1.004e+01,9.798e+00,9.650e+00,9.236e+00,8.478e+00,1.002e+01
3.573e-02,3.216e-01,1.286e+00,7.448e-01,1.481e+00,1.650e+00,1.736e+00,1.722e+00,2.034e+00,1.729e+00,3.509e+00,2.922e+00,3.776e+00,2.405e+00,3.373e+00,4.309e+00,6.099e+00,3.365e+00,5.381e+00,4.511e+00,3.988e+00,5.019e+00,5.767e+00,5.238e+00,7.043e+00,6.673e+00,7.473e+00,6.601e+00,7.315e+00,7.067e+00,7.327e+00,9.184e+00,8.751e+00,7.768e+00,8.963e+00,9.611e+00,8.786e+00,1.094e+01,8.088e+00,9.746e+00,9.159e+00,1.032e+01,9.661e+00,6.946e+00,8.435e+00,8.073e+00,1.049e+01,6.870e+00,9.098e+00,9.229e+00,9.602e+00,9.151e+00,7.964e+00,8.716e+00,8.525e+00
5.031e-01,3.543e-02,1.431e-01,8.547e-01,9.999e-01,1.012e+00,1.234e+00,1.767e+00,2.158e+00,1.524e+00,2.508e+00,1.905e+00,2.583e+00,3.320e+00,2.134e+00,3.485e+00,4.313e+00,2.491e+00,4.088e+00,3.635e+00,4.052e+00,4.407e+00,4.707e+00,4.605e+00,6.958e+00,5.543e+00,6.482e+00,5.929e+00,8.387e+00,6.812e+00,7.889e+00,9.076e+00,8.968e+00,8.641e+00,9.416e+00,8.938e+00,8.089e+00,9.174e+00,9.856e+00,9.524e+00,1.118e+01,1.132e+01,9.927e+00,7.846e+00,8.278e+00,9.695e+00,1.046e+01,7.698e+00,8.310e+00,9.234e+00,9.986e+00,8.681e+00,8.322e+00,9.024e+00,9.636e+00
4.494e-01,2.220e-01,9.113e-01,1.180e+00,1.648e+00,1.855e+00,2.011e+00,2.029e+00,1.896e+00,1.555e+00,2.723e+00,1.772e+00,2.976e+00,3.359e+00,3.176e+00,4.202e+00,5.766e+00,3.621e+00,5.268e+00,4.807e+00,4.811e+00,4.365e+00,5.083e+00,5.680e+00,6.883e+00,4.679e+00,5.785e+00,5.480e+00,6.451e+00,6.255e+00,7.292e+00,7.679e+00,9.078e+00,6.865e+00,9.096e+00,9.306e+00,8.287e+00,9.336e+00,9.194e+00,8.713e+00,9.460e+00,8.650e+00,1.016e+01,7.060e+00,7.958e+00,8.262e+00,1.026e+01,7.125e+00,8.567e+00,1.018e+01,9.094e+00,8.621e+00,8.278e+00,7.143e+00,9.467e+00
3.711e-01,1.059e-01,2.883e-01,6.587e-01,1.267e+00,8.900e-01,1.541e+00,1.463e+00,1.625e+00,1.602e+00,2.910e+00,2.328e+00,2.863e+00,2.865e+00,2.594e+00,4.540e+00,5.372e+00,3.407e+00,4.418e+00,3.483e+00,4.379e+00,4.356e+00,4.485e+00,5.097e+00,6.262e+00,4.527e+00,5.395e+00,5.611e+00,5.258e+00,6.228e+00,7.508e+00,6.862e+00,8.176e+00,6.211e+00,7.509e+00,8.012e+00,7.998e+00,9.243e+00,8.850e+00,8.255e+00,9.034e+00,9.011e+00,9.261e+00,6.879e+00,7.748e+00,7.872e+00,9.534e+00,7.130e+00,7.770e+00,9.116e+00,8.147e+00,8.014e+00,7.202e+00,7.350e+00,8.161e+00
1.733e-01,1.779e-01,1.122e+00,9.097e-01,1.386e+00,1.621e+00,1.707e+00,1.419e+00,1.642e+00,1.759e+00,3.301e+00,3.016e+00,3.540e+00,2.882e+00,3.306e+00,4.590e+00,5.360e+00,3.711e+00,5.924e+00,4.579e+00,4.718e+00,4.431e+00,6.109e+00,5.413e+00,6.795e+00,6.213e+00,6.613e+00,6.104e+00,7.235e+00,6.720e+00,6.944e+00,9.395e+00,1.005e+01,7.965e+00,9.062e+00,1.050e+01,1.051e+01,1.131e+01,1.093e+01,1.019e+01,1.126e+01,1.148e+01,1.126e+01,8.848e+00,1.059e+01,1.043e+01,1.305e+01,1.050e+01,1.082e+01,1.109e+01,1.141e+01,1.039e+01,1.014e+01,1.094e+01,1.039e+01
4.526e-01,3.267e-01,7.173e-01,9.234e-01,1.639e+00,1.412e+00,1.730e+00,2.485e+00,2.123e+00,1.467e+00,3.282e+00,2.505e+00,3.353e+00,3.610e+00,3.083e+00,4.925e+00,5.838e+00,4.135e+00,5.837e+00,4.716e+00,5.258e+00,5.062e+00,5.584e+00,5.159e+00,7.770e+00,5.292e+00,5.704e+00,5.142e+00,7.442e+00,6.869e+00,7.877e+00,8.773e+00,9.214e+00,8.161e+00,8.410e+00,8.759e+00,8.414e+00,9.671e+00,1.175e+01,1.022e+01,1.174e+01,1.097e+01,1.146e+01,8.991e+00,9.003e+00,9.232e+00,1.217e+01,9.246e+00,1.010e+01,1.060e+01,1.236e+01,8.853e+00,8.411e+00,1.079e+01,9.960e+00
3.600e-01,9.637e-02,7.407e-01,9.661e-01,1.127e+00,1.443e+00,1.633e+00,1.410e+00,1.438e+00,1.573e+00,3.033e+00,2.849e+00,4.160e+00,3.519e+00,3.322e+00,4.813e+00,5.123e+00,3.530e+00,5.531e+00,5.070e+00,4.542e+00,5.411e+00,6.167e+00,5.614e+00,7.062e+00,5.525e+00,5.651e+00,5.851e+00,6.804e+00,7.392e+00,7.340e+00,8.191e+00,9.240e+00,7.661e+00,8.972e+00,9.667e+00,8.681e+00,1.001e+01,1.032e+01,9.744e+00,1.034e+01,1.047e+01,1.151e+01,8.169e+00,9.233e+00,9.684e+00,1.234e+01,9.113e+00,1.061e+01,1.172e+01,1.125e+01,9.635e+00,1.040e+01,1.028e+01,1.080e+01
4.302e-01,1.715e-01,8.690e-01,1.117e+00,1.373e+00,1.645e+00,1.627e+00,1.787e+00,2.096e+00,1.754e+00,3.369e+00,2.619e+00,3.389e+00,3.467e+00,3.399e+00,5.053e+00,5.890e+00,4.381e+00,5.922e+00,4.566e+00,5.141e+00,4.438e+00,5.201e+00,5.663e+00,7.156e+00,5.149e+00,6.048e+00,5.648e+00,8.135e+00,7.662e+00,8.910e+00,9.925e+00,9.340e+00,8.168e+00,1.058e+01,1.044e+01,8.928e+00,1.111e+01,1.027e+01,1.071e+01,1.188e+01,1.141e+01,1.109e+01,9.676e+00,9.590e+00,9.986e+00,1.252e+01,9.574e+00,1.011e+01,1.027e+01,1.087e+01,1.004e+01,9.234e+00,1.048e+01,1.018e+01
6.799e-01,1.862e-01,6.700e-01,1.218e+00,1.258e+00,1.484e+00,1.777e+00,2.336e+00,2.416e+00,1.838e+00,3.553e+00,3.292e+00,4.648e+00,4.940e+00,3.919e+00,5.160e+00,6.454e+00,4.870e+00,7.014e+00,5.689e+00,6.366e+00,5.648e+00,6.073e+00,5.747e+00,7.987e+00,6.622e+00,6.873e+00,5.354e+00,8.592e+00,7.919e+00,1.004e+01,1.107e+01,1.063e+01,9.741e+00,1.110e+01,1.020e+01,9.838e+00,1.110e+01,1.228e+01,1.208e+01,1.334e+01,1.242e+01,1.350e+01,9.976e+00,1.052e+01,1.179e+01,1.285e+01,1.057e+01,1.152e+01,1.298e+01,1.253e+01,1.090e+01,1.067e+01,1.129e+01,1.238e+01
1.501e-01,1.692e-01,5.066e-01,4.185e-01,6.633e-01,7.871e-01,1.136e+00,1.494e+00,2.125e+00,1.755e+00,2.382e+00,2.369e+00,3.374e+00,3.933e+00,3.406e+00,4.388e+00,6.313e+00,3.613e+00,5.389e+00,4.670e+00,4.567e+00,6.306e+00,5.801e+00,6.487e+00,7.664e+00,6.521e+00,6.274e+00,6.140e+00,7.061e+00,7.306e+00,8.180e+00,8.771e+00,9.035e+00,8.313e+00,8.872e+00,8.768e+00,8.285e+00,9.552e+00,9.513e+00,1.022e+01,1.098e+01,1.110e+01,1.155e+01,9.901e+00,9.620e+00,8.670e+00,1.207e+01,9.832e+00,1.189e+01,1.188e+01,1.076e+01,9.912e+00,9.650e+00,1.094e+01,1.121e+01
3.100e-01,1.710e-01,8.573e-01,9.746e-01,1.131e+00,1.602e+00,1.523e+00,1.546e+00,1.640e+00,1.326e+00,2.398e+00,1.990e+00,3.560e+00,3.457e+00,3.556e+00,4.259e+00,4.839e+00,3.338e+00,5.486e+00,4.937e+00,4.391e+00,4.975e+00,5.616e+00,5.319e+00,5.969e+00,5.148e+00,5.338e+00,4.723e+00,6.706e+00,6.251e+00,7.374e+00,7.452e+00,7.465e+00,7.605e+00,8.661e+00,8.290e+00,8.060e+00,8.519e+00,9.110e+00,8.930e+00,9.101e+00,9.275e+00,1.115e+01,8.622e+00,9.000e+00,8.820e+00,1.101e+01,8.296e+00,1.018e+01,1.083e+01,1.084e+01,8.657e+00,9.432e+00,1.009e+01,1.099e+01
2.474e-01,2.674e-01,7.838e-01,6.775e-01,8.895e-01,1.178e+00,1.267e+00,1.593e+00,1.280e+00,1.065e+00,2.071e+00,2.001e+00,3.377e+00,3.040e+00,3.058e+00,3.537e+00,5.119e+00,3.355e+00,4.928e+00,3.662e+00,4.032e+00,4.973e+00,5.437e+00,5.845e+00,7.289e+00,5.706e+00,5.780e+00,5.819e+00,7.023e+00,6.761e+00,7.329e+00,8.653e+00,9.458e+00,8.903e+00,9.333e+00,8.710e+00,8.442e+00,9.926e+00,1.081e+01,1.022e+01,1.165e+01,1.084e+01,1.238e+01,9.255e+00,1.115e+01,1.087e+01,1.392e+01,1.212e+01,1.243e+01,1.348e+01,1.269e+01,1.118e+01,1.121e+01,1.241e+01,1.189e+01
6.883e-01,4.002e-01,1.214e+00,1.492e+00,2.115e+00,2.195e+00,2.566e+00,2.931e+00,2.535e+00,1.702e+00,3.382e+00,2.520e+00,4.447e+00,3.748e+00,3.896e+00,4.643e+00,5.951e+00,3.487e+00,5.232e+00,5.541e+00,4.646e+00,5.112e+00,5.751e+00,5.197e+00,6.664e+00,5.705e+00,5.957e+00,5.093e+00,7.109e+00,6.964e+00,7.424e+00,8.013e+00,8.756e+00,7.053e+00,9.254e+00,8.446e+00,7.799e+00,9.520e+00,9.524e+00,9.775e+00,9.780e+00,1.102e+01,1.180e+01,8.596e+00,9.557e+00,1.085e+01,1.230e+01,9.270e+00,1.178e+01,1.262e+01,1.213e+01,1.081e+01,1.027e+01,1.236e+01,1.262e+01
1.274e-01,9.268e-03,8.183e-01,6.990e-01,7.489e-01,1.150e+00,1.355e+00,1.011e+00,1.780e+00,1.719e+00,2.398e+00,2.627e+00,3.247e+00,3.162e+00,2.904e+00,3.334e+00,4.492e+00,2.397e+00,4.353e+00,4.863e+00,3.591e+00,4.770e+00,5.057e+00,4.828e+00,5.774e+00,5.078e+00,5.359e+00,5.817e+00,6.111e+00,6.467e+00,7.022e+00,7.311e+00,8.664e+00,6.946e+00,8.642e+00,9.235e+00,8.828e+00,9.662e+00,9.004e+00,1.022e+01,1.055e+01,1.078e+01,1.204e+01,9.378e+00,1.008e+01,1.014e+01,1.400e+01,1.050e+01,1.119e+01,1.320e+01,1.196e+01,1.022e+01,1.134e+01,1.086e+01,1.197e+01
2.980e-01,2.235e-01,8.456e-01,9.609e-01,1.786e+00,1.647e+00,1.829e+00,2.137e+00,2.372e+00,1.939e+00,3.417e+00,2.777e+00,3.188e+00,2.789e+00,3.392e+00,4.659e+00,5.814e+00,3.031e+00,4.690e+00,4.362e+00,3.991e+00,4.128e+00,5.736e+00,5.382e+00,6.570e+00,6.077e+00,6.849e+00,7.070e+00,6.285e+00,6.020e+00,7.237e+00,8.055e+00,8.429e+00,6.912e+00,8.527e+00,8.886e+00,7.993e+00,9.747e+00,8.701e+00,9.697e+00,9.929e+00,1.171e+01,1.020e+01,9.362e+00,1.067e+01,1.113e+01,1.347e+01,1.152e+01,1.215e+01,1.285e+01,1.191e+01,1.129e+01,1.075e+01,1.290e+01,1.220e+01
1.671e-01,3.684e-01,1.026e+00,7.994e-01,1.815e+00,1.674e+00,1.862e+00,2.357e+00,2.189e+00,1.663e+00,3.017e+00,2.086e+00,2.968e+00,3.336e+00,3.488e+00,4.320e+00,6.101e+00,3.265e+00,5.115e+00,5.380e+00,4.458e+00,4.802e+00,5.709e+00,4.928e+00,7.309e+00,4.752e+00,6.005e+00,5.200e+00,6.860e+00,6.530e+00,7.630e+00,8.144e+00,7.978e+00,7.363e+00,8.147e+00,9.113e+00,8.433e+00,9.470e+00,9.141e+00,9.743e+00,1.079e+01,9.853e+00,1.077e+01,8.737e+00,8.906e+00,9.550e+00,1.299e+01,9.705e+00,1.171e+01,1.214e+01,1.212e+01,1.060e+01,9.724e+00,1.262e+01,1.099e+01
4.690e-02,1.852e-03,4.896e-01,4.500e-01,4.930e-01,7.909e-01,6.649e-01,8.132e-01,1.437e+00,1.332e+00,2.460e+00,2.410e+00,2.210e+00,1.958e+00,1.943e+00,3.099e+00,4.016e+00,2.607e+00,4.069e+00,3.663e+00,3.995e+00,4.046e+00,4.860e+00,4.246e+00,6.143e+00,4.830e+00,5.372e+00,5.900e+00,5.923e+00,6.425e+00,6.447e+00,7.473e+00,8.595e+00,6.397e+00,8.051e+00,8.145e+00,7.606e+00,1.020e+01,8.890e+00,9.296e+00,9.592e+00,9.593e+00,9.494e+00,7.460e+00,9.650e+00,9.065e+00,1.253e+01,1.061e+01,1.104e+01,1.213e+01,1.172e+01,1.121e+01,1.057e+01,1.237e+01,1.152e+01
1.008e-01,3.478e-01,1.105e+00,7.199e-01,1.688e+00,1.550e+00,1.753e+00,2.097e+00,2.076e+00,1.621e+00,3.484e+00,2.722e+00,3.393e+00,3.340e+00,3.664e+00,5.562e+00,7.102e+00,4.509e+00,6.739e+00,5.591e+00,5.887e+00,5.820e+00,7.201e+00,7.041e+00,9.149e+00,6.487e+00,7.360e+00,7.917e+00,8.248e+00,7.879e+00,9.470e+00,1.003e+01,1.108e+01,9.464e+00,9.656e+00,1.088e+01,1.102e+01,1.244e+01,1.201e+01,1.143e+01,1.245e+01,1.289e+01,1.463e+01,1.213e+01,1.326e+01,1.223e+01,1.663e+01,1.380e+01,1.415e+01,1.451e+01,1.492e+01,1.449e+01,1.313e+01,1.573e+01,1.407e+01
3.798e-01,2.415e-01,5.433e-01,7.756e-01,1.121e+00,1.184e+00,1.299e+00,1.479e+00,1.645e+00,1.532e+00,2.481e+00,2.047e+00,3.564e+00,2.991e+00,3.338e+00,3.877e+00,4.741e+00,3.157e+00,4.332e+00,3.324e+00,3.312e+00,4.320e+00,4.380e+00,4.790e+00,6.386e+00,5.731e+00,6.318e+00,5.354e+00,6.804e+00,5.852e+00,7.205e+00,7.718e+00,7.279e+00,7.384e+00,8.490e+00,8.951e+00,8.947e+00,9.703e+00,9.991e+00,1.134e+01,1.068e+01,1.144e+01,1.206e+01,9.686e+00,9.690e+00,1.025e+01,1.392e+01,1.129e+01,1.216e+01,1.216e+01,1.219e+01,1.147e+01,1.053e+01,1.304e+01,1.317e+01
1.313e-01,1.243e-01,8.124e-01,7.461e-01,9.561e-01,1.367e+00,1.206e+00,1.817e+00,2.451e+00,1.703e+00,2.976e+00,2.615e+00,2.758e+00,3.536e+00,3.178e+00,4.231e+00,5.210e+00,3.433e+00,5.457e+00,4.932e+00,4.969e+00,5.028e+00,5.937e+00,5.016e+00,6.465e+00,5.471e+00,6.199e+00,5.432e+00,7.616e+00,7.134e+00,8.050e+00,9.578e+00,9.517e+00,8.862e+00,9.833e+00,9.622e+00,8.335e+00,1.026e+01,9.904e+00,1.015e+01,1.067e+01,1.181e+01,1.201e+01,1.063e+01,1.094e+01,9.020e+00,1.351e+01,1.046e+01,1.139e+01,1.080e+01,1.239e+01,1.258e+01,1.236e+01,1.402e+01,1.444e+01
3.784e-01,4.156e-02,2.900e-01,8.401e-01,1.116e+00,1.213e+00,1.378e+00,1.899e+00,1.815e+00,1.518e+00,2.762e+00,2.776e+00,3.154e+00,3.078e+00,2.932e+00,3.981e+00,4.823e+00,2.519e+00,3.968e+00,4.160e+00,3.836e+00,3.909e+00,5.063e+00,4.320e+00,5.502e+00,5.901e+00,5.713e+00,5.077e+00,6.657e+00,6.773e+00,5.986e+00,7.082e+00,8.041e+00,7.134e+00,8.048e+00,8.465e+00,7.235e+00,8.366e+00,8.825e+00,8.713e+00,9.634e+00,1.057e+01,1.066e+01,8.402e+00,1.003e+01,9.163e+00,1.222e+01,1.026e+01,1.183e+01,1.202e+01,1.136e+01,1.117e+01,1.193e+01,1.359e+01,1.318e+01
1.391e-01,1.498e-01,3.240e-01,4.215e-01,8.981e-01,8.422e-01,1.029e+00,1.518e+00,1.684e+00,1.121e+00,2.418e+00,1.800e+00,2.396e+00,2.573e+00,2.294e+00,3.866e+00,4.554e+00,3.002e+00,4.945e+00,4.158e+00,4.922e+00,5.265e+00,5.996e+00,5.138e+00,7.851e+00,6.177e+00,6.637e+00,6.692e+00,8.546e+00,7.577e+00,8.204e+00,9.357e+00,9.707e+00,9.269e+00,9.549e+00,9.569e+00,9.122e+00,1.078e+01,1.149e+01,1.028e+01,1.142e+01,1.189e+01,1.239e+01,9.596e+00,1.190e+01,1.161e+01,1.496e+01,1.246e+01,1.282e+01,1.349e+01,1.357e+01,1.325e+01,1.258e+01,1.622e+01,1.521e+01
