7.220e-01,4.838e-01,6.107e-01,6.396e-01,4.722e-01,3.672e-01,9.747e-01,3.703e-01,3.901e-01,5.824e-01,3.109e-01,7.521e-01,6.147e-02,5.515e-01,5.069e-01,2.887e-01,4.307e-01,5.331e-01,1.723e-01,7.220e-01,7.827e-01,6.571e-01,2.219e-01,9.172e-01,8.561e-01,8.152e-01,5.897e-01,5.903e-01,3.204e-01,7.631e-01,9.570e-01,8.050e-01,3.912e-01,4.089e-01,9.452e-01,5.475e-01,1.821e-01,6.145e-01,6.995e-02,3.494e-01,2.326e-01,1.797e-02,5.775e-01,8.387e-01,8.483e-01,3.565e-01,8.759e-01,6.280e-01,9.135e-01,1.108e-01,7.702e-01,8.433e-01,6.185e-02,2.230e-02,1.575e-01,4.774e-01,8.106e-01,5.998e-02,1.919e-01,3.461e-02,8.422e-03,1.054e-01,3.193e-01,3.638e-01
1.926e-01,7.667e-01,1.108e+00,1.114e+00,1.622e-01,2.824e-01,9.301e-01,6.834e-01,9.585e-01,1.073e+00,8.204e-01,2.294e-01,3.306e-01,3.528e-01,2.279e-01,5.085e-01,9.527e-01,6.847e-01,2.562e-01,2.153e-01,1.080e+00,2.475e-01,9.269e-02,9.472e-01,5.265e-01,5.256e-01,6.042e-01,8.746e-01,8.035e-01,2.176e-01,8.035e-01,7.118e-01,7.668e-01,5.048e-01,6.931e-01,5.289e-01,1.521e-01,2.977e-01,3.561e-01,5.426e-01,8.921e-01,4.341e-01,1.905e-01,2.574e-01,1.080e+00,5.468e-01,3.983e-01,1.005e+00,1.142e+00,7.288e-01,4.539e-01,1.005e+00,2.025e-01,6.222e-01,1.031e+00,4.811e-01,1.099e+00,4.452e-01,6.116e-01,9.646e-01,8.722e-01,7.736e-01,4.240e-01,3.551e-01
6.485e-01,6.958e-01,1.454e+00,1.297e+00,1.387e+00,4.177e-01,1.749e+00,1.237e+00,1.636e+00,1.714e+00,1.261e+00,1.361e+00,2.351e-01,1.272e+00,1.485e+00,1.375e+00,1.273e+00,1.082e+00,8.029e-01,8.217e-01,1.376e+00,1.075e+00,2.714e-01,1.689e+00,1.749e+00,1.717e+00,1.058e+00,1.008e+00,9.071e-01,8.641e-01,1.160e+00,1.922e+00,1.054e+00,1.511e+00,1.127e+00,1.114e+00,3.922e-01,1.097e+00,1.040e+00,1.303e+00,1.391e+00,4.417e-01,1.152e+00,1.448e+00,1.655e+00,7.674e-01,8.692e-01,1.092e+00,1.763e+00,1.311e+00,1.474e+00,1.496e+00,5.621e-01,1.048e+00,1.415e+00,8.017e-01,1.409e+00,1.087e+00,1.320e+00,8.197e-01,9.304e-01,7.282e-01,1.152e+00,5.461e-01
4.378e-01,3.316e-01,4.827e-01,6.000e-01,1.312e+00,1.007e+00,9.667e-01,5.400e-01,1.284e+00,1.114e+00,7.549e-01,1.074e+00,3.156e-01,1.078e+00,1.221e+00,3.123e-01,3.770e-01,8.836e-01,4.400e-01,1.447e+00,1.464e+00,7.388e-01,6.283e-01,1.144e+00,1.013e+00,8.323e-01,8.394e-01,1.176e+00,4.511e-01,1.072e+00,1.317e+00,1.204e+00,1.200e+00,1.135e+00,1.229e+00,1.115e+00,1.509e-01,1.224e+00,8.778e-01,4.154e-01,5.511e-01,9.603e-01,5.262e-01,6.122e-01,1.441e+00,4.754e-01,8.835e-01,1.305e+00,1.575e+00,5.097e-01,8.860e-01,1.030e+00,3.209e-01,4.488e-01,6.722e-01,8.059e-01,1.340e+00,9.635e-01,1.149e+00,6.520e-01,8.957e-01,2.499e-01,7.827e-01,1.156e+00
4.543e-01,3.900e-01,7.888e-01,7.772e-01,1.674e+00,1.171e+00,1.736e+00,1.626e+00,2.054e+00,1.493e+00,1.372e+00,1.278e+00,8.463e-01,1.316e+00,1.580e+00,1.076e+00,1.230e+00,1.210e+00,1.088e+00,1.602e+00,1.844e+00,1.434e+00,9.573e-01,1.260e+00,1.830e+00,1.821e+00,1.173e+00,1.985e+00,1.024e+00,9.132e-01,1.218e+00,1.625e+00,1.980e+00,1.349e+00,1.557e+00,1.845e+00,1.136e+00,2.086e+00,1.370e+00,1.090e+00,1.467e+00,9.290e-01,1.368e+00,1.205e+00,1.466e+00,1.360e+00,1.051e+00,1.992e+00,2.252e+00,1.654e+00,1.968e+00,1.789e+00,5.026e-01,1.649e+00,1.588e+00,1.083e+00,2.151e+00,1.219e+00,1.368e+00,1.621e+00,1.403e+00,4.773e-01,1.744e+00,1.435e+00
4.227e-01,3.442e-01,4.691e-01,4.816e-01,4.512e-01,6.454e-01,1.155e+00,1.195e+00,1.580e+00,1.106e+00,1.117e+00,9.436e-01,6.115e-01,1.078e+00,9.781e-01,1.215e+00,5.803e-01,1.475e+00,1.052e+00,6.537e-01,1.303e+00,1.522e+00,1.162e+00,1.249e+00,1.674e+00,1.566e+00,1.201e+00,1.524e+00,1.249e+00,7.605e-01,9.235e-01,9.660e-01,6.550e-01,1.088e+00,1.350e+00,1.351e+00,1.051e+00,8.268e-01,1.143e+00,4.100e-01,8.686e-01,6.329e-01,8.895e-01,8.444e-01,1.222e+00,1.141e+00,1.029e+00,1.539e+00,1.646e+00,9.788e-01,1.363e+00,8.469e-01,1.096e+00,4.986e-01,1.428e+00,9.326e-01,1.278e+00,8.362e-01,7.641e-01,8.801e-01,4.101e-01,9.437e-01,1.433e+00,7.385e-01
4.306e-02,4.523e-01,9.999e-01,8.972e-01,9.199e-01,6.573e-01,1.877e+00,1.948e+00,2.703e+00,2.552e+00,1.967e+00,1.288e+00,1.567e+00,2.070e+00,1.907e+00,2.531e+00,1.360e+00,2.186e+00,2.094e+00,5.478e-01,2.621e+00,2.086e+00,1.775e+00,2.063e+00,2.211e+00,2.818e+00,1.390e+00,2.407e+00,2.251e+00,8.925e-01,8.702e-01,2.325e+00,1.682e+00,2.454e+00,1.538e+00,1.825e+00,1.822e+00,1.070e+00,2.042e+00,1.058e+00,2.199e+00,1.403e+00,1.848e+00,1.233e+00,1.860e+00,2.032e+00,1.388e+00,2.860e+00,3.083e+00,2.812e+00,1.778e+00,2.040e+00,2.052e+00,1.920e+00,2.773e+00,1.741e+00,2.385e+00,2.136e+00,2.173e+00,1.945e+00,1.600e+00,2.350e+00,2.738e+00,1.083e+00
6.387e-01,6.896e-01,1.361e+00,1.271e+00,1.608e+00,8.057e-01,2.147e+00,2.305e+00,3.129e+00,3.069e+00,2.451e+00,2.052e+00,1.083e+00,2.078e+00,1.970e+00,2.430e+00,2.170e+00,2.451e+00,2.183e+00,1.831e+00,3.002e+00,1.763e+00,1.289e+00,2.766e+00,2.492e+00,2.583e+00,1.561e+00,2.159e+00,1.863e+00,1.864e+00,1.790e+00,2.582e+00,2.726e+00,2.258e+00,2.138e+00,1.821e+00,1.951e+00,2.051e+00,1.654e+00,1.655e+00,1.848e+00,1.505e+00,2.273e+00,1.951e+00,2.974e+00,1.854e+00,1.670e+00,2.816e+00,3.632e+00,2.029e+00,2.633e+00,2.905e+00,1.139e+00,2.346e+00,2.821e+00,1.963e+00,2.831e+00,1.848e+00,2.536e+00,1.649e+00,1.919e+00,1.492e+00,2.409e+00,1.240e+00
5.047e-01,4.266e-01,9.010e-01,8.496e-01,1.490e+00,1.011e+00,2.149e+00,2.355e+00,3.622e+00,3.697e+00,2.486e+00,2.141e+00,2.358e+00,2.580e+00,2.572e+00,3.716e+00,2.476e+00,3.604e+00,3.329e+00,2.568e+00,3.348e+00,2.818e+00,2.643e+00,3.087e+00,3.356e+00,3.822e+00,1.977e+00,3.288e+00,2.512e+00,1.914e+00,2.203e+00,2.934e+00,3.044e+00,2.797e+00,2.344e+00,2.706e+00,3.039e+00,2.918e+00,2.491e+00,1.824e+00,2.345e+00,2.139e+00,2.514e+00,1.937e+00,2.953e+00,3.066e+00,2.204e+00,3.524e+00,4.785e+00,2.535e+00,2.707e+00,3.101e+00,2.235e+00,2.465e+00,3.007e+00,2.414e+00,3.808e+00,2.950e+00,3.461e+00,2.355e+00,2.411e+00,2.646e+00,3.206e+00,2.012e+00
3.484e-01,2.629e-01,6.902e-01,5.866e-01,9.895e-01,5.266e-01,1.582e+00,1.724e+00,2.400e+00,2.717e+00,1.882e+00,2.476e+00,1.312e+00,2.761e+00,2.816e+00,2.968e+00,1.566e+00,2.773e+00,2.669e+00,1.420e+00,2.647e+00,2.652e+00,2.163e+00,2.226e+00,2.851e+00,3.241e+00,2.147e+00,2.089e+00,2.738e+00,1.952e+00,1.412e+00,2.386e+00,1.838e+00,2.965e+00,2.163e+00,2.025e+00,2.402e+00,2.248e+00,2.126e+00,1.449e+00,1.997e+00,2.137e+00,1.860e+00,2.261e+00,2.421e+00,2.135e+00,1.580e+00,2.757e+00,3.398e+00,2.166e+00,2.251e+00,2.322e+00,2.301e+00,1.514e+00,2.310e+00,2.385e+00,2.946e+00,2.322e+00,2.212e+00,2.144e+00,1.540e+00,1.853e+00,2.945e+00,1.242e+00
1.905e-01,6.061e-01,1.334e+00,1.274e+00,1.986e+00,1.339e+00,2.478e+00,2.435e+00,3.884e+00,3.997e+00,2.967e+00,2.576e+00,2.741e+00,3.757e+00,3.827e+00,4.053e+00,2.834e+00,3.667e+00,4.088e+00,2.574e+00,4.102e+00,3.003e+00,3.333e+00,3.588e+00,3.972e+00,4.593e+00,2.317e+00,4.603e+00,3.780e+00,2.614e+00,2.473e+00,3.437e+00,3.689e+00,3.503e+00,3.119e+00,3.604e+00,3.786e+00,3.392e+00,3.518e+00,2.744e+00,4.192e+00,3.066e+00,2.762e+00,2.092e+00,3.275e+00,3.559e+00,2.582e+00,4.800e+00,5.730e+00,4.354e+00,3.038e+00,3.987e+00,2.550e+00,3.287e+00,3.373e+00,3.167e+00,4.605e+00,4.213e+00,4.399e+00,4.143e+00,3.375e+00,3.654e+00,3.948e+00,2.876e+00
7.045e-01,8.425e-01,1.424e+00,1.374e+00,1.276e+00,9.244e-01,2.275e+00,1.898e+00,2.839e+00,3.475e+00,2.189e+00,3.046e+00,2.907e+00,3.792e+00,4.194e+00,4.034e+00,2.992e+00,4.320e+00,3.967e+00,2.921e+00,4.271e+00,3.263e+00,3.471e+00,4.017e+00,3.917e+00,4.835e+00,3.236e+00,4.196e+00,3.508e+00,2.480e+00,3.381e+00,2.973e+00,2.871e+00,3.675e+00,3.713e+00,2.939e+00,3.696e+00,4.263e+00,3.466e+00,2.811e+00,3.151e+00,3.414e+00,2.019e+00,2.572e+00,3.680e+00,3.227e+00,2.323e+00,3.728e+00,4.948e+00,3.043e+00,3.483e+00,3.639e+00,2.599e+00,2.485e+00,2.554e+00,3.524e+00,4.474e+00,3.823e+00,3.960e+00,4.117e+00,2.724e+00,2.804e+00,3.818e+00,2.843e+00
3.074e-01,3.647e-01,9.840e-01,8.396e-01,1.315e+00,5.567e-01,1.594e+00,2.150e+00,3.190e+00,3.352e+00,2.506e+00,2.549e+00,2.893e+00,3.836e+00,3.559e+00,4.532e+00,3.686e+00,3.889e+00,4.198e+00,2.790e+00,4.196e+00,2.799e+00,3.259e+00,3.846e+00,3.576e+00,4.732e+00,2.530e+00,4.037e+00,3.466e+00,2.598e+00,2.545e+00,2.624e+00,2.968e+00,3.623e+00,3.564e+00,2.773e+00,3.916e+00,4.364e+00,3.615e+00,3.449e+00,3.230e+00,3.612e+00,2.367e+00,2.773e+00,3.651e+00,3.491e+00,2.223e+00,3.874e+00,4.288e+00,3.026e+00,3.210e+00,3.649e+00,3.064e+00,3.336e+00,3.653e+00,2.785e+00,3.815e+00,3.557e+00,4.342e+00,3.953e+00,3.471e+00,2.532e+00,3.694e+00,2.197e+00
5.938e-02,5.362e-01,8.465e-01,8.873e-01,7.929e-01,9.469e-01,1.481e+00,1.696e+00,2.601e+00,2.335e+00,2.157e+00,1.640e+00,1.930e+00,2.734e+00,2.512e+00,2.514e+00,2.517e+00,3.613e+00,3.069e+00,1.556e+00,4.130e+00,2.004e+00,3.238e+00,2.855e+00,3.442e+00,3.158e+00,2.042e+00,4.520e+00,3.320e+00,2.121e+00,1.895e+00,2.792e+00,2.376e+00,3.252e+00,3.070e+00,2.635e+00,3.181e+00,2.261e+00,3.292e+00,1.797e+00,2.828e+00,2.852e+00,1.663e+00,1.585e+00,2.684e+00,2.731e+00,2.771e+00,4.291e+00,3.778e+00,3.878e+00,3.228e+00,3.284e+00,2.755e+00,2.398e+00,2.732e+00,3.376e+00,2.882e+00,3.074e+00,3.398e+00,3.486e+00,2.190e+00,3.358e+00,2.934e+00,2.290e+00
3.992e-02,1.503e-01,5.080e-01,4.186e-01,9.689e-01,7.943e-01,1.504e+00,2.495e+00,3.437e+00,2.946e+00,2.527e+00,1.888e+00,3.316e+00,3.201e+00,3.203e+00,4.476e+00,4.720e+00,4.992e+00,5.170e+00,3.059e+00,4.619e+00,3.089e+00,4.824e+00,4.455e+00,4.046e+00,4.819e+00,2.915e+00,5.948e+00,4.081e+00,2.309e+00,3.149e+00,3.350e+00,3.256e+00,3.600e+00,4.134e+00,3.559e+00,5.251e+00,4.746e+00,4.158e+00,3.654e+00,3.205e+00,3.658e+00,2.738e+00,2.568e+00,3.935e+00,4.374e+00,2.666e+00,4.590e+00,4.946e+00,3.936e+00,4.686e+00,4.015e+00,4.232e+00,3.670e+00,4.572e+00,3.822e+00,3.656e+00,3.815e+00,4.627e+00,4.958e+00,3.500e+00,3.544e+00,4.258e+00,3.099e+00
6.092e-01,9.085e-01,1.752e+00,1.708e+00,2.253e+00,1.428e+00,2.822e+00,2.962e+00,4.766e+00,5.016e+00,3.554e+00,3.289e+00,2.848e+00,4.121e+00,4.181e+00,5.415e+00,5.375e+00,5.442e+00,5.070e+00,4.302e+00,5.565e+00,3.660e+00,4.632e+00,5.854e+00,4.976e+00,6.089e+00,3.535e+00,6.509e+00,5.374e+00,3.744e+00,4.337e+00,5.242e+00,5.235e+00,5.022e+00,4.895e+00,4.969e+00,4.543e+00,5.067e+00,4.496e+00,3.821e+00,4.279e+00,4.121e+00,3.782e+00,3.382e+00,5.972e+00,4.634e+00,4.142e+00,6.206e+00,7.130e+00,5.102e+00,4.997e+00,6.127e+00,3.894e+00,4.483e+00,5.646e+00,4.344e+00,6.241e+00,5.312e+00,5.491e+00,5.659e+00,4.419e+00,4.648e+00,5.097e+00,3.785e+00
6.520e-01,8.489e-01,1.429e+00,1.454e+00,1.932e+00,1.658e+00,2.933e+00,3.030e+00,4.522e+00,4.355e+00,3.283e+00,3.026e+00,3.474e+00,4.149e+00,4.168e+00,4.631e+00,4.366e+00,6.168e+00,5.292e+00,4.514e+00,6.893e+00,4.014e+00,5.370e+00,5.346e+00,6.014e+00,5.936e+00,3.748e+00,7.274e+00,4.701e+00,3.882e+00,4.376e+00,5.086e+00,4.659e+00,4.976e+00,5.654e+00,4.506e+00,5.496e+00,5.087e+00,5.311e+00,3.686e+00,3.863e+00,4.761e+00,3.478e+00,3.321e+00,5.054e+00,5.187e+00,4.808e+00,6.129e+00,7.057e+00,5.316e+00,5.383e+00,5.292e+00,4.705e+00,4.814e+00,5.011e+00,5.003e+00,5.962e+00,5.004e+00,5.969e+00,5.680e+00,4.137e+00,4.513e+00,5.461e+00,4.336e+00
1.665e-01,2.274e-01,8.049e-01,6.479e-01,1.126e+00,3.944e-01,1.329e+00,1.978e+00,2.793e+00,2.494e+00,2.358e+00,2.068e+00,1.415e+00,2.696e+00,2.732e+00,3.484e+00,3.102e+00,3.576e+00,4.451e+00,2.460e+00,3.856e+00,2.565e+00,3.588e+00,4.330e+00,4.267e+00,4.348e+00,2.725e+00,4.576e+00,4.309e+00,2.742e+00,3.038e+00,3.814e+00,3.703e+00,3.454e+00,4.051e+00,3.246e+00,3.994e+00,2.728e+00,4.275e+00,3.332e+00,3.597e+00,3.145e+00,2.958e+00,3.162e+00,4.501e+00,3.500e+00,2.847e+00,4.000e+00,4.718e+00,3.825e+00,4.066e+00,3.459e+00,3.803e+00,3.619e+00,4.579e+00,3.716e+00,3.566e+00,4.207e+00,4.526e+00,4.212e+00,2.629e+00,3.329e+00,3.682e+00,3.090e+00
4.523e-01,6.124e-01,1.013e+00,9.797e-01,7.663e-01,6.748e-01,1.763e+00,2.202e+00,3.294e+00,3.709e+00,2.632e+00,2.621e+00,3.178e+00,4.008e+00,3.551e+00,5.026e+00,5.355e+00,5.844e+00,6.016e+00,4.854e+00,6.934e+00,3.735e+00,6.190e+00,6.140e+00,5.607e+00,6.752e+00,4.647e+00,7.094e+00,5.710e+00,4.836e+00,4.391e+00,4.715e+00,4.219e+00,5.277e+00,6.474e+00,5.026e+00,5.844e+00,6.157e+00,5.579e+00,4.781e+00,4.465e+00,5.050e+00,4.028e+00,4.480e+00,6.195e+00,5.948e+00,4.507e+00,5.932e+00,6.529e+00,4.775e+00,4.977e+00,5.468e+00,6.331e+00,4.931e+00,5.984e+00,5.685e+00,6.171e+00,5.185e+00,5.785e+00,6.698e+00,4.820e+00,5.482e+00,4.990e+00,3.813e+00
5.590e-01,3.887e-01,6.424e-01,6.442e-01,9.369e-01,5.775e-01,1.206e+00,1.305e+00,1.826e+00,2.109e+00,1.516e+00,2.125e+00,1.831e+00,2.940e+00,2.673e+00,2.980e+00,3.765e+00,3.705e+00,4.282e+00,3.920e+00,5.243e+00,2.695e+00,4.218e+00,5.403e+00,5.012e+00,5.528e+00,3.875e+00,5.136e+00,5.145e+00,3.756e+00,4.472e+00,4.809e+00,4.341e+00,4.626e+00,6.294e+00,3.873e+00,4.552e+00,5.025e+00,4.910e+00,4.580e+00,4.134e+00,4.751e+00,3.406e+00,4.097e+00,5.805e+00,4.970e+00,3.779e+00,5.180e+00,5.363e+00,3.127e+00,4.447e+00,4.455e+00,5.508e+00,4.555e+00,4.799e+00,4.506e+00,5.175e+00,4.212e+00,5.232e+00,5.119e+00,3.915e+00,3.515e+00,3.631e+00,3.959e+00
5.030e-02,2.136e-01,6.130e-01,5.680e-01,1.135e+00,8.002e-01,1.406e+00,1.972e+00,3.275e+00,3.307e+00,2.623e+00,2.383e+00,2.742e+00,4.029e+00,3.473e+00,4.432e+00,3.544e+00,4.232e+00,4.779e+00,3.228e+00,5.115e+00,3.522e+00,5.291e+00,4.493e+00,4.761e+00,5.410e+00,3.381e+00,5.351e+00,5.464e+00,3.877e+00,3.259e+00,3.733e+00,4.009e+00,4.785e+00,5.145e+00,4.795e+00,5.567e+00,4.534e+00,5.148e+00,3.635e+00,4.331e+00,4.714e+00,3.464e+00,3.877e+00,4.937e+00,5.249e+00,3.578e+00,5.821e+00,5.934e+00,4.320e+00,3.436e+00,4.252e+00,5.098e+00,4.017e+00,5.463e+00,4.834e+00,4.681e+00,5.432e+00,5.192e+00,5.366e+00,4.595e+00,4.450e+00,4.689e+00,3.023e+00
6.118e-01,7.575e-01,1.461e+00,1.447e+00,2.201e+00,1.545e+00,2.746e+00,3.043e+00,4.691e+00,4.514e+00,3.690e+00,3.582e+00,2.642e+00,4.727e+00,4.555e+00,4.810e+00,4.389e+00,5.473e+00,5.767e+00,4.693e+00,6.611e+00,4.765e+00,6.348e+00,6.863e+00,7.004e+00,6.952e+00,5.240e+00,7.186e+00,6.299e+00,6.031e+00,5.847e+00,5.790e+00,6.266e+00,6.274e+00,7.413e+00,5.842e+00,6.978e+00,5.535e+00,6.058e+00,5.430e+00,5.404e+00,6.088e+00,4.919e+00,4.595e+00,7.281e+00,6.573e+00,5.159e+00,6.914e+00,8.235e+00,5.711e+00,5.992e+00,6.320e+00,6.054e+00,5.417e+00,7.895e+00,6.381e+00,6.586e+00,6.614e+00,7.081e+00,6.978e+00,5.336e+00,5.002e+00,6.232e+00,5.129e+00
2.185e-01,2.558e-01,7.947e-01,7.650e-01,2.069e+00,1.222e+00,1.846e+00,2.036e+00,3.347e+00,3.509e+00,2.403e+00,2.994e+00,3.069e+00,4.212e+00,4.429e+00,4.126e+00,3.647e+00,4.849e+00,5.318e+00,4.994e+00,6.800e+00,4.181e+00,6.367e+00,6.607e+00,7.766e+00,8.099e+00,5.454e+00,7.483e+00,6.622e+00,5.224e+00,6.110e+00,6.709e+00,7.650e+00,7.902e+00,8.102e+00,5.825e+00,7.437e+00,6.542e+00,7.764e+00,5.607e+00,5.931e+00,7.698e+00,5.101e+00,5.200e+00,7.548e+00,7.434e+00,5.224e+00,7.267e+00,7.928e+00,5.524e+00,5.814e+00,6.284e+00,7.083e+00,6.640e+00,6.852e+00,7.133e+00,7.515e+00,7.978e+00,8.652e+00,7.807e+00,6.469e+00,5.304e+00,6.662e+00,6.317e+00
3.446e-01,5.867e-01,1.181e+00,1.169e+00,1.770e+00,1.235e+00,2.244e+00,2.497e+00,3.916e+00,3.661e+00,3.125e+00,2.797e+00,2.605e+00,4.310e+00,3.942e+00,4.234e+00,4.101e+00,5.062e+00,5.516e+00,3.840e+00,6.968e+00,3.938e+00,6.084e+00,6.782e+00,7.092e+00,7.195e+00,5.180e+00,7.854e+00,6.300e+00,5.969e+00,5.885e+00,7.021e+00,6.767e+00,7.799e+00,7.162e+00,5.934e+00,7.069e+00,4.747e+00,7.263e+00,5.658e+00,5.882e+00,5.780e+00,5.739e+00,4.926e+00,7.193e+00,7.161e+00,5.432e+00,7.350e+00,7.702e+00,7.110e+00,6.626e+00,6.944e+00,6.931e+00,6.092e+00,7.794e+00,7.609e+00,6.242e+00,7.629e+00,8.274e+00,6.829e+00,5.302e+00,6.756e+00,6.458e+00,5.436e+00
3.022e-01,4.452e-01,7.538e-01,7.291e-01,6.695e-01,5.059e-01,1.319e+00,1.127e+00,1.581e+00,2.091e+00,1.348e+00,1.694e+00,1.447e+00,2.217e+00,2.209e+00,2.598e+00,2.806e+00,3.396e+00,3.541e+00,3.082e+00,4.358e+00,2.539e+00,3.907e+00,3.664e+00,5.858e+00,5.407e+00,3.455e+00,5.449e+00,4.743e+00,3.625e+00,3.812e+00,4.999e+00,4.136e+00,4.403e+00,4.944e+00,4.352e+00,5.030e+00,3.755e+00,4.945e+00,3.760e+00,3.745e+00,4.305e+00,3.227e+00,3.991e+00,4.057e+00,4.737e+00,4.764e+00,4.952e+00,5.050e+00,4.328e+00,4.268e+00,4.357e+00,4.889e+00,4.018e+00,4.423e+00,4.949e+00,5.889e+00,4.605e+00,5.398e+00,5.113e+00,3.794e+00,4.563e+00,4.180e+00,3.922e+00
6.453e-01,4.726e-01,6.943e-01,7.258e-01,1.081e+00,9.031e-01,1.602e+00,1.912e+00,2.422e+00,2.246e+00,1.998e+00,1.959e+00,1.444e+00,2.344e+00,2.014e+00,2.539e+00,3.518e+00,3.520e+00,3.266e+00,3.504e+00,4.850e+00,2.399e+00,3.937e+00,4.450e+00,5.185e+00,5.241e+00,4.569e+00,6.254e+00,4.550e+00,4.694e+00,3.972e+00,4.759e+00,5.061e+00,4.904e+00,5.936e+00,5.203e+00,5.824e+00,4.804e+00,4.595e+00,3.776e+00,3.543e+00,4.321e+00,4.714e+00,3.810e+00,5.070e+00,5.337e+00,4.892e+00,6.012e+00,5.070e+00,4.529e+00,5.686e+00,5.844e+00,4.956e+00,5.249e+00,5.634e+00,5.043e+00,5.648e+00,4.522e+00,5.280e+00,5.461e+00,4.174e+00,5.027e+00,4.907e+00,3.406e+00
2.218e-01,4.035e-01,9.266e-01,8.613e-01,1.291e+00,6.503e-01,1.363e+00,1.861e+00,2.917e+00,3.173e+00,2.312e+00,2.356e+00,2.426e+00,3.432e+00,3.235e+00,4.300e+00,4.996e+00,4.747e+00,5.085e+00,4.746e+00,6.291e+00,3.527e+00,5.990e+00,6.673e+00,7.426e+00,7.806e+00,6.365e+00,7.810e+00,7.825e+00,6.370e+00,6.862e+00,6.897e+00,7.495e+00,7.740e+00,8.153e+00,6.984e+00,7.601e+00,6.914e+00,7.682e+00,6.952e+00,6.262e+00,7.568e+00,5.895e+00,5.781e+00,8.080e+00,8.331e+00,6.772e+00,7.363e+00,7.640e+00,6.629e+00,6.428e+00,7.975e+00,7.930e+00,7.027e+00,8.767e+00,7.233e+00,8.195e+00,7.663e+00,8.779e+00,8.107e+00,6.740e+00,6.850e+00,6.603e+00,5.893e+00
7.075e-01,8.544e-01,1.289e+00,1.292e+00,9.556e-01,7.426e-01,2.031e+00,1.376e+00,1.857e+00,2.695e+00,1.735e+00,2.741e+00,2.284e+00,3.747e+00,3.746e+00,3.418e+00,3.593e+00,3.957e+00,4.118e+00,3.167e+00,5.084e+00,3.561e+00,5.159e+00,5.690e+00,6.103e+00,6.557e+00,5.867e+00,7.734e+00,7.508e+00,6.370e+00,7.853e+00,6.560e+00,6.652e+00,7.326e+00,7.954e+00,7.388e+00,8.879e+00,6.318e+00,6.723e+00,5.979e+00,5.533e+00,6.858e+00,5.867e+00,6.613e+00,6.626e+00,7.401e+00,7.219e+00,7.390e+00,7.931e+00,6.248e+00,6.421e+00,7.681e+00,7.266e+00,5.866e+00,7.267e+00,7.221e+00,7.173e+00,6.919e+00,7.507e+00,7.532e+00,5.581e+00,6.588e+00,7.846e+00,5.334e+00
8.513e-02,5.948e-01,1.063e+00,1.078e+00,1.278e+00,1.170e+00,1.779e+00,2.554e+00,3.942e+00,3.526e+00,2.893e+00,1.845e+00,3.085e+00,3.137e+00,2.930e+00,4.330e+00,5.214e+00,5.456e+00,5.342e+00,4.850e+00,6.717e+00,3.567e+00,6.376e+00,6.312e+00,6.447e+00,6.605e+00,5.932e+00,8.822e+00,7.516e+00,5.441e+00,7.327e+00,6.670e+00,7.128e+00,7.371e+00,8.492e+00,7.379e+00,8.422e+00,7.250e+00,7.672e+00,5.916e+00,5.844e+00,7.255e+00,6.082e+00,4.915e+00,7.457e+00,8.746e+00,7.022e+00,7.871e+00,8.622e+00,7.139e+00,6.411e+00,8.030e+00,8.458e+00,8.143e+00,9.422e+00,7.229e+00,8.140e+00,7.588e+00,8.723e+00,9.124e+00,7.521e+00,7.745e+00,7.209e+00,5.946e+00
1.826e-01,6.831e-01,1.335e+00,1.272e+00,1.203e+00,6.188e-01,1.817e+00,2.063e+00,3.317e+00,4.128e+00,2.728e+00,2.670e+00,2.588e+00,3.458e+00,3.590e+00,4.499e+00,4.475e+00,4.908e+00,5.330e+00,4.677e+00,6.069e+00,3.066e+00,5.286e+00,6.508e+00,5.732e+00,6.748e+00,5.513e+00,7.025e+00,6.798e+00,6.004e+00,7.534e+00,7.441e+00,6.629e+00,8.061e+00,7.772e+00,7.307e+00,8.012e+00,7.430e+00,6.897e+00,6.088e+00,5.722e+00,6.878e+00,6.629e+00,5.398e+00,7.342e+00,8.109e+00,6.664e+00,6.871e+00,9.054e+00,7.389e+00,6.167e+00,8.633e+00,8.076e+00,7.902e+00,8.433e+00,7.754e+00,9.245e+00,7.987e+00,9.169e+00,8.163e+00,7.832e+00,8.271e+00,7.830e+00,5.343e+00
6.360e-01,6.947e-01,1.380e+00,1.275e+00,1.499e+00,7.400e-01,2.309e+00,2.363e+00,3.259e+00,3.689e+00,2.651e+00,2.941e+00,2.021e+00,3.698e+00,3.463e+00,4.405e+00,4.420e+00,4.625e+00,5.104e+00,4.545e+00,6.607e+00,4.078e+00,5.715e+00,7.395e+00,7.958e+00,8.650e+00,6.532e+00,7.937e+00,7.703e+00,6.878e+00,7.576e+00,9.077e+00,8.346e+00,9.162e+00,8.916e+00,7.759e+00,8.553e+00,7.167e+00,8.011e+00,7.105e+00,7.104e+00,7.467e+00,8.205e+00,7.417e+00,9.096e+00,9.130e+00,7.490e+00,8.628e+00,9.610e+00,7.465e+00,8.115e+00,9.164e+00,8.859e+00,8.705e+00,9.865e+00,8.657e+00,9.144e+00,9.112e+00,9.503e+00,8.819e+00,7.134e+00,8.644e+00,8.110e+00,6.358e+00
1.636e-01,3.735e-01,1.004e+00,9.351e-01,1.776e+00,1.051e+00,2.000e+00,1.922e+00,3.382e+00,3.757e+00,2.351e+00,2.665e+00,2.895e+00,3.984e+00,4.060e+00,4.795e+00,3.825e+00,4.727e+00,5.068e+00,4.257e+00,5.953e+00,4.098e+00,5.823e+00,5.666e+00,7.625e+00,8.442e+00,5.183e+00,8.197e+00,7.307e+00,5.417e+00,7.344e+00,8.515e+00,7.997e+00,1.004e+01,8.201e+00,8.624e+00,8.867e+00,7.685e+00,9.260e+00,6.426e+00,7.301e+00,8.544e+00,7.207e+00,7.359e+00,7.258e+00,8.981e+00,8.359e+00,8.670e+00,9.337e+00,8.005e+00,6.745e+00,8.646e+00,8.777e+00,8.350e+00,8.903e+00,8.815e+00,1.024e+01,1.003e+01,1.032e+01,9.111e+00,7.741e+00,9.312e+00,8.356e+00,7.260e+00
4.678e-01,3.910e-01,9.031e-01,8.245e-01,1.636e+00,1.138e+00,2.054e+00,2.412e+00,3.259e+00,2.792e+00,2.602e+00,2.759e+00,2.685e+00,4.185e+00,4.054e+00,4.701e+00,4.931e+00,4.746e+00,5.302e+00,4.363e+00,5.976e+00,4.244e+00,6.696e+00,6.763e+00,6.983e+00,8.051e+00,6.392e+00,9.763e+00,8.432e+00,6.858e+00,8.109e+00,8.067e+00,8.469e+00,1.022e+01,1.020e+01,1.012e+01,1.073e+01,8.795e+00,9.622e+00,7.766e+00,7.383e+00,8.091e+00,8.571e+00,8.029e+00,9.213e+00,1.043e+01,8.327e+00,9.742e+00,9.827e+00,8.858e+00,9.235e+00,1.030e+01,9.798e+00,9.157e+00,1.038e+01,9.409e+00,8.336e+00,1.006e+01,9.559e+00,1.008e+01,8.169e+00,9.026e+00,1.040e+01,7.072e+00
9.403e-03,3.388e-01,7.492e-01,7.601e-01,1.568e+00,1.410e+00,1.855e+00,2.623e+00,4.069e+00,3.622e+00,2.986e+00,2.372e+00,3.141e+00,3.615e+00,3.559e+00,4.588e+00,3.898e+00,4.778e+00,4.923e+00,4.462e+00,5.598e+00,3.674e+00,5.297e+00,5.382e+00,6.198e+00,6.824e+00,5.368e+00,7.990e+00,6.735e+00,5.246e+00,5.687e+00,5.839e+00,7.745e+00,8.347e+00,8.803e+00,8.108e+00,9.099e+00,7.626e+00,8.891e+00,7.328e+00,7.034e+00,8.394e+00,6.893e+00,5.219e+00,7.257e+00,9.529e+00,7.565e+00,8.939e+00,8.855e+00,7.618e+00,7.422e+00,8.691e+00,8.057e+00,9.483e+00,9.072e+00,7.524e+00,9.593e+00,8.979e+00,9.242e+00,9.597e+00,7.053e+00,8.364e+00,8.307e+00,6.643e+00
3.096e-01,2.291e-01,3.019e-01,3.371e-01,4.377e-01,3.729e-01,9.651e-01,5.647e-01,1.068e+00,1.782e+00,8.881e-01,1.286e+00,2.026e+00,2.160e+00,2.100e+00,2.727e+00,2.598e+00,3.174e+00,3.999e+00,3.919e+00,4.639e+00,2.719e+00,5.330e+00,5.500e+00,5.531e+00,6.165e+00,4.996e+00,7.103e+00,5.993e+00,5.935e+00,6.830e+00,7.036e+00,7.344e+00,8.238e+00,8.657e+00,7.954e+00,1.004e+01,6.485e+00,8.812e+00,8.134e+00,6.478e+00,7.401e+00,8.876e+00,6.884e+00,8.185e+00,1.016e+01,7.784e+00,7.876e+00,9.361e+00,7.265e+00,7.001e+00,8.328e+00,8.504e+00,9.377e+00,8.886e+00,9.184e+00,8.932e+00,9.634e+00,9.516e+00,8.771e+00,6.706e+00,9.784e+00,7.892e+00,7.431e+00
1.855e-01,2.549e-01,4.155e-01,4.099e-01,6.248e-01,6.662e-01,1.486e+00,2.090e+00,2.725e+00,2.977e+00,2.183e+00,2.015e+00,3.719e+00,3.540e+00,3.190e+00,4.492e+00,4.928e+00,5.467e+00,6.045e+00,4.394e+00,6.636e+00,3.833e+00,6.530e+00,6.503e+00,8.051e+00,8.208e+00,5.640e+00,9.950e+00,7.596e+00,6.332e+00,8.442e+00,8.053e+00,8.834e+00,9.262e+00,9.786e+00,8.282e+00,1.247e+01,8.245e+00,9.960e+00,8.801e+00,7.555e+00,9.226e+00,9.050e+00,7.740e+00,8.276e+00,1.116e+01,9.391e+00,9.841e+00,1.093e+01,8.263e+00,8.741e+00,9.588e+00,9.958e+00,1.017e+01,1.020e+01,9.212e+00,1.018e+01,9.576e+00,1.185e+01,1.004e+01,8.366e+00,9.861e+00,9.812e+00,8.945e+00
3.477e-01,7.217e-01,1.497e+00,1.383e+00,1.707e+00,9.986e-01,2.339e+00,2.826e+00,4.011e+00,4.063e+00,3.295e+00,2.602e+00,3.284e+00,4.153e+00,3.680e+00,5.151e+00,5.103e+00,4.600e+00,5.088e+00,4.294e+00,6.254e+00,3.585e+00,5.672e+00,6.064e+00,6.227e+00,7.534e+00,4.829e+00,7.767e+00,7.044e+00,5.666e+00,6.002e+00,5.964e+00,7.580e+00,8.343e+00,8.292e+00,8.291e+00,9.846e+00,8.108e+00,9.334e+00,7.258e+00,7.157e+00,7.997e+00,7.566e+00,7.194e+00,8.730e+00,9.449e+00,8.244e+00,9.151e+00,9.494e+00,7.990e+00,7.218e+00,9.770e+00,7.724e+00,8.830e+00,9.288e+00,8.247e+00,9.447e+00,9.405e+00,9.346e+00,9.672e+00,8.535e+00,8.717e+00,8.631e+00,6.731e+00
9.112e-02,1.343e-01,2.291e-01,2.364e-01,3.250e-01,3.395e-01,7.371e-01,1.081e+00,1.582e+00,1.585e+00,1.246e+00,9.616e-01,1.356e+00,1.755e+00,1.321e+00,2.440e+00,2.705e+00,2.799e+00,3.323e+00,2.510e+00,3.640e+00,2.426e+00,4.223e+00,4.160e+00,5.330e+00,5.202e+00,4.359e+00,6.962e+00,6.339e+00,4.763e+00,6.241e+00,6.472e+00,7.011e+00,7.603e+00,7.982e+00,7.887e+00,9.748e+00,5.881e+00,8.748e+00,7.713e+00,5.892e+00,8.725e+00,8.312e+00,8.050e+00,7.571e+00,9.725e+00,9.121e+00,9.218e+00,8.668e+00,7.395e+00,6.572e+00,8.317e+00,8.906e+00,8.132e+00,9.966e+00,7.880e+00,9.462e+00,9.596e+00,1.032e+01,8.281e+00,8.230e+00,9.361e+00,9.018e+00,7.437e+00
3.340e-01,7.499e-01,1.093e+00,1.167e+00,1.174e+00,1.263e+00,2.172e+00,1.876e+00,2.810e+00,3.328e+00,1.948e+00,1.957e+00,3.374e+00,3.362e+00,3.173e+00,3.932e+00,4.275e+00,4.181e+00,4.654e+00,4.174e+00,5.859e+00,3.819e+00,5.490e+00,5.553e+00,6.652e+00,7.732e+00,5.557e+00,8.277e+00,7.574e+00,5.446e+00,8.308e+00,7.644e+00,8.056e+00,8.885e+00,8.705e+00,8.642e+00,1.009e+01,8.701e+00,1.005e+01,8.322e+00,8.137e+00,9.732e+00,8.664e+00,7.830e+00,9.281e+00,1.081e+01,1.000e+01,1.004e+01,1.126e+01,8.499e+00,7.918e+00,9.959e+00,9.098e+00,9.810e+00,1.055e+01,9.548e+00,1.168e+01,9.630e+00,1.098e+01,1.097e+01,9.661e+00,9.665e+00,9.429e+00,9.710e+00
2.629e-01,2.907e-01,7.614e-01,7.402e-01,1.910e+00,1.387e+00,2.154e+00,2.895e+00,4.218e+00,3.824e+00,3.204e+00,2.920e+00,2.697e+00,3.859e+00,3.753e+00,4.619e+00,4.449e+00,5.466e+00,5.055e+00,4.289e+00,6.233e+00,3.792e+00,5.535e+00,5.265e+00,7.107e+00,6.879e+00,4.688e+00,8.610e+00,6.917e+00,5.537e+00,6.380e+00,7.796e+00,7.963e+00,9.352e+00,8.495e+00,8.687e+00,1.082e+01,7.856e+00,1.094e+01,8.423e+00,7.175e+00,9.887e+00,9.431e+00,7.960e+00,9.491e+00,1.118e+01,1.115e+01,1.181e+01,1.198e+01,1.035e+01,1.004e+01,1.049e+01,9.848e+00,1.172e+01,1.163e+01,1.063e+01,1.112e+01,1.110e+01,1.226e+01,1.111e+01,9.185e+00,1.110e+01,1.167e+01,9.016e+00
1.213e-01,2.565e-01,5.203e-01,5.589e-01,1.105e+00,9.587e-01,1.072e+00,1.871e+00,3.205e+00,2.943e+00,2.468e+00,2.627e+00,2.318e+00,3.447e+00,3.665e+00,3.628e+00,3.426e+00,4.533e+00,4.615e+00,3.479e+00,4.443e+00,2.927e+00,4.649e+00,4.968e+00,4.388e+00,4.714e+00,4.879e+00,6.265e+00,5.031e+00,4.691e+00,5.844e+00,4.290e+00,5.150e+00,6.533e+00,6.971e+00,6.707e+00,8.716e+00,7.143e+00,8.479e+00,6.933e+00,5.582e+00,8.465e+00,7.412e+00,6.373e+00,9.395e+00,8.372e+00,7.821e+00,9.180e+00,1.016e+01,6.452e+00,7.966e+00,8.135e+00,8.141e+00,7.702e+00,9.289e+00,7.266e+00,7.972e+00,9.128e+00,1.006e+01,9.031e+00,8.454e+00,8.372e+00,9.519e+00,7.691e+00
9.246e-02,4.894e-01,1.149e+00,1.100e+00,1.925e+00,1.421e+00,2.463e+00,2.912e+00,4.313e+00,4.034e+00,3.447e+00,3.115e+00,2.917e+00,4.952e+00,4.518e+00,4.723e+00,4.435e+00,5.114e+00,6.056e+00,3.653e+00,7.018e+00,4.511e+00,6.386e+00,5.983e+00,7.655e+00,7.810e+00,6.298e+00,9.435e+00,7.925e+00,6.902e+00,6.925e+00,8.263e+00,8.083e+00,1.022e+01,9.323e+00,9.540e+00,1.149e+01,8.346e+00,1.167e+01,9.958e+00,9.181e+00,1.170e+01,1.075e+01,1.077e+01,1.115e+01,1.262e+01,1.264e+01,1.405e+01,1.341e+01,1.150e+01,1.107e+01,1.177e+01,1.290e+01,1.181e+01,1.429e+01,1.244e+01,1.137e+01,1.305e+01,1.424e+01,1.353e+01,1.104e+01,1.296e+01,1.315e+01,9.728e+00
5.721e-01,6.921e-01,1.108e+00,1.179e+00,1.856e+00,1.693e+00,2.392e+00,2.421e+00,3.725e+00,3.533e+00,2.572e+00,2.484e+00,2.677e+00,3.128e+00,3.393e+00,3.661e+00,3.823e+00,4.372e+00,4.154e+00,4.155e+00,4.811e+00,3.674e+00,4.895e+00,5.552e+00,6.281e+00,6.390e+00,5.129e+00,7.164e+00,6.276e+00,4.424e+00,6.980e+00,7.487e+00,7.588e+00,8.317e+00,8.133e+00,8.171e+00,9.229e+00,7.843e+00,9.050e+00,7.970e+00,7.132e+00,9.118e+00,9.632e+00,8.443e+00,9.766e+00,1.163e+01,9.012e+00,1.144e+01,1.238e+01,8.031e+00,9.630e+00,9.915e+00,8.692e+00,9.825e+00,1.055e+01,9.824e+00,1.065e+01,1.110e+01,1.175e+01,1.014e+01,1.009e+01,1.051e+01,9.958e+00,8.986e+00
1.554e-01,5.159e-01,8.800e-01,8.859e-01,8.836e-01,7.848e-01,1.315e+00,1.954e+00,3.102e+00,3.221e+00,2.482e+00,1.987e+00,2.393e+00,2.691e+00,2.603e+00,3.573e+00,3.623e+00,4.524e+00,4.341e+00,3.960e+00,5.051e+00,2.927e+00,4.769e+00,5.241e+00,7.162e+00,6.335e+00,5.099e+00,6.605e+00,6.377e+00,5.127e+00,6.759e+00,6.490e+00,7.240e+00,7.878e+00,8.136e+00,7.562e+00,9.978e+00,7.457e+00,9.385e+00,7.861e+00,6.970e+00,1.041e+01,7.838e+00,7.622e+00,9.769e+00,1.086e+01,1.008e+01,1.048e+01,1.135e+01,8.194e+00,8.548e+00,9.965e+00,9.113e+00,1.032e+01,1.112e+01,9.534e+00,1.125e+01,1.072e+01,1.194e+01,9.813e+00,1.068e+01,1.076e+01,9.457e+00,9.907e+00
6.483e-01,9.959e-01,1.466e+00,1.563e+00,1.582e+00,1.541e+00,2.384e+00,2.141e+00,3.330e+00,3.160e+00,2.668e+00,2.341e+00,2.024e+00,3.341e+00,3.111e+00,3.234e+00,3.996e+00,4.141e+00,3.888e+00,3.276e+00,5.021e+00,3.246e+00,4.665e+00,5.887e+00,6.995e+00,6.453e+00,4.737e+00,7.357e+00,6.587e+00,5.113e+00,7.038e+00,7.218e+00,6.535e+00,7.956e+00,8.027e+00,7.793e+00,8.555e+00,6.419e+00,8.441e+00,8.348e+00,6.928e+00,8.416e+00,7.541e+00,6.745e+00,9.280e+00,1.007e+01,9.885e+00,1.136e+01,1.130e+01,8.966e+00,9.105e+00,9.598e+00,9.477e+00,9.243e+00,1.102e+01,9.219e+00,1.005e+01,9.143e+00,1.189e+01,9.544e+00,8.462e+00,1.036e+01,9.256e+00,9.022e+00
3.331e-01,7.059e-01,1.214e+00,1.211e+00,1.339e+00,1.179e+00,2.287e+00,2.506e+00,3.511e+00,3.532e+00,2.709e+00,2.474e+00,2.106e+00,3.168e+00,3.095e+00,3.922e+00,3.948e+00,4.398e+00,4.157e+00,3.459e+00,5.185e+00,3.761e+00,5.174e+00,5.273e+00,5.787e+00,6.023e+00,4.971e+00,7.985e+00,7.488e+00,5.174e+00,7.001e+00,7.457e+00,7.913e+00,9.088e+00,8.745e+00,8.905e+00,1.019e+01,6.990e+00,9.785e+00,8.531e+00,6.906e+00,9.645e+00,1.031e+01,9.665e+00,1.068e+01,1.248e+01,1.161e+01,1.258e+01,1.326e+01,1.114e+01,1.063e+01,1.188e+01,1.063e+01,1.129e+01,1.355e+01,1.146e+01,1.200e+01,1.166e+01,1.220e+01,1.173e+01,1.098e+01,1.197e+01,1.340e+01,1.018e+01
6.003e-01,7.178e-01,1.454e+00,1.378e+00,1.889e+00,9.552e-01,2.082e+00,1.630e+00,2.599e+00,2.930e+00,2.050e+00,2.428e+00,1.744e+00,3.245e+00,3.363e+00,3.567e+00,3.856e+00,3.321e+00,3.759e+00,3.517e+00,4.203e+00,3.000e+00,4.063e+00,5.497e+00,5.876e+00,6.313e+00,4.801e+00,7.254e+00,6.181e+00,5.254e+00,6.889e+00,7.062e+00,6.948e+00,8.462e+00,8.389e+00,7.226e+00,8.914e+00,6.988e+00,8.827e+00,8.258e+00,6.940e+00,8.439e+00,8.597e+00,7.805e+00,9.716e+00,1.100e+01,1.153e+01,1.180e+01,1.249e+01,9.949e+00,1.059e+01,1.251e+01,1.074e+01,1.215e+01,1.121e+01,1.013e+01,1.031e+01,1.153e+01,1.176e+01,1.223e+01,1.057e+01,1.195e+01,1.124e+01,9.969e+00
5.240e-01,5.189e-01,9.376e-01,8.774e-01,9.412e-01,5.148e-01,1.454e+00,1.515e+00,2.149e+00,2.479e+00,1.824e+00,2.144e+00,2.185e+00,2.670e+00,3.045e+00,3.373e+00,3.669e+00,3.826e+00,4.790e+00,3.496e+00,4.225e+00,3.143e+00,5.067e+00,6.429e+00,6.467e+00,6.598e+00,5.809e+00,7.309e+00,7.386e+00,4.989e+00,8.826e+00,7.640e+00,8.119e+00,8.741e+00,9.396e+00,8.426e+00,1.144e+01,7.878e+00,9.677e+00,8.091e+00,7.350e+00,9.214e+00,9.202e+00,9.009e+00,1.043e+01,1.152e+01,1.012e+01,1.151e+01,1.355e+01,8.594e+00,1.018e+01,1.224e+01,1.126e+01,1.136e+01,1.202e+01,1.150e+01,1.059e+01,1.244e+01,1.308e+01,1.183e+01,1.135e+01,1.204e+01,1.107e+01,1.089e+01
1.111e-01,1.599e-01,5.133e-01,5.329e-01,1.788e+00,1.444e+00,1.913e+00,2.410e+00,3.952e+00,3.594e+00,2.570e+00,2.352e+00,3.656e+00,3.852e+00,3.945e+00,5.041e+00,4.999e+00,5.527e+00,5.549e+00,4.743e+00,6.302e+00,4.167e+00,6.432e+00,6.448e+00,6.451e+00,7.683e+00,5.325e+00,8.489e+00,7.237e+00,5.126e+00,7.117e+00,7.499e+00,7.896e+00,9.589e+00,8.703e+00,9.219e+00,9.713e+00,8.799e+00,1.144e+01,9.251e+00,8.166e+00,1.033e+01,9.718e+00,9.650e+00,1.104e+01,1.250e+01,1.177e+01,1.381e+01,1.499e+01,1.193e+01,1.310e+01,1.275e+01,1.284e+01,1.409e+01,1.597e+01,1.257e+01,1.269e+01,1.311e+01,1.456e+01,1.365e+01,1.189e+01,1.429e+01,1.326e+01,1.285e+01
4.520e-01,7.382e-01,1.482e+00,1.434e+00,2.141e+00,1.393e+00,2.499e+00,2.383e+00,3.514e+00,3.270e+00,2.499e+00,2.380e+00,2.403e+00,3.148e+00,3.591e+00,3.632e+00,4.249e+00,4.648e+00,4.632e+00,4.208e+00,5.911e+00,3.778e+00,5.444e+00,6.751e+00,7.987e+00,7.541e+00,6.393e+00,9.445e+00,7.685e+00,6.007e+00,9.101e+00,9.746e+00,9.803e+00,1.078e+01,1.019e+01,1.003e+01,1.202e+01,8.851e+00,1.215e+01,1.032e+01,9.141e+00,1.181e+01,1.153e+01,1.048e+01,1.284e+01,1.398e+01,1.373e+01,1.436e+01,1.555e+01,1.264e+01,1.314e+01,1.402e+01,1.419e+01,1.537e+01,1.451e+01,1.300e+01,1.351e+01,1.470e+01,1.670e+01,1.462e+01,1.207e+01,1.476e+01,1.361e+01,1.344e+01
9.093e-02,5.911e-01,1.074e+00,1.083e+00,1.115e+00,9.594e-01,1.647e+00,1.641e+00,3.015e+00,3.156e+00,2.141e+00,1.771e+00,2.079e+00,2.680e+00,2.791e+00,3.772e+00,3.822e+00,4.366e+00,4.436e+00,3.679e+00,5.014e+00,3.640e+00,5.767e+00,6.403e+00,7.911e+00,7.757e+00,6.082e+00,8.451e+00,8.014e+00,5.139e+00,7.503e+00,8.338e+00,8.561e+00,9.396e+00,9.201e+00,8.895e+00,1.015e+01,6.646e+00,1.098e+01,8.660e+00,8.434e+00,1.114e+01,9.404e+00,8.004e+00,1.109e+01,1.175e+01,1.125e+01,1.281e+01,1.350e+01,1.044e+01,1.120e+01,1.172e+01,1.205e+01,1.318e+01,1.472e+01,1.200e+01,1.380e+01,1.308e+01,1.498e+01,1.404e+01,1.205e+01,1.408e+01,1.245e+01,1.210e+01
6.424e-02,2.234e-01,4.680e-01,4.314e-01,4.321e-01,2.842e-01,7.173e-01,9.587e-01,1.566e+00,1.648e+00,1.279e+00,1.323e+00,1.933e+00,2.163e+00,2.391e+00,2.759e+00,2.897e+00,3.189e+00,3.804e+00,2.809e+00,3.716e+00,2.464e+00,4.738e+00,5.203e+00,4.514e+00,5.116e+00,4.666e+00,5.689e+00,5.538e+00,3.762e+00,6.160e+00,5.454e+00,5.668e+00,7.370e+00,7.999e+00,6.936e+00,9.603e+00,6.770e+00,9.802e+00,8.020e+00,6.693e+00,8.887e+00,8.739e+00,7.402e+00,9.766e+00,1.095e+01,9.896e+00,1.082e+01,1.273e+01,9.347e+00,1.088e+01,1.194e+01,1.220e+01,1.394e+01,1.370e+01,1.303e+01,1.133e+01,1.329e+01,1.340e+01,1.407e+01,1.168e+01,1.358e+01,1.179e+01,1.111e+01
2.453e-01,6.631e-01,1.143e+00,1.160e+00,1.150e+00,8.884e-01,1.839e+00,1.509e+00,2.612e+00,3.133e+00,1.937e+00,2.037e+00,2.407e+00,3.509e+00,3.118e+00,3.856e+00,4.202e+00,4.216e+00,4.026e+00,3.763e+00,6.072e+00,3.304e+00,5.695e+00,6.309e+00,6.129e+00,7.404e+00,5.761e+00,8.752e+00,8.175e+00,6.101e+00,7.932e+00,8.649e+00,7.732e+00,1.057e+01,9.878e+00,9.602e+00,1.004e+01,8.579e+00,1.006e+01,8.287e+00,7.975e+00,1.016e+01,1.019e+01,9.475e+00,1.054e+01,1.238e+01,1.203e+01,1.308e+01,1.399e+01,1.184e+01,1.089e+01,1.358e+01,1.412e+01,1.487e+01,1.494e+01,1.366e+01,1.437e+01,1.325e+01,1.523e+01,1.487e+01,1.261e+01,1.630e+01,1.355e+01,1.192e+01
7.185e-01,1.013e+00,1.458e+00,1.483e+00,8.465e-01,9.242e-01,2.028e+00,2.163e+00,3.187e+00,3.377e+00,2.472e+00,2.228e+00,2.554e+00,3.108e+00,2.759e+00,3.925e+00,4.853e+00,5.403e+00,4.623e+00,4.554e+00,6.436e+00,3.917e+00,6.097e+00,6.199e+00,7.407e+00,6.675e+00,6.344e+00,8.127e+00,7.163e+00,6.576e+00,8.954e+00,8.244e+00,7.779e+00,1.041e+01,1.013e+01,9.350e+00,1.164e+01,9.002e+00,1.117e+01,9.878e+00,7.591e+00,1.136e+01,1.021e+01,1.023e+01,1.224e+01,1.402e+01,1.388e+01,1.305e+01,1.500e+01,1.166e+01,1.223e+01,1.453e+01,1.425e+01,1.472e+01,1.634e+01,1.576e+01,1.476e+01,1.426e+01,1.556e+01,1.503e+01,1.444e+01,1.521e+01,1.403e+01,1.355e+01
3.173e-01,7.537e-01,1.152e+00,1.145e+00,4.985e-01,4.884e-01,1.393e+00,1.531e+00,2.149e+00,2.597e+00,2.116e+00,2.101e+00,1.509e+00,2.908e+00,2.536e+00,3.078e+00,3.914e+00,4.218e+00,4.005e+00,3.320e+00,5.416e+00,2.667e+00,4.989e+00,5.354e+00,6.686e+00,6.149e+00,5.740e+00,8.157e+00,6.777e+00,6.629e+00,6.736e+00,7.842e+00,7.400e+00,8.764e+00,8.435e+00,8.026e+00,1.071e+01,6.652e+00,9.478e+00,8.363e+00,7.316e+00,1.010e+01,1.019e+01,9.047e+00,1.067e+01,1.196e+01,1.228e+01,1.268e+01,1.387e+01,1.178e+01,1.261e+01,1.397e+01,1.249e+01,1.620e+01,1.497e+01,1.572e+01,1.496e+01,1.427e+01,1.473e+01,1.575e+01,1.349e+01,1.678e+01,1.424e+01,1.396e+01
9.239e-03,3.265e-01,8.355e-01,7.796e-01,1.289e+00,8.262e-01,1.275e+00,1.641e+00,2.846e+00,2.683e+00,2.063e+00,1.830e+00,2.496e+00,3.150e+00,3.177e+00,3.860e+00,4.279e+00,4.535e+00,4.543e+00,3.961e+00,5.428e+00,3.282e+00,5.655e+00,5.414e+00,6.651e+00,6.547e+00,6.248e+00,8.224e+00,6.801e+00,6.072e+00,6.968e+00,6.961e+00,6.861e+00,8.315e+00,7.851e+00,8.333e+00,9.562e+00,7.660e+00,9.874e+00,8.882e+00,7.486e+00,1.028e+01,8.844e+00,8.478e+00,1.017e+01,1.202e+01,1.193e+01,1.177e+01,1.267e+01,1.175e+01,1.147e+01,1.249e+01,1.327e+01,1.499e+01,1.551e+01,1.506e+01,1.437e+01,1.405e+01,1.556e+01,1.583e+01,1.351e+01,1.578e+01,1.334e+01,1.395e+01
9.287e-02,1.071e-01,2.294e-01,2.225e-01,6.721e-01,6.253e-01,9.971e-01,1.764e+00,2.247e+00,2.188e+00,1.776e+00,1.682e+00,2.352e+00,2.149e+00,2.326e+00,3.207e+00,3.804e+00,4.410e+00,4.346e+00,4.202e+00,5.125e+00,2.813e+00,5.344e+00,4.720e+00,6.604e+00,6.354e+00,4.889e+00,7.643e+00,5.529e+00,5.621e+00,6.413e+00,6.209e+00,7.257e+00,7.774e+00,7.443e+00,6.771e+00,9.397e+00,6.805e+00,9.041e+00,8.352e+00,5.903e+00,9.213e+00,9.518e+00,8.463e+00,8.932e+00,1.155e+01,1.167e+01,1.105e+01,1.190e+01,1.131e+01,1.113e+01,1.268e+01,1.053e+01,1.368e+01,1.398e+01,1.441e+01,1.499e+01,1.348e+01,1.530e+01,1.409e+01,1.209e+01,1.393e+01,1.334e+01,1.336e+01
2.150e-01,2.364e-01,7.692e-01,6.227e-01,1.330e+00,7.544e-01,1.976e+00,2.280e+00,2.736e+00,2.469e+00,2.380e+00,2.225e+00,2.293e+00,3.609e+00,3.409e+00,3.986e+00,4.254e+00,4.443e+00,5.404e+00,3.160e+00,5.629e+00,4.174e+00,6.327e+00,5.956e+00,8.615e+00,7.949e+00,5.614e+00,9.463e+00,8.510e+00,6.376e+00,7.726e+00,8.549e+00,8.199e+00,9.386e+00,9.848e+00,9.078e+00,1.236e+01,7.714e+00,1.079e+01,9.075e+00,8.456e+00,1.030e+01,1.002e+01,1.064e+01,1.010e+01,1.208e+01,1.301e+01,1.268e+01,1.354e+01,1.168e+01,1.220e+01,1.390e+01,1.334e+01,1.353e+01,1.482e+01,1.414e+01,1.311e+01,1.376e+01,1.564e+01,1.506e+01,1.265e+01,1.444e+01,1.370e+01,1.361e+01
1.545e-01,6.059e-01,1.061e+00,1.012e+00,6.128e-01,4.139e-01,1.191e+00,1.670e+00,2.454e+00,2.614e+00,2.010e+00,1.367e+00,1.805e+00,2.034e+00,1.750e+00,2.840e+00,3.624e+00,3.811e+00,3.629e+00,3.024e+00,4.900e+00,2.463e+00,4.419e+00,4.386e+00,6.223e+00,5.315e+00,5.391e+00,7.010e+00,6.082e+00,5.660e+00,6.509e+00,6.266e+00,7.567e+00,8.300e+00,7.610e+00,7.662e+00,1.032e+01,6.451e+00,9.800e+00,8.706e+00,6.790e+00,1.004e+01,9.569e+00,1.017e+01,1.032e+01,1.211e+01,1.183e+01,1.171e+01,1.292e+01,1.015e+01,1.090e+01,1.316e+01,1.221e+01,1.430e+01,1.570e+01,1.470e+01,1.513e+01,1.411e+01,1.601e+01,1.544e+01,1.329e+01,1.615e+01,1.452e+01,1.462e+01
4.752e-01,6.232e-01,8.966e-01,9.293e-01,7.378e-01,7.563e-01,1.478e+00,1.407e+00,2.202e+00,2.417e+00,1.563e+00,1.343e+00,2.335e+00,2.302e+00,1.918e+00,3.219e+00,3.212e+00,3.290e+00,3.701e+00,3.950e+00,4.878e+00,2.746e+00,4.121e+00,4.872e+00,5.089e+00,5.944e+00,4.572e+00,6.179e+00,5.712e+00,4.313e+00,6.041e+00,5.865e+00,6.443e+00,7.407e+00,7.953e+00,7.003e+00,8.008e+00,6.887e+00,9.688e+00,8.548e+00,7.287e+00,8.819e+00,9.115e+00,7.846e+00,9.649e+00,1.176e+01,1.077e+01,1.190e+01,1.304e+01,9.805e+00,9.628e+00,1.173e+01,1.164e+01,1.507e+01,1.460e+01,1.357e+01,1.450e+01,1.324e+01,1.472e+01,1.561e+01,1.376e+01,1.538e+01,1.398e+01,1.443e+01
5.185e-01,3.862e-01,8.113e-01,7.747e-01,1.431e+00,8.603e-01,1.580e+00,1.941e+00,2.820e+00,2.602e+00,2.327e+00,2.426e+00,2.060e+00,3.536e+00,3.105e+00,3.554e+00,3.796e+00,4.079e+00,4.455e+00,3.468e+00,5.472e+00,3.242e+00,4.887e+00,5.180e+00,6.877e+00,6.604e+00,4.591e+00,7.076e+00,6.192e+00,5.510e+00,6.725e+00,6.965e+00,6.938e+00,8.936e+00,8.217e+00,7.725e+00,8.857e+00,7.191e+00,9.167e+00,8.063e+00,6.958e+00,8.726e+00,8.840e+00,9.297e+00,9.482e+00,1.089e+01,1.136e+01,1.219e+01,1.294e+01,9.726e+00,1.108e+01,1.230e+01,1.172e+01,1.348e+01,1.394e+01,1.416e+01,1.406e+01,1.363e+01,1.620e+01,1.453e+01,1.415e+01,1.562e+01,1.497e+01,1.470e+01
1.667e-02,4.205e-01,6.581e-01,6.702e-01,6.306e-01,9.615e-01,1.539e+00,2.024e+00,2.607e+00,2.000e+00,2.006e+00,1.422e+00,2.355e+00,2.479e+00,2.543e+00,3.217e+00,3.578e+00,4.185e+00,4.523e+00,3.337e+00,5.186e+00,3.846e+00,6.274e+00,5.973e+00,7.404e+00,7.113e+00,5.518e+00,8.279e+00,7.580e+00,4.842e+00,7.597e+00,7.446e+00,7.944e+00,8.890e+00,9.512e+00,8.040e+00,1.086e+01,6.786e+00,1.108e+01,8.590e+00,7.649e+00,1.053e+01,1.000e+01,9.372e+00,1.090e+01,1.286e+01,1.242e+01,1.356e+01,1.405e+01,1.120e+01,1.255e+01,1.324e+01,1.359e+01,1.551e+01,1.580e+01,1.495e+01,1.532e+01,1.611e+01,1.687e+01,1.752e+01,1.534e+01,1.765e+01,1.587e+01,1.638e+01
5.625e-01,7.602e-01,1.308e+00,1.302e+00,1.514e+00,1.039e+00,1.925e+00,1.968e+00,2.993e+00,3.224e+00,2.417e+00,2.784e+00,2.775e+00,3.789e+00,4.008e+00,4.406e+00,5.542e+00,5.443e+00,5.751e+00,5.481e+00,6.957e+00,3.584e+00,6.522e+00,7.828e+00,7.773e+00,8.611e+00,6.117e+00,8.992e+00,8.296e+00,6.022e+00,8.999e+00,8.622e+00,8.594e+00,1.068e+01,1.133e+01,9.863e+00,1.156e+01,1.046e+01,1.268e+01,1.045e+01,9.176e+00,1.107e+01,1.056e+01,1.063e+01,1.266e+01,1.272e+01,1.270e+01,1.355e+01,1.493e+01,1.130e+01,1.382e+01,1.469e+01,1.352e+01,1.628e+01,1.618e+01,1.659e+01,1.811e+01,1.515e+01,1.790e+01,1.926e+01,1.546e+01,1.839e+01,1.544e+01,1.938e+01
2.302e-01,4.999e-01,1.200e+00,1.064e+00,1.424e+00,8.259e-01,1.902e+00,2.473e+00,3.739e+00,3.711e+00,3.091e+00,2.863e+00,2.418e+00,3.904e+00,3.924e+00,5.140e+00,4.995e+00,5.630e+00,5.868e+00,4.460e+00,6.105e+00,4.036e+00,6.181e+00,6.621e+00,8.340e+00,7.938e+00,5.977e+00,8.802e+00,8.363e+00,6.761e+00,8.225e+00,8.826e+00,7.952e+00,1.007e+01,9.272e+00,9.672e+00,1.096e+01,8.635e+00,1.093e+01,9.403e+00,8.868e+00,1.042e+01,9.811e+00,9.806e+00,1.035e+01,1.225e+01,1.281e+01,1.323e+01,1.493e+01,1.266e+01,1.200e+01,1.416e+01,1.436e+01,1.588e+01,1.646e+01,1.488e+01,1.599e+01,1.539e+01,1.702e+01,1.711e+01,1.474e+01,1.808e+01,1.592e+01,1.577e+01
