7.344e-01,1.940e-01,2.708e-01,9.207e-01,4.725e-01,8.113e-01,2.086e-01,4.758e-01,2.035e-01,8.540e-01,9.083e-01,4.140e-01,5.710e-01,7.845e-01,4.693e-01,5.301e-01,6.844e-02,8.393e-01,2.277e-01,5.790e-01,9.630e-01,7.126e-01,5.200e-01,9.003e-01,4.898e-02,4.701e-01,9.859e-03,2.699e-01,9.731e-01,6.489e-01,3.740e-01,3.305e-01,7.776e-01,3.057e-01,8.619e-01,9.263e-01,3.959e-01,8.538e-02,1.592e-01,1.443e-01,8.192e-01,5.431e-01,9.576e-01,6.423e-01,3.335e-01,5.088e-01,8.441e-01,7.771e-01,6.241e-01,2.326e-01,7.250e-02,4.565e-01,2.458e-01,8.321e-01,6.181e-03,1.454e-01,9.322e-01,2.207e-01,2.178e-01,4.726e-01,2.041e-01,4.987e-01,5.460e-01,8.597e-01,4.176e-02,3.169e-01,3.833e-01,4.564e-01,8.814e-01,4.013e-01,3.732e-01,8.196e-01,5.852e-01,9.340e-01,9.114e-01,8.768e-01,7.508e-01,3.601e-01,3.561e-01,4.237e-01,1.041e-01,1.193e-01,8.585e-01,2.446e-01,6.653e-01,5.535e-01,9.138e-01,5.861e-01,7.956e-01,5.973e-01
2.443e-01,1.477e-01,1.016e+00,1.001e+00,7.770e-01,8.087e-01,6.906e-01,6.269e-01,5.229e-01,3.110e-01,1.138e+00,7.388e-01,3.594e-01,8.292e-01,6.446e-01,2.129e-01,3.827e-01,4.165e-01,2.548e-01,4.885e-01,9.136e-01,1.200e+00,1.084e+00,8.287e-01,7.487e-01,1.152e+00,8.796e-01,9.422e-01,9.142e-01,8.718e-01,2.695e-01,7.219e-01,1.151e+00,1.978e-01,6.843e-01,1.096e+00,3.330e-01,8.674e-01,1.095e-01,5.830e-02,3.073e-01,1.057e+00,6.556e-01,2.265e-01,1.001e+00,5.869e-01,2.845e-01,3.679e-01,6.161e-01,6.671e-01,6.737e-01,7.949e-01,6.905e-01,1.156e+00,9.569e-01,5.178e-01,8.101e-01,2.961e-01,8.754e-01,5.454e-01,1.015e+00,8.379e-01,6.305e-01,3.625e-01,6.243e-01,2.418e-01,2.796e-01,6.092e-01,8.862e-01,1.821e-01,3.595e-01,5.954e-01,7.641e-01,6.937e-01,1.195e+00,4.443e-01,3.816e-01,6.847e-01,9.505e-01,2.108e-01,7.102e-01,7.569e-01,1.139e+00,7.375e-01,6.383e-01,5.637e-01,6.852e-01,7.200e-01,3.005e-01,8.167e-01
2.145e-01,6.593e-02,9.890e-01,1.335e+00,2.312e-01,1.177e+00,9.730e-01,5.656e-01,2.059e-01,1.004e+00,1.269e+00,7.641e-01,9.657e-01,4.603e-01,3.219e-01,1.084e+00,5.095e-01,4.165e-01,3.987e-01,2.805e-01,1.149e+00,1.153e+00,8.511e-01,5.250e-01,4.031e-01,1.128e+00,1.005e+00,6.900e-01,1.097e+00,4.994e-01,8.861e-01,6.514e-01,4.487e-01,4.212e-01,1.144e+00,1.332e+00,1.109e+00,3.153e-01,7.305e-01,1.564e-01,4.521e-01,9.807e-01,4.633e-01,5.380e-01,7.060e-01,8.617e-01,2.938e-01,4.996e-01,2.609e-01,9.384e-01,6.497e-01,1.132e+00,7.132e-01,1.069e+00,1.012e+00,4.740e-01,6.311e-01,4.483e-01,9.379e-01,2.711e-01,8.973e-01,7.629e-01,2.540e-01,3.693e-01,8.790e-01,6.194e-01,6.420e-01,8.220e-01,8.382e-01,6.053e-01,3.695e-01,5.946e-01,3.568e-01,4.925e-01,7.717e-01,4.970e-01,7.000e-01,6.485e-01,9.102e-01,4.946e-01,8.114e-01,6.303e-01,8.985e-01,7.051e-01,9.186e-01,5.403e-01,9.785e-01,4.136e-01,5.336e-01,6.991e-01
4.641e-01,1.947e-01,9.744e-01,1.917e+00,1.820e+00,1.180e+00,1.600e+00,1.342e+00,1.428e+00,1.198e+00,1.781e+00,9.387e-01,6.551e-01,1.973e+00,1.553e+00,4.570e-01,4.405e-01,1.272e+00,8.765e-01,1.307e+00,1.950e+00,1.388e+00,2.066e+00,2.019e+00,1.299e+00,1.173e+00,9.227e-01,1.398e+00,1.941e+00,1.643e+00,5.095e-01,1.350e+00,2.203e+00,3.742e-01,1.813e+00,2.208e+00,9.262e-01,1.497e+00,6.599e-01,6.663e-01,8.243e-01,1.857e+00,1.247e+00,1.090e+00,1.783e+00,7.178e-01,1.023e+00,1.355e+00,1.016e+00,8.735e-01,7.374e-01,1.847e+00,9.264e-01,1.611e+00,1.432e+00,1.176e+00,1.766e+00,1.273e+00,1.664e+00,1.610e+00,1.781e+00,9.711e-01,9.456e-01,6.879e-01,1.380e+00,1.151e+00,1.296e+00,8.868e-01,1.387e+00,7.379e-01,8.195e-01,1.036e+00,1.855e+00,1.312e+00,2.070e+00,1.160e+00,9.351e-01,9.697e-01,1.651e+00,1.171e+00,9.239e-01,1.455e+00,1.982e+00,8.286e-01,1.391e+00,1.363e+00,1.902e+00,1.427e+00,6.332e-01,1.733e+00
6.090e-02,3.782e-02,5.430e-01,9.930e-01,1.442e+00,1.225e+00,1.865e+00,1.079e+00,1.654e+00,9.327e-01,1.457e+00,9.350e-01,4.525e-01,1.102e+00,9.041e-01,1.134e+00,1.139e+00,1.120e+00,1.181e+00,1.174e+00,1.858e+00,1.348e+00,1.102e+00,9.555e-01,1.223e+00,1.438e+00,1.572e+00,1.398e+00,1.797e+00,9.930e-01,6.113e-01,1.369e+00,1.517e+00,7.294e-01,1.161e+00,1.661e+00,1.202e+00,1.033e+00,9.186e-01,6.171e-01,8.520e-01,1.340e+00,1.135e+00,7.920e-01,1.411e+00,6.153e-01,7.267e-01,1.258e+00,4.366e-01,1.224e+00,7.701e-01,1.326e+00,1.300e+00,1.027e+00,1.635e+00,9.193e-01,1.599e+00,1.160e+00,1.032e+00,8.898e-01,1.593e+00,7.663e-01,5.659e-01,4.589e-01,1.331e+00,7.360e-01,1.325e+00,9.148e-01,6.816e-01,1.295e+00,7.279e-01,6.444e-01,1.502e+00,1.305e+00,1.362e+00,1.216e+00,1.003e+00,1.046e+00,1.258e+00,9.952e-01,5.767e-01,9.050e-01,1.330e+00,1.348e+00,1.072e+00,1.517e+00,1.660e+00,8.501e-01,6.518e-01,1.282e+00
1.639e-01,1.154e-01,1.037e+00,1.731e+00,2.157e+00,2.235e+00,2.575e+00,1.841e+00,2.859e+00,1.690e+00,2.919e+00,1.389e+00,1.257e+00,2.666e+00,2.118e+00,1.998e+00,1.241e+00,1.656e+00,1.903e+00,1.762e+00,2.627e+00,2.165e+00,2.042e+00,2.248e+00,2.626e+00,2.619e+00,2.205e+00,2.138e+00,3.176e+00,2.100e+00,8.513e-01,2.690e+00,2.466e+00,1.455e+00,2.356e+00,2.441e+00,1.715e+00,2.351e+00,1.081e+00,9.689e-01,1.206e+00,2.742e+00,1.857e+00,1.730e+00,3.070e+00,1.722e+00,1.197e+00,1.941e+00,1.376e+00,2.425e+00,1.885e+00,2.913e+00,2.452e+00,2.335e+00,2.717e+00,2.236e+00,3.038e+00,1.704e+00,2.556e+00,1.601e+00,3.015e+00,1.605e+00,1.224e+00,1.406e+00,2.571e+00,1.275e+00,2.363e+00,2.111e+00,2.044e+00,1.810e+00,1.438e+00,1.047e+00,2.377e+00,2.578e+00,3.168e+00,2.429e+00,1.349e+00,2.325e+00,2.397e+00,1.787e+00,1.386e+00,1.889e+00,2.751e+00,1.773e+00,2.230e+00,1.985e+00,2.740e+00,1.837e+00,1.510e+00,2.811e+00
4.492e-02,5.580e-02,8.939e-01,1.046e+00,1.013e+00,1.209e+00,1.777e+00,1.612e+00,1.823e+00,1.325e+00,2.389e+00,1.547e+00,6.884e-01,1.837e+00,1.439e+00,1.474e+00,1.168e+00,8.336e-01,1.295e+00,1.523e+00,1.646e+00,2.198e+00,1.955e+00,1.594e+00,1.796e+00,2.355e+00,2.135e+00,1.296e+00,1.586e+00,1.854e+00,8.478e-01,1.845e+00,1.763e+00,6.839e-01,1.215e+00,2.143e+00,1.598e+00,1.771e+00,1.008e+00,6.635e-01,1.336e+00,1.335e+00,9.684e-01,1.298e+00,1.802e+00,1.192e+00,5.523e-01,1.681e+00,6.222e-01,1.459e+00,1.426e+00,1.634e+00,1.852e+00,1.395e+00,1.656e+00,1.740e+00,1.858e+00,1.452e+00,1.520e+00,1.275e+00,2.326e+00,1.255e+00,5.755e-01,7.464e-01,1.724e+00,1.064e+00,1.729e+00,9.787e-01,1.302e+00,1.809e+00,7.456e-01,9.378e-01,2.050e+00,1.257e+00,2.029e+00,1.359e+00,7.754e-01,1.014e+00,1.394e+00,6.648e-01,9.356e-01,1.699e+00,1.633e+00,2.155e+00,1.864e+00,1.970e+00,1.478e+00,9.279e-01,1.422e+00,1.788e+00
1.760e-01,1.201e-01,1.351e+00,1.542e+00,1.383e+00,1.895e+00,2.160e+00,1.945e+00,2.815e+00,2.161e+00,3.611e+00,2.502e+00,1.987e+00,2.731e+00,2.356e+00,2.336e+00,1.929e+00,1.346e+00,1.692e+00,2.082e+00,2.325e+00,2.984e+00,2.478e+00,1.821e+00,2.306e+00,3.003e+00,3.032e+00,2.247e+00,3.113e+00,2.243e+00,1.351e+00,2.317e+00,2.753e+00,1.896e+00,1.755e+00,2.787e+00,1.805e+00,2.641e+00,1.891e+00,1.011e+00,1.520e+00,2.314e+00,1.965e+00,1.577e+00,3.319e+00,1.841e+00,1.189e+00,2.016e+00,1.562e+00,2.331e+00,2.276e+00,3.079e+00,2.626e+00,2.105e+00,3.037e+00,2.492e+00,2.520e+00,1.581e+00,2.325e+00,2.208e+00,3.319e+00,1.967e+00,1.836e+00,1.524e+00,2.147e+00,1.456e+00,2.296e+00,1.844e+00,2.055e+00,2.344e+00,1.742e+00,1.601e+00,2.281e+00,2.153e+00,3.204e+00,2.737e+00,1.361e+00,1.798e+00,2.334e+00,1.741e+00,1.754e+00,2.437e+00,3.200e+00,3.226e+00,2.526e+00,2.883e+00,2.354e+00,1.418e+00,1.579e+00,3.022e+00
4.082e-01,1.544e-01,8.200e-01,1.544e+00,1.572e+00,1.421e+00,1.683e+00,1.499e+00,2.960e+00,2.652e+00,3.323e+00,2.489e+00,1.808e+00,2.981e+00,2.164e+00,1.981e+00,1.952e+00,1.964e+00,1.401e+00,1.901e+00,3.121e+00,2.346e+00,2.941e+00,2.224e+00,1.681e+00,2.204e+00,2.245e+00,2.091e+00,3.440e+00,2.688e+00,1.826e+00,1.701e+00,2.917e+00,1.763e+00,2.288e+00,3.295e+00,1.539e+00,2.003e+00,2.233e+00,1.819e+00,1.796e+00,2.560e+00,2.282e+00,2.135e+00,3.237e+00,2.115e+00,1.777e+00,2.431e+00,2.421e+00,1.575e+00,1.506e+00,3.372e+00,2.000e+00,1.714e+00,3.167e+00,2.522e+00,2.949e+00,2.267e+00,1.796e+00,2.515e+00,3.181e+00,1.835e+00,2.435e+00,1.587e+00,1.748e+00,1.739e+00,2.480e+00,1.747e+00,2.581e+00,1.661e+00,2.332e+00,2.095e+00,2.035e+00,2.599e+00,3.200e+00,3.309e+00,1.867e+00,2.308e+00,2.462e+00,1.933e+00,1.610e+00,1.854e+00,3.539e+00,2.657e+00,2.644e+00,2.882e+00,2.639e+00,1.777e+00,1.335e+00,2.540e+00
4.558e-02,5.476e-02,5.822e-01,6.940e-01,1.210e+00,1.386e+00,1.806e+00,1.859e+00,3.432e+00,3.156e+00,3.920e+00,3.425e+00,1.569e+00,3.957e+00,3.321e+00,2.571e+00,2.403e+00,1.696e+00,2.750e+00,2.361e+00,3.328e+00,3.042e+00,3.201e+00,2.661e+00,2.735e+00,3.131e+00,3.462e+00,2.296e+00,3.177e+00,3.127e+00,2.089e+00,3.174e+00,3.035e+00,2.240e+00,1.770e+00,3.658e+00,2.192e+00,3.284e+00,2.450e+00,2.069e+00,2.913e+00,2.339e+00,2.046e+00,2.927e+00,3.861e+00,2.553e+00,1.893e+00,3.208e+00,2.403e+00,2.999e+00,2.205e+00,3.958e+00,3.653e+00,2.235e+00,3.417e+00,3.337e+00,4.077e+00,2.725e+00,2.241e+00,3.173e+00,4.075e+00,1.992e+00,2.181e+00,1.885e+00,2.956e+00,2.332e+00,3.066e+00,2.512e+00,2.908e+00,2.673e+00,2.509e+00,2.023e+00,3.259e+00,2.817e+00,4.207e+00,3.658e+00,2.083e+00,2.499e+00,2.973e+00,2.081e+00,1.493e+00,2.782e+00,3.409e+00,4.310e+00,3.052e+00,3.625e+00,2.525e+00,1.671e+00,2.078e+00,3.528e+00
4.004e-01,1.364e-01,8.801e-01,1.936e+00,1.791e+00,2.034e+00,2.430e+00,2.385e+00,3.920e+00,3.667e+00,5.125e+00,3.388e+00,3.074e+00,4.758e+00,3.734e+00,3.671e+00,3.002e+00,2.797e+00,3.055e+00,3.386e+00,4.288e+00,3.961e+00,4.715e+00,3.701e+00,3.128e+00,3.408e+00,3.462e+00,2.736e+00,4.849e+00,4.267e+00,2.967e+00,3.752e+00,3.562e+00,2.927e+00,3.944e+00,4.251e+00,3.030e+00,3.351e+00,3.663e+00,2.566e+00,2.613e+00,3.382e+00,3.121e+00,3.384e+00,4.755e+00,3.451e+00,2.182e+00,3.489e+00,3.412e+00,2.681e+00,3.322e+00,4.781e+00,3.380e+00,2.982e+00,3.821e+00,4.056e+00,4.971e+00,3.338e+00,2.969e+00,4.067e+00,5.285e+00,3.066e+00,3.100e+00,2.278e+00,3.662e+00,2.914e+00,4.649e+00,3.221e+00,3.733e+00,3.729e+00,3.675e+00,3.089e+00,3.750e+00,4.220e+00,4.908e+00,4.282e+00,2.177e+00,3.302e+00,3.170e+00,2.642e+00,2.027e+00,3.450e+00,5.007e+00,4.116e+00,4.280e+00,4.610e+00,4.187e+00,2.813e+00,3.268e+00,4.395e+00
7.165e-01,2.402e-01,1.146e+00,2.084e+00,1.375e+00,2.307e+00,1.717e+00,1.958e+00,2.722e+00,2.958e+00,4.207e+00,3.144e+00,3.096e+00,4.678e+00,3.282e+00,3.527e+00,2.395e+00,2.561e+00,2.492e+00,3.147e+00,3.298e+00,3.153e+00,3.879e+00,3.266e+00,2.891e+00,3.059e+00,3.046e+00,2.401e+00,4.263e+00,3.496e+00,2.106e+00,3.099e+00,3.299e+00,3.062e+00,3.769e+00,3.413e+00,2.970e+00,2.773e+00,2.477e+00,2.111e+00,2.737e+00,3.361e+00,3.485e+00,2.669e+00,4.091e+00,3.362e+00,2.862e+00,3.389e+00,3.410e+00,3.108e+00,3.561e+00,4.395e+00,3.643e+00,3.727e+00,3.667e+00,3.786e+00,3.989e+00,2.617e+00,3.315e+00,2.975e+00,4.420e+00,2.781e+00,3.376e+00,2.469e+00,2.643e+00,1.991e+00,3.948e+00,3.193e+00,4.073e+00,3.140e+00,2.488e+00,3.090e+00,2.702e+00,3.799e+00,4.326e+00,4.420e+00,2.160e+00,2.736e+00,3.152e+00,2.809e+00,2.495e+00,2.814e+00,4.788e+00,3.403e+00,3.848e+00,3.599e+00,4.045e+00,2.695e+00,2.630e+00,4.435e+00
4.841e-01,1.812e-01,7.742e-01,1.235e+00,1.102e+00,1.720e+00,1.281e+00,1.548e+00,2.214e+00,2.192e+00,3.488e+00,2.443e+00,2.819e+00,3.906e+00,3.009e+00,3.544e+00,2.747e+00,2.807e+00,2.859e+00,3.193e+00,2.900e+00,3.554e+00,3.618e+00,3.667e+00,2.734e+00,2.740e+00,2.803e+00,2.875e+00,4.063e+00,3.123e+00,2.612e+00,3.499e+00,3.162e+00,2.918e+00,3.272e+00,2.984e+00,2.673e+00,2.526e+00,2.564e+00,2.381e+00,2.373e+00,3.242e+00,2.519e+00,3.178e+00,4.126e+00,3.537e+00,2.483e+00,2.878e+00,3.659e+00,2.828e+00,3.307e+00,3.719e+00,3.640e+00,3.302e+00,2.860e+00,3.692e+00,4.765e+00,2.263e+00,3.020e+00,2.791e+00,4.101e+00,2.652e+00,2.604e+00,2.831e+00,2.944e+00,2.503e+00,3.452e+00,3.687e+00,4.041e+00,3.029e+00,2.782e+00,2.471e+00,3.475e+00,3.448e+00,3.966e+00,3.558e+00,2.283e+00,3.087e+00,2.484e+00,2.300e+00,2.116e+00,3.225e+00,4.236e+00,3.027e+00,3.314e+00,3.511e+00,3.902e+00,2.732e+00,3.240e+00,4.238e+00
6.919e-01,1.881e-01,8.217e-01,1.702e+00,9.508e-01,1.811e+00,1.362e+00,1.226e+00,1.879e+00,2.786e+00,3.212e+00,2.599e+00,2.556e+00,3.537e+00,2.889e+00,4.146e+00,3.272e+00,3.447e+00,3.165e+00,2.943e+00,4.562e+00,3.990e+00,3.513e+00,3.198e+00,1.944e+00,3.223e+00,3.147e+00,2.936e+00,4.090e+00,3.673e+00,3.984e+00,2.595e+00,3.412e+00,3.135e+00,3.898e+00,3.891e+00,3.180e+00,2.335e+00,3.043e+00,3.048e+00,2.709e+00,3.423e+00,3.009e+00,4.136e+00,4.037e+00,4.229e+00,3.409e+00,3.831e+00,3.548e+00,3.297e+00,2.668e+00,3.649e+00,3.034e+00,3.595e+00,3.903e+00,3.654e+00,4.857e+00,2.926e+00,3.222e+00,2.374e+00,4.293e+00,2.866e+00,2.952e+00,3.333e+00,2.971e+00,2.870e+00,3.214e+00,3.299e+00,4.812e+00,3.275e+00,2.560e+00,2.751e+00,3.541e+00,3.567e+00,3.869e+00,4.465e+00,3.321e+00,3.088e+00,2.596e+00,2.730e+00,2.471e+00,2.730e+00,4.062e+00,3.068e+00,3.791e+00,3.988e+00,4.018e+00,3.111e+00,3.143e+00,3.366e+00
2.327e-01,9.048e-02,5.072e-01,1.158e+00,1.217e+00,1.495e+00,1.643e+00,1.934e+00,3.179e+00,3.236e+00,3.999e+00,3.574e+00,2.933e+00,5.339e+00,4.923e+00,4.499e+00,4.086e+00,3.800e+00,4.407e+00,3.897e+00,4.281e+00,3.638e+00,5.310e+00,4.591e+00,3.550e+00,3.715e+00,4.098e+00,3.087e+00,5.168e+00,4.282e+00,3.316e+00,4.826e+00,4.910e+00,4.621e+00,4.220e+00,4.693e+00,4.283e+00,4.747e+00,3.717e+00,3.403e+00,3.669e+00,3.912e+00,3.587e+00,4.130e+00,5.410e+00,4.676e+00,4.201e+00,5.209e+00,4.520e+00,4.117e+00,4.700e+00,5.382e+00,4.690e+00,3.841e+00,4.874e+00,4.852e+00,5.352e+00,3.750e+00,4.627e+00,4.256e+00,5.534e+00,3.187e+00,4.382e+00,3.725e+00,3.916e+00,3.508e+00,5.334e+00,4.301e+00,5.079e+00,4.872e+00,3.919e+00,3.750e+00,4.417e+00,4.263e+00,5.043e+00,4.966e+00,2.760e+00,3.214e+00,3.868e+00,4.378e+00,3.585e+00,4.436e+00,5.470e+00,4.499e+00,5.027e+00,5.434e+00,4.836e+00,2.986e+00,3.111e+00,6.069e+00
2.325e-01,1.169e-01,1.141e+00,1.924e+00,1.511e+00,1.439e+00,2.042e+00,1.884e+00,2.685e+00,3.267e+00,3.709e+00,3.674e+00,2.192e+00,4.680e+00,3.752e+00,3.411e+00,3.218e+00,3.499e+00,3.877e+00,3.868e+00,4.652e+00,4.050e+00,5.726e+00,3.708e+00,2.910e+00,3.792e+00,4.239e+00,3.579e+00,3.919e+00,4.630e+00,3.292e+00,4.057e+00,4.228e+00,3.116e+00,3.766e+00,5.205e+00,4.034e+00,3.922e+00,3.841e+00,2.938e+00,3.845e+00,3.704e+00,2.886e+00,3.673e+00,4.395e+00,3.470e+00,3.651e+00,4.851e+00,3.544e+00,3.499e+00,3.490e+00,5.153e+00,4.472e+00,3.727e+00,4.309e+00,4.905e+00,4.630e+00,4.026e+00,3.637e+00,3.784e+00,5.052e+00,2.461e+00,3.443e+00,2.853e+00,3.884e+00,3.286e+00,4.288e+00,3.352e+00,4.652e+00,3.122e+00,3.062e+00,3.751e+00,4.217e+00,3.119e+00,4.291e+00,4.744e+00,3.433e+00,2.815e+00,4.253e+00,3.798e+00,3.373e+00,3.828e+00,4.837e+00,4.560e+00,4.275e+00,4.176e+00,4.623e+00,3.330e+00,2.081e+00,4.642e+00
4.321e-01,1.680e-01,8.380e-01,1.476e+00,1.574e+00,1.764e+00,1.873e+00,1.919e+00,3.018e+00,2.994e+00,4.172e+00,3.590e+00,2.224e+00,4.873e+00,3.669e+00,3.664e+00,3.974e+00,4.165e+00,3.967e+00,3.891e+00,5.169e+00,4.331e+00,5.363e+00,4.618e+00,4.135e+00,4.565e+00,4.952e+00,3.978e+00,4.680e+00,5.113e+00,3.268e+00,4.869e+00,4.766e+00,3.979e+00,3.992e+00,4.511e+00,4.303e+00,4.202e+00,4.199e+00,3.571e+00,4.301e+00,4.183e+00,4.031e+00,4.185e+00,4.552e+00,4.089e+00,3.299e+00,5.241e+00,3.984e+00,3.765e+00,3.808e+00,4.533e+00,4.648e+00,4.536e+00,4.662e+00,4.607e+00,5.914e+00,4.204e+00,3.984e+00,3.847e+00,6.057e+00,3.103e+00,3.639e+00,3.078e+00,3.873e+00,3.398e+00,5.470e+00,3.819e+00,5.075e+00,4.094e+00,3.329e+00,4.249e+00,5.019e+00,5.104e+00,5.294e+00,4.886e+00,3.702e+00,4.265e+00,4.613e+00,3.147e+00,3.316e+00,3.641e+00,5.362e+00,4.716e+00,4.854e+00,4.617e+00,4.945e+00,3.389e+00,3.366e+00,5.099e+00
4.222e-01,1.892e-01,1.481e+00,2.052e+00,1.634e+00,2.554e+00,2.419e+00,2.308e+00,3.446e+00,3.599e+00,5.128e+00,3.753e+00,2.953e+00,4.944e+00,3.959e+00,4.247e+00,3.696e+00,4.004e+00,3.914e+00,3.817e+00,5.486e+00,4.827e+00,5.722e+00,4.853e+00,4.662e+00,5.487e+00,5.612e+00,3.953e+00,5.795e+00,5.489e+00,3.608e+00,5.145e+00,4.765e+00,4.411e+00,4.168e+00,5.281e+00,4.949e+00,5.076e+00,4.818e+00,4.080e+00,4.367e+00,5.251e+00,4.259e+00,4.858e+00,5.944e+00,4.941e+00,2.986e+00,4.775e+00,4.931e+00,4.667e+00,4.123e+00,5.997e+00,5.502e+00,4.598e+00,5.544e+00,5.027e+00,6.229e+00,4.589e+00,4.295e+00,4.024e+00,6.572e+00,4.336e+00,3.937e+00,3.380e+00,5.068e+00,4.300e+00,5.015e+00,5.359e+00,5.987e+00,4.057e+00,4.366e+00,4.003e+00,5.407e+00,5.036e+00,6.476e+00,5.206e+00,4.008e+00,5.252e+00,4.973e+00,3.107e+00,4.108e+00,4.393e+00,5.482e+00,5.226e+00,5.102e+00,4.820e+00,5.744e+00,3.722e+00,4.191e+00,6.089e+00
6.137e-01,1.766e-01,6.766e-01,1.851e+00,1.520e+00,1.798e+00,1.860e+00,1.880e+00,2.419e+00,2.955e+00,3.328e+00,2.316e+00,2.247e+00,3.999e+00,4.099e+00,4.162e+00,3.820e+00,5.343e+00,5.155e+00,4.830e+00,6.198e+00,4.203e+00,6.247e+00,6.052e+00,4.938e+00,5.127e+00,5.355e+00,4.208e+00,6.373e+00,5.476e+00,4.043e+00,6.051e+00,6.045e+00,5.604e+00,4.409e+00,5.253e+00,6.031e+00,5.951e+00,5.338e+00,5.297e+00,5.445e+00,5.196e+00,4.559e+00,6.401e+00,6.185e+00,5.532e+00,4.956e+00,6.982e+00,4.738e+00,5.305e+00,4.312e+00,5.157e+00,5.164e+00,5.135e+00,5.741e+00,4.601e+00,6.064e+00,5.529e+00,5.062e+00,4.201e+00,6.513e+00,4.106e+00,4.760e+00,5.454e+00,5.031e+00,4.875e+00,5.181e+00,5.703e+00,7.047e+00,5.261e+00,4.176e+00,4.588e+00,6.474e+00,5.592e+00,6.301e+00,5.097e+00,5.040e+00,4.936e+00,5.141e+00,5.097e+00,5.147e+00,4.788e+00,5.623e+00,3.937e+00,6.225e+00,5.059e+00,6.291e+00,4.421e+00,4.229e+00,6.917e+00
1.483e-01,8.104e-02,9.332e-01,1.289e+00,1.077e+00,1.280e+00,1.546e+00,1.151e+00,2.202e+00,2.533e+00,3.157e+00,3.438e+00,2.811e+00,3.870e+00,3.170e+00,4.353e+00,4.882e+00,4.843e+00,4.824e+00,5.204e+00,6.469e+00,5.071e+00,7.640e+00,5.107e+00,4.631e+00,4.609e+00,6.411e+00,5.364e+00,5.804e+00,5.231e+00,4.989e+00,6.061e+00,5.859e+00,5.478e+00,4.491e+00,5.395e+00,5.559e+00,4.913e+00,6.447e+00,5.365e+00,5.452e+00,5.544e+00,4.404e+00,5.364e+00,6.219e+00,5.665e+00,5.603e+00,6.794e+00,5.555e+00,5.361e+00,5.623e+00,5.612e+00,5.837e+00,5.361e+00,6.473e+00,5.716e+00,5.664e+00,6.096e+00,4.749e+00,4.896e+00,6.834e+00,3.772e+00,5.792e+00,4.917e+00,4.409e+00,4.170e+00,5.785e+00,6.363e+00,6.731e+00,4.702e+00,4.326e+00,5.485e+00,5.390e+00,5.386e+00,5.869e+00,5.924e+00,5.214e+00,4.943e+00,5.201e+00,5.722e+00,5.620e+00,4.835e+00,6.324e+00,5.294e+00,6.144e+00,5.201e+00,6.881e+00,4.453e+00,3.902e+00,6.877e+00
7.386e-03,6.081e-03,6.862e-01,8.338e-01,7.497e-02,1.299e+00,1.073e+00,1.205e+00,1.702e+00,2.332e+00,3.332e+00,2.414e+00,2.716e+00,3.184e+00,3.830e+00,4.506e+00,4.318e+00,4.407e+00,4.944e+00,3.946e+00,5.861e+00,5.266e+00,6.973e+00,5.304e+00,5.170e+00,5.725e+00,6.959e+00,4.389e+00,6.285e+00,5.703e+00,5.020e+00,6.893e+00,5.523e+00,6.452e+00,4.129e+00,4.340e+00,6.056e+00,6.684e+00,6.316e+00,5.348e+00,5.068e+00,4.919e+00,4.934e+00,5.480e+00,6.531e+00,5.710e+00,4.397e+00,6.328e+00,5.384e+00,6.299e+00,5.591e+00,5.171e+00,5.066e+00,5.005e+00,6.277e+00,5.620e+00,6.047e+00,5.546e+00,6.016e+00,4.752e+00,6.807e+00,4.729e+00,5.230e+00,4.943e+00,5.583e+00,5.079e+00,5.942e+00,6.612e+00,6.818e+00,6.095e+00,5.414e+00,5.296e+00,5.794e+00,5.573e+00,6.526e+00,5.056e+00,4.364e+00,5.729e+00,5.074e+00,4.649e+00,5.475e+00,5.813e+00,5.983e+00,5.122e+00,6.913e+00,5.950e+00,6.709e+00,4.521e+00,5.529e+00,7.060e+00
1.413e-01,5.679e-02,1.053e+00,1.493e+00,7.241e-01,1.590e+00,1.739e+00,1.510e+00,1.896e+00,2.739e+00,3.415e+00,2.873e+00,2.391e+00,3.454e+00,3.904e+00,4.224e+00,4.195e+00,4.372e+00,5.128e+00,4.178e+00,6.098e+00,5.722e+00,6.829e+00,4.860e+00,4.911e+00,6.276e+00,6.732e+00,4.647e+00,5.836e+00,5.446e+00,4.979e+00,6.793e+00,6.114e+00,6.211e+00,4.181e+00,5.466e+00,6.070e+00,6.219e+00,6.275e+00,5.062e+00,5.560e+00,5.143e+00,4.480e+00,5.810e+00,6.260e+00,5.780e+00,4.582e+00,6.445e+00,4.144e+00,6.238e+00,5.426e+00,5.208e+00,5.484e+00,5.638e+00,6.202e+00,5.663e+00,5.744e+00,5.669e+00,5.649e+00,4.650e+00,7.588e+00,4.070e+00,4.510e+00,5.166e+00,5.423e+00,5.113e+00,5.437e+00,5.598e+00,6.623e+00,5.499e+00,4.053e+00,5.081e+00,6.371e+00,5.348e+00,6.867e+00,5.714e+00,4.676e+00,5.274e+00,5.159e+00,5.444e+00,4.919e+00,5.339e+00,5.378e+00,5.314e+00,6.524e+00,5.395e+00,5.895e+00,4.059e+00,4.136e+00,6.970e+00
4.605e-01,1.256e-01,3.614e-01,1.449e+00,1.435e+00,1.726e+00,1.808e+00,1.916e+00,2.727e+00,2.965e+00,3.328e+00,2.317e+00,2.272e+00,4.286e+00,3.988e+00,4.107e+00,3.549e+00,4.790e+00,4.286e+00,3.935e+00,5.409e+00,4.579e+00,7.937e+00,7.293e+00,5.805e+00,6.018e+00,5.898e+00,4.361e+00,7.495e+00,6.122e+00,4.198e+00,7.346e+00,7.188e+00,6.542e+00,5.275e+00,6.726e+00,6.790e+00,6.083e+00,6.107e+00,6.226e+00,6.877e+00,6.264e+00,5.135e+00,6.413e+00,6.763e+00,6.638e+00,6.154e+00,7.309e+00,5.778e+00,6.681e+00,5.579e+00,6.439e+00,5.522e+00,4.793e+00,6.534e+00,6.977e+00,6.870e+00,6.711e+00,6.552e+00,5.332e+00,6.924e+00,4.089e+00,5.408e+00,5.922e+00,5.596e+00,6.273e+00,6.808e+00,6.449e+00,7.263e+00,6.221e+00,5.708e+00,5.662e+00,6.875e+00,5.486e+00,8.045e+00,6.757e+00,4.984e+00,5.951e+00,5.185e+00,6.467e+00,5.622e+00,5.896e+00,6.470e+00,5.002e+00,6.975e+00,6.098e+00,7.918e+00,4.781e+00,5.627e+00,7.982e+00
4.227e-01,1.309e-01,4.829e-01,1.068e+00,1.332e+00,1.610e+00,1.581e+00,1.364e+00,2.274e+00,2.385e+00,2.761e+00,2.864e+00,1.601e+00,3.761e+00,3.221e+00,3.520e+00,3.383e+00,3.781e+00,3.986e+00,3.590e+00,5.170e+00,4.324e+00,5.548e+00,4.409e+00,3.895e+00,4.614e+00,5.393e+00,4.996e+00,6.025e+00,5.764e+00,3.831e+00,5.690e+00,5.843e+00,5.291e+00,3.871e+00,5.027e+00,4.903e+00,5.230e+00,4.590e+00,4.674e+00,5.886e+00,4.697e+00,4.839e+00,4.745e+00,5.441e+00,4.584e+00,5.717e+00,6.443e+00,4.296e+00,6.008e+00,4.084e+00,4.890e+00,4.884e+00,5.248e+00,5.591e+00,5.581e+00,6.169e+00,5.527e+00,5.224e+00,4.598e+00,5.845e+00,3.055e+00,4.749e+00,4.416e+00,4.402e+00,4.126e+00,5.661e+00,4.591e+00,5.903e+00,5.168e+00,4.531e+00,5.568e+00,4.883e+00,4.874e+00,6.035e+00,6.111e+00,4.597e+00,4.119e+00,5.048e+00,5.270e+00,4.601e+00,4.632e+00,6.296e+00,5.505e+00,5.380e+00,5.226e+00,5.911e+00,4.848e+00,3.921e+00,6.032e+00
5.277e-02,5.661e-02,9.686e-01,1.719e+00,1.449e+00,1.623e+00,2.191e+00,1.897e+00,2.672e+00,2.437e+00,3.685e+00,2.553e+00,2.586e+00,4.023e+00,3.651e+00,3.922e+00,3.985e+00,4.479e+00,4.300e+00,4.271e+00,5.478e+00,4.953e+00,8.494e+00,6.898e+00,6.881e+00,6.407e+00,7.432e+00,6.172e+00,9.183e+00,8.244e+00,5.445e+00,8.245e+00,7.454e+00,7.722e+00,6.461e+00,6.914e+00,7.674e+00,7.418e+00,7.806e+00,7.424e+00,7.234e+00,7.086e+00,5.435e+00,6.849e+00,7.787e+00,7.143e+00,6.113e+00,7.214e+00,6.068e+00,7.207e+00,6.657e+00,7.204e+00,6.750e+00,6.215e+00,7.858e+00,7.669e+00,7.716e+00,8.586e+00,7.568e+00,6.101e+00,9.557e+00,5.905e+00,6.375e+00,5.780e+00,6.919e+00,7.168e+00,8.187e+00,7.523e+00,8.652e+00,6.942e+00,6.828e+00,6.840e+00,7.785e+00,6.718e+00,8.800e+00,6.997e+00,5.512e+00,6.822e+00,6.522e+00,6.768e+00,6.893e+00,6.725e+00,8.038e+00,6.687e+00,7.699e+00,6.676e+00,8.488e+00,6.567e+00,5.419e+00,8.760e+00
3.145e-01,1.337e-01,1.083e+00,1.605e+00,1.431e+00,2.144e+00,2.215e+00,2.183e+00,3.206e+00,2.969e+00,4.506e+00,3.404e+00,2.946e+00,4.667e+00,3.982e+00,4.762e+00,4.011e+00,4.354e+00,5.020e+00,5.412e+00,6.177e+00,5.784e+00,8.116e+00,6.129e+00,6.128e+00,6.852e+00,7.278e+00,6.107e+00,8.815e+00,8.547e+00,4.930e+00,7.673e+00,7.119e+00,7.407e+00,6.030e+00,7.257e+00,7.324e+00,7.148e+00,7.681e+00,6.952e+00,7.804e+00,6.400e+00,6.427e+00,6.734e+00,8.660e+00,7.171e+00,7.096e+00,8.382e+00,6.485e+00,8.103e+00,7.019e+00,7.317e+00,7.130e+00,7.339e+00,8.098e+00,7.843e+00,8.202e+00,7.556e+00,6.882e+00,6.941e+00,8.499e+00,5.863e+00,6.392e+00,6.799e+00,7.057e+00,5.964e+00,7.315e+00,7.986e+00,9.022e+00,6.794e+00,6.907e+00,7.145e+00,6.870e+00,6.609e+00,8.589e+00,8.092e+00,5.693e+00,6.360e+00,6.046e+00,6.422e+00,6.677e+00,6.873e+00,9.004e+00,7.466e+00,7.568e+00,6.469e+00,7.979e+00,7.285e+00,6.161e+00,9.125e+00
6.992e-01,2.033e-01,1.185e+00,2.213e+00,1.344e+00,2.320e+00,1.978e+00,1.689e+00,2.797e+00,4.101e+00,4.782e+00,3.994e+00,3.953e+00,4.813e+00,5.038e+00,5.914e+00,5.576e+00,5.771e+00,6.206e+00,5.404e+00,8.301e+00,6.776e+00,8.689e+00,6.592e+00,5.109e+00,6.253e+00,7.764e+00,7.904e+00,1.076e+01,8.196e+00,7.579e+00,8.472e+00,8.587e+00,8.920e+00,7.542e+00,8.349e+00,8.166e+00,7.652e+00,8.593e+00,7.493e+00,7.676e+00,7.577e+00,6.415e+00,8.569e+00,9.078e+00,8.461e+00,9.100e+00,9.609e+00,7.675e+00,8.219e+00,7.787e+00,7.935e+00,7.102e+00,8.144e+00,9.371e+00,8.054e+00,9.516e+00,8.335e+00,7.755e+00,7.648e+00,9.218e+00,6.270e+00,8.148e+00,8.571e+00,7.713e+00,7.587e+00,7.948e+00,9.434e+00,9.972e+00,7.551e+00,7.677e+00,8.001e+00,7.882e+00,8.042e+00,9.158e+00,8.926e+00,6.962e+00,7.667e+00,6.925e+00,7.999e+00,7.441e+00,7.515e+00,1.012e+01,7.744e+00,8.775e+00,8.209e+00,9.334e+00,7.895e+00,6.407e+00,9.981e+00
2.304e-02,6.194e-02,7.103e-01,1.035e+00,1.126e+00,1.233e+00,1.389e+00,1.195e+00,2.170e+00,1.768e+00,2.485e+00,1.831e+00,1.782e+00,3.037e+00,2.926e+00,3.364e+00,3.171e+00,3.839e+00,3.590e+00,3.197e+00,4.532e+00,4.485e+00,6.451e+00,4.934e+00,4.624e+00,5.140e+00,5.726e+00,5.942e+00,7.046e+00,6.341e+00,4.723e+00,7.254e+00,6.717e+00,6.145e+00,5.228e+00,5.822e+00,5.330e+00,6.107e+00,5.810e+00,5.549e+00,5.728e+00,6.299e+00,4.400e+00,5.835e+00,6.475e+00,5.772e+00,6.291e+00,6.546e+00,5.434e+00,6.296e+00,6.250e+00,6.132e+00,6.236e+00,5.459e+00,7.066e+00,7.041e+00,7.051e+00,6.845e+00,7.350e+00,5.517e+00,6.923e+00,4.171e+00,5.040e+00,5.582e+00,5.903e+00,5.961e+00,6.395e+00,6.294e+00,7.126e+00,5.539e+00,5.299e+00,6.191e+00,6.068e+00,5.054e+00,6.993e+00,6.839e+00,5.233e+00,5.492e+00,5.458e+00,6.758e+00,6.156e+00,5.464e+00,6.913e+00,5.324e+00,7.198e+00,5.628e+00,6.637e+00,6.025e+00,4.054e+00,7.755e+00
2.248e-01,1.276e-01,1.291e+00,1.780e+00,1.346e+00,1.729e+00,1.889e+00,1.485e+00,2.289e+00,2.634e+00,3.679e+00,3.518e+00,2.374e+00,4.411e+00,3.657e+00,4.085e+00,4.731e+00,4.430e+00,4.713e+00,4.321e+00,6.457e+00,5.187e+00,8.901e+00,6.983e+00,6.346e+00,6.484e+00,7.571e+00,7.039e+00,1.090e+01,9.155e+00,6.723e+00,9.418e+00,9.010e+00,9.271e+00,8.315e+00,8.798e+00,8.340e+00,7.509e+00,8.098e+00,8.812e+00,9.437e+00,7.617e+00,6.690e+00,8.370e+00,8.447e+00,8.827e+00,8.517e+00,9.103e+00,7.848e+00,9.057e+00,8.657e+00,7.694e+00,8.603e+00,8.788e+00,1.080e+01,8.971e+00,9.157e+00,9.830e+00,8.861e+00,7.357e+00,1.061e+01,6.864e+00,7.842e+00,7.099e+00,8.427e+00,7.598e+00,8.630e+00,9.568e+00,1.054e+01,7.584e+00,7.720e+00,8.741e+00,8.153e+00,8.216e+00,9.459e+00,8.573e+00,7.190e+00,8.309e+00,7.224e+00,7.576e+00,8.166e+00,6.921e+00,1.058e+01,7.639e+00,1.002e+01,7.808e+00,8.326e+00,8.183e+00,5.359e+00,1.039e+01
6.728e-01,1.974e-01,5.833e-01,1.152e+00,1.009e+00,1.720e+00,1.157e+00,1.292e+00,1.896e+00,2.275e+00,3.131e+00,2.801e+00,2.551e+00,3.705e+00,3.361e+00,3.785e+00,3.364e+00,3.489e+00,3.530e+00,3.488e+00,4.109e+00,3.709e+00,4.565e+00,3.725e+00,3.419e+00,4.256e+00,4.653e+00,4.638e+00,6.954e+00,5.565e+00,3.781e+00,5.316e+00,5.630e+00,6.512e+00,5.654e+00,5.504e+00,5.902e+00,4.921e+00,6.012e+00,5.822e+00,6.089e+00,5.264e+00,5.720e+00,6.015e+00,5.541e+00,6.070e+00,6.702e+00,6.252e+00,6.324e+00,6.525e+00,6.965e+00,5.563e+00,6.603e+00,5.401e+00,7.717e+00,5.717e+00,7.299e+00,5.708e+00,5.228e+00,5.668e+00,6.209e+00,5.398e+00,5.952e+00,5.153e+00,6.044e+00,5.457e+00,5.320e+00,7.044e+00,6.675e+00,6.246e+00,5.974e+00,6.385e+00,5.958e+00,5.129e+00,6.906e+00,6.994e+00,5.301e+00,4.896e+00,4.625e+00,5.493e+00,5.509e+00,4.616e+00,7.610e+00,5.850e+00,5.630e+00,6.915e+00,6.374e+00,5.851e+00,4.786e+00,7.802e+00
3.340e-01,1.136e-01,8.182e-01,1.631e+00,1.761e+00,1.894e+00,2.522e+00,2.231e+00,3.438e+00,3.530e+00,4.337e+00,3.645e+00,2.022e+00,4.826e+00,4.271e+00,4.706e+00,4.833e+00,5.599e+00,5.350e+00,4.870e+00,7.288e+00,5.817e+00,7.543e+00,6.158e+00,5.835e+00,7.375e+00,8.047e+00,6.972e+00,9.472e+00,9.466e+00,6.631e+00,8.506e+00,9.164e+00,9.272e+00,8.339e+00,9.015e+00,9.268e+00,8.847e+00,9.691e+00,9.498e+00,9.745e+00,7.613e+00,8.365e+00,1.015e+01,8.694e+00,8.392e+00,8.336e+00,1.040e+01,8.365e+00,9.044e+00,8.603e+00,8.371e+00,9.801e+00,7.498e+00,1.159e+01,9.645e+00,1.024e+01,1.056e+01,8.772e+00,7.454e+00,1.033e+01,7.243e+00,7.522e+00,7.526e+00,9.356e+00,9.206e+00,8.543e+00,1.000e+01,1.023e+01,8.606e+00,8.667e+00,8.783e+00,9.805e+00,8.166e+00,9.717e+00,1.043e+01,9.232e+00,8.910e+00,7.970e+00,6.543e+00,8.992e+00,7.703e+00,9.924e+00,8.409e+00,9.530e+00,9.404e+00,1.001e+01,8.434e+00,7.037e+00,1.101e+01
5.423e-02,3.865e-02,3.279e-01,9.828e-01,1.491e+00,8.565e-01,1.706e+00,1.383e+00,2.222e+00,1.893e+00,2.570e+00,2.411e+00,1.500e+00,3.596e+00,3.198e+00,2.924e+00,3.276e+00,3.519e+00,4.134e+00,4.305e+00,5.472e+00,4.278e+00,7.879e+00,5.442e+00,5.105e+00,4.728e+00,5.860e+00,5.565e+00,8.079e+00,7.268e+00,5.235e+00,8.680e+00,8.060e+00,8.166e+00,6.761e+00,7.028e+00,7.536e+00,7.846e+00,8.744e+00,8.725e+00,8.940e+00,7.373e+00,6.617e+00,8.374e+00,8.232e+00,7.640e+00,7.514e+00,8.641e+00,6.981e+00,8.275e+00,8.546e+00,7.371e+00,8.337e+00,6.978e+00,9.223e+00,8.662e+00,7.476e+00,1.037e+01,6.927e+00,7.490e+00,9.439e+00,6.065e+00,8.231e+00,6.571e+00,8.265e+00,8.018e+00,8.213e+00,9.040e+00,8.322e+00,7.752e+00,7.396e+00,7.825e+00,7.925e+00,7.417e+00,8.792e+00,8.289e+00,7.043e+00,6.645e+00,6.273e+00,7.774e+00,8.541e+00,7.649e+00,8.246e+00,7.129e+00,8.638e+00,7.402e+00,8.386e+00,7.326e+00,6.234e+00,1.065e+01
6.536e-01,1.892e-01,7.095e-01,1.380e+00,8.201e-01,1.846e+00,1.258e+00,1.692e+00,2.652e+00,3.392e+00,4.109e+00,3.252e+00,3.104e+00,4.613e+00,4.177e+00,5.292e+00,4.159e+00,4.935e+00,4.735e+00,4.528e+00,5.907e+00,6.201e+00,7.491e+00,5.824e+00,4.470e+00,6.852e+00,6.546e+00,6.957e+00,9.510e+00,8.789e+00,6.318e+00,8.021e+00,8.823e+00,9.419e+00,7.962e+00,8.689e+00,8.730e+00,8.573e+00,9.358e+00,8.925e+00,1.004e+01,8.814e+00,8.024e+00,9.811e+00,9.439e+00,9.480e+00,9.401e+00,1.080e+01,9.038e+00,9.392e+00,9.412e+00,9.046e+00,8.944e+00,8.386e+00,1.059e+01,1.024e+01,1.031e+01,9.492e+00,8.694e+00,8.164e+00,9.595e+00,7.230e+00,7.972e+00,9.230e+00,8.321e+00,9.328e+00,8.587e+00,9.845e+00,1.050e+01,7.848e+00,9.152e+00,9.255e+00,8.076e+00,7.022e+00,1.005e+01,1.122e+01,7.765e+00,7.704e+00,7.286e+00,8.201e+00,9.180e+00,8.155e+00,1.049e+01,8.126e+00,9.168e+00,9.163e+00,9.095e+00,9.011e+00,7.715e+00,1.105e+01
1.998e-01,7.049e-02,7.105e-01,1.615e+00,1.540e+00,1.545e+00,2.273e+00,2.208e+00,3.355e+00,3.073e+00,4.315e+00,3.626e+00,3.306e+00,5.167e+00,4.649e+00,5.028e+00,5.196e+00,4.910e+00,5.257e+00,5.607e+00,6.324e+00,5.335e+00,8.955e+00,7.179e+00,6.470e+00,5.758e+00,7.307e+00,6.502e+00,9.204e+00,7.649e+00,5.785e+00,8.852e+00,8.405e+00,9.159e+00,8.470e+00,8.150e+00,8.573e+00,8.405e+00,8.852e+00,9.094e+00,8.112e+00,8.079e+00,7.822e+00,8.275e+00,8.869e+00,8.099e+00,8.987e+00,9.639e+00,7.319e+00,8.285e+00,9.490e+00,8.948e+00,8.302e+00,6.730e+00,1.073e+01,8.720e+00,9.517e+00,1.021e+01,9.231e+00,8.268e+00,1.035e+01,6.484e+00,8.105e+00,7.009e+00,8.485e+00,8.212e+00,1.020e+01,8.668e+00,8.845e+00,1.032e+01,8.551e+00,8.501e+00,8.170e+00,8.541e+00,9.147e+00,9.183e+00,7.335e+00,7.209e+00,7.670e+00,8.731e+00,8.527e+00,7.960e+00,1.053e+01,8.510e+00,9.680e+00,9.378e+00,9.968e+00,7.444e+00,7.597e+00,1.132e+01
1.385e-01,1.149e-01,1.234e+00,1.210e+00,1.056e+00,1.541e+00,1.754e+00,1.911e+00,2.618e+00,2.549e+00,3.735e+00,3.589e+00,2.659e+00,4.235e+00,3.646e+00,3.859e+00,3.608e+00,3.136e+00,3.729e+00,4.177e+00,4.340e+00,5.528e+00,6.797e+00,5.005e+00,5.103e+00,5.278e+00,7.077e+00,6.558e+00,7.359e+00,6.707e+00,5.430e+00,8.013e+00,7.916e+00,8.140e+00,7.529e+00,7.719e+00,6.752e+00,8.881e+00,8.611e+00,9.113e+00,8.863e+00,8.502e+00,7.464e+00,7.894e+00,8.946e+00,7.347e+00,8.745e+00,8.829e+00,7.421e+00,1.010e+01,9.865e+00,9.884e+00,1.063e+01,7.110e+00,1.091e+01,9.938e+00,1.006e+01,1.015e+01,9.519e+00,8.346e+00,9.671e+00,7.659e+00,7.784e+00,7.542e+00,8.267e+00,8.362e+00,8.598e+00,9.250e+00,9.729e+00,9.008e+00,8.468e+00,8.114e+00,8.091e+00,7.944e+00,8.635e+00,1.029e+01,8.254e+00,7.214e+00,8.289e+00,8.138e+00,9.297e+00,8.654e+00,1.011e+01,9.389e+00,8.959e+00,8.700e+00,9.336e+00,7.842e+00,7.922e+00,1.190e+01
5.102e-02,1.447e-02,1.056e-01,1.751e-01,7.350e-01,1.005e+00,1.142e+00,9.585e-01,2.303e+00,1.600e+00,2.293e+00,1.793e+00,1.228e+00,2.083e+00,1.794e+00,2.899e+00,3.006e+00,3.178e+00,3.048e+00,3.172e+00,4.769e+00,4.266e+00,5.987e+00,4.271e+00,4.814e+00,5.511e+00,6.352e+00,5.232e+00,7.623e+00,6.995e+00,5.104e+00,7.265e+00,7.376e+00,8.468e+00,6.512e+00,7.318e+00,7.761e+00,8.873e+00,9.346e+00,9.397e+00,9.711e+00,8.355e+00,8.386e+00,8.544e+00,8.707e+00,8.019e+00,7.823e+00,9.511e+00,7.270e+00,9.183e+00,8.685e+00,7.682e+00,8.521e+00,7.450e+00,1.026e+01,8.871e+00,8.779e+00,1.012e+01,8.093e+00,6.972e+00,9.847e+00,7.204e+00,7.706e+00,8.286e+00,7.208e+00,8.283e+00,8.009e+00,9.523e+00,9.572e+00,7.472e+00,8.760e+00,7.827e+00,7.531e+00,8.392e+00,9.259e+00,9.898e+00,7.453e+00,8.118e+00,7.195e+00,7.269e+00,8.801e+00,7.198e+00,9.060e+00,7.274e+00,8.766e+00,8.042e+00,9.271e+00,7.500e+00,7.920e+00,1.007e+01
2.367e-01,9.406e-02,1.218e+00,2.058e+00,1.576e+00,2.063e+00,2.452e+00,1.759e+00,2.856e+00,2.839e+00,4.050e+00,2.877e+00,2.898e+00,3.489e+00,3.557e+00,4.320e+00,4.264e+00,4.314e+00,4.487e+00,4.369e+00,6.622e+00,5.208e+00,7.844e+00,5.147e+00,5.098e+00,6.083e+00,6.952e+00,6.448e+00,9.829e+00,7.414e+00,5.652e+00,8.410e+00,8.163e+00,8.671e+00,7.321e+00,8.097e+00,8.865e+00,8.578e+00,9.968e+00,8.917e+00,8.406e+00,9.457e+00,8.382e+00,9.063e+00,9.190e+00,9.407e+00,8.607e+00,9.982e+00,8.476e+00,8.605e+00,9.495e+00,8.876e+00,8.190e+00,8.231e+00,1.141e+01,8.699e+00,8.952e+00,1.001e+01,8.001e+00,8.249e+00,1.045e+01,8.247e+00,8.593e+00,7.818e+00,9.150e+00,8.458e+00,8.927e+00,1.075e+01,1.019e+01,8.616e+00,8.680e+00,8.785e+00,7.773e+00,8.545e+00,1.005e+01,8.561e+00,7.128e+00,7.993e+00,7.856e+00,8.415e+00,9.342e+00,8.087e+00,1.044e+01,7.512e+00,9.474e+00,9.264e+00,9.174e+00,8.227e+00,6.850e+00,1.116e+01
1.435e-01,5.597e-02,1.035e+00,1.885e+00,1.515e+00,1.997e+00,2.494e+00,1.833e+00,2.935e+00,3.463e+00,3.946e+00,3.292e+00,2.542e+00,3.977e+00,4.107e+00,3.834e+00,3.586e+00,3.234e+00,4.152e+00,3.193e+00,5.766e+00,4.574e+00,6.056e+00,4.308e+00,4.059e+00,4.716e+00,5.621e+00,4.397e+00,7.057e+00,5.432e+00,4.921e+00,6.721e+00,6.462e+00,6.499e+00,6.073e+00,7.341e+00,5.921e+00,7.355e+00,7.485e+00,7.633e+00,6.811e+00,8.290e+00,6.801e+00,6.939e+00,7.762e+00,7.719e+00,7.437e+00,8.113e+00,6.691e+00,7.900e+00,7.104e+00,8.341e+00,7.768e+00,7.349e+00,9.073e+00,8.031e+00,8.007e+00,8.265e+00,7.361e+00,6.936e+00,9.258e+00,6.881e+00,6.148e+00,5.892e+00,8.023e+00,6.626e+00,8.132e+00,8.347e+00,7.965e+00,7.537e+00,7.596e+00,6.200e+00,7.063e+00,7.062e+00,8.200e+00,7.524e+00,6.413e+00,6.676e+00,6.500e+00,7.107e+00,7.413e+00,7.021e+00,7.977e+00,7.363e+00,8.215e+00,7.421e+00,7.243e+00,5.823e+00,6.376e+00,9.788e+00
1.720e-01,1.084e-01,1.571e+00,2.038e+00,1.557e+00,2.222e+00,2.727e+00,2.253e+00,2.893e+00,2.890e+00,4.240e+00,3.593e+00,2.856e+00,4.331e+00,3.744e+00,4.785e+00,4.540e+00,4.271e+00,4.413e+00,4.525e+00,5.953e+00,6.330e+00,8.305e+00,6.057e+00,5.482e+00,6.487e+00,7.252e+00,6.066e+00,7.300e+00,6.530e+00,5.275e+00,8.064e+00,7.772e+00,7.062e+00,6.580e+00,8.404e+00,8.315e+00,8.119e+00,8.857e+00,8.989e+00,8.997e+00,9.729e+00,8.022e+00,8.849e+00,8.936e+00,9.312e+00,8.877e+00,1.002e+01,8.300e+00,8.980e+00,9.130e+00,9.027e+00,8.904e+00,8.443e+00,1.044e+01,9.949e+00,9.485e+00,1.002e+01,9.207e+00,8.184e+00,1.094e+01,7.109e+00,7.910e+00,6.989e+00,8.972e+00,8.446e+00,9.905e+00,9.068e+00,9.032e+00,8.671e+00,8.056e+00,7.823e+00,8.731e+00,6.765e+00,1.045e+01,9.113e+00,7.473e+00,7.705e+00,8.226e+00,8.878e+00,9.451e+00,8.783e+00,9.904e+00,8.923e+00,9.694e+00,9.302e+00,1.063e+01,7.402e+00,8.484e+00,1.072e+01
6.853e-02,8.525e-02,7.803e-01,7.024e-01,8.299e-01,9.312e-01,1.192e+00,1.484e+00,2.269e+00,2.266e+00,3.279e+00,3.560e+00,2.084e+00,4.656e+00,4.333e+00,4.336e+00,4.659e+00,4.323e+00,5.380e+00,5.146e+00,5.557e+00,5.394e+00,7.822e+00,5.855e+00,5.476e+00,6.302e+00,6.764e+00,5.713e+00,7.850e+00,7.693e+00,5.689e+00,7.909e+00,8.032e+00,8.631e+00,6.730e+00,7.446e+00,8.130e+00,7.979e+00,8.679e+00,1.142e+01,1.000e+01,8.794e+00,8.939e+00,1.048e+01,9.577e+00,1.075e+01,1.053e+01,1.113e+01,9.826e+00,1.001e+01,1.015e+01,8.796e+00,9.816e+00,9.167e+00,1.157e+01,1.167e+01,9.444e+00,1.150e+01,8.687e+00,8.571e+00,1.202e+01,8.667e+00,9.281e+00,9.074e+00,9.656e+00,8.682e+00,9.921e+00,1.027e+01,1.195e+01,9.877e+00,8.799e+00,8.113e+00,1.014e+01,8.730e+00,9.812e+00,1.011e+01,9.001e+00,9.563e+00,8.140e+00,8.388e+00,1.061e+01,8.799e+00,1.067e+01,9.318e+00,1.037e+01,8.782e+00,8.710e+00,9.124e+00,8.133e+00,1.207e+01
6.631e-01,2.056e-01,7.163e-01,1.799e+00,1.774e+00,1.871e+00,1.968e+00,2.027e+00,2.958e+00,3.025e+00,3.657e+00,2.623e+00,2.237e+00,4.235e+00,3.965e+00,3.711e+00,3.438e+00,4.639e+00,4.315e+00,4.524e+00,6.368e+00,4.991e+00,6.822e+00,6.301e+00,6.463e+00,6.163e+00,7.093e+00,6.120e+00,8.912e+00,8.379e+00,6.033e+00,7.736e+00,8.730e+00,9.180e+00,8.393e+00,9.040e+00,8.740e+00,1.033e+01,9.926e+00,1.176e+01,1.133e+01,1.157e+01,9.936e+00,1.284e+01,9.969e+00,1.080e+01,1.057e+01,1.190e+01,9.750e+00,1.147e+01,1.058e+01,1.028e+01,9.972e+00,9.621e+00,1.335e+01,1.131e+01,1.220e+01,1.286e+01,1.024e+01,9.995e+00,1.259e+01,9.639e+00,9.409e+00,1.008e+01,1.103e+01,1.114e+01,1.071e+01,1.156e+01,1.254e+01,9.916e+00,9.855e+00,8.816e+00,1.199e+01,1.023e+01,1.311e+01,1.185e+01,1.104e+01,9.611e+00,9.658e+00,1.000e+01,1.150e+01,8.399e+00,1.243e+01,9.547e+00,1.124e+01,1.077e+01,1.131e+01,9.577e+00,1.034e+01,1.258e+01
1.952e-01,6.602e-02,3.975e-01,8.334e-01,6.968e-01,8.470e-01,9.356e-01,9.281e-01,1.386e+00,1.812e+00,2.405e+00,2.461e+00,1.939e+00,3.527e+00,3.816e+00,3.800e+00,4.377e+00,4.393e+00,4.950e+00,4.087e+00,5.549e+00,4.707e+00,7.358e+00,5.641e+00,5.413e+00,5.614e+00,6.536e+00,5.317e+00,8.311e+00,7.597e+00,6.406e+00,8.420e+00,7.942e+00,9.754e+00,8.372e+00,8.107e+00,9.064e+00,9.394e+00,9.691e+00,1.154e+01,1.021e+01,1.000e+01,1.075e+01,1.137e+01,9.450e+00,1.098e+01,1.095e+01,1.102e+01,1.055e+01,1.097e+01,1.108e+01,9.710e+00,9.740e+00,9.332e+00,1.258e+01,1.089e+01,1.064e+01,1.240e+01,1.030e+01,8.819e+00,1.286e+01,9.973e+00,9.511e+00,1.005e+01,1.076e+01,1.073e+01,1.026e+01,1.217e+01,1.259e+01,1.063e+01,1.014e+01,8.998e+00,1.050e+01,1.018e+01,1.079e+01,1.058e+01,9.393e+00,9.290e+00,9.294e+00,1.022e+01,1.058e+01,8.254e+00,1.198e+01,8.608e+00,1.120e+01,1.086e+01,1.030e+01,9.721e+00,8.727e+00,1.171e+01
3.076e-01,9.194e-02,6.455e-01,9.914e-01,8.632e-01,1.664e+00,1.484e+00,1.147e+00,2.083e+00,2.350e+00,2.813e+00,2.326e+00,1.896e+00,2.664e+00,2.197e+00,3.951e+00,3.472e+00,4.044e+00,3.776e+00,3.604e+00,4.750e+00,4.321e+00,6.435e+00,4.906e+00,4.236e+00,6.029e+00,5.545e+00,5.320e+00,8.465e+00,7.050e+00,5.087e+00,7.612e+00,6.962e+00,8.659e+00,7.734e+00,8.762e+00,8.533e+00,7.820e+00,9.315e+00,1.138e+01,1.120e+01,1.070e+01,9.997e+00,1.060e+01,1.008e+01,1.132e+01,1.092e+01,1.209e+01,1.089e+01,1.077e+01,1.074e+01,1.126e+01,1.076e+01,9.517e+00,1.262e+01,1.126e+01,1.148e+01,1.306e+01,9.119e+00,9.768e+00,1.181e+01,1.045e+01,9.283e+00,1.047e+01,1.047e+01,1.059e+01,1.068e+01,1.115e+01,1.269e+01,1.001e+01,1.160e+01,9.710e+00,9.587e+00,1.031e+01,9.901e+00,1.203e+01,1.022e+01,1.082e+01,9.864e+00,9.903e+00,1.193e+01,8.692e+00,1.135e+01,9.453e+00,1.046e+01,8.980e+00,9.990e+00,1.034e+01,9.791e+00,1.280e+01
3.161e-01,1.357e-01,1.112e+00,2.015e+00,1.819e+00,2.201e+00,2.546e+00,2.446e+00,4.004e+00,3.993e+00,5.165e+00,3.793e+00,3.273e+00,5.497e+00,5.222e+00,5.355e+00,4.997e+00,5.538e+00,5.669e+00,5.340e+00,7.827e+00,6.719e+00,1.030e+01,8.050e+00,7.202e+00,7.741e+00,8.539e+00,6.691e+00,1.064e+01,9.125e+00,7.192e+00,1.046e+01,1.007e+01,1.019e+01,9.109e+00,1.004e+01,9.614e+00,1.066e+01,1.116e+01,1.202e+01,1.133e+01,1.198e+01,1.124e+01,1.311e+01,1.334e+01,1.342e+01,1.230e+01,1.410e+01,1.261e+01,1.277e+01,1.235e+01,1.326e+01,1.224e+01,1.051e+01,1.422e+01,1.372e+01,1.314e+01,1.435e+01,1.164e+01,1.141e+01,1.438e+01,1.167e+01,1.081e+01,1.179e+01,1.243e+01,1.188e+01,1.278e+01,1.441e+01,1.457e+01,1.231e+01,1.212e+01,1.081e+01,1.206e+01,1.206e+01,1.360e+01,1.304e+01,1.144e+01,1.223e+01,1.135e+01,1.170e+01,1.272e+01,1.117e+01,1.333e+01,1.108e+01,1.390e+01,1.173e+01,1.280e+01,1.092e+01,1.086e+01,1.531e+01
5.170e-01,1.597e-01,6.827e-01,1.387e+00,1.463e+00,1.957e+00,1.879e+00,1.676e+00,2.805e+00,2.944e+00,3.883e+00,2.926e+00,2.019e+00,3.947e+00,4.087e+00,4.583e+00,4.496e+00,4.902e+00,5.054e+00,3.942e+00,6.837e+00,5.749e+00,7.044e+00,5.396e+00,4.686e+00,6.362e+00,6.487e+00,5.763e+00,8.075e+00,7.393e+00,6.120e+00,7.837e+00,7.842e+00,8.504e+00,7.737e+00,7.982e+00,7.854e+00,8.824e+00,8.524e+00,1.008e+01,9.411e+00,1.002e+01,1.008e+01,1.100e+01,9.871e+00,1.195e+01,1.142e+01,1.297e+01,1.031e+01,9.683e+00,1.078e+01,1.044e+01,1.018e+01,9.741e+00,1.177e+01,1.122e+01,1.184e+01,1.248e+01,9.321e+00,9.500e+00,1.335e+01,1.014e+01,9.606e+00,1.050e+01,1.001e+01,9.417e+00,1.234e+01,1.096e+01,1.223e+01,1.117e+01,1.029e+01,9.646e+00,1.048e+01,1.078e+01,1.095e+01,1.189e+01,9.440e+00,1.135e+01,1.072e+01,9.729e+00,1.056e+01,8.660e+00,1.114e+01,1.076e+01,1.121e+01,1.001e+01,1.061e+01,9.797e+00,9.441e+00,1.216e+01
4.973e-01,1.413e-01,5.014e-01,1.042e+00,7.085e-01,1.523e+00,1.015e+00,1.158e+00,2.089e+00,2.742e+00,3.509e+00,3.109e+00,2.566e+00,4.039e+00,3.182e+00,4.243e+00,4.257e+00,4.567e+00,4.327e+00,4.270e+00,6.234e+00,5.065e+00,8.677e+00,6.540e+00,5.713e+00,6.106e+00,6.647e+00,5.488e+00,8.933e+00,8.032e+00,6.282e+00,9.314e+00,8.046e+00,9.486e+00,8.825e+00,9.227e+00,8.876e+00,8.741e+00,1.014e+01,1.117e+01,1.087e+01,1.086e+01,9.861e+00,1.067e+01,1.026e+01,1.299e+01,1.160e+01,1.324e+01,1.119e+01,1.185e+01,1.313e+01,1.154e+01,1.285e+01,1.111e+01,1.376e+01,1.170e+01,1.282e+01,1.326e+01,1.042e+01,1.028e+01,1.415e+01,1.154e+01,1.039e+01,1.037e+01,1.048e+01,1.039e+01,1.238e+01,1.279e+01,1.338e+01,1.235e+01,1.257e+01,1.189e+01,1.149e+01,1.194e+01,1.152e+01,1.261e+01,1.085e+01,1.179e+01,1.077e+01,1.049e+01,1.258e+01,9.198e+00,1.179e+01,1.065e+01,1.324e+01,1.058e+01,1.167e+01,1.005e+01,1.068e+01,1.500e+01
2.178e-01,8.587e-02,1.130e+00,2.116e+00,1.542e+00,1.880e+00,2.553e+00,2.341e+00,3.499e+00,4.086e+00,5.000e+00,4.230e+00,3.446e+00,5.570e+00,4.690e+00,5.021e+00,4.805e+00,4.630e+00,4.796e+00,4.733e+00,6.518e+00,6.150e+00,8.843e+00,6.440e+00,5.780e+00,6.436e+00,7.898e+00,6.543e+00,9.582e+00,8.305e+00,7.162e+00,9.089e+00,9.200e+00,9.274e+00,9.664e+00,1.027e+01,9.839e+00,9.551e+00,1.159e+01,1.211e+01,1.123e+01,1.148e+01,1.093e+01,1.283e+01,1.234e+01,1.337e+01,1.182e+01,1.514e+01,1.270e+01,1.367e+01,1.502e+01,1.394e+01,1.418e+01,1.234e+01,1.678e+01,1.413e+01,1.507e+01,1.564e+01,1.229e+01,1.287e+01,1.637e+01,1.365e+01,1.233e+01,1.182e+01,1.363e+01,1.352e+01,1.374e+01,1.426e+01,1.556e+01,1.240e+01,1.213e+01,1.194e+01,1.400e+01,1.221e+01,1.356e+01,1.479e+01,1.150e+01,1.318e+01,1.285e+01,1.147e+01,1.367e+01,1.255e+01,1.453e+01,1.258e+01,1.455e+01,1.362e+01,1.412e+01,1.246e+01,1.204e+01,1.597e+01
1.627e-01,1.103e-01,1.258e+00,1.690e+00,1.776e+00,1.806e+00,2.463e+00,1.918e+00,3.293e+00,3.078e+00,4.092e+00,3.628e+00,1.976e+00,3.909e+00,3.038e+00,3.061e+00,3.560e+00,3.124e+00,3.536e+00,3.692e+00,5.593e+00,4.590e+00,6.412e+00,5.093e+00,5.058e+00,4.713e+00,6.694e+00,6.522e+00,8.715e+00,7.101e+00,5.625e+00,7.334e+00,7.560e+00,7.439e+00,6.967e+00,7.837e+00,7.555e+00,8.783e+00,8.226e+00,1.083e+01,9.925e+00,9.831e+00,8.978e+00,1.121e+01,1.048e+01,1.038e+01,1.021e+01,1.228e+01,1.027e+01,1.191e+01,1.136e+01,1.168e+01,1.205e+01,1.008e+01,1.441e+01,1.112e+01,1.271e+01,1.415e+01,1.029e+01,1.092e+01,1.503e+01,1.150e+01,1.015e+01,8.979e+00,1.081e+01,1.101e+01,1.178e+01,1.126e+01,1.324e+01,1.105e+01,1.135e+01,1.051e+01,1.205e+01,1.103e+01,1.196e+01,1.113e+01,1.044e+01,1.248e+01,1.246e+01,9.484e+00,1.216e+01,9.960e+00,1.251e+01,1.153e+01,1.226e+01,1.068e+01,1.143e+01,1.135e+01,9.467e+00,1.373e+01
3.088e-01,1.581e-01,9.781e-01,1.336e+00,1.607e+00,1.497e+00,1.703e+00,1.518e+00,2.916e+00,2.757e+00,3.864e+00,3.675e+00,2.461e+00,4.575e+00,4.651e+00,4.560e+00,5.173e+00,5.200e+00,5.539e+00,4.935e+00,6.995e+00,6.019e+00,8.413e+00,5.837e+00,5.539e+00,6.726e+00,7.586e+00,7.307e+00,1.017e+01,9.549e+00,7.304e+00,9.171e+00,9.603e+00,1.030e+01,8.821e+00,9.315e+00,8.475e+00,1.008e+01,1.015e+01,1.143e+01,1.084e+01,1.022e+01,1.020e+01,1.219e+01,1.194e+01,1.319e+01,1.262e+01,1.472e+01,1.277e+01,1.408e+01,1.437e+01,1.261e+01,1.414e+01,1.336e+01,1.688e+01,1.295e+01,1.502e+01,1.528e+01,1.130e+01,1.251e+01,1.669e+01,1.430e+01,1.349e+01,1.273e+01,1.398e+01,1.244e+01,1.327e+01,1.336e+01,1.556e+01,1.267e+01,1.376e+01,1.375e+01,1.399e+01,1.267e+01,1.385e+01,1.481e+01,1.277e+01,1.296e+01,1.287e+01,1.350e+01,1.432e+01,1.169e+01,1.445e+01,1.354e+01,1.371e+01,1.245e+01,1.317e+01,1.382e+01,1.038e+01,1.559e+01
3.909e-01,1.063e-01,9.476e-01,1.773e+00,1.292e+00,2.393e+00,2.446e+00,2.254e+00,3.149e+00,3.759e+00,4.895e+00,3.711e+00,3.707e+00,4.994e+00,5.254e+00,6.008e+00,5.417e+00,5.602e+00,6.262e+00,5.529e+00,7.621e+00,6.824e+00,8.549e+00,7.071e+00,6.878e+00,7.786e+00,8.614e+00,7.077e+00,1.066e+01,9.402e+00,7.525e+00,1.040e+01,9.689e+00,1.146e+01,9.913e+00,1.033e+01,1.060e+01,1.128e+01,1.271e+01,1.266e+01,1.209e+01,1.194e+01,1.166e+01,1.373e+01,1.304e+01,1.330e+01,1.264e+01,1.479e+01,1.230e+01,1.601e+01,1.480e+01,1.449e+01,1.462e+01,1.301e+01,1.732e+01,1.434e+01,1.594e+01,1.531e+01,1.282e+01,1.292e+01,1.627e+01,1.402e+01,1.185e+01,1.357e+01,1.546e+01,1.453e+01,1.496e+01,1.570e+01,1.578e+01,1.517e+01,1.368e+01,1.326e+01,1.474e+01,1.294e+01,1.556e+01,1.510e+01,1.476e+01,1.364e+01,1.267e+01,1.417e+01,1.487e+01,1.277e+01,1.495e+01,1.408e+01,1.533e+01,1.295e+01,1.485e+01,1.368e+01,1.248e+01,1.780e+01
3.436e-01,1.409e-01,8.382e-01,1.236e+00,1.182e+00,1.804e+00,1.549e+00,1.578e+00,3.020e+00,2.614e+00,3.763e+00,3.070e+00,2.646e+00,4.310e+00,3.524e+00,4.459e+00,4.041e+00,4.099e+00,3.541e+00,3.630e+00,4.919e+00,4.122e+00,5.403e+00,4.280e+00,4.381e+00,5.197e+00,5.878e+00,5.139e+00,8.466e+00,7.465e+00,5.728e+00,6.277e+00,7.389e+00,8.872e+00,8.379e+00,7.435e+00,7.240e+00,8.663e+00,8.142e+00,1.053e+01,8.770e+00,9.860e+00,9.839e+00,1.081e+01,1.010e+01,1.111e+01,1.054e+01,1.196e+01,1.092e+01,1.171e+01,1.223e+01,1.244e+01,1.287e+01,1.092e+01,1.536e+01,1.278e+01,1.327e+01,1.405e+01,1.084e+01,1.008e+01,1.402e+01,1.291e+01,1.114e+01,1.094e+01,1.150e+01,1.126e+01,1.245e+01,1.297e+01,1.438e+01,1.199e+01,1.181e+01,1.079e+01,1.221e+01,1.320e+01,1.132e+01,1.378e+01,1.249e+01,1.260e+01,1.189e+01,1.078e+01,1.403e+01,9.772e+00,1.334e+01,1.181e+01,1.255e+01,1.075e+01,1.202e+01,1.168e+01,1.016e+01,1.446e+01
1.542e-01,6.940e-02,4.039e-01,6.663e-01,5.916e-01,7.304e-01,7.671e-01,1.066e+00,1.800e+00,2.078e+00,2.629e+00,2.903e+00,2.539e+00,4.158e+00,4.021e+00,4.366e+00,4.428e+00,4.340e+00,4.572e+00,4.215e+00,4.403e+00,4.751e+00,6.751e+00,4.980e+00,4.187e+00,5.365e+00,5.735e+00,5.556e+00,7.684e+00,7.230e+00,5.822e+00,7.787e+00,7.820e+00,9.154e+00,8.020e+00,8.386e+00,8.125e+00,8.385e+00,9.746e+00,1.152e+01,9.937e+00,1.039e+01,1.081e+01,1.117e+01,1.142e+01,1.282e+01,1.223e+01,1.436e+01,1.133e+01,1.387e+01,1.473e+01,1.360e+01,1.407e+01,1.263e+01,1.513e+01,1.474e+01,1.593e+01,1.517e+01,1.345e+01,1.209e+01,1.567e+01,1.355e+01,1.074e+01,1.314e+01,1.291e+01,1.382e+01,1.457e+01,1.378e+01,1.551e+01,1.360e+01,1.314e+01,1.310e+01,1.362e+01,1.201e+01,1.240e+01,1.431e+01,1.310e+01,1.320e+01,1.249e+01,1.322e+01,1.445e+01,1.228e+01,1.423e+01,1.316e+01,1.504e+01,1.202e+01,1.276e+01,1.288e+01,1.099e+01,1.722e+01
1.180e-01,1.066e-01,9.396e-01,9.523e-01,1.054e+00,9.986e-01,1.229e+00,1.120e+00,1.805e+00,1.542e+00,2.392e+00,2.352e+00,1.177e+00,2.730e+00,2.955e+00,2.747e+00,3.679e+00,4.109e+00,3.801e+00,3.511e+00,5.518e+00,4.505e+00,6.708e+00,4.474e+00,5.098e+00,5.995e+00,7.385e+00,5.972e+00,8.189e+00,7.759e+00,5.518e+00,7.978e+00,8.349e+00,8.486e+00,6.833e+00,7.627e+00,7.644e+00,8.866e+00,9.186e+00,9.916e+00,9.837e+00,9.406e+00,9.349e+00,1.029e+01,9.910e+00,1.102e+01,1.071e+01,1.357e+01,1.105e+01,1.286e+01,1.290e+01,1.108e+01,1.368e+01,1.237e+01,1.617e+01,1.294e+01,1.374e+01,1.440e+01,1.230e+01,1.136e+01,1.434e+01,1.355e+01,1.174e+01,1.148e+01,1.257e+01,1.209e+01,1.177e+01,1.351e+01,1.498e+01,1.195e+01,1.077e+01,1.270e+01,1.378e+01,1.134e+01,1.189e+01,1.308e+01,1.261e+01,1.316e+01,1.171e+01,1.113e+01,1.417e+01,1.068e+01,1.280e+01,1.269e+01,1.443e+01,1.110e+01,1.264e+01,1.345e+01,9.905e+00,1.553e+01
3.997e-01,1.713e-01,1.422e+00,1.921e+00,1.664e+00,2.305e+00,2.299e+00,1.601e+00,2.606e+00,2.768e+00,3.637e+00,3.310e+00,2.134e+00,3.774e+00,3.241e+00,4.033e+00,4.333e+00,4.258e+00,4.263e+00,3.907e+00,7.057e+00,5.606e+00,7.842e+00,6.253e+00,6.158e+00,6.526e+00,8.205e+00,7.189e+00,1.008e+01,7.954e+00,6.775e+00,8.921e+00,9.347e+00,9.763e+00,8.883e+00,9.218e+00,8.998e+00,9.224e+00,9.849e+00,1.098e+01,1.125e+01,1.083e+01,1.023e+01,1.121e+01,1.125e+01,1.185e+01,1.120e+01,1.392e+01,1.102e+01,1.346e+01,1.242e+01,1.189e+01,1.252e+01,1.290e+01,1.610e+01,1.371e+01,1.405e+01,1.487e+01,1.247e+01,1.057e+01,1.448e+01,1.239e+01,1.160e+01,1.180e+01,1.237e+01,1.237e+01,1.299e+01,1.503e+01,1.436e+01,1.202e+01,1.225e+01,1.228e+01,1.229e+01,1.342e+01,1.314e+01,1.318e+01,1.311e+01,1.307e+01,1.254e+01,1.182e+01,1.374e+01,1.167e+01,1.317e+01,1.168e+01,1.390e+01,1.156e+01,1.317e+01,1.224e+01,1.114e+01,1.488e+01
6.481e-01,1.774e-01,8.591e-01,1.644e+00,6.692e-01,1.782e+00,1.302e+00,1.580e+00,1.974e+00,2.917e+00,3.549e+00,2.450e+00,2.228e+00,3.447e+00,2.850e+00,3.958e+00,3.061e+00,4.222e+00,3.555e+00,3.582e+00,5.653e+00,5.513e+00,6.523e+00,5.069e+00,4.772e+00,6.466e+00,6.507e+00,6.566e+00,7.661e+00,7.930e+00,5.793e+00,7.371e+00,7.619e+00,8.263e+00,7.539e+00,8.380e+00,8.594e+00,8.987e+00,9.133e+00,9.897e+00,9.512e+00,1.073e+01,8.634e+00,1.171e+01,8.781e+00,1.071e+01,1.058e+01,1.197e+01,8.905e+00,1.064e+01,1.124e+01,1.087e+01,1.115e+01,1.157e+01,1.402e+01,1.272e+01,1.402e+01,1.467e+01,1.187e+01,1.101e+01,1.450e+01,1.065e+01,1.093e+01,1.108e+01,1.209e+01,1.298e+01,1.294e+01,1.263e+01,1.440e+01,1.239e+01,1.143e+01,1.184e+01,1.397e+01,1.328e+01,1.300e+01,1.371e+01,1.280e+01,1.164e+01,1.268e+01,1.226e+01,1.436e+01,1.048e+01,1.264e+01,1.221e+01,1.283e+01,1.050e+01,1.354e+01,1.183e+01,1.232e+01,1.491e+01
3.849e-01,1.767e-01,1.188e+00,1.703e+00,1.921e+00,1.926e+00,2.439e+00,2.403e+00,3.544e+00,2.909e+00,4.663e+00,3.916e+00,3.362e+00,5.241e+00,4.861e+00,5.322e+00,5.811e+00,5.791e+00,5.405e+00,5.934e+00,7.187e+00,7.273e+00,8.921e+00,7.209e+00,7.097e+00,7.779e+00,9.329e+00,8.706e+00,1.084e+01,9.940e+00,7.206e+00,9.265e+00,1.090e+01,1.083e+01,9.403e+00,9.881e+00,9.642e+00,1.111e+01,1.151e+01,1.237e+01,1.088e+01,1.272e+01,1.153e+01,1.278e+01,1.367e+01,1.381e+01,1.336e+01,1.553e+01,1.251e+01,1.439e+01,1.481e+01,1.360e+01,1.438e+01,1.354e+01,1.691e+01,1.502e+01,1.742e+01,1.706e+01,1.412e+01,1.421e+01,1.829e+01,1.520e+01,1.336e+01,1.420e+01,1.398e+01,1.411e+01,1.560e+01,1.525e+01,1.832e+01,1.634e+01,1.453e+01,1.441e+01,1.678e+01,1.568e+01,1.549e+01,1.649e+01,1.449e+01,1.478e+01,1.481e+01,1.315e+01,1.594e+01,1.350e+01,1.626e+01,1.515e+01,1.546e+01,1.360e+01,1.589e+01,1.465e+01,1.359e+01,1.919e+01
6.448e-01,2.020e-01,8.672e-01,2.006e+00,1.624e+00,1.734e+00,1.837e+00,1.815e+00,2.561e+00,2.762e+00,3.827e+00,2.800e+00,2.803e+00,4.200e+00,3.480e+00,4.108e+00,4.112e+00,5.050e+00,4.296e+00,4.862e+00,6.535e+00,6.045e+00,8.976e+00,6.620e+00,5.537e+00,6.250e+00,7.175e+00,7.249e+00,1.014e+01,8.600e+00,6.494e+00,9.423e+00,9.757e+00,9.717e+00,9.174e+00,9.319e+00,9.923e+00,9.966e+00,1.116e+01,1.164e+01,1.174e+01,1.190e+01,1.111e+01,1.197e+01,1.102e+01,1.243e+01,1.210e+01,1.466e+01,1.222e+01,1.184e+01,1.316e+01,1.233e+01,1.253e+01,1.264e+01,1.603e+01,1.383e+01,1.510e+01,1.677e+01,1.296e+01,1.386e+01,1.641e+01,1.381e+01,1.398e+01,1.263e+01,1.365e+01,1.389e+01,1.392e+01,1.438e+01,1.607e+01,1.432e+01,1.363e+01,1.453e+01,1.445e+01,1.410e+01,1.508e+01,1.473e+01,1.287e+01,1.367e+01,1.462e+01,1.255e+01,1.557e+01,1.223e+01,1.529e+01,1.278e+01,1.570e+01,1.436e+01,1.612e+01,1.519e+01,1.256e+01,1.668e+01
1.653e-01,8.285e-02,6.904e-01,8.353e-01,5.706e-01,1.126e+00,9.280e-01,1.126e+00,2.162e+00,2.356e+00,3.132e+00,3.075e+00,2.593e+00,3.933e+00,3.864e+00,4.438e+00,4.704e+00,4.705e+00,4.679e+00,4.196e+00,5.580e+00,5.217e+00,7.382e+00,5.511e+00,5.426e+00,5.860e+00,7.526e+00,6.874e+00,8.383e+00,7.297e+00,6.299e+00,8.069e+00,8.063e+00,9.303e+00,7.975e+00,7.470e+00,8.561e+00,9.022e+00,9.126e+00,1.014e+01,9.345e+00,9.829e+00,8.737e+00,1.036e+01,1.025e+01,1.098e+01,1.117e+01,1.343e+01,1.022e+01,1.318e+01,1.390e+01,1.242e+01,1.335e+01,1.148e+01,1.637e+01,1.385e+01,1.512e+01,1.559e+01,1.362e+01,1.215e+01,1.666e+01,1.345e+01,1.319e+01,1.340e+01,1.268e+01,1.334e+01,1.484e+01,1.433e+01,1.623e+01,1.496e+01,1.271e+01,1.352e+01,1.566e+01,1.472e+01,1.291e+01,1.459e+01,1.382e+01,1.438e+01,1.503e+01,1.403e+01,1.606e+01,1.227e+01,1.353e+01,1.415e+01,1.621e+01,1.282e+01,1.500e+01,1.385e+01,1.211e+01,1.734e+01
7.074e-01,2.104e-01,1.136e+00,2.419e+00,1.965e+00,2.705e+00,2.826e+00,2.760e+00,3.718e+00,3.743e+00,4.897e+00,3.117e+00,3.064e+00,4.709e+00,4.424e+00,5.032e+00,4.306e+00,5.467e+00,4.683e+00,4.755e+00,6.365e+00,5.771e+00,7.573e+00,6.532e+00,5.808e+00,7.345e+00,7.064e+00,5.626e+00,9.254e+00,7.310e+00,4.920e+00,8.235e+00,8.910e+00,8.857e+00,7.557e+00,8.949e+00,9.401e+00,9.703e+00,9.298e+00,9.970e+00,9.906e+00,1.136e+01,9.980e+00,1.207e+01,1.134e+01,1.255e+01,1.070e+01,1.451e+01,1.118e+01,1.366e+01,1.348e+01,1.334e+01,1.413e+01,1.303e+01,1.694e+01,1.326e+01,1.669e+01,1.616e+01,1.395e+01,1.401e+01,1.784e+01,1.592e+01,1.355e+01,1.468e+01,1.534e+01,1.468e+01,1.404e+01,1.567e+01,1.822e+01,1.613e+01,1.256e+01,1.472e+01,1.744e+01,1.555e+01,1.589e+01,1.550e+01,1.460e+01,1.590e+01,1.690e+01,1.559e+01,1.652e+01,1.330e+01,1.527e+01,1.549e+01,1.796e+01,1.540e+01,1.653e+01,1.503e+01,1.426e+01,1.922e+01
2.719e-01,1.123e-01,1.134e+00,1.889e+00,1.294e+00,1.978e+00,2.151e+00,2.018e+00,2.598e+00,2.785e+00,3.862e+00,2.487e+00,2.694e+00,3.949e+00,3.643e+00,4.191e+00,3.695e+00,4.190e+00,3.882e+00,3.688e+00,5.626e+00,5.748e+00,7.293e+00,6.277e+00,5.631e+00,6.084e+00,7.217e+00,6.507e+00,9.480e+00,7.616e+00,6.283e+00,8.347e+00,9.026e+00,8.623e+00,7.499e+00,7.877e+00,8.442e+00,9.348e+00,9.280e+00,1.119e+01,9.838e+00,1.190e+01,9.924e+00,1.283e+01,1.068e+01,1.290e+01,1.095e+01,1.325e+01,1.191e+01,1.334e+01,1.228e+01,1.116e+01,1.264e+01,1.284e+01,1.579e+01,1.437e+01,1.499e+01,1.594e+01,1.357e+01,1.286e+01,1.698e+01,1.443e+01,1.242e+01,1.340e+01,1.541e+01,1.369e+01,1.348e+01,1.635e+01,1.641e+01,1.410e+01,1.299e+01,1.317e+01,1.551e+01,1.322e+01,1.570e+01,1.396e+01,1.406e+01,1.429e+01,1.370e+01,1.253e+01,1.650e+01,1.314e+01,1.535e+01,1.365e+01,1.665e+01,1.502e+01,1.596e+01,1.439e+01,1.407e+01,1.821e+01
1.054e-01,9.007e-02,1.192e+00,1.451e+00,8.740e-01,1.605e+00,1.463e+00,1.307e+00,2.108e+00,2.406e+00,3.258e+00,2.668e+00,2.614e+00,3.369e+00,3.683e+00,3.754e+00,3.453e+00,3.431e+00,4.126e+00,3.440e+00,4.601e+00,4.501e+00,6.738e+00,4.882e+00,4.655e+00,5.399e+00,5.868e+00,5.387e+00,7.848e+00,6.148e+00,5.092e+00,7.724e+00,6.951e+00,8.112e+00,6.975e+00,7.668e+00,7.895e+00,8.581e+00,8.618e+00,9.548e+00,9.398e+00,9.840e+00,9.149e+00,1.020e+01,1.073e+01,1.115e+01,9.895e+00,1.199e+01,9.919e+00,1.231e+01,1.233e+01,1.230e+01,1.134e+01,1.115e+01,1.444e+01,1.299e+01,1.409e+01,1.514e+01,1.429e+01,1.343e+01,1.652e+01,1.385e+01,1.358e+01,1.370e+01,1.409e+01,1.394e+01,1.389e+01,1.570e+01,1.670e+01,1.435e+01,1.375e+01,1.284e+01,1.498e+01,1.392e+01,1.483e+01,1.390e+01,1.361e+01,1.390e+01,1.625e+01,1.473e+01,1.622e+01,1.307e+01,1.538e+01,1.391e+01,1.623e+01,1.412e+01,1.458e+01,1.453e+01,1.307e+01,1.808e+01
6.803e-01,2.066e-01,6.995e-01,1.880e+00,1.784e+00,1.733e+00,1.871e+00,1.751e+00,2.546e+00,2.577e+00,3.293e+00,2.091e+00,2.034e+00,3.455e+00,3.203e+00,3.635e+00,3.738e+00,5.292e+00,3.946e+00,4.123e+00,6.258e+00,4.415e+00,6.904e+00,5.922e+00,5.139e+00,5.815e+00,6.369e+00,6.251e+00,9.159e+00,8.302e+00,5.714e+00,7.887e+00,8.837e+00,9.028e+00,9.005e+00,9.008e+00,9.183e+00,9.576e+00,1.092e+01,1.137e+01,1.080e+01,1.179e+01,1.073e+01,1.172e+01,1.049e+01,1.181e+01,1.111e+01,1.377e+01,1.126e+01,1.234e+01,1.231e+01,1.192e+01,1.283e+01,1.266e+01,1.494e+01,1.351e+01,1.546e+01,1.608e+01,1.301e+01,1.232e+01,1.575e+01,1.505e+01,1.412e+01,1.445e+01,1.567e+01,1.507e+01,1.413e+01,1.659e+01,1.631e+01,1.415e+01,1.479e+01,1.377e+01,1.575e+01,1.510e+01,1.548e+01,1.585e+01,1.492e+01,1.479e+01,1.511e+01,1.378e+01,1.727e+01,1.234e+01,1.551e+01,1.266e+01,1.628e+01,1.398e+01,1.581e+01,1.524e+01,1.346e+01,1.848e+01
5.814e-01,2.025e-01,1.405e+00,2.470e+00,1.662e+00,1.974e+00,2.213e+00,1.976e+00,2.924e+00,3.864e+00,4.643e+00,4.127e+00,3.260e+00,5.136e+00,5.067e+00,5.130e+00,5.619e+00,6.072e+00,5.606e+00,5.083e+00,8.127e+00,6.282e+00,8.611e+00,6.557e+00,5.657e+00,6.926e+00,7.989e+00,7.300e+00,9.742e+00,9.364e+00,7.580e+00,8.877e+00,9.671e+00,9.890e+00,9.770e+00,1.002e+01,8.863e+00,9.855e+00,1.109e+01,1.177e+01,1.071e+01,1.134e+01,1.097e+01,1.193e+01,1.191e+01,1.303e+01,1.210e+01,1.519e+01,1.245e+01,1.371e+01,1.426e+01,1.424e+01,1.457e+01,1.384e+01,1.792e+01,1.457e+01,1.702e+01,1.766e+01,1.511e+01,1.521e+01,1.854e+01,1.568e+01,1.497e+01,1.508e+01,1.565e+01,1.597e+01,1.750e+01,1.675e+01,1.818e+01,1.651e+01,1.588e+01,1.627e+01,1.810e+01,1.656e+01,1.580e+01,1.750e+01,1.725e+01,1.624e+01,1.767e+01,1.607e+01,1.940e+01,1.467e+01,1.638e+01,1.676e+01,1.857e+01,1.622e+01,1.577e+01,1.608e+01,1.366e+01,2.045e+01
6.352e-01,2.214e-01,1.326e+00,2.206e+00,1.666e+00,2.262e+00,2.271e+00,2.268e+00,3.196e+00,3.225e+00,4.825e+00,3.612e+00,3.358e+00,4.865e+00,4.214e+00,5.029e+00,4.552e+00,4.780e+00,4.838e+00,5.353e+00,6.756e+00,6.944e+00,9.101e+00,6.685e+00,6.008e+00,7.258e+00,7.496e+00,7.056e+00,9.791e+00,8.772e+00,6.522e+00,9.076e+00,9.555e+00,1.007e+01,9.581e+00,9.590e+00,9.353e+00,1.014e+01,1.105e+01,1.329e+01,1.199e+01,1.262e+01,1.191e+01,1.342e+01,1.279e+01,1.419e+01,1.359e+01,1.520e+01,1.241e+01,1.509e+01,1.559e+01,1.453e+01,1.495e+01,1.363e+01,1.777e+01,1.649e+01,1.779e+01,1.898e+01,1.511e+01,1.724e+01,2.005e+01,1.684e+01,1.673e+01,1.748e+01,1.785e+01,1.657e+01,1.837e+01,1.786e+01,1.993e+01,2.044e+01,1.709e+01,1.808e+01,1.956e+01,1.899e+01,1.920e+01,1.873e+01,1.755e+01,1.888e+01,1.937e+01,1.754e+01,2.139e+01,1.655e+01,1.921e+01,1.937e+01,2.044e+01,1.786e+01,1.842e+01,1.858e+01,1.732e+01,2.273e+01
3.256e-01,1.334e-01,1.165e+00,2.101e+00,1.622e+00,1.831e+00,2.249e+00,2.004e+00,2.628e+00,2.644e+00,3.798e+00,2.572e+00,2.391e+00,3.836e+00,3.559e+00,3.398e+00,3.166e+00,3.421e+00,3.796e+00,3.759e+00,5.135e+00,4.861e+00,6.653e+00,5.335e+00,5.097e+00,5.214e+00,5.994e+00,5.475e+00,8.303e+00,7.257e+00,5.195e+00,7.420e+00,7.299e+00,6.953e+00,6.979e+00,7.485e+00,7.026e+00,8.133e+00,8.075e+00,8.776e+00,8.280e+00,8.789e+00,7.439e+00,8.850e+00,9.602e+00,9.652e+00,8.280e+00,1.127e+01,8.681e+00,1.172e+01,1.164e+01,9.912e+00,1.191e+01,1.235e+01,1.437e+01,1.167e+01,1.466e+01,1.421e+01,1.222e+01,1.291e+01,1.632e+01,1.398e+01,1.358e+01,1.299e+01,1.572e+01,1.327e+01,1.418e+01,1.466e+01,1.679e+01,1.540e+01,1.341e+01,1.455e+01,1.742e+01,1.589e+01,1.591e+01,1.402e+01,1.378e+01,1.496e+01,1.603e+01,1.382e+01,1.661e+01,1.395e+01,1.533e+01,1.532e+01,1.740e+01,1.466e+01,1.482e+01,1.621e+01,1.352e+01,1.738e+01
3.380e-02,8.729e-02,9.997e-01,9.248e-01,8.944e-01,9.085e-01,1.207e+00,1.309e+00,2.471e+00,2.436e+00,3.699e+00,3.560e+00,2.806e+00,4.051e+00,3.594e+00,3.523e+00,4.349e+00,3.692e+00,4.138e+00,4.533e+00,5.251e+00,5.245e+00,7.691e+00,5.650e+00,5.362e+00,5.140e+00,6.855e+00,6.071e+00,8.895e+00,7.543e+00,6.415e+00,8.749e+00,8.490e+00,9.591e+00,7.745e+00,8.196e+00,8.403e+00,1.037e+01,1.118e+01,1.322e+01,1.156e+01,1.150e+01,1.065e+01,1.230e+01,1.261e+01,1.268e+01,1.056e+01,1.322e+01,1.270e+01,1.421e+01,1.394e+01,1.330e+01,1.533e+01,1.334e+01,1.732e+01,1.404e+01,1.618e+01,1.785e+01,1.326e+01,1.488e+01,1.992e+01,1.711e+01,1.581e+01,1.377e+01,1.778e+01,1.640e+01,1.679e+01,1.923e+01,1.893e+01,1.671e+01,1.772e+01,1.639e+01,1.932e+01,1.816e+01,1.819e+01,1.648e+01,1.642e+01,1.776e+01,1.887e+01,1.592e+01,2.036e+01,1.685e+01,1.693e+01,1.736e+01,2.006e+01,1.636e+01,1.701e+01,1.796e+01,1.586e+01,2.099e+01
6.021e-01,1.938e-01,1.341e+00,1.956e+00,1.345e+00,2.393e+00,2.244e+00,1.891e+00,2.255e+00,2.677e+00,3.943e+00,3.136e+00,2.776e+00,3.632e+00,3.400e+00,4.802e+00,4.344e+00,4.535e+00,4.599e+00,4.741e+00,6.362e+00,6.052e+00,7.496e+00,5.191e+00,5.127e+00,6.262e+00,7.311e+00,5.348e+00,7.864e+00,6.368e+00,5.983e+00,8.146e+00,7.323e+00,8.039e+00,7.597e+00,8.239e+00,8.787e+00,8.734e+00,9.115e+00,9.426e+00,9.500e+00,1.000e+01,9.944e+00,9.945e+00,1.016e+01,1.100e+01,1.009e+01,1.228e+01,9.909e+00,1.168e+01,1.231e+01,1.235e+01,1.280e+01,1.130e+01,1.454e+01,1.232e+01,1.448e+01,1.541e+01,1.318e+01,1.244e+01,1.667e+01,1.438e+01,1.350e+01,1.363e+01,1.373e+01,1.412e+01,1.550e+01,1.732e+01,1.834e+01,1.592e+01,1.434e+01,1.546e+01,1.745e+01,1.669e+01,1.617e+01,1.577e+01,1.541e+01,1.611e+01,1.846e+01,1.406e+01,1.691e+01,1.351e+01,1.463e+01,1.663e+01,1.885e+01,1.527e+01,1.771e+01,1.572e+01,1.462e+01,1.860e+01
1.662e-01,1.093e-01,1.116e+00,1.799e+00,1.777e+00,2.027e+00,2.321e+00,1.870e+00,3.250e+00,3.274e+00,4.105e+00,3.667e+00,2.737e+00,5.273e+00,4.541e+00,4.702e+00,4.639e+00,4.856e+00,5.292e+00,4.753e+00,7.183e+00,5.861e+00,7.498e+00,6.194e+00,6.110e+00,5.812e+00,7.945e+00,7.365e+00,8.426e+00,7.281e+00,6.333e+00,8.067e+00,8.261e+00,8.159e+00,7.657e+00,7.810e+00,8.156e+00,9.107e+00,8.780e+00,1.067e+01,9.271e+00,1.155e+01,1.018e+01,1.293e+01,1.142e+01,1.230e+01,1.228e+01,1.465e+01,1.148e+01,1.362e+01,1.248e+01,1.382e+01,1.375e+01,1.345e+01,1.680e+01,1.483e+01,1.684e+01,1.672e+01,1.518e+01,1.402e+01,1.801e+01,1.458e+01,1.407e+01,1.499e+01,1.678e+01,1.500e+01,1.688e+01,1.983e+01,1.946e+01,1.561e+01,1.451e+01,1.596e+01,1.951e+01,1.828e+01,1.784e+01,1.843e+01,1.699e+01,1.819e+01,2.069e+01,1.657e+01,1.907e+01,1.484e+01,1.882e+01,1.808e+01,2.038e+01,1.574e+01,1.843e+01,1.775e+01,1.695e+01,2.003e+01
1.366e-02,8.379e-02,1.514e+00,2.102e+00,2.151e+00,2.550e+00,3.247e+00,2.585e+00,3.821e+00,2.781e+00,4.735e+00,3.493e+00,2.845e+00,4.829e+00,4.369e+00,4.778e+00,4.387e+00,4.155e+00,4.703e+00,4.550e+00,5.589e+00,5.433e+00,7.431e+00,5.154e+00,6.174e+00,6.873e+00,7.577e+00,6.363e+00,9.148e+00,7.911e+00,5.092e+00,8.642e+00,8.012e+00,9.005e+00,8.919e+00,8.991e+00,9.099e+00,9.734e+00,9.576e+00,1.001e+01,9.418e+00,1.160e+01,9.733e+00,1.033e+01,1.115e+01,1.185e+01,1.060e+01,1.319e+01,1.014e+01,1.318e+01,1.420e+01,1.334e+01,1.407e+01,1.211e+01,1.609e+01,1.419e+01,1.634e+01,1.545e+01,1.432e+01,1.332e+01,1.762e+01,1.575e+01,1.381e+01,1.416e+01,1.712e+01,1.485e+01,1.665e+01,1.780e+01,1.849e+01,1.679e+01,1.557e+01,1.605e+01,1.814e+01,1.697e+01,1.700e+01,1.774e+01,1.599e+01,1.649e+01,1.782e+01,1.673e+01,1.856e+01,1.445e+01,1.747e+01,1.753e+01,1.903e+01,1.586e+01,1.733e+01,1.680e+01,1.464e+01,2.115e+01
6.134e-01,2.251e-01,1.605e+00,2.794e+00,2.310e+00,2.666e+00,2.963e+00,2.306e+00,3.344e+00,3.911e+00,4.980e+00,4.083e+00,3.437e+00,5.194e+00,5.144e+00,5.222e+00,5.462e+00,5.844e+00,6.206e+00,5.641e+00,8.362e+00,6.722e+00,8.942e+00,7.259e+00,6.424e+00,6.658e+00,8.427e+00,8.372e+00,1.071e+01,8.139e+00,7.217e+00,1.004e+01,9.712e+00,9.439e+00,8.683e+00,9.483e+00,9.942e+00,9.875e+00,1.073e+01,1.117e+01,1.051e+01,1.162e+01,1.036e+01,1.257e+01,1.198e+01,1.234e+01,1.173e+01,1.428e+01,1.105e+01,1.353e+01,1.320e+01,1.248e+01,1.343e+01,1.277e+01,1.614e+01,1.296e+01,1.663e+01,1.629e+01,1.420e+01,1.496e+01,1.726e+01,1.482e+01,1.431e+01,1.437e+01,1.702e+01,1.587e+01,1.584e+01,1.857e+01,1.922e+01,1.872e+01,1.647e+01,1.716e+01,2.057e+01,1.792e+01,1.919e+01,1.732e+01,1.660e+01,1.743e+01,1.935e+01,1.625e+01,1.993e+01,1.468e+01,1.887e+01,1.686e+01,2.032e+01,1.721e+01,1.862e+01,1.869e+01,1.548e+01,1.967e+01
3.504e-01,1.471e-01,7.648e-01,1.166e+00,9.699e-01,9.330e-01,1.146e+00,1.581e+00,1.745e+00,2.238e+00,2.861e+00,2.750e+00,1.589e+00,4.004e+00,4.125e+00,3.191e+00,3.331e+00,3.718e+00,4.475e+00,4.128e+00,5.228e+00,5.037e+00,6.358e+00,5.023e+00,4.847e+00,5.392e+00,6.419e+00,6.012e+00,7.319e+00,7.821e+00,6.025e+00,8.098e+00,8.529e+00,8.574e+00,7.779e+00,7.852e+00,7.297e+00,9.828e+00,9.240e+00,1.148e+01,1.069e+01,9.849e+00,9.689e+00,1.178e+01,1.086e+01,1.164e+01,1.180e+01,1.424e+01,1.055e+01,1.404e+01,1.363e+01,1.287e+01,1.451e+01,1.371e+01,1.588e+01,1.461e+01,1.616e+01,1.765e+01,1.453e+01,1.494e+01,1.817e+01,1.568e+01,1.421e+01,1.489e+01,1.617e+01,1.555e+01,1.715e+01,1.800e+01,1.873e+01,1.767e+01,1.760e+01,1.759e+01,2.103e+01,1.807e+01,1.819e+01,1.883e+01,1.872e+01,1.733e+01,1.950e+01,1.677e+01,2.076e+01,1.692e+01,1.684e+01,1.812e+01,2.149e+01,1.561e+01,1.778e+01,1.923e+01,1.699e+01,2.273e+01
1.912e-01,6.364e-02,6.160e-01,1.067e+00,8.284e-01,1.336e+00,1.455e+00,1.446e+00,2.524e+00,2.932e+00,3.648e+00,3.000e+00,2.719e+00,3.799e+00,4.023e+00,4.497e+00,4.223e+00,4.329e+00,5.038e+00,4.526e+00,6.162e+00,6.073e+00,8.201e+00,5.718e+00,5.526e+00,6.253e+00,7.557e+00,6.520e+00,9.161e+00,8.092e+00,6.998e+00,8.727e+00,8.090e+00,9.439e+00,7.531e+00,8.099e+00,8.131e+00,9.449e+00,9.732e+00,1.053e+01,9.823e+00,9.894e+00,9.648e+00,1.102e+01,1.142e+01,1.135e+01,1.107e+01,1.300e+01,1.076e+01,1.331e+01,1.237e+01,1.280e+01,1.247e+01,1.163e+01,1.494e+01,1.388e+01,1.478e+01,1.635e+01,1.295e+01,1.319e+01,1.710e+01,1.456e+01,1.329e+01,1.407e+01,1.501e+01,1.455e+01,1.578e+01,1.708e+01,1.791e+01,1.705e+01,1.613e+01,1.672e+01,1.849e+01,1.768e+01,1.719e+01,1.794e+01,1.650e+01,1.752e+01,1.717e+01,1.728e+01,1.830e+01,1.592e+01,1.590e+01,1.669e+01,1.997e+01,1.519e+01,1.701e+01,1.811e+01,1.580e+01,1.984e+01
3.030e-03,6.723e-02,1.498e+00,2.213e+00,1.922e+00,2.413e+00,3.125e+00,2.584e+00,3.759e+00,3.149e+00,5.034e+00,3.892e+00,3.715e+00,5.533e+00,4.712e+00,5.591e+00,4.851e+00,4.575e+00,5.234e+00,5.467e+00,6.052e+00,6.552e+00,8.268e+00,5.572e+00,5.938e+00,6.811e+00,7.393e+00,6.456e+00,9.049e+00,8.102e+00,6.366e+00,8.580e+00,8.581e+00,9.690e+00,9.610e+00,9.053e+00,9.434e+00,1.026e+01,1.006e+01,1.014e+01,9.594e+00,1.211e+01,9.855e+00,1.172e+01,1.195e+01,1.293e+01,1.067e+01,1.314e+01,1.051e+01,1.307e+01,1.422e+01,1.440e+01,1.478e+01,1.284e+01,1.574e+01,1.600e+01,1.525e+01,1.626e+01,1.376e+01,1.279e+01,1.849e+01,1.469e+01,1.415e+01,1.413e+01,1.649e+01,1.476e+01,1.658e+01,1.879e+01,1.831e+01,1.859e+01,1.548e+01,1.683e+01,1.950e+01,1.980e+01,1.800e+01,1.909e+01,1.728e+01,1.954e+01,2.037e+01,1.690e+01,2.088e+01,1.697e+01,1.789e+01,1.859e+01,2.111e+01,1.690e+01,1.898e+01,1.861e+01,1.740e+01,2.274e+01
5.019e-01,1.962e-01,9.701e-01,1.495e+00,1.300e+00,1.989e+00,1.480e+00,1.613e+00,2.680e+00,2.767e+00,4.157e+00,3.076e+00,3.389e+00,4.518e+00,4.584e+00,4.943e+00,5.009e+00,5.689e+00,5.044e+00,4.589e+00,6.657e+00,6.310e+00,8.180e+00,6.373e+00,5.900e+00,7.210e+00,7.937e+00,7.315e+00,1.029e+01,8.572e+00,6.629e+00,9.306e+00,9.776e+00,1.070e+01,8.620e+00,8.521e+00,9.136e+00,1.041e+01,1.095e+01,1.129e+01,1.064e+01,1.189e+01,1.151e+01,1.199e+01,1.278e+01,1.363e+01,1.218e+01,1.480e+01,1.316e+01,1.285e+01,1.404e+01,1.345e+01,1.348e+01,1.311e+01,1.537e+01,1.419e+01,1.550e+01,1.556e+01,1.389e+01,1.396e+01,1.736e+01,1.507e+01,1.390e+01,1.525e+01,1.411e+01,1.462e+01,1.660e+01,1.801e+01,1.852e+01,1.682e+01,1.646e+01,1.700e+01,1.785e+01,1.816e+01,1.839e+01,1.961e+01,1.722e+01,1.969e+01,1.903e+01,1.644e+01,1.955e+01,1.651e+01,1.750e+01,1.708e+01,1.934e+01,1.666e+01,1.866e+01,1.793e+01,1.638e+01,2.209e+01
4.822e-01,1.908e-01,1.132e+00,1.542e+00,1.030e+00,1.372e+00,1.409e+00,1.843e+00,2.323e+00,3.012e+00,4.051e+00,3.794e+00,2.417e+00,4.729e+00,4.701e+00,3.826e+00,3.873e+00,3.700e+00,4.822e+00,4.796e+00,6.246e+00,5.415e+00,7.807e+00,5.561e+00,5.402e+00,5.761e+00,6.878e+00,5.400e+00,7.633e+00,7.595e+00,5.722e+00,7.590e+00,7.668e+00,7.997e+00,6.884e+00,7.796e+00,7.446e+00,9.355e+00,8.666e+00,9.554e+00,9.207e+00,9.593e+00,8.447e+00,9.869e+00,1.041e+01,1.163e+01,1.002e+01,1.328e+01,9.358e+00,1.239e+01,1.254e+01,1.187e+01,1.272e+01,1.154e+01,1.452e+01,1.190e+01,1.451e+01,1.576e+01,1.176e+01,1.410e+01,1.672e+01,1.491e+01,1.331e+01,1.355e+01,1.458e+01,1.307e+01,1.518e+01,1.594e+01,1.834e+01,1.760e+01,1.527e+01,1.710e+01,1.897e+01,1.765e+01,1.867e+01,1.638e+01,1.667e+01,1.693e+01,1.945e+01,1.553e+01,2.006e+01,1.734e+01,1.553e+01,1.905e+01,2.017e+01,1.663e+01,1.692e+01,1.879e+01,1.682e+01,2.175e+01
4.820e-01,1.798e-01,1.249e+00,2.125e+00,1.511e+00,1.810e+00,2.132e+00,2.202e+00,2.486e+00,2.746e+00,4.068e+00,3.349e+00,2.838e+00,4.800e+00,4.427e+00,4.735e+00,4.789e+00,5.244e+00,4.939e+00,5.008e+00,6.038e+00,5.930e+00,8.440e+00,6.498e+00,5.367e+00,6.348e+00,7.197e+00,6.313e+00,9.200e+00,8.417e+00,6.127e+00,8.400e+00,8.958e+00,9.075e+00,8.469e+00,8.533e+00,9.260e+00,9.721e+00,9.354e+00,1.066e+01,9.895e+00,1.073e+01,1.094e+01,1.143e+01,1.064e+01,1.271e+01,1.168e+01,1.441e+01,1.213e+01,1.256e+01,1.290e+01,1.272e+01,1.332e+01,1.297e+01,1.581e+01,1.458e+01,1.533e+01,1.589e+01,1.468e+01,1.236e+01,1.737e+01,1.543e+01,1.434e+01,1.327e+01,1.542e+01,1.423e+01,1.658e+01,1.917e+01,1.844e+01,1.824e+01,1.776e+01,1.790e+01,1.970e+01,1.856e+01,1.816e+01,1.862e+01,1.870e+01,1.910e+01,2.099e+01,1.781e+01,2.100e+01,1.824e+01,1.904e+01,1.784e+01,2.219e+01,1.883e+01,1.932e+01,1.975e+01,1.958e+01,2.248e+01
5.209e-01,1.886e-01,7.910e-01,1.667e+00,1.624e+00,1.509e+00,1.716e+00,1.919e+00,2.813e+00,2.700e+00,3.838e+00,2.731e+00,2.654e+00,4.333e+00,3.998e+00,3.912e+00,3.833e+00,4.760e+00,4.521e+00,5.006e+00,6.382e+00,5.809e+00,8.490e+00,6.742e+00,6.294e+00,6.010e+00,7.509e+00,6.814e+00,9.110e+00,8.392e+00,6.109e+00,8.074e+00,8.638e+00,8.739e+00,8.413e+00,8.509e+00,8.769e+00,9.822e+00,1.014e+01,1.151e+01,9.882e+00,1.128e+01,1.012e+01,1.134e+01,1.103e+01,1.153e+01,1.162e+01,1.350e+01,1.207e+01,1.308e+01,1.346e+01,1.197e+01,1.287e+01,1.213e+01,1.644e+01,1.384e+01,1.589e+01,1.637e+01,1.278e+01,1.329e+01,1.653e+01,1.514e+01,1.525e+01,1.399e+01,1.556e+01,1.458e+01,1.503e+01,1.778e+01,1.870e+01,1.776e+01,1.670e+01,1.734e+01,2.011e+01,1.925e+01,1.918e+01,2.036e+01,1.865e+01,2.028e+01,1.990e+01,1.787e+01,2.094e+01,1.787e+01,1.877e+01,1.756e+01,2.137e+01,1.819e+01,2.035e+01,2.155e+01,1.947e+01,2.204e+01
1.564e-02,6.251e-03,1.828e-01,2.345e-01,4.920e-01,1.306e+00,1.038e+00,1.063e+00,2.633e+00,2.526e+00,3.380e+00,3.128e+00,2.894e+00,4.029e+00,4.051e+00,4.912e+00,4.689e+00,4.323e+00,5.141e+00,4.489e+00,5.737e+00,4.712e+00,6.587e+00,4.806e+00,5.417e+00,5.680e+00,7.071e+00,6.139e+00,8.560e+00,7.395e+00,5.960e+00,7.914e+00,7.203e+00,9.485e+00,7.718e+00,7.410e+00,8.578e+00,9.273e+00,1.019e+01,1.127e+01,9.894e+00,1.064e+01,1.027e+01,1.113e+01,1.072e+01,1.269e+01,1.223e+01,1.402e+01,1.162e+01,1.396e+01,1.440e+01,1.353e+01,1.513e+01,1.330e+01,1.777e+01,1.445e+01,1.661e+01,1.719e+01,1.446e+01,1.561e+01,1.889e+01,1.642e+01,1.575e+01,1.642e+01,1.657e+01,1.544e+01,1.748e+01,1.866e+01,1.910e+01,1.877e+01,1.687e+01,1.829e+01,1.926e+01,1.860e+01,1.879e+01,1.916e+01,1.913e+01,1.963e+01,2.149e+01,1.844e+01,2.228e+01,1.751e+01,1.944e+01,2.035e+01,2.107e+01,1.870e+01,2.014e+01,2.117e+01,1.854e+01,2.355e+01
3.303e-01,1.068e-01,1.128e+00,1.989e+00,1.666e+00,2.536e+00,2.663e+00,1.838e+00,3.225e+00,3.743e+00,4.167e+00,3.858e+00,3.008e+00,4.700e+00,3.683e+00,5.430e+00,5.059e+00,5.366e+00,5.074e+00,4.634e+00,7.171e+00,6.128e+00,8.055e+00,6.371e+00,5.420e+00,6.714e+00,7.922e+00,7.938e+00,1.078e+01,8.376e+00,7.199e+00,9.472e+00,9.719e+00,9.837e+00,8.803e+00,9.910e+00,9.726e+00,9.240e+00,1.016e+01,1.186e+01,1.149e+01,1.214e+01,1.061e+01,1.263e+01,1.204e+01,1.249e+01,1.248e+01,1.386e+01,1.192e+01,1.348e+01,1.260e+01,1.256e+01,1.449e+01,1.327e+01,1.598e+01,1.453e+01,1.598e+01,1.681e+01,1.350e+01,1.319e+01,1.695e+01,1.301e+01,1.339e+01,1.384e+01,1.508e+01,1.507e+01,1.552e+01,1.755e+01,1.840e+01,1.604e+01,1.599e+01,1.660e+01,1.865e+01,1.800e+01,1.890e+01,1.991e+01,1.936e+01,1.993e+01,2.007e+01,1.879e+01,2.172e+01,1.858e+01,1.900e+01,1.880e+01,2.175e+01,1.815e+01,2.099e+01,2.226e+01,1.830e+01,2.353e+01
2.563e-01,8.830e-02,4.311e-01,6.677e-01,9.363e-01,1.147e+00,1.149e+00,9.792e-01,2.354e+00,2.536e+00,3.002e+00,3.001e+00,2.522e+00,3.430e+00,3.483e+00,3.987e+00,4.654e+00,4.534e+00,4.133e+00,3.723e+00,5.996e+00,5.350e+00,5.991e+00,4.815e+00,4.374e+00,5.223e+00,6.681e+00,6.262e+00,7.997e+00,6.864e+00,6.190e+00,6.819e+00,8.089e+00,8.822e+00,6.524e+00,7.683e+00,7.226e+00,9.344e+00,9.629e+00,1.064e+01,9.086e+00,1.096e+01,9.958e+00,1.102e+01,1.067e+01,1.097e+01,1.069e+01,1.199e+01,1.085e+01,1.209e+01,1.038e+01,1.173e+01,1.182e+01,1.168e+01,1.429e+01,1.197e+01,1.429e+01,1.426e+01,1.231e+01,1.186e+01,1.610e+01,1.341e+01,1.203e+01,1.258e+01,1.343e+01,1.363e+01,1.391e+01,1.616e+01,1.640e+01,1.473e+01,1.598e+01,1.511e+01,1.758e+01,1.686e+01,1.698e+01,1.790e+01,1.665e+01,1.730e+01,1.722e+01,1.667e+01,1.961e+01,1.593e+01,1.661e+01,1.736e+01,1.907e+01,1.651e+01,1.822e+01,1.758e+01,1.677e+01,2.077e+01
6.661e-01,1.839e-01,8.959e-01,1.713e+00,1.134e+00,2.212e+00,1.926e+00,1.999e+00,2.502e+00,3.126e+00,4.035e+00,3.128e+00,2.395e+00,4.141e+00,3.780e+00,4.841e+00,4.116e+00,4.716e+00,5.219e+00,5.029e+00,6.817e+00,5.850e+00,8.665e+00,6.881e+00,6.249e+00,6.720e+00,7.618e+00,6.609e+00,9.631e+00,8.613e+00,6.790e+00,9.869e+00,8.758e+00,9.944e+00,9.021e+00,9.524e+00,1.023e+01,1.030e+01,9.907e+00,1.095e+01,1.169e+01,1.097e+01,1.113e+01,1.237e+01,1.088e+01,1.255e+01,1.223e+01,1.464e+01,1.074e+01,1.313e+01,1.335e+01,1.274e+01,1.391e+01,1.259e+01,1.589e+01,1.450e+01,1.610e+01,1.822e+01,1.534e+01,1.365e+01,1.791e+01,1.449e+01,1.538e+01,1.639e+01,1.673e+01,1.620e+01,1.749e+01,2.121e+01,2.114e+01,2.051e+01,1.780e+01,1.974e+01,2.174e+01,2.150e+01,1.936e+01,2.073e+01,2.055e+01,2.069e+01,2.310e+01,2.130e+01,2.484e+01,1.960e+01,2.189e+01,2.143e+01,2.621e+01,2.125e+01,2.284e+01,2.319e+01,2.221e+01,2.488e+01
5.920e-01,2.044e-01,1.046e+00,1.893e+00,1.557e+00,1.955e+00,1.804e+00,1.524e+00,2.179e+00,2.193e+00,3.441e+00,2.776e+00,2.376e+00,4.079e+00,3.442e+00,4.153e+00,4.218e+00,4.541e+00,4.005e+00,3.962e+00,5.943e+00,4.608e+00,7.094e+00,5.700e+00,4.961e+00,5.600e+00,5.710e+00,4.462e+00,7.988e+00,7.446e+00,5.526e+00,7.082e+00,7.516e+00,8.731e+00,8.757e+00,7.645e+00,8.105e+00,8.201e+00,9.210e+00,1.083e+01,9.912e+00,1.031e+01,1.138e+01,9.995e+00,9.989e+00,1.221e+01,1.000e+01,1.270e+01,1.143e+01,1.168e+01,1.139e+01,1.180e+01,1.159e+01,1.180e+01,1.444e+01,1.279e+01,1.305e+01,1.518e+01,1.185e+01,1.081e+01,1.591e+01,1.487e+01,1.400e+01,1.279e+01,1.544e+01,1.328e+01,1.539e+01,1.736e+01,1.614e+01,1.687e+01,1.689e+01,1.550e+01,1.686e+01,1.789e+01,1.689e+01,1.697e+01,1.665e+01,1.783e+01,1.931e+01,1.634e+01,2.053e+01,1.873e+01,1.727e+01,1.768e+01,2.085e+01,1.868e+01,1.826e+01,2.034e+01,1.926e+01,2.089e+01
4.270e-02,6.081e-02,9.222e-01,1.219e+00,1.326e+00,1.562e+00,2.076e+00,1.890e+00,3.314e+00,3.223e+00,4.375e+00,3.984e+00,3.118e+00,5.045e+00,4.910e+00,5.463e+00,5.868e+00,5.385e+00,5.686e+00,5.062e+00,6.758e+00,6.660e+00,8.986e+00,6.956e+00,6.270e+00,7.385e+00,8.413e+00,7.930e+00,1.077e+01,9.238e+00,7.722e+00,1.037e+01,1.031e+01,1.131e+01,9.971e+00,1.085e+01,1.066e+01,1.139e+01,1.216e+01,1.279e+01,1.165e+01,1.299e+01,1.157e+01,1.274e+01,1.310e+01,1.410e+01,1.299e+01,1.555e+01,1.271e+01,1.542e+01,1.528e+01,1.522e+01,1.621e+01,1.476e+01,1.890e+01,1.591e+01,1.813e+01,1.819e+01,1.632e+01,1.476e+01,2.002e+01,1.699e+01,1.487e+01,1.649e+01,1.864e+01,1.875e+01,1.937e+01,2.172e+01,2.080e+01,2.022e+01,2.011e+01,2.016e+01,2.275e+01,2.116e+01,2.145e+01,2.220e+01,2.116e+01,2.252e+01,2.336e+01,2.156e+01,2.566e+01,2.206e+01,2.212e+01,2.286e+01,2.634e+01,2.268e+01,2.419e+01,2.395e+01,2.146e+01,2.724e+01
3.647e-01,1.604e-01,8.606e-01,1.142e+00,1.170e+00,1.111e+00,1.323e+00,1.605e+00,2.453e+00,2.533e+00,3.575e+00,3.575e+00,2.022e+00,4.330e+00,4.031e+00,3.515e+00,4.052e+00,3.702e+00,4.308e+00,4.287e+00,5.320e+00,4.968e+00,7.963e+00,5.728e+00,5.275e+00,5.751e+00,6.605e+00,6.065e+00,8.841e+00,8.309e+00,5.920e+00,8.524e+00,8.624e+00,9.051e+00,7.984e+00,8.454e+00,8.128e+00,8.910e+00,9.508e+00,1.061e+01,1.088e+01,9.046e+00,8.971e+00,9.836e+00,1.006e+01,1.093e+01,1.067e+01,1.295e+01,1.026e+01,1.276e+01,1.294e+01,1.201e+01,1.421e+01,1.135e+01,1.581e+01,1.305e+01,1.500e+01,1.696e+01,1.288e+01,1.406e+01,1.735e+01,1.491e+01,1.438e+01,1.288e+01,1.483e+01,1.416e+01,1.576e+01,1.764e+01,1.751e+01,1.692e+01,1.656e+01,1.822e+01,1.949e+01,1.656e+01,1.832e+01,1.757e+01,1.792e+01,1.711e+01,1.973e+01,1.844e+01,2.133e+01,1.898e+01,2.000e+01,2.074e+01,2.260e+01,2.070e+01,2.028e+01,2.390e+01,1.890e+01,2.473e+01
2.253e-01,1.187e-01,1.291e+00,1.965e+00,1.884e+00,1.963e+00,2.609e+00,1.979e+00,2.855e+00,2.631e+00,3.521e+00,2.798e+00,2.196e+00,3.421e+00,3.346e+00,3.775e+00,4.166e+00,4.786e+00,4.429e+00,4.541e+00,6.600e+00,5.278e+00,8.020e+00,6.365e+00,6.208e+00,6.517e+00,7.970e+00,7.298e+00,9.657e+00,7.948e+00,5.802e+00,9.260e+00,9.384e+00,9.386e+00,8.569e+00,9.287e+00,9.219e+00,9.846e+00,1.088e+01,1.182e+01,1.164e+01,1.151e+01,1.060e+01,1.095e+01,1.162e+01,1.124e+01,1.140e+01,1.482e+01,1.101e+01,1.356e+01,1.358e+01,1.347e+01,1.389e+01,1.215e+01,1.704e+01,1.352e+01,1.456e+01,1.649e+01,1.354e+01,1.433e+01,1.669e+01,1.430e+01,1.422e+01,1.416e+01,1.556e+01,1.515e+01,1.686e+01,1.666e+01,1.685e+01,1.645e+01,1.556e+01,1.597e+01,1.839e+01,1.595e+01,1.800e+01,1.868e+01,1.838e+01,1.858e+01,2.001e+01,1.670e+01,2.159e+01,1.879e+01,1.900e+01,2.007e+01,2.257e+01,1.944e+01,2.147e+01,2.233e+01,1.871e+01,2.573e+01
3.529e-01,1.052e-01,9.002e-01,1.656e+00,1.214e+00,2.320e+00,2.215e+00,1.966e+00,2.806e+00,2.855e+00,4.315e+00,2.551e+00,2.817e+00,3.725e+00,3.303e+00,4.641e+00,4.078e+00,4.196e+00,4.012e+00,3.468e+00,5.175e+00,4.715e+00,6.163e+00,5.534e+00,4.948e+00,5.866e+00,5.892e+00,5.635e+00,8.666e+00,6.734e+00,5.265e+00,8.463e+00,7.184e+00,8.660e+00,8.828e+00,8.054e+00,8.506e+00,7.840e+00,9.167e+00,9.947e+00,8.960e+00,9.846e+00,1.011e+01,1.051e+01,9.679e+00,1.067e+01,9.937e+00,1.212e+01,1.015e+01,1.150e+01,1.277e+01,1.271e+01,1.326e+01,1.206e+01,1.562e+01,1.323e+01,1.656e+01,1.687e+01,1.462e+01,1.422e+01,1.736e+01,1.547e+01,1.461e+01,1.514e+01,1.768e+01,1.644e+01,1.732e+01,1.835e+01,1.792e+01,1.843e+01,1.698e+01,1.687e+01,1.958e+01,1.938e+01,1.916e+01,1.956e+01,1.942e+01,2.013e+01,2.141e+01,1.911e+01,2.226e+01,1.846e+01,2.052e+01,2.044e+01,2.331e+01,2.005e+01,2.327e+01,2.393e+01,2.138e+01,2.427e+01
2.631e-01,1.222e-01,9.749e-01,1.218e+00,1.231e+00,1.930e+00,1.867e+00,1.783e+00,3.169e+00,2.673e+00,3.902e+00,2.837e+00,2.680e+00,3.773e+00,3.740e+00,4.865e+00,4.584e+00,4.872e+00,4.493e+00,4.389e+00,5.935e+00,5.518e+00,7.304e+00,6.145e+00,6.067e+00,7.300e+00,7.683e+00,6.648e+00,1.085e+01,9.251e+00,6.599e+00,7.986e+00,9.028e+00,1.037e+01,8.192e+00,9.372e+00,9.072e+00,1.035e+01,9.711e+00,1.251e+01,1.054e+01,1.153e+01,1.077e+01,1.167e+01,1.176e+01,1.286e+01,1.181e+01,1.332e+01,1.207e+01,1.271e+01,1.225e+01,1.311e+01,1.343e+01,1.268e+01,1.680e+01,1.478e+01,1.615e+01,1.689e+01,1.481e+01,1.361e+01,1.954e+01,1.674e+01,1.533e+01,1.614e+01,1.678e+01,1.524e+01,1.702e+01,1.921e+01,2.028e+01,1.828e+01,1.898e+01,1.690e+01,2.069e+01,1.907e+01,1.975e+01,2.025e+01,1.874e+01,2.071e+01,2.104e+01,1.859e+01,2.160e+01,1.743e+01,2.001e+01,2.121e+01,2.267e+01,1.967e+01,2.358e+01,2.373e+01,2.153e+01,2.417e+01
5.004e-01,1.697e-01,1.132e+00,1.650e+00,1.112e+00,2.332e+00,1.974e+00,2.004e+00,2.745e+00,3.291e+00,4.267e+00,3.659e+00,2.527e+00,4.872e+00,4.115e+00,4.953e+00,4.017e+00,4.089e+00,4.910e+00,4.494e+00,6.139e+00,6.045e+00,7.643e+00,6.179e+00,5.961e+00,7.025e+00,7.304e+00,6.053e+00,9.007e+00,8.214e+00,6.312e+00,8.841e+00,8.241e+00,8.809e+00,8.053e+00,9.156e+00,9.272e+00,9.272e+00,8.789e+00,1.018e+01,1.151e+01,1.063e+01,9.053e+00,1.203e+01,1.092e+01,1.284e+01,1.088e+01,1.445e+01,1.067e+01,1.495e+01,1.409e+01,1.254e+01,1.433e+01,1.378e+01,1.727e+01,1.412e+01,1.626e+01,1.577e+01,1.304e+01,1.260e+01,1.793e+01,1.459e+01,1.448e+01,1.428e+01,1.637e+01,1.432e+01,1.598e+01,1.765e+01,1.849e+01,1.768e+01,1.534e+01,1.726e+01,1.948e+01,1.826e+01,1.966e+01,1.937e+01,1.930e+01,1.960e+01,2.069e+01,1.947e+01,2.198e+01,1.915e+01,1.975e+01,2.045e+01,2.452e+01,2.146e+01,2.281e+01,2.320e+01,2.249e+01,2.553e+01
4.141e-01,1.412e-01,8.128e-01,1.504e+00,1.167e+00,1.560e+00,1.570e+00,1.529e+00,2.150e+00,2.219e+00,3.059e+00,2.173e+00,1.767e+00,3.238e+00,2.629e+00,3.154e+00,2.943e+00,3.525e+00,3.319e+00,3.364e+00,4.650e+00,3.981e+00,5.549e+00,5.083e+00,4.623e+00,5.206e+00,5.059e+00,5.001e+00,7.102e+00,7.146e+00,4.367e+00,6.302e+00,6.661e+00,7.242e+00,7.063e+00,7.026e+00,6.702e+00,7.117e+00,8.207e+00,9.998e+00,9.521e+00,8.805e+00,8.204e+00,9.788e+00,8.435e+00,1.045e+01,9.235e+00,1.208e+01,8.623e+00,1.125e+01,1.031e+01,9.510e+00,1.061e+01,1.097e+01,1.338e+01,1.096e+01,1.295e+01,1.277e+01,1.032e+01,1.087e+01,1.370e+01,1.217e+01,1.066e+01,1.088e+01,1.340e+01,1.095e+01,1.325e+01,1.242e+01,1.423e+01,1.359e+01,1.290e+01,1.326e+01,1.515e+01,1.325e+01,1.409e+01,1.426e+01,1.398e+01,1.448e+01,1.459e+01,1.407e+01,1.727e+01,1.563e+01,1.650e+01,1.601e+01,1.763e+01,1.567e+01,1.757e+01,1.950e+01,1.901e+01,2.013e+01
3.581e-01,1.719e-01,1.179e+00,1.388e+00,1.031e+00,1.457e+00,1.417e+00,1.720e+00,2.260e+00,2.215e+00,3.625e+00,2.645e+00,2.172e+00,3.517e+00,3.372e+00,3.195e+00,3.268e+00,3.194e+00,3.601e+00,3.850e+00,5.158e+00,4.976e+00,6.675e+00,5.593e+00,5.236e+00,5.220e+00,6.026e+00,5.503e+00,7.426e+00,6.287e+00,4.980e+00,7.409e+00,7.462e+00,7.217e+00,6.213e+00,7.080e+00,7.243e+00,8.064e+00,7.652e+00,8.781e+00,8.171e+00,9.123e+00,7.747e+00,1.066e+01,9.749e+00,1.012e+01,9.020e+00,1.118e+01,9.416e+00,1.206e+01,1.200e+01,9.454e+00,1.077e+01,1.177e+01,1.404e+01,1.153e+01,1.296e+01,1.343e+01,1.180e+01,1.247e+01,1.525e+01,1.329e+01,1.383e+01,1.467e+01,1.636e+01,1.478e+01,1.382e+01,1.665e+01,1.616e+01,1.607e+01,1.470e+01,1.560e+01,1.967e+01,1.792e+01,1.897e+01,1.664e+01,1.759e+01,1.835e+01,1.858e+01,1.834e+01,2.172e+01,2.026e+01,1.906e+01,1.856e+01,2.301e+01,2.062e+01,2.201e+01,2.247e+01,2.193e+01,2.626e+01
