6.270e-01,1.971e-01,8.697e-01,5.050e-01,6.617e-01,2.591e-01,1.983e-01,5.288e-02,2.536e-01,7.565e-01,7.597e-01,3.462e-01,5.513e-01,3.957e-01,3.594e-01,4.176e-01,4.510e-01,6.979e-01,4.022e-01,5.631e-01,2.856e-01,6.819e-01,6.944e-01,3.832e-01,8.816e-02,8.010e-01,8.481e-01,7.898e-01,8.100e-01,2.521e-01,4.344e-01,6.326e-01,6.431e-01,8.640e-01,1.518e-01,5.362e-01,4.929e-01,6.755e-01,1.172e-01,2.025e-01,4.632e-01,9.204e-01,5.012e-01,7.044e-02,9.429e-02,3.780e-01,2.841e-01,3.284e-01,9.740e-02,2.382e-01,7.655e-01,9.941e-01,8.977e-01,9.435e-01,6.395e-02,7.321e-01,4.370e-01,6.621e-01,5.009e-01,7.545e-01,3.078e-01,4.823e-01,6.841e-01,7.396e-01,9.898e-01,5.659e-02,3.679e-01,4.718e-02,6.426e-01,2.326e-01,7.842e-02,8.097e-01,3.802e-01,5.588e-01,2.140e-01,4.019e-01,5.788e-01,8.966e-02,3.107e-01,4.726e-01,5.752e-01
4.407e-01,1.105e+00,9.356e-01,8.815e-01,7.006e-01,9.589e-01,5.727e-01,5.857e-01,5.717e-01,1.180e+00,1.309e+00,9.070e-01,4.708e-01,1.018e+00,5.735e-01,4.440e-01,8.570e-01,1.095e+00,6.545e-01,6.999e-01,3.269e-01,1.122e+00,4.921e-01,3.771e-01,4.434e-01,1.491e+00,1.331e+00,1.303e+00,1.423e+00,8.535e-01,1.090e+00,7.130e-01,9.245e-01,1.187e+00,6.269e-01,5.352e-01,8.557e-01,9.020e-01,3.632e-01,5.278e-01,1.145e+00,1.619e+00,6.387e-01,7.267e-01,7.169e-01,9.447e-01,5.219e-01,2.896e-01,5.846e-01,9.808e-01,1.338e+00,1.147e+00,6.497e-01,1.246e+00,4.264e-01,1.201e+00,1.028e+00,6.298e-01,3.715e-01,1.100e+00,5.921e-01,1.266e+00,9.555e-01,6.610e-01,1.227e+00,5.364e-01,6.956e-01,3.867e-01,8.208e-01,2.146e-01,5.085e-01,1.434e+00,9.446e-01,9.761e-01,5.792e-01,9.612e-01,9.222e-01,1.887e-01,4.133e-01,6.581e-01,9.917e-01
5.219e-01,6.960e-01,1.309e+00,8.978e-01,1.479e+00,8.939e-01,6.352e-01,5.049e-01,8.028e-01,1.925e+00,1.431e+00,1.277e+00,8.702e-01,9.987e-01,7.876e-01,1.233e+00,1.522e+00,1.694e+00,1.230e+00,8.290e-01,8.592e-01,1.299e+00,7.604e-01,1.310e+00,8.950e-01,1.690e+00,1.160e+00,1.607e+00,2.037e+00,1.077e+00,1.766e+00,1.085e+00,1.694e+00,1.446e+00,5.554e-01,1.255e+00,9.965e-01,1.734e+00,1.173e+00,4.297e-01,1.042e+00,1.779e+00,7.244e-01,9.670e-01,1.405e+00,1.023e+00,1.049e+00,1.158e+00,9.962e-01,8.231e-01,1.924e+00,1.986e+00,1.011e+00,1.753e+00,1.205e+00,1.893e+00,1.575e+00,1.099e+00,6.992e-01,1.222e+00,9.604e-01,1.056e+00,1.460e+00,1.034e+00,1.913e+00,5.811e-01,6.704e-01,4.128e-01,1.501e+00,9.412e-01,1.083e+00,1.564e+00,1.569e+00,1.386e+00,1.239e+00,1.212e+00,1.236e+00,8.399e-01,1.341e+00,8.314e-01,1.180e+00
5.019e-01,7.899e-01,9.199e-01,1.023e+00,1.350e+00,1.109e+00,1.045e+00,8.933e-01,6.716e-01,1.766e+00,1.912e+00,1.188e+00,1.432e+00,9.749e-01,1.123e+00,7.475e-01,1.638e+00,1.817e+00,7.263e-01,1.476e+00,1.297e+00,1.019e+00,1.489e+00,1.017e+00,7.780e-01,2.168e+00,1.381e+00,1.179e+00,2.126e+00,1.114e+00,1.435e+00,1.406e+00,1.563e+00,1.490e+00,1.021e+00,6.615e-01,1.083e+00,1.332e+00,8.999e-01,9.913e-01,1.741e+00,2.300e+00,1.073e+00,1.013e+00,8.710e-01,1.170e+00,6.623e-01,4.243e-01,5.563e-01,8.428e-01,1.683e+00,2.011e+00,1.300e+00,1.668e+00,4.277e-01,1.327e+00,1.328e+00,1.218e+00,1.099e+00,1.602e+00,1.255e+00,1.036e+00,1.672e+00,1.638e+00,1.350e+00,9.705e-01,1.501e+00,1.224e+00,1.026e+00,7.868e-01,5.754e-01,1.352e+00,1.063e+00,1.513e+00,8.044e-01,8.564e-01,1.130e+00,9.335e-01,9.040e-01,9.635e-01,8.739e-01
1.109e-01,5.687e-01,7.068e-01,6.124e-01,1.386e+00,1.243e+00,8.967e-01,9.309e-01,1.171e+00,2.114e+00,1.434e+00,1.666e+00,1.545e+00,1.286e+00,1.084e+00,1.011e+00,2.152e+00,1.705e+00,1.417e+00,1.160e+00,8.777e-01,1.086e+00,5.944e-01,2.102e+00,1.885e+00,1.894e+00,9.087e-01,1.757e+00,2.011e+00,1.603e+00,1.794e+00,9.620e-01,1.866e+00,1.927e+00,8.204e-01,1.433e+00,1.184e+00,1.416e+00,1.438e+00,4.834e-01,1.242e+00,1.725e+00,6.133e-01,1.171e+00,2.221e+00,1.052e+00,9.472e-01,1.406e+00,1.813e+00,9.480e-01,1.946e+00,2.428e+00,1.212e+00,1.491e+00,1.743e+00,2.228e+00,2.250e+00,1.117e+00,1.250e+00,1.534e+00,1.074e+00,9.161e-01,1.683e+00,1.269e+00,2.148e+00,1.372e+00,1.351e+00,6.855e-01,1.782e+00,1.234e+00,1.233e+00,1.325e+00,1.710e+00,1.339e+00,1.199e+00,1.741e+00,1.686e+00,1.655e+00,1.877e+00,6.294e-01,1.204e+00
2.101e-01,4.958e-01,4.740e-01,6.347e-01,1.116e+00,1.203e+00,1.531e+00,1.563e+00,1.221e+00,2.371e+00,1.878e+00,2.219e+00,2.317e+00,1.333e+00,1.866e+00,6.407e-01,2.337e+00,1.530e+00,1.492e+00,1.846e+00,1.338e+00,1.077e+00,1.069e+00,2.503e+00,1.428e+00,2.448e+00,1.504e+00,1.720e+00,2.365e+00,2.048e+00,1.755e+00,1.365e+00,2.205e+00,2.376e+00,1.663e+00,1.333e+00,1.544e+00,1.530e+00,1.158e+00,1.519e+00,1.620e+00,2.676e+00,1.280e+00,1.719e+00,1.772e+00,1.188e+00,8.735e-01,8.187e-01,2.080e+00,1.398e+00,2.187e+00,2.532e+00,1.674e+00,1.927e+00,1.541e+00,2.310e+00,2.635e+00,1.990e+00,2.197e+00,1.810e+00,1.891e+00,8.250e-01,1.776e+00,1.818e+00,1.845e+00,1.590e+00,2.425e+00,1.606e+00,1.412e+00,1.009e+00,1.245e+00,1.325e+00,1.457e+00,1.918e+00,9.499e-01,1.869e+00,2.077e+00,2.139e+00,2.092e+00,1.403e+00,1.457e+00
9.887e-02,4.305e-02,4.304e-01,4.475e-01,1.363e+00,8.771e-01,1.337e+00,2.083e+00,1.115e+00,3.016e+00,2.379e+00,2.966e+00,2.908e+00,1.232e+00,2.522e+00,1.136e+00,2.536e+00,2.216e+00,1.844e+00,1.770e+00,1.866e+00,1.129e+00,1.378e+00,3.455e+00,1.906e+00,2.271e+00,9.997e-01,2.128e+00,2.414e+00,2.098e+00,2.581e+00,2.217e+00,2.617e+00,1.927e+00,1.400e+00,2.387e+00,1.743e+00,1.999e+00,1.720e+00,1.373e+00,1.721e+00,2.323e+00,1.393e+00,1.649e+00,1.913e+00,1.189e+00,1.134e+00,1.808e+00,2.110e+00,1.606e+00,2.832e+00,2.648e+00,2.399e+00,2.216e+00,2.228e+00,2.555e+00,2.858e+00,2.844e+00,2.798e+00,2.106e+00,2.078e+00,9.048e-01,2.072e+00,2.462e+00,2.273e+00,2.054e+00,2.286e+00,2.115e+00,1.874e+00,1.407e+00,1.681e+00,1.509e+00,2.346e+00,1.930e+00,1.883e+00,2.341e+00,2.693e+00,3.050e+00,2.398e+00,1.748e+00,1.595e+00
4.759e-01,7.633e-01,1.010e+00,8.171e-01,1.239e+00,1.304e+00,1.383e+00,2.022e+00,2.346e+00,3.514e+00,3.107e+00,3.890e+00,3.091e+00,2.670e+00,3.322e+00,1.894e+00,2.819e+00,2.219e+00,2.117e+00,2.567e+00,1.266e+00,2.802e+00,1.058e+00,3.255e+00,2.712e+00,3.574e+00,2.913e+00,3.582e+00,3.378e+00,3.054e+00,2.697e+00,2.073e+00,3.049e+00,3.158e+00,2.018e+00,2.984e+00,2.981e+00,2.639e+00,2.075e+00,2.322e+00,2.128e+00,3.399e+00,2.376e+00,1.992e+00,3.036e+00,2.282e+00,1.201e+00,2.429e+00,3.418e+00,2.229e+00,3.230e+00,3.844e+00,2.868e+00,2.751e+00,2.402e+00,3.397e+00,3.353e+00,2.870e+00,3.392e+00,2.438e+00,2.788e+00,1.975e+00,2.304e+00,2.757e+00,3.694e+00,2.569e+00,2.388e+00,1.629e+00,2.616e+00,1.459e+00,1.736e+00,2.886e+00,2.574e+00,2.522e+00,1.662e+00,3.290e+00,3.876e+00,3.160e+00,3.285e+00,2.229e+00,3.066e+00
4.070e-01,1.816e-01,8.870e-01,6.263e-01,1.442e+00,7.855e-01,9.655e-01,1.429e+00,1.976e+00,3.121e+00,3.149e+00,2.744e+00,3.212e+00,1.527e+00,2.968e+00,2.002e+00,2.497e+00,2.416e+00,1.742e+00,1.845e+00,2.078e+00,2.551e+00,1.404e+00,3.646e+00,2.192e+00,3.370e+00,2.168e+00,2.451e+00,3.344e+00,2.024e+00,2.399e+00,2.469e+00,3.189e+00,1.951e+00,1.305e+00,3.066e+00,1.919e+00,2.925e+00,2.008e+00,2.267e+00,1.880e+00,2.737e+00,1.708e+00,1.808e+00,2.653e+00,2.286e+00,1.359e+00,2.234e+00,2.367e+00,2.018e+00,3.234e+00,3.236e+00,3.151e+00,3.033e+00,2.403e+00,2.992e+00,2.492e+00,3.111e+00,2.774e+00,2.867e+00,2.699e+00,2.049e+00,2.395e+00,3.274e+00,2.656e+00,2.275e+00,2.400e+00,1.799e+00,2.342e+00,1.751e+00,2.184e+00,2.127e+00,2.170e+00,2.560e+00,2.418e+00,2.446e+00,3.109e+00,2.549e+00,3.312e+00,2.184e+00,2.196e+00
5.494e-01,5.026e-01,8.827e-01,8.113e-01,1.242e+00,1.052e+00,1.380e+00,1.530e+00,1.665e+00,3.260e+00,2.994e+00,2.940e+00,4.015e+00,1.857e+00,3.443e+00,1.993e+00,2.975e+00,2.541e+00,1.948e+00,2.107e+00,2.817e+00,2.564e+00,2.047e+00,3.929e+00,1.820e+00,4.005e+00,3.328e+00,2.895e+00,3.377e+00,2.426e+00,2.834e+00,2.985e+00,3.719e+00,2.996e+00,2.220e+00,2.431e+00,2.003e+00,2.510e+00,1.356e+00,2.903e+00,2.699e+00,3.787e+00,2.135e+00,2.864e+00,2.904e+00,2.286e+00,1.361e+00,1.864e+00,2.537e+00,2.874e+00,3.276e+00,3.206e+00,3.458e+00,3.898e+00,2.102e+00,3.090e+00,3.059e+00,3.958e+00,3.471e+00,3.764e+00,3.086e+00,1.997e+00,3.080e+00,3.523e+00,3.115e+00,2.074e+00,3.765e+00,2.375e+00,2.534e+00,2.190e+00,2.603e+00,2.444e+00,2.179e+00,2.759e+00,2.519e+00,2.781e+00,2.723e+00,2.818e+00,3.438e+00,2.826e+00,2.362e+00
4.687e-01,7.547e-01,8.986e-01,8.891e-01,1.330e+00,1.341e+00,1.206e+00,1.415e+00,2.381e+00,3.357e+00,4.012e+00,3.706e+00,4.942e+00,3.500e+00,3.916e+00,2.729e+00,3.321e+00,3.665e+00,2.024e+00,3.319e+00,2.822e+00,3.589e+00,2.557e+00,4.639e+00,3.708e+00,4.792e+00,4.069e+00,4.291e+00,4.440e+00,3.478e+00,3.453e+00,3.476e+00,4.171e+00,3.906e+00,2.187e+00,2.970e+00,2.748e+00,2.940e+00,2.304e+00,3.786e+00,3.755e+00,4.384e+00,2.917e+00,2.752e+00,4.300e+00,3.717e+00,2.196e+00,2.672e+00,3.593e+00,3.186e+00,3.729e+00,4.303e+00,4.238e+00,4.520e+00,2.358e+00,4.184e+00,3.574e+00,3.609e+00,4.309e+00,4.198e+00,4.220e+00,3.270e+00,3.840e+00,4.100e+00,4.348e+00,3.659e+00,3.813e+00,2.434e+00,3.711e+00,3.196e+00,2.971e+00,3.098e+00,2.405e+00,2.823e+00,2.993e+00,3.665e+00,3.466e+00,3.621e+00,4.301e+00,3.091e+00,3.611e+00
1.323e-01,6.500e-01,5.004e-01,5.910e-01,7.646e-01,8.422e-01,1.002e+00,1.692e+00,1.427e+00,2.743e+00,2.559e+00,3.739e+00,3.401e+00,2.215e+00,3.326e+00,1.929e+00,3.025e+00,2.741e+00,2.511e+00,2.009e+00,2.869e+00,2.746e+00,1.586e+00,2.804e+00,2.115e+00,3.611e+00,3.472e+00,3.815e+00,3.518e+00,2.542e+00,3.180e+00,3.258e+00,3.322e+00,2.775e+00,1.924e+00,2.997e+00,2.458e+00,2.899e+00,1.930e+00,2.309e+00,2.939e+00,3.610e+00,2.336e+00,2.648e+00,3.277e+00,2.850e+00,1.932e+00,2.968e+00,3.194e+00,2.882e+00,3.436e+00,2.837e+00,2.685e+00,2.856e+00,1.893e+00,3.254e+00,2.979e+00,3.497e+00,3.436e+00,3.312e+00,2.799e+00,2.691e+00,3.080e+00,2.668e+00,3.294e+00,2.904e+00,3.178e+00,2.012e+00,2.222e+00,2.146e+00,2.946e+00,2.959e+00,2.544e+00,2.279e+00,2.319e+00,2.941e+00,3.266e+00,3.588e+00,2.902e+00,2.670e+00,2.406e+00
5.938e-01,1.117e+00,1.222e+00,1.175e+00,1.510e+00,1.489e+00,1.160e+00,1.289e+00,2.015e+00,3.162e+00,3.666e+00,3.405e+00,4.691e+00,3.194e+00,4.042e+00,2.983e+00,3.824e+00,4.624e+00,2.537e+00,3.744e+00,3.274e+00,4.375e+00,2.524e+00,3.635e+00,3.537e+00,5.667e+00,4.341e+00,4.888e+00,5.075e+00,3.774e+00,4.085e+00,3.894e+00,4.729e+00,3.895e+00,2.638e+00,3.401e+00,2.655e+00,3.955e+00,2.333e+00,2.982e+00,4.732e+00,4.628e+00,3.580e+00,3.283e+00,4.104e+00,4.691e+00,2.901e+00,2.879e+00,3.557e+00,3.773e+00,4.670e+00,4.799e+00,4.260e+00,5.037e+00,2.794e+00,4.319e+00,3.469e+00,3.997e+00,3.639e+00,5.257e+00,3.776e+00,4.505e+00,4.839e+00,3.955e+00,4.876e+00,4.162e+00,4.443e+00,2.117e+00,3.279e+00,2.903e+00,3.537e+00,4.114e+00,3.188e+00,3.541e+00,3.420e+00,4.163e+00,3.956e+00,3.360e+00,3.788e+00,3.317e+00,3.326e+00
3.039e-01,6.029e-01,6.565e-01,7.241e-01,1.039e+00,9.985e-01,1.335e+00,1.331e+00,1.785e+00,2.725e+00,2.613e+00,2.767e+00,3.196e+00,2.917e+00,3.407e+00,2.592e+00,3.489e+00,2.989e+00,2.027e+00,3.333e+00,2.316e+00,3.293e+00,2.453e+00,3.949e+00,2.299e+00,4.500e+00,3.421e+00,3.358e+00,3.783e+00,3.278e+00,2.898e+00,2.536e+00,3.402e+00,3.390e+00,2.319e+00,2.445e+00,2.351e+00,3.550e+00,2.059e+00,2.972e+00,3.230e+00,4.257e+00,2.505e+00,2.954e+00,3.031e+00,2.618e+00,1.807e+00,2.497e+00,3.371e+00,2.587e+00,3.574e+00,3.526e+00,2.649e+00,3.734e+00,2.660e+00,3.729e+00,3.421e+00,3.086e+00,3.146e+00,3.343e+00,3.282e+00,2.333e+00,2.815e+00,2.860e+00,3.551e+00,2.918e+00,3.336e+00,2.866e+00,2.904e+00,1.941e+00,2.622e+00,3.137e+00,2.272e+00,3.721e+00,2.328e+00,3.027e+00,3.608e+00,2.987e+00,4.004e+00,2.691e+00,3.268e+00
4.143e-01,1.002e+00,9.955e-01,8.695e-01,1.058e+00,1.280e+00,1.165e+00,1.892e+00,2.359e+00,3.678e+00,4.183e+00,4.342e+00,5.152e+00,3.898e+00,5.199e+00,3.466e+00,3.974e+00,5.029e+00,2.934e+00,4.359e+00,3.620e+00,4.585e+00,2.985e+00,5.975e+00,4.815e+00,6.118e+00,4.476e+00,6.390e+00,5.362e+00,4.516e+00,5.220e+00,4.685e+00,5.041e+00,4.996e+00,3.322e+00,4.005e+00,3.476e+00,4.723e+00,3.304e+00,4.292e+00,4.879e+00,5.468e+00,4.373e+00,3.591e+00,4.574e+00,4.775e+00,2.994e+00,3.725e+00,5.097e+00,4.391e+00,5.239e+00,4.700e+00,5.255e+00,5.961e+00,4.551e+00,5.660e+00,5.011e+00,4.631e+00,4.937e+00,5.222e+00,5.411e+00,4.670e+00,4.505e+00,4.603e+00,5.285e+00,4.611e+00,4.729e+00,3.058e+00,4.713e+00,4.010e+00,3.986e+00,4.215e+00,3.830e+00,3.988e+00,4.803e+00,5.453e+00,5.000e+00,4.735e+00,4.774e+00,4.738e+00,5.021e+00
5.147e-01,5.760e-01,1.012e+00,8.375e-01,1.482e+00,1.305e+00,1.518e+00,1.801e+00,1.654e+00,3.205e+00,2.952e+00,3.750e+00,4.126e+00,3.139e+00,3.740e+00,2.829e+00,4.914e+00,5.082e+00,4.072e+00,4.410e+00,3.613e+00,3.188e+00,3.905e+00,5.758e+00,4.789e+00,5.261e+00,3.684e+00,6.361e+00,5.718e+00,4.429e+00,4.320e+00,4.072e+00,4.870e+00,5.705e+00,3.575e+00,3.738e+00,3.342e+00,4.838e+00,3.227e+00,3.585e+00,4.226e+00,5.658e+00,3.759e+00,3.196e+00,3.898e+00,4.190e+00,3.172e+00,3.649e+00,5.148e+00,2.959e+00,5.060e+00,4.602e+00,4.733e+00,4.672e+00,4.097e+00,6.137e+00,5.130e+00,4.058e+00,5.031e+00,4.288e+00,4.880e+00,3.848e+00,4.354e+00,3.730e+00,5.562e+00,4.902e+00,4.796e+00,3.463e+00,4.807e+00,3.366e+00,3.119e+00,4.034e+00,3.888e+00,4.178e+00,3.629e+00,4.758e+00,5.123e+00,5.402e+00,4.574e+00,4.477e+00,4.101e+00
5.108e-01,3.623e-01,8.830e-01,7.112e-01,1.336e+00,1.025e+00,1.071e+00,1.120e+00,1.712e+00,2.749e+00,2.663e+00,2.987e+00,4.003e+00,2.346e+00,3.346e+00,2.462e+00,5.000e+00,3.957e+00,3.626e+00,3.739e+00,4.346e+00,3.597e+00,3.202e+00,4.157e+00,3.902e+00,5.594e+00,4.249e+00,4.962e+00,5.132e+00,3.789e+00,3.939e+00,3.959e+00,4.613e+00,4.823e+00,2.923e+00,4.303e+00,2.726e+00,4.372e+00,2.778e+00,3.051e+00,3.868e+00,4.652e+00,2.870e+00,3.527e+00,4.021e+00,4.095e+00,3.367e+00,3.620e+00,3.910e+00,2.711e+00,4.150e+00,4.469e+00,4.888e+00,4.757e+00,2.934e+00,4.552e+00,4.594e+00,4.015e+00,4.579e+00,5.195e+00,4.000e+00,3.767e+00,4.417e+00,4.150e+00,4.761e+00,4.158e+00,5.136e+00,2.946e+00,3.604e+00,3.743e+00,3.433e+00,4.135e+00,2.928e+00,3.807e+00,3.663e+00,3.840e+00,4.529e+00,4.418e+00,4.848e+00,3.543e+00,2.918e+00
3.455e-01,2.479e-01,7.585e-01,6.745e-01,1.597e+00,1.152e+00,1.320e+00,1.340e+00,1.406e+00,3.103e+00,2.794e+00,3.752e+00,5.102e+00,3.511e+00,3.701e+00,3.143e+00,5.255e+00,5.716e+00,4.292e+00,4.609e+00,4.510e+00,4.194e+00,4.897e+00,6.266e+00,4.494e+00,5.792e+00,4.564e+00,6.205e+00,6.266e+00,4.831e+00,4.571e+00,4.519e+00,6.098e+00,5.925e+00,3.716e+00,4.020e+00,3.580e+00,4.401e+00,3.441e+00,3.471e+00,5.505e+00,6.249e+00,3.897e+00,4.369e+00,5.190e+00,4.142e+00,4.024e+00,4.680e+00,4.850e+00,3.816e+00,5.382e+00,5.045e+00,5.338e+00,6.013e+00,3.522e+00,6.022e+00,5.168e+00,4.374e+00,5.282e+00,5.127e+00,4.836e+00,4.446e+00,5.909e+00,4.804e+00,6.683e+00,5.136e+00,5.183e+00,3.980e+00,5.633e+00,4.211e+00,3.961e+00,4.200e+00,3.800e+00,4.365e+00,3.832e+00,4.731e+00,4.444e+00,5.555e+00,5.635e+00,4.182e+00,4.246e+00
2.967e-01,4.493e-01,8.677e-01,6.776e-01,1.333e+00,8.665e-01,8.494e-01,1.455e+00,1.348e+00,2.841e+00,2.981e+00,3.372e+00,3.696e+00,3.230e+00,3.183e+00,2.709e+00,4.608e+00,4.469e+00,4.492e+00,4.325e+00,3.922e+00,4.142e+00,4.188e+00,5.569e+00,4.224e+00,5.602e+00,3.933e+00,5.751e+00,5.256e+00,4.036e+00,4.593e+00,4.110e+00,4.943e+00,4.524e+00,2.371e+00,5.377e+00,3.108e+00,5.126e+00,3.092e+00,3.369e+00,4.756e+00,4.690e+00,3.371e+00,3.990e+00,4.714e+00,4.522e+00,4.035e+00,4.545e+00,4.284e+00,3.222e+00,5.080e+00,4.126e+00,4.679e+00,5.629e+00,4.137e+00,5.966e+00,4.980e+00,3.854e+00,4.599e+00,5.320e+00,4.566e+00,4.144e+00,4.096e+00,4.504e+00,5.377e+00,4.682e+00,4.311e+00,4.023e+00,4.285e+00,3.468e+00,4.006e+00,5.030e+00,4.112e+00,4.371e+00,4.633e+00,4.674e+00,5.316e+00,5.070e+00,5.354e+00,4.105e+00,4.323e+00
4.027e-01,9.657e-01,1.215e+00,1.186e+00,2.151e+00,1.805e+00,1.481e+00,2.111e+00,2.299e+00,4.060e+00,4.376e+00,4.182e+00,5.136e+00,3.722e+00,4.448e+00,3.605e+00,6.099e+00,6.676e+00,4.805e+00,6.123e+00,5.733e+00,6.219e+00,5.540e+00,6.980e+00,5.964e+00,7.667e+00,4.913e+00,7.719e+00,7.593e+00,5.486e+00,5.702e+00,5.906e+00,7.612e+00,6.028e+00,4.491e+00,6.128e+00,5.018e+00,6.215e+00,4.825e+00,4.485e+00,6.795e+00,6.651e+00,5.273e+00,5.222e+00,5.950e+00,6.125e+00,5.105e+00,5.898e+00,5.331e+00,4.940e+00,7.443e+00,6.551e+00,6.546e+00,7.583e+00,5.549e+00,7.678e+00,6.383e+00,5.691e+00,5.887e+00,7.446e+00,6.027e+00,6.253e+00,6.751e+00,6.041e+00,7.478e+00,6.880e+00,6.518e+00,5.483e+00,6.330e+00,5.057e+00,4.486e+00,6.523e+00,5.782e+00,5.755e+00,5.680e+00,6.797e+00,7.191e+00,6.343e+00,7.141e+00,4.769e+00,5.382e+00
4.144e-01,3.205e-01,8.020e-01,7.357e-01,1.386e+00,9.091e-01,1.367e+00,1.760e+00,2.343e+00,3.515e+00,4.006e+00,4.376e+00,5.364e+00,3.733e+00,5.155e+00,3.681e+00,4.911e+00,5.349e+00,4.003e+00,5.592e+00,4.698e+00,6.165e+00,4.554e+00,6.120e+00,5.090e+00,7.397e+00,5.188e+00,7.276e+00,7.072e+00,5.142e+00,4.998e+00,5.583e+00,6.249e+00,5.285e+00,4.101e+00,5.564e+00,4.334e+00,6.560e+00,4.912e+00,5.057e+00,5.757e+00,6.260e+00,6.010e+00,4.502e+00,5.942e+00,5.989e+00,4.315e+00,4.618e+00,6.036e+00,4.201e+00,5.855e+00,6.033e+00,6.374e+00,6.641e+00,5.341e+00,7.135e+00,5.471e+00,5.503e+00,6.408e+00,6.123e+00,6.253e+00,5.489e+00,5.878e+00,5.643e+00,6.058e+00,5.873e+00,6.347e+00,4.343e+00,4.642e+00,4.620e+00,4.756e+00,5.798e+00,4.854e+00,5.867e+00,4.922e+00,5.408e+00,6.300e+00,6.595e+00,6.584e+00,5.670e+00,5.835e+00
2.734e-01,4.745e-01,6.990e-01,6.483e-01,1.307e+00,1.166e+00,1.030e+00,1.072e+00,2.201e+00,2.755e+00,2.559e+00,2.813e+00,3.199e+00,2.586e+00,3.101e+00,2.635e+00,4.186e+00,3.172e+00,2.871e+00,3.787e+00,3.046e+00,4.411e+00,3.601e+00,4.220e+00,4.820e+00,5.516e+00,4.088e+00,4.934e+00,5.000e+00,3.991e+00,3.943e+00,3.023e+00,5.279e+00,4.960e+00,3.505e+00,4.900e+00,3.498e+00,4.009e+00,3.745e+00,3.517e+00,3.599e+00,4.273e+00,3.787e+00,3.998e+00,5.368e+00,4.443e+00,2.828e+00,3.584e+00,4.071e+00,2.974e+00,4.030e+00,4.843e+00,4.423e+00,4.987e+00,3.835e+00,4.943e+00,4.143e+00,3.818e+00,5.061e+00,4.841e+00,4.018e+00,3.911e+00,4.612e+00,4.077e+00,5.520e+00,3.802e+00,4.174e+00,3.490e+00,4.136e+00,4.090e+00,3.056e+00,4.996e+00,3.456e+00,4.042e+00,3.180e+00,4.702e+00,4.849e+00,4.525e+00,5.588e+00,3.510e+00,3.527e+00
1.976e-01,3.611e-01,4.097e-01,3.958e-01,6.101e-01,6.802e-01,7.506e-01,8.786e-01,9.244e-01,1.726e+00,1.744e+00,2.461e+00,2.937e+00,2.990e+00,2.635e+00,2.282e+00,3.778e+00,3.919e+00,3.988e+00,4.903e+00,4.065e+00,5.066e+00,6.083e+00,5.897e+00,4.386e+00,6.406e+00,4.289e+00,7.773e+00,5.986e+00,4.367e+00,4.172e+00,5.083e+00,5.513e+00,6.285e+00,4.106e+00,5.104e+00,4.392e+00,5.154e+00,4.611e+00,5.009e+00,5.535e+00,6.329e+00,5.898e+00,4.532e+00,5.713e+00,5.130e+00,4.401e+00,5.243e+00,5.710e+00,4.208e+00,5.258e+00,4.076e+00,5.741e+00,6.146e+00,5.571e+00,7.521e+00,5.731e+00,4.736e+00,6.439e+00,6.077e+00,5.671e+00,4.793e+00,5.154e+00,4.904e+00,6.240e+00,5.497e+00,5.885e+00,4.830e+00,5.552e+00,5.182e+00,3.675e+00,5.604e+00,5.429e+00,5.452e+00,4.232e+00,5.545e+00,5.394e+00,6.595e+00,6.178e+00,4.973e+00,5.882e+00
1.500e-01,9.444e-02,4.294e-01,2.624e-01,8.583e-01,7.240e-01,8.740e-01,1.132e+00,1.294e+00,2.473e+00,1.912e+00,2.915e+00,4.056e+00,2.989e+00,3.674e+00,3.145e+00,5.060e+00,4.648e+00,4.735e+00,5.727e+00,4.996e+00,5.944e+00,5.977e+00,7.938e+00,6.323e+00,7.334e+00,5.109e+00,8.539e+00,6.266e+00,5.882e+00,5.930e+00,5.588e+00,8.274e+00,6.841e+00,5.262e+00,6.501e+00,4.887e+00,5.882e+00,5.271e+00,5.127e+00,6.432e+00,6.265e+00,6.171e+00,6.458e+00,7.432e+00,6.351e+00,5.604e+00,5.478e+00,5.714e+00,5.418e+00,6.985e+00,5.897e+00,6.423e+00,8.677e+00,6.943e+00,7.866e+00,6.913e+00,6.410e+00,7.555e+00,7.933e+00,6.387e+00,6.149e+00,6.746e+00,5.395e+00,8.072e+00,6.507e+00,6.989e+00,6.479e+00,6.837e+00,6.284e+00,4.778e+00,7.853e+00,5.896e+00,5.912e+00,6.472e+00,7.593e+00,7.163e+00,7.640e+00,8.265e+00,6.301e+00,6.551e+00
4.525e-01,4.951e-01,8.634e-01,8.499e-01,1.577e+00,1.277e+00,1.292e+00,1.359e+00,1.834e+00,3.094e+00,3.008e+00,2.770e+00,3.972e+00,2.393e+00,3.372e+00,2.850e+00,4.517e+00,4.254e+00,4.084e+00,4.133e+00,3.919e+00,5.050e+00,5.351e+00,6.970e+00,6.137e+00,7.807e+00,5.458e+00,7.459e+00,7.436e+00,5.334e+00,5.486e+00,5.425e+00,7.777e+00,5.902e+00,4.472e+00,6.463e+00,5.009e+00,5.985e+00,5.621e+00,5.394e+00,5.844e+00,7.333e+00,5.457e+00,5.780e+00,7.671e+00,6.638e+00,4.213e+00,4.716e+00,5.848e+00,4.682e+00,6.397e+00,6.174e+00,6.639e+00,7.230e+00,6.666e+00,7.223e+00,5.671e+00,6.253e+00,7.125e+00,7.565e+00,6.154e+00,6.498e+00,6.320e+00,6.350e+00,6.776e+00,6.546e+00,6.495e+00,6.387e+00,6.250e+00,5.411e+00,4.649e+00,6.732e+00,5.593e+00,6.643e+00,5.828e+00,5.504e+00,6.677e+00,7.424e+00,7.389e+00,6.810e+00,6.064e+00
4.789e-01,4.799e-01,1.098e+00,8.671e-01,1.646e+00,1.015e+00,1.081e+00,1.087e+00,1.923e+00,3.205e+00,3.457e+00,3.328e+00,4.414e+00,3.636e+00,3.741e+00,3.712e+00,4.476e+00,5.172e+00,4.264e+00,5.621e+00,4.855e+00,6.203e+00,6.323e+00,7.478e+00,5.344e+00,7.939e+00,5.314e+00,8.365e+00,7.898e+00,5.851e+00,5.753e+00,5.809e+00,8.125e+00,6.328e+00,4.962e+00,6.168e+00,5.338e+00,6.139e+00,5.370e+00,6.875e+00,7.182e+00,7.782e+00,6.704e+00,5.631e+00,7.530e+00,7.113e+00,5.525e+00,6.574e+00,5.754e+00,5.512e+00,7.532e+00,6.493e+00,6.678e+00,8.595e+00,6.897e+00,8.229e+00,6.853e+00,5.997e+00,7.441e+00,7.464e+00,7.717e+00,6.654e+00,6.261e+00,6.586e+00,7.848e+00,6.622e+00,6.791e+00,6.123e+00,7.028e+00,6.430e+00,4.534e+00,7.394e+00,6.617e+00,7.130e+00,6.333e+00,6.578e+00,6.918e+00,7.802e+00,8.762e+00,6.274e+00,6.805e+00
1.543e-01,6.259e-01,6.325e-01,5.680e-01,1.035e+00,1.131e+00,9.372e-01,1.494e+00,2.016e+00,3.040e+00,2.949e+00,3.925e+00,4.161e+00,3.957e+00,4.000e+00,3.549e+00,5.463e+00,5.157e+00,4.479e+00,4.733e+00,4.131e+00,5.254e+00,4.723e+00,6.530e+00,6.105e+00,7.229e+00,6.278e+00,8.669e+00,7.900e+00,6.693e+00,6.632e+00,5.706e+00,6.830e+00,7.116e+00,5.088e+00,6.559e+00,5.805e+00,6.307e+00,5.385e+00,5.438e+00,7.037e+00,7.588e+00,5.204e+00,5.809e+00,7.429e+00,6.517e+00,4.855e+00,6.664e+00,6.518e+00,4.830e+00,6.493e+00,6.109e+00,6.299e+00,7.138e+00,6.651e+00,7.326e+00,7.424e+00,5.758e+00,7.759e+00,6.727e+00,6.655e+00,6.814e+00,5.819e+00,5.994e+00,7.689e+00,7.208e+00,6.646e+00,5.413e+00,6.741e+00,5.651e+00,5.014e+00,7.357e+00,5.616e+00,6.770e+00,6.491e+00,6.205e+00,6.983e+00,7.411e+00,8.491e+00,5.861e+00,5.982e+00
1.073e-01,2.082e-01,4.636e-01,4.331e-01,1.211e+00,9.627e-01,9.673e-01,1.258e+00,1.345e+00,2.758e+00,2.206e+00,3.204e+00,4.188e+00,2.748e+00,3.662e+00,3.144e+00,5.163e+00,5.197e+00,4.989e+00,5.312e+00,5.658e+00,5.919e+00,6.679e+00,7.367e+00,5.942e+00,7.654e+00,5.205e+00,9.484e+00,7.776e+00,6.032e+00,6.288e+00,6.145e+00,9.147e+00,7.688e+00,6.372e+00,6.799e+00,5.687e+00,6.040e+00,6.353e+00,6.631e+00,7.777e+00,8.381e+00,7.085e+00,6.650e+00,7.930e+00,7.772e+00,5.960e+00,7.355e+00,6.395e+00,6.500e+00,7.623e+00,6.885e+00,7.257e+00,9.172e+00,7.978e+00,8.974e+00,8.173e+00,6.457e+00,8.221e+00,8.394e+00,7.213e+00,6.907e+00,7.936e+00,6.443e+00,8.774e+00,7.090e+00,8.264e+00,6.467e+00,7.650e+00,7.214e+00,5.347e+00,8.401e+00,7.185e+00,6.962e+00,6.430e+00,8.243e+00,7.268e+00,9.016e+00,8.807e+00,7.267e+00,6.912e+00
3.712e-01,3.241e-01,8.909e-01,6.404e-01,1.479e+00,1.034e+00,8.737e-01,1.400e+00,1.811e+00,3.332e+00,3.231e+00,3.666e+00,4.998e+00,3.499e+00,4.517e+00,3.846e+00,5.595e+00,6.079e+00,4.737e+00,5.875e+00,5.463e+00,6.565e+00,6.645e+00,8.219e+00,7.107e+00,8.738e+00,6.240e+00,9.981e+00,8.849e+00,7.332e+00,8.336e+00,7.807e+00,1.001e+01,9.240e+00,6.724e+00,8.398e+00,6.433e+00,7.649e+00,7.250e+00,6.648e+00,8.613e+00,8.847e+00,7.098e+00,7.602e+00,8.669e+00,8.497e+00,7.182e+00,7.679e+00,6.664e+00,7.678e+00,8.965e+00,8.348e+00,8.765e+00,1.034e+01,8.942e+00,9.134e+00,8.913e+00,8.439e+00,9.503e+00,9.747e+00,7.374e+00,8.514e+00,9.468e+00,8.162e+00,9.915e+00,9.120e+00,8.451e+00,7.540e+00,8.844e+00,7.625e+00,5.966e+00,9.486e+00,7.739e+00,7.829e+00,7.608e+00,8.879e+00,8.768e+00,8.684e+00,9.772e+00,7.868e+00,7.985e+00
3.044e-01,7.580e-01,1.018e+00,8.231e-01,1.402e+00,1.114e+00,9.624e-01,1.643e+00,2.112e+00,3.542e+00,3.533e+00,4.052e+00,4.355e+00,3.591e+00,4.817e+00,3.999e+00,4.977e+00,5.895e+00,4.772e+00,5.424e+00,4.742e+00,6.477e+00,5.337e+00,7.563e+00,6.462e+00,8.680e+00,5.922e+00,9.308e+00,8.575e+00,7.551e+00,7.609e+00,6.918e+00,8.808e+00,7.992e+00,6.502e+00,8.158e+00,7.044e+00,7.874e+00,7.196e+00,6.193e+00,8.267e+00,8.799e+00,7.484e+00,7.219e+00,8.286e+00,8.021e+00,6.737e+00,7.500e+00,7.665e+00,6.806e+00,8.690e+00,7.516e+00,7.917e+00,9.255e+00,9.275e+00,8.448e+00,8.528e+00,7.673e+00,8.109e+00,8.426e+00,7.667e+00,8.604e+00,8.396e+00,7.857e+00,9.201e+00,8.729e+00,7.492e+00,7.247e+00,7.948e+00,6.440e+00,6.393e+00,8.546e+00,7.298e+00,8.118e+00,8.154e+00,8.366e+00,8.606e+00,8.763e+00,8.896e+00,8.130e+00,8.666e+00
5.448e-01,5.448e-01,1.011e+00,7.166e-01,9.844e-01,7.592e-01,1.009e+00,1.459e+00,1.750e+00,3.059e+00,3.102e+00,4.185e+00,4.389e+00,3.923e+00,4.208e+00,3.261e+00,4.909e+00,4.578e+00,4.264e+00,5.570e+00,5.010e+00,6.123e+00,5.093e+00,6.287e+00,5.497e+00,7.903e+00,6.984e+00,9.576e+00,8.210e+00,7.891e+00,9.018e+00,8.274e+00,1.009e+01,9.387e+00,6.795e+00,8.898e+00,8.451e+00,7.863e+00,6.660e+00,8.013e+00,9.334e+00,1.008e+01,7.985e+00,7.228e+00,8.343e+00,9.472e+00,7.618e+00,8.998e+00,7.415e+00,7.735e+00,9.521e+00,8.541e+00,7.252e+00,1.029e+01,8.955e+00,8.576e+00,9.622e+00,9.037e+00,9.689e+00,9.590e+00,8.734e+00,9.293e+00,8.910e+00,7.038e+00,9.994e+00,9.127e+00,9.101e+00,8.360e+00,7.857e+00,7.900e+00,6.852e+00,1.070e+01,7.921e+00,8.068e+00,8.207e+00,8.516e+00,1.037e+01,9.453e+00,1.037e+01,8.561e+00,9.224e+00
2.627e-02,6.034e-02,5.481e-02,2.276e-01,5.957e-01,5.526e-01,7.014e-01,7.215e-01,8.266e-01,1.459e+00,1.475e+00,1.734e+00,3.107e+00,2.068e+00,2.715e+00,2.170e+00,3.409e+00,3.782e+00,3.341e+00,4.781e+00,3.809e+00,4.739e+00,5.291e+00,5.470e+00,4.940e+00,6.575e+00,4.440e+00,6.680e+00,6.196e+00,5.450e+00,5.444e+00,5.293e+00,8.169e+00,6.215e+00,5.699e+00,6.341e+00,5.417e+00,5.522e+00,5.273e+00,5.674e+00,7.116e+00,7.666e+00,6.140e+00,6.750e+00,7.012e+00,7.131e+00,5.711e+00,5.795e+00,5.855e+00,6.210e+00,6.757e+00,6.123e+00,6.350e+00,7.990e+00,6.933e+00,7.270e+00,6.021e+00,6.357e+00,6.937e+00,7.851e+00,6.661e+00,6.878e+00,7.148e+00,6.073e+00,7.238e+00,7.341e+00,6.791e+00,7.174e+00,6.496e+00,5.350e+00,4.700e+00,7.036e+00,5.818e+00,6.733e+00,5.463e+00,7.605e+00,6.368e+00,7.393e+00,7.886e+00,6.848e+00,6.785e+00
4.541e-01,7.774e-01,1.233e+00,9.295e-01,1.751e+00,1.468e+00,1.182e+00,1.476e+00,2.879e+00,3.947e+00,3.757e+00,4.362e+00,4.786e+00,3.569e+00,4.715e+00,4.218e+00,6.027e+00,5.512e+00,5.459e+00,5.009e+00,5.178e+00,6.166e+00,5.647e+00,7.500e+00,7.612e+00,9.508e+00,7.161e+00,1.056e+01,1.024e+01,7.275e+00,9.070e+00,8.843e+00,1.084e+01,1.122e+01,7.724e+00,1.054e+01,8.906e+00,1.077e+01,7.827e+00,9.456e+00,8.867e+00,1.061e+01,9.019e+00,7.403e+00,1.181e+01,1.084e+01,7.141e+00,1.004e+01,9.838e+00,7.558e+00,9.749e+00,9.453e+00,9.166e+00,9.518e+00,1.061e+01,1.144e+01,9.495e+00,1.058e+01,1.173e+01,1.047e+01,1.097e+01,1.006e+01,9.153e+00,9.427e+00,1.060e+01,1.042e+01,1.058e+01,8.539e+00,9.003e+00,9.087e+00,7.281e+00,1.040e+01,1.040e+01,1.027e+01,9.527e+00,9.239e+00,1.041e+01,1.155e+01,1.218e+01,1.007e+01,9.102e+00
1.712e-01,9.542e-02,6.056e-01,4.474e-01,1.255e+00,6.836e-01,9.925e-01,1.351e+00,2.169e+00,3.372e+00,3.439e+00,4.459e+00,5.284e+00,3.605e+00,4.506e+00,3.608e+00,4.695e+00,4.787e+00,4.192e+00,4.397e+00,4.924e+00,5.743e+00,4.999e+00,7.254e+00,5.104e+00,7.487e+00,6.304e+00,8.798e+00,8.262e+00,6.481e+00,7.349e+00,8.207e+00,9.623e+00,1.015e+01,6.157e+00,8.668e+00,7.976e+00,8.693e+00,7.147e+00,8.649e+00,8.763e+00,9.968e+00,8.613e+00,6.824e+00,1.100e+01,9.380e+00,8.084e+00,9.286e+00,8.252e+00,7.585e+00,8.737e+00,8.191e+00,8.682e+00,9.963e+00,8.636e+00,1.019e+01,9.018e+00,1.052e+01,1.087e+01,9.630e+00,1.019e+01,8.857e+00,9.197e+00,9.017e+00,9.811e+00,1.014e+01,9.456e+00,7.587e+00,8.630e+00,8.517e+00,7.720e+00,9.261e+00,7.966e+00,8.937e+00,8.423e+00,8.837e+00,8.550e+00,1.053e+01,1.090e+01,9.287e+00,9.640e+00
4.240e-01,1.009e+00,1.038e+00,9.583e-01,1.137e+00,1.102e+00,8.769e-01,1.076e+00,1.542e+00,2.742e+00,3.088e+00,3.172e+00,3.904e+00,3.269e+00,3.722e+00,3.521e+00,4.110e+00,5.461e+00,3.717e+00,4.770e+00,4.583e+00,6.373e+00,6.152e+00,6.022e+00,5.614e+00,8.127e+00,6.198e+00,9.579e+00,9.007e+00,7.404e+00,7.744e+00,7.552e+00,9.957e+00,1.027e+01,8.289e+00,8.812e+00,8.890e+00,7.785e+00,7.840e+00,9.052e+00,1.008e+01,1.106e+01,1.059e+01,7.780e+00,9.885e+00,1.065e+01,8.432e+00,9.188e+00,8.032e+00,8.740e+00,8.829e+00,8.124e+00,9.727e+00,1.068e+01,1.059e+01,9.895e+00,9.054e+00,1.009e+01,1.103e+01,1.100e+01,1.082e+01,1.029e+01,9.494e+00,9.584e+00,1.105e+01,1.098e+01,9.684e+00,8.820e+00,9.477e+00,9.016e+00,7.393e+00,1.043e+01,9.144e+00,1.027e+01,9.577e+00,9.893e+00,8.477e+00,1.009e+01,1.101e+01,1.001e+01,9.203e+00
4.003e-01,9.633e-01,8.972e-01,8.500e-01,1.005e+00,1.292e+00,1.339e+00,1.713e+00,1.643e+00,3.089e+00,3.029e+00,3.870e+00,4.602e+00,3.523e+00,4.390e+00,2.850e+00,5.416e+00,5.450e+00,4.466e+00,5.793e+00,5.746e+00,6.820e+00,5.740e+00,6.432e+00,5.206e+00,8.765e+00,6.141e+00,9.752e+00,8.517e+00,7.311e+00,8.270e+00,8.812e+00,1.030e+01,1.105e+01,8.083e+00,9.135e+00,9.084e+00,9.398e+00,7.113e+00,8.795e+00,1.030e+01,1.138e+01,1.017e+01,8.116e+00,1.042e+01,1.029e+01,9.113e+00,9.682e+00,8.857e+00,9.375e+00,1.077e+01,9.384e+00,9.261e+00,1.089e+01,1.042e+01,1.117e+01,1.082e+01,1.154e+01,1.121e+01,1.158e+01,1.021e+01,1.052e+01,1.035e+01,9.056e+00,1.060e+01,1.025e+01,1.174e+01,9.194e+00,9.471e+00,9.052e+00,7.449e+00,1.116e+01,9.690e+00,1.041e+01,8.656e+00,1.111e+01,1.054e+01,1.140e+01,1.091e+01,1.015e+01,1.040e+01
5.239e-01,3.750e-01,8.206e-01,7.102e-01,1.137e+00,8.560e-01,1.085e+00,1.314e+00,1.672e+00,2.719e+00,2.723e+00,2.906e+00,3.244e+00,2.207e+00,3.333e+00,2.434e+00,3.465e+00,3.213e+00,2.788e+00,4.054e+00,3.607e+00,3.718e+00,4.193e+00,5.063e+00,4.799e+00,5.869e+00,5.157e+00,7.138e+00,6.683e+00,5.762e+00,6.588e+00,6.273e+00,8.459e+00,8.518e+00,7.253e+00,7.591e+00,8.776e+00,7.706e+00,7.033e+00,8.603e+00,8.440e+00,1.007e+01,8.695e+00,8.019e+00,8.846e+00,1.010e+01,7.108e+00,8.269e+00,6.602e+00,8.128e+00,8.288e+00,9.276e+00,7.467e+00,8.992e+00,1.013e+01,8.283e+00,8.940e+00,9.877e+00,1.152e+01,9.365e+00,1.044e+01,7.979e+00,7.746e+00,8.759e+00,8.414e+00,9.379e+00,9.180e+00,9.496e+00,8.284e+00,7.600e+00,5.845e+00,1.045e+01,7.119e+00,9.467e+00,8.516e+00,9.680e+00,9.047e+00,9.877e+00,1.089e+01,1.008e+01,8.912e+00
1.717e-01,8.256e-01,7.845e-01,8.468e-01,1.390e+00,1.297e+00,1.388e+00,2.212e+00,2.081e+00,3.916e+00,3.834e+00,5.023e+00,5.224e+00,4.804e+00,5.392e+00,4.194e+00,5.055e+00,6.152e+00,4.558e+00,6.657e+00,4.744e+00,7.199e+00,6.686e+00,7.766e+00,6.470e+00,8.703e+00,6.502e+00,1.036e+01,8.705e+00,7.497e+00,8.906e+00,7.904e+00,1.071e+01,1.003e+01,7.185e+00,9.116e+00,9.664e+00,9.897e+00,8.982e+00,9.144e+00,1.158e+01,1.188e+01,1.149e+01,9.215e+00,1.079e+01,1.137e+01,7.409e+00,1.098e+01,9.202e+00,1.043e+01,1.068e+01,1.052e+01,9.003e+00,1.229e+01,1.163e+01,1.117e+01,9.860e+00,1.033e+01,1.142e+01,1.124e+01,1.102e+01,9.347e+00,1.071e+01,9.370e+00,1.141e+01,1.076e+01,1.040e+01,1.010e+01,1.002e+01,9.424e+00,7.889e+00,1.220e+01,1.034e+01,1.055e+01,9.975e+00,1.171e+01,1.066e+01,1.165e+01,1.180e+01,1.068e+01,1.184e+01
5.713e-01,1.097e+00,1.121e+00,1.132e+00,1.307e+00,1.323e+00,1.119e+00,1.434e+00,1.973e+00,3.134e+00,3.707e+00,3.749e+00,4.455e+00,3.595e+00,4.682e+00,3.792e+00,5.074e+00,5.934e+00,4.470e+00,6.493e+00,5.891e+00,6.761e+00,6.650e+00,6.241e+00,6.317e+00,9.122e+00,6.236e+00,9.869e+00,8.760e+00,6.574e+00,7.212e+00,7.517e+00,9.166e+00,9.116e+00,7.469e+00,7.610e+00,7.743e+00,8.153e+00,7.691e+00,9.092e+00,1.023e+01,1.061e+01,1.059e+01,7.394e+00,9.685e+00,1.109e+01,8.337e+00,8.925e+00,7.679e+00,8.187e+00,8.659e+00,8.755e+00,9.813e+00,1.040e+01,9.117e+00,1.033e+01,9.375e+00,9.537e+00,1.055e+01,1.026e+01,1.091e+01,9.323e+00,9.078e+00,9.726e+00,9.935e+00,9.719e+00,1.013e+01,8.431e+00,9.068e+00,9.176e+00,5.738e+00,1.041e+01,9.004e+00,9.672e+00,8.414e+00,1.016e+01,9.108e+00,1.041e+01,1.008e+01,1.019e+01,9.640e+00
1.865e-01,6.338e-01,8.582e-01,7.414e-01,1.536e+00,1.326e+00,1.506e+00,2.316e+00,2.421e+00,4.092e+00,3.615e+00,4.851e+00,4.732e+00,3.438e+00,4.690e+00,3.293e+00,5.330e+00,5.200e+00,5.414e+00,5.542e+00,4.981e+00,6.709e+00,5.932e+00,8.466e+00,6.568e+00,9.049e+00,6.802e+00,1.073e+01,9.710e+00,7.775e+00,8.486e+00,7.947e+00,1.080e+01,9.833e+00,7.165e+00,1.005e+01,9.444e+00,9.663e+00,9.796e+00,9.768e+00,1.129e+01,1.292e+01,1.084e+01,1.003e+01,1.221e+01,1.283e+01,9.929e+00,1.161e+01,9.893e+00,1.097e+01,1.110e+01,1.065e+01,1.045e+01,1.204e+01,1.211e+01,1.213e+01,1.156e+01,1.248e+01,1.274e+01,1.199e+01,1.206e+01,1.131e+01,1.111e+01,1.042e+01,1.182e+01,1.230e+01,1.135e+01,1.069e+01,1.125e+01,9.329e+00,8.344e+00,1.301e+01,1.012e+01,1.166e+01,1.005e+01,1.279e+01,1.129e+01,1.296e+01,1.312e+01,1.219e+01,1.197e+01
4.869e-01,8.834e-01,1.268e+00,1.054e+00,1.626e+00,1.246e+00,1.473e+00,1.649e+00,2.489e+00,4.006e+00,3.648e+00,4.702e+00,4.823e+00,3.460e+00,5.196e+00,4.113e+00,5.456e+00,5.206e+00,4.386e+00,5.013e+00,5.658e+00,6.378e+00,4.822e+00,6.422e+00,6.009e+00,8.891e+00,6.958e+00,9.675e+00,9.214e+00,7.097e+00,9.018e+00,8.528e+00,1.023e+01,9.697e+00,8.082e+00,9.002e+00,8.778e+00,9.876e+00,9.178e+00,1.008e+01,1.140e+01,1.397e+01,1.175e+01,9.707e+00,1.274e+01,1.306e+01,9.922e+00,1.079e+01,1.111e+01,1.140e+01,1.180e+01,1.064e+01,1.019e+01,1.163e+01,1.262e+01,1.143e+01,1.119e+01,1.226e+01,1.220e+01,1.183e+01,1.322e+01,1.155e+01,1.085e+01,9.810e+00,1.178e+01,1.139e+01,1.193e+01,1.054e+01,1.085e+01,1.066e+01,8.473e+00,1.384e+01,1.073e+01,1.175e+01,1.083e+01,1.180e+01,1.147e+01,1.403e+01,1.268e+01,1.347e+01,1.140e+01
1.856e-01,1.533e-01,2.998e-01,2.922e-01,5.575e-01,5.138e-01,6.553e-01,9.337e-01,8.475e-01,1.662e+00,1.682e+00,1.977e+00,2.614e+00,1.713e+00,2.451e+00,1.698e+00,3.253e+00,3.283e+00,3.073e+00,3.305e+00,3.234e+00,3.092e+00,4.405e+00,4.992e+00,4.238e+00,5.746e+00,3.798e+00,5.851e+00,5.751e+00,4.644e+00,5.451e+00,4.832e+00,6.377e+00,7.402e+00,5.148e+00,6.305e+00,5.666e+00,5.901e+00,6.939e+00,7.325e+00,8.331e+00,1.093e+01,9.199e+00,6.616e+00,9.052e+00,1.000e+01,7.663e+00,9.198e+00,8.546e+00,9.240e+00,7.318e+00,7.534e+00,9.235e+00,9.005e+00,9.205e+00,7.975e+00,8.246e+00,9.046e+00,9.655e+00,9.032e+00,1.052e+01,9.310e+00,7.807e+00,9.210e+00,9.460e+00,1.070e+01,8.648e+00,1.003e+01,9.495e+00,9.067e+00,5.819e+00,9.896e+00,7.559e+00,9.192e+00,8.667e+00,9.018e+00,7.786e+00,1.041e+01,9.801e+00,1.086e+01,8.369e+00
8.718e-02,4.174e-01,3.116e-01,4.069e-01,7.357e-01,8.991e-01,8.459e-01,1.398e+00,1.674e+00,2.578e+00,2.731e+00,3.391e+00,4.246e+00,3.441e+00,4.355e+00,3.537e+00,5.502e+00,5.472e+00,4.791e+00,6.041e+00,5.673e+00,6.585e+00,7.304e+00,8.257e+00,7.871e+00,9.638e+00,6.475e+00,1.119e+01,9.434e+00,8.188e+00,8.984e+00,8.931e+00,1.100e+01,1.117e+01,9.258e+00,1.044e+01,9.699e+00,1.029e+01,1.105e+01,1.096e+01,1.245e+01,1.509e+01,1.375e+01,1.126e+01,1.450e+01,1.536e+01,1.213e+01,1.266e+01,1.248e+01,1.375e+01,1.294e+01,1.209e+01,1.320e+01,1.319e+01,1.478e+01,1.317e+01,1.309e+01,1.381e+01,1.592e+01,1.430e+01,1.538e+01,1.426e+01,1.301e+01,1.280e+01,1.430e+01,1.480e+01,1.364e+01,1.440e+01,1.299e+01,1.358e+01,9.107e+00,1.588e+01,1.244e+01,1.409e+01,1.337e+01,1.472e+01,1.296e+01,1.645e+01,1.516e+01,1.535e+01,1.343e+01
4.698e-02,8.501e-01,5.529e-01,7.084e-01,1.123e+00,1.362e+00,1.384e+00,1.858e+00,2.185e+00,3.185e+00,3.345e+00,3.814e+00,4.356e+00,3.861e+00,4.630e+00,3.424e+00,5.239e+00,5.231e+00,4.223e+00,5.800e+00,4.384e+00,6.054e+00,5.185e+00,7.002e+00,6.508e+00,7.852e+00,5.353e+00,8.400e+00,7.375e+00,6.478e+00,7.071e+00,6.314e+00,8.234e+00,8.591e+00,6.229e+00,7.969e+00,7.118e+00,8.479e+00,6.901e+00,7.383e+00,8.750e+00,1.023e+01,9.513e+00,8.635e+00,1.131e+01,1.133e+01,8.204e+00,8.040e+00,1.043e+01,9.210e+00,1.039e+01,9.365e+00,8.409e+00,1.034e+01,1.079e+01,1.096e+01,9.658e+00,9.962e+00,1.130e+01,9.770e+00,1.159e+01,1.013e+01,9.648e+00,8.575e+00,1.002e+01,1.026e+01,1.051e+01,9.606e+00,9.026e+00,9.323e+00,7.589e+00,1.103e+01,8.731e+00,1.005e+01,8.779e+00,1.121e+01,1.002e+01,1.091e+01,1.064e+01,1.128e+01,1.056e+01
5.368e-01,3.894e-01,1.058e+00,7.899e-01,1.468e+00,8.659e-01,8.331e-01,1.341e+00,1.732e+00,3.065e+00,3.524e+00,3.564e+00,4.793e+00,3.424e+00,4.385e+00,3.546e+00,5.311e+00,5.757e+00,4.901e+00,6.244e+00,5.745e+00,6.905e+00,6.327e+00,7.227e+00,6.597e+00,9.725e+00,6.508e+00,1.033e+01,9.584e+00,7.804e+00,9.385e+00,9.606e+00,1.157e+01,1.059e+01,7.974e+00,1.132e+01,9.892e+00,1.113e+01,8.941e+00,1.030e+01,1.175e+01,1.274e+01,1.195e+01,9.866e+00,1.276e+01,1.479e+01,1.170e+01,1.270e+01,1.108e+01,1.210e+01,1.372e+01,1.295e+01,1.167e+01,1.280e+01,1.435e+01,1.241e+01,1.151e+01,1.387e+01,1.509e+01,1.493e+01,1.413e+01,1.345e+01,1.246e+01,1.235e+01,1.344e+01,1.424e+01,1.438e+01,1.285e+01,1.152e+01,1.163e+01,9.292e+00,1.469e+01,1.326e+01,1.361e+01,1.258e+01,1.310e+01,1.346e+01,1.454e+01,1.515e+01,1.391e+01,1.306e+01
3.269e-01,4.087e-01,9.545e-01,7.469e-01,1.719e+00,1.185e+00,1.133e+00,1.092e+00,2.169e+00,3.219e+00,3.032e+00,3.697e+00,4.623e+00,3.991e+00,4.455e+00,4.296e+00,5.707e+00,6.180e+00,4.894e+00,6.316e+00,5.069e+00,6.479e+00,6.971e+00,8.046e+00,7.542e+00,9.490e+00,6.781e+00,1.069e+01,1.016e+01,7.694e+00,8.646e+00,8.166e+00,1.003e+01,1.043e+01,7.258e+00,9.185e+00,8.460e+00,1.008e+01,9.034e+00,8.853e+00,1.092e+01,1.319e+01,1.127e+01,9.970e+00,1.316e+01,1.352e+01,9.445e+00,1.119e+01,1.201e+01,1.141e+01,1.262e+01,1.138e+01,1.099e+01,1.218e+01,1.271e+01,1.221e+01,1.235e+01,1.230e+01,1.324e+01,1.214e+01,1.305e+01,1.248e+01,1.120e+01,1.162e+01,1.234e+01,1.223e+01,1.223e+01,1.153e+01,1.233e+01,1.124e+01,7.915e+00,1.352e+01,1.084e+01,1.246e+01,1.118e+01,1.283e+01,1.158e+01,1.426e+01,1.250e+01,1.289e+01,1.117e+01
5.577e-01,1.055e+00,1.112e+00,1.217e+00,1.599e+00,1.555e+00,1.809e+00,2.132e+00,2.781e+00,4.266e+00,4.505e+00,4.647e+00,5.168e+00,3.808e+00,5.441e+00,3.648e+00,5.209e+00,4.879e+00,4.118e+00,5.876e+00,5.726e+00,6.115e+00,5.612e+00,6.887e+00,5.066e+00,8.595e+00,6.616e+00,8.332e+00,7.854e+00,5.755e+00,6.865e+00,7.076e+00,9.543e+00,8.668e+00,6.652e+00,7.509e+00,8.086e+00,8.466e+00,7.282e+00,9.494e+00,9.768e+00,1.222e+01,1.045e+01,8.697e+00,1.072e+01,1.261e+01,8.731e+00,1.099e+01,1.126e+01,1.186e+01,1.230e+01,1.166e+01,1.024e+01,1.243e+01,1.105e+01,1.149e+01,1.106e+01,1.236e+01,1.258e+01,1.210e+01,1.364e+01,1.066e+01,1.091e+01,1.159e+01,1.137e+01,1.043e+01,1.330e+01,1.180e+01,1.096e+01,1.075e+01,7.689e+00,1.263e+01,9.986e+00,1.165e+01,1.079e+01,1.299e+01,1.088e+01,1.338e+01,1.257e+01,1.287e+01,1.159e+01
3.183e-01,9.605e-01,1.069e+00,9.034e-01,1.293e+00,1.134e+00,8.850e-01,1.506e+00,1.253e+00,3.117e+00,2.531e+00,3.264e+00,3.087e+00,2.871e+00,3.593e+00,3.426e+00,4.023e+00,4.871e+00,4.189e+00,3.926e+00,3.523e+00,4.489e+00,5.057e+00,5.945e+00,4.664e+00,6.772e+00,4.791e+00,8.368e+00,7.396e+00,6.442e+00,7.998e+00,6.509e+00,9.113e+00,8.674e+00,7.458e+00,7.783e+00,7.439e+00,7.707e+00,6.578e+00,8.192e+00,9.496e+00,1.073e+01,9.002e+00,7.963e+00,9.017e+00,1.172e+01,8.719e+00,1.122e+01,1.005e+01,1.152e+01,1.169e+01,1.064e+01,9.961e+00,1.228e+01,1.252e+01,9.717e+00,1.049e+01,1.196e+01,1.206e+01,1.149e+01,1.194e+01,1.129e+01,1.130e+01,1.074e+01,1.260e+01,1.064e+01,1.168e+01,1.077e+01,1.179e+01,9.273e+00,7.663e+00,1.325e+01,1.177e+01,1.138e+01,1.079e+01,1.237e+01,1.003e+01,1.254e+01,1.255e+01,1.226e+01,1.061e+01
3.739e-02,9.142e-01,3.968e-01,7.289e-01,1.035e+00,1.468e+00,1.183e+00,1.343e+00,2.326e+00,2.745e+00,3.058e+00,3.453e+00,4.323e+00,3.512e+00,4.281e+00,3.318e+00,5.654e+00,4.791e+00,3.983e+00,5.729e+00,5.342e+00,6.255e+00,5.107e+00,5.745e+00,6.362e+00,9.204e+00,5.937e+00,8.989e+00,8.452e+00,7.003e+00,7.194e+00,7.532e+00,8.636e+00,9.191e+00,7.587e+00,8.273e+00,7.727e+00,8.651e+00,7.650e+00,9.277e+00,1.002e+01,1.130e+01,1.055e+01,8.541e+00,1.204e+01,1.251e+01,1.052e+01,1.030e+01,1.083e+01,1.153e+01,1.192e+01,1.256e+01,1.128e+01,1.138e+01,1.242e+01,1.118e+01,1.099e+01,1.285e+01,1.413e+01,1.316e+01,1.266e+01,1.273e+01,1.103e+01,1.234e+01,1.183e+01,1.331e+01,1.306e+01,1.059e+01,1.127e+01,1.076e+01,8.000e+00,1.418e+01,1.112e+01,1.261e+01,1.067e+01,1.279e+01,1.178e+01,1.431e+01,1.457e+01,1.198e+01,1.139e+01
6.192e-01,8.592e-01,1.363e+00,1.183e+00,1.989e+00,1.573e+00,1.606e+00,1.992e+00,2.586e+00,4.463e+00,4.446e+00,5.105e+00,5.567e+00,4.357e+00,5.110e+00,4.079e+00,6.010e+00,5.747e+00,4.567e+00,5.442e+00,5.226e+00,5.481e+00,6.033e+00,7.379e+00,7.083e+00,8.875e+00,6.905e+00,9.449e+00,9.008e+00,7.671e+00,8.676e+00,7.266e+00,9.201e+00,1.014e+01,6.915e+00,9.059e+00,7.942e+00,7.915e+00,8.454e+00,9.290e+00,1.001e+01,1.296e+01,1.063e+01,8.248e+00,1.183e+01,1.281e+01,1.028e+01,1.197e+01,1.250e+01,1.291e+01,1.346e+01,1.213e+01,1.364e+01,1.334e+01,1.270e+01,1.191e+01,1.238e+01,1.420e+01,1.575e+01,1.332e+01,1.544e+01,1.405e+01,1.248e+01,1.368e+01,1.467e+01,1.364e+01,1.243e+01,1.286e+01,1.322e+01,1.288e+01,9.552e+00,1.493e+01,1.026e+01,1.262e+01,1.307e+01,1.493e+01,1.129e+01,1.534e+01,1.509e+01,1.439e+01,1.214e+01
3.549e-01,3.287e-01,9.130e-01,7.847e-01,1.745e+00,1.053e+00,1.111e+00,1.430e+00,1.701e+00,3.251e+00,3.314e+00,3.381e+00,4.588e+00,2.752e+00,3.955e+00,3.609e+00,4.616e+00,5.585e+00,4.227e+00,4.695e+00,4.374e+00,5.541e+00,5.641e+00,7.147e+00,6.475e+00,7.434e+00,5.039e+00,8.585e+00,8.330e+00,6.287e+00,7.812e+00,7.357e+00,1.025e+01,8.576e+00,7.160e+00,8.276e+00,7.113e+00,8.519e+00,7.785e+00,8.629e+00,9.639e+00,1.110e+01,1.049e+01,8.557e+00,1.148e+01,1.285e+01,1.018e+01,1.002e+01,1.088e+01,1.210e+01,1.306e+01,1.325e+01,1.203e+01,1.358e+01,1.329e+01,1.179e+01,9.589e+00,1.328e+01,1.444e+01,1.328e+01,1.377e+01,1.290e+01,1.358e+01,1.227e+01,1.384e+01,1.245e+01,1.300e+01,1.137e+01,1.251e+01,1.137e+01,9.313e+00,1.510e+01,1.248e+01,1.263e+01,1.230e+01,1.325e+01,1.110e+01,1.493e+01,1.425e+01,1.360e+01,1.192e+01
5.978e-01,4.353e-01,1.118e+00,9.018e-01,1.570e+00,8.786e-01,8.653e-01,1.293e+00,1.302e+00,3.051e+00,3.518e+00,3.291e+00,4.567e+00,2.895e+00,3.766e+00,3.328e+00,3.832e+00,5.609e+00,4.110e+00,4.720e+00,4.312e+00,5.636e+00,6.248e+00,7.323e+00,6.269e+00,7.395e+00,5.502e+00,8.521e+00,7.950e+00,6.537e+00,7.207e+00,7.113e+00,9.631e+00,7.729e+00,6.404e+00,8.162e+00,7.685e+00,7.665e+00,7.177e+00,8.026e+00,9.801e+00,1.124e+01,1.029e+01,8.834e+00,1.166e+01,1.210e+01,9.088e+00,9.015e+00,9.461e+00,1.083e+01,1.203e+01,1.191e+01,1.164e+01,1.323e+01,1.159e+01,1.146e+01,9.772e+00,1.285e+01,1.433e+01,1.260e+01,1.297e+01,1.302e+01,1.248e+01,1.176e+01,1.242e+01,1.199e+01,1.199e+01,1.201e+01,1.213e+01,1.037e+01,8.963e+00,1.424e+01,1.138e+01,1.159e+01,1.176e+01,1.361e+01,1.040e+01,1.442e+01,1.244e+01,1.367e+01,1.194e+01
2.005e-01,1.080e-01,4.984e-01,3.514e-01,9.911e-01,7.086e-01,7.090e-01,1.351e+00,1.986e+00,2.743e+00,3.302e+00,3.354e+00,4.267e+00,3.293e+00,3.712e+00,2.782e+00,3.593e+00,3.875e+00,3.261e+00,4.845e+00,3.440e+00,5.053e+00,4.419e+00,6.635e+00,5.720e+00,6.258e+00,4.905e+00,7.723e+00,6.634e+00,6.606e+00,7.213e+00,7.269e+00,8.612e+00,9.162e+00,6.350e+00,9.129e+00,8.868e+00,8.691e+00,8.326e+00,8.779e+00,1.035e+01,1.071e+01,1.122e+01,8.644e+00,1.226e+01,1.315e+01,1.048e+01,1.103e+01,1.109e+01,1.212e+01,1.280e+01,1.306e+01,1.256e+01,1.376e+01,1.447e+01,1.210e+01,1.217e+01,1.489e+01,1.657e+01,1.398e+01,1.499e+01,1.328e+01,1.382e+01,1.383e+01,1.316e+01,1.432e+01,1.300e+01,1.272e+01,1.265e+01,1.363e+01,1.079e+01,1.564e+01,1.188e+01,1.254e+01,1.425e+01,1.602e+01,1.264e+01,1.549e+01,1.560e+01,1.392e+01,1.507e+01
5.461e-01,6.938e-01,1.204e+00,8.833e-01,1.538e+00,1.273e+00,1.074e+00,1.427e+00,2.301e+00,3.502e+00,3.507e+00,3.925e+00,4.611e+00,3.793e+00,4.268e+00,3.690e+00,4.491e+00,5.086e+00,3.876e+00,4.724e+00,3.392e+00,5.422e+00,4.307e+00,6.122e+00,5.664e+00,6.923e+00,5.660e+00,8.491e+00,7.954e+00,6.565e+00,7.630e+00,6.556e+00,9.178e+00,8.992e+00,6.541e+00,7.864e+00,7.813e+00,8.301e+00,7.107e+00,8.476e+00,1.031e+01,1.115e+01,1.046e+01,8.385e+00,1.182e+01,1.329e+01,9.235e+00,9.876e+00,1.016e+01,1.235e+01,1.306e+01,1.439e+01,1.137e+01,1.324e+01,1.395e+01,1.296e+01,1.204e+01,1.391e+01,1.564e+01,1.364e+01,1.396e+01,1.336e+01,1.299e+01,1.350e+01,1.385e+01,1.365e+01,1.422e+01,1.110e+01,1.275e+01,1.245e+01,9.805e+00,1.620e+01,1.370e+01,1.305e+01,1.255e+01,1.501e+01,1.219e+01,1.496e+01,1.416e+01,1.400e+01,1.362e+01
5.066e-01,9.957e-01,1.159e+00,1.080e+00,1.582e+00,1.555e+00,1.562e+00,1.684e+00,2.541e+00,3.892e+00,3.970e+00,4.723e+00,5.325e+00,4.916e+00,5.033e+00,4.241e+00,5.814e+00,6.014e+00,4.995e+00,6.571e+00,5.403e+00,6.872e+00,6.710e+00,8.655e+00,6.557e+00,9.680e+00,7.654e+00,1.124e+01,9.993e+00,8.587e+00,8.937e+00,9.087e+00,1.126e+01,1.201e+01,8.817e+00,9.521e+00,1.029e+01,1.033e+01,9.545e+00,1.136e+01,1.318e+01,1.508e+01,1.286e+01,1.007e+01,1.401e+01,1.500e+01,1.184e+01,1.352e+01,1.376e+01,1.398e+01,1.553e+01,1.405e+01,1.348e+01,1.553e+01,1.657e+01,1.567e+01,1.562e+01,1.679e+01,1.820e+01,1.634e+01,1.853e+01,1.601e+01,1.528e+01,1.569e+01,1.735e+01,1.696e+01,1.709e+01,1.525e+01,1.570e+01,1.502e+01,1.163e+01,1.823e+01,1.564e+01,1.608e+01,1.599e+01,1.743e+01,1.459e+01,1.913e+01,1.799e+01,1.676e+01,1.731e+01
1.385e-01,8.567e-01,5.801e-01,7.861e-01,1.038e+00,1.183e+00,1.389e+00,1.904e+00,1.854e+00,3.059e+00,3.098e+00,3.541e+00,3.295e+00,2.609e+00,3.693e+00,2.295e+00,3.983e+00,3.678e+00,3.411e+00,4.652e+00,4.496e+00,5.391e+00,4.667e+00,5.246e+00,5.058e+00,7.094e+00,5.805e+00,7.935e+00,7.518e+00,6.534e+00,7.261e+00,6.903e+00,9.023e+00,8.766e+00,7.613e+00,9.007e+00,1.013e+01,8.205e+00,8.562e+00,8.795e+00,1.017e+01,1.246e+01,1.185e+01,1.035e+01,1.168e+01,1.372e+01,9.861e+00,1.085e+01,1.197e+01,1.349e+01,1.322e+01,1.308e+01,1.265e+01,1.436e+01,1.627e+01,1.335e+01,1.383e+01,1.632e+01,1.755e+01,1.608e+01,1.699e+01,1.432e+01,1.448e+01,1.592e+01,1.406e+01,1.494e+01,1.665e+01,1.556e+01,1.303e+01,1.437e+01,1.205e+01,1.722e+01,1.363e+01,1.431e+01,1.536e+01,1.726e+01,1.325e+01,1.737e+01,1.628e+01,1.698e+01,1.454e+01
5.424e-01,6.542e-01,1.188e+00,9.765e-01,1.804e+00,1.394e+00,1.241e+00,1.415e+00,2.078e+00,3.516e+00,3.843e+00,3.610e+00,5.179e+00,3.882e+00,4.176e+00,3.872e+00,5.670e+00,6.091e+00,4.285e+00,5.067e+00,4.525e+00,5.659e+00,5.478e+00,7.469e+00,6.835e+00,8.520e+00,6.112e+00,9.316e+00,9.414e+00,7.702e+00,8.091e+00,7.574e+00,9.721e+00,9.315e+00,6.569e+00,8.412e+00,7.288e+00,9.335e+00,7.922e+00,9.160e+00,1.026e+01,1.228e+01,9.593e+00,9.049e+00,1.255e+01,1.289e+01,1.104e+01,1.108e+01,1.156e+01,1.223e+01,1.372e+01,1.441e+01,1.316e+01,1.366e+01,1.457e+01,1.431e+01,1.296e+01,1.498e+01,1.580e+01,1.614e+01,1.499e+01,1.502e+01,1.520e+01,1.370e+01,1.461e+01,1.556e+01,1.535e+01,1.310e+01,1.449e+01,1.301e+01,1.111e+01,1.603e+01,1.385e+01,1.526e+01,1.355e+01,1.520e+01,1.380e+01,1.681e+01,1.604e+01,1.493e+01,1.418e+01
3.373e-01,9.885e-01,1.133e+00,1.072e+00,1.872e+00,1.755e+00,1.823e+00,2.001e+00,2.734e+00,4.327e+00,3.574e+00,4.300e+00,4.271e+00,3.449e+00,4.753e+00,4.100e+00,6.248e+00,5.288e+00,5.338e+00,5.720e+00,5.459e+00,5.466e+00,5.784e+00,7.682e+00,7.235e+00,9.188e+00,6.458e+00,9.311e+00,9.332e+00,7.537e+00,8.060e+00,6.457e+00,9.917e+00,1.009e+01,8.040e+00,9.102e+00,9.165e+00,8.784e+00,7.982e+00,1.041e+01,9.800e+00,1.213e+01,1.142e+01,1.008e+01,1.237e+01,1.329e+01,1.008e+01,1.186e+01,1.225e+01,1.183e+01,1.281e+01,1.311e+01,1.294e+01,1.324e+01,1.495e+01,1.385e+01,1.348e+01,1.497e+01,1.672e+01,1.501e+01,1.711e+01,1.408e+01,1.305e+01,1.518e+01,1.422e+01,1.482e+01,1.535e+01,1.407e+01,1.451e+01,1.324e+01,1.043e+01,1.529e+01,1.389e+01,1.470e+01,1.471e+01,1.689e+01,1.368e+01,1.711e+01,1.669e+01,1.631e+01,1.390e+01
1.164e-01,3.032e-01,6.556e-01,5.784e-01,1.368e+00,8.138e-01,1.055e+00,1.105e+00,1.976e+00,3.017e+00,2.865e+00,3.557e+00,4.036e+00,2.963e+00,4.275e+00,4.075e+00,4.773e+00,5.231e+00,4.079e+00,4.988e+00,4.883e+00,4.549e+00,5.316e+00,6.560e+00,6.540e+00,7.917e+00,5.341e+00,8.576e+00,8.604e+00,6.941e+00,7.888e+00,6.624e+00,9.205e+00,8.682e+00,7.158e+00,7.794e+00,8.017e+00,8.483e+00,8.714e+00,1.043e+01,1.058e+01,1.385e+01,1.207e+01,1.026e+01,1.328e+01,1.613e+01,1.160e+01,1.223e+01,1.324e+01,1.399e+01,1.389e+01,1.425e+01,1.370e+01,1.432e+01,1.451e+01,1.267e+01,1.330e+01,1.543e+01,1.749e+01,1.514e+01,1.907e+01,1.593e+01,1.441e+01,1.610e+01,1.501e+01,1.550e+01,1.596e+01,1.437e+01,1.581e+01,1.552e+01,1.119e+01,1.716e+01,1.415e+01,1.552e+01,1.433e+01,1.718e+01,1.229e+01,1.821e+01,1.615e+01,1.888e+01,1.539e+01
1.845e-01,8.729e-01,5.909e-01,6.448e-01,8.202e-01,1.271e+00,1.015e+00,1.555e+00,2.140e+00,3.051e+00,2.967e+00,3.312e+00,3.682e+00,3.296e+00,3.727e+00,2.961e+00,4.340e+00,3.904e+00,3.682e+00,3.606e+00,3.105e+00,4.661e+00,4.432e+00,7.073e+00,4.992e+00,6.955e+00,5.674e+00,7.751e+00,7.048e+00,6.423e+00,6.824e+00,6.305e+00,8.632e+00,9.099e+00,7.125e+00,7.872e+00,7.832e+00,7.449e+00,7.227e+00,8.940e+00,1.027e+01,1.256e+01,9.390e+00,9.064e+00,1.185e+01,1.263e+01,9.943e+00,1.048e+01,1.141e+01,1.360e+01,1.324e+01,1.218e+01,1.188e+01,1.316e+01,1.392e+01,1.163e+01,1.294e+01,1.447e+01,1.594e+01,1.483e+01,1.613e+01,1.487e+01,1.425e+01,1.417e+01,1.513e+01,1.495e+01,1.505e+01,1.386e+01,1.593e+01,1.201e+01,1.029e+01,1.754e+01,1.299e+01,1.349e+01,1.314e+01,1.604e+01,1.206e+01,1.507e+01,1.508e+01,1.641e+01,1.540e+01
5.233e-01,8.753e-01,1.072e+00,1.018e+00,1.477e+00,1.419e+00,1.457e+00,2.037e+00,1.472e+00,3.573e+00,3.212e+00,3.834e+00,4.060e+00,3.516e+00,4.042e+00,3.145e+00,5.311e+00,5.486e+00,4.943e+00,5.195e+00,4.591e+00,4.778e+00,6.521e+00,7.747e+00,5.412e+00,7.914e+00,5.883e+00,9.140e+00,8.216e+00,6.981e+00,7.859e+00,7.580e+00,8.732e+00,1.058e+01,7.314e+00,8.203e+00,8.394e+00,8.211e+00,7.068e+00,8.770e+00,1.026e+01,1.236e+01,1.010e+01,8.358e+00,1.024e+01,1.121e+01,9.243e+00,1.082e+01,1.052e+01,1.167e+01,1.271e+01,1.131e+01,1.237e+01,1.324e+01,1.390e+01,1.234e+01,1.265e+01,1.466e+01,1.623e+01,1.441e+01,1.583e+01,1.407e+01,1.405e+01,1.502e+01,1.559e+01,1.512e+01,1.487e+01,1.369e+01,1.422e+01,1.237e+01,1.142e+01,1.613e+01,1.375e+01,1.407e+01,1.425e+01,1.555e+01,1.323e+01,1.574e+01,1.578e+01,1.534e+01,1.447e+01
3.591e-01,6.100e-01,8.931e-01,8.978e-01,1.660e+00,1.342e+00,1.468e+00,1.553e+00,2.051e+00,3.580e+00,3.109e+00,3.962e+00,4.769e+00,2.828e+00,4.647e+00,3.531e+00,5.525e+00,5.509e+00,4.156e+00,5.375e+00,5.988e+00,5.545e+00,5.414e+00,6.135e+00,5.390e+00,8.000e+00,5.972e+00,8.107e+00,8.046e+00,6.479e+00,7.602e+00,7.558e+00,1.016e+01,1.002e+01,7.901e+00,8.148e+00,9.261e+00,8.712e+00,7.924e+00,8.734e+00,1.106e+01,1.282e+01,1.228e+01,9.762e+00,1.249e+01,1.329e+01,1.040e+01,1.204e+01,1.174e+01,1.315e+01,1.425e+01,1.384e+01,1.261e+01,1.398e+01,1.337e+01,1.318e+01,1.350e+01,1.638e+01,1.672e+01,1.668e+01,1.795e+01,1.620e+01,1.735e+01,1.690e+01,1.629e+01,1.530e+01,1.818e+01,1.437e+01,1.586e+01,1.586e+01,1.224e+01,1.753e+01,1.630e+01,1.603e+01,1.626e+01,1.888e+01,1.437e+01,1.852e+01,1.757e+01,1.736e+01,1.621e+01
3.651e-01,8.193e-01,9.682e-01,9.860e-01,1.657e+00,1.485e+00,1.465e+00,1.861e+00,2.186e+00,3.510e+00,3.551e+00,4.099e+00,4.168e+00,3.627e+00,3.803e+00,2.835e+00,5.455e+00,4.599e+00,4.456e+00,5.377e+00,4.810e+00,5.554e+00,5.811e+00,6.705e+00,6.247e+00,8.480e+00,6.192e+00,8.861e+00,8.562e+00,7.403e+00,8.237e+00,7.659e+00,1.046e+01,1.058e+01,7.008e+00,1.014e+01,9.233e+00,9.571e+00,9.065e+00,9.346e+00,1.066e+01,1.342e+01,1.077e+01,9.233e+00,1.341e+01,1.375e+01,1.115e+01,1.279e+01,1.235e+01,1.365e+01,1.499e+01,1.446e+01,1.162e+01,1.321e+01,1.461e+01,1.398e+01,1.352e+01,1.573e+01,1.725e+01,1.647e+01,1.586e+01,1.570e+01,1.629e+01,1.544e+01,1.653e+01,1.720e+01,1.717e+01,1.652e+01,1.554e+01,1.546e+01,1.251e+01,1.856e+01,1.477e+01,1.582e+01,1.454e+01,1.826e+01,1.562e+01,1.874e+01,1.849e+01,1.788e+01,1.588e+01
2.921e-01,1.653e-01,6.364e-01,5.379e-01,1.380e+00,1.024e+00,1.188e+00,1.699e+00,1.707e+00,3.022e+00,3.108e+00,3.190e+00,4.204e+00,2.917e+00,3.629e+00,2.757e+00,4.557e+00,4.671e+00,3.579e+00,4.916e+00,3.977e+00,4.858e+00,5.418e+00,6.737e+00,5.646e+00,6.606e+00,4.108e+00,8.093e+00,7.044e+00,6.681e+00,6.661e+00,6.834e+00,8.527e+00,9.258e+00,6.794e+00,8.755e+00,7.910e+00,7.656e+00,7.351e+00,8.606e+00,9.441e+00,1.112e+01,1.058e+01,7.483e+00,1.077e+01,1.194e+01,9.803e+00,1.066e+01,1.200e+01,1.201e+01,1.268e+01,1.193e+01,1.234e+01,1.288e+01,1.513e+01,1.309e+01,1.230e+01,1.516e+01,1.598e+01,1.528e+01,1.669e+01,1.512e+01,1.614e+01,1.546e+01,1.655e+01,1.767e+01,1.812e+01,1.539e+01,1.580e+01,1.591e+01,1.251e+01,1.764e+01,1.578e+01,1.619e+01,1.446e+01,1.802e+01,1.379e+01,1.878e+01,1.848e+01,1.830e+01,1.578e+01
6.233e-01,5.503e-01,1.254e+00,9.028e-01,1.712e+00,1.302e+00,1.345e+00,1.426e+00,2.433e+00,3.806e+00,3.652e+00,3.926e+00,5.296e+00,3.865e+00,4.952e+00,4.177e+00,6.292e+00,5.974e+00,5.093e+00,6.131e+00,5.629e+00,6.782e+00,6.153e+00,7.912e+00,6.988e+00,9.978e+00,7.186e+00,1.055e+01,9.946e+00,8.477e+00,8.626e+00,8.295e+00,9.518e+00,1.048e+01,7.598e+00,1.007e+01,9.405e+00,1.034e+01,9.709e+00,9.662e+00,1.217e+01,1.395e+01,1.205e+01,1.006e+01,1.298e+01,1.430e+01,1.121e+01,1.242e+01,1.321e+01,1.215e+01,1.384e+01,1.307e+01,1.423e+01,1.450e+01,1.612e+01,1.476e+01,1.449e+01,1.586e+01,1.717e+01,1.722e+01,1.748e+01,1.619e+01,1.590e+01,1.668e+01,1.657e+01,1.772e+01,1.936e+01,1.536e+01,1.658e+01,1.626e+01,1.419e+01,1.863e+01,1.500e+01,1.845e+01,1.737e+01,1.855e+01,1.600e+01,1.932e+01,1.879e+01,1.930e+01,1.766e+01
3.461e-01,4.960e-01,8.105e-01,6.058e-01,9.136e-01,6.924e-01,9.269e-01,1.078e+00,1.683e+00,2.699e+00,2.584e+00,3.444e+00,3.538e+00,3.534e+00,3.891e+00,3.309e+00,4.002e+00,4.306e+00,3.758e+00,4.997e+00,3.800e+00,5.213e+00,5.005e+00,6.738e+00,5.792e+00,7.583e+00,6.379e+00,8.478e+00,7.803e+00,7.602e+00,8.428e+00,6.613e+00,9.891e+00,1.009e+01,7.526e+00,8.839e+00,9.544e+00,8.154e+00,8.350e+00,9.355e+00,1.121e+01,1.322e+01,1.183e+01,9.540e+00,1.274e+01,1.320e+01,1.085e+01,1.095e+01,1.093e+01,1.256e+01,1.329e+01,1.269e+01,1.122e+01,1.405e+01,1.443e+01,1.284e+01,1.301e+01,1.463e+01,1.624e+01,1.549e+01,1.690e+01,1.579e+01,1.435e+01,1.677e+01,1.691e+01,1.663e+01,1.669e+01,1.628e+01,1.738e+01,1.635e+01,1.315e+01,1.918e+01,1.515e+01,1.772e+01,1.735e+01,1.905e+01,1.464e+01,1.992e+01,1.823e+01,1.964e+01,1.843e+01
3.867e-01,4.439e-01,7.515e-01,6.189e-01,1.040e+00,9.194e-01,1.074e+00,1.520e+00,2.386e+00,3.308e+00,3.379e+00,3.626e+00,4.184e+00,2.746e+00,4.260e+00,3.315e+00,3.756e+00,3.767e+00,3.060e+00,3.867e+00,3.700e+00,5.039e+00,4.298e+00,6.470e+00,5.494e+00,6.267e+00,5.361e+00,7.278e+00,6.414e+00,5.017e+00,5.236e+00,5.370e+00,7.520e+00,6.894e+00,5.145e+00,6.238e+00,6.420e+00,6.295e+00,6.431e+00,7.276e+00,6.780e+00,9.138e+00,8.756e+00,7.787e+00,1.001e+01,1.077e+01,7.215e+00,7.705e+00,8.748e+00,9.892e+00,1.019e+01,1.018e+01,1.008e+01,1.083e+01,1.054e+01,1.024e+01,9.036e+00,1.222e+01,1.379e+01,1.277e+01,1.394e+01,1.211e+01,1.141e+01,1.259e+01,1.247e+01,1.276e+01,1.413e+01,1.188e+01,1.264e+01,1.286e+01,1.026e+01,1.498e+01,1.282e+01,1.411e+01,1.293e+01,1.528e+01,1.128e+01,1.534e+01,1.360e+01,1.508e+01,1.408e+01
2.550e-01,7.179e-01,9.288e-01,9.233e-01,1.674e+00,1.228e+00,1.106e+00,1.508e+00,1.615e+00,3.201e+00,3.555e+00,3.430e+00,4.717e+00,3.113e+00,4.492e+00,3.873e+00,6.137e+00,6.631e+00,5.219e+00,6.416e+00,6.911e+00,6.697e+00,6.661e+00,7.422e+00,7.574e+00,9.423e+00,6.211e+00,1.034e+01,9.552e+00,7.739e+00,9.207e+00,9.206e+00,1.058e+01,9.818e+00,7.846e+00,1.007e+01,8.894e+00,1.055e+01,9.633e+00,9.657e+00,1.207e+01,1.313e+01,1.252e+01,1.058e+01,1.354e+01,1.527e+01,1.327e+01,1.248e+01,1.347e+01,1.343e+01,1.462e+01,1.471e+01,1.476e+01,1.615e+01,1.695e+01,1.593e+01,1.464e+01,1.725e+01,1.738e+01,1.846e+01,1.836e+01,1.832e+01,1.850e+01,1.731e+01,1.674e+01,1.947e+01,2.050e+01,1.769e+01,1.839e+01,1.830e+01,1.581e+01,2.060e+01,1.838e+01,1.983e+01,1.944e+01,2.137e+01,1.697e+01,2.245e+01,2.007e+01,2.089e+01,1.971e+01
8.241e-02,7.543e-01,6.509e-01,7.293e-01,1.407e+00,1.484e+00,1.439e+00,2.272e+00,1.959e+00,3.872e+00,3.365e+00,3.890e+00,4.588e+00,2.664e+00,4.422e+00,2.882e+00,4.739e+00,4.946e+00,3.728e+00,4.364e+00,4.634e+00,5.694e+00,4.489e+00,7.388e+00,5.441e+00,7.760e+00,5.108e+00,8.425e+00,7.957e+00,7.361e+00,7.789e+00,7.317e+00,9.596e+00,8.223e+00,7.553e+00,7.909e+00,7.728e+00,7.734e+00,8.106e+00,7.254e+00,9.701e+00,1.015e+01,8.677e+00,8.301e+00,1.011e+01,9.738e+00,8.738e+00,1.040e+01,9.731e+00,1.166e+01,1.293e+01,1.169e+01,1.138e+01,1.283e+01,1.481e+01,1.201e+01,1.292e+01,1.464e+01,1.477e+01,1.549e+01,1.399e+01,1.421e+01,1.514e+01,1.451e+01,1.467e+01,1.541e+01,1.671e+01,1.480e+01,1.549e+01,1.479e+01,1.332e+01,1.790e+01,1.630e+01,1.644e+01,1.579e+01,1.708e+01,1.521e+01,1.884e+01,1.802e+01,1.584e+01,1.634e+01
9.493e-02,9.523e-01,6.634e-01,7.077e-01,9.324e-01,1.187e+00,1.027e+00,1.753e+00,1.970e+00,2.915e+00,2.845e+00,3.589e+00,2.790e+00,3.359e+00,3.501e+00,2.939e+00,4.468e+00,4.179e+00,3.913e+00,4.557e+00,3.847e+00,5.352e+00,4.669e+00,5.833e+00,4.956e+00,6.759e+00,4.944e+00,8.500e+00,7.465e+00,6.692e+00,7.170e+00,6.905e+00,8.743e+00,8.858e+00,7.819e+00,8.161e+00,8.483e+00,8.835e+00,9.174e+00,9.124e+00,1.063e+01,1.271e+01,1.024e+01,8.757e+00,1.075e+01,1.272e+01,1.069e+01,1.229e+01,1.177e+01,1.364e+01,1.361e+01,1.210e+01,1.162e+01,1.282e+01,1.574e+01,1.328e+01,1.311e+01,1.437e+01,1.586e+01,1.400e+01,1.615e+01,1.506e+01,1.528e+01,1.496e+01,1.644e+01,1.682e+01,1.662e+01,1.587e+01,1.584e+01,1.556e+01,1.354e+01,1.913e+01,1.806e+01,1.757e+01,1.672e+01,1.991e+01,1.595e+01,2.084e+01,2.022e+01,1.854e+01,1.942e+01
4.663e-01,6.700e-01,9.236e-01,8.777e-01,1.341e+00,1.134e+00,1.035e+00,1.023e+00,1.712e+00,2.703e+00,2.795e+00,2.883e+00,3.604e+00,2.972e+00,3.458e+00,3.202e+00,4.215e+00,4.324e+00,3.331e+00,5.183e+00,4.421e+00,4.981e+00,5.854e+00,5.771e+00,5.720e+00,7.473e+00,5.296e+00,8.349e+00,7.555e+00,7.060e+00,7.139e+00,6.835e+00,9.004e+00,8.902e+00,7.603e+00,7.949e+00,7.977e+00,7.375e+00,7.773e+00,8.869e+00,9.748e+00,1.125e+01,1.056e+01,8.886e+00,1.034e+01,1.292e+01,1.044e+01,1.085e+01,1.082e+01,1.248e+01,1.356e+01,1.251e+01,1.221e+01,1.300e+01,1.414e+01,1.141e+01,1.228e+01,1.465e+01,1.580e+01,1.588e+01,1.535e+01,1.520e+01,1.604e+01,1.495e+01,1.589e+01,1.582e+01,1.659e+01,1.501e+01,1.649e+01,1.668e+01,1.265e+01,1.875e+01,1.633e+01,1.768e+01,1.623e+01,1.987e+01,1.484e+01,1.969e+01,1.935e+01,1.712e+01,1.800e+01
5.658e-01,4.452e-01,1.081e+00,7.191e-01,1.290e+00,9.214e-01,7.887e-01,1.427e+00,1.587e+00,3.251e+00,3.491e+00,3.605e+00,4.958e+00,3.489e+00,4.026e+00,3.214e+00,5.062e+00,5.371e+00,4.128e+00,5.076e+00,5.435e+00,6.129e+00,6.334e+00,7.496e+00,5.453e+00,7.779e+00,5.619e+00,9.042e+00,7.654e+00,6.572e+00,7.989e+00,8.221e+00,9.820e+00,9.867e+00,6.840e+00,9.448e+00,8.303e+00,8.161e+00,7.235e+00,9.406e+00,1.085e+01,1.281e+01,1.137e+01,9.354e+00,1.224e+01,1.375e+01,1.171e+01,1.197e+01,1.039e+01,1.411e+01,1.421e+01,1.247e+01,1.321e+01,1.427e+01,1.428e+01,1.359e+01,1.357e+01,1.652e+01,1.743e+01,1.752e+01,1.669e+01,1.641e+01,1.642e+01,1.571e+01,1.759e+01,1.706e+01,1.782e+01,1.667e+01,1.704e+01,1.664e+01,1.463e+01,2.090e+01,1.758e+01,1.727e+01,1.783e+01,2.092e+01,1.812e+01,2.028e+01,1.937e+01,2.005e+01,1.789e+01
1.504e-01,6.405e-01,6.093e-01,6.326e-01,9.552e-01,9.032e-01,1.019e+00,1.453e+00,1.843e+00,2.997e+00,2.808e+00,3.467e+00,3.853e+00,2.761e+00,4.433e+00,3.774e+00,4.751e+00,4.916e+00,3.983e+00,4.424e+00,4.716e+00,5.233e+00,4.420e+00,6.429e+00,5.380e+00,7.445e+00,5.724e+00,8.445e+00,7.923e+00,7.066e+00,7.613e+00,7.399e+00,9.328e+00,8.250e+00,7.954e+00,7.677e+00,8.236e+00,8.986e+00,7.881e+00,8.891e+00,1.055e+01,1.216e+01,1.058e+01,9.522e+00,1.178e+01,1.263e+01,9.862e+00,1.048e+01,1.095e+01,1.224e+01,1.248e+01,1.193e+01,1.090e+01,1.289e+01,1.344e+01,1.104e+01,1.232e+01,1.407e+01,1.455e+01,1.389e+01,1.632e+01,1.533e+01,1.496e+01,1.473e+01,1.447e+01,1.553e+01,1.673e+01,1.487e+01,1.535e+01,1.540e+01,1.313e+01,1.893e+01,1.667e+01,1.840e+01,1.740e+01,1.824e+01,1.501e+01,1.996e+01,1.906e+01,2.037e+01,1.740e+01
3.298e-01,3.435e-01,8.401e-01,5.737e-01,1.284e+00,9.819e-01,1.176e+00,1.944e+00,1.958e+00,3.458e+00,3.318e+00,4.066e+00,4.376e+00,2.885e+00,4.234e+00,3.038e+00,4.461e+00,4.809e+00,4.695e+00,5.208e+00,4.467e+00,5.473e+00,5.632e+00,7.803e+00,6.728e+00,7.896e+00,5.115e+00,1.029e+01,8.577e+00,7.405e+00,8.050e+00,7.775e+00,1.016e+01,1.006e+01,8.019e+00,9.804e+00,8.742e+00,9.316e+00,9.957e+00,9.740e+00,1.063e+01,1.277e+01,1.221e+01,9.449e+00,1.263e+01,1.498e+01,1.085e+01,1.157e+01,1.275e+01,1.325e+01,1.332e+01,1.292e+01,1.331e+01,1.410e+01,1.633e+01,1.475e+01,1.447e+01,1.568e+01,1.821e+01,1.621e+01,1.791e+01,1.539e+01,1.583e+01,1.685e+01,1.627e+01,1.776e+01,1.842e+01,1.555e+01,1.612e+01,1.848e+01,1.348e+01,1.893e+01,1.840e+01,1.777e+01,1.811e+01,2.084e+01,1.626e+01,2.223e+01,1.996e+01,2.181e+01,1.993e+01
3.489e-01,5.737e-01,6.558e-01,7.531e-01,1.211e+00,1.186e+00,1.154e+00,1.740e+00,2.268e+00,3.409e+00,3.855e+00,3.862e+00,5.185e+00,3.110e+00,5.023e+00,3.683e+00,5.593e+00,5.693e+00,4.595e+00,5.492e+00,5.584e+00,6.437e+00,6.232e+00,7.354e+00,7.480e+00,9.716e+00,6.865e+00,9.890e+00,9.693e+00,7.837e+00,8.290e+00,7.919e+00,1.064e+01,1.049e+01,8.404e+00,1.031e+01,9.444e+00,9.426e+00,9.475e+00,1.098e+01,1.213e+01,1.327e+01,1.354e+01,9.614e+00,1.430e+01,1.508e+01,1.133e+01,1.277e+01,1.238e+01,1.400e+01,1.431e+01,1.477e+01,1.563e+01,1.500e+01,1.690e+01,1.435e+01,1.404e+01,1.774e+01,1.960e+01,1.980e+01,1.932e+01,1.848e+01,1.821e+01,1.931e+01,1.764e+01,1.996e+01,1.979e+01,1.775e+01,1.869e+01,2.004e+01,1.569e+01,2.183e+01,1.943e+01,2.078e+01,2.014e+01,2.192e+01,1.894e+01,2.402e+01,2.380e+01,2.305e+01,1.969e+01
5.096e-01,2.810e-01,1.135e+00,7.374e-01,1.696e+00,9.703e-01,8.697e-01,1.269e+00,1.916e+00,3.381e+00,3.172e+00,3.823e+00,4.308e+00,3.172e+00,3.805e+00,3.446e+00,4.843e+00,5.160e+00,4.008e+00,4.305e+00,4.606e+00,5.435e+00,5.241e+00,6.383e+00,5.688e+00,6.953e+00,5.815e+00,8.669e+00,8.183e+00,6.235e+00,7.612e+00,7.768e+00,9.354e+00,1.011e+01,6.617e+00,8.810e+00,8.960e+00,8.852e+00,8.513e+00,8.565e+00,9.791e+00,1.195e+01,1.051e+01,7.977e+00,1.252e+01,1.233e+01,1.058e+01,1.251e+01,1.169e+01,1.247e+01,1.311e+01,1.417e+01,1.282e+01,1.352e+01,1.448e+01,1.427e+01,1.285e+01,1.622e+01,1.764e+01,1.507e+01,1.646e+01,1.591e+01,1.709e+01,1.685e+01,1.666e+01,1.725e+01,1.782e+01,1.562e+01,1.685e+01,1.768e+01,1.463e+01,1.991e+01,1.691e+01,1.812e+01,1.747e+01,1.995e+01,1.748e+01,2.141e+01,2.159e+01,2.236e+01,2.003e+01
1.785e-01,8.625e-01,8.230e-01,9.053e-01,1.476e+00,1.347e+00,1.536e+00,1.607e+00,1.729e+00,3.165e+00,2.929e+00,3.648e+00,3.720e+00,3.800e+00,3.981e+00,3.412e+00,5.432e+00,5.164e+00,3.664e+00,5.813e+00,5.129e+00,5.657e+00,5.638e+00,6.531e+00,6.097e+00,8.086e+00,6.127e+00,9.748e+00,8.719e+00,7.939e+00,9.144e+00,8.210e+00,9.787e+00,1.027e+01,8.194e+00,8.423e+00,9.530e+00,9.751e+00,1.010e+01,9.531e+00,1.212e+01,1.462e+01,1.203e+01,1.031e+01,1.295e+01,1.447e+01,1.109e+01,1.154e+01,1.244e+01,1.265e+01,1.382e+01,1.325e+01,1.165e+01,1.451e+01,1.590e+01,1.422e+01,1.558e+01,1.488e+01,1.702e+01,1.693e+01,1.790e+01,1.587e+01,1.673e+01,1.548e+01,1.615e+01,1.706e+01,1.944e+01,1.650e+01,1.746e+01,1.943e+01,1.552e+01,2.090e+01,1.854e+01,2.081e+01,2.107e+01,2.275e+01,1.986e+01,2.499e+01,2.202e+01,2.397e+01,2.260e+01
1.770e-01,5.808e-01,7.490e-01,7.520e-01,1.560e+00,1.327e+00,1.407e+00,1.637e+00,1.765e+00,3.424e+00,2.752e+00,3.618e+00,4.222e+00,2.588e+00,3.822e+00,2.994e+00,5.246e+00,4.754e+00,4.407e+00,4.392e+00,4.913e+00,4.967e+00,5.404e+00,6.529e+00,5.709e+00,7.696e+00,5.464e+00,8.000e+00,8.119e+00,7.102e+00,8.282e+00,7.433e+00,1.024e+01,1.009e+01,8.056e+00,9.442e+00,8.546e+00,8.819e+00,8.436e+00,8.759e+00,1.035e+01,1.215e+01,1.069e+01,9.111e+00,1.227e+01,1.249e+01,1.038e+01,1.230e+01,1.232e+01,1.383e+01,1.482e+01,1.332e+01,1.285e+01,1.375e+01,1.495e+01,1.384e+01,1.363e+01,1.719e+01,1.739e+01,1.662e+01,1.706e+01,1.741e+01,1.689e+01,1.770e+01,1.724e+01,1.739e+01,1.751e+01,1.686e+01,1.630e+01,1.780e+01,1.414e+01,1.973e+01,1.750e+01,1.863e+01,1.811e+01,2.016e+01,1.669e+01,2.254e+01,2.159e+01,2.200e+01,1.869e+01
1.878e-01,6.935e-01,6.942e-01,7.815e-01,1.301e+00,1.156e+00,1.193e+00,1.383e+00,1.397e+00,2.574e+00,2.386e+00,2.862e+00,2.968e+00,2.593e+00,3.020e+00,2.513e+00,4.469e+00,4.678e+00,3.894e+00,4.545e+00,4.654e+00,5.688e+00,5.642e+00,6.563e+00,4.590e+00,7.265e+00,5.511e+00,8.653e+00,7.958e+00,5.459e+00,5.824e+00,6.455e+00,8.574e+00,8.261e+00,6.253e+00,6.771e+00,7.893e+00,7.940e+00,7.623e+00,7.699e+00,9.122e+00,1.136e+01,1.002e+01,7.903e+00,1.130e+01,1.113e+01,9.197e+00,1.046e+01,9.740e+00,1.173e+01,1.287e+01,1.190e+01,1.011e+01,1.206e+01,1.336e+01,1.216e+01,1.191e+01,1.374e+01,1.497e+01,1.352e+01,1.428e+01,1.391e+01,1.281e+01,1.362e+01,1.339e+01,1.363e+01,1.396e+01,1.344e+01,1.371e+01,1.415e+01,1.116e+01,1.731e+01,1.393e+01,1.561e+01,1.527e+01,1.655e+01,1.546e+01,1.918e+01,1.823e+01,1.952e+01,1.750e+01
2.238e-01,6.588e-01,5.596e-01,6.656e-01,8.328e-01,8.549e-01,8.850e-01,1.353e+00,1.105e+00,2.310e+00,2.498e+00,2.747e+00,3.078e+00,1.964e+00,3.061e+00,2.103e+00,3.770e+00,3.778e+00,3.072e+00,3.724e+00,4.724e+00,4.373e+00,4.650e+00,4.907e+00,4.286e+00,5.728e+00,4.498e+00,6.894e+00,5.780e+00,4.904e+00,5.631e+00,6.131e+00,7.346e+00,6.583e+00,5.900e+00,6.287e+00,6.037e+00,6.111e+00,6.502e+00,6.649e+00,7.926e+00,9.663e+00,8.690e+00,6.952e+00,9.536e+00,1.032e+01,9.280e+00,9.012e+00,1.002e+01,1.133e+01,1.152e+01,1.127e+01,1.078e+01,1.199e+01,1.217e+01,1.153e+01,1.038e+01,1.371e+01,1.476e+01,1.415e+01,1.352e+01,1.362e+01,1.452e+01,1.323e+01,1.407e+01,1.480e+01,1.648e+01,1.464e+01,1.534e+01,1.612e+01,1.362e+01,1.814e+01,1.530e+01,1.606e+01,1.699e+01,1.981e+01,1.613e+01,2.189e+01,1.918e+01,2.088e+01,1.911e+01
9.549e-02,2.532e-01,4.303e-01,3.447e-01,9.186e-01,8.773e-01,1.069e+00,1.548e+00,1.993e+00,2.777e+00,2.730e+00,3.771e+00,4.008e+00,3.226e+00,3.905e+00,2.906e+00,4.945e+00,4.870e+00,4.243e+00,5.211e+00,4.502e+00,5.464e+00,5.165e+00,6.625e+00,6.354e+00,7.522e+00,5.271e+00,8.856e+00,8.349e+00,7.528e+00,7.388e+00,6.857e+00,9.283e+00,9.707e+00,7.492e+00,8.925e+00,8.550e+00,8.366e+00,9.198e+00,8.776e+00,1.001e+01,1.260e+01,1.020e+01,8.986e+00,1.108e+01,1.255e+01,1.018e+01,1.164e+01,1.176e+01,1.130e+01,1.177e+01,1.164e+01,1.138e+01,1.177e+01,1.370e+01,1.274e+01,1.287e+01,1.324e+01,1.537e+01,1.466e+01,1.635e+01,1.496e+01,1.563e+01,1.463e+01,1.554e+01,1.706e+01,1.729e+01,1.462e+01,1.677e+01,1.691e+01,1.419e+01,1.766e+01,1.691e+01,1.850e+01,1.682e+01,2.029e+01,1.801e+01,2.214e+01,2.042e+01,2.219e+01,2.122e+01
