3.965e-01,9.363e-01,6.977e-01,9.592e-01,5.376e-01,7.570e-01,7.276e-01,7.405e-01,9.314e-01,7.828e-01,1.849e-01,6.984e-01,6.589e-01,3.135e-01,5.203e-02,5.518e-01,7.051e-01,6.496e-01,8.461e-01,8.323e-01,1.181e-01,3.880e-01,2.986e-01,2.118e-01,2.811e-01,2.971e-01,3.846e-01,7.144e-01,8.465e-02,5.260e-01,8.308e-01,3.568e-01,3.014e-02,6.622e-01,5.825e-01,8.336e-01,2.221e-01,5.704e-01,9.061e-01,3.904e-01,2.578e-01,5.412e-01,5.423e-01,4.254e-01,8.656e-03,7.946e-01,8.500e-01,9.737e-02,4.885e-01,1.691e-01,7.120e-02,9.859e-01,4.170e-01,2.691e-01,6.218e-01,5.213e-01,6.356e-01,2.732e-02,4.843e-01,9.581e-01,3.745e-01,9.736e-01,7.493e-01,8.244e-01,3.179e-01,3.061e-01,4.473e-01,2.255e-01,5.194e-01,1.109e-01,3.892e-01,8.989e-01,6.045e-01,7.330e-01,6.484e-01,8.738e-01,2.476e-01,2.992e-01,3.071e-01,2.722e-01,8.047e-01,6.213e-01,6.490e-01,5.168e-02,8.245e-01,2.887e-01,5.087e-01,7.589e-01,5.648e-01,3.301e-01
1.507e-01,6.878e-01,3.014e-01,4.844e-01,2.314e-01,4.527e-01,8.917e-01,4.174e-01,1.050e+00,7.564e-01,3.355e-01,3.332e-01,4.138e-01,6.150e-01,8.511e-01,9.071e-01,7.603e-01,6.016e-01,5.513e-01,7.173e-01,8.925e-01,9.023e-01,9.118e-01,5.336e-01,3.581e-01,5.780e-01,4.039e-01,4.367e-01,7.456e-01,9.599e-01,7.103e-01,9.109e-01,7.401e-01,1.029e+00,8.735e-01,1.055e+00,4.252e-01,6.803e-01,1.215e+00,9.656e-01,4.187e-01,3.021e-01,1.076e+00,4.734e-01,3.510e-01,1.176e+00,6.685e-01,1.012e+00,7.750e-01,6.841e-01,7.692e-01,5.458e-01,5.138e-01,1.686e-01,1.081e+00,6.371e-01,2.565e-01,6.184e-01,7.838e-01,1.102e+00,8.433e-01,6.858e-01,8.853e-01,1.019e+00,1.021e+00,7.962e-01,3.860e-01,6.204e-01,1.151e+00,4.051e-01,5.741e-01,5.524e-01,8.538e-01,4.056e-01,8.752e-01,4.644e-01,3.412e-01,6.880e-01,9.394e-01,1.581e-01,5.225e-01,7.354e-01,7.656e-01,5.529e-01,9.039e-01,1.614e-01,7.357e-01,3.402e-01,1.187e+00,2.847e-01
3.146e-01,1.016e+00,7.166e-01,9.635e-01,7.744e-01,1.454e+00,1.464e+00,1.517e+00,1.695e+00,1.241e+00,1.289e+00,9.857e-01,8.986e-01,8.404e-01,7.623e-01,1.521e+00,1.658e+00,1.451e+00,1.147e+00,1.084e+00,1.117e+00,1.576e+00,1.430e+00,1.097e+00,1.165e+00,1.425e+00,6.285e-01,8.134e-01,1.069e+00,1.397e+00,1.540e+00,1.112e+00,1.021e+00,1.646e+00,1.147e+00,1.270e+00,8.522e-01,1.798e+00,2.201e+00,1.697e+00,1.151e+00,1.472e+00,1.477e+00,1.068e+00,2.998e-01,1.878e+00,1.279e+00,1.591e+00,1.363e+00,1.617e+00,1.131e+00,1.030e+00,7.499e-01,1.038e+00,2.143e+00,1.055e+00,6.576e-01,7.197e-01,1.498e+00,2.029e+00,1.593e+00,1.062e+00,1.955e+00,2.050e+00,1.759e+00,1.475e+00,1.346e+00,9.630e-01,1.281e+00,9.402e-01,9.585e-01,1.506e+00,1.584e+00,1.074e+00,1.650e+00,1.353e+00,8.000e-01,7.615e-01,1.544e+00,4.150e-01,1.489e+00,9.748e-01,1.642e+00,5.537e-01,1.966e+00,2.774e-01,9.048e-01,1.525e+00,1.282e+00,4.330e-01
4.854e-02,4.151e-01,1.188e-01,9.150e-01,4.253e-01,5.910e-01,6.979e-01,5.247e-01,7.583e-01,1.318e+00,4.994e-01,7.158e-01,9.982e-01,6.559e-01,8.055e-01,1.316e+00,1.076e+00,7.685e-01,7.702e-01,5.677e-01,1.004e+00,1.401e+00,1.256e+00,1.199e+00,1.001e+00,4.796e-01,4.088e-01,1.117e+00,9.211e-01,1.123e+00,8.215e-01,1.232e+00,1.566e+00,1.023e+00,9.299e-01,9.639e-01,8.015e-01,7.957e-01,1.427e+00,8.222e-01,5.264e-01,3.410e-01,1.723e+00,5.100e-01,1.030e+00,1.205e+00,8.142e-01,1.552e+00,8.536e-01,1.370e+00,1.367e+00,6.258e-01,5.900e-01,7.607e-01,9.248e-01,9.707e-01,2.417e-01,1.509e+00,7.989e-01,8.522e-01,1.502e+00,4.967e-01,9.166e-01,1.547e+00,1.080e+00,1.436e+00,6.366e-01,6.451e-01,1.077e+00,1.235e+00,1.419e+00,1.140e+00,7.539e-01,5.195e-01,1.638e+00,2.976e-01,6.104e-01,1.217e+00,1.408e+00,9.728e-01,8.349e-01,1.394e+00,1.469e+00,8.823e-01,7.002e-01,6.200e-01,1.086e+00,1.068e+00,1.160e+00,4.172e-01
3.161e-01,8.029e-01,6.469e-01,1.177e+00,1.648e+00,1.411e+00,1.065e+00,1.618e+00,1.499e+00,1.560e+00,1.590e+00,1.530e+00,1.970e+00,5.342e-01,1.027e+00,1.545e+00,1.518e+00,1.335e+00,1.593e+00,8.722e-01,1.346e+00,2.160e+00,1.459e+00,1.138e+00,1.421e+00,1.560e+00,1.297e+00,1.487e+00,1.187e+00,1.303e+00,2.227e+00,1.362e+00,1.238e+00,1.232e+00,9.085e-01,1.766e+00,9.452e-01,1.399e+00,2.185e+00,1.764e+00,1.474e+00,1.493e+00,1.967e+00,7.947e-01,1.045e+00,1.314e+00,1.768e+00,1.486e+00,1.476e+00,1.485e+00,1.453e+00,1.767e+00,1.315e+00,1.733e+00,2.151e+00,1.706e+00,7.970e-01,1.600e+00,1.176e+00,1.517e+00,1.753e+00,1.249e+00,1.999e+00,2.374e+00,1.036e+00,1.654e+00,1.447e+00,1.500e+00,1.124e+00,9.831e-01,1.565e+00,1.840e+00,1.991e+00,1.689e+00,2.316e+00,1.807e+00,1.551e+00,1.394e+00,1.605e+00,1.337e+00,1.564e+00,1.535e+00,2.380e+00,1.192e+00,1.753e+00,1.071e+00,1.738e+00,2.603e+00,1.722e+00,5.985e-01
3.876e-01,1.119e+00,7.876e-01,1.375e+00,1.641e+00,1.804e+00,2.135e+00,2.231e+00,2.901e+00,2.246e+00,2.435e+00,1.687e+00,2.361e+00,1.479e+00,2.239e+00,1.897e+00,1.905e+00,2.417e+00,2.730e+00,1.874e+00,2.584e+00,3.030e+00,2.530e+00,1.618e+00,2.021e+00,2.202e+00,1.695e+00,2.325e+00,2.352e+00,1.763e+00,2.769e+00,2.013e+00,1.872e+00,1.886e+00,2.077e+00,2.220e+00,1.288e+00,2.265e+00,2.723e+00,2.362e+00,2.238e+00,1.822e+00,3.127e+00,1.821e+00,1.398e+00,2.566e+00,2.583e+00,2.149e+00,2.054e+00,2.565e+00,2.401e+00,2.450e+00,1.698e+00,2.021e+00,2.908e+00,1.996e+00,1.095e+00,2.604e+00,2.196e+00,2.345e+00,2.930e+00,2.511e+00,2.685e+00,2.820e+00,2.110e+00,2.660e+00,2.260e+00,2.601e+00,1.793e+00,1.831e+00,2.372e+00,2.221e+00,2.450e+00,2.619e+00,3.108e+00,2.677e+00,1.949e+00,1.929e+00,2.359e+00,2.192e+00,2.743e+00,2.094e+00,2.932e+00,1.964e+00,2.897e+00,1.998e+00,2.782e+00,3.437e+00,2.381e+00,9.966e-01
1.844e-01,4.677e-01,4.541e-01,5.758e-01,7.580e-01,1.247e+00,1.824e+00,2.121e+00,1.630e+00,1.817e+00,1.730e+00,1.375e+00,1.796e+00,1.699e+00,1.258e+00,1.184e+00,2.061e+00,2.204e+00,2.189e+00,1.578e+00,1.634e+00,1.655e+00,2.340e+00,1.441e+00,1.738e+00,2.130e+00,8.435e-01,1.142e+00,1.709e+00,1.528e+00,1.569e+00,1.044e+00,1.632e+00,1.755e+00,2.030e+00,1.686e+00,1.317e+00,2.583e+00,1.457e+00,1.681e+00,2.150e+00,1.820e+00,1.553e+00,1.988e+00,7.039e-01,2.483e+00,1.838e+00,2.093e+00,1.219e+00,1.839e+00,1.414e+00,1.692e+00,1.624e+00,1.779e+00,2.004e+00,9.141e-01,1.118e+00,1.457e+00,1.972e+00,2.099e+00,2.592e+00,1.403e+00,1.861e+00,1.992e+00,2.306e+00,1.856e+00,1.883e+00,1.727e+00,9.678e-01,1.506e+00,1.193e+00,1.831e+00,1.662e+00,1.938e+00,1.885e+00,2.022e+00,1.165e+00,1.588e+00,2.137e+00,1.104e+00,1.926e+00,1.079e+00,1.551e+00,8.980e-01,2.422e+00,1.113e+00,1.512e+00,2.194e+00,9.036e-01,7.718e-01
2.213e-02,3.029e-01,8.310e-02,4.617e-01,5.730e-01,6.520e-01,1.395e+00,1.964e+00,2.001e+00,1.714e+00,1.437e+00,1.176e+00,1.855e+00,1.400e+00,2.788e+00,1.166e+00,1.399e+00,2.148e+00,1.774e+00,1.540e+00,2.305e+00,2.569e+00,2.908e+00,1.398e+00,2.267e+00,2.297e+00,1.579e+00,2.040e+00,2.642e+00,2.006e+00,1.614e+00,2.010e+00,2.507e+00,2.281e+00,1.761e+00,2.037e+00,1.804e+00,2.058e+00,2.152e+00,1.895e+00,1.898e+00,1.188e+00,3.040e+00,2.281e+00,1.410e+00,2.579e+00,1.695e+00,2.156e+00,1.901e+00,2.515e+00,2.344e+00,2.109e+00,1.836e+00,1.934e+00,1.742e+00,1.543e+00,9.792e-01,2.320e+00,1.758e+00,2.282e+00,3.166e+00,1.909e+00,1.712e+00,2.171e+00,2.738e+00,1.979e+00,1.846e+00,2.644e+00,1.637e+00,1.938e+00,2.520e+00,1.595e+00,1.475e+00,2.060e+00,1.927e+00,1.913e+00,1.508e+00,2.230e+00,2.562e+00,1.549e+00,1.748e+00,1.954e+00,2.500e+00,1.491e+00,1.835e+00,1.816e+00,1.953e+00,1.767e+00,2.282e+00,8.333e-01
3.675e-01,1.087e+00,7.733e-01,1.454e+00,1.216e+00,1.714e+00,2.188e+00,2.691e+00,3.108e+00,3.328e+00,2.369e+00,2.537e+00,3.147e+00,2.186e+00,2.797e+00,2.139e+00,3.370e+00,3.330e+00,2.830e+00,2.498e+00,2.901e+00,2.910e+00,3.267e+00,2.717e+00,2.549e+00,3.509e+00,1.884e+00,2.479e+00,3.043e+00,2.871e+00,2.913e+00,2.869e+00,2.611e+00,3.268e+00,2.813e+00,3.400e+00,2.574e+00,3.908e+00,3.513e+00,2.970e+00,2.570e+00,2.771e+00,3.242e+00,2.968e+00,1.915e+00,4.079e+00,3.183e+00,3.631e+00,2.420e+00,2.662e+00,3.169e+00,3.230e+00,2.702e+00,2.355e+00,2.971e+00,2.304e+00,2.162e+00,2.604e+00,3.301e+00,3.144e+00,4.370e+00,2.435e+00,3.513e+00,3.460e+00,3.497e+00,2.795e+00,2.816e+00,2.282e+00,1.873e+00,2.792e+00,2.696e+00,3.153e+00,2.650e+00,2.473e+00,3.588e+00,3.049e+00,2.095e+00,2.632e+00,3.444e+00,1.845e+00,2.541e+00,2.975e+00,3.212e+00,1.611e+00,3.068e+00,2.420e+00,2.925e+00,3.161e+00,2.529e+00,1.336e+00
2.231e-01,6.219e-01,5.008e-01,1.024e+00,9.311e-01,1.360e+00,1.875e+00,2.281e+00,1.766e+00,3.070e+00,2.634e+00,1.766e+00,2.568e+00,2.119e+00,1.518e+00,2.424e+00,3.139e+00,2.813e+00,2.976e+00,2.359e+00,2.537e+00,2.801e+00,3.523e+00,1.892e+00,2.847e+00,2.970e+00,1.931e+00,2.478e+00,2.738e+00,2.457e+00,1.958e+00,1.840e+00,2.646e+00,2.290e+00,2.743e+00,2.656e+00,1.826e+00,2.913e+00,2.332e+00,1.909e+00,2.263e+00,2.278e+00,2.748e+00,2.593e+00,2.009e+00,3.322e+00,2.696e+00,2.896e+00,2.498e+00,2.912e+00,2.173e+00,2.090e+00,1.892e+00,2.713e+00,2.835e+00,1.707e+00,1.625e+00,2.458e+00,2.596e+00,2.482e+00,3.188e+00,2.158e+00,2.440e+00,3.148e+00,2.728e+00,2.835e+00,2.497e+00,2.614e+00,1.401e+00,2.404e+00,2.701e+00,2.966e+00,2.390e+00,2.631e+00,2.542e+00,2.329e+00,1.508e+00,2.805e+00,2.940e+00,1.846e+00,2.940e+00,2.578e+00,2.550e+00,1.169e+00,2.679e+00,2.071e+00,2.728e+00,2.668e+00,1.626e+00,1.532e+00
1.331e-01,4.097e-01,3.035e-01,5.181e-01,9.544e-01,9.189e-01,1.489e+00,1.887e+00,1.997e+00,2.536e+00,2.901e+00,1.861e+00,2.935e+00,2.459e+00,2.644e+00,2.562e+00,2.889e+00,3.020e+00,3.150e+00,2.192e+00,2.812e+00,3.332e+00,3.966e+00,2.466e+00,2.900e+00,3.918e+00,2.444e+00,2.643e+00,3.865e+00,2.672e+00,2.924e+00,2.132e+00,2.784e+00,3.006e+00,2.867e+00,3.160e+00,2.400e+00,2.725e+00,3.093e+00,3.024e+00,2.526e+00,2.811e+00,3.365e+00,3.336e+00,2.398e+00,3.099e+00,2.631e+00,2.862e+00,2.650e+00,3.079e+00,3.355e+00,2.552e+00,2.457e+00,3.041e+00,2.689e+00,1.901e+00,2.224e+00,3.382e+00,2.829e+00,2.436e+00,3.775e+00,2.616e+00,3.423e+00,3.061e+00,2.844e+00,2.844e+00,2.424e+00,2.678e+00,1.352e+00,2.136e+00,2.563e+00,3.031e+00,3.009e+00,2.543e+00,3.152e+00,3.194e+00,2.741e+00,2.567e+00,2.795e+00,2.152e+00,2.915e+00,2.477e+00,3.390e+00,1.604e+00,2.902e+00,3.137e+00,3.557e+00,2.628e+00,2.695e+00,2.307e+00
3.712e-01,1.207e+00,7.591e-01,1.657e+00,1.148e+00,1.618e+00,1.790e+00,2.220e+00,2.348e+00,3.099e+00,2.532e+00,2.264e+00,3.152e+00,2.918e+00,2.555e+00,3.878e+00,3.532e+00,3.516e+00,3.050e+00,3.384e+00,3.241e+00,4.143e+00,4.678e+00,2.871e+00,3.739e+00,3.603e+00,3.102e+00,3.758e+00,3.874e+00,3.764e+00,3.679e+00,2.749e+00,3.636e+00,3.865e+00,3.169e+00,3.298e+00,2.840e+00,3.351e+00,4.876e+00,3.505e+00,2.204e+00,3.078e+00,4.546e+00,3.343e+00,2.639e+00,3.550e+00,2.818e+00,3.631e+00,3.339e+00,4.305e+00,3.602e+00,3.433e+00,2.352e+00,3.430e+00,3.592e+00,2.902e+00,2.237e+00,3.104e+00,2.840e+00,3.406e+00,3.955e+00,2.903e+00,3.951e+00,4.486e+00,3.272e+00,4.031e+00,3.330e+00,3.217e+00,2.492e+00,2.688e+00,3.827e+00,3.938e+00,3.186e+00,3.056e+00,4.246e+00,3.062e+00,2.434e+00,3.398e+00,3.260e+00,2.669e+00,3.891e+00,3.644e+00,4.546e+00,1.557e+00,3.167e+00,3.122e+00,3.424e+00,2.926e+00,3.238e+00,2.273e+00
9.217e-02,3.660e-01,2.841e-01,6.344e-01,7.273e-01,1.074e+00,1.393e+00,2.021e+00,1.632e+00,2.461e+00,2.747e+00,1.738e+00,2.567e+00,2.592e+00,2.802e+00,3.165e+00,3.072e+00,3.614e+00,3.756e+00,2.371e+00,3.345e+00,3.972e+00,4.961e+00,2.946e+00,3.535e+00,4.529e+00,3.087e+00,3.104e+00,3.651e+00,3.440e+00,2.982e+00,2.416e+00,3.380e+00,3.951e+00,2.993e+00,3.188e+00,2.937e+00,3.238e+00,4.205e+00,3.015e+00,2.815e+00,3.298e+00,3.838e+00,3.301e+00,2.884e+00,3.152e+00,2.756e+00,3.331e+00,3.201e+00,4.377e+00,4.002e+00,2.238e+00,2.872e+00,3.798e+00,2.859e+00,2.608e+00,2.476e+00,3.581e+00,3.042e+00,3.167e+00,4.169e+00,2.846e+00,4.080e+00,3.844e+00,3.438e+00,3.019e+00,3.044e+00,3.014e+00,1.810e+00,2.465e+00,2.788e+00,3.467e+00,2.799e+00,2.354e+00,3.185e+00,3.513e+00,3.154e+00,3.004e+00,3.772e+00,2.454e+00,3.023e+00,2.650e+00,3.678e+00,1.487e+00,2.760e+00,3.366e+00,3.358e+00,2.537e+00,2.521e+00,2.480e+00
2.820e-01,7.905e-01,6.188e-01,1.236e+00,1.499e+00,1.544e+00,1.370e+00,2.098e+00,1.907e+00,2.089e+00,2.071e+00,1.967e+00,2.559e+00,1.770e+00,3.119e+00,2.601e+00,2.376e+00,3.446e+00,3.938e+00,2.316e+00,2.891e+00,4.406e+00,3.592e+00,3.391e+00,3.258e+00,3.733e+00,3.255e+00,3.238e+00,2.636e+00,3.494e+00,3.598e+00,2.312e+00,2.809e+00,3.466e+00,2.481e+00,3.201e+00,3.084e+00,3.298e+00,4.406e+00,3.602e+00,2.769e+00,2.806e+00,3.584e+00,2.416e+00,3.004e+00,2.348e+00,3.533e+00,3.466e+00,3.062e+00,4.056e+00,3.357e+00,3.078e+00,2.752e+00,3.532e+00,2.909e+00,2.815e+00,2.608e+00,3.284e+00,3.203e+00,3.037e+00,3.725e+00,2.941e+00,3.826e+00,4.057e+00,3.345e+00,3.015e+00,3.149e+00,2.983e+00,1.870e+00,2.598e+00,2.673e+00,3.796e+00,2.644e+00,2.606e+00,3.723e+00,3.612e+00,3.329e+00,2.910e+00,3.490e+00,2.761e+00,3.062e+00,3.094e+00,3.660e+00,2.223e+00,2.760e+00,3.244e+00,3.438e+00,3.963e+00,2.478e+00,1.705e+00
1.470e-01,4.169e-01,3.696e-01,9.272e-01,8.442e-01,1.343e+00,1.423e+00,1.803e+00,2.575e+00,2.589e+00,2.907e+00,1.928e+00,2.662e+00,2.430e+00,3.728e+00,2.988e+00,2.817e+00,4.181e+00,3.479e+00,2.913e+00,4.007e+00,3.786e+00,4.142e+00,3.101e+00,3.064e+00,4.461e+00,3.135e+00,3.225e+00,3.807e+00,2.756e+00,3.173e+00,3.280e+00,3.405e+00,3.680e+00,3.154e+00,2.740e+00,2.698e+00,3.886e+00,4.116e+00,3.044e+00,2.495e+00,3.045e+00,4.091e+00,3.739e+00,3.006e+00,3.550e+00,3.474e+00,3.478e+00,2.577e+00,4.503e+00,4.651e+00,3.619e+00,2.123e+00,3.384e+00,3.502e+00,2.765e+00,2.637e+00,3.603e+00,3.792e+00,2.716e+00,4.942e+00,2.816e+00,4.140e+00,3.322e+00,3.123e+00,3.709e+00,3.829e+00,3.353e+00,2.131e+00,3.710e+00,3.549e+00,3.385e+00,2.575e+00,3.124e+00,3.908e+00,3.657e+00,2.868e+00,2.579e+00,3.206e+00,3.300e+00,3.751e+00,3.348e+00,4.087e+00,1.948e+00,2.805e+00,4.455e+00,4.251e+00,3.814e+00,2.290e+00,2.066e+00
2.351e-01,6.206e-01,4.985e-01,1.265e+00,1.018e+00,1.443e+00,2.000e+00,2.310e+00,2.152e+00,3.348e+00,2.850e+00,2.474e+00,3.683e+00,3.928e+00,3.774e+00,4.311e+00,4.615e+00,5.296e+00,5.369e+00,4.978e+00,5.325e+00,5.802e+00,6.291e+00,4.597e+00,5.254e+00,5.918e+00,4.403e+00,4.906e+00,5.287e+00,4.419e+00,4.954e+00,3.525e+00,5.168e+00,5.262e+00,4.766e+00,4.675e+00,4.050e+00,5.029e+00,5.047e+00,4.889e+00,4.078e+00,4.268e+00,5.665e+00,5.127e+00,4.761e+00,4.162e+00,4.244e+00,4.849e+00,3.774e+00,6.314e+00,4.854e+00,4.947e+00,3.607e+00,4.824e+00,3.759e+00,3.567e+00,3.710e+00,5.131e+00,5.052e+00,3.935e+00,6.051e+00,4.207e+00,5.542e+00,5.044e+00,4.669e+00,4.702e+00,4.438e+00,4.937e+00,3.117e+00,4.123e+00,4.118e+00,5.685e+00,3.465e+00,4.027e+00,5.515e+00,4.815e+00,4.396e+00,5.008e+00,5.167e+00,4.444e+00,5.505e+00,4.631e+00,4.830e+00,2.961e+00,3.826e+00,5.896e+00,5.080e+00,5.076e+00,2.855e+00,3.134e+00
1.730e-01,6.524e-01,4.137e-01,9.543e-01,9.587e-01,1.266e+00,1.610e+00,2.060e+00,2.280e+00,2.228e+00,2.338e+00,2.104e+00,3.017e+00,3.191e+00,4.487e+00,4.058e+00,4.146e+00,5.636e+00,4.283e+00,5.055e+00,5.286e+00,6.460e+00,6.316e+00,5.156e+00,5.742e+00,6.198e+00,4.678e+00,4.926e+00,5.667e+00,4.236e+00,5.400e+00,4.513e+00,5.220e+00,5.586e+00,4.605e+00,5.031e+00,4.114e+00,5.301e+00,5.642e+00,5.941e+00,4.418e+00,4.148e+00,5.931e+00,5.756e+00,4.541e+00,4.283e+00,3.916e+00,5.186e+00,4.322e+00,6.378e+00,5.384e+00,5.166e+00,3.009e+00,4.666e+00,4.577e+00,4.037e+00,4.228e+00,4.973e+00,4.895e+00,4.349e+00,6.751e+00,4.098e+00,6.155e+00,4.685e+00,4.928e+00,4.937e+00,4.984e+00,5.089e+00,3.625e+00,4.702e+00,4.703e+00,5.641e+00,3.946e+00,4.509e+00,5.150e+00,4.685e+00,4.500e+00,4.362e+00,5.064e+00,4.284e+00,5.201e+00,4.824e+00,5.410e+00,3.704e+00,3.877e+00,5.434e+00,5.072e+00,5.124e+00,3.930e+00,3.164e+00
1.916e-01,7.655e-01,4.645e-01,1.142e+00,1.415e+00,1.409e+00,1.567e+00,2.239e+00,2.438e+00,2.604e+00,2.136e+00,2.211e+00,2.951e+00,2.043e+00,3.976e+00,3.187e+00,3.733e+00,5.253e+00,3.790e+00,4.659e+00,5.425e+00,6.261e+00,5.448e+00,4.365e+00,4.778e+00,5.245e+00,4.885e+00,4.751e+00,4.615e+00,4.728e+00,5.156e+00,4.488e+00,4.651e+00,5.269e+00,3.831e+00,5.183e+00,3.814e+00,5.394e+00,5.414e+00,4.910e+00,4.844e+00,3.743e+00,5.332e+00,3.985e+00,4.526e+00,4.543e+00,4.661e+00,5.750e+00,4.732e+00,5.046e+00,4.739e+00,4.528e+00,3.316e+00,4.459e+00,4.726e+00,4.250e+00,3.834e+00,4.548e+00,4.248e+00,4.642e+00,5.917e+00,3.480e+00,5.269e+00,4.891e+00,4.762e+00,3.958e+00,4.486e+00,4.441e+00,3.523e+00,4.360e+00,4.940e+00,4.981e+00,4.371e+00,4.228e+00,5.189e+00,3.897e+00,4.034e+00,4.783e+00,5.461e+00,4.112e+00,4.279e+00,4.942e+00,4.904e+00,3.639e+00,3.740e+00,4.661e+00,4.335e+00,5.532e+00,3.753e+00,2.020e+00
3.009e-01,8.114e-01,6.659e-01,9.293e-01,1.160e+00,1.491e+00,1.462e+00,2.420e+00,2.283e+00,1.803e+00,2.172e+00,1.857e+00,2.362e+00,2.047e+00,3.120e+00,2.827e+00,3.331e+00,5.058e+00,3.803e+00,5.185e+00,5.412e+00,5.800e+00,5.370e+00,4.137e+00,5.292e+00,5.506e+00,5.249e+00,4.695e+00,5.245e+00,4.404e+00,5.913e+00,3.634e+00,4.294e+00,5.662e+00,3.499e+00,4.977e+00,3.993e+00,5.598e+00,5.976e+00,5.329e+00,4.984e+00,4.497e+00,5.166e+00,4.239e+00,3.522e+00,4.394e+00,4.409e+00,5.148e+00,5.272e+00,5.441e+00,4.246e+00,5.246e+00,3.498e+00,5.248e+00,4.876e+00,4.118e+00,3.967e+00,4.156e+00,4.023e+00,5.199e+00,5.118e+00,4.426e+00,5.466e+00,4.940e+00,4.570e+00,3.646e+00,4.836e+00,4.854e+00,3.215e+00,3.870e+00,4.927e+00,5.127e+00,4.277e+00,4.316e+00,4.556e+00,4.443e+00,4.003e+00,3.907e+00,5.141e+00,4.020e+00,5.132e+00,4.907e+00,5.096e+00,3.350e+00,4.008e+00,5.175e+00,3.616e+00,4.940e+00,3.838e+00,2.801e+00
5.778e-02,2.844e-01,1.643e-01,6.264e-01,8.575e-01,8.556e-01,1.262e+00,1.680e+00,1.754e+00,2.248e+00,2.314e+00,1.541e+00,2.441e+00,1.984e+00,3.544e+00,3.032e+00,3.080e+00,4.909e+00,3.902e+00,5.172e+00,5.432e+00,5.617e+00,5.997e+00,4.411e+00,4.526e+00,5.941e+00,5.415e+00,5.093e+00,5.618e+00,4.187e+00,4.487e+00,4.553e+00,5.326e+00,4.914e+00,4.851e+00,4.985e+00,3.973e+00,5.187e+00,5.420e+00,4.156e+00,4.736e+00,4.129e+00,5.502e+00,4.406e+00,4.418e+00,5.377e+00,5.081e+00,5.429e+00,5.392e+00,5.231e+00,5.229e+00,4.612e+00,3.663e+00,4.880e+00,5.212e+00,4.398e+00,4.552e+00,5.640e+00,4.858e+00,4.250e+00,6.319e+00,3.777e+00,5.055e+00,4.273e+00,4.113e+00,3.803e+00,4.633e+00,4.994e+00,3.762e+00,5.201e+00,5.329e+00,5.117e+00,4.766e+00,4.404e+00,4.924e+00,4.160e+00,3.881e+00,4.451e+00,4.793e+00,4.250e+00,4.968e+00,5.570e+00,5.266e+00,4.230e+00,4.233e+00,6.157e+00,4.976e+00,5.542e+00,4.206e+00,2.918e+00
6.583e-02,4.180e-01,2.092e-01,6.402e-01,1.005e+00,9.310e-01,1.339e+00,2.089e+00,2.465e+00,2.799e+00,2.540e+00,2.289e+00,3.318e+00,2.682e+00,4.226e+00,3.290e+00,3.881e+00,4.257e+00,3.058e+00,4.057e+00,5.343e+00,6.004e+00,5.520e+00,4.284e+00,4.509e+00,6.221e+00,4.372e+00,3.937e+00,5.585e+00,4.437e+00,4.674e+00,4.723e+00,4.756e+00,5.507e+00,4.395e+00,5.711e+00,4.028e+00,5.579e+00,5.325e+00,5.113e+00,3.860e+00,4.187e+00,5.270e+00,5.254e+00,4.022e+00,5.195e+00,4.499e+00,5.261e+00,4.268e+00,5.110e+00,5.315e+00,5.510e+00,4.345e+00,4.168e+00,4.525e+00,3.989e+00,3.754e+00,4.422e+00,4.540e+00,3.985e+00,6.130e+00,4.170e+00,5.571e+00,5.434e+00,4.681e+00,4.505e+00,4.104e+00,4.741e+00,3.976e+00,4.589e+00,4.613e+00,4.839e+00,3.824e+00,3.821e+00,4.880e+00,4.116e+00,4.319e+00,5.199e+00,4.838e+00,4.123e+00,4.800e+00,4.952e+00,5.470e+00,3.580e+00,3.591e+00,5.415e+00,4.958e+00,4.059e+00,4.520e+00,2.739e+00
1.041e-01,5.054e-01,3.012e-01,8.446e-01,1.076e+00,1.302e+00,1.912e+00,2.138e+00,2.483e+00,2.674e+00,2.681e+00,1.930e+00,2.883e+00,2.553e+00,3.706e+00,3.022e+00,3.042e+00,4.426e+00,3.834e+00,4.144e+00,5.199e+00,6.216e+00,6.617e+00,4.954e+00,4.380e+00,6.565e+00,5.150e+00,4.827e+00,6.042e+00,4.846e+00,4.851e+00,4.442e+00,5.708e+00,5.554e+00,5.967e+00,5.931e+00,4.082e+00,6.207e+00,6.380e+00,4.874e+00,5.302e+00,5.167e+00,5.404e+00,5.147e+00,3.928e+00,6.244e+00,5.896e+00,5.693e+00,4.929e+00,6.009e+00,6.321e+00,5.900e+00,5.028e+00,4.734e+00,5.409e+00,4.771e+00,4.844e+00,5.579e+00,5.495e+00,5.121e+00,6.754e+00,5.109e+00,5.223e+00,5.473e+00,5.277e+00,4.864e+00,4.651e+00,5.239e+00,4.126e+00,5.428e+00,5.346e+00,5.534e+00,4.498e+00,5.034e+00,5.685e+00,4.514e+00,4.637e+00,5.561e+00,4.818e+00,5.088e+00,5.388e+00,5.795e+00,5.641e+00,4.989e+00,5.400e+00,5.829e+00,5.906e+00,5.942e+00,4.553e+00,3.836e+00
2.915e-01,7.092e-01,6.447e-01,1.365e+00,1.479e+00,1.640e+00,1.230e+00,2.172e+00,1.930e+00,2.386e+00,2.256e+00,2.337e+00,2.910e+00,1.773e+00,3.081e+00,3.144e+00,3.081e+00,4.397e+00,3.772e+00,3.407e+00,4.057e+00,4.755e+00,5.433e+00,4.659e+00,4.742e+00,5.212e+00,5.057e+00,4.610e+00,4.334e+00,4.282e+00,5.284e+00,4.507e+00,4.464e+00,5.359e+00,4.124e+00,5.063e+00,3.849e+00,5.688e+00,5.887e+00,4.927e+00,4.780e+00,5.050e+00,4.729e+00,4.326e+00,3.707e+00,4.665e+00,4.925e+00,4.816e+00,4.175e+00,4.942e+00,4.978e+00,4.938e+00,4.036e+00,5.798e+00,5.120e+00,4.375e+00,4.294e+00,4.527e+00,4.072e+00,4.841e+00,6.350e+00,3.836e+00,5.518e+00,5.277e+00,3.920e+00,3.604e+00,4.501e+00,3.958e+00,3.465e+00,4.482e+00,4.511e+00,5.494e+00,4.744e+00,4.353e+00,4.722e+00,4.932e+00,4.567e+00,4.168e+00,5.167e+00,4.541e+00,4.431e+00,4.718e+00,5.668e+00,3.648e+00,4.490e+00,4.967e+00,4.305e+00,5.160e+00,3.967e+00,3.626e+00
2.909e-02,1.212e-01,1.805e-01,6.388e-01,6.552e-01,1.110e+00,1.090e+00,2.319e+00,2.140e+00,2.396e+00,2.705e+00,1.944e+00,2.571e+00,2.169e+00,4.547e+00,3.157e+00,3.317e+00,5.479e+00,4.425e+00,4.156e+00,5.592e+00,6.542e+00,6.705e+00,5.798e+00,5.654e+00,8.012e+00,5.752e+00,5.574e+00,6.063e+00,5.320e+00,5.332e+00,6.084e+00,6.152e+00,7.164e+00,5.481e+00,6.025e+00,5.680e+00,7.582e+00,6.934e+00,5.227e+00,5.482e+00,6.109e+00,5.903e+00,6.355e+00,5.104e+00,6.102e+00,6.737e+00,5.792e+00,6.236e+00,6.849e+00,7.332e+00,5.653e+00,5.111e+00,6.749e+00,5.549e+00,5.463e+00,5.901e+00,6.390e+00,5.507e+00,5.078e+00,8.538e+00,6.100e+00,6.549e+00,6.429e+00,5.522e+00,4.508e+00,5.427e+00,5.807e+00,4.569e+00,6.745e+00,5.380e+00,6.663e+00,4.862e+00,4.598e+00,4.697e+00,6.270e+00,5.733e+00,5.304e+00,6.260e+00,5.823e+00,5.518e+00,6.425e+00,6.706e+00,4.993e+00,4.970e+00,7.283e+00,5.729e+00,5.244e+00,4.839e+00,3.807e+00
2.824e-02,2.114e-01,1.088e-01,7.894e-01,1.196e+00,1.035e+00,1.327e+00,1.870e+00,2.465e+00,2.713e+00,3.015e+00,1.841e+00,2.964e+00,2.110e+00,4.909e+00,3.256e+00,3.205e+00,5.397e+00,5.008e+00,5.526e+00,6.918e+00,8.028e+00,7.652e+00,6.801e+00,7.091e+00,8.791e+00,8.277e+00,7.335e+00,7.892e+00,6.060e+00,6.799e+00,6.766e+00,7.693e+00,7.019e+00,7.110e+00,8.414e+00,6.055e+00,8.785e+00,7.987e+00,6.903e+00,7.189e+00,7.093e+00,7.896e+00,7.196e+00,6.535e+00,7.457e+00,8.805e+00,7.913e+00,7.535e+00,8.246e+00,8.363e+00,7.443e+00,6.124e+00,7.509e+00,7.496e+00,7.336e+00,7.588e+00,8.518e+00,7.398e+00,6.291e+00,9.755e+00,8.044e+00,7.712e+00,7.084e+00,6.245e+00,6.308e+00,6.626e+00,7.797e+00,5.725e+00,8.418e+00,7.415e+00,8.003e+00,6.937e+00,6.241e+00,6.665e+00,7.017e+00,7.178e+00,7.660e+00,7.075e+00,7.553e+00,7.461e+00,8.930e+00,7.770e+00,8.420e+00,6.814e+00,9.713e+00,7.537e+00,7.770e+00,6.564e+00,5.757e+00
3.920e-01,9.699e-01,7.575e-01,1.544e+00,1.073e+00,1.583e+00,2.056e+00,2.588e+00,2.868e+00,3.976e+00,3.387e+00,2.830e+00,4.008e+00,3.769e+00,4.469e+00,4.401e+00,4.558e+00,6.661e+00,6.274e+00,6.181e+00,6.612e+00,7.361e+00,8.286e+00,6.254e+00,6.320e+00,8.756e+00,8.458e+00,7.144e+00,7.336e+00,7.236e+00,7.319e+00,5.317e+00,7.344e+00,8.069e+00,7.320e+00,8.212e+00,6.567e+00,8.817e+00,8.696e+00,6.418e+00,6.314e+00,7.427e+00,7.892e+00,7.904e+00,5.900e+00,8.243e+00,8.913e+00,7.953e+00,6.879e+00,7.859e+00,8.542e+00,7.620e+00,6.363e+00,7.755e+00,7.060e+00,6.831e+00,7.578e+00,7.717e+00,7.237e+00,7.038e+00,8.672e+00,7.443e+00,8.299e+00,7.906e+00,6.892e+00,6.376e+00,7.146e+00,6.197e+00,5.176e+00,7.186e+00,7.480e+00,8.170e+00,6.451e+00,6.821e+00,7.396e+00,7.551e+00,6.638e+00,7.707e+00,6.769e+00,7.449e+00,8.136e+00,7.730e+00,7.395e+00,5.538e+00,7.214e+00,9.118e+00,8.271e+00,6.856e+00,5.795e+00,6.096e+00
3.393e-01,1.088e+00,6.772e-01,1.112e+00,7.903e-01,1.331e+00,2.169e+00,2.134e+00,3.008e+00,3.274e+00,3.002e+00,2.089e+00,3.069e+00,3.587e+00,4.809e+00,3.946e+00,3.826e+00,5.599e+00,5.683e+00,5.866e+00,6.025e+00,6.598e+00,7.449e+00,6.176e+00,5.840e+00,8.215e+00,7.828e+00,6.809e+00,7.088e+00,7.093e+00,7.375e+00,6.737e+00,7.203e+00,7.411e+00,7.259e+00,7.705e+00,7.099e+00,9.038e+00,8.665e+00,7.604e+00,6.295e+00,7.636e+00,7.470e+00,7.733e+00,5.868e+00,8.149e+00,9.122e+00,7.935e+00,7.373e+00,7.967e+00,8.503e+00,6.827e+00,6.143e+00,6.934e+00,7.417e+00,7.053e+00,7.666e+00,8.322e+00,7.965e+00,6.327e+00,9.040e+00,8.076e+00,8.859e+00,7.572e+00,6.886e+00,5.952e+00,6.733e+00,6.623e+00,6.182e+00,7.476e+00,6.685e+00,8.126e+00,7.474e+00,5.963e+00,6.891e+00,7.673e+00,7.146e+00,7.828e+00,7.520e+00,6.874e+00,7.383e+00,7.403e+00,7.109e+00,7.007e+00,7.813e+00,8.755e+00,7.146e+00,5.829e+00,6.727e+00,5.590e+00
3.389e-01,9.156e-01,6.411e-01,9.342e-01,1.194e+00,1.199e+00,1.894e+00,2.188e+00,2.752e+00,2.613e+00,2.321e+00,2.121e+00,3.133e+00,2.764e+00,3.327e+00,2.730e+00,3.663e+00,4.495e+00,3.569e+00,5.630e+00,5.412e+00,5.574e+00,6.199e+00,4.560e+00,5.356e+00,6.271e+00,5.939e+00,6.450e+00,6.910e+00,4.575e+00,6.312e+00,6.085e+00,5.181e+00,6.192e+00,6.402e+00,7.285e+00,4.850e+00,7.889e+00,5.929e+00,6.005e+00,6.594e+00,6.450e+00,6.536e+00,6.306e+00,4.371e+00,7.234e+00,6.298e+00,6.504e+00,5.816e+00,5.442e+00,5.573e+00,6.719e+00,5.701e+00,4.833e+00,6.131e+00,5.941e+00,5.968e+00,6.156e+00,6.117e+00,5.571e+00,7.246e+00,6.213e+00,7.185e+00,6.074e+00,4.814e+00,5.240e+00,6.059e+00,6.081e+00,5.131e+00,5.509e+00,5.757e+00,6.083e+00,5.979e+00,6.145e+00,6.206e+00,5.935e+00,5.967e+00,6.847e+00,6.019e+00,5.365e+00,6.869e+00,6.431e+00,5.753e+00,5.943e+00,6.119e+00,6.490e+00,5.250e+00,6.327e+00,5.916e+00,4.142e+00
3.150e-01,1.039e+00,6.045e-01,1.479e+00,1.354e+00,1.338e+00,1.935e+00,2.082e+00,2.864e+00,3.909e+00,2.858e+00,2.502e+00,3.640e+00,2.808e+00,4.599e+00,4.022e+00,4.763e+00,5.330e+00,5.266e+00,6.016e+00,6.561e+00,7.256e+00,7.528e+00,6.562e+00,6.302e+00,8.149e+00,7.649e+00,7.303e+00,7.110e+00,6.830e+00,6.966e+00,7.745e+00,7.352e+00,7.028e+00,7.948e+00,9.221e+00,6.815e+00,9.195e+00,8.482e+00,7.984e+00,6.742e+00,7.438e+00,8.271e+00,7.393e+00,7.033e+00,8.445e+00,8.251e+00,8.498e+00,7.185e+00,7.023e+00,7.685e+00,7.345e+00,7.233e+00,6.524e+00,7.137e+00,8.029e+00,6.954e+00,8.198e+00,8.708e+00,6.472e+00,9.447e+00,7.472e+00,8.291e+00,8.148e+00,7.185e+00,5.405e+00,6.941e+00,6.760e+00,6.876e+00,8.193e+00,6.942e+00,8.866e+00,6.765e+00,6.570e+00,7.504e+00,6.982e+00,7.278e+00,8.813e+00,8.330e+00,7.258e+00,6.796e+00,8.411e+00,7.112e+00,7.234e+00,7.562e+00,8.078e+00,8.057e+00,7.286e+00,7.483e+00,5.727e+00
2.846e-02,3.608e-01,1.157e-01,2.014e-01,4.617e-01,5.627e-01,1.142e+00,1.425e+00,1.933e+00,1.352e+00,1.953e+00,1.277e+00,2.111e+00,2.792e+00,4.768e+00,3.114e+00,2.607e+00,5.063e+00,4.164e+00,5.346e+00,5.538e+00,6.391e+00,7.207e+00,6.167e+00,6.320e+00,7.671e+00,7.416e+00,7.029e+00,7.693e+00,6.810e+00,6.961e+00,6.939e+00,7.723e+00,8.674e+00,7.893e+00,8.502e+00,8.004e+00,9.042e+00,9.202e+00,7.696e+00,7.076e+00,7.997e+00,8.664e+00,7.607e+00,5.940e+00,8.082e+00,7.873e+00,8.506e+00,8.063e+00,8.120e+00,8.735e+00,7.043e+00,6.717e+00,7.460e+00,7.409e+00,7.664e+00,7.648e+00,8.171e+00,7.628e+00,6.493e+00,8.953e+00,7.821e+00,8.123e+00,7.527e+00,6.876e+00,6.142e+00,8.124e+00,7.495e+00,6.401e+00,7.535e+00,7.207e+00,7.804e+00,6.928e+00,6.989e+00,6.737e+00,7.860e+00,7.735e+00,7.094e+00,7.498e+00,7.333e+00,6.874e+00,8.547e+00,7.104e+00,7.316e+00,7.764e+00,8.766e+00,7.221e+00,6.884e+00,7.994e+00,5.887e+00
6.333e-02,2.495e-01,1.813e-01,4.066e-01,7.025e-01,8.558e-01,1.378e+00,2.208e+00,2.506e+00,2.076e+00,2.588e+00,1.996e+00,3.028e+00,3.097e+00,5.205e+00,3.532e+00,3.357e+00,5.431e+00,4.547e+00,4.993e+00,6.252e+00,6.888e+00,7.384e+00,5.832e+00,6.594e+00,8.379e+00,6.816e+00,6.965e+00,8.559e+00,6.584e+00,8.051e+00,8.116e+00,8.945e+00,1.045e+01,8.272e+00,8.946e+00,7.857e+00,1.042e+01,8.962e+00,8.507e+00,8.054e+00,8.824e+00,9.246e+00,9.358e+00,6.786e+00,8.654e+00,8.671e+00,8.784e+00,8.050e+00,8.647e+00,9.541e+00,9.086e+00,7.806e+00,8.791e+00,7.251e+00,7.446e+00,8.040e+00,8.930e+00,8.846e+00,7.310e+00,1.052e+01,8.543e+00,8.274e+00,9.014e+00,7.970e+00,6.787e+00,8.431e+00,8.055e+00,7.531e+00,8.060e+00,7.438e+00,8.987e+00,6.896e+00,8.311e+00,7.901e+00,8.244e+00,8.794e+00,7.991e+00,8.558e+00,8.746e+00,8.406e+00,8.242e+00,8.384e+00,7.031e+00,8.274e+00,9.984e+00,8.234e+00,7.816e+00,8.018e+00,6.926e+00
3.555e-01,1.018e+00,7.280e-01,1.546e+00,1.405e+00,1.763e+00,2.244e+00,3.021e+00,3.523e+00,3.591e+00,3.112e+00,3.098e+00,4.237e+00,3.552e+00,4.644e+00,3.831e+00,4.677e+00,6.136e+00,4.929e+00,5.991e+00,6.098e+00,6.973e+00,7.876e+00,6.260e+00,6.478e+00,7.876e+00,6.859e+00,7.852e+00,8.163e+00,7.000e+00,7.965e+00,8.120e+00,8.357e+00,9.328e+00,8.834e+00,9.088e+00,7.715e+00,1.024e+01,9.191e+00,8.402e+00,8.175e+00,9.086e+00,9.617e+00,8.923e+00,7.068e+00,9.998e+00,8.725e+00,8.800e+00,7.855e+00,8.473e+00,9.756e+00,8.785e+00,7.783e+00,7.608e+00,7.197e+00,7.454e+00,8.466e+00,8.715e+00,8.909e+00,7.847e+00,1.052e+01,8.064e+00,9.284e+00,8.578e+00,8.565e+00,6.469e+00,8.659e+00,7.044e+00,6.758e+00,7.931e+00,8.807e+00,9.821e+00,7.830e+00,8.369e+00,9.846e+00,8.597e+00,8.642e+00,8.246e+00,8.417e+00,8.865e+00,8.741e+00,8.958e+00,8.665e+00,7.033e+00,8.680e+00,9.546e+00,8.698e+00,9.640e+00,7.664e+00,5.879e+00
1.966e-01,7.427e-01,4.338e-01,8.829e-01,1.157e+00,1.208e+00,1.772e+00,1.947e+00,2.528e+00,2.322e+00,2.136e+00,1.732e+00,2.523e+00,2.214e+00,4.002e+00,2.624e+00,2.635e+00,4.438e+00,4.128e+00,4.313e+00,5.055e+00,6.182e+00,6.379e+00,5.230e+00,5.037e+00,6.592e+00,7.019e+00,6.184e+00,5.595e+00,6.263e+00,6.756e+00,6.330e+00,6.753e+00,7.615e+00,7.456e+00,7.802e+00,6.520e+00,9.214e+00,7.256e+00,7.670e+00,7.576e+00,7.599e+00,7.641e+00,7.524e+00,6.282e+00,7.931e+00,8.725e+00,7.351e+00,6.989e+00,7.053e+00,8.295e+00,6.405e+00,6.529e+00,6.747e+00,6.887e+00,7.103e+00,7.710e+00,8.161e+00,6.899e+00,6.409e+00,9.379e+00,7.471e+00,7.257e+00,7.707e+00,7.424e+00,5.233e+00,6.558e+00,6.535e+00,7.087e+00,7.135e+00,6.501e+00,8.421e+00,7.011e+00,6.659e+00,7.844e+00,7.631e+00,6.983e+00,7.830e+00,6.993e+00,8.182e+00,7.036e+00,6.740e+00,7.366e+00,7.670e+00,8.138e+00,7.177e+00,7.502e+00,7.432e+00,6.247e+00,4.921e+00
3.298e-01,1.017e+00,6.554e-01,1.552e+00,1.171e+00,1.541e+00,2.275e+00,2.500e+00,2.387e+00,3.536e+00,2.790e+00,2.562e+00,3.850e+00,3.836e+00,3.595e+00,4.399e+00,4.211e+00,5.558e+00,5.025e+00,5.186e+00,5.051e+00,6.222e+00,8.018e+00,5.288e+00,6.178e+00,6.618e+00,6.357e+00,7.340e+00,7.356e+00,6.709e+00,7.297e+00,7.047e+00,8.585e+00,9.229e+00,8.654e+00,9.072e+00,7.596e+00,9.675e+00,9.429e+00,7.720e+00,8.495e+00,8.894e+00,9.238e+00,8.889e+00,6.909e+00,9.341e+00,9.046e+00,9.259e+00,7.337e+00,9.215e+00,9.658e+00,7.797e+00,7.030e+00,7.718e+00,7.455e+00,7.209e+00,8.594e+00,8.483e+00,8.955e+00,8.155e+00,9.583e+00,7.654e+00,8.130e+00,8.698e+00,7.900e+00,7.478e+00,8.596e+00,6.906e+00,6.804e+00,7.889e+00,8.730e+00,8.913e+00,8.361e+00,8.338e+00,8.733e+00,7.275e+00,7.892e+00,8.506e+00,8.792e+00,8.593e+00,8.358e+00,8.221e+00,7.649e+00,7.131e+00,8.957e+00,8.687e+00,8.576e+00,8.978e+00,6.796e+00,7.300e+00
1.676e-02,1.927e-01,1.346e-01,4.303e-01,5.676e-01,7.667e-01,9.283e-01,1.528e+00,1.588e+00,1.852e+00,1.673e+00,1.536e+00,1.982e+00,1.805e+00,3.982e+00,2.425e+00,2.891e+00,5.164e+00,3.918e+00,4.419e+00,5.132e+00,6.531e+00,6.700e+00,6.229e+00,5.622e+00,7.759e+00,6.804e+00,6.904e+00,6.525e+00,6.328e+00,6.467e+00,8.174e+00,7.789e+00,1.005e+01,9.558e+00,1.065e+01,9.199e+00,1.218e+01,8.813e+00,7.998e+00,9.646e+00,1.006e+01,9.079e+00,9.683e+00,8.202e+00,1.015e+01,1.076e+01,1.005e+01,9.476e+00,8.832e+00,1.112e+01,8.348e+00,8.284e+00,8.447e+00,8.159e+00,8.711e+00,1.108e+01,9.351e+00,1.001e+01,8.237e+00,1.111e+01,9.100e+00,9.125e+00,9.298e+00,9.198e+00,6.587e+00,9.394e+00,7.217e+00,8.156e+00,9.833e+00,8.748e+00,9.899e+00,8.833e+00,7.547e+00,8.895e+00,8.521e+00,8.987e+00,8.966e+00,9.202e+00,9.117e+00,8.475e+00,9.878e+00,8.362e+00,9.037e+00,9.225e+00,9.980e+00,9.018e+00,9.936e+00,6.621e+00,6.473e+00
1.240e-01,4.487e-01,3.662e-01,7.727e-01,1.085e+00,1.326e+00,1.420e+00,1.808e+00,1.845e+00,2.631e+00,3.002e+00,1.797e+00,2.582e+00,2.258e+00,2.982e+00,3.737e+00,4.246e+00,4.406e+00,4.028e+00,4.780e+00,5.750e+00,6.404e+00,6.855e+00,5.841e+00,6.210e+00,8.267e+00,6.490e+00,6.051e+00,7.118e+00,5.745e+00,7.084e+00,6.556e+00,7.844e+00,8.659e+00,8.323e+00,1.038e+01,8.700e+00,1.057e+01,9.202e+00,9.036e+00,9.209e+00,1.074e+01,9.823e+00,9.538e+00,7.524e+00,9.203e+00,1.008e+01,9.568e+00,9.319e+00,9.218e+00,9.779e+00,7.908e+00,7.919e+00,9.100e+00,9.099e+00,8.434e+00,8.853e+00,1.004e+01,9.491e+00,7.379e+00,1.012e+01,8.299e+00,9.527e+00,9.497e+00,8.294e+00,6.124e+00,7.872e+00,7.755e+00,8.241e+00,9.469e+00,8.443e+00,9.973e+00,9.418e+00,7.253e+00,8.617e+00,8.246e+00,8.209e+00,8.237e+00,9.778e+00,8.568e+00,8.341e+00,9.380e+00,8.956e+00,9.242e+00,1.014e+01,9.385e+00,8.715e+00,9.111e+00,6.575e+00,7.166e+00
5.870e-02,2.829e-01,2.250e-01,3.013e-01,7.457e-01,1.061e+00,1.742e+00,2.286e+00,2.599e+00,2.400e+00,3.168e+00,1.923e+00,2.944e+00,3.155e+00,4.333e+00,3.298e+00,3.864e+00,5.623e+00,4.506e+00,5.310e+00,6.161e+00,7.394e+00,8.068e+00,5.984e+00,6.671e+00,8.045e+00,6.962e+00,6.501e+00,7.945e+00,6.453e+00,7.495e+00,6.320e+00,7.407e+00,8.079e+00,7.771e+00,8.675e+00,7.064e+00,9.411e+00,8.817e+00,8.972e+00,8.551e+00,9.383e+00,7.867e+00,9.980e+00,6.500e+00,8.990e+00,9.159e+00,8.494e+00,7.850e+00,9.355e+00,9.295e+00,8.428e+00,7.261e+00,8.677e+00,7.544e+00,6.420e+00,7.877e+00,9.063e+00,8.728e+00,7.859e+00,1.003e+01,8.311e+00,9.454e+00,8.184e+00,8.151e+00,6.250e+00,7.547e+00,7.943e+00,6.808e+00,8.565e+00,8.337e+00,9.047e+00,7.970e+00,8.494e+00,7.623e+00,7.228e+00,8.716e+00,8.768e+00,8.785e+00,8.135e+00,8.640e+00,7.311e+00,7.946e+00,7.823e+00,9.087e+00,8.725e+00,7.748e+00,8.687e+00,7.017e+00,6.647e+00
1.865e-02,2.863e-01,1.565e-01,2.666e-01,8.012e-01,9.376e-01,1.519e+00,2.149e+00,2.040e+00,1.808e+00,2.516e+00,1.562e+00,2.430e+00,2.585e+00,4.454e+00,3.202e+00,2.999e+00,5.283e+00,4.709e+00,5.200e+00,5.852e+00,6.887e+00,7.841e+00,6.008e+00,6.530e+00,7.890e+00,7.914e+00,6.702e+00,7.569e+00,7.307e+00,7.667e+00,6.697e+00,8.543e+00,9.159e+00,8.303e+00,9.796e+00,9.277e+00,1.065e+01,1.117e+01,1.038e+01,9.540e+00,1.092e+01,1.090e+01,1.094e+01,8.561e+00,1.053e+01,1.051e+01,1.096e+01,1.001e+01,1.050e+01,1.158e+01,9.104e+00,9.084e+00,1.118e+01,8.766e+00,8.749e+00,9.688e+00,1.115e+01,1.063e+01,9.497e+00,1.116e+01,9.268e+00,9.931e+00,9.677e+00,9.937e+00,6.309e+00,9.300e+00,8.768e+00,8.661e+00,9.745e+00,9.638e+00,1.067e+01,1.047e+01,9.314e+00,9.202e+00,8.976e+00,1.051e+01,1.004e+01,1.011e+01,9.673e+00,9.504e+00,8.945e+00,9.592e+00,9.409e+00,1.081e+01,1.070e+01,9.905e+00,1.020e+01,9.129e+00,8.014e+00
2.631e-03,2.324e-01,8.827e-02,2.922e-01,4.161e-01,7.042e-01,1.153e+00,9.945e-01,2.003e+00,1.952e+00,2.672e+00,1.313e+00,2.138e+00,2.678e+00,3.804e+00,3.402e+00,3.078e+00,4.785e+00,3.980e+00,4.230e+00,5.646e+00,6.100e+00,6.432e+00,5.156e+00,5.094e+00,7.713e+00,6.757e+00,5.792e+00,6.860e+00,6.323e+00,6.874e+00,6.296e+00,7.956e+00,8.526e+00,7.812e+00,8.866e+00,7.958e+00,9.550e+00,9.078e+00,8.425e+00,8.339e+00,1.008e+01,9.520e+00,9.764e+00,7.791e+00,8.990e+00,1.065e+01,9.313e+00,9.110e+00,9.269e+00,1.148e+01,7.621e+00,7.349e+00,9.570e+00,8.090e+00,7.993e+00,8.863e+00,9.751e+00,8.398e+00,7.465e+00,1.010e+01,9.001e+00,9.691e+00,8.687e+00,7.923e+00,6.889e+00,8.582e+00,7.390e+00,7.292e+00,8.652e+00,9.283e+00,8.866e+00,9.274e+00,7.837e+00,8.945e+00,9.206e+00,9.098e+00,7.995e+00,8.175e+00,9.823e+00,8.645e+00,9.119e+00,8.883e+00,8.696e+00,9.622e+00,1.106e+01,9.231e+00,7.999e+00,6.844e+00,6.713e+00
2.924e-01,9.728e-01,6.711e-01,9.669e-01,1.606e+00,1.706e+00,2.331e+00,2.656e+00,3.306e+00,3.316e+00,3.474e+00,2.462e+00,3.526e+00,3.016e+00,4.164e+00,3.396e+00,4.030e+00,5.049e+00,4.568e+00,4.563e+00,5.844e+00,6.690e+00,7.072e+00,5.391e+00,5.585e+00,7.233e+00,6.296e+00,6.294e+00,6.795e+00,7.032e+00,7.377e+00,7.570e+00,7.216e+00,9.003e+00,9.415e+00,1.070e+01,8.795e+00,1.180e+01,1.064e+01,1.128e+01,1.103e+01,1.270e+01,1.076e+01,1.170e+01,8.678e+00,1.248e+01,1.158e+01,1.203e+01,1.115e+01,1.023e+01,1.262e+01,1.008e+01,1.019e+01,1.127e+01,9.585e+00,1.054e+01,9.593e+00,1.125e+01,1.090e+01,9.993e+00,1.253e+01,1.181e+01,1.042e+01,1.184e+01,1.006e+01,7.961e+00,1.069e+01,9.728e+00,1.024e+01,1.012e+01,1.010e+01,1.138e+01,1.095e+01,1.090e+01,1.005e+01,1.043e+01,1.098e+01,1.098e+01,1.086e+01,1.076e+01,9.698e+00,1.003e+01,1.119e+01,1.077e+01,1.251e+01,1.009e+01,1.094e+01,1.109e+01,1.047e+01,7.677e+00
3.465e-01,8.370e-01,7.057e-01,1.111e+00,1.320e+00,1.551e+00,2.079e+00,2.884e+00,3.134e+00,3.605e+00,3.478e+00,2.980e+00,4.234e+00,3.991e+00,5.366e+00,4.392e+00,4.920e+00,7.349e+00,6.304e+00,6.815e+00,7.322e+00,7.991e+00,8.552e+00,6.241e+00,6.710e+00,9.512e+00,8.808e+00,7.300e+00,7.587e+00,7.729e+00,8.313e+00,7.680e+00,8.839e+00,9.767e+00,9.122e+00,1.001e+01,8.215e+00,1.165e+01,1.069e+01,9.551e+00,9.330e+00,1.058e+01,1.052e+01,1.181e+01,9.343e+00,1.151e+01,1.151e+01,1.144e+01,9.924e+00,1.069e+01,1.275e+01,1.082e+01,9.197e+00,1.074e+01,8.999e+00,9.029e+00,1.036e+01,1.030e+01,1.131e+01,9.605e+00,1.245e+01,1.030e+01,1.198e+01,9.934e+00,1.014e+01,9.038e+00,1.120e+01,9.434e+00,9.184e+00,1.031e+01,9.495e+00,1.180e+01,9.534e+00,1.024e+01,1.021e+01,9.998e+00,1.059e+01,1.009e+01,9.648e+00,1.082e+01,1.118e+01,9.195e+00,9.473e+00,8.721e+00,1.004e+01,1.166e+01,1.146e+01,1.066e+01,9.200e+00,7.681e+00
1.032e-02,8.863e-02,1.087e-01,5.887e-01,1.215e+00,1.033e+00,1.160e+00,2.370e+00,2.282e+00,2.926e+00,3.516e+00,2.317e+00,3.649e+00,2.972e+00,5.206e+00,3.965e+00,3.483e+00,5.390e+00,4.898e+00,4.205e+00,5.920e+00,7.202e+00,7.686e+00,5.655e+00,6.797e+00,8.340e+00,7.474e+00,7.320e+00,7.818e+00,7.022e+00,7.417e+00,7.854e+00,8.603e+00,9.530e+00,7.974e+00,9.394e+00,8.764e+00,1.041e+01,1.048e+01,9.490e+00,9.211e+00,1.133e+01,1.175e+01,1.183e+01,9.757e+00,1.175e+01,1.140e+01,1.183e+01,9.990e+00,1.226e+01,1.339e+01,1.037e+01,8.948e+00,1.147e+01,9.132e+00,1.020e+01,1.027e+01,1.106e+01,1.137e+01,8.389e+00,1.269e+01,1.119e+01,1.041e+01,1.160e+01,8.682e+00,9.426e+00,1.051e+01,1.006e+01,9.704e+00,1.020e+01,9.581e+00,1.070e+01,1.032e+01,1.050e+01,9.190e+00,1.082e+01,1.130e+01,1.116e+01,1.025e+01,1.098e+01,1.022e+01,1.025e+01,1.064e+01,9.485e+00,1.038e+01,1.141e+01,1.157e+01,1.025e+01,1.013e+01,8.334e+00
6.014e-02,4.152e-01,2.603e-01,8.514e-01,1.416e+00,1.444e+00,1.929e+00,3.037e+00,2.904e+00,3.557e+00,3.624e+00,2.633e+00,3.857e+00,2.735e+00,4.777e+00,3.839e+00,4.571e+00,5.659e+00,4.386e+00,5.237e+00,6.340e+00,7.591e+00,8.630e+00,6.518e+00,7.311e+00,9.363e+00,7.795e+00,7.978e+00,8.849e+00,7.396e+00,8.066e+00,8.939e+00,9.949e+00,1.090e+01,1.030e+01,1.213e+01,1.033e+01,1.317e+01,1.184e+01,1.163e+01,1.312e+01,1.412e+01,1.347e+01,1.404e+01,1.162e+01,1.479e+01,1.468e+01,1.484e+01,1.316e+01,1.271e+01,1.518e+01,1.239e+01,1.194e+01,1.379e+01,1.171e+01,1.229e+01,1.240e+01,1.302e+01,1.353e+01,1.162e+01,1.563e+01,1.188e+01,1.220e+01,1.303e+01,1.150e+01,1.101e+01,1.250e+01,1.163e+01,1.241e+01,1.382e+01,1.238e+01,1.312e+01,1.290e+01,1.258e+01,1.258e+01,1.199e+01,1.203e+01,1.197e+01,1.273e+01,1.338e+01,1.175e+01,1.246e+01,1.285e+01,1.304e+01,1.380e+01,1.268e+01,1.277e+01,1.294e+01,1.182e+01,9.792e+00
2.207e-01,7.442e-01,4.581e-01,7.141e-01,6.900e-01,8.530e-01,1.245e+00,1.998e+00,2.249e+00,2.076e+00,1.544e+00,2.039e+00,2.673e+00,2.443e+00,4.124e+00,2.987e+00,3.327e+00,4.793e+00,2.895e+00,4.533e+00,4.845e+00,5.560e+00,7.020e+00,5.182e+00,5.589e+00,8.008e+00,6.953e+00,6.012e+00,6.616e+00,6.339e+00,6.933e+00,7.918e+00,8.075e+00,8.950e+00,8.110e+00,9.837e+00,8.114e+00,1.135e+01,1.028e+01,9.922e+00,9.359e+00,1.116e+01,1.038e+01,1.192e+01,7.744e+00,1.272e+01,1.081e+01,1.193e+01,9.412e+00,9.569e+00,1.294e+01,1.119e+01,9.593e+00,1.059e+01,9.846e+00,1.181e+01,1.078e+01,9.872e+00,1.050e+01,1.028e+01,1.323e+01,1.046e+01,1.146e+01,1.033e+01,9.960e+00,8.325e+00,1.129e+01,9.370e+00,1.100e+01,1.121e+01,1.012e+01,1.097e+01,1.009e+01,1.072e+01,9.338e+00,9.803e+00,9.829e+00,9.910e+00,1.037e+01,1.068e+01,9.007e+00,9.930e+00,1.083e+01,1.105e+01,1.063e+01,1.073e+01,9.971e+00,9.591e+00,1.106e+01,9.166e+00
4.084e-02,4.280e-01,2.026e-01,6.095e-01,8.853e-01,1.125e+00,1.586e+00,2.004e+00,2.122e+00,2.163e+00,2.709e+00,1.550e+00,2.427e+00,2.404e+00,3.981e+00,3.523e+00,3.404e+00,4.583e+00,3.956e+00,4.530e+00,5.501e+00,7.278e+00,6.893e+00,5.521e+00,5.939e+00,7.619e+00,6.785e+00,5.815e+00,7.122e+00,6.330e+00,7.128e+00,6.966e+00,8.569e+00,8.500e+00,8.729e+00,1.015e+01,8.586e+00,1.075e+01,9.721e+00,1.019e+01,9.819e+00,1.077e+01,1.097e+01,1.196e+01,9.549e+00,1.301e+01,1.152e+01,1.221e+01,1.082e+01,1.195e+01,1.354e+01,1.096e+01,9.490e+00,1.113e+01,1.073e+01,1.024e+01,1.010e+01,1.094e+01,1.189e+01,1.006e+01,1.244e+01,1.104e+01,1.226e+01,1.102e+01,1.084e+01,9.294e+00,1.132e+01,9.895e+00,1.184e+01,1.231e+01,1.110e+01,1.205e+01,1.088e+01,1.025e+01,1.064e+01,1.027e+01,1.024e+01,1.042e+01,1.132e+01,1.155e+01,1.132e+01,1.040e+01,1.041e+01,1.148e+01,1.160e+01,1.176e+01,1.104e+01,1.013e+01,1.033e+01,9.559e+00
1.094e-01,4.437e-01,2.433e-01,8.363e-01,8.344e-01,9.243e-01,1.299e+00,2.079e+00,2.374e+00,2.222e+00,1.998e+00,1.821e+00,2.621e+00,2.115e+00,4.399e+00,2.594e+00,2.496e+00,4.942e+00,4.127e+00,4.114e+00,5.051e+00,5.866e+00,6.402e+00,4.548e+00,5.362e+00,6.451e+00,6.413e+00,6.543e+00,6.593e+00,6.362e+00,6.316e+00,7.000e+00,7.982e+00,8.682e+00,7.573e+00,9.317e+00,8.862e+00,1.002e+01,1.026e+01,8.554e+00,9.274e+00,1.025e+01,1.162e+01,1.092e+01,9.610e+00,1.300e+01,1.237e+01,1.239e+01,1.034e+01,1.289e+01,1.400e+01,1.152e+01,9.520e+00,1.148e+01,8.924e+00,1.106e+01,1.108e+01,1.092e+01,1.223e+01,1.066e+01,1.238e+01,1.197e+01,1.162e+01,1.064e+01,1.077e+01,9.340e+00,1.157e+01,9.693e+00,9.914e+00,1.140e+01,1.150e+01,1.093e+01,1.021e+01,1.051e+01,1.122e+01,1.097e+01,1.113e+01,1.139e+01,1.145e+01,1.198e+01,1.056e+01,1.098e+01,1.070e+01,1.010e+01,1.068e+01,1.250e+01,1.032e+01,1.136e+01,1.037e+01,8.840e+00
2.152e-01,6.355e-01,4.348e-01,1.120e+00,1.320e+00,1.297e+00,2.059e+00,2.815e+00,2.897e+00,3.519e+00,3.023e+00,2.632e+00,3.940e+00,2.924e+00,4.063e+00,2.842e+00,3.703e+00,5.357e+00,4.826e+00,5.085e+00,5.731e+00,6.693e+00,7.575e+00,6.281e+00,6.783e+00,7.690e+00,7.259e+00,7.518e+00,8.172e+00,7.197e+00,8.435e+00,8.613e+00,9.073e+00,1.021e+01,9.622e+00,1.120e+01,9.659e+00,1.314e+01,1.094e+01,1.170e+01,1.269e+01,1.328e+01,1.205e+01,1.366e+01,1.080e+01,1.542e+01,1.537e+01,1.496e+01,1.312e+01,1.273e+01,1.575e+01,1.340e+01,1.240e+01,1.389e+01,1.158e+01,1.250e+01,1.399e+01,1.363e+01,1.319e+01,1.225e+01,1.618e+01,1.437e+01,1.315e+01,1.375e+01,1.231e+01,1.081e+01,1.279e+01,1.131e+01,1.304e+01,1.429e+01,1.299e+01,1.426e+01,1.359e+01,1.314e+01,1.309e+01,1.294e+01,1.230e+01,1.209e+01,1.304e+01,1.547e+01,1.334e+01,1.280e+01,1.437e+01,1.414e+01,1.406e+01,1.428e+01,1.322e+01,1.351e+01,1.246e+01,1.084e+01
1.732e-01,4.650e-01,3.706e-01,9.308e-01,1.366e+00,1.058e+00,8.355e-01,2.057e+00,1.659e+00,1.989e+00,1.861e+00,1.771e+00,2.437e+00,1.095e+00,3.515e+00,2.546e+00,2.459e+00,3.920e+00,3.656e+00,3.622e+00,4.542e+00,5.808e+00,5.757e+00,4.690e+00,5.476e+00,6.822e+00,6.567e+00,6.113e+00,5.638e+00,6.295e+00,6.619e+00,7.201e+00,8.022e+00,7.797e+00,6.629e+00,8.525e+00,7.672e+00,9.229e+00,1.018e+01,9.424e+00,9.493e+00,1.133e+01,1.045e+01,1.040e+01,9.916e+00,1.243e+01,1.225e+01,1.243e+01,1.186e+01,1.257e+01,1.382e+01,1.122e+01,1.038e+01,1.305e+01,1.100e+01,1.115e+01,1.068e+01,1.214e+01,1.177e+01,1.070e+01,1.289e+01,1.141e+01,1.130e+01,1.098e+01,1.034e+01,7.996e+00,1.094e+01,1.120e+01,1.186e+01,1.168e+01,1.086e+01,1.346e+01,1.115e+01,1.154e+01,1.005e+01,1.157e+01,1.124e+01,1.110e+01,1.183e+01,1.244e+01,1.049e+01,1.123e+01,1.091e+01,1.216e+01,1.098e+01,1.235e+01,1.113e+01,1.241e+01,1.203e+01,9.543e+00
3.823e-01,1.170e+00,7.323e-01,1.055e+00,1.436e+00,1.211e+00,1.999e+00,2.426e+00,2.681e+00,2.904e+00,2.117e+00,2.340e+00,3.286e+00,2.405e+00,3.882e+00,2.902e+00,3.240e+00,3.792e+00,4.171e+00,3.483e+00,4.864e+00,5.479e+00,6.062e+00,4.575e+00,4.781e+00,7.305e+00,6.015e+00,4.594e+00,5.843e+00,6.703e+00,6.547e+00,6.362e+00,7.517e+00,9.885e+00,8.515e+00,1.193e+01,9.051e+00,1.080e+01,1.099e+01,9.948e+00,9.901e+00,1.170e+01,1.098e+01,1.120e+01,8.001e+00,1.262e+01,1.313e+01,1.298e+01,1.197e+01,1.135e+01,1.380e+01,1.132e+01,1.290e+01,1.241e+01,1.120e+01,1.177e+01,1.165e+01,1.172e+01,1.190e+01,1.121e+01,1.289e+01,1.213e+01,1.135e+01,1.333e+01,1.117e+01,9.581e+00,1.185e+01,9.883e+00,1.265e+01,1.117e+01,9.880e+00,1.209e+01,1.156e+01,1.056e+01,1.030e+01,1.204e+01,1.052e+01,1.111e+01,1.178e+01,1.271e+01,1.090e+01,1.081e+01,1.148e+01,1.217e+01,1.327e+01,1.198e+01,1.224e+01,1.150e+01,1.228e+01,1.078e+01
3.653e-01,1.185e+00,7.083e-01,1.608e+00,1.679e+00,1.475e+00,1.564e+00,2.009e+00,2.617e+00,3.349e+00,2.889e+00,2.408e+00,3.504e+00,2.219e+00,3.295e+00,4.053e+00,4.358e+00,4.768e+00,3.842e+00,5.580e+00,5.806e+00,6.929e+00,7.489e+00,5.934e+00,6.598e+00,7.393e+00,7.363e+00,8.239e+00,8.108e+00,6.683e+00,8.895e+00,9.333e+00,8.672e+00,9.629e+00,9.304e+00,1.134e+01,9.164e+00,1.194e+01,1.188e+01,1.221e+01,1.237e+01,1.357e+01,1.257e+01,1.249e+01,1.081e+01,1.404e+01,1.408e+01,1.461e+01,1.472e+01,1.275e+01,1.579e+01,1.270e+01,1.231e+01,1.384e+01,1.358e+01,1.403e+01,1.319e+01,1.415e+01,1.432e+01,1.233e+01,1.637e+01,1.355e+01,1.311e+01,1.402e+01,1.264e+01,1.172e+01,1.312e+01,1.258e+01,1.444e+01,1.297e+01,1.309e+01,1.493e+01,1.417e+01,1.313e+01,1.397e+01,1.252e+01,1.220e+01,1.355e+01,1.328e+01,1.473e+01,1.347e+01,1.358e+01,1.452e+01,1.406e+01,1.462e+01,1.326e+01,1.382e+01,1.432e+01,1.438e+01,1.134e+01
3.827e-01,9.270e-01,7.581e-01,1.673e+00,1.616e+00,1.837e+00,1.855e+00,2.417e+00,2.591e+00,2.744e+00,2.714e+00,2.556e+00,3.611e+00,3.014e+00,3.088e+00,3.383e+00,3.663e+00,5.237e+00,4.639e+00,5.814e+00,5.214e+00,6.849e+00,6.928e+00,6.351e+00,6.325e+00,7.222e+00,6.971e+00,7.521e+00,7.255e+00,6.992e+00,8.631e+00,6.973e+00,8.735e+00,8.298e+00,8.860e+00,9.007e+00,8.896e+00,1.078e+01,1.145e+01,1.122e+01,1.051e+01,1.235e+01,1.134e+01,1.200e+01,1.048e+01,1.382e+01,1.337e+01,1.308e+01,1.293e+01,1.453e+01,1.606e+01,1.373e+01,1.237e+01,1.409e+01,1.195e+01,1.309e+01,1.359e+01,1.416e+01,1.424e+01,1.251e+01,1.578e+01,1.356e+01,1.364e+01,1.320e+01,1.272e+01,1.143e+01,1.389e+01,1.227e+01,1.336e+01,1.365e+01,1.355e+01,1.705e+01,1.280e+01,1.283e+01,1.463e+01,1.396e+01,1.194e+01,1.319e+01,1.213e+01,1.595e+01,1.460e+01,1.369e+01,1.349e+01,1.463e+01,1.380e+01,1.476e+01,1.369e+01,1.563e+01,1.320e+01,1.167e+01
2.959e-01,9.993e-01,6.146e-01,1.140e+00,1.071e+00,1.345e+00,1.945e+00,1.932e+00,2.521e+00,2.631e+00,2.115e+00,2.081e+00,2.922e+00,2.940e+00,3.267e+00,3.257e+00,3.613e+00,4.442e+00,3.916e+00,5.231e+00,5.595e+00,5.477e+00,6.042e+00,5.169e+00,5.096e+00,6.360e+00,6.323e+00,5.676e+00,6.515e+00,6.155e+00,7.610e+00,6.830e+00,7.129e+00,8.806e+00,7.830e+00,9.582e+00,8.854e+00,1.087e+01,9.702e+00,1.004e+01,9.269e+00,1.041e+01,1.065e+01,1.065e+01,8.547e+00,1.347e+01,1.131e+01,1.248e+01,1.011e+01,1.137e+01,1.405e+01,1.222e+01,1.130e+01,1.180e+01,1.156e+01,1.184e+01,1.164e+01,1.137e+01,1.308e+01,1.244e+01,1.392e+01,1.229e+01,1.337e+01,1.237e+01,1.214e+01,1.034e+01,1.208e+01,1.072e+01,1.392e+01,1.265e+01,1.186e+01,1.372e+01,1.138e+01,1.014e+01,1.302e+01,1.190e+01,1.086e+01,1.191e+01,1.261e+01,1.242e+01,1.277e+01,1.247e+01,1.261e+01,1.260e+01,1.143e+01,1.263e+01,1.208e+01,1.176e+01,1.267e+01,9.913e+00
1.472e-01,6.187e-01,3.413e-01,5.627e-01,7.269e-01,8.064e-01,1.162e+00,1.581e+00,1.992e+00,2.301e+00,2.398e+00,1.827e+00,2.713e+00,2.883e+00,4.401e+00,4.276e+00,3.945e+00,5.576e+00,4.203e+00,5.286e+00,6.433e+00,7.188e+00,8.123e+00,5.577e+00,6.346e+00,8.686e+00,7.849e+00,7.213e+00,7.980e+00,6.918e+00,7.460e+00,7.798e+00,8.193e+00,1.038e+01,8.494e+00,9.972e+00,7.998e+00,1.090e+01,1.037e+01,9.750e+00,9.613e+00,1.048e+01,1.058e+01,1.075e+01,9.164e+00,1.181e+01,1.030e+01,1.137e+01,1.031e+01,1.250e+01,1.416e+01,1.098e+01,1.187e+01,1.215e+01,1.109e+01,1.220e+01,1.298e+01,1.298e+01,1.296e+01,1.227e+01,1.450e+01,1.192e+01,1.245e+01,1.257e+01,1.212e+01,1.056e+01,1.205e+01,1.173e+01,1.340e+01,1.128e+01,1.249e+01,1.412e+01,1.012e+01,1.127e+01,1.163e+01,1.249e+01,1.150e+01,1.240e+01,1.206e+01,1.302e+01,1.233e+01,1.205e+01,1.293e+01,1.220e+01,1.051e+01,1.209e+01,1.300e+01,1.210e+01,1.224e+01,1.129e+01
1.348e-01,4.743e-01,2.896e-01,9.456e-01,1.065e+00,1.109e+00,1.696e+00,2.116e+00,2.379e+00,2.790e+00,2.795e+00,2.086e+00,3.305e+00,2.876e+00,3.699e+00,3.263e+00,3.527e+00,5.011e+00,4.239e+00,4.391e+00,5.203e+00,6.034e+00,6.984e+00,5.077e+00,5.816e+00,6.343e+00,5.527e+00,6.869e+00,7.410e+00,5.554e+00,7.086e+00,7.192e+00,7.502e+00,8.500e+00,8.105e+00,8.933e+00,8.197e+00,1.011e+01,9.241e+00,9.428e+00,9.962e+00,1.046e+01,1.113e+01,1.125e+01,9.163e+00,1.276e+01,1.048e+01,1.195e+01,1.065e+01,1.300e+01,1.381e+01,1.121e+01,1.114e+01,1.250e+01,9.911e+00,1.219e+01,1.312e+01,1.446e+01,1.445e+01,1.100e+01,1.443e+01,1.340e+01,1.247e+01,1.277e+01,1.199e+01,1.039e+01,1.229e+01,1.139e+01,1.338e+01,1.183e+01,1.199e+01,1.446e+01,1.132e+01,1.213e+01,1.248e+01,1.209e+01,1.187e+01,1.317e+01,1.284e+01,1.271e+01,1.248e+01,1.193e+01,1.236e+01,1.252e+01,1.273e+01,1.111e+01,1.292e+01,1.273e+01,1.182e+01,1.117e+01
8.479e-02,4.217e-01,2.439e-01,9.185e-01,5.943e-01,9.821e-01,1.446e+00,1.818e+00,1.667e+00,2.815e+00,2.139e+00,2.285e+00,3.252e+00,3.373e+00,3.062e+00,3.683e+00,4.230e+00,4.628e+00,3.583e+00,4.544e+00,4.833e+00,5.335e+00,7.484e+00,5.842e+00,6.623e+00,6.773e+00,6.167e+00,6.087e+00,7.294e+00,6.125e+00,7.222e+00,6.774e+00,8.232e+00,8.785e+00,8.019e+00,9.862e+00,8.013e+00,1.026e+01,9.781e+00,1.011e+01,1.048e+01,1.206e+01,1.109e+01,1.190e+01,9.731e+00,1.349e+01,1.182e+01,1.373e+01,1.125e+01,1.369e+01,1.489e+01,1.233e+01,1.221e+01,1.357e+01,1.240e+01,1.260e+01,1.478e+01,1.244e+01,1.457e+01,1.278e+01,1.591e+01,1.275e+01,1.472e+01,1.341e+01,1.231e+01,1.280e+01,1.356e+01,1.158e+01,1.429e+01,1.348e+01,1.358e+01,1.450e+01,1.459e+01,1.290e+01,1.386e+01,1.371e+01,1.221e+01,1.328e+01,1.424e+01,1.444e+01,1.412e+01,1.374e+01,1.290e+01,1.477e+01,1.422e+01,1.337e+01,1.356e+01,1.269e+01,1.228e+01,1.248e+01
2.138e-01,5.541e-01,5.047e-01,1.048e+00,1.227e+00,1.552e+00,1.460e+00,2.210e+00,2.143e+00,2.408e+00,3.004e+00,1.717e+00,2.429e+00,1.858e+00,3.158e+00,3.033e+00,2.969e+00,4.969e+00,4.535e+00,4.375e+00,5.336e+00,6.430e+00,6.503e+00,5.297e+00,6.095e+00,7.062e+00,7.066e+00,7.010e+00,6.752e+00,6.357e+00,7.152e+00,6.803e+00,7.606e+00,9.323e+00,8.204e+00,9.695e+00,8.828e+00,1.089e+01,1.035e+01,9.619e+00,1.160e+01,1.254e+01,1.149e+01,1.177e+01,1.016e+01,1.400e+01,1.397e+01,1.321e+01,1.323e+01,1.407e+01,1.624e+01,1.254e+01,1.259e+01,1.516e+01,1.315e+01,1.382e+01,1.468e+01,1.454e+01,1.488e+01,1.402e+01,1.594e+01,1.573e+01,1.460e+01,1.485e+01,1.279e+01,1.341e+01,1.484e+01,1.398e+01,1.637e+01,1.488e+01,1.540e+01,1.616e+01,1.407e+01,1.409e+01,1.433e+01,1.488e+01,1.373e+01,1.335e+01,1.409e+01,1.678e+01,1.544e+01,1.583e+01,1.483e+01,1.597e+01,1.501e+01,1.495e+01,1.530e+01,1.562e+01,1.454e+01,1.152e+01
2.805e-01,8.539e-01,5.823e-01,1.259e+00,8.653e-01,1.338e+00,1.898e+00,2.538e+00,2.423e+00,2.897e+00,1.850e+00,2.285e+00,2.980e+00,2.653e+00,3.634e+00,2.759e+00,3.559e+00,4.967e+00,4.092e+00,4.799e+00,4.732e+00,5.444e+00,6.556e+00,5.689e+00,5.486e+00,6.600e+00,6.079e+00,6.802e+00,6.335e+00,6.785e+00,6.936e+00,7.610e+00,7.548e+00,9.307e+00,8.607e+00,9.616e+00,9.163e+00,1.093e+01,9.367e+00,8.047e+00,9.029e+00,1.051e+01,9.907e+00,1.054e+01,7.997e+00,1.236e+01,1.200e+01,1.177e+01,1.032e+01,1.010e+01,1.195e+01,1.106e+01,1.229e+01,1.233e+01,1.063e+01,1.074e+01,1.287e+01,1.265e+01,1.413e+01,1.214e+01,1.367e+01,1.186e+01,1.358e+01,1.390e+01,1.116e+01,1.085e+01,1.200e+01,1.023e+01,1.350e+01,1.357e+01,1.250e+01,1.434e+01,1.086e+01,1.243e+01,1.220e+01,1.211e+01,1.208e+01,1.332e+01,1.291e+01,1.302e+01,1.236e+01,1.250e+01,1.190e+01,1.257e+01,1.230e+01,1.172e+01,1.239e+01,1.262e+01,1.205e+01,1.008e+01
3.137e-01,1.005e+00,6.257e-01,1.014e+00,1.123e+00,1.208e+00,1.809e+00,2.503e+00,2.500e+00,2.662e+00,2.491e+00,2.073e+00,3.014e+00,2.538e+00,4.040e+00,3.815e+00,3.920e+00,5.151e+00,4.644e+00,5.695e+00,5.990e+00,7.354e+00,8.253e+00,5.892e+00,7.482e+00,9.083e+00,9.104e+00,7.862e+00,8.668e+00,8.511e+00,9.219e+00,8.096e+00,1.057e+01,1.133e+01,9.732e+00,1.223e+01,1.025e+01,1.227e+01,1.233e+01,1.193e+01,1.165e+01,1.323e+01,1.340e+01,1.374e+01,1.153e+01,1.554e+01,1.501e+01,1.435e+01,1.353e+01,1.576e+01,1.655e+01,1.421e+01,1.392e+01,1.629e+01,1.432e+01,1.462e+01,1.643e+01,1.721e+01,1.746e+01,1.682e+01,1.816e+01,1.661e+01,1.644e+01,1.544e+01,1.531e+01,1.364e+01,1.522e+01,1.525e+01,1.731e+01,1.652e+01,1.638e+01,1.838e+01,1.559e+01,1.583e+01,1.655e+01,1.640e+01,1.568e+01,1.659e+01,1.597e+01,1.800e+01,1.656e+01,1.640e+01,1.515e+01,1.735e+01,1.700e+01,1.662e+01,1.619e+01,1.563e+01,1.644e+01,1.458e+01
4.152e-02,1.351e-01,9.544e-02,7.619e-01,4.574e-01,6.404e-01,9.898e-01,1.777e+00,1.197e+00,2.404e+00,2.002e+00,1.857e+00,2.919e+00,3.012e+00,3.321e+00,3.239e+00,3.581e+00,5.312e+00,4.427e+00,5.250e+00,4.932e+00,6.738e+00,7.088e+00,5.655e+00,6.421e+00,6.536e+00,6.454e+00,6.811e+00,6.549e+00,6.535e+00,6.110e+00,5.478e+00,7.530e+00,8.382e+00,8.147e+00,8.558e+00,8.060e+00,9.384e+00,8.822e+00,9.053e+00,9.504e+00,1.040e+01,1.046e+01,1.155e+01,1.009e+01,1.267e+01,1.133e+01,1.212e+01,1.170e+01,1.334e+01,1.385e+01,1.147e+01,1.181e+01,1.359e+01,1.045e+01,1.150e+01,1.349e+01,1.401e+01,1.417e+01,1.270e+01,1.575e+01,1.423e+01,1.433e+01,1.419e+01,1.328e+01,1.284e+01,1.337e+01,1.274e+01,1.443e+01,1.428e+01,1.468e+01,1.709e+01,1.197e+01,1.345e+01,1.395e+01,1.351e+01,1.267e+01,1.424e+01,1.289e+01,1.633e+01,1.483e+01,1.465e+01,1.457e+01,1.453e+01,1.370e+01,1.520e+01,1.432e+01,1.475e+01,1.268e+01,1.203e+01
1.164e-01,3.112e-01,2.900e-01,8.659e-01,1.221e+00,1.257e+00,1.398e+00,1.847e+00,2.259e+00,2.452e+00,3.040e+00,1.946e+00,2.948e+00,2.229e+00,3.759e+00,3.102e+00,2.930e+00,4.753e+00,4.332e+00,3.665e+00,4.884e+00,5.258e+00,5.739e+00,4.717e+00,5.139e+00,6.321e+00,6.269e+00,5.814e+00,6.196e+00,5.114e+00,6.971e+00,7.058e+00,7.415e+00,7.867e+00,7.008e+00,8.003e+00,7.470e+00,9.770e+00,8.746e+00,9.348e+00,9.743e+00,1.059e+01,1.066e+01,1.114e+01,9.101e+00,1.133e+01,1.163e+01,1.107e+01,9.900e+00,1.166e+01,1.419e+01,9.530e+00,9.487e+00,1.206e+01,1.029e+01,1.058e+01,1.263e+01,1.467e+01,1.338e+01,1.233e+01,1.568e+01,1.381e+01,1.395e+01,1.217e+01,1.104e+01,1.192e+01,1.285e+01,1.166e+01,1.376e+01,1.350e+01,1.412e+01,1.445e+01,1.355e+01,1.283e+01,1.379e+01,1.376e+01,1.407e+01,1.214e+01,1.244e+01,1.635e+01,1.359e+01,1.299e+01,1.368e+01,1.424e+01,1.367e+01,1.416e+01,1.455e+01,1.366e+01,1.243e+01,1.061e+01
2.869e-01,9.803e-01,6.555e-01,1.526e+00,1.831e+00,1.841e+00,2.142e+00,3.233e+00,2.974e+00,3.937e+00,3.453e+00,3.090e+00,4.322e+00,2.984e+00,4.632e+00,4.290e+00,4.740e+00,5.871e+00,4.894e+00,4.805e+00,5.598e+00,7.658e+00,7.631e+00,5.719e+00,6.329e+00,7.774e+00,6.843e+00,6.966e+00,7.199e+00,7.624e+00,7.100e+00,7.767e+00,8.622e+00,9.571e+00,9.255e+00,1.097e+01,9.214e+00,1.120e+01,1.024e+01,9.488e+00,9.203e+00,1.047e+01,1.229e+01,1.126e+01,9.593e+00,1.352e+01,1.132e+01,1.324e+01,1.047e+01,1.246e+01,1.438e+01,1.157e+01,1.164e+01,1.222e+01,1.207e+01,1.299e+01,1.423e+01,1.469e+01,1.569e+01,1.349e+01,1.634e+01,1.471e+01,1.408e+01,1.504e+01,1.459e+01,1.268e+01,1.405e+01,1.175e+01,1.511e+01,1.370e+01,1.510e+01,1.529e+01,1.356e+01,1.336e+01,1.588e+01,1.346e+01,1.343e+01,1.502e+01,1.429e+01,1.520e+01,1.382e+01,1.543e+01,1.489e+01,1.338e+01,1.505e+01,1.367e+01,1.626e+01,1.453e+01,1.384e+01,1.096e+01
9.380e-02,4.058e-01,2.920e-01,9.790e-01,1.490e+00,1.408e+00,1.670e+00,2.144e+00,2.245e+00,2.791e+00,2.758e+00,2.477e+00,3.641e+00,3.054e+00,4.286e+00,3.695e+00,3.659e+00,5.642e+00,4.498e+00,5.171e+00,5.770e+00,6.558e+00,8.011e+00,6.646e+00,6.420e+00,7.675e+00,7.453e+00,7.364e+00,7.268e+00,6.990e+00,8.078e+00,7.708e+00,8.772e+00,9.150e+00,9.448e+00,1.021e+01,9.297e+00,1.196e+01,1.157e+01,1.089e+01,1.136e+01,1.259e+01,1.156e+01,1.182e+01,9.871e+00,1.232e+01,1.216e+01,1.387e+01,1.199e+01,1.150e+01,1.482e+01,1.166e+01,1.179e+01,1.405e+01,1.213e+01,1.375e+01,1.376e+01,1.543e+01,1.574e+01,1.427e+01,1.906e+01,1.538e+01,1.489e+01,1.556e+01,1.400e+01,1.482e+01,1.540e+01,1.447e+01,1.655e+01,1.652e+01,1.572e+01,1.762e+01,1.622e+01,1.482e+01,1.681e+01,1.387e+01,1.469e+01,1.587e+01,1.603e+01,1.711e+01,1.431e+01,1.676e+01,1.601e+01,1.673e+01,1.796e+01,1.597e+01,1.623e+01,1.710e+01,1.519e+01,1.297e+01
3.830e-02,3.237e-01,1.818e-01,2.905e-01,3.868e-01,7.730e-01,1.402e+00,1.531e+00,1.378e+00,1.685e+00,1.635e+00,1.237e+00,1.798e+00,2.346e+00,2.989e+00,2.646e+00,3.119e+00,4.056e+00,3.228e+00,4.508e+00,4.709e+00,5.707e+00,6.436e+00,5.424e+00,5.393e+00,7.429e+00,6.233e+00,5.759e+00,6.926e+00,5.462e+00,6.345e+00,6.498e+00,7.528e+00,8.362e+00,8.245e+00,9.254e+00,7.977e+00,1.058e+01,9.214e+00,9.185e+00,9.371e+00,1.055e+01,9.397e+00,1.133e+01,8.606e+00,1.321e+01,1.174e+01,1.206e+01,1.017e+01,1.223e+01,1.287e+01,1.146e+01,1.080e+01,1.120e+01,1.076e+01,1.137e+01,1.342e+01,1.296e+01,1.523e+01,1.294e+01,1.646e+01,1.515e+01,1.635e+01,1.422e+01,1.319e+01,1.298e+01,1.436e+01,1.438e+01,1.587e+01,1.621e+01,1.389e+01,1.648e+01,1.379e+01,1.394e+01,1.497e+01,1.324e+01,1.413e+01,1.486e+01,1.430e+01,1.449e+01,1.444e+01,1.600e+01,1.311e+01,1.535e+01,1.511e+01,1.415e+01,1.420e+01,1.469e+01,1.313e+01,1.197e+01
1.786e-01,7.355e-01,4.141e-01,6.086e-01,6.169e-01,9.990e-01,1.733e+00,1.863e+00,2.226e+00,2.424e+00,2.431e+00,1.522e+00,2.298e+00,2.672e+00,3.492e+00,2.961e+00,3.102e+00,4.387e+00,3.831e+00,4.952e+00,4.507e+00,5.685e+00,6.496e+00,4.773e+00,5.101e+00,6.546e+00,6.566e+00,5.941e+00,6.341e+00,6.531e+00,5.999e+00,6.061e+00,7.515e+00,8.049e+00,8.985e+00,9.705e+00,8.685e+00,1.031e+01,9.828e+00,9.713e+00,9.712e+00,1.128e+01,1.052e+01,1.148e+01,9.384e+00,1.281e+01,1.300e+01,1.272e+01,1.242e+01,1.272e+01,1.402e+01,1.163e+01,1.244e+01,1.270e+01,1.243e+01,1.263e+01,1.553e+01,1.447e+01,1.709e+01,1.513e+01,1.753e+01,1.664e+01,1.639e+01,1.650e+01,1.615e+01,1.535e+01,1.628e+01,1.549e+01,1.787e+01,1.764e+01,1.714e+01,1.860e+01,1.687e+01,1.581e+01,1.785e+01,1.555e+01,1.503e+01,1.655e+01,1.642e+01,1.776e+01,1.733e+01,1.784e+01,1.599e+01,1.785e+01,1.919e+01,1.675e+01,1.691e+01,1.714e+01,1.524e+01,1.328e+01
1.121e-02,1.575e-01,9.543e-02,4.369e-01,1.092e+00,7.801e-01,1.206e+00,2.189e+00,1.761e+00,2.475e+00,2.411e+00,2.168e+00,3.372e+00,3.020e+00,5.227e+00,3.602e+00,3.038e+00,5.191e+00,4.895e+00,4.199e+00,5.545e+00,6.692e+00,7.430e+00,5.520e+00,5.769e+00,7.228e+00,7.102e+00,6.136e+00,6.257e+00,7.216e+00,6.809e+00,7.495e+00,7.985e+00,1.018e+01,8.756e+00,9.967e+00,9.022e+00,1.100e+01,9.928e+00,9.723e+00,9.714e+00,1.074e+01,1.145e+01,1.148e+01,1.039e+01,1.261e+01,1.217e+01,1.306e+01,1.020e+01,1.225e+01,1.426e+01,1.188e+01,1.333e+01,1.374e+01,1.128e+01,1.252e+01,1.380e+01,1.366e+01,1.507e+01,1.319e+01,1.691e+01,1.370e+01,1.389e+01,1.652e+01,1.427e+01,1.404e+01,1.461e+01,1.478e+01,1.759e+01,1.684e+01,1.527e+01,1.722e+01,1.525e+01,1.527e+01,1.640e+01,1.516e+01,1.571e+01,1.616e+01,1.593e+01,1.757e+01,1.546e+01,1.618e+01,1.660e+01,1.529e+01,1.579e+01,1.630e+01,1.703e+01,1.473e+01,1.547e+01,1.293e+01
6.211e-02,3.299e-01,1.459e-01,3.540e-01,6.370e-01,4.491e-01,6.703e-01,1.357e+00,1.809e+00,1.919e+00,1.972e+00,1.564e+00,2.313e+00,1.938e+00,4.737e+00,2.901e+00,2.584e+00,4.878e+00,4.240e+00,4.566e+00,5.706e+00,6.598e+00,6.958e+00,6.047e+00,6.172e+00,8.069e+00,8.219e+00,7.222e+00,7.752e+00,7.630e+00,8.048e+00,8.926e+00,9.006e+00,1.151e+01,9.767e+00,1.209e+01,1.063e+01,1.254e+01,1.116e+01,9.927e+00,1.089e+01,1.212e+01,1.144e+01,1.209e+01,1.027e+01,1.383e+01,1.440e+01,1.393e+01,1.377e+01,1.298e+01,1.597e+01,1.328e+01,1.352e+01,1.514e+01,1.370e+01,1.337e+01,1.571e+01,1.518e+01,1.631e+01,1.353e+01,1.773e+01,1.669e+01,1.590e+01,1.529e+01,1.563e+01,1.373e+01,1.542e+01,1.552e+01,1.746e+01,1.592e+01,1.537e+01,1.763e+01,1.566e+01,1.446e+01,1.547e+01,1.476e+01,1.571e+01,1.608e+01,1.696e+01,1.787e+01,1.566e+01,1.627e+01,1.524e+01,1.631e+01,1.644e+01,1.672e+01,1.652e+01,1.579e+01,1.613e+01,1.355e+01
2.889e-01,9.064e-01,5.631e-01,9.942e-01,9.767e-01,1.104e+00,1.944e+00,2.395e+00,2.819e+00,3.534e+00,2.847e+00,2.591e+00,3.826e+00,3.614e+00,4.620e+00,4.244e+00,4.662e+00,5.763e+00,4.680e+00,6.370e+00,6.661e+00,6.589e+00,8.130e+00,5.427e+00,5.872e+00,8.579e+00,7.201e+00,6.762e+00,8.153e+00,7.073e+00,6.973e+00,7.735e+00,8.648e+00,1.020e+01,9.994e+00,1.191e+01,9.942e+00,1.158e+01,1.148e+01,9.700e+00,9.643e+00,1.186e+01,1.231e+01,1.227e+01,9.027e+00,1.420e+01,1.275e+01,1.368e+01,1.231e+01,1.316e+01,1.501e+01,1.369e+01,1.438e+01,1.332e+01,1.381e+01,1.377e+01,1.576e+01,1.490e+01,1.868e+01,1.577e+01,1.783e+01,1.642e+01,1.749e+01,1.766e+01,1.577e+01,1.447e+01,1.594e+01,1.604e+01,1.889e+01,1.783e+01,1.753e+01,1.872e+01,1.588e+01,1.645e+01,1.734e+01,1.590e+01,1.565e+01,1.779e+01,1.685e+01,1.709e+01,1.693e+01,1.912e+01,1.792e+01,1.589e+01,1.768e+01,1.798e+01,1.852e+01,1.816e+01,1.617e+01,1.469e+01
1.340e-01,5.059e-01,3.446e-01,8.456e-01,8.952e-01,1.142e+00,1.556e+00,1.871e+00,2.063e+00,2.711e+00,2.328e+00,2.146e+00,2.996e+00,2.811e+00,3.472e+00,3.440e+00,4.193e+00,5.274e+00,3.785e+00,5.128e+00,5.521e+00,5.863e+00,7.389e+00,5.750e+00,5.680e+00,7.068e+00,5.961e+00,6.062e+00,6.250e+00,5.692e+00,6.620e+00,7.410e+00,7.467e+00,8.504e+00,8.741e+00,8.891e+00,7.079e+00,9.930e+00,8.767e+00,9.315e+00,9.872e+00,1.112e+01,9.900e+00,1.129e+01,9.416e+00,1.356e+01,1.141e+01,1.261e+01,1.147e+01,1.183e+01,1.446e+01,1.183e+01,1.121e+01,1.326e+01,1.250e+01,1.230e+01,1.314e+01,1.283e+01,1.472e+01,1.408e+01,1.798e+01,1.411e+01,1.528e+01,1.422e+01,1.428e+01,1.383e+01,1.502e+01,1.667e+01,1.811e+01,1.702e+01,1.514e+01,1.928e+01,1.590e+01,1.526e+01,1.823e+01,1.452e+01,1.426e+01,1.637e+01,1.635e+01,1.688e+01,1.500e+01,1.681e+01,1.587e+01,1.558e+01,1.636e+01,1.547e+01,1.679e+01,1.666e+01,1.576e+01,1.316e+01
2.510e-01,9.243e-01,4.827e-01,1.400e+00,9.098e-01,1.178e+00,1.866e+00,2.407e+00,2.655e+00,3.202e+00,2.342e+00,2.255e+00,3.290e+00,2.666e+00,4.051e+00,3.704e+00,4.209e+00,5.766e+00,4.406e+00,5.753e+00,6.151e+00,7.619e+00,8.218e+00,6.415e+00,7.379e+00,8.264e+00,7.340e+00,8.365e+00,8.992e+00,7.086e+00,8.054e+00,8.615e+00,9.435e+00,1.001e+01,8.915e+00,1.058e+01,8.485e+00,1.115e+01,1.078e+01,1.036e+01,1.154e+01,1.222e+01,1.227e+01,1.308e+01,1.058e+01,1.503e+01,1.341e+01,1.391e+01,1.349e+01,1.463e+01,1.657e+01,1.399e+01,1.261e+01,1.457e+01,1.298e+01,1.383e+01,1.546e+01,1.641e+01,1.701e+01,1.747e+01,1.998e+01,1.872e+01,1.696e+01,1.657e+01,1.566e+01,1.677e+01,1.634e+01,1.805e+01,1.928e+01,1.996e+01,1.969e+01,2.148e+01,1.789e+01,1.828e+01,1.843e+01,1.731e+01,1.819e+01,1.982e+01,1.855e+01,1.980e+01,1.930e+01,2.081e+01,1.862e+01,2.002e+01,1.887e+01,1.882e+01,1.920e+01,1.850e+01,1.924e+01,1.505e+01
6.534e-02,1.639e-01,2.480e-01,7.784e-01,9.530e-01,1.295e+00,1.525e+00,2.193e+00,2.087e+00,2.826e+00,2.837e+00,2.497e+00,3.489e+00,3.356e+00,3.726e+00,3.208e+00,4.238e+00,5.978e+00,4.635e+00,5.400e+00,5.409e+00,6.208e+00,6.430e+00,5.855e+00,5.526e+00,6.451e+00,5.500e+00,6.651e+00,7.077e+00,5.617e+00,7.044e+00,6.633e+00,6.717e+00,8.357e+00,7.503e+00,7.803e+00,8.061e+00,1.038e+01,8.325e+00,9.104e+00,9.938e+00,9.807e+00,9.161e+00,9.887e+00,9.215e+00,1.190e+01,1.113e+01,1.194e+01,9.531e+00,1.214e+01,1.281e+01,1.047e+01,1.017e+01,1.085e+01,1.025e+01,1.058e+01,1.350e+01,1.308e+01,1.468e+01,1.267e+01,1.698e+01,1.461e+01,1.574e+01,1.433e+01,1.486e+01,1.432e+01,1.560e+01,1.479e+01,1.559e+01,1.774e+01,1.734e+01,1.857e+01,1.572e+01,1.618e+01,1.937e+01,1.591e+01,1.560e+01,1.636e+01,1.718e+01,1.890e+01,1.754e+01,1.725e+01,1.706e+01,1.591e+01,1.765e+01,1.764e+01,1.714e+01,1.859e+01,1.372e+01,1.266e+01
3.523e-01,1.106e+00,7.074e-01,1.126e+00,1.104e+00,1.336e+00,2.104e+00,2.060e+00,2.583e+00,3.195e+00,2.762e+00,2.359e+00,3.406e+00,3.460e+00,4.336e+00,4.600e+00,4.859e+00,6.060e+00,5.440e+00,6.451e+00,7.059e+00,7.648e+00,8.780e+00,6.966e+00,7.021e+00,9.673e+00,8.675e+00,7.517e+00,8.617e+00,8.283e+00,9.156e+00,9.194e+00,1.001e+01,1.121e+01,1.053e+01,1.231e+01,9.629e+00,1.269e+01,1.248e+01,1.181e+01,1.133e+01,1.356e+01,1.287e+01,1.380e+01,1.062e+01,1.588e+01,1.464e+01,1.507e+01,1.321e+01,1.443e+01,1.679e+01,1.349e+01,1.356e+01,1.525e+01,1.436e+01,1.414e+01,1.559e+01,1.619e+01,1.739e+01,1.519e+01,1.957e+01,1.785e+01,1.838e+01,1.750e+01,1.619e+01,1.564e+01,1.721e+01,1.752e+01,1.984e+01,1.874e+01,1.762e+01,2.175e+01,1.836e+01,1.870e+01,1.811e+01,1.843e+01,1.885e+01,1.897e+01,1.917e+01,2.036e+01,1.920e+01,1.866e+01,1.846e+01,1.985e+01,2.017e+01,1.928e+01,2.000e+01,1.886e+01,1.947e+01,1.610e+01
1.325e-01,3.576e-01,2.631e-01,9.471e-01,1.338e+00,9.572e-01,1.119e+00,1.834e+00,1.521e+00,2.671e+00,2.752e+00,2.081e+00,3.400e+00,2.621e+00,3.691e+00,4.077e+00,3.577e+00,5.010e+00,4.895e+00,4.882e+00,5.566e+00,6.700e+00,7.584e+00,5.037e+00,5.890e+00,7.027e+00,6.949e+00,6.928e+00,6.739e+00,5.706e+00,6.903e+00,6.333e+00,7.642e+00,7.836e+00,7.179e+00,8.022e+00,6.392e+00,7.944e+00,9.304e+00,8.349e+00,9.133e+00,9.556e+00,9.865e+00,9.511e+00,9.918e+00,9.787e+00,1.092e+01,1.132e+01,1.104e+01,1.125e+01,1.243e+01,1.039e+01,1.120e+01,1.375e+01,1.092e+01,1.196e+01,1.333e+01,1.440e+01,1.440e+01,1.259e+01,1.580e+01,1.269e+01,1.314e+01,1.345e+01,1.263e+01,1.305e+01,1.384e+01,1.513e+01,1.508e+01,1.488e+01,1.534e+01,1.725e+01,1.514e+01,1.645e+01,1.767e+01,1.402e+01,1.563e+01,1.626e+01,1.532e+01,1.752e+01,1.577e+01,1.666e+01,1.603e+01,1.679e+01,1.638e+01,1.680e+01,1.678e+01,1.709e+01,1.464e+01,1.313e+01
3.408e-02,3.967e-01,1.498e-01,3.173e-01,4.624e-01,8.216e-01,1.838e+00,2.243e+00,2.729e+00,2.289e+00,2.514e+00,1.604e+00,2.494e+00,2.687e+00,4.210e+00,2.561e+00,3.479e+00,5.328e+00,3.743e+00,5.070e+00,5.769e+00,6.912e+00,7.350e+00,5.691e+00,6.218e+00,7.574e+00,6.354e+00,6.554e+00,7.554e+00,6.279e+00,6.900e+00,7.265e+00,7.582e+00,9.451e+00,8.974e+00,1.026e+01,9.023e+00,1.136e+01,9.823e+00,1.020e+01,1.102e+01,1.174e+01,1.167e+01,1.370e+01,1.076e+01,1.528e+01,1.343e+01,1.368e+01,1.306e+01,1.455e+01,1.603e+01,1.249e+01,1.265e+01,1.392e+01,1.242e+01,1.209e+01,1.406e+01,1.566e+01,1.554e+01,1.454e+01,1.735e+01,1.546e+01,1.626e+01,1.525e+01,1.529e+01,1.362e+01,1.550e+01,1.633e+01,1.786e+01,1.969e+01,1.686e+01,2.032e+01,1.792e+01,1.757e+01,1.872e+01,1.675e+01,1.745e+01,1.921e+01,1.746e+01,1.972e+01,1.815e+01,1.929e+01,1.735e+01,1.954e+01,1.897e+01,1.863e+01,1.800e+01,1.922e+01,1.744e+01,1.513e+01
1.210e-01,5.416e-01,2.818e-01,9.807e-01,7.533e-01,1.052e+00,1.380e+00,1.670e+00,2.226e+00,2.826e+00,2.984e+00,1.937e+00,3.088e+00,3.249e+00,3.756e+00,4.322e+00,3.955e+00,4.914e+00,4.128e+00,5.195e+00,5.946e+00,6.802e+00,7.515e+00,5.711e+00,6.506e+00,7.742e+00,7.105e+00,7.726e+00,8.689e+00,6.862e+00,8.541e+00,8.039e+00,9.250e+00,9.313e+00,8.015e+00,8.815e+00,8.449e+00,1.053e+01,1.022e+01,1.001e+01,9.572e+00,1.115e+01,1.103e+01,1.109e+01,9.546e+00,1.184e+01,1.190e+01,1.188e+01,1.162e+01,1.337e+01,1.467e+01,1.258e+01,1.252e+01,1.387e+01,1.258e+01,1.229e+01,1.430e+01,1.625e+01,1.588e+01,1.422e+01,1.754e+01,1.572e+01,1.683e+01,1.569e+01,1.605e+01,1.460e+01,1.470e+01,1.646e+01,1.749e+01,1.760e+01,1.863e+01,2.035e+01,1.667e+01,1.901e+01,2.057e+01,1.642e+01,1.781e+01,1.916e+01,1.894e+01,1.918e+01,1.997e+01,2.077e+01,1.904e+01,1.916e+01,1.924e+01,1.835e+01,1.848e+01,1.882e+01,1.717e+01,1.512e+01
8.003e-02,4.738e-01,2.005e-01,4.442e-01,5.321e-01,7.007e-01,1.271e+00,1.571e+00,2.438e+00,2.123e+00,2.235e+00,1.344e+00,2.047e+00,1.852e+00,4.172e+00,2.614e+00,2.629e+00,3.946e+00,3.085e+00,4.388e+00,5.148e+00,5.664e+00,5.932e+00,5.024e+00,5.131e+00,7.862e+00,6.561e+00,6.321e+00,7.515e+00,5.706e+00,6.119e+00,7.852e+00,8.003e+00,8.772e+00,8.721e+00,9.893e+00,8.625e+00,1.131e+01,9.289e+00,8.887e+00,9.352e+00,1.084e+01,1.100e+01,1.133e+01,8.910e+00,1.323e+01,1.188e+01,1.229e+01,1.193e+01,1.192e+01,1.493e+01,1.183e+01,1.192e+01,1.195e+01,1.293e+01,1.276e+01,1.418e+01,1.478e+01,1.664e+01,1.302e+01,1.656e+01,1.619e+01,1.517e+01,1.495e+01,1.432e+01,1.359e+01,1.406e+01,1.679e+01,1.819e+01,1.877e+01,1.653e+01,1.938e+01,1.673e+01,1.696e+01,1.900e+01,1.696e+01,1.845e+01,2.004e+01,1.704e+01,1.856e+01,1.782e+01,2.071e+01,1.989e+01,1.985e+01,1.939e+01,1.905e+01,1.963e+01,1.820e+01,1.837e+01,1.526e+01
9.236e-02,3.166e-01,2.529e-01,7.840e-01,8.477e-01,1.060e+00,1.100e+00,1.915e+00,1.811e+00,2.315e+00,2.594e+00,1.752e+00,2.614e+00,2.290e+00,3.155e+00,3.480e+00,3.413e+00,4.079e+00,3.547e+00,4.116e+00,5.441e+00,6.006e+00,5.987e+00,4.341e+00,5.687e+00,7.028e+00,6.165e+00,5.230e+00,6.538e+00,5.647e+00,6.929e+00,5.983e+00,8.082e+00,8.748e+00,7.238e+00,9.830e+00,8.485e+00,9.920e+00,9.534e+00,8.616e+00,8.741e+00,1.079e+01,1.108e+01,1.119e+01,8.668e+00,1.195e+01,1.191e+01,1.231e+01,1.158e+01,1.277e+01,1.362e+01,1.182e+01,1.216e+01,1.450e+01,1.294e+01,1.212e+01,1.363e+01,1.443e+01,1.583e+01,1.291e+01,1.573e+01,1.528e+01,1.676e+01,1.643e+01,1.531e+01,1.457e+01,1.605e+01,1.628e+01,1.859e+01,1.869e+01,1.763e+01,2.005e+01,1.769e+01,1.727e+01,1.939e+01,1.677e+01,1.791e+01,2.005e+01,2.008e+01,1.983e+01,2.004e+01,1.962e+01,1.933e+01,2.031e+01,2.096e+01,2.033e+01,1.955e+01,1.876e+01,1.790e+01,1.658e+01
2.476e-01,6.066e-01,4.560e-01,1.238e+00,1.037e+00,9.829e-01,8.874e-01,1.360e+00,1.575e+00,2.859e+00,2.502e+00,2.321e+00,3.431e+00,2.884e+00,3.324e+00,4.142e+00,3.655e+00,4.453e+00,4.086e+00,4.878e+00,4.788e+00,5.688e+00,6.555e+00,5.713e+00,5.191e+00,7.265e+00,6.897e+00,6.641e+00,6.898e+00,6.494e+00,7.621e+00,8.299e+00,8.729e+00,9.213e+00,9.332e+00,9.675e+00,8.807e+00,1.128e+01,9.972e+00,9.488e+00,8.574e+00,1.131e+01,1.132e+01,1.157e+01,9.306e+00,1.288e+01,1.224e+01,1.240e+01,1.080e+01,1.012e+01,1.390e+01,1.206e+01,1.143e+01,1.293e+01,1.129e+01,1.208e+01,1.305e+01,1.439e+01,1.412e+01,1.136e+01,1.606e+01,1.409e+01,1.490e+01,1.450e+01,1.344e+01,1.297e+01,1.474e+01,1.346e+01,1.674e+01,1.781e+01,1.582e+01,1.945e+01,1.717e+01,1.739e+01,2.014e+01,1.464e+01,1.766e+01,1.880e+01,1.678e+01,2.018e+01,1.819e+01,1.994e+01,2.065e+01,1.811e+01,2.005e+01,2.091e+01,1.904e+01,1.861e+01,1.742e+01,1.595e+01
3.931e-01,1.108e+00,7.723e-01,1.510e+00,1.307e+00,1.676e+00,2.298e+00,2.684e+00,3.455e+00,3.912e+00,3.308e+00,2.631e+00,3.701e+00,2.981e+00,3.795e+00,3.440e+00,4.986e+00,5.621e+00,4.631e+00,5.846e+00,6.043e+00,6.253e+00,6.779e+00,5.566e+00,6.460e+00,7.455e+00,6.530e+00,7.190e+00,6.992e+00,5.633e+00,7.600e+00,7.806e+00,7.187e+00,8.159e+00,8.356e+00,9.560e+00,7.823e+00,1.105e+01,8.849e+00,1.031e+01,1.005e+01,1.134e+01,1.144e+01,1.223e+01,1.009e+01,1.311e+01,1.212e+01,1.275e+01,1.153e+01,1.105e+01,1.367e+01,1.124e+01,1.111e+01,1.278e+01,1.143e+01,1.294e+01,1.431e+01,1.451e+01,1.549e+01,1.363e+01,1.760e+01,1.549e+01,1.536e+01,1.495e+01,1.368e+01,1.340e+01,1.520e+01,1.520e+01,1.690e+01,1.751e+01,1.716e+01,2.001e+01,1.719e+01,1.793e+01,2.055e+01,1.730e+01,1.697e+01,1.967e+01,1.809e+01,1.835e+01,1.947e+01,2.073e+01,1.906e+01,2.012e+01,2.042e+01,1.857e+01,1.902e+01,1.946e+01,1.713e+01,1.473e+01
3.401e-01,1.059e+00,6.390e-01,1.230e+00,9.411e-01,1.222e+00,1.805e+00,2.335e+00,3.114e+00,3.086e+00,2.677e+00,2.057e+00,2.982e+00,2.493e+00,4.067e+00,3.091e+00,3.558e+00,4.727e+00,4.056e+00,5.515e+00,5.345e+00,6.521e+00,6.579e+00,5.198e+00,6.151e+00,8.016e+00,7.650e+00,7.752e+00,8.130e+00,7.015e+00,7.745e+00,7.360e+00,8.893e+00,9.283e+00,8.849e+00,1.039e+01,9.201e+00,1.108e+01,1.041e+01,9.671e+00,9.742e+00,1.189e+01,1.240e+01,1.229e+01,9.814e+00,1.436e+01,1.374e+01,1.356e+01,1.415e+01,1.398e+01,1.516e+01,1.267e+01,1.197e+01,1.275e+01,1.340e+01,1.357e+01,1.513e+01,1.599e+01,1.665e+01,1.365e+01,1.800e+01,1.691e+01,1.616e+01,1.521e+01,1.583e+01,1.490e+01,1.661e+01,1.684e+01,1.837e+01,1.942e+01,1.707e+01,2.070e+01,1.852e+01,1.837e+01,2.026e+01,1.720e+01,1.702e+01,2.050e+01,1.895e+01,1.999e+01,2.110e+01,2.166e+01,1.839e+01,2.088e+01,2.337e+01,2.066e+01,2.074e+01,2.086e+01,1.943e+01,1.607e+01
7.922e-02,4.745e-01,1.994e-01,6.659e-01,8.623e-01,7.479e-01,1.303e+00,1.468e+00,1.518e+00,2.441e+00,2.167e+00,1.822e+00,2.957e+00,3.211e+00,4.589e+00,4.459e+00,3.586e+00,4.833e+00,4.774e+00,5.082e+00,5.899e+00,6.738e+00,7.824e+00,6.029e+00,6.072e+00,8.459e+00,7.314e+00,6.946e+00,7.837e+00,6.623e+00,7.621e+00,8.437e+00,9.467e+00,9.962e+00,9.245e+00,1.035e+01,9.139e+00,1.150e+01,1.097e+01,1.072e+01,1.098e+01,1.250e+01,1.211e+01,1.266e+01,1.194e+01,1.384e+01,1.424e+01,1.432e+01,1.431e+01,1.548e+01,1.697e+01,1.422e+01,1.460e+01,1.612e+01,1.432e+01,1.451e+01,1.757e+01,1.808e+01,1.825e+01,1.444e+01,1.872e+01,1.712e+01,1.892e+01,1.736e+01,1.579e+01,1.580e+01,1.655e+01,1.833e+01,2.015e+01,1.901e+01,1.820e+01,2.197e+01,2.036e+01,1.915e+01,2.198e+01,1.863e+01,1.964e+01,2.123e+01,2.045e+01,2.165e+01,2.123e+01,2.279e+01,2.088e+01,2.309e+01,2.220e+01,2.215e+01,2.110e+01,2.250e+01,1.880e+01,1.825e+01
1.684e-01,5.426e-01,3.462e-01,9.058e-01,8.163e-01,9.443e-01,1.278e+00,2.101e+00,2.232e+00,2.280e+00,2.043e+00,2.199e+00,3.119e+00,2.801e+00,4.417e+00,3.027e+00,3.411e+00,5.823e+00,4.357e+00,5.617e+00,5.276e+00,7.232e+00,7.636e+00,6.872e+00,6.836e+00,7.714e+00,7.323e+00,7.388e+00,7.518e+00,6.896e+00,7.492e+00,7.024e+00,7.741e+00,8.747e+00,8.622e+00,1.029e+01,9.304e+00,1.106e+01,1.055e+01,1.045e+01,1.066e+01,1.168e+01,1.098e+01,1.240e+01,1.005e+01,1.284e+01,1.291e+01,1.256e+01,1.181e+01,1.274e+01,1.487e+01,1.328e+01,1.175e+01,1.395e+01,1.198e+01,1.225e+01,1.426e+01,1.276e+01,1.439e+01,1.441e+01,1.645e+01,1.526e+01,1.524e+01,1.448e+01,1.431e+01,1.345e+01,1.444e+01,1.499e+01,1.543e+01,1.770e+01,1.722e+01,1.806e+01,1.636e+01,1.700e+01,1.804e+01,1.685e+01,1.706e+01,1.936e+01,1.753e+01,1.856e+01,1.936e+01,2.182e+01,2.060e+01,1.912e+01,2.026e+01,1.954e+01,1.839e+01,1.964e+01,1.813e+01,1.561e+01
3.928e-01,1.192e+00,8.476e-01,1.829e+00,1.603e+00,2.097e+00,2.501e+00,3.085e+00,3.004e+00,4.207e+00,3.390e+00,3.000e+00,4.131e+00,3.544e+00,4.068e+00,4.962e+00,5.274e+00,6.034e+00,5.341e+00,6.044e+00,6.687e+00,7.345e+00,7.996e+00,5.621e+00,6.421e+00,7.844e+00,6.761e+00,6.815e+00,7.523e+00,6.920e+00,7.390e+00,7.279e+00,8.576e+00,9.108e+00,8.268e+00,9.267e+00,7.430e+00,1.049e+01,1.002e+01,9.132e+00,9.762e+00,1.057e+01,1.149e+01,1.101e+01,1.037e+01,1.368e+01,1.253e+01,1.298e+01,1.172e+01,1.387e+01,1.417e+01,1.341e+01,1.245e+01,1.340e+01,1.190e+01,1.202e+01,1.355e+01,1.426e+01,1.556e+01,1.416e+01,1.662e+01,1.474e+01,1.653e+01,1.547e+01,1.462e+01,1.463e+01,1.492e+01,1.605e+01,1.697e+01,1.841e+01,1.725e+01,2.057e+01,1.633e+01,1.857e+01,2.011e+01,1.590e+01,1.762e+01,1.946e+01,1.878e+01,2.032e+01,2.082e+01,2.109e+01,2.117e+01,1.913e+01,2.094e+01,1.986e+01,2.006e+01,2.191e+01,1.793e+01,1.559e+01
3.402e-01,9.941e-01,6.641e-01,1.308e+00,9.888e-01,1.382e+00,1.916e+00,2.442e+00,2.899e+00,2.835e+00,2.412e+00,2.261e+00,3.091e+00,2.848e+00,4.488e+00,3.165e+00,3.525e+00,5.745e+00,5.245e+00,5.158e+00,5.449e+00,6.523e+00,7.217e+00,6.327e+00,6.231e+00,7.822e+00,7.410e+00,7.337e+00,6.805e+00,7.244e+00,7.865e+00,7.776e+00,8.112e+00,9.892e+00,9.343e+00,1.078e+01,1.011e+01,1.194e+01,1.074e+01,1.033e+01,1.102e+01,1.270e+01,1.295e+01,1.332e+01,1.129e+01,1.520e+01,1.438e+01,1.443e+01,1.403e+01,1.391e+01,1.702e+01,1.335e+01,1.380e+01,1.489e+01,1.340e+01,1.452e+01,1.596e+01,1.538e+01,1.645e+01,1.380e+01,1.876e+01,1.772e+01,1.774e+01,1.718e+01,1.658e+01,1.466e+01,1.698e+01,1.558e+01,1.947e+01,1.948e+01,1.749e+01,2.161e+01,1.912e+01,1.747e+01,2.018e+01,1.949e+01,1.839e+01,2.026e+01,1.951e+01,2.197e+01,2.121e+01,2.300e+01,2.226e+01,2.237e+01,2.255e+01,2.190e+01,2.057e+01,2.279e+01,2.108e+01,1.701e+01
1.517e-01,6.045e-01,2.983e-01,7.692e-01,7.096e-01,7.635e-01,1.532e+00,1.615e+00,2.304e+00,2.981e+00,2.613e+00,2.212e+00,3.469e+00,3.717e+00,4.681e+00,4.472e+00,4.680e+00,5.836e+00,4.745e+00,5.800e+00,6.449e+00,6.837e+00,8.183e+00,5.887e+00,6.528e+00,8.841e+00,7.512e+00,7.316e+00,8.227e+00,6.709e+00,8.233e+00,8.347e+00,9.352e+00,1.022e+01,9.441e+00,1.094e+01,9.553e+00,1.145e+01,1.120e+01,1.088e+01,1.017e+01,1.196e+01,1.249e+01,1.351e+01,1.088e+01,1.336e+01,1.235e+01,1.354e+01,1.206e+01,1.295e+01,1.623e+01,1.249e+01,1.143e+01,1.258e+01,1.195e+01,1.367e+01,1.495e+01,1.463e+01,1.695e+01,1.377e+01,1.821e+01,1.640e+01,1.719e+01,1.537e+01,1.527e+01,1.486e+01,1.633e+01,1.722e+01,1.807e+01,1.934e+01,1.677e+01,2.102e+01,1.801e+01,1.831e+01,2.167e+01,1.712e+01,1.931e+01,2.222e+01,1.945e+01,1.977e+01,2.045e+01,2.197e+01,2.110e+01,2.117e+01,2.214e+01,2.188e+01,2.236e+01,2.181e+01,2.029e+01,1.736e+01
4.394e-02,3.757e-01,2.161e-01,8.425e-01,1.318e+00,1.366e+00,1.645e+00,1.909e+00,2.341e+00,3.027e+00,3.716e+00,2.083e+00,3.324e+00,2.827e+00,3.713e+00,4.299e+00,4.453e+00,4.988e+00,4.358e+00,5.294e+00,6.605e+00,7.690e+00,7.621e+00,6.391e+00,7.206e+00,8.102e+00,7.325e+00,7.045e+00,8.425e+00,6.460e+00,7.801e+00,8.248e+00,8.809e+00,9.336e+00,9.176e+00,1.070e+01,8.175e+00,1.132e+01,1.032e+01,1.057e+01,1.071e+01,1.173e+01,1.162e+01,1.206e+01,1.072e+01,1.371e+01,1.303e+01,1.405e+01,1.191e+01,1.399e+01,1.503e+01,1.190e+01,1.243e+01,1.360e+01,1.323e+01,1.218e+01,1.373e+01,1.492e+01,1.572e+01,1.422e+01,1.693e+01,1.508e+01,1.593e+01,1.513e+01,1.370e+01,1.454e+01,1.544e+01,1.577e+01,1.800e+01,1.864e+01,1.686e+01,1.961e+01,1.654e+01,1.613e+01,1.900e+01,1.582e+01,1.748e+01,1.811e+01,1.836e+01,1.981e+01,1.955e+01,1.962e+01,1.911e+01,2.019e+01,2.055e+01,2.130e+01,2.029e+01,2.089e+01,1.877e+01,1.734e+01
2.688e-01,6.455e-01,5.824e-01,8.190e-01,8.592e-01,1.371e+00,1.514e+00,2.214e+00,2.570e+00,1.982e+00,2.679e+00,2.040e+00,2.770e+00,3.094e+00,4.123e+00,2.973e+00,3.123e+00,6.146e+00,5.106e+00,6.367e+00,5.902e+00,7.040e+00,6.885e+00,6.672e+00,5.910e+00,8.069e+00,7.598e+00,7.389e+00,7.526e+00,7.574e+00,8.263e+00,6.992e+00,8.079e+00,1.072e+01,1.006e+01,1.039e+01,1.065e+01,1.263e+01,1.182e+01,1.080e+01,1.137e+01,1.351e+01,1.219e+01,1.261e+01,9.846e+00,1.406e+01,1.412e+01,1.439e+01,1.474e+01,1.314e+01,1.644e+01,1.270e+01,1.354e+01,1.488e+01,1.298e+01,1.337e+01,1.515e+01,1.516e+01,1.568e+01,1.346e+01,1.724e+01,1.602e+01,1.511e+01,1.636e+01,1.494e+01,1.451e+01,1.683e+01,1.543e+01,1.777e+01,1.857e+01,1.687e+01,2.029e+01,1.806e+01,1.761e+01,1.939e+01,1.837e+01,1.760e+01,1.848e+01,1.785e+01,2.099e+01,2.068e+01,2.249e+01,2.184e+01,2.085e+01,2.370e+01,2.356e+01,2.185e+01,2.336e+01,1.910e+01,1.807e+01
1.928e-02,3.771e-01,2.030e-01,6.738e-01,1.145e+00,1.450e+00,2.149e+00,2.717e+00,2.924e+00,2.793e+00,3.262e+00,2.214e+00,3.344e+00,3.364e+00,5.151e+00,3.558e+00,3.585e+00,5.933e+00,4.992e+00,4.796e+00,5.838e+00,7.371e+00,7.407e+00,5.993e+00,6.534e+00,7.678e+00,7.050e+00,7.154e+00,7.679e+00,8.082e+00,8.146e+00,7.896e+00,9.778e+00,1.002e+01,9.253e+00,1.009e+01,1.034e+01,1.224e+01,1.120e+01,1.103e+01,1.119e+01,1.218e+01,1.228e+01,1.286e+01,1.098e+01,1.373e+01,1.476e+01,1.448e+01,1.320e+01,1.526e+01,1.637e+01,1.325e+01,1.354e+01,1.567e+01,1.320e+01,1.283e+01,1.537e+01,1.637e+01,1.774e+01,1.493e+01,1.854e+01,1.712e+01,1.748e+01,1.710e+01,1.766e+01,1.559e+01,1.769e+01,1.686e+01,1.875e+01,1.928e+01,1.887e+01,2.172e+01,1.804e+01,1.902e+01,2.208e+01,1.900e+01,1.987e+01,2.231e+01,2.101e+01,2.345e+01,2.258e+01,2.305e+01,2.308e+01,2.236e+01,2.568e+01,2.313e+01,2.341e+01,2.622e+01,2.104e+01,1.888e+01
3.148e-01,9.836e-01,6.184e-01,8.786e-01,7.818e-01,9.880e-01,1.278e+00,1.564e+00,2.239e+00,1.764e+00,1.656e+00,1.812e+00,2.381e+00,2.358e+00,3.237e+00,2.567e+00,2.790e+00,4.325e+00,3.384e+00,4.681e+00,4.288e+00,5.281e+00,5.419e+00,5.266e+00,5.220e+00,6.536e+00,6.411e+00,5.675e+00,6.428e+00,6.116e+00,7.208e+00,5.759e+00,6.744e+00,7.894e+00,6.856e+00,8.744e+00,7.631e+00,1.013e+01,9.551e+00,9.217e+00,8.577e+00,1.015e+01,9.659e+00,9.960e+00,7.577e+00,1.134e+01,1.088e+01,1.288e+01,1.033e+01,1.008e+01,1.245e+01,1.149e+01,1.158e+01,1.241e+01,1.131e+01,1.240e+01,1.432e+01,1.393e+01,1.555e+01,1.476e+01,1.559e+01,1.567e+01,1.584e+01,1.530e+01,1.455e+01,1.430e+01,1.505e+01,1.489e+01,1.766e+01,1.818e+01,1.722e+01,1.986e+01,1.673e+01,1.771e+01,1.901e+01,1.563e+01,1.779e+01,1.773e+01,1.875e+01,1.829e+01,1.924e+01,2.241e+01,2.141e+01,2.132e+01,2.253e+01,2.132e+01,1.996e+01,2.201e+01,2.101e+01,1.835e+01
5.168e-02,3.667e-01,2.251e-01,8.446e-01,1.455e+00,1.332e+00,1.535e+00,2.199e+00,2.476e+00,3.281e+00,3.473e+00,2.358e+00,3.617e+00,3.064e+00,4.705e+00,4.284e+00,4.834e+00,6.574e+00,5.236e+00,7.084e+00,8.085e+00,8.650e+00,8.669e+00,6.706e+00,7.335e+00,9.091e+00,9.367e+00,8.467e+00,8.498e+00,7.830e+00,8.972e+00,8.302e+00,9.416e+00,1.011e+01,9.558e+00,1.106e+01,9.795e+00,1.205e+01,1.223e+01,1.182e+01,1.172e+01,1.280e+01,1.297e+01,1.249e+01,1.235e+01,1.442e+01,1.379e+01,1.512e+01,1.420e+01,1.553e+01,1.691e+01,1.238e+01,1.352e+01,1.547e+01,1.365e+01,1.444e+01,1.644e+01,1.755e+01,1.813e+01,1.463e+01,1.834e+01,1.577e+01,1.726e+01,1.703e+01,1.596e+01,1.585e+01,1.827e+01,1.878e+01,1.915e+01,1.902e+01,1.962e+01,2.301e+01,1.858e+01,1.981e+01,2.233e+01,1.879e+01,1.955e+01,2.158e+01,2.104e+01,2.152e+01,2.136e+01,2.283e+01,2.150e+01,2.406e+01,2.314e+01,2.243e+01,2.322e+01,2.574e+01,2.150e+01,2.011e+01
1.666e-01,6.956e-01,3.879e-01,1.176e+00,8.823e-01,1.241e+00,1.457e+00,2.092e+00,2.405e+00,2.939e+00,2.720e+00,2.048e+00,2.970e+00,2.761e+00,3.874e+00,3.603e+00,3.640e+00,4.831e+00,3.999e+00,4.544e+00,4.996e+00,5.980e+00,6.228e+00,4.919e+00,5.447e+00,6.146e+00,5.704e+00,5.914e+00,6.105e+00,5.999e+00,6.554e+00,6.639e+00,7.356e+00,7.354e+00,6.703e+00,7.767e+00,7.817e+00,8.886e+00,9.551e+00,9.451e+00,8.602e+00,1.055e+01,1.104e+01,1.102e+01,9.580e+00,1.202e+01,1.180e+01,1.280e+01,1.175e+01,1.267e+01,1.426e+01,1.160e+01,1.130e+01,1.365e+01,1.147e+01,1.205e+01,1.402e+01,1.500e+01,1.604e+01,1.389e+01,1.660e+01,1.538e+01,1.612e+01,1.532e+01,1.434e+01,1.449e+01,1.517e+01,1.423e+01,1.666e+01,1.694e+01,1.761e+01,1.846e+01,1.658e+01,1.786e+01,1.938e+01,1.570e+01,1.726e+01,1.809e+01,1.826e+01,1.912e+01,1.846e+01,2.166e+01,2.072e+01,1.993e+01,2.107e+01,2.030e+01,2.028e+01,2.083e+01,1.875e+01,1.671e+01
