9.469e-01,8.921e-01,1.489e-01,6.259e-03,3.070e-01,4.710e-01,1.409e-01,4.799e-01,4.907e-01,6.121e-01,2.224e-01,9.486e-01,8.287e-01,2.928e-01,9.738e-01,5.847e-01,8.908e-01,3.860e-01,5.296e-01,1.303e-01,5.993e-01,7.537e-01,6.934e-01,7.994e-01,9.755e-01,3.312e-01,1.767e-03,6.817e-01,7.196e-01,7.539e-01,1.238e-01,4.471e-01,4.330e-01,1.232e-01,3.144e-02,7.069e-01,4.293e-01,2.502e-01,2.488e-01,5.745e-01,1.038e-01,9.705e-01,7.352e-01,8.798e-01,4.980e-01,3.706e-01,4.711e-01,9.758e-01,9.150e-01,6.352e-01,3.389e-01,3.832e-01,9.475e-01,3.372e-01,7.744e-01,8.979e-01,2.582e-01,5.542e-01,3.741e-01,3.495e-01,1.203e-01,2.350e-02,5.320e-01,2.052e-03,9.904e-01,9.237e-01,5.710e-01,1.317e-01,8.231e-01,5.147e-01,6.753e-01,4.909e-01,5.841e-01,1.593e-01,8.054e-01,1.871e-02,6.855e-01,8.766e-01,4.791e-01,5.000e-01,6.302e-01
7.218e-01,1.389e+00,9.340e-01,6.378e-01,3.057e-01,1.285e+00,7.689e-01,3.993e-01,1.177e+00,6.528e-01,7.464e-01,1.710e+00,8.178e-01,1.074e+00,1.149e+00,5.481e-01,1.139e+00,7.887e-01,9.316e-01,5.936e-01,7.497e-01,9.629e-01,9.478e-01,1.185e+00,9.340e-01,1.089e+00,6.969e-01,7.694e-01,7.190e-01,9.111e-01,9.808e-01,5.270e-01,1.078e+00,7.215e-01,4.843e-01,8.572e-01,1.327e+00,2.708e-01,3.075e-01,4.637e-01,2.426e-01,1.195e+00,1.306e+00,1.293e+00,9.683e-01,8.824e-01,7.985e-01,1.642e+00,1.241e+00,9.751e-01,4.051e-01,5.022e-01,1.696e+00,3.800e-01,1.279e+00,1.535e+00,1.098e+00,5.895e-01,1.163e+00,7.119e-01,8.357e-01,4.248e-01,6.520e-01,6.208e-01,1.309e+00,1.111e+00,1.018e+00,1.557e-01,1.577e+00,7.182e-01,5.973e-01,3.885e-01,1.018e+00,6.918e-01,1.288e+00,5.373e-01,9.532e-01,1.514e+00,4.600e-01,9.119e-01,6.069e-01
7.937e-01,9.041e-01,1.081e+00,5.997e-01,1.202e+00,1.514e+00,9.458e-01,7.161e-01,9.884e-01,1.476e+00,7.559e-01,1.507e+00,8.362e-01,6.308e-01,1.001e+00,1.344e+00,1.312e+00,1.338e+00,1.205e+00,1.060e+00,1.059e+00,1.508e+00,1.347e+00,1.422e+00,1.830e+00,6.837e-01,1.053e+00,9.886e-01,7.917e-01,1.646e+00,3.106e-01,5.492e-01,8.653e-01,4.286e-01,2.536e-01,1.161e+00,6.907e-01,9.453e-01,8.918e-01,1.115e+00,6.494e-01,1.654e+00,1.709e+00,1.607e+00,1.231e+00,1.399e+00,1.430e+00,1.774e+00,1.756e+00,1.392e+00,1.307e+00,1.086e+00,1.014e+00,4.842e-01,1.339e+00,1.228e+00,7.506e-01,6.813e-01,1.358e+00,1.216e+00,1.049e+00,1.415e-01,6.377e-01,8.022e-01,1.639e+00,8.751e-01,7.031e-01,8.259e-01,1.536e+00,1.173e+00,5.852e-01,8.939e-01,7.950e-01,5.980e-01,1.553e+00,3.848e-01,1.348e+00,1.458e+00,1.385e+00,6.642e-01,1.264e+00
1.756e-01,8.563e-01,9.569e-01,1.514e+00,4.284e-01,1.758e+00,1.087e+00,3.170e-01,1.618e+00,1.049e+00,1.072e+00,1.237e+00,4.488e-01,1.863e+00,1.022e+00,1.251e+00,6.969e-01,1.591e+00,8.977e-01,9.999e-01,5.280e-01,7.018e-01,1.531e+00,1.099e+00,1.033e+00,1.747e+00,1.612e+00,5.051e-01,9.447e-01,1.102e+00,1.297e+00,1.246e+00,1.306e+00,7.859e-01,1.438e+00,7.329e-01,1.890e+00,1.018e+00,4.480e-01,2.461e-01,7.819e-01,1.550e+00,1.903e+00,1.549e+00,1.687e+00,8.366e-01,1.057e+00,1.770e+00,1.430e+00,1.641e+00,1.278e+00,8.237e-01,2.014e+00,4.827e-01,1.231e+00,1.779e+00,1.092e+00,1.270e+00,1.450e+00,1.234e+00,1.152e+00,1.267e+00,1.288e+00,1.238e+00,1.466e+00,1.097e+00,9.279e-01,6.408e-01,1.288e+00,5.582e-01,1.180e+00,5.241e-01,1.266e+00,7.699e-01,1.282e+00,1.025e+00,1.515e+00,2.073e+00,8.860e-01,1.272e+00,6.798e-01
5.540e-01,7.028e-01,3.117e-01,2.907e-01,1.225e+00,1.189e+00,5.777e-01,9.459e-01,1.568e+00,8.114e-01,5.028e-01,1.203e+00,1.467e+00,1.433e+00,1.106e+00,1.063e+00,1.539e+00,1.112e+00,9.463e-01,9.309e-01,7.138e-01,1.016e+00,1.373e+00,9.484e-01,7.484e-01,6.129e-01,9.112e-01,9.681e-01,1.431e+00,1.059e+00,1.089e+00,6.437e-01,1.477e+00,3.480e-01,7.235e-01,1.524e+00,1.560e+00,3.575e-01,9.354e-01,8.963e-01,3.985e-01,1.392e+00,9.181e-01,1.654e+00,1.426e+00,4.699e-01,1.376e+00,1.007e+00,1.456e+00,1.408e+00,6.665e-01,6.697e-01,1.013e+00,4.699e-01,1.060e+00,1.491e+00,9.479e-01,1.399e+00,1.271e+00,1.111e+00,6.497e-01,7.637e-01,1.437e+00,4.657e-01,1.588e+00,1.474e+00,1.465e+00,1.087e+00,1.379e+00,8.451e-01,1.353e+00,1.290e+00,7.529e-01,7.690e-01,1.102e+00,7.026e-01,1.258e+00,1.659e+00,8.139e-01,1.165e+00,1.259e+00
7.047e-01,1.070e+00,9.165e-01,7.812e-01,1.167e+00,2.002e+00,1.775e+00,1.046e+00,1.796e+00,1.674e+00,1.466e+00,1.796e+00,2.071e+00,2.181e+00,1.848e+00,1.549e+00,1.616e+00,1.823e+00,1.604e+00,1.647e+00,1.899e+00,1.507e+00,1.660e+00,2.117e+00,1.703e+00,1.590e+00,2.057e+00,1.219e+00,2.203e+00,2.357e+00,1.432e+00,1.711e+00,2.069e+00,1.276e+00,1.746e+00,1.826e+00,1.849e+00,1.458e+00,1.852e+00,9.927e-01,6.365e-01,2.214e+00,2.617e+00,2.750e+00,2.370e+00,1.515e+00,1.653e+00,2.195e+00,2.122e+00,2.387e+00,1.386e+00,1.847e+00,1.973e+00,1.530e+00,2.351e+00,2.108e+00,1.152e+00,1.841e+00,2.559e+00,1.766e+00,1.153e+00,1.696e+00,1.790e+00,1.811e+00,2.009e+00,1.605e+00,2.010e+00,1.405e+00,2.364e+00,1.739e+00,1.652e+00,1.213e+00,1.441e+00,1.461e+00,2.339e+00,1.273e+00,1.715e+00,2.228e+00,1.325e+00,1.504e+00,1.934e+00
5.998e-02,6.188e-01,7.066e-01,5.886e-01,6.535e-01,1.169e+00,1.466e+00,1.231e+00,1.907e+00,4.911e-01,6.521e-01,2.059e+00,8.083e-01,2.019e+00,1.123e+00,1.047e+00,1.602e+00,9.371e-01,8.868e-01,1.790e+00,1.233e+00,1.128e+00,1.577e+00,1.401e+00,4.069e-01,1.520e+00,1.099e+00,1.031e+00,1.608e+00,6.690e-01,1.278e+00,1.060e+00,1.214e+00,1.173e+00,1.417e+00,1.367e+00,1.498e+00,5.191e-01,1.536e+00,7.119e-01,1.011e+00,1.756e+00,1.142e+00,1.521e+00,1.818e+00,1.143e+00,1.190e+00,1.195e+00,1.043e+00,1.914e+00,9.576e-01,8.672e-01,1.492e+00,1.197e+00,1.085e+00,1.960e+00,1.618e+00,1.601e+00,1.404e+00,1.013e+00,1.291e+00,1.284e+00,1.653e+00,1.395e+00,1.201e+00,1.740e+00,1.917e+00,7.345e-01,2.037e+00,1.234e+00,8.288e-01,6.422e-01,9.492e-01,1.164e+00,1.270e+00,1.673e+00,1.612e+00,1.749e+00,1.152e+00,1.126e+00,1.313e+00
7.785e-01,7.933e-01,7.500e-01,5.674e-01,1.761e+00,1.953e+00,2.147e+00,2.407e+00,2.859e+00,2.203e+00,1.663e+00,2.463e+00,2.436e+00,3.210e+00,2.238e+00,2.803e+00,2.523e+00,2.756e+00,2.069e+00,2.924e+00,2.645e+00,2.517e+00,3.064e+00,3.281e+00,2.627e+00,1.888e+00,2.404e+00,2.123e+00,3.328e+00,2.717e+00,2.220e+00,2.189e+00,2.152e+00,1.720e+00,2.069e+00,2.711e+00,1.772e+00,1.834e+00,2.896e+00,2.259e+00,1.823e+00,3.504e+00,3.021e+00,3.568e+00,3.184e+00,2.166e+00,2.856e+00,3.150e+00,2.744e+00,3.708e+00,2.410e+00,3.023e+00,2.404e+00,2.232e+00,3.234e+00,2.772e+00,2.395e+00,3.009e+00,2.844e+00,2.679e+00,2.271e+00,2.541e+00,3.033e+00,2.285e+00,2.776e+00,3.212e+00,2.904e+00,1.970e+00,3.829e+00,3.041e+00,2.222e+00,1.924e+00,2.032e+00,2.410e+00,3.354e+00,1.968e+00,3.197e+00,2.764e+00,2.374e+00,1.788e+00,2.833e+00
6.570e-01,8.036e-01,1.055e+00,1.375e+00,1.893e+00,2.602e+00,2.343e+00,2.064e+00,3.867e+00,3.170e+00,2.701e+00,2.404e+00,2.838e+00,3.823e+00,3.164e+00,4.099e+00,2.997e+00,3.999e+00,3.074e+00,3.602e+00,3.198e+00,2.388e+00,3.388e+00,3.492e+00,2.932e+00,2.788e+00,3.147e+00,2.833e+00,3.681e+00,3.064e+00,2.558e+00,3.149e+00,2.568e+00,2.319e+00,3.471e+00,3.151e+00,3.038e+00,2.455e+00,3.703e+00,2.887e+00,2.658e+00,4.715e+00,4.481e+00,4.006e+00,3.972e+00,2.558e+00,3.294e+00,3.593e+00,3.206e+00,4.288e+00,3.573e+00,3.084e+00,3.625e+00,2.289e+00,3.520e+00,3.892e+00,2.847e+00,3.981e+00,3.184e+00,3.667e+00,2.491e+00,3.050e+00,3.735e+00,3.313e+00,3.819e+00,3.680e+00,2.782e+00,3.103e+00,4.193e+00,3.236e+00,3.292e+00,2.640e+00,2.843e+00,2.665e+00,3.362e+00,2.973e+00,4.042e+00,4.212e+00,3.417e+00,2.339e+00,3.693e+00
2.748e-01,7.271e-01,1.113e+00,1.254e+00,1.622e+00,2.403e+00,2.107e+00,1.615e+00,2.786e+00,2.065e+00,2.141e+00,2.169e+00,2.868e+00,3.984e+00,2.052e+00,3.253e+00,2.033e+00,3.242e+00,2.661e+00,2.637e+00,2.775e+00,1.932e+00,3.045e+00,3.580e+00,2.179e+00,2.493e+00,2.857e+00,2.500e+00,2.829e+00,3.217e+00,2.936e+00,2.183e+00,2.787e+00,2.377e+00,2.781e+00,2.255e+00,3.044e+00,2.662e+00,3.099e+00,2.291e+00,2.132e+00,3.696e+00,3.442e+00,4.063e+00,3.185e+00,2.765e+00,3.413e+00,2.993e+00,2.992e+00,4.223e+00,2.333e+00,3.077e+00,3.307e+00,1.845e+00,3.605e+00,3.119e+00,2.313e+00,3.517e+00,3.030e+00,3.428e+00,3.186e+00,2.668e+00,3.324e+00,2.662e+00,2.958e+00,3.310e+00,3.108e+00,2.112e+00,3.266e+00,3.276e+00,2.109e+00,2.104e+00,2.571e+00,2.615e+00,3.124e+00,1.938e+00,3.461e+00,3.543e+00,2.741e+00,2.477e+00,2.678e+00
1.598e-01,1.726e-01,3.648e-01,5.435e-01,1.164e+00,1.208e+00,1.474e+00,1.518e+00,2.211e+00,1.345e+00,1.743e+00,2.276e+00,2.956e+00,2.876e+00,1.883e+00,3.533e+00,2.204e+00,2.751e+00,2.734e+00,2.779e+00,2.876e+00,1.784e+00,2.526e+00,3.037e+00,1.862e+00,2.174e+00,1.864e+00,2.880e+00,2.728e+00,2.576e+00,2.166e+00,2.782e+00,2.360e+00,1.817e+00,3.341e+00,2.397e+00,2.858e+00,2.405e+00,3.482e+00,2.555e+00,2.459e+00,3.202e+00,2.566e+00,3.509e+00,3.342e+00,2.244e+00,2.558e+00,2.144e+00,2.204e+00,3.669e+00,2.031e+00,2.729e+00,2.514e+00,2.528e+00,2.246e+00,2.591e+00,2.468e+00,3.238e+00,1.990e+00,2.478e+00,2.751e+00,1.882e+00,3.036e+00,2.693e+00,2.908e+00,3.299e+00,3.011e+00,2.228e+00,2.932e+00,2.787e+00,2.451e+00,2.190e+00,2.288e+00,2.566e+00,2.237e+00,2.555e+00,3.498e+00,2.896e+00,3.446e+00,2.561e+00,2.616e+00
6.586e-01,1.001e+00,1.215e+00,9.584e-01,1.453e+00,2.251e+00,2.220e+00,1.638e+00,2.832e+00,2.449e+00,2.653e+00,3.756e+00,3.583e+00,3.809e+00,3.414e+00,4.184e+00,2.769e+00,4.056e+00,3.786e+00,3.743e+00,3.407e+00,3.212e+00,3.730e+00,3.816e+00,3.468e+00,3.536e+00,3.538e+00,2.879e+00,3.228e+00,4.380e+00,3.236e+00,4.017e+00,2.881e+00,2.674e+00,4.240e+00,3.341e+00,3.470e+00,2.928e+00,3.674e+00,2.959e+00,2.346e+00,3.961e+00,4.891e+00,4.590e+00,3.936e+00,2.954e+00,3.855e+00,3.841e+00,3.581e+00,4.282e+00,3.507e+00,3.506e+00,3.842e+00,3.487e+00,4.382e+00,3.882e+00,3.532e+00,3.716e+00,3.474e+00,3.598e+00,3.408e+00,2.799e+00,2.961e+00,3.955e+00,3.802e+00,3.957e+00,3.838e+00,2.659e+00,4.377e+00,3.921e+00,2.892e+00,3.194e+00,2.816e+00,3.206e+00,4.431e+00,3.453e+00,4.266e+00,4.233e+00,3.598e+00,2.682e+00,3.151e+00
6.490e-01,9.463e-01,9.190e-01,8.145e-01,1.434e+00,1.991e+00,1.962e+00,1.972e+00,3.529e+00,2.434e+00,2.724e+00,3.587e+00,3.800e+00,4.737e+00,4.069e+00,4.526e+00,3.270e+00,4.600e+00,4.680e+00,4.384e+00,3.817e+00,3.186e+00,4.838e+00,4.888e+00,4.051e+00,3.904e+00,3.203e+00,4.019e+00,4.008e+00,4.449e+00,4.130e+00,4.310e+00,2.827e+00,3.466e+00,4.396e+00,3.782e+00,4.315e+00,2.981e+00,4.303e+00,4.117e+00,3.178e+00,4.691e+00,4.943e+00,5.320e+00,4.450e+00,3.380e+00,4.035e+00,4.531e+00,3.605e+00,5.245e+00,4.360e+00,4.277e+00,4.744e+00,3.676e+00,5.227e+00,4.734e+00,4.019e+00,4.947e+00,3.794e+00,4.219e+00,4.243e+00,3.438e+00,4.122e+00,4.756e+00,4.919e+00,5.495e+00,4.718e+00,3.636e+00,5.453e+00,5.048e+00,3.819e+00,4.325e+00,3.187e+00,3.628e+00,4.453e+00,3.656e+00,5.047e+00,4.896e+00,4.292e+00,3.604e+00,4.117e+00
4.724e-01,4.532e-01,7.645e-01,9.053e-01,1.975e+00,2.145e+00,2.114e+00,2.100e+00,3.062e+00,2.440e+00,2.428e+00,2.940e+00,3.974e+00,4.998e+00,3.989e+00,5.284e+00,3.035e+00,4.876e+00,4.642e+00,4.300e+00,4.408e+00,2.961e+00,5.420e+00,5.106e+00,4.674e+00,4.328e+00,3.358e+00,4.546e+00,4.349e+00,5.481e+00,3.871e+00,4.765e+00,3.436e+00,3.355e+00,4.197e+00,3.764e+00,4.195e+00,4.194e+00,4.792e+00,4.204e+00,4.198e+00,5.613e+00,4.870e+00,6.498e+00,5.692e+00,3.638e+00,4.790e+00,4.835e+00,4.208e+00,5.857e+00,4.208e+00,4.887e+00,4.710e+00,3.750e+00,5.000e+00,4.172e+00,3.582e+00,5.734e+00,4.069e+00,5.144e+00,5.006e+00,4.132e+00,5.319e+00,5.295e+00,5.105e+00,5.728e+00,5.541e+00,4.137e+00,4.937e+00,5.839e+00,3.798e+00,4.133e+00,3.785e+00,4.276e+00,4.173e+00,3.820e+00,5.906e+00,4.630e+00,5.649e+00,4.493e+00,4.310e+00
1.070e-01,1.175e-01,3.871e-01,5.484e-01,1.109e+00,1.361e+00,2.005e+00,1.875e+00,2.549e+00,1.795e+00,2.052e+00,2.534e+00,3.237e+00,4.383e+00,3.436e+00,4.424e+00,2.364e+00,4.239e+00,3.159e+00,4.056e+00,3.848e+00,2.697e+00,3.693e+00,4.383e+00,2.853e+00,3.638e+00,3.507e+00,3.414e+00,4.285e+00,4.470e+00,3.908e+00,4.526e+00,2.891e+00,3.470e+00,4.144e+00,3.638e+00,3.201e+00,3.491e+00,4.226e+00,3.555e+00,3.389e+00,4.873e+00,4.441e+00,5.172e+00,3.556e+00,3.079e+00,4.796e+00,3.782e+00,3.692e+00,5.174e+00,3.906e+00,3.561e+00,4.002e+00,3.184e+00,4.994e+00,4.349e+00,3.588e+00,5.501e+00,3.329e+00,4.216e+00,4.400e+00,3.527e+00,4.023e+00,4.482e+00,3.533e+00,5.082e+00,4.177e+00,2.703e+00,3.883e+00,4.748e+00,3.144e+00,3.697e+00,2.878e+00,3.183e+00,3.581e+00,4.015e+00,4.354e+00,3.834e+00,4.458e+00,3.074e+00,3.700e+00
6.698e-01,1.321e+00,1.148e+00,1.044e+00,1.312e+00,2.140e+00,1.616e+00,1.669e+00,3.528e+00,2.021e+00,2.510e+00,3.199e+00,3.144e+00,4.245e+00,4.135e+00,5.352e+00,4.138e+00,5.545e+00,5.162e+00,4.677e+00,4.020e+00,3.708e+00,5.526e+00,5.612e+00,4.667e+00,4.275e+00,3.909e+00,5.219e+00,5.148e+00,4.532e+00,5.593e+00,5.173e+00,4.195e+00,3.403e+00,3.917e+00,4.625e+00,5.523e+00,3.724e+00,3.589e+00,5.297e+00,4.337e+00,5.487e+00,4.765e+00,6.603e+00,5.068e+00,3.445e+00,4.819e+00,6.316e+00,4.818e+00,5.417e+00,4.683e+00,4.781e+00,5.095e+00,2.827e+00,5.667e+00,5.071e+00,5.750e+00,5.522e+00,4.110e+00,5.310e+00,5.384e+00,3.427e+00,5.292e+00,6.011e+00,6.168e+00,6.094e+00,5.491e+00,3.895e+00,5.895e+00,5.403e+00,4.919e+00,5.041e+00,3.921e+00,4.379e+00,4.319e+00,4.400e+00,5.633e+00,4.839e+00,6.094e+00,4.513e+00,4.376e+00
7.494e-01,7.254e-01,5.317e-01,3.291e-01,1.501e+00,1.632e+00,1.607e+00,1.838e+00,2.720e+00,2.250e+00,2.277e+00,2.241e+00,3.731e+00,4.314e+00,3.921e+00,4.765e+00,4.221e+00,4.982e+00,4.757e+00,4.633e+00,4.954e+00,3.749e+00,5.589e+00,6.153e+00,4.950e+00,4.342e+00,4.024e+00,5.000e+00,5.149e+00,5.022e+00,5.060e+00,5.170e+00,3.520e+00,3.832e+00,4.259e+00,3.806e+00,4.818e+00,4.125e+00,4.575e+00,5.105e+00,4.306e+00,6.072e+00,4.878e+00,6.079e+00,5.489e+00,3.829e+00,5.403e+00,4.996e+00,4.384e+00,5.214e+00,4.191e+00,5.815e+00,4.743e+00,3.691e+00,6.283e+00,4.015e+00,4.449e+00,5.346e+00,4.675e+00,5.515e+00,5.298e+00,4.070e+00,5.394e+00,5.847e+00,5.370e+00,5.654e+00,5.890e+00,4.077e+00,5.045e+00,6.216e+00,4.424e+00,4.296e+00,3.771e+00,4.103e+00,5.114e+00,3.811e+00,5.620e+00,4.939e+00,5.778e+00,4.205e+00,4.265e+00
2.650e-01,7.133e-01,1.348e+00,1.222e+00,1.334e+00,2.222e+00,2.267e+00,1.512e+00,3.025e+00,2.436e+00,2.884e+00,2.881e+00,3.227e+00,3.844e+00,3.356e+00,5.100e+00,3.765e+00,5.522e+00,5.177e+00,5.455e+00,5.665e+00,4.470e+00,4.941e+00,5.908e+00,4.312e+00,4.419e+00,5.321e+00,4.660e+00,5.400e+00,4.985e+00,4.924e+00,5.879e+00,4.606e+00,4.512e+00,5.713e+00,4.039e+00,5.567e+00,4.164e+00,5.132e+00,5.167e+00,5.366e+00,6.225e+00,5.539e+00,6.556e+00,5.801e+00,4.979e+00,5.722e+00,5.327e+00,4.527e+00,5.604e+00,4.852e+00,5.055e+00,5.043e+00,4.244e+00,5.684e+00,5.125e+00,5.233e+00,5.003e+00,4.869e+00,4.940e+00,6.584e+00,3.659e+00,4.341e+00,6.483e+00,5.908e+00,5.063e+00,4.176e+00,4.312e+00,5.515e+00,5.169e+00,4.633e+00,4.622e+00,3.820e+00,3.923e+00,4.571e+00,5.467e+00,5.899e+00,5.618e+00,6.492e+00,4.591e+00,4.481e+00
1.261e-01,1.666e-01,2.149e-01,4.587e-01,6.992e-01,8.155e-01,6.824e-01,7.929e-01,1.815e+00,1.167e+00,1.284e+00,1.274e+00,1.860e+00,2.728e+00,2.596e+00,3.585e+00,2.933e+00,3.572e+00,3.911e+00,4.040e+00,3.903e+00,3.092e+00,4.725e+00,4.724e+00,2.962e+00,4.033e+00,3.291e+00,3.939e+00,4.420e+00,3.420e+00,4.168e+00,4.680e+00,2.701e+00,3.342e+00,3.923e+00,2.925e+00,4.983e+00,3.539e+00,3.414e+00,4.063e+00,4.266e+00,4.323e+00,3.511e+00,4.043e+00,4.312e+00,2.489e+00,4.572e+00,3.806e+00,3.051e+00,4.145e+00,4.411e+00,3.959e+00,3.428e+00,2.503e+00,4.590e+00,3.812e+00,4.087e+00,4.284e+00,3.312e+00,4.682e+00,3.957e+00,2.852e+00,4.241e+00,5.529e+00,4.525e+00,4.545e+00,4.059e+00,3.600e+00,3.442e+00,4.274e+00,4.149e+00,4.592e+00,2.472e+00,2.952e+00,3.854e+00,3.931e+00,4.464e+00,4.585e+00,5.307e+00,3.628e+00,3.649e+00
7.793e-01,1.149e+00,7.976e-01,7.289e-01,1.346e+00,1.990e+00,1.654e+00,1.526e+00,3.114e+00,2.140e+00,2.181e+00,3.010e+00,3.329e+00,4.139e+00,4.163e+00,4.288e+00,3.851e+00,4.636e+00,5.014e+00,5.734e+00,4.819e+00,5.095e+00,5.926e+00,5.821e+00,4.556e+00,4.917e+00,5.661e+00,5.102e+00,6.315e+00,5.254e+00,6.129e+00,5.786e+00,4.815e+00,4.864e+00,5.836e+00,4.857e+00,6.558e+00,4.484e+00,5.021e+00,5.128e+00,4.487e+00,6.357e+00,5.232e+00,6.682e+00,6.166e+00,4.208e+00,6.207e+00,5.337e+00,5.143e+00,5.919e+00,6.091e+00,5.235e+00,5.016e+00,3.805e+00,6.623e+00,6.448e+00,5.015e+00,6.136e+00,4.647e+00,5.436e+00,5.527e+00,4.720e+00,4.962e+00,6.432e+00,6.393e+00,6.356e+00,5.115e+00,4.970e+00,5.497e+00,5.318e+00,5.063e+00,6.663e+00,3.551e+00,4.379e+00,5.799e+00,5.127e+00,5.760e+00,6.164e+00,5.862e+00,4.714e+00,5.371e+00
4.788e-01,7.514e-01,8.673e-01,1.153e+00,1.670e+00,2.376e+00,2.431e+00,2.017e+00,3.396e+00,2.438e+00,2.488e+00,3.190e+00,3.926e+00,5.556e+00,4.341e+00,5.197e+00,4.090e+00,5.308e+00,5.605e+00,6.187e+00,6.722e+00,5.951e+00,7.220e+00,7.351e+00,5.081e+00,6.281e+00,6.583e+00,6.446e+00,7.033e+00,6.403e+00,6.865e+00,7.498e+00,5.222e+00,5.713e+00,7.328e+00,5.130e+00,7.331e+00,6.127e+00,6.467e+00,5.704e+00,6.440e+00,7.575e+00,6.979e+00,8.528e+00,7.805e+00,6.105e+00,7.038e+00,5.646e+00,5.297e+00,7.654e+00,6.239e+00,6.417e+00,6.165e+00,5.390e+00,7.692e+00,6.839e+00,5.861e+00,7.654e+00,5.640e+00,6.488e+00,7.766e+00,6.250e+00,6.369e+00,7.516e+00,7.442e+00,7.725e+00,6.414e+00,6.368e+00,6.784e+00,6.845e+00,6.155e+00,6.973e+00,4.793e+00,4.853e+00,6.279e+00,5.928e+00,7.636e+00,7.251e+00,7.097e+00,6.028e+00,6.559e+00
3.129e-01,3.883e-01,7.239e-01,6.281e-01,8.796e-01,1.254e+00,1.693e+00,1.653e+00,2.416e+00,1.869e+00,2.156e+00,2.977e+00,2.559e+00,3.450e+00,3.486e+00,4.928e+00,3.401e+00,4.879e+00,4.769e+00,5.694e+00,5.501e+00,5.642e+00,6.194e+00,6.640e+00,5.490e+00,6.073e+00,5.571e+00,5.891e+00,5.976e+00,5.613e+00,5.545e+00,6.763e+00,4.609e+00,4.682e+00,7.044e+00,4.948e+00,5.502e+00,5.543e+00,5.737e+00,5.596e+00,6.033e+00,6.981e+00,6.394e+00,7.306e+00,7.534e+00,5.400e+00,6.837e+00,6.445e+00,5.170e+00,5.820e+00,5.907e+00,5.911e+00,4.793e+00,5.592e+00,6.243e+00,5.243e+00,6.958e+00,5.819e+00,4.329e+00,5.450e+00,7.490e+00,4.874e+00,5.531e+00,7.226e+00,6.625e+00,6.640e+00,5.390e+00,5.100e+00,6.369e+00,5.890e+00,4.916e+00,5.689e+00,4.211e+00,5.485e+00,5.840e+00,6.745e+00,7.076e+00,5.483e+00,7.636e+00,5.412e+00,4.631e+00
5.300e-01,8.139e-01,4.859e-01,7.841e-01,5.296e-01,1.230e+00,8.232e-01,7.229e-01,2.290e+00,1.557e+00,2.087e+00,1.952e+00,2.682e+00,2.833e+00,3.389e+00,4.499e+00,3.414e+00,4.494e+00,4.859e+00,4.426e+00,5.562e+00,4.702e+00,5.444e+00,5.822e+00,4.966e+00,5.916e+00,4.904e+00,5.835e+00,6.177e+00,5.301e+00,5.783e+00,7.597e+00,5.533e+00,4.637e+00,6.469e+00,4.885e+00,6.601e+00,4.989e+00,4.830e+00,5.488e+00,6.419e+00,6.859e+00,5.802e+00,6.798e+00,7.183e+00,4.461e+00,6.801e+00,5.852e+00,4.985e+00,5.722e+00,4.688e+00,4.979e+00,5.740e+00,4.419e+00,5.678e+00,5.796e+00,6.432e+00,6.212e+00,4.153e+00,5.746e+00,7.221e+00,4.792e+00,5.762e+00,7.018e+00,6.867e+00,6.274e+00,5.217e+00,5.495e+00,5.746e+00,5.708e+00,6.433e+00,6.515e+00,4.494e+00,4.867e+00,5.497e+00,6.344e+00,7.000e+00,5.957e+00,7.491e+00,5.524e+00,4.996e+00
9.342e-01,1.233e+00,8.519e-01,8.993e-01,1.672e+00,2.161e+00,1.348e+00,1.591e+00,2.986e+00,2.137e+00,2.403e+00,3.643e+00,4.434e+00,4.873e+00,4.381e+00,6.061e+00,4.485e+00,5.685e+00,5.727e+00,5.206e+00,5.441e+00,5.800e+00,7.206e+00,7.812e+00,6.581e+00,7.021e+00,6.323e+00,7.442e+00,6.216e+00,6.994e+00,7.864e+00,7.321e+00,6.013e+00,4.618e+00,7.101e+00,6.684e+00,7.537e+00,6.757e+00,6.374e+00,6.836e+00,6.396e+00,7.516e+00,7.774e+00,9.119e+00,7.570e+00,6.181e+00,8.159e+00,6.902e+00,6.556e+00,7.787e+00,6.884e+00,7.224e+00,6.922e+00,5.348e+00,8.757e+00,7.175e+00,7.826e+00,7.916e+00,5.686e+00,7.930e+00,7.829e+00,5.168e+00,7.206e+00,7.829e+00,8.042e+00,8.718e+00,7.763e+00,5.917e+00,7.050e+00,7.533e+00,6.279e+00,8.002e+00,5.955e+00,5.959e+00,7.738e+00,6.520e+00,8.310e+00,7.518e+00,7.882e+00,6.354e+00,5.632e+00
4.008e-02,2.622e-01,4.672e-01,3.350e-01,1.199e+00,1.292e+00,1.221e+00,1.119e+00,2.059e+00,1.294e+00,1.904e+00,1.686e+00,3.112e+00,3.017e+00,1.964e+00,3.207e+00,2.522e+00,3.298e+00,3.446e+00,3.443e+00,3.671e+00,3.402e+00,3.621e+00,5.110e+00,3.612e+00,3.892e+00,4.814e+00,4.634e+00,5.126e+00,3.996e+00,5.299e+00,3.970e+00,4.564e+00,3.288e+00,6.024e+00,4.281e+00,5.052e+00,4.590e+00,5.428e+00,4.473e+00,3.999e+00,4.963e+00,5.427e+00,6.197e+00,5.500e+00,4.187e+00,5.831e+00,4.410e+00,4.483e+00,4.901e+00,4.351e+00,5.273e+00,3.794e+00,3.885e+00,5.091e+00,3.829e+00,6.037e+00,5.195e+00,4.574e+00,4.498e+00,5.085e+00,3.795e+00,4.894e+00,5.175e+00,4.760e+00,5.088e+00,4.901e+00,4.691e+00,4.952e+00,4.420e+00,4.022e+00,5.313e+00,3.996e+00,4.720e+00,5.109e+00,4.563e+00,4.708e+00,4.595e+00,5.530e+00,4.784e+00,3.732e+00
3.732e-01,8.079e-01,7.761e-01,9.917e-01,5.283e-01,1.432e+00,1.320e+00,1.126e+00,2.226e+00,1.434e+00,2.006e+00,2.787e+00,2.668e+00,4.105e+00,3.620e+00,4.398e+00,2.760e+00,4.845e+00,4.892e+00,5.092e+00,5.442e+00,5.007e+00,6.276e+00,6.807e+00,6.992e+00,7.397e+00,7.022e+00,6.888e+00,7.682e+00,7.433e+00,8.095e+00,8.597e+00,6.815e+00,6.255e+00,8.482e+00,6.259e+00,7.528e+00,6.543e+00,7.094e+00,6.973e+00,7.904e+00,8.383e+00,7.489e+00,9.130e+00,8.352e+00,6.670e+00,8.446e+00,7.429e+00,6.308e+00,8.110e+00,7.496e+00,7.615e+00,7.816e+00,6.571e+00,8.087e+00,7.924e+00,8.326e+00,8.203e+00,6.874e+00,7.215e+00,9.275e+00,6.305e+00,6.448e+00,8.547e+00,8.008e+00,8.573e+00,7.437e+00,6.278e+00,7.687e+00,7.715e+00,6.306e+00,8.893e+00,6.177e+00,6.292e+00,7.850e+00,7.341e+00,8.328e+00,7.695e+00,8.911e+00,7.028e+00,5.574e+00
6.330e-01,1.086e+00,9.855e-01,1.223e+00,1.596e+00,2.451e+00,2.317e+00,2.064e+00,3.563e+00,2.260e+00,2.636e+00,4.079e+00,4.034e+00,5.113e+00,4.712e+00,5.803e+00,4.102e+00,5.837e+00,4.808e+00,6.090e+00,5.568e+00,5.425e+00,6.236e+00,6.744e+00,6.689e+00,7.347e+00,8.328e+00,7.563e+00,8.814e+00,8.613e+00,8.146e+00,9.044e+00,7.455e+00,6.589e+00,9.001e+00,8.112e+00,8.384e+00,7.207e+00,7.757e+00,7.647e+00,7.172e+00,9.664e+00,8.466e+00,9.579e+00,9.374e+00,6.167e+00,9.174e+00,7.553e+00,7.444e+00,8.887e+00,7.834e+00,7.890e+00,7.788e+00,6.693e+00,8.792e+00,8.756e+00,9.475e+00,9.636e+00,7.568e+00,7.432e+00,8.812e+00,6.534e+00,7.520e+00,8.975e+00,8.374e+00,9.092e+00,8.257e+00,6.429e+00,7.987e+00,8.377e+00,7.557e+00,8.556e+00,6.348e+00,7.472e+00,8.061e+00,7.660e+00,8.738e+00,8.680e+00,9.773e+00,7.439e+00,6.373e+00
3.086e-01,6.490e-01,5.599e-01,6.201e-01,3.083e-01,9.335e-01,1.231e+00,1.369e+00,2.638e+00,1.393e+00,1.741e+00,2.192e+00,1.629e+00,3.319e+00,3.130e+00,3.175e+00,2.931e+00,3.475e+00,3.319e+00,4.548e+00,3.902e+00,3.822e+00,4.787e+00,5.714e+00,5.731e+00,5.688e+00,4.989e+00,6.772e+00,6.341e+00,4.960e+00,6.589e+00,6.610e+00,4.238e+00,5.469e+00,6.824e+00,5.793e+00,5.942e+00,5.608e+00,6.158e+00,6.348e+00,6.681e+00,8.355e+00,6.648e+00,6.515e+00,7.582e+00,5.969e+00,6.770e+00,5.929e+00,4.678e+00,7.129e+00,6.236e+00,6.297e+00,6.972e+00,5.615e+00,6.914e+00,6.329e+00,6.940e+00,7.900e+00,5.062e+00,5.179e+00,7.700e+00,6.238e+00,6.160e+00,7.071e+00,6.481e+00,7.434e+00,5.856e+00,5.726e+00,7.197e+00,6.729e+00,5.237e+00,6.093e+00,5.730e+00,6.181e+00,6.301e+00,6.027e+00,7.360e+00,5.751e+00,6.848e+00,5.621e+00,5.465e+00
2.336e-01,8.467e-01,9.393e-01,1.184e+00,6.973e-01,1.823e+00,1.627e+00,8.909e-01,2.328e+00,1.502e+00,2.016e+00,2.108e+00,2.376e+00,3.510e+00,2.974e+00,3.598e+00,2.305e+00,3.704e+00,3.365e+00,3.695e+00,4.042e+00,3.234e+00,4.228e+00,5.248e+00,4.933e+00,5.758e+00,5.536e+00,5.894e+00,7.270e+00,5.876e+00,6.639e+00,7.430e+00,6.172e+00,5.270e+00,7.018e+00,5.672e+00,6.375e+00,6.941e+00,6.306e+00,6.448e+00,6.255e+00,8.561e+00,6.893e+00,7.876e+00,7.911e+00,5.397e+00,7.658e+00,6.803e+00,5.590e+00,7.573e+00,6.460e+00,6.424e+00,7.515e+00,5.640e+00,7.091e+00,7.093e+00,7.198e+00,7.964e+00,5.501e+00,5.737e+00,7.382e+00,6.759e+00,6.999e+00,7.609e+00,6.072e+00,6.725e+00,6.537e+00,5.658e+00,6.244e+00,7.178e+00,5.162e+00,6.141e+00,6.486e+00,6.330e+00,6.834e+00,7.104e+00,6.958e+00,6.394e+00,7.208e+00,6.907e+00,5.813e+00
3.126e-01,6.835e-01,7.133e-01,6.584e-01,9.447e-01,1.611e+00,1.868e+00,1.598e+00,2.830e+00,1.838e+00,2.245e+00,2.300e+00,2.704e+00,3.829e+00,3.538e+00,4.204e+00,3.480e+00,4.536e+00,4.500e+00,5.703e+00,5.706e+00,5.555e+00,5.836e+00,6.834e+00,5.485e+00,6.429e+00,7.459e+00,7.478e+00,8.901e+00,6.466e+00,8.445e+00,8.530e+00,6.639e+00,6.529e+00,8.919e+00,6.862e+00,8.350e+00,7.363e+00,7.423e+00,7.720e+00,8.131e+00,9.563e+00,8.389e+00,9.515e+00,9.426e+00,7.015e+00,8.801e+00,8.041e+00,6.650e+00,7.862e+00,7.959e+00,8.325e+00,7.519e+00,7.054e+00,8.518e+00,7.838e+00,9.038e+00,8.668e+00,7.031e+00,6.840e+00,8.582e+00,7.252e+00,7.527e+00,9.013e+00,8.809e+00,9.024e+00,7.461e+00,6.840e+00,8.935e+00,7.488e+00,6.259e+00,7.986e+00,6.844e+00,7.433e+00,8.150e+00,7.960e+00,8.448e+00,7.074e+00,9.387e+00,7.337e+00,7.129e+00
8.584e-01,9.159e-01,6.659e-01,8.617e-01,1.666e+00,2.038e+00,1.653e+00,1.889e+00,3.371e+00,2.566e+00,2.473e+00,3.320e+00,3.983e+00,4.602e+00,4.215e+00,5.172e+00,4.044e+00,5.154e+00,4.849e+00,5.675e+00,4.915e+00,5.501e+00,6.052e+00,6.574e+00,6.047e+00,5.992e+00,7.398e+00,7.708e+00,7.686e+00,7.175e+00,8.167e+00,8.395e+00,6.399e+00,7.008e+00,9.149e+00,8.004e+00,9.132e+00,7.562e+00,7.952e+00,7.974e+00,6.780e+00,9.551e+00,8.813e+00,9.133e+00,8.557e+00,7.097e+00,8.646e+00,7.038e+00,6.624e+00,8.738e+00,9.250e+00,8.176e+00,8.292e+00,7.502e+00,9.526e+00,8.923e+00,8.606e+00,8.996e+00,7.138e+00,6.959e+00,8.248e+00,6.086e+00,7.306e+00,7.596e+00,9.132e+00,9.419e+00,7.530e+00,7.019e+00,8.826e+00,8.180e+00,7.402e+00,8.731e+00,6.164e+00,6.629e+00,8.502e+00,6.807e+00,8.550e+00,8.243e+00,8.688e+00,7.002e+00,7.437e+00
4.177e-01,7.531e-01,1.145e+00,1.018e+00,1.966e+00,2.310e+00,2.004e+00,1.830e+00,3.222e+00,2.188e+00,2.077e+00,3.607e+00,3.275e+00,4.509e+00,4.089e+00,5.099e+00,4.284e+00,5.559e+00,5.468e+00,6.923e+00,5.487e+00,6.092e+00,7.168e+00,7.758e+00,6.810e+00,7.403e+00,9.044e+00,7.736e+00,9.317e+00,8.329e+00,8.582e+00,9.497e+00,8.437e+00,8.192e+00,1.054e+01,9.640e+00,1.024e+01,9.172e+00,9.292e+00,9.630e+00,8.866e+00,1.130e+01,1.029e+01,1.130e+01,1.039e+01,8.315e+00,1.098e+01,8.703e+00,7.996e+00,9.780e+00,1.217e+01,1.015e+01,9.091e+00,8.957e+00,1.063e+01,1.097e+01,1.125e+01,1.064e+01,9.915e+00,8.430e+00,9.679e+00,6.743e+00,9.436e+00,1.152e+01,1.003e+01,1.001e+01,9.024e+00,8.132e+00,9.511e+00,1.000e+01,7.807e+00,1.029e+01,7.239e+00,7.903e+00,9.696e+00,1.002e+01,1.019e+01,1.024e+01,1.116e+01,9.862e+00,7.656e+00
6.528e-01,6.381e-01,8.250e-01,1.118e+00,1.647e+00,2.022e+00,1.722e+00,1.664e+00,2.838e+00,2.402e+00,2.162e+00,3.174e+00,3.113e+00,3.441e+00,3.292e+00,5.101e+00,3.272e+00,4.563e+00,4.364e+00,4.856e+00,4.576e+00,4.903e+00,5.288e+00,5.917e+00,5.366e+00,5.638e+00,6.754e+00,7.018e+00,7.662e+00,6.884e+00,7.130e+00,9.336e+00,7.133e+00,6.418e+00,9.010e+00,8.520e+00,8.994e+00,9.053e+00,7.980e+00,8.975e+00,7.677e+00,9.663e+00,1.005e+01,9.852e+00,8.900e+00,7.552e+00,8.551e+00,8.294e+00,6.450e+00,9.617e+00,1.024e+01,9.009e+00,9.340e+00,8.473e+00,1.041e+01,9.524e+00,1.036e+01,9.523e+00,7.397e+00,6.985e+00,8.394e+00,6.048e+00,8.903e+00,9.760e+00,9.537e+00,8.982e+00,7.757e+00,7.619e+00,9.312e+00,9.540e+00,8.321e+00,9.291e+00,7.032e+00,7.442e+00,9.629e+00,8.869e+00,9.662e+00,8.410e+00,9.095e+00,8.222e+00,8.802e+00
1.557e-01,7.931e-01,1.234e+00,9.058e-01,1.439e+00,2.033e+00,1.630e+00,1.053e+00,2.230e+00,1.363e+00,1.697e+00,2.979e+00,2.694e+00,3.750e+00,2.754e+00,3.522e+00,3.149e+00,3.953e+00,4.813e+00,4.837e+00,3.924e+00,4.611e+00,6.079e+00,5.674e+00,6.103e+00,5.694e+00,6.854e+00,5.820e+00,6.941e+00,6.349e+00,7.648e+00,7.576e+00,7.279e+00,6.569e+00,8.340e+00,7.730e+00,8.647e+00,7.242e+00,7.671e+00,7.943e+00,7.498e+00,9.397e+00,8.751e+00,9.550e+00,9.206e+00,7.572e+00,9.648e+00,7.134e+00,7.669e+00,8.490e+00,8.968e+00,8.754e+00,8.535e+00,8.093e+00,8.887e+00,8.830e+00,7.844e+00,9.048e+00,8.291e+00,7.317e+00,9.138e+00,6.845e+00,7.610e+00,9.443e+00,8.016e+00,7.652e+00,8.470e+00,7.192e+00,8.977e+00,8.284e+00,6.503e+00,9.005e+00,6.491e+00,7.473e+00,8.680e+00,7.621e+00,9.017e+00,7.279e+00,9.346e+00,8.264e+00,7.097e+00
9.004e-01,9.601e-01,8.692e-01,7.821e-01,1.175e+00,1.852e+00,1.905e+00,1.517e+00,2.476e+00,2.452e+00,2.249e+00,2.761e+00,3.051e+00,3.435e+00,3.747e+00,4.265e+00,2.822e+00,3.850e+00,4.137e+00,3.788e+00,5.020e+00,4.448e+00,4.935e+00,5.043e+00,5.699e+00,5.286e+00,5.633e+00,5.733e+00,6.988e+00,6.032e+00,6.123e+00,8.224e+00,6.116e+00,5.175e+00,7.818e+00,6.929e+00,6.603e+00,7.982e+00,6.850e+00,6.771e+00,7.617e+00,9.127e+00,9.167e+00,9.198e+00,8.319e+00,7.106e+00,8.202e+00,7.339e+00,6.050e+00,7.972e+00,7.702e+00,7.791e+00,8.584e+00,7.150e+00,8.027e+00,8.041e+00,7.407e+00,9.099e+00,5.968e+00,6.925e+00,7.941e+00,7.857e+00,8.034e+00,8.292e+00,7.790e+00,7.179e+00,7.479e+00,7.323e+00,7.897e+00,8.909e+00,6.172e+00,7.751e+00,7.055e+00,6.342e+00,8.721e+00,7.515e+00,8.293e+00,6.454e+00,7.600e+00,6.722e+00,8.051e+00
8.663e-01,1.293e+00,1.381e+00,1.533e+00,1.895e+00,3.003e+00,2.466e+00,1.784e+00,3.325e+00,2.898e+00,2.884e+00,3.625e+00,4.074e+00,4.719e+00,3.927e+00,5.616e+00,4.116e+00,5.746e+00,5.749e+00,5.665e+00,5.870e+00,6.171e+00,6.905e+00,7.504e+00,6.053e+00,6.486e+00,8.506e+00,8.128e+00,9.534e+00,8.671e+00,8.632e+00,1.065e+01,9.137e+00,8.498e+00,1.091e+01,1.000e+01,1.216e+01,1.190e+01,1.006e+01,1.148e+01,8.769e+00,1.297e+01,1.193e+01,1.257e+01,1.125e+01,9.472e+00,1.162e+01,1.041e+01,9.883e+00,1.114e+01,1.210e+01,1.154e+01,1.134e+01,1.065e+01,1.287e+01,1.242e+01,1.158e+01,1.178e+01,1.014e+01,9.913e+00,1.189e+01,8.923e+00,1.046e+01,1.202e+01,1.181e+01,9.851e+00,1.081e+01,9.605e+00,1.203e+01,1.109e+01,1.022e+01,1.105e+01,8.792e+00,9.558e+00,1.145e+01,9.593e+00,1.148e+01,9.884e+00,1.198e+01,1.086e+01,1.060e+01
7.152e-02,7.229e-01,1.415e+00,1.675e+00,1.128e+00,2.293e+00,2.195e+00,1.661e+00,3.136e+00,2.073e+00,2.669e+00,3.592e+00,2.835e+00,4.704e+00,3.082e+00,5.756e+00,3.653e+00,5.590e+00,5.144e+00,6.069e+00,4.969e+00,5.424e+00,6.731e+00,6.973e+00,6.902e+00,6.890e+00,8.362e+00,7.125e+00,8.020e+00,7.171e+00,8.907e+00,8.806e+00,8.290e+00,7.494e+00,9.891e+00,7.955e+00,1.015e+01,1.009e+01,1.005e+01,1.101e+01,9.306e+00,1.185e+01,9.904e+00,1.102e+01,1.033e+01,8.686e+00,1.144e+01,9.422e+00,9.972e+00,1.080e+01,1.136e+01,1.112e+01,1.124e+01,8.667e+00,1.118e+01,1.111e+01,1.138e+01,1.130e+01,8.566e+00,1.012e+01,1.182e+01,8.922e+00,9.581e+00,1.161e+01,9.735e+00,9.698e+00,1.030e+01,8.217e+00,1.109e+01,1.061e+01,8.401e+00,1.028e+01,9.216e+00,9.800e+00,1.093e+01,9.695e+00,1.111e+01,9.315e+00,1.150e+01,9.176e+00,8.881e+00
7.781e-01,1.417e+00,1.118e+00,1.366e+00,1.469e+00,2.596e+00,2.087e+00,1.721e+00,3.936e+00,2.468e+00,2.979e+00,4.250e+00,4.279e+00,5.223e+00,4.970e+00,5.939e+00,4.421e+00,6.159e+00,6.768e+00,7.042e+00,6.003e+00,6.397e+00,7.795e+00,8.094e+00,7.150e+00,7.675e+00,8.647e+00,8.580e+00,1.016e+01,8.698e+00,9.630e+00,1.103e+01,9.697e+00,8.900e+00,1.191e+01,1.102e+01,1.301e+01,1.167e+01,1.068e+01,1.240e+01,1.087e+01,1.389e+01,1.301e+01,1.384e+01,1.243e+01,9.948e+00,1.256e+01,1.181e+01,1.071e+01,1.319e+01,1.393e+01,1.215e+01,1.315e+01,1.114e+01,1.304e+01,1.424e+01,1.306e+01,1.384e+01,1.068e+01,1.080e+01,1.227e+01,1.054e+01,1.276e+01,1.435e+01,1.267e+01,1.205e+01,1.139e+01,1.105e+01,1.320e+01,1.301e+01,1.200e+01,1.309e+01,9.911e+00,1.141e+01,1.279e+01,1.249e+01,1.226e+01,1.111e+01,1.293e+01,1.246e+01,1.245e+01
5.139e-01,1.034e+00,1.201e+00,1.510e+00,9.489e-01,2.156e+00,1.764e+00,1.400e+00,3.252e+00,2.434e+00,3.002e+00,3.131e+00,3.333e+00,4.439e+00,3.723e+00,5.897e+00,3.325e+00,5.577e+00,5.380e+00,5.538e+00,4.928e+00,4.581e+00,5.849e+00,7.243e+00,6.090e+00,6.071e+00,6.801e+00,7.224e+00,7.355e+00,6.499e+00,7.866e+00,7.600e+00,6.195e+00,6.875e+00,8.740e+00,7.909e+00,9.755e+00,9.132e+00,8.866e+00,9.963e+00,9.275e+00,1.139e+01,1.061e+01,1.054e+01,9.343e+00,8.189e+00,1.101e+01,9.536e+00,8.790e+00,1.013e+01,1.135e+01,1.028e+01,1.110e+01,7.675e+00,1.019e+01,9.733e+00,9.986e+00,1.094e+01,8.344e+00,9.770e+00,9.978e+00,7.800e+00,1.009e+01,1.059e+01,9.858e+00,9.804e+00,8.557e+00,8.140e+00,1.069e+01,9.838e+00,8.092e+00,8.845e+00,9.252e+00,9.248e+00,9.924e+00,8.650e+00,9.787e+00,9.317e+00,1.127e+01,8.902e+00,8.610e+00
6.139e-01,1.139e+00,1.126e+00,1.146e+00,1.689e+00,2.454e+00,1.727e+00,1.326e+00,3.311e+00,2.311e+00,2.863e+00,2.905e+00,4.128e+00,4.170e+00,3.940e+00,5.596e+00,4.634e+00,5.832e+00,5.842e+00,5.186e+00,5.381e+00,4.574e+00,5.959e+00,7.144e+00,5.951e+00,6.013e+00,7.094e+00,7.876e+00,7.722e+00,7.094e+00,7.514e+00,8.587e+00,7.822e+00,6.925e+00,9.481e+00,9.537e+00,1.072e+01,9.515e+00,9.092e+00,1.132e+01,1.044e+01,1.219e+01,1.159e+01,1.208e+01,1.089e+01,9.030e+00,1.095e+01,9.379e+00,9.255e+00,1.028e+01,1.155e+01,1.085e+01,1.101e+01,9.721e+00,1.112e+01,9.936e+00,1.169e+01,1.197e+01,1.057e+01,1.066e+01,1.110e+01,8.002e+00,1.189e+01,1.180e+01,1.117e+01,9.064e+00,1.012e+01,9.465e+00,1.180e+01,1.081e+01,9.630e+00,8.866e+00,9.611e+00,9.567e+00,1.012e+01,9.853e+00,1.137e+01,1.060e+01,1.151e+01,1.126e+01,8.833e+00
1.179e-01,4.289e-01,7.857e-01,8.303e-01,1.101e+00,1.618e+00,2.004e+00,1.838e+00,2.648e+00,1.615e+00,1.729e+00,2.176e+00,2.064e+00,4.123e+00,3.292e+00,4.245e+00,3.484e+00,4.740e+00,4.198e+00,6.119e+00,5.712e+00,5.266e+00,6.208e+00,7.109e+00,6.025e+00,6.462e+00,7.562e+00,7.989e+00,9.610e+00,7.659e+00,8.861e+00,1.069e+01,8.037e+00,9.081e+00,9.822e+00,9.803e+00,1.077e+01,1.153e+01,1.051e+01,1.281e+01,1.236e+01,1.560e+01,1.228e+01,1.360e+01,1.329e+01,1.058e+01,1.347e+01,1.164e+01,1.080e+01,1.224e+01,1.372e+01,1.343e+01,1.238e+01,1.157e+01,1.319e+01,1.308e+01,1.340e+01,1.363e+01,1.195e+01,1.140e+01,1.428e+01,1.201e+01,1.368e+01,1.386e+01,1.176e+01,1.146e+01,1.211e+01,1.087e+01,1.340e+01,1.447e+01,1.149e+01,1.117e+01,1.025e+01,1.213e+01,1.325e+01,1.161e+01,1.226e+01,1.052e+01,1.400e+01,1.235e+01,1.279e+01
6.340e-01,1.228e+00,1.363e+00,1.434e+00,1.476e+00,2.640e+00,2.363e+00,1.748e+00,3.452e+00,2.527e+00,2.569e+00,3.493e+00,3.212e+00,4.934e+00,4.604e+00,5.145e+00,3.783e+00,5.488e+00,4.651e+00,5.918e+00,5.831e+00,5.781e+00,6.232e+00,7.067e+00,6.571e+00,7.466e+00,7.484e+00,7.091e+00,7.771e+00,7.555e+00,8.691e+00,1.050e+01,8.201e+00,7.345e+00,9.368e+00,9.026e+00,9.454e+00,1.030e+01,9.775e+00,1.084e+01,1.076e+01,1.397e+01,1.233e+01,1.378e+01,1.183e+01,9.704e+00,1.221e+01,1.083e+01,1.093e+01,1.183e+01,1.309e+01,1.175e+01,1.276e+01,9.748e+00,1.290e+01,1.343e+01,1.217e+01,1.318e+01,1.057e+01,1.158e+01,1.280e+01,1.114e+01,1.133e+01,1.330e+01,1.098e+01,1.150e+01,1.189e+01,1.031e+01,1.315e+01,1.267e+01,9.767e+00,1.126e+01,1.067e+01,9.524e+00,1.219e+01,1.221e+01,1.206e+01,1.089e+01,1.144e+01,1.049e+01,1.119e+01
7.506e-01,1.089e+00,9.010e-01,1.142e+00,1.154e+00,2.034e+00,1.913e+00,1.801e+00,3.492e+00,2.410e+00,2.795e+00,3.434e+00,3.728e+00,4.498e+00,4.303e+00,5.757e+00,4.072e+00,5.658e+00,5.472e+00,6.395e+00,5.637e+00,5.445e+00,6.060e+00,7.617e+00,6.960e+00,6.396e+00,7.037e+00,8.296e+00,8.446e+00,6.943e+00,8.969e+00,9.683e+00,7.634e+00,7.425e+00,1.023e+01,9.793e+00,1.093e+01,1.084e+01,9.980e+00,1.045e+01,1.045e+01,1.311e+01,1.160e+01,1.253e+01,1.197e+01,1.052e+01,1.224e+01,1.068e+01,1.068e+01,1.247e+01,1.334e+01,1.240e+01,1.204e+01,1.011e+01,1.290e+01,1.275e+01,1.203e+01,1.294e+01,9.829e+00,1.103e+01,1.235e+01,1.027e+01,1.113e+01,1.316e+01,1.193e+01,1.140e+01,1.103e+01,1.113e+01,1.289e+01,1.187e+01,1.035e+01,1.236e+01,9.835e+00,1.070e+01,1.182e+01,1.047e+01,1.187e+01,9.817e+00,1.239e+01,1.076e+01,1.098e+01
3.446e-01,9.502e-01,1.068e+00,1.055e+00,1.494e+00,2.389e+00,2.548e+00,2.068e+00,3.817e+00,2.276e+00,2.915e+00,3.602e+00,3.835e+00,4.817e+00,3.687e+00,4.278e+00,3.376e+00,4.647e+00,5.069e+00,5.835e+00,5.539e+00,5.395e+00,5.791e+00,6.704e+00,5.670e+00,6.357e+00,7.461e+00,7.151e+00,8.223e+00,7.121e+00,8.190e+00,9.659e+00,8.413e+00,8.203e+00,1.097e+01,1.030e+01,1.148e+01,1.067e+01,1.045e+01,1.077e+01,1.101e+01,1.316e+01,1.289e+01,1.355e+01,1.476e+01,1.142e+01,1.373e+01,1.124e+01,1.123e+01,1.371e+01,1.415e+01,1.404e+01,1.396e+01,1.203e+01,1.341e+01,1.453e+01,1.422e+01,1.448e+01,1.162e+01,1.203e+01,1.335e+01,1.242e+01,1.284e+01,1.457e+01,1.334e+01,1.210e+01,1.288e+01,1.250e+01,1.610e+01,1.365e+01,1.129e+01,1.270e+01,1.043e+01,1.290e+01,1.345e+01,1.255e+01,1.327e+01,1.124e+01,1.250e+01,1.259e+01,1.218e+01
1.270e-01,4.158e-01,6.510e-01,9.677e-01,9.015e-01,1.496e+00,1.710e+00,1.422e+00,2.816e+00,1.660e+00,1.905e+00,2.778e+00,2.341e+00,3.874e+00,3.328e+00,4.212e+00,3.460e+00,4.350e+00,5.086e+00,6.123e+00,5.191e+00,5.832e+00,6.749e+00,6.743e+00,5.836e+00,6.652e+00,7.792e+00,8.215e+00,9.298e+00,6.726e+00,8.796e+00,9.925e+00,7.886e+00,7.597e+00,1.152e+01,8.963e+00,1.124e+01,1.118e+01,1.050e+01,1.168e+01,1.048e+01,1.330e+01,1.122e+01,1.268e+01,1.315e+01,1.168e+01,1.156e+01,1.031e+01,1.029e+01,1.305e+01,1.390e+01,1.332e+01,1.187e+01,1.184e+01,1.209e+01,1.292e+01,1.248e+01,1.306e+01,9.425e+00,1.059e+01,1.301e+01,1.201e+01,1.185e+01,1.381e+01,1.303e+01,1.140e+01,1.249e+01,1.253e+01,1.323e+01,1.173e+01,1.062e+01,1.347e+01,9.884e+00,1.093e+01,1.227e+01,1.187e+01,1.186e+01,1.062e+01,1.278e+01,1.189e+01,1.208e+01
4.332e-02,5.181e-01,1.162e+00,8.525e-01,1.637e+00,1.939e+00,1.755e+00,1.715e+00,2.831e+00,1.705e+00,2.118e+00,2.466e+00,2.796e+00,3.920e+00,2.671e+00,4.624e+00,3.041e+00,4.651e+00,4.431e+00,4.749e+00,4.643e+00,4.040e+00,5.158e+00,5.937e+00,5.490e+00,5.033e+00,5.853e+00,6.159e+00,6.896e+00,5.995e+00,7.291e+00,7.305e+00,6.901e+00,6.315e+00,6.825e+00,7.593e+00,7.791e+00,7.866e+00,7.645e+00,8.804e+00,9.369e+00,1.020e+01,8.823e+00,1.038e+01,1.063e+01,9.098e+00,1.247e+01,9.449e+00,1.027e+01,1.211e+01,1.178e+01,1.055e+01,1.138e+01,8.116e+00,1.003e+01,1.017e+01,1.180e+01,1.202e+01,9.150e+00,1.093e+01,1.064e+01,9.987e+00,1.130e+01,1.116e+01,1.005e+01,1.031e+01,1.070e+01,9.623e+00,1.200e+01,1.142e+01,8.338e+00,9.934e+00,9.153e+00,1.077e+01,1.013e+01,1.031e+01,1.163e+01,9.139e+00,1.131e+01,1.108e+01,8.887e+00
4.397e-02,5.808e-01,1.000e+00,9.120e-01,1.178e+00,1.928e+00,2.301e+00,1.494e+00,2.922e+00,1.723e+00,2.310e+00,3.034e+00,2.922e+00,3.875e+00,3.418e+00,4.017e+00,3.504e+00,4.026e+00,4.171e+00,5.451e+00,4.971e+00,3.924e+00,4.833e+00,5.138e+00,5.393e+00,6.228e+00,6.648e+00,5.654e+00,7.638e+00,6.060e+00,7.106e+00,9.055e+00,7.578e+00,6.568e+00,9.103e+00,7.546e+00,8.150e+00,8.036e+00,9.182e+00,9.745e+00,1.031e+01,1.230e+01,1.040e+01,1.173e+01,1.285e+01,9.198e+00,1.185e+01,9.877e+00,1.138e+01,1.195e+01,1.359e+01,1.300e+01,1.248e+01,1.109e+01,1.089e+01,1.201e+01,1.253e+01,1.279e+01,1.139e+01,1.112e+01,1.104e+01,1.177e+01,1.308e+01,1.360e+01,1.081e+01,1.098e+01,1.283e+01,1.047e+01,1.283e+01,1.203e+01,1.001e+01,1.026e+01,1.040e+01,1.112e+01,1.292e+01,1.327e+01,1.241e+01,1.161e+01,1.233e+01,1.282e+01,1.023e+01
5.255e-01,6.049e-01,2.867e-01,4.877e-01,6.879e-01,1.019e+00,8.006e-01,1.199e+00,2.087e+00,1.451e+00,1.939e+00,1.898e+00,2.880e+00,3.141e+00,2.680e+00,4.410e+00,3.003e+00,4.322e+00,4.490e+00,4.121e+00,4.130e+00,3.787e+00,5.120e+00,6.270e+00,5.006e+00,4.756e+00,4.768e+00,6.560e+00,6.771e+00,5.463e+00,6.863e+00,7.267e+00,5.638e+00,5.451e+00,7.262e+00,6.914e+00,8.734e+00,8.702e+00,7.691e+00,1.033e+01,9.477e+00,1.062e+01,9.270e+00,1.085e+01,1.063e+01,8.402e+00,1.121e+01,1.106e+01,1.098e+01,1.111e+01,1.287e+01,1.262e+01,1.147e+01,9.983e+00,1.186e+01,1.155e+01,1.268e+01,1.230e+01,9.709e+00,1.083e+01,1.094e+01,9.529e+00,1.193e+01,1.241e+01,1.170e+01,1.075e+01,1.101e+01,9.703e+00,1.227e+01,1.139e+01,9.825e+00,1.097e+01,9.446e+00,1.102e+01,1.196e+01,9.782e+00,1.196e+01,9.573e+00,1.285e+01,1.159e+01,9.612e+00
5.449e-01,9.723e-01,1.252e+00,1.265e+00,1.283e+00,2.338e+00,2.307e+00,1.735e+00,3.005e+00,2.506e+00,3.051e+00,3.474e+00,3.949e+00,4.674e+00,3.554e+00,5.148e+00,3.232e+00,5.377e+00,5.185e+00,6.081e+00,5.563e+00,5.207e+00,6.009e+00,8.328e+00,7.855e+00,7.435e+00,7.756e+00,8.148e+00,9.372e+00,8.572e+00,9.277e+00,1.024e+01,8.963e+00,7.968e+00,1.108e+01,8.962e+00,9.768e+00,1.105e+01,1.082e+01,1.143e+01,1.080e+01,1.389e+01,1.192e+01,1.389e+01,1.377e+01,1.142e+01,1.402e+01,1.283e+01,1.226e+01,1.463e+01,1.624e+01,1.626e+01,1.475e+01,1.333e+01,1.446e+01,1.411e+01,1.528e+01,1.487e+01,1.238e+01,1.254e+01,1.385e+01,1.229e+01,1.453e+01,1.400e+01,1.450e+01,1.323e+01,1.293e+01,1.212e+01,1.378e+01,1.416e+01,1.099e+01,1.339e+01,1.252e+01,1.335e+01,1.590e+01,1.337e+01,1.408e+01,1.351e+01,1.417e+01,1.428e+01,1.132e+01
4.504e-01,6.602e-01,5.029e-01,4.967e-01,1.256e+00,1.611e+00,1.978e+00,2.079e+00,2.831e+00,1.696e+00,2.352e+00,3.108e+00,4.086e+00,4.619e+00,3.325e+00,4.667e+00,3.372e+00,4.328e+00,4.298e+00,4.864e+00,4.955e+00,4.219e+00,5.140e+00,6.202e+00,5.019e+00,5.279e+00,5.238e+00,6.714e+00,6.668e+00,6.323e+00,7.245e+00,7.987e+00,6.811e+00,6.161e+00,8.546e+00,7.275e+00,8.371e+00,8.377e+00,7.893e+00,8.492e+00,8.731e+00,1.126e+01,9.691e+00,1.186e+01,1.169e+01,1.031e+01,1.129e+01,1.023e+01,1.027e+01,1.309e+01,1.165e+01,1.466e+01,1.300e+01,1.161e+01,1.231e+01,1.177e+01,1.270e+01,1.246e+01,1.059e+01,1.074e+01,1.238e+01,1.063e+01,1.426e+01,1.207e+01,1.402e+01,1.234e+01,1.275e+01,1.099e+01,1.319e+01,1.349e+01,1.007e+01,1.167e+01,9.851e+00,1.266e+01,1.368e+01,1.137e+01,1.335e+01,1.043e+01,1.305e+01,1.193e+01,1.038e+01
4.245e-01,8.534e-01,1.101e+00,9.157e-01,9.901e-01,1.706e+00,1.745e+00,1.528e+00,2.881e+00,1.961e+00,2.471e+00,3.735e+00,3.231e+00,4.297e+00,3.888e+00,5.172e+00,3.162e+00,4.516e+00,4.707e+00,5.112e+00,4.318e+00,4.341e+00,5.483e+00,5.506e+00,5.107e+00,5.509e+00,5.232e+00,5.942e+00,5.259e+00,5.872e+00,6.029e+00,6.396e+00,5.133e+00,6.245e+00,7.348e+00,6.523e+00,7.654e+00,7.556e+00,7.425e+00,8.507e+00,7.963e+00,9.948e+00,8.878e+00,9.361e+00,9.276e+00,7.702e+00,1.040e+01,8.916e+00,1.006e+01,1.064e+01,1.238e+01,1.126e+01,1.082e+01,9.337e+00,1.101e+01,1.121e+01,1.149e+01,1.201e+01,8.503e+00,1.056e+01,1.077e+01,9.343e+00,1.136e+01,1.063e+01,1.171e+01,1.123e+01,1.046e+01,8.766e+00,1.152e+01,1.158e+01,8.643e+00,9.673e+00,8.451e+00,1.100e+01,1.127e+01,1.044e+01,1.200e+01,1.008e+01,1.174e+01,1.045e+01,8.889e+00
3.744e-01,8.566e-01,9.002e-01,1.406e+00,1.440e+00,2.298e+00,1.764e+00,1.652e+00,3.636e+00,2.248e+00,2.675e+00,3.055e+00,3.390e+00,4.476e+00,3.448e+00,5.445e+00,3.784e+00,5.355e+00,5.254e+00,4.971e+00,4.820e+00,5.118e+00,6.414e+00,5.863e+00,5.025e+00,5.704e+00,6.975e+00,6.667e+00,7.765e+00,6.509e+00,7.703e+00,9.052e+00,7.365e+00,6.360e+00,8.732e+00,7.984e+00,1.015e+01,8.477e+00,7.616e+00,9.473e+00,8.314e+00,1.107e+01,9.569e+00,1.134e+01,1.127e+01,8.834e+00,1.139e+01,9.684e+00,9.892e+00,1.089e+01,1.177e+01,1.262e+01,1.283e+01,9.868e+00,1.103e+01,1.200e+01,1.225e+01,1.267e+01,9.484e+00,1.111e+01,1.247e+01,1.018e+01,1.365e+01,1.278e+01,1.354e+01,1.089e+01,1.257e+01,1.066e+01,1.232e+01,1.130e+01,1.136e+01,1.183e+01,9.059e+00,1.108e+01,1.231e+01,1.162e+01,1.280e+01,1.097e+01,1.234e+01,1.162e+01,1.005e+01
1.222e-01,2.385e-01,7.521e-01,8.985e-01,1.412e+00,1.780e+00,1.932e+00,1.556e+00,2.700e+00,2.104e+00,2.481e+00,2.862e+00,3.656e+00,4.524e+00,3.645e+00,5.712e+00,3.475e+00,5.195e+00,5.700e+00,5.944e+00,5.617e+00,5.047e+00,6.681e+00,7.399e+00,5.791e+00,6.839e+00,6.680e+00,7.730e+00,8.196e+00,7.396e+00,8.119e+00,9.181e+00,7.535e+00,6.944e+00,9.694e+00,8.264e+00,9.611e+00,1.045e+01,1.037e+01,1.130e+01,1.003e+01,1.249e+01,1.076e+01,1.263e+01,1.259e+01,1.054e+01,1.292e+01,1.182e+01,1.206e+01,1.400e+01,1.592e+01,1.552e+01,1.389e+01,1.376e+01,1.469e+01,1.463e+01,1.435e+01,1.453e+01,1.149e+01,1.437e+01,1.323e+01,1.298e+01,1.571e+01,1.556e+01,1.582e+01,1.316e+01,1.502e+01,1.349e+01,1.481e+01,1.457e+01,1.190e+01,1.475e+01,1.190e+01,1.451e+01,1.474e+01,1.466e+01,1.475e+01,1.291e+01,1.624e+01,1.443e+01,1.308e+01
6.805e-02,7.489e-01,1.276e+00,1.404e+00,1.116e+00,2.265e+00,2.360e+00,1.576e+00,3.319e+00,2.113e+00,2.580e+00,3.405e+00,2.672e+00,4.678e+00,4.170e+00,5.153e+00,3.985e+00,5.677e+00,4.901e+00,6.603e+00,5.943e+00,5.815e+00,6.710e+00,7.166e+00,6.660e+00,8.087e+00,8.359e+00,7.361e+00,8.524e+00,7.811e+00,8.866e+00,1.066e+01,7.698e+00,8.094e+00,1.051e+01,9.390e+00,1.044e+01,9.525e+00,9.296e+00,1.039e+01,1.134e+01,1.359e+01,1.263e+01,1.232e+01,1.414e+01,1.133e+01,1.429e+01,1.184e+01,1.317e+01,1.456e+01,1.555e+01,1.489e+01,1.471e+01,1.379e+01,1.570e+01,1.425e+01,1.628e+01,1.533e+01,1.306e+01,1.416e+01,1.542e+01,1.361e+01,1.585e+01,1.712e+01,1.634e+01,1.313e+01,1.565e+01,1.420e+01,1.611e+01,1.449e+01,1.310e+01,1.444e+01,1.252e+01,1.497e+01,1.522e+01,1.575e+01,1.660e+01,1.367e+01,1.682e+01,1.562e+01,1.219e+01
5.318e-01,5.921e-01,4.882e-01,9.094e-01,8.069e-01,1.579e+00,1.681e+00,1.334e+00,2.748e+00,2.378e+00,2.808e+00,2.047e+00,3.669e+00,4.057e+00,3.727e+00,5.229e+00,3.119e+00,4.814e+00,4.891e+00,4.279e+00,5.606e+00,3.879e+00,5.200e+00,6.498e+00,4.903e+00,5.932e+00,5.477e+00,7.535e+00,7.793e+00,6.893e+00,6.905e+00,9.435e+00,7.239e+00,7.477e+00,9.473e+00,7.958e+00,9.693e+00,1.012e+01,9.171e+00,1.064e+01,9.447e+00,1.300e+01,1.141e+01,1.159e+01,1.077e+01,9.455e+00,1.133e+01,1.142e+01,1.032e+01,1.264e+01,1.295e+01,1.398e+01,1.503e+01,1.270e+01,1.402e+01,1.344e+01,1.336e+01,1.423e+01,1.046e+01,1.276e+01,1.356e+01,1.159e+01,1.554e+01,1.509e+01,1.531e+01,1.298e+01,1.282e+01,1.227e+01,1.409e+01,1.361e+01,1.244e+01,1.293e+01,1.133e+01,1.324e+01,1.401e+01,1.343e+01,1.448e+01,1.184e+01,1.492e+01,1.346e+01,1.242e+01
3.268e-01,7.767e-01,9.372e-01,1.034e+00,7.738e-01,1.830e+00,1.697e+00,8.239e-01,2.038e+00,1.793e+00,2.083e+00,2.153e+00,2.575e+00,3.645e+00,3.244e+00,3.709e+00,3.111e+00,4.571e+00,4.186e+00,4.953e+00,4.922e+00,4.923e+00,5.362e+00,7.530e+00,5.693e+00,6.702e+00,6.856e+00,6.978e+00,6.840e+00,7.045e+00,7.666e+00,9.046e+00,6.383e+00,6.944e+00,8.768e+00,8.121e+00,9.154e+00,9.207e+00,8.265e+00,1.003e+01,9.632e+00,1.140e+01,1.172e+01,1.181e+01,1.135e+01,1.069e+01,1.242e+01,1.105e+01,1.208e+01,1.257e+01,1.552e+01,1.510e+01,1.356e+01,1.306e+01,1.528e+01,1.449e+01,1.575e+01,1.481e+01,1.327e+01,1.327e+01,1.346e+01,1.256e+01,1.550e+01,1.647e+01,1.623e+01,1.417e+01,1.359e+01,1.246e+01,1.465e+01,1.446e+01,1.291e+01,1.340e+01,1.206e+01,1.341e+01,1.489e+01,1.392e+01,1.498e+01,1.337e+01,1.503e+01,1.505e+01,1.138e+01
4.204e-01,5.370e-01,8.202e-01,8.903e-01,9.794e-01,1.679e+00,1.905e+00,1.281e+00,2.269e+00,2.177e+00,2.302e+00,2.116e+00,2.957e+00,3.831e+00,3.827e+00,4.604e+00,2.488e+00,4.616e+00,4.694e+00,5.155e+00,6.007e+00,4.892e+00,5.320e+00,7.088e+00,5.806e+00,6.209e+00,6.637e+00,7.835e+00,8.454e+00,7.498e+00,7.680e+00,9.901e+00,6.855e+00,7.372e+00,9.084e+00,8.583e+00,8.773e+00,1.059e+01,9.536e+00,1.095e+01,1.117e+01,1.276e+01,1.157e+01,1.296e+01,1.198e+01,1.112e+01,1.211e+01,1.121e+01,1.109e+01,1.355e+01,1.603e+01,1.450e+01,1.339e+01,1.320e+01,1.466e+01,1.485e+01,1.539e+01,1.564e+01,1.219e+01,1.338e+01,1.457e+01,1.464e+01,1.487e+01,1.572e+01,1.637e+01,1.476e+01,1.378e+01,1.348e+01,1.513e+01,1.545e+01,1.178e+01,1.397e+01,1.320e+01,1.364e+01,1.331e+01,1.468e+01,1.610e+01,1.342e+01,1.538e+01,1.603e+01,1.323e+01
4.747e-02,1.482e-01,8.991e-01,8.074e-01,1.831e+00,1.770e+00,1.617e+00,1.609e+00,2.643e+00,1.889e+00,1.879e+00,2.215e+00,2.608e+00,3.591e+00,2.826e+00,4.898e+00,3.527e+00,4.619e+00,4.616e+00,4.576e+00,4.139e+00,3.894e+00,5.829e+00,5.680e+00,5.569e+00,4.907e+00,4.772e+00,6.048e+00,6.381e+00,5.401e+00,6.059e+00,7.395e+00,6.768e+00,4.708e+00,7.108e+00,6.741e+00,7.205e+00,9.113e+00,8.370e+00,1.023e+01,8.486e+00,1.196e+01,9.025e+00,1.218e+01,1.107e+01,9.320e+00,1.125e+01,1.047e+01,1.121e+01,1.235e+01,1.301e+01,1.406e+01,1.266e+01,1.088e+01,1.170e+01,1.233e+01,1.258e+01,1.379e+01,1.111e+01,1.345e+01,1.348e+01,1.250e+01,1.592e+01,1.621e+01,1.379e+01,1.233e+01,1.435e+01,1.346e+01,1.357e+01,1.436e+01,1.157e+01,1.280e+01,1.153e+01,1.316e+01,1.234e+01,1.350e+01,1.393e+01,1.094e+01,1.503e+01,1.372e+01,1.220e+01
3.701e-01,6.622e-01,5.050e-01,6.431e-01,1.017e+00,1.508e+00,1.499e+00,1.604e+00,2.990e+00,1.798e+00,2.470e+00,3.007e+00,3.745e+00,4.668e+00,3.867e+00,5.142e+00,3.918e+00,5.093e+00,5.682e+00,5.474e+00,5.657e+00,4.912e+00,6.823e+00,6.871e+00,6.033e+00,7.011e+00,6.975e+00,6.729e+00,8.438e+00,6.640e+00,8.376e+00,9.012e+00,8.089e+00,6.504e+00,1.010e+01,7.266e+00,9.387e+00,9.093e+00,9.427e+00,1.042e+01,1.015e+01,1.273e+01,1.109e+01,1.319e+01,1.320e+01,1.049e+01,1.360e+01,1.153e+01,1.245e+01,1.306e+01,1.523e+01,1.593e+01,1.458e+01,1.312e+01,1.462e+01,1.478e+01,1.593e+01,1.438e+01,1.353e+01,1.638e+01,1.452e+01,1.520e+01,1.651e+01,1.781e+01,1.564e+01,1.568e+01,1.639e+01,1.398e+01,1.549e+01,1.543e+01,1.362e+01,1.491e+01,1.334e+01,1.622e+01,1.615e+01,1.669e+01,1.545e+01,1.553e+01,1.626e+01,1.624e+01,1.291e+01
2.952e-01,8.601e-01,1.230e+00,1.436e+00,1.500e+00,2.511e+00,2.024e+00,1.310e+00,2.675e+00,2.023e+00,2.308e+00,2.818e+00,3.022e+00,4.511e+00,3.494e+00,4.679e+00,2.794e+00,5.005e+00,4.955e+00,5.324e+00,4.419e+00,4.341e+00,6.314e+00,7.042e+00,6.351e+00,6.674e+00,6.897e+00,6.804e+00,7.099e+00,7.738e+00,7.493e+00,8.007e+00,7.348e+00,6.761e+00,8.538e+00,8.605e+00,9.804e+00,9.824e+00,8.414e+00,9.732e+00,9.453e+00,1.134e+01,1.122e+01,1.204e+01,1.219e+01,9.767e+00,1.233e+01,1.198e+01,1.162e+01,1.250e+01,1.494e+01,1.471e+01,1.315e+01,1.172e+01,1.453e+01,1.389e+01,1.514e+01,1.513e+01,1.389e+01,1.500e+01,1.611e+01,1.455e+01,1.698e+01,1.821e+01,1.765e+01,1.624e+01,1.534e+01,1.328e+01,1.504e+01,1.633e+01,1.399e+01,1.490e+01,1.293e+01,1.544e+01,1.612e+01,1.402e+01,1.625e+01,1.435e+01,1.701e+01,1.644e+01,1.251e+01
6.320e-01,7.096e-01,6.216e-01,1.110e+00,9.160e-01,1.631e+00,1.200e+00,1.024e+00,2.382e+00,2.120e+00,2.249e+00,2.813e+00,2.976e+00,3.351e+00,3.885e+00,5.144e+00,2.824e+00,5.104e+00,4.439e+00,5.248e+00,4.552e+00,4.676e+00,5.113e+00,5.422e+00,5.643e+00,5.935e+00,7.063e+00,6.931e+00,7.643e+00,7.656e+00,7.049e+00,9.186e+00,6.370e+00,6.674e+00,9.220e+00,8.285e+00,9.804e+00,9.635e+00,9.015e+00,1.139e+01,1.023e+01,1.264e+01,1.065e+01,1.198e+01,1.211e+01,1.003e+01,1.295e+01,1.045e+01,1.207e+01,1.323e+01,1.577e+01,1.345e+01,1.385e+01,1.143e+01,1.247e+01,1.456e+01,1.486e+01,1.580e+01,1.330e+01,1.532e+01,1.625e+01,1.498e+01,1.566e+01,1.682e+01,1.738e+01,1.639e+01,1.524e+01,1.435e+01,1.555e+01,1.444e+01,1.377e+01,1.439e+01,1.418e+01,1.493e+01,1.547e+01,1.515e+01,1.558e+01,1.448e+01,1.711e+01,1.633e+01,1.314e+01
3.720e-01,9.371e-01,1.013e+00,1.431e+00,1.404e+00,2.558e+00,2.083e+00,1.534e+00,3.040e+00,2.221e+00,2.757e+00,3.057e+00,3.746e+00,5.134e+00,3.714e+00,5.066e+00,3.183e+00,5.633e+00,4.916e+00,5.357e+00,4.654e+00,5.387e+00,6.483e+00,6.697e+00,6.312e+00,6.486e+00,8.385e+00,6.871e+00,7.697e+00,7.678e+00,8.646e+00,8.098e+00,7.359e+00,6.363e+00,9.394e+00,7.828e+00,9.608e+00,8.956e+00,8.959e+00,1.013e+01,8.513e+00,1.175e+01,1.078e+01,1.268e+01,1.265e+01,1.017e+01,1.234e+01,1.099e+01,1.270e+01,1.304e+01,1.407e+01,1.506e+01,1.306e+01,1.236e+01,1.430e+01,1.317e+01,1.499e+01,1.428e+01,1.419e+01,1.571e+01,1.755e+01,1.682e+01,1.664e+01,1.785e+01,1.906e+01,1.638e+01,1.833e+01,1.538e+01,1.824e+01,1.590e+01,1.449e+01,1.624e+01,1.494e+01,1.753e+01,1.637e+01,1.568e+01,1.772e+01,1.542e+01,1.813e+01,1.731e+01,1.270e+01
4.415e-01,7.522e-01,9.586e-01,7.530e-01,1.594e+00,1.909e+00,1.930e+00,2.098e+00,3.482e+00,2.181e+00,2.445e+00,2.940e+00,3.310e+00,4.096e+00,3.060e+00,4.782e+00,4.225e+00,4.686e+00,5.042e+00,6.067e+00,5.527e+00,5.766e+00,6.114e+00,7.592e+00,6.411e+00,6.032e+00,6.939e+00,8.629e+00,8.259e+00,6.471e+00,8.925e+00,8.797e+00,8.221e+00,7.820e+00,9.982e+00,9.774e+00,1.041e+01,1.038e+01,1.099e+01,1.206e+01,1.085e+01,1.345e+01,1.137e+01,1.274e+01,1.280e+01,1.192e+01,1.360e+01,1.115e+01,1.146e+01,1.487e+01,1.453e+01,1.468e+01,1.448e+01,1.295e+01,1.476e+01,1.497e+01,1.519e+01,1.522e+01,1.273e+01,1.456e+01,1.619e+01,1.391e+01,1.628e+01,1.596e+01,1.843e+01,1.616e+01,1.495e+01,1.615e+01,1.808e+01,1.582e+01,1.439e+01,1.645e+01,1.381e+01,1.643e+01,1.574e+01,1.511e+01,1.680e+01,1.300e+01,1.721e+01,1.539e+01,1.549e+01
4.508e-01,1.015e+00,1.483e+00,1.347e+00,1.890e+00,2.842e+00,2.744e+00,2.171e+00,4.196e+00,3.055e+00,3.244e+00,3.440e+00,3.795e+00,5.673e+00,4.889e+00,5.541e+00,4.308e+00,6.184e+00,5.736e+00,6.622e+00,6.206e+00,5.243e+00,7.028e+00,8.339e+00,6.468e+00,7.789e+00,7.166e+00,8.667e+00,9.146e+00,8.798e+00,8.259e+00,1.000e+01,7.948e+00,8.946e+00,1.050e+01,9.923e+00,1.078e+01,1.117e+01,1.113e+01,1.267e+01,1.119e+01,1.609e+01,1.362e+01,1.401e+01,1.415e+01,1.139e+01,1.416e+01,1.307e+01,1.206e+01,1.468e+01,1.506e+01,1.483e+01,1.463e+01,1.344e+01,1.464e+01,1.514e+01,1.566e+01,1.505e+01,1.532e+01,1.555e+01,1.766e+01,1.629e+01,1.862e+01,1.969e+01,1.924e+01,1.736e+01,1.737e+01,1.652e+01,1.925e+01,1.868e+01,1.622e+01,1.534e+01,1.527e+01,1.847e+01,1.684e+01,1.749e+01,1.777e+01,1.583e+01,1.982e+01,1.781e+01,1.643e+01
9.203e-01,9.099e-01,3.406e-01,7.928e-01,1.248e+00,1.828e+00,1.812e+00,1.818e+00,3.027e+00,2.320e+00,2.414e+00,2.842e+00,3.804e+00,3.989e+00,4.221e+00,5.046e+00,3.887e+00,4.907e+00,4.342e+00,5.336e+00,5.152e+00,4.509e+00,5.404e+00,6.221e+00,6.295e+00,6.086e+00,6.533e+00,6.461e+00,7.546e+00,6.981e+00,6.564e+00,8.557e+00,6.477e+00,6.022e+00,8.143e+00,8.549e+00,8.619e+00,8.089e+00,9.506e+00,1.061e+01,9.422e+00,1.232e+01,1.040e+01,1.169e+01,1.317e+01,9.590e+00,1.220e+01,9.928e+00,1.242e+01,1.341e+01,1.468e+01,1.458e+01,1.290e+01,1.244e+01,1.373e+01,1.477e+01,1.491e+01,1.486e+01,1.293e+01,1.469e+01,1.478e+01,1.517e+01,1.591e+01,1.725e+01,1.861e+01,1.599e+01,1.694e+01,1.495e+01,1.742e+01,1.637e+01,1.603e+01,1.630e+01,1.424e+01,1.709e+01,1.537e+01,1.647e+01,1.791e+01,1.570e+01,1.742e+01,1.742e+01,1.423e+01
4.836e-01,6.049e-01,3.394e-01,9.341e-01,4.285e-01,1.382e+00,1.860e+00,1.587e+00,2.614e+00,1.947e+00,2.296e+00,2.100e+00,2.680e+00,3.944e+00,3.481e+00,4.416e+00,2.654e+00,4.192e+00,4.020e+00,4.492e+00,5.048e+00,3.937e+00,5.227e+00,6.128e+00,5.839e+00,6.007e+00,6.282e+00,6.210e+00,7.823e+00,6.190e+00,6.898e+00,8.912e+00,6.743e+00,6.702e+00,8.708e+00,8.333e+00,8.552e+00,9.744e+00,9.162e+00,1.027e+01,1.021e+01,1.180e+01,1.112e+01,1.169e+01,1.266e+01,9.991e+00,1.188e+01,1.161e+01,1.131e+01,1.337e+01,1.500e+01,1.505e+01,1.440e+01,1.285e+01,1.438e+01,1.483e+01,1.621e+01,1.585e+01,1.274e+01,1.484e+01,1.552e+01,1.571e+01,1.694e+01,1.764e+01,1.742e+01,1.609e+01,1.667e+01,1.579e+01,1.721e+01,1.762e+01,1.527e+01,1.652e+01,1.488e+01,1.709e+01,1.709e+01,1.652e+01,1.816e+01,1.424e+01,1.767e+01,1.773e+01,1.518e+01
4.259e-01,1.042e+00,1.475e+00,1.331e+00,1.612e+00,2.525e+00,2.311e+00,1.672e+00,2.870e+00,1.963e+00,1.755e+00,3.400e+00,2.151e+00,4.266e+00,3.654e+00,3.952e+00,3.303e+00,4.385e+00,4.606e+00,5.951e+00,4.971e+00,5.765e+00,6.907e+00,6.773e+00,7.275e+00,7.453e+00,8.182e+00,7.767e+00,9.181e+00,7.836e+00,9.317e+00,9.880e+00,8.082e+00,7.435e+00,9.899e+00,9.269e+00,1.022e+01,1.032e+01,1.058e+01,1.162e+01,1.119e+01,1.411e+01,1.223e+01,1.441e+01,1.430e+01,1.214e+01,1.320e+01,1.284e+01,1.256e+01,1.481e+01,1.641e+01,1.559e+01,1.441e+01,1.387e+01,1.534e+01,1.635e+01,1.581e+01,1.563e+01,1.462e+01,1.496e+01,1.674e+01,1.634e+01,1.661e+01,1.957e+01,1.922e+01,1.776e+01,1.870e+01,1.741e+01,1.987e+01,1.870e+01,1.600e+01,1.975e+01,1.635e+01,1.840e+01,1.963e+01,1.805e+01,1.936e+01,1.636e+01,1.970e+01,1.867e+01,1.770e+01
2.121e-01,8.930e-01,1.336e+00,1.115e+00,1.147e+00,2.018e+00,1.539e+00,1.156e+00,3.079e+00,2.055e+00,2.728e+00,2.404e+00,2.643e+00,3.500e+00,2.969e+00,4.627e+00,3.264e+00,4.667e+00,4.932e+00,4.621e+00,4.314e+00,3.963e+00,5.104e+00,5.504e+00,6.120e+00,5.272e+00,6.594e+00,6.939e+00,7.515e+00,5.936e+00,8.010e+00,7.936e+00,7.546e+00,6.466e+00,8.152e+00,8.226e+00,9.238e+00,9.728e+00,9.082e+00,1.104e+01,1.005e+01,1.342e+01,1.122e+01,1.238e+01,1.257e+01,9.983e+00,1.170e+01,1.155e+01,1.090e+01,1.196e+01,1.305e+01,1.351e+01,1.323e+01,1.118e+01,1.271e+01,1.371e+01,1.460e+01,1.341e+01,1.335e+01,1.391e+01,1.575e+01,1.517e+01,1.561e+01,1.853e+01,1.637e+01,1.468e+01,1.615e+01,1.655e+01,1.727e+01,1.613e+01,1.500e+01,1.622e+01,1.663e+01,1.951e+01,1.667e+01,1.667e+01,1.761e+01,1.438e+01,1.892e+01,1.713e+01,1.614e+01
3.867e-01,1.055e+00,1.586e+00,1.148e+00,2.026e+00,2.870e+00,3.035e+00,2.412e+00,3.594e+00,2.406e+00,2.806e+00,4.106e+00,3.750e+00,5.107e+00,3.892e+00,5.523e+00,4.723e+00,5.788e+00,5.581e+00,6.487e+00,6.106e+00,6.154e+00,7.328e+00,8.043e+00,7.105e+00,7.622e+00,8.650e+00,8.211e+00,9.840e+00,8.325e+00,9.564e+00,1.049e+01,8.995e+00,7.807e+00,1.065e+01,9.617e+00,1.076e+01,1.065e+01,1.081e+01,1.156e+01,1.034e+01,1.462e+01,1.273e+01,1.507e+01,1.461e+01,1.109e+01,1.403e+01,1.333e+01,1.244e+01,1.413e+01,1.559e+01,1.681e+01,1.553e+01,1.483e+01,1.512e+01,1.544e+01,1.788e+01,1.542e+01,1.666e+01,1.545e+01,1.738e+01,1.630e+01,1.854e+01,1.987e+01,1.947e+01,1.800e+01,2.059e+01,1.667e+01,2.123e+01,1.925e+01,1.679e+01,1.828e+01,1.755e+01,2.095e+01,1.970e+01,2.002e+01,2.141e+01,1.663e+01,2.103e+01,2.014e+01,1.666e+01
3.995e-01,5.597e-01,8.166e-01,6.260e-01,1.231e+00,1.483e+00,1.155e+00,1.105e+00,1.875e+00,1.598e+00,1.620e+00,2.099e+00,2.138e+00,2.199e+00,2.023e+00,3.718e+00,2.876e+00,3.737e+00,3.689e+00,3.925e+00,3.813e+00,4.626e+00,4.407e+00,5.375e+00,4.478e+00,4.554e+00,5.778e+00,5.767e+00,6.426e+00,5.131e+00,6.632e+00,7.554e+00,6.547e+00,5.199e+00,7.863e+00,7.711e+00,8.236e+00,9.272e+00,7.834e+00,9.813e+00,8.529e+00,9.555e+00,9.493e+00,1.048e+01,9.954e+00,8.272e+00,1.090e+01,9.586e+00,1.042e+01,1.131e+01,1.451e+01,1.287e+01,1.131e+01,1.059e+01,1.221e+01,1.293e+01,1.629e+01,1.285e+01,1.255e+01,1.479e+01,1.421e+01,1.355e+01,1.458e+01,1.609e+01,1.684e+01,1.461e+01,1.501e+01,1.419e+01,1.742e+01,1.550e+01,1.436e+01,1.721e+01,1.463e+01,1.617e+01,1.507e+01,1.660e+01,1.679e+01,1.453e+01,1.661e+01,1.743e+01,1.454e+01
7.779e-01,8.006e-01,7.455e-01,7.684e-01,1.138e+00,1.566e+00,1.324e+00,1.351e+00,2.595e+00,2.272e+00,1.963e+00,2.006e+00,2.198e+00,2.567e+00,3.036e+00,4.187e+00,3.428e+00,3.695e+00,3.638e+00,3.873e+00,4.043e+00,3.434e+00,4.301e+00,4.826e+00,4.459e+00,4.715e+00,4.382e+00,5.499e+00,5.311e+00,4.662e+00,5.041e+00,7.040e+00,5.232e+00,5.191e+00,6.351e+00,6.599e+00,7.191e+00,7.202e+00,6.877e+00,8.731e+00,8.534e+00,1.025e+01,9.115e+00,9.514e+00,8.878e+00,8.261e+00,8.705e+00,9.061e+00,9.772e+00,1.050e+01,1.308e+01,1.156e+01,1.174e+01,1.061e+01,1.066e+01,1.219e+01,1.406e+01,1.166e+01,1.192e+01,1.201e+01,1.176e+01,1.128e+01,1.494e+01,1.533e+01,1.635e+01,1.392e+01,1.482e+01,1.350e+01,1.724e+01,1.519e+01,1.492e+01,1.592e+01,1.438e+01,1.612e+01,1.468e+01,1.622e+01,1.873e+01,1.542e+01,1.746e+01,1.711e+01,1.402e+01
3.005e-01,6.834e-01,1.049e+00,1.065e+00,1.785e+00,2.315e+00,2.205e+00,1.807e+00,3.339e+00,2.236e+00,2.236e+00,2.502e+00,2.995e+00,4.276e+00,3.562e+00,4.696e+00,3.797e+00,4.575e+00,4.641e+00,5.465e+00,5.620e+00,5.099e+00,5.957e+00,6.781e+00,4.880e+00,6.200e+00,6.417e+00,7.169e+00,7.411e+00,6.040e+00,7.135e+00,7.736e+00,6.755e+00,6.404e+00,8.409e+00,8.151e+00,8.816e+00,8.976e+00,9.111e+00,9.716e+00,9.922e+00,1.219e+01,1.091e+01,1.214e+01,1.309e+01,1.084e+01,1.308e+01,1.158e+01,1.197e+01,1.404e+01,1.522e+01,1.455e+01,1.361e+01,1.251e+01,1.400e+01,1.472e+01,1.522e+01,1.458e+01,1.289e+01,1.627e+01,1.518e+01,1.561e+01,1.777e+01,1.734e+01,1.891e+01,1.742e+01,1.653e+01,1.738e+01,1.799e+01,1.777e+01,1.689e+01,1.891e+01,1.674e+01,1.944e+01,1.783e+01,1.889e+01,1.806e+01,1.662e+01,2.084e+01,1.970e+01,1.836e+01
8.656e-01,8.877e-01,5.542e-01,1.048e+00,1.537e+00,2.069e+00,1.695e+00,1.899e+00,3.104e+00,2.423e+00,2.347e+00,3.369e+00,3.782e+00,4.610e+00,4.303e+00,5.833e+00,4.260e+00,5.778e+00,5.320e+00,5.735e+00,5.682e+00,6.036e+00,7.309e+00,7.275e+00,6.691e+00,6.974e+00,7.909e+00,7.611e+00,9.305e+00,7.897e+00,8.536e+00,1.092e+01,8.281e+00,7.301e+00,1.105e+01,9.792e+00,1.092e+01,1.150e+01,9.993e+00,1.224e+01,1.103e+01,1.455e+01,1.349e+01,1.437e+01,1.425e+01,1.114e+01,1.428e+01,1.235e+01,1.232e+01,1.453e+01,1.621e+01,1.586e+01,1.526e+01,1.418e+01,1.538e+01,1.495e+01,1.709e+01,1.602e+01,1.391e+01,1.558e+01,1.700e+01,1.580e+01,1.844e+01,1.803e+01,1.871e+01,1.683e+01,1.804e+01,1.721e+01,1.845e+01,1.887e+01,1.880e+01,1.921e+01,1.741e+01,1.895e+01,2.013e+01,1.864e+01,1.987e+01,1.877e+01,2.066e+01,2.105e+01,1.786e+01
6.426e-01,7.113e-01,5.037e-01,3.740e-01,1.162e+00,1.244e+00,1.119e+00,1.388e+00,2.178e+00,1.444e+00,1.510e+00,2.949e+00,2.856e+00,2.911e+00,3.041e+00,4.047e+00,3.049e+00,3.472e+00,3.616e+00,4.177e+00,3.331e+00,4.255e+00,4.663e+00,5.316e+00,4.773e+00,5.136e+00,5.312e+00,6.693e+00,6.731e+00,5.897e+00,6.713e+00,7.331e+00,6.351e+00,5.855e+00,8.352e+00,8.489e+00,8.554e+00,9.056e+00,9.585e+00,1.135e+01,8.648e+00,1.199e+01,1.033e+01,1.156e+01,1.056e+01,9.190e+00,1.164e+01,1.097e+01,1.178e+01,1.125e+01,1.531e+01,1.394e+01,1.291e+01,1.330e+01,1.415e+01,1.510e+01,1.530e+01,1.465e+01,1.159e+01,1.423e+01,1.418e+01,1.318e+01,1.614e+01,1.615e+01,1.741e+01,1.591e+01,1.607e+01,1.430e+01,1.674e+01,1.721e+01,1.588e+01,1.857e+01,1.577e+01,2.025e+01,1.856e+01,1.832e+01,1.849e+01,1.735e+01,1.995e+01,1.882e+01,1.810e+01
5.020e-01,1.018e+00,7.487e-01,8.810e-01,1.116e+00,2.033e+00,2.249e+00,1.706e+00,3.182e+00,1.852e+00,2.439e+00,2.830e+00,3.813e+00,4.569e+00,3.629e+00,4.123e+00,3.909e+00,4.075e+00,4.669e+00,5.701e+00,6.305e+00,4.734e+00,5.463e+00,6.916e+00,5.532e+00,6.647e+00,7.031e+00,6.941e+00,8.481e+00,6.308e+00,7.942e+00,8.745e+00,7.768e+00,7.552e+00,1.017e+01,8.106e+00,1.053e+01,9.798e+00,1.069e+01,9.936e+00,1.108e+01,1.372e+01,1.111e+01,1.268e+01,1.353e+01,1.067e+01,1.395e+01,1.124e+01,1.253e+01,1.395e+01,1.566e+01,1.596e+01,1.531e+01,1.360e+01,1.434e+01,1.536e+01,1.612e+01,1.607e+01,1.560e+01,1.594e+01,1.623e+01,1.709e+01,1.835e+01,1.885e+01,1.843e+01,1.769e+01,1.849e+01,1.824e+01,1.897e+01,1.953e+01,1.780e+01,1.874e+01,1.924e+01,2.100e+01,2.106e+01,2.125e+01,2.160e+01,2.006e+01,2.258e+01,2.141e+01,1.933e+01
5.172e-01,5.104e-01,5.038e-01,9.944e-01,7.752e-01,1.557e+00,1.403e+00,7.825e-01,1.498e+00,1.868e+00,1.936e+00,1.852e+00,2.952e+00,3.427e+00,3.087e+00,4.465e+00,2.376e+00,4.339e+00,4.534e+00,4.615e+00,5.030e+00,4.758e+00,5.539e+00,6.687e+00,6.194e+00,5.987e+00,6.911e+00,6.768e+00,8.311e+00,7.192e+00,7.943e+00,9.363e+00,7.490e+00,5.912e+00,9.245e+00,7.031e+00,8.967e+00,1.098e+01,9.272e+00,1.077e+01,9.372e+00,1.193e+01,1.035e+01,1.338e+01,1.152e+01,1.030e+01,1.168e+01,1.091e+01,1.152e+01,1.319e+01,1.519e+01,1.569e+01,1.375e+01,1.260e+01,1.438e+01,1.438e+01,1.470e+01,1.530e+01,1.283e+01,1.430e+01,1.601e+01,1.500e+01,1.609e+01,1.739e+01,1.828e+01,1.548e+01,1.800e+01,1.682e+01,1.690e+01,1.694e+01,1.559e+01,2.050e+01,1.794e+01,1.886e+01,1.955e+01,1.847e+01,1.910e+01,1.630e+01,2.039e+01,2.057e+01,1.919e+01
7.292e-01,1.015e+00,6.519e-01,4.027e-01,1.132e+00,1.430e+00,1.256e+00,1.367e+00,2.372e+00,1.397e+00,1.744e+00,3.153e+00,3.523e+00,3.827e+00,3.699e+00,4.539e+00,3.673e+00,3.978e+00,4.852e+00,4.133e+00,4.179e+00,3.795e+00,5.536e+00,5.356e+00,4.899e+00,4.888e+00,4.580e+00,7.052e+00,6.846e+00,6.432e+00,6.955e+00,8.189e+00,6.176e+00,6.790e+00,6.960e+00,7.519e+00,9.503e+00,8.282e+00,7.966e+00,1.045e+01,8.270e+00,1.101e+01,8.261e+00,1.057e+01,1.007e+01,8.931e+00,1.123e+01,9.824e+00,1.121e+01,1.253e+01,1.345e+01,1.306e+01,1.398e+01,1.144e+01,1.255e+01,1.309e+01,1.324e+01,1.440e+01,1.212e+01,1.348e+01,1.514e+01,1.341e+01,1.629e+01,1.592e+01,1.795e+01,1.595e+01,1.708e+01,1.406e+01,1.702e+01,1.664e+01,1.499e+01,1.714e+01,1.624e+01,1.878e+01,1.922e+01,1.799e+01,1.989e+01,1.733e+01,2.111e+01,2.084e+01,1.731e+01
2.487e-01,3.974e-01,3.867e-01,4.171e-01,3.361e-01,9.348e-01,1.222e+00,8.351e-01,1.354e+00,1.264e+00,1.898e+00,1.508e+00,2.658e+00,3.036e+00,2.620e+00,3.778e+00,2.490e+00,4.022e+00,4.344e+00,4.120e+00,5.024e+00,4.138e+00,4.943e+00,6.394e+00,5.827e+00,5.721e+00,5.958e+00,6.867e+00,7.689e+00,6.624e+00,8.164e+00,9.999e+00,7.242e+00,6.729e+00,8.742e+00,8.002e+00,9.275e+00,1.048e+01,9.015e+00,1.071e+01,1.013e+01,1.230e+01,1.043e+01,1.251e+01,1.223e+01,1.070e+01,1.285e+01,1.122e+01,1.070e+01,1.356e+01,1.471e+01,1.659e+01,1.500e+01,1.343e+01,1.466e+01,1.430e+01,1.428e+01,1.421e+01,1.364e+01,1.550e+01,1.629e+01,1.526e+01,1.625e+01,1.753e+01,1.732e+01,1.573e+01,1.733e+01,1.662e+01,1.841e+01,1.860e+01,1.578e+01,1.853e+01,1.713e+01,1.970e+01,1.982e+01,1.935e+01,1.941e+01,1.781e+01,2.094e+01,1.967e+01,1.797e+01
4.669e-01,6.778e-01,1.048e+00,9.901e-01,1.720e+00,2.124e+00,1.641e+00,1.622e+00,3.291e+00,2.672e+00,3.155e+00,3.327e+00,4.485e+00,4.920e+00,4.108e+00,6.254e+00,3.695e+00,6.202e+00,6.464e+00,5.448e+00,5.433e+00,5.351e+00,6.680e+00,6.961e+00,7.347e+00,5.967e+00,7.360e+00,8.198e+00,7.773e+00,8.000e+00,9.175e+00,9.562e+00,7.693e+00,7.425e+00,9.443e+00,9.503e+00,1.043e+01,9.706e+00,1.065e+01,1.260e+01,1.058e+01,1.315e+01,1.229e+01,1.410e+01,1.163e+01,1.151e+01,1.378e+01,1.103e+01,1.274e+01,1.447e+01,1.541e+01,1.533e+01,1.600e+01,1.310e+01,1.527e+01,1.518e+01,1.500e+01,1.584e+01,1.383e+01,1.561e+01,1.799e+01,1.475e+01,1.728e+01,1.807e+01,2.018e+01,1.794e+01,1.730e+01,1.756e+01,1.989e+01,1.865e+01,1.771e+01,2.128e+01,1.849e+01,2.136e+01,1.993e+01,2.095e+01,2.305e+01,1.856e+01,2.346e+01,2.301e+01,2.000e+01
8.306e-01,1.296e+00,1.045e+00,9.595e-01,1.233e+00,2.210e+00,1.951e+00,1.318e+00,2.780e+00,2.152e+00,2.514e+00,2.856e+00,3.593e+00,3.437e+00,3.185e+00,3.730e+00,3.200e+00,3.745e+00,4.576e+00,4.222e+00,4.727e+00,4.132e+00,4.482e+00,5.237e+00,4.272e+00,4.511e+00,5.899e+00,6.689e+00,6.769e+00,6.098e+00,5.803e+00,7.106e+00,7.120e+00,6.810e+00,8.668e+00,7.210e+00,9.501e+00,8.781e+00,8.788e+00,9.291e+00,7.395e+00,1.214e+01,9.568e+00,1.121e+01,1.100e+01,9.495e+00,9.928e+00,9.883e+00,9.827e+00,1.126e+01,1.235e+01,1.282e+01,1.373e+01,1.194e+01,1.229e+01,1.237e+01,1.216e+01,1.262e+01,1.191e+01,1.213e+01,1.389e+01,1.293e+01,1.487e+01,1.604e+01,1.667e+01,1.324e+01,1.601e+01,1.543e+01,1.769e+01,1.599e+01,1.535e+01,1.598e+01,1.604e+01,1.862e+01,1.641e+01,1.753e+01,1.916e+01,1.741e+01,1.931e+01,2.052e+01,1.769e+01
2.780e-01,3.016e-01,6.017e-01,9.888e-01,9.210e-01,1.533e+00,1.503e+00,1.209e+00,2.481e+00,2.297e+00,2.729e+00,2.288e+00,3.365e+00,3.819e+00,3.256e+00,4.912e+00,2.746e+00,5.173e+00,4.863e+00,5.016e+00,5.297e+00,4.991e+00,5.214e+00,6.385e+00,5.324e+00,5.499e+00,6.210e+00,6.863e+00,6.981e+00,6.538e+00,7.314e+00,9.459e+00,6.551e+00,6.572e+00,9.650e+00,7.180e+00,8.470e+00,9.163e+00,8.188e+00,9.920e+00,9.554e+00,1.130e+01,1.090e+01,1.179e+01,1.080e+01,9.545e+00,1.055e+01,1.061e+01,9.608e+00,1.245e+01,1.346e+01,1.353e+01,1.315e+01,1.265e+01,1.290e+01,1.254e+01,1.386e+01,1.336e+01,1.147e+01,1.179e+01,1.390e+01,1.232e+01,1.425e+01,1.502e+01,1.696e+01,1.493e+01,1.452e+01,1.565e+01,1.754e+01,1.578e+01,1.635e+01,1.823e+01,1.611e+01,1.773e+01,1.736e+01,1.851e+01,1.980e+01,1.652e+01,1.975e+01,2.065e+01,1.947e+01
