6.447e-01,3.857e-01,9.212e-01,2.863e-01,3.397e-01,7.559e-01,5.934e-01,7.598e-01,2.784e-01,1.197e-01,4.916e-01,4.828e-01,1.712e-01,2.073e-01,5.644e-03,1.481e-01,9.438e-01,1.138e-01,8.466e-01,2.292e-01,8.654e-01,4.130e-01,1.310e-01,2.969e-01,4.779e-01,6.098e-01,4.458e-01,7.272e-01,2.480e-01,2.568e-01,8.808e-01,9.818e-01,5.430e-01,9.114e-01,8.758e-01,1.616e-01,2.414e-01,5.746e-02,4.799e-01,5.019e-01,5.441e-01,4.942e-01,2.531e-01,5.909e-01,3.487e-01,1.384e-01,3.102e-01,7.009e-01,3.190e-02,4.058e-01,8.365e-01,2.050e-01,5.582e-02
5.174e-01,6.399e-01,9.757e-01,6.805e-01,8.871e-01,6.886e-01,6.393e-01,1.487e+00,8.924e-01,1.035e-01,1.242e+00,1.302e+00,7.117e-01,6.147e-01,1.765e-01,1.025e+00,9.903e-01,7.261e-01,1.252e+00,7.389e-01,1.076e+00,9.507e-01,1.075e+00,9.632e-01,5.958e-01,1.174e+00,1.104e+00,1.231e+00,7.627e-01,7.917e-01,7.378e-01,1.588e+00,1.302e+00,1.704e+00,1.349e+00,8.840e-01,2.561e-01,1.689e-01,9.563e-01,8.525e-01,9.031e-01,1.078e+00,5.269e-01,1.351e+00,1.079e+00,3.642e-01,5.181e-01,1.324e+00,6.120e-01,1.014e+00,1.164e+00,3.292e-01,1.421e-01
2.782e-01,4.866e-01,1.060e+00,1.195e+00,9.194e-01,1.223e+00,1.196e+00,1.652e+00,1.053e+00,9.972e-01,1.641e+00,1.678e+00,9.511e-01,9.642e-01,4.557e-01,1.230e+00,7.572e-01,1.434e+00,9.975e-01,7.862e-01,9.156e-01,1.375e+00,1.122e+00,1.315e+00,1.340e+00,1.776e+00,1.794e+00,1.571e+00,9.268e-01,1.195e+00,4.185e-01,1.558e+00,1.685e+00,2.184e+00,1.718e+00,1.460e+00,2.753e-01,5.164e-01,8.705e-01,1.419e+00,1.387e+00,1.740e+00,1.100e+00,1.730e+00,1.864e+00,5.785e-01,9.321e-01,1.301e+00,1.055e+00,1.396e+00,1.174e+00,3.597e-01,1.101e+00
1.365e-01,2.349e-01,5.603e-01,1.534e+00,1.002e+00,7.587e-01,8.600e-01,8.881e-01,9.525e-01,7.557e-01,9.390e-01,1.353e+00,9.505e-01,9.027e-01,7.262e-01,1.541e+00,4.134e-01,1.148e+00,1.057e+00,3.995e-01,1.047e+00,8.950e-01,6.481e-01,7.588e-01,9.197e-01,1.852e+00,1.599e+00,1.243e+00,1.271e+00,1.590e+00,7.443e-01,1.508e+00,1.607e+00,1.663e+00,1.692e+00,1.140e+00,9.689e-01,1.262e+00,1.192e+00,1.558e+00,8.563e-01,1.925e+00,1.547e+00,1.356e+00,1.504e+00,7.382e-01,6.127e-01,1.361e+00,6.043e-01,1.287e+00,7.619e-01,1.003e+00,1.544e+00
1.121e-01,2.707e-01,5.831e-01,1.251e+00,1.782e+00,1.652e+00,1.611e+00,1.092e+00,1.349e+00,1.630e+00,1.200e+00,1.603e+00,1.112e+00,1.664e+00,6.372e-01,2.010e+00,8.999e-01,1.252e+00,1.054e+00,8.340e-01,1.736e+00,1.872e+00,1.036e+00,1.301e+00,1.122e+00,2.521e+00,2.124e+00,2.011e+00,1.716e+00,2.068e+00,1.327e+00,1.583e+00,1.838e+00,2.402e+00,1.647e+00,1.981e+00,1.412e+00,1.585e+00,1.177e+00,1.997e+00,1.691e+00,2.470e+00,1.465e+00,2.129e+00,1.463e+00,8.281e-01,1.487e+00,1.480e+00,1.547e+00,2.015e+00,9.527e-01,1.661e+00,2.211e+00
5.655e-01,5.521e-01,1.256e+00,1.170e+00,1.539e+00,1.897e+00,2.025e+00,1.756e+00,1.427e+00,1.525e+00,1.818e+00,1.922e+00,1.930e+00,2.288e+00,5.882e-01,2.217e+00,1.541e+00,1.805e+00,1.480e+00,1.214e+00,2.609e+00,2.227e+00,1.290e+00,1.894e+00,1.912e+00,3.306e+00,2.549e+00,2.747e+00,1.863e+00,1.973e+00,2.007e+00,2.524e+00,2.017e+00,3.406e+00,2.066e+00,2.634e+00,1.066e+00,1.668e+00,1.371e+00,2.314e+00,2.564e+00,2.442e+00,1.456e+00,2.769e+00,2.168e+00,1.129e+00,1.569e+00,2.315e+00,1.441e+00,2.740e+00,1.934e+00,1.709e+00,2.116e+00
2.244e-01,4.389e-01,7.214e-01,1.243e+00,1.752e+00,1.428e+00,1.546e+00,2.321e+00,2.114e+00,1.875e+00,1.805e+00,2.149e+00,1.740e+00,2.330e+00,1.100e+00,2.930e+00,1.592e+00,2.090e+00,1.746e+00,1.325e+00,2.772e+00,1.917e+00,1.982e+00,2.047e+00,1.871e+00,3.307e+00,2.485e+00,2.837e+00,2.629e+00,2.400e+00,2.000e+00,2.734e+00,2.468e+00,2.998e+00,2.049e+00,3.054e+00,2.026e+00,1.758e+00,2.325e+00,2.006e+00,1.815e+00,2.422e+00,1.429e+00,2.338e+00,2.294e+00,1.637e+00,1.879e+00,2.501e+00,1.651e+00,2.414e+00,1.788e+00,1.771e+00,2.073e+00
3.165e-01,5.089e-01,8.631e-01,1.656e+00,2.097e+00,1.623e+00,1.679e+00,2.126e+00,2.618e+00,1.996e+00,2.439e+00,2.169e+00,1.609e+00,2.651e+00,1.338e+00,3.324e+00,2.095e+00,2.454e+00,1.783e+00,1.195e+00,2.524e+00,3.062e+00,2.061e+00,1.917e+00,1.610e+00,3.853e+00,3.100e+00,3.190e+00,3.188e+00,2.845e+00,2.453e+00,3.388e+00,2.487e+00,3.248e+00,2.511e+00,2.709e+00,1.800e+00,2.655e+00,2.496e+00,3.146e+00,1.946e+00,3.743e+00,2.062e+00,3.209e+00,2.472e+00,1.364e+00,2.471e+00,2.892e+00,2.244e+00,3.291e+00,1.690e+00,2.867e+00,2.463e+00
5.032e-01,3.555e-01,9.401e-01,1.229e+00,1.553e+00,1.713e+00,1.853e+00,2.082e+00,3.122e+00,2.906e+00,2.730e+00,2.142e+00,2.314e+00,2.927e+00,2.209e+00,3.843e+00,2.663e+00,3.206e+00,2.252e+00,1.932e+00,3.781e+00,3.183e+00,2.226e+00,2.596e+00,3.049e+00,4.579e+00,3.026e+00,4.085e+00,3.646e+00,3.052e+00,3.573e+00,4.311e+00,3.051e+00,3.440e+00,2.758e+00,3.556e+00,2.185e+00,3.219e+00,2.818e+00,3.761e+00,3.092e+00,4.084e+00,2.079e+00,3.378e+00,2.568e+00,2.266e+00,3.345e+00,3.152e+00,2.165e+00,3.613e+00,2.886e+00,3.168e+00,2.875e+00
4.613e-01,4.205e-01,7.939e-01,1.033e+00,1.399e+00,1.201e+00,1.240e+00,2.038e+00,2.765e+00,2.221e+00,2.950e+00,2.019e+00,2.144e+00,2.647e+00,1.843e+00,3.904e+00,2.451e+00,3.074e+00,2.821e+00,1.712e+00,3.628e+00,3.558e+00,2.574e+00,2.258e+00,2.129e+00,4.469e+00,3.093e+00,3.654e+00,3.460e+00,3.057e+00,3.697e+00,3.809e+00,3.432e+00,3.487e+00,3.110e+00,2.651e+00,2.713e+00,3.103e+00,2.798e+00,3.843e+00,2.002e+00,3.872e+00,2.113e+00,3.390e+00,2.804e+00,2.507e+00,3.173e+00,2.987e+00,2.810e+00,3.674e+00,2.397e+00,2.786e+00,2.477e+00
5.697e-02,3.363e-01,3.137e-01,1.030e+00,1.025e+00,3.122e-01,6.635e-01,1.585e+00,1.941e+00,1.018e+00,2.470e+00,1.684e+00,2.455e+00,2.434e+00,1.703e+00,3.368e+00,1.678e+00,3.169e+00,2.398e+00,1.358e+00,2.731e+00,2.954e+00,2.600e+00,2.273e+00,1.688e+00,3.331e+00,2.409e+00,2.665e+00,2.509e+00,2.776e+00,1.996e+00,2.896e+00,2.784e+00,3.156e+00,2.741e+00,2.853e+00,2.198e+00,2.443e+00,2.526e+00,2.814e+00,2.368e+00,2.560e+00,1.452e+00,2.545e+00,2.732e+00,2.045e+00,2.480e+00,2.412e+00,1.632e+00,3.038e+00,1.789e+00,2.397e+00,1.684e+00
4.254e-01,3.224e-01,8.192e-01,7.478e-01,1.244e+00,1.531e+00,1.618e+00,1.662e+00,2.270e+00,2.319e+00,2.825e+00,1.784e+00,3.184e+00,3.256e+00,2.019e+00,4.202e+00,2.582e+00,3.326e+00,3.210e+00,2.465e+00,3.971e+00,4.098e+00,2.742e+00,3.054e+00,3.062e+00,5.378e+00,3.798e+00,4.207e+00,3.392e+00,2.975e+00,3.754e+00,3.521e+00,3.187e+00,4.641e+00,3.615e+00,3.781e+00,3.287e+00,3.683e+00,2.569e+00,4.351e+00,3.301e+00,4.203e+00,2.329e+00,3.686e+00,3.150e+00,2.919e+00,4.069e+00,3.081e+00,3.402e+00,4.775e+00,2.424e+00,2.965e+00,3.134e+00
4.438e-01,5.133e-01,8.701e-01,1.487e+00,1.357e+00,8.903e-01,1.165e+00,1.937e+00,2.354e+00,1.438e+00,2.702e+00,2.133e+00,2.761e+00,2.711e+00,2.224e+00,4.420e+00,2.956e+00,3.650e+00,2.926e+00,2.051e+00,4.122e+00,3.331e+00,3.316e+00,2.566e+00,2.274e+00,4.937e+00,3.782e+00,3.758e+00,3.524e+00,2.927e+00,3.759e+00,4.510e+00,3.169e+00,3.810e+00,3.614e+00,3.663e+00,2.270e+00,3.259e+00,3.628e+00,4.143e+00,2.270e+00,4.474e+00,3.264e+00,3.747e+00,3.399e+00,2.483e+00,3.262e+00,3.697e+00,3.037e+00,3.888e+00,3.090e+00,3.082e+00,2.478e+00
6.342e-01,4.446e-01,1.095e+00,8.928e-01,9.386e-01,1.290e+00,1.309e+00,1.767e+00,1.788e+00,1.631e+00,2.030e+00,1.672e+00,1.887e+00,2.072e+00,1.973e+00,3.009e+00,2.625e+00,3.215e+00,3.189e+00,2.416e+00,3.747e+00,3.342e+00,2.421e+00,2.493e+00,2.371e+00,4.606e+00,3.354e+00,3.619e+00,2.521e+00,2.072e+00,3.548e+00,3.546e+00,3.193e+00,3.557e+00,3.494e+00,3.425e+00,2.703e+00,2.677e+00,2.936e+00,3.238e+00,2.900e+00,3.984e+00,2.314e+00,2.914e+00,3.311e+00,2.572e+00,3.464e+00,2.977e+00,2.774e+00,2.733e+00,3.725e+00,2.944e+00,2.621e+00
5.704e-01,4.871e-01,1.109e+00,1.523e+00,1.222e+00,1.237e+00,1.577e+00,2.611e+00,3.015e+00,2.475e+00,3.365e+00,2.648e+00,3.571e+00,3.399e+00,3.156e+00,5.680e+00,3.875e+00,4.962e+00,3.935e+00,3.748e+00,6.016e+00,4.939e+00,4.612e+00,3.724e+00,4.217e+00,6.785e+00,5.028e+00,5.020e+00,4.421e+00,4.248e+00,5.658e+00,5.766e+00,4.827e+00,5.137e+00,5.244e+00,5.215e+00,4.255e+00,4.517e+00,5.017e+00,5.089e+00,4.143e+00,5.709e+00,3.672e+00,4.862e+00,4.500e+00,3.944e+00,4.411e+00,4.646e+00,3.736e+00,4.952e+00,4.920e+00,4.041e+00,3.470e+00
3.288e-01,3.013e-01,9.341e-01,1.170e+00,1.233e+00,1.686e+00,1.691e+00,1.564e+00,2.075e+00,2.441e+00,2.577e+00,2.057e+00,3.058e+00,2.564e+00,2.657e+00,4.725e+00,3.063e+00,4.420e+00,3.509e+00,3.080e+00,4.274e+00,4.645e+00,3.866e+00,3.525e+00,4.473e+00,5.649e+00,4.381e+00,4.440e+00,3.920e+00,3.700e+00,3.994e+00,4.725e+00,4.121e+00,5.409e+00,4.654e+00,5.056e+00,3.495e+00,4.184e+00,3.395e+00,4.777e+00,4.130e+00,5.001e+00,3.677e+00,4.380e+00,4.086e+00,3.632e+00,4.647e+00,3.208e+00,3.838e+00,4.793e+00,4.137e+00,2.974e+00,3.909e+00
6.211e-02,4.634e-02,3.932e-01,1.076e+00,1.135e+00,1.284e+00,1.421e+00,1.476e+00,1.791e+00,2.279e+00,2.294e+00,1.664e+00,2.733e+00,2.988e+00,2.507e+00,4.601e+00,3.473e+00,4.419e+00,3.257e+00,2.780e+00,4.968e+00,4.940e+00,4.282e+00,3.493e+00,3.683e+00,5.924e+00,5.086e+00,3.840e+00,3.922e+00,4.643e+00,4.870e+00,4.217e+00,4.607e+00,5.462e+00,5.472e+00,5.574e+00,5.479e+00,5.100e+00,4.411e+00,5.183e+00,3.678e+00,5.095e+00,3.250e+00,4.825e+00,4.066e+00,4.073e+00,4.413e+00,3.672e+00,4.133e+00,5.147e+00,4.225e+00,4.486e+00,4.502e+00
6.189e-01,4.061e-01,1.199e+00,1.042e+00,1.036e+00,1.650e+00,1.626e+00,1.863e+00,1.868e+00,1.886e+00,2.112e+00,1.512e+00,1.482e+00,2.223e+00,1.437e+00,2.691e+00,2.953e+00,3.480e+00,2.136e+00,1.866e+00,3.844e+00,3.410e+00,3.280e+00,2.879e+00,3.374e+00,4.214e+00,4.514e+00,3.479e+00,3.449e+00,2.641e+00,3.615e+00,4.012e+00,3.348e+00,4.611e+00,3.768e+00,3.504e+00,2.865e+00,4.097e+00,3.184e+00,4.549e+00,3.350e+00,3.945e+00,2.352e+00,4.072e+00,3.481e+00,2.473e+00,3.417e+00,3.856e+00,3.460e+00,4.507e+00,3.261e+00,3.802e+00,3.527e+00
6.208e-01,6.318e-01,1.417e+00,1.921e+00,1.706e+00,1.783e+00,1.841e+00,2.551e+00,2.505e+00,2.229e+00,3.220e+00,2.865e+00,3.831e+00,3.229e+00,3.269e+00,5.561e+00,3.791e+00,5.481e+00,5.792e+00,4.666e+00,6.734e+00,5.636e+00,5.438e+00,4.710e+00,4.898e+00,7.936e+00,7.129e+00,5.542e+00,4.905e+00,5.399e+00,5.780e+00,5.498e+00,5.906e+00,7.777e+00,6.805e+00,6.881e+00,5.677e+00,6.034e+00,5.606e+00,6.198e+00,5.122e+00,7.172e+00,5.112e+00,5.523e+00,5.922e+00,5.103e+00,6.566e+00,5.806e+00,5.829e+00,6.142e+00,5.599e+00,4.810e+00,5.595e+00
3.146e-01,4.957e-01,9.789e-01,1.440e+00,1.163e+00,1.109e+00,1.251e+00,1.927e+00,2.329e+00,1.731e+00,2.707e+00,2.146e+00,2.487e+00,2.341e+00,2.721e+00,4.205e+00,3.122e+00,5.126e+00,3.689e+00,4.008e+00,5.429e+00,4.767e+00,5.123e+00,4.925e+00,5.016e+00,6.428e+00,6.534e+00,4.646e+00,4.513e+00,3.607e+00,4.216e+00,5.610e+00,5.203e+00,6.777e+00,5.262e+00,5.799e+00,3.713e+00,5.351e+00,4.807e+00,6.192e+00,5.125e+00,6.761e+00,4.257e+00,5.503e+00,5.433e+00,3.719e+00,5.964e+00,5.006e+00,5.823e+00,5.375e+00,5.926e+00,4.709e+00,4.586e+00
2.582e-01,2.033e-01,4.079e-01,2.670e-01,3.622e-01,4.225e-01,5.887e-01,1.075e+00,1.544e+00,1.193e+00,1.932e+00,1.033e+00,2.141e+00,1.950e+00,2.469e+00,3.261e+00,2.781e+00,4.002e+00,3.471e+00,3.720e+00,5.705e+00,4.473e+00,4.911e+00,3.935e+00,4.394e+00,4.986e+00,4.684e+00,4.160e+00,3.544e+00,3.804e+00,5.004e+00,4.368e+00,4.144e+00,4.786e+00,4.002e+00,5.336e+00,4.213e+00,4.744e+00,4.450e+00,3.956e+00,4.540e+00,4.796e+00,3.220e+00,3.942e+00,4.144e+00,3.837e+00,5.812e+00,4.022e+00,3.904e+00,3.461e+00,5.788e+00,4.280e+00,3.423e+00
1.093e-02,6.617e-02,4.312e-01,1.322e+00,1.193e+00,1.299e+00,1.600e+00,1.695e+00,2.918e+00,3.046e+00,3.196e+00,2.099e+00,3.278e+00,3.477e+00,3.265e+00,5.077e+00,3.234e+00,5.204e+00,3.311e+00,3.439e+00,5.938e+00,5.582e+00,5.688e+00,5.429e+00,5.713e+00,6.764e+00,6.311e+00,5.820e+00,5.070e+00,5.022e+00,5.685e+00,5.700e+00,5.565e+00,6.499e+00,5.886e+00,6.186e+00,4.708e+00,5.917e+00,5.148e+00,6.787e+00,5.628e+00,7.018e+00,4.743e+00,5.542e+00,5.092e+00,4.331e+00,6.609e+00,5.007e+00,5.295e+00,5.641e+00,5.689e+00,5.458e+00,5.627e+00
3.222e-02,1.099e-01,5.187e-01,1.494e+00,1.625e+00,1.703e+00,1.893e+00,1.499e+00,2.588e+00,2.880e+00,2.491e+00,2.013e+00,2.864e+00,3.339e+00,2.783e+00,4.747e+00,3.086e+00,5.077e+00,3.508e+00,4.155e+00,6.418e+00,5.968e+00,6.273e+00,6.737e+00,6.991e+00,8.404e+00,9.153e+00,6.587e+00,6.314e+00,6.381e+00,7.231e+00,6.169e+00,6.577e+00,9.088e+00,7.175e+00,7.988e+00,6.123e+00,8.396e+00,6.245e+00,8.450e+00,7.012e+00,9.072e+00,6.236e+00,7.461e+00,6.920e+00,5.824e+00,7.592e+00,6.929e+00,6.941e+00,7.627e+00,7.512e+00,7.264e+00,8.543e+00
5.424e-01,5.734e-01,1.027e+00,9.488e-01,1.510e+00,1.436e+00,1.633e+00,2.474e+00,2.364e+00,1.836e+00,2.815e+00,2.116e+00,2.991e+00,3.341e+00,2.061e+00,4.828e+00,3.917e+00,4.754e+00,3.569e+00,3.594e+00,6.386e+00,5.751e+00,6.656e+00,6.238e+00,6.616e+00,7.597e+00,8.077e+00,6.183e+00,5.852e+00,5.743e+00,8.012e+00,6.654e+00,5.789e+00,8.685e+00,6.691e+00,7.345e+00,5.516e+00,7.565e+00,6.597e+00,6.839e+00,6.386e+00,7.090e+00,4.936e+00,6.892e+00,6.448e+00,6.108e+00,6.423e+00,7.313e+00,6.054e+00,7.569e+00,7.388e+00,6.034e+00,6.057e+00
5.002e-01,4.840e-01,8.912e-01,5.677e-01,6.908e-01,7.744e-01,9.340e-01,2.091e+00,2.050e+00,1.467e+00,2.790e+00,1.774e+00,2.567e+00,2.378e+00,2.064e+00,3.520e+00,2.858e+00,3.874e+00,3.423e+00,3.099e+00,5.414e+00,4.148e+00,4.638e+00,4.992e+00,5.637e+00,5.913e+00,5.926e+00,5.316e+00,4.528e+00,3.931e+00,5.517e+00,5.259e+00,5.379e+00,6.528e+00,5.577e+00,5.127e+00,4.493e+00,4.631e+00,4.906e+00,5.726e+00,5.262e+00,5.631e+00,3.020e+00,4.981e+00,5.314e+00,4.442e+00,5.188e+00,4.819e+00,5.110e+00,5.289e+00,5.978e+00,4.845e+00,3.385e+00
1.166e-01,2.644e-01,3.583e-01,5.712e-01,8.504e-01,6.035e-01,8.455e-01,1.174e+00,1.773e+00,1.396e+00,2.366e+00,1.553e+00,3.015e+00,2.529e+00,2.535e+00,4.110e+00,2.777e+00,4.009e+00,3.699e+00,4.222e+00,5.844e+00,5.451e+00,6.084e+00,6.337e+00,6.925e+00,7.452e+00,8.022e+00,7.201e+00,5.380e+00,5.068e+00,7.987e+00,6.145e+00,6.825e+00,8.226e+00,7.125e+00,7.347e+00,6.455e+00,7.443e+00,6.043e+00,7.144e+00,7.031e+00,8.484e+00,4.624e+00,6.859e+00,6.613e+00,6.532e+00,7.203e+00,6.414e+00,6.836e+00,7.279e+00,8.581e+00,7.223e+00,5.317e+00
3.012e-01,4.699e-01,1.008e+00,1.911e+00,1.660e+00,1.505e+00,1.811e+00,2.372e+00,3.340e+00,2.813e+00,3.741e+00,2.884e+00,3.549e+00,3.511e+00,3.393e+00,5.985e+00,3.921e+00,5.756e+00,4.031e+00,4.554e+00,7.220e+00,6.674e+00,7.429e+00,7.223e+00,8.724e+00,9.626e+00,1.099e+01,9.604e+00,8.562e+00,6.819e+00,1.042e+01,9.751e+00,8.262e+00,1.004e+01,8.981e+00,8.800e+00,6.677e+00,9.506e+00,8.150e+00,9.541e+00,8.209e+00,1.158e+01,7.322e+00,9.366e+00,8.827e+00,8.089e+00,9.270e+00,8.713e+00,8.548e+00,9.192e+00,1.088e+01,8.445e+00,7.632e+00
2.328e-01,2.660e-01,5.802e-01,1.307e+00,1.028e+00,7.906e-01,9.105e-01,1.396e+00,2.105e+00,1.613e+00,2.696e+00,1.696e+00,3.098e+00,2.699e+00,3.092e+00,4.769e+00,3.461e+00,5.117e+00,4.407e+00,3.693e+00,6.320e+00,5.466e+00,6.828e+00,6.160e+00,6.837e+00,7.649e+00,9.258e+00,8.376e+00,7.091e+00,5.978e+00,8.737e+00,7.653e+00,7.494e+00,9.098e+00,8.638e+00,7.434e+00,7.612e+00,9.080e+00,7.879e+00,9.052e+00,7.293e+00,9.391e+00,6.364e+00,7.516e+00,8.341e+00,7.064e+00,8.888e+00,8.155e+00,7.606e+00,8.573e+00,8.436e+00,8.267e+00,7.424e+00
4.735e-01,4.713e-01,1.138e+00,1.463e+00,1.248e+00,1.463e+00,1.471e+00,2.070e+00,2.046e+00,1.955e+00,2.764e+00,2.243e+00,2.554e+00,2.420e+00,2.344e+00,4.336e+00,3.427e+00,4.466e+00,3.912e+00,3.622e+00,5.509e+00,5.359e+00,5.610e+00,5.009e+00,5.767e+00,7.168e+00,8.467e+00,7.103e+00,6.826e+00,5.620e+00,8.779e+00,7.690e+00,7.397e+00,9.138e+00,8.443e+00,7.288e+00,6.749e+00,7.935e+00,7.586e+00,7.756e+00,7.044e+00,9.427e+00,6.173e+00,7.337e+00,7.366e+00,6.756e+00,7.761e+00,7.361e+00,7.040e+00,7.770e+00,8.212e+00,7.508e+00,6.653e+00
5.654e-01,5.469e-01,1.136e+00,1.601e+00,1.253e+00,1.140e+00,1.425e+00,2.395e+00,2.523e+00,1.770e+00,2.549e+00,2.302e+00,2.520e+00,2.553e+00,2.084e+00,4.191e+00,2.858e+00,3.777e+00,2.922e+00,3.432e+00,5.935e+00,3.997e+00,4.852e+00,4.878e+00,6.359e+00,6.925e+00,7.566e+00,6.673e+00,6.431e+00,6.096e+00,8.527e+00,8.126e+00,7.040e+00,8.211e+00,6.986e+00,6.867e+00,5.189e+00,7.827e+00,6.865e+00,6.798e+00,6.231e+00,8.057e+00,5.383e+00,7.409e+00,7.035e+00,6.469e+00,6.724e+00,8.189e+00,5.808e+00,7.841e+00,8.832e+00,6.896e+00,5.994e+00
5.773e-01,4.000e-01,1.049e+00,1.371e+00,1.542e+00,1.699e+00,1.798e+00,2.304e+00,3.246e+00,2.932e+00,3.459e+00,2.316e+00,3.489e+00,3.788e+00,3.555e+00,5.719e+00,4.231e+00,6.082e+00,5.269e+00,4.587e+00,7.193e+00,7.241e+00,6.847e+00,6.278e+00,7.439e+00,8.467e+00,8.991e+00,8.430e+00,8.384e+00,6.610e+00,9.666e+00,9.364e+00,8.755e+00,1.057e+01,9.057e+00,9.260e+00,8.096e+00,9.782e+00,8.974e+00,9.450e+00,9.220e+00,1.028e+01,6.714e+00,8.316e+00,8.233e+00,8.479e+00,1.023e+01,8.040e+00,7.828e+00,9.134e+00,8.842e+00,9.650e+00,8.420e+00
1.641e-01,3.588e-01,5.901e-01,1.191e+00,1.325e+00,1.000e+00,1.324e+00,1.952e+00,2.478e+00,1.969e+00,2.997e+00,2.123e+00,3.054e+00,3.372e+00,2.451e+00,5.020e+00,3.029e+00,4.906e+00,3.666e+00,3.843e+00,5.945e+00,6.068e+00,5.743e+00,5.909e+00,6.687e+00,8.376e+00,8.926e+00,7.865e+00,7.603e+00,6.388e+00,9.391e+00,9.323e+00,9.226e+00,1.039e+01,8.290e+00,9.296e+00,8.292e+00,9.925e+00,8.791e+00,8.723e+00,8.709e+00,1.040e+01,6.558e+00,9.800e+00,9.848e+00,9.203e+00,9.003e+00,8.452e+00,7.726e+00,9.955e+00,1.060e+01,9.272e+00,7.976e+00
5.632e-01,4.491e-01,1.176e+00,1.328e+00,1.376e+00,1.730e+00,1.855e+00,2.622e+00,2.770e+00,2.618e+00,3.369e+00,2.276e+00,3.035e+00,3.568e+00,2.449e+00,4.818e+00,3.805e+00,5.108e+00,3.802e+00,2.806e+00,6.256e+00,5.689e+00,6.277e+00,6.103e+00,7.462e+00,7.714e+00,8.408e+00,8.094e+00,7.760e+00,6.830e+00,9.730e+00,9.258e+00,9.292e+00,1.022e+01,9.649e+00,9.479e+00,8.132e+00,1.014e+01,8.369e+00,8.929e+00,7.731e+00,9.148e+00,7.347e+00,9.124e+00,9.528e+00,9.113e+00,9.287e+00,9.401e+00,7.560e+00,1.002e+01,1.032e+01,8.809e+00,8.624e+00
4.413e-01,5.559e-01,1.063e+00,1.198e+00,1.373e+00,1.370e+00,1.390e+00,2.227e+00,2.538e+00,2.099e+00,3.139e+00,2.356e+00,2.487e+00,2.583e+00,2.643e+00,4.533e+00,3.524e+00,4.660e+00,4.162e+00,4.015e+00,5.875e+00,5.918e+00,6.101e+00,5.891e+00,5.813e+00,7.985e+00,8.738e+00,7.770e+00,6.563e+00,6.848e+00,1.040e+01,8.972e+00,9.718e+00,1.014e+01,1.029e+01,1.069e+01,8.080e+00,1.032e+01,9.403e+00,8.592e+00,8.860e+00,1.116e+01,8.360e+00,1.040e+01,1.065e+01,1.064e+01,1.065e+01,9.244e+00,8.183e+00,1.006e+01,1.235e+01,9.176e+00,9.419e+00
5.776e-01,5.893e-01,1.036e+00,7.277e-01,9.128e-01,9.112e-01,1.046e+00,1.859e+00,1.755e+00,1.031e+00,2.560e+00,1.709e+00,2.932e+00,2.518e+00,1.970e+00,3.630e+00,2.837e+00,3.834e+00,3.874e+00,3.462e+00,5.567e+00,4.480e+00,5.545e+00,5.323e+00,5.824e+00,6.140e+00,7.128e+00,6.778e+00,6.053e+00,4.743e+00,7.549e+00,7.699e+00,8.093e+00,9.858e+00,8.902e+00,8.787e+00,6.890e+00,8.622e+00,8.641e+00,8.318e+00,9.085e+00,9.710e+00,7.521e+00,8.396e+00,8.898e+00,8.363e+00,9.242e+00,7.669e+00,7.801e+00,9.689e+00,9.068e+00,9.404e+00,6.968e+00
5.730e-01,3.771e-01,1.261e+00,1.565e+00,1.694e+00,2.276e+00,2.167e+00,2.038e+00,2.453e+00,2.875e+00,2.956e+00,2.241e+00,2.797e+00,3.125e+00,2.616e+00,4.746e+00,3.697e+00,4.822e+00,4.290e+00,4.225e+00,7.165e+00,6.398e+00,6.173e+00,5.941e+00,6.862e+00,8.095e+00,9.228e+00,7.438e+00,7.048e+00,6.857e+00,9.588e+00,8.395e+00,8.717e+00,1.091e+01,8.811e+00,8.803e+00,9.215e+00,1.077e+01,9.938e+00,9.295e+00,1.014e+01,1.218e+01,7.997e+00,9.512e+00,8.695e+00,9.280e+00,1.103e+01,8.637e+00,8.471e+00,1.026e+01,1.062e+01,9.234e+00,8.917e+00
3.418e-01,4.400e-01,7.809e-01,8.963e-01,1.370e+00,1.272e+00,1.523e+00,2.111e+00,1.926e+00,1.759e+00,2.693e+00,2.113e+00,3.264e+00,3.341e+00,1.926e+00,4.560e+00,3.020e+00,4.237e+00,3.883e+00,3.530e+00,6.552e+00,4.942e+00,5.222e+00,5.677e+00,6.022e+00,8.142e+00,8.427e+00,7.204e+00,6.425e+00,6.274e+00,8.710e+00,7.254e+00,7.761e+00,9.548e+00,8.811e+00,9.034e+00,8.750e+00,1.013e+01,8.721e+00,8.603e+00,7.865e+00,9.444e+00,6.612e+00,9.079e+00,9.858e+00,9.236e+00,9.390e+00,8.777e+00,7.942e+00,9.828e+00,1.003e+01,8.810e+00,8.328e+00
2.300e-01,2.551e-01,7.371e-01,1.612e+00,1.677e+00,1.652e+00,1.683e+00,1.290e+00,2.235e+00,2.398e+00,2.565e+00,2.142e+00,2.894e+00,2.657e+00,2.681e+00,4.692e+00,2.752e+00,4.539e+00,3.938e+00,3.895e+00,6.669e+00,5.346e+00,5.670e+00,5.681e+00,6.361e+00,7.413e+00,8.627e+00,6.644e+00,6.595e+00,6.516e+00,8.426e+00,8.077e+00,8.743e+00,9.963e+00,8.376e+00,8.512e+00,8.466e+00,1.091e+01,9.781e+00,9.914e+00,9.775e+00,1.133e+01,7.869e+00,1.026e+01,9.804e+00,9.568e+00,1.119e+01,9.120e+00,8.680e+00,1.035e+01,1.039e+01,9.199e+00,9.299e+00
6.284e-01,6.645e-01,1.394e+00,1.215e+00,1.633e+00,1.938e+00,2.018e+00,2.958e+00,2.693e+00,2.547e+00,3.542e+00,2.794e+00,4.092e+00,3.722e+00,3.070e+00,5.727e+00,4.447e+00,5.246e+00,5.082e+00,4.718e+00,7.337e+00,6.086e+00,6.776e+00,6.772e+00,7.720e+00,9.218e+00,9.553e+00,8.713e+00,7.504e+00,6.454e+00,9.889e+00,8.649e+00,8.137e+00,1.074e+01,1.066e+01,1.072e+01,9.193e+00,1.082e+01,1.120e+01,9.647e+00,1.069e+01,1.182e+01,8.829e+00,1.116e+01,1.154e+01,1.052e+01,1.252e+01,1.017e+01,9.595e+00,1.203e+01,1.209e+01,9.818e+00,8.892e+00
3.643e-01,3.914e-01,9.614e-01,9.959e-01,1.167e+00,1.513e+00,1.423e+00,1.885e+00,1.914e+00,1.960e+00,2.741e+00,1.751e+00,1.774e+00,2.519e+00,1.775e+00,3.617e+00,3.066e+00,4.635e+00,3.707e+00,3.641e+00,5.101e+00,6.270e+00,5.261e+00,4.711e+00,5.603e+00,7.216e+00,8.302e+00,5.950e+00,6.285e+00,6.211e+00,8.389e+00,7.152e+00,8.715e+00,9.861e+00,9.345e+00,8.475e+00,8.499e+00,1.088e+01,8.680e+00,9.527e+00,8.416e+00,1.046e+01,7.343e+00,1.048e+01,1.071e+01,1.011e+01,1.050e+01,9.925e+00,9.596e+00,1.130e+01,1.051e+01,1.017e+01,9.071e+00
3.142e-01,1.959e-01,5.896e-01,1.063e+00,6.925e-01,7.109e-01,7.375e-01,8.082e-01,8.539e-01,8.070e-01,1.525e+00,1.114e+00,1.835e+00,1.627e+00,1.742e+00,3.002e+00,2.197e+00,3.937e+00,3.761e+00,2.889e+00,5.365e+00,4.474e+00,4.683e+00,5.241e+00,6.252e+00,7.033e+00,8.647e+00,6.059e+00,5.905e+00,5.882e+00,8.383e+00,7.215e+00,9.471e+00,1.028e+01,9.302e+00,8.612e+00,9.601e+00,1.090e+01,9.457e+00,9.416e+00,9.755e+00,1.105e+01,8.800e+00,1.067e+01,1.184e+01,1.129e+01,1.025e+01,9.362e+00,8.734e+00,1.135e+01,1.229e+01,9.972e+00,9.321e+00
1.149e-01,1.821e-01,6.734e-01,1.262e+00,9.087e-01,1.219e+00,1.556e+00,2.083e+00,2.155e+00,2.392e+00,2.880e+00,2.090e+00,3.371e+00,3.452e+00,2.640e+00,4.930e+00,3.167e+00,5.603e+00,3.633e+00,3.533e+00,6.684e+00,5.066e+00,5.879e+00,6.421e+00,6.760e+00,8.500e+00,8.597e+00,6.258e+00,5.907e+00,5.694e+00,7.890e+00,7.273e+00,8.421e+00,9.751e+00,8.139e+00,9.463e+00,7.455e+00,1.007e+01,8.721e+00,9.552e+00,8.637e+00,1.088e+01,8.907e+00,1.141e+01,1.195e+01,1.091e+01,1.094e+01,1.087e+01,9.251e+00,1.163e+01,1.260e+01,8.697e+00,9.960e+00
6.234e-01,5.886e-01,1.324e+00,1.096e+00,9.218e-01,1.331e+00,1.343e+00,2.461e+00,1.770e+00,1.542e+00,2.823e+00,2.077e+00,2.434e+00,2.335e+00,1.869e+00,3.840e+00,3.440e+00,4.448e+00,3.718e+00,3.258e+00,6.557e+00,4.795e+00,6.376e+00,5.805e+00,6.316e+00,6.691e+00,8.642e+00,6.637e+00,6.228e+00,6.029e+00,9.142e+00,8.099e+00,8.818e+00,9.523e+00,8.786e+00,8.294e+00,8.334e+00,9.822e+00,9.689e+00,9.092e+00,9.608e+00,1.093e+01,9.376e+00,1.224e+01,1.189e+01,1.168e+01,1.181e+01,1.178e+01,8.713e+00,1.152e+01,1.362e+01,9.032e+00,9.252e+00
4.079e-01,5.479e-01,1.085e+00,1.786e+00,1.448e+00,1.242e+00,1.398e+00,2.396e+00,2.631e+00,2.009e+00,3.250e+00,2.605e+00,3.223e+00,2.978e+00,2.788e+00,5.226e+00,3.447e+00,4.778e+00,4.167e+00,3.392e+00,5.401e+00,5.110e+00,5.706e+00,5.842e+00,5.847e+00,8.289e+00,8.662e+00,7.180e+00,6.842e+00,5.581e+00,8.780e+00,8.175e+00,7.541e+00,9.455e+00,9.392e+00,8.658e+00,6.802e+00,9.438e+00,9.716e+00,9.174e+00,8.450e+00,1.214e+01,1.011e+01,1.051e+01,1.112e+01,1.032e+01,1.120e+01,1.121e+01,9.583e+00,1.103e+01,1.170e+01,9.348e+00,9.942e+00
9.074e-02,3.581e-01,6.155e-01,1.268e+00,1.044e+00,7.941e-01,9.998e-01,1.795e+00,2.182e+00,1.667e+00,2.624e+00,2.043e+00,3.019e+00,2.558e+00,2.723e+00,4.413e+00,2.559e+00,5.039e+00,4.255e+00,4.015e+00,4.966e+00,5.225e+00,5.791e+00,6.191e+00,6.664e+00,7.893e+00,8.927e+00,7.551e+00,6.710e+00,5.850e+00,8.272e+00,7.748e+00,8.395e+00,1.030e+01,9.634e+00,1.030e+01,8.851e+00,1.150e+01,9.395e+00,9.105e+00,9.786e+00,1.175e+01,9.019e+00,1.095e+01,1.348e+01,1.263e+01,1.262e+01,1.188e+01,9.802e+00,1.190e+01,1.307e+01,1.042e+01,1.137e+01
1.837e-01,1.598e-01,4.986e-01,1.250e+00,1.392e+00,1.299e+00,1.401e+00,1.625e+00,2.247e+00,2.394e+00,2.565e+00,1.969e+00,3.215e+00,3.224e+00,2.804e+00,5.060e+00,2.759e+00,4.852e+00,4.699e+00,4.106e+00,6.944e+00,6.041e+00,6.214e+00,6.194e+00,6.494e+00,7.915e+00,8.814e+00,8.043e+00,7.403e+00,7.106e+00,9.825e+00,8.850e+00,1.037e+01,1.103e+01,1.024e+01,9.424e+00,1.073e+01,1.193e+01,1.083e+01,1.055e+01,1.142e+01,1.263e+01,1.037e+01,1.241e+01,1.377e+01,1.313e+01,1.480e+01,1.301e+01,1.058e+01,1.348e+01,1.455e+01,1.161e+01,1.306e+01
5.187e-01,6.333e-01,1.045e+00,9.723e-01,1.822e+00,1.642e+00,1.834e+00,2.813e+00,3.038e+00,2.516e+00,3.383e+00,2.682e+00,3.379e+00,3.683e+00,2.506e+00,5.223e+00,3.774e+00,4.679e+00,4.229e+00,4.470e+00,7.234e+00,5.667e+00,5.883e+00,5.985e+00,6.041e+00,8.173e+00,7.754e+00,7.031e+00,6.278e+00,6.571e+00,8.557e+00,7.870e+00,9.393e+00,1.001e+01,9.720e+00,1.069e+01,9.079e+00,1.048e+01,9.954e+00,1.010e+01,1.052e+01,1.174e+01,8.779e+00,1.245e+01,1.287e+01,1.235e+01,1.285e+01,1.267e+01,1.101e+01,1.372e+01,1.425e+01,1.172e+01,1.099e+01
3.274e-01,3.159e-01,9.870e-01,1.135e+00,8.507e-01,1.419e+00,1.684e+00,2.481e+00,2.944e+00,2.929e+00,3.218e+00,2.300e+00,3.562e+00,3.286e+00,3.066e+00,5.077e+00,3.533e+00,5.389e+00,3.449e+00,4.017e+00,6.045e+00,4.795e+00,5.705e+00,6.533e+00,8.441e+00,8.329e+00,9.070e+00,8.101e+00,7.777e+00,5.588e+00,8.675e+00,9.425e+00,8.707e+00,1.028e+01,9.063e+00,1.003e+01,8.222e+00,1.114e+01,1.019e+01,1.051e+01,1.102e+01,1.286e+01,1.001e+01,1.292e+01,1.362e+01,1.296e+01,1.370e+01,1.383e+01,1.088e+01,1.454e+01,1.534e+01,1.152e+01,1.157e+01
5.834e-01,6.655e-01,1.305e+00,1.190e+00,1.441e+00,1.600e+00,1.792e+00,3.050e+00,3.069e+00,2.469e+00,3.916e+00,2.654e+00,3.360e+00,3.695e+00,2.582e+00,5.036e+00,4.056e+00,5.131e+00,4.146e+00,3.931e+00,5.987e+00,6.283e+00,5.809e+00,6.727e+00,6.993e+00,8.734e+00,9.394e+00,7.934e+00,7.559e+00,7.177e+00,1.016e+01,9.838e+00,9.693e+00,1.143e+01,9.998e+00,1.014e+01,8.792e+00,1.094e+01,1.060e+01,1.039e+01,1.144e+01,1.310e+01,8.589e+00,1.273e+01,1.340e+01,1.317e+01,1.254e+01,1.302e+01,1.032e+01,1.406e+01,1.517e+01,1.280e+01,1.153e+01
2.387e-01,3.390e-01,6.212e-01,9.043e-01,1.657e+00,1.530e+00,1.773e+00,2.530e+00,3.004e+00,2.769e+00,3.242e+00,2.197e+00,3.453e+00,4.207e+00,2.989e+00,5.734e+00,4.336e+00,5.512e+00,3.942e+00,4.393e+00,7.867e+00,6.417e+00,7.233e+00,6.750e+00,7.351e+00,8.941e+00,9.868e+00,9.316e+00,8.861e+00,7.288e+00,1.147e+01,1.053e+01,1.012e+01,1.172e+01,9.508e+00,1.166e+01,9.531e+00,1.200e+01,1.229e+01,1.110e+01,1.194e+01,1.295e+01,1.010e+01,1.407e+01,1.404e+01,1.296e+01,1.550e+01,1.465e+01,1.236e+01,1.663e+01,1.634e+01,1.466e+01,1.288e+01
4.387e-01,5.232e-01,1.141e+00,1.639e+00,1.594e+00,1.630e+00,1.871e+00,2.500e+00,2.435e+00,2.129e+00,2.748e+00,2.452e+00,2.845e+00,3.307e+00,2.297e+00,4.654e+00,3.362e+00,4.756e+00,3.601e+00,3.296e+00,5.609e+00,5.286e+00,5.584e+00,5.950e+00,6.184e+00,8.174e+00,8.490e+00,7.240e+00,6.853e+00,5.971e+00,8.659e+00,8.439e+00,8.488e+00,1.025e+01,9.211e+00,1.049e+01,7.298e+00,9.894e+00,9.717e+00,9.646e+00,9.815e+00,1.174e+01,9.879e+00,1.219e+01,1.418e+01,1.187e+01,1.218e+01,1.301e+01,1.031e+01,1.371e+01,1.544e+01,1.226e+01,1.328e+01
5.286e-02,2.906e-01,5.970e-01,1.296e+00,1.777e+00,1.661e+00,1.804e+00,1.860e+00,2.649e+00,2.620e+00,3.148e+00,2.177e+00,3.175e+00,3.588e+00,2.816e+00,5.246e+00,3.670e+00,5.074e+00,3.399e+00,3.614e+00,5.689e+00,6.079e+00,5.732e+00,5.781e+00,5.913e+00,7.803e+00,8.118e+00,7.080e+00,6.677e+00,6.802e+00,8.173e+00,7.752e+00,8.007e+00,9.557e+00,9.085e+00,9.773e+00,7.602e+00,1.008e+01,9.355e+00,9.708e+00,1.013e+01,1.113e+01,8.413e+00,1.284e+01,1.279e+01,1.087e+01,1.282e+01,1.133e+01,1.025e+01,1.469e+01,1.397e+01,1.287e+01,1.303e+01
5.732e-01,4.446e-01,1.186e+00,1.310e+00,1.411e+00,1.796e+00,1.820e+00,2.172e+00,2.536e+00,2.510e+00,2.995e+00,2.210e+00,3.119e+00,3.222e+00,3.162e+00,5.068e+00,3.983e+00,5.662e+00,4.875e+00,4.619e+00,7.154e+00,6.393e+00,6.325e+00,6.341e+00,7.377e+00,8.963e+00,9.859e+00,8.593e+00,7.786e+00,6.172e+00,1.018e+01,8.959e+00,8.401e+00,1.084e+01,9.711e+00,1.029e+01,8.769e+00,1.102e+01,1.017e+01,9.415e+00,1.061e+01,1.239e+01,8.491e+00,1.056e+01,1.199e+01,1.146e+01,1.393e+01,1.181e+01,1.099e+01,1.320e+01,1.522e+01,1.241e+01,1.253e+01
