9.410e-01,3.701e-01,7.546e-01,4.422e-01,3.663e-01,9.860e-01,2.000e-01,2.457e-01,4.259e-02,7.161e-01,7.199e-01,1.027e-01,6.966e-01,2.573e-01,2.917e-01,8.362e-01,9.998e-01,8.841e-01,1.941e-01,6.965e-01,9.421e-01,4.067e-01,8.741e-01,1.272e-01,4.262e-01,4.682e-01,7.799e-01,1.199e-01,4.684e-02,6.915e-01,6.878e-01,2.438e-01,6.838e-01,1.738e-01,4.332e-01,8.269e-01,6.255e-01,5.275e-02,9.969e-02,1.105e-01,8.857e-04,2.987e-01,9.523e-01,8.873e-01,4.120e-01,1.215e-01,6.116e-01,8.386e-02,2.356e-01,1.278e-01,5.420e-01,7.269e-01,5.711e-02,8.446e-01,2.486e-01,5.583e-01,4.932e-01,6.290e-01,1.049e-01,1.958e-01,7.835e-01,5.535e-01,4.054e-01,6.769e-02,4.142e-01,2.990e-01,2.520e-01,7.406e-01,5.672e-01,2.140e-01,7.634e-01,4.013e-01,2.933e-01,5.812e-01,9.210e-01,9.753e-01,1.393e-01,2.484e-01,2.379e-01,5.316e-01,4.760e-01,2.631e-01,7.490e-01,9.875e-01,9.005e-01,9.836e-01,5.590e-01,8.648e-01,3.715e-01,5.666e-01,4.869e-01,8.646e-01,9.383e-02,3.377e-01,8.612e-01
6.746e-01,6.116e-01,6.703e-01,5.448e-01,1.005e+00,1.239e+00,9.550e-01,3.746e-01,4.562e-01,1.341e+00,1.063e+00,2.436e-01,9.372e-01,5.631e-01,3.268e-01,8.554e-01,1.562e+00,6.966e-01,6.584e-01,9.128e-01,1.337e+00,1.149e+00,6.799e-01,8.450e-01,1.064e+00,9.405e-01,1.175e+00,4.120e-01,4.400e-01,8.959e-01,9.187e-01,8.719e-01,7.504e-01,2.729e-01,1.110e+00,1.059e+00,6.437e-01,9.624e-01,7.080e-01,2.464e-01,4.194e-01,5.970e-01,7.553e-01,9.568e-01,8.560e-01,4.116e-01,1.044e+00,8.240e-01,8.009e-01,1.592e-01,5.682e-01,7.396e-01,5.772e-01,1.271e+00,9.559e-01,6.491e-01,1.216e+00,6.385e-01,1.806e-01,1.053e+00,1.206e+00,8.161e-01,7.942e-01,8.129e-01,1.031e+00,3.362e-01,4.130e-01,7.177e-01,9.097e-01,5.912e-01,6.907e-01,6.111e-01,6.793e-01,4.734e-01,1.059e+00,1.258e+00,1.242e-01,9.685e-01,2.780e-01,4.539e-01,4.383e-01,1.066e+00,8.913e-01,8.155e-01,1.418e+00,7.177e-01,1.141e+00,1.132e+00,1.002e+00,9.522e-01,1.134e+00,6.674e-01,3.510e-01,3.846e-01,1.100e+00
5.996e-01,4.249e-01,5.927e-01,5.441e-01,1.396e+00,1.635e+00,1.317e+00,2.875e-01,1.013e+00,1.643e+00,9.724e-01,7.367e-01,1.054e+00,8.220e-01,3.486e-01,1.669e+00,1.125e+00,1.295e+00,1.262e+00,7.455e-01,9.764e-01,1.295e+00,1.576e+00,1.130e+00,1.050e+00,8.978e-01,1.019e+00,9.894e-01,1.196e+00,1.390e+00,1.516e+00,1.026e+00,6.816e-01,5.439e-01,1.062e+00,1.267e+00,1.287e+00,8.209e-01,8.882e-01,1.149e+00,4.013e-01,4.875e-01,1.344e+00,1.391e+00,8.449e-01,2.797e-01,1.230e+00,9.026e-01,9.983e-01,3.964e-01,1.050e+00,6.438e-01,1.009e+00,1.863e+00,1.318e+00,1.250e+00,1.452e+00,9.265e-01,9.833e-01,8.951e-01,1.243e+00,1.074e+00,1.468e+00,1.366e+00,1.605e+00,6.225e-01,1.281e+00,1.040e+00,8.029e-01,1.129e+00,8.722e-01,1.349e+00,9.407e-01,1.313e+00,1.370e+00,1.502e+00,3.891e-01,1.100e+00,5.274e-01,4.517e-01,8.934e-01,1.048e+00,1.178e+00,9.164e-01,1.662e+00,1.505e+00,1.384e+00,1.100e+00,1.110e+00,1.124e+00,1.343e+00,9.260e-01,7.740e-01,4.795e-01,1.584e+00
7.485e-01,3.239e-01,6.221e-01,1.056e+00,7.968e-01,1.283e+00,6.584e-01,4.708e-01,4.704e-01,1.227e+00,9.699e-01,6.444e-01,9.479e-01,3.877e-01,7.718e-01,1.523e+00,1.390e+00,1.066e+00,8.887e-01,9.615e-01,8.260e-01,1.486e+00,1.915e+00,3.811e-01,6.219e-01,5.742e-01,1.640e+00,1.080e+00,1.260e+00,1.003e+00,1.312e+00,4.220e-01,1.482e+00,8.593e-01,1.445e+00,1.715e+00,1.215e+00,8.837e-01,1.220e+00,5.181e-01,2.866e-01,5.743e-01,1.669e+00,1.563e+00,1.079e+00,6.336e-01,1.396e+00,6.420e-01,8.271e-01,8.948e-01,1.030e+00,8.798e-01,6.246e-01,1.162e+00,1.010e+00,7.721e-01,1.056e+00,6.700e-01,1.288e+00,5.348e-01,8.828e-01,1.300e+00,1.195e+00,4.097e-01,8.231e-01,4.013e-01,5.679e-01,1.278e+00,6.587e-01,7.109e-01,7.737e-01,1.405e+00,8.585e-01,1.188e+00,1.362e+00,1.953e+00,8.677e-01,8.919e-01,1.174e+00,7.392e-01,5.456e-01,7.512e-01,1.422e+00,1.649e+00,1.917e+00,1.867e+00,1.490e+00,1.258e+00,1.358e+00,1.529e+00,1.107e+00,1.180e+00,8.719e-01,9.088e-01,1.911e+00
4.421e-01,4.980e-01,5.146e-01,8.368e-01,1.882e+00,2.271e+00,1.726e+00,7.564e-01,1.830e+00,2.063e+00,2.090e+00,1.721e+00,1.686e+00,1.650e+00,7.995e-01,2.120e+00,2.174e+00,2.194e+00,2.176e+00,1.196e+00,1.516e+00,2.450e+00,2.342e+00,1.761e+00,1.577e+00,1.606e+00,1.777e+00,1.874e+00,1.821e+00,2.201e+00,2.531e+00,1.348e+00,1.792e+00,1.446e+00,1.995e+00,2.198e+00,1.684e+00,2.390e+00,1.757e+00,1.465e+00,1.001e+00,1.705e+00,2.004e+00,2.171e+00,1.545e+00,6.930e-01,1.911e+00,1.738e+00,1.698e+00,1.468e+00,1.770e+00,9.413e-01,1.885e+00,2.138e+00,2.219e+00,1.444e+00,2.015e+00,1.684e+00,1.422e+00,1.626e+00,1.937e+00,1.788e+00,1.864e+00,1.673e+00,2.298e+00,1.105e+00,2.069e+00,1.311e+00,1.007e+00,1.688e+00,1.264e+00,2.118e+00,1.551e+00,1.657e+00,2.282e+00,2.314e+00,9.063e-01,2.305e+00,1.688e+00,1.033e+00,1.355e+00,2.079e+00,2.198e+00,1.371e+00,2.815e+00,2.668e+00,2.772e+00,1.799e+00,2.485e+00,1.920e+00,2.364e+00,1.259e+00,1.430e+00,1.290e+00,2.927e+00
5.844e-01,5.326e-01,5.952e-01,9.016e-01,1.389e+00,1.974e+00,1.325e+00,1.601e+00,1.197e+00,2.687e+00,2.253e+00,2.091e+00,1.786e+00,1.253e+00,1.308e+00,2.016e+00,2.760e+00,1.687e+00,2.069e+00,1.843e+00,2.369e+00,2.731e+00,2.304e+00,1.337e+00,1.951e+00,1.468e+00,2.444e+00,1.448e+00,2.107e+00,1.760e+00,2.331e+00,1.897e+00,2.097e+00,1.513e+00,2.632e+00,2.510e+00,1.346e+00,2.821e+00,1.887e+00,1.625e+00,1.001e+00,2.001e+00,2.372e+00,2.187e+00,1.648e+00,9.414e-01,1.815e+00,1.849e+00,2.035e+00,1.908e+00,2.156e+00,1.729e+00,1.766e+00,2.173e+00,1.992e+00,1.571e+00,1.738e+00,1.376e+00,1.431e+00,2.222e+00,2.570e+00,2.498e+00,1.613e+00,1.975e+00,2.016e+00,1.350e+00,1.497e+00,1.886e+00,1.132e+00,1.337e+00,1.292e+00,2.073e+00,1.975e+00,1.852e+00,2.774e+00,2.216e+00,1.291e+00,1.891e+00,1.640e+00,1.761e+00,1.241e+00,2.571e+00,2.710e+00,2.224e+00,2.540e+00,2.243e+00,3.072e+00,2.210e+00,2.221e+00,2.122e+00,2.619e+00,2.051e+00,1.206e+00,1.804e+00,3.086e+00
1.305e-01,3.209e-01,2.440e-01,8.920e-01,1.718e+00,1.953e+00,1.899e+00,8.707e-01,2.296e+00,2.078e+00,2.767e+00,2.416e+00,1.854e+00,1.696e+00,1.537e+00,2.080e+00,1.958e+00,2.378e+00,2.523e+00,1.683e+00,1.762e+00,3.499e+00,2.687e+00,1.761e+00,2.425e+00,1.408e+00,2.718e+00,2.290e+00,2.790e+00,2.862e+00,2.871e+00,2.029e+00,2.119e+00,1.711e+00,2.496e+00,3.058e+00,2.380e+00,3.529e+00,2.438e+00,2.040e+00,1.712e+00,2.004e+00,2.537e+00,2.902e+00,2.562e+00,1.496e+00,2.796e+00,2.121e+00,2.099e+00,1.956e+00,2.526e+00,8.587e-01,2.104e+00,2.198e+00,3.072e+00,1.526e+00,2.596e+00,2.387e+00,2.621e+00,1.671e+00,1.883e+00,2.643e+00,2.110e+00,1.796e+00,3.130e+00,2.013e+00,2.776e+00,1.756e+00,1.014e+00,1.904e+00,1.392e+00,2.324e+00,1.791e+00,1.977e+00,2.469e+00,2.324e+00,1.561e+00,2.722e+00,2.582e+00,1.689e+00,1.855e+00,2.264e+00,2.490e+00,2.386e+00,3.340e+00,3.010e+00,3.233e+00,2.434e+00,3.198e+00,2.353e+00,2.344e+00,1.747e+00,2.515e+00,2.131e+00,3.837e+00
7.450e-01,3.809e-01,6.448e-01,8.086e-01,9.721e-01,1.615e+00,8.532e-01,1.128e+00,1.426e+00,1.833e+00,2.180e+00,2.201e+00,2.211e+00,1.048e+00,1.336e+00,2.119e+00,2.023e+00,1.719e+00,1.927e+00,2.133e+00,2.145e+00,2.824e+00,2.363e+00,8.694e-01,1.301e+00,1.318e+00,2.201e+00,1.862e+00,2.309e+00,2.270e+00,2.529e+00,1.333e+00,2.126e+00,1.447e+00,1.869e+00,2.518e+00,1.755e+00,2.580e+00,1.407e+00,1.460e+00,1.378e+00,1.412e+00,2.182e+00,2.058e+00,1.687e+00,1.148e+00,1.685e+00,1.431e+00,1.895e+00,1.446e+00,2.343e+00,1.969e+00,1.872e+00,2.016e+00,1.970e+00,1.507e+00,1.349e+00,1.862e+00,1.230e+00,1.189e+00,1.731e+00,2.041e+00,2.062e+00,1.430e+00,1.972e+00,1.822e+00,1.266e+00,2.237e+00,8.236e-01,1.213e+00,1.542e+00,1.662e+00,1.547e+00,1.674e+00,2.523e+00,2.600e+00,1.673e+00,1.480e+00,2.090e+00,2.067e+00,1.321e+00,1.550e+00,2.316e+00,2.231e+00,2.786e+00,2.871e+00,2.246e+00,2.113e+00,2.229e+00,1.990e+00,1.949e+00,2.356e+00,1.189e+00,1.728e+00,3.268e+00
1.000e-01,1.957e-01,1.547e-01,6.099e-01,8.989e-01,1.171e+00,1.087e+00,1.347e+00,1.436e+00,2.133e+00,2.677e+00,2.549e+00,1.716e+00,1.649e+00,2.450e+00,2.515e+00,2.307e+00,1.416e+00,2.292e+00,2.476e+00,2.717e+00,2.796e+00,2.562e+00,1.032e+00,2.707e+00,9.222e-01,3.093e+00,1.983e+00,3.231e+00,2.592e+00,2.054e+00,2.118e+00,1.936e+00,2.240e+00,2.921e+00,3.290e+00,2.208e+00,3.235e+00,2.375e+00,1.942e+00,1.578e+00,2.348e+00,2.764e+00,2.687e+00,1.907e+00,1.571e+00,2.417e+00,2.473e+00,1.924e+00,2.407e+00,2.651e+00,1.445e+00,2.201e+00,2.619e+00,2.837e+00,1.587e+00,1.917e+00,1.538e+00,2.735e+00,1.763e+00,2.409e+00,2.876e+00,1.998e+00,2.483e+00,2.947e+00,1.757e+00,2.538e+00,2.064e+00,1.465e+00,1.837e+00,1.608e+00,2.626e+00,2.319e+00,2.439e+00,2.793e+00,1.778e+00,1.733e+00,2.133e+00,2.479e+00,1.975e+00,1.414e+00,2.918e+00,2.672e+00,3.122e+00,2.274e+00,2.506e+00,2.880e+00,2.104e+00,3.043e+00,2.578e+00,2.488e+00,2.844e+00,2.250e+00,2.311e+00,3.163e+00
2.218e-01,1.134e-01,1.999e-01,2.119e-01,4.596e-01,7.522e-01,4.207e-01,6.165e-01,9.363e-01,1.553e+00,2.587e+00,2.205e+00,2.151e+00,1.747e+00,2.107e+00,2.672e+00,1.469e+00,1.605e+00,2.300e+00,2.307e+00,2.122e+00,1.714e+00,2.091e+00,5.563e-01,1.957e+00,6.919e-01,1.804e+00,1.506e+00,2.185e+00,2.084e+00,1.926e+00,1.303e+00,2.085e+00,1.773e+00,1.431e+00,2.673e+00,2.064e+00,2.196e+00,1.206e+00,1.993e+00,1.289e+00,1.418e+00,2.237e+00,1.550e+00,1.611e+00,1.145e+00,1.691e+00,1.999e+00,1.684e+00,1.578e+00,1.758e+00,1.190e+00,2.129e+00,2.073e+00,2.408e+00,1.174e+00,1.683e+00,1.220e+00,2.088e+00,1.273e+00,1.745e+00,1.796e+00,2.076e+00,2.428e+00,2.094e+00,1.283e+00,2.188e+00,1.466e+00,1.905e+00,1.747e+00,2.207e+00,1.870e+00,1.665e+00,1.881e+00,1.837e+00,1.427e+00,1.810e+00,2.119e+00,1.735e+00,1.772e+00,1.649e+00,2.250e+00,1.812e+00,2.340e+00,1.404e+00,2.101e+00,2.337e+00,1.485e+00,1.989e+00,1.806e+00,2.182e+00,2.661e+00,1.566e+00,1.611e+00,2.170e+00
8.184e-01,4.669e-01,7.245e-01,5.561e-01,1.030e+00,1.825e+00,8.832e-01,1.390e+00,1.345e+00,2.290e+00,3.120e+00,2.481e+00,2.581e+00,1.986e+00,2.320e+00,3.598e+00,3.369e+00,2.609e+00,2.620e+00,3.019e+00,3.206e+00,2.804e+00,3.010e+00,1.505e+00,2.967e+00,2.008e+00,3.271e+00,1.816e+00,3.054e+00,3.434e+00,2.501e+00,1.887e+00,2.646e+00,2.163e+00,2.888e+00,3.413e+00,2.208e+00,2.791e+00,2.543e+00,2.028e+00,1.776e+00,3.244e+00,3.675e+00,2.753e+00,2.360e+00,1.783e+00,2.476e+00,2.944e+00,2.208e+00,2.898e+00,3.241e+00,2.828e+00,2.744e+00,3.285e+00,2.922e+00,1.912e+00,1.789e+00,2.628e+00,1.918e+00,2.010e+00,3.587e+00,2.571e+00,2.283e+00,2.921e+00,2.721e+00,2.137e+00,2.467e+00,2.577e+00,2.172e+00,1.953e+00,2.719e+00,2.753e+00,2.228e+00,2.782e+00,4.046e+00,3.128e+00,2.310e+00,2.586e+00,2.926e+00,2.999e+00,2.264e+00,3.577e+00,3.750e+00,3.417e+00,2.944e+00,3.396e+00,3.516e+00,3.030e+00,3.281e+00,3.029e+00,3.500e+00,3.780e+00,1.706e+00,2.314e+00,4.124e+00
5.320e-01,3.247e-01,4.956e-01,9.093e-01,1.183e+00,1.643e+00,1.320e+00,1.137e+00,1.832e+00,2.241e+00,2.971e+00,3.351e+00,2.841e+00,1.993e+00,2.889e+00,3.739e+00,2.831e+00,3.186e+00,3.488e+00,2.841e+00,2.552e+00,3.791e+00,4.035e+00,1.423e+00,3.634e+00,2.280e+00,3.887e+00,2.429e+00,4.329e+00,3.880e+00,3.473e+00,2.676e+00,3.029e+00,2.047e+00,2.818e+00,4.256e+00,3.050e+00,3.864e+00,3.486e+00,3.079e+00,2.182e+00,2.678e+00,3.536e+00,3.889e+00,3.346e+00,2.793e+00,3.103e+00,2.540e+00,2.935e+00,3.101e+00,3.870e+00,2.471e+00,2.772e+00,3.642e+00,3.815e+00,2.356e+00,2.387e+00,3.262e+00,3.493e+00,1.820e+00,2.754e+00,3.676e+00,3.565e+00,2.887e+00,3.625e+00,2.913e+00,2.812e+00,3.642e+00,2.497e+00,2.851e+00,2.650e+00,3.350e+00,2.639e+00,3.085e+00,3.432e+00,3.411e+00,2.844e+00,3.363e+00,3.217e+00,2.789e+00,2.694e+00,3.566e+00,3.725e+00,3.571e+00,3.674e+00,3.583e+00,3.573e+00,3.835e+00,4.154e+00,3.258e+00,3.458e+00,3.336e+00,3.295e+00,3.292e+00,4.658e+00
6.994e-01,5.621e-01,6.936e-01,6.051e-01,1.515e+00,2.044e+00,1.383e+00,7.083e-01,1.548e+00,1.895e+00,2.499e+00,2.084e+00,2.938e+00,2.707e+00,2.215e+00,3.588e+00,3.274e+00,3.261e+00,3.429e+00,2.189e+00,2.203e+00,2.650e+00,3.522e+00,1.974e+00,3.529e+00,2.877e+00,3.555e+00,1.924e+00,3.205e+00,3.866e+00,2.811e+00,2.427e+00,2.942e+00,1.592e+00,2.137e+00,3.648e+00,2.324e+00,3.063e+00,3.629e+00,2.773e+00,2.395e+00,2.977e+00,3.434e+00,3.141e+00,3.507e+00,2.250e+00,2.728e+00,2.824e+00,3.199e+00,3.289e+00,3.466e+00,2.385e+00,2.839e+00,3.852e+00,3.928e+00,2.730e+00,2.341e+00,3.108e+00,2.050e+00,2.730e+00,3.111e+00,2.666e+00,3.450e+00,3.158e+00,3.414e+00,2.512e+00,2.908e+00,2.599e+00,3.247e+00,2.476e+00,3.103e+00,2.866e+00,2.159e+00,2.926e+00,4.040e+00,3.511e+00,2.098e+00,3.745e+00,2.571e+00,2.084e+00,3.423e+00,3.409e+00,4.248e+00,2.780e+00,3.671e+00,3.138e+00,3.933e+00,3.957e+00,3.920e+00,3.371e+00,3.447e+00,3.063e+00,2.700e+00,3.081e+00,4.334e+00
5.832e-01,3.223e-01,5.197e-01,9.485e-01,1.016e+00,1.479e+00,9.824e-01,9.171e-01,1.425e+00,2.209e+00,2.984e+00,3.156e+00,3.569e+00,3.053e+00,4.100e+00,4.231e+00,3.114e+00,3.092e+00,4.250e+00,3.460e+00,3.497e+00,3.528e+00,4.769e+00,1.952e+00,3.539e+00,2.654e+00,4.764e+00,3.105e+00,5.184e+00,4.151e+00,3.675e+00,3.380e+00,3.831e+00,2.802e+00,2.971e+00,5.438e+00,3.822e+00,4.291e+00,4.169e+00,4.119e+00,3.031e+00,3.140e+00,4.367e+00,4.288e+00,4.336e+00,2.790e+00,3.073e+00,3.557e+00,4.593e+00,3.675e+00,4.570e+00,2.494e+00,3.397e+00,4.446e+00,5.295e+00,2.902e+00,3.520e+00,3.381e+00,3.884e+00,2.992e+00,2.782e+00,3.757e+00,4.871e+00,3.963e+00,4.592e+00,3.614e+00,3.483e+00,4.080e+00,4.402e+00,3.838e+00,3.884e+00,3.903e+00,3.047e+00,4.288e+00,4.080e+00,4.338e+00,3.259e+00,4.060e+00,3.923e+00,3.307e+00,3.482e+00,4.088e+00,4.688e+00,4.383e+00,3.839e+00,4.046e+00,4.519e+00,4.540e+00,4.776e+00,4.708e+00,4.305e+00,3.881e+00,3.477e+00,4.702e+00,4.714e+00
1.724e-01,1.026e-01,1.562e-01,5.338e-01,4.593e-01,6.884e-01,4.885e-01,6.121e-01,1.058e+00,1.191e+00,2.274e+00,2.154e+00,2.267e+00,1.772e+00,2.842e+00,3.309e+00,2.990e+00,2.363e+00,2.873e+00,2.585e+00,2.492e+00,2.860e+00,3.566e+00,1.928e+00,3.009e+00,2.007e+00,3.277e+00,2.135e+00,4.282e+00,3.051e+00,2.655e+00,2.109e+00,3.011e+00,2.300e+00,2.300e+00,4.085e+00,2.956e+00,3.366e+00,3.479e+00,2.560e+00,3.121e+00,2.718e+00,3.327e+00,2.747e+00,3.549e+00,2.134e+00,2.278e+00,3.800e+00,3.355e+00,2.801e+00,3.675e+00,2.864e+00,3.337e+00,3.107e+00,3.664e+00,2.127e+00,2.747e+00,3.216e+00,3.428e+00,1.943e+00,2.111e+00,3.138e+00,2.941e+00,2.907e+00,2.970e+00,3.157e+00,2.647e+00,3.349e+00,3.581e+00,2.775e+00,2.970e+00,3.259e+00,2.562e+00,3.615e+00,3.187e+00,3.226e+00,3.043e+00,2.705e+00,3.700e+00,3.432e+00,2.868e+00,3.031e+00,3.538e+00,3.744e+00,3.553e+00,3.684e+00,3.761e+00,3.858e+00,3.409e+00,3.642e+00,3.335e+00,2.855e+00,2.567e+00,3.978e+00,4.112e+00
8.352e-01,3.615e-01,7.050e-01,1.086e+00,1.175e+00,2.092e+00,1.162e+00,1.821e+00,1.948e+00,3.261e+00,4.349e+00,4.601e+00,4.649e+00,3.544e+00,4.857e+00,5.855e+00,5.162e+00,4.420e+00,5.925e+00,4.693e+00,5.157e+00,5.181e+00,6.775e+00,2.527e+00,5.803e+00,3.671e+00,6.934e+00,3.635e+00,6.586e+00,6.317e+00,4.964e+00,4.549e+00,5.200e+00,4.185e+00,3.988e+00,6.953e+00,5.262e+00,6.096e+00,5.514e+00,5.874e+00,4.555e+00,4.742e+00,6.763e+00,6.039e+00,5.397e+00,4.590e+00,4.541e+00,4.968e+00,6.299e+00,5.624e+00,6.842e+00,4.216e+00,4.656e+00,5.737e+00,6.936e+00,4.286e+00,4.639e+00,4.735e+00,5.313e+00,4.270e+00,4.297e+00,5.328e+00,5.738e+00,5.454e+00,6.244e+00,5.581e+00,4.880e+00,5.825e+00,4.796e+00,4.728e+00,5.658e+00,5.393e+00,4.587e+00,5.507e+00,6.396e+00,6.124e+00,5.461e+00,4.939e+00,5.844e+00,5.052e+00,5.291e+00,5.803e+00,7.178e+00,6.143e+00,5.514e+00,6.067e+00,6.336e+00,6.702e+00,6.340e+00,6.070e+00,5.544e+00,6.199e+00,4.869e+00,5.866e+00,6.840e+00
5.743e-01,2.591e-01,5.023e-01,9.731e-01,1.102e+00,1.659e+00,1.056e+00,1.282e+00,1.335e+00,2.665e+00,2.749e+00,2.879e+00,3.151e+00,2.310e+00,3.228e+00,4.620e+00,4.464e+00,3.739e+00,4.969e+00,3.858e+00,3.886e+00,4.633e+00,6.455e+00,3.112e+00,4.554e+00,3.030e+00,5.370e+00,3.104e+00,5.743e+00,4.614e+00,4.306e+00,4.157e+00,4.137e+00,3.672e+00,2.988e+00,6.231e+00,5.051e+00,4.796e+00,4.553e+00,5.151e+00,4.711e+00,3.629e+00,6.156e+00,4.205e+00,4.889e+00,3.221e+00,4.251e+00,5.149e+00,5.142e+00,4.751e+00,6.019e+00,3.894e+00,4.964e+00,5.221e+00,5.618e+00,4.442e+00,4.364e+00,3.100e+00,5.332e+00,3.846e+00,3.844e+00,4.757e+00,4.401e+00,4.549e+00,5.362e+00,4.272e+00,3.986e+00,5.457e+00,4.055e+00,3.770e+00,5.057e+00,5.081e+00,4.283e+00,5.334e+00,5.765e+00,5.213e+00,4.867e+00,3.477e+00,4.958e+00,4.306e+00,5.015e+00,4.591e+00,6.342e+00,4.907e+00,5.024e+00,5.114e+00,5.692e+00,5.139e+00,4.652e+00,5.604e+00,4.549e+00,5.208e+00,4.196e+00,5.352e+00,5.275e+00
5.962e-01,2.713e-01,5.198e-01,9.667e-01,1.121e+00,1.693e+00,9.937e-01,1.162e+00,1.539e+00,2.178e+00,2.569e+00,3.072e+00,3.120e+00,2.542e+00,3.494e+00,4.765e+00,4.584e+00,4.652e+00,5.366e+00,4.914e+00,4.346e+00,5.320e+00,6.963e+00,3.890e+00,4.999e+00,4.554e+00,5.802e+00,3.957e+00,7.065e+00,6.325e+00,4.798e+00,4.924e+00,4.009e+00,3.930e+00,4.189e+00,6.490e+00,5.254e+00,4.839e+00,5.465e+00,5.392e+00,4.829e+00,4.904e+00,6.640e+00,5.960e+00,5.688e+00,4.450e+00,4.280e+00,5.312e+00,5.939e+00,5.526e+00,6.540e+00,4.705e+00,5.560e+00,6.226e+00,6.417e+00,4.469e+00,4.961e+00,4.428e+00,5.729e+00,3.824e+00,4.868e+00,5.393e+00,5.367e+00,4.424e+00,6.399e+00,5.500e+00,4.051e+00,6.356e+00,4.151e+00,4.896e+00,5.505e+00,6.199e+00,4.732e+00,6.260e+00,6.884e+00,6.077e+00,5.194e+00,3.865e+00,6.123e+00,5.155e+00,4.905e+00,5.769e+00,6.723e+00,4.668e+00,5.122e+00,5.802e+00,5.538e+00,5.503e+00,6.050e+00,6.325e+00,6.002e+00,5.420e+00,5.157e+00,5.960e+00,6.270e+00
8.460e-01,4.870e-01,7.390e-01,1.009e+00,9.584e-01,1.685e+00,1.042e+00,1.515e+00,1.175e+00,2.599e+00,3.196e+00,2.652e+00,3.168e+00,2.215e+00,3.466e+00,4.280e+00,5.062e+00,3.986e+00,5.208e+00,5.380e+00,4.641e+00,6.057e+00,6.552e+00,3.673e+00,5.594e+00,4.363e+00,6.460e+00,3.565e+00,5.735e+00,6.134e+00,4.755e+00,5.316e+00,4.420e+00,3.843e+00,4.241e+00,7.261e+00,5.027e+00,5.213e+00,5.424e+00,5.071e+00,5.571e+00,4.602e+00,7.107e+00,4.989e+00,6.427e+00,4.291e+00,5.232e+00,6.067e+00,5.359e+00,6.111e+00,6.376e+00,4.735e+00,5.519e+00,6.120e+00,6.277e+00,4.720e+00,5.273e+00,4.481e+00,5.895e+00,4.486e+00,5.379e+00,5.704e+00,4.112e+00,5.179e+00,5.819e+00,5.542e+00,3.682e+00,6.351e+00,4.936e+00,3.549e+00,5.759e+00,5.408e+00,4.277e+00,6.025e+00,6.975e+00,6.297e+00,5.100e+00,4.054e+00,6.253e+00,5.877e+00,5.392e+00,6.133e+00,7.740e+00,5.708e+00,5.600e+00,4.949e+00,6.468e+00,6.045e+00,5.791e+00,6.157e+00,5.904e+00,5.837e+00,4.742e+00,6.275e+00,6.897e+00
6.701e-01,2.960e-01,5.833e-01,1.001e+00,1.269e+00,2.007e+00,1.173e+00,1.425e+00,1.625e+00,2.618e+00,3.131e+00,3.158e+00,2.855e+00,2.610e+00,3.463e+00,4.928e+00,4.358e+00,3.652e+00,4.874e+00,5.365e+00,4.049e+00,5.217e+00,6.725e+00,3.386e+00,4.698e+00,3.584e+00,5.388e+00,4.051e+00,5.904e+00,5.966e+00,4.584e+00,4.110e+00,4.234e+00,4.618e+00,4.520e+00,7.315e+00,4.987e+00,4.494e+00,5.157e+00,5.284e+00,4.918e+00,4.867e+00,6.818e+00,5.515e+00,4.741e+00,4.194e+00,5.008e+00,5.396e+00,4.639e+00,5.611e+00,6.258e+00,3.697e+00,5.132e+00,6.209e+00,5.850e+00,4.588e+00,4.953e+00,3.833e+00,6.313e+00,3.904e+00,4.747e+00,5.728e+00,4.861e+00,4.985e+00,5.154e+00,4.423e+00,4.611e+00,5.415e+00,4.993e+00,4.057e+00,4.867e+00,5.670e+00,4.191e+00,6.022e+00,6.427e+00,5.925e+00,4.764e+00,4.814e+00,5.430e+00,5.219e+00,4.521e+00,5.853e+00,6.501e+00,5.798e+00,5.636e+00,5.822e+00,6.255e+00,5.629e+00,6.365e+00,5.354e+00,5.613e+00,5.555e+00,4.491e+00,5.254e+00,6.211e+00
3.072e-01,1.745e-01,2.940e-01,4.907e-01,8.488e-01,1.115e+00,8.270e-01,9.270e-01,1.304e+00,2.237e+00,2.641e+00,3.317e+00,3.364e+00,2.535e+00,3.319e+00,4.652e+00,3.522e+00,3.012e+00,4.839e+00,4.190e+00,3.604e+00,4.365e+00,6.116e+00,3.247e+00,5.140e+00,3.759e+00,4.682e+00,3.818e+00,5.804e+00,5.800e+00,3.966e+00,4.515e+00,4.431e+00,4.498e+00,3.400e+00,6.140e+00,4.938e+00,4.796e+00,5.125e+00,6.341e+00,5.337e+00,3.919e+00,5.883e+00,5.369e+00,4.230e+00,4.685e+00,4.194e+00,4.548e+00,5.517e+00,4.819e+00,6.211e+00,3.169e+00,4.425e+00,5.228e+00,5.887e+00,4.076e+00,4.770e+00,4.200e+00,5.367e+00,4.195e+00,3.387e+00,5.302e+00,6.389e+00,5.725e+00,5.234e+00,4.477e+00,4.571e+00,5.153e+00,4.759e+00,5.251e+00,5.338e+00,4.627e+00,4.098e+00,5.266e+00,5.257e+00,5.904e+00,5.207e+00,4.815e+00,4.602e+00,4.582e+00,5.234e+00,4.839e+00,5.609e+00,4.780e+00,5.174e+00,5.028e+00,5.890e+00,5.731e+00,6.105e+00,5.009e+00,5.135e+00,5.218e+00,4.541e+00,4.754e+00,4.538e+00
7.643e-01,4.262e-01,6.642e-01,6.113e-01,7.086e-01,1.194e+00,7.694e-01,8.472e-01,1.102e+00,2.171e+00,3.435e+00,2.670e+00,3.282e+00,2.691e+00,4.085e+00,4.595e+00,4.059e+00,3.763e+00,4.597e+00,5.624e+00,4.735e+00,5.593e+00,6.672e+00,4.055e+00,5.768e+00,4.325e+00,5.312e+00,4.481e+00,6.461e+00,6.465e+00,4.353e+00,4.892e+00,4.510e+00,4.227e+00,4.018e+00,7.443e+00,5.793e+00,5.231e+00,4.997e+00,4.814e+00,5.053e+00,5.042e+00,6.324e+00,5.209e+00,6.385e+00,4.261e+00,5.294e+00,6.228e+00,5.808e+00,5.656e+00,6.124e+00,4.273e+00,5.904e+00,6.985e+00,6.576e+00,4.613e+00,5.249e+00,4.634e+00,6.292e+00,3.782e+00,5.708e+00,5.442e+00,5.446e+00,5.647e+00,6.123e+00,5.548e+00,4.764e+00,5.969e+00,6.382e+00,5.256e+00,5.725e+00,5.585e+00,4.223e+00,6.707e+00,6.140e+00,5.993e+00,5.350e+00,4.819e+00,6.072e+00,6.373e+00,5.531e+00,6.333e+00,5.814e+00,5.808e+00,4.600e+00,5.072e+00,5.985e+00,5.149e+00,6.442e+00,6.013e+00,6.264e+00,6.326e+00,5.269e+00,6.196e+00,6.559e+00
7.627e-01,5.918e-01,7.249e-01,8.688e-01,1.287e+00,2.071e+00,1.231e+00,1.794e+00,1.589e+00,2.805e+00,3.392e+00,3.015e+00,2.852e+00,2.170e+00,2.734e+00,3.464e+00,4.756e+00,3.872e+00,4.287e+00,5.049e+00,4.831e+00,5.937e+00,6.469e+00,4.440e+00,5.165e+00,5.129e+00,5.843e+00,4.766e+00,5.509e+00,5.900e+00,4.744e+00,4.949e+00,4.849e+00,4.992e+00,5.117e+00,6.981e+00,5.054e+00,6.497e+00,4.746e+00,5.331e+00,5.456e+00,6.378e+00,6.741e+00,5.458e+00,4.950e+00,4.707e+00,5.063e+00,5.539e+00,5.487e+00,6.028e+00,6.583e+00,4.701e+00,5.905e+00,6.076e+00,6.414e+00,4.575e+00,5.092e+00,4.904e+00,5.580e+00,4.645e+00,5.575e+00,5.388e+00,4.782e+00,4.885e+00,6.407e+00,5.340e+00,4.844e+00,6.158e+00,4.520e+00,5.048e+00,5.200e+00,5.508e+00,4.937e+00,5.800e+00,7.037e+00,6.901e+00,5.693e+00,5.457e+00,5.491e+00,6.285e+00,5.721e+00,6.064e+00,6.917e+00,5.730e+00,5.934e+00,5.661e+00,6.824e+00,5.612e+00,6.802e+00,6.285e+00,6.420e+00,5.782e+00,4.241e+00,5.278e+00,5.903e+00
5.397e-01,2.607e-01,4.813e-01,6.701e-01,1.110e+00,1.812e+00,1.070e+00,1.667e+00,1.828e+00,3.001e+00,3.752e+00,4.035e+00,3.564e+00,2.557e+00,3.258e+00,4.635e+00,3.783e+00,4.297e+00,5.341e+00,5.201e+00,4.218e+00,6.187e+00,6.978e+00,4.201e+00,6.227e+00,4.905e+00,5.692e+00,5.204e+00,6.568e+00,6.734e+00,6.004e+00,5.760e+00,5.268e+00,4.698e+00,4.320e+00,7.136e+00,5.452e+00,6.898e+00,4.640e+00,5.737e+00,5.198e+00,5.526e+00,6.961e+00,5.457e+00,5.861e+00,4.376e+00,5.879e+00,5.431e+00,6.043e+00,6.580e+00,6.812e+00,4.599e+00,6.523e+00,7.421e+00,6.566e+00,5.731e+00,4.578e+00,4.768e+00,6.609e+00,4.607e+00,6.606e+00,6.377e+00,5.333e+00,5.987e+00,6.877e+00,5.901e+00,5.228e+00,6.602e+00,4.594e+00,5.480e+00,5.710e+00,6.609e+00,5.189e+00,6.990e+00,7.441e+00,6.262e+00,5.933e+00,5.465e+00,6.531e+00,6.735e+00,6.201e+00,6.536e+00,6.783e+00,5.700e+00,4.614e+00,6.243e+00,6.911e+00,4.477e+00,6.226e+00,6.478e+00,6.655e+00,6.869e+00,6.020e+00,5.358e+00,7.486e+00
4.641e-01,4.100e-01,4.852e-01,9.862e-01,1.505e+00,2.009e+00,1.456e+00,1.399e+00,1.551e+00,2.909e+00,3.055e+00,2.967e+00,3.246e+00,2.922e+00,3.443e+00,4.898e+00,5.265e+00,4.475e+00,6.245e+00,5.736e+00,4.549e+00,7.252e+00,8.870e+00,5.752e+00,7.735e+00,7.112e+00,7.417e+00,6.864e+00,7.576e+00,8.291e+00,6.149e+00,7.302e+00,6.363e+00,5.911e+00,6.333e+00,9.347e+00,6.810e+00,7.470e+00,7.201e+00,7.458e+00,7.714e+00,6.992e+00,8.742e+00,6.905e+00,7.588e+00,5.785e+00,6.577e+00,7.765e+00,8.629e+00,8.327e+00,8.172e+00,6.148e+00,8.171e+00,9.260e+00,8.282e+00,6.675e+00,7.703e+00,6.545e+00,8.629e+00,6.252e+00,7.219e+00,7.759e+00,6.961e+00,7.540e+00,8.030e+00,7.614e+00,6.532e+00,8.099e+00,7.241e+00,6.675e+00,7.710e+00,7.927e+00,6.669e+00,8.769e+00,9.214e+00,8.331e+00,6.830e+00,6.056e+00,7.763e+00,7.945e+00,8.090e+00,8.212e+00,8.869e+00,6.647e+00,7.051e+00,7.244e+00,8.717e+00,6.650e+00,8.791e+00,8.162e+00,8.438e+00,7.650e+00,7.509e+00,7.923e+00,8.570e+00
7.004e-01,3.621e-01,6.135e-01,5.173e-01,9.099e-01,1.423e+00,8.832e-01,5.201e-01,1.190e+00,1.674e+00,2.543e+00,2.056e+00,2.233e+00,2.002e+00,2.536e+00,3.777e+00,3.974e+00,3.644e+00,4.086e+00,4.556e+00,4.003e+00,4.623e+00,6.345e+00,4.600e+00,6.684e+00,5.653e+00,6.851e+00,5.700e+00,6.510e+00,6.936e+00,5.504e+00,6.965e+00,5.528e+00,5.097e+00,5.119e+00,8.274e+00,6.451e+00,6.470e+00,5.120e+00,6.199e+00,7.783e+00,5.820e+00,7.684e+00,7.072e+00,5.226e+00,5.402e+00,5.937e+00,5.694e+00,6.741e+00,5.786e+00,7.765e+00,5.446e+00,6.062e+00,7.683e+00,6.863e+00,6.319e+00,7.512e+00,6.152e+00,8.112e+00,4.457e+00,5.835e+00,6.960e+00,5.763e+00,5.416e+00,7.169e+00,6.461e+00,5.797e+00,6.925e+00,5.649e+00,6.401e+00,6.825e+00,6.694e+00,6.211e+00,7.431e+00,7.234e+00,6.182e+00,5.552e+00,4.772e+00,6.301e+00,6.557e+00,6.849e+00,5.642e+00,6.986e+00,6.300e+00,6.413e+00,7.064e+00,6.829e+00,6.033e+00,7.324e+00,6.542e+00,6.852e+00,5.981e+00,7.147e+00,5.718e+00,5.837e+00
1.406e-01,3.642e-01,2.418e-01,6.885e-01,1.124e+00,1.162e+00,1.205e+00,1.221e+00,1.455e+00,2.658e+00,3.015e+00,2.894e+00,2.894e+00,2.000e+00,2.771e+00,3.653e+00,3.402e+00,1.739e+00,4.029e+00,4.384e+00,3.876e+00,4.872e+00,5.101e+00,3.438e+00,5.406e+00,3.940e+00,6.551e+00,5.444e+00,6.697e+00,5.678e+00,4.993e+00,5.531e+00,5.489e+00,5.890e+00,4.618e+00,6.866e+00,5.948e+00,7.446e+00,5.279e+00,5.772e+00,6.525e+00,5.283e+00,6.206e+00,5.115e+00,4.336e+00,5.856e+00,5.881e+00,5.241e+00,6.298e+00,6.249e+00,6.403e+00,4.384e+00,6.287e+00,6.853e+00,7.320e+00,5.910e+00,5.452e+00,4.105e+00,7.381e+00,4.916e+00,5.494e+00,5.956e+00,5.709e+00,6.103e+00,6.829e+00,5.722e+00,5.612e+00,5.625e+00,4.703e+00,5.588e+00,5.240e+00,5.844e+00,5.888e+00,5.932e+00,6.110e+00,6.297e+00,6.560e+00,6.340e+00,6.298e+00,5.520e+00,5.318e+00,5.403e+00,6.422e+00,6.714e+00,5.574e+00,6.516e+00,6.577e+00,4.670e+00,6.476e+00,6.101e+00,6.482e+00,6.552e+00,5.873e+00,4.654e+00,5.767e+00
2.105e-02,2.212e-01,1.213e-01,7.881e-01,1.174e+00,1.133e+00,1.342e+00,6.204e-01,1.706e+00,1.626e+00,2.374e+00,2.650e+00,2.222e+00,2.558e+00,3.523e+00,3.675e+00,3.174e+00,2.589e+00,4.040e+00,3.411e+00,3.419e+00,4.841e+00,5.914e+00,3.573e+00,5.578e+00,4.670e+00,6.386e+00,5.960e+00,7.116e+00,6.711e+00,5.219e+00,5.571e+00,4.978e+00,5.270e+00,5.011e+00,7.247e+00,6.519e+00,6.366e+00,6.678e+00,5.919e+00,5.957e+00,6.026e+00,6.180e+00,6.546e+00,4.921e+00,5.164e+00,5.103e+00,5.730e+00,6.841e+00,6.049e+00,7.033e+00,3.832e+00,5.942e+00,7.603e+00,7.351e+00,5.097e+00,5.602e+00,6.007e+00,7.458e+00,4.195e+00,4.815e+00,5.314e+00,5.931e+00,6.079e+00,7.037e+00,5.829e+00,6.276e+00,6.580e+00,5.195e+00,6.659e+00,5.682e+00,5.666e+00,5.726e+00,5.797e+00,5.458e+00,6.125e+00,5.544e+00,5.338e+00,7.261e+00,5.686e+00,4.914e+00,6.408e+00,6.543e+00,6.155e+00,5.775e+00,6.446e+00,6.171e+00,5.348e+00,7.978e+00,6.059e+00,6.521e+00,6.223e+00,6.736e+00,5.940e+00,6.062e+00
4.579e-01,2.228e-01,4.106e-01,6.132e-01,1.002e+00,1.520e+00,8.814e-01,9.302e-01,1.433e+00,1.887e+00,2.326e+00,2.711e+00,2.497e+00,2.097e+00,2.536e+00,3.973e+00,4.155e+00,3.683e+00,4.496e+00,3.752e+00,3.618e+00,4.787e+00,7.097e+00,4.830e+00,6.295e+00,5.864e+00,6.475e+00,5.920e+00,7.416e+00,7.094e+00,7.234e+00,6.905e+00,6.586e+00,6.582e+00,5.625e+00,8.244e+00,6.743e+00,8.054e+00,6.936e+00,8.133e+00,8.971e+00,6.263e+00,7.873e+00,6.664e+00,5.843e+00,5.970e+00,5.603e+00,6.031e+00,7.097e+00,6.992e+00,8.159e+00,5.907e+00,7.662e+00,8.064e+00,7.910e+00,7.687e+00,6.613e+00,6.804e+00,8.414e+00,5.860e+00,5.948e+00,7.781e+00,6.557e+00,6.882e+00,8.611e+00,6.948e+00,6.968e+00,8.583e+00,5.833e+00,6.867e+00,7.751e+00,7.465e+00,6.962e+00,8.494e+00,8.052e+00,7.311e+00,7.385e+00,6.714e+00,7.060e+00,7.316e+00,8.384e+00,6.538e+00,7.963e+00,7.629e+00,7.768e+00,8.510e+00,7.862e+00,6.595e+00,7.650e+00,7.705e+00,7.071e+00,7.057e+00,6.912e+00,7.320e+00,6.267e+00
1.893e-02,2.409e-01,1.177e-01,8.473e-01,1.213e+00,1.571e+00,1.201e+00,1.693e+00,1.816e+00,2.991e+00,4.015e+00,4.239e+00,3.916e+00,3.876e+00,4.862e+00,5.237e+00,4.740e+00,4.210e+00,6.340e+00,6.426e+00,4.936e+00,6.640e+00,8.075e+00,5.069e+00,7.132e+00,6.328e+00,7.777e+00,7.163e+00,8.998e+00,8.435e+00,7.640e+00,7.839e+00,7.482e+00,7.754e+00,8.011e+00,1.090e+01,7.686e+00,8.954e+00,8.436e+00,8.979e+00,8.534e+00,8.710e+00,9.019e+00,7.425e+00,8.069e+00,6.729e+00,7.358e+00,8.472e+00,9.316e+00,8.929e+00,9.378e+00,5.903e+00,8.935e+00,1.023e+01,9.585e+00,7.408e+00,8.103e+00,7.696e+00,1.016e+01,7.787e+00,7.389e+00,8.858e+00,8.828e+00,8.359e+00,8.675e+00,7.756e+00,8.043e+00,7.993e+00,8.690e+00,7.665e+00,8.562e+00,8.825e+00,7.595e+00,9.129e+00,9.252e+00,8.172e+00,7.980e+00,8.194e+00,8.267e+00,8.269e+00,8.610e+00,9.169e+00,9.070e+00,8.957e+00,7.703e+00,8.302e+00,9.895e+00,7.639e+00,1.026e+01,9.412e+00,1.015e+01,8.983e+00,8.296e+00,9.071e+00,8.450e+00
3.091e-01,2.229e-01,3.031e-01,6.757e-01,8.375e-01,1.071e+00,9.450e-01,8.274e-01,1.370e+00,1.726e+00,2.269e+00,2.303e+00,2.396e+00,1.915e+00,2.866e+00,3.369e+00,3.565e+00,2.804e+00,4.087e+00,4.822e+00,3.971e+00,5.528e+00,6.579e+00,4.343e+00,5.940e+00,5.161e+00,6.548e+00,5.940e+00,7.680e+00,7.535e+00,6.179e+00,6.909e+00,5.833e+00,6.291e+00,6.807e+00,8.533e+00,7.903e+00,7.425e+00,7.612e+00,7.273e+00,8.345e+00,6.842e+00,8.130e+00,7.719e+00,6.908e+00,7.264e+00,6.830e+00,7.186e+00,9.284e+00,7.064e+00,9.055e+00,5.919e+00,7.230e+00,8.493e+00,8.261e+00,6.889e+00,7.488e+00,7.205e+00,9.516e+00,5.612e+00,5.574e+00,7.939e+00,8.095e+00,6.237e+00,8.082e+00,7.521e+00,7.631e+00,7.528e+00,6.180e+00,6.663e+00,7.320e+00,7.237e+00,6.804e+00,7.694e+00,8.370e+00,7.043e+00,7.310e+00,5.988e+00,8.316e+00,7.517e+00,7.497e+00,6.100e+00,7.647e+00,7.425e+00,8.045e+00,8.379e+00,7.553e+00,7.304e+00,8.418e+00,7.358e+00,7.308e+00,8.534e+00,7.591e+00,7.780e+00,7.349e+00
4.532e-01,3.904e-01,4.719e-01,1.064e+00,1.459e+00,1.869e+00,1.554e+00,1.567e+00,1.842e+00,3.077e+00,3.138e+00,3.527e+00,3.365e+00,2.611e+00,3.790e+00,4.560e+00,4.431e+00,3.644e+00,5.184e+00,5.440e+00,4.461e+00,6.694e+00,7.505e+00,5.210e+00,7.010e+00,6.002e+00,7.565e+00,6.635e+00,9.758e+00,8.143e+00,8.450e+00,8.647e+00,7.886e+00,6.874e+00,8.154e+00,1.065e+01,8.266e+00,9.953e+00,1.010e+01,9.297e+00,9.424e+00,7.899e+00,9.061e+00,8.503e+00,9.055e+00,7.499e+00,7.264e+00,8.435e+00,1.070e+01,8.281e+00,1.061e+01,7.078e+00,8.978e+00,1.081e+01,9.808e+00,9.580e+00,8.423e+00,8.974e+00,1.139e+01,8.171e+00,7.690e+00,1.013e+01,8.713e+00,8.505e+00,9.467e+00,8.941e+00,9.359e+00,1.028e+01,7.561e+00,8.598e+00,8.388e+00,8.237e+00,8.655e+00,9.733e+00,1.003e+01,8.155e+00,8.327e+00,8.270e+00,9.641e+00,9.991e+00,8.874e+00,9.009e+00,9.660e+00,1.041e+01,9.259e+00,1.037e+01,1.017e+01,8.789e+00,9.473e+00,8.740e+00,9.556e+00,9.786e+00,8.891e+00,9.905e+00,9.771e+00
2.752e-01,3.722e-01,3.420e-01,4.998e-01,1.155e+00,1.270e+00,1.349e+00,9.616e-01,1.616e+00,2.267e+00,2.903e+00,2.606e+00,2.779e+00,2.194e+00,2.927e+00,3.676e+00,3.111e+00,2.405e+00,3.869e+00,4.097e+00,3.486e+00,4.729e+00,4.763e+00,3.454e+00,5.884e+00,4.742e+00,5.802e+00,5.171e+00,6.320e+00,6.578e+00,5.517e+00,6.722e+00,6.084e+00,5.432e+00,7.692e+00,8.485e+00,6.668e+00,8.230e+00,7.673e+00,7.329e+00,7.392e+00,6.469e+00,7.132e+00,6.227e+00,6.842e+00,6.523e+00,6.362e+00,7.206e+00,8.197e+00,6.644e+00,8.020e+00,6.203e+00,7.208e+00,7.919e+00,7.984e+00,6.933e+00,7.145e+00,7.858e+00,9.004e+00,5.887e+00,6.222e+00,7.508e+00,6.767e+00,7.398e+00,8.162e+00,7.206e+00,7.533e+00,7.290e+00,5.564e+00,6.845e+00,7.059e+00,6.160e+00,6.734e+00,7.258e+00,8.558e+00,6.413e+00,5.432e+00,6.098e+00,7.054e+00,7.040e+00,7.837e+00,6.888e+00,8.072e+00,7.890e+00,7.798e+00,7.601e+00,8.234e+00,6.806e+00,8.088e+00,7.161e+00,7.485e+00,8.154e+00,6.996e+00,6.949e+00,6.755e+00
6.135e-01,5.344e-01,6.161e-01,7.144e-01,1.270e+00,1.684e+00,1.209e+00,1.227e+00,1.450e+00,2.469e+00,2.718e+00,2.660e+00,2.966e+00,2.157e+00,2.573e+00,3.974e+00,4.267e+00,2.833e+00,4.497e+00,5.192e+00,3.915e+00,5.408e+00,6.090e+00,3.827e+00,5.529e+00,5.119e+00,6.094e+00,5.508e+00,6.758e+00,7.141e+00,7.170e+00,6.975e+00,6.846e+00,6.622e+00,8.218e+00,1.098e+01,8.585e+00,8.756e+00,8.168e+00,8.533e+00,9.295e+00,7.710e+00,8.767e+00,7.432e+00,8.401e+00,7.342e+00,8.198e+00,8.809e+00,1.025e+01,7.634e+00,9.961e+00,7.887e+00,8.909e+00,9.683e+00,9.049e+00,9.075e+00,8.711e+00,8.759e+00,1.129e+01,7.212e+00,7.001e+00,8.596e+00,8.058e+00,7.816e+00,7.769e+00,8.195e+00,7.667e+00,9.008e+00,8.186e+00,7.758e+00,8.318e+00,7.827e+00,8.496e+00,8.487e+00,9.591e+00,8.340e+00,7.260e+00,7.297e+00,7.437e+00,8.453e+00,8.982e+00,8.630e+00,9.262e+00,9.082e+00,9.593e+00,9.557e+00,9.573e+00,8.858e+00,9.372e+00,7.681e+00,8.843e+00,1.002e+01,7.649e+00,8.471e+00,8.157e+00
7.396e-01,5.949e-01,7.120e-01,6.293e-01,1.106e+00,1.535e+00,1.193e+00,8.175e-01,1.167e+00,2.029e+00,2.852e+00,1.940e+00,2.608e+00,2.603e+00,3.286e+00,3.973e+00,4.765e+00,3.450e+00,4.553e+00,5.647e+00,4.802e+00,5.422e+00,6.629e+00,5.240e+00,7.336e+00,5.591e+00,7.622e+00,5.479e+00,7.784e+00,8.073e+00,6.661e+00,8.750e+00,6.816e+00,6.425e+00,7.941e+00,1.131e+01,9.065e+00,9.715e+00,8.894e+00,8.629e+00,1.013e+01,8.631e+00,1.062e+01,9.078e+00,9.208e+00,8.340e+00,9.670e+00,8.725e+00,1.007e+01,8.874e+00,1.097e+01,7.683e+00,8.251e+00,1.019e+01,9.719e+00,9.433e+00,9.825e+00,8.235e+00,1.201e+01,7.778e+00,8.611e+00,1.010e+01,8.412e+00,7.618e+00,1.018e+01,7.947e+00,8.398e+00,9.346e+00,7.688e+00,8.029e+00,8.756e+00,9.041e+00,8.159e+00,1.032e+01,1.136e+01,8.680e+00,7.508e+00,7.511e+00,8.713e+00,8.152e+00,9.124e+00,8.470e+00,1.004e+01,9.221e+00,9.743e+00,9.323e+00,1.017e+01,9.818e+00,1.018e+01,9.045e+00,8.522e+00,9.983e+00,9.480e+00,8.817e+00,7.824e+00
4.314e-01,4.393e-01,4.686e-01,7.936e-01,1.335e+00,1.577e+00,1.366e+00,9.244e-01,1.596e+00,2.024e+00,2.179e+00,2.251e+00,2.499e+00,1.801e+00,2.115e+00,3.446e+00,3.950e+00,2.910e+00,4.517e+00,5.120e+00,3.549e+00,5.849e+00,6.525e+00,4.279e+00,5.555e+00,5.299e+00,6.095e+00,5.965e+00,7.363e+00,7.520e+00,6.294e+00,7.068e+00,6.488e+00,6.940e+00,8.078e+00,1.098e+01,9.498e+00,1.050e+01,9.624e+00,8.854e+00,9.715e+00,8.381e+00,9.567e+00,9.097e+00,9.766e+00,1.002e+01,9.282e+00,9.368e+00,1.087e+01,1.002e+01,1.006e+01,8.995e+00,9.970e+00,9.737e+00,1.031e+01,9.688e+00,1.022e+01,9.330e+00,1.287e+01,7.467e+00,7.425e+00,1.014e+01,9.014e+00,7.541e+00,9.901e+00,9.427e+00,8.352e+00,9.337e+00,7.929e+00,8.602e+00,8.632e+00,9.229e+00,8.764e+00,1.039e+01,1.131e+01,1.055e+01,9.289e+00,8.734e+00,8.278e+00,7.738e+00,9.616e+00,8.345e+00,1.013e+01,8.848e+00,1.061e+01,1.005e+01,1.027e+01,9.453e+00,1.066e+01,8.757e+00,8.987e+00,9.971e+00,9.052e+00,9.339e+00,8.562e+00
3.367e-01,2.942e-01,3.414e-01,8.439e-01,1.035e+00,1.578e+00,1.050e+00,1.760e+00,1.844e+00,2.895e+00,3.891e+00,3.923e+00,3.588e+00,2.360e+00,3.204e+00,4.030e+00,3.759e+00,3.303e+00,4.504e+00,4.576e+00,3.816e+00,5.949e+00,6.282e+00,3.531e+00,5.637e+00,4.779e+00,6.713e+00,6.467e+00,7.600e+00,6.995e+00,8.079e+00,6.913e+00,8.404e+00,6.702e+00,8.658e+00,1.125e+01,8.462e+00,1.166e+01,8.568e+00,9.420e+00,8.923e+00,9.360e+00,9.502e+00,7.401e+00,9.966e+00,8.718e+00,8.687e+00,8.275e+00,1.102e+01,9.369e+00,1.033e+01,8.848e+00,9.551e+00,9.771e+00,1.007e+01,1.004e+01,8.959e+00,9.293e+00,1.139e+01,8.705e+00,9.142e+00,8.991e+00,9.037e+00,8.145e+00,9.306e+00,8.622e+00,9.152e+00,9.775e+00,7.212e+00,7.834e+00,9.239e+00,8.340e+00,7.813e+00,9.710e+00,1.005e+01,8.898e+00,1.068e+01,8.681e+00,8.374e+00,9.237e+00,1.027e+01,9.612e+00,9.464e+00,1.039e+01,1.021e+01,1.007e+01,1.086e+01,9.602e+00,1.103e+01,9.651e+00,9.537e+00,1.065e+01,9.336e+00,8.618e+00,8.945e+00
6.438e-02,1.263e-01,1.255e-01,3.775e-01,1.111e+00,1.484e+00,1.105e+00,1.562e+00,1.961e+00,2.644e+00,3.282e+00,4.066e+00,3.523e+00,3.387e+00,4.066e+00,4.826e+00,4.012e+00,3.488e+00,5.896e+00,5.668e+00,4.808e+00,6.376e+00,7.748e+00,5.297e+00,7.066e+00,6.254e+00,7.410e+00,7.407e+00,9.447e+00,9.443e+00,8.434e+00,8.559e+00,7.436e+00,8.228e+00,7.765e+00,1.109e+01,8.951e+00,1.110e+01,1.061e+01,1.114e+01,1.029e+01,1.035e+01,1.114e+01,9.634e+00,9.716e+00,9.197e+00,8.673e+00,9.716e+00,1.143e+01,1.159e+01,1.147e+01,7.655e+00,1.112e+01,1.188e+01,1.200e+01,1.032e+01,1.015e+01,1.030e+01,1.196e+01,9.078e+00,9.474e+00,1.063e+01,9.938e+00,1.084e+01,1.117e+01,1.034e+01,9.849e+00,1.040e+01,9.193e+00,9.068e+00,1.085e+01,9.928e+00,8.290e+00,1.136e+01,1.207e+01,1.091e+01,1.128e+01,1.001e+01,1.012e+01,9.517e+00,1.065e+01,1.047e+01,1.066e+01,9.844e+00,9.146e+00,1.090e+01,1.094e+01,9.803e+00,1.241e+01,1.068e+01,1.097e+01,1.080e+01,9.998e+00,1.055e+01,9.768e+00
1.609e-01,2.860e-01,2.302e-01,5.874e-01,9.859e-01,9.674e-01,1.225e+00,5.789e-01,1.446e+00,2.096e+00,2.944e+00,2.648e+00,3.129e+00,2.401e+00,3.118e+00,3.453e+00,2.320e+00,2.400e+00,4.079e+00,4.529e+00,2.873e+00,4.721e+00,4.992e+00,3.342e+00,5.558e+00,3.889e+00,6.151e+00,5.298e+00,7.550e+00,6.792e+00,6.811e+00,7.396e+00,7.081e+00,6.177e+00,7.190e+00,1.032e+01,8.769e+00,9.856e+00,9.813e+00,1.079e+01,9.601e+00,8.330e+00,9.679e+00,8.222e+00,1.032e+01,1.025e+01,9.790e+00,7.727e+00,1.094e+01,9.293e+00,9.449e+00,7.514e+00,9.532e+00,1.029e+01,1.083e+01,1.038e+01,9.967e+00,9.679e+00,1.269e+01,8.834e+00,8.080e+00,1.055e+01,1.006e+01,7.937e+00,9.229e+00,8.695e+00,1.012e+01,9.365e+00,8.102e+00,8.137e+00,9.296e+00,7.425e+00,7.228e+00,9.418e+00,9.196e+00,8.159e+00,1.012e+01,9.337e+00,8.188e+00,8.068e+00,9.984e+00,8.559e+00,8.508e+00,1.046e+01,1.003e+01,9.918e+00,1.014e+01,1.015e+01,1.057e+01,8.921e+00,9.065e+00,9.830e+00,9.783e+00,8.811e+00,8.728e+00
6.995e-01,3.769e-01,6.210e-01,8.360e-01,1.093e+00,1.626e+00,1.120e+00,9.831e-01,1.602e+00,2.144e+00,2.815e+00,2.726e+00,2.793e+00,1.815e+00,2.647e+00,3.454e+00,3.141e+00,3.683e+00,4.052e+00,4.523e+00,3.581e+00,5.985e+00,6.436e+00,4.472e+00,5.489e+00,5.482e+00,6.008e+00,6.086e+00,6.982e+00,6.964e+00,6.918e+00,6.927e+00,6.681e+00,5.789e+00,7.005e+00,9.694e+00,8.983e+00,9.459e+00,8.880e+00,9.591e+00,9.247e+00,9.734e+00,1.077e+01,9.441e+00,1.020e+01,8.936e+00,9.183e+00,8.905e+00,1.158e+01,9.713e+00,9.984e+00,9.028e+00,1.092e+01,1.042e+01,1.078e+01,9.796e+00,9.478e+00,1.095e+01,1.243e+01,7.741e+00,8.693e+00,9.916e+00,9.047e+00,8.109e+00,1.004e+01,9.703e+00,9.371e+00,1.074e+01,7.716e+00,9.564e+00,9.913e+00,8.241e+00,8.292e+00,9.846e+00,1.076e+01,1.014e+01,9.938e+00,8.917e+00,1.048e+01,1.040e+01,9.896e+00,9.387e+00,9.937e+00,9.262e+00,9.868e+00,1.140e+01,1.088e+01,9.169e+00,1.017e+01,9.523e+00,9.793e+00,9.729e+00,9.216e+00,8.944e+00,1.092e+01
8.549e-01,5.624e-01,7.904e-01,8.320e-01,1.397e+00,2.195e+00,1.341e+00,1.743e+00,1.639e+00,3.018e+00,3.185e+00,2.942e+00,2.792e+00,1.758e+00,2.169e+00,3.730e+00,4.530e+00,3.453e+00,4.461e+00,5.572e+00,4.416e+00,6.669e+00,7.024e+00,4.990e+00,6.110e+00,5.559e+00,6.444e+00,6.162e+00,7.115e+00,7.447e+00,7.246e+00,7.021e+00,6.707e+00,6.126e+00,6.709e+00,9.980e+00,7.807e+00,9.604e+00,8.465e+00,9.471e+00,1.081e+01,1.096e+01,1.261e+01,1.031e+01,9.082e+00,9.411e+00,9.930e+00,9.939e+00,1.149e+01,1.044e+01,1.079e+01,9.333e+00,1.187e+01,1.102e+01,1.074e+01,1.128e+01,1.139e+01,9.397e+00,1.281e+01,9.020e+00,9.502e+00,1.059e+01,9.252e+00,9.367e+00,9.760e+00,9.692e+00,9.054e+00,1.096e+01,8.336e+00,8.622e+00,9.844e+00,9.310e+00,8.420e+00,1.053e+01,1.205e+01,1.077e+01,1.164e+01,8.914e+00,9.714e+00,1.089e+01,1.053e+01,9.698e+00,1.025e+01,9.062e+00,1.035e+01,1.099e+01,1.165e+01,9.986e+00,1.118e+01,9.884e+00,9.857e+00,1.043e+01,9.628e+00,9.543e+00,1.101e+01
1.098e-01,2.304e-01,1.603e-01,3.179e-01,6.981e-01,9.472e-01,8.936e-01,8.468e-01,1.858e+00,1.432e+00,3.569e+00,2.845e+00,3.243e+00,2.779e+00,3.502e+00,3.910e+00,4.086e+00,3.606e+00,4.848e+00,5.141e+00,3.972e+00,5.418e+00,5.658e+00,3.581e+00,6.036e+00,4.777e+00,6.507e+00,5.320e+00,7.941e+00,7.970e+00,7.275e+00,6.928e+00,7.009e+00,6.375e+00,7.257e+00,1.019e+01,7.939e+00,9.898e+00,9.875e+00,9.410e+00,1.067e+01,9.747e+00,1.110e+01,8.127e+00,1.124e+01,9.430e+00,8.944e+00,1.022e+01,1.079e+01,9.918e+00,1.020e+01,9.399e+00,1.198e+01,1.084e+01,1.132e+01,1.119e+01,1.011e+01,1.073e+01,1.320e+01,8.618e+00,8.718e+00,9.991e+00,8.723e+00,9.644e+00,1.067e+01,1.061e+01,1.018e+01,1.124e+01,8.616e+00,7.768e+00,1.015e+01,9.271e+00,8.315e+00,1.026e+01,1.133e+01,8.363e+00,1.028e+01,8.945e+00,9.581e+00,9.945e+00,1.181e+01,9.589e+00,1.110e+01,1.111e+01,1.092e+01,1.039e+01,1.059e+01,1.023e+01,1.121e+01,1.001e+01,9.571e+00,1.098e+01,9.994e+00,1.175e+01,1.024e+01
5.112e-01,2.673e-01,4.483e-01,3.996e-01,7.313e-01,1.367e+00,7.413e-01,1.308e+00,1.228e+00,2.105e+00,2.815e+00,2.954e+00,2.403e+00,2.385e+00,3.340e+00,3.781e+00,3.887e+00,3.375e+00,4.093e+00,4.923e+00,4.355e+00,5.268e+00,6.858e+00,4.587e+00,6.808e+00,6.430e+00,6.306e+00,6.724e+00,7.743e+00,8.036e+00,6.853e+00,7.542e+00,7.193e+00,7.161e+00,9.062e+00,1.095e+01,8.518e+00,1.054e+01,9.589e+00,1.099e+01,1.009e+01,1.140e+01,1.160e+01,1.003e+01,1.069e+01,9.937e+00,8.862e+00,1.023e+01,1.258e+01,1.073e+01,1.067e+01,1.094e+01,1.187e+01,1.291e+01,1.180e+01,1.174e+01,1.207e+01,1.288e+01,1.470e+01,9.466e+00,1.033e+01,1.189e+01,9.978e+00,1.062e+01,1.203e+01,1.218e+01,1.059e+01,1.176e+01,1.044e+01,1.124e+01,1.084e+01,1.040e+01,1.030e+01,1.285e+01,1.274e+01,1.091e+01,1.070e+01,9.474e+00,9.582e+00,1.227e+01,1.173e+01,1.203e+01,1.002e+01,1.159e+01,1.046e+01,1.205e+01,1.158e+01,1.102e+01,1.227e+01,1.084e+01,1.161e+01,1.092e+01,1.086e+01,1.168e+01,1.136e+01
2.668e-02,1.768e-01,8.769e-02,6.260e-01,7.414e-01,1.040e+00,8.723e-01,1.497e+00,1.361e+00,2.424e+00,3.489e+00,3.568e+00,3.312e+00,3.118e+00,4.291e+00,4.356e+00,3.950e+00,3.359e+00,5.178e+00,5.060e+00,4.130e+00,5.996e+00,7.269e+00,4.193e+00,6.891e+00,5.815e+00,7.560e+00,7.167e+00,8.395e+00,7.805e+00,6.040e+00,7.574e+00,7.952e+00,7.852e+00,8.015e+00,1.099e+01,8.843e+00,1.067e+01,1.013e+01,1.072e+01,9.727e+00,1.105e+01,1.177e+01,9.240e+00,1.084e+01,1.086e+01,1.027e+01,1.051e+01,1.260e+01,1.303e+01,1.151e+01,9.092e+00,1.196e+01,1.124e+01,1.286e+01,1.155e+01,1.039e+01,1.073e+01,1.466e+01,9.189e+00,1.111e+01,1.080e+01,1.003e+01,1.148e+01,1.096e+01,1.153e+01,1.044e+01,1.177e+01,9.956e+00,1.032e+01,1.025e+01,1.053e+01,9.379e+00,1.215e+01,1.162e+01,1.034e+01,1.187e+01,1.018e+01,1.004e+01,9.904e+00,1.209e+01,1.111e+01,1.171e+01,1.137e+01,1.064e+01,1.143e+01,1.232e+01,1.037e+01,1.285e+01,1.153e+01,1.199e+01,1.207e+01,1.106e+01,1.195e+01,1.081e+01
8.131e-01,6.467e-01,7.999e-01,9.729e-01,1.730e+00,2.292e+00,1.643e+00,1.134e+00,2.024e+00,2.940e+00,3.901e+00,3.281e+00,4.002e+00,3.191e+00,3.678e+00,5.137e+00,4.889e+00,4.586e+00,5.515e+00,5.892e+00,4.786e+00,6.380e+00,7.422e+00,4.914e+00,6.255e+00,6.116e+00,7.110e+00,6.170e+00,7.994e+00,8.349e+00,8.031e+00,6.773e+00,7.326e+00,6.733e+00,8.008e+00,1.098e+01,8.809e+00,9.676e+00,9.889e+00,1.028e+01,1.028e+01,1.135e+01,1.264e+01,1.015e+01,1.197e+01,1.101e+01,1.070e+01,1.261e+01,1.338e+01,1.051e+01,1.286e+01,1.074e+01,1.285e+01,1.430e+01,1.255e+01,1.220e+01,1.245e+01,1.210e+01,1.529e+01,1.101e+01,1.014e+01,1.134e+01,1.186e+01,1.170e+01,1.253e+01,1.150e+01,1.139e+01,1.182e+01,1.139e+01,1.018e+01,1.129e+01,1.160e+01,1.027e+01,1.237e+01,1.383e+01,1.224e+01,1.277e+01,1.159e+01,1.041e+01,1.237e+01,1.212e+01,1.270e+01,1.180e+01,1.198e+01,1.354e+01,1.287e+01,1.288e+01,1.271e+01,1.314e+01,1.250e+01,1.277e+01,1.214e+01,1.142e+01,1.263e+01,1.284e+01
5.724e-01,5.381e-01,6.067e-01,9.587e-01,1.729e+00,2.151e+00,1.793e+00,1.159e+00,2.256e+00,3.104e+00,4.238e+00,3.763e+00,4.392e+00,3.440e+00,3.994e+00,5.625e+00,5.125e+00,4.674e+00,6.429e+00,6.265e+00,4.779e+00,7.415e+00,8.423e+00,5.378e+00,8.115e+00,6.620e+00,7.945e+00,7.119e+00,9.143e+00,9.600e+00,8.146e+00,7.907e+00,8.270e+00,7.174e+00,8.105e+00,1.191e+01,9.859e+00,1.108e+01,1.078e+01,1.175e+01,1.131e+01,1.150e+01,1.344e+01,1.081e+01,1.306e+01,1.252e+01,1.193e+01,1.285e+01,1.525e+01,1.267e+01,1.409e+01,1.158e+01,1.427e+01,1.465e+01,1.474e+01,1.390e+01,1.338e+01,1.284e+01,1.653e+01,1.127e+01,1.244e+01,1.347e+01,1.278e+01,1.341e+01,1.379e+01,1.328e+01,1.115e+01,1.237e+01,1.256e+01,1.132e+01,1.316e+01,1.299e+01,1.156e+01,1.414e+01,1.501e+01,1.324e+01,1.406e+01,1.153e+01,1.205e+01,1.295e+01,1.305e+01,1.332e+01,1.222e+01,1.269e+01,1.396e+01,1.423e+01,1.418e+01,1.425e+01,1.441e+01,1.356e+01,1.370e+01,1.291e+01,1.399e+01,1.290e+01,1.506e+01
2.665e-01,3.664e-01,3.475e-01,5.581e-01,1.554e+00,1.910e+00,1.608e+00,1.273e+00,2.439e+00,2.856e+00,4.217e+00,3.809e+00,3.769e+00,3.152e+00,3.475e+00,4.866e+00,4.137e+00,4.072e+00,5.495e+00,6.018e+00,4.518e+00,7.091e+00,7.449e+00,5.339e+00,7.191e+00,6.177e+00,6.878e+00,7.212e+00,8.612e+00,9.172e+00,7.837e+00,7.798e+00,8.116e+00,7.936e+00,9.279e+00,1.196e+01,1.022e+01,1.152e+01,1.037e+01,1.194e+01,1.189e+01,1.160e+01,1.290e+01,1.016e+01,1.189e+01,1.210e+01,1.174e+01,1.311e+01,1.502e+01,1.261e+01,1.395e+01,1.208e+01,1.416e+01,1.329e+01,1.437e+01,1.380e+01,1.360e+01,1.268e+01,1.737e+01,1.064e+01,1.303e+01,1.337e+01,1.249e+01,1.417e+01,1.385e+01,1.361e+01,1.181e+01,1.232e+01,1.195e+01,1.150e+01,1.293e+01,1.222e+01,1.222e+01,1.482e+01,1.571e+01,1.294e+01,1.335e+01,1.199e+01,1.220e+01,1.367e+01,1.343e+01,1.394e+01,1.133e+01,1.279e+01,1.398e+01,1.511e+01,1.422e+01,1.339e+01,1.409e+01,1.269e+01,1.370e+01,1.452e+01,1.363e+01,1.394e+01,1.394e+01
2.813e-01,3.022e-01,3.265e-01,8.715e-01,1.345e+00,1.568e+00,1.405e+00,8.147e-01,1.901e+00,2.289e+00,3.441e+00,3.010e+00,3.253e+00,2.920e+00,3.794e+00,4.605e+00,3.599e+00,4.059e+00,4.848e+00,4.921e+00,3.808e+00,5.559e+00,6.479e+00,4.603e+00,6.005e+00,5.292e+00,6.728e+00,6.282e+00,8.820e+00,7.898e+00,7.771e+00,7.865e+00,7.625e+00,7.062e+00,8.971e+00,1.075e+01,8.691e+00,1.024e+01,1.061e+01,9.872e+00,9.815e+00,9.409e+00,1.113e+01,9.465e+00,1.180e+01,1.023e+01,1.018e+01,1.204e+01,1.298e+01,1.129e+01,1.217e+01,1.017e+01,1.264e+01,1.215e+01,1.295e+01,1.251e+01,1.182e+01,1.140e+01,1.547e+01,1.058e+01,1.102e+01,1.205e+01,1.168e+01,1.178e+01,1.351e+01,1.114e+01,1.215e+01,1.162e+01,9.849e+00,1.079e+01,1.153e+01,1.208e+01,1.144e+01,1.411e+01,1.396e+01,1.058e+01,1.096e+01,1.207e+01,1.185e+01,1.151e+01,1.332e+01,1.207e+01,1.193e+01,1.315e+01,1.297e+01,1.337e+01,1.292e+01,1.206e+01,1.274e+01,1.211e+01,1.351e+01,1.220e+01,1.243e+01,1.298e+01,1.249e+01
5.174e-01,4.161e-01,5.122e-01,7.538e-01,1.175e+00,1.675e+00,1.417e+00,1.511e+00,1.662e+00,2.722e+00,3.353e+00,3.135e+00,3.242e+00,2.831e+00,4.024e+00,4.288e+00,4.399e+00,3.424e+00,4.406e+00,4.620e+00,4.360e+00,5.691e+00,6.707e+00,4.208e+00,7.155e+00,5.707e+00,7.945e+00,6.519e+00,8.949e+00,7.825e+00,6.803e+00,8.140e+00,8.166e+00,6.286e+00,9.401e+00,1.156e+01,9.247e+00,1.173e+01,1.141e+01,1.059e+01,1.096e+01,1.147e+01,1.262e+01,1.101e+01,1.282e+01,1.240e+01,1.073e+01,1.273e+01,1.651e+01,1.334e+01,1.508e+01,1.376e+01,1.376e+01,1.349e+01,1.446e+01,1.550e+01,1.382e+01,1.326e+01,1.717e+01,1.234e+01,1.344e+01,1.406e+01,1.309e+01,1.369e+01,1.416e+01,1.385e+01,1.347e+01,1.391e+01,1.185e+01,1.192e+01,1.233e+01,1.272e+01,1.358e+01,1.585e+01,1.601e+01,1.195e+01,1.314e+01,1.235e+01,1.288e+01,1.363e+01,1.438e+01,1.396e+01,1.389e+01,1.480e+01,1.485e+01,1.474e+01,1.507e+01,1.521e+01,1.431e+01,1.399e+01,1.383e+01,1.456e+01,1.500e+01,1.476e+01,1.489e+01
1.182e-01,1.109e-01,1.248e-01,3.125e-01,4.454e-01,6.981e-01,5.241e-01,7.125e-01,8.792e-01,1.110e+00,2.004e+00,1.761e+00,1.589e+00,1.785e+00,2.426e+00,2.740e+00,2.599e+00,2.055e+00,2.873e+00,3.790e+00,2.581e+00,4.159e+00,5.143e+00,3.491e+00,5.131e+00,4.212e+00,4.669e+00,5.378e+00,6.459e+00,6.490e+00,4.696e+00,6.228e+00,5.826e+00,6.357e+00,6.676e+00,8.586e+00,7.736e+00,8.018e+00,9.568e+00,8.615e+00,8.794e+00,9.060e+00,1.054e+01,9.310e+00,1.008e+01,9.973e+00,9.426e+00,9.771e+00,1.132e+01,1.242e+01,1.055e+01,9.533e+00,1.198e+01,1.128e+01,1.147e+01,1.162e+01,1.023e+01,1.186e+01,1.455e+01,9.559e+00,9.816e+00,1.242e+01,1.027e+01,1.031e+01,1.007e+01,1.022e+01,1.076e+01,1.044e+01,9.863e+00,1.056e+01,9.675e+00,1.017e+01,1.030e+01,1.197e+01,1.164e+01,9.918e+00,1.042e+01,1.048e+01,1.100e+01,1.027e+01,1.106e+01,1.099e+01,1.117e+01,1.097e+01,1.036e+01,1.190e+01,1.124e+01,1.013e+01,1.143e+01,1.058e+01,1.115e+01,1.162e+01,1.101e+01,1.164e+01,1.216e+01
7.538e-01,5.412e-01,7.074e-01,7.741e-01,1.274e+00,1.896e+00,1.263e+00,8.224e-01,1.570e+00,2.197e+00,3.444e+00,2.822e+00,3.555e+00,3.021e+00,3.218e+00,4.144e+00,4.163e+00,5.012e+00,5.232e+00,5.666e+00,3.768e+00,6.086e+00,7.420e+00,5.081e+00,6.954e+00,6.160e+00,7.164e+00,6.114e+00,8.574e+00,8.126e+00,7.678e+00,7.815e+00,7.968e+00,5.859e+00,6.386e+00,1.106e+01,8.674e+00,1.050e+01,9.870e+00,1.010e+01,1.019e+01,1.023e+01,1.138e+01,9.785e+00,1.234e+01,1.074e+01,1.005e+01,1.021e+01,1.273e+01,1.239e+01,1.242e+01,1.145e+01,1.377e+01,1.479e+01,1.319e+01,1.420e+01,1.257e+01,1.222e+01,1.542e+01,1.293e+01,1.286e+01,1.338e+01,1.161e+01,1.101e+01,1.371e+01,1.211e+01,1.164e+01,1.205e+01,1.132e+01,1.136e+01,1.146e+01,1.146e+01,1.139e+01,1.345e+01,1.428e+01,1.159e+01,1.251e+01,1.328e+01,1.179e+01,1.182e+01,1.235e+01,1.283e+01,1.329e+01,1.270e+01,1.273e+01,1.324e+01,1.434e+01,1.287e+01,1.297e+01,1.337e+01,1.222e+01,1.219e+01,1.476e+01,1.246e+01,1.411e+01
7.516e-01,5.581e-01,7.240e-01,1.016e+00,1.524e+00,2.010e+00,1.465e+00,9.490e-01,1.735e+00,2.617e+00,3.555e+00,2.705e+00,3.511e+00,2.580e+00,3.072e+00,4.893e+00,4.498e+00,3.802e+00,5.056e+00,5.766e+00,4.052e+00,6.335e+00,6.958e+00,4.567e+00,6.296e+00,5.370e+00,7.050e+00,6.126e+00,8.123e+00,8.687e+00,7.630e+00,7.146e+00,7.810e+00,6.921e+00,8.499e+00,1.080e+01,8.883e+00,9.165e+00,1.018e+01,1.017e+01,1.037e+01,9.671e+00,1.237e+01,9.625e+00,1.151e+01,1.095e+01,1.126e+01,1.139e+01,1.321e+01,1.217e+01,1.251e+01,1.177e+01,1.338e+01,1.381e+01,1.427e+01,1.370e+01,1.311e+01,1.222e+01,1.619e+01,1.172e+01,1.320e+01,1.325e+01,1.256e+01,1.329e+01,1.293e+01,1.291e+01,1.174e+01,1.159e+01,1.186e+01,9.973e+00,1.235e+01,1.175e+01,1.114e+01,1.348e+01,1.455e+01,1.184e+01,1.242e+01,1.243e+01,1.256e+01,1.209e+01,1.356e+01,1.262e+01,1.304e+01,1.257e+01,1.481e+01,1.438e+01,1.348e+01,1.362e+01,1.410e+01,1.270e+01,1.303e+01,1.371e+01,1.353e+01,1.285e+01,1.384e+01
6.344e-01,3.821e-01,5.609e-01,6.243e-01,7.212e-01,1.171e+00,6.858e-01,7.493e-01,1.145e+00,1.649e+00,2.916e+00,2.545e+00,2.892e+00,2.338e+00,3.329e+00,4.302e+00,4.100e+00,3.816e+00,4.537e+00,5.506e+00,4.115e+00,5.219e+00,6.547e+00,4.027e+00,6.332e+00,6.011e+00,7.020e+00,5.723e+00,7.318e+00,7.781e+00,6.657e+00,6.701e+00,6.822e+00,6.570e+00,8.015e+00,1.053e+01,8.909e+00,9.703e+00,9.925e+00,1.065e+01,1.073e+01,1.181e+01,1.271e+01,1.027e+01,1.110e+01,1.244e+01,1.046e+01,1.217e+01,1.452e+01,1.355e+01,1.327e+01,1.333e+01,1.570e+01,1.441e+01,1.548e+01,1.396e+01,1.372e+01,1.469e+01,1.820e+01,1.242e+01,1.364e+01,1.464e+01,1.399e+01,1.389e+01,1.540e+01,1.407e+01,1.344e+01,1.396e+01,1.446e+01,1.162e+01,1.469e+01,1.473e+01,1.313e+01,1.589e+01,1.603e+01,1.376e+01,1.410e+01,1.370e+01,1.413e+01,1.341e+01,1.453e+01,1.454e+01,1.367e+01,1.398e+01,1.515e+01,1.592e+01,1.450e+01,1.494e+01,1.429e+01,1.457e+01,1.432e+01,1.540e+01,1.471e+01,1.403e+01,1.461e+01
5.804e-01,4.875e-01,5.955e-01,9.902e-01,1.577e+00,1.885e+00,1.589e+00,9.670e-01,1.599e+00,2.501e+00,2.563e+00,2.213e+00,2.776e+00,2.591e+00,3.155e+00,4.250e+00,3.843e+00,2.277e+00,3.696e+00,3.186e+00,3.388e+00,4.271e+00,5.772e+00,3.548e+00,5.730e+00,4.202e+00,6.102e+00,5.221e+00,6.475e+00,6.159e+00,5.402e+00,5.524e+00,5.618e+00,5.330e+00,6.510e+00,8.758e+00,7.507e+00,8.248e+00,8.681e+00,8.298e+00,8.821e+00,9.142e+00,1.043e+01,8.751e+00,9.626e+00,8.612e+00,9.609e+00,1.101e+01,1.317e+01,1.099e+01,1.170e+01,1.118e+01,1.317e+01,1.346e+01,1.342e+01,1.407e+01,1.243e+01,1.203e+01,1.538e+01,1.217e+01,1.139e+01,1.288e+01,1.241e+01,1.397e+01,1.242e+01,1.268e+01,1.171e+01,1.232e+01,1.232e+01,1.178e+01,1.183e+01,1.228e+01,1.293e+01,1.325e+01,1.351e+01,1.205e+01,1.177e+01,1.099e+01,1.210e+01,1.175e+01,1.235e+01,1.309e+01,1.227e+01,1.261e+01,1.303e+01,1.372e+01,1.286e+01,1.166e+01,1.216e+01,1.427e+01,1.214e+01,1.277e+01,1.341e+01,1.345e+01,1.457e+01
3.116e-01,1.311e-01,2.749e-01,5.442e-01,8.096e-01,1.278e+00,7.080e-01,8.912e-01,1.573e+00,1.461e+00,2.391e+00,2.582e+00,2.537e+00,1.945e+00,2.232e+00,3.099e+00,2.689e+00,2.984e+00,3.813e+00,4.163e+00,2.824e+00,4.784e+00,5.313e+00,3.397e+00,3.908e+00,4.164e+00,4.763e+00,4.700e+00,5.628e+00,6.057e+00,5.513e+00,5.306e+00,5.849e+00,5.722e+00,6.493e+00,9.510e+00,8.111e+00,8.963e+00,8.461e+00,9.546e+00,8.577e+00,8.734e+00,9.397e+00,7.640e+00,9.834e+00,9.650e+00,8.926e+00,1.005e+01,1.220e+01,1.124e+01,1.154e+01,1.127e+01,1.276e+01,1.213e+01,1.243e+01,1.347e+01,1.179e+01,1.282e+01,1.605e+01,1.234e+01,1.211e+01,1.294e+01,1.187e+01,1.279e+01,1.254e+01,1.369e+01,1.305e+01,1.224e+01,1.137e+01,1.064e+01,1.180e+01,1.096e+01,1.222e+01,1.349e+01,1.416e+01,1.246e+01,1.287e+01,1.255e+01,1.258e+01,1.229e+01,1.228e+01,1.353e+01,1.371e+01,1.239e+01,1.458e+01,1.506e+01,1.391e+01,1.304e+01,1.277e+01,1.277e+01,1.214e+01,1.344e+01,1.298e+01,1.344e+01,1.306e+01
1.389e-01,3.582e-01,2.481e-01,6.832e-01,1.311e+00,1.326e+00,1.559e+00,7.529e-01,1.718e+00,2.365e+00,3.214e+00,2.715e+00,3.125e+00,2.590e+00,3.282e+00,4.167e+00,3.926e+00,3.298e+00,4.886e+00,4.705e+00,3.813e+00,6.110e+00,6.724e+00,4.665e+00,7.101e+00,5.412e+00,6.788e+00,6.258e+00,8.009e+00,8.240e+00,6.203e+00,7.335e+00,6.939e+00,6.176e+00,7.834e+00,9.929e+00,8.530e+00,9.623e+00,9.789e+00,1.013e+01,1.060e+01,9.690e+00,1.171e+01,1.001e+01,1.165e+01,1.179e+01,1.090e+01,1.199e+01,1.487e+01,1.213e+01,1.261e+01,1.144e+01,1.338e+01,1.311e+01,1.463e+01,1.521e+01,1.526e+01,1.351e+01,1.716e+01,1.344e+01,1.307e+01,1.437e+01,1.406e+01,1.458e+01,1.468e+01,1.487e+01,1.350e+01,1.348e+01,1.272e+01,1.289e+01,1.250e+01,1.301e+01,1.311e+01,1.558e+01,1.457e+01,1.271e+01,1.453e+01,1.268e+01,1.302e+01,1.353e+01,1.396e+01,1.426e+01,1.396e+01,1.302e+01,1.551e+01,1.475e+01,1.528e+01,1.489e+01,1.505e+01,1.489e+01,1.395e+01,1.325e+01,1.539e+01,1.428e+01,1.519e+01
2.380e-01,3.914e-01,3.091e-01,5.100e-01,9.756e-01,1.147e+00,1.084e+00,1.297e+00,1.464e+00,2.111e+00,2.650e+00,3.071e+00,2.931e+00,2.275e+00,3.164e+00,4.120e+00,4.377e+00,3.689e+00,5.268e+00,5.826e+00,4.163e+00,6.654e+00,6.858e+00,5.076e+00,7.100e+00,6.226e+00,6.470e+00,5.679e+00,8.696e+00,8.722e+00,7.364e+00,8.150e+00,6.592e+00,6.671e+00,7.985e+00,1.055e+01,8.356e+00,1.001e+01,9.966e+00,9.844e+00,1.092e+01,1.004e+01,1.114e+01,9.838e+00,1.163e+01,1.037e+01,9.912e+00,1.128e+01,1.301e+01,1.184e+01,1.192e+01,1.197e+01,1.352e+01,1.331e+01,1.359e+01,1.460e+01,1.323e+01,1.280e+01,1.691e+01,1.322e+01,1.466e+01,1.570e+01,1.278e+01,1.388e+01,1.527e+01,1.421e+01,1.227e+01,1.452e+01,1.266e+01,1.287e+01,1.342e+01,1.361e+01,1.395e+01,1.583e+01,1.573e+01,1.403e+01,1.279e+01,1.352e+01,1.436e+01,1.373e+01,1.400e+01,1.570e+01,1.465e+01,1.385e+01,1.451e+01,1.450e+01,1.542e+01,1.303e+01,1.408e+01,1.393e+01,1.365e+01,1.420e+01,1.545e+01,1.417e+01,1.452e+01
8.999e-01,3.762e-01,7.300e-01,8.784e-01,5.920e-01,1.387e+00,4.782e-01,1.294e+00,5.327e-01,1.990e+00,2.121e+00,1.862e+00,1.886e+00,1.731e+00,3.016e+00,3.368e+00,4.335e+00,3.101e+00,4.089e+00,5.245e+00,4.897e+00,5.211e+00,6.675e+00,4.395e+00,5.298e+00,4.969e+00,6.743e+00,5.162e+00,7.082e+00,7.376e+00,6.576e+00,7.273e+00,5.286e+00,6.810e+00,6.929e+00,9.290e+00,8.355e+00,7.439e+00,7.812e+00,8.212e+00,9.122e+00,8.824e+00,1.143e+01,9.266e+00,9.229e+00,8.735e+00,9.184e+00,9.889e+00,1.105e+01,1.120e+01,1.117e+01,9.945e+00,1.225e+01,1.205e+01,1.174e+01,1.247e+01,1.211e+01,1.228e+01,1.589e+01,1.169e+01,1.260e+01,1.456e+01,1.192e+01,1.221e+01,1.361e+01,1.331e+01,1.108e+01,1.405e+01,1.199e+01,1.199e+01,1.282e+01,1.369e+01,1.273e+01,1.548e+01,1.414e+01,1.292e+01,1.300e+01,1.066e+01,1.377e+01,1.240e+01,1.191e+01,1.406e+01,1.491e+01,1.330e+01,1.254e+01,1.382e+01,1.349e+01,1.203e+01,1.259e+01,1.426e+01,1.353e+01,1.278e+01,1.314e+01,1.359e+01,1.280e+01
6.395e-01,4.822e-01,6.065e-01,1.095e+00,1.167e+00,1.600e+00,1.334e+00,1.023e+00,1.510e+00,2.375e+00,3.185e+00,2.518e+00,2.640e+00,1.911e+00,3.111e+00,3.230e+00,3.642e+00,3.420e+00,3.887e+00,4.832e+00,3.921e+00,6.209e+00,6.554e+00,4.426e+00,5.053e+00,4.486e+00,5.895e+00,5.511e+00,7.047e+00,6.288e+00,6.836e+00,6.045e+00,6.363e+00,5.617e+00,6.809e+00,9.808e+00,8.262e+00,9.223e+00,8.252e+00,8.724e+00,9.492e+00,9.484e+00,1.103e+01,8.649e+00,1.092e+01,9.474e+00,9.697e+00,1.077e+01,1.250e+01,1.075e+01,1.191e+01,1.038e+01,1.394e+01,1.237e+01,1.367e+01,1.317e+01,1.304e+01,1.281e+01,1.800e+01,1.276e+01,1.329e+01,1.446e+01,1.393e+01,1.413e+01,1.460e+01,1.375e+01,1.271e+01,1.455e+01,1.339e+01,1.251e+01,1.317e+01,1.382e+01,1.215e+01,1.572e+01,1.402e+01,1.383e+01,1.507e+01,1.289e+01,1.385e+01,1.340e+01,1.353e+01,1.507e+01,1.345e+01,1.510e+01,1.557e+01,1.429e+01,1.462e+01,1.449e+01,1.350e+01,1.462e+01,1.412e+01,1.295e+01,1.470e+01,1.510e+01,1.509e+01
7.710e-01,3.132e-01,6.551e-01,1.037e+00,1.290e+00,2.191e+00,1.284e+00,1.642e+00,1.970e+00,2.986e+00,3.889e+00,4.176e+00,3.801e+00,3.181e+00,4.216e+00,5.207e+00,4.334e+00,5.399e+00,5.633e+00,5.719e+00,4.429e+00,6.718e+00,8.636e+00,4.894e+00,7.145e+00,6.181e+00,7.112e+00,6.687e+00,9.344e+00,8.817e+00,8.347e+00,7.839e+00,8.279e+00,7.070e+00,8.962e+00,1.180e+01,9.137e+00,1.125e+01,1.030e+01,1.049e+01,9.486e+00,1.103e+01,1.219e+01,1.056e+01,1.220e+01,1.144e+01,1.100e+01,1.231e+01,1.401e+01,1.286e+01,1.453e+01,1.280e+01,1.473e+01,1.558e+01,1.472e+01,1.700e+01,1.377e+01,1.470e+01,1.979e+01,1.482e+01,1.613e+01,1.767e+01,1.601e+01,1.651e+01,1.787e+01,1.632e+01,1.525e+01,1.565e+01,1.511e+01,1.574e+01,1.444e+01,1.578e+01,1.641e+01,1.884e+01,1.882e+01,1.593e+01,1.611e+01,1.472e+01,1.551e+01,1.631e+01,1.671e+01,1.831e+01,1.721e+01,1.728e+01,1.684e+01,1.697e+01,1.823e+01,1.598e+01,1.684e+01,1.821e+01,1.614e+01,1.664e+01,1.823e+01,1.768e+01,1.709e+01
6.708e-02,5.535e-02,8.158e-02,7.555e-01,6.718e-01,8.064e-01,7.387e-01,7.980e-01,1.228e+00,1.488e+00,2.153e+00,2.649e+00,2.207e+00,1.992e+00,3.100e+00,3.658e+00,2.893e+00,2.425e+00,4.132e+00,4.076e+00,2.955e+00,5.311e+00,6.417e+00,3.658e+00,5.795e+00,5.027e+00,6.602e+00,6.599e+00,7.327e+00,7.706e+00,6.980e+00,7.137e+00,6.882e+00,7.124e+00,8.178e+00,1.087e+01,9.827e+00,9.845e+00,1.018e+01,1.066e+01,1.017e+01,1.114e+01,1.237e+01,1.039e+01,1.076e+01,1.117e+01,1.152e+01,1.159e+01,1.430e+01,1.266e+01,1.271e+01,1.148e+01,1.291e+01,1.372e+01,1.354e+01,1.412e+01,1.392e+01,1.464e+01,1.838e+01,1.273e+01,1.342e+01,1.580e+01,1.497e+01,1.433e+01,1.494e+01,1.420e+01,1.486e+01,1.473e+01,1.438e+01,1.483e+01,1.385e+01,1.344e+01,1.453e+01,1.581e+01,1.622e+01,1.532e+01,1.460e+01,1.336e+01,1.576e+01,1.429e+01,1.454e+01,1.615e+01,1.582e+01,1.445e+01,1.502e+01,1.630e+01,1.634e+01,1.487e+01,1.695e+01,1.549e+01,1.446e+01,1.595e+01,1.589e+01,1.481e+01,1.439e+01
2.664e-01,2.027e-01,2.590e-01,7.451e-01,7.505e-01,1.107e+00,8.229e-01,1.151e+00,1.335e+00,1.881e+00,2.626e+00,2.893e+00,2.691e+00,2.200e+00,3.177e+00,3.903e+00,3.965e+00,3.130e+00,4.323e+00,4.289e+00,3.365e+00,4.901e+00,6.385e+00,3.401e+00,6.107e+00,4.713e+00,6.152e+00,5.289e+00,7.287e+00,6.331e+00,6.108e+00,6.215e+00,6.703e+00,5.536e+00,6.648e+00,9.639e+00,7.346e+00,9.156e+00,8.738e+00,8.557e+00,8.695e+00,8.829e+00,9.497e+00,7.928e+00,8.918e+00,8.577e+00,8.383e+00,1.007e+01,1.142e+01,1.004e+01,1.105e+01,1.001e+01,1.192e+01,1.228e+01,1.216e+01,1.292e+01,1.100e+01,1.175e+01,1.504e+01,1.087e+01,1.125e+01,1.422e+01,1.153e+01,1.352e+01,1.338e+01,1.324e+01,1.212e+01,1.342e+01,1.239e+01,1.316e+01,1.170e+01,1.164e+01,1.330e+01,1.374e+01,1.469e+01,1.162e+01,1.257e+01,1.071e+01,1.176e+01,1.221e+01,1.328e+01,1.287e+01,1.412e+01,1.336e+01,1.350e+01,1.358e+01,1.426e+01,1.250e+01,1.365e+01,1.356e+01,1.238e+01,1.266e+01,1.344e+01,1.359e+01,1.277e+01
8.984e-01,3.709e-01,7.588e-01,1.098e+00,1.233e+00,2.023e+00,1.334e+00,1.395e+00,1.788e+00,2.674e+00,3.403e+00,3.556e+00,3.369e+00,2.804e+00,4.139e+00,5.230e+00,4.597e+00,5.031e+00,5.556e+00,6.278e+00,4.589e+00,6.626e+00,8.672e+00,4.810e+00,7.682e+00,6.469e+00,8.355e+00,6.755e+00,9.337e+00,8.901e+00,7.582e+00,8.182e+00,7.427e+00,7.010e+00,8.281e+00,1.176e+01,9.744e+00,9.822e+00,9.842e+00,1.050e+01,1.007e+01,1.073e+01,1.327e+01,1.083e+01,1.165e+01,1.087e+01,1.149e+01,1.181e+01,1.355e+01,1.254e+01,1.491e+01,1.297e+01,1.344e+01,1.540e+01,1.381e+01,1.561e+01,1.325e+01,1.397e+01,2.026e+01,1.280e+01,1.513e+01,1.865e+01,1.529e+01,1.616e+01,1.750e+01,1.628e+01,1.488e+01,1.764e+01,1.524e+01,1.634e+01,1.532e+01,1.621e+01,1.830e+01,1.850e+01,1.968e+01,1.631e+01,1.607e+01,1.489e+01,1.608e+01,1.650e+01,1.582e+01,1.738e+01,1.814e+01,1.783e+01,1.753e+01,1.775e+01,1.739e+01,1.655e+01,1.704e+01,1.741e+01,1.636e+01,1.688e+01,1.740e+01,1.784e+01,1.639e+01
9.476e-02,2.354e-01,1.791e-01,6.776e-01,1.258e+00,1.474e+00,1.282e+00,1.129e+00,1.653e+00,2.104e+00,2.478e+00,2.604e+00,2.311e+00,2.436e+00,3.053e+00,4.171e+00,4.574e+00,3.404e+00,5.191e+00,4.875e+00,4.273e+00,5.719e+00,6.922e+00,4.727e+00,6.321e+00,5.878e+00,7.422e+00,6.624e+00,8.297e+00,8.295e+00,7.211e+00,8.122e+00,6.657e+00,7.726e+00,8.759e+00,1.061e+01,9.399e+00,9.914e+00,1.056e+01,1.126e+01,1.161e+01,1.204e+01,1.379e+01,1.082e+01,1.106e+01,1.195e+01,1.094e+01,1.246e+01,1.464e+01,1.369e+01,1.344e+01,1.252e+01,1.556e+01,1.422e+01,1.465e+01,1.616e+01,1.541e+01,1.490e+01,1.947e+01,1.356e+01,1.526e+01,1.764e+01,1.512e+01,1.669e+01,1.671e+01,1.605e+01,1.691e+01,1.625e+01,1.506e+01,1.467e+01,1.488e+01,1.662e+01,1.611e+01,1.778e+01,1.880e+01,1.523e+01,1.702e+01,1.341e+01,1.685e+01,1.543e+01,1.674e+01,1.711e+01,1.908e+01,1.574e+01,1.733e+01,1.782e+01,1.805e+01,1.628e+01,1.814e+01,1.862e+01,1.664e+01,1.597e+01,1.703e+01,1.680e+01,1.546e+01
3.718e-01,1.831e-01,3.213e-01,8.697e-01,6.878e-01,1.078e+00,8.586e-01,1.115e+00,1.583e+00,1.804e+00,2.828e+00,3.253e+00,2.855e+00,1.999e+00,3.350e+00,3.305e+00,2.652e+00,2.586e+00,3.827e+00,4.585e+00,3.251e+00,5.247e+00,5.429e+00,2.839e+00,4.994e+00,4.496e+00,6.547e+00,5.944e+00,7.129e+00,6.884e+00,6.500e+00,7.016e+00,7.080e+00,6.053e+00,8.096e+00,1.014e+01,7.981e+00,8.972e+00,8.790e+00,9.608e+00,9.857e+00,9.393e+00,1.127e+01,9.915e+00,1.027e+01,1.109e+01,1.008e+01,1.062e+01,1.341e+01,1.077e+01,1.316e+01,1.142e+01,1.188e+01,1.307e+01,1.338e+01,1.446e+01,1.372e+01,1.450e+01,1.871e+01,1.370e+01,1.297e+01,1.608e+01,1.568e+01,1.520e+01,1.656e+01,1.579e+01,1.491e+01,1.611e+01,1.374e+01,1.514e+01,1.377e+01,1.449e+01,1.560e+01,1.634e+01,1.607e+01,1.472e+01,1.521e+01,1.386e+01,1.627e+01,1.545e+01,1.524e+01,1.602e+01,1.749e+01,1.738e+01,1.832e+01,1.602e+01,1.679e+01,1.564e+01,1.636e+01,1.597e+01,1.617e+01,1.593e+01,1.640e+01,1.724e+01,1.492e+01
3.150e-01,1.474e-01,2.807e-01,2.329e-01,5.550e-01,7.765e-01,5.089e-01,3.070e-01,8.199e-01,8.961e-01,1.471e+00,1.475e+00,1.544e+00,1.728e+00,2.395e+00,3.232e+00,2.901e+00,3.261e+00,3.203e+00,4.061e+00,2.964e+00,4.009e+00,5.999e+00,4.986e+00,5.332e+00,5.364e+00,5.494e+00,5.683e+00,7.810e+00,6.936e+00,6.341e+00,7.268e+00,6.137e+00,6.619e+00,6.775e+00,9.488e+00,8.586e+00,8.307e+00,9.987e+00,1.038e+01,1.053e+01,1.067e+01,1.184e+01,9.800e+00,1.067e+01,1.009e+01,9.497e+00,1.095e+01,1.217e+01,1.165e+01,1.235e+01,1.100e+01,1.384e+01,1.343e+01,1.410e+01,1.460e+01,1.295e+01,1.442e+01,1.704e+01,1.261e+01,1.342e+01,1.508e+01,1.366e+01,1.472e+01,1.496e+01,1.398e+01,1.517e+01,1.570e+01,1.368e+01,1.535e+01,1.504e+01,1.427e+01,1.531e+01,1.641e+01,1.658e+01,1.513e+01,1.573e+01,1.418e+01,1.579e+01,1.573e+01,1.605e+01,1.575e+01,1.647e+01,1.645e+01,1.547e+01,1.572e+01,1.633e+01,1.530e+01,1.513e+01,1.682e+01,1.704e+01,1.387e+01,1.542e+01,1.489e+01,1.404e+01
8.919e-01,6.879e-01,8.574e-01,1.045e+00,1.633e+00,2.320e+00,1.605e+00,1.279e+00,1.769e+00,3.175e+00,4.383e+00,3.521e+00,4.099e+00,3.999e+00,4.884e+00,5.976e+00,6.049e+00,5.502e+00,6.190e+00,6.655e+00,5.804e+00,6.937e+00,9.373e+00,6.199e+00,8.973e+00,7.439e+00,8.752e+00,7.271e+00,9.933e+00,1.000e+01,8.891e+00,9.039e+00,9.289e+00,8.395e+00,1.044e+01,1.422e+01,1.115e+01,1.227e+01,1.179e+01,1.209e+01,1.207e+01,1.352e+01,1.351e+01,1.163e+01,1.307e+01,1.148e+01,1.179e+01,1.414e+01,1.651e+01,1.308e+01,1.559e+01,1.236e+01,1.531e+01,1.622e+01,1.625e+01,1.630e+01,1.593e+01,1.462e+01,1.953e+01,1.542e+01,1.485e+01,1.631e+01,1.600e+01,1.695e+01,1.811e+01,1.645e+01,1.695e+01,1.799e+01,1.696e+01,1.819e+01,1.729e+01,1.760e+01,1.785e+01,1.900e+01,1.956e+01,1.709e+01,1.792e+01,1.599e+01,1.764e+01,1.665e+01,1.930e+01,1.784e+01,1.915e+01,1.969e+01,1.762e+01,1.829e+01,1.990e+01,1.772e+01,1.941e+01,1.913e+01,1.875e+01,1.821e+01,1.880e+01,1.877e+01,1.690e+01
1.050e-01,6.427e-02,1.079e-01,1.747e-01,5.450e-01,8.531e-01,4.746e-01,4.526e-01,1.149e+00,9.497e-01,2.132e+00,2.012e+00,1.890e+00,2.338e+00,2.602e+00,2.645e+00,2.359e+00,3.030e+00,3.609e+00,4.128e+00,3.214e+00,4.499e+00,5.632e+00,4.816e+00,4.959e+00,4.834e+00,4.831e+00,5.516e+00,6.454e+00,6.700e+00,5.976e+00,6.591e+00,5.473e+00,5.743e+00,5.199e+00,8.586e+00,7.311e+00,7.850e+00,7.922e+00,8.482e+00,8.825e+00,9.248e+00,1.002e+01,8.900e+00,8.576e+00,7.894e+00,8.597e+00,9.803e+00,1.087e+01,1.061e+01,1.060e+01,8.355e+00,1.200e+01,1.159e+01,1.181e+01,1.228e+01,1.162e+01,1.218e+01,1.505e+01,1.178e+01,1.179e+01,1.422e+01,1.243e+01,1.315e+01,1.413e+01,1.262e+01,1.459e+01,1.497e+01,1.441e+01,1.562e+01,1.378e+01,1.338e+01,1.414e+01,1.644e+01,1.580e+01,1.549e+01,1.470e+01,1.449e+01,1.633e+01,1.428e+01,1.574e+01,1.521e+01,1.606e+01,1.501e+01,1.366e+01,1.485e+01,1.695e+01,1.415e+01,1.594e+01,1.519e+01,1.536e+01,1.474e+01,1.548e+01,1.527e+01,1.375e+01
1.558e-01,9.380e-02,1.626e-01,5.133e-01,8.173e-01,1.068e+00,8.960e-01,6.165e-01,1.408e+00,1.399e+00,2.216e+00,2.122e+00,1.972e+00,1.843e+00,2.563e+00,3.220e+00,3.056e+00,3.412e+00,3.527e+00,3.674e+00,2.897e+00,5.269e+00,6.678e+00,5.315e+00,5.926e+00,5.442e+00,5.957e+00,6.154e+00,7.565e+00,6.772e+00,6.773e+00,7.048e+00,7.031e+00,6.433e+00,7.203e+00,1.005e+01,9.166e+00,9.742e+00,9.057e+00,9.602e+00,1.069e+01,1.048e+01,1.192e+01,9.252e+00,1.065e+01,9.695e+00,1.069e+01,1.203e+01,1.365e+01,1.086e+01,1.389e+01,1.117e+01,1.292e+01,1.254e+01,1.228e+01,1.316e+01,1.177e+01,1.261e+01,1.841e+01,1.138e+01,1.301e+01,1.465e+01,1.351e+01,1.479e+01,1.566e+01,1.348e+01,1.548e+01,1.533e+01,1.439e+01,1.520e+01,1.426e+01,1.500e+01,1.616e+01,1.875e+01,1.806e+01,1.525e+01,1.552e+01,1.439e+01,1.598e+01,1.574e+01,1.736e+01,1.536e+01,1.650e+01,1.655e+01,1.690e+01,1.704e+01,1.811e+01,1.613e+01,1.618e+01,1.522e+01,1.603e+01,1.596e+01,1.673e+01,1.666e+01,1.419e+01
7.326e-01,6.103e-01,7.287e-01,1.065e+00,1.668e+00,2.303e+00,1.767e+00,1.482e+00,2.032e+00,2.866e+00,3.448e+00,3.328e+00,3.333e+00,2.899e+00,3.396e+00,3.807e+00,4.192e+00,4.403e+00,5.030e+00,5.514e+00,4.382e+00,6.822e+00,7.337e+00,5.082e+00,6.888e+00,6.364e+00,7.314e+00,6.454e+00,8.162e+00,8.357e+00,7.193e+00,8.207e+00,6.938e+00,6.369e+00,7.567e+00,1.039e+01,8.179e+00,9.576e+00,9.665e+00,1.013e+01,9.467e+00,9.740e+00,1.045e+01,1.016e+01,1.060e+01,1.016e+01,9.384e+00,9.843e+00,1.275e+01,1.175e+01,1.200e+01,1.012e+01,1.272e+01,1.394e+01,1.405e+01,1.483e+01,1.304e+01,1.393e+01,1.678e+01,1.433e+01,1.520e+01,1.687e+01,1.487e+01,1.553e+01,1.646e+01,1.540e+01,1.561e+01,1.589e+01,1.551e+01,1.574e+01,1.512e+01,1.464e+01,1.677e+01,1.799e+01,1.762e+01,1.613e+01,1.644e+01,1.586e+01,1.777e+01,1.633e+01,1.647e+01,1.749e+01,1.866e+01,1.739e+01,1.765e+01,1.793e+01,1.924e+01,1.741e+01,1.887e+01,1.782e+01,1.760e+01,1.582e+01,1.842e+01,1.733e+01,1.719e+01
8.840e-01,6.175e-01,8.122e-01,9.997e-01,1.302e+00,2.058e+00,1.270e+00,1.000e+00,1.664e+00,2.065e+00,3.702e+00,2.841e+00,3.335e+00,3.341e+00,3.874e+00,4.486e+00,4.890e+00,4.417e+00,4.568e+00,4.259e+00,4.182e+00,5.136e+00,6.712e+00,4.336e+00,7.205e+00,5.608e+00,7.988e+00,5.655e+00,7.274e+00,7.831e+00,7.199e+00,7.446e+00,7.356e+00,5.779e+00,7.012e+00,1.070e+01,7.950e+00,9.713e+00,9.008e+00,8.022e+00,9.466e+00,9.683e+00,1.039e+01,9.874e+00,1.007e+01,8.911e+00,1.019e+01,1.029e+01,1.189e+01,1.081e+01,1.195e+01,1.017e+01,1.132e+01,1.312e+01,1.339e+01,1.405e+01,1.213e+01,1.271e+01,1.639e+01,1.330e+01,1.388e+01,1.593e+01,1.495e+01,1.533e+01,1.695e+01,1.416e+01,1.604e+01,1.518e+01,1.617e+01,1.622e+01,1.656e+01,1.607e+01,1.759e+01,1.937e+01,1.867e+01,1.756e+01,1.754e+01,1.645e+01,1.833e+01,1.644e+01,1.868e+01,1.865e+01,1.959e+01,1.886e+01,1.824e+01,1.699e+01,1.919e+01,1.773e+01,1.991e+01,1.851e+01,1.929e+01,1.610e+01,1.869e+01,1.861e+01,1.652e+01
6.656e-01,5.166e-01,6.439e-01,5.469e-01,1.110e+00,1.568e+00,1.225e+00,1.181e+00,1.222e+00,2.486e+00,2.871e+00,2.410e+00,2.301e+00,2.266e+00,3.054e+00,3.496e+00,3.793e+00,2.860e+00,3.727e+00,4.888e+00,4.749e+00,4.363e+00,5.051e+00,3.660e+00,5.907e+00,4.351e+00,6.030e+00,4.328e+00,6.231e+00,6.516e+00,4.620e+00,6.501e+00,4.638e+00,4.795e+00,6.820e+00,8.714e+00,6.629e+00,7.470e+00,7.100e+00,7.676e+00,7.643e+00,8.560e+00,9.696e+00,9.515e+00,8.224e+00,9.177e+00,8.318e+00,1.012e+01,1.128e+01,1.006e+01,1.165e+01,1.022e+01,1.084e+01,1.166e+01,1.169e+01,1.251e+01,1.256e+01,1.085e+01,1.399e+01,1.111e+01,1.255e+01,1.439e+01,1.214e+01,1.481e+01,1.438e+01,1.328e+01,1.304e+01,1.412e+01,1.502e+01,1.511e+01,1.444e+01,1.513e+01,1.809e+01,1.737e+01,1.851e+01,1.572e+01,1.592e+01,1.404e+01,1.584e+01,1.505e+01,1.610e+01,1.690e+01,1.797e+01,1.674e+01,1.516e+01,1.516e+01,1.838e+01,1.653e+01,1.869e+01,1.748e+01,1.763e+01,1.655e+01,1.725e+01,1.784e+01,1.437e+01
5.110e-01,3.453e-01,5.023e-01,5.889e-01,1.396e+00,1.969e+00,1.514e+00,1.514e+00,2.383e+00,2.866e+00,3.996e+00,4.379e+00,3.867e+00,3.466e+00,4.408e+00,5.154e+00,4.246e+00,5.166e+00,5.982e+00,6.497e+00,5.303e+00,7.369e+00,8.505e+00,5.798e+00,7.858e+00,7.135e+00,7.788e+00,7.615e+00,1.002e+01,1.005e+01,8.032e+00,9.161e+00,7.493e+00,7.761e+00,8.726e+00,1.117e+01,9.706e+00,1.110e+01,1.094e+01,1.156e+01,1.055e+01,1.179e+01,1.331e+01,1.177e+01,1.247e+01,1.230e+01,1.141e+01,1.238e+01,1.521e+01,1.431e+01,1.489e+01,1.239e+01,1.550e+01,1.608e+01,1.656e+01,1.631e+01,1.476e+01,1.635e+01,2.039e+01,1.538e+01,1.767e+01,1.939e+01,1.797e+01,1.854e+01,1.982e+01,1.808e+01,1.956e+01,1.986e+01,1.775e+01,1.864e+01,1.871e+01,1.926e+01,2.088e+01,2.369e+01,2.288e+01,2.011e+01,2.040e+01,1.921e+01,2.135e+01,1.926e+01,2.118e+01,2.091e+01,2.215e+01,2.158e+01,2.027e+01,2.077e+01,2.213e+01,2.024e+01,2.248e+01,2.114e+01,2.303e+01,2.038e+01,2.187e+01,2.147e+01,1.950e+01
7.623e-02,2.657e-01,1.770e-01,7.470e-01,1.401e+00,1.735e+00,1.552e+00,1.597e+00,2.451e+00,2.918e+00,4.343e+00,4.194e+00,3.885e+00,3.611e+00,4.457e+00,4.944e+00,4.704e+00,4.125e+00,5.989e+00,6.418e+00,5.557e+00,7.567e+00,8.659e+00,6.195e+00,8.548e+00,6.914e+00,9.122e+00,8.442e+00,9.988e+00,1.002e+01,7.783e+00,8.786e+00,8.222e+00,8.619e+00,8.787e+00,1.214e+01,1.035e+01,1.205e+01,1.017e+01,1.165e+01,1.168e+01,1.301e+01,1.420e+01,1.161e+01,1.195e+01,1.135e+01,1.227e+01,1.241e+01,1.512e+01,1.381e+01,1.458e+01,1.205e+01,1.470e+01,1.560e+01,1.684e+01,1.472e+01,1.455e+01,1.487e+01,1.908e+01,1.484e+01,1.592e+01,1.703e+01,1.639e+01,1.775e+01,1.883e+01,1.721e+01,1.726e+01,1.822e+01,1.756e+01,1.849e+01,1.801e+01,1.841e+01,1.974e+01,2.093e+01,2.185e+01,2.139e+01,2.025e+01,1.975e+01,2.110e+01,1.867e+01,2.024e+01,1.985e+01,2.124e+01,2.181e+01,2.002e+01,1.947e+01,2.245e+01,1.954e+01,2.207e+01,2.139e+01,2.143e+01,2.088e+01,2.127e+01,2.121e+01,1.885e+01
5.120e-01,2.101e-01,4.156e-01,7.803e-01,5.648e-01,1.201e+00,6.855e-01,1.261e+00,1.449e+00,2.057e+00,3.605e+00,3.264e+00,3.256e+00,2.223e+00,3.574e+00,3.705e+00,3.297e+00,3.502e+00,4.352e+00,4.970e+00,3.816e+00,6.254e+00,6.238e+00,3.862e+00,5.804e+00,4.921e+00,6.869e+00,6.134e+00,7.329e+00,7.683e+00,6.961e+00,7.186e+00,7.171e+00,6.628e+00,7.421e+00,1.034e+01,9.213e+00,1.010e+01,8.895e+00,8.603e+00,9.448e+00,9.938e+00,1.176e+01,9.639e+00,1.154e+01,1.043e+01,1.134e+01,1.199e+01,1.425e+01,1.325e+01,1.354e+01,1.179e+01,1.314e+01,1.333e+01,1.369e+01,1.400e+01,1.439e+01,1.398e+01,1.897e+01,1.412e+01,1.510e+01,1.627e+01,1.510e+01,1.544e+01,1.540e+01,1.592e+01,1.453e+01,1.560e+01,1.421e+01,1.587e+01,1.521e+01,1.580e+01,1.768e+01,1.877e+01,1.961e+01,1.847e+01,1.769e+01,1.524e+01,1.969e+01,1.661e+01,1.727e+01,1.828e+01,1.879e+01,1.886e+01,1.704e+01,1.813e+01,1.925e+01,1.761e+01,1.762e+01,1.830e+01,1.898e+01,1.767e+01,1.909e+01,1.894e+01,1.859e+01
4.530e-02,2.274e-01,1.254e-01,5.782e-01,9.543e-01,1.220e+00,1.045e+00,1.229e+00,1.564e+00,2.396e+00,3.557e+00,3.319e+00,3.287e+00,3.253e+00,4.141e+00,4.061e+00,3.826e+00,4.056e+00,5.585e+00,6.548e+00,4.654e+00,6.768e+00,7.632e+00,5.626e+00,7.041e+00,6.571e+00,8.062e+00,7.808e+00,9.884e+00,8.646e+00,8.259e+00,9.360e+00,8.382e+00,7.997e+00,8.601e+00,1.225e+01,1.020e+01,1.116e+01,1.122e+01,1.166e+01,1.222e+01,1.216e+01,1.374e+01,1.141e+01,1.311e+01,1.285e+01,1.210e+01,1.349e+01,1.581e+01,1.417e+01,1.425e+01,1.245e+01,1.628e+01,1.481e+01,1.563e+01,1.566e+01,1.430e+01,1.379e+01,1.951e+01,1.337e+01,1.535e+01,1.671e+01,1.596e+01,1.632e+01,1.637e+01,1.635e+01,1.674e+01,1.846e+01,1.756e+01,1.712e+01,1.901e+01,1.776e+01,1.915e+01,2.176e+01,2.116e+01,1.959e+01,2.023e+01,1.914e+01,2.083e+01,1.949e+01,2.215e+01,2.166e+01,2.184e+01,2.292e+01,1.989e+01,1.932e+01,2.211e+01,2.117e+01,2.231e+01,2.018e+01,2.451e+01,2.017e+01,2.225e+01,2.387e+01,2.009e+01
5.526e-01,5.002e-01,5.706e-01,5.372e-01,1.304e+00,1.725e+00,1.446e+00,1.118e+00,1.510e+00,2.411e+00,2.956e+00,2.692e+00,2.897e+00,3.004e+00,3.584e+00,3.875e+00,3.808e+00,4.309e+00,5.044e+00,5.678e+00,4.378e+00,5.831e+00,6.557e+00,5.030e+00,6.762e+00,6.168e+00,7.239e+00,5.729e+00,7.610e+00,8.176e+00,7.136e+00,8.604e+00,6.438e+00,6.026e+00,9.080e+00,1.199e+01,8.879e+00,9.964e+00,9.371e+00,1.022e+01,9.494e+00,1.074e+01,1.152e+01,9.823e+00,1.200e+01,1.030e+01,1.141e+01,1.205e+01,1.376e+01,1.259e+01,1.373e+01,1.229e+01,1.369e+01,1.510e+01,1.393e+01,1.506e+01,1.364e+01,1.338e+01,1.781e+01,1.332e+01,1.444e+01,1.576e+01,1.420e+01,1.526e+01,1.580e+01,1.487e+01,1.478e+01,1.364e+01,1.594e+01,1.450e+01,1.498e+01,1.518e+01,1.717e+01,1.875e+01,2.056e+01,1.625e+01,1.533e+01,1.622e+01,1.604e+01,1.692e+01,1.963e+01,2.081e+01,1.922e+01,1.750e+01,1.732e+01,1.708e+01,1.898e+01,1.820e+01,1.892e+01,1.829e+01,1.934e+01,1.644e+01,1.878e+01,1.929e+01,1.721e+01
8.706e-01,4.460e-01,7.769e-01,1.185e+00,1.637e+00,2.371e+00,1.634e+00,1.093e+00,2.233e+00,2.662e+00,3.683e+00,3.689e+00,3.795e+00,3.299e+00,4.014e+00,5.264e+00,4.462e+00,4.846e+00,6.054e+00,5.861e+00,4.634e+00,6.655e+00,8.314e+00,4.841e+00,7.359e+00,6.510e+00,8.746e+00,7.514e+00,9.439e+00,1.012e+01,8.989e+00,9.419e+00,8.510e+00,8.588e+00,9.381e+00,1.310e+01,1.124e+01,1.151e+01,1.148e+01,1.166e+01,1.213e+01,1.117e+01,1.375e+01,1.276e+01,1.223e+01,1.263e+01,1.233e+01,1.303e+01,1.505e+01,1.387e+01,1.564e+01,1.290e+01,1.460e+01,1.594e+01,1.629e+01,1.746e+01,1.601e+01,1.580e+01,2.138e+01,1.517e+01,1.515e+01,1.839e+01,1.736e+01,1.811e+01,1.883e+01,1.730e+01,1.796e+01,1.703e+01,1.712e+01,1.727e+01,1.772e+01,1.835e+01,1.985e+01,2.101e+01,2.265e+01,2.122e+01,1.899e+01,1.911e+01,2.040e+01,1.844e+01,2.109e+01,2.178e+01,2.379e+01,2.190e+01,2.153e+01,2.145e+01,2.323e+01,2.136e+01,2.142e+01,2.240e+01,2.160e+01,2.067e+01,2.225e+01,2.227e+01,1.988e+01
9.378e-01,3.775e-01,7.816e-01,8.059e-01,9.748e-01,1.584e+00,9.142e-01,6.057e-01,1.209e+00,1.767e+00,2.319e+00,2.081e+00,2.777e+00,2.277e+00,3.183e+00,4.223e+00,3.667e+00,3.826e+00,3.989e+00,4.515e+00,3.731e+00,4.776e+00,6.751e+00,4.323e+00,5.426e+00,4.628e+00,6.242e+00,4.951e+00,7.886e+00,7.333e+00,6.650e+00,6.297e+00,6.022e+00,5.489e+00,6.239e+00,9.858e+00,8.458e+00,8.141e+00,8.421e+00,9.095e+00,9.213e+00,9.041e+00,1.097e+01,9.027e+00,1.056e+01,8.522e+00,9.165e+00,8.511e+00,1.109e+01,8.864e+00,1.091e+01,9.963e+00,1.100e+01,1.240e+01,1.150e+01,1.373e+01,1.074e+01,1.143e+01,1.558e+01,1.106e+01,1.308e+01,1.331e+01,1.349e+01,1.349e+01,1.375e+01,1.370e+01,1.319e+01,1.581e+01,1.459e+01,1.362e+01,1.396e+01,1.432e+01,1.491e+01,1.752e+01,1.789e+01,1.746e+01,1.701e+01,1.475e+01,1.674e+01,1.651e+01,1.774e+01,1.877e+01,1.872e+01,1.919e+01,1.725e+01,1.724e+01,1.881e+01,1.866e+01,1.833e+01,1.872e+01,1.727e+01,1.731e+01,1.876e+01,1.991e+01,1.651e+01
1.914e-01,2.628e-01,2.371e-01,8.614e-01,1.068e+00,1.459e+00,1.205e+00,1.496e+00,1.378e+00,2.679e+00,3.187e+00,3.253e+00,2.724e+00,2.416e+00,3.566e+00,3.926e+00,4.196e+00,3.938e+00,5.053e+00,5.086e+00,4.304e+00,6.302e+00,6.823e+00,5.149e+00,7.230e+00,6.327e+00,8.320e+00,6.518e+00,8.908e+00,8.329e+00,8.156e+00,8.788e+00,7.725e+00,7.112e+00,8.666e+00,1.134e+01,8.976e+00,1.060e+01,1.063e+01,1.158e+01,1.122e+01,1.215e+01,1.305e+01,1.160e+01,1.157e+01,1.155e+01,1.088e+01,1.153e+01,1.442e+01,1.256e+01,1.350e+01,1.205e+01,1.434e+01,1.463e+01,1.482e+01,1.506e+01,1.506e+01,1.450e+01,1.910e+01,1.524e+01,1.602e+01,1.848e+01,1.594e+01,1.674e+01,1.741e+01,1.671e+01,1.624e+01,1.822e+01,1.696e+01,1.811e+01,1.777e+01,1.699e+01,1.895e+01,1.953e+01,2.038e+01,1.941e+01,1.979e+01,1.832e+01,2.036e+01,1.901e+01,2.073e+01,2.267e+01,2.186e+01,2.236e+01,1.984e+01,1.907e+01,2.237e+01,1.989e+01,2.083e+01,2.020e+01,2.220e+01,1.881e+01,2.251e+01,2.065e+01,1.961e+01
7.700e-01,3.824e-01,6.694e-01,9.820e-01,1.068e+00,1.561e+00,1.074e+00,8.428e-01,1.316e+00,2.228e+00,2.822e+00,2.290e+00,2.819e+00,2.016e+00,3.271e+00,4.368e+00,3.966e+00,3.292e+00,4.166e+00,5.295e+00,4.062e+00,5.365e+00,6.506e+00,4.374e+00,5.796e+00,5.050e+00,6.653e+00,5.402e+00,7.071e+00,6.587e+00,5.502e+00,5.723e+00,5.771e+00,5.466e+00,6.474e+00,9.716e+00,7.763e+00,8.199e+00,7.864e+00,9.020e+00,9.110e+00,9.725e+00,1.155e+01,8.868e+00,1.044e+01,9.394e+00,9.639e+00,1.063e+01,1.230e+01,1.002e+01,1.136e+01,1.165e+01,1.349e+01,1.365e+01,1.258e+01,1.377e+01,1.363e+01,1.368e+01,1.804e+01,1.272e+01,1.328e+01,1.584e+01,1.380e+01,1.421e+01,1.558e+01,1.558e+01,1.502e+01,1.715e+01,1.584e+01,1.561e+01,1.494e+01,1.610e+01,1.621e+01,1.817e+01,1.874e+01,1.903e+01,1.723e+01,1.586e+01,1.764e+01,1.797e+01,1.827e+01,1.969e+01,2.034e+01,2.173e+01,1.845e+01,1.924e+01,1.978e+01,1.985e+01,1.822e+01,2.016e+01,1.885e+01,1.758e+01,1.882e+01,1.861e+01,1.938e+01
3.258e-01,3.538e-01,3.637e-01,9.425e-01,1.244e+00,1.530e+00,1.344e+00,9.870e-01,1.560e+00,2.212e+00,3.111e+00,3.007e+00,2.697e+00,2.713e+00,3.759e+00,4.876e+00,4.838e+00,4.112e+00,5.335e+00,5.258e+00,4.161e+00,6.039e+00,7.477e+00,4.596e+00,7.308e+00,5.713e+00,7.693e+00,6.126e+00,8.757e+00,8.496e+00,7.066e+00,7.318e+00,6.832e+00,7.003e+00,7.560e+00,1.077e+01,8.953e+00,9.256e+00,9.648e+00,9.237e+00,9.637e+00,9.986e+00,1.140e+01,1.025e+01,1.060e+01,1.082e+01,1.015e+01,1.112e+01,1.212e+01,1.215e+01,1.245e+01,1.055e+01,1.236e+01,1.334e+01,1.348e+01,1.443e+01,1.293e+01,1.297e+01,1.781e+01,1.204e+01,1.389e+01,1.662e+01,1.380e+01,1.523e+01,1.700e+01,1.505e+01,1.370e+01,1.554e+01,1.568e+01,1.581e+01,1.467e+01,1.637e+01,1.737e+01,1.911e+01,1.903e+01,1.809e+01,1.759e+01,1.607e+01,1.827e+01,1.648e+01,1.836e+01,2.162e+01,2.112e+01,2.175e+01,1.904e+01,1.919e+01,1.979e+01,1.899e+01,2.105e+01,2.070e+01,2.070e+01,1.858e+01,2.103e+01,2.143e+01,1.855e+01
4.740e-01,4.967e-01,4.974e-01,9.806e-01,1.188e+00,1.519e+00,1.269e+00,9.042e-01,1.580e+00,1.875e+00,3.260e+00,2.597e+00,3.084e+00,2.827e+00,3.659e+00,4.401e+00,4.725e+00,3.759e+00,5.229e+00,6.105e+00,4.333e+00,6.778e+00,7.271e+00,4.898e+00,7.500e+00,6.457e+00,7.881e+00,6.661e+00,8.407e+00,9.709e+00,6.929e+00,7.696e+00,7.174e+00,6.735e+00,8.588e+00,1.103e+01,8.115e+00,9.159e+00,1.022e+01,9.601e+00,1.079e+01,1.035e+01,1.238e+01,1.088e+01,1.166e+01,1.112e+01,1.091e+01,1.142e+01,1.297e+01,1.198e+01,1.224e+01,1.120e+01,1.211e+01,1.343e+01,1.454e+01,1.475e+01,1.445e+01,1.374e+01,1.784e+01,1.323e+01,1.556e+01,1.665e+01,1.443e+01,1.585e+01,1.684e+01,1.566e+01,1.398e+01,1.656e+01,1.681e+01,1.616e+01,1.562e+01,1.624e+01,1.709e+01,2.012e+01,2.046e+01,2.088e+01,1.827e+01,1.768e+01,1.988e+01,1.827e+01,1.924e+01,2.235e+01,2.175e+01,2.145e+01,2.057e+01,1.967e+01,2.289e+01,2.153e+01,2.395e+01,2.216e+01,2.074e+01,2.053e+01,2.254e+01,2.184e+01,1.975e+01
2.092e-01,3.310e-01,2.983e-01,8.948e-01,1.630e+00,1.926e+00,1.716e+00,1.439e+00,2.421e+00,2.831e+00,3.771e+00,3.672e+00,3.195e+00,2.673e+00,3.330e+00,4.656e+00,3.825e+00,3.290e+00,4.720e+00,5.197e+00,3.767e+00,5.992e+00,6.164e+00,3.662e+00,5.681e+00,4.828e+00,6.669e+00,6.505e+00,7.679e+00,7.074e+00,6.830e+00,6.379e+00,7.315e+00,6.011e+00,8.844e+00,1.040e+01,7.833e+00,9.814e+00,9.348e+00,1.014e+01,9.909e+00,1.081e+01,1.223e+01,9.257e+00,1.037e+01,1.085e+01,1.025e+01,1.205e+01,1.400e+01,1.212e+01,1.285e+01,1.263e+01,1.499e+01,1.388e+01,1.494e+01,1.549e+01,1.383e+01,1.394e+01,1.920e+01,1.309e+01,1.567e+01,1.631e+01,1.520e+01,1.760e+01,1.635e+01,1.571e+01,1.618e+01,1.657e+01,1.527e+01,1.581e+01,1.559e+01,1.544e+01,1.725e+01,1.981e+01,2.029e+01,1.705e+01,1.817e+01,1.781e+01,1.860e+01,1.809e+01,2.030e+01,2.111e+01,2.146e+01,2.262e+01,2.168e+01,2.033e+01,2.288e+01,2.229e+01,2.205e+01,2.050e+01,2.209e+01,2.024e+01,2.186e+01,2.124e+01,2.169e+01
2.547e-01,3.644e-01,3.266e-01,4.134e-01,1.206e+00,1.372e+00,1.302e+00,8.015e-01,1.780e+00,2.315e+00,3.295e+00,2.811e+00,2.945e+00,2.119e+00,2.336e+00,3.360e+00,3.083e+00,3.268e+00,4.781e+00,5.517e+00,4.019e+00,5.760e+00,5.548e+00,4.056e+00,5.088e+00,4.593e+00,5.385e+00,5.051e+00,6.019e+00,7.156e+00,6.508e+00,6.356e+00,5.839e+00,6.264e+00,7.033e+00,9.910e+00,8.028e+00,9.274e+00,7.861e+00,1.054e+01,9.611e+00,9.529e+00,1.069e+01,8.107e+00,1.043e+01,1.055e+01,9.796e+00,1.160e+01,1.278e+01,1.042e+01,1.178e+01,1.056e+01,1.345e+01,1.306e+01,1.400e+01,1.512e+01,1.492e+01,1.372e+01,1.840e+01,1.419e+01,1.390e+01,1.545e+01,1.387e+01,1.621e+01,1.726e+01,1.593e+01,1.514e+01,1.604e+01,1.602e+01,1.574e+01,1.542e+01,1.520e+01,1.718e+01,1.863e+01,2.026e+01,1.952e+01,1.899e+01,1.781e+01,1.787e+01,1.797e+01,2.009e+01,2.302e+01,2.146e+01,2.263e+01,2.199e+01,2.128e+01,2.363e+01,2.249e+01,2.243e+01,2.367e+01,2.267e+01,2.044e+01,2.262e+01,2.249e+01,2.012e+01
8.146e-01,4.682e-01,7.148e-01,8.911e-01,9.001e-01,1.370e+00,9.770e-01,6.535e-01,1.123e+00,1.767e+00,2.742e+00,1.859e+00,2.697e+00,2.299e+00,3.336e+00,3.516e+00,3.127e+00,2.578e+00,3.558e+00,4.621e+00,3.685e+00,4.266e+00,4.934e+00,2.725e+00,5.090e+00,4.419e+00,6.815e+00,5.523e+00,7.506e+00,7.263e+00,6.254e+00,6.642e+00,6.154e+00,5.543e+00,6.860e+00,8.347e+00,6.776e+00,7.200e+00,8.348e+00,7.518e+00,9.003e+00,7.419e+00,9.816e+00,8.673e+00,8.764e+00,9.088e+00,7.209e+00,8.283e+00,9.752e+00,8.940e+00,9.039e+00,8.924e+00,1.013e+01,1.065e+01,1.132e+01,1.186e+01,1.075e+01,1.073e+01,1.474e+01,9.977e+00,1.099e+01,1.328e+01,1.253e+01,1.381e+01,1.445e+01,1.262e+01,1.261e+01,1.358e+01,1.295e+01,1.266e+01,1.415e+01,1.343e+01,1.461e+01,1.782e+01,1.624e+01,1.610e+01,1.608e+01,1.396e+01,1.632e+01,1.443e+01,1.651e+01,1.728e+01,1.842e+01,1.956e+01,1.903e+01,1.676e+01,1.822e+01,1.906e+01,1.846e+01,1.824e+01,2.011e+01,1.672e+01,1.973e+01,1.992e+01,1.648e+01
5.378e-01,5.251e-01,5.765e-01,9.942e-01,1.652e+00,2.071e+00,1.775e+00,1.561e+00,2.237e+00,3.439e+00,4.247e+00,4.311e+00,4.394e+00,3.398e+00,4.299e+00,5.482e+00,4.957e+00,4.815e+00,6.426e+00,5.969e+00,5.116e+00,6.670e+00,7.733e+00,4.292e+00,7.390e+00,5.869e+00,8.154e+00,6.421e+00,9.066e+00,8.497e+00,7.820e+00,7.834e+00,7.390e+00,6.757e+00,8.004e+00,1.145e+01,9.146e+00,1.102e+01,9.813e+00,1.111e+01,9.917e+00,1.109e+01,1.284e+01,1.066e+01,1.204e+01,1.132e+01,1.138e+01,1.217e+01,1.436e+01,1.340e+01,1.319e+01,1.295e+01,1.537e+01,1.507e+01,1.561e+01,1.520e+01,1.452e+01,1.398e+01,1.750e+01,1.329e+01,1.430e+01,1.670e+01,1.492e+01,1.561e+01,1.757e+01,1.559e+01,1.490e+01,1.672e+01,1.702e+01,1.681e+01,1.686e+01,1.749e+01,1.922e+01,1.983e+01,2.075e+01,1.940e+01,1.844e+01,1.825e+01,1.904e+01,1.755e+01,2.174e+01,2.161e+01,2.197e+01,2.257e+01,1.984e+01,1.989e+01,2.286e+01,2.287e+01,2.371e+01,2.377e+01,2.390e+01,2.150e+01,2.397e+01,2.290e+01,2.148e+01
3.242e-01,1.967e-01,2.933e-01,3.411e-01,5.995e-01,1.015e+00,5.895e-01,5.775e-01,1.241e+00,1.335e+00,2.824e+00,2.284e+00,2.518e+00,2.451e+00,2.904e+00,3.411e+00,3.549e+00,3.320e+00,3.963e+00,4.120e+00,3.777e+00,3.819e+00,5.165e+00,3.310e+00,5.074e+00,3.735e+00,5.468e+00,4.114e+00,6.938e+00,6.490e+00,5.690e+00,5.923e+00,5.642e+00,5.845e+00,5.155e+00,8.796e+00,8.408e+00,8.417e+00,8.855e+00,9.812e+00,9.668e+00,9.214e+00,1.065e+01,9.247e+00,1.046e+01,1.015e+01,8.981e+00,1.006e+01,1.235e+01,1.036e+01,1.099e+01,1.081e+01,1.319e+01,1.200e+01,1.267e+01,1.367e+01,1.235e+01,1.244e+01,1.681e+01,1.231e+01,1.282e+01,1.477e+01,1.258e+01,1.307e+01,1.456e+01,1.386e+01,1.469e+01,1.532e+01,1.403e+01,1.446e+01,1.552e+01,1.416e+01,1.718e+01,1.820e+01,1.784e+01,1.626e+01,1.767e+01,1.583e+01,1.721e+01,1.574e+01,1.884e+01,2.021e+01,2.008e+01,2.194e+01,2.003e+01,2.007e+01,2.214e+01,2.196e+01,2.239e+01,2.199e+01,2.165e+01,2.044e+01,2.334e+01,2.239e+01,2.009e+01
1.226e-01,6.363e-02,1.261e-01,6.044e-01,8.206e-01,1.230e+00,8.046e-01,9.227e-01,1.420e+00,1.586e+00,2.403e+00,2.725e+00,2.051e+00,2.359e+00,3.085e+00,3.451e+00,3.387e+00,2.927e+00,3.926e+00,3.547e+00,3.343e+00,4.234e+00,5.907e+00,3.686e+00,5.128e+00,4.780e+00,6.437e+00,5.930e+00,6.836e+00,6.761e+00,6.800e+00,6.121e+00,6.476e+00,6.626e+00,7.951e+00,1.075e+01,8.106e+00,9.962e+00,8.571e+00,1.058e+01,1.056e+01,1.174e+01,1.205e+01,1.011e+01,9.687e+00,1.038e+01,1.001e+01,1.135e+01,1.401e+01,1.186e+01,1.257e+01,1.147e+01,1.376e+01,1.231e+01,1.415e+01,1.486e+01,1.464e+01,1.399e+01,1.869e+01,1.244e+01,1.347e+01,1.573e+01,1.492e+01,1.579e+01,1.655e+01,1.614e+01,1.493e+01,1.564e+01,1.720e+01,1.574e+01,1.655e+01,1.701e+01,1.775e+01,2.024e+01,2.005e+01,1.850e+01,1.927e+01,1.625e+01,1.700e+01,1.731e+01,2.013e+01,2.039e+01,1.952e+01,2.062e+01,1.925e+01,1.968e+01,2.104e+01,2.120e+01,2.298e+01,2.233e+01,2.185e+01,1.979e+01,2.058e+01,2.169e+01,1.827e+01
6.614e-01,3.820e-01,5.800e-01,9.166e-01,8.680e-01,1.402e+00,9.205e-01,7.170e-01,1.099e+00,1.601e+00,2.552e+00,1.819e+00,2.393e+00,2.256e+00,3.172e+00,3.349e+00,3.861e+00,3.394e+00,3.631e+00,4.170e+00,3.657e+00,4.435e+00,5.961e+00,4.080e+00,5.815e+00,4.849e+00,6.523e+00,5.008e+00,7.486e+00,6.756e+00,6.383e+00,7.063e+00,6.931e+00,6.379e+00,7.823e+00,9.962e+00,8.948e+00,9.213e+00,9.953e+00,9.443e+00,9.701e+00,9.429e+00,1.104e+01,9.418e+00,1.048e+01,9.963e+00,1.013e+01,1.060e+01,1.222e+01,1.100e+01,1.170e+01,1.137e+01,1.298e+01,1.315e+01,1.330e+01,1.416e+01,1.162e+01,1.408e+01,1.769e+01,1.198e+01,1.208e+01,1.597e+01,1.349e+01,1.443e+01,1.569e+01,1.524e+01,1.526e+01,1.540e+01,1.542e+01,1.533e+01,1.516e+01,1.525e+01,1.797e+01,1.830e+01,1.895e+01,1.687e+01,1.696e+01,1.563e+01,1.875e+01,1.715e+01,1.923e+01,1.742e+01,2.108e+01,2.156e+01,2.067e+01,1.988e+01,2.129e+01,2.113e+01,2.130e+01,2.304e+01,2.087e+01,2.030e+01,2.159e+01,2.342e+01,2.073e+01
5.301e-01,2.711e-01,4.763e-01,6.833e-01,1.009e+00,1.557e+00,1.194e+00,1.327e+00,1.485e+00,2.522e+00,3.096e+00,3.223e+00,2.879e+00,3.090e+00,4.476e+00,4.661e+00,4.230e+00,3.918e+00,4.907e+00,5.057e+00,4.676e+00,5.465e+00,7.719e+00,4.433e+00,6.968e+00,5.568e+00,7.856e+00,6.353e+00,8.432e+00,7.560e+00,6.210e+00,7.126e+00,6.222e+00,6.168e+00,6.893e+00,1.021e+01,7.641e+00,8.741e+00,8.406e+00,1.003e+01,9.097e+00,1.017e+01,1.193e+01,9.444e+00,9.773e+00,9.011e+00,9.369e+00,1.031e+01,1.201e+01,1.131e+01,1.196e+01,1.027e+01,1.244e+01,1.385e+01,1.356e+01,1.321e+01,1.216e+01,1.159e+01,1.647e+01,1.135e+01,1.393e+01,1.504e+01,1.364e+01,1.515e+01,1.615e+01,1.389e+01,1.451e+01,1.492e+01,1.571e+01,1.411e+01,1.475e+01,1.527e+01,1.689e+01,1.989e+01,1.867e+01,1.610e+01,1.644e+01,1.547e+01,1.689e+01,1.709e+01,1.879e+01,1.892e+01,1.848e+01,1.979e+01,1.732e+01,1.819e+01,1.988e+01,1.977e+01,2.209e+01,2.026e+01,2.141e+01,1.983e+01,2.181e+01,2.002e+01,1.904e+01
2.873e-01,3.239e-01,3.332e-01,4.738e-01,1.124e+00,1.346e+00,1.094e+00,9.140e-01,1.535e+00,2.023e+00,2.586e+00,2.390e+00,2.379e+00,2.081e+00,2.545e+00,3.448e+00,3.271e+00,2.770e+00,3.990e+00,4.790e+00,3.923e+00,5.028e+00,5.440e+00,4.122e+00,4.553e+00,4.552e+00,5.033e+00,5.182e+00,6.285e+00,6.757e+00,6.039e+00,6.043e+00,5.388e+00,6.666e+00,7.606e+00,9.647e+00,8.773e+00,8.661e+00,8.557e+00,9.352e+00,8.937e+00,1.023e+01,1.084e+01,8.849e+00,1.047e+01,1.080e+01,1.041e+01,1.189e+01,1.269e+01,1.063e+01,1.227e+01,1.062e+01,1.276e+01,1.307e+01,1.239e+01,1.417e+01,1.312e+01,1.351e+01,1.757e+01,1.259e+01,1.373e+01,1.552e+01,1.339e+01,1.494e+01,1.509e+01,1.505e+01,1.528e+01,1.652e+01,1.512e+01,1.567e+01,1.441e+01,1.577e+01,1.630e+01,1.900e+01,1.940e+01,1.916e+01,1.848e+01,1.637e+01,1.782e+01,1.666e+01,1.889e+01,2.150e+01,2.076e+01,2.169e+01,2.035e+01,2.010e+01,2.289e+01,2.082e+01,2.277e+01,2.397e+01,2.317e+01,2.210e+01,2.357e+01,2.273e+01,2.103e+01
6.032e-01,2.981e-01,5.297e-01,4.974e-01,8.441e-01,1.231e+00,1.007e+00,4.849e-01,1.370e+00,1.786e+00,3.115e+00,2.686e+00,3.172e+00,3.144e+00,4.201e+00,4.858e+00,3.929e+00,4.000e+00,4.891e+00,5.395e+00,4.456e+00,5.367e+00,7.777e+00,4.471e+00,7.913e+00,6.264e+00,8.280e+00,7.090e+00,9.434e+00,9.872e+00,6.950e+00,8.470e+00,7.782e+00,7.949e+00,8.903e+00,1.197e+01,1.088e+01,1.053e+01,1.176e+01,1.191e+01,1.225e+01,1.201e+01,1.401e+01,1.294e+01,1.317e+01,1.396e+01,1.203e+01,1.272e+01,1.609e+01,1.380e+01,1.470e+01,1.340e+01,1.541e+01,1.625e+01,1.709e+01,1.734e+01,1.620e+01,1.679e+01,2.194e+01,1.460e+01,1.600e+01,1.851e+01,1.843e+01,1.837e+01,1.956e+01,1.913e+01,1.814e+01,1.889e+01,1.973e+01,1.901e+01,1.933e+01,1.866e+01,1.951e+01,2.252e+01,2.197e+01,2.149e+01,2.192e+01,2.070e+01,2.101e+01,1.933e+01,2.376e+01,2.447e+01,2.492e+01,2.470e+01,2.354e+01,2.282e+01,2.451e+01,2.520e+01,2.730e+01,2.573e+01,2.605e+01,2.473e+01,2.970e+01,2.822e+01,2.420e+01
1.179e-01,3.004e-01,2.107e-01,9.155e-01,1.269e+00,1.415e+00,1.323e+00,1.387e+00,1.592e+00,2.729e+00,3.113e+00,3.495e+00,2.994e+00,2.509e+00,3.718e+00,5.073e+00,4.636e+00,3.543e+00,5.421e+00,5.100e+00,4.008e+00,6.377e+00,7.247e+00,4.605e+00,6.778e+00,5.853e+00,6.971e+00,6.841e+00,8.702e+00,7.788e+00,7.224e+00,7.934e+00,7.457e+00,6.836e+00,8.153e+00,1.038e+01,8.438e+00,9.189e+00,9.923e+00,9.067e+00,9.152e+00,9.173e+00,1.131e+01,9.282e+00,1.041e+01,9.478e+00,9.413e+00,1.119e+01,1.211e+01,1.205e+01,1.240e+01,1.073e+01,1.313e+01,1.342e+01,1.259e+01,1.351e+01,1.201e+01,1.370e+01,1.741e+01,1.239e+01,1.410e+01,1.666e+01,1.414e+01,1.701e+01,1.538e+01,1.454e+01,1.461e+01,1.624e+01,1.574e+01,1.636e+01,1.533e+01,1.591e+01,1.752e+01,1.957e+01,1.966e+01,1.935e+01,1.823e+01,1.661e+01,1.951e+01,1.666e+01,1.918e+01,2.114e+01,2.411e+01,2.079e+01,2.107e+01,1.994e+01,2.174e+01,2.123e+01,2.353e+01,2.176e+01,2.350e+01,2.079e+01,2.269e+01,2.346e+01,2.192e+01
8.544e-01,5.288e-01,7.654e-01,1.123e+00,1.123e+00,1.633e+00,1.281e+00,1.009e+00,1.649e+00,2.283e+00,3.508e+00,3.042e+00,3.102e+00,2.347e+00,3.966e+00,4.802e+00,4.791e+00,4.036e+00,4.548e+00,5.276e+00,4.597e+00,5.567e+00,6.589e+00,3.796e+00,7.190e+00,5.579e+00,8.525e+00,6.110e+00,8.991e+00,7.755e+00,7.452e+00,8.061e+00,7.828e+00,6.423e+00,8.920e+00,1.175e+01,9.712e+00,1.122e+01,1.038e+01,1.001e+01,1.066e+01,1.100e+01,1.290e+01,1.089e+01,1.112e+01,1.170e+01,1.124e+01,1.160e+01,1.392e+01,1.269e+01,1.399e+01,1.423e+01,1.505e+01,1.496e+01,1.504e+01,1.531e+01,1.490e+01,1.481e+01,2.037e+01,1.239e+01,1.484e+01,1.805e+01,1.492e+01,1.591e+01,1.716e+01,1.606e+01,1.597e+01,1.748e+01,1.574e+01,1.588e+01,1.673e+01,1.752e+01,1.904e+01,1.966e+01,2.097e+01,1.888e+01,1.765e+01,1.587e+01,1.949e+01,1.735e+01,2.015e+01,1.984e+01,2.164e+01,2.326e+01,2.235e+01,2.065e+01,2.063e+01,2.174e+01,2.266e+01,2.260e+01,2.235e+01,2.191e+01,2.486e+01,2.391e+01,2.336e+01
