5.471e-01,3.009e-01,8.066e-01,9.295e-01,9.691e-01,4.449e-01,4.026e-01,8.973e-01,5.467e-01,9.814e-01,6.618e-01,6.403e-01,9.727e-01,3.733e-01,3.572e-01,7.594e-01,5.150e-01,9.766e-01,3.747e-01,2.476e-01,9.978e-01,1.226e-01,6.388e-02,4.156e-01,5.946e-01,7.999e-01,4.923e-01,7.095e-01,6.258e-01,8.347e-01,4.225e-01,2.288e-01,7.048e-01,9.319e-01,2.019e-01,3.663e-01,7.407e-01,9.697e-01,8.139e-01,3.950e-01,8.920e-01,8.985e-01,1.622e-01,4.930e-01,8.010e-01,8.080e-01,6.514e-01,1.635e-01,9.596e-01,2.418e-01,2.899e-01,4.472e-01,7.116e-01,4.015e-01
3.548e-01,6.638e-01,1.055e+00,1.556e+00,1.431e+00,5.846e-01,1.107e+00,7.672e-01,6.046e-01,1.018e+00,1.097e+00,7.854e-01,9.732e-01,8.897e-01,7.237e-01,1.402e+00,9.875e-01,7.308e-01,3.837e-01,2.558e-01,6.599e-01,9.688e-01,4.959e-01,1.024e+00,1.173e+00,8.603e-01,1.035e+00,1.323e+00,5.755e-01,1.373e+00,7.868e-01,5.204e-01,7.873e-01,1.061e+00,1.103e+00,9.479e-01,6.679e-01,1.191e+00,1.366e+00,1.172e+00,1.075e+00,1.167e+00,9.704e-01,1.120e+00,1.516e+00,1.443e+00,8.342e-01,8.696e-01,9.848e-01,4.999e-01,4.859e-01,3.794e-01,1.011e+00,1.188e+00
2.689e-01,2.237e-01,5.320e-01,7.695e-01,8.168e-01,9.208e-01,1.213e+00,1.252e+00,9.265e-01,6.169e-01,1.053e+00,3.886e-01,1.371e+00,1.130e+00,3.411e-01,8.504e-01,1.149e+00,7.183e-01,2.639e-01,1.474e-01,7.339e-01,6.284e-01,5.907e-01,1.157e+00,1.162e+00,6.815e-01,8.934e-01,1.484e+00,4.906e-01,9.840e-01,4.844e-01,5.092e-01,5.332e-01,1.148e+00,1.251e+00,1.007e+00,3.997e-01,1.135e+00,1.042e+00,5.058e-01,1.343e+00,1.419e+00,5.712e-01,5.533e-01,1.208e+00,1.442e+00,1.384e+00,9.947e-01,1.462e+00,5.684e-01,5.936e-01,1.081e+00,4.888e-01,1.272e+00
4.638e-01,3.208e-01,7.664e-01,1.307e+00,1.916e+00,5.698e-01,1.527e+00,1.190e+00,1.324e+00,1.385e+00,1.508e+00,1.435e+00,1.071e+00,1.453e+00,9.548e-01,1.546e+00,1.072e+00,1.650e+00,6.406e-01,9.923e-01,9.995e-01,9.412e-01,5.060e-01,1.182e+00,8.796e-01,1.178e+00,7.223e-01,1.025e+00,7.359e-01,1.827e+00,6.184e-01,7.451e-01,1.582e+00,1.618e+00,4.905e-01,8.777e-01,1.306e+00,1.438e+00,8.955e-01,1.325e+00,1.860e+00,1.029e+00,9.771e-01,1.483e+00,1.604e+00,1.496e+00,1.520e+00,1.295e+00,1.440e+00,5.996e-01,4.176e-01,9.796e-01,1.604e+00,9.467e-01
6.108e-02,1.346e-01,2.485e-01,5.851e-01,1.381e+00,8.627e-01,2.164e+00,1.034e+00,1.105e+00,6.495e-01,1.459e+00,1.390e+00,1.213e+00,1.570e+00,6.679e-01,1.448e+00,1.088e+00,1.182e+00,7.609e-01,7.793e-01,1.128e+00,1.205e+00,1.356e+00,1.455e+00,1.582e+00,1.013e+00,1.720e+00,1.913e+00,4.109e-01,1.229e+00,4.958e-01,1.470e+00,1.315e+00,1.344e+00,1.433e+00,1.608e+00,8.588e-01,1.832e+00,1.211e+00,1.298e+00,1.854e+00,1.037e+00,1.183e+00,1.234e+00,1.211e+00,1.888e+00,1.523e+00,1.646e+00,1.906e+00,9.043e-01,6.650e-01,1.683e+00,6.080e-01,1.770e+00
8.608e-02,5.587e-02,1.484e-01,2.246e-01,3.198e-01,1.170e+00,4.332e-01,3.718e-01,7.149e-01,6.754e-01,9.857e-01,6.240e-01,1.334e+00,5.301e-01,5.467e-01,4.288e-01,4.909e-01,5.615e-01,9.949e-01,5.990e-01,1.155e+00,2.543e-01,2.380e-01,1.091e+00,6.313e-01,4.110e-01,1.243e+00,7.386e-01,3.545e-01,8.466e-01,1.743e-01,8.629e-01,9.368e-01,1.255e+00,6.479e-01,3.845e-01,4.219e-01,1.132e+00,4.562e-01,1.096e+00,5.908e-01,9.101e-01,6.602e-01,4.417e-01,9.912e-01,5.738e-01,5.306e-01,1.240e+00,1.044e+00,9.261e-01,1.159e+00,1.272e+00,2.356e-01,6.000e-01
1.813e-01,5.597e-01,8.328e-01,1.726e+00,2.418e+00,1.987e+00,3.898e+00,1.767e+00,2.752e+00,1.974e+00,3.381e+00,2.637e+00,3.292e+00,3.582e+00,2.508e+00,3.296e+00,3.063e+00,2.786e+00,2.103e+00,2.340e+00,1.917e+00,2.256e+00,2.432e+00,3.917e+00,3.208e+00,2.510e+00,3.372e+00,2.902e+00,1.059e+00,3.668e+00,1.660e+00,2.853e+00,2.791e+00,2.958e+00,2.604e+00,2.847e+00,1.671e+00,3.596e+00,2.487e+00,3.975e+00,2.816e+00,2.442e+00,3.138e+00,3.127e+00,3.701e+00,3.633e+00,2.534e+00,4.095e+00,3.437e+00,2.226e+00,2.072e+00,3.503e+00,2.386e+00,2.812e+00
2.584e-01,1.444e-01,4.013e-01,5.415e-01,8.702e-01,6.827e-01,1.302e+00,1.208e+00,1.298e+00,1.114e+00,2.033e+00,1.355e+00,1.908e+00,1.733e+00,1.487e+00,1.207e+00,1.205e+00,2.069e+00,1.426e+00,8.993e-01,1.122e+00,5.176e-01,1.215e+00,1.447e+00,1.809e+00,1.508e+00,2.187e+00,1.645e+00,1.412e+00,1.297e+00,1.339e+00,1.631e+00,1.485e+00,1.196e+00,9.965e-01,1.841e+00,1.295e+00,2.324e+00,1.807e+00,1.886e+00,2.042e+00,1.762e+00,1.410e+00,1.652e+00,1.958e+00,1.966e+00,1.037e+00,1.734e+00,2.273e+00,1.108e+00,6.536e-01,1.760e+00,9.564e-01,1.713e+00
1.634e-01,5.173e-01,7.701e-01,1.375e+00,1.575e+00,1.410e+00,2.955e+00,1.756e+00,2.352e+00,1.863e+00,3.995e+00,2.730e+00,3.117e+00,3.600e+00,2.599e+00,3.282e+00,3.664e+00,3.058e+00,2.396e+00,2.479e+00,2.003e+00,2.130e+00,2.925e+00,3.449e+00,3.237e+00,2.288e+00,3.421e+00,3.096e+00,2.207e+00,3.354e+00,2.532e+00,3.393e+00,2.303e+00,2.353e+00,2.927e+00,3.762e+00,1.977e+00,3.348e+00,3.807e+00,3.894e+00,3.677e+00,3.121e+00,3.199e+00,3.074e+00,4.019e+00,3.945e+00,2.005e+00,3.716e+00,3.817e+00,2.003e+00,2.324e+00,3.061e+00,2.177e+00,3.544e+00
3.417e-01,1.976e-01,5.525e-01,9.393e-01,1.538e+00,1.234e+00,2.202e+00,1.498e+00,1.786e+00,1.533e+00,2.880e+00,2.518e+00,3.026e+00,2.540e+00,1.396e+00,2.378e+00,2.438e+00,2.733e+00,1.294e+00,1.650e+00,2.177e+00,1.967e+00,2.184e+00,2.615e+00,2.442e+00,2.326e+00,2.795e+00,2.356e+00,1.277e+00,2.874e+00,9.605e-01,2.292e+00,2.387e+00,2.900e+00,1.528e+00,1.853e+00,1.381e+00,3.240e+00,1.583e+00,2.750e+00,2.451e+00,2.281e+00,1.817e+00,2.603e+00,2.270e+00,3.037e+00,2.763e+00,2.433e+00,3.338e+00,1.657e+00,2.038e+00,3.054e+00,1.728e+00,2.255e+00
1.938e-01,2.332e-01,4.662e-01,7.775e-01,1.443e+00,1.185e+00,2.245e+00,1.211e+00,1.480e+00,1.355e+00,3.166e+00,2.762e+00,3.015e+00,2.949e+00,1.478e+00,2.577e+00,2.606e+00,3.029e+00,1.791e+00,2.221e+00,3.123e+00,2.509e+00,2.933e+00,2.515e+00,3.075e+00,2.657e+00,3.423e+00,2.915e+00,1.429e+00,3.337e+00,1.856e+00,3.043e+00,2.997e+00,2.602e+00,2.401e+00,3.314e+00,2.249e+00,3.299e+00,2.876e+00,3.018e+00,3.076e+00,2.293e+00,2.271e+00,2.542e+00,2.291e+00,3.865e+00,1.996e+00,2.809e+00,3.974e+00,2.305e+00,2.408e+00,2.942e+00,1.508e+00,3.381e+00
3.850e-01,4.162e-01,8.281e-01,1.515e+00,2.178e+00,1.604e+00,2.266e+00,1.758e+00,2.303e+00,2.254e+00,4.330e+00,3.131e+00,4.161e+00,3.782e+00,2.990e+00,3.273e+00,2.857e+00,4.651e+00,2.833e+00,2.743e+00,3.775e+00,2.769e+00,3.198e+00,3.593e+00,3.869e+00,3.115e+00,3.920e+00,3.813e+00,3.127e+00,4.298e+00,2.958e+00,3.877e+00,4.552e+00,3.761e+00,3.247e+00,3.517e+00,2.887e+00,4.580e+00,3.456e+00,4.197e+00,4.735e+00,3.865e+00,2.961e+00,3.828e+00,3.799e+00,4.623e+00,3.179e+00,4.648e+00,4.510e+00,2.925e+00,2.713e+00,3.403e+00,2.980e+00,4.530e+00
1.907e-01,5.603e-01,8.200e-01,1.329e+00,1.495e+00,1.669e+00,2.090e+00,1.322e+00,1.890e+00,2.045e+00,4.546e+00,3.251e+00,4.507e+00,3.952e+00,4.091e+00,3.892e+00,3.692e+00,4.558e+00,3.946e+00,3.558e+00,4.971e+00,3.834e+00,4.060e+00,4.707e+00,4.988e+00,3.040e+00,5.343e+00,4.351e+00,4.110e+00,4.198e+00,3.693e+00,4.851e+00,4.488e+00,3.972e+00,4.575e+00,4.993e+00,3.146e+00,5.122e+00,4.862e+00,5.389e+00,4.541e+00,4.288e+00,3.556e+00,4.442e+00,4.725e+00,5.308e+00,3.149e+00,5.413e+00,5.638e+00,3.881e+00,3.771e+00,3.925e+00,3.212e+00,5.877e+00
1.947e-01,5.641e-01,8.066e-01,1.370e+00,1.660e+00,1.443e+00,2.226e+00,8.872e-01,1.610e+00,1.673e+00,3.005e+00,2.469e+00,3.716e+00,3.604e+00,3.729e+00,3.381e+00,3.355e+00,4.219e+00,3.521e+00,3.233e+00,4.084e+00,3.378e+00,3.516e+00,4.623e+00,4.095e+00,3.324e+00,4.172e+00,3.462e+00,2.487e+00,4.241e+00,3.383e+00,4.015e+00,4.318e+00,3.895e+00,4.196e+00,3.991e+00,2.736e+00,4.768e+00,4.112e+00,4.694e+00,3.768e+00,3.720e+00,3.462e+00,3.639e+00,3.779e+00,4.047e+00,2.144e+00,4.274e+00,3.939e+00,3.782e+00,3.539e+00,3.573e+00,2.856e+00,4.792e+00
3.017e-01,2.619e-01,5.886e-01,8.992e-01,1.306e+00,1.331e+00,1.872e+00,1.462e+00,1.749e+00,1.680e+00,3.443e+00,2.664e+00,3.360e+00,3.138e+00,3.244e+00,3.659e+00,3.936e+00,3.845e+00,3.407e+00,2.989e+00,3.712e+00,2.884e+00,3.029e+00,3.624e+00,4.232e+00,3.173e+00,4.477e+00,3.615e+00,3.440e+00,3.739e+00,2.960e+00,4.440e+00,4.001e+00,3.698e+00,3.506e+00,3.733e+00,3.311e+00,4.893e+00,3.714e+00,3.765e+00,4.165e+00,3.941e+00,3.203e+00,3.436e+00,3.860e+00,4.630e+00,2.959e+00,4.013e+00,5.247e+00,3.480e+00,3.712e+00,3.985e+00,2.379e+00,4.240e+00
5.348e-02,4.447e-01,5.945e-01,1.204e+00,1.672e+00,1.411e+00,3.229e+00,1.372e+00,2.052e+00,1.572e+00,3.736e+00,3.148e+00,3.641e+00,4.217e+00,3.415e+00,4.749e+00,5.154e+00,4.481e+00,3.691e+00,3.600e+00,4.278e+00,4.122e+00,5.192e+00,5.294e+00,5.286e+00,3.498e+00,5.184e+00,4.654e+00,3.326e+00,4.478e+00,4.145e+00,4.800e+00,3.819e+00,4.214e+00,5.171e+00,5.355e+00,2.999e+00,5.437e+00,4.886e+00,5.362e+00,5.079e+00,4.907e+00,4.518e+00,4.803e+00,4.873e+00,5.196e+00,3.088e+00,4.620e+00,4.702e+00,3.487e+00,4.655e+00,4.732e+00,2.972e+00,5.758e+00
4.435e-01,2.718e-01,7.139e-01,1.230e+00,2.001e+00,1.492e+00,2.750e+00,1.713e+00,2.431e+00,2.163e+00,3.759e+00,3.337e+00,4.169e+00,4.172e+00,3.844e+00,4.507e+00,5.511e+00,5.356e+00,4.834e+00,4.404e+00,5.296e+00,4.235e+00,4.240e+00,4.832e+00,5.435e+00,4.627e+00,5.268e+00,4.374e+00,3.996e+00,5.659e+00,4.205e+00,5.009e+00,5.450e+00,5.519e+00,4.441e+00,4.766e+00,4.315e+00,6.266e+00,5.187e+00,5.698e+00,5.183e+00,4.743e+00,3.782e+00,4.829e+00,5.046e+00,6.179e+00,4.257e+00,5.305e+00,6.185e+00,4.507e+00,4.926e+00,5.325e+00,4.141e+00,5.796e+00
2.706e-01,3.025e-01,5.854e-01,8.445e-01,1.245e+00,6.335e-01,1.525e+00,9.297e-01,9.744e-01,1.135e+00,2.264e+00,2.057e+00,2.494e+00,2.735e+00,2.935e+00,3.284e+00,3.480e+00,3.790e+00,3.626e+00,2.668e+00,4.128e+00,4.133e+00,3.304e+00,4.375e+00,4.571e+00,3.566e+00,4.981e+00,3.843e+00,3.825e+00,3.332e+00,4.081e+00,3.762e+00,3.800e+00,3.746e+00,4.395e+00,4.820e+00,3.694e+00,5.190e+00,4.197e+00,4.667e+00,3.686e+00,4.356e+00,3.843e+00,3.880e+00,4.097e+00,5.142e+00,2.548e+00,3.775e+00,4.567e+00,4.208e+00,3.557e+00,3.888e+00,2.834e+00,4.812e+00
3.324e-01,3.917e-01,7.645e-01,1.184e+00,1.400e+00,1.820e+00,2.203e+00,1.549e+00,2.082e+00,2.010e+00,4.080e+00,3.078e+00,4.284e+00,3.662e+00,3.293e+00,4.488e+00,5.027e+00,4.405e+00,4.523e+00,4.439e+00,5.479e+00,4.329e+00,4.832e+00,5.611e+00,6.599e+00,4.676e+00,6.446e+00,5.560e+00,5.093e+00,5.637e+00,4.962e+00,4.925e+00,5.349e+00,5.206e+00,5.443e+00,6.000e+00,4.181e+00,6.144e+00,5.322e+00,6.446e+00,5.172e+00,5.518e+00,4.843e+00,5.791e+00,6.011e+00,6.429e+00,4.112e+00,5.267e+00,7.189e+00,5.358e+00,6.028e+00,6.104e+00,3.440e+00,6.174e+00
5.432e-01,5.388e-01,1.121e+00,1.679e+00,2.405e+00,2.113e+00,3.514e+00,2.168e+00,2.506e+00,2.221e+00,3.580e+00,3.082e+00,4.309e+00,3.659e+00,2.870e+00,4.150e+00,4.348e+00,4.409e+00,4.235e+00,4.213e+00,5.188e+00,4.236e+00,4.650e+00,6.306e+00,5.949e+00,5.060e+00,6.403e+00,6.235e+00,4.385e+00,5.568e+00,4.628e+00,4.375e+00,4.825e+00,5.405e+00,5.726e+00,5.934e+00,3.837e+00,6.919e+00,5.953e+00,7.050e+00,5.050e+00,5.949e+00,5.276e+00,5.703e+00,5.596e+00,6.765e+00,4.239e+00,5.756e+00,6.769e+00,5.367e+00,4.819e+00,5.917e+00,3.862e+00,5.748e+00
1.749e-01,3.359e-01,5.524e-01,1.061e+00,1.758e+00,7.568e-01,2.497e+00,1.413e+00,1.767e+00,1.560e+00,3.698e+00,2.970e+00,3.642e+00,3.959e+00,3.830e+00,4.079e+00,3.892e+00,4.942e+00,3.793e+00,3.771e+00,5.221e+00,4.438e+00,5.207e+00,5.719e+00,6.520e+00,4.937e+00,6.703e+00,5.763e+00,4.768e+00,5.256e+00,4.825e+00,5.265e+00,5.343e+00,4.530e+00,4.861e+00,6.324e+00,3.741e+00,7.021e+00,5.397e+00,6.266e+00,5.629e+00,5.160e+00,4.310e+00,6.139e+00,5.313e+00,6.523e+00,4.893e+00,5.648e+00,6.479e+00,5.309e+00,4.908e+00,5.851e+00,4.199e+00,6.895e+00
9.392e-02,2.149e-01,3.524e-01,6.689e-01,9.367e-01,1.346e+00,2.023e+00,1.161e+00,1.878e+00,1.654e+00,4.111e+00,3.172e+00,4.269e+00,3.973e+00,3.723e+00,3.862e+00,4.627e+00,4.585e+00,4.212e+00,4.835e+00,5.521e+00,4.794e+00,5.536e+00,6.689e+00,6.127e+00,4.459e+00,7.111e+00,5.439e+00,4.730e+00,6.424e+00,5.140e+00,5.864e+00,5.722e+00,5.255e+00,5.356e+00,6.124e+00,4.319e+00,6.410e+00,6.047e+00,7.472e+00,5.044e+00,5.270e+00,5.022e+00,6.199e+00,5.688e+00,6.744e+00,5.108e+00,6.764e+00,7.391e+00,6.293e+00,5.790e+00,5.780e+00,4.108e+00,6.425e+00
5.675e-02,1.301e-01,2.052e-01,5.808e-01,1.493e+00,1.109e+00,2.616e+00,9.563e-01,2.035e+00,1.784e+00,4.040e+00,3.758e+00,3.674e+00,4.265e+00,4.220e+00,4.647e+00,5.534e+00,5.266e+00,5.740e+00,5.303e+00,5.984e+00,5.929e+00,6.366e+00,7.927e+00,7.560e+00,6.031e+00,9.247e+00,5.676e+00,5.521e+00,7.151e+00,6.268e+00,7.219e+00,7.165e+00,6.719e+00,6.086e+00,7.120e+00,6.307e+00,8.557e+00,7.488e+00,9.449e+00,6.034e+00,5.657e+00,6.315e+00,7.332e+00,7.182e+00,9.237e+00,5.600e+00,7.549e+00,8.822e+00,8.189e+00,7.121e+00,7.645e+00,4.839e+00,7.273e+00
2.795e-01,3.180e-01,6.055e-01,1.097e+00,1.810e+00,9.983e-01,2.663e+00,1.374e+00,2.181e+00,2.033e+00,3.972e+00,3.538e+00,3.896e+00,4.361e+00,4.201e+00,4.215e+00,5.215e+00,5.436e+00,5.268e+00,5.732e+00,6.059e+00,5.440e+00,6.370e+00,8.813e+00,7.216e+00,6.452e+00,8.740e+00,6.444e+00,6.167e+00,8.235e+00,6.822e+00,6.904e+00,6.934e+00,7.353e+00,6.446e+00,7.847e+00,6.106e+00,8.414e+00,7.963e+00,9.361e+00,7.282e+00,6.739e+00,6.238e+00,8.271e+00,7.721e+00,8.711e+00,7.028e+00,7.981e+00,8.785e+00,8.414e+00,7.638e+00,7.405e+00,5.561e+00,7.893e+00
1.440e-01,5.165e-01,7.195e-01,1.201e+00,1.386e+00,7.239e-01,2.069e+00,8.795e-01,1.196e+00,1.301e+00,2.945e+00,2.524e+00,2.894e+00,3.223e+00,3.470e+00,4.006e+00,5.065e+00,3.543e+00,4.319e+00,3.824e+00,4.753e+00,5.619e+00,5.412e+00,7.128e+00,8.203e+00,5.709e+00,8.312e+00,5.824e+00,5.097e+00,6.879e+00,5.755e+00,6.344e+00,6.886e+00,6.565e+00,6.369e+00,6.641e+00,5.694e+00,8.431e+00,7.488e+00,8.994e+00,5.696e+00,5.079e+00,5.505e+00,7.378e+00,7.527e+00,8.805e+00,6.978e+00,6.700e+00,8.141e+00,7.671e+00,7.460e+00,6.864e+00,4.759e+00,8.039e+00
3.521e-01,3.711e-01,7.666e-01,1.397e+00,2.246e+00,1.206e+00,2.858e+00,1.864e+00,2.098e+00,1.821e+00,3.630e+00,2.975e+00,3.251e+00,3.954e+00,3.450e+00,4.079e+00,5.015e+00,4.383e+00,4.281e+00,4.177e+00,4.753e+00,4.784e+00,4.312e+00,6.006e+00,6.556e+00,5.983e+00,7.142e+00,6.003e+00,5.879e+00,6.985e+00,5.924e+00,5.595e+00,6.976e+00,7.107e+00,6.790e+00,6.942e+00,6.117e+00,8.402e+00,7.249e+00,8.046e+00,7.010e+00,5.889e+00,6.010e+00,7.407e+00,7.109e+00,7.917e+00,6.672e+00,7.308e+00,7.935e+00,6.537e+00,6.997e+00,5.957e+00,5.201e+00,7.590e+00
3.403e-01,5.289e-01,9.280e-01,1.658e+00,2.351e+00,1.835e+00,3.089e+00,1.744e+00,2.394e+00,2.265e+00,4.255e+00,3.575e+00,4.021e+00,4.300e+00,3.956e+00,4.561e+00,5.049e+00,4.792e+00,4.632e+00,4.664e+00,5.417e+00,5.308e+00,5.169e+00,7.805e+00,6.706e+00,5.282e+00,7.600e+00,6.924e+00,5.831e+00,7.924e+00,6.787e+00,7.127e+00,7.480e+00,7.929e+00,7.621e+00,7.317e+00,6.218e+00,8.835e+00,7.633e+00,8.959e+00,7.200e+00,6.810e+00,6.482e+00,7.303e+00,7.892e+00,8.783e+00,6.800e+00,8.158e+00,7.926e+00,7.237e+00,7.097e+00,7.023e+00,6.040e+00,7.988e+00
5.267e-01,6.098e-01,1.174e+00,1.670e+00,2.145e+00,1.956e+00,3.087e+00,2.099e+00,2.554e+00,2.701e+00,5.059e+00,4.225e+00,4.827e+00,4.121e+00,3.945e+00,5.313e+00,5.642e+00,5.236e+00,5.091e+00,4.787e+00,6.187e+00,5.020e+00,6.182e+00,8.014e+00,7.602e+00,6.413e+00,9.697e+00,8.607e+00,7.249e+00,8.800e+00,7.557e+00,7.740e+00,6.985e+00,8.314e+00,7.956e+00,7.917e+00,6.023e+00,1.081e+01,9.403e+00,9.815e+00,7.575e+00,7.979e+00,6.715e+00,8.086e+00,8.691e+00,1.016e+01,7.065e+00,8.866e+00,1.037e+01,7.573e+00,7.952e+00,8.699e+00,6.269e+00,7.971e+00
4.472e-01,3.249e-01,7.768e-01,1.010e+00,1.435e+00,1.213e+00,1.896e+00,1.594e+00,1.640e+00,1.688e+00,2.984e+00,2.398e+00,3.242e+00,3.130e+00,3.638e+00,3.556e+00,4.077e+00,4.200e+00,4.538e+00,4.087e+00,5.246e+00,4.050e+00,3.984e+00,6.141e+00,6.319e+00,5.586e+00,7.080e+00,6.582e+00,6.832e+00,7.274e+00,7.576e+00,6.503e+00,7.392e+00,6.438e+00,7.781e+00,7.100e+00,6.536e+00,9.494e+00,8.476e+00,7.748e+00,6.433e+00,6.621e+00,6.415e+00,6.696e+00,7.694e+00,7.402e+00,5.692e+00,7.838e+00,8.108e+00,7.789e+00,6.697e+00,7.096e+00,5.223e+00,7.408e+00
1.491e-01,4.645e-01,6.771e-01,1.296e+00,1.869e+00,8.060e-01,2.769e+00,1.457e+00,1.964e+00,1.764e+00,4.008e+00,3.218e+00,3.221e+00,4.161e+00,3.896e+00,4.245e+00,4.855e+00,4.751e+00,4.398e+00,4.436e+00,4.647e+00,4.644e+00,5.560e+00,7.108e+00,6.704e+00,5.564e+00,7.353e+00,7.452e+00,6.351e+00,8.656e+00,8.169e+00,8.010e+00,7.340e+00,7.138e+00,8.275e+00,7.979e+00,6.443e+00,9.783e+00,9.118e+00,8.470e+00,8.749e+00,6.870e+00,6.743e+00,7.646e+00,9.029e+00,8.618e+00,7.509e+00,8.956e+00,9.277e+00,8.367e+00,7.788e+00,8.477e+00,5.540e+00,9.303e+00
5.282e-01,4.699e-01,1.021e+00,1.510e+00,2.035e+00,2.039e+00,2.196e+00,1.759e+00,2.014e+00,2.240e+00,3.889e+00,3.164e+00,3.982e+00,3.497e+00,2.969e+00,3.978e+00,4.689e+00,4.411e+00,4.349e+00,4.125e+00,6.223e+00,4.648e+00,5.630e+00,8.480e+00,7.136e+00,6.022e+00,9.198e+00,8.093e+00,6.938e+00,9.873e+00,9.104e+00,8.870e+00,8.456e+00,1.079e+01,9.762e+00,8.476e+00,8.908e+00,1.143e+01,1.077e+01,1.001e+01,1.027e+01,9.040e+00,7.801e+00,8.494e+00,1.092e+01,1.084e+01,9.294e+00,1.091e+01,1.153e+01,1.049e+01,1.089e+01,1.001e+01,6.612e+00,9.862e+00
1.552e-01,1.932e-01,3.852e-01,6.466e-01,9.238e-01,1.184e+00,1.448e+00,1.259e+00,1.573e+00,1.481e+00,3.551e+00,2.450e+00,2.963e+00,3.256e+00,3.101e+00,3.238e+00,4.513e+00,3.788e+00,4.206e+00,4.342e+00,4.788e+00,3.858e+00,4.998e+00,6.500e+00,6.392e+00,5.261e+00,7.133e+00,6.763e+00,6.092e+00,7.361e+00,7.630e+00,8.324e+00,7.668e+00,8.152e+00,8.913e+00,8.548e+00,7.545e+00,9.999e+00,9.425e+00,9.172e+00,8.927e+00,8.105e+00,7.279e+00,7.426e+00,9.780e+00,9.018e+00,7.392e+00,8.274e+00,9.762e+00,9.108e+00,9.363e+00,9.306e+00,5.803e+00,9.383e+00
6.520e-02,3.735e-01,5.118e-01,1.068e+00,1.765e+00,9.657e-01,2.802e+00,1.124e+00,1.588e+00,1.398e+00,3.595e+00,3.273e+00,3.411e+00,3.705e+00,2.970e+00,4.270e+00,4.072e+00,4.164e+00,3.452e+00,4.341e+00,5.185e+00,5.014e+00,6.194e+00,6.842e+00,7.520e+00,5.590e+00,7.706e+00,6.570e+00,6.758e+00,7.590e+00,7.893e+00,7.463e+00,8.376e+00,8.626e+00,1.016e+01,9.346e+00,8.254e+00,1.025e+01,8.878e+00,1.071e+01,8.504e+00,6.988e+00,8.603e+00,9.822e+00,1.033e+01,1.015e+01,8.585e+00,9.361e+00,1.021e+01,8.766e+00,8.842e+00,8.951e+00,5.971e+00,1.037e+01
2.891e-01,2.841e-01,5.722e-01,8.045e-01,9.481e-01,4.878e-01,1.220e+00,8.892e-01,1.041e+00,1.200e+00,2.399e+00,2.029e+00,2.801e+00,2.687e+00,2.493e+00,3.015e+00,3.491e+00,4.129e+00,3.552e+00,3.600e+00,4.381e+00,3.655e+00,5.248e+00,6.016e+00,6.172e+00,5.432e+00,6.575e+00,5.509e+00,6.199e+00,6.636e+00,7.807e+00,5.534e+00,7.086e+00,7.014e+00,8.041e+00,7.630e+00,7.380e+00,8.671e+00,8.708e+00,8.968e+00,7.353e+00,6.566e+00,7.415e+00,8.380e+00,7.849e+00,7.548e+00,6.637e+00,7.753e+00,7.705e+00,7.573e+00,8.576e+00,7.331e+00,4.991e+00,8.862e+00
1.511e-01,1.605e-01,3.314e-01,7.926e-01,1.757e+00,1.530e+00,2.320e+00,1.220e+00,2.041e+00,1.805e+00,3.675e+00,3.074e+00,3.507e+00,3.660e+00,3.399e+00,3.660e+00,4.396e+00,4.715e+00,5.000e+00,3.835e+00,5.675e+00,4.637e+00,5.142e+00,6.915e+00,6.435e+00,5.580e+00,8.757e+00,6.642e+00,6.560e+00,7.813e+00,7.879e+00,7.202e+00,7.650e+00,9.174e+00,8.676e+00,9.298e+00,8.916e+00,1.173e+01,9.397e+00,1.003e+01,8.641e+00,8.203e+00,8.488e+00,8.864e+00,1.005e+01,1.004e+01,8.216e+00,9.768e+00,9.532e+00,9.237e+00,8.709e+00,1.024e+01,6.643e+00,1.034e+01
2.581e-01,2.928e-01,5.719e-01,1.104e+00,2.037e+00,8.058e-01,2.871e+00,1.370e+00,2.018e+00,1.806e+00,3.568e+00,3.398e+00,2.835e+00,3.990e+00,3.056e+00,4.190e+00,5.143e+00,4.846e+00,4.615e+00,4.589e+00,5.120e+00,4.863e+00,5.903e+00,7.015e+00,6.642e+00,6.116e+00,7.939e+00,6.788e+00,6.552e+00,8.953e+00,8.847e+00,7.761e+00,7.767e+00,8.899e+00,8.917e+00,8.913e+00,9.008e+00,1.088e+01,1.104e+01,1.011e+01,9.691e+00,7.684e+00,8.549e+00,9.377e+00,9.879e+00,1.081e+01,7.701e+00,9.895e+00,1.069e+01,9.315e+00,9.096e+00,9.426e+00,7.963e+00,9.631e+00
1.518e-01,2.191e-01,3.958e-01,8.678e-01,1.343e+00,9.752e-01,1.529e+00,1.024e+00,1.485e+00,1.315e+00,2.871e+00,1.999e+00,3.062e+00,3.390e+00,2.983e+00,2.514e+00,3.655e+00,4.061e+00,3.845e+00,3.678e+00,4.310e+00,3.998e+00,4.891e+00,6.375e+00,5.713e+00,5.139e+00,6.715e+00,5.665e+00,5.507e+00,7.332e+00,7.080e+00,5.821e+00,7.422e+00,8.547e+00,7.816e+00,7.473e+00,7.794e+00,9.722e+00,8.847e+00,8.952e+00,8.638e+00,7.165e+00,7.341e+00,9.392e+00,8.356e+00,8.720e+00,7.847e+00,8.451e+00,9.847e+00,8.410e+00,9.062e+00,9.166e+00,7.334e+00,1.038e+01
3.777e-01,2.853e-01,6.932e-01,1.240e+00,2.255e+00,1.665e+00,3.361e+00,2.087e+00,2.714e+00,2.369e+00,4.916e+00,4.237e+00,4.840e+00,4.907e+00,4.315e+00,5.490e+00,5.811e+00,6.474e+00,5.645e+00,5.399e+00,7.447e+00,6.278e+00,6.952e+00,9.265e+00,8.922e+00,7.033e+00,1.031e+01,9.388e+00,8.720e+00,1.019e+01,1.024e+01,1.025e+01,9.780e+00,1.060e+01,1.153e+01,1.187e+01,1.084e+01,1.449e+01,1.275e+01,1.298e+01,1.076e+01,1.138e+01,1.082e+01,1.126e+01,1.310e+01,1.356e+01,1.149e+01,1.323e+01,1.332e+01,1.105e+01,1.066e+01,1.259e+01,9.696e+00,1.272e+01
2.868e-01,1.881e-01,4.661e-01,7.572e-01,1.338e+00,9.345e-01,1.784e+00,1.272e+00,1.812e+00,1.858e+00,4.045e+00,3.282e+00,4.074e+00,4.310e+00,4.238e+00,3.813e+00,4.848e+00,5.691e+00,5.468e+00,5.311e+00,7.028e+00,5.826e+00,6.586e+00,8.498e+00,8.097e+00,6.549e+00,8.706e+00,7.562e+00,7.482e+00,8.411e+00,8.721e+00,7.977e+00,8.199e+00,9.491e+00,9.494e+00,1.015e+01,8.806e+00,1.244e+01,1.205e+01,1.274e+01,1.118e+01,9.561e+00,9.043e+00,1.066e+01,1.171e+01,1.130e+01,9.002e+00,1.147e+01,1.312e+01,1.084e+01,1.098e+01,1.249e+01,8.874e+00,1.237e+01
4.312e-01,4.288e-01,8.751e-01,1.320e+00,1.723e+00,8.617e-01,1.911e+00,1.439e+00,1.572e+00,1.854e+00,3.591e+00,3.144e+00,3.133e+00,3.104e+00,2.865e+00,4.325e+00,4.416e+00,4.270e+00,3.646e+00,4.244e+00,5.364e+00,4.278e+00,5.862e+00,6.737e+00,6.829e+00,5.292e+00,7.237e+00,6.299e+00,5.984e+00,7.001e+00,6.474e+00,7.426e+00,7.147e+00,8.253e+00,7.977e+00,8.453e+00,8.042e+00,9.965e+00,1.001e+01,1.094e+01,9.781e+00,8.552e+00,8.092e+00,9.716e+00,1.035e+01,1.093e+01,9.779e+00,9.941e+00,1.227e+01,8.844e+00,1.012e+01,1.152e+01,8.233e+00,1.127e+01
3.590e-01,4.534e-01,8.207e-01,1.412e+00,2.270e+00,9.021e-01,2.453e+00,1.271e+00,1.864e+00,2.172e+00,4.072e+00,3.855e+00,3.268e+00,3.794e+00,3.362e+00,4.216e+00,4.597e+00,4.838e+00,4.458e+00,4.939e+00,5.564e+00,4.701e+00,6.031e+00,7.194e+00,6.981e+00,6.409e+00,8.519e+00,7.225e+00,7.237e+00,9.734e+00,8.991e+00,8.126e+00,8.906e+00,1.047e+01,9.635e+00,9.640e+00,9.796e+00,1.178e+01,1.128e+01,1.216e+01,1.206e+01,9.042e+00,9.931e+00,1.170e+01,1.214e+01,1.178e+01,1.092e+01,1.202e+01,1.377e+01,1.051e+01,1.212e+01,1.153e+01,9.527e+00,1.238e+01
3.545e-01,5.617e-01,9.766e-01,1.519e+00,2.000e+00,1.610e+00,3.281e+00,1.785e+00,2.235e+00,2.055e+00,4.001e+00,3.482e+00,4.353e+00,3.934e+00,3.376e+00,4.957e+00,5.132e+00,4.958e+00,4.418e+00,4.757e+00,5.948e+00,4.433e+00,6.586e+00,7.322e+00,7.719e+00,6.095e+00,8.095e+00,8.109e+00,7.201e+00,8.671e+00,9.018e+00,8.420e+00,8.018e+00,9.195e+00,1.064e+01,9.506e+00,8.603e+00,1.272e+01,1.211e+01,1.178e+01,1.060e+01,1.016e+01,1.062e+01,1.175e+01,1.279e+01,1.163e+01,1.063e+01,1.276e+01,1.422e+01,1.028e+01,1.169e+01,1.330e+01,9.547e+00,1.286e+01
2.982e-01,3.738e-01,6.983e-01,1.082e+00,1.646e+00,1.032e+00,1.914e+00,1.182e+00,1.264e+00,1.453e+00,3.054e+00,2.674e+00,3.476e+00,3.468e+00,3.445e+00,3.629e+00,4.087e+00,4.510e+00,4.246e+00,4.323e+00,5.878e+00,5.306e+00,6.162e+00,7.727e+00,7.206e+00,5.765e+00,8.498e+00,7.292e+00,6.556e+00,8.068e+00,7.807e+00,7.280e+00,8.080e+00,8.991e+00,9.761e+00,9.026e+00,8.636e+00,1.209e+01,1.190e+01,1.159e+01,9.645e+00,9.417e+00,9.841e+00,1.132e+01,1.107e+01,1.117e+01,1.110e+01,1.172e+01,1.388e+01,1.047e+01,1.161e+01,1.177e+01,9.066e+00,1.228e+01
4.361e-01,5.583e-01,1.013e+00,1.456e+00,1.809e+00,1.053e+00,2.588e+00,1.534e+00,1.929e+00,2.109e+00,3.872e+00,3.468e+00,4.020e+00,3.994e+00,4.090e+00,4.450e+00,4.861e+00,5.069e+00,4.402e+00,4.188e+00,5.355e+00,4.669e+00,5.463e+00,7.100e+00,6.641e+00,5.278e+00,7.808e+00,6.348e+00,6.052e+00,7.894e+00,7.882e+00,7.585e+00,7.390e+00,7.718e+00,8.260e+00,8.482e+00,7.580e+00,1.066e+01,9.314e+00,1.039e+01,8.813e+00,8.197e+00,9.044e+00,1.079e+01,1.128e+01,1.057e+01,9.937e+00,1.136e+01,1.272e+01,9.399e+00,1.074e+01,1.111e+01,8.466e+00,1.165e+01
3.625e-02,1.052e-01,1.537e-01,4.171e-01,7.980e-01,6.925e-01,1.673e+00,8.328e-01,1.694e+00,1.537e+00,3.940e+00,3.202e+00,3.871e+00,4.137e+00,3.937e+00,3.849e+00,4.770e+00,5.647e+00,5.077e+00,5.311e+00,5.886e+00,5.038e+00,6.503e+00,7.438e+00,7.215e+00,6.058e+00,7.684e+00,7.476e+00,7.587e+00,8.642e+00,9.397e+00,8.246e+00,8.407e+00,8.153e+00,9.763e+00,9.726e+00,8.074e+00,1.146e+01,1.092e+01,1.221e+01,9.942e+00,9.396e+00,9.696e+00,1.083e+01,1.232e+01,1.137e+01,9.741e+00,1.386e+01,1.275e+01,1.042e+01,1.152e+01,1.242e+01,9.047e+00,1.222e+01
3.448e-01,5.980e-01,1.018e+00,1.899e+00,2.611e+00,1.881e+00,3.256e+00,2.144e+00,2.812e+00,2.639e+00,5.362e+00,3.985e+00,4.245e+00,4.577e+00,3.855e+00,4.852e+00,4.851e+00,4.715e+00,4.014e+00,4.982e+00,4.685e+00,4.328e+00,5.294e+00,7.062e+00,7.262e+00,6.092e+00,7.987e+00,7.277e+00,7.131e+00,9.144e+00,7.789e+00,8.119e+00,8.950e+00,8.452e+00,9.490e+00,9.600e+00,9.691e+00,1.237e+01,1.109e+01,1.182e+01,1.221e+01,9.427e+00,1.149e+01,1.217e+01,1.334e+01,1.296e+01,1.292e+01,1.449e+01,1.575e+01,1.106e+01,1.280e+01,1.332e+01,9.578e+00,1.288e+01
4.498e-02,1.296e-01,1.911e-01,5.166e-01,9.996e-01,1.016e+00,1.433e+00,7.861e-01,1.564e+00,1.415e+00,3.248e+00,2.333e+00,3.021e+00,3.190e+00,3.315e+00,2.761e+00,2.980e+00,3.817e+00,4.098e+00,3.771e+00,4.246e+00,4.082e+00,4.319e+00,6.200e+00,5.988e+00,4.651e+00,7.581e+00,5.280e+00,6.259e+00,6.990e+00,7.587e+00,6.364e+00,7.567e+00,6.991e+00,7.731e+00,7.873e+00,8.448e+00,9.579e+00,8.334e+00,9.548e+00,7.601e+00,7.664e+00,9.428e+00,1.042e+01,1.128e+01,1.138e+01,1.006e+01,1.224e+01,1.395e+01,1.036e+01,1.104e+01,1.195e+01,8.995e+00,1.074e+01
1.535e-01,1.970e-01,3.611e-01,6.795e-01,1.241e+00,6.181e-01,2.151e+00,8.910e-01,1.515e+00,1.373e+00,2.852e+00,2.899e+00,3.103e+00,3.211e+00,3.526e+00,3.614e+00,3.915e+00,4.203e+00,3.983e+00,4.682e+00,5.320e+00,4.494e+00,5.600e+00,7.187e+00,6.642e+00,4.945e+00,6.683e+00,5.667e+00,5.609e+00,6.800e+00,6.371e+00,7.528e+00,7.326e+00,7.926e+00,8.392e+00,9.021e+00,7.950e+00,1.066e+01,9.831e+00,1.105e+01,9.300e+00,7.794e+00,8.592e+00,1.030e+01,1.188e+01,1.210e+01,1.252e+01,1.301e+01,1.464e+01,1.120e+01,1.238e+01,1.350e+01,1.054e+01,1.278e+01
6.927e-02,5.434e-02,1.295e-01,4.265e-01,1.085e+00,3.605e-01,2.065e+00,7.576e-01,1.387e+00,1.028e+00,2.437e+00,2.497e+00,2.702e+00,3.351e+00,3.092e+00,3.252e+00,3.588e+00,4.301e+00,3.389e+00,4.109e+00,4.099e+00,4.551e+00,4.929e+00,6.922e+00,5.532e+00,5.261e+00,6.622e+00,5.388e+00,5.570e+00,7.052e+00,7.157e+00,6.313e+00,6.816e+00,6.861e+00,7.721e+00,8.062e+00,7.840e+00,9.906e+00,8.127e+00,9.855e+00,7.537e+00,7.588e+00,9.525e+00,1.084e+01,1.013e+01,1.146e+01,1.060e+01,1.278e+01,1.379e+01,1.061e+01,1.188e+01,1.294e+01,1.025e+01,1.220e+01
9.800e-02,5.152e-01,6.760e-01,1.346e+00,1.857e+00,6.768e-01,2.375e+00,1.003e+00,1.522e+00,1.562e+00,3.602e+00,3.000e+00,2.899e+00,3.717e+00,3.455e+00,4.431e+00,4.717e+00,4.401e+00,4.042e+00,4.045e+00,4.742e+00,5.213e+00,5.566e+00,6.616e+00,7.473e+00,6.329e+00,8.340e+00,7.396e+00,6.899e+00,8.162e+00,8.528e+00,7.184e+00,7.840e+00,8.629e+00,9.594e+00,1.017e+01,9.227e+00,1.227e+01,1.101e+01,1.234e+01,9.920e+00,9.378e+00,1.093e+01,1.203e+01,1.249e+01,1.240e+01,1.157e+01,1.435e+01,1.400e+01,1.153e+01,1.365e+01,1.237e+01,1.093e+01,1.391e+01
4.420e-01,3.834e-01,8.383e-01,1.313e+00,1.679e+00,1.006e+00,2.539e+00,1.742e+00,2.053e+00,1.746e+00,3.276e+00,2.559e+00,4.221e+00,4.195e+00,3.794e+00,4.004e+00,5.054e+00,5.279e+00,4.365e+00,4.514e+00,4.934e+00,4.508e+00,5.257e+00,6.463e+00,6.796e+00,6.363e+00,6.558e+00,6.053e+00,5.563e+00,7.562e+00,7.166e+00,6.612e+00,7.641e+00,7.865e+00,8.487e+00,8.108e+00,7.448e+00,1.044e+01,9.547e+00,1.024e+01,9.717e+00,7.755e+00,8.694e+00,9.450e+00,1.029e+01,1.106e+01,9.451e+00,1.082e+01,1.349e+01,1.058e+01,1.109e+01,1.245e+01,9.739e+00,1.157e+01
1.443e-01,1.952e-01,3.767e-01,5.960e-01,9.643e-01,1.336e+00,1.580e+00,1.161e+00,1.500e+00,1.427e+00,3.259e+00,2.457e+00,3.064e+00,2.818e+00,3.060e+00,3.768e+00,4.270e+00,4.129e+00,4.704e+00,4.158e+00,5.500e+00,4.055e+00,5.319e+00,7.423e+00,7.395e+00,6.115e+00,8.981e+00,7.264e+00,7.802e+00,7.521e+00,8.600e+00,8.091e+00,7.695e+00,8.663e+00,9.752e+00,9.780e+00,9.851e+00,1.205e+01,1.168e+01,1.169e+01,1.054e+01,1.048e+01,1.096e+01,1.154e+01,1.282e+01,1.295e+01,1.157e+01,1.503e+01,1.499e+01,1.212e+01,1.486e+01,1.380e+01,1.008e+01,1.463e+01
4.993e-01,4.061e-01,9.208e-01,1.264e+00,1.412e+00,1.482e+00,1.750e+00,1.761e+00,1.824e+00,1.916e+00,3.579e+00,2.527e+00,3.806e+00,3.506e+00,3.207e+00,3.565e+00,5.029e+00,4.214e+00,4.520e+00,4.162e+00,5.327e+00,4.468e+00,5.473e+00,7.083e+00,7.262e+00,5.825e+00,8.149e+00,6.759e+00,7.315e+00,8.146e+00,8.855e+00,6.979e+00,8.213e+00,9.991e+00,9.949e+00,9.124e+00,9.613e+00,1.182e+01,1.141e+01,1.194e+01,1.078e+01,9.388e+00,9.943e+00,1.172e+01,1.267e+01,1.162e+01,1.039e+01,1.288e+01,1.556e+01,1.249e+01,1.447e+01,1.457e+01,1.189e+01,1.494e+01
2.636e-01,1.957e-01,4.719e-01,6.669e-01,9.286e-01,1.437e+00,1.296e+00,1.174e+00,1.456e+00,1.453e+00,3.077e+00,2.157e+00,3.732e+00,2.994e+00,3.091e+00,2.786e+00,4.028e+00,3.879e+00,4.282e+00,3.348e+00,5.035e+00,4.007e+00,3.925e+00,6.085e+00,5.936e+00,5.555e+00,8.088e+00,5.704e+00,6.253e+00,7.494e+00,7.212e+00,6.820e+00,7.296e+00,8.269e+00,7.904e+00,7.195e+00,8.015e+00,1.066e+01,9.106e+00,1.011e+01,9.021e+00,8.180e+00,8.426e+00,9.867e+00,1.099e+01,1.181e+01,1.132e+01,1.418e+01,1.481e+01,1.169e+01,1.335e+01,1.348e+01,1.001e+01,1.280e+01
