1.785e-01,9.245e-01,4.807e-01,7.089e-01,5.216e-01,7.762e-01,5.167e-01,8.492e-01,8.870e-01,4.892e-01,6.860e-03,3.430e-01,6.013e-02,5.466e-01,7.976e-01,9.685e-01,9.555e-01,2.483e-02,5.151e-01,6.487e-01,5.754e-01,7.874e-02,3.742e-01,4.528e-01,9.165e-01,5.320e-01,3.929e-01,9.384e-01,6.943e-01,6.218e-01,9.983e-01,1.196e-02,7.063e-01,9.942e-01,1.952e-02,2.223e-01,2.437e-01,6.588e-01,5.512e-01,2.872e-01,8.920e-01,4.944e-01,4.584e-01,1.786e-02,9.105e-01,7.805e-01,1.228e-01,9.063e-01,6.879e-01,5.621e-01,1.948e-01,4.146e-01,8.442e-01,2.062e-01,6.823e-01,7.518e-02,7.066e-01,2.593e-01,8.764e-01,7.737e-01,5.629e-01,3.920e-01,6.319e-01,4.171e-01,7.626e-01,7.879e-01,6.558e-01,5.020e-01,1.135e-01,9.041e-01,6.645e-01,7.513e-02,6.288e-01,6.107e-01,9.052e-01,5.558e-01,4.827e-01,7.353e-01,8.970e-01,9.752e-01,1.194e-01,7.888e-01,4.777e-01,7.497e-01,1.625e-01,8.215e-01,6.870e-02,3.919e-01,3.015e-01,4.381e-01,2.060e-01,4.793e-01,1.446e-01,8.255e-01,7.934e-01,2.423e-01,1.336e-01,9.997e-02
1.237e-01,1.510e+00,1.042e+00,1.371e+00,1.029e+00,1.182e+00,1.080e+00,1.357e+00,1.480e+00,7.764e-01,7.361e-01,5.127e-01,8.203e-01,1.033e+00,1.405e+00,9.637e-01,1.604e+00,8.839e-01,1.020e+00,5.861e-01,5.554e-01,5.235e-01,6.611e-01,1.174e+00,8.262e-01,4.229e-01,6.015e-01,7.986e-01,1.001e+00,1.001e+00,8.930e-01,1.234e-01,1.318e+00,1.099e+00,1.025e-01,2.553e-01,2.412e-01,5.638e-01,7.187e-01,9.621e-01,1.482e+00,8.294e-01,7.020e-01,8.088e-02,1.367e+00,1.323e+00,9.709e-01,1.560e+00,6.956e-01,5.113e-01,3.902e-01,8.220e-01,1.540e+00,8.411e-01,9.273e-01,9.217e-01,6.112e-01,6.365e-01,7.091e-01,6.693e-01,1.273e+00,8.913e-01,1.161e+00,5.238e-01,1.266e+00,1.440e+00,4.972e-01,4.133e-01,1.043e+00,1.089e+00,1.289e+00,3.738e-01,1.329e+00,4.238e-01,7.123e-01,8.163e-01,6.660e-01,1.338e+00,1.026e+00,1.413e+00,5.687e-01,6.660e-01,1.086e+00,5.359e-01,7.298e-01,1.360e+00,2.905e-01,1.006e+00,2.094e-01,5.706e-01,4.418e-01,6.220e-01,5.501e-01,1.247e+00,1.472e+00,7.426e-01,8.411e-01,7.913e-01
1.087e-01,1.047e+00,1.324e+00,1.700e+00,1.393e+00,1.729e+00,1.378e+00,1.586e+00,1.848e+00,1.252e+00,6.044e-01,1.359e+00,1.380e+00,1.020e+00,1.750e+00,1.051e+00,2.003e+00,1.251e+00,1.562e+00,5.207e-01,1.104e+00,4.962e-01,9.421e-01,1.404e+00,1.137e+00,6.686e-01,1.298e+00,6.585e-01,8.369e-01,1.664e+00,1.003e+00,9.051e-01,1.052e+00,1.740e+00,1.637e-01,1.127e+00,5.993e-01,9.141e-01,8.467e-01,6.309e-01,1.705e+00,8.802e-01,1.436e+00,6.198e-01,1.584e+00,1.490e+00,1.113e+00,2.031e+00,1.538e+00,8.998e-01,1.112e+00,1.444e+00,1.788e+00,8.503e-01,1.347e+00,1.326e+00,1.027e+00,1.232e+00,1.230e+00,8.529e-01,1.148e+00,8.552e-01,1.013e+00,8.877e-01,8.773e-01,1.763e+00,1.276e+00,4.128e-01,1.382e+00,9.292e-01,1.653e+00,6.406e-01,1.514e+00,1.222e+00,7.964e-01,1.258e+00,9.522e-01,1.243e+00,8.137e-01,1.233e+00,9.659e-01,1.360e+00,1.537e+00,9.594e-01,6.532e-01,1.515e+00,7.434e-01,1.282e+00,3.034e-01,1.246e+00,6.400e-01,8.311e-01,6.958e-01,1.393e+00,1.202e+00,8.383e-01,8.360e-01,1.360e+00
3.719e-02,5.810e-01,5.542e-01,1.276e+00,9.611e-01,9.969e-01,1.414e+00,7.497e-01,1.236e+00,1.429e+00,5.717e-01,1.218e+00,9.017e-01,1.107e+00,1.377e+00,5.191e-01,9.293e-01,1.232e+00,1.022e+00,4.418e-01,8.004e-01,7.521e-01,1.152e+00,1.006e+00,4.896e-01,2.545e-01,7.335e-01,6.457e-01,6.450e-01,1.321e+00,6.224e-01,4.960e-01,1.227e+00,1.471e+00,5.519e-01,1.162e+00,8.239e-01,4.208e-01,1.238e+00,1.361e+00,1.413e+00,1.124e+00,1.161e+00,3.951e-01,1.411e+00,1.500e+00,1.027e+00,9.013e-01,1.053e+00,2.947e-01,7.986e-01,9.680e-01,1.194e+00,7.490e-01,7.288e-01,1.258e+00,4.578e-01,1.173e+00,9.731e-01,1.207e+00,1.453e+00,6.537e-01,8.180e-01,4.537e-01,1.310e+00,1.369e+00,1.127e+00,3.083e-01,6.629e-01,7.140e-01,1.468e+00,8.102e-01,7.704e-01,5.880e-01,5.891e-01,1.091e+00,8.624e-01,1.291e+00,1.062e+00,8.057e-01,1.279e+00,8.917e-01,1.106e+00,4.307e-01,1.352e+00,7.199e-01,1.002e+00,1.269e+00,9.380e-01,7.438e-01,5.255e-01,1.069e+00,8.599e-01,7.535e-01,1.236e+00,9.260e-01,5.464e-01,1.299e+00
7.866e-02,4.404e-01,6.606e-01,1.076e+00,1.551e+00,1.443e+00,1.617e+00,1.240e+00,1.852e+00,1.881e+00,1.010e+00,1.527e+00,1.629e+00,8.978e-01,1.808e+00,1.039e+00,1.750e+00,9.583e-01,1.322e+00,5.990e-01,1.413e+00,1.042e+00,1.238e+00,1.759e+00,1.684e+00,9.543e-01,1.030e+00,6.900e-01,1.339e+00,2.089e+00,7.683e-01,1.445e+00,1.494e+00,2.273e+00,7.008e-01,1.381e+00,9.755e-01,1.460e+00,1.451e+00,5.699e-01,2.027e+00,8.940e-01,1.951e+00,1.054e+00,1.712e+00,2.019e+00,1.138e+00,1.270e+00,1.997e+00,7.237e-01,1.058e+00,1.784e+00,1.891e+00,1.040e+00,1.169e+00,1.517e+00,1.407e+00,1.221e+00,1.600e+00,1.446e+00,9.681e-01,1.184e+00,1.062e+00,9.809e-01,1.460e+00,1.222e+00,1.565e+00,6.022e-01,9.129e-01,1.588e+00,1.727e+00,1.508e+00,1.109e+00,1.839e+00,1.099e+00,1.252e+00,7.726e-01,8.994e-01,1.683e+00,1.308e+00,1.407e+00,1.893e+00,1.533e+00,1.348e+00,1.076e+00,1.724e+00,1.331e+00,1.510e+00,9.417e-01,1.863e+00,5.830e-01,1.695e+00,1.269e+00,1.688e+00,1.052e+00,6.145e-01,1.041e+00,1.071e+00
4.525e-02,8.047e-01,9.326e-01,1.566e+00,1.766e+00,1.669e+00,2.657e+00,2.240e+00,3.027e+00,2.115e+00,1.519e+00,1.884e+00,2.751e+00,2.186e+00,2.849e+00,1.383e+00,2.559e+00,1.731e+00,2.395e+00,1.034e+00,1.914e+00,1.849e+00,1.568e+00,2.991e+00,1.674e+00,1.564e+00,1.802e+00,1.209e+00,1.666e+00,2.842e+00,8.540e-01,2.122e+00,2.281e+00,2.511e+00,1.036e+00,2.127e+00,1.900e+00,1.945e+00,1.991e+00,1.378e+00,3.314e+00,1.821e+00,2.346e+00,1.398e+00,2.553e+00,2.941e+00,2.409e+00,2.397e+00,2.552e+00,1.094e+00,2.012e+00,2.472e+00,2.843e+00,2.082e+00,1.616e+00,2.697e+00,1.331e+00,1.590e+00,1.682e+00,2.282e+00,2.157e+00,1.602e+00,1.519e+00,1.321e+00,2.615e+00,2.052e+00,2.326e+00,1.415e+00,2.018e+00,2.387e+00,2.639e+00,2.467e+00,2.117e+00,2.486e+00,1.014e+00,2.306e+00,1.830e+00,2.293e+00,2.144e+00,2.297e+00,1.778e+00,2.138e+00,2.456e+00,1.534e+00,1.790e+00,1.892e+00,2.386e+00,2.813e+00,1.586e+00,1.979e+00,1.543e+00,2.366e+00,1.793e+00,2.139e+00,1.924e+00,1.078e+00,2.060e+00,2.556e+00
1.524e-01,9.631e-01,1.149e+00,1.542e+00,1.398e+00,1.765e+00,2.196e+00,2.760e+00,3.030e+00,1.635e+00,1.589e+00,2.163e+00,2.466e+00,2.039e+00,2.808e+00,2.521e+00,3.268e+00,1.163e+00,2.997e+00,1.898e+00,2.569e+00,1.917e+00,1.909e+00,2.785e+00,2.007e+00,2.480e+00,2.431e+00,1.452e+00,2.080e+00,2.511e+00,2.180e+00,1.799e+00,1.581e+00,2.713e+00,8.618e-01,2.139e+00,1.876e+00,2.485e+00,2.300e+00,8.268e-01,3.369e+00,1.529e+00,2.297e+00,1.092e+00,2.358e+00,2.495e+00,2.603e+00,3.260e+00,2.691e+00,2.390e+00,2.707e+00,2.696e+00,2.445e+00,1.760e+00,2.009e+00,1.851e+00,1.705e+00,2.057e+00,2.573e+00,2.456e+00,2.306e+00,1.135e+00,1.842e+00,1.493e+00,2.611e+00,2.678e+00,2.633e+00,1.723e+00,2.427e+00,1.969e+00,2.395e+00,2.206e+00,2.237e+00,2.963e+00,1.546e+00,2.496e+00,2.442e+00,2.146e+00,2.299e+00,2.643e+00,1.578e+00,2.481e+00,2.311e+00,1.777e+00,1.370e+00,2.366e+00,1.999e+00,2.175e+00,1.952e+00,2.175e+00,1.551e+00,1.659e+00,1.110e+00,2.196e+00,2.350e+00,1.324e+00,1.413e+00,2.803e+00
1.631e-01,1.606e+00,1.401e+00,2.227e+00,1.737e+00,2.035e+00,2.461e+00,2.988e+00,3.134e+00,2.601e+00,1.377e+00,2.275e+00,2.427e+00,2.854e+00,3.531e+00,2.682e+00,3.498e+00,2.536e+00,2.504e+00,1.602e+00,1.936e+00,2.181e+00,1.724e+00,3.058e+00,2.447e+00,2.291e+00,2.739e+00,1.783e+00,1.929e+00,3.437e+00,1.944e+00,1.911e+00,2.420e+00,2.818e+00,1.032e+00,1.920e+00,1.543e+00,1.910e+00,2.886e+00,2.290e+00,3.514e+00,2.607e+00,2.654e+00,1.518e+00,2.959e+00,3.700e+00,2.994e+00,2.972e+00,2.520e+00,1.366e+00,2.330e+00,2.191e+00,2.855e+00,2.106e+00,2.250e+00,3.071e+00,1.726e+00,1.943e+00,2.404e+00,3.078e+00,3.183e+00,2.010e+00,1.990e+00,1.358e+00,3.365e+00,2.892e+00,2.798e+00,2.065e+00,2.459e+00,2.016e+00,3.187e+00,2.447e+00,2.356e+00,2.103e+00,1.587e+00,2.406e+00,2.540e+00,2.940e+00,2.412e+00,3.255e+00,2.226e+00,2.507e+00,2.915e+00,2.285e+00,2.594e+00,2.564e+00,2.382e+00,2.898e+00,1.684e+00,2.040e+00,1.835e+00,1.930e+00,1.431e+00,2.055e+00,3.100e+00,2.112e+00,2.310e+00,2.744e+00
3.665e-02,4.741e-01,3.845e-01,5.872e-01,6.220e-01,6.252e-01,1.351e+00,2.073e+00,2.018e+00,1.719e+00,1.539e+00,1.886e+00,2.229e+00,2.275e+00,2.890e+00,2.885e+00,2.534e+00,2.288e+00,1.867e+00,1.834e+00,2.339e+00,2.377e+00,2.139e+00,3.002e+00,2.682e+00,3.155e+00,2.821e+00,1.689e+00,2.559e+00,2.830e+00,1.495e+00,2.372e+00,1.865e+00,2.050e+00,1.455e+00,1.824e+00,2.080e+00,1.844e+00,3.154e+00,1.561e+00,2.700e+00,1.669e+00,2.749e+00,1.855e+00,1.640e+00,2.716e+00,3.015e+00,2.631e+00,2.453e+00,1.391e+00,2.338e+00,1.666e+00,1.746e+00,1.775e+00,1.930e+00,2.377e+00,2.092e+00,1.518e+00,2.021e+00,2.483e+00,2.846e+00,1.976e+00,1.672e+00,1.213e+00,3.461e+00,1.912e+00,2.147e+00,2.226e+00,2.517e+00,1.598e+00,2.267e+00,2.592e+00,1.788e+00,2.043e+00,1.099e+00,2.447e+00,2.922e+00,1.782e+00,2.546e+00,3.253e+00,2.110e+00,2.637e+00,2.337e+00,2.165e+00,2.791e+00,2.434e+00,2.150e+00,2.137e+00,1.912e+00,1.894e+00,2.007e+00,1.493e+00,1.888e+00,1.838e+00,2.768e+00,1.585e+00,2.260e+00,2.957e+00
3.506e-02,4.199e-01,5.476e-01,8.254e-01,9.667e-01,9.613e-01,1.617e+00,1.956e+00,2.127e+00,1.931e+00,2.132e+00,2.419e+00,2.374e+00,2.783e+00,2.715e+00,2.910e+00,2.994e+00,2.117e+00,2.557e+00,1.443e+00,2.627e+00,2.840e+00,1.935e+00,3.328e+00,2.727e+00,2.985e+00,3.086e+00,1.289e+00,2.501e+00,2.962e+00,2.090e+00,2.932e+00,2.367e+00,2.140e+00,1.592e+00,2.564e+00,2.423e+00,2.771e+00,3.214e+00,1.598e+00,2.675e+00,2.218e+00,2.715e+00,1.610e+00,2.156e+00,3.123e+00,3.320e+00,2.934e+00,2.843e+00,2.126e+00,2.184e+00,2.175e+00,2.369e+00,2.256e+00,2.313e+00,3.059e+00,1.939e+00,1.725e+00,2.001e+00,2.768e+00,2.874e+00,2.331e+00,1.474e+00,1.621e+00,3.096e+00,2.602e+00,2.598e+00,1.849e+00,2.335e+00,1.668e+00,2.850e+00,2.906e+00,1.770e+00,2.786e+00,1.400e+00,2.867e+00,2.191e+00,1.779e+00,2.891e+00,2.773e+00,2.034e+00,2.769e+00,2.118e+00,1.912e+00,2.824e+00,2.557e+00,2.299e+00,2.936e+00,2.007e+00,2.291e+00,2.083e+00,2.476e+00,2.077e+00,2.548e+00,2.560e+00,1.685e+00,2.272e+00,3.336e+00
1.436e-01,1.149e+00,1.163e+00,1.763e+00,1.936e+00,1.992e+00,2.240e+00,2.342e+00,2.879e+00,2.800e+00,1.884e+00,3.323e+00,2.709e+00,3.312e+00,4.295e+00,3.482e+00,3.824e+00,3.014e+00,2.858e+00,2.458e+00,3.534e+00,3.198e+00,3.135e+00,3.752e+00,3.870e+00,3.162e+00,3.367e+00,2.435e+00,3.413e+00,4.464e+00,2.895e+00,2.875e+00,3.309e+00,3.332e+00,2.147e+00,3.161e+00,2.818e+00,3.277e+00,4.150e+00,2.721e+00,3.683e+00,2.523e+00,3.964e+00,2.407e+00,3.096e+00,3.937e+00,3.229e+00,4.235e+00,3.488e+00,1.733e+00,2.929e+00,3.252e+00,3.772e+00,2.709e+00,3.659e+00,3.983e+00,2.900e+00,2.944e+00,2.962e+00,3.085e+00,3.182e+00,3.102e+00,2.211e+00,2.596e+00,4.258e+00,3.665e+00,3.419e+00,1.951e+00,3.233e+00,3.089e+00,4.001e+00,3.534e+00,2.469e+00,3.237e+00,2.751e+00,3.355e+00,3.113e+00,2.886e+00,3.235e+00,4.150e+00,3.073e+00,3.812e+00,2.940e+00,3.160e+00,3.193e+00,4.189e+00,3.062e+00,3.545e+00,2.660e+00,3.034e+00,1.901e+00,3.518e+00,3.046e+00,4.023e+00,3.718e+00,1.737e+00,2.406e+00,3.467e+00
1.492e-02,7.175e-01,1.109e+00,1.847e+00,1.632e+00,1.717e+00,2.649e+00,2.370e+00,2.980e+00,2.354e+00,2.107e+00,2.932e+00,3.750e+00,3.301e+00,4.229e+00,2.982e+00,3.613e+00,2.754e+00,4.050e+00,2.385e+00,3.781e+00,3.123e+00,3.015e+00,3.785e+00,2.189e+00,2.431e+00,2.824e+00,1.490e+00,2.998e+00,3.840e+00,1.887e+00,2.982e+00,2.525e+00,3.349e+00,1.866e+00,3.150e+00,3.290e+00,2.753e+00,3.724e+00,2.773e+00,3.770e+00,2.359e+00,3.566e+00,1.649e+00,3.175e+00,3.721e+00,3.862e+00,3.781e+00,3.049e+00,2.219e+00,3.796e+00,3.312e+00,3.148e+00,2.438e+00,2.626e+00,3.883e+00,2.703e+00,3.547e+00,3.387e+00,2.638e+00,3.885e+00,2.434e+00,2.177e+00,2.163e+00,4.352e+00,3.665e+00,3.026e+00,1.752e+00,3.821e+00,2.090e+00,3.585e+00,2.892e+00,2.955e+00,3.089e+00,2.271e+00,3.430e+00,3.623e+00,3.012e+00,3.368e+00,3.063e+00,3.523e+00,3.583e+00,3.141e+00,2.019e+00,3.312e+00,3.484e+00,3.481e+00,3.669e+00,2.849e+00,2.963e+00,1.803e+00,2.588e+00,3.051e+00,2.442e+00,3.284e+00,2.728e+00,2.412e+00,4.699e+00
1.697e-02,7.684e-01,1.196e+00,1.873e+00,1.595e+00,1.745e+00,2.640e+00,2.717e+00,3.138e+00,2.593e+00,2.455e+00,3.314e+00,4.174e+00,4.377e+00,5.315e+00,4.098e+00,5.176e+00,3.450e+00,4.935e+00,2.717e+00,4.585e+00,3.816e+00,3.414e+00,4.806e+00,3.178e+00,3.878e+00,4.737e+00,1.680e+00,3.730e+00,4.825e+00,2.973e+00,4.170e+00,3.580e+00,3.934e+00,2.534e+00,3.823e+00,4.300e+00,4.017e+00,4.704e+00,3.937e+00,4.500e+00,3.582e+00,3.999e+00,2.867e+00,3.984e+00,5.163e+00,4.809e+00,4.584e+00,3.964e+00,3.538e+00,4.481e+00,4.003e+00,4.337e+00,3.505e+00,3.323e+00,5.231e+00,3.215e+00,3.664e+00,4.313e+00,3.316e+00,5.210e+00,3.222e+00,2.264e+00,3.250e+00,5.618e+00,4.287e+00,4.041e+00,2.571e+00,4.944e+00,2.980e+00,4.256e+00,4.216e+00,3.923e+00,4.419e+00,3.223e+00,4.481e+00,4.561e+00,3.238e+00,4.489e+00,3.649e+00,4.459e+00,4.259e+00,4.322e+00,2.455e+00,4.211e+00,4.466e+00,4.367e+00,5.412e+00,3.716e+00,3.496e+00,3.339e+00,3.549e+00,4.184e+00,3.412e+00,4.563e+00,3.238e+00,3.731e+00,5.426e+00
7.432e-02,8.389e-01,6.888e-01,1.030e+00,1.459e+00,1.264e+00,1.828e+00,1.897e+00,2.308e+00,2.165e+00,2.374e+00,2.493e+00,3.182e+00,3.580e+00,4.734e+00,4.114e+00,4.545e+00,2.708e+00,3.758e+00,3.507e+00,4.932e+00,4.560e+00,3.139e+00,4.134e+00,3.985e+00,3.920e+00,4.499e+00,2.030e+00,4.448e+00,4.376e+00,3.069e+00,3.898e+00,3.880e+00,4.432e+00,2.780e+00,3.368e+00,4.377e+00,4.231e+00,4.935e+00,4.127e+00,4.292e+00,3.168e+00,4.049e+00,2.814e+00,4.351e+00,4.813e+00,4.424e+00,3.836e+00,3.669e+00,2.977e+00,3.917e+00,4.030e+00,4.584e+00,3.482e+00,3.653e+00,5.162e+00,3.478e+00,3.948e+00,4.232e+00,2.712e+00,4.847e+00,3.899e+00,2.515e+00,3.850e+00,6.319e+00,4.240e+00,3.173e+00,2.121e+00,4.837e+00,3.681e+00,4.412e+00,4.221e+00,3.414e+00,4.356e+00,4.280e+00,4.132e+00,3.529e+00,3.376e+00,5.305e+00,3.723e+00,4.384e+00,4.060e+00,3.634e+00,3.357e+00,3.854e+00,5.057e+00,3.804e+00,5.311e+00,3.418e+00,4.305e+00,2.405e+00,4.288e+00,4.962e+00,4.632e+00,4.955e+00,2.776e+00,3.216e+00,3.749e+00
9.448e-02,1.193e+00,1.407e+00,2.304e+00,2.268e+00,2.322e+00,3.173e+00,3.015e+00,3.711e+00,3.429e+00,3.029e+00,4.200e+00,3.954e+00,4.456e+00,5.792e+00,5.472e+00,6.428e+00,4.043e+00,4.952e+00,4.056e+00,6.118e+00,5.056e+00,4.599e+00,5.385e+00,5.220e+00,5.282e+00,5.482e+00,3.202e+00,4.997e+00,5.800e+00,4.484e+00,4.584e+00,5.063e+00,5.638e+00,3.351e+00,5.498e+00,4.560e+00,4.979e+00,6.660e+00,5.029e+00,6.215e+00,3.956e+00,5.311e+00,3.542e+00,5.687e+00,5.705e+00,5.300e+00,5.877e+00,4.791e+00,3.889e+00,4.973e+00,5.133e+00,5.804e+00,4.877e+00,5.105e+00,6.127e+00,4.028e+00,5.133e+00,5.025e+00,5.031e+00,5.950e+00,4.232e+00,3.591e+00,4.356e+00,7.350e+00,5.419e+00,4.701e+00,2.799e+00,5.948e+00,3.844e+00,5.630e+00,5.690e+00,4.269e+00,4.870e+00,4.385e+00,5.462e+00,5.031e+00,4.794e+00,5.647e+00,5.099e+00,5.653e+00,4.846e+00,4.789e+00,4.267e+00,5.030e+00,5.694e+00,5.245e+00,5.680e+00,5.213e+00,4.590e+00,3.506e+00,5.437e+00,4.710e+00,5.760e+00,6.498e+00,3.941e+00,3.355e+00,5.969e+00
1.754e-03,1.116e-01,1.822e-01,6.431e-01,8.384e-01,6.920e-01,1.760e+00,1.822e+00,2.046e+00,2.173e+00,1.894e+00,2.840e+00,2.683e+00,3.513e+00,4.340e+00,4.516e+00,4.312e+00,3.072e+00,3.920e+00,3.325e+00,4.762e+00,4.651e+00,4.193e+00,4.074e+00,3.508e+00,5.030e+00,4.390e+00,2.603e+00,3.730e+00,5.135e+00,3.177e+00,3.884e+00,3.757e+00,3.873e+00,3.408e+00,4.243e+00,4.140e+00,3.911e+00,5.352e+00,4.791e+00,4.878e+00,3.610e+00,4.257e+00,3.784e+00,3.413e+00,4.224e+00,4.582e+00,3.580e+00,3.486e+00,3.159e+00,4.987e+00,3.722e+00,4.472e+00,4.287e+00,4.285e+00,5.144e+00,2.911e+00,3.553e+00,4.222e+00,4.444e+00,4.824e+00,2.895e+00,2.636e+00,3.289e+00,5.847e+00,4.071e+00,4.165e+00,3.368e+00,4.759e+00,3.307e+00,4.448e+00,5.776e+00,2.807e+00,4.220e+00,3.235e+00,4.418e+00,4.812e+00,3.829e+00,4.121e+00,4.752e+00,4.976e+00,3.738e+00,4.084e+00,3.713e+00,4.082e+00,4.670e+00,5.268e+00,4.750e+00,4.224e+00,3.585e+00,2.759e+00,3.936e+00,4.208e+00,4.432e+00,4.951e+00,2.859e+00,3.573e+00,4.801e+00
6.080e-02,3.959e-01,7.031e-01,1.120e+00,1.535e+00,1.478e+00,2.227e+00,2.137e+00,2.726e+00,2.113e+00,1.750e+00,2.485e+00,3.543e+00,3.092e+00,4.508e+00,3.741e+00,5.435e+00,2.780e+00,4.471e+00,3.765e+00,5.355e+00,3.764e+00,3.216e+00,4.386e+00,3.895e+00,3.760e+00,3.557e+00,2.306e+00,4.376e+00,4.642e+00,2.902e+00,4.210e+00,3.977e+00,4.440e+00,2.725e+00,3.931e+00,4.350e+00,4.404e+00,4.819e+00,3.559e+00,5.153e+00,2.811e+00,4.694e+00,3.088e+00,4.895e+00,4.353e+00,4.549e+00,4.286e+00,4.106e+00,3.298e+00,4.870e+00,4.601e+00,4.407e+00,3.897e+00,3.535e+00,4.865e+00,4.077e+00,3.834e+00,5.014e+00,3.220e+00,4.981e+00,3.867e+00,3.190e+00,3.546e+00,5.747e+00,4.251e+00,4.403e+00,2.436e+00,5.020e+00,4.176e+00,4.041e+00,5.057e+00,4.108e+00,4.583e+00,3.946e+00,4.028e+00,3.995e+00,3.960e+00,4.955e+00,3.747e+00,4.268e+00,4.701e+00,4.683e+00,3.439e+00,3.115e+00,4.924e+00,4.838e+00,4.764e+00,4.000e+00,4.489e+00,2.463e+00,4.061e+00,4.505e+00,4.395e+00,4.421e+00,3.014e+00,3.472e+00,4.837e+00
6.112e-02,9.689e-01,1.158e+00,1.594e+00,1.365e+00,1.542e+00,1.864e+00,2.571e+00,2.578e+00,2.372e+00,1.935e+00,3.143e+00,3.260e+00,3.884e+00,4.918e+00,5.002e+00,5.280e+00,5.059e+00,4.669e+00,4.618e+00,5.497e+00,5.592e+00,4.222e+00,5.074e+00,5.063e+00,5.832e+00,5.298e+00,3.416e+00,5.325e+00,6.426e+00,3.512e+00,5.373e+00,4.682e+00,5.073e+00,3.853e+00,4.783e+00,5.173e+00,4.680e+00,6.503e+00,5.215e+00,5.828e+00,4.113e+00,6.054e+00,3.735e+00,4.740e+00,4.543e+00,5.989e+00,5.912e+00,4.930e+00,3.969e+00,5.485e+00,4.982e+00,5.814e+00,5.210e+00,5.720e+00,6.045e+00,4.184e+00,5.312e+00,5.402e+00,4.280e+00,6.051e+00,4.497e+00,3.796e+00,3.677e+00,6.311e+00,5.644e+00,5.166e+00,3.494e+00,5.942e+00,3.868e+00,5.723e+00,5.571e+00,4.535e+00,4.929e+00,4.253e+00,5.564e+00,5.006e+00,5.441e+00,4.698e+00,5.612e+00,5.346e+00,4.876e+00,5.091e+00,4.914e+00,4.638e+00,6.563e+00,5.922e+00,5.602e+00,3.572e+00,5.560e+00,3.335e+00,3.734e+00,4.766e+00,5.032e+00,6.452e+00,3.880e+00,4.792e+00,6.017e+00
1.633e-01,1.671e+00,1.353e+00,2.161e+00,2.257e+00,2.216e+00,2.795e+00,3.181e+00,3.501e+00,3.461e+00,2.784e+00,3.098e+00,3.407e+00,3.545e+00,5.422e+00,5.578e+00,6.738e+00,4.203e+00,5.206e+00,4.776e+00,5.816e+00,5.742e+00,4.860e+00,5.685e+00,6.644e+00,5.914e+00,5.436e+00,3.616e+00,6.467e+00,6.893e+00,4.539e+00,4.960e+00,5.805e+00,7.387e+00,4.096e+00,4.807e+00,5.113e+00,4.878e+00,7.329e+00,5.444e+00,7.892e+00,4.725e+00,6.252e+00,4.071e+00,6.842e+00,6.192e+00,6.038e+00,5.961e+00,5.838e+00,4.280e+00,5.413e+00,5.917e+00,6.924e+00,5.848e+00,5.809e+00,6.282e+00,5.344e+00,5.446e+00,6.705e+00,5.669e+00,6.873e+00,4.634e+00,5.236e+00,4.091e+00,8.074e+00,5.610e+00,5.697e+00,3.626e+00,6.148e+00,5.037e+00,5.792e+00,6.232e+00,5.405e+00,5.429e+00,5.576e+00,5.504e+00,5.303e+00,5.624e+00,6.733e+00,6.493e+00,6.923e+00,4.941e+00,6.216e+00,5.129e+00,5.297e+00,6.705e+00,5.824e+00,5.878e+00,4.804e+00,6.422e+00,4.311e+00,5.598e+00,5.488e+00,6.633e+00,8.033e+00,4.688e+00,5.156e+00,5.891e+00
1.577e-01,1.217e+00,1.090e+00,1.750e+00,2.032e+00,2.009e+00,2.449e+00,2.495e+00,3.094e+00,3.071e+00,2.268e+00,3.511e+00,3.491e+00,4.157e+00,5.212e+00,5.150e+00,5.237e+00,4.109e+00,4.732e+00,4.943e+00,6.567e+00,5.691e+00,5.013e+00,5.396e+00,5.378e+00,5.076e+00,4.928e+00,3.524e+00,5.952e+00,7.389e+00,3.975e+00,5.715e+00,5.582e+00,6.235e+00,3.841e+00,5.069e+00,5.816e+00,5.896e+00,6.931e+00,5.403e+00,6.570e+00,3.943e+00,6.364e+00,3.402e+00,5.408e+00,5.402e+00,5.273e+00,5.658e+00,5.734e+00,3.921e+00,5.218e+00,5.078e+00,6.639e+00,5.243e+00,5.558e+00,6.346e+00,5.796e+00,5.211e+00,5.923e+00,5.421e+00,5.728e+00,5.463e+00,4.447e+00,4.480e+00,6.657e+00,6.173e+00,5.178e+00,3.429e+00,4.918e+00,5.272e+00,6.264e+00,5.264e+00,4.904e+00,5.469e+00,4.538e+00,6.020e+00,5.337e+00,5.713e+00,6.029e+00,6.374e+00,5.235e+00,5.796e+00,4.997e+00,5.275e+00,4.861e+00,7.348e+00,5.525e+00,6.110e+00,3.781e+00,6.291e+00,2.875e+00,4.924e+00,5.272e+00,6.110e+00,6.537e+00,3.686e+00,4.973e+00,6.450e+00
1.230e-01,1.389e+00,9.601e-01,1.498e+00,1.189e+00,1.326e+00,1.953e+00,2.653e+00,2.613e+00,1.946e+00,1.648e+00,2.283e+00,2.622e+00,3.829e+00,4.966e+00,5.108e+00,6.410e+00,4.309e+00,4.710e+00,5.896e+00,6.633e+00,6.063e+00,4.984e+00,5.879e+00,6.276e+00,6.431e+00,5.733e+00,4.846e+00,6.912e+00,6.762e+00,5.210e+00,5.752e+00,5.710e+00,5.944e+00,4.548e+00,5.764e+00,5.882e+00,5.893e+00,8.089e+00,7.133e+00,7.897e+00,5.521e+00,6.221e+00,4.218e+00,6.685e+00,5.463e+00,6.016e+00,6.610e+00,5.733e+00,4.974e+00,5.941e+00,6.596e+00,7.699e+00,7.131e+00,5.912e+00,7.006e+00,5.191e+00,5.839e+00,7.194e+00,5.731e+00,7.511e+00,5.419e+00,5.317e+00,5.171e+00,8.187e+00,6.562e+00,6.435e+00,4.248e+00,6.828e+00,5.750e+00,6.068e+00,6.734e+00,6.119e+00,5.336e+00,5.562e+00,6.574e+00,6.156e+00,7.189e+00,6.389e+00,6.710e+00,5.913e+00,4.866e+00,6.703e+00,5.427e+00,4.934e+00,7.400e+00,6.742e+00,6.375e+00,5.186e+00,6.734e+00,5.144e+00,5.020e+00,5.509e+00,6.061e+00,8.913e+00,5.034e+00,5.199e+00,6.774e+00
1.241e-01,7.460e-01,1.044e+00,1.497e+00,1.714e+00,1.866e+00,2.377e+00,3.012e+00,3.319e+00,3.027e+00,2.270e+00,3.545e+00,4.009e+00,4.106e+00,5.310e+00,5.944e+00,6.564e+00,4.703e+00,5.844e+00,5.716e+00,7.810e+00,6.701e+00,5.807e+00,6.786e+00,8.201e+00,7.596e+00,6.577e+00,4.846e+00,7.539e+00,8.834e+00,5.094e+00,8.588e+00,6.965e+00,8.347e+00,4.855e+00,7.174e+00,7.957e+00,6.931e+00,9.003e+00,6.355e+00,8.561e+00,5.816e+00,8.806e+00,4.922e+00,7.283e+00,7.035e+00,7.146e+00,7.566e+00,8.114e+00,5.690e+00,6.584e+00,7.418e+00,7.915e+00,6.963e+00,6.869e+00,8.314e+00,8.183e+00,6.625e+00,8.586e+00,6.896e+00,7.673e+00,6.413e+00,5.792e+00,5.928e+00,8.720e+00,6.993e+00,7.581e+00,4.614e+00,6.648e+00,5.886e+00,6.867e+00,6.894e+00,6.778e+00,6.860e+00,5.714e+00,7.779e+00,6.779e+00,6.739e+00,8.187e+00,7.715e+00,7.092e+00,6.967e+00,7.190e+00,7.122e+00,6.223e+00,8.482e+00,7.531e+00,6.917e+00,5.415e+00,8.317e+00,5.658e+00,5.839e+00,6.863e+00,7.697e+00,8.409e+00,6.025e+00,7.278e+00,8.975e+00
1.135e-01,6.080e-01,9.351e-01,1.517e+00,1.723e+00,1.816e+00,1.981e+00,1.722e+00,2.430e+00,2.672e+00,1.599e+00,3.395e+00,2.913e+00,3.513e+00,4.813e+00,4.636e+00,5.359e+00,3.810e+00,4.786e+00,4.470e+00,6.632e+00,4.929e+00,5.972e+00,6.012e+00,6.802e+00,5.788e+00,5.671e+00,3.877e+00,6.613e+00,8.280e+00,4.803e+00,6.857e+00,6.130e+00,7.060e+00,4.853e+00,6.915e+00,7.435e+00,6.115e+00,7.384e+00,5.803e+00,7.682e+00,4.732e+00,7.490e+00,4.761e+00,6.476e+00,6.437e+00,4.865e+00,6.662e+00,7.543e+00,4.992e+00,5.942e+00,6.071e+00,7.082e+00,6.317e+00,6.692e+00,7.150e+00,6.743e+00,6.097e+00,6.970e+00,5.820e+00,6.357e+00,5.532e+00,4.722e+00,5.406e+00,7.132e+00,6.559e+00,6.330e+00,3.830e+00,5.261e+00,5.519e+00,6.180e+00,6.217e+00,6.170e+00,6.496e+00,5.758e+00,6.853e+00,5.898e+00,5.549e+00,6.660e+00,6.699e+00,6.804e+00,6.472e+00,6.386e+00,5.763e+00,5.672e+00,7.331e+00,5.999e+00,6.528e+00,4.665e+00,6.656e+00,5.058e+00,5.930e+00,6.994e+00,7.482e+00,7.769e+00,4.463e+00,5.363e+00,7.378e+00
1.588e-01,1.536e+00,1.376e+00,2.274e+00,1.831e+00,2.095e+00,2.586e+00,2.385e+00,3.029e+00,2.449e+00,1.750e+00,3.005e+00,3.054e+00,4.175e+00,4.888e+00,4.702e+00,5.243e+00,3.806e+00,5.258e+00,3.725e+00,5.910e+00,4.848e+00,5.285e+00,6.134e+00,5.563e+00,6.121e+00,5.681e+00,4.520e+00,5.476e+00,7.304e+00,5.434e+00,7.173e+00,6.660e+00,6.700e+00,4.580e+00,7.016e+00,7.044e+00,5.786e+00,6.763e+00,7.061e+00,7.788e+00,6.056e+00,7.423e+00,4.180e+00,6.328e+00,6.525e+00,5.987e+00,6.983e+00,6.619e+00,5.821e+00,6.171e+00,6.650e+00,7.457e+00,6.725e+00,6.491e+00,7.974e+00,5.738e+00,5.971e+00,7.323e+00,6.034e+00,7.432e+00,5.534e+00,4.941e+00,5.177e+00,7.886e+00,7.241e+00,6.350e+00,4.189e+00,5.730e+00,4.706e+00,6.861e+00,5.837e+00,6.027e+00,5.748e+00,5.345e+00,7.643e+00,5.526e+00,6.207e+00,6.537e+00,6.000e+00,6.755e+00,5.377e+00,6.083e+00,5.546e+00,6.220e+00,7.260e+00,6.692e+00,7.247e+00,5.037e+00,5.629e+00,5.001e+00,4.937e+00,6.260e+00,7.355e+00,7.000e+00,5.697e+00,6.159e+00,7.229e+00
1.623e-01,9.475e-01,8.566e-01,1.246e+00,1.017e+00,1.325e+00,1.224e+00,1.651e+00,1.799e+00,1.653e+00,1.272e+00,2.547e+00,1.644e+00,2.509e+00,3.548e+00,4.109e+00,4.069e+00,2.702e+00,3.580e+00,4.424e+00,5.378e+00,4.266e+00,4.905e+00,3.928e+00,5.457e+00,5.796e+00,5.022e+00,4.318e+00,5.245e+00,5.813e+00,5.400e+00,4.568e+00,4.866e+00,6.301e+00,4.118e+00,5.215e+00,5.819e+00,5.586e+00,6.466e+00,4.856e+00,5.989e+00,4.003e+00,6.097e+00,3.692e+00,4.851e+00,4.354e+00,4.826e+00,6.025e+00,5.315e+00,4.860e+00,5.138e+00,5.317e+00,6.079e+00,5.068e+00,5.853e+00,5.912e+00,5.745e+00,5.443e+00,6.081e+00,5.135e+00,6.129e+00,4.619e+00,5.117e+00,4.703e+00,6.345e+00,5.737e+00,5.290e+00,3.617e+00,5.123e+00,4.609e+00,5.014e+00,4.604e+00,4.770e+00,4.980e+00,4.857e+00,6.039e+00,5.781e+00,5.681e+00,5.746e+00,6.221e+00,5.207e+00,4.470e+00,5.359e+00,4.997e+00,4.772e+00,6.473e+00,4.278e+00,4.812e+00,4.108e+00,5.145e+00,4.355e+00,3.868e+00,5.280e+00,6.926e+00,7.379e+00,4.329e+00,4.625e+00,5.931e+00
7.697e-02,1.033e+00,7.886e-01,1.081e+00,1.282e+00,1.200e+00,1.871e+00,2.013e+00,2.437e+00,1.654e+00,2.146e+00,2.271e+00,2.957e+00,3.782e+00,4.192e+00,5.020e+00,5.401e+00,3.638e+00,4.793e+00,5.313e+00,7.199e+00,6.462e+00,5.251e+00,6.698e+00,7.064e+00,8.443e+00,7.241e+00,6.241e+00,7.102e+00,8.641e+00,6.440e+00,9.669e+00,8.668e+00,7.769e+00,6.516e+00,8.361e+00,8.573e+00,8.818e+00,8.771e+00,7.974e+00,9.797e+00,6.200e+00,8.565e+00,5.269e+00,8.139e+00,7.526e+00,7.626e+00,7.892e+00,7.772e+00,7.088e+00,7.084e+00,7.841e+00,9.369e+00,9.302e+00,7.818e+00,9.956e+00,8.147e+00,7.590e+00,8.403e+00,7.309e+00,8.960e+00,8.325e+00,6.852e+00,7.215e+00,9.609e+00,8.485e+00,7.054e+00,5.394e+00,7.562e+00,6.242e+00,8.011e+00,7.460e+00,7.750e+00,7.618e+00,7.086e+00,9.054e+00,6.423e+00,8.501e+00,8.564e+00,7.813e+00,7.073e+00,6.381e+00,6.866e+00,7.245e+00,7.559e+00,9.381e+00,7.806e+00,8.601e+00,5.631e+00,8.186e+00,6.872e+00,6.334e+00,7.521e+00,9.890e+00,9.552e+00,6.828e+00,8.298e+00,8.203e+00
1.126e-01,6.820e-01,4.023e-01,9.476e-01,9.598e-01,9.899e-01,1.861e+00,2.333e+00,2.458e+00,2.607e+00,2.170e+00,3.025e+00,3.140e+00,4.185e+00,5.277e+00,5.693e+00,5.608e+00,3.987e+00,4.597e+00,5.484e+00,7.075e+00,5.943e+00,5.626e+00,6.509e+00,7.020e+00,7.868e+00,7.742e+00,6.103e+00,8.094e+00,8.589e+00,6.781e+00,8.558e+00,7.510e+00,7.904e+00,6.979e+00,7.229e+00,8.043e+00,8.313e+00,9.319e+00,7.941e+00,8.662e+00,6.009e+00,7.903e+00,5.234e+00,7.613e+00,7.715e+00,7.128e+00,6.857e+00,7.910e+00,6.497e+00,7.421e+00,7.432e+00,8.006e+00,8.364e+00,6.275e+00,8.808e+00,7.995e+00,7.133e+00,8.728e+00,7.393e+00,8.935e+00,7.298e+00,6.509e+00,6.570e+00,1.028e+01,7.860e+00,7.225e+00,5.667e+00,7.533e+00,6.532e+00,6.964e+00,6.890e+00,7.287e+00,7.194e+00,7.028e+00,8.791e+00,8.117e+00,6.714e+00,9.250e+00,7.483e+00,6.884e+00,6.958e+00,7.205e+00,5.862e+00,7.829e+00,8.981e+00,7.434e+00,7.803e+00,6.413e+00,8.390e+00,7.077e+00,6.711e+00,7.105e+00,7.644e+00,1.028e+01,6.564e+00,7.132e+00,8.154e+00
9.371e-02,7.173e-01,4.710e-01,8.226e-01,7.495e-01,8.384e-01,1.493e+00,1.869e+00,2.060e+00,1.762e+00,1.749e+00,2.512e+00,2.518e+00,3.780e+00,4.156e+00,4.772e+00,5.267e+00,3.862e+00,4.119e+00,4.551e+00,5.948e+00,4.650e+00,4.434e+00,5.868e+00,6.094e+00,6.950e+00,5.919e+00,5.763e+00,6.910e+00,7.030e+00,6.504e+00,7.781e+00,7.395e+00,6.255e+00,6.263e+00,6.483e+00,7.852e+00,7.386e+00,7.584e+00,6.520e+00,7.666e+00,5.704e+00,7.698e+00,4.441e+00,6.468e+00,5.990e+00,6.679e+00,7.140e+00,7.299e+00,6.791e+00,6.601e+00,7.193e+00,7.465e+00,7.603e+00,6.459e+00,7.653e+00,6.752e+00,6.176e+00,7.188e+00,7.234e+00,8.214e+00,7.254e+00,6.159e+00,5.814e+00,8.237e+00,7.150e+00,6.573e+00,4.901e+00,6.827e+00,6.536e+00,6.508e+00,6.946e+00,6.387e+00,6.755e+00,5.625e+00,7.920e+00,7.550e+00,6.355e+00,7.440e+00,7.024e+00,5.579e+00,6.148e+00,7.150e+00,5.268e+00,6.671e+00,8.325e+00,6.531e+00,7.448e+00,6.341e+00,6.339e+00,6.773e+00,5.968e+00,6.480e+00,7.425e+00,8.169e+00,6.219e+00,7.167e+00,7.760e+00
4.062e-02,6.153e-01,8.009e-01,1.444e+00,1.274e+00,1.328e+00,1.834e+00,1.587e+00,1.963e+00,2.039e+00,1.924e+00,2.802e+00,2.248e+00,2.735e+00,3.905e+00,3.808e+00,4.238e+00,3.566e+00,4.107e+00,4.760e+00,5.265e+00,5.595e+00,5.251e+00,4.666e+00,5.284e+00,6.795e+00,6.123e+00,4.759e+00,6.472e+00,7.810e+00,6.021e+00,6.902e+00,7.253e+00,7.616e+00,6.220e+00,7.189e+00,8.181e+00,6.564e+00,8.362e+00,7.732e+00,9.118e+00,5.549e+00,7.943e+00,5.008e+00,7.280e+00,7.397e+00,6.838e+00,6.510e+00,7.181e+00,5.961e+00,7.742e+00,7.848e+00,7.879e+00,8.089e+00,6.840e+00,8.334e+00,5.988e+00,8.360e+00,8.154e+00,6.546e+00,7.889e+00,5.284e+00,5.694e+00,5.972e+00,8.405e+00,7.916e+00,6.513e+00,3.963e+00,6.789e+00,5.389e+00,6.839e+00,7.485e+00,6.139e+00,7.548e+00,7.045e+00,7.776e+00,6.199e+00,6.411e+00,7.559e+00,6.439e+00,7.402e+00,6.063e+00,6.917e+00,5.513e+00,6.456e+00,8.440e+00,7.551e+00,7.562e+00,6.543e+00,7.549e+00,5.673e+00,6.373e+00,7.049e+00,8.370e+00,8.927e+00,6.603e+00,6.573e+00,7.107e+00
1.011e-01,1.058e+00,1.186e+00,1.780e+00,1.763e+00,1.891e+00,2.633e+00,2.944e+00,3.448e+00,2.671e+00,1.818e+00,3.065e+00,3.843e+00,3.907e+00,5.293e+00,4.229e+00,4.979e+00,4.408e+00,4.886e+00,5.184e+00,6.255e+00,5.614e+00,5.134e+00,6.581e+00,6.123e+00,6.095e+00,6.736e+00,5.048e+00,7.688e+00,9.471e+00,5.827e+00,8.653e+00,7.201e+00,9.135e+00,6.948e+00,7.143e+00,9.615e+00,7.372e+00,8.451e+00,7.144e+00,9.773e+00,6.539e+00,9.336e+00,5.195e+00,8.409e+00,7.764e+00,8.276e+00,8.307e+00,9.191e+00,6.347e+00,9.537e+00,8.729e+00,9.772e+00,8.537e+00,6.928e+00,9.349e+00,8.365e+00,8.351e+00,8.477e+00,7.935e+00,9.203e+00,7.094e+00,7.812e+00,6.073e+00,8.960e+00,8.986e+00,7.346e+00,5.502e+00,7.780e+00,7.501e+00,7.954e+00,7.600e+00,8.479e+00,8.441e+00,7.005e+00,9.737e+00,8.437e+00,7.482e+00,8.509e+00,8.832e+00,7.028e+00,7.249e+00,8.608e+00,6.349e+00,6.699e+00,9.120e+00,7.409e+00,9.437e+00,5.835e+00,9.221e+00,7.250e+00,7.818e+00,7.993e+00,9.144e+00,9.359e+00,6.428e+00,8.245e+00,9.307e+00
9.301e-02,9.177e-01,7.548e-01,1.213e+00,1.446e+00,1.382e+00,2.349e+00,2.442e+00,3.019e+00,2.204e+00,2.211e+00,2.958e+00,3.312e+00,3.640e+00,4.813e+00,5.087e+00,5.486e+00,3.919e+00,4.746e+00,5.205e+00,6.972e+00,5.820e+00,6.068e+00,6.693e+00,7.339e+00,8.093e+00,6.193e+00,7.278e+00,8.107e+00,8.991e+00,6.929e+00,9.473e+00,9.199e+00,9.141e+00,8.102e+00,9.492e+00,1.007e+01,8.210e+00,9.465e+00,8.892e+00,1.051e+01,7.697e+00,1.094e+01,6.613e+00,9.400e+00,8.982e+00,8.851e+00,8.822e+00,9.044e+00,7.646e+00,9.277e+00,1.035e+01,1.001e+01,1.026e+01,8.334e+00,1.014e+01,9.634e+00,9.601e+00,9.866e+00,9.310e+00,1.010e+01,8.122e+00,8.892e+00,7.740e+00,1.081e+01,9.770e+00,7.879e+00,6.066e+00,9.640e+00,8.242e+00,8.945e+00,9.748e+00,8.975e+00,8.778e+00,8.165e+00,9.695e+00,8.909e+00,8.386e+00,9.847e+00,9.674e+00,8.383e+00,7.873e+00,8.950e+00,7.860e+00,7.877e+00,1.029e+01,8.798e+00,9.217e+00,8.371e+00,9.629e+00,8.611e+00,8.747e+00,9.688e+00,1.115e+01,1.037e+01,8.411e+00,9.076e+00,9.770e+00
1.589e-01,1.650e+00,1.177e+00,2.000e+00,1.894e+00,1.916e+00,2.788e+00,3.080e+00,3.500e+00,3.100e+00,2.536e+00,3.480e+00,3.427e+00,4.443e+00,5.670e+00,6.196e+00,6.199e+00,5.118e+00,5.035e+00,6.051e+00,7.131e+00,6.794e+00,5.668e+00,6.552e+00,7.253e+00,8.786e+00,7.472e+00,7.031e+00,7.752e+00,9.121e+00,7.170e+00,8.579e+00,9.878e+00,9.869e+00,7.785e+00,9.197e+00,9.859e+00,8.838e+00,1.085e+01,9.401e+00,1.104e+01,7.896e+00,1.039e+01,6.771e+00,9.343e+00,9.280e+00,1.000e+01,9.774e+00,8.539e+00,7.713e+00,9.366e+00,9.690e+00,1.045e+01,1.111e+01,8.622e+00,1.072e+01,9.057e+00,9.666e+00,1.036e+01,1.008e+01,1.045e+01,8.580e+00,8.810e+00,7.066e+00,1.159e+01,1.009e+01,8.805e+00,6.272e+00,9.953e+00,8.354e+00,9.971e+00,9.429e+00,9.294e+00,9.281e+00,8.983e+00,1.033e+01,9.005e+00,9.486e+00,9.516e+00,9.493e+00,9.206e+00,8.210e+00,8.729e+00,8.851e+00,8.569e+00,1.049e+01,9.261e+00,1.061e+01,7.959e+00,9.403e+00,7.742e+00,8.710e+00,9.066e+00,1.108e+01,1.079e+01,8.790e+00,9.422e+00,9.696e+00
1.003e-01,1.294e+00,1.157e+00,1.766e+00,1.470e+00,1.615e+00,2.006e+00,1.933e+00,2.414e+00,1.670e+00,1.188e+00,2.029e+00,2.711e+00,3.253e+00,4.500e+00,3.877e+00,4.740e+00,3.727e+00,4.628e+00,4.262e+00,5.749e+00,4.716e+00,5.239e+00,5.550e+00,5.408e+00,6.266e+00,5.381e+00,5.821e+00,6.794e+00,8.360e+00,5.668e+00,8.461e+00,9.091e+00,9.292e+00,7.213e+00,8.852e+00,1.005e+01,7.665e+00,8.948e+00,9.192e+00,1.002e+01,7.980e+00,9.395e+00,5.792e+00,8.357e+00,8.736e+00,8.952e+00,8.689e+00,8.876e+00,7.864e+00,9.153e+00,9.917e+00,1.121e+01,9.387e+00,7.834e+00,1.002e+01,8.400e+00,9.510e+00,9.819e+00,7.875e+00,9.630e+00,7.160e+00,8.297e+00,7.179e+00,9.585e+00,9.862e+00,7.920e+00,5.302e+00,9.258e+00,8.179e+00,8.564e+00,8.522e+00,9.308e+00,8.430e+00,8.376e+00,1.015e+01,8.409e+00,7.577e+00,8.900e+00,9.191e+00,8.609e+00,7.970e+00,9.523e+00,7.392e+00,6.939e+00,1.036e+01,8.327e+00,9.890e+00,7.510e+00,9.355e+00,7.920e+00,8.685e+00,8.691e+00,9.213e+00,9.111e+00,8.032e+00,8.665e+00,9.527e+00
1.320e-01,1.358e+00,1.164e+00,1.565e+00,1.894e+00,1.846e+00,2.581e+00,3.401e+00,3.625e+00,3.059e+00,3.173e+00,3.565e+00,4.122e+00,4.670e+00,5.650e+00,6.224e+00,6.277e+00,4.189e+00,5.358e+00,5.222e+00,6.940e+00,6.917e+00,5.741e+00,7.804e+00,7.495e+00,8.251e+00,7.806e+00,5.643e+00,8.102e+00,1.021e+01,7.166e+00,9.978e+00,9.297e+00,9.672e+00,8.216e+00,9.656e+00,1.048e+01,9.330e+00,1.084e+01,8.548e+00,1.287e+01,7.868e+00,1.101e+01,6.607e+00,9.753e+00,1.073e+01,1.028e+01,9.790e+00,1.033e+01,8.186e+00,1.040e+01,1.006e+01,1.064e+01,1.060e+01,9.581e+00,1.210e+01,9.727e+00,9.362e+00,1.027e+01,1.034e+01,1.102e+01,9.328e+00,9.618e+00,7.357e+00,1.185e+01,1.065e+01,8.059e+00,7.006e+00,8.980e+00,7.732e+00,9.951e+00,1.013e+01,9.107e+00,9.854e+00,9.128e+00,1.109e+01,8.679e+00,8.065e+00,1.064e+01,1.139e+01,9.527e+00,9.402e+00,9.538e+00,8.545e+00,9.729e+00,1.194e+01,8.880e+00,1.049e+01,8.426e+00,1.043e+01,7.759e+00,9.669e+00,8.678e+00,1.198e+01,1.047e+01,8.338e+00,1.013e+01,1.017e+01
3.484e-02,6.382e-01,8.667e-01,1.497e+00,1.749e+00,1.615e+00,2.466e+00,2.432e+00,2.906e+00,3.173e+00,3.067e+00,4.103e+00,3.809e+00,4.496e+00,5.526e+00,5.533e+00,6.376e+00,5.039e+00,5.584e+00,5.998e+00,7.739e+00,7.385e+00,6.636e+00,6.948e+00,6.989e+00,8.049e+00,7.309e+00,5.441e+00,8.196e+00,9.528e+00,7.463e+00,8.849e+00,8.774e+00,9.161e+00,7.725e+00,8.747e+00,1.160e+01,9.232e+00,1.111e+01,9.155e+00,1.116e+01,7.889e+00,1.105e+01,6.554e+00,8.993e+00,8.977e+00,1.036e+01,9.408e+00,9.504e+00,8.318e+00,1.083e+01,9.717e+00,1.004e+01,1.019e+01,9.031e+00,1.209e+01,9.457e+00,1.028e+01,1.076e+01,9.697e+00,1.162e+01,9.159e+00,8.679e+00,8.204e+00,1.122e+01,1.108e+01,9.182e+00,5.764e+00,9.222e+00,8.587e+00,1.001e+01,1.065e+01,7.827e+00,9.891e+00,8.671e+00,1.023e+01,9.241e+00,9.155e+00,1.025e+01,9.870e+00,8.991e+00,9.105e+00,9.965e+00,8.004e+00,9.300e+00,1.156e+01,8.944e+00,1.061e+01,8.750e+00,9.859e+00,7.588e+00,8.394e+00,1.060e+01,1.113e+01,1.060e+01,8.809e+00,1.007e+01,1.120e+01
4.184e-02,7.019e-01,8.987e-01,1.504e+00,1.399e+00,1.472e+00,2.387e+00,2.219e+00,2.835e+00,2.071e+00,1.653e+00,2.642e+00,3.290e+00,3.346e+00,4.364e+00,3.471e+00,4.270e+00,3.604e+00,4.212e+00,3.841e+00,5.336e+00,4.270e+00,4.132e+00,5.039e+00,4.123e+00,5.134e+00,5.214e+00,4.234e+00,5.479e+00,6.345e+00,4.834e+00,6.506e+00,6.635e+00,7.567e+00,6.132e+00,7.453e+00,1.009e+01,7.338e+00,8.534e+00,7.059e+00,9.710e+00,6.868e+00,8.890e+00,5.561e+00,7.898e+00,7.614e+00,9.132e+00,8.635e+00,7.896e+00,6.657e+00,9.854e+00,8.665e+00,8.903e+00,9.227e+00,7.327e+00,9.507e+00,8.239e+00,9.140e+00,9.500e+00,8.191e+00,9.653e+00,7.217e+00,8.256e+00,6.724e+00,9.162e+00,9.501e+00,7.501e+00,5.021e+00,8.533e+00,7.654e+00,9.147e+00,9.004e+00,8.074e+00,8.720e+00,7.917e+00,9.880e+00,8.830e+00,7.895e+00,8.412e+00,7.594e+00,7.874e+00,8.380e+00,8.509e+00,7.118e+00,7.130e+00,8.558e+00,7.509e+00,9.671e+00,7.696e+00,8.247e+00,7.477e+00,8.449e+00,9.531e+00,9.365e+00,8.068e+00,7.411e+00,8.409e+00,9.656e+00
4.738e-02,1.051e+00,8.662e-01,1.495e+00,1.225e+00,1.240e+00,2.069e+00,2.152e+00,2.486e+00,2.355e+00,2.307e+00,3.083e+00,2.675e+00,3.833e+00,4.116e+00,4.580e+00,5.148e+00,4.318e+00,4.184e+00,4.253e+00,6.189e+00,5.183e+00,5.624e+00,5.894e+00,5.692e+00,6.289e+00,5.559e+00,5.187e+00,6.634e+00,6.889e+00,6.070e+00,6.547e+00,7.494e+00,6.886e+00,6.027e+00,8.096e+00,9.192e+00,7.795e+00,1.063e+01,8.479e+00,1.030e+01,7.649e+00,9.571e+00,5.333e+00,7.244e+00,7.491e+00,8.794e+00,8.957e+00,8.408e+00,7.226e+00,8.198e+00,8.033e+00,8.343e+00,8.976e+00,8.225e+00,1.081e+01,8.130e+00,7.252e+00,9.119e+00,8.458e+00,1.015e+01,8.532e+00,8.292e+00,6.654e+00,1.033e+01,1.003e+01,8.290e+00,5.198e+00,7.728e+00,7.233e+00,8.786e+00,8.847e+00,7.610e+00,6.759e+00,7.247e+00,9.462e+00,8.366e+00,7.904e+00,8.636e+00,9.340e+00,7.272e+00,7.907e+00,9.297e+00,6.325e+00,8.777e+00,9.490e+00,7.247e+00,8.306e+00,7.723e+00,8.185e+00,6.987e+00,7.598e+00,8.466e+00,8.888e+00,9.544e+00,7.838e+00,8.115e+00,1.074e+01
7.759e-02,7.027e-01,5.861e-01,1.288e+00,1.054e+00,1.152e+00,2.148e+00,2.234e+00,2.550e+00,2.226e+00,1.485e+00,2.734e+00,2.972e+00,3.917e+00,4.635e+00,3.975e+00,4.243e+00,3.608e+00,4.238e+00,4.314e+00,5.325e+00,4.801e+00,4.821e+00,5.956e+00,4.998e+00,6.320e+00,6.108e+00,5.474e+00,6.527e+00,8.094e+00,6.026e+00,7.927e+00,7.759e+00,7.564e+00,7.181e+00,8.302e+00,1.010e+01,8.590e+00,1.024e+01,9.074e+00,1.183e+01,8.449e+00,1.025e+01,6.323e+00,8.474e+00,9.669e+00,9.762e+00,9.296e+00,9.882e+00,8.436e+00,1.047e+01,1.003e+01,9.826e+00,9.596e+00,7.849e+00,1.068e+01,9.114e+00,9.389e+00,1.112e+01,9.243e+00,1.013e+01,8.263e+00,8.551e+00,7.150e+00,1.049e+01,1.010e+01,9.043e+00,6.492e+00,9.139e+00,8.824e+00,9.487e+00,9.149e+00,8.863e+00,9.102e+00,8.725e+00,1.003e+01,9.115e+00,8.586e+00,8.567e+00,9.591e+00,9.140e+00,9.306e+00,9.410e+00,7.693e+00,9.061e+00,1.024e+01,8.528e+00,1.032e+01,8.705e+00,1.024e+01,9.393e+00,9.106e+00,9.308e+00,9.494e+00,9.321e+00,8.752e+00,9.288e+00,1.038e+01
6.281e-02,3.937e-01,6.656e-01,1.035e+00,1.176e+00,1.262e+00,1.911e+00,2.076e+00,2.459e+00,1.905e+00,1.594e+00,2.520e+00,3.288e+00,3.497e+00,4.544e+00,4.743e+00,5.103e+00,3.373e+00,5.474e+00,4.474e+00,6.775e+00,5.522e+00,5.937e+00,6.830e+00,6.502e+00,7.975e+00,7.006e+00,6.145e+00,7.709e+00,9.702e+00,6.751e+00,1.014e+01,9.037e+00,9.992e+00,8.670e+00,1.028e+01,1.191e+01,1.051e+01,1.143e+01,1.079e+01,1.318e+01,1.009e+01,1.163e+01,7.424e+00,1.000e+01,1.041e+01,1.040e+01,1.082e+01,1.187e+01,9.976e+00,1.177e+01,1.173e+01,1.260e+01,1.221e+01,1.031e+01,1.206e+01,1.142e+01,1.095e+01,1.371e+01,1.058e+01,1.098e+01,8.934e+00,1.043e+01,9.526e+00,1.239e+01,1.172e+01,1.078e+01,8.055e+00,1.097e+01,9.791e+00,1.093e+01,1.107e+01,1.115e+01,1.100e+01,1.061e+01,1.254e+01,1.193e+01,9.089e+00,1.149e+01,1.060e+01,1.108e+01,1.061e+01,1.098e+01,9.802e+00,9.767e+00,1.261e+01,1.079e+01,1.190e+01,9.203e+00,1.228e+01,1.114e+01,1.046e+01,1.159e+01,1.157e+01,1.166e+01,9.903e+00,1.095e+01,1.217e+01
7.447e-02,7.254e-01,6.406e-01,1.010e+00,8.239e-01,9.760e-01,1.702e+00,2.325e+00,2.369e+00,1.860e+00,1.778e+00,2.690e+00,2.970e+00,4.051e+00,4.811e+00,5.409e+00,5.636e+00,4.061e+00,5.084e+00,5.446e+00,6.657e+00,6.105e+00,4.798e+00,5.915e+00,6.696e+00,7.383e+00,6.878e+00,5.400e+00,7.336e+00,8.199e+00,6.558e+00,7.780e+00,7.879e+00,9.347e+00,7.126e+00,8.540e+00,1.052e+01,9.263e+00,1.130e+01,9.802e+00,1.223e+01,9.279e+00,1.071e+01,6.376e+00,1.048e+01,9.096e+00,1.115e+01,1.107e+01,1.084e+01,8.975e+00,1.153e+01,1.012e+01,1.140e+01,1.109e+01,1.046e+01,1.173e+01,1.028e+01,1.093e+01,1.204e+01,9.896e+00,1.152e+01,8.586e+00,1.052e+01,8.784e+00,1.277e+01,1.040e+01,9.672e+00,7.280e+00,1.169e+01,9.228e+00,1.046e+01,1.066e+01,9.732e+00,9.179e+00,1.012e+01,1.160e+01,1.134e+01,9.402e+00,1.061e+01,1.046e+01,1.057e+01,9.550e+00,9.974e+00,1.013e+01,9.281e+00,1.157e+01,1.012e+01,1.070e+01,9.895e+00,1.130e+01,1.049e+01,1.104e+01,1.032e+01,1.181e+01,1.203e+01,9.808e+00,9.842e+00,1.183e+01
7.696e-02,1.253e+00,1.413e+00,1.880e+00,1.783e+00,1.892e+00,2.129e+00,2.751e+00,2.834e+00,2.452e+00,2.235e+00,2.804e+00,3.488e+00,3.525e+00,5.012e+00,5.036e+00,6.244e+00,4.079e+00,5.156e+00,4.490e+00,5.710e+00,5.473e+00,4.601e+00,6.089e+00,6.330e+00,7.063e+00,6.318e+00,4.698e+00,6.219e+00,7.989e+00,5.977e+00,7.206e+00,7.560e+00,8.879e+00,6.916e+00,8.182e+00,8.353e+00,8.377e+00,9.439e+00,8.152e+00,1.191e+01,8.008e+00,1.044e+01,6.155e+00,9.727e+00,9.426e+00,9.770e+00,1.035e+01,9.056e+00,8.567e+00,1.057e+01,1.030e+01,1.030e+01,1.083e+01,9.785e+00,1.130e+01,8.978e+00,9.962e+00,1.126e+01,9.056e+00,1.104e+01,8.709e+00,9.908e+00,7.191e+00,1.216e+01,9.706e+00,8.094e+00,6.534e+00,1.126e+01,7.599e+00,1.011e+01,9.412e+00,9.217e+00,8.086e+00,9.493e+00,1.009e+01,9.252e+00,8.631e+00,8.989e+00,9.940e+00,1.059e+01,8.903e+00,9.323e+00,9.050e+00,9.461e+00,1.131e+01,9.530e+00,9.195e+00,9.175e+00,9.985e+00,8.778e+00,8.638e+00,8.832e+00,1.148e+01,1.097e+01,8.681e+00,9.553e+00,9.924e+00
6.169e-02,4.227e-01,8.172e-01,1.381e+00,1.481e+00,1.570e+00,2.216e+00,1.974e+00,2.600e+00,2.327e+00,1.989e+00,3.509e+00,3.380e+00,4.315e+00,5.221e+00,5.553e+00,6.210e+00,3.882e+00,5.979e+00,4.585e+00,7.462e+00,6.079e+00,5.977e+00,6.635e+00,6.945e+00,7.735e+00,7.232e+00,6.163e+00,7.549e+00,9.584e+00,7.594e+00,1.010e+01,9.688e+00,9.870e+00,8.427e+00,1.074e+01,1.201e+01,9.716e+00,1.166e+01,1.166e+01,1.359e+01,1.096e+01,1.239e+01,8.471e+00,1.147e+01,1.154e+01,1.172e+01,1.164e+01,1.218e+01,1.017e+01,1.312e+01,1.256e+01,1.286e+01,1.189e+01,1.112e+01,1.391e+01,1.185e+01,1.181e+01,1.408e+01,1.078e+01,1.234e+01,1.023e+01,1.073e+01,1.092e+01,1.442e+01,1.303e+01,1.110e+01,7.308e+00,1.235e+01,1.059e+01,1.169e+01,1.247e+01,9.927e+00,1.083e+01,1.133e+01,1.297e+01,1.157e+01,9.869e+00,1.220e+01,1.141e+01,1.185e+01,1.161e+01,1.135e+01,1.065e+01,1.091e+01,1.322e+01,1.191e+01,1.265e+01,1.175e+01,1.298e+01,1.169e+01,1.232e+01,1.204e+01,1.342e+01,1.201e+01,1.098e+01,1.159e+01,1.352e+01
1.169e-01,9.499e-01,7.301e-01,1.523e+00,1.307e+00,1.406e+00,2.296e+00,2.577e+00,2.842e+00,3.008e+00,2.204e+00,3.810e+00,3.159e+00,4.543e+00,5.401e+00,6.074e+00,6.238e+00,5.276e+00,5.325e+00,5.886e+00,6.913e+00,6.383e+00,6.266e+00,7.164e+00,7.476e+00,7.995e+00,6.710e+00,6.312e+00,8.268e+00,9.825e+00,7.325e+00,8.852e+00,9.526e+00,9.530e+00,8.762e+00,1.023e+01,1.102e+01,9.807e+00,1.279e+01,1.138e+01,1.553e+01,1.052e+01,1.450e+01,8.101e+00,1.260e+01,1.241e+01,1.198e+01,1.328e+01,1.309e+01,1.072e+01,1.355e+01,1.392e+01,1.181e+01,1.359e+01,1.274e+01,1.321e+01,1.231e+01,1.281e+01,1.525e+01,1.348e+01,1.329e+01,1.176e+01,1.293e+01,8.986e+00,1.558e+01,1.286e+01,1.094e+01,8.958e+00,1.245e+01,1.144e+01,1.281e+01,1.310e+01,1.081e+01,9.820e+00,1.138e+01,1.276e+01,1.319e+01,1.117e+01,1.199e+01,1.391e+01,1.317e+01,1.197e+01,1.200e+01,1.140e+01,1.246e+01,1.429e+01,1.243e+01,1.149e+01,1.334e+01,1.383e+01,1.169e+01,1.171e+01,1.197e+01,1.375e+01,1.347e+01,1.120e+01,1.272e+01,1.437e+01
1.767e-01,1.010e+00,9.278e-01,1.350e+00,1.634e+00,1.745e+00,2.181e+00,2.838e+00,3.128e+00,2.609e+00,1.801e+00,3.057e+00,3.635e+00,3.986e+00,5.922e+00,5.935e+00,6.933e+00,3.998e+00,5.463e+00,5.632e+00,7.365e+00,5.662e+00,5.969e+00,7.452e+00,8.008e+00,8.147e+00,7.092e+00,5.966e+00,7.979e+00,9.324e+00,6.777e+00,9.133e+00,8.728e+00,9.646e+00,7.881e+00,9.905e+00,1.088e+01,9.954e+00,1.169e+01,1.014e+01,1.397e+01,9.338e+00,1.251e+01,9.316e+00,1.199e+01,1.175e+01,1.090e+01,1.288e+01,1.268e+01,1.030e+01,1.204e+01,1.217e+01,1.165e+01,1.187e+01,1.152e+01,1.354e+01,1.314e+01,1.220e+01,1.481e+01,1.045e+01,1.246e+01,1.164e+01,1.186e+01,1.055e+01,1.484e+01,1.249e+01,1.189e+01,9.298e+00,1.169e+01,1.127e+01,1.093e+01,1.199e+01,1.167e+01,1.112e+01,1.280e+01,1.224e+01,1.149e+01,1.006e+01,1.233e+01,1.266e+01,1.212e+01,1.168e+01,1.182e+01,1.185e+01,1.105e+01,1.342e+01,1.149e+01,1.177e+01,1.116e+01,1.381e+01,1.080e+01,1.037e+01,1.233e+01,1.259e+01,1.291e+01,1.014e+01,1.183e+01,1.192e+01
1.595e-01,1.056e+00,1.197e+00,1.639e+00,1.343e+00,1.753e+00,1.911e+00,2.688e+00,2.748e+00,1.985e+00,1.584e+00,2.856e+00,3.131e+00,3.532e+00,4.675e+00,4.758e+00,5.045e+00,2.928e+00,4.702e+00,4.965e+00,6.573e+00,5.211e+00,5.213e+00,5.917e+00,5.555e+00,5.704e+00,6.109e+00,4.600e+00,6.824e+00,7.895e+00,6.239e+00,7.375e+00,6.061e+00,7.924e+00,5.868e+00,8.112e+00,1.057e+01,8.209e+00,1.000e+01,8.446e+00,1.252e+01,7.837e+00,1.099e+01,6.303e+00,1.071e+01,9.989e+00,9.683e+00,1.112e+01,1.155e+01,9.553e+00,1.252e+01,1.091e+01,1.074e+01,1.093e+01,1.095e+01,1.219e+01,1.103e+01,1.199e+01,1.301e+01,1.037e+01,1.178e+01,1.061e+01,9.543e+00,9.228e+00,1.227e+01,1.283e+01,9.193e+00,7.593e+00,1.019e+01,8.468e+00,1.061e+01,9.683e+00,9.797e+00,1.014e+01,1.087e+01,1.163e+01,1.104e+01,9.742e+00,1.051e+01,1.143e+01,9.870e+00,1.037e+01,1.070e+01,9.451e+00,9.288e+00,1.124e+01,9.312e+00,1.052e+01,9.253e+00,1.264e+01,9.297e+00,9.409e+00,1.230e+01,1.074e+01,1.086e+01,9.481e+00,9.346e+00,1.146e+01
1.243e-01,1.452e+00,1.606e+00,2.335e+00,2.347e+00,2.461e+00,3.064e+00,3.256e+00,3.845e+00,3.000e+00,2.283e+00,3.483e+00,3.651e+00,3.950e+00,5.264e+00,4.919e+00,6.070e+00,4.772e+00,5.274e+00,5.671e+00,7.054e+00,6.838e+00,5.913e+00,6.752e+00,7.211e+00,7.358e+00,6.822e+00,5.613e+00,7.400e+00,9.747e+00,5.759e+00,8.796e+00,8.989e+00,1.048e+01,7.165e+00,9.991e+00,1.016e+01,9.190e+00,1.157e+01,1.001e+01,1.379e+01,9.592e+00,1.225e+01,7.926e+00,1.237e+01,1.274e+01,1.196e+01,1.320e+01,1.296e+01,9.990e+00,1.287e+01,1.358e+01,1.489e+01,1.343e+01,1.217e+01,1.423e+01,1.187e+01,1.391e+01,1.416e+01,1.211e+01,1.271e+01,1.133e+01,1.233e+01,1.004e+01,1.422e+01,1.283e+01,1.078e+01,8.658e+00,1.231e+01,1.129e+01,1.250e+01,1.172e+01,1.133e+01,1.119e+01,1.127e+01,1.389e+01,1.099e+01,1.198e+01,1.161e+01,1.396e+01,1.172e+01,1.170e+01,1.155e+01,1.190e+01,1.032e+01,1.353e+01,1.259e+01,1.239e+01,1.136e+01,1.526e+01,1.109e+01,1.138e+01,1.166e+01,1.369e+01,1.323e+01,1.005e+01,1.152e+01,1.416e+01
1.518e-01,1.230e+00,8.299e-01,1.252e+00,1.403e+00,1.410e+00,1.888e+00,2.448e+00,2.675e+00,2.398e+00,2.010e+00,2.753e+00,2.706e+00,3.488e+00,4.617e+00,4.607e+00,5.213e+00,3.931e+00,3.764e+00,5.090e+00,5.984e+00,5.059e+00,5.264e+00,6.252e+00,6.179e+00,6.951e+00,6.489e+00,5.744e+00,7.794e+00,8.604e+00,7.101e+00,8.181e+00,8.758e+00,8.918e+00,7.581e+00,8.412e+00,1.071e+01,1.030e+01,1.111e+01,9.707e+00,1.270e+01,8.367e+00,1.149e+01,7.680e+00,1.035e+01,1.087e+01,1.099e+01,1.256e+01,1.122e+01,9.898e+00,1.253e+01,1.156e+01,1.335e+01,1.280e+01,1.067e+01,1.192e+01,1.305e+01,1.174e+01,1.397e+01,1.119e+01,1.216e+01,1.189e+01,1.267e+01,1.038e+01,1.347e+01,1.339e+01,1.104e+01,8.431e+00,1.070e+01,1.206e+01,1.179e+01,1.241e+01,1.143e+01,1.100e+01,1.144e+01,1.314e+01,1.212e+01,1.100e+01,1.259e+01,1.233e+01,9.908e+00,1.250e+01,1.083e+01,1.049e+01,1.065e+01,1.318e+01,1.056e+01,1.259e+01,1.127e+01,1.396e+01,1.130e+01,1.069e+01,1.175e+01,1.257e+01,1.325e+01,9.786e+00,1.230e+01,1.229e+01
8.764e-02,7.075e-01,9.326e-01,1.654e+00,1.527e+00,1.692e+00,2.456e+00,2.641e+00,3.030e+00,2.678e+00,1.272e+00,2.786e+00,3.405e+00,3.721e+00,5.023e+00,4.256e+00,5.172e+00,4.065e+00,4.467e+00,4.877e+00,6.692e+00,5.420e+00,5.367e+00,6.433e+00,5.915e+00,6.577e+00,7.018e+00,5.345e+00,6.696e+00,8.685e+00,5.841e+00,8.768e+00,7.218e+00,8.546e+00,7.024e+00,8.740e+00,1.068e+01,8.555e+00,1.078e+01,1.063e+01,1.424e+01,1.039e+01,1.254e+01,7.862e+00,1.237e+01,1.246e+01,1.083e+01,1.218e+01,1.358e+01,1.042e+01,1.371e+01,1.350e+01,1.336e+01,1.353e+01,1.319e+01,1.423e+01,1.273e+01,1.371e+01,1.572e+01,1.358e+01,1.361e+01,1.255e+01,1.296e+01,1.194e+01,1.462e+01,1.299e+01,1.117e+01,8.995e+00,1.154e+01,1.183e+01,1.378e+01,1.392e+01,1.197e+01,1.195e+01,1.241e+01,1.312e+01,1.390e+01,1.234e+01,1.216e+01,1.294e+01,1.193e+01,1.235e+01,1.292e+01,1.137e+01,1.195e+01,1.363e+01,1.265e+01,1.332e+01,1.217e+01,1.466e+01,1.243e+01,1.090e+01,1.299e+01,1.311e+01,1.316e+01,1.169e+01,1.322e+01,1.402e+01
6.484e-02,1.162e+00,9.174e-01,1.231e+00,1.598e+00,1.402e+00,2.193e+00,2.629e+00,3.004e+00,2.459e+00,2.413e+00,2.893e+00,3.714e+00,4.515e+00,5.675e+00,5.327e+00,6.169e+00,4.696e+00,4.855e+00,4.988e+00,6.892e+00,6.165e+00,6.093e+00,8.224e+00,7.593e+00,8.253e+00,7.425e+00,6.178e+00,8.561e+00,9.889e+00,7.091e+00,9.932e+00,9.360e+00,9.263e+00,8.452e+00,9.822e+00,1.104e+01,1.011e+01,1.106e+01,1.021e+01,1.300e+01,9.377e+00,1.255e+01,9.244e+00,1.133e+01,1.258e+01,1.145e+01,1.402e+01,1.349e+01,1.135e+01,1.439e+01,1.372e+01,1.477e+01,1.459e+01,1.232e+01,1.548e+01,1.335e+01,1.427e+01,1.371e+01,1.248e+01,1.443e+01,1.389e+01,1.300e+01,1.215e+01,1.546e+01,1.344e+01,1.226e+01,1.062e+01,1.259e+01,1.342e+01,1.295e+01,1.377e+01,1.351e+01,1.225e+01,1.283e+01,1.540e+01,1.317e+01,1.189e+01,1.318e+01,1.416e+01,1.295e+01,1.331e+01,1.382e+01,1.238e+01,1.277e+01,1.475e+01,1.240e+01,1.353e+01,1.271e+01,1.494e+01,1.267e+01,1.200e+01,1.380e+01,1.492e+01,1.421e+01,1.114e+01,1.419e+01,1.444e+01
2.524e-02,1.399e-01,9.828e-02,1.746e-01,4.627e-01,3.773e-01,1.044e+00,1.618e+00,1.542e+00,1.225e+00,1.107e+00,1.516e+00,2.168e+00,2.608e+00,3.302e+00,3.885e+00,4.284e+00,2.466e+00,3.618e+00,4.041e+00,5.080e+00,4.699e+00,3.693e+00,4.675e+00,4.817e+00,5.651e+00,4.877e+00,3.848e+00,4.984e+00,6.186e+00,4.474e+00,6.179e+00,5.202e+00,5.614e+00,5.488e+00,5.936e+00,7.163e+00,6.704e+00,8.240e+00,7.387e+00,1.046e+01,7.420e+00,8.425e+00,6.382e+00,8.612e+00,8.401e+00,8.593e+00,9.776e+00,9.838e+00,8.439e+00,1.124e+01,9.757e+00,1.034e+01,1.116e+01,1.047e+01,1.118e+01,9.967e+00,1.060e+01,1.239e+01,1.061e+01,1.053e+01,1.054e+01,1.072e+01,1.002e+01,1.250e+01,9.847e+00,9.925e+00,8.244e+00,1.025e+01,1.005e+01,1.036e+01,1.166e+01,9.939e+00,9.729e+00,1.093e+01,1.029e+01,1.125e+01,1.037e+01,9.302e+00,1.090e+01,1.053e+01,9.740e+00,9.434e+00,1.059e+01,9.676e+00,1.102e+01,1.162e+01,9.955e+00,1.080e+01,1.193e+01,1.040e+01,9.717e+00,9.650e+00,1.143e+01,1.080e+01,9.496e+00,1.121e+01,1.114e+01
7.789e-02,8.475e-01,1.206e+00,1.688e+00,1.536e+00,1.745e+00,1.804e+00,2.202e+00,2.444e+00,2.560e+00,1.757e+00,3.277e+00,3.199e+00,3.575e+00,4.815e+00,5.367e+00,5.603e+00,4.508e+00,4.608e+00,4.057e+00,6.378e+00,4.930e+00,5.458e+00,5.733e+00,6.885e+00,7.342e+00,6.148e+00,6.036e+00,6.776e+00,8.877e+00,6.057e+00,8.850e+00,8.792e+00,9.416e+00,7.487e+00,9.297e+00,9.952e+00,8.357e+00,1.055e+01,9.949e+00,1.030e+01,9.173e+00,1.167e+01,8.170e+00,1.034e+01,1.086e+01,1.119e+01,1.100e+01,1.108e+01,9.531e+00,1.224e+01,1.224e+01,1.184e+01,1.194e+01,1.165e+01,1.333e+01,1.221e+01,1.338e+01,1.322e+01,1.102e+01,1.251e+01,1.152e+01,1.091e+01,1.054e+01,1.413e+01,1.288e+01,1.055e+01,8.608e+00,1.290e+01,1.112e+01,1.177e+01,1.107e+01,1.092e+01,9.997e+00,1.072e+01,1.290e+01,1.314e+01,1.106e+01,1.268e+01,1.259e+01,1.151e+01,1.155e+01,1.178e+01,1.231e+01,1.133e+01,1.309e+01,1.183e+01,1.153e+01,1.047e+01,1.339e+01,1.156e+01,1.086e+01,1.297e+01,1.217e+01,1.237e+01,1.246e+01,1.213e+01,1.432e+01
2.960e-02,6.830e-01,1.114e+00,1.764e+00,1.862e+00,1.835e+00,2.274e+00,1.952e+00,2.634e+00,2.789e+00,1.896e+00,3.071e+00,3.513e+00,3.170e+00,4.499e+00,4.021e+00,4.038e+00,3.949e+00,4.215e+00,3.432e+00,5.975e+00,4.776e+00,5.367e+00,5.906e+00,5.185e+00,5.914e+00,6.503e+00,5.102e+00,6.465e+00,8.756e+00,5.583e+00,9.011e+00,8.383e+00,9.727e+00,7.624e+00,9.426e+00,1.061e+01,7.877e+00,9.165e+00,9.495e+00,1.141e+01,8.734e+00,1.215e+01,8.380e+00,1.100e+01,1.184e+01,1.142e+01,1.127e+01,1.208e+01,9.749e+00,1.452e+01,1.354e+01,1.262e+01,1.334e+01,1.117e+01,1.446e+01,1.387e+01,1.550e+01,1.461e+01,1.236e+01,1.378e+01,1.323e+01,1.201e+01,1.185e+01,1.431e+01,1.402e+01,1.155e+01,9.826e+00,1.336e+01,1.271e+01,1.330e+01,1.178e+01,1.214e+01,1.196e+01,1.241e+01,1.459e+01,1.379e+01,1.220e+01,1.349e+01,1.304e+01,1.304e+01,1.354e+01,1.332e+01,1.300e+01,1.266e+01,1.390e+01,1.231e+01,1.307e+01,1.078e+01,1.505e+01,1.231e+01,1.221e+01,1.449e+01,1.408e+01,1.205e+01,1.327e+01,1.388e+01,1.517e+01
1.126e-01,7.424e-01,5.956e-01,9.697e-01,8.578e-01,1.015e+00,1.280e+00,1.528e+00,1.756e+00,1.568e+00,1.086e+00,2.255e+00,2.227e+00,3.360e+00,4.003e+00,4.231e+00,4.179e+00,3.388e+00,4.362e+00,3.737e+00,5.418e+00,4.462e+00,5.202e+00,5.634e+00,6.000e+00,6.450e+00,5.210e+00,5.645e+00,7.012e+00,8.001e+00,5.764e+00,7.570e+00,7.245e+00,7.682e+00,7.082e+00,8.214e+00,9.740e+00,8.914e+00,9.919e+00,9.243e+00,1.076e+01,8.560e+00,1.057e+01,7.631e+00,9.426e+00,1.031e+01,9.588e+00,1.107e+01,1.150e+01,9.476e+00,1.226e+01,1.170e+01,1.292e+01,1.284e+01,1.243e+01,1.386e+01,1.273e+01,1.334e+01,1.365e+01,1.156e+01,1.261e+01,1.230e+01,1.180e+01,1.166e+01,1.423e+01,1.274e+01,1.216e+01,9.633e+00,1.113e+01,1.203e+01,1.154e+01,1.236e+01,1.177e+01,1.117e+01,1.229e+01,1.441e+01,1.335e+01,1.150e+01,1.331e+01,1.273e+01,1.158e+01,1.244e+01,1.269e+01,1.225e+01,1.107e+01,1.340e+01,1.251e+01,1.160e+01,1.133e+01,1.385e+01,1.209e+01,1.121e+01,1.336e+01,1.318e+01,1.366e+01,1.131e+01,1.269e+01,1.418e+01
1.189e-01,7.461e-01,8.098e-01,1.504e+00,1.358e+00,1.545e+00,2.253e+00,2.553e+00,2.787e+00,2.661e+00,2.054e+00,3.608e+00,3.552e+00,4.733e+00,5.867e+00,5.474e+00,6.697e+00,4.285e+00,5.617e+00,6.368e+00,7.791e+00,6.398e+00,6.414e+00,7.054e+00,6.886e+00,8.088e+00,7.445e+00,6.085e+00,8.301e+00,9.582e+00,7.699e+00,8.595e+00,9.118e+00,9.432e+00,7.990e+00,1.026e+01,1.167e+01,1.152e+01,1.252e+01,1.094e+01,1.379e+01,9.837e+00,1.229e+01,8.599e+00,1.233e+01,1.245e+01,1.223e+01,1.311e+01,1.244e+01,1.146e+01,1.375e+01,1.343e+01,1.375e+01,1.453e+01,1.291e+01,1.462e+01,1.489e+01,1.516e+01,1.718e+01,1.428e+01,1.540e+01,1.372e+01,1.384e+01,1.323e+01,1.597e+01,1.453e+01,1.370e+01,1.030e+01,1.428e+01,1.321e+01,1.333e+01,1.499e+01,1.316e+01,1.296e+01,1.402e+01,1.456e+01,1.534e+01,1.390e+01,1.479e+01,1.415e+01,1.303e+01,1.427e+01,1.389e+01,1.355e+01,1.212e+01,1.523e+01,1.428e+01,1.376e+01,1.330e+01,1.592e+01,1.424e+01,1.278e+01,1.368e+01,1.405e+01,1.555e+01,1.240e+01,1.459e+01,1.493e+01
1.430e-01,8.752e-01,6.989e-01,1.366e+00,1.364e+00,1.470e+00,2.321e+00,2.559e+00,2.911e+00,2.662e+00,2.143e+00,3.133e+00,3.239e+00,4.331e+00,5.058e+00,5.644e+00,6.078e+00,3.915e+00,5.195e+00,5.027e+00,7.186e+00,5.758e+00,5.831e+00,6.714e+00,6.464e+00,7.911e+00,6.925e+00,6.388e+00,8.057e+00,9.321e+00,7.287e+00,9.021e+00,9.227e+00,9.556e+00,8.394e+00,9.912e+00,1.192e+01,1.046e+01,1.204e+01,1.058e+01,1.328e+01,9.855e+00,1.178e+01,8.659e+00,1.158e+01,1.227e+01,1.166e+01,1.180e+01,1.283e+01,1.115e+01,1.394e+01,1.259e+01,1.429e+01,1.392e+01,1.268e+01,1.617e+01,1.512e+01,1.471e+01,1.650e+01,1.415e+01,1.614e+01,1.423e+01,1.297e+01,1.315e+01,1.678e+01,1.572e+01,1.382e+01,1.193e+01,1.348e+01,1.405e+01,1.351e+01,1.452e+01,1.242e+01,1.478e+01,1.480e+01,1.648e+01,1.494e+01,1.334e+01,1.636e+01,1.563e+01,1.265e+01,1.467e+01,1.511e+01,1.359e+01,1.294e+01,1.596e+01,1.453e+01,1.446e+01,1.260e+01,1.580e+01,1.358e+01,1.370e+01,1.468e+01,1.445e+01,1.532e+01,1.341e+01,1.367e+01,1.563e+01
2.723e-02,9.846e-01,1.311e+00,1.814e+00,2.104e+00,1.976e+00,2.495e+00,2.466e+00,3.072e+00,2.967e+00,2.800e+00,3.385e+00,4.236e+00,4.270e+00,5.418e+00,5.521e+00,6.145e+00,5.150e+00,6.058e+00,4.861e+00,7.751e+00,7.134e+00,6.919e+00,8.480e+00,8.181e+00,8.597e+00,7.945e+00,6.330e+00,9.087e+00,1.154e+01,7.236e+00,1.227e+01,1.099e+01,1.194e+01,9.966e+00,1.179e+01,1.387e+01,1.091e+01,1.301e+01,1.212e+01,1.499e+01,1.182e+01,1.469e+01,8.188e+00,1.227e+01,1.326e+01,1.298e+01,1.419e+01,1.575e+01,1.290e+01,1.577e+01,1.559e+01,1.616e+01,1.614e+01,1.498e+01,1.817e+01,1.532e+01,1.726e+01,1.717e+01,1.540e+01,1.607e+01,1.508e+01,1.476e+01,1.416e+01,1.782e+01,1.713e+01,1.448e+01,1.128e+01,1.496e+01,1.362e+01,1.643e+01,1.641e+01,1.598e+01,1.411e+01,1.570e+01,1.761e+01,1.588e+01,1.337e+01,1.540e+01,1.608e+01,1.554e+01,1.579e+01,1.622e+01,1.443e+01,1.504e+01,1.768e+01,1.510e+01,1.623e+01,1.420e+01,1.723e+01,1.512e+01,1.574e+01,1.551e+01,1.685e+01,1.599e+01,1.447e+01,1.675e+01,1.735e+01
3.408e-02,6.025e-01,9.506e-01,1.237e+00,1.258e+00,1.341e+00,1.424e+00,1.526e+00,1.850e+00,1.806e+00,1.748e+00,2.493e+00,2.642e+00,3.040e+00,3.585e+00,3.310e+00,4.000e+00,3.354e+00,4.043e+00,3.623e+00,5.626e+00,4.872e+00,4.716e+00,6.078e+00,5.713e+00,5.545e+00,6.811e+00,4.519e+00,6.982e+00,8.260e+00,6.259e+00,8.957e+00,6.809e+00,8.016e+00,7.335e+00,8.084e+00,1.016e+01,8.874e+00,9.487e+00,9.340e+00,1.172e+01,9.130e+00,1.145e+01,6.859e+00,1.178e+01,1.078e+01,1.079e+01,1.256e+01,1.336e+01,1.052e+01,1.457e+01,1.323e+01,1.355e+01,1.392e+01,1.203e+01,1.491e+01,1.573e+01,1.590e+01,1.705e+01,1.355e+01,1.472e+01,1.455e+01,1.385e+01,1.329e+01,1.550e+01,1.584e+01,1.327e+01,1.120e+01,1.377e+01,1.282e+01,1.308e+01,1.362e+01,1.387e+01,1.185e+01,1.511e+01,1.544e+01,1.511e+01,1.301e+01,1.516e+01,1.428e+01,1.246e+01,1.403e+01,1.437e+01,1.264e+01,1.356e+01,1.498e+01,1.263e+01,1.338e+01,1.148e+01,1.744e+01,1.581e+01,1.320e+01,1.496e+01,1.503e+01,1.435e+01,1.172e+01,1.554e+01,1.593e+01
4.442e-02,4.240e-01,8.423e-01,1.310e+00,1.330e+00,1.423e+00,1.567e+00,1.482e+00,1.842e+00,2.081e+00,1.420e+00,2.710e+00,2.409e+00,3.026e+00,3.746e+00,3.763e+00,5.014e+00,4.127e+00,4.121e+00,3.985e+00,5.205e+00,4.634e+00,3.802e+00,4.779e+00,5.387e+00,5.961e+00,5.372e+00,3.960e+00,5.644e+00,7.159e+00,5.260e+00,7.239e+00,7.518e+00,7.942e+00,6.771e+00,8.409e+00,9.408e+00,8.143e+00,9.964e+00,8.549e+00,1.146e+01,8.659e+00,1.116e+01,8.080e+00,1.131e+01,1.115e+01,1.094e+01,1.286e+01,1.173e+01,1.064e+01,1.378e+01,1.349e+01,1.378e+01,1.417e+01,1.236e+01,1.489e+01,1.385e+01,1.505e+01,1.706e+01,1.364e+01,1.442e+01,1.439e+01,1.314e+01,1.220e+01,1.540e+01,1.477e+01,1.419e+01,1.134e+01,1.339e+01,1.313e+01,1.364e+01,1.434e+01,1.325e+01,1.327e+01,1.527e+01,1.552e+01,1.401e+01,1.252e+01,1.415e+01,1.379e+01,1.315e+01,1.425e+01,1.352e+01,1.365e+01,1.275e+01,1.446e+01,1.551e+01,1.446e+01,1.411e+01,1.698e+01,1.339e+01,1.289e+01,1.450e+01,1.525e+01,1.397e+01,1.224e+01,1.549e+01,1.528e+01
1.621e-01,1.258e+00,1.072e+00,1.569e+00,1.824e+00,1.841e+00,2.106e+00,2.129e+00,2.702e+00,2.251e+00,1.852e+00,2.232e+00,2.311e+00,2.496e+00,3.210e+00,3.377e+00,4.360e+00,2.678e+00,3.482e+00,3.243e+00,4.792e+00,3.893e+00,4.332e+00,5.539e+00,5.856e+00,4.995e+00,4.308e+00,4.754e+00,6.483e+00,6.966e+00,5.058e+00,6.693e+00,6.800e+00,7.009e+00,5.403e+00,6.806e+00,8.227e+00,7.684e+00,8.448e+00,7.419e+00,1.109e+01,7.690e+00,9.283e+00,5.114e+00,9.728e+00,9.024e+00,8.041e+00,1.027e+01,1.172e+01,8.518e+00,1.011e+01,1.037e+01,1.195e+01,1.224e+01,1.205e+01,1.228e+01,1.329e+01,1.347e+01,1.494e+01,1.266e+01,1.309e+01,1.262e+01,1.225e+01,1.298e+01,1.406e+01,1.376e+01,1.265e+01,1.008e+01,1.227e+01,1.197e+01,1.314e+01,1.273e+01,1.183e+01,1.199e+01,1.326e+01,1.379e+01,1.385e+01,1.175e+01,1.315e+01,1.329e+01,1.168e+01,1.333e+01,1.267e+01,1.333e+01,1.137e+01,1.379e+01,1.356e+01,1.162e+01,1.113e+01,1.434e+01,1.315e+01,1.228e+01,1.223e+01,1.310e+01,1.338e+01,1.174e+01,1.264e+01,1.260e+01
5.750e-02,5.914e-01,7.482e-01,1.443e+00,1.549e+00,1.513e+00,2.456e+00,2.100e+00,2.771e+00,2.456e+00,2.051e+00,3.126e+00,3.410e+00,3.646e+00,4.769e+00,4.784e+00,5.123e+00,3.916e+00,5.182e+00,4.988e+00,7.080e+00,6.089e+00,6.147e+00,6.490e+00,6.335e+00,7.084e+00,5.927e+00,5.388e+00,7.254e+00,8.278e+00,5.853e+00,8.160e+00,7.770e+00,8.707e+00,7.058e+00,9.752e+00,1.043e+01,8.654e+00,1.179e+01,1.033e+01,1.351e+01,9.352e+00,1.201e+01,7.488e+00,1.118e+01,1.141e+01,1.119e+01,1.214e+01,1.318e+01,1.042e+01,1.380e+01,1.309e+01,1.344e+01,1.377e+01,1.361e+01,1.610e+01,1.342e+01,1.531e+01,1.792e+01,1.516e+01,1.601e+01,1.433e+01,1.436e+01,1.368e+01,1.869e+01,1.611e+01,1.484e+01,1.220e+01,1.463e+01,1.255e+01,1.538e+01,1.542e+01,1.358e+01,1.403e+01,1.578e+01,1.711e+01,1.646e+01,1.404e+01,1.561e+01,1.581e+01,1.549e+01,1.606e+01,1.511e+01,1.462e+01,1.398e+01,1.577e+01,1.710e+01,1.428e+01,1.540e+01,1.749e+01,1.383e+01,1.406e+01,1.491e+01,1.561e+01,1.615e+01,1.386e+01,1.499e+01,1.603e+01
1.544e-02,8.998e-01,8.346e-01,1.584e+00,1.454e+00,1.339e+00,2.377e+00,2.307e+00,2.697e+00,2.845e+00,2.619e+00,3.225e+00,3.680e+00,4.133e+00,4.991e+00,4.957e+00,5.469e+00,4.939e+00,5.367e+00,4.824e+00,6.162e+00,6.168e+00,5.396e+00,6.421e+00,6.572e+00,7.018e+00,5.959e+00,5.292e+00,7.573e+00,8.325e+00,6.216e+00,8.076e+00,8.673e+00,9.031e+00,7.884e+00,8.794e+00,1.165e+01,8.464e+00,1.210e+01,1.028e+01,1.356e+01,1.058e+01,1.298e+01,7.979e+00,1.198e+01,1.212e+01,1.301e+01,1.364e+01,1.292e+01,1.078e+01,1.525e+01,1.396e+01,1.363e+01,1.548e+01,1.380e+01,1.734e+01,1.651e+01,1.681e+01,2.004e+01,1.720e+01,1.820e+01,1.717e+01,1.670e+01,1.515e+01,2.050e+01,1.842e+01,1.779e+01,1.389e+01,1.694e+01,1.481e+01,1.679e+01,1.741e+01,1.568e+01,1.467e+01,1.810e+01,1.754e+01,1.887e+01,1.520e+01,1.715e+01,1.807e+01,1.684e+01,1.768e+01,1.761e+01,1.606e+01,1.664e+01,1.712e+01,1.812e+01,1.624e+01,1.654e+01,1.820e+01,1.740e+01,1.575e+01,1.679e+01,1.743e+01,1.716e+01,1.585e+01,1.932e+01,1.939e+01
4.707e-02,8.899e-01,1.223e+00,1.550e+00,1.546e+00,1.639e+00,1.759e+00,1.948e+00,2.335e+00,1.993e+00,2.061e+00,2.663e+00,2.664e+00,2.319e+00,3.558e+00,3.694e+00,4.211e+00,3.754e+00,4.377e+00,3.805e+00,5.233e+00,4.840e+00,5.872e+00,6.009e+00,6.305e+00,7.008e+00,6.139e+00,4.945e+00,7.197e+00,8.465e+00,6.098e+00,8.226e+00,8.218e+00,9.246e+00,7.027e+00,9.076e+00,1.047e+01,8.273e+00,1.033e+01,9.039e+00,1.283e+01,8.643e+00,1.206e+01,7.168e+00,1.030e+01,1.058e+01,1.085e+01,1.209e+01,1.304e+01,1.035e+01,1.216e+01,1.225e+01,1.274e+01,1.321e+01,1.326e+01,1.522e+01,1.480e+01,1.534e+01,1.683e+01,1.449e+01,1.417e+01,1.381e+01,1.471e+01,1.244e+01,1.522e+01,1.599e+01,1.464e+01,1.168e+01,1.521e+01,1.348e+01,1.385e+01,1.428e+01,1.433e+01,1.436e+01,1.566e+01,1.548e+01,1.522e+01,1.292e+01,1.498e+01,1.647e+01,1.479e+01,1.416e+01,1.615e+01,1.462e+01,1.368e+01,1.558e+01,1.528e+01,1.330e+01,1.320e+01,1.737e+01,1.515e+01,1.415e+01,1.386e+01,1.669e+01,1.532e+01,1.441e+01,1.652e+01,1.652e+01
3.198e-02,8.512e-01,8.669e-01,1.255e+00,1.259e+00,1.229e+00,1.756e+00,1.707e+00,2.107e+00,1.610e+00,1.699e+00,1.869e+00,2.661e+00,3.065e+00,3.379e+00,3.652e+00,4.748e+00,3.668e+00,4.592e+00,3.933e+00,5.655e+00,5.268e+00,4.578e+00,6.172e+00,6.249e+00,6.802e+00,5.797e+00,5.344e+00,6.727e+00,7.889e+00,5.490e+00,8.658e+00,8.827e+00,8.585e+00,6.670e+00,9.457e+00,1.028e+01,9.237e+00,9.863e+00,9.423e+00,1.317e+01,9.243e+00,1.190e+01,8.017e+00,1.162e+01,1.168e+01,1.154e+01,1.244e+01,1.254e+01,1.103e+01,1.262e+01,1.351e+01,1.469e+01,1.462e+01,1.319e+01,1.500e+01,1.488e+01,1.498e+01,1.731e+01,1.349e+01,1.530e+01,1.544e+01,1.456e+01,1.520e+01,1.635e+01,1.590e+01,1.534e+01,1.271e+01,1.546e+01,1.359e+01,1.516e+01,1.454e+01,1.461e+01,1.361e+01,1.494e+01,1.690e+01,1.524e+01,1.448e+01,1.537e+01,1.552e+01,1.509e+01,1.555e+01,1.549e+01,1.516e+01,1.436e+01,1.585e+01,1.672e+01,1.520e+01,1.421e+01,1.798e+01,1.679e+01,1.435e+01,1.554e+01,1.669e+01,1.580e+01,1.437e+01,1.587e+01,1.609e+01
1.769e-01,1.337e+00,8.798e-01,1.226e+00,1.581e+00,1.548e+00,2.190e+00,3.075e+00,3.190e+00,2.577e+00,2.593e+00,2.850e+00,3.745e+00,4.277e+00,5.712e+00,6.014e+00,6.618e+00,4.090e+00,5.663e+00,5.713e+00,7.133e+00,6.364e+00,6.226e+00,7.806e+00,7.376e+00,8.938e+00,7.143e+00,6.236e+00,8.774e+00,9.400e+00,7.445e+00,9.036e+00,8.742e+00,8.789e+00,7.949e+00,8.602e+00,1.114e+01,1.087e+01,1.263e+01,1.113e+01,1.570e+01,1.086e+01,1.359e+01,8.612e+00,1.265e+01,1.301e+01,1.252e+01,1.427e+01,1.493e+01,1.324e+01,1.486e+01,1.405e+01,1.408e+01,1.505e+01,1.384e+01,1.637e+01,1.582e+01,1.541e+01,1.963e+01,1.450e+01,1.675e+01,1.553e+01,1.468e+01,1.401e+01,1.832e+01,1.680e+01,1.611e+01,1.384e+01,1.598e+01,1.564e+01,1.652e+01,1.708e+01,1.448e+01,1.508e+01,1.639e+01,1.636e+01,1.704e+01,1.406e+01,1.682e+01,1.752e+01,1.574e+01,1.640e+01,1.573e+01,1.499e+01,1.577e+01,1.858e+01,1.693e+01,1.560e+01,1.584e+01,1.916e+01,1.556e+01,1.369e+01,1.602e+01,1.642e+01,1.687e+01,1.483e+01,1.779e+01,1.610e+01
7.560e-02,1.188e+00,1.347e+00,2.105e+00,1.785e+00,1.962e+00,2.674e+00,2.630e+00,3.207e+00,2.599e+00,2.115e+00,3.191e+00,3.782e+00,4.342e+00,5.023e+00,4.171e+00,4.842e+00,4.173e+00,4.792e+00,3.186e+00,4.866e+00,4.267e+00,3.884e+00,5.976e+00,4.800e+00,5.856e+00,5.868e+00,4.725e+00,5.748e+00,7.592e+00,5.806e+00,8.053e+00,8.079e+00,8.282e+00,7.428e+00,8.419e+00,1.027e+01,7.854e+00,9.031e+00,8.335e+00,1.076e+01,9.107e+00,1.077e+01,6.996e+00,1.030e+01,1.117e+01,1.111e+01,1.266e+01,1.228e+01,1.110e+01,1.384e+01,1.297e+01,1.295e+01,1.359e+01,1.119e+01,1.512e+01,1.296e+01,1.493e+01,1.546e+01,1.485e+01,1.481e+01,1.419e+01,1.315e+01,1.217e+01,1.652e+01,1.678e+01,1.551e+01,1.219e+01,1.558e+01,1.476e+01,1.544e+01,1.490e+01,1.634e+01,1.557e+01,1.668e+01,1.726e+01,1.725e+01,1.349e+01,1.563e+01,1.564e+01,1.493e+01,1.520e+01,1.581e+01,1.421e+01,1.518e+01,1.550e+01,1.623e+01,1.586e+01,1.583e+01,1.656e+01,1.585e+01,1.585e+01,1.453e+01,1.648e+01,1.418e+01,1.465e+01,1.735e+01,1.591e+01
1.111e-01,1.299e+00,1.218e+00,1.702e+00,1.512e+00,1.685e+00,2.241e+00,2.768e+00,3.006e+00,2.198e+00,2.346e+00,3.127e+00,3.240e+00,4.119e+00,5.239e+00,5.384e+00,6.341e+00,4.224e+00,5.369e+00,5.594e+00,6.720e+00,6.378e+00,5.572e+00,6.866e+00,7.679e+00,8.428e+00,7.833e+00,7.001e+00,8.189e+00,9.734e+00,8.011e+00,9.652e+00,1.033e+01,1.071e+01,9.339e+00,1.043e+01,1.281e+01,1.082e+01,1.212e+01,1.138e+01,1.465e+01,1.105e+01,1.301e+01,8.814e+00,1.379e+01,1.270e+01,1.376e+01,1.547e+01,1.477e+01,1.309e+01,1.668e+01,1.562e+01,1.649e+01,1.726e+01,1.588e+01,1.746e+01,1.792e+01,1.959e+01,2.018e+01,1.749e+01,1.842e+01,1.790e+01,1.795e+01,1.732e+01,2.151e+01,2.153e+01,1.892e+01,1.531e+01,2.044e+01,1.824e+01,1.957e+01,1.996e+01,1.906e+01,1.741e+01,2.095e+01,1.950e+01,2.084e+01,1.828e+01,2.007e+01,2.040e+01,1.791e+01,1.841e+01,1.847e+01,1.964e+01,1.748e+01,1.929e+01,1.865e+01,1.864e+01,1.781e+01,2.157e+01,2.025e+01,1.934e+01,1.882e+01,1.968e+01,1.964e+01,1.695e+01,2.027e+01,1.974e+01
1.983e-02,1.159e-01,5.445e-01,8.949e-01,1.138e+00,1.136e+00,1.775e+00,2.048e+00,2.273e+00,2.275e+00,1.764e+00,2.886e+00,2.957e+00,3.223e+00,4.308e+00,4.046e+00,4.753e+00,3.362e+00,4.129e+00,4.274e+00,5.561e+00,5.107e+00,4.776e+00,5.766e+00,5.830e+00,6.934e+00,6.754e+00,4.792e+00,6.590e+00,8.333e+00,6.676e+00,8.034e+00,7.448e+00,8.799e+00,7.766e+00,8.464e+00,1.040e+01,8.875e+00,1.009e+01,8.931e+00,1.126e+01,9.236e+00,1.080e+01,8.036e+00,9.780e+00,1.100e+01,1.061e+01,1.185e+01,1.208e+01,1.038e+01,1.389e+01,1.277e+01,1.280e+01,1.369e+01,1.111e+01,1.473e+01,1.292e+01,1.406e+01,1.562e+01,1.476e+01,1.338e+01,1.315e+01,1.374e+01,1.287e+01,1.587e+01,1.543e+01,1.593e+01,1.187e+01,1.382e+01,1.436e+01,1.561e+01,1.675e+01,1.546e+01,1.519e+01,1.661e+01,1.665e+01,1.724e+01,1.364e+01,1.511e+01,1.538e+01,1.374e+01,1.639e+01,1.585e+01,1.319e+01,1.380e+01,1.571e+01,1.573e+01,1.541e+01,1.595e+01,1.662e+01,1.563e+01,1.513e+01,1.331e+01,1.555e+01,1.655e+01,1.407e+01,1.684e+01,1.677e+01
1.591e-01,1.118e+00,7.740e-01,1.531e+00,1.607e+00,1.621e+00,2.487e+00,2.523e+00,3.007e+00,2.830e+00,2.331e+00,3.060e+00,2.907e+00,3.990e+00,4.792e+00,4.541e+00,5.062e+00,3.434e+00,4.316e+00,4.519e+00,5.752e+00,5.494e+00,5.227e+00,6.308e+00,6.839e+00,7.758e+00,6.874e+00,6.156e+00,7.352e+00,8.376e+00,7.078e+00,8.403e+00,8.605e+00,8.488e+00,7.080e+00,7.969e+00,9.806e+00,9.218e+00,1.097e+01,9.395e+00,1.242e+01,1.005e+01,1.098e+01,6.888e+00,1.062e+01,1.180e+01,1.079e+01,1.128e+01,1.288e+01,1.070e+01,1.195e+01,1.246e+01,1.304e+01,1.248e+01,1.110e+01,1.471e+01,1.374e+01,1.378e+01,1.675e+01,1.496e+01,1.475e+01,1.399e+01,1.320e+01,1.333e+01,1.754e+01,1.626e+01,1.627e+01,1.190e+01,1.552e+01,1.502e+01,1.612e+01,1.707e+01,1.567e+01,1.583e+01,1.727e+01,1.696e+01,1.715e+01,1.521e+01,1.778e+01,1.781e+01,1.503e+01,1.705e+01,1.707e+01,1.489e+01,1.461e+01,1.763e+01,1.557e+01,1.552e+01,1.543e+01,1.705e+01,1.854e+01,1.633e+01,1.399e+01,1.726e+01,1.721e+01,1.533e+01,1.804e+01,1.660e+01
1.545e-01,1.480e+00,1.418e+00,2.413e+00,1.934e+00,2.200e+00,2.542e+00,2.371e+00,2.984e+00,3.106e+00,1.981e+00,3.757e+00,3.160e+00,4.472e+00,5.602e+00,5.574e+00,6.461e+00,5.436e+00,5.857e+00,5.114e+00,7.146e+00,5.776e+00,6.983e+00,7.053e+00,7.884e+00,8.093e+00,6.729e+00,6.356e+00,8.367e+00,9.736e+00,7.199e+00,8.462e+00,9.215e+00,9.628e+00,7.441e+00,9.672e+00,1.143e+01,9.533e+00,1.212e+01,1.075e+01,1.405e+01,1.015e+01,1.325e+01,8.183e+00,1.230e+01,1.205e+01,1.142e+01,1.358e+01,1.311e+01,1.139e+01,1.405e+01,1.378e+01,1.487e+01,1.482e+01,1.412e+01,1.556e+01,1.605e+01,1.635e+01,1.935e+01,1.532e+01,1.713e+01,1.478e+01,1.405e+01,1.447e+01,1.785e+01,1.739e+01,1.740e+01,1.298e+01,1.701e+01,1.631e+01,1.862e+01,1.824e+01,1.608e+01,1.695e+01,1.843e+01,1.868e+01,2.043e+01,1.869e+01,1.884e+01,1.922e+01,1.859e+01,1.877e+01,1.867e+01,1.731e+01,1.576e+01,2.023e+01,1.872e+01,1.599e+01,1.702e+01,1.905e+01,1.952e+01,1.735e+01,1.825e+01,1.957e+01,1.881e+01,1.811e+01,1.934e+01,1.847e+01
5.211e-02,8.619e-01,6.470e-01,9.073e-01,1.303e+00,1.101e+00,2.106e+00,2.306e+00,2.782e+00,1.992e+00,2.641e+00,2.488e+00,3.370e+00,3.412e+00,4.165e+00,4.105e+00,4.758e+00,3.340e+00,4.080e+00,4.529e+00,6.188e+00,5.266e+00,4.920e+00,6.050e+00,6.020e+00,5.965e+00,4.981e+00,5.118e+00,7.386e+00,6.613e+00,5.368e+00,7.053e+00,6.903e+00,7.450e+00,6.724e+00,7.576e+00,9.624e+00,8.262e+00,9.876e+00,9.004e+00,1.129e+01,9.004e+00,1.111e+01,6.932e+00,1.093e+01,1.024e+01,1.037e+01,1.169e+01,1.167e+01,9.644e+00,1.217e+01,1.297e+01,1.172e+01,1.359e+01,1.153e+01,1.475e+01,1.549e+01,1.508e+01,1.787e+01,1.594e+01,1.591e+01,1.585e+01,1.619e+01,1.572e+01,1.921e+01,1.751e+01,1.694e+01,1.311e+01,1.758e+01,1.800e+01,1.849e+01,1.864e+01,1.771e+01,1.696e+01,1.967e+01,1.800e+01,2.198e+01,1.831e+01,2.111e+01,1.982e+01,1.701e+01,1.902e+01,1.947e+01,1.768e+01,1.668e+01,1.979e+01,1.879e+01,1.601e+01,1.870e+01,2.085e+01,1.926e+01,1.629e+01,1.743e+01,1.952e+01,1.847e+01,1.760e+01,2.059e+01,1.981e+01
1.599e-01,1.184e+00,1.147e+00,1.699e+00,1.577e+00,1.808e+00,2.092e+00,2.474e+00,2.791e+00,2.303e+00,2.008e+00,3.228e+00,3.043e+00,3.689e+00,5.323e+00,4.682e+00,5.326e+00,4.013e+00,4.800e+00,6.012e+00,6.304e+00,6.089e+00,5.428e+00,5.769e+00,6.566e+00,7.623e+00,7.504e+00,5.938e+00,7.914e+00,9.404e+00,7.698e+00,9.012e+00,1.003e+01,1.114e+01,8.496e+00,9.646e+00,1.253e+01,1.011e+01,1.155e+01,1.090e+01,1.355e+01,9.859e+00,1.301e+01,8.228e+00,1.283e+01,1.342e+01,1.305e+01,1.436e+01,1.439e+01,1.232e+01,1.603e+01,1.529e+01,1.576e+01,1.564e+01,1.473e+01,1.613e+01,1.642e+01,1.892e+01,1.965e+01,1.639e+01,1.730e+01,1.723e+01,1.749e+01,1.652e+01,2.055e+01,2.016e+01,1.883e+01,1.437e+01,1.903e+01,1.836e+01,1.879e+01,1.963e+01,2.058e+01,1.967e+01,2.229e+01,1.985e+01,2.187e+01,1.679e+01,2.096e+01,2.063e+01,1.955e+01,1.886e+01,2.020e+01,1.872e+01,1.732e+01,2.106e+01,1.960e+01,1.942e+01,2.012e+01,2.284e+01,1.959e+01,1.818e+01,1.802e+01,2.111e+01,1.965e+01,1.848e+01,2.091e+01,1.845e+01
7.092e-05,6.438e-01,7.603e-01,1.348e+00,1.061e+00,1.114e+00,2.056e+00,1.843e+00,2.284e+00,1.546e+00,1.281e+00,1.872e+00,2.987e+00,3.214e+00,3.803e+00,3.354e+00,4.334e+00,3.331e+00,4.445e+00,4.328e+00,5.766e+00,4.954e+00,4.642e+00,5.649e+00,5.304e+00,6.209e+00,5.576e+00,5.260e+00,6.293e+00,7.949e+00,5.124e+00,8.254e+00,7.736e+00,7.900e+00,6.457e+00,8.552e+00,1.010e+01,8.650e+00,1.017e+01,9.961e+00,1.281e+01,9.279e+00,1.101e+01,7.028e+00,1.099e+01,1.115e+01,9.870e+00,1.151e+01,1.162e+01,9.436e+00,1.253e+01,1.238e+01,1.294e+01,1.391e+01,1.206e+01,1.520e+01,1.510e+01,1.499e+01,1.740e+01,1.481e+01,1.494e+01,1.460e+01,1.489e+01,1.459e+01,1.714e+01,1.729e+01,1.682e+01,1.242e+01,1.571e+01,1.493e+01,1.883e+01,1.932e+01,1.947e+01,1.661e+01,2.035e+01,1.865e+01,2.055e+01,1.836e+01,1.813e+01,1.737e+01,1.737e+01,1.833e+01,1.909e+01,1.697e+01,1.669e+01,1.839e+01,1.888e+01,1.759e+01,1.782e+01,2.017e+01,1.877e+01,1.614e+01,1.731e+01,1.823e+01,1.848e+01,1.700e+01,1.917e+01,1.912e+01
8.302e-02,5.221e-01,5.582e-01,1.182e+00,1.246e+00,1.271e+00,2.072e+00,2.001e+00,2.424e+00,2.279e+00,1.569e+00,2.468e+00,2.417e+00,2.782e+00,3.313e+00,3.529e+00,3.509e+00,3.147e+00,3.897e+00,3.997e+00,5.274e+00,5.089e+00,5.154e+00,6.073e+00,5.719e+00,6.740e+00,6.022e+00,5.691e+00,7.115e+00,8.626e+00,6.506e+00,8.787e+00,8.217e+00,9.319e+00,8.235e+00,9.733e+00,1.137e+01,9.482e+00,1.112e+01,9.902e+00,1.340e+01,9.781e+00,1.190e+01,8.148e+00,1.130e+01,1.133e+01,1.101e+01,1.244e+01,1.406e+01,1.112e+01,1.389e+01,1.362e+01,1.352e+01,1.548e+01,1.220e+01,1.495e+01,1.480e+01,1.633e+01,1.798e+01,1.649e+01,1.510e+01,1.575e+01,1.601e+01,1.490e+01,1.687e+01,1.785e+01,1.844e+01,1.450e+01,1.505e+01,1.689e+01,1.911e+01,1.858e+01,1.796e+01,1.827e+01,1.987e+01,1.895e+01,2.096e+01,1.739e+01,1.959e+01,1.844e+01,1.783e+01,1.912e+01,1.909e+01,1.823e+01,1.660e+01,1.847e+01,1.858e+01,1.709e+01,1.773e+01,2.154e+01,1.807e+01,1.818e+01,1.719e+01,1.878e+01,1.844e+01,1.860e+01,1.985e+01,1.856e+01
9.120e-03,4.842e-01,7.363e-01,1.224e+00,1.438e+00,1.337e+00,2.453e+00,2.399e+00,2.903e+00,2.183e+00,2.338e+00,2.803e+00,3.581e+00,3.402e+00,4.746e+00,3.946e+00,5.671e+00,3.394e+00,5.137e+00,5.407e+00,6.531e+00,5.915e+00,5.021e+00,6.048e+00,5.584e+00,6.344e+00,6.836e+00,4.881e+00,7.449e+00,8.323e+00,7.059e+00,7.791e+00,7.829e+00,9.523e+00,7.976e+00,8.497e+00,1.055e+01,9.363e+00,1.049e+01,9.603e+00,1.374e+01,8.944e+00,1.202e+01,8.704e+00,1.318e+01,1.190e+01,1.248e+01,1.254e+01,1.242e+01,1.028e+01,1.584e+01,1.506e+01,1.366e+01,1.458e+01,1.226e+01,1.642e+01,1.590e+01,1.673e+01,1.793e+01,1.541e+01,1.662e+01,1.466e+01,1.605e+01,1.378e+01,1.763e+01,1.769e+01,1.579e+01,1.337e+01,1.810e+01,1.733e+01,1.784e+01,1.963e+01,1.838e+01,1.823e+01,2.023e+01,2.024e+01,2.162e+01,2.044e+01,2.057e+01,1.930e+01,1.939e+01,1.975e+01,2.069e+01,1.748e+01,1.711e+01,2.003e+01,1.956e+01,1.953e+01,1.883e+01,2.212e+01,1.924e+01,1.886e+01,1.922e+01,2.284e+01,1.907e+01,1.943e+01,2.095e+01,2.039e+01
2.380e-02,3.716e-01,7.996e-01,1.358e+00,1.739e+00,1.612e+00,2.368e+00,2.467e+00,2.892e+00,3.196e+00,2.289e+00,3.298e+00,3.628e+00,3.440e+00,4.854e+00,4.723e+00,5.613e+00,4.284e+00,4.345e+00,4.685e+00,6.384e+00,5.756e+00,4.791e+00,5.659e+00,6.354e+00,6.777e+00,6.658e+00,4.266e+00,6.442e+00,8.007e+00,5.506e+00,7.513e+00,7.482e+00,9.186e+00,5.934e+00,7.787e+00,9.696e+00,8.903e+00,1.073e+01,9.591e+00,1.223e+01,8.627e+00,1.153e+01,7.378e+00,1.099e+01,1.087e+01,1.114e+01,1.229e+01,1.211e+01,1.018e+01,1.422e+01,1.323e+01,1.380e+01,1.407e+01,1.293e+01,1.545e+01,1.550e+01,1.592e+01,1.845e+01,1.634e+01,1.518e+01,1.466e+01,1.490e+01,1.543e+01,1.832e+01,1.684e+01,1.696e+01,1.306e+01,1.758e+01,1.667e+01,1.818e+01,1.872e+01,1.790e+01,1.720e+01,1.932e+01,1.935e+01,2.225e+01,1.927e+01,1.950e+01,1.846e+01,1.939e+01,2.047e+01,1.924e+01,1.835e+01,1.840e+01,1.976e+01,2.097e+01,1.787e+01,1.934e+01,2.226e+01,1.948e+01,1.893e+01,1.829e+01,1.993e+01,1.977e+01,1.969e+01,2.089e+01,1.977e+01
1.771e-01,1.162e+00,9.394e-01,1.424e+00,1.414e+00,1.597e+00,1.994e+00,2.824e+00,2.877e+00,2.817e+00,2.558e+00,3.683e+00,2.880e+00,4.195e+00,4.847e+00,5.320e+00,5.819e+00,4.145e+00,4.541e+00,4.717e+00,5.485e+00,5.669e+00,5.179e+00,6.177e+00,7.588e+00,7.500e+00,5.911e+00,5.398e+00,7.321e+00,7.961e+00,6.710e+00,7.281e+00,8.473e+00,7.954e+00,6.726e+00,8.340e+00,1.056e+01,8.528e+00,1.162e+01,8.537e+00,1.182e+01,9.449e+00,1.152e+01,6.473e+00,9.942e+00,1.179e+01,1.135e+01,1.321e+01,1.273e+01,1.011e+01,1.281e+01,1.196e+01,1.204e+01,1.244e+01,1.267e+01,1.438e+01,1.412e+01,1.507e+01,1.666e+01,1.480e+01,1.498e+01,1.427e+01,1.367e+01,1.293e+01,1.749e+01,1.675e+01,1.735e+01,1.258e+01,1.595e+01,1.616e+01,1.704e+01,1.879e+01,1.654e+01,1.818e+01,2.110e+01,1.665e+01,1.925e+01,1.797e+01,1.960e+01,2.126e+01,1.907e+01,2.046e+01,1.986e+01,1.893e+01,1.750e+01,2.027e+01,1.840e+01,1.673e+01,1.861e+01,2.015e+01,1.841e+01,1.941e+01,1.685e+01,1.997e+01,1.775e+01,1.870e+01,1.983e+01,1.982e+01
1.434e-01,9.503e-01,1.012e+00,1.859e+00,1.785e+00,1.952e+00,2.773e+00,2.905e+00,3.392e+00,3.040e+00,1.783e+00,3.260e+00,3.701e+00,3.982e+00,5.249e+00,5.215e+00,5.821e+00,4.154e+00,5.566e+00,4.726e+00,6.551e+00,5.550e+00,5.555e+00,6.620e+00,6.931e+00,7.503e+00,6.128e+00,5.942e+00,6.977e+00,8.959e+00,6.319e+00,8.859e+00,9.137e+00,1.048e+01,7.696e+00,1.030e+01,1.127e+01,9.680e+00,1.217e+01,1.140e+01,1.417e+01,1.126e+01,1.342e+01,8.438e+00,1.243e+01,1.236e+01,1.242e+01,1.367e+01,1.439e+01,1.162e+01,1.413e+01,1.424e+01,1.346e+01,1.448e+01,1.323e+01,1.630e+01,1.577e+01,1.625e+01,1.934e+01,1.628e+01,1.595e+01,1.476e+01,1.610e+01,1.475e+01,1.946e+01,1.711e+01,1.896e+01,1.377e+01,1.725e+01,1.717e+01,1.863e+01,1.929e+01,1.945e+01,1.812e+01,2.186e+01,1.930e+01,2.279e+01,1.920e+01,2.137e+01,2.018e+01,2.065e+01,2.071e+01,2.201e+01,2.012e+01,1.839e+01,2.132e+01,2.077e+01,1.840e+01,2.042e+01,2.221e+01,1.942e+01,1.918e+01,1.793e+01,2.042e+01,1.900e+01,2.068e+01,2.172e+01,2.108e+01
8.761e-03,5.478e-02,1.476e-01,5.168e-01,5.301e-01,4.948e-01,1.097e+00,8.591e-01,1.119e+00,1.252e+00,1.362e+00,1.794e+00,1.488e+00,1.931e+00,2.469e+00,2.537e+00,2.786e+00,2.077e+00,2.724e+00,3.837e+00,4.856e+00,4.524e+00,4.339e+00,3.895e+00,4.547e+00,5.315e+00,5.435e+00,4.842e+00,6.148e+00,6.685e+00,6.079e+00,7.645e+00,7.345e+00,8.128e+00,7.471e+00,8.234e+00,1.066e+01,8.209e+00,1.059e+01,1.043e+01,1.228e+01,9.620e+00,1.084e+01,6.767e+00,1.110e+01,1.085e+01,1.046e+01,1.111e+01,1.255e+01,1.030e+01,1.339e+01,1.306e+01,1.275e+01,1.342e+01,1.136e+01,1.556e+01,1.554e+01,1.592e+01,1.860e+01,1.566e+01,1.522e+01,1.538e+01,1.605e+01,1.642e+01,1.874e+01,1.954e+01,1.801e+01,1.291e+01,1.712e+01,1.623e+01,1.837e+01,1.952e+01,1.877e+01,1.718e+01,2.199e+01,1.995e+01,2.218e+01,1.910e+01,2.196e+01,2.044e+01,1.928e+01,2.007e+01,2.191e+01,1.840e+01,1.857e+01,2.124e+01,2.064e+01,1.896e+01,2.136e+01,2.402e+01,2.152e+01,2.117e+01,1.764e+01,2.185e+01,2.082e+01,2.007e+01,2.305e+01,2.064e+01
8.643e-02,5.736e-01,3.669e-01,9.956e-01,1.305e+00,1.151e+00,2.292e+00,2.328e+00,2.755e+00,2.831e+00,2.248e+00,3.167e+00,3.179e+00,4.271e+00,5.174e+00,5.399e+00,5.541e+00,3.722e+00,4.976e+00,4.432e+00,6.148e+00,5.960e+00,5.735e+00,6.813e+00,6.762e+00,8.288e+00,7.324e+00,5.768e+00,6.777e+00,9.612e+00,6.527e+00,9.356e+00,9.460e+00,9.433e+00,8.686e+00,9.930e+00,1.164e+01,1.053e+01,1.208e+01,1.077e+01,1.490e+01,1.057e+01,1.267e+01,9.377e+00,1.224e+01,1.401e+01,1.308e+01,1.307e+01,1.406e+01,1.142e+01,1.573e+01,1.411e+01,1.522e+01,1.467e+01,1.520e+01,1.738e+01,1.651e+01,1.690e+01,1.890e+01,1.688e+01,1.731e+01,1.672e+01,1.654e+01,1.534e+01,2.028e+01,1.896e+01,1.857e+01,1.573e+01,1.700e+01,1.747e+01,1.935e+01,2.093e+01,1.911e+01,1.862e+01,2.213e+01,2.145e+01,2.249e+01,1.993e+01,2.191e+01,2.298e+01,2.140e+01,2.155e+01,2.239e+01,1.940e+01,2.163e+01,2.203e+01,2.253e+01,2.109e+01,2.207e+01,2.419e+01,2.221e+01,2.164e+01,1.945e+01,2.310e+01,2.238e+01,1.963e+01,2.370e+01,2.182e+01
1.672e-01,1.381e+00,1.062e+00,1.772e+00,1.964e+00,1.948e+00,2.670e+00,2.524e+00,3.339e+00,2.711e+00,1.759e+00,2.832e+00,3.578e+00,4.036e+00,5.461e+00,5.603e+00,6.199e+00,4.315e+00,5.259e+00,5.145e+00,7.521e+00,5.512e+00,5.763e+00,6.577e+00,7.164e+00,7.509e+00,6.192e+00,6.702e+00,7.690e+00,9.195e+00,6.277e+00,8.779e+00,1.029e+01,1.101e+01,7.762e+00,1.046e+01,1.212e+01,1.049e+01,1.182e+01,1.118e+01,1.427e+01,9.716e+00,1.371e+01,8.825e+00,1.234e+01,1.257e+01,1.183e+01,1.281e+01,1.261e+01,1.038e+01,1.456e+01,1.400e+01,1.472e+01,1.455e+01,1.375e+01,1.673e+01,1.645e+01,1.588e+01,1.754e+01,1.624e+01,1.567e+01,1.631e+01,1.617e+01,1.514e+01,1.964e+01,1.856e+01,1.759e+01,1.338e+01,1.739e+01,1.840e+01,1.876e+01,1.983e+01,1.985e+01,1.738e+01,2.095e+01,2.059e+01,2.257e+01,2.250e+01,2.303e+01,2.327e+01,2.160e+01,2.349e+01,2.465e+01,2.104e+01,1.944e+01,2.308e+01,2.046e+01,2.135e+01,2.042e+01,2.327e+01,2.035e+01,2.184e+01,2.085e+01,2.421e+01,2.122e+01,2.174e+01,2.394e+01,2.351e+01
1.663e-01,1.657e+00,1.281e+00,2.226e+00,2.197e+00,2.191e+00,2.939e+00,2.764e+00,3.509e+00,3.419e+00,2.587e+00,3.484e+00,3.574e+00,4.479e+00,5.536e+00,5.684e+00,6.176e+00,4.922e+00,5.586e+00,4.946e+00,7.357e+00,6.384e+00,6.423e+00,7.628e+00,8.023e+00,7.384e+00,7.013e+00,6.234e+00,8.900e+00,9.558e+00,7.346e+00,9.381e+00,1.019e+01,1.119e+01,8.301e+00,1.067e+01,1.207e+01,9.148e+00,1.253e+01,1.078e+01,1.437e+01,1.084e+01,1.345e+01,8.474e+00,1.308e+01,1.286e+01,1.235e+01,1.475e+01,1.414e+01,1.146e+01,1.417e+01,1.509e+01,1.505e+01,1.584e+01,1.383e+01,1.786e+01,1.634e+01,1.584e+01,1.969e+01,1.753e+01,1.677e+01,1.656e+01,1.616e+01,1.430e+01,1.967e+01,2.066e+01,1.865e+01,1.333e+01,1.784e+01,1.867e+01,2.091e+01,1.974e+01,1.948e+01,1.931e+01,2.209e+01,2.197e+01,2.261e+01,1.984e+01,2.197e+01,2.284e+01,2.258e+01,2.201e+01,2.244e+01,1.967e+01,2.004e+01,2.308e+01,2.246e+01,2.008e+01,2.073e+01,2.496e+01,1.959e+01,2.158e+01,1.993e+01,2.357e+01,2.114e+01,2.093e+01,2.294e+01,2.306e+01
8.183e-03,3.559e-01,7.505e-01,1.119e+00,1.540e+00,1.404e+00,2.160e+00,2.411e+00,2.712e+00,2.694e+00,2.439e+00,3.097e+00,3.378e+00,3.721e+00,4.340e+00,4.795e+00,5.987e+00,4.690e+00,5.110e+00,4.462e+00,6.077e+00,6.520e+00,4.917e+00,7.158e+00,7.217e+00,8.770e+00,7.757e+00,5.876e+00,7.214e+00,9.942e+00,6.921e+00,1.068e+01,1.006e+01,1.006e+01,9.050e+00,1.051e+01,1.180e+01,1.071e+01,1.150e+01,1.097e+01,1.504e+01,1.137e+01,1.425e+01,1.019e+01,1.385e+01,1.369e+01,1.432e+01,1.374e+01,1.574e+01,1.316e+01,1.579e+01,1.491e+01,1.566e+01,1.691e+01,1.593e+01,1.836e+01,1.690e+01,1.814e+01,1.917e+01,1.717e+01,1.768e+01,1.804e+01,1.801e+01,1.700e+01,1.944e+01,2.065e+01,2.003e+01,1.547e+01,1.992e+01,1.876e+01,2.221e+01,2.387e+01,2.126e+01,2.035e+01,2.286e+01,2.112e+01,2.286e+01,2.234e+01,2.267e+01,2.299e+01,2.254e+01,2.299e+01,2.431e+01,2.264e+01,2.118e+01,2.389e+01,2.369e+01,2.234e+01,2.207e+01,2.612e+01,2.376e+01,2.318e+01,2.172e+01,2.571e+01,2.277e+01,2.320e+01,2.570e+01,2.255e+01
2.640e-02,9.633e-01,9.580e-01,1.656e+00,1.563e+00,1.492e+00,2.488e+00,2.347e+00,2.806e+00,2.274e+00,1.986e+00,2.222e+00,3.515e+00,3.402e+00,4.458e+00,3.395e+00,4.894e+00,3.370e+00,4.753e+00,3.538e+00,5.011e+00,4.557e+00,4.712e+00,5.566e+00,4.891e+00,5.616e+00,4.550e+00,4.610e+00,6.259e+00,7.514e+00,5.120e+00,7.307e+00,7.858e+00,8.529e+00,7.057e+00,8.261e+00,1.057e+01,8.216e+00,1.053e+01,1.029e+01,1.240e+01,1.040e+01,1.161e+01,7.666e+00,1.091e+01,1.228e+01,1.090e+01,1.173e+01,1.071e+01,9.731e+00,1.307e+01,1.326e+01,1.343e+01,1.369e+01,1.104e+01,1.535e+01,1.503e+01,1.395e+01,1.788e+01,1.492e+01,1.528e+01,1.419e+01,1.461e+01,1.300e+01,1.759e+01,1.703e+01,1.610e+01,1.170e+01,1.582e+01,1.495e+01,1.645e+01,1.699e+01,1.722e+01,1.485e+01,1.846e+01,1.766e+01,2.019e+01,1.808e+01,1.963e+01,1.918e+01,1.845e+01,1.951e+01,2.192e+01,1.676e+01,1.855e+01,1.960e+01,2.137e+01,2.044e+01,2.049e+01,2.224e+01,1.974e+01,1.857e+01,1.862e+01,2.063e+01,2.029e+01,2.066e+01,2.363e+01,2.164e+01
1.042e-01,1.012e+00,1.103e+00,1.916e+00,1.527e+00,1.770e+00,2.548e+00,2.923e+00,3.113e+00,2.848e+00,2.215e+00,3.400e+00,3.207e+00,3.979e+00,5.147e+00,5.154e+00,6.135e+00,4.683e+00,5.321e+00,5.108e+00,6.165e+00,5.914e+00,5.635e+00,6.172e+00,5.636e+00,7.659e+00,7.046e+00,4.702e+00,6.422e+00,8.313e+00,6.309e+00,7.382e+00,7.791e+00,9.022e+00,6.580e+00,8.568e+00,1.001e+01,8.810e+00,1.063e+01,1.048e+01,1.354e+01,9.873e+00,1.249e+01,8.334e+00,1.175e+01,1.208e+01,1.214e+01,1.299e+01,1.286e+01,1.198e+01,1.481e+01,1.363e+01,1.414e+01,1.417e+01,1.379e+01,1.502e+01,1.421e+01,1.567e+01,1.756e+01,1.521e+01,1.632e+01,1.462e+01,1.515e+01,1.448e+01,1.801e+01,1.766e+01,1.664e+01,1.348e+01,1.759e+01,1.590e+01,1.874e+01,1.829e+01,1.766e+01,1.706e+01,1.849e+01,1.834e+01,2.096e+01,1.950e+01,1.951e+01,2.011e+01,2.091e+01,1.950e+01,2.129e+01,2.078e+01,1.903e+01,2.183e+01,2.111e+01,2.047e+01,2.117e+01,2.333e+01,2.090e+01,1.835e+01,1.972e+01,2.227e+01,2.083e+01,2.103e+01,2.087e+01,2.078e+01
1.562e-01,1.170e+00,1.142e+00,1.690e+00,1.760e+00,1.909e+00,2.386e+00,2.575e+00,3.165e+00,2.506e+00,2.005e+00,3.045e+00,3.157e+00,3.339e+00,4.397e+00,4.519e+00,4.728e+00,3.476e+00,4.175e+00,4.314e+00,6.186e+00,4.636e+00,5.077e+00,5.828e+00,6.220e+00,6.253e+00,5.421e+00,5.096e+00,6.328e+00,7.310e+00,5.443e+00,7.581e+00,6.800e+00,8.366e+00,6.013e+00,7.893e+00,9.092e+00,8.119e+00,9.241e+00,7.895e+00,1.119e+01,8.341e+00,1.100e+01,6.988e+00,1.023e+01,1.006e+01,9.315e+00,1.255e+01,1.175e+01,9.704e+00,1.187e+01,1.190e+01,1.270e+01,1.207e+01,1.117e+01,1.312e+01,1.535e+01,1.465e+01,1.599e+01,1.414e+01,1.378e+01,1.372e+01,1.456e+01,1.317e+01,1.541e+01,1.461e+01,1.434e+01,1.154e+01,1.399e+01,1.484e+01,1.676e+01,1.571e+01,1.651e+01,1.537e+01,1.790e+01,1.727e+01,1.874e+01,1.700e+01,1.716e+01,1.801e+01,1.703e+01,1.831e+01,1.744e+01,1.766e+01,1.732e+01,2.055e+01,1.851e+01,1.680e+01,1.810e+01,2.123e+01,1.899e+01,1.748e+01,1.802e+01,2.045e+01,1.855e+01,1.784e+01,1.989e+01,1.943e+01
1.532e-01,9.512e-01,6.410e-01,1.198e+00,1.440e+00,1.407e+00,1.861e+00,1.683e+00,2.248e+00,2.047e+00,1.463e+00,2.373e+00,2.455e+00,3.215e+00,4.243e+00,4.341e+00,5.052e+00,2.955e+00,4.020e+00,4.332e+00,5.804e+00,4.411e+00,4.481e+00,5.319e+00,5.958e+00,6.411e+00,5.127e+00,5.596e+00,6.331e+00,7.461e+00,6.236e+00,7.870e+00,7.992e+00,7.303e+00,6.264e+00,7.310e+00,8.471e+00,8.251e+00,9.670e+00,9.260e+00,1.120e+01,8.572e+00,1.006e+01,6.471e+00,1.028e+01,9.642e+00,9.232e+00,1.116e+01,1.137e+01,9.866e+00,1.095e+01,1.083e+01,1.186e+01,1.151e+01,1.062e+01,1.309e+01,1.418e+01,1.312e+01,1.767e+01,1.249e+01,1.333e+01,1.466e+01,1.315e+01,1.505e+01,1.662e+01,1.700e+01,1.659e+01,1.223e+01,1.585e+01,1.438e+01,1.666e+01,1.802e+01,1.684e+01,1.564e+01,2.071e+01,1.724e+01,2.030e+01,1.804e+01,1.888e+01,1.981e+01,1.905e+01,2.028e+01,2.061e+01,1.904e+01,1.996e+01,2.339e+01,2.287e+01,2.005e+01,2.069e+01,2.336e+01,2.146e+01,2.132e+01,1.849e+01,2.286e+01,2.090e+01,2.175e+01,2.281e+01,1.931e+01
1.126e-01,1.145e+00,1.389e+00,2.216e+00,1.891e+00,2.164e+00,2.800e+00,2.787e+00,3.438e+00,2.985e+00,2.153e+00,4.101e+00,3.686e+00,4.832e+00,5.747e+00,4.996e+00,5.931e+00,5.156e+00,5.626e+00,5.177e+00,6.949e+00,6.241e+00,6.277e+00,7.045e+00,7.364e+00,7.672e+00,7.470e+00,6.105e+00,7.548e+00,9.488e+00,6.870e+00,8.694e+00,8.752e+00,9.233e+00,7.570e+00,9.685e+00,1.243e+01,9.241e+00,1.125e+01,1.015e+01,1.397e+01,1.057e+01,1.345e+01,8.561e+00,1.261e+01,1.269e+01,1.226e+01,1.462e+01,1.462e+01,1.177e+01,1.511e+01,1.430e+01,1.491e+01,1.470e+01,1.566e+01,1.660e+01,1.622e+01,1.723e+01,1.921e+01,1.626e+01,1.820e+01,1.772e+01,1.638e+01,1.719e+01,2.022e+01,2.137e+01,1.974e+01,1.522e+01,1.906e+01,1.866e+01,2.184e+01,2.067e+01,1.980e+01,1.975e+01,2.227e+01,2.164e+01,2.488e+01,2.146e+01,2.208e+01,2.401e+01,2.265e+01,2.373e+01,2.395e+01,2.216e+01,2.370e+01,2.484e+01,2.515e+01,2.377e+01,2.438e+01,2.707e+01,2.432e+01,2.265e+01,2.370e+01,2.663e+01,2.392e+01,2.416e+01,2.551e+01,2.438e+01
1.606e-01,1.383e+00,1.155e+00,1.763e+00,1.514e+00,1.722e+00,1.971e+00,2.674e+00,2.680e+00,2.726e+00,2.386e+00,3.301e+00,2.780e+00,3.921e+00,4.800e+00,5.195e+00,5.436e+00,3.760e+00,4.050e+00,4.962e+00,5.921e+00,5.605e+00,4.932e+00,5.521e+00,5.698e+00,5.877e+00,6.270e+00,4.546e+00,6.582e+00,7.953e+00,6.236e+00,6.812e+00,7.522e+00,8.465e+00,7.132e+00,8.118e+00,9.803e+00,8.339e+00,1.027e+01,9.629e+00,1.201e+01,8.730e+00,1.053e+01,6.600e+00,1.148e+01,1.153e+01,1.065e+01,1.188e+01,1.208e+01,9.719e+00,1.286e+01,1.165e+01,1.252e+01,1.308e+01,1.257e+01,1.453e+01,1.438e+01,1.598e+01,1.708e+01,1.553e+01,1.451e+01,1.424e+01,1.467e+01,1.340e+01,1.736e+01,1.793e+01,1.549e+01,1.314e+01,1.653e+01,1.594e+01,1.749e+01,1.770e+01,1.788e+01,1.749e+01,2.066e+01,1.825e+01,2.148e+01,1.876e+01,2.095e+01,2.113e+01,1.911e+01,2.044e+01,2.015e+01,1.893e+01,2.039e+01,2.299e+01,2.073e+01,2.111e+01,2.141e+01,2.363e+01,1.964e+01,2.073e+01,2.001e+01,2.253e+01,2.079e+01,2.159e+01,2.163e+01,2.057e+01
1.521e-01,1.225e+00,1.239e+00,1.642e+00,1.530e+00,1.818e+00,2.321e+00,3.418e+00,3.447e+00,2.716e+00,2.486e+00,3.511e+00,3.653e+00,4.531e+00,5.484e+00,5.441e+00,6.283e+00,3.956e+00,4.867e+00,4.492e+00,5.814e+00,5.306e+00,5.311e+00,6.802e+00,6.784e+00,8.463e+00,7.590e+00,5.318e+00,6.591e+00,8.847e+00,7.149e+00,8.287e+00,8.532e+00,8.595e+00,6.914e+00,8.553e+00,1.096e+01,1.020e+01,1.059e+01,9.588e+00,1.206e+01,9.577e+00,1.203e+01,9.079e+00,1.126e+01,1.282e+01,1.190e+01,1.370e+01,1.307e+01,1.215e+01,1.354e+01,1.306e+01,1.226e+01,1.466e+01,1.285e+01,1.529e+01,1.463e+01,1.554e+01,1.878e+01,1.665e+01,1.528e+01,1.593e+01,1.529e+01,1.475e+01,1.838e+01,1.891e+01,1.737e+01,1.455e+01,1.738e+01,1.737e+01,1.895e+01,1.944e+01,1.862e+01,1.860e+01,2.119e+01,1.909e+01,2.308e+01,1.963e+01,1.911e+01,2.040e+01,1.937e+01,2.062e+01,2.147e+01,2.023e+01,1.978e+01,2.203e+01,2.282e+01,2.092e+01,2.327e+01,2.403e+01,2.332e+01,2.104e+01,2.227e+01,2.408e+01,2.204e+01,2.251e+01,2.534e+01,2.341e+01
1.440e-01,1.579e+00,1.120e+00,1.542e+00,1.647e+00,1.643e+00,2.368e+00,3.112e+00,3.350e+00,2.633e+00,2.748e+00,2.838e+00,3.383e+00,4.129e+00,5.028e+00,5.659e+00,6.191e+00,4.174e+00,4.968e+00,4.306e+00,6.120e+00,5.735e+00,4.928e+00,6.377e+00,6.595e+00,7.070e+00,6.563e+00,5.105e+00,7.229e+00,7.785e+00,6.257e+00,7.569e+00,8.487e+00,8.785e+00,6.768e+00,8.091e+00,9.459e+00,7.719e+00,1.028e+01,9.290e+00,1.230e+01,8.963e+00,1.080e+01,7.058e+00,1.135e+01,1.152e+01,1.182e+01,1.182e+01,1.176e+01,9.094e+00,1.285e+01,1.142e+01,1.291e+01,1.269e+01,1.241e+01,1.509e+01,1.325e+01,1.270e+01,1.606e+01,1.526e+01,1.595e+01,1.400e+01,1.538e+01,1.288e+01,1.814e+01,1.691e+01,1.543e+01,1.317e+01,1.595e+01,1.490e+01,1.690e+01,1.848e+01,1.633e+01,1.643e+01,1.810e+01,1.834e+01,1.967e+01,1.662e+01,2.073e+01,2.090e+01,1.850e+01,1.962e+01,2.014e+01,1.723e+01,1.929e+01,2.188e+01,2.066e+01,2.051e+01,2.229e+01,2.323e+01,1.949e+01,2.100e+01,1.992e+01,2.425e+01,2.067e+01,2.074e+01,2.406e+01,2.145e+01
2.807e-02,8.140e-01,8.414e-01,1.602e+00,1.541e+00,1.451e+00,2.384e+00,2.075e+00,2.614e+00,2.569e+00,2.066e+00,2.691e+00,3.065e+00,3.252e+00,4.253e+00,4.224e+00,4.605e+00,3.971e+00,4.218e+00,4.221e+00,5.637e+00,4.988e+00,5.434e+00,6.160e+00,4.920e+00,6.460e+00,5.845e+00,4.393e+00,6.284e+00,8.504e+00,5.181e+00,7.902e+00,7.955e+00,8.710e+00,7.487e+00,9.109e+00,9.802e+00,8.653e+00,1.078e+01,1.076e+01,1.313e+01,9.247e+00,1.147e+01,6.683e+00,1.060e+01,1.051e+01,1.023e+01,1.109e+01,1.263e+01,1.129e+01,1.320e+01,1.221e+01,1.251e+01,1.441e+01,1.161e+01,1.421e+01,1.322e+01,1.477e+01,1.833e+01,1.648e+01,1.498e+01,1.508e+01,1.474e+01,1.319e+01,1.910e+01,1.831e+01,1.671e+01,1.386e+01,1.645e+01,1.618e+01,1.793e+01,1.832e+01,1.866e+01,1.692e+01,2.002e+01,1.812e+01,2.097e+01,1.748e+01,1.975e+01,1.926e+01,1.957e+01,1.878e+01,1.990e+01,1.851e+01,1.988e+01,2.055e+01,2.224e+01,1.977e+01,2.069e+01,2.268e+01,2.022e+01,2.247e+01,1.912e+01,2.188e+01,2.169e+01,2.141e+01,2.320e+01,2.115e+01
5.866e-02,5.443e-01,7.116e-01,1.083e+00,1.518e+00,1.397e+00,2.078e+00,2.187e+00,2.676e+00,2.566e+00,2.499e+00,3.177e+00,3.293e+00,3.292e+00,4.260e+00,4.646e+00,5.053e+00,3.686e+00,4.574e+00,4.777e+00,6.804e+00,6.034e+00,5.995e+00,6.829e+00,7.353e+00,7.748e+00,7.158e+00,6.195e+00,8.250e+00,9.657e+00,7.456e+00,1.010e+01,9.560e+00,1.045e+01,8.894e+00,1.067e+01,1.156e+01,1.006e+01,1.172e+01,9.846e+00,1.367e+01,8.957e+00,1.299e+01,8.450e+00,1.240e+01,1.247e+01,1.206e+01,1.317e+01,1.373e+01,1.043e+01,1.451e+01,1.329e+01,1.418e+01,1.472e+01,1.295e+01,1.676e+01,1.619e+01,1.562e+01,1.692e+01,1.613e+01,1.639e+01,1.557e+01,1.655e+01,1.401e+01,1.778e+01,1.771e+01,1.673e+01,1.321e+01,1.605e+01,1.488e+01,1.633e+01,1.820e+01,1.834e+01,1.792e+01,2.027e+01,1.996e+01,2.004e+01,1.905e+01,2.121e+01,2.159e+01,2.008e+01,2.103e+01,2.134e+01,1.816e+01,2.042e+01,2.304e+01,2.314e+01,2.011e+01,2.272e+01,2.616e+01,2.103e+01,2.475e+01,2.179e+01,2.530e+01,2.312e+01,2.260e+01,2.670e+01,2.366e+01
1.373e-01,1.504e+00,1.319e+00,1.876e+00,1.854e+00,1.941e+00,2.378e+00,2.742e+00,3.190e+00,2.644e+00,2.106e+00,2.985e+00,3.113e+00,3.824e+00,4.847e+00,4.909e+00,5.328e+00,4.243e+00,4.237e+00,4.423e+00,6.538e+00,5.334e+00,5.623e+00,6.127e+00,5.724e+00,6.497e+00,6.836e+00,5.691e+00,6.996e+00,8.611e+00,5.838e+00,8.085e+00,8.301e+00,8.121e+00,7.064e+00,8.496e+00,9.829e+00,8.289e+00,1.039e+01,1.084e+01,1.400e+01,9.814e+00,1.213e+01,8.294e+00,1.320e+01,1.275e+01,1.150e+01,1.295e+01,1.447e+01,1.115e+01,1.469e+01,1.327e+01,1.443e+01,1.554e+01,1.410e+01,1.679e+01,1.528e+01,1.582e+01,1.826e+01,1.691e+01,1.644e+01,1.666e+01,1.570e+01,1.542e+01,1.891e+01,1.906e+01,1.684e+01,1.377e+01,1.804e+01,1.716e+01,1.932e+01,1.892e+01,1.954e+01,1.825e+01,2.080e+01,1.937e+01,2.249e+01,2.041e+01,2.071e+01,2.211e+01,2.077e+01,2.173e+01,2.239e+01,2.040e+01,2.197e+01,2.400e+01,2.340e+01,2.206e+01,2.217e+01,2.668e+01,2.146e+01,2.179e+01,2.415e+01,2.754e+01,2.283e+01,2.326e+01,2.530e+01,2.350e+01
1.081e-01,1.004e+00,9.712e-01,1.382e+00,1.443e+00,1.516e+00,1.888e+00,2.117e+00,2.462e+00,1.989e+00,2.041e+00,2.365e+00,2.620e+00,2.795e+00,3.756e+00,3.938e+00,4.929e+00,2.983e+00,3.938e+00,3.662e+00,4.788e+00,3.892e+00,3.978e+00,5.155e+00,5.179e+00,5.314e+00,4.405e+00,3.752e+00,5.836e+00,6.168e+00,4.891e+00,6.009e+00,6.885e+00,7.654e+00,6.057e+00,7.662e+00,9.152e+00,8.000e+00,9.375e+00,7.478e+00,1.195e+01,8.186e+00,1.021e+01,6.750e+00,1.037e+01,1.022e+01,1.011e+01,1.169e+01,1.086e+01,9.660e+00,1.139e+01,1.178e+01,1.186e+01,1.189e+01,1.174e+01,1.236e+01,1.371e+01,1.383e+01,1.651e+01,1.434e+01,1.401e+01,1.361e+01,1.503e+01,1.290e+01,1.606e+01,1.620e+01,1.562e+01,1.181e+01,1.530e+01,1.503e+01,1.609e+01,1.760e+01,1.658e+01,1.601e+01,1.935e+01,1.721e+01,1.991e+01,1.728e+01,1.852e+01,2.025e+01,1.812e+01,1.988e+01,2.011e+01,1.825e+01,1.798e+01,2.197e+01,1.974e+01,1.901e+01,2.039e+01,2.180e+01,2.071e+01,2.169e+01,1.845e+01,2.228e+01,2.012e+01,2.140e+01,2.446e+01,2.151e+01
4.562e-02,8.692e-01,1.143e+00,1.870e+00,1.597e+00,1.735e+00,2.538e+00,2.664e+00,3.040e+00,2.669e+00,2.186e+00,3.389e+00,3.323e+00,3.686e+00,5.183e+00,5.109e+00,5.715e+00,4.111e+00,4.578e+00,4.596e+00,6.345e+00,5.370e+00,5.717e+00,6.279e+00,5.417e+00,6.947e+00,7.074e+00,4.517e+00,6.196e+00,8.160e+00,6.461e+00,7.795e+00,8.001e+00,9.290e+00,7.094e+00,9.773e+00,1.146e+01,8.095e+00,1.133e+01,1.076e+01,1.454e+01,1.043e+01,1.261e+01,8.212e+00,1.203e+01,1.283e+01,1.252e+01,1.325e+01,1.316e+01,1.128e+01,1.565e+01,1.279e+01,1.389e+01,1.452e+01,1.376e+01,1.576e+01,1.370e+01,1.587e+01,1.817e+01,1.671e+01,1.603e+01,1.539e+01,1.562e+01,1.373e+01,1.925e+01,1.878e+01,1.645e+01,1.291e+01,1.810e+01,1.454e+01,1.807e+01,1.968e+01,1.850e+01,1.734e+01,1.981e+01,1.893e+01,2.190e+01,1.927e+01,1.986e+01,2.149e+01,2.084e+01,2.061e+01,2.217e+01,1.980e+01,2.028e+01,2.192e+01,2.216e+01,2.219e+01,2.295e+01,2.352e+01,2.195e+01,2.160e+01,2.212e+01,2.470e+01,2.257e+01,2.288e+01,2.405e+01,2.371e+01
1.536e-01,8.565e-01,8.146e-01,1.469e+00,1.535e+00,1.648e+00,1.999e+00,1.942e+00,2.455e+00,2.612e+00,1.834e+00,3.045e+00,2.391e+00,3.130e+00,3.963e+00,4.481e+00,4.886e+00,3.492e+00,4.468e+00,3.463e+00,5.694e+00,4.251e+00,5.960e+00,5.950e+00,5.957e+00,6.618e+00,5.342e+00,5.868e+00,7.156e+00,8.152e+00,6.414e+00,7.532e+00,7.642e+00,7.592e+00,7.124e+00,8.074e+00,9.319e+00,8.289e+00,9.373e+00,8.865e+00,1.172e+01,8.760e+00,1.087e+01,7.648e+00,1.003e+01,1.091e+01,9.857e+00,1.168e+01,1.219e+01,1.033e+01,1.284e+01,1.210e+01,1.355e+01,1.258e+01,1.191e+01,1.326e+01,1.404e+01,1.359e+01,1.606e+01,1.385e+01,1.370e+01,1.331e+01,1.290e+01,1.344e+01,1.472e+01,1.580e+01,1.487e+01,1.121e+01,1.423e+01,1.513e+01,1.633e+01,1.625e+01,1.424e+01,1.604e+01,1.669e+01,1.682e+01,1.795e+01,1.751e+01,1.813e+01,1.855e+01,1.677e+01,2.012e+01,1.853e+01,1.762e+01,1.831e+01,1.967e+01,1.911e+01,1.825e+01,1.920e+01,2.126e+01,2.026e+01,1.935e+01,2.023e+01,2.344e+01,2.154e+01,2.197e+01,2.130e+01,2.196e+01
1.475e-01,1.435e+00,1.431e+00,1.879e+00,1.785e+00,1.987e+00,1.966e+00,2.568e+00,2.791e+00,2.607e+00,2.501e+00,3.643e+00,2.935e+00,3.872e+00,4.846e+00,5.403e+00,5.835e+00,4.475e+00,4.814e+00,5.018e+00,6.349e+00,5.937e+00,5.631e+00,6.341e+00,8.205e+00,7.681e+00,6.276e+00,6.072e+00,7.833e+00,8.533e+00,7.256e+00,8.178e+00,8.352e+00,9.066e+00,7.527e+00,8.871e+00,1.074e+01,9.765e+00,1.291e+01,1.014e+01,1.436e+01,1.112e+01,1.330e+01,6.948e+00,1.220e+01,1.154e+01,1.239e+01,1.641e+01,1.483e+01,1.285e+01,1.503e+01,1.535e+01,1.586e+01,1.498e+01,1.557e+01,1.681e+01,1.724e+01,1.785e+01,2.081e+01,1.768e+01,1.718e+01,1.697e+01,1.728e+01,1.665e+01,2.068e+01,1.935e+01,1.928e+01,1.409e+01,1.886e+01,1.779e+01,2.088e+01,1.980e+01,1.956e+01,1.786e+01,2.267e+01,2.030e+01,2.379e+01,1.972e+01,2.065e+01,2.315e+01,2.180e+01,2.228e+01,2.166e+01,2.169e+01,2.087e+01,2.513e+01,2.308e+01,2.021e+01,2.374e+01,2.620e+01,2.470e+01,2.421e+01,2.141e+01,2.719e+01,2.473e+01,2.408e+01,2.600e+01,2.558e+01
1.182e-01,9.608e-01,1.059e+00,1.915e+00,1.530e+00,1.797e+00,2.462e+00,2.597e+00,3.001e+00,2.919e+00,1.752e+00,3.707e+00,3.325e+00,4.585e+00,5.683e+00,5.237e+00,6.227e+00,4.571e+00,4.747e+00,5.461e+00,7.035e+00,5.530e+00,5.613e+00,5.967e+00,6.446e+00,6.891e+00,6.960e+00,5.525e+00,6.957e+00,8.794e+00,6.734e+00,7.558e+00,8.703e+00,9.422e+00,7.058e+00,9.370e+00,1.127e+01,9.692e+00,1.175e+01,1.075e+01,1.231e+01,9.150e+00,1.157e+01,8.077e+00,1.237e+01,1.189e+01,1.164e+01,1.365e+01,1.314e+01,1.051e+01,1.442e+01,1.328e+01,1.346e+01,1.404e+01,1.412e+01,1.679e+01,1.512e+01,1.693e+01,1.722e+01,1.555e+01,1.647e+01,1.492e+01,1.434e+01,1.600e+01,1.847e+01,1.739e+01,1.667e+01,1.322e+01,1.636e+01,1.559e+01,1.718e+01,1.774e+01,1.761e+01,1.676e+01,1.956e+01,1.919e+01,2.212e+01,1.941e+01,2.074e+01,2.107e+01,1.945e+01,2.078e+01,2.114e+01,1.934e+01,1.947e+01,2.229e+01,2.164e+01,2.005e+01,2.078e+01,2.319e+01,2.015e+01,2.187e+01,2.223e+01,2.257e+01,2.311e+01,2.317e+01,2.272e+01,2.348e+01
