1.020e-01,1.268e-01,1.467e-02,6.769e-01,1.187e-01,5.474e-01,3.640e-01,1.595e-01,4.615e-02,5.340e-01,3.943e-01,1.615e-01,6.428e-01,8.690e-01,5.899e-01,8.067e-01,9.487e-01,2.425e-02,7.802e-01,7.691e-01,3.571e-01,6.703e-01,9.945e-01,3.618e-01,5.662e-01,4.656e-01,2.156e-02,3.150e-01,8.215e-01,2.224e-01,7.178e-01,9.814e-01,1.505e-01,5.602e-01,7.671e-01,7.206e-01,1.173e-01,7.714e-01,2.494e-01,9.436e-01,3.825e-01,5.478e-01,7.952e-01,5.526e-01,5.593e-01,8.942e-01,2.339e-01,3.620e-01,4.765e-01,2.309e-01,8.649e-01,3.470e-01,1.647e-01,9.176e-01,1.959e-01,8.366e-01,2.076e-01,2.381e-01,5.360e-01,4.254e-01
5.553e-02,7.857e-01,4.351e-01,1.291e+00,2.296e-01,8.203e-01,9.281e-01,7.246e-01,4.582e-01,5.532e-01,7.079e-01,2.373e-01,8.396e-01,9.772e-01,1.040e+00,5.342e-01,9.737e-01,6.313e-01,1.114e+00,7.293e-01,1.184e+00,1.141e+00,5.667e-01,1.011e+00,8.972e-01,3.812e-01,1.454e-01,9.445e-01,5.199e-01,3.973e-01,4.875e-01,1.292e+00,6.900e-01,9.296e-01,1.070e+00,9.269e-01,1.218e-01,1.063e+00,7.348e-01,1.247e+00,3.611e-01,1.163e+00,4.511e-01,7.399e-01,5.145e-01,1.424e+00,3.871e-01,3.895e-01,2.858e-01,1.115e+00,1.149e+00,1.166e+00,6.787e-01,9.767e-01,8.946e-01,1.112e+00,5.266e-01,6.940e-01,6.536e-01,8.159e-01
8.138e-02,5.151e-01,1.077e+00,1.694e+00,5.978e-01,1.609e+00,1.676e+00,1.081e+00,1.026e+00,1.506e+00,8.796e-01,9.970e-01,1.317e+00,1.797e+00,1.366e+00,1.205e+00,1.194e+00,5.801e-01,1.842e+00,1.789e+00,8.716e-01,1.177e+00,1.351e+00,9.582e-01,1.363e+00,4.879e-01,9.131e-01,1.408e+00,1.111e+00,6.770e-01,9.229e-01,2.095e+00,5.812e-01,1.515e+00,1.339e+00,1.436e+00,3.630e-01,1.186e+00,7.265e-01,1.783e+00,1.338e+00,1.420e+00,7.528e-01,1.651e+00,1.022e+00,1.615e+00,7.741e-01,1.131e+00,5.030e-01,1.538e+00,1.315e+00,1.376e+00,1.418e+00,1.317e+00,1.427e+00,1.412e+00,6.962e-01,1.444e+00,1.157e+00,1.142e+00
3.926e-02,6.028e-01,9.849e-01,1.690e+00,1.495e+00,2.253e+00,1.486e+00,1.419e+00,1.080e+00,1.621e+00,1.732e+00,1.381e+00,1.594e+00,2.131e+00,1.627e+00,8.324e-01,1.215e+00,8.157e-01,1.554e+00,1.506e+00,1.395e+00,1.236e+00,1.301e+00,9.890e-01,1.617e+00,3.539e-01,1.592e+00,1.295e+00,1.650e+00,8.716e-01,9.657e-01,2.395e+00,1.501e+00,1.306e+00,1.586e+00,1.473e+00,6.877e-01,1.388e+00,1.069e+00,2.008e+00,1.645e+00,2.075e+00,1.055e+00,1.502e+00,1.563e+00,1.587e+00,1.169e+00,1.859e+00,8.062e-01,2.097e+00,1.313e+00,1.849e+00,1.280e+00,1.310e+00,1.998e+00,1.624e+00,8.890e-01,2.088e+00,1.221e+00,1.329e+00
9.395e-02,7.819e-01,7.705e-01,1.791e+00,9.847e-01,1.949e+00,1.541e+00,1.423e+00,1.306e+00,1.563e+00,1.254e+00,1.643e+00,1.534e+00,2.192e+00,2.184e+00,1.807e+00,1.563e+00,7.991e-01,2.455e+00,2.145e+00,2.285e+00,1.934e+00,1.302e+00,2.180e+00,1.687e+00,8.630e-01,9.141e-01,1.968e+00,2.091e+00,1.205e+00,1.538e+00,2.196e+00,1.226e+00,1.894e+00,1.869e+00,1.915e+00,1.189e+00,1.826e+00,1.108e+00,2.865e+00,1.271e+00,2.059e+00,1.827e+00,1.829e+00,1.342e+00,2.744e+00,1.538e+00,1.212e+00,7.321e-01,1.981e+00,2.295e+00,2.068e+00,1.776e+00,2.405e+00,1.422e+00,2.213e+00,9.868e-01,1.636e+00,1.308e+00,1.433e+00
5.920e-02,7.812e-01,1.220e+00,2.104e+00,1.524e+00,3.084e+00,1.945e+00,2.114e+00,1.655e+00,1.980e+00,2.206e+00,1.781e+00,2.289e+00,2.550e+00,2.829e+00,1.183e+00,1.760e+00,1.449e+00,2.825e+00,2.083e+00,1.706e+00,1.820e+00,1.689e+00,1.495e+00,2.498e+00,1.210e+00,1.827e+00,1.890e+00,2.406e+00,1.996e+00,1.711e+00,2.968e+00,1.702e+00,2.359e+00,1.976e+00,1.909e+00,8.450e-01,1.991e+00,1.771e+00,3.299e+00,2.615e+00,3.186e+00,1.700e+00,1.997e+00,2.270e+00,2.799e+00,2.114e+00,2.198e+00,1.221e+00,3.277e+00,2.103e+00,2.828e+00,2.533e+00,2.173e+00,2.326e+00,2.523e+00,1.245e+00,2.646e+00,2.222e+00,2.148e+00
5.915e-02,4.093e-01,7.607e-01,1.342e+00,9.868e-01,1.729e+00,1.309e+00,1.353e+00,1.576e+00,1.734e+00,1.685e+00,2.139e+00,1.927e+00,1.968e+00,2.405e+00,1.760e+00,1.098e+00,1.236e+00,1.662e+00,2.233e+00,1.271e+00,1.709e+00,1.475e+00,1.554e+00,1.971e+00,1.075e+00,1.223e+00,1.327e+00,1.909e+00,1.416e+00,1.536e+00,2.665e+00,1.064e+00,2.249e+00,1.954e+00,1.626e+00,1.345e+00,1.904e+00,1.622e+00,2.853e+00,1.731e+00,2.044e+00,1.685e+00,1.605e+00,1.682e+00,2.204e+00,1.581e+00,1.865e+00,9.643e-01,2.394e+00,2.315e+00,2.399e+00,1.595e+00,2.062e+00,1.925e+00,2.450e+00,1.696e+00,2.201e+00,1.620e+00,1.938e+00
8.994e-02,2.707e-01,7.613e-01,1.488e+00,1.561e+00,2.377e+00,1.349e+00,1.661e+00,1.620e+00,2.177e+00,2.105e+00,2.513e+00,2.507e+00,3.319e+00,2.879e+00,2.383e+00,1.679e+00,7.319e-01,2.229e+00,2.533e+00,2.531e+00,1.685e+00,2.707e+00,2.375e+00,1.886e+00,1.281e+00,1.782e+00,2.140e+00,3.114e+00,1.402e+00,2.168e+00,3.413e+00,2.180e+00,1.799e+00,2.840e+00,2.476e+00,1.905e+00,2.733e+00,1.654e+00,3.539e+00,2.881e+00,2.814e+00,2.689e+00,1.913e+00,1.935e+00,3.175e+00,2.197e+00,2.815e+00,1.599e+00,2.922e+00,2.705e+00,2.684e+00,1.888e+00,2.569e+00,2.031e+00,2.459e+00,1.487e+00,3.025e+00,1.932e+00,2.382e+00
9.339e-02,8.187e-01,1.164e+00,2.157e+00,1.060e+00,2.515e+00,1.977e+00,1.982e+00,2.534e+00,2.284e+00,2.035e+00,1.894e+00,2.666e+00,3.265e+00,3.915e+00,2.604e+00,2.189e+00,1.637e+00,2.969e+00,3.376e+00,3.285e+00,2.714e+00,2.483e+00,2.432e+00,2.268e+00,1.617e+00,2.103e+00,3.277e+00,2.581e+00,2.457e+00,2.655e+00,3.502e+00,2.335e+00,2.711e+00,2.867e+00,2.740e+00,1.282e+00,3.362e+00,1.927e+00,4.156e+00,3.590e+00,3.560e+00,2.317e+00,2.813e+00,2.696e+00,3.957e+00,2.709e+00,2.667e+00,1.667e+00,3.505e+00,3.245e+00,3.914e+00,2.502e+00,3.398e+00,2.701e+00,3.007e+00,2.226e+00,3.401e+00,2.912e+00,3.505e+00
5.961e-02,2.538e-01,6.867e-01,1.250e+00,1.527e+00,2.391e+00,1.244e+00,1.725e+00,2.508e+00,2.321e+00,2.332e+00,3.316e+00,3.092e+00,3.397e+00,4.667e+00,3.332e+00,1.574e+00,2.618e+00,2.719e+00,3.389e+00,2.777e+00,2.477e+00,2.767e+00,2.453e+00,2.561e+00,2.542e+00,2.623e+00,2.842e+00,3.893e+00,2.857e+00,2.989e+00,3.270e+00,2.545e+00,2.964e+00,3.220e+00,2.262e+00,2.883e+00,3.787e+00,2.209e+00,4.988e+00,3.199e+00,3.621e+00,3.548e+00,3.036e+00,3.918e+00,3.424e+00,3.760e+00,3.760e+00,1.908e+00,3.257e+00,3.421e+00,4.566e+00,3.056e+00,4.152e+00,2.623e+00,3.381e+00,2.610e+00,4.026e+00,3.264e+00,3.697e+00
3.952e-02,4.728e-01,8.108e-01,1.378e+00,1.454e+00,2.391e+00,1.403e+00,1.921e+00,2.794e+00,2.254e+00,2.413e+00,3.830e+00,3.187e+00,3.873e+00,5.390e+00,3.850e+00,2.155e+00,2.727e+00,2.794e+00,3.931e+00,3.969e+00,3.438e+00,2.726e+00,3.470e+00,2.566e+00,2.171e+00,3.049e+00,3.617e+00,3.517e+00,3.729e+00,3.233e+00,3.770e+00,3.358e+00,3.577e+00,3.554e+00,3.213e+00,2.850e+00,3.959e+00,2.969e+00,5.461e+00,3.888e+00,4.348e+00,3.409e+00,3.732e+00,3.821e+00,4.377e+00,4.414e+00,3.591e+00,1.749e+00,4.432e+00,3.724e+00,4.506e+00,3.823e+00,4.177e+00,2.693e+00,3.393e+00,3.424e+00,4.515e+00,3.134e+00,3.961e+00
7.624e-02,3.671e-01,8.459e-01,1.518e+00,1.249e+00,2.160e+00,1.437e+00,1.580e+00,2.126e+00,2.194e+00,2.304e+00,3.744e+00,3.614e+00,4.577e+00,4.748e+00,3.790e+00,2.169e+00,2.695e+00,2.957e+00,3.597e+00,3.450e+00,3.280e+00,3.259e+00,2.615e+00,3.321e+00,2.689e+00,3.200e+00,3.577e+00,3.558e+00,3.709e+00,3.359e+00,4.030e+00,3.017e+00,4.041e+00,4.114e+00,3.597e+00,2.484e+00,4.000e+00,3.259e+00,4.839e+00,3.756e+00,4.230e+00,2.918e+00,4.040e+00,4.019e+00,3.841e+00,3.991e+00,3.971e+00,1.727e+00,4.686e+00,3.549e+00,3.814e+00,3.687e+00,3.492e+00,3.210e+00,2.964e+00,3.456e+00,4.239e+00,3.488e+00,3.455e+00
9.954e-02,6.781e-01,5.565e-01,1.568e+00,6.814e-01,1.820e+00,1.277e+00,1.639e+00,1.781e+00,1.664e+00,2.051e+00,3.066e+00,3.730e+00,4.596e+00,5.096e+00,4.109e+00,3.084e+00,2.542e+00,3.880e+00,3.684e+00,4.398e+00,3.514e+00,3.425e+00,3.979e+00,3.434e+00,3.140e+00,2.854e+00,3.832e+00,3.703e+00,3.665e+00,3.416e+00,3.907e+00,3.568e+00,4.110e+00,4.459e+00,4.219e+00,2.723e+00,4.306e+00,3.884e+00,5.993e+00,3.634e+00,4.453e+00,3.980e+00,4.266e+00,4.157e+00,4.750e+00,4.375e+00,4.155e+00,2.713e+00,4.924e+00,4.037e+00,4.172e+00,4.246e+00,3.786e+00,2.721e+00,3.372e+00,3.783e+00,4.459e+00,3.998e+00,3.945e+00
1.016e-02,5.047e-01,5.751e-01,1.131e+00,1.569e+00,2.207e+00,1.004e+00,1.624e+00,1.864e+00,1.615e+00,2.080e+00,3.183e+00,2.973e+00,4.363e+00,4.598e+00,3.656e+00,3.167e+00,2.740e+00,3.590e+00,3.447e+00,4.310e+00,3.175e+00,2.822e+00,3.419e+00,3.521e+00,2.762e+00,3.890e+00,3.862e+00,3.997e+00,3.742e+00,3.018e+00,3.009e+00,4.603e+00,3.312e+00,4.228e+00,3.347e+00,2.888e+00,3.703e+00,3.272e+00,6.142e+00,3.173e+00,4.816e+00,3.705e+00,4.859e+00,4.545e+00,3.578e+00,4.671e+00,4.334e+00,2.949e+00,4.495e+00,3.521e+00,4.022e+00,3.977e+00,4.119e+00,3.714e+00,2.978e+00,3.721e+00,4.515e+00,3.589e+00,3.776e+00
2.797e-02,7.295e-01,4.578e-01,1.213e+00,8.908e-01,1.909e+00,9.950e-01,1.827e+00,2.344e+00,1.460e+00,2.198e+00,2.861e+00,3.098e+00,3.712e+00,5.444e+00,3.455e+00,3.134e+00,3.314e+00,3.064e+00,3.272e+00,5.337e+00,4.123e+00,3.454e+00,4.452e+00,2.742e+00,3.022e+00,2.983e+00,3.889e+00,3.838e+00,4.623e+00,3.325e+00,3.584e+00,4.023e+00,3.413e+00,3.965e+00,3.690e+00,2.499e+00,4.432e+00,3.436e+00,5.652e+00,4.406e+00,5.506e+00,3.904e+00,3.897e+00,4.038e+00,4.944e+00,5.102e+00,3.974e+00,2.128e+00,4.868e+00,3.809e+00,5.328e+00,3.796e+00,4.529e+00,3.016e+00,3.758e+00,4.214e+00,4.394e+00,4.162e+00,4.104e+00
2.504e-02,5.521e-01,1.061e+00,1.477e+00,9.531e-01,2.223e+00,1.639e+00,2.094e+00,3.009e+00,2.216e+00,2.405e+00,3.604e+00,3.759e+00,4.242e+00,5.882e+00,4.596e+00,3.339e+00,4.234e+00,4.442e+00,5.044e+00,4.868e+00,4.334e+00,3.995e+00,3.865e+00,3.887e+00,4.030e+00,4.144e+00,4.377e+00,4.148e+00,5.288e+00,4.446e+00,4.323e+00,4.692e+00,5.004e+00,4.400e+00,3.933e+00,3.476e+00,5.501e+00,4.430e+00,7.032e+00,5.602e+00,5.901e+00,3.779e+00,5.267e+00,4.949e+00,5.650e+00,5.729e+00,5.135e+00,3.280e+00,5.514e+00,4.906e+00,5.981e+00,4.806e+00,4.482e+00,3.925e+00,3.805e+00,5.160e+00,5.564e+00,5.036e+00,4.986e+00
3.754e-02,3.914e-01,6.340e-01,1.071e+00,6.991e-01,1.323e+00,1.075e+00,1.357e+00,1.654e+00,1.549e+00,1.734e+00,2.630e+00,2.812e+00,3.255e+00,3.757e+00,3.391e+00,3.063e+00,3.390e+00,4.093e+00,3.310e+00,3.779e+00,3.351e+00,4.210e+00,3.715e+00,3.201e+00,3.450e+00,2.544e+00,3.170e+00,4.109e+00,2.911e+00,3.430e+00,3.377e+00,4.363e+00,3.117e+00,4.334e+00,3.486e+00,3.200e+00,4.258e+00,3.454e+00,6.128e+00,3.466e+00,4.595e+00,3.127e+00,4.032e+00,4.058e+00,4.412e+00,4.438e+00,3.951e+00,2.719e+00,3.920e+00,3.936e+00,4.556e+00,3.931e+00,4.019e+00,3.904e+00,3.262e+00,3.895e+00,4.351e+00,4.173e+00,3.967e+00
7.183e-03,2.948e-01,8.616e-01,9.428e-01,6.403e-01,1.742e+00,1.253e+00,1.482e+00,2.053e+00,1.456e+00,1.256e+00,2.707e+00,2.314e+00,3.123e+00,4.034e+00,3.189e+00,2.674e+00,3.167e+00,3.848e+00,3.813e+00,3.886e+00,3.325e+00,2.881e+00,2.984e+00,3.509e+00,3.189e+00,3.880e+00,3.895e+00,3.370e+00,5.017e+00,3.086e+00,3.302e+00,4.014e+00,4.489e+00,3.362e+00,3.119e+00,3.115e+00,3.376e+00,3.684e+00,5.413e+00,4.564e+00,4.914e+00,3.265e+00,5.287e+00,4.319e+00,3.865e+00,4.772e+00,3.326e+00,2.776e+00,4.779e+00,3.251e+00,4.202e+00,4.868e+00,4.238e+00,3.132e+00,3.187e+00,3.882e+00,3.793e+00,4.191e+00,3.218e+00
9.932e-02,8.071e-01,5.496e-01,1.728e+00,9.920e-01,2.140e+00,1.342e+00,1.771e+00,2.402e+00,1.955e+00,2.230e+00,3.062e+00,3.768e+00,4.515e+00,5.526e+00,4.388e+00,3.182e+00,3.976e+00,5.579e+00,4.989e+00,5.659e+00,5.182e+00,4.005e+00,4.300e+00,4.149e+00,4.412e+00,4.421e+00,5.273e+00,5.698e+00,4.820e+00,5.204e+00,3.911e+00,4.793e+00,5.253e+00,5.312e+00,4.228e+00,4.063e+00,6.327e+00,4.860e+00,7.088e+00,4.556e+00,6.099e+00,4.888e+00,5.094e+00,6.062e+00,5.773e+00,5.649e+00,4.781e+00,4.091e+00,5.020e+00,5.399e+00,6.344e+00,5.144e+00,6.241e+00,4.434e+00,4.396e+00,4.767e+00,5.049e+00,5.491e+00,4.789e+00
6.114e-02,2.461e-01,9.140e-01,1.430e+00,1.561e+00,2.836e+00,1.519e+00,2.016e+00,2.476e+00,2.435e+00,2.620e+00,4.060e+00,3.950e+00,4.710e+00,5.519e+00,4.286e+00,3.724e+00,3.891e+00,5.295e+00,6.080e+00,4.962e+00,5.277e+00,5.113e+00,4.520e+00,5.080e+00,4.715e+00,6.201e+00,4.711e+00,6.403e+00,5.681e+00,4.720e+00,4.787e+00,5.539e+00,5.801e+00,5.786e+00,5.231e+00,4.720e+00,5.378e+00,5.766e+00,8.630e+00,5.085e+00,6.671e+00,5.895e+00,6.807e+00,7.357e+00,5.056e+00,6.608e+00,6.026e+00,4.772e+00,6.148e+00,5.590e+00,6.833e+00,6.356e+00,6.460e+00,5.791e+00,5.725e+00,6.135e+00,6.486e+00,6.407e+00,5.614e+00
8.767e-02,6.381e-01,7.189e-01,1.772e+00,1.465e+00,2.526e+00,1.398e+00,1.811e+00,1.477e+00,1.935e+00,2.486e+00,2.993e+00,3.656e+00,4.772e+00,4.614e+00,3.518e+00,3.916e+00,3.628e+00,4.937e+00,4.039e+00,5.713e+00,4.860e+00,5.878e+00,4.677e+00,5.340e+00,4.763e+00,4.841e+00,5.146e+00,6.432e+00,4.789e+00,4.384e+00,5.535e+00,6.240e+00,4.245e+00,6.263e+00,4.759e+00,4.802e+00,6.076e+00,5.244e+00,7.834e+00,4.779e+00,7.475e+00,5.235e+00,6.400e+00,6.316e+00,5.774e+00,5.719e+00,5.738e+00,4.703e+00,5.887e+00,5.574e+00,5.871e+00,6.171e+00,6.882e+00,5.064e+00,5.597e+00,4.628e+00,5.863e+00,6.076e+00,4.957e+00
7.834e-02,1.383e-01,5.266e-01,1.001e+00,8.955e-01,1.911e+00,1.044e+00,1.464e+00,2.146e+00,1.884e+00,1.808e+00,3.570e+00,3.413e+00,4.481e+00,5.187e+00,4.800e+00,3.342e+00,3.413e+00,4.913e+00,5.663e+00,5.870e+00,5.943e+00,5.940e+00,4.575e+00,5.366e+00,5.243e+00,5.161e+00,5.981e+00,6.304e+00,6.296e+00,5.765e+00,5.239e+00,6.360e+00,5.706e+00,5.535e+00,5.278e+00,5.806e+00,6.799e+00,5.499e+00,8.708e+00,6.040e+00,7.175e+00,5.044e+00,6.723e+00,6.325e+00,7.197e+00,6.798e+00,5.918e+00,4.988e+00,5.801e+00,6.534e+00,5.879e+00,6.106e+00,6.402e+00,4.350e+00,5.493e+00,6.148e+00,6.466e+00,5.982e+00,5.516e+00
2.750e-02,5.940e-01,1.050e+00,1.446e+00,5.858e-01,1.599e+00,1.565e+00,1.463e+00,1.813e+00,1.541e+00,1.318e+00,1.980e+00,2.288e+00,2.890e+00,3.352e+00,2.898e+00,3.502e+00,3.442e+00,4.831e+00,4.451e+00,4.653e+00,4.947e+00,4.771e+00,4.871e+00,5.007e+00,4.298e+00,4.622e+00,5.404e+00,5.461e+00,4.918e+00,3.768e+00,5.061e+00,6.315e+00,5.031e+00,5.011e+00,4.972e+00,4.895e+00,4.489e+00,4.916e+00,7.617e+00,4.962e+00,6.691e+00,4.633e+00,6.427e+00,6.067e+00,4.984e+00,5.965e+00,4.816e+00,4.592e+00,5.311e+00,4.962e+00,6.248e+00,5.898e+00,5.517e+00,5.958e+00,5.382e+00,6.032e+00,5.415e+00,6.431e+00,5.263e+00
8.605e-02,7.495e-01,8.371e-01,1.905e+00,1.405e+00,2.456e+00,1.607e+00,1.895e+00,2.447e+00,2.282e+00,2.628e+00,3.672e+00,3.807e+00,4.931e+00,5.443e+00,4.547e+00,4.556e+00,4.198e+00,4.895e+00,5.261e+00,6.054e+00,5.775e+00,5.186e+00,5.930e+00,5.296e+00,5.330e+00,5.668e+00,5.887e+00,5.869e+00,5.798e+00,5.127e+00,5.361e+00,5.734e+00,5.525e+00,6.926e+00,6.463e+00,4.466e+00,6.292e+00,5.437e+00,8.332e+00,5.889e+00,7.756e+00,6.039e+00,6.852e+00,7.251e+00,6.015e+00,7.264e+00,6.201e+00,4.562e+00,6.064e+00,6.612e+00,7.022e+00,5.732e+00,6.938e+00,6.688e+00,6.490e+00,6.366e+00,6.033e+00,6.404e+00,5.826e+00
3.050e-02,4.268e-01,8.988e-01,1.332e+00,1.089e+00,2.139e+00,1.367e+00,1.721e+00,2.195e+00,1.866e+00,1.891e+00,2.586e+00,3.164e+00,3.993e+00,4.193e+00,3.324e+00,2.810e+00,3.117e+00,4.846e+00,4.682e+00,4.974e+00,4.323e+00,4.125e+00,4.309e+00,4.908e+00,5.414e+00,5.627e+00,6.167e+00,6.049e+00,5.425e+00,4.842e+00,4.912e+00,5.531e+00,5.243e+00,5.442e+00,5.024e+00,5.331e+00,6.137e+00,4.829e+00,6.974e+00,5.480e+00,7.286e+00,5.800e+00,6.574e+00,7.065e+00,5.286e+00,6.378e+00,6.066e+00,4.843e+00,5.683e+00,5.719e+00,6.518e+00,6.404e+00,5.734e+00,6.396e+00,4.821e+00,5.377e+00,6.258e+00,6.536e+00,5.650e+00
7.390e-02,6.806e-01,8.450e-01,1.717e+00,9.918e-01,2.159e+00,1.544e+00,1.924e+00,2.282e+00,2.067e+00,2.542e+00,3.567e+00,3.910e+00,4.915e+00,5.567e+00,4.558e+00,4.540e+00,4.244e+00,5.134e+00,4.764e+00,5.685e+00,5.493e+00,5.747e+00,6.021e+00,5.979e+00,6.976e+00,5.582e+00,7.676e+00,6.604e+00,6.946e+00,5.915e+00,7.591e+00,7.815e+00,6.110e+00,7.965e+00,6.274e+00,5.964e+00,7.349e+00,6.823e+00,9.421e+00,7.202e+00,9.122e+00,6.964e+00,8.185e+00,7.511e+00,7.825e+00,8.178e+00,6.534e+00,5.781e+00,7.166e+00,7.557e+00,7.226e+00,7.907e+00,8.237e+00,7.323e+00,6.515e+00,6.624e+00,7.151e+00,7.615e+00,7.620e+00
3.061e-03,1.525e-01,7.250e-01,7.211e-01,7.117e-01,1.441e+00,1.054e+00,1.495e+00,2.592e+00,1.765e+00,1.607e+00,3.242e+00,2.955e+00,3.701e+00,4.598e+00,4.130e+00,3.304e+00,3.519e+00,4.726e+00,6.113e+00,5.885e+00,5.864e+00,5.229e+00,5.522e+00,5.410e+00,6.084e+00,7.273e+00,7.223e+00,7.147e+00,8.065e+00,6.102e+00,6.799e+00,7.696e+00,7.494e+00,6.815e+00,7.122e+00,6.639e+00,6.451e+00,7.247e+00,1.002e+01,8.183e+00,7.940e+00,7.029e+00,8.706e+00,7.872e+00,7.696e+00,8.452e+00,7.355e+00,7.280e+00,6.650e+00,7.120e+00,7.663e+00,6.921e+00,7.892e+00,7.137e+00,6.822e+00,8.620e+00,7.056e+00,8.178e+00,7.591e+00
6.533e-02,2.776e-01,9.295e-01,1.516e+00,1.864e+00,3.137e+00,1.561e+00,2.225e+00,2.628e+00,2.612e+00,2.767e+00,4.723e+00,4.352e+00,5.713e+00,6.300e+00,5.272e+00,3.972e+00,4.653e+00,6.006e+00,5.975e+00,6.590e+00,5.845e+00,6.148e+00,5.800e+00,5.827e+00,7.168e+00,7.143e+00,8.249e+00,9.073e+00,8.808e+00,7.057e+00,7.498e+00,8.197e+00,7.685e+00,7.966e+00,6.751e+00,8.068e+00,8.515e+00,7.173e+00,1.029e+01,8.883e+00,1.012e+01,8.302e+00,9.095e+00,9.553e+00,8.656e+00,9.463e+00,8.299e+00,6.371e+00,7.882e+00,7.499e+00,8.908e+00,8.707e+00,8.924e+00,7.487e+00,7.113e+00,7.478e+00,8.290e+00,7.760e+00,7.088e+00
2.581e-02,2.439e-01,2.617e-01,5.447e-01,2.146e-01,5.941e-01,5.295e-01,6.643e-01,1.539e+00,9.312e-01,9.597e-01,1.622e+00,1.609e+00,2.090e+00,3.035e+00,2.562e+00,2.826e+00,2.739e+00,2.978e+00,3.164e+00,3.779e+00,4.351e+00,3.579e+00,3.713e+00,3.503e+00,3.853e+00,3.491e+00,4.991e+00,5.198e+00,5.196e+00,4.216e+00,4.858e+00,5.578e+00,3.951e+00,5.162e+00,4.648e+00,4.777e+00,4.640e+00,4.420e+00,6.787e+00,4.642e+00,6.447e+00,4.402e+00,5.675e+00,5.469e+00,4.881e+00,6.025e+00,4.637e+00,4.832e+00,4.589e+00,5.100e+00,5.172e+00,5.208e+00,6.975e+00,5.339e+00,5.227e+00,5.660e+00,4.355e+00,5.021e+00,5.385e+00
9.068e-02,7.670e-01,4.205e-01,1.531e+00,6.985e-01,1.629e+00,1.125e+00,1.526e+00,1.958e+00,1.594e+00,2.158e+00,2.461e+00,2.999e+00,3.379e+00,4.342e+00,3.528e+00,3.383e+00,3.072e+00,4.056e+00,5.094e+00,5.264e+00,5.536e+00,4.709e+00,5.076e+00,5.312e+00,5.577e+00,5.137e+00,6.423e+00,6.284e+00,6.269e+00,5.329e+00,7.064e+00,7.282e+00,6.477e+00,7.575e+00,6.788e+00,6.722e+00,6.654e+00,6.659e+00,9.441e+00,6.379e+00,7.533e+00,6.539e+00,6.983e+00,7.154e+00,7.835e+00,7.315e+00,5.691e+00,6.767e+00,7.092e+00,8.290e+00,7.196e+00,6.355e+00,6.993e+00,7.257e+00,7.600e+00,7.574e+00,6.427e+00,7.097e+00,7.700e+00
2.231e-02,2.662e-01,5.902e-01,1.000e+00,1.470e+00,1.973e+00,9.533e-01,1.292e+00,1.404e+00,1.541e+00,1.714e+00,2.487e+00,2.084e+00,3.101e+00,2.861e+00,2.931e+00,3.117e+00,2.385e+00,4.098e+00,4.992e+00,4.622e+00,4.846e+00,3.921e+00,4.750e+00,5.051e+00,5.289e+00,6.916e+00,6.754e+00,7.760e+00,6.811e+00,5.696e+00,7.045e+00,7.952e+00,7.138e+00,8.530e+00,7.625e+00,8.903e+00,7.046e+00,7.421e+00,1.017e+01,7.338e+00,9.270e+00,7.575e+00,8.157e+00,9.022e+00,7.437e+00,8.983e+00,8.059e+00,9.346e+00,6.844e+00,8.910e+00,7.691e+00,7.486e+00,7.940e+00,8.507e+00,7.926e+00,8.005e+00,7.231e+00,6.674e+00,8.023e+00
1.019e-01,2.260e-01,1.754e-01,1.003e+00,1.091e+00,1.697e+00,7.567e-01,1.410e+00,1.865e+00,1.858e+00,2.091e+00,2.992e+00,2.833e+00,3.654e+00,4.060e+00,4.202e+00,3.986e+00,3.180e+00,4.662e+00,5.327e+00,5.638e+00,5.708e+00,5.338e+00,5.163e+00,5.094e+00,5.801e+00,5.546e+00,6.463e+00,8.919e+00,7.797e+00,6.629e+00,9.002e+00,8.384e+00,8.323e+00,8.256e+00,7.213e+00,9.010e+00,8.899e+00,7.859e+00,1.087e+01,8.400e+00,1.054e+01,8.240e+00,8.478e+00,8.696e+00,8.894e+00,9.393e+00,8.065e+00,9.544e+00,6.842e+00,9.334e+00,9.162e+00,7.231e+00,9.916e+00,7.968e+00,7.836e+00,8.347e+00,7.123e+00,7.814e+00,7.628e+00
4.081e-02,6.727e-01,4.377e-01,1.269e+00,1.017e+00,1.829e+00,9.888e-01,1.700e+00,2.237e+00,1.628e+00,2.372e+00,2.792e+00,3.080e+00,3.421e+00,4.660e+00,3.205e+00,2.816e+00,3.375e+00,3.384e+00,3.577e+00,4.708e+00,4.348e+00,3.654e+00,4.048e+00,4.486e+00,4.693e+00,4.207e+00,5.398e+00,5.762e+00,6.110e+00,4.937e+00,6.315e+00,6.218e+00,6.895e+00,6.984e+00,5.810e+00,6.971e+00,7.539e+00,6.453e+00,8.439e+00,6.778e+00,8.539e+00,6.039e+00,7.089e+00,7.411e+00,7.621e+00,7.529e+00,6.719e+00,6.003e+00,7.467e+00,7.686e+00,7.726e+00,6.382e+00,7.283e+00,6.912e+00,6.722e+00,6.690e+00,7.167e+00,5.935e+00,7.037e+00
5.221e-02,5.731e-01,1.039e+00,1.666e+00,1.087e+00,1.983e+00,1.598e+00,1.415e+00,1.347e+00,1.727e+00,1.746e+00,2.753e+00,2.866e+00,3.839e+00,3.728e+00,3.016e+00,2.750e+00,2.890e+00,3.625e+00,3.135e+00,3.802e+00,4.240e+00,4.517e+00,4.338e+00,4.590e+00,4.571e+00,4.516e+00,6.207e+00,6.590e+00,5.479e+00,4.581e+00,7.313e+00,6.410e+00,6.060e+00,7.154e+00,6.431e+00,7.107e+00,6.443e+00,5.804e+00,8.062e+00,5.935e+00,8.832e+00,6.140e+00,7.160e+00,6.645e+00,7.192e+00,7.938e+00,7.116e+00,5.905e+00,6.451e+00,6.275e+00,5.977e+00,7.680e+00,6.968e+00,7.007e+00,6.379e+00,5.963e+00,6.571e+00,6.301e+00,7.105e+00
6.295e-02,6.120e-01,8.103e-01,1.475e+00,4.628e-01,1.415e+00,1.388e+00,1.295e+00,2.105e+00,1.649e+00,1.602e+00,2.374e+00,2.899e+00,3.709e+00,4.583e+00,4.188e+00,4.431e+00,4.238e+00,5.393e+00,5.526e+00,5.510e+00,5.783e+00,4.871e+00,5.669e+00,4.839e+00,5.218e+00,5.983e+00,6.783e+00,6.466e+00,6.549e+00,5.586e+00,7.347e+00,8.182e+00,8.610e+00,8.867e+00,8.983e+00,9.337e+00,9.112e+00,8.531e+00,1.103e+01,9.071e+00,1.095e+01,7.927e+00,9.470e+00,1.012e+01,8.531e+00,1.104e+01,7.607e+00,9.416e+00,8.481e+00,9.228e+00,1.062e+01,9.742e+00,9.750e+00,9.446e+00,8.486e+00,8.701e+00,8.244e+00,8.582e+00,8.789e+00
3.298e-02,4.111e-01,8.006e-01,1.224e+00,1.158e+00,2.278e+00,1.346e+00,2.003e+00,2.822e+00,2.097e+00,2.140e+00,3.430e+00,3.279e+00,4.441e+00,5.260e+00,4.324e+00,3.493e+00,3.187e+00,5.265e+00,5.808e+00,6.013e+00,5.357e+00,4.440e+00,5.198e+00,5.484e+00,5.101e+00,6.759e+00,7.697e+00,8.068e+00,7.747e+00,6.411e+00,7.696e+00,8.417e+00,8.848e+00,8.838e+00,9.041e+00,9.725e+00,9.922e+00,8.458e+00,1.268e+01,9.832e+00,1.229e+01,7.898e+00,1.043e+01,9.482e+00,1.004e+01,1.115e+01,9.238e+00,9.768e+00,9.284e+00,1.045e+01,1.006e+01,1.009e+01,1.009e+01,9.206e+00,9.267e+00,8.581e+00,9.296e+00,8.493e+00,9.848e+00
1.940e-03,5.189e-01,8.166e-01,1.132e+00,9.053e-01,1.677e+00,1.266e+00,1.588e+00,2.274e+00,1.628e+00,1.799e+00,3.257e+00,2.781e+00,3.403e+00,4.519e+00,3.945e+00,3.671e+00,4.240e+00,4.644e+00,5.083e+00,6.110e+00,6.066e+00,4.884e+00,5.509e+00,6.019e+00,5.677e+00,5.763e+00,6.671e+00,7.106e+00,8.030e+00,5.859e+00,7.617e+00,8.055e+00,7.990e+00,7.422e+00,8.566e+00,8.667e+00,8.598e+00,8.415e+00,1.110e+01,9.218e+00,1.080e+01,7.945e+00,1.052e+01,9.092e+00,9.445e+00,1.166e+01,8.916e+00,7.825e+00,8.664e+00,1.001e+01,9.332e+00,9.266e+00,8.899e+00,8.972e+00,9.414e+00,1.036e+01,8.963e+00,9.553e+00,8.992e+00
2.071e-03,4.308e-01,3.506e-01,7.240e-01,6.589e-01,1.348e+00,6.567e-01,1.296e+00,1.188e+00,8.687e-01,1.458e+00,1.871e+00,2.114e+00,2.450e+00,3.164e+00,2.191e+00,2.684e+00,3.153e+00,4.542e+00,3.201e+00,4.312e+00,3.912e+00,3.788e+00,4.673e+00,4.021e+00,5.236e+00,4.654e+00,6.195e+00,7.095e+00,5.726e+00,4.770e+00,6.262e+00,7.725e+00,6.082e+00,7.192e+00,7.310e+00,8.332e+00,8.377e+00,8.317e+00,1.063e+01,8.007e+00,1.063e+01,7.978e+00,8.518e+00,9.163e+00,8.441e+00,1.089e+01,7.109e+00,8.068e+00,7.446e+00,8.926e+00,9.425e+00,9.893e+00,9.638e+00,9.301e+00,8.160e+00,7.827e+00,7.864e+00,9.070e+00,8.383e+00
5.112e-02,1.218e-01,3.171e-01,6.602e-01,3.765e-01,1.232e+00,6.795e-01,1.021e+00,1.392e+00,1.183e+00,1.490e+00,2.372e+00,2.743e+00,2.719e+00,3.964e+00,3.297e+00,3.396e+00,3.852e+00,4.921e+00,4.603e+00,4.470e+00,5.411e+00,5.059e+00,5.200e+00,5.036e+00,6.294e+00,5.945e+00,5.675e+00,7.224e+00,6.459e+00,6.120e+00,6.145e+00,6.457e+00,7.126e+00,7.847e+00,8.302e+00,8.201e+00,9.139e+00,9.724e+00,1.161e+01,8.259e+00,1.107e+01,8.969e+00,9.326e+00,1.024e+01,9.715e+00,1.153e+01,9.001e+00,9.442e+00,7.742e+00,9.680e+00,9.379e+00,9.918e+00,1.061e+01,8.713e+00,9.965e+00,9.438e+00,9.019e+00,9.929e+00,8.705e+00
2.342e-03,1.124e-01,2.654e-01,4.889e-01,1.290e+00,1.927e+00,5.497e-01,1.548e+00,1.917e+00,1.450e+00,2.068e+00,3.430e+00,2.716e+00,3.576e+00,4.715e+00,3.666e+00,3.323e+00,3.399e+00,3.524e+00,4.717e+00,5.612e+00,5.364e+00,5.453e+00,5.385e+00,5.729e+00,6.492e+00,6.473e+00,7.586e+00,8.389e+00,8.833e+00,5.872e+00,8.918e+00,9.972e+00,8.623e+00,9.138e+00,8.581e+00,1.126e+01,1.001e+01,1.065e+01,1.406e+01,1.166e+01,1.347e+01,1.036e+01,1.175e+01,1.160e+01,1.098e+01,1.362e+01,1.053e+01,1.139e+01,9.283e+00,1.148e+01,1.254e+01,1.079e+01,1.263e+01,9.546e+00,1.097e+01,1.111e+01,1.066e+01,1.057e+01,1.108e+01
4.786e-02,1.428e-01,3.303e-01,7.865e-01,1.202e+00,2.146e+00,7.973e-01,1.694e+00,2.034e+00,1.752e+00,2.213e+00,3.467e+00,3.183e+00,3.428e+00,4.661e+00,3.882e+00,3.758e+00,4.428e+00,5.838e+00,5.261e+00,5.685e+00,5.632e+00,5.256e+00,5.601e+00,5.697e+00,6.403e+00,6.336e+00,5.697e+00,8.750e+00,7.744e+00,6.647e+00,7.513e+00,7.694e+00,8.862e+00,7.836e+00,8.701e+00,9.649e+00,9.452e+00,9.711e+00,1.265e+01,1.031e+01,1.226e+01,1.019e+01,1.056e+01,1.152e+01,1.063e+01,1.310e+01,1.076e+01,1.067e+01,8.326e+00,1.059e+01,1.132e+01,1.053e+01,1.172e+01,8.953e+00,9.432e+00,1.044e+01,9.729e+00,1.155e+01,1.010e+01
4.923e-02,3.348e-01,7.401e-01,1.221e+00,1.204e+00,1.939e+00,1.249e+00,1.401e+00,2.201e+00,1.919e+00,1.627e+00,2.978e+00,2.651e+00,3.847e+00,3.877e+00,3.865e+00,3.358e+00,3.042e+00,5.056e+00,5.083e+00,5.303e+00,5.407e+00,4.303e+00,4.549e+00,5.922e+00,4.907e+00,5.534e+00,7.015e+00,7.419e+00,6.733e+00,5.782e+00,6.961e+00,7.655e+00,8.886e+00,7.598e+00,8.482e+00,9.028e+00,9.175e+00,9.568e+00,1.250e+01,9.583e+00,1.287e+01,9.033e+00,1.204e+01,1.202e+01,1.069e+01,1.315e+01,1.120e+01,1.008e+01,8.841e+00,1.098e+01,1.204e+01,1.117e+01,1.138e+01,1.005e+01,1.098e+01,1.118e+01,1.161e+01,1.148e+01,1.121e+01
3.060e-03,1.725e-01,8.797e-01,9.794e-01,1.114e+00,1.851e+00,1.169e+00,1.310e+00,1.579e+00,1.594e+00,1.667e+00,2.773e+00,2.645e+00,3.323e+00,3.524e+00,3.217e+00,3.442e+00,3.956e+00,4.813e+00,4.438e+00,4.702e+00,5.310e+00,5.359e+00,3.958e+00,5.750e+00,5.534e+00,5.730e+00,5.904e+00,7.201e+00,7.260e+00,5.686e+00,6.907e+00,7.687e+00,7.024e+00,6.377e+00,6.985e+00,7.340e+00,7.625e+00,9.233e+00,1.132e+01,8.810e+00,1.134e+01,7.668e+00,1.072e+01,1.092e+01,9.629e+00,1.205e+01,1.081e+01,8.503e+00,7.842e+00,9.813e+00,9.901e+00,9.790e+00,1.067e+01,8.742e+00,1.020e+01,1.117e+01,1.095e+01,1.129e+01,1.014e+01
1.206e-03,4.229e-01,6.726e-01,9.969e-01,1.099e+00,1.773e+00,1.067e+00,1.547e+00,2.388e+00,1.691e+00,1.818e+00,2.925e+00,2.785e+00,3.620e+00,4.437e+00,3.790e+00,3.691e+00,4.155e+00,4.852e+00,5.442e+00,6.068e+00,6.007e+00,5.280e+00,5.283e+00,5.769e+00,6.048e+00,6.518e+00,6.791e+00,8.168e+00,7.668e+00,6.073e+00,7.376e+00,8.383e+00,7.856e+00,8.560e+00,9.235e+00,1.014e+01,9.606e+00,8.390e+00,1.309e+01,1.026e+01,1.272e+01,9.357e+00,1.238e+01,1.254e+01,1.069e+01,1.370e+01,1.266e+01,1.134e+01,9.784e+00,1.251e+01,1.327e+01,1.057e+01,1.274e+01,1.161e+01,1.214e+01,1.259e+01,1.156e+01,1.190e+01,1.307e+01
2.933e-02,1.780e-01,2.040e-01,6.285e-01,1.006e+00,1.400e+00,4.593e-01,9.042e-01,9.705e-01,1.014e+00,1.497e+00,2.285e+00,2.116e+00,3.278e+00,3.377e+00,2.946e+00,3.793e+00,2.968e+00,3.860e+00,3.778e+00,5.082e+00,4.867e+00,4.569e+00,5.120e+00,4.414e+00,4.490e+00,6.003e+00,5.515e+00,6.326e+00,5.687e+00,4.624e+00,5.659e+00,7.276e+00,6.273e+00,7.696e+00,6.810e+00,7.655e+00,7.495e+00,8.774e+00,9.611e+00,8.464e+00,1.116e+01,9.268e+00,1.092e+01,1.076e+01,9.571e+00,1.159e+01,1.042e+01,1.022e+01,9.925e+00,9.363e+00,1.014e+01,9.423e+00,1.261e+01,1.003e+01,1.094e+01,1.067e+01,1.030e+01,9.350e+00,1.048e+01
7.010e-02,6.048e-01,9.660e-01,1.675e+00,9.084e-01,2.255e+00,1.696e+00,2.146e+00,2.895e+00,2.365e+00,2.609e+00,3.917e+00,4.099e+00,4.488e+00,6.192e+00,4.618e+00,3.506e+00,4.339e+00,5.200e+00,5.697e+00,6.040e+00,5.810e+00,5.898e+00,6.225e+00,5.323e+00,6.552e+00,5.594e+00,7.875e+00,8.019e+00,7.276e+00,6.426e+00,8.612e+00,8.254e+00,8.322e+00,9.669e+00,8.637e+00,9.857e+00,9.899e+00,9.526e+00,1.229e+01,9.840e+00,1.208e+01,9.961e+00,1.099e+01,1.174e+01,1.261e+01,1.390e+01,1.101e+01,9.578e+00,1.130e+01,1.316e+01,1.369e+01,1.276e+01,1.310e+01,1.115e+01,1.306e+01,1.107e+01,1.263e+01,1.239e+01,1.494e+01
5.255e-02,1.553e-01,8.792e-01,1.309e+00,1.841e+00,2.717e+00,1.410e+00,2.012e+00,2.410e+00,2.566e+00,2.616e+00,4.651e+00,4.275e+00,5.702e+00,5.615e+00,5.272e+00,4.072e+00,4.484e+00,6.461e+00,6.179e+00,7.056e+00,6.709e+00,7.246e+00,5.981e+00,6.812e+00,7.086e+00,6.942e+00,7.829e+00,9.728e+00,7.847e+00,7.574e+00,8.097e+00,9.281e+00,8.607e+00,9.831e+00,9.016e+00,1.130e+01,1.134e+01,1.008e+01,1.347e+01,1.041e+01,1.351e+01,1.041e+01,1.228e+01,1.242e+01,1.251e+01,1.451e+01,1.396e+01,1.099e+01,1.139e+01,1.333e+01,1.274e+01,1.265e+01,1.316e+01,1.113e+01,1.204e+01,1.206e+01,1.411e+01,1.271e+01,1.307e+01
1.642e-03,2.509e-01,9.088e-01,1.106e+00,1.672e+00,2.482e+00,1.335e+00,2.078e+00,2.589e+00,2.250e+00,2.520e+00,4.216e+00,3.375e+00,4.452e+00,5.035e+00,4.218e+00,3.405e+00,3.197e+00,3.900e+00,5.395e+00,6.001e+00,5.758e+00,5.727e+00,6.092e+00,6.117e+00,5.652e+00,6.672e+00,7.242e+00,8.132e+00,7.818e+00,5.975e+00,9.179e+00,8.652e+00,8.629e+00,8.808e+00,9.421e+00,9.827e+00,9.647e+00,9.128e+00,1.306e+01,1.102e+01,1.344e+01,9.545e+00,1.222e+01,1.183e+01,1.188e+01,1.394e+01,1.370e+01,1.168e+01,1.121e+01,1.315e+01,1.409e+01,1.072e+01,1.273e+01,1.168e+01,1.390e+01,1.282e+01,1.361e+01,1.249e+01,1.361e+01
2.803e-02,6.039e-01,4.471e-01,1.187e+00,1.067e+00,1.764e+00,8.651e-01,1.505e+00,1.709e+00,1.361e+00,2.055e+00,1.568e+00,2.374e+00,3.014e+00,3.418e+00,2.450e+00,3.669e+00,2.804e+00,3.902e+00,3.794e+00,5.111e+00,4.851e+00,5.061e+00,5.004e+00,5.505e+00,5.923e+00,5.594e+00,7.418e+00,8.097e+00,7.121e+00,5.768e+00,9.235e+00,9.991e+00,7.828e+00,9.267e+00,9.124e+00,9.857e+00,9.570e+00,9.728e+00,1.306e+01,1.060e+01,1.340e+01,9.929e+00,1.178e+01,1.215e+01,1.189e+01,1.418e+01,1.247e+01,1.319e+01,1.106e+01,1.374e+01,1.363e+01,1.148e+01,1.351e+01,1.310e+01,1.371e+01,1.245e+01,1.286e+01,1.259e+01,1.424e+01
8.573e-02,8.228e-01,5.376e-01,1.645e+00,6.946e-01,1.964e+00,1.264e+00,1.857e+00,2.108e+00,1.656e+00,2.342e+00,2.507e+00,3.409e+00,3.975e+00,4.909e+00,3.414e+00,4.315e+00,3.834e+00,5.258e+00,4.803e+00,6.409e+00,6.641e+00,6.051e+00,5.789e+00,5.654e+00,5.581e+00,4.918e+00,6.518e+00,7.471e+00,6.639e+00,5.883e+00,7.717e+00,7.810e+00,7.553e+00,8.813e+00,8.909e+00,8.139e+00,1.014e+01,9.025e+00,1.204e+01,9.470e+00,1.252e+01,8.767e+00,1.031e+01,1.074e+01,1.147e+01,1.285e+01,1.057e+01,1.114e+01,1.186e+01,1.396e+01,1.448e+01,1.174e+01,1.408e+01,1.315e+01,1.439e+01,1.214e+01,1.212e+01,1.246e+01,1.311e+01
1.996e-02,8.306e-02,5.723e-01,6.171e-01,4.082e-01,1.083e+00,8.203e-01,9.330e-01,1.444e+00,1.149e+00,9.193e-01,1.777e+00,1.887e+00,2.738e+00,2.907e+00,3.048e+00,2.948e+00,2.421e+00,4.012e+00,4.988e+00,4.037e+00,3.940e+00,3.985e+00,3.664e+00,4.321e+00,5.307e+00,6.478e+00,6.589e+00,7.156e+00,7.239e+00,5.403e+00,7.546e+00,8.373e+00,7.822e+00,7.932e+00,7.818e+00,9.162e+00,7.843e+00,8.428e+00,1.137e+01,9.578e+00,1.043e+01,8.507e+00,1.133e+01,1.074e+01,9.585e+00,1.198e+01,1.034e+01,1.239e+01,9.631e+00,1.271e+01,1.237e+01,1.130e+01,1.306e+01,1.157e+01,1.209e+01,1.201e+01,1.128e+01,1.133e+01,1.315e+01
9.749e-02,7.840e-01,5.047e-01,1.791e+00,1.442e+00,2.241e+00,1.247e+00,1.649e+00,1.960e+00,1.964e+00,2.610e+00,3.049e+00,3.459e+00,4.599e+00,4.627e+00,4.458e+00,4.708e+00,3.736e+00,5.427e+00,5.639e+00,6.062e+00,5.941e+00,4.518e+00,4.576e+00,6.150e+00,5.461e+00,6.277e+00,6.717e+00,7.998e+00,7.785e+00,6.722e+00,8.012e+00,8.216e+00,8.452e+00,8.118e+00,7.989e+00,7.520e+00,8.908e+00,9.583e+00,1.233e+01,9.501e+00,1.217e+01,9.068e+00,1.152e+01,1.176e+01,1.143e+01,1.223e+01,1.179e+01,1.175e+01,1.023e+01,1.214e+01,1.280e+01,1.052e+01,1.423e+01,1.116e+01,1.243e+01,1.302e+01,1.264e+01,1.261e+01,1.304e+01
7.630e-02,4.506e-01,6.733e-01,1.307e+00,5.701e-01,1.615e+00,1.295e+00,1.490e+00,2.141e+00,1.782e+00,1.722e+00,2.945e+00,3.118e+00,3.943e+00,4.641e+00,4.551e+00,4.417e+00,4.213e+00,5.122e+00,5.061e+00,5.086e+00,5.211e+00,4.966e+00,4.977e+00,5.158e+00,5.913e+00,5.132e+00,5.797e+00,6.091e+00,6.727e+00,5.539e+00,6.635e+00,6.799e+00,8.567e+00,8.227e+00,8.282e+00,8.279e+00,1.001e+01,9.664e+00,1.174e+01,1.029e+01,1.223e+01,9.766e+00,1.161e+01,1.075e+01,1.189e+01,1.481e+01,1.150e+01,1.129e+01,1.094e+01,1.378e+01,1.499e+01,1.239e+01,1.481e+01,1.326e+01,1.491e+01,1.292e+01,1.418e+01,1.401e+01,1.471e+01
9.673e-02,5.409e-01,4.359e-01,1.360e+00,7.043e-01,1.900e+00,1.129e+00,1.483e+00,1.525e+00,1.490e+00,1.782e+00,2.776e+00,3.111e+00,3.832e+00,4.430e+00,3.925e+00,4.271e+00,3.956e+00,5.554e+00,4.963e+00,5.050e+00,5.949e+00,5.722e+00,5.590e+00,6.387e+00,7.771e+00,6.176e+00,7.514e+00,8.939e+00,8.074e+00,6.538e+00,8.626e+00,8.318e+00,8.994e+00,9.037e+00,9.285e+00,9.646e+00,1.054e+01,9.167e+00,1.391e+01,9.289e+00,1.337e+01,1.017e+01,1.242e+01,1.196e+01,1.195e+01,1.510e+01,1.227e+01,1.299e+01,1.044e+01,1.438e+01,1.414e+01,1.342e+01,1.495e+01,1.344e+01,1.472e+01,1.327e+01,1.355e+01,1.540e+01,1.435e+01
1.018e-02,5.657e-01,4.349e-01,9.775e-01,9.583e-01,1.854e+00,9.009e-01,1.678e+00,1.786e+00,1.258e+00,1.932e+00,2.444e+00,2.333e+00,2.365e+00,3.841e+00,2.273e+00,2.424e+00,2.719e+00,3.293e+00,3.248e+00,3.741e+00,4.277e+00,3.140e+00,5.112e+00,4.304e+00,4.909e+00,4.622e+00,5.575e+00,6.543e+00,5.943e+00,4.419e+00,7.142e+00,6.233e+00,7.545e+00,7.415e+00,7.434e+00,8.684e+00,8.198e+00,7.769e+00,1.046e+01,8.340e+00,1.159e+01,9.270e+00,9.257e+00,9.943e+00,9.768e+00,1.308e+01,1.126e+01,1.104e+01,1.030e+01,1.172e+01,1.324e+01,1.141e+01,1.198e+01,1.209e+01,1.377e+01,1.234e+01,1.241e+01,1.216e+01,1.362e+01
2.556e-02,2.885e-01,7.196e-01,9.316e-01,4.396e-01,1.266e+00,1.069e+00,1.021e+00,1.603e+00,1.230e+00,9.344e-01,1.534e+00,1.852e+00,2.594e+00,2.988e+00,2.697e+00,3.283e+00,2.637e+00,3.754e+00,3.965e+00,3.899e+00,4.147e+00,3.755e+00,4.216e+00,4.954e+00,4.780e+00,5.196e+00,6.165e+00,6.202e+00,6.561e+00,4.375e+00,6.395e+00,6.732e+00,7.575e+00,7.568e+00,6.947e+00,8.926e+00,6.926e+00,7.086e+00,9.511e+00,8.046e+00,1.028e+01,8.474e+00,1.040e+01,1.052e+01,8.093e+00,1.054e+01,9.770e+00,9.415e+00,9.356e+00,1.028e+01,1.111e+01,1.027e+01,1.192e+01,1.138e+01,1.241e+01,1.162e+01,1.169e+01,1.135e+01,1.265e+01
6.262e-02,1.371e-01,8.314e-01,1.257e+00,1.276e+00,2.271e+00,1.321e+00,1.661e+00,2.019e+00,2.163e+00,2.193e+00,2.691e+00,2.764e+00,3.023e+00,3.584e+00,2.919e+00,2.494e+00,2.493e+00,3.246e+00,4.789e+00,3.914e+00,4.500e+00,5.003e+00,3.413e+00,4.591e+00,5.108e+00,5.242e+00,5.413e+00,7.284e+00,6.720e+00,5.434e+00,7.651e+00,6.477e+00,7.080e+00,6.707e+00,6.313e+00,8.387e+00,7.684e+00,7.789e+00,1.005e+01,9.265e+00,1.075e+01,8.162e+00,9.493e+00,9.591e+00,1.033e+01,1.062e+01,1.160e+01,1.034e+01,8.934e+00,9.621e+00,1.216e+01,9.013e+00,1.228e+01,9.422e+00,1.230e+01,1.138e+01,1.223e+01,1.090e+01,1.337e+01
6.903e-02,1.306e-01,4.536e-01,9.197e-01,8.459e-01,1.708e+00,9.245e-01,1.394e+00,1.604e+00,1.691e+00,1.988e+00,3.600e+00,3.696e+00,4.621e+00,4.849e+00,4.443e+00,3.873e+00,3.916e+00,5.529e+00,5.114e+00,5.160e+00,5.224e+00,5.562e+00,5.370e+00,5.950e+00,6.554e+00,6.835e+00,6.850e+00,8.371e+00,7.486e+00,6.337e+00,8.389e+00,8.501e+00,9.234e+00,9.058e+00,8.438e+00,8.934e+00,9.433e+00,1.048e+01,1.218e+01,9.529e+00,1.224e+01,1.012e+01,1.192e+01,1.131e+01,1.089e+01,1.371e+01,1.179e+01,1.170e+01,1.107e+01,1.253e+01,1.288e+01,1.282e+01,1.471e+01,1.163e+01,1.334e+01,1.381e+01,1.415e+01,1.476e+01,1.547e+01
2.152e-02,1.003e-01,5.439e-01,7.661e-01,1.227e+00,2.009e+00,8.890e-01,1.526e+00,2.328e+00,1.837e+00,1.940e+00,3.471e+00,3.350e+00,4.213e+00,4.959e+00,4.394e+00,2.765e+00,3.799e+00,4.813e+00,5.764e+00,5.485e+00,4.434e+00,4.471e+00,4.562e+00,5.148e+00,6.950e+00,7.213e+00,6.930e+00,6.894e+00,7.178e+00,6.072e+00,5.836e+00,7.246e+00,7.778e+00,7.460e+00,6.901e+00,8.744e+00,9.050e+00,8.571e+00,1.092e+01,9.596e+00,1.085e+01,9.839e+00,1.140e+01,1.176e+01,9.933e+00,1.261e+01,1.242e+01,1.102e+01,1.024e+01,1.191e+01,1.388e+01,1.166e+01,1.315e+01,1.127e+01,1.283e+01,1.267e+01,1.425e+01,1.397e+01,1.514e+01
8.963e-02,5.080e-01,7.477e-01,1.504e+00,8.288e-01,1.926e+00,1.430e+00,1.624e+00,2.193e+00,1.976e+00,1.768e+00,2.959e+00,3.282e+00,4.275e+00,5.048e+00,4.398e+00,4.176e+00,3.710e+00,5.542e+00,5.001e+00,5.853e+00,5.739e+00,5.805e+00,7.163e+00,4.861e+00,6.157e+00,5.665e+00,7.852e+00,8.817e+00,6.726e+00,6.219e+00,8.064e+00,8.161e+00,7.374e+00,9.386e+00,9.971e+00,9.757e+00,9.996e+00,8.435e+00,1.311e+01,1.018e+01,1.277e+01,1.087e+01,1.117e+01,1.188e+01,1.136e+01,1.530e+01,1.290e+01,1.216e+01,1.071e+01,1.418e+01,1.567e+01,1.324e+01,1.574e+01,1.337e+01,1.567e+01,1.357e+01,1.499e+01,1.589e+01,1.728e+01
