1.489e-01,1.417e-01,3.671e-01,4.580e-01,2.728e-01,1.569e-01,1.862e-01,3.869e-02,3.167e-01,2.521e-01,2.489e-01,7.757e-01,6.785e-01,4.109e-02,9.076e-01,7.267e-01,6.299e-01,6.694e-01,3.335e-01,8.462e-01,1.581e-01,8.766e-01,9.002e-01,1.139e-01,1.252e-01,7.826e-01,1.063e-01,8.824e-01,4.413e-01,6.652e-01,8.462e-01,3.216e-01,7.869e-01,1.946e-01,4.294e-01,6.029e-01,3.375e-01,8.767e-01,6.818e-01,3.010e-01,8.021e-01,4.406e-03,8.667e-01,7.116e-01,1.033e-02,1.350e-01,3.164e-02,3.523e-02,4.676e-01,4.494e-01,1.327e-01,3.043e-01,6.737e-01,6.974e-01,6.894e-01,4.563e-01,5.841e-01,5.467e-01,5.134e-01,4.836e-01,3.451e-01,2.353e-01,8.518e-01,3.231e-01,2.597e-01,2.116e-02,7.661e-01,5.845e-01,4.888e-01,1.449e-01,7.179e-01,8.644e-01,9.371e-01,8.608e-01
2.391e-02,9.090e-01,4.900e-01,5.111e-01,1.592e-01,7.587e-01,5.355e-01,8.824e-01,4.823e-01,9.173e-01,1.737e-01,1.027e+00,7.299e-01,2.394e-02,5.224e-01,7.435e-01,2.776e-01,1.476e-01,9.888e-01,5.977e-01,1.586e-01,7.699e-01,4.122e-01,1.147e-01,9.319e-01,8.369e-01,3.660e-01,6.107e-01,9.107e-01,1.610e-01,6.414e-01,8.914e-01,2.158e-01,3.964e-01,7.140e-01,5.827e-01,6.750e-01,1.057e+00,8.861e-01,6.091e-01,6.070e-01,6.953e-01,4.367e-01,4.334e-01,5.617e-01,1.875e-01,8.296e-01,4.681e-02,8.973e-01,1.313e-01,8.194e-01,9.761e-01,6.385e-01,1.497e-01,3.503e-01,1.534e-01,6.862e-01,3.544e-01,3.591e-01,1.075e+00,9.264e-01,7.761e-01,5.852e-01,1.342e-01,2.806e-01,2.352e-01,2.598e-01,7.412e-01,7.211e-01,9.982e-01,1.367e-01,9.005e-01,1.126e+00,8.871e-01
1.335e-01,7.672e-01,1.255e+00,1.582e+00,4.612e-01,1.467e+00,1.373e+00,1.165e+00,7.132e-01,1.843e+00,9.396e-01,1.954e+00,1.985e+00,6.801e-01,1.507e+00,2.015e+00,1.257e+00,9.001e-01,1.173e+00,1.859e+00,6.318e-01,1.327e+00,1.646e+00,4.930e-01,1.265e+00,1.559e+00,8.500e-01,1.672e+00,1.514e+00,8.807e-01,1.165e+00,1.309e+00,1.354e+00,1.029e+00,1.657e+00,1.228e+00,1.382e+00,2.281e+00,1.203e+00,1.605e+00,1.904e+00,5.921e-01,1.192e+00,1.867e+00,6.381e-01,6.621e-01,1.341e+00,6.993e-01,1.984e+00,1.088e+00,1.175e+00,1.604e+00,1.596e+00,7.690e-01,1.742e+00,1.036e+00,1.677e+00,1.021e+00,6.795e-01,2.000e+00,1.262e+00,1.618e+00,1.558e+00,8.278e-01,7.358e-01,7.998e-01,1.565e+00,1.462e+00,1.626e+00,9.043e-01,1.341e+00,1.638e+00,2.020e+00,2.199e+00
1.269e-01,6.627e-01,1.144e+00,1.462e+00,1.196e+00,2.110e+00,1.542e+00,1.691e+00,1.433e+00,2.431e+00,1.278e+00,2.487e+00,2.133e+00,1.091e+00,1.588e+00,2.834e+00,2.076e+00,1.303e+00,1.667e+00,2.648e+00,1.372e+00,1.601e+00,1.610e+00,9.907e-01,1.280e+00,1.708e+00,9.647e-01,2.136e+00,1.653e+00,1.657e+00,1.217e+00,2.126e+00,1.625e+00,1.454e+00,2.466e+00,1.380e+00,1.279e+00,2.726e+00,1.681e+00,1.967e+00,2.325e+00,1.400e+00,1.503e+00,2.312e+00,1.393e+00,7.917e-01,1.473e+00,1.535e+00,2.357e+00,1.597e+00,1.777e+00,1.932e+00,1.657e+00,1.446e+00,2.362e+00,1.204e+00,2.086e+00,1.290e+00,1.502e+00,2.129e+00,1.390e+00,1.833e+00,2.180e+00,9.094e-01,1.662e+00,1.337e+00,1.920e+00,1.860e+00,2.270e+00,8.725e-01,1.756e+00,2.073e+00,2.066e+00,2.091e+00
1.242e-01,2.464e-01,4.790e-01,6.002e-01,8.556e-01,1.176e+00,4.181e-01,1.096e+00,7.533e-01,9.470e-01,1.145e+00,1.439e+00,1.786e+00,1.043e+00,1.675e+00,1.197e+00,8.025e-01,7.664e-01,7.820e-01,1.814e+00,1.168e+00,1.605e+00,1.457e+00,1.156e+00,5.829e-01,1.267e+00,1.054e+00,1.425e+00,8.357e-01,8.963e-01,1.285e+00,6.788e-01,1.482e+00,8.286e-01,9.384e-01,1.416e+00,9.365e-01,1.426e+00,1.704e+00,1.385e+00,1.001e+00,1.168e+00,1.751e+00,1.018e+00,1.004e+00,5.298e-01,1.247e+00,1.020e+00,1.481e+00,7.087e-01,1.331e+00,9.292e-01,1.626e+00,6.966e-01,1.007e+00,1.511e+00,8.317e-01,7.243e-01,1.174e+00,7.775e-01,1.456e+00,6.101e-01,1.439e+00,1.362e+00,1.106e+00,9.700e-01,1.283e+00,1.043e+00,1.617e+00,7.468e-01,1.738e+00,1.633e+00,1.050e+00,1.438e+00
1.042e-01,5.313e-01,7.759e-01,9.648e-01,4.267e-01,1.610e+00,1.211e+00,1.444e+00,1.307e+00,2.197e+00,8.685e-01,1.649e+00,1.461e+00,7.837e-01,2.104e+00,1.683e+00,1.362e+00,9.415e-01,1.150e+00,2.094e+00,9.924e-01,1.815e+00,1.464e+00,1.115e+00,1.504e+00,1.435e+00,1.024e+00,1.278e+00,1.736e+00,1.530e+00,1.292e+00,1.246e+00,1.797e+00,1.214e+00,1.424e+00,1.665e+00,1.533e+00,1.893e+00,1.157e+00,1.359e+00,1.377e+00,1.451e+00,1.762e+00,1.341e+00,1.245e+00,6.724e-01,1.291e+00,7.941e-01,1.634e+00,1.069e+00,1.007e+00,1.901e+00,1.642e+00,1.189e+00,1.566e+00,1.298e+00,1.396e+00,1.466e+00,8.163e-01,2.198e+00,1.626e+00,1.096e+00,1.784e+00,1.291e+00,1.526e+00,1.335e+00,2.024e+00,1.606e+00,2.131e+00,1.588e+00,1.003e+00,1.305e+00,2.181e+00,2.341e+00
7.399e-02,6.895e-01,5.905e-01,6.868e-01,8.317e-01,1.489e+00,1.525e+00,1.955e+00,1.982e+00,1.530e+00,1.693e+00,2.094e+00,2.252e+00,1.769e+00,1.874e+00,2.171e+00,1.231e+00,8.918e-01,1.300e+00,1.946e+00,1.885e+00,2.014e+00,1.906e+00,1.728e+00,1.350e+00,1.441e+00,1.243e+00,2.049e+00,1.193e+00,1.073e+00,1.289e+00,2.191e+00,1.894e+00,1.596e+00,2.065e+00,1.816e+00,1.253e+00,2.227e+00,2.175e+00,2.284e+00,1.257e+00,1.740e+00,2.334e+00,1.509e+00,1.797e+00,5.314e-01,2.428e+00,1.026e+00,2.578e+00,9.888e-01,2.496e+00,1.370e+00,2.274e+00,1.289e+00,1.549e+00,1.647e+00,1.912e+00,8.581e-01,1.598e+00,1.857e+00,1.811e+00,1.418e+00,1.552e+00,1.427e+00,1.924e+00,1.035e+00,1.617e+00,1.934e+00,2.708e+00,1.826e+00,2.100e+00,2.090e+00,2.005e+00,1.777e+00
1.142e-02,8.596e-01,5.687e-01,6.322e-01,4.873e-01,1.534e+00,1.538e+00,2.096e+00,2.552e+00,2.660e+00,1.707e+00,2.699e+00,2.944e+00,2.377e+00,1.892e+00,1.849e+00,1.720e+00,7.447e-01,1.686e+00,2.443e+00,1.683e+00,2.031e+00,2.227e+00,1.977e+00,2.644e+00,1.632e+00,1.765e+00,2.423e+00,1.443e+00,1.542e+00,1.703e+00,2.379e+00,2.010e+00,2.064e+00,2.204e+00,2.667e+00,1.745e+00,2.166e+00,2.698e+00,3.081e+00,1.792e+00,2.720e+00,2.573e+00,1.437e+00,2.526e+00,1.407e+00,3.276e+00,9.615e-01,2.548e+00,1.320e+00,2.592e+00,1.893e+00,2.179e+00,1.582e+00,1.177e+00,2.104e+00,2.570e+00,1.488e+00,1.231e+00,2.189e+00,2.538e+00,1.751e+00,2.230e+00,2.389e+00,1.875e+00,1.173e+00,2.278e+00,2.329e+00,2.736e+00,2.305e+00,2.242e+00,1.897e+00,2.583e+00,2.709e+00
1.032e-01,4.735e-01,8.054e-01,1.020e+00,1.043e+00,2.113e+00,1.955e+00,2.408e+00,3.342e+00,2.953e+00,3.184e+00,3.197e+00,4.294e+00,2.990e+00,3.311e+00,3.204e+00,3.301e+00,1.683e+00,1.696e+00,4.368e+00,2.998e+00,3.304e+00,3.903e+00,3.199e+00,3.187e+00,2.206e+00,2.766e+00,3.564e+00,1.838e+00,2.317e+00,2.333e+00,3.316e+00,3.178e+00,2.919e+00,3.478e+00,4.000e+00,2.480e+00,3.257e+00,3.199e+00,3.798e+00,2.400e+00,2.961e+00,3.447e+00,2.295e+00,3.567e+00,1.512e+00,4.059e+00,1.745e+00,3.664e+00,2.752e+00,3.347e+00,2.892e+00,3.147e+00,2.343e+00,2.554e+00,3.206e+00,3.774e+00,2.819e+00,2.341e+00,2.587e+00,2.837e+00,2.652e+00,3.608e+00,3.231e+00,3.547e+00,2.216e+00,3.357e+00,3.374e+00,4.239e+00,2.223e+00,3.268e+00,3.437e+00,3.654e+00,3.512e+00
1.467e-01,3.225e-01,4.614e-01,5.613e-01,8.619e-01,1.102e+00,1.179e+00,1.434e+00,2.213e+00,2.143e+00,2.501e+00,2.930e+00,3.444e+00,1.968e+00,2.959e+00,2.820e+00,2.839e+00,1.689e+00,1.792e+00,3.574e+00,2.026e+00,2.955e+00,3.561e+00,2.305e+00,1.661e+00,2.546e+00,1.844e+00,2.908e+00,1.364e+00,1.885e+00,1.995e+00,2.527e+00,2.774e+00,1.830e+00,2.540e+00,3.075e+00,1.447e+00,2.603e+00,2.555e+00,2.927e+00,2.370e+00,2.499e+00,2.821e+00,1.606e+00,2.483e+00,1.174e+00,2.897e+00,1.169e+00,2.580e+00,2.258e+00,3.074e+00,2.356e+00,3.129e+00,1.802e+00,2.007e+00,2.744e+00,2.882e+00,2.219e+00,2.494e+00,2.475e+00,1.905e+00,1.947e+00,2.467e+00,2.781e+00,2.324e+00,1.252e+00,2.176e+00,3.050e+00,3.334e+00,2.412e+00,2.667e+00,3.026e+00,3.209e+00,2.733e+00
6.570e-02,1.487e-01,2.058e-01,2.500e-01,5.522e-01,1.199e+00,7.912e-01,1.351e+00,2.309e+00,2.691e+00,2.981e+00,3.141e+00,3.346e+00,2.411e+00,3.292e+00,1.973e+00,3.307e+00,2.260e+00,1.913e+00,4.425e+00,2.042e+00,2.719e+00,3.612e+00,2.530e+00,2.957e+00,2.195e+00,2.839e+00,2.802e+00,1.802e+00,2.442e+00,2.103e+00,2.604e+00,2.807e+00,2.195e+00,2.415e+00,3.346e+00,1.825e+00,2.013e+00,2.507e+00,2.896e+00,2.818e+00,3.319e+00,2.859e+00,1.269e+00,2.885e+00,2.388e+00,2.993e+00,1.575e+00,2.666e+00,2.242e+00,2.326e+00,2.783e+00,2.643e+00,2.452e+00,1.648e+00,2.829e+00,2.646e+00,2.691e+00,1.873e+00,2.323e+00,2.736e+00,2.116e+00,3.730e+00,3.855e+00,2.418e+00,2.615e+00,2.973e+00,3.014e+00,3.069e+00,2.674e+00,2.840e+00,2.623e+00,3.142e+00,3.257e+00
1.352e-01,8.549e-01,1.028e+00,1.256e+00,9.856e-01,1.918e+00,1.485e+00,1.868e+00,2.144e+00,3.135e+00,3.082e+00,4.290e+00,4.962e+00,2.217e+00,3.377e+00,3.405e+00,4.108e+00,2.673e+00,3.366e+00,4.896e+00,2.702e+00,3.773e+00,4.827e+00,2.754e+00,3.787e+00,3.213e+00,2.962e+00,3.927e+00,2.461e+00,2.260e+00,2.694e+00,4.063e+00,3.026e+00,2.666e+00,4.121e+00,3.320e+00,2.345e+00,3.992e+00,3.135e+00,3.524e+00,3.877e+00,3.874e+00,3.381e+00,2.997e+00,3.723e+00,3.101e+00,3.782e+00,2.135e+00,4.530e+00,3.314e+00,3.925e+00,4.175e+00,3.807e+00,2.485e+00,3.454e+00,3.630e+00,4.317e+00,3.563e+00,2.654e+00,3.691e+00,3.048e+00,3.278e+00,4.306e+00,3.650e+00,3.201e+00,3.235e+00,3.001e+00,4.415e+00,3.672e+00,3.603e+00,3.540e+00,4.186e+00,3.935e+00,4.381e+00
1.423e-01,1.512e-01,7.731e-01,1.025e+00,6.687e-01,1.525e+00,1.257e+00,1.309e+00,1.464e+00,2.421e+00,2.127e+00,2.736e+00,3.820e+00,2.311e+00,3.101e+00,3.023e+00,3.214e+00,2.246e+00,2.713e+00,3.904e+00,2.446e+00,3.365e+00,4.336e+00,2.938e+00,2.404e+00,2.409e+00,2.323e+00,2.922e+00,2.686e+00,2.982e+00,2.814e+00,2.769e+00,3.084e+00,2.365e+00,2.835e+00,3.385e+00,2.317e+00,3.639e+00,2.236e+00,2.787e+00,3.034e+00,2.904e+00,3.605e+00,3.057e+00,3.182e+00,2.148e+00,3.246e+00,2.445e+00,3.475e+00,2.517e+00,2.636e+00,3.374e+00,3.668e+00,2.648e+00,3.420e+00,3.474e+00,3.545e+00,3.131e+00,1.890e+00,3.374e+00,3.085e+00,2.171e+00,3.627e+00,3.735e+00,2.852e+00,3.515e+00,3.335e+00,3.932e+00,3.944e+00,2.870e+00,3.285e+00,2.639e+00,3.493e+00,4.085e+00
1.076e-01,1.497e-01,3.649e-01,4.682e-01,7.121e-01,8.237e-01,6.615e-01,7.952e-01,1.436e+00,1.604e+00,1.833e+00,2.673e+00,3.607e+00,3.150e+00,2.844e+00,2.465e+00,3.509e+00,2.675e+00,3.002e+00,4.290e+00,2.413e+00,3.025e+00,4.648e+00,2.813e+00,2.828e+00,2.168e+00,2.731e+00,3.823e+00,2.581e+00,3.079e+00,2.863e+00,3.542e+00,2.870e+00,2.208e+00,3.390e+00,3.326e+00,2.051e+00,3.486e+00,3.307e+00,2.539e+00,3.677e+00,3.150e+00,4.181e+00,3.549e+00,3.703e+00,3.047e+00,3.350e+00,2.597e+00,3.619e+00,3.310e+00,3.396e+00,3.109e+00,3.385e+00,2.874e+00,3.925e+00,3.691e+00,4.001e+00,2.908e+00,2.321e+00,2.523e+00,3.118e+00,2.261e+00,4.341e+00,4.273e+00,3.506e+00,3.360e+00,3.295e+00,4.203e+00,3.806e+00,3.001e+00,3.790e+00,2.619e+00,3.269e+00,3.434e+00
8.475e-02,5.775e-01,7.602e-01,9.470e-01,9.445e-01,2.057e+00,2.024e+00,2.281e+00,3.292e+00,3.695e+00,2.995e+00,3.721e+00,4.423e+00,2.716e+00,4.274e+00,3.919e+00,4.986e+00,2.441e+00,2.813e+00,5.352e+00,3.185e+00,4.186e+00,4.661e+00,3.296e+00,3.793e+00,3.758e+00,3.167e+00,4.231e+00,2.886e+00,3.056e+00,2.824e+00,4.666e+00,4.084e+00,3.214e+00,4.768e+00,4.355e+00,2.669e+00,3.764e+00,3.345e+00,4.001e+00,3.934e+00,4.690e+00,3.527e+00,2.682e+00,4.334e+00,2.732e+00,5.021e+00,1.935e+00,4.558e+00,3.986e+00,4.182e+00,4.200e+00,3.673e+00,2.648e+00,3.941e+00,3.655e+00,4.504e+00,4.253e+00,3.278e+00,4.344e+00,3.164e+00,3.841e+00,4.017e+00,4.348e+00,3.881e+00,2.561e+00,3.390e+00,4.673e+00,5.061e+00,3.820e+00,3.670e+00,3.628e+00,4.612e+00,4.037e+00
4.075e-02,8.193e-01,5.046e-01,5.491e-01,9.335e-01,2.027e+00,1.132e+00,2.305e+00,2.183e+00,2.182e+00,2.695e+00,2.691e+00,3.300e+00,3.157e+00,4.018e+00,2.765e+00,3.716e+00,2.993e+00,2.859e+00,5.627e+00,3.734e+00,4.123e+00,4.157e+00,3.322e+00,3.418e+00,2.626e+00,3.787e+00,4.211e+00,3.293e+00,2.716e+00,2.894e+00,4.194e+00,3.405e+00,3.263e+00,3.591e+00,4.659e+00,2.876e+00,3.673e+00,4.802e+00,2.935e+00,3.746e+00,4.045e+00,4.047e+00,3.263e+00,4.186e+00,2.598e+00,4.668e+00,3.212e+00,4.501e+00,3.137e+00,4.782e+00,3.759e+00,3.647e+00,2.290e+00,3.624e+00,3.465e+00,3.989e+00,2.826e+00,3.267e+00,3.439e+00,3.906e+00,2.926e+00,4.788e+00,4.298e+00,4.138e+00,3.215e+00,3.335e+00,3.985e+00,5.177e+00,4.122e+00,3.487e+00,3.792e+00,3.950e+00,3.257e+00
1.019e-01,6.532e-01,6.622e-01,7.849e-01,6.525e-01,1.471e+00,8.614e-01,1.458e+00,1.519e+00,1.767e+00,2.136e+00,2.451e+00,3.306e+00,2.715e+00,3.353e+00,2.313e+00,3.455e+00,2.811e+00,2.741e+00,4.975e+00,2.804e+00,3.979e+00,4.879e+00,3.531e+00,3.751e+00,2.873e+00,3.786e+00,4.392e+00,2.969e+00,3.496e+00,3.793e+00,3.826e+00,2.731e+00,2.943e+00,3.733e+00,4.259e+00,3.313e+00,4.256e+00,3.840e+00,2.423e+00,4.094e+00,3.694e+00,4.665e+00,3.830e+00,3.767e+00,3.035e+00,3.616e+00,2.603e+00,3.992e+00,3.288e+00,3.707e+00,3.936e+00,3.669e+00,2.731e+00,3.880e+00,3.692e+00,3.404e+00,3.532e+00,2.367e+00,3.184e+00,3.920e+00,3.031e+00,4.957e+00,3.965e+00,3.704e+00,3.256e+00,3.941e+00,3.703e+00,4.472e+00,3.263e+00,3.830e+00,3.758e+00,3.575e+00,4.020e+00
1.658e-02,2.867e-01,5.684e-01,7.385e-01,5.069e-01,1.200e+00,9.448e-01,1.127e+00,1.181e+00,2.118e+00,2.416e+00,2.579e+00,3.381e+00,2.800e+00,3.429e+00,2.589e+00,4.556e+00,4.037e+00,3.726e+00,6.517e+00,3.796e+00,3.999e+00,5.916e+00,4.145e+00,3.564e+00,4.222e+00,4.062e+00,5.424e+00,3.576e+00,4.022e+00,3.290e+00,4.562e+00,3.298e+00,3.285e+00,5.113e+00,4.221e+00,2.914e+00,4.267e+00,3.952e+00,3.181e+00,5.269e+00,5.293e+00,4.300e+00,4.700e+00,4.101e+00,4.391e+00,4.568e+00,3.604e+00,5.105e+00,4.862e+00,5.009e+00,4.290e+00,3.698e+00,2.318e+00,4.971e+00,4.752e+00,4.794e+00,4.495e+00,3.429e+00,4.757e+00,3.477e+00,4.066e+00,4.638e+00,5.179e+00,4.131e+00,3.653e+00,3.618e+00,4.080e+00,5.337e+00,4.050e+00,5.025e+00,4.460e+00,4.186e+00,4.424e+00
1.290e-02,7.120e-01,9.647e-01,1.219e+00,9.487e-01,2.568e+00,2.389e+00,2.747e+00,3.181e+00,3.592e+00,3.193e+00,3.520e+00,4.619e+00,3.313e+00,3.516e+00,3.890e+00,4.736e+00,2.943e+00,3.607e+00,6.133e+00,4.853e+00,5.440e+00,5.679e+00,5.406e+00,5.064e+00,3.652e+00,4.849e+00,5.895e+00,3.988e+00,4.284e+00,3.786e+00,6.048e+00,4.451e+00,4.732e+00,6.031e+00,4.819e+00,4.252e+00,5.667e+00,4.584e+00,4.330e+00,4.812e+00,5.461e+00,4.726e+00,5.449e+00,5.524e+00,3.577e+00,6.026e+00,3.810e+00,6.066e+00,4.860e+00,5.976e+00,5.256e+00,5.130e+00,3.880e+00,5.284e+00,4.773e+00,5.688e+00,5.025e+00,4.065e+00,4.972e+00,3.820e+00,4.379e+00,5.512e+00,4.933e+00,5.677e+00,4.477e+00,4.910e+00,4.873e+00,6.141e+00,4.538e+00,4.475e+00,4.627e+00,4.535e+00,4.992e+00
1.243e-01,2.578e-01,8.447e-01,1.113e+00,9.341e-01,1.720e+00,1.707e+00,1.705e+00,2.182e+00,2.772e+00,2.795e+00,3.270e+00,4.238e+00,3.469e+00,4.254e+00,3.864e+00,5.049e+00,3.967e+00,3.716e+00,7.388e+00,4.820e+00,5.529e+00,7.075e+00,4.803e+00,4.298e+00,4.649e+00,4.778e+00,6.435e+00,3.940e+00,5.308e+00,4.717e+00,5.711e+00,5.346e+00,4.500e+00,5.850e+00,5.237e+00,4.307e+00,5.904e+00,5.163e+00,4.667e+00,5.579e+00,5.468e+00,5.997e+00,5.653e+00,5.370e+00,4.304e+00,5.287e+00,4.111e+00,6.261e+00,5.957e+00,5.348e+00,4.619e+00,5.535e+00,4.209e+00,6.074e+00,5.836e+00,5.718e+00,5.013e+00,4.645e+00,5.774e+00,4.722e+00,4.999e+00,5.648e+00,6.222e+00,5.049e+00,3.906e+00,5.158e+00,5.304e+00,6.698e+00,5.021e+00,6.178e+00,5.372e+00,5.861e+00,5.746e+00
1.761e-03,4.608e-01,8.268e-01,1.071e+00,7.063e-01,2.350e+00,1.883e+00,2.326e+00,2.751e+00,3.837e+00,2.985e+00,3.586e+00,4.692e+00,3.212e+00,3.500e+00,3.411e+00,4.898e+00,2.984e+00,3.636e+00,6.536e+00,5.361e+00,5.719e+00,6.420e+00,5.513e+00,6.381e+00,4.101e+00,5.524e+00,6.268e+00,4.833e+00,5.063e+00,5.134e+00,6.183e+00,6.083e+00,5.528e+00,6.287e+00,5.385e+00,5.264e+00,5.809e+00,5.909e+00,5.102e+00,5.143e+00,6.156e+00,5.295e+00,5.763e+00,6.708e+00,4.419e+00,6.231e+00,5.106e+00,6.601e+00,5.464e+00,5.786e+00,5.690e+00,5.923e+00,5.005e+00,5.057e+00,5.411e+00,6.039e+00,6.055e+00,4.390e+00,5.617e+00,5.246e+00,4.807e+00,6.237e+00,6.298e+00,5.407e+00,5.345e+00,5.214e+00,5.400e+00,6.510e+00,5.723e+00,5.019e+00,4.983e+00,5.654e+00,6.413e+00
1.511e-02,1.804e-01,4.150e-01,5.544e-01,9.529e-01,1.455e+00,1.173e+00,1.479e+00,2.599e+00,3.075e+00,2.964e+00,3.546e+00,4.979e+00,4.004e+00,3.176e+00,3.540e+00,5.454e+00,3.679e+00,4.516e+00,7.669e+00,5.283e+00,6.353e+00,8.830e+00,6.901e+00,6.230e+00,5.190e+00,6.325e+00,8.052e+00,4.943e+00,6.261e+00,5.531e+00,6.876e+00,5.513e+00,5.040e+00,7.144e+00,5.767e+00,5.418e+00,6.245e+00,6.820e+00,5.223e+00,5.881e+00,6.674e+00,6.366e+00,7.251e+00,7.681e+00,5.658e+00,6.502e+00,5.781e+00,6.674e+00,7.557e+00,7.501e+00,6.388e+00,6.228e+00,5.960e+00,6.140e+00,7.130e+00,7.675e+00,6.848e+00,6.181e+00,5.390e+00,5.042e+00,5.838e+00,7.333e+00,8.138e+00,7.138e+00,5.715e+00,5.819e+00,6.816e+00,7.619e+00,5.887e+00,6.341e+00,5.666e+00,6.877e+00,6.842e+00
1.289e-01,9.287e-01,9.484e-01,1.133e+00,1.039e+00,2.095e+00,1.430e+00,2.110e+00,2.221e+00,3.035e+00,2.464e+00,3.896e+00,4.795e+00,3.187e+00,3.968e+00,3.621e+00,4.913e+00,4.097e+00,5.063e+00,6.831e+00,4.630e+00,5.953e+00,7.583e+00,6.242e+00,5.410e+00,5.193e+00,4.949e+00,7.415e+00,5.697e+00,6.063e+00,5.577e+00,6.391e+00,5.296e+00,4.303e+00,6.754e+00,5.665e+00,4.367e+00,6.261e+00,6.280e+00,4.821e+00,6.101e+00,7.232e+00,7.161e+00,6.628e+00,6.678e+00,4.944e+00,6.145e+00,5.421e+00,7.109e+00,5.796e+00,6.718e+00,6.396e+00,5.386e+00,4.598e+00,6.086e+00,5.903e+00,6.132e+00,6.387e+00,4.923e+00,6.479e+00,6.041e+00,4.921e+00,6.606e+00,6.483e+00,6.251e+00,6.065e+00,5.491e+00,6.662e+00,6.817e+00,5.783e+00,6.232e+00,5.819e+00,6.386e+00,6.774e+00
1.473e-01,6.185e-01,1.051e+00,1.326e+00,7.559e-01,1.800e+00,1.882e+00,1.905e+00,2.643e+00,3.032e+00,2.591e+00,3.716e+00,4.550e+00,3.597e+00,4.173e+00,3.429e+00,4.596e+00,3.555e+00,3.676e+00,6.189e+00,4.109e+00,5.216e+00,7.047e+00,6.095e+00,5.535e+00,5.422e+00,5.180e+00,7.066e+00,5.485e+00,5.887e+00,5.456e+00,5.873e+00,5.521e+00,5.009e+00,7.073e+00,5.089e+00,4.524e+00,5.980e+00,6.152e+00,5.606e+00,5.894e+00,6.424e+00,7.176e+00,6.299e+00,5.780e+00,5.355e+00,6.573e+00,4.632e+00,7.274e+00,6.178e+00,6.505e+00,5.800e+00,5.421e+00,5.077e+00,5.727e+00,6.090e+00,6.413e+00,5.837e+00,5.144e+00,5.654e+00,5.759e+00,5.120e+00,6.607e+00,6.749e+00,5.856e+00,4.632e+00,5.455e+00,6.320e+00,7.464e+00,5.505e+00,5.939e+00,4.856e+00,6.967e+00,6.570e+00
1.440e-01,2.798e-01,8.790e-01,1.157e+00,1.488e+00,2.365e+00,1.914e+00,2.407e+00,2.799e+00,2.611e+00,4.005e+00,3.879e+00,5.140e+00,4.339e+00,5.198e+00,4.265e+00,5.329e+00,4.571e+00,4.260e+00,7.773e+00,5.816e+00,6.329e+00,8.304e+00,7.050e+00,5.342e+00,5.595e+00,6.185e+00,8.040e+00,6.083e+00,6.200e+00,6.302e+00,7.851e+00,7.008e+00,5.134e+00,8.659e+00,6.200e+00,5.715e+00,6.928e+00,6.987e+00,5.561e+00,6.160e+00,7.623e+00,7.725e+00,7.545e+00,6.860e+00,5.568e+00,7.818e+00,6.200e+00,8.750e+00,7.215e+00,7.159e+00,6.947e+00,6.807e+00,5.601e+00,7.367e+00,7.462e+00,6.512e+00,7.297e+00,6.927e+00,6.461e+00,6.065e+00,6.200e+00,7.188e+00,8.680e+00,7.258e+00,7.125e+00,6.796e+00,7.553e+00,8.682e+00,6.175e+00,7.848e+00,6.123e+00,6.720e+00,7.211e+00
1.146e-01,1.250e-01,3.455e-01,4.427e-01,9.530e-01,1.341e+00,1.228e+00,1.688e+00,2.808e+00,2.715e+00,2.743e+00,3.620e+00,4.702e+00,3.886e+00,3.732e+00,2.964e+00,4.309e+00,3.390e+00,3.833e+00,6.487e+00,4.898e+00,6.092e+00,7.993e+00,7.144e+00,5.549e+00,6.088e+00,6.006e+00,8.177e+00,5.356e+00,7.181e+00,6.253e+00,6.643e+00,6.443e+00,5.298e+00,7.110e+00,5.792e+00,4.776e+00,6.399e+00,7.466e+00,6.982e+00,5.312e+00,7.228e+00,8.151e+00,7.204e+00,7.306e+00,6.320e+00,6.990e+00,5.917e+00,7.370e+00,7.707e+00,8.194e+00,6.684e+00,6.317e+00,6.513e+00,6.414e+00,7.337e+00,7.175e+00,6.737e+00,7.358e+00,6.400e+00,6.394e+00,5.220e+00,7.250e+00,8.108e+00,7.098e+00,6.092e+00,6.441e+00,7.464e+00,8.546e+00,6.849e+00,7.252e+00,5.948e+00,7.820e+00,7.260e+00
7.477e-02,5.182e-01,7.039e-01,8.812e-01,8.143e-01,1.717e+00,1.922e+00,1.952e+00,2.837e+00,3.152e+00,3.137e+00,3.883e+00,4.908e+00,4.047e+00,4.294e+00,4.255e+00,5.836e+00,4.609e+00,4.998e+00,7.750e+00,5.610e+00,6.623e+00,9.309e+00,7.417e+00,6.571e+00,6.468e+00,7.157e+00,9.691e+00,6.588e+00,8.265e+00,7.769e+00,9.270e+00,7.140e+00,6.334e+00,1.019e+01,8.027e+00,7.224e+00,8.434e+00,7.894e+00,7.334e+00,7.598e+00,9.067e+00,9.172e+00,9.284e+00,8.215e+00,7.248e+00,8.379e+00,6.852e+00,9.067e+00,9.236e+00,9.003e+00,8.948e+00,7.678e+00,6.869e+00,8.161e+00,8.459e+00,8.519e+00,9.000e+00,7.919e+00,9.099e+00,7.090e+00,7.933e+00,8.556e+00,9.302e+00,8.514e+00,7.101e+00,8.052e+00,9.274e+00,1.049e+01,9.016e+00,8.262e+00,6.926e+00,9.126e+00,9.028e+00
7.012e-02,5.948e-01,8.577e-01,1.077e+00,7.605e-01,1.902e+00,2.037e+00,2.182e+00,2.927e+00,3.310e+00,2.162e+00,3.309e+00,3.866e+00,3.592e+00,3.248e+00,3.349e+00,3.966e+00,2.519e+00,2.929e+00,5.151e+00,3.895e+00,4.237e+00,5.201e+00,4.822e+00,4.722e+00,4.119e+00,4.429e+00,6.786e+00,5.586e+00,6.060e+00,5.235e+00,6.402e+00,5.681e+00,5.733e+00,7.333e+00,5.831e+00,5.131e+00,6.184e+00,6.594e+00,6.211e+00,5.982e+00,6.442e+00,6.338e+00,6.405e+00,5.543e+00,4.976e+00,6.904e+00,5.364e+00,6.227e+00,6.097e+00,6.884e+00,6.232e+00,6.092e+00,5.225e+00,5.703e+00,5.847e+00,6.046e+00,5.572e+00,5.260e+00,5.807e+00,5.580e+00,4.488e+00,6.022e+00,5.884e+00,5.197e+00,3.895e+00,5.544e+00,6.145e+00,7.994e+00,5.526e+00,5.736e+00,4.780e+00,6.307e+00,6.337e+00
1.280e-01,4.108e-01,1.032e+00,1.350e+00,1.220e+00,2.579e+00,2.454e+00,2.586e+00,3.545e+00,3.993e+00,3.207e+00,3.803e+00,4.410e+00,3.403e+00,4.569e+00,4.466e+00,5.391e+00,3.164e+00,2.981e+00,7.048e+00,5.068e+00,6.310e+00,7.397e+00,6.757e+00,6.300e+00,6.106e+00,6.245e+00,7.841e+00,6.556e+00,7.687e+00,7.377e+00,8.338e+00,7.628e+00,6.511e+00,9.230e+00,6.816e+00,6.299e+00,7.340e+00,7.208e+00,7.518e+00,6.246e+00,7.382e+00,7.924e+00,7.639e+00,7.120e+00,6.323e+00,8.027e+00,5.698e+00,8.561e+00,8.683e+00,7.939e+00,7.665e+00,7.342e+00,6.682e+00,6.995e+00,7.192e+00,6.847e+00,7.731e+00,7.891e+00,7.365e+00,6.293e+00,6.792e+00,7.351e+00,7.634e+00,7.793e+00,4.970e+00,6.843e+00,7.585e+00,9.341e+00,7.241e+00,6.465e+00,6.472e+00,9.193e+00,7.932e+00
1.127e-01,7.371e-01,8.445e-01,1.025e+00,1.098e+00,1.993e+00,1.062e+00,1.941e+00,2.150e+00,3.271e+00,2.454e+00,3.937e+00,4.608e+00,3.139e+00,3.765e+00,2.894e+00,4.250e+00,3.150e+00,4.009e+00,6.794e+00,4.154e+00,5.317e+00,6.470e+00,5.414e+00,5.274e+00,5.296e+00,6.060e+00,7.885e+00,6.343e+00,7.685e+00,7.763e+00,8.401e+00,7.500e+00,5.524e+00,9.493e+00,7.509e+00,6.689e+00,7.024e+00,8.134e+00,8.274e+00,7.399e+00,8.487e+00,7.748e+00,7.435e+00,7.367e+00,6.969e+00,8.558e+00,6.243e+00,8.759e+00,7.963e+00,7.908e+00,7.270e+00,7.636e+00,5.730e+00,6.527e+00,7.272e+00,6.315e+00,7.469e+00,7.464e+00,7.669e+00,7.226e+00,6.399e+00,7.417e+00,9.243e+00,7.330e+00,6.021e+00,7.001e+00,7.339e+00,7.690e+00,7.765e+00,7.223e+00,6.596e+00,7.808e+00,8.288e+00
1.392e-02,8.138e-01,9.947e-01,1.238e+00,5.814e-01,2.310e+00,2.094e+00,2.334e+00,2.386e+00,4.231e+00,2.805e+00,4.178e+00,4.308e+00,3.059e+00,4.173e+00,3.387e+00,5.030e+00,3.285e+00,3.847e+00,6.519e+00,3.990e+00,5.526e+00,6.754e+00,4.817e+00,6.337e+00,5.508e+00,6.375e+00,7.471e+00,5.693e+00,7.030e+00,6.822e+00,8.251e+00,7.155e+00,6.244e+00,9.223e+00,7.072e+00,7.048e+00,7.633e+00,6.831e+00,7.815e+00,8.015e+00,8.597e+00,7.599e+00,7.686e+00,6.806e+00,7.529e+00,8.002e+00,5.719e+00,8.194e+00,7.677e+00,8.071e+00,8.148e+00,7.942e+00,5.976e+00,6.981e+00,7.254e+00,6.315e+00,7.390e+00,6.049e+00,9.324e+00,7.657e+00,7.444e+00,7.568e+00,8.534e+00,6.349e+00,5.305e+00,6.937e+00,7.718e+00,8.828e+00,8.794e+00,7.298e+00,5.904e+00,7.984e+00,9.026e+00
1.472e-02,8.702e-01,7.850e-01,9.336e-01,7.298e-01,2.008e+00,1.294e+00,2.077e+00,1.946e+00,2.733e+00,1.987e+00,2.618e+00,3.558e+00,3.182e+00,3.390e+00,2.964e+00,3.942e+00,2.927e+00,3.787e+00,6.028e+00,4.025e+00,5.074e+00,6.565e+00,6.274e+00,5.209e+00,5.946e+00,5.752e+00,7.919e+00,7.564e+00,7.787e+00,7.222e+00,8.198e+00,6.848e+00,6.737e+00,9.862e+00,8.060e+00,6.680e+00,8.082e+00,9.254e+00,7.917e+00,7.246e+00,8.558e+00,7.913e+00,9.178e+00,7.597e+00,7.390e+00,9.759e+00,8.079e+00,8.965e+00,8.959e+00,9.890e+00,9.335e+00,6.891e+00,6.137e+00,7.717e+00,7.885e+00,7.501e+00,8.449e+00,8.197e+00,8.697e+00,8.645e+00,7.118e+00,7.538e+00,9.265e+00,7.503e+00,6.990e+00,7.324e+00,9.370e+00,1.121e+01,7.925e+00,8.090e+00,6.554e+00,9.020e+00,8.605e+00
1.144e-01,8.521e-01,1.131e+00,1.410e+00,1.474e+00,2.996e+00,1.845e+00,2.793e+00,2.784e+00,3.869e+00,3.254e+00,3.940e+00,4.543e+00,3.104e+00,4.248e+00,4.365e+00,5.251e+00,4.237e+00,4.689e+00,8.190e+00,5.786e+00,6.827e+00,8.079e+00,7.693e+00,6.017e+00,6.565e+00,7.034e+00,9.589e+00,8.305e+00,9.506e+00,8.502e+00,9.682e+00,9.748e+00,7.342e+00,1.224e+01,9.705e+00,8.466e+00,9.642e+00,1.074e+01,8.996e+00,8.777e+00,9.755e+00,9.731e+00,1.136e+01,9.674e+00,7.502e+00,9.675e+00,9.059e+00,1.086e+01,9.847e+00,1.134e+01,9.686e+00,9.074e+00,7.585e+00,9.106e+00,8.293e+00,8.455e+00,1.021e+01,9.420e+00,1.039e+01,8.634e+00,8.504e+00,9.079e+00,9.512e+00,1.097e+01,8.254e+00,8.487e+00,9.310e+00,1.224e+01,9.159e+00,9.164e+00,8.699e+00,1.052e+01,1.025e+01
1.352e-01,6.053e-01,1.086e+00,1.377e+00,5.652e-01,1.988e+00,2.149e+00,2.087e+00,2.553e+00,3.332e+00,2.669e+00,3.635e+00,4.546e+00,3.605e+00,4.491e+00,3.590e+00,4.583e+00,3.656e+00,3.788e+00,6.631e+00,4.514e+00,6.378e+00,8.064e+00,6.831e+00,6.195e+00,5.826e+00,6.849e+00,8.695e+00,6.792e+00,8.355e+00,7.886e+00,8.893e+00,8.720e+00,8.051e+00,1.184e+01,9.463e+00,8.576e+00,1.035e+01,1.056e+01,1.002e+01,9.002e+00,9.857e+00,1.078e+01,1.092e+01,8.405e+00,8.985e+00,9.845e+00,8.733e+00,1.093e+01,9.819e+00,1.175e+01,1.002e+01,1.039e+01,8.570e+00,9.456e+00,1.018e+01,9.642e+00,9.457e+00,9.098e+00,1.124e+01,9.771e+00,8.558e+00,9.905e+00,1.081e+01,1.000e+01,7.015e+00,9.619e+00,1.048e+01,1.278e+01,1.112e+01,9.316e+00,6.917e+00,1.106e+01,1.066e+01
9.047e-02,7.416e-01,1.059e+00,1.324e+00,6.856e-01,2.173e+00,2.027e+00,2.225e+00,2.426e+00,3.153e+00,2.328e+00,3.098e+00,3.622e+00,2.631e+00,3.791e+00,3.266e+00,3.837e+00,3.215e+00,3.481e+00,5.621e+00,4.000e+00,4.712e+00,6.613e+00,5.659e+00,5.137e+00,6.050e+00,5.320e+00,7.603e+00,6.971e+00,7.271e+00,6.874e+00,7.581e+00,7.500e+00,6.012e+00,1.073e+01,8.743e+00,6.933e+00,8.677e+00,8.374e+00,8.769e+00,7.311e+00,9.372e+00,9.687e+00,1.029e+01,6.869e+00,8.079e+00,8.512e+00,7.892e+00,9.831e+00,8.523e+00,9.338e+00,9.325e+00,7.494e+00,6.488e+00,8.692e+00,8.634e+00,8.333e+00,9.096e+00,8.098e+00,1.076e+01,8.411e+00,7.738e+00,8.127e+00,8.667e+00,8.480e+00,7.086e+00,7.561e+00,9.523e+00,1.234e+01,8.802e+00,9.215e+00,6.893e+00,1.040e+01,1.022e+01
7.006e-02,8.927e-01,8.408e-01,1.008e+00,1.337e+00,2.673e+00,1.834e+00,2.765e+00,3.122e+00,4.135e+00,3.129e+00,4.229e+00,5.008e+00,3.720e+00,4.254e+00,4.398e+00,5.275e+00,4.016e+00,5.229e+00,7.864e+00,5.315e+00,6.407e+00,8.769e+00,7.437e+00,6.242e+00,6.604e+00,6.098e+00,8.634e+00,7.290e+00,7.872e+00,7.390e+00,8.546e+00,7.670e+00,6.087e+00,1.039e+01,9.200e+00,7.388e+00,8.886e+00,1.011e+01,8.573e+00,7.625e+00,9.695e+00,9.446e+00,1.008e+01,9.825e+00,8.004e+00,9.459e+00,8.827e+00,9.179e+00,9.991e+00,1.089e+01,1.047e+01,8.934e+00,6.639e+00,8.500e+00,9.397e+00,9.189e+00,9.371e+00,8.768e+00,9.736e+00,8.577e+00,8.077e+00,9.039e+00,9.499e+00,1.003e+01,7.732e+00,8.212e+00,1.052e+01,1.202e+01,9.640e+00,8.385e+00,8.434e+00,1.097e+01,9.901e+00
1.224e-01,9.597e-01,1.232e+00,1.517e+00,5.717e-01,2.230e+00,2.314e+00,2.384e+00,3.158e+00,4.533e+00,2.937e+00,4.511e+00,5.466e+00,3.360e+00,4.565e+00,4.290e+00,5.463e+00,3.849e+00,4.889e+00,7.522e+00,4.778e+00,6.445e+00,8.236e+00,7.166e+00,6.478e+00,6.560e+00,6.192e+00,8.914e+00,8.538e+00,8.967e+00,8.176e+00,9.631e+00,9.439e+00,7.989e+00,1.291e+01,1.105e+01,8.730e+00,1.108e+01,1.134e+01,1.211e+01,1.022e+01,1.237e+01,1.156e+01,1.265e+01,1.013e+01,1.083e+01,1.146e+01,1.037e+01,1.254e+01,1.190e+01,1.174e+01,1.229e+01,1.090e+01,8.740e+00,1.130e+01,1.206e+01,1.166e+01,1.145e+01,1.038e+01,1.315e+01,1.079e+01,9.695e+00,1.024e+01,1.087e+01,1.091e+01,8.145e+00,1.027e+01,1.291e+01,1.485e+01,1.112e+01,1.096e+01,8.775e+00,1.338e+01,1.218e+01
1.428e-01,8.662e-01,1.096e+00,1.351e+00,1.208e+00,2.669e+00,1.999e+00,2.639e+00,2.984e+00,3.865e+00,3.163e+00,4.540e+00,5.144e+00,4.173e+00,5.215e+00,4.274e+00,5.650e+00,4.741e+00,5.107e+00,8.220e+00,5.573e+00,6.558e+00,8.900e+00,7.592e+00,7.180e+00,6.579e+00,7.319e+00,9.677e+00,8.340e+00,9.187e+00,8.349e+00,9.334e+00,9.992e+00,8.096e+00,1.265e+01,9.726e+00,8.338e+00,1.084e+01,1.204e+01,1.132e+01,1.063e+01,1.224e+01,1.247e+01,1.195e+01,1.042e+01,1.044e+01,1.042e+01,9.968e+00,1.260e+01,1.109e+01,1.169e+01,1.114e+01,1.038e+01,9.378e+00,1.015e+01,1.113e+01,1.028e+01,1.039e+01,9.315e+00,1.184e+01,1.210e+01,1.001e+01,1.071e+01,1.170e+01,1.157e+01,8.422e+00,9.496e+00,1.213e+01,1.507e+01,1.097e+01,1.095e+01,8.720e+00,1.207e+01,1.156e+01
1.059e-01,5.605e-01,5.002e-01,5.849e-01,1.237e+00,2.063e+00,1.612e+00,2.430e+00,3.226e+00,2.993e+00,3.562e+00,3.789e+00,4.663e+00,3.545e+00,4.840e+00,3.929e+00,5.036e+00,3.727e+00,3.915e+00,7.206e+00,5.234e+00,5.992e+00,7.913e+00,6.905e+00,5.857e+00,6.066e+00,5.809e+00,7.767e+00,6.944e+00,7.540e+00,7.228e+00,8.523e+00,7.787e+00,6.009e+00,9.736e+00,7.995e+00,5.994e+00,7.676e+00,1.000e+01,9.120e+00,7.611e+00,9.526e+00,1.003e+01,7.866e+00,9.325e+00,8.226e+00,9.651e+00,8.249e+00,1.028e+01,9.339e+00,9.689e+00,9.712e+00,8.699e+00,7.370e+00,7.943e+00,8.784e+00,7.748e+00,9.069e+00,8.778e+00,9.443e+00,8.980e+00,7.181e+00,8.369e+00,9.403e+00,9.225e+00,7.213e+00,7.353e+00,9.461e+00,1.098e+01,9.335e+00,8.558e+00,8.485e+00,1.027e+01,9.453e+00
2.518e-02,2.440e-01,7.075e-01,9.454e-01,1.015e+00,2.013e+00,1.408e+00,1.829e+00,2.062e+00,3.062e+00,2.607e+00,3.165e+00,4.339e+00,2.499e+00,2.631e+00,3.258e+00,4.323e+00,3.113e+00,3.926e+00,5.983e+00,4.793e+00,5.220e+00,6.663e+00,6.719e+00,5.009e+00,5.542e+00,5.918e+00,8.074e+00,6.726e+00,7.691e+00,6.652e+00,8.297e+00,6.732e+00,6.820e+00,1.096e+01,8.027e+00,7.254e+00,8.761e+00,8.521e+00,1.042e+01,8.887e+00,1.075e+01,9.686e+00,1.121e+01,8.862e+00,9.457e+00,9.869e+00,9.845e+00,1.020e+01,1.045e+01,1.061e+01,1.127e+01,9.475e+00,7.675e+00,9.646e+00,1.069e+01,9.394e+00,9.447e+00,9.940e+00,1.060e+01,8.588e+00,8.392e+00,9.614e+00,9.727e+00,9.833e+00,8.014e+00,8.318e+00,1.110e+01,1.205e+01,8.946e+00,9.508e+00,8.081e+00,1.026e+01,1.016e+01
9.799e-03,4.684e-01,4.529e-01,5.454e-01,3.213e-01,1.099e+00,1.524e+00,1.512e+00,1.895e+00,1.715e+00,1.878e+00,2.258e+00,2.773e+00,2.543e+00,2.920e+00,2.353e+00,3.564e+00,2.986e+00,3.186e+00,4.842e+00,4.299e+00,4.801e+00,5.542e+00,4.958e+00,4.571e+00,4.339e+00,4.976e+00,6.922e+00,5.765e+00,6.314e+00,5.880e+00,8.029e+00,7.126e+00,6.253e+00,1.024e+01,7.785e+00,7.044e+00,8.486e+00,9.350e+00,9.122e+00,9.707e+00,1.143e+01,1.057e+01,1.086e+01,8.861e+00,1.034e+01,1.018e+01,9.885e+00,1.195e+01,9.297e+00,9.279e+00,1.077e+01,9.886e+00,8.216e+00,1.073e+01,1.072e+01,7.968e+00,1.022e+01,9.425e+00,1.171e+01,9.893e+00,9.144e+00,9.318e+00,1.015e+01,9.784e+00,7.795e+00,9.213e+00,1.018e+01,1.154e+01,1.033e+01,1.166e+01,7.174e+00,9.792e+00,9.569e+00
5.659e-02,1.054e-01,4.620e-01,6.177e-01,4.569e-01,1.023e+00,9.942e-01,9.571e-01,1.439e+00,1.528e+00,2.029e+00,2.054e+00,2.712e+00,1.652e+00,2.265e+00,2.034e+00,3.160e+00,2.313e+00,2.001e+00,3.947e+00,3.315e+00,3.671e+00,4.865e+00,4.590e+00,4.422e+00,4.039e+00,4.349e+00,5.653e+00,5.045e+00,6.207e+00,6.251e+00,6.815e+00,5.951e+00,5.821e+00,9.004e+00,6.542e+00,6.251e+00,7.703e+00,8.567e+00,9.488e+00,8.789e+00,8.647e+00,9.605e+00,9.899e+00,8.318e+00,9.223e+00,8.511e+00,9.549e+00,9.962e+00,8.901e+00,8.618e+00,1.009e+01,1.002e+01,7.856e+00,7.970e+00,9.115e+00,7.746e+00,8.518e+00,7.989e+00,1.021e+01,9.440e+00,7.810e+00,9.095e+00,9.235e+00,8.128e+00,6.744e+00,7.749e+00,9.377e+00,1.106e+01,8.109e+00,8.611e+00,8.534e+00,9.353e+00,9.693e+00
5.851e-02,2.314e-01,5.086e-01,6.618e-01,6.703e-01,1.698e+00,1.337e+00,1.646e+00,2.048e+00,2.559e+00,2.703e+00,2.785e+00,3.531e+00,2.780e+00,3.769e+00,3.219e+00,4.835e+00,3.579e+00,3.386e+00,6.001e+00,4.369e+00,5.820e+00,6.585e+00,6.260e+00,5.091e+00,5.000e+00,5.887e+00,6.919e+00,5.715e+00,7.042e+00,5.900e+00,6.935e+00,5.554e+00,6.465e+00,8.333e+00,7.689e+00,5.980e+00,8.143e+00,8.474e+00,8.605e+00,9.575e+00,1.009e+01,1.040e+01,1.058e+01,9.550e+00,9.493e+00,9.835e+00,1.018e+01,1.144e+01,8.894e+00,9.646e+00,1.199e+01,9.725e+00,8.779e+00,1.003e+01,1.056e+01,8.696e+00,9.562e+00,9.576e+00,1.084e+01,1.043e+01,8.133e+00,1.152e+01,1.047e+01,9.788e+00,9.029e+00,9.696e+00,1.030e+01,1.175e+01,1.002e+01,9.664e+00,7.795e+00,1.052e+01,9.612e+00
8.053e-02,8.571e-01,9.293e-01,1.128e+00,1.035e+00,2.532e+00,1.714e+00,2.556e+00,2.433e+00,3.088e+00,2.523e+00,3.232e+00,4.440e+00,3.245e+00,4.484e+00,3.604e+00,4.879e+00,3.404e+00,4.183e+00,7.069e+00,5.519e+00,6.990e+00,7.788e+00,7.473e+00,6.853e+00,6.395e+00,7.644e+00,9.565e+00,8.599e+00,9.654e+00,9.104e+00,1.009e+01,9.210e+00,7.591e+00,1.209e+01,9.547e+00,8.946e+00,9.999e+00,1.028e+01,1.049e+01,9.879e+00,1.187e+01,1.189e+01,1.225e+01,1.196e+01,1.079e+01,1.161e+01,1.069e+01,1.258e+01,1.111e+01,1.166e+01,1.268e+01,1.210e+01,8.950e+00,1.133e+01,1.075e+01,9.414e+00,1.153e+01,1.078e+01,1.270e+01,1.193e+01,1.048e+01,1.171e+01,1.191e+01,1.292e+01,9.666e+00,1.006e+01,1.165e+01,1.368e+01,1.186e+01,1.079e+01,9.141e+00,1.268e+01,1.183e+01
6.253e-02,7.004e-01,4.856e-01,5.493e-01,1.340e+00,2.492e+00,1.848e+00,2.922e+00,3.431e+00,3.588e+00,3.553e+00,4.002e+00,4.392e+00,4.213e+00,5.160e+00,4.078e+00,4.918e+00,3.711e+00,4.168e+00,7.394e+00,4.947e+00,6.213e+00,7.754e+00,6.462e+00,5.466e+00,6.210e+00,6.798e+00,8.734e+00,7.372e+00,8.671e+00,7.477e+00,9.513e+00,8.768e+00,6.928e+00,1.117e+01,1.072e+01,8.078e+00,9.424e+00,1.112e+01,1.134e+01,9.595e+00,1.181e+01,1.102e+01,1.159e+01,1.219e+01,1.161e+01,1.221e+01,1.237e+01,1.270e+01,1.189e+01,1.269e+01,1.299e+01,1.167e+01,9.755e+00,1.116e+01,1.233e+01,1.102e+01,1.125e+01,1.216e+01,1.282e+01,1.289e+01,1.153e+01,1.192e+01,1.339e+01,1.324e+01,1.023e+01,1.127e+01,1.376e+01,1.581e+01,1.327e+01,1.281e+01,9.398e+00,1.319e+01,1.145e+01
1.248e-01,6.268e-01,1.146e+00,1.471e+00,1.432e+00,2.895e+00,1.946e+00,2.594e+00,2.944e+00,4.255e+00,2.323e+00,3.986e+00,4.367e+00,4.079e+00,4.284e+00,4.115e+00,5.450e+00,3.686e+00,4.091e+00,7.230e+00,4.616e+00,5.996e+00,6.892e+00,6.198e+00,5.765e+00,6.292e+00,6.270e+00,8.727e+00,7.321e+00,9.106e+00,7.718e+00,8.114e+00,7.767e+00,6.841e+00,1.008e+01,8.718e+00,7.644e+00,9.614e+00,1.020e+01,1.009e+01,1.038e+01,1.082e+01,1.125e+01,1.308e+01,1.096e+01,1.191e+01,1.086e+01,1.096e+01,1.194e+01,1.150e+01,1.144e+01,1.252e+01,1.107e+01,1.059e+01,1.267e+01,1.157e+01,1.027e+01,1.140e+01,1.099e+01,1.150e+01,1.229e+01,1.120e+01,1.257e+01,1.099e+01,1.202e+01,9.183e+00,1.170e+01,1.173e+01,1.453e+01,9.719e+00,1.231e+01,9.152e+00,1.241e+01,1.092e+01
1.256e-01,5.799e-01,1.080e+00,1.383e+00,1.259e+00,2.266e+00,1.496e+00,2.020e+00,2.383e+00,3.201e+00,2.851e+00,3.901e+00,5.084e+00,3.119e+00,3.085e+00,3.678e+00,4.535e+00,3.508e+00,4.178e+00,6.570e+00,4.587e+00,5.195e+00,7.241e+00,6.150e+00,5.243e+00,4.793e+00,5.382e+00,7.641e+00,6.164e+00,7.586e+00,6.851e+00,7.591e+00,6.746e+00,5.670e+00,9.451e+00,8.365e+00,6.587e+00,8.125e+00,8.931e+00,1.027e+01,8.978e+00,9.454e+00,1.009e+01,1.201e+01,1.104e+01,1.055e+01,1.094e+01,1.069e+01,1.328e+01,1.110e+01,1.002e+01,1.123e+01,1.079e+01,8.529e+00,9.922e+00,1.136e+01,1.110e+01,1.015e+01,9.552e+00,1.073e+01,1.121e+01,1.076e+01,1.165e+01,1.169e+01,1.220e+01,9.644e+00,1.064e+01,1.163e+01,1.293e+01,8.842e+00,1.104e+01,1.062e+01,1.252e+01,1.195e+01
1.027e-01,4.224e-01,4.404e-01,5.227e-01,6.054e-01,1.116e+00,8.729e-01,1.171e+00,2.069e+00,2.037e+00,1.861e+00,2.533e+00,3.036e+00,2.655e+00,3.059e+00,2.387e+00,3.689e+00,2.937e+00,2.976e+00,5.835e+00,3.814e+00,5.288e+00,6.702e+00,5.852e+00,5.372e+00,5.073e+00,6.013e+00,7.469e+00,5.558e+00,7.457e+00,6.663e+00,7.263e+00,6.836e+00,6.077e+00,8.936e+00,7.894e+00,6.790e+00,8.090e+00,9.898e+00,9.959e+00,8.635e+00,8.821e+00,1.015e+01,1.101e+01,1.083e+01,1.084e+01,9.944e+00,1.095e+01,1.275e+01,1.182e+01,1.153e+01,1.174e+01,1.070e+01,1.028e+01,1.093e+01,1.194e+01,1.075e+01,1.068e+01,1.149e+01,1.059e+01,1.189e+01,1.109e+01,1.223e+01,1.174e+01,1.264e+01,9.773e+00,1.180e+01,1.288e+01,1.340e+01,1.105e+01,1.135e+01,8.919e+00,1.288e+01,1.055e+01
1.123e-02,6.291e-01,8.658e-01,1.088e+00,3.717e-01,1.618e+00,1.445e+00,1.608e+00,2.041e+00,3.125e+00,2.556e+00,3.406e+00,4.620e+00,3.077e+00,2.801e+00,2.653e+00,4.150e+00,3.017e+00,4.006e+00,5.975e+00,3.934e+00,4.714e+00,6.624e+00,5.754e+00,5.743e+00,4.851e+00,5.886e+00,7.561e+00,6.568e+00,7.683e+00,7.497e+00,8.685e+00,6.996e+00,6.647e+00,1.085e+01,9.194e+00,7.432e+00,9.457e+00,9.291e+00,1.108e+01,9.655e+00,1.087e+01,1.014e+01,1.201e+01,1.063e+01,1.147e+01,1.212e+01,1.053e+01,1.326e+01,1.185e+01,1.134e+01,1.315e+01,1.231e+01,1.004e+01,1.137e+01,1.263e+01,1.080e+01,1.184e+01,1.088e+01,1.275e+01,1.249e+01,1.124e+01,1.241e+01,1.279e+01,1.185e+01,1.071e+01,1.186e+01,1.309e+01,1.361e+01,1.129e+01,1.274e+01,9.029e+00,1.265e+01,1.231e+01
1.059e-01,6.129e-01,9.407e-01,1.181e+00,6.744e-01,1.945e+00,2.201e+00,2.203e+00,2.940e+00,3.513e+00,3.034e+00,3.867e+00,5.067e+00,3.375e+00,4.625e+00,4.169e+00,5.233e+00,3.225e+00,3.962e+00,6.554e+00,5.120e+00,6.723e+00,8.319e+00,7.112e+00,6.705e+00,6.189e+00,6.627e+00,8.642e+00,7.149e+00,7.476e+00,7.495e+00,8.600e+00,9.645e+00,6.675e+00,1.076e+01,9.196e+00,7.449e+00,9.380e+00,1.061e+01,1.083e+01,9.900e+00,1.051e+01,1.210e+01,1.217e+01,1.110e+01,9.268e+00,1.097e+01,1.121e+01,1.453e+01,1.142e+01,1.164e+01,1.207e+01,1.291e+01,1.025e+01,1.185e+01,1.297e+01,1.154e+01,1.230e+01,1.078e+01,1.371e+01,1.115e+01,1.149e+01,1.158e+01,1.251e+01,1.270e+01,1.012e+01,1.113e+01,1.300e+01,1.539e+01,1.146e+01,1.292e+01,9.488e+00,1.318e+01,1.246e+01
3.176e-02,4.843e-01,3.363e-01,3.846e-01,7.928e-01,1.233e+00,1.350e+00,1.619e+00,2.548e+00,2.491e+00,2.374e+00,3.155e+00,3.308e+00,3.135e+00,3.431e+00,3.121e+00,4.953e+00,4.001e+00,4.064e+00,7.122e+00,5.183e+00,6.208e+00,7.648e+00,6.418e+00,5.563e+00,5.962e+00,6.396e+00,9.172e+00,6.695e+00,8.147e+00,7.646e+00,9.587e+00,8.564e+00,6.794e+00,1.164e+01,9.370e+00,8.302e+00,9.768e+00,1.231e+01,1.093e+01,1.105e+01,1.239e+01,1.218e+01,1.393e+01,1.212e+01,1.283e+01,1.207e+01,1.254e+01,1.460e+01,1.351e+01,1.332e+01,1.371e+01,1.449e+01,1.213e+01,1.306e+01,1.449e+01,1.239e+01,1.338e+01,1.384e+01,1.449e+01,1.252e+01,1.329e+01,1.329e+01,1.398e+01,1.343e+01,1.006e+01,1.299e+01,1.470e+01,1.674e+01,1.321e+01,1.450e+01,1.101e+01,1.382e+01,1.371e+01
1.357e-01,8.743e-01,8.024e-01,9.386e-01,8.538e-01,1.932e+00,1.810e+00,2.234e+00,2.769e+00,3.071e+00,1.987e+00,3.344e+00,3.820e+00,2.553e+00,3.265e+00,3.649e+00,3.735e+00,3.210e+00,4.344e+00,5.870e+00,4.777e+00,6.063e+00,7.527e+00,6.558e+00,5.323e+00,5.763e+00,4.718e+00,7.627e+00,7.602e+00,8.710e+00,8.490e+00,8.958e+00,8.086e+00,6.652e+00,1.076e+01,9.216e+00,7.782e+00,9.988e+00,1.138e+01,1.100e+01,8.817e+00,1.117e+01,1.168e+01,1.295e+01,1.179e+01,1.161e+01,1.241e+01,1.227e+01,1.489e+01,1.295e+01,1.227e+01,1.547e+01,1.470e+01,1.226e+01,1.324e+01,1.557e+01,1.285e+01,1.408e+01,1.380e+01,1.541e+01,1.424e+01,1.246e+01,1.239e+01,1.404e+01,1.370e+01,1.175e+01,1.340e+01,1.422e+01,1.744e+01,1.301e+01,1.302e+01,1.225e+01,1.628e+01,1.429e+01
7.987e-03,1.191e-01,3.702e-01,4.985e-01,6.631e-01,1.201e+00,8.029e-01,1.144e+00,1.932e+00,2.118e+00,2.126e+00,2.482e+00,3.868e+00,2.663e+00,2.576e+00,2.184e+00,4.514e+00,2.487e+00,2.664e+00,5.067e+00,3.912e+00,4.701e+00,6.488e+00,6.125e+00,6.158e+00,4.765e+00,5.503e+00,6.835e+00,5.014e+00,6.112e+00,6.753e+00,7.266e+00,5.776e+00,6.032e+00,9.622e+00,7.941e+00,6.243e+00,7.539e+00,8.754e+00,8.665e+00,8.502e+00,1.037e+01,9.906e+00,1.038e+01,1.036e+01,1.176e+01,1.049e+01,1.090e+01,1.308e+01,1.204e+01,1.149e+01,1.373e+01,1.275e+01,1.082e+01,1.180e+01,1.422e+01,1.083e+01,1.348e+01,1.269e+01,1.172e+01,1.205e+01,1.195e+01,1.312e+01,1.239e+01,1.252e+01,1.047e+01,1.197e+01,1.408e+01,1.364e+01,1.197e+01,1.333e+01,9.744e+00,1.242e+01,1.124e+01
3.836e-02,5.612e-01,4.290e-01,4.899e-01,5.992e-01,1.508e+00,9.828e-01,1.694e+00,1.783e+00,2.242e+00,1.337e+00,2.328e+00,2.870e+00,2.387e+00,2.810e+00,1.921e+00,3.276e+00,2.465e+00,2.986e+00,5.012e+00,4.068e+00,5.028e+00,5.648e+00,5.837e+00,5.435e+00,5.120e+00,5.396e+00,7.291e+00,6.069e+00,7.236e+00,7.068e+00,7.308e+00,6.827e+00,6.134e+00,9.154e+00,7.798e+00,6.381e+00,8.260e+00,9.492e+00,8.534e+00,7.122e+00,1.004e+01,1.051e+01,1.076e+01,9.789e+00,9.949e+00,9.446e+00,1.044e+01,1.217e+01,1.081e+01,1.088e+01,1.160e+01,1.135e+01,1.008e+01,1.108e+01,1.203e+01,9.851e+00,1.173e+01,1.217e+01,1.250e+01,1.146e+01,1.035e+01,1.185e+01,1.091e+01,1.154e+01,1.008e+01,1.055e+01,1.190e+01,1.396e+01,1.235e+01,1.234e+01,9.424e+00,1.245e+01,1.120e+01
1.162e-01,2.508e-01,5.494e-01,7.027e-01,6.924e-01,1.181e+00,1.277e+00,1.336e+00,2.597e+00,2.687e+00,2.310e+00,3.243e+00,4.357e+00,2.782e+00,3.240e+00,3.141e+00,4.912e+00,2.947e+00,3.128e+00,5.755e+00,4.317e+00,5.403e+00,7.018e+00,6.279e+00,5.844e+00,5.587e+00,5.205e+00,7.649e+00,5.674e+00,7.600e+00,7.512e+00,7.598e+00,7.513e+00,6.886e+00,9.654e+00,8.600e+00,6.221e+00,8.724e+00,9.670e+00,1.071e+01,9.537e+00,1.041e+01,1.128e+01,1.231e+01,1.171e+01,1.122e+01,1.157e+01,1.109e+01,1.329e+01,1.263e+01,1.144e+01,1.382e+01,1.240e+01,1.066e+01,1.227e+01,1.386e+01,1.221e+01,1.332e+01,1.298e+01,1.315e+01,1.409e+01,1.311e+01,1.378e+01,1.313e+01,1.288e+01,1.042e+01,1.252e+01,1.437e+01,1.594e+01,1.168e+01,1.308e+01,1.118e+01,1.466e+01,1.218e+01
1.354e-01,7.677e-01,1.047e+00,1.297e+00,7.706e-01,1.851e+00,1.809e+00,1.891e+00,2.477e+00,3.026e+00,2.879e+00,3.416e+00,4.099e+00,2.524e+00,3.909e+00,3.631e+00,4.497e+00,3.300e+00,3.421e+00,6.695e+00,3.990e+00,5.500e+00,6.675e+00,5.477e+00,4.881e+00,5.543e+00,5.559e+00,7.262e+00,5.752e+00,7.250e+00,6.905e+00,7.800e+00,6.554e+00,5.646e+00,9.172e+00,7.961e+00,6.813e+00,8.325e+00,7.713e+00,9.087e+00,8.722e+00,8.358e+00,9.317e+00,1.034e+01,9.373e+00,9.030e+00,1.067e+01,8.066e+00,1.228e+01,1.137e+01,1.019e+01,1.250e+01,1.303e+01,1.065e+01,1.189e+01,1.270e+01,1.133e+01,1.281e+01,1.254e+01,1.290e+01,1.154e+01,1.318e+01,1.331e+01,1.263e+01,1.239e+01,1.085e+01,1.256e+01,1.346e+01,1.525e+01,1.130e+01,1.249e+01,1.233e+01,1.439e+01,1.262e+01
9.424e-02,4.560e-01,9.875e-01,1.283e+00,1.173e+00,2.576e+00,2.276e+00,2.630e+00,3.178e+00,3.395e+00,3.449e+00,3.483e+00,4.524e+00,3.754e+00,4.160e+00,4.119e+00,4.577e+00,3.157e+00,3.228e+00,6.549e+00,4.727e+00,5.545e+00,6.457e+00,5.849e+00,4.793e+00,4.190e+00,5.905e+00,7.494e+00,5.626e+00,6.798e+00,5.803e+00,7.559e+00,6.868e+00,6.139e+00,9.225e+00,8.903e+00,7.493e+00,8.392e+00,8.764e+00,9.085e+00,9.110e+00,9.293e+00,9.786e+00,1.021e+01,9.958e+00,9.390e+00,1.084e+01,1.075e+01,1.248e+01,1.030e+01,1.079e+01,1.231e+01,1.278e+01,1.060e+01,1.192e+01,1.255e+01,1.063e+01,1.230e+01,1.197e+01,1.304e+01,1.164e+01,1.226e+01,1.352e+01,1.227e+01,1.379e+01,1.088e+01,1.317e+01,1.350e+01,1.565e+01,1.255e+01,1.429e+01,1.032e+01,1.190e+01,1.206e+01
1.265e-02,7.837e-01,6.694e-01,7.906e-01,6.218e-01,1.680e+00,1.611e+00,1.990e+00,2.017e+00,2.470e+00,2.648e+00,3.178e+00,3.719e+00,2.877e+00,3.170e+00,2.895e+00,3.771e+00,3.443e+00,4.156e+00,5.975e+00,4.683e+00,5.562e+00,7.055e+00,6.914e+00,5.626e+00,5.780e+00,6.349e+00,7.911e+00,7.114e+00,7.645e+00,7.228e+00,9.072e+00,6.857e+00,7.022e+00,1.114e+01,7.918e+00,7.333e+00,9.459e+00,9.969e+00,1.028e+01,8.900e+00,1.129e+01,1.008e+01,1.219e+01,1.047e+01,1.214e+01,1.174e+01,1.176e+01,1.509e+01,1.317e+01,1.291e+01,1.445e+01,1.546e+01,1.189e+01,1.266e+01,1.538e+01,1.284e+01,1.543e+01,1.505e+01,1.563e+01,1.297e+01,1.459e+01,1.492e+01,1.480e+01,1.576e+01,1.288e+01,1.467e+01,1.617e+01,1.910e+01,1.605e+01,1.577e+01,1.220e+01,1.484e+01,1.330e+01
6.640e-04,5.142e-01,5.011e-01,6.067e-01,6.531e-01,1.514e+00,1.109e+00,1.692e+00,1.754e+00,2.356e+00,1.534e+00,2.517e+00,3.448e+00,3.129e+00,2.732e+00,2.347e+00,3.648e+00,2.539e+00,3.175e+00,5.032e+00,4.056e+00,4.795e+00,6.525e+00,5.415e+00,5.484e+00,4.280e+00,4.803e+00,7.015e+00,5.826e+00,6.213e+00,5.969e+00,7.352e+00,7.063e+00,5.536e+00,8.904e+00,6.955e+00,6.254e+00,6.910e+00,9.853e+00,8.984e+00,8.227e+00,8.857e+00,9.989e+00,1.221e+01,1.215e+01,1.024e+01,1.024e+01,1.144e+01,1.278e+01,1.179e+01,1.170e+01,1.193e+01,1.217e+01,1.047e+01,1.170e+01,1.290e+01,1.208e+01,1.254e+01,1.237e+01,1.316e+01,1.306e+01,1.269e+01,1.321e+01,1.370e+01,1.501e+01,1.216e+01,1.195e+01,1.578e+01,1.561e+01,1.372e+01,1.356e+01,1.133e+01,1.452e+01,1.354e+01
1.328e-01,4.218e-01,6.901e-01,8.653e-01,9.773e-01,1.680e+00,1.401e+00,1.809e+00,2.884e+00,3.081e+00,3.640e+00,4.102e+00,4.756e+00,3.360e+00,4.297e+00,3.653e+00,5.289e+00,4.424e+00,4.117e+00,8.031e+00,5.335e+00,5.931e+00,8.053e+00,6.173e+00,5.677e+00,6.166e+00,6.071e+00,8.171e+00,5.997e+00,7.511e+00,7.129e+00,7.815e+00,8.418e+00,6.595e+00,9.816e+00,8.739e+00,7.203e+00,8.939e+00,1.092e+01,1.046e+01,9.107e+00,1.038e+01,1.035e+01,1.128e+01,1.087e+01,1.141e+01,1.068e+01,1.111e+01,1.402e+01,1.278e+01,1.121e+01,1.255e+01,1.313e+01,1.221e+01,1.243e+01,1.467e+01,1.349e+01,1.476e+01,1.346e+01,1.555e+01,1.534e+01,1.576e+01,1.540e+01,1.503e+01,1.463e+01,1.353e+01,1.529e+01,1.743e+01,1.912e+01,1.480e+01,1.733e+01,1.398e+01,1.713e+01,1.541e+01
6.592e-02,1.985e-01,6.442e-01,8.613e-01,1.447e+00,2.531e+00,1.623e+00,2.484e+00,3.263e+00,3.720e+00,3.670e+00,4.196e+00,5.471e+00,3.901e+00,3.940e+00,3.744e+00,5.324e+00,3.352e+00,3.705e+00,7.210e+00,5.487e+00,5.857e+00,7.564e+00,6.550e+00,6.493e+00,5.416e+00,6.607e+00,8.656e+00,6.185e+00,8.328e+00,7.894e+00,9.131e+00,8.831e+00,7.325e+00,1.145e+01,9.924e+00,8.350e+00,9.976e+00,1.080e+01,1.140e+01,9.763e+00,1.298e+01,1.230e+01,1.256e+01,1.278e+01,1.321e+01,1.200e+01,1.266e+01,1.516e+01,1.335e+01,1.208e+01,1.527e+01,1.398e+01,1.342e+01,1.392e+01,1.537e+01,1.308e+01,1.614e+01,1.491e+01,1.630e+01,1.696e+01,1.681e+01,1.694e+01,1.606e+01,1.678e+01,1.462e+01,1.538e+01,1.710e+01,2.012e+01,1.505e+01,1.814e+01,1.384e+01,1.621e+01,1.720e+01
1.150e-02,2.481e-01,3.114e-01,3.973e-01,1.039e+00,1.674e+00,1.408e+00,1.971e+00,2.555e+00,2.168e+00,2.425e+00,2.467e+00,3.521e+00,2.723e+00,2.718e+00,3.066e+00,3.836e+00,2.274e+00,2.844e+00,5.123e+00,4.933e+00,5.678e+00,6.059e+00,6.339e+00,4.890e+00,4.759e+00,5.736e+00,7.121e+00,5.357e+00,6.631e+00,6.509e+00,8.158e+00,7.918e+00,6.969e+00,1.068e+01,8.555e+00,7.859e+00,8.970e+00,1.095e+01,1.049e+01,8.898e+00,1.107e+01,1.090e+01,1.292e+01,1.228e+01,1.169e+01,1.275e+01,1.257e+01,1.581e+01,1.299e+01,1.344e+01,1.426e+01,1.476e+01,1.182e+01,1.319e+01,1.487e+01,1.237e+01,1.466e+01,1.510e+01,1.538e+01,1.437e+01,1.568e+01,1.590e+01,1.556e+01,1.688e+01,1.380e+01,1.516e+01,1.674e+01,1.953e+01,1.582e+01,1.557e+01,1.313e+01,1.679e+01,1.426e+01
1.434e-01,4.091e-01,7.361e-01,9.345e-01,1.108e+00,1.995e+00,1.586e+00,1.979e+00,3.104e+00,3.577e+00,3.200e+00,4.247e+00,4.742e+00,3.797e+00,4.906e+00,3.881e+00,6.309e+00,5.147e+00,4.666e+00,8.574e+00,5.503e+00,6.556e+00,8.541e+00,6.317e+00,6.214e+00,6.207e+00,6.544e+00,9.366e+00,6.961e+00,9.067e+00,8.364e+00,9.600e+00,8.967e+00,7.424e+00,1.219e+01,1.051e+01,7.872e+00,1.042e+01,1.187e+01,1.161e+01,1.271e+01,1.273e+01,1.337e+01,1.480e+01,1.305e+01,1.383e+01,1.264e+01,1.299e+01,1.579e+01,1.442e+01,1.354e+01,1.637e+01,1.619e+01,1.396e+01,1.552e+01,1.742e+01,1.481e+01,1.755e+01,1.611e+01,1.930e+01,1.745e+01,1.678e+01,1.944e+01,1.870e+01,1.936e+01,1.628e+01,1.811e+01,2.096e+01,2.253e+01,1.898e+01,2.030e+01,1.565e+01,1.826e+01,1.962e+01
1.066e-01,3.298e-01,6.107e-01,7.816e-01,1.103e+00,2.099e+00,1.702e+00,2.166e+00,2.812e+00,3.069e+00,2.537e+00,3.137e+00,3.852e+00,3.372e+00,4.097e+00,3.518e+00,4.470e+00,3.191e+00,3.494e+00,6.164e+00,4.510e+00,5.927e+00,7.049e+00,6.698e+00,5.330e+00,5.738e+00,6.069e+00,8.050e+00,6.319e+00,8.121e+00,7.502e+00,8.521e+00,8.860e+00,7.039e+00,1.172e+01,9.663e+00,8.882e+00,1.043e+01,1.175e+01,1.066e+01,1.058e+01,1.185e+01,1.253e+01,1.411e+01,1.305e+01,1.214e+01,1.230e+01,1.284e+01,1.517e+01,1.414e+01,1.366e+01,1.599e+01,1.664e+01,1.359e+01,1.436e+01,1.661e+01,1.391e+01,1.649e+01,1.563e+01,1.720e+01,1.614e+01,1.700e+01,1.772e+01,1.763e+01,1.832e+01,1.643e+01,1.757e+01,2.029e+01,2.345e+01,1.783e+01,1.816e+01,1.527e+01,1.838e+01,1.868e+01
8.216e-02,2.046e-01,8.679e-01,1.159e+00,6.234e-01,1.814e+00,1.960e+00,1.821e+00,2.265e+00,3.444e+00,2.984e+00,3.539e+00,4.124e+00,3.283e+00,4.164e+00,3.537e+00,4.951e+00,4.111e+00,3.965e+00,7.543e+00,5.372e+00,6.358e+00,8.462e+00,7.503e+00,6.186e+00,6.330e+00,7.277e+00,9.498e+00,7.098e+00,8.683e+00,7.700e+00,8.587e+00,9.318e+00,7.653e+00,1.159e+01,9.577e+00,8.023e+00,1.042e+01,1.070e+01,1.171e+01,1.173e+01,1.258e+01,1.325e+01,1.435e+01,1.137e+01,1.210e+01,1.194e+01,1.241e+01,1.547e+01,1.341e+01,1.304e+01,1.462e+01,1.552e+01,1.274e+01,1.344e+01,1.560e+01,1.258e+01,1.543e+01,1.465e+01,1.730e+01,1.588e+01,1.592e+01,1.813e+01,1.717e+01,1.748e+01,1.653e+01,1.693e+01,1.958e+01,2.098e+01,1.818e+01,1.843e+01,1.525e+01,1.807e+01,1.802e+01
1.143e-01,8.933e-01,1.267e+00,1.587e+00,1.093e+00,2.401e+00,2.411e+00,2.522e+00,2.704e+00,2.962e+00,3.159e+00,3.772e+00,4.724e+00,3.519e+00,4.307e+00,4.265e+00,4.747e+00,3.498e+00,3.771e+00,6.471e+00,4.778e+00,5.948e+00,7.700e+00,5.974e+00,5.830e+00,5.491e+00,5.697e+00,7.677e+00,5.914e+00,5.814e+00,5.516e+00,7.682e+00,7.554e+00,6.316e+00,1.003e+01,7.270e+00,7.093e+00,8.689e+00,9.392e+00,7.994e+00,8.312e+00,8.707e+00,9.614e+00,1.131e+01,1.015e+01,1.006e+01,1.025e+01,9.852e+00,1.384e+01,1.146e+01,1.147e+01,1.192e+01,1.245e+01,1.028e+01,1.251e+01,1.303e+01,1.275e+01,1.310e+01,1.204e+01,1.308e+01,1.223e+01,1.429e+01,1.351e+01,1.293e+01,1.427e+01,1.279e+01,1.374e+01,1.624e+01,1.823e+01,1.431e+01,1.653e+01,1.259e+01,1.510e+01,1.431e+01
4.113e-02,6.818e-01,8.686e-01,1.085e+00,1.169e+00,2.634e+00,1.956e+00,2.747e+00,2.989e+00,3.691e+00,3.293e+00,3.630e+00,4.650e+00,4.003e+00,4.412e+00,4.046e+00,4.875e+00,3.298e+00,3.822e+00,7.098e+00,4.936e+00,5.426e+00,7.151e+00,6.522e+00,5.801e+00,6.195e+00,6.640e+00,8.498e+00,7.685e+00,8.736e+00,8.428e+00,9.317e+00,8.666e+00,7.815e+00,1.225e+01,1.078e+01,8.836e+00,1.066e+01,1.211e+01,1.235e+01,1.066e+01,1.202e+01,1.255e+01,1.321e+01,1.237e+01,1.202e+01,1.364e+01,1.259e+01,1.431e+01,1.311e+01,1.361e+01,1.520e+01,1.490e+01,1.227e+01,1.348e+01,1.473e+01,1.292e+01,1.548e+01,1.469e+01,1.668e+01,1.708e+01,1.568e+01,1.686e+01,1.620e+01,1.654e+01,1.585e+01,1.674e+01,2.001e+01,2.305e+01,1.765e+01,1.829e+01,1.607e+01,1.892e+01,1.924e+01
1.002e-01,9.196e-01,1.190e+00,1.476e+00,1.202e+00,2.632e+00,2.382e+00,2.890e+00,2.894e+00,3.734e+00,3.888e+00,4.749e+00,5.579e+00,4.681e+00,5.330e+00,4.702e+00,5.861e+00,5.086e+00,5.326e+00,8.907e+00,6.487e+00,7.129e+00,9.610e+00,7.841e+00,7.032e+00,6.946e+00,7.214e+00,9.930e+00,8.149e+00,8.229e+00,8.139e+00,9.611e+00,9.562e+00,7.841e+00,1.190e+01,9.797e+00,8.083e+00,1.099e+01,1.257e+01,1.183e+01,1.230e+01,1.299e+01,1.360e+01,1.370e+01,1.223e+01,1.257e+01,1.303e+01,1.282e+01,1.528e+01,1.272e+01,1.392e+01,1.524e+01,1.631e+01,1.278e+01,1.444e+01,1.597e+01,1.370e+01,1.493e+01,1.435e+01,1.764e+01,1.640e+01,1.560e+01,1.689e+01,1.685e+01,1.653e+01,1.585e+01,1.610e+01,2.092e+01,2.302e+01,1.949e+01,1.957e+01,1.652e+01,1.977e+01,2.003e+01
1.262e-01,2.926e-01,4.468e-01,5.522e-01,9.426e-01,1.544e+00,1.511e+00,1.896e+00,2.523e+00,2.361e+00,2.884e+00,3.372e+00,4.024e+00,3.576e+00,4.526e+00,3.594e+00,4.781e+00,4.493e+00,4.413e+00,6.741e+00,5.189e+00,5.840e+00,7.265e+00,6.139e+00,4.245e+00,5.894e+00,5.708e+00,8.110e+00,6.775e+00,8.759e+00,7.694e+00,8.606e+00,8.691e+00,7.202e+00,1.156e+01,1.030e+01,7.847e+00,1.006e+01,1.106e+01,1.131e+01,1.073e+01,1.181e+01,1.229e+01,1.308e+01,1.157e+01,1.205e+01,1.240e+01,1.292e+01,1.412e+01,1.161e+01,1.316e+01,1.375e+01,1.534e+01,1.204e+01,1.442e+01,1.500e+01,1.310e+01,1.444e+01,1.375e+01,1.730e+01,1.519e+01,1.425e+01,1.587e+01,1.531e+01,1.633e+01,1.482e+01,1.586e+01,1.777e+01,2.262e+01,1.858e+01,1.928e+01,1.407e+01,1.917e+01,1.777e+01
6.715e-03,4.430e-01,4.920e-01,6.074e-01,9.214e-01,2.185e+00,1.475e+00,2.411e+00,2.484e+00,3.294e+00,3.624e+00,3.688e+00,4.314e+00,3.347e+00,4.192e+00,2.891e+00,4.154e+00,3.125e+00,3.285e+00,6.478e+00,4.616e+00,5.115e+00,7.182e+00,6.865e+00,6.304e+00,5.564e+00,7.076e+00,7.625e+00,6.330e+00,7.894e+00,7.711e+00,8.443e+00,8.889e+00,7.267e+00,1.156e+01,9.840e+00,7.741e+00,9.151e+00,1.082e+01,1.240e+01,9.833e+00,1.179e+01,1.188e+01,1.161e+01,1.197e+01,1.235e+01,1.231e+01,1.207e+01,1.553e+01,1.292e+01,1.332e+01,1.365e+01,1.511e+01,1.189e+01,1.168e+01,1.525e+01,1.282e+01,1.456e+01,1.370e+01,1.590e+01,1.628e+01,1.626e+01,1.600e+01,1.722e+01,1.809e+01,1.564e+01,1.579e+01,1.945e+01,2.310e+01,1.974e+01,1.802e+01,1.724e+01,1.945e+01,1.900e+01
6.566e-02,9.227e-01,1.057e+00,1.293e+00,5.067e-01,2.134e+00,1.818e+00,2.077e+00,1.994e+00,3.464e+00,2.641e+00,3.753e+00,4.042e+00,2.749e+00,4.125e+00,3.335e+00,4.576e+00,4.175e+00,4.586e+00,7.113e+00,4.532e+00,5.553e+00,7.212e+00,5.388e+00,5.818e+00,5.545e+00,5.404e+00,6.933e+00,6.730e+00,6.795e+00,6.547e+00,8.331e+00,8.113e+00,7.221e+00,1.127e+01,8.362e+00,8.059e+00,9.686e+00,1.015e+01,9.064e+00,9.008e+00,1.112e+01,1.006e+01,1.175e+01,1.076e+01,1.189e+01,1.190e+01,1.100e+01,1.488e+01,1.280e+01,1.266e+01,1.480e+01,1.357e+01,1.167e+01,1.416e+01,1.522e+01,1.326e+01,1.589e+01,1.496e+01,1.739e+01,1.666e+01,1.679e+01,1.652e+01,1.633e+01,1.731e+01,1.647e+01,1.692e+01,2.063e+01,2.240e+01,2.084e+01,1.972e+01,1.602e+01,2.164e+01,2.071e+01
4.885e-02,5.377e-02,6.942e-01,9.593e-01,9.370e-01,2.149e+00,2.192e+00,2.165e+00,2.882e+00,3.497e+00,3.215e+00,3.203e+00,4.164e+00,3.784e+00,4.589e+00,4.546e+00,5.944e+00,4.043e+00,3.858e+00,7.518e+00,5.681e+00,6.520e+00,7.809e+00,7.788e+00,5.651e+00,6.016e+00,6.737e+00,8.508e+00,7.392e+00,8.998e+00,7.501e+00,9.266e+00,9.574e+00,8.513e+00,1.251e+01,1.036e+01,8.679e+00,1.061e+01,1.186e+01,1.178e+01,1.184e+01,1.193e+01,1.232e+01,1.341e+01,1.238e+01,1.131e+01,1.346e+01,1.262e+01,1.508e+01,1.346e+01,1.451e+01,1.477e+01,1.534e+01,1.296e+01,1.457e+01,1.453e+01,1.299e+01,1.513e+01,1.489e+01,1.648e+01,1.538e+01,1.540e+01,1.685e+01,1.591e+01,1.719e+01,1.409e+01,1.600e+01,1.914e+01,2.256e+01,1.859e+01,1.750e+01,1.598e+01,2.047e+01,1.865e+01
2.279e-02,6.982e-01,5.594e-01,6.478e-01,3.368e-01,1.050e+00,8.601e-01,1.156e+00,1.244e+00,1.879e+00,1.615e+00,2.129e+00,2.747e+00,1.459e+00,2.122e+00,2.048e+00,3.025e+00,1.887e+00,2.704e+00,4.411e+00,3.231e+00,4.696e+00,5.536e+00,5.543e+00,5.004e+00,5.143e+00,5.318e+00,6.412e+00,5.693e+00,6.202e+00,6.448e+00,6.386e+00,5.254e+00,5.348e+00,8.016e+00,6.336e+00,5.714e+00,7.470e+00,7.816e+00,8.327e+00,8.018e+00,9.053e+00,9.212e+00,9.570e+00,8.863e+00,9.494e+00,8.944e+00,9.753e+00,1.108e+01,9.633e+00,1.002e+01,1.203e+01,1.290e+01,1.082e+01,1.063e+01,1.253e+01,1.017e+01,1.284e+01,1.257e+01,1.327e+01,1.284e+01,1.300e+01,1.329e+01,1.289e+01,1.293e+01,1.232e+01,1.217e+01,1.512e+01,1.751e+01,1.465e+01,1.481e+01,1.278e+01,1.542e+01,1.484e+01
1.326e-01,3.018e-01,9.341e-01,1.225e+00,8.656e-01,2.089e+00,1.895e+00,2.045e+00,2.940e+00,3.254e+00,3.576e+00,3.585e+00,4.717e+00,3.633e+00,4.812e+00,4.180e+00,5.806e+00,4.070e+00,3.419e+00,7.614e+00,5.240e+00,6.571e+00,7.853e+00,7.105e+00,6.026e+00,6.243e+00,6.688e+00,8.493e+00,7.792e+00,8.974e+00,8.109e+00,8.902e+00,8.521e+00,7.720e+00,1.056e+01,9.824e+00,8.182e+00,9.264e+00,1.008e+01,1.044e+01,1.021e+01,1.053e+01,1.171e+01,1.304e+01,1.224e+01,1.206e+01,1.290e+01,1.242e+01,1.425e+01,1.271e+01,1.172e+01,1.357e+01,1.428e+01,1.277e+01,1.335e+01,1.405e+01,1.381e+01,1.533e+01,1.446e+01,1.629e+01,1.559e+01,1.672e+01,1.815e+01,1.645e+01,1.778e+01,1.582e+01,1.680e+01,2.109e+01,2.302e+01,1.857e+01,1.949e+01,1.740e+01,2.215e+01,2.204e+01
