7.505e-01,3.973e-01,6.290e-02,4.056e-01,8.171e-02,5.708e-01,8.061e-02,9.353e-01,5.804e-01,2.812e-01,5.061e-01,5.122e-02,8.366e-01,9.811e-01,7.270e-01,4.332e-01,8.991e-01,9.214e-01,7.479e-02,1.768e-01,3.829e-01,9.630e-01,7.067e-01,1.289e-01,6.531e-01,4.972e-01,9.360e-01,9.195e-01,5.062e-01,3.147e-01,2.836e-01,8.083e-02,3.306e-01,8.610e-01,3.652e-01,2.680e-01,1.806e-01,7.309e-01,5.867e-01,1.815e-01,8.593e-01,5.320e-01,2.190e-01,4.951e-01,3.578e-01,6.877e-01,8.968e-01,4.319e-01,4.048e-01,3.231e-01,3.699e-01,8.524e-01,7.140e-01,4.148e-01,2.281e-01,4.847e-02,4.102e-01,7.868e-01,1.761e-01,1.989e-01,2.263e-01,2.721e-01,6.995e-01,6.642e-01,3.939e-01,7.313e-01,5.773e-01,7.064e-01,2.115e-01,2.868e-01,8.875e-01,7.106e-01,3.742e-01,2.537e-01,4.973e-01
3.708e-01,5.955e-01,7.436e-01,1.186e+00,9.723e-01,4.280e-01,9.358e-01,6.841e-01,3.652e-01,7.878e-01,1.028e+00,1.543e-01,7.544e-01,1.319e+00,1.340e+00,6.685e-01,1.082e+00,7.764e-01,7.091e-01,5.190e-01,2.434e-01,1.380e+00,5.474e-01,1.025e+00,6.414e-01,3.933e-01,1.012e+00,1.379e+00,8.446e-01,7.426e-01,1.071e+00,3.852e-01,3.284e-01,1.346e+00,4.562e-01,1.711e-01,1.031e+00,1.258e+00,4.419e-01,4.364e-01,8.739e-01,3.508e-01,2.914e-01,1.215e+00,4.691e-01,7.926e-01,7.979e-01,8.480e-01,2.367e-01,5.929e-01,1.013e+00,7.385e-01,1.145e+00,1.048e+00,3.551e-01,6.606e-01,2.691e-01,7.313e-01,1.055e+00,1.089e+00,4.247e-01,8.255e-01,4.982e-01,9.754e-01,4.457e-01,5.639e-01,6.829e-01,6.901e-01,7.852e-01,5.970e-01,7.369e-01,5.378e-01,2.069e-01,9.655e-01,5.304e-01
3.933e-02,1.126e-01,5.373e-01,1.230e+00,8.535e-01,3.802e-01,6.825e-01,1.010e+00,9.647e-01,6.635e-01,9.506e-01,6.243e-01,9.264e-01,1.216e+00,5.009e-01,8.977e-01,6.509e-01,1.995e-01,9.055e-01,5.322e-01,5.811e-01,8.339e-01,5.531e-01,3.917e-01,2.438e-01,3.146e-01,3.858e-01,6.998e-01,3.538e-01,7.960e-01,8.938e-01,8.874e-01,9.865e-01,3.416e-01,7.719e-01,8.210e-01,1.194e+00,2.726e-01,8.365e-01,8.108e-01,5.073e-01,2.647e-01,9.259e-01,2.983e-01,8.827e-01,2.292e-01,3.146e-01,3.242e-01,5.859e-01,7.444e-01,1.071e+00,9.279e-01,6.413e-01,7.646e-01,2.861e-01,8.540e-01,6.391e-01,6.080e-01,4.193e-01,6.688e-01,8.460e-02,1.125e+00,6.311e-01,2.319e-01,5.127e-01,1.068e+00,1.568e-01,6.687e-01,4.511e-01,1.018e+00,9.487e-01,6.675e-01,5.991e-01,1.176e+00,3.461e-01
6.506e-01,5.545e-01,7.196e-01,1.786e+00,1.271e+00,1.157e+00,1.910e+00,1.778e+00,1.980e+00,1.276e+00,2.383e+00,6.801e-01,1.839e+00,3.012e+00,1.542e+00,1.436e+00,2.005e+00,1.523e+00,1.541e+00,1.491e+00,8.912e-01,1.904e+00,1.163e+00,1.065e+00,1.522e+00,9.289e-01,1.742e+00,2.621e+00,1.860e+00,1.645e+00,1.693e+00,1.639e+00,1.706e+00,1.686e+00,1.484e+00,1.675e+00,2.258e+00,2.099e+00,1.589e+00,1.792e+00,2.215e+00,9.348e-01,1.770e+00,1.134e+00,2.040e+00,1.142e+00,1.225e+00,1.082e+00,1.092e+00,1.108e+00,2.326e+00,1.880e+00,2.287e+00,2.049e+00,9.257e-01,1.722e+00,1.332e+00,2.199e+00,1.176e+00,1.286e+00,1.002e+00,1.796e+00,1.717e+00,1.789e+00,8.787e-01,2.022e+00,1.522e+00,1.960e+00,1.225e+00,1.237e+00,2.060e+00,2.152e+00,8.692e-01,1.825e+00,1.004e+00
4.046e-01,3.247e-01,4.056e-01,9.635e-01,1.282e+00,1.103e+00,1.239e+00,1.667e+00,1.470e+00,6.436e-01,1.697e+00,6.084e-01,1.602e+00,1.788e+00,1.402e+00,9.953e-01,1.674e+00,6.876e-01,1.480e+00,1.137e+00,1.423e+00,1.090e+00,8.440e-01,8.618e-01,8.249e-01,1.299e+00,1.421e+00,1.518e+00,9.513e-01,8.858e-01,1.747e+00,1.268e+00,1.648e+00,9.632e-01,1.574e+00,6.110e-01,9.895e-01,1.149e+00,9.136e-01,1.504e+00,1.000e+00,6.586e-01,8.589e-01,1.532e+00,1.473e+00,7.839e-01,8.013e-01,9.334e-01,6.945e-01,1.346e+00,1.860e+00,1.826e+00,1.009e+00,1.001e+00,5.828e-01,1.270e+00,1.516e+00,1.712e+00,1.326e+00,1.014e+00,2.618e-01,8.985e-01,1.025e+00,1.269e+00,1.205e+00,9.942e-01,1.378e+00,1.429e+00,4.816e-01,1.267e+00,1.529e+00,1.364e+00,9.149e-01,1.620e+00,5.475e-01
2.036e-01,3.728e-01,7.643e-01,1.539e+00,1.304e+00,9.732e-01,2.145e+00,1.421e+00,2.134e+00,1.347e+00,2.108e+00,8.519e-01,1.761e+00,2.750e+00,1.604e+00,1.513e+00,1.405e+00,1.115e+00,1.760e+00,1.427e+00,1.231e+00,2.283e+00,8.937e-01,1.560e+00,9.841e-01,8.126e-01,1.687e+00,1.763e+00,1.564e+00,1.525e+00,2.253e+00,1.837e+00,1.939e+00,1.116e+00,1.873e+00,1.113e+00,1.705e+00,2.083e+00,1.468e+00,1.964e+00,2.084e+00,1.305e+00,1.952e+00,1.171e+00,1.428e+00,8.101e-01,7.958e-01,1.159e+00,1.252e+00,1.168e+00,2.227e+00,2.069e+00,1.425e+00,2.220e+00,1.321e+00,2.122e+00,1.682e+00,1.974e+00,1.562e+00,1.721e+00,1.248e+00,1.900e+00,1.689e+00,1.334e+00,1.035e+00,1.545e+00,1.189e+00,1.584e+00,8.888e-01,1.422e+00,2.050e+00,1.261e+00,9.021e-01,1.944e+00,1.113e+00
1.220e-01,2.438e-01,5.808e-01,1.291e+00,1.538e+00,1.185e+00,2.926e+00,2.092e+00,2.536e+00,1.841e+00,3.299e+00,1.490e+00,2.253e+00,2.741e+00,2.487e+00,1.762e+00,2.318e+00,1.285e+00,2.642e+00,2.135e+00,1.826e+00,2.302e+00,1.699e+00,1.962e+00,1.499e+00,1.371e+00,1.952e+00,2.844e+00,2.572e+00,1.917e+00,3.083e+00,2.204e+00,2.492e+00,1.623e+00,2.141e+00,1.480e+00,2.816e+00,2.085e+00,2.290e+00,3.249e+00,2.028e+00,1.243e+00,2.757e+00,1.819e+00,2.610e+00,1.496e+00,1.323e+00,1.155e+00,1.790e+00,1.887e+00,3.558e+00,2.209e+00,2.027e+00,2.012e+00,1.475e+00,2.959e+00,2.252e+00,2.495e+00,2.386e+00,2.051e+00,1.899e+00,1.680e+00,2.367e+00,2.486e+00,1.407e+00,2.165e+00,1.927e+00,2.672e+00,1.184e+00,2.294e+00,2.740e+00,2.103e+00,1.720e+00,2.228e+00,1.500e+00
5.595e-01,6.064e-01,9.272e-01,1.976e+00,1.752e+00,1.332e+00,2.520e+00,2.687e+00,3.297e+00,2.007e+00,3.676e+00,1.424e+00,3.381e+00,3.925e+00,2.728e+00,2.099e+00,2.516e+00,2.485e+00,3.251e+00,2.779e+00,2.333e+00,3.522e+00,2.451e+00,2.772e+00,1.823e+00,1.399e+00,2.291e+00,3.698e+00,2.690e+00,2.789e+00,3.050e+00,2.872e+00,2.560e+00,2.463e+00,2.285e+00,1.955e+00,2.654e+00,3.110e+00,3.228e+00,3.456e+00,3.129e+00,2.001e+00,2.479e+00,2.049e+00,2.591e+00,2.613e+00,1.742e+00,1.760e+00,1.809e+00,1.988e+00,3.951e+00,2.772e+00,2.173e+00,3.154e+00,2.274e+00,2.806e+00,2.875e+00,2.580e+00,2.745e+00,3.122e+00,2.095e+00,2.106e+00,2.871e+00,2.797e+00,1.590e+00,2.777e+00,2.586e+00,3.092e+00,1.731e+00,3.157e+00,2.966e+00,2.474e+00,2.426e+00,3.187e+00,2.542e+00
7.110e-01,4.260e-01,3.133e-01,1.016e+00,7.559e-01,1.224e+00,1.707e+00,1.801e+00,3.313e+00,1.901e+00,2.586e+00,7.639e-01,2.242e+00,3.370e+00,2.628e+00,1.641e+00,2.570e+00,1.878e+00,1.991e+00,1.810e+00,1.800e+00,2.696e+00,2.144e+00,2.098e+00,2.194e+00,1.373e+00,2.619e+00,2.673e+00,2.268e+00,2.143e+00,2.619e+00,2.196e+00,2.414e+00,1.632e+00,1.962e+00,1.996e+00,2.101e+00,3.028e+00,2.151e+00,2.806e+00,3.188e+00,2.455e+00,2.098e+00,1.769e+00,2.071e+00,1.662e+00,1.691e+00,1.121e+00,1.399e+00,1.460e+00,2.573e+00,2.959e+00,2.095e+00,2.271e+00,1.735e+00,2.492e+00,2.860e+00,3.052e+00,2.092e+00,2.030e+00,1.566e+00,2.245e+00,2.809e+00,2.375e+00,1.353e+00,2.648e+00,1.783e+00,2.449e+00,1.182e+00,1.526e+00,2.797e+00,1.842e+00,2.115e+00,2.447e+00,1.678e+00
9.007e-02,8.908e-02,3.500e-01,9.554e-01,7.869e-01,6.576e-01,1.356e+00,1.185e+00,2.629e+00,1.942e+00,2.675e+00,1.294e+00,1.891e+00,2.679e+00,1.345e+00,1.619e+00,1.860e+00,1.506e+00,2.705e+00,2.588e+00,1.729e+00,2.452e+00,2.237e+00,2.073e+00,1.584e+00,1.136e+00,1.394e+00,2.701e+00,1.838e+00,2.462e+00,2.684e+00,2.407e+00,2.283e+00,1.319e+00,2.047e+00,2.668e+00,2.106e+00,2.684e+00,2.509e+00,3.151e+00,3.022e+00,2.068e+00,1.993e+00,1.537e+00,2.151e+00,2.034e+00,1.108e+00,9.859e-01,1.107e+00,1.146e+00,3.040e+00,2.250e+00,2.151e+00,2.865e+00,1.767e+00,2.191e+00,2.360e+00,2.859e+00,2.349e+00,2.829e+00,1.325e+00,2.144e+00,2.340e+00,2.553e+00,9.428e-01,3.010e+00,2.179e+00,2.525e+00,1.442e+00,2.506e+00,2.395e+00,2.184e+00,2.396e+00,3.265e+00,2.295e+00
6.369e-01,6.963e-01,8.108e-01,1.612e+00,1.768e+00,1.419e+00,2.576e+00,2.301e+00,3.273e+00,3.070e+00,4.674e+00,2.291e+00,3.389e+00,4.433e+00,4.375e+00,2.547e+00,4.289e+00,2.653e+00,3.710e+00,3.956e+00,2.705e+00,4.370e+00,3.565e+00,3.845e+00,2.761e+00,3.238e+00,3.406e+00,4.684e+00,3.421e+00,3.829e+00,5.325e+00,3.365e+00,3.409e+00,3.087e+00,3.025e+00,2.735e+00,3.890e+00,4.733e+00,3.291e+00,4.369e+00,3.814e+00,3.311e+00,2.615e+00,4.174e+00,3.096e+00,3.864e+00,2.857e+00,2.487e+00,1.701e+00,2.423e+00,5.382e+00,4.478e+00,3.482e+00,4.132e+00,2.804e+00,4.079e+00,3.582e+00,4.730e+00,4.123e+00,4.274e+00,2.142e+00,2.936e+00,4.275e+00,5.169e+00,2.235e+00,4.608e+00,3.319e+00,4.688e+00,2.965e+00,3.673e+00,3.959e+00,3.091e+00,3.140e+00,4.896e+00,3.043e+00
4.807e-01,6.160e-01,9.027e-01,1.775e+00,1.617e+00,1.163e+00,2.228e+00,1.872e+00,2.315e+00,2.296e+00,3.055e+00,1.709e+00,2.603e+00,3.436e+00,3.614e+00,2.227e+00,3.289e+00,2.507e+00,3.606e+00,2.745e+00,1.926e+00,4.006e+00,2.736e+00,3.018e+00,2.106e+00,2.468e+00,2.573e+00,3.851e+00,2.710e+00,3.139e+00,3.729e+00,2.682e+00,3.009e+00,2.546e+00,3.193e+00,2.603e+00,3.417e+00,3.899e+00,2.236e+00,3.287e+00,3.427e+00,2.661e+00,2.362e+00,2.653e+00,2.463e+00,2.804e+00,1.967e+00,2.469e+00,1.868e+00,2.707e+00,3.825e+00,3.251e+00,2.686e+00,3.703e+00,2.475e+00,3.284e+00,2.424e+00,3.956e+00,3.662e+00,3.194e+00,1.850e+00,3.210e+00,3.116e+00,3.282e+00,2.083e+00,3.204e+00,2.757e+00,2.725e+00,1.927e+00,2.913e+00,3.073e+00,2.805e+00,2.015e+00,3.403e+00,2.362e+00
1.446e-01,1.562e-01,3.349e-01,8.379e-01,1.109e+00,1.158e+00,2.561e+00,1.753e+00,3.302e+00,2.341e+00,3.483e+00,1.837e+00,2.831e+00,3.954e+00,3.588e+00,2.132e+00,3.593e+00,2.417e+00,3.567e+00,3.586e+00,2.931e+00,3.767e+00,3.509e+00,3.165e+00,2.717e+00,2.652e+00,2.735e+00,3.419e+00,3.133e+00,3.424e+00,4.703e+00,3.184e+00,3.378e+00,1.938e+00,3.332e+00,2.697e+00,3.009e+00,3.642e+00,3.279e+00,4.312e+00,4.120e+00,3.592e+00,3.856e+00,2.572e+00,2.815e+00,2.620e+00,1.864e+00,2.534e+00,2.741e+00,2.769e+00,4.133e+00,3.807e+00,2.330e+00,4.043e+00,2.627e+00,4.332e+00,3.383e+00,3.848e+00,3.776e+00,3.467e+00,2.554e+00,3.210e+00,3.569e+00,3.981e+00,2.113e+00,4.073e+00,3.426e+00,3.470e+00,2.358e+00,3.466e+00,3.756e+00,2.555e+00,3.516e+00,3.954e+00,3.223e+00
5.107e-01,6.611e-01,8.307e-01,1.579e+00,1.443e+00,1.072e+00,2.541e+00,1.835e+00,2.155e+00,2.448e+00,4.055e+00,2.291e+00,3.172e+00,4.454e+00,4.648e+00,2.667e+00,4.250e+00,4.060e+00,4.501e+00,4.544e+00,2.881e+00,4.778e+00,3.844e+00,4.387e+00,3.145e+00,3.065e+00,2.692e+00,4.858e+00,3.487e+00,4.489e+00,5.147e+00,3.915e+00,3.620e+00,3.896e+00,3.276e+00,2.815e+00,3.865e+00,4.879e+00,3.333e+00,4.643e+00,4.234e+00,3.141e+00,2.978e+00,3.998e+00,2.920e+00,4.017e+00,2.746e+00,3.535e+00,2.852e+00,2.815e+00,5.683e+00,3.591e+00,3.677e+00,5.138e+00,3.257e+00,4.112e+00,3.310e+00,4.264e+00,4.012e+00,4.285e+00,3.042e+00,3.744e+00,4.791e+00,5.711e+00,2.044e+00,4.509e+00,3.581e+00,4.448e+00,3.337e+00,4.398e+00,3.673e+00,4.081e+00,3.274e+00,5.010e+00,3.889e+00
2.212e-01,1.375e-01,3.811e-01,1.136e+00,1.004e+00,1.151e+00,2.245e+00,1.754e+00,3.304e+00,2.122e+00,3.605e+00,2.292e+00,3.210e+00,4.301e+00,3.671e+00,3.429e+00,3.445e+00,4.095e+00,4.982e+00,4.585e+00,3.473e+00,4.561e+00,3.881e+00,4.468e+00,2.765e+00,3.576e+00,2.739e+00,3.861e+00,3.454e+00,4.634e+00,4.553e+00,4.306e+00,4.893e+00,2.456e+00,4.348e+00,4.232e+00,3.954e+00,4.839e+00,3.205e+00,5.444e+00,4.477e+00,4.257e+00,4.013e+00,2.780e+00,3.615e+00,3.219e+00,2.206e+00,3.007e+00,2.702e+00,3.234e+00,5.645e+00,4.490e+00,3.280e+00,4.840e+00,3.813e+00,4.793e+00,3.997e+00,5.357e+00,3.858e+00,4.063e+00,3.354e+00,4.365e+00,4.649e+00,4.366e+00,2.847e+00,4.943e+00,3.722e+00,4.340e+00,2.960e+00,4.033e+00,4.457e+00,3.656e+00,3.250e+00,5.261e+00,3.091e+00
7.031e-01,7.594e-01,9.304e-01,1.837e+00,1.828e+00,1.444e+00,2.289e+00,2.373e+00,2.903e+00,2.128e+00,3.914e+00,1.844e+00,3.581e+00,4.532e+00,4.135e+00,3.745e+00,4.264e+00,4.085e+00,5.264e+00,4.778e+00,4.226e+00,5.464e+00,4.523e+00,4.818e+00,3.216e+00,3.494e+00,3.758e+00,4.625e+00,4.053e+00,4.757e+00,4.652e+00,3.783e+00,4.681e+00,4.007e+00,3.725e+00,3.040e+00,3.639e+00,5.031e+00,4.046e+00,4.623e+00,4.722e+00,3.927e+00,2.913e+00,4.477e+00,3.715e+00,3.645e+00,3.322e+00,3.980e+00,2.726e+00,3.750e+00,5.940e+00,4.397e+00,3.383e+00,5.186e+00,4.013e+00,4.832e+00,4.526e+00,4.723e+00,4.221e+00,4.399e+00,3.565e+00,3.920e+00,4.879e+00,4.753e+00,3.411e+00,5.075e+00,3.938e+00,4.469e+00,3.923e+00,4.012e+00,4.589e+00,3.583e+00,3.312e+00,5.703e+00,3.986e+00
6.375e-01,5.107e-01,6.449e-01,1.531e+00,1.492e+00,1.511e+00,2.454e+00,2.658e+00,3.028e+00,2.264e+00,3.737e+00,2.311e+00,3.686e+00,4.599e+00,4.867e+00,3.983e+00,5.227e+00,4.917e+00,5.665e+00,5.609e+00,4.797e+00,6.210e+00,5.843e+00,5.355e+00,3.764e+00,4.165e+00,3.894e+00,4.977e+00,4.349e+00,5.370e+00,6.032e+00,4.675e+00,5.429e+00,4.302e+00,5.555e+00,4.212e+00,3.807e+00,5.189e+00,4.269e+00,5.877e+00,4.877e+00,4.310e+00,4.993e+00,4.508e+00,4.362e+00,3.881e+00,3.553e+00,4.085e+00,4.038e+00,4.930e+00,6.524e+00,4.793e+00,3.986e+00,5.069e+00,3.551e+00,5.911e+00,4.642e+00,5.271e+00,4.888e+00,5.400e+00,4.058e+00,4.854e+00,4.948e+00,5.429e+00,4.010e+00,5.654e+00,4.824e+00,5.030e+00,3.917e+00,6.041e+00,5.880e+00,4.738e+00,4.349e+00,5.982e+00,4.973e+00
1.100e-01,2.031e-01,5.028e-01,1.111e+00,1.189e+00,8.149e-01,1.589e+00,1.296e+00,1.760e+00,1.221e+00,2.147e+00,1.184e+00,1.940e+00,2.843e+00,3.363e+00,2.294e+00,3.487e+00,3.348e+00,4.568e+00,3.834e+00,3.531e+00,3.667e+00,3.665e+00,4.154e+00,3.584e+00,3.301e+00,2.186e+00,3.668e+00,3.577e+00,4.474e+00,4.117e+00,3.916e+00,4.104e+00,3.672e+00,3.543e+00,3.321e+00,3.353e+00,4.164e+00,2.232e+00,4.545e+00,4.028e+00,3.291e+00,3.410e+00,2.924e+00,3.541e+00,2.186e+00,1.904e+00,3.673e+00,2.720e+00,3.739e+00,4.558e+00,2.518e+00,2.628e+00,4.292e+00,3.371e+00,4.088e+00,3.313e+00,4.126e+00,3.425e+00,3.856e+00,2.812e+00,4.462e+00,3.839e+00,3.749e+00,2.475e+00,3.978e+00,3.231e+00,2.611e+00,3.308e+00,4.096e+00,3.766e+00,3.999e+00,2.963e+00,4.419e+00,2.684e+00
1.358e-01,8.191e-02,3.077e-01,8.629e-01,1.041e+00,1.022e+00,1.883e+00,1.890e+00,3.176e+00,1.593e+00,3.278e+00,1.826e+00,3.087e+00,3.662e+00,3.267e+00,2.329e+00,3.021e+00,3.043e+00,4.815e+00,4.442e+00,3.938e+00,3.963e+00,3.410e+00,4.941e+00,3.276e+00,3.754e+00,2.781e+00,3.445e+00,3.650e+00,4.983e+00,5.209e+00,4.930e+00,5.017e+00,3.549e+00,3.912e+00,3.621e+00,3.588e+00,4.571e+00,4.097e+00,5.746e+00,4.140e+00,3.762e+00,3.835e+00,3.249e+00,3.430e+00,2.846e+00,2.204e+00,3.849e+00,3.509e+00,3.791e+00,5.505e+00,3.556e+00,1.878e+00,4.418e+00,4.867e+00,4.506e+00,4.816e+00,4.213e+00,3.758e+00,4.131e+00,3.473e+00,4.145e+00,5.586e+00,4.400e+00,2.402e+00,4.533e+00,3.693e+00,4.652e+00,3.269e+00,4.675e+00,3.917e+00,3.348e+00,3.958e+00,4.595e+00,3.347e+00
2.190e-01,4.736e-01,8.370e-01,1.533e+00,1.531e+00,8.987e-01,2.030e+00,1.589e+00,2.327e+00,1.556e+00,3.209e+00,1.608e+00,3.233e+00,4.314e+00,4.204e+00,2.805e+00,3.947e+00,4.557e+00,6.173e+00,5.285e+00,4.086e+00,5.761e+00,4.363e+00,6.001e+00,4.517e+00,4.470e+00,3.437e+00,4.707e+00,4.397e+00,6.643e+00,5.071e+00,5.099e+00,5.054e+00,5.042e+00,4.912e+00,4.689e+00,4.373e+00,5.713e+00,4.517e+00,6.409e+00,5.574e+00,4.886e+00,4.154e+00,4.046e+00,4.198e+00,4.617e+00,3.218e+00,5.887e+00,4.666e+00,5.738e+00,5.943e+00,4.340e+00,2.859e+00,6.611e+00,5.992e+00,5.608e+00,4.739e+00,4.691e+00,5.762e+00,4.745e+00,4.994e+00,5.412e+00,5.467e+00,5.368e+00,3.330e+00,4.877e+00,4.962e+00,4.758e+00,4.565e+00,5.811e+00,4.378e+00,5.048e+00,4.490e+00,5.921e+00,5.101e+00
1.921e-01,2.998e-01,5.145e-01,1.011e+00,1.324e+00,1.143e+00,2.197e+00,1.700e+00,3.436e+00,1.913e+00,3.726e+00,1.724e+00,3.454e+00,4.726e+00,3.830e+00,2.996e+00,4.579e+00,4.071e+00,5.705e+00,6.304e+00,5.706e+00,6.856e+00,5.971e+00,7.100e+00,5.549e+00,5.622e+00,4.690e+00,4.978e+00,5.873e+00,7.358e+00,6.803e+00,6.264e+00,5.570e+00,5.727e+00,6.388e+00,5.226e+00,3.813e+00,6.639e+00,5.525e+00,7.580e+00,6.265e+00,6.190e+00,6.017e+00,4.848e+00,5.525e+00,4.688e+00,4.123e+00,6.490e+00,5.440e+00,6.017e+00,6.784e+00,5.720e+00,3.038e+00,7.345e+00,6.641e+00,7.524e+00,6.024e+00,5.461e+00,6.385e+00,6.431e+00,5.840e+00,5.800e+00,6.237e+00,6.358e+00,4.589e+00,6.506e+00,5.879e+00,6.445e+00,5.469e+00,6.682e+00,6.298e+00,5.125e+00,5.874e+00,7.495e+00,6.135e+00
5.641e-01,3.641e-01,1.648e-01,5.060e-01,4.460e-01,8.277e-01,1.355e+00,1.411e+00,2.550e+00,2.117e+00,2.526e+00,1.282e+00,2.312e+00,3.245e+00,4.520e+00,3.099e+00,4.367e+00,4.533e+00,5.126e+00,4.359e+00,4.646e+00,6.699e+00,6.397e+00,7.022e+00,5.715e+00,4.970e+00,3.967e+00,5.114e+00,5.033e+00,6.149e+00,5.810e+00,4.929e+00,5.168e+00,5.429e+00,5.879e+00,5.733e+00,3.824e+00,5.900e+00,3.844e+00,6.983e+00,5.957e+00,6.445e+00,5.659e+00,4.651e+00,5.607e+00,4.731e+00,4.635e+00,4.971e+00,5.341e+00,5.393e+00,5.867e+00,5.240e+00,3.817e+00,6.175e+00,5.634e+00,6.472e+00,5.499e+00,6.081e+00,5.733e+00,5.132e+00,6.001e+00,6.319e+00,5.590e+00,5.939e+00,4.264e+00,6.291e+00,4.639e+00,4.846e+00,4.673e+00,6.103e+00,6.329e+00,4.891e+00,5.490e+00,6.164e+00,4.770e+00
2.792e-01,2.194e-01,3.091e-01,7.679e-01,9.861e-01,8.738e-01,1.188e+00,1.533e+00,2.898e+00,1.978e+00,3.351e+00,1.965e+00,3.160e+00,3.721e+00,3.669e+00,2.832e+00,4.316e+00,3.942e+00,5.695e+00,5.819e+00,4.886e+00,6.266e+00,6.479e+00,7.052e+00,5.385e+00,6.274e+00,4.659e+00,5.281e+00,5.912e+00,7.334e+00,6.843e+00,5.907e+00,6.369e+00,5.449e+00,6.310e+00,7.009e+00,5.185e+00,7.394e+00,5.471e+00,7.190e+00,6.842e+00,7.266e+00,5.520e+00,4.830e+00,5.520e+00,5.637e+00,4.420e+00,5.940e+00,4.577e+00,5.761e+00,7.357e+00,5.779e+00,3.115e+00,6.674e+00,6.535e+00,6.693e+00,5.700e+00,6.413e+00,6.312e+00,6.749e+00,4.921e+00,5.745e+00,6.263e+00,6.393e+00,4.506e+00,7.658e+00,6.576e+00,6.553e+00,6.088e+00,7.254e+00,6.436e+00,5.699e+00,5.837e+00,7.252e+00,5.560e+00
4.945e-01,2.983e-01,2.115e-01,7.730e-01,9.702e-01,1.281e+00,1.955e+00,1.736e+00,3.384e+00,1.610e+00,3.625e+00,1.550e+00,3.505e+00,4.849e+00,4.070e+00,2.565e+00,4.875e+00,4.600e+00,5.785e+00,6.036e+00,4.832e+00,5.923e+00,5.986e+00,6.632e+00,6.026e+00,6.201e+00,5.261e+00,6.002e+00,6.114e+00,7.278e+00,6.701e+00,7.147e+00,6.478e+00,5.771e+00,6.042e+00,7.174e+00,5.357e+00,8.260e+00,6.288e+00,7.154e+00,8.097e+00,6.710e+00,5.547e+00,4.663e+00,5.946e+00,5.384e+00,4.245e+00,6.331e+00,6.137e+00,6.288e+00,7.286e+00,5.789e+00,3.708e+00,7.144e+00,6.509e+00,7.128e+00,6.617e+00,6.065e+00,5.885e+00,5.541e+00,5.831e+00,6.262e+00,7.522e+00,7.609e+00,4.243e+00,7.389e+00,6.566e+00,7.008e+00,6.141e+00,6.617e+00,6.561e+00,7.274e+00,5.802e+00,7.260e+00,6.534e+00
4.060e-01,5.650e-01,7.157e-01,1.295e+00,1.634e+00,1.197e+00,2.564e+00,2.162e+00,3.579e+00,3.069e+00,4.784e+00,2.366e+00,3.891e+00,4.689e+00,5.011e+00,3.262e+00,5.095e+00,4.324e+00,6.123e+00,5.912e+00,4.911e+00,7.444e+00,7.116e+00,7.897e+00,6.688e+00,6.899e+00,5.775e+00,6.900e+00,6.718e+00,8.187e+00,7.823e+00,6.725e+00,7.018e+00,6.927e+00,7.431e+00,6.940e+00,6.430e+00,8.760e+00,6.544e+00,8.120e+00,7.594e+00,7.869e+00,6.655e+00,6.246e+00,6.564e+00,7.098e+00,5.557e+00,6.548e+00,5.756e+00,6.729e+00,8.667e+00,7.556e+00,4.405e+00,8.073e+00,6.685e+00,8.325e+00,6.757e+00,6.686e+00,7.479e+00,7.358e+00,6.706e+00,6.043e+00,7.013e+00,7.967e+00,5.496e+00,8.302e+00,7.744e+00,7.458e+00,6.755e+00,8.258e+00,7.778e+00,6.675e+00,7.351e+00,8.808e+00,6.669e+00
2.478e-01,3.876e-01,4.914e-01,9.384e-01,1.258e+00,1.196e+00,2.712e+00,1.338e+00,3.180e+00,2.039e+00,3.593e+00,1.395e+00,2.897e+00,4.674e+00,4.382e+00,2.268e+00,4.752e+00,3.936e+00,4.883e+00,5.421e+00,4.048e+00,5.305e+00,5.218e+00,6.007e+00,5.674e+00,5.441e+00,5.186e+00,6.199e+00,6.436e+00,7.395e+00,7.699e+00,7.073e+00,5.897e+00,6.022e+00,5.869e+00,5.821e+00,5.406e+00,8.339e+00,5.286e+00,7.027e+00,7.651e+00,6.406e+00,6.176e+00,4.785e+00,5.641e+00,5.055e+00,4.334e+00,6.239e+00,4.723e+00,5.998e+00,6.950e+00,5.509e+00,4.244e+00,6.706e+00,5.782e+00,7.416e+00,5.773e+00,5.711e+00,5.312e+00,6.039e+00,4.972e+00,5.905e+00,6.492e+00,7.464e+00,4.109e+00,7.205e+00,6.417e+00,6.454e+00,5.848e+00,6.764e+00,6.428e+00,6.601e+00,5.885e+00,6.878e+00,5.560e+00
3.958e-01,5.812e-01,7.171e-01,1.205e+00,1.088e+00,7.693e-01,1.820e+00,1.190e+00,1.563e+00,1.850e+00,2.799e+00,1.679e+00,2.491e+00,3.744e+00,4.325e+00,3.439e+00,4.144e+00,4.275e+00,5.048e+00,4.757e+00,4.645e+00,7.006e+00,6.169e+00,7.173e+00,5.977e+00,6.194e+00,5.729e+00,4.991e+00,5.761e+00,8.052e+00,7.004e+00,5.661e+00,6.416e+00,7.080e+00,6.772e+00,6.637e+00,5.585e+00,7.612e+00,5.428e+00,7.514e+00,7.135e+00,7.624e+00,7.075e+00,6.395e+00,6.230e+00,6.474e+00,6.166e+00,7.854e+00,6.544e+00,6.812e+00,7.125e+00,7.297e+00,4.071e+00,8.176e+00,6.740e+00,7.818e+00,6.072e+00,5.746e+00,6.304e+00,5.802e+00,6.934e+00,6.791e+00,6.267e+00,7.827e+00,5.611e+00,7.627e+00,6.222e+00,6.759e+00,6.792e+00,7.718e+00,7.871e+00,6.391e+00,6.839e+00,8.155e+00,6.246e+00
4.218e-01,4.347e-01,6.221e-01,1.434e+00,1.149e+00,1.066e+00,2.385e+00,1.820e+00,3.476e+00,2.614e+00,4.157e+00,2.188e+00,3.527e+00,4.680e+00,4.131e+00,2.598e+00,3.959e+00,4.191e+00,5.046e+00,5.003e+00,3.779e+00,6.453e+00,5.241e+00,6.509e+00,5.480e+00,5.616e+00,4.381e+00,7.123e+00,6.283e+00,7.553e+00,6.809e+00,6.435e+00,6.018e+00,6.246e+00,6.178e+00,7.221e+00,6.375e+00,8.843e+00,5.494e+00,7.981e+00,7.493e+00,7.613e+00,6.600e+00,5.139e+00,6.881e+00,6.527e+00,4.771e+00,6.701e+00,5.507e+00,5.515e+00,7.380e+00,6.627e+00,4.284e+00,8.578e+00,6.920e+00,7.305e+00,6.505e+00,7.081e+00,6.068e+00,6.921e+00,6.084e+00,6.445e+00,6.701e+00,7.237e+00,4.407e+00,7.585e+00,5.784e+00,6.095e+00,6.625e+00,7.257e+00,6.810e+00,6.224e+00,6.133e+00,7.575e+00,5.255e+00
4.380e-01,5.276e-01,6.714e-01,1.353e+00,1.311e+00,1.112e+00,2.332e+00,1.748e+00,3.571e+00,2.531e+00,4.201e+00,1.896e+00,3.776e+00,5.442e+00,4.952e+00,2.998e+00,5.225e+00,5.052e+00,6.061e+00,6.226e+00,4.813e+00,6.709e+00,6.235e+00,6.701e+00,6.570e+00,6.049e+00,5.204e+00,6.707e+00,6.813e+00,9.199e+00,7.693e+00,7.996e+00,6.862e+00,7.247e+00,6.095e+00,6.380e+00,6.860e+00,9.394e+00,7.271e+00,7.970e+00,8.510e+00,7.446e+00,7.027e+00,6.356e+00,6.037e+00,6.465e+00,5.065e+00,7.463e+00,6.205e+00,7.037e+00,7.982e+00,7.348e+00,4.521e+00,9.216e+00,7.275e+00,8.103e+00,7.318e+00,6.413e+00,6.261e+00,7.504e+00,6.828e+00,6.859e+00,8.094e+00,8.346e+00,4.471e+00,8.600e+00,7.037e+00,6.274e+00,7.238e+00,8.022e+00,8.107e+00,7.924e+00,6.924e+00,8.640e+00,7.475e+00
2.535e-01,4.728e-01,8.379e-01,1.557e+00,1.215e+00,6.800e-01,1.761e+00,1.387e+00,2.494e+00,2.232e+00,3.024e+00,1.523e+00,2.611e+00,4.155e+00,4.089e+00,2.667e+00,4.070e+00,3.700e+00,4.576e+00,4.713e+00,3.828e+00,5.937e+00,5.256e+00,6.194e+00,5.064e+00,4.696e+00,4.433e+00,5.603e+00,5.731e+00,8.002e+00,8.397e+00,7.136e+00,6.469e+00,6.359e+00,6.678e+00,7.201e+00,6.715e+00,8.013e+00,6.592e+00,9.224e+00,7.498e+00,7.175e+00,6.840e+00,6.852e+00,6.697e+00,6.790e+00,5.992e+00,7.439e+00,6.734e+00,6.750e+00,7.363e+00,7.244e+00,5.288e+00,7.729e+00,6.241e+00,7.588e+00,6.943e+00,6.093e+00,6.761e+00,7.492e+00,6.696e+00,7.245e+00,6.688e+00,8.093e+00,5.033e+00,7.982e+00,6.255e+00,6.593e+00,6.604e+00,8.392e+00,7.307e+00,6.613e+00,6.944e+00,8.808e+00,6.851e+00
6.671e-01,6.904e-01,7.620e-01,1.555e+00,1.276e+00,1.207e+00,2.610e+00,1.974e+00,2.512e+00,2.678e+00,3.494e+00,1.854e+00,2.795e+00,4.153e+00,4.823e+00,3.287e+00,4.486e+00,4.383e+00,5.132e+00,4.342e+00,3.877e+00,6.389e+00,5.399e+00,6.181e+00,5.340e+00,5.365e+00,4.620e+00,6.831e+00,5.737e+00,7.100e+00,9.239e+00,7.133e+00,7.351e+00,7.283e+00,6.329e+00,7.046e+00,6.948e+00,9.153e+00,5.870e+00,8.214e+00,8.875e+00,7.315e+00,7.096e+00,6.544e+00,7.441e+00,6.542e+00,5.621e+00,6.849e+00,7.172e+00,6.790e+00,7.952e+00,6.725e+00,6.449e+00,8.020e+00,6.730e+00,7.797e+00,6.426e+00,7.461e+00,5.535e+00,6.973e+00,7.276e+00,8.025e+00,8.166e+00,9.418e+00,4.992e+00,8.885e+00,6.451e+00,7.074e+00,5.983e+00,8.574e+00,8.201e+00,7.009e+00,6.941e+00,7.816e+00,6.059e+00
7.113e-01,6.619e-01,8.413e-01,1.817e+00,1.768e+00,1.562e+00,2.242e+00,2.556e+00,3.487e+00,2.160e+00,3.647e+00,1.773e+00,3.927e+00,5.109e+00,4.751e+00,2.980e+00,4.921e+00,4.440e+00,5.585e+00,5.253e+00,4.954e+00,6.797e+00,5.942e+00,6.902e+00,6.536e+00,7.517e+00,6.260e+00,7.149e+00,6.285e+00,8.724e+00,9.172e+00,8.143e+00,9.115e+00,8.335e+00,8.179e+00,9.587e+00,8.378e+00,1.130e+01,7.814e+00,9.869e+00,1.040e+01,9.928e+00,8.811e+00,8.174e+00,8.532e+00,8.035e+00,6.053e+00,9.208e+00,9.007e+00,9.124e+00,9.117e+00,9.679e+00,5.567e+00,1.027e+01,7.998e+00,9.451e+00,8.285e+00,8.167e+00,8.059e+00,8.265e+00,8.038e+00,8.913e+00,8.681e+00,9.909e+00,6.726e+00,9.360e+00,8.661e+00,8.087e+00,8.899e+00,1.024e+01,1.015e+01,8.826e+00,9.492e+00,1.044e+01,7.593e+00
4.632e-01,5.327e-01,5.559e-01,1.093e+00,1.365e+00,1.227e+00,2.709e+00,1.816e+00,2.923e+00,2.436e+00,3.618e+00,1.420e+00,2.711e+00,4.082e+00,5.318e+00,3.654e+00,5.679e+00,4.567e+00,6.203e+00,5.573e+00,5.091e+00,6.841e+00,6.831e+00,7.374e+00,6.382e+00,5.608e+00,6.241e+00,7.074e+00,7.686e+00,8.797e+00,8.379e+00,7.256e+00,8.878e+00,8.636e+00,8.163e+00,8.683e+00,8.547e+00,1.006e+01,7.191e+00,1.041e+01,9.553e+00,9.225e+00,8.514e+00,9.027e+00,9.388e+00,8.444e+00,7.401e+00,8.602e+00,7.913e+00,9.367e+00,9.289e+00,8.654e+00,6.775e+00,8.856e+00,8.411e+00,1.087e+01,8.090e+00,8.444e+00,8.945e+00,8.250e+00,8.451e+00,8.395e+00,8.937e+00,9.795e+00,7.004e+00,8.936e+00,7.980e+00,8.315e+00,8.549e+00,9.209e+00,9.971e+00,9.348e+00,8.945e+00,9.714e+00,7.720e+00
1.701e-01,4.813e-01,7.260e-01,1.238e+00,1.314e+00,9.301e-01,3.060e+00,1.360e+00,3.020e+00,3.181e+00,4.210e+00,2.029e+00,2.703e+00,4.190e+00,4.485e+00,2.927e+00,4.173e+00,3.567e+00,5.269e+00,4.865e+00,3.658e+00,6.573e+00,5.609e+00,7.164e+00,6.153e+00,6.189e+00,5.934e+00,6.347e+00,6.877e+00,8.761e+00,9.808e+00,7.812e+00,8.516e+00,8.587e+00,8.465e+00,9.173e+00,9.317e+00,1.072e+01,8.180e+00,1.053e+01,1.013e+01,9.672e+00,9.443e+00,8.237e+00,8.823e+00,8.439e+00,6.757e+00,8.176e+00,8.282e+00,7.739e+00,9.396e+00,8.880e+00,6.608e+00,1.004e+01,8.778e+00,1.020e+01,8.266e+00,8.066e+00,8.021e+00,8.367e+00,9.167e+00,8.952e+00,9.417e+00,1.068e+01,6.250e+00,1.035e+01,8.741e+00,8.924e+00,8.009e+00,9.364e+00,1.001e+01,8.137e+00,8.437e+00,9.786e+00,7.433e+00
6.081e-01,6.370e-01,6.399e-01,1.197e+00,1.417e+00,1.295e+00,2.454e+00,2.298e+00,3.356e+00,2.164e+00,4.032e+00,1.829e+00,3.959e+00,4.540e+00,4.850e+00,2.734e+00,4.608e+00,4.706e+00,5.360e+00,5.431e+00,4.674e+00,6.891e+00,5.853e+00,6.423e+00,6.065e+00,5.981e+00,5.953e+00,6.632e+00,7.136e+00,8.778e+00,8.244e+00,7.666e+00,8.680e+00,8.305e+00,7.952e+00,8.328e+00,9.035e+00,1.125e+01,8.736e+00,1.056e+01,1.047e+01,1.046e+01,7.743e+00,9.287e+00,8.411e+00,9.635e+00,7.166e+00,9.686e+00,7.956e+00,7.966e+00,9.530e+00,9.808e+00,5.505e+00,9.971e+00,9.111e+00,1.010e+01,9.044e+00,8.447e+00,8.929e+00,9.424e+00,9.378e+00,7.924e+00,8.956e+00,1.025e+01,7.750e+00,9.505e+00,9.218e+00,7.933e+00,9.133e+00,1.029e+01,1.026e+01,9.864e+00,8.653e+00,1.040e+01,8.473e+00
3.207e-01,5.387e-01,6.876e-01,1.176e+00,1.209e+00,8.582e-01,2.548e+00,1.596e+00,2.837e+00,2.890e+00,4.165e+00,2.191e+00,3.222e+00,4.380e+00,5.267e+00,3.427e+00,5.306e+00,4.833e+00,6.351e+00,6.183e+00,4.472e+00,7.285e+00,6.855e+00,7.603e+00,5.646e+00,5.540e+00,5.468e+00,8.031e+00,7.484e+00,8.904e+00,9.504e+00,8.606e+00,8.800e+00,8.430e+00,7.855e+00,1.072e+01,1.052e+01,1.185e+01,9.829e+00,1.086e+01,1.133e+01,1.025e+01,8.827e+00,1.058e+01,9.742e+00,9.906e+00,7.525e+00,9.694e+00,9.962e+00,9.168e+00,1.120e+01,9.475e+00,7.742e+00,1.042e+01,9.980e+00,1.110e+01,1.072e+01,9.899e+00,9.662e+00,1.092e+01,9.908e+00,1.002e+01,1.068e+01,1.166e+01,7.497e+00,1.132e+01,8.338e+00,9.742e+00,1.004e+01,1.112e+01,1.124e+01,1.112e+01,9.236e+00,1.120e+01,9.716e+00
4.828e-02,3.103e-01,7.172e-01,1.298e+00,1.439e+00,7.195e-01,1.679e+00,1.451e+00,2.662e+00,2.239e+00,3.515e+00,1.999e+00,2.941e+00,3.582e+00,3.760e+00,2.628e+00,3.973e+00,3.386e+00,5.645e+00,5.384e+00,4.212e+00,6.429e+00,5.594e+00,7.421e+00,5.479e+00,6.649e+00,4.808e+00,6.346e+00,6.476e+00,9.431e+00,9.177e+00,9.039e+00,8.068e+00,8.230e+00,8.581e+00,9.883e+00,9.804e+00,1.096e+01,8.707e+00,1.117e+01,9.398e+00,1.001e+01,9.202e+00,9.645e+00,9.852e+00,9.447e+00,7.287e+00,1.041e+01,9.304e+00,9.212e+00,9.848e+00,1.030e+01,6.466e+00,1.032e+01,1.094e+01,1.134e+01,9.971e+00,9.632e+00,9.166e+00,9.578e+00,9.706e+00,1.041e+01,9.979e+00,1.099e+01,8.407e+00,1.091e+01,9.117e+00,9.628e+00,9.562e+00,1.126e+01,1.083e+01,9.737e+00,8.989e+00,1.084e+01,8.282e+00
6.394e-01,4.873e-01,3.808e-01,9.497e-01,7.649e-01,9.119e-01,1.488e+00,1.651e+00,2.485e+00,1.825e+00,3.082e+00,1.533e+00,3.083e+00,4.112e+00,4.494e+00,3.160e+00,5.122e+00,5.325e+00,5.886e+00,5.933e+00,5.055e+00,6.850e+00,6.959e+00,6.912e+00,5.988e+00,5.714e+00,5.402e+00,7.506e+00,7.089e+00,9.019e+00,8.639e+00,8.091e+00,8.490e+00,8.920e+00,7.552e+00,9.544e+00,8.159e+00,1.154e+01,8.547e+00,1.081e+01,1.121e+01,1.033e+01,8.436e+00,8.607e+00,9.739e+00,1.019e+01,7.457e+00,9.720e+00,8.533e+00,9.478e+00,9.428e+00,9.034e+00,7.499e+00,1.030e+01,9.848e+00,1.058e+01,8.534e+00,8.384e+00,8.055e+00,9.395e+00,9.190e+00,9.480e+00,1.027e+01,1.176e+01,7.316e+00,1.038e+01,9.054e+00,8.526e+00,9.097e+00,1.107e+01,1.051e+01,1.004e+01,9.704e+00,1.100e+01,8.627e+00
5.671e-01,4.163e-01,4.992e-01,1.284e+00,1.199e+00,1.376e+00,2.489e+00,2.520e+00,4.332e+00,2.613e+00,3.919e+00,1.621e+00,3.573e+00,4.782e+00,4.553e+00,2.899e+00,4.302e+00,3.849e+00,5.021e+00,4.513e+00,5.180e+00,6.329e+00,6.059e+00,7.142e+00,6.058e+00,5.431e+00,4.957e+00,5.924e+00,6.415e+00,7.512e+00,9.031e+00,8.733e+00,7.870e+00,7.246e+00,7.149e+00,8.315e+00,8.313e+00,1.006e+01,9.696e+00,1.118e+01,1.079e+01,9.567e+00,9.282e+00,9.348e+00,9.744e+00,8.224e+00,6.819e+00,9.164e+00,9.812e+00,7.979e+00,9.522e+00,1.004e+01,6.548e+00,9.820e+00,9.639e+00,1.078e+01,1.128e+01,9.533e+00,7.915e+00,9.679e+00,1.051e+01,1.012e+01,1.108e+01,1.131e+01,8.185e+00,1.081e+01,8.233e+00,8.732e+00,8.174e+00,1.033e+01,1.160e+01,8.830e+00,9.580e+00,1.092e+01,8.386e+00
2.927e-01,2.152e-01,2.142e-01,5.882e-01,9.512e-01,9.578e-01,1.613e+00,1.679e+00,2.626e+00,1.775e+00,3.293e+00,1.604e+00,2.721e+00,3.100e+00,2.931e+00,3.168e+00,3.518e+00,3.786e+00,5.370e+00,4.948e+00,5.225e+00,5.761e+00,6.069e+00,6.427e+00,5.502e+00,5.704e+00,4.682e+00,6.309e+00,6.516e+00,7.743e+00,7.830e+00,7.244e+00,8.061e+00,7.774e+00,7.473e+00,8.692e+00,7.747e+00,1.029e+01,8.340e+00,1.100e+01,9.975e+00,1.080e+01,9.372e+00,9.891e+00,1.061e+01,9.156e+00,7.646e+00,9.897e+00,9.111e+00,8.118e+00,1.005e+01,1.000e+01,6.754e+00,1.105e+01,9.892e+00,1.077e+01,1.010e+01,9.595e+00,7.736e+00,8.841e+00,1.011e+01,9.075e+00,9.313e+00,1.059e+01,8.251e+00,1.076e+01,9.462e+00,8.807e+00,9.648e+00,1.068e+01,1.129e+01,9.222e+00,9.352e+00,1.146e+01,8.021e+00
7.485e-01,7.507e-01,7.326e-01,1.466e+00,1.189e+00,1.264e+00,2.763e+00,2.014e+00,3.446e+00,2.756e+00,3.784e+00,1.628e+00,3.298e+00,4.656e+00,5.605e+00,3.473e+00,4.647e+00,5.065e+00,5.463e+00,4.527e+00,4.479e+00,7.134e+00,6.127e+00,7.642e+00,5.988e+00,5.742e+00,5.732e+00,7.083e+00,7.410e+00,7.866e+00,8.339e+00,7.089e+00,7.927e+00,8.278e+00,7.717e+00,9.546e+00,9.577e+00,1.195e+01,8.320e+00,1.144e+01,1.199e+01,1.272e+01,1.009e+01,1.063e+01,1.168e+01,1.104e+01,8.003e+00,1.165e+01,1.028e+01,1.011e+01,1.063e+01,1.131e+01,8.829e+00,1.151e+01,1.162e+01,1.247e+01,1.100e+01,1.233e+01,9.488e+00,1.065e+01,1.127e+01,1.166e+01,1.178e+01,1.273e+01,9.269e+00,1.092e+01,9.505e+00,1.068e+01,1.025e+01,1.125e+01,1.271e+01,1.064e+01,9.797e+00,1.181e+01,9.073e+00
4.695e-01,3.297e-01,2.658e-01,7.270e-01,9.038e-01,9.878e-01,1.238e+00,1.478e+00,2.439e+00,1.460e+00,2.481e+00,8.548e-01,2.242e+00,3.115e+00,2.576e+00,2.171e+00,3.486e+00,2.777e+00,3.967e+00,3.837e+00,4.040e+00,4.522e+00,5.218e+00,5.088e+00,5.540e+00,5.236e+00,4.649e+00,5.101e+00,5.454e+00,6.680e+00,7.139e+00,6.642e+00,7.700e+00,7.055e+00,7.028e+00,7.825e+00,7.235e+00,9.444e+00,8.336e+00,8.786e+00,9.487e+00,1.066e+01,8.500e+00,9.718e+00,9.751e+00,8.103e+00,6.187e+00,9.101e+00,8.933e+00,8.654e+00,9.463e+00,9.850e+00,6.997e+00,1.022e+01,8.335e+00,9.376e+00,9.784e+00,8.557e+00,7.049e+00,8.174e+00,9.452e+00,9.025e+00,9.205e+00,1.073e+01,8.156e+00,9.685e+00,9.178e+00,8.823e+00,9.092e+00,9.690e+00,1.048e+01,9.048e+00,8.784e+00,1.063e+01,8.417e+00
4.453e-01,5.763e-01,9.464e-01,1.965e+00,1.641e+00,1.283e+00,2.787e+00,2.198e+00,4.009e+00,3.185e+00,4.550e+00,2.423e+00,4.026e+00,5.791e+00,5.581e+00,3.799e+00,5.699e+00,5.413e+00,6.518e+00,6.506e+00,4.964e+00,8.310e+00,7.534e+00,8.511e+00,7.333e+00,7.670e+00,6.777e+00,8.433e+00,7.568e+00,1.067e+01,1.107e+01,1.032e+01,9.815e+00,9.625e+00,1.020e+01,1.226e+01,1.089e+01,1.366e+01,1.063e+01,1.317e+01,1.314e+01,1.422e+01,1.332e+01,1.269e+01,1.340e+01,1.313e+01,9.181e+00,1.266e+01,1.246e+01,1.285e+01,1.369e+01,1.402e+01,1.062e+01,1.413e+01,1.246e+01,1.451e+01,1.248e+01,1.223e+01,1.123e+01,1.235e+01,1.340e+01,1.387e+01,1.240e+01,1.492e+01,1.152e+01,1.408e+01,1.202e+01,1.341e+01,1.243e+01,1.557e+01,1.480e+01,1.349e+01,1.181e+01,1.490e+01,1.152e+01
6.652e-01,4.059e-01,3.356e-01,1.113e+00,9.898e-01,1.250e+00,2.220e+00,2.374e+00,3.167e+00,2.225e+00,4.040e+00,2.126e+00,3.574e+00,4.091e+00,3.913e+00,2.899e+00,4.544e+00,4.299e+00,5.252e+00,5.245e+00,4.049e+00,5.964e+00,5.481e+00,5.100e+00,5.394e+00,5.747e+00,5.321e+00,7.350e+00,6.486e+00,8.569e+00,8.017e+00,8.357e+00,7.743e+00,7.843e+00,7.027e+00,8.768e+00,9.131e+00,1.097e+01,9.611e+00,1.079e+01,1.066e+01,1.023e+01,9.898e+00,1.157e+01,1.165e+01,1.121e+01,8.417e+00,1.069e+01,1.040e+01,1.053e+01,1.092e+01,1.139e+01,9.202e+00,1.142e+01,1.046e+01,1.208e+01,1.136e+01,1.108e+01,9.279e+00,9.398e+00,1.177e+01,1.076e+01,1.130e+01,1.307e+01,1.043e+01,1.220e+01,9.962e+00,1.116e+01,1.071e+01,1.229e+01,1.303e+01,1.180e+01,1.024e+01,1.137e+01,9.578e+00
6.295e-01,4.729e-01,3.645e-01,8.536e-01,1.094e+00,1.364e+00,1.902e+00,1.914e+00,2.463e+00,1.330e+00,2.728e+00,1.485e+00,3.023e+00,3.800e+00,4.279e+00,2.355e+00,4.109e+00,3.976e+00,4.610e+00,4.424e+00,4.646e+00,6.342e+00,5.342e+00,6.884e+00,6.090e+00,7.106e+00,5.604e+00,6.073e+00,6.478e+00,8.198e+00,9.028e+00,8.765e+00,8.409e+00,8.102e+00,9.019e+00,7.936e+00,7.177e+00,1.093e+01,7.916e+00,1.116e+01,1.010e+01,1.133e+01,9.711e+00,1.050e+01,1.098e+01,1.176e+01,8.002e+00,1.211e+01,1.142e+01,1.212e+01,1.101e+01,1.211e+01,8.404e+00,1.103e+01,1.147e+01,1.298e+01,1.109e+01,1.115e+01,8.949e+00,9.569e+00,1.129e+01,1.061e+01,1.147e+01,1.299e+01,9.720e+00,1.087e+01,1.033e+01,1.063e+01,1.009e+01,1.256e+01,1.271e+01,1.169e+01,1.015e+01,1.275e+01,9.263e+00
1.282e-01,2.847e-01,5.818e-01,1.122e+00,1.037e+00,7.906e-01,2.035e+00,1.322e+00,2.263e+00,2.308e+00,2.774e+00,1.948e+00,2.478e+00,3.650e+00,4.209e+00,3.200e+00,4.784e+00,3.948e+00,6.044e+00,5.618e+00,5.312e+00,8.054e+00,7.297e+00,7.789e+00,7.249e+00,6.986e+00,5.893e+00,6.932e+00,8.054e+00,1.049e+01,1.001e+01,8.957e+00,9.505e+00,9.365e+00,9.728e+00,1.013e+01,9.534e+00,1.199e+01,1.020e+01,1.248e+01,1.154e+01,1.361e+01,1.340e+01,1.329e+01,1.257e+01,1.309e+01,1.021e+01,1.463e+01,1.370e+01,1.401e+01,1.264e+01,1.443e+01,9.042e+00,1.536e+01,1.391e+01,1.478e+01,1.215e+01,1.280e+01,1.195e+01,1.223e+01,1.405e+01,1.373e+01,1.211e+01,1.349e+01,1.167e+01,1.368e+01,1.244e+01,1.155e+01,1.331e+01,1.563e+01,1.480e+01,1.291e+01,1.232e+01,1.445e+01,1.243e+01
6.901e-01,5.754e-01,6.720e-01,1.623e+00,1.388e+00,1.466e+00,2.589e+00,2.476e+00,3.949e+00,2.660e+00,4.281e+00,1.992e+00,3.910e+00,5.077e+00,4.263e+00,3.780e+00,4.774e+00,5.015e+00,6.206e+00,5.916e+00,4.431e+00,7.096e+00,6.459e+00,7.017e+00,5.544e+00,6.012e+00,6.182e+00,7.847e+00,7.345e+00,9.231e+00,9.214e+00,9.135e+00,9.324e+00,7.978e+00,8.622e+00,1.129e+01,1.017e+01,1.244e+01,1.068e+01,1.211e+01,1.228e+01,1.184e+01,1.151e+01,1.253e+01,1.236e+01,1.192e+01,9.607e+00,1.161e+01,1.190e+01,1.222e+01,1.345e+01,1.321e+01,1.090e+01,1.286e+01,1.164e+01,1.330e+01,1.316e+01,1.306e+01,1.161e+01,1.225e+01,1.240e+01,1.201e+01,1.198e+01,1.384e+01,1.070e+01,1.333e+01,1.131e+01,1.245e+01,1.165e+01,1.384e+01,1.506e+01,1.293e+01,1.160e+01,1.296e+01,1.168e+01
1.786e-01,1.056e-01,2.655e-01,7.845e-01,6.068e-01,7.551e-01,1.643e+00,1.334e+00,2.427e+00,1.530e+00,2.324e+00,1.402e+00,2.185e+00,3.238e+00,3.524e+00,2.692e+00,3.561e+00,3.709e+00,4.602e+00,4.435e+00,4.130e+00,5.513e+00,5.281e+00,6.462e+00,5.626e+00,5.573e+00,4.345e+00,5.531e+00,5.861e+00,8.222e+00,9.026e+00,8.203e+00,9.219e+00,8.160e+00,8.897e+00,9.683e+00,8.939e+00,1.045e+01,8.171e+00,1.151e+01,1.027e+01,1.124e+01,1.122e+01,1.141e+01,1.231e+01,1.126e+01,8.847e+00,1.213e+01,1.352e+01,1.134e+01,1.160e+01,1.269e+01,9.292e+00,1.301e+01,1.220e+01,1.418e+01,1.284e+01,1.249e+01,1.035e+01,1.073e+01,1.326e+01,1.329e+01,1.152e+01,1.258e+01,1.109e+01,1.413e+01,1.130e+01,1.176e+01,1.224e+01,1.315e+01,1.368e+01,1.085e+01,1.214e+01,1.365e+01,9.643e+00
4.559e-01,4.803e-01,6.359e-01,1.345e+00,1.562e+00,1.319e+00,2.420e+00,2.201e+00,2.513e+00,2.031e+00,3.506e+00,1.738e+00,2.851e+00,3.710e+00,3.673e+00,3.161e+00,4.562e+00,3.418e+00,4.901e+00,5.008e+00,4.600e+00,5.590e+00,5.277e+00,5.003e+00,4.458e+00,4.383e+00,4.670e+00,5.697e+00,5.604e+00,6.922e+00,7.873e+00,6.327e+00,7.405e+00,7.165e+00,6.593e+00,7.249e+00,7.327e+00,8.834e+00,8.330e+00,1.000e+01,9.314e+00,9.487e+00,9.492e+00,1.146e+01,1.018e+01,1.009e+01,7.478e+00,1.045e+01,1.084e+01,1.079e+01,1.109e+01,1.083e+01,9.299e+00,1.139e+01,1.095e+01,1.227e+01,1.088e+01,1.053e+01,9.336e+00,1.059e+01,1.061e+01,1.102e+01,1.059e+01,1.169e+01,9.535e+00,1.147e+01,1.040e+01,1.080e+01,9.832e+00,1.258e+01,1.273e+01,1.086e+01,1.025e+01,1.190e+01,9.490e+00
3.824e-01,3.501e-01,5.790e-01,1.429e+00,1.666e+00,1.422e+00,2.542e+00,2.524e+00,3.770e+00,2.575e+00,4.499e+00,2.321e+00,3.879e+00,4.672e+00,4.694e+00,3.638e+00,5.302e+00,4.787e+00,6.908e+00,6.297e+00,5.369e+00,7.020e+00,6.480e+00,6.967e+00,6.653e+00,6.881e+00,5.778e+00,7.685e+00,7.658e+00,1.024e+01,9.203e+00,9.303e+00,9.499e+00,9.048e+00,8.968e+00,9.580e+00,9.527e+00,1.185e+01,1.031e+01,1.267e+01,1.135e+01,1.197e+01,1.121e+01,1.232e+01,1.321e+01,1.390e+01,9.342e+00,1.321e+01,1.321e+01,1.523e+01,1.470e+01,1.507e+01,1.207e+01,1.451e+01,1.393e+01,1.547e+01,1.421e+01,1.402e+01,1.287e+01,1.366e+01,1.442e+01,1.393e+01,1.378e+01,1.540e+01,1.224e+01,1.517e+01,1.356e+01,1.382e+01,1.290e+01,1.577e+01,1.621e+01,1.513e+01,1.331e+01,1.680e+01,1.345e+01
4.319e-01,2.559e-01,3.784e-01,1.101e+00,7.148e-01,8.620e-01,1.324e+00,1.727e+00,2.313e+00,1.785e+00,2.983e+00,2.267e+00,3.162e+00,3.943e+00,3.331e+00,2.678e+00,4.064e+00,4.079e+00,4.966e+00,5.537e+00,3.978e+00,6.444e+00,5.996e+00,6.236e+00,5.090e+00,5.999e+00,4.242e+00,5.956e+00,5.120e+00,7.585e+00,8.597e+00,7.471e+00,8.909e+00,7.643e+00,8.614e+00,1.009e+01,8.345e+00,1.076e+01,9.100e+00,1.029e+01,1.070e+01,1.188e+01,1.040e+01,1.097e+01,1.088e+01,1.242e+01,8.090e+00,1.131e+01,1.354e+01,1.191e+01,1.362e+01,1.352e+01,1.005e+01,1.500e+01,1.408e+01,1.491e+01,1.242e+01,1.302e+01,1.216e+01,1.263e+01,1.314e+01,1.433e+01,1.258e+01,1.354e+01,1.123e+01,1.592e+01,1.308e+01,1.301e+01,1.364e+01,1.580e+01,1.370e+01,1.325e+01,1.227e+01,1.477e+01,1.179e+01
1.091e-01,2.140e-01,3.894e-01,8.221e-01,8.941e-01,6.425e-01,1.886e+00,1.194e+00,1.629e+00,1.475e+00,2.625e+00,1.363e+00,1.847e+00,2.436e+00,2.764e+00,1.898e+00,2.873e+00,2.412e+00,3.506e+00,3.360e+00,2.716e+00,4.562e+00,3.989e+00,4.856e+00,4.043e+00,4.003e+00,3.531e+00,4.441e+00,4.630e+00,5.532e+00,5.267e+00,5.072e+00,4.835e+00,5.728e+00,5.435e+00,7.128e+00,6.737e+00,7.069e+00,7.470e+00,8.447e+00,7.592e+00,9.780e+00,9.778e+00,1.073e+01,1.097e+01,1.053e+01,7.663e+00,1.089e+01,1.213e+01,1.104e+01,1.197e+01,1.235e+01,9.828e+00,1.303e+01,1.300e+01,1.357e+01,1.306e+01,1.153e+01,1.129e+01,1.007e+01,1.383e+01,1.290e+01,1.097e+01,1.263e+01,1.110e+01,1.309e+01,1.035e+01,1.176e+01,1.226e+01,1.290e+01,1.360e+01,1.295e+01,9.776e+00,1.189e+01,1.092e+01
5.507e-02,4.158e-01,9.748e-01,1.778e+00,1.805e+00,9.116e-01,2.156e+00,1.541e+00,2.132e+00,1.789e+00,3.170e+00,1.602e+00,2.453e+00,3.545e+00,3.098e+00,2.977e+00,3.331e+00,2.916e+00,5.389e+00,4.574e+00,4.231e+00,5.605e+00,4.809e+00,6.852e+00,4.889e+00,5.177e+00,4.958e+00,5.713e+00,5.773e+00,8.035e+00,8.595e+00,8.179e+00,8.869e+00,8.307e+00,8.443e+00,1.022e+01,9.716e+00,1.066e+01,9.177e+00,1.138e+01,9.906e+00,1.097e+01,1.014e+01,1.291e+01,1.205e+01,1.109e+01,9.287e+00,1.270e+01,1.380e+01,1.123e+01,1.406e+01,1.440e+01,1.065e+01,1.534e+01,1.449e+01,1.484e+01,1.467e+01,1.263e+01,1.450e+01,1.254e+01,1.495e+01,1.594e+01,1.246e+01,1.495e+01,1.313e+01,1.562e+01,1.300e+01,1.452e+01,1.421e+01,1.412e+01,1.423e+01,1.400e+01,1.210e+01,1.580e+01,1.250e+01
3.041e-01,4.923e-01,7.714e-01,1.498e+00,1.338e+00,1.088e+00,3.060e+00,1.962e+00,3.254e+00,2.673e+00,4.546e+00,2.489e+00,3.919e+00,5.336e+00,4.890e+00,4.121e+00,5.025e+00,5.682e+00,6.578e+00,6.821e+00,5.588e+00,8.518e+00,7.435e+00,8.015e+00,7.020e+00,7.020e+00,6.221e+00,7.485e+00,8.075e+00,1.076e+01,1.067e+01,9.581e+00,9.612e+00,9.498e+00,9.054e+00,9.460e+00,9.590e+00,1.279e+01,1.013e+01,1.257e+01,1.238e+01,1.241e+01,1.233e+01,1.177e+01,1.199e+01,1.336e+01,1.031e+01,1.333e+01,1.325e+01,1.275e+01,1.402e+01,1.465e+01,1.136e+01,1.654e+01,1.588e+01,1.767e+01,1.332e+01,1.374e+01,1.373e+01,1.377e+01,1.554e+01,1.506e+01,1.474e+01,1.611e+01,1.208e+01,1.702e+01,1.434e+01,1.372e+01,1.477e+01,1.665e+01,1.664e+01,1.402e+01,1.398e+01,1.549e+01,1.324e+01
9.467e-02,2.046e-01,3.305e-01,5.668e-01,9.231e-01,6.565e-01,1.133e+00,9.616e-01,2.125e+00,1.460e+00,2.169e+00,9.685e-01,1.915e+00,2.437e+00,2.834e+00,2.578e+00,2.991e+00,3.080e+00,4.911e+00,4.001e+00,4.368e+00,5.132e+00,4.796e+00,6.075e+00,4.699e+00,5.312e+00,4.253e+00,4.588e+00,4.987e+00,6.414e+00,6.595e+00,6.097e+00,7.050e+00,6.187e+00,6.756e+00,8.666e+00,7.176e+00,9.387e+00,6.879e+00,1.001e+01,9.694e+00,1.010e+01,8.926e+00,1.101e+01,1.071e+01,1.070e+01,7.239e+00,1.089e+01,1.144e+01,1.095e+01,1.086e+01,1.141e+01,9.313e+00,1.146e+01,1.183e+01,1.391e+01,1.215e+01,1.274e+01,1.256e+01,1.154e+01,1.269e+01,1.271e+01,1.042e+01,1.214e+01,1.154e+01,1.290e+01,1.169e+01,1.144e+01,1.204e+01,1.233e+01,1.338e+01,1.151e+01,1.144e+01,1.353e+01,1.013e+01
4.611e-01,5.166e-01,7.227e-01,1.480e+00,1.508e+00,1.310e+00,2.358e+00,2.125e+00,3.640e+00,2.127e+00,3.818e+00,1.808e+00,3.917e+00,5.058e+00,4.613e+00,3.485e+00,5.012e+00,4.935e+00,6.373e+00,6.274e+00,5.287e+00,8.043e+00,6.896e+00,7.701e+00,6.091e+00,6.174e+00,6.241e+00,7.563e+00,7.494e+00,9.822e+00,9.086e+00,8.714e+00,8.948e+00,8.468e+00,9.237e+00,1.016e+01,8.774e+00,1.157e+01,1.014e+01,1.222e+01,1.164e+01,1.253e+01,1.003e+01,1.084e+01,1.115e+01,1.179e+01,9.379e+00,1.224e+01,1.166e+01,1.196e+01,1.256e+01,1.353e+01,9.266e+00,1.441e+01,1.468e+01,1.639e+01,1.487e+01,1.236e+01,1.362e+01,1.337e+01,1.366e+01,1.417e+01,1.272e+01,1.408e+01,1.217e+01,1.487e+01,1.340e+01,1.207e+01,1.350e+01,1.460e+01,1.467e+01,1.442e+01,1.174e+01,1.536e+01,1.328e+01
4.311e-01,6.102e-01,7.774e-01,1.426e+00,1.719e+00,1.374e+00,2.967e+00,2.092e+00,3.170e+00,2.184e+00,3.893e+00,1.519e+00,3.367e+00,4.611e+00,4.887e+00,2.834e+00,4.569e+00,4.421e+00,5.870e+00,5.022e+00,4.669e+00,6.327e+00,4.960e+00,6.269e+00,6.212e+00,5.669e+00,5.213e+00,7.262e+00,6.903e+00,8.300e+00,8.403e+00,7.734e+00,8.032e+00,8.276e+00,7.504e+00,8.132e+00,8.671e+00,1.145e+01,9.673e+00,1.243e+01,1.198e+01,1.289e+01,1.038e+01,1.281e+01,1.249e+01,1.244e+01,8.691e+00,1.348e+01,1.330e+01,1.337e+01,1.327e+01,1.451e+01,1.095e+01,1.561e+01,1.470e+01,1.555e+01,1.537e+01,1.457e+01,1.494e+01,1.316e+01,1.619e+01,1.488e+01,1.410e+01,1.629e+01,1.301e+01,1.442e+01,1.356e+01,1.367e+01,1.476e+01,1.563e+01,1.590e+01,1.619e+01,1.340e+01,1.590e+01,1.337e+01
7.428e-02,2.728e-01,5.064e-01,9.797e-01,1.431e+00,1.136e+00,2.999e+00,1.734e+00,3.507e+00,2.860e+00,4.309e+00,1.894e+00,2.865e+00,4.057e+00,3.959e+00,3.055e+00,4.795e+00,3.316e+00,6.019e+00,5.837e+00,4.670e+00,6.077e+00,6.301e+00,6.864e+00,6.254e+00,5.815e+00,5.921e+00,6.703e+00,7.110e+00,8.196e+00,9.248e+00,8.427e+00,9.355e+00,7.587e+00,8.630e+00,9.064e+00,9.356e+00,1.147e+01,1.054e+01,1.152e+01,1.149e+01,1.094e+01,1.041e+01,1.349e+01,1.231e+01,1.224e+01,8.707e+00,1.209e+01,1.260e+01,1.317e+01,1.502e+01,1.401e+01,1.225e+01,1.397e+01,1.326e+01,1.776e+01,1.584e+01,1.554e+01,1.549e+01,1.533e+01,1.553e+01,1.491e+01,1.513e+01,1.747e+01,1.467e+01,1.620e+01,1.543e+01,1.516e+01,1.622e+01,1.652e+01,1.692e+01,1.589e+01,1.389e+01,1.694e+01,1.647e+01
1.547e-01,1.828e-01,2.875e-01,6.664e-01,7.745e-01,8.985e-01,2.418e+00,1.552e+00,3.327e+00,2.369e+00,3.781e+00,2.061e+00,3.104e+00,3.971e+00,3.873e+00,2.464e+00,3.517e+00,3.564e+00,5.019e+00,4.929e+00,4.007e+00,5.491e+00,4.416e+00,5.784e+00,4.915e+00,5.411e+00,4.676e+00,5.949e+00,6.471e+00,8.388e+00,8.207e+00,7.750e+00,7.262e+00,6.840e+00,6.283e+00,7.439e+00,8.310e+00,1.015e+01,8.850e+00,1.085e+01,9.507e+00,9.621e+00,9.578e+00,9.687e+00,9.264e+00,9.269e+00,6.903e+00,1.026e+01,9.452e+00,9.385e+00,1.018e+01,1.108e+01,7.445e+00,1.154e+01,1.175e+01,1.316e+01,1.243e+01,1.195e+01,1.206e+01,1.243e+01,1.309e+01,1.215e+01,1.256e+01,1.422e+01,1.049e+01,1.291e+01,1.195e+01,1.249e+01,1.248e+01,1.322e+01,1.340e+01,1.286e+01,1.143e+01,1.239e+01,1.152e+01
5.357e-01,4.828e-01,7.268e-01,1.721e+00,1.628e+00,1.379e+00,2.382e+00,2.504e+00,2.869e+00,2.138e+00,3.864e+00,2.226e+00,3.614e+00,4.343e+00,3.948e+00,3.687e+00,4.649e+00,4.383e+00,5.575e+00,5.445e+00,4.857e+00,7.041e+00,6.548e+00,6.350e+00,5.941e+00,6.679e+00,5.508e+00,7.170e+00,7.058e+00,8.971e+00,8.452e+00,7.533e+00,8.827e+00,8.371e+00,8.885e+00,9.979e+00,9.639e+00,1.084e+01,8.915e+00,1.080e+01,1.037e+01,1.217e+01,1.195e+01,1.161e+01,1.248e+01,1.227e+01,9.173e+00,1.262e+01,1.232e+01,1.225e+01,1.369e+01,1.468e+01,1.039e+01,1.483e+01,1.327e+01,1.613e+01,1.462e+01,1.427e+01,1.365e+01,1.396e+01,1.568e+01,1.573e+01,1.305e+01,1.502e+01,1.522e+01,1.727e+01,1.523e+01,1.451e+01,1.660e+01,1.571e+01,1.679e+01,1.611e+01,1.291e+01,1.703e+01,1.419e+01
5.684e-01,3.215e-01,2.876e-01,1.024e+00,7.558e-01,1.143e+00,1.840e+00,1.790e+00,3.461e+00,1.768e+00,3.252e+00,1.268e+00,3.041e+00,4.366e+00,3.236e+00,2.326e+00,3.623e+00,3.824e+00,4.766e+00,4.632e+00,4.052e+00,5.720e+00,4.981e+00,6.318e+00,5.617e+00,5.282e+00,4.716e+00,6.793e+00,6.329e+00,8.242e+00,7.980e+00,8.240e+00,7.863e+00,8.054e+00,7.874e+00,1.032e+01,8.915e+00,1.105e+01,9.624e+00,1.137e+01,1.141e+01,1.183e+01,1.039e+01,1.151e+01,1.251e+01,1.115e+01,9.252e+00,1.239e+01,1.290e+01,1.115e+01,1.201e+01,1.318e+01,1.040e+01,1.499e+01,1.541e+01,1.598e+01,1.648e+01,1.508e+01,1.394e+01,1.380e+01,1.547e+01,1.723e+01,1.578e+01,1.647e+01,1.364e+01,1.705e+01,1.351e+01,1.522e+01,1.594e+01,1.510e+01,1.609e+01,1.514e+01,1.358e+01,1.511e+01,1.398e+01
3.992e-01,2.493e-01,2.613e-01,8.393e-01,7.077e-01,9.062e-01,1.461e+00,1.323e+00,2.942e+00,2.087e+00,2.849e+00,1.396e+00,2.381e+00,3.471e+00,3.538e+00,2.797e+00,3.965e+00,3.955e+00,4.928e+00,4.620e+00,3.667e+00,5.255e+00,5.361e+00,5.919e+00,5.035e+00,5.326e+00,4.495e+00,5.588e+00,5.776e+00,7.429e+00,7.731e+00,7.578e+00,8.353e+00,6.820e+00,7.447e+00,9.894e+00,9.159e+00,1.083e+01,8.232e+00,1.004e+01,1.101e+01,1.130e+01,9.811e+00,1.201e+01,1.177e+01,1.097e+01,7.947e+00,1.086e+01,1.217e+01,1.153e+01,1.286e+01,1.361e+01,1.164e+01,1.436e+01,1.370e+01,1.566e+01,1.601e+01,1.679e+01,1.483e+01,1.533e+01,1.555e+01,1.856e+01,1.677e+01,1.791e+01,1.435e+01,1.846e+01,1.563e+01,1.553e+01,1.770e+01,1.584e+01,1.931e+01,1.706e+01,1.388e+01,1.690e+01,1.550e+01
7.233e-02,1.867e-01,2.940e-01,4.895e-01,9.330e-01,6.909e-01,1.474e+00,1.068e+00,2.233e+00,2.118e+00,3.092e+00,1.939e+00,2.447e+00,3.085e+00,3.924e+00,2.881e+00,4.387e+00,3.529e+00,4.975e+00,5.307e+00,4.484e+00,6.070e+00,6.556e+00,6.677e+00,5.434e+00,6.428e+00,5.159e+00,6.783e+00,6.749e+00,8.659e+00,9.786e+00,7.967e+00,8.514e+00,7.816e+00,8.432e+00,9.447e+00,8.689e+00,1.104e+01,8.784e+00,1.122e+01,1.090e+01,1.213e+01,1.045e+01,1.228e+01,1.220e+01,1.259e+01,9.629e+00,1.231e+01,1.101e+01,1.128e+01,1.238e+01,1.379e+01,9.888e+00,1.407e+01,1.303e+01,1.590e+01,1.467e+01,1.460e+01,1.300e+01,1.461e+01,1.464e+01,1.640e+01,1.437e+01,1.755e+01,1.477e+01,1.919e+01,1.585e+01,1.459e+01,1.788e+01,1.648e+01,1.818e+01,1.466e+01,1.399e+01,1.749e+01,1.488e+01
3.199e-01,5.263e-01,8.750e-01,1.691e+00,1.776e+00,1.330e+00,2.746e+00,2.024e+00,3.510e+00,2.349e+00,4.076e+00,1.859e+00,3.672e+00,5.007e+00,4.010e+00,2.876e+00,4.413e+00,4.181e+00,5.649e+00,5.669e+00,4.484e+00,6.268e+00,5.536e+00,6.576e+00,5.471e+00,5.646e+00,5.338e+00,6.545e+00,6.458e+00,8.607e+00,8.395e+00,8.393e+00,8.361e+00,8.269e+00,8.796e+00,9.335e+00,9.062e+00,1.114e+01,9.284e+00,1.113e+01,1.072e+01,1.081e+01,1.095e+01,1.214e+01,1.129e+01,1.129e+01,8.042e+00,1.197e+01,1.251e+01,1.125e+01,1.296e+01,1.353e+01,9.941e+00,1.598e+01,1.480e+01,1.689e+01,1.543e+01,1.434e+01,1.487e+01,1.483e+01,1.475e+01,1.662e+01,1.504e+01,1.715e+01,1.507e+01,1.905e+01,1.724e+01,1.631e+01,1.722e+01,1.676e+01,1.818e+01,1.647e+01,1.557e+01,1.723e+01,1.468e+01
1.150e-01,2.932e-01,4.689e-01,8.754e-01,8.332e-01,6.953e-01,2.197e+00,9.833e-01,3.061e+00,2.697e+00,3.662e+00,1.719e+00,2.437e+00,3.902e+00,3.723e+00,3.412e+00,4.319e+00,4.017e+00,5.465e+00,5.730e+00,4.447e+00,6.295e+00,6.064e+00,6.942e+00,5.104e+00,4.899e+00,5.088e+00,6.201e+00,6.302e+00,7.459e+00,7.420e+00,6.763e+00,7.057e+00,6.735e+00,6.909e+00,8.951e+00,8.115e+00,1.077e+01,8.802e+00,1.114e+01,9.816e+00,1.099e+01,9.780e+00,1.126e+01,1.112e+01,1.117e+01,8.414e+00,1.185e+01,1.177e+01,1.106e+01,1.264e+01,1.270e+01,1.088e+01,1.372e+01,1.432e+01,1.721e+01,1.416e+01,1.482e+01,1.528e+01,1.425e+01,1.567e+01,1.504e+01,1.386e+01,1.859e+01,1.529e+01,1.732e+01,1.544e+01,1.614e+01,1.728e+01,1.606e+01,1.680e+01,1.569e+01,1.444e+01,1.679e+01,1.614e+01
3.254e-01,3.046e-01,5.313e-01,1.278e+00,1.502e+00,1.307e+00,2.056e+00,1.929e+00,3.058e+00,1.765e+00,3.099e+00,1.320e+00,2.634e+00,3.785e+00,3.495e+00,2.730e+00,4.195e+00,3.001e+00,4.650e+00,4.589e+00,4.255e+00,5.186e+00,5.501e+00,6.514e+00,5.903e+00,6.505e+00,5.432e+00,6.123e+00,6.404e+00,8.185e+00,9.682e+00,9.090e+00,1.031e+01,8.472e+00,9.630e+00,1.130e+01,1.066e+01,1.143e+01,9.968e+00,1.201e+01,1.112e+01,1.243e+01,1.172e+01,1.333e+01,1.287e+01,1.095e+01,9.101e+00,1.225e+01,1.466e+01,1.267e+01,1.463e+01,1.540e+01,1.090e+01,1.487e+01,1.402e+01,1.637e+01,1.685e+01,1.512e+01,1.450e+01,1.454e+01,1.652e+01,1.851e+01,1.588e+01,1.702e+01,1.595e+01,2.062e+01,1.764e+01,1.764e+01,1.887e+01,1.818e+01,1.964e+01,1.780e+01,1.548e+01,1.847e+01,1.595e+01
3.909e-01,2.582e-01,1.453e-01,4.496e-01,3.143e-01,6.635e-01,1.310e+00,1.096e+00,2.635e+00,2.222e+00,2.793e+00,1.482e+00,2.244e+00,3.055e+00,2.834e+00,2.286e+00,2.949e+00,3.209e+00,3.932e+00,3.936e+00,3.374e+00,5.152e+00,5.014e+00,5.512e+00,4.558e+00,4.553e+00,4.279e+00,5.068e+00,5.341e+00,6.868e+00,7.616e+00,6.320e+00,7.400e+00,6.748e+00,6.908e+00,8.780e+00,8.010e+00,1.027e+01,8.873e+00,1.055e+01,1.037e+01,1.177e+01,1.014e+01,1.196e+01,1.109e+01,1.237e+01,8.713e+00,1.154e+01,1.253e+01,1.071e+01,1.200e+01,1.404e+01,1.054e+01,1.463e+01,1.462e+01,1.574e+01,1.500e+01,1.437e+01,1.459e+01,1.469e+01,1.590e+01,1.617e+01,1.375e+01,1.618e+01,1.461e+01,1.846e+01,1.650e+01,1.601e+01,1.699e+01,1.712e+01,1.802e+01,1.612e+01,1.418e+01,1.671e+01,1.540e+01
2.755e-01,4.884e-01,9.967e-01,1.990e+00,1.981e+00,1.194e+00,2.532e+00,2.463e+00,3.531e+00,3.016e+00,4.149e+00,1.976e+00,3.265e+00,4.518e+00,4.558e+00,3.718e+00,5.032e+00,3.736e+00,6.220e+00,5.416e+00,5.717e+00,6.934e+00,6.767e+00,7.157e+00,6.205e+00,5.309e+00,4.794e+00,6.472e+00,6.809e+00,8.567e+00,9.084e+00,7.767e+00,8.714e+00,8.386e+00,7.630e+00,8.970e+00,9.678e+00,1.038e+01,1.004e+01,1.237e+01,1.103e+01,1.256e+01,1.163e+01,1.444e+01,1.294e+01,1.227e+01,9.729e+00,1.358e+01,1.423e+01,1.295e+01,1.462e+01,1.566e+01,1.144e+01,1.635e+01,1.543e+01,1.819e+01,1.684e+01,1.660e+01,1.689e+01,1.720e+01,1.754e+01,1.975e+01,1.648e+01,1.929e+01,1.713e+01,2.099e+01,1.805e+01,1.801e+01,2.004e+01,2.026e+01,2.205e+01,1.951e+01,1.790e+01,2.140e+01,1.953e+01
6.319e-01,6.424e-01,7.701e-01,1.636e+00,1.847e+00,1.683e+00,3.085e+00,2.721e+00,4.488e+00,2.701e+00,5.117e+00,2.076e+00,4.515e+00,6.186e+00,5.934e+00,3.744e+00,5.747e+00,5.612e+00,6.867e+00,6.777e+00,5.811e+00,6.779e+00,6.849e+00,8.815e+00,6.783e+00,6.793e+00,6.560e+00,7.691e+00,7.604e+00,9.617e+00,1.008e+01,9.074e+00,1.039e+01,9.235e+00,9.237e+00,1.073e+01,1.015e+01,1.295e+01,9.980e+00,1.338e+01,1.201e+01,1.303e+01,1.158e+01,1.346e+01,1.297e+01,1.342e+01,9.460e+00,1.338e+01,1.337e+01,1.354e+01,1.523e+01,1.546e+01,1.173e+01,1.577e+01,1.586e+01,1.839e+01,1.688e+01,1.617e+01,1.727e+01,1.781e+01,1.687e+01,1.822e+01,1.722e+01,2.003e+01,1.661e+01,1.943e+01,1.942e+01,2.014e+01,1.882e+01,2.110e+01,1.980e+01,1.965e+01,1.841e+01,2.133e+01,1.864e+01
3.298e-01,2.345e-01,4.553e-01,1.236e+00,9.365e-01,8.839e-01,1.489e+00,1.664e+00,2.175e+00,1.733e+00,2.858e+00,1.898e+00,2.663e+00,3.749e+00,3.212e+00,3.362e+00,3.579e+00,4.160e+00,5.436e+00,4.941e+00,4.721e+00,5.748e+00,5.447e+00,6.432e+00,5.055e+00,5.879e+00,3.787e+00,5.338e+00,5.826e+00,8.127e+00,9.030e+00,8.029e+00,9.312e+00,7.762e+00,8.829e+00,1.028e+01,9.172e+00,1.025e+01,9.141e+00,1.262e+01,1.079e+01,1.249e+01,1.118e+01,1.113e+01,1.147e+01,1.179e+01,8.435e+00,1.210e+01,1.335e+01,1.267e+01,1.415e+01,1.476e+01,1.159e+01,1.553e+01,1.495e+01,1.469e+01,1.374e+01,1.470e+01,1.410e+01,1.375e+01,1.518e+01,1.733e+01,1.573e+01,1.691e+01,1.375e+01,1.862e+01,1.649e+01,1.710e+01,1.738e+01,2.022e+01,2.023e+01,1.873e+01,1.630e+01,2.033e+01,1.718e+01
3.476e-01,5.018e-01,9.319e-01,1.945e+00,1.900e+00,1.419e+00,2.742e+00,2.290e+00,4.208e+00,2.932e+00,4.845e+00,2.413e+00,4.197e+00,6.046e+00,5.252e+00,4.644e+00,5.869e+00,5.464e+00,7.920e+00,7.498e+00,6.456e+00,8.203e+00,7.895e+00,9.339e+00,7.405e+00,7.524e+00,6.509e+00,7.505e+00,8.070e+00,1.086e+01,1.073e+01,1.035e+01,1.144e+01,9.862e+00,1.067e+01,1.125e+01,1.104e+01,1.369e+01,1.197e+01,1.395e+01,1.257e+01,1.324e+01,1.192e+01,1.262e+01,1.278e+01,1.235e+01,9.553e+00,1.401e+01,1.405e+01,1.387e+01,1.531e+01,1.507e+01,1.185e+01,1.593e+01,1.680e+01,1.932e+01,1.692e+01,1.479e+01,1.597e+01,1.673e+01,1.701e+01,1.821e+01,1.761e+01,1.983e+01,1.604e+01,2.063e+01,1.924e+01,1.816e+01,1.823e+01,2.011e+01,2.191e+01,1.908e+01,1.812e+01,2.147e+01,1.875e+01
6.109e-01,6.945e-01,9.229e-01,1.817e+00,1.637e+00,1.220e+00,2.145e+00,2.227e+00,2.792e+00,2.009e+00,3.487e+00,1.547e+00,3.342e+00,4.324e+00,3.764e+00,3.068e+00,3.959e+00,4.005e+00,5.106e+00,4.909e+00,4.450e+00,6.472e+00,5.389e+00,6.656e+00,5.208e+00,5.612e+00,5.270e+00,5.806e+00,6.019e+00,8.220e+00,8.570e+00,7.329e+00,8.355e+00,8.082e+00,8.190e+00,8.669e+00,8.268e+00,9.957e+00,8.852e+00,1.138e+01,9.955e+00,1.034e+01,9.881e+00,1.148e+01,1.082e+01,1.236e+01,9.035e+00,1.248e+01,1.221e+01,1.214e+01,1.272e+01,1.397e+01,1.062e+01,1.384e+01,1.381e+01,1.544e+01,1.421e+01,1.365e+01,1.513e+01,1.439e+01,1.641e+01,1.708e+01,1.489e+01,1.767e+01,1.570e+01,1.897e+01,1.818e+01,1.713e+01,1.820e+01,1.878e+01,1.962e+01,1.820e+01,1.671e+01,2.007e+01,1.830e+01
3.213e-01,4.924e-01,9.451e-01,1.966e+00,1.551e+00,1.103e+00,2.912e+00,2.325e+00,3.711e+00,2.574e+00,4.166e+00,2.087e+00,3.839e+00,4.789e+00,4.370e+00,3.626e+00,4.186e+00,4.771e+00,5.932e+00,5.376e+00,4.155e+00,6.644e+00,5.675e+00,6.200e+00,4.898e+00,4.727e+00,4.633e+00,7.051e+00,7.009e+00,8.256e+00,7.504e+00,7.523e+00,8.068e+00,7.364e+00,6.845e+00,8.566e+00,9.535e+00,1.069e+01,9.361e+00,1.081e+01,1.052e+01,1.148e+01,1.007e+01,9.926e+00,1.082e+01,1.139e+01,7.990e+00,1.153e+01,1.092e+01,1.126e+01,1.279e+01,1.263e+01,9.317e+00,1.385e+01,1.413e+01,1.579e+01,1.309e+01,1.404e+01,1.361e+01,1.347e+01,1.461e+01,1.421e+01,1.408e+01,1.615e+01,1.329e+01,1.586e+01,1.531e+01,1.506e+01,1.656e+01,1.789e+01,1.720e+01,1.697e+01,1.410e+01,1.755e+01,1.621e+01
5.080e-01,3.398e-01,1.730e-01,5.707e-01,4.935e-01,7.680e-01,1.368e+00,1.281e+00,2.520e+00,2.127e+00,3.069e+00,1.335e+00,2.298e+00,3.332e+00,3.314e+00,2.744e+00,3.689e+00,4.184e+00,4.844e+00,4.711e+00,3.978e+00,5.160e+00,5.589e+00,6.282e+00,5.231e+00,5.154e+00,4.620e+00,5.649e+00,5.568e+00,7.334e+00,7.723e+00,6.975e+00,7.825e+00,7.628e+00,7.302e+00,1.012e+01,8.987e+00,1.124e+01,9.390e+00,1.183e+01,1.144e+01,1.156e+01,1.016e+01,1.215e+01,1.179e+01,1.216e+01,8.350e+00,1.145e+01,1.248e+01,1.128e+01,1.277e+01,1.316e+01,1.190e+01,1.352e+01,1.400e+01,1.620e+01,1.491e+01,1.509e+01,1.470e+01,1.548e+01,1.583e+01,1.659e+01,1.518e+01,1.863e+01,1.464e+01,1.866e+01,1.742e+01,1.696e+01,1.774e+01,1.873e+01,1.943e+01,1.928e+01,1.640e+01,2.017e+01,1.614e+01
4.538e-01,5.615e-01,8.087e-01,1.605e+00,1.329e+00,1.065e+00,2.283e+00,1.765e+00,2.799e+00,2.689e+00,3.158e+00,1.663e+00,2.700e+00,4.162e+00,4.368e+00,3.418e+00,4.540e+00,4.010e+00,5.163e+00,4.614e+00,4.406e+00,7.188e+00,6.494e+00,7.072e+00,5.467e+00,5.267e+00,4.621e+00,5.931e+00,5.714e+00,6.832e+00,7.934e+00,5.910e+00,7.106e+00,6.912e+00,8.304e+00,8.887e+00,7.521e+00,9.357e+00,7.594e+00,9.939e+00,9.846e+00,1.113e+01,1.003e+01,9.433e+00,1.024e+01,1.034e+01,7.534e+00,1.025e+01,1.076e+01,1.050e+01,1.095e+01,1.179e+01,9.385e+00,1.250e+01,1.189e+01,1.431e+01,1.180e+01,1.234e+01,1.335e+01,1.269e+01,1.271e+01,1.473e+01,1.145e+01,1.482e+01,1.237e+01,1.552e+01,1.368e+01,1.291e+01,1.485e+01,1.572e+01,1.643e+01,1.494e+01,1.298e+01,1.722e+01,1.481e+01
