5.864e-02,6.175e-01,4.853e-01,4.342e-01,6.599e-01,9.251e-01,4.479e-01,2.279e-01,4.019e-01,5.866e-02,8.276e-01,6.804e-01,8.455e-02,1.466e-01,3.084e-01,5.976e-01,4.288e-01,9.364e-01,8.401e-01,8.139e-02,2.963e-01,5.826e-01,4.584e-01,2.484e-01,3.856e-01,1.955e-01,8.678e-01,3.303e-01,9.743e-02,1.336e-01,8.567e-01,4.460e-01,8.835e-01,8.672e-01,3.542e-01,7.478e-01,4.366e-01,5.382e-01,2.926e-01,1.302e-01,5.742e-01,6.566e-03,5.840e-01,9.676e-02,9.087e-02,4.572e-01,8.842e-01,8.235e-01,6.394e-01,9.900e-01,6.999e-02,5.572e-01,2.132e-01,1.808e-01,7.598e-01,7.791e-01,3.590e-01,7.831e-01,2.608e-01,2.260e-01,8.116e-02,6.086e-01,4.521e-01,1.771e-01,7.837e-01,8.565e-02,4.550e-02,6.864e-03,9.172e-01,9.187e-01,6.177e-01,5.491e-01,4.954e-01
5.302e-02,1.541e+00,6.879e-01,1.191e+00,1.184e+00,8.826e-01,9.297e-01,8.827e-01,5.763e-01,6.349e-01,1.624e+00,1.422e+00,1.965e-01,8.370e-01,7.091e-01,8.219e-01,7.339e-01,1.199e+00,1.008e+00,8.764e-01,6.935e-01,9.060e-01,4.919e-01,6.395e-01,7.175e-01,7.046e-01,1.538e+00,3.200e-01,4.823e-01,7.549e-01,1.490e+00,7.321e-01,9.741e-01,7.962e-01,7.884e-01,1.441e+00,1.379e+00,1.470e+00,5.819e-01,6.620e-01,1.428e+00,1.521e-01,1.124e+00,9.447e-01,5.011e-01,5.490e-01,8.602e-01,1.626e+00,8.893e-01,1.162e+00,5.831e-01,7.408e-01,9.493e-01,8.499e-01,1.490e+00,1.210e+00,1.213e+00,9.383e-01,1.153e+00,7.974e-01,3.204e-01,8.104e-01,1.184e+00,6.297e-01,1.073e+00,4.331e-01,1.032e+00,7.072e-01,8.558e-01,1.633e+00,5.755e-01,1.145e+00,1.379e+00
2.025e-02,7.461e-01,8.781e-01,8.376e-01,1.411e+00,3.567e-01,8.554e-01,1.403e+00,3.942e-01,3.770e-01,9.249e-01,1.011e+00,6.674e-01,9.265e-01,8.409e-01,1.343e+00,1.172e+00,1.065e+00,9.315e-01,5.414e-01,4.841e-01,8.721e-01,5.828e-01,6.299e-01,6.732e-01,7.204e-01,9.468e-01,6.936e-01,7.062e-01,1.068e+00,1.207e+00,7.723e-01,1.299e+00,8.897e-01,1.360e+00,7.362e-01,1.039e+00,1.080e+00,1.017e+00,8.928e-01,1.487e+00,1.174e-01,1.429e+00,7.341e-01,2.722e-01,8.284e-01,5.423e-01,8.700e-01,6.468e-01,7.438e-01,4.219e-01,8.018e-01,9.919e-01,8.964e-01,9.034e-01,1.422e+00,1.525e+00,8.065e-01,6.646e-01,1.208e+00,6.090e-01,8.087e-01,9.330e-01,6.382e-01,6.544e-01,7.971e-01,7.499e-01,5.643e-01,7.520e-01,1.240e+00,8.060e-01,1.167e+00,7.446e-01
1.260e-02,4.873e-01,2.593e-01,1.256e+00,5.224e-01,4.181e-01,7.599e-01,1.368e+00,4.942e-01,7.986e-01,7.038e-01,5.621e-01,1.052e+00,6.279e-01,1.170e+00,1.286e+00,5.978e-01,9.450e-01,3.414e-01,6.428e-01,8.111e-01,4.859e-01,1.114e+00,5.787e-01,1.202e+00,1.096e+00,1.059e+00,1.022e+00,1.064e+00,1.110e+00,7.556e-01,8.599e-01,4.265e-01,8.760e-01,1.264e+00,9.436e-01,1.345e+00,1.499e+00,4.627e-01,1.051e+00,1.421e+00,2.156e-01,7.862e-01,4.561e-01,1.160e+00,1.207e+00,5.924e-01,5.702e-01,5.986e-01,7.086e-01,7.500e-01,9.930e-01,7.535e-01,9.447e-01,7.353e-01,7.958e-01,9.315e-01,1.163e+00,1.032e+00,1.201e+00,1.024e+00,8.979e-01,1.347e+00,4.904e-01,6.919e-01,8.822e-01,7.111e-01,4.405e-01,7.745e-01,1.467e+00,9.936e-01,8.092e-01,7.851e-01
9.675e-03,1.518e-01,3.512e-01,1.013e+00,1.457e+00,7.085e-01,1.018e+00,2.214e+00,7.437e-01,6.379e-01,1.117e+00,9.412e-01,1.911e+00,1.323e+00,2.125e+00,1.932e+00,1.345e+00,1.705e+00,5.086e-01,9.616e-01,1.210e+00,1.082e+00,1.845e+00,1.268e+00,1.864e+00,1.134e+00,1.313e+00,1.803e+00,1.972e+00,1.970e+00,1.595e+00,1.263e+00,1.106e+00,1.572e+00,1.554e+00,1.525e+00,1.137e+00,1.408e+00,1.098e+00,1.832e+00,1.855e+00,8.386e-01,1.730e+00,1.238e+00,1.356e+00,1.881e+00,1.124e+00,1.050e+00,7.253e-01,1.247e+00,1.254e+00,1.716e+00,1.482e+00,1.183e+00,1.238e+00,1.686e+00,1.888e+00,1.848e+00,1.626e+00,1.979e+00,1.449e+00,1.498e+00,1.762e+00,1.314e+00,9.927e-01,1.258e+00,6.414e-01,3.112e-01,1.624e+00,1.346e+00,1.840e+00,1.158e+00,9.637e-01
3.364e-03,1.475e-01,3.776e-01,9.322e-01,7.582e-01,1.239e+00,7.737e-01,1.657e+00,9.857e-01,1.037e+00,1.092e+00,1.415e+00,2.144e+00,9.324e-01,1.560e+00,1.829e+00,1.819e+00,1.754e+00,1.079e+00,1.444e+00,9.633e-01,6.883e-01,1.471e+00,1.455e+00,1.315e+00,1.082e+00,1.006e+00,1.685e+00,1.814e+00,2.096e+00,1.319e+00,1.399e+00,1.203e+00,1.376e+00,1.758e+00,1.266e+00,1.157e+00,1.900e+00,1.583e+00,1.763e+00,1.414e+00,1.185e+00,1.164e+00,1.283e+00,1.040e+00,2.184e+00,6.443e-01,1.196e+00,6.950e-01,1.335e+00,6.887e-01,1.188e+00,1.462e+00,1.711e+00,1.207e+00,1.409e+00,1.984e+00,1.099e+00,8.003e-01,1.810e+00,1.828e+00,1.663e+00,1.861e+00,6.510e-01,9.405e-01,1.046e+00,1.442e+00,9.841e-01,1.343e+00,1.346e+00,1.756e+00,1.682e+00,7.368e-01
3.308e-02,7.153e-01,8.974e-01,1.293e+00,1.555e+00,1.634e+00,1.630e+00,2.438e+00,2.184e+00,1.394e+00,2.550e+00,2.625e+00,2.937e+00,1.605e+00,2.299e+00,2.471e+00,2.957e+00,2.579e+00,2.590e+00,2.417e+00,2.052e+00,1.598e+00,2.044e+00,2.036e+00,1.685e+00,1.366e+00,2.498e+00,2.228e+00,2.628e+00,3.318e+00,2.256e+00,2.682e+00,2.726e+00,2.530e+00,3.037e+00,2.334e+00,2.394e+00,2.543e+00,2.338e+00,2.884e+00,2.447e+00,1.990e+00,2.443e+00,2.293e+00,1.716e+00,2.923e+00,1.383e+00,1.837e+00,1.786e+00,2.221e+00,1.459e+00,1.914e+00,1.852e+00,2.663e+00,1.858e+00,2.981e+00,3.133e+00,1.870e+00,1.919e+00,2.870e+00,2.448e+00,2.762e+00,2.960e+00,1.380e+00,1.783e+00,1.974e+00,2.291e+00,2.115e+00,2.148e+00,2.478e+00,2.820e+00,3.213e+00,1.801e+00
4.278e-02,6.647e-01,6.642e-01,8.620e-01,1.675e+00,1.298e+00,1.408e+00,2.389e+00,2.556e+00,1.035e+00,3.266e+00,2.422e+00,2.394e+00,1.540e+00,2.818e+00,2.358e+00,2.563e+00,2.406e+00,2.371e+00,2.771e+00,2.802e+00,1.779e+00,2.609e+00,2.235e+00,2.442e+00,1.608e+00,2.682e+00,2.258e+00,2.739e+00,2.667e+00,2.163e+00,2.228e+00,2.566e+00,2.767e+00,2.903e+00,2.943e+00,2.411e+00,1.793e+00,1.970e+00,2.597e+00,2.179e+00,2.333e+00,2.742e+00,2.978e+00,2.410e+00,2.315e+00,1.682e+00,1.933e+00,1.802e+00,2.171e+00,1.612e+00,2.520e+00,1.649e+00,2.691e+00,1.730e+00,3.317e+00,2.781e+00,2.144e+00,2.263e+00,2.620e+00,1.828e+00,3.172e+00,3.263e+00,2.018e+00,2.392e+00,2.142e+00,2.197e+00,1.830e+00,2.800e+00,2.291e+00,3.032e+00,3.008e+00,1.907e+00
8.649e-03,9.367e-01,4.978e-01,1.152e+00,1.354e+00,6.025e-01,1.256e+00,2.254e+00,2.758e+00,1.319e+00,3.325e+00,2.103e+00,2.044e+00,2.324e+00,2.489e+00,2.110e+00,2.804e+00,2.589e+00,2.320e+00,3.340e+00,2.635e+00,2.128e+00,2.501e+00,2.455e+00,2.950e+00,2.392e+00,2.678e+00,2.161e+00,3.241e+00,2.609e+00,2.557e+00,2.428e+00,1.740e+00,1.775e+00,3.293e+00,2.977e+00,2.840e+00,2.329e+00,1.612e+00,2.847e+00,2.164e+00,2.310e+00,2.620e+00,3.091e+00,2.242e+00,2.379e+00,1.596e+00,2.526e+00,2.197e+00,1.866e+00,2.226e+00,2.134e+00,1.948e+00,3.115e+00,2.172e+00,2.859e+00,2.529e+00,1.989e+00,3.026e+00,3.073e+00,1.747e+00,2.865e+00,3.573e+00,2.364e+00,2.420e+00,2.040e+00,3.109e+00,2.777e+00,1.788e+00,2.862e+00,2.120e+00,3.208e+00,2.222e+00
4.184e-02,1.012e+00,5.335e-01,1.575e+00,1.182e+00,1.204e+00,1.289e+00,2.195e+00,2.267e+00,1.521e+00,3.335e+00,2.427e+00,2.905e+00,2.144e+00,2.941e+00,2.817e+00,2.794e+00,3.173e+00,2.018e+00,2.920e+00,2.643e+00,2.633e+00,3.516e+00,2.271e+00,3.126e+00,2.527e+00,3.085e+00,2.189e+00,2.731e+00,2.300e+00,3.168e+00,2.885e+00,2.418e+00,2.621e+00,3.695e+00,3.031e+00,2.912e+00,2.667e+00,1.665e+00,2.380e+00,2.396e+00,2.509e+00,2.261e+00,3.140e+00,3.212e+00,2.976e+00,2.130e+00,2.836e+00,2.372e+00,2.414e+00,1.953e+00,3.146e+00,1.900e+00,2.825e+00,2.694e+00,3.469e+00,2.753e+00,2.301e+00,2.799e+00,2.887e+00,2.315e+00,3.164e+00,4.170e+00,2.354e+00,2.731e+00,1.857e+00,3.308e+00,2.227e+00,2.224e+00,2.961e+00,3.234e+00,2.744e+00,2.593e+00
5.783e-02,1.243e+00,6.707e-01,1.492e+00,1.180e+00,1.935e+00,1.440e+00,1.961e+00,2.486e+00,1.674e+00,4.309e+00,3.091e+00,3.242e+00,2.668e+00,3.399e+00,3.329e+00,3.898e+00,3.156e+00,3.007e+00,3.295e+00,3.272e+00,3.001e+00,3.210e+00,3.235e+00,2.635e+00,2.613e+00,3.865e+00,2.132e+00,3.043e+00,3.235e+00,3.864e+00,2.922e+00,3.272e+00,2.992e+00,4.296e+00,4.021e+00,3.559e+00,3.532e+00,2.878e+00,2.616e+00,3.244e+00,2.795e+00,2.651e+00,3.846e+00,3.342e+00,3.490e+00,2.280e+00,3.479e+00,2.605e+00,3.593e+00,2.592e+00,3.104e+00,2.289e+00,3.361e+00,3.179e+00,3.568e+00,3.423e+00,2.318e+00,3.350e+00,3.246e+00,3.339e+00,3.408e+00,4.207e+00,2.067e+00,3.038e+00,2.134e+00,4.027e+00,3.342e+00,2.681e+00,3.296e+00,3.680e+00,3.316e+00,3.051e+00
2.774e-02,1.009e+00,4.945e-01,1.540e+00,1.291e+00,9.714e-01,1.310e+00,2.368e+00,2.228e+00,1.468e+00,3.262e+00,2.324e+00,2.980e+00,2.972e+00,3.190e+00,3.380e+00,2.873e+00,3.627e+00,2.592e+00,2.955e+00,3.536e+00,2.786e+00,3.109e+00,2.754e+00,3.824e+00,2.881e+00,3.655e+00,2.250e+00,3.214e+00,3.090e+00,3.792e+00,3.320e+00,2.342e+00,3.293e+00,4.132e+00,3.662e+00,3.469e+00,3.339e+00,2.439e+00,3.416e+00,2.971e+00,2.841e+00,2.835e+00,3.434e+00,3.679e+00,2.900e+00,1.971e+00,2.582e+00,2.283e+00,2.921e+00,2.753e+00,3.643e+00,2.844e+00,2.927e+00,3.126e+00,3.241e+00,3.520e+00,2.793e+00,3.435e+00,3.775e+00,2.611e+00,3.861e+00,4.160e+00,2.471e+00,2.634e+00,2.149e+00,3.573e+00,3.002e+00,2.632e+00,3.714e+00,3.058e+00,2.829e+00,3.277e+00
3.985e-02,4.382e-01,3.377e-01,4.610e-01,1.199e+00,1.290e+00,1.060e+00,1.375e+00,1.860e+00,7.785e-01,3.287e+00,2.296e+00,3.228e+00,3.374e+00,3.654e+00,3.000e+00,3.583e+00,3.875e+00,2.600e+00,2.921e+00,3.257e+00,3.613e+00,2.748e+00,3.590e+00,2.921e+00,2.215e+00,3.519e+00,2.290e+00,3.151e+00,3.242e+00,4.421e+00,3.749e+00,3.660e+00,3.707e+00,3.485e+00,3.923e+00,2.731e+00,3.077e+00,2.529e+00,2.908e+00,3.033e+00,3.322e+00,2.607e+00,3.872e+00,3.353e+00,3.158e+00,2.686e+00,3.641e+00,2.570e+00,3.808e+00,2.938e+00,2.985e+00,2.856e+00,3.054e+00,3.688e+00,3.958e+00,3.057e+00,2.812e+00,4.195e+00,3.503e+00,3.031e+00,3.561e+00,3.497e+00,3.224e+00,2.626e+00,2.459e+00,2.953e+00,3.600e+00,3.072e+00,2.934e+00,3.800e+00,2.765e+00,3.543e+00
4.193e-02,1.239e+00,7.587e-01,1.432e+00,1.886e+00,1.098e+00,1.337e+00,2.227e+00,1.687e+00,1.091e+00,3.150e+00,2.305e+00,2.636e+00,3.938e+00,3.437e+00,3.777e+00,3.945e+00,4.526e+00,2.764e+00,3.212e+00,3.157e+00,4.061e+00,3.141e+00,3.596e+00,4.481e+00,3.085e+00,3.733e+00,3.010e+00,3.080e+00,3.119e+00,4.542e+00,4.038e+00,3.504e+00,3.923e+00,4.698e+00,4.663e+00,3.855e+00,3.659e+00,2.608e+00,4.108e+00,4.030e+00,2.619e+00,3.166e+00,3.832e+00,3.234e+00,3.447e+00,2.434e+00,4.358e+00,3.126e+00,3.623e+00,3.637e+00,3.510e+00,3.719e+00,3.290e+00,4.121e+00,3.809e+00,4.293e+00,3.189e+00,3.943e+00,4.374e+00,2.566e+00,4.299e+00,4.594e+00,3.225e+00,2.745e+00,2.322e+00,3.676e+00,3.231e+00,2.834e+00,4.056e+00,3.740e+00,3.037e+00,4.046e+00
5.402e-02,9.053e-01,7.705e-01,1.600e+00,1.473e+00,2.018e+00,1.671e+00,2.678e+00,2.782e+00,1.702e+00,4.120e+00,3.010e+00,3.754e+00,2.922e+00,4.578e+00,4.364e+00,4.753e+00,3.867e+00,4.013e+00,3.546e+00,4.773e+00,3.556e+00,3.800e+00,4.458e+00,4.278e+00,3.063e+00,5.015e+00,3.772e+00,4.542e+00,4.589e+00,4.153e+00,3.906e+00,3.695e+00,4.353e+00,5.033e+00,5.268e+00,4.824e+00,4.276e+00,3.817e+00,4.005e+00,4.234e+00,3.516e+00,3.751e+00,4.509e+00,4.077e+00,4.730e+00,2.750e+00,3.474e+00,3.333e+00,4.268e+00,3.150e+00,4.260e+00,3.453e+00,4.561e+00,3.540e+00,4.619e+00,4.924e+00,3.894e+00,4.154e+00,4.303e+00,3.793e+00,4.439e+00,5.381e+00,2.475e+00,4.061e+00,3.098e+00,4.035e+00,3.652e+00,4.214e+00,4.653e+00,4.377e+00,3.831e+00,3.393e+00
4.852e-02,5.647e-01,4.830e-01,6.982e-01,1.208e+00,1.257e+00,9.762e-01,1.662e+00,2.668e+00,8.657e-01,3.326e+00,2.009e+00,2.321e+00,2.508e+00,2.904e+00,3.519e+00,3.442e+00,4.622e+00,3.605e+00,3.620e+00,3.430e+00,3.603e+00,3.623e+00,3.498e+00,4.020e+00,3.071e+00,3.722e+00,2.884e+00,3.383e+00,2.633e+00,3.778e+00,3.801e+00,2.616e+00,3.742e+00,3.862e+00,3.699e+00,3.143e+00,3.292e+00,2.444e+00,3.521e+00,2.525e+00,3.584e+00,3.615e+00,3.595e+00,3.055e+00,3.419e+00,2.794e+00,3.678e+00,2.728e+00,3.538e+00,3.139e+00,3.955e+00,3.293e+00,3.734e+00,2.895e+00,3.990e+00,2.937e+00,3.678e+00,3.795e+00,3.795e+00,2.933e+00,4.061e+00,3.815e+00,2.934e+00,3.922e+00,2.021e+00,3.188e+00,3.372e+00,3.162e+00,3.425e+00,3.508e+00,3.034e+00,2.789e+00
2.440e-02,7.462e-01,6.696e-01,1.141e+00,1.739e+00,1.037e+00,1.398e+00,2.541e+00,2.480e+00,1.195e+00,3.250e+00,2.310e+00,2.835e+00,3.204e+00,3.818e+00,3.587e+00,4.189e+00,4.613e+00,3.975e+00,4.950e+00,4.066e+00,4.180e+00,4.316e+00,4.863e+00,4.502e+00,3.420e+00,4.268e+00,3.948e+00,4.581e+00,4.382e+00,3.990e+00,5.015e+00,3.374e+00,4.175e+00,4.792e+00,4.732e+00,4.497e+00,4.502e+00,2.847e+00,4.974e+00,4.541e+00,3.538e+00,4.454e+00,4.556e+00,3.619e+00,4.114e+00,2.967e+00,5.012e+00,3.854e+00,3.914e+00,3.851e+00,3.741e+00,3.780e+00,4.453e+00,4.289e+00,4.936e+00,4.731e+00,3.810e+00,4.356e+00,4.736e+00,3.675e+00,4.424e+00,4.887e+00,3.929e+00,4.116e+00,3.125e+00,4.078e+00,4.501e+00,3.843e+00,4.538e+00,4.840e+00,3.904e+00,4.320e+00
2.766e-02,1.193e+00,8.485e-01,1.865e+00,1.781e+00,1.500e+00,1.542e+00,2.786e+00,1.712e+00,1.686e+00,3.334e+00,2.757e+00,3.458e+00,3.432e+00,4.533e+00,4.521e+00,4.573e+00,5.201e+00,3.906e+00,4.671e+00,4.741e+00,5.313e+00,4.548e+00,5.255e+00,5.039e+00,4.563e+00,5.202e+00,4.453e+00,5.167e+00,5.339e+00,5.535e+00,4.905e+00,4.463e+00,4.850e+00,5.211e+00,5.727e+00,5.080e+00,6.342e+00,3.633e+00,5.195e+00,5.359e+00,4.314e+00,4.290e+00,4.938e+00,4.690e+00,5.622e+00,3.372e+00,5.897e+00,3.887e+00,4.998e+00,3.856e+00,4.607e+00,4.771e+00,5.267e+00,5.609e+00,5.975e+00,5.472e+00,4.883e+00,4.688e+00,4.971e+00,4.550e+00,4.699e+00,5.690e+00,3.687e+00,4.556e+00,3.854e+00,4.612e+00,5.366e+00,4.955e+00,5.213e+00,5.147e+00,4.228e+00,4.857e+00
2.948e-03,8.685e-01,7.438e-01,1.504e+00,1.966e+00,7.926e-01,1.531e+00,3.180e+00,1.995e+00,1.447e+00,2.944e+00,2.418e+00,3.079e+00,3.203e+00,4.469e+00,4.169e+00,4.299e+00,4.537e+00,3.877e+00,5.561e+00,5.110e+00,4.506e+00,4.869e+00,5.694e+00,5.492e+00,4.577e+00,5.389e+00,4.462e+00,5.627e+00,5.358e+00,4.886e+00,5.307e+00,3.908e+00,4.831e+00,5.788e+00,5.698e+00,5.559e+00,5.487e+00,3.841e+00,5.892e+00,5.921e+00,3.966e+00,5.489e+00,5.817e+00,4.545e+00,5.393e+00,3.643e+00,5.420e+00,4.661e+00,4.027e+00,4.795e+00,5.157e+00,5.024e+00,5.175e+00,4.656e+00,6.381e+00,5.918e+00,4.575e+00,4.578e+00,5.744e+00,4.516e+00,5.394e+00,5.559e+00,4.348e+00,4.904e+00,3.690e+00,4.503e+00,4.518e+00,5.087e+00,5.282e+00,5.141e+00,4.484e+00,4.994e+00
2.199e-02,6.660e-01,3.116e-01,1.124e+00,9.289e-01,9.304e-01,1.027e+00,1.766e+00,2.069e+00,1.170e+00,2.885e+00,1.743e+00,2.431e+00,3.120e+00,3.938e+00,3.879e+00,4.435e+00,5.118e+00,3.724e+00,4.860e+00,4.675e+00,6.130e+00,4.325e+00,5.147e+00,5.610e+00,5.529e+00,5.198e+00,4.946e+00,5.466e+00,4.799e+00,5.253e+00,4.948e+00,4.564e+00,4.866e+00,5.127e+00,5.783e+00,5.636e+00,5.944e+00,3.318e+00,5.866e+00,4.640e+00,4.722e+00,4.052e+00,5.346e+00,4.242e+00,5.613e+00,4.276e+00,6.563e+00,4.817e+00,4.886e+00,4.986e+00,4.808e+00,4.788e+00,5.717e+00,5.068e+00,5.939e+00,4.475e+00,5.973e+00,5.697e+00,5.865e+00,4.809e+00,4.879e+00,5.600e+00,4.421e+00,5.563e+00,3.885e+00,4.557e+00,4.931e+00,4.463e+00,5.742e+00,4.540e+00,4.791e+00,4.812e+00
3.815e-02,4.748e-01,7.934e-01,6.283e-01,1.609e+00,1.518e+00,1.061e+00,1.700e+00,2.062e+00,8.854e-01,3.120e+00,2.564e+00,3.529e+00,3.854e+00,3.803e+00,4.143e+00,5.035e+00,5.790e+00,4.294e+00,4.079e+00,5.309e+00,6.213e+00,4.400e+00,5.444e+00,5.945e+00,4.707e+00,5.563e+00,4.499e+00,6.186e+00,5.190e+00,7.431e+00,5.450e+00,5.950e+00,5.505e+00,6.301e+00,5.770e+00,4.910e+00,5.428e+00,3.943e+00,5.517e+00,4.248e+00,5.864e+00,4.734e+00,5.895e+00,4.329e+00,6.554e+00,4.482e+00,6.401e+00,5.555e+00,5.481e+00,4.520e+00,5.589e+00,5.497e+00,5.054e+00,5.757e+00,7.185e+00,5.070e+00,5.042e+00,5.381e+00,5.535e+00,4.942e+00,5.447e+00,5.722e+00,4.227e+00,5.403e+00,4.082e+00,4.399e+00,5.924e+00,4.970e+00,5.710e+00,5.322e+00,5.362e+00,5.122e+00
5.637e-02,1.497e+00,9.974e-01,1.640e+00,1.668e+00,1.659e+00,1.741e+00,2.235e+00,2.919e+00,1.579e+00,4.344e+00,3.049e+00,3.203e+00,4.147e+00,4.009e+00,4.326e+00,5.023e+00,5.343e+00,5.645e+00,5.438e+00,6.374e+00,6.721e+00,5.515e+00,6.467e+00,6.099e+00,5.598e+00,7.548e+00,4.096e+00,7.259e+00,7.315e+00,7.655e+00,6.131e+00,5.571e+00,5.579e+00,7.745e+00,7.390e+00,7.608e+00,7.798e+00,5.325e+00,6.946e+00,6.921e+00,5.355e+00,6.541e+00,6.310e+00,5.328e+00,7.200e+00,5.506e+00,7.634e+00,6.307e+00,6.893e+00,6.553e+00,6.108e+00,5.587e+00,5.564e+00,6.243e+00,6.867e+00,6.149e+00,6.019e+00,6.221e+00,7.349e+00,6.159e+00,6.368e+00,6.252e+00,4.196e+00,6.258e+00,5.151e+00,5.895e+00,7.461e+00,5.743e+00,8.374e+00,5.737e+00,6.562e+00,6.946e+00
2.050e-03,7.164e-01,5.174e-01,1.129e+00,1.053e+00,8.310e-01,1.131e+00,1.914e+00,1.587e+00,1.317e+00,2.819e+00,2.144e+00,2.782e+00,2.998e+00,3.073e+00,3.621e+00,4.327e+00,4.089e+00,4.013e+00,5.148e+00,4.902e+00,6.390e+00,5.730e+00,5.554e+00,5.460e+00,5.699e+00,5.619e+00,4.608e+00,6.071e+00,6.328e+00,6.474e+00,5.738e+00,6.079e+00,5.314e+00,7.565e+00,6.087e+00,6.980e+00,7.478e+00,4.738e+00,6.899e+00,6.220e+00,5.934e+00,5.912e+00,6.430e+00,4.646e+00,6.760e+00,4.551e+00,8.068e+00,5.533e+00,5.587e+00,6.834e+00,6.253e+00,5.263e+00,5.745e+00,5.190e+00,6.856e+00,6.365e+00,5.104e+00,6.284e+00,7.087e+00,7.228e+00,5.336e+00,5.758e+00,4.842e+00,6.052e+00,5.311e+00,5.672e+00,7.033e+00,3.935e+00,6.952e+00,6.684e+00,5.795e+00,6.206e+00
5.785e-02,1.482e+00,9.633e-01,1.853e+00,1.936e+00,1.854e+00,1.741e+00,2.574e+00,2.216e+00,1.573e+00,3.547e+00,2.942e+00,2.973e+00,3.211e+00,3.912e+00,4.428e+00,4.939e+00,5.397e+00,4.961e+00,5.231e+00,5.979e+00,6.461e+00,5.853e+00,6.221e+00,7.756e+00,5.704e+00,7.484e+00,6.236e+00,7.248e+00,7.099e+00,7.915e+00,6.553e+00,6.134e+00,6.987e+00,8.000e+00,7.504e+00,8.235e+00,7.553e+00,5.197e+00,7.083e+00,7.194e+00,6.320e+00,7.339e+00,7.430e+00,4.936e+00,8.530e+00,5.439e+00,8.133e+00,6.658e+00,6.345e+00,6.383e+00,6.989e+00,6.519e+00,6.657e+00,6.172e+00,8.091e+00,7.594e+00,6.915e+00,6.807e+00,7.629e+00,7.009e+00,7.039e+00,7.557e+00,4.437e+00,7.358e+00,5.264e+00,6.081e+00,6.164e+00,6.397e+00,8.090e+00,6.820e+00,6.248e+00,6.463e+00
2.622e-02,6.806e-01,4.009e-01,1.375e+00,8.879e-01,1.400e+00,1.198e+00,1.998e+00,1.857e+00,1.421e+00,2.385e+00,2.112e+00,3.020e+00,2.757e+00,3.250e+00,3.498e+00,3.132e+00,4.641e+00,3.736e+00,4.251e+00,5.523e+00,5.087e+00,4.597e+00,4.944e+00,6.642e+00,4.928e+00,6.150e+00,4.902e+00,6.240e+00,6.860e+00,6.690e+00,5.666e+00,4.952e+00,5.926e+00,6.399e+00,6.524e+00,6.491e+00,6.991e+00,4.177e+00,6.520e+00,5.884e+00,6.081e+00,4.745e+00,5.775e+00,5.447e+00,6.489e+00,4.680e+00,6.350e+00,5.516e+00,6.130e+00,5.299e+00,5.737e+00,5.606e+00,4.803e+00,5.301e+00,6.108e+00,5.210e+00,6.036e+00,5.202e+00,6.673e+00,5.670e+00,6.418e+00,6.266e+00,3.289e+00,5.246e+00,5.623e+00,4.543e+00,6.486e+00,5.933e+00,7.238e+00,6.411e+00,6.068e+00,6.329e+00
3.215e-02,1.288e+00,7.764e-01,1.155e+00,2.000e+00,1.267e+00,1.589e+00,2.273e+00,2.279e+00,1.329e+00,3.790e+00,3.235e+00,3.590e+00,4.552e+00,4.037e+00,4.125e+00,4.839e+00,5.824e+00,4.225e+00,5.404e+00,5.346e+00,6.826e+00,5.039e+00,5.874e+00,7.216e+00,6.084e+00,7.183e+00,5.881e+00,7.021e+00,7.516e+00,9.418e+00,7.515e+00,6.862e+00,8.000e+00,8.316e+00,7.399e+00,7.929e+00,7.519e+00,6.119e+00,7.359e+00,7.543e+00,7.869e+00,7.271e+00,9.015e+00,5.506e+00,7.249e+00,6.615e+00,8.741e+00,7.126e+00,6.787e+00,7.572e+00,7.443e+00,7.161e+00,6.788e+00,7.434e+00,8.150e+00,7.176e+00,6.817e+00,8.155e+00,9.084e+00,7.799e+00,8.202e+00,8.057e+00,5.605e+00,7.290e+00,6.463e+00,7.286e+00,7.381e+00,6.465e+00,8.310e+00,6.904e+00,7.235e+00,7.728e+00
3.749e-02,1.119e+00,6.439e-01,1.666e+00,1.452e+00,1.803e+00,1.353e+00,2.227e+00,2.307e+00,1.660e+00,3.447e+00,2.769e+00,3.487e+00,3.792e+00,3.768e+00,4.457e+00,5.038e+00,6.018e+00,4.884e+00,5.688e+00,5.479e+00,6.944e+00,6.084e+00,6.218e+00,7.955e+00,6.545e+00,8.120e+00,6.456e+00,8.397e+00,8.068e+00,9.607e+00,7.892e+00,5.926e+00,7.811e+00,8.252e+00,8.334e+00,8.927e+00,8.413e+00,6.255e+00,7.982e+00,7.758e+00,7.607e+00,7.663e+00,8.387e+00,6.130e+00,8.971e+00,6.918e+00,9.624e+00,8.176e+00,7.933e+00,7.088e+00,7.758e+00,6.816e+00,6.619e+00,7.746e+00,8.661e+00,7.857e+00,8.323e+00,7.305e+00,9.170e+00,8.205e+00,8.018e+00,8.205e+00,5.531e+00,8.593e+00,5.906e+00,7.561e+00,6.750e+00,6.934e+00,8.942e+00,7.591e+00,7.392e+00,7.175e+00
5.175e-02,1.035e+00,6.033e-01,1.210e+00,1.490e+00,1.681e+00,1.282e+00,1.917e+00,2.248e+00,1.299e+00,4.003e+00,2.797e+00,3.490e+00,4.122e+00,4.705e+00,4.388e+00,5.125e+00,5.622e+00,4.399e+00,4.798e+00,5.944e+00,6.501e+00,5.327e+00,6.095e+00,7.545e+00,5.697e+00,7.307e+00,6.834e+00,7.353e+00,6.476e+00,9.684e+00,7.491e+00,7.096e+00,7.948e+00,8.074e+00,9.348e+00,8.165e+00,7.233e+00,6.076e+00,7.091e+00,7.069e+00,7.240e+00,6.547e+00,7.499e+00,6.546e+00,8.922e+00,6.338e+00,8.992e+00,7.710e+00,7.579e+00,6.794e+00,7.259e+00,6.710e+00,6.646e+00,7.928e+00,8.494e+00,7.520e+00,7.487e+00,7.371e+00,7.313e+00,6.871e+00,7.946e+00,7.985e+00,6.472e+00,7.784e+00,6.672e+00,6.167e+00,6.795e+00,7.230e+00,7.647e+00,6.921e+00,6.284e+00,7.296e+00
2.781e-02,8.054e-01,4.819e-01,1.414e+00,1.180e+00,1.235e+00,1.314e+00,2.103e+00,2.073e+00,1.419e+00,3.107e+00,2.241e+00,3.107e+00,3.328e+00,4.138e+00,3.609e+00,4.747e+00,4.466e+00,3.914e+00,5.120e+00,5.604e+00,5.818e+00,5.378e+00,5.991e+00,7.272e+00,5.677e+00,6.899e+00,6.299e+00,7.799e+00,7.380e+00,8.708e+00,7.220e+00,6.598e+00,6.833e+00,8.300e+00,8.112e+00,8.156e+00,7.889e+00,4.913e+00,6.962e+00,7.480e+00,7.275e+00,6.388e+00,7.982e+00,5.619e+00,8.178e+00,5.991e+00,8.827e+00,8.511e+00,6.998e+00,7.066e+00,6.877e+00,6.366e+00,6.942e+00,6.845e+00,8.578e+00,7.124e+00,6.869e+00,7.828e+00,7.496e+00,7.395e+00,7.064e+00,8.216e+00,5.322e+00,7.636e+00,6.602e+00,5.888e+00,6.843e+00,6.035e+00,7.944e+00,7.452e+00,7.251e+00,7.240e+00
3.182e-03,8.962e-01,5.315e-01,1.661e+00,1.241e+00,7.500e-01,1.575e+00,2.904e+00,2.526e+00,1.888e+00,3.973e+00,2.809e+00,3.991e+00,3.631e+00,4.918e+00,4.616e+00,4.804e+00,4.430e+00,4.281e+00,5.180e+00,6.531e+00,6.769e+00,6.074e+00,5.797e+00,7.158e+00,5.990e+00,7.824e+00,5.911e+00,7.736e+00,8.491e+00,9.152e+00,7.207e+00,7.101e+00,7.250e+00,9.360e+00,8.773e+00,9.420e+00,7.970e+00,6.554e+00,8.361e+00,7.794e+00,8.088e+00,6.709e+00,8.393e+00,7.682e+00,8.253e+00,6.535e+00,9.015e+00,7.096e+00,7.513e+00,7.734e+00,7.804e+00,7.011e+00,7.025e+00,6.487e+00,9.057e+00,8.675e+00,8.815e+00,7.212e+00,8.655e+00,8.277e+00,7.724e+00,9.127e+00,5.742e+00,7.750e+00,7.694e+00,7.854e+00,7.847e+00,7.454e+00,9.158e+00,7.642e+00,7.570e+00,7.977e+00
2.820e-02,1.215e+00,7.494e-01,1.705e+00,1.790e+00,1.456e+00,1.694e+00,2.860e+00,2.297e+00,1.731e+00,3.447e+00,3.013e+00,3.406e+00,3.059e+00,4.231e+00,3.966e+00,4.202e+00,4.882e+00,3.829e+00,4.845e+00,5.622e+00,6.122e+00,5.381e+00,5.383e+00,7.342e+00,5.662e+00,6.626e+00,7.059e+00,7.299e+00,7.735e+00,9.196e+00,7.396e+00,8.241e+00,8.194e+00,8.482e+00,8.738e+00,9.166e+00,8.459e+00,6.375e+00,8.450e+00,8.060e+00,8.350e+00,6.638e+00,8.825e+00,6.104e+00,8.621e+00,6.297e+00,9.775e+00,7.727e+00,7.914e+00,6.991e+00,7.373e+00,8.200e+00,7.701e+00,7.393e+00,9.545e+00,8.770e+00,8.873e+00,7.639e+00,8.243e+00,8.614e+00,7.808e+00,8.650e+00,6.913e+00,8.295e+00,8.556e+00,7.107e+00,7.127e+00,7.813e+00,8.812e+00,7.325e+00,7.908e+00,8.476e+00
3.032e-02,9.547e-01,5.388e-01,1.556e+00,1.707e+00,1.313e+00,1.431e+00,2.725e+00,2.308e+00,1.543e+00,4.265e+00,2.745e+00,3.952e+00,4.434e+00,4.763e+00,5.304e+00,5.080e+00,5.732e+00,4.361e+00,5.553e+00,5.748e+00,6.991e+00,6.833e+00,6.371e+00,7.281e+00,6.497e+00,7.534e+00,6.342e+00,7.810e+00,7.967e+00,1.116e+01,9.359e+00,8.237e+00,9.557e+00,1.070e+01,9.382e+00,9.924e+00,9.827e+00,7.715e+00,8.908e+00,1.006e+01,9.077e+00,8.504e+00,1.029e+01,7.425e+00,9.384e+00,8.623e+00,1.122e+01,9.652e+00,9.706e+00,9.847e+00,9.705e+00,9.921e+00,7.483e+00,9.360e+00,9.713e+00,9.205e+00,9.613e+00,9.488e+00,9.205e+00,1.149e+01,8.851e+00,9.595e+00,7.340e+00,1.025e+01,8.883e+00,9.527e+00,8.788e+00,8.989e+00,9.289e+00,8.674e+00,7.627e+00,1.017e+01
5.414e-03,5.426e-01,6.244e-01,7.989e-01,1.189e+00,3.934e-01,9.240e-01,1.651e+00,1.458e+00,8.197e-01,2.432e+00,1.591e+00,2.121e+00,2.911e+00,2.619e+00,3.143e+00,4.005e+00,3.511e+00,3.396e+00,4.349e+00,4.186e+00,5.097e+00,4.380e+00,4.730e+00,5.202e+00,4.945e+00,5.091e+00,4.862e+00,5.612e+00,5.298e+00,7.395e+00,6.555e+00,7.525e+00,6.011e+00,8.765e+00,6.412e+00,7.372e+00,7.011e+00,5.545e+00,6.929e+00,7.157e+00,6.271e+00,5.846e+00,8.292e+00,4.916e+00,7.560e+00,5.966e+00,8.658e+00,8.634e+00,6.629e+00,7.219e+00,6.211e+00,7.195e+00,5.637e+00,6.785e+00,8.244e+00,6.430e+00,6.262e+00,7.130e+00,6.351e+00,8.676e+00,6.388e+00,7.021e+00,6.402e+00,7.823e+00,6.399e+00,6.728e+00,6.644e+00,5.834e+00,6.447e+00,7.114e+00,7.033e+00,7.378e+00
4.804e-02,5.445e-01,6.844e-01,6.752e-01,1.820e+00,1.745e+00,1.066e+00,1.792e+00,1.833e+00,7.679e-01,3.341e+00,2.418e+00,3.314e+00,4.325e+00,4.233e+00,4.850e+00,5.651e+00,6.553e+00,4.740e+00,5.309e+00,4.685e+00,7.476e+00,6.344e+00,6.606e+00,7.001e+00,5.710e+00,6.514e+00,6.323e+00,6.602e+00,6.709e+00,9.975e+00,8.155e+00,7.949e+00,8.710e+00,9.805e+00,9.645e+00,7.362e+00,8.972e+00,6.976e+00,8.670e+00,7.696e+00,8.300e+00,7.627e+00,8.429e+00,5.764e+00,9.468e+00,7.804e+00,1.176e+01,7.305e+00,8.475e+00,8.844e+00,7.860e+00,8.592e+00,6.819e+00,7.762e+00,8.990e+00,8.726e+00,8.391e+00,7.899e+00,9.222e+00,8.274e+00,8.212e+00,7.625e+00,8.054e+00,7.990e+00,6.820e+00,6.410e+00,8.166e+00,7.576e+00,8.443e+00,8.145e+00,7.345e+00,8.621e+00
1.954e-02,2.165e-01,1.840e-01,8.538e-01,8.376e-01,9.219e-01,9.115e-01,1.817e+00,1.740e+00,9.634e-01,2.796e+00,1.552e+00,2.749e+00,2.604e+00,3.565e+00,3.344e+00,3.273e+00,3.299e+00,3.251e+00,3.729e+00,4.937e+00,5.149e+00,5.199e+00,4.726e+00,6.058e+00,5.360e+00,5.790e+00,6.067e+00,6.791e+00,6.816e+00,8.637e+00,7.308e+00,8.306e+00,9.164e+00,1.036e+01,9.050e+00,9.400e+00,8.840e+00,7.299e+00,8.551e+00,8.851e+00,9.357e+00,7.093e+00,1.004e+01,7.088e+00,8.871e+00,8.028e+00,1.019e+01,8.442e+00,9.289e+00,8.662e+00,8.731e+00,8.324e+00,7.331e+00,8.209e+00,9.472e+00,9.086e+00,9.293e+00,8.843e+00,8.241e+00,1.133e+01,8.161e+00,8.781e+00,8.025e+00,1.025e+01,9.845e+00,8.358e+00,8.828e+00,8.818e+00,9.159e+00,8.590e+00,7.698e+00,8.920e+00
1.866e-02,8.724e-01,3.798e-01,1.492e+00,7.625e-01,1.302e+00,1.356e+00,2.236e+00,3.281e+00,1.990e+00,4.578e+00,2.959e+00,4.126e+00,4.094e+00,4.391e+00,4.525e+00,5.119e+00,5.276e+00,4.974e+00,5.824e+00,6.291e+00,6.033e+00,6.228e+00,6.271e+00,7.032e+00,6.031e+00,7.188e+00,6.345e+00,8.426e+00,7.687e+00,1.032e+01,9.687e+00,8.708e+00,9.757e+00,1.187e+01,1.059e+01,1.135e+01,9.979e+00,8.274e+00,1.041e+01,9.305e+00,1.062e+01,8.248e+00,1.107e+01,8.752e+00,1.019e+01,8.168e+00,1.170e+01,1.083e+01,1.050e+01,9.867e+00,9.909e+00,9.920e+00,9.550e+00,9.716e+00,1.087e+01,1.006e+01,9.496e+00,9.988e+00,8.686e+00,1.246e+01,1.005e+01,1.133e+01,8.705e+00,1.189e+01,1.086e+01,1.101e+01,1.121e+01,8.731e+00,1.062e+01,1.015e+01,9.449e+00,1.008e+01
5.831e-02,1.488e+00,1.248e+00,1.933e+00,2.229e+00,2.120e+00,1.790e+00,3.098e+00,2.674e+00,1.820e+00,4.402e+00,3.464e+00,3.433e+00,3.386e+00,4.522e+00,5.377e+00,5.994e+00,5.674e+00,4.975e+00,5.337e+00,4.980e+00,6.265e+00,5.641e+00,5.795e+00,7.254e+00,5.723e+00,6.846e+00,7.456e+00,6.719e+00,7.046e+00,9.159e+00,7.681e+00,8.455e+00,9.243e+00,1.080e+01,9.830e+00,1.027e+01,9.506e+00,8.386e+00,8.946e+00,8.910e+00,9.103e+00,8.139e+00,1.044e+01,6.642e+00,1.038e+01,7.733e+00,1.197e+01,8.656e+00,8.805e+00,7.894e+00,8.507e+00,1.012e+01,9.378e+00,8.127e+00,1.029e+01,1.067e+01,1.031e+01,8.966e+00,9.664e+00,1.031e+01,9.344e+00,1.088e+01,8.212e+00,1.087e+01,8.434e+00,9.329e+00,7.755e+00,8.699e+00,9.151e+00,9.321e+00,9.258e+00,8.532e+00
5.248e-02,1.057e+00,1.051e+00,1.384e+00,1.935e+00,1.999e+00,1.760e+00,2.730e+00,3.007e+00,1.636e+00,4.017e+00,3.525e+00,3.883e+00,3.369e+00,3.988e+00,4.552e+00,5.231e+00,5.860e+00,5.261e+00,5.480e+00,5.948e+00,7.146e+00,6.131e+00,5.783e+00,7.308e+00,5.921e+00,7.580e+00,7.046e+00,8.134e+00,8.844e+00,1.072e+01,9.349e+00,9.951e+00,9.674e+00,1.120e+01,1.095e+01,1.132e+01,1.035e+01,9.252e+00,1.156e+01,9.817e+00,1.069e+01,8.717e+00,1.036e+01,8.289e+00,1.119e+01,9.513e+00,1.292e+01,1.184e+01,1.143e+01,9.855e+00,1.051e+01,1.067e+01,1.001e+01,1.022e+01,1.265e+01,1.174e+01,1.217e+01,9.280e+00,1.055e+01,1.221e+01,1.113e+01,1.214e+01,8.983e+00,1.194e+01,1.152e+01,1.027e+01,1.035e+01,1.019e+01,1.083e+01,1.103e+01,1.121e+01,1.089e+01
5.830e-02,9.025e-01,6.590e-01,7.990e-01,1.306e+00,1.422e+00,8.870e-01,1.244e+00,1.859e+00,7.464e-01,3.471e+00,2.054e+00,2.361e+00,3.827e+00,3.684e+00,4.385e+00,4.609e+00,5.696e+00,4.410e+00,4.778e+00,5.213e+00,7.287e+00,5.629e+00,6.181e+00,7.901e+00,6.510e+00,7.495e+00,6.856e+00,7.462e+00,7.421e+00,1.171e+01,8.679e+00,9.664e+00,9.600e+00,1.116e+01,1.136e+01,1.156e+01,1.037e+01,1.010e+01,1.112e+01,1.100e+01,1.098e+01,9.205e+00,1.202e+01,9.164e+00,1.144e+01,1.118e+01,1.467e+01,1.233e+01,1.200e+01,1.164e+01,1.079e+01,1.154e+01,1.032e+01,1.018e+01,1.240e+01,1.102e+01,1.376e+01,1.112e+01,1.175e+01,1.352e+01,1.162e+01,1.202e+01,1.064e+01,1.371e+01,1.096e+01,1.074e+01,1.007e+01,1.091e+01,1.170e+01,1.103e+01,1.040e+01,1.156e+01
6.634e-03,4.915e-01,5.644e-01,8.064e-01,1.140e+00,1.013e+00,9.932e-01,1.959e+00,2.528e+00,1.237e+00,3.233e+00,2.221e+00,2.710e+00,3.144e+00,3.580e+00,3.894e+00,5.518e+00,4.778e+00,5.051e+00,5.770e+00,5.322e+00,6.756e+00,6.038e+00,6.252e+00,7.237e+00,6.057e+00,6.617e+00,7.499e+00,7.958e+00,7.583e+00,9.062e+00,9.052e+00,8.608e+00,9.574e+00,1.112e+01,1.080e+01,1.098e+01,1.008e+01,8.555e+00,1.127e+01,1.121e+01,1.139e+01,9.862e+00,1.209e+01,7.809e+00,1.172e+01,9.651e+00,1.346e+01,1.210e+01,9.985e+00,1.040e+01,1.067e+01,1.133e+01,1.022e+01,9.626e+00,1.158e+01,1.193e+01,1.124e+01,1.080e+01,1.123e+01,1.260e+01,1.033e+01,1.219e+01,9.219e+00,1.370e+01,1.081e+01,1.087e+01,1.027e+01,9.815e+00,1.085e+01,1.077e+01,1.038e+01,1.131e+01
4.608e-03,2.840e-01,4.070e-01,4.634e-01,1.072e+00,8.275e-01,7.717e-01,1.430e+00,1.588e+00,8.315e-01,2.704e+00,1.994e+00,3.124e+00,4.085e+00,3.847e+00,3.919e+00,5.344e+00,4.875e+00,4.478e+00,4.802e+00,5.566e+00,7.267e+00,5.332e+00,6.279e+00,7.150e+00,5.592e+00,7.061e+00,6.591e+00,8.057e+00,7.989e+00,1.034e+01,8.166e+00,8.315e+00,8.582e+00,1.058e+01,1.023e+01,1.043e+01,8.883e+00,9.353e+00,1.105e+01,1.087e+01,1.016e+01,9.999e+00,1.126e+01,9.041e+00,1.195e+01,9.799e+00,1.315e+01,1.219e+01,1.026e+01,1.026e+01,1.036e+01,1.045e+01,1.013e+01,1.033e+01,1.162e+01,1.190e+01,1.171e+01,9.721e+00,1.182e+01,1.205e+01,1.172e+01,1.230e+01,9.167e+00,1.227e+01,9.435e+00,1.124e+01,9.660e+00,1.001e+01,1.041e+01,1.041e+01,1.056e+01,1.079e+01
3.340e-02,1.084e+00,8.945e-01,1.218e+00,1.742e+00,9.240e-01,1.421e+00,2.103e+00,2.060e+00,1.111e+00,3.014e+00,2.481e+00,2.807e+00,3.330e+00,3.076e+00,3.956e+00,4.190e+00,5.386e+00,5.074e+00,4.423e+00,4.892e+00,6.045e+00,4.690e+00,4.660e+00,6.347e+00,5.004e+00,7.269e+00,6.025e+00,6.976e+00,7.664e+00,1.030e+01,9.007e+00,7.526e+00,9.153e+00,9.604e+00,8.893e+00,9.672e+00,9.156e+00,7.851e+00,9.689e+00,1.065e+01,1.113e+01,1.018e+01,1.041e+01,8.387e+00,1.073e+01,9.760e+00,1.161e+01,1.158e+01,1.054e+01,9.524e+00,1.100e+01,1.065e+01,9.618e+00,1.031e+01,1.220e+01,1.158e+01,1.192e+01,1.034e+01,1.057e+01,1.162e+01,1.085e+01,1.196e+01,8.535e+00,1.313e+01,1.008e+01,1.059e+01,1.015e+01,1.070e+01,1.045e+01,9.723e+00,1.015e+01,1.053e+01
2.217e-02,5.184e-01,8.137e-01,8.657e-01,1.522e+00,6.783e-01,1.192e+00,2.085e+00,2.029e+00,8.092e-01,2.512e+00,1.775e+00,2.371e+00,2.861e+00,2.830e+00,3.400e+00,3.399e+00,4.132e+00,3.985e+00,4.085e+00,4.082e+00,4.328e+00,4.110e+00,4.331e+00,4.942e+00,4.533e+00,5.117e+00,4.807e+00,6.131e+00,6.022e+00,8.211e+00,7.281e+00,6.929e+00,7.627e+00,8.871e+00,7.282e+00,7.823e+00,7.790e+00,7.082e+00,8.837e+00,8.510e+00,8.248e+00,9.198e+00,8.942e+00,7.346e+00,8.381e+00,8.581e+00,1.059e+01,9.961e+00,8.218e+00,8.811e+00,8.617e+00,9.123e+00,8.480e+00,8.428e+00,1.023e+01,9.225e+00,1.011e+01,8.908e+00,9.440e+00,1.093e+01,1.023e+01,9.622e+00,8.064e+00,1.078e+01,8.710e+00,9.274e+00,9.172e+00,8.525e+00,9.263e+00,8.999e+00,9.521e+00,8.670e+00
3.514e-02,1.261e+00,6.250e-01,1.340e+00,1.436e+00,1.446e+00,1.242e+00,1.790e+00,1.370e+00,1.227e+00,2.763e+00,2.390e+00,2.427e+00,3.150e+00,3.432e+00,3.837e+00,4.007e+00,5.130e+00,4.409e+00,4.557e+00,4.721e+00,6.578e+00,4.835e+00,5.417e+00,6.396e+00,5.184e+00,6.451e+00,6.063e+00,6.084e+00,7.537e+00,8.339e+00,7.271e+00,6.786e+00,8.077e+00,8.443e+00,9.491e+00,9.862e+00,9.997e+00,8.027e+00,9.635e+00,9.319e+00,8.630e+00,8.048e+00,9.907e+00,7.969e+00,1.017e+01,8.773e+00,1.211e+01,9.103e+00,1.084e+01,9.464e+00,8.837e+00,1.024e+01,1.021e+01,9.644e+00,1.041e+01,1.107e+01,1.191e+01,9.065e+00,1.003e+01,1.115e+01,9.389e+00,1.008e+01,7.931e+00,1.085e+01,9.924e+00,9.742e+00,9.351e+00,9.319e+00,9.836e+00,9.363e+00,8.604e+00,9.954e+00
2.523e-03,1.598e-01,1.474e-01,3.737e-01,7.342e-01,1.086e+00,8.806e-01,1.383e+00,2.469e+00,1.033e+00,2.819e+00,2.063e+00,3.024e+00,3.281e+00,3.222e+00,3.064e+00,4.450e+00,4.188e+00,4.257e+00,4.460e+00,4.693e+00,4.857e+00,4.066e+00,5.060e+00,6.021e+00,4.660e+00,6.091e+00,6.289e+00,6.573e+00,6.903e+00,8.769e+00,8.170e+00,7.553e+00,7.740e+00,9.474e+00,9.402e+00,9.055e+00,8.100e+00,8.557e+00,1.010e+01,9.055e+00,1.009e+01,7.860e+00,1.064e+01,7.560e+00,1.107e+01,9.971e+00,1.156e+01,1.222e+01,1.044e+01,1.080e+01,9.945e+00,1.065e+01,9.767e+00,9.538e+00,1.079e+01,1.054e+01,1.116e+01,1.023e+01,1.023e+01,1.230e+01,1.096e+01,1.177e+01,9.115e+00,1.228e+01,1.003e+01,1.054e+01,9.853e+00,9.570e+00,9.654e+00,9.960e+00,1.037e+01,9.917e+00
1.433e-02,9.804e-01,5.358e-01,1.027e+00,1.809e+00,1.240e+00,1.252e+00,2.197e+00,2.068e+00,1.179e+00,3.153e+00,2.465e+00,2.650e+00,3.430e+00,3.488e+00,3.196e+00,3.903e+00,4.476e+00,3.187e+00,3.934e+00,4.161e+00,4.131e+00,3.211e+00,4.658e+00,5.948e+00,3.557e+00,4.927e+00,5.599e+00,5.710e+00,5.590e+00,8.034e+00,6.742e+00,6.564e+00,7.336e+00,7.538e+00,7.974e+00,7.502e+00,7.009e+00,6.096e+00,7.747e+00,8.888e+00,8.929e+00,7.731e+00,1.035e+01,6.967e+00,9.973e+00,8.680e+00,1.107e+01,1.013e+01,9.005e+00,7.946e+00,8.302e+00,1.157e+01,8.768e+00,8.635e+00,1.070e+01,1.023e+01,1.062e+01,9.431e+00,9.943e+00,1.083e+01,1.007e+01,1.079e+01,8.713e+00,1.108e+01,9.249e+00,1.029e+01,9.305e+00,1.063e+01,9.031e+00,8.587e+00,9.344e+00,1.045e+01
4.454e-02,8.686e-01,8.081e-01,1.510e+00,1.756e+00,1.152e+00,1.712e+00,2.591e+00,2.519e+00,1.324e+00,3.566e+00,2.483e+00,3.515e+00,3.877e+00,4.367e+00,4.155e+00,4.913e+00,5.000e+00,3.642e+00,4.267e+00,4.863e+00,6.192e+00,4.944e+00,5.066e+00,6.914e+00,5.629e+00,6.393e+00,6.954e+00,7.682e+00,7.373e+00,9.964e+00,8.733e+00,9.124e+00,9.672e+00,1.033e+01,9.326e+00,1.078e+01,9.018e+00,8.130e+00,1.027e+01,1.110e+01,1.059e+01,9.623e+00,1.193e+01,9.142e+00,1.166e+01,1.122e+01,1.346e+01,1.508e+01,1.211e+01,1.184e+01,1.154e+01,1.205e+01,1.232e+01,1.159e+01,1.439e+01,1.239e+01,1.373e+01,1.293e+01,1.257e+01,1.477e+01,1.272e+01,1.520e+01,1.034e+01,1.498e+01,1.309e+01,1.274e+01,1.071e+01,1.236e+01,1.246e+01,1.201e+01,1.191e+01,1.196e+01
1.942e-03,5.013e-01,4.055e-01,8.163e-01,1.231e+00,6.357e-01,1.156e+00,1.987e+00,2.152e+00,1.072e+00,2.614e+00,1.931e+00,2.399e+00,2.222e+00,2.986e+00,2.858e+00,3.803e+00,3.745e+00,4.063e+00,4.835e+00,4.553e+00,4.895e+00,4.683e+00,4.864e+00,5.762e+00,4.806e+00,6.164e+00,6.110e+00,6.722e+00,6.833e+00,8.141e+00,7.461e+00,6.298e+00,7.556e+00,9.147e+00,8.186e+00,9.033e+00,8.002e+00,7.300e+00,9.447e+00,9.382e+00,1.046e+01,1.008e+01,1.129e+01,7.707e+00,1.116e+01,1.066e+01,1.324e+01,1.361e+01,1.046e+01,1.130e+01,1.140e+01,1.258e+01,1.140e+01,9.767e+00,1.384e+01,1.278e+01,1.355e+01,1.223e+01,1.236e+01,1.386e+01,1.155e+01,1.385e+01,9.831e+00,1.485e+01,1.069e+01,1.235e+01,1.104e+01,1.078e+01,1.075e+01,1.170e+01,1.151e+01,1.082e+01
2.976e-02,9.128e-01,7.754e-01,1.457e+00,1.876e+00,1.243e+00,1.764e+00,3.002e+00,2.682e+00,1.596e+00,3.793e+00,3.052e+00,3.714e+00,3.190e+00,4.007e+00,4.117e+00,4.772e+00,4.687e+00,4.212e+00,5.452e+00,5.250e+00,5.693e+00,5.917e+00,5.233e+00,6.484e+00,5.648e+00,6.476e+00,7.022e+00,7.547e+00,7.202e+00,9.352e+00,8.734e+00,9.163e+00,9.668e+00,1.166e+01,9.518e+00,1.088e+01,8.965e+00,8.730e+00,1.073e+01,1.029e+01,1.079e+01,9.732e+00,1.248e+01,9.321e+00,1.105e+01,9.866e+00,1.333e+01,1.365e+01,1.150e+01,1.181e+01,1.182e+01,1.244e+01,1.173e+01,9.758e+00,1.403e+01,1.360e+01,1.285e+01,1.273e+01,1.226e+01,1.391e+01,1.206e+01,1.381e+01,1.086e+01,1.480e+01,1.127e+01,1.192e+01,1.063e+01,1.063e+01,1.083e+01,1.271e+01,1.117e+01,1.168e+01
3.483e-02,4.808e-01,3.250e-01,8.220e-01,8.026e-01,1.689e+00,7.664e-01,1.497e+00,2.016e+00,1.182e+00,2.696e+00,2.236e+00,2.839e+00,2.488e+00,2.891e+00,3.484e+00,3.570e+00,4.906e+00,3.787e+00,4.756e+00,4.443e+00,5.103e+00,5.015e+00,4.679e+00,6.404e+00,5.461e+00,5.810e+00,5.595e+00,6.240e+00,6.188e+00,8.714e+00,7.627e+00,7.841e+00,8.829e+00,8.967e+00,9.171e+00,8.326e+00,9.017e+00,7.638e+00,9.991e+00,8.319e+00,1.030e+01,7.896e+00,1.071e+01,8.082e+00,9.907e+00,9.694e+00,1.278e+01,1.280e+01,1.268e+01,1.108e+01,1.221e+01,1.205e+01,1.074e+01,1.088e+01,1.393e+01,1.282e+01,1.312e+01,1.125e+01,1.212e+01,1.257e+01,1.183e+01,1.245e+01,1.093e+01,1.432e+01,1.116e+01,1.119e+01,1.101e+01,1.198e+01,1.208e+01,1.289e+01,1.162e+01,1.179e+01
2.499e-02,4.694e-01,4.341e-01,7.159e-01,1.305e+00,7.824e-01,8.310e-01,1.511e+00,9.445e-01,4.990e-01,2.030e+00,1.281e+00,1.994e+00,2.879e+00,2.856e+00,2.936e+00,2.684e+00,3.397e+00,2.406e+00,2.343e+00,4.205e+00,4.760e+00,3.495e+00,3.854e+00,5.282e+00,4.286e+00,4.567e+00,4.120e+00,5.541e+00,5.414e+00,7.860e+00,5.148e+00,7.306e+00,7.199e+00,8.374e+00,7.536e+00,6.753e+00,7.874e+00,6.465e+00,7.759e+00,7.175e+00,7.920e+00,6.384e+00,9.475e+00,7.380e+00,9.764e+00,9.152e+00,1.149e+01,1.089e+01,1.151e+01,1.222e+01,1.062e+01,1.227e+01,9.961e+00,9.943e+00,1.284e+01,1.192e+01,1.290e+01,1.144e+01,1.171e+01,1.229e+01,9.752e+00,1.108e+01,9.948e+00,1.295e+01,1.105e+01,9.983e+00,1.005e+01,1.149e+01,1.099e+01,1.110e+01,1.009e+01,1.145e+01
2.799e-02,9.417e-01,5.522e-01,1.592e+00,1.751e+00,1.319e+00,1.453e+00,2.579e+00,2.210e+00,1.380e+00,3.006e+00,2.200e+00,2.863e+00,3.166e+00,3.265e+00,3.278e+00,3.666e+00,4.327e+00,3.058e+00,4.035e+00,3.430e+00,4.527e+00,4.829e+00,4.273e+00,6.310e+00,4.308e+00,5.590e+00,5.824e+00,6.538e+00,6.888e+00,8.433e+00,7.409e+00,6.469e+00,7.825e+00,9.292e+00,8.846e+00,9.097e+00,9.078e+00,8.141e+00,9.144e+00,9.753e+00,8.830e+00,8.643e+00,1.102e+01,8.288e+00,1.123e+01,1.030e+01,1.277e+01,1.256e+01,1.146e+01,1.124e+01,1.051e+01,1.227e+01,1.127e+01,1.063e+01,1.305e+01,1.269e+01,1.377e+01,1.176e+01,1.252e+01,1.417e+01,1.188e+01,1.364e+01,1.010e+01,1.310e+01,1.144e+01,1.264e+01,9.681e+00,1.120e+01,1.096e+01,1.134e+01,1.134e+01,1.178e+01
4.457e-02,1.440e+00,8.185e-01,2.002e+00,1.553e+00,1.663e+00,1.634e+00,2.472e+00,2.383e+00,1.867e+00,3.526e+00,2.999e+00,3.392e+00,3.489e+00,3.937e+00,3.860e+00,4.888e+00,5.402e+00,4.151e+00,5.337e+00,4.725e+00,7.129e+00,6.347e+00,5.535e+00,7.519e+00,6.470e+00,6.781e+00,7.493e+00,7.488e+00,8.255e+00,1.038e+01,8.987e+00,9.126e+00,9.381e+00,1.099e+01,1.022e+01,1.082e+01,1.122e+01,8.040e+00,1.041e+01,1.201e+01,1.108e+01,9.805e+00,1.168e+01,8.779e+00,1.250e+01,1.146e+01,1.524e+01,1.377e+01,1.293e+01,1.305e+01,1.380e+01,1.477e+01,1.505e+01,1.383e+01,1.603e+01,1.650e+01,1.525e+01,1.385e+01,1.571e+01,1.566e+01,1.426e+01,1.678e+01,1.195e+01,1.663e+01,1.460e+01,1.574e+01,1.379e+01,1.374e+01,1.491e+01,1.482e+01,1.371e+01,1.570e+01
3.603e-02,6.131e-01,6.399e-01,1.063e+00,1.155e+00,1.446e+00,9.779e-01,1.874e+00,2.037e+00,1.222e+00,3.423e+00,2.341e+00,3.257e+00,3.584e+00,4.424e+00,4.807e+00,5.403e+00,5.534e+00,4.664e+00,5.126e+00,6.039e+00,7.160e+00,5.620e+00,6.333e+00,7.653e+00,6.629e+00,7.354e+00,6.792e+00,7.980e+00,7.462e+00,9.946e+00,8.475e+00,9.351e+00,9.810e+00,1.098e+01,1.029e+01,1.077e+01,1.036e+01,8.860e+00,1.054e+01,1.059e+01,1.155e+01,9.899e+00,1.339e+01,1.075e+01,1.326e+01,1.241e+01,1.581e+01,1.583e+01,1.427e+01,1.320e+01,1.418e+01,1.583e+01,1.551e+01,1.447e+01,1.820e+01,1.555e+01,1.670e+01,1.463e+01,1.446e+01,1.741e+01,1.497e+01,1.770e+01,1.203e+01,1.890e+01,1.448e+01,1.702e+01,1.435e+01,1.569e+01,1.472e+01,1.626e+01,1.499e+01,1.469e+01
7.117e-03,3.042e-01,3.860e-01,1.075e+00,1.004e+00,1.026e+00,1.256e+00,2.234e+00,2.234e+00,1.453e+00,2.920e+00,2.402e+00,3.836e+00,2.992e+00,4.065e+00,3.894e+00,4.619e+00,4.704e+00,3.832e+00,4.387e+00,5.401e+00,5.967e+00,5.353e+00,5.042e+00,7.215e+00,5.360e+00,6.295e+00,7.228e+00,7.044e+00,7.461e+00,9.706e+00,8.440e+00,9.206e+00,9.075e+00,1.119e+01,9.984e+00,9.833e+00,9.494e+00,8.198e+00,1.045e+01,8.960e+00,1.150e+01,8.400e+00,1.192e+01,9.489e+00,1.237e+01,1.026e+01,1.308e+01,1.281e+01,1.185e+01,1.214e+01,1.261e+01,1.377e+01,1.414e+01,1.279e+01,1.769e+01,1.617e+01,1.589e+01,1.329e+01,1.385e+01,1.615e+01,1.394e+01,1.583e+01,1.291e+01,1.572e+01,1.451e+01,1.514e+01,1.420e+01,1.290e+01,1.302e+01,1.339e+01,1.361e+01,1.420e+01
5.138e-02,1.395e+00,8.220e-01,1.485e+00,2.209e+00,1.411e+00,1.475e+00,2.641e+00,2.211e+00,1.313e+00,4.101e+00,2.977e+00,3.137e+00,3.797e+00,4.180e+00,4.130e+00,4.356e+00,4.893e+00,3.751e+00,4.763e+00,4.830e+00,5.748e+00,5.483e+00,4.967e+00,5.974e+00,5.464e+00,6.141e+00,4.814e+00,6.558e+00,5.962e+00,8.604e+00,6.796e+00,7.291e+00,7.935e+00,9.006e+00,8.716e+00,8.346e+00,8.478e+00,7.499e+00,8.393e+00,9.545e+00,8.666e+00,9.301e+00,1.104e+01,9.172e+00,1.063e+01,1.010e+01,1.296e+01,1.355e+01,1.238e+01,1.140e+01,1.261e+01,1.236e+01,1.274e+01,1.201e+01,1.659e+01,1.447e+01,1.432e+01,1.244e+01,1.393e+01,1.439e+01,1.461e+01,1.475e+01,1.228e+01,1.470e+01,1.204e+01,1.437e+01,1.199e+01,1.232e+01,1.181e+01,1.255e+01,1.240e+01,1.251e+01
3.692e-04,8.768e-01,5.744e-01,1.140e+00,1.360e+00,5.639e-01,1.188e+00,2.251e+00,1.752e+00,1.373e+00,3.032e+00,2.489e+00,2.998e+00,2.922e+00,3.986e+00,3.458e+00,4.160e+00,4.155e+00,3.527e+00,4.980e+00,5.105e+00,6.008e+00,5.167e+00,5.041e+00,6.374e+00,5.716e+00,6.285e+00,6.155e+00,6.223e+00,6.662e+00,8.234e+00,6.918e+00,7.447e+00,7.934e+00,9.053e+00,9.659e+00,8.969e+00,9.232e+00,7.414e+00,8.746e+00,9.814e+00,9.922e+00,8.529e+00,1.118e+01,8.721e+00,1.062e+01,9.253e+00,1.219e+01,1.273e+01,1.232e+01,1.096e+01,1.303e+01,1.272e+01,1.361e+01,1.280e+01,1.652e+01,1.525e+01,1.451e+01,1.253e+01,1.446e+01,1.398e+01,1.312e+01,1.424e+01,1.256e+01,1.511e+01,1.499e+01,1.410e+01,1.342e+01,1.231e+01,1.209e+01,1.335e+01,1.329e+01,1.442e+01
2.572e-02,1.090e+00,6.842e-01,1.226e+00,2.008e+00,1.186e+00,1.358e+00,2.654e+00,2.469e+00,1.330e+00,3.883e+00,2.756e+00,2.953e+00,3.752e+00,4.337e+00,4.227e+00,4.969e+00,5.209e+00,3.926e+00,5.544e+00,5.073e+00,6.028e+00,5.904e+00,6.031e+00,7.552e+00,5.591e+00,6.500e+00,6.416e+00,6.962e+00,6.453e+00,8.437e+00,7.901e+00,7.813e+00,9.175e+00,1.064e+01,1.025e+01,9.780e+00,9.213e+00,8.962e+00,1.036e+01,1.161e+01,1.050e+01,1.056e+01,1.321e+01,9.575e+00,1.244e+01,1.149e+01,1.438e+01,1.477e+01,1.250e+01,1.305e+01,1.363e+01,1.492e+01,1.403e+01,1.256e+01,1.662e+01,1.543e+01,1.600e+01,1.465e+01,1.583e+01,1.628e+01,1.586e+01,1.785e+01,1.314e+01,1.766e+01,1.349e+01,1.646e+01,1.348e+01,1.495e+01,1.353e+01,1.531e+01,1.318e+01,1.462e+01
3.671e-02,5.238e-01,5.834e-01,8.159e-01,9.555e-01,1.158e+00,9.192e-01,1.415e+00,1.793e+00,9.606e-01,2.491e+00,2.121e+00,2.980e+00,3.044e+00,2.774e+00,3.402e+00,3.491e+00,4.482e+00,3.248e+00,3.074e+00,3.637e+00,4.566e+00,3.759e+00,3.584e+00,5.522e+00,4.064e+00,5.012e+00,5.211e+00,5.229e+00,5.845e+00,8.514e+00,7.877e+00,7.902e+00,9.045e+00,9.689e+00,8.768e+00,8.459e+00,8.487e+00,7.869e+00,8.875e+00,9.929e+00,1.046e+01,8.416e+00,1.123e+01,8.966e+00,1.021e+01,9.680e+00,1.209e+01,1.311e+01,1.213e+01,9.882e+00,1.129e+01,1.245e+01,1.131e+01,1.184e+01,1.402e+01,1.273e+01,1.335e+01,1.266e+01,1.358e+01,1.484e+01,1.381e+01,1.470e+01,1.072e+01,1.466e+01,1.413e+01,1.400e+01,1.222e+01,1.192e+01,1.239e+01,1.347e+01,1.314e+01,1.347e+01
4.837e-02,1.463e+00,7.730e-01,1.193e+00,1.959e+00,1.287e+00,1.353e+00,2.057e+00,2.189e+00,1.146e+00,4.164e+00,2.838e+00,2.710e+00,4.169e+00,4.166e+00,4.169e+00,4.778e+00,5.357e+00,4.412e+00,5.422e+00,5.410e+00,6.676e+00,4.938e+00,5.851e+00,6.343e+00,5.930e+00,7.178e+00,5.460e+00,7.063e+00,6.485e+00,9.729e+00,8.031e+00,8.076e+00,8.331e+00,9.241e+00,1.000e+01,9.829e+00,8.221e+00,7.385e+00,9.356e+00,1.047e+01,8.851e+00,9.548e+00,1.129e+01,9.178e+00,1.032e+01,1.027e+01,1.318e+01,1.297e+01,1.277e+01,1.130e+01,1.223e+01,1.269e+01,1.206e+01,1.253e+01,1.498e+01,1.370e+01,1.473e+01,1.268e+01,1.528e+01,1.502e+01,1.454e+01,1.455e+01,1.330e+01,1.706e+01,1.462e+01,1.617e+01,1.325e+01,1.321e+01,1.422e+01,1.587e+01,1.318e+01,1.462e+01
2.269e-02,5.865e-01,6.007e-01,8.037e-01,1.293e+00,9.636e-01,1.155e+00,1.912e+00,2.309e+00,1.056e+00,2.873e+00,2.238e+00,2.790e+00,2.915e+00,3.506e+00,3.481e+00,4.060e+00,4.759e+00,4.316e+00,5.009e+00,4.979e+00,5.593e+00,4.802e+00,5.458e+00,6.481e+00,5.038e+00,6.274e+00,5.947e+00,6.650e+00,6.924e+00,7.413e+00,7.258e+00,6.670e+00,7.919e+00,8.684e+00,7.761e+00,8.899e+00,7.771e+00,6.593e+00,8.191e+00,9.583e+00,9.747e+00,9.212e+00,1.122e+01,8.079e+00,1.031e+01,9.206e+00,1.187e+01,1.227e+01,1.173e+01,9.506e+00,1.113e+01,1.175e+01,1.237e+01,1.123e+01,1.544e+01,1.326e+01,1.376e+01,1.241e+01,1.391e+01,1.391e+01,1.406e+01,1.481e+01,1.168e+01,1.641e+01,1.298e+01,1.423e+01,1.304e+01,1.209e+01,1.276e+01,1.372e+01,1.286e+01,1.340e+01
8.284e-03,6.867e-01,3.215e-01,5.944e-01,1.449e+00,7.053e-01,8.735e-01,1.773e+00,1.596e+00,8.336e-01,3.023e+00,2.041e+00,2.422e+00,3.214e+00,3.387e+00,3.128e+00,3.275e+00,4.141e+00,3.149e+00,4.559e+00,4.473e+00,5.431e+00,5.017e+00,5.131e+00,5.704e+00,4.635e+00,5.484e+00,4.967e+00,6.356e+00,6.592e+00,9.024e+00,7.578e+00,7.390e+00,8.427e+00,9.012e+00,9.140e+00,8.622e+00,9.093e+00,7.725e+00,9.129e+00,9.746e+00,9.848e+00,9.161e+00,1.199e+01,9.004e+00,1.043e+01,1.039e+01,1.311e+01,1.212e+01,1.221e+01,1.192e+01,1.152e+01,1.365e+01,1.126e+01,1.219e+01,1.485e+01,1.389e+01,1.454e+01,1.250e+01,1.511e+01,1.555e+01,1.430e+01,1.463e+01,1.493e+01,1.686e+01,1.648e+01,1.517e+01,1.388e+01,1.501e+01,1.461e+01,1.543e+01,1.284e+01,1.661e+01
4.261e-02,1.354e+00,9.531e-01,1.455e+00,1.610e+00,1.027e+00,1.561e+00,2.244e+00,2.294e+00,1.419e+00,4.173e+00,2.903e+00,3.097e+00,3.659e+00,3.708e+00,4.194e+00,4.700e+00,4.285e+00,4.624e+00,4.548e+00,5.512e+00,5.792e+00,4.944e+00,5.017e+00,5.190e+00,4.750e+00,6.646e+00,4.692e+00,6.612e+00,6.671e+00,9.570e+00,7.379e+00,8.041e+00,7.634e+00,1.045e+01,9.368e+00,9.609e+00,8.027e+00,7.645e+00,9.329e+00,9.691e+00,8.943e+00,8.917e+00,1.049e+01,9.425e+00,1.036e+01,8.600e+00,1.248e+01,1.251e+01,1.133e+01,1.137e+01,1.074e+01,1.200e+01,1.178e+01,1.164e+01,1.598e+01,1.396e+01,1.395e+01,1.145e+01,1.352e+01,1.625e+01,1.415e+01,1.660e+01,1.291e+01,1.665e+01,1.505e+01,1.680e+01,1.430e+01,1.452e+01,1.451e+01,1.528e+01,1.370e+01,1.527e+01
4.012e-02,1.060e+00,5.713e-01,9.126e-01,1.178e+00,8.088e-01,1.228e+00,1.617e+00,2.159e+00,1.009e+00,3.300e+00,2.265e+00,2.151e+00,2.937e+00,3.390e+00,3.031e+00,3.792e+00,3.576e+00,3.494e+00,4.170e+00,4.948e+00,5.103e+00,4.225e+00,4.717e+00,6.066e+00,4.174e+00,6.272e+00,4.914e+00,5.818e+00,6.224e+00,8.180e+00,7.267e+00,8.016e+00,7.879e+00,9.157e+00,9.300e+00,9.123e+00,7.683e+00,6.807e+00,8.468e+00,9.929e+00,8.663e+00,7.641e+00,1.095e+01,8.820e+00,1.005e+01,9.997e+00,1.224e+01,1.339e+01,1.252e+01,1.171e+01,1.133e+01,1.256e+01,1.164e+01,1.036e+01,1.532e+01,1.314e+01,1.521e+01,1.238e+01,1.450e+01,1.472e+01,1.487e+01,1.581e+01,1.312e+01,1.639e+01,1.615e+01,1.510e+01,1.420e+01,1.482e+01,1.453e+01,1.529e+01,1.359e+01,1.600e+01
4.809e-02,8.522e-01,6.206e-01,8.616e-01,1.155e+00,1.566e+00,1.120e+00,1.639e+00,2.529e+00,1.279e+00,4.032e+00,2.880e+00,3.222e+00,3.100e+00,3.902e+00,4.124e+00,4.862e+00,5.354e+00,4.866e+00,5.623e+00,5.213e+00,6.089e+00,6.236e+00,6.099e+00,6.588e+00,4.913e+00,6.712e+00,6.263e+00,6.645e+00,6.953e+00,9.666e+00,9.305e+00,9.182e+00,9.626e+00,1.110e+01,1.041e+01,1.009e+01,1.057e+01,9.107e+00,1.005e+01,1.096e+01,1.206e+01,1.055e+01,1.389e+01,1.079e+01,1.345e+01,1.198e+01,1.599e+01,1.589e+01,1.498e+01,1.358e+01,1.380e+01,1.570e+01,1.484e+01,1.320e+01,1.799e+01,1.603e+01,1.684e+01,1.540e+01,1.574e+01,1.806e+01,1.691e+01,1.825e+01,1.643e+01,2.076e+01,1.792e+01,1.891e+01,1.721e+01,1.654e+01,1.590e+01,1.947e+01,1.710e+01,1.779e+01
2.872e-02,5.973e-01,4.443e-01,8.284e-01,1.054e+00,9.312e-01,1.028e+00,1.452e+00,2.043e+00,9.459e-01,3.067e+00,1.937e+00,2.810e+00,3.907e+00,3.990e+00,4.028e+00,5.275e+00,5.426e+00,4.456e+00,4.669e+00,5.081e+00,6.881e+00,5.641e+00,6.148e+00,7.393e+00,5.431e+00,6.676e+00,6.760e+00,7.470e+00,6.576e+00,9.111e+00,9.301e+00,8.685e+00,9.954e+00,1.073e+01,1.014e+01,1.049e+01,9.427e+00,8.129e+00,1.021e+01,1.094e+01,1.132e+01,1.000e+01,1.236e+01,1.015e+01,1.270e+01,1.156e+01,1.422e+01,1.397e+01,1.299e+01,1.440e+01,1.411e+01,1.361e+01,1.523e+01,1.350e+01,1.778e+01,1.501e+01,1.613e+01,1.525e+01,1.616e+01,1.804e+01,1.603e+01,1.860e+01,1.494e+01,1.990e+01,1.823e+01,1.863e+01,1.625e+01,1.675e+01,1.754e+01,1.857e+01,1.529e+01,1.605e+01
3.816e-02,1.232e+00,8.065e-01,1.105e+00,1.677e+00,1.298e+00,1.174e+00,2.006e+00,1.842e+00,1.176e+00,3.502e+00,2.676e+00,2.384e+00,2.843e+00,3.818e+00,3.532e+00,4.273e+00,4.032e+00,3.951e+00,4.849e+00,4.774e+00,5.299e+00,4.787e+00,5.579e+00,5.867e+00,4.337e+00,6.131e+00,5.747e+00,6.263e+00,6.370e+00,8.259e+00,6.902e+00,7.064e+00,7.799e+00,8.569e+00,8.706e+00,8.972e+00,7.412e+00,7.110e+00,8.056e+00,9.304e+00,8.616e+00,9.070e+00,1.080e+01,7.827e+00,9.823e+00,8.695e+00,1.299e+01,1.158e+01,1.024e+01,9.654e+00,1.008e+01,1.224e+01,1.163e+01,1.140e+01,1.490e+01,1.419e+01,1.343e+01,1.123e+01,1.369e+01,1.421e+01,1.315e+01,1.571e+01,1.294e+01,1.701e+01,1.468e+01,1.866e+01,1.397e+01,1.499e+01,1.478e+01,1.627e+01,1.552e+01,1.710e+01
1.839e-02,8.721e-01,7.758e-01,1.698e+00,2.109e+00,1.116e+00,1.580e+00,3.224e+00,1.980e+00,1.398e+00,3.464e+00,2.255e+00,3.331e+00,4.082e+00,4.901e+00,5.049e+00,4.777e+00,5.376e+00,3.817e+00,4.932e+00,5.637e+00,6.267e+00,5.436e+00,6.050e+00,7.344e+00,6.712e+00,6.352e+00,7.006e+00,8.045e+00,7.498e+00,9.744e+00,7.757e+00,8.069e+00,8.854e+00,9.816e+00,9.383e+00,9.265e+00,9.582e+00,7.198e+00,9.622e+00,1.022e+01,9.967e+00,9.214e+00,1.102e+01,8.867e+00,1.065e+01,9.450e+00,1.291e+01,1.184e+01,1.155e+01,1.192e+01,1.222e+01,1.353e+01,1.244e+01,1.121e+01,1.551e+01,1.473e+01,1.477e+01,1.422e+01,1.528e+01,1.536e+01,1.390e+01,1.541e+01,1.402e+01,1.679e+01,1.563e+01,1.582e+01,1.602e+01,1.549e+01,1.612e+01,1.623e+01,1.451e+01,1.680e+01
4.572e-02,5.751e-01,4.487e-01,5.155e-01,1.054e+00,1.261e+00,8.859e-01,1.306e+00,2.624e+00,7.817e-01,3.026e+00,1.955e+00,2.123e+00,2.799e+00,3.325e+00,3.084e+00,3.885e+00,4.972e+00,4.225e+00,4.179e+00,5.019e+00,5.590e+00,4.195e+00,4.821e+00,6.325e+00,5.108e+00,5.822e+00,6.444e+00,7.037e+00,5.629e+00,8.598e+00,7.244e+00,7.760e+00,8.819e+00,9.489e+00,1.012e+01,8.676e+00,7.663e+00,7.732e+00,9.992e+00,7.893e+00,1.010e+01,8.271e+00,9.898e+00,8.993e+00,1.047e+01,1.010e+01,1.247e+01,1.173e+01,1.094e+01,1.038e+01,1.092e+01,1.141e+01,1.249e+01,1.162e+01,1.519e+01,1.270e+01,1.510e+01,1.123e+01,1.439e+01,1.472e+01,1.586e+01,1.621e+01,1.434e+01,1.636e+01,1.637e+01,1.641e+01,1.544e+01,1.568e+01,1.575e+01,1.503e+01,1.547e+01,1.486e+01
4.975e-02,8.715e-01,7.317e-01,1.425e+00,1.835e+00,1.900e+00,1.519e+00,2.580e+00,2.827e+00,1.401e+00,3.842e+00,2.624e+00,3.350e+00,3.683e+00,4.192e+00,4.192e+00,4.525e+00,5.589e+00,3.988e+00,4.936e+00,4.649e+00,5.585e+00,5.583e+00,5.804e+00,6.603e+00,5.308e+00,6.018e+00,6.552e+00,8.003e+00,7.449e+00,1.014e+01,8.236e+00,7.420e+00,8.862e+00,1.062e+01,1.046e+01,9.873e+00,9.456e+00,7.949e+00,9.703e+00,9.657e+00,1.016e+01,9.720e+00,1.084e+01,9.256e+00,1.299e+01,1.113e+01,1.483e+01,1.398e+01,1.451e+01,1.332e+01,1.253e+01,1.493e+01,1.451e+01,1.312e+01,1.655e+01,1.564e+01,1.614e+01,1.368e+01,1.549e+01,1.603e+01,1.513e+01,1.646e+01,1.499e+01,1.862e+01,1.803e+01,1.682e+01,1.577e+01,1.636e+01,1.667e+01,1.731e+01,1.705e+01,1.772e+01
4.950e-02,1.040e+00,6.474e-01,1.270e+00,1.426e+00,1.790e+00,1.435e+00,2.030e+00,2.751e+00,1.428e+00,4.155e+00,2.772e+00,3.164e+00,3.906e+00,4.034e+00,4.275e+00,5.379e+00,5.496e+00,4.964e+00,5.408e+00,5.075e+00,6.392e+00,5.246e+00,5.832e+00,6.203e+00,5.518e+00,6.673e+00,5.908e+00,7.180e+00,6.852e+00,8.286e+00,8.186e+00,7.269e+00,8.886e+00,9.242e+00,9.901e+00,9.005e+00,9.442e+00,7.510e+00,9.573e+00,9.436e+00,9.005e+00,9.056e+00,1.010e+01,8.565e+00,1.087e+01,9.764e+00,1.288e+01,1.300e+01,1.213e+01,1.122e+01,1.072e+01,1.166e+01,1.183e+01,1.139e+01,1.341e+01,1.245e+01,1.422e+01,1.333e+01,1.541e+01,1.432e+01,1.375e+01,1.479e+01,1.328e+01,1.643e+01,1.535e+01,1.677e+01,1.595e+01,1.485e+01,1.571e+01,1.724e+01,1.712e+01,1.733e+01
4.064e-02,1.048e+00,6.535e-01,1.583e+00,1.562e+00,1.099e+00,1.702e+00,2.715e+00,3.253e+00,1.602e+00,4.056e+00,2.692e+00,3.329e+00,3.411e+00,4.453e+00,4.087e+00,4.591e+00,5.360e+00,4.667e+00,5.446e+00,5.827e+00,6.133e+00,6.396e+00,5.858e+00,8.006e+00,5.206e+00,7.051e+00,6.466e+00,6.911e+00,6.991e+00,7.490e+00,7.719e+00,6.502e+00,7.989e+00,8.729e+00,8.906e+00,9.618e+00,8.648e+00,6.339e+00,8.678e+00,9.277e+00,9.279e+00,8.249e+00,1.012e+01,7.766e+00,1.013e+01,8.836e+00,1.157e+01,1.162e+01,1.100e+01,1.091e+01,1.182e+01,1.216e+01,1.370e+01,1.022e+01,1.490e+01,1.334e+01,1.461e+01,1.340e+01,1.560e+01,1.365e+01,1.529e+01,1.652e+01,1.331e+01,1.665e+01,1.517e+01,1.607e+01,1.580e+01,1.470e+01,1.622e+01,1.786e+01,1.615e+01,1.682e+01
3.469e-02,6.327e-01,7.200e-01,9.290e-01,1.535e+00,9.491e-01,1.233e+00,2.249e+00,2.629e+00,9.878e-01,3.156e+00,2.030e+00,2.161e+00,2.406e+00,3.273e+00,3.384e+00,4.289e+00,3.917e+00,3.800e+00,4.235e+00,4.686e+00,4.497e+00,4.711e+00,4.607e+00,6.719e+00,4.321e+00,5.245e+00,6.478e+00,5.906e+00,5.044e+00,6.906e+00,6.827e+00,7.621e+00,7.761e+00,9.887e+00,8.590e+00,8.637e+00,7.455e+00,7.118e+00,8.659e+00,8.216e+00,9.254e+00,8.361e+00,1.035e+01,7.819e+00,1.122e+01,9.464e+00,1.179e+01,1.258e+01,9.751e+00,1.061e+01,1.082e+01,1.263e+01,1.256e+01,9.429e+00,1.416e+01,1.256e+01,1.325e+01,1.173e+01,1.413e+01,1.368e+01,1.415e+01,1.606e+01,1.406e+01,1.600e+01,1.545e+01,1.553e+01,1.354e+01,1.448e+01,1.372e+01,1.679e+01,1.655e+01,1.644e+01
