7.346e-01,6.430e-01,4.749e-01,5.300e-01,6.189e-01,5.123e-01,6.920e-01,9.212e-01,9.776e-02,8.617e-01,9.319e-01,7.478e-01,7.303e-01,9.891e-02,3.882e-01,1.642e-01,9.531e-01,3.200e-01,3.644e-01,7.951e-01,5.202e-01,4.502e-02,9.053e-01,4.986e-01,3.321e-01,3.603e-01,7.404e-01,9.165e-01,2.045e-01,4.362e-01,9.894e-01,2.716e-01,4.147e-01,5.070e-01,6.949e-01,3.250e-01,3.580e-01,3.888e-01,5.857e-01,1.538e-01,2.905e-02,8.519e-01,2.814e-01,3.028e-02,8.061e-01,7.643e-01,2.560e-01,3.785e-01,7.163e-03,6.392e-01,6.404e-01,5.000e-01,5.753e-01,1.818e-01,8.026e-02,2.948e-01,5.606e-01,1.736e-01,6.202e-01,2.865e-01,6.225e-01,1.600e-02,2.495e-01,6.422e-01,3.374e-01,1.853e-01,8.907e-01,2.512e-01,8.149e-01,3.392e-01,5.301e-01,8.249e-01,5.136e-01,3.481e-01,4.955e-01,4.832e-01,2.267e-01,5.918e-01,6.720e-01,3.251e-01,3.209e-01,4.252e-01,9.848e-01,5.162e-01,7.982e-03,1.100e-01,9.543e-01,9.671e-01,5.747e-01,4.968e-01,7.345e-01,3.435e-01,3.731e-01,4.646e-01,1.208e-01,1.831e-01,4.108e-01,3.947e-01
4.928e-02,6.070e-01,4.307e-01,7.287e-01,4.831e-01,2.632e-01,8.199e-01,8.766e-01,7.989e-01,7.222e-01,4.564e-01,2.942e-01,2.722e-01,6.148e-01,5.140e-01,6.386e-01,7.493e-01,8.426e-01,3.242e-01,6.243e-01,6.076e-01,3.440e-01,6.629e-01,5.678e-01,2.526e-01,6.984e-01,7.655e-02,5.829e-01,3.780e-01,2.982e-01,1.687e-01,7.980e-01,7.645e-01,3.270e-01,7.682e-01,6.353e-01,1.129e-01,3.314e-01,9.780e-01,8.213e-01,6.969e-01,3.266e-01,3.374e-01,5.674e-01,8.497e-02,9.244e-01,3.802e-01,3.232e-01,4.888e-01,8.952e-01,4.520e-01,8.853e-01,5.542e-01,9.294e-01,5.984e-01,1.674e-01,2.052e-01,5.886e-01,2.428e-01,1.054e-01,1.188e-01,9.120e-01,2.419e-02,7.927e-01,4.930e-01,5.826e-01,9.037e-02,1.139e-01,9.965e-01,8.745e-01,7.128e-01,5.447e-01,8.698e-01,4.536e-02,1.039e-01,1.086e-01,8.884e-01,6.019e-01,7.880e-01,3.522e-01,8.836e-01,4.490e-01,2.777e-01,6.936e-01,2.836e-01,9.198e-01,6.651e-01,5.466e-01,9.888e-02,2.905e-01,9.775e-01,3.100e-01,8.337e-01,4.710e-01,1.606e-01,4.140e-01,8.819e-01,7.983e-01
3.986e-01,8.212e-01,8.838e-01,9.018e-01,7.245e-01,1.024e+00,1.494e+00,1.300e+00,8.832e-01,1.702e+00,1.067e+00,7.704e-01,1.254e+00,6.997e-01,7.181e-01,1.287e+00,1.688e+00,1.828e+00,6.456e-01,1.756e+00,8.319e-01,1.112e+00,1.067e+00,9.482e-01,8.075e-01,1.574e+00,9.503e-01,9.504e-01,9.867e-01,9.420e-01,1.561e+00,1.037e+00,1.609e+00,6.551e-01,1.010e+00,1.172e+00,7.772e-01,1.124e+00,1.359e+00,1.532e+00,7.374e-01,8.157e-01,9.395e-01,1.087e+00,5.718e-01,1.579e+00,1.241e+00,1.057e+00,6.635e-01,1.631e+00,8.738e-01,1.146e+00,1.720e+00,9.721e-01,1.148e+00,8.242e-01,5.351e-01,1.064e+00,5.094e-01,2.657e-01,7.507e-01,1.409e+00,2.647e-01,1.722e+00,9.079e-01,1.492e+00,1.262e+00,7.030e-01,1.907e+00,1.333e+00,1.827e+00,1.006e+00,1.530e+00,7.405e-01,8.321e-01,1.214e+00,1.522e+00,1.305e+00,1.418e+00,1.312e+00,1.069e+00,9.558e-01,7.644e-01,1.147e+00,1.086e+00,1.344e+00,1.393e+00,1.525e+00,9.365e-01,1.085e+00,1.458e+00,1.125e+00,1.089e+00,1.319e+00,7.530e-01,8.950e-01,1.214e+00,1.093e+00
6.304e-01,5.528e-01,4.205e-01,1.172e+00,1.166e+00,1.200e+00,7.201e-01,1.682e+00,2.569e-01,8.034e-01,9.184e-01,8.226e-01,1.075e+00,7.440e-01,6.004e-01,7.880e-01,1.787e+00,7.108e-01,4.780e-01,1.034e+00,1.005e+00,6.790e-01,9.347e-01,7.155e-01,1.225e+00,1.237e+00,7.531e-01,1.376e+00,6.061e-01,1.224e+00,9.568e-01,7.736e-01,7.778e-01,1.000e+00,7.959e-01,4.136e-01,8.466e-01,1.212e+00,8.547e-01,8.595e-01,9.412e-01,8.143e-01,9.093e-01,6.418e-01,1.629e+00,1.101e+00,7.672e-01,3.565e-01,2.857e-02,6.774e-01,6.743e-01,1.215e+00,8.363e-01,6.348e-01,7.645e-01,1.208e+00,8.098e-01,7.392e-01,1.321e+00,4.173e-01,1.002e+00,3.453e-01,1.215e+00,1.309e+00,8.260e-01,2.168e-01,1.111e+00,9.307e-01,9.741e-01,1.034e+00,6.538e-01,1.628e+00,5.888e-01,9.171e-01,9.397e-01,1.308e+00,2.364e-01,7.082e-01,1.374e+00,1.268e+00,1.160e+00,8.517e-01,1.263e+00,1.015e+00,2.874e-01,8.066e-01,1.039e+00,1.346e+00,1.514e+00,4.735e-01,6.519e-01,5.790e-01,7.929e-01,1.167e+00,5.603e-01,6.035e-01,4.006e-01,1.200e+00
4.360e-01,7.242e-01,6.224e-01,1.383e+00,1.308e+00,1.552e+00,1.167e+00,2.550e+00,7.908e-01,1.787e+00,1.326e+00,1.734e+00,1.959e+00,1.413e+00,1.054e+00,1.707e+00,2.596e+00,1.517e+00,9.039e-01,1.487e+00,1.205e+00,1.735e+00,2.051e+00,1.498e+00,1.952e+00,2.138e+00,1.144e+00,1.529e+00,1.376e+00,1.521e+00,1.279e+00,1.661e+00,1.558e+00,1.455e+00,1.662e+00,8.882e-01,1.173e+00,2.281e+00,2.296e+00,1.516e+00,1.616e+00,1.301e+00,2.006e+00,1.161e+00,1.391e+00,1.585e+00,1.436e+00,1.260e+00,1.136e+00,1.527e+00,1.426e+00,1.589e+00,1.343e+00,2.097e+00,1.655e+00,1.919e+00,1.103e+00,1.488e+00,1.490e+00,1.325e+00,1.640e+00,1.937e+00,1.813e+00,2.144e+00,1.144e+00,1.140e+00,1.819e+00,1.692e+00,2.427e+00,1.673e+00,1.334e+00,2.053e+00,1.476e+00,1.124e+00,1.912e+00,1.457e+00,1.773e+00,1.203e+00,2.527e+00,1.573e+00,1.680e+00,2.003e+00,2.022e+00,2.120e+00,1.624e+00,2.053e+00,1.514e+00,1.841e+00,2.019e+00,1.418e+00,1.182e+00,9.727e-01,1.411e+00,1.496e+00,1.624e+00,1.330e+00,1.371e+00,2.525e+00
2.666e-01,4.781e-01,5.191e-01,1.004e+00,9.409e-01,1.811e+00,1.257e+00,2.711e+00,6.437e-01,2.480e+00,1.020e+00,1.375e+00,2.065e+00,1.816e+00,9.586e-01,2.187e+00,3.082e+00,2.021e+00,1.038e+00,2.286e+00,9.436e-01,2.436e+00,2.295e+00,1.721e+00,1.766e+00,2.281e+00,1.795e+00,1.538e+00,1.988e+00,1.522e+00,1.432e+00,1.507e+00,2.088e+00,1.995e+00,1.461e+00,1.571e+00,1.298e+00,2.579e+00,2.092e+00,1.579e+00,1.701e+00,1.858e+00,2.062e+00,1.187e+00,1.105e+00,2.128e+00,1.826e+00,1.617e+00,1.608e+00,1.372e+00,1.975e+00,2.021e+00,1.857e+00,1.612e+00,1.488e+00,1.795e+00,9.332e-01,2.182e+00,1.504e+00,1.394e+00,1.889e+00,2.483e+00,1.708e+00,2.741e+00,1.721e+00,1.201e+00,2.507e+00,1.982e+00,2.195e+00,2.042e+00,1.624e+00,2.087e+00,1.673e+00,1.817e+00,1.990e+00,1.647e+00,1.986e+00,1.812e+00,2.427e+00,2.098e+00,1.688e+00,2.179e+00,1.902e+00,2.124e+00,1.579e+00,2.594e+00,1.602e+00,1.518e+00,2.602e+00,1.922e+00,1.028e+00,1.579e+00,1.821e+00,2.220e+00,1.428e+00,1.723e+00,1.980e+00,2.830e+00
4.513e-01,7.742e-01,5.676e-01,1.022e+00,8.978e-01,1.246e+00,1.964e+00,2.704e+00,8.285e-01,2.341e+00,1.886e+00,1.702e+00,2.135e+00,2.030e+00,1.553e+00,1.709e+00,2.546e+00,2.093e+00,1.245e+00,2.944e+00,1.945e+00,1.784e+00,2.295e+00,1.977e+00,1.709e+00,2.096e+00,2.087e+00,2.230e+00,1.902e+00,1.875e+00,1.081e+00,2.139e+00,2.463e+00,1.844e+00,1.920e+00,1.461e+00,8.434e-01,2.029e+00,1.963e+00,1.161e+00,1.591e+00,1.945e+00,2.032e+00,1.245e+00,9.262e-01,2.148e+00,1.834e+00,1.852e+00,1.198e+00,1.249e+00,2.173e+00,2.523e+00,2.175e+00,1.400e+00,1.647e+00,1.692e+00,1.461e+00,2.584e+00,1.937e+00,1.708e+00,2.025e+00,1.808e+00,1.128e+00,2.684e+00,2.188e+00,1.345e+00,2.547e+00,1.229e+00,2.016e+00,1.868e+00,2.115e+00,2.695e+00,2.037e+00,1.839e+00,1.149e+00,1.137e+00,1.663e+00,2.064e+00,1.782e+00,1.976e+00,2.114e+00,1.593e+00,2.254e+00,2.081e+00,1.159e+00,2.574e+00,2.170e+00,1.358e+00,1.780e+00,1.853e+00,2.012e+00,1.225e+00,1.852e+00,2.130e+00,8.807e-01,2.101e+00,1.854e+00,3.032e+00
5.358e-01,5.249e-01,4.237e-01,6.790e-01,7.114e-01,8.657e-01,1.327e+00,2.580e+00,1.239e+00,1.464e+00,2.431e+00,1.789e+00,2.104e+00,1.970e+00,1.744e+00,9.063e-01,1.649e+00,1.284e+00,1.416e+00,2.821e+00,2.073e+00,1.265e+00,1.610e+00,1.678e+00,2.385e+00,2.023e+00,2.366e+00,1.822e+00,1.417e+00,1.737e+00,1.203e+00,2.355e+00,1.761e+00,1.070e+00,1.616e+00,1.488e+00,6.981e-01,2.033e+00,1.267e+00,8.492e-01,1.689e+00,1.736e+00,1.769e+00,1.760e+00,1.069e+00,1.716e+00,1.557e+00,1.883e+00,6.832e-01,1.482e+00,1.984e+00,2.144e+00,1.918e+00,1.637e+00,1.472e+00,1.770e+00,1.351e+00,1.697e+00,1.676e+00,1.709e+00,1.874e+00,1.681e+00,1.357e+00,2.395e+00,1.880e+00,1.550e+00,1.901e+00,1.250e+00,1.855e+00,1.440e+00,2.436e+00,2.816e+00,2.187e+00,2.160e+00,1.102e+00,1.448e+00,1.387e+00,1.502e+00,2.110e+00,1.631e+00,1.680e+00,1.429e+00,2.208e+00,1.664e+00,1.418e+00,2.253e+00,1.850e+00,1.741e+00,1.715e+00,1.462e+00,1.486e+00,1.609e+00,1.302e+00,2.177e+00,1.506e+00,2.309e+00,1.223e+00,2.181e+00
6.907e-01,1.147e+00,1.077e+00,1.893e+00,1.704e+00,2.261e+00,2.067e+00,4.040e+00,2.609e+00,3.884e+00,2.545e+00,2.096e+00,3.783e+00,2.715e+00,2.471e+00,2.957e+00,4.268e+00,3.411e+00,2.266e+00,3.660e+00,2.357e+00,3.597e+00,2.757e+00,2.858e+00,3.896e+00,4.321e+00,3.402e+00,2.846e+00,2.323e+00,2.644e+00,2.672e+00,3.361e+00,2.943e+00,3.058e+00,2.353e+00,2.453e+00,2.290e+00,3.985e+00,3.749e+00,3.424e+00,2.849e+00,3.216e+00,3.130e+00,2.945e+00,2.325e+00,4.094e+00,3.362e+00,2.242e+00,1.773e+00,3.164e+00,2.832e+00,4.104e+00,3.193e+00,3.654e+00,3.307e+00,3.192e+00,1.704e+00,3.448e+00,2.619e+00,1.784e+00,2.335e+00,4.037e+00,2.892e+00,4.801e+00,2.546e+00,2.500e+00,3.581e+00,3.245e+00,3.772e+00,3.925e+00,3.105e+00,3.988e+00,3.264e+00,2.956e+00,2.352e+00,3.416e+00,3.621e+00,2.861e+00,4.410e+00,3.278e+00,2.972e+00,3.522e+00,3.424e+00,3.275e+00,2.451e+00,4.099e+00,3.220e+00,3.164e+00,4.178e+00,3.022e+00,2.445e+00,3.221e+00,3.404e+00,4.179e+00,2.932e+00,3.255e+00,2.663e+00,3.598e+00
4.481e-01,6.910e-01,7.821e-01,8.952e-01,7.866e-01,1.274e+00,1.430e+00,1.907e+00,1.200e+00,2.807e+00,1.525e+00,1.632e+00,2.718e+00,1.338e+00,1.164e+00,1.685e+00,2.826e+00,2.788e+00,1.262e+00,3.292e+00,1.936e+00,1.902e+00,1.402e+00,2.096e+00,1.825e+00,2.527e+00,2.178e+00,1.546e+00,2.237e+00,1.543e+00,1.974e+00,1.682e+00,1.880e+00,1.320e+00,1.256e+00,2.504e+00,1.605e+00,2.090e+00,2.433e+00,2.107e+00,1.751e+00,1.463e+00,2.009e+00,2.423e+00,1.901e+00,3.081e+00,2.596e+00,1.944e+00,1.253e+00,2.354e+00,1.639e+00,2.560e+00,2.551e+00,2.055e+00,1.912e+00,1.967e+00,1.118e+00,2.091e+00,1.782e+00,1.663e+00,2.071e+00,2.076e+00,1.045e+00,3.241e+00,1.949e+00,2.500e+00,2.702e+00,2.102e+00,2.142e+00,1.968e+00,2.788e+00,2.383e+00,1.936e+00,2.303e+00,2.142e+00,2.538e+00,2.356e+00,2.167e+00,2.690e+00,2.201e+00,2.271e+00,2.253e+00,1.463e+00,1.889e+00,1.695e+00,2.133e+00,1.973e+00,2.407e+00,2.787e+00,1.763e+00,1.953e+00,2.452e+00,2.395e+00,2.659e+00,1.308e+00,2.547e+00,1.765e+00,2.059e+00
6.322e-01,6.551e-01,7.003e-01,8.587e-01,9.157e-01,1.368e+00,1.578e+00,2.268e+00,1.142e+00,3.057e+00,2.479e+00,2.740e+00,4.109e+00,1.745e+00,2.335e+00,2.632e+00,3.412e+00,3.267e+00,2.132e+00,3.831e+00,3.067e+00,2.605e+00,2.218e+00,3.365e+00,3.337e+00,3.598e+00,3.560e+00,2.159e+00,2.972e+00,2.122e+00,2.894e+00,3.106e+00,2.278e+00,2.425e+00,2.501e+00,2.529e+00,2.788e+00,3.094e+00,3.550e+00,1.961e+00,1.844e+00,2.819e+00,2.966e+00,2.585e+00,2.616e+00,2.866e+00,3.063e+00,2.538e+00,1.579e+00,2.331e+00,2.415e+00,3.231e+00,3.009e+00,3.143e+00,2.986e+00,2.856e+00,2.010e+00,2.943e+00,2.894e+00,2.802e+00,3.315e+00,2.278e+00,1.962e+00,4.027e+00,2.187e+00,3.187e+00,4.149e+00,3.301e+00,3.380e+00,2.882e+00,2.947e+00,3.319e+00,2.805e+00,3.333e+00,3.068e+00,2.692e+00,3.199e+00,2.973e+00,2.994e+00,2.835e+00,2.636e+00,2.786e+00,2.805e+00,3.100e+00,2.506e+00,2.629e+00,3.265e+00,2.566e+00,3.589e+00,2.609e+00,3.021e+00,2.742e+00,2.771e+00,3.229e+00,2.236e+00,3.793e+00,2.272e+00,2.819e+00
4.977e-02,2.651e-01,2.332e-01,6.319e-01,5.176e-01,1.059e+00,1.335e+00,2.411e+00,1.085e+00,2.282e+00,1.635e+00,2.431e+00,3.060e+00,2.518e+00,2.078e+00,2.513e+00,2.931e+00,2.793e+00,2.335e+00,4.138e+00,2.927e+00,3.033e+00,2.208e+00,2.524e+00,2.511e+00,3.414e+00,3.303e+00,2.401e+00,3.175e+00,2.392e+00,1.399e+00,3.253e+00,2.854e+00,1.918e+00,2.607e+00,3.087e+00,1.361e+00,3.109e+00,2.717e+00,2.068e+00,2.715e+00,2.668e+00,2.917e+00,2.137e+00,1.447e+00,3.417e+00,2.785e+00,2.708e+00,1.942e+00,1.509e+00,2.593e+00,3.624e+00,2.719e+00,2.586e+00,2.916e+00,2.428e+00,1.549e+00,3.561e+00,2.547e+00,2.323e+00,2.496e+00,2.594e+00,1.596e+00,4.187e+00,2.729e+00,2.706e+00,3.391e+00,2.775e+00,2.515e+00,2.521e+00,2.861e+00,3.802e+00,2.951e+00,3.522e+00,2.530e+00,2.040e+00,3.082e+00,3.105e+00,2.773e+00,2.393e+00,3.059e+00,2.964e+00,2.584e+00,2.725e+00,2.465e+00,3.629e+00,2.324e+00,1.879e+00,3.457e+00,2.881e+00,2.760e+00,2.090e+00,3.076e+00,2.923e+00,1.943e+00,3.815e+00,2.766e+00,3.898e+00
2.019e-01,5.966e-01,4.325e-01,9.554e-01,8.096e-01,8.988e-01,1.297e+00,2.791e+00,2.158e+00,2.749e+00,2.277e+00,2.586e+00,4.213e+00,2.640e+00,2.684e+00,3.237e+00,3.944e+00,3.444e+00,3.404e+00,4.002e+00,4.199e+00,3.774e+00,2.737e+00,3.686e+00,3.738e+00,4.682e+00,3.588e+00,3.111e+00,3.654e+00,3.143e+00,1.835e+00,4.494e+00,2.554e+00,3.183e+00,3.732e+00,3.715e+00,2.180e+00,4.113e+00,4.088e+00,3.341e+00,3.619e+00,3.372e+00,3.385e+00,3.119e+00,2.127e+00,4.237e+00,3.357e+00,3.052e+00,2.543e+00,2.919e+00,2.712e+00,4.507e+00,3.657e+00,4.647e+00,4.333e+00,3.518e+00,2.567e+00,3.449e+00,3.634e+00,3.582e+00,2.971e+00,3.441e+00,2.902e+00,5.192e+00,3.057e+00,3.304e+00,3.387e+00,3.812e+00,3.263e+00,3.947e+00,3.100e+00,4.126e+00,3.516e+00,4.241e+00,2.910e+00,3.048e+00,3.808e+00,3.437e+00,4.162e+00,3.139e+00,4.014e+00,3.905e+00,3.849e+00,3.878e+00,3.446e+00,4.087e+00,3.241e+00,2.408e+00,4.380e+00,2.822e+00,3.591e+00,3.493e+00,4.285e+00,3.990e+00,2.906e+00,4.509e+00,2.846e+00,4.431e+00
2.887e-01,3.072e-01,5.128e-01,5.566e-01,5.734e-01,1.158e+00,1.318e+00,2.139e+00,1.916e+00,2.942e+00,2.351e+00,2.389e+00,4.404e+00,2.195e+00,2.574e+00,3.397e+00,3.938e+00,3.971e+00,3.340e+00,4.115e+00,3.670e+00,3.774e+00,2.407e+00,3.497e+00,4.787e+00,4.686e+00,4.742e+00,3.212e+00,3.178e+00,3.801e+00,3.069e+00,4.262e+00,3.134e+00,3.184e+00,3.249e+00,3.604e+00,2.852e+00,4.557e+00,4.378e+00,3.405e+00,3.334e+00,3.213e+00,3.410e+00,3.841e+00,2.471e+00,4.004e+00,4.578e+00,3.158e+00,1.907e+00,3.605e+00,2.766e+00,3.902e+00,4.571e+00,4.508e+00,4.425e+00,4.350e+00,2.333e+00,3.469e+00,3.344e+00,3.795e+00,3.004e+00,3.736e+00,2.773e+00,5.542e+00,3.048e+00,4.198e+00,4.345e+00,3.728e+00,3.639e+00,3.530e+00,3.320e+00,3.945e+00,3.263e+00,4.193e+00,2.722e+00,3.827e+00,3.623e+00,3.644e+00,4.513e+00,3.315e+00,3.067e+00,3.927e+00,3.969e+00,4.034e+00,4.186e+00,4.449e+00,3.430e+00,2.710e+00,4.780e+00,3.978e+00,3.238e+00,4.415e+00,3.584e+00,3.942e+00,3.402e+00,4.172e+00,2.034e+00,3.980e+00
5.904e-01,1.032e+00,8.583e-01,1.329e+00,1.227e+00,1.454e+00,1.781e+00,3.069e+00,1.527e+00,3.442e+00,2.513e+00,3.675e+00,4.787e+00,2.522e+00,3.665e+00,4.338e+00,5.954e+00,4.551e+00,4.056e+00,5.672e+00,4.830e+00,4.121e+00,4.111e+00,5.275e+00,4.783e+00,5.471e+00,4.507e+00,3.662e+00,5.167e+00,3.794e+00,3.508e+00,5.364e+00,3.862e+00,4.089e+00,5.440e+00,5.319e+00,3.396e+00,4.673e+00,6.041e+00,3.665e+00,3.870e+00,4.346e+00,4.480e+00,3.301e+00,3.950e+00,5.538e+00,3.880e+00,4.304e+00,3.450e+00,4.327e+00,3.681e+00,4.932e+00,5.055e+00,5.099e+00,4.736e+00,4.210e+00,2.780e+00,4.179e+00,4.688e+00,4.557e+00,4.583e+00,3.621e+00,2.987e+00,6.574e+00,3.410e+00,5.237e+00,5.387e+00,4.575e+00,5.520e+00,4.897e+00,3.644e+00,5.475e+00,4.734e+00,4.565e+00,5.363e+00,3.473e+00,4.704e+00,5.035e+00,5.350e+00,3.894e+00,5.111e+00,5.019e+00,4.373e+00,4.822e+00,4.402e+00,4.973e+00,4.201e+00,4.031e+00,5.405e+00,4.627e+00,5.124e+00,4.043e+00,4.988e+00,3.887e+00,3.474e+00,5.192e+00,4.674e+00,4.921e+00
6.887e-01,1.089e+00,9.059e-01,1.145e+00,1.084e+00,1.282e+00,2.017e+00,2.681e+00,1.714e+00,3.927e+00,2.465e+00,3.487e+00,5.069e+00,2.083e+00,3.064e+00,4.646e+00,6.214e+00,4.670e+00,4.094e+00,5.625e+00,4.908e+00,5.285e+00,4.261e+00,5.425e+00,4.893e+00,5.665e+00,4.638e+00,4.082e+00,4.669e+00,3.993e+00,3.283e+00,5.678e+00,4.215e+00,4.575e+00,5.185e+00,4.522e+00,3.347e+00,5.358e+00,5.977e+00,4.273e+00,3.727e+00,4.524e+00,4.767e+00,3.586e+00,3.354e+00,6.005e+00,4.970e+00,4.242e+00,4.016e+00,4.715e+00,3.784e+00,4.912e+00,5.172e+00,5.248e+00,5.505e+00,4.933e+00,4.004e+00,5.034e+00,5.282e+00,5.013e+00,4.438e+00,3.798e+00,3.281e+00,6.198e+00,3.532e+00,5.043e+00,5.266e+00,4.768e+00,5.351e+00,4.945e+00,3.849e+00,4.916e+00,4.850e+00,4.879e+00,4.955e+00,3.599e+00,4.933e+00,4.939e+00,5.225e+00,4.415e+00,4.641e+00,5.792e+00,5.343e+00,5.505e+00,4.696e+00,4.868e+00,4.485e+00,4.243e+00,5.617e+00,5.331e+00,5.538e+00,3.766e+00,4.878e+00,4.062e+00,4.112e+00,5.395e+00,3.704e+00,5.364e+00
3.786e-01,4.821e-01,5.380e-01,7.611e-01,7.884e-01,1.594e+00,1.265e+00,3.217e+00,2.000e+00,3.496e+00,2.102e+00,2.739e+00,4.492e+00,2.718e+00,2.969e+00,4.043e+00,5.356e+00,4.590e+00,4.281e+00,5.557e+00,3.602e+00,5.821e+00,4.596e+00,4.694e+00,5.317e+00,5.633e+00,5.724e+00,3.887e+00,4.615e+00,4.726e+00,3.528e+00,5.607e+00,3.933e+00,4.842e+00,4.855e+00,5.247e+00,3.053e+00,6.362e+00,5.573e+00,4.118e+00,3.850e+00,5.232e+00,4.326e+00,3.161e+00,2.637e+00,5.468e+00,4.588e+00,4.670e+00,3.641e+00,4.560e+00,4.362e+00,5.013e+00,4.850e+00,5.018e+00,5.321e+00,4.366e+00,2.695e+00,5.207e+00,3.991e+00,3.848e+00,3.718e+00,5.323e+00,4.032e+00,6.599e+00,3.380e+00,4.636e+00,5.418e+00,5.315e+00,5.103e+00,5.356e+00,3.977e+00,5.611e+00,5.049e+00,5.007e+00,4.139e+00,3.991e+00,4.648e+00,4.424e+00,6.161e+00,4.661e+00,4.385e+00,5.613e+00,5.332e+00,4.559e+00,4.616e+00,5.422e+00,4.036e+00,3.961e+00,6.340e+00,5.855e+00,4.404e+00,4.694e+00,4.510e+00,4.500e+00,4.420e+00,5.503e+00,4.509e+00,5.613e+00
4.692e-01,7.879e-01,6.750e-01,1.339e+00,1.186e+00,1.284e+00,1.309e+00,2.380e+00,1.204e+00,2.176e+00,1.890e+00,2.727e+00,3.901e+00,2.179e+00,2.973e+00,4.544e+00,5.979e+00,4.756e+00,4.379e+00,6.640e+00,5.717e+00,4.594e+00,4.387e+00,5.924e+00,6.180e+00,6.417e+00,4.725e+00,4.337e+00,6.082e+00,5.070e+00,3.818e+00,6.793e+00,4.287e+00,4.370e+00,5.973e+00,6.654e+00,4.024e+00,6.009e+00,5.837e+00,4.624e+00,4.899e+00,4.647e+00,4.634e+00,4.699e+00,4.878e+00,5.680e+00,5.060e+00,4.525e+00,3.765e+00,5.655e+00,4.238e+00,5.703e+00,5.237e+00,5.162e+00,5.828e+00,4.938e+00,3.760e+00,4.846e+00,5.883e+00,5.241e+00,4.791e+00,3.512e+00,3.903e+00,7.200e+00,4.156e+00,6.033e+00,4.694e+00,5.624e+00,5.605e+00,5.513e+00,3.912e+00,5.609e+00,5.919e+00,5.775e+00,5.498e+00,4.538e+00,4.601e+00,5.741e+00,6.013e+00,5.445e+00,5.517e+00,5.528e+00,4.569e+00,5.610e+00,4.605e+00,5.427e+00,4.229e+00,4.975e+00,5.892e+00,5.622e+00,6.011e+00,5.274e+00,5.321e+00,4.784e+00,3.584e+00,5.942e+00,5.085e+00,5.067e+00
6.339e-01,7.458e-01,6.654e-01,1.358e+00,1.274e+00,1.552e+00,1.502e+00,3.178e+00,1.634e+00,2.068e+00,2.602e+00,2.001e+00,3.481e+00,2.647e+00,3.087e+00,4.023e+00,5.562e+00,4.172e+00,4.219e+00,6.294e+00,5.872e+00,4.905e+00,4.541e+00,6.227e+00,6.969e+00,6.390e+00,5.049e+00,4.503e+00,4.987e+00,4.914e+00,4.145e+00,7.308e+00,4.748e+00,5.496e+00,5.429e+00,6.393e+00,4.612e+00,6.576e+00,5.092e+00,4.002e+00,5.002e+00,4.961e+00,4.846e+00,5.473e+00,4.721e+00,5.577e+00,4.707e+00,4.937e+00,3.652e+00,5.949e+00,4.318e+00,5.317e+00,5.149e+00,4.651e+00,4.925e+00,5.569e+00,4.432e+00,5.297e+00,5.362e+00,5.438e+00,5.027e+00,4.554e+00,4.540e+00,7.100e+00,4.584e+00,5.126e+00,4.467e+00,5.580e+00,5.519e+00,5.601e+00,4.521e+00,5.781e+00,6.283e+00,5.917e+00,5.143e+00,4.415e+00,3.834e+00,4.991e+00,6.432e+00,6.579e+00,5.528e+00,4.585e+00,5.059e+00,5.026e+00,4.113e+00,5.770e+00,4.984e+00,5.165e+00,5.455e+00,5.620e+00,5.040e+00,5.423e+00,4.404e+00,5.313e+00,4.124e+00,6.294e+00,4.071e+00,5.303e+00
7.245e-01,7.361e-01,6.766e-01,1.164e+00,1.244e+00,1.763e+00,1.850e+00,3.799e+00,1.478e+00,3.016e+00,3.172e+00,3.749e+00,4.844e+00,3.049e+00,3.672e+00,4.635e+00,6.727e+00,4.778e+00,5.200e+00,7.961e+00,6.542e+00,6.510e+00,6.847e+00,7.465e+00,8.178e+00,8.002e+00,6.573e+00,5.610e+00,6.533e+00,6.830e+00,4.774e+00,8.916e+00,6.562e+00,6.136e+00,7.911e+00,7.411e+00,5.384e+00,8.201e+00,6.815e+00,4.862e+00,5.998e+00,6.372e+00,7.109e+00,6.690e+00,5.384e+00,7.568e+00,6.834e+00,7.514e+00,4.914e+00,7.230e+00,5.805e+00,6.548e+00,6.787e+00,5.767e+00,6.538e+00,7.920e+00,5.975e+00,7.156e+00,7.479e+00,7.966e+00,6.369e+00,5.481e+00,5.751e+00,9.292e+00,5.696e+00,6.951e+00,6.425e+00,7.106e+00,7.662e+00,6.035e+00,5.894e+00,7.428e+00,8.174e+00,7.514e+00,7.817e+00,5.717e+00,5.394e+00,6.833e+00,7.898e+00,7.146e+00,6.665e+00,6.680e+00,7.317e+00,6.825e+00,6.508e+00,7.821e+00,5.858e+00,6.506e+00,7.225e+00,7.987e+00,6.903e+00,6.490e+00,5.890e+00,5.602e+00,6.028e+00,7.895e+00,5.807e+00,7.166e+00
1.055e-01,5.743e-01,6.709e-01,1.089e+00,9.142e-01,1.765e+00,1.720e+00,3.400e+00,2.340e+00,3.709e+00,2.367e+00,2.375e+00,4.362e+00,3.110e+00,3.732e+00,4.822e+00,6.021e+00,5.089e+00,3.899e+00,6.676e+00,4.741e+00,6.192e+00,4.983e+00,6.871e+00,7.451e+00,7.565e+00,6.107e+00,3.543e+00,5.902e+00,4.650e+00,3.940e+00,7.848e+00,5.399e+00,5.942e+00,5.944e+00,5.811e+00,5.224e+00,7.286e+00,6.158e+00,4.373e+00,4.746e+00,6.260e+00,5.876e+00,5.891e+00,4.184e+00,6.802e+00,5.782e+00,6.134e+00,4.421e+00,5.543e+00,5.624e+00,6.825e+00,5.879e+00,6.111e+00,6.511e+00,5.766e+00,4.402e+00,7.132e+00,5.699e+00,4.900e+00,5.842e+00,6.192e+00,5.054e+00,7.150e+00,4.132e+00,6.339e+00,6.228e+00,6.263e+00,6.572e+00,6.832e+00,4.902e+00,6.391e+00,7.471e+00,5.914e+00,5.802e+00,5.011e+00,6.207e+00,6.217e+00,6.297e+00,6.903e+00,5.440e+00,5.668e+00,5.672e+00,5.972e+00,4.629e+00,6.749e+00,5.672e+00,5.549e+00,6.308e+00,6.329e+00,6.204e+00,5.195e+00,5.222e+00,6.093e+00,5.802e+00,7.258e+00,5.731e+00,5.762e+00
3.959e-01,8.208e-01,6.672e-01,1.100e+00,9.077e-01,8.428e-01,1.202e+00,1.927e+00,1.638e+00,1.971e+00,1.478e+00,1.540e+00,2.491e+00,1.623e+00,2.259e+00,2.960e+00,4.079e+00,3.720e+00,3.511e+00,4.772e+00,4.324e+00,4.263e+00,4.620e+00,5.218e+00,6.366e+00,5.607e+00,4.968e+00,4.236e+00,5.138e+00,5.003e+00,4.201e+00,6.164e+00,4.603e+00,4.942e+00,5.775e+00,6.193e+00,4.138e+00,6.001e+00,5.663e+00,4.725e+00,4.390e+00,4.659e+00,4.988e+00,5.178e+00,4.095e+00,6.420e+00,4.537e+00,4.719e+00,3.291e+00,5.987e+00,3.930e+00,5.266e+00,4.539e+00,5.229e+00,5.629e+00,4.676e+00,4.004e+00,5.358e+00,4.741e+00,4.044e+00,4.374e+00,4.968e+00,4.411e+00,6.547e+00,4.351e+00,5.284e+00,4.392e+00,4.786e+00,5.508e+00,4.762e+00,3.977e+00,5.169e+00,5.699e+00,4.751e+00,4.286e+00,4.955e+00,4.581e+00,5.396e+00,6.290e+00,4.835e+00,4.775e+00,4.931e+00,5.159e+00,4.496e+00,3.880e+00,5.574e+00,5.202e+00,5.087e+00,5.182e+00,5.966e+00,5.109e+00,5.269e+00,4.388e+00,4.629e+00,3.827e+00,5.115e+00,4.858e+00,5.079e+00
6.508e-02,4.743e-01,5.499e-01,8.248e-01,6.233e-01,1.203e+00,1.678e+00,2.312e+00,1.958e+00,3.568e+00,1.944e+00,2.261e+00,4.334e+00,2.464e+00,2.864e+00,3.684e+00,4.838e+00,5.394e+00,3.877e+00,6.220e+00,4.972e+00,5.673e+00,5.702e+00,6.377e+00,7.013e+00,7.505e+00,7.013e+00,4.967e+00,6.645e+00,6.545e+00,4.467e+00,7.104e+00,6.156e+00,6.253e+00,6.344e+00,7.335e+00,5.850e+00,7.176e+00,7.004e+00,5.767e+00,4.727e+00,5.500e+00,5.986e+00,6.895e+00,4.675e+00,7.521e+00,6.650e+00,6.887e+00,4.270e+00,6.418e+00,4.726e+00,7.549e+00,6.619e+00,6.360e+00,6.885e+00,6.141e+00,4.829e+00,7.971e+00,6.275e+00,6.063e+00,5.881e+00,5.992e+00,4.577e+00,8.195e+00,5.224e+00,6.775e+00,6.646e+00,6.915e+00,6.069e+00,6.215e+00,5.649e+00,6.833e+00,6.335e+00,6.173e+00,5.938e+00,6.065e+00,5.896e+00,6.588e+00,6.950e+00,6.664e+00,7.017e+00,6.201e+00,6.001e+00,5.187e+00,5.545e+00,6.506e+00,5.890e+00,5.758e+00,7.107e+00,7.080e+00,6.294e+00,6.777e+00,6.122e+00,6.015e+00,5.296e+00,7.634e+00,5.341e+00,6.491e+00
3.885e-03,4.999e-02,6.145e-02,6.963e-02,1.149e-01,6.931e-01,4.882e-01,1.594e+00,4.161e-01,2.171e+00,7.624e-01,1.584e+00,2.384e+00,1.435e+00,9.202e-01,2.041e+00,3.129e+00,2.165e+00,2.219e+00,3.801e+00,3.238e+00,3.556e+00,4.484e+00,5.134e+00,5.258e+00,5.105e+00,4.717e+00,3.212e+00,5.733e+00,4.584e+00,2.852e+00,4.344e+00,4.336e+00,4.629e+00,4.892e+00,5.384e+00,4.926e+00,5.255e+00,4.297e+00,4.133e+00,3.829e+00,4.405e+00,5.116e+00,5.935e+00,3.856e+00,5.572e+00,5.064e+00,5.483e+00,4.640e+00,4.754e+00,3.984e+00,4.770e+00,3.834e+00,4.885e+00,4.524e+00,4.418e+00,4.618e+00,5.206e+00,5.720e+00,5.360e+00,5.139e+00,4.573e+00,4.692e+00,6.025e+00,4.564e+00,4.049e+00,4.172e+00,4.997e+00,4.160e+00,3.166e+00,3.553e+00,4.485e+00,4.731e+00,4.976e+00,5.667e+00,5.093e+00,4.900e+00,5.734e+00,5.480e+00,4.641e+00,4.711e+00,5.605e+00,4.794e+00,4.621e+00,4.371e+00,4.962e+00,3.843e+00,4.518e+00,5.268e+00,5.543e+00,3.280e+00,4.997e+00,4.365e+00,4.577e+00,3.879e+00,5.739e+00,4.709e+00,4.818e+00
4.293e-01,6.434e-01,6.595e-01,6.904e-01,7.081e-01,1.412e+00,1.595e+00,2.646e+00,1.302e+00,3.415e+00,2.134e+00,2.437e+00,3.981e+00,2.116e+00,2.525e+00,3.527e+00,4.465e+00,4.307e+00,3.194e+00,5.157e+00,3.466e+00,4.831e+00,5.395e+00,5.535e+00,6.172e+00,6.026e+00,6.064e+00,4.002e+00,5.658e+00,5.522e+00,4.452e+00,6.309e+00,4.466e+00,5.843e+00,6.627e+00,5.780e+00,4.762e+00,6.626e+00,6.008e+00,4.087e+00,3.671e+00,5.858e+00,5.301e+00,4.426e+00,4.264e+00,5.496e+00,5.120e+00,5.417e+00,4.522e+00,5.641e+00,4.816e+00,5.699e+00,4.968e+00,5.320e+00,5.631e+00,4.520e+00,4.239e+00,5.896e+00,5.333e+00,4.951e+00,5.747e+00,5.138e+00,4.889e+00,6.801e+00,4.593e+00,5.939e+00,6.639e+00,5.632e+00,5.981e+00,5.337e+00,5.145e+00,4.929e+00,6.401e+00,5.779e+00,5.524e+00,5.224e+00,5.727e+00,5.800e+00,5.584e+00,5.454e+00,4.368e+00,5.659e+00,5.773e+00,5.780e+00,4.756e+00,5.666e+00,6.157e+00,4.235e+00,5.836e+00,6.511e+00,5.456e+00,6.039e+00,4.538e+00,5.102e+00,4.640e+00,5.945e+00,5.769e+00,6.031e+00
4.830e-01,6.305e-01,6.446e-01,7.197e-01,7.433e-01,1.428e+00,1.413e+00,2.834e+00,1.119e+00,2.690e+00,2.083e+00,2.509e+00,3.262e+00,2.236e+00,2.466e+00,3.073e+00,4.031e+00,3.066e+00,2.784e+00,4.787e+00,3.182e+00,3.907e+00,4.727e+00,4.986e+00,5.597e+00,5.783e+00,6.649e+00,3.749e+00,5.283e+00,5.890e+00,4.014e+00,6.312e+00,5.222e+00,5.008e+00,7.248e+00,6.272e+00,5.592e+00,6.156e+00,5.074e+00,4.673e+00,4.122e+00,6.506e+00,5.217e+00,5.677e+00,5.073e+00,6.377e+00,5.402e+00,6.301e+00,4.618e+00,5.325e+00,5.001e+00,6.032e+00,5.109e+00,5.647e+00,5.871e+00,4.200e+00,4.980e+00,5.757e+00,5.332e+00,5.175e+00,5.638e+00,4.835e+00,4.762e+00,6.942e+00,5.194e+00,6.198e+00,6.159e+00,5.322e+00,6.529e+00,4.814e+00,5.759e+00,5.373e+00,6.290e+00,5.866e+00,6.011e+00,5.946e+00,6.236e+00,7.067e+00,6.019e+00,5.723e+00,4.547e+00,6.241e+00,6.209e+00,5.847e+00,5.008e+00,5.906e+00,5.840e+00,5.194e+00,5.914e+00,6.004e+00,5.093e+00,5.852e+00,4.519e+00,5.595e+00,5.376e+00,6.556e+00,6.303e+00,5.587e+00
3.975e-02,4.057e-01,2.934e-01,9.238e-01,7.703e-01,1.091e+00,1.031e+00,2.783e+00,1.624e+00,2.471e+00,1.703e+00,2.441e+00,3.742e+00,2.782e+00,2.921e+00,4.410e+00,5.743e+00,4.038e+00,4.278e+00,6.144e+00,5.573e+00,5.680e+00,5.874e+00,7.044e+00,8.512e+00,7.932e+00,7.198e+00,5.983e+00,7.639e+00,7.614e+00,4.237e+00,8.402e+00,7.156e+00,7.232e+00,8.792e+00,8.377e+00,6.849e+00,8.503e+00,7.300e+00,6.791e+00,6.989e+00,7.350e+00,7.169e+00,7.569e+00,7.278e+00,8.298e+00,7.696e+00,7.253e+00,7.125e+00,7.603e+00,6.302e+00,8.195e+00,6.784e+00,7.670e+00,7.596e+00,6.924e+00,6.282e+00,8.258e+00,8.872e+00,8.256e+00,7.347e+00,6.131e+00,7.112e+00,9.571e+00,7.182e+00,8.236e+00,6.868e+00,7.662e+00,7.695e+00,6.351e+00,6.632e+00,6.623e+00,8.097e+00,8.703e+00,8.095e+00,7.140e+00,7.544e+00,8.246e+00,7.971e+00,7.229e+00,7.613e+00,8.935e+00,7.534e+00,7.919e+00,7.230e+00,8.895e+00,6.546e+00,6.946e+00,7.694e+00,8.518e+00,6.861e+00,8.383e+00,6.724e+00,6.686e+00,6.723e+00,8.274e+00,7.305e+00,7.662e+00
7.889e-02,3.050e-01,4.110e-01,9.332e-01,8.563e-01,1.578e+00,1.156e+00,3.025e+00,1.801e+00,2.757e+00,2.091e+00,2.185e+00,4.124e+00,2.878e+00,2.870e+00,4.613e+00,5.383e+00,4.363e+00,4.071e+00,5.677e+00,5.337e+00,5.399e+00,5.453e+00,6.526e+00,8.744e+00,8.551e+00,7.340e+00,5.703e+00,7.678e+00,7.931e+00,5.100e+00,9.233e+00,6.274e+00,7.600e+00,8.307e+00,8.616e+00,6.854e+00,9.890e+00,7.365e+00,6.680e+00,6.504e+00,8.119e+00,6.971e+00,7.960e+00,7.428e+00,7.161e+00,7.967e+00,7.376e+00,6.424e+00,7.666e+00,6.298e+00,8.179e+00,7.256e+00,8.575e+00,8.751e+00,7.306e+00,7.019e+00,7.403e+00,7.015e+00,8.215e+00,7.059e+00,7.015e+00,7.275e+00,8.952e+00,6.418e+00,7.788e+00,7.747e+00,8.379e+00,7.094e+00,7.042e+00,5.738e+00,7.512e+00,8.242e+00,7.996e+00,6.822e+00,8.080e+00,8.459e+00,8.196e+00,8.632e+00,8.775e+00,7.257e+00,8.624e+00,8.375e+00,8.038e+00,6.814e+00,8.498e+00,7.405e+00,6.677e+00,6.951e+00,8.299e+00,6.249e+00,8.353e+00,6.953e+00,8.089e+00,7.855e+00,8.197e+00,5.916e+00,8.345e+00
8.292e-02,5.598e-01,4.569e-01,1.164e+00,9.543e-01,1.327e+00,1.721e+00,3.186e+00,2.237e+00,3.549e+00,2.354e+00,3.074e+00,4.665e+00,3.130e+00,3.315e+00,3.876e+00,5.047e+00,5.080e+00,4.019e+00,6.353e+00,5.050e+00,5.646e+00,5.409e+00,6.558e+00,8.080e+00,7.460e+00,7.369e+00,5.523e+00,8.116e+00,7.592e+00,4.629e+00,7.455e+00,6.450e+00,7.097e+00,6.874e+00,7.520e+00,6.222e+00,8.691e+00,8.175e+00,6.550e+00,6.217e+00,6.507e+00,7.473e+00,7.220e+00,5.686e+00,7.377e+00,7.111e+00,6.807e+00,5.965e+00,7.366e+00,6.036e+00,8.507e+00,6.530e+00,7.849e+00,8.215e+00,6.231e+00,5.517e+00,8.342e+00,7.826e+00,6.523e+00,7.130e+00,6.755e+00,6.773e+00,8.707e+00,6.913e+00,7.107e+00,7.338e+00,7.340e+00,7.160e+00,6.816e+00,6.170e+00,8.195e+00,7.842e+00,6.991e+00,6.436e+00,7.501e+00,7.654e+00,7.097e+00,8.273e+00,7.499e+00,7.462e+00,9.138e+00,7.632e+00,7.278e+00,6.189e+00,8.047e+00,6.418e+00,6.926e+00,8.433e+00,8.853e+00,6.541e+00,6.820e+00,6.879e+00,7.046e+00,6.747e+00,8.628e+00,6.810e+00,8.005e+00
9.883e-02,2.202e-01,2.210e-01,7.915e-01,7.173e-01,1.299e+00,1.014e+00,2.565e+00,1.408e+00,2.716e+00,1.632e+00,1.991e+00,3.520e+00,2.592e+00,2.800e+00,3.649e+00,4.852e+00,3.852e+00,3.533e+00,4.820e+00,4.737e+00,4.685e+00,4.992e+00,6.101e+00,8.221e+00,7.275e+00,7.704e+00,6.146e+00,7.298e+00,8.291e+00,6.067e+00,8.669e+00,7.731e+00,9.154e+00,8.673e+00,9.179e+00,7.786e+00,9.560e+00,8.623e+00,7.019e+00,7.192e+00,8.158e+00,7.529e+00,8.022e+00,8.564e+00,8.724e+00,8.580e+00,8.127e+00,6.859e+00,8.153e+00,6.812e+00,8.367e+00,8.074e+00,8.435e+00,8.213e+00,7.397e+00,7.268e+00,8.845e+00,8.258e+00,7.982e+00,7.880e+00,8.062e+00,8.253e+00,9.850e+00,7.743e+00,7.693e+00,9.369e+00,8.627e+00,7.170e+00,6.110e+00,6.949e+00,7.805e+00,8.410e+00,8.860e+00,7.452e+00,8.913e+00,8.801e+00,8.274e+00,8.635e+00,7.930e+00,8.443e+00,9.181e+00,9.294e+00,7.747e+00,7.059e+00,1.002e+01,8.292e+00,7.039e+00,8.089e+00,9.589e+00,6.948e+00,8.888e+00,6.731e+00,7.254e+00,7.628e+00,8.038e+00,6.897e+00,9.026e+00
4.463e-01,6.120e-01,6.091e-01,6.754e-01,6.836e-01,1.405e+00,1.387e+00,2.620e+00,9.105e-01,2.911e+00,1.859e+00,2.506e+00,3.805e+00,2.299e+00,2.780e+00,4.571e+00,5.866e+00,4.206e+00,4.366e+00,6.398e+00,5.365e+00,5.323e+00,6.408e+00,6.936e+00,7.452e+00,7.806e+00,7.401e+00,5.740e+00,7.768e+00,7.281e+00,6.791e+00,9.642e+00,8.816e+00,8.605e+00,9.942e+00,1.005e+01,8.350e+00,9.105e+00,7.955e+00,7.327e+00,6.927e+00,8.736e+00,6.897e+00,7.846e+00,7.427e+00,8.458e+00,8.132e+00,8.905e+00,7.618e+00,8.375e+00,7.836e+00,8.867e+00,8.033e+00,7.280e+00,8.251e+00,6.899e+00,7.482e+00,8.683e+00,9.060e+00,8.672e+00,8.426e+00,7.576e+00,7.249e+00,9.960e+00,7.109e+00,8.119e+00,7.879e+00,8.759e+00,8.373e+00,6.276e+00,6.875e+00,7.439e+00,9.482e+00,9.111e+00,8.976e+00,7.741e+00,9.046e+00,9.140e+00,8.223e+00,8.118e+00,8.264e+00,8.542e+00,9.003e+00,7.973e+00,8.090e+00,9.813e+00,7.677e+00,7.689e+00,8.851e+00,9.179e+00,8.367e+00,9.341e+00,7.106e+00,7.740e+00,6.717e+00,8.916e+00,8.974e+00,7.667e+00
1.204e-01,3.605e-01,4.014e-01,4.357e-01,4.222e-01,1.143e+00,1.067e+00,2.422e+00,1.279e+00,2.892e+00,1.413e+00,2.079e+00,3.329e+00,2.077e+00,1.843e+00,3.246e+00,4.162e+00,3.191e+00,3.380e+00,4.205e+00,3.966e+00,4.935e+00,5.380e+00,5.421e+00,6.525e+00,6.988e+00,6.707e+00,5.450e+00,7.275e+00,7.818e+00,6.338e+00,9.385e+00,8.435e+00,9.669e+00,1.007e+01,1.036e+01,8.515e+00,1.056e+01,8.554e+00,8.311e+00,7.447e+00,9.524e+00,7.936e+00,8.797e+00,7.400e+00,8.977e+00,9.030e+00,9.050e+00,8.656e+00,8.993e+00,7.695e+00,8.311e+00,7.691e+00,8.477e+00,9.205e+00,7.169e+00,8.804e+00,8.771e+00,8.019e+00,8.872e+00,8.230e+00,9.529e+00,8.990e+00,9.997e+00,8.288e+00,7.970e+00,8.393e+00,9.307e+00,7.534e+00,6.213e+00,7.420e+00,8.243e+00,9.635e+00,9.021e+00,8.863e+00,9.785e+00,1.038e+01,8.808e+00,9.511e+00,8.875e+00,8.680e+00,1.000e+01,1.022e+01,8.089e+00,8.934e+00,1.085e+01,9.067e+00,8.319e+00,9.113e+00,9.601e+00,7.453e+00,9.339e+00,7.464e+00,8.390e+00,8.646e+00,9.418e+00,8.185e+00,9.177e+00
4.712e-01,7.985e-01,7.016e-01,1.154e+00,1.079e+00,1.633e+00,2.008e+00,3.637e+00,1.982e+00,4.078e+00,2.852e+00,3.324e+00,5.154e+00,3.111e+00,3.672e+00,4.366e+00,6.344e+00,5.325e+00,4.965e+00,7.351e+00,6.187e+00,6.285e+00,7.226e+00,7.998e+00,8.686e+00,8.702e+00,8.343e+00,6.915e+00,8.822e+00,9.312e+00,6.536e+00,9.701e+00,8.783e+00,9.256e+00,1.110e+01,1.061e+01,9.055e+00,1.036e+01,9.358e+00,8.597e+00,7.303e+00,9.515e+00,9.434e+00,1.037e+01,8.712e+00,1.032e+01,1.030e+01,1.009e+01,8.454e+00,9.719e+00,8.224e+00,1.016e+01,9.528e+00,9.555e+00,1.038e+01,9.445e+00,9.084e+00,9.997e+00,9.523e+00,1.062e+01,8.893e+00,8.426e+00,8.395e+00,1.232e+01,8.980e+00,8.828e+00,9.235e+00,1.007e+01,1.002e+01,8.557e+00,7.914e+00,9.961e+00,9.695e+00,9.604e+00,9.707e+00,9.592e+00,9.266e+00,1.006e+01,1.129e+01,1.038e+01,9.888e+00,1.029e+01,1.019e+01,9.021e+00,9.082e+00,1.082e+01,8.564e+00,8.671e+00,9.502e+00,1.027e+01,7.980e+00,1.043e+01,9.440e+00,9.478e+00,8.757e+00,1.053e+01,8.616e+00,9.460e+00
4.453e-01,8.965e-01,8.134e-01,1.391e+00,1.264e+00,1.712e+00,2.218e+00,3.708e+00,2.031e+00,3.298e+00,2.950e+00,3.551e+00,4.421e+00,3.112e+00,3.577e+00,4.095e+00,5.212e+00,4.456e+00,4.174e+00,6.425e+00,5.240e+00,5.839e+00,6.298e+00,6.578e+00,8.670e+00,8.172e+00,8.154e+00,6.694e+00,7.845e+00,9.300e+00,6.641e+00,1.032e+01,9.098e+00,9.654e+00,1.189e+01,1.009e+01,8.279e+00,1.164e+01,9.989e+00,8.936e+00,8.694e+00,9.956e+00,1.034e+01,1.006e+01,9.225e+00,1.059e+01,1.080e+01,9.706e+00,8.686e+00,1.025e+01,8.704e+00,9.992e+00,9.061e+00,1.011e+01,1.072e+01,8.845e+00,9.751e+00,1.106e+01,9.117e+00,9.544e+00,9.183e+00,9.482e+00,9.184e+00,1.152e+01,9.657e+00,1.037e+01,1.030e+01,1.040e+01,1.088e+01,8.013e+00,9.636e+00,8.855e+00,1.067e+01,1.010e+01,9.364e+00,1.037e+01,1.051e+01,1.055e+01,1.020e+01,1.033e+01,8.763e+00,1.121e+01,1.084e+01,9.960e+00,9.358e+00,1.206e+01,1.008e+01,9.107e+00,8.528e+00,1.152e+01,9.114e+00,1.035e+01,8.637e+00,9.197e+00,9.907e+00,9.991e+00,9.653e+00,1.132e+01
6.533e-01,1.072e+00,9.249e-01,1.123e+00,1.018e+00,1.247e+00,2.116e+00,3.073e+00,1.931e+00,3.440e+00,2.988e+00,3.555e+00,4.498e+00,2.700e+00,3.929e+00,3.931e+00,5.290e+00,4.867e+00,4.754e+00,7.361e+00,6.248e+00,5.478e+00,6.588e+00,7.364e+00,8.460e+00,8.558e+00,8.531e+00,6.526e+00,8.336e+00,8.606e+00,8.051e+00,1.203e+01,9.958e+00,9.662e+00,1.285e+01,1.219e+01,9.529e+00,1.170e+01,1.091e+01,9.049e+00,8.995e+00,1.106e+01,1.005e+01,1.069e+01,9.776e+00,1.172e+01,9.948e+00,1.125e+01,8.757e+00,1.078e+01,9.976e+00,1.137e+01,9.835e+00,9.612e+00,1.101e+01,9.285e+00,9.751e+00,1.152e+01,1.017e+01,9.882e+00,1.003e+01,9.740e+00,9.021e+00,1.277e+01,1.010e+01,1.151e+01,1.029e+01,1.084e+01,1.073e+01,7.816e+00,1.035e+01,1.091e+01,1.275e+01,1.057e+01,1.084e+01,1.145e+01,1.153e+01,1.153e+01,1.108e+01,1.055e+01,1.021e+01,9.823e+00,1.163e+01,9.212e+00,9.613e+00,1.264e+01,1.184e+01,1.081e+01,1.030e+01,1.111e+01,1.145e+01,1.115e+01,9.398e+00,9.937e+00,9.305e+00,1.139e+01,1.107e+01,9.622e+00
6.880e-01,8.634e-01,7.391e-01,9.094e-01,8.716e-01,1.021e+00,1.451e+00,2.232e+00,1.373e+00,2.345e+00,2.086e+00,1.999e+00,2.840e+00,1.721e+00,2.179e+00,2.718e+00,3.669e+00,3.287e+00,3.019e+00,5.134e+00,4.125e+00,3.542e+00,4.633e+00,5.241e+00,6.833e+00,6.448e+00,7.198e+00,5.156e+00,5.825e+00,7.175e+00,5.428e+00,8.731e+00,6.954e+00,7.888e+00,9.678e+00,9.085e+00,8.415e+00,1.096e+01,8.594e+00,8.253e+00,8.543e+00,9.413e+00,7.526e+00,9.995e+00,8.110e+00,9.809e+00,9.536e+00,8.254e+00,7.699e+00,9.980e+00,8.893e+00,9.558e+00,7.425e+00,8.299e+00,8.728e+00,7.500e+00,8.403e+00,9.395e+00,8.925e+00,8.289e+00,7.990e+00,7.882e+00,7.276e+00,9.485e+00,9.324e+00,9.813e+00,7.871e+00,9.713e+00,8.835e+00,6.851e+00,8.492e+00,8.228e+00,1.027e+01,8.326e+00,7.854e+00,1.057e+01,8.635e+00,1.047e+01,8.845e+00,9.527e+00,6.740e+00,9.359e+00,9.586e+00,8.296e+00,8.180e+00,9.507e+00,9.873e+00,9.197e+00,8.287e+00,1.018e+01,9.319e+00,1.021e+01,7.701e+00,9.420e+00,7.878e+00,9.429e+00,8.554e+00,8.114e+00
4.784e-01,8.020e-01,6.579e-01,1.043e+00,9.267e-01,1.305e+00,1.887e+00,3.003e+00,1.840e+00,3.472e+00,2.561e+00,2.650e+00,4.552e+00,2.800e+00,3.678e+00,4.870e+00,6.572e+00,5.442e+00,4.879e+00,7.715e+00,6.096e+00,6.183e+00,6.429e+00,8.348e+00,9.324e+00,8.274e+00,9.029e+00,6.856e+00,8.588e+00,9.286e+00,6.189e+00,1.043e+01,9.131e+00,9.789e+00,1.158e+01,1.087e+01,1.047e+01,1.180e+01,1.023e+01,1.029e+01,8.736e+00,1.086e+01,9.475e+00,1.133e+01,1.013e+01,1.100e+01,1.108e+01,9.953e+00,9.462e+00,1.084e+01,9.825e+00,1.163e+01,9.440e+00,1.029e+01,1.163e+01,9.237e+00,9.446e+00,1.147e+01,1.118e+01,1.081e+01,1.032e+01,8.438e+00,9.649e+00,1.267e+01,1.023e+01,1.100e+01,9.487e+00,1.114e+01,1.133e+01,1.021e+01,8.924e+00,1.033e+01,1.123e+01,1.087e+01,9.706e+00,1.086e+01,9.542e+00,1.119e+01,1.124e+01,1.160e+01,9.659e+00,1.128e+01,1.116e+01,1.010e+01,1.030e+01,1.206e+01,9.589e+00,9.934e+00,1.079e+01,1.200e+01,9.645e+00,1.178e+01,9.681e+00,1.092e+01,9.656e+00,1.230e+01,1.034e+01,9.115e+00
6.539e-01,9.385e-01,7.753e-01,1.529e+00,1.394e+00,1.687e+00,1.913e+00,3.068e+00,1.143e+00,2.569e+00,2.326e+00,2.862e+00,4.002e+00,2.605e+00,2.788e+00,4.264e+00,5.321e+00,4.102e+00,3.911e+00,5.234e+00,5.417e+00,4.162e+00,4.366e+00,4.992e+00,5.644e+00,6.188e+00,6.069e+00,5.832e+00,6.680e+00,7.157e+00,5.487e+00,7.959e+00,7.153e+00,7.988e+00,9.304e+00,8.819e+00,7.537e+00,1.127e+01,8.850e+00,7.807e+00,8.948e+00,8.740e+00,7.891e+00,9.038e+00,8.587e+00,9.567e+00,9.422e+00,8.213e+00,7.080e+00,8.873e+00,7.297e+00,9.902e+00,7.921e+00,8.818e+00,9.199e+00,8.624e+00,8.238e+00,8.859e+00,9.162e+00,9.039e+00,7.829e+00,7.719e+00,8.265e+00,1.079e+01,9.449e+00,9.468e+00,8.475e+00,9.517e+00,8.673e+00,7.949e+00,8.065e+00,8.615e+00,9.245e+00,9.139e+00,8.363e+00,9.987e+00,8.124e+00,1.014e+01,9.432e+00,9.899e+00,8.447e+00,9.050e+00,9.721e+00,8.770e+00,8.479e+00,1.049e+01,9.541e+00,8.861e+00,9.201e+00,9.350e+00,9.077e+00,9.177e+00,9.463e+00,8.843e+00,7.926e+00,9.153e+00,8.503e+00,9.057e+00
2.552e-01,4.184e-01,3.833e-01,4.895e-01,4.770e-01,8.278e-01,1.235e+00,1.930e+00,1.361e+00,3.071e+00,2.004e+00,2.936e+00,4.741e+00,2.173e+00,3.075e+00,4.696e+00,5.743e+00,4.941e+00,4.458e+00,6.539e+00,5.896e+00,5.997e+00,5.963e+00,7.990e+00,8.894e+00,8.541e+00,8.525e+00,5.829e+00,8.813e+00,8.792e+00,6.205e+00,9.692e+00,7.426e+00,9.456e+00,1.078e+01,9.602e+00,9.885e+00,1.209e+01,1.092e+01,1.015e+01,8.735e+00,1.011e+01,9.431e+00,1.146e+01,9.696e+00,1.208e+01,1.145e+01,1.062e+01,9.366e+00,1.079e+01,9.447e+00,1.160e+01,9.576e+00,1.168e+01,1.219e+01,1.014e+01,1.022e+01,1.114e+01,1.232e+01,1.009e+01,1.027e+01,9.446e+00,9.801e+00,1.224e+01,1.001e+01,9.883e+00,1.055e+01,1.261e+01,1.070e+01,9.423e+00,9.104e+00,9.958e+00,1.209e+01,1.119e+01,1.038e+01,1.179e+01,1.016e+01,1.167e+01,1.066e+01,1.023e+01,8.958e+00,1.217e+01,1.181e+01,1.122e+01,1.056e+01,1.151e+01,1.056e+01,9.075e+00,1.147e+01,1.241e+01,1.065e+01,1.073e+01,1.020e+01,1.053e+01,1.047e+01,1.222e+01,8.923e+00,9.950e+00
3.901e-01,6.975e-01,6.940e-01,1.450e+00,1.296e+00,1.740e+00,1.433e+00,2.873e+00,1.654e+00,2.681e+00,1.928e+00,1.927e+00,3.614e+00,2.331e+00,2.915e+00,4.274e+00,5.809e+00,4.702e+00,3.528e+00,5.597e+00,4.481e+00,5.456e+00,5.616e+00,6.847e+00,8.405e+00,7.394e+00,7.604e+00,5.797e+00,7.222e+00,8.766e+00,7.025e+00,9.758e+00,8.332e+00,1.000e+01,1.067e+01,9.941e+00,9.688e+00,1.150e+01,9.711e+00,1.015e+01,8.299e+00,1.062e+01,8.226e+00,1.091e+01,1.064e+01,1.124e+01,1.174e+01,9.821e+00,9.004e+00,1.158e+01,8.947e+00,1.133e+01,9.146e+00,1.116e+01,1.172e+01,9.445e+00,1.025e+01,1.160e+01,1.143e+01,9.461e+00,9.372e+00,9.974e+00,9.975e+00,1.175e+01,9.242e+00,1.014e+01,1.024e+01,1.210e+01,1.052e+01,1.045e+01,1.013e+01,9.768e+00,1.039e+01,1.073e+01,9.992e+00,1.102e+01,1.001e+01,1.068e+01,1.170e+01,1.175e+01,1.003e+01,1.126e+01,1.133e+01,9.850e+00,9.614e+00,1.178e+01,1.092e+01,9.971e+00,1.175e+01,1.145e+01,1.004e+01,1.162e+01,9.652e+00,1.011e+01,9.981e+00,1.127e+01,9.108e+00,9.329e+00
2.902e-01,6.235e-01,5.000e-01,7.699e-01,6.832e-01,7.776e-01,1.259e+00,2.342e+00,2.083e+00,2.953e+00,2.117e+00,2.469e+00,3.954e+00,2.228e+00,2.760e+00,3.216e+00,4.119e+00,4.056e+00,3.818e+00,4.358e+00,4.224e+00,4.314e+00,3.916e+00,4.729e+00,5.792e+00,5.339e+00,5.813e+00,4.631e+00,4.619e+00,5.713e+00,4.652e+00,7.352e+00,5.529e+00,6.918e+00,7.880e+00,7.564e+00,6.309e+00,8.576e+00,8.304e+00,7.684e+00,8.055e+00,8.764e+00,6.633e+00,8.887e+00,7.203e+00,9.329e+00,8.586e+00,7.650e+00,6.949e+00,8.644e+00,7.630e+00,8.809e+00,7.167e+00,9.381e+00,8.941e+00,7.455e+00,7.581e+00,8.127e+00,7.759e+00,7.659e+00,6.783e+00,8.474e+00,7.899e+00,1.010e+01,7.470e+00,7.716e+00,8.367e+00,8.828e+00,8.381e+00,7.453e+00,7.666e+00,8.590e+00,8.245e+00,8.085e+00,7.439e+00,7.989e+00,7.962e+00,7.287e+00,8.982e+00,7.885e+00,7.534e+00,8.080e+00,9.130e+00,7.944e+00,8.705e+00,1.047e+01,8.748e+00,6.720e+00,9.429e+00,9.111e+00,7.612e+00,9.608e+00,8.606e+00,8.532e+00,7.821e+00,9.002e+00,6.667e+00,8.153e+00
6.266e-01,9.098e-01,6.989e-01,1.046e+00,9.665e-01,1.135e+00,1.826e+00,2.421e+00,1.304e+00,3.119e+00,2.075e+00,2.242e+00,3.339e+00,1.803e+00,2.087e+00,2.389e+00,3.589e+00,3.454e+00,2.939e+00,4.538e+00,4.079e+00,3.964e+00,5.574e+00,5.596e+00,6.316e+00,6.213e+00,7.152e+00,6.169e+00,6.868e+00,8.042e+00,6.117e+00,7.207e+00,8.223e+00,8.633e+00,9.162e+00,8.589e+00,9.395e+00,1.029e+01,9.049e+00,9.043e+00,8.232e+00,1.023e+01,9.085e+00,1.135e+01,9.277e+00,1.123e+01,1.098e+01,1.101e+01,9.204e+00,1.035e+01,9.929e+00,1.100e+01,8.754e+00,1.028e+01,9.806e+00,9.614e+00,1.066e+01,1.083e+01,1.082e+01,9.561e+00,8.212e+00,9.592e+00,1.030e+01,1.217e+01,9.962e+00,8.317e+00,1.008e+01,1.160e+01,1.061e+01,7.746e+00,9.464e+00,1.082e+01,1.070e+01,9.918e+00,9.754e+00,1.063e+01,1.040e+01,1.018e+01,1.050e+01,1.051e+01,1.002e+01,1.046e+01,1.118e+01,9.053e+00,9.881e+00,1.201e+01,1.016e+01,9.735e+00,1.030e+01,1.160e+01,9.042e+00,1.123e+01,1.011e+01,1.026e+01,9.388e+00,1.123e+01,9.531e+00,9.473e+00
2.303e-01,7.644e-01,5.643e-01,9.070e-01,7.799e-01,1.153e+00,1.797e+00,3.106e+00,1.435e+00,2.854e+00,2.106e+00,2.358e+00,2.942e+00,2.537e+00,2.370e+00,3.000e+00,3.882e+00,3.316e+00,2.845e+00,4.843e+00,3.568e+00,4.171e+00,5.595e+00,5.637e+00,5.979e+00,5.962e+00,6.534e+00,4.787e+00,5.711e+00,7.112e+00,4.836e+00,8.611e+00,7.798e+00,7.858e+00,1.051e+01,8.328e+00,8.239e+00,1.039e+01,8.264e+00,8.412e+00,8.310e+00,1.051e+01,8.466e+00,1.113e+01,8.981e+00,1.113e+01,1.138e+01,1.080e+01,9.877e+00,1.081e+01,1.101e+01,1.093e+01,8.801e+00,1.038e+01,1.118e+01,9.846e+00,1.049e+01,1.108e+01,1.031e+01,1.011e+01,8.958e+00,1.058e+01,9.745e+00,1.139e+01,9.767e+00,9.784e+00,9.790e+00,1.131e+01,1.041e+01,8.470e+00,1.007e+01,1.035e+01,1.055e+01,9.323e+00,1.030e+01,1.047e+01,1.056e+01,1.140e+01,1.146e+01,1.089e+01,9.564e+00,1.026e+01,1.091e+01,9.478e+00,1.017e+01,1.179e+01,1.033e+01,9.378e+00,1.011e+01,1.125e+01,1.050e+01,1.111e+01,1.009e+01,1.011e+01,9.659e+00,1.101e+01,1.010e+01,1.007e+01
4.631e-01,8.296e-01,7.451e-01,1.234e+00,1.125e+00,1.403e+00,1.381e+00,2.335e+00,1.017e+00,2.784e+00,1.725e+00,2.913e+00,3.818e+00,1.915e+00,2.869e+00,4.176e+00,5.597e+00,4.206e+00,3.932e+00,5.657e+00,5.613e+00,4.974e+00,6.134e+00,7.050e+00,8.292e+00,8.114e+00,6.765e+00,5.885e+00,8.854e+00,7.695e+00,7.802e+00,9.952e+00,8.796e+00,1.042e+01,1.162e+01,1.141e+01,1.042e+01,1.312e+01,1.212e+01,1.128e+01,1.051e+01,1.115e+01,1.143e+01,1.330e+01,1.281e+01,1.443e+01,1.189e+01,1.202e+01,1.049e+01,1.322e+01,1.134e+01,1.368e+01,1.129e+01,1.292e+01,1.305e+01,1.223e+01,1.248e+01,1.364e+01,1.331e+01,1.149e+01,1.194e+01,1.158e+01,1.205e+01,1.410e+01,1.204e+01,1.228e+01,1.276e+01,1.504e+01,1.279e+01,1.112e+01,1.144e+01,1.338e+01,1.384e+01,1.265e+01,1.405e+01,1.434e+01,1.291e+01,1.365e+01,1.302e+01,1.303e+01,1.167e+01,1.271e+01,1.375e+01,1.169e+01,1.232e+01,1.476e+01,1.344e+01,1.288e+01,1.318e+01,1.407e+01,1.218e+01,1.373e+01,1.327e+01,1.222e+01,1.198e+01,1.323e+01,1.114e+01,1.183e+01
1.312e-02,5.220e-01,5.395e-01,9.243e-01,6.766e-01,9.986e-01,1.565e+00,2.553e+00,2.382e+00,3.136e+00,2.208e+00,2.474e+00,4.392e+00,2.849e+00,3.503e+00,4.198e+00,5.497e+00,5.079e+00,4.887e+00,6.581e+00,6.112e+00,5.308e+00,4.882e+00,6.765e+00,8.278e+00,8.093e+00,7.033e+00,5.994e+00,8.041e+00,8.347e+00,5.578e+00,9.456e+00,8.077e+00,8.838e+00,9.714e+00,1.058e+01,8.419e+00,1.096e+01,1.019e+01,1.010e+01,1.019e+01,9.837e+00,9.569e+00,1.283e+01,1.035e+01,1.281e+01,1.234e+01,1.072e+01,9.933e+00,1.216e+01,9.469e+00,1.238e+01,1.163e+01,1.160e+01,1.234e+01,1.159e+01,1.070e+01,1.196e+01,1.153e+01,1.181e+01,9.500e+00,1.135e+01,1.079e+01,1.350e+01,1.148e+01,1.183e+01,1.074e+01,1.193e+01,1.114e+01,1.058e+01,1.030e+01,1.226e+01,1.253e+01,1.140e+01,1.181e+01,1.336e+01,1.116e+01,1.265e+01,1.272e+01,1.260e+01,1.063e+01,1.241e+01,1.145e+01,1.177e+01,1.163e+01,1.337e+01,1.130e+01,1.141e+01,1.207e+01,1.230e+01,1.003e+01,1.307e+01,1.274e+01,1.179e+01,1.124e+01,1.278e+01,9.717e+00,1.108e+01
8.949e-03,6.775e-02,5.044e-02,2.416e-01,2.410e-01,5.555e-01,7.734e-01,1.269e+00,8.751e-01,2.186e+00,1.323e+00,1.803e+00,3.326e+00,1.700e+00,2.356e+00,3.184e+00,3.653e+00,3.732e+00,3.617e+00,4.588e+00,4.955e+00,4.311e+00,4.780e+00,6.249e+00,7.200e+00,7.142e+00,7.091e+00,5.231e+00,6.750e+00,7.847e+00,5.584e+00,9.288e+00,7.690e+00,9.284e+00,1.032e+01,9.171e+00,9.942e+00,1.111e+01,9.724e+00,8.538e+00,9.108e+00,1.051e+01,9.573e+00,1.260e+01,1.043e+01,1.155e+01,1.196e+01,1.205e+01,9.674e+00,1.085e+01,1.153e+01,1.308e+01,1.100e+01,1.148e+01,1.258e+01,1.074e+01,1.182e+01,1.196e+01,1.219e+01,1.145e+01,9.810e+00,1.059e+01,1.220e+01,1.373e+01,1.045e+01,1.008e+01,1.141e+01,1.308e+01,1.054e+01,9.438e+00,9.347e+00,1.105e+01,1.279e+01,1.108e+01,1.213e+01,1.255e+01,1.163e+01,1.247e+01,1.153e+01,1.213e+01,9.684e+00,1.116e+01,1.210e+01,1.163e+01,1.076e+01,1.395e+01,1.049e+01,1.010e+01,1.136e+01,1.243e+01,1.104e+01,1.211e+01,1.148e+01,1.136e+01,1.149e+01,1.252e+01,1.004e+01,1.060e+01
4.229e-01,6.820e-01,6.709e-01,8.131e-01,7.775e-01,1.128e+00,1.827e+00,2.866e+00,1.814e+00,2.675e+00,2.989e+00,3.259e+00,4.321e+00,2.776e+00,3.965e+00,4.157e+00,5.066e+00,4.301e+00,4.751e+00,6.203e+00,5.842e+00,4.975e+00,5.064e+00,6.606e+00,8.111e+00,7.478e+00,7.266e+00,5.629e+00,6.856e+00,7.116e+00,6.109e+00,9.342e+00,8.199e+00,8.440e+00,1.001e+01,8.892e+00,8.436e+00,1.140e+01,9.606e+00,8.744e+00,9.875e+00,1.073e+01,9.474e+00,1.113e+01,9.541e+00,1.177e+01,1.174e+01,1.295e+01,1.186e+01,1.236e+01,1.253e+01,1.350e+01,1.187e+01,1.202e+01,1.247e+01,1.150e+01,1.095e+01,1.294e+01,1.344e+01,1.172e+01,9.860e+00,1.205e+01,1.103e+01,1.373e+01,1.116e+01,1.232e+01,1.134e+01,1.339e+01,1.282e+01,1.112e+01,1.187e+01,1.213e+01,1.381e+01,1.131e+01,1.302e+01,1.176e+01,1.201e+01,1.309e+01,1.354e+01,1.273e+01,1.065e+01,1.225e+01,1.300e+01,1.204e+01,1.210e+01,1.414e+01,1.198e+01,1.230e+01,1.243e+01,1.367e+01,1.138e+01,1.272e+01,1.147e+01,1.213e+01,1.262e+01,1.345e+01,1.116e+01,1.145e+01
1.934e-01,5.519e-01,6.376e-01,7.082e-01,5.657e-01,1.357e+00,1.978e+00,2.664e+00,1.403e+00,2.849e+00,2.014e+00,2.155e+00,3.333e+00,2.552e+00,2.735e+00,3.692e+00,4.763e+00,4.158e+00,3.950e+00,6.319e+00,4.991e+00,5.231e+00,5.910e+00,5.991e+00,7.249e+00,8.162e+00,7.153e+00,6.034e+00,7.359e+00,8.568e+00,5.231e+00,9.346e+00,8.330e+00,8.428e+00,1.030e+01,9.600e+00,7.284e+00,1.167e+01,8.702e+00,9.022e+00,9.658e+00,1.102e+01,9.834e+00,1.215e+01,1.064e+01,1.304e+01,1.265e+01,1.348e+01,1.121e+01,1.307e+01,1.196e+01,1.334e+01,1.231e+01,1.176e+01,1.274e+01,1.296e+01,1.195e+01,1.380e+01,1.229e+01,1.206e+01,1.004e+01,1.254e+01,1.161e+01,1.432e+01,1.127e+01,1.307e+01,1.335e+01,1.410e+01,1.194e+01,1.144e+01,1.181e+01,1.307e+01,1.333e+01,1.137e+01,1.318e+01,1.373e+01,1.205e+01,1.367e+01,1.370e+01,1.456e+01,1.178e+01,1.250e+01,1.329e+01,1.110e+01,1.174e+01,1.388e+01,1.206e+01,1.249e+01,1.203e+01,1.396e+01,1.164e+01,1.379e+01,1.289e+01,1.266e+01,1.344e+01,1.324e+01,1.164e+01,1.321e+01
6.162e-01,6.292e-01,7.393e-01,9.220e-01,9.930e-01,1.990e+00,2.133e+00,3.805e+00,1.614e+00,3.565e+00,3.268e+00,3.781e+00,5.299e+00,3.400e+00,3.755e+00,4.734e+00,5.677e+00,4.951e+00,4.715e+00,7.089e+00,5.345e+00,5.740e+00,6.125e+00,6.683e+00,8.561e+00,8.180e+00,9.208e+00,6.100e+00,8.059e+00,8.602e+00,6.729e+00,9.549e+00,8.354e+00,8.672e+00,1.126e+01,9.806e+00,9.275e+00,1.213e+01,8.936e+00,9.785e+00,9.438e+00,1.208e+01,9.484e+00,1.157e+01,9.776e+00,1.260e+01,1.291e+01,1.195e+01,1.155e+01,1.291e+01,1.347e+01,1.331e+01,1.228e+01,1.295e+01,1.468e+01,1.176e+01,1.143e+01,1.355e+01,1.283e+01,1.200e+01,1.170e+01,1.336e+01,1.154e+01,1.475e+01,1.241e+01,1.315e+01,1.345e+01,1.488e+01,1.396e+01,1.259e+01,1.200e+01,1.322e+01,1.360e+01,1.338e+01,1.279e+01,1.405e+01,1.261e+01,1.439e+01,1.439e+01,1.368e+01,1.088e+01,1.443e+01,1.415e+01,1.218e+01,1.340e+01,1.346e+01,1.317e+01,1.187e+01,1.437e+01,1.402e+01,1.210e+01,1.419e+01,1.193e+01,1.489e+01,1.313e+01,1.496e+01,1.210e+01,1.279e+01
8.419e-02,5.456e-01,6.118e-01,7.405e-01,5.330e-01,1.143e+00,1.441e+00,2.579e+00,1.810e+00,2.520e+00,1.718e+00,1.792e+00,3.152e+00,2.485e+00,2.401e+00,3.706e+00,4.779e+00,4.314e+00,3.856e+00,6.068e+00,4.915e+00,5.767e+00,5.227e+00,6.182e+00,6.655e+00,6.922e+00,6.350e+00,4.764e+00,7.316e+00,6.727e+00,5.304e+00,8.807e+00,7.114e+00,7.770e+00,8.708e+00,9.566e+00,6.937e+00,1.066e+01,7.956e+00,7.915e+00,8.715e+00,9.606e+00,8.607e+00,1.030e+01,7.622e+00,1.198e+01,9.943e+00,1.166e+01,9.545e+00,1.182e+01,1.093e+01,1.126e+01,1.034e+01,1.079e+01,1.149e+01,1.052e+01,1.037e+01,1.154e+01,1.087e+01,9.282e+00,8.747e+00,1.174e+01,1.137e+01,1.275e+01,1.005e+01,1.157e+01,1.125e+01,1.321e+01,1.080e+01,1.091e+01,1.121e+01,1.115e+01,1.356e+01,1.134e+01,1.096e+01,1.163e+01,1.133e+01,1.115e+01,1.246e+01,1.215e+01,1.059e+01,1.118e+01,1.126e+01,9.600e+00,1.016e+01,1.296e+01,1.111e+01,1.118e+01,1.186e+01,1.138e+01,1.014e+01,1.156e+01,9.994e+00,1.210e+01,1.172e+01,1.273e+01,1.073e+01,1.139e+01
3.076e-01,7.685e-01,8.129e-01,1.304e+00,1.078e+00,1.438e+00,1.962e+00,2.968e+00,2.426e+00,3.144e+00,2.869e+00,2.883e+00,4.528e+00,2.923e+00,3.679e+00,3.950e+00,4.748e+00,5.200e+00,4.145e+00,6.943e+00,5.626e+00,5.196e+00,4.521e+00,6.345e+00,7.652e+00,7.715e+00,7.238e+00,5.269e+00,7.193e+00,7.675e+00,6.310e+00,9.702e+00,7.311e+00,7.766e+00,8.784e+00,9.475e+00,7.767e+00,1.087e+01,9.292e+00,8.479e+00,9.374e+00,9.814e+00,9.293e+00,1.131e+01,9.651e+00,1.185e+01,1.122e+01,1.137e+01,9.079e+00,1.215e+01,1.165e+01,1.282e+01,1.184e+01,1.120e+01,1.316e+01,1.095e+01,1.088e+01,1.211e+01,1.154e+01,1.082e+01,9.201e+00,1.090e+01,1.176e+01,1.374e+01,1.117e+01,1.206e+01,1.247e+01,1.359e+01,1.225e+01,1.107e+01,1.161e+01,1.191e+01,1.380e+01,1.247e+01,1.198e+01,1.326e+01,1.265e+01,1.194e+01,1.228e+01,1.252e+01,1.134e+01,1.200e+01,1.113e+01,1.076e+01,1.035e+01,1.324e+01,1.222e+01,1.109e+01,1.211e+01,1.259e+01,1.222e+01,1.268e+01,1.127e+01,1.206e+01,1.131e+01,1.321e+01,1.108e+01,1.142e+01
4.847e-02,3.638e-01,3.102e-01,7.445e-01,5.846e-01,6.571e-01,1.215e+00,1.603e+00,1.165e+00,1.764e+00,1.625e+00,2.362e+00,3.236e+00,1.872e+00,2.351e+00,3.226e+00,3.844e+00,3.567e+00,2.952e+00,4.939e+00,4.622e+00,4.318e+00,3.588e+00,5.399e+00,5.504e+00,5.901e+00,5.234e+00,3.800e+00,6.024e+00,5.852e+00,4.175e+00,7.426e+00,6.311e+00,6.829e+00,7.750e+00,6.894e+00,7.857e+00,9.810e+00,8.435e+00,8.294e+00,8.492e+00,8.153e+00,7.751e+00,1.077e+01,7.923e+00,1.066e+01,1.059e+01,1.098e+01,1.015e+01,1.089e+01,1.189e+01,1.241e+01,1.158e+01,1.180e+01,1.358e+01,1.080e+01,1.120e+01,1.227e+01,1.317e+01,1.068e+01,1.039e+01,1.093e+01,1.122e+01,1.225e+01,1.181e+01,1.083e+01,1.135e+01,1.452e+01,1.257e+01,1.184e+01,1.072e+01,1.190e+01,1.339e+01,1.160e+01,1.216e+01,1.264e+01,1.097e+01,1.080e+01,1.175e+01,1.217e+01,1.153e+01,1.260e+01,1.248e+01,1.097e+01,1.189e+01,1.204e+01,1.097e+01,1.186e+01,1.332e+01,1.171e+01,1.236e+01,1.135e+01,1.120e+01,1.259e+01,1.230e+01,1.351e+01,9.739e+00,1.101e+01
3.152e-01,5.028e-01,6.404e-01,7.613e-01,7.562e-01,1.598e+00,1.883e+00,2.762e+00,1.639e+00,3.625e+00,2.335e+00,2.803e+00,4.711e+00,2.406e+00,3.109e+00,4.588e+00,5.980e+00,5.122e+00,4.400e+00,6.291e+00,4.907e+00,6.727e+00,5.904e+00,6.654e+00,7.849e+00,7.454e+00,7.255e+00,5.673e+00,7.287e+00,8.266e+00,6.493e+00,9.736e+00,8.639e+00,1.029e+01,1.001e+01,9.833e+00,8.759e+00,1.289e+01,1.143e+01,1.061e+01,9.349e+00,9.751e+00,1.048e+01,1.165e+01,1.024e+01,1.277e+01,1.285e+01,1.233e+01,1.152e+01,1.387e+01,1.235e+01,1.334e+01,1.451e+01,1.320e+01,1.531e+01,1.387e+01,1.316e+01,1.544e+01,1.376e+01,1.387e+01,1.279e+01,1.359e+01,1.341e+01,1.498e+01,1.365e+01,1.402e+01,1.499e+01,1.713e+01,1.448e+01,1.350e+01,1.323e+01,1.279e+01,1.531e+01,1.371e+01,1.489e+01,1.628e+01,1.307e+01,1.374e+01,1.489e+01,1.573e+01,1.273e+01,1.570e+01,1.491e+01,1.295e+01,1.422e+01,1.419e+01,1.345e+01,1.347e+01,1.448e+01,1.518e+01,1.255e+01,1.417e+01,1.257e+01,1.351e+01,1.434e+01,1.495e+01,1.200e+01,1.443e+01
1.333e-01,6.207e-01,6.184e-01,7.442e-01,5.645e-01,9.571e-01,1.870e+00,2.128e+00,1.575e+00,3.204e+00,2.250e+00,2.869e+00,4.610e+00,2.385e+00,3.388e+00,4.288e+00,5.175e+00,5.348e+00,4.682e+00,6.902e+00,6.386e+00,5.467e+00,5.622e+00,7.141e+00,7.303e+00,8.334e+00,6.707e+00,5.656e+00,8.313e+00,7.282e+00,5.460e+00,9.554e+00,7.535e+00,7.979e+00,9.614e+00,9.962e+00,8.432e+00,1.183e+01,9.730e+00,9.249e+00,8.982e+00,1.055e+01,9.358e+00,1.124e+01,9.680e+00,1.223e+01,1.183e+01,1.183e+01,1.024e+01,1.216e+01,1.130e+01,1.278e+01,1.304e+01,1.467e+01,1.440e+01,1.344e+01,1.296e+01,1.416e+01,1.320e+01,1.327e+01,1.199e+01,1.142e+01,1.278e+01,1.618e+01,1.237e+01,1.438e+01,1.434e+01,1.684e+01,1.261e+01,1.346e+01,1.281e+01,1.441e+01,1.510e+01,1.332e+01,1.334e+01,1.402e+01,1.386e+01,1.425e+01,1.464e+01,1.501e+01,1.406e+01,1.326e+01,1.381e+01,1.156e+01,1.419e+01,1.340e+01,1.303e+01,1.246e+01,1.240e+01,1.420e+01,1.414e+01,1.441e+01,1.372e+01,1.373e+01,1.247e+01,1.543e+01,1.110e+01,1.298e+01
5.735e-01,7.310e-01,7.435e-01,7.258e-01,6.838e-01,1.310e+00,1.777e+00,2.318e+00,9.619e-01,2.521e+00,1.823e+00,1.700e+00,2.388e+00,1.812e+00,2.418e+00,3.019e+00,4.564e+00,3.345e+00,2.965e+00,5.425e+00,3.354e+00,4.031e+00,4.363e+00,5.183e+00,5.640e+00,4.903e+00,5.920e+00,4.762e+00,5.888e+00,6.553e+00,5.787e+00,6.828e+00,8.176e+00,8.185e+00,8.216e+00,8.173e+00,7.620e+00,9.592e+00,8.754e+00,8.140e+00,8.424e+00,9.579e+00,7.999e+00,1.047e+01,9.832e+00,1.170e+01,1.197e+01,1.126e+01,1.117e+01,1.290e+01,1.270e+01,1.158e+01,1.370e+01,1.101e+01,1.250e+01,1.329e+01,1.218e+01,1.400e+01,1.382e+01,1.320e+01,1.188e+01,1.324e+01,1.321e+01,1.455e+01,1.410e+01,1.342e+01,1.537e+01,1.513e+01,1.441e+01,1.230e+01,1.366e+01,1.330e+01,1.580e+01,1.309e+01,1.452e+01,1.518e+01,1.212e+01,1.371e+01,1.415e+01,1.466e+01,1.308e+01,1.560e+01,1.356e+01,1.252e+01,1.322e+01,1.420e+01,1.250e+01,1.454e+01,1.353e+01,1.465e+01,1.247e+01,1.388e+01,1.199e+01,1.242e+01,1.374e+01,1.421e+01,1.241e+01,1.227e+01
5.379e-01,5.051e-01,3.955e-01,5.850e-01,7.159e-01,8.552e-01,9.317e-01,2.035e+00,1.169e+00,2.726e+00,2.193e+00,3.013e+00,4.503e+00,1.762e+00,2.647e+00,3.391e+00,4.227e+00,3.763e+00,3.715e+00,4.188e+00,4.333e+00,4.147e+00,4.233e+00,5.044e+00,5.736e+00,5.191e+00,6.338e+00,4.715e+00,5.498e+00,5.988e+00,4.935e+00,7.034e+00,5.066e+00,6.824e+00,8.664e+00,7.640e+00,7.045e+00,9.522e+00,8.554e+00,7.009e+00,6.982e+00,9.128e+00,7.706e+00,8.784e+00,8.975e+00,1.035e+01,1.064e+01,1.039e+01,9.603e+00,1.002e+01,1.079e+01,1.141e+01,1.057e+01,1.169e+01,1.221e+01,1.099e+01,1.112e+01,1.181e+01,1.174e+01,1.187e+01,9.531e+00,1.123e+01,1.226e+01,1.329e+01,1.152e+01,1.225e+01,1.248e+01,1.377e+01,1.210e+01,1.186e+01,1.177e+01,1.123e+01,1.231e+01,1.181e+01,1.317e+01,1.213e+01,1.090e+01,1.240e+01,1.294e+01,1.172e+01,9.823e+00,1.244e+01,1.200e+01,1.197e+01,1.127e+01,1.196e+01,1.238e+01,1.178e+01,1.286e+01,1.143e+01,1.097e+01,1.239e+01,1.082e+01,1.226e+01,1.201e+01,1.264e+01,1.059e+01,1.121e+01
9.707e-02,3.445e-01,3.394e-01,9.074e-01,7.718e-01,1.273e+00,9.182e-01,2.375e+00,1.682e+00,2.645e+00,1.253e+00,1.440e+00,3.320e+00,2.136e+00,2.621e+00,3.914e+00,5.510e+00,3.748e+00,3.661e+00,5.103e+00,4.381e+00,5.613e+00,4.380e+00,5.878e+00,6.907e+00,6.374e+00,5.319e+00,4.771e+00,6.908e+00,6.426e+00,5.319e+00,8.267e+00,7.319e+00,9.250e+00,8.058e+00,8.874e+00,8.287e+00,1.068e+01,8.917e+00,9.304e+00,9.223e+00,9.260e+00,9.314e+00,1.060e+01,9.472e+00,1.228e+01,1.051e+01,9.638e+00,9.486e+00,1.173e+01,1.050e+01,1.133e+01,1.101e+01,1.104e+01,1.216e+01,1.267e+01,1.303e+01,1.318e+01,1.298e+01,1.283e+01,1.172e+01,1.186e+01,1.384e+01,1.371e+01,1.335e+01,1.215e+01,1.337e+01,1.499e+01,1.279e+01,1.264e+01,1.159e+01,1.361e+01,1.519e+01,1.366e+01,1.270e+01,1.437e+01,1.289e+01,1.223e+01,1.322e+01,1.423e+01,1.189e+01,1.482e+01,1.291e+01,1.212e+01,1.296e+01,1.408e+01,1.240e+01,1.287e+01,1.388e+01,1.348e+01,1.117e+01,1.388e+01,1.191e+01,1.455e+01,1.294e+01,1.447e+01,1.206e+01,1.277e+01
5.396e-01,5.125e-01,5.288e-01,8.012e-01,8.824e-01,1.603e+00,1.350e+00,3.236e+00,1.263e+00,2.770e+00,2.351e+00,2.829e+00,3.655e+00,2.607e+00,2.508e+00,3.523e+00,4.770e+00,3.580e+00,3.446e+00,6.227e+00,4.284e+00,4.899e+00,5.088e+00,6.151e+00,7.815e+00,6.759e+00,7.769e+00,5.117e+00,6.766e+00,7.253e+00,5.363e+00,8.371e+00,7.000e+00,7.096e+00,9.068e+00,8.326e+00,7.554e+00,1.044e+01,7.661e+00,7.773e+00,7.317e+00,9.876e+00,8.296e+00,9.825e+00,9.706e+00,1.022e+01,1.068e+01,1.065e+01,9.700e+00,1.065e+01,1.184e+01,1.224e+01,1.035e+01,1.167e+01,1.274e+01,1.063e+01,1.130e+01,1.227e+01,1.333e+01,1.166e+01,1.139e+01,1.205e+01,1.271e+01,1.450e+01,1.290e+01,1.263e+01,1.424e+01,1.406e+01,1.336e+01,1.130e+01,1.371e+01,1.275e+01,1.427e+01,1.292e+01,1.318e+01,1.396e+01,1.304e+01,1.471e+01,1.372e+01,1.332e+01,1.100e+01,1.487e+01,1.369e+01,1.308e+01,1.185e+01,1.393e+01,1.128e+01,1.375e+01,1.301e+01,1.339e+01,1.087e+01,1.293e+01,1.095e+01,1.366e+01,1.286e+01,1.474e+01,1.221e+01,1.212e+01
3.102e-01,5.880e-01,5.595e-01,8.066e-01,7.664e-01,1.183e+00,1.719e+00,2.579e+00,1.185e+00,2.575e+00,2.395e+00,3.229e+00,3.943e+00,2.462e+00,3.208e+00,3.898e+00,4.678e+00,4.557e+00,4.006e+00,6.032e+00,5.108e+00,5.455e+00,6.701e+00,6.721e+00,7.908e+00,7.416e+00,8.083e+00,5.721e+00,7.652e+00,7.710e+00,6.182e+00,9.020e+00,8.167e+00,8.143e+00,1.002e+01,8.874e+00,7.798e+00,1.129e+01,9.644e+00,7.230e+00,7.362e+00,8.833e+00,8.899e+00,9.780e+00,9.140e+00,1.111e+01,1.070e+01,1.169e+01,9.747e+00,1.194e+01,1.148e+01,1.194e+01,1.272e+01,1.275e+01,1.351e+01,1.414e+01,1.230e+01,1.563e+01,1.396e+01,1.402e+01,1.413e+01,1.473e+01,1.448e+01,1.563e+01,1.432e+01,1.597e+01,1.636e+01,1.614e+01,1.534e+01,1.446e+01,1.458e+01,1.594e+01,1.738e+01,1.428e+01,1.591e+01,1.597e+01,1.452e+01,1.534e+01,1.590e+01,1.540e+01,1.408e+01,1.559e+01,1.444e+01,1.430e+01,1.524e+01,1.430e+01,1.516e+01,1.585e+01,1.483e+01,1.591e+01,1.410e+01,1.343e+01,1.248e+01,1.425e+01,1.548e+01,1.629e+01,1.472e+01,1.510e+01
4.878e-01,8.615e-01,8.517e-01,1.615e+00,1.393e+00,1.954e+00,2.360e+00,3.394e+00,1.615e+00,2.835e+00,2.694e+00,2.356e+00,3.692e+00,2.867e+00,3.024e+00,3.736e+00,4.919e+00,4.258e+00,3.145e+00,5.863e+00,5.244e+00,4.796e+00,4.621e+00,6.136e+00,7.022e+00,7.436e+00,6.325e+00,5.008e+00,6.088e+00,7.171e+00,5.823e+00,9.281e+00,8.226e+00,8.389e+00,9.433e+00,7.960e+00,9.179e+00,1.042e+01,7.696e+00,8.332e+00,8.699e+00,9.665e+00,9.038e+00,1.143e+01,9.551e+00,1.188e+01,1.114e+01,1.179e+01,9.932e+00,1.218e+01,1.241e+01,1.325e+01,1.147e+01,1.179e+01,1.321e+01,1.357e+01,1.336e+01,1.348e+01,1.421e+01,1.287e+01,1.326e+01,1.335e+01,1.538e+01,1.629e+01,1.430e+01,1.348e+01,1.445e+01,1.645e+01,1.470e+01,1.416e+01,1.522e+01,1.484e+01,1.673e+01,1.360e+01,1.544e+01,1.515e+01,1.467e+01,1.429e+01,1.489e+01,1.572e+01,1.394e+01,1.495e+01,1.389e+01,1.391e+01,1.408e+01,1.562e+01,1.420e+01,1.445e+01,1.552e+01,1.503e+01,1.374e+01,1.423e+01,1.227e+01,1.623e+01,1.481e+01,1.665e+01,1.303e+01,1.435e+01
7.127e-01,1.119e+00,1.002e+00,1.458e+00,1.289e+00,1.705e+00,2.065e+00,3.266e+00,1.963e+00,3.286e+00,2.469e+00,2.059e+00,3.748e+00,2.513e+00,3.257e+00,4.152e+00,5.871e+00,4.863e+00,4.190e+00,6.127e+00,4.984e+00,5.694e+00,6.219e+00,6.798e+00,7.616e+00,7.185e+00,7.164e+00,5.773e+00,6.983e+00,7.530e+00,6.413e+00,8.353e+00,7.758e+00,9.148e+00,9.320e+00,9.176e+00,9.195e+00,1.102e+01,9.224e+00,9.078e+00,8.924e+00,9.515e+00,8.534e+00,1.121e+01,9.601e+00,1.247e+01,1.010e+01,1.076e+01,1.029e+01,1.319e+01,1.154e+01,1.237e+01,1.225e+01,1.201e+01,1.247e+01,1.198e+01,1.195e+01,1.307e+01,1.294e+01,1.259e+01,1.347e+01,1.360e+01,1.522e+01,1.652e+01,1.517e+01,1.338e+01,1.415e+01,1.606e+01,1.568e+01,1.588e+01,1.338e+01,1.527e+01,1.645e+01,1.412e+01,1.554e+01,1.510e+01,1.330e+01,1.355e+01,1.550e+01,1.509e+01,1.405e+01,1.509e+01,1.385e+01,1.297e+01,1.441e+01,1.508e+01,1.374e+01,1.347e+01,1.520e+01,1.647e+01,1.395e+01,1.556e+01,1.381e+01,1.549e+01,1.476e+01,1.532e+01,1.283e+01,1.348e+01
5.229e-01,5.908e-01,4.884e-01,1.057e+00,1.049e+00,1.529e+00,1.468e+00,2.794e+00,1.375e+00,3.465e+00,2.026e+00,2.951e+00,4.562e+00,2.361e+00,2.858e+00,3.705e+00,5.252e+00,4.662e+00,3.904e+00,5.760e+00,4.786e+00,5.799e+00,5.871e+00,6.667e+00,7.743e+00,7.536e+00,8.515e+00,6.248e+00,7.983e+00,9.554e+00,7.301e+00,9.708e+00,8.214e+00,1.053e+01,1.124e+01,1.014e+01,9.253e+00,1.254e+01,1.071e+01,9.517e+00,9.488e+00,1.131e+01,9.984e+00,1.154e+01,1.086e+01,1.291e+01,1.244e+01,1.278e+01,1.109e+01,1.336e+01,1.236e+01,1.433e+01,1.257e+01,1.324e+01,1.511e+01,1.231e+01,1.418e+01,1.457e+01,1.553e+01,1.327e+01,1.325e+01,1.473e+01,1.575e+01,1.668e+01,1.602e+01,1.487e+01,1.647e+01,1.763e+01,1.497e+01,1.432e+01,1.506e+01,1.673e+01,1.754e+01,1.588e+01,1.554e+01,1.771e+01,1.733e+01,1.678e+01,1.720e+01,1.662e+01,1.493e+01,1.687e+01,1.647e+01,1.522e+01,1.409e+01,1.677e+01,1.686e+01,1.512e+01,1.709e+01,1.680e+01,1.491e+01,1.556e+01,1.490e+01,1.703e+01,1.549e+01,1.636e+01,1.573e+01,1.626e+01
4.776e-01,5.743e-01,6.548e-01,7.223e-01,7.454e-01,1.588e+00,1.493e+00,2.640e+00,1.156e+00,3.091e+00,1.817e+00,2.073e+00,3.747e+00,2.115e+00,2.715e+00,4.034e+00,5.587e+00,4.405e+00,4.022e+00,5.287e+00,4.249e+00,5.313e+00,5.522e+00,6.045e+00,6.816e+00,6.894e+00,6.843e+00,5.228e+00,6.900e+00,7.517e+00,6.143e+00,8.502e+00,7.919e+00,9.989e+00,1.081e+01,9.293e+00,9.200e+00,1.270e+01,1.036e+01,9.452e+00,1.015e+01,1.125e+01,1.039e+01,1.191e+01,1.050e+01,1.301e+01,1.162e+01,1.234e+01,1.086e+01,1.329e+01,1.350e+01,1.310e+01,1.345e+01,1.362e+01,1.406e+01,1.465e+01,1.347e+01,1.442e+01,1.371e+01,1.376e+01,1.458e+01,1.503e+01,1.745e+01,1.737e+01,1.519e+01,1.673e+01,1.697e+01,1.883e+01,1.605e+01,1.610e+01,1.528e+01,1.764e+01,1.714e+01,1.562e+01,1.621e+01,1.766e+01,1.612e+01,1.575e+01,1.750e+01,1.824e+01,1.567e+01,1.574e+01,1.641e+01,1.480e+01,1.655e+01,1.743e+01,1.545e+01,1.616e+01,1.713e+01,1.766e+01,1.489e+01,1.677e+01,1.547e+01,1.724e+01,1.638e+01,1.705e+01,1.579e+01,1.636e+01
3.453e-01,3.572e-01,5.124e-01,4.286e-01,4.563e-01,1.341e+00,1.361e+00,2.469e+00,1.092e+00,2.763e+00,1.945e+00,1.926e+00,3.521e+00,2.295e+00,1.945e+00,3.536e+00,4.542e+00,3.741e+00,3.550e+00,5.366e+00,4.703e+00,4.508e+00,5.185e+00,5.642e+00,6.972e+00,6.908e+00,7.020e+00,5.448e+00,7.371e+00,7.933e+00,6.784e+00,9.291e+00,8.033e+00,9.666e+00,1.119e+01,1.112e+01,9.319e+00,1.249e+01,9.283e+00,1.010e+01,1.049e+01,1.129e+01,1.048e+01,1.388e+01,1.113e+01,1.386e+01,1.338e+01,1.291e+01,1.167e+01,1.522e+01,1.432e+01,1.402e+01,1.405e+01,1.405e+01,1.544e+01,1.519e+01,1.576e+01,1.443e+01,1.511e+01,1.602e+01,1.501e+01,1.592e+01,1.703e+01,1.901e+01,1.727e+01,1.771e+01,1.868e+01,2.104e+01,1.644e+01,1.674e+01,1.660e+01,1.809e+01,1.893e+01,1.839e+01,1.779e+01,2.046e+01,1.844e+01,1.775e+01,1.911e+01,1.860e+01,1.601e+01,1.777e+01,1.738e+01,1.678e+01,1.741e+01,1.823e+01,1.793e+01,1.702e+01,1.839e+01,1.801e+01,1.437e+01,1.928e+01,1.669e+01,2.011e+01,1.726e+01,1.963e+01,1.689e+01,1.861e+01
5.167e-01,6.835e-01,7.212e-01,1.208e+00,1.139e+00,1.894e+00,1.716e+00,3.451e+00,1.674e+00,3.141e+00,2.372e+00,2.693e+00,4.016e+00,2.898e+00,2.985e+00,4.171e+00,5.688e+00,4.809e+00,4.196e+00,7.155e+00,5.118e+00,5.894e+00,5.842e+00,6.704e+00,7.894e+00,7.785e+00,7.774e+00,5.519e+00,7.036e+00,8.067e+00,6.401e+00,1.027e+01,8.144e+00,8.646e+00,1.020e+01,1.026e+01,8.662e+00,1.135e+01,8.915e+00,8.798e+00,8.638e+00,1.047e+01,8.805e+00,1.128e+01,9.711e+00,1.251e+01,1.202e+01,1.087e+01,9.333e+00,1.237e+01,1.130e+01,1.142e+01,1.157e+01,1.229e+01,1.343e+01,1.311e+01,1.258e+01,1.318e+01,1.226e+01,1.264e+01,1.319e+01,1.515e+01,1.579e+01,1.728e+01,1.498e+01,1.563e+01,1.641e+01,1.790e+01,1.555e+01,1.540e+01,1.555e+01,1.706e+01,1.907e+01,1.626e+01,1.585e+01,1.700e+01,1.640e+01,1.712e+01,1.672e+01,1.633e+01,1.464e+01,1.620e+01,1.521e+01,1.512e+01,1.542e+01,1.644e+01,1.577e+01,1.506e+01,1.596e+01,1.688e+01,1.417e+01,1.567e+01,1.414e+01,1.613e+01,1.582e+01,1.819e+01,1.500e+01,1.623e+01
3.900e-01,4.456e-01,4.361e-01,1.018e+00,9.589e-01,1.560e+00,1.285e+00,2.978e+00,1.769e+00,3.087e+00,2.021e+00,2.326e+00,3.871e+00,2.754e+00,3.252e+00,4.010e+00,5.705e+00,4.284e+00,4.245e+00,6.913e+00,5.230e+00,5.661e+00,5.379e+00,7.101e+00,9.053e+00,7.947e+00,7.779e+00,5.597e+00,7.069e+00,7.669e+00,5.697e+00,8.783e+00,7.693e+00,8.141e+00,8.798e+00,8.777e+00,9.019e+00,1.107e+01,8.747e+00,9.532e+00,9.201e+00,9.522e+00,9.146e+00,1.155e+01,9.921e+00,1.264e+01,1.192e+01,1.099e+01,1.023e+01,1.293e+01,1.182e+01,1.299e+01,1.155e+01,1.286e+01,1.337e+01,1.344e+01,1.191e+01,1.429e+01,1.473e+01,1.264e+01,1.261e+01,1.395e+01,1.494e+01,1.729e+01,1.412e+01,1.550e+01,1.550e+01,1.785e+01,1.617e+01,1.626e+01,1.470e+01,1.646e+01,1.790e+01,1.594e+01,1.509e+01,1.681e+01,1.465e+01,1.645e+01,1.688e+01,1.546e+01,1.398e+01,1.638e+01,1.537e+01,1.454e+01,1.524e+01,1.674e+01,1.417e+01,1.529e+01,1.688e+01,1.771e+01,1.358e+01,1.595e+01,1.464e+01,1.741e+01,1.574e+01,1.810e+01,1.489e+01,1.527e+01
2.037e-01,5.560e-01,6.852e-01,1.052e+00,9.220e-01,1.776e+00,1.693e+00,2.622e+00,1.568e+00,3.384e+00,1.831e+00,2.577e+00,4.156e+00,2.508e+00,3.238e+00,4.988e+00,5.739e+00,5.246e+00,3.939e+00,6.508e+00,4.298e+00,5.937e+00,5.103e+00,6.204e+00,7.681e+00,7.435e+00,7.010e+00,4.752e+00,6.642e+00,6.668e+00,5.662e+00,8.966e+00,7.016e+00,8.146e+00,8.949e+00,8.555e+00,7.831e+00,1.165e+01,1.023e+01,9.505e+00,8.866e+00,1.024e+01,9.175e+00,1.073e+01,1.028e+01,1.225e+01,1.195e+01,1.055e+01,1.012e+01,1.305e+01,1.258e+01,1.316e+01,1.204e+01,1.257e+01,1.464e+01,1.346e+01,1.193e+01,1.485e+01,1.356e+01,1.294e+01,1.292e+01,1.448e+01,1.490e+01,1.674e+01,1.477e+01,1.781e+01,1.881e+01,1.945e+01,1.625e+01,1.736e+01,1.619e+01,1.707e+01,1.846e+01,1.560e+01,1.620e+01,1.790e+01,1.753e+01,1.719e+01,1.744e+01,1.672e+01,1.540e+01,1.698e+01,1.528e+01,1.681e+01,1.671e+01,1.696e+01,1.625e+01,1.686e+01,1.699e+01,1.863e+01,1.502e+01,1.654e+01,1.670e+01,1.757e+01,1.688e+01,1.899e+01,1.522e+01,1.617e+01
7.023e-01,7.760e-01,6.228e-01,1.218e+00,1.268e+00,1.560e+00,1.760e+00,3.167e+00,1.274e+00,3.422e+00,2.821e+00,3.865e+00,5.130e+00,2.629e+00,3.146e+00,4.342e+00,5.897e+00,4.746e+00,4.373e+00,6.311e+00,6.092e+00,5.457e+00,5.943e+00,7.126e+00,8.131e+00,7.591e+00,7.881e+00,6.588e+00,7.286e+00,8.465e+00,7.175e+00,1.030e+01,8.612e+00,9.594e+00,1.099e+01,9.921e+00,9.556e+00,1.226e+01,1.136e+01,9.883e+00,9.741e+00,1.145e+01,1.040e+01,1.210e+01,1.212e+01,1.333e+01,1.326e+01,1.245e+01,1.080e+01,1.366e+01,1.304e+01,1.338e+01,1.215e+01,1.452e+01,1.487e+01,1.629e+01,1.451e+01,1.584e+01,1.629e+01,1.577e+01,1.503e+01,1.573e+01,1.834e+01,1.961e+01,1.605e+01,1.689e+01,1.943e+01,2.105e+01,1.781e+01,1.712e+01,1.720e+01,1.921e+01,2.062e+01,1.833e+01,1.919e+01,2.002e+01,1.805e+01,1.820e+01,2.051e+01,1.655e+01,1.727e+01,1.927e+01,1.794e+01,1.861e+01,1.890e+01,2.009e+01,1.820e+01,1.799e+01,1.968e+01,1.952e+01,1.645e+01,1.874e+01,1.669e+01,1.811e+01,1.895e+01,2.130e+01,1.696e+01,1.774e+01
3.431e-01,3.299e-01,3.667e-01,4.274e-01,4.598e-01,1.143e+00,1.217e+00,2.356e+00,1.425e+00,2.902e+00,1.814e+00,1.736e+00,3.212e+00,2.182e+00,2.369e+00,3.091e+00,4.183e+00,3.286e+00,3.080e+00,4.480e+00,3.544e+00,4.191e+00,4.334e+00,5.176e+00,6.700e+00,5.792e+00,7.142e+00,4.957e+00,5.796e+00,6.759e+00,5.761e+00,7.487e+00,7.380e+00,9.128e+00,8.945e+00,8.654e+00,8.593e+00,1.156e+01,9.176e+00,9.422e+00,8.946e+00,1.025e+01,8.355e+00,1.186e+01,9.384e+00,1.236e+01,1.232e+01,1.087e+01,1.100e+01,1.244e+01,1.228e+01,1.271e+01,1.219e+01,1.267e+01,1.314e+01,1.345e+01,1.341e+01,1.420e+01,1.435e+01,1.400e+01,1.315e+01,1.513e+01,1.485e+01,1.594e+01,1.534e+01,1.461e+01,1.652e+01,1.838e+01,1.550e+01,1.620e+01,1.465e+01,1.740e+01,2.005e+01,1.622e+01,1.625e+01,1.762e+01,1.644e+01,1.853e+01,1.841e+01,1.693e+01,1.502e+01,1.815e+01,1.598e+01,1.708e+01,1.646e+01,1.848e+01,1.650e+01,1.638e+01,1.632e+01,1.849e+01,1.362e+01,1.685e+01,1.568e+01,1.872e+01,1.761e+01,1.853e+01,1.561e+01,1.668e+01
3.129e-01,6.189e-01,6.786e-01,1.381e+00,1.268e+00,1.776e+00,1.596e+00,2.682e+00,1.611e+00,3.081e+00,1.919e+00,2.485e+00,4.103e+00,2.033e+00,2.862e+00,3.620e+00,5.038e+00,4.231e+00,3.009e+00,4.446e+00,3.540e+00,4.915e+00,4.063e+00,5.063e+00,6.409e+00,6.397e+00,5.227e+00,4.202e+00,5.690e+00,6.617e+00,4.617e+00,7.169e+00,6.001e+00,7.730e+00,8.336e+00,6.237e+00,7.719e+00,1.061e+01,9.111e+00,8.550e+00,7.903e+00,8.224e+00,9.210e+00,9.391e+00,9.117e+00,1.042e+01,9.853e+00,1.037e+01,1.030e+01,1.119e+01,1.092e+01,1.153e+01,1.059e+01,1.174e+01,1.267e+01,1.300e+01,1.072e+01,1.242e+01,1.260e+01,1.128e+01,1.244e+01,1.308e+01,1.409e+01,1.458e+01,1.271e+01,1.419e+01,1.463e+01,1.661e+01,1.468e+01,1.560e+01,1.296e+01,1.591e+01,1.694e+01,1.365e+01,1.447e+01,1.726e+01,1.417e+01,1.415e+01,1.658e+01,1.561e+01,1.328e+01,1.588e+01,1.410e+01,1.410e+01,1.573e+01,1.481e+01,1.417e+01,1.475e+01,1.564e+01,1.595e+01,1.230e+01,1.401e+01,1.433e+01,1.601e+01,1.715e+01,1.670e+01,1.425e+01,1.492e+01
1.654e-01,3.906e-01,5.014e-01,5.948e-01,5.037e-01,1.225e+00,1.336e+00,2.274e+00,1.832e+00,3.462e+00,1.833e+00,2.190e+00,4.111e+00,2.394e+00,2.578e+00,3.930e+00,4.714e+00,4.849e+00,3.689e+00,5.742e+00,4.491e+00,5.334e+00,4.253e+00,6.139e+00,6.685e+00,6.591e+00,7.387e+00,4.607e+00,6.039e+00,6.045e+00,4.953e+00,7.053e+00,5.956e+00,6.842e+00,6.767e+00,7.481e+00,6.776e+00,9.323e+00,8.019e+00,7.228e+00,7.262e+00,9.637e+00,7.485e+00,1.039e+01,9.056e+00,1.192e+01,1.172e+01,1.152e+01,1.101e+01,1.184e+01,1.276e+01,1.255e+01,1.242e+01,1.330e+01,1.362e+01,1.330e+01,1.210e+01,1.454e+01,1.301e+01,1.215e+01,1.178e+01,1.519e+01,1.606e+01,1.625e+01,1.340e+01,1.530e+01,1.706e+01,1.868e+01,1.550e+01,1.725e+01,1.632e+01,1.880e+01,2.014e+01,1.765e+01,1.741e+01,1.724e+01,1.762e+01,1.849e+01,2.018e+01,1.697e+01,1.560e+01,1.794e+01,1.554e+01,1.734e+01,1.581e+01,1.635e+01,1.606e+01,1.715e+01,1.802e+01,1.813e+01,1.435e+01,1.677e+01,1.704e+01,1.854e+01,1.744e+01,1.969e+01,1.579e+01,1.757e+01
1.246e-01,6.109e-01,5.960e-01,8.971e-01,7.441e-01,1.401e+00,1.939e+00,3.014e+00,1.652e+00,3.512e+00,2.152e+00,2.884e+00,4.234e+00,2.751e+00,2.811e+00,3.962e+00,5.199e+00,4.888e+00,4.022e+00,6.300e+00,5.032e+00,6.192e+00,6.318e+00,7.067e+00,7.296e+00,7.552e+00,7.287e+00,5.528e+00,7.372e+00,7.562e+00,5.184e+00,8.357e+00,8.175e+00,8.799e+00,9.804e+00,8.713e+00,8.898e+00,1.211e+01,9.672e+00,9.455e+00,8.797e+00,9.497e+00,9.627e+00,1.131e+01,8.768e+00,1.216e+01,1.218e+01,1.214e+01,1.132e+01,1.183e+01,1.169e+01,1.227e+01,1.172e+01,1.285e+01,1.329e+01,1.283e+01,1.208e+01,1.485e+01,1.368e+01,1.309e+01,1.308e+01,1.459e+01,1.458e+01,1.572e+01,1.505e+01,1.472e+01,1.539e+01,1.805e+01,1.694e+01,1.672e+01,1.542e+01,1.737e+01,1.913e+01,1.687e+01,1.722e+01,1.701e+01,1.635e+01,1.847e+01,1.841e+01,1.803e+01,1.626e+01,1.748e+01,1.719e+01,1.586e+01,1.710e+01,1.738e+01,1.591e+01,1.664e+01,1.623e+01,1.908e+01,1.387e+01,1.649e+01,1.691e+01,1.748e+01,1.659e+01,1.908e+01,1.698e+01,1.794e+01
3.633e-01,6.701e-01,7.036e-01,1.058e+00,9.293e-01,1.337e+00,1.392e+00,2.415e+00,1.535e+00,2.845e+00,1.942e+00,2.141e+00,3.837e+00,2.056e+00,2.780e+00,3.898e+00,5.713e+00,4.699e+00,4.020e+00,6.606e+00,5.417e+00,5.394e+00,5.907e+00,7.197e+00,8.411e+00,7.858e+00,6.941e+00,5.975e+00,8.617e+00,8.701e+00,6.917e+00,9.951e+00,8.541e+00,9.607e+00,1.036e+01,1.144e+01,9.758e+00,1.236e+01,1.058e+01,1.046e+01,9.905e+00,1.017e+01,9.714e+00,1.228e+01,1.151e+01,1.338e+01,1.325e+01,1.257e+01,1.141e+01,1.489e+01,1.217e+01,1.349e+01,1.359e+01,1.315e+01,1.408e+01,1.393e+01,1.400e+01,1.519e+01,1.639e+01,1.514e+01,1.336e+01,1.353e+01,1.678e+01,1.789e+01,1.638e+01,1.779e+01,1.770e+01,2.072e+01,1.720e+01,1.794e+01,1.870e+01,1.729e+01,2.250e+01,2.032e+01,2.077e+01,2.082e+01,1.877e+01,2.013e+01,2.047e+01,1.997e+01,1.883e+01,2.016e+01,1.810e+01,1.959e+01,1.877e+01,1.913e+01,1.842e+01,2.042e+01,1.863e+01,2.034e+01,1.558e+01,1.951e+01,1.905e+01,2.017e+01,1.794e+01,2.079e+01,1.880e+01,1.856e+01
5.998e-01,7.997e-01,6.701e-01,9.113e-01,8.488e-01,1.261e+00,1.806e+00,3.176e+00,1.978e+00,3.386e+00,2.753e+00,2.885e+00,4.630e+00,3.014e+00,3.666e+00,4.595e+00,6.149e+00,4.985e+00,5.214e+00,7.299e+00,6.577e+00,5.937e+00,6.180e+00,7.462e+00,8.217e+00,8.233e+00,8.484e+00,6.383e+00,8.019e+00,8.120e+00,6.573e+00,1.007e+01,8.726e+00,9.640e+00,1.058e+01,1.045e+01,9.129e+00,1.159e+01,9.965e+00,8.971e+00,1.035e+01,1.062e+01,9.594e+00,1.160e+01,9.147e+00,1.346e+01,1.181e+01,1.181e+01,1.030e+01,1.397e+01,1.254e+01,1.371e+01,1.345e+01,1.288e+01,1.414e+01,1.422e+01,1.304e+01,1.405e+01,1.488e+01,1.441e+01,1.362e+01,1.434e+01,1.506e+01,1.732e+01,1.490e+01,1.699e+01,1.723e+01,1.935e+01,1.672e+01,1.785e+01,1.668e+01,1.810e+01,2.191e+01,2.065e+01,1.894e+01,2.053e+01,1.918e+01,2.166e+01,1.978e+01,1.957e+01,1.897e+01,2.039e+01,1.971e+01,1.976e+01,1.861e+01,2.028e+01,1.799e+01,1.847e+01,1.965e+01,2.116e+01,1.688e+01,1.944e+01,1.982e+01,2.008e+01,2.004e+01,2.317e+01,1.845e+01,2.096e+01
3.010e-01,3.610e-01,3.586e-01,5.479e-01,5.364e-01,1.103e+00,9.428e-01,2.000e+00,7.492e-01,2.356e+00,1.200e+00,1.504e+00,2.365e+00,1.694e+00,1.366e+00,2.208e+00,3.257e+00,3.172e+00,2.034e+00,4.085e+00,2.405e+00,3.170e+00,3.858e+00,4.219e+00,4.291e+00,3.950e+00,6.491e+00,3.878e+00,4.198e+00,5.757e+00,3.713e+00,5.523e+00,5.975e+00,6.418e+00,7.702e+00,7.519e+00,7.836e+00,8.762e+00,7.996e+00,7.799e+00,7.871e+00,9.378e+00,6.529e+00,1.082e+01,8.732e+00,1.038e+01,1.087e+01,9.627e+00,8.404e+00,1.050e+01,1.145e+01,1.118e+01,1.027e+01,1.223e+01,1.140e+01,1.058e+01,1.118e+01,1.307e+01,1.141e+01,1.138e+01,1.127e+01,1.216e+01,1.286e+01,1.492e+01,1.380e+01,1.451e+01,1.565e+01,1.768e+01,1.476e+01,1.496e+01,1.592e+01,1.475e+01,1.762e+01,1.763e+01,1.717e+01,1.854e+01,1.655e+01,1.878e+01,1.764e+01,1.783e+01,1.582e+01,1.824e+01,1.543e+01,1.654e+01,1.748e+01,1.705e+01,1.578e+01,1.640e+01,1.655e+01,1.694e+01,1.397e+01,1.776e+01,1.853e+01,1.752e+01,1.706e+01,1.979e+01,1.647e+01,1.633e+01
1.546e-01,2.774e-01,2.999e-01,6.506e-01,5.989e-01,8.416e-01,7.133e-01,1.929e+00,1.121e+00,1.503e+00,1.679e+00,1.890e+00,2.939e+00,1.977e+00,2.306e+00,3.373e+00,4.238e+00,3.381e+00,3.364e+00,5.106e+00,4.886e+00,4.116e+00,4.477e+00,6.192e+00,7.230e+00,6.616e+00,6.794e+00,4.733e+00,6.836e+00,7.373e+00,5.180e+00,8.830e+00,6.934e+00,8.016e+00,9.048e+00,9.508e+00,9.146e+00,1.048e+01,8.243e+00,8.397e+00,8.532e+00,9.528e+00,8.272e+00,1.187e+01,9.618e+00,1.119e+01,1.138e+01,1.098e+01,1.006e+01,1.298e+01,1.112e+01,1.208e+01,1.098e+01,1.272e+01,1.270e+01,1.260e+01,1.283e+01,1.201e+01,1.362e+01,1.318e+01,1.151e+01,1.287e+01,1.352e+01,1.503e+01,1.365e+01,1.517e+01,1.571e+01,1.818e+01,1.532e+01,1.451e+01,1.499e+01,1.551e+01,1.922e+01,1.752e+01,1.779e+01,1.945e+01,1.734e+01,1.839e+01,1.743e+01,1.901e+01,1.703e+01,1.917e+01,1.635e+01,1.799e+01,1.778e+01,1.818e+01,1.649e+01,1.765e+01,1.716e+01,1.696e+01,1.358e+01,1.796e+01,1.689e+01,1.847e+01,1.721e+01,2.148e+01,1.623e+01,1.700e+01
4.562e-01,6.837e-01,5.278e-01,8.987e-01,8.902e-01,1.135e+00,1.569e+00,3.235e+00,2.074e+00,3.398e+00,2.931e+00,3.639e+00,4.759e+00,2.992e+00,3.898e+00,4.265e+00,5.700e+00,5.015e+00,5.007e+00,7.803e+00,6.206e+00,6.546e+00,7.011e+00,8.296e+00,9.944e+00,8.424e+00,8.898e+00,6.316e+00,8.360e+00,8.634e+00,7.166e+00,1.108e+01,8.460e+00,9.936e+00,1.078e+01,1.105e+01,8.993e+00,1.333e+01,1.225e+01,1.032e+01,1.118e+01,1.156e+01,1.153e+01,1.393e+01,1.180e+01,1.461e+01,1.319e+01,1.385e+01,1.177e+01,1.544e+01,1.387e+01,1.556e+01,1.369e+01,1.572e+01,1.589e+01,1.501e+01,1.578e+01,1.732e+01,1.688e+01,1.606e+01,1.521e+01,1.646e+01,1.827e+01,2.001e+01,1.775e+01,1.879e+01,1.939e+01,2.247e+01,2.043e+01,1.990e+01,1.863e+01,2.106e+01,2.420e+01,2.182e+01,2.304e+01,2.301e+01,2.149e+01,2.265e+01,2.235e+01,2.175e+01,2.079e+01,2.304e+01,2.148e+01,2.252e+01,2.212e+01,2.321e+01,2.161e+01,2.230e+01,2.256e+01,2.479e+01,2.022e+01,2.291e+01,2.178e+01,2.220e+01,2.258e+01,2.479e+01,2.247e+01,2.213e+01
1.866e-01,2.789e-01,4.368e-01,8.419e-01,7.633e-01,1.326e+00,9.521e-01,1.919e+00,1.047e+00,1.601e+00,1.357e+00,1.385e+00,2.904e+00,1.774e+00,2.141e+00,3.876e+00,4.863e+00,3.259e+00,3.278e+00,5.052e+00,4.225e+00,4.635e+00,4.126e+00,5.532e+00,7.253e+00,6.991e+00,5.231e+00,4.686e+00,6.561e+00,7.343e+00,5.169e+00,8.191e+00,6.901e+00,8.545e+00,9.516e+00,8.552e+00,8.288e+00,1.037e+01,7.561e+00,9.353e+00,9.074e+00,9.035e+00,8.801e+00,1.162e+01,1.008e+01,1.100e+01,1.193e+01,1.016e+01,1.114e+01,1.349e+01,1.213e+01,1.181e+01,1.289e+01,1.245e+01,1.376e+01,1.298e+01,1.417e+01,1.302e+01,1.531e+01,1.393e+01,1.356e+01,1.319e+01,1.636e+01,1.694e+01,1.550e+01,1.606e+01,1.656e+01,1.942e+01,1.665e+01,1.810e+01,1.611e+01,1.699e+01,2.042e+01,1.862e+01,1.846e+01,2.042e+01,1.713e+01,1.797e+01,1.901e+01,2.003e+01,1.772e+01,2.043e+01,1.750e+01,1.885e+01,2.033e+01,1.930e+01,1.685e+01,1.833e+01,2.040e+01,2.014e+01,1.493e+01,2.037e+01,1.793e+01,2.108e+01,1.927e+01,2.066e+01,1.767e+01,1.897e+01
5.540e-01,4.933e-01,4.235e-01,1.003e+00,1.099e+00,1.545e+00,1.274e+00,2.684e+00,7.939e-01,2.543e+00,2.011e+00,2.611e+00,3.885e+00,2.007e+00,2.210e+00,3.913e+00,5.293e+00,3.846e+00,3.299e+00,4.971e+00,4.413e+00,5.345e+00,5.685e+00,6.405e+00,7.333e+00,6.350e+00,6.832e+00,5.227e+00,6.623e+00,7.588e+00,5.978e+00,8.207e+00,6.950e+00,8.332e+00,9.059e+00,7.310e+00,8.827e+00,1.202e+01,8.934e+00,8.497e+00,8.026e+00,9.535e+00,8.672e+00,1.014e+01,9.128e+00,1.089e+01,1.135e+01,1.138e+01,1.017e+01,1.276e+01,1.267e+01,1.263e+01,1.130e+01,1.196e+01,1.451e+01,1.403e+01,1.212e+01,1.335e+01,1.541e+01,1.330e+01,1.257e+01,1.376e+01,1.610e+01,1.518e+01,1.413e+01,1.467e+01,1.607e+01,1.902e+01,1.628e+01,1.740e+01,1.486e+01,1.657e+01,1.935e+01,1.754e+01,1.726e+01,1.868e+01,1.669e+01,1.774e+01,2.002e+01,1.857e+01,1.774e+01,1.942e+01,1.860e+01,1.869e+01,1.765e+01,1.961e+01,1.759e+01,1.815e+01,1.996e+01,2.093e+01,1.657e+01,1.807e+01,1.637e+01,1.914e+01,1.886e+01,2.015e+01,1.744e+01,1.737e+01
2.905e-01,6.661e-01,7.395e-01,1.409e+00,1.244e+00,1.912e+00,1.996e+00,3.699e+00,2.289e+00,3.744e+00,2.982e+00,3.318e+00,5.272e+00,3.376e+00,3.548e+00,4.647e+00,5.937e+00,5.081e+00,4.182e+00,6.822e+00,5.947e+00,5.656e+00,4.921e+00,6.619e+00,7.879e+00,8.214e+00,6.950e+00,5.511e+00,7.087e+00,6.902e+00,5.436e+00,9.505e+00,7.988e+00,8.371e+00,9.022e+00,9.446e+00,8.369e+00,1.136e+01,9.838e+00,9.320e+00,1.011e+01,1.027e+01,9.751e+00,1.237e+01,9.804e+00,1.202e+01,1.227e+01,1.222e+01,1.110e+01,1.241e+01,1.265e+01,1.365e+01,1.249e+01,1.324e+01,1.317e+01,1.351e+01,1.263e+01,1.401e+01,1.462e+01,1.345e+01,1.261e+01,1.481e+01,1.526e+01,1.775e+01,1.484e+01,1.744e+01,1.770e+01,2.054e+01,1.657e+01,1.773e+01,1.738e+01,1.864e+01,2.094e+01,1.976e+01,2.078e+01,2.192e+01,2.040e+01,2.000e+01,2.133e+01,2.249e+01,2.145e+01,2.176e+01,1.919e+01,2.145e+01,2.177e+01,2.371e+01,1.964e+01,2.097e+01,2.229e+01,2.113e+01,1.628e+01,2.186e+01,2.198e+01,2.224e+01,2.213e+01,2.495e+01,1.968e+01,2.176e+01
2.326e-01,3.792e-01,3.093e-01,4.206e-01,4.398e-01,8.430e-01,9.437e-01,2.619e+00,1.366e+00,2.110e+00,1.975e+00,2.468e+00,3.029e+00,2.431e+00,2.371e+00,2.849e+00,3.454e+00,2.861e+00,3.328e+00,5.167e+00,3.624e+00,3.832e+00,4.210e+00,4.789e+00,5.992e+00,5.280e+00,6.041e+00,4.220e+00,6.331e+00,6.161e+00,4.486e+00,7.266e+00,5.652e+00,6.360e+00,8.806e+00,8.352e+00,6.783e+00,9.430e+00,6.953e+00,7.484e+00,8.566e+00,9.946e+00,8.228e+00,9.945e+00,8.128e+00,1.031e+01,9.852e+00,9.150e+00,1.010e+01,1.164e+01,1.212e+01,1.121e+01,1.042e+01,1.166e+01,1.242e+01,1.122e+01,1.192e+01,1.120e+01,1.190e+01,1.293e+01,1.121e+01,1.158e+01,1.444e+01,1.516e+01,1.385e+01,1.496e+01,1.500e+01,1.689e+01,1.516e+01,1.515e+01,1.515e+01,1.529e+01,1.854e+01,1.623e+01,1.586e+01,1.685e+01,1.735e+01,1.750e+01,1.749e+01,1.700e+01,1.472e+01,1.972e+01,1.597e+01,1.775e+01,1.819e+01,1.815e+01,1.617e+01,1.606e+01,1.700e+01,1.879e+01,1.433e+01,1.828e+01,1.657e+01,1.867e+01,1.805e+01,1.956e+01,1.684e+01,1.685e+01
3.803e-01,8.826e-01,8.401e-01,1.201e+00,1.000e+00,1.460e+00,2.234e+00,2.834e+00,1.424e+00,2.757e+00,2.403e+00,2.189e+00,3.285e+00,2.497e+00,2.586e+00,3.846e+00,4.665e+00,4.484e+00,3.373e+00,5.914e+00,4.880e+00,4.787e+00,5.862e+00,6.096e+00,6.748e+00,6.706e+00,6.546e+00,5.339e+00,5.833e+00,6.741e+00,5.221e+00,8.499e+00,8.035e+00,7.723e+00,9.248e+00,8.653e+00,8.486e+00,1.040e+01,9.031e+00,8.655e+00,8.636e+00,8.998e+00,8.831e+00,1.189e+01,9.415e+00,1.230e+01,1.182e+01,1.147e+01,1.040e+01,1.307e+01,1.274e+01,1.238e+01,1.310e+01,1.294e+01,1.335e+01,1.521e+01,1.425e+01,1.509e+01,1.439e+01,1.546e+01,1.413e+01,1.410e+01,1.557e+01,1.794e+01,1.534e+01,1.788e+01,1.978e+01,2.025e+01,1.732e+01,1.739e+01,1.736e+01,1.819e+01,2.195e+01,1.924e+01,1.885e+01,2.072e+01,1.867e+01,1.970e+01,2.145e+01,2.060e+01,1.885e+01,2.212e+01,1.872e+01,2.182e+01,2.332e+01,2.111e+01,2.010e+01,2.158e+01,2.052e+01,2.143e+01,1.767e+01,2.127e+01,1.953e+01,2.151e+01,2.103e+01,2.366e+01,1.990e+01,2.157e+01
6.601e-01,1.057e+00,8.588e-01,1.087e+00,1.023e+00,1.299e+00,2.089e+00,3.593e+00,2.421e+00,3.695e+00,3.092e+00,3.123e+00,4.441e+00,2.888e+00,3.708e+00,3.579e+00,4.969e+00,3.976e+00,4.599e+00,5.831e+00,5.149e+00,5.137e+00,5.804e+00,6.133e+00,7.774e+00,7.517e+00,7.330e+00,6.110e+00,6.561e+00,8.035e+00,6.654e+00,1.041e+01,8.399e+00,9.858e+00,1.162e+01,1.066e+01,8.658e+00,1.211e+01,1.080e+01,1.081e+01,1.057e+01,1.154e+01,1.018e+01,1.204e+01,1.013e+01,1.336e+01,1.209e+01,1.182e+01,1.114e+01,1.349e+01,1.212e+01,1.294e+01,1.262e+01,1.290e+01,1.427e+01,1.349e+01,1.415e+01,1.441e+01,1.437e+01,1.532e+01,1.351e+01,1.545e+01,1.626e+01,1.831e+01,1.686e+01,1.782e+01,1.835e+01,1.922e+01,1.840e+01,1.870e+01,1.821e+01,2.046e+01,2.261e+01,1.968e+01,1.946e+01,2.256e+01,1.966e+01,2.195e+01,2.147e+01,2.099e+01,1.929e+01,2.277e+01,2.243e+01,2.303e+01,2.342e+01,2.300e+01,2.294e+01,2.261e+01,2.203e+01,2.422e+01,1.738e+01,2.209e+01,2.256e+01,2.412e+01,2.224e+01,2.462e+01,2.159e+01,2.324e+01
7.815e-02,4.987e-01,5.178e-01,1.068e+00,8.955e-01,1.333e+00,1.176e+00,2.661e+00,1.502e+00,2.584e+00,1.653e+00,2.103e+00,3.485e+00,2.430e+00,2.430e+00,4.271e+00,5.916e+00,4.439e+00,3.693e+00,5.857e+00,5.289e+00,5.246e+00,5.810e+00,7.484e+00,8.519e+00,7.780e+00,7.576e+00,5.831e+00,7.929e+00,8.666e+00,5.622e+00,9.221e+00,8.408e+00,9.212e+00,1.081e+01,1.014e+01,9.547e+00,1.191e+01,9.610e+00,9.417e+00,9.349e+00,1.005e+01,9.179e+00,1.303e+01,1.095e+01,1.267e+01,1.365e+01,1.242e+01,1.230e+01,1.438e+01,1.236e+01,1.359e+01,1.380e+01,1.590e+01,1.513e+01,1.534e+01,1.439e+01,1.532e+01,1.632e+01,1.555e+01,1.486e+01,1.627e+01,1.739e+01,1.818e+01,1.599e+01,1.818e+01,1.754e+01,1.986e+01,1.771e+01,1.852e+01,1.785e+01,1.859e+01,2.227e+01,2.162e+01,2.094e+01,2.167e+01,1.954e+01,2.293e+01,2.398e+01,2.302e+01,2.063e+01,2.516e+01,2.237e+01,2.468e+01,2.326e+01,2.367e+01,1.982e+01,2.329e+01,2.344e+01,2.410e+01,1.859e+01,2.356e+01,2.318e+01,2.353e+01,2.488e+01,2.634e+01,2.215e+01,2.226e+01
3.459e-01,8.530e-01,9.022e-01,1.396e+00,1.219e+00,2.009e+00,2.050e+00,3.963e+00,2.203e+00,3.788e+00,2.860e+00,3.494e+00,4.945e+00,3.597e+00,3.940e+00,5.285e+00,6.604e+00,5.895e+00,4.925e+00,8.163e+00,5.770e+00,6.223e+00,6.349e+00,7.556e+00,8.632e+00,8.496e+00,8.575e+00,5.835e+00,8.502e+00,8.618e+00,6.649e+00,1.050e+01,8.825e+00,8.954e+00,1.141e+01,1.145e+01,9.753e+00,1.370e+01,1.159e+01,1.056e+01,1.159e+01,1.153e+01,1.087e+01,1.433e+01,1.208e+01,1.443e+01,1.425e+01,1.365e+01,1.188e+01,1.533e+01,1.475e+01,1.553e+01,1.552e+01,1.562e+01,1.640e+01,1.505e+01,1.387e+01,1.625e+01,1.550e+01,1.541e+01,1.482e+01,1.578e+01,1.739e+01,1.952e+01,1.733e+01,2.005e+01,1.911e+01,2.059e+01,1.942e+01,1.933e+01,1.822e+01,1.897e+01,2.118e+01,1.965e+01,2.010e+01,2.186e+01,1.936e+01,2.093e+01,2.201e+01,2.285e+01,1.959e+01,2.241e+01,2.077e+01,2.206e+01,2.315e+01,2.287e+01,2.083e+01,2.314e+01,2.328e+01,2.393e+01,2.023e+01,2.363e+01,2.253e+01,2.429e+01,2.290e+01,2.424e+01,2.277e+01,2.136e+01
6.420e-01,7.562e-01,8.106e-01,1.427e+00,1.373e+00,2.306e+00,1.766e+00,3.845e+00,1.963e+00,4.206e+00,2.487e+00,2.956e+00,4.887e+00,3.072e+00,3.044e+00,4.248e+00,6.000e+00,4.620e+00,3.933e+00,6.501e+00,5.121e+00,5.524e+00,5.513e+00,6.240e+00,8.412e+00,8.487e+00,7.691e+00,5.996e+00,7.878e+00,7.426e+00,6.747e+00,8.715e+00,7.987e+00,9.040e+00,9.128e+00,9.800e+00,8.985e+00,1.204e+01,1.010e+01,1.016e+01,1.005e+01,9.995e+00,1.051e+01,1.186e+01,1.122e+01,1.299e+01,1.092e+01,1.192e+01,1.087e+01,1.344e+01,1.376e+01,1.508e+01,1.313e+01,1.338e+01,1.385e+01,1.376e+01,1.296e+01,1.431e+01,1.495e+01,1.365e+01,1.469e+01,1.473e+01,1.599e+01,1.825e+01,1.596e+01,1.633e+01,1.758e+01,2.101e+01,1.714e+01,1.699e+01,1.697e+01,1.868e+01,2.171e+01,1.847e+01,1.925e+01,2.110e+01,1.995e+01,1.999e+01,2.002e+01,2.119e+01,1.962e+01,2.249e+01,1.952e+01,2.013e+01,2.067e+01,2.416e+01,1.964e+01,2.040e+01,2.152e+01,2.359e+01,1.795e+01,2.197e+01,2.099e+01,2.415e+01,2.268e+01,2.398e+01,2.044e+01,2.165e+01
1.322e-01,6.513e-01,5.324e-01,1.219e+00,1.042e+00,1.387e+00,1.803e+00,3.090e+00,1.347e+00,2.815e+00,2.113e+00,2.763e+00,3.636e+00,2.609e+00,2.738e+00,3.609e+00,5.236e+00,4.156e+00,3.315e+00,5.894e+00,4.864e+00,4.883e+00,5.845e+00,6.797e+00,7.884e+00,7.411e+00,6.537e+00,5.500e+00,8.103e+00,9.101e+00,5.325e+00,9.631e+00,8.069e+00,8.701e+00,1.038e+01,9.217e+00,8.809e+00,1.203e+01,9.921e+00,9.541e+00,1.029e+01,1.026e+01,1.076e+01,1.297e+01,1.110e+01,1.332e+01,1.309e+01,1.399e+01,1.178e+01,1.453e+01,1.438e+01,1.453e+01,1.358e+01,1.423e+01,1.589e+01,1.445e+01,1.531e+01,1.547e+01,1.711e+01,1.559e+01,1.425e+01,1.556e+01,1.825e+01,1.834e+01,1.790e+01,1.629e+01,1.814e+01,1.945e+01,1.805e+01,1.874e+01,1.792e+01,1.904e+01,2.167e+01,1.872e+01,2.045e+01,2.143e+01,1.925e+01,2.090e+01,2.131e+01,2.074e+01,1.846e+01,2.234e+01,2.049e+01,2.313e+01,2.131e+01,2.284e+01,2.116e+01,2.237e+01,2.406e+01,2.529e+01,2.107e+01,2.176e+01,2.231e+01,2.381e+01,2.415e+01,2.544e+01,2.296e+01,2.248e+01
4.889e-01,5.238e-01,6.272e-01,7.868e-01,8.586e-01,1.822e+00,1.481e+00,2.761e+00,1.019e+00,3.464e+00,1.871e+00,2.416e+00,3.994e+00,2.106e+00,2.483e+00,3.829e+00,5.058e+00,4.216e+00,3.439e+00,4.999e+00,3.742e+00,5.174e+00,5.599e+00,5.736e+00,7.211e+00,6.664e+00,7.556e+00,5.435e+00,7.130e+00,7.504e+00,6.339e+00,8.291e+00,7.855e+00,8.897e+00,8.929e+00,9.038e+00,9.211e+00,1.110e+01,9.420e+00,8.748e+00,8.321e+00,1.095e+01,8.910e+00,9.638e+00,9.721e+00,1.163e+01,1.077e+01,1.085e+01,1.037e+01,1.232e+01,1.281e+01,1.213e+01,1.181e+01,1.142e+01,1.328e+01,1.246e+01,1.245e+01,1.412e+01,1.362e+01,1.458e+01,1.342e+01,1.377e+01,1.665e+01,1.679e+01,1.539e+01,1.634e+01,1.842e+01,1.989e+01,1.753e+01,1.822e+01,1.627e+01,1.733e+01,2.154e+01,1.962e+01,2.044e+01,2.217e+01,2.086e+01,1.981e+01,2.027e+01,2.068e+01,1.814e+01,2.330e+01,1.980e+01,2.217e+01,2.176e+01,2.097e+01,2.174e+01,2.266e+01,2.368e+01,2.428e+01,1.816e+01,2.197e+01,2.131e+01,2.348e+01,2.281e+01,2.536e+01,2.189e+01,2.165e+01
3.726e-01,4.646e-01,5.272e-01,8.144e-01,8.201e-01,1.421e+00,1.468e+00,2.930e+00,1.984e+00,3.313e+00,2.539e+00,2.514e+00,4.416e+00,2.646e+00,3.489e+00,4.294e+00,5.874e+00,4.439e+00,4.200e+00,6.169e+00,5.206e+00,5.520e+00,5.260e+00,6.826e+00,8.920e+00,7.841e+00,7.718e+00,5.725e+00,6.702e+00,7.318e+00,5.175e+00,8.847e+00,7.600e+00,8.653e+00,8.743e+00,8.072e+00,8.391e+00,1.191e+01,8.942e+00,8.047e+00,9.657e+00,1.025e+01,9.121e+00,1.162e+01,9.848e+00,1.210e+01,1.183e+01,1.128e+01,1.041e+01,1.261e+01,1.232e+01,1.299e+01,1.216e+01,1.336e+01,1.253e+01,1.385e+01,1.237e+01,1.329e+01,1.436e+01,1.370e+01,1.290e+01,1.268e+01,1.564e+01,1.644e+01,1.445e+01,1.697e+01,1.758e+01,1.866e+01,1.653e+01,1.644e+01,1.532e+01,1.747e+01,2.042e+01,1.874e+01,1.945e+01,1.960e+01,1.858e+01,1.999e+01,1.997e+01,2.075e+01,1.869e+01,2.171e+01,1.901e+01,2.137e+01,2.136e+01,2.228e+01,1.957e+01,2.101e+01,2.169e+01,2.414e+01,1.881e+01,2.449e+01,2.217e+01,2.351e+01,2.158e+01,2.394e+01,2.152e+01,2.111e+01
1.966e-01,1.816e-01,3.945e-01,3.674e-01,4.450e-01,1.275e+00,9.018e-01,2.012e+00,1.452e+00,3.111e+00,1.499e+00,1.880e+00,3.580e+00,1.712e+00,1.992e+00,3.041e+00,4.011e+00,3.355e+00,2.895e+00,4.252e+00,3.038e+00,4.590e+00,4.541e+00,4.905e+00,7.420e+00,6.504e+00,6.870e+00,4.712e+00,6.162e+00,7.071e+00,5.922e+00,8.099e+00,7.323e+00,8.569e+00,9.181e+00,8.718e+00,8.985e+00,1.152e+01,9.390e+00,1.034e+01,9.462e+00,1.072e+01,9.600e+00,1.218e+01,1.031e+01,1.270e+01,1.276e+01,1.211e+01,1.147e+01,1.301e+01,1.314e+01,1.334e+01,1.173e+01,1.392e+01,1.400e+01,1.343e+01,1.340e+01,1.433e+01,1.409e+01,1.339e+01,1.288e+01,1.487e+01,1.577e+01,1.655e+01,1.489e+01,1.503e+01,1.677e+01,1.983e+01,1.635e+01,1.597e+01,1.538e+01,1.563e+01,1.918e+01,1.778e+01,1.878e+01,1.988e+01,1.857e+01,1.883e+01,1.932e+01,1.913e+01,1.575e+01,2.182e+01,2.035e+01,2.086e+01,2.112e+01,2.122e+01,2.016e+01,1.983e+01,2.206e+01,2.305e+01,1.662e+01,2.285e+01,2.061e+01,2.310e+01,2.369e+01,2.385e+01,2.028e+01,1.948e+01
4.398e-01,5.726e-01,4.538e-01,7.271e-01,7.589e-01,1.298e+00,1.177e+00,3.024e+00,1.570e+00,3.419e+00,1.991e+00,2.993e+00,4.343e+00,2.639e+00,2.562e+00,4.326e+00,5.640e+00,4.533e+00,4.192e+00,6.109e+00,4.701e+00,6.164e+00,6.054e+00,6.840e+00,7.403e+00,7.208e+00,8.886e+00,6.018e+00,7.393e+00,8.898e+00,5.960e+00,9.564e+00,7.610e+00,9.876e+00,1.109e+01,1.027e+01,9.620e+00,1.321e+01,1.106e+01,1.015e+01,1.093e+01,1.311e+01,9.983e+00,1.309e+01,1.107e+01,1.496e+01,1.478e+01,1.371e+01,1.321e+01,1.516e+01,1.450e+01,1.477e+01,1.340e+01,1.560e+01,1.557e+01,1.469e+01,1.599e+01,1.655e+01,1.694e+01,1.624e+01,1.399e+01,1.653e+01,1.811e+01,1.931e+01,1.630e+01,1.669e+01,1.937e+01,2.240e+01,1.877e+01,1.973e+01,1.822e+01,1.979e+01,2.448e+01,2.131e+01,2.168e+01,2.348e+01,2.057e+01,2.161e+01,2.358e+01,2.258e+01,1.736e+01,2.535e+01,2.211e+01,2.358e+01,2.257e+01,2.350e+01,2.241e+01,2.245e+01,2.512e+01,2.527e+01,2.117e+01,2.366e+01,2.412e+01,2.481e+01,2.602e+01,2.827e+01,2.443e+01,2.346e+01
2.657e-01,6.812e-01,7.251e-01,8.417e-01,7.207e-01,1.240e+00,1.742e+00,2.812e+00,2.183e+00,3.629e+00,2.606e+00,3.257e+00,4.993e+00,2.810e+00,3.337e+00,4.296e+00,5.092e+00,5.531e+00,4.810e+00,7.132e+00,5.677e+00,6.042e+00,6.258e+00,7.312e+00,8.010e+00,8.340e+00,8.192e+00,5.515e+00,7.905e+00,7.548e+00,5.919e+00,8.590e+00,7.413e+00,7.851e+00,9.240e+00,9.554e+00,8.665e+00,1.170e+01,9.741e+00,9.425e+00,9.644e+00,1.056e+01,9.648e+00,1.302e+01,9.338e+00,1.342e+01,1.293e+01,1.262e+01,1.139e+01,1.387e+01,1.281e+01,1.382e+01,1.272e+01,1.436e+01,1.355e+01,1.389e+01,1.293e+01,1.508e+01,1.457e+01,1.334e+01,1.233e+01,1.449e+01,1.526e+01,1.791e+01,1.445e+01,1.736e+01,1.688e+01,1.978e+01,1.704e+01,1.825e+01,1.696e+01,1.894e+01,2.056e+01,1.839e+01,1.896e+01,1.955e+01,1.919e+01,2.001e+01,2.071e+01,2.083e+01,1.877e+01,2.146e+01,1.937e+01,2.111e+01,2.175e+01,2.169e+01,2.053e+01,2.151e+01,2.392e+01,2.493e+01,2.079e+01,2.476e+01,2.391e+01,2.347e+01,2.321e+01,2.682e+01,2.351e+01,2.298e+01
5.288e-01,5.061e-01,6.397e-01,8.880e-01,9.114e-01,1.774e+00,1.551e+00,2.932e+00,1.222e+00,2.745e+00,2.337e+00,2.184e+00,3.811e+00,2.426e+00,2.869e+00,3.978e+00,5.323e+00,3.999e+00,3.753e+00,6.152e+00,4.988e+00,5.650e+00,6.049e+00,7.216e+00,8.111e+00,7.896e+00,7.799e+00,5.519e+00,7.917e+00,8.051e+00,7.099e+00,8.872e+00,8.811e+00,9.757e+00,9.906e+00,9.423e+00,1.070e+01,1.207e+01,9.053e+00,9.720e+00,8.911e+00,1.049e+01,9.647e+00,1.217e+01,1.050e+01,1.231e+01,1.153e+01,1.237e+01,1.201e+01,1.383e+01,1.294e+01,1.305e+01,1.306e+01,1.215e+01,1.365e+01,1.482e+01,1.331e+01,1.399e+01,1.523e+01,1.451e+01,1.489e+01,1.384e+01,1.640e+01,1.646e+01,1.500e+01,1.577e+01,1.706e+01,2.110e+01,1.825e+01,1.778e+01,1.534e+01,1.911e+01,2.279e+01,1.999e+01,2.050e+01,2.197e+01,1.920e+01,2.012e+01,2.127e+01,2.209e+01,2.020e+01,2.334e+01,2.050e+01,2.012e+01,2.244e+01,2.253e+01,2.114e+01,2.169e+01,2.286e+01,2.460e+01,1.971e+01,2.356e+01,2.224e+01,2.442e+01,2.506e+01,2.651e+01,2.329e+01,2.232e+01
6.273e-01,1.000e+00,8.072e-01,1.451e+00,1.306e+00,1.698e+00,1.980e+00,3.738e+00,2.156e+00,3.850e+00,2.688e+00,2.715e+00,4.149e+00,2.915e+00,3.364e+00,3.228e+00,5.164e+00,4.093e+00,3.463e+00,5.857e+00,4.615e+00,4.617e+00,5.471e+00,6.443e+00,7.577e+00,7.316e+00,7.251e+00,5.425e+00,6.833e+00,7.370e+00,6.304e+00,8.786e+00,7.929e+00,9.256e+00,9.565e+00,9.357e+00,8.974e+00,1.092e+01,9.300e+00,9.380e+00,8.214e+00,9.305e+00,9.515e+00,1.131e+01,9.512e+00,1.277e+01,1.113e+01,1.178e+01,1.032e+01,1.299e+01,1.261e+01,1.345e+01,1.207e+01,1.342e+01,1.357e+01,1.323e+01,1.320e+01,1.417e+01,1.499e+01,1.296e+01,1.411e+01,1.539e+01,1.696e+01,1.850e+01,1.548e+01,1.636e+01,1.811e+01,2.001e+01,1.735e+01,1.860e+01,1.717e+01,2.031e+01,2.109e+01,1.978e+01,1.971e+01,2.193e+01,1.910e+01,2.034e+01,2.195e+01,2.100e+01,2.034e+01,2.309e+01,2.154e+01,2.071e+01,2.193e+01,2.300e+01,2.005e+01,2.281e+01,2.494e+01,2.439e+01,1.920e+01,2.455e+01,2.280e+01,2.620e+01,2.440e+01,2.745e+01,2.423e+01,2.390e+01
1.335e-01,3.018e-01,4.511e-01,9.434e-01,8.818e-01,1.817e+00,1.290e+00,2.632e+00,1.486e+00,3.623e+00,1.688e+00,2.510e+00,4.963e+00,2.631e+00,3.473e+00,5.806e+00,7.166e+00,5.376e+00,4.630e+00,6.289e+00,5.353e+00,6.680e+00,5.231e+00,7.293e+00,8.272e+00,7.831e+00,6.881e+00,5.170e+00,7.874e+00,7.396e+00,6.426e+00,8.743e+00,7.585e+00,9.984e+00,9.205e+00,8.922e+00,9.189e+00,1.199e+01,1.054e+01,9.645e+00,9.828e+00,9.419e+00,9.937e+00,1.162e+01,1.047e+01,1.302e+01,1.236e+01,1.019e+01,9.846e+00,1.284e+01,1.112e+01,1.260e+01,1.289e+01,1.232e+01,1.371e+01,1.350e+01,1.198e+01,1.353e+01,1.414e+01,1.341e+01,1.312e+01,1.316e+01,1.593e+01,1.643e+01,1.479e+01,1.587e+01,1.706e+01,1.913e+01,1.692e+01,1.833e+01,1.454e+01,1.624e+01,2.032e+01,1.988e+01,1.923e+01,2.086e+01,1.866e+01,2.096e+01,2.022e+01,2.122e+01,1.942e+01,2.391e+01,2.050e+01,2.300e+01,2.306e+01,2.322e+01,2.059e+01,2.130e+01,2.380e+01,2.566e+01,2.033e+01,2.384e+01,2.361e+01,2.401e+01,2.539e+01,2.597e+01,2.303e+01,2.363e+01
1.747e-01,5.346e-01,3.981e-01,6.632e-01,5.760e-01,7.296e-01,1.045e+00,1.800e+00,1.394e+00,2.448e+00,1.318e+00,1.881e+00,2.817e+00,1.566e+00,2.412e+00,3.186e+00,4.139e+00,3.113e+00,3.290e+00,4.665e+00,4.251e+00,5.117e+00,5.801e+00,6.241e+00,7.793e+00,7.431e+00,7.082e+00,5.769e+00,7.488e+00,7.864e+00,5.826e+00,9.666e+00,8.623e+00,9.252e+00,1.113e+01,9.556e+00,9.961e+00,1.195e+01,9.509e+00,9.909e+00,9.081e+00,1.180e+01,1.048e+01,1.239e+01,1.204e+01,1.317e+01,1.215e+01,1.300e+01,1.294e+01,1.421e+01,1.419e+01,1.483e+01,1.262e+01,1.348e+01,1.560e+01,1.423e+01,1.406e+01,1.529e+01,1.468e+01,1.499e+01,1.378e+01,1.375e+01,1.618e+01,1.614e+01,1.516e+01,1.610e+01,1.686e+01,2.008e+01,1.808e+01,1.711e+01,1.524e+01,1.775e+01,2.152e+01,1.774e+01,2.039e+01,2.088e+01,2.003e+01,2.054e+01,2.151e+01,2.162e+01,1.915e+01,2.442e+01,2.212e+01,2.161e+01,2.245e+01,2.353e+01,2.154e+01,2.256e+01,2.306e+01,2.559e+01,2.055e+01,2.459e+01,2.303e+01,2.510e+01,2.627e+01,2.633e+01,2.299e+01,2.323e+01
3.814e-01,5.026e-01,5.472e-01,8.707e-01,8.517e-01,1.477e+00,1.626e+00,2.556e+00,1.256e+00,2.847e+00,2.227e+00,2.823e+00,4.249e+00,2.373e+00,3.098e+00,4.398e+00,5.310e+00,4.639e+00,3.990e+00,6.320e+00,5.115e+00,5.831e+00,5.124e+00,6.817e+00,7.610e+00,7.695e+00,7.591e+00,5.163e+00,6.837e+00,7.670e+00,5.081e+00,9.097e+00,6.969e+00,8.180e+00,9.612e+00,8.199e+00,8.827e+00,1.161e+01,8.650e+00,8.290e+00,8.661e+00,1.093e+01,9.569e+00,1.150e+01,9.855e+00,1.206e+01,1.212e+01,1.251e+01,1.134e+01,1.235e+01,1.428e+01,1.342e+01,1.377e+01,1.388e+01,1.558e+01,1.323e+01,1.399e+01,1.480e+01,1.512e+01,1.389e+01,1.345e+01,1.389e+01,1.751e+01,1.804e+01,1.608e+01,1.668e+01,1.903e+01,2.037e+01,1.824e+01,1.931e+01,1.744e+01,1.931e+01,2.137e+01,1.987e+01,2.055e+01,2.146e+01,1.930e+01,2.066e+01,2.070e+01,2.200e+01,1.866e+01,2.194e+01,2.005e+01,2.248e+01,2.239e+01,2.224e+01,2.213e+01,2.225e+01,2.398e+01,2.533e+01,2.145e+01,2.333e+01,2.321e+01,2.526e+01,2.491e+01,2.842e+01,2.459e+01,2.341e+01
1.405e-01,6.191e-01,6.164e-01,8.176e-01,6.445e-01,1.031e+00,1.554e+00,2.521e+00,2.249e+00,3.015e+00,2.287e+00,2.041e+00,3.767e+00,2.616e+00,3.639e+00,4.192e+00,4.917e+00,4.394e+00,3.939e+00,5.620e+00,4.479e+00,4.331e+00,4.035e+00,5.908e+00,7.472e+00,6.623e+00,6.689e+00,4.830e+00,5.861e+00,6.361e+00,5.245e+00,8.691e+00,7.301e+00,7.610e+00,9.324e+00,8.366e+00,7.657e+00,9.649e+00,8.247e+00,8.192e+00,8.053e+00,9.844e+00,7.726e+00,1.037e+01,9.550e+00,1.048e+01,1.154e+01,9.352e+00,8.876e+00,1.168e+01,1.130e+01,1.233e+01,1.143e+01,1.248e+01,1.265e+01,1.154e+01,1.119e+01,1.304e+01,1.369e+01,1.289e+01,1.152e+01,1.240e+01,1.320e+01,1.646e+01,1.412e+01,1.591e+01,1.663e+01,1.691e+01,1.606e+01,1.713e+01,1.575e+01,1.563e+01,1.997e+01,1.745e+01,1.649e+01,1.874e+01,1.744e+01,1.887e+01,1.839e+01,1.993e+01,1.570e+01,2.054e+01,1.877e+01,2.176e+01,2.064e+01,2.197e+01,1.937e+01,2.065e+01,1.965e+01,2.200e+01,1.745e+01,2.272e+01,2.187e+01,2.311e+01,2.202e+01,2.384e+01,2.371e+01,2.040e+01
