5.746e-01,5.592e-01,4.513e-01,6.448e-01,8.656e-01,2.340e-02,3.977e-01,7.538e-02,8.927e-01,4.322e-01,3.226e-01,7.813e-01,7.767e-01,3.072e-01,2.126e-01,7.209e-01,2.300e-01,1.622e-01,6.701e-01,2.443e-01,5.783e-01,3.322e-01,7.485e-01,8.575e-01,9.227e-01,7.341e-01,4.784e-01,4.524e-01,2.656e-01,8.270e-01,4.255e-01,9.714e-01,7.325e-01,8.672e-01,8.020e-01,6.251e-01,2.207e-01,5.801e-01,2.517e-01,3.306e-02,7.362e-01,5.851e-01,8.796e-01,6.125e-01,4.353e-01,1.584e-01,4.557e-01,8.974e-01,7.924e-01,4.447e-01,1.589e-01,1.021e-01,5.015e-01,7.975e-01,4.547e-01,8.935e-01,8.724e-01,2.582e-01,8.423e-01,1.003e-01,7.956e-02,3.816e-01,6.443e-01,4.795e-01,4.525e-02,1.700e-01,3.239e-01,9.703e-01,8.862e-01,6.872e-01,6.518e-01,7.179e-01,7.209e-01,7.813e-01,6.625e-01,8.030e-01,3.791e-01,5.858e-01,8.941e-01,1.270e-01,1.406e-01,7.133e-01,3.337e-01,1.085e-01,8.983e-01
2.318e-01,2.528e-01,8.707e-01,3.229e-01,5.654e-01,9.196e-01,2.790e-01,2.199e-01,6.705e-01,9.952e-01,3.238e-01,9.487e-01,9.744e-01,7.626e-01,2.214e-01,4.373e-01,1.015e-01,1.021e+00,6.110e-01,8.837e-01,8.840e-01,7.205e-01,9.082e-01,9.588e-01,6.577e-01,6.465e-01,4.055e-01,7.739e-01,6.445e-01,8.713e-01,8.765e-01,7.801e-01,9.364e-01,1.051e+00,4.267e-01,3.591e-01,7.417e-01,1.204e+00,4.520e-01,4.913e-01,1.162e+00,6.492e-01,5.487e-01,7.755e-01,9.175e-01,2.267e-01,9.387e-01,7.319e-01,1.318e+00,6.312e-01,5.367e-01,1.006e+00,6.704e-01,5.016e-01,4.916e-01,9.550e-01,5.267e-01,2.288e-01,7.384e-01,2.967e-01,6.958e-01,2.598e-01,8.348e-01,2.164e-01,3.559e-01,4.296e-01,1.124e+00,1.079e+00,8.668e-01,7.443e-01,2.802e-01,1.209e+00,9.020e-01,1.132e+00,7.666e-01,3.466e-01,7.075e-01,5.056e-01,8.736e-01,7.874e-01,6.540e-01,4.998e-01,6.333e-01,6.108e-01,1.072e+00
1.877e-01,1.884e-01,9.032e-01,5.374e-01,6.498e-01,5.251e-01,2.977e-01,5.233e-01,9.356e-01,7.456e-01,9.845e-01,1.020e+00,8.686e-01,5.347e-01,1.071e+00,4.641e-01,1.810e-01,6.007e-01,1.163e+00,4.169e-01,1.101e+00,4.082e-01,1.115e+00,1.170e+00,5.074e-01,5.159e-01,3.450e-01,8.260e-01,3.401e-01,4.455e-01,8.742e-01,5.933e-01,5.994e-01,1.167e+00,9.974e-01,1.090e+00,1.094e+00,1.377e+00,9.626e-01,2.703e-01,4.251e-01,9.131e-01,1.141e+00,3.828e-01,6.106e-01,7.148e-01,7.366e-01,8.786e-01,7.957e-01,1.035e+00,1.037e+00,4.333e-01,1.167e+00,7.643e-01,5.897e-01,1.046e+00,6.898e-01,5.276e-01,5.000e-01,7.077e-01,1.071e+00,7.531e-01,3.532e-01,4.552e-01,6.388e-01,1.625e-01,1.255e+00,6.509e-01,8.899e-01,8.172e-01,5.489e-01,1.058e+00,9.502e-01,1.347e+00,1.261e+00,5.893e-01,4.545e-01,7.507e-01,1.046e+00,9.989e-01,1.790e-01,3.220e-01,1.003e+00,8.562e-01,1.107e+00
2.222e-01,2.318e-01,8.198e-01,1.200e+00,1.561e+00,1.019e+00,1.012e+00,1.100e+00,1.581e+00,9.011e-01,1.413e+00,1.588e+00,1.791e+00,1.118e+00,6.856e-01,1.432e+00,3.312e-01,1.721e+00,8.129e-01,1.396e+00,1.857e+00,1.166e+00,1.554e+00,1.044e+00,6.050e-01,1.248e+00,5.470e-01,1.458e+00,9.363e-01,7.623e-01,1.256e+00,1.279e+00,1.235e+00,1.664e+00,1.563e+00,1.428e+00,1.017e+00,1.914e+00,1.221e+00,1.098e+00,7.962e-01,8.365e-01,1.111e+00,7.689e-01,9.136e-01,1.031e+00,1.219e+00,1.125e+00,1.676e+00,9.693e-01,1.367e+00,1.454e+00,1.824e+00,1.335e+00,1.353e+00,1.109e+00,9.288e-01,7.560e-01,1.080e+00,9.698e-01,1.338e+00,8.721e-01,1.202e+00,1.308e+00,1.306e+00,8.172e-01,2.070e+00,1.483e+00,1.380e+00,7.820e-01,1.202e+00,1.376e+00,1.596e+00,1.353e+00,1.388e+00,5.462e-01,1.321e+00,1.518e+00,1.244e+00,8.081e-01,5.909e-01,1.233e+00,1.033e+00,1.103e+00,1.555e+00
3.882e-01,4.010e-01,1.381e+00,9.701e-01,2.228e+00,2.031e+00,1.516e+00,9.422e-01,2.547e+00,1.683e+00,1.671e+00,1.866e+00,2.697e+00,2.047e+00,1.309e+00,1.398e+00,5.727e-01,2.423e+00,2.230e+00,1.510e+00,2.767e+00,1.256e+00,2.301e+00,2.502e+00,1.640e+00,1.428e+00,1.505e+00,2.303e+00,9.664e-01,1.493e+00,1.831e+00,1.347e+00,2.024e+00,2.444e+00,2.200e+00,1.873e+00,2.333e+00,2.486e+00,2.241e+00,1.128e+00,1.343e+00,1.849e+00,2.248e+00,1.589e+00,2.216e+00,1.603e+00,1.705e+00,2.083e+00,2.448e+00,1.721e+00,1.970e+00,1.407e+00,2.530e+00,2.194e+00,1.548e+00,2.022e+00,1.478e+00,1.643e+00,1.913e+00,1.229e+00,1.687e+00,1.189e+00,1.310e+00,1.658e+00,1.344e+00,1.312e+00,2.573e+00,1.706e+00,2.257e+00,1.348e+00,9.766e-01,2.376e+00,2.015e+00,2.526e+00,2.574e+00,9.410e-01,1.444e+00,1.757e+00,2.613e+00,2.141e+00,7.831e-01,9.499e-01,1.619e+00,1.587e+00,2.066e+00
1.622e-01,1.783e-01,1.170e+00,7.886e-01,1.194e+00,1.519e+00,8.816e-01,1.332e+00,1.768e+00,1.206e+00,2.095e+00,1.747e+00,2.552e+00,2.162e+00,1.887e+00,1.388e+00,5.131e-01,1.967e+00,1.629e+00,1.569e+00,2.660e+00,1.333e+00,1.718e+00,2.437e+00,1.547e+00,1.662e+00,1.330e+00,1.802e+00,8.384e-01,1.593e+00,1.663e+00,1.059e+00,1.223e+00,2.439e+00,1.704e+00,1.816e+00,2.185e+00,2.260e+00,1.783e+00,1.400e+00,1.667e+00,1.804e+00,1.604e+00,1.378e+00,1.805e+00,1.598e+00,1.961e+00,1.970e+00,1.816e+00,1.790e+00,2.308e+00,1.394e+00,2.184e+00,1.909e+00,1.566e+00,1.629e+00,1.816e+00,1.117e+00,1.439e+00,1.853e+00,1.685e+00,1.683e+00,1.638e+00,1.297e+00,1.441e+00,1.178e+00,2.240e+00,1.484e+00,1.475e+00,1.671e+00,8.382e-01,2.235e+00,1.621e+00,2.013e+00,1.921e+00,1.466e+00,1.645e+00,1.296e+00,2.113e+00,2.016e+00,7.922e-01,1.608e+00,1.511e+00,1.478e+00,2.278e+00
3.916e-01,3.975e-01,1.097e+00,1.415e+00,2.227e+00,1.637e+00,1.669e+00,1.550e+00,3.353e+00,2.043e+00,2.579e+00,2.501e+00,3.657e+00,2.758e+00,1.681e+00,2.488e+00,1.621e+00,3.269e+00,2.210e+00,2.072e+00,3.666e+00,1.662e+00,2.742e+00,2.816e+00,2.589e+00,2.610e+00,1.585e+00,3.059e+00,1.405e+00,2.230e+00,1.969e+00,2.321e+00,2.503e+00,3.461e+00,3.269e+00,2.565e+00,2.694e+00,2.867e+00,2.254e+00,1.746e+00,2.488e+00,2.539e+00,2.049e+00,2.273e+00,2.518e+00,2.655e+00,2.582e+00,3.179e+00,2.451e+00,2.130e+00,3.203e+00,2.231e+00,3.055e+00,2.572e+00,2.326e+00,2.265e+00,2.333e+00,2.286e+00,2.217e+00,2.279e+00,1.729e+00,1.668e+00,1.945e+00,2.363e+00,2.558e+00,1.899e+00,2.667e+00,2.570e+00,2.448e+00,1.601e+00,1.935e+00,2.761e+00,2.429e+00,3.013e+00,3.257e+00,1.452e+00,2.306e+00,2.120e+00,3.019e+00,2.104e+00,1.636e+00,2.010e+00,1.915e+00,1.589e+00,2.571e+00
2.068e-01,2.214e-01,8.605e-01,4.321e-01,1.296e+00,1.521e+00,1.053e+00,1.525e+00,3.126e+00,2.710e+00,1.599e+00,1.882e+00,3.205e+00,2.993e+00,1.085e+00,1.765e+00,1.581e+00,3.019e+00,2.311e+00,2.039e+00,2.824e+00,1.080e+00,2.572e+00,3.079e+00,2.175e+00,2.100e+00,1.830e+00,2.486e+00,1.440e+00,2.327e+00,1.374e+00,1.546e+00,2.400e+00,2.351e+00,3.012e+00,2.358e+00,2.426e+00,1.985e+00,1.960e+00,1.226e+00,2.821e+00,2.131e+00,2.200e+00,2.005e+00,2.521e+00,1.831e+00,2.443e+00,3.023e+00,2.024e+00,1.919e+00,2.405e+00,2.159e+00,2.643e+00,1.935e+00,2.160e+00,2.355e+00,2.111e+00,2.618e+00,1.806e+00,2.205e+00,1.918e+00,1.367e+00,1.855e+00,1.842e+00,2.193e+00,2.276e+00,2.471e+00,1.665e+00,2.549e+00,1.473e+00,1.599e+00,3.091e+00,2.453e+00,2.875e+00,3.072e+00,1.006e+00,1.549e+00,1.888e+00,3.068e+00,2.025e+00,2.084e+00,9.124e-01,1.342e+00,1.846e+00,2.213e+00
3.044e-01,2.985e-01,7.248e-01,9.543e-01,1.372e+00,9.288e-01,1.068e+00,1.638e+00,3.480e+00,2.400e+00,2.576e+00,2.383e+00,3.861e+00,3.105e+00,2.178e+00,2.150e+00,2.360e+00,2.999e+00,2.930e+00,2.529e+00,3.475e+00,1.865e+00,3.024e+00,3.156e+00,2.806e+00,3.246e+00,2.239e+00,3.157e+00,1.741e+00,2.319e+00,1.856e+00,2.442e+00,2.128e+00,2.765e+00,3.079e+00,2.978e+00,2.582e+00,2.772e+00,2.283e+00,2.054e+00,3.148e+00,2.827e+00,2.468e+00,2.654e+00,2.140e+00,2.858e+00,2.224e+00,3.494e+00,1.992e+00,2.083e+00,3.322e+00,1.879e+00,2.964e+00,3.051e+00,2.124e+00,2.427e+00,2.812e+00,2.957e+00,2.689e+00,2.588e+00,2.045e+00,1.909e+00,2.398e+00,2.559e+00,2.187e+00,2.229e+00,2.837e+00,1.889e+00,2.545e+00,2.225e+00,1.711e+00,2.710e+00,2.631e+00,2.602e+00,2.649e+00,1.698e+00,2.081e+00,2.008e+00,3.312e+00,1.771e+00,1.333e+00,1.851e+00,1.984e+00,2.209e+00,2.335e+00
5.604e-01,5.518e-01,1.194e+00,1.341e+00,2.410e+00,1.472e+00,1.683e+00,1.480e+00,3.818e+00,2.723e+00,3.402e+00,3.383e+00,4.195e+00,2.911e+00,2.153e+00,2.910e+00,2.253e+00,3.562e+00,3.732e+00,2.213e+00,4.201e+00,1.823e+00,3.707e+00,3.726e+00,3.054e+00,2.984e+00,2.501e+00,3.282e+00,2.082e+00,2.577e+00,2.209e+00,2.409e+00,3.297e+00,3.364e+00,3.776e+00,3.979e+00,3.260e+00,3.770e+00,2.609e+00,1.664e+00,2.958e+00,3.010e+00,3.355e+00,2.294e+00,3.447e+00,2.631e+00,3.156e+00,4.216e+00,2.997e+00,3.289e+00,3.382e+00,1.876e+00,3.357e+00,3.167e+00,2.419e+00,2.942e+00,2.967e+00,3.655e+00,2.856e+00,2.607e+00,2.150e+00,2.376e+00,2.749e+00,2.639e+00,2.569e+00,2.838e+00,2.796e+00,2.361e+00,3.238e+00,1.946e+00,2.906e+00,3.312e+00,2.994e+00,4.027e+00,3.929e+00,1.958e+00,2.057e+00,3.311e+00,4.054e+00,3.044e+00,2.171e+00,2.070e+00,2.853e+00,2.490e+00,2.966e+00
5.464e-01,5.558e-01,1.149e+00,7.803e-01,1.841e+00,1.818e+00,1.330e+00,1.737e+00,3.519e+00,2.989e+00,2.930e+00,3.604e+00,5.340e+00,4.552e+00,2.689e+00,3.547e+00,2.736e+00,4.202e+00,3.934e+00,3.647e+00,4.533e+00,3.065e+00,3.517e+00,4.926e+00,3.380e+00,3.610e+00,3.222e+00,3.816e+00,2.241e+00,4.032e+00,2.459e+00,2.975e+00,3.039e+00,3.843e+00,3.567e+00,3.595e+00,3.217e+00,3.733e+00,3.330e+00,2.212e+00,4.532e+00,3.368e+00,4.085e+00,3.105e+00,3.510e+00,2.614e+00,3.452e+00,4.489e+00,4.187e+00,3.766e+00,2.816e+00,2.722e+00,3.764e+00,3.667e+00,2.742e+00,3.272e+00,3.364e+00,3.771e+00,3.645e+00,3.640e+00,2.434e+00,2.988e+00,4.593e+00,2.535e+00,2.265e+00,3.510e+00,3.244e+00,2.728e+00,3.882e+00,3.369e+00,2.876e+00,4.298e+00,3.644e+00,4.011e+00,3.946e+00,3.056e+00,2.565e+00,3.211e+00,4.812e+00,3.277e+00,2.912e+00,2.373e+00,2.841e+00,3.150e+00,3.913e+00
1.526e-01,1.633e-01,7.124e-01,9.027e-01,1.292e+00,9.880e-01,9.289e-01,9.140e-01,2.322e+00,1.970e+00,2.184e+00,2.703e+00,3.154e+00,2.222e+00,2.406e+00,2.612e+00,2.983e+00,3.180e+00,2.992e+00,2.312e+00,3.417e+00,2.926e+00,3.455e+00,2.272e+00,1.827e+00,3.288e+00,1.629e+00,3.298e+00,2.146e+00,1.989e+00,2.375e+00,2.990e+00,2.741e+00,3.311e+00,2.962e+00,2.548e+00,2.412e+00,3.576e+00,2.469e+00,1.945e+00,3.000e+00,2.547e+00,2.322e+00,2.044e+00,2.499e+00,2.214e+00,2.007e+00,3.455e+00,3.029e+00,2.310e+00,2.893e+00,2.059e+00,2.588e+00,3.029e+00,2.312e+00,2.568e+00,2.336e+00,2.732e+00,2.781e+00,2.014e+00,2.390e+00,2.239e+00,3.019e+00,1.883e+00,2.283e+00,2.606e+00,3.346e+00,2.257e+00,2.703e+00,1.670e+00,2.154e+00,2.271e+00,2.628e+00,3.369e+00,2.357e+00,1.326e+00,2.007e+00,2.501e+00,2.584e+00,2.216e+00,2.320e+00,1.511e+00,2.633e+00,2.465e+00,2.589e+00
1.957e-01,1.963e-01,8.508e-01,1.070e+00,1.917e+00,1.343e+00,1.452e+00,1.853e+00,3.747e+00,2.719e+00,2.727e+00,2.841e+00,4.478e+00,3.831e+00,2.450e+00,3.476e+00,3.061e+00,3.922e+00,4.008e+00,3.448e+00,4.124e+00,2.172e+00,4.123e+00,3.566e+00,2.615e+00,3.555e+00,2.827e+00,3.635e+00,2.143e+00,2.741e+00,3.026e+00,3.314e+00,3.644e+00,3.931e+00,4.550e+00,3.941e+00,3.613e+00,3.845e+00,3.787e+00,2.685e+00,3.687e+00,3.514e+00,3.818e+00,2.518e+00,3.347e+00,3.163e+00,2.941e+00,4.460e+00,2.832e+00,3.161e+00,4.074e+00,3.158e+00,4.216e+00,3.419e+00,3.541e+00,3.687e+00,2.941e+00,4.288e+00,2.789e+00,3.655e+00,2.941e+00,3.243e+00,3.605e+00,2.736e+00,3.532e+00,3.281e+00,4.166e+00,2.818e+00,3.962e+00,1.963e+00,3.217e+00,4.031e+00,3.481e+00,4.332e+00,4.623e+00,2.195e+00,2.697e+00,3.789e+00,4.267e+00,3.234e+00,2.857e+00,1.603e+00,3.124e+00,2.806e+00,3.842e+00
4.296e-01,4.414e-01,1.345e+00,1.488e+00,2.488e+00,2.103e+00,1.842e+00,1.974e+00,3.905e+00,2.860e+00,4.142e+00,4.526e+00,6.315e+00,6.046e+00,4.990e+00,5.485e+00,4.524e+00,5.621e+00,6.096e+00,4.941e+00,6.816e+00,5.057e+00,5.081e+00,5.932e+00,4.555e+00,5.534e+00,3.858e+00,5.358e+00,3.554e+00,5.179e+00,4.535e+00,5.218e+00,4.828e+00,6.736e+00,5.475e+00,5.356e+00,5.201e+00,5.963e+00,5.176e+00,4.531e+00,6.072e+00,4.696e+00,5.772e+00,3.960e+00,4.985e+00,4.472e+00,4.854e+00,6.530e+00,5.365e+00,4.751e+00,5.235e+00,3.766e+00,5.919e+00,5.338e+00,4.981e+00,4.739e+00,4.802e+00,4.952e+00,4.922e+00,5.392e+00,4.280e+00,4.718e+00,6.086e+00,3.861e+00,4.619e+00,5.312e+00,5.689e+00,4.138e+00,4.821e+00,4.274e+00,4.481e+00,5.735e+00,4.510e+00,6.163e+00,5.708e+00,4.271e+00,4.838e+00,5.147e+00,5.577e+00,4.838e+00,4.179e+00,3.873e+00,5.007e+00,3.957e+00,5.558e+00
1.437e-01,1.552e-01,8.746e-01,8.675e-01,1.307e+00,1.335e+00,1.050e+00,1.783e+00,3.250e+00,2.643e+00,3.040e+00,3.422e+00,5.312e+00,5.327e+00,5.115e+00,4.511e+00,4.741e+00,5.575e+00,5.286e+00,4.840e+00,6.071e+00,4.112e+00,4.427e+00,5.089e+00,3.690e+00,5.135e+00,3.707e+00,5.145e+00,3.575e+00,4.741e+00,4.002e+00,5.509e+00,4.311e+00,6.254e+00,5.000e+00,4.826e+00,4.480e+00,5.542e+00,4.769e+00,4.687e+00,6.369e+00,4.571e+00,4.841e+00,4.229e+00,4.047e+00,4.950e+00,3.864e+00,5.871e+00,4.858e+00,4.273e+00,4.909e+00,4.547e+00,5.567e+00,4.763e+00,4.821e+00,4.960e+00,4.234e+00,5.415e+00,3.909e+00,5.306e+00,4.165e+00,4.179e+00,5.841e+00,3.837e+00,4.021e+00,5.013e+00,5.597e+00,3.928e+00,4.316e+00,4.080e+00,4.393e+00,5.847e+00,4.610e+00,5.128e+00,5.301e+00,4.342e+00,4.593e+00,4.030e+00,4.707e+00,4.141e+00,3.903e+00,3.258e+00,4.176e+00,4.285e+00,5.476e+00
5.369e-01,5.226e-01,7.864e-01,1.057e+00,1.474e+00,4.772e-01,8.436e-01,1.525e+00,2.692e+00,2.033e+00,2.107e+00,2.857e+00,3.858e+00,3.858e+00,3.376e+00,4.477e+00,3.380e+00,4.478e+00,4.741e+00,4.443e+00,4.238e+00,3.348e+00,3.426e+00,5.101e+00,3.094e+00,3.687e+00,3.269e+00,4.137e+00,3.098e+00,3.899e+00,2.887e+00,4.335e+00,3.860e+00,4.427e+00,4.831e+00,4.414e+00,3.646e+00,4.714e+00,4.350e+00,3.060e+00,4.742e+00,3.321e+00,5.373e+00,3.119e+00,2.615e+00,3.460e+00,3.229e+00,4.692e+00,4.175e+00,4.463e+00,2.714e+00,3.918e+00,4.630e+00,3.639e+00,4.581e+00,3.970e+00,3.582e+00,4.949e+00,3.050e+00,4.239e+00,3.814e+00,3.700e+00,5.153e+00,3.736e+00,3.419e+00,4.382e+00,4.036e+00,3.551e+00,4.557e+00,3.616e+00,4.629e+00,5.049e+00,4.172e+00,4.137e+00,5.190e+00,4.309e+00,3.220e+00,4.210e+00,4.402e+00,3.248e+00,2.886e+00,2.762e+00,3.732e+00,4.042e+00,4.590e+00
1.319e-01,1.460e-01,6.455e-01,8.713e-01,1.195e+00,1.220e+00,1.017e+00,1.654e+00,2.486e+00,2.096e+00,3.168e+00,3.348e+00,4.625e+00,4.109e+00,3.944e+00,4.710e+00,4.492e+00,6.191e+00,4.951e+00,5.351e+00,6.151e+00,4.477e+00,4.321e+00,5.262e+00,3.451e+00,4.896e+00,4.053e+00,5.424e+00,3.786e+00,4.563e+00,4.371e+00,4.729e+00,5.095e+00,5.492e+00,5.376e+00,4.785e+00,4.442e+00,5.641e+00,4.586e+00,4.367e+00,5.693e+00,4.777e+00,4.169e+00,3.581e+00,4.423e+00,3.804e+00,4.740e+00,5.862e+00,4.705e+00,5.113e+00,4.535e+00,4.968e+00,4.826e+00,5.271e+00,5.372e+00,4.759e+00,4.554e+00,4.957e+00,4.169e+00,5.071e+00,4.155e+00,5.014e+00,6.699e+00,3.692e+00,4.298e+00,4.973e+00,4.904e+00,4.352e+00,4.621e+00,3.666e+00,4.823e+00,5.019e+00,3.852e+00,5.209e+00,4.883e+00,4.345e+00,4.031e+00,4.934e+00,4.329e+00,5.022e+00,4.372e+00,4.386e+00,4.834e+00,4.995e+00,5.140e+00
5.617e-02,7.137e-02,7.761e-01,2.678e-01,6.101e-01,1.081e+00,5.317e-01,8.320e-01,1.763e+00,1.919e+00,2.271e+00,2.321e+00,3.001e+00,3.344e+00,3.085e+00,2.837e+00,2.851e+00,4.637e+00,4.164e+00,3.099e+00,4.134e+00,3.449e+00,3.394e+00,4.083e+00,3.843e+00,3.820e+00,2.843e+00,4.108e+00,2.721e+00,3.874e+00,3.292e+00,3.574e+00,3.595e+00,3.965e+00,3.481e+00,3.528e+00,4.043e+00,4.788e+00,3.032e+00,3.313e+00,5.117e+00,3.719e+00,4.232e+00,2.503e+00,3.421e+00,2.849e+00,4.012e+00,4.890e+00,3.242e+00,3.547e+00,3.464e+00,2.774e+00,4.140e+00,3.084e+00,3.765e+00,3.316e+00,3.794e+00,3.944e+00,2.548e+00,3.963e+00,3.299e+00,3.153e+00,4.426e+00,2.528e+00,3.778e+00,4.449e+00,3.949e+00,2.953e+00,3.421e+00,2.663e+00,3.142e+00,4.705e+00,2.605e+00,4.079e+00,3.723e+00,3.031e+00,2.962e+00,3.655e+00,3.288e+00,4.483e+00,3.111e+00,2.892e+00,4.242e+00,3.736e+00,3.722e+00
1.239e-01,1.289e-01,8.106e-01,8.183e-01,1.052e+00,7.901e-01,6.680e-01,1.432e+00,2.220e+00,2.060e+00,2.476e+00,2.713e+00,3.438e+00,2.802e+00,3.252e+00,3.524e+00,3.510e+00,5.313e+00,4.945e+00,5.373e+00,5.131e+00,4.347e+00,4.651e+00,4.532e+00,2.795e+00,4.129e+00,4.693e+00,5.525e+00,3.588e+00,4.090e+00,4.820e+00,4.496e+00,5.257e+00,4.398e+00,5.508e+00,4.912e+00,4.028e+00,6.308e+00,5.033e+00,4.353e+00,5.254e+00,4.431e+00,5.198e+00,3.412e+00,3.807e+00,3.539e+00,4.140e+00,5.478e+00,4.923e+00,4.855e+00,4.223e+00,4.824e+00,5.045e+00,4.928e+00,5.095e+00,5.215e+00,4.272e+00,5.286e+00,3.664e+00,5.049e+00,4.366e+00,4.472e+00,6.581e+00,4.304e+00,3.602e+00,4.464e+00,5.337e+00,3.727e+00,4.779e+00,3.764e+00,4.555e+00,5.062e+00,4.826e+00,5.354e+00,4.815e+00,4.401e+00,3.489e+00,5.131e+00,4.783e+00,4.952e+00,3.764e+00,4.095e+00,5.064e+00,5.813e+00,5.479e+00
3.692e-01,3.799e-01,1.320e+00,7.372e-01,1.557e+00,1.671e+00,1.154e+00,1.027e+00,2.989e+00,2.392e+00,2.298e+00,2.390e+00,3.714e+00,3.514e+00,2.831e+00,2.758e+00,2.851e+00,5.219e+00,4.699e+00,4.860e+00,5.527e+00,3.443e+00,4.656e+00,5.811e+00,5.109e+00,4.081e+00,3.895e+00,5.928e+00,2.936e+00,5.266e+00,4.410e+00,4.528e+00,5.512e+00,5.339e+00,5.073e+00,4.618e+00,4.677e+00,5.856e+00,4.733e+00,4.555e+00,5.246e+00,5.349e+00,4.597e+00,3.856e+00,4.257e+00,3.999e+00,4.431e+00,6.100e+00,4.381e+00,4.669e+00,4.589e+00,4.482e+00,5.673e+00,5.222e+00,4.799e+00,4.658e+00,4.401e+00,4.493e+00,3.483e+00,4.633e+00,4.167e+00,4.016e+00,5.540e+00,3.466e+00,4.420e+00,4.312e+00,4.642e+00,4.830e+00,4.640e+00,3.619e+00,3.792e+00,5.611e+00,3.417e+00,5.690e+00,5.759e+00,3.766e+00,4.257e+00,4.970e+00,4.429e+00,5.922e+00,3.807e+00,3.841e+00,4.548e+00,4.567e+00,4.568e+00
2.053e-01,2.019e-01,7.668e-01,6.702e-01,9.622e-01,6.232e-01,6.701e-01,1.185e+00,3.073e+00,2.547e+00,2.129e+00,2.703e+00,3.852e+00,3.578e+00,3.772e+00,3.044e+00,4.091e+00,5.529e+00,4.824e+00,5.150e+00,6.629e+00,4.899e+00,5.700e+00,5.801e+00,5.082e+00,5.156e+00,4.317e+00,7.446e+00,3.324e+00,6.339e+00,4.936e+00,5.809e+00,5.117e+00,6.292e+00,5.783e+00,5.403e+00,4.143e+00,6.615e+00,5.406e+00,5.484e+00,6.893e+00,5.742e+00,6.010e+00,5.246e+00,3.938e+00,5.739e+00,4.222e+00,6.740e+00,6.165e+00,5.651e+00,4.826e+00,4.963e+00,6.955e+00,5.541e+00,5.322e+00,5.160e+00,4.945e+00,5.910e+00,3.814e+00,5.819e+00,4.812e+00,4.476e+00,6.254e+00,4.920e+00,4.707e+00,5.483e+00,5.086e+00,4.544e+00,5.582e+00,5.255e+00,5.385e+00,6.176e+00,4.917e+00,5.665e+00,6.839e+00,4.376e+00,4.802e+00,5.660e+00,5.075e+00,5.723e+00,4.211e+00,3.997e+00,4.948e+00,5.648e+00,5.225e+00
3.216e-01,3.307e-01,1.129e+00,9.891e-01,1.765e+00,1.516e+00,1.286e+00,1.426e+00,3.153e+00,2.490e+00,2.601e+00,3.079e+00,4.506e+00,4.213e+00,3.672e+00,4.563e+00,3.920e+00,5.803e+00,5.175e+00,5.379e+00,6.175e+00,5.736e+00,6.671e+00,6.338e+00,5.395e+00,5.747e+00,4.368e+00,6.715e+00,4.009e+00,5.928e+00,5.856e+00,6.371e+00,6.783e+00,7.035e+00,6.041e+00,5.815e+00,5.737e+00,7.695e+00,6.822e+00,5.539e+00,6.685e+00,6.230e+00,6.863e+00,4.776e+00,5.575e+00,5.207e+00,4.699e+00,7.902e+00,6.419e+00,6.365e+00,5.116e+00,5.553e+00,7.255e+00,5.943e+00,7.014e+00,5.333e+00,5.388e+00,7.006e+00,4.562e+00,5.702e+00,6.003e+00,5.662e+00,7.212e+00,5.276e+00,5.587e+00,6.148e+00,5.894e+00,5.623e+00,6.316e+00,5.161e+00,6.062e+00,6.988e+00,4.990e+00,7.041e+00,7.409e+00,5.006e+00,5.615e+00,6.708e+00,6.019e+00,7.296e+00,4.815e+00,4.747e+00,6.157e+00,5.844e+00,6.235e+00
1.194e-01,1.321e-01,8.610e-01,5.517e-01,1.099e+00,1.276e+00,9.048e-01,1.671e+00,3.666e+00,3.315e+00,2.360e+00,2.804e+00,4.475e+00,4.020e+00,3.105e+00,3.098e+00,4.295e+00,5.600e+00,5.200e+00,5.585e+00,5.872e+00,4.296e+00,6.210e+00,6.237e+00,4.097e+00,5.634e+00,5.350e+00,7.096e+00,3.810e+00,5.983e+00,5.206e+00,5.184e+00,6.136e+00,6.045e+00,6.182e+00,5.547e+00,5.295e+00,6.704e+00,5.507e+00,5.051e+00,6.569e+00,5.774e+00,5.112e+00,5.277e+00,5.007e+00,4.830e+00,4.498e+00,6.934e+00,5.040e+00,4.458e+00,5.941e+00,5.328e+00,5.988e+00,6.280e+00,5.607e+00,5.881e+00,4.773e+00,6.144e+00,5.116e+00,5.541e+00,5.128e+00,4.923e+00,6.674e+00,5.027e+00,4.949e+00,4.905e+00,6.679e+00,4.895e+00,5.107e+00,5.217e+00,4.588e+00,5.935e+00,5.343e+00,6.488e+00,6.432e+00,4.419e+00,4.982e+00,5.925e+00,5.612e+00,5.904e+00,4.643e+00,4.304e+00,4.960e+00,5.859e+00,5.723e+00
4.115e-01,4.142e-01,7.069e-01,9.305e-01,1.528e+00,1.180e+00,1.209e+00,1.404e+00,3.403e+00,2.486e+00,2.394e+00,2.909e+00,4.789e+00,4.582e+00,3.460e+00,4.298e+00,4.218e+00,5.066e+00,4.687e+00,4.789e+00,5.496e+00,4.829e+00,5.090e+00,5.660e+00,5.600e+00,6.624e+00,4.019e+00,6.407e+00,3.647e+00,6.332e+00,4.610e+00,5.736e+00,5.648e+00,6.707e+00,6.158e+00,5.021e+00,5.461e+00,5.906e+00,5.063e+00,4.787e+00,6.784e+00,5.737e+00,5.497e+00,5.027e+00,4.766e+00,5.110e+00,3.951e+00,6.660e+00,5.413e+00,5.238e+00,4.855e+00,4.224e+00,5.991e+00,5.766e+00,6.085e+00,4.694e+00,5.187e+00,5.114e+00,5.317e+00,5.006e+00,4.794e+00,4.478e+00,6.669e+00,4.704e+00,4.788e+00,5.908e+00,5.143e+00,4.740e+00,5.773e+00,4.724e+00,4.326e+00,5.339e+00,4.821e+00,5.496e+00,5.468e+00,4.139e+00,5.133e+00,4.670e+00,5.372e+00,4.669e+00,4.190e+00,3.935e+00,5.053e+00,4.317e+00,5.677e+00
3.672e-01,3.797e-01,1.245e+00,1.409e+00,1.912e+00,1.577e+00,1.409e+00,2.223e+00,3.631e+00,2.962e+00,3.719e+00,4.017e+00,5.426e+00,4.965e+00,3.300e+00,5.057e+00,3.683e+00,5.749e+00,5.085e+00,6.104e+00,6.350e+00,5.356e+00,6.186e+00,6.908e+00,5.887e+00,7.083e+00,5.450e+00,7.424e+00,4.781e+00,7.390e+00,6.438e+00,6.369e+00,7.778e+00,7.698e+00,7.504e+00,7.072e+00,7.088e+00,8.303e+00,7.141e+00,6.447e+00,6.901e+00,6.654e+00,6.894e+00,4.834e+00,6.593e+00,5.982e+00,5.990e+00,8.409e+00,6.381e+00,7.020e+00,6.590e+00,6.358e+00,7.533e+00,6.094e+00,7.809e+00,5.993e+00,6.246e+00,6.974e+00,6.068e+00,7.519e+00,6.135e+00,6.530e+00,8.312e+00,5.859e+00,6.200e+00,6.552e+00,6.461e+00,6.122e+00,6.038e+00,5.755e+00,6.943e+00,7.284e+00,5.860e+00,7.532e+00,7.652e+00,5.745e+00,6.552e+00,7.940e+00,6.824e+00,6.927e+00,6.169e+00,6.466e+00,6.779e+00,6.204e+00,6.865e+00
2.435e-01,2.535e-01,7.803e-01,5.565e-01,9.837e-01,1.029e+00,7.488e-01,7.606e-01,2.113e+00,1.932e+00,2.068e+00,2.537e+00,3.473e+00,3.165e+00,3.331e+00,3.229e+00,3.686e+00,5.837e+00,4.392e+00,4.960e+00,6.562e+00,5.215e+00,6.167e+00,6.033e+00,5.956e+00,7.743e+00,5.148e+00,8.109e+00,5.079e+00,8.476e+00,6.878e+00,6.945e+00,8.164e+00,7.841e+00,7.045e+00,7.162e+00,6.954e+00,8.100e+00,6.330e+00,7.105e+00,8.179e+00,7.449e+00,6.653e+00,6.383e+00,6.875e+00,6.974e+00,5.599e+00,8.664e+00,7.431e+00,7.036e+00,5.600e+00,6.134e+00,8.111e+00,7.218e+00,8.145e+00,6.538e+00,6.463e+00,6.782e+00,6.317e+00,6.891e+00,6.358e+00,6.493e+00,8.287e+00,6.165e+00,6.394e+00,7.483e+00,6.048e+00,6.809e+00,6.760e+00,6.311e+00,7.532e+00,6.955e+00,5.241e+00,6.603e+00,7.379e+00,5.732e+00,6.426e+00,7.571e+00,5.948e+00,8.307e+00,6.018e+00,6.140e+00,6.994e+00,6.959e+00,7.507e+00
3.592e-01,3.543e-01,9.590e-01,1.385e+00,2.588e+00,1.733e+00,1.902e+00,1.583e+00,3.298e+00,1.870e+00,3.480e+00,3.111e+00,4.285e+00,3.275e+00,3.403e+00,3.591e+00,2.826e+00,5.407e+00,4.638e+00,4.437e+00,6.736e+00,5.175e+00,6.448e+00,5.771e+00,5.407e+00,6.823e+00,5.396e+00,7.649e+00,4.253e+00,6.961e+00,6.113e+00,5.771e+00,7.551e+00,7.166e+00,7.100e+00,7.180e+00,6.671e+00,8.506e+00,6.784e+00,6.415e+00,7.107e+00,6.231e+00,7.026e+00,5.784e+00,6.432e+00,6.825e+00,5.378e+00,8.891e+00,7.494e+00,6.610e+00,5.850e+00,5.395e+00,7.954e+00,7.630e+00,7.783e+00,6.323e+00,7.295e+00,6.433e+00,6.318e+00,6.317e+00,6.215e+00,6.926e+00,7.957e+00,6.458e+00,5.916e+00,7.550e+00,6.597e+00,5.878e+00,7.135e+00,5.141e+00,7.310e+00,6.547e+00,5.702e+00,6.537e+00,6.621e+00,5.553e+00,5.814e+00,7.889e+00,6.428e+00,8.514e+00,5.468e+00,5.985e+00,7.019e+00,6.987e+00,7.051e+00
4.076e-01,4.030e-01,6.070e-01,1.280e+00,1.860e+00,1.010e+00,1.406e+00,1.849e+00,3.549e+00,2.443e+00,3.007e+00,3.440e+00,5.178e+00,4.850e+00,3.848e+00,4.919e+00,4.613e+00,6.157e+00,5.393e+00,5.426e+00,6.773e+00,5.629e+00,6.553e+00,6.537e+00,5.765e+00,8.964e+00,6.692e+00,9.660e+00,5.275e+00,8.889e+00,7.605e+00,8.152e+00,8.813e+00,9.357e+00,9.487e+00,7.620e+00,9.009e+00,9.943e+00,7.948e+00,8.255e+00,9.212e+00,8.540e+00,8.158e+00,6.880e+00,7.364e+00,8.256e+00,6.270e+00,9.712e+00,7.476e+00,7.601e+00,8.247e+00,7.102e+00,8.949e+00,8.582e+00,1.045e+01,8.303e+00,8.641e+00,8.046e+00,9.021e+00,9.255e+00,7.355e+00,8.560e+00,1.006e+01,7.814e+00,7.658e+00,8.084e+00,9.255e+00,7.115e+00,7.858e+00,7.459e+00,9.302e+00,8.232e+00,7.380e+00,7.900e+00,8.591e+00,7.288e+00,7.641e+00,9.221e+00,8.286e+00,8.444e+00,7.862e+00,8.041e+00,8.538e+00,8.292e+00,9.320e+00
4.856e-01,4.914e-01,9.252e-01,8.649e-01,1.491e+00,1.101e+00,9.407e-01,1.456e+00,3.063e+00,2.947e+00,2.592e+00,3.649e+00,4.603e+00,4.557e+00,3.552e+00,4.161e+00,4.183e+00,5.954e+00,5.842e+00,5.625e+00,6.212e+00,5.455e+00,5.311e+00,6.144e+00,4.956e+00,6.645e+00,5.376e+00,7.801e+00,5.997e+00,7.678e+00,5.922e+00,7.253e+00,7.464e+00,6.510e+00,7.621e+00,6.792e+00,7.200e+00,8.099e+00,6.231e+00,6.693e+00,8.249e+00,6.805e+00,7.429e+00,5.593e+00,6.317e+00,5.974e+00,6.190e+00,8.061e+00,7.700e+00,6.577e+00,5.727e+00,5.321e+00,7.760e+00,7.248e+00,8.012e+00,6.875e+00,6.972e+00,7.338e+00,7.188e+00,8.165e+00,6.522e+00,6.516e+00,8.535e+00,6.751e+00,6.136e+00,7.026e+00,7.174e+00,5.608e+00,7.147e+00,6.527e+00,7.624e+00,7.043e+00,6.889e+00,6.907e+00,7.319e+00,6.001e+00,5.947e+00,7.343e+00,6.942e+00,7.078e+00,7.219e+00,6.302e+00,7.333e+00,7.886e+00,7.389e+00
5.360e-01,5.305e-01,1.205e+00,1.494e+00,2.010e+00,1.122e+00,1.318e+00,1.471e+00,3.112e+00,2.044e+00,2.896e+00,3.290e+00,4.237e+00,3.770e+00,4.495e+00,4.121e+00,3.992e+00,5.119e+00,5.293e+00,4.819e+00,7.138e+00,5.427e+00,6.516e+00,6.273e+00,5.301e+00,7.331e+00,5.221e+00,7.700e+00,5.483e+00,8.785e+00,7.155e+00,8.379e+00,8.267e+00,9.246e+00,8.354e+00,7.683e+00,7.994e+00,9.048e+00,7.811e+00,7.373e+00,9.142e+00,7.544e+00,7.866e+00,7.496e+00,8.069e+00,8.574e+00,5.820e+00,8.994e+00,8.897e+00,7.420e+00,7.255e+00,6.026e+00,9.458e+00,8.352e+00,9.158e+00,7.718e+00,7.913e+00,7.476e+00,7.786e+00,8.407e+00,7.778e+00,8.313e+00,8.421e+00,8.131e+00,6.271e+00,7.779e+00,8.096e+00,7.230e+00,8.403e+00,7.480e+00,8.779e+00,7.744e+00,7.829e+00,8.000e+00,9.056e+00,7.356e+00,8.023e+00,7.669e+00,6.845e+00,8.688e+00,6.530e+00,7.323e+00,8.213e+00,7.073e+00,8.642e+00
3.313e-01,3.331e-01,7.387e-01,1.023e+00,1.940e+00,1.419e+00,1.489e+00,1.517e+00,3.220e+00,2.322e+00,2.924e+00,3.019e+00,4.159e+00,3.738e+00,2.950e+00,3.965e+00,3.497e+00,5.827e+00,4.843e+00,4.264e+00,6.299e+00,4.877e+00,5.706e+00,6.136e+00,5.392e+00,7.689e+00,5.907e+00,8.262e+00,4.897e+00,7.810e+00,6.917e+00,6.052e+00,8.609e+00,8.517e+00,8.859e+00,7.523e+00,8.737e+00,9.281e+00,6.964e+00,7.115e+00,9.157e+00,7.158e+00,7.973e+00,7.135e+00,7.519e+00,7.764e+00,6.958e+00,9.027e+00,7.450e+00,7.980e+00,7.601e+00,6.618e+00,7.969e+00,8.202e+00,9.222e+00,7.153e+00,8.356e+00,7.405e+00,7.953e+00,8.145e+00,7.701e+00,8.051e+00,8.640e+00,8.068e+00,6.916e+00,9.280e+00,7.874e+00,7.097e+00,8.081e+00,6.207e+00,8.340e+00,7.282e+00,6.921e+00,6.634e+00,7.957e+00,6.519e+00,6.810e+00,8.445e+00,7.246e+00,8.280e+00,6.631e+00,6.618e+00,8.402e+00,7.845e+00,7.970e+00
4.865e-01,4.970e-01,1.318e+00,1.055e+00,1.831e+00,1.630e+00,1.225e+00,1.124e+00,2.812e+00,2.252e+00,2.721e+00,3.442e+00,4.813e+00,4.725e+00,4.011e+00,4.534e+00,3.768e+00,5.638e+00,5.581e+00,5.219e+00,6.155e+00,6.253e+00,5.957e+00,6.242e+00,5.820e+00,6.945e+00,5.051e+00,7.328e+00,4.816e+00,7.479e+00,7.415e+00,8.184e+00,8.588e+00,9.228e+00,7.962e+00,7.327e+00,7.953e+00,1.024e+01,9.063e+00,7.659e+00,9.593e+00,7.339e+00,8.910e+00,6.945e+00,7.710e+00,8.516e+00,6.777e+00,9.969e+00,7.950e+00,8.285e+00,6.762e+00,6.839e+00,9.618e+00,7.490e+00,8.941e+00,6.974e+00,8.122e+00,7.991e+00,8.175e+00,8.266e+00,8.109e+00,8.096e+00,9.937e+00,7.738e+00,6.115e+00,8.370e+00,7.806e+00,7.135e+00,8.092e+00,7.041e+00,8.171e+00,8.851e+00,7.386e+00,7.838e+00,8.440e+00,7.177e+00,7.856e+00,8.045e+00,7.752e+00,8.918e+00,7.179e+00,7.050e+00,9.015e+00,8.277e+00,8.393e+00
3.564e-01,3.521e-01,6.799e-01,5.884e-01,1.352e+00,9.628e-01,9.588e-01,9.233e-01,2.268e+00,1.567e+00,1.620e+00,2.175e+00,3.163e+00,2.710e+00,3.554e+00,3.091e+00,3.341e+00,4.133e+00,3.797e+00,3.405e+00,4.817e+00,3.583e+00,4.625e+00,5.554e+00,3.721e+00,5.541e+00,4.237e+00,6.752e+00,3.807e+00,6.689e+00,4.757e+00,6.045e+00,7.603e+00,8.473e+00,7.799e+00,6.962e+00,7.308e+00,8.406e+00,7.190e+00,5.933e+00,6.963e+00,6.686e+00,6.394e+00,6.192e+00,5.961e+00,7.268e+00,4.383e+00,8.122e+00,7.533e+00,6.747e+00,5.746e+00,5.744e+00,7.789e+00,7.516e+00,7.760e+00,6.134e+00,5.785e+00,7.428e+00,6.784e+00,6.246e+00,7.007e+00,7.150e+00,8.437e+00,7.179e+00,5.800e+00,6.844e+00,6.413e+00,6.123e+00,6.571e+00,6.465e+00,6.956e+00,7.043e+00,6.639e+00,6.492e+00,7.708e+00,6.403e+00,6.083e+00,6.777e+00,5.984e+00,7.326e+00,6.343e+00,4.994e+00,5.942e+00,6.880e+00,8.136e+00
6.798e-02,6.875e-02,2.348e-01,4.453e-01,7.334e-01,6.620e-01,6.507e-01,1.547e+00,1.837e+00,1.514e+00,2.518e+00,2.638e+00,3.815e+00,3.638e+00,3.295e+00,3.842e+00,3.420e+00,4.974e+00,4.105e+00,4.812e+00,5.337e+00,4.923e+00,4.779e+00,5.404e+00,4.453e+00,6.498e+00,4.946e+00,7.059e+00,4.933e+00,7.977e+00,6.334e+00,6.854e+00,8.640e+00,8.563e+00,9.212e+00,9.318e+00,8.427e+00,9.671e+00,8.507e+00,8.896e+00,9.638e+00,8.302e+00,9.248e+00,7.182e+00,8.005e+00,8.586e+00,7.221e+00,1.034e+01,9.050e+00,8.608e+00,7.387e+00,7.231e+00,1.057e+01,9.489e+00,9.375e+00,7.075e+00,8.406e+00,9.513e+00,8.102e+00,1.058e+01,8.460e+00,9.366e+00,1.089e+01,9.368e+00,7.944e+00,9.128e+00,7.716e+00,7.975e+00,8.251e+00,7.721e+00,9.949e+00,8.972e+00,7.483e+00,6.902e+00,8.834e+00,8.426e+00,7.038e+00,9.671e+00,7.951e+00,9.281e+00,8.279e+00,7.262e+00,8.252e+00,9.417e+00,1.010e+01
5.501e-01,5.589e-01,1.100e+00,8.190e-01,1.685e+00,1.375e+00,1.074e+00,6.446e-01,2.782e+00,2.352e+00,1.392e+00,2.368e+00,3.517e+00,3.020e+00,2.899e+00,2.867e+00,3.391e+00,5.535e+00,4.633e+00,4.333e+00,5.301e+00,5.222e+00,6.287e+00,5.320e+00,4.893e+00,7.382e+00,5.757e+00,8.601e+00,4.704e+00,7.612e+00,7.185e+00,7.595e+00,8.345e+00,8.357e+00,8.978e+00,7.598e+00,8.184e+00,1.070e+01,7.996e+00,8.955e+00,9.600e+00,8.223e+00,8.898e+00,8.674e+00,7.914e+00,7.936e+00,5.916e+00,1.034e+01,8.115e+00,7.223e+00,7.183e+00,7.326e+00,9.387e+00,9.148e+00,9.344e+00,7.806e+00,9.153e+00,9.338e+00,8.734e+00,8.165e+00,7.820e+00,7.608e+00,9.118e+00,9.305e+00,6.839e+00,7.716e+00,9.282e+00,8.271e+00,7.753e+00,8.087e+00,8.826e+00,9.716e+00,7.260e+00,7.611e+00,9.343e+00,7.350e+00,7.252e+00,9.226e+00,8.296e+00,9.145e+00,7.312e+00,8.127e+00,7.733e+00,1.006e+01,9.673e+00
2.643e-01,2.583e-01,6.878e-01,5.431e-01,1.349e+00,9.591e-01,9.285e-01,1.379e+00,2.882e+00,2.241e+00,1.853e+00,2.226e+00,3.555e+00,3.466e+00,3.449e+00,3.219e+00,3.555e+00,4.531e+00,5.014e+00,4.597e+00,5.048e+00,3.787e+00,5.565e+00,6.261e+00,3.664e+00,5.545e+00,5.306e+00,7.017e+00,4.751e+00,6.334e+00,5.289e+00,6.333e+00,8.109e+00,8.479e+00,8.729e+00,9.122e+00,8.873e+00,1.081e+01,8.816e+00,8.862e+00,8.921e+00,7.757e+00,8.537e+00,9.038e+00,6.815e+00,8.333e+00,5.968e+00,1.072e+01,8.434e+00,7.971e+00,7.644e+00,8.171e+00,9.596e+00,9.768e+00,9.375e+00,8.317e+00,8.738e+00,1.101e+01,8.498e+00,8.734e+00,9.336e+00,8.541e+00,9.415e+00,9.614e+00,7.665e+00,8.407e+00,9.105e+00,7.739e+00,8.482e+00,8.758e+00,1.032e+01,9.892e+00,7.873e+00,7.583e+00,1.044e+01,8.067e+00,7.530e+00,1.041e+01,7.824e+00,9.329e+00,7.737e+00,6.850e+00,8.101e+00,9.679e+00,9.109e+00
3.878e-01,3.780e-01,5.617e-01,1.062e+00,2.134e+00,1.375e+00,1.672e+00,1.723e+00,3.503e+00,2.112e+00,3.269e+00,3.263e+00,5.134e+00,4.709e+00,4.319e+00,4.612e+00,4.022e+00,5.789e+00,4.985e+00,4.889e+00,6.815e+00,4.631e+00,5.541e+00,7.138e+00,5.699e+00,7.801e+00,5.661e+00,8.356e+00,5.167e+00,8.923e+00,5.427e+00,6.813e+00,8.341e+00,9.872e+00,9.475e+00,9.876e+00,9.922e+00,1.037e+01,9.210e+00,9.051e+00,1.030e+01,8.596e+00,9.097e+00,9.997e+00,8.629e+00,1.070e+01,7.092e+00,1.106e+01,1.047e+01,8.664e+00,7.684e+00,7.494e+00,1.117e+01,1.090e+01,9.657e+00,7.944e+00,8.859e+00,1.035e+01,9.182e+00,9.429e+00,8.724e+00,8.596e+00,1.065e+01,1.051e+01,8.966e+00,1.032e+01,8.167e+00,9.022e+00,8.724e+00,8.594e+00,1.045e+01,9.759e+00,7.808e+00,7.644e+00,1.046e+01,8.558e+00,7.865e+00,9.822e+00,8.785e+00,9.863e+00,7.446e+00,7.257e+00,7.450e+00,9.026e+00,1.030e+01
5.533e-01,5.563e-01,9.846e-01,8.226e-01,1.691e+00,1.230e+00,1.134e+00,1.315e+00,3.502e+00,3.246e+00,2.632e+00,3.731e+00,5.107e+00,4.913e+00,3.140e+00,5.035e+00,4.427e+00,6.385e+00,6.193e+00,6.590e+00,6.475e+00,6.362e+00,7.103e+00,8.072e+00,6.719e+00,7.471e+00,6.454e+00,8.743e+00,5.113e+00,8.844e+00,7.111e+00,7.316e+00,9.748e+00,9.502e+00,9.648e+00,9.524e+00,8.951e+00,1.194e+01,9.439e+00,1.015e+01,1.158e+01,8.842e+00,1.110e+01,9.779e+00,8.535e+00,8.430e+00,8.532e+00,1.261e+01,9.576e+00,9.912e+00,8.232e+00,9.518e+00,1.061e+01,9.927e+00,1.005e+01,8.779e+00,9.256e+00,1.162e+01,9.279e+00,1.029e+01,9.008e+00,9.105e+00,1.216e+01,1.047e+01,9.299e+00,1.077e+01,9.018e+00,9.423e+00,9.828e+00,8.795e+00,1.107e+01,1.168e+01,8.484e+00,1.002e+01,1.153e+01,8.733e+00,8.865e+00,1.166e+01,9.853e+00,1.088e+01,9.138e+00,7.869e+00,9.596e+00,1.077e+01,9.908e+00
4.130e-01,4.079e-01,9.669e-01,1.247e+00,1.654e+00,8.426e-01,1.049e+00,1.909e+00,3.530e+00,2.717e+00,2.384e+00,2.910e+00,3.817e+00,3.436e+00,3.862e+00,3.625e+00,3.864e+00,5.259e+00,4.861e+00,4.306e+00,5.657e+00,4.418e+00,6.071e+00,5.757e+00,4.284e+00,7.362e+00,4.858e+00,7.807e+00,5.124e+00,7.060e+00,5.743e+00,6.941e+00,7.879e+00,8.848e+00,9.906e+00,9.361e+00,8.456e+00,1.083e+01,8.176e+00,9.606e+00,1.057e+01,8.820e+00,9.616e+00,1.008e+01,7.888e+00,9.210e+00,7.052e+00,1.149e+01,8.766e+00,8.944e+00,8.998e+00,8.798e+00,1.108e+01,1.021e+01,1.115e+01,8.910e+00,1.046e+01,1.124e+01,9.806e+00,8.988e+00,1.018e+01,9.272e+00,1.033e+01,1.066e+01,8.901e+00,9.275e+00,1.098e+01,8.458e+00,9.161e+00,8.845e+00,1.110e+01,1.064e+01,8.993e+00,7.929e+00,1.028e+01,7.994e+00,8.347e+00,9.708e+00,9.377e+00,9.179e+00,8.385e+00,7.856e+00,8.579e+00,1.142e+01,1.067e+01
3.246e-01,3.322e-01,1.263e+00,1.344e+00,2.277e+00,1.792e+00,1.674e+00,2.044e+00,4.073e+00,2.910e+00,3.027e+00,3.472e+00,4.924e+00,4.664e+00,4.214e+00,4.220e+00,4.255e+00,6.521e+00,5.690e+00,5.299e+00,7.331e+00,5.880e+00,6.848e+00,6.767e+00,5.474e+00,7.343e+00,5.668e+00,9.592e+00,5.104e+00,8.012e+00,7.441e+00,7.960e+00,9.276e+00,9.992e+00,1.062e+01,9.434e+00,1.014e+01,1.198e+01,1.078e+01,1.178e+01,1.056e+01,1.082e+01,1.059e+01,9.780e+00,9.015e+00,1.003e+01,9.296e+00,1.345e+01,1.033e+01,9.519e+00,1.096e+01,1.030e+01,1.318e+01,1.209e+01,1.175e+01,1.080e+01,1.108e+01,1.184e+01,1.155e+01,1.202e+01,1.120e+01,9.642e+00,1.141e+01,1.188e+01,1.054e+01,9.152e+00,1.178e+01,9.400e+00,9.935e+00,1.017e+01,1.227e+01,1.254e+01,9.127e+00,1.063e+01,1.164e+01,8.409e+00,9.448e+00,1.179e+01,1.078e+01,1.211e+01,9.619e+00,9.941e+00,1.002e+01,1.235e+01,1.128e+01
7.934e-02,9.866e-02,6.213e-01,7.632e-01,1.461e+00,1.448e+00,1.217e+00,1.747e+00,3.083e+00,2.732e+00,2.513e+00,3.135e+00,4.633e+00,4.685e+00,3.320e+00,4.414e+00,4.429e+00,6.291e+00,5.181e+00,5.692e+00,7.145e+00,5.314e+00,6.384e+00,6.466e+00,4.830e+00,7.324e+00,6.215e+00,8.331e+00,4.652e+00,8.200e+00,6.822e+00,6.650e+00,8.421e+00,9.182e+00,9.548e+00,8.307e+00,7.961e+00,9.637e+00,7.775e+00,9.369e+00,1.046e+01,8.408e+00,9.115e+00,8.786e+00,8.612e+00,8.401e+00,8.339e+00,1.170e+01,8.788e+00,8.280e+00,9.533e+00,8.836e+00,1.056e+01,9.117e+00,1.038e+01,8.452e+00,8.786e+00,9.970e+00,8.744e+00,9.026e+00,8.728e+00,9.145e+00,1.169e+01,9.840e+00,8.787e+00,8.906e+00,9.517e+00,7.680e+00,8.134e+00,8.742e+00,1.007e+01,1.098e+01,8.226e+00,8.808e+00,1.022e+01,7.604e+00,9.091e+00,1.055e+01,9.117e+00,1.084e+01,1.034e+01,8.371e+00,8.284e+00,1.019e+01,1.038e+01
4.816e-01,4.840e-01,1.030e+00,7.966e-01,1.414e+00,1.162e+00,9.527e-01,1.431e+00,3.469e+00,2.907e+00,2.020e+00,2.611e+00,4.168e+00,4.473e+00,3.350e+00,3.418e+00,3.791e+00,4.865e+00,5.589e+00,5.332e+00,6.203e+00,5.490e+00,6.801e+00,7.081e+00,5.925e+00,7.901e+00,6.678e+00,8.801e+00,5.894e+00,8.983e+00,7.955e+00,8.166e+00,9.881e+00,9.614e+00,9.533e+00,8.624e+00,1.045e+01,1.145e+01,9.977e+00,1.119e+01,1.219e+01,1.085e+01,1.152e+01,1.146e+01,1.036e+01,1.143e+01,9.141e+00,1.264e+01,1.036e+01,1.028e+01,1.198e+01,9.644e+00,1.215e+01,1.263e+01,1.249e+01,1.052e+01,1.157e+01,1.192e+01,1.195e+01,1.115e+01,1.300e+01,1.095e+01,1.284e+01,1.294e+01,9.791e+00,1.075e+01,1.166e+01,9.762e+00,1.099e+01,1.167e+01,1.197e+01,1.253e+01,1.089e+01,1.059e+01,1.197e+01,9.748e+00,1.085e+01,1.130e+01,1.197e+01,1.295e+01,1.041e+01,1.007e+01,1.088e+01,1.246e+01,1.115e+01
3.689e-01,3.829e-01,9.967e-01,7.629e-01,1.598e+00,1.615e+00,1.209e+00,1.532e+00,3.521e+00,3.120e+00,2.581e+00,3.067e+00,4.651e+00,4.111e+00,2.558e+00,3.723e+00,3.725e+00,6.381e+00,5.230e+00,6.278e+00,6.520e+00,5.424e+00,6.598e+00,7.123e+00,6.065e+00,7.531e+00,6.737e+00,9.223e+00,5.202e+00,8.480e+00,7.105e+00,6.796e+00,9.303e+00,8.412e+00,9.528e+00,8.731e+00,9.020e+00,1.098e+01,9.360e+00,1.008e+01,1.076e+01,9.995e+00,1.102e+01,1.084e+01,1.005e+01,1.095e+01,8.554e+00,1.259e+01,1.081e+01,1.095e+01,1.031e+01,1.028e+01,1.195e+01,1.216e+01,1.128e+01,9.428e+00,1.166e+01,1.230e+01,1.051e+01,1.062e+01,1.143e+01,1.038e+01,1.286e+01,1.119e+01,1.010e+01,1.043e+01,1.026e+01,1.036e+01,1.005e+01,1.040e+01,1.128e+01,1.200e+01,9.418e+00,9.857e+00,1.180e+01,9.642e+00,9.036e+00,1.275e+01,1.200e+01,1.257e+01,1.089e+01,9.538e+00,1.002e+01,1.234e+01,1.009e+01
2.764e-01,2.725e-01,6.325e-01,1.183e+00,1.537e+00,7.638e-01,1.096e+00,1.193e+00,2.337e+00,1.310e+00,2.119e+00,2.243e+00,3.234e+00,3.460e+00,2.754e+00,3.338e+00,2.811e+00,4.801e+00,4.112e+00,4.949e+00,6.152e+00,4.967e+00,5.373e+00,5.882e+00,5.381e+00,6.232e+00,4.849e+00,8.038e+00,3.812e+00,8.187e+00,6.613e+00,6.594e+00,7.841e+00,9.108e+00,8.633e+00,8.332e+00,7.594e+00,9.912e+00,7.776e+00,9.971e+00,9.506e+00,8.226e+00,9.956e+00,9.874e+00,7.756e+00,1.004e+01,8.034e+00,1.079e+01,9.033e+00,9.039e+00,9.115e+00,8.619e+00,1.238e+01,1.081e+01,9.959e+00,8.467e+00,9.790e+00,9.863e+00,8.845e+00,1.127e+01,9.528e+00,8.925e+00,1.095e+01,1.056e+01,1.019e+01,9.858e+00,9.872e+00,9.901e+00,9.211e+00,9.733e+00,9.998e+00,1.033e+01,8.355e+00,8.406e+00,1.126e+01,9.034e+00,9.289e+00,1.145e+01,1.016e+01,1.036e+01,8.448e+00,9.164e+00,9.772e+00,1.019e+01,9.860e+00
1.865e-01,2.059e-01,1.101e+00,6.146e-01,1.287e+00,1.673e+00,1.017e+00,1.060e+00,2.293e+00,1.955e+00,2.339e+00,2.537e+00,3.793e+00,3.508e+00,3.101e+00,3.408e+00,2.981e+00,4.381e+00,4.249e+00,4.324e+00,5.628e+00,4.718e+00,5.206e+00,5.899e+00,4.442e+00,6.157e+00,5.267e+00,6.872e+00,4.224e+00,7.469e+00,6.366e+00,5.741e+00,7.680e+00,9.254e+00,8.706e+00,8.180e+00,9.042e+00,1.021e+01,8.531e+00,9.424e+00,1.072e+01,8.282e+00,9.860e+00,1.128e+01,1.057e+01,1.011e+01,9.281e+00,1.211e+01,1.074e+01,1.012e+01,1.000e+01,8.787e+00,1.116e+01,1.099e+01,9.811e+00,9.441e+00,1.086e+01,1.099e+01,9.954e+00,1.107e+01,9.789e+00,1.015e+01,1.129e+01,1.248e+01,9.316e+00,1.041e+01,9.110e+00,1.059e+01,9.622e+00,1.037e+01,1.122e+01,1.209e+01,9.001e+00,8.923e+00,1.230e+01,9.366e+00,1.020e+01,1.112e+01,1.064e+01,1.234e+01,1.011e+01,8.563e+00,1.008e+01,1.154e+01,1.167e+01
4.159e-01,4.126e-01,7.842e-01,1.067e+00,2.276e+00,1.744e+00,1.787e+00,2.202e+00,4.356e+00,3.029e+00,3.574e+00,3.702e+00,6.119e+00,5.458e+00,3.970e+00,5.056e+00,4.422e+00,6.138e+00,5.880e+00,5.633e+00,6.971e+00,5.843e+00,6.812e+00,7.206e+00,6.230e+00,8.305e+00,6.704e+00,8.615e+00,5.503e+00,8.112e+00,6.847e+00,7.508e+00,8.655e+00,9.356e+00,9.897e+00,9.309e+00,1.044e+01,1.121e+01,9.987e+00,1.042e+01,1.204e+01,1.095e+01,1.169e+01,1.214e+01,1.126e+01,1.149e+01,1.096e+01,1.508e+01,1.275e+01,1.191e+01,1.177e+01,1.073e+01,1.415e+01,1.412e+01,1.268e+01,1.226e+01,1.385e+01,1.434e+01,1.252e+01,1.302e+01,1.286e+01,1.155e+01,1.548e+01,1.381e+01,1.165e+01,1.299e+01,1.188e+01,1.145e+01,1.221e+01,1.254e+01,1.408e+01,1.446e+01,1.125e+01,1.025e+01,1.335e+01,1.046e+01,1.108e+01,1.372e+01,1.399e+01,1.407e+01,1.228e+01,1.003e+01,1.312e+01,1.457e+01,1.235e+01
7.244e-02,7.643e-02,2.405e-01,5.628e-01,1.534e+00,1.377e+00,1.327e+00,1.390e+00,2.712e+00,1.767e+00,2.316e+00,2.046e+00,3.931e+00,3.684e+00,2.439e+00,3.251e+00,3.003e+00,4.724e+00,4.211e+00,4.602e+00,5.490e+00,4.687e+00,5.448e+00,5.621e+00,4.541e+00,6.795e+00,6.233e+00,7.269e+00,4.666e+00,6.840e+00,6.411e+00,5.446e+00,7.945e+00,8.149e+00,8.394e+00,8.697e+00,9.416e+00,1.047e+01,8.580e+00,1.144e+01,1.095e+01,9.732e+00,1.047e+01,1.168e+01,9.572e+00,9.773e+00,1.033e+01,1.296e+01,1.024e+01,1.094e+01,1.204e+01,1.069e+01,1.168e+01,1.276e+01,1.149e+01,1.061e+01,1.122e+01,1.383e+01,1.199e+01,1.113e+01,1.202e+01,1.095e+01,1.264e+01,1.358e+01,1.119e+01,1.110e+01,1.135e+01,1.003e+01,1.072e+01,1.168e+01,1.266e+01,1.211e+01,9.711e+00,8.319e+00,1.140e+01,9.822e+00,1.037e+01,1.230e+01,1.187e+01,1.321e+01,1.018e+01,9.654e+00,1.113e+01,1.262e+01,1.196e+01
4.699e-01,4.819e-01,1.458e+00,1.162e+00,1.569e+00,1.394e+00,1.034e+00,1.853e+00,3.719e+00,3.526e+00,3.360e+00,4.058e+00,4.886e+00,4.590e+00,4.732e+00,4.362e+00,4.603e+00,5.967e+00,6.022e+00,5.692e+00,7.022e+00,5.589e+00,6.861e+00,7.461e+00,6.026e+00,7.775e+00,5.768e+00,8.352e+00,5.733e+00,9.153e+00,6.627e+00,7.731e+00,9.434e+00,1.026e+01,9.643e+00,9.665e+00,8.762e+00,1.163e+01,9.050e+00,9.903e+00,1.153e+01,8.895e+00,1.135e+01,1.092e+01,1.057e+01,1.101e+01,9.773e+00,1.388e+01,1.191e+01,1.249e+01,1.131e+01,1.113e+01,1.353e+01,1.327e+01,1.130e+01,1.198e+01,1.275e+01,1.246e+01,1.271e+01,1.258e+01,1.286e+01,1.035e+01,1.434e+01,1.289e+01,1.127e+01,1.273e+01,1.267e+01,1.243e+01,1.074e+01,1.191e+01,1.300e+01,1.407e+01,1.151e+01,1.130e+01,1.241e+01,1.094e+01,1.204e+01,1.345e+01,1.301e+01,1.210e+01,1.176e+01,9.823e+00,1.170e+01,1.308e+01,1.225e+01
1.988e-01,2.123e-01,8.552e-01,1.109e+00,2.065e+00,1.703e+00,1.519e+00,1.543e+00,3.079e+00,2.417e+00,3.049e+00,3.431e+00,4.851e+00,4.490e+00,3.430e+00,4.453e+00,3.951e+00,5.570e+00,5.539e+00,6.096e+00,6.083e+00,5.087e+00,5.949e+00,6.191e+00,4.497e+00,6.059e+00,5.160e+00,7.105e+00,5.156e+00,6.594e+00,5.847e+00,7.024e+00,8.935e+00,8.862e+00,8.311e+00,8.732e+00,8.425e+00,1.109e+01,8.983e+00,9.510e+00,1.007e+01,8.161e+00,9.018e+00,9.239e+00,8.679e+00,9.775e+00,9.417e+00,1.322e+01,1.098e+01,1.038e+01,1.074e+01,1.075e+01,1.313e+01,1.248e+01,1.065e+01,9.725e+00,1.120e+01,1.223e+01,1.150e+01,1.095e+01,1.274e+01,1.160e+01,1.434e+01,1.226e+01,1.110e+01,1.183e+01,1.137e+01,1.114e+01,1.048e+01,1.009e+01,1.148e+01,1.225e+01,1.057e+01,9.424e+00,1.128e+01,9.937e+00,1.112e+01,1.286e+01,1.144e+01,1.326e+01,1.160e+01,8.395e+00,1.153e+01,1.332e+01,1.125e+01
2.839e-01,2.974e-01,1.293e+00,1.203e+00,1.768e+00,1.663e+00,1.250e+00,1.851e+00,3.206e+00,2.614e+00,3.426e+00,3.438e+00,4.471e+00,4.378e+00,3.665e+00,3.945e+00,3.132e+00,6.102e+00,5.295e+00,4.977e+00,5.972e+00,5.533e+00,5.560e+00,6.436e+00,5.231e+00,6.584e+00,4.914e+00,7.241e+00,4.599e+00,6.640e+00,5.892e+00,5.501e+00,7.225e+00,7.460e+00,7.389e+00,7.902e+00,8.284e+00,1.004e+01,7.137e+00,7.827e+00,9.207e+00,7.180e+00,9.841e+00,8.414e+00,7.283e+00,8.358e+00,9.085e+00,1.107e+01,8.949e+00,1.033e+01,1.022e+01,8.916e+00,1.169e+01,1.116e+01,1.002e+01,9.194e+00,1.089e+01,1.070e+01,1.066e+01,1.071e+01,1.143e+01,9.423e+00,1.211e+01,1.197e+01,1.081e+01,1.189e+01,1.125e+01,1.098e+01,9.251e+00,1.113e+01,1.069e+01,1.176e+01,9.679e+00,8.197e+00,1.024e+01,9.683e+00,9.426e+00,1.267e+01,1.108e+01,1.125e+01,9.497e+00,8.454e+00,1.144e+01,1.182e+01,1.046e+01
2.308e-01,2.499e-01,9.659e-01,5.246e-01,1.131e+00,1.372e+00,7.904e-01,1.434e+00,2.710e+00,2.612e+00,1.429e+00,2.070e+00,3.469e+00,3.789e+00,1.810e+00,2.534e+00,2.328e+00,3.909e+00,3.764e+00,4.628e+00,4.034e+00,3.130e+00,4.732e+00,5.375e+00,3.854e+00,5.867e+00,4.616e+00,5.736e+00,4.301e+00,6.880e+00,5.451e+00,5.211e+00,7.775e+00,7.072e+00,7.209e+00,7.661e+00,7.600e+00,8.497e+00,7.563e+00,8.696e+00,8.992e+00,7.111e+00,8.937e+00,9.783e+00,8.254e+00,8.826e+00,8.634e+00,1.131e+01,8.546e+00,9.187e+00,1.048e+01,1.136e+01,1.279e+01,1.149e+01,1.059e+01,1.037e+01,1.164e+01,1.174e+01,1.178e+01,1.188e+01,1.191e+01,1.013e+01,1.264e+01,1.211e+01,1.095e+01,1.274e+01,1.170e+01,1.290e+01,9.916e+00,1.162e+01,1.136e+01,1.260e+01,1.131e+01,8.572e+00,1.237e+01,9.565e+00,1.044e+01,1.335e+01,1.213e+01,1.129e+01,1.075e+01,8.347e+00,1.097e+01,1.284e+01,1.141e+01
5.163e-01,5.175e-01,8.823e-01,1.350e+00,2.471e+00,1.651e+00,1.835e+00,1.286e+00,3.546e+00,2.160e+00,2.417e+00,2.650e+00,4.075e+00,3.157e+00,2.318e+00,3.471e+00,3.157e+00,5.755e+00,4.119e+00,4.078e+00,5.372e+00,4.140e+00,4.962e+00,4.895e+00,4.901e+00,6.739e+00,4.744e+00,7.665e+00,4.714e+00,6.506e+00,6.039e+00,6.841e+00,8.548e+00,8.385e+00,9.463e+00,8.268e+00,9.024e+00,1.040e+01,8.591e+00,9.267e+00,9.536e+00,9.317e+00,9.328e+00,1.092e+01,9.247e+00,1.049e+01,9.726e+00,1.296e+01,1.014e+01,1.154e+01,1.116e+01,1.197e+01,1.361e+01,1.380e+01,1.277e+01,1.198e+01,1.305e+01,1.340e+01,1.352e+01,1.221e+01,1.314e+01,1.073e+01,1.395e+01,1.386e+01,1.260e+01,1.146e+01,1.239e+01,1.339e+01,1.154e+01,1.247e+01,1.307e+01,1.246e+01,1.080e+01,9.177e+00,1.212e+01,1.085e+01,1.046e+01,1.341e+01,1.288e+01,1.211e+01,1.235e+01,1.104e+01,1.365e+01,1.407e+01,1.238e+01
3.988e-01,4.107e-01,1.276e+00,1.424e+00,2.465e+00,1.980e+00,1.760e+00,2.228e+00,4.202e+00,3.157e+00,3.115e+00,3.561e+00,5.065e+00,4.452e+00,3.545e+00,3.846e+00,3.522e+00,5.713e+00,4.945e+00,5.249e+00,6.613e+00,5.305e+00,6.715e+00,6.387e+00,4.618e+00,6.506e+00,5.108e+00,7.292e+00,5.042e+00,7.039e+00,6.078e+00,6.673e+00,8.228e+00,8.233e+00,7.962e+00,8.435e+00,7.380e+00,9.844e+00,8.483e+00,8.760e+00,9.234e+00,8.165e+00,9.759e+00,9.932e+00,9.268e+00,9.644e+00,9.771e+00,1.269e+01,1.036e+01,1.074e+01,1.096e+01,1.088e+01,1.328e+01,1.267e+01,1.162e+01,1.201e+01,1.228e+01,1.350e+01,1.228e+01,1.130e+01,1.243e+01,1.067e+01,1.364e+01,1.237e+01,1.174e+01,1.200e+01,1.297e+01,1.214e+01,1.079e+01,1.306e+01,1.319e+01,1.363e+01,1.214e+01,1.087e+01,1.210e+01,1.030e+01,1.121e+01,1.351e+01,1.343e+01,1.246e+01,1.131e+01,9.690e+00,1.211e+01,1.355e+01,1.195e+01
5.666e-01,5.644e-01,1.369e+00,9.777e-01,1.780e+00,1.501e+00,1.193e+00,1.662e+00,3.322e+00,2.534e+00,2.890e+00,2.963e+00,4.108e+00,3.834e+00,3.895e+00,3.289e+00,3.057e+00,4.851e+00,5.250e+00,4.142e+00,6.321e+00,4.671e+00,6.076e+00,7.030e+00,4.759e+00,6.192e+00,5.513e+00,7.347e+00,4.606e+00,7.337e+00,5.854e+00,5.732e+00,7.186e+00,7.533e+00,7.843e+00,8.057e+00,8.785e+00,9.946e+00,8.293e+00,8.874e+00,9.409e+00,8.908e+00,1.040e+01,1.064e+01,9.162e+00,9.093e+00,9.395e+00,1.278e+01,1.014e+01,1.177e+01,1.084e+01,1.085e+01,1.311e+01,1.400e+01,1.371e+01,1.253e+01,1.392e+01,1.487e+01,1.327e+01,1.244e+01,1.349e+01,1.261e+01,1.428e+01,1.384e+01,1.303e+01,1.234e+01,1.348e+01,1.268e+01,1.150e+01,1.477e+01,1.392e+01,1.483e+01,1.189e+01,1.100e+01,1.433e+01,1.229e+01,1.206e+01,1.438e+01,1.395e+01,1.397e+01,1.228e+01,1.128e+01,1.301e+01,1.537e+01,1.377e+01
4.798e-01,4.826e-01,1.046e+00,8.820e-01,1.336e+00,1.142e+00,9.127e-01,1.788e+00,3.115e+00,2.554e+00,2.297e+00,2.598e+00,3.995e+00,4.212e+00,2.898e+00,3.091e+00,2.742e+00,4.497e+00,4.502e+00,4.383e+00,5.327e+00,4.409e+00,5.586e+00,6.049e+00,5.155e+00,6.871e+00,5.452e+00,6.952e+00,4.623e+00,7.780e+00,6.446e+00,6.776e+00,7.846e+00,8.262e+00,8.799e+00,8.332e+00,8.247e+00,9.874e+00,7.747e+00,9.924e+00,1.097e+01,8.707e+00,9.639e+00,9.914e+00,9.379e+00,8.732e+00,1.040e+01,1.356e+01,8.914e+00,1.050e+01,1.115e+01,1.119e+01,1.398e+01,1.226e+01,1.423e+01,1.282e+01,1.501e+01,1.378e+01,1.311e+01,1.359e+01,1.206e+01,1.332e+01,1.488e+01,1.453e+01,1.292e+01,1.327e+01,1.423e+01,1.363e+01,1.121e+01,1.289e+01,1.299e+01,1.472e+01,1.224e+01,9.834e+00,1.314e+01,1.153e+01,1.237e+01,1.407e+01,1.382e+01,1.390e+01,1.235e+01,1.176e+01,1.297e+01,1.595e+01,1.425e+01
9.231e-02,1.086e-01,1.035e+00,5.331e-01,1.235e+00,1.478e+00,8.810e-01,1.612e+00,2.681e+00,2.466e+00,2.025e+00,2.596e+00,3.960e+00,3.994e+00,3.419e+00,3.545e+00,3.588e+00,5.096e+00,5.220e+00,5.829e+00,5.993e+00,5.321e+00,6.484e+00,6.438e+00,4.589e+00,7.042e+00,5.706e+00,8.193e+00,5.592e+00,8.451e+00,7.479e+00,7.633e+00,9.836e+00,9.097e+00,1.017e+01,9.864e+00,9.947e+00,1.139e+01,1.165e+01,1.153e+01,1.058e+01,1.046e+01,1.186e+01,1.091e+01,1.129e+01,1.158e+01,1.030e+01,1.450e+01,1.225e+01,1.296e+01,1.209e+01,1.311e+01,1.668e+01,1.529e+01,1.588e+01,1.435e+01,1.489e+01,1.683e+01,1.546e+01,1.584e+01,1.619e+01,1.507e+01,1.820e+01,1.589e+01,1.532e+01,1.461e+01,1.546e+01,1.473e+01,1.431e+01,1.570e+01,1.644e+01,1.716e+01,1.451e+01,1.288e+01,1.614e+01,1.290e+01,1.327e+01,1.726e+01,1.509e+01,1.609e+01,1.521e+01,1.191e+01,1.541e+01,1.802e+01,1.635e+01
5.547e-01,5.657e-01,1.684e+00,1.261e+00,2.285e+00,2.144e+00,1.562e+00,1.948e+00,3.987e+00,3.037e+00,3.209e+00,3.628e+00,5.565e+00,5.272e+00,4.357e+00,4.187e+00,3.667e+00,6.194e+00,5.978e+00,5.481e+00,7.040e+00,5.445e+00,6.798e+00,7.546e+00,5.576e+00,7.174e+00,6.029e+00,8.340e+00,4.683e+00,7.654e+00,7.361e+00,7.368e+00,8.197e+00,9.858e+00,8.900e+00,8.667e+00,9.550e+00,1.209e+01,9.194e+00,9.833e+00,1.106e+01,9.298e+00,1.069e+01,1.089e+01,8.676e+00,9.886e+00,9.458e+00,1.239e+01,9.581e+00,1.132e+01,1.158e+01,1.108e+01,1.320e+01,1.402e+01,1.341e+01,1.265e+01,1.483e+01,1.465e+01,1.352e+01,1.329e+01,1.451e+01,1.206e+01,1.584e+01,1.422e+01,1.197e+01,1.344e+01,1.592e+01,1.359e+01,1.267e+01,1.543e+01,1.385e+01,1.523e+01,1.330e+01,1.236e+01,1.430e+01,1.269e+01,1.250e+01,1.491e+01,1.362e+01,1.456e+01,1.195e+01,1.183e+01,1.433e+01,1.498e+01,1.374e+01
1.106e-01,1.236e-01,7.496e-01,9.459e-01,1.627e+00,1.477e+00,1.290e+00,1.487e+00,2.892e+00,2.084e+00,2.409e+00,2.427e+00,4.118e+00,4.116e+00,2.887e+00,3.382e+00,3.285e+00,5.868e+00,4.618e+00,5.137e+00,6.341e+00,4.857e+00,5.862e+00,5.084e+00,5.147e+00,6.801e+00,5.281e+00,7.415e+00,4.985e+00,7.218e+00,7.636e+00,7.761e+00,8.767e+00,8.844e+00,9.024e+00,8.823e+00,8.887e+00,1.103e+01,8.876e+00,1.088e+01,1.072e+01,9.365e+00,9.430e+00,9.863e+00,8.974e+00,9.611e+00,9.664e+00,1.257e+01,8.788e+00,1.147e+01,1.124e+01,1.120e+01,1.388e+01,1.236e+01,1.426e+01,1.222e+01,1.420e+01,1.591e+01,1.398e+01,1.428e+01,1.365e+01,1.216e+01,1.578e+01,1.435e+01,1.282e+01,1.294e+01,1.592e+01,1.289e+01,1.235e+01,1.473e+01,1.463e+01,1.521e+01,1.240e+01,1.143e+01,1.396e+01,1.200e+01,1.347e+01,1.492e+01,1.297e+01,1.437e+01,1.303e+01,1.219e+01,1.537e+01,1.487e+01,1.415e+01
9.845e-02,9.606e-02,6.875e-01,1.087e+00,1.582e+00,1.109e+00,1.273e+00,1.841e+00,2.876e+00,1.814e+00,3.362e+00,3.070e+00,4.311e+00,4.359e+00,4.322e+00,4.431e+00,3.744e+00,5.255e+00,5.098e+00,4.921e+00,6.892e+00,5.881e+00,6.136e+00,6.489e+00,5.802e+00,7.348e+00,5.517e+00,8.956e+00,4.289e+00,8.746e+00,6.977e+00,6.667e+00,8.221e+00,9.429e+00,1.018e+01,9.082e+00,9.657e+00,1.114e+01,9.914e+00,1.059e+01,1.063e+01,9.928e+00,1.180e+01,1.054e+01,1.022e+01,1.145e+01,1.075e+01,1.362e+01,1.201e+01,1.338e+01,1.270e+01,1.163e+01,1.514e+01,1.515e+01,1.474e+01,1.309e+01,1.588e+01,1.595e+01,1.448e+01,1.703e+01,1.628e+01,1.493e+01,1.746e+01,1.576e+01,1.588e+01,1.582e+01,1.576e+01,1.463e+01,1.314e+01,1.583e+01,1.721e+01,1.634e+01,1.370e+01,1.378e+01,1.664e+01,1.467e+01,1.323e+01,1.751e+01,1.541e+01,1.720e+01,1.467e+01,1.273e+01,1.620e+01,1.687e+01,1.542e+01
2.204e-01,2.249e-01,6.819e-01,6.412e-01,1.759e+00,1.682e+00,1.442e+00,1.323e+00,2.982e+00,2.033e+00,2.697e+00,2.478e+00,4.101e+00,3.633e+00,2.474e+00,2.751e+00,2.360e+00,4.035e+00,3.786e+00,3.670e+00,4.913e+00,4.033e+00,4.339e+00,4.947e+00,4.311e+00,4.695e+00,4.452e+00,6.285e+00,3.657e+00,5.981e+00,4.445e+00,5.103e+00,6.420e+00,6.486e+00,6.898e+00,6.805e+00,7.877e+00,9.240e+00,8.581e+00,8.353e+00,8.503e+00,7.465e+00,8.630e+00,9.423e+00,8.416e+00,9.159e+00,8.754e+00,1.099e+01,9.963e+00,1.079e+01,1.030e+01,1.050e+01,1.313e+01,1.258e+01,1.259e+01,1.131e+01,1.357e+01,1.486e+01,1.402e+01,1.383e+01,1.385e+01,1.324e+01,1.458e+01,1.415e+01,1.314e+01,1.373e+01,1.393e+01,1.333e+01,1.142e+01,1.431e+01,1.342e+01,1.355e+01,1.255e+01,1.093e+01,1.435e+01,1.200e+01,1.254e+01,1.446e+01,1.452e+01,1.513e+01,1.275e+01,1.205e+01,1.486e+01,1.508e+01,1.449e+01
1.564e-02,2.268e-02,5.263e-01,3.131e-01,1.183e+00,1.492e+00,1.102e+00,1.650e+00,2.832e+00,2.167e+00,2.790e+00,2.599e+00,4.734e+00,4.490e+00,3.938e+00,3.909e+00,3.798e+00,5.465e+00,4.899e+00,5.154e+00,6.161e+00,5.335e+00,6.432e+00,6.480e+00,5.695e+00,8.164e+00,6.245e+00,8.607e+00,5.371e+00,8.958e+00,7.530e+00,7.525e+00,1.003e+01,9.643e+00,1.063e+01,1.030e+01,1.140e+01,1.224e+01,1.117e+01,1.171e+01,1.204e+01,1.080e+01,1.166e+01,1.222e+01,1.093e+01,1.218e+01,1.019e+01,1.526e+01,1.218e+01,1.318e+01,1.184e+01,1.342e+01,1.581e+01,1.611e+01,1.598e+01,1.300e+01,1.626e+01,1.829e+01,1.439e+01,1.682e+01,1.827e+01,1.638e+01,1.836e+01,1.631e+01,1.635e+01,1.773e+01,1.697e+01,1.628e+01,1.506e+01,1.696e+01,1.620e+01,1.740e+01,1.447e+01,1.311e+01,1.862e+01,1.470e+01,1.397e+01,1.767e+01,1.680e+01,1.835e+01,1.475e+01,1.411e+01,1.705e+01,1.874e+01,1.734e+01
4.615e-01,4.593e-01,6.223e-01,1.020e+00,1.720e+00,9.462e-01,1.153e+00,1.195e+00,2.477e+00,1.884e+00,2.349e+00,3.049e+00,4.186e+00,3.894e+00,2.729e+00,4.373e+00,3.305e+00,5.154e+00,4.672e+00,5.588e+00,5.953e+00,5.775e+00,6.090e+00,6.533e+00,5.401e+00,7.279e+00,5.941e+00,8.010e+00,5.276e+00,8.942e+00,6.643e+00,7.466e+00,9.414e+00,9.077e+00,9.167e+00,9.617e+00,9.421e+00,1.171e+01,9.709e+00,1.068e+01,1.147e+01,8.816e+00,1.073e+01,1.162e+01,9.152e+00,1.090e+01,1.055e+01,1.423e+01,1.222e+01,1.184e+01,1.080e+01,1.314e+01,1.484e+01,1.439e+01,1.536e+01,1.348e+01,1.554e+01,1.715e+01,1.475e+01,1.573e+01,1.674e+01,1.515e+01,1.857e+01,1.618e+01,1.566e+01,1.700e+01,1.619e+01,1.677e+01,1.555e+01,1.810e+01,1.824e+01,1.752e+01,1.562e+01,1.394e+01,1.768e+01,1.570e+01,1.413e+01,1.811e+01,1.576e+01,1.798e+01,1.481e+01,1.502e+01,1.709e+01,1.733e+01,1.787e+01
2.692e-01,2.789e-01,9.886e-01,9.749e-01,1.556e+00,1.243e+00,1.038e+00,1.045e+00,2.204e+00,1.835e+00,2.423e+00,2.813e+00,3.674e+00,2.856e+00,2.347e+00,3.226e+00,2.617e+00,4.922e+00,3.972e+00,5.058e+00,5.101e+00,4.273e+00,5.029e+00,4.945e+00,4.453e+00,5.740e+00,4.937e+00,7.196e+00,4.175e+00,7.071e+00,6.452e+00,6.492e+00,8.310e+00,7.860e+00,8.148e+00,8.118e+00,8.000e+00,1.045e+01,9.030e+00,9.493e+00,9.191e+00,9.111e+00,1.016e+01,9.900e+00,9.827e+00,1.050e+01,9.462e+00,1.241e+01,1.122e+01,1.172e+01,1.104e+01,1.226e+01,1.469e+01,1.319e+01,1.259e+01,1.194e+01,1.383e+01,1.381e+01,1.386e+01,1.425e+01,1.467e+01,1.391e+01,1.776e+01,1.508e+01,1.342e+01,1.457e+01,1.476e+01,1.595e+01,1.337e+01,1.540e+01,1.535e+01,1.617e+01,1.425e+01,1.125e+01,1.566e+01,1.295e+01,1.255e+01,1.735e+01,1.556e+01,1.718e+01,1.348e+01,1.394e+01,1.519e+01,1.694e+01,1.489e+01
5.092e-01,5.015e-01,5.824e-01,8.829e-01,1.915e+00,1.170e+00,1.414e+00,1.093e+00,2.850e+00,1.876e+00,2.188e+00,2.370e+00,3.608e+00,2.980e+00,2.187e+00,3.053e+00,2.803e+00,4.131e+00,3.909e+00,4.082e+00,5.373e+00,3.366e+00,5.146e+00,5.409e+00,4.621e+00,6.187e+00,5.136e+00,7.106e+00,4.219e+00,7.531e+00,5.534e+00,5.754e+00,8.444e+00,7.784e+00,8.814e+00,8.503e+00,8.137e+00,9.068e+00,8.694e+00,9.456e+00,9.109e+00,8.986e+00,9.147e+00,9.810e+00,9.826e+00,9.856e+00,8.475e+00,1.176e+01,9.848e+00,1.028e+01,9.928e+00,1.022e+01,1.312e+01,1.308e+01,1.347e+01,1.165e+01,1.349e+01,1.374e+01,1.298e+01,1.354e+01,1.343e+01,1.403e+01,1.520e+01,1.336e+01,1.382e+01,1.494e+01,1.448e+01,1.599e+01,1.243e+01,1.373e+01,1.553e+01,1.536e+01,1.205e+01,1.187e+01,1.581e+01,1.308e+01,1.111e+01,1.652e+01,1.538e+01,1.595e+01,1.369e+01,1.418e+01,1.351e+01,1.525e+01,1.542e+01
2.721e-01,2.781e-01,1.111e+00,1.363e+00,2.407e+00,1.920e+00,1.792e+00,1.743e+00,3.034e+00,1.872e+00,3.707e+00,3.323e+00,4.681e+00,4.018e+00,3.623e+00,3.995e+00,2.990e+00,6.294e+00,5.200e+00,5.638e+00,7.015e+00,4.727e+00,5.279e+00,6.268e+00,4.691e+00,5.544e+00,5.791e+00,8.005e+00,4.194e+00,7.456e+00,6.409e+00,6.092e+00,7.813e+00,7.738e+00,8.704e+00,8.249e+00,8.223e+00,1.091e+01,8.828e+00,1.001e+01,9.166e+00,8.112e+00,1.036e+01,1.065e+01,9.282e+00,1.004e+01,1.002e+01,1.274e+01,1.062e+01,1.267e+01,1.164e+01,1.240e+01,1.477e+01,1.437e+01,1.273e+01,1.284e+01,1.461e+01,1.399e+01,1.381e+01,1.566e+01,1.449e+01,1.302e+01,1.574e+01,1.442e+01,1.346e+01,1.452e+01,1.616e+01,1.525e+01,1.280e+01,1.511e+01,1.556e+01,1.608e+01,1.334e+01,1.322e+01,1.630e+01,1.417e+01,1.410e+01,1.760e+01,1.671e+01,1.697e+01,1.389e+01,1.500e+01,1.674e+01,1.765e+01,1.441e+01
1.964e-01,2.153e-01,1.103e+00,5.516e-01,1.059e+00,1.505e+00,8.208e-01,1.454e+00,2.507e+00,2.430e+00,2.635e+00,2.926e+00,4.141e+00,3.969e+00,3.014e+00,3.294e+00,2.962e+00,5.710e+00,4.501e+00,5.417e+00,6.044e+00,5.194e+00,5.551e+00,6.368e+00,5.781e+00,6.859e+00,5.234e+00,7.877e+00,5.406e+00,9.048e+00,7.234e+00,7.645e+00,1.021e+01,9.420e+00,1.005e+01,1.008e+01,1.007e+01,1.197e+01,9.877e+00,1.035e+01,1.184e+01,9.500e+00,1.056e+01,1.114e+01,1.060e+01,1.174e+01,1.102e+01,1.433e+01,1.226e+01,1.254e+01,1.039e+01,1.178e+01,1.520e+01,1.351e+01,1.314e+01,1.224e+01,1.461e+01,1.476e+01,1.364e+01,1.620e+01,1.558e+01,1.308e+01,1.783e+01,1.540e+01,1.441e+01,1.584e+01,1.496e+01,1.579e+01,1.453e+01,1.679e+01,1.627e+01,1.760e+01,1.551e+01,1.357e+01,1.731e+01,1.351e+01,1.428e+01,1.745e+01,1.614e+01,1.868e+01,1.554e+01,1.424e+01,1.687e+01,1.824e+01,1.540e+01
2.856e-01,3.044e-01,1.171e+00,1.060e+00,1.546e+00,1.555e+00,1.102e+00,1.397e+00,2.872e+00,2.590e+00,3.197e+00,3.755e+00,5.124e+00,4.268e+00,3.866e+00,4.353e+00,4.279e+00,6.797e+00,5.503e+00,6.598e+00,6.745e+00,5.960e+00,6.007e+00,6.158e+00,5.126e+00,7.250e+00,5.718e+00,8.237e+00,6.202e+00,8.604e+00,7.472e+00,8.699e+00,1.002e+01,9.194e+00,9.888e+00,1.022e+01,9.862e+00,1.244e+01,1.027e+01,1.081e+01,1.147e+01,9.350e+00,1.009e+01,1.172e+01,1.029e+01,1.094e+01,1.035e+01,1.461e+01,1.203e+01,1.152e+01,9.968e+00,1.258e+01,1.501e+01,1.365e+01,1.317e+01,1.253e+01,1.406e+01,1.547e+01,1.426e+01,1.604e+01,1.485e+01,1.398e+01,1.773e+01,1.555e+01,1.396e+01,1.552e+01,1.626e+01,1.802e+01,1.579e+01,1.744e+01,1.764e+01,1.839e+01,1.525e+01,1.371e+01,1.841e+01,1.622e+01,1.589e+01,1.829e+01,1.750e+01,1.862e+01,1.558e+01,1.809e+01,1.797e+01,2.022e+01,1.780e+01
3.126e-01,3.049e-01,7.013e-01,9.927e-01,1.707e+00,1.193e+00,1.337e+00,1.574e+00,3.190e+00,2.032e+00,3.221e+00,2.765e+00,4.509e+00,4.121e+00,2.997e+00,3.788e+00,3.168e+00,5.044e+00,5.119e+00,5.739e+00,6.353e+00,5.690e+00,6.764e+00,7.174e+00,6.445e+00,7.498e+00,6.732e+00,8.834e+00,4.993e+00,8.340e+00,7.334e+00,7.002e+00,9.068e+00,8.871e+00,9.182e+00,9.541e+00,9.681e+00,1.161e+01,9.725e+00,1.079e+01,1.041e+01,1.051e+01,1.122e+01,1.164e+01,1.052e+01,1.143e+01,1.061e+01,1.512e+01,1.171e+01,1.296e+01,1.298e+01,1.331e+01,1.591e+01,1.556e+01,1.598e+01,1.354e+01,1.785e+01,1.787e+01,1.579e+01,1.639e+01,1.776e+01,1.662e+01,2.017e+01,1.768e+01,1.764e+01,1.731e+01,1.835e+01,1.877e+01,1.694e+01,2.093e+01,1.867e+01,1.963e+01,1.696e+01,1.485e+01,2.004e+01,1.756e+01,1.633e+01,2.195e+01,2.020e+01,2.076e+01,1.734e+01,1.825e+01,2.036e+01,2.166e+01,1.821e+01
3.922e-01,3.875e-01,8.889e-01,8.749e-01,1.804e+00,1.234e+00,1.259e+00,9.687e-01,2.633e+00,1.693e+00,2.147e+00,2.490e+00,3.934e+00,3.832e+00,3.076e+00,3.530e+00,3.051e+00,4.750e+00,4.849e+00,4.521e+00,5.276e+00,4.213e+00,5.121e+00,5.796e+00,4.969e+00,6.270e+00,5.606e+00,7.495e+00,4.131e+00,7.718e+00,6.806e+00,7.230e+00,8.190e+00,9.101e+00,8.538e+00,7.822e+00,9.061e+00,1.020e+01,9.418e+00,9.734e+00,1.092e+01,1.007e+01,1.123e+01,1.130e+01,1.084e+01,1.167e+01,1.089e+01,1.357e+01,1.114e+01,1.118e+01,1.200e+01,1.196e+01,1.519e+01,1.424e+01,1.387e+01,1.414e+01,1.472e+01,1.570e+01,1.380e+01,1.559e+01,1.424e+01,1.465e+01,1.791e+01,1.468e+01,1.504e+01,1.521e+01,1.688e+01,1.714e+01,1.521e+01,1.643e+01,1.718e+01,1.864e+01,1.441e+01,1.337e+01,1.735e+01,1.534e+01,1.464e+01,1.742e+01,1.691e+01,1.735e+01,1.503e+01,1.455e+01,1.771e+01,1.897e+01,1.690e+01
3.414e-02,5.715e-02,7.205e-01,8.541e-01,1.667e+00,1.723e+00,1.356e+00,1.961e+00,3.421e+00,3.023e+00,2.960e+00,3.474e+00,5.342e+00,5.228e+00,3.389e+00,4.930e+00,4.446e+00,6.837e+00,5.708e+00,6.922e+00,6.793e+00,6.099e+00,6.125e+00,6.387e+00,5.382e+00,7.591e+00,6.550e+00,8.950e+00,5.956e+00,8.616e+00,7.651e+00,7.822e+00,9.963e+00,9.702e+00,1.096e+01,1.006e+01,1.048e+01,1.245e+01,1.129e+01,1.195e+01,1.232e+01,9.758e+00,1.217e+01,1.232e+01,1.148e+01,1.210e+01,1.139e+01,1.445e+01,1.316e+01,1.327e+01,1.220e+01,1.310e+01,1.620e+01,1.530e+01,1.437e+01,1.378e+01,1.653e+01,1.721e+01,1.526e+01,1.777e+01,1.663e+01,1.461e+01,1.803e+01,1.696e+01,1.510e+01,1.822e+01,1.842e+01,1.831e+01,1.680e+01,1.779e+01,1.959e+01,2.082e+01,1.663e+01,1.585e+01,1.884e+01,1.716e+01,1.678e+01,2.072e+01,1.894e+01,1.858e+01,1.721e+01,1.775e+01,1.823e+01,2.077e+01,1.818e+01
1.651e-01,1.787e-01,1.108e+00,1.126e+00,2.049e+00,1.846e+00,1.505e+00,1.703e+00,3.345e+00,2.418e+00,2.959e+00,3.420e+00,5.298e+00,4.619e+00,4.614e+00,4.437e+00,4.617e+00,6.596e+00,5.921e+00,6.446e+00,7.932e+00,6.168e+00,7.425e+00,7.069e+00,5.172e+00,8.991e+00,7.320e+00,1.053e+01,6.003e+00,9.484e+00,9.391e+00,8.885e+00,1.048e+01,1.175e+01,1.129e+01,1.018e+01,1.106e+01,1.329e+01,1.138e+01,1.237e+01,1.241e+01,1.140e+01,1.219e+01,1.294e+01,1.208e+01,1.336e+01,1.102e+01,1.413e+01,1.354e+01,1.381e+01,1.413e+01,1.397e+01,1.684e+01,1.656e+01,1.538e+01,1.480e+01,1.588e+01,1.690e+01,1.603e+01,1.725e+01,1.683e+01,1.576e+01,1.811e+01,1.637e+01,1.557e+01,1.805e+01,1.999e+01,1.942e+01,1.802e+01,1.912e+01,2.056e+01,2.045e+01,1.917e+01,1.699e+01,2.066e+01,1.726e+01,1.778e+01,2.067e+01,2.060e+01,2.150e+01,1.684e+01,1.755e+01,2.014e+01,2.270e+01,2.057e+01
3.634e-01,3.622e-01,9.422e-01,1.279e+00,1.626e+00,8.544e-01,1.016e+00,1.876e+00,3.119e+00,2.398e+00,2.453e+00,3.156e+00,4.419e+00,4.422e+00,3.981e+00,4.315e+00,3.923e+00,6.020e+00,5.218e+00,6.081e+00,6.348e+00,5.370e+00,6.797e+00,6.862e+00,5.164e+00,7.394e+00,5.457e+00,8.869e+00,5.953e+00,8.303e+00,6.942e+00,8.981e+00,9.149e+00,1.005e+01,9.525e+00,1.022e+01,9.909e+00,1.320e+01,1.010e+01,1.236e+01,1.173e+01,1.081e+01,1.196e+01,1.124e+01,9.124e+00,1.151e+01,1.100e+01,1.456e+01,1.192e+01,1.283e+01,1.315e+01,1.377e+01,1.648e+01,1.573e+01,1.559e+01,1.420e+01,1.539e+01,1.790e+01,1.523e+01,1.643e+01,1.739e+01,1.509e+01,2.016e+01,1.775e+01,1.791e+01,1.686e+01,1.861e+01,1.901e+01,1.707e+01,1.964e+01,2.094e+01,2.224e+01,1.814e+01,1.571e+01,2.059e+01,1.672e+01,1.749e+01,2.222e+01,1.863e+01,1.981e+01,1.846e+01,1.711e+01,1.969e+01,2.148e+01,2.023e+01
1.417e-01,1.615e-01,7.641e-01,7.009e-01,1.620e+00,1.665e+00,1.316e+00,1.025e+00,3.179e+00,2.584e+00,1.876e+00,2.460e+00,3.955e+00,4.125e+00,3.014e+00,3.166e+00,3.944e+00,5.515e+00,4.935e+00,4.957e+00,6.748e+00,5.742e+00,6.220e+00,5.546e+00,5.280e+00,7.175e+00,5.684e+00,8.629e+00,5.328e+00,8.159e+00,7.543e+00,7.486e+00,9.859e+00,9.538e+00,9.849e+00,8.555e+00,9.959e+00,1.122e+01,9.591e+00,1.198e+01,1.280e+01,9.956e+00,1.053e+01,1.278e+01,1.051e+01,1.174e+01,1.230e+01,1.528e+01,1.223e+01,1.168e+01,1.340e+01,1.364e+01,1.513e+01,1.520e+01,1.530e+01,1.520e+01,1.579e+01,1.708e+01,1.576e+01,1.679e+01,1.695e+01,1.478e+01,1.902e+01,1.734e+01,1.747e+01,1.798e+01,1.903e+01,1.844e+01,1.803e+01,1.919e+01,2.058e+01,2.205e+01,1.992e+01,1.807e+01,2.145e+01,1.681e+01,1.842e+01,2.163e+01,1.965e+01,2.139e+01,1.970e+01,1.832e+01,2.193e+01,2.250e+01,2.096e+01
5.292e-01,5.330e-01,1.183e+00,1.092e+00,1.726e+00,1.171e+00,1.046e+00,1.044e+00,2.593e+00,2.048e+00,1.810e+00,2.569e+00,3.630e+00,3.458e+00,2.676e+00,3.571e+00,2.956e+00,5.058e+00,4.673e+00,5.565e+00,5.569e+00,4.205e+00,5.493e+00,6.254e+00,5.060e+00,5.831e+00,4.769e+00,6.819e+00,4.674e+00,7.020e+00,5.878e+00,6.827e+00,7.885e+00,8.450e+00,7.844e+00,8.506e+00,8.266e+00,1.057e+01,8.426e+00,1.032e+01,1.056e+01,9.422e+00,9.924e+00,1.126e+01,8.999e+00,9.909e+00,9.491e+00,1.267e+01,1.126e+01,1.075e+01,1.019e+01,1.202e+01,1.377e+01,1.351e+01,1.281e+01,1.200e+01,1.323e+01,1.442e+01,1.245e+01,1.344e+01,1.487e+01,1.254e+01,1.723e+01,1.514e+01,1.423e+01,1.389e+01,1.533e+01,1.666e+01,1.564e+01,1.741e+01,1.767e+01,2.066e+01,1.565e+01,1.621e+01,2.015e+01,1.600e+01,1.737e+01,1.928e+01,1.624e+01,1.927e+01,1.664e+01,1.650e+01,1.892e+01,2.018e+01,1.806e+01
5.718e-01,5.834e-01,1.685e+00,1.497e+00,2.721e+00,2.302e+00,1.886e+00,2.313e+00,4.251e+00,3.049e+00,3.102e+00,3.817e+00,5.802e+00,5.977e+00,4.608e+00,5.193e+00,4.090e+00,6.715e+00,6.535e+00,5.993e+00,7.553e+00,6.584e+00,7.643e+00,8.240e+00,6.157e+00,7.994e+00,6.140e+00,8.894e+00,4.939e+00,8.927e+00,7.705e+00,8.298e+00,9.145e+00,1.086e+01,1.002e+01,9.280e+00,9.630e+00,1.166e+01,9.813e+00,9.942e+00,1.160e+01,1.048e+01,1.190e+01,1.072e+01,1.031e+01,1.044e+01,1.160e+01,1.500e+01,1.171e+01,1.248e+01,1.245e+01,1.212e+01,1.601e+01,1.481e+01,1.648e+01,1.539e+01,1.572e+01,1.752e+01,1.608e+01,1.669e+01,1.757e+01,1.673e+01,2.088e+01,1.657e+01,1.923e+01,1.654e+01,1.986e+01,1.803e+01,1.792e+01,2.016e+01,1.967e+01,2.384e+01,1.899e+01,1.892e+01,2.170e+01,1.846e+01,1.837e+01,2.240e+01,2.083e+01,2.094e+01,1.930e+01,1.758e+01,2.355e+01,2.217e+01,2.242e+01
4.506e-01,4.507e-01,8.644e-01,7.932e-01,1.473e+00,1.162e+00,1.037e+00,1.503e+00,2.677e+00,2.230e+00,2.698e+00,2.931e+00,3.915e+00,4.116e+00,3.570e+00,3.600e+00,2.996e+00,4.925e+00,4.802e+00,4.928e+00,6.732e+00,5.433e+00,6.042e+00,7.118e+00,6.079e+00,7.188e+00,6.144e+00,8.414e+00,5.475e+00,9.478e+00,6.675e+00,7.303e+00,9.724e+00,9.922e+00,9.843e+00,1.035e+01,9.698e+00,1.219e+01,1.026e+01,1.180e+01,1.233e+01,1.028e+01,1.165e+01,1.199e+01,1.105e+01,1.171e+01,1.204e+01,1.527e+01,1.291e+01,1.294e+01,1.235e+01,1.261e+01,1.615e+01,1.468e+01,1.506e+01,1.342e+01,1.635e+01,1.634e+01,1.602e+01,1.615e+01,1.738e+01,1.428e+01,2.008e+01,1.745e+01,1.584e+01,1.740e+01,1.694e+01,1.690e+01,1.550e+01,1.941e+01,1.991e+01,2.075e+01,1.698e+01,1.687e+01,2.085e+01,1.682e+01,1.796e+01,2.011e+01,1.987e+01,2.213e+01,1.953e+01,1.885e+01,2.033e+01,2.245e+01,2.022e+01
1.611e-02,1.727e-02,6.577e-01,1.017e+00,2.035e+00,1.497e+00,1.586e+00,1.506e+00,3.284e+00,1.985e+00,2.602e+00,2.370e+00,3.701e+00,3.138e+00,3.761e+00,3.113e+00,3.483e+00,5.573e+00,4.533e+00,3.955e+00,6.194e+00,5.008e+00,6.259e+00,5.261e+00,4.478e+00,7.082e+00,5.044e+00,8.392e+00,4.581e+00,6.732e+00,6.259e+00,6.248e+00,8.103e+00,8.812e+00,8.944e+00,9.033e+00,9.047e+00,1.100e+01,9.073e+00,9.944e+00,8.906e+00,8.961e+00,1.042e+01,1.084e+01,9.028e+00,1.109e+01,9.069e+00,1.279e+01,1.142e+01,1.221e+01,1.150e+01,1.144e+01,1.519e+01,1.456e+01,1.432e+01,1.352e+01,1.427e+01,1.678e+01,1.473e+01,1.455e+01,1.510e+01,1.278e+01,1.609e+01,1.634e+01,1.557e+01,1.643e+01,1.674e+01,1.611e+01,1.546e+01,1.715e+01,1.731e+01,1.840e+01,1.661e+01,1.464e+01,1.874e+01,1.514e+01,1.634e+01,1.899e+01,1.860e+01,1.974e+01,1.652e+01,1.664e+01,1.883e+01,2.118e+01,1.889e+01
5.444e-01,5.395e-01,1.180e+00,9.808e-01,1.436e+00,1.069e+00,1.004e+00,1.283e+00,3.232e+00,2.499e+00,2.944e+00,3.227e+00,4.697e+00,3.944e+00,4.137e+00,4.156e+00,4.299e+00,5.506e+00,5.492e+00,4.781e+00,6.288e+00,4.772e+00,5.996e+00,6.092e+00,5.424e+00,6.665e+00,5.059e+00,7.675e+00,4.196e+00,6.800e+00,6.552e+00,7.235e+00,8.430e+00,9.268e+00,9.410e+00,8.560e+00,8.712e+00,1.077e+01,8.500e+00,9.366e+00,1.060e+01,1.020e+01,1.008e+01,9.747e+00,9.203e+00,9.899e+00,9.334e+00,1.274e+01,9.868e+00,1.196e+01,1.168e+01,1.147e+01,1.383e+01,1.424e+01,1.410e+01,1.284e+01,1.472e+01,1.458e+01,1.351e+01,1.447e+01,1.453e+01,1.404e+01,1.759e+01,1.478e+01,1.355e+01,1.426e+01,1.634e+01,1.629e+01,1.523e+01,1.739e+01,1.681e+01,1.862e+01,1.564e+01,1.542e+01,1.750e+01,1.623e+01,1.555e+01,1.832e+01,1.794e+01,1.940e+01,1.748e+01,1.728e+01,2.020e+01,2.087e+01,2.114e+01
3.595e-01,3.607e-01,9.945e-01,7.359e-01,1.324e+00,1.014e+00,8.749e-01,1.468e+00,3.408e+00,2.979e+00,2.192e+00,3.139e+00,4.369e+00,4.334e+00,3.576e+00,3.892e+00,4.176e+00,5.253e+00,5.613e+00,4.793e+00,5.804e+00,5.750e+00,5.959e+00,6.051e+00,4.979e+00,7.033e+00,5.584e+00,8.460e+00,4.260e+00,7.309e+00,6.686e+00,6.654e+00,8.336e+00,8.939e+00,1.023e+01,8.828e+00,8.732e+00,1.058e+01,9.284e+00,9.840e+00,1.062e+01,9.115e+00,1.121e+01,9.586e+00,8.740e+00,9.923e+00,1.013e+01,1.394e+01,1.081e+01,1.107e+01,1.109e+01,1.041e+01,1.372e+01,1.220e+01,1.274e+01,1.294e+01,1.490e+01,1.500e+01,1.374e+01,1.542e+01,1.391e+01,1.294e+01,1.630e+01,1.493e+01,1.465e+01,1.536e+01,1.535e+01,1.538e+01,1.429e+01,1.650e+01,1.789e+01,1.979e+01,1.551e+01,1.581e+01,1.832e+01,1.510e+01,1.391e+01,1.931e+01,1.965e+01,1.848e+01,1.880e+01,1.662e+01,1.974e+01,2.155e+01,1.822e+01
2.273e-01,2.368e-01,1.105e+00,1.250e+00,1.780e+00,1.514e+00,1.350e+00,2.023e+00,3.436e+00,2.421e+00,2.920e+00,2.933e+00,4.421e+00,4.323e+00,4.084e+00,3.774e+00,3.730e+00,6.571e+00,4.943e+00,5.012e+00,6.803e+00,5.039e+00,5.885e+00,5.643e+00,5.060e+00,6.876e+00,5.067e+00,8.152e+00,5.482e+00,7.210e+00,7.360e+00,8.570e+00,9.065e+00,9.436e+00,9.872e+00,9.295e+00,9.328e+00,1.156e+01,9.836e+00,1.049e+01,9.943e+00,9.603e+00,9.463e+00,9.617e+00,9.052e+00,1.071e+01,9.633e+00,1.313e+01,9.738e+00,1.193e+01,1.122e+01,1.220e+01,1.485e+01,1.261e+01,1.493e+01,1.297e+01,1.493e+01,1.638e+01,1.478e+01,1.594e+01,1.568e+01,1.442e+01,1.659e+01,1.550e+01,1.565e+01,1.469e+01,1.814e+01,1.707e+01,1.666e+01,1.733e+01,1.777e+01,1.833e+01,1.615e+01,1.480e+01,1.875e+01,1.712e+01,1.628e+01,1.936e+01,1.876e+01,2.079e+01,1.733e+01,2.069e+01,2.067e+01,2.239e+01,1.969e+01
8.676e-02,9.532e-02,8.884e-01,1.163e+00,2.110e+00,1.720e+00,1.673e+00,1.624e+00,3.432e+00,2.286e+00,3.196e+00,3.120e+00,4.586e+00,4.135e+00,3.692e+00,4.272e+00,4.039e+00,6.418e+00,5.307e+00,5.808e+00,6.629e+00,4.669e+00,5.500e+00,6.532e+00,4.945e+00,6.084e+00,4.792e+00,8.159e+00,5.349e+00,7.270e+00,5.850e+00,7.098e+00,8.586e+00,8.824e+00,9.447e+00,9.154e+00,9.888e+00,1.145e+01,1.015e+01,9.942e+00,9.748e+00,8.887e+00,9.091e+00,1.120e+01,8.875e+00,1.109e+01,8.592e+00,1.209e+01,1.047e+01,1.084e+01,1.071e+01,1.231e+01,1.418e+01,1.374e+01,1.366e+01,1.136e+01,1.440e+01,1.594e+01,1.322e+01,1.460e+01,1.514e+01,1.373e+01,1.529e+01,1.493e+01,1.423e+01,1.512e+01,1.559e+01,1.632e+01,1.536e+01,1.653e+01,1.690e+01,1.757e+01,1.647e+01,1.702e+01,1.973e+01,1.630e+01,1.642e+01,1.934e+01,1.688e+01,2.014e+01,1.715e+01,1.874e+01,2.130e+01,2.202e+01,1.744e+01
4.044e-01,4.003e-01,1.010e+00,8.014e-01,1.526e+00,1.206e+00,1.052e+00,1.104e+00,2.427e+00,1.538e+00,2.085e+00,2.043e+00,3.265e+00,3.179e+00,3.347e+00,2.555e+00,2.460e+00,4.363e+00,4.181e+00,3.958e+00,6.108e+00,3.577e+00,4.742e+00,5.603e+00,4.850e+00,6.278e+00,5.292e+00,7.244e+00,4.813e+00,7.766e+00,6.918e+00,6.751e+00,8.769e+00,9.029e+00,8.863e+00,8.644e+00,9.523e+00,9.928e+00,8.852e+00,9.192e+00,9.522e+00,9.018e+00,8.751e+00,1.005e+01,9.408e+00,1.081e+01,9.029e+00,1.057e+01,9.896e+00,1.074e+01,9.766e+00,9.503e+00,1.327e+01,1.244e+01,1.363e+01,1.236e+01,1.319e+01,1.344e+01,1.221e+01,1.430e+01,1.363e+01,1.321e+01,1.573e+01,1.444e+01,1.323e+01,1.520e+01,1.451e+01,1.633e+01,1.451e+01,1.569e+01,1.566e+01,1.658e+01,1.488e+01,1.391e+01,1.811e+01,1.551e+01,1.416e+01,1.763e+01,1.697e+01,1.877e+01,1.520e+01,1.784e+01,1.969e+01,1.906e+01,1.884e+01
3.642e-01,3.583e-01,6.850e-01,9.325e-01,1.662e+00,1.021e+00,1.162e+00,1.104e+00,2.736e+00,1.845e+00,2.384e+00,2.663e+00,3.903e+00,3.287e+00,3.482e+00,3.592e+00,3.809e+00,5.392e+00,5.138e+00,5.001e+00,5.902e+00,5.472e+00,6.074e+00,5.803e+00,5.058e+00,6.982e+00,5.615e+00,7.782e+00,5.083e+00,7.351e+00,6.827e+00,7.664e+00,8.442e+00,8.618e+00,9.071e+00,9.011e+00,8.795e+00,1.126e+01,9.661e+00,1.047e+01,1.055e+01,9.715e+00,1.075e+01,1.192e+01,1.026e+01,1.084e+01,9.493e+00,1.399e+01,1.138e+01,1.257e+01,1.117e+01,1.231e+01,1.509e+01,1.498e+01,1.439e+01,1.398e+01,1.594e+01,1.631e+01,1.520e+01,1.478e+01,1.461e+01,1.345e+01,1.719e+01,1.630e+01,1.312e+01,1.513e+01,1.771e+01,1.620e+01,1.570e+01,1.775e+01,1.796e+01,1.806e+01,1.605e+01,1.480e+01,1.709e+01,1.667e+01,1.694e+01,2.003e+01,1.999e+01,2.185e+01,1.926e+01,2.139e+01,2.304e+01,2.422e+01,1.980e+01
5.400e-01,5.517e-01,1.594e+00,1.265e+00,2.094e+00,1.699e+00,1.293e+00,1.552e+00,3.102e+00,2.663e+00,2.503e+00,3.160e+00,3.944e+00,3.924e+00,3.590e+00,3.859e+00,2.953e+00,5.051e+00,5.162e+00,4.723e+00,5.468e+00,4.546e+00,5.504e+00,5.720e+00,4.396e+00,5.934e+00,4.620e+00,6.199e+00,5.259e+00,6.414e+00,5.941e+00,6.562e+00,9.061e+00,8.168e+00,8.359e+00,8.971e+00,8.437e+00,1.015e+01,8.616e+00,9.209e+00,9.239e+00,7.547e+00,9.735e+00,9.057e+00,8.630e+00,9.154e+00,9.521e+00,1.272e+01,1.081e+01,1.021e+01,9.677e+00,1.108e+01,1.309e+01,1.222e+01,1.267e+01,1.312e+01,1.308e+01,1.430e+01,1.293e+01,1.407e+01,1.538e+01,1.229e+01,1.531e+01,1.367e+01,1.413e+01,1.500e+01,1.718e+01,1.586e+01,1.562e+01,1.670e+01,1.831e+01,1.974e+01,1.661e+01,1.645e+01,1.870e+01,1.644e+01,1.629e+01,1.959e+01,1.911e+01,2.081e+01,1.806e+01,2.007e+01,2.129e+01,2.330e+01,2.147e+01
3.924e-01,3.875e-01,8.106e-01,1.051e+00,1.585e+00,9.014e-01,1.129e+00,1.419e+00,3.555e+00,2.652e+00,2.351e+00,2.788e+00,3.946e+00,3.401e+00,3.218e+00,3.428e+00,3.845e+00,5.110e+00,4.542e+00,4.489e+00,5.802e+00,4.729e+00,5.879e+00,5.957e+00,5.074e+00,6.801e+00,4.836e+00,8.397e+00,5.149e+00,7.659e+00,5.734e+00,7.330e+00,8.154e+00,8.336e+00,8.894e+00,7.781e+00,9.103e+00,1.069e+01,9.140e+00,9.647e+00,1.086e+01,9.213e+00,1.025e+01,1.153e+01,9.389e+00,1.152e+01,8.847e+00,1.271e+01,1.168e+01,1.185e+01,1.106e+01,1.151e+01,1.430e+01,1.414e+01,1.417e+01,1.256e+01,1.502e+01,1.526e+01,1.503e+01,1.471e+01,1.592e+01,1.367e+01,1.645e+01,1.629e+01,1.453e+01,1.525e+01,1.609e+01,1.616e+01,1.534e+01,1.712e+01,1.776e+01,1.815e+01,1.592e+01,1.475e+01,1.742e+01,1.475e+01,1.612e+01,1.781e+01,1.888e+01,1.933e+01,1.772e+01,1.897e+01,2.108e+01,2.310e+01,1.985e+01
