8.928e-01,9.021e-01,3.675e-01,3.977e-01,1.853e-01,4.291e-02,2.247e-02,5.765e-01,9.123e-01,2.768e-01,9.326e-01,8.765e-01,2.751e-01,2.238e-02,1.339e-01,5.429e-01,8.176e-01,5.166e-02,3.066e-01,5.646e-01,8.520e-01,7.878e-02,9.938e-01,6.735e-01,8.185e-01,9.325e-01,9.627e-01,3.761e-01,3.394e-02,9.461e-01,8.795e-01,3.027e-01,9.979e-01,6.520e-01,5.794e-01,6.555e-01,4.456e-01,3.060e-01,3.316e-01,8.110e-02,5.288e-01,1.808e-01,3.694e-01,8.971e-01,5.268e-01,6.301e-01,1.129e-03,8.964e-01,5.667e-01,4.883e-01,8.339e-01,4.331e-01,3.884e-01,8.624e-01,1.431e-01,5.614e-01,3.209e-02,6.630e-01,8.161e-01,3.008e-01,5.623e-01,3.264e-01,8.237e-01,2.161e-01,1.386e-01,2.661e-01,4.373e-01,8.632e-01,2.212e-01,8.284e-01,4.178e-01,2.573e-01,4.143e-01
7.399e-01,1.307e+00,6.416e-01,1.017e+00,7.344e-01,6.163e-01,6.711e-01,6.533e-01,8.220e-01,1.166e+00,1.247e+00,1.449e+00,9.344e-01,8.753e-01,8.543e-01,4.666e-01,1.494e+00,3.003e-01,1.125e+00,8.965e-01,1.564e+00,9.400e-02,1.073e+00,1.246e+00,1.555e+00,1.502e+00,1.793e+00,7.317e-01,2.141e-01,1.160e+00,9.041e-01,8.533e-01,1.558e+00,1.090e+00,1.320e+00,1.214e+00,8.946e-01,7.453e-01,4.908e-01,7.840e-02,1.203e+00,1.136e+00,8.226e-01,1.651e+00,1.250e+00,9.296e-01,2.572e-01,9.702e-01,1.011e+00,8.693e-01,9.774e-01,1.116e+00,4.110e-01,1.652e+00,2.816e-01,6.524e-01,4.762e-01,1.429e+00,1.315e+00,9.168e-01,1.171e+00,1.106e+00,1.501e+00,7.377e-01,1.160e-01,6.085e-01,8.727e-01,1.562e+00,3.387e-01,9.233e-01,1.057e+00,8.218e-01,9.505e-01
7.216e-01,1.093e+00,1.440e+00,9.888e-01,6.569e-01,6.764e-01,8.254e-01,1.118e+00,1.420e+00,1.145e+00,1.592e+00,1.272e+00,1.011e+00,1.076e+00,7.505e-01,7.231e-01,1.331e+00,1.016e+00,8.878e-01,1.491e+00,2.146e+00,5.325e-01,1.216e+00,1.906e+00,1.886e+00,1.640e+00,2.124e+00,1.316e+00,7.916e-01,1.248e+00,1.677e+00,1.080e+00,1.298e+00,9.912e-01,1.225e+00,1.640e+00,8.510e-01,1.530e+00,7.548e-01,6.328e-01,1.101e+00,1.021e+00,1.610e+00,2.070e+00,1.174e+00,1.223e+00,1.038e+00,1.134e+00,1.583e+00,7.427e-01,1.448e+00,1.432e+00,1.040e+00,1.463e+00,6.255e-01,1.532e+00,3.679e-01,1.672e+00,1.220e+00,1.348e+00,1.240e+00,1.274e+00,1.441e+00,8.777e-01,4.780e-01,1.415e+00,8.472e-01,1.722e+00,8.172e-01,1.005e+00,1.532e+00,1.420e+00,8.072e-01
4.777e-01,7.124e-01,6.201e-01,6.460e-01,6.351e-01,5.255e-01,1.196e+00,1.170e+00,1.656e+00,1.466e+00,1.715e+00,1.755e+00,8.955e-01,8.311e-01,9.473e-01,1.197e+00,1.575e+00,8.337e-01,1.453e+00,1.466e+00,1.139e+00,5.505e-01,1.455e+00,1.246e+00,1.199e+00,1.890e+00,2.105e+00,1.345e+00,6.089e-01,1.569e+00,1.219e+00,1.442e+00,1.057e+00,1.420e+00,9.671e-01,1.512e+00,8.039e-01,6.732e-01,1.019e+00,4.105e-01,1.501e+00,1.553e+00,1.362e+00,1.159e+00,7.296e-01,1.616e+00,7.004e-01,9.649e-01,1.073e+00,1.218e+00,1.630e+00,7.394e-01,1.054e+00,1.406e+00,1.261e+00,7.044e-01,9.675e-01,1.697e+00,1.448e+00,7.266e-01,8.707e-01,1.229e+00,1.516e+00,1.351e+00,4.580e-01,9.248e-01,6.021e-01,1.870e+00,1.131e+00,8.011e-01,9.133e-01,9.374e-01,1.098e+00
6.658e-02,6.163e-01,1.151e+00,8.955e-01,1.546e+00,1.641e+00,1.858e+00,1.285e+00,1.552e+00,2.199e+00,1.114e+00,1.557e+00,1.086e+00,1.540e+00,1.536e+00,7.647e-01,2.006e+00,1.315e+00,1.856e+00,1.820e+00,1.895e+00,1.408e+00,1.370e+00,1.917e+00,2.095e+00,1.937e+00,2.635e+00,1.685e+00,1.075e+00,6.887e-01,1.067e+00,1.148e+00,1.155e+00,9.239e-01,1.513e+00,1.917e+00,1.236e+00,1.506e+00,1.127e+00,7.527e-01,9.795e-01,1.379e+00,1.954e+00,1.746e+00,1.988e+00,9.178e-01,1.820e+00,8.783e-01,1.273e+00,1.054e+00,1.569e+00,1.748e+00,7.605e-01,1.263e+00,7.417e-01,1.173e+00,1.339e+00,2.306e+00,1.431e+00,2.123e+00,1.604e+00,2.057e+00,2.078e+00,1.334e+00,3.644e-01,2.025e+00,1.662e+00,1.645e+00,1.556e+00,6.866e-01,1.851e+00,1.821e+00,7.760e-01
3.483e-01,7.072e-01,6.562e-01,6.909e-01,1.228e+00,1.636e+00,1.503e+00,2.134e+00,1.742e+00,1.953e+00,1.226e+00,2.430e+00,1.467e+00,1.447e+00,1.879e+00,1.736e+00,2.674e+00,1.251e+00,2.347e+00,1.635e+00,1.575e+00,1.205e+00,2.075e+00,2.396e+00,1.814e+00,2.110e+00,2.498e+00,1.897e+00,1.571e+00,1.250e+00,1.022e+00,1.957e+00,1.896e+00,1.193e+00,1.440e+00,1.968e+00,1.338e+00,1.162e+00,1.233e+00,9.825e-01,2.021e+00,1.497e+00,2.033e+00,1.874e+00,1.620e+00,1.250e+00,2.161e+00,1.341e+00,1.642e+00,1.551e+00,2.229e+00,1.286e+00,1.517e+00,1.276e+00,1.363e+00,1.057e+00,1.582e+00,2.866e+00,2.110e+00,2.407e+00,1.948e+00,1.770e+00,2.390e+00,1.238e+00,1.071e+00,1.736e+00,2.142e+00,2.274e+00,1.575e+00,9.794e-01,1.577e+00,2.066e+00,1.196e+00
1.952e-01,3.518e-01,6.986e-01,4.074e-01,6.530e-01,7.580e-01,1.145e+00,9.977e-01,1.653e+00,1.856e+00,1.471e+00,1.114e+00,8.645e-01,1.518e+00,1.692e+00,1.618e+00,1.583e+00,1.414e+00,1.386e+00,1.728e+00,1.595e+00,9.613e-01,1.214e+00,1.433e+00,1.418e+00,2.020e+00,1.696e+00,1.489e+00,9.608e-01,6.157e-01,1.688e+00,9.068e-01,1.200e+00,1.086e+00,9.926e-01,1.275e+00,1.585e+00,9.924e-01,1.548e+00,1.050e+00,1.057e+00,1.612e+00,1.255e+00,1.472e+00,1.177e+00,1.149e+00,1.903e+00,1.359e+00,1.048e+00,5.959e-01,1.661e+00,1.297e+00,1.283e+00,1.487e+00,1.446e+00,1.275e+00,9.296e-01,1.733e+00,1.605e+00,1.733e+00,1.716e+00,1.841e+00,1.270e+00,1.225e+00,5.896e-01,1.319e+00,1.503e+00,1.232e+00,1.409e+00,5.529e-01,1.052e+00,1.366e+00,1.010e+00
7.853e-01,8.411e-01,5.085e-01,4.872e-01,1.102e+00,1.336e+00,1.374e+00,2.298e+00,2.910e+00,1.967e+00,2.051e+00,3.401e+00,1.740e+00,1.154e+00,2.233e+00,2.925e+00,3.608e+00,1.670e+00,2.858e+00,2.697e+00,2.133e+00,2.198e+00,2.812e+00,2.634e+00,2.188e+00,2.978e+00,3.012e+00,2.904e+00,2.289e+00,2.450e+00,1.759e+00,1.761e+00,2.238e+00,1.786e+00,1.563e+00,2.735e+00,1.983e+00,1.520e+00,2.412e+00,1.242e+00,2.414e+00,1.768e+00,2.585e+00,2.147e+00,1.562e+00,1.850e+00,2.188e+00,2.388e+00,2.456e+00,1.823e+00,2.709e+00,1.958e+00,2.216e+00,2.057e+00,2.223e+00,1.444e+00,2.042e+00,3.329e+00,3.142e+00,2.576e+00,2.438e+00,2.029e+00,2.587e+00,1.484e+00,1.960e+00,1.689e+00,2.618e+00,2.646e+00,2.301e+00,1.453e+00,1.748e+00,2.428e+00,1.938e+00
7.532e-02,1.505e-01,7.963e-01,3.289e-01,6.617e-01,7.238e-01,1.093e+00,1.016e+00,2.485e+00,1.749e+00,1.328e+00,1.792e+00,1.090e+00,1.470e+00,1.650e+00,1.956e+00,1.717e+00,1.589e+00,2.012e+00,1.882e+00,1.538e+00,1.403e+00,1.850e+00,2.273e+00,2.057e+00,2.429e+00,1.828e+00,2.170e+00,1.343e+00,1.201e+00,1.193e+00,1.669e+00,6.895e-01,1.670e+00,1.155e+00,2.113e+00,1.317e+00,1.217e+00,1.612e+00,1.404e+00,1.767e+00,1.217e+00,2.521e+00,1.183e+00,1.179e+00,1.192e+00,1.932e+00,1.093e+00,2.106e+00,1.631e+00,1.348e+00,1.794e+00,1.761e+00,1.154e+00,1.414e+00,1.595e+00,1.229e+00,2.326e+00,1.602e+00,2.060e+00,1.037e+00,1.623e+00,1.806e+00,1.930e+00,9.353e-01,2.096e+00,1.653e+00,1.476e+00,2.035e+00,1.237e+00,1.479e+00,2.204e+00,9.417e-01
1.884e-01,2.463e-01,9.947e-01,4.442e-01,9.243e-01,1.103e+00,1.833e+00,1.961e+00,3.265e+00,3.412e+00,2.929e+00,2.991e+00,2.482e+00,2.790e+00,3.252e+00,3.019e+00,3.282e+00,2.705e+00,3.153e+00,3.707e+00,2.501e+00,2.627e+00,3.498e+00,3.262e+00,2.871e+00,3.379e+00,2.893e+00,3.417e+00,2.837e+00,1.943e+00,3.036e+00,3.325e+00,2.209e+00,3.083e+00,2.170e+00,3.572e+00,2.452e+00,2.342e+00,3.033e+00,1.826e+00,2.939e+00,2.573e+00,3.144e+00,2.414e+00,2.181e+00,2.642e+00,3.660e+00,2.374e+00,2.827e+00,2.606e+00,3.186e+00,2.209e+00,3.253e+00,2.517e+00,2.655e+00,2.605e+00,2.837e+00,4.025e+00,3.275e+00,2.703e+00,1.901e+00,3.173e+00,3.059e+00,2.833e+00,1.990e+00,3.050e+00,2.725e+00,2.643e+00,3.513e+00,2.059e+00,2.391e+00,3.399e+00,1.595e+00
6.432e-01,8.510e-01,8.063e-01,6.396e-01,8.174e-01,1.042e+00,1.127e+00,1.723e+00,3.181e+00,2.761e+00,3.297e+00,3.611e+00,2.939e+00,3.285e+00,4.056e+00,3.840e+00,4.393e+00,3.102e+00,4.070e+00,3.789e+00,3.117e+00,2.681e+00,3.794e+00,3.908e+00,3.381e+00,3.651e+00,3.392e+00,3.929e+00,2.766e+00,2.356e+00,2.779e+00,2.554e+00,2.990e+00,3.489e+00,2.727e+00,4.234e+00,3.318e+00,2.941e+00,3.227e+00,2.496e+00,3.205e+00,3.232e+00,3.653e+00,2.881e+00,2.835e+00,2.803e+00,3.563e+00,3.423e+00,4.128e+00,2.458e+00,3.017e+00,3.578e+00,3.990e+00,3.429e+00,2.832e+00,3.306e+00,2.362e+00,4.860e+00,4.545e+00,3.419e+00,3.445e+00,3.522e+00,3.684e+00,2.730e+00,2.413e+00,2.482e+00,3.504e+00,2.646e+00,2.881e+00,2.482e+00,3.024e+00,3.771e+00,2.883e+00
3.267e-02,2.211e-01,7.831e-01,4.715e-01,9.217e-01,1.274e+00,1.718e+00,2.026e+00,3.359e+00,2.957e+00,2.542e+00,3.904e+00,3.231e+00,2.901e+00,3.609e+00,4.197e+00,4.129e+00,3.275e+00,3.881e+00,3.794e+00,3.007e+00,3.187e+00,3.389e+00,3.890e+00,3.775e+00,3.706e+00,3.418e+00,4.420e+00,3.012e+00,2.204e+00,2.541e+00,3.409e+00,2.071e+00,3.704e+00,2.966e+00,3.937e+00,2.651e+00,2.672e+00,3.244e+00,2.789e+00,3.787e+00,3.202e+00,4.430e+00,2.396e+00,2.078e+00,2.832e+00,4.184e+00,2.810e+00,3.580e+00,2.977e+00,3.542e+00,3.005e+00,4.316e+00,3.179e+00,3.569e+00,2.777e+00,2.923e+00,5.338e+00,4.390e+00,3.789e+00,3.193e+00,3.867e+00,3.775e+00,3.231e+00,3.014e+00,3.412e+00,3.577e+00,3.485e+00,3.604e+00,2.470e+00,3.353e+00,3.891e+00,2.599e+00
7.519e-01,7.994e-01,5.948e-01,4.608e-01,8.681e-01,1.092e+00,1.079e+00,1.900e+00,2.606e+00,2.427e+00,2.625e+00,2.909e+00,3.162e+00,3.393e+00,3.550e+00,3.263e+00,4.328e+00,2.482e+00,3.612e+00,2.933e+00,2.271e+00,2.824e+00,3.765e+00,3.528e+00,3.226e+00,3.369e+00,3.534e+00,3.490e+00,2.083e+00,2.150e+00,2.774e+00,2.781e+00,3.685e+00,3.062e+00,2.303e+00,4.154e+00,3.519e+00,2.393e+00,2.997e+00,2.268e+00,2.996e+00,2.378e+00,3.236e+00,2.392e+00,2.674e+00,2.461e+00,4.101e+00,2.794e+00,3.418e+00,2.786e+00,3.971e+00,2.691e+00,3.712e+00,2.550e+00,2.161e+00,2.766e+00,2.837e+00,4.557e+00,4.049e+00,2.734e+00,3.068e+00,3.574e+00,3.602e+00,2.663e+00,2.334e+00,2.549e+00,3.572e+00,2.935e+00,2.389e+00,2.971e+00,2.477e+00,3.657e+00,2.383e+00
4.321e-02,4.340e-01,6.666e-01,6.633e-01,1.272e+00,1.396e+00,1.977e+00,1.614e+00,2.024e+00,2.862e+00,2.060e+00,2.489e+00,1.986e+00,3.074e+00,2.631e+00,2.769e+00,3.650e+00,2.168e+00,3.496e+00,2.700e+00,2.876e+00,2.139e+00,2.529e+00,3.152e+00,2.489e+00,2.914e+00,2.966e+00,3.140e+00,2.084e+00,2.287e+00,2.567e+00,2.619e+00,2.366e+00,3.144e+00,2.574e+00,3.023e+00,2.546e+00,2.366e+00,2.390e+00,2.061e+00,2.678e+00,3.455e+00,3.052e+00,2.391e+00,2.530e+00,2.531e+00,2.864e+00,1.892e+00,1.739e+00,2.559e+00,3.052e+00,2.390e+00,2.189e+00,2.498e+00,2.773e+00,2.042e+00,2.975e+00,4.277e+00,3.275e+00,2.870e+00,2.556e+00,2.894e+00,2.884e+00,2.410e+00,1.385e+00,2.798e+00,2.184e+00,2.636e+00,2.747e+00,2.137e+00,2.951e+00,2.346e+00,1.835e+00
6.197e-01,9.607e-01,1.378e+00,9.637e-01,1.040e+00,1.403e+00,1.722e+00,2.487e+00,3.291e+00,3.218e+00,3.081e+00,3.782e+00,3.988e+00,4.403e+00,4.466e+00,5.228e+00,5.675e+00,4.153e+00,5.259e+00,4.007e+00,5.194e+00,4.004e+00,4.890e+00,5.737e+00,4.746e+00,5.392e+00,4.301e+00,5.090e+00,4.090e+00,4.068e+00,4.503e+00,5.112e+00,4.240e+00,5.053e+00,3.952e+00,5.045e+00,3.850e+00,4.245e+00,4.404e+00,4.235e+00,5.622e+00,4.107e+00,5.576e+00,3.915e+00,3.725e+00,4.518e+00,5.759e+00,3.602e+00,4.903e+00,4.605e+00,5.179e+00,4.178e+00,5.409e+00,3.820e+00,4.324e+00,4.392e+00,4.138e+00,6.549e+00,5.031e+00,5.157e+00,3.903e+00,4.868e+00,4.623e+00,3.830e+00,4.088e+00,4.993e+00,4.611e+00,4.733e+00,3.921e+00,4.844e+00,4.999e+00,5.053e+00,3.471e+00
5.292e-01,5.586e-01,6.365e-01,3.841e-01,1.031e+00,9.846e-01,1.516e+00,1.408e+00,2.848e+00,2.665e+00,2.919e+00,2.774e+00,2.940e+00,3.765e+00,3.691e+00,4.714e+00,5.168e+00,3.282e+00,4.774e+00,3.912e+00,4.639e+00,3.895e+00,4.024e+00,4.488e+00,4.272e+00,4.836e+00,4.432e+00,4.830e+00,3.109e+00,4.040e+00,4.698e+00,3.016e+00,4.506e+00,4.681e+00,3.320e+00,4.477e+00,4.447e+00,3.503e+00,4.161e+00,3.608e+00,3.726e+00,4.231e+00,3.967e+00,3.276e+00,4.051e+00,4.041e+00,4.747e+00,3.867e+00,3.889e+00,3.684e+00,4.956e+00,4.477e+00,4.592e+00,3.448e+00,4.307e+00,3.223e+00,4.096e+00,5.397e+00,4.791e+00,3.389e+00,4.230e+00,5.143e+00,3.502e+00,3.286e+00,2.769e+00,3.100e+00,4.103e+00,2.984e+00,3.395e+00,3.397e+00,4.452e+00,4.078e+00,3.805e+00
6.482e-01,6.698e-01,8.418e-01,4.974e-01,5.497e-01,8.302e-01,1.045e+00,2.072e+00,2.577e+00,2.138e+00,3.039e+00,3.651e+00,3.773e+00,3.093e+00,3.465e+00,4.814e+00,5.819e+00,3.600e+00,4.668e+00,4.698e+00,5.367e+00,4.606e+00,4.827e+00,5.173e+00,5.295e+00,4.401e+00,4.608e+00,5.898e+00,4.452e+00,4.934e+00,4.900e+00,5.217e+00,4.618e+00,5.726e+00,3.719e+00,5.552e+00,4.202e+00,4.053e+00,4.653e+00,4.319e+00,4.773e+00,4.217e+00,4.689e+00,4.109e+00,4.190e+00,5.447e+00,4.977e+00,4.757e+00,5.070e+00,4.058e+00,6.014e+00,4.756e+00,6.469e+00,4.191e+00,5.127e+00,3.872e+00,4.726e+00,6.169e+00,5.225e+00,3.771e+00,4.635e+00,5.441e+00,3.921e+00,3.375e+00,4.920e+00,3.863e+00,4.781e+00,4.142e+00,3.931e+00,3.915e+00,5.272e+00,5.355e+00,4.208e+00
5.776e-01,7.722e-01,1.082e+00,7.164e-01,8.432e-01,9.290e-01,1.445e+00,1.740e+00,2.574e+00,2.315e+00,2.444e+00,2.917e+00,2.734e+00,2.612e+00,2.448e+00,3.720e+00,4.270e+00,2.933e+00,3.785e+00,4.009e+00,5.322e+00,3.851e+00,4.101e+00,4.128e+00,5.288e+00,4.146e+00,4.361e+00,5.036e+00,3.121e+00,3.549e+00,4.384e+00,4.267e+00,3.608e+00,4.759e+00,3.932e+00,4.071e+00,3.647e+00,3.715e+00,3.888e+00,3.654e+00,4.381e+00,4.280e+00,3.991e+00,3.664e+00,3.206e+00,3.902e+00,4.714e+00,3.555e+00,3.234e+00,3.755e+00,4.807e+00,3.698e+00,4.480e+00,3.838e+00,3.917e+00,3.506e+00,3.898e+00,5.570e+00,4.474e+00,3.509e+00,3.952e+00,4.957e+00,3.633e+00,3.721e+00,3.427e+00,3.565e+00,3.535e+00,4.027e+00,3.779e+00,3.353e+00,4.957e+00,4.463e+00,3.446e+00
7.100e-01,1.040e+00,1.161e+00,9.291e-01,8.636e-01,1.120e+00,1.418e+00,2.191e+00,3.310e+00,3.016e+00,3.632e+00,4.216e+00,3.864e+00,3.536e+00,4.067e+00,4.142e+00,5.478e+00,3.511e+00,4.713e+00,5.252e+00,4.409e+00,4.545e+00,5.583e+00,5.570e+00,5.122e+00,4.685e+00,4.938e+00,5.786e+00,4.470e+00,4.284e+00,3.867e+00,5.089e+00,4.337e+00,5.849e+00,3.738e+00,6.621e+00,4.174e+00,4.530e+00,4.744e+00,4.115e+00,4.802e+00,4.085e+00,5.627e+00,4.758e+00,4.640e+00,4.986e+00,4.630e+00,4.978e+00,5.352e+00,3.655e+00,5.630e+00,4.749e+00,6.483e+00,5.048e+00,4.697e+00,4.468e+00,4.688e+00,6.135e+00,5.998e+00,4.508e+00,4.885e+00,5.333e+00,5.194e+00,4.611e+00,4.276e+00,4.389e+00,4.870e+00,4.906e+00,3.802e+00,4.460e+00,4.941e+00,5.363e+00,4.116e+00
8.075e-01,9.673e-01,9.571e-01,6.950e-01,5.310e-01,5.605e-01,1.001e+00,1.381e+00,2.437e+00,2.037e+00,2.914e+00,2.383e+00,2.251e+00,3.205e+00,2.993e+00,4.182e+00,4.330e+00,3.219e+00,4.359e+00,4.916e+00,6.005e+00,4.357e+00,5.726e+00,5.324e+00,5.955e+00,5.117e+00,5.311e+00,5.340e+00,4.057e+00,4.393e+00,4.698e+00,4.181e+00,5.057e+00,6.122e+00,4.121e+00,5.469e+00,4.774e+00,5.071e+00,4.644e+00,5.237e+00,4.698e+00,5.245e+00,4.974e+00,4.879e+00,5.308e+00,5.413e+00,5.649e+00,5.349e+00,4.585e+00,4.131e+00,5.403e+00,5.344e+00,5.740e+00,4.683e+00,4.912e+00,5.379e+00,4.262e+00,6.041e+00,5.535e+00,4.938e+00,5.252e+00,5.681e+00,4.544e+00,4.866e+00,3.781e+00,3.981e+00,4.527e+00,4.809e+00,3.392e+00,4.302e+00,5.777e+00,4.387e+00,5.444e+00
7.262e-01,1.125e+00,7.206e-01,8.885e-01,1.172e+00,1.170e+00,1.506e+00,1.633e+00,3.054e+00,3.147e+00,2.731e+00,3.668e+00,3.328e+00,3.644e+00,4.027e+00,4.733e+00,6.052e+00,3.398e+00,5.617e+00,4.842e+00,6.000e+00,5.257e+00,6.461e+00,6.203e+00,6.899e+00,6.835e+00,5.305e+00,5.967e+00,5.351e+00,5.893e+00,4.641e+00,6.433e+00,5.866e+00,7.101e+00,5.133e+00,6.731e+00,5.556e+00,4.918e+00,5.987e+00,4.949e+00,6.506e+00,4.740e+00,5.717e+00,5.459e+00,5.848e+00,5.567e+00,5.754e+00,5.618e+00,5.560e+00,5.825e+00,5.794e+00,6.137e+00,6.768e+00,5.013e+00,4.992e+00,5.491e+00,5.820e+00,7.069e+00,6.400e+00,5.509e+00,4.754e+00,6.500e+00,5.767e+00,4.876e+00,4.695e+00,5.311e+00,5.795e+00,5.781e+00,4.836e+00,5.462e+00,6.325e+00,6.387e+00,5.278e+00
5.929e-01,9.943e-01,9.912e-01,9.150e-01,1.494e+00,1.705e+00,2.051e+00,2.310e+00,3.717e+00,3.723e+00,3.205e+00,4.100e+00,3.913e+00,4.811e+00,4.484e+00,4.975e+00,6.367e+00,3.532e+00,5.969e+00,4.913e+00,5.483e+00,4.877e+00,6.040e+00,7.170e+00,6.635e+00,6.819e+00,5.763e+00,6.662e+00,4.516e+00,4.960e+00,4.907e+00,6.164e+00,6.276e+00,6.350e+00,4.688e+00,7.078e+00,6.009e+00,4.431e+00,5.304e+00,5.014e+00,6.042e+00,5.017e+00,6.404e+00,5.663e+00,5.608e+00,4.743e+00,6.843e+00,5.467e+00,5.781e+00,5.511e+00,6.600e+00,6.012e+00,5.680e+00,5.221e+00,4.682e+00,5.306e+00,5.733e+00,7.550e+00,6.218e+00,5.498e+00,5.381e+00,6.605e+00,5.280e+00,5.269e+00,4.306e+00,4.770e+00,5.526e+00,6.036e+00,5.410e+00,5.433e+00,5.693e+00,6.445e+00,5.221e+00
5.208e-01,6.107e-01,7.929e-01,4.665e-01,8.691e-01,9.815e-01,1.291e+00,1.488e+00,2.782e+00,2.291e+00,2.718e+00,3.014e+00,2.624e+00,2.681e+00,3.811e+00,4.636e+00,4.702e+00,3.921e+00,4.387e+00,4.633e+00,4.930e+00,4.771e+00,5.731e+00,5.467e+00,5.508e+00,6.425e+00,5.269e+00,5.646e+00,4.690e+00,4.366e+00,4.322e+00,4.019e+00,4.578e+00,5.455e+00,4.740e+00,5.859e+00,4.166e+00,5.245e+00,5.168e+00,5.409e+00,5.282e+00,5.148e+00,6.213e+00,5.364e+00,5.182e+00,5.145e+00,6.726e+00,6.153e+00,5.169e+00,4.570e+00,5.414e+00,6.074e+00,6.713e+00,5.718e+00,5.311e+00,5.775e+00,4.063e+00,6.192e+00,6.071e+00,5.601e+00,6.149e+00,6.410e+00,5.382e+00,4.402e+00,5.046e+00,4.207e+00,4.945e+00,5.007e+00,4.691e+00,4.677e+00,6.162e+00,5.283e+00,5.117e+00
1.724e-01,2.590e-01,2.075e-01,2.786e-01,4.136e-01,6.749e-01,9.320e-01,1.539e+00,2.336e+00,1.910e+00,2.144e+00,3.137e+00,2.462e+00,3.072e+00,3.229e+00,4.622e+00,4.375e+00,3.073e+00,5.054e+00,3.580e+00,4.378e+00,3.692e+00,5.737e+00,6.250e+00,5.719e+00,5.804e+00,4.238e+00,6.048e+00,5.121e+00,5.276e+00,4.014e+00,6.452e+00,5.019e+00,6.694e+00,5.410e+00,5.727e+00,4.684e+00,5.298e+00,4.708e+00,5.534e+00,7.095e+00,5.597e+00,5.963e+00,5.233e+00,5.437e+00,5.050e+00,5.997e+00,5.105e+00,5.794e+00,6.490e+00,5.551e+00,5.958e+00,6.447e+00,4.552e+00,6.056e+00,5.908e+00,5.538e+00,6.964e+00,5.840e+00,5.432e+00,4.538e+00,5.882e+00,5.907e+00,5.318e+00,4.830e+00,4.393e+00,4.186e+00,5.277e+00,4.375e+00,5.437e+00,6.269e+00,6.114e+00,5.777e+00
8.158e-01,1.154e+00,9.923e-01,9.396e-01,1.063e+00,1.166e+00,1.608e+00,2.076e+00,2.706e+00,2.925e+00,2.888e+00,3.126e+00,2.914e+00,3.082e+00,3.062e+00,3.549e+00,4.779e+00,2.574e+00,4.499e+00,4.526e+00,5.062e+00,4.158e+00,5.941e+00,5.782e+00,6.672e+00,6.182e+00,6.175e+00,6.975e+00,5.258e+00,5.850e+00,5.744e+00,6.641e+00,6.260e+00,7.274e+00,5.296e+00,6.632e+00,5.511e+00,5.545e+00,5.710e+00,5.165e+00,6.128e+00,5.256e+00,5.026e+00,6.337e+00,7.042e+00,5.561e+00,5.886e+00,5.828e+00,5.701e+00,5.748e+00,7.592e+00,5.915e+00,6.706e+00,5.552e+00,6.138e+00,5.307e+00,6.353e+00,6.433e+00,6.375e+00,4.967e+00,4.991e+00,6.925e+00,5.909e+00,5.731e+00,4.590e+00,5.545e+00,5.847e+00,5.557e+00,3.746e+00,5.580e+00,6.532e+00,7.128e+00,5.683e+00
3.479e-02,2.050e-01,2.118e-01,2.944e-01,7.151e-01,7.030e-01,1.333e+00,8.669e-01,2.411e+00,2.850e+00,2.457e+00,2.400e+00,2.686e+00,3.530e+00,4.311e+00,4.044e+00,4.473e+00,3.452e+00,4.730e+00,4.081e+00,3.413e+00,4.422e+00,5.796e+00,4.834e+00,5.272e+00,6.729e+00,5.866e+00,6.516e+00,6.053e+00,5.508e+00,4.198e+00,5.387e+00,5.152e+00,6.820e+00,4.903e+00,6.862e+00,5.839e+00,5.353e+00,6.369e+00,6.275e+00,6.257e+00,5.318e+00,6.541e+00,5.350e+00,6.083e+00,5.525e+00,7.205e+00,6.051e+00,5.694e+00,5.964e+00,5.548e+00,7.041e+00,7.354e+00,5.909e+00,5.550e+00,5.758e+00,5.192e+00,6.267e+00,7.076e+00,6.024e+00,5.223e+00,6.574e+00,6.281e+00,5.461e+00,5.422e+00,6.389e+00,6.164e+00,5.246e+00,4.561e+00,5.712e+00,6.282e+00,6.340e+00,5.764e+00
8.371e-01,1.231e+00,6.689e-01,9.094e-01,1.189e+00,1.162e+00,1.400e+00,1.655e+00,2.765e+00,3.035e+00,3.187e+00,3.853e+00,3.331e+00,3.964e+00,4.145e+00,4.365e+00,6.331e+00,3.440e+00,5.609e+00,5.484e+00,5.611e+00,5.486e+00,7.410e+00,7.214e+00,7.401e+00,7.241e+00,7.202e+00,8.883e+00,7.018e+00,7.919e+00,5.609e+00,7.084e+00,7.223e+00,9.307e+00,7.541e+00,9.796e+00,6.697e+00,8.184e+00,7.665e+00,7.482e+00,7.578e+00,7.017e+00,7.923e+00,8.440e+00,9.148e+00,7.224e+00,7.782e+00,8.008e+00,7.759e+00,8.190e+00,8.419e+00,9.278e+00,8.015e+00,8.011e+00,7.122e+00,7.961e+00,7.817e+00,8.806e+00,8.286e+00,7.293e+00,6.688e+00,7.660e+00,7.888e+00,6.491e+00,6.808e+00,7.358e+00,7.272e+00,7.265e+00,5.824e+00,8.322e+00,8.863e+00,7.393e+00,7.181e+00
4.254e-01,5.500e-01,9.019e-01,5.004e-01,4.577e-01,8.546e-01,9.232e-01,1.733e+00,2.761e+00,2.403e+00,2.981e+00,3.099e+00,3.144e+00,3.595e+00,3.963e+00,4.314e+00,4.715e+00,3.604e+00,4.309e+00,4.695e+00,4.392e+00,4.157e+00,5.235e+00,5.664e+00,5.827e+00,5.397e+00,5.815e+00,8.037e+00,6.495e+00,6.504e+00,5.107e+00,5.983e+00,5.817e+00,7.173e+00,5.641e+00,7.749e+00,6.905e+00,7.324e+00,6.910e+00,6.855e+00,7.038e+00,6.396e+00,6.653e+00,6.733e+00,6.408e+00,5.231e+00,7.388e+00,6.646e+00,7.272e+00,5.568e+00,6.896e+00,8.226e+00,7.755e+00,6.166e+00,6.421e+00,6.625e+00,5.909e+00,7.805e+00,7.744e+00,6.305e+00,6.379e+00,7.354e+00,6.693e+00,5.741e+00,5.726e+00,6.369e+00,6.566e+00,6.008e+00,4.880e+00,5.850e+00,6.858e+00,7.031e+00,6.610e+00
8.519e-01,9.880e-01,9.847e-01,7.036e-01,8.058e-01,1.027e+00,1.229e+00,2.116e+00,2.895e+00,2.569e+00,2.878e+00,3.499e+00,3.467e+00,3.529e+00,3.569e+00,5.083e+00,5.688e+00,3.440e+00,4.843e+00,4.693e+00,5.847e+00,5.010e+00,6.033e+00,6.863e+00,6.423e+00,6.984e+00,6.035e+00,8.023e+00,7.785e+00,7.890e+00,6.770e+00,7.213e+00,7.914e+00,8.494e+00,7.309e+00,8.053e+00,6.623e+00,7.426e+00,7.403e+00,6.574e+00,8.268e+00,6.502e+00,6.954e+00,7.831e+00,7.333e+00,6.851e+00,7.487e+00,7.203e+00,7.582e+00,6.960e+00,9.060e+00,8.519e+00,8.839e+00,6.868e+00,7.359e+00,6.841e+00,7.232e+00,8.278e+00,8.590e+00,6.538e+00,6.187e+00,7.602e+00,7.210e+00,5.722e+00,6.454e+00,7.392e+00,7.457e+00,7.338e+00,5.354e+00,7.859e+00,8.729e+00,7.615e+00,6.453e+00
1.407e-01,5.369e-01,8.085e-01,6.866e-01,7.982e-01,1.209e+00,1.196e+00,1.627e+00,1.887e+00,2.070e+00,1.507e+00,2.193e+00,2.650e+00,3.476e+00,3.061e+00,3.514e+00,4.475e+00,2.664e+00,4.336e+00,3.623e+00,4.480e+00,4.191e+00,5.248e+00,6.668e+00,5.909e+00,5.927e+00,5.144e+00,6.408e+00,5.566e+00,5.696e+00,5.062e+00,7.388e+00,6.409e+00,6.812e+00,4.863e+00,7.880e+00,6.741e+00,5.818e+00,5.716e+00,7.229e+00,7.454e+00,5.839e+00,7.095e+00,7.074e+00,6.624e+00,5.988e+00,7.480e+00,5.813e+00,6.742e+00,6.442e+00,7.215e+00,7.650e+00,6.653e+00,5.432e+00,6.260e+00,6.152e+00,6.391e+00,6.504e+00,6.212e+00,6.838e+00,6.346e+00,6.658e+00,5.763e+00,5.587e+00,6.208e+00,5.993e+00,6.981e+00,7.405e+00,5.403e+00,6.684e+00,6.719e+00,6.982e+00,6.121e+00
8.163e-01,1.270e+00,8.013e-01,1.008e+00,1.558e+00,1.791e+00,1.913e+00,2.508e+00,3.157e+00,3.412e+00,2.829e+00,4.347e+00,4.036e+00,4.341e+00,4.240e+00,5.375e+00,6.810e+00,3.544e+00,6.374e+00,5.280e+00,6.934e+00,5.540e+00,7.082e+00,7.409e+00,7.981e+00,7.064e+00,7.869e+00,8.812e+00,7.173e+00,8.523e+00,7.061e+00,8.966e+00,9.557e+00,9.645e+00,8.609e+00,9.773e+00,9.401e+00,8.527e+00,8.412e+00,8.256e+00,1.063e+01,8.635e+00,8.983e+00,8.930e+00,8.146e+00,8.252e+00,9.774e+00,7.931e+00,8.875e+00,1.036e+01,9.896e+00,1.041e+01,8.354e+00,6.907e+00,7.515e+00,6.709e+00,8.865e+00,1.080e+01,9.328e+00,8.653e+00,8.431e+00,9.098e+00,8.676e+00,7.460e+00,7.143e+00,7.852e+00,9.687e+00,9.842e+00,8.305e+00,8.572e+00,1.021e+01,8.449e+00,8.512e+00
2.267e-01,7.828e-01,9.913e-01,9.664e-01,1.444e+00,1.457e+00,2.272e+00,1.581e+00,3.491e+00,3.829e+00,3.202e+00,3.488e+00,2.733e+00,3.546e+00,4.319e+00,4.436e+00,4.779e+00,3.526e+00,5.356e+00,4.801e+00,4.983e+00,3.999e+00,5.660e+00,5.946e+00,6.322e+00,7.217e+00,6.812e+00,7.457e+00,6.764e+00,6.563e+00,5.952e+00,7.688e+00,7.546e+00,7.971e+00,8.004e+00,8.233e+00,7.803e+00,7.015e+00,7.771e+00,7.484e+00,9.480e+00,8.716e+00,7.774e+00,8.316e+00,7.709e+00,7.925e+00,8.281e+00,7.390e+00,9.019e+00,8.157e+00,8.404e+00,1.029e+01,8.717e+00,7.438e+00,8.000e+00,6.227e+00,7.535e+00,8.230e+00,8.897e+00,8.419e+00,7.329e+00,8.684e+00,8.508e+00,7.287e+00,6.749e+00,7.290e+00,8.751e+00,7.913e+00,7.183e+00,7.551e+00,9.496e+00,8.012e+00,7.402e+00
4.269e-01,7.792e-01,7.665e-01,7.269e-01,7.484e-01,1.093e+00,1.210e+00,1.763e+00,2.960e+00,2.568e+00,2.242e+00,3.196e+00,2.973e+00,3.222e+00,3.423e+00,4.166e+00,4.230e+00,2.679e+00,4.317e+00,4.098e+00,4.620e+00,3.853e+00,5.123e+00,5.840e+00,5.869e+00,6.092e+00,5.734e+00,6.837e+00,6.310e+00,6.121e+00,5.175e+00,6.503e+00,7.188e+00,7.440e+00,6.475e+00,7.521e+00,7.761e+00,7.171e+00,6.687e+00,6.498e+00,8.773e+00,6.594e+00,7.727e+00,7.973e+00,6.739e+00,6.871e+00,7.764e+00,6.668e+00,8.043e+00,7.432e+00,7.889e+00,8.485e+00,7.384e+00,6.643e+00,6.570e+00,5.841e+00,6.428e+00,7.601e+00,8.215e+00,7.820e+00,7.321e+00,7.740e+00,7.026e+00,6.941e+00,6.491e+00,6.562e+00,8.215e+00,7.787e+00,5.657e+00,6.705e+00,7.157e+00,7.883e+00,7.459e+00
3.071e-01,5.683e-01,9.038e-01,6.281e-01,6.130e-01,8.749e-01,1.045e+00,1.483e+00,1.852e+00,1.642e+00,1.893e+00,2.481e+00,2.823e+00,3.070e+00,2.562e+00,4.102e+00,4.585e+00,2.943e+00,4.256e+00,3.808e+00,5.710e+00,4.236e+00,4.813e+00,6.236e+00,6.164e+00,6.103e+00,5.628e+00,7.273e+00,6.363e+00,7.307e+00,5.803e+00,6.983e+00,7.622e+00,8.970e+00,7.956e+00,8.758e+00,7.473e+00,8.092e+00,7.653e+00,6.617e+00,8.573e+00,7.492e+00,8.093e+00,8.617e+00,7.215e+00,7.576e+00,7.548e+00,7.798e+00,8.725e+00,8.199e+00,8.761e+00,9.732e+00,8.719e+00,6.266e+00,7.572e+00,6.900e+00,7.696e+00,8.306e+00,7.864e+00,7.345e+00,7.047e+00,7.805e+00,6.121e+00,6.513e+00,6.268e+00,6.310e+00,8.135e+00,7.666e+00,6.273e+00,7.211e+00,9.223e+00,7.569e+00,7.485e+00
3.726e-01,6.020e-01,6.813e-01,5.917e-01,1.246e+00,1.288e+00,1.700e+00,1.669e+00,2.999e+00,2.585e+00,2.087e+00,3.232e+00,2.870e+00,3.104e+00,3.083e+00,4.045e+00,5.055e+00,2.988e+00,4.963e+00,4.940e+00,5.096e+00,5.514e+00,6.666e+00,6.470e+00,7.984e+00,6.834e+00,7.118e+00,8.068e+00,6.384e+00,6.971e+00,4.920e+00,7.862e+00,7.725e+00,9.973e+00,9.771e+00,1.061e+01,8.945e+00,8.656e+00,9.153e+00,8.279e+00,9.322e+00,7.847e+00,9.251e+00,9.295e+00,9.422e+00,8.265e+00,8.795e+00,9.213e+00,1.034e+01,9.828e+00,9.760e+00,1.069e+01,9.646e+00,6.833e+00,8.386e+00,8.049e+00,1.013e+01,9.501e+00,9.855e+00,9.394e+00,7.578e+00,1.010e+01,8.932e+00,9.198e+00,7.179e+00,8.244e+00,9.420e+00,9.125e+00,6.851e+00,9.232e+00,9.946e+00,8.521e+00,8.860e+00
4.180e-01,4.917e-01,9.921e-01,4.990e-01,5.564e-01,6.835e-01,1.183e+00,1.477e+00,2.140e+00,2.240e+00,2.451e+00,2.034e+00,2.078e+00,2.521e+00,2.688e+00,3.288e+00,3.800e+00,3.002e+00,3.611e+00,5.075e+00,5.302e+00,4.989e+00,6.464e+00,6.027e+00,6.710e+00,6.381e+00,6.176e+00,7.374e+00,7.263e+00,7.062e+00,6.159e+00,7.361e+00,6.988e+00,8.880e+00,7.950e+00,1.013e+01,8.711e+00,9.426e+00,9.184e+00,8.502e+00,8.775e+00,7.884e+00,8.938e+00,1.049e+01,8.901e+00,8.253e+00,8.943e+00,9.091e+00,8.596e+00,9.289e+00,8.673e+00,1.043e+01,9.538e+00,7.528e+00,9.075e+00,8.788e+00,8.752e+00,7.973e+00,9.090e+00,8.568e+00,7.728e+00,9.393e+00,8.065e+00,7.717e+00,7.540e+00,7.774e+00,8.594e+00,8.565e+00,7.255e+00,8.676e+00,9.392e+00,8.132e+00,8.828e+00
1.446e-01,3.213e-01,3.509e-01,3.613e-01,6.304e-01,8.724e-01,1.242e+00,1.408e+00,2.822e+00,2.937e+00,2.286e+00,2.955e+00,3.262e+00,3.697e+00,4.241e+00,4.849e+00,5.162e+00,3.522e+00,5.312e+00,4.965e+00,5.679e+00,5.404e+00,6.179e+00,5.739e+00,6.879e+00,6.626e+00,5.935e+00,7.790e+00,6.956e+00,6.921e+00,6.228e+00,8.250e+00,7.489e+00,8.798e+00,7.346e+00,9.477e+00,1.037e+01,8.622e+00,9.923e+00,9.396e+00,1.050e+01,8.612e+00,8.296e+00,9.346e+00,7.506e+00,8.033e+00,1.045e+01,8.700e+00,9.648e+00,1.005e+01,8.517e+00,1.040e+01,9.063e+00,7.814e+00,8.903e+00,7.464e+00,9.240e+00,8.633e+00,9.476e+00,1.005e+01,7.411e+00,9.455e+00,7.898e+00,7.490e+00,8.838e+00,7.502e+00,1.110e+01,8.622e+00,7.963e+00,9.024e+00,9.432e+00,9.191e+00,9.092e+00
8.336e-01,1.333e+00,1.211e+00,1.127e+00,1.116e+00,1.340e+00,1.562e+00,2.059e+00,3.388e+00,3.706e+00,3.889e+00,4.250e+00,4.499e+00,4.905e+00,5.419e+00,5.857e+00,6.745e+00,4.588e+00,6.499e+00,6.191e+00,7.470e+00,5.788e+00,7.754e+00,8.159e+00,8.327e+00,8.581e+00,7.926e+00,9.109e+00,8.309e+00,8.364e+00,7.562e+00,8.201e+00,9.268e+00,1.066e+01,9.135e+00,1.158e+01,1.069e+01,1.114e+01,1.095e+01,1.036e+01,1.100e+01,9.947e+00,1.102e+01,1.217e+01,1.070e+01,9.623e+00,1.155e+01,1.173e+01,1.234e+01,1.088e+01,1.012e+01,1.385e+01,1.191e+01,1.065e+01,1.093e+01,1.039e+01,9.466e+00,1.093e+01,1.148e+01,1.128e+01,9.494e+00,1.220e+01,9.857e+00,9.042e+00,9.746e+00,9.351e+00,1.236e+01,9.398e+00,8.036e+00,1.096e+01,1.143e+01,1.105e+01,1.089e+01
2.027e-01,4.453e-01,3.799e-01,4.521e-01,1.227e+00,1.401e+00,1.545e+00,1.570e+00,2.335e+00,2.601e+00,1.771e+00,2.892e+00,2.765e+00,3.527e+00,3.286e+00,4.069e+00,4.765e+00,2.736e+00,4.796e+00,4.072e+00,4.541e+00,4.681e+00,6.111e+00,6.925e+00,6.859e+00,6.996e+00,6.485e+00,7.576e+00,6.920e+00,6.817e+00,5.310e+00,7.463e+00,8.171e+00,9.517e+00,9.104e+00,1.001e+01,1.008e+01,9.338e+00,9.682e+00,9.030e+00,1.057e+01,8.501e+00,1.056e+01,1.129e+01,9.886e+00,7.600e+00,1.088e+01,1.096e+01,9.781e+00,1.115e+01,9.903e+00,1.177e+01,9.378e+00,9.332e+00,8.892e+00,9.421e+00,9.740e+00,1.057e+01,1.059e+01,1.135e+01,8.512e+00,1.152e+01,9.891e+00,8.510e+00,7.644e+00,9.084e+00,1.097e+01,9.331e+00,8.465e+00,1.056e+01,1.063e+01,9.161e+00,1.010e+01
1.701e-01,5.085e-01,1.087e+00,6.943e-01,6.452e-01,7.734e-01,1.036e+00,1.006e+00,1.984e+00,1.961e+00,2.257e+00,2.437e+00,3.273e+00,3.515e+00,3.357e+00,3.970e+00,4.897e+00,3.694e+00,4.915e+00,5.079e+00,6.534e+00,5.975e+00,6.268e+00,7.148e+00,8.133e+00,7.309e+00,6.636e+00,9.074e+00,8.088e+00,8.610e+00,7.348e+00,9.311e+00,8.542e+00,1.020e+01,9.372e+00,1.107e+01,1.088e+01,1.196e+01,1.152e+01,1.042e+01,1.296e+01,9.983e+00,1.138e+01,1.262e+01,1.078e+01,8.953e+00,1.088e+01,1.147e+01,1.180e+01,1.164e+01,1.036e+01,1.402e+01,1.073e+01,1.010e+01,1.070e+01,1.150e+01,1.080e+01,1.129e+01,1.101e+01,1.188e+01,1.006e+01,1.273e+01,9.254e+00,1.002e+01,9.932e+00,9.618e+00,1.143e+01,1.056e+01,9.872e+00,1.117e+01,1.248e+01,1.253e+01,1.248e+01
1.327e-01,6.698e-01,8.457e-01,8.651e-01,1.061e+00,1.476e+00,1.742e+00,1.941e+00,2.602e+00,3.427e+00,2.850e+00,3.627e+00,4.005e+00,4.856e+00,4.877e+00,5.255e+00,5.914e+00,4.111e+00,5.887e+00,4.807e+00,5.967e+00,4.916e+00,5.784e+00,6.889e+00,6.313e+00,6.581e+00,5.367e+00,7.105e+00,6.169e+00,6.516e+00,6.183e+00,8.013e+00,7.448e+00,9.038e+00,8.395e+00,9.705e+00,9.870e+00,1.009e+01,1.018e+01,8.979e+00,1.200e+01,1.040e+01,1.144e+01,1.177e+01,9.155e+00,9.185e+00,9.855e+00,1.062e+01,1.102e+01,1.120e+01,9.821e+00,1.201e+01,9.827e+00,9.427e+00,1.085e+01,9.448e+00,1.057e+01,1.078e+01,1.099e+01,1.270e+01,1.042e+01,1.203e+01,8.645e+00,9.837e+00,8.901e+00,8.575e+00,1.062e+01,1.029e+01,9.117e+00,9.729e+00,1.033e+01,1.098e+01,1.034e+01
1.976e-01,3.291e-01,9.540e-01,4.689e-01,7.276e-01,8.896e-01,1.411e+00,1.419e+00,2.946e+00,2.846e+00,2.731e+00,2.854e+00,3.603e+00,4.232e+00,4.423e+00,5.036e+00,4.958e+00,4.386e+00,5.147e+00,4.959e+00,5.507e+00,5.651e+00,6.574e+00,6.451e+00,6.597e+00,7.344e+00,6.148e+00,7.340e+00,6.613e+00,5.984e+00,6.172e+00,7.157e+00,7.228e+00,8.703e+00,8.168e+00,9.504e+00,8.853e+00,9.565e+00,9.659e+00,8.892e+00,1.044e+01,9.169e+00,1.086e+01,1.027e+01,8.845e+00,9.366e+00,1.102e+01,9.579e+00,1.011e+01,1.090e+01,9.966e+00,1.164e+01,1.117e+01,9.014e+00,9.161e+00,9.505e+00,8.494e+00,1.027e+01,1.034e+01,1.052e+01,9.582e+00,1.094e+01,9.478e+00,9.120e+00,9.678e+00,8.563e+00,1.115e+01,9.527e+00,8.580e+00,1.061e+01,1.144e+01,1.060e+01,9.461e+00
7.248e-01,1.115e+00,1.073e+00,9.559e-01,1.401e+00,1.548e+00,1.716e+00,2.093e+00,2.423e+00,2.894e+00,2.758e+00,3.222e+00,2.745e+00,2.690e+00,3.299e+00,3.207e+00,5.009e+00,2.952e+00,4.547e+00,4.746e+00,5.210e+00,4.377e+00,5.926e+00,5.425e+00,6.430e+00,5.143e+00,6.574e+00,6.837e+00,5.701e+00,5.901e+00,5.689e+00,7.366e+00,6.601e+00,7.185e+00,7.310e+00,8.229e+00,7.364e+00,7.707e+00,7.563e+00,8.211e+00,9.202e+00,7.473e+00,8.897e+00,1.026e+01,9.789e+00,8.104e+00,9.265e+00,8.830e+00,8.980e+00,9.291e+00,9.393e+00,1.103e+01,8.428e+00,8.183e+00,8.707e+00,7.835e+00,9.208e+00,9.752e+00,8.844e+00,9.845e+00,9.230e+00,9.966e+00,7.913e+00,7.965e+00,8.212e+00,7.886e+00,9.526e+00,8.464e+00,7.976e+00,9.141e+00,1.050e+01,9.533e+00,9.380e+00
8.877e-01,1.206e+00,1.193e+00,9.790e-01,9.554e-01,8.700e-01,1.489e+00,1.632e+00,2.989e+00,2.602e+00,3.040e+00,3.136e+00,3.224e+00,3.194e+00,3.392e+00,4.215e+00,4.839e+00,3.367e+00,4.523e+00,4.800e+00,5.395e+00,4.737e+00,6.383e+00,5.969e+00,7.005e+00,7.221e+00,7.812e+00,7.995e+00,6.456e+00,7.667e+00,6.343e+00,6.895e+00,7.308e+00,9.353e+00,9.015e+00,1.016e+01,9.616e+00,1.034e+01,9.898e+00,1.019e+01,1.085e+01,9.514e+00,1.091e+01,1.277e+01,1.059e+01,9.857e+00,1.138e+01,1.197e+01,1.148e+01,1.198e+01,1.073e+01,1.322e+01,1.092e+01,1.170e+01,1.071e+01,9.636e+00,1.039e+01,9.656e+00,1.208e+01,1.223e+01,9.910e+00,1.290e+01,1.061e+01,1.021e+01,1.061e+01,9.708e+00,1.156e+01,1.096e+01,7.785e+00,1.106e+01,1.186e+01,1.086e+01,1.099e+01
8.182e-01,1.057e+00,6.163e-01,7.568e-01,1.238e+00,1.479e+00,1.690e+00,2.553e+00,2.790e+00,2.578e+00,2.467e+00,3.788e+00,3.231e+00,2.854e+00,3.082e+00,4.120e+00,5.590e+00,2.703e+00,4.963e+00,4.184e+00,4.822e+00,4.480e+00,6.249e+00,6.043e+00,7.129e+00,6.805e+00,7.385e+00,8.704e+00,6.039e+00,8.194e+00,6.800e+00,9.445e+00,8.618e+00,9.999e+00,9.044e+00,1.079e+01,9.906e+00,9.125e+00,9.868e+00,8.965e+00,1.145e+01,1.041e+01,1.026e+01,1.184e+01,1.068e+01,1.022e+01,1.091e+01,1.094e+01,1.154e+01,1.294e+01,1.338e+01,1.336e+01,1.211e+01,9.317e+00,1.145e+01,8.720e+00,1.164e+01,1.136e+01,1.227e+01,1.105e+01,1.067e+01,1.156e+01,1.105e+01,9.714e+00,1.053e+01,8.809e+00,1.259e+01,1.181e+01,1.002e+01,1.092e+01,1.274e+01,1.194e+01,1.071e+01
1.941e-01,2.672e-01,1.504e-01,2.009e-01,8.931e-01,9.811e-01,1.053e+00,1.135e+00,1.703e+00,1.618e+00,1.634e+00,2.410e+00,2.087e+00,1.968e+00,2.561e+00,3.016e+00,3.782e+00,2.268e+00,3.734e+00,3.832e+00,3.638e+00,4.208e+00,5.385e+00,5.444e+00,6.280e+00,6.032e+00,5.828e+00,6.701e+00,6.306e+00,6.470e+00,4.902e+00,6.765e+00,7.589e+00,8.525e+00,7.941e+00,9.561e+00,8.683e+00,8.527e+00,8.871e+00,6.861e+00,9.829e+00,9.112e+00,1.009e+01,1.075e+01,1.055e+01,9.265e+00,1.016e+01,1.101e+01,1.141e+01,1.241e+01,1.148e+01,1.429e+01,1.130e+01,9.721e+00,9.655e+00,1.055e+01,1.026e+01,1.034e+01,1.059e+01,1.153e+01,9.768e+00,1.198e+01,1.030e+01,9.657e+00,9.924e+00,8.633e+00,1.145e+01,1.083e+01,1.009e+01,9.280e+00,1.108e+01,1.048e+01,1.103e+01
7.538e-01,1.005e+00,5.463e-01,6.918e-01,1.304e+00,1.337e+00,1.749e+00,1.876e+00,3.066e+00,3.372e+00,2.772e+00,3.194e+00,2.322e+00,3.409e+00,3.989e+00,4.478e+00,5.293e+00,3.057e+00,4.954e+00,4.014e+00,4.460e+00,3.950e+00,5.705e+00,5.592e+00,5.248e+00,6.964e+00,6.135e+00,7.884e+00,6.947e+00,7.850e+00,6.639e+00,8.019e+00,8.084e+00,9.045e+00,8.809e+00,9.125e+00,9.747e+00,9.415e+00,1.053e+01,9.604e+00,1.178e+01,1.041e+01,1.016e+01,1.216e+01,1.106e+01,9.743e+00,1.140e+01,1.184e+01,1.179e+01,1.259e+01,1.305e+01,1.380e+01,1.132e+01,1.102e+01,1.105e+01,1.017e+01,1.155e+01,1.119e+01,1.322e+01,1.330e+01,1.126e+01,1.254e+01,1.123e+01,1.043e+01,1.089e+01,1.085e+01,1.240e+01,1.126e+01,1.115e+01,1.187e+01,1.276e+01,1.219e+01,1.067e+01
3.606e-01,9.173e-01,6.247e-01,9.395e-01,1.460e+00,1.706e+00,2.264e+00,2.204e+00,2.909e+00,4.275e+00,3.156e+00,4.068e+00,4.187e+00,4.528e+00,4.954e+00,4.936e+00,6.370e+00,3.827e+00,5.797e+00,5.707e+00,5.896e+00,5.749e+00,7.120e+00,6.682e+00,7.297e+00,7.837e+00,7.543e+00,8.299e+00,7.353e+00,6.843e+00,7.018e+00,8.540e+00,8.421e+00,9.371e+00,8.640e+00,9.841e+00,9.622e+00,9.173e+00,1.026e+01,9.873e+00,1.101e+01,9.947e+00,1.021e+01,1.195e+01,1.058e+01,1.012e+01,1.220e+01,1.241e+01,1.074e+01,1.216e+01,1.237e+01,1.298e+01,1.145e+01,1.253e+01,1.124e+01,1.075e+01,1.096e+01,1.144e+01,1.311e+01,1.341e+01,1.193e+01,1.289e+01,1.120e+01,1.029e+01,1.189e+01,1.033e+01,1.311e+01,1.253e+01,1.018e+01,1.192e+01,1.241e+01,1.257e+01,1.134e+01
6.105e-01,9.654e-01,5.257e-01,7.217e-01,6.496e-01,8.237e-01,8.055e-01,1.318e+00,1.818e+00,2.051e+00,2.454e+00,3.296e+00,3.448e+00,3.097e+00,3.720e+00,4.620e+00,5.164e+00,3.368e+00,4.675e+00,4.368e+00,5.802e+00,4.744e+00,5.537e+00,6.077e+00,6.154e+00,6.549e+00,5.894e+00,7.212e+00,7.520e+00,6.988e+00,6.508e+00,6.501e+00,7.229e+00,7.877e+00,7.714e+00,8.024e+00,8.424e+00,8.377e+00,8.845e+00,8.776e+00,1.010e+01,8.180e+00,8.967e+00,1.087e+01,9.018e+00,7.792e+00,1.067e+01,1.149e+01,9.795e+00,1.124e+01,9.870e+00,1.220e+01,1.006e+01,1.168e+01,9.895e+00,1.041e+01,9.824e+00,1.060e+01,1.252e+01,1.212e+01,1.012e+01,1.108e+01,1.028e+01,7.789e+00,1.122e+01,9.391e+00,1.177e+01,1.116e+01,9.155e+00,1.193e+01,1.208e+01,1.104e+01,1.142e+01
6.179e-01,1.045e+00,1.285e+00,9.878e-01,1.042e+00,1.074e+00,1.444e+00,1.408e+00,2.560e+00,2.838e+00,2.706e+00,2.531e+00,2.912e+00,3.656e+00,3.351e+00,3.697e+00,4.272e+00,3.051e+00,4.484e+00,4.050e+00,5.609e+00,3.809e+00,5.441e+00,6.154e+00,6.870e+00,6.634e+00,6.200e+00,7.263e+00,6.011e+00,6.908e+00,7.274e+00,8.198e+00,8.409e+00,9.495e+00,9.947e+00,1.009e+01,1.075e+01,1.090e+01,1.062e+01,9.913e+00,1.224e+01,1.009e+01,1.103e+01,1.372e+01,1.187e+01,9.794e+00,1.268e+01,1.253e+01,1.357e+01,1.431e+01,1.356e+01,1.562e+01,1.282e+01,1.214e+01,1.248e+01,1.286e+01,1.331e+01,1.287e+01,1.308e+01,1.481e+01,1.266e+01,1.390e+01,1.104e+01,1.225e+01,1.155e+01,1.035e+01,1.428e+01,1.264e+01,1.189e+01,1.394e+01,1.422e+01,1.474e+01,1.331e+01
8.651e-01,1.325e+00,1.333e+00,1.153e+00,1.140e+00,1.508e+00,1.570e+00,2.582e+00,3.198e+00,2.749e+00,2.862e+00,3.884e+00,3.748e+00,4.389e+00,3.635e+00,4.570e+00,5.574e+00,3.280e+00,5.360e+00,3.892e+00,5.436e+00,3.981e+00,5.720e+00,7.059e+00,6.760e+00,6.873e+00,6.799e+00,8.285e+00,6.674e+00,7.150e+00,6.555e+00,8.283e+00,8.222e+00,8.892e+00,8.835e+00,9.816e+00,9.662e+00,8.973e+00,9.475e+00,8.587e+00,1.209e+01,1.010e+01,1.172e+01,1.257e+01,1.031e+01,9.294e+00,1.174e+01,1.131e+01,1.165e+01,1.373e+01,1.348e+01,1.486e+01,1.210e+01,1.235e+01,1.138e+01,1.208e+01,1.124e+01,1.318e+01,1.340e+01,1.348e+01,1.243e+01,1.313e+01,1.180e+01,1.171e+01,1.180e+01,1.156e+01,1.389e+01,1.426e+01,1.168e+01,1.384e+01,1.423e+01,1.382e+01,1.203e+01
7.264e-01,1.292e+00,1.496e+00,1.272e+00,1.371e+00,1.551e+00,2.115e+00,2.353e+00,3.627e+00,3.613e+00,3.829e+00,4.147e+00,3.758e+00,4.716e+00,4.642e+00,5.357e+00,6.007e+00,4.164e+00,5.979e+00,5.333e+00,6.097e+00,4.561e+00,6.407e+00,7.482e+00,6.815e+00,7.588e+00,7.353e+00,8.481e+00,6.951e+00,8.122e+00,7.408e+00,7.904e+00,8.108e+00,1.036e+01,9.109e+00,1.077e+01,9.030e+00,1.049e+01,9.598e+00,8.907e+00,1.162e+01,1.061e+01,1.168e+01,1.189e+01,1.129e+01,1.012e+01,1.048e+01,1.102e+01,1.236e+01,1.230e+01,1.304e+01,1.546e+01,1.255e+01,1.234e+01,1.392e+01,1.291e+01,1.273e+01,1.372e+01,1.302e+01,1.349e+01,1.368e+01,1.341e+01,1.127e+01,1.204e+01,1.108e+01,1.123e+01,1.429e+01,1.259e+01,1.114e+01,1.413e+01,1.416e+01,1.283e+01,1.228e+01
4.210e-01,5.507e-01,8.012e-01,4.815e-01,1.006e+00,1.452e+00,1.304e+00,2.173e+00,2.597e+00,2.554e+00,2.332e+00,3.149e+00,3.464e+00,4.053e+00,3.915e+00,4.683e+00,5.638e+00,3.397e+00,5.247e+00,4.532e+00,5.394e+00,5.232e+00,6.163e+00,7.256e+00,6.603e+00,6.450e+00,5.871e+00,7.538e+00,7.211e+00,6.257e+00,5.739e+00,7.341e+00,7.930e+00,8.278e+00,8.381e+00,9.734e+00,9.668e+00,9.360e+00,1.001e+01,8.978e+00,1.078e+01,8.762e+00,1.139e+01,1.238e+01,1.133e+01,9.214e+00,1.209e+01,1.228e+01,1.288e+01,1.356e+01,1.372e+01,1.560e+01,1.362e+01,1.233e+01,1.357e+01,1.402e+01,1.462e+01,1.331e+01,1.363e+01,1.570e+01,1.403e+01,1.405e+01,1.191e+01,1.226e+01,1.424e+01,1.258e+01,1.527e+01,1.291e+01,1.267e+01,1.515e+01,1.332e+01,1.396e+01,1.323e+01
8.672e-01,1.397e+00,1.471e+00,1.276e+00,1.618e+00,1.978e+00,2.421e+00,3.052e+00,4.257e+00,4.012e+00,3.576e+00,4.525e+00,3.684e+00,4.540e+00,4.930e+00,5.964e+00,6.700e+00,4.396e+00,6.474e+00,5.238e+00,6.523e+00,4.824e+00,7.364e+00,8.477e+00,8.398e+00,9.544e+00,8.327e+00,9.725e+00,7.908e+00,8.588e+00,7.821e+00,1.045e+01,9.531e+00,1.044e+01,1.049e+01,1.114e+01,1.146e+01,1.050e+01,1.163e+01,1.170e+01,1.410e+01,1.242e+01,1.383e+01,1.483e+01,1.271e+01,1.201e+01,1.448e+01,1.421e+01,1.553e+01,1.520e+01,1.617e+01,1.761e+01,1.525e+01,1.466e+01,1.511e+01,1.521e+01,1.552e+01,1.587e+01,1.530e+01,1.850e+01,1.645e+01,1.661e+01,1.418e+01,1.547e+01,1.556e+01,1.494e+01,1.628e+01,1.654e+01,1.474e+01,1.632e+01,1.580e+01,1.716e+01,1.457e+01
7.111e-01,7.185e-01,6.606e-01,4.564e-01,1.076e+00,1.314e+00,1.486e+00,2.356e+00,3.244e+00,2.395e+00,2.943e+00,3.822e+00,3.403e+00,3.143e+00,3.806e+00,4.540e+00,5.950e+00,3.451e+00,5.356e+00,5.098e+00,4.903e+00,5.465e+00,6.356e+00,5.551e+00,6.249e+00,5.851e+00,6.948e+00,7.551e+00,6.129e+00,6.812e+00,5.587e+00,6.727e+00,7.020e+00,7.455e+00,6.636e+00,9.414e+00,9.249e+00,8.580e+00,9.319e+00,8.412e+00,1.088e+01,9.130e+00,1.058e+01,1.072e+01,9.539e+00,9.565e+00,1.131e+01,1.098e+01,1.115e+01,1.252e+01,1.212e+01,1.399e+01,1.163e+01,1.198e+01,1.252e+01,1.193e+01,1.315e+01,1.280e+01,1.346e+01,1.383e+01,1.319e+01,1.394e+01,1.181e+01,1.124e+01,1.359e+01,1.127e+01,1.334e+01,1.242e+01,1.237e+01,1.215e+01,1.197e+01,1.393e+01,1.272e+01
3.029e-02,7.377e-02,2.320e-01,1.388e-01,8.304e-01,1.135e+00,1.359e+00,1.543e+00,1.968e+00,2.472e+00,1.783e+00,2.511e+00,3.150e+00,3.330e+00,3.688e+00,4.598e+00,5.129e+00,3.390e+00,4.706e+00,4.343e+00,4.828e+00,5.441e+00,5.959e+00,6.091e+00,6.310e+00,6.458e+00,5.677e+00,7.337e+00,6.388e+00,5.893e+00,5.709e+00,7.545e+00,7.773e+00,8.388e+00,8.095e+00,8.359e+00,8.590e+00,8.106e+00,9.197e+00,8.602e+00,1.010e+01,8.747e+00,9.770e+00,1.053e+01,1.080e+01,9.930e+00,1.237e+01,1.112e+01,1.123e+01,1.252e+01,1.447e+01,1.363e+01,1.338e+01,1.128e+01,1.246e+01,1.234e+01,1.435e+01,1.243e+01,1.268e+01,1.485e+01,1.408e+01,1.503e+01,1.212e+01,1.264e+01,1.416e+01,1.253e+01,1.463e+01,1.273e+01,1.309e+01,1.439e+01,1.450e+01,1.366e+01,1.245e+01
6.953e-01,8.195e-01,3.636e-01,4.582e-01,5.498e-01,4.956e-01,6.575e-01,8.813e-01,2.296e+00,2.436e+00,2.577e+00,2.534e+00,2.332e+00,2.934e+00,3.859e+00,4.039e+00,4.513e+00,3.263e+00,4.712e+00,4.829e+00,5.197e+00,4.975e+00,7.520e+00,6.636e+00,7.048e+00,7.483e+00,6.526e+00,8.302e+00,7.746e+00,7.120e+00,6.459e+00,7.834e+00,7.911e+00,9.963e+00,9.369e+00,9.881e+00,9.001e+00,9.956e+00,9.841e+00,1.091e+01,1.086e+01,8.742e+00,1.062e+01,1.240e+01,1.221e+01,9.738e+00,1.224e+01,1.263e+01,1.229e+01,1.283e+01,1.253e+01,1.502e+01,1.289e+01,1.376e+01,1.276e+01,1.403e+01,1.431e+01,1.284e+01,1.334e+01,1.517e+01,1.444e+01,1.493e+01,1.150e+01,1.381e+01,1.426e+01,1.374e+01,1.470e+01,1.318e+01,1.279e+01,1.586e+01,1.482e+01,1.355e+01,1.358e+01
2.960e-02,5.272e-01,4.449e-01,7.260e-01,9.099e-01,1.305e+00,1.791e+00,1.941e+00,2.672e+00,3.638e+00,3.474e+00,4.087e+00,4.193e+00,4.279e+00,4.978e+00,4.285e+00,5.845e+00,3.765e+00,5.512e+00,5.402e+00,4.547e+00,4.846e+00,5.975e+00,5.440e+00,6.619e+00,6.018e+00,7.049e+00,8.971e+00,7.357e+00,7.085e+00,5.742e+00,8.514e+00,7.866e+00,8.527e+00,8.714e+00,1.045e+01,1.004e+01,9.237e+00,1.086e+01,9.123e+00,1.207e+01,1.184e+01,1.029e+01,1.137e+01,9.535e+00,9.877e+00,1.114e+01,1.078e+01,1.227e+01,1.230e+01,1.242e+01,1.533e+01,1.327e+01,1.298e+01,1.283e+01,1.235e+01,1.446e+01,1.491e+01,1.446e+01,1.430e+01,1.532e+01,1.510e+01,1.270e+01,1.420e+01,1.511e+01,1.265e+01,1.555e+01,1.400e+01,1.343e+01,1.420e+01,1.422e+01,1.468e+01,1.295e+01
1.606e-01,6.299e-01,7.692e-01,7.657e-01,1.316e+00,1.671e+00,1.722e+00,1.871e+00,2.542e+00,3.312e+00,2.277e+00,3.365e+00,3.924e+00,4.356e+00,4.211e+00,3.760e+00,5.198e+00,3.253e+00,5.000e+00,4.756e+00,4.770e+00,5.231e+00,6.377e+00,6.392e+00,6.962e+00,6.393e+00,7.036e+00,7.828e+00,7.040e+00,6.205e+00,5.328e+00,7.430e+00,8.099e+00,8.116e+00,8.251e+00,9.965e+00,9.479e+00,8.853e+00,8.946e+00,8.519e+00,1.117e+01,9.650e+00,1.185e+01,1.143e+01,1.010e+01,9.003e+00,1.327e+01,1.000e+01,1.182e+01,1.254e+01,1.286e+01,1.518e+01,1.238e+01,1.214e+01,1.137e+01,1.280e+01,1.432e+01,1.485e+01,1.411e+01,1.585e+01,1.584e+01,1.524e+01,1.292e+01,1.506e+01,1.499e+01,1.470e+01,1.603e+01,1.441e+01,1.384e+01,1.628e+01,1.615e+01,1.485e+01,1.251e+01
3.550e-01,7.783e-01,8.033e-01,8.060e-01,8.073e-01,1.120e+00,1.253e+00,1.732e+00,2.215e+00,2.493e+00,2.500e+00,3.502e+00,3.327e+00,3.127e+00,3.571e+00,4.306e+00,4.945e+00,3.383e+00,4.726e+00,4.508e+00,5.450e+00,4.570e+00,5.898e+00,6.750e+00,6.702e+00,6.639e+00,5.801e+00,7.929e+00,7.079e+00,7.542e+00,5.685e+00,8.554e+00,8.104e+00,9.350e+00,9.814e+00,9.772e+00,8.584e+00,9.587e+00,9.844e+00,8.558e+00,1.132e+01,9.470e+00,1.056e+01,1.198e+01,1.034e+01,9.729e+00,1.083e+01,1.173e+01,1.232e+01,1.220e+01,1.339e+01,1.413e+01,1.374e+01,1.160e+01,1.360e+01,1.313e+01,1.505e+01,1.476e+01,1.580e+01,1.510e+01,1.588e+01,1.637e+01,1.347e+01,1.500e+01,1.406e+01,1.459e+01,1.488e+01,1.484e+01,1.514e+01,1.628e+01,1.650e+01,1.534e+01,1.360e+01
5.181e-01,7.052e-01,5.211e-01,5.650e-01,9.687e-01,1.302e+00,1.587e+00,2.308e+00,3.303e+00,3.388e+00,3.287e+00,4.094e+00,3.584e+00,4.190e+00,5.109e+00,5.715e+00,6.526e+00,4.233e+00,6.236e+00,5.516e+00,5.558e+00,5.597e+00,7.708e+00,7.936e+00,7.464e+00,8.307e+00,7.000e+00,9.244e+00,8.620e+00,8.557e+00,6.824e+00,1.006e+01,8.924e+00,1.070e+01,9.869e+00,1.182e+01,1.088e+01,1.012e+01,1.171e+01,1.087e+01,1.283e+01,9.680e+00,1.185e+01,1.300e+01,1.182e+01,1.036e+01,1.295e+01,1.316e+01,1.332e+01,1.449e+01,1.307e+01,1.662e+01,1.398e+01,1.303e+01,1.438e+01,1.473e+01,1.546e+01,1.527e+01,1.544e+01,1.655e+01,1.497e+01,1.593e+01,1.415e+01,1.390e+01,1.484e+01,1.536e+01,1.759e+01,1.529e+01,1.551e+01,1.739e+01,1.670e+01,1.463e+01,1.586e+01
4.361e-01,8.192e-01,9.013e-01,8.563e-01,1.004e+00,1.002e+00,1.749e+00,1.617e+00,2.591e+00,2.493e+00,2.902e+00,2.933e+00,2.152e+00,2.498e+00,2.899e+00,3.044e+00,3.602e+00,2.550e+00,3.671e+00,4.135e+00,3.322e+00,3.212e+00,4.501e+00,4.546e+00,4.351e+00,5.261e+00,6.201e+00,6.429e+00,5.823e+00,6.235e+00,4.053e+00,5.249e+00,6.088e+00,7.858e+00,7.142e+00,8.651e+00,7.788e+00,8.575e+00,8.545e+00,6.467e+00,8.914e+00,7.907e+00,1.037e+01,1.065e+01,8.926e+00,8.660e+00,8.608e+00,1.039e+01,1.049e+01,1.152e+01,1.169e+01,1.341e+01,1.114e+01,1.235e+01,1.169e+01,1.236e+01,1.284e+01,1.263e+01,1.241e+01,1.447e+01,1.377e+01,1.284e+01,1.259e+01,1.329e+01,1.189e+01,1.331e+01,1.503e+01,1.418e+01,1.254e+01,1.391e+01,1.380e+01,1.293e+01,1.356e+01
2.256e-01,4.718e-01,8.749e-01,5.902e-01,9.487e-01,1.280e+00,1.592e+00,1.905e+00,2.794e+00,3.041e+00,2.380e+00,3.031e+00,2.720e+00,3.439e+00,3.494e+00,4.102e+00,4.337e+00,3.179e+00,4.262e+00,4.109e+00,4.370e+00,3.781e+00,5.359e+00,5.744e+00,5.928e+00,6.082e+00,6.090e+00,7.883e+00,6.426e+00,6.485e+00,6.121e+00,7.690e+00,6.746e+00,9.417e+00,8.967e+00,9.898e+00,9.946e+00,1.038e+01,1.029e+01,9.626e+00,1.123e+01,1.023e+01,1.168e+01,1.276e+01,1.003e+01,9.693e+00,1.099e+01,1.119e+01,1.134e+01,1.379e+01,1.244e+01,1.503e+01,1.351e+01,1.253e+01,1.413e+01,1.339e+01,1.473e+01,1.430e+01,1.440e+01,1.665e+01,1.597e+01,1.527e+01,1.439e+01,1.545e+01,1.502e+01,1.579e+01,1.758e+01,1.503e+01,1.503e+01,1.658e+01,1.685e+01,1.735e+01,1.364e+01
7.902e-02,6.119e-01,4.517e-01,7.385e-01,1.434e+00,1.672e+00,1.827e+00,1.632e+00,2.715e+00,3.435e+00,2.609e+00,3.702e+00,3.177e+00,4.114e+00,4.894e+00,4.500e+00,5.969e+00,3.770e+00,6.201e+00,4.595e+00,4.931e+00,4.899e+00,6.321e+00,6.322e+00,6.272e+00,7.161e+00,6.297e+00,8.036e+00,6.935e+00,6.917e+00,5.354e+00,7.524e+00,7.064e+00,9.208e+00,8.925e+00,9.737e+00,9.183e+00,9.717e+00,9.927e+00,8.902e+00,1.111e+01,9.815e+00,1.101e+01,1.250e+01,1.224e+01,1.052e+01,1.157e+01,1.207e+01,1.261e+01,1.484e+01,1.313e+01,1.576e+01,1.297e+01,1.351e+01,1.316e+01,1.366e+01,1.481e+01,1.384e+01,1.467e+01,1.700e+01,1.453e+01,1.510e+01,1.451e+01,1.553e+01,1.483e+01,1.510e+01,1.683e+01,1.604e+01,1.491e+01,1.597e+01,1.667e+01,1.806e+01,1.521e+01
8.611e-01,1.251e+00,1.427e+00,1.053e+00,1.297e+00,1.451e+00,1.728e+00,2.035e+00,3.535e+00,3.192e+00,3.180e+00,3.593e+00,3.418e+00,4.318e+00,4.409e+00,5.704e+00,5.869e+00,4.372e+00,5.875e+00,5.391e+00,7.291e+00,5.465e+00,7.570e+00,8.254e+00,8.746e+00,9.125e+00,7.848e+00,8.663e+00,7.421e+00,8.086e+00,7.334e+00,8.125e+00,9.163e+00,1.049e+01,1.043e+01,1.072e+01,1.056e+01,1.160e+01,1.093e+01,1.020e+01,1.214e+01,1.013e+01,1.220e+01,1.366e+01,1.175e+01,1.024e+01,1.347e+01,1.330e+01,1.315e+01,1.475e+01,1.404e+01,1.583e+01,1.439e+01,1.325e+01,1.464e+01,1.515e+01,1.529e+01,1.582e+01,1.565e+01,1.708e+01,1.748e+01,1.674e+01,1.504e+01,1.620e+01,1.649e+01,1.669e+01,1.829e+01,1.773e+01,1.670e+01,1.894e+01,1.868e+01,1.858e+01,1.669e+01
7.225e-01,1.062e+00,7.319e-01,8.062e-01,1.160e+00,1.450e+00,1.523e+00,2.148e+00,3.114e+00,3.405e+00,2.798e+00,3.645e+00,2.912e+00,3.626e+00,4.172e+00,4.718e+00,5.021e+00,3.281e+00,5.260e+00,3.983e+00,5.320e+00,3.526e+00,5.844e+00,5.941e+00,5.905e+00,6.235e+00,4.952e+00,6.380e+00,5.075e+00,5.555e+00,5.501e+00,6.987e+00,6.933e+00,8.084e+00,7.603e+00,7.702e+00,8.195e+00,8.062e+00,8.562e+00,7.269e+00,1.061e+01,9.101e+00,9.369e+00,1.092e+01,1.008e+01,8.181e+00,1.164e+01,1.048e+01,1.050e+01,1.243e+01,1.248e+01,1.343e+01,1.237e+01,1.176e+01,1.246e+01,1.277e+01,1.428e+01,1.500e+01,1.369e+01,1.554e+01,1.476e+01,1.516e+01,1.360e+01,1.446e+01,1.292e+01,1.484e+01,1.767e+01,1.554e+01,1.618e+01,1.620e+01,1.683e+01,1.659e+01,1.380e+01
9.612e-02,1.734e-01,7.733e-01,3.408e-01,9.570e-01,1.273e+00,1.589e+00,1.858e+00,2.775e+00,2.933e+00,2.160e+00,2.588e+00,3.011e+00,3.802e+00,4.033e+00,4.624e+00,4.833e+00,3.629e+00,5.229e+00,4.117e+00,4.954e+00,4.994e+00,6.165e+00,6.376e+00,5.908e+00,7.059e+00,5.793e+00,7.400e+00,7.274e+00,7.045e+00,6.251e+00,7.727e+00,7.382e+00,8.677e+00,7.502e+00,8.968e+00,9.532e+00,9.505e+00,9.458e+00,8.548e+00,1.095e+01,8.077e+00,1.030e+01,1.103e+01,9.919e+00,8.610e+00,1.242e+01,1.009e+01,1.091e+01,1.311e+01,1.242e+01,1.385e+01,1.275e+01,1.135e+01,1.227e+01,1.307e+01,1.406e+01,1.335e+01,1.251e+01,1.477e+01,1.361e+01,1.446e+01,1.240e+01,1.347e+01,1.287e+01,1.375e+01,1.641e+01,1.483e+01,1.533e+01,1.518e+01,1.624e+01,1.608e+01,1.409e+01
6.153e-01,1.153e+00,1.454e+00,1.158e+00,1.402e+00,1.417e+00,1.843e+00,1.673e+00,3.206e+00,3.537e+00,3.159e+00,3.747e+00,3.457e+00,3.698e+00,3.928e+00,4.251e+00,5.492e+00,3.856e+00,5.103e+00,5.296e+00,6.490e+00,4.997e+00,6.321e+00,6.703e+00,8.287e+00,7.234e+00,7.078e+00,8.682e+00,7.354e+00,7.748e+00,7.013e+00,8.813e+00,7.867e+00,9.629e+00,1.007e+01,9.963e+00,1.032e+01,1.099e+01,1.075e+01,9.706e+00,1.311e+01,1.117e+01,1.240e+01,1.409e+01,1.217e+01,1.061e+01,1.300e+01,1.301e+01,1.372e+01,1.515e+01,1.455e+01,1.769e+01,1.431e+01,1.504e+01,1.332e+01,1.583e+01,1.610e+01,1.718e+01,1.579e+01,1.805e+01,1.788e+01,1.887e+01,1.619e+01,1.751e+01,1.671e+01,1.731e+01,1.935e+01,1.916e+01,1.733e+01,1.906e+01,2.116e+01,2.120e+01,1.665e+01
6.829e-01,7.458e-01,1.192e+00,6.466e-01,1.132e+00,1.387e+00,1.811e+00,2.567e+00,4.058e+00,3.452e+00,3.786e+00,4.422e+00,4.316e+00,4.420e+00,4.692e+00,5.431e+00,6.384e+00,4.424e+00,5.952e+00,6.264e+00,6.106e+00,6.232e+00,7.613e+00,7.144e+00,7.863e+00,7.618e+00,8.186e+00,9.336e+00,8.176e+00,8.289e+00,7.490e+00,8.934e+00,8.869e+00,1.039e+01,9.361e+00,1.175e+01,1.134e+01,1.105e+01,1.128e+01,9.848e+00,1.230e+01,1.025e+01,1.210e+01,1.295e+01,1.025e+01,1.103e+01,1.353e+01,1.255e+01,1.293e+01,1.470e+01,1.372e+01,1.517e+01,1.441e+01,1.316e+01,1.237e+01,1.365e+01,1.478e+01,1.567e+01,1.573e+01,1.660e+01,1.522e+01,1.498e+01,1.430e+01,1.452e+01,1.533e+01,1.528e+01,1.899e+01,1.843e+01,1.801e+01,1.808e+01,1.953e+01,1.876e+01,1.638e+01
6.997e-01,8.423e-01,1.175e+00,7.186e-01,5.499e-01,6.892e-01,1.098e+00,1.745e+00,2.961e+00,2.662e+00,3.259e+00,3.144e+00,3.072e+00,3.810e+00,3.670e+00,4.431e+00,5.039e+00,3.742e+00,4.830e+00,5.229e+00,5.982e+00,4.827e+00,6.530e+00,6.242e+00,6.580e+00,6.541e+00,6.726e+00,8.366e+00,7.337e+00,7.744e+00,6.528e+00,7.698e+00,7.194e+00,9.092e+00,8.002e+00,9.727e+00,8.954e+00,9.760e+00,1.044e+01,9.547e+00,1.117e+01,9.746e+00,1.136e+01,1.214e+01,1.009e+01,1.014e+01,1.162e+01,1.182e+01,1.152e+01,1.333e+01,1.274e+01,1.561e+01,1.394e+01,1.394e+01,1.313e+01,1.506e+01,1.464e+01,1.591e+01,1.473e+01,1.692e+01,1.596e+01,1.474e+01,1.407e+01,1.543e+01,1.607e+01,1.729e+01,1.889e+01,1.798e+01,1.764e+01,1.995e+01,1.974e+01,1.875e+01,1.649e+01
2.517e-02,3.883e-01,5.294e-01,6.014e-01,1.134e+00,1.224e+00,1.984e+00,1.520e+00,2.663e+00,3.622e+00,3.187e+00,3.335e+00,3.019e+00,4.064e+00,4.297e+00,4.301e+00,5.051e+00,3.577e+00,5.364e+00,5.198e+00,4.924e+00,4.795e+00,6.478e+00,6.543e+00,6.295e+00,7.334e+00,7.110e+00,8.962e+00,7.946e+00,7.991e+00,6.649e+00,8.534e+00,8.624e+00,1.049e+01,1.007e+01,1.152e+01,1.046e+01,1.023e+01,1.156e+01,9.671e+00,1.208e+01,1.170e+01,1.233e+01,1.329e+01,1.163e+01,1.034e+01,1.365e+01,1.314e+01,1.283e+01,1.462e+01,1.437e+01,1.693e+01,1.469e+01,1.394e+01,1.451e+01,1.433e+01,1.682e+01,1.619e+01,1.622e+01,1.639e+01,1.626e+01,1.655e+01,1.522e+01,1.608e+01,1.549e+01,1.600e+01,1.817e+01,1.752e+01,1.756e+01,1.863e+01,2.066e+01,1.753e+01,1.604e+01
8.894e-01,1.043e+00,8.956e-01,7.242e-01,1.133e+00,1.148e+00,1.568e+00,1.983e+00,2.961e+00,2.852e+00,3.218e+00,3.382e+00,3.347e+00,3.702e+00,3.560e+00,3.995e+00,5.881e+00,3.110e+00,4.628e+00,5.690e+00,5.073e+00,5.877e+00,6.685e+00,6.734e+00,6.759e+00,6.484e+00,6.704e+00,7.743e+00,6.841e+00,6.842e+00,5.971e+00,7.365e+00,8.191e+00,8.664e+00,8.168e+00,1.119e+01,1.024e+01,9.438e+00,1.067e+01,9.455e+00,9.585e+00,9.129e+00,1.109e+01,1.324e+01,1.124e+01,1.043e+01,1.190e+01,1.341e+01,1.282e+01,1.348e+01,1.453e+01,1.583e+01,1.403e+01,1.448e+01,1.448e+01,1.507e+01,1.660e+01,1.413e+01,1.584e+01,1.613e+01,1.533e+01,1.594e+01,1.456e+01,1.509e+01,1.703e+01,1.570e+01,1.750e+01,1.829e+01,1.669e+01,1.947e+01,1.795e+01,1.916e+01,1.705e+01
8.460e-01,1.386e+00,1.047e+00,1.130e+00,1.482e+00,1.729e+00,1.655e+00,2.244e+00,3.190e+00,3.367e+00,3.236e+00,4.472e+00,4.421e+00,4.548e+00,4.887e+00,5.308e+00,6.828e+00,4.060e+00,6.548e+00,5.205e+00,6.794e+00,5.542e+00,7.119e+00,7.411e+00,7.946e+00,7.380e+00,7.229e+00,8.466e+00,7.165e+00,7.612e+00,7.065e+00,8.025e+00,8.613e+00,9.751e+00,9.866e+00,1.125e+01,1.006e+01,1.031e+01,1.030e+01,9.276e+00,1.155e+01,1.029e+01,1.076e+01,1.189e+01,1.105e+01,9.246e+00,1.163e+01,1.099e+01,1.244e+01,1.357e+01,1.236e+01,1.532e+01,1.337e+01,1.185e+01,1.382e+01,1.291e+01,1.510e+01,1.508e+01,1.488e+01,1.468e+01,1.496e+01,1.485e+01,1.491e+01,1.412e+01,1.570e+01,1.526e+01,1.918e+01,1.673e+01,1.519e+01,1.922e+01,1.976e+01,1.850e+01,1.595e+01
