8.168e-01,4.004e-01,8.520e-01,9.138e-01,8.159e-01,4.560e-01,6.601e-01,5.243e-01,4.195e-01,8.070e-01,8.240e-01,7.134e-01,8.564e-01,9.039e-01,8.078e-01,2.105e-01,5.747e-02,8.184e-01,5.257e-01,4.528e-01,5.341e-01,7.255e-01,6.974e-01,3.924e-02,2.245e-01,7.712e-01,1.265e-01,4.299e-01,9.688e-01,1.743e-01,3.643e-02,1.960e-01,9.435e-01,4.875e-02,7.914e-01,2.871e-01,8.320e-01,4.720e-01,9.117e-01,2.189e-01,2.652e-01,5.497e-01,5.274e-01,8.768e-01,9.360e-01,6.564e-01,1.640e-03,8.718e-01,7.085e-01,2.033e-01,1.054e-01,6.088e-02,5.242e-01,3.388e-01,3.217e-01,4.055e-01,9.625e-01,8.608e-01,5.324e-01,8.629e-01,6.960e-03,6.402e-01,2.092e-01,8.952e-01,2.324e-02,4.747e-01,9.962e-01,4.528e-01,7.449e-01,7.979e-01,4.391e-01,3.026e-01,3.346e-01,3.824e-01,1.275e-01,6.892e-02,7.569e-02,5.645e-01,8.709e-01,5.372e-01,8.982e-01,3.598e-01,1.535e-01,6.101e-01,3.972e-01,4.923e-01,5.227e-01,5.009e-01,4.843e-01,9.383e-02,7.498e-01,1.409e-01,1.635e-01,6.176e-01,7.247e-01,6.119e-01,1.938e-01
1.824e-01,3.813e-01,3.967e-01,2.744e-01,2.577e-01,5.679e-01,9.376e-01,2.267e-01,4.737e-01,5.167e-01,4.515e-01,7.831e-01,8.012e-01,4.498e-01,6.547e-01,7.046e-01,9.948e-01,2.142e-01,5.030e-01,1.828e-01,1.995e-01,7.415e-01,7.734e-01,5.419e-01,7.668e-01,2.481e-01,2.360e-01,5.575e-01,8.281e-01,1.564e-01,9.060e-02,5.191e-02,1.195e+00,2.028e-01,1.127e+00,2.776e-01,1.015e+00,7.850e-01,9.309e-01,8.284e-01,2.936e-01,5.124e-01,1.043e+00,5.098e-01,1.136e+00,4.943e-01,5.497e-01,6.428e-01,8.707e-01,1.546e-01,2.566e-01,3.603e-01,5.102e-01,1.659e-01,1.006e+00,5.468e-01,9.613e-01,6.713e-01,6.316e-01,1.158e+00,3.098e-01,2.845e-01,8.850e-01,4.866e-01,9.748e-02,1.015e+00,8.692e-01,1.046e+00,2.873e-01,6.309e-01,4.245e-01,3.532e-01,8.191e-01,2.117e-01,1.027e+00,7.177e-01,6.000e-01,6.750e-01,6.941e-01,5.667e-01,2.960e-01,1.813e-01,7.578e-01,4.362e-01,5.979e-01,4.533e-01,9.970e-01,9.442e-01,5.054e-01,5.808e-01,7.002e-01,4.282e-01,1.033e+00,7.890e-01,5.612e-01,7.710e-01,2.206e-01
5.026e-01,3.963e-01,1.482e+00,9.875e-01,1.524e+00,1.057e+00,9.887e-01,5.968e-01,1.112e+00,9.383e-01,1.204e+00,1.017e+00,1.007e+00,8.258e-01,1.306e+00,6.811e-01,1.310e+00,6.358e-01,1.341e+00,7.024e-01,1.301e+00,9.427e-01,8.116e-01,1.240e+00,1.262e+00,1.505e+00,1.033e+00,1.203e+00,1.441e+00,5.384e-01,8.382e-01,9.274e-01,1.497e+00,1.795e-01,1.347e+00,6.454e-01,9.771e-01,1.274e+00,1.692e+00,8.181e-01,5.455e-01,1.041e+00,1.225e+00,1.690e+00,1.644e+00,8.816e-01,1.251e+00,7.852e-01,9.701e-01,2.295e-01,7.985e-01,6.108e-01,1.329e+00,1.036e+00,9.472e-01,9.271e-01,1.425e+00,1.192e+00,1.357e+00,1.520e+00,3.129e-01,5.085e-01,1.069e+00,9.276e-01,1.959e-01,9.522e-01,1.661e+00,1.597e+00,1.472e+00,1.215e+00,1.098e+00,5.350e-01,8.911e-01,1.245e+00,6.925e-01,4.321e-01,9.630e-01,1.049e+00,1.103e+00,1.294e+00,6.276e-01,8.858e-01,8.655e-01,1.450e+00,1.047e+00,7.970e-01,1.764e+00,1.664e+00,1.256e+00,6.280e-01,1.486e+00,7.405e-01,9.498e-01,8.827e-01,9.808e-01,1.339e+00,8.569e-01
2.283e-01,3.296e-01,7.834e-01,8.928e-01,1.320e+00,1.045e+00,1.177e+00,7.605e-01,1.581e+00,1.543e+00,1.046e+00,1.485e+00,1.339e+00,6.130e-01,1.322e+00,8.044e-01,1.371e+00,7.668e-01,1.641e+00,9.974e-01,1.584e+00,1.165e+00,1.352e+00,1.166e+00,1.226e+00,7.394e-01,1.478e+00,1.346e+00,1.643e+00,1.261e+00,1.123e+00,6.264e-01,1.482e+00,2.678e-01,1.827e+00,6.959e-01,1.727e+00,1.126e+00,1.926e+00,1.334e+00,9.711e-01,8.681e-01,1.677e+00,1.022e+00,2.043e+00,9.147e-01,1.725e+00,7.836e-01,9.906e-01,2.930e-01,1.185e+00,5.061e-01,8.104e-01,1.069e+00,1.196e+00,6.623e-01,2.016e+00,1.481e+00,1.120e+00,1.583e+00,3.028e-01,1.274e+00,1.552e+00,1.412e+00,7.622e-01,1.214e+00,1.623e+00,2.193e+00,8.499e-01,1.654e+00,1.220e+00,8.050e-01,1.343e+00,8.649e-01,1.120e+00,1.506e+00,1.165e+00,8.766e-01,8.157e-01,1.810e+00,8.039e-01,6.017e-01,1.258e+00,1.363e+00,7.785e-01,9.748e-01,2.014e+00,1.457e+00,1.094e+00,1.304e+00,1.312e+00,9.462e-01,1.364e+00,1.222e+00,1.068e+00,1.449e+00,8.379e-01
2.528e-01,3.878e-01,1.273e+00,7.523e-01,1.476e+00,1.226e+00,1.510e+00,1.244e+00,1.480e+00,8.908e-01,1.448e+00,1.966e+00,2.003e+00,1.327e+00,1.799e+00,1.450e+00,1.835e+00,9.290e-01,1.412e+00,1.042e+00,2.040e+00,1.120e+00,1.526e+00,1.915e+00,2.194e+00,1.870e+00,1.823e+00,1.417e+00,2.216e+00,8.673e-01,1.023e+00,8.785e-01,1.936e+00,9.208e-01,1.794e+00,1.479e+00,1.442e+00,1.968e+00,2.723e+00,1.098e+00,6.397e-01,1.060e+00,1.749e+00,1.984e+00,1.805e+00,1.386e+00,1.647e+00,1.559e+00,1.862e+00,6.774e-01,1.576e+00,9.090e-01,1.565e+00,1.706e+00,1.531e+00,1.013e+00,1.884e+00,1.311e+00,2.311e+00,1.750e+00,1.065e+00,7.506e-01,1.967e+00,1.759e+00,3.312e-01,2.134e+00,2.411e+00,1.911e+00,1.948e+00,1.755e+00,1.181e+00,1.300e+00,1.233e+00,2.009e+00,2.025e+00,1.014e+00,1.470e+00,1.846e+00,1.478e+00,2.302e+00,4.509e-01,9.294e-01,2.015e+00,2.231e+00,1.787e+00,1.450e+00,2.199e+00,2.422e+00,1.899e+00,1.097e+00,2.034e+00,1.548e+00,1.975e+00,1.188e+00,1.116e+00,1.794e+00,1.693e+00
3.013e-01,2.604e-01,1.199e+00,1.105e+00,1.855e+00,2.024e+00,1.501e+00,1.294e+00,2.644e+00,2.349e+00,1.606e+00,2.319e+00,2.001e+00,9.350e-01,1.757e+00,1.207e+00,1.551e+00,1.978e+00,2.148e+00,2.214e+00,2.295e+00,1.477e+00,1.750e+00,2.430e+00,2.560e+00,1.672e+00,2.785e+00,2.436e+00,2.117e+00,1.613e+00,1.471e+00,1.274e+00,2.374e+00,1.063e+00,2.328e+00,1.253e+00,1.920e+00,2.389e+00,2.911e+00,1.351e+00,1.073e+00,1.414e+00,2.070e+00,1.694e+00,2.280e+00,1.702e+00,2.664e+00,1.150e+00,1.506e+00,1.096e+00,2.248e+00,1.090e+00,1.836e+00,2.298e+00,1.579e+00,1.574e+00,2.872e+00,2.119e+00,2.303e+00,1.945e+00,1.283e+00,2.203e+00,1.842e+00,2.457e+00,1.357e+00,1.718e+00,2.667e+00,3.229e+00,2.491e+00,2.792e+00,2.424e+00,1.741e+00,1.634e+00,2.430e+00,1.543e+00,1.517e+00,1.942e+00,1.542e+00,1.980e+00,2.736e+00,1.599e+00,1.203e+00,2.477e+00,2.471e+00,1.462e+00,2.099e+00,2.766e+00,2.472e+00,2.460e+00,2.186e+00,2.410e+00,1.277e+00,1.961e+00,1.610e+00,2.127e+00,1.739e+00,1.705e+00
3.036e-01,3.880e-01,7.678e-01,7.942e-01,1.124e+00,1.273e+00,1.527e+00,1.530e+00,1.924e+00,2.137e+00,2.046e+00,2.596e+00,2.549e+00,8.945e-01,1.433e+00,1.642e+00,1.391e+00,1.808e+00,2.000e+00,1.750e+00,1.968e+00,1.577e+00,1.544e+00,2.129e+00,1.767e+00,1.662e+00,1.625e+00,2.051e+00,2.653e+00,1.696e+00,1.473e+00,1.454e+00,2.113e+00,1.534e+00,2.196e+00,1.395e+00,2.680e+00,1.726e+00,2.321e+00,1.917e+00,1.681e+00,1.581e+00,1.804e+00,1.284e+00,2.837e+00,2.151e+00,2.218e+00,1.656e+00,2.163e+00,1.010e+00,2.126e+00,9.702e-01,1.465e+00,1.728e+00,2.165e+00,1.369e+00,3.001e+00,2.138e+00,2.370e+00,1.908e+00,8.730e-01,1.626e+00,1.778e+00,2.677e+00,1.403e+00,2.198e+00,2.739e+00,2.587e+00,1.600e+00,2.570e+00,2.072e+00,1.895e+00,1.696e+00,2.184e+00,2.077e+00,1.781e+00,2.180e+00,1.475e+00,2.251e+00,2.590e+00,1.709e+00,8.951e-01,2.222e+00,2.255e+00,1.485e+00,1.661e+00,2.278e+00,1.844e+00,1.623e+00,2.293e+00,2.544e+00,1.820e+00,2.339e+00,1.784e+00,2.200e+00,1.670e+00,1.689e+00
1.180e-01,1.636e-01,5.266e-01,6.349e-01,1.109e+00,1.010e+00,1.179e+00,2.251e+00,2.709e+00,2.327e+00,2.606e+00,2.944e+00,2.671e+00,1.344e+00,1.456e+00,2.395e+00,1.835e+00,2.167e+00,2.627e+00,2.646e+00,2.250e+00,2.081e+00,1.761e+00,2.737e+00,1.827e+00,1.808e+00,2.592e+00,1.984e+00,2.481e+00,2.694e+00,1.528e+00,2.091e+00,2.310e+00,1.581e+00,2.301e+00,2.062e+00,2.932e+00,2.430e+00,2.269e+00,1.985e+00,2.094e+00,1.549e+00,2.206e+00,2.142e+00,2.691e+00,1.978e+00,2.537e+00,2.358e+00,2.571e+00,1.452e+00,3.162e+00,1.474e+00,1.931e+00,2.452e+00,2.452e+00,1.321e+00,3.123e+00,2.155e+00,2.588e+00,2.067e+00,1.251e+00,2.554e+00,1.691e+00,3.015e+00,1.642e+00,2.193e+00,3.116e+00,2.751e+00,2.110e+00,2.763e+00,2.010e+00,2.115e+00,2.042e+00,2.972e+00,2.063e+00,1.983e+00,2.116e+00,1.724e+00,2.352e+00,3.216e+00,1.624e+00,9.273e-01,2.704e+00,2.481e+00,1.373e+00,2.527e+00,2.026e+00,2.464e+00,1.735e+00,2.106e+00,3.058e+00,2.013e+00,2.311e+00,1.468e+00,2.033e+00,1.538e+00,2.463e+00
5.928e-02,1.096e-01,4.970e-01,4.119e-01,7.913e-01,8.959e-01,7.809e-01,1.318e+00,2.102e+00,1.750e+00,2.293e+00,2.519e+00,2.301e+00,1.201e+00,1.918e+00,2.118e+00,2.205e+00,1.764e+00,1.798e+00,2.072e+00,1.540e+00,2.036e+00,1.195e+00,2.851e+00,2.248e+00,2.103e+00,2.023e+00,2.137e+00,1.989e+00,1.881e+00,1.744e+00,2.394e+00,1.854e+00,1.246e+00,2.253e+00,1.409e+00,2.185e+00,2.792e+00,2.258e+00,1.858e+00,1.459e+00,1.234e+00,2.025e+00,2.507e+00,2.071e+00,1.946e+00,2.758e+00,2.073e+00,1.982e+00,1.627e+00,3.011e+00,1.212e+00,2.457e+00,2.075e+00,2.617e+00,1.126e+00,2.201e+00,1.894e+00,2.511e+00,2.303e+00,1.735e+00,1.938e+00,1.313e+00,2.008e+00,1.086e+00,1.595e+00,2.033e+00,2.053e+00,2.081e+00,2.033e+00,1.831e+00,2.303e+00,2.223e+00,3.013e+00,2.138e+00,1.558e+00,1.773e+00,1.206e+00,2.531e+00,2.770e+00,1.603e+00,1.169e+00,2.610e+00,1.942e+00,1.859e+00,2.439e+00,1.576e+00,2.824e+00,1.686e+00,2.119e+00,2.626e+00,1.375e+00,1.514e+00,1.165e+00,2.142e+00,9.983e-01,2.441e+00
3.845e-01,3.688e-01,1.262e+00,1.195e+00,1.887e+00,1.460e+00,1.564e+00,2.229e+00,3.148e+00,3.313e+00,4.220e+00,4.290e+00,4.034e+00,1.910e+00,3.443e+00,3.082e+00,3.039e+00,2.838e+00,3.422e+00,3.067e+00,3.189e+00,3.183e+00,2.157e+00,3.763e+00,2.830e+00,3.165e+00,3.237e+00,3.401e+00,4.141e+00,3.425e+00,3.028e+00,3.366e+00,3.746e+00,2.082e+00,4.023e+00,2.739e+00,4.441e+00,3.778e+00,3.936e+00,3.383e+00,2.946e+00,3.045e+00,3.371e+00,3.847e+00,4.487e+00,3.534e+00,4.638e+00,3.266e+00,3.355e+00,2.381e+00,4.870e+00,2.025e+00,3.300e+00,3.849e+00,4.337e+00,2.369e+00,4.005e+00,3.877e+00,4.232e+00,4.093e+00,1.788e+00,3.258e+00,2.373e+00,4.061e+00,2.047e+00,2.915e+00,3.981e+00,3.967e+00,3.448e+00,4.143e+00,2.902e+00,3.206e+00,3.513e+00,3.999e+00,3.205e+00,2.865e+00,3.168e+00,2.635e+00,3.492e+00,4.471e+00,2.521e+00,1.919e+00,4.178e+00,3.890e+00,2.659e+00,3.581e+00,3.569e+00,3.877e+00,3.232e+00,3.240e+00,4.836e+00,2.793e+00,2.667e+00,2.616e+00,3.351e+00,2.964e+00,3.323e+00
2.484e-01,2.712e-01,8.143e-01,8.393e-01,1.273e+00,1.053e+00,1.048e+00,1.292e+00,2.171e+00,2.226e+00,3.019e+00,2.483e+00,2.772e+00,1.985e+00,2.531e+00,1.901e+00,2.095e+00,2.030e+00,2.916e+00,2.236e+00,2.730e+00,2.784e+00,2.402e+00,2.091e+00,1.568e+00,2.091e+00,3.218e+00,2.639e+00,2.968e+00,2.766e+00,2.349e+00,2.533e+00,3.209e+00,9.210e-01,3.097e+00,1.882e+00,2.863e+00,2.894e+00,3.072e+00,2.402e+00,2.318e+00,2.802e+00,3.070e+00,2.627e+00,2.869e+00,2.461e+00,3.131e+00,2.338e+00,1.936e+00,1.517e+00,3.086e+00,2.109e+00,1.827e+00,2.652e+00,3.394e+00,2.297e+00,3.487e+00,3.142e+00,2.779e+00,3.224e+00,9.731e-01,2.657e+00,1.517e+00,3.094e+00,2.072e+00,2.040e+00,3.338e+00,3.339e+00,2.173e+00,3.557e+00,2.615e+00,1.872e+00,2.841e+00,2.480e+00,2.133e+00,2.697e+00,2.605e+00,2.562e+00,2.277e+00,2.893e+00,1.675e+00,1.888e+00,3.424e+00,3.114e+00,1.212e+00,3.095e+00,2.755e+00,2.466e+00,2.801e+00,2.210e+00,3.385e+00,2.280e+00,1.833e+00,2.427e+00,2.266e+00,2.761e+00,2.056e+00
2.115e-01,2.896e-01,7.923e-01,8.666e-01,1.449e+00,1.449e+00,1.563e+00,1.974e+00,2.933e+00,2.599e+00,3.104e+00,4.506e+00,3.654e+00,2.195e+00,3.480e+00,2.919e+00,3.260e+00,2.571e+00,2.892e+00,3.331e+00,3.708e+00,3.742e+00,2.996e+00,3.604e+00,3.400e+00,3.387e+00,4.088e+00,3.222e+00,4.075e+00,3.354e+00,3.078e+00,2.803e+00,3.329e+00,1.682e+00,4.247e+00,2.656e+00,4.249e+00,4.502e+00,4.327e+00,3.558e+00,2.250e+00,2.320e+00,3.447e+00,4.076e+00,3.963e+00,3.529e+00,4.489e+00,3.556e+00,3.234e+00,2.792e+00,4.272e+00,2.714e+00,2.968e+00,3.913e+00,4.157e+00,2.654e+00,4.366e+00,3.486e+00,4.532e+00,4.237e+00,2.628e+00,3.475e+00,2.765e+00,3.633e+00,2.210e+00,3.467e+00,3.612e+00,4.296e+00,3.369e+00,3.671e+00,2.591e+00,3.787e+00,3.350e+00,4.555e+00,4.119e+00,2.990e+00,3.282e+00,3.101e+00,3.206e+00,4.911e+00,2.529e+00,1.981e+00,4.036e+00,3.252e+00,2.774e+00,4.346e+00,3.284e+00,4.550e+00,3.240e+00,2.963e+00,4.337e+00,2.956e+00,3.100e+00,2.405e+00,2.969e+00,2.794e+00,3.488e+00
1.524e-01,1.247e-01,8.811e-01,6.474e-01,1.204e+00,1.208e+00,7.929e-01,1.230e+00,2.355e+00,2.023e+00,2.723e+00,2.948e+00,3.313e+00,2.448e+00,2.686e+00,3.109e+00,2.976e+00,3.039e+00,2.526e+00,3.065e+00,3.025e+00,3.659e+00,1.986e+00,3.595e+00,2.951e+00,2.964e+00,4.041e+00,3.248e+00,3.055e+00,2.545e+00,2.853e+00,3.607e+00,3.402e+00,1.154e+00,3.185e+00,2.549e+00,3.689e+00,4.100e+00,3.411e+00,2.659e+00,2.485e+00,2.606e+00,3.669e+00,4.045e+00,3.094e+00,3.461e+00,4.415e+00,2.607e+00,2.952e+00,2.324e+00,3.766e+00,2.359e+00,3.395e+00,3.472e+00,4.295e+00,3.339e+00,3.606e+00,3.056e+00,4.017e+00,3.537e+00,2.759e+00,3.278e+00,1.832e+00,3.168e+00,1.803e+00,2.489e+00,3.037e+00,4.212e+00,3.458e+00,3.095e+00,2.692e+00,2.984e+00,3.242e+00,3.952e+00,2.517e+00,2.210e+00,2.639e+00,2.953e+00,3.308e+00,4.194e+00,2.199e+00,2.738e+00,3.853e+00,2.781e+00,2.124e+00,4.358e+00,2.582e+00,4.046e+00,3.517e+00,2.407e+00,3.768e+00,2.745e+00,2.767e+00,2.022e+00,2.569e+00,2.806e+00,2.960e+00
1.642e-01,1.613e-01,6.263e-01,6.095e-01,1.051e+00,1.499e+00,1.264e+00,1.940e+00,2.778e+00,2.740e+00,3.268e+00,4.015e+00,3.867e+00,2.742e+00,2.858e+00,3.828e+00,3.397e+00,4.177e+00,2.863e+00,3.480e+00,3.676e+00,4.235e+00,2.591e+00,4.196e+00,3.755e+00,3.864e+00,4.251e+00,4.341e+00,3.925e+00,3.551e+00,3.559e+00,3.636e+00,3.926e+00,2.801e+00,4.342e+00,2.641e+00,4.106e+00,4.236e+00,4.570e+00,3.763e+00,3.428e+00,3.352e+00,3.616e+00,3.740e+00,3.556e+00,3.900e+00,5.257e+00,3.695e+00,3.918e+00,3.488e+00,4.953e+00,3.036e+00,3.298e+00,3.682e+00,4.735e+00,3.647e+00,4.513e+00,3.749e+00,5.366e+00,4.336e+00,2.800e+00,3.879e+00,2.913e+00,4.359e+00,3.070e+00,3.412e+00,4.226e+00,4.081e+00,4.221e+00,4.383e+00,4.178e+00,4.625e+00,3.102e+00,5.162e+00,4.418e+00,2.989e+00,4.089e+00,3.119e+00,4.266e+00,4.891e+00,3.150e+00,2.769e+00,5.122e+00,4.064e+00,3.324e+00,4.349e+00,3.709e+00,4.434e+00,4.206e+00,4.248e+00,4.847e+00,3.030e+00,3.350e+00,3.207e+00,4.351e+00,2.949e+00,4.123e+00
6.949e-01,4.671e-01,9.241e-01,1.171e+00,1.331e+00,1.445e+00,1.546e+00,1.664e+00,2.240e+00,2.821e+00,3.104e+00,3.288e+00,3.701e+00,2.757e+00,3.357e+00,2.759e+00,2.824e+00,4.097e+00,3.207e+00,3.671e+00,3.462e+00,4.532e+00,3.499e+00,3.385e+00,2.857e+00,3.891e+00,4.224e+00,4.431e+00,3.905e+00,3.187e+00,3.539e+00,2.940e+00,4.213e+00,2.569e+00,4.685e+00,2.982e+00,4.554e+00,3.273e+00,4.840e+00,3.126e+00,3.480e+00,3.521e+00,3.609e+00,3.613e+00,3.832e+00,4.006e+00,3.825e+00,3.778e+00,4.073e+00,3.152e+00,3.443e+00,3.003e+00,2.366e+00,3.554e+00,4.876e+00,3.796e+00,4.922e+00,4.658e+00,4.990e+00,4.092e+00,2.068e+00,3.942e+00,2.644e+00,4.878e+00,2.816e+00,3.406e+00,4.891e+00,4.772e+00,3.764e+00,4.583e+00,3.861e+00,4.181e+00,3.497e+00,3.530e+00,3.477e+00,3.882e+00,3.839e+00,3.578e+00,3.940e+00,4.540e+00,3.316e+00,3.397e+00,4.995e+00,4.433e+00,2.403e+00,4.357e+00,4.274e+00,3.136e+00,4.092e+00,4.137e+00,4.599e+00,3.580e+00,3.615e+00,3.900e+00,4.573e+00,4.106e+00,2.832e+00
7.624e-01,5.609e-01,1.674e+00,1.353e+00,1.934e+00,1.390e+00,1.664e+00,1.793e+00,2.220e+00,2.115e+00,3.359e+00,3.330e+00,3.588e+00,2.766e+00,3.772e+00,2.919e+00,3.577e+00,2.923e+00,3.746e+00,3.961e+00,3.513e+00,4.282e+00,3.228e+00,3.796e+00,3.186e+00,4.411e+00,3.902e+00,3.660e+00,4.302e+00,3.386e+00,3.700e+00,3.937e+00,4.054e+00,2.257e+00,4.584e+00,3.607e+00,3.708e+00,4.278e+00,4.823e+00,3.260e+00,3.117e+00,3.168e+00,4.151e+00,5.355e+00,4.601e+00,4.310e+00,3.385e+00,4.567e+00,4.421e+00,2.499e+00,3.194e+00,3.067e+00,3.279e+00,4.015e+00,5.067e+00,3.596e+00,4.473e+00,4.423e+00,5.083e+00,4.472e+00,2.232e+00,3.589e+00,3.076e+00,4.667e+00,1.802e+00,3.432e+00,5.131e+00,3.995e+00,3.790e+00,3.986e+00,3.838e+00,3.434e+00,3.927e+00,4.802e+00,3.612e+00,3.559e+00,3.788e+00,4.152e+00,3.870e+00,5.196e+00,2.532e+00,3.718e+00,4.541e+00,4.848e+00,3.099e+00,4.472e+00,4.354e+00,4.536e+00,3.972e+00,3.483e+00,4.393e+00,3.299e+00,3.521e+00,3.222e+00,4.089e+00,3.729e+00,3.587e+00
7.730e-01,5.557e-01,1.367e+00,1.460e+00,1.855e+00,1.954e+00,1.923e+00,2.364e+00,3.382e+00,3.843e+00,4.336e+00,4.881e+00,4.780e+00,3.747e+00,4.046e+00,4.536e+00,4.281e+00,6.209e+00,5.545e+00,5.432e+00,5.197e+00,6.683e+00,4.222e+00,5.383e+00,4.749e+00,5.070e+00,6.510e+00,5.729e+00,6.052e+00,5.345e+00,5.420e+00,5.564e+00,6.600e+00,3.333e+00,6.980e+00,5.226e+00,6.542e+00,6.362e+00,6.147e+00,5.198e+00,5.720e+00,5.633e+00,5.995e+00,6.270e+00,6.998e+00,6.321e+00,6.299e+00,6.307e+00,6.387e+00,4.154e+00,5.850e+00,5.459e+00,4.698e+00,5.522e+00,7.674e+00,6.770e+00,7.295e+00,6.113e+00,6.882e+00,6.683e+00,3.247e+00,6.146e+00,3.874e+00,6.970e+00,4.300e+00,5.341e+00,7.018e+00,6.783e+00,6.127e+00,6.393e+00,5.772e+00,5.934e+00,5.637e+00,6.258e+00,5.052e+00,5.215e+00,5.420e+00,6.050e+00,5.668e+00,6.979e+00,4.665e+00,4.487e+00,7.317e+00,6.368e+00,3.926e+00,7.132e+00,6.083e+00,6.059e+00,5.960e+00,5.081e+00,7.341e+00,5.054e+00,4.945e+00,5.289e+00,6.288e+00,5.489e+00,4.555e+00
8.864e-02,1.953e-01,9.817e-01,8.655e-01,1.569e+00,1.446e+00,1.171e+00,1.809e+00,3.132e+00,2.916e+00,3.833e+00,3.984e+00,4.199e+00,3.054e+00,3.827e+00,4.104e+00,4.524e+00,4.896e+00,5.484e+00,6.091e+00,4.960e+00,6.670e+00,4.268e+00,6.489e+00,4.444e+00,4.837e+00,6.748e+00,5.561e+00,5.728e+00,5.365e+00,5.864e+00,6.600e+00,5.729e+00,3.274e+00,6.170e+00,5.531e+00,6.125e+00,6.720e+00,6.182e+00,5.134e+00,5.183e+00,4.894e+00,5.907e+00,6.965e+00,6.401e+00,5.924e+00,6.979e+00,5.254e+00,5.402e+00,3.817e+00,5.378e+00,5.152e+00,4.692e+00,5.826e+00,7.469e+00,6.185e+00,6.627e+00,5.638e+00,6.627e+00,6.101e+00,4.072e+00,5.585e+00,3.905e+00,5.934e+00,4.055e+00,5.088e+00,6.625e+00,7.002e+00,5.869e+00,5.286e+00,4.862e+00,5.627e+00,5.814e+00,6.766e+00,4.568e+00,5.355e+00,5.520e+00,5.919e+00,5.057e+00,7.053e+00,4.097e+00,4.880e+00,6.615e+00,6.346e+00,3.565e+00,6.858e+00,5.623e+00,6.509e+00,6.034e+00,5.262e+00,6.832e+00,5.419e+00,5.315e+00,4.768e+00,5.964e+00,5.599e+00,4.964e+00
6.913e-01,3.618e-01,1.325e+00,1.087e+00,1.483e+00,1.456e+00,1.165e+00,1.540e+00,2.365e+00,2.237e+00,2.973e+00,3.039e+00,3.400e+00,3.109e+00,3.349e+00,3.357e+00,3.534e+00,4.480e+00,3.544e+00,4.576e+00,3.333e+00,5.043e+00,3.460e+00,5.399e+00,4.271e+00,5.266e+00,4.948e+00,4.871e+00,3.804e+00,3.630e+00,3.946e+00,4.754e+00,4.723e+00,2.791e+00,5.642e+00,4.508e+00,4.412e+00,5.607e+00,5.737e+00,3.114e+00,3.623e+00,4.177e+00,4.331e+00,5.567e+00,4.187e+00,5.211e+00,4.565e+00,4.833e+00,4.888e+00,3.681e+00,4.051e+00,4.006e+00,4.810e+00,4.383e+00,5.467e+00,5.012e+00,4.763e+00,4.776e+00,5.465e+00,4.525e+00,4.038e+00,4.719e+00,2.956e+00,5.491e+00,2.717e+00,4.157e+00,5.357e+00,5.220e+00,5.139e+00,4.578e+00,4.024e+00,4.650e+00,4.286e+00,5.424e+00,3.907e+00,3.559e+00,3.723e+00,4.970e+00,5.547e+00,5.903e+00,4.281e+00,4.500e+00,5.786e+00,4.858e+00,3.749e+00,5.502e+00,4.657e+00,5.588e+00,4.552e+00,3.854e+00,5.316e+00,4.068e+00,3.881e+00,3.691e+00,5.223e+00,3.800e+00,4.204e+00
7.600e-01,4.625e-01,9.164e-01,9.290e-01,1.020e+00,1.102e+00,1.413e+00,1.637e+00,1.631e+00,1.957e+00,3.081e+00,3.527e+00,3.983e+00,3.324e+00,3.811e+00,3.008e+00,3.012e+00,4.939e+00,3.705e+00,5.353e+00,4.551e+00,5.784e+00,5.188e+00,5.870e+00,4.468e+00,5.693e+00,5.862e+00,5.089e+00,6.046e+00,4.281e+00,5.186e+00,5.091e+00,6.003e+00,3.902e+00,6.784e+00,6.345e+00,5.894e+00,6.601e+00,6.829e+00,3.768e+00,4.086e+00,5.457e+00,5.082e+00,6.596e+00,5.892e+00,7.062e+00,4.640e+00,6.942e+00,6.444e+00,4.377e+00,4.567e+00,5.311e+00,5.402e+00,5.282e+00,7.094e+00,6.395e+00,5.937e+00,5.529e+00,6.529e+00,5.400e+00,4.375e+00,5.135e+00,3.716e+00,6.663e+00,3.481e+00,5.694e+00,7.229e+00,6.078e+00,5.918e+00,5.762e+00,4.615e+00,5.967e+00,4.893e+00,6.427e+00,5.698e+00,5.509e+00,5.089e+00,6.279e+00,6.036e+00,7.128e+00,5.246e+00,4.677e+00,7.231e+00,6.389e+00,4.714e+00,6.281e+00,5.076e+00,5.658e+00,5.217e+00,4.968e+00,6.824e+00,6.051e+00,5.065e+00,4.980e+00,6.308e+00,4.986e+00,4.572e+00
7.686e-01,6.148e-01,1.018e+00,1.252e+00,1.381e+00,1.691e+00,1.876e+00,1.284e+00,2.095e+00,2.630e+00,2.616e+00,3.385e+00,4.025e+00,3.527e+00,3.405e+00,3.372e+00,3.203e+00,4.939e+00,3.604e+00,3.921e+00,4.953e+00,5.569e+00,5.280e+00,5.219e+00,4.344e+00,4.993e+00,6.032e+00,5.506e+00,5.337e+00,3.933e+00,4.939e+00,4.332e+00,6.101e+00,3.417e+00,6.595e+00,5.366e+00,6.072e+00,6.322e+00,6.912e+00,4.644e+00,5.077e+00,5.845e+00,6.125e+00,5.352e+00,5.755e+00,6.103e+00,5.206e+00,6.126e+00,5.740e+00,4.183e+00,4.297e+00,4.574e+00,4.260e+00,4.580e+00,6.216e+00,6.544e+00,6.153e+00,5.313e+00,5.431e+00,6.165e+00,3.813e+00,5.541e+00,4.276e+00,6.591e+00,3.948e+00,5.909e+00,5.798e+00,6.239e+00,4.794e+00,6.054e+00,4.671e+00,5.523e+00,5.270e+00,5.517e+00,4.814e+00,5.278e+00,4.874e+00,6.325e+00,5.584e+00,6.463e+00,4.750e+00,4.906e+00,7.395e+00,5.608e+00,4.097e+00,6.032e+00,6.254e+00,5.360e+00,6.038e+00,4.298e+00,5.623e+00,5.045e+00,5.022e+00,5.693e+00,5.677e+00,4.924e+00,4.186e+00
1.582e-01,2.043e-01,8.928e-01,8.145e-01,1.441e+00,1.231e+00,1.178e+00,1.845e+00,2.766e+00,2.678e+00,3.809e+00,4.208e+00,4.487e+00,2.896e+00,3.943e+00,4.075e+00,4.192e+00,4.306e+00,4.652e+00,5.993e+00,4.859e+00,6.554e+00,5.009e+00,7.010e+00,4.822e+00,5.687e+00,7.183e+00,6.134e+00,6.550e+00,5.729e+00,5.952e+00,6.630e+00,6.105e+00,3.770e+00,7.157e+00,6.839e+00,7.164e+00,7.581e+00,6.529e+00,5.720e+00,5.751e+00,5.320e+00,6.711e+00,7.350e+00,7.397e+00,7.597e+00,7.225e+00,6.079e+00,6.664e+00,5.065e+00,6.484e+00,4.959e+00,5.678e+00,6.422e+00,8.352e+00,6.909e+00,6.176e+00,5.855e+00,7.228e+00,6.271e+00,5.394e+00,5.764e+00,4.577e+00,6.663e+00,4.257e+00,5.636e+00,7.152e+00,7.568e+00,5.923e+00,6.311e+00,5.044e+00,5.835e+00,5.838e+00,7.957e+00,5.407e+00,6.395e+00,5.613e+00,6.300e+00,6.398e+00,8.458e+00,4.835e+00,5.733e+00,7.722e+00,6.169e+00,4.777e+00,7.454e+00,6.231e+00,7.095e+00,6.142e+00,5.870e+00,6.827e+00,6.363e+00,5.562e+00,5.135e+00,6.292e+00,5.005e+00,5.961e+00
6.011e-01,5.327e-01,8.721e-01,9.281e-01,9.929e-01,1.160e+00,1.405e+00,8.336e-01,1.525e+00,1.746e+00,1.832e+00,2.521e+00,2.975e+00,2.435e+00,2.725e+00,2.743e+00,3.046e+00,3.101e+00,2.446e+00,3.431e+00,3.182e+00,4.662e+00,4.309e+00,4.414e+00,3.406e+00,4.116e+00,4.826e+00,4.775e+00,4.535e+00,3.474e+00,4.031e+00,4.257e+00,4.432e+00,3.393e+00,5.703e+00,4.442e+00,4.949e+00,5.014e+00,5.138e+00,4.689e+00,3.599e+00,4.266e+00,5.465e+00,5.371e+00,4.966e+00,4.646e+00,5.130e+00,4.612e+00,4.648e+00,3.740e+00,3.314e+00,3.791e+00,4.386e+00,3.844e+00,5.801e+00,5.126e+00,5.227e+00,4.177e+00,5.022e+00,5.735e+00,3.954e+00,4.159e+00,3.886e+00,4.162e+00,2.439e+00,4.551e+00,5.178e+00,5.232e+00,3.989e+00,4.107e+00,3.931e+00,4.944e+00,4.289e+00,5.647e+00,4.031e+00,4.685e+00,4.250e+00,4.777e+00,4.273e+00,5.259e+00,4.082e+00,3.919e+00,5.155e+00,4.576e+00,4.355e+00,4.792e+00,4.348e+00,4.999e+00,4.490e+00,4.074e+00,4.277e+00,3.785e+00,4.512e+00,4.307e+00,5.378e+00,4.237e+00,4.188e+00
2.038e-01,2.290e-01,8.155e-01,8.613e-01,1.427e+00,1.429e+00,1.300e+00,1.369e+00,2.306e+00,2.361e+00,2.650e+00,3.761e+00,3.263e+00,2.552e+00,3.451e+00,3.105e+00,3.574e+00,4.432e+00,4.224e+00,5.198e+00,5.458e+00,5.932e+00,5.379e+00,7.310e+00,5.160e+00,5.452e+00,7.937e+00,6.492e+00,6.867e+00,6.316e+00,7.124e+00,5.736e+00,6.899e+00,4.367e+00,7.739e+00,7.260e+00,7.015e+00,7.984e+00,7.482e+00,6.440e+00,6.017e+00,6.625e+00,7.034e+00,7.304e+00,7.944e+00,7.303e+00,7.675e+00,6.683e+00,6.601e+00,5.731e+00,6.742e+00,6.045e+00,5.905e+00,6.675e+00,7.615e+00,7.358e+00,7.064e+00,5.537e+00,7.261e+00,6.892e+00,5.211e+00,6.075e+00,5.687e+00,6.524e+00,5.528e+00,6.729e+00,7.059e+00,7.807e+00,6.953e+00,6.558e+00,5.676e+00,7.010e+00,5.862e+00,8.115e+00,6.049e+00,6.816e+00,6.814e+00,6.971e+00,5.465e+00,8.098e+00,5.272e+00,5.528e+00,7.776e+00,7.291e+00,5.798e+00,6.440e+00,6.769e+00,7.441e+00,7.306e+00,6.531e+00,7.387e+00,6.068e+00,5.430e+00,6.454e+00,7.335e+00,5.675e+00,5.555e+00
4.095e-01,3.494e-01,1.365e+00,1.055e+00,1.750e+00,1.376e+00,1.379e+00,1.645e+00,2.304e+00,2.149e+00,3.203e+00,3.385e+00,3.799e+00,2.856e+00,3.524e+00,3.448e+00,3.781e+00,3.991e+00,4.275e+00,5.223e+00,5.411e+00,5.664e+00,5.517e+00,6.574e+00,5.345e+00,6.130e+00,7.334e+00,6.359e+00,6.865e+00,6.471e+00,6.371e+00,7.238e+00,6.561e+00,5.262e+00,7.869e+00,7.268e+00,7.174e+00,7.599e+00,7.317e+00,6.867e+00,5.520e+00,6.843e+00,8.005e+00,8.409e+00,7.548e+00,7.533e+00,7.338e+00,7.236e+00,7.489e+00,5.254e+00,6.163e+00,6.176e+00,7.032e+00,6.989e+00,8.164e+00,7.589e+00,7.352e+00,6.404e+00,7.635e+00,7.945e+00,5.104e+00,6.080e+00,5.108e+00,7.078e+00,4.717e+00,6.059e+00,8.061e+00,7.772e+00,6.048e+00,7.161e+00,6.741e+00,6.545e+00,6.307e+00,9.281e+00,5.734e+00,7.148e+00,6.901e+00,6.970e+00,6.305e+00,7.831e+00,4.995e+00,5.683e+00,8.085e+00,7.935e+00,6.358e+00,7.070e+00,7.095e+00,6.857e+00,6.473e+00,5.950e+00,7.464e+00,6.375e+00,6.863e+00,5.861e+00,7.012e+00,5.854e+00,6.560e+00
7.093e-01,5.518e-01,9.209e-01,1.158e+00,1.380e+00,1.697e+00,2.033e+00,2.200e+00,2.716e+00,2.961e+00,3.130e+00,3.995e+00,4.648e+00,3.067e+00,3.194e+00,3.729e+00,2.912e+00,4.602e+00,3.659e+00,5.518e+00,4.605e+00,5.674e+00,6.261e+00,6.805e+00,5.574e+00,6.036e+00,8.002e+00,7.286e+00,7.557e+00,7.242e+00,5.970e+00,7.036e+00,7.832e+00,5.924e+00,9.221e+00,8.673e+00,9.256e+00,8.432e+00,8.422e+00,7.352e+00,5.981e+00,7.248e+00,9.277e+00,8.110e+00,8.530e+00,8.560e+00,6.906e+00,7.452e+00,8.637e+00,6.394e+00,7.095e+00,6.154e+00,7.025e+00,7.620e+00,8.775e+00,8.380e+00,8.060e+00,6.875e+00,7.919e+00,7.336e+00,6.209e+00,7.476e+00,5.325e+00,8.478e+00,5.729e+00,7.329e+00,9.021e+00,9.317e+00,6.266e+00,8.212e+00,7.019e+00,6.429e+00,6.185e+00,9.418e+00,5.929e+00,7.937e+00,6.464e+00,7.469e+00,7.691e+00,9.154e+00,5.897e+00,6.363e+00,9.608e+00,7.569e+00,6.599e+00,7.713e+00,7.597e+00,6.839e+00,7.061e+00,6.798e+00,7.438e+00,7.024e+00,8.144e+00,7.322e+00,7.805e+00,5.544e+00,6.399e+00
3.005e-01,2.002e-01,4.476e-01,6.063e-01,8.371e-01,9.758e-01,1.098e+00,1.695e+00,2.012e+00,2.251e+00,3.334e+00,3.681e+00,3.933e+00,2.690e+00,3.694e+00,3.271e+00,3.378e+00,4.872e+00,4.286e+00,5.578e+00,4.818e+00,5.860e+00,5.253e+00,6.964e+00,5.147e+00,6.717e+00,7.599e+00,7.589e+00,7.169e+00,7.756e+00,7.686e+00,8.428e+00,6.616e+00,6.670e+00,9.036e+00,8.062e+00,7.630e+00,7.946e+00,8.546e+00,6.944e+00,6.110e+00,7.787e+00,8.242e+00,8.446e+00,8.015e+00,8.028e+00,7.325e+00,7.748e+00,7.549e+00,5.934e+00,6.509e+00,7.317e+00,6.838e+00,7.787e+00,8.820e+00,8.345e+00,7.885e+00,6.782e+00,8.343e+00,7.508e+00,6.066e+00,6.589e+00,5.410e+00,7.772e+00,5.981e+00,7.010e+00,8.823e+00,7.380e+00,6.406e+00,7.083e+00,7.599e+00,7.626e+00,6.994e+00,9.919e+00,6.173e+00,8.270e+00,7.274e+00,7.745e+00,6.926e+00,8.919e+00,5.586e+00,6.753e+00,9.129e+00,8.881e+00,7.048e+00,8.203e+00,7.068e+00,7.093e+00,7.248e+00,7.729e+00,7.702e+00,7.127e+00,7.352e+00,7.861e+00,9.045e+00,5.915e+00,7.091e+00
8.511e-02,7.018e-02,7.069e-01,5.524e-01,1.195e+00,8.084e-01,9.493e-01,1.994e+00,1.941e+00,1.696e+00,2.568e+00,3.129e+00,2.986e+00,1.843e+00,2.196e+00,2.911e+00,2.529e+00,3.533e+00,3.602e+00,3.965e+00,3.722e+00,3.853e+00,3.144e+00,5.003e+00,4.104e+00,4.975e+00,5.823e+00,5.529e+00,5.478e+00,6.310e+00,5.250e+00,6.933e+00,5.346e+00,5.330e+00,6.640e+00,6.799e+00,6.335e+00,5.544e+00,5.937e+00,5.553e+00,5.547e+00,5.878e+00,6.125e+00,5.829e+00,6.271e+00,6.179e+00,6.406e+00,5.843e+00,6.165e+00,4.338e+00,6.248e+00,5.368e+00,5.199e+00,6.010e+00,7.122e+00,6.660e+00,6.405e+00,5.129e+00,6.732e+00,5.246e+00,4.532e+00,5.379e+00,4.526e+00,6.830e+00,4.990e+00,5.340e+00,7.729e+00,6.064e+00,5.781e+00,6.102e+00,5.993e+00,5.400e+00,5.117e+00,7.456e+00,4.752e+00,5.268e+00,4.954e+00,6.538e+00,4.934e+00,7.803e+00,4.631e+00,4.455e+00,6.815e+00,6.982e+00,5.839e+00,5.913e+00,5.313e+00,6.279e+00,5.276e+00,5.184e+00,5.828e+00,5.899e+00,5.747e+00,5.258e+00,6.064e+00,5.049e+00,5.983e+00
6.976e-01,3.860e-01,7.852e-01,9.948e-01,1.091e+00,1.396e+00,1.329e+00,1.683e+00,2.477e+00,2.484e+00,2.713e+00,3.443e+00,3.388e+00,3.042e+00,3.089e+00,3.122e+00,3.028e+00,4.685e+00,3.331e+00,4.647e+00,3.998e+00,5.389e+00,4.857e+00,5.666e+00,4.921e+00,5.572e+00,7.224e+00,6.791e+00,6.877e+00,7.197e+00,6.725e+00,7.028e+00,7.367e+00,5.698e+00,8.792e+00,7.510e+00,8.589e+00,8.231e+00,7.587e+00,5.971e+00,5.810e+00,7.073e+00,8.159e+00,7.529e+00,7.120e+00,7.382e+00,7.057e+00,7.948e+00,7.428e+00,5.636e+00,7.173e+00,6.742e+00,7.797e+00,6.980e+00,8.782e+00,8.226e+00,7.997e+00,6.865e+00,7.185e+00,7.492e+00,6.100e+00,6.888e+00,5.558e+00,7.031e+00,6.176e+00,5.855e+00,9.115e+00,7.852e+00,6.611e+00,7.916e+00,7.093e+00,6.544e+00,6.162e+00,8.412e+00,6.053e+00,7.228e+00,5.831e+00,7.386e+00,6.545e+00,8.525e+00,6.319e+00,5.385e+00,9.058e+00,6.803e+00,7.186e+00,8.059e+00,5.863e+00,7.839e+00,6.053e+00,6.381e+00,7.180e+00,6.902e+00,7.010e+00,7.284e+00,7.531e+00,5.530e+00,6.048e+00
3.284e-01,3.114e-01,6.634e-01,5.474e-01,6.984e-01,1.297e+00,1.167e+00,1.194e+00,1.907e+00,2.075e+00,2.368e+00,3.221e+00,2.772e+00,1.609e+00,2.414e+00,2.725e+00,2.800e+00,2.943e+00,2.877e+00,4.724e+00,2.647e+00,4.750e+00,3.742e+00,5.947e+00,4.156e+00,4.423e+00,5.835e+00,6.040e+00,5.874e+00,6.681e+00,5.477e+00,6.728e+00,6.848e+00,5.524e+00,7.518e+00,6.947e+00,6.924e+00,7.320e+00,6.797e+00,7.181e+00,5.453e+00,6.129e+00,7.084e+00,7.010e+00,7.768e+00,7.205e+00,7.101e+00,5.194e+00,6.732e+00,5.707e+00,6.241e+00,5.403e+00,5.690e+00,6.597e+00,7.968e+00,6.712e+00,6.795e+00,5.595e+00,7.237e+00,6.604e+00,6.582e+00,5.508e+00,5.303e+00,6.241e+00,5.690e+00,6.232e+00,6.939e+00,7.088e+00,6.376e+00,6.597e+00,6.379e+00,6.093e+00,5.126e+00,8.724e+00,5.395e+00,6.460e+00,6.320e+00,6.065e+00,6.552e+00,7.641e+00,4.594e+00,5.792e+00,6.826e+00,6.614e+00,5.786e+00,6.842e+00,5.753e+00,7.286e+00,6.889e+00,7.424e+00,6.047e+00,4.980e+00,6.354e+00,6.278e+00,8.030e+00,4.876e+00,6.037e+00
1.043e-01,2.658e-01,3.855e-01,4.013e-01,6.189e-01,7.196e-01,1.114e+00,1.777e+00,2.065e+00,2.188e+00,3.277e+00,3.690e+00,4.108e+00,3.240e+00,3.233e+00,4.628e+00,4.285e+00,5.181e+00,4.422e+00,5.064e+00,4.686e+00,6.506e+00,4.746e+00,7.133e+00,4.685e+00,5.878e+00,8.127e+00,7.340e+00,7.187e+00,7.946e+00,8.129e+00,8.926e+00,9.194e+00,6.832e+00,8.958e+00,9.208e+00,1.052e+01,8.583e+00,8.637e+00,8.165e+00,8.991e+00,8.388e+00,9.664e+00,8.929e+00,9.445e+00,8.587e+00,8.983e+00,8.883e+00,8.966e+00,7.135e+00,8.152e+00,8.169e+00,7.214e+00,7.907e+00,1.088e+01,9.435e+00,9.461e+00,7.837e+00,8.811e+00,8.540e+00,7.019e+00,8.101e+00,6.917e+00,8.679e+00,7.090e+00,8.694e+00,9.118e+00,9.331e+00,7.695e+00,8.269e+00,7.358e+00,8.838e+00,8.302e+00,9.097e+00,6.853e+00,8.413e+00,8.269e+00,9.535e+00,6.948e+00,1.011e+01,6.086e+00,7.335e+00,9.932e+00,8.860e+00,7.555e+00,9.095e+00,6.807e+00,8.464e+00,8.127e+00,7.347e+00,8.245e+00,8.437e+00,8.843e+00,8.676e+00,8.605e+00,8.215e+00,7.393e+00
7.569e-02,1.308e-01,7.195e-01,4.592e-01,9.517e-01,9.567e-01,8.056e-01,1.195e+00,1.904e+00,1.485e+00,2.375e+00,2.810e+00,2.928e+00,2.612e+00,2.693e+00,3.441e+00,3.726e+00,3.899e+00,3.680e+00,4.348e+00,4.383e+00,5.393e+00,4.539e+00,6.867e+00,5.643e+00,6.052e+00,7.741e+00,7.447e+00,6.667e+00,8.293e+00,7.637e+00,1.014e+01,8.900e+00,7.053e+00,9.931e+00,8.531e+00,9.545e+00,9.683e+00,9.289e+00,8.669e+00,8.512e+00,9.403e+00,1.007e+01,8.803e+00,9.196e+00,9.490e+00,1.020e+01,9.402e+00,9.139e+00,6.774e+00,8.794e+00,8.229e+00,9.093e+00,8.737e+00,1.075e+01,9.764e+00,9.432e+00,7.948e+00,8.989e+00,9.866e+00,8.219e+00,7.982e+00,7.194e+00,9.051e+00,7.939e+00,8.233e+00,9.593e+00,8.900e+00,8.061e+00,9.387e+00,9.076e+00,8.353e+00,8.786e+00,1.113e+01,7.698e+00,8.656e+00,8.746e+00,9.357e+00,7.877e+00,1.046e+01,6.966e+00,7.159e+00,9.761e+00,8.899e+00,8.791e+00,9.082e+00,7.968e+00,9.815e+00,7.896e+00,8.174e+00,8.356e+00,8.451e+00,8.209e+00,8.275e+00,8.863e+00,6.851e+00,8.483e+00
1.061e-01,1.139e-01,8.024e-01,8.324e-01,1.528e+00,1.355e+00,1.165e+00,1.822e+00,2.574e+00,2.411e+00,2.532e+00,2.849e+00,3.320e+00,1.831e+00,2.276e+00,3.021e+00,2.780e+00,3.732e+00,4.220e+00,5.883e+00,4.831e+00,4.987e+00,5.496e+00,7.566e+00,4.523e+00,5.968e+00,8.280e+00,7.423e+00,6.935e+00,7.905e+00,7.280e+00,8.795e+00,8.189e+00,7.055e+00,8.899e+00,9.292e+00,9.053e+00,9.084e+00,9.068e+00,7.884e+00,7.537e+00,8.301e+00,9.842e+00,8.416e+00,9.134e+00,9.454e+00,8.629e+00,7.364e+00,8.231e+00,6.862e+00,7.736e+00,6.981e+00,7.508e+00,9.106e+00,9.015e+00,8.604e+00,8.976e+00,7.775e+00,8.896e+00,7.448e+00,7.438e+00,8.526e+00,6.925e+00,9.368e+00,7.400e+00,8.255e+00,1.021e+01,1.026e+01,7.369e+00,8.068e+00,8.377e+00,7.646e+00,6.715e+00,1.070e+01,6.327e+00,8.661e+00,8.022e+00,8.298e+00,7.491e+00,1.075e+01,6.186e+00,8.128e+00,9.830e+00,9.208e+00,7.499e+00,7.595e+00,8.502e+00,7.850e+00,8.034e+00,8.162e+00,8.005e+00,8.449e+00,9.313e+00,7.641e+00,8.883e+00,7.078e+00,8.033e+00
3.919e-01,2.150e-01,5.878e-01,5.348e-01,7.652e-01,1.139e+00,1.160e+00,1.680e+00,1.668e+00,1.924e+00,2.691e+00,3.561e+00,3.499e+00,2.681e+00,2.740e+00,2.951e+00,2.190e+00,4.128e+00,2.491e+00,4.027e+00,4.557e+00,4.738e+00,4.910e+00,5.803e+00,4.533e+00,5.743e+00,7.009e+00,6.373e+00,7.156e+00,6.392e+00,6.528e+00,6.572e+00,8.226e+00,6.939e+00,7.906e+00,9.177e+00,9.937e+00,9.380e+00,8.853e+00,6.859e+00,7.326e+00,7.787e+00,8.414e+00,7.568e+00,8.069e+00,9.032e+00,8.262e+00,8.172e+00,8.012e+00,6.961e+00,8.873e+00,7.399e+00,7.228e+00,7.976e+00,9.582e+00,8.909e+00,8.007e+00,7.991e+00,8.713e+00,7.491e+00,7.262e+00,7.074e+00,6.721e+00,8.546e+00,8.103e+00,8.245e+00,8.824e+00,8.753e+00,7.685e+00,8.857e+00,7.039e+00,7.878e+00,5.836e+00,9.556e+00,7.340e+00,7.381e+00,7.115e+00,8.581e+00,7.793e+00,9.643e+00,6.340e+00,6.263e+00,1.039e+01,7.808e+00,7.848e+00,7.755e+00,6.725e+00,8.185e+00,7.603e+00,7.028e+00,7.775e+00,8.345e+00,7.932e+00,8.452e+00,7.250e+00,6.469e+00,6.675e+00
2.664e-02,2.606e-01,6.098e-01,2.947e-01,6.974e-01,1.436e+00,1.345e+00,1.504e+00,2.565e+00,2.058e+00,3.135e+00,3.497e+00,3.530e+00,2.713e+00,3.548e+00,4.048e+00,4.562e+00,4.496e+00,4.415e+00,5.612e+00,3.189e+00,6.286e+00,4.813e+00,7.215e+00,6.406e+00,5.446e+00,7.763e+00,7.665e+00,7.091e+00,8.252e+00,7.012e+00,9.910e+00,9.429e+00,8.244e+00,1.063e+01,1.029e+01,9.807e+00,1.203e+01,1.002e+01,8.958e+00,8.821e+00,8.918e+00,1.147e+01,1.008e+01,9.901e+00,9.760e+00,1.139e+01,8.906e+00,9.078e+00,7.506e+00,1.030e+01,9.573e+00,1.037e+01,9.564e+00,1.250e+01,9.869e+00,9.959e+00,9.330e+00,1.076e+01,1.048e+01,1.020e+01,9.075e+00,8.033e+00,9.940e+00,8.995e+00,9.121e+00,1.112e+01,9.325e+00,9.966e+00,9.342e+00,1.029e+01,1.010e+01,8.937e+00,1.236e+01,9.345e+00,9.764e+00,8.180e+00,9.863e+00,8.996e+00,1.061e+01,7.263e+00,7.879e+00,1.174e+01,1.025e+01,1.018e+01,1.071e+01,8.270e+00,1.158e+01,9.004e+00,9.414e+00,9.961e+00,8.887e+00,9.334e+00,9.073e+00,1.075e+01,8.473e+00,9.597e+00
7.739e-02,3.852e-02,5.447e-01,4.696e-01,8.720e-01,9.593e-01,5.661e-01,9.962e-01,1.767e+00,1.578e+00,2.094e+00,2.340e+00,2.706e+00,2.139e+00,2.333e+00,2.400e+00,2.575e+00,3.927e+00,3.670e+00,4.180e+00,4.213e+00,4.739e+00,3.966e+00,5.504e+00,4.038e+00,5.131e+00,6.659e+00,5.707e+00,5.545e+00,5.845e+00,6.651e+00,8.224e+00,6.470e+00,6.055e+00,7.120e+00,8.432e+00,7.907e+00,9.427e+00,8.443e+00,7.330e+00,7.065e+00,7.455e+00,8.060e+00,8.337e+00,7.012e+00,8.178e+00,7.941e+00,7.810e+00,6.684e+00,5.810e+00,6.870e+00,7.728e+00,7.554e+00,7.912e+00,9.097e+00,8.115e+00,9.659e+00,7.564e+00,7.480e+00,8.011e+00,7.365e+00,6.874e+00,5.548e+00,8.099e+00,7.653e+00,8.426e+00,8.430e+00,8.675e+00,7.310e+00,8.127e+00,7.418e+00,8.662e+00,7.478e+00,9.246e+00,6.389e+00,7.282e+00,7.610e+00,8.885e+00,7.327e+00,8.350e+00,6.125e+00,7.063e+00,8.708e+00,8.270e+00,7.094e+00,9.145e+00,6.535e+00,8.034e+00,6.856e+00,6.475e+00,7.859e+00,8.184e+00,7.861e+00,7.499e+00,7.858e+00,7.393e+00,7.049e+00
6.919e-01,4.412e-01,1.479e+00,1.397e+00,2.060e+00,1.937e+00,1.921e+00,2.564e+00,3.300e+00,3.240e+00,3.900e+00,4.585e+00,4.511e+00,2.994e+00,3.887e+00,3.876e+00,3.912e+00,5.479e+00,4.997e+00,6.232e+00,5.570e+00,6.545e+00,6.091e+00,8.325e+00,6.326e+00,7.326e+00,8.898e+00,8.982e+00,9.338e+00,9.113e+00,8.731e+00,1.057e+01,9.535e+00,9.109e+00,1.094e+01,1.088e+01,1.161e+01,1.162e+01,1.080e+01,9.596e+00,9.884e+00,9.827e+00,1.176e+01,1.123e+01,1.133e+01,1.016e+01,1.111e+01,1.039e+01,1.069e+01,8.033e+00,1.093e+01,9.759e+00,1.071e+01,1.063e+01,1.228e+01,1.080e+01,1.145e+01,9.519e+00,1.139e+01,1.139e+01,9.227e+00,9.302e+00,9.128e+00,1.061e+01,9.165e+00,9.597e+00,1.312e+01,1.051e+01,1.102e+01,1.151e+01,1.051e+01,1.145e+01,9.149e+00,1.333e+01,8.884e+00,1.051e+01,9.733e+00,1.038e+01,9.999e+00,1.236e+01,8.712e+00,8.943e+00,1.157e+01,1.151e+01,1.086e+01,1.137e+01,9.582e+00,1.160e+01,1.037e+01,1.046e+01,1.051e+01,9.687e+00,1.032e+01,1.073e+01,1.249e+01,8.688e+00,1.103e+01
1.299e-01,1.412e-01,5.746e-01,4.734e-01,8.578e-01,8.814e-01,8.363e-01,1.032e+00,1.378e+00,1.383e+00,1.978e+00,2.082e+00,2.473e+00,2.222e+00,2.107e+00,2.550e+00,2.474e+00,3.843e+00,3.422e+00,3.923e+00,4.332e+00,4.806e+00,4.732e+00,6.130e+00,4.558e+00,5.150e+00,7.983e+00,7.502e+00,7.487e+00,8.347e+00,8.124e+00,9.372e+00,9.313e+00,8.436e+00,9.200e+00,1.036e+01,1.075e+01,1.107e+01,1.072e+01,9.333e+00,1.024e+01,1.060e+01,1.282e+01,1.056e+01,1.081e+01,9.567e+00,1.090e+01,9.175e+00,9.075e+00,8.106e+00,1.019e+01,1.005e+01,1.003e+01,9.835e+00,1.127e+01,1.045e+01,1.095e+01,9.375e+00,1.066e+01,1.002e+01,9.739e+00,9.429e+00,8.821e+00,9.946e+00,1.116e+01,1.045e+01,1.149e+01,1.024e+01,9.830e+00,9.774e+00,1.080e+01,1.092e+01,8.226e+00,1.218e+01,8.293e+00,1.042e+01,9.689e+00,1.060e+01,8.474e+00,1.128e+01,7.481e+00,8.879e+00,1.176e+01,1.117e+01,1.120e+01,1.007e+01,9.133e+00,1.053e+01,1.002e+01,9.532e+00,9.188e+00,1.012e+01,1.047e+01,1.147e+01,1.034e+01,9.187e+00,9.207e+00
5.795e-01,3.925e-01,9.804e-01,8.974e-01,1.116e+00,1.120e+00,1.247e+00,1.986e+00,2.426e+00,2.618e+00,3.693e+00,3.889e+00,4.231e+00,2.895e+00,2.889e+00,3.681e+00,2.971e+00,4.189e+00,3.501e+00,4.080e+00,3.891e+00,4.806e+00,3.603e+00,5.284e+00,3.678e+00,5.406e+00,6.399e+00,6.242e+00,6.344e+00,6.736e+00,5.959e+00,8.167e+00,6.876e+00,5.655e+00,7.630e+00,7.672e+00,8.759e+00,7.927e+00,8.073e+00,8.049e+00,7.410e+00,8.140e+00,9.093e+00,8.645e+00,8.648e+00,7.970e+00,8.757e+00,7.585e+00,8.110e+00,6.087e+00,8.017e+00,7.927e+00,8.500e+00,8.083e+00,1.042e+01,8.109e+00,1.004e+01,7.507e+00,9.189e+00,8.302e+00,6.670e+00,7.472e+00,5.980e+00,8.281e+00,6.657e+00,7.442e+00,9.127e+00,8.906e+00,8.004e+00,7.899e+00,7.745e+00,8.443e+00,7.370e+00,9.729e+00,6.330e+00,7.065e+00,7.769e+00,7.553e+00,7.787e+00,8.854e+00,7.033e+00,7.007e+00,8.344e+00,8.248e+00,7.793e+00,8.664e+00,5.479e+00,8.712e+00,6.894e+00,6.838e+00,7.447e+00,7.651e+00,7.991e+00,7.855e+00,8.888e+00,6.792e+00,7.630e+00
6.129e-01,3.563e-01,1.038e+00,1.005e+00,1.395e+00,1.336e+00,1.493e+00,2.232e+00,2.487e+00,2.692e+00,4.040e+00,4.423e+00,4.504e+00,3.111e+00,3.751e+00,3.352e+00,2.934e+00,4.611e+00,3.561e+00,3.777e+00,4.570e+00,5.102e+00,4.492e+00,5.708e+00,4.661e+00,6.310e+00,7.096e+00,6.898e+00,7.251e+00,6.449e+00,6.467e+00,8.293e+00,8.123e+00,6.800e+00,8.898e+00,8.296e+00,8.843e+00,9.858e+00,9.625e+00,8.699e+00,8.895e+00,8.712e+00,9.461e+00,9.157e+00,9.404e+00,9.922e+00,9.307e+00,8.736e+00,8.051e+00,7.822e+00,9.905e+00,8.613e+00,8.667e+00,9.218e+00,1.072e+01,8.490e+00,9.945e+00,7.948e+00,9.894e+00,9.612e+00,8.981e+00,8.077e+00,6.539e+00,1.012e+01,8.135e+00,1.034e+01,1.030e+01,9.008e+00,9.340e+00,9.436e+00,9.121e+00,1.025e+01,7.253e+00,1.154e+01,8.804e+00,8.285e+00,8.133e+00,8.907e+00,9.058e+00,9.976e+00,6.938e+00,8.276e+00,1.059e+01,9.570e+00,9.122e+00,1.072e+01,7.870e+00,8.940e+00,8.521e+00,7.514e+00,9.770e+00,9.177e+00,8.699e+00,8.989e+00,1.032e+01,7.916e+00,9.563e+00
8.060e-01,6.439e-01,1.607e+00,1.596e+00,2.174e+00,1.753e+00,2.175e+00,2.641e+00,3.233e+00,3.459e+00,4.142e+00,5.130e+00,5.308e+00,3.647e+00,4.310e+00,4.947e+00,4.754e+00,5.887e+00,5.618e+00,6.556e+00,6.342e+00,7.395e+00,6.049e+00,8.057e+00,5.963e+00,7.277e+00,8.627e+00,7.774e+00,9.176e+00,8.446e+00,8.598e+00,1.043e+01,1.048e+01,8.008e+00,1.119e+01,1.146e+01,1.273e+01,1.230e+01,1.322e+01,1.134e+01,1.183e+01,1.233e+01,1.373e+01,1.426e+01,1.453e+01,1.339e+01,1.194e+01,1.368e+01,1.289e+01,9.137e+00,1.137e+01,1.225e+01,1.202e+01,1.263e+01,1.528e+01,1.259e+01,1.376e+01,1.153e+01,1.292e+01,1.350e+01,1.091e+01,1.164e+01,1.058e+01,1.445e+01,1.073e+01,1.431e+01,1.426e+01,1.336e+01,1.217e+01,1.214e+01,1.174e+01,1.280e+01,1.137e+01,1.474e+01,1.174e+01,1.168e+01,1.188e+01,1.261e+01,1.180e+01,1.464e+01,1.025e+01,1.125e+01,1.324e+01,1.270e+01,1.219e+01,1.397e+01,1.220e+01,1.302e+01,1.126e+01,1.062e+01,1.245e+01,1.293e+01,1.358e+01,1.326e+01,1.248e+01,1.042e+01,1.075e+01
2.862e-01,4.286e-01,1.339e+00,8.622e-01,1.522e+00,1.884e+00,1.736e+00,1.406e+00,2.352e+00,2.366e+00,3.253e+00,3.996e+00,4.375e+00,3.657e+00,3.968e+00,4.302e+00,4.579e+00,5.072e+00,4.036e+00,4.370e+00,5.657e+00,6.414e+00,4.956e+00,6.049e+00,5.536e+00,6.111e+00,7.753e+00,7.487e+00,7.539e+00,6.475e+00,7.428e+00,8.184e+00,9.677e+00,6.526e+00,9.213e+00,8.151e+00,1.032e+01,1.032e+01,1.130e+01,8.732e+00,9.581e+00,1.139e+01,1.148e+01,1.095e+01,9.953e+00,1.039e+01,1.142e+01,1.145e+01,1.037e+01,8.064e+00,1.041e+01,1.023e+01,9.709e+00,1.078e+01,1.278e+01,1.198e+01,1.194e+01,9.654e+00,1.141e+01,1.144e+01,9.520e+00,9.684e+00,9.474e+00,1.165e+01,1.029e+01,1.107e+01,1.283e+01,1.183e+01,1.067e+01,1.160e+01,1.100e+01,1.081e+01,1.000e+01,1.161e+01,1.094e+01,1.010e+01,1.064e+01,1.179e+01,9.484e+00,1.204e+01,8.229e+00,9.710e+00,1.249e+01,1.126e+01,1.115e+01,1.205e+01,1.123e+01,1.185e+01,1.064e+01,9.794e+00,1.054e+01,1.152e+01,1.171e+01,1.137e+01,9.989e+00,9.661e+00,9.920e+00
6.523e-01,4.112e-01,1.022e+00,1.266e+00,1.631e+00,1.701e+00,1.668e+00,1.837e+00,2.718e+00,3.246e+00,4.077e+00,4.799e+00,4.738e+00,3.303e+00,4.422e+00,3.106e+00,3.173e+00,5.029e+00,4.135e+00,4.462e+00,5.601e+00,5.559e+00,5.130e+00,5.292e+00,5.565e+00,5.957e+00,7.240e+00,7.098e+00,8.035e+00,7.645e+00,7.148e+00,8.821e+00,8.961e+00,6.888e+00,1.026e+01,9.073e+00,1.055e+01,1.132e+01,1.204e+01,1.009e+01,9.450e+00,1.179e+01,1.134e+01,1.124e+01,1.164e+01,1.212e+01,1.293e+01,1.286e+01,1.004e+01,8.635e+00,1.216e+01,1.142e+01,1.189e+01,1.204e+01,1.441e+01,1.223e+01,1.356e+01,1.103e+01,1.192e+01,1.270e+01,1.021e+01,1.087e+01,8.693e+00,1.371e+01,1.195e+01,1.148e+01,1.336e+01,1.222e+01,1.091e+01,1.386e+01,1.264e+01,1.182e+01,1.143e+01,1.403e+01,1.201e+01,1.182e+01,1.163e+01,1.119e+01,1.077e+01,1.206e+01,1.042e+01,9.297e+00,1.281e+01,1.271e+01,1.192e+01,1.219e+01,1.080e+01,1.224e+01,9.657e+00,1.081e+01,1.180e+01,1.227e+01,1.087e+01,1.205e+01,1.192e+01,9.067e+00,1.116e+01
3.519e-01,3.465e-01,1.341e+00,1.074e+00,1.803e+00,1.913e+00,1.640e+00,2.228e+00,3.490e+00,3.085e+00,3.577e+00,4.322e+00,3.689e+00,2.985e+00,3.448e+00,4.296e+00,4.650e+00,5.176e+00,5.345e+00,6.355e+00,5.645e+00,6.763e+00,5.729e+00,8.562e+00,5.952e+00,6.809e+00,8.336e+00,7.919e+00,7.536e+00,8.296e+00,7.841e+00,9.387e+00,9.886e+00,7.654e+00,1.012e+01,1.011e+01,1.115e+01,1.266e+01,1.189e+01,9.571e+00,1.002e+01,1.098e+01,1.214e+01,1.277e+01,1.259e+01,1.159e+01,1.320e+01,1.216e+01,1.023e+01,9.200e+00,1.230e+01,1.172e+01,1.225e+01,1.221e+01,1.325e+01,1.317e+01,1.234e+01,1.075e+01,1.174e+01,1.245e+01,1.069e+01,1.090e+01,1.112e+01,1.279e+01,1.163e+01,1.288e+01,1.432e+01,1.364e+01,1.102e+01,1.190e+01,1.166e+01,1.239e+01,1.081e+01,1.533e+01,1.114e+01,1.179e+01,1.133e+01,1.306e+01,1.128e+01,1.418e+01,9.118e+00,1.110e+01,1.240e+01,1.265e+01,1.240e+01,1.180e+01,1.252e+01,1.420e+01,1.126e+01,1.087e+01,1.241e+01,1.158e+01,1.214e+01,1.294e+01,1.193e+01,9.809e+00,1.164e+01
5.617e-01,4.355e-01,1.470e+00,1.344e+00,1.996e+00,2.068e+00,1.809e+00,2.054e+00,3.156e+00,3.399e+00,3.762e+00,4.234e+00,4.115e+00,2.734e+00,3.512e+00,3.527e+00,3.561e+00,4.365e+00,4.302e+00,5.138e+00,4.897e+00,5.558e+00,4.987e+00,6.456e+00,5.263e+00,6.185e+00,7.974e+00,7.970e+00,7.345e+00,8.279e+00,6.777e+00,8.097e+00,9.157e+00,6.241e+00,1.034e+01,9.207e+00,1.102e+01,1.119e+01,1.100e+01,9.752e+00,9.048e+00,1.153e+01,1.241e+01,1.173e+01,1.285e+01,1.201e+01,1.285e+01,1.100e+01,1.067e+01,1.011e+01,1.230e+01,1.166e+01,1.189e+01,1.279e+01,1.342e+01,1.229e+01,1.384e+01,1.129e+01,1.235e+01,1.233e+01,1.095e+01,1.158e+01,1.017e+01,1.308e+01,1.250e+01,1.190e+01,1.362e+01,1.383e+01,1.090e+01,1.388e+01,1.287e+01,1.220e+01,1.109e+01,1.436e+01,1.175e+01,1.214e+01,1.178e+01,1.188e+01,1.129e+01,1.314e+01,9.204e+00,1.188e+01,1.157e+01,1.236e+01,1.226e+01,1.209e+01,1.287e+01,1.259e+01,1.194e+01,1.283e+01,1.244e+01,1.096e+01,1.159e+01,1.221e+01,1.258e+01,9.192e+00,1.156e+01
5.727e-01,4.323e-01,7.129e-01,9.961e-01,1.194e+00,1.050e+00,1.518e+00,1.955e+00,2.269e+00,2.315e+00,3.157e+00,3.787e+00,4.590e+00,3.782e+00,3.241e+00,3.880e+00,3.280e+00,4.937e+00,4.528e+00,5.319e+00,4.918e+00,6.473e+00,5.519e+00,6.579e+00,5.196e+00,5.334e+00,8.101e+00,6.764e+00,7.887e+00,7.956e+00,7.094e+00,8.308e+00,8.515e+00,6.040e+00,9.195e+00,9.730e+00,1.002e+01,1.143e+01,1.067e+01,9.250e+00,9.837e+00,1.054e+01,1.290e+01,1.211e+01,1.215e+01,1.180e+01,1.195e+01,1.256e+01,1.087e+01,9.793e+00,1.089e+01,1.119e+01,1.153e+01,1.103e+01,1.334e+01,1.155e+01,1.404e+01,9.957e+00,1.133e+01,1.170e+01,1.248e+01,1.120e+01,9.883e+00,1.357e+01,1.231e+01,1.307e+01,1.297e+01,1.125e+01,1.127e+01,1.189e+01,1.188e+01,1.272e+01,1.174e+01,1.386e+01,1.098e+01,1.243e+01,1.134e+01,1.241e+01,1.063e+01,1.269e+01,1.061e+01,1.072e+01,1.183e+01,1.187e+01,1.268e+01,1.326e+01,1.053e+01,1.258e+01,1.099e+01,1.116e+01,1.206e+01,1.208e+01,1.140e+01,1.245e+01,1.219e+01,1.029e+01,1.096e+01
7.514e-01,6.181e-01,1.668e+00,1.349e+00,1.822e+00,1.962e+00,1.827e+00,1.411e+00,2.506e+00,2.808e+00,3.393e+00,3.938e+00,4.313e+00,3.639e+00,4.030e+00,4.114e+00,4.279e+00,4.715e+00,4.155e+00,4.958e+00,4.792e+00,6.303e+00,5.139e+00,6.306e+00,5.063e+00,6.158e+00,7.290e+00,7.060e+00,6.285e+00,6.151e+00,6.012e+00,7.481e+00,8.840e+00,5.227e+00,9.343e+00,7.907e+00,9.622e+00,1.030e+01,1.040e+01,8.765e+00,8.408e+00,1.043e+01,1.058e+01,1.102e+01,1.075e+01,1.107e+01,1.200e+01,1.240e+01,1.111e+01,9.454e+00,1.040e+01,1.171e+01,1.153e+01,1.208e+01,1.350e+01,1.276e+01,1.368e+01,1.095e+01,1.139e+01,1.302e+01,1.090e+01,1.170e+01,9.886e+00,1.266e+01,1.089e+01,1.197e+01,1.250e+01,1.316e+01,1.187e+01,1.326e+01,1.141e+01,1.157e+01,1.222e+01,1.301e+01,1.131e+01,1.064e+01,1.197e+01,1.273e+01,1.150e+01,1.276e+01,9.843e+00,1.086e+01,1.075e+01,1.147e+01,1.168e+01,1.236e+01,1.237e+01,1.288e+01,1.209e+01,1.113e+01,1.154e+01,1.058e+01,1.020e+01,1.211e+01,1.236e+01,1.052e+01,1.137e+01
5.381e-01,5.454e-01,1.475e+00,1.145e+00,1.742e+00,1.836e+00,1.919e+00,2.108e+00,3.125e+00,3.006e+00,4.297e+00,4.424e+00,4.367e+00,3.463e+00,4.605e+00,4.389e+00,5.037e+00,4.670e+00,5.286e+00,6.322e+00,4.573e+00,7.165e+00,5.924e+00,7.669e+00,5.871e+00,6.736e+00,8.498e+00,8.568e+00,8.146e+00,9.230e+00,7.759e+00,1.016e+01,1.100e+01,8.460e+00,1.173e+01,1.130e+01,1.151e+01,1.343e+01,1.319e+01,1.141e+01,1.125e+01,1.312e+01,1.459e+01,1.460e+01,1.369e+01,1.339e+01,1.386e+01,1.437e+01,1.294e+01,1.129e+01,1.427e+01,1.417e+01,1.457e+01,1.471e+01,1.697e+01,1.395e+01,1.583e+01,1.323e+01,1.504e+01,1.597e+01,1.453e+01,1.359e+01,1.294e+01,1.531e+01,1.435e+01,1.537e+01,1.683e+01,1.423e+01,1.479e+01,1.554e+01,1.479e+01,1.462e+01,1.360e+01,1.615e+01,1.426e+01,1.429e+01,1.309e+01,1.474e+01,1.359e+01,1.634e+01,1.136e+01,1.395e+01,1.482e+01,1.537e+01,1.530e+01,1.550e+01,1.509e+01,1.632e+01,1.485e+01,1.455e+01,1.544e+01,1.358e+01,1.317e+01,1.521e+01,1.588e+01,1.276e+01,1.437e+01
1.733e-01,8.534e-02,7.197e-01,7.763e-01,1.399e+00,1.591e+00,1.212e+00,2.087e+00,2.981e+00,2.856e+00,3.029e+00,4.173e+00,3.654e+00,2.692e+00,3.335e+00,3.694e+00,3.510e+00,5.014e+00,3.903e+00,5.548e+00,5.447e+00,5.504e+00,5.014e+00,6.642e+00,5.188e+00,6.135e+00,8.709e+00,7.144e+00,7.031e+00,7.836e+00,7.578e+00,7.726e+00,9.054e+00,6.936e+00,9.238e+00,1.014e+01,1.133e+01,1.085e+01,1.066e+01,9.145e+00,9.401e+00,1.090e+01,1.159e+01,1.263e+01,1.208e+01,1.174e+01,1.253e+01,1.321e+01,1.230e+01,1.117e+01,1.351e+01,1.352e+01,1.299e+01,1.361e+01,1.548e+01,1.435e+01,1.500e+01,1.194e+01,1.239e+01,1.290e+01,1.258e+01,1.294e+01,1.152e+01,1.422e+01,1.389e+01,1.330e+01,1.519e+01,1.541e+01,1.357e+01,1.498e+01,1.378e+01,1.467e+01,1.207e+01,1.515e+01,1.215e+01,1.344e+01,1.257e+01,1.334e+01,1.184e+01,1.581e+01,1.060e+01,1.210e+01,1.346e+01,1.322e+01,1.346e+01,1.429e+01,1.231e+01,1.354e+01,1.259e+01,1.248e+01,1.383e+01,1.294e+01,1.318e+01,1.356e+01,1.354e+01,1.132e+01,1.241e+01
2.923e-01,2.669e-01,1.114e+00,1.023e+00,1.687e+00,1.784e+00,1.488e+00,1.677e+00,2.686e+00,2.921e+00,3.580e+00,4.237e+00,3.985e+00,2.430e+00,3.912e+00,2.833e+00,3.358e+00,4.226e+00,4.141e+00,5.019e+00,5.700e+00,5.505e+00,5.397e+00,7.378e+00,4.829e+00,6.597e+00,8.084e+00,7.876e+00,7.693e+00,7.638e+00,8.196e+00,8.277e+00,8.900e+00,7.275e+00,9.817e+00,9.647e+00,1.044e+01,1.130e+01,1.183e+01,9.573e+00,1.041e+01,1.182e+01,1.123e+01,1.089e+01,1.267e+01,1.205e+01,1.267e+01,1.016e+01,1.001e+01,9.986e+00,1.276e+01,1.207e+01,1.267e+01,1.309e+01,1.364e+01,1.209e+01,1.349e+01,1.138e+01,1.372e+01,1.221e+01,1.215e+01,1.110e+01,1.147e+01,1.333e+01,1.188e+01,1.375e+01,1.255e+01,1.240e+01,1.203e+01,1.283e+01,1.287e+01,1.302e+01,1.078e+01,1.466e+01,1.219e+01,1.241e+01,1.216e+01,1.191e+01,1.109e+01,1.423e+01,1.065e+01,1.168e+01,1.253e+01,1.315e+01,1.160e+01,1.215e+01,1.256e+01,1.300e+01,1.239e+01,1.220e+01,1.266e+01,1.312e+01,1.121e+01,1.218e+01,1.423e+01,1.076e+01,1.179e+01
4.080e-02,1.225e-01,8.796e-01,6.773e-01,1.384e+00,1.206e+00,1.014e+00,1.790e+00,2.688e+00,2.457e+00,3.598e+00,3.964e+00,3.421e+00,2.532e+00,3.416e+00,3.461e+00,3.776e+00,4.025e+00,4.846e+00,5.082e+00,5.152e+00,5.952e+00,5.071e+00,7.007e+00,5.294e+00,6.580e+00,8.185e+00,7.660e+00,7.607e+00,9.046e+00,7.937e+00,1.063e+01,9.607e+00,7.820e+00,1.094e+01,1.079e+01,1.198e+01,1.279e+01,1.181e+01,1.080e+01,1.132e+01,1.227e+01,1.297e+01,1.255e+01,1.371e+01,1.323e+01,1.442e+01,1.424e+01,1.237e+01,1.137e+01,1.446e+01,1.649e+01,1.508e+01,1.552e+01,1.807e+01,1.644e+01,1.588e+01,1.398e+01,1.491e+01,1.688e+01,1.520e+01,1.385e+01,1.429e+01,1.571e+01,1.541e+01,1.500e+01,1.658e+01,1.479e+01,1.533e+01,1.648e+01,1.499e+01,1.496e+01,1.508e+01,1.703e+01,1.458e+01,1.453e+01,1.325e+01,1.520e+01,1.384e+01,1.731e+01,1.239e+01,1.429e+01,1.452e+01,1.500e+01,1.470e+01,1.612e+01,1.482e+01,1.593e+01,1.525e+01,1.403e+01,1.545e+01,1.468e+01,1.321e+01,1.556e+01,1.625e+01,1.174e+01,1.561e+01
2.023e-01,1.167e-01,9.555e-01,7.341e-01,1.321e+00,1.541e+00,9.597e-01,1.219e+00,2.279e+00,2.294e+00,2.835e+00,3.018e+00,3.066e+00,2.061e+00,2.907e+00,2.634e+00,2.886e+00,3.433e+00,2.986e+00,4.548e+00,3.828e+00,4.455e+00,4.369e+00,6.390e+00,4.423e+00,5.636e+00,7.326e+00,7.614e+00,6.939e+00,7.609e+00,7.346e+00,7.967e+00,8.238e+00,6.908e+00,8.937e+00,8.786e+00,9.406e+00,9.899e+00,9.756e+00,8.443e+00,8.581e+00,1.081e+01,1.081e+01,1.053e+01,1.115e+01,1.122e+01,1.307e+01,1.132e+01,9.730e+00,1.075e+01,1.309e+01,1.239e+01,1.490e+01,1.356e+01,1.586e+01,1.462e+01,1.398e+01,1.208e+01,1.342e+01,1.307e+01,1.276e+01,1.163e+01,1.342e+01,1.346e+01,1.282e+01,1.175e+01,1.615e+01,1.347e+01,1.380e+01,1.450e+01,1.451e+01,1.282e+01,1.280e+01,1.510e+01,1.311e+01,1.269e+01,1.220e+01,1.335e+01,1.154e+01,1.479e+01,1.194e+01,1.231e+01,1.298e+01,1.376e+01,1.488e+01,1.225e+01,1.240e+01,1.429e+01,1.302e+01,1.345e+01,1.305e+01,1.291e+01,1.131e+01,1.347e+01,1.525e+01,1.137e+01,1.318e+01
2.833e-01,3.053e-01,7.198e-01,7.561e-01,1.213e+00,9.849e-01,1.455e+00,2.071e+00,2.105e+00,2.118e+00,3.278e+00,3.581e+00,3.886e+00,3.155e+00,3.270e+00,3.422e+00,3.276e+00,4.654e+00,4.178e+00,4.285e+00,5.363e+00,5.776e+00,5.988e+00,6.590e+00,5.466e+00,6.601e+00,7.718e+00,7.674e+00,7.959e+00,7.951e+00,7.436e+00,9.304e+00,8.809e+00,8.223e+00,1.031e+01,9.355e+00,1.057e+01,1.003e+01,1.125e+01,9.182e+00,9.699e+00,1.037e+01,1.047e+01,9.793e+00,1.147e+01,1.138e+01,1.295e+01,1.330e+01,1.139e+01,1.017e+01,1.259e+01,1.231e+01,1.299e+01,1.333e+01,1.536e+01,1.382e+01,1.418e+01,1.208e+01,1.340e+01,1.446e+01,1.199e+01,1.209e+01,1.262e+01,1.380e+01,1.246e+01,1.316e+01,1.540e+01,1.170e+01,1.276e+01,1.480e+01,1.251e+01,1.287e+01,1.271e+01,1.539e+01,1.291e+01,1.335e+01,1.304e+01,1.330e+01,1.197e+01,1.451e+01,1.177e+01,1.153e+01,1.481e+01,1.375e+01,1.324e+01,1.216e+01,1.337e+01,1.293e+01,1.280e+01,1.235e+01,1.354e+01,1.402e+01,1.119e+01,1.376e+01,1.472e+01,1.116e+01,1.452e+01
2.259e-01,2.155e-01,5.200e-01,4.262e-01,6.826e-01,7.987e-01,9.298e-01,1.377e+00,1.808e+00,1.559e+00,2.950e+00,2.842e+00,3.733e+00,3.580e+00,3.120e+00,3.886e+00,3.640e+00,4.492e+00,3.782e+00,4.612e+00,4.254e+00,6.055e+00,4.918e+00,6.263e+00,4.415e+00,5.166e+00,7.350e+00,6.492e+00,6.498e+00,6.411e+00,6.601e+00,8.261e+00,7.886e+00,5.944e+00,7.904e+00,7.830e+00,8.485e+00,9.815e+00,9.022e+00,6.994e+00,8.265e+00,8.401e+00,1.047e+01,1.003e+01,9.670e+00,9.212e+00,1.089e+01,1.104e+01,1.016e+01,8.841e+00,9.870e+00,1.162e+01,1.198e+01,1.228e+01,1.480e+01,1.336e+01,1.215e+01,1.108e+01,1.232e+01,1.403e+01,1.243e+01,1.166e+01,1.220e+01,1.173e+01,1.133e+01,1.153e+01,1.388e+01,1.119e+01,1.282e+01,1.196e+01,1.145e+01,1.310e+01,1.257e+01,1.374e+01,1.220e+01,1.185e+01,1.081e+01,1.238e+01,1.210e+01,1.415e+01,9.272e+00,1.227e+01,1.305e+01,1.240e+01,1.260e+01,1.305e+01,1.188e+01,1.252e+01,1.322e+01,1.220e+01,1.217e+01,1.091e+01,1.069e+01,1.272e+01,1.385e+01,9.720e+00,1.346e+01
3.806e-01,3.643e-01,1.322e+00,1.029e+00,1.757e+00,1.848e+00,1.688e+00,1.714e+00,2.632e+00,2.385e+00,2.858e+00,3.865e+00,3.739e+00,3.074e+00,3.957e+00,3.846e+00,4.411e+00,5.163e+00,4.528e+00,5.285e+00,4.823e+00,6.300e+00,5.210e+00,6.698e+00,6.405e+00,6.935e+00,8.818e+00,8.298e+00,7.643e+00,8.139e+00,7.763e+00,9.501e+00,9.659e+00,7.970e+00,1.131e+01,1.064e+01,1.075e+01,1.146e+01,1.239e+01,1.003e+01,1.039e+01,1.143e+01,1.287e+01,1.279e+01,1.274e+01,1.206e+01,1.346e+01,1.308e+01,1.227e+01,1.126e+01,1.214e+01,1.399e+01,1.411e+01,1.461e+01,1.792e+01,1.690e+01,1.555e+01,1.431e+01,1.494e+01,1.601e+01,1.482e+01,1.414e+01,1.450e+01,1.668e+01,1.465e+01,1.496e+01,1.836e+01,1.525e+01,1.693e+01,1.571e+01,1.559e+01,1.629e+01,1.429e+01,1.629e+01,1.527e+01,1.446e+01,1.300e+01,1.496e+01,1.431e+01,1.672e+01,1.276e+01,1.531e+01,1.588e+01,1.550e+01,1.618e+01,1.739e+01,1.540e+01,1.530e+01,1.466e+01,1.380e+01,1.579e+01,1.526e+01,1.519e+01,1.607e+01,1.734e+01,1.384e+01,1.490e+01
1.314e-01,2.589e-01,1.117e+00,8.624e-01,1.585e+00,1.344e+00,1.285e+00,2.001e+00,3.036e+00,2.790e+00,4.222e+00,4.179e+00,4.300e+00,3.395e+00,4.120e+00,4.520e+00,5.188e+00,4.735e+00,5.334e+00,6.004e+00,5.669e+00,7.334e+00,5.743e+00,8.275e+00,5.606e+00,7.673e+00,9.700e+00,9.327e+00,8.780e+00,1.011e+01,9.717e+00,1.008e+01,8.956e+00,7.140e+00,1.110e+01,9.894e+00,1.069e+01,1.064e+01,1.094e+01,1.053e+01,1.029e+01,1.199e+01,1.256e+01,1.291e+01,1.213e+01,1.118e+01,1.247e+01,1.172e+01,1.200e+01,1.021e+01,1.281e+01,1.320e+01,1.276e+01,1.405e+01,1.642e+01,1.642e+01,1.511e+01,1.293e+01,1.443e+01,1.505e+01,1.276e+01,1.357e+01,1.371e+01,1.475e+01,1.401e+01,1.399e+01,1.733e+01,1.501e+01,1.478e+01,1.533e+01,1.503e+01,1.394e+01,1.305e+01,1.692e+01,1.379e+01,1.524e+01,1.434e+01,1.410e+01,1.328e+01,1.627e+01,1.209e+01,1.404e+01,1.407e+01,1.492e+01,1.402e+01,1.627e+01,1.430e+01,1.459e+01,1.455e+01,1.430e+01,1.456e+01,1.445e+01,1.358e+01,1.577e+01,1.710e+01,1.234e+01,1.396e+01
1.489e-01,2.303e-01,9.407e-01,5.752e-01,1.189e+00,1.401e+00,1.268e+00,1.175e+00,1.832e+00,1.449e+00,2.279e+00,3.148e+00,3.174e+00,2.643e+00,3.439e+00,2.857e+00,3.528e+00,3.762e+00,3.330e+00,4.559e+00,4.278e+00,5.029e+00,4.630e+00,6.194e+00,5.741e+00,6.177e+00,7.328e+00,6.981e+00,6.729e+00,7.339e+00,6.966e+00,8.393e+00,7.646e+00,6.984e+00,9.364e+00,9.032e+00,9.217e+00,1.023e+01,1.087e+01,8.494e+00,7.298e+00,8.909e+00,1.052e+01,1.121e+01,1.053e+01,9.817e+00,1.205e+01,1.072e+01,1.009e+01,9.748e+00,1.032e+01,1.287e+01,1.260e+01,1.288e+01,1.431e+01,1.376e+01,1.457e+01,1.258e+01,1.310e+01,1.425e+01,1.366e+01,1.230e+01,1.253e+01,1.458e+01,1.245e+01,1.393e+01,1.511e+01,1.342e+01,1.423e+01,1.302e+01,1.290e+01,1.483e+01,1.269e+01,1.640e+01,1.293e+01,1.307e+01,1.255e+01,1.415e+01,1.303e+01,1.483e+01,1.164e+01,1.318e+01,1.286e+01,1.367e+01,1.471e+01,1.416e+01,1.259e+01,1.303e+01,1.392e+01,1.261e+01,1.360e+01,1.239e+01,1.283e+01,1.489e+01,1.466e+01,1.218e+01,1.311e+01
1.820e-01,2.369e-01,8.057e-01,6.139e-01,1.042e+00,1.545e+00,1.191e+00,1.592e+00,2.770e+00,2.549e+00,2.751e+00,2.888e+00,2.693e+00,1.992e+00,2.173e+00,3.149e+00,3.012e+00,4.144e+00,3.753e+00,4.298e+00,2.835e+00,4.656e+00,3.717e+00,6.412e+00,4.608e+00,4.548e+00,6.826e+00,6.846e+00,5.426e+00,7.026e+00,5.480e+00,8.530e+00,9.439e+00,6.705e+00,9.078e+00,9.365e+00,1.002e+01,1.141e+01,1.050e+01,8.882e+00,9.695e+00,1.091e+01,1.173e+01,1.098e+01,1.093e+01,1.053e+01,1.179e+01,1.098e+01,1.071e+01,1.021e+01,1.296e+01,1.312e+01,1.324e+01,1.336e+01,1.459e+01,1.392e+01,1.435e+01,1.238e+01,1.285e+01,1.419e+01,1.458e+01,1.430e+01,1.279e+01,1.444e+01,1.476e+01,1.443e+01,1.525e+01,1.560e+01,1.509e+01,1.590e+01,1.439e+01,1.445e+01,1.295e+01,1.450e+01,1.259e+01,1.322e+01,1.183e+01,1.359e+01,1.410e+01,1.603e+01,1.127e+01,1.379e+01,1.328e+01,1.498e+01,1.408e+01,1.477e+01,1.375e+01,1.535e+01,1.438e+01,1.391e+01,1.392e+01,1.272e+01,1.241e+01,1.395e+01,1.561e+01,1.141e+01,1.551e+01
3.548e-01,2.926e-01,6.685e-01,9.159e-01,1.247e+00,1.129e+00,1.239e+00,1.843e+00,2.784e+00,2.648e+00,2.922e+00,3.320e+00,3.380e+00,2.116e+00,2.678e+00,3.380e+00,3.314e+00,3.663e+00,4.058e+00,5.227e+00,3.506e+00,4.909e+00,4.451e+00,6.355e+00,4.590e+00,4.582e+00,5.956e+00,5.898e+00,5.913e+00,7.334e+00,5.618e+00,8.533e+00,7.802e+00,5.977e+00,9.129e+00,8.440e+00,9.339e+00,1.028e+01,9.597e+00,8.341e+00,8.224e+00,9.562e+00,1.044e+01,1.034e+01,1.022e+01,9.831e+00,1.024e+01,1.160e+01,1.014e+01,7.506e+00,1.005e+01,1.013e+01,1.219e+01,1.171e+01,1.276e+01,1.191e+01,1.300e+01,1.082e+01,1.133e+01,1.314e+01,1.267e+01,1.289e+01,1.097e+01,1.442e+01,1.154e+01,1.295e+01,1.446e+01,1.300e+01,1.284e+01,1.367e+01,1.323e+01,1.222e+01,1.318e+01,1.466e+01,1.255e+01,1.344e+01,1.156e+01,1.239e+01,1.342e+01,1.466e+01,1.125e+01,1.188e+01,1.111e+01,1.290e+01,1.395e+01,1.322e+01,1.278e+01,1.330e+01,1.078e+01,1.255e+01,1.336e+01,1.199e+01,1.162e+01,1.285e+01,1.438e+01,1.047e+01,1.388e+01
6.369e-01,5.549e-01,1.649e+00,1.446e+00,2.225e+00,1.645e+00,1.997e+00,2.327e+00,3.015e+00,2.870e+00,3.932e+00,4.797e+00,4.346e+00,3.472e+00,4.428e+00,3.999e+00,4.348e+00,4.045e+00,4.264e+00,4.592e+00,5.662e+00,6.293e+00,6.021e+00,6.547e+00,5.744e+00,6.411e+00,7.788e+00,7.063e+00,8.033e+00,7.594e+00,6.651e+00,8.009e+00,9.401e+00,7.224e+00,1.007e+01,1.014e+01,1.148e+01,1.208e+01,1.208e+01,1.106e+01,1.018e+01,1.087e+01,1.227e+01,1.309e+01,1.233e+01,1.161e+01,1.360e+01,1.323e+01,1.181e+01,1.149e+01,1.442e+01,1.274e+01,1.376e+01,1.470e+01,1.549e+01,1.447e+01,1.646e+01,1.439e+01,1.556e+01,1.857e+01,1.608e+01,1.620e+01,1.578e+01,1.770e+01,1.557e+01,1.809e+01,1.731e+01,1.654e+01,1.674e+01,1.897e+01,1.548e+01,1.648e+01,1.423e+01,1.828e+01,1.658e+01,1.574e+01,1.497e+01,1.728e+01,1.514e+01,1.735e+01,1.351e+01,1.576e+01,1.531e+01,1.782e+01,1.701e+01,1.695e+01,1.677e+01,1.779e+01,1.703e+01,1.427e+01,1.733e+01,1.599e+01,1.418e+01,1.675e+01,1.681e+01,1.506e+01,1.775e+01
2.100e-01,2.142e-01,5.297e-01,5.688e-01,8.584e-01,1.183e+00,1.146e+00,1.634e+00,2.208e+00,2.218e+00,2.737e+00,3.262e+00,3.456e+00,2.412e+00,2.807e+00,3.131e+00,3.087e+00,4.230e+00,3.595e+00,4.542e+00,4.593e+00,5.419e+00,4.967e+00,5.974e+00,4.928e+00,5.739e+00,7.127e+00,6.728e+00,6.242e+00,6.774e+00,6.417e+00,8.247e+00,8.138e+00,6.887e+00,8.329e+00,8.770e+00,1.034e+01,9.696e+00,1.026e+01,9.147e+00,1.002e+01,1.028e+01,1.136e+01,1.125e+01,1.109e+01,1.103e+01,1.137e+01,1.253e+01,1.229e+01,1.003e+01,1.188e+01,1.169e+01,1.228e+01,1.279e+01,1.564e+01,1.474e+01,1.493e+01,1.220e+01,1.355e+01,1.416e+01,1.432e+01,1.441e+01,1.314e+01,1.675e+01,1.506e+01,1.481e+01,1.701e+01,1.528e+01,1.480e+01,1.627e+01,1.499e+01,1.601e+01,1.364e+01,1.685e+01,1.371e+01,1.628e+01,1.386e+01,1.410e+01,1.540e+01,1.598e+01,1.246e+01,1.446e+01,1.548e+01,1.488e+01,1.576e+01,1.661e+01,1.500e+01,1.394e+01,1.314e+01,1.397e+01,1.435e+01,1.548e+01,1.457e+01,1.518e+01,1.635e+01,1.280e+01,1.437e+01
5.326e-01,3.600e-01,6.579e-01,8.515e-01,9.322e-01,1.163e+00,1.247e+00,1.744e+00,2.348e+00,2.668e+00,3.416e+00,3.710e+00,4.374e+00,3.279e+00,3.049e+00,3.732e+00,3.156e+00,5.136e+00,3.832e+00,4.094e+00,4.438e+00,5.661e+00,4.130e+00,5.906e+00,4.661e+00,5.293e+00,6.438e+00,6.248e+00,6.433e+00,6.242e+00,6.622e+00,8.725e+00,8.674e+00,6.202e+00,7.994e+00,8.713e+00,1.088e+01,1.111e+01,9.960e+00,9.145e+00,1.030e+01,9.246e+00,1.099e+01,1.090e+01,1.093e+01,1.147e+01,1.130e+01,1.240e+01,1.106e+01,1.013e+01,1.279e+01,1.148e+01,1.254e+01,1.221e+01,1.477e+01,1.391e+01,1.568e+01,1.258e+01,1.238e+01,1.444e+01,1.300e+01,1.404e+01,1.301e+01,1.637e+01,1.384e+01,1.540e+01,1.482e+01,1.464e+01,1.439e+01,1.695e+01,1.342e+01,1.556e+01,1.476e+01,1.607e+01,1.296e+01,1.397e+01,1.361e+01,1.497e+01,1.437e+01,1.581e+01,1.266e+01,1.432e+01,1.394e+01,1.393e+01,1.341e+01,1.646e+01,1.203e+01,1.438e+01,1.382e+01,1.289e+01,1.492e+01,1.460e+01,1.207e+01,1.465e+01,1.571e+01,1.256e+01,1.508e+01
7.306e-01,5.670e-01,1.517e+00,1.164e+00,1.610e+00,1.860e+00,1.912e+00,1.908e+00,2.413e+00,2.758e+00,3.513e+00,4.004e+00,4.776e+00,2.920e+00,3.839e+00,4.043e+00,3.734e+00,5.326e+00,4.043e+00,5.516e+00,4.142e+00,6.019e+00,5.114e+00,7.547e+00,5.945e+00,7.053e+00,7.791e+00,8.129e+00,7.791e+00,6.914e+00,7.027e+00,8.786e+00,8.968e+00,8.120e+00,1.016e+01,1.105e+01,1.107e+01,1.168e+01,1.203e+01,8.954e+00,9.860e+00,1.160e+01,1.306e+01,1.324e+01,1.272e+01,1.307e+01,1.281e+01,1.328e+01,1.395e+01,1.159e+01,1.326e+01,1.427e+01,1.548e+01,1.501e+01,1.803e+01,1.672e+01,1.700e+01,1.543e+01,1.721e+01,1.691e+01,1.878e+01,1.704e+01,1.855e+01,1.971e+01,1.638e+01,1.925e+01,2.015e+01,1.863e+01,1.935e+01,1.952e+01,1.741e+01,1.829e+01,1.627e+01,2.051e+01,1.744e+01,1.786e+01,1.581e+01,1.913e+01,1.881e+01,2.023e+01,1.598e+01,1.867e+01,1.831e+01,1.929e+01,2.001e+01,1.995e+01,1.733e+01,1.910e+01,1.792e+01,1.780e+01,1.753e+01,1.817e+01,1.646e+01,1.876e+01,2.006e+01,1.578e+01,1.833e+01
4.256e-01,2.985e-01,9.392e-01,9.681e-01,1.443e+00,1.339e+00,1.342e+00,1.845e+00,2.658e+00,2.551e+00,3.223e+00,3.942e+00,4.054e+00,3.255e+00,3.972e+00,4.020e+00,4.215e+00,4.452e+00,3.387e+00,4.808e+00,4.572e+00,5.888e+00,4.643e+00,5.900e+00,5.080e+00,5.918e+00,7.328e+00,7.246e+00,6.982e+00,7.495e+00,7.166e+00,8.677e+00,8.779e+00,7.046e+00,9.523e+00,9.513e+00,1.176e+01,1.084e+01,1.140e+01,9.567e+00,9.402e+00,1.077e+01,1.204e+01,1.294e+01,1.089e+01,1.113e+01,1.216e+01,1.296e+01,1.222e+01,9.191e+00,1.415e+01,1.273e+01,1.416e+01,1.444e+01,1.749e+01,1.531e+01,1.498e+01,1.354e+01,1.435e+01,1.526e+01,1.447e+01,1.471e+01,1.481e+01,1.587e+01,1.680e+01,1.485e+01,1.910e+01,1.813e+01,1.779e+01,1.882e+01,1.696e+01,1.543e+01,1.446e+01,1.763e+01,1.686e+01,1.598e+01,1.445e+01,1.599e+01,1.678e+01,1.794e+01,1.261e+01,1.572e+01,1.620e+01,1.593e+01,1.774e+01,1.790e+01,1.621e+01,1.733e+01,1.505e+01,1.634e+01,1.677e+01,1.573e+01,1.464e+01,1.770e+01,1.669e+01,1.475e+01,1.611e+01
1.058e-01,1.805e-01,6.146e-01,5.593e-01,1.085e+00,1.519e+00,1.422e+00,1.753e+00,2.459e+00,2.419e+00,3.102e+00,4.293e+00,4.684e+00,2.952e+00,3.503e+00,4.063e+00,3.518e+00,4.715e+00,3.624e+00,5.861e+00,5.468e+00,5.809e+00,5.496e+00,7.700e+00,5.326e+00,5.969e+00,8.977e+00,7.875e+00,8.391e+00,8.181e+00,8.177e+00,9.517e+00,9.643e+00,7.763e+00,1.004e+01,1.055e+01,1.077e+01,1.150e+01,1.124e+01,1.010e+01,9.122e+00,1.171e+01,1.236e+01,1.217e+01,1.273e+01,1.282e+01,1.354e+01,1.212e+01,1.150e+01,1.048e+01,1.235e+01,1.255e+01,1.392e+01,1.542e+01,1.689e+01,1.666e+01,1.584e+01,1.396e+01,1.508e+01,1.737e+01,1.656e+01,1.739e+01,1.709e+01,1.865e+01,1.733e+01,1.846e+01,1.966e+01,1.804e+01,1.888e+01,1.871e+01,1.741e+01,1.717e+01,1.536e+01,2.133e+01,1.833e+01,1.656e+01,1.552e+01,1.899e+01,1.586e+01,1.971e+01,1.497e+01,1.664e+01,1.624e+01,1.848e+01,1.810e+01,1.919e+01,1.645e+01,1.839e+01,1.859e+01,1.653e+01,1.838e+01,1.768e+01,1.557e+01,1.837e+01,1.886e+01,1.610e+01,1.675e+01
4.572e-01,4.674e-01,1.090e+00,7.739e-01,1.044e+00,1.052e+00,1.257e+00,1.174e+00,1.727e+00,1.971e+00,3.414e+00,3.700e+00,3.632e+00,3.380e+00,3.947e+00,3.921e+00,4.490e+00,4.643e+00,4.494e+00,5.260e+00,4.925e+00,7.315e+00,5.599e+00,7.276e+00,5.624e+00,6.258e+00,8.401e+00,7.969e+00,8.431e+00,8.663e+00,8.206e+00,9.873e+00,1.065e+01,7.441e+00,1.124e+01,1.122e+01,1.162e+01,1.290e+01,1.253e+01,1.160e+01,1.144e+01,1.301e+01,1.352e+01,1.399e+01,1.480e+01,1.308e+01,1.544e+01,1.417e+01,1.320e+01,1.225e+01,1.375e+01,1.555e+01,1.600e+01,1.608e+01,1.964e+01,1.795e+01,1.705e+01,1.478e+01,1.727e+01,1.836e+01,1.739e+01,1.723e+01,1.760e+01,1.787e+01,1.908e+01,1.817e+01,2.035e+01,1.841e+01,1.993e+01,1.999e+01,1.805e+01,1.930e+01,1.839e+01,2.192e+01,2.042e+01,1.852e+01,1.715e+01,1.925e+01,1.896e+01,1.919e+01,1.634e+01,1.818e+01,1.828e+01,2.007e+01,1.979e+01,2.007e+01,1.898e+01,1.995e+01,1.909e+01,1.916e+01,1.940e+01,1.848e+01,1.536e+01,1.950e+01,2.162e+01,1.662e+01,1.932e+01
5.456e-01,4.560e-01,9.214e-01,9.691e-01,1.259e+00,1.753e+00,1.865e+00,1.969e+00,2.555e+00,3.044e+00,3.789e+00,4.996e+00,4.806e+00,3.300e+00,4.194e+00,4.251e+00,4.126e+00,5.125e+00,4.138e+00,5.753e+00,5.498e+00,6.565e+00,5.529e+00,6.920e+00,6.102e+00,6.254e+00,7.917e+00,8.054e+00,8.322e+00,8.563e+00,7.696e+00,8.346e+00,9.819e+00,7.392e+00,1.045e+01,8.881e+00,1.086e+01,1.115e+01,1.119e+01,1.036e+01,9.844e+00,1.228e+01,1.302e+01,1.220e+01,1.219e+01,1.276e+01,1.243e+01,1.349e+01,1.238e+01,1.067e+01,1.344e+01,1.305e+01,1.355e+01,1.475e+01,1.606e+01,1.639e+01,1.562e+01,1.410e+01,1.584e+01,1.677e+01,1.457e+01,1.658e+01,1.587e+01,1.880e+01,1.678e+01,1.674e+01,1.833e+01,1.729e+01,1.821e+01,2.001e+01,1.906e+01,1.620e+01,1.611e+01,1.942e+01,1.798e+01,1.669e+01,1.636e+01,1.733e+01,1.609e+01,1.849e+01,1.566e+01,1.609e+01,1.733e+01,1.787e+01,1.788e+01,1.916e+01,1.664e+01,1.773e+01,1.829e+01,1.829e+01,1.806e+01,1.701e+01,1.455e+01,1.803e+01,1.889e+01,1.531e+01,1.733e+01
2.350e-01,2.092e-01,1.142e+00,7.859e-01,1.465e+00,1.046e+00,1.019e+00,1.708e+00,2.198e+00,2.030e+00,3.333e+00,3.595e+00,3.196e+00,2.400e+00,3.676e+00,3.243e+00,3.959e+00,4.114e+00,4.542e+00,5.221e+00,5.029e+00,6.034e+00,5.219e+00,7.948e+00,5.001e+00,7.186e+00,8.175e+00,7.773e+00,7.549e+00,7.922e+00,8.564e+00,9.400e+00,8.846e+00,7.922e+00,9.798e+00,9.801e+00,1.019e+01,1.094e+01,1.081e+01,9.271e+00,9.670e+00,1.053e+01,1.112e+01,1.191e+01,1.208e+01,1.154e+01,1.266e+01,1.214e+01,1.047e+01,1.085e+01,1.136e+01,1.248e+01,1.284e+01,1.424e+01,1.542e+01,1.404e+01,1.441e+01,1.363e+01,1.409e+01,1.627e+01,1.465e+01,1.427e+01,1.559e+01,1.594e+01,1.507e+01,1.616e+01,1.757e+01,1.590e+01,1.724e+01,1.756e+01,1.480e+01,1.740e+01,1.662e+01,1.848e+01,1.650e+01,1.507e+01,1.454e+01,1.774e+01,1.595e+01,1.766e+01,1.456e+01,1.770e+01,1.724e+01,1.827e+01,1.770e+01,1.832e+01,1.614e+01,1.714e+01,1.852e+01,1.690e+01,1.848e+01,1.664e+01,1.375e+01,1.720e+01,1.780e+01,1.525e+01,1.701e+01
7.778e-01,4.720e-01,1.432e+00,1.448e+00,2.018e+00,1.672e+00,1.757e+00,1.895e+00,2.530e+00,2.569e+00,3.407e+00,4.058e+00,4.324e+00,3.147e+00,4.504e+00,2.930e+00,3.535e+00,4.831e+00,4.698e+00,5.562e+00,5.203e+00,5.775e+00,5.354e+00,6.742e+00,5.934e+00,7.000e+00,7.940e+00,7.466e+00,7.924e+00,8.002e+00,8.034e+00,9.408e+00,8.343e+00,7.109e+00,1.029e+01,1.023e+01,1.037e+01,1.157e+01,1.278e+01,9.728e+00,9.399e+00,1.065e+01,1.197e+01,1.362e+01,1.276e+01,1.200e+01,1.240e+01,1.425e+01,1.275e+01,1.070e+01,1.209e+01,1.451e+01,1.462e+01,1.530e+01,1.630e+01,1.532e+01,1.698e+01,1.416e+01,1.467e+01,1.628e+01,1.588e+01,1.554e+01,1.540e+01,1.839e+01,1.608e+01,1.768e+01,1.822e+01,1.698e+01,1.758e+01,1.927e+01,1.741e+01,1.866e+01,1.774e+01,2.048e+01,1.722e+01,1.800e+01,1.589e+01,1.905e+01,1.796e+01,1.875e+01,1.531e+01,1.839e+01,1.607e+01,1.963e+01,1.883e+01,2.050e+01,1.762e+01,1.741e+01,1.696e+01,1.826e+01,1.823e+01,1.711e+01,1.521e+01,1.936e+01,2.057e+01,1.560e+01,1.782e+01
7.231e-01,3.633e-01,9.953e-01,1.257e+00,1.640e+00,1.625e+00,1.631e+00,2.094e+00,2.708e+00,3.047e+00,3.821e+00,4.739e+00,5.377e+00,3.636e+00,4.381e+00,3.676e+00,3.060e+00,4.908e+00,3.418e+00,5.545e+00,5.636e+00,5.752e+00,5.653e+00,6.001e+00,4.832e+00,5.800e+00,7.191e+00,6.300e+00,7.772e+00,5.975e+00,6.494e+00,7.577e+00,8.835e+00,5.983e+00,8.466e+00,7.977e+00,1.039e+01,1.050e+01,1.112e+01,7.826e+00,8.670e+00,1.014e+01,1.108e+01,1.131e+01,1.106e+01,1.232e+01,1.195e+01,1.364e+01,1.203e+01,1.093e+01,1.252e+01,1.123e+01,1.354e+01,1.393e+01,1.570e+01,1.491e+01,1.607e+01,1.524e+01,1.432e+01,1.604e+01,1.509e+01,1.703e+01,1.617e+01,1.886e+01,1.587e+01,1.647e+01,1.889e+01,1.694e+01,1.845e+01,2.117e+01,1.775e+01,1.781e+01,1.756e+01,1.973e+01,2.002e+01,1.661e+01,1.498e+01,1.894e+01,1.710e+01,1.982e+01,1.654e+01,1.662e+01,1.738e+01,1.816e+01,1.938e+01,2.142e+01,1.655e+01,1.852e+01,1.841e+01,1.807e+01,1.860e+01,1.890e+01,1.501e+01,1.743e+01,1.891e+01,1.511e+01,1.772e+01
6.981e-01,4.770e-01,1.143e+00,1.289e+00,1.582e+00,1.231e+00,1.371e+00,1.691e+00,2.613e+00,2.935e+00,3.528e+00,3.627e+00,3.770e+00,2.860e+00,3.812e+00,3.777e+00,3.995e+00,3.893e+00,3.971e+00,4.810e+00,3.459e+00,5.712e+00,4.225e+00,5.459e+00,4.022e+00,5.019e+00,6.880e+00,6.683e+00,6.710e+00,7.554e+00,6.929e+00,8.262e+00,9.231e+00,6.469e+00,9.603e+00,8.992e+00,1.128e+01,1.100e+01,1.077e+01,1.004e+01,1.043e+01,1.082e+01,1.327e+01,1.301e+01,1.259e+01,1.182e+01,1.276e+01,1.320e+01,1.177e+01,1.093e+01,1.374e+01,1.346e+01,1.495e+01,1.594e+01,1.835e+01,1.618e+01,1.656e+01,1.633e+01,1.653e+01,1.894e+01,1.588e+01,1.846e+01,1.802e+01,1.920e+01,1.742e+01,1.792e+01,2.134e+01,1.933e+01,2.002e+01,2.139e+01,1.893e+01,1.961e+01,1.888e+01,2.093e+01,1.999e+01,1.970e+01,1.719e+01,2.017e+01,1.861e+01,2.094e+01,1.718e+01,2.085e+01,1.792e+01,1.982e+01,2.092e+01,2.143e+01,1.861e+01,2.028e+01,1.941e+01,1.924e+01,1.963e+01,1.888e+01,1.727e+01,2.049e+01,2.116e+01,1.711e+01,2.032e+01
4.542e-01,4.533e-01,9.140e-01,7.232e-01,9.438e-01,1.123e+00,1.419e+00,1.351e+00,1.551e+00,1.732e+00,2.518e+00,2.659e+00,2.922e+00,2.286e+00,2.701e+00,2.544e+00,2.821e+00,3.916e+00,3.588e+00,4.313e+00,4.087e+00,5.082e+00,4.929e+00,5.743e+00,4.364e+00,5.135e+00,6.009e+00,5.787e+00,7.014e+00,5.743e+00,6.507e+00,7.436e+00,8.454e+00,6.715e+00,7.842e+00,8.282e+00,9.554e+00,9.457e+00,9.505e+00,7.359e+00,8.450e+00,9.054e+00,1.038e+01,1.070e+01,1.058e+01,1.006e+01,9.277e+00,1.173e+01,1.036e+01,8.693e+00,1.030e+01,1.109e+01,1.157e+01,1.142e+01,1.377e+01,1.318e+01,1.291e+01,1.210e+01,1.184e+01,1.384e+01,1.286e+01,1.375e+01,1.422e+01,1.553e+01,1.542e+01,1.529e+01,1.693e+01,1.504e+01,1.650e+01,1.855e+01,1.743e+01,1.692e+01,1.543e+01,1.737e+01,1.871e+01,1.731e+01,1.619e+01,1.818e+01,1.689e+01,1.774e+01,1.545e+01,1.638e+01,1.746e+01,1.796e+01,1.905e+01,1.947e+01,1.628e+01,1.660e+01,1.725e+01,1.687e+01,1.773e+01,1.792e+01,1.550e+01,1.849e+01,1.817e+01,1.602e+01,1.688e+01
1.062e-01,2.289e-01,8.823e-01,6.895e-01,1.303e+00,1.286e+00,1.246e+00,1.889e+00,2.826e+00,2.477e+00,3.600e+00,3.994e+00,4.321e+00,3.009e+00,3.485e+00,4.284e+00,4.295e+00,4.538e+00,4.930e+00,6.040e+00,5.456e+00,6.783e+00,5.560e+00,7.997e+00,5.773e+00,6.387e+00,9.405e+00,8.097e+00,8.730e+00,9.374e+00,8.886e+00,1.119e+01,1.095e+01,7.748e+00,1.114e+01,1.214e+01,1.371e+01,1.463e+01,1.260e+01,1.117e+01,1.202e+01,1.247e+01,1.545e+01,1.444e+01,1.511e+01,1.438e+01,1.476e+01,1.458e+01,1.421e+01,1.194e+01,1.546e+01,1.552e+01,1.702e+01,1.707e+01,1.889e+01,1.756e+01,1.787e+01,1.542e+01,1.731e+01,1.732e+01,1.764e+01,1.786e+01,1.744e+01,1.910e+01,1.785e+01,1.905e+01,1.968e+01,1.925e+01,1.892e+01,2.078e+01,2.046e+01,2.012e+01,2.024e+01,2.353e+01,2.065e+01,2.173e+01,1.944e+01,2.182e+01,2.156e+01,2.325e+01,1.709e+01,2.084e+01,2.017e+01,2.044e+01,2.205e+01,2.368e+01,1.934e+01,2.077e+01,2.089e+01,2.073e+01,2.083e+01,2.090e+01,1.738e+01,2.187e+01,2.224e+01,1.816e+01,2.049e+01
1.394e-01,1.691e-01,5.202e-01,4.412e-01,8.027e-01,1.233e+00,1.137e+00,1.383e+00,1.979e+00,2.046e+00,3.165e+00,3.463e+00,4.475e+00,2.879e+00,3.553e+00,3.471e+00,3.218e+00,4.863e+00,3.710e+00,5.255e+00,4.174e+00,5.366e+00,4.474e+00,6.886e+00,5.785e+00,5.605e+00,7.837e+00,7.730e+00,7.705e+00,8.326e+00,7.776e+00,1.035e+01,9.284e+00,8.089e+00,9.913e+00,1.029e+01,1.041e+01,1.158e+01,1.180e+01,9.615e+00,9.070e+00,1.181e+01,1.302e+01,1.315e+01,1.279e+01,1.332e+01,1.399e+01,1.353e+01,1.237e+01,1.110e+01,1.306e+01,1.299e+01,1.558e+01,1.503e+01,1.835e+01,1.675e+01,1.683e+01,1.480e+01,1.467e+01,1.716e+01,1.711e+01,1.569e+01,1.605e+01,1.863e+01,1.806e+01,1.732e+01,2.023e+01,1.761e+01,1.809e+01,2.082e+01,1.964e+01,1.928e+01,1.880e+01,2.192e+01,1.968e+01,1.969e+01,1.719e+01,2.047e+01,1.924e+01,2.048e+01,1.641e+01,1.898e+01,1.899e+01,2.100e+01,2.173e+01,2.229e+01,1.720e+01,2.015e+01,2.044e+01,2.061e+01,2.044e+01,1.918e+01,1.698e+01,2.136e+01,2.127e+01,1.735e+01,1.854e+01
3.460e-01,2.628e-01,9.000e-01,6.991e-01,1.033e+00,7.871e-01,8.215e-01,1.526e+00,2.141e+00,1.965e+00,2.907e+00,2.837e+00,3.008e+00,2.544e+00,2.991e+00,4.032e+00,4.334e+00,3.731e+00,3.701e+00,4.893e+00,3.363e+00,6.038e+00,4.291e+00,6.396e+00,4.117e+00,6.162e+00,6.944e+00,7.023e+00,5.769e+00,6.780e+00,6.642e+00,8.535e+00,6.995e+00,6.326e+00,8.652e+00,8.769e+00,9.256e+00,9.271e+00,8.472e+00,8.906e+00,8.666e+00,8.193e+00,1.020e+01,1.108e+01,1.043e+01,9.203e+00,1.054e+01,1.032e+01,1.021e+01,9.365e+00,1.087e+01,1.138e+01,1.205e+01,1.254e+01,1.569e+01,1.442e+01,1.271e+01,1.216e+01,1.326e+01,1.446e+01,1.305e+01,1.325e+01,1.382e+01,1.393e+01,1.401e+01,1.385e+01,1.708e+01,1.519e+01,1.655e+01,1.695e+01,1.612e+01,1.693e+01,1.624e+01,1.978e+01,1.721e+01,1.855e+01,1.582e+01,1.818e+01,1.832e+01,1.847e+01,1.580e+01,1.854e+01,1.692e+01,1.807e+01,1.804e+01,2.098e+01,1.684e+01,1.643e+01,1.829e+01,1.867e+01,1.795e+01,1.676e+01,1.505e+01,1.886e+01,2.003e+01,1.513e+01,1.786e+01
3.315e-01,2.971e-01,8.354e-01,9.861e-01,1.502e+00,1.544e+00,1.507e+00,1.818e+00,2.919e+00,2.948e+00,3.840e+00,4.066e+00,4.604e+00,3.040e+00,3.961e+00,3.310e+00,3.244e+00,3.941e+00,3.574e+00,4.079e+00,4.509e+00,4.607e+00,4.488e+00,5.512e+00,4.713e+00,4.919e+00,6.560e+00,6.269e+00,6.105e+00,6.527e+00,5.705e+00,7.124e+00,7.295e+00,5.006e+00,8.195e+00,7.332e+00,8.563e+00,9.432e+00,1.024e+01,8.180e+00,7.902e+00,9.893e+00,1.024e+01,9.907e+00,9.805e+00,1.010e+01,1.119e+01,1.086e+01,9.677e+00,8.907e+00,1.190e+01,1.015e+01,1.271e+01,1.266e+01,1.360e+01,1.188e+01,1.376e+01,1.211e+01,1.238e+01,1.350e+01,1.320e+01,1.469e+01,1.357e+01,1.593e+01,1.483e+01,1.438e+01,1.586e+01,1.534e+01,1.574e+01,2.014e+01,1.801e+01,1.573e+01,1.702e+01,1.947e+01,1.879e+01,1.813e+01,1.635e+01,1.946e+01,1.807e+01,1.792e+01,1.563e+01,1.745e+01,1.821e+01,1.895e+01,1.837e+01,2.074e+01,1.638e+01,1.898e+01,1.907e+01,1.824e+01,1.797e+01,1.809e+01,1.538e+01,1.836e+01,1.889e+01,1.486e+01,1.871e+01
2.755e-01,3.230e-01,9.848e-01,9.935e-01,1.564e+00,1.868e+00,1.669e+00,2.064e+00,3.187e+00,3.239e+00,3.085e+00,3.719e+00,3.868e+00,2.189e+00,2.771e+00,3.659e+00,3.428e+00,4.261e+00,3.758e+00,4.715e+00,3.916e+00,5.081e+00,4.322e+00,6.139e+00,5.030e+00,4.670e+00,6.880e+00,7.061e+00,6.521e+00,7.124e+00,6.203e+00,7.420e+00,8.455e+00,7.095e+00,8.199e+00,8.441e+00,1.118e+01,9.314e+00,9.190e+00,8.458e+00,9.384e+00,8.606e+00,1.076e+01,9.486e+00,1.158e+01,1.006e+01,1.316e+01,1.088e+01,1.104e+01,1.027e+01,1.238e+01,1.099e+01,1.318e+01,1.299e+01,1.566e+01,1.422e+01,1.568e+01,1.442e+01,1.397e+01,1.537e+01,1.583e+01,1.620e+01,1.586e+01,1.713e+01,1.730e+01,1.583e+01,1.802e+01,1.717e+01,1.781e+01,2.100e+01,1.856e+01,1.900e+01,1.842e+01,2.044e+01,1.931e+01,2.002e+01,1.688e+01,1.988e+01,1.983e+01,2.094e+01,1.738e+01,1.921e+01,1.892e+01,1.962e+01,2.081e+01,2.258e+01,1.853e+01,1.955e+01,2.058e+01,2.111e+01,2.036e+01,1.894e+01,1.702e+01,2.085e+01,2.073e+01,1.766e+01,1.910e+01
5.984e-01,4.789e-01,1.393e+00,1.185e+00,1.783e+00,1.848e+00,1.876e+00,1.855e+00,2.572e+00,2.464e+00,3.289e+00,4.315e+00,4.513e+00,3.593e+00,3.925e+00,3.829e+00,3.856e+00,4.544e+00,4.209e+00,5.149e+00,5.534e+00,5.980e+00,5.586e+00,6.733e+00,6.088e+00,6.799e+00,7.697e+00,7.158e+00,7.601e+00,7.501e+00,7.069e+00,9.240e+00,9.662e+00,7.241e+00,1.016e+01,1.026e+01,1.137e+01,1.315e+01,1.312e+01,1.047e+01,1.038e+01,1.133e+01,1.309e+01,1.294e+01,1.272e+01,1.292e+01,1.283e+01,1.312e+01,1.139e+01,1.080e+01,1.248e+01,1.325e+01,1.348e+01,1.403e+01,1.567e+01,1.555e+01,1.575e+01,1.561e+01,1.495e+01,1.658e+01,1.615e+01,1.709e+01,1.581e+01,1.931e+01,1.725e+01,1.880e+01,1.711e+01,1.808e+01,1.726e+01,2.074e+01,1.865e+01,1.794e+01,1.789e+01,2.177e+01,1.977e+01,1.920e+01,1.753e+01,2.135e+01,2.083e+01,2.230e+01,1.686e+01,2.023e+01,1.990e+01,2.097e+01,2.183e+01,2.266e+01,1.929e+01,2.189e+01,2.158e+01,1.956e+01,2.054e+01,2.004e+01,1.897e+01,2.094e+01,2.039e+01,1.741e+01,2.031e+01
8.675e-02,1.040e-01,1.550e-01,1.918e-01,3.534e-01,8.490e-01,8.548e-01,1.563e+00,2.006e+00,1.786e+00,2.365e+00,3.350e+00,2.814e+00,1.866e+00,2.476e+00,2.985e+00,2.693e+00,3.463e+00,2.956e+00,4.616e+00,2.975e+00,4.694e+00,4.024e+00,5.881e+00,4.117e+00,4.342e+00,6.532e+00,5.432e+00,5.377e+00,5.941e+00,5.247e+00,7.231e+00,7.661e+00,5.867e+00,7.557e+00,8.417e+00,8.648e+00,9.422e+00,8.105e+00,8.336e+00,8.395e+00,9.077e+00,9.961e+00,1.086e+01,1.146e+01,1.029e+01,1.178e+01,1.210e+01,1.002e+01,1.137e+01,1.157e+01,1.229e+01,1.203e+01,1.350e+01,1.503e+01,1.423e+01,1.382e+01,1.125e+01,1.285e+01,1.565e+01,1.565e+01,1.543e+01,1.418e+01,1.692e+01,1.589e+01,1.692e+01,1.683e+01,1.524e+01,1.758e+01,1.833e+01,1.768e+01,1.832e+01,1.789e+01,2.077e+01,2.043e+01,1.831e+01,1.612e+01,1.990e+01,1.725e+01,2.022e+01,1.866e+01,1.898e+01,1.837e+01,1.996e+01,2.017e+01,2.234e+01,1.658e+01,1.924e+01,2.144e+01,1.859e+01,2.120e+01,1.944e+01,1.742e+01,2.005e+01,2.090e+01,1.708e+01,1.974e+01
6.085e-01,4.578e-01,1.360e+00,1.269e+00,1.884e+00,1.504e+00,1.739e+00,2.337e+00,2.952e+00,2.893e+00,3.881e+00,4.333e+00,4.035e+00,3.136e+00,3.863e+00,3.688e+00,3.719e+00,4.456e+00,4.226e+00,4.327e+00,5.368e+00,5.541e+00,5.755e+00,6.846e+00,5.553e+00,6.811e+00,8.311e+00,7.785e+00,7.649e+00,8.349e+00,7.217e+00,9.136e+00,9.658e+00,7.613e+00,1.037e+01,1.023e+01,1.108e+01,1.078e+01,1.136e+01,1.046e+01,1.023e+01,1.140e+01,1.198e+01,1.199e+01,1.210e+01,1.048e+01,1.198e+01,1.244e+01,1.149e+01,1.057e+01,1.246e+01,1.188e+01,1.322e+01,1.313e+01,1.523e+01,1.461e+01,1.522e+01,1.321e+01,1.363e+01,1.565e+01,1.315e+01,1.525e+01,1.338e+01,1.661e+01,1.422e+01,1.549e+01,1.681e+01,1.516e+01,1.660e+01,1.866e+01,1.585e+01,1.659e+01,1.568e+01,1.858e+01,1.753e+01,1.675e+01,1.530e+01,1.779e+01,1.687e+01,1.889e+01,1.525e+01,1.681e+01,1.832e+01,1.980e+01,1.966e+01,2.089e+01,1.722e+01,1.726e+01,1.966e+01,1.696e+01,1.795e+01,1.676e+01,1.530e+01,1.873e+01,1.936e+01,1.642e+01,1.784e+01
1.201e-01,2.555e-01,5.734e-01,5.289e-01,9.562e-01,1.606e+00,1.542e+00,1.652e+00,2.460e+00,2.318e+00,2.466e+00,3.300e+00,3.742e+00,2.158e+00,2.459e+00,3.139e+00,2.573e+00,4.235e+00,3.236e+00,4.556e+00,3.622e+00,4.615e+00,4.690e+00,6.700e+00,5.825e+00,4.810e+00,6.848e+00,6.452e+00,6.497e+00,6.134e+00,5.345e+00,7.184e+00,7.379e+00,6.102e+00,8.483e+00,9.136e+00,9.672e+00,1.067e+01,1.021e+01,7.720e+00,7.882e+00,9.442e+00,1.086e+01,1.052e+01,1.116e+01,1.061e+01,1.183e+01,1.160e+01,1.132e+01,9.932e+00,1.246e+01,1.231e+01,1.409e+01,1.353e+01,1.614e+01,1.572e+01,1.406e+01,1.297e+01,1.373e+01,1.395e+01,1.566e+01,1.411e+01,1.430e+01,1.675e+01,1.659e+01,1.577e+01,1.831e+01,1.710e+01,1.805e+01,1.966e+01,1.782e+01,1.702e+01,1.726e+01,1.966e+01,1.790e+01,1.917e+01,1.650e+01,1.916e+01,2.076e+01,2.030e+01,1.845e+01,1.904e+01,2.074e+01,1.999e+01,2.126e+01,2.287e+01,1.908e+01,2.043e+01,2.105e+01,2.193e+01,2.113e+01,1.939e+01,1.741e+01,2.219e+01,2.096e+01,1.729e+01,1.932e+01
5.277e-01,4.771e-01,7.148e-01,9.102e-01,1.022e+00,1.030e+00,1.413e+00,1.127e+00,1.570e+00,1.945e+00,2.170e+00,2.636e+00,3.462e+00,2.633e+00,2.722e+00,2.743e+00,2.471e+00,3.465e+00,2.613e+00,3.373e+00,3.309e+00,4.609e+00,4.447e+00,4.116e+00,3.477e+00,3.718e+00,6.098e+00,5.881e+00,6.109e+00,5.985e+00,5.005e+00,6.921e+00,8.265e+00,5.716e+00,8.581e+00,7.777e+00,9.492e+00,8.042e+00,8.546e+00,7.267e+00,8.069e+00,9.087e+00,1.012e+01,8.290e+00,1.013e+01,9.591e+00,1.052e+01,1.004e+01,9.419e+00,8.503e+00,9.666e+00,1.036e+01,1.087e+01,1.103e+01,1.365e+01,1.318e+01,1.264e+01,1.193e+01,1.177e+01,1.430e+01,1.460e+01,1.486e+01,1.395e+01,1.590e+01,1.509e+01,1.535e+01,1.621e+01,1.529e+01,1.627e+01,1.993e+01,1.708e+01,1.519e+01,1.544e+01,1.744e+01,1.805e+01,1.838e+01,1.438e+01,1.955e+01,1.813e+01,2.041e+01,1.693e+01,1.923e+01,1.837e+01,1.926e+01,2.058e+01,2.348e+01,1.772e+01,1.992e+01,2.090e+01,2.008e+01,2.017e+01,2.029e+01,1.698e+01,2.100e+01,1.966e+01,1.851e+01,1.936e+01
3.151e-01,3.552e-01,1.138e+00,9.243e-01,1.459e+00,1.304e+00,1.240e+00,1.247e+00,2.269e+00,2.262e+00,2.808e+00,2.903e+00,3.394e+00,2.338e+00,2.794e+00,3.271e+00,3.258e+00,3.101e+00,3.101e+00,3.720e+00,4.219e+00,4.813e+00,4.562e+00,5.631e+00,4.478e+00,4.940e+00,7.147e+00,6.908e+00,7.180e+00,7.434e+00,6.790e+00,8.792e+00,9.177e+00,6.256e+00,9.458e+00,8.867e+00,1.154e+01,1.040e+01,9.495e+00,9.345e+00,9.247e+00,1.073e+01,1.261e+01,1.090e+01,1.239e+01,1.136e+01,1.237e+01,1.292e+01,1.111e+01,9.994e+00,1.121e+01,1.200e+01,1.300e+01,1.363e+01,1.567e+01,1.602e+01,1.389e+01,1.317e+01,1.273e+01,1.693e+01,1.474e+01,1.567e+01,1.476e+01,1.631e+01,1.700e+01,1.540e+01,1.749e+01,1.606e+01,1.666e+01,1.984e+01,1.766e+01,1.528e+01,1.711e+01,1.974e+01,1.879e+01,1.901e+01,1.614e+01,1.839e+01,1.775e+01,1.987e+01,1.637e+01,1.868e+01,1.827e+01,1.949e+01,2.130e+01,2.282e+01,2.009e+01,1.894e+01,2.120e+01,1.879e+01,1.981e+01,1.922e+01,1.839e+01,2.224e+01,1.967e+01,1.766e+01,1.870e+01
6.596e-02,5.731e-02,4.049e-01,6.131e-01,1.136e+00,1.307e+00,1.096e+00,1.836e+00,2.721e+00,2.382e+00,2.373e+00,3.086e+00,2.830e+00,2.460e+00,2.870e+00,3.416e+00,3.464e+00,3.995e+00,3.470e+00,5.055e+00,3.432e+00,5.208e+00,4.305e+00,5.408e+00,4.776e+00,4.300e+00,7.163e+00,6.598e+00,5.554e+00,7.615e+00,5.755e+00,7.931e+00,9.652e+00,7.177e+00,9.433e+00,9.255e+00,1.102e+01,1.116e+01,1.241e+01,9.724e+00,1.080e+01,1.027e+01,1.248e+01,1.130e+01,1.114e+01,1.103e+01,1.212e+01,1.156e+01,1.089e+01,9.841e+00,1.297e+01,1.151e+01,1.157e+01,1.333e+01,1.465e+01,1.327e+01,1.355e+01,1.412e+01,1.345e+01,1.481e+01,1.459e+01,1.560e+01,1.392e+01,1.650e+01,1.738e+01,1.549e+01,1.717e+01,1.700e+01,1.768e+01,2.022e+01,1.892e+01,1.674e+01,1.483e+01,1.894e+01,1.834e+01,1.802e+01,1.647e+01,1.876e+01,1.826e+01,2.121e+01,1.582e+01,1.974e+01,2.052e+01,1.984e+01,2.217e+01,2.375e+01,1.828e+01,2.128e+01,2.226e+01,2.176e+01,2.076e+01,1.966e+01,1.836e+01,2.197e+01,1.940e+01,1.850e+01,2.046e+01
5.113e-01,3.619e-01,1.117e+00,1.012e+00,1.485e+00,1.822e+00,1.649e+00,2.169e+00,3.060e+00,3.196e+00,4.066e+00,4.353e+00,4.381e+00,2.472e+00,3.446e+00,3.200e+00,2.812e+00,4.023e+00,3.590e+00,4.717e+00,3.650e+00,4.392e+00,4.094e+00,6.078e+00,4.833e+00,5.275e+00,6.354e+00,6.861e+00,6.750e+00,7.197e+00,5.642e+00,8.068e+00,7.723e+00,6.439e+00,8.827e+00,8.201e+00,9.034e+00,1.023e+01,1.042e+01,8.848e+00,7.399e+00,1.013e+01,1.013e+01,1.046e+01,1.071e+01,1.007e+01,1.214e+01,1.079e+01,9.412e+00,9.391e+00,1.154e+01,1.139e+01,1.277e+01,1.357e+01,1.388e+01,1.255e+01,1.442e+01,1.255e+01,1.325e+01,1.461e+01,1.444e+01,1.502e+01,1.365e+01,1.586e+01,1.597e+01,1.536e+01,1.646e+01,1.593e+01,1.703e+01,2.041e+01,1.744e+01,1.699e+01,1.728e+01,2.067e+01,1.881e+01,1.794e+01,1.635e+01,1.889e+01,1.917e+01,1.943e+01,1.776e+01,1.909e+01,1.955e+01,2.222e+01,2.091e+01,2.325e+01,1.865e+01,2.084e+01,2.233e+01,2.295e+01,2.145e+01,1.916e+01,1.768e+01,2.076e+01,2.150e+01,1.692e+01,2.252e+01
6.221e-02,3.068e-01,5.753e-01,3.872e-01,7.613e-01,1.005e+00,1.378e+00,1.913e+00,2.270e+00,1.852e+00,3.039e+00,2.978e+00,3.712e+00,3.304e+00,2.380e+00,4.125e+00,3.770e+00,4.310e+00,4.113e+00,4.330e+00,4.044e+00,5.715e+00,4.874e+00,6.149e+00,5.025e+00,5.164e+00,6.667e+00,6.844e+00,6.086e+00,7.311e+00,5.344e+00,9.292e+00,9.443e+00,6.641e+00,9.472e+00,8.236e+00,9.602e+00,1.032e+01,1.118e+01,8.612e+00,9.704e+00,1.066e+01,1.159e+01,1.008e+01,1.136e+01,1.153e+01,1.257e+01,1.233e+01,1.169e+01,1.005e+01,1.288e+01,1.212e+01,1.373e+01,1.214e+01,1.558e+01,1.499e+01,1.539e+01,1.340e+01,1.449e+01,1.538e+01,1.619e+01,1.550e+01,1.548e+01,1.735e+01,1.656e+01,1.729e+01,1.877e+01,1.623e+01,1.658e+01,2.017e+01,1.925e+01,1.738e+01,1.668e+01,1.911e+01,1.963e+01,2.031e+01,1.718e+01,2.068e+01,2.052e+01,2.246e+01,1.672e+01,1.887e+01,1.998e+01,2.089e+01,2.200e+01,2.337e+01,2.003e+01,2.204e+01,2.202e+01,2.161e+01,2.108e+01,2.092e+01,1.762e+01,2.166e+01,2.147e+01,1.857e+01,2.144e+01
4.324e-01,2.783e-01,6.195e-01,7.009e-01,9.165e-01,1.135e+00,1.247e+00,1.741e+00,1.971e+00,2.299e+00,2.794e+00,3.463e+00,3.997e+00,2.746e+00,2.729e+00,3.497e+00,2.484e+00,4.211e+00,2.515e+00,4.047e+00,4.053e+00,4.963e+00,5.020e+00,6.249e+00,4.260e+00,5.512e+00,7.126e+00,6.969e+00,6.705e+00,6.421e+00,6.056e+00,7.912e+00,8.907e+00,7.443e+00,8.850e+00,9.505e+00,1.069e+01,1.033e+01,1.067e+01,9.404e+00,9.742e+00,1.035e+01,1.058e+01,1.054e+01,1.171e+01,1.146e+01,1.240e+01,1.216e+01,1.089e+01,1.172e+01,1.227e+01,1.158e+01,1.371e+01,1.403e+01,1.567e+01,1.544e+01,1.546e+01,1.369e+01,1.430e+01,1.645e+01,1.593e+01,1.548e+01,1.514e+01,1.747e+01,1.477e+01,1.758e+01,1.729e+01,1.611e+01,1.716e+01,2.092e+01,1.675e+01,1.798e+01,1.630e+01,1.966e+01,1.850e+01,1.781e+01,1.701e+01,2.034e+01,1.808e+01,1.993e+01,1.710e+01,2.002e+01,1.972e+01,2.074e+01,2.171e+01,2.357e+01,2.115e+01,2.083e+01,2.410e+01,2.106e+01,2.155e+01,1.924e+01,1.846e+01,2.324e+01,2.116e+01,1.943e+01,2.121e+01
3.125e-01,3.367e-01,7.841e-01,6.479e-01,1.035e+00,1.471e+00,1.600e+00,1.904e+00,2.246e+00,2.191e+00,2.771e+00,3.977e+00,3.544e+00,2.280e+00,3.230e+00,3.331e+00,3.444e+00,3.857e+00,3.882e+00,6.000e+00,3.989e+00,5.464e+00,5.166e+00,7.091e+00,5.275e+00,6.083e+00,7.428e+00,6.815e+00,7.494e+00,8.199e+00,7.283e+00,8.467e+00,9.549e+00,8.036e+00,1.054e+01,1.020e+01,1.038e+01,1.158e+01,1.164e+01,9.784e+00,9.163e+00,1.023e+01,1.101e+01,1.120e+01,1.206e+01,1.249e+01,1.175e+01,1.246e+01,1.178e+01,1.082e+01,1.073e+01,1.220e+01,1.240e+01,1.393e+01,1.512e+01,1.326e+01,1.458e+01,1.411e+01,1.451e+01,1.538e+01,1.590e+01,1.570e+01,1.504e+01,1.792e+01,1.562e+01,1.709e+01,1.744e+01,1.635e+01,1.693e+01,1.829e+01,1.685e+01,1.743e+01,1.637e+01,2.011e+01,1.945e+01,1.863e+01,1.698e+01,1.984e+01,1.921e+01,2.113e+01,1.776e+01,2.000e+01,2.048e+01,2.181e+01,2.146e+01,2.354e+01,2.034e+01,2.375e+01,2.368e+01,2.388e+01,2.353e+01,2.104e+01,2.192e+01,2.275e+01,2.263e+01,2.021e+01,2.239e+01
2.583e-01,3.201e-01,9.774e-01,6.253e-01,1.143e+00,1.262e+00,1.344e+00,1.741e+00,2.314e+00,1.677e+00,2.526e+00,3.080e+00,3.115e+00,2.904e+00,2.546e+00,3.617e+00,3.534e+00,3.257e+00,3.265e+00,3.749e+00,3.822e+00,4.797e+00,4.176e+00,4.711e+00,4.618e+00,5.082e+00,6.840e+00,5.769e+00,5.624e+00,6.646e+00,5.148e+00,7.278e+00,7.032e+00,5.754e+00,7.839e+00,8.332e+00,8.211e+00,9.204e+00,8.843e+00,8.365e+00,6.942e+00,8.227e+00,1.073e+01,1.041e+01,9.536e+00,8.932e+00,1.020e+01,9.949e+00,9.600e+00,8.846e+00,9.729e+00,1.135e+01,1.117e+01,1.174e+01,1.396e+01,1.363e+01,1.348e+01,1.229e+01,1.241e+01,1.511e+01,1.377e+01,1.466e+01,1.517e+01,1.631e+01,1.536e+01,1.625e+01,1.630e+01,1.599e+01,1.656e+01,1.889e+01,1.740e+01,1.670e+01,1.629e+01,1.987e+01,1.905e+01,1.663e+01,1.404e+01,1.943e+01,1.772e+01,1.944e+01,1.537e+01,1.883e+01,1.956e+01,2.032e+01,2.106e+01,2.393e+01,1.817e+01,1.973e+01,2.182e+01,2.042e+01,2.074e+01,1.960e+01,1.727e+01,2.181e+01,2.027e+01,1.911e+01,2.054e+01
2.220e-01,1.831e-01,6.723e-01,5.714e-01,9.548e-01,6.788e-01,8.053e-01,1.538e+00,1.999e+00,1.636e+00,3.110e+00,3.315e+00,3.466e+00,3.597e+00,3.193e+00,3.828e+00,3.939e+00,4.319e+00,4.154e+00,4.546e+00,5.533e+00,6.339e+00,5.343e+00,7.064e+00,4.731e+00,6.850e+00,8.321e+00,7.577e+00,7.236e+00,8.249e+00,8.216e+00,9.495e+00,8.707e+00,6.363e+00,9.401e+00,9.125e+00,1.012e+01,1.118e+01,1.117e+01,9.187e+00,1.042e+01,1.196e+01,1.317e+01,1.251e+01,1.229e+01,1.210e+01,1.269e+01,1.404e+01,1.165e+01,1.098e+01,1.277e+01,1.387e+01,1.423e+01,1.352e+01,1.655e+01,1.582e+01,1.616e+01,1.426e+01,1.529e+01,1.686e+01,1.681e+01,1.678e+01,1.678e+01,1.780e+01,1.747e+01,1.780e+01,1.844e+01,1.687e+01,1.781e+01,2.008e+01,1.898e+01,1.824e+01,1.799e+01,2.144e+01,1.906e+01,2.078e+01,1.739e+01,2.135e+01,1.896e+01,2.208e+01,1.762e+01,2.182e+01,2.033e+01,2.210e+01,2.357e+01,2.435e+01,2.085e+01,2.287e+01,2.363e+01,2.331e+01,2.247e+01,2.147e+01,2.008e+01,2.559e+01,2.337e+01,1.992e+01,2.318e+01
2.797e-01,3.021e-01,1.184e+00,8.428e-01,1.471e+00,1.752e+00,1.374e+00,1.178e+00,2.426e+00,2.209e+00,2.934e+00,3.163e+00,3.450e+00,3.040e+00,3.825e+00,3.590e+00,4.364e+00,4.161e+00,3.504e+00,4.263e+00,4.185e+00,5.686e+00,4.624e+00,6.235e+00,5.308e+00,5.608e+00,7.774e+00,7.359e+00,6.269e+00,6.392e+00,6.997e+00,7.567e+00,8.943e+00,6.255e+00,8.672e+00,8.977e+00,9.087e+00,1.063e+01,1.112e+01,9.830e+00,1.053e+01,1.053e+01,1.207e+01,1.188e+01,1.169e+01,1.126e+01,1.292e+01,1.225e+01,1.133e+01,1.191e+01,1.336e+01,1.266e+01,1.455e+01,1.379e+01,1.756e+01,1.596e+01,1.657e+01,1.521e+01,1.592e+01,1.722e+01,1.626e+01,1.724e+01,1.748e+01,1.866e+01,1.682e+01,1.790e+01,1.871e+01,1.775e+01,1.988e+01,2.169e+01,2.005e+01,1.988e+01,1.900e+01,2.164e+01,2.114e+01,2.024e+01,1.809e+01,2.191e+01,1.998e+01,2.244e+01,1.940e+01,2.254e+01,2.233e+01,2.365e+01,2.307e+01,2.598e+01,2.030e+01,2.453e+01,2.606e+01,2.489e+01,2.400e+01,2.334e+01,2.058e+01,2.546e+01,2.608e+01,2.214e+01,2.525e+01
1.096e-02,3.603e-02,2.161e-01,2.717e-01,4.914e-01,6.264e-01,5.097e-01,1.143e+00,1.638e+00,1.529e+00,1.818e+00,2.570e+00,2.545e+00,2.439e+00,1.852e+00,3.495e+00,3.167e+00,3.664e+00,2.889e+00,4.281e+00,3.642e+00,5.463e+00,3.649e+00,4.762e+00,4.105e+00,4.226e+00,6.361e+00,5.641e+00,6.177e+00,6.998e+00,6.247e+00,8.044e+00,7.815e+00,5.779e+00,8.243e+00,7.789e+00,1.029e+01,9.616e+00,9.373e+00,9.660e+00,1.007e+01,1.026e+01,1.170e+01,1.205e+01,1.147e+01,1.047e+01,1.237e+01,1.304e+01,1.231e+01,1.078e+01,1.217e+01,1.420e+01,1.323e+01,1.426e+01,1.680e+01,1.575e+01,1.526e+01,1.320e+01,1.466e+01,1.673e+01,1.576e+01,1.673e+01,1.578e+01,1.724e+01,1.740e+01,1.624e+01,1.919e+01,1.788e+01,1.851e+01,1.948e+01,1.898e+01,1.827e+01,1.657e+01,2.112e+01,1.981e+01,1.913e+01,1.663e+01,1.888e+01,1.952e+01,2.165e+01,1.822e+01,2.125e+01,1.811e+01,1.971e+01,2.187e+01,2.393e+01,1.958e+01,2.199e+01,2.284e+01,2.183e+01,2.360e+01,2.189e+01,2.078e+01,2.484e+01,2.174e+01,2.005e+01,2.338e+01
4.007e-01,3.928e-01,1.348e+00,9.548e-01,1.640e+00,1.222e+00,1.507e+00,2.034e+00,2.337e+00,2.006e+00,3.266e+00,4.000e+00,4.238e+00,3.476e+00,3.875e+00,4.397e+00,4.596e+00,4.098e+00,3.734e+00,5.095e+00,5.418e+00,6.199e+00,4.910e+00,5.952e+00,5.040e+00,6.322e+00,7.703e+00,6.374e+00,7.079e+00,6.657e+00,6.629e+00,7.311e+00,8.136e+00,5.092e+00,8.364e+00,8.150e+00,1.053e+01,9.001e+00,9.830e+00,8.474e+00,8.471e+00,8.268e+00,1.114e+01,1.177e+01,1.117e+01,9.950e+00,1.032e+01,1.143e+01,1.191e+01,9.816e+00,1.098e+01,1.214e+01,1.198e+01,1.273e+01,1.436e+01,1.289e+01,1.276e+01,1.125e+01,1.472e+01,1.319e+01,1.174e+01,1.252e+01,1.220e+01,1.343e+01,1.125e+01,1.294e+01,1.469e+01,1.522e+01,1.456e+01,1.543e+01,1.522e+01,1.488e+01,1.383e+01,1.663e+01,1.541e+01,1.640e+01,1.563e+01,1.530e+01,1.605e+01,1.878e+01,1.383e+01,1.767e+01,1.646e+01,1.762e+01,1.816e+01,2.037e+01,1.705e+01,1.686e+01,1.944e+01,1.929e+01,1.866e+01,1.899e+01,1.809e+01,2.111e+01,1.960e+01,1.833e+01,2.157e+01
7.180e-01,4.246e-01,1.263e+00,1.254e+00,1.705e+00,1.299e+00,1.434e+00,1.461e+00,1.834e+00,2.145e+00,2.902e+00,3.595e+00,4.042e+00,3.001e+00,3.664e+00,2.852e+00,2.672e+00,4.431e+00,3.848e+00,4.845e+00,5.356e+00,5.632e+00,5.347e+00,6.442e+00,5.409e+00,5.341e+00,7.329e+00,6.618e+00,8.047e+00,7.171e+00,7.095e+00,8.346e+00,9.171e+00,6.975e+00,8.678e+00,9.601e+00,1.057e+01,1.137e+01,1.145e+01,9.271e+00,9.828e+00,1.144e+01,1.298e+01,1.274e+01,1.202e+01,1.226e+01,1.242e+01,1.335e+01,1.183e+01,1.058e+01,1.215e+01,1.175e+01,1.433e+01,1.463e+01,1.539e+01,1.533e+01,1.560e+01,1.396e+01,1.485e+01,1.759e+01,1.656e+01,1.698e+01,1.704e+01,1.920e+01,1.795e+01,1.778e+01,1.999e+01,1.721e+01,1.919e+01,2.056e+01,1.826e+01,1.879e+01,1.801e+01,2.118e+01,1.950e+01,1.918e+01,1.596e+01,2.216e+01,1.852e+01,2.150e+01,1.894e+01,2.106e+01,2.100e+01,2.339e+01,2.335e+01,2.500e+01,2.105e+01,2.442e+01,2.440e+01,2.312e+01,2.533e+01,2.346e+01,2.214e+01,2.597e+01,2.467e+01,2.296e+01,2.528e+01
1.762e-01,2.544e-01,8.224e-01,7.698e-01,1.260e+00,1.238e+00,1.212e+00,1.699e+00,2.563e+00,2.783e+00,3.366e+00,4.008e+00,3.355e+00,1.618e+00,3.411e+00,3.184e+00,3.587e+00,3.713e+00,4.306e+00,5.647e+00,4.633e+00,5.505e+00,4.914e+00,7.470e+00,4.580e+00,5.382e+00,7.402e+00,7.166e+00,7.551e+00,8.347e+00,7.933e+00,8.958e+00,9.302e+00,7.748e+00,9.741e+00,9.906e+00,1.159e+01,1.115e+01,1.017e+01,9.901e+00,9.673e+00,1.191e+01,1.193e+01,1.255e+01,1.305e+01,1.158e+01,1.318e+01,1.321e+01,1.189e+01,9.991e+00,1.319e+01,1.304e+01,1.417e+01,1.525e+01,1.639e+01,1.594e+01,1.555e+01,1.355e+01,1.404e+01,1.656e+01,1.441e+01,1.561e+01,1.640e+01,1.796e+01,1.659e+01,1.683e+01,1.903e+01,1.748e+01,1.884e+01,2.060e+01,1.891e+01,1.858e+01,1.853e+01,2.152e+01,1.919e+01,2.024e+01,1.822e+01,2.108e+01,1.781e+01,2.172e+01,1.753e+01,1.937e+01,1.908e+01,2.002e+01,2.255e+01,2.322e+01,1.913e+01,2.180e+01,2.229e+01,2.305e+01,2.403e+01,2.188e+01,1.940e+01,2.375e+01,2.452e+01,2.220e+01,2.276e+01
7.805e-02,5.423e-02,4.985e-01,6.363e-01,1.228e+00,1.478e+00,1.221e+00,2.070e+00,2.962e+00,2.481e+00,2.611e+00,3.424e+00,3.176e+00,2.159e+00,2.779e+00,3.075e+00,3.076e+00,4.058e+00,3.458e+00,5.070e+00,4.046e+00,4.716e+00,5.025e+00,6.645e+00,5.276e+00,5.285e+00,7.544e+00,6.630e+00,6.221e+00,7.292e+00,6.223e+00,7.559e+00,8.196e+00,7.505e+00,9.322e+00,9.821e+00,9.497e+00,1.110e+01,1.099e+01,8.670e+00,9.029e+00,1.030e+01,1.115e+01,1.082e+01,1.030e+01,1.137e+01,1.197e+01,1.216e+01,1.089e+01,1.007e+01,1.262e+01,1.196e+01,1.263e+01,1.280e+01,1.399e+01,1.182e+01,1.362e+01,1.229e+01,1.271e+01,1.385e+01,1.518e+01,1.419e+01,1.454e+01,1.690e+01,1.521e+01,1.596e+01,1.574e+01,1.584e+01,1.572e+01,1.788e+01,1.647e+01,1.635e+01,1.531e+01,1.930e+01,1.799e+01,1.781e+01,1.521e+01,1.850e+01,1.832e+01,2.002e+01,1.659e+01,1.784e+01,1.909e+01,2.045e+01,2.103e+01,2.208e+01,1.754e+01,2.073e+01,2.007e+01,2.229e+01,2.157e+01,1.963e+01,1.836e+01,2.135e+01,2.026e+01,2.015e+01,2.108e+01
5.449e-01,4.575e-01,1.055e+00,9.120e-01,1.195e+00,1.293e+00,1.414e+00,1.720e+00,2.577e+00,2.435e+00,3.209e+00,3.877e+00,3.543e+00,3.032e+00,3.747e+00,4.214e+00,4.641e+00,4.487e+00,4.254e+00,6.083e+00,4.194e+00,7.060e+00,6.014e+00,8.462e+00,6.128e+00,6.787e+00,8.209e+00,8.210e+00,7.365e+00,8.785e+00,7.326e+00,1.014e+01,1.066e+01,8.085e+00,1.193e+01,1.128e+01,1.226e+01,1.373e+01,1.300e+01,1.178e+01,1.143e+01,1.300e+01,1.420e+01,1.503e+01,1.484e+01,1.343e+01,1.470e+01,1.441e+01,1.293e+01,1.277e+01,1.393e+01,1.405e+01,1.583e+01,1.550e+01,1.752e+01,1.637e+01,1.564e+01,1.452e+01,1.524e+01,1.758e+01,1.678e+01,1.737e+01,1.625e+01,1.844e+01,1.782e+01,1.856e+01,1.924e+01,1.813e+01,1.928e+01,2.163e+01,1.897e+01,1.973e+01,1.935e+01,2.370e+01,2.160e+01,2.088e+01,1.876e+01,2.207e+01,2.072e+01,2.232e+01,1.922e+01,2.133e+01,2.218e+01,2.273e+01,2.247e+01,2.611e+01,2.149e+01,2.521e+01,2.517e+01,2.417e+01,2.374e+01,2.310e+01,2.245e+01,2.550e+01,2.702e+01,2.173e+01,2.695e+01
