4.894e-01,3.964e-01,3.857e-01,3.266e-01,9.981e-01,7.084e-01,9.227e-01,7.788e-02,2.026e-01,1.016e-01,7.875e-01,2.975e-01,6.057e-01,1.921e-01,9.097e-01,1.348e-01,9.017e-01,7.813e-02,5.449e-01,8.869e-02,7.617e-01,2.856e-02,6.670e-01,2.424e-01,3.265e-01,5.946e-01,5.071e-01,1.582e-01,4.238e-01,3.043e-01,8.613e-01,9.495e-01,5.674e-01,3.993e-01,5.364e-01,8.274e-01,9.206e-01,4.888e-01,7.353e-01,2.162e-01,6.281e-01,3.117e-01,8.483e-01,1.938e-02,7.294e-01,7.209e-01
2.147e-01,4.494e-01,6.751e-01,8.146e-01,7.940e-01,1.230e+00,8.130e-01,3.059e-01,6.764e-01,5.520e-01,5.645e-01,3.238e-01,5.565e-01,9.638e-01,4.458e-01,1.762e-01,1.170e+00,6.551e-01,5.556e-01,3.939e-01,8.770e-01,4.433e-01,3.695e-01,8.803e-01,5.070e-01,1.138e+00,8.158e-01,6.839e-01,1.010e+00,9.994e-01,1.012e+00,9.175e-01,9.977e-01,9.744e-01,1.093e+00,7.358e-01,5.903e-01,9.498e-01,7.148e-01,6.367e-01,8.344e-01,1.010e+00,8.835e-01,6.369e-01,4.193e-01,9.034e-01
3.250e-01,4.680e-01,1.141e+00,1.539e+00,1.892e+00,1.399e+00,1.407e+00,2.933e-01,8.887e-01,1.036e+00,1.183e+00,4.941e-01,1.231e+00,1.503e+00,1.214e+00,5.297e-01,1.840e+00,1.194e+00,6.540e-01,8.356e-01,1.010e+00,5.509e-01,1.286e+00,1.132e+00,7.373e-01,1.573e+00,1.399e+00,8.476e-01,1.468e+00,1.542e+00,1.671e+00,1.572e+00,1.245e+00,1.766e+00,1.756e+00,1.001e+00,1.481e+00,1.610e+00,8.711e-01,5.673e-01,1.788e+00,8.746e-01,1.790e+00,1.460e+00,5.724e-01,1.754e+00
3.371e-01,2.860e-01,7.435e-01,1.783e+00,2.523e+00,7.664e-01,1.572e+00,7.784e-01,8.412e-01,7.794e-01,1.709e+00,4.964e-01,1.404e+00,1.232e+00,1.905e+00,8.828e-01,1.260e+00,9.110e-01,1.170e+00,1.494e+00,1.514e+00,8.721e-01,1.787e+00,9.755e-01,6.675e-01,1.229e+00,9.926e-01,1.170e+00,1.255e+00,9.245e-01,1.664e+00,1.558e+00,1.342e+00,1.957e+00,1.739e+00,1.010e+00,1.730e+00,1.877e+00,8.739e-01,5.756e-01,2.127e+00,7.141e-01,1.379e+00,1.616e+00,1.273e+00,1.376e+00
1.968e-01,3.729e-01,6.737e-01,1.470e+00,1.708e+00,1.093e+00,1.661e+00,1.141e+00,1.898e+00,1.068e+00,2.119e+00,6.484e-01,1.101e+00,1.307e+00,1.465e+00,1.068e+00,1.341e+00,1.091e+00,2.037e+00,1.559e+00,2.235e+00,1.443e+00,1.962e+00,1.722e+00,1.505e+00,1.577e+00,1.051e+00,1.251e+00,2.174e+00,1.119e+00,1.524e+00,1.513e+00,1.698e+00,2.270e+00,1.622e+00,1.679e+00,1.331e+00,1.626e+00,1.031e+00,1.208e+00,2.384e+00,1.878e+00,1.044e+00,1.975e+00,1.090e+00,1.963e+00
3.027e-04,1.277e-01,5.331e-01,8.216e-01,7.825e-01,1.206e+00,7.593e-01,6.497e-01,1.152e+00,1.708e+00,1.090e+00,8.215e-01,9.046e-01,1.566e+00,1.341e+00,4.541e-01,1.405e+00,1.325e+00,1.224e+00,1.324e+00,9.800e-01,1.191e+00,1.195e+00,1.408e+00,1.488e+00,1.291e+00,1.245e+00,7.707e-01,1.585e+00,1.010e+00,1.500e+00,9.936e-01,1.510e+00,1.247e+00,1.190e+00,1.112e+00,9.347e-01,1.666e+00,1.316e+00,5.067e-01,2.103e+00,1.434e+00,1.350e+00,1.322e+00,1.019e+00,1.694e+00
4.195e-01,5.204e-01,8.662e-01,1.144e+00,1.620e+00,1.501e+00,1.774e+00,1.284e+00,2.057e+00,1.867e+00,2.320e+00,7.919e-01,1.622e+00,1.726e+00,2.209e+00,7.366e-01,2.527e+00,1.979e+00,2.063e+00,1.306e+00,2.141e+00,1.209e+00,1.816e+00,1.668e+00,2.331e+00,2.520e+00,2.205e+00,1.794e+00,2.830e+00,1.650e+00,1.798e+00,1.987e+00,1.649e+00,2.628e+00,1.844e+00,2.125e+00,2.351e+00,1.994e+00,1.542e+00,1.570e+00,2.311e+00,2.028e+00,2.200e+00,2.081e+00,1.729e+00,2.702e+00
2.985e-01,4.254e-01,8.367e-01,1.353e+00,1.710e+00,1.328e+00,1.628e+00,1.775e+00,2.843e+00,2.089e+00,2.732e+00,1.326e+00,1.647e+00,2.080e+00,2.305e+00,8.634e-01,2.337e+00,2.158e+00,1.875e+00,2.392e+00,2.749e+00,1.358e+00,2.121e+00,2.118e+00,1.991e+00,2.928e+00,2.194e+00,2.097e+00,2.511e+00,1.769e+00,1.901e+00,2.030e+00,1.808e+00,3.018e+00,2.721e+00,2.113e+00,2.023e+00,2.385e+00,1.384e+00,1.559e+00,2.854e+00,2.572e+00,2.424e+00,2.480e+00,1.548e+00,2.667e+00
3.271e-01,5.361e-01,8.477e-01,1.382e+00,1.633e+00,1.584e+00,1.554e+00,1.290e+00,2.234e+00,1.877e+00,2.149e+00,9.063e-01,1.791e+00,2.662e+00,2.339e+00,6.427e-01,2.876e+00,2.677e+00,2.097e+00,2.025e+00,3.026e+00,2.018e+00,1.950e+00,2.607e+00,2.345e+00,3.011e+00,1.977e+00,1.899e+00,2.593e+00,1.776e+00,2.781e+00,2.326e+00,1.951e+00,3.021e+00,2.728e+00,2.157e+00,1.870e+00,2.617e+00,1.579e+00,1.833e+00,2.282e+00,2.784e+00,2.097e+00,2.281e+00,1.804e+00,2.546e+00
5.543e-02,1.980e-01,3.443e-01,8.155e-01,8.258e-01,9.661e-01,8.838e-01,1.052e+00,1.564e+00,2.271e+00,2.413e+00,1.336e+00,1.241e+00,1.571e+00,2.241e+00,1.553e+00,2.042e+00,1.925e+00,1.784e+00,2.118e+00,1.849e+00,1.360e+00,1.896e+00,1.618e+00,1.408e+00,1.537e+00,9.566e-01,1.767e+00,2.148e+00,1.198e+00,1.993e+00,1.880e+00,2.239e+00,1.534e+00,1.553e+00,1.984e+00,1.586e+00,2.261e+00,1.442e+00,8.568e-01,2.485e+00,2.037e+00,1.609e+00,1.482e+00,1.182e+00,1.913e+00
4.011e-01,4.042e-01,7.035e-01,1.105e+00,1.723e+00,1.198e+00,1.797e+00,1.479e+00,2.534e+00,2.200e+00,3.817e+00,1.426e+00,2.744e+00,2.984e+00,3.541e+00,1.639e+00,3.262e+00,3.571e+00,3.205e+00,2.672e+00,3.462e+00,2.206e+00,2.676e+00,3.163e+00,3.193e+00,3.370e+00,3.045e+00,1.931e+00,3.246e+00,2.350e+00,3.026e+00,2.685e+00,1.926e+00,3.942e+00,3.230e+00,2.748e+00,2.804e+00,2.779e+00,1.998e+00,1.855e+00,3.218e+00,2.661e+00,2.592e+00,2.714e+00,2.648e+00,3.445e+00
2.799e-01,2.534e-01,4.710e-01,9.632e-01,1.498e+00,1.242e+00,1.636e+00,2.065e+00,3.453e+00,3.493e+00,4.460e+00,2.509e+00,3.324e+00,3.726e+00,5.178e+00,2.730e+00,4.377e+00,4.764e+00,4.518e+00,4.765e+00,4.554e+00,3.322e+00,3.784e+00,4.555e+00,3.996e+00,3.941e+00,3.680e+00,2.931e+00,3.911e+00,2.583e+00,3.845e+00,3.789e+00,3.558e+00,4.613e+00,3.696e+00,4.375e+00,3.439e+00,3.750e+00,2.720e+00,2.903e+00,4.856e+00,3.934e+00,3.394e+00,3.360e+00,3.269e+00,4.932e+00
3.759e-01,4.320e-01,7.992e-01,1.155e+00,1.640e+00,1.362e+00,1.487e+00,1.672e+00,2.751e+00,3.289e+00,4.390e+00,2.228e+00,3.515e+00,4.143e+00,4.377e+00,2.670e+00,4.750e+00,5.305e+00,3.269e+00,3.997e+00,4.599e+00,2.972e+00,3.473e+00,3.897e+00,3.305e+00,4.300e+00,3.688e+00,3.304e+00,4.153e+00,3.855e+00,4.309e+00,3.577e+00,3.275e+00,4.001e+00,4.578e+00,3.970e+00,3.516e+00,3.906e+00,2.833e+00,2.770e+00,4.387e+00,3.410e+00,3.777e+00,2.855e+00,2.940e+00,4.509e+00
4.118e-02,7.380e-02,1.772e-01,8.492e-01,1.038e+00,8.547e-01,9.776e-01,1.452e+00,2.275e+00,2.446e+00,3.272e+00,1.916e+00,2.580e+00,3.789e+00,4.330e+00,3.014e+00,3.807e+00,4.624e+00,4.145e+00,4.649e+00,4.086e+00,3.466e+00,3.473e+00,4.761e+00,3.526e+00,3.125e+00,3.208e+00,3.003e+00,2.966e+00,2.961e+00,3.822e+00,2.923e+00,3.835e+00,4.063e+00,3.939e+00,3.525e+00,2.203e+00,3.749e+00,2.321e+00,2.675e+00,4.316e+00,3.431e+00,2.951e+00,3.311e+00,2.859e+00,3.642e+00
3.628e-01,4.289e-01,8.888e-01,1.797e+00,2.412e+00,1.385e+00,2.030e+00,1.790e+00,3.194e+00,2.689e+00,4.651e+00,2.258e+00,3.355e+00,4.164e+00,5.246e+00,3.381e+00,5.254e+00,4.822e+00,4.215e+00,5.662e+00,5.096e+00,3.471e+00,4.314e+00,5.731e+00,3.375e+00,4.612e+00,4.259e+00,3.720e+00,4.295e+00,3.582e+00,4.690e+00,4.695e+00,3.882e+00,5.571e+00,5.327e+00,3.952e+00,3.537e+00,4.428e+00,3.217e+00,2.599e+00,5.398e+00,4.066e+00,3.705e+00,4.747e+00,3.662e+00,4.961e+00
4.527e-01,4.608e-01,9.880e-01,1.870e+00,2.659e+00,1.326e+00,2.115e+00,1.622e+00,2.578e+00,2.285e+00,3.495e+00,1.475e+00,2.669e+00,3.112e+00,3.970e+00,3.112e+00,4.817e+00,3.624e+00,3.799e+00,4.321e+00,4.955e+00,3.337e+00,4.104e+00,4.415e+00,3.551e+00,4.296e+00,4.016e+00,4.196e+00,4.089e+00,3.961e+00,4.358e+00,4.138e+00,3.492e+00,4.962e+00,4.126e+00,3.759e+00,4.087e+00,4.140e+00,2.864e+00,2.665e+00,4.349e+00,3.695e+00,4.098e+00,3.851e+00,2.897e+00,4.386e+00
2.632e-01,2.511e-01,5.975e-01,1.059e+00,1.523e+00,1.185e+00,1.134e+00,1.295e+00,2.092e+00,2.609e+00,3.068e+00,1.925e+00,2.656e+00,3.619e+00,4.111e+00,2.991e+00,5.392e+00,4.731e+00,3.345e+00,5.116e+00,4.726e+00,4.237e+00,3.972e+00,4.800e+00,3.962e+00,4.055e+00,4.791e+00,4.387e+00,4.439e+00,4.865e+00,5.299e+00,4.495e+00,4.177e+00,4.394e+00,4.538e+00,3.680e+00,3.622e+00,4.977e+00,3.460e+00,2.442e+00,5.388e+00,4.092e+00,4.884e+00,3.305e+00,3.560e+00,4.617e+00
2.740e-01,4.597e-01,6.911e-01,9.756e-01,1.158e+00,1.808e+00,1.451e+00,1.241e+00,2.174e+00,2.479e+00,3.352e+00,1.884e+00,2.591e+00,3.520e+00,3.631e+00,2.923e+00,4.711e+00,4.793e+00,4.627e+00,4.915e+00,4.449e+00,4.156e+00,3.691e+00,5.522e+00,4.634e+00,4.289e+00,5.048e+00,4.013e+00,4.976e+00,4.756e+00,4.610e+00,4.243e+00,4.271e+00,4.554e+00,4.834e+00,4.303e+00,3.503e+00,4.582e+00,3.849e+00,3.243e+00,6.073e+00,4.516e+00,4.347e+00,3.845e+00,4.258e+00,5.241e+00
3.578e-01,4.306e-01,8.424e-01,1.533e+00,2.051e+00,1.486e+00,1.646e+00,1.732e+00,2.742e+00,2.402e+00,3.712e+00,2.032e+00,3.030e+00,3.958e+00,4.724e+00,2.902e+00,5.528e+00,4.836e+00,4.538e+00,6.511e+00,5.506e+00,4.827e+00,3.932e+00,6.532e+00,4.194e+00,5.404e+00,5.682e+00,4.768e+00,5.181e+00,4.888e+00,5.212e+00,4.893e+00,4.037e+00,6.721e+00,5.691e+00,3.699e+00,4.271e+00,5.588e+00,4.062e+00,2.718e+00,6.252e+00,4.515e+00,5.693e+00,4.597e+00,4.814e+00,5.146e+00
1.862e-01,3.712e-01,5.878e-01,1.440e+00,1.606e+00,1.566e+00,1.270e+00,1.657e+00,2.045e+00,2.364e+00,2.776e+00,1.888e+00,2.459e+00,3.094e+00,3.922e+00,2.769e+00,4.322e+00,3.865e+00,4.079e+00,5.563e+00,4.745e+00,4.307e+00,3.669e+00,4.973e+00,4.063e+00,3.794e+00,5.071e+00,4.429e+00,4.582e+00,4.746e+00,4.293e+00,4.837e+00,4.281e+00,5.159e+00,3.926e+00,3.842e+00,3.893e+00,5.463e+00,3.523e+00,3.626e+00,5.539e+00,4.881e+00,5.058e+00,3.738e+00,4.168e+00,4.750e+00
1.564e-01,1.713e-01,2.087e-01,8.796e-01,1.224e+00,6.666e-01,1.238e+00,1.542e+00,2.325e+00,2.431e+00,4.218e+00,2.140e+00,2.805e+00,2.991e+00,4.904e+00,4.431e+00,5.451e+00,4.975e+00,5.946e+00,7.349e+00,5.973e+00,5.893e+00,5.710e+00,7.341e+00,5.454e+00,4.976e+00,6.355e+00,6.164e+00,5.963e+00,6.101e+00,5.748e+00,6.619e+00,5.051e+00,7.621e+00,5.978e+00,5.331e+00,5.868e+00,6.494e+00,4.891e+00,4.635e+00,7.069e+00,5.623e+00,6.559e+00,5.971e+00,5.674e+00,6.417e+00
2.233e-03,6.768e-02,4.413e-01,1.107e+00,1.232e+00,8.917e-01,9.560e-01,1.171e+00,1.626e+00,2.153e+00,2.275e+00,1.313e+00,1.705e+00,2.204e+00,3.186e+00,2.481e+00,3.621e+00,2.863e+00,3.176e+00,4.606e+00,3.395e+00,3.964e+00,4.314e+00,5.201e+00,3.941e+00,3.551e+00,4.510e+00,4.780e+00,4.469e+00,3.863e+00,4.066e+00,4.880e+00,3.708e+00,4.784e+00,3.855e+00,3.929e+00,4.468e+00,5.121e+00,3.358e+00,2.981e+00,5.356e+00,4.654e+00,4.774e+00,5.257e+00,3.490e+00,4.379e+00
1.634e-01,3.216e-01,5.546e-01,9.664e-01,1.068e+00,1.073e+00,1.044e+00,1.117e+00,1.936e+00,1.738e+00,2.851e+00,1.402e+00,2.407e+00,3.476e+00,3.163e+00,3.024e+00,4.311e+00,4.499e+00,4.455e+00,4.990e+00,5.045e+00,4.801e+00,4.557e+00,7.380e+00,5.096e+00,5.491e+00,5.741e+00,5.331e+00,4.927e+00,5.281e+00,5.645e+00,4.862e+00,4.344e+00,6.319e+00,6.739e+00,5.301e+00,5.243e+00,5.629e+00,3.766e+00,4.275e+00,5.388e+00,5.200e+00,5.500e+00,5.794e+00,4.458e+00,5.322e+00
2.930e-01,3.062e-01,5.056e-01,1.364e+00,1.919e+00,1.201e+00,1.771e+00,2.351e+00,3.156e+00,2.751e+00,4.154e+00,1.912e+00,3.052e+00,3.839e+00,4.512e+00,3.230e+00,4.999e+00,5.357e+00,5.460e+00,6.278e+00,6.201e+00,5.691e+00,5.481e+00,7.534e+00,6.979e+00,6.179e+00,7.484e+00,6.740e+00,6.766e+00,6.208e+00,5.782e+00,5.672e+00,5.376e+00,7.236e+00,6.575e+00,6.271e+00,6.275e+00,6.724e+00,4.852e+00,5.349e+00,7.742e+00,7.088e+00,6.842e+00,6.284e+00,6.227e+00,7.022e+00
4.553e-02,2.746e-01,6.905e-01,1.527e+00,1.537e+00,1.597e+00,1.583e+00,2.432e+00,3.701e+00,3.153e+00,3.673e+00,2.202e+00,2.974e+00,3.961e+00,4.390e+00,3.375e+00,5.254e+00,5.036e+00,6.131e+00,7.266e+00,6.647e+00,6.466e+00,5.442e+00,8.835e+00,7.456e+00,7.430e+00,8.791e+00,7.579e+00,7.926e+00,7.060e+00,6.613e+00,6.862e+00,6.666e+00,9.041e+00,7.387e+00,7.008e+00,6.891e+00,7.887e+00,5.971e+00,6.046e+00,7.863e+00,8.029e+00,7.756e+00,7.303e+00,7.062e+00,8.873e+00
3.160e-01,3.973e-01,6.615e-01,1.583e+00,2.098e+00,1.041e+00,1.914e+00,1.777e+00,2.646e+00,1.810e+00,2.960e+00,9.941e-01,2.186e+00,2.560e+00,3.321e+00,2.465e+00,4.240e+00,3.575e+00,4.681e+00,5.228e+00,5.999e+00,5.993e+00,5.940e+00,6.878e+00,6.246e+00,5.950e+00,6.692e+00,6.566e+00,7.471e+00,6.418e+00,6.047e+00,6.629e+00,5.129e+00,8.332e+00,5.861e+00,6.242e+00,7.356e+00,7.683e+00,5.192e+00,5.596e+00,7.407e+00,6.951e+00,7.724e+00,6.643e+00,5.295e+00,7.370e+00
2.927e-01,3.742e-01,8.728e-01,1.657e+00,2.148e+00,1.224e+00,1.853e+00,1.411e+00,2.303e+00,2.675e+00,4.197e+00,1.888e+00,3.504e+00,3.639e+00,4.452e+00,3.917e+00,4.735e+00,5.053e+00,5.302e+00,5.311e+00,5.147e+00,4.626e+00,4.861e+00,6.505e+00,5.451e+00,5.968e+00,7.148e+00,6.158e+00,7.018e+00,6.809e+00,6.453e+00,6.164e+00,6.052e+00,8.026e+00,6.217e+00,6.870e+00,6.748e+00,6.981e+00,5.468e+00,5.358e+00,7.420e+00,5.542e+00,6.444e+00,6.128e+00,5.063e+00,7.807e+00
4.131e-01,3.781e-01,7.395e-01,1.220e+00,1.923e+00,1.297e+00,1.818e+00,1.780e+00,3.009e+00,2.887e+00,4.069e+00,1.994e+00,3.195e+00,3.827e+00,4.745e+00,2.642e+00,4.985e+00,5.090e+00,4.457e+00,5.210e+00,5.289e+00,5.213e+00,5.896e+00,7.067e+00,6.131e+00,6.229e+00,6.926e+00,6.713e+00,7.244e+00,6.789e+00,7.039e+00,7.226e+00,6.718e+00,8.106e+00,7.723e+00,7.661e+00,7.170e+00,7.987e+00,5.149e+00,5.306e+00,7.957e+00,7.119e+00,8.307e+00,6.637e+00,5.717e+00,7.850e+00
2.180e-02,1.013e-01,1.930e-01,4.407e-01,4.234e-01,7.432e-01,4.095e-01,8.091e-01,1.432e+00,2.217e+00,2.474e+00,1.713e+00,2.313e+00,3.203e+00,3.728e+00,2.755e+00,4.009e+00,4.305e+00,3.696e+00,4.690e+00,3.726e+00,3.982e+00,3.231e+00,5.745e+00,3.852e+00,4.565e+00,5.178e+00,4.612e+00,5.748e+00,5.232e+00,6.035e+00,5.015e+00,5.656e+00,7.000e+00,5.614e+00,5.615e+00,5.407e+00,6.223e+00,5.514e+00,4.643e+00,6.573e+00,5.372e+00,5.519e+00,5.142e+00,4.157e+00,5.746e+00
7.646e-02,3.066e-01,1.002e+00,2.017e+00,2.147e+00,1.501e+00,1.875e+00,1.474e+00,2.615e+00,2.428e+00,3.115e+00,1.476e+00,2.755e+00,3.873e+00,4.121e+00,3.618e+00,5.308e+00,4.929e+00,5.029e+00,6.213e+00,5.631e+00,6.231e+00,6.410e+00,7.801e+00,6.109e+00,5.853e+00,7.639e+00,6.924e+00,8.290e+00,8.689e+00,7.521e+00,8.115e+00,7.443e+00,1.012e+01,7.777e+00,7.972e+00,7.893e+00,8.909e+00,6.679e+00,6.749e+00,9.279e+00,7.760e+00,8.642e+00,8.826e+00,5.817e+00,8.760e+00
1.001e-01,3.076e-01,6.119e-01,1.101e+00,1.092e+00,9.797e-01,1.011e+00,6.822e-01,1.489e+00,1.064e+00,1.524e+00,7.228e-01,1.562e+00,2.668e+00,2.536e+00,2.338e+00,3.945e+00,3.527e+00,3.512e+00,4.391e+00,3.821e+00,4.092e+00,3.641e+00,6.102e+00,4.352e+00,4.350e+00,5.582e+00,5.230e+00,5.699e+00,5.761e+00,6.282e+00,6.802e+00,5.475e+00,8.102e+00,6.651e+00,6.238e+00,5.846e+00,6.400e+00,4.911e+00,6.193e+00,6.942e+00,6.671e+00,6.237e+00,7.558e+00,4.782e+00,6.331e+00
8.012e-02,3.257e-01,9.611e-01,1.529e+00,1.533e+00,1.253e+00,1.495e+00,1.333e+00,2.987e+00,2.741e+00,3.516e+00,1.880e+00,2.979e+00,4.171e+00,4.051e+00,3.847e+00,5.468e+00,5.665e+00,4.633e+00,5.871e+00,5.509e+00,4.917e+00,5.628e+00,7.701e+00,5.858e+00,6.244e+00,7.554e+00,6.583e+00,7.962e+00,8.134e+00,7.310e+00,8.769e+00,7.381e+00,1.019e+01,8.479e+00,9.046e+00,8.106e+00,7.975e+00,6.362e+00,7.755e+00,9.756e+00,8.816e+00,8.675e+00,8.387e+00,5.202e+00,1.013e+01
4.195e-01,5.799e-01,8.420e-01,1.187e+00,1.556e+00,1.652e+00,1.426e+00,8.019e-01,1.594e+00,1.891e+00,2.460e+00,1.322e+00,2.161e+00,3.113e+00,3.029e+00,1.991e+00,4.066e+00,3.742e+00,2.960e+00,3.493e+00,3.967e+00,3.855e+00,4.292e+00,5.721e+00,4.511e+00,5.004e+00,5.831e+00,5.569e+00,6.277e+00,6.971e+00,7.226e+00,7.901e+00,7.213e+00,9.450e+00,7.635e+00,8.244e+00,8.368e+00,8.213e+00,7.029e+00,6.647e+00,8.665e+00,8.371e+00,8.817e+00,7.066e+00,5.203e+00,7.947e+00
4.305e-01,5.306e-01,8.269e-01,1.598e+00,2.159e+00,1.365e+00,1.704e+00,1.246e+00,1.755e+00,1.469e+00,3.157e+00,1.506e+00,3.036e+00,3.422e+00,4.016e+00,3.308e+00,5.064e+00,4.826e+00,4.765e+00,5.726e+00,5.234e+00,5.278e+00,4.926e+00,7.014e+00,5.551e+00,5.827e+00,7.640e+00,6.804e+00,6.924e+00,7.786e+00,7.145e+00,8.531e+00,6.678e+00,9.718e+00,8.179e+00,8.195e+00,9.081e+00,9.300e+00,6.708e+00,6.530e+00,9.596e+00,8.524e+00,8.703e+00,7.541e+00,6.650e+00,8.812e+00
2.204e-01,4.341e-01,9.485e-01,1.279e+00,1.385e+00,1.640e+00,1.349e+00,1.234e+00,2.025e+00,2.268e+00,2.606e+00,1.260e+00,2.704e+00,3.766e+00,3.131e+00,2.543e+00,4.928e+00,5.004e+00,4.065e+00,4.531e+00,4.918e+00,4.784e+00,4.216e+00,5.859e+00,6.133e+00,5.600e+00,7.525e+00,6.355e+00,6.944e+00,8.525e+00,6.431e+00,8.020e+00,6.151e+00,8.957e+00,7.562e+00,7.851e+00,7.954e+00,8.868e+00,6.715e+00,6.885e+00,8.191e+00,9.368e+00,9.647e+00,7.360e+00,5.956e+00,8.325e+00
2.948e-01,4.903e-01,9.352e-01,1.573e+00,1.858e+00,1.624e+00,1.651e+00,9.850e-01,1.975e+00,2.291e+00,2.804e+00,1.545e+00,2.796e+00,3.752e+00,4.169e+00,3.551e+00,5.717e+00,5.238e+00,4.954e+00,5.889e+00,5.273e+00,5.720e+00,5.904e+00,7.864e+00,5.791e+00,5.912e+00,7.294e+00,7.130e+00,7.690e+00,8.330e+00,8.096e+00,9.303e+00,8.100e+00,1.074e+01,9.150e+00,1.044e+01,1.077e+01,1.091e+01,9.180e+00,9.293e+00,1.164e+01,9.909e+00,1.117e+01,9.576e+00,7.349e+00,1.112e+01
8.654e-02,2.126e-01,8.159e-01,1.439e+00,1.604e+00,1.224e+00,1.372e+00,1.530e+00,2.554e+00,2.952e+00,3.097e+00,1.594e+00,2.856e+00,3.747e+00,4.117e+00,3.012e+00,5.483e+00,5.268e+00,4.297e+00,5.770e+00,4.969e+00,5.393e+00,5.397e+00,7.279e+00,6.353e+00,6.769e+00,8.460e+00,7.549e+00,8.710e+00,8.437e+00,8.701e+00,9.925e+00,7.499e+00,1.130e+01,9.485e+00,9.957e+00,1.130e+01,1.171e+01,8.867e+00,8.684e+00,1.147e+01,1.004e+01,1.116e+01,1.075e+01,7.425e+00,1.230e+01
3.804e-02,2.025e-01,5.973e-01,1.453e+00,1.524e+00,8.574e-01,1.245e+00,1.705e+00,2.684e+00,2.478e+00,3.258e+00,1.604e+00,2.938e+00,4.020e+00,4.267e+00,3.428e+00,4.874e+00,5.422e+00,5.158e+00,6.432e+00,5.861e+00,5.520e+00,5.152e+00,7.666e+00,5.724e+00,6.414e+00,6.955e+00,7.047e+00,7.580e+00,7.405e+00,7.192e+00,8.716e+00,7.129e+00,1.148e+01,9.231e+00,8.954e+00,9.475e+00,1.019e+01,7.241e+00,8.778e+00,1.044e+01,1.010e+01,1.089e+01,9.698e+00,7.518e+00,1.055e+01
3.080e-01,4.309e-01,7.828e-01,1.207e+00,1.543e+00,1.387e+00,1.428e+00,1.445e+00,2.615e+00,2.140e+00,2.977e+00,1.809e+00,2.664e+00,3.450e+00,3.899e+00,2.666e+00,4.870e+00,4.486e+00,3.952e+00,5.369e+00,5.109e+00,4.819e+00,5.132e+00,7.502e+00,6.249e+00,6.539e+00,8.316e+00,6.784e+00,7.563e+00,7.303e+00,7.005e+00,8.179e+00,7.027e+00,9.062e+00,7.924e+00,8.491e+00,9.098e+00,1.042e+01,7.776e+00,7.986e+00,1.061e+01,1.094e+01,1.094e+01,8.774e+00,8.245e+00,1.146e+01
1.298e-01,1.164e-01,3.000e-01,4.226e-01,6.416e-01,8.548e-01,6.557e-01,1.046e+00,1.532e+00,2.148e+00,1.576e+00,9.553e-01,1.716e+00,2.782e+00,3.101e+00,1.837e+00,4.504e+00,4.358e+00,3.883e+00,4.997e+00,4.341e+00,5.107e+00,4.229e+00,6.110e+00,6.060e+00,5.614e+00,7.326e+00,6.323e+00,7.164e+00,7.393e+00,7.251e+00,8.056e+00,5.968e+00,9.996e+00,7.742e+00,7.811e+00,9.085e+00,9.761e+00,8.258e+00,9.069e+00,1.033e+01,9.869e+00,1.225e+01,8.918e+00,8.034e+00,9.841e+00
8.608e-02,2.479e-01,8.708e-01,1.295e+00,1.369e+00,1.559e+00,1.234e+00,1.016e+00,2.114e+00,2.933e+00,2.925e+00,1.790e+00,3.031e+00,4.136e+00,4.158e+00,3.173e+00,5.368e+00,5.089e+00,4.412e+00,5.463e+00,4.900e+00,5.171e+00,4.885e+00,6.858e+00,5.005e+00,5.084e+00,5.849e+00,5.179e+00,6.801e+00,6.389e+00,6.360e+00,6.631e+00,6.383e+00,8.493e+00,7.296e+00,7.575e+00,8.483e+00,8.635e+00,8.022e+00,8.004e+00,1.113e+01,9.718e+00,1.067e+01,8.483e+00,7.064e+00,1.042e+01
3.888e-01,5.421e-01,1.113e+00,1.607e+00,2.032e+00,1.930e+00,1.726e+00,1.329e+00,2.673e+00,3.055e+00,3.137e+00,1.853e+00,2.767e+00,4.179e+00,4.070e+00,2.394e+00,5.844e+00,5.326e+00,3.771e+00,5.712e+00,5.618e+00,5.709e+00,6.216e+00,7.630e+00,6.129e+00,6.412e+00,7.614e+00,6.923e+00,8.136e+00,8.175e+00,9.484e+00,9.538e+00,7.923e+00,1.038e+01,1.036e+01,9.976e+00,1.054e+01,1.180e+01,9.440e+00,9.601e+00,1.275e+01,1.227e+01,1.324e+01,1.116e+01,8.662e+00,1.305e+01
4.318e-01,5.329e-01,1.115e+00,1.843e+00,2.455e+00,1.691e+00,2.125e+00,1.772e+00,2.873e+00,2.515e+00,3.416e+00,1.643e+00,3.160e+00,4.038e+00,4.578e+00,3.268e+00,6.062e+00,5.313e+00,4.795e+00,5.892e+00,5.741e+00,5.641e+00,5.588e+00,7.408e+00,6.015e+00,6.466e+00,7.594e+00,7.458e+00,8.135e+00,7.988e+00,8.249e+00,9.466e+00,7.902e+00,1.121e+01,9.284e+00,9.824e+00,1.043e+01,1.082e+01,7.887e+00,9.162e+00,1.304e+01,1.237e+01,1.386e+01,1.064e+01,9.498e+00,1.295e+01
5.085e-02,2.485e-01,8.074e-01,1.262e+00,1.229e+00,1.391e+00,1.026e+00,1.415e+00,2.375e+00,3.272e+00,2.978e+00,1.972e+00,2.650e+00,3.693e+00,3.752e+00,2.821e+00,4.823e+00,5.309e+00,3.780e+00,5.399e+00,4.195e+00,4.320e+00,4.772e+00,6.304e+00,5.555e+00,5.631e+00,7.466e+00,6.600e+00,6.976e+00,8.259e+00,7.731e+00,8.705e+00,7.466e+00,1.031e+01,9.467e+00,9.658e+00,1.051e+01,1.126e+01,8.927e+00,1.088e+01,1.218e+01,1.166e+01,1.351e+01,1.172e+01,8.736e+00,1.275e+01
4.234e-01,6.110e-01,9.298e-01,1.536e+00,1.951e+00,1.783e+00,1.833e+00,1.268e+00,1.959e+00,2.492e+00,3.963e+00,1.955e+00,3.305e+00,3.747e+00,4.316e+00,4.178e+00,5.709e+00,5.038e+00,4.961e+00,5.248e+00,5.733e+00,5.448e+00,5.299e+00,7.234e+00,5.923e+00,5.459e+00,7.204e+00,6.847e+00,7.363e+00,8.029e+00,7.395e+00,8.093e+00,7.349e+00,8.278e+00,7.358e+00,9.020e+00,9.011e+00,9.026e+00,6.707e+00,6.873e+00,1.008e+01,1.024e+01,1.063e+01,8.135e+00,6.937e+00,1.116e+01
3.768e-01,3.975e-01,6.864e-01,1.600e+00,2.277e+00,1.569e+00,2.105e+00,2.301e+00,3.570e+00,2.997e+00,3.982e+00,2.004e+00,2.754e+00,3.604e+00,4.341e+00,2.731e+00,4.979e+00,4.252e+00,5.230e+00,6.169e+00,6.895e+00,6.262e+00,5.894e+00,7.444e+00,6.598e+00,7.031e+00,6.967e+00,6.937e+00,8.040e+00,6.468e+00,8.475e+00,8.131e+00,6.952e+00,9.650e+00,8.097e+00,8.518e+00,9.300e+00,1.078e+01,7.644e+00,6.874e+00,1.123e+01,1.109e+01,1.106e+01,9.245e+00,8.357e+00,1.202e+01
