7.895e-01,8.549e-01,5.392e-01,2.008e-01,6.864e-01,9.999e-01,3.131e-01,3.215e-01,2.114e-01,6.708e-01,3.983e-01,5.568e-01,5.184e-01,2.748e-01,7.561e-01,3.587e-01,8.191e-01,7.626e-01,5.714e-01,7.341e-01,5.720e-01,6.739e-01,7.356e-01,6.849e-01,2.864e-01,2.239e-02,7.823e-01,9.426e-01,3.068e-01,9.398e-02,1.825e-01,4.220e-01,1.492e-02,4.806e-01,1.965e-01,4.134e-01,8.067e-01,7.974e-02,4.428e-01,6.817e-01,3.010e-01,2.432e-01,3.197e-01,1.367e-01,8.326e-01,7.858e-01,9.689e-01,3.504e-01,9.311e-01,6.966e-01,7.438e-01,2.085e-01,6.042e-01,7.882e-01,5.875e-01,7.936e-01,6.154e-02,5.949e-01,6.993e-01,4.046e-02,5.906e-01,7.138e-01,7.753e-01,8.498e-01,8.442e-01,6.028e-01,4.239e-03,9.749e-01,7.744e-01,9.291e-01,8.005e-01
4.880e-01,8.749e-01,3.835e-01,5.600e-01,5.179e-01,7.516e-01,1.090e+00,9.506e-01,4.640e-01,1.199e+00,5.705e-01,1.215e+00,8.314e-01,6.424e-01,6.897e-01,9.801e-01,6.373e-01,4.788e-01,1.163e+00,8.051e-01,7.410e-01,9.255e-01,1.205e+00,1.002e+00,4.276e-01,9.442e-01,6.479e-01,1.083e+00,3.195e-01,6.737e-01,1.045e+00,4.866e-01,1.523e-01,8.913e-01,4.836e-01,8.551e-01,1.459e+00,4.917e-01,2.799e-01,7.413e-01,3.233e-01,1.108e+00,1.032e+00,8.788e-01,1.186e+00,1.271e+00,1.371e+00,2.349e-01,7.686e-01,6.939e-01,5.051e-01,8.148e-01,7.560e-01,1.311e+00,5.107e-01,5.984e-01,5.703e-01,1.029e+00,1.126e+00,7.755e-01,4.528e-01,6.229e-01,8.247e-01,5.384e-01,5.728e-01,5.016e-01,1.509e-01,1.437e+00,8.268e-01,1.453e+00,1.229e+00
6.962e-01,7.630e-01,6.746e-01,3.899e-01,1.046e+00,1.245e+00,7.120e-01,3.591e-01,2.448e-01,1.031e+00,1.358e+00,6.371e-01,9.275e-01,4.439e-01,1.288e+00,7.488e-01,1.116e+00,1.192e+00,9.080e-01,1.284e+00,1.381e+00,1.588e+00,7.862e-01,1.281e+00,7.915e-01,3.794e-01,1.191e+00,1.431e+00,9.259e-01,8.100e-01,1.036e+00,6.188e-01,5.909e-01,1.115e+00,8.574e-01,1.350e+00,7.941e-01,7.142e-01,1.026e+00,1.096e+00,9.671e-01,1.213e+00,7.969e-01,7.955e-01,9.314e-01,1.401e+00,8.814e-01,1.081e+00,9.264e-01,9.205e-01,1.347e+00,5.462e-01,6.503e-01,9.383e-01,1.038e+00,1.656e+00,1.304e-01,1.257e+00,1.064e+00,6.158e-02,6.052e-01,9.447e-01,7.146e-01,1.210e+00,1.251e+00,1.046e+00,4.313e-01,1.761e+00,8.755e-01,8.553e-01,1.602e+00
4.141e-02,2.900e-01,7.183e-02,7.286e-01,4.249e-01,5.620e-01,1.325e+00,1.499e+00,1.148e+00,1.431e+00,3.906e-01,1.496e+00,1.209e+00,1.087e+00,1.122e+00,1.053e+00,1.555e-01,2.388e-01,1.367e+00,1.060e+00,8.176e-01,6.098e-01,1.076e+00,1.043e+00,6.473e-01,1.024e+00,2.025e-01,1.405e+00,1.085e+00,1.057e+00,1.104e+00,9.338e-01,6.091e-01,9.514e-01,4.414e-01,9.980e-01,1.093e+00,9.125e-01,5.623e-01,7.820e-01,2.648e-01,1.262e+00,1.168e+00,9.384e-01,9.455e-01,6.654e-01,6.304e-01,1.836e-01,6.553e-01,8.760e-01,4.963e-01,6.820e-01,1.107e+00,1.000e+00,4.537e-01,4.436e-01,1.215e+00,7.117e-01,6.181e-01,1.275e+00,6.437e-01,5.342e-01,1.121e+00,2.999e-01,9.015e-01,6.486e-01,1.802e-01,1.397e+00,6.647e-01,7.729e-01,7.324e-01
1.774e-01,5.363e-01,3.325e-01,7.854e-01,1.432e+00,1.111e+00,2.408e+00,1.695e+00,1.400e+00,2.399e+00,2.184e+00,2.067e+00,2.068e+00,1.915e+00,2.091e+00,2.132e+00,9.423e-01,8.593e-01,1.673e+00,2.054e+00,1.404e+00,1.817e+00,2.046e+00,2.175e+00,1.046e+00,2.191e+00,8.533e-01,1.988e+00,1.984e+00,2.323e+00,2.518e+00,7.814e-01,1.035e+00,1.488e+00,1.335e+00,2.601e+00,1.494e+00,1.520e+00,1.253e+00,1.690e+00,1.083e+00,2.739e+00,2.219e+00,1.838e+00,1.505e+00,2.401e+00,1.183e+00,1.114e+00,1.232e+00,1.745e+00,1.489e+00,1.410e+00,1.083e+00,2.026e+00,1.589e+00,1.389e+00,9.405e-01,1.784e+00,2.028e+00,1.120e+00,1.066e+00,7.783e-01,1.376e+00,1.272e+00,1.016e+00,1.460e+00,1.440e+00,2.800e+00,1.092e+00,2.025e+00,2.219e+00
5.541e-01,7.599e-01,5.775e-01,8.710e-01,1.769e+00,2.557e+00,2.529e+00,2.734e+00,2.051e+00,3.407e+00,2.519e+00,2.695e+00,2.578e+00,2.928e+00,3.167e+00,2.975e+00,1.441e+00,1.424e+00,2.891e+00,3.303e+00,2.548e+00,2.531e+00,3.087e+00,2.978e+00,1.622e+00,2.052e+00,1.593e+00,3.491e+00,3.200e+00,2.570e+00,3.215e+00,1.684e+00,1.254e+00,2.246e+00,2.115e+00,2.859e+00,2.452e+00,1.759e+00,1.750e+00,2.535e+00,2.115e+00,3.294e+00,2.484e+00,2.590e+00,1.766e+00,3.018e+00,1.740e+00,1.944e+00,1.948e+00,2.855e+00,2.891e+00,1.875e+00,2.461e+00,2.236e+00,2.062e+00,1.933e+00,1.413e+00,2.509e+00,1.972e+00,2.008e+00,1.723e+00,1.226e+00,2.006e+00,2.530e+00,2.431e+00,2.172e+00,1.566e+00,3.353e+00,2.321e+00,2.148e+00,2.784e+00
2.485e-01,3.271e-01,2.905e-01,6.213e-01,1.237e+00,1.232e+00,2.543e+00,2.365e+00,1.960e+00,2.439e+00,1.794e+00,2.417e+00,2.710e+00,2.365e+00,3.080e+00,2.433e+00,1.234e+00,1.028e+00,2.408e+00,2.190e+00,1.767e+00,1.589e+00,2.142e+00,2.691e+00,1.045e+00,1.729e+00,1.234e+00,2.031e+00,2.293e+00,1.723e+00,2.199e+00,1.498e+00,1.862e+00,1.373e+00,1.584e+00,1.965e+00,1.554e+00,1.704e+00,2.228e+00,1.985e+00,1.664e+00,2.648e+00,2.413e+00,1.232e+00,1.883e+00,1.623e+00,1.532e+00,1.314e+00,2.017e+00,2.205e+00,1.856e+00,1.826e+00,1.982e+00,2.145e+00,2.069e+00,1.743e+00,1.288e+00,1.480e+00,1.414e+00,1.034e+00,2.063e+00,1.520e+00,2.100e+00,1.598e+00,2.161e+00,2.050e+00,1.597e+00,2.469e+00,1.866e+00,2.074e+00,2.358e+00
5.088e-01,6.412e-01,4.714e-01,5.358e-01,1.231e+00,1.366e+00,1.924e+00,2.384e+00,1.773e+00,2.731e+00,2.250e+00,1.904e+00,2.619e+00,2.573e+00,2.933e+00,2.623e+00,2.132e+00,2.066e+00,2.262e+00,2.613e+00,2.324e+00,1.936e+00,1.907e+00,2.642e+00,1.164e+00,1.892e+00,1.497e+00,2.173e+00,2.222e+00,2.376e+00,2.761e+00,1.858e+00,2.059e+00,1.858e+00,1.782e+00,2.644e+00,2.141e+00,2.162e+00,2.550e+00,2.527e+00,2.260e+00,2.223e+00,2.854e+00,1.782e+00,2.241e+00,1.845e+00,2.417e+00,1.521e+00,2.310e+00,2.040e+00,1.980e+00,1.445e+00,2.303e+00,2.445e+00,2.274e+00,2.554e+00,1.095e+00,1.845e+00,2.326e+00,1.258e+00,1.761e+00,1.863e+00,1.813e+00,1.877e+00,2.314e+00,2.432e+00,1.213e+00,2.998e+00,1.815e+00,2.787e+00,2.402e+00
6.537e-01,7.875e-01,5.510e-01,6.826e-01,1.107e+00,2.033e+00,2.274e+00,3.362e+00,3.217e+00,3.931e+00,2.528e+00,3.369e+00,3.889e+00,3.798e+00,3.884e+00,3.819e+00,2.708e+00,2.702e+00,4.031e+00,3.865e+00,3.257e+00,3.205e+00,3.018e+00,3.807e+00,2.287e+00,2.612e+00,2.345e+00,3.320e+00,2.914e+00,2.529e+00,3.533e+00,3.120e+00,2.783e+00,2.993e+00,2.969e+00,3.130e+00,3.093e+00,3.328e+00,3.031e+00,3.283e+00,3.975e+00,3.756e+00,3.782e+00,3.012e+00,2.791e+00,2.554e+00,3.937e+00,2.381e+00,3.655e+00,2.789e+00,3.453e+00,2.500e+00,3.578e+00,3.664e+00,2.958e+00,2.866e+00,2.053e+00,3.010e+00,2.525e+00,2.959e+00,2.706e+00,2.959e+00,2.656e+00,2.516e+00,3.638e+00,3.364e+00,1.678e+00,3.577e+00,2.862e+00,3.271e+00,3.022e+00
5.759e-01,9.167e-01,6.123e-01,1.046e+00,1.401e+00,2.353e+00,2.364e+00,2.987e+00,2.200e+00,4.201e+00,3.310e+00,3.073e+00,3.640e+00,3.202e+00,3.749e+00,4.009e+00,2.477e+00,2.695e+00,3.819e+00,4.148e+00,3.672e+00,3.341e+00,2.902e+00,3.444e+00,2.076e+00,2.999e+00,2.597e+00,3.698e+00,3.897e+00,3.388e+00,3.724e+00,2.408e+00,2.218e+00,3.562e+00,2.850e+00,3.136e+00,3.367e+00,2.511e+00,2.036e+00,3.582e+00,2.729e+00,4.416e+00,3.530e+00,3.978e+00,2.842e+00,3.574e+00,3.340e+00,2.694e+00,2.574e+00,2.770e+00,2.934e+00,2.605e+00,3.235e+00,3.496e+00,2.236e+00,2.760e+00,2.710e+00,2.924e+00,2.624e+00,2.881e+00,2.366e+00,1.860e+00,2.849e+00,2.809e+00,3.184e+00,2.453e+00,2.147e+00,4.188e+00,2.487e+00,3.398e+00,3.186e+00
3.113e-01,4.392e-01,2.339e-01,6.091e-01,1.026e+00,1.264e+00,2.281e+00,2.823e+00,2.516e+00,3.388e+00,3.276e+00,3.398e+00,4.472e+00,3.976e+00,3.891e+00,4.001e+00,3.020e+00,2.843e+00,4.001e+00,3.797e+00,3.153e+00,2.575e+00,2.575e+00,3.026e+00,1.775e+00,2.716e+00,2.242e+00,2.898e+00,3.444e+00,2.960e+00,3.547e+00,2.362e+00,2.893e+00,3.261e+00,2.631e+00,3.208e+00,2.712e+00,2.403e+00,2.448e+00,3.696e+00,2.695e+00,3.811e+00,3.780e+00,2.862e+00,3.259e+00,2.259e+00,3.033e+00,2.205e+00,2.868e+00,3.324e+00,3.053e+00,2.737e+00,3.826e+00,4.252e+00,2.961e+00,2.355e+00,2.432e+00,2.364e+00,2.739e+00,2.152e+00,3.484e+00,2.055e+00,3.279e+00,2.995e+00,3.003e+00,3.075e+00,2.391e+00,3.066e+00,2.452e+00,3.493e+00,3.015e+00
2.430e-01,3.914e-01,3.301e-01,3.830e-01,9.376e-01,9.489e-01,2.002e+00,2.051e+00,1.981e+00,2.632e+00,2.835e+00,2.803e+00,3.768e+00,3.927e+00,3.337e+00,3.880e+00,3.273e+00,2.474e+00,3.585e+00,3.783e+00,3.107e+00,2.774e+00,2.920e+00,3.516e+00,1.749e+00,2.877e+00,1.948e+00,2.043e+00,2.687e+00,2.958e+00,4.252e+00,1.851e+00,3.400e+00,2.992e+00,2.887e+00,3.719e+00,2.943e+00,3.174e+00,3.336e+00,3.021e+00,3.408e+00,3.894e+00,3.820e+00,2.609e+00,2.897e+00,2.707e+00,3.069e+00,2.475e+00,3.087e+00,2.998e+00,2.964e+00,2.381e+00,3.020e+00,3.573e+00,3.269e+00,2.719e+00,1.248e+00,3.075e+00,2.841e+00,1.689e+00,2.385e+00,2.378e+00,2.070e+00,2.484e+00,3.029e+00,2.746e+00,1.974e+00,3.186e+00,2.190e+00,3.504e+00,3.100e+00
1.946e-02,7.666e-02,1.995e-01,3.195e-01,5.480e-01,5.294e-01,1.230e+00,1.552e+00,1.284e+00,2.306e+00,3.176e+00,1.766e+00,3.599e+00,3.416e+00,3.248e+00,3.501e+00,3.673e+00,3.451e+00,3.499e+00,3.070e+00,4.101e+00,2.534e+00,2.149e+00,2.676e+00,1.749e+00,2.680e+00,2.783e+00,2.182e+00,2.980e+00,3.430e+00,4.222e+00,2.548e+00,3.679e+00,3.161e+00,3.516e+00,3.860e+00,2.913e+00,3.316e+00,3.265e+00,3.992e+00,2.775e+00,3.329e+00,4.015e+00,2.842e+00,2.492e+00,2.313e+00,3.288e+00,3.087e+00,2.197e+00,2.195e+00,2.721e+00,2.584e+00,3.006e+00,3.144e+00,3.003e+00,3.527e+00,1.825e+00,2.598e+00,3.097e+00,1.786e+00,2.254e+00,2.516e+00,1.932e+00,2.308e+00,3.092e+00,3.203e+00,2.738e+00,3.175e+00,1.637e+00,3.259e+00,3.458e+00
4.812e-01,7.233e-01,5.330e-01,9.234e-01,1.317e+00,1.948e+00,2.565e+00,2.748e+00,2.842e+00,3.919e+00,3.588e+00,4.133e+00,5.052e+00,5.494e+00,5.080e+00,5.372e+00,4.701e+00,3.768e+00,6.348e+00,4.971e+00,5.545e+00,4.837e+00,5.142e+00,4.293e+00,3.006e+00,4.522e+00,3.917e+00,4.135e+00,4.312e+00,3.956e+00,6.035e+00,3.798e+00,4.649e+00,4.497e+00,4.454e+00,4.952e+00,4.526e+00,4.404e+00,3.872e+00,5.275e+00,3.813e+00,6.039e+00,5.058e+00,4.233e+00,4.166e+00,4.116e+00,4.400e+00,4.281e+00,3.663e+00,4.332e+00,4.823e+00,4.476e+00,4.854e+00,5.186e+00,4.215e+00,3.695e+00,2.945e+00,4.194e+00,3.475e+00,3.537e+00,3.674e+00,3.664e+00,3.692e+00,3.673e+00,4.413e+00,4.511e+00,3.929e+00,4.795e+00,2.990e+00,4.425e+00,5.046e+00
7.569e-01,1.088e+00,6.140e-01,6.676e-01,1.426e+00,1.618e+00,2.592e+00,2.649e+00,2.571e+00,3.754e+00,3.696e+00,3.732e+00,4.773e+00,4.909e+00,4.958e+00,5.819e+00,5.199e+00,4.483e+00,5.550e+00,5.089e+00,5.443e+00,5.065e+00,4.679e+00,4.318e+00,2.371e+00,4.500e+00,4.615e+00,4.424e+00,4.135e+00,4.488e+00,6.074e+00,3.759e+00,4.716e+00,3.767e+00,4.560e+00,5.088e+00,4.681e+00,3.868e+00,4.215e+00,6.018e+00,3.532e+00,5.748e+00,5.799e+00,3.495e+00,4.557e+00,3.767e+00,5.230e+00,4.386e+00,4.680e+00,4.121e+00,4.395e+00,4.832e+00,4.712e+00,5.768e+00,4.309e+00,3.727e+00,2.790e+00,4.319e+00,4.862e+00,3.224e+00,4.510e+00,3.646e+00,3.758e+00,3.856e+00,3.731e+00,4.871e+00,4.264e+00,5.123e+00,3.123e+00,5.341e+00,5.389e+00
6.486e-01,1.012e+00,5.771e-01,9.940e-01,1.355e+00,1.843e+00,2.401e+00,2.462e+00,2.006e+00,3.320e+00,2.275e+00,3.140e+00,3.329e+00,3.456e+00,3.800e+00,4.686e+00,3.264e+00,2.704e+00,4.547e+00,4.223e+00,4.062e+00,3.805e+00,4.699e+00,4.226e+00,2.009e+00,3.497e+00,2.878e+00,3.474e+00,3.521e+00,3.003e+00,4.153e+00,3.080e+00,3.877e+00,3.600e+00,3.283e+00,3.843e+00,4.109e+00,3.368e+00,2.906e+00,4.404e+00,2.342e+00,4.915e+00,3.815e+00,2.970e+00,4.151e+00,3.625e+00,3.223e+00,3.590e+00,2.906e+00,3.358e+00,3.017e+00,3.888e+00,3.646e+00,4.208e+00,2.606e+00,2.792e+00,2.729e+00,2.842e+00,2.567e+00,2.603e+00,3.598e+00,2.860e+00,3.566e+00,3.407e+00,3.165e+00,2.977e+00,3.210e+00,4.520e+00,2.426e+00,4.655e+00,3.919e+00
4.168e-01,6.706e-01,4.142e-01,4.984e-01,1.188e+00,1.454e+00,2.540e+00,2.755e+00,1.955e+00,3.156e+00,2.671e+00,2.877e+00,3.567e+00,4.364e+00,3.994e+00,4.530e+00,3.673e+00,3.440e+00,4.988e+00,3.974e+00,4.069e+00,3.561e+00,4.471e+00,4.166e+00,2.481e+00,4.525e+00,3.179e+00,2.843e+00,3.383e+00,3.463e+00,4.931e+00,3.313e+00,3.724e+00,2.810e+00,3.689e+00,3.732e+00,4.316e+00,4.237e+00,4.705e+00,4.272e+00,3.907e+00,5.064e+00,4.414e+00,3.232e+00,4.179e+00,3.582e+00,4.190e+00,3.393e+00,3.501e+00,3.783e+00,3.317e+00,3.356e+00,3.749e+00,4.127e+00,3.479e+00,3.517e+00,1.950e+00,4.013e+00,3.245e+00,2.181e+00,2.911e+00,3.074e+00,3.274e+00,3.246e+00,3.598e+00,3.944e+00,2.892e+00,4.425e+00,2.650e+00,5.561e+00,4.384e+00
5.351e-01,7.725e-01,5.811e-01,9.678e-01,1.464e+00,1.824e+00,2.364e+00,2.687e+00,2.507e+00,3.662e+00,3.283e+00,3.390e+00,4.419e+00,4.886e+00,4.941e+00,5.821e+00,4.948e+00,5.565e+00,6.295e+00,5.991e+00,6.341e+00,5.709e+00,5.398e+00,5.583e+00,3.432e+00,5.421e+00,4.988e+00,5.919e+00,5.206e+00,5.095e+00,6.526e+00,4.947e+00,5.782e+00,5.454e+00,5.536e+00,6.699e+00,5.123e+00,5.480e+00,5.955e+00,7.229e+00,4.081e+00,7.339e+00,6.429e+00,4.019e+00,5.088e+00,4.009e+00,5.259e+00,6.157e+00,5.006e+00,4.605e+00,5.447e+00,5.363e+00,5.422e+00,5.239e+00,4.062e+00,4.788e+00,3.527e+00,5.477e+00,4.792e+00,4.556e+00,4.930e+00,4.275e+00,4.756e+00,4.681e+00,5.054e+00,5.457e+00,4.683e+00,6.200e+00,3.531e+00,5.546e+00,5.717e+00
2.911e-01,6.574e-01,4.307e-01,7.866e-01,1.034e+00,1.295e+00,2.156e+00,2.510e+00,1.922e+00,3.319e+00,3.768e+00,2.900e+00,4.020e+00,4.386e+00,4.047e+00,5.392e+00,4.649e+00,5.011e+00,5.845e+00,5.394e+00,6.708e+00,6.000e+00,4.295e+00,5.059e+00,2.957e+00,5.644e+00,4.645e+00,5.640e+00,4.453e+00,5.652e+00,6.472e+00,4.257e+00,5.388e+00,5.133e+00,5.791e+00,6.465e+00,4.991e+00,5.442e+00,5.229e+00,6.753e+00,4.212e+00,6.954e+00,6.208e+00,4.970e+00,4.808e+00,3.918e+00,5.050e+00,5.077e+00,4.781e+00,4.358e+00,4.912e+00,5.355e+00,4.839e+00,5.232e+00,4.105e+00,4.909e+00,3.778e+00,5.786e+00,5.467e+00,4.557e+00,4.227e+00,4.302e+00,3.997e+00,4.620e+00,4.374e+00,5.084e+00,4.548e+00,5.603e+00,3.337e+00,5.943e+00,5.693e+00
2.169e-01,5.042e-01,2.285e-01,5.981e-01,8.566e-01,1.350e+00,2.473e+00,2.849e+00,2.225e+00,3.509e+00,2.897e+00,3.278e+00,4.008e+00,4.535e+00,4.241e+00,5.287e+00,3.882e+00,3.308e+00,5.418e+00,5.017e+00,5.477e+00,4.595e+00,5.523e+00,5.529e+00,2.347e+00,5.621e+00,3.894e+00,3.840e+00,4.702e+00,4.385e+00,5.687e+00,3.459e+00,4.773e+00,4.225e+00,4.817e+00,4.689e+00,5.301e+00,4.061e+00,3.933e+00,5.359e+00,3.279e+00,6.117e+00,5.747e+00,4.614e+00,4.466e+00,4.643e+00,4.918e+00,4.404e+00,3.609e+00,4.308e+00,4.057e+00,5.277e+00,5.251e+00,4.754e+00,3.695e+00,4.279e+00,3.863e+00,3.697e+00,3.563e+00,4.109e+00,4.096e+00,3.460e+00,4.763e+00,3.892e+00,4.672e+00,4.440e+00,4.885e+00,4.812e+00,4.063e+00,6.365e+00,4.817e+00
7.438e-01,1.106e+00,6.517e-01,9.034e-01,1.667e+00,1.743e+00,3.053e+00,2.794e+00,2.382e+00,3.973e+00,3.839e+00,4.045e+00,5.293e+00,5.369e+00,5.424e+00,5.607e+00,5.203e+00,4.376e+00,6.406e+00,5.803e+00,7.347e+00,5.429e+00,6.451e+00,6.674e+00,3.103e+00,6.961e+00,5.226e+00,5.072e+00,6.324e+00,6.064e+00,7.028e+00,4.414e+00,6.324e+00,5.163e+00,6.040e+00,6.456e+00,6.369e+00,5.868e+00,5.307e+00,7.162e+00,3.664e+00,6.928e+00,7.014e+00,5.795e+00,6.308e+00,5.965e+00,5.938e+00,5.212e+00,5.462e+00,5.610e+00,5.320e+00,5.878e+00,6.388e+00,6.519e+00,5.811e+00,5.742e+00,4.668e+00,5.267e+00,5.520e+00,4.580e+00,4.851e+00,5.621e+00,5.677e+00,4.699e+00,6.029e+00,5.984e+00,5.807e+00,6.582e+00,4.585e+00,7.839e+00,6.234e+00
3.128e-01,4.064e-01,2.685e-01,3.146e-01,1.033e+00,1.158e+00,1.418e+00,1.779e+00,2.028e+00,2.878e+00,2.580e+00,2.385e+00,3.415e+00,4.412e+00,3.839e+00,5.069e+00,4.428e+00,4.225e+00,4.702e+00,4.797e+00,5.284e+00,4.551e+00,5.862e+00,5.371e+00,2.797e+00,5.643e+00,4.427e+00,4.739e+00,5.352e+00,5.149e+00,6.094e+00,4.273e+00,5.803e+00,4.826e+00,5.809e+00,6.078e+00,5.284e+00,5.257e+00,5.307e+00,6.518e+00,4.195e+00,6.368e+00,6.011e+00,3.911e+00,4.925e+00,4.493e+00,4.965e+00,5.999e+00,4.402e+00,4.431e+00,4.748e+00,5.034e+00,5.081e+00,5.214e+00,3.861e+00,4.073e+00,3.621e+00,4.335e+00,4.733e+00,4.473e+00,4.792e+00,5.118e+00,3.922e+00,4.932e+00,4.658e+00,4.620e+00,5.515e+00,5.782e+00,3.501e+00,6.193e+00,4.932e+00
5.896e-01,9.682e-01,5.535e-01,6.836e-01,1.243e+00,1.720e+00,2.634e+00,3.023e+00,2.759e+00,3.921e+00,3.178e+00,3.424e+00,3.992e+00,4.275e+00,4.018e+00,4.937e+00,3.806e+00,4.158e+00,5.358e+00,5.247e+00,5.804e+00,5.827e+00,6.313e+00,6.917e+00,4.154e+00,7.228e+00,5.758e+00,6.563e+00,5.986e+00,6.620e+00,6.803e+00,4.708e+00,5.658e+00,6.002e+00,6.725e+00,6.573e+00,6.816e+00,5.668e+00,6.308e+00,6.805e+00,5.793e+00,8.342e+00,7.266e+00,6.158e+00,5.266e+00,5.617e+00,6.702e+00,5.623e+00,6.258e+00,5.588e+00,5.571e+00,6.324e+00,6.440e+00,6.281e+00,5.252e+00,5.795e+00,5.286e+00,6.294e+00,5.921e+00,6.041e+00,5.161e+00,5.980e+00,5.267e+00,5.423e+00,6.231e+00,6.170e+00,5.150e+00,7.303e+00,5.825e+00,7.973e+00,6.295e+00
1.073e-01,1.830e-01,9.058e-02,1.584e-01,5.381e-01,5.406e-01,1.255e+00,1.478e+00,1.756e+00,2.122e+00,2.222e+00,2.114e+00,2.973e+00,3.041e+00,2.614e+00,3.862e+00,3.006e+00,3.129e+00,3.569e+00,3.926e+00,4.408e+00,3.840e+00,4.606e+00,6.187e+00,3.217e+00,5.317e+00,4.874e+00,4.741e+00,5.541e+00,5.580e+00,4.985e+00,3.524e+00,5.592e+00,5.768e+00,6.352e+00,5.750e+00,5.068e+00,4.812e+00,4.612e+00,6.000e+00,4.790e+00,6.942e+00,6.108e+00,5.100e+00,4.051e+00,4.192e+00,5.037e+00,4.906e+00,4.657e+00,4.947e+00,4.372e+00,6.039e+00,5.147e+00,4.970e+00,4.673e+00,4.416e+00,5.017e+00,4.437e+00,5.284e+00,4.536e+00,5.686e+00,5.379e+00,4.042e+00,5.299e+00,4.794e+00,4.624e+00,5.367e+00,5.348e+00,4.733e+00,6.514e+00,4.723e+00
4.152e-01,5.585e-01,3.781e-01,3.673e-01,9.502e-01,1.687e+00,1.653e+00,2.119e+00,1.591e+00,2.942e+00,2.751e+00,2.400e+00,3.114e+00,3.665e+00,3.454e+00,4.102e+00,3.329e+00,3.730e+00,4.826e+00,4.190e+00,4.992e+00,4.271e+00,4.976e+00,5.382e+00,4.206e+00,5.988e+00,6.223e+00,4.923e+00,6.084e+00,5.557e+00,5.812e+00,3.905e+00,5.225e+00,5.784e+00,6.124e+00,5.063e+00,5.861e+00,4.883e+00,4.993e+00,6.037e+00,5.327e+00,6.981e+00,6.112e+00,6.115e+00,5.034e+00,5.394e+00,5.710e+00,5.398e+00,4.432e+00,6.048e+00,5.362e+00,5.388e+00,6.028e+00,5.385e+00,4.472e+00,5.273e+00,4.797e+00,5.625e+00,4.986e+00,4.541e+00,5.385e+00,4.474e+00,5.077e+00,5.572e+00,5.675e+00,5.259e+00,4.880e+00,6.523e+00,4.764e+00,7.211e+00,5.832e+00
4.362e-01,7.246e-01,3.686e-01,7.167e-01,1.178e+00,1.914e+00,2.756e+00,3.525e+00,2.391e+00,3.810e+00,3.066e+00,3.478e+00,4.136e+00,5.210e+00,4.666e+00,5.566e+00,4.318e+00,4.403e+00,6.418e+00,5.519e+00,6.827e+00,5.433e+00,6.866e+00,7.984e+00,4.053e+00,8.060e+00,7.250e+00,7.098e+00,7.978e+00,7.749e+00,8.645e+00,5.412e+00,6.983e+00,8.106e+00,8.219e+00,7.969e+00,7.316e+00,6.759e+00,6.608e+00,7.880e+00,6.248e+00,9.664e+00,9.442e+00,6.834e+00,6.905e+00,6.989e+00,7.229e+00,6.947e+00,6.178e+00,7.428e+00,7.612e+00,7.632e+00,8.058e+00,6.699e+00,5.780e+00,6.494e+00,6.368e+00,6.546e+00,7.296e+00,6.643e+00,7.771e+00,7.290e+00,6.601e+00,7.021e+00,7.892e+00,7.237e+00,7.023e+00,8.080e+00,6.966e+00,9.100e+00,7.506e+00
1.179e-01,4.022e-01,2.871e-01,6.823e-01,1.339e+00,1.295e+00,2.666e+00,2.779e+00,2.654e+00,3.769e+00,3.596e+00,3.251e+00,4.278e+00,4.693e+00,4.157e+00,4.999e+00,3.749e+00,3.892e+00,4.653e+00,5.171e+00,5.148e+00,4.653e+00,5.247e+00,6.229e+00,3.670e+00,6.777e+00,6.464e+00,5.944e+00,7.415e+00,7.996e+00,8.513e+00,4.400e+00,6.435e+00,7.482e+00,6.886e+00,8.156e+00,6.482e+00,6.783e+00,5.803e+00,6.855e+00,5.922e+00,8.949e+00,8.905e+00,5.642e+00,5.593e+00,6.897e+00,5.959e+00,6.097e+00,5.448e+00,6.466e+00,7.097e+00,5.507e+00,5.967e+00,6.474e+00,5.518e+00,6.365e+00,5.579e+00,5.782e+00,6.675e+00,5.539e+00,6.769e+00,5.935e+00,5.764e+00,5.600e+00,7.304e+00,6.409e+00,5.541e+00,7.847e+00,5.620e+00,7.525e+00,6.664e+00
2.096e-01,3.219e-01,3.171e-01,6.458e-01,1.105e+00,1.851e+00,2.520e+00,2.862e+00,2.328e+00,3.527e+00,2.885e+00,3.186e+00,4.026e+00,4.588e+00,4.930e+00,5.660e+00,4.034e+00,4.458e+00,5.965e+00,5.779e+00,6.551e+00,5.421e+00,6.623e+00,6.757e+00,4.441e+00,7.264e+00,8.382e+00,7.763e+00,8.804e+00,8.292e+00,9.460e+00,6.222e+00,7.832e+00,8.248e+00,8.121e+00,8.191e+00,7.774e+00,6.914e+00,7.905e+00,8.355e+00,5.962e+00,1.063e+01,9.879e+00,6.775e+00,6.646e+00,6.866e+00,7.314e+00,8.181e+00,6.766e+00,7.074e+00,7.867e+00,7.856e+00,8.526e+00,6.793e+00,5.902e+00,7.158e+00,7.475e+00,6.747e+00,6.259e+00,7.090e+00,7.685e+00,6.647e+00,8.048e+00,6.508e+00,9.026e+00,8.412e+00,6.869e+00,9.038e+00,7.432e+00,8.636e+00,7.626e+00
9.968e-02,4.320e-01,2.176e-01,7.877e-01,7.559e-01,1.510e+00,2.736e+00,3.595e+00,3.105e+00,4.276e+00,3.789e+00,4.229e+00,5.356e+00,5.753e+00,4.916e+00,6.630e+00,4.860e+00,5.107e+00,6.713e+00,6.289e+00,6.925e+00,5.378e+00,5.806e+00,7.514e+00,4.106e+00,6.758e+00,7.272e+00,6.624e+00,8.734e+00,8.778e+00,9.376e+00,5.905e+00,7.786e+00,8.738e+00,8.874e+00,9.530e+00,7.839e+00,8.083e+00,6.778e+00,8.785e+00,7.006e+00,1.095e+01,1.046e+01,7.447e+00,6.139e+00,7.322e+00,8.099e+00,7.745e+00,6.587e+00,7.084e+00,8.608e+00,7.749e+00,8.322e+00,7.743e+00,6.965e+00,6.660e+00,7.123e+00,6.861e+00,7.744e+00,7.493e+00,8.652e+00,7.349e+00,6.741e+00,6.291e+00,7.641e+00,8.170e+00,6.417e+00,8.242e+00,6.661e+00,7.816e+00,7.443e+00
5.267e-01,8.009e-01,5.083e-01,7.123e-01,1.517e+00,1.749e+00,2.863e+00,2.587e+00,2.371e+00,3.426e+00,2.972e+00,3.563e+00,4.236e+00,4.610e+00,4.381e+00,4.896e+00,3.899e+00,3.695e+00,5.563e+00,5.147e+00,6.183e+00,4.768e+00,6.784e+00,7.299e+00,4.497e+00,7.236e+00,7.195e+00,6.390e+00,8.297e+00,8.564e+00,8.539e+00,5.739e+00,7.996e+00,7.934e+00,8.749e+00,8.910e+00,8.449e+00,7.767e+00,7.379e+00,7.385e+00,6.898e+00,9.584e+00,9.376e+00,7.512e+00,6.396e+00,8.721e+00,7.932e+00,7.747e+00,7.198e+00,8.301e+00,8.018e+00,7.311e+00,8.170e+00,7.199e+00,7.306e+00,7.491e+00,7.148e+00,6.841e+00,7.676e+00,7.260e+00,8.748e+00,8.539e+00,7.887e+00,7.065e+00,8.001e+00,9.085e+00,7.419e+00,9.674e+00,6.838e+00,9.237e+00,8.207e+00
3.585e-01,5.869e-01,3.047e-01,4.603e-01,8.559e-01,1.636e+00,1.569e+00,1.914e+00,1.967e+00,3.220e+00,2.504e+00,2.703e+00,2.971e+00,3.025e+00,2.868e+00,3.815e+00,2.376e+00,2.797e+00,4.173e+00,4.624e+00,4.503e+00,4.560e+00,5.031e+00,5.322e+00,3.440e+00,6.132e+00,5.386e+00,5.400e+00,6.248e+00,6.383e+00,6.385e+00,4.873e+00,4.649e+00,6.909e+00,6.813e+00,5.788e+00,6.734e+00,5.696e+00,4.018e+00,5.584e+00,5.227e+00,8.944e+00,6.588e+00,7.073e+00,4.509e+00,7.696e+00,6.268e+00,5.255e+00,6.102e+00,5.872e+00,5.794e+00,5.787e+00,5.508e+00,5.705e+00,5.251e+00,5.901e+00,6.835e+00,5.444e+00,4.728e+00,6.419e+00,6.003e+00,5.824e+00,6.751e+00,6.186e+00,6.504e+00,6.098e+00,6.080e+00,6.449e+00,5.380e+00,7.671e+00,5.663e+00
1.628e-02,7.029e-02,1.115e-01,4.350e-01,7.440e-01,1.086e+00,1.407e+00,1.984e+00,1.585e+00,2.534e+00,2.704e+00,2.269e+00,3.337e+00,3.764e+00,3.127e+00,3.677e+00,2.962e+00,3.084e+00,3.881e+00,4.237e+00,4.836e+00,3.146e+00,4.148e+00,4.710e+00,3.386e+00,5.311e+00,5.546e+00,5.351e+00,6.819e+00,7.196e+00,7.147e+00,4.583e+00,6.813e+00,8.716e+00,7.308e+00,7.470e+00,6.255e+00,6.421e+00,5.308e+00,7.094e+00,5.355e+00,8.188e+00,8.023e+00,6.747e+00,5.581e+00,6.458e+00,6.245e+00,6.550e+00,6.879e+00,6.992e+00,7.076e+00,6.098e+00,7.126e+00,5.768e+00,6.678e+00,6.253e+00,6.039e+00,6.314e+00,6.344e+00,6.362e+00,7.505e+00,6.783e+00,6.792e+00,5.864e+00,6.680e+00,6.806e+00,5.259e+00,7.388e+00,5.228e+00,6.735e+00,6.057e+00
1.081e-01,2.915e-01,2.714e-01,5.753e-01,1.016e+00,1.681e+00,1.940e+00,2.329e+00,2.108e+00,3.165e+00,2.624e+00,2.797e+00,3.346e+00,4.582e+00,3.843e+00,5.099e+00,3.736e+00,4.013e+00,5.705e+00,6.062e+00,7.073e+00,5.745e+00,7.132e+00,7.865e+00,5.473e+00,8.318e+00,7.826e+00,7.252e+00,9.903e+00,9.788e+00,1.028e+01,7.206e+00,9.420e+00,1.039e+01,1.114e+01,1.014e+01,1.018e+01,1.018e+01,8.591e+00,9.138e+00,8.269e+00,1.318e+01,1.164e+01,1.103e+01,7.749e+00,1.029e+01,9.056e+00,9.702e+00,8.698e+00,9.347e+00,9.016e+00,8.940e+00,1.057e+01,8.211e+00,8.778e+00,9.013e+00,9.680e+00,9.704e+00,8.274e+00,8.897e+00,8.960e+00,9.695e+00,9.257e+00,8.056e+00,9.790e+00,9.848e+00,8.303e+00,1.076e+01,8.408e+00,1.081e+01,8.553e+00
4.543e-01,6.263e-01,3.662e-01,5.372e-01,1.087e+00,1.213e+00,1.581e+00,1.766e+00,2.359e+00,2.864e+00,2.976e+00,3.098e+00,4.028e+00,4.453e+00,3.646e+00,4.703e+00,4.372e+00,4.253e+00,4.933e+00,4.854e+00,5.063e+00,4.645e+00,5.567e+00,5.218e+00,3.547e+00,5.166e+00,5.201e+00,5.581e+00,6.184e+00,6.445e+00,6.946e+00,5.123e+00,6.580e+00,8.443e+00,7.647e+00,8.308e+00,7.159e+00,6.797e+00,6.712e+00,7.821e+00,5.373e+00,9.668e+00,9.074e+00,6.491e+00,6.014e+00,6.956e+00,7.041e+00,8.003e+00,6.318e+00,7.007e+00,7.846e+00,6.827e+00,8.495e+00,7.600e+00,6.755e+00,6.739e+00,6.227e+00,7.040e+00,7.068e+00,6.494e+00,7.771e+00,7.887e+00,7.205e+00,6.168e+00,6.710e+00,8.099e+00,7.004e+00,8.097e+00,5.337e+00,7.515e+00,6.870e+00
7.711e-01,1.160e+00,6.063e-01,9.610e-01,1.596e+00,1.760e+00,2.857e+00,3.140e+00,3.257e+00,4.102e+00,3.367e+00,4.266e+00,5.002e+00,5.294e+00,4.927e+00,6.277e+00,5.136e+00,5.149e+00,6.495e+00,7.035e+00,7.390e+00,6.609e+00,7.200e+00,8.568e+00,5.134e+00,7.987e+00,8.050e+00,7.551e+00,8.365e+00,8.689e+00,9.224e+00,6.513e+00,9.214e+00,9.763e+00,9.973e+00,1.034e+01,9.782e+00,9.390e+00,7.612e+00,1.004e+01,7.755e+00,1.124e+01,1.105e+01,8.627e+00,8.769e+00,9.412e+00,9.548e+00,7.947e+00,8.881e+00,9.561e+00,8.915e+00,9.513e+00,1.004e+01,9.269e+00,8.498e+00,8.789e+00,8.621e+00,8.520e+00,9.071e+00,7.792e+00,9.735e+00,9.187e+00,9.728e+00,8.867e+00,9.415e+00,9.284e+00,8.259e+00,1.014e+01,7.790e+00,1.161e+01,8.768e+00
6.889e-01,7.708e-01,6.348e-01,4.132e-01,1.025e+00,1.399e+00,1.574e+00,1.422e+00,1.593e+00,2.590e+00,3.469e+00,3.091e+00,4.646e+00,4.509e+00,4.643e+00,5.336e+00,5.495e+00,4.817e+00,5.685e+00,6.012e+00,6.703e+00,5.492e+00,5.759e+00,6.079e+00,3.891e+00,5.897e+00,7.482e+00,6.151e+00,7.666e+00,7.619e+00,8.804e+00,5.377e+00,7.240e+00,7.846e+00,8.136e+00,8.246e+00,8.178e+00,6.867e+00,7.583e+00,7.859e+00,5.924e+00,1.038e+01,9.888e+00,7.160e+00,7.404e+00,7.346e+00,7.779e+00,8.366e+00,7.501e+00,7.261e+00,8.681e+00,7.783e+00,8.824e+00,7.696e+00,7.047e+00,7.563e+00,7.614e+00,7.274e+00,7.621e+00,5.912e+00,8.397e+00,7.506e+00,8.551e+00,7.041e+00,9.146e+00,9.031e+00,7.314e+00,8.489e+00,7.228e+00,8.488e+00,8.271e+00
5.868e-01,9.681e-01,5.386e-01,7.364e-01,1.206e+00,1.604e+00,2.058e+00,2.341e+00,1.722e+00,3.473e+00,3.530e+00,2.912e+00,3.983e+00,4.554e+00,4.217e+00,5.421e+00,4.962e+00,4.745e+00,5.860e+00,5.366e+00,6.876e+00,5.617e+00,5.866e+00,6.158e+00,3.226e+00,6.486e+00,6.295e+00,5.693e+00,6.226e+00,6.701e+00,8.373e+00,5.770e+00,7.367e+00,8.815e+00,8.428e+00,8.718e+00,9.617e+00,8.386e+00,6.479e+00,9.745e+00,6.534e+00,1.047e+01,9.863e+00,8.101e+00,8.700e+00,9.367e+00,8.989e+00,7.728e+00,7.267e+00,7.972e+00,8.194e+00,9.489e+00,8.953e+00,8.102e+00,8.100e+00,8.978e+00,8.003e+00,7.821e+00,8.580e+00,7.538e+00,7.891e+00,8.109e+00,9.751e+00,8.073e+00,8.420e+00,8.969e+00,8.454e+00,9.065e+00,6.629e+00,1.020e+01,8.545e+00
8.739e-02,3.051e-01,1.331e-01,7.197e-01,5.292e-01,1.261e+00,1.771e+00,2.452e+00,2.395e+00,2.809e+00,2.311e+00,3.315e+00,3.790e+00,4.754e+00,3.515e+00,4.938e+00,3.896e+00,3.752e+00,5.979e+00,4.885e+00,5.898e+00,4.801e+00,6.144e+00,6.165e+00,3.843e+00,5.847e+00,5.673e+00,6.115e+00,6.975e+00,6.900e+00,8.139e+00,5.812e+00,7.167e+00,9.105e+00,9.165e+00,9.393e+00,9.393e+00,9.379e+00,8.447e+00,9.024e+00,8.444e+00,1.196e+01,1.071e+01,8.828e+00,8.817e+00,9.579e+00,8.233e+00,9.217e+00,7.067e+00,8.875e+00,1.037e+01,9.317e+00,1.090e+01,8.659e+00,7.297e+00,8.750e+00,9.242e+00,8.669e+00,9.351e+00,9.788e+00,1.003e+01,1.016e+01,9.676e+00,8.244e+00,9.734e+00,1.064e+01,9.419e+00,1.002e+01,7.353e+00,8.645e+00,8.953e+00
7.469e-01,8.323e-01,5.358e-01,3.037e-01,8.334e-01,1.299e+00,1.157e+00,1.790e+00,1.628e+00,2.727e+00,2.877e+00,2.552e+00,4.054e+00,4.146e+00,4.079e+00,5.232e+00,5.178e+00,5.151e+00,5.206e+00,5.805e+00,6.663e+00,5.075e+00,5.178e+00,6.731e+00,3.336e+00,5.874e+00,7.014e+00,5.956e+00,7.278e+00,7.247e+00,7.544e+00,5.444e+00,8.460e+00,9.348e+00,9.211e+00,9.050e+00,9.598e+00,8.898e+00,9.364e+00,1.040e+01,8.227e+00,1.117e+01,1.137e+01,9.506e+00,1.014e+01,9.589e+00,9.891e+00,9.368e+00,8.621e+00,8.928e+00,9.622e+00,9.999e+00,1.039e+01,9.611e+00,8.384e+00,1.047e+01,9.296e+00,9.673e+00,1.056e+01,9.070e+00,1.061e+01,1.041e+01,1.052e+01,9.038e+00,9.875e+00,9.625e+00,9.074e+00,1.046e+01,8.117e+00,1.029e+01,9.341e+00
7.288e-01,9.105e-01,6.345e-01,7.550e-01,1.838e+00,1.860e+00,2.210e+00,2.282e+00,2.441e+00,3.536e+00,3.357e+00,3.200e+00,4.110e+00,4.023e+00,3.977e+00,4.257e+00,3.560e+00,4.030e+00,3.982e+00,5.885e+00,5.042e+00,4.477e+00,5.437e+00,6.528e+00,3.857e+00,6.080e+00,5.466e+00,6.434e+00,8.615e+00,8.315e+00,8.125e+00,5.485e+00,7.009e+00,8.887e+00,7.874e+00,9.931e+00,9.385e+00,8.810e+00,9.834e+00,8.779e+00,8.606e+00,1.221e+01,1.194e+01,1.072e+01,9.919e+00,1.131e+01,8.642e+00,1.001e+01,9.480e+00,9.329e+00,1.037e+01,8.723e+00,1.222e+01,9.810e+00,8.846e+00,9.833e+00,9.968e+00,9.483e+00,1.049e+01,1.001e+01,1.012e+01,1.055e+01,1.190e+01,8.733e+00,1.064e+01,1.247e+01,9.454e+00,1.193e+01,9.244e+00,1.049e+01,8.499e+00
7.522e-01,1.153e+00,6.948e-01,9.598e-01,1.559e+00,1.755e+00,2.317e+00,2.036e+00,2.227e+00,3.173e+00,2.550e+00,3.215e+00,3.518e+00,4.100e+00,3.958e+00,4.706e+00,4.172e+00,4.360e+00,5.329e+00,5.203e+00,6.142e+00,5.547e+00,6.521e+00,6.809e+00,4.317e+00,6.975e+00,7.328e+00,7.079e+00,7.949e+00,8.232e+00,9.606e+00,7.088e+00,8.711e+00,1.053e+01,9.819e+00,1.090e+01,9.366e+00,9.634e+00,8.737e+00,9.821e+00,8.064e+00,1.356e+01,1.311e+01,1.062e+01,9.986e+00,1.152e+01,1.042e+01,1.062e+01,1.016e+01,9.331e+00,1.087e+01,1.083e+01,1.129e+01,1.053e+01,1.018e+01,9.864e+00,9.782e+00,1.012e+01,1.139e+01,1.056e+01,1.084e+01,1.177e+01,1.151e+01,8.356e+00,9.825e+00,1.265e+01,9.509e+00,1.184e+01,9.770e+00,1.054e+01,1.084e+01
2.398e-01,4.109e-01,1.892e-01,5.549e-01,7.465e-01,1.198e+00,1.722e+00,2.250e+00,1.751e+00,2.861e+00,2.767e+00,2.844e+00,3.752e+00,3.645e+00,3.462e+00,4.394e+00,3.267e+00,3.968e+00,4.702e+00,4.958e+00,5.135e+00,3.960e+00,5.121e+00,5.710e+00,4.143e+00,6.274e+00,7.114e+00,6.162e+00,8.610e+00,8.247e+00,7.886e+00,5.677e+00,7.779e+00,1.074e+01,9.213e+00,8.864e+00,1.064e+01,9.043e+00,9.157e+00,1.008e+01,8.899e+00,1.407e+01,1.308e+01,1.135e+01,1.135e+01,1.232e+01,1.024e+01,1.132e+01,1.036e+01,1.142e+01,1.155e+01,1.149e+01,1.275e+01,1.123e+01,1.023e+01,1.093e+01,1.180e+01,1.105e+01,1.129e+01,1.028e+01,1.280e+01,1.142e+01,1.400e+01,9.650e+00,1.148e+01,1.270e+01,1.031e+01,1.226e+01,1.011e+01,1.147e+01,9.893e+00
7.598e-01,8.979e-01,6.919e-01,6.776e-01,1.347e+00,2.379e+00,1.750e+00,2.733e+00,2.596e+00,3.953e+00,3.115e+00,3.188e+00,4.044e+00,4.420e+00,4.147e+00,5.122e+00,4.045e+00,4.472e+00,5.170e+00,6.488e+00,6.120e+00,5.301e+00,5.806e+00,7.588e+00,4.657e+00,6.443e+00,6.832e+00,6.937e+00,7.979e+00,7.751e+00,8.342e+00,6.086e+00,7.466e+00,1.002e+01,8.888e+00,8.920e+00,9.186e+00,9.079e+00,7.602e+00,9.108e+00,8.836e+00,1.225e+01,1.131e+01,1.020e+01,9.492e+00,1.033e+01,9.797e+00,9.314e+00,1.013e+01,9.235e+00,9.887e+00,9.284e+00,1.018e+01,9.620e+00,8.787e+00,1.028e+01,9.700e+00,9.612e+00,9.817e+00,9.838e+00,9.908e+00,9.647e+00,1.073e+01,9.053e+00,1.087e+01,9.871e+00,7.536e+00,1.104e+01,9.078e+00,1.075e+01,9.350e+00
1.440e-01,2.642e-01,2.774e-01,5.237e-01,1.151e+00,1.031e+00,2.141e+00,1.923e+00,2.251e+00,2.823e+00,2.783e+00,2.754e+00,3.530e+00,3.829e+00,3.845e+00,4.198e+00,3.361e+00,3.830e+00,5.000e+00,4.367e+00,5.298e+00,5.141e+00,5.532e+00,5.695e+00,4.607e+00,7.107e+00,6.822e+00,5.837e+00,7.642e+00,7.525e+00,8.797e+00,6.953e+00,8.502e+00,9.414e+00,9.288e+00,9.281e+00,9.286e+00,1.045e+01,9.067e+00,9.428e+00,8.950e+00,1.365e+01,1.239e+01,1.061e+01,1.195e+01,1.199e+01,1.092e+01,1.118e+01,1.116e+01,1.036e+01,1.197e+01,1.082e+01,1.211e+01,1.256e+01,1.136e+01,1.111e+01,1.168e+01,1.063e+01,1.073e+01,1.025e+01,1.114e+01,1.247e+01,1.402e+01,1.028e+01,1.161e+01,1.353e+01,9.971e+00,1.214e+01,9.929e+00,1.201e+01,1.087e+01
1.045e-01,2.105e-01,9.659e-02,4.091e-01,6.345e-01,1.070e+00,2.008e+00,2.856e+00,2.162e+00,3.256e+00,2.692e+00,2.670e+00,3.906e+00,4.499e+00,4.521e+00,5.257e+00,4.220e+00,4.272e+00,5.539e+00,4.674e+00,6.320e+00,4.555e+00,5.205e+00,5.921e+00,3.555e+00,6.861e+00,7.148e+00,5.865e+00,7.749e+00,7.797e+00,8.145e+00,5.963e+00,8.129e+00,7.459e+00,8.673e+00,8.184e+00,8.166e+00,8.581e+00,8.674e+00,8.832e+00,8.063e+00,1.037e+01,1.085e+01,9.138e+00,9.770e+00,9.632e+00,1.092e+01,1.024e+01,9.356e+00,8.819e+00,1.022e+01,9.934e+00,1.173e+01,1.067e+01,7.636e+00,9.890e+00,1.088e+01,8.292e+00,1.050e+01,1.014e+01,1.097e+01,1.077e+01,1.098e+01,9.024e+00,1.072e+01,1.140e+01,9.838e+00,1.092e+01,9.160e+00,1.083e+01,1.000e+01
7.750e-01,1.006e+00,5.815e-01,6.141e-01,1.518e+00,2.165e+00,2.378e+00,3.001e+00,2.635e+00,4.063e+00,3.620e+00,3.735e+00,4.689e+00,5.358e+00,4.926e+00,5.744e+00,4.895e+00,4.316e+00,5.489e+00,5.769e+00,5.685e+00,4.645e+00,6.023e+00,5.928e+00,3.778e+00,5.901e+00,6.799e+00,6.094e+00,7.991e+00,8.011e+00,8.607e+00,5.526e+00,7.564e+00,9.678e+00,8.553e+00,8.978e+00,9.300e+00,7.969e+00,8.451e+00,9.323e+00,8.097e+00,1.248e+01,1.188e+01,9.901e+00,9.443e+00,1.147e+01,1.104e+01,1.053e+01,1.073e+01,1.046e+01,1.118e+01,1.038e+01,1.267e+01,1.145e+01,1.069e+01,1.035e+01,1.039e+01,1.029e+01,1.103e+01,9.826e+00,1.127e+01,1.163e+01,1.101e+01,8.749e+00,1.084e+01,1.280e+01,9.696e+00,1.190e+01,9.425e+00,1.080e+01,1.005e+01
7.792e-01,8.556e-01,6.014e-01,4.885e-01,1.149e+00,1.718e+00,1.795e+00,2.473e+00,2.238e+00,2.937e+00,2.710e+00,2.849e+00,3.906e+00,4.529e+00,4.535e+00,5.384e+00,5.113e+00,5.247e+00,5.674e+00,5.748e+00,6.855e+00,5.624e+00,6.378e+00,7.612e+00,4.148e+00,6.310e+00,7.764e+00,7.176e+00,8.496e+00,7.716e+00,9.350e+00,6.762e+00,9.140e+00,9.276e+00,9.623e+00,9.619e+00,9.567e+00,8.744e+00,9.419e+00,1.023e+01,9.417e+00,1.275e+01,1.336e+01,9.866e+00,1.070e+01,1.065e+01,1.185e+01,1.232e+01,1.064e+01,1.048e+01,1.141e+01,1.205e+01,1.368e+01,1.209e+01,1.028e+01,1.210e+01,1.198e+01,1.038e+01,1.184e+01,1.169e+01,1.282e+01,1.207e+01,1.199e+01,1.042e+01,1.270e+01,1.339e+01,1.026e+01,1.295e+01,1.238e+01,1.217e+01,1.096e+01
3.717e-01,4.089e-01,3.991e-01,3.831e-01,9.743e-01,1.445e+00,1.763e+00,1.980e+00,1.735e+00,2.489e+00,2.370e+00,2.231e+00,3.008e+00,3.577e+00,3.700e+00,4.319e+00,3.660e+00,3.682e+00,5.088e+00,4.024e+00,5.496e+00,4.761e+00,5.573e+00,6.040e+00,3.730e+00,5.576e+00,6.863e+00,5.591e+00,6.585e+00,6.723e+00,7.760e+00,6.246e+00,8.128e+00,9.728e+00,9.571e+00,8.610e+00,9.648e+00,9.549e+00,8.556e+00,9.039e+00,9.113e+00,1.268e+01,1.133e+01,9.155e+00,9.561e+00,1.199e+01,1.150e+01,1.314e+01,1.173e+01,1.143e+01,1.273e+01,1.182e+01,1.295e+01,1.102e+01,1.121e+01,1.307e+01,1.284e+01,1.135e+01,1.126e+01,1.127e+01,1.346e+01,1.351e+01,1.250e+01,1.142e+01,1.392e+01,1.368e+01,1.232e+01,1.228e+01,1.094e+01,1.283e+01,1.214e+01
1.755e-01,3.672e-01,1.958e-01,4.509e-01,8.799e-01,8.269e-01,1.836e+00,2.023e+00,1.786e+00,2.483e+00,2.330e+00,2.465e+00,3.323e+00,4.373e+00,3.771e+00,4.623e+00,4.139e+00,3.706e+00,4.668e+00,4.558e+00,5.583e+00,4.282e+00,6.117e+00,6.174e+00,3.910e+00,7.060e+00,7.021e+00,5.991e+00,8.456e+00,8.838e+00,9.495e+00,6.125e+00,8.314e+00,9.211e+00,9.040e+00,9.755e+00,9.608e+00,9.030e+00,1.008e+01,9.217e+00,8.070e+00,1.257e+01,1.297e+01,1.017e+01,1.111e+01,1.112e+01,1.063e+01,1.100e+01,1.006e+01,1.030e+01,1.225e+01,1.126e+01,1.377e+01,1.147e+01,1.097e+01,1.132e+01,1.199e+01,1.055e+01,1.265e+01,1.049e+01,1.230e+01,1.319e+01,1.266e+01,9.346e+00,1.198e+01,1.415e+01,1.054e+01,1.276e+01,1.015e+01,1.161e+01,1.122e+01
6.364e-01,9.349e-01,5.074e-01,7.384e-01,1.183e+00,2.021e+00,2.168e+00,3.139e+00,2.815e+00,4.352e+00,3.240e+00,3.627e+00,4.631e+00,5.243e+00,4.849e+00,6.364e+00,5.063e+00,5.792e+00,6.475e+00,6.893e+00,6.967e+00,5.857e+00,7.165e+00,8.149e+00,4.999e+00,7.865e+00,8.037e+00,7.381e+00,8.837e+00,8.575e+00,9.318e+00,7.035e+00,8.301e+00,1.041e+01,9.630e+00,9.548e+00,1.135e+01,9.807e+00,1.024e+01,1.120e+01,9.920e+00,1.391e+01,1.301e+01,1.141e+01,1.068e+01,1.199e+01,1.241e+01,1.222e+01,1.159e+01,1.117e+01,1.231e+01,1.283e+01,1.447e+01,1.161e+01,1.106e+01,1.351e+01,1.365e+01,1.222e+01,1.273e+01,1.390e+01,1.275e+01,1.238e+01,1.336e+01,1.094e+01,1.379e+01,1.409e+01,1.252e+01,1.463e+01,1.127e+01,1.445e+01,1.158e+01
4.395e-01,5.176e-01,4.977e-01,7.309e-01,1.118e+00,1.314e+00,1.637e+00,1.844e+00,1.968e+00,2.913e+00,2.978e+00,2.763e+00,4.156e+00,3.811e+00,4.322e+00,4.766e+00,4.267e+00,4.517e+00,4.915e+00,5.927e+00,6.149e+00,5.104e+00,4.569e+00,6.364e+00,3.896e+00,6.028e+00,7.347e+00,6.478e+00,8.808e+00,9.116e+00,8.474e+00,5.892e+00,8.086e+00,9.294e+00,8.946e+00,9.201e+00,8.867e+00,8.633e+00,8.080e+00,8.549e+00,8.064e+00,1.243e+01,1.165e+01,8.892e+00,8.308e+00,1.063e+01,1.033e+01,1.126e+01,1.031e+01,1.081e+01,1.237e+01,1.086e+01,1.335e+01,1.010e+01,1.021e+01,1.284e+01,1.329e+01,1.028e+01,1.202e+01,1.111e+01,1.430e+01,1.166e+01,1.324e+01,9.086e+00,1.311e+01,1.317e+01,1.061e+01,1.350e+01,1.102e+01,1.197e+01,1.128e+01
4.325e-01,5.854e-01,4.686e-01,4.533e-01,1.004e+00,1.634e+00,1.534e+00,1.595e+00,1.566e+00,2.675e+00,3.125e+00,2.806e+00,3.553e+00,4.046e+00,3.452e+00,4.157e+00,3.771e+00,3.668e+00,5.269e+00,5.237e+00,6.059e+00,5.227e+00,5.524e+00,5.563e+00,4.073e+00,6.287e+00,5.948e+00,5.405e+00,6.759e+00,6.765e+00,7.388e+00,4.720e+00,6.853e+00,7.999e+00,7.930e+00,7.982e+00,8.476e+00,7.973e+00,7.492e+00,7.660e+00,8.058e+00,1.134e+01,9.774e+00,1.039e+01,9.415e+00,1.123e+01,9.761e+00,1.100e+01,1.066e+01,1.056e+01,1.252e+01,1.163e+01,1.381e+01,1.168e+01,1.102e+01,1.246e+01,1.306e+01,1.138e+01,1.140e+01,1.140e+01,1.248e+01,1.161e+01,1.217e+01,1.008e+01,1.304e+01,1.417e+01,1.129e+01,1.225e+01,1.159e+01,1.263e+01,1.178e+01
1.034e-01,2.866e-01,2.524e-01,5.099e-01,9.491e-01,1.412e+00,1.777e+00,2.366e+00,2.406e+00,3.568e+00,3.410e+00,2.993e+00,4.230e+00,5.262e+00,4.333e+00,5.811e+00,4.830e+00,5.258e+00,5.933e+00,6.604e+00,6.911e+00,5.751e+00,6.376e+00,6.656e+00,4.945e+00,7.672e+00,7.598e+00,6.723e+00,8.242e+00,8.687e+00,1.052e+01,7.088e+00,8.904e+00,1.024e+01,9.806e+00,1.037e+01,1.056e+01,1.045e+01,1.051e+01,1.024e+01,9.662e+00,1.297e+01,1.318e+01,1.177e+01,1.132e+01,1.225e+01,1.229e+01,1.319e+01,1.142e+01,1.179e+01,1.398e+01,1.333e+01,1.624e+01,1.278e+01,1.242e+01,1.570e+01,1.429e+01,1.468e+01,1.351e+01,1.366e+01,1.493e+01,1.382e+01,1.444e+01,1.127e+01,1.483e+01,1.605e+01,1.463e+01,1.543e+01,1.159e+01,1.484e+01,1.381e+01
3.047e-01,5.513e-01,3.680e-01,4.867e-01,1.062e+00,1.578e+00,1.820e+00,1.891e+00,1.402e+00,2.933e+00,3.282e+00,2.515e+00,3.402e+00,3.881e+00,3.451e+00,4.579e+00,3.724e+00,3.754e+00,4.584e+00,5.176e+00,6.155e+00,4.778e+00,5.404e+00,6.209e+00,3.035e+00,6.038e+00,6.028e+00,5.822e+00,7.176e+00,7.256e+00,8.266e+00,4.704e+00,6.231e+00,8.264e+00,8.181e+00,8.437e+00,8.936e+00,7.720e+00,7.431e+00,8.763e+00,6.937e+00,1.157e+01,1.151e+01,1.044e+01,9.470e+00,1.177e+01,1.048e+01,1.186e+01,9.988e+00,1.034e+01,1.261e+01,1.115e+01,1.320e+01,1.265e+01,1.149e+01,1.477e+01,1.331e+01,1.251e+01,1.256e+01,1.348e+01,1.285e+01,1.186e+01,1.288e+01,1.143e+01,1.398e+01,1.330e+01,1.349e+01,1.364e+01,1.161e+01,1.286e+01,1.249e+01
6.724e-01,9.160e-01,6.513e-01,9.373e-01,1.818e+00,2.523e+00,2.857e+00,3.487e+00,2.998e+00,4.379e+00,3.623e+00,3.737e+00,4.481e+00,5.257e+00,5.217e+00,6.371e+00,4.798e+00,5.731e+00,6.783e+00,7.504e+00,7.850e+00,7.282e+00,7.791e+00,8.630e+00,5.036e+00,8.425e+00,7.806e+00,9.574e+00,8.927e+00,9.447e+00,1.010e+01,7.579e+00,8.389e+00,9.960e+00,1.062e+01,1.099e+01,1.098e+01,9.822e+00,1.097e+01,1.081e+01,1.000e+01,1.489e+01,1.407e+01,1.126e+01,1.204e+01,1.340e+01,1.283e+01,1.342e+01,1.335e+01,1.210e+01,1.470e+01,1.452e+01,1.546e+01,1.380e+01,1.289e+01,1.542e+01,1.500e+01,1.405e+01,1.546e+01,1.475e+01,1.454e+01,1.526e+01,1.629e+01,1.366e+01,1.573e+01,1.673e+01,1.417e+01,1.565e+01,1.484e+01,1.642e+01,1.432e+01
2.872e-01,4.311e-01,2.184e-01,5.067e-01,6.201e-01,8.470e-01,1.523e+00,2.137e+00,1.675e+00,2.153e+00,1.587e+00,2.380e+00,3.232e+00,4.030e+00,3.217e+00,3.750e+00,3.584e+00,3.738e+00,4.612e+00,4.002e+00,4.859e+00,2.867e+00,5.384e+00,5.263e+00,4.159e+00,5.615e+00,6.078e+00,4.940e+00,6.533e+00,6.494e+00,7.073e+00,5.033e+00,7.184e+00,7.459e+00,6.531e+00,7.143e+00,8.853e+00,7.588e+00,7.864e+00,7.739e+00,6.275e+00,9.389e+00,1.011e+01,7.900e+00,9.339e+00,8.622e+00,8.848e+00,1.014e+01,9.435e+00,9.487e+00,1.029e+01,9.449e+00,1.298e+01,1.051e+01,9.914e+00,1.284e+01,1.248e+01,1.066e+01,1.204e+01,9.958e+00,1.234e+01,1.181e+01,1.201e+01,8.342e+00,1.348e+01,1.337e+01,1.016e+01,1.243e+01,1.101e+01,1.180e+01,1.064e+01
1.968e-01,4.668e-01,2.081e-01,4.562e-01,4.773e-01,1.087e+00,1.979e+00,2.649e+00,2.368e+00,3.190e+00,2.615e+00,3.111e+00,3.837e+00,4.652e+00,3.983e+00,5.374e+00,4.365e+00,4.409e+00,6.214e+00,4.817e+00,5.919e+00,5.323e+00,5.405e+00,5.670e+00,3.710e+00,6.521e+00,6.364e+00,5.364e+00,5.984e+00,6.556e+00,8.397e+00,6.468e+00,7.709e+00,8.573e+00,8.453e+00,8.001e+00,9.030e+00,9.195e+00,9.109e+00,8.538e+00,9.012e+00,1.226e+01,1.157e+01,1.018e+01,9.946e+00,9.922e+00,1.059e+01,1.077e+01,9.948e+00,9.627e+00,1.109e+01,1.115e+01,1.313e+01,1.185e+01,1.033e+01,1.333e+01,1.312e+01,1.253e+01,1.279e+01,1.332e+01,1.372e+01,1.386e+01,1.216e+01,1.030e+01,1.322e+01,1.344e+01,1.322e+01,1.318e+01,1.134e+01,1.342e+01,1.367e+01
6.371e-01,9.301e-01,6.081e-01,6.410e-01,1.522e+00,1.888e+00,2.170e+00,2.304e+00,2.137e+00,3.903e+00,4.380e+00,3.258e+00,4.431e+00,4.274e+00,4.453e+00,5.990e+00,4.819e+00,5.490e+00,5.622e+00,6.072e+00,6.248e+00,6.055e+00,5.574e+00,6.112e+00,4.588e+00,6.537e+00,7.317e+00,6.628e+00,7.818e+00,7.525e+00,8.648e+00,6.336e+00,7.756e+00,9.071e+00,8.824e+00,9.023e+00,8.622e+00,8.441e+00,8.339e+00,9.836e+00,8.545e+00,1.183e+01,1.098e+01,9.899e+00,1.103e+01,1.046e+01,1.092e+01,1.093e+01,1.011e+01,9.134e+00,1.094e+01,1.206e+01,1.334e+01,1.290e+01,1.006e+01,1.235e+01,1.276e+01,1.329e+01,1.374e+01,1.143e+01,1.425e+01,1.338e+01,1.236e+01,1.189e+01,1.260e+01,1.370e+01,1.303e+01,1.347e+01,1.155e+01,1.380e+01,1.351e+01
5.331e-01,8.827e-01,5.648e-01,1.018e+00,1.337e+00,1.571e+00,2.797e+00,2.805e+00,2.215e+00,3.768e+00,3.119e+00,3.447e+00,4.453e+00,4.085e+00,4.823e+00,5.549e+00,4.237e+00,4.390e+00,5.658e+00,6.105e+00,6.495e+00,5.641e+00,5.949e+00,7.882e+00,3.835e+00,7.279e+00,7.006e+00,6.522e+00,7.931e+00,7.645e+00,8.527e+00,5.915e+00,8.468e+00,9.870e+00,9.320e+00,9.320e+00,9.792e+00,9.061e+00,9.024e+00,9.804e+00,8.082e+00,1.370e+01,1.295e+01,1.085e+01,1.158e+01,1.216e+01,1.226e+01,1.158e+01,1.096e+01,1.146e+01,1.242e+01,1.370e+01,1.462e+01,1.312e+01,1.213e+01,1.515e+01,1.545e+01,1.309e+01,1.446e+01,1.375e+01,1.533e+01,1.507e+01,1.634e+01,1.209e+01,1.572e+01,1.498e+01,1.402e+01,1.584e+01,1.439e+01,1.586e+01,1.451e+01
5.116e-02,1.797e-01,1.403e-01,5.516e-01,1.159e+00,1.212e+00,2.667e+00,2.610e+00,2.698e+00,3.186e+00,2.790e+00,3.295e+00,3.999e+00,4.277e+00,4.283e+00,5.066e+00,3.385e+00,3.731e+00,4.957e+00,5.528e+00,6.185e+00,5.062e+00,5.707e+00,7.402e+00,3.672e+00,6.678e+00,6.263e+00,6.530e+00,8.271e+00,8.039e+00,8.269e+00,5.819e+00,8.211e+00,8.460e+00,9.312e+00,9.519e+00,9.631e+00,8.995e+00,8.779e+00,9.378e+00,7.503e+00,1.262e+01,1.222e+01,1.005e+01,9.112e+00,1.075e+01,1.074e+01,1.188e+01,1.169e+01,1.043e+01,1.228e+01,1.226e+01,1.435e+01,1.229e+01,1.201e+01,1.404e+01,1.463e+01,1.306e+01,1.460e+01,1.514e+01,1.544e+01,1.436e+01,1.422e+01,1.201e+01,1.573e+01,1.598e+01,1.564e+01,1.461e+01,1.371e+01,1.375e+01,1.456e+01
4.712e-01,6.101e-01,4.383e-01,4.458e-01,1.119e+00,1.452e+00,1.977e+00,2.384e+00,1.879e+00,3.355e+00,3.667e+00,2.972e+00,4.497e+00,4.559e+00,4.678e+00,5.613e+00,4.872e+00,5.135e+00,5.527e+00,6.512e+00,7.118e+00,5.657e+00,5.562e+00,7.408e+00,3.991e+00,7.484e+00,7.222e+00,6.402e+00,8.981e+00,8.855e+00,8.465e+00,5.251e+00,8.199e+00,8.214e+00,9.133e+00,8.663e+00,9.098e+00,7.831e+00,9.236e+00,8.891e+00,8.734e+00,1.159e+01,1.118e+01,9.979e+00,9.034e+00,1.097e+01,1.080e+01,1.113e+01,1.021e+01,1.001e+01,1.117e+01,1.022e+01,1.335e+01,1.166e+01,1.010e+01,1.412e+01,1.287e+01,1.217e+01,1.388e+01,1.280e+01,1.462e+01,1.401e+01,1.231e+01,1.118e+01,1.480e+01,1.506e+01,1.382e+01,1.429e+01,1.288e+01,1.324e+01,1.294e+01
9.517e-03,2.568e-01,1.693e-01,7.078e-01,6.930e-01,8.753e-01,1.915e+00,1.901e+00,1.861e+00,2.381e+00,2.532e+00,2.746e+00,3.420e+00,4.078e+00,3.510e+00,4.690e+00,3.928e+00,4.154e+00,5.656e+00,4.775e+00,6.279e+00,5.390e+00,5.489e+00,5.688e+00,3.204e+00,5.852e+00,5.693e+00,6.182e+00,5.901e+00,6.313e+00,8.133e+00,5.661e+00,7.256e+00,7.662e+00,7.528e+00,8.652e+00,7.861e+00,7.633e+00,7.491e+00,8.362e+00,6.394e+00,1.046e+01,1.003e+01,7.682e+00,8.523e+00,8.431e+00,9.601e+00,1.021e+01,8.632e+00,9.050e+00,1.101e+01,1.144e+01,1.247e+01,1.065e+01,1.016e+01,1.268e+01,1.338e+01,1.125e+01,1.239e+01,1.388e+01,1.447e+01,1.435e+01,1.335e+01,1.188e+01,1.517e+01,1.629e+01,1.474e+01,1.402e+01,1.301e+01,1.309e+01,1.501e+01
3.518e-01,5.328e-01,4.211e-01,4.545e-01,8.959e-01,1.197e+00,1.495e+00,1.637e+00,1.331e+00,2.576e+00,2.809e+00,2.308e+00,3.512e+00,4.206e+00,3.841e+00,5.215e+00,4.759e+00,4.612e+00,5.231e+00,5.658e+00,6.673e+00,5.235e+00,6.178e+00,6.532e+00,3.236e+00,6.531e+00,6.833e+00,6.349e+00,8.063e+00,8.629e+00,9.411e+00,6.224e+00,8.670e+00,9.650e+00,9.872e+00,1.076e+01,9.550e+00,9.727e+00,9.557e+00,9.766e+00,8.102e+00,1.337e+01,1.284e+01,9.815e+00,9.961e+00,1.225e+01,1.085e+01,1.205e+01,9.713e+00,9.541e+00,1.180e+01,1.167e+01,1.311e+01,1.155e+01,1.059e+01,1.267e+01,1.238e+01,1.117e+01,1.266e+01,1.261e+01,1.339e+01,1.453e+01,1.483e+01,1.169e+01,1.538e+01,1.524e+01,1.358e+01,1.493e+01,1.302e+01,1.429e+01,1.307e+01
3.382e-02,2.891e-01,9.044e-02,6.921e-01,6.013e-01,8.164e-01,1.575e+00,1.881e+00,1.534e+00,2.266e+00,1.762e+00,2.232e+00,2.782e+00,3.163e+00,2.796e+00,4.016e+00,2.890e+00,3.137e+00,4.153e+00,4.826e+00,6.151e+00,4.145e+00,5.441e+00,6.458e+00,3.663e+00,6.416e+00,6.746e+00,6.395e+00,8.516e+00,8.864e+00,8.663e+00,5.968e+00,8.942e+00,1.009e+01,9.469e+00,9.843e+00,1.139e+01,9.799e+00,8.407e+00,9.443e+00,7.527e+00,1.292e+01,1.327e+01,1.129e+01,1.019e+01,1.294e+01,1.117e+01,1.342e+01,1.260e+01,1.209e+01,1.356e+01,1.245e+01,1.675e+01,1.334e+01,1.284e+01,1.602e+01,1.788e+01,1.453e+01,1.477e+01,1.658e+01,1.772e+01,1.652e+01,1.737e+01,1.443e+01,2.044e+01,1.868e+01,1.647e+01,1.841e+01,1.615e+01,1.704e+01,1.721e+01
2.091e-01,4.860e-01,2.769e-01,7.520e-01,8.811e-01,1.747e+00,2.690e+00,3.323e+00,2.324e+00,3.905e+00,3.347e+00,3.658e+00,4.450e+00,4.398e+00,4.392e+00,5.853e+00,3.671e+00,4.290e+00,6.085e+00,6.011e+00,5.785e+00,4.959e+00,5.703e+00,6.692e+00,3.804e+00,6.154e+00,5.523e+00,5.580e+00,7.681e+00,6.841e+00,7.509e+00,5.914e+00,6.860e+00,8.333e+00,8.539e+00,7.864e+00,8.041e+00,7.699e+00,7.174e+00,8.309e+00,7.515e+00,1.245e+01,1.121e+01,9.725e+00,9.152e+00,1.059e+01,1.102e+01,1.208e+01,9.687e+00,9.933e+00,1.180e+01,1.190e+01,1.526e+01,1.194e+01,1.104e+01,1.271e+01,1.366e+01,1.263e+01,1.244e+01,1.403e+01,1.541e+01,1.395e+01,1.591e+01,1.176e+01,1.633e+01,1.612e+01,1.411e+01,1.596e+01,1.492e+01,1.610e+01,1.416e+01
3.581e-01,6.607e-01,3.994e-01,8.443e-01,1.308e+00,2.086e+00,2.590e+00,2.855e+00,2.144e+00,3.612e+00,2.636e+00,3.357e+00,3.535e+00,4.183e+00,4.243e+00,5.691e+00,3.443e+00,3.734e+00,5.561e+00,6.395e+00,6.622e+00,5.581e+00,6.742e+00,7.197e+00,4.379e+00,7.496e+00,8.088e+00,7.682e+00,9.211e+00,9.083e+00,9.991e+00,6.578e+00,9.514e+00,1.095e+01,9.594e+00,9.727e+00,1.093e+01,9.546e+00,8.571e+00,1.037e+01,8.917e+00,1.422e+01,1.276e+01,1.111e+01,1.046e+01,1.294e+01,1.091e+01,1.211e+01,1.308e+01,1.202e+01,1.188e+01,1.272e+01,1.503e+01,1.240e+01,1.197e+01,1.309e+01,1.495e+01,1.319e+01,1.285e+01,1.520e+01,1.638e+01,1.489e+01,1.650e+01,1.359e+01,1.762e+01,1.727e+01,1.485e+01,1.724e+01,1.596e+01,1.690e+01,1.748e+01
4.568e-01,6.682e-01,3.774e-01,5.750e-01,7.513e-01,1.310e+00,2.018e+00,2.357e+00,1.549e+00,2.310e+00,1.637e+00,2.450e+00,2.709e+00,3.115e+00,3.408e+00,4.202e+00,3.165e+00,3.059e+00,4.960e+00,4.544e+00,6.119e+00,4.879e+00,5.414e+00,6.271e+00,3.336e+00,6.212e+00,6.661e+00,6.028e+00,7.205e+00,7.119e+00,7.675e+00,5.623e+00,7.696e+00,7.460e+00,7.794e+00,7.375e+00,8.763e+00,8.075e+00,8.010e+00,7.682e+00,6.880e+00,1.059e+01,1.081e+01,8.653e+00,9.855e+00,9.773e+00,8.920e+00,1.020e+01,9.374e+00,9.593e+00,1.106e+01,1.077e+01,1.354e+01,1.125e+01,9.698e+00,1.311e+01,1.346e+01,1.162e+01,1.286e+01,1.286e+01,1.380e+01,1.374e+01,1.462e+01,1.149e+01,1.701e+01,1.515e+01,1.407e+01,1.545e+01,1.600e+01,1.608e+01,1.585e+01
4.320e-01,5.737e-01,4.173e-01,7.159e-01,1.412e+00,1.797e+00,2.416e+00,2.951e+00,3.197e+00,4.252e+00,3.689e+00,3.726e+00,4.988e+00,5.417e+00,5.432e+00,6.592e+00,5.279e+00,5.457e+00,6.598e+00,6.449e+00,7.359e+00,6.395e+00,7.435e+00,7.804e+00,5.356e+00,7.922e+00,8.359e+00,7.467e+00,9.196e+00,8.795e+00,9.380e+00,7.194e+00,9.445e+00,9.274e+00,9.673e+00,9.306e+00,9.766e+00,9.145e+00,9.244e+00,1.027e+01,8.889e+00,1.216e+01,1.169e+01,9.793e+00,1.086e+01,1.110e+01,1.190e+01,1.297e+01,1.146e+01,1.133e+01,1.277e+01,1.372e+01,1.519e+01,1.464e+01,1.217e+01,1.459e+01,1.558e+01,1.472e+01,1.420e+01,1.409e+01,1.844e+01,1.686e+01,1.505e+01,1.517e+01,1.856e+01,1.748e+01,1.699e+01,1.851e+01,1.609e+01,1.678e+01,1.947e+01
4.557e-01,6.157e-01,3.389e-01,4.658e-01,9.084e-01,1.181e+00,1.356e+00,1.912e+00,1.714e+00,2.370e+00,1.637e+00,2.027e+00,2.638e+00,3.437e+00,2.802e+00,3.376e+00,3.127e+00,3.530e+00,4.034e+00,4.163e+00,5.323e+00,3.564e+00,4.987e+00,5.532e+00,2.986e+00,5.508e+00,5.456e+00,5.311e+00,6.272e+00,6.963e+00,6.932e+00,5.537e+00,6.976e+00,7.598e+00,7.503e+00,8.347e+00,8.454e+00,8.799e+00,7.152e+00,8.004e+00,6.793e+00,9.561e+00,1.000e+01,8.502e+00,8.664e+00,1.026e+01,9.287e+00,9.790e+00,9.894e+00,9.145e+00,1.141e+01,9.664e+00,1.100e+01,1.032e+01,1.058e+01,1.303e+01,1.299e+01,1.134e+01,1.346e+01,1.258e+01,1.367e+01,1.434e+01,1.333e+01,1.108e+01,1.508e+01,1.520e+01,1.358e+01,1.457e+01,1.456e+01,1.406e+01,1.558e+01
7.051e-01,8.780e-01,6.209e-01,6.232e-01,1.477e+00,2.362e+00,2.281e+00,3.016e+00,2.252e+00,3.853e+00,3.722e+00,3.387e+00,4.455e+00,5.620e+00,4.985e+00,5.482e+00,5.071e+00,4.066e+00,6.144e+00,5.499e+00,6.676e+00,5.184e+00,6.265e+00,5.768e+00,3.867e+00,6.114e+00,6.842e+00,6.164e+00,7.510e+00,7.857e+00,9.629e+00,6.244e+00,8.767e+00,1.060e+01,9.233e+00,9.436e+00,1.125e+01,9.365e+00,8.822e+00,9.966e+00,8.736e+00,1.264e+01,1.251e+01,1.108e+01,1.064e+01,1.214e+01,1.095e+01,1.197e+01,1.099e+01,1.274e+01,1.319e+01,1.167e+01,1.560e+01,1.307e+01,1.337e+01,1.535e+01,1.341e+01,1.482e+01,1.422e+01,1.315e+01,1.685e+01,1.519e+01,1.611e+01,1.364e+01,1.763e+01,1.777e+01,1.543e+01,1.678e+01,1.588e+01,1.619e+01,1.942e+01
1.362e-01,2.061e-01,1.619e-01,2.017e-01,9.457e-01,7.216e-01,1.787e+00,1.881e+00,2.312e+00,3.047e+00,3.247e+00,2.880e+00,4.270e+00,4.191e+00,3.988e+00,5.318e+00,4.117e+00,4.429e+00,4.287e+00,5.666e+00,4.919e+00,4.478e+00,4.362e+00,6.173e+00,3.339e+00,5.967e+00,5.573e+00,4.814e+00,7.216e+00,7.212e+00,7.158e+00,4.772e+00,8.256e+00,8.221e+00,8.180e+00,8.789e+00,7.933e+00,7.865e+00,8.390e+00,8.115e+00,7.911e+00,1.123e+01,1.138e+01,9.389e+00,9.187e+00,1.058e+01,1.168e+01,1.206e+01,1.105e+01,1.032e+01,1.195e+01,1.136e+01,1.382e+01,1.257e+01,1.189e+01,1.381e+01,1.382e+01,1.197e+01,1.440e+01,1.300e+01,1.513e+01,1.413e+01,1.425e+01,1.169e+01,1.518e+01,1.527e+01,1.480e+01,1.468e+01,1.404e+01,1.430e+01,1.430e+01
