5.767e-01,1.370e-01,8.082e-01,5.906e-01,2.104e-02,8.112e-01,3.958e-02,1.549e-01,4.823e-02,7.206e-01,9.329e-01,6.037e-01,3.294e-01,5.737e-01,2.364e-01,1.081e-01,3.696e-01,6.090e-01,7.530e-01,2.444e-01,5.780e-01,9.564e-02,8.361e-01,6.239e-01,2.522e-01,7.696e-01,8.075e-01,9.255e-01,8.108e-01,4.444e-01,3.238e-01,2.105e-01,3.962e-01,9.520e-01,5.174e-01,2.111e-01,2.260e-01,7.970e-01,6.694e-01,4.334e-01,6.979e-01,1.123e-01,3.154e-01,5.234e-02,6.132e-01,9.827e-01,7.695e-01,8.970e-01,6.315e-01,5.895e-02,2.552e-01,8.760e-01,9.276e-01,6.433e-01,4.143e-01,5.086e-02,5.821e-01,2.913e-01,9.551e-01,9.586e-01,9.732e-01,9.232e-01,7.049e-02,7.132e-01,2.072e-01,3.780e-01,7.854e-01,5.061e-01,2.426e-02,2.076e-02,7.414e-01,4.054e-02,6.729e-02,2.302e-01,8.168e-02,6.162e-01,8.880e-01,7.176e-01,5.876e-01,1.587e-01,2.249e-01,4.909e-02,5.909e-01,4.801e-01,1.475e-01,6.389e-01,1.649e-01,9.873e-01
4.413e-01,4.144e-01,1.155e+00,1.434e+00,9.045e-01,7.299e-01,1.616e-01,6.820e-01,3.050e-01,1.504e+00,9.790e-01,1.306e+00,2.607e-01,1.067e+00,9.015e-01,9.434e-01,3.498e-01,5.539e-01,7.355e-01,7.681e-01,1.142e+00,1.912e-01,9.961e-01,1.244e+00,8.081e-01,1.289e+00,1.397e+00,1.042e+00,1.124e+00,5.107e-01,7.695e-01,6.298e-01,3.549e-01,1.052e+00,1.388e+00,1.140e+00,2.023e-01,1.130e+00,8.429e-01,9.683e-01,8.927e-01,3.380e-01,3.774e-01,1.438e-01,1.179e+00,1.410e+00,8.800e-01,9.020e-01,6.997e-01,9.503e-01,9.983e-01,8.141e-01,1.297e+00,1.469e+00,4.926e-01,6.909e-01,6.176e-01,7.162e-01,1.139e+00,1.376e+00,1.727e+00,9.826e-01,9.776e-01,1.498e+00,1.818e-01,5.120e-01,8.528e-01,5.655e-01,7.486e-01,9.454e-01,8.546e-01,1.692e-01,5.818e-01,7.306e-01,8.108e-02,9.664e-01,1.350e+00,8.691e-01,8.411e-01,7.326e-01,5.567e-01,3.855e-01,1.099e+00,4.011e-01,1.076e+00,7.532e-01,5.689e-01,1.338e+00
4.991e-01,1.519e-01,1.373e+00,8.884e-01,7.045e-01,1.589e+00,7.980e-01,6.880e-01,2.544e-01,1.147e+00,1.217e+00,1.216e+00,9.543e-01,1.087e+00,7.599e-01,1.103e+00,1.027e+00,6.708e-01,1.366e+00,1.071e+00,1.492e+00,3.334e-01,8.910e-01,1.235e+00,6.932e-01,1.588e+00,9.574e-01,1.807e+00,1.086e+00,4.301e-01,7.934e-01,4.190e-01,8.679e-01,1.486e+00,7.287e-01,1.219e+00,4.003e-01,1.038e+00,1.307e+00,1.363e+00,1.377e+00,4.344e-01,1.179e+00,6.270e-01,1.378e+00,1.176e+00,1.618e+00,1.453e+00,7.706e-01,8.970e-01,1.082e+00,1.433e+00,1.540e+00,1.349e+00,1.100e+00,3.709e-01,6.114e-01,4.742e-01,1.509e+00,1.164e+00,1.031e+00,1.046e+00,1.031e+00,7.267e-01,1.035e+00,6.155e-01,1.392e+00,6.467e-01,9.830e-01,5.993e-01,1.506e+00,6.023e-01,6.240e-01,7.804e-01,2.258e-01,1.065e+00,1.111e+00,1.298e+00,1.160e+00,6.293e-01,2.453e-01,9.475e-01,1.293e+00,7.272e-01,3.854e-01,1.043e+00,2.697e-01,9.618e-01
2.758e-01,2.676e-01,7.667e-01,1.358e+00,9.649e-01,1.276e+00,1.095e+00,1.415e+00,1.055e+00,1.374e+00,1.303e+00,9.364e-01,7.574e-01,1.429e+00,1.456e+00,9.733e-01,6.825e-01,7.809e-01,6.324e-01,1.436e+00,8.492e-01,1.438e-01,6.484e-01,9.576e-01,1.533e+00,9.206e-01,1.514e+00,1.294e+00,1.297e+00,8.729e-01,1.207e+00,1.261e+00,1.024e+00,1.218e+00,1.647e+00,1.430e+00,3.851e-01,1.651e+00,1.424e+00,1.238e+00,1.204e+00,8.590e-01,8.844e-01,5.819e-01,1.499e+00,1.475e+00,6.253e-01,1.433e+00,7.907e-01,1.144e+00,1.442e+00,1.032e+00,1.166e+00,1.175e+00,1.023e+00,1.267e+00,1.300e+00,4.944e-01,8.071e-01,1.773e+00,1.291e+00,9.877e-01,1.416e+00,1.663e+00,3.170e-01,9.040e-01,1.443e+00,1.149e+00,1.011e+00,1.021e+00,1.374e+00,3.671e-01,8.314e-01,8.821e-01,2.479e-01,1.258e+00,1.541e+00,8.837e-01,8.709e-01,6.679e-01,4.372e-01,6.267e-01,1.718e+00,1.095e+00,7.373e-01,1.380e+00,1.116e+00,1.798e+00
2.441e-01,2.668e-01,1.302e+00,1.479e+00,2.134e+00,2.417e+00,1.844e+00,1.785e+00,1.571e+00,2.043e+00,1.525e+00,2.175e+00,1.609e+00,2.503e+00,2.305e+00,2.316e+00,1.315e+00,8.220e-01,2.025e+00,1.943e+00,2.615e+00,3.876e-01,1.573e+00,1.840e+00,2.320e+00,1.708e+00,1.764e+00,2.345e+00,2.300e+00,1.288e+00,1.681e+00,1.876e+00,1.984e+00,2.326e+00,2.395e+00,2.893e+00,9.714e-01,1.845e+00,2.459e+00,2.215e+00,2.210e+00,1.699e+00,1.618e+00,1.186e+00,2.175e+00,1.891e+00,1.666e+00,2.738e+00,1.402e+00,2.362e+00,2.293e+00,2.310e+00,2.365e+00,1.740e+00,1.655e+00,1.304e+00,1.111e+00,6.639e-01,1.842e+00,2.400e+00,1.470e+00,1.235e+00,2.331e+00,2.081e+00,1.245e+00,1.087e+00,2.110e+00,1.097e+00,2.107e+00,1.681e+00,1.986e+00,1.194e+00,1.875e+00,1.694e+00,4.082e-01,2.221e+00,2.049e+00,1.897e+00,1.738e+00,1.636e+00,7.190e-01,2.174e+00,2.495e+00,1.947e+00,1.321e+00,2.286e+00,1.668e+00,1.906e+00
4.797e-02,1.038e-01,2.768e-01,7.160e-01,9.018e-01,1.517e+00,1.947e+00,1.424e+00,1.133e+00,1.552e+00,1.340e+00,1.182e+00,1.073e+00,2.206e+00,1.798e+00,1.458e+00,8.977e-01,6.848e-01,1.012e+00,1.087e+00,9.867e-01,1.073e+00,1.219e+00,6.397e-01,1.560e+00,1.252e+00,1.930e+00,1.094e+00,1.265e+00,1.248e+00,1.053e+00,1.915e+00,1.149e+00,1.620e+00,1.633e+00,1.365e+00,1.052e+00,1.322e+00,2.088e+00,1.828e+00,1.511e+00,1.086e+00,7.330e-01,6.178e-01,1.262e+00,1.711e+00,1.151e+00,1.690e+00,9.005e-01,1.567e+00,1.847e+00,1.288e+00,1.211e+00,9.476e-01,8.187e-01,9.480e-01,1.716e+00,7.663e-01,1.212e+00,1.807e+00,1.330e+00,1.190e+00,1.282e+00,1.438e+00,3.943e-01,1.404e+00,1.382e+00,1.519e+00,1.504e+00,1.335e+00,1.882e+00,9.458e-01,1.269e+00,1.464e+00,9.606e-01,1.124e+00,1.784e+00,1.262e+00,7.357e-01,1.443e+00,1.043e+00,1.610e+00,1.604e+00,1.728e+00,9.198e-01,2.059e+00,1.489e+00,1.828e+00
3.334e-01,1.264e-01,1.011e+00,1.012e+00,1.136e+00,2.166e+00,2.035e+00,2.210e+00,1.601e+00,2.281e+00,2.603e+00,2.469e+00,1.750e+00,2.140e+00,2.540e+00,2.268e+00,2.002e+00,1.821e+00,2.080e+00,1.981e+00,1.921e+00,1.029e+00,1.520e+00,1.609e+00,2.162e+00,2.393e+00,2.330e+00,2.653e+00,2.008e+00,1.899e+00,1.483e+00,1.585e+00,1.699e+00,2.278e+00,2.203e+00,1.922e+00,1.544e+00,1.696e+00,2.954e+00,2.766e+00,2.374e+00,1.521e+00,2.317e+00,1.031e+00,1.996e+00,2.701e+00,2.029e+00,3.121e+00,1.271e+00,1.710e+00,1.909e+00,2.236e+00,2.698e+00,2.130e+00,1.613e+00,1.469e+00,2.132e+00,8.163e-01,2.204e+00,2.621e+00,2.057e+00,1.938e+00,2.365e+00,2.021e+00,1.288e+00,1.541e+00,2.084e+00,1.588e+00,2.089e+00,1.840e+00,2.857e+00,1.835e+00,1.798e+00,2.305e+00,7.328e-01,1.971e+00,2.747e+00,1.894e+00,2.002e+00,1.382e+00,1.171e+00,2.111e+00,2.574e+00,2.046e+00,7.800e-01,2.487e+00,2.027e+00,2.660e+00
5.614e-01,3.242e-01,1.724e+00,1.617e+00,1.384e+00,2.430e+00,2.007e+00,2.554e+00,1.573e+00,3.615e+00,2.741e+00,2.725e+00,2.125e+00,2.847e+00,2.543e+00,3.144e+00,2.425e+00,2.359e+00,2.496e+00,2.696e+00,3.249e+00,1.912e+00,1.881e+00,2.208e+00,1.998e+00,3.304e+00,3.557e+00,3.406e+00,2.598e+00,2.193e+00,1.617e+00,2.563e+00,1.490e+00,3.207e+00,2.324e+00,3.042e+00,1.557e+00,2.464e+00,3.843e+00,3.735e+00,2.606e+00,1.878e+00,2.289e+00,1.474e+00,2.979e+00,3.644e+00,3.183e+00,3.062e+00,1.502e+00,2.642e+00,3.195e+00,3.038e+00,3.151e+00,3.571e+00,2.434e+00,2.004e+00,2.071e+00,1.646e+00,3.425e+00,3.435e+00,2.567e+00,2.407e+00,2.451e+00,2.556e+00,1.903e+00,2.012e+00,3.024e+00,1.781e+00,2.876e+00,2.466e+00,3.089e+00,1.934e+00,1.918e+00,2.709e+00,9.829e-01,2.699e+00,3.255e+00,2.679e+00,2.272e+00,2.723e+00,1.335e+00,2.170e+00,3.330e+00,1.899e+00,1.455e+00,2.701e+00,2.411e+00,2.731e+00
5.351e-01,1.753e-01,1.190e+00,1.207e+00,1.172e+00,2.504e+00,2.063e+00,1.951e+00,1.637e+00,2.698e+00,2.940e+00,2.276e+00,2.632e+00,2.932e+00,2.415e+00,2.252e+00,2.299e+00,1.845e+00,2.698e+00,2.451e+00,2.735e+00,1.254e+00,2.280e+00,2.335e+00,2.886e+00,2.233e+00,2.768e+00,3.215e+00,2.513e+00,2.604e+00,2.158e+00,2.356e+00,2.586e+00,2.931e+00,2.864e+00,2.049e+00,2.112e+00,3.006e+00,3.399e+00,3.299e+00,3.334e+00,1.970e+00,2.044e+00,1.131e+00,2.397e+00,2.842e+00,2.739e+00,4.033e+00,1.529e+00,2.438e+00,3.084e+00,2.504e+00,3.236e+00,2.228e+00,2.376e+00,2.145e+00,3.101e+00,1.195e+00,2.969e+00,3.682e+00,2.558e+00,2.672e+00,2.680e+00,2.901e+00,1.773e+00,1.947e+00,2.877e+00,1.937e+00,2.886e+00,2.035e+00,3.034e+00,1.802e+00,1.856e+00,2.813e+00,1.770e+00,2.706e+00,3.170e+00,2.297e+00,1.924e+00,1.820e+00,2.031e+00,2.896e+00,3.119e+00,2.285e+00,1.343e+00,2.825e+00,2.516e+00,3.428e+00
2.581e-01,7.274e-02,8.404e-01,7.838e-01,1.087e+00,1.951e+00,1.605e+00,1.339e+00,1.141e+00,1.561e+00,2.110e+00,1.618e+00,2.137e+00,2.424e+00,1.828e+00,1.569e+00,2.065e+00,1.061e+00,2.593e+00,2.314e+00,1.869e+00,1.126e+00,1.765e+00,1.430e+00,2.464e+00,1.424e+00,1.429e+00,2.504e+00,2.138e+00,1.780e+00,1.880e+00,2.072e+00,1.770e+00,2.219e+00,1.865e+00,2.132e+00,1.734e+00,1.691e+00,2.610e+00,1.883e+00,2.509e+00,1.574e+00,1.860e+00,1.336e+00,2.116e+00,1.891e+00,2.446e+00,3.254e+00,1.132e+00,2.399e+00,2.122e+00,2.542e+00,2.320e+00,1.782e+00,1.480e+00,1.335e+00,2.126e+00,1.058e+00,1.615e+00,2.777e+00,1.467e+00,1.732e+00,2.408e+00,1.542e+00,1.973e+00,1.411e+00,2.454e+00,1.994e+00,2.434e+00,1.771e+00,2.459e+00,1.730e+00,1.613e+00,2.103e+00,9.255e-01,2.147e+00,2.589e+00,2.093e+00,2.001e+00,1.158e+00,7.692e-01,2.406e+00,2.472e+00,2.168e+00,1.013e+00,2.171e+00,1.770e+00,2.214e+00
2.030e-01,1.753e-01,7.759e-01,1.147e+00,9.953e-01,1.809e+00,2.002e+00,1.819e+00,1.240e+00,1.986e+00,2.679e+00,2.084e+00,2.275e+00,2.957e+00,2.697e+00,2.627e+00,2.074e+00,1.881e+00,2.461e+00,2.541e+00,2.371e+00,1.645e+00,2.408e+00,2.262e+00,2.518e+00,1.774e+00,2.665e+00,2.677e+00,2.100e+00,2.194e+00,1.933e+00,2.407e+00,1.636e+00,2.128e+00,2.576e+00,2.545e+00,1.572e+00,2.724e+00,2.963e+00,2.367e+00,3.074e+00,1.712e+00,2.502e+00,1.223e+00,3.071e+00,2.512e+00,2.283e+00,3.252e+00,1.334e+00,2.405e+00,2.505e+00,2.267e+00,2.158e+00,2.608e+00,2.034e+00,2.052e+00,3.520e+00,1.282e+00,2.281e+00,3.280e+00,2.619e+00,1.976e+00,2.773e+00,2.593e+00,1.490e+00,1.951e+00,3.163e+00,3.185e+00,2.466e+00,2.590e+00,3.111e+00,2.075e+00,1.776e+00,2.844e+00,1.868e+00,1.986e+00,3.291e+00,2.636e+00,2.369e+00,2.310e+00,1.950e+00,2.875e+00,2.709e+00,2.062e+00,2.142e+00,2.673e+00,2.691e+00,3.171e+00
1.227e-01,2.832e-01,1.053e+00,1.416e+00,2.036e+00,2.252e+00,2.324e+00,3.037e+00,2.436e+00,3.866e+00,2.939e+00,4.159e+00,2.930e+00,3.929e+00,4.263e+00,4.298e+00,2.840e+00,3.198e+00,3.904e+00,3.385e+00,4.759e+00,2.252e+00,2.905e+00,3.586e+00,3.508e+00,3.227e+00,4.248e+00,4.069e+00,4.155e+00,3.927e+00,2.783e+00,4.340e+00,2.376e+00,4.158e+00,3.743e+00,4.918e+00,3.064e+00,3.670e+00,5.119e+00,4.503e+00,4.184e+00,3.037e+00,3.297e+00,2.546e+00,4.259e+00,4.516e+00,3.929e+00,4.344e+00,2.099e+00,3.786e+00,4.712e+00,3.813e+00,4.596e+00,3.979e+00,3.286e+00,3.026e+00,3.832e+00,2.043e+00,3.898e+00,4.309e+00,3.292e+00,2.842e+00,3.992e+00,3.807e+00,2.588e+00,2.602e+00,4.195e+00,2.450e+00,4.649e+00,4.163e+00,3.611e+00,3.058e+00,3.062e+00,3.962e+00,2.448e+00,3.759e+00,4.707e+00,4.045e+00,3.114e+00,4.228e+00,3.080e+00,4.148e+00,4.602e+00,3.005e+00,2.544e+00,4.112e+00,4.447e+00,4.425e+00
3.046e-01,2.738e-01,8.804e-01,1.399e+00,1.101e+00,1.587e+00,1.558e+00,2.458e+00,1.884e+00,3.084e+00,3.387e+00,2.750e+00,3.254e+00,3.099e+00,3.706e+00,3.492e+00,3.395e+00,3.447e+00,3.133e+00,3.470e+00,4.439e+00,1.919e+00,3.192e+00,3.165e+00,3.285e+00,3.077e+00,3.783e+00,3.924e+00,3.649e+00,4.164e+00,2.565e+00,3.977e+00,2.510e+00,3.525e+00,4.300e+00,3.882e+00,2.760e+00,4.025e+00,4.368e+00,3.806e+00,3.628e+00,2.941e+00,3.078e+00,2.386e+00,4.457e+00,4.500e+00,3.113e+00,5.088e+00,2.299e+00,3.356e+00,3.443e+00,3.256e+00,4.271e+00,4.240e+00,3.385e+00,3.462e+00,4.152e+00,2.105e+00,4.169e+00,4.619e+00,4.176e+00,2.921e+00,3.709e+00,4.798e+00,2.567e+00,2.708e+00,3.879e+00,3.244e+00,4.114e+00,4.147e+00,3.889e+00,2.621e+00,2.954e+00,3.805e+00,2.627e+00,3.127e+00,4.483e+00,3.196e+00,3.598e+00,3.749e+00,2.789e+00,3.312e+00,3.972e+00,2.197e+00,2.533e+00,3.466e+00,4.618e+00,4.848e+00
3.985e-01,3.891e-01,1.258e+00,1.751e+00,1.597e+00,1.822e+00,1.478e+00,2.797e+00,2.203e+00,3.754e+00,3.154e+00,3.267e+00,3.013e+00,3.152e+00,3.868e+00,4.084e+00,3.346e+00,4.321e+00,3.627e+00,3.885e+00,5.138e+00,2.452e+00,3.519e+00,3.800e+00,3.430e+00,4.063e+00,4.749e+00,5.051e+00,4.218e+00,4.907e+00,2.534e+00,4.783e+00,3.393e+00,4.528e+00,5.306e+00,4.836e+00,2.810e+00,4.845e+00,5.113e+00,5.114e+00,3.670e+00,3.671e+00,3.903e+00,2.845e+00,5.382e+00,4.951e+00,4.075e+00,5.256e+00,3.243e+00,3.861e+00,3.953e+00,3.411e+00,5.585e+00,4.897e+00,4.061e+00,4.046e+00,4.317e+00,2.408e+00,4.695e+00,4.737e+00,4.631e+00,3.753e+00,4.046e+00,5.090e+00,3.369e+00,2.996e+00,3.907e+00,3.294e+00,4.898e+00,4.678e+00,4.192e+00,2.803e+00,3.698e+00,4.389e+00,2.333e+00,4.228e+00,4.781e+00,3.809e+00,3.896e+00,4.836e+00,3.108e+00,3.495e+00,5.002e+00,2.389e+00,3.121e+00,3.650e+00,4.598e+00,4.947e+00
3.541e-01,3.086e-01,1.105e+00,1.528e+00,1.433e+00,2.076e+00,2.076e+00,2.404e+00,1.832e+00,3.203e+00,3.516e+00,3.032e+00,3.170e+00,3.464e+00,4.219e+00,3.796e+00,3.621e+00,3.966e+00,3.926e+00,4.260e+00,4.169e+00,3.534e+00,4.525e+00,3.311e+00,4.478e+00,5.025e+00,4.164e+00,5.333e+00,3.955e+00,5.050e+00,3.811e+00,5.193e+00,4.168e+00,5.263e+00,5.299e+00,3.996e+00,4.143e+00,4.458e+00,5.917e+00,5.390e+00,4.424e+00,3.212e+00,3.693e+00,2.982e+00,4.694e+00,5.414e+00,5.401e+00,6.675e+00,3.456e+00,4.283e+00,4.340e+00,3.795e+00,6.604e+00,4.213e+00,3.432e+00,3.661e+00,4.832e+00,3.421e+00,4.393e+00,5.164e+00,5.087e+00,4.756e+00,4.844e+00,4.851e+00,3.750e+00,3.327e+00,4.069e+00,4.191e+00,5.387e+00,4.977e+00,5.125e+00,3.084e+00,4.619e+00,5.141e+00,3.071e+00,3.831e+00,5.493e+00,4.470e+00,3.888e+00,4.371e+00,3.147e+00,4.585e+00,5.053e+00,3.253e+00,3.077e+00,4.222e+00,4.727e+00,5.242e+00
1.324e-03,2.984e-01,5.876e-01,1.336e+00,1.520e+00,1.209e+00,1.392e+00,1.848e+00,1.575e+00,2.283e+00,2.512e+00,2.383e+00,2.521e+00,2.955e+00,3.123e+00,3.878e+00,2.839e+00,2.869e+00,3.018e+00,3.236e+00,3.582e+00,2.661e+00,3.181e+00,3.398e+00,4.241e+00,2.565e+00,3.447e+00,3.302e+00,3.631e+00,3.001e+00,3.304e+00,3.518e+00,2.922e+00,3.415e+00,3.738e+00,3.501e+00,2.973e+00,3.631e+00,3.327e+00,3.698e+00,4.166e+00,2.544e+00,3.225e+00,1.937e+00,4.186e+00,3.099e+00,3.319e+00,4.499e+00,2.400e+00,3.836e+00,4.095e+00,2.615e+00,3.383e+00,3.374e+00,3.119e+00,3.745e+00,4.266e+00,2.283e+00,2.963e+00,4.265e+00,3.818e+00,2.588e+00,4.695e+00,4.399e+00,2.545e+00,2.685e+00,3.610e+00,3.017e+00,4.397e+00,3.855e+00,3.356e+00,2.742e+00,2.932e+00,3.763e+00,2.523e+00,3.431e+00,4.574e+00,3.028e+00,3.436e+00,3.597e+00,3.403e+00,4.284e+00,3.314e+00,2.156e+00,3.397e+00,3.560e+00,4.627e+00,3.627e+00
4.232e-01,3.629e-01,1.213e+00,1.625e+00,1.230e+00,1.597e+00,1.292e+00,1.988e+00,1.471e+00,2.892e+00,2.953e+00,2.634e+00,2.668e+00,2.883e+00,3.336e+00,3.522e+00,3.422e+00,4.616e+00,3.892e+00,4.704e+00,4.699e+00,3.436e+00,4.110e+00,4.037e+00,4.507e+00,4.315e+00,4.849e+00,4.981e+00,4.113e+00,4.612e+00,3.969e+00,4.679e+00,3.730e+00,5.372e+00,4.313e+00,4.562e+00,4.256e+00,4.823e+00,5.476e+00,4.789e+00,5.151e+00,3.426e+00,4.261e+00,3.026e+00,4.653e+00,5.047e+00,5.804e+00,6.015e+00,3.368e+00,4.159e+00,5.342e+00,4.060e+00,5.485e+00,4.037e+00,4.275e+00,4.286e+00,5.021e+00,4.124e+00,4.084e+00,5.452e+00,4.798e+00,4.869e+00,5.716e+00,5.517e+00,3.471e+00,3.050e+00,5.057e+00,3.376e+00,5.800e+00,4.595e+00,4.173e+00,3.036e+00,4.215e+00,5.061e+00,3.053e+00,4.582e+00,5.444e+00,4.132e+00,3.804e+00,4.622e+00,4.061e+00,4.365e+00,4.439e+00,3.038e+00,2.986e+00,4.501e+00,5.051e+00,4.601e+00
5.481e-01,3.866e-01,1.747e+00,1.614e+00,1.956e+00,2.643e+00,2.143e+00,2.659e+00,1.970e+00,4.507e+00,3.652e+00,4.678e+00,3.316e+00,4.466e+00,4.440e+00,5.199e+00,4.059e+00,5.349e+00,6.056e+00,5.609e+00,6.871e+00,5.534e+00,5.352e+00,5.034e+00,5.377e+00,6.084e+00,6.264e+00,6.931e+00,6.118e+00,5.914e+00,4.913e+00,5.893e+00,4.489e+00,7.438e+00,4.790e+00,6.460e+00,5.712e+00,4.824e+00,7.816e+00,6.871e+00,6.956e+00,4.733e+00,4.717e+00,3.661e+00,5.718e+00,6.640e+00,8.190e+00,6.816e+00,4.202e+00,5.772e+00,6.854e+00,6.220e+00,7.407e+00,5.720e+00,4.554e+00,4.235e+00,5.980e+00,5.090e+00,6.067e+00,6.243e+00,5.799e+00,5.910e+00,5.903e+00,6.243e+00,4.809e+00,4.078e+00,6.376e+00,4.110e+00,7.584e+00,5.356e+00,5.907e+00,4.248e+00,5.104e+00,6.234e+00,4.327e+00,5.817e+00,7.725e+00,6.541e+00,4.944e+00,6.042e+00,4.617e+00,6.181e+00,5.913e+00,4.067e+00,3.883e+00,6.341e+00,6.581e+00,5.753e+00
2.914e-01,2.117e-01,1.136e+00,1.308e+00,1.383e+00,2.306e+00,2.260e+00,2.406e+00,1.713e+00,3.023e+00,2.399e+00,2.431e+00,2.518e+00,3.217e+00,3.565e+00,4.095e+00,3.134e+00,4.381e+00,4.535e+00,4.782e+00,5.974e+00,4.230e+00,4.665e+00,4.115e+00,4.019e+00,5.068e+00,5.106e+00,5.878e+00,5.340e+00,4.535e+00,3.996e+00,5.885e+00,3.681e+00,6.638e+00,4.270e+00,6.255e+00,4.574e+00,4.155e+00,6.351e+00,6.102e+00,4.956e+00,4.114e+00,3.996e+00,3.676e+00,5.513e+00,6.157e+00,6.389e+00,5.319e+00,3.600e+00,4.526e+00,6.186e+00,4.754e+00,5.351e+00,4.299e+00,4.789e+00,3.996e+00,5.001e+00,3.983e+00,5.460e+00,5.144e+00,4.432e+00,4.253e+00,4.802e+00,5.796e+00,3.440e+00,3.905e+00,5.282e+00,3.500e+00,6.287e+00,4.579e+00,5.120e+00,2.934e+00,5.108e+00,4.486e+00,3.671e+00,4.384e+00,6.235e+00,5.369e+00,4.278e+00,6.038e+00,3.539e+00,5.031e+00,5.178e+00,3.140e+00,3.377e+00,5.803e+00,5.406e+00,5.003e+00
2.276e-01,8.490e-02,7.370e-01,6.392e-01,6.576e-01,1.362e+00,1.203e+00,1.441e+00,1.077e+00,2.135e+00,2.267e+00,2.190e+00,2.565e+00,2.608e+00,2.446e+00,3.424e+00,2.735e+00,3.731e+00,3.948e+00,4.587e+00,5.212e+00,3.590e+00,4.368e+00,4.419e+00,4.077e+00,3.800e+00,4.040e+00,5.717e+00,3.941e+00,3.930e+00,3.422e+00,4.309e+00,4.070e+00,4.706e+00,3.453e+00,4.722e+00,3.606e+00,4.331e+00,5.146e+00,4.926e+00,4.620e+00,3.434e+00,3.851e+00,2.675e+00,5.680e+00,3.505e+00,5.681e+00,4.978e+00,3.267e+00,4.003e+00,5.083e+00,3.414e+00,4.418e+00,4.367e+00,3.821e+00,3.985e+00,5.608e+00,3.199e+00,4.689e+00,4.216e+00,4.153e+00,3.530e+00,3.966e+00,4.414e+00,4.363e+00,3.790e+00,4.445e+00,3.669e+00,4.916e+00,3.794e+00,4.606e+00,3.170e+00,3.204e+00,4.407e+00,3.609e+00,3.950e+00,5.346e+00,4.897e+00,4.280e+00,5.080e+00,4.166e+00,4.716e+00,4.010e+00,3.043e+00,3.989e+00,3.636e+00,4.821e+00,3.693e+00
2.973e-01,2.004e-01,6.709e-01,8.166e-01,1.022e+00,1.148e+00,7.408e-01,1.554e+00,1.502e+00,2.544e+00,2.567e+00,3.042e+00,2.569e+00,2.701e+00,3.039e+00,3.515e+00,3.158e+00,4.589e+00,5.184e+00,4.606e+00,6.883e+00,4.062e+00,5.051e+00,5.138e+00,5.245e+00,4.686e+00,5.050e+00,6.560e+00,6.312e+00,5.567e+00,4.660e+00,6.169e+00,4.910e+00,6.866e+00,5.999e+00,6.524e+00,4.943e+00,5.243e+00,6.191e+00,6.568e+00,5.553e+00,5.378e+00,4.662e+00,3.835e+00,6.020e+00,4.921e+00,6.985e+00,6.718e+00,4.452e+00,5.147e+00,5.542e+00,4.744e+00,6.221e+00,5.029e+00,4.814e+00,5.291e+00,6.636e+00,3.637e+00,5.446e+00,5.498e+00,5.460e+00,4.720e+00,5.397e+00,6.488e+00,5.088e+00,4.452e+00,4.525e+00,3.954e+00,6.780e+00,4.681e+00,5.913e+00,3.978e+00,4.884e+00,5.483e+00,4.430e+00,5.160e+00,6.850e+00,6.021e+00,5.861e+00,6.103e+00,5.562e+00,6.047e+00,5.079e+00,3.866e+00,4.283e+00,5.050e+00,6.200e+00,6.044e+00
2.989e-01,2.166e-01,7.868e-01,8.452e-01,9.488e-01,1.350e+00,1.237e+00,1.383e+00,1.007e+00,2.280e+00,2.197e+00,2.890e+00,1.967e+00,2.695e+00,3.490e+00,3.779e+00,2.497e+00,4.032e+00,4.243e+00,3.194e+00,5.343e+00,4.035e+00,5.593e+00,4.784e+00,3.533e+00,5.310e+00,5.276e+00,5.867e+00,5.120e+00,4.636e+00,3.797e+00,5.751e+00,4.061e+00,6.336e+00,5.179e+00,5.615e+00,4.742e+00,4.024e+00,6.168e+00,5.500e+00,4.435e+00,4.033e+00,4.003e+00,3.055e+00,5.631e+00,5.488e+00,5.612e+00,5.960e+00,4.751e+00,4.375e+00,4.550e+00,4.001e+00,6.062e+00,4.512e+00,3.584e+00,3.330e+00,5.619e+00,3.992e+00,5.405e+00,4.097e+00,5.365e+00,4.249e+00,4.101e+00,5.344e+00,4.084e+00,4.253e+00,3.701e+00,4.341e+00,5.803e+00,4.677e+00,5.155e+00,3.019e+00,5.664e+00,5.234e+00,4.334e+00,4.239e+00,5.841e+00,5.971e+00,4.932e+00,6.518e+00,4.012e+00,5.264e+00,4.988e+00,2.983e+00,4.895e+00,5.269e+00,4.997e+00,5.393e+00
4.959e-01,1.199e-01,1.081e+00,1.048e+00,7.804e-01,2.125e+00,1.756e+00,1.956e+00,1.508e+00,2.404e+00,3.027e+00,2.532e+00,2.895e+00,2.715e+00,3.407e+00,3.387e+00,3.542e+00,4.838e+00,5.067e+00,4.892e+00,6.584e+00,3.970e+00,6.059e+00,6.045e+00,5.755e+00,5.522e+00,5.940e+00,7.994e+00,7.216e+00,6.149e+00,6.245e+00,7.568e+00,5.188e+00,8.691e+00,5.724e+00,6.839e+00,6.098e+00,5.721e+00,7.253e+00,7.935e+00,7.085e+00,5.209e+00,5.512e+00,5.042e+00,6.590e+00,6.775e+00,7.941e+00,8.027e+00,5.059e+00,5.878e+00,7.416e+00,5.993e+00,7.046e+00,4.752e+00,6.439e+00,5.938e+00,7.097e+00,4.889e+00,6.794e+00,6.694e+00,5.704e+00,6.092e+00,6.318e+00,6.906e+00,5.633e+00,5.651e+00,6.467e+00,4.367e+00,7.838e+00,5.467e+00,6.944e+00,4.058e+00,6.215e+00,5.942e+00,5.524e+00,6.121e+00,7.266e+00,7.387e+00,5.738e+00,7.263e+00,5.727e+00,7.223e+00,6.542e+00,4.374e+00,4.599e+00,6.577e+00,7.012e+00,6.796e+00
2.853e-01,1.875e-01,1.096e+00,9.713e-01,1.179e+00,1.589e+00,1.211e+00,1.670e+00,1.276e+00,2.464e+00,2.807e+00,2.805e+00,3.070e+00,2.633e+00,3.457e+00,3.900e+00,3.558e+00,4.937e+00,4.955e+00,5.297e+00,7.148e+00,4.216e+00,6.188e+00,6.417e+00,5.629e+00,5.913e+00,6.542e+00,8.290e+00,6.626e+00,6.506e+00,5.598e+00,7.122e+00,5.501e+00,8.315e+00,6.244e+00,7.387e+00,5.487e+00,5.854e+00,8.156e+00,7.469e+00,7.456e+00,6.065e+00,6.018e+00,4.899e+00,6.593e+00,6.339e+00,8.184e+00,8.062e+00,5.792e+00,6.916e+00,6.440e+00,6.934e+00,7.951e+00,6.289e+00,5.695e+00,6.312e+00,6.488e+00,5.696e+00,7.054e+00,6.922e+00,5.923e+00,6.807e+00,6.541e+00,7.643e+00,6.730e+00,4.859e+00,6.994e+00,5.715e+00,8.066e+00,6.359e+00,6.801e+00,4.820e+00,6.936e+00,7.231e+00,5.442e+00,6.889e+00,6.676e+00,7.563e+00,6.432e+00,8.018e+00,5.569e+00,7.496e+00,6.307e+00,3.764e+00,5.362e+00,5.969e+00,6.931e+00,6.457e+00
3.242e-01,2.246e-01,1.208e+00,1.179e+00,1.599e+00,2.248e+00,1.942e+00,2.186e+00,1.710e+00,3.175e+00,3.203e+00,3.788e+00,3.221e+00,3.936e+00,4.172e+00,4.431e+00,3.606e+00,4.698e+00,5.677e+00,5.880e+00,7.005e+00,4.358e+00,6.956e+00,6.391e+00,6.521e+00,6.402e+00,7.007e+00,9.002e+00,7.486e+00,6.687e+00,6.473e+00,7.310e+00,5.665e+00,8.032e+00,5.250e+00,7.778e+00,6.577e+00,5.922e+00,9.050e+00,7.187e+00,8.402e+00,5.896e+00,6.328e+00,4.827e+00,8.203e+00,7.015e+00,8.933e+00,8.534e+00,5.736e+00,7.384e+00,7.917e+00,7.394e+00,8.135e+00,6.406e+00,5.441e+00,5.883e+00,7.627e+00,5.937e+00,7.420e+00,7.738e+00,6.686e+00,6.260e+00,6.450e+00,7.657e+00,6.450e+00,5.885e+00,7.522e+00,5.471e+00,7.754e+00,6.931e+00,6.718e+00,5.733e+00,6.514e+00,7.113e+00,5.094e+00,7.184e+00,8.735e+00,8.211e+00,7.140e+00,8.141e+00,6.353e+00,7.697e+00,6.901e+00,5.829e+00,5.977e+00,6.391e+00,8.110e+00,6.028e+00
4.357e-02,2.236e-01,9.884e-01,1.328e+00,1.525e+00,2.011e+00,2.443e+00,2.580e+00,1.698e+00,2.872e+00,2.887e+00,3.139e+00,2.650e+00,3.416e+00,3.699e+00,4.158e+00,3.580e+00,4.230e+00,4.969e+00,4.933e+00,5.281e+00,4.058e+00,4.549e+00,5.433e+00,5.234e+00,5.441e+00,6.592e+00,6.770e+00,5.902e+00,4.799e+00,5.373e+00,6.502e+00,4.900e+00,7.515e+00,5.240e+00,7.396e+00,6.259e+00,4.812e+00,7.129e+00,7.205e+00,6.828e+00,4.768e+00,5.954e+00,4.715e+00,6.677e+00,6.376e+00,8.169e+00,6.747e+00,4.385e+00,6.555e+00,7.797e+00,5.410e+00,6.076e+00,5.688e+00,5.811e+00,6.264e+00,6.781e+00,4.881e+00,5.564e+00,6.347e+00,5.467e+00,5.609e+00,7.477e+00,6.604e+00,5.468e+00,5.095e+00,6.758e+00,4.756e+00,8.374e+00,5.782e+00,6.713e+00,5.030e+00,6.530e+00,6.319e+00,4.104e+00,6.439e+00,6.775e+00,6.755e+00,5.424e+00,7.471e+00,5.394e+00,7.323e+00,6.045e+00,4.482e+00,5.032e+00,6.570e+00,6.055e+00,6.447e+00
1.999e-02,2.192e-01,9.771e-01,1.162e+00,1.372e+00,1.343e+00,1.350e+00,1.825e+00,1.295e+00,2.288e+00,2.186e+00,2.784e+00,2.904e+00,2.723e+00,3.721e+00,4.032e+00,3.107e+00,4.590e+00,4.446e+00,5.632e+00,6.852e+00,3.693e+00,5.937e+00,6.940e+00,5.840e+00,5.882e+00,7.576e+00,9.242e+00,6.830e+00,7.032e+00,7.572e+00,7.811e+00,6.634e+00,8.503e+00,6.430e+00,9.164e+00,7.333e+00,7.238e+00,8.522e+00,8.412e+00,8.493e+00,6.332e+00,7.208e+00,6.407e+00,8.168e+00,6.770e+00,9.308e+00,8.483e+00,6.464e+00,7.728e+00,9.168e+00,6.627e+00,8.397e+00,7.020e+00,6.955e+00,7.489e+00,7.331e+00,6.764e+00,7.232e+00,7.215e+00,7.170e+00,7.430e+00,8.086e+00,8.417e+00,8.194e+00,5.969e+00,7.929e+00,6.281e+00,8.815e+00,6.886e+00,7.372e+00,5.974e+00,8.194e+00,7.527e+00,6.364e+00,8.000e+00,6.636e+00,8.947e+00,6.634e+00,9.506e+00,6.921e+00,8.869e+00,7.678e+00,5.403e+00,6.786e+00,6.774e+00,8.144e+00,6.750e+00
1.365e-01,1.527e-01,5.369e-01,8.660e-01,1.123e+00,1.676e+00,1.870e+00,2.167e+00,1.795e+00,3.014e+00,2.429e+00,2.124e+00,2.591e+00,3.195e+00,2.770e+00,3.224e+00,2.997e+00,3.670e+00,4.134e+00,5.177e+00,5.917e+00,4.433e+00,4.766e+00,4.529e+00,5.413e+00,5.106e+00,6.199e+00,7.686e+00,6.309e+00,5.353e+00,5.396e+00,7.238e+00,6.087e+00,7.554e+00,5.694e+00,7.613e+00,6.414e+00,5.737e+00,8.116e+00,7.161e+00,5.698e+00,6.953e+00,4.505e+00,4.313e+00,6.744e+00,5.539e+00,7.227e+00,7.796e+00,5.693e+00,6.792e+00,7.147e+00,5.893e+00,6.406e+00,5.938e+00,4.769e+00,6.528e+00,7.037e+00,5.010e+00,6.644e+00,6.075e+00,5.454e+00,4.908e+00,5.178e+00,6.955e+00,6.511e+00,5.804e+00,5.192e+00,5.328e+00,7.460e+00,5.098e+00,6.931e+00,5.231e+00,5.911e+00,6.350e+00,5.047e+00,6.831e+00,7.230e+00,7.338e+00,6.473e+00,7.757e+00,4.973e+00,6.227e+00,6.094e+00,5.433e+00,5.995e+00,5.349e+00,7.157e+00,5.500e+00
5.602e-01,3.171e-01,1.375e+00,1.678e+00,1.694e+00,2.608e+00,1.993e+00,2.569e+00,2.131e+00,3.431e+00,3.190e+00,3.036e+00,2.772e+00,3.698e+00,3.454e+00,3.416e+00,2.854e+00,3.859e+00,5.177e+00,5.023e+00,6.726e+00,3.405e+00,5.272e+00,4.930e+00,5.265e+00,4.813e+00,6.245e+00,7.992e+00,8.027e+00,6.597e+00,6.228e+00,7.275e+00,5.560e+00,7.669e+00,7.151e+00,8.798e+00,6.085e+00,6.582e+00,7.757e+00,7.450e+00,6.974e+00,7.336e+00,5.623e+00,4.686e+00,7.194e+00,6.650e+00,7.985e+00,8.623e+00,5.439e+00,6.563e+00,6.743e+00,7.272e+00,6.682e+00,5.972e+00,6.123e+00,6.473e+00,6.862e+00,4.740e+00,6.664e+00,7.580e+00,6.602e+00,5.435e+00,5.371e+00,7.760e+00,5.513e+00,5.886e+00,6.897e+00,5.682e+00,6.823e+00,5.144e+00,6.871e+00,4.986e+00,6.558e+00,6.422e+00,4.473e+00,7.080e+00,8.429e+00,8.001e+00,7.170e+00,7.127e+00,5.752e+00,6.251e+00,7.040e+00,5.546e+00,5.367e+00,6.611e+00,7.746e+00,7.094e+00
3.353e-01,2.948e-01,1.433e+00,1.483e+00,2.007e+00,2.407e+00,1.871e+00,2.334e+00,1.918e+00,3.282e+00,2.624e+00,3.457e+00,3.055e+00,3.516e+00,4.080e+00,4.158e+00,3.505e+00,4.192e+00,5.079e+00,5.801e+00,7.879e+00,4.053e+00,6.230e+00,6.307e+00,6.551e+00,6.738e+00,6.997e+00,9.421e+00,8.420e+00,7.995e+00,8.536e+00,8.775e+00,7.392e+00,1.013e+01,7.858e+00,9.953e+00,8.695e+00,6.412e+00,9.307e+00,9.296e+00,8.710e+00,7.761e+00,6.316e+00,6.531e+00,9.027e+00,8.390e+00,1.048e+01,9.550e+00,7.199e+00,8.474e+00,9.111e+00,8.941e+00,9.609e+00,7.614e+00,6.966e+00,7.659e+00,6.655e+00,6.799e+00,9.150e+00,7.767e+00,7.792e+00,7.175e+00,7.038e+00,9.234e+00,8.758e+00,7.257e+00,8.210e+00,6.224e+00,1.010e+01,7.113e+00,8.965e+00,5.961e+00,7.974e+00,7.176e+00,6.455e+00,9.076e+00,8.230e+00,9.626e+00,7.724e+00,9.521e+00,6.897e+00,8.451e+00,7.785e+00,6.518e+00,7.150e+00,7.845e+00,9.569e+00,7.376e+00
5.196e-01,2.230e-01,1.421e+00,1.287e+00,1.038e+00,2.369e+00,2.191e+00,2.450e+00,1.599e+00,3.573e+00,3.761e+00,3.530e+00,3.326e+00,3.768e+00,3.825e+00,4.647e+00,3.745e+00,4.660e+00,4.822e+00,5.013e+00,6.391e+00,4.574e+00,5.989e+00,6.051e+00,5.932e+00,6.693e+00,7.914e+00,9.801e+00,8.059e+00,7.577e+00,8.586e+00,8.093e+00,7.509e+00,9.678e+00,8.043e+00,9.462e+00,9.231e+00,8.392e+00,9.827e+00,1.024e+01,9.638e+00,8.001e+00,8.669e+00,5.926e+00,1.014e+01,8.348e+00,1.058e+01,1.084e+01,8.022e+00,8.042e+00,9.064e+00,8.739e+00,9.711e+00,7.996e+00,8.413e+00,8.601e+00,8.704e+00,7.411e+00,9.382e+00,8.857e+00,8.523e+00,7.749e+00,7.282e+00,9.169e+00,8.562e+00,7.771e+00,9.135e+00,8.035e+00,9.282e+00,7.963e+00,9.968e+00,8.209e+00,7.761e+00,8.731e+00,7.297e+00,9.075e+00,9.917e+00,1.063e+01,9.136e+00,9.868e+00,8.943e+00,8.672e+00,8.248e+00,7.724e+00,8.754e+00,7.413e+00,1.075e+01,7.546e+00
4.233e-01,1.283e-01,6.483e-01,8.939e-01,5.100e-01,1.600e+00,1.538e+00,1.947e+00,1.536e+00,2.405e+00,3.467e+00,2.363e+00,2.697e+00,2.682e+00,2.929e+00,2.745e+00,3.357e+00,4.403e+00,4.802e+00,4.956e+00,4.903e+00,4.106e+00,5.137e+00,5.387e+00,5.772e+00,5.248e+00,6.840e+00,7.858e+00,7.221e+00,7.313e+00,7.202e+00,6.832e+00,6.392e+00,8.495e+00,7.529e+00,8.008e+00,8.664e+00,7.078e+00,8.387e+00,7.969e+00,8.590e+00,7.382e+00,7.900e+00,4.296e+00,8.260e+00,7.485e+00,8.974e+00,8.858e+00,6.989e+00,6.895e+00,7.168e+00,7.497e+00,8.503e+00,6.280e+00,6.070e+00,7.122e+00,8.457e+00,6.624e+00,7.728e+00,8.202e+00,7.880e+00,7.816e+00,7.069e+00,8.346e+00,6.831e+00,6.639e+00,7.480e+00,7.824e+00,9.379e+00,6.653e+00,8.437e+00,6.290e+00,7.337e+00,8.032e+00,6.202e+00,8.367e+00,9.045e+00,8.249e+00,7.944e+00,7.465e+00,7.885e+00,7.005e+00,7.321e+00,5.809e+00,6.858e+00,7.534e+00,8.653e+00,8.386e+00
3.182e-01,2.803e-01,1.171e+00,1.238e+00,1.309e+00,1.763e+00,1.589e+00,1.598e+00,1.138e+00,2.670e+00,2.530e+00,3.063e+00,2.737e+00,3.186e+00,3.658e+00,4.274e+00,3.510e+00,4.109e+00,4.936e+00,4.082e+00,6.751e+00,4.143e+00,6.207e+00,6.421e+00,6.055e+00,7.281e+00,7.903e+00,9.291e+00,9.179e+00,7.303e+00,8.863e+00,8.755e+00,7.953e+00,1.148e+01,8.500e+00,1.094e+01,1.138e+01,8.356e+00,9.599e+00,1.096e+01,9.968e+00,7.729e+00,8.726e+00,7.263e+00,1.029e+01,9.431e+00,1.082e+01,1.062e+01,9.325e+00,8.970e+00,1.044e+01,8.811e+00,1.082e+01,8.599e+00,8.665e+00,9.280e+00,8.205e+00,8.533e+00,1.099e+01,8.839e+00,9.898e+00,8.861e+00,9.373e+00,1.085e+01,9.339e+00,7.690e+00,9.528e+00,8.459e+00,1.080e+01,8.568e+00,1.044e+01,8.327e+00,9.461e+00,8.477e+00,8.131e+00,1.029e+01,1.037e+01,1.161e+01,9.356e+00,1.181e+01,9.454e+00,1.031e+01,8.487e+00,7.716e+00,9.313e+00,8.629e+00,1.041e+01,9.726e+00
3.168e-01,3.351e-01,1.312e+00,1.679e+00,2.120e+00,2.428e+00,1.974e+00,2.492e+00,2.166e+00,3.281e+00,2.768e+00,3.530e+00,3.024e+00,3.716e+00,4.362e+00,4.431e+00,3.026e+00,4.806e+00,5.632e+00,6.218e+00,8.803e+00,4.148e+00,6.685e+00,7.380e+00,6.843e+00,6.547e+00,8.248e+00,9.824e+00,9.072e+00,7.969e+00,9.057e+00,9.123e+00,8.455e+00,1.176e+01,1.050e+01,1.391e+01,1.086e+01,9.186e+00,1.200e+01,1.183e+01,1.086e+01,9.639e+00,1.014e+01,7.018e+00,1.139e+01,9.779e+00,1.182e+01,1.165e+01,9.944e+00,9.241e+00,1.016e+01,1.058e+01,1.118e+01,9.482e+00,1.006e+01,9.490e+00,9.420e+00,1.001e+01,1.100e+01,1.083e+01,9.819e+00,9.325e+00,1.002e+01,1.239e+01,8.862e+00,7.596e+00,1.129e+01,9.634e+00,1.132e+01,8.987e+00,1.078e+01,8.065e+00,1.091e+01,1.011e+01,8.573e+00,1.128e+01,1.176e+01,1.219e+01,1.078e+01,1.219e+01,1.009e+01,1.014e+01,9.665e+00,9.204e+00,1.047e+01,9.884e+00,1.169e+01,1.051e+01
4.737e-01,4.043e-01,1.210e+00,1.776e+00,1.224e+00,1.722e+00,1.469e+00,2.074e+00,1.423e+00,2.866e+00,2.450e+00,2.505e+00,1.947e+00,3.048e+00,3.158e+00,3.244e+00,2.460e+00,3.791e+00,3.909e+00,4.044e+00,4.861e+00,3.526e+00,5.158e+00,5.569e+00,4.963e+00,5.784e+00,7.642e+00,8.179e+00,7.721e+00,6.325e+00,6.464e+00,7.515e+00,5.900e+00,8.420e+00,7.756e+00,8.798e+00,7.568e+00,7.567e+00,8.681e+00,8.622e+00,8.486e+00,6.452e+00,6.961e+00,5.746e+00,1.002e+01,7.765e+00,8.655e+00,8.400e+00,7.491e+00,8.428e+00,7.959e+00,7.185e+00,8.476e+00,8.040e+00,6.658e+00,8.057e+00,8.480e+00,7.109e+00,8.759e+00,7.371e+00,8.350e+00,7.099e+00,6.632e+00,8.581e+00,7.186e+00,7.136e+00,8.540e+00,7.654e+00,8.141e+00,7.517e+00,7.712e+00,6.237e+00,8.178e+00,7.411e+00,5.864e+00,9.194e+00,9.353e+00,9.456e+00,7.820e+00,9.857e+00,6.520e+00,7.369e+00,8.150e+00,6.198e+00,7.543e+00,7.862e+00,8.115e+00,8.042e+00
2.672e-01,2.341e-01,1.035e+00,9.977e-01,1.521e+00,1.810e+00,1.493e+00,1.843e+00,1.545e+00,3.104e+00,2.526e+00,3.213e+00,2.758e+00,3.316e+00,3.401e+00,4.269e+00,3.279e+00,4.459e+00,5.016e+00,5.014e+00,7.234e+00,4.691e+00,5.791e+00,5.915e+00,5.935e+00,6.091e+00,7.365e+00,8.605e+00,8.388e+00,7.153e+00,7.346e+00,7.887e+00,6.959e+00,1.016e+01,8.267e+00,1.139e+01,9.959e+00,8.974e+00,1.133e+01,1.038e+01,1.107e+01,9.149e+00,8.605e+00,7.139e+00,1.056e+01,8.573e+00,1.167e+01,1.084e+01,9.021e+00,9.521e+00,9.538e+00,1.022e+01,1.092e+01,9.575e+00,7.892e+00,9.296e+00,9.001e+00,9.596e+00,1.108e+01,9.917e+00,9.360e+00,8.753e+00,8.273e+00,1.035e+01,8.659e+00,7.226e+00,1.083e+01,8.670e+00,1.046e+01,8.774e+00,9.204e+00,8.417e+00,1.023e+01,9.602e+00,7.605e+00,1.156e+01,1.152e+01,1.125e+01,9.998e+00,1.122e+01,8.669e+00,9.972e+00,7.923e+00,8.637e+00,8.753e+00,9.581e+00,1.113e+01,8.682e+00
5.684e-01,3.591e-01,1.672e+00,1.759e+00,1.736e+00,2.636e+00,2.036e+00,2.326e+00,1.719e+00,3.574e+00,3.358e+00,3.646e+00,3.482e+00,4.338e+00,4.036e+00,3.858e+00,3.831e+00,4.001e+00,5.697e+00,5.347e+00,7.411e+00,3.710e+00,6.297e+00,6.392e+00,6.185e+00,7.014e+00,8.417e+00,1.026e+01,9.480e+00,8.675e+00,9.201e+00,9.604e+00,7.910e+00,1.083e+01,1.025e+01,1.214e+01,1.146e+01,1.046e+01,1.157e+01,1.036e+01,1.158e+01,1.059e+01,9.947e+00,8.358e+00,1.334e+01,9.956e+00,1.251e+01,1.260e+01,1.017e+01,1.159e+01,1.155e+01,1.045e+01,1.220e+01,1.096e+01,8.949e+00,1.035e+01,1.004e+01,9.504e+00,1.247e+01,1.071e+01,1.134e+01,9.150e+00,9.313e+00,1.131e+01,1.113e+01,9.461e+00,1.060e+01,1.039e+01,1.185e+01,1.032e+01,1.172e+01,9.925e+00,1.098e+01,1.079e+01,8.494e+00,1.236e+01,1.248e+01,1.272e+01,1.089e+01,1.275e+01,9.595e+00,1.089e+01,1.060e+01,1.026e+01,1.025e+01,1.047e+01,1.191e+01,1.136e+01
7.544e-02,1.925e-01,6.256e-01,7.625e-01,1.080e+00,1.103e+00,1.262e+00,1.473e+00,1.146e+00,2.351e+00,2.305e+00,2.749e+00,2.515e+00,2.570e+00,3.399e+00,3.865e+00,3.223e+00,4.144e+00,4.195e+00,4.468e+00,6.076e+00,4.300e+00,5.471e+00,5.571e+00,5.611e+00,6.437e+00,6.871e+00,8.048e+00,7.282e+00,6.987e+00,7.564e+00,7.197e+00,7.422e+00,9.317e+00,8.003e+00,1.011e+01,1.068e+01,8.713e+00,1.054e+01,9.947e+00,1.081e+01,8.876e+00,9.397e+00,6.506e+00,1.063e+01,9.245e+00,1.113e+01,1.095e+01,9.092e+00,9.110e+00,1.005e+01,9.278e+00,1.090e+01,9.031e+00,8.521e+00,9.261e+00,9.036e+00,9.447e+00,1.101e+01,9.357e+00,1.072e+01,8.383e+00,9.458e+00,1.103e+01,8.905e+00,8.037e+00,1.005e+01,8.683e+00,1.155e+01,9.275e+00,9.742e+00,8.868e+00,1.036e+01,1.026e+01,7.804e+00,1.099e+01,1.149e+01,1.031e+01,1.007e+01,1.144e+01,9.965e+00,1.019e+01,8.259e+00,8.022e+00,9.614e+00,9.042e+00,1.184e+01,9.565e+00
3.219e-02,1.868e-01,8.866e-01,1.027e+00,1.271e+00,1.543e+00,1.829e+00,2.053e+00,1.309e+00,2.353e+00,2.500e+00,3.193e+00,2.561e+00,2.809e+00,3.912e+00,4.387e+00,3.315e+00,4.404e+00,4.493e+00,4.727e+00,7.563e+00,3.494e+00,6.470e+00,6.888e+00,5.758e+00,6.441e+00,7.335e+00,8.623e+00,7.728e+00,6.565e+00,7.464e+00,8.299e+00,6.576e+00,1.021e+01,8.715e+00,1.103e+01,9.573e+00,8.180e+00,1.029e+01,1.162e+01,1.098e+01,8.827e+00,1.017e+01,7.718e+00,1.209e+01,9.427e+00,1.137e+01,1.180e+01,8.798e+00,9.982e+00,1.142e+01,8.965e+00,9.808e+00,1.022e+01,1.032e+01,1.078e+01,9.536e+00,9.031e+00,1.236e+01,1.002e+01,1.068e+01,8.515e+00,1.069e+01,1.125e+01,9.491e+00,8.689e+00,1.142e+01,8.636e+00,1.207e+01,1.011e+01,1.135e+01,9.434e+00,1.034e+01,1.126e+01,8.498e+00,1.023e+01,1.138e+01,1.143e+01,9.672e+00,1.300e+01,1.110e+01,1.140e+01,7.960e+00,8.920e+00,1.048e+01,9.053e+00,1.215e+01,1.026e+01
4.142e-01,1.414e-01,1.136e+00,9.517e-01,1.045e+00,2.040e+00,1.672e+00,1.922e+00,1.375e+00,2.414e+00,2.667e+00,2.570e+00,2.192e+00,2.389e+00,2.776e+00,2.919e+00,2.954e+00,3.458e+00,3.419e+00,3.597e+00,4.835e+00,2.635e+00,4.313e+00,4.205e+00,4.674e+00,5.105e+00,5.515e+00,6.596e+00,6.175e+00,5.107e+00,5.205e+00,5.760e+00,4.757e+00,7.890e+00,6.338e+00,7.803e+00,6.619e+00,6.817e+00,9.179e+00,1.046e+01,1.025e+01,7.837e+00,9.094e+00,6.137e+00,9.770e+00,8.669e+00,1.015e+01,1.024e+01,8.083e+00,8.464e+00,8.517e+00,9.930e+00,8.963e+00,9.302e+00,8.385e+00,8.467e+00,7.858e+00,8.315e+00,1.071e+01,1.006e+01,9.242e+00,7.617e+00,8.428e+00,1.000e+01,8.279e+00,6.822e+00,9.996e+00,8.288e+00,8.959e+00,9.283e+00,9.336e+00,8.310e+00,8.004e+00,9.617e+00,5.934e+00,9.578e+00,1.120e+01,8.858e+00,8.684e+00,1.051e+01,8.689e+00,8.778e+00,7.963e+00,8.613e+00,7.514e+00,8.273e+00,1.096e+01,8.325e+00
5.487e-01,2.156e-01,1.094e+00,9.275e-01,7.558e-01,1.787e+00,1.512e+00,1.930e+00,1.380e+00,3.378e+00,3.280e+00,3.215e+00,2.923e+00,3.101e+00,3.593e+00,4.522e+00,3.793e+00,5.144e+00,5.107e+00,4.463e+00,7.438e+00,4.885e+00,7.286e+00,6.952e+00,5.689e+00,7.240e+00,8.832e+00,9.696e+00,9.239e+00,8.697e+00,8.456e+00,8.948e+00,7.779e+00,1.133e+01,9.594e+00,1.119e+01,1.182e+01,9.441e+00,1.089e+01,1.287e+01,1.274e+01,1.097e+01,1.134e+01,8.698e+00,1.206e+01,1.178e+01,1.346e+01,1.347e+01,1.143e+01,1.013e+01,1.200e+01,1.213e+01,1.172e+01,1.256e+01,1.082e+01,1.083e+01,1.108e+01,1.078e+01,1.432e+01,1.200e+01,1.368e+01,1.046e+01,1.065e+01,1.313e+01,1.138e+01,1.039e+01,1.241e+01,1.068e+01,1.297e+01,1.096e+01,1.172e+01,9.412e+00,1.226e+01,1.202e+01,9.609e+00,1.323e+01,1.372e+01,1.287e+01,1.128e+01,1.486e+01,1.171e+01,1.290e+01,1.065e+01,1.025e+01,1.113e+01,1.218e+01,1.411e+01,1.214e+01
2.518e-02,2.178e-01,6.740e-01,1.162e+00,1.381e+00,1.615e+00,1.990e+00,2.306e+00,1.725e+00,2.676e+00,2.291e+00,2.760e+00,2.268e+00,3.021e+00,3.787e+00,4.175e+00,2.893e+00,4.077e+00,3.527e+00,4.496e+00,5.010e+00,4.192e+00,4.898e+00,5.011e+00,5.728e+00,5.812e+00,6.691e+00,7.893e+00,7.555e+00,7.319e+00,7.898e+00,8.168e+00,7.059e+00,9.568e+00,7.987e+00,1.016e+01,9.995e+00,9.152e+00,1.008e+01,1.108e+01,1.070e+01,9.144e+00,1.003e+01,7.292e+00,1.120e+01,9.294e+00,1.176e+01,1.096e+01,9.556e+00,1.006e+01,1.082e+01,1.057e+01,1.128e+01,9.711e+00,9.009e+00,1.055e+01,9.773e+00,9.764e+00,1.164e+01,1.012e+01,1.094e+01,9.657e+00,9.865e+00,9.936e+00,9.988e+00,8.479e+00,1.121e+01,1.016e+01,1.193e+01,9.793e+00,1.070e+01,9.270e+00,9.687e+00,1.095e+01,8.249e+00,1.221e+01,1.140e+01,1.135e+01,9.931e+00,1.277e+01,1.032e+01,1.001e+01,9.654e+00,9.004e+00,1.023e+01,9.905e+00,1.227e+01,9.625e+00
1.792e-01,1.575e-01,8.230e-01,8.960e-01,9.032e-01,1.432e+00,1.580e+00,2.168e+00,1.483e+00,2.730e+00,2.929e+00,2.576e+00,2.527e+00,2.375e+00,2.899e+00,3.979e+00,3.476e+00,4.094e+00,4.149e+00,4.488e+00,5.504e+00,4.482e+00,4.869e+00,5.746e+00,6.012e+00,6.036e+00,7.560e+00,8.741e+00,8.519e+00,7.544e+00,8.834e+00,7.333e+00,6.673e+00,9.421e+00,8.705e+00,9.751e+00,1.010e+01,8.271e+00,9.683e+00,1.153e+01,1.172e+01,9.464e+00,1.145e+01,7.652e+00,1.252e+01,9.131e+00,1.198e+01,1.090e+01,9.795e+00,1.059e+01,1.081e+01,1.112e+01,1.139e+01,1.080e+01,1.013e+01,1.042e+01,1.019e+01,1.073e+01,1.121e+01,1.068e+01,1.049e+01,9.943e+00,1.060e+01,1.165e+01,1.060e+01,9.478e+00,1.133e+01,9.810e+00,1.171e+01,1.025e+01,1.188e+01,1.036e+01,1.081e+01,1.091e+01,9.168e+00,1.167e+01,1.317e+01,1.139e+01,1.119e+01,1.234e+01,1.088e+01,1.077e+01,1.055e+01,8.375e+00,1.045e+01,1.061e+01,1.300e+01,1.005e+01
1.568e-01,1.132e-01,8.296e-01,8.128e-01,8.803e-01,1.533e+00,1.678e+00,2.302e+00,1.516e+00,2.630e+00,2.462e+00,2.652e+00,2.147e+00,2.242e+00,3.040e+00,3.248e+00,2.915e+00,3.842e+00,3.515e+00,4.363e+00,5.462e+00,3.402e+00,4.283e+00,4.925e+00,4.766e+00,5.189e+00,5.903e+00,7.024e+00,6.047e+00,5.074e+00,5.709e+00,6.663e+00,4.782e+00,8.212e+00,6.385e+00,8.182e+00,7.002e+00,6.292e+00,8.558e+00,8.603e+00,7.935e+00,6.940e+00,8.178e+00,6.046e+00,8.688e+00,7.384e+00,9.529e+00,9.192e+00,7.449e+00,8.158e+00,8.852e+00,8.815e+00,9.185e+00,8.420e+00,8.178e+00,8.120e+00,7.938e+00,8.427e+00,9.055e+00,8.656e+00,7.741e+00,7.314e+00,9.375e+00,7.587e+00,7.657e+00,6.697e+00,9.259e+00,6.726e+00,9.708e+00,8.880e+00,8.798e+00,8.210e+00,8.209e+00,9.784e+00,7.299e+00,8.410e+00,9.733e+00,9.753e+00,8.773e+00,9.863e+00,8.118e+00,8.343e+00,8.063e+00,7.471e+00,7.541e+00,8.332e+00,9.622e+00,7.773e+00
7.187e-02,7.774e-02,6.849e-01,8.479e-01,1.233e+00,2.002e+00,2.190e+00,2.274e+00,1.791e+00,2.579e+00,2.528e+00,2.497e+00,3.022e+00,3.202e+00,3.644e+00,3.948e+00,3.491e+00,4.799e+00,5.017e+00,5.955e+00,6.946e+00,4.446e+00,5.851e+00,5.795e+00,5.541e+00,5.662e+00,7.266e+00,9.035e+00,7.257e+00,7.401e+00,7.406e+00,7.971e+00,7.050e+00,9.408e+00,7.896e+00,1.111e+01,1.021e+01,8.551e+00,1.068e+01,1.097e+01,1.066e+01,1.004e+01,1.114e+01,8.255e+00,1.336e+01,1.076e+01,1.197e+01,1.224e+01,1.011e+01,1.007e+01,1.256e+01,1.193e+01,1.132e+01,1.108e+01,1.088e+01,1.064e+01,1.148e+01,1.079e+01,1.299e+01,1.097e+01,1.123e+01,9.737e+00,1.262e+01,1.312e+01,1.157e+01,9.384e+00,1.277e+01,1.088e+01,1.250e+01,1.099e+01,1.181e+01,1.100e+01,1.104e+01,1.224e+01,1.017e+01,1.182e+01,1.348e+01,1.242e+01,1.181e+01,1.462e+01,1.119e+01,1.139e+01,1.062e+01,1.015e+01,1.108e+01,1.063e+01,1.329e+01,1.035e+01
1.938e-01,6.468e-02,8.910e-01,5.664e-01,1.086e+00,1.998e+00,2.042e+00,1.842e+00,1.381e+00,2.862e+00,3.006e+00,3.400e+00,3.377e+00,3.581e+00,3.531e+00,4.084e+00,3.942e+00,4.162e+00,5.996e+00,4.726e+00,6.546e+00,5.002e+00,5.814e+00,6.235e+00,5.782e+00,6.412e+00,7.131e+00,8.960e+00,8.182e+00,7.721e+00,7.937e+00,8.316e+00,6.628e+00,9.794e+00,7.818e+00,9.091e+00,9.770e+00,7.159e+00,9.409e+00,1.032e+01,1.032e+01,8.539e+00,8.867e+00,6.793e+00,1.046e+01,9.703e+00,1.274e+01,1.107e+01,8.964e+00,1.004e+01,1.089e+01,1.114e+01,1.150e+01,9.509e+00,8.728e+00,9.680e+00,1.094e+01,8.655e+00,1.160e+01,9.437e+00,1.017e+01,9.063e+00,1.026e+01,1.074e+01,1.052e+01,9.274e+00,9.762e+00,8.909e+00,1.222e+01,1.042e+01,1.069e+01,9.317e+00,9.643e+00,1.063e+01,9.483e+00,1.140e+01,1.199e+01,1.152e+01,1.031e+01,1.200e+01,9.429e+00,1.173e+01,1.048e+01,7.941e+00,8.971e+00,1.032e+01,1.141e+01,9.907e+00
2.638e-01,1.935e-01,7.981e-01,8.916e-01,9.531e-01,1.177e+00,7.678e-01,9.311e-01,8.297e-01,1.581e+00,1.562e+00,1.692e+00,1.801e+00,1.990e+00,2.137e+00,2.740e+00,2.394e+00,3.277e+00,3.476e+00,4.412e+00,5.620e+00,3.854e+00,4.661e+00,5.102e+00,5.695e+00,5.326e+00,5.670e+00,7.533e+00,6.994e+00,5.427e+00,7.475e+00,6.639e+00,7.405e+00,9.618e+00,7.625e+00,9.822e+00,9.678e+00,8.519e+00,9.510e+00,9.812e+00,1.068e+01,9.156e+00,1.002e+01,7.352e+00,1.217e+01,8.912e+00,1.265e+01,1.239e+01,1.099e+01,1.108e+01,1.254e+01,1.284e+01,1.290e+01,1.097e+01,1.013e+01,1.137e+01,1.130e+01,1.136e+01,1.335e+01,1.154e+01,1.163e+01,1.042e+01,1.205e+01,1.272e+01,1.128e+01,1.027e+01,1.228e+01,1.038e+01,1.242e+01,1.172e+01,1.290e+01,1.112e+01,1.129e+01,1.211e+01,1.016e+01,1.188e+01,1.450e+01,1.296e+01,1.152e+01,1.405e+01,1.111e+01,1.126e+01,9.653e+00,1.003e+01,1.204e+01,1.039e+01,1.345e+01,1.125e+01
2.406e-01,2.988e-01,1.297e+00,1.593e+00,1.672e+00,2.239e+00,2.296e+00,2.792e+00,1.883e+00,3.351e+00,3.327e+00,3.622e+00,2.955e+00,3.793e+00,4.385e+00,4.657e+00,3.808e+00,5.158e+00,5.094e+00,6.600e+00,6.606e+00,5.182e+00,6.382e+00,6.794e+00,7.095e+00,6.991e+00,8.559e+00,9.873e+00,8.480e+00,8.451e+00,9.418e+00,9.053e+00,7.767e+00,1.094e+01,8.859e+00,1.154e+01,1.092e+01,8.966e+00,1.165e+01,1.183e+01,1.304e+01,1.085e+01,1.229e+01,9.084e+00,1.355e+01,1.163e+01,1.485e+01,1.517e+01,1.195e+01,1.291e+01,1.428e+01,1.530e+01,1.411e+01,1.402e+01,1.222e+01,1.213e+01,1.223e+01,1.279e+01,1.449e+01,1.354e+01,1.359e+01,1.184e+01,1.451e+01,1.460e+01,1.448e+01,1.216e+01,1.526e+01,1.323e+01,1.445e+01,1.461e+01,1.407e+01,1.213e+01,1.336e+01,1.478e+01,1.137e+01,1.383e+01,1.631e+01,1.499e+01,1.272e+01,1.599e+01,1.297e+01,1.393e+01,1.226e+01,1.220e+01,1.230e+01,1.294e+01,1.550e+01,1.307e+01
9.791e-03,2.746e-01,7.516e-01,1.018e+00,1.293e+00,7.619e-01,8.272e-01,1.966e+00,1.463e+00,2.853e+00,2.699e+00,3.562e+00,2.870e+00,2.803e+00,3.636e+00,4.193e+00,3.782e+00,4.099e+00,4.806e+00,4.351e+00,6.263e+00,3.560e+00,5.035e+00,5.770e+00,5.615e+00,5.482e+00,6.408e+00,7.762e+00,8.237e+00,7.531e+00,7.734e+00,7.745e+00,6.112e+00,9.121e+00,8.583e+00,1.102e+01,1.007e+01,7.921e+00,9.295e+00,1.174e+01,1.106e+01,8.685e+00,1.097e+01,8.535e+00,1.296e+01,9.683e+00,1.310e+01,1.301e+01,1.053e+01,1.188e+01,1.258e+01,1.284e+01,1.359e+01,1.379e+01,1.250e+01,1.189e+01,1.120e+01,1.132e+01,1.374e+01,1.311e+01,1.288e+01,1.066e+01,1.335e+01,1.409e+01,1.310e+01,1.062e+01,1.303e+01,1.134e+01,1.268e+01,1.381e+01,1.293e+01,1.190e+01,1.225e+01,1.224e+01,9.988e+00,1.240e+01,1.528e+01,1.315e+01,1.258e+01,1.467e+01,1.288e+01,1.306e+01,1.167e+01,1.004e+01,1.199e+01,1.134e+01,1.480e+01,1.321e+01
4.546e-01,1.262e-01,9.593e-01,1.057e+00,8.707e-01,2.157e+00,1.822e+00,1.767e+00,1.464e+00,2.297e+00,3.011e+00,2.267e+00,3.094e+00,3.217e+00,3.231e+00,3.301e+00,3.430e+00,4.170e+00,4.147e+00,4.540e+00,4.822e+00,3.478e+00,5.007e+00,4.818e+00,5.570e+00,5.594e+00,6.371e+00,8.168e+00,6.915e+00,6.321e+00,6.546e+00,6.893e+00,7.371e+00,8.776e+00,7.523e+00,8.576e+00,8.525e+00,9.587e+00,1.045e+01,1.028e+01,1.186e+01,8.929e+00,1.051e+01,7.642e+00,1.308e+01,9.663e+00,1.294e+01,1.394e+01,1.135e+01,1.194e+01,1.345e+01,1.370e+01,1.500e+01,1.271e+01,1.301e+01,1.314e+01,1.278e+01,1.065e+01,1.467e+01,1.325e+01,1.306e+01,1.126e+01,1.369e+01,1.462e+01,1.265e+01,1.098e+01,1.449e+01,1.209e+01,1.260e+01,1.512e+01,1.311e+01,1.376e+01,1.234e+01,1.350e+01,1.099e+01,1.242e+01,1.521e+01,1.349e+01,1.316e+01,1.470e+01,1.314e+01,1.325e+01,1.163e+01,1.125e+01,1.148e+01,1.129e+01,1.501e+01,1.212e+01
4.435e-01,1.798e-01,1.146e+00,1.086e+00,9.114e-01,1.848e+00,1.473e+00,1.782e+00,1.232e+00,2.224e+00,2.520e+00,2.843e+00,2.078e+00,2.468e+00,3.330e+00,3.116e+00,2.640e+00,4.335e+00,3.938e+00,3.990e+00,4.897e+00,3.203e+00,4.419e+00,4.626e+00,4.386e+00,5.306e+00,6.232e+00,7.475e+00,6.277e+00,6.516e+00,6.766e+00,6.616e+00,5.941e+00,8.909e+00,7.403e+00,8.660e+00,8.616e+00,8.183e+00,8.955e+00,8.771e+00,1.007e+01,7.968e+00,9.662e+00,7.777e+00,9.736e+00,9.403e+00,1.187e+01,1.089e+01,9.281e+00,8.916e+00,1.117e+01,1.280e+01,1.306e+01,1.065e+01,1.072e+01,1.081e+01,1.012e+01,9.922e+00,1.243e+01,1.084e+01,1.105e+01,1.136e+01,1.243e+01,1.192e+01,1.109e+01,8.849e+00,1.277e+01,9.923e+00,1.103e+01,1.169e+01,1.106e+01,1.175e+01,1.061e+01,1.104e+01,9.493e+00,1.228e+01,1.113e+01,1.311e+01,1.053e+01,1.240e+01,1.115e+01,1.157e+01,1.014e+01,9.563e+00,9.540e+00,1.041e+01,1.196e+01,1.030e+01
1.504e-01,3.448e-01,8.628e-01,1.322e+00,1.801e+00,1.489e+00,1.318e+00,2.025e+00,1.859e+00,3.398e+00,2.929e+00,3.231e+00,3.392e+00,3.747e+00,3.733e+00,4.556e+00,3.780e+00,4.761e+00,5.063e+00,5.561e+00,7.244e+00,4.154e+00,5.614e+00,5.455e+00,5.778e+00,4.852e+00,6.517e+00,7.086e+00,6.564e+00,6.359e+00,5.618e+00,6.422e+00,6.139e+00,8.197e+00,7.515e+00,9.586e+00,8.774e+00,8.138e+00,9.328e+00,8.615e+00,1.014e+01,8.944e+00,9.774e+00,5.748e+00,1.099e+01,8.931e+00,1.060e+01,1.195e+01,9.473e+00,1.059e+01,1.200e+01,1.194e+01,1.328e+01,1.131e+01,1.212e+01,1.132e+01,1.147e+01,1.147e+01,1.362e+01,1.380e+01,1.307e+01,9.923e+00,1.407e+01,1.353e+01,9.675e+00,9.151e+00,1.307e+01,1.002e+01,1.338e+01,1.332e+01,1.149e+01,1.236e+01,1.108e+01,1.415e+01,1.017e+01,1.164e+01,1.505e+01,1.259e+01,1.120e+01,1.341e+01,1.220e+01,1.146e+01,1.006e+01,1.009e+01,1.309e+01,1.057e+01,1.400e+01,1.180e+01
4.186e-01,2.809e-01,1.373e+00,1.438e+00,1.444e+00,2.204e+00,1.889e+00,2.022e+00,1.402e+00,2.718e+00,2.692e+00,2.698e+00,2.229e+00,2.858e+00,3.278e+00,3.854e+00,3.033e+00,4.498e+00,4.357e+00,5.315e+00,6.421e+00,4.166e+00,5.779e+00,5.277e+00,5.594e+00,6.381e+00,6.398e+00,8.043e+00,6.062e+00,5.944e+00,6.726e+00,6.924e+00,6.667e+00,8.941e+00,7.907e+00,9.089e+00,7.951e+00,7.338e+00,9.658e+00,1.013e+01,9.762e+00,8.490e+00,9.483e+00,6.642e+00,1.111e+01,1.010e+01,1.351e+01,1.279e+01,8.996e+00,1.050e+01,1.131e+01,1.365e+01,1.436e+01,1.208e+01,1.288e+01,1.167e+01,1.196e+01,1.155e+01,1.426e+01,1.336e+01,1.251e+01,1.109e+01,1.315e+01,1.430e+01,1.128e+01,1.134e+01,1.348e+01,1.087e+01,1.232e+01,1.327e+01,1.250e+01,1.277e+01,1.201e+01,1.378e+01,9.485e+00,1.276e+01,1.497e+01,1.403e+01,1.308e+01,1.455e+01,1.295e+01,1.198e+01,1.088e+01,1.180e+01,1.260e+01,1.207e+01,1.384e+01,1.160e+01
1.440e-01,2.138e-01,7.176e-01,8.172e-01,8.655e-01,7.586e-01,5.963e-01,1.170e+00,8.514e-01,2.049e+00,1.948e+00,2.542e+00,2.156e+00,2.431e+00,2.757e+00,2.784e+00,2.355e+00,3.099e+00,4.478e+00,3.824e+00,5.331e+00,3.038e+00,5.017e+00,5.079e+00,4.431e+00,4.251e+00,5.101e+00,7.140e+00,7.156e+00,6.708e+00,7.429e+00,7.570e+00,4.868e+00,8.590e+00,7.888e+00,9.777e+00,9.428e+00,8.154e+00,8.338e+00,9.587e+00,1.041e+01,8.844e+00,1.008e+01,7.995e+00,1.026e+01,9.992e+00,1.304e+01,1.186e+01,9.260e+00,1.094e+01,1.240e+01,1.445e+01,1.434e+01,1.302e+01,1.287e+01,1.206e+01,1.176e+01,1.198e+01,1.479e+01,1.269e+01,1.263e+01,1.243e+01,1.394e+01,1.425e+01,1.372e+01,1.112e+01,1.386e+01,1.200e+01,1.298e+01,1.448e+01,1.288e+01,1.380e+01,1.298e+01,1.363e+01,1.134e+01,1.389e+01,1.506e+01,1.559e+01,1.310e+01,1.568e+01,1.379e+01,1.467e+01,1.280e+01,1.115e+01,1.286e+01,1.228e+01,1.416e+01,1.393e+01
8.167e-03,1.750e-01,8.665e-01,1.127e+00,1.387e+00,1.567e+00,1.718e+00,2.236e+00,1.593e+00,2.221e+00,2.366e+00,2.448e+00,2.228e+00,2.255e+00,2.992e+00,3.537e+00,2.790e+00,4.177e+00,4.420e+00,5.273e+00,5.482e+00,3.784e+00,4.376e+00,5.546e+00,5.434e+00,5.193e+00,7.045e+00,9.023e+00,7.260e+00,6.755e+00,7.357e+00,6.643e+00,6.680e+00,8.539e+00,7.472e+00,1.052e+01,9.154e+00,8.188e+00,9.851e+00,1.079e+01,1.187e+01,1.013e+01,1.163e+01,7.961e+00,1.144e+01,9.301e+00,1.276e+01,1.154e+01,1.027e+01,1.100e+01,1.265e+01,1.307e+01,1.423e+01,1.315e+01,1.397e+01,1.376e+01,1.297e+01,1.231e+01,1.390e+01,1.345e+01,1.364e+01,1.217e+01,1.508e+01,1.479e+01,1.299e+01,1.121e+01,1.476e+01,1.194e+01,1.448e+01,1.362e+01,1.310e+01,1.404e+01,1.326e+01,1.487e+01,1.160e+01,1.502e+01,1.569e+01,1.464e+01,1.301e+01,1.510e+01,1.268e+01,1.396e+01,1.324e+01,1.168e+01,1.324e+01,1.298e+01,1.490e+01,1.279e+01
3.012e-01,1.275e-01,6.504e-01,7.164e-01,1.023e+00,1.449e+00,1.049e+00,1.936e+00,1.813e+00,2.643e+00,3.001e+00,3.274e+00,2.813e+00,2.764e+00,3.638e+00,4.241e+00,3.233e+00,4.900e+00,5.203e+00,4.676e+00,6.237e+00,3.986e+00,5.612e+00,5.888e+00,5.396e+00,4.846e+00,6.574e+00,7.913e+00,7.797e+00,7.487e+00,7.768e+00,6.772e+00,6.726e+00,9.449e+00,8.671e+00,1.100e+01,1.081e+01,9.554e+00,1.044e+01,1.164e+01,1.302e+01,1.085e+01,1.321e+01,8.075e+00,1.337e+01,1.151e+01,1.408e+01,1.377e+01,1.203e+01,1.085e+01,1.372e+01,1.527e+01,1.523e+01,1.416e+01,1.363e+01,1.358e+01,1.362e+01,1.368e+01,1.605e+01,1.490e+01,1.565e+01,1.399e+01,1.589e+01,1.686e+01,1.419e+01,1.177e+01,1.603e+01,1.398e+01,1.469e+01,1.499e+01,1.526e+01,1.502e+01,1.421e+01,1.542e+01,1.241e+01,1.539e+01,1.797e+01,1.528e+01,1.477e+01,1.682e+01,1.481e+01,1.564e+01,1.431e+01,1.223e+01,1.460e+01,1.446e+01,1.851e+01,1.524e+01
1.601e-02,2.533e-01,6.615e-01,1.031e+00,1.039e+00,1.063e+00,1.569e+00,1.724e+00,9.979e-01,2.344e+00,2.398e+00,2.454e+00,2.123e+00,2.707e+00,3.032e+00,3.184e+00,2.747e+00,2.826e+00,3.076e+00,3.565e+00,4.376e+00,3.268e+00,4.629e+00,4.556e+00,4.812e+00,5.451e+00,6.250e+00,6.906e+00,5.970e+00,5.995e+00,6.560e+00,6.816e+00,5.253e+00,7.904e+00,7.641e+00,7.990e+00,7.943e+00,6.640e+00,8.490e+00,8.788e+00,9.471e+00,7.407e+00,8.684e+00,6.109e+00,1.093e+01,9.318e+00,1.060e+01,1.053e+01,8.577e+00,1.069e+01,1.006e+01,1.225e+01,1.300e+01,1.134e+01,1.115e+01,1.242e+01,1.151e+01,1.164e+01,1.463e+01,1.294e+01,1.290e+01,1.225e+01,1.345e+01,1.386e+01,1.258e+01,1.074e+01,1.377e+01,1.237e+01,1.339e+01,1.533e+01,1.282e+01,1.420e+01,1.264e+01,1.372e+01,1.138e+01,1.229e+01,1.460e+01,1.420e+01,1.314e+01,1.476e+01,1.255e+01,1.347e+01,1.166e+01,1.120e+01,1.355e+01,1.192e+01,1.458e+01,1.241e+01
9.390e-03,6.741e-02,7.059e-01,5.113e-01,1.386e+00,1.841e+00,1.986e+00,1.965e+00,1.636e+00,3.007e+00,2.550e+00,3.150e+00,3.421e+00,3.464e+00,3.555e+00,4.407e+00,3.465e+00,3.812e+00,4.481e+00,3.763e+00,6.073e+00,3.924e+00,4.836e+00,5.238e+00,4.524e+00,5.209e+00,6.836e+00,8.026e+00,6.871e+00,7.574e+00,6.643e+00,7.834e+00,6.950e+00,9.545e+00,8.359e+00,1.068e+01,9.628e+00,8.703e+00,1.031e+01,1.139e+01,1.101e+01,9.468e+00,1.058e+01,7.648e+00,1.158e+01,1.014e+01,1.286e+01,1.219e+01,1.063e+01,1.169e+01,1.184e+01,1.376e+01,1.509e+01,1.284e+01,1.313e+01,1.256e+01,1.159e+01,1.235e+01,1.616e+01,1.435e+01,1.408e+01,1.422e+01,1.506e+01,1.492e+01,1.474e+01,1.095e+01,1.499e+01,1.400e+01,1.551e+01,1.588e+01,1.466e+01,1.531e+01,1.432e+01,1.568e+01,1.291e+01,1.569e+01,1.439e+01,1.522e+01,1.407e+01,1.675e+01,1.385e+01,1.579e+01,1.318e+01,1.236e+01,1.390e+01,1.356e+01,1.609e+01,1.379e+01
2.435e-02,1.764e-01,7.536e-01,8.786e-01,1.624e+00,1.515e+00,1.323e+00,1.506e+00,1.364e+00,2.015e+00,1.886e+00,3.123e+00,2.569e+00,2.990e+00,3.586e+00,4.171e+00,3.066e+00,4.039e+00,4.808e+00,3.702e+00,6.904e+00,3.138e+00,5.298e+00,6.042e+00,4.875e+00,4.788e+00,6.438e+00,7.107e+00,7.513e+00,5.766e+00,6.263e+00,7.349e+00,5.905e+00,9.099e+00,7.471e+00,1.062e+01,9.056e+00,7.792e+00,9.437e+00,9.536e+00,1.120e+01,9.618e+00,1.073e+01,8.805e+00,1.267e+01,9.411e+00,1.195e+01,1.334e+01,1.063e+01,1.170e+01,1.261e+01,1.292e+01,1.334e+01,1.313e+01,1.333e+01,1.273e+01,1.267e+01,1.252e+01,1.553e+01,1.433e+01,1.544e+01,1.294e+01,1.736e+01,1.521e+01,1.414e+01,1.133e+01,1.679e+01,1.272e+01,1.559e+01,1.604e+01,1.424e+01,1.492e+01,1.468e+01,1.611e+01,1.341e+01,1.566e+01,1.598e+01,1.510e+01,1.500e+01,1.715e+01,1.348e+01,1.655e+01,1.281e+01,1.354e+01,1.428e+01,1.529e+01,1.667e+01,1.415e+01
2.136e-01,2.434e-01,9.946e-01,1.203e+00,1.363e+00,1.780e+00,1.822e+00,2.161e+00,1.519e+00,2.781e+00,2.977e+00,2.932e+00,2.613e+00,3.079e+00,3.333e+00,3.997e+00,3.750e+00,4.021e+00,4.351e+00,5.050e+00,6.114e+00,4.548e+00,5.068e+00,5.584e+00,6.518e+00,6.953e+00,7.678e+00,8.669e+00,8.155e+00,6.482e+00,8.084e+00,7.579e+00,8.044e+00,1.033e+01,9.741e+00,1.131e+01,1.069e+01,9.044e+00,1.165e+01,1.277e+01,1.230e+01,1.036e+01,1.183e+01,7.581e+00,1.382e+01,1.041e+01,1.438e+01,1.470e+01,1.218e+01,1.398e+01,1.338e+01,1.481e+01,1.535e+01,1.493e+01,1.415e+01,1.505e+01,1.430e+01,1.487e+01,1.764e+01,1.602e+01,1.821e+01,1.464e+01,1.854e+01,1.859e+01,1.707e+01,1.397e+01,1.712e+01,1.606e+01,1.659e+01,1.834e+01,1.742e+01,1.753e+01,1.652e+01,1.794e+01,1.491e+01,1.732e+01,1.915e+01,1.724e+01,1.785e+01,1.799e+01,1.619e+01,1.735e+01,1.519e+01,1.428e+01,1.600e+01,1.679e+01,1.923e+01,1.626e+01
1.188e-01,2.414e-01,1.050e+00,1.403e+00,1.671e+00,2.191e+00,2.342e+00,2.273e+00,1.706e+00,2.855e+00,2.699e+00,3.042e+00,3.175e+00,3.809e+00,3.889e+00,3.852e+00,3.258e+00,3.779e+00,4.768e+00,4.774e+00,6.847e+00,3.285e+00,5.106e+00,5.949e+00,5.806e+00,5.550e+00,7.855e+00,8.807e+00,8.343e+00,7.433e+00,8.674e+00,8.700e+00,7.089e+00,1.057e+01,9.242e+00,1.235e+01,1.107e+01,1.001e+01,1.130e+01,1.187e+01,1.269e+01,1.058e+01,1.197e+01,9.056e+00,1.284e+01,1.097e+01,1.383e+01,1.354e+01,1.041e+01,1.336e+01,1.433e+01,1.479e+01,1.532e+01,1.363e+01,1.437e+01,1.516e+01,1.358e+01,1.344e+01,1.752e+01,1.525e+01,1.569e+01,1.564e+01,1.660e+01,1.798e+01,1.617e+01,1.304e+01,1.770e+01,1.541e+01,1.661e+01,1.729e+01,1.653e+01,1.724e+01,1.658e+01,1.661e+01,1.450e+01,1.729e+01,1.716e+01,1.779e+01,1.593e+01,1.925e+01,1.534e+01,1.776e+01,1.512e+01,1.449e+01,1.500e+01,1.613e+01,1.757e+01,1.660e+01
4.349e-01,1.903e-01,1.118e+00,9.409e-01,8.883e-01,1.595e+00,1.064e+00,1.636e+00,1.210e+00,2.774e+00,2.484e+00,2.751e+00,2.668e+00,2.944e+00,2.664e+00,2.899e+00,3.366e+00,4.044e+00,4.543e+00,4.758e+00,6.519e+00,3.437e+00,5.118e+00,5.686e+00,5.620e+00,5.732e+00,8.082e+00,9.053e+00,8.798e+00,7.902e+00,8.624e+00,8.443e+00,7.218e+00,1.036e+01,7.927e+00,1.241e+01,1.131e+01,9.965e+00,1.166e+01,1.161e+01,1.306e+01,1.097e+01,1.185e+01,9.696e+00,1.390e+01,1.056e+01,1.444e+01,1.511e+01,1.147e+01,1.284e+01,1.377e+01,1.404e+01,1.400e+01,1.404e+01,1.334e+01,1.330e+01,1.277e+01,1.413e+01,1.580e+01,1.532e+01,1.683e+01,1.513e+01,1.653e+01,1.659e+01,1.749e+01,1.398e+01,1.775e+01,1.455e+01,1.628e+01,1.590e+01,1.534e+01,1.589e+01,1.612e+01,1.662e+01,1.358e+01,1.693e+01,1.704e+01,1.777e+01,1.619e+01,1.814e+01,1.563e+01,1.697e+01,1.463e+01,1.521e+01,1.333e+01,1.553e+01,1.845e+01,1.506e+01
1.059e-01,2.462e-01,1.040e+00,1.426e+00,1.974e+00,2.545e+00,2.824e+00,3.054e+00,2.424e+00,3.981e+00,3.697e+00,3.544e+00,3.841e+00,4.527e+00,4.552e+00,5.577e+00,4.506e+00,5.541e+00,6.401e+00,7.211e+00,7.275e+00,6.387e+00,6.878e+00,6.667e+00,7.621e+00,6.972e+00,8.082e+00,9.824e+00,8.774e+00,8.754e+00,8.977e+00,9.336e+00,8.343e+00,1.100e+01,9.457e+00,1.167e+01,1.150e+01,1.005e+01,1.192e+01,1.268e+01,1.237e+01,1.078e+01,1.132e+01,7.359e+00,1.336e+01,1.100e+01,1.472e+01,1.463e+01,1.123e+01,1.260e+01,1.488e+01,1.378e+01,1.572e+01,1.336e+01,1.348e+01,1.445e+01,1.422e+01,1.426e+01,1.615e+01,1.579e+01,1.683e+01,1.468e+01,1.845e+01,1.790e+01,1.553e+01,1.483e+01,1.753e+01,1.615e+01,1.726e+01,1.719e+01,1.627e+01,1.641e+01,1.595e+01,1.774e+01,1.432e+01,1.634e+01,1.957e+01,1.819e+01,1.534e+01,1.714e+01,1.607e+01,1.718e+01,1.553e+01,1.327e+01,1.579e+01,1.607e+01,1.936e+01,1.564e+01
2.005e-01,2.016e-01,8.898e-01,9.204e-01,9.773e-01,1.406e+00,1.502e+00,2.118e+00,1.463e+00,3.278e+00,2.902e+00,2.976e+00,3.123e+00,3.153e+00,3.568e+00,4.289e+00,4.066e+00,4.570e+00,5.033e+00,4.938e+00,6.324e+00,4.735e+00,5.609e+00,5.470e+00,5.318e+00,6.325e+00,6.901e+00,8.176e+00,7.619e+00,7.141e+00,7.099e+00,7.987e+00,6.635e+00,9.923e+00,8.606e+00,9.992e+00,1.031e+01,8.097e+00,9.535e+00,1.153e+01,1.045e+01,7.965e+00,9.633e+00,7.794e+00,1.208e+01,1.046e+01,1.334e+01,1.267e+01,1.007e+01,1.213e+01,1.310e+01,1.172e+01,1.427e+01,1.352e+01,1.302e+01,1.321e+01,1.143e+01,1.334e+01,1.544e+01,1.386e+01,1.514e+01,1.398e+01,1.617e+01,1.614e+01,1.527e+01,1.316e+01,1.726e+01,1.528e+01,1.588e+01,1.652e+01,1.482e+01,1.608e+01,1.504e+01,1.626e+01,1.401e+01,1.503e+01,1.747e+01,1.677e+01,1.493e+01,1.772e+01,1.419e+01,1.592e+01,1.484e+01,1.218e+01,1.378e+01,1.531e+01,1.788e+01,1.583e+01
1.620e-01,2.801e-01,6.807e-01,1.360e+00,1.286e+00,1.686e+00,2.134e+00,2.857e+00,2.096e+00,3.333e+00,3.030e+00,3.096e+00,2.334e+00,3.188e+00,4.168e+00,4.234e+00,3.176e+00,4.449e+00,3.750e+00,4.295e+00,5.175e+00,4.377e+00,4.411e+00,4.358e+00,5.191e+00,5.780e+00,6.827e+00,6.830e+00,6.831e+00,6.894e+00,7.029e+00,7.370e+00,5.799e+00,8.537e+00,8.520e+00,8.963e+00,9.325e+00,7.914e+00,9.652e+00,9.576e+00,1.002e+01,9.508e+00,1.010e+01,6.443e+00,1.144e+01,9.781e+00,1.032e+01,1.255e+01,9.507e+00,1.104e+01,1.047e+01,1.123e+01,1.330e+01,1.209e+01,1.213e+01,1.225e+01,1.204e+01,1.178e+01,1.454e+01,1.344e+01,1.511e+01,1.331e+01,1.528e+01,1.641e+01,1.478e+01,1.371e+01,1.707e+01,1.619e+01,1.662e+01,1.688e+01,1.541e+01,1.570e+01,1.550e+01,1.729e+01,1.398e+01,1.538e+01,1.874e+01,1.593e+01,1.542e+01,1.705e+01,1.465e+01,1.626e+01,1.522e+01,1.448e+01,1.399e+01,1.678e+01,1.823e+01,1.719e+01
4.586e-01,1.899e-01,1.247e+00,9.894e-01,1.089e+00,1.874e+00,1.270e+00,1.301e+00,9.293e-01,2.114e+00,2.478e+00,2.926e+00,2.216e+00,2.864e+00,2.612e+00,2.679e+00,2.789e+00,3.076e+00,4.359e+00,4.018e+00,5.055e+00,3.154e+00,4.941e+00,4.662e+00,5.136e+00,4.772e+00,5.422e+00,7.942e+00,7.553e+00,6.797e+00,7.634e+00,6.970e+00,6.208e+00,9.342e+00,7.571e+00,1.035e+01,9.906e+00,8.079e+00,9.188e+00,1.044e+01,1.107e+01,8.433e+00,1.000e+01,8.012e+00,1.274e+01,9.589e+00,1.320e+01,1.259e+01,1.099e+01,1.157e+01,1.240e+01,1.465e+01,1.462e+01,1.257e+01,1.217e+01,1.257e+01,1.200e+01,1.301e+01,1.593e+01,1.470e+01,1.488e+01,1.395e+01,1.509e+01,1.541e+01,1.689e+01,1.328e+01,1.774e+01,1.614e+01,1.495e+01,1.728e+01,1.644e+01,1.786e+01,1.474e+01,1.637e+01,1.445e+01,1.676e+01,1.829e+01,1.878e+01,1.636e+01,1.837e+01,1.488e+01,1.618e+01,1.495e+01,1.526e+01,1.446e+01,1.561e+01,1.818e+01,1.479e+01
3.341e-01,1.971e-01,1.048e+00,9.385e-01,1.201e+00,1.893e+00,1.733e+00,1.761e+00,1.240e+00,2.606e+00,2.610e+00,3.155e+00,2.062e+00,2.904e+00,2.950e+00,3.627e+00,2.690e+00,3.416e+00,4.202e+00,3.743e+00,5.715e+00,3.833e+00,4.569e+00,4.939e+00,5.142e+00,6.040e+00,6.820e+00,7.637e+00,7.013e+00,5.130e+00,6.310e+00,5.842e+00,6.213e+00,8.491e+00,7.277e+00,8.447e+00,7.860e+00,7.504e+00,9.147e+00,9.226e+00,1.007e+01,8.124e+00,9.178e+00,5.620e+00,1.087e+01,8.632e+00,1.106e+01,1.076e+01,8.891e+00,1.120e+01,1.091e+01,1.153e+01,1.269e+01,1.033e+01,1.076e+01,1.192e+01,1.193e+01,1.149e+01,1.420e+01,1.313e+01,1.460e+01,1.320e+01,1.554e+01,1.654e+01,1.425e+01,1.271e+01,1.611e+01,1.532e+01,1.504e+01,1.728e+01,1.668e+01,1.810e+01,1.537e+01,1.749e+01,1.499e+01,1.573e+01,1.804e+01,1.768e+01,1.533e+01,1.711e+01,1.536e+01,1.693e+01,1.460e+01,1.404e+01,1.377e+01,1.582e+01,1.873e+01,1.586e+01
4.450e-01,2.045e-01,1.299e+00,1.076e+00,9.356e-01,2.033e+00,1.830e+00,1.411e+00,7.833e-01,2.353e+00,2.424e+00,2.692e+00,2.130e+00,2.935e+00,2.696e+00,2.947e+00,2.296e+00,3.060e+00,4.023e+00,3.384e+00,4.791e+00,3.508e+00,4.699e+00,5.184e+00,4.522e+00,5.617e+00,7.106e+00,8.104e+00,6.790e+00,6.677e+00,7.943e+00,6.997e+00,6.254e+00,9.295e+00,8.040e+00,9.307e+00,9.411e+00,8.634e+00,9.992e+00,1.082e+01,1.233e+01,9.294e+00,1.152e+01,8.212e+00,1.234e+01,1.009e+01,1.356e+01,1.210e+01,1.031e+01,1.196e+01,1.286e+01,1.379e+01,1.480e+01,1.265e+01,1.365e+01,1.303e+01,1.275e+01,1.274e+01,1.518e+01,1.393e+01,1.482e+01,1.504e+01,1.609e+01,1.587e+01,1.527e+01,1.312e+01,1.737e+01,1.542e+01,1.652e+01,1.670e+01,1.648e+01,1.668e+01,1.597e+01,1.740e+01,1.484e+01,1.697e+01,1.679e+01,1.665e+01,1.520e+01,1.795e+01,1.611e+01,1.796e+01,1.473e+01,1.421e+01,1.414e+01,1.577e+01,1.708e+01,1.538e+01
4.297e-01,2.562e-01,9.883e-01,1.374e+00,1.465e+00,2.393e+00,2.299e+00,2.997e+00,2.449e+00,3.837e+00,3.430e+00,3.476e+00,2.971e+00,3.622e+00,4.426e+00,4.456e+00,3.864e+00,5.611e+00,4.811e+00,5.204e+00,7.567e+00,4.225e+00,6.476e+00,6.195e+00,6.401e+00,7.348e+00,9.292e+00,9.355e+00,8.843e+00,8.577e+00,7.689e+00,9.381e+00,8.234e+00,1.142e+01,1.016e+01,1.222e+01,1.064e+01,9.378e+00,1.247e+01,1.290e+01,1.129e+01,1.006e+01,1.052e+01,8.016e+00,1.341e+01,1.168e+01,1.354e+01,1.572e+01,1.159e+01,1.274e+01,1.315e+01,1.419e+01,1.629e+01,1.440e+01,1.491e+01,1.513e+01,1.413e+01,1.360e+01,1.795e+01,1.644e+01,1.670e+01,1.612e+01,1.658e+01,1.900e+01,1.585e+01,1.530e+01,1.874e+01,1.690e+01,1.761e+01,1.902e+01,1.753e+01,1.823e+01,1.833e+01,2.038e+01,1.546e+01,1.903e+01,2.113e+01,1.953e+01,1.851e+01,2.131e+01,1.876e+01,1.843e+01,1.666e+01,1.696e+01,1.631e+01,1.822e+01,2.016e+01,1.819e+01
5.747e-02,1.107e-01,6.093e-01,5.312e-01,6.642e-01,1.108e+00,1.445e+00,1.281e+00,7.253e-01,2.178e+00,2.228e+00,1.998e+00,2.504e+00,2.596e+00,2.809e+00,3.404e+00,2.822e+00,3.531e+00,3.511e+00,4.562e+00,5.758e+00,4.694e+00,4.630e+00,4.533e+00,4.766e+00,5.624e+00,6.612e+00,7.420e+00,6.243e+00,6.037e+00,7.289e+00,6.760e+00,6.805e+00,9.013e+00,7.781e+00,1.008e+01,9.961e+00,8.477e+00,1.074e+01,1.048e+01,1.101e+01,9.914e+00,9.326e+00,7.394e+00,1.087e+01,9.412e+00,1.258e+01,1.393e+01,1.025e+01,1.211e+01,1.130e+01,1.303e+01,1.288e+01,1.332e+01,1.162e+01,1.287e+01,1.139e+01,1.379e+01,1.495e+01,1.348e+01,1.428e+01,1.332e+01,1.434e+01,1.722e+01,1.607e+01,1.186e+01,1.732e+01,1.769e+01,1.504e+01,1.698e+01,1.624e+01,1.688e+01,1.707e+01,1.907e+01,1.630e+01,1.621e+01,1.875e+01,1.938e+01,1.729e+01,1.946e+01,1.630e+01,1.842e+01,1.516e+01,1.431e+01,1.464e+01,1.643e+01,1.950e+01,1.702e+01
1.102e-01,7.605e-02,5.386e-01,5.109e-01,6.581e-01,1.108e+00,1.249e+00,1.992e+00,1.491e+00,2.715e+00,2.603e+00,2.892e+00,2.754e+00,2.580e+00,3.032e+00,3.576e+00,3.401e+00,4.483e+00,4.982e+00,4.804e+00,6.240e+00,3.828e+00,5.573e+00,6.083e+00,5.451e+00,5.853e+00,7.056e+00,9.489e+00,8.140e+00,7.827e+00,7.329e+00,8.244e+00,6.740e+00,9.642e+00,8.337e+00,1.032e+01,9.674e+00,8.430e+00,1.016e+01,1.213e+01,1.132e+01,8.985e+00,1.079e+01,8.032e+00,1.327e+01,1.151e+01,1.388e+01,1.243e+01,9.476e+00,1.174e+01,1.264e+01,1.392e+01,1.431e+01,1.260e+01,1.353e+01,1.415e+01,1.335e+01,1.195e+01,1.648e+01,1.349e+01,1.391e+01,1.347e+01,1.454e+01,1.705e+01,1.611e+01,1.405e+01,1.808e+01,1.561e+01,1.723e+01,1.881e+01,1.634e+01,1.892e+01,1.577e+01,1.826e+01,1.574e+01,1.817e+01,1.990e+01,1.865e+01,1.831e+01,2.087e+01,1.759e+01,1.783e+01,1.653e+01,1.492e+01,1.491e+01,1.580e+01,2.048e+01,1.590e+01
3.254e-01,7.886e-02,4.971e-01,6.722e-01,5.101e-01,1.347e+00,1.150e+00,1.929e+00,1.688e+00,2.482e+00,2.383e+00,1.965e+00,2.450e+00,2.204e+00,2.646e+00,2.565e+00,2.816e+00,3.837e+00,3.883e+00,4.386e+00,5.264e+00,3.210e+00,4.144e+00,4.444e+00,4.782e+00,4.584e+00,5.953e+00,7.595e+00,7.435e+00,7.233e+00,7.123e+00,6.648e+00,6.158e+00,7.780e+00,6.743e+00,8.352e+00,9.026e+00,7.618e+00,8.700e+00,9.098e+00,9.584e+00,8.862e+00,8.417e+00,6.186e+00,1.099e+01,9.427e+00,1.134e+01,1.143e+01,8.773e+00,9.746e+00,1.179e+01,1.180e+01,1.337e+01,1.102e+01,1.255e+01,1.226e+01,1.224e+01,1.194e+01,1.467e+01,1.427e+01,1.529e+01,1.346e+01,1.535e+01,1.680e+01,1.455e+01,1.397e+01,1.675e+01,1.445e+01,1.658e+01,1.731e+01,1.522e+01,1.772e+01,1.543e+01,1.965e+01,1.710e+01,1.883e+01,2.034e+01,1.803e+01,1.775e+01,1.712e+01,1.730e+01,1.716e+01,1.621e+01,1.532e+01,1.523e+01,1.775e+01,2.015e+01,1.633e+01
4.645e-01,1.922e-01,1.276e+00,1.213e+00,1.095e+00,2.424e+00,2.372e+00,2.860e+00,1.988e+00,3.845e+00,3.705e+00,3.440e+00,3.133e+00,3.517e+00,3.566e+00,4.288e+00,3.785e+00,5.280e+00,5.386e+00,5.436e+00,6.278e+00,5.022e+00,5.159e+00,5.740e+00,5.315e+00,6.006e+00,8.061e+00,9.315e+00,7.770e+00,7.993e+00,7.062e+00,7.531e+00,6.719e+00,9.282e+00,8.398e+00,9.938e+00,9.297e+00,8.817e+00,1.055e+01,1.208e+01,1.186e+01,9.769e+00,1.044e+01,7.374e+00,1.184e+01,1.067e+01,1.323e+01,1.237e+01,8.946e+00,1.130e+01,1.164e+01,1.283e+01,1.320e+01,1.286e+01,1.282e+01,1.303e+01,1.398e+01,1.247e+01,1.592e+01,1.465e+01,1.560e+01,1.514e+01,1.558e+01,1.701e+01,1.545e+01,1.372e+01,1.815e+01,1.650e+01,1.826e+01,1.732e+01,1.674e+01,1.813e+01,1.696e+01,2.046e+01,1.575e+01,1.907e+01,2.094e+01,1.810e+01,1.788e+01,1.978e+01,1.696e+01,1.863e+01,1.822e+01,1.559e+01,1.442e+01,2.020e+01,2.026e+01,1.718e+01
3.868e-01,3.800e-01,1.541e+00,1.772e+00,2.147e+00,2.619e+00,2.208e+00,2.584e+00,2.075e+00,3.902e+00,3.029e+00,3.667e+00,3.252e+00,4.201e+00,4.327e+00,5.063e+00,3.336e+00,4.761e+00,5.673e+00,5.637e+00,8.104e+00,4.557e+00,6.997e+00,6.840e+00,6.173e+00,5.949e+00,7.373e+00,8.780e+00,7.826e+00,7.538e+00,7.708e+00,8.693e+00,6.024e+00,9.725e+00,8.309e+00,1.030e+01,8.817e+00,7.642e+00,1.013e+01,1.044e+01,1.109e+01,9.413e+00,9.704e+00,7.915e+00,1.136e+01,1.054e+01,1.309e+01,1.236e+01,8.704e+00,1.081e+01,1.242e+01,1.376e+01,1.367e+01,1.276e+01,1.281e+01,1.241e+01,1.293e+01,1.232e+01,1.542e+01,1.459e+01,1.437e+01,1.396e+01,1.517e+01,1.675e+01,1.400e+01,1.339e+01,1.740e+01,1.422e+01,1.690e+01,1.716e+01,1.581e+01,1.698e+01,1.695e+01,2.081e+01,1.700e+01,1.960e+01,2.032e+01,2.077e+01,1.764e+01,2.072e+01,1.716e+01,2.005e+01,1.785e+01,1.685e+01,1.674e+01,1.920e+01,1.954e+01,1.686e+01
4.004e-01,1.537e-01,1.109e+00,1.202e+00,1.288e+00,2.265e+00,1.860e+00,2.468e+00,2.062e+00,2.801e+00,3.169e+00,3.165e+00,3.198e+00,2.903e+00,4.242e+00,3.696e+00,3.489e+00,4.457e+00,4.384e+00,4.917e+00,6.246e+00,3.136e+00,4.788e+00,4.963e+00,5.622e+00,5.834e+00,5.516e+00,7.976e+00,7.450e+00,7.591e+00,7.469e+00,7.492e+00,6.869e+00,9.250e+00,8.591e+00,9.338e+00,8.855e+00,9.136e+00,9.673e+00,9.567e+00,1.033e+01,8.763e+00,9.692e+00,7.837e+00,1.104e+01,1.001e+01,1.180e+01,1.264e+01,9.901e+00,1.010e+01,1.146e+01,1.324e+01,1.519e+01,1.140e+01,1.198e+01,1.186e+01,1.143e+01,1.104e+01,1.429e+01,1.361e+01,1.400e+01,1.409e+01,1.514e+01,1.556e+01,1.472e+01,1.252e+01,1.700e+01,1.559e+01,1.549e+01,1.779e+01,1.656e+01,1.766e+01,1.576e+01,1.862e+01,1.675e+01,1.949e+01,1.763e+01,1.883e+01,1.842e+01,1.819e+01,1.735e+01,1.897e+01,1.791e+01,1.632e+01,1.367e+01,1.803e+01,1.948e+01,1.699e+01
2.172e-02,1.133e-01,3.629e-01,7.275e-01,1.216e+00,1.656e+00,2.003e+00,1.836e+00,1.633e+00,2.390e+00,2.273e+00,2.702e+00,2.444e+00,3.304e+00,3.163e+00,3.033e+00,2.536e+00,2.748e+00,3.887e+00,3.750e+00,4.362e+00,3.243e+00,4.563e+00,4.739e+00,5.406e+00,4.186e+00,5.935e+00,6.757e+00,7.026e+00,6.850e+00,7.359e+00,7.099e+00,6.327e+00,8.536e+00,7.341e+00,8.640e+00,9.296e+00,7.787e+00,8.024e+00,9.544e+00,1.039e+01,7.302e+00,8.472e+00,6.339e+00,1.011e+01,9.339e+00,1.214e+01,1.082e+01,8.755e+00,1.153e+01,1.251e+01,1.203e+01,1.369e+01,1.062e+01,1.164e+01,1.221e+01,1.061e+01,1.169e+01,1.367e+01,1.224e+01,1.367e+01,1.348e+01,1.445e+01,1.395e+01,1.399e+01,1.322e+01,1.680e+01,1.417e+01,1.595e+01,1.648e+01,1.568e+01,1.731e+01,1.522e+01,1.837e+01,1.489e+01,1.813e+01,1.899e+01,1.870e+01,1.650e+01,1.797e+01,1.651e+01,1.952e+01,1.650e+01,1.492e+01,1.485e+01,1.746e+01,1.807e+01,1.661e+01
5.759e-01,3.151e-01,1.314e+00,1.440e+00,1.121e+00,2.001e+00,1.618e+00,1.938e+00,1.348e+00,2.844e+00,2.988e+00,3.215e+00,2.276e+00,2.982e+00,3.512e+00,3.413e+00,3.038e+00,4.425e+00,4.628e+00,4.208e+00,5.914e+00,3.747e+00,5.501e+00,5.625e+00,4.974e+00,6.150e+00,7.355e+00,8.257e+00,7.445e+00,7.113e+00,7.211e+00,7.257e+00,6.636e+00,9.571e+00,8.183e+00,9.471e+00,9.958e+00,7.892e+00,9.443e+00,1.033e+01,1.104e+01,9.969e+00,1.077e+01,7.365e+00,1.106e+01,1.053e+01,1.192e+01,1.199e+01,1.049e+01,1.080e+01,1.146e+01,1.251e+01,1.420e+01,1.342e+01,1.351e+01,1.261e+01,1.281e+01,1.310e+01,1.568e+01,1.396e+01,1.624e+01,1.513e+01,1.560e+01,1.727e+01,1.601e+01,1.305e+01,1.688e+01,1.632e+01,1.764e+01,1.664e+01,1.738e+01,1.812e+01,1.672e+01,2.094e+01,1.717e+01,2.137e+01,2.130e+01,2.106e+01,1.815e+01,2.112e+01,1.812e+01,2.118e+01,2.018e+01,1.820e+01,1.719e+01,2.075e+01,2.040e+01,2.040e+01
6.199e-02,1.547e-01,4.561e-01,7.493e-01,6.823e-01,7.675e-01,8.885e-01,1.553e+00,1.216e+00,2.300e+00,2.044e+00,1.968e+00,2.502e+00,2.453e+00,2.653e+00,3.063e+00,3.060e+00,4.436e+00,4.510e+00,5.885e+00,5.747e+00,4.546e+00,4.744e+00,4.866e+00,5.299e+00,4.610e+00,5.146e+00,6.996e+00,5.436e+00,5.974e+00,5.899e+00,6.375e+00,5.531e+00,7.569e+00,5.801e+00,8.493e+00,8.044e+00,6.752e+00,9.034e+00,9.004e+00,9.806e+00,7.618e+00,9.044e+00,7.285e+00,1.171e+01,8.800e+00,1.237e+01,1.108e+01,8.221e+00,9.523e+00,1.264e+01,1.196e+01,1.322e+01,1.258e+01,1.210e+01,1.168e+01,1.292e+01,1.149e+01,1.364e+01,1.366e+01,1.349e+01,1.303e+01,1.542e+01,1.535e+01,1.403e+01,1.325e+01,1.748e+01,1.371e+01,1.663e+01,1.677e+01,1.454e+01,1.615e+01,1.500e+01,1.874e+01,1.590e+01,1.753e+01,2.007e+01,1.956e+01,1.741e+01,1.832e+01,1.779e+01,1.877e+01,1.587e+01,1.623e+01,1.602e+01,1.832e+01,1.978e+01,1.556e+01
1.654e-01,5.708e-02,5.304e-01,5.431e-01,1.056e+00,1.837e+00,1.890e+00,1.670e+00,1.449e+00,2.165e+00,2.456e+00,2.901e+00,2.405e+00,3.085e+00,3.375e+00,3.772e+00,2.619e+00,4.138e+00,4.932e+00,4.085e+00,6.528e+00,4.219e+00,5.721e+00,5.964e+00,5.332e+00,5.535e+00,7.127e+00,7.882e+00,7.781e+00,6.588e+00,6.745e+00,7.641e+00,7.098e+00,9.597e+00,8.281e+00,1.089e+01,9.533e+00,8.926e+00,1.080e+01,1.018e+01,1.136e+01,1.028e+01,1.102e+01,7.531e+00,1.172e+01,9.455e+00,1.357e+01,1.343e+01,1.129e+01,1.142e+01,1.296e+01,1.459e+01,1.471e+01,1.326e+01,1.352e+01,1.360e+01,1.399e+01,1.330e+01,1.601e+01,1.539e+01,1.631e+01,1.408e+01,1.706e+01,1.698e+01,1.502e+01,1.440e+01,1.830e+01,1.678e+01,1.678e+01,1.796e+01,1.694e+01,1.929e+01,1.818e+01,2.172e+01,1.816e+01,2.108e+01,2.285e+01,2.195e+01,2.147e+01,2.237e+01,1.965e+01,2.151e+01,1.918e+01,1.810e+01,1.852e+01,2.189e+01,2.205e+01,1.949e+01
7.859e-02,1.597e-01,5.336e-01,6.188e-01,1.004e+00,1.187e+00,1.338e+00,9.865e-01,8.068e-01,1.934e+00,1.757e+00,2.612e+00,2.017e+00,2.896e+00,2.570e+00,2.853e+00,2.199e+00,3.116e+00,4.639e+00,4.157e+00,6.450e+00,4.010e+00,5.717e+00,6.262e+00,5.661e+00,5.284e+00,7.240e+00,8.097e+00,7.911e+00,6.291e+00,7.641e+00,7.651e+00,6.485e+00,9.623e+00,7.395e+00,1.093e+01,9.546e+00,8.544e+00,9.934e+00,1.080e+01,1.171e+01,9.443e+00,1.048e+01,7.814e+00,1.182e+01,9.384e+00,1.270e+01,1.150e+01,1.064e+01,1.125e+01,1.305e+01,1.278e+01,1.312e+01,1.179e+01,1.179e+01,1.092e+01,1.296e+01,1.247e+01,1.402e+01,1.402e+01,1.483e+01,1.329e+01,1.604e+01,1.735e+01,1.477e+01,1.360e+01,1.747e+01,1.578e+01,1.664e+01,1.714e+01,1.577e+01,1.738e+01,1.721e+01,1.859e+01,1.815e+01,1.867e+01,1.994e+01,2.177e+01,1.931e+01,2.136e+01,2.082e+01,2.187e+01,1.825e+01,1.869e+01,1.816e+01,2.048e+01,2.087e+01,1.880e+01
2.995e-01,3.290e-01,9.599e-01,1.251e+00,9.549e-01,1.214e+00,1.387e+00,2.020e+00,1.319e+00,3.298e+00,3.430e+00,3.207e+00,2.975e+00,3.133e+00,3.560e+00,3.869e+00,3.972e+00,4.711e+00,5.292e+00,5.880e+00,7.252e+00,5.125e+00,6.525e+00,6.770e+00,6.902e+00,7.428e+00,8.103e+00,9.525e+00,8.368e+00,7.297e+00,8.211e+00,8.238e+00,7.331e+00,1.024e+01,8.775e+00,1.006e+01,1.045e+01,8.273e+00,1.080e+01,1.085e+01,1.076e+01,9.107e+00,9.781e+00,7.466e+00,1.227e+01,1.085e+01,1.286e+01,1.330e+01,9.835e+00,1.144e+01,1.265e+01,1.319e+01,1.495e+01,1.413e+01,1.278e+01,1.441e+01,1.416e+01,1.361e+01,1.573e+01,1.496e+01,1.633e+01,1.529e+01,1.799e+01,1.963e+01,1.618e+01,1.517e+01,1.879e+01,1.718e+01,1.780e+01,1.865e+01,1.781e+01,1.850e+01,1.746e+01,1.993e+01,1.697e+01,1.845e+01,2.203e+01,2.119e+01,1.980e+01,2.030e+01,2.015e+01,2.097e+01,1.855e+01,1.619e+01,1.804e+01,2.025e+01,2.203e+01,2.043e+01
3.293e-01,1.918e-01,9.831e-01,9.603e-01,1.195e+00,1.575e+00,1.033e+00,1.572e+00,1.410e+00,2.532e+00,2.745e+00,3.083e+00,3.257e+00,3.162e+00,3.500e+00,3.998e+00,3.861e+00,5.053e+00,5.413e+00,5.449e+00,7.558e+00,4.279e+00,6.067e+00,6.595e+00,6.436e+00,6.552e+00,8.171e+00,1.001e+01,9.142e+00,8.520e+00,8.767e+00,8.647e+00,8.484e+00,1.071e+01,9.372e+00,1.180e+01,1.091e+01,1.024e+01,1.125e+01,1.142e+01,1.250e+01,1.101e+01,1.189e+01,9.141e+00,1.458e+01,1.093e+01,1.469e+01,1.476e+01,1.232e+01,1.347e+01,1.356e+01,1.585e+01,1.723e+01,1.479e+01,1.440e+01,1.521e+01,1.496e+01,1.482e+01,1.760e+01,1.636e+01,1.753e+01,1.609e+01,1.785e+01,1.910e+01,1.785e+01,1.425e+01,1.873e+01,1.752e+01,1.755e+01,1.880e+01,1.722e+01,2.055e+01,1.819e+01,2.068e+01,1.806e+01,2.242e+01,2.152e+01,2.265e+01,2.148e+01,2.245e+01,1.987e+01,2.169e+01,2.157e+01,1.860e+01,1.913e+01,2.231e+01,2.417e+01,1.994e+01
3.093e-01,2.395e-01,1.194e+00,1.056e+00,9.612e-01,1.470e+00,1.278e+00,1.658e+00,9.252e-01,2.743e+00,2.158e+00,2.633e+00,2.204e+00,2.827e+00,2.619e+00,3.560e+00,3.118e+00,4.377e+00,4.674e+00,4.453e+00,6.014e+00,4.630e+00,4.761e+00,5.235e+00,4.324e+00,5.397e+00,6.833e+00,7.703e+00,7.075e+00,6.933e+00,6.932e+00,7.862e+00,5.772e+00,9.930e+00,7.932e+00,1.034e+01,9.089e+00,7.172e+00,8.775e+00,1.031e+01,9.868e+00,8.769e+00,1.067e+01,7.336e+00,1.175e+01,9.483e+00,1.280e+01,1.198e+01,1.088e+01,1.166e+01,1.273e+01,1.373e+01,1.406e+01,1.295e+01,1.404e+01,1.225e+01,1.186e+01,1.238e+01,1.489e+01,1.339e+01,1.367e+01,1.385e+01,1.577e+01,1.641e+01,1.534e+01,1.473e+01,1.731e+01,1.622e+01,1.699e+01,1.895e+01,1.731e+01,1.778e+01,1.615e+01,1.939e+01,1.771e+01,1.856e+01,2.062e+01,2.223e+01,1.907e+01,2.272e+01,2.049e+01,2.037e+01,1.901e+01,1.829e+01,1.994e+01,2.104e+01,2.246e+01,1.915e+01
3.316e-01,3.508e-01,1.255e+00,1.520e+00,1.819e+00,2.071e+00,1.705e+00,2.080e+00,1.651e+00,3.203e+00,2.659e+00,3.408e+00,2.820e+00,3.891e+00,4.139e+00,4.933e+00,3.513e+00,4.552e+00,5.431e+00,4.570e+00,7.122e+00,4.664e+00,6.763e+00,6.264e+00,6.131e+00,6.766e+00,7.880e+00,8.992e+00,9.122e+00,7.954e+00,8.460e+00,9.337e+00,6.704e+00,1.116e+01,9.808e+00,1.147e+01,1.003e+01,8.845e+00,1.034e+01,1.250e+01,1.212e+01,9.509e+00,1.190e+01,9.386e+00,1.404e+01,1.185e+01,1.442e+01,1.268e+01,1.178e+01,1.253e+01,1.362e+01,1.589e+01,1.671e+01,1.529e+01,1.451e+01,1.363e+01,1.303e+01,1.453e+01,1.758e+01,1.661e+01,1.737e+01,1.589e+01,1.798e+01,1.878e+01,1.792e+01,1.576e+01,1.927e+01,1.805e+01,1.817e+01,2.091e+01,1.913e+01,2.072e+01,1.929e+01,2.082e+01,1.742e+01,2.127e+01,2.395e+01,2.404e+01,2.149e+01,2.523e+01,2.126e+01,2.362e+01,2.215e+01,2.050e+01,2.101e+01,2.502e+01,2.419e+01,2.166e+01
2.899e-02,2.690e-01,7.041e-01,1.372e+00,1.595e+00,1.789e+00,2.289e+00,2.633e+00,1.952e+00,2.904e+00,3.050e+00,3.010e+00,2.455e+00,3.347e+00,3.825e+00,4.114e+00,3.499e+00,4.256e+00,4.471e+00,4.872e+00,4.789e+00,4.273e+00,5.405e+00,5.086e+00,5.824e+00,5.291e+00,6.547e+00,7.248e+00,6.526e+00,5.967e+00,6.188e+00,7.191e+00,5.721e+00,8.241e+00,8.077e+00,8.669e+00,8.397e+00,7.250e+00,8.517e+00,1.039e+01,9.379e+00,7.541e+00,9.470e+00,6.223e+00,1.104e+01,9.995e+00,1.144e+01,1.247e+01,8.941e+00,1.113e+01,1.124e+01,1.125e+01,1.195e+01,1.082e+01,1.120e+01,1.263e+01,1.321e+01,1.277e+01,1.448e+01,1.382e+01,1.511e+01,1.386e+01,1.762e+01,1.577e+01,1.457e+01,1.353e+01,1.620e+01,1.595e+01,1.711e+01,1.865e+01,1.582e+01,1.811e+01,1.641e+01,2.181e+01,1.727e+01,1.978e+01,2.184e+01,2.036e+01,1.885e+01,2.096e+01,1.935e+01,2.143e+01,2.034e+01,1.906e+01,1.764e+01,2.309e+01,2.211e+01,1.988e+01
4.205e-01,1.002e-01,1.086e+00,8.766e-01,1.163e+00,2.491e+00,2.216e+00,2.286e+00,1.866e+00,3.350e+00,3.514e+00,3.440e+00,3.804e+00,3.914e+00,3.994e+00,4.128e+00,3.995e+00,4.388e+00,4.990e+00,4.807e+00,6.897e+00,3.876e+00,5.315e+00,5.015e+00,5.482e+00,5.617e+00,6.413e+00,7.655e+00,7.438e+00,7.168e+00,6.733e+00,7.184e+00,6.234e+00,8.512e+00,7.223e+00,8.903e+00,8.278e+00,7.871e+00,9.901e+00,1.042e+01,1.026e+01,8.499e+00,8.815e+00,6.250e+00,1.034e+01,9.379e+00,1.166e+01,1.363e+01,8.692e+00,1.036e+01,1.110e+01,1.226e+01,1.287e+01,1.150e+01,1.209e+01,1.136e+01,1.178e+01,1.157e+01,1.458e+01,1.329e+01,1.459e+01,1.276e+01,1.431e+01,1.570e+01,1.466e+01,1.296e+01,1.592e+01,1.492e+01,1.508e+01,1.594e+01,1.504e+01,1.672e+01,1.406e+01,1.938e+01,1.566e+01,1.726e+01,2.036e+01,1.842e+01,1.716e+01,1.886e+01,1.954e+01,1.866e+01,1.794e+01,1.823e+01,1.629e+01,2.141e+01,2.330e+01,2.119e+01
1.734e-01,3.157e-01,1.299e+00,1.498e+00,1.888e+00,2.030e+00,1.843e+00,1.887e+00,1.414e+00,2.717e+00,2.396e+00,3.370e+00,2.926e+00,3.659e+00,3.988e+00,4.302e+00,3.127e+00,4.413e+00,5.511e+00,5.253e+00,7.159e+00,4.238e+00,6.171e+00,6.864e+00,5.820e+00,6.142e+00,7.186e+00,8.870e+00,7.853e+00,7.693e+00,8.024e+00,8.955e+00,7.277e+00,1.070e+01,9.829e+00,1.144e+01,1.023e+01,9.577e+00,1.105e+01,1.149e+01,1.276e+01,1.070e+01,1.146e+01,8.860e+00,1.314e+01,1.049e+01,1.480e+01,1.419e+01,1.132e+01,1.334e+01,1.451e+01,1.467e+01,1.707e+01,1.504e+01,1.512e+01,1.589e+01,1.417e+01,1.384e+01,1.822e+01,1.568e+01,1.793e+01,1.616e+01,1.884e+01,1.855e+01,1.768e+01,1.576e+01,2.069e+01,1.846e+01,2.082e+01,2.111e+01,1.802e+01,2.019e+01,2.062e+01,2.266e+01,1.951e+01,2.207e+01,2.244e+01,2.338e+01,1.986e+01,2.379e+01,2.094e+01,2.452e+01,2.113e+01,1.944e+01,2.011e+01,2.451e+01,2.577e+01,2.335e+01
4.490e-01,2.917e-01,1.276e+00,1.514e+00,1.642e+00,2.456e+00,2.078e+00,2.541e+00,2.054e+00,3.578e+00,3.298e+00,3.601e+00,3.353e+00,4.165e+00,4.506e+00,4.244e+00,3.648e+00,4.485e+00,5.275e+00,5.152e+00,6.762e+00,4.043e+00,5.805e+00,5.197e+00,5.908e+00,6.758e+00,7.509e+00,9.276e+00,8.738e+00,7.950e+00,7.928e+00,8.792e+00,7.714e+00,1.016e+01,9.140e+00,1.174e+01,1.024e+01,1.029e+01,1.198e+01,1.186e+01,1.191e+01,1.026e+01,1.106e+01,9.165e+00,1.369e+01,1.133e+01,1.394e+01,1.436e+01,1.070e+01,1.244e+01,1.356e+01,1.488e+01,1.696e+01,1.478e+01,1.381e+01,1.369e+01,1.322e+01,1.357e+01,1.660e+01,1.612e+01,1.775e+01,1.498e+01,1.681e+01,1.847e+01,1.702e+01,1.514e+01,1.971e+01,1.868e+01,1.706e+01,1.871e+01,1.843e+01,2.007e+01,1.839e+01,2.053e+01,1.608e+01,2.079e+01,2.310e+01,2.299e+01,1.995e+01,2.293e+01,2.035e+01,2.147e+01,2.119e+01,1.972e+01,1.877e+01,2.273e+01,2.418e+01,2.310e+01
