9.257e-01,4.138e-01,2.464e-01,1.618e-01,8.366e-01,7.405e-01,3.390e-01,1.702e-01,8.930e-01,8.938e-01,6.672e-01,7.166e-03,4.197e-01,8.864e-01,9.277e-01,7.212e-01,1.899e-01,2.079e-02,7.223e-01,6.411e-01,6.113e-01,2.960e-01,7.950e-01,7.419e-01,9.806e-01,9.659e-01,8.859e-01,3.981e-02,4.056e-02,5.469e-01,3.631e-01,3.287e-01,1.598e-01,2.248e-01,2.102e-01,9.646e-02,8.776e-01,8.254e-01,9.145e-01,4.317e-01,4.754e-01,2.120e-01,5.153e-01,9.119e-01,8.606e-01,8.242e-01,2.654e-01,2.184e-01,4.145e-01,7.315e-01,2.328e-01,1.310e-01,4.364e-01,1.139e-01,4.353e-01,3.356e-01,9.518e-01,5.408e-01,9.171e-03,3.468e-01,4.730e-01,4.554e-01,5.553e-01,8.078e-01,1.468e-01,6.683e-01,7.339e-01,6.645e-01,3.635e-01,5.131e-01,2.172e-01,2.802e-01,3.766e-01,2.320e-01,1.520e-01,8.325e-01,2.234e-01,4.602e-01,6.542e-02,1.547e-01,7.190e-01,2.077e-01,1.854e-01,5.187e-01,6.611e-01,4.238e-01,6.843e-01
6.665e-01,1.019e+00,3.155e-01,4.996e-01,6.378e-01,1.508e+00,1.228e+00,1.999e-01,6.959e-01,1.286e+00,1.478e+00,4.716e-01,5.628e-01,1.099e+00,9.988e-01,9.256e-01,6.272e-01,3.849e-02,1.386e+00,6.310e-01,8.855e-01,7.170e-01,1.522e+00,1.237e+00,1.100e+00,7.575e-01,1.176e+00,9.329e-01,6.494e-01,1.049e+00,5.750e-01,9.581e-01,5.909e-01,3.600e-01,7.337e-01,7.708e-01,1.473e+00,1.357e+00,1.509e+00,3.574e-01,1.107e+00,3.033e-01,9.684e-01,1.286e+00,9.095e-01,1.372e+00,8.289e-01,4.957e-01,8.662e-01,9.747e-01,2.600e-01,2.740e-01,6.578e-01,2.614e-01,4.816e-01,3.164e-01,1.635e+00,1.050e+00,7.713e-01,4.499e-01,8.884e-01,4.244e-01,1.376e+00,9.396e-01,3.953e-01,8.872e-01,1.158e+00,9.529e-01,3.400e-01,9.053e-01,4.081e-01,6.727e-01,9.708e-01,8.173e-01,2.567e-01,1.472e+00,9.541e-01,1.287e+00,6.103e-01,1.015e+00,1.362e+00,6.623e-01,5.061e-01,9.043e-01,1.428e+00,9.625e-01,1.445e+00
3.061e-01,5.626e-01,7.201e-01,3.816e-01,1.043e+00,1.613e+00,8.610e-01,1.041e+00,5.308e-01,1.312e+00,1.593e+00,6.703e-01,7.063e-01,1.079e+00,5.938e-01,6.101e-01,8.526e-01,5.242e-01,1.601e+00,3.381e-01,6.541e-01,9.434e-01,8.809e-01,1.075e+00,1.531e+00,9.315e-01,1.035e+00,1.145e+00,1.374e+00,1.552e+00,7.920e-01,5.412e-01,7.411e-01,1.184e+00,1.199e+00,5.127e-01,9.799e-01,1.148e+00,8.246e-01,2.664e-01,9.602e-01,1.098e+00,7.910e-01,1.105e+00,7.762e-01,1.446e+00,9.667e-01,6.560e-01,1.041e+00,5.575e-01,9.592e-01,9.810e-01,4.099e-01,1.987e-01,9.261e-01,9.367e-01,1.052e+00,6.729e-01,1.357e+00,1.129e+00,1.178e+00,1.024e+00,9.969e-01,9.106e-01,1.074e+00,1.119e+00,1.066e+00,1.064e+00,5.313e-01,1.201e+00,6.038e-01,5.944e-01,1.402e+00,9.922e-01,2.428e-01,1.215e+00,1.496e+00,1.399e+00,6.826e-01,1.286e+00,1.450e+00,1.189e+00,4.784e-01,6.588e-01,1.589e+00,6.969e-01,9.841e-01
3.133e-01,7.282e-01,6.727e-01,5.574e-01,9.657e-01,2.051e+00,1.076e+00,1.068e+00,1.204e+00,2.187e+00,2.149e+00,1.325e+00,8.349e-01,1.495e+00,1.181e+00,1.493e+00,1.303e+00,1.342e+00,1.984e+00,1.044e+00,8.842e-01,1.439e+00,1.192e+00,2.119e+00,1.645e+00,1.442e+00,1.291e+00,1.312e+00,2.348e+00,2.496e+00,1.040e+00,1.513e+00,1.256e+00,1.945e+00,1.506e+00,1.564e+00,1.788e+00,1.803e+00,1.461e+00,2.694e-01,1.706e+00,1.455e+00,1.878e+00,1.593e+00,1.454e+00,2.225e+00,1.095e+00,7.811e-01,1.904e+00,1.321e+00,1.703e+00,1.002e+00,1.453e+00,9.172e-01,1.507e+00,1.492e+00,1.345e+00,1.456e+00,1.889e+00,1.162e+00,1.283e+00,1.402e+00,1.223e+00,9.373e-01,1.997e+00,1.390e+00,1.503e+00,2.011e+00,9.289e-01,1.981e+00,9.664e-01,1.364e+00,2.187e+00,1.380e+00,1.050e+00,1.673e+00,2.115e+00,2.329e+00,9.140e-01,1.542e+00,2.490e+00,1.546e+00,1.351e+00,7.728e-01,2.497e+00,1.014e+00,2.064e+00
9.217e-01,6.162e-01,6.898e-01,4.421e-01,2.059e+00,2.436e+00,1.351e+00,1.826e+00,2.701e+00,2.884e+00,2.826e+00,1.083e+00,1.832e+00,2.582e+00,1.955e+00,1.744e+00,1.764e+00,1.579e+00,2.854e+00,1.921e+00,1.414e+00,1.514e+00,2.158e+00,2.567e+00,2.689e+00,2.131e+00,2.163e+00,8.643e-01,2.454e+00,3.047e+00,1.760e+00,2.077e+00,1.577e+00,2.127e+00,1.388e+00,2.037e+00,2.018e+00,2.410e+00,2.586e+00,9.808e-01,2.381e+00,1.751e+00,2.643e+00,2.271e+00,2.075e+00,2.554e+00,1.115e+00,1.263e+00,2.517e+00,2.006e+00,2.322e+00,1.847e+00,2.481e+00,1.058e+00,1.678e+00,2.355e+00,1.926e+00,2.078e+00,2.011e+00,1.694e+00,1.658e+00,2.402e+00,1.050e+00,1.613e+00,1.943e+00,1.921e+00,2.438e+00,2.966e+00,1.609e+00,2.896e+00,1.446e+00,1.746e+00,2.124e+00,2.054e+00,2.014e+00,1.827e+00,2.278e+00,2.437e+00,1.555e+00,1.307e+00,3.163e+00,2.029e+00,1.651e+00,1.080e+00,3.129e+00,1.492e+00,2.525e+00
6.107e-01,9.386e-01,8.287e-01,6.159e-01,1.624e+00,2.672e+00,1.754e+00,1.644e+00,2.516e+00,3.283e+00,3.083e+00,1.955e+00,1.452e+00,2.292e+00,2.269e+00,2.182e+00,2.547e+00,1.359e+00,2.887e+00,2.136e+00,1.839e+00,1.930e+00,2.086e+00,3.206e+00,2.674e+00,2.294e+00,2.452e+00,2.373e+00,2.489e+00,2.993e+00,2.174e+00,1.829e+00,1.703e+00,2.116e+00,1.799e+00,2.606e+00,2.562e+00,2.319e+00,2.522e+00,8.591e-01,2.308e+00,2.185e+00,2.583e+00,2.243e+00,2.334e+00,2.522e+00,1.434e+00,1.161e+00,2.256e+00,2.169e+00,2.518e+00,1.921e+00,2.573e+00,7.880e-01,2.122e+00,2.263e+00,2.541e+00,2.214e+00,3.004e+00,1.731e+00,2.199e+00,2.458e+00,1.567e+00,1.687e+00,2.371e+00,2.240e+00,2.681e+00,2.739e+00,1.723e+00,2.817e+00,2.110e+00,2.104e+00,2.649e+00,2.879e+00,1.812e+00,2.518e+00,2.638e+00,3.236e+00,1.642e+00,2.365e+00,3.259e+00,2.748e+00,1.928e+00,1.652e+00,3.716e+00,2.371e+00,2.430e+00
9.163e-01,1.070e+00,6.552e-01,5.677e-01,1.277e+00,2.127e+00,2.267e+00,8.703e-01,1.750e+00,2.463e+00,2.842e+00,1.481e+00,1.301e+00,1.757e+00,2.380e+00,1.659e+00,1.835e+00,1.419e+00,2.638e+00,1.788e+00,1.503e+00,2.009e+00,1.895e+00,2.525e+00,2.414e+00,2.454e+00,2.340e+00,1.851e+00,2.150e+00,2.798e+00,2.276e+00,1.847e+00,1.227e+00,1.620e+00,1.751e+00,2.350e+00,2.388e+00,1.970e+00,2.584e+00,9.595e-01,1.583e+00,1.931e+00,1.915e+00,2.311e+00,1.848e+00,2.727e+00,1.488e+00,1.144e+00,2.308e+00,2.546e+00,1.469e+00,1.710e+00,1.513e+00,1.290e+00,2.277e+00,1.862e+00,2.355e+00,1.957e+00,2.333e+00,1.325e+00,2.555e+00,2.251e+00,2.459e+00,1.913e+00,1.271e+00,2.596e+00,2.587e+00,1.715e+00,1.417e+00,2.526e+00,1.769e+00,2.198e+00,2.504e+00,1.956e+00,1.195e+00,2.744e+00,1.964e+00,2.798e+00,1.757e+00,2.141e+00,2.809e+00,2.291e+00,1.269e+00,1.801e+00,2.558e+00,2.640e+00,2.312e+00
2.249e-01,6.027e-01,5.062e-01,4.535e-01,1.223e+00,2.109e+00,1.639e+00,2.266e+00,3.252e+00,3.052e+00,3.504e+00,2.027e+00,1.695e+00,2.823e+00,2.694e+00,2.129e+00,3.148e+00,2.635e+00,3.172e+00,2.742e+00,1.783e+00,2.709e+00,2.576e+00,3.330e+00,2.597e+00,2.140e+00,2.348e+00,2.752e+00,2.829e+00,2.886e+00,2.585e+00,2.678e+00,1.912e+00,2.768e+00,2.041e+00,3.411e+00,2.157e+00,2.658e+00,3.241e+00,9.995e-01,2.708e+00,2.133e+00,2.771e+00,2.111e+00,2.836e+00,2.762e+00,1.374e+00,1.471e+00,2.552e+00,2.433e+00,3.454e+00,2.413e+00,3.459e+00,1.799e+00,2.227e+00,2.911e+00,2.105e+00,2.734e+00,3.270e+00,1.824e+00,2.590e+00,2.819e+00,1.486e+00,2.147e+00,2.674e+00,2.604e+00,2.465e+00,3.059e+00,2.493e+00,2.953e+00,2.959e+00,2.998e+00,2.797e+00,3.692e+00,2.231e+00,2.595e+00,3.186e+00,3.874e+00,2.739e+00,2.662e+00,3.810e+00,3.568e+00,2.448e+00,1.594e+00,4.066e+00,2.695e+00,3.161e+00
7.057e-01,4.579e-01,4.735e-01,3.042e-01,1.036e+00,1.378e+00,1.106e+00,1.285e+00,2.377e+00,2.583e+00,2.800e+00,2.042e+00,1.594e+00,2.734e+00,2.795e+00,2.473e+00,2.776e+00,2.259e+00,2.216e+00,2.043e+00,1.810e+00,2.898e+00,1.645e+00,3.203e+00,2.170e+00,2.943e+00,2.435e+00,2.290e+00,2.107e+00,2.534e+00,2.557e+00,1.930e+00,1.834e+00,3.038e+00,1.748e+00,3.037e+00,2.191e+00,2.205e+00,2.775e+00,1.301e+00,2.254e+00,2.356e+00,2.626e+00,2.559e+00,2.689e+00,3.197e+00,1.429e+00,1.039e+00,2.305e+00,2.309e+00,2.628e+00,1.692e+00,2.686e+00,1.710e+00,2.969e+00,3.018e+00,1.989e+00,2.730e+00,1.913e+00,1.376e+00,2.241e+00,2.757e+00,1.848e+00,1.901e+00,2.510e+00,2.855e+00,2.089e+00,2.399e+00,1.995e+00,2.518e+00,2.761e+00,2.377e+00,3.013e+00,2.527e+00,1.271e+00,2.539e+00,2.538e+00,2.922e+00,1.717e+00,2.416e+00,2.788e+00,3.221e+00,2.437e+00,1.766e+00,2.739e+00,2.591e+00,2.755e+00
6.891e-01,9.223e-01,7.168e-01,5.847e-01,1.644e+00,2.587e+00,1.860e+00,1.926e+00,3.081e+00,3.888e+00,4.139e+00,2.889e+00,2.912e+00,3.453e+00,3.261e+00,3.540e+00,3.682e+00,2.183e+00,3.468e+00,3.396e+00,2.646e+00,3.319e+00,3.032e+00,4.521e+00,3.901e+00,3.472e+00,3.541e+00,2.906e+00,3.550e+00,3.608e+00,3.069e+00,3.152e+00,2.604e+00,3.132e+00,2.869e+00,4.121e+00,2.810e+00,3.013e+00,4.107e+00,1.407e+00,3.123e+00,2.677e+00,3.890e+00,3.689e+00,3.817e+00,3.270e+00,1.825e+00,1.809e+00,3.604e+00,3.494e+00,4.026e+00,2.451e+00,3.846e+00,1.460e+00,2.734e+00,3.801e+00,3.631e+00,4.011e+00,3.242e+00,2.039e+00,2.623e+00,3.467e+00,2.142e+00,2.377e+00,2.979e+00,3.187e+00,3.198e+00,4.196e+00,2.552e+00,3.757e+00,3.775e+00,3.052e+00,4.052e+00,4.362e+00,2.911e+00,3.095e+00,3.515e+00,4.572e+00,2.374e+00,3.662e+00,4.452e+00,4.324e+00,3.440e+00,2.437e+00,4.233e+00,3.297e+00,4.180e+00
7.032e-01,7.397e-01,4.243e-01,4.392e-01,9.545e-01,1.682e+00,1.677e+00,1.275e+00,2.625e+00,2.731e+00,3.385e+00,2.602e+00,2.058e+00,2.645e+00,3.856e+00,2.421e+00,2.896e+00,2.848e+00,3.265e+00,3.003e+00,2.465e+00,3.439e+00,2.725e+00,3.531e+00,3.016e+00,3.145e+00,3.351e+00,3.245e+00,2.980e+00,3.392e+00,3.240e+00,3.168e+00,1.709e+00,3.404e+00,2.373e+00,3.222e+00,2.452e+00,3.042e+00,3.213e+00,1.627e+00,2.704e+00,2.704e+00,3.452e+00,2.901e+00,3.060e+00,3.451e+00,1.348e+00,1.231e+00,2.597e+00,2.862e+00,3.036e+00,1.856e+00,3.076e+00,2.502e+00,3.157e+00,3.301e+00,2.874e+00,2.692e+00,3.320e+00,1.738e+00,3.132e+00,2.782e+00,2.222e+00,2.506e+00,2.918e+00,3.732e+00,2.717e+00,2.559e+00,3.063e+00,3.012e+00,2.970e+00,3.317e+00,3.058e+00,3.666e+00,1.677e+00,2.863e+00,2.949e+00,4.407e+00,2.702e+00,2.572e+00,3.962e+00,3.917e+00,2.940e+00,2.601e+00,3.867e+00,3.076e+00,3.054e+00
1.641e-01,5.056e-01,5.052e-01,3.940e-01,9.431e-01,1.680e+00,1.286e+00,1.542e+00,1.832e+00,2.673e+00,3.462e+00,3.603e+00,3.684e+00,3.746e+00,3.259e+00,2.948e+00,3.177e+00,2.692e+00,3.170e+00,2.817e+00,2.371e+00,4.167e+00,2.554e+00,3.780e+00,4.020e+00,3.901e+00,2.970e+00,3.119e+00,4.347e+00,3.790e+00,3.027e+00,3.272e+00,3.088e+00,4.246e+00,3.434e+00,4.279e+00,2.064e+00,3.294e+00,3.796e+00,2.228e+00,3.134e+00,3.443e+00,4.551e+00,3.522e+00,3.058e+00,3.366e+00,2.561e+00,1.616e+00,3.888e+00,2.657e+00,3.494e+00,2.847e+00,3.454e+00,1.856e+00,3.373e+00,4.673e+00,3.558e+00,4.445e+00,3.201e+00,1.755e+00,2.908e+00,3.318e+00,2.152e+00,2.460e+00,3.276e+00,3.783e+00,2.391e+00,3.379e+00,2.903e+00,3.623e+00,3.322e+00,3.086e+00,4.449e+00,4.106e+00,2.846e+00,3.260e+00,3.951e+00,4.499e+00,2.809e+00,4.102e+00,4.615e+00,4.813e+00,3.389e+00,2.972e+00,3.463e+00,3.103e+00,3.912e+00
5.860e-01,5.395e-01,5.198e-01,3.068e-01,1.112e+00,1.413e+00,1.082e+00,1.589e+00,1.910e+00,2.200e+00,3.101e+00,2.390e+00,2.894e+00,4.372e+00,3.068e+00,3.162e+00,3.694e+00,2.163e+00,3.228e+00,2.628e+00,2.742e+00,4.346e+00,2.958e+00,3.790e+00,4.109e+00,4.163e+00,3.350e+00,2.780e+00,2.812e+00,3.358e+00,2.531e+00,2.428e+00,2.576e+00,3.950e+00,3.689e+00,3.932e+00,2.548e+00,3.656e+00,3.742e+00,2.771e+00,2.587e+00,2.943e+00,3.366e+00,3.236e+00,2.943e+00,3.277e+00,2.619e+00,1.929e+00,3.700e+00,2.430e+00,3.774e+00,2.514e+00,3.341e+00,2.374e+00,2.791e+00,4.517e+00,3.596e+00,4.567e+00,2.595e+00,1.973e+00,3.565e+00,2.924e+00,2.434e+00,2.878e+00,3.154e+00,4.174e+00,2.578e+00,2.879e+00,2.457e+00,2.878e+00,3.285e+00,3.148e+00,4.041e+00,3.400e+00,2.237e+00,3.687e+00,3.622e+00,3.991e+00,2.711e+00,3.950e+00,4.112e+00,4.598e+00,3.457e+00,2.753e+00,3.247e+00,3.123e+00,4.185e+00
1.636e-01,9.915e-02,4.978e-01,1.711e-01,1.055e+00,1.263e+00,1.107e+00,2.050e+00,2.756e+00,2.701e+00,3.429e+00,3.102e+00,2.681e+00,3.996e+00,4.199e+00,2.904e+00,4.128e+00,3.712e+00,3.757e+00,3.327e+00,3.522e+00,4.323e+00,3.305e+00,4.012e+00,4.336e+00,4.412e+00,4.400e+00,4.165e+00,3.844e+00,4.445e+00,4.272e+00,3.231e+00,3.400e+00,5.312e+00,3.069e+00,4.730e+00,2.391e+00,3.589e+00,3.345e+00,3.143e+00,3.635e+00,4.483e+00,4.731e+00,3.148e+00,3.828e+00,4.363e+00,2.411e+00,1.925e+00,3.750e+00,2.794e+00,4.314e+00,3.479e+00,4.589e+00,2.565e+00,4.153e+00,5.131e+00,2.885e+00,3.942e+00,4.502e+00,2.288e+00,3.668e+00,4.524e+00,2.727e+00,2.986e+00,4.242e+00,4.299e+00,2.814e+00,3.341e+00,4.101e+00,4.076e+00,3.960e+00,3.932e+00,4.807e+00,4.379e+00,3.222e+00,3.898e+00,4.099e+00,4.527e+00,3.986e+00,3.950e+00,4.143e+00,5.543e+00,4.329e+00,3.285e+00,4.147e+00,4.290e+00,3.503e+00
4.760e-01,9.225e-01,2.965e-01,5.402e-01,7.909e-01,1.922e+00,1.751e+00,1.221e+00,2.803e+00,3.033e+00,3.231e+00,2.932e+00,2.289e+00,4.072e+00,4.804e+00,4.124e+00,4.649e+00,3.638e+00,4.206e+00,3.863e+00,4.493e+00,3.893e+00,3.979e+00,4.770e+00,4.949e+00,4.683e+00,4.694e+00,4.456e+00,4.268e+00,5.246e+00,3.629e+00,3.876e+00,3.705e+00,4.192e+00,3.548e+00,5.268e+00,4.450e+00,4.577e+00,3.999e+00,3.970e+00,4.472e+00,4.005e+00,5.362e+00,3.498e+00,3.900e+00,4.810e+00,2.897e+00,2.718e+00,4.652e+00,3.635e+00,4.003e+00,3.673e+00,5.338e+00,3.178e+00,3.662e+00,4.613e+00,4.605e+00,5.470e+00,5.296e+00,1.871e+00,3.964e+00,3.985e+00,3.852e+00,3.086e+00,3.935e+00,3.902e+00,3.138e+00,4.224e+00,4.076e+00,4.185e+00,3.645e+00,4.137e+00,4.570e+00,4.815e+00,3.722e+00,5.514e+00,4.060e+00,4.888e+00,4.038e+00,4.499e+00,5.592e+00,5.370e+00,4.423e+00,4.334e+00,4.618e+00,5.282e+00,4.478e+00
2.452e-01,5.925e-01,5.918e-01,4.644e-01,1.183e+00,2.043e+00,1.713e+00,1.466e+00,1.942e+00,2.858e+00,3.383e+00,3.178e+00,3.115e+00,3.592e+00,4.085e+00,4.007e+00,4.193e+00,4.152e+00,4.552e+00,3.740e+00,4.661e+00,4.205e+00,4.004e+00,5.249e+00,5.465e+00,5.285e+00,4.471e+00,4.389e+00,6.031e+00,5.918e+00,4.271e+00,4.712e+00,3.855e+00,5.148e+00,4.002e+00,5.083e+00,3.767e+00,4.049e+00,4.107e+00,4.330e+00,4.295e+00,5.067e+00,6.257e+00,4.004e+00,4.219e+00,4.792e+00,3.092e+00,3.510e+00,5.672e+00,4.484e+00,4.590e+00,4.694e+00,4.990e+00,3.422e+00,4.464e+00,5.273e+00,4.966e+00,6.056e+00,5.764e+00,2.876e+00,3.797e+00,4.528e+00,4.032e+00,2.776e+00,4.338e+00,4.129e+00,3.497e+00,4.550e+00,3.896e+00,5.206e+00,3.955e+00,3.920e+00,4.874e+00,5.456e+00,4.512e+00,5.211e+00,4.924e+00,5.447e+00,4.571e+00,5.077e+00,6.184e+00,5.372e+00,4.710e+00,4.019e+00,4.511e+00,5.392e+00,4.373e+00
4.284e-01,8.302e-01,3.089e-01,4.573e-01,8.969e-01,1.781e+00,1.865e+00,1.254e+00,2.557e+00,3.157e+00,3.655e+00,3.684e+00,3.600e+00,4.558e+00,5.029e+00,4.842e+00,5.945e+00,4.942e+00,4.606e+00,4.829e+00,5.715e+00,5.621e+00,5.126e+00,6.225e+00,6.301e+00,6.489e+00,6.009e+00,5.415e+00,5.871e+00,5.757e+00,4.913e+00,5.410e+00,5.260e+00,5.738e+00,4.434e+00,6.351e+00,4.287e+00,4.554e+00,6.320e+00,5.597e+00,5.793e+00,5.952e+00,6.904e+00,5.045e+00,5.545e+00,5.198e+00,4.323e+00,3.641e+00,6.036e+00,5.696e+00,5.274e+00,5.723e+00,6.690e+00,3.831e+00,5.559e+00,6.192e+00,6.347e+00,7.591e+00,6.452e+00,2.887e+00,4.809e+00,5.052e+00,4.959e+00,4.245e+00,5.016e+00,4.892e+00,4.381e+00,5.817e+00,5.435e+00,5.327e+00,5.613e+00,5.056e+00,5.975e+00,6.809e+00,5.295e+00,7.095e+00,5.193e+00,5.836e+00,5.567e+00,6.215e+00,6.981e+00,6.902e+00,5.407e+00,5.137e+00,5.044e+00,6.774e+00,5.224e+00
7.189e-01,8.926e-01,3.647e-01,4.638e-01,1.145e+00,1.821e+00,1.734e+00,1.082e+00,1.929e+00,2.404e+00,3.090e+00,2.448e+00,3.092e+00,3.547e+00,3.761e+00,3.290e+00,3.913e+00,4.084e+00,4.312e+00,3.378e+00,4.901e+00,4.441e+00,4.994e+00,5.097e+00,5.483e+00,4.762e+00,4.624e+00,4.097e+00,4.624e+00,4.682e+00,3.580e+00,5.135e+00,4.692e+00,4.290e+00,3.494e+00,4.569e+00,3.961e+00,4.301e+00,5.279e+00,4.053e+00,5.018e+00,4.332e+00,5.848e+00,4.537e+00,4.051e+00,5.049e+00,3.673e+00,3.607e+00,4.913e+00,4.746e+00,3.494e+00,4.841e+00,4.861e+00,3.595e+00,4.701e+00,4.637e+00,5.265e+00,6.514e+00,5.248e+00,2.450e+00,4.186e+00,3.744e+00,4.234e+00,3.813e+00,3.447e+00,3.857e+00,4.247e+00,4.787e+00,4.286e+00,4.475e+00,4.220e+00,4.142e+00,4.368e+00,5.336e+00,4.454e+00,5.357e+00,3.916e+00,4.898e+00,4.774e+00,5.010e+00,6.416e+00,5.374e+00,3.503e+00,4.758e+00,4.229e+00,5.392e+00,4.709e+00
6.307e-01,4.298e-01,6.048e-01,3.196e-01,1.383e+00,1.694e+00,1.022e+00,1.693e+00,2.429e+00,2.715e+00,2.990e+00,2.611e+00,2.627e+00,3.654e+00,3.350e+00,3.148e+00,3.744e+00,3.556e+00,4.014e+00,3.138e+00,4.506e+00,4.477e+00,4.150e+00,5.506e+00,5.097e+00,4.817e+00,3.930e+00,3.727e+00,4.990e+00,4.495e+00,4.467e+00,3.537e+00,4.043e+00,5.156e+00,3.805e+00,4.672e+00,3.193e+00,3.637e+00,4.704e+00,4.089e+00,4.302e+00,5.024e+00,5.048e+00,4.467e+00,4.375e+00,4.746e+00,2.980e+00,2.702e+00,4.790e+00,4.054e+00,4.648e+00,4.788e+00,4.750e+00,3.337e+00,4.479e+00,5.051e+00,4.154e+00,5.627e+00,4.507e+00,2.715e+00,4.177e+00,4.171e+00,3.688e+00,3.968e+00,4.087e+00,4.543e+00,3.772e+00,4.713e+00,4.462e+00,4.663e+00,4.117e+00,3.632e+00,4.224e+00,4.965e+00,4.178e+00,4.989e+00,4.197e+00,4.532e+00,4.349e+00,4.485e+00,5.532e+00,5.458e+00,4.152e+00,3.588e+00,4.035e+00,4.561e+00,4.394e+00
6.071e-01,7.981e-01,6.780e-01,4.913e-01,1.141e+00,1.893e+00,1.435e+00,1.569e+00,1.782e+00,2.201e+00,3.228e+00,2.677e+00,2.796e+00,3.719e+00,3.969e+00,2.806e+00,3.307e+00,3.654e+00,4.596e+00,3.485e+00,5.144e+00,5.533e+00,5.247e+00,5.128e+00,5.531e+00,5.352e+00,4.096e+00,4.951e+00,5.286e+00,5.224e+00,3.478e+00,4.088e+00,3.779e+00,4.860e+00,5.056e+00,4.113e+00,4.436e+00,5.371e+00,4.788e+00,4.081e+00,4.013e+00,4.952e+00,5.466e+00,4.767e+00,3.762e+00,5.299e+00,3.440e+00,3.057e+00,5.085e+00,3.348e+00,4.283e+00,4.395e+00,4.294e+00,4.393e+00,4.343e+00,5.506e+00,4.848e+00,5.355e+00,5.116e+00,3.075e+00,4.889e+00,3.362e+00,4.280e+00,4.525e+00,3.714e+00,4.853e+00,3.600e+00,3.976e+00,4.715e+00,4.052e+00,3.456e+00,4.495e+00,5.047e+00,5.174e+00,3.813e+00,5.696e+00,4.599e+00,5.406e+00,5.159e+00,4.616e+00,6.657e+00,6.185e+00,4.344e+00,5.101e+00,5.112e+00,5.080e+00,4.934e+00
4.263e-01,2.359e-01,5.289e-01,2.498e-01,1.437e+00,1.648e+00,9.550e-01,1.817e+00,2.497e+00,2.717e+00,3.140e+00,3.232e+00,3.509e+00,3.998e+00,3.818e+00,3.119e+00,3.922e+00,3.856e+00,4.564e+00,3.773e+00,5.924e+00,6.451e+00,6.221e+00,6.452e+00,6.627e+00,5.810e+00,5.332e+00,4.676e+00,6.619e+00,6.364e+00,5.079e+00,4.638e+00,5.107e+00,6.190e+00,5.489e+00,6.027e+00,4.733e+00,5.796e+00,5.501e+00,5.117e+00,5.653e+00,6.599e+00,7.101e+00,6.454e+00,4.810e+00,5.568e+00,4.076e+00,3.585e+00,5.948e+00,4.515e+00,5.910e+00,6.004e+00,6.103e+00,5.366e+00,5.986e+00,7.177e+00,5.337e+00,6.799e+00,5.462e+00,3.560e+00,5.107e+00,4.382e+00,4.210e+00,4.996e+00,5.036e+00,5.874e+00,5.610e+00,5.651e+00,5.635e+00,5.340e+00,4.728e+00,4.777e+00,5.837e+00,6.137e+00,5.904e+00,5.808e+00,4.853e+00,5.662e+00,5.982e+00,5.104e+00,7.351e+00,7.625e+00,6.046e+00,6.081e+00,5.904e+00,5.826e+00,6.224e+00
8.931e-01,6.529e-01,3.128e-01,3.928e-01,9.860e-01,1.560e+00,1.236e+00,1.175e+00,3.127e+00,3.347e+00,3.628e+00,3.653e+00,3.147e+00,4.439e+00,5.693e+00,4.777e+00,4.938e+00,4.777e+00,4.877e+00,5.162e+00,7.131e+00,7.445e+00,7.722e+00,8.414e+00,6.644e+00,7.727e+00,7.161e+00,6.808e+00,6.639e+00,7.658e+00,6.379e+00,6.364e+00,6.102e+00,7.231e+00,5.525e+00,7.005e+00,6.618e+00,6.172e+00,6.405e+00,5.836e+00,6.858e+00,6.750e+00,8.631e+00,7.071e+00,7.150e+00,6.783e+00,4.364e+00,3.717e+00,6.994e+00,5.773e+00,6.518e+00,5.431e+00,7.419e+00,6.633e+00,7.287e+00,7.986e+00,6.199e+00,7.730e+00,6.755e+00,4.154e+00,5.827e+00,5.076e+00,5.878e+00,6.024e+00,6.544e+00,6.582e+00,6.129e+00,6.652e+00,6.811e+00,6.411e+00,6.145e+00,5.981e+00,7.278e+00,7.301e+00,5.915e+00,7.994e+00,5.755e+00,7.127e+00,7.189e+00,5.956e+00,8.016e+00,7.984e+00,7.347e+00,6.429e+00,7.020e+00,7.772e+00,6.880e+00
4.597e-01,2.191e-01,6.348e-01,2.251e-01,1.223e+00,1.428e+00,1.133e+00,1.822e+00,2.701e+00,3.036e+00,3.490e+00,3.177e+00,2.648e+00,3.876e+00,4.827e+00,4.262e+00,6.027e+00,5.599e+00,4.943e+00,4.442e+00,7.019e+00,6.835e+00,6.196e+00,8.224e+00,7.282e+00,7.195e+00,6.572e+00,5.897e+00,6.976e+00,7.526e+00,6.262e+00,5.563e+00,6.041e+00,6.910e+00,6.476e+00,7.015e+00,6.116e+00,5.468e+00,6.682e+00,5.940e+00,6.826e+00,7.542e+00,7.069e+00,6.983e+00,5.555e+00,7.350e+00,4.065e+00,4.003e+00,7.057e+00,5.757e+00,6.992e+00,6.324e+00,6.707e+00,6.371e+00,7.391e+00,7.776e+00,5.662e+00,7.758e+00,7.442e+00,4.637e+00,6.250e+00,6.536e+00,5.417e+00,5.726e+00,6.530e+00,6.249e+00,5.542e+00,7.231e+00,7.479e+00,6.034e+00,6.315e+00,5.979e+00,7.354e+00,7.244e+00,6.357e+00,7.023e+00,5.075e+00,5.930e+00,6.115e+00,5.686e+00,7.996e+00,9.019e+00,6.835e+00,6.987e+00,6.022e+00,7.390e+00,6.272e+00
1.886e-01,6.888e-01,4.802e-01,4.438e-01,1.093e+00,1.898e+00,1.456e+00,1.958e+00,2.124e+00,2.377e+00,3.479e+00,2.030e+00,2.518e+00,4.269e+00,3.227e+00,3.219e+00,3.961e+00,3.415e+00,5.093e+00,3.677e+00,6.398e+00,6.006e+00,8.137e+00,7.739e+00,7.016e+00,6.034e+00,5.704e+00,5.830e+00,6.837e+00,7.188e+00,5.478e+00,5.821e+00,6.070e+00,6.829e+00,6.404e+00,6.635e+00,5.517e+00,5.911e+00,6.006e+00,5.489e+00,6.574e+00,6.169e+00,7.331e+00,6.079e+00,6.288e+00,6.645e+00,5.119e+00,4.781e+00,6.926e+00,5.283e+00,6.885e+00,6.032e+00,6.516e+00,5.761e+00,5.426e+00,7.430e+00,5.830e+00,7.419e+00,6.511e+00,4.863e+00,5.380e+00,4.810e+00,6.347e+00,5.166e+00,6.175e+00,5.759e+00,5.959e+00,6.210e+00,5.577e+00,6.025e+00,5.022e+00,4.980e+00,6.492e+00,7.044e+00,6.437e+00,7.099e+00,5.662e+00,6.746e+00,7.365e+00,6.473e+00,7.504e+00,7.645e+00,7.488e+00,5.347e+00,6.391e+00,7.066e+00,7.386e+00
3.622e-02,6.074e-01,2.985e-01,3.713e-01,3.334e-01,1.208e+00,1.540e+00,6.794e-01,1.059e+00,1.655e+00,2.343e+00,2.699e+00,2.126e+00,2.456e+00,3.243e+00,1.864e+00,3.332e+00,3.683e+00,3.357e+00,2.518e+00,3.663e+00,4.807e+00,4.780e+00,4.695e+00,5.768e+00,4.947e+00,5.643e+00,4.351e+00,5.822e+00,6.245e+00,5.800e+00,4.773e+00,5.484e+00,6.088e+00,4.602e+00,5.778e+00,3.792e+00,4.249e+00,5.397e+00,5.396e+00,6.527e+00,6.434e+00,6.040e+00,4.874e+00,4.001e+00,4.829e+00,4.688e+00,2.941e+00,5.231e+00,4.922e+00,4.540e+00,5.547e+00,5.238e+00,4.442e+00,6.355e+00,5.717e+00,5.323e+00,5.798e+00,5.918e+00,3.957e+00,5.556e+00,4.791e+00,4.952e+00,4.803e+00,5.322e+00,5.001e+00,5.318e+00,5.010e+00,6.160e+00,5.087e+00,3.827e+00,4.561e+00,5.840e+00,5.436e+00,5.383e+00,5.688e+00,3.940e+00,4.601e+00,5.068e+00,5.384e+00,6.553e+00,6.801e+00,5.147e+00,5.487e+00,4.357e+00,5.488e+00,4.562e+00
8.193e-01,7.471e-01,7.710e-01,5.083e-01,1.571e+00,2.290e+00,1.742e+00,1.448e+00,2.633e+00,3.480e+00,3.706e+00,3.526e+00,2.975e+00,4.079e+00,4.717e+00,3.728e+00,4.704e+00,3.934e+00,4.623e+00,4.022e+00,5.060e+00,6.416e+00,5.961e+00,7.777e+00,6.947e+00,7.540e+00,7.533e+00,6.569e+00,7.826e+00,8.595e+00,6.294e+00,6.391e+00,6.045e+00,7.599e+00,7.219e+00,7.041e+00,6.679e+00,5.549e+00,6.141e+00,6.094e+00,7.624e+00,7.778e+00,7.649e+00,6.889e+00,5.868e+00,6.810e+00,5.910e+00,3.535e+00,7.096e+00,5.749e+00,6.713e+00,5.190e+00,6.348e+00,6.036e+00,7.582e+00,8.731e+00,6.069e+00,7.153e+00,7.040e+00,5.074e+00,6.727e+00,5.758e+00,5.852e+00,6.072e+00,8.259e+00,7.335e+00,6.564e+00,6.804e+00,7.029e+00,7.196e+00,5.093e+00,5.420e+00,7.612e+00,6.741e+00,5.638e+00,7.743e+00,5.261e+00,7.258e+00,6.293e+00,5.519e+00,8.295e+00,7.829e+00,7.576e+00,5.982e+00,7.256e+00,6.962e+00,6.618e+00
8.667e-01,1.095e+00,8.482e-01,6.731e-01,2.121e+00,3.129e+00,2.790e+00,2.785e+00,4.143e+00,4.161e+00,5.057e+00,2.946e+00,3.100e+00,4.620e+00,5.137e+00,4.325e+00,6.325e+00,5.619e+00,6.342e+00,5.082e+00,5.962e+00,6.410e+00,6.654e+00,8.230e+00,7.839e+00,7.074e+00,8.129e+00,7.271e+00,9.131e+00,8.961e+00,7.160e+00,7.608e+00,6.280e+00,7.508e+00,8.254e+00,7.529e+00,7.888e+00,6.191e+00,8.500e+00,7.479e+00,8.415e+00,8.646e+00,8.229e+00,7.967e+00,6.742e+00,8.087e+00,6.334e+00,5.499e+00,8.628e+00,7.879e+00,9.134e+00,7.471e+00,8.493e+00,7.825e+00,7.582e+00,9.188e+00,7.771e+00,9.098e+00,8.666e+00,6.344e+00,8.638e+00,7.336e+00,7.081e+00,7.223e+00,8.078e+00,7.865e+00,7.995e+00,8.682e+00,8.612e+00,8.385e+00,6.425e+00,6.995e+00,6.798e+00,9.315e+00,6.851e+00,8.895e+00,6.677e+00,8.324e+00,8.266e+00,7.720e+00,1.135e+01,9.595e+00,7.906e+00,6.316e+00,8.900e+00,8.027e+00,7.934e+00
3.308e-01,1.639e-01,5.505e-01,1.522e-01,1.358e+00,1.356e+00,1.086e+00,2.203e+00,2.591e+00,2.356e+00,3.395e+00,2.616e+00,2.997e+00,3.735e+00,3.692e+00,2.906e+00,4.453e+00,3.859e+00,4.748e+00,3.719e+00,5.053e+00,5.554e+00,5.838e+00,7.220e+00,6.820e+00,5.936e+00,6.511e+00,6.837e+00,8.066e+00,7.827e+00,7.304e+00,6.491e+00,6.368e+00,7.443e+00,7.539e+00,6.684e+00,5.982e+00,5.016e+00,6.905e+00,6.977e+00,7.624e+00,7.640e+00,7.263e+00,7.626e+00,6.519e+00,6.649e+00,5.123e+00,5.153e+00,7.441e+00,5.864e+00,8.465e+00,6.653e+00,6.877e+00,7.084e+00,6.644e+00,8.664e+00,6.767e+00,8.047e+00,7.806e+00,6.725e+00,7.302e+00,6.748e+00,5.513e+00,6.606e+00,7.828e+00,7.472e+00,6.348e+00,7.327e+00,8.272e+00,7.288e+00,6.034e+00,5.782e+00,6.448e+00,9.027e+00,6.779e+00,6.792e+00,5.950e+00,6.986e+00,7.237e+00,6.820e+00,9.507e+00,9.441e+00,8.268e+00,5.869e+00,7.082e+00,6.557e+00,6.752e+00
4.286e-01,3.164e-01,4.537e-01,2.361e-01,1.357e+00,1.521e+00,1.004e+00,2.090e+00,2.522e+00,2.383e+00,3.237e+00,2.238e+00,3.207e+00,4.372e+00,3.825e+00,3.736e+00,4.577e+00,3.923e+00,4.575e+00,3.990e+00,5.130e+00,5.822e+00,6.607e+00,6.695e+00,7.434e+00,6.062e+00,6.788e+00,5.412e+00,7.829e+00,8.325e+00,5.849e+00,6.462e+00,6.182e+00,7.086e+00,8.080e+00,7.298e+00,7.037e+00,6.789e+00,7.688e+00,7.477e+00,7.022e+00,7.492e+00,7.975e+00,7.532e+00,6.294e+00,6.263e+00,5.180e+00,5.585e+00,7.719e+00,5.937e+00,8.012e+00,6.745e+00,7.520e+00,7.250e+00,6.429e+00,8.745e+00,7.262e+00,9.172e+00,7.202e+00,5.553e+00,6.928e+00,6.454e+00,5.240e+00,6.263e+00,7.205e+00,6.896e+00,6.368e+00,8.153e+00,7.248e+00,7.454e+00,6.241e+00,5.830e+00,7.625e+00,7.959e+00,7.914e+00,7.222e+00,5.663e+00,6.680e+00,7.821e+00,7.137e+00,8.922e+00,8.584e+00,7.526e+00,6.451e+00,7.064e+00,7.231e+00,7.974e+00
3.972e-01,2.007e-01,4.988e-01,1.628e-01,9.408e-01,1.051e+00,6.786e-01,1.345e+00,1.993e+00,2.471e+00,2.973e+00,3.341e+00,3.123e+00,3.668e+00,4.194e+00,4.034e+00,4.735e+00,3.696e+00,3.923e+00,4.264e+00,5.958e+00,6.849e+00,6.547e+00,8.200e+00,7.284e+00,7.361e+00,6.525e+00,6.579e+00,7.528e+00,8.747e+00,6.496e+00,6.088e+00,6.894e+00,7.670e+00,7.642e+00,7.776e+00,7.203e+00,6.507e+00,7.202e+00,7.046e+00,7.227e+00,7.758e+00,8.632e+00,8.284e+00,7.729e+00,6.481e+00,5.822e+00,5.636e+00,6.964e+00,6.335e+00,7.920e+00,6.512e+00,6.922e+00,7.005e+00,8.327e+00,9.641e+00,7.889e+00,8.570e+00,7.941e+00,6.285e+00,6.678e+00,6.205e+00,5.869e+00,6.199e+00,8.470e+00,8.199e+00,7.444e+00,7.894e+00,6.955e+00,7.101e+00,6.939e+00,6.032e+00,8.415e+00,9.523e+00,7.281e+00,7.585e+00,5.853e+00,8.101e+00,7.145e+00,7.313e+00,9.141e+00,1.003e+01,8.859e+00,7.162e+00,7.602e+00,7.730e+00,7.600e+00
2.885e-01,7.667e-01,5.919e-01,5.457e-01,1.023e+00,2.154e+00,1.647e+00,1.315e+00,2.208e+00,3.216e+00,3.317e+00,3.405e+00,2.859e+00,3.157e+00,3.873e+00,4.127e+00,4.731e+00,4.319e+00,4.388e+00,4.346e+00,5.053e+00,5.137e+00,5.234e+00,7.440e+00,6.734e+00,6.357e+00,5.532e+00,5.751e+00,7.967e+00,8.213e+00,6.935e+00,7.046e+00,7.492e+00,6.808e+00,7.272e+00,7.722e+00,6.965e+00,5.936e+00,7.907e+00,6.472e+00,7.858e+00,7.261e+00,8.383e+00,7.316e+00,6.985e+00,6.470e+00,5.096e+00,6.264e+00,7.598e+00,7.028e+00,7.750e+00,7.501e+00,8.031e+00,6.086e+00,7.156e+00,7.733e+00,8.926e+00,8.930e+00,8.697e+00,6.475e+00,7.272e+00,7.040e+00,5.306e+00,5.707e+00,7.568e+00,6.897e+00,7.062e+00,8.743e+00,7.931e+00,7.975e+00,6.602e+00,6.387e+00,8.151e+00,9.272e+00,8.729e+00,7.654e+00,6.630e+00,7.448e+00,6.608e+00,7.364e+00,1.078e+01,9.202e+00,8.135e+00,6.991e+00,7.677e+00,7.504e+00,7.191e+00
1.397e-01,7.448e-02,4.523e-01,1.728e-01,7.848e-01,1.051e+00,5.046e-01,1.171e+00,1.624e+00,2.117e+00,2.076e+00,2.300e+00,1.853e+00,2.703e+00,2.877e+00,3.236e+00,3.565e+00,3.376e+00,3.352e+00,3.171e+00,5.333e+00,4.857e+00,5.188e+00,6.509e+00,5.346e+00,5.529e+00,4.590e+00,4.796e+00,6.104e+00,6.830e+00,5.372e+00,6.018e+00,7.121e+00,6.108e+00,6.217e+00,7.652e+00,7.513e+00,6.793e+00,6.451e+00,6.998e+00,5.878e+00,6.866e+00,7.820e+00,7.305e+00,5.787e+00,5.988e+00,4.479e+00,6.198e+00,6.949e+00,5.420e+00,6.848e+00,6.638e+00,7.088e+00,6.146e+00,7.248e+00,7.620e+00,6.688e+00,8.743e+00,6.869e+00,5.580e+00,6.330e+00,6.005e+00,4.659e+00,5.357e+00,6.749e+00,6.102e+00,6.362e+00,7.723e+00,6.658e+00,7.436e+00,5.722e+00,5.549e+00,7.797e+00,7.136e+00,8.399e+00,6.270e+00,5.905e+00,5.930e+00,6.619e+00,6.268e+00,8.689e+00,7.782e+00,7.749e+00,6.598e+00,6.577e+00,6.957e+00,6.823e+00
3.310e-01,2.088e-01,1.355e-01,1.849e-01,7.313e-01,1.036e+00,1.118e+00,1.450e+00,2.965e+00,2.942e+00,3.300e+00,2.935e+00,2.821e+00,3.780e+00,4.230e+00,4.721e+00,5.267e+00,4.696e+00,3.964e+00,4.428e+00,5.168e+00,5.701e+00,5.770e+00,8.352e+00,6.414e+00,6.939e+00,6.657e+00,6.409e+00,7.583e+00,8.661e+00,7.792e+00,9.051e+00,1.024e+01,8.399e+00,8.084e+00,1.055e+01,9.993e+00,7.746e+00,8.864e+00,8.664e+00,9.729e+00,8.362e+00,1.055e+01,8.853e+00,9.003e+00,8.157e+00,6.870e+00,8.431e+00,9.314e+00,9.146e+00,1.003e+01,8.399e+00,1.029e+01,8.996e+00,9.752e+00,1.079e+01,9.129e+00,1.174e+01,8.817e+00,8.021e+00,9.726e+00,8.993e+00,6.627e+00,7.176e+00,9.358e+00,8.662e+00,9.586e+00,1.159e+01,9.414e+00,1.107e+01,9.104e+00,8.036e+00,9.593e+00,1.056e+01,1.100e+01,8.092e+00,8.074e+00,8.744e+00,9.164e+00,9.067e+00,1.216e+01,1.079e+01,1.074e+01,8.329e+00,8.769e+00,9.887e+00,1.007e+01
8.364e-01,4.905e-01,7.413e-01,3.074e-01,1.859e+00,1.916e+00,1.776e+00,1.766e+00,2.113e+00,2.444e+00,3.398e+00,2.680e+00,3.581e+00,3.722e+00,4.058e+00,2.561e+00,2.967e+00,3.885e+00,4.961e+00,3.617e+00,5.535e+00,5.489e+00,6.412e+00,6.073e+00,7.089e+00,6.790e+00,5.921e+00,6.034e+00,7.872e+00,9.014e+00,7.663e+00,6.852e+00,9.135e+00,8.489e+00,6.940e+00,8.328e+00,9.375e+00,9.053e+00,8.565e+00,9.242e+00,9.158e+00,9.502e+00,1.111e+01,9.270e+00,8.131e+00,9.007e+00,7.231e+00,8.474e+00,9.202e+00,8.188e+00,7.646e+00,1.037e+01,8.287e+00,8.609e+00,9.681e+00,9.802e+00,9.705e+00,1.032e+01,9.347e+00,8.424e+00,9.431e+00,8.925e+00,7.703e+00,8.047e+00,7.744e+00,9.503e+00,9.442e+00,1.010e+01,9.313e+00,1.076e+01,7.487e+00,7.860e+00,9.935e+00,1.001e+01,1.105e+01,8.472e+00,8.047e+00,8.326e+00,9.829e+00,9.156e+00,1.178e+01,1.076e+01,9.125e+00,9.442e+00,8.546e+00,9.575e+00,8.473e+00
2.878e-01,2.674e-01,1.279e-01,1.554e-01,5.856e-01,7.954e-01,8.623e-01,1.187e+00,2.007e+00,1.630e+00,2.326e+00,2.357e+00,2.425e+00,3.776e+00,3.809e+00,2.899e+00,4.092e+00,3.763e+00,4.069e+00,3.269e+00,5.073e+00,5.215e+00,5.642e+00,6.006e+00,6.089e+00,5.428e+00,5.549e+00,5.087e+00,6.078e+00,7.252e+00,6.585e+00,6.249e+00,7.651e+00,7.164e+00,7.226e+00,8.531e+00,8.686e+00,7.764e+00,8.403e+00,9.152e+00,8.009e+00,8.327e+00,8.827e+00,8.001e+00,6.459e+00,7.818e+00,5.882e+00,6.735e+00,8.175e+00,6.884e+00,7.954e+00,8.022e+00,8.874e+00,8.564e+00,8.536e+00,9.175e+00,8.885e+00,9.949e+00,8.725e+00,6.653e+00,8.519e+00,8.064e+00,6.292e+00,7.406e+00,8.329e+00,8.344e+00,7.305e+00,9.273e+00,8.959e+00,8.957e+00,6.990e+00,7.587e+00,8.511e+00,8.797e+00,9.679e+00,7.484e+00,6.415e+00,7.386e+00,8.362e+00,8.056e+00,1.071e+01,1.011e+01,8.344e+00,8.975e+00,7.125e+00,8.419e+00,7.761e+00
1.884e-01,1.377e-01,4.550e-01,1.815e-01,1.319e+00,1.445e+00,1.057e+00,1.734e+00,2.059e+00,2.192e+00,2.716e+00,2.694e+00,3.095e+00,4.173e+00,3.581e+00,2.688e+00,3.960e+00,3.768e+00,4.300e+00,2.845e+00,4.897e+00,5.100e+00,5.102e+00,5.661e+00,5.786e+00,5.788e+00,5.482e+00,5.823e+00,6.419e+00,7.693e+00,6.087e+00,6.576e+00,8.986e+00,7.741e+00,6.781e+00,8.179e+00,8.600e+00,7.852e+00,7.107e+00,7.981e+00,8.859e+00,8.489e+00,9.924e+00,7.185e+00,6.329e+00,7.931e+00,6.742e+00,6.742e+00,8.051e+00,5.813e+00,7.484e+00,8.524e+00,8.936e+00,8.012e+00,8.827e+00,9.476e+00,7.892e+00,9.271e+00,8.459e+00,6.709e+00,9.208e+00,8.221e+00,5.536e+00,6.836e+00,7.800e+00,7.617e+00,7.794e+00,8.583e+00,8.100e+00,9.463e+00,7.016e+00,7.133e+00,8.589e+00,7.995e+00,8.918e+00,8.113e+00,7.660e+00,7.296e+00,9.054e+00,7.994e+00,1.045e+01,9.821e+00,8.704e+00,7.618e+00,7.828e+00,9.118e+00,7.283e+00
1.710e-01,3.956e-01,5.279e-01,3.603e-01,7.982e-01,1.560e+00,1.446e+00,1.687e+00,2.660e+00,3.183e+00,3.687e+00,3.765e+00,2.800e+00,3.915e+00,4.594e+00,3.754e+00,4.936e+00,5.101e+00,4.590e+00,4.347e+00,5.667e+00,6.947e+00,6.743e+00,8.382e+00,6.939e+00,7.371e+00,7.156e+00,7.859e+00,8.659e+00,9.918e+00,7.544e+00,7.969e+00,9.841e+00,9.465e+00,8.405e+00,1.056e+01,1.163e+01,8.880e+00,1.004e+01,9.899e+00,1.109e+01,1.079e+01,1.211e+01,9.670e+00,9.048e+00,1.057e+01,8.293e+00,8.079e+00,1.054e+01,8.855e+00,9.679e+00,9.210e+00,9.970e+00,1.113e+01,1.201e+01,1.157e+01,9.398e+00,1.119e+01,1.169e+01,8.964e+00,1.063e+01,1.060e+01,7.911e+00,8.840e+00,1.102e+01,1.009e+01,9.602e+00,1.175e+01,1.026e+01,1.194e+01,9.189e+00,9.484e+00,1.180e+01,1.108e+01,1.141e+01,1.052e+01,8.460e+00,1.063e+01,1.107e+01,1.058e+01,1.226e+01,1.296e+01,1.099e+01,1.037e+01,1.017e+01,1.185e+01,9.711e+00
2.300e-01,5.753e-01,7.039e-01,4.635e-01,1.259e+00,2.139e+00,1.458e+00,1.660e+00,2.368e+00,3.539e+00,3.605e+00,3.691e+00,3.228e+00,3.761e+00,3.963e+00,4.207e+00,4.665e+00,4.289e+00,4.978e+00,4.502e+00,6.884e+00,6.280e+00,7.256e+00,8.992e+00,8.150e+00,7.520e+00,7.196e+00,7.106e+00,9.842e+00,9.397e+00,8.033e+00,7.588e+00,9.361e+00,9.066e+00,8.737e+00,9.823e+00,9.711e+00,8.399e+00,9.819e+00,9.468e+00,1.074e+01,1.162e+01,1.245e+01,1.046e+01,9.122e+00,9.803e+00,8.348e+00,7.553e+00,1.076e+01,9.712e+00,1.023e+01,1.013e+01,1.097e+01,9.157e+00,1.012e+01,1.111e+01,1.068e+01,1.132e+01,1.081e+01,8.447e+00,9.675e+00,9.652e+00,8.782e+00,8.126e+00,1.048e+01,9.251e+00,9.578e+00,1.169e+01,1.016e+01,1.137e+01,9.024e+00,7.914e+00,1.110e+01,1.129e+01,1.172e+01,1.126e+01,8.624e+00,9.970e+00,1.038e+01,1.101e+01,1.226e+01,1.171e+01,1.143e+01,9.083e+00,9.545e+00,1.122e+01,1.012e+01
9.252e-01,8.368e-01,5.565e-01,4.909e-01,1.598e+00,2.226e+00,2.245e+00,1.943e+00,3.386e+00,3.403e+00,4.440e+00,3.542e+00,3.738e+00,4.692e+00,5.794e+00,4.087e+00,5.188e+00,5.221e+00,5.775e+00,4.829e+00,5.911e+00,6.710e+00,6.566e+00,7.746e+00,7.507e+00,7.790e+00,7.445e+00,7.333e+00,8.575e+00,1.008e+01,9.080e+00,8.118e+00,9.288e+00,8.553e+00,8.147e+00,9.774e+00,1.045e+01,8.643e+00,1.050e+01,1.050e+01,1.174e+01,1.028e+01,1.181e+01,1.095e+01,9.196e+00,1.069e+01,7.717e+00,8.076e+00,1.151e+01,9.186e+00,1.017e+01,9.837e+00,1.083e+01,1.131e+01,1.153e+01,1.131e+01,1.074e+01,1.123e+01,1.130e+01,9.582e+00,1.148e+01,1.036e+01,8.388e+00,1.003e+01,1.018e+01,1.018e+01,9.768e+00,1.087e+01,1.109e+01,1.149e+01,8.752e+00,1.014e+01,1.032e+01,1.209e+01,1.038e+01,1.096e+01,9.567e+00,1.008e+01,9.922e+00,1.003e+01,1.451e+01,1.350e+01,1.140e+01,1.041e+01,1.006e+01,1.099e+01,9.301e+00
4.154e-01,2.381e-01,1.971e-01,1.462e-01,8.304e-01,9.126e-01,1.135e+00,1.048e+00,1.782e+00,1.670e+00,2.265e+00,1.454e+00,1.961e+00,2.066e+00,2.746e+00,2.078e+00,2.650e+00,3.569e+00,3.751e+00,3.102e+00,4.675e+00,4.210e+00,5.863e+00,6.539e+00,5.643e+00,4.992e+00,4.937e+00,4.639e+00,6.533e+00,7.388e+00,6.330e+00,7.458e+00,7.929e+00,5.908e+00,6.445e+00,7.458e+00,8.330e+00,6.303e+00,7.541e+00,7.871e+00,8.296e+00,7.415e+00,9.310e+00,8.648e+00,8.004e+00,8.969e+00,6.368e+00,7.131e+00,9.086e+00,7.610e+00,8.035e+00,8.172e+00,7.973e+00,9.027e+00,8.417e+00,8.978e+00,7.620e+00,9.601e+00,9.221e+00,8.187e+00,8.778e+00,7.879e+00,7.417e+00,7.799e+00,8.213e+00,8.011e+00,9.045e+00,9.916e+00,9.159e+00,9.668e+00,7.343e+00,7.297e+00,8.461e+00,9.518e+00,9.505e+00,8.803e+00,7.242e+00,7.744e+00,8.821e+00,8.537e+00,1.100e+01,9.636e+00,8.901e+00,7.508e+00,7.381e+00,8.470e+00,8.219e+00
3.382e-01,7.807e-01,7.370e-01,5.652e-01,1.201e+00,2.241e+00,2.046e+00,1.554e+00,1.805e+00,2.923e+00,3.817e+00,3.214e+00,2.990e+00,3.269e+00,3.918e+00,3.468e+00,4.404e+00,4.479e+00,4.466e+00,3.160e+00,4.328e+00,5.565e+00,4.651e+00,6.170e+00,6.367e+00,5.972e+00,6.759e+00,6.039e+00,9.119e+00,9.185e+00,7.704e+00,7.015e+00,7.447e+00,7.899e+00,8.467e+00,8.086e+00,9.368e+00,7.289e+00,8.971e+00,9.384e+00,1.013e+01,1.062e+01,1.126e+01,1.061e+01,7.861e+00,1.094e+01,7.778e+00,8.372e+00,1.116e+01,8.818e+00,9.902e+00,9.187e+00,9.098e+00,1.061e+01,1.005e+01,1.080e+01,1.035e+01,1.054e+01,1.013e+01,9.735e+00,1.093e+01,1.007e+01,8.252e+00,8.361e+00,9.972e+00,1.016e+01,9.216e+00,1.121e+01,1.065e+01,1.176e+01,8.465e+00,7.676e+00,1.128e+01,1.049e+01,1.041e+01,1.101e+01,8.697e+00,8.651e+00,9.304e+00,1.044e+01,1.279e+01,1.217e+01,1.031e+01,9.591e+00,9.608e+00,9.663e+00,9.319e+00
3.754e-01,7.143e-01,6.648e-01,4.461e-01,1.405e+00,2.101e+00,2.067e+00,1.557e+00,1.857e+00,2.719e+00,3.695e+00,2.813e+00,3.178e+00,3.383e+00,3.942e+00,3.734e+00,4.891e+00,3.995e+00,5.304e+00,3.779e+00,5.818e+00,5.189e+00,5.607e+00,6.865e+00,7.000e+00,5.903e+00,6.186e+00,5.219e+00,6.805e+00,7.766e+00,6.687e+00,6.592e+00,6.994e+00,6.623e+00,7.060e+00,7.702e+00,8.203e+00,7.579e+00,8.278e+00,8.053e+00,9.070e+00,9.873e+00,1.131e+01,9.185e+00,7.453e+00,9.582e+00,6.724e+00,9.378e+00,1.098e+01,9.754e+00,9.809e+00,9.329e+00,8.974e+00,1.013e+01,9.295e+00,9.907e+00,1.068e+01,1.020e+01,1.056e+01,9.262e+00,1.123e+01,9.183e+00,7.567e+00,8.106e+00,9.387e+00,9.598e+00,8.996e+00,1.004e+01,9.155e+00,1.127e+01,8.783e+00,8.211e+00,1.028e+01,1.044e+01,1.060e+01,9.833e+00,8.098e+00,9.962e+00,9.421e+00,1.046e+01,1.194e+01,1.206e+01,9.926e+00,9.837e+00,9.309e+00,1.053e+01,9.385e+00
1.641e-01,2.722e-01,3.472e-01,2.759e-01,7.132e-01,1.242e+00,7.737e-01,9.290e-01,1.552e+00,2.476e+00,2.667e+00,3.228e+00,2.999e+00,3.273e+00,3.873e+00,3.919e+00,4.256e+00,4.044e+00,3.477e+00,3.398e+00,4.698e+00,5.294e+00,4.873e+00,6.108e+00,6.065e+00,5.891e+00,6.087e+00,4.858e+00,6.939e+00,8.233e+00,6.461e+00,6.363e+00,8.255e+00,7.557e+00,6.710e+00,8.734e+00,8.972e+00,7.487e+00,7.853e+00,8.673e+00,9.792e+00,9.709e+00,1.245e+01,9.475e+00,9.193e+00,9.581e+00,7.712e+00,7.664e+00,1.047e+01,9.192e+00,9.742e+00,9.516e+00,9.725e+00,9.775e+00,1.119e+01,1.114e+01,9.903e+00,1.021e+01,1.034e+01,9.138e+00,9.804e+00,9.700e+00,7.032e+00,8.274e+00,1.033e+01,8.998e+00,9.648e+00,1.130e+01,9.234e+00,1.140e+01,9.818e+00,8.271e+00,1.158e+01,1.025e+01,1.091e+01,9.848e+00,8.887e+00,9.210e+00,9.245e+00,1.055e+01,1.189e+01,1.234e+01,1.028e+01,9.574e+00,9.036e+00,1.118e+01,9.822e+00
5.722e-01,5.947e-01,4.456e-01,3.878e-01,9.759e-01,1.600e+00,1.678e+00,8.802e-01,1.945e+00,2.541e+00,2.702e+00,2.738e+00,2.320e+00,3.060e+00,3.786e+00,2.885e+00,3.214e+00,3.687e+00,3.715e+00,3.229e+00,4.208e+00,4.508e+00,4.716e+00,5.620e+00,5.944e+00,6.171e+00,6.398e+00,6.012e+00,8.123e+00,8.656e+00,7.372e+00,6.718e+00,8.403e+00,7.534e+00,6.687e+00,8.797e+00,9.006e+00,6.918e+00,7.734e+00,9.841e+00,9.916e+00,1.041e+01,1.120e+01,1.011e+01,9.321e+00,1.014e+01,8.971e+00,9.204e+00,1.083e+01,9.432e+00,9.230e+00,9.977e+00,9.818e+00,1.037e+01,1.135e+01,1.095e+01,9.795e+00,1.065e+01,1.046e+01,1.008e+01,1.048e+01,9.735e+00,8.778e+00,8.875e+00,9.808e+00,9.876e+00,1.021e+01,1.076e+01,1.041e+01,1.187e+01,8.410e+00,8.874e+00,1.171e+01,1.020e+01,1.135e+01,1.083e+01,8.978e+00,8.976e+00,9.881e+00,1.072e+01,1.265e+01,1.195e+01,1.082e+01,9.931e+00,9.237e+00,9.939e+00,1.002e+01
3.575e-01,2.001e-01,4.483e-01,2.265e-01,1.268e+00,1.498e+00,1.285e+00,1.746e+00,2.509e+00,2.463e+00,3.054e+00,2.803e+00,2.993e+00,3.406e+00,3.900e+00,2.384e+00,3.640e+00,4.488e+00,4.290e+00,3.620e+00,4.429e+00,5.457e+00,5.622e+00,5.600e+00,6.455e+00,5.579e+00,6.788e+00,5.510e+00,7.906e+00,8.386e+00,6.267e+00,6.809e+00,7.128e+00,7.663e+00,7.221e+00,8.085e+00,9.667e+00,8.284e+00,8.568e+00,9.316e+00,1.042e+01,1.151e+01,1.312e+01,1.013e+01,9.200e+00,1.121e+01,9.525e+00,8.360e+00,1.206e+01,1.035e+01,1.073e+01,1.080e+01,1.084e+01,1.218e+01,1.162e+01,1.221e+01,1.010e+01,1.136e+01,1.201e+01,1.057e+01,1.179e+01,1.041e+01,8.301e+00,1.065e+01,1.216e+01,1.166e+01,1.099e+01,1.192e+01,1.129e+01,1.267e+01,9.183e+00,1.070e+01,1.276e+01,1.122e+01,1.253e+01,1.110e+01,9.428e+00,1.109e+01,1.182e+01,1.189e+01,1.359e+01,1.303e+01,1.018e+01,1.158e+01,1.121e+01,1.114e+01,1.098e+01
2.464e-01,5.000e-01,2.504e-01,2.843e-01,9.832e-01,1.461e+00,1.652e+00,1.596e+00,2.526e+00,2.516e+00,3.484e+00,3.012e+00,3.323e+00,4.058e+00,3.920e+00,3.250e+00,5.007e+00,3.777e+00,4.722e+00,4.107e+00,5.846e+00,6.695e+00,6.730e+00,7.959e+00,6.648e+00,6.844e+00,6.639e+00,6.444e+00,7.291e+00,8.520e+00,6.967e+00,7.368e+00,9.125e+00,8.216e+00,8.575e+00,9.480e+00,1.002e+01,8.926e+00,1.040e+01,9.679e+00,1.027e+01,1.090e+01,1.216e+01,1.120e+01,9.114e+00,1.059e+01,9.720e+00,1.021e+01,1.253e+01,1.086e+01,1.108e+01,1.075e+01,1.128e+01,1.248e+01,1.159e+01,1.333e+01,1.233e+01,1.196e+01,1.182e+01,1.134e+01,1.255e+01,1.002e+01,8.690e+00,1.110e+01,1.152e+01,1.163e+01,1.231e+01,1.228e+01,1.209e+01,1.293e+01,1.082e+01,1.137e+01,1.214e+01,1.287e+01,1.222e+01,1.119e+01,9.543e+00,1.172e+01,1.206e+01,1.189e+01,1.461e+01,1.382e+01,1.150e+01,1.120e+01,1.173e+01,1.164e+01,1.223e+01
5.544e-01,3.792e-01,5.779e-01,2.514e-01,1.442e+00,1.602e+00,1.027e+00,2.008e+00,2.672e+00,2.610e+00,3.328e+00,2.578e+00,2.884e+00,3.875e+00,3.818e+00,2.960e+00,4.529e+00,3.879e+00,4.256e+00,4.159e+00,5.364e+00,5.955e+00,6.052e+00,6.422e+00,5.951e+00,6.358e+00,6.605e+00,6.599e+00,7.052e+00,6.758e+00,6.642e+00,6.896e+00,7.575e+00,7.896e+00,7.423e+00,7.563e+00,8.078e+00,7.922e+00,9.718e+00,9.733e+00,9.500e+00,1.095e+01,1.062e+01,9.996e+00,9.196e+00,9.013e+00,8.212e+00,8.660e+00,1.159e+01,9.611e+00,1.139e+01,1.030e+01,1.124e+01,1.081e+01,1.088e+01,1.130e+01,1.055e+01,1.129e+01,1.112e+01,1.029e+01,1.111e+01,9.485e+00,7.444e+00,1.089e+01,1.106e+01,9.458e+00,9.469e+00,1.076e+01,1.165e+01,1.121e+01,9.598e+00,9.870e+00,1.109e+01,1.137e+01,1.201e+01,1.036e+01,9.036e+00,1.014e+01,1.154e+01,1.070e+01,1.237e+01,1.286e+01,1.152e+01,1.054e+01,1.042e+01,1.106e+01,1.063e+01
2.987e-01,6.014e-01,6.885e-01,4.861e-01,1.034e+00,1.961e+00,1.416e+00,1.540e+00,1.971e+00,2.951e+00,3.311e+00,3.140e+00,2.820e+00,3.626e+00,3.441e+00,3.878e+00,4.010e+00,3.774e+00,4.723e+00,3.792e+00,5.347e+00,6.453e+00,6.766e+00,8.845e+00,7.960e+00,7.009e+00,6.136e+00,5.965e+00,9.268e+00,1.013e+01,7.052e+00,7.567e+00,8.733e+00,8.312e+00,9.597e+00,9.214e+00,9.492e+00,7.881e+00,8.496e+00,8.286e+00,9.047e+00,9.922e+00,1.141e+01,1.139e+01,9.886e+00,1.091e+01,9.732e+00,9.508e+00,1.382e+01,1.132e+01,1.266e+01,1.084e+01,1.066e+01,1.185e+01,1.214e+01,1.353e+01,1.199e+01,1.288e+01,1.295e+01,1.138e+01,1.170e+01,1.035e+01,9.711e+00,1.117e+01,1.247e+01,1.176e+01,1.282e+01,1.262e+01,1.146e+01,1.269e+01,1.069e+01,1.065e+01,1.309e+01,1.212e+01,1.292e+01,1.283e+01,9.926e+00,1.225e+01,1.149e+01,1.278e+01,1.487e+01,1.311e+01,1.142e+01,1.085e+01,1.136e+01,1.140e+01,1.358e+01
7.133e-01,8.530e-01,3.953e-01,4.813e-01,1.204e+00,1.972e+00,1.500e+00,1.105e+00,2.420e+00,2.876e+00,2.936e+00,2.089e+00,2.056e+00,3.673e+00,3.536e+00,3.911e+00,4.492e+00,3.429e+00,4.612e+00,3.548e+00,6.172e+00,5.354e+00,7.370e+00,8.153e+00,7.030e+00,6.129e+00,7.404e+00,6.503e+00,7.605e+00,9.011e+00,7.667e+00,7.913e+00,9.392e+00,7.961e+00,7.969e+00,9.656e+00,1.066e+01,8.651e+00,9.311e+00,1.022e+01,1.198e+01,1.043e+01,1.258e+01,1.152e+01,1.087e+01,1.168e+01,9.947e+00,1.109e+01,1.354e+01,1.233e+01,1.203e+01,1.188e+01,1.225e+01,1.292e+01,1.225e+01,1.195e+01,1.266e+01,1.384e+01,1.384e+01,1.190e+01,1.243e+01,1.117e+01,9.834e+00,1.145e+01,1.375e+01,1.235e+01,1.322e+01,1.342e+01,1.219e+01,1.379e+01,1.178e+01,1.051e+01,1.342e+01,1.286e+01,1.437e+01,1.315e+01,1.031e+01,1.180e+01,1.285e+01,1.290e+01,1.474e+01,1.357e+01,1.370e+01,1.250e+01,1.283e+01,1.388e+01,1.354e+01
6.169e-01,7.185e-01,4.545e-01,4.489e-01,8.782e-01,1.657e+00,1.795e+00,8.339e-01,1.930e+00,2.761e+00,3.143e+00,3.062e+00,2.674e+00,3.311e+00,4.196e+00,3.780e+00,3.647e+00,3.619e+00,4.055e+00,3.631e+00,4.464e+00,5.233e+00,5.645e+00,6.835e+00,6.634e+00,6.392e+00,6.705e+00,6.092e+00,8.341e+00,8.860e+00,7.939e+00,7.804e+00,8.246e+00,7.676e+00,8.084e+00,9.888e+00,1.065e+01,8.000e+00,8.438e+00,9.812e+00,1.080e+01,1.032e+01,1.213e+01,1.114e+01,9.716e+00,1.156e+01,1.022e+01,1.018e+01,1.487e+01,1.277e+01,1.240e+01,1.159e+01,1.188e+01,1.398e+01,1.363e+01,1.245e+01,1.251e+01,1.375e+01,1.365e+01,1.284e+01,1.280e+01,1.323e+01,1.038e+01,1.202e+01,1.257e+01,1.253e+01,1.280e+01,1.328e+01,1.328e+01,1.403e+01,1.215e+01,1.097e+01,1.484e+01,1.216e+01,1.424e+01,1.400e+01,1.121e+01,1.222e+01,1.327e+01,1.343e+01,1.621e+01,1.425e+01,1.368e+01,1.389e+01,1.248e+01,1.425e+01,1.381e+01
3.564e-01,2.758e-01,1.614e-01,2.245e-01,6.287e-01,1.004e+00,1.293e+00,7.221e-01,1.867e+00,2.357e+00,2.920e+00,2.954e+00,2.731e+00,2.918e+00,3.593e+00,3.323e+00,3.978e+00,3.820e+00,3.436e+00,3.457e+00,4.245e+00,5.714e+00,4.869e+00,6.558e+00,5.141e+00,5.869e+00,6.027e+00,4.774e+00,6.940e+00,7.816e+00,6.983e+00,6.616e+00,6.955e+00,7.857e+00,6.823e+00,8.133e+00,8.275e+00,6.809e+00,7.780e+00,8.010e+00,9.118e+00,9.009e+00,1.144e+01,9.307e+00,9.786e+00,1.014e+01,7.756e+00,7.911e+00,1.150e+01,1.051e+01,1.214e+01,1.092e+01,1.060e+01,1.146e+01,1.140e+01,1.272e+01,1.051e+01,1.175e+01,1.175e+01,1.057e+01,1.149e+01,9.982e+00,8.600e+00,1.013e+01,1.290e+01,1.219e+01,1.198e+01,1.228e+01,1.021e+01,1.288e+01,1.100e+01,1.081e+01,1.331e+01,1.156e+01,1.166e+01,1.155e+01,9.801e+00,1.181e+01,1.067e+01,1.095e+01,1.307e+01,1.211e+01,1.197e+01,1.004e+01,9.929e+00,1.128e+01,1.073e+01
2.259e-01,5.449e-01,3.537e-01,4.013e-01,8.271e-01,1.690e+00,1.329e+00,1.174e+00,2.394e+00,2.732e+00,2.820e+00,3.164e+00,2.359e+00,2.791e+00,4.266e+00,3.382e+00,4.744e+00,4.696e+00,4.100e+00,4.139e+00,5.712e+00,5.882e+00,5.767e+00,7.123e+00,5.643e+00,6.340e+00,5.986e+00,7.025e+00,7.523e+00,8.351e+00,6.696e+00,7.607e+00,8.448e+00,7.258e+00,6.957e+00,8.556e+00,1.097e+01,8.649e+00,9.393e+00,9.858e+00,1.123e+01,1.044e+01,1.264e+01,1.036e+01,9.302e+00,1.074e+01,9.501e+00,9.391e+00,1.341e+01,1.143e+01,1.297e+01,1.305e+01,1.443e+01,1.464e+01,1.420e+01,1.384e+01,1.356e+01,1.377e+01,1.560e+01,1.446e+01,1.330e+01,1.335e+01,1.019e+01,1.251e+01,1.329e+01,1.190e+01,1.345e+01,1.439e+01,1.413e+01,1.356e+01,1.328e+01,1.264e+01,1.477e+01,1.436e+01,1.346e+01,1.496e+01,1.283e+01,1.313e+01,1.348e+01,1.367e+01,1.730e+01,1.552e+01,1.437e+01,1.419e+01,1.403e+01,1.484e+01,1.296e+01
7.033e-01,5.711e-01,6.436e-01,3.601e-01,1.404e+00,1.782e+00,1.313e+00,1.826e+00,2.540e+00,2.860e+00,3.505e+00,3.157e+00,3.479e+00,4.272e+00,4.395e+00,3.608e+00,4.072e+00,4.065e+00,4.532e+00,4.252e+00,5.372e+00,6.095e+00,6.196e+00,6.213e+00,7.259e+00,6.343e+00,5.940e+00,6.121e+00,7.277e+00,7.849e+00,6.198e+00,6.563e+00,7.676e+00,6.726e+00,6.715e+00,8.978e+00,9.401e+00,9.321e+00,8.906e+00,9.402e+00,1.027e+01,1.012e+01,1.208e+01,1.112e+01,1.031e+01,1.051e+01,9.491e+00,9.092e+00,1.305e+01,1.104e+01,1.221e+01,1.309e+01,1.297e+01,1.277e+01,1.329e+01,1.305e+01,1.243e+01,1.450e+01,1.453e+01,1.247e+01,1.168e+01,1.142e+01,1.029e+01,1.255e+01,1.300e+01,1.234e+01,1.180e+01,1.303e+01,1.206e+01,1.271e+01,1.207e+01,1.260e+01,1.543e+01,1.389e+01,1.274e+01,1.404e+01,1.170e+01,1.360e+01,1.215e+01,1.428e+01,1.580e+01,1.542e+01,1.335e+01,1.316e+01,1.174e+01,1.362e+01,1.380e+01
4.451e-01,7.918e-01,6.823e-01,5.687e-01,1.588e+00,2.610e+00,2.456e+00,2.236e+00,3.393e+00,3.743e+00,4.373e+00,3.586e+00,3.373e+00,4.580e+00,4.717e+00,3.856e+00,5.158e+00,4.702e+00,5.563e+00,4.314e+00,4.799e+00,5.942e+00,5.980e+00,7.967e+00,7.459e+00,7.059e+00,6.535e+00,6.329e+00,8.195e+00,9.471e+00,7.487e+00,8.197e+00,9.013e+00,8.319e+00,8.302e+00,1.039e+01,1.104e+01,9.085e+00,1.003e+01,9.874e+00,1.173e+01,1.040e+01,1.281e+01,1.033e+01,9.330e+00,1.204e+01,9.343e+00,9.937e+00,1.440e+01,1.194e+01,1.305e+01,1.356e+01,1.323e+01,1.482e+01,1.504e+01,1.417e+01,1.206e+01,1.547e+01,1.682e+01,1.392e+01,1.569e+01,1.332e+01,1.070e+01,1.225e+01,1.428e+01,1.294e+01,1.483e+01,1.508e+01,1.367e+01,1.553e+01,1.367e+01,1.449e+01,1.587e+01,1.502e+01,1.439e+01,1.322e+01,1.316e+01,1.447e+01,1.318e+01,1.532e+01,1.762e+01,1.691e+01,1.399e+01,1.385e+01,1.274e+01,1.494e+01,1.471e+01
7.253e-01,5.999e-01,6.072e-01,4.051e-01,1.198e+00,1.761e+00,1.635e+00,1.750e+00,2.874e+00,2.988e+00,3.703e+00,3.181e+00,2.714e+00,3.735e+00,4.480e+00,3.357e+00,4.137e+00,4.386e+00,4.423e+00,4.021e+00,4.597e+00,6.324e+00,5.498e+00,7.079e+00,6.144e+00,6.650e+00,5.830e+00,6.172e+00,7.445e+00,8.397e+00,7.331e+00,6.891e+00,7.619e+00,7.930e+00,7.575e+00,8.538e+00,1.019e+01,8.386e+00,8.956e+00,9.021e+00,1.016e+01,1.013e+01,1.169e+01,1.059e+01,1.018e+01,1.117e+01,9.160e+00,8.949e+00,1.293e+01,1.107e+01,1.259e+01,1.141e+01,1.233e+01,1.387e+01,1.463e+01,1.332e+01,1.151e+01,1.376e+01,1.437e+01,1.258e+01,1.445e+01,1.235e+01,1.088e+01,1.226e+01,1.465e+01,1.517e+01,1.327e+01,1.353e+01,1.272e+01,1.431e+01,1.212e+01,1.279e+01,1.471e+01,1.369e+01,1.287e+01,1.361e+01,1.341e+01,1.378e+01,1.385e+01,1.463e+01,1.572e+01,1.497e+01,1.379e+01,1.303e+01,1.330e+01,1.336e+01,1.340e+01
1.766e-01,7.815e-01,6.992e-01,5.151e-01,1.056e+00,2.020e+00,1.935e+00,1.263e+00,1.034e+00,2.336e+00,3.535e+00,3.171e+00,3.172e+00,3.550e+00,3.852e+00,3.354e+00,4.515e+00,4.260e+00,5.397e+00,3.221e+00,6.454e+00,6.345e+00,6.561e+00,6.927e+00,7.069e+00,6.165e+00,7.389e+00,6.957e+00,8.683e+00,9.324e+00,7.803e+00,7.488e+00,8.392e+00,8.540e+00,9.076e+00,8.825e+00,1.064e+01,8.873e+00,9.800e+00,1.101e+01,1.097e+01,1.263e+01,1.370e+01,1.212e+01,1.020e+01,1.326e+01,9.888e+00,1.097e+01,1.488e+01,1.190e+01,1.371e+01,1.399e+01,1.374e+01,1.611e+01,1.474e+01,1.463e+01,1.431e+01,1.604e+01,1.735e+01,1.471e+01,1.561e+01,1.416e+01,1.235e+01,1.418e+01,1.535e+01,1.483e+01,1.397e+01,1.477e+01,1.369e+01,1.691e+01,1.469e+01,1.448e+01,1.687e+01,1.566e+01,1.573e+01,1.473e+01,1.399e+01,1.473e+01,1.594e+01,1.621e+01,1.827e+01,1.749e+01,1.544e+01,1.638e+01,1.459e+01,1.665e+01,1.538e+01
7.790e-01,5.799e-01,4.973e-01,3.610e-01,1.343e+00,1.764e+00,1.545e+00,1.172e+00,2.460e+00,3.069e+00,3.206e+00,2.688e+00,2.809e+00,3.106e+00,4.188e+00,3.844e+00,3.766e+00,4.079e+00,4.525e+00,4.422e+00,5.932e+00,4.706e+00,6.462e+00,7.769e+00,7.414e+00,6.857e+00,6.655e+00,6.351e+00,8.511e+00,9.181e+00,8.062e+00,7.849e+00,9.133e+00,7.782e+00,7.514e+00,9.155e+00,1.016e+01,8.014e+00,9.057e+00,9.422e+00,1.158e+01,1.055e+01,1.359e+01,1.098e+01,1.223e+01,1.259e+01,1.017e+01,1.168e+01,1.502e+01,1.352e+01,1.355e+01,1.429e+01,1.457e+01,1.388e+01,1.513e+01,1.483e+01,1.518e+01,1.677e+01,1.769e+01,1.594e+01,1.539e+01,1.519e+01,1.289e+01,1.490e+01,1.612e+01,1.544e+01,1.614e+01,1.721e+01,1.546e+01,1.826e+01,1.520e+01,1.489e+01,1.817e+01,1.619e+01,1.755e+01,1.552e+01,1.422e+01,1.632e+01,1.548e+01,1.685e+01,1.796e+01,1.807e+01,1.640e+01,1.679e+01,1.525e+01,1.791e+01,1.732e+01
7.661e-01,4.230e-01,6.593e-01,3.520e-01,1.779e+00,2.064e+00,1.168e+00,2.071e+00,3.136e+00,3.608e+00,3.991e+00,3.072e+00,3.453e+00,4.759e+00,4.906e+00,5.025e+00,5.770e+00,5.532e+00,5.608e+00,5.063e+00,7.778e+00,7.335e+00,8.039e+00,9.212e+00,8.019e+00,8.385e+00,8.908e+00,8.147e+00,9.616e+00,1.043e+01,8.562e+00,9.648e+00,1.109e+01,1.032e+01,9.564e+00,1.062e+01,1.264e+01,1.073e+01,1.097e+01,1.201e+01,1.284e+01,1.381e+01,1.538e+01,1.338e+01,1.286e+01,1.369e+01,1.107e+01,1.160e+01,1.557e+01,1.383e+01,1.590e+01,1.471e+01,1.626e+01,1.616e+01,1.572e+01,1.702e+01,1.537e+01,1.826e+01,1.742e+01,1.628e+01,1.657e+01,1.488e+01,1.386e+01,1.535e+01,1.739e+01,1.579e+01,1.700e+01,1.892e+01,1.684e+01,1.850e+01,1.725e+01,1.588e+01,1.862e+01,1.744e+01,1.782e+01,1.715e+01,1.546e+01,1.636e+01,1.790e+01,1.684e+01,2.062e+01,1.894e+01,1.858e+01,1.664e+01,1.698e+01,1.854e+01,1.760e+01
8.165e-01,5.297e-01,5.133e-01,3.572e-01,1.732e+00,2.037e+00,1.532e+00,2.011e+00,3.329e+00,3.318e+00,3.988e+00,3.400e+00,3.899e+00,4.543e+00,5.058e+00,3.878e+00,4.842e+00,4.764e+00,5.134e+00,4.654e+00,5.746e+00,6.662e+00,6.712e+00,7.364e+00,7.121e+00,7.240e+00,7.038e+00,6.246e+00,7.638e+00,8.538e+00,7.242e+00,6.867e+00,7.401e+00,8.695e+00,6.782e+00,7.644e+00,8.678e+00,8.211e+00,9.182e+00,8.849e+00,9.911e+00,1.029e+01,1.242e+01,9.736e+00,1.033e+01,1.062e+01,8.648e+00,8.619e+00,1.336e+01,1.162e+01,1.335e+01,1.315e+01,1.364e+01,1.353e+01,1.395e+01,1.476e+01,1.376e+01,1.470e+01,1.630e+01,1.445e+01,1.522e+01,1.325e+01,1.145e+01,1.385e+01,1.515e+01,1.488e+01,1.532e+01,1.541e+01,1.450e+01,1.583e+01,1.464e+01,1.465e+01,1.598e+01,1.600e+01,1.403e+01,1.505e+01,1.318e+01,1.568e+01,1.528e+01,1.524e+01,1.735e+01,1.698e+01,1.495e+01,1.439e+01,1.467e+01,1.675e+01,1.496e+01
3.048e-01,4.386e-01,3.481e-01,3.432e-01,7.819e-01,1.459e+00,1.491e+00,1.290e+00,2.519e+00,3.158e+00,3.662e+00,3.769e+00,3.246e+00,3.690e+00,4.395e+00,3.958e+00,4.695e+00,4.561e+00,3.948e+00,4.393e+00,4.818e+00,6.538e+00,6.123e+00,7.954e+00,6.628e+00,7.393e+00,7.648e+00,6.966e+00,9.063e+00,9.557e+00,8.614e+00,8.672e+00,9.257e+00,8.828e+00,8.405e+00,1.045e+01,1.020e+01,7.749e+00,1.016e+01,1.009e+01,1.102e+01,1.153e+01,1.318e+01,1.227e+01,1.104e+01,1.100e+01,1.119e+01,8.628e+00,1.460e+01,1.283e+01,1.426e+01,1.154e+01,1.493e+01,1.322e+01,1.627e+01,1.627e+01,1.474e+01,1.600e+01,1.671e+01,1.611e+01,1.644e+01,1.605e+01,1.324e+01,1.508e+01,1.805e+01,1.629e+01,1.675e+01,1.730e+01,1.618e+01,1.732e+01,1.562e+01,1.495e+01,1.878e+01,1.667e+01,1.653e+01,1.617e+01,1.562e+01,1.574e+01,1.651e+01,1.709e+01,1.934e+01,1.887e+01,1.836e+01,1.545e+01,1.701e+01,1.778e+01,1.728e+01
6.987e-01,4.632e-01,5.506e-01,3.343e-01,1.238e+00,1.611e+00,1.501e+00,1.582e+00,2.535e+00,2.714e+00,3.479e+00,2.986e+00,2.945e+00,3.803e+00,4.290e+00,3.458e+00,4.148e+00,4.510e+00,4.916e+00,4.185e+00,5.261e+00,6.389e+00,6.465e+00,7.384e+00,7.006e+00,6.886e+00,7.058e+00,6.036e+00,8.302e+00,8.809e+00,8.522e+00,7.261e+00,7.442e+00,8.681e+00,8.166e+00,9.215e+00,9.564e+00,8.350e+00,1.065e+01,1.095e+01,1.141e+01,1.269e+01,1.350e+01,1.203e+01,1.127e+01,1.261e+01,1.065e+01,1.044e+01,1.548e+01,1.340e+01,1.424e+01,1.386e+01,1.428e+01,1.628e+01,1.602e+01,1.548e+01,1.520e+01,1.683e+01,1.741e+01,1.740e+01,1.815e+01,1.660e+01,1.397e+01,1.691e+01,1.784e+01,1.715e+01,1.620e+01,1.655e+01,1.626e+01,1.820e+01,1.735e+01,1.717e+01,1.863e+01,1.738e+01,1.807e+01,1.715e+01,1.689e+01,1.743e+01,1.824e+01,1.800e+01,2.051e+01,1.931e+01,1.902e+01,1.702e+01,1.778e+01,1.837e+01,1.732e+01
6.749e-01,8.370e-01,5.906e-01,5.112e-01,1.090e+00,1.949e+00,1.438e+00,1.024e+00,1.914e+00,2.782e+00,2.908e+00,2.672e+00,2.457e+00,3.562e+00,4.107e+00,4.335e+00,4.090e+00,3.593e+00,4.572e+00,4.040e+00,5.695e+00,4.723e+00,5.496e+00,6.577e+00,6.530e+00,6.366e+00,6.507e+00,6.351e+00,7.480e+00,8.301e+00,6.550e+00,7.144e+00,7.959e+00,7.085e+00,7.880e+00,8.349e+00,1.121e+01,8.541e+00,8.652e+00,9.924e+00,9.571e+00,1.074e+01,1.276e+01,1.031e+01,9.322e+00,1.065e+01,9.146e+00,1.027e+01,1.345e+01,1.155e+01,1.349e+01,1.192e+01,1.387e+01,1.387e+01,1.379e+01,1.368e+01,1.464e+01,1.512e+01,1.614e+01,1.398e+01,1.638e+01,1.437e+01,1.272e+01,1.315e+01,1.516e+01,1.439e+01,1.476e+01,1.510e+01,1.450e+01,1.678e+01,1.408e+01,1.400e+01,1.664e+01,1.521e+01,1.539e+01,1.620e+01,1.383e+01,1.579e+01,1.599e+01,1.639e+01,1.861e+01,1.737e+01,1.606e+01,1.552e+01,1.513e+01,1.733e+01,1.518e+01
9.117e-01,7.318e-01,6.322e-01,4.132e-01,1.740e+00,2.098e+00,1.728e+00,1.508e+00,2.389e+00,2.994e+00,3.618e+00,2.738e+00,3.373e+00,4.256e+00,4.290e+00,3.827e+00,4.479e+00,3.829e+00,4.948e+00,3.987e+00,6.007e+00,6.162e+00,7.052e+00,7.155e+00,7.167e+00,7.069e+00,8.018e+00,6.448e+00,7.847e+00,8.919e+00,7.668e+00,7.544e+00,8.178e+00,8.396e+00,7.631e+00,8.218e+00,9.427e+00,8.004e+00,9.198e+00,1.030e+01,1.003e+01,1.147e+01,1.235e+01,1.113e+01,1.060e+01,1.105e+01,9.678e+00,9.233e+00,1.313e+01,1.149e+01,1.244e+01,1.150e+01,1.313e+01,1.246e+01,1.355e+01,1.360e+01,1.314e+01,1.421e+01,1.420e+01,1.358e+01,1.389e+01,1.338e+01,1.196e+01,1.312e+01,1.502e+01,1.481e+01,1.451e+01,1.502e+01,1.397e+01,1.595e+01,1.364e+01,1.348e+01,1.564e+01,1.511e+01,1.506e+01,1.506e+01,1.425e+01,1.439e+01,1.705e+01,1.543e+01,1.678e+01,1.515e+01,1.577e+01,1.431e+01,1.526e+01,1.557e+01,1.585e+01
6.392e-01,6.788e-01,4.240e-01,4.380e-01,1.283e+00,1.971e+00,1.468e+00,1.524e+00,2.908e+00,3.331e+00,3.486e+00,2.993e+00,3.140e+00,4.439e+00,3.953e+00,4.355e+00,4.603e+00,3.444e+00,4.568e+00,4.393e+00,5.147e+00,5.290e+00,5.596e+00,7.420e+00,6.546e+00,6.438e+00,5.527e+00,5.067e+00,6.815e+00,7.735e+00,6.118e+00,6.322e+00,7.733e+00,7.496e+00,6.979e+00,8.653e+00,9.374e+00,8.277e+00,9.083e+00,8.680e+00,1.016e+01,9.818e+00,1.218e+01,9.925e+00,1.061e+01,1.070e+01,9.344e+00,1.024e+01,1.451e+01,1.213e+01,1.358e+01,1.230e+01,1.393e+01,1.414e+01,1.339e+01,1.292e+01,1.383e+01,1.544e+01,1.499e+01,1.346e+01,1.554e+01,1.316e+01,1.125e+01,1.439e+01,1.586e+01,1.533e+01,1.516e+01,1.621e+01,1.439e+01,1.677e+01,1.547e+01,1.499e+01,1.733e+01,1.545e+01,1.669e+01,1.654e+01,1.378e+01,1.755e+01,1.703e+01,1.688e+01,1.861e+01,1.744e+01,1.656e+01,1.525e+01,1.570e+01,1.699e+01,1.682e+01
9.130e-01,4.937e-01,6.993e-01,3.854e-01,1.709e+00,2.024e+00,1.659e+00,2.049e+00,3.135e+00,3.434e+00,4.126e+00,3.446e+00,3.669e+00,5.447e+00,4.922e+00,4.355e+00,4.790e+00,4.768e+00,5.041e+00,4.456e+00,4.964e+00,6.914e+00,6.202e+00,7.895e+00,7.041e+00,8.191e+00,6.243e+00,5.677e+00,7.469e+00,8.864e+00,6.987e+00,7.705e+00,8.434e+00,9.263e+00,7.641e+00,9.670e+00,9.751e+00,9.071e+00,9.399e+00,9.385e+00,1.010e+01,1.102e+01,1.301e+01,1.068e+01,1.010e+01,1.138e+01,1.009e+01,9.312e+00,1.429e+01,1.247e+01,1.323e+01,1.196e+01,1.300e+01,1.412e+01,1.611e+01,1.530e+01,1.357e+01,1.529e+01,1.556e+01,1.526e+01,1.685e+01,1.539e+01,1.246e+01,1.476e+01,1.750e+01,1.761e+01,1.606e+01,1.649e+01,1.587e+01,1.829e+01,1.726e+01,1.571e+01,1.879e+01,1.665e+01,1.661e+01,1.732e+01,1.730e+01,1.671e+01,1.794e+01,1.679e+01,1.936e+01,1.742e+01,1.741e+01,1.626e+01,1.786e+01,1.859e+01,1.767e+01
6.888e-02,5.565e-01,5.381e-01,3.853e-01,6.604e-01,1.472e+00,1.657e+00,1.583e+00,1.794e+00,2.248e+00,3.543e+00,2.947e+00,2.304e+00,2.998e+00,4.103e+00,2.548e+00,4.388e+00,4.628e+00,4.474e+00,3.491e+00,5.533e+00,6.480e+00,6.116e+00,6.739e+00,5.957e+00,6.174e+00,6.331e+00,7.134e+00,7.851e+00,8.585e+00,7.753e+00,6.154e+00,7.569e+00,8.005e+00,7.484e+00,7.765e+00,8.787e+00,7.297e+00,8.879e+00,8.418e+00,1.028e+01,1.086e+01,1.147e+01,1.023e+01,9.422e+00,1.114e+01,9.161e+00,9.098e+00,1.333e+01,1.004e+01,1.258e+01,1.153e+01,1.248e+01,1.462e+01,1.426e+01,1.258e+01,1.287e+01,1.334e+01,1.574e+01,1.495e+01,1.746e+01,1.477e+01,1.183e+01,1.565e+01,1.548e+01,1.688e+01,1.526e+01,1.581e+01,1.661e+01,1.715e+01,1.637e+01,1.588e+01,1.790e+01,1.573e+01,1.594e+01,1.872e+01,1.628e+01,1.726e+01,1.959e+01,1.695e+01,1.946e+01,1.985e+01,1.747e+01,1.685e+01,1.805e+01,1.819e+01,1.577e+01
3.151e-01,4.210e-01,5.129e-01,3.328e-01,8.696e-01,1.425e+00,1.467e+00,1.394e+00,1.825e+00,2.505e+00,3.471e+00,3.191e+00,3.114e+00,3.252e+00,3.680e+00,3.312e+00,4.403e+00,4.626e+00,3.805e+00,4.032e+00,4.270e+00,6.329e+00,4.827e+00,6.688e+00,5.940e+00,6.735e+00,5.810e+00,5.499e+00,7.916e+00,7.008e+00,5.853e+00,6.779e+00,5.982e+00,7.330e+00,7.666e+00,7.161e+00,6.924e+00,5.841e+00,8.876e+00,7.972e+00,8.458e+00,1.055e+01,1.031e+01,9.901e+00,8.554e+00,9.248e+00,8.057e+00,7.239e+00,1.215e+01,1.148e+01,1.259e+01,1.003e+01,1.089e+01,1.226e+01,1.370e+01,1.341e+01,1.160e+01,1.273e+01,1.391e+01,1.249e+01,1.376e+01,1.200e+01,1.124e+01,1.273e+01,1.548e+01,1.370e+01,1.346e+01,1.455e+01,1.339e+01,1.537e+01,1.457e+01,1.439e+01,1.637e+01,1.486e+01,1.416e+01,1.437e+01,1.405e+01,1.554e+01,1.467e+01,1.516e+01,1.751e+01,1.703e+01,1.468e+01,1.479e+01,1.421e+01,1.621e+01,1.451e+01
7.316e-01,1.021e+00,4.206e-01,5.496e-01,1.185e+00,2.103e+00,2.305e+00,9.892e-01,2.157e+00,2.630e+00,3.404e+00,2.997e+00,3.037e+00,3.201e+00,4.594e+00,3.014e+00,4.047e+00,4.225e+00,4.605e+00,3.907e+00,5.116e+00,5.491e+00,5.864e+00,6.157e+00,6.042e+00,6.252e+00,6.125e+00,6.363e+00,7.560e+00,8.476e+00,7.047e+00,6.874e+00,7.384e+00,7.094e+00,6.588e+00,7.592e+00,9.681e+00,7.748e+00,9.853e+00,1.023e+01,1.101e+01,1.075e+01,1.238e+01,1.062e+01,9.635e+00,1.157e+01,8.624e+00,9.910e+00,1.299e+01,1.149e+01,1.114e+01,1.247e+01,1.183e+01,1.415e+01,1.446e+01,1.299e+01,1.445e+01,1.415e+01,1.678e+01,1.491e+01,1.578e+01,1.421e+01,1.255e+01,1.441e+01,1.589e+01,1.575e+01,1.559e+01,1.663e+01,1.638e+01,1.846e+01,1.659e+01,1.621e+01,1.788e+01,1.744e+01,1.757e+01,1.735e+01,1.692e+01,1.770e+01,1.848e+01,1.733e+01,1.933e+01,1.891e+01,1.719e+01,1.906e+01,1.761e+01,1.918e+01,1.605e+01
2.493e-02,4.483e-01,3.945e-01,3.691e-01,7.559e-01,1.564e+00,1.820e+00,1.419e+00,1.973e+00,2.637e+00,3.618e+00,3.814e+00,3.712e+00,3.300e+00,4.089e+00,3.416e+00,4.190e+00,4.645e+00,4.609e+00,4.579e+00,5.210e+00,6.570e+00,5.767e+00,6.829e+00,6.385e+00,6.889e+00,6.272e+00,6.555e+00,9.384e+00,9.227e+00,7.958e+00,7.313e+00,8.616e+00,8.721e+00,8.182e+00,9.487e+00,9.805e+00,8.342e+00,1.044e+01,1.056e+01,1.018e+01,1.160e+01,1.311e+01,1.080e+01,9.809e+00,1.001e+01,9.021e+00,9.757e+00,1.379e+01,1.181e+01,1.394e+01,1.305e+01,1.340e+01,1.413e+01,1.493e+01,1.455e+01,1.339e+01,1.536e+01,1.641e+01,1.459e+01,1.648e+01,1.462e+01,1.211e+01,1.437e+01,1.539e+01,1.683e+01,1.706e+01,1.882e+01,1.762e+01,1.917e+01,1.814e+01,1.689e+01,2.030e+01,1.948e+01,2.004e+01,1.941e+01,1.792e+01,2.019e+01,2.089e+01,1.944e+01,2.312e+01,2.138e+01,2.041e+01,1.935e+01,1.791e+01,1.975e+01,1.865e+01
2.620e-01,6.939e-01,3.727e-01,4.703e-01,9.568e-01,1.950e+00,2.199e+00,1.229e+00,2.609e+00,3.243e+00,3.704e+00,3.854e+00,3.124e+00,3.975e+00,4.599e+00,3.614e+00,4.403e+00,3.973e+00,4.859e+00,4.158e+00,5.747e+00,6.062e+00,6.538e+00,7.713e+00,6.229e+00,6.791e+00,6.141e+00,6.362e+00,7.288e+00,8.363e+00,7.375e+00,6.835e+00,7.572e+00,7.817e+00,6.584e+00,9.700e+00,9.444e+00,8.059e+00,8.850e+00,8.539e+00,1.000e+01,1.086e+01,1.320e+01,1.025e+01,9.727e+00,1.098e+01,9.820e+00,8.427e+00,1.324e+01,1.180e+01,1.208e+01,1.250e+01,1.364e+01,1.336e+01,1.478e+01,1.407e+01,1.399e+01,1.464e+01,1.648e+01,1.452e+01,1.539e+01,1.454e+01,1.210e+01,1.442e+01,1.717e+01,1.666e+01,1.584e+01,1.564e+01,1.539e+01,1.895e+01,1.767e+01,1.719e+01,2.050e+01,1.840e+01,1.801e+01,1.760e+01,1.707e+01,1.958e+01,1.845e+01,1.758e+01,2.147e+01,1.859e+01,1.845e+01,1.812e+01,1.782e+01,1.960e+01,1.867e+01
4.412e-01,2.045e-01,1.585e-01,1.403e-01,7.470e-01,8.744e-01,6.895e-01,1.207e+00,2.512e+00,2.213e+00,2.574e+00,2.779e+00,2.583e+00,3.533e+00,3.878e+00,3.163e+00,3.714e+00,3.192e+00,3.635e+00,3.882e+00,5.312e+00,5.689e+00,6.194e+00,7.430e+00,5.918e+00,6.194e+00,5.248e+00,5.634e+00,6.435e+00,7.004e+00,6.118e+00,6.125e+00,6.842e+00,6.821e+00,7.140e+00,8.417e+00,9.351e+00,7.076e+00,8.752e+00,9.128e+00,9.150e+00,9.265e+00,1.092e+01,8.854e+00,8.550e+00,9.614e+00,7.641e+00,7.421e+00,1.034e+01,8.920e+00,1.098e+01,9.569e+00,1.158e+01,1.218e+01,1.283e+01,1.335e+01,1.159e+01,1.264e+01,1.366e+01,1.288e+01,1.378e+01,1.314e+01,1.041e+01,1.237e+01,1.449e+01,1.411e+01,1.424e+01,1.505e+01,1.376e+01,1.631e+01,1.524e+01,1.489e+01,1.607e+01,1.705e+01,1.519e+01,1.533e+01,1.578e+01,1.595e+01,1.608e+01,1.485e+01,1.689e+01,1.804e+01,1.690e+01,1.713e+01,1.575e+01,1.770e+01,1.521e+01
6.169e-01,3.841e-01,7.062e-01,3.143e-01,1.537e+00,1.799e+00,8.946e-01,1.777e+00,2.350e+00,3.012e+00,3.393e+00,2.771e+00,2.952e+00,3.812e+00,3.326e+00,3.591e+00,4.090e+00,2.792e+00,3.987e+00,3.196e+00,4.330e+00,5.311e+00,5.131e+00,6.983e+00,6.132e+00,5.619e+00,5.616e+00,4.612e+00,6.136e+00,7.423e+00,6.166e+00,5.786e+00,7.385e+00,7.358e+00,6.935e+00,7.806e+00,9.196e+00,7.282e+00,7.554e+00,7.924e+00,8.606e+00,8.350e+00,9.776e+00,9.163e+00,8.819e+00,9.392e+00,7.445e+00,7.401e+00,1.146e+01,8.990e+00,1.208e+01,1.005e+01,1.183e+01,1.184e+01,1.181e+01,1.282e+01,1.125e+01,1.267e+01,1.330e+01,1.270e+01,1.430e+01,1.349e+01,1.024e+01,1.235e+01,1.529e+01,1.454e+01,1.444e+01,1.666e+01,1.484e+01,1.716e+01,1.744e+01,1.462e+01,1.836e+01,1.681e+01,1.724e+01,1.603e+01,1.796e+01,1.780e+01,1.732e+01,1.704e+01,1.785e+01,1.864e+01,1.906e+01,1.698e+01,1.600e+01,1.681e+01,1.789e+01
8.722e-01,5.940e-01,6.862e-01,3.904e-01,1.471e+00,1.895e+00,1.358e+00,1.556e+00,2.704e+00,3.184e+00,3.445e+00,2.913e+00,2.820e+00,3.610e+00,4.317e+00,4.010e+00,4.671e+00,3.909e+00,4.545e+00,4.431e+00,5.345e+00,5.668e+00,5.320e+00,7.219e+00,6.976e+00,6.624e+00,6.056e+00,4.763e+00,6.802e+00,7.239e+00,6.170e+00,5.748e+00,6.063e+00,6.557e+00,7.221e+00,7.413e+00,8.330e+00,7.370e+00,8.331e+00,7.811e+00,9.145e+00,9.584e+00,1.033e+01,9.506e+00,8.711e+00,9.751e+00,7.676e+00,7.292e+00,1.259e+01,1.094e+01,1.213e+01,1.074e+01,1.224e+01,1.225e+01,1.140e+01,1.183e+01,1.189e+01,1.300e+01,1.291e+01,1.245e+01,1.405e+01,1.254e+01,1.033e+01,1.284e+01,1.330e+01,1.332e+01,1.320e+01,1.449e+01,1.427e+01,1.427e+01,1.424e+01,1.487e+01,1.683e+01,1.524e+01,1.596e+01,1.583e+01,1.513e+01,1.646e+01,1.447e+01,1.631e+01,1.907e+01,1.793e+01,1.599e+01,1.733e+01,1.475e+01,1.570e+01,1.652e+01
5.338e-01,8.164e-01,7.246e-01,5.037e-01,1.592e+00,2.321e+00,2.105e+00,1.907e+00,2.224e+00,2.745e+00,3.792e+00,2.270e+00,2.727e+00,3.966e+00,3.751e+00,3.120e+00,4.505e+00,3.981e+00,5.323e+00,3.553e+00,5.230e+00,5.710e+00,6.626e+00,6.419e+00,6.819e+00,6.354e+00,8.073e+00,6.744e+00,7.901e+00,8.864e+00,8.305e+00,7.202e+00,8.418e+00,8.571e+00,7.830e+00,8.589e+00,9.660e+00,7.955e+00,9.381e+00,1.037e+01,1.111e+01,1.183e+01,1.166e+01,1.014e+01,9.769e+00,1.049e+01,9.515e+00,9.636e+00,1.325e+01,1.113e+01,1.252e+01,1.231e+01,1.404e+01,1.393e+01,1.308e+01,1.315e+01,1.294e+01,1.401e+01,1.477e+01,1.394e+01,1.514e+01,1.368e+01,1.245e+01,1.372e+01,1.450e+01,1.439e+01,1.409e+01,1.547e+01,1.498e+01,1.664e+01,1.503e+01,1.448e+01,1.657e+01,1.634e+01,1.690e+01,1.634e+01,1.546e+01,1.593e+01,1.827e+01,1.690e+01,1.981e+01,1.840e+01,1.675e+01,1.668e+01,1.654e+01,1.790e+01,1.632e+01
3.584e-01,5.419e-01,5.001e-01,3.616e-01,1.172e+00,1.709e+00,1.304e+00,1.635e+00,1.963e+00,2.173e+00,2.849e+00,2.036e+00,2.423e+00,3.845e+00,3.444e+00,2.977e+00,3.893e+00,3.767e+00,4.793e+00,3.645e+00,6.218e+00,5.722e+00,7.214e+00,7.531e+00,7.411e+00,6.694e+00,6.496e+00,6.575e+00,8.975e+00,9.527e+00,7.256e+00,7.620e+00,9.430e+00,7.971e+00,9.700e+00,9.577e+00,1.125e+01,9.027e+00,1.004e+01,1.134e+01,1.103e+01,1.186e+01,1.262e+01,1.226e+01,1.014e+01,1.238e+01,1.074e+01,1.034e+01,1.460e+01,1.177e+01,1.395e+01,1.320e+01,1.391e+01,1.478e+01,1.476e+01,1.582e+01,1.350e+01,1.564e+01,1.677e+01,1.561e+01,1.671e+01,1.610e+01,1.362e+01,1.498e+01,1.709e+01,1.653e+01,1.551e+01,1.705e+01,1.625e+01,1.824e+01,1.564e+01,1.549e+01,1.905e+01,1.815e+01,1.922e+01,1.917e+01,1.880e+01,1.689e+01,1.931e+01,1.850e+01,2.080e+01,2.055e+01,2.073e+01,1.821e+01,1.861e+01,1.866e+01,1.989e+01
8.580e-01,4.817e-01,6.979e-01,3.130e-01,1.393e+00,1.625e+00,1.465e+00,1.100e+00,2.040e+00,2.866e+00,3.088e+00,3.467e+00,3.381e+00,3.143e+00,4.145e+00,3.095e+00,2.916e+00,2.805e+00,3.706e+00,3.904e+00,4.385e+00,5.772e+00,5.481e+00,7.008e+00,7.148e+00,7.563e+00,6.185e+00,5.651e+00,8.222e+00,8.887e+00,8.218e+00,6.842e+00,8.784e+00,7.595e+00,8.169e+00,9.621e+00,1.031e+01,8.271e+00,8.824e+00,9.746e+00,1.038e+01,1.017e+01,1.177e+01,1.117e+01,1.007e+01,1.063e+01,1.014e+01,9.368e+00,1.435e+01,1.122e+01,1.217e+01,1.220e+01,1.260e+01,1.285e+01,1.514e+01,1.466e+01,1.334e+01,1.524e+01,1.493e+01,1.505e+01,1.545e+01,1.500e+01,1.267e+01,1.468e+01,1.500e+01,1.667e+01,1.649e+01,1.780e+01,1.692e+01,1.884e+01,1.629e+01,1.714e+01,2.059e+01,1.816e+01,2.013e+01,1.903e+01,1.945e+01,1.999e+01,1.976e+01,1.885e+01,2.216e+01,2.079e+01,2.090e+01,2.071e+01,1.792e+01,1.953e+01,1.997e+01
3.565e-02,3.172e-01,2.156e-01,2.595e-01,7.528e-01,1.268e+00,1.682e+00,1.361e+00,1.861e+00,2.094e+00,3.113e+00,2.537e+00,2.990e+00,3.382e+00,3.083e+00,2.947e+00,4.225e+00,4.442e+00,4.675e+00,4.205e+00,5.897e+00,7.088e+00,7.313e+00,8.011e+00,6.164e+00,7.043e+00,6.469e+00,6.332e+00,8.678e+00,8.489e+00,7.243e+00,8.652e+00,9.053e+00,8.172e+00,8.722e+00,9.662e+00,1.041e+01,8.589e+00,9.996e+00,9.941e+00,1.022e+01,1.168e+01,1.288e+01,1.197e+01,9.853e+00,1.083e+01,1.016e+01,1.012e+01,1.542e+01,1.296e+01,1.385e+01,1.341e+01,1.396e+01,1.586e+01,1.446e+01,1.446e+01,1.354e+01,1.619e+01,1.608e+01,1.595e+01,1.754e+01,1.379e+01,1.319e+01,1.625e+01,1.723e+01,1.734e+01,1.770e+01,1.834e+01,1.856e+01,1.895e+01,1.837e+01,1.871e+01,2.160e+01,1.933e+01,2.077e+01,2.022e+01,2.086e+01,2.145e+01,2.389e+01,1.962e+01,2.399e+01,2.186e+01,2.182e+01,1.981e+01,2.122e+01,2.179e+01,2.179e+01
3.308e-01,5.156e-01,5.669e-01,3.296e-01,1.124e+00,1.610e+00,1.826e+00,1.301e+00,1.644e+00,2.367e+00,3.095e+00,2.854e+00,3.069e+00,3.858e+00,4.010e+00,3.471e+00,5.043e+00,4.246e+00,4.832e+00,4.134e+00,6.173e+00,7.172e+00,7.010e+00,8.129e+00,8.189e+00,8.261e+00,7.951e+00,6.670e+00,9.352e+00,9.746e+00,6.994e+00,7.008e+00,8.015e+00,7.880e+00,9.880e+00,8.913e+00,9.889e+00,7.203e+00,9.241e+00,1.020e+01,9.797e+00,1.189e+01,1.039e+01,1.104e+01,8.407e+00,1.044e+01,9.890e+00,7.514e+00,1.399e+01,1.131e+01,1.264e+01,1.130e+01,1.315e+01,1.376e+01,1.336e+01,1.436e+01,1.254e+01,1.434e+01,1.537e+01,1.325e+01,1.503e+01,1.299e+01,1.242e+01,1.425e+01,1.554e+01,1.536e+01,1.524e+01,1.656e+01,1.630e+01,1.605e+01,1.553e+01,1.605e+01,1.933e+01,1.680e+01,1.740e+01,2.006e+01,1.692e+01,1.798e+01,1.873e+01,1.769e+01,2.135e+01,2.082e+01,1.858e+01,2.010e+01,1.795e+01,1.926e+01,1.891e+01
7.097e-01,8.547e-01,4.355e-01,5.333e-01,1.507e+00,2.353e+00,2.265e+00,1.777e+00,3.298e+00,3.651e+00,4.261e+00,3.508e+00,3.790e+00,4.795e+00,4.680e+00,3.864e+00,4.916e+00,4.887e+00,5.279e+00,4.661e+00,5.776e+00,6.460e+00,6.924e+00,8.156e+00,7.306e+00,7.567e+00,7.015e+00,6.627e+00,9.308e+00,9.733e+00,8.299e+00,8.031e+00,9.896e+00,9.257e+00,8.387e+00,1.073e+01,1.118e+01,9.197e+00,1.240e+01,1.176e+01,1.291e+01,1.287e+01,1.420e+01,1.214e+01,1.170e+01,1.356e+01,1.104e+01,1.141e+01,1.618e+01,1.392e+01,1.379e+01,1.460e+01,1.566e+01,1.638e+01,1.657e+01,1.661e+01,1.542e+01,1.747e+01,1.756e+01,1.661e+01,1.761e+01,1.779e+01,1.391e+01,1.656e+01,1.754e+01,1.798e+01,1.794e+01,2.031e+01,1.955e+01,2.146e+01,1.923e+01,1.933e+01,2.340e+01,2.192e+01,2.249e+01,2.103e+01,2.163e+01,2.130e+01,2.309e+01,2.182e+01,2.536e+01,2.546e+01,2.256e+01,2.213e+01,2.174e+01,2.309e+01,2.283e+01
4.087e-01,2.103e-01,1.417e-01,1.795e-01,8.465e-01,1.097e+00,9.658e-01,1.601e+00,3.262e+00,2.848e+00,3.045e+00,2.638e+00,2.379e+00,3.687e+00,4.361e+00,3.910e+00,4.335e+00,4.380e+00,3.984e+00,4.525e+00,5.853e+00,5.392e+00,6.508e+00,7.433e+00,6.011e+00,6.600e+00,6.242e+00,6.094e+00,7.416e+00,7.720e+00,8.018e+00,7.522e+00,8.414e+00,7.985e+00,6.703e+00,9.283e+00,1.009e+01,8.126e+00,9.738e+00,1.025e+01,1.045e+01,1.118e+01,1.394e+01,1.133e+01,1.095e+01,1.141e+01,9.204e+00,1.029e+01,1.488e+01,1.309e+01,1.467e+01,1.336e+01,1.482e+01,1.416e+01,1.523e+01,1.475e+01,1.385e+01,1.508e+01,1.567e+01,1.529e+01,1.505e+01,1.522e+01,1.280e+01,1.420e+01,1.566e+01,1.474e+01,1.590e+01,1.739e+01,1.760e+01,1.803e+01,1.816e+01,1.662e+01,1.884e+01,1.988e+01,2.090e+01,1.899e+01,1.959e+01,1.903e+01,2.028e+01,2.066e+01,2.372e+01,2.224e+01,2.111e+01,2.114e+01,2.006e+01,2.128e+01,2.101e+01
2.157e-01,2.294e-01,5.164e-01,2.851e-01,1.377e+00,1.833e+00,1.615e+00,2.188e+00,3.386e+00,3.589e+00,3.989e+00,4.091e+00,3.801e+00,4.469e+00,4.762e+00,3.777e+00,5.522e+00,5.277e+00,4.579e+00,4.832e+00,5.352e+00,7.273e+00,5.959e+00,7.805e+00,6.735e+00,7.678e+00,6.439e+00,6.713e+00,8.375e+00,9.495e+00,7.061e+00,7.218e+00,9.047e+00,8.599e+00,7.623e+00,9.932e+00,1.074e+01,8.811e+00,1.005e+01,9.666e+00,1.148e+01,1.137e+01,1.361e+01,1.083e+01,1.104e+01,1.235e+01,1.119e+01,1.034e+01,1.558e+01,1.184e+01,1.397e+01,1.397e+01,1.396e+01,1.516e+01,1.651e+01,1.619e+01,1.296e+01,1.593e+01,1.720e+01,1.516e+01,1.748e+01,1.644e+01,1.249e+01,1.612e+01,1.749e+01,1.750e+01,1.736e+01,1.818e+01,1.756e+01,1.877e+01,1.827e+01,1.843e+01,2.169e+01,2.052e+01,2.014e+01,2.158e+01,2.052e+01,2.079e+01,2.238e+01,2.094e+01,2.385e+01,2.456e+01,2.204e+01,2.187e+01,2.181e+01,2.173e+01,2.068e+01
7.706e-01,3.698e-01,5.746e-01,2.856e-01,1.607e+00,1.761e+00,1.519e+00,1.660e+00,2.773e+00,3.191e+00,3.579e+00,2.701e+00,2.967e+00,4.098e+00,4.174e+00,4.399e+00,5.729e+00,4.815e+00,4.969e+00,3.985e+00,6.278e+00,7.302e+00,6.973e+00,9.496e+00,8.164e+00,8.230e+00,8.625e+00,6.737e+00,9.379e+00,1.150e+01,8.950e+00,8.518e+00,1.041e+01,9.319e+00,9.952e+00,1.106e+01,1.373e+01,9.490e+00,1.098e+01,1.207e+01,1.348e+01,1.247e+01,1.378e+01,1.371e+01,1.109e+01,1.408e+01,1.186e+01,1.115e+01,1.697e+01,1.345e+01,1.558e+01,1.359e+01,1.525e+01,1.787e+01,1.671e+01,1.671e+01,1.538e+01,1.780e+01,1.735e+01,1.721e+01,1.833e+01,1.700e+01,1.426e+01,1.668e+01,1.839e+01,1.827e+01,1.963e+01,2.062e+01,1.955e+01,2.017e+01,1.889e+01,1.790e+01,2.233e+01,2.112e+01,2.058e+01,2.260e+01,2.039e+01,2.105e+01,2.134e+01,2.234e+01,2.778e+01,2.767e+01,2.496e+01,2.268e+01,2.262e+01,2.365e+01,2.356e+01
5.625e-01,9.032e-01,3.232e-01,5.327e-01,1.077e+00,2.087e+00,2.351e+00,1.516e+00,3.145e+00,3.626e+00,4.366e+00,3.359e+00,3.351e+00,4.264e+00,4.648e+00,4.269e+00,5.122e+00,4.710e+00,5.290e+00,5.179e+00,6.636e+00,6.964e+00,7.777e+00,8.719e+00,7.611e+00,7.586e+00,7.717e+00,6.771e+00,9.189e+00,9.560e+00,8.697e+00,8.291e+00,9.519e+00,8.578e+00,8.469e+00,1.080e+01,9.825e+00,8.619e+00,1.119e+01,9.948e+00,1.103e+01,1.164e+01,1.282e+01,1.198e+01,1.096e+01,1.085e+01,9.455e+00,9.888e+00,1.428e+01,1.282e+01,1.468e+01,1.303e+01,1.488e+01,1.385e+01,1.506e+01,1.483e+01,1.364e+01,1.566e+01,1.588e+01,1.379e+01,1.639e+01,1.474e+01,1.327e+01,1.504e+01,1.604e+01,1.551e+01,1.592e+01,1.772e+01,1.675e+01,1.807e+01,1.805e+01,1.650e+01,2.064e+01,1.933e+01,2.026e+01,2.017e+01,1.998e+01,2.047e+01,2.223e+01,2.119e+01,2.409e+01,2.520e+01,2.455e+01,2.195e+01,2.091e+01,2.229e+01,2.417e+01
9.086e-02,7.079e-01,2.686e-01,4.319e-01,7.960e-01,1.762e+00,2.071e+00,1.755e+00,2.808e+00,2.706e+00,3.634e+00,3.220e+00,2.956e+00,4.188e+00,4.369e+00,3.434e+00,5.217e+00,4.511e+00,5.231e+00,4.413e+00,6.513e+00,7.487e+00,8.206e+00,8.690e+00,7.364e+00,7.111e+00,6.809e+00,7.200e+00,8.618e+00,9.340e+00,8.386e+00,7.967e+00,9.116e+00,8.412e+00,9.244e+00,1.037e+01,9.890e+00,8.914e+00,1.069e+01,1.006e+01,1.053e+01,1.123e+01,1.211e+01,1.066e+01,9.550e+00,1.041e+01,9.218e+00,8.678e+00,1.271e+01,1.095e+01,1.281e+01,1.319e+01,1.394e+01,1.365e+01,1.377e+01,1.461e+01,1.338e+01,1.549e+01,1.614e+01,1.401e+01,1.679e+01,1.345e+01,1.204e+01,1.476e+01,1.581e+01,1.535e+01,1.801e+01,1.706e+01,1.691e+01,1.802e+01,1.781e+01,1.712e+01,2.004e+01,2.013e+01,2.044e+01,2.012e+01,1.939e+01,1.970e+01,2.099e+01,2.020e+01,2.284e+01,2.363e+01,2.159e+01,2.211e+01,2.226e+01,2.321e+01,2.323e+01
9.093e-01,6.614e-01,7.032e-01,3.906e-01,1.621e+00,1.943e+00,1.157e+00,1.301e+00,2.005e+00,2.715e+00,2.998e+00,3.027e+00,3.380e+00,4.695e+00,4.544e+00,4.190e+00,4.971e+00,4.226e+00,5.509e+00,4.540e+00,7.906e+00,7.537e+00,8.114e+00,8.907e+00,8.520e+00,9.001e+00,7.871e+00,7.270e+00,8.294e+00,9.774e+00,7.177e+00,7.253e+00,9.497e+00,9.025e+00,8.379e+00,8.960e+00,1.091e+01,9.333e+00,9.903e+00,1.198e+01,1.120e+01,1.222e+01,1.349e+01,1.244e+01,1.079e+01,1.249e+01,1.077e+01,1.072e+01,1.543e+01,1.226e+01,1.345e+01,1.379e+01,1.292e+01,1.511e+01,1.573e+01,1.597e+01,1.459e+01,1.699e+01,1.692e+01,1.585e+01,1.672e+01,1.479e+01,1.539e+01,1.668e+01,1.852e+01,1.774e+01,1.693e+01,1.771e+01,1.680e+01,1.965e+01,1.822e+01,1.826e+01,2.023e+01,2.051e+01,2.111e+01,2.153e+01,2.094e+01,2.155e+01,2.192e+01,2.089e+01,2.577e+01,2.407e+01,2.335e+01,2.286e+01,2.417e+01,2.372e+01,2.277e+01
4.091e-02,2.741e-01,4.635e-01,2.701e-01,8.058e-01,1.337e+00,1.387e+00,1.803e+00,2.234e+00,2.321e+00,3.178e+00,2.900e+00,2.490e+00,4.060e+00,4.275e+00,3.521e+00,5.244e+00,5.259e+00,4.774e+00,3.830e+00,5.442e+00,6.402e+00,6.126e+00,7.549e+00,6.733e+00,7.257e+00,6.781e+00,7.560e+00,8.251e+00,9.480e+00,7.761e+00,7.762e+00,9.100e+00,9.082e+00,8.354e+00,9.575e+00,1.065e+01,8.794e+00,1.029e+01,1.145e+01,1.210e+01,1.217e+01,1.304e+01,1.111e+01,1.128e+01,1.314e+01,1.094e+01,1.150e+01,1.647e+01,1.301e+01,1.437e+01,1.491e+01,1.533e+01,1.624e+01,1.568e+01,1.565e+01,1.546e+01,1.714e+01,1.999e+01,1.677e+01,1.702e+01,1.502e+01,1.304e+01,1.657e+01,1.933e+01,1.671e+01,1.691e+01,1.866e+01,1.849e+01,2.025e+01,1.920e+01,1.956e+01,2.171e+01,2.040e+01,2.056e+01,2.087e+01,1.996e+01,2.127e+01,2.067e+01,2.205e+01,2.440e+01,2.391e+01,2.120e+01,2.402e+01,2.134e+01,2.477e+01,2.349e+01
1.873e-01,3.988e-01,3.637e-01,3.434e-01,9.859e-01,1.638e+00,1.114e+00,1.828e+00,2.691e+00,2.708e+00,3.180e+00,2.445e+00,2.251e+00,3.520e+00,3.556e+00,3.144e+00,4.366e+00,4.394e+00,4.100e+00,3.383e+00,4.829e+00,5.447e+00,5.943e+00,6.726e+00,6.060e+00,5.436e+00,6.026e+00,5.627e+00,6.674e+00,7.582e+00,6.348e+00,6.940e+00,7.947e+00,7.576e+00,6.647e+00,8.174e+00,8.714e+00,7.509e+00,7.770e+00,8.110e+00,1.039e+01,8.694e+00,1.067e+01,8.959e+00,9.717e+00,1.073e+01,8.726e+00,8.304e+00,1.127e+01,9.881e+00,1.172e+01,1.144e+01,1.366e+01,1.267e+01,1.301e+01,1.330e+01,1.124e+01,1.412e+01,1.464e+01,1.322e+01,1.424e+01,1.273e+01,1.204e+01,1.280e+01,1.504e+01,1.349e+01,1.486e+01,1.667e+01,1.364e+01,1.564e+01,1.527e+01,1.450e+01,1.736e+01,1.681e+01,1.696e+01,1.685e+01,1.680e+01,1.824e+01,1.778e+01,1.679e+01,2.017e+01,2.116e+01,1.913e+01,1.866e+01,1.934e+01,1.966e+01,2.134e+01
