3.178e-01,6.732e-01,2.530e-01,4.214e-01,1.829e-01,2.191e-01,9.164e-01,3.635e-01,8.570e-02,9.206e-01,4.345e-01,3.773e-01,2.360e-01,4.604e-01,8.759e-01,1.659e-01,1.969e-01,5.379e-01,6.935e-01,6.051e-01,2.421e-01,4.287e-01,5.898e-01,7.674e-01,6.285e-01,3.493e-01,3.928e-02,5.476e-01,1.704e-01,8.620e-01,9.457e-02,7.189e-01,1.044e-01,6.045e-01,1.881e-01,4.288e-01,8.165e-02,6.842e-01,1.790e-01,2.208e-01,3.567e-01,4.856e-01,2.027e-01,5.779e-01,4.949e-01,4.198e-01,9.337e-01,8.179e-01,8.812e-01,8.445e-01,6.541e-01,6.318e-01,4.355e-01,5.098e-01,9.905e-01,9.371e-01,6.133e-01,9.523e-01,4.136e-01,3.762e-01,4.595e-01,5.524e-01,9.620e-01,9.927e-01
1.603e-01,6.059e-01,3.394e-01,7.335e-01,9.183e-01,8.567e-01,6.414e-01,9.414e-01,8.210e-01,5.504e-01,5.766e-01,8.878e-01,1.807e-01,6.923e-01,6.023e-01,6.300e-01,3.837e-01,1.255e+00,7.541e-01,5.162e-01,4.354e-01,7.776e-01,6.032e-01,6.344e-01,8.191e-01,1.037e+00,1.018e+00,9.862e-01,5.966e-01,1.301e+00,1.031e+00,1.073e+00,2.999e-01,9.656e-01,6.079e-01,3.832e-01,2.621e-01,6.298e-01,3.930e-01,8.449e-01,1.152e+00,6.044e-01,9.872e-01,6.957e-01,4.623e-01,1.096e+00,4.822e-01,8.701e-01,1.271e+00,1.413e+00,4.658e-01,1.317e+00,7.858e-01,6.774e-01,8.551e-01,6.333e-01,1.254e+00,1.086e+00,9.787e-01,3.821e-01,3.785e-01,3.985e-01,5.236e-01,1.472e+00
8.296e-02,2.507e-01,9.461e-01,6.700e-01,6.464e-01,9.195e-01,4.480e-01,4.051e-01,4.898e-01,2.846e-01,1.132e+00,7.062e-01,7.899e-01,4.063e-01,7.471e-01,3.996e-01,4.743e-01,8.013e-01,1.277e+00,9.255e-01,9.251e-01,6.936e-01,1.016e+00,9.613e-01,8.553e-01,7.893e-01,7.717e-01,6.998e-01,8.703e-01,8.332e-01,1.017e+00,1.254e+00,1.040e+00,4.862e-01,5.412e-01,8.605e-01,9.349e-01,1.047e+00,4.625e-01,1.244e+00,8.622e-01,5.690e-01,1.172e+00,1.037e+00,7.260e-01,1.190e+00,9.073e-01,1.165e+00,6.346e-01,9.941e-01,9.209e-01,1.305e+00,9.660e-01,1.228e+00,4.683e-01,1.284e+00,1.374e+00,1.271e+00,7.876e-01,7.113e-01,3.376e-01,9.350e-01,1.063e+00,9.748e-01
3.119e-01,7.172e-01,7.358e-01,1.102e+00,5.870e-01,9.877e-01,1.870e+00,9.382e-01,3.858e-01,1.796e+00,1.090e+00,9.927e-01,1.275e+00,1.242e+00,2.094e+00,9.320e-01,1.032e+00,1.377e+00,1.918e+00,1.737e+00,1.178e+00,8.244e-01,1.478e+00,1.305e+00,1.428e+00,1.410e+00,1.004e+00,1.216e+00,1.363e+00,1.609e+00,1.036e+00,1.446e+00,8.128e-01,8.862e-01,7.851e-01,1.466e+00,6.245e-01,1.484e+00,7.352e-01,9.674e-01,1.490e+00,1.668e+00,1.701e+00,2.037e+00,1.092e+00,1.682e+00,1.627e+00,1.804e+00,2.031e+00,1.567e+00,1.481e+00,1.439e+00,9.467e-01,1.759e+00,1.904e+00,2.260e+00,1.855e+00,2.162e+00,8.469e-01,1.041e+00,7.753e-01,1.678e+00,2.049e+00,2.105e+00
1.712e-01,5.735e-01,3.215e-01,6.677e-01,1.081e+00,1.178e+00,1.339e+00,1.500e+00,9.142e-01,1.135e+00,1.323e+00,1.477e+00,8.520e-01,1.369e+00,1.331e+00,1.503e+00,8.302e-01,1.704e+00,1.698e+00,8.474e-01,4.635e-01,1.144e+00,1.303e+00,9.480e-01,1.624e+00,1.108e+00,9.053e-01,1.187e+00,9.492e-01,1.681e+00,1.088e+00,1.576e+00,4.821e-01,1.287e+00,1.260e+00,7.376e-01,5.226e-01,1.047e+00,6.631e-01,1.180e+00,1.701e+00,1.161e+00,1.456e+00,1.324e+00,1.085e+00,1.750e+00,1.540e+00,1.486e+00,1.497e+00,1.646e+00,1.244e+00,1.846e+00,1.644e+00,1.036e+00,1.304e+00,1.244e+00,1.787e+00,1.535e+00,1.034e+00,1.065e+00,8.121e-01,9.675e-01,1.309e+00,2.312e+00
9.870e-02,2.493e-01,3.767e-01,4.146e-01,4.662e-01,7.532e-01,9.152e-01,1.289e+00,6.784e-01,1.105e+00,1.417e+00,1.493e+00,1.694e+00,7.911e-01,1.497e+00,1.486e+00,1.462e+00,1.701e+00,1.758e+00,1.391e+00,1.298e+00,1.098e+00,1.089e+00,1.468e+00,1.263e+00,9.977e-01,8.756e-01,1.282e+00,1.420e+00,1.555e+00,1.196e+00,1.194e+00,6.363e-01,1.185e+00,1.352e+00,8.772e-01,5.022e-01,1.397e+00,5.948e-01,8.540e-01,1.039e+00,1.045e+00,1.656e+00,1.580e+00,1.428e+00,1.423e+00,1.308e+00,1.548e+00,1.382e+00,1.751e+00,1.618e+00,1.421e+00,1.408e+00,1.822e+00,7.898e-01,2.038e+00,1.114e+00,1.806e+00,5.603e-01,8.743e-01,1.409e+00,1.415e+00,1.707e+00,1.765e+00
7.624e-02,1.839e-01,8.929e-01,6.375e-01,6.903e-01,1.167e+00,1.134e+00,1.640e+00,1.025e+00,1.719e+00,2.602e+00,1.745e+00,2.403e+00,1.662e+00,1.804e+00,2.345e+00,1.892e+00,2.567e+00,2.528e+00,1.953e+00,1.965e+00,1.576e+00,2.566e+00,1.873e+00,2.031e+00,1.385e+00,1.805e+00,1.331e+00,1.919e+00,2.392e+00,1.560e+00,1.704e+00,1.504e+00,1.971e+00,1.618e+00,1.346e+00,1.820e+00,1.735e+00,1.078e+00,2.145e+00,2.188e+00,1.412e+00,2.412e+00,2.203e+00,1.627e+00,2.391e+00,1.879e+00,2.232e+00,2.175e+00,1.841e+00,2.839e+00,2.141e+00,2.630e+00,2.790e+00,1.139e+00,3.384e+00,1.749e+00,2.368e+00,1.167e+00,1.461e+00,2.208e+00,1.865e+00,2.500e+00,2.893e+00
1.249e-01,3.815e-01,7.294e-01,9.054e-01,9.011e-01,1.329e+00,1.558e+00,2.382e+00,1.577e+00,1.668e+00,2.312e+00,2.016e+00,2.736e+00,1.925e+00,2.221e+00,2.638e+00,1.915e+00,2.084e+00,2.743e+00,2.402e+00,2.193e+00,1.590e+00,2.342e+00,2.118e+00,2.219e+00,2.427e+00,1.939e+00,1.542e+00,2.177e+00,1.873e+00,2.369e+00,2.103e+00,2.025e+00,2.178e+00,2.083e+00,1.776e+00,1.073e+00,2.111e+00,9.306e-01,2.111e+00,2.079e+00,2.643e+00,2.957e+00,2.340e+00,1.896e+00,2.791e+00,1.932e+00,2.615e+00,2.061e+00,2.434e+00,2.171e+00,2.127e+00,1.946e+00,2.374e+00,2.266e+00,2.684e+00,2.735e+00,3.015e+00,1.158e+00,2.213e+00,1.922e+00,2.317e+00,2.496e+00,2.872e+00
1.397e-01,3.671e-01,2.054e-01,6.154e-01,5.379e-01,8.116e-01,1.564e+00,1.905e+00,1.797e+00,2.826e+00,2.466e+00,2.402e+00,2.668e+00,2.442e+00,2.133e+00,2.587e+00,2.375e+00,2.805e+00,2.927e+00,2.609e+00,2.124e+00,1.929e+00,2.270e+00,1.624e+00,1.973e+00,2.221e+00,1.589e+00,1.179e+00,1.631e+00,2.387e+00,1.738e+00,1.837e+00,1.804e+00,1.970e+00,1.963e+00,1.795e+00,1.274e+00,1.860e+00,1.226e+00,1.868e+00,2.472e+00,2.131e+00,2.466e+00,1.862e+00,1.443e+00,2.718e+00,2.351e+00,2.623e+00,2.809e+00,2.647e+00,2.349e+00,2.296e+00,2.421e+00,2.506e+00,2.940e+00,2.682e+00,2.332e+00,3.085e+00,1.715e+00,2.082e+00,2.751e+00,2.464e+00,2.355e+00,3.174e+00
1.224e-01,5.254e-01,3.445e-01,8.443e-01,1.145e+00,1.350e+00,1.437e+00,3.010e+00,2.422e+00,2.880e+00,3.162e+00,3.846e+00,3.473e+00,3.059e+00,2.530e+00,3.958e+00,2.830e+00,4.337e+00,3.429e+00,3.289e+00,3.095e+00,3.060e+00,3.534e+00,2.344e+00,3.216e+00,3.031e+00,2.820e+00,2.486e+00,3.011e+00,3.492e+00,3.380e+00,3.260e+00,2.120e+00,3.622e+00,3.557e+00,2.165e+00,1.707e+00,2.881e+00,1.927e+00,3.414e+00,3.125e+00,2.984e+00,3.959e+00,2.411e+00,2.841e+00,3.544e+00,2.090e+00,3.587e+00,3.595e+00,4.425e+00,2.929e+00,3.241e+00,3.229e+00,3.649e+00,3.034e+00,3.748e+00,3.507e+00,3.668e+00,2.307e+00,3.085e+00,3.997e+00,2.464e+00,2.802e+00,4.466e+00
1.684e-01,5.467e-01,1.087e+00,1.108e+00,1.149e+00,1.553e+00,1.311e+00,2.067e+00,1.677e+00,2.117e+00,3.438e+00,3.101e+00,2.960e+00,2.495e+00,2.315e+00,3.162e+00,2.151e+00,3.747e+00,3.211e+00,3.688e+00,3.284e+00,3.310e+00,4.157e+00,2.618e+00,3.443e+00,2.971e+00,3.128e+00,2.957e+00,2.731e+00,3.177e+00,2.795e+00,3.069e+00,2.688e+00,3.205e+00,2.673e+00,2.158e+00,2.525e+00,3.087e+00,1.860e+00,3.243e+00,3.104e+00,2.898e+00,3.759e+00,3.037e+00,2.800e+00,3.703e+00,2.791e+00,3.397e+00,3.775e+00,3.482e+00,2.910e+00,3.845e+00,3.080e+00,3.784e+00,2.590e+00,4.631e+00,3.859e+00,4.186e+00,2.855e+00,2.670e+00,2.956e+00,2.434e+00,3.558e+00,4.510e+00
3.837e-02,2.830e-01,7.885e-01,8.090e-01,1.084e+00,1.368e+00,9.493e-01,2.625e+00,2.081e+00,1.865e+00,3.160e+00,3.571e+00,3.035e+00,3.206e+00,2.055e+00,4.195e+00,2.471e+00,4.045e+00,2.901e+00,3.377e+00,3.154e+00,3.447e+00,4.339e+00,2.899e+00,3.459e+00,3.334e+00,3.304e+00,2.893e+00,3.233e+00,3.677e+00,3.808e+00,2.824e+00,3.289e+00,4.016e+00,2.803e+00,2.378e+00,2.762e+00,3.321e+00,1.695e+00,4.240e+00,3.025e+00,3.255e+00,4.496e+00,2.918e+00,2.653e+00,3.405e+00,1.930e+00,3.927e+00,3.288e+00,3.307e+00,3.039e+00,3.552e+00,3.277e+00,3.834e+00,2.363e+00,4.482e+00,3.966e+00,3.558e+00,2.925e+00,3.023e+00,3.474e+00,2.400e+00,3.245e+00,4.650e+00
1.721e-01,3.942e-01,9.295e-01,6.808e-01,6.542e-01,1.009e+00,1.004e+00,1.237e+00,1.049e+00,1.854e+00,2.899e+00,2.564e+00,2.351e+00,2.307e+00,2.035e+00,3.462e+00,1.839e+00,3.707e+00,3.280e+00,3.534e+00,3.530e+00,2.866e+00,4.136e+00,2.547e+00,3.523e+00,2.125e+00,2.387e+00,2.897e+00,2.691e+00,3.181e+00,2.760e+00,2.999e+00,2.407e+00,3.017e+00,2.460e+00,2.364e+00,2.504e+00,3.103e+00,1.731e+00,3.589e+00,3.245e+00,2.241e+00,3.010e+00,2.915e+00,2.732e+00,3.511e+00,3.015e+00,3.419e+00,3.308e+00,2.753e+00,3.324e+00,3.043e+00,3.180e+00,3.300e+00,2.044e+00,4.811e+00,4.070e+00,3.342e+00,3.063e+00,3.067e+00,3.609e+00,2.794e+00,3.944e+00,3.629e+00
1.764e-01,4.182e-01,2.397e-01,6.845e-01,5.777e-01,9.557e-01,1.982e+00,2.213e+00,1.413e+00,3.149e+00,2.888e+00,3.422e+00,3.189e+00,3.401e+00,3.286e+00,4.336e+00,2.632e+00,4.810e+00,3.918e+00,4.259e+00,3.429e+00,3.169e+00,4.981e+00,2.464e+00,3.782e+00,3.596e+00,2.886e+00,2.976e+00,3.259e+00,4.159e+00,3.408e+00,3.648e+00,2.793e+00,3.875e+00,3.941e+00,3.179e+00,2.161e+00,3.897e+00,2.488e+00,3.810e+00,3.261e+00,3.603e+00,4.381e+00,3.488e+00,3.541e+00,3.710e+00,3.280e+00,4.127e+00,4.658e+00,3.392e+00,3.562e+00,3.741e+00,3.569e+00,3.762e+00,4.204e+00,5.068e+00,4.229e+00,3.742e+00,2.807e+00,3.335e+00,3.741e+00,3.697e+00,3.786e+00,5.055e+00
2.206e-01,5.736e-01,6.589e-01,1.040e+00,6.705e-01,1.074e+00,1.708e+00,2.456e+00,2.115e+00,3.213e+00,3.162e+00,2.949e+00,3.546e+00,2.909e+00,3.580e+00,4.094e+00,3.013e+00,4.471e+00,3.849e+00,4.763e+00,4.201e+00,2.732e+00,3.986e+00,3.455e+00,3.900e+00,4.110e+00,4.011e+00,3.321e+00,3.463e+00,4.152e+00,3.304e+00,3.289e+00,3.672e+00,3.531e+00,3.802e+00,3.327e+00,2.475e+00,3.845e+00,2.160e+00,3.932e+00,4.238e+00,3.260e+00,3.958e+00,3.892e+00,2.512e+00,4.740e+00,3.376e+00,3.821e+00,4.330e+00,4.264e+00,3.896e+00,3.421e+00,3.298e+00,4.574e+00,4.177e+00,5.235e+00,4.384e+00,4.885e+00,3.158e+00,2.968e+00,4.750e+00,3.725e+00,4.121e+00,4.627e+00
2.197e-01,5.184e-01,3.653e-01,7.984e-01,5.867e-01,1.004e+00,1.937e+00,2.418e+00,1.321e+00,2.645e+00,2.561e+00,3.020e+00,3.301e+00,2.638e+00,3.541e+00,4.570e+00,2.958e+00,4.434e+00,3.805e+00,5.099e+00,4.101e+00,3.277e+00,5.134e+00,3.065e+00,4.682e+00,4.144e+00,3.448e+00,4.130e+00,3.940e+00,4.387e+00,3.879e+00,4.632e+00,2.834e+00,3.738e+00,4.962e+00,3.796e+00,1.804e+00,4.032e+00,2.568e+00,3.644e+00,3.542e+00,4.540e+00,4.443e+00,4.471e+00,4.520e+00,4.615e+00,3.604e+00,4.396e+00,4.019e+00,4.628e+00,3.872e+00,3.630e+00,3.753e+00,4.160e+00,4.729e+00,5.547e+00,4.755e+00,4.358e+00,2.879e+00,3.485e+00,3.601e+00,4.294e+00,4.142e+00,4.754e+00
2.279e-01,4.876e-01,7.076e-01,8.724e-01,6.900e-01,1.242e+00,2.134e+00,2.778e+00,2.191e+00,3.628e+00,4.317e+00,4.269e+00,4.480e+00,3.925e+00,4.105e+00,5.749e+00,4.291e+00,6.584e+00,5.606e+00,6.836e+00,6.229e+00,5.068e+00,6.856e+00,5.056e+00,5.876e+00,5.327e+00,4.861e+00,4.950e+00,5.005e+00,5.819e+00,5.063e+00,5.966e+00,5.249e+00,5.168e+00,5.727e+00,5.369e+00,4.210e+00,5.698e+00,3.604e+00,5.960e+00,5.436e+00,5.659e+00,5.879e+00,6.216e+00,5.228e+00,6.077e+00,5.497e+00,6.599e+00,5.442e+00,6.242e+00,5.328e+00,6.147e+00,6.070e+00,5.738e+00,6.418e+00,8.158e+00,7.012e+00,6.523e+00,4.541e+00,4.639e+00,5.087e+00,6.048e+00,6.511e+00,6.654e+00
7.650e-02,3.635e-01,3.861e-01,9.326e-01,7.980e-01,1.106e+00,1.338e+00,2.344e+00,1.682e+00,2.012e+00,2.415e+00,2.638e+00,2.863e+00,2.308e+00,2.854e+00,4.214e+00,3.110e+00,5.618e+00,4.501e+00,5.851e+00,5.471e+00,4.086e+00,4.717e+00,4.409e+00,4.185e+00,4.829e+00,5.508e+00,5.096e+00,4.527e+00,4.539e+00,5.092e+00,4.211e+00,3.598e+00,4.076e+00,5.332e+00,3.969e+00,3.271e+00,4.063e+00,3.162e+00,4.223e+00,4.582e+00,4.943e+00,5.489e+00,5.833e+00,4.122e+00,4.905e+00,3.804e+00,5.117e+00,4.727e+00,5.101e+00,4.225e+00,4.767e+00,4.368e+00,4.262e+00,5.017e+00,6.429e+00,5.680e+00,5.734e+00,3.536e+00,2.814e+00,4.232e+00,4.714e+00,5.008e+00,5.205e+00
2.973e-01,8.035e-01,1.080e+00,1.097e+00,1.204e+00,1.582e+00,1.595e+00,2.484e+00,2.283e+00,2.753e+00,3.683e+00,3.726e+00,3.350e+00,2.848e+00,3.212e+00,4.745e+00,3.500e+00,6.253e+00,6.251e+00,6.086e+00,6.167e+00,4.738e+00,5.981e+00,5.180e+00,5.259e+00,4.708e+00,4.881e+00,5.621e+00,5.104e+00,6.406e+00,5.399e+00,5.489e+00,4.159e+00,4.503e+00,5.132e+00,3.908e+00,3.622e+00,5.175e+00,2.899e+00,4.897e+00,4.859e+00,4.497e+00,5.435e+00,5.647e+00,4.837e+00,6.121e+00,5.158e+00,6.224e+00,5.582e+00,5.375e+00,5.593e+00,5.897e+00,5.831e+00,5.219e+00,4.918e+00,7.574e+00,6.611e+00,6.549e+00,5.057e+00,4.329e+00,5.737e+00,5.414e+00,6.236e+00,6.264e+00
1.535e-01,5.078e-01,2.826e-01,5.895e-01,6.774e-01,6.701e-01,7.292e-01,1.950e+00,1.619e+00,1.556e+00,2.263e+00,2.390e+00,1.808e+00,2.606e+00,1.880e+00,4.441e+00,2.398e+00,5.607e+00,4.071e+00,6.086e+00,6.147e+00,4.558e+00,6.101e+00,5.106e+00,4.754e+00,4.875e+00,6.049e+00,5.530e+00,5.091e+00,5.941e+00,5.843e+00,4.127e+00,4.532e+00,4.942e+00,4.722e+00,4.082e+00,4.476e+00,4.232e+00,3.112e+00,5.484e+00,5.639e+00,4.852e+00,5.388e+00,5.997e+00,3.911e+00,5.061e+00,3.763e+00,5.497e+00,5.647e+00,4.665e+00,4.866e+00,5.434e+00,5.303e+00,4.587e+00,4.960e+00,7.535e+00,7.027e+00,5.873e+00,5.504e+00,3.331e+00,5.313e+00,5.043e+00,6.317e+00,6.451e+00
6.157e-02,3.591e-01,9.806e-01,9.972e-01,1.171e+00,1.537e+00,9.224e-01,1.795e+00,2.027e+00,2.053e+00,2.943e+00,3.536e+00,2.961e+00,2.144e+00,2.937e+00,3.582e+00,2.959e+00,5.213e+00,5.021e+00,5.506e+00,5.945e+00,4.950e+00,4.955e+00,4.289e+00,5.213e+00,4.681e+00,5.116e+00,5.822e+00,5.657e+00,5.490e+00,4.977e+00,5.370e+00,4.226e+00,3.725e+00,5.738e+00,4.044e+00,3.890e+00,5.114e+00,3.559e+00,5.507e+00,4.597e+00,4.065e+00,5.248e+00,5.592e+00,4.117e+00,5.609e+00,4.905e+00,5.547e+00,4.366e+00,5.989e+00,4.873e+00,5.220e+00,4.628e+00,5.858e+00,4.743e+00,6.836e+00,6.363e+00,5.701e+00,5.100e+00,3.922e+00,5.197e+00,5.182e+00,5.291e+00,5.309e+00
5.244e-04,2.742e-03,6.311e-01,3.313e-01,2.945e-01,5.660e-01,2.678e-01,1.265e+00,1.109e+00,1.059e+00,2.439e+00,2.163e+00,2.171e+00,1.936e+00,1.728e+00,3.523e+00,2.363e+00,5.012e+00,3.561e+00,4.386e+00,5.256e+00,3.880e+00,5.784e+00,4.453e+00,3.948e+00,4.053e+00,5.366e+00,4.601e+00,4.257e+00,4.585e+00,5.032e+00,3.707e+00,4.745e+00,4.622e+00,3.730e+00,3.433e+00,4.680e+00,5.242e+00,2.798e+00,4.996e+00,4.431e+00,4.049e+00,4.715e+00,5.371e+00,4.012e+00,4.074e+00,3.471e+00,4.858e+00,4.679e+00,3.214e+00,4.127e+00,4.677e+00,4.507e+00,4.139e+00,4.220e+00,7.538e+00,5.848e+00,4.533e+00,4.368e+00,2.999e+00,4.032e+00,4.830e+00,5.789e+00,4.590e+00
4.772e-02,2.732e-01,7.167e-01,9.806e-01,9.815e-01,1.379e+00,1.455e+00,2.351e+00,1.670e+00,2.007e+00,2.542e+00,2.919e+00,2.775e+00,3.110e+00,2.778e+00,5.107e+00,3.129e+00,5.650e+00,5.105e+00,5.928e+00,6.245e+00,4.682e+00,7.519e+00,5.177e+00,6.413e+00,5.835e+00,7.003e+00,6.884e+00,6.356e+00,6.979e+00,6.985e+00,5.854e+00,4.956e+00,5.675e+00,6.084e+00,4.733e+00,4.510e+00,5.435e+00,4.242e+00,5.782e+00,6.164e+00,7.161e+00,6.979e+00,6.804e+00,6.059e+00,6.582e+00,5.079e+00,6.632e+00,5.480e+00,5.739e+00,5.702e+00,5.791e+00,6.218e+00,5.728e+00,6.528e+00,8.866e+00,8.003e+00,6.721e+00,6.106e+00,5.447e+00,5.561e+00,5.794e+00,6.666e+00,6.808e+00
9.962e-02,3.090e-01,4.409e-01,4.870e-01,5.796e-01,7.210e-01,6.902e-01,1.614e+00,1.791e+00,2.001e+00,2.933e+00,3.318e+00,2.627e+00,2.777e+00,2.024e+00,4.014e+00,2.586e+00,4.853e+00,3.673e+00,5.686e+00,5.328e+00,4.656e+00,7.193e+00,4.563e+00,5.436e+00,5.411e+00,5.780e+00,5.774e+00,5.160e+00,6.543e+00,6.677e+00,6.028e+00,5.342e+00,6.219e+00,6.098e+00,5.127e+00,4.946e+00,5.203e+00,4.570e+00,5.987e+00,5.648e+00,5.983e+00,6.241e+00,5.265e+00,6.055e+00,5.639e+00,4.727e+00,6.179e+00,6.025e+00,6.247e+00,4.878e+00,5.961e+00,6.434e+00,6.254e+00,7.351e+00,8.646e+00,8.163e+00,6.867e+00,6.634e+00,5.574e+00,5.980e+00,5.995e+00,6.817e+00,6.683e+00
1.558e-01,5.128e-01,6.474e-01,7.891e-01,9.386e-01,1.186e+00,1.069e+00,1.986e+00,1.511e+00,1.890e+00,2.447e+00,2.839e+00,2.311e+00,2.105e+00,2.804e+00,4.122e+00,2.875e+00,5.496e+00,4.354e+00,5.785e+00,5.440e+00,4.391e+00,5.983e+00,5.293e+00,6.069e+00,5.657e+00,6.938e+00,6.789e+00,5.983e+00,7.245e+00,7.197e+00,6.140e+00,4.650e+00,5.978e+00,6.862e+00,5.156e+00,5.077e+00,6.106e+00,4.851e+00,5.558e+00,6.987e+00,5.603e+00,6.102e+00,7.076e+00,5.950e+00,6.677e+00,4.906e+00,6.176e+00,5.772e+00,6.245e+00,6.685e+00,5.299e+00,6.030e+00,6.410e+00,6.554e+00,8.788e+00,8.162e+00,7.312e+00,5.859e+00,4.245e+00,7.254e+00,6.303e+00,7.847e+00,6.803e+00
5.040e-02,1.471e-01,2.635e-01,3.034e-01,3.972e-01,5.950e-01,7.125e-01,1.542e+00,1.474e+00,1.841e+00,2.736e+00,3.504e+00,2.694e+00,2.698e+00,2.283e+00,3.923e+00,2.567e+00,5.305e+00,4.305e+00,6.039e+00,5.624e+00,4.876e+00,6.461e+00,4.858e+00,4.761e+00,5.994e+00,5.462e+00,6.242e+00,6.050e+00,6.281e+00,6.510e+00,5.273e+00,5.364e+00,5.833e+00,6.168e+00,5.191e+00,4.997e+00,5.513e+00,4.506e+00,5.816e+00,5.281e+00,5.913e+00,7.013e+00,6.612e+00,6.199e+00,5.517e+00,5.302e+00,6.445e+00,6.585e+00,5.937e+00,5.382e+00,5.905e+00,6.151e+00,6.267e+00,6.707e+00,8.076e+00,8.174e+00,6.578e+00,6.430e+00,4.694e+00,6.579e+00,5.842e+00,7.350e+00,7.241e+00
1.151e-01,4.522e-01,3.735e-01,7.504e-01,9.592e-01,1.138e+00,1.271e+00,2.344e+00,2.002e+00,2.445e+00,2.984e+00,3.776e+00,2.743e+00,3.326e+00,2.491e+00,4.309e+00,2.973e+00,5.991e+00,4.689e+00,5.617e+00,5.797e+00,5.757e+00,6.736e+00,5.205e+00,6.106e+00,6.508e+00,8.080e+00,7.032e+00,6.470e+00,7.800e+00,7.665e+00,6.017e+00,5.859e+00,7.136e+00,6.911e+00,4.890e+00,5.606e+00,7.298e+00,6.130e+00,6.617e+00,7.301e+00,7.531e+00,7.671e+00,7.799e+00,6.628e+00,6.902e+00,6.906e+00,7.598e+00,7.499e+00,7.452e+00,6.861e+00,6.538e+00,6.986e+00,7.259e+00,8.406e+00,9.561e+00,8.794e+00,8.034e+00,7.673e+00,5.381e+00,8.151e+00,6.204e+00,7.753e+00,9.082e+00
6.926e-02,2.967e-01,3.068e-01,4.838e-01,7.049e-01,8.560e-01,8.120e-01,2.390e+00,2.125e+00,2.450e+00,3.066e+00,3.704e+00,3.139e+00,3.119e+00,2.357e+00,4.995e+00,3.121e+00,5.694e+00,4.418e+00,5.180e+00,6.158e+00,4.910e+00,6.034e+00,4.508e+00,5.320e+00,5.383e+00,5.427e+00,6.223e+00,7.201e+00,7.448e+00,6.739e+00,5.820e+00,5.304e+00,7.108e+00,5.962e+00,5.133e+00,5.161e+00,6.083e+00,4.221e+00,6.846e+00,6.554e+00,5.519e+00,7.000e+00,6.927e+00,6.094e+00,6.340e+00,5.503e+00,6.574e+00,7.614e+00,7.054e+00,6.626e+00,5.144e+00,6.867e+00,6.768e+00,6.846e+00,8.807e+00,8.323e+00,6.433e+00,6.937e+00,5.278e+00,7.646e+00,6.405e+00,7.815e+00,7.328e+00
2.606e-01,6.391e-01,8.685e-01,8.297e-01,9.016e-01,1.221e+00,1.498e+00,2.312e+00,2.092e+00,2.947e+00,4.155e+00,3.574e+00,3.474e+00,3.411e+00,2.992e+00,5.008e+00,3.068e+00,6.037e+00,5.554e+00,6.424e+00,6.371e+00,5.651e+00,8.055e+00,4.942e+00,6.880e+00,6.379e+00,6.962e+00,6.950e+00,7.290e+00,8.385e+00,7.725e+00,8.382e+00,7.033e+00,7.744e+00,8.250e+00,6.083e+00,6.845e+00,7.754e+00,6.540e+00,7.575e+00,7.890e+00,8.131e+00,8.502e+00,8.825e+00,7.987e+00,8.995e+00,8.470e+00,8.157e+00,9.233e+00,8.289e+00,8.614e+00,6.854e+00,8.824e+00,7.951e+00,1.049e+01,1.125e+01,9.562e+00,8.695e+00,8.045e+00,6.342e+00,8.750e+00,7.842e+00,8.869e+00,9.700e+00
1.091e-01,4.967e-01,1.108e+00,1.344e+00,1.376e+00,1.874e+00,1.606e+00,3.117e+00,2.525e+00,2.808e+00,3.793e+00,4.083e+00,4.135e+00,3.420e+00,3.884e+00,5.679e+00,3.719e+00,6.999e+00,6.420e+00,7.532e+00,7.749e+00,5.935e+00,8.392e+00,6.091e+00,7.561e+00,8.200e+00,9.223e+00,8.621e+00,9.151e+00,1.028e+01,1.071e+01,9.980e+00,8.312e+00,9.393e+00,9.828e+00,7.238e+00,7.433e+00,9.108e+00,7.845e+00,9.105e+00,9.739e+00,9.038e+00,1.072e+01,1.055e+01,8.962e+00,1.074e+01,8.427e+00,9.283e+00,1.058e+01,9.610e+00,9.692e+00,7.482e+00,9.271e+00,9.997e+00,1.103e+01,1.293e+01,1.234e+01,1.047e+01,8.722e+00,7.748e+00,1.013e+01,8.961e+00,1.015e+01,1.052e+01
1.109e-01,3.026e-01,3.989e-01,6.262e-01,5.127e-01,8.046e-01,1.248e+00,2.318e+00,1.987e+00,2.772e+00,3.142e+00,3.348e+00,3.355e+00,3.275e+00,2.745e+00,4.990e+00,3.554e+00,5.617e+00,4.594e+00,6.427e+00,6.582e+00,5.255e+00,7.655e+00,4.961e+00,6.253e+00,6.863e+00,6.937e+00,6.807e+00,7.575e+00,8.902e+00,9.204e+00,8.924e+00,7.879e+00,8.385e+00,7.786e+00,6.936e+00,7.041e+00,8.121e+00,7.098e+00,8.140e+00,8.993e+00,9.101e+00,9.560e+00,9.987e+00,7.588e+00,9.907e+00,7.469e+00,8.994e+00,1.044e+01,7.701e+00,8.772e+00,6.545e+00,9.123e+00,8.635e+00,1.032e+01,1.228e+01,1.115e+01,9.194e+00,7.807e+00,6.578e+00,9.305e+00,8.528e+00,9.526e+00,1.035e+01
2.911e-01,8.642e-01,1.183e+00,1.297e+00,1.410e+00,1.755e+00,1.621e+00,2.534e+00,2.415e+00,2.981e+00,3.764e+00,3.845e+00,3.413e+00,3.165e+00,3.196e+00,4.795e+00,3.550e+00,6.908e+00,5.942e+00,6.132e+00,7.376e+00,5.495e+00,7.783e+00,5.662e+00,6.747e+00,6.436e+00,6.864e+00,7.008e+00,8.137e+00,9.479e+00,9.829e+00,1.072e+01,7.461e+00,8.826e+00,9.168e+00,7.957e+00,8.241e+00,8.973e+00,7.864e+00,9.339e+00,1.000e+01,8.567e+00,9.717e+00,9.487e+00,7.961e+00,9.634e+00,8.344e+00,1.019e+01,1.083e+01,9.990e+00,9.291e+00,8.006e+00,9.543e+00,9.395e+00,1.058e+01,1.260e+01,1.174e+01,9.287e+00,7.956e+00,7.196e+00,9.104e+00,1.001e+01,1.106e+01,9.665e+00
1.825e-02,5.031e-02,7.164e-01,3.964e-01,5.462e-01,9.374e-01,7.008e-01,1.962e+00,2.008e+00,2.307e+00,3.763e+00,4.022e+00,3.687e+00,3.002e+00,2.808e+00,5.269e+00,3.844e+00,6.498e+00,5.727e+00,7.379e+00,7.436e+00,5.893e+00,7.027e+00,6.326e+00,6.417e+00,5.842e+00,6.971e+00,7.195e+00,7.759e+00,8.848e+00,9.692e+00,8.540e+00,8.324e+00,8.700e+00,8.379e+00,7.970e+00,8.297e+00,8.974e+00,7.895e+00,8.838e+00,9.824e+00,9.193e+00,1.039e+01,1.005e+01,7.976e+00,9.632e+00,8.799e+00,1.052e+01,9.467e+00,9.313e+00,9.273e+00,7.669e+00,1.045e+01,9.288e+00,8.986e+00,1.244e+01,1.177e+01,1.042e+01,8.839e+00,6.583e+00,9.766e+00,9.058e+00,1.103e+01,9.782e+00
3.875e-02,2.969e-01,6.610e-01,7.554e-01,9.576e-01,1.187e+00,7.049e-01,1.879e+00,2.083e+00,2.364e+00,3.462e+00,4.166e+00,3.071e+00,3.062e+00,2.601e+00,4.751e+00,3.175e+00,6.376e+00,4.683e+00,6.212e+00,6.083e+00,5.732e+00,6.701e+00,4.413e+00,5.595e+00,5.330e+00,6.270e+00,6.496e+00,6.770e+00,7.651e+00,8.267e+00,7.461e+00,6.820e+00,7.462e+00,7.935e+00,6.601e+00,7.906e+00,8.847e+00,7.100e+00,8.334e+00,9.250e+00,8.739e+00,1.038e+01,8.751e+00,6.946e+00,8.689e+00,8.228e+00,8.959e+00,9.999e+00,8.913e+00,8.159e+00,7.429e+00,8.347e+00,9.416e+00,8.350e+00,1.179e+01,1.008e+01,8.413e+00,8.568e+00,6.025e+00,8.684e+00,7.962e+00,9.100e+00,9.548e+00
4.037e-02,1.595e-01,5.187e-01,7.566e-01,5.304e-01,9.390e-01,1.276e+00,1.837e+00,1.244e+00,2.387e+00,2.644e+00,3.065e+00,2.955e+00,3.084e+00,2.894e+00,4.707e+00,2.878e+00,5.989e+00,4.698e+00,5.830e+00,6.442e+00,4.905e+00,6.676e+00,5.292e+00,5.688e+00,6.000e+00,6.824e+00,7.464e+00,7.678e+00,7.567e+00,8.147e+00,6.685e+00,5.909e+00,7.681e+00,8.893e+00,6.774e+00,7.113e+00,6.758e+00,7.654e+00,8.208e+00,8.341e+00,8.121e+00,9.581e+00,8.864e+00,7.628e+00,8.119e+00,7.332e+00,8.320e+00,9.124e+00,7.786e+00,8.188e+00,6.473e+00,8.225e+00,8.506e+00,9.014e+00,1.187e+01,9.755e+00,8.646e+00,7.695e+00,6.967e+00,9.637e+00,8.046e+00,9.578e+00,9.000e+00
3.152e-01,8.065e-01,7.554e-01,1.093e+00,8.730e-01,1.213e+00,1.784e+00,2.578e+00,1.910e+00,2.725e+00,3.052e+00,3.423e+00,3.199e+00,3.094e+00,3.454e+00,4.495e+00,3.010e+00,5.492e+00,4.859e+00,5.899e+00,6.312e+00,5.008e+00,6.524e+00,5.771e+00,6.281e+00,6.260e+00,7.331e+00,6.906e+00,6.964e+00,8.115e+00,7.919e+00,7.447e+00,7.105e+00,8.622e+00,7.796e+00,7.170e+00,6.877e+00,9.683e+00,7.498e+00,9.217e+00,9.688e+00,9.525e+00,9.776e+00,9.228e+00,8.010e+00,1.002e+01,9.810e+00,9.413e+00,1.027e+01,9.559e+00,8.899e+00,7.362e+00,9.396e+00,9.892e+00,1.068e+01,1.295e+01,1.166e+01,1.053e+01,1.001e+01,7.616e+00,1.022e+01,8.995e+00,1.096e+01,1.072e+01
1.459e-01,3.255e-01,2.899e-01,4.687e-01,3.612e-01,6.185e-01,1.180e+00,1.816e+00,1.320e+00,1.874e+00,2.393e+00,2.494e+00,2.540e+00,2.386e+00,2.651e+00,4.061e+00,2.522e+00,4.773e+00,4.181e+00,5.025e+00,5.377e+00,3.723e+00,5.667e+00,4.630e+00,4.713e+00,4.856e+00,5.789e+00,5.442e+00,5.239e+00,5.403e+00,6.016e+00,5.301e+00,5.912e+00,5.765e+00,6.196e+00,5.440e+00,5.309e+00,7.255e+00,6.374e+00,7.371e+00,7.692e+00,7.880e+00,7.678e+00,8.917e+00,6.543e+00,8.342e+00,7.389e+00,7.592e+00,8.368e+00,6.368e+00,6.610e+00,6.085e+00,7.740e+00,6.132e+00,8.736e+00,9.608e+00,9.757e+00,7.436e+00,7.983e+00,5.548e+00,7.500e+00,6.949e+00,9.144e+00,8.355e+00
5.382e-02,2.559e-01,5.272e-01,6.957e-01,9.336e-01,1.271e+00,1.327e+00,1.968e+00,1.666e+00,2.150e+00,2.638e+00,3.092e+00,2.701e+00,2.593e+00,2.584e+00,4.439e+00,3.171e+00,5.124e+00,4.655e+00,5.583e+00,6.088e+00,4.621e+00,6.609e+00,4.365e+00,6.136e+00,6.038e+00,6.452e+00,6.639e+00,8.099e+00,8.683e+00,9.178e+00,9.184e+00,7.463e+00,7.648e+00,9.128e+00,7.966e+00,8.282e+00,9.921e+00,9.536e+00,1.056e+01,1.274e+01,1.066e+01,1.211e+01,1.192e+01,1.011e+01,1.179e+01,1.057e+01,9.733e+00,1.204e+01,1.131e+01,1.135e+01,8.233e+00,1.116e+01,1.103e+01,1.194e+01,1.350e+01,1.351e+01,9.552e+00,1.123e+01,8.205e+00,1.077e+01,1.038e+01,1.258e+01,1.235e+01
3.793e-02,1.954e-01,8.454e-01,8.366e-01,8.378e-01,1.244e+00,1.118e+00,2.248e+00,2.049e+00,2.175e+00,3.373e+00,3.181e+00,3.272e+00,3.141e+00,2.847e+00,5.261e+00,3.516e+00,6.095e+00,5.330e+00,6.610e+00,7.578e+00,5.653e+00,7.882e+00,5.714e+00,7.148e+00,7.413e+00,8.489e+00,7.789e+00,8.993e+00,9.558e+00,1.013e+01,9.724e+00,9.365e+00,9.301e+00,9.485e+00,8.750e+00,9.556e+00,1.144e+01,1.014e+01,1.273e+01,1.383e+01,1.221e+01,1.358e+01,1.291e+01,1.088e+01,1.298e+01,1.248e+01,1.068e+01,1.324e+01,1.206e+01,1.311e+01,9.042e+00,1.295e+01,1.217e+01,1.338e+01,1.624e+01,1.547e+01,1.225e+01,1.290e+01,9.662e+00,1.228e+01,1.217e+01,1.410e+01,1.358e+01
3.105e-01,9.208e-01,1.183e+00,1.361e+00,1.540e+00,1.963e+00,1.901e+00,2.810e+00,2.561e+00,3.107e+00,4.400e+00,4.777e+00,3.872e+00,3.438e+00,3.995e+00,5.195e+00,3.746e+00,6.473e+00,5.725e+00,7.198e+00,6.957e+00,6.280e+00,7.057e+00,5.905e+00,7.093e+00,6.831e+00,6.610e+00,7.877e+00,7.590e+00,8.936e+00,8.063e+00,8.780e+00,7.401e+00,7.903e+00,9.305e+00,7.586e+00,7.789e+00,9.125e+00,8.839e+00,1.057e+01,1.161e+01,9.756e+00,1.159e+01,1.082e+01,8.547e+00,1.211e+01,1.102e+01,9.970e+00,1.175e+01,1.161e+01,1.070e+01,9.892e+00,1.123e+01,1.171e+01,1.070e+01,1.416e+01,1.377e+01,1.208e+01,1.134e+01,8.780e+00,1.115e+01,9.672e+00,1.264e+01,1.309e+01
1.444e-01,4.032e-01,6.954e-01,7.852e-01,7.647e-01,1.105e+00,1.263e+00,2.105e+00,1.530e+00,1.860e+00,2.574e+00,3.073e+00,2.818e+00,2.624e+00,3.118e+00,3.932e+00,2.339e+00,4.591e+00,3.808e+00,5.131e+00,5.190e+00,4.317e+00,6.171e+00,4.672e+00,5.848e+00,6.129e+00,6.703e+00,6.029e+00,6.491e+00,6.811e+00,8.108e+00,7.357e+00,6.708e+00,7.472e+00,8.433e+00,7.002e+00,6.369e+00,9.775e+00,8.231e+00,1.045e+01,1.101e+01,9.819e+00,1.167e+01,9.610e+00,9.568e+00,9.865e+00,9.236e+00,9.014e+00,9.902e+00,1.018e+01,1.049e+01,7.912e+00,1.057e+01,1.081e+01,1.079e+01,1.364e+01,1.246e+01,1.037e+01,1.076e+01,8.917e+00,1.080e+01,9.510e+00,1.058e+01,1.213e+01
2.928e-02,1.423e-01,6.421e-01,7.226e-01,6.082e-01,1.012e+00,1.076e+00,1.997e+00,1.844e+00,2.530e+00,3.357e+00,3.244e+00,3.477e+00,2.940e+00,2.625e+00,4.482e+00,3.015e+00,5.177e+00,4.758e+00,6.342e+00,5.992e+00,4.484e+00,7.069e+00,4.280e+00,5.263e+00,5.407e+00,6.479e+00,5.603e+00,6.763e+00,7.145e+00,8.569e+00,7.319e+00,7.380e+00,7.336e+00,7.467e+00,6.692e+00,7.524e+00,8.279e+00,7.926e+00,9.502e+00,1.135e+01,1.009e+01,1.227e+01,1.125e+01,9.508e+00,1.218e+01,8.810e+00,9.015e+00,1.203e+01,9.249e+00,1.067e+01,8.641e+00,1.160e+01,1.031e+01,1.181e+01,1.437e+01,1.316e+01,1.124e+01,1.083e+01,9.055e+00,1.039e+01,9.771e+00,1.074e+01,1.210e+01
2.605e-01,7.109e-01,1.056e+00,1.040e+00,1.125e+00,1.507e+00,1.418e+00,1.881e+00,1.581e+00,1.839e+00,2.789e+00,2.673e+00,2.509e+00,1.669e+00,2.413e+00,2.695e+00,2.588e+00,4.173e+00,4.359e+00,4.549e+00,4.730e+00,3.959e+00,4.495e+00,4.355e+00,4.488e+00,4.882e+00,5.338e+00,5.506e+00,6.498e+00,7.170e+00,7.441e+00,7.755e+00,6.105e+00,6.173e+00,8.078e+00,6.953e+00,6.775e+00,8.820e+00,8.902e+00,9.470e+00,1.073e+01,9.639e+00,1.204e+01,1.086e+01,9.682e+00,1.155e+01,1.078e+01,9.718e+00,1.181e+01,1.164e+01,1.208e+01,9.139e+00,1.217e+01,1.093e+01,1.210e+01,1.304e+01,1.195e+01,1.143e+01,1.030e+01,7.887e+00,1.127e+01,1.108e+01,1.185e+01,1.316e+01
1.623e-01,3.610e-01,1.706e-01,4.276e-01,4.871e-01,7.871e-01,1.612e+00,2.019e+00,1.685e+00,3.136e+00,3.082e+00,3.470e+00,3.126e+00,3.046e+00,2.773e+00,3.986e+00,3.156e+00,4.774e+00,4.575e+00,5.299e+00,4.911e+00,4.369e+00,7.107e+00,4.548e+00,6.348e+00,5.775e+00,6.286e+00,6.042e+00,6.307e+00,8.125e+00,7.808e+00,8.077e+00,6.507e+00,7.563e+00,8.233e+00,6.650e+00,7.116e+00,8.522e+00,8.629e+00,7.781e+00,1.031e+01,1.043e+01,1.058e+01,9.612e+00,1.087e+01,1.089e+01,1.028e+01,1.004e+01,1.080e+01,1.011e+01,1.108e+01,9.132e+00,1.125e+01,1.008e+01,1.268e+01,1.289e+01,1.311e+01,1.160e+01,9.743e+00,9.800e+00,1.173e+01,1.109e+01,1.285e+01,1.293e+01
4.566e-02,1.286e-01,5.085e-01,4.733e-01,6.077e-01,9.721e-01,1.141e+00,1.481e+00,1.570e+00,2.365e+00,2.970e+00,3.162e+00,2.894e+00,2.585e+00,2.411e+00,3.793e+00,2.743e+00,4.873e+00,5.124e+00,5.594e+00,5.881e+00,4.922e+00,5.395e+00,4.307e+00,5.011e+00,4.476e+00,5.201e+00,5.619e+00,6.620e+00,7.125e+00,7.713e+00,7.406e+00,6.259e+00,6.311e+00,8.255e+00,6.380e+00,7.380e+00,7.437e+00,8.264e+00,8.744e+00,9.536e+00,8.100e+00,1.046e+01,9.289e+00,8.720e+00,1.038e+01,1.033e+01,1.006e+01,1.040e+01,1.004e+01,1.152e+01,8.323e+00,1.120e+01,1.089e+01,1.070e+01,1.306e+01,1.221e+01,1.061e+01,8.906e+00,8.945e+00,1.161e+01,1.116e+01,1.226e+01,1.189e+01
4.751e-02,3.170e-01,1.001e+00,1.187e+00,1.387e+00,1.971e+00,1.890e+00,3.195e+00,2.484e+00,2.762e+00,3.793e+00,3.838e+00,3.966e+00,3.453e+00,3.729e+00,5.497e+00,4.031e+00,6.225e+00,5.384e+00,5.818e+00,5.520e+00,4.528e+00,7.016e+00,5.192e+00,6.523e+00,7.037e+00,7.892e+00,6.691e+00,7.112e+00,9.115e+00,9.721e+00,9.046e+00,7.756e+00,8.767e+00,8.474e+00,7.488e+00,6.787e+00,9.856e+00,8.076e+00,9.416e+00,1.127e+01,1.020e+01,1.169e+01,1.077e+01,9.628e+00,1.244e+01,1.035e+01,1.082e+01,1.135e+01,1.120e+01,1.151e+01,8.956e+00,1.199e+01,1.114e+01,1.181e+01,1.330e+01,1.262e+01,1.134e+01,9.804e+00,8.488e+00,1.077e+01,1.057e+01,1.074e+01,1.270e+01
2.202e-01,5.593e-01,6.336e-01,9.505e-01,8.598e-01,1.293e+00,1.992e+00,1.855e+00,9.979e-01,2.168e+00,2.249e+00,2.731e+00,2.251e+00,2.685e+00,3.227e+00,4.354e+00,2.660e+00,5.221e+00,4.839e+00,5.338e+00,5.183e+00,4.346e+00,6.035e+00,5.063e+00,6.314e+00,5.509e+00,6.440e+00,6.948e+00,6.144e+00,7.486e+00,7.909e+00,6.613e+00,5.510e+00,7.454e+00,7.900e+00,6.597e+00,6.343e+00,8.685e+00,7.992e+00,7.963e+00,1.047e+01,9.388e+00,1.061e+01,9.742e+00,1.019e+01,1.198e+01,1.123e+01,1.124e+01,1.051e+01,9.943e+00,1.176e+01,9.788e+00,1.189e+01,1.030e+01,1.134e+01,1.428e+01,1.320e+01,1.243e+01,1.073e+01,1.008e+01,1.255e+01,1.210e+01,1.281e+01,1.330e+01
1.574e-02,1.654e-01,7.032e-01,6.245e-01,8.705e-01,1.187e+00,8.572e-01,2.140e+00,1.786e+00,1.706e+00,2.916e+00,2.362e+00,2.683e+00,2.182e+00,2.464e+00,3.991e+00,2.665e+00,4.687e+00,3.622e+00,4.535e+00,4.596e+00,3.222e+00,5.431e+00,4.281e+00,4.666e+00,4.859e+00,6.178e+00,4.957e+00,5.755e+00,7.034e+00,7.013e+00,6.557e+00,6.520e+00,7.008e+00,7.047e+00,5.935e+00,6.683e+00,7.176e+00,7.001e+00,9.086e+00,9.868e+00,8.009e+00,9.833e+00,8.970e+00,7.838e+00,1.045e+01,9.630e+00,1.008e+01,1.059e+01,9.865e+00,1.066e+01,8.702e+00,1.271e+01,1.101e+01,1.017e+01,1.344e+01,1.297e+01,1.016e+01,1.066e+01,8.666e+00,1.099e+01,1.018e+01,1.121e+01,1.193e+01
3.110e-01,9.095e-01,7.210e-01,1.256e+00,1.331e+00,1.647e+00,2.155e+00,2.502e+00,1.854e+00,2.848e+00,2.826e+00,3.677e+00,2.706e+00,3.171e+00,3.705e+00,4.343e+00,3.090e+00,6.276e+00,5.623e+00,6.630e+00,6.360e+00,5.460e+00,7.216e+00,5.979e+00,6.859e+00,6.690e+00,8.178e+00,7.568e+00,8.485e+00,9.155e+00,1.022e+01,9.442e+00,8.062e+00,8.688e+00,9.443e+00,8.684e+00,8.422e+00,1.138e+01,9.525e+00,1.118e+01,1.271e+01,1.157e+01,1.284e+01,1.347e+01,1.137e+01,1.342e+01,1.122e+01,1.311e+01,1.514e+01,1.289e+01,1.330e+01,1.169e+01,1.443e+01,1.183e+01,1.568e+01,1.666e+01,1.712e+01,1.387e+01,1.248e+01,1.056e+01,1.436e+01,1.351e+01,1.590e+01,1.666e+01
2.534e-01,6.180e-01,1.046e+00,1.054e+00,8.218e-01,1.263e+00,1.556e+00,1.957e+00,1.708e+00,2.586e+00,3.258e+00,2.546e+00,2.957e+00,2.531e+00,2.781e+00,3.681e+00,2.996e+00,5.435e+00,5.087e+00,5.066e+00,6.294e+00,4.453e+00,6.432e+00,5.217e+00,5.538e+00,5.516e+00,6.822e+00,6.208e+00,6.778e+00,8.157e+00,8.044e+00,8.062e+00,7.348e+00,8.167e+00,7.118e+00,6.683e+00,7.567e+00,9.134e+00,7.890e+00,8.850e+00,1.132e+01,9.484e+00,1.100e+01,1.086e+01,9.624e+00,1.161e+01,1.166e+01,1.229e+01,1.287e+01,1.258e+01,1.275e+01,1.125e+01,1.415e+01,1.174e+01,1.331e+01,1.614e+01,1.479e+01,1.280e+01,1.218e+01,1.109e+01,1.275e+01,1.227e+01,1.344e+01,1.419e+01
1.317e-01,3.332e-01,9.650e-01,7.561e-01,8.647e-01,1.289e+00,1.262e+00,1.306e+00,9.777e-01,1.580e+00,2.483e+00,2.733e+00,2.165e+00,2.291e+00,2.696e+00,3.269e+00,1.773e+00,4.004e+00,4.751e+00,5.546e+00,5.281e+00,4.637e+00,6.555e+00,4.807e+00,5.939e+00,5.445e+00,6.083e+00,7.010e+00,7.751e+00,7.625e+00,8.224e+00,7.849e+00,7.096e+00,6.654e+00,8.335e+00,7.202e+00,7.904e+00,8.416e+00,8.530e+00,9.794e+00,1.055e+01,9.311e+00,1.203e+01,1.128e+01,9.163e+00,1.214e+01,1.089e+01,1.121e+01,1.188e+01,1.141e+01,1.351e+01,1.049e+01,1.388e+01,1.288e+01,1.343e+01,1.569e+01,1.523e+01,1.223e+01,1.265e+01,1.056e+01,1.329e+01,1.262e+01,1.398e+01,1.457e+01
2.290e-01,6.737e-01,1.142e+00,1.193e+00,1.378e+00,1.881e+00,1.867e+00,3.090e+00,2.455e+00,2.537e+00,4.006e+00,4.107e+00,3.928e+00,3.233e+00,3.956e+00,5.497e+00,3.831e+00,6.618e+00,6.055e+00,6.800e+00,7.389e+00,5.589e+00,7.451e+00,6.568e+00,6.926e+00,6.763e+00,7.033e+00,7.315e+00,7.847e+00,8.732e+00,9.340e+00,9.039e+00,7.860e+00,8.416e+00,9.108e+00,8.125e+00,7.170e+00,9.516e+00,8.109e+00,1.111e+01,1.120e+01,9.628e+00,1.236e+01,1.149e+01,1.044e+01,1.382e+01,1.115e+01,1.232e+01,1.251e+01,1.228e+01,1.328e+01,1.256e+01,1.484e+01,1.250e+01,1.404e+01,1.700e+01,1.657e+01,1.442e+01,1.185e+01,1.175e+01,1.319e+01,1.443e+01,1.407e+01,1.572e+01
7.498e-02,4.085e-01,8.718e-01,1.004e+00,1.284e+00,1.634e+00,1.222e+00,2.578e+00,2.307e+00,2.410e+00,3.448e+00,3.998e+00,3.412e+00,3.033e+00,2.630e+00,4.239e+00,3.101e+00,5.570e+00,5.256e+00,6.165e+00,5.739e+00,5.176e+00,6.883e+00,5.144e+00,6.056e+00,6.302e+00,7.202e+00,6.524e+00,6.993e+00,8.581e+00,9.516e+00,8.418e+00,6.814e+00,7.991e+00,9.404e+00,6.629e+00,7.502e+00,7.902e+00,8.923e+00,8.397e+00,1.054e+01,9.534e+00,1.245e+01,9.672e+00,1.024e+01,1.313e+01,9.652e+00,1.238e+01,1.231e+01,1.309e+01,1.425e+01,1.315e+01,1.593e+01,1.407e+01,1.505e+01,1.628e+01,1.605e+01,1.490e+01,1.338e+01,1.255e+01,1.579e+01,1.384e+01,1.398e+01,1.712e+01
2.422e-01,6.925e-01,4.154e-01,8.191e-01,7.641e-01,8.475e-01,1.143e+00,1.619e+00,1.720e+00,2.157e+00,2.037e+00,3.087e+00,2.094e+00,2.588e+00,2.606e+00,3.858e+00,2.447e+00,5.402e+00,4.603e+00,5.705e+00,5.932e+00,4.292e+00,5.457e+00,5.067e+00,5.150e+00,5.826e+00,6.216e+00,6.530e+00,6.943e+00,7.821e+00,8.191e+00,7.583e+00,6.361e+00,7.090e+00,8.198e+00,7.151e+00,6.683e+00,8.582e+00,7.810e+00,9.616e+00,1.036e+01,9.183e+00,1.114e+01,9.796e+00,9.720e+00,1.098e+01,1.153e+01,1.191e+01,1.273e+01,1.293e+01,1.196e+01,1.107e+01,1.302e+01,1.300e+01,1.443e+01,1.555e+01,1.569e+01,1.269e+01,1.423e+01,1.146e+01,1.487e+01,1.398e+01,1.417e+01,1.557e+01
1.670e-01,3.609e-01,2.452e-01,3.915e-01,4.273e-01,7.153e-01,1.336e+00,2.299e+00,1.913e+00,2.527e+00,3.326e+00,3.933e+00,3.440e+00,3.104e+00,3.449e+00,5.168e+00,3.633e+00,6.152e+00,5.677e+00,7.582e+00,7.384e+00,6.285e+00,8.196e+00,7.017e+00,7.672e+00,7.499e+00,8.623e+00,8.999e+00,8.731e+00,9.712e+00,1.014e+01,8.675e+00,9.205e+00,9.064e+00,9.196e+00,7.504e+00,8.381e+00,1.047e+01,8.479e+00,9.414e+00,1.154e+01,1.141e+01,1.274e+01,1.308e+01,1.145e+01,1.246e+01,1.163e+01,1.187e+01,1.238e+01,1.185e+01,1.278e+01,1.122e+01,1.366e+01,1.228e+01,1.585e+01,1.749e+01,1.640e+01,1.529e+01,1.470e+01,1.157e+01,1.406e+01,1.426e+01,1.497e+01,1.532e+01
1.858e-01,6.271e-01,6.280e-01,1.159e+00,1.175e+00,1.560e+00,1.909e+00,2.889e+00,2.605e+00,3.118e+00,3.656e+00,4.161e+00,3.856e+00,3.401e+00,3.806e+00,5.572e+00,3.914e+00,5.811e+00,5.627e+00,7.190e+00,7.149e+00,5.522e+00,7.725e+00,5.704e+00,7.544e+00,7.910e+00,7.366e+00,8.652e+00,8.006e+00,9.298e+00,8.889e+00,9.157e+00,7.779e+00,8.573e+00,9.013e+00,8.011e+00,7.111e+00,9.611e+00,8.240e+00,9.344e+00,1.252e+01,1.178e+01,1.270e+01,1.128e+01,1.127e+01,1.508e+01,1.275e+01,1.314e+01,1.484e+01,1.347e+01,1.381e+01,1.248e+01,1.604e+01,1.470e+01,1.576e+01,1.881e+01,1.930e+01,1.652e+01,1.517e+01,1.448e+01,1.569e+01,1.600e+01,1.827e+01,1.758e+01
8.926e-02,3.357e-01,3.039e-01,6.289e-01,7.090e-01,9.188e-01,1.118e+00,1.731e+00,1.259e+00,1.996e+00,2.150e+00,2.574e+00,2.233e+00,2.219e+00,2.672e+00,3.364e+00,2.143e+00,4.880e+00,4.161e+00,5.330e+00,5.338e+00,3.703e+00,6.179e+00,4.643e+00,5.326e+00,5.740e+00,6.563e+00,6.303e+00,7.273e+00,7.519e+00,7.677e+00,7.464e+00,6.478e+00,7.348e+00,8.367e+00,7.459e+00,7.171e+00,8.335e+00,8.684e+00,9.579e+00,1.082e+01,1.018e+01,1.170e+01,1.079e+01,1.075e+01,1.146e+01,1.070e+01,1.134e+01,1.264e+01,1.248e+01,1.251e+01,1.150e+01,1.503e+01,1.251e+01,1.550e+01,1.603e+01,1.723e+01,1.504e+01,1.523e+01,1.232e+01,1.489e+01,1.543e+01,1.677e+01,1.648e+01
5.922e-02,1.331e-01,6.052e-01,6.704e-01,5.242e-01,1.063e+00,1.453e+00,2.369e+00,1.528e+00,2.016e+00,2.996e+00,3.116e+00,3.571e+00,2.680e+00,3.564e+00,5.675e+00,3.735e+00,5.932e+00,5.340e+00,7.630e+00,7.657e+00,5.555e+00,7.699e+00,6.199e+00,6.869e+00,7.587e+00,7.981e+00,8.653e+00,8.935e+00,9.199e+00,9.697e+00,8.373e+00,7.965e+00,8.569e+00,9.215e+00,8.469e+00,7.181e+00,9.972e+00,8.166e+00,1.031e+01,1.186e+01,1.112e+01,1.330e+01,1.369e+01,1.219e+01,1.369e+01,1.224e+01,1.337e+01,1.470e+01,1.241e+01,1.463e+01,1.226e+01,1.577e+01,1.449e+01,1.569e+01,1.912e+01,1.838e+01,1.639e+01,1.583e+01,1.291e+01,1.589e+01,1.711e+01,1.787e+01,1.788e+01
8.659e-02,3.149e-01,7.093e-01,9.533e-01,8.742e-01,1.311e+00,1.565e+00,1.817e+00,1.751e+00,2.996e+00,3.138e+00,3.714e+00,3.162e+00,3.367e+00,3.299e+00,4.926e+00,3.511e+00,6.363e+00,5.290e+00,6.570e+00,6.851e+00,5.260e+00,7.392e+00,4.829e+00,6.571e+00,5.859e+00,7.104e+00,6.695e+00,7.778e+00,9.098e+00,9.117e+00,8.916e+00,7.631e+00,8.115e+00,8.067e+00,8.208e+00,7.739e+00,1.020e+01,8.342e+00,1.040e+01,1.224e+01,1.001e+01,1.198e+01,1.114e+01,1.035e+01,1.174e+01,1.098e+01,1.248e+01,1.325e+01,1.307e+01,1.317e+01,1.254e+01,1.516e+01,1.376e+01,1.524e+01,1.773e+01,1.718e+01,1.499e+01,1.638e+01,1.297e+01,1.545e+01,1.772e+01,1.634e+01,1.746e+01
2.047e-01,6.761e-01,7.364e-01,9.424e-01,1.078e+00,1.185e+00,9.621e-01,1.794e+00,1.563e+00,1.330e+00,2.306e+00,2.385e+00,1.646e+00,2.210e+00,1.931e+00,3.541e+00,1.871e+00,4.164e+00,3.633e+00,5.416e+00,4.955e+00,4.406e+00,6.550e+00,4.780e+00,5.868e+00,6.202e+00,6.909e+00,7.070e+00,6.063e+00,7.445e+00,7.987e+00,6.638e+00,6.042e+00,7.353e+00,6.562e+00,5.628e+00,6.239e+00,7.420e+00,6.707e+00,7.458e+00,1.000e+01,9.293e+00,1.017e+01,9.776e+00,9.639e+00,1.128e+01,9.090e+00,1.024e+01,1.176e+01,9.993e+00,1.132e+01,1.108e+01,1.271e+01,1.074e+01,1.330e+01,1.562e+01,1.652e+01,1.506e+01,1.470e+01,1.277e+01,1.448e+01,1.450e+01,1.719e+01,1.618e+01
9.306e-02,2.870e-01,6.669e-01,8.059e-01,6.761e-01,1.117e+00,1.249e+00,2.128e+00,1.480e+00,1.932e+00,2.664e+00,2.996e+00,3.237e+00,2.212e+00,2.871e+00,3.882e+00,2.597e+00,4.227e+00,4.601e+00,5.904e+00,5.846e+00,4.615e+00,6.270e+00,4.986e+00,5.794e+00,5.344e+00,7.185e+00,6.871e+00,7.130e+00,6.687e+00,8.610e+00,7.284e+00,6.752e+00,7.505e+00,8.862e+00,7.304e+00,7.351e+00,1.031e+01,9.044e+00,9.806e+00,1.211e+01,1.190e+01,1.310e+01,1.139e+01,1.132e+01,1.287e+01,1.127e+01,1.191e+01,1.295e+01,1.337e+01,1.336e+01,1.130e+01,1.462e+01,1.363e+01,1.543e+01,1.767e+01,1.699e+01,1.600e+01,1.576e+01,1.321e+01,1.620e+01,1.603e+01,1.784e+01,1.731e+01
2.950e-01,6.651e-01,1.040e+00,1.020e+00,8.851e-01,1.403e+00,1.935e+00,2.219e+00,1.568e+00,2.570e+00,3.171e+00,3.605e+00,3.226e+00,3.059e+00,3.554e+00,4.531e+00,3.199e+00,5.379e+00,5.151e+00,5.919e+00,5.197e+00,5.162e+00,6.165e+00,4.906e+00,5.680e+00,6.014e+00,4.919e+00,6.594e+00,6.873e+00,8.131e+00,8.354e+00,8.322e+00,6.691e+00,7.902e+00,7.766e+00,7.356e+00,6.577e+00,8.553e+00,7.402e+00,8.397e+00,8.776e+00,8.755e+00,1.109e+01,1.068e+01,9.291e+00,1.154e+01,9.985e+00,1.245e+01,1.156e+01,1.072e+01,1.289e+01,1.178e+01,1.347e+01,1.181e+01,1.355e+01,1.537e+01,1.526e+01,1.369e+01,1.130e+01,1.123e+01,1.331e+01,1.573e+01,1.587e+01,1.536e+01
1.408e-01,3.338e-01,7.173e-01,5.873e-01,6.705e-01,1.052e+00,1.208e+00,2.198e+00,1.669e+00,2.259e+00,3.526e+00,3.074e+00,3.179e+00,2.695e+00,2.629e+00,4.262e+00,3.223e+00,5.648e+00,4.602e+00,5.471e+00,5.245e+00,4.493e+00,6.075e+00,5.172e+00,4.990e+00,4.882e+00,6.461e+00,5.428e+00,5.377e+00,6.798e+00,6.740e+00,6.413e+00,6.444e+00,6.807e+00,7.618e+00,6.216e+00,7.254e+00,7.677e+00,8.015e+00,8.258e+00,9.661e+00,9.072e+00,9.999e+00,9.560e+00,8.838e+00,1.021e+01,9.980e+00,1.039e+01,9.720e+00,1.016e+01,1.026e+01,9.209e+00,1.219e+01,1.027e+01,1.146e+01,1.374e+01,1.271e+01,1.194e+01,1.136e+01,9.157e+00,1.153e+01,1.206e+01,1.535e+01,1.433e+01
1.474e-01,5.253e-01,1.016e+00,1.021e+00,1.146e+00,1.488e+00,1.016e+00,1.903e+00,1.721e+00,1.831e+00,2.960e+00,3.542e+00,2.845e+00,2.325e+00,3.309e+00,4.452e+00,2.628e+00,5.982e+00,5.297e+00,6.536e+00,6.591e+00,5.042e+00,6.169e+00,5.119e+00,6.251e+00,6.317e+00,6.891e+00,7.232e+00,7.503e+00,7.782e+00,8.769e+00,8.337e+00,6.590e+00,7.221e+00,9.636e+00,7.449e+00,7.129e+00,9.897e+00,9.054e+00,1.034e+01,1.144e+01,9.529e+00,1.221e+01,1.133e+01,1.026e+01,1.201e+01,1.081e+01,1.184e+01,1.328e+01,1.211e+01,1.295e+01,1.118e+01,1.280e+01,1.263e+01,1.332e+01,1.628e+01,1.588e+01,1.384e+01,1.444e+01,1.180e+01,1.538e+01,1.498e+01,1.734e+01,1.799e+01
