3.084e-02,3.349e-01,3.415e-01,3.021e-02,5.577e-01,6.608e-02,3.048e-01,7.738e-01,7.308e-01,7.843e-01,1.529e-03,4.334e-01,1.360e-01,5.529e-01,4.878e-02,6.053e-01,1.190e-02,9.476e-01,1.594e-01,9.536e-02,2.418e-01,7.736e-01,5.831e-01,1.666e-01,3.921e-01,9.541e-01,2.067e-01,9.035e-01,7.660e-01,8.240e-01,4.035e-01,5.609e-01,7.500e-01,5.499e-01,8.383e-01,5.201e-01,2.481e-01,4.627e-01,5.979e-01,8.118e-01,7.290e-01,9.901e-01,7.207e-01,8.195e-01,2.136e-01,8.710e-01,7.293e-01,7.327e-01,8.606e-01,1.085e-01,7.412e-01,8.052e-01,3.562e-01,8.886e-01,4.911e-01,8.750e-01,5.959e-01,4.934e-02,1.356e-01,3.995e-01,3.898e-02,9.603e-01,7.295e-01,6.251e-01,3.140e-01,2.086e-01,9.424e-01,4.988e-01,9.250e-02,8.161e-01,7.994e-01,8.951e-01,9.776e-01,7.749e-01,6.274e-01,4.353e-01,4.744e-01,2.881e-01,9.604e-01,4.630e-01,2.183e-01,5.452e-01,4.672e-01,4.862e-01
2.432e-03,6.843e-01,5.392e-02,5.162e-01,9.576e-01,7.803e-01,6.018e-01,8.338e-01,7.451e-01,3.286e-01,8.175e-01,6.523e-01,4.646e-01,9.408e-01,6.421e-01,9.174e-01,1.575e-01,6.636e-01,1.885e-01,4.596e-01,8.489e-01,6.036e-01,6.238e-01,7.199e-01,1.350e-01,4.458e-01,5.175e-01,2.317e-01,1.408e-01,2.965e-01,1.015e+00,7.656e-01,7.509e-01,1.538e-01,7.598e-01,9.183e-01,4.731e-02,5.107e-01,8.986e-01,2.675e-01,3.298e-01,6.584e-01,6.674e-01,1.062e+00,8.513e-01,9.390e-01,9.382e-01,8.546e-01,2.741e-01,3.519e-01,3.778e-01,4.739e-01,8.271e-01,5.896e-01,6.287e-01,2.626e-01,8.766e-01,7.746e-01,1.481e-01,9.211e-01,2.784e-02,4.036e-01,5.410e-01,3.798e-01,1.906e-01,5.580e-01,9.851e-01,4.472e-01,6.635e-01,5.367e-01,4.227e-01,7.208e-01,5.694e-01,8.630e-01,1.042e+00,3.127e-01,4.450e-01,6.009e-01,1.060e+00,6.966e-01,5.903e-01,7.389e-01,5.833e-01,3.605e-01
7.244e-03,4.917e-01,4.487e-01,4.755e-01,1.280e+00,1.376e+00,8.045e-01,1.086e+00,7.219e-01,7.762e-01,5.526e-01,1.200e+00,1.246e+00,1.557e+00,6.186e-01,7.319e-01,9.636e-01,1.373e+00,1.041e+00,8.014e-01,1.338e+00,5.823e-01,1.379e+00,8.853e-01,6.912e-01,1.064e+00,4.791e-01,8.724e-01,1.166e+00,8.075e-01,1.628e+00,1.216e+00,6.976e-01,1.041e+00,1.217e+00,1.053e+00,9.299e-01,5.101e-01,9.368e-01,3.709e-01,1.175e+00,1.200e+00,1.190e+00,1.718e+00,1.226e+00,1.296e+00,1.057e+00,1.296e+00,1.243e+00,7.655e-01,5.411e-01,5.715e-01,9.179e-01,6.062e-01,6.275e-01,1.057e+00,1.459e+00,1.266e+00,2.714e-01,1.227e+00,4.119e-01,1.404e+00,8.786e-01,1.231e+00,1.147e+00,1.170e+00,9.210e-01,5.947e-01,5.828e-01,1.308e+00,1.148e+00,9.013e-01,9.451e-01,1.112e+00,1.016e+00,1.039e+00,8.603e-01,7.998e-01,1.819e+00,9.485e-01,1.229e+00,9.740e-01,7.855e-01,1.276e+00
1.619e-02,6.293e-01,4.476e-01,5.200e-01,2.066e+00,1.378e+00,1.553e+00,1.908e+00,1.021e+00,1.136e+00,8.964e-01,1.786e+00,1.160e+00,2.077e+00,1.175e+00,1.918e+00,9.622e-01,1.856e+00,1.681e+00,1.155e+00,2.079e+00,1.466e+00,1.658e+00,1.704e+00,8.458e-01,1.692e+00,1.307e+00,1.416e+00,1.449e+00,1.860e+00,1.630e+00,1.403e+00,1.251e+00,1.357e+00,2.124e+00,1.844e+00,1.092e+00,7.873e-01,1.317e+00,1.397e+00,1.478e+00,2.041e+00,1.619e+00,2.127e+00,1.883e+00,1.808e+00,1.633e+00,2.280e+00,1.568e+00,1.624e+00,8.269e-01,1.553e+00,1.894e+00,1.593e+00,1.341e+00,1.127e+00,1.725e+00,1.365e+00,8.692e-01,1.369e+00,6.105e-01,1.829e+00,1.817e+00,1.519e+00,1.117e+00,1.350e+00,1.953e+00,1.059e+00,1.472e+00,2.297e+00,2.181e+00,1.880e+00,1.920e+00,1.642e+00,1.467e+00,1.623e+00,1.070e+00,8.418e-01,2.440e+00,1.958e+00,1.918e+00,1.216e+00,1.700e+00,2.006e+00
1.457e-02,7.151e-01,5.213e-01,5.903e-01,2.251e+00,1.709e+00,1.723e+00,1.571e+00,1.762e+00,1.171e+00,1.073e+00,2.158e+00,2.315e+00,2.359e+00,1.290e+00,1.364e+00,1.194e+00,2.685e+00,2.001e+00,1.380e+00,1.720e+00,1.855e+00,1.776e+00,1.289e+00,8.855e-01,1.936e+00,1.067e+00,1.673e+00,1.407e+00,1.680e+00,2.367e+00,2.196e+00,1.797e+00,1.358e+00,2.140e+00,1.603e+00,1.900e+00,1.357e+00,1.905e+00,1.227e+00,1.475e+00,1.587e+00,2.168e+00,2.673e+00,1.584e+00,1.798e+00,1.938e+00,2.546e+00,1.593e+00,1.731e+00,1.717e+00,1.461e+00,1.296e+00,1.083e+00,1.650e+00,1.596e+00,2.338e+00,1.892e+00,8.093e-01,2.322e+00,9.160e-01,2.115e+00,1.958e+00,1.640e+00,2.041e+00,2.013e+00,2.182e+00,1.238e+00,1.710e+00,2.244e+00,1.826e+00,1.292e+00,1.642e+00,2.259e+00,1.843e+00,1.980e+00,1.842e+00,1.474e+00,2.615e+00,1.387e+00,1.860e+00,1.365e+00,1.335e+00,1.484e+00
1.743e-02,5.603e-01,5.338e-01,4.703e-01,2.153e+00,1.911e+00,2.610e+00,2.726e+00,2.005e+00,1.574e+00,1.467e+00,2.703e+00,2.762e+00,3.057e+00,2.155e+00,1.630e+00,1.366e+00,2.992e+00,2.588e+00,1.969e+00,2.759e+00,1.952e+00,1.947e+00,1.589e+00,1.801e+00,2.555e+00,1.786e+00,2.076e+00,1.871e+00,2.628e+00,2.679e+00,2.433e+00,1.608e+00,2.410e+00,2.290e+00,2.200e+00,2.479e+00,1.757e+00,2.504e+00,1.437e+00,2.342e+00,2.195e+00,2.312e+00,3.081e+00,1.799e+00,2.361e+00,2.379e+00,3.195e+00,2.056e+00,1.959e+00,2.037e+00,1.702e+00,2.511e+00,2.027e+00,1.697e+00,1.865e+00,2.883e+00,1.685e+00,1.718e+00,2.414e+00,1.073e+00,2.653e+00,2.969e+00,2.009e+00,1.810e+00,2.213e+00,2.750e+00,1.555e+00,2.208e+00,2.834e+00,2.246e+00,1.826e+00,2.660e+00,2.198e+00,2.159e+00,2.467e+00,2.065e+00,1.446e+00,3.493e+00,2.302e+00,2.464e+00,1.944e+00,2.336e+00,2.803e+00
1.271e-02,4.990e-01,2.751e-01,3.621e-01,1.557e+00,1.114e+00,1.903e+00,2.610e+00,2.402e+00,1.881e+00,1.416e+00,2.648e+00,1.849e+00,2.423e+00,1.495e+00,2.273e+00,1.336e+00,2.282e+00,1.562e+00,1.908e+00,2.174e+00,1.603e+00,1.456e+00,1.903e+00,1.155e+00,1.710e+00,1.257e+00,2.081e+00,1.192e+00,2.544e+00,2.540e+00,1.701e+00,1.315e+00,2.103e+00,2.301e+00,2.288e+00,2.098e+00,1.839e+00,1.810e+00,1.339e+00,1.899e+00,1.818e+00,1.705e+00,2.809e+00,1.942e+00,2.089e+00,1.867e+00,3.082e+00,1.969e+00,2.156e+00,1.825e+00,1.304e+00,2.324e+00,2.325e+00,2.157e+00,1.390e+00,2.229e+00,1.372e+00,1.713e+00,2.082e+00,1.144e+00,2.367e+00,2.496e+00,1.907e+00,1.227e+00,1.410e+00,2.419e+00,1.579e+00,1.706e+00,2.587e+00,2.235e+00,1.328e+00,1.966e+00,2.169e+00,1.572e+00,1.877e+00,1.377e+00,1.863e+00,2.521e+00,2.156e+00,1.682e+00,1.952e+00,1.921e+00,1.718e+00
2.849e-02,3.691e-01,6.158e-01,2.353e-01,1.837e+00,1.247e+00,1.944e+00,2.978e+00,2.425e+00,2.275e+00,9.471e-01,2.944e+00,2.371e+00,3.095e+00,2.006e+00,2.454e+00,1.851e+00,3.531e+00,2.438e+00,2.067e+00,2.669e+00,1.930e+00,2.085e+00,2.111e+00,2.438e+00,2.829e+00,2.177e+00,3.258e+00,2.964e+00,3.060e+00,2.683e+00,2.315e+00,1.377e+00,2.685e+00,3.542e+00,3.089e+00,2.851e+00,2.414e+00,1.750e+00,2.351e+00,2.428e+00,3.235e+00,2.903e+00,2.956e+00,2.579e+00,3.069e+00,2.720e+00,3.911e+00,3.326e+00,2.564e+00,1.747e+00,1.767e+00,2.517e+00,2.412e+00,1.836e+00,2.645e+00,2.871e+00,2.235e+00,2.266e+00,2.528e+00,1.471e+00,3.634e+00,2.849e+00,2.335e+00,1.896e+00,1.886e+00,2.709e+00,2.186e+00,2.435e+00,3.650e+00,3.625e+00,2.749e+00,2.876e+00,2.191e+00,2.124e+00,2.920e+00,1.718e+00,1.897e+00,3.713e+00,3.143e+00,2.833e+00,2.718e+00,2.427e+00,2.915e+00
1.400e-02,4.397e-01,2.799e-01,3.285e-01,2.063e+00,1.305e+00,2.568e+00,2.786e+00,2.817e+00,2.261e+00,2.020e+00,2.981e+00,3.814e+00,3.459e+00,2.778e+00,3.016e+00,2.187e+00,4.544e+00,3.194e+00,2.350e+00,3.482e+00,3.255e+00,1.872e+00,2.681e+00,2.426e+00,3.431e+00,3.175e+00,3.739e+00,2.319e+00,3.512e+00,2.580e+00,2.749e+00,2.507e+00,2.697e+00,3.409e+00,3.877e+00,2.935e+00,3.492e+00,2.825e+00,2.475e+00,2.759e+00,3.636e+00,3.599e+00,2.781e+00,2.288e+00,3.580e+00,3.873e+00,4.502e+00,2.531e+00,2.958e+00,2.275e+00,2.866e+00,2.987e+00,2.604e+00,2.602e+00,2.342e+00,3.525e+00,2.860e+00,2.549e+00,3.621e+00,1.740e+00,2.986e+00,3.316e+00,2.396e+00,2.017e+00,3.065e+00,4.088e+00,2.528e+00,3.808e+00,3.791e+00,3.486e+00,3.446e+00,2.903e+00,2.746e+00,3.182e+00,3.544e+00,2.724e+00,2.260e+00,4.031e+00,3.512e+00,3.237e+00,2.751e+00,3.135e+00,3.609e+00
2.770e-02,6.340e-01,3.842e-01,3.376e-01,1.533e+00,9.854e-01,1.699e+00,2.262e+00,1.782e+00,1.691e+00,1.651e+00,2.389e+00,1.539e+00,2.322e+00,2.338e+00,2.183e+00,1.006e+00,3.064e+00,1.705e+00,1.992e+00,2.652e+00,2.514e+00,2.185e+00,1.794e+00,1.883e+00,2.304e+00,2.385e+00,1.866e+00,1.732e+00,2.111e+00,2.074e+00,2.099e+00,1.868e+00,2.187e+00,2.702e+00,2.241e+00,1.882e+00,1.832e+00,2.854e+00,2.183e+00,2.694e+00,2.965e+00,2.424e+00,2.463e+00,2.038e+00,3.026e+00,2.180e+00,2.534e+00,2.437e+00,1.428e+00,1.965e+00,1.800e+00,2.159e+00,2.751e+00,1.679e+00,1.895e+00,2.898e+00,1.149e+00,2.075e+00,2.617e+00,1.071e+00,2.756e+00,2.527e+00,2.211e+00,1.683e+00,1.831e+00,2.624e+00,1.603e+00,2.583e+00,2.189e+00,2.920e+00,2.973e+00,3.023e+00,2.305e+00,2.445e+00,2.457e+00,1.715e+00,1.672e+00,3.497e+00,1.972e+00,2.367e+00,2.124e+00,2.204e+00,2.209e+00
1.981e-02,3.255e-01,2.334e-01,1.420e-01,1.192e+00,7.219e-01,1.961e+00,2.896e+00,2.702e+00,2.659e+00,2.959e+00,3.899e+00,2.734e+00,3.373e+00,3.414e+00,4.031e+00,2.814e+00,3.967e+00,2.679e+00,3.409e+00,3.896e+00,2.939e+00,2.501e+00,3.460e+00,2.998e+00,3.411e+00,2.830e+00,3.775e+00,2.930e+00,3.550e+00,2.874e+00,2.950e+00,2.339e+00,3.156e+00,3.685e+00,3.919e+00,3.408e+00,3.788e+00,2.843e+00,2.402e+00,3.602e+00,3.970e+00,3.202e+00,3.235e+00,2.896e+00,3.944e+00,3.197e+00,4.435e+00,3.189e+00,2.573e+00,2.697e+00,2.668e+00,3.575e+00,4.395e+00,3.151e+00,2.884e+00,3.661e+00,1.859e+00,3.106e+00,3.439e+00,1.958e+00,3.303e+00,3.964e+00,3.603e+00,2.456e+00,2.723e+00,4.093e+00,2.479e+00,3.581e+00,3.792e+00,3.777e+00,3.464e+00,3.856e+00,3.495e+00,3.499e+00,3.157e+00,2.289e+00,2.916e+00,4.008e+00,3.965e+00,3.042e+00,3.720e+00,3.502e+00,3.305e+00
2.367e-02,2.963e-01,3.632e-01,1.116e-01,1.133e+00,5.546e-01,1.070e+00,1.462e+00,1.596e+00,1.546e+00,1.219e+00,2.038e+00,2.716e+00,2.539e+00,1.673e+00,2.872e+00,2.099e+00,3.296e+00,2.063e+00,1.785e+00,1.959e+00,2.096e+00,1.880e+00,2.250e+00,1.864e+00,2.937e+00,2.047e+00,2.990e+00,2.862e+00,2.124e+00,2.341e+00,2.023e+00,2.586e+00,1.985e+00,3.190e+00,3.052e+00,2.844e+00,2.310e+00,1.960e+00,1.789e+00,2.462e+00,3.526e+00,2.563e+00,1.989e+00,1.782e+00,3.200e+00,2.373e+00,2.827e+00,2.564e+00,2.388e+00,1.766e+00,2.930e+00,2.065e+00,2.598e+00,1.778e+00,2.608e+00,2.612e+00,1.685e+00,1.791e+00,3.050e+00,1.646e+00,2.407e+00,3.141e+00,2.783e+00,2.449e+00,2.169e+00,3.411e+00,2.475e+00,2.081e+00,2.858e+00,2.624e+00,3.278e+00,2.273e+00,2.211e+00,2.660e+00,2.674e+00,2.016e+00,1.764e+00,2.854e+00,2.941e+00,2.622e+00,2.520e+00,2.127e+00,2.673e+00
4.233e-03,7.342e-02,3.133e-01,1.686e-01,1.095e+00,1.209e+00,1.937e+00,2.914e+00,2.297e+00,2.348e+00,1.642e+00,3.062e+00,3.664e+00,3.278e+00,3.249e+00,3.378e+00,2.817e+00,3.349e+00,2.787e+00,3.453e+00,3.607e+00,2.647e+00,2.760e+00,2.697e+00,2.563e+00,3.238e+00,2.907e+00,3.504e+00,2.847e+00,3.197e+00,3.174e+00,2.980e+00,1.333e+00,3.875e+00,3.720e+00,3.372e+00,3.875e+00,2.681e+00,2.743e+00,2.402e+00,3.214e+00,3.649e+00,3.309e+00,3.658e+00,3.436e+00,3.851e+00,2.896e+00,4.244e+00,3.136e+00,2.874e+00,2.446e+00,1.723e+00,3.614e+00,3.394e+00,2.260e+00,2.447e+00,3.684e+00,2.895e+00,2.875e+00,2.935e+00,2.766e+00,4.044e+00,3.452e+00,2.903e+00,2.707e+00,2.667e+00,2.992e+00,2.830e+00,2.792e+00,3.394e+00,4.258e+00,3.093e+00,3.489e+00,2.801e+00,2.365e+00,3.341e+00,2.074e+00,2.997e+00,3.611e+00,3.832e+00,3.461e+00,2.835e+00,2.898e+00,3.489e+00
2.979e-02,4.861e-01,6.186e-01,3.024e-01,2.208e+00,1.631e+00,2.720e+00,2.913e+00,2.664e+00,2.576e+00,2.220e+00,3.517e+00,4.131e+00,4.470e+00,3.577e+00,3.953e+00,2.675e+00,5.711e+00,3.795e+00,3.447e+00,4.140e+00,3.865e+00,3.170e+00,3.614e+00,3.553e+00,4.485e+00,3.531e+00,4.594e+00,3.612e+00,4.202e+00,4.077e+00,4.211e+00,3.596e+00,3.863e+00,4.488e+00,3.621e+00,4.742e+00,3.381e+00,4.462e+00,3.291e+00,5.017e+00,4.636e+00,3.983e+00,4.056e+00,3.129e+00,4.461e+00,4.382e+00,4.931e+00,4.014e+00,3.369e+00,4.077e+00,3.857e+00,3.749e+00,4.074e+00,2.986e+00,3.998e+00,4.907e+00,3.177e+00,3.762e+00,4.740e+00,3.045e+00,4.488e+00,4.377e+00,4.431e+00,4.005e+00,4.090e+00,4.988e+00,3.027e+00,4.239e+00,4.452e+00,4.937e+00,5.051e+00,4.694e+00,3.960e+00,4.065e+00,4.629e+00,3.500e+00,3.465e+00,5.839e+00,3.638e+00,3.971e+00,3.681e+00,3.497e+00,4.779e+00
3.029e-02,7.932e-01,3.817e-01,4.107e-01,1.892e+00,9.328e-01,1.727e+00,2.215e+00,2.608e+00,2.032e+00,1.922e+00,2.806e+00,2.904e+00,3.193e+00,3.876e+00,4.939e+00,1.990e+00,3.832e+00,2.898e+00,3.650e+00,3.688e+00,4.256e+00,3.068e+00,2.857e+00,2.968e+00,3.885e+00,3.096e+00,3.872e+00,3.281e+00,3.497e+00,3.298e+00,3.951e+00,2.880e+00,3.350e+00,4.366e+00,2.855e+00,3.715e+00,3.195e+00,3.815e+00,3.768e+00,3.377e+00,3.722e+00,4.310e+00,4.849e+00,3.668e+00,3.683e+00,3.773e+00,4.755e+00,2.818e+00,2.503e+00,4.039e+00,2.758e+00,3.827e+00,3.997e+00,3.339e+00,3.778e+00,3.856e+00,2.865e+00,3.278e+00,3.297e+00,2.855e+00,4.096e+00,3.466e+00,3.704e+00,3.570e+00,2.919e+00,4.724e+00,3.250e+00,3.283e+00,4.205e+00,4.720e+00,3.588e+00,4.606e+00,4.859e+00,4.054e+00,3.570e+00,3.443e+00,3.594e+00,4.367e+00,3.882e+00,2.829e+00,2.889e+00,3.208e+00,2.483e+00
1.938e-02,8.426e-01,3.617e-01,5.821e-01,2.156e+00,1.643e+00,2.556e+00,3.211e+00,3.088e+00,2.334e+00,2.765e+00,4.011e+00,4.459e+00,4.418e+00,4.764e+00,5.493e+00,3.071e+00,5.338e+00,3.548e+00,4.741e+00,4.390e+00,4.755e+00,4.923e+00,4.175e+00,4.116e+00,4.571e+00,4.879e+00,4.131e+00,4.250e+00,3.520e+00,4.915e+00,5.296e+00,3.908e+00,4.885e+00,6.492e+00,4.793e+00,5.694e+00,3.615e+00,5.703e+00,3.831e+00,4.262e+00,6.107e+00,5.094e+00,5.762e+00,4.463e+00,5.726e+00,4.707e+00,5.588e+00,4.772e+00,4.170e+00,4.170e+00,3.349e+00,4.733e+00,4.939e+00,3.433e+00,4.023e+00,5.623e+00,3.566e+00,4.663e+00,5.644e+00,4.298e+00,5.305e+00,5.459e+00,4.773e+00,5.060e+00,4.505e+00,5.974e+00,4.280e+00,5.093e+00,3.989e+00,5.420e+00,5.113e+00,5.285e+00,4.583e+00,5.365e+00,5.457e+00,3.817e+00,4.937e+00,5.507e+00,5.274e+00,5.124e+00,4.506e+00,4.277e+00,4.440e+00
2.794e-02,5.803e-01,4.519e-01,3.088e-01,1.368e+00,9.631e-01,1.474e+00,2.411e+00,2.384e+00,2.586e+00,2.585e+00,3.390e+00,3.289e+00,3.788e+00,3.043e+00,5.236e+00,4.263e+00,5.123e+00,3.354e+00,3.746e+00,4.381e+00,4.055e+00,4.907e+00,5.083e+00,4.342e+00,4.080e+00,3.566e+00,4.980e+00,4.260e+00,4.193e+00,4.990e+00,4.511e+00,4.616e+00,4.911e+00,6.107e+00,5.250e+00,5.130e+00,4.181e+00,4.221e+00,2.755e+00,5.555e+00,5.837e+00,4.554e+00,5.097e+00,3.857e+00,5.436e+00,4.097e+00,5.172e+00,4.578e+00,4.064e+00,4.229e+00,4.104e+00,4.035e+00,5.454e+00,4.057e+00,3.973e+00,4.949e+00,2.765e+00,4.134e+00,5.043e+00,4.053e+00,4.253e+00,4.946e+00,5.528e+00,4.465e+00,3.941e+00,6.232e+00,3.470e+00,4.515e+00,4.859e+00,4.671e+00,5.564e+00,4.688e+00,4.744e+00,4.734e+00,5.143e+00,3.807e+00,4.865e+00,5.377e+00,5.052e+00,3.925e+00,4.880e+00,4.151e+00,5.212e+00
2.248e-02,4.779e-01,5.349e-01,3.235e-01,1.662e+00,1.268e+00,1.672e+00,2.270e+00,2.454e+00,2.413e+00,2.430e+00,3.722e+00,3.418e+00,3.617e+00,3.571e+00,4.987e+00,3.577e+00,4.700e+00,4.477e+00,4.144e+00,4.523e+00,4.412e+00,5.424e+00,4.845e+00,4.997e+00,4.396e+00,3.382e+00,4.796e+00,4.448e+00,4.014e+00,5.142e+00,4.697e+00,3.612e+00,4.713e+00,5.758e+00,4.729e+00,5.287e+00,3.844e+00,4.990e+00,3.692e+00,4.912e+00,5.881e+00,5.259e+00,5.825e+00,4.118e+00,5.369e+00,4.810e+00,5.514e+00,4.966e+00,4.016e+00,4.318e+00,3.731e+00,4.739e+00,4.847e+00,4.385e+00,4.424e+00,5.062e+00,3.580e+00,3.935e+00,5.068e+00,4.079e+00,4.552e+00,4.642e+00,5.945e+00,4.978e+00,4.359e+00,5.485e+00,3.861e+00,4.953e+00,5.181e+00,5.578e+00,3.966e+00,5.250e+00,5.670e+00,4.958e+00,4.851e+00,4.249e+00,4.832e+00,5.342e+00,5.144e+00,4.213e+00,4.829e+00,4.410e+00,4.162e+00
8.023e-03,6.442e-01,3.797e-01,5.899e-01,1.963e+00,1.587e+00,1.827e+00,2.734e+00,2.202e+00,2.195e+00,2.653e+00,3.834e+00,3.836e+00,4.449e+00,4.427e+00,6.337e+00,4.365e+00,4.366e+00,4.871e+00,5.021e+00,5.197e+00,4.262e+00,6.082e+00,5.860e+00,4.700e+00,5.383e+00,4.860e+00,5.323e+00,5.704e+00,4.212e+00,5.847e+00,5.742e+00,4.478e+00,4.902e+00,7.239e+00,5.918e+00,5.914e+00,4.381e+00,4.383e+00,3.840e+00,5.494e+00,6.247e+00,5.848e+00,6.840e+00,5.918e+00,6.475e+00,5.058e+00,6.925e+00,4.973e+00,4.842e+00,5.167e+00,4.604e+00,6.468e+00,5.589e+00,5.115e+00,5.221e+00,6.077e+00,5.201e+00,4.626e+00,5.468e+00,4.950e+00,5.496e+00,5.483e+00,6.477e+00,5.331e+00,5.049e+00,6.706e+00,5.014e+00,5.721e+00,6.355e+00,6.083e+00,5.842e+00,6.150e+00,6.306e+00,5.560e+00,5.689e+00,4.072e+00,6.008e+00,5.752e+00,6.987e+00,5.289e+00,5.284e+00,5.545e+00,5.907e+00
1.708e-02,2.823e-01,2.771e-01,1.427e-01,1.345e+00,7.956e-01,1.750e+00,1.907e+00,2.171e+00,1.827e+00,1.702e+00,2.611e+00,3.996e+00,3.243e+00,3.485e+00,4.587e+00,2.762e+00,4.235e+00,3.757e+00,3.747e+00,3.884e+00,4.819e+00,4.672e+00,3.533e+00,4.266e+00,5.336e+00,4.902e+00,4.424e+00,4.175e+00,3.769e+00,4.074e+00,5.067e+00,4.590e+00,4.823e+00,5.414e+00,4.328e+00,5.037e+00,3.421e+00,4.447e+00,4.323e+00,5.105e+00,5.107e+00,4.728e+00,5.205e+00,4.397e+00,5.596e+00,4.525e+00,5.402e+00,4.063e+00,4.270e+00,5.210e+00,4.279e+00,5.274e+00,4.470e+00,4.290e+00,4.926e+00,4.884e+00,3.629e+00,4.554e+00,5.157e+00,4.823e+00,5.078e+00,4.737e+00,5.015e+00,4.975e+00,4.621e+00,6.145e+00,5.062e+00,5.162e+00,5.133e+00,5.017e+00,4.945e+00,5.451e+00,5.333e+00,5.087e+00,5.446e+00,4.219e+00,5.117e+00,4.372e+00,5.011e+00,4.395e+00,3.557e+00,4.588e+00,4.888e+00
9.757e-03,2.426e-01,1.976e-01,1.856e-01,1.139e+00,8.500e-01,1.812e+00,2.833e+00,2.354e+00,2.057e+00,1.815e+00,3.288e+00,3.055e+00,3.942e+00,4.316e+00,5.324e+00,3.352e+00,4.421e+00,4.068e+00,4.367e+00,5.671e+00,4.609e+00,5.041e+00,5.124e+00,6.652e+00,5.282e+00,5.237e+00,5.826e+00,5.467e+00,5.053e+00,5.697e+00,5.456e+00,3.759e+00,5.841e+00,7.001e+00,5.683e+00,6.306e+00,4.448e+00,4.547e+00,5.243e+00,6.190e+00,5.723e+00,5.177e+00,5.959e+00,6.170e+00,6.470e+00,5.079e+00,6.246e+00,5.916e+00,4.977e+00,5.013e+00,4.011e+00,6.410e+00,5.869e+00,4.371e+00,5.887e+00,5.869e+00,4.123e+00,5.736e+00,5.191e+00,5.536e+00,5.983e+00,5.292e+00,5.867e+00,5.491e+00,3.891e+00,6.134e+00,5.501e+00,6.634e+00,6.171e+00,6.700e+00,6.305e+00,6.869e+00,5.875e+00,4.863e+00,5.787e+00,4.506e+00,5.636e+00,5.861e+00,6.593e+00,5.607e+00,5.510e+00,4.917e+00,5.779e+00
1.614e-02,6.484e-01,4.907e-01,5.479e-01,2.639e+00,1.762e+00,2.532e+00,3.007e+00,2.801e+00,2.300e+00,2.732e+00,4.597e+00,3.706e+00,4.795e+00,4.476e+00,5.342e+00,4.001e+00,5.538e+00,5.521e+00,4.588e+00,5.884e+00,5.854e+00,6.717e+00,6.323e+00,6.666e+00,6.722e+00,5.434e+00,6.521e+00,6.554e+00,5.559e+00,7.109e+00,6.546e+00,5.560e+00,5.322e+00,7.935e+00,6.653e+00,6.657e+00,6.068e+00,4.838e+00,5.396e+00,6.948e+00,7.065e+00,6.798e+00,7.587e+00,6.549e+00,7.404e+00,6.623e+00,8.149e+00,6.893e+00,5.995e+00,5.846e+00,5.849e+00,7.174e+00,5.951e+00,6.505e+00,6.385e+00,6.766e+00,5.530e+00,5.980e+00,6.990e+00,5.883e+00,6.102e+00,6.112e+00,7.525e+00,7.099e+00,5.710e+00,7.007e+00,5.602e+00,7.903e+00,7.747e+00,7.780e+00,6.718e+00,7.730e+00,7.325e+00,6.114e+00,7.164e+00,5.860e+00,6.416e+00,7.559e+00,7.434e+00,6.274e+00,6.947e+00,6.592e+00,7.054e+00
1.754e-02,8.255e-01,4.763e-01,6.224e-01,1.737e+00,1.779e+00,1.906e+00,2.616e+00,2.218e+00,1.805e+00,2.555e+00,3.477e+00,3.313e+00,4.283e+00,3.443e+00,4.681e+00,3.284e+00,4.331e+00,3.638e+00,3.877e+00,4.233e+00,3.390e+00,6.349e+00,5.555e+00,5.716e+00,5.030e+00,4.192e+00,4.785e+00,6.059e+00,4.424e+00,5.635e+00,6.329e+00,4.582e+00,5.385e+00,6.285e+00,5.518e+00,5.989e+00,4.442e+00,5.375e+00,3.798e+00,5.799e+00,5.790e+00,4.437e+00,6.720e+00,4.828e+00,6.652e+00,5.864e+00,6.652e+00,5.289e+00,4.709e+00,4.774e+00,4.175e+00,5.677e+00,5.711e+00,4.207e+00,5.781e+00,6.008e+00,4.431e+00,5.171e+00,6.155e+00,5.365e+00,5.037e+00,5.444e+00,6.015e+00,5.249e+00,5.268e+00,7.086e+00,4.286e+00,5.400e+00,5.837e+00,4.759e+00,5.666e+00,5.693e+00,6.207e+00,6.241e+00,5.551e+00,4.562e+00,5.622e+00,5.704e+00,6.119e+00,5.102e+00,5.830e+00,5.289e+00,6.214e+00
2.414e-02,8.277e-01,4.011e-01,5.216e-01,2.129e+00,1.267e+00,2.028e+00,2.984e+00,3.375e+00,2.713e+00,3.111e+00,4.683e+00,3.672e+00,4.708e+00,5.020e+00,6.353e+00,3.572e+00,5.537e+00,4.255e+00,5.337e+00,5.282e+00,6.192e+00,6.966e+00,6.770e+00,6.900e+00,7.219e+00,5.628e+00,6.805e+00,7.652e+00,6.346e+00,7.305e+00,8.203e+00,6.285e+00,6.252e+00,8.354e+00,6.787e+00,7.379e+00,6.706e+00,5.947e+00,6.792e+00,7.621e+00,8.215e+00,7.185e+00,8.607e+00,7.245e+00,8.687e+00,7.634e+00,9.191e+00,7.952e+00,6.403e+00,6.499e+00,5.810e+00,8.180e+00,7.209e+00,6.928e+00,7.008e+00,7.180e+00,6.711e+00,7.267e+00,7.196e+00,6.969e+00,7.513e+00,6.683e+00,7.924e+00,8.070e+00,6.956e+00,7.776e+00,6.679e+00,8.046e+00,7.271e+00,8.475e+00,7.383e+00,8.594e+00,8.316e+00,7.467e+00,6.933e+00,6.084e+00,8.302e+00,7.821e+00,7.801e+00,6.470e+00,7.842e+00,6.535e+00,6.561e+00
8.265e-03,5.459e-01,1.978e-01,4.293e-01,1.863e+00,1.265e+00,2.278e+00,2.757e+00,2.767e+00,2.256e+00,2.906e+00,4.020e+00,3.627e+00,4.382e+00,4.426e+00,6.263e+00,3.572e+00,5.176e+00,4.958e+00,4.815e+00,5.849e+00,5.426e+00,6.173e+00,6.514e+00,6.933e+00,6.382e+00,6.812e+00,6.274e+00,6.567e+00,6.627e+00,6.876e+00,7.248e+00,6.701e+00,6.973e+00,7.740e+00,7.357e+00,7.233e+00,6.249e+00,6.092e+00,6.137e+00,8.199e+00,7.764e+00,7.013e+00,7.425e+00,7.198e+00,8.372e+00,7.123e+00,7.823e+00,7.146e+00,6.873e+00,6.915e+00,6.056e+00,8.159e+00,7.517e+00,6.438e+00,6.999e+00,7.406e+00,5.786e+00,7.524e+00,7.508e+00,6.269e+00,6.699e+00,6.570e+00,7.819e+00,7.215e+00,7.107e+00,8.705e+00,7.181e+00,8.559e+00,7.986e+00,7.434e+00,6.997e+00,8.053e+00,7.586e+00,7.168e+00,7.041e+00,6.770e+00,7.814e+00,7.621e+00,7.428e+00,6.649e+00,6.709e+00,7.027e+00,7.516e+00
2.408e-02,5.373e-01,3.423e-01,2.804e-01,1.753e+00,7.922e-01,1.524e+00,1.767e+00,2.202e+00,1.445e+00,1.349e+00,2.598e+00,3.096e+00,3.189e+00,3.451e+00,4.799e+00,2.822e+00,4.542e+00,4.499e+00,3.409e+00,4.500e+00,5.826e+00,6.445e+00,5.536e+00,6.954e+00,6.822e+00,6.584e+00,7.388e+00,7.443e+00,6.435e+00,7.022e+00,7.735e+00,6.261e+00,7.326e+00,7.948e+00,7.388e+00,7.473e+00,6.776e+00,5.739e+00,7.255e+00,6.830e+00,8.265e+00,8.099e+00,8.234e+00,6.585e+00,7.915e+00,7.725e+00,8.293e+00,7.692e+00,7.024e+00,6.309e+00,5.989e+00,7.199e+00,6.853e+00,5.894e+00,7.013e+00,6.778e+00,6.192e+00,6.991e+00,7.642e+00,6.751e+00,6.901e+00,6.582e+00,7.181e+00,8.085e+00,6.813e+00,8.207e+00,6.596e+00,8.545e+00,8.253e+00,7.966e+00,7.250e+00,7.926e+00,7.866e+00,6.277e+00,7.359e+00,8.157e+00,6.616e+00,7.360e+00,7.780e+00,6.478e+00,7.363e+00,7.070e+00,7.608e+00
1.784e-02,4.700e-01,2.645e-01,2.744e-01,1.380e+00,9.614e-01,1.963e+00,2.956e+00,3.035e+00,2.469e+00,2.242e+00,3.448e+00,3.036e+00,3.880e+00,3.631e+00,4.389e+00,2.913e+00,4.583e+00,3.807e+00,3.751e+00,4.511e+00,4.304e+00,5.388e+00,5.388e+00,6.086e+00,6.401e+00,6.681e+00,7.234e+00,7.198e+00,6.578e+00,6.501e+00,7.567e+00,6.406e+00,6.928e+00,6.803e+00,7.136e+00,6.816e+00,7.747e+00,5.014e+00,6.979e+00,7.437e+00,7.507e+00,6.889e+00,7.446e+00,6.876e+00,7.811e+00,7.546e+00,9.723e+00,7.133e+00,6.159e+00,7.563e+00,5.721e+00,8.024e+00,7.287e+00,6.773e+00,7.043e+00,7.162e+00,7.343e+00,7.134e+00,6.934e+00,6.147e+00,7.636e+00,6.361e+00,6.456e+00,6.496e+00,6.680e+00,8.012e+00,6.339e+00,7.989e+00,8.261e+00,7.726e+00,7.554e+00,7.426e+00,7.648e+00,6.700e+00,7.257e+00,6.131e+00,7.406e+00,8.049e+00,7.025e+00,6.064e+00,7.300e+00,6.896e+00,8.444e+00
1.645e-02,3.385e-01,3.783e-01,2.378e-01,1.505e+00,9.635e-01,1.486e+00,1.886e+00,2.160e+00,2.206e+00,2.049e+00,3.002e+00,3.757e+00,3.587e+00,4.215e+00,5.278e+00,3.570e+00,5.227e+00,4.670e+00,4.424e+00,5.072e+00,6.049e+00,6.576e+00,5.458e+00,6.130e+00,7.243e+00,8.069e+00,8.047e+00,8.163e+00,6.969e+00,7.520e+00,8.356e+00,7.847e+00,8.473e+00,7.966e+00,7.892e+00,8.100e+00,8.204e+00,6.116e+00,7.967e+00,9.229e+00,9.386e+00,8.664e+00,8.279e+00,7.977e+00,9.084e+00,8.472e+00,9.536e+00,7.902e+00,7.325e+00,9.190e+00,6.617e+00,9.077e+00,8.249e+00,7.692e+00,7.736e+00,8.101e+00,7.989e+00,7.537e+00,7.998e+00,7.663e+00,8.379e+00,7.363e+00,8.664e+00,9.451e+00,8.360e+00,8.684e+00,7.566e+00,9.465e+00,8.993e+00,9.343e+00,8.735e+00,8.498e+00,9.023e+00,7.321e+00,8.747e+00,7.592e+00,8.344e+00,9.203e+00,7.247e+00,7.205e+00,7.805e+00,8.080e+00,1.023e+01
2.293e-02,4.448e-01,3.152e-01,2.106e-01,1.552e+00,1.016e+00,2.347e+00,2.849e+00,2.863e+00,2.104e+00,2.211e+00,3.663e+00,3.404e+00,3.580e+00,3.964e+00,4.781e+00,2.520e+00,4.133e+00,4.416e+00,4.357e+00,4.216e+00,4.594e+00,6.063e+00,5.323e+00,5.637e+00,5.898e+00,5.998e+00,5.662e+00,7.757e+00,7.500e+00,6.576e+00,7.629e+00,6.870e+00,7.852e+00,7.419e+00,7.076e+00,7.533e+00,6.570e+00,6.896e+00,6.381e+00,8.448e+00,7.341e+00,7.074e+00,8.587e+00,6.620e+00,8.495e+00,7.533e+00,8.192e+00,7.288e+00,6.836e+00,7.845e+00,5.991e+00,8.130e+00,8.219e+00,5.852e+00,6.587e+00,7.421e+00,6.171e+00,7.558e+00,7.367e+00,6.377e+00,7.824e+00,7.494e+00,7.168e+00,6.697e+00,7.660e+00,8.899e+00,7.245e+00,7.922e+00,7.562e+00,6.976e+00,7.034e+00,7.435e+00,8.264e+00,7.213e+00,7.101e+00,7.639e+00,7.740e+00,7.474e+00,7.118e+00,7.005e+00,6.780e+00,7.771e+00,7.769e+00
1.018e-02,7.448e-01,2.737e-01,6.024e-01,2.157e+00,1.614e+00,2.507e+00,3.314e+00,2.744e+00,2.337e+00,2.847e+00,4.016e+00,3.319e+00,4.133e+00,4.230e+00,5.280e+00,3.305e+00,4.388e+00,3.853e+00,4.443e+00,5.364e+00,5.052e+00,6.101e+00,6.046e+00,5.413e+00,5.581e+00,5.742e+00,5.558e+00,7.319e+00,7.380e+00,7.387e+00,7.133e+00,7.329e+00,7.924e+00,8.003e+00,7.595e+00,7.413e+00,7.288e+00,5.874e+00,7.127e+00,8.460e+00,7.806e+00,6.608e+00,8.655e+00,7.338e+00,7.984e+00,7.067e+00,9.026e+00,7.082e+00,6.661e+00,6.929e+00,6.104e+00,8.428e+00,7.959e+00,6.610e+00,6.087e+00,7.467e+00,7.169e+00,7.856e+00,7.238e+00,6.761e+00,7.576e+00,7.878e+00,7.547e+00,7.400e+00,7.079e+00,8.579e+00,7.130e+00,7.821e+00,7.312e+00,7.910e+00,8.733e+00,7.333e+00,7.486e+00,7.473e+00,7.976e+00,7.194e+00,7.475e+00,8.693e+00,7.950e+00,7.821e+00,7.798e+00,7.009e+00,8.032e+00
8.937e-03,4.003e-01,4.582e-01,4.049e-01,1.685e+00,1.428e+00,1.420e+00,1.632e+00,1.402e+00,1.336e+00,1.762e+00,3.009e+00,2.183e+00,3.092e+00,3.228e+00,3.880e+00,3.383e+00,3.973e+00,3.973e+00,3.562e+00,4.872e+00,4.016e+00,5.915e+00,5.216e+00,6.108e+00,4.985e+00,5.127e+00,6.249e+00,7.605e+00,6.621e+00,6.919e+00,8.606e+00,6.187e+00,8.513e+00,8.245e+00,6.829e+00,7.435e+00,6.769e+00,5.171e+00,6.865e+00,7.689e+00,6.525e+00,6.438e+00,8.441e+00,7.199e+00,6.920e+00,7.171e+00,8.365e+00,7.161e+00,7.104e+00,6.841e+00,5.403e+00,6.841e+00,6.989e+00,5.862e+00,6.310e+00,7.201e+00,6.701e+00,6.722e+00,7.177e+00,6.608e+00,8.065e+00,7.609e+00,7.846e+00,8.009e+00,7.440e+00,7.723e+00,5.753e+00,9.014e+00,8.176e+00,6.721e+00,8.296e+00,6.852e+00,8.309e+00,6.775e+00,7.596e+00,7.886e+00,7.309e+00,7.691e+00,7.092e+00,6.929e+00,7.371e+00,7.568e+00,8.281e+00
2.794e-02,8.624e-01,6.833e-01,6.467e-01,3.076e+00,2.327e+00,3.456e+00,3.929e+00,3.460e+00,2.836e+00,3.210e+00,5.150e+00,4.752e+00,5.506e+00,5.272e+00,6.138e+00,4.341e+00,6.251e+00,5.903e+00,5.483e+00,6.835e+00,6.400e+00,7.303e+00,6.589e+00,7.457e+00,7.774e+00,7.093e+00,8.326e+00,8.966e+00,9.649e+00,9.762e+00,1.155e+01,9.232e+00,1.150e+01,1.024e+01,1.016e+01,1.036e+01,9.001e+00,8.118e+00,9.429e+00,1.088e+01,9.751e+00,9.227e+00,1.118e+01,9.675e+00,1.031e+01,1.022e+01,1.142e+01,9.030e+00,9.826e+00,1.100e+01,7.850e+00,1.049e+01,1.072e+01,8.094e+00,8.996e+00,1.059e+01,9.233e+00,9.142e+00,9.819e+00,8.839e+00,1.089e+01,1.102e+01,1.093e+01,1.122e+01,1.018e+01,1.166e+01,9.929e+00,1.127e+01,1.078e+01,9.866e+00,1.018e+01,1.050e+01,1.065e+01,9.619e+00,1.041e+01,1.087e+01,9.596e+00,1.106e+01,1.057e+01,9.939e+00,9.901e+00,9.730e+00,1.123e+01
2.491e-02,4.106e-01,4.799e-01,2.530e-01,2.175e+00,1.088e+00,2.159e+00,2.613e+00,2.542e+00,2.325e+00,2.353e+00,4.234e+00,2.982e+00,3.686e+00,3.568e+00,5.374e+00,3.690e+00,4.532e+00,4.370e+00,4.289e+00,4.436e+00,5.068e+00,6.344e+00,5.936e+00,5.178e+00,5.691e+00,5.189e+00,6.349e+00,7.303e+00,7.406e+00,6.974e+00,8.280e+00,7.381e+00,8.908e+00,8.265e+00,7.610e+00,8.254e+00,8.159e+00,6.685e+00,7.872e+00,8.560e+00,8.925e+00,7.671e+00,8.895e+00,7.553e+00,9.073e+00,7.973e+00,1.004e+01,7.955e+00,8.963e+00,8.464e+00,6.686e+00,8.259e+00,9.105e+00,7.531e+00,6.449e+00,8.290e+00,7.167e+00,8.256e+00,7.761e+00,7.555e+00,8.410e+00,8.527e+00,8.902e+00,8.606e+00,7.475e+00,9.461e+00,7.078e+00,8.177e+00,9.122e+00,9.048e+00,8.115e+00,7.644e+00,8.969e+00,7.674e+00,9.326e+00,8.535e+00,8.077e+00,8.911e+00,9.055e+00,7.348e+00,7.443e+00,7.994e+00,8.975e+00
8.447e-05,3.594e-01,5.923e-02,3.405e-01,1.437e+00,9.085e-01,1.656e+00,2.030e+00,1.804e+00,1.628e+00,2.034e+00,2.672e+00,2.940e+00,3.208e+00,4.056e+00,4.659e+00,2.758e+00,4.177e+00,3.800e+00,3.757e+00,5.520e+00,5.815e+00,6.301e+00,5.981e+00,6.752e+00,6.382e+00,7.265e+00,6.642e+00,7.899e+00,7.538e+00,6.797e+00,8.818e+00,7.763e+00,9.672e+00,8.187e+00,8.644e+00,8.414e+00,9.214e+00,7.260e+00,1.052e+01,1.033e+01,9.976e+00,8.899e+00,8.721e+00,1.003e+01,1.099e+01,1.030e+01,1.063e+01,9.099e+00,9.624e+00,8.596e+00,8.138e+00,1.050e+01,9.905e+00,7.761e+00,7.620e+00,9.914e+00,9.921e+00,9.363e+00,8.940e+00,8.736e+00,9.411e+00,8.507e+00,9.314e+00,9.938e+00,8.189e+00,9.400e+00,9.490e+00,1.052e+01,9.655e+00,1.020e+01,1.111e+01,9.357e+00,9.851e+00,8.381e+00,9.778e+00,9.581e+00,9.080e+00,1.028e+01,9.093e+00,9.438e+00,7.783e+00,8.601e+00,1.095e+01
1.629e-02,1.775e-01,2.852e-01,6.693e-02,8.581e-01,4.937e-01,1.006e+00,1.474e+00,1.760e+00,1.872e+00,1.552e+00,2.327e+00,2.633e+00,2.495e+00,2.523e+00,3.819e+00,3.363e+00,4.232e+00,3.488e+00,3.217e+00,3.857e+00,5.195e+00,6.172e+00,4.998e+00,5.531e+00,5.512e+00,5.766e+00,6.103e+00,6.401e+00,6.058e+00,6.689e+00,7.284e+00,7.869e+00,7.926e+00,8.247e+00,7.274e+00,8.009e+00,8.225e+00,5.759e+00,7.961e+00,8.732e+00,8.802e+00,7.251e+00,7.818e+00,7.568e+00,8.438e+00,7.501e+00,9.448e+00,8.317e+00,7.459e+00,8.399e+00,7.054e+00,8.168e+00,7.866e+00,7.979e+00,6.771e+00,7.467e+00,7.276e+00,8.237e+00,8.171e+00,7.626e+00,7.823e+00,7.186e+00,8.060e+00,8.561e+00,7.910e+00,8.618e+00,6.845e+00,8.651e+00,7.582e+00,8.112e+00,9.156e+00,7.451e+00,8.153e+00,7.122e+00,8.776e+00,7.996e+00,9.273e+00,9.340e+00,7.673e+00,6.609e+00,7.588e+00,7.659e+00,9.787e+00
1.886e-02,7.630e-01,4.960e-01,5.992e-01,2.193e+00,1.536e+00,1.751e+00,2.762e+00,2.312e+00,2.082e+00,1.815e+00,3.267e+00,3.123e+00,4.216e+00,4.241e+00,5.942e+00,3.012e+00,4.347e+00,4.228e+00,4.366e+00,5.109e+00,4.438e+00,5.422e+00,5.465e+00,5.802e+00,6.198e+00,5.847e+00,7.050e+00,8.199e+00,6.632e+00,7.333e+00,8.601e+00,6.634e+00,8.491e+00,9.123e+00,8.954e+00,1.008e+01,8.330e+00,7.475e+00,1.023e+01,8.803e+00,1.013e+01,9.704e+00,1.017e+01,9.745e+00,9.756e+00,1.002e+01,1.138e+01,9.885e+00,9.511e+00,9.301e+00,7.520e+00,1.178e+01,9.061e+00,7.509e+00,8.305e+00,8.951e+00,1.060e+01,8.671e+00,9.147e+00,8.110e+00,1.054e+01,9.714e+00,9.257e+00,9.779e+00,8.827e+00,1.033e+01,8.689e+00,1.050e+01,9.924e+00,9.747e+00,1.071e+01,9.326e+00,1.019e+01,9.026e+00,9.400e+00,8.818e+00,9.935e+00,1.086e+01,1.065e+01,8.794e+00,9.058e+00,8.852e+00,1.040e+01
2.007e-02,4.225e-01,4.455e-01,2.790e-01,1.669e+00,1.125e+00,1.773e+00,2.255e+00,2.373e+00,2.072e+00,1.479e+00,2.859e+00,2.623e+00,2.873e+00,2.459e+00,3.857e+00,2.674e+00,3.971e+00,4.043e+00,3.246e+00,4.700e+00,5.274e+00,6.446e+00,5.173e+00,6.113e+00,6.422e+00,6.324e+00,6.839e+00,7.333e+00,7.487e+00,7.371e+00,8.631e+00,7.672e+00,9.405e+00,8.119e+00,8.136e+00,8.690e+00,8.521e+00,6.973e+00,8.763e+00,1.013e+01,9.331e+00,8.821e+00,1.045e+01,8.778e+00,9.904e+00,8.947e+00,1.068e+01,8.907e+00,9.376e+00,8.984e+00,7.714e+00,1.016e+01,8.373e+00,8.686e+00,7.749e+00,8.833e+00,8.202e+00,8.866e+00,8.941e+00,8.206e+00,9.786e+00,9.210e+00,1.008e+01,9.410e+00,9.223e+00,9.609e+00,8.043e+00,1.033e+01,1.033e+01,8.542e+00,9.168e+00,9.340e+00,9.476e+00,8.459e+00,9.580e+00,1.046e+01,9.987e+00,9.063e+00,8.704e+00,7.756e+00,8.455e+00,8.998e+00,1.007e+01
2.549e-03,3.951e-01,1.123e-01,3.335e-01,1.512e+00,1.075e+00,1.957e+00,2.178e+00,2.509e+00,1.685e+00,2.161e+00,3.229e+00,3.266e+00,3.472e+00,4.508e+00,5.088e+00,2.999e+00,4.913e+00,4.670e+00,4.431e+00,5.523e+00,5.675e+00,6.646e+00,5.986e+00,7.324e+00,6.159e+00,7.920e+00,7.166e+00,8.057e+00,7.436e+00,7.525e+00,8.996e+00,7.456e+00,9.633e+00,9.200e+00,8.969e+00,1.012e+01,1.038e+01,8.547e+00,1.032e+01,9.631e+00,1.009e+01,1.043e+01,1.038e+01,8.998e+00,1.066e+01,1.024e+01,1.115e+01,9.923e+00,9.645e+00,9.662e+00,6.789e+00,1.070e+01,9.448e+00,7.667e+00,9.452e+00,9.794e+00,1.004e+01,1.022e+01,9.889e+00,9.849e+00,1.048e+01,9.037e+00,9.580e+00,1.079e+01,9.653e+00,1.099e+01,9.070e+00,1.155e+01,9.980e+00,1.051e+01,1.096e+01,9.983e+00,9.897e+00,9.068e+00,1.091e+01,1.114e+01,9.770e+00,1.028e+01,1.054e+01,9.663e+00,9.841e+00,9.532e+00,1.088e+01
1.619e-03,2.137e-01,1.772e-01,2.528e-01,1.290e+00,8.172e-01,1.337e+00,2.022e+00,1.830e+00,1.928e+00,1.927e+00,3.052e+00,2.957e+00,3.478e+00,3.861e+00,5.187e+00,3.840e+00,4.034e+00,3.574e+00,4.174e+00,4.655e+00,4.702e+00,5.154e+00,5.444e+00,5.251e+00,5.720e+00,6.005e+00,6.828e+00,6.728e+00,7.126e+00,6.972e+00,9.315e+00,7.621e+00,9.300e+00,8.077e+00,8.277e+00,9.412e+00,8.830e+00,7.897e+00,9.722e+00,1.095e+01,9.658e+00,1.032e+01,1.028e+01,1.054e+01,1.095e+01,9.555e+00,1.145e+01,9.788e+00,1.147e+01,1.050e+01,7.284e+00,1.174e+01,9.917e+00,7.960e+00,7.864e+00,8.744e+00,1.019e+01,9.380e+00,9.463e+00,9.689e+00,1.097e+01,9.663e+00,9.460e+00,1.067e+01,1.013e+01,1.030e+01,8.984e+00,1.127e+01,1.090e+01,1.125e+01,1.172e+01,9.847e+00,9.481e+00,8.418e+00,1.060e+01,1.038e+01,1.076e+01,1.028e+01,1.085e+01,8.666e+00,9.469e+00,8.798e+00,1.133e+01
2.748e-02,7.440e-01,5.227e-01,4.912e-01,2.211e+00,1.570e+00,2.419e+00,3.243e+00,2.767e+00,2.445e+00,2.377e+00,3.748e+00,3.120e+00,4.232e+00,4.155e+00,5.088e+00,2.990e+00,4.689e+00,4.400e+00,4.189e+00,5.163e+00,4.740e+00,5.565e+00,5.112e+00,5.498e+00,6.342e+00,6.337e+00,6.402e+00,7.075e+00,7.139e+00,6.775e+00,8.915e+00,7.201e+00,8.405e+00,7.921e+00,8.102e+00,7.780e+00,8.462e+00,6.306e+00,8.665e+00,1.013e+01,8.889e+00,9.511e+00,9.041e+00,8.659e+00,9.770e+00,9.459e+00,1.080e+01,8.306e+00,9.247e+00,1.027e+01,7.575e+00,9.946e+00,9.207e+00,8.244e+00,8.096e+00,9.498e+00,8.731e+00,8.804e+00,9.346e+00,8.052e+00,9.907e+00,8.823e+00,9.987e+00,8.842e+00,9.484e+00,1.016e+01,9.098e+00,9.710e+00,1.098e+01,8.964e+00,9.506e+00,9.680e+00,9.160e+00,8.476e+00,8.964e+00,1.029e+01,9.006e+00,9.661e+00,9.180e+00,7.687e+00,8.283e+00,9.027e+00,1.052e+01
2.263e-02,7.655e-01,4.232e-01,4.914e-01,1.910e+00,1.202e+00,1.590e+00,2.122e+00,2.518e+00,1.971e+00,2.050e+00,3.192e+00,3.157e+00,3.204e+00,3.043e+00,4.164e+00,3.271e+00,4.243e+00,4.010e+00,3.585e+00,3.797e+00,5.256e+00,6.791e+00,5.222e+00,4.880e+00,5.964e+00,5.818e+00,6.648e+00,7.421e+00,6.990e+00,8.524e+00,9.181e+00,9.187e+00,9.209e+00,9.006e+00,8.721e+00,8.870e+00,9.797e+00,7.860e+00,9.943e+00,1.120e+01,1.024e+01,1.046e+01,1.113e+01,9.806e+00,1.159e+01,1.107e+01,1.199e+01,1.021e+01,1.057e+01,1.106e+01,9.300e+00,1.150e+01,9.953e+00,1.030e+01,8.612e+00,9.900e+00,1.071e+01,8.957e+00,1.156e+01,1.026e+01,1.059e+01,1.084e+01,1.089e+01,1.139e+01,1.074e+01,1.135e+01,1.057e+01,1.172e+01,1.094e+01,1.124e+01,1.208e+01,9.439e+00,1.093e+01,9.678e+00,1.087e+01,1.178e+01,1.047e+01,1.093e+01,1.017e+01,1.001e+01,1.096e+01,9.353e+00,1.220e+01
3.286e-03,2.947e-01,2.766e-01,3.287e-01,1.689e+00,1.242e+00,1.917e+00,2.496e+00,2.429e+00,1.998e+00,2.238e+00,3.940e+00,3.850e+00,4.423e+00,4.537e+00,6.423e+00,4.015e+00,4.813e+00,4.881e+00,5.187e+00,5.028e+00,5.088e+00,6.509e+00,6.420e+00,6.361e+00,6.219e+00,6.482e+00,7.436e+00,7.995e+00,6.649e+00,7.966e+00,8.735e+00,7.123e+00,8.867e+00,9.838e+00,8.756e+00,1.146e+01,9.960e+00,8.746e+00,9.848e+00,1.112e+01,1.188e+01,1.174e+01,1.107e+01,1.199e+01,1.299e+01,1.195e+01,1.372e+01,1.217e+01,1.286e+01,1.076e+01,9.594e+00,1.316e+01,1.081e+01,1.086e+01,1.001e+01,1.144e+01,1.046e+01,1.109e+01,1.166e+01,1.191e+01,1.054e+01,1.144e+01,1.271e+01,1.309e+01,1.137e+01,1.236e+01,1.098e+01,1.215e+01,1.200e+01,1.232e+01,1.175e+01,1.134e+01,1.116e+01,1.037e+01,1.196e+01,1.153e+01,1.248e+01,1.206e+01,1.212e+01,1.032e+01,1.136e+01,9.531e+00,1.418e+01
3.924e-04,3.715e-01,2.112e-01,3.725e-01,1.119e+00,9.952e-01,9.437e-01,1.471e+00,1.684e+00,1.512e+00,2.060e+00,2.914e+00,3.165e+00,3.321e+00,3.486e+00,4.530e+00,3.371e+00,4.001e+00,3.659e+00,3.810e+00,4.439e+00,4.501e+00,6.492e+00,5.848e+00,6.327e+00,6.254e+00,6.337e+00,6.466e+00,8.309e+00,6.545e+00,7.572e+00,9.226e+00,8.311e+00,9.351e+00,8.571e+00,9.012e+00,9.805e+00,9.504e+00,8.322e+00,1.103e+01,1.156e+01,1.155e+01,1.130e+01,1.062e+01,1.108e+01,1.283e+01,1.194e+01,1.334e+01,1.306e+01,1.197e+01,1.037e+01,9.350e+00,1.277e+01,1.055e+01,9.611e+00,1.029e+01,1.122e+01,1.210e+01,1.089e+01,1.212e+01,1.240e+01,1.193e+01,1.074e+01,1.211e+01,1.242e+01,1.145e+01,1.241e+01,1.177e+01,1.228e+01,1.074e+01,1.247e+01,1.384e+01,1.076e+01,1.110e+01,1.092e+01,1.246e+01,1.287e+01,1.128e+01,1.163e+01,1.297e+01,1.162e+01,1.237e+01,9.429e+00,1.409e+01
1.923e-02,8.522e-01,3.408e-01,5.976e-01,2.583e+00,1.643e+00,2.852e+00,3.350e+00,3.423e+00,2.526e+00,2.394e+00,3.579e+00,4.315e+00,4.128e+00,3.667e+00,4.362e+00,2.617e+00,4.829e+00,3.867e+00,3.594e+00,4.613e+00,5.603e+00,5.294e+00,4.929e+00,4.708e+00,6.724e+00,6.166e+00,6.877e+00,6.986e+00,7.339e+00,7.122e+00,8.217e+00,7.561e+00,8.012e+00,7.151e+00,8.303e+00,7.391e+00,8.459e+00,6.961e+00,8.533e+00,9.034e+00,9.449e+00,9.328e+00,1.022e+01,9.598e+00,1.112e+01,1.086e+01,1.230e+01,9.830e+00,9.860e+00,9.530e+00,8.396e+00,1.133e+01,9.181e+00,9.007e+00,7.775e+00,9.137e+00,1.023e+01,8.042e+00,1.012e+01,8.944e+00,1.046e+01,1.008e+01,9.135e+00,9.890e+00,9.298e+00,1.131e+01,9.893e+00,1.116e+01,1.038e+01,1.021e+01,1.110e+01,9.387e+00,1.054e+01,9.465e+00,1.048e+01,9.873e+00,9.373e+00,1.000e+01,1.034e+01,9.654e+00,9.701e+00,9.400e+00,1.194e+01
1.129e-02,5.359e-01,1.825e-01,3.666e-01,1.356e+00,9.811e-01,1.686e+00,2.239e+00,2.180e+00,1.749e+00,2.714e+00,3.581e+00,3.493e+00,3.671e+00,4.851e+00,5.676e+00,3.652e+00,4.312e+00,4.340e+00,4.897e+00,4.944e+00,5.308e+00,6.447e+00,5.621e+00,6.090e+00,5.864e+00,6.279e+00,6.068e+00,7.156e+00,6.654e+00,7.536e+00,8.888e+00,7.613e+00,9.075e+00,8.751e+00,9.207e+00,1.087e+01,9.478e+00,9.844e+00,1.003e+01,1.188e+01,1.126e+01,1.168e+01,1.184e+01,1.243e+01,1.429e+01,1.142e+01,1.245e+01,1.170e+01,1.270e+01,1.220e+01,9.054e+00,1.361e+01,1.213e+01,9.588e+00,1.060e+01,1.100e+01,1.029e+01,1.031e+01,1.200e+01,1.065e+01,1.232e+01,1.294e+01,1.230e+01,1.288e+01,1.183e+01,1.302e+01,1.184e+01,1.378e+01,1.242e+01,1.147e+01,1.337e+01,1.207e+01,1.222e+01,1.111e+01,1.169e+01,1.276e+01,1.212e+01,1.194e+01,1.262e+01,1.058e+01,1.149e+01,1.057e+01,1.285e+01
6.893e-03,7.846e-02,2.119e-01,8.882e-02,8.264e-01,6.560e-01,1.184e+00,1.520e+00,1.389e+00,1.694e+00,1.607e+00,2.117e+00,2.653e+00,2.861e+00,2.190e+00,3.823e+00,3.259e+00,3.837e+00,3.397e+00,2.763e+00,4.188e+00,3.807e+00,4.870e+00,5.185e+00,5.433e+00,5.030e+00,5.061e+00,5.954e+00,5.803e+00,6.672e+00,5.750e+00,7.280e+00,6.848e+00,8.079e+00,6.594e+00,7.622e+00,8.034e+00,7.636e+00,6.217e+00,7.550e+00,1.015e+01,8.918e+00,8.061e+00,7.938e+00,9.960e+00,1.212e+01,1.056e+01,1.117e+01,1.015e+01,1.133e+01,9.738e+00,9.017e+00,9.960e+00,9.942e+00,9.298e+00,9.255e+00,1.022e+01,9.033e+00,9.301e+00,9.619e+00,9.601e+00,1.034e+01,1.008e+01,1.056e+01,1.064e+01,1.043e+01,1.227e+01,9.868e+00,1.170e+01,1.142e+01,9.382e+00,1.201e+01,9.623e+00,1.060e+01,9.945e+00,1.087e+01,1.064e+01,1.062e+01,1.039e+01,9.990e+00,9.309e+00,9.709e+00,8.923e+00,1.276e+01
7.136e-04,7.743e-02,2.772e-01,1.735e-01,1.111e+00,1.017e+00,1.330e+00,1.584e+00,2.017e+00,2.069e+00,2.225e+00,3.220e+00,3.613e+00,3.371e+00,3.599e+00,4.599e+00,3.686e+00,5.075e+00,4.079e+00,4.037e+00,4.831e+00,4.448e+00,5.211e+00,5.244e+00,5.822e+00,4.958e+00,5.837e+00,6.216e+00,7.192e+00,6.340e+00,6.957e+00,7.902e+00,7.490e+00,9.150e+00,8.009e+00,8.082e+00,9.236e+00,9.040e+00,7.687e+00,9.404e+00,1.072e+01,1.067e+01,1.018e+01,9.153e+00,1.020e+01,1.195e+01,1.157e+01,1.240e+01,1.152e+01,1.229e+01,1.029e+01,9.049e+00,1.130e+01,9.889e+00,1.030e+01,9.554e+00,1.251e+01,1.147e+01,1.021e+01,1.166e+01,1.001e+01,1.183e+01,1.193e+01,1.300e+01,1.287e+01,1.176e+01,1.193e+01,1.108e+01,1.242e+01,1.154e+01,1.097e+01,1.331e+01,1.024e+01,1.095e+01,1.140e+01,1.252e+01,1.162e+01,1.180e+01,1.229e+01,1.120e+01,1.174e+01,1.145e+01,8.756e+00,1.262e+01
1.254e-02,6.391e-01,4.524e-01,5.513e-01,2.078e+00,1.762e+00,2.312e+00,3.376e+00,3.311e+00,3.082e+00,2.511e+00,3.885e+00,4.893e+00,4.745e+00,4.273e+00,5.860e+00,4.687e+00,6.112e+00,5.498e+00,4.876e+00,6.659e+00,6.416e+00,7.837e+00,7.140e+00,7.282e+00,7.414e+00,7.179e+00,8.036e+00,8.621e+00,8.607e+00,8.941e+00,1.005e+01,8.709e+00,1.070e+01,1.041e+01,1.055e+01,9.418e+00,9.903e+00,8.200e+00,9.868e+00,1.200e+01,1.108e+01,1.137e+01,1.170e+01,1.133e+01,1.359e+01,1.287e+01,1.464e+01,1.237e+01,1.309e+01,1.057e+01,1.085e+01,1.313e+01,1.173e+01,1.096e+01,1.032e+01,1.326e+01,1.258e+01,1.076e+01,1.279e+01,1.104e+01,1.364e+01,1.175e+01,1.294e+01,1.203e+01,1.200e+01,1.301e+01,1.188e+01,1.367e+01,1.298e+01,1.212e+01,1.456e+01,1.229e+01,1.267e+01,1.122e+01,1.342e+01,1.314e+01,1.254e+01,1.348e+01,1.312e+01,1.204e+01,1.205e+01,1.179e+01,1.427e+01
1.913e-02,5.546e-01,4.182e-01,3.970e-01,2.035e+00,1.554e+00,2.529e+00,2.691e+00,2.356e+00,1.815e+00,2.599e+00,3.858e+00,3.605e+00,4.535e+00,4.408e+00,5.002e+00,3.340e+00,5.028e+00,4.414e+00,4.312e+00,5.263e+00,5.040e+00,6.120e+00,6.009e+00,6.851e+00,7.150e+00,6.682e+00,7.661e+00,8.820e+00,8.512e+00,8.227e+00,1.037e+01,8.682e+00,1.023e+01,9.595e+00,8.799e+00,1.142e+01,1.070e+01,9.173e+00,1.098e+01,1.258e+01,1.106e+01,1.147e+01,1.256e+01,1.296e+01,1.372e+01,1.400e+01,1.645e+01,1.469e+01,1.516e+01,1.249e+01,1.326e+01,1.530e+01,1.382e+01,1.250e+01,1.221e+01,1.420e+01,1.254e+01,1.378e+01,1.467e+01,1.239e+01,1.477e+01,1.521e+01,1.429e+01,1.474e+01,1.460e+01,1.562e+01,1.174e+01,1.607e+01,1.461e+01,1.341e+01,1.665e+01,1.423e+01,1.450e+01,1.367e+01,1.455e+01,1.590e+01,1.367e+01,1.602e+01,1.457e+01,1.292e+01,1.426e+01,1.326e+01,1.750e+01
1.443e-02,5.109e-01,3.037e-01,3.820e-01,1.822e+00,1.289e+00,2.231e+00,2.688e+00,2.287e+00,2.118e+00,2.080e+00,2.971e+00,3.789e+00,3.756e+00,4.225e+00,5.459e+00,3.531e+00,4.759e+00,4.484e+00,4.272e+00,6.175e+00,5.928e+00,5.890e+00,5.473e+00,6.483e+00,6.454e+00,7.268e+00,7.492e+00,7.869e+00,8.817e+00,7.881e+00,9.105e+00,8.436e+00,1.085e+01,9.269e+00,1.010e+01,1.106e+01,9.084e+00,9.463e+00,1.070e+01,1.267e+01,1.125e+01,1.157e+01,1.161e+01,1.231e+01,1.302e+01,1.232e+01,1.320e+01,1.257e+01,1.422e+01,1.257e+01,1.110e+01,1.604e+01,1.371e+01,1.157e+01,1.057e+01,1.256e+01,1.197e+01,1.250e+01,1.247e+01,1.239e+01,1.334e+01,1.405e+01,1.323e+01,1.379e+01,1.332e+01,1.514e+01,1.223e+01,1.514e+01,1.346e+01,1.290e+01,1.557e+01,1.300e+01,1.341e+01,1.264e+01,1.325e+01,1.428e+01,1.403e+01,1.422e+01,1.400e+01,1.260e+01,1.279e+01,1.259e+01,1.665e+01
1.800e-02,3.736e-01,2.885e-01,2.001e-01,1.252e+00,6.436e-01,1.172e+00,1.491e+00,1.909e+00,1.691e+00,1.900e+00,2.622e+00,3.109e+00,3.034e+00,4.013e+00,5.483e+00,3.279e+00,4.093e+00,3.864e+00,4.132e+00,5.090e+00,6.185e+00,6.083e+00,5.171e+00,6.769e+00,6.520e+00,5.448e+00,6.866e+00,7.781e+00,7.334e+00,6.832e+00,8.823e+00,7.544e+00,8.848e+00,8.738e+00,7.484e+00,8.932e+00,8.837e+00,7.427e+00,9.889e+00,1.125e+01,9.907e+00,1.017e+01,1.135e+01,1.027e+01,1.102e+01,1.148e+01,1.302e+01,1.086e+01,1.148e+01,1.045e+01,1.068e+01,1.368e+01,1.147e+01,1.233e+01,1.067e+01,1.104e+01,9.964e+00,1.133e+01,1.221e+01,1.185e+01,1.236e+01,1.177e+01,1.280e+01,1.314e+01,1.220e+01,1.308e+01,1.145e+01,1.285e+01,1.246e+01,1.170e+01,1.321e+01,1.283e+01,1.198e+01,1.248e+01,1.211e+01,1.364e+01,1.277e+01,1.213e+01,1.277e+01,1.149e+01,1.248e+01,1.086e+01,1.296e+01
5.264e-03,5.509e-01,1.055e-01,4.096e-01,1.281e+00,1.155e+00,2.048e+00,2.677e+00,2.729e+00,2.043e+00,2.777e+00,3.483e+00,3.865e+00,3.943e+00,4.369e+00,6.042e+00,3.368e+00,3.983e+00,4.108e+00,4.948e+00,5.414e+00,4.959e+00,6.400e+00,5.860e+00,6.177e+00,6.172e+00,6.465e+00,6.671e+00,8.034e+00,7.296e+00,7.506e+00,9.121e+00,7.833e+00,9.685e+00,8.986e+00,9.306e+00,1.030e+01,9.261e+00,8.691e+00,9.476e+00,1.035e+01,9.875e+00,9.443e+00,1.136e+01,1.164e+01,1.249e+01,1.190e+01,1.399e+01,1.140e+01,1.262e+01,1.286e+01,1.088e+01,1.462e+01,1.410e+01,1.168e+01,1.248e+01,1.364e+01,1.216e+01,1.172e+01,1.275e+01,1.290e+01,1.361e+01,1.420e+01,1.404e+01,1.407e+01,1.297e+01,1.612e+01,1.275e+01,1.382e+01,1.277e+01,1.188e+01,1.369e+01,1.267e+01,1.467e+01,1.358e+01,1.358e+01,1.378e+01,1.350e+01,1.290e+01,1.469e+01,1.225e+01,1.273e+01,1.230e+01,1.575e+01
2.365e-02,5.227e-01,3.373e-01,2.842e-01,1.382e+00,6.843e-01,1.234e+00,2.288e+00,2.198e+00,2.135e+00,2.036e+00,3.133e+00,3.129e+00,3.738e+00,4.032e+00,5.973e+00,3.447e+00,4.234e+00,3.963e+00,4.270e+00,4.503e+00,4.488e+00,5.735e+00,5.637e+00,5.381e+00,6.383e+00,6.467e+00,7.281e+00,8.280e+00,7.155e+00,7.300e+00,9.478e+00,8.045e+00,9.713e+00,9.502e+00,9.666e+00,1.055e+01,1.005e+01,8.052e+00,1.177e+01,1.160e+01,1.150e+01,1.205e+01,1.157e+01,1.294e+01,1.371e+01,1.391e+01,1.456e+01,1.332e+01,1.489e+01,1.352e+01,1.274e+01,1.529e+01,1.499e+01,1.259e+01,1.322e+01,1.462e+01,1.410e+01,1.288e+01,1.542e+01,1.303e+01,1.602e+01,1.516e+01,1.522e+01,1.525e+01,1.478e+01,1.622e+01,1.451e+01,1.483e+01,1.586e+01,1.418e+01,1.717e+01,1.430e+01,1.485e+01,1.439e+01,1.364e+01,1.523e+01,1.432e+01,1.530e+01,1.539e+01,1.376e+01,1.378e+01,1.353e+01,1.653e+01
2.296e-02,8.856e-01,5.601e-01,6.619e-01,2.463e+00,1.847e+00,2.382e+00,3.476e+00,3.307e+00,2.985e+00,2.947e+00,4.428e+00,4.790e+00,5.050e+00,4.982e+00,7.448e+00,4.622e+00,5.594e+00,4.997e+00,5.582e+00,6.136e+00,5.729e+00,7.081e+00,6.595e+00,6.343e+00,6.968e+00,6.993e+00,7.621e+00,8.225e+00,7.945e+00,8.157e+00,9.204e+00,7.870e+00,1.009e+01,1.005e+01,9.317e+00,1.029e+01,9.787e+00,8.462e+00,1.020e+01,1.126e+01,1.156e+01,1.226e+01,1.190e+01,1.151e+01,1.401e+01,1.306e+01,1.450e+01,1.266e+01,1.344e+01,1.136e+01,1.099e+01,1.494e+01,1.394e+01,1.372e+01,1.249e+01,1.399e+01,1.290e+01,1.292e+01,1.399e+01,1.365e+01,1.378e+01,1.423e+01,1.442e+01,1.441e+01,1.501e+01,1.708e+01,1.376e+01,1.491e+01,1.547e+01,1.473e+01,1.541e+01,1.300e+01,1.441e+01,1.466e+01,1.344e+01,1.472e+01,1.433e+01,1.537e+01,1.568e+01,1.279e+01,1.423e+01,1.254e+01,1.628e+01
2.187e-02,8.265e-01,2.697e-01,5.168e-01,2.237e+00,1.345e+00,2.545e+00,2.840e+00,2.657e+00,1.663e+00,2.400e+00,3.400e+00,3.277e+00,4.173e+00,4.441e+00,4.714e+00,2.180e+00,4.453e+00,4.572e+00,3.935e+00,4.322e+00,5.352e+00,6.283e+00,5.743e+00,6.286e+00,6.945e+00,5.758e+00,6.040e+00,6.867e+00,6.242e+00,6.801e+00,8.683e+00,6.823e+00,6.791e+00,7.220e+00,8.058e+00,8.732e+00,8.047e+00,8.721e+00,9.443e+00,9.754e+00,9.997e+00,1.095e+01,1.165e+01,1.089e+01,1.325e+01,1.298e+01,1.444e+01,1.191e+01,1.383e+01,1.171e+01,1.170e+01,1.569e+01,1.342e+01,1.313e+01,1.318e+01,1.430e+01,1.311e+01,1.252e+01,1.503e+01,1.273e+01,1.466e+01,1.415e+01,1.390e+01,1.421e+01,1.448e+01,1.625e+01,1.270e+01,1.572e+01,1.582e+01,1.386e+01,1.572e+01,1.544e+01,1.519e+01,1.484e+01,1.425e+01,1.424e+01,1.384e+01,1.517e+01,1.595e+01,1.276e+01,1.408e+01,1.371e+01,1.569e+01
1.863e-02,3.252e-01,2.679e-01,1.682e-01,1.411e+00,7.307e-01,1.677e+00,1.890e+00,1.692e+00,1.511e+00,1.494e+00,2.364e+00,2.880e+00,2.648e+00,3.695e+00,4.524e+00,2.156e+00,3.325e+00,3.946e+00,3.764e+00,4.304e+00,5.368e+00,6.251e+00,4.253e+00,5.111e+00,6.183e+00,6.972e+00,5.693e+00,7.216e+00,6.675e+00,5.649e+00,8.821e+00,7.851e+00,9.688e+00,8.346e+00,7.953e+00,9.308e+00,8.414e+00,8.825e+00,1.114e+01,1.062e+01,9.813e+00,1.064e+01,1.163e+01,1.179e+01,1.199e+01,1.220e+01,1.347e+01,1.164e+01,1.246e+01,1.247e+01,1.184e+01,1.449e+01,1.386e+01,1.195e+01,1.314e+01,1.373e+01,1.361e+01,1.230e+01,1.416e+01,1.269e+01,1.527e+01,1.394e+01,1.339e+01,1.433e+01,1.408e+01,1.684e+01,1.381e+01,1.524e+01,1.471e+01,1.420e+01,1.617e+01,1.403e+01,1.519e+01,1.399e+01,1.563e+01,1.632e+01,1.409e+01,1.396e+01,1.497e+01,1.324e+01,1.197e+01,1.415e+01,1.691e+01
1.816e-02,4.197e-01,2.250e-01,2.201e-01,1.078e+00,5.919e-01,1.273e+00,2.093e+00,1.855e+00,1.694e+00,1.481e+00,2.336e+00,1.904e+00,2.565e+00,2.689e+00,4.389e+00,2.315e+00,3.301e+00,3.228e+00,3.001e+00,4.438e+00,4.311e+00,5.556e+00,5.246e+00,6.199e+00,5.118e+00,5.859e+00,6.545e+00,7.304e+00,6.964e+00,6.723e+00,7.673e+00,6.809e+00,9.460e+00,7.731e+00,8.577e+00,9.199e+00,9.166e+00,8.598e+00,1.087e+01,1.072e+01,1.149e+01,1.086e+01,1.074e+01,1.127e+01,1.306e+01,1.343e+01,1.369e+01,1.370e+01,1.397e+01,1.099e+01,1.119e+01,1.508e+01,1.469e+01,1.328e+01,1.320e+01,1.567e+01,1.410e+01,1.277e+01,1.358e+01,1.380e+01,1.601e+01,1.533e+01,1.585e+01,1.507e+01,1.478e+01,1.661e+01,1.451e+01,1.529e+01,1.567e+01,1.499e+01,1.709e+01,1.472e+01,1.589e+01,1.375e+01,1.477e+01,1.625e+01,1.498e+01,1.603e+01,1.644e+01,1.403e+01,1.519e+01,1.423e+01,1.766e+01
9.749e-03,6.593e-01,3.257e-01,5.534e-01,1.980e+00,1.425e+00,1.710e+00,1.875e+00,1.625e+00,1.571e+00,1.845e+00,2.355e+00,3.107e+00,3.482e+00,3.156e+00,5.314e+00,2.725e+00,4.307e+00,3.720e+00,3.485e+00,5.429e+00,5.188e+00,6.106e+00,5.508e+00,6.187e+00,6.324e+00,7.617e+00,6.796e+00,7.954e+00,7.426e+00,6.471e+00,9.455e+00,8.562e+00,1.013e+01,8.720e+00,8.840e+00,9.405e+00,8.543e+00,9.049e+00,1.054e+01,1.188e+01,1.089e+01,1.099e+01,1.171e+01,1.215e+01,1.296e+01,1.321e+01,1.272e+01,1.222e+01,1.293e+01,1.189e+01,1.165e+01,1.467e+01,1.324e+01,1.197e+01,1.369e+01,1.407e+01,1.312e+01,1.315e+01,1.457e+01,1.466e+01,1.540e+01,1.489e+01,1.500e+01,1.638e+01,1.620e+01,1.811e+01,1.405e+01,1.622e+01,1.508e+01,1.471e+01,1.788e+01,1.420e+01,1.472e+01,1.516e+01,1.534e+01,1.600e+01,1.486e+01,1.490e+01,1.524e+01,1.397e+01,1.346e+01,1.368e+01,1.798e+01
1.088e-02,1.382e-01,4.440e-01,1.973e-01,1.972e+00,1.268e+00,2.001e+00,1.853e+00,1.973e+00,2.181e+00,2.164e+00,3.406e+00,3.985e+00,3.865e+00,3.962e+00,4.958e+00,4.169e+00,5.839e+00,5.806e+00,4.341e+00,5.604e+00,6.571e+00,7.235e+00,6.247e+00,6.801e+00,6.909e+00,7.017e+00,7.138e+00,7.070e+00,6.888e+00,7.196e+00,8.465e+00,8.505e+00,8.611e+00,9.083e+00,7.842e+00,9.384e+00,9.107e+00,7.478e+00,9.729e+00,1.073e+01,1.051e+01,1.027e+01,9.994e+00,1.063e+01,1.147e+01,1.216e+01,1.275e+01,1.177e+01,1.088e+01,1.128e+01,1.116e+01,1.232e+01,1.155e+01,1.297e+01,1.168e+01,1.403e+01,1.344e+01,1.261e+01,1.425e+01,1.273e+01,1.482e+01,1.331e+01,1.459e+01,1.511e+01,1.415e+01,1.577e+01,1.313e+01,1.530e+01,1.470e+01,1.531e+01,1.695e+01,1.455e+01,1.473e+01,1.360e+01,1.633e+01,1.399e+01,1.602e+01,1.634e+01,1.429e+01,1.381e+01,1.296e+01,1.399e+01,1.638e+01
1.395e-02,3.041e-01,4.747e-01,2.770e-01,1.605e+00,1.333e+00,1.697e+00,1.929e+00,2.006e+00,1.841e+00,1.938e+00,3.142e+00,4.093e+00,3.744e+00,4.087e+00,4.521e+00,3.731e+00,4.509e+00,4.504e+00,4.135e+00,4.602e+00,4.384e+00,5.300e+00,4.855e+00,5.485e+00,5.880e+00,5.856e+00,7.024e+00,8.136e+00,7.085e+00,6.825e+00,8.957e+00,7.095e+00,8.966e+00,7.730e+00,8.020e+00,9.347e+00,9.029e+00,7.661e+00,9.120e+00,1.028e+01,1.008e+01,1.148e+01,1.098e+01,1.178e+01,1.261e+01,1.274e+01,1.306e+01,1.218e+01,1.236e+01,1.157e+01,1.005e+01,1.312e+01,1.258e+01,1.030e+01,1.248e+01,1.359e+01,1.394e+01,1.110e+01,1.277e+01,1.266e+01,1.558e+01,1.492e+01,1.506e+01,1.630e+01,1.545e+01,1.587e+01,1.424e+01,1.459e+01,1.390e+01,1.493e+01,1.616e+01,1.475e+01,1.446e+01,1.361e+01,1.415e+01,1.470e+01,1.428e+01,1.587e+01,1.535e+01,1.413e+01,1.417e+01,1.233e+01,1.681e+01
1.807e-02,7.106e-01,3.790e-01,5.241e-01,2.065e+00,1.281e+00,1.837e+00,2.738e+00,2.317e+00,2.193e+00,2.051e+00,3.231e+00,2.626e+00,3.656e+00,3.145e+00,5.000e+00,2.681e+00,3.951e+00,3.805e+00,3.691e+00,4.712e+00,5.197e+00,6.701e+00,6.189e+00,5.989e+00,6.719e+00,6.315e+00,6.342e+00,7.699e+00,7.064e+00,6.781e+00,8.389e+00,7.934e+00,7.880e+00,8.841e+00,8.380e+00,8.458e+00,9.216e+00,7.569e+00,1.003e+01,1.030e+01,1.071e+01,9.868e+00,1.091e+01,1.181e+01,1.366e+01,1.223e+01,1.432e+01,1.287e+01,1.252e+01,1.137e+01,1.179e+01,1.474e+01,1.362e+01,1.367e+01,1.283e+01,1.350e+01,1.309e+01,1.293e+01,1.387e+01,1.391e+01,1.558e+01,1.380e+01,1.461e+01,1.458e+01,1.527e+01,1.674e+01,1.404e+01,1.582e+01,1.502e+01,1.537e+01,1.723e+01,1.506e+01,1.635e+01,1.510e+01,1.460e+01,1.467e+01,1.602e+01,1.684e+01,1.633e+01,1.395e+01,1.492e+01,1.447e+01,1.693e+01
3.054e-02,9.151e-01,4.420e-01,5.557e-01,2.554e+00,1.539e+00,2.824e+00,3.744e+00,3.592e+00,2.798e+00,2.829e+00,4.448e+00,3.867e+00,4.908e+00,4.618e+00,5.915e+00,3.060e+00,5.905e+00,4.502e+00,4.603e+00,5.751e+00,5.678e+00,6.324e+00,5.775e+00,6.469e+00,6.967e+00,7.637e+00,7.481e+00,8.139e+00,7.751e+00,7.935e+00,8.646e+00,8.435e+00,9.468e+00,9.948e+00,1.000e+01,1.071e+01,1.009e+01,9.075e+00,1.132e+01,1.150e+01,1.095e+01,1.069e+01,1.127e+01,1.204e+01,1.361e+01,1.345e+01,1.422e+01,1.310e+01,1.309e+01,1.254e+01,1.110e+01,1.455e+01,1.414e+01,1.254e+01,1.358e+01,1.515e+01,1.282e+01,1.366e+01,1.597e+01,1.287e+01,1.645e+01,1.636e+01,1.622e+01,1.616e+01,1.541e+01,1.789e+01,1.465e+01,1.735e+01,1.655e+01,1.495e+01,1.893e+01,1.486e+01,1.688e+01,1.531e+01,1.624e+01,1.518e+01,1.622e+01,1.898e+01,1.643e+01,1.504e+01,1.556e+01,1.418e+01,1.759e+01
2.287e-02,4.110e-01,4.712e-01,2.787e-01,2.254e+00,1.491e+00,2.915e+00,3.368e+00,3.118e+00,2.558e+00,2.558e+00,4.455e+00,4.495e+00,4.843e+00,4.722e+00,5.691e+00,4.196e+00,5.988e+00,5.485e+00,5.067e+00,5.543e+00,6.178e+00,7.343e+00,6.627e+00,7.172e+00,7.879e+00,7.787e+00,8.462e+00,8.764e+00,8.352e+00,8.761e+00,1.063e+01,8.860e+00,1.059e+01,1.050e+01,1.005e+01,1.202e+01,1.038e+01,8.786e+00,1.120e+01,1.162e+01,1.227e+01,1.230e+01,1.258e+01,1.225e+01,1.338e+01,1.362e+01,1.592e+01,1.420e+01,1.480e+01,1.336e+01,1.264e+01,1.560e+01,1.457e+01,1.416e+01,1.303e+01,1.511e+01,1.490e+01,1.535e+01,1.570e+01,1.543e+01,1.736e+01,1.857e+01,1.779e+01,1.758e+01,1.744e+01,1.975e+01,1.587e+01,1.901e+01,1.772e+01,1.744e+01,2.024e+01,1.706e+01,1.867e+01,1.674e+01,1.838e+01,1.780e+01,1.780e+01,1.889e+01,1.850e+01,1.582e+01,1.715e+01,1.726e+01,2.008e+01
2.088e-02,3.637e-01,3.587e-01,2.023e-01,1.527e+00,1.075e+00,2.222e+00,2.882e+00,2.709e+00,2.276e+00,2.262e+00,3.648e+00,3.270e+00,3.736e+00,4.069e+00,4.948e+00,2.919e+00,4.429e+00,4.625e+00,4.289e+00,4.947e+00,5.387e+00,6.066e+00,5.387e+00,6.770e+00,6.348e+00,5.456e+00,6.447e+00,7.397e+00,7.470e+00,7.490e+00,8.608e+00,7.572e+00,9.104e+00,8.788e+00,8.568e+00,1.038e+01,9.567e+00,8.856e+00,1.093e+01,1.248e+01,1.165e+01,1.160e+01,1.239e+01,1.214e+01,1.320e+01,1.361e+01,1.554e+01,1.380e+01,1.437e+01,1.219e+01,1.265e+01,1.672e+01,1.455e+01,1.513e+01,1.240e+01,1.431e+01,1.316e+01,1.424e+01,1.605e+01,1.486e+01,1.660e+01,1.652e+01,1.734e+01,1.657e+01,1.646e+01,1.851e+01,1.620e+01,1.904e+01,1.782e+01,1.670e+01,1.831e+01,1.764e+01,1.872e+01,1.754e+01,1.698e+01,1.805e+01,1.806e+01,1.821e+01,1.759e+01,1.620e+01,1.719e+01,1.693e+01,1.853e+01
1.616e-03,6.477e-01,8.999e-02,5.586e-01,2.228e+00,1.591e+00,3.018e+00,3.424e+00,3.028e+00,2.095e+00,2.988e+00,4.160e+00,3.277e+00,4.533e+00,4.168e+00,5.483e+00,2.979e+00,4.602e+00,4.653e+00,4.398e+00,5.316e+00,4.742e+00,5.824e+00,6.624e+00,6.404e+00,5.775e+00,5.627e+00,6.402e+00,5.857e+00,6.809e+00,7.274e+00,9.079e+00,6.449e+00,7.984e+00,8.422e+00,8.423e+00,9.197e+00,8.876e+00,8.585e+00,9.610e+00,9.415e+00,9.805e+00,9.366e+00,1.051e+01,1.033e+01,1.187e+01,1.208e+01,1.416e+01,1.133e+01,1.403e+01,1.069e+01,1.045e+01,1.461e+01,1.324e+01,1.316e+01,1.169e+01,1.417e+01,1.344e+01,1.405e+01,1.381e+01,1.572e+01,1.593e+01,1.657e+01,1.797e+01,1.671e+01,1.800e+01,1.979e+01,1.540e+01,1.907e+01,1.795e+01,1.820e+01,1.939e+01,1.694e+01,1.851e+01,1.726e+01,1.717e+01,1.731e+01,1.756e+01,1.823e+01,1.947e+01,1.610e+01,1.856e+01,1.721e+01,1.819e+01
1.873e-02,7.374e-01,4.296e-01,5.471e-01,1.986e+00,1.446e+00,1.754e+00,2.271e+00,1.856e+00,1.778e+00,2.031e+00,2.875e+00,2.494e+00,3.508e+00,3.606e+00,4.243e+00,2.921e+00,4.449e+00,3.973e+00,3.392e+00,5.567e+00,5.026e+00,6.291e+00,5.547e+00,6.364e+00,5.789e+00,6.161e+00,6.338e+00,7.361e+00,7.412e+00,6.633e+00,8.835e+00,7.218e+00,9.139e+00,8.482e+00,9.074e+00,9.548e+00,9.108e+00,8.503e+00,1.059e+01,1.222e+01,1.050e+01,1.103e+01,1.075e+01,1.209e+01,1.377e+01,1.302e+01,1.401e+01,1.226e+01,1.467e+01,1.190e+01,1.207e+01,1.472e+01,1.457e+01,1.285e+01,1.334e+01,1.547e+01,1.319e+01,1.351e+01,1.449e+01,1.389e+01,1.627e+01,1.553e+01,1.615e+01,1.561e+01,1.627e+01,1.824e+01,1.450e+01,1.691e+01,1.660e+01,1.513e+01,1.841e+01,1.706e+01,1.748e+01,1.621e+01,1.595e+01,1.749e+01,1.617e+01,1.749e+01,1.676e+01,1.500e+01,1.529e+01,1.478e+01,1.871e+01
7.474e-03,2.092e-01,1.628e-01,1.840e-01,1.273e+00,8.381e-01,1.875e+00,2.447e+00,1.956e+00,2.045e+00,2.372e+00,3.194e+00,2.938e+00,3.382e+00,3.687e+00,5.416e+00,3.266e+00,3.822e+00,4.762e+00,4.189e+00,5.516e+00,5.454e+00,7.158e+00,6.728e+00,6.884e+00,6.484e+00,6.085e+00,6.890e+00,8.029e+00,7.949e+00,7.028e+00,8.142e+00,7.308e+00,9.435e+00,8.216e+00,8.981e+00,9.605e+00,9.057e+00,8.738e+00,9.528e+00,1.189e+01,1.076e+01,1.019e+01,1.123e+01,1.091e+01,1.306e+01,1.343e+01,1.335e+01,1.171e+01,1.365e+01,1.113e+01,1.195e+01,1.585e+01,1.357e+01,1.322e+01,1.144e+01,1.479e+01,1.341e+01,1.350e+01,1.343e+01,1.509e+01,1.519e+01,1.653e+01,1.795e+01,1.533e+01,1.653e+01,1.965e+01,1.550e+01,1.783e+01,1.772e+01,1.693e+01,1.870e+01,1.833e+01,1.900e+01,1.838e+01,1.724e+01,1.638e+01,1.724e+01,1.858e+01,1.843e+01,1.577e+01,1.752e+01,1.747e+01,1.972e+01
1.594e-02,2.126e-01,3.720e-01,1.270e-01,1.133e+00,1.047e+00,1.796e+00,2.135e+00,2.239e+00,1.669e+00,2.092e+00,3.556e+00,3.455e+00,3.437e+00,4.200e+00,3.812e+00,3.249e+00,4.141e+00,4.522e+00,4.214e+00,4.205e+00,4.731e+00,6.430e+00,4.977e+00,6.473e+00,6.377e+00,6.106e+00,6.863e+00,7.754e+00,6.345e+00,7.802e+00,9.162e+00,6.935e+00,9.066e+00,8.317e+00,8.735e+00,1.124e+01,9.905e+00,7.989e+00,1.062e+01,9.782e+00,1.070e+01,1.137e+01,1.077e+01,1.123e+01,1.246e+01,1.244e+01,1.473e+01,1.258e+01,1.436e+01,1.229e+01,1.135e+01,1.391e+01,1.388e+01,1.313e+01,1.233e+01,1.508e+01,1.383e+01,1.433e+01,1.534e+01,1.389e+01,1.730e+01,1.751e+01,1.738e+01,1.807e+01,1.764e+01,1.876e+01,1.634e+01,1.799e+01,1.879e+01,1.667e+01,1.887e+01,1.893e+01,1.911e+01,1.836e+01,1.835e+01,1.787e+01,1.962e+01,2.016e+01,1.874e+01,1.654e+01,1.811e+01,1.646e+01,1.868e+01
1.817e-02,2.682e-01,3.255e-01,1.477e-01,1.153e+00,7.159e-01,1.269e+00,1.698e+00,1.510e+00,1.544e+00,1.689e+00,2.591e+00,2.175e+00,2.501e+00,3.126e+00,3.078e+00,2.728e+00,3.652e+00,3.369e+00,2.853e+00,3.669e+00,3.835e+00,4.218e+00,3.838e+00,4.621e+00,4.551e+00,4.837e+00,5.085e+00,5.591e+00,6.283e+00,6.116e+00,7.930e+00,6.787e+00,8.325e+00,7.035e+00,7.673e+00,8.251e+00,8.349e+00,6.546e+00,9.097e+00,1.030e+01,9.567e+00,1.045e+01,9.611e+00,1.104e+01,1.162e+01,1.066e+01,1.151e+01,1.053e+01,1.259e+01,9.426e+00,9.522e+00,1.210e+01,1.181e+01,1.085e+01,1.104e+01,1.247e+01,1.197e+01,1.215e+01,1.311e+01,1.231e+01,1.494e+01,1.487e+01,1.577e+01,1.620e+01,1.610e+01,1.745e+01,1.580e+01,1.818e+01,1.814e+01,1.642e+01,1.994e+01,1.715e+01,1.659e+01,1.650e+01,1.727e+01,1.800e+01,1.737e+01,1.848e+01,1.711e+01,1.616e+01,1.775e+01,1.530e+01,1.791e+01
2.022e-02,4.475e-01,4.898e-01,3.373e-01,1.910e+00,1.424e+00,2.136e+00,2.725e+00,2.434e+00,2.112e+00,1.958e+00,3.452e+00,3.952e+00,4.159e+00,3.617e+00,4.997e+00,4.086e+00,5.228e+00,4.718e+00,3.922e+00,5.584e+00,5.456e+00,6.801e+00,6.059e+00,7.477e+00,7.120e+00,6.864e+00,7.833e+00,8.913e+00,8.168e+00,8.173e+00,9.276e+00,8.335e+00,1.013e+01,9.855e+00,1.008e+01,1.047e+01,9.913e+00,7.924e+00,1.040e+01,1.199e+01,1.160e+01,1.186e+01,1.172e+01,1.244e+01,1.466e+01,1.341e+01,1.574e+01,1.476e+01,1.572e+01,1.225e+01,1.237e+01,1.595e+01,1.479e+01,1.395e+01,1.416e+01,1.533e+01,1.357e+01,1.405e+01,1.593e+01,1.489e+01,1.709e+01,1.763e+01,1.821e+01,1.748e+01,1.785e+01,2.117e+01,1.782e+01,2.061e+01,2.077e+01,1.862e+01,2.196e+01,1.857e+01,2.069e+01,1.918e+01,1.996e+01,1.998e+01,2.018e+01,2.125e+01,2.148e+01,1.743e+01,1.877e+01,1.807e+01,2.334e+01
2.267e-02,3.498e-01,3.070e-01,1.501e-01,1.577e+00,6.334e-01,1.650e+00,1.973e+00,2.160e+00,1.896e+00,2.210e+00,3.497e+00,2.419e+00,3.416e+00,3.692e+00,4.665e+00,2.872e+00,4.703e+00,4.477e+00,3.913e+00,4.737e+00,5.881e+00,6.773e+00,6.420e+00,7.251e+00,7.015e+00,6.306e+00,7.207e+00,8.150e+00,7.955e+00,8.064e+00,9.134e+00,8.595e+00,8.632e+00,9.002e+00,8.723e+00,9.710e+00,9.318e+00,8.029e+00,1.077e+01,1.232e+01,1.087e+01,1.111e+01,1.131e+01,1.149e+01,1.318e+01,1.316e+01,1.406e+01,1.383e+01,1.336e+01,1.160e+01,1.231e+01,1.494e+01,1.378e+01,1.354e+01,1.307e+01,1.475e+01,1.399e+01,1.380e+01,1.495e+01,1.473e+01,1.560e+01,1.635e+01,1.752e+01,1.710e+01,1.680e+01,1.932e+01,1.687e+01,1.927e+01,1.726e+01,1.887e+01,2.025e+01,1.911e+01,1.902e+01,1.799e+01,1.871e+01,1.825e+01,1.843e+01,1.952e+01,1.840e+01,1.686e+01,1.957e+01,1.716e+01,1.995e+01
8.552e-03,1.672e-01,2.802e-01,1.656e-01,1.095e+00,1.112e+00,1.996e+00,2.701e+00,2.228e+00,2.009e+00,1.849e+00,3.149e+00,3.327e+00,3.577e+00,4.158e+00,4.832e+00,3.573e+00,4.131e+00,4.627e+00,4.460e+00,5.715e+00,4.859e+00,6.524e+00,5.625e+00,6.910e+00,6.020e+00,6.773e+00,7.087e+00,7.739e+00,8.121e+00,7.599e+00,8.254e+00,6.721e+00,1.043e+01,8.396e+00,8.684e+00,1.073e+01,8.868e+00,8.318e+00,9.730e+00,1.228e+01,9.940e+00,1.175e+01,1.182e+01,1.152e+01,1.294e+01,1.318e+01,1.376e+01,1.290e+01,1.392e+01,1.169e+01,1.075e+01,1.505e+01,1.457e+01,1.366e+01,1.295e+01,1.630e+01,1.290e+01,1.429e+01,1.530e+01,1.519e+01,1.658e+01,1.756e+01,1.818e+01,1.652e+01,1.753e+01,1.967e+01,1.687e+01,1.934e+01,2.015e+01,1.827e+01,2.228e+01,1.923e+01,2.021e+01,1.938e+01,1.953e+01,2.060e+01,2.085e+01,2.193e+01,2.027e+01,1.806e+01,2.024e+01,1.696e+01,2.199e+01
2.674e-02,3.509e-01,3.764e-01,1.436e-01,1.644e+00,6.988e-01,1.826e+00,2.504e+00,2.441e+00,2.439e+00,2.071e+00,3.336e+00,3.781e+00,3.513e+00,3.903e+00,6.202e+00,3.298e+00,4.377e+00,4.234e+00,4.503e+00,5.220e+00,6.002e+00,6.375e+00,5.328e+00,5.762e+00,7.025e+00,6.497e+00,6.690e+00,7.386e+00,6.995e+00,5.690e+00,7.585e+00,6.646e+00,8.548e+00,8.603e+00,8.513e+00,9.402e+00,7.090e+00,7.923e+00,9.720e+00,1.015e+01,9.968e+00,1.076e+01,1.067e+01,9.859e+00,1.157e+01,1.124e+01,1.268e+01,1.231e+01,1.274e+01,1.097e+01,1.088e+01,1.412e+01,1.294e+01,1.209e+01,1.210e+01,1.296e+01,1.050e+01,1.258e+01,1.463e+01,1.334e+01,1.507e+01,1.466e+01,1.531e+01,1.524e+01,1.600e+01,1.908e+01,1.531e+01,1.665e+01,1.740e+01,1.605e+01,1.934e+01,1.789e+01,1.867e+01,1.685e+01,1.890e+01,1.710e+01,1.807e+01,1.732e+01,1.928e+01,1.567e+01,1.754e+01,1.752e+01,1.891e+01
1.019e-02,4.209e-01,3.263e-01,3.401e-01,1.171e+00,1.352e+00,1.778e+00,2.123e+00,1.819e+00,1.513e+00,1.865e+00,2.569e+00,3.643e+00,3.685e+00,3.580e+00,3.765e+00,3.057e+00,3.862e+00,3.546e+00,3.550e+00,4.195e+00,3.915e+00,5.273e+00,4.736e+00,5.240e+00,5.831e+00,5.225e+00,6.519e+00,7.005e+00,6.867e+00,7.244e+00,9.221e+00,6.850e+00,9.158e+00,7.133e+00,7.610e+00,8.707e+00,8.676e+00,7.944e+00,8.770e+00,1.085e+01,8.854e+00,1.029e+01,1.071e+01,1.083e+01,1.248e+01,1.286e+01,1.308e+01,1.224e+01,1.344e+01,1.196e+01,1.036e+01,1.335e+01,1.440e+01,1.170e+01,1.204e+01,1.437e+01,1.298e+01,1.207e+01,1.499e+01,1.421e+01,1.532e+01,1.454e+01,1.525e+01,1.569e+01,1.645e+01,1.767e+01,1.443e+01,1.579e+01,1.687e+01,1.535e+01,1.784e+01,1.544e+01,1.786e+01,1.596e+01,1.584e+01,1.760e+01,1.597e+01,1.732e+01,1.714e+01,1.576e+01,1.731e+01,1.599e+01,1.958e+01
1.830e-02,5.474e-01,3.137e-01,3.560e-01,1.813e+00,1.189e+00,2.258e+00,2.856e+00,2.900e+00,2.660e+00,3.048e+00,4.069e+00,3.902e+00,4.302e+00,4.179e+00,5.518e+00,3.820e+00,5.380e+00,4.700e+00,4.520e+00,5.581e+00,5.588e+00,5.958e+00,6.375e+00,6.167e+00,7.064e+00,7.121e+00,8.265e+00,7.764e+00,8.132e+00,8.547e+00,9.750e+00,8.678e+00,9.732e+00,8.956e+00,1.004e+01,1.050e+01,1.051e+01,8.795e+00,1.076e+01,1.232e+01,1.205e+01,1.209e+01,1.169e+01,1.219e+01,1.398e+01,1.300e+01,1.430e+01,1.343e+01,1.392e+01,1.336e+01,1.214e+01,1.479e+01,1.422e+01,1.265e+01,1.293e+01,1.353e+01,1.399e+01,1.289e+01,1.479e+01,1.406e+01,1.721e+01,1.721e+01,1.797e+01,1.786e+01,1.804e+01,2.048e+01,1.705e+01,1.954e+01,1.780e+01,1.831e+01,2.084e+01,1.892e+01,1.998e+01,1.931e+01,1.819e+01,1.985e+01,1.879e+01,1.976e+01,1.945e+01,1.766e+01,1.956e+01,1.769e+01,2.110e+01
2.855e-02,8.644e-01,3.934e-01,5.282e-01,2.595e+00,1.185e+00,2.291e+00,3.018e+00,3.065e+00,2.818e+00,2.851e+00,4.074e+00,3.338e+00,4.326e+00,5.022e+00,6.952e+00,3.845e+00,5.902e+00,5.631e+00,5.042e+00,6.656e+00,7.685e+00,7.762e+00,7.313e+00,7.249e+00,7.226e+00,7.070e+00,8.142e+00,8.300e+00,8.798e+00,8.841e+00,8.752e+00,9.140e+00,9.779e+00,1.014e+01,9.800e+00,1.033e+01,9.943e+00,9.224e+00,1.148e+01,1.246e+01,1.219e+01,1.168e+01,1.262e+01,1.273e+01,1.298e+01,1.347e+01,1.456e+01,1.279e+01,1.223e+01,1.243e+01,1.228e+01,1.501e+01,1.402e+01,1.404e+01,1.168e+01,1.347e+01,1.350e+01,1.384e+01,1.472e+01,1.370e+01,1.591e+01,1.541e+01,1.607e+01,1.528e+01,1.469e+01,1.962e+01,1.525e+01,1.853e+01,1.838e+01,1.880e+01,2.103e+01,1.941e+01,2.151e+01,1.947e+01,2.078e+01,1.973e+01,2.031e+01,2.233e+01,2.040e+01,1.809e+01,1.938e+01,1.817e+01,2.085e+01
3.229e-03,4.517e-01,3.270e-01,4.847e-01,2.393e+00,1.593e+00,2.223e+00,1.887e+00,1.658e+00,1.228e+00,1.459e+00,2.613e+00,2.678e+00,2.808e+00,2.948e+00,3.765e+00,2.728e+00,3.833e+00,5.203e+00,3.149e+00,4.457e+00,4.649e+00,5.595e+00,4.687e+00,4.775e+00,4.053e+00,4.944e+00,4.564e+00,5.136e+00,6.064e+00,6.055e+00,6.883e+00,6.606e+00,7.610e+00,7.588e+00,7.694e+00,8.799e+00,7.313e+00,8.069e+00,8.623e+00,9.854e+00,9.461e+00,1.061e+01,1.020e+01,1.005e+01,1.062e+01,1.150e+01,1.210e+01,1.041e+01,1.269e+01,1.067e+01,1.012e+01,1.251e+01,1.116e+01,1.243e+01,9.572e+00,1.341e+01,1.242e+01,1.206e+01,1.331e+01,1.252e+01,1.467e+01,1.452e+01,1.584e+01,1.434e+01,1.535e+01,1.825e+01,1.506e+01,1.737e+01,1.795e+01,1.588e+01,1.889e+01,1.777e+01,1.865e+01,1.850e+01,2.023e+01,2.044e+01,1.912e+01,2.009e+01,1.968e+01,1.827e+01,1.897e+01,1.739e+01,1.994e+01
2.462e-02,6.792e-01,5.429e-01,4.690e-01,1.727e+00,1.294e+00,1.450e+00,2.557e+00,2.064e+00,2.145e+00,1.948e+00,3.382e+00,2.765e+00,3.982e+00,3.736e+00,5.485e+00,3.709e+00,4.249e+00,4.488e+00,4.424e+00,4.814e+00,4.941e+00,7.709e+00,6.691e+00,6.313e+00,6.851e+00,6.507e+00,7.453e+00,9.306e+00,8.318e+00,9.540e+00,9.410e+00,9.395e+00,1.039e+01,9.649e+00,9.977e+00,1.117e+01,1.050e+01,9.185e+00,1.133e+01,1.407e+01,1.218e+01,1.299e+01,1.315e+01,1.285e+01,1.552e+01,1.435e+01,1.453e+01,1.452e+01,1.455e+01,1.376e+01,1.268e+01,1.668e+01,1.467e+01,1.383e+01,1.340e+01,1.513e+01,1.492e+01,1.401e+01,1.553e+01,1.661e+01,1.655e+01,1.776e+01,1.821e+01,1.775e+01,1.751e+01,2.102e+01,1.794e+01,1.982e+01,1.981e+01,2.149e+01,2.364e+01,2.087e+01,2.256e+01,2.176e+01,2.182e+01,2.074e+01,2.153e+01,2.419e+01,2.209e+01,2.178e+01,2.400e+01,1.955e+01,2.522e+01
4.295e-03,6.129e-01,3.654e-01,6.006e-01,2.080e+00,1.791e+00,2.053e+00,2.314e+00,1.935e+00,1.864e+00,2.595e+00,3.436e+00,3.653e+00,3.843e+00,3.848e+00,4.745e+00,3.497e+00,4.674e+00,4.521e+00,4.039e+00,5.504e+00,4.823e+00,6.162e+00,5.413e+00,5.547e+00,5.603e+00,6.085e+00,5.294e+00,7.365e+00,6.718e+00,7.099e+00,8.354e+00,8.348e+00,9.117e+00,8.461e+00,8.617e+00,8.716e+00,8.846e+00,8.674e+00,9.410e+00,1.278e+01,1.094e+01,1.095e+01,1.067e+01,1.117e+01,1.407e+01,1.258e+01,1.341e+01,1.177e+01,1.434e+01,1.138e+01,1.134e+01,1.518e+01,1.294e+01,1.387e+01,1.111e+01,1.455e+01,1.262e+01,1.251e+01,1.452e+01,1.354e+01,1.523e+01,1.628e+01,1.749e+01,1.533e+01,1.745e+01,1.894e+01,1.657e+01,1.927e+01,1.915e+01,1.729e+01,2.188e+01,1.745e+01,2.012e+01,2.142e+01,1.943e+01,2.045e+01,2.085e+01,2.217e+01,1.975e+01,2.068e+01,2.052e+01,1.823e+01,2.177e+01
4.607e-03,6.375e-01,3.488e-01,5.948e-01,2.151e+00,1.801e+00,2.353e+00,2.760e+00,2.754e+00,2.335e+00,2.686e+00,3.831e+00,3.651e+00,4.381e+00,3.652e+00,4.970e+00,3.964e+00,5.097e+00,5.220e+00,4.242e+00,5.989e+00,5.638e+00,7.468e+00,7.315e+00,7.230e+00,6.909e+00,6.688e+00,8.040e+00,8.718e+00,9.375e+00,9.628e+00,1.005e+01,9.479e+00,1.036e+01,9.035e+00,1.003e+01,9.879e+00,1.042e+01,8.676e+00,1.011e+01,1.337e+01,1.043e+01,1.113e+01,1.271e+01,1.255e+01,1.432e+01,1.453e+01,1.495e+01,1.329e+01,1.458e+01,1.371e+01,1.226e+01,1.541e+01,1.487e+01,1.455e+01,1.361e+01,1.587e+01,1.487e+01,1.391e+01,1.639e+01,1.498e+01,1.756e+01,1.756e+01,1.861e+01,1.762e+01,1.879e+01,2.036e+01,1.753e+01,2.038e+01,2.073e+01,1.856e+01,2.212e+01,1.905e+01,2.230e+01,1.943e+01,2.097e+01,2.005e+01,2.229e+01,2.302e+01,2.105e+01,2.049e+01,2.289e+01,2.087e+01,2.391e+01
2.662e-02,9.430e-01,3.901e-01,5.764e-01,1.944e+00,1.159e+00,1.667e+00,2.908e+00,3.034e+00,2.472e+00,2.172e+00,3.501e+00,3.423e+00,3.830e+00,4.547e+00,6.186e+00,3.121e+00,4.844e+00,4.341e+00,4.794e+00,5.679e+00,6.262e+00,7.819e+00,5.882e+00,6.673e+00,6.953e+00,7.806e+00,7.683e+00,8.654e+00,6.994e+00,8.202e+00,9.949e+00,8.179e+00,1.078e+01,1.043e+01,1.021e+01,1.091e+01,1.054e+01,1.114e+01,1.352e+01,1.305e+01,1.344e+01,1.419e+01,1.377e+01,1.430e+01,1.657e+01,1.584e+01,1.717e+01,1.584e+01,1.688e+01,1.463e+01,1.390e+01,1.827e+01,1.656e+01,1.583e+01,1.472e+01,1.792e+01,1.711e+01,1.562e+01,1.752e+01,1.819e+01,2.067e+01,1.898e+01,2.043e+01,1.948e+01,1.955e+01,2.294e+01,2.051e+01,2.192e+01,2.206e+01,2.255e+01,2.552e+01,2.114e+01,2.390e+01,2.326e+01,2.274e+01,2.371e+01,2.440e+01,2.479e+01,2.455e+01,2.268e+01,2.401e+01,2.075e+01,2.556e+01
1.730e-02,4.232e-01,2.733e-01,2.548e-01,1.701e+00,9.414e-01,2.073e+00,2.658e+00,2.829e+00,2.181e+00,2.033e+00,3.494e+00,3.286e+00,3.524e+00,3.520e+00,4.198e+00,2.580e+00,4.201e+00,4.332e+00,3.738e+00,4.382e+00,5.094e+00,5.566e+00,4.919e+00,5.637e+00,6.770e+00,6.288e+00,6.609e+00,6.621e+00,7.215e+00,7.015e+00,9.309e+00,7.908e+00,8.919e+00,8.773e+00,8.798e+00,9.960e+00,9.174e+00,8.260e+00,1.073e+01,1.106e+01,1.029e+01,1.098e+01,1.182e+01,1.301e+01,1.299e+01,1.272e+01,1.429e+01,1.292e+01,1.374e+01,1.207e+01,1.244e+01,1.480e+01,1.374e+01,1.343e+01,1.201e+01,1.470e+01,1.380e+01,1.367e+01,1.596e+01,1.282e+01,1.602e+01,1.527e+01,1.580e+01,1.507e+01,1.626e+01,1.893e+01,1.579e+01,1.840e+01,1.771e+01,1.650e+01,1.872e+01,1.856e+01,1.880e+01,1.892e+01,1.740e+01,1.867e+01,1.997e+01,1.960e+01,1.984e+01,1.947e+01,1.964e+01,1.951e+01,2.165e+01
2.367e-02,5.698e-01,3.287e-01,2.908e-01,1.280e+00,7.377e-01,1.250e+00,1.795e+00,1.915e+00,1.659e+00,2.280e+00,3.258e+00,2.588e+00,3.165e+00,3.742e+00,4.839e+00,2.631e+00,3.709e+00,3.174e+00,4.090e+00,3.943e+00,4.699e+00,5.689e+00,4.767e+00,4.996e+00,5.840e+00,5.484e+00,5.776e+00,7.059e+00,5.844e+00,6.414e+00,8.726e+00,7.079e+00,8.119e+00,8.141e+00,7.934e+00,9.835e+00,7.902e+00,8.876e+00,9.605e+00,1.133e+01,1.032e+01,1.082e+01,1.102e+01,1.091e+01,1.208e+01,1.167e+01,1.217e+01,1.252e+01,1.376e+01,1.231e+01,1.103e+01,1.450e+01,1.439e+01,1.176e+01,1.238e+01,1.425e+01,1.208e+01,1.252e+01,1.471e+01,1.356e+01,1.659e+01,1.607e+01,1.761e+01,1.777e+01,1.675e+01,1.847e+01,1.555e+01,1.747e+01,1.743e+01,1.674e+01,1.963e+01,1.871e+01,1.872e+01,1.806e+01,1.835e+01,1.987e+01,1.936e+01,1.909e+01,1.898e+01,1.885e+01,2.101e+01,1.980e+01,2.183e+01
1.323e-02,6.124e-01,5.146e-01,5.661e-01,2.464e+00,1.962e+00,2.528e+00,2.782e+00,2.143e+00,2.004e+00,2.654e+00,4.065e+00,4.005e+00,4.520e+00,5.214e+00,5.064e+00,4.000e+00,5.275e+00,5.528e+00,4.901e+00,6.233e+00,6.064e+00,7.283e+00,6.368e+00,6.762e+00,6.795e+00,6.634e+00,7.201e+00,8.770e+00,8.057e+00,8.353e+00,9.146e+00,7.742e+00,9.154e+00,9.349e+00,8.821e+00,1.014e+01,8.905e+00,8.522e+00,9.467e+00,1.134e+01,1.019e+01,1.031e+01,1.169e+01,1.184e+01,1.237e+01,1.105e+01,1.332e+01,1.143e+01,1.217e+01,1.129e+01,1.066e+01,1.391e+01,1.412e+01,1.174e+01,1.235e+01,1.387e+01,1.258e+01,1.203e+01,1.354e+01,1.292e+01,1.555e+01,1.500e+01,1.509e+01,1.565e+01,1.563e+01,1.694e+01,1.456e+01,1.758e+01,1.683e+01,1.704e+01,1.864e+01,1.685e+01,1.870e+01,1.629e+01,1.706e+01,1.825e+01,1.780e+01,1.983e+01,1.830e+01,1.909e+01,1.969e+01,1.873e+01,2.223e+01
