6.889e-02,1.398e-02,4.177e-01,6.119e-01,2.845e-01,7.556e-01,6.686e-01,1.437e-01,5.040e-01,2.255e-01,5.383e-01,2.753e-01,6.060e-01,8.945e-01,9.909e-02,7.798e-01,5.458e-01,2.811e-01,2.898e-01,7.185e-01,5.175e-01,3.836e-01,3.185e-02,5.460e-01,8.245e-01,7.552e-01,7.004e-01,3.142e-01,8.631e-01,3.363e-02,4.917e-01,3.454e-02,9.320e-01,3.040e-02,8.177e-01,6.178e-01,9.801e-01,5.290e-01,9.653e-01,5.705e-01,2.330e-01,7.673e-01,6.127e-01,3.034e-01,1.093e-01,9.353e-01,7.842e-01,1.822e-01,1.768e-01,7.662e-01,9.838e-01,6.740e-01,6.485e-01,6.702e-01,6.444e-01,8.141e-01,4.828e-01,9.054e-01,2.117e-01,3.301e-01,4.122e-04,4.924e-01,8.577e-01,2.591e-01,2.071e-02,6.786e-01,3.575e-01,9.452e-01,7.909e-01,7.024e-01,6.692e-01,9.661e-01,3.987e-02,2.317e-01,5.577e-01,4.307e-02,8.387e-01
5.260e-02,8.565e-02,9.344e-01,1.249e+00,9.430e-01,9.932e-01,1.502e+00,1.048e+00,1.089e+00,3.548e-01,1.270e+00,9.117e-01,1.024e+00,1.110e+00,4.097e-01,9.099e-01,9.344e-01,9.747e-01,2.526e-01,7.853e-01,7.917e-01,3.550e-01,3.099e-01,1.335e+00,1.456e+00,1.118e+00,1.145e+00,6.131e-01,8.125e-01,6.098e-01,9.371e-01,2.857e-01,9.247e-01,8.641e-01,9.882e-01,8.711e-01,1.527e+00,1.112e+00,9.487e-01,1.283e+00,1.069e+00,1.122e+00,7.471e-01,6.971e-01,6.030e-01,9.976e-01,1.170e+00,8.016e-01,6.982e-01,1.349e+00,8.099e-01,1.262e+00,1.064e+00,1.363e+00,1.070e+00,8.782e-01,8.868e-01,9.950e-01,1.846e-01,1.012e+00,2.266e-01,8.620e-01,7.013e-01,6.315e-01,5.389e-01,1.386e+00,8.441e-01,1.714e+00,6.546e-01,7.762e-01,1.378e+00,1.575e+00,6.230e-01,1.169e+00,1.095e+00,5.041e-01,1.270e+00
4.162e-02,3.846e-02,9.278e-01,1.323e+00,1.237e+00,1.382e+00,1.256e+00,1.298e+00,1.522e+00,1.198e+00,1.145e+00,1.148e+00,1.078e+00,8.323e-01,1.036e+00,1.447e+00,8.997e-01,1.308e+00,7.449e-01,1.158e+00,9.004e-01,9.307e-01,3.810e-01,7.482e-01,1.557e+00,8.837e-01,1.463e+00,1.173e+00,1.448e+00,1.066e+00,1.034e+00,4.317e-01,6.949e-01,3.771e-01,9.224e-01,8.273e-01,1.368e+00,1.300e+00,1.229e+00,1.604e+00,1.356e+00,1.252e+00,1.022e+00,9.346e-01,9.873e-01,1.647e+00,1.149e+00,6.972e-01,1.018e+00,1.611e+00,1.335e+00,7.435e-01,1.522e+00,1.073e+00,1.362e+00,1.184e+00,1.452e+00,9.478e-01,5.331e-01,8.497e-01,3.118e-01,5.113e-01,1.320e+00,5.784e-01,6.555e-01,1.350e+00,5.357e-01,1.902e+00,8.426e-01,9.195e-01,1.066e+00,1.500e+00,7.467e-01,1.047e+00,1.529e+00,4.223e-01,1.076e+00
6.466e-02,5.552e-02,8.192e-01,1.765e+00,1.390e+00,1.434e+00,1.952e+00,9.834e-01,1.457e+00,5.230e-01,1.220e+00,1.638e+00,1.004e+00,1.304e+00,5.775e-01,1.542e+00,1.385e+00,9.373e-01,7.035e-01,1.225e+00,8.796e-01,1.091e+00,7.892e-01,1.188e+00,1.426e+00,1.243e+00,1.315e+00,1.373e+00,1.408e+00,8.684e-01,1.553e+00,3.211e-01,1.894e+00,5.977e-01,1.233e+00,1.520e+00,1.811e+00,1.033e+00,1.373e+00,1.915e+00,1.727e+00,1.168e+00,9.275e-01,9.746e-01,5.359e-01,1.720e+00,1.685e+00,8.243e-01,8.002e-01,1.778e+00,1.813e+00,1.721e+00,1.709e+00,2.101e+00,1.747e+00,1.942e+00,1.192e+00,1.571e+00,6.007e-01,1.483e+00,1.064e+00,1.689e+00,1.750e+00,1.439e+00,9.277e-01,1.975e+00,1.324e+00,2.586e+00,1.827e+00,1.173e+00,1.282e+00,1.534e+00,6.014e-01,1.249e+00,1.945e+00,4.453e-01,2.038e+00
4.481e-02,4.231e-02,6.001e-01,9.346e-01,1.358e+00,1.809e+00,1.947e+00,1.455e+00,1.056e+00,1.017e+00,1.035e+00,1.595e+00,9.972e-01,1.385e+00,5.229e-01,1.684e+00,1.010e+00,1.407e+00,8.714e-01,9.693e-01,8.141e-01,4.636e-01,8.762e-01,1.629e+00,1.048e+00,1.577e+00,1.247e+00,9.289e-01,9.241e-01,1.368e+00,8.686e-01,1.969e-01,1.028e+00,1.341e+00,8.053e-01,1.237e+00,1.663e+00,1.366e+00,9.726e-01,1.803e+00,1.356e+00,9.979e-01,9.776e-01,6.226e-01,4.954e-01,1.180e+00,1.879e+00,9.738e-01,7.893e-01,1.559e+00,1.342e+00,1.662e+00,9.580e-01,1.561e+00,1.438e+00,1.022e+00,7.985e-01,8.821e-01,1.094e+00,1.076e+00,9.834e-01,1.257e+00,1.119e+00,1.265e+00,1.219e+00,1.262e+00,1.337e+00,1.964e+00,1.668e+00,1.513e+00,8.853e-01,2.055e+00,9.551e-01,1.518e+00,1.015e+00,4.310e-01,1.160e+00
3.178e-02,2.476e-02,7.250e-01,1.387e+00,1.832e+00,2.328e+00,2.472e+00,2.337e+00,2.402e+00,2.425e+00,1.390e+00,2.823e+00,1.195e+00,1.617e+00,1.148e+00,2.499e+00,1.226e+00,2.024e+00,1.305e+00,1.629e+00,1.943e+00,1.965e+00,1.143e+00,1.479e+00,2.129e+00,1.521e+00,1.591e+00,2.562e+00,2.011e+00,2.135e+00,2.118e+00,5.840e-01,1.631e+00,1.281e+00,1.469e+00,1.642e+00,2.288e+00,1.635e+00,1.797e+00,2.410e+00,2.038e+00,1.710e+00,2.036e+00,1.535e+00,1.040e+00,2.434e+00,2.882e+00,1.306e+00,1.966e+00,2.787e+00,2.814e+00,1.767e+00,2.589e+00,2.194e+00,2.445e+00,1.843e+00,2.216e+00,1.052e+00,2.123e+00,1.653e+00,2.018e+00,1.643e+00,1.874e+00,2.083e+00,2.408e+00,2.560e+00,2.149e+00,3.305e+00,2.637e+00,2.380e+00,1.084e+00,2.181e+00,1.260e+00,2.512e+00,2.337e+00,1.051e+00,1.463e+00
1.564e-02,4.792e-02,7.420e-01,1.508e+00,1.511e+00,1.394e+00,2.228e+00,2.196e+00,2.219e+00,1.310e+00,1.293e+00,2.161e+00,1.130e+00,1.481e+00,1.259e+00,1.634e+00,1.510e+00,2.260e+00,1.220e+00,1.578e+00,2.017e+00,2.223e+00,1.828e+00,1.324e+00,2.182e+00,1.737e+00,1.612e+00,1.941e+00,2.272e+00,1.488e+00,2.539e+00,1.439e+00,1.503e+00,1.146e+00,1.853e+00,1.565e+00,2.196e+00,1.172e+00,1.617e+00,1.964e+00,1.882e+00,1.421e+00,1.473e+00,1.743e+00,1.871e+00,2.391e+00,1.855e+00,1.306e+00,1.755e+00,2.776e+00,1.846e+00,1.530e+00,2.798e+00,2.330e+00,2.524e+00,1.780e+00,1.660e+00,1.850e+00,1.130e+00,1.988e+00,1.451e+00,1.722e+00,1.730e+00,2.242e+00,1.672e+00,3.037e+00,2.050e+00,3.448e+00,2.607e+00,1.304e+00,1.074e+00,2.080e+00,1.780e+00,2.214e+00,2.823e+00,8.485e-01,1.978e+00
4.266e-02,1.260e-02,7.083e-01,1.069e+00,1.499e+00,2.170e+00,2.224e+00,2.883e+00,2.904e+00,2.465e+00,1.831e+00,2.388e+00,1.816e+00,2.419e+00,1.412e+00,2.903e+00,1.494e+00,3.345e+00,1.557e+00,1.944e+00,2.402e+00,2.665e+00,2.171e+00,2.465e+00,3.337e+00,2.994e+00,2.276e+00,2.635e+00,3.389e+00,2.094e+00,2.734e+00,1.300e+00,1.846e+00,1.671e+00,2.687e+00,1.733e+00,2.533e+00,2.379e+00,2.793e+00,2.155e+00,2.477e+00,2.393e+00,2.067e+00,1.869e+00,1.838e+00,2.840e+00,3.409e+00,1.848e+00,2.356e+00,3.940e+00,3.185e+00,2.125e+00,3.008e+00,2.151e+00,2.605e+00,2.433e+00,2.814e+00,2.214e+00,1.945e+00,1.714e+00,1.442e+00,1.342e+00,2.822e+00,2.857e+00,2.636e+00,3.483e+00,2.526e+00,3.980e+00,3.779e+00,2.690e+00,1.763e+00,3.550e+00,2.647e+00,2.762e+00,2.369e+00,1.306e+00,1.565e+00
4.495e-02,4.630e-02,8.139e-01,1.279e+00,1.490e+00,1.812e+00,2.253e+00,2.458e+00,2.804e+00,2.118e+00,2.236e+00,2.095e+00,2.614e+00,2.458e+00,1.363e+00,2.534e+00,1.622e+00,3.801e+00,2.235e+00,2.541e+00,2.492e+00,2.244e+00,2.386e+00,3.131e+00,3.075e+00,2.868e+00,2.258e+00,2.039e+00,3.477e+00,2.405e+00,2.980e+00,2.064e+00,1.765e+00,2.183e+00,2.681e+00,1.715e+00,2.563e+00,2.990e+00,2.723e+00,2.939e+00,2.500e+00,2.167e+00,2.336e+00,2.007e+00,1.854e+00,3.127e+00,3.181e+00,1.863e+00,2.573e+00,3.735e+00,2.876e+00,2.814e+00,3.214e+00,2.611e+00,3.317e+00,2.715e+00,2.070e+00,3.088e+00,1.565e+00,2.096e+00,1.355e+00,2.273e+00,3.346e+00,3.159e+00,2.694e+00,3.180e+00,3.031e+00,3.816e+00,3.272e+00,2.871e+00,1.751e+00,3.496e+00,2.584e+00,2.707e+00,2.243e+00,9.888e-01,2.008e+00
6.425e-02,5.217e-02,1.112e+00,1.750e+00,1.696e+00,2.176e+00,2.677e+00,2.881e+00,3.506e+00,3.580e+00,3.244e+00,3.362e+00,3.249e+00,3.395e+00,2.357e+00,3.529e+00,2.253e+00,3.736e+00,2.146e+00,3.381e+00,4.086e+00,3.925e+00,2.649e+00,3.530e+00,4.648e+00,3.462e+00,2.850e+00,3.760e+00,3.992e+00,3.112e+00,4.127e+00,2.730e+00,2.540e+00,2.697e+00,3.629e+00,2.512e+00,3.203e+00,3.737e+00,4.185e+00,3.362e+00,3.197e+00,2.953e+00,3.410e+00,2.971e+00,2.873e+00,4.618e+00,4.137e+00,2.336e+00,3.968e+00,4.735e+00,3.878e+00,3.526e+00,4.575e+00,3.650e+00,4.155e+00,3.398e+00,3.716e+00,3.356e+00,2.549e+00,2.476e+00,2.571e+00,2.487e+00,4.308e+00,3.765e+00,3.401e+00,5.010e+00,3.655e+00,4.761e+00,4.299e+00,3.113e+00,2.508e+00,3.902e+00,3.417e+00,3.713e+00,4.012e+00,1.768e+00,2.745e+00
5.740e-02,2.257e-02,5.523e-01,9.072e-01,1.286e+00,2.021e+00,2.363e+00,2.107e+00,2.125e+00,2.253e+00,2.051e+00,2.418e+00,2.947e+00,2.769e+00,1.516e+00,3.377e+00,1.528e+00,3.006e+00,2.125e+00,2.868e+00,2.958e+00,2.789e+00,2.272e+00,2.777e+00,3.050e+00,3.468e+00,2.342e+00,2.929e+00,2.993e+00,3.012e+00,3.292e+00,2.696e+00,2.419e+00,2.197e+00,2.734e+00,2.575e+00,2.799e+00,2.979e+00,3.305e+00,2.759e+00,2.058e+00,1.790e+00,2.696e+00,1.975e+00,2.294e+00,3.779e+00,3.288e+00,1.579e+00,2.503e+00,3.554e+00,3.631e+00,3.052e+00,3.064e+00,3.511e+00,3.886e+00,2.963e+00,1.788e+00,3.283e+00,2.090e+00,1.985e+00,2.552e+00,3.245e+00,2.748e+00,3.018e+00,2.635e+00,3.326e+00,3.764e+00,3.957e+00,4.076e+00,3.551e+00,2.000e+00,3.413e+00,2.900e+00,2.582e+00,2.948e+00,1.470e+00,2.043e+00
6.008e-02,1.972e-02,8.300e-01,1.823e+00,1.875e+00,2.365e+00,2.766e+00,2.627e+00,3.440e+00,3.484e+00,2.895e+00,4.620e+00,3.978e+00,4.064e+00,2.498e+00,4.826e+00,2.702e+00,3.564e+00,2.316e+00,3.587e+00,4.080e+00,4.358e+00,3.542e+00,3.999e+00,4.510e+00,4.043e+00,3.003e+00,4.244e+00,4.064e+00,4.017e+00,4.261e+00,3.342e+00,3.411e+00,2.594e+00,4.169e+00,3.816e+00,3.702e+00,3.983e+00,4.673e+00,4.205e+00,3.986e+00,3.124e+00,3.933e+00,3.720e+00,2.611e+00,4.717e+00,5.290e+00,2.987e+00,4.588e+00,4.724e+00,5.280e+00,4.437e+00,5.140e+00,4.535e+00,4.811e+00,4.008e+00,4.454e+00,3.481e+00,2.802e+00,3.187e+00,4.123e+00,3.073e+00,5.517e+00,4.312e+00,4.277e+00,5.818e+00,3.911e+00,5.120e+00,5.364e+00,3.763e+00,2.489e+00,4.414e+00,3.677e+00,4.315e+00,4.461e+00,1.799e+00,3.606e+00
4.732e-02,1.215e-02,4.525e-01,1.112e+00,1.015e+00,1.330e+00,1.558e+00,1.436e+00,2.217e+00,1.632e+00,1.763e+00,2.041e+00,2.954e+00,2.330e+00,1.566e+00,3.382e+00,1.718e+00,3.127e+00,2.302e+00,1.965e+00,2.575e+00,2.337e+00,2.084e+00,2.843e+00,3.038e+00,3.377e+00,2.225e+00,2.588e+00,3.188e+00,2.477e+00,2.875e+00,2.013e+00,2.664e+00,1.904e+00,3.159e+00,2.003e+00,2.061e+00,2.379e+00,2.845e+00,2.374e+00,3.261e+00,2.080e+00,2.350e+00,2.506e+00,1.038e+00,3.213e+00,3.866e+00,1.908e+00,2.882e+00,3.360e+00,3.342e+00,3.330e+00,2.686e+00,2.696e+00,2.658e+00,3.373e+00,3.134e+00,3.047e+00,2.214e+00,2.225e+00,2.370e+00,2.233e+00,3.289e+00,2.873e+00,3.235e+00,3.778e+00,3.028e+00,4.111e+00,4.198e+00,2.638e+00,1.867e+00,3.324e+00,2.610e+00,2.786e+00,2.651e+00,1.899e+00,2.364e+00
2.494e-02,1.107e-02,5.109e-01,1.009e+00,1.075e+00,1.400e+00,1.777e+00,2.348e+00,3.208e+00,3.094e+00,2.662e+00,3.073e+00,3.827e+00,3.419e+00,2.583e+00,4.847e+00,2.108e+00,4.629e+00,3.094e+00,3.870e+00,4.031e+00,4.193e+00,3.144e+00,4.492e+00,4.622e+00,3.888e+00,3.164e+00,4.565e+00,4.216e+00,4.560e+00,4.734e+00,4.260e+00,3.461e+00,3.528e+00,4.609e+00,3.471e+00,2.974e+00,4.182e+00,4.412e+00,3.200e+00,4.436e+00,3.316e+00,3.999e+00,3.619e+00,2.502e+00,5.236e+00,4.702e+00,2.913e+00,5.122e+00,4.776e+00,4.921e+00,4.768e+00,4.368e+00,3.690e+00,4.783e+00,3.832e+00,4.307e+00,4.398e+00,3.592e+00,2.850e+00,3.346e+00,3.241e+00,5.197e+00,4.676e+00,4.658e+00,5.363e+00,4.339e+00,5.412e+00,5.518e+00,3.908e+00,2.699e+00,3.936e+00,4.488e+00,4.022e+00,3.808e+00,2.444e+00,2.729e+00
3.102e-02,7.066e-02,7.384e-01,1.506e+00,1.386e+00,1.272e+00,2.216e+00,1.662e+00,1.798e+00,1.559e+00,2.359e+00,3.475e+00,4.180e+00,3.305e+00,2.548e+00,5.436e+00,2.840e+00,3.485e+00,3.002e+00,2.687e+00,4.150e+00,3.161e+00,3.867e+00,3.950e+00,4.473e+00,5.324e+00,3.797e+00,3.825e+00,2.933e+00,4.354e+00,4.209e+00,4.271e+00,3.500e+00,4.018e+00,4.190e+00,4.803e+00,3.942e+00,3.744e+00,4.465e+00,3.767e+00,4.475e+00,2.311e+00,3.169e+00,3.785e+00,2.617e+00,4.481e+00,4.901e+00,3.074e+00,4.787e+00,3.969e+00,4.214e+00,5.567e+00,4.284e+00,4.652e+00,4.882e+00,3.901e+00,3.755e+00,3.728e+00,2.362e+00,4.226e+00,4.648e+00,3.507e+00,4.432e+00,3.512e+00,4.000e+00,6.072e+00,4.214e+00,5.004e+00,5.132e+00,3.127e+00,3.326e+00,4.348e+00,4.538e+00,4.829e+00,4.692e+00,2.616e+00,4.235e+00
4.581e-02,6.523e-02,1.041e+00,1.871e+00,1.901e+00,2.074e+00,2.639e+00,2.397e+00,2.831e+00,2.508e+00,2.546e+00,3.517e+00,3.771e+00,3.056e+00,2.501e+00,5.255e+00,2.784e+00,4.387e+00,3.922e+00,3.521e+00,4.149e+00,3.677e+00,4.019e+00,4.017e+00,4.879e+00,5.008e+00,3.910e+00,4.225e+00,4.673e+00,4.795e+00,4.277e+00,3.412e+00,3.493e+00,3.850e+00,4.798e+00,4.615e+00,5.024e+00,4.145e+00,4.245e+00,4.739e+00,5.049e+00,3.296e+00,4.382e+00,4.345e+00,2.593e+00,4.891e+00,5.179e+00,3.086e+00,5.301e+00,4.816e+00,4.809e+00,5.541e+00,4.987e+00,4.076e+00,4.876e+00,4.117e+00,5.072e+00,3.925e+00,3.205e+00,4.754e+00,4.197e+00,3.471e+00,5.350e+00,3.668e+00,4.584e+00,6.482e+00,4.170e+00,6.020e+00,5.512e+00,4.336e+00,3.752e+00,4.550e+00,4.375e+00,5.841e+00,4.593e+00,2.664e+00,4.722e+00
6.101e-02,7.357e-02,1.028e+00,1.918e+00,2.182e+00,2.588e+00,3.249e+00,2.863e+00,2.983e+00,2.312e+00,2.833e+00,3.798e+00,3.468e+00,3.550e+00,1.884e+00,5.191e+00,3.215e+00,4.264e+00,3.041e+00,3.840e+00,3.888e+00,4.739e+00,4.725e+00,4.914e+00,5.374e+00,5.849e+00,4.472e+00,4.980e+00,4.939e+00,5.241e+00,4.782e+00,3.398e+00,4.610e+00,3.907e+00,4.809e+00,5.383e+00,5.330e+00,4.580e+00,5.091e+00,5.540e+00,5.473e+00,4.268e+00,4.764e+00,3.587e+00,3.411e+00,4.369e+00,5.488e+00,3.547e+00,4.800e+00,5.368e+00,5.698e+00,6.424e+00,4.448e+00,5.124e+00,4.833e+00,4.939e+00,4.756e+00,4.339e+00,3.890e+00,4.765e+00,4.719e+00,4.102e+00,5.611e+00,4.287e+00,5.017e+00,6.311e+00,4.515e+00,6.780e+00,6.309e+00,5.507e+00,4.488e+00,5.182e+00,4.725e+00,6.161e+00,4.604e+00,3.383e+00,4.386e+00
4.739e-02,4.231e-02,9.790e-01,1.516e+00,1.983e+00,2.443e+00,2.597e+00,2.939e+00,3.085e+00,2.870e+00,2.800e+00,2.926e+00,3.813e+00,3.178e+00,2.573e+00,5.176e+00,2.989e+00,6.155e+00,4.801e+00,4.922e+00,4.634e+00,5.095e+00,5.173e+00,5.494e+00,6.317e+00,6.247e+00,5.577e+00,4.916e+00,5.335e+00,6.199e+00,4.865e+00,4.861e+00,3.785e+00,4.361e+00,5.189e+00,5.382e+00,5.111e+00,5.741e+00,5.448e+00,6.138e+00,5.828e+00,4.905e+00,5.049e+00,3.745e+00,4.426e+00,5.540e+00,5.783e+00,3.947e+00,5.235e+00,6.035e+00,5.779e+00,6.532e+00,4.583e+00,4.204e+00,5.254e+00,5.159e+00,5.294e+00,5.443e+00,4.356e+00,5.050e+00,4.431e+00,3.482e+00,6.293e+00,4.201e+00,5.731e+00,5.902e+00,4.618e+00,6.618e+00,5.917e+00,5.877e+00,4.468e+00,6.070e+00,5.468e+00,5.945e+00,4.843e+00,3.415e+00,4.259e+00
1.822e-02,6.067e-02,9.679e-01,1.425e+00,1.781e+00,1.994e+00,2.428e+00,3.011e+00,2.964e+00,2.470e+00,2.366e+00,3.447e+00,3.713e+00,3.232e+00,2.700e+00,5.639e+00,2.519e+00,5.021e+00,3.686e+00,3.644e+00,4.301e+00,4.061e+00,4.009e+00,5.212e+00,5.856e+00,5.353e+00,5.017e+00,4.992e+00,3.824e+00,5.254e+00,5.204e+00,4.663e+00,3.882e+00,4.588e+00,4.880e+00,4.728e+00,4.768e+00,5.311e+00,4.397e+00,4.105e+00,5.681e+00,4.364e+00,4.727e+00,4.179e+00,3.783e+00,5.487e+00,5.450e+00,3.871e+00,5.592e+00,5.416e+00,5.751e+00,6.286e+00,4.902e+00,4.555e+00,4.996e+00,4.210e+00,5.405e+00,4.026e+00,4.110e+00,4.261e+00,4.717e+00,3.436e+00,5.510e+00,4.284e+00,5.844e+00,6.543e+00,3.971e+00,6.007e+00,5.535e+00,4.128e+00,4.278e+00,5.558e+00,5.609e+00,5.535e+00,4.902e+00,3.921e+00,3.863e+00
6.341e-02,3.020e-02,7.872e-01,1.597e+00,1.393e+00,1.675e+00,1.963e+00,1.750e+00,2.483e+00,2.392e+00,2.900e+00,3.441e+00,4.128e+00,3.789e+00,2.640e+00,5.859e+00,2.973e+00,4.220e+00,3.663e+00,5.767e+00,4.335e+00,5.697e+00,5.612e+00,6.155e+00,6.456e+00,6.756e+00,5.113e+00,6.086e+00,4.937e+00,5.975e+00,5.546e+00,5.841e+00,5.274e+00,4.105e+00,5.998e+00,7.095e+00,5.579e+00,5.940e+00,6.060e+00,5.721e+00,6.147e+00,4.549e+00,5.506e+00,4.729e+00,4.895e+00,6.064e+00,5.957e+00,3.857e+00,5.821e+00,5.695e+00,6.781e+00,7.808e+00,5.635e+00,5.627e+00,5.777e+00,5.714e+00,6.137e+00,6.319e+00,3.682e+00,5.100e+00,6.181e+00,4.973e+00,7.446e+00,5.410e+00,6.077e+00,6.910e+00,5.215e+00,6.278e+00,6.581e+00,5.550e+00,5.774e+00,5.396e+00,6.641e+00,5.325e+00,5.947e+00,3.828e+00,5.515e+00
4.802e-02,4.106e-02,9.495e-01,1.461e+00,1.566e+00,1.849e+00,2.070e+00,2.522e+00,2.732e+00,2.712e+00,3.029e+00,3.132e+00,3.798e+00,3.510e+00,2.712e+00,5.383e+00,2.884e+00,4.799e+00,3.818e+00,4.381e+00,4.986e+00,5.605e+00,5.795e+00,5.710e+00,7.050e+00,6.582e+00,5.974e+00,5.893e+00,5.281e+00,5.361e+00,5.850e+00,4.910e+00,4.602e+00,4.907e+00,5.547e+00,5.502e+00,5.375e+00,6.272e+00,6.406e+00,5.695e+00,6.281e+00,4.938e+00,5.177e+00,4.297e+00,5.425e+00,6.140e+00,6.143e+00,4.377e+00,6.303e+00,6.894e+00,5.960e+00,6.586e+00,6.416e+00,5.362e+00,6.240e+00,5.796e+00,5.978e+00,5.065e+00,4.060e+00,5.404e+00,5.302e+00,3.687e+00,7.922e+00,5.181e+00,5.580e+00,7.582e+00,4.817e+00,5.585e+00,6.380e+00,5.380e+00,5.885e+00,6.099e+00,6.189e+00,6.028e+00,6.412e+00,3.858e+00,4.674e+00
2.751e-02,6.825e-02,7.401e-01,1.596e+00,1.869e+00,1.891e+00,2.822e+00,2.478e+00,2.725e+00,1.967e+00,2.452e+00,2.960e+00,3.225e+00,2.726e+00,1.796e+00,4.498e+00,3.005e+00,5.138e+00,4.790e+00,4.636e+00,5.144e+00,6.104e+00,7.316e+00,7.154e+00,6.946e+00,7.341e+00,6.696e+00,6.034e+00,6.392e+00,6.480e+00,6.997e+00,5.964e+00,5.526e+00,5.888e+00,5.841e+00,6.422e+00,6.483e+00,6.421e+00,5.520e+00,7.617e+00,7.437e+00,5.494e+00,7.198e+00,4.992e+00,5.733e+00,6.773e+00,6.888e+00,5.314e+00,7.430e+00,7.124e+00,6.561e+00,8.997e+00,7.610e+00,6.938e+00,6.584e+00,6.931e+00,5.340e+00,6.279e+00,5.452e+00,7.220e+00,7.359e+00,6.002e+00,8.579e+00,7.143e+00,7.367e+00,8.259e+00,6.744e+00,6.635e+00,7.714e+00,6.501e+00,6.066e+00,6.049e+00,6.167e+00,7.903e+00,6.887e+00,5.527e+00,5.487e+00
5.254e-02,3.992e-02,7.334e-01,1.122e+00,1.363e+00,1.832e+00,2.215e+00,2.462e+00,2.572e+00,2.540e+00,2.808e+00,3.082e+00,3.863e+00,3.883e+00,2.494e+00,5.358e+00,2.806e+00,5.358e+00,4.225e+00,4.998e+00,4.699e+00,5.673e+00,6.781e+00,7.912e+00,7.539e+00,7.469e+00,6.227e+00,6.652e+00,6.595e+00,6.723e+00,5.930e+00,6.276e+00,5.592e+00,6.132e+00,7.238e+00,7.095e+00,6.068e+00,6.706e+00,6.751e+00,7.141e+00,7.323e+00,5.331e+00,6.277e+00,5.711e+00,5.902e+00,6.739e+00,7.638e+00,5.491e+00,7.656e+00,6.894e+00,7.083e+00,7.975e+00,6.862e+00,6.273e+00,6.667e+00,6.006e+00,6.639e+00,6.950e+00,4.920e+00,6.193e+00,6.391e+00,5.042e+00,9.293e+00,7.375e+00,6.700e+00,8.429e+00,6.008e+00,6.181e+00,7.616e+00,6.804e+00,6.571e+00,6.751e+00,6.988e+00,7.719e+00,6.294e+00,4.918e+00,5.804e+00
1.959e-02,5.733e-02,8.864e-01,1.523e+00,1.904e+00,2.024e+00,2.710e+00,2.876e+00,3.043e+00,2.884e+00,2.659e+00,3.632e+00,4.086e+00,3.430e+00,2.945e+00,5.832e+00,3.452e+00,6.187e+00,5.579e+00,6.031e+00,5.981e+00,6.531e+00,7.643e+00,8.162e+00,7.917e+00,8.037e+00,7.384e+00,7.395e+00,7.398e+00,8.260e+00,8.183e+00,7.998e+00,5.848e+00,7.020e+00,7.438e+00,7.887e+00,7.790e+00,7.642e+00,7.069e+00,8.248e+00,8.287e+00,6.015e+00,8.428e+00,6.498e+00,6.870e+00,7.699e+00,7.350e+00,5.972e+00,8.987e+00,7.600e+00,7.501e+00,9.682e+00,7.921e+00,7.310e+00,8.537e+00,6.605e+00,6.979e+00,7.618e+00,6.250e+00,8.266e+00,8.524e+00,6.563e+00,9.435e+00,8.136e+00,8.332e+00,9.527e+00,7.481e+00,7.858e+00,8.543e+00,7.763e+00,6.531e+00,7.376e+00,8.473e+00,8.915e+00,7.713e+00,6.450e+00,6.708e+00
2.354e-02,1.154e-02,3.741e-01,9.823e-01,1.312e+00,1.531e+00,1.863e+00,1.771e+00,1.825e+00,1.759e+00,1.839e+00,2.403e+00,2.658e+00,2.378e+00,1.904e+00,4.599e+00,2.220e+00,4.056e+00,4.015e+00,4.376e+00,4.045e+00,5.316e+00,6.196e+00,5.968e+00,6.390e+00,7.542e+00,6.548e+00,6.474e+00,5.362e+00,6.690e+00,6.718e+00,6.569e+00,5.182e+00,5.519e+00,5.702e+00,7.004e+00,5.629e+00,6.820e+00,5.761e+00,6.973e+00,7.295e+00,5.178e+00,5.796e+00,4.903e+00,5.932e+00,6.848e+00,6.129e+00,4.944e+00,6.414e+00,6.805e+00,6.564e+00,7.971e+00,6.781e+00,5.931e+00,6.351e+00,6.567e+00,5.854e+00,6.585e+00,4.187e+00,5.994e+00,7.741e+00,5.978e+00,7.649e+00,7.059e+00,6.565e+00,7.378e+00,6.455e+00,6.089e+00,6.944e+00,6.597e+00,6.485e+00,5.297e+00,6.321e+00,6.532e+00,6.293e+00,5.578e+00,5.616e+00
2.158e-02,1.861e-02,4.710e-01,1.109e+00,1.615e+00,2.020e+00,2.304e+00,2.326e+00,2.796e+00,3.213e+00,2.571e+00,3.908e+00,3.877e+00,3.466e+00,2.411e+00,5.802e+00,2.520e+00,5.066e+00,4.658e+00,4.710e+00,4.882e+00,5.129e+00,5.343e+00,6.677e+00,6.608e+00,6.407e+00,6.426e+00,7.035e+00,5.266e+00,7.341e+00,7.671e+00,6.555e+00,4.788e+00,6.005e+00,6.614e+00,6.435e+00,6.101e+00,7.643e+00,6.850e+00,6.586e+00,7.752e+00,6.131e+00,6.533e+00,5.727e+00,4.708e+00,7.367e+00,7.781e+00,5.950e+00,7.235e+00,6.744e+00,7.648e+00,8.332e+00,6.592e+00,6.521e+00,7.029e+00,5.986e+00,6.717e+00,5.888e+00,5.777e+00,6.809e+00,7.987e+00,5.929e+00,8.177e+00,7.490e+00,8.062e+00,8.236e+00,6.818e+00,6.991e+00,7.741e+00,7.264e+00,5.707e+00,6.705e+00,6.655e+00,7.058e+00,6.314e+00,5.196e+00,5.991e+00
6.211e-02,1.610e-02,7.860e-01,1.518e+00,1.667e+00,2.154e+00,2.375e+00,2.363e+00,2.527e+00,2.149e+00,1.991e+00,3.077e+00,3.488e+00,3.380e+00,2.728e+00,5.437e+00,3.574e+00,5.475e+00,5.056e+00,5.024e+00,5.572e+00,6.382e+00,7.023e+00,6.723e+00,7.518e+00,8.642e+00,8.614e+00,7.882e+00,7.855e+00,7.457e+00,8.951e+00,7.599e+00,6.294e+00,6.042e+00,8.369e+00,8.186e+00,8.118e+00,8.053e+00,8.418e+00,8.674e+00,9.545e+00,8.661e+00,8.218e+00,7.455e+00,7.652e+00,8.207e+00,7.978e+00,7.682e+00,8.108e+00,8.287e+00,7.723e+00,9.383e+00,8.179e+00,7.824e+00,7.152e+00,7.607e+00,8.083e+00,7.608e+00,7.245e+00,8.953e+00,9.471e+00,6.411e+00,9.268e+00,8.168e+00,8.465e+00,9.708e+00,7.083e+00,8.736e+00,9.315e+00,7.425e+00,7.134e+00,8.779e+00,7.468e+00,8.606e+00,8.808e+00,6.508e+00,7.741e+00
5.020e-02,4.223e-02,6.844e-01,1.167e+00,9.973e-01,1.190e+00,1.715e+00,1.633e+00,2.020e+00,1.148e+00,1.822e+00,1.739e+00,3.136e+00,2.639e+00,1.970e+00,4.252e+00,2.157e+00,4.106e+00,3.457e+00,3.703e+00,3.554e+00,3.714e+00,4.262e+00,5.556e+00,5.484e+00,5.859e+00,5.973e+00,7.486e+00,7.366e+00,5.523e+00,8.123e+00,6.517e+00,6.577e+00,5.253e+00,7.907e+00,6.177e+00,6.737e+00,6.902e+00,7.833e+00,6.882e+00,7.535e+00,5.831e+00,5.934e+00,6.368e+00,6.586e+00,6.781e+00,6.395e+00,6.164e+00,6.366e+00,7.318e+00,6.513e+00,6.920e+00,6.639e+00,7.467e+00,7.909e+00,6.623e+00,6.507e+00,7.398e+00,5.699e+00,7.754e+00,7.207e+00,6.567e+00,7.177e+00,8.301e+00,6.087e+00,8.071e+00,7.007e+00,7.474e+00,7.661e+00,7.409e+00,6.807e+00,7.608e+00,6.540e+00,6.005e+00,7.753e+00,5.558e+00,6.021e+00
5.949e-02,2.701e-02,7.041e-01,1.033e+00,1.151e+00,1.676e+00,1.771e+00,1.957e+00,2.325e+00,1.851e+00,2.170e+00,2.211e+00,3.739e+00,3.161e+00,2.083e+00,5.081e+00,2.224e+00,4.895e+00,4.048e+00,4.248e+00,3.908e+00,4.425e+00,4.910e+00,6.118e+00,6.143e+00,6.540e+00,6.704e+00,7.030e+00,7.534e+00,7.450e+00,8.116e+00,6.814e+00,6.408e+00,5.671e+00,7.792e+00,6.410e+00,7.596e+00,8.505e+00,8.340e+00,7.571e+00,8.598e+00,6.884e+00,6.685e+00,5.941e+00,5.862e+00,8.028e+00,7.492e+00,7.366e+00,6.852e+00,8.178e+00,7.987e+00,7.829e+00,7.136e+00,7.085e+00,8.131e+00,6.846e+00,7.677e+00,7.837e+00,5.941e+00,8.388e+00,7.251e+00,6.015e+00,8.816e+00,7.668e+00,6.901e+00,8.181e+00,7.290e+00,7.555e+00,8.209e+00,8.568e+00,7.762e+00,8.056e+00,6.747e+00,6.560e+00,7.572e+00,5.435e+00,6.354e+00
4.438e-02,7.387e-02,9.874e-01,1.662e+00,1.982e+00,2.227e+00,2.917e+00,2.857e+00,2.966e+00,2.431e+00,2.984e+00,3.577e+00,4.686e+00,3.908e+00,2.806e+00,5.988e+00,3.258e+00,5.951e+00,4.591e+00,4.900e+00,5.201e+00,5.697e+00,6.140e+00,7.992e+00,7.375e+00,8.122e+00,8.339e+00,8.298e+00,7.691e+00,9.262e+00,1.048e+01,9.425e+00,7.360e+00,7.323e+00,8.647e+00,8.018e+00,8.252e+00,1.077e+01,9.056e+00,9.712e+00,1.091e+01,8.276e+00,8.243e+00,6.875e+00,7.378e+00,9.423e+00,8.371e+00,9.386e+00,9.228e+00,9.420e+00,9.363e+00,1.112e+01,9.098e+00,9.518e+00,9.898e+00,9.189e+00,8.803e+00,8.779e+00,7.885e+00,9.589e+00,1.044e+01,7.313e+00,1.013e+01,9.277e+00,9.437e+00,1.031e+01,8.898e+00,9.663e+00,1.012e+01,9.541e+00,8.445e+00,9.336e+00,8.211e+00,8.892e+00,9.084e+00,7.823e+00,7.127e+00
4.008e-02,5.017e-02,8.932e-01,1.733e+00,1.587e+00,1.745e+00,2.503e+00,2.720e+00,3.448e+00,2.456e+00,2.503e+00,3.207e+00,2.895e+00,3.072e+00,2.006e+00,4.104e+00,2.423e+00,4.509e+00,3.087e+00,4.515e+00,4.064e+00,5.418e+00,5.258e+00,6.295e+00,6.793e+00,6.131e+00,5.774e+00,7.672e+00,7.649e+00,6.435e+00,8.853e+00,7.484e+00,7.515e+00,5.241e+00,8.962e+00,7.419e+00,7.659e+00,8.248e+00,8.139e+00,8.892e+00,8.562e+00,6.750e+00,6.701e+00,7.441e+00,6.736e+00,7.806e+00,7.465e+00,7.105e+00,7.849e+00,7.788e+00,9.053e+00,9.084e+00,9.039e+00,8.289e+00,8.430e+00,8.020e+00,8.607e+00,7.992e+00,6.266e+00,8.002e+00,9.225e+00,6.968e+00,8.988e+00,9.275e+00,8.281e+00,9.643e+00,7.350e+00,9.112e+00,8.065e+00,8.395e+00,8.077e+00,6.983e+00,7.230e+00,8.323e+00,7.891e+00,7.056e+00,7.135e+00
2.410e-02,2.753e-02,6.856e-01,1.429e+00,1.460e+00,1.599e+00,2.165e+00,2.616e+00,3.418e+00,2.576e+00,2.459e+00,2.878e+00,3.257e+00,2.809e+00,2.078e+00,4.083e+00,2.315e+00,4.846e+00,3.473e+00,4.317e+00,4.525e+00,5.919e+00,5.474e+00,6.339e+00,7.022e+00,6.206e+00,6.050e+00,7.609e+00,7.675e+00,6.758e+00,8.226e+00,8.048e+00,7.341e+00,5.847e+00,7.894e+00,6.089e+00,7.045e+00,8.012e+00,7.853e+00,8.632e+00,8.026e+00,5.920e+00,6.810e+00,6.064e+00,7.512e+00,8.474e+00,7.579e+00,7.060e+00,7.850e+00,9.389e+00,8.205e+00,7.770e+00,8.652e+00,8.111e+00,9.157e+00,8.126e+00,8.417e+00,7.702e+00,5.782e+00,7.774e+00,8.743e+00,6.540e+00,9.535e+00,9.208e+00,8.029e+00,9.002e+00,8.032e+00,8.470e+00,8.187e+00,9.352e+00,7.269e+00,7.791e+00,7.020e+00,7.255e+00,7.873e+00,7.289e+00,5.873e+00
2.397e-02,1.559e-02,4.899e-01,1.263e+00,1.492e+00,1.592e+00,1.831e+00,1.876e+00,2.429e+00,1.837e+00,2.104e+00,2.660e+00,3.892e+00,2.663e+00,2.228e+00,5.196e+00,2.743e+00,4.644e+00,4.199e+00,3.731e+00,4.475e+00,5.376e+00,6.107e+00,6.484e+00,6.606e+00,7.656e+00,7.411e+00,7.956e+00,8.245e+00,7.796e+00,9.146e+00,7.925e+00,8.145e+00,6.457e+00,8.397e+00,7.933e+00,8.248e+00,9.570e+00,8.636e+00,9.798e+00,1.066e+01,7.628e+00,8.042e+00,7.003e+00,7.753e+00,9.025e+00,8.223e+00,7.902e+00,8.546e+00,8.997e+00,9.337e+00,9.608e+00,9.415e+00,8.809e+00,9.001e+00,9.573e+00,8.948e+00,8.548e+00,7.001e+00,9.764e+00,1.040e+01,7.911e+00,9.879e+00,9.854e+00,8.907e+00,9.480e+00,8.657e+00,9.233e+00,1.003e+01,9.844e+00,8.583e+00,9.047e+00,8.126e+00,8.781e+00,9.540e+00,7.955e+00,7.169e+00
6.706e-03,7.133e-03,2.927e-01,8.732e-01,1.467e+00,1.784e+00,2.313e+00,2.403e+00,2.272e+00,2.606e+00,2.091e+00,3.167e+00,3.184e+00,2.941e+00,2.622e+00,5.506e+00,2.793e+00,5.315e+00,4.874e+00,5.036e+00,5.438e+00,6.546e+00,6.802e+00,6.672e+00,7.146e+00,7.597e+00,7.005e+00,8.273e+00,6.978e+00,8.150e+00,8.489e+00,8.857e+00,8.003e+00,8.062e+00,9.929e+00,1.007e+01,8.165e+00,9.802e+00,8.287e+00,1.070e+01,9.621e+00,7.122e+00,8.308e+00,7.969e+00,8.760e+00,1.024e+01,8.949e+00,7.329e+00,9.447e+00,9.570e+00,1.003e+01,1.047e+01,9.909e+00,9.018e+00,9.511e+00,9.069e+00,9.683e+00,8.592e+00,8.154e+00,9.356e+00,1.160e+01,8.662e+00,9.864e+00,1.032e+01,9.452e+00,1.022e+01,9.450e+00,1.058e+01,1.040e+01,1.074e+01,8.634e+00,8.835e+00,9.748e+00,9.710e+00,1.012e+01,7.945e+00,7.862e+00
6.372e-02,3.095e-02,7.959e-01,1.509e+00,1.891e+00,2.438e+00,2.652e+00,2.357e+00,2.273e+00,1.861e+00,2.103e+00,3.228e+00,3.943e+00,3.484e+00,2.406e+00,5.337e+00,3.071e+00,4.599e+00,3.713e+00,4.111e+00,4.264e+00,5.118e+00,5.403e+00,5.994e+00,5.638e+00,6.791e+00,6.170e+00,5.946e+00,5.836e+00,6.867e+00,7.034e+00,7.156e+00,6.803e+00,6.110e+00,8.040e+00,7.700e+00,8.053e+00,8.134e+00,7.756e+00,9.281e+00,9.519e+00,6.804e+00,7.934e+00,6.856e+00,7.643e+00,8.616e+00,8.802e+00,7.598e+00,8.364e+00,9.221e+00,9.390e+00,8.834e+00,8.155e+00,8.452e+00,9.042e+00,8.037e+00,8.755e+00,7.312e+00,7.675e+00,8.890e+00,9.913e+00,7.004e+00,9.530e+00,8.058e+00,8.907e+00,9.227e+00,7.485e+00,9.715e+00,9.830e+00,9.837e+00,8.029e+00,9.235e+00,7.856e+00,7.761e+00,8.729e+00,6.937e+00,7.450e+00
3.263e-02,6.425e-02,1.026e+00,1.802e+00,1.818e+00,1.794e+00,2.271e+00,2.199e+00,2.414e+00,1.853e+00,2.075e+00,2.753e+00,2.514e+00,2.148e+00,1.866e+00,3.182e+00,2.337e+00,3.625e+00,2.572e+00,3.405e+00,3.423e+00,4.430e+00,4.224e+00,5.004e+00,5.591e+00,5.442e+00,5.968e+00,6.667e+00,6.170e+00,6.939e+00,7.327e+00,6.148e+00,6.519e+00,5.651e+00,7.894e+00,7.735e+00,8.336e+00,9.462e+00,8.730e+00,1.070e+01,1.040e+01,7.277e+00,7.697e+00,7.243e+00,8.497e+00,8.076e+00,9.092e+00,7.703e+00,7.895e+00,9.209e+00,8.600e+00,7.998e+00,8.420e+00,7.719e+00,8.908e+00,7.712e+00,1.020e+01,7.717e+00,7.003e+00,9.911e+00,1.034e+01,7.502e+00,8.132e+00,9.275e+00,8.246e+00,9.566e+00,8.149e+00,9.206e+00,7.598e+00,1.027e+01,9.442e+00,8.550e+00,7.219e+00,7.386e+00,9.093e+00,7.180e+00,8.072e+00
1.505e-02,5.668e-02,7.055e-01,1.063e+00,1.472e+00,1.569e+00,2.049e+00,2.386e+00,2.315e+00,1.816e+00,2.314e+00,2.857e+00,4.217e+00,3.081e+00,2.209e+00,4.634e+00,2.578e+00,5.108e+00,3.804e+00,4.338e+00,4.352e+00,5.242e+00,6.165e+00,7.052e+00,6.401e+00,7.494e+00,6.863e+00,6.656e+00,6.757e+00,8.113e+00,8.567e+00,9.160e+00,7.303e+00,7.177e+00,9.029e+00,8.915e+00,1.026e+01,1.188e+01,9.819e+00,1.193e+01,1.206e+01,8.393e+00,1.011e+01,8.454e+00,1.029e+01,1.000e+01,1.102e+01,1.068e+01,1.049e+01,1.039e+01,1.125e+01,1.191e+01,1.087e+01,1.023e+01,1.101e+01,1.032e+01,1.089e+01,9.339e+00,9.006e+00,1.144e+01,1.354e+01,9.076e+00,1.110e+01,1.067e+01,1.202e+01,1.095e+01,1.011e+01,1.033e+01,1.062e+01,1.180e+01,1.031e+01,1.023e+01,9.865e+00,9.753e+00,9.656e+00,9.106e+00,9.287e+00
1.079e-02,5.635e-02,6.488e-01,8.780e-01,1.288e+00,1.468e+00,2.018e+00,2.466e+00,2.411e+00,2.664e+00,2.843e+00,3.208e+00,3.816e+00,3.405e+00,2.376e+00,5.160e+00,2.607e+00,5.014e+00,3.758e+00,4.636e+00,4.706e+00,5.228e+00,5.700e+00,6.605e+00,6.630e+00,7.102e+00,6.039e+00,6.580e+00,5.809e+00,7.941e+00,7.212e+00,7.723e+00,5.865e+00,7.424e+00,7.819e+00,8.382e+00,8.678e+00,1.124e+01,9.097e+00,1.058e+01,1.051e+01,7.340e+00,9.093e+00,7.154e+00,8.866e+00,9.395e+00,1.013e+01,8.480e+00,9.712e+00,9.493e+00,9.777e+00,1.024e+01,9.633e+00,8.466e+00,1.009e+01,8.881e+00,9.863e+00,8.228e+00,7.416e+00,9.524e+00,1.135e+01,8.138e+00,9.447e+00,1.022e+01,9.822e+00,1.047e+01,9.803e+00,9.154e+00,9.330e+00,1.127e+01,8.995e+00,8.841e+00,1.027e+01,8.979e+00,8.040e+00,7.496e+00,8.601e+00
5.489e-02,5.830e-02,7.382e-01,1.318e+00,1.240e+00,1.525e+00,2.382e+00,2.132e+00,2.495e+00,2.211e+00,2.685e+00,2.753e+00,3.234e+00,3.320e+00,1.914e+00,3.480e+00,2.324e+00,4.360e+00,3.375e+00,4.777e+00,4.082e+00,4.793e+00,4.814e+00,6.083e+00,6.083e+00,5.731e+00,4.637e+00,5.789e+00,5.842e+00,5.633e+00,6.969e+00,7.649e+00,6.823e+00,6.296e+00,9.568e+00,8.971e+00,8.813e+00,1.047e+01,8.914e+00,1.119e+01,1.014e+01,6.672e+00,8.986e+00,8.308e+00,1.005e+01,9.828e+00,9.424e+00,7.573e+00,9.606e+00,9.293e+00,1.069e+01,1.084e+01,1.058e+01,9.175e+00,9.937e+00,9.326e+00,1.083e+01,9.754e+00,7.335e+00,9.377e+00,1.206e+01,9.210e+00,1.022e+01,1.140e+01,9.744e+00,1.162e+01,9.673e+00,1.083e+01,9.264e+00,1.141e+01,9.954e+00,9.273e+00,9.430e+00,9.111e+00,9.289e+00,7.995e+00,1.002e+01
5.730e-02,5.226e-02,9.436e-01,1.680e+00,2.023e+00,2.453e+00,3.008e+00,2.859e+00,2.746e+00,2.407e+00,2.700e+00,3.516e+00,4.055e+00,3.820e+00,2.903e+00,6.341e+00,3.472e+00,5.971e+00,5.264e+00,5.443e+00,5.763e+00,6.606e+00,7.306e+00,7.961e+00,8.326e+00,9.265e+00,9.135e+00,8.824e+00,8.177e+00,9.483e+00,1.056e+01,1.010e+01,8.672e+00,9.095e+00,1.117e+01,1.147e+01,1.199e+01,1.379e+01,1.183e+01,1.427e+01,1.579e+01,1.067e+01,1.319e+01,1.082e+01,1.343e+01,1.430e+01,1.360e+01,1.226e+01,1.334e+01,1.393e+01,1.457e+01,1.471e+01,1.359e+01,1.201e+01,1.346e+01,1.345e+01,1.410e+01,1.227e+01,1.112e+01,1.434e+01,1.653e+01,1.157e+01,1.386e+01,1.478e+01,1.286e+01,1.465e+01,1.272e+01,1.374e+01,1.386e+01,1.518e+01,1.271e+01,1.263e+01,1.217e+01,1.283e+01,1.389e+01,1.075e+01,1.310e+01
1.994e-02,1.327e-02,4.338e-01,9.218e-01,1.158e+00,1.499e+00,1.957e+00,2.333e+00,2.614e+00,2.724e+00,2.441e+00,3.710e+00,4.443e+00,3.815e+00,2.910e+00,5.829e+00,3.172e+00,4.877e+00,3.904e+00,5.059e+00,5.512e+00,7.059e+00,7.377e+00,7.713e+00,7.597e+00,8.629e+00,7.128e+00,8.935e+00,8.370e+00,8.134e+00,9.405e+00,1.014e+01,8.147e+00,7.257e+00,1.104e+01,1.070e+01,9.736e+00,1.069e+01,1.103e+01,1.237e+01,1.369e+01,1.050e+01,1.258e+01,1.121e+01,1.152e+01,1.208e+01,1.148e+01,1.147e+01,1.303e+01,1.024e+01,1.240e+01,1.267e+01,1.326e+01,1.271e+01,1.137e+01,1.241e+01,1.230e+01,1.076e+01,1.061e+01,1.184e+01,1.556e+01,1.094e+01,1.292e+01,1.431e+01,1.273e+01,1.422e+01,1.153e+01,1.287e+01,1.370e+01,1.333e+01,1.117e+01,1.091e+01,1.197e+01,1.322e+01,1.202e+01,1.080e+01,1.131e+01
1.261e-02,6.513e-02,6.453e-01,1.259e+00,1.422e+00,1.257e+00,1.945e+00,1.949e+00,2.189e+00,1.305e+00,2.099e+00,2.265e+00,3.275e+00,2.376e+00,1.776e+00,3.922e+00,2.599e+00,4.465e+00,3.431e+00,2.972e+00,3.791e+00,3.870e+00,4.895e+00,6.198e+00,5.707e+00,6.170e+00,5.848e+00,6.119e+00,6.255e+00,6.462e+00,7.931e+00,6.542e+00,6.412e+00,6.877e+00,7.199e+00,6.282e+00,7.018e+00,8.476e+00,8.068e+00,9.016e+00,1.102e+01,8.085e+00,9.063e+00,7.834e+00,8.213e+00,9.244e+00,8.801e+00,9.022e+00,9.270e+00,1.011e+01,9.087e+00,1.098e+01,8.767e+00,9.205e+00,9.852e+00,1.062e+01,9.401e+00,8.789e+00,8.695e+00,9.888e+00,1.104e+01,8.053e+00,1.089e+01,1.058e+01,9.910e+00,1.071e+01,8.599e+00,9.775e+00,9.233e+00,1.081e+01,9.505e+00,9.438e+00,8.333e+00,9.990e+00,9.340e+00,8.492e+00,8.779e+00
2.516e-02,4.570e-02,6.692e-01,1.124e+00,1.309e+00,1.511e+00,2.053e+00,2.029e+00,2.366e+00,2.026e+00,1.782e+00,2.188e+00,2.886e+00,2.178e+00,1.917e+00,4.107e+00,2.580e+00,5.154e+00,5.010e+00,4.580e+00,5.108e+00,5.356e+00,6.421e+00,6.882e+00,7.061e+00,7.191e+00,7.399e+00,7.778e+00,8.268e+00,7.588e+00,9.108e+00,8.564e+00,7.451e+00,8.414e+00,1.035e+01,1.013e+01,1.060e+01,1.084e+01,1.018e+01,1.292e+01,1.234e+01,9.238e+00,1.240e+01,1.101e+01,1.109e+01,1.119e+01,1.196e+01,9.389e+00,1.270e+01,1.172e+01,1.154e+01,1.203e+01,1.310e+01,1.057e+01,1.207e+01,1.071e+01,1.106e+01,1.041e+01,1.074e+01,1.349e+01,1.477e+01,1.125e+01,1.254e+01,1.322e+01,1.200e+01,1.373e+01,1.207e+01,1.207e+01,1.080e+01,1.416e+01,1.161e+01,1.153e+01,1.063e+01,1.249e+01,1.067e+01,9.874e+00,1.147e+01
5.203e-02,5.093e-02,1.008e+00,1.872e+00,2.286e+00,2.773e+00,3.107e+00,2.731e+00,2.923e+00,3.412e+00,2.877e+00,4.537e+00,3.671e+00,3.793e+00,2.763e+00,5.895e+00,3.385e+00,4.317e+00,3.639e+00,4.589e+00,5.131e+00,5.753e+00,5.335e+00,6.675e+00,6.517e+00,5.877e+00,6.754e+00,7.905e+00,6.623e+00,7.954e+00,8.056e+00,6.936e+00,7.245e+00,6.950e+00,7.566e+00,8.323e+00,9.152e+00,1.003e+01,9.844e+00,1.098e+01,1.213e+01,9.019e+00,1.206e+01,9.968e+00,1.009e+01,1.215e+01,1.192e+01,1.036e+01,1.198e+01,1.180e+01,1.301e+01,1.261e+01,1.217e+01,1.144e+01,1.236e+01,1.119e+01,1.097e+01,9.020e+00,1.150e+01,1.225e+01,1.361e+01,1.004e+01,1.268e+01,1.210e+01,1.046e+01,1.224e+01,1.034e+01,1.072e+01,1.106e+01,1.218e+01,1.061e+01,1.076e+01,9.642e+00,1.113e+01,1.198e+01,7.691e+00,9.935e+00
8.476e-03,1.689e-02,3.630e-01,7.155e-01,9.568e-01,1.000e+00,1.112e+00,1.110e+00,1.214e+00,1.085e+00,1.081e+00,2.038e+00,2.358e+00,1.733e+00,1.259e+00,3.117e+00,1.419e+00,2.925e+00,2.948e+00,3.383e+00,2.532e+00,3.666e+00,4.384e+00,4.791e+00,4.685e+00,4.628e+00,5.040e+00,5.847e+00,5.181e+00,6.049e+00,6.697e+00,7.033e+00,6.373e+00,4.953e+00,7.752e+00,7.984e+00,8.389e+00,9.998e+00,7.856e+00,1.024e+01,1.084e+01,8.144e+00,8.856e+00,8.244e+00,1.035e+01,9.498e+00,8.938e+00,8.673e+00,9.787e+00,8.936e+00,1.113e+01,1.018e+01,1.054e+01,8.795e+00,1.102e+01,1.130e+01,1.112e+01,8.828e+00,8.265e+00,1.120e+01,1.262e+01,9.513e+00,1.093e+01,1.134e+01,1.028e+01,1.072e+01,9.308e+00,9.234e+00,8.967e+00,1.337e+01,1.101e+01,9.802e+00,9.135e+00,1.043e+01,9.492e+00,7.855e+00,1.030e+01
5.890e-02,7.988e-02,1.213e+00,2.177e+00,2.444e+00,2.676e+00,3.317e+00,3.064e+00,3.392e+00,3.079e+00,3.609e+00,4.439e+00,5.194e+00,4.293e+00,2.990e+00,6.184e+00,3.718e+00,5.713e+00,4.494e+00,4.886e+00,5.352e+00,5.878e+00,6.559e+00,7.667e+00,7.658e+00,8.217e+00,7.779e+00,8.269e+00,8.057e+00,8.292e+00,9.287e+00,7.813e+00,7.111e+00,7.537e+00,9.839e+00,1.008e+01,1.001e+01,1.211e+01,1.071e+01,1.235e+01,1.310e+01,9.575e+00,1.101e+01,1.019e+01,1.019e+01,1.142e+01,1.287e+01,1.031e+01,1.250e+01,1.166e+01,1.267e+01,1.236e+01,1.282e+01,1.191e+01,1.290e+01,1.185e+01,1.193e+01,1.096e+01,9.535e+00,1.255e+01,1.426e+01,1.114e+01,1.208e+01,1.348e+01,1.130e+01,1.439e+01,1.224e+01,1.248e+01,1.273e+01,1.407e+01,1.165e+01,1.286e+01,1.162e+01,1.201e+01,1.207e+01,8.495e+00,1.164e+01
3.342e-03,6.959e-02,8.312e-01,1.373e+00,1.387e+00,1.211e+00,2.108e+00,2.326e+00,2.693e+00,2.875e+00,2.950e+00,3.188e+00,3.462e+00,2.708e+00,2.450e+00,4.126e+00,2.376e+00,4.173e+00,3.702e+00,4.966e+00,5.348e+00,5.733e+00,5.837e+00,6.345e+00,7.570e+00,7.067e+00,6.373e+00,8.418e+00,7.194e+00,7.565e+00,9.807e+00,9.529e+00,7.511e+00,7.794e+00,9.080e+00,9.073e+00,1.003e+01,1.123e+01,1.005e+01,1.085e+01,1.116e+01,8.297e+00,1.066e+01,9.731e+00,1.192e+01,1.209e+01,1.130e+01,1.031e+01,1.234e+01,1.312e+01,1.197e+01,1.264e+01,1.461e+01,1.230e+01,1.465e+01,1.170e+01,1.291e+01,1.207e+01,8.978e+00,1.310e+01,1.466e+01,1.182e+01,1.289e+01,1.379e+01,1.276e+01,1.402e+01,1.292e+01,1.252e+01,1.062e+01,1.541e+01,1.395e+01,1.183e+01,1.215e+01,1.206e+01,1.288e+01,1.058e+01,1.208e+01
1.921e-02,5.735e-02,9.028e-01,1.845e+00,2.278e+00,2.356e+00,3.198e+00,3.355e+00,3.266e+00,2.948e+00,3.071e+00,4.361e+00,3.831e+00,3.832e+00,2.995e+00,5.813e+00,3.540e+00,5.374e+00,3.841e+00,5.205e+00,4.954e+00,6.859e+00,6.575e+00,6.921e+00,7.182e+00,7.398e+00,6.982e+00,9.056e+00,8.137e+00,8.655e+00,9.366e+00,8.432e+00,8.544e+00,7.375e+00,1.051e+01,9.816e+00,9.735e+00,1.150e+01,1.063e+01,1.314e+01,1.308e+01,9.366e+00,1.199e+01,1.170e+01,1.233e+01,1.232e+01,1.277e+01,1.144e+01,1.348e+01,1.412e+01,1.611e+01,1.473e+01,1.419e+01,1.397e+01,1.404e+01,1.433e+01,1.344e+01,1.218e+01,1.348e+01,1.429e+01,1.558e+01,1.208e+01,1.448e+01,1.517e+01,1.324e+01,1.605e+01,1.387e+01,1.511e+01,1.321e+01,1.558e+01,1.390e+01,1.317e+01,1.326e+01,1.442e+01,1.381e+01,1.034e+01,1.354e+01
4.769e-02,1.197e-02,7.347e-01,1.608e+00,1.474e+00,1.817e+00,2.190e+00,2.497e+00,3.417e+00,2.499e+00,2.129e+00,3.271e+00,3.073e+00,3.113e+00,2.063e+00,4.196e+00,2.461e+00,4.668e+00,3.464e+00,4.380e+00,4.347e+00,6.218e+00,5.493e+00,5.939e+00,6.831e+00,5.698e+00,5.842e+00,7.028e+00,7.614e+00,6.711e+00,7.579e+00,7.133e+00,7.037e+00,4.479e+00,8.334e+00,7.229e+00,8.397e+00,9.425e+00,9.430e+00,1.103e+01,1.237e+01,9.830e+00,1.131e+01,9.968e+00,1.083e+01,1.197e+01,1.154e+01,1.088e+01,1.230e+01,1.289e+01,1.490e+01,1.197e+01,1.462e+01,1.185e+01,1.367e+01,1.382e+01,1.354e+01,1.191e+01,1.183e+01,1.262e+01,1.376e+01,9.794e+00,1.454e+01,1.465e+01,1.196e+01,1.543e+01,1.127e+01,1.261e+01,1.178e+01,1.456e+01,1.256e+01,1.158e+01,1.040e+01,1.232e+01,1.201e+01,9.236e+00,1.194e+01
1.516e-02,2.621e-02,5.822e-01,1.262e+00,1.547e+00,1.563e+00,1.740e+00,1.688e+00,2.069e+00,2.496e+00,2.535e+00,3.330e+00,4.019e+00,2.833e+00,2.450e+00,4.572e+00,2.218e+00,3.460e+00,3.055e+00,3.863e+00,3.663e+00,4.901e+00,4.887e+00,5.960e+00,5.747e+00,6.115e+00,5.978e+00,7.129e+00,6.108e+00,8.036e+00,8.270e+00,8.368e+00,7.135e+00,6.194e+00,8.388e+00,8.709e+00,8.437e+00,1.174e+01,9.711e+00,1.196e+01,1.342e+01,9.060e+00,1.089e+01,1.003e+01,1.135e+01,1.219e+01,1.129e+01,1.057e+01,1.244e+01,1.175e+01,1.492e+01,1.345e+01,1.412e+01,1.292e+01,1.428e+01,1.379e+01,1.378e+01,1.215e+01,1.158e+01,1.339e+01,1.619e+01,1.188e+01,1.406e+01,1.476e+01,1.294e+01,1.453e+01,1.224e+01,1.243e+01,1.187e+01,1.524e+01,1.350e+01,1.129e+01,1.120e+01,1.265e+01,1.260e+01,1.068e+01,1.261e+01
5.333e-02,5.564e-02,9.032e-01,1.716e+00,1.803e+00,2.044e+00,2.770e+00,2.684e+00,2.961e+00,1.898e+00,2.440e+00,3.250e+00,3.810e+00,3.544e+00,2.264e+00,5.277e+00,2.861e+00,5.396e+00,4.395e+00,4.884e+00,4.493e+00,5.116e+00,6.201e+00,6.784e+00,6.963e+00,7.449e+00,6.476e+00,6.644e+00,7.239e+00,6.850e+00,8.665e+00,8.372e+00,7.738e+00,5.931e+00,9.503e+00,9.368e+00,1.004e+01,1.094e+01,9.104e+00,1.117e+01,1.183e+01,9.339e+00,1.048e+01,1.032e+01,1.053e+01,1.136e+01,1.150e+01,9.925e+00,1.134e+01,1.296e+01,1.449e+01,1.509e+01,1.539e+01,1.260e+01,1.477e+01,1.415e+01,1.299e+01,1.389e+01,1.138e+01,1.520e+01,1.478e+01,1.163e+01,1.383e+01,1.395e+01,1.380e+01,1.548e+01,1.159e+01,1.375e+01,1.209e+01,1.502e+01,1.349e+01,1.369e+01,1.284e+01,1.290e+01,1.296e+01,1.043e+01,1.349e+01
5.333e-02,3.769e-02,6.465e-01,1.312e+00,1.365e+00,1.777e+00,2.241e+00,2.096e+00,2.890e+00,2.397e+00,2.506e+00,2.638e+00,3.506e+00,3.026e+00,1.892e+00,4.822e+00,2.690e+00,5.430e+00,4.778e+00,4.712e+00,5.081e+00,5.360e+00,6.188e+00,7.205e+00,7.382e+00,7.439e+00,6.977e+00,8.078e+00,8.465e+00,7.171e+00,9.023e+00,7.696e+00,8.279e+00,7.443e+00,1.031e+01,9.245e+00,9.597e+00,1.126e+01,1.050e+01,1.232e+01,1.213e+01,9.549e+00,1.137e+01,1.084e+01,1.116e+01,1.239e+01,1.435e+01,1.092e+01,1.282e+01,1.323e+01,1.572e+01,1.516e+01,1.497e+01,1.387e+01,1.488e+01,1.481e+01,1.476e+01,1.371e+01,1.369e+01,1.529e+01,1.608e+01,1.322e+01,1.501e+01,1.677e+01,1.417e+01,1.530e+01,1.449e+01,1.471e+01,1.340e+01,1.691e+01,1.354e+01,1.393e+01,1.384e+01,1.498e+01,1.346e+01,1.118e+01,1.379e+01
1.482e-02,1.655e-02,3.256e-01,9.849e-01,1.261e+00,1.527e+00,2.024e+00,2.083e+00,2.402e+00,2.635e+00,2.471e+00,3.564e+00,3.284e+00,3.130e+00,2.083e+00,4.971e+00,2.253e+00,3.410e+00,2.695e+00,3.657e+00,4.351e+00,5.596e+00,5.559e+00,6.123e+00,6.387e+00,6.698e+00,5.640e+00,7.853e+00,5.814e+00,6.203e+00,7.805e+00,6.726e+00,7.194e+00,6.432e+00,8.837e+00,8.619e+00,8.101e+00,9.666e+00,9.653e+00,1.091e+01,1.185e+01,8.077e+00,1.015e+01,9.379e+00,9.877e+00,1.065e+01,1.206e+01,9.704e+00,1.172e+01,1.022e+01,1.409e+01,1.227e+01,1.334e+01,1.396e+01,1.246e+01,1.282e+01,1.300e+01,1.080e+01,1.211e+01,1.211e+01,1.558e+01,1.176e+01,1.259e+01,1.587e+01,1.284e+01,1.496e+01,1.281e+01,1.312e+01,1.409e+01,1.422e+01,1.125e+01,1.066e+01,1.333e+01,1.414e+01,1.291e+01,1.112e+01,1.227e+01
4.205e-03,1.862e-02,4.648e-01,9.568e-01,1.044e+00,1.066e+00,1.597e+00,2.033e+00,2.620e+00,2.137e+00,1.912e+00,2.893e+00,3.777e+00,2.736e+00,2.136e+00,4.165e+00,2.354e+00,4.500e+00,3.773e+00,4.125e+00,4.794e+00,5.764e+00,5.924e+00,6.049e+00,6.829e+00,6.267e+00,6.242e+00,6.713e+00,7.129e+00,7.323e+00,8.261e+00,8.571e+00,6.858e+00,6.408e+00,8.810e+00,7.665e+00,8.340e+00,9.180e+00,8.796e+00,9.958e+00,9.663e+00,8.207e+00,9.778e+00,9.129e+00,9.652e+00,1.092e+01,1.013e+01,9.488e+00,1.070e+01,1.083e+01,1.246e+01,1.242e+01,1.274e+01,1.293e+01,1.224e+01,1.224e+01,1.195e+01,1.179e+01,1.049e+01,1.186e+01,1.315e+01,1.064e+01,1.419e+01,1.289e+01,1.284e+01,1.395e+01,1.141e+01,1.181e+01,1.164e+01,1.304e+01,1.087e+01,1.131e+01,1.209e+01,1.365e+01,1.230e+01,1.039e+01,1.223e+01
3.103e-02,3.563e-02,4.642e-01,9.454e-01,1.037e+00,1.314e+00,2.109e+00,2.309e+00,2.673e+00,1.887e+00,2.165e+00,3.115e+00,3.789e+00,3.686e+00,2.032e+00,5.112e+00,2.826e+00,5.473e+00,4.264e+00,4.672e+00,5.040e+00,5.399e+00,6.082e+00,6.754e+00,6.884e+00,7.574e+00,6.801e+00,7.420e+00,7.657e+00,8.063e+00,9.624e+00,8.392e+00,7.822e+00,7.446e+00,1.032e+01,9.355e+00,1.061e+01,1.167e+01,1.050e+01,1.145e+01,1.214e+01,1.032e+01,1.179e+01,1.064e+01,1.097e+01,1.117e+01,1.255e+01,1.125e+01,1.169e+01,1.452e+01,1.488e+01,1.473e+01,1.452e+01,1.321e+01,1.552e+01,1.479e+01,1.376e+01,1.373e+01,1.380e+01,1.624e+01,1.587e+01,1.270e+01,1.499e+01,1.536e+01,1.521e+01,1.655e+01,1.452e+01,1.449e+01,1.402e+01,1.616e+01,1.460e+01,1.446e+01,1.429e+01,1.494e+01,1.471e+01,1.084e+01,1.421e+01
3.239e-02,1.900e-02,6.456e-01,1.528e+00,1.444e+00,1.608e+00,2.222e+00,2.107e+00,2.617e+00,2.472e+00,2.003e+00,3.699e+00,3.619e+00,3.147e+00,2.739e+00,4.753e+00,3.212e+00,4.164e+00,3.941e+00,4.082e+00,5.514e+00,6.113e+00,5.544e+00,4.748e+00,6.035e+00,6.120e+00,5.856e+00,6.690e+00,6.926e+00,6.944e+00,8.026e+00,6.398e+00,6.413e+00,5.425e+00,8.077e+00,7.656e+00,9.724e+00,8.926e+00,9.706e+00,1.045e+01,1.257e+01,1.022e+01,1.267e+01,1.050e+01,1.104e+01,1.189e+01,1.190e+01,1.066e+01,1.272e+01,1.261e+01,1.402e+01,1.243e+01,1.466e+01,1.281e+01,1.467e+01,1.429e+01,1.432e+01,1.303e+01,1.358e+01,1.532e+01,1.580e+01,1.230e+01,1.439e+01,1.502e+01,1.412e+01,1.795e+01,1.313e+01,1.441e+01,1.459e+01,1.608e+01,1.407e+01,1.381e+01,1.368e+01,1.517e+01,1.584e+01,1.038e+01,1.510e+01
2.293e-03,5.327e-02,5.687e-01,1.178e+00,1.398e+00,1.354e+00,2.343e+00,2.668e+00,3.016e+00,2.379e+00,2.444e+00,3.456e+00,4.134e+00,3.535e+00,2.656e+00,5.014e+00,3.185e+00,5.945e+00,4.646e+00,5.278e+00,5.656e+00,6.441e+00,7.309e+00,8.837e+00,7.726e+00,7.918e+00,7.421e+00,9.305e+00,9.410e+00,9.042e+00,1.122e+01,1.040e+01,9.017e+00,9.013e+00,1.211e+01,1.031e+01,1.087e+01,1.251e+01,1.160e+01,1.349e+01,1.437e+01,1.073e+01,1.382e+01,1.203e+01,1.281e+01,1.341e+01,1.437e+01,1.391e+01,1.518e+01,1.458e+01,1.621e+01,1.682e+01,1.680e+01,1.772e+01,1.716e+01,1.617e+01,1.758e+01,1.654e+01,1.677e+01,1.825e+01,1.879e+01,1.521e+01,1.731e+01,1.936e+01,1.851e+01,2.003e+01,1.725e+01,1.749e+01,1.743e+01,1.981e+01,1.632e+01,1.667e+01,1.809e+01,1.835e+01,1.850e+01,1.497e+01,1.642e+01
2.241e-02,4.165e-02,5.914e-01,1.352e+00,1.535e+00,1.572e+00,2.035e+00,1.632e+00,2.098e+00,2.229e+00,2.277e+00,2.969e+00,3.704e+00,2.691e+00,2.515e+00,5.085e+00,2.376e+00,4.671e+00,4.578e+00,5.063e+00,4.297e+00,4.613e+00,5.331e+00,6.886e+00,6.007e+00,6.929e+00,6.309e+00,7.991e+00,6.506e+00,8.385e+00,8.388e+00,8.446e+00,7.770e+00,7.720e+00,9.230e+00,8.950e+00,9.007e+00,1.016e+01,9.492e+00,1.184e+01,1.306e+01,8.412e+00,1.062e+01,1.037e+01,1.124e+01,1.227e+01,1.265e+01,1.078e+01,1.260e+01,1.258e+01,1.389e+01,1.389e+01,1.232e+01,1.281e+01,1.465e+01,1.369e+01,1.589e+01,1.453e+01,1.299e+01,1.520e+01,1.652e+01,1.447e+01,1.416e+01,1.683e+01,1.544e+01,1.580e+01,1.440e+01,1.465e+01,1.400e+01,1.781e+01,1.524e+01,1.296e+01,1.331e+01,1.412e+01,1.575e+01,1.212e+01,1.519e+01
4.375e-02,7.100e-02,7.796e-01,1.366e+00,1.279e+00,1.383e+00,2.291e+00,2.060e+00,2.370e+00,1.852e+00,2.557e+00,2.833e+00,3.322e+00,3.179e+00,1.778e+00,3.570e+00,2.413e+00,3.782e+00,2.692e+00,3.613e+00,3.707e+00,4.692e+00,4.826e+00,5.914e+00,5.602e+00,5.947e+00,5.498e+00,6.245e+00,6.848e+00,6.952e+00,7.315e+00,7.499e+00,7.078e+00,6.707e+00,8.884e+00,8.116e+00,8.951e+00,1.103e+01,8.777e+00,1.172e+01,1.145e+01,7.706e+00,1.042e+01,9.446e+00,1.073e+01,1.124e+01,1.149e+01,1.052e+01,1.223e+01,1.270e+01,1.412e+01,1.339e+01,1.421e+01,1.345e+01,1.371e+01,1.392e+01,1.483e+01,1.349e+01,1.258e+01,1.523e+01,1.560e+01,1.411e+01,1.520e+01,1.595e+01,1.396e+01,1.626e+01,1.496e+01,1.507e+01,1.414e+01,1.736e+01,1.471e+01,1.437e+01,1.481e+01,1.495e+01,1.412e+01,1.149e+01,1.457e+01
2.919e-02,2.059e-02,3.560e-01,9.228e-01,1.060e+00,1.328e+00,2.026e+00,1.926e+00,2.283e+00,1.952e+00,2.026e+00,2.481e+00,2.892e+00,2.894e+00,1.886e+00,4.071e+00,2.036e+00,4.406e+00,3.696e+00,4.781e+00,3.729e+00,5.133e+00,4.932e+00,5.939e+00,5.555e+00,5.325e+00,5.291e+00,8.082e+00,7.720e+00,7.200e+00,8.775e+00,8.126e+00,7.886e+00,6.239e+00,9.582e+00,8.224e+00,9.526e+00,9.715e+00,9.958e+00,1.052e+01,1.200e+01,8.723e+00,1.080e+01,9.386e+00,1.073e+01,1.166e+01,1.091e+01,1.085e+01,1.149e+01,1.218e+01,1.313e+01,1.285e+01,1.331e+01,1.316e+01,1.533e+01,1.341e+01,1.463e+01,1.485e+01,1.266e+01,1.570e+01,1.521e+01,1.394e+01,1.575e+01,1.749e+01,1.473e+01,1.659e+01,1.492e+01,1.546e+01,1.538e+01,1.854e+01,1.486e+01,1.485e+01,1.461e+01,1.525e+01,1.616e+01,1.151e+01,1.476e+01
6.741e-02,1.782e-02,8.666e-01,1.464e+00,1.893e+00,2.604e+00,2.372e+00,2.296e+00,2.431e+00,2.250e+00,1.844e+00,2.523e+00,2.239e+00,2.562e+00,1.790e+00,4.629e+00,2.112e+00,3.982e+00,3.433e+00,3.936e+00,2.920e+00,3.864e+00,4.311e+00,5.346e+00,5.199e+00,4.908e+00,5.529e+00,7.143e+00,7.204e+00,5.857e+00,6.865e+00,5.514e+00,7.160e+00,5.747e+00,8.117e+00,8.846e+00,8.887e+00,9.391e+00,8.876e+00,1.058e+01,1.089e+01,7.875e+00,9.463e+00,8.908e+00,1.001e+01,1.013e+01,1.104e+01,8.298e+00,1.120e+01,1.150e+01,1.345e+01,1.140e+01,1.283e+01,1.115e+01,1.347e+01,1.247e+01,1.250e+01,1.160e+01,1.243e+01,1.366e+01,1.464e+01,1.262e+01,1.461e+01,1.444e+01,1.249e+01,1.402e+01,1.271e+01,1.297e+01,1.264e+01,1.678e+01,1.375e+01,1.393e+01,1.212e+01,1.301e+01,1.348e+01,8.875e+00,1.263e+01
1.246e-02,1.331e-02,2.567e-01,3.919e-01,9.622e-01,1.517e+00,1.750e+00,1.979e+00,2.098e+00,2.949e+00,2.290e+00,2.716e+00,2.978e+00,2.628e+00,1.729e+00,4.437e+00,1.702e+00,3.771e+00,3.731e+00,4.090e+00,4.587e+00,5.064e+00,4.945e+00,5.399e+00,6.043e+00,6.013e+00,5.456e+00,6.705e+00,5.756e+00,6.917e+00,8.280e+00,7.674e+00,6.375e+00,7.228e+00,7.958e+00,7.759e+00,8.212e+00,1.003e+01,8.299e+00,9.514e+00,1.017e+01,7.903e+00,9.784e+00,8.737e+00,9.352e+00,1.170e+01,9.845e+00,9.283e+00,1.238e+01,1.135e+01,1.407e+01,1.303e+01,1.354e+01,1.269e+01,1.342e+01,1.304e+01,1.340e+01,1.222e+01,1.217e+01,1.317e+01,1.530e+01,1.392e+01,1.575e+01,1.507e+01,1.552e+01,1.495e+01,1.473e+01,1.404e+01,1.445e+01,1.811e+01,1.574e+01,1.317e+01,1.523e+01,1.567e+01,1.409e+01,1.204e+01,1.462e+01
4.429e-02,7.280e-02,1.067e+00,2.064e+00,2.401e+00,2.720e+00,3.480e+00,2.994e+00,3.249e+00,2.906e+00,2.695e+00,4.015e+00,3.664e+00,3.287e+00,2.634e+00,5.972e+00,3.195e+00,5.674e+00,5.164e+00,5.273e+00,5.319e+00,6.098e+00,5.779e+00,6.914e+00,7.319e+00,6.704e+00,7.715e+00,8.771e+00,7.700e+00,9.085e+00,9.868e+00,9.153e+00,8.104e+00,7.756e+00,9.718e+00,9.540e+00,1.088e+01,1.081e+01,1.031e+01,1.197e+01,1.346e+01,1.000e+01,1.143e+01,9.909e+00,1.112e+01,1.380e+01,1.264e+01,1.277e+01,1.384e+01,1.332e+01,1.652e+01,1.511e+01,1.486e+01,1.598e+01,1.620e+01,1.579e+01,1.621e+01,1.515e+01,1.505e+01,1.710e+01,1.744e+01,1.524e+01,1.830e+01,1.885e+01,1.831e+01,1.835e+01,1.851e+01,1.853e+01,1.888e+01,2.026e+01,1.716e+01,1.612e+01,1.610e+01,2.013e+01,1.890e+01,1.379e+01,1.850e+01
5.395e-02,7.028e-02,1.003e+00,1.712e+00,1.659e+00,1.996e+00,2.739e+00,2.416e+00,2.768e+00,2.127e+00,2.120e+00,3.365e+00,3.489e+00,3.148e+00,2.183e+00,4.659e+00,2.833e+00,4.475e+00,3.833e+00,4.200e+00,4.972e+00,4.988e+00,4.939e+00,6.052e+00,6.494e+00,6.444e+00,6.524e+00,7.190e+00,6.867e+00,6.881e+00,8.980e+00,8.149e+00,7.508e+00,6.821e+00,9.692e+00,8.758e+00,9.655e+00,1.079e+01,9.670e+00,1.181e+01,1.268e+01,1.026e+01,1.249e+01,1.146e+01,1.147e+01,1.308e+01,1.238e+01,1.164e+01,1.322e+01,1.353e+01,1.472e+01,1.491e+01,1.535e+01,1.443e+01,1.428e+01,1.481e+01,1.605e+01,1.351e+01,1.435e+01,1.664e+01,1.803e+01,1.469e+01,1.560e+01,1.746e+01,1.739e+01,1.866e+01,1.560e+01,1.771e+01,1.665e+01,1.999e+01,1.714e+01,1.664e+01,1.528e+01,1.765e+01,1.737e+01,1.389e+01,1.741e+01
3.786e-02,7.803e-02,1.197e+00,2.032e+00,2.311e+00,2.380e+00,2.942e+00,3.082e+00,3.458e+00,2.892e+00,3.108e+00,3.538e+00,3.540e+00,3.199e+00,2.308e+00,4.342e+00,3.039e+00,5.043e+00,3.470e+00,4.210e+00,4.299e+00,4.780e+00,5.195e+00,6.503e+00,6.505e+00,6.034e+00,6.015e+00,6.169e+00,6.067e+00,6.284e+00,7.409e+00,6.934e+00,5.907e+00,7.059e+00,7.835e+00,7.870e+00,7.597e+00,9.869e+00,9.300e+00,1.155e+01,1.195e+01,8.389e+00,1.081e+01,1.026e+01,1.121e+01,1.191e+01,1.279e+01,1.046e+01,1.390e+01,1.278e+01,1.450e+01,1.455e+01,1.459e+01,1.382e+01,1.470e+01,1.466e+01,1.550e+01,1.384e+01,1.371e+01,1.475e+01,1.571e+01,1.413e+01,1.691e+01,1.830e+01,1.728e+01,1.814e+01,1.601e+01,1.701e+01,1.482e+01,1.939e+01,1.719e+01,1.680e+01,1.590e+01,1.837e+01,1.626e+01,1.311e+01,1.699e+01
9.236e-03,6.668e-02,6.619e-01,1.096e+00,1.321e+00,1.404e+00,2.262e+00,2.232e+00,2.040e+00,2.422e+00,2.430e+00,3.941e+00,3.974e+00,3.624e+00,2.825e+00,5.284e+00,2.976e+00,4.397e+00,3.563e+00,5.059e+00,5.197e+00,5.897e+00,6.064e+00,7.647e+00,6.903e+00,7.289e+00,6.283e+00,7.452e+00,5.815e+00,8.728e+00,8.489e+00,9.537e+00,7.698e+00,7.374e+00,9.690e+00,9.836e+00,1.035e+01,1.038e+01,9.473e+00,1.073e+01,1.266e+01,9.550e+00,1.202e+01,1.074e+01,1.136e+01,1.168e+01,1.199e+01,1.134e+01,1.313e+01,1.232e+01,1.406e+01,1.581e+01,1.453e+01,1.455e+01,1.521e+01,1.343e+01,1.593e+01,1.388e+01,1.424e+01,1.622e+01,1.760e+01,1.337e+01,1.614e+01,1.781e+01,1.797e+01,2.017e+01,1.695e+01,1.744e+01,1.730e+01,1.807e+01,1.656e+01,1.682e+01,1.694e+01,1.842e+01,1.810e+01,1.431e+01,1.768e+01
3.706e-02,1.165e-02,6.511e-01,9.853e-01,9.602e-01,1.382e+00,1.295e+00,1.890e+00,2.523e+00,2.306e+00,1.855e+00,2.548e+00,3.181e+00,2.756e+00,2.278e+00,5.183e+00,2.277e+00,4.438e+00,4.063e+00,4.026e+00,4.569e+00,4.788e+00,5.040e+00,5.813e+00,6.759e+00,7.004e+00,6.535e+00,7.023e+00,7.203e+00,7.346e+00,9.139e+00,8.407e+00,7.682e+00,7.248e+00,1.020e+01,8.541e+00,1.033e+01,1.187e+01,1.011e+01,1.113e+01,1.300e+01,9.773e+00,1.121e+01,1.075e+01,1.109e+01,1.263e+01,1.243e+01,1.157e+01,1.391e+01,1.413e+01,1.558e+01,1.482e+01,1.546e+01,1.352e+01,1.683e+01,1.583e+01,1.849e+01,1.446e+01,1.471e+01,1.704e+01,1.803e+01,1.380e+01,1.782e+01,1.925e+01,1.893e+01,2.107e+01,1.850e+01,1.827e+01,1.720e+01,2.202e+01,1.946e+01,1.824e+01,1.764e+01,1.952e+01,1.897e+01,1.550e+01,1.922e+01
4.185e-02,6.221e-02,1.098e+00,1.921e+00,1.927e+00,2.004e+00,2.417e+00,2.178e+00,2.491e+00,2.078e+00,2.030e+00,2.992e+00,2.884e+00,2.348e+00,2.275e+00,4.479e+00,2.746e+00,4.347e+00,4.420e+00,4.276e+00,4.416e+00,4.783e+00,4.995e+00,5.327e+00,6.721e+00,6.277e+00,7.065e+00,7.507e+00,6.960e+00,7.329e+00,8.550e+00,7.294e+00,6.846e+00,7.010e+00,9.077e+00,8.820e+00,9.911e+00,1.056e+01,9.349e+00,1.142e+01,1.180e+01,8.757e+00,1.029e+01,9.760e+00,1.036e+01,1.132e+01,1.086e+01,1.013e+01,1.125e+01,1.149e+01,1.309e+01,1.316e+01,1.285e+01,1.291e+01,1.319e+01,1.359e+01,1.587e+01,1.246e+01,1.261e+01,1.534e+01,1.540e+01,1.315e+01,1.548e+01,1.561e+01,1.647e+01,1.652e+01,1.486e+01,1.680e+01,1.579e+01,1.831e+01,1.607e+01,1.570e+01,1.572e+01,1.836e+01,1.739e+01,1.413e+01,1.809e+01
5.760e-02,8.139e-02,9.914e-01,1.410e+00,1.250e+00,1.478e+00,2.329e+00,2.082e+00,2.247e+00,1.532e+00,2.168e+00,2.410e+00,3.651e+00,3.062e+00,2.095e+00,4.169e+00,2.663e+00,4.885e+00,4.111e+00,4.682e+00,4.935e+00,4.656e+00,5.616e+00,6.618e+00,6.705e+00,7.214e+00,6.357e+00,5.417e+00,5.546e+00,6.156e+00,7.281e+00,8.348e+00,6.053e+00,6.827e+00,8.654e+00,8.739e+00,8.702e+00,9.401e+00,7.642e+00,1.004e+01,9.897e+00,8.003e+00,9.531e+00,8.668e+00,9.575e+00,1.039e+01,9.721e+00,8.575e+00,1.063e+01,9.895e+00,1.088e+01,1.092e+01,1.170e+01,1.142e+01,1.208e+01,1.223e+01,1.210e+01,1.178e+01,1.095e+01,1.334e+01,1.397e+01,1.361e+01,1.323e+01,1.511e+01,1.456e+01,1.575e+01,1.468e+01,1.513e+01,1.550e+01,1.715e+01,1.470e+01,1.512e+01,1.666e+01,1.691e+01,1.497e+01,1.225e+01,1.503e+01
6.631e-03,5.885e-02,6.228e-01,9.793e-01,1.465e+00,1.510e+00,1.981e+00,2.069e+00,1.787e+00,1.505e+00,1.840e+00,2.124e+00,2.473e+00,2.061e+00,1.690e+00,4.089e+00,2.236e+00,4.296e+00,3.501e+00,3.421e+00,3.284e+00,3.408e+00,4.199e+00,5.076e+00,4.869e+00,5.315e+00,5.340e+00,5.650e+00,5.336e+00,6.556e+00,7.111e+00,6.461e+00,5.620e+00,6.543e+00,7.084e+00,7.449e+00,8.966e+00,9.493e+00,9.170e+00,9.885e+00,1.212e+01,8.185e+00,1.082e+01,9.021e+00,1.028e+01,1.087e+01,1.171e+01,1.085e+01,1.182e+01,1.220e+01,1.355e+01,1.350e+01,1.247e+01,1.255e+01,1.481e+01,1.340e+01,1.376e+01,1.330e+01,1.412e+01,1.632e+01,1.598e+01,1.390e+01,1.553e+01,1.772e+01,1.662e+01,1.724e+01,1.681e+01,1.760e+01,1.645e+01,2.117e+01,1.801e+01,1.795e+01,1.731e+01,1.849e+01,1.694e+01,1.370e+01,1.794e+01
3.972e-02,8.004e-02,9.709e-01,1.345e+00,1.410e+00,1.585e+00,2.159e+00,2.424e+00,2.824e+00,2.463e+00,3.037e+00,2.681e+00,4.080e+00,3.152e+00,2.207e+00,4.716e+00,2.676e+00,5.411e+00,4.247e+00,3.913e+00,4.931e+00,4.439e+00,5.202e+00,6.376e+00,7.012e+00,6.880e+00,6.325e+00,6.262e+00,6.921e+00,6.722e+00,7.934e+00,7.105e+00,6.572e+00,7.578e+00,9.425e+00,8.483e+00,1.004e+01,1.153e+01,1.017e+01,1.156e+01,1.227e+01,8.178e+00,1.057e+01,9.764e+00,1.048e+01,1.128e+01,1.256e+01,1.036e+01,1.262e+01,1.202e+01,1.410e+01,1.344e+01,1.306e+01,1.200e+01,1.393e+01,1.437e+01,1.575e+01,1.301e+01,1.254e+01,1.515e+01,1.591e+01,1.306e+01,1.520e+01,1.759e+01,1.594e+01,1.816e+01,1.769e+01,1.776e+01,1.735e+01,2.098e+01,1.792e+01,1.857e+01,1.811e+01,1.987e+01,1.931e+01,1.494e+01,1.896e+01
5.745e-02,1.877e-02,4.329e-01,7.746e-01,8.240e-01,1.417e+00,1.581e+00,1.499e+00,1.933e+00,2.059e+00,2.329e+00,2.848e+00,3.585e+00,3.599e+00,1.867e+00,5.013e+00,2.142e+00,3.533e+00,3.017e+00,4.254e+00,3.629e+00,4.896e+00,4.591e+00,6.153e+00,5.755e+00,5.755e+00,5.374e+00,6.624e+00,5.555e+00,6.493e+00,7.052e+00,6.970e+00,6.587e+00,6.422e+00,8.720e+00,7.729e+00,8.381e+00,9.579e+00,9.149e+00,9.344e+00,1.088e+01,8.121e+00,1.015e+01,9.245e+00,9.157e+00,1.107e+01,1.126e+01,1.022e+01,1.168e+01,1.147e+01,1.383e+01,1.356e+01,1.228e+01,1.260e+01,1.303e+01,1.288e+01,1.428e+01,1.256e+01,1.266e+01,1.341e+01,1.548e+01,1.322e+01,1.653e+01,1.624e+01,1.553e+01,1.695e+01,1.511e+01,1.614e+01,1.745e+01,1.883e+01,1.658e+01,1.721e+01,1.726e+01,1.819e+01,1.742e+01,1.474e+01,1.745e+01
5.626e-02,7.306e-02,1.091e+00,1.687e+00,1.641e+00,1.926e+00,2.491e+00,2.573e+00,2.817e+00,2.426e+00,2.859e+00,3.583e+00,4.235e+00,3.743e+00,2.643e+00,5.574e+00,3.070e+00,4.683e+00,3.332e+00,3.282e+00,4.916e+00,4.609e+00,5.353e+00,6.228e+00,6.886e+00,7.394e+00,6.256e+00,5.920e+00,6.239e+00,6.831e+00,7.437e+00,7.469e+00,6.817e+00,6.786e+00,8.879e+00,7.922e+00,8.861e+00,9.993e+00,8.880e+00,1.012e+01,1.093e+01,8.734e+00,8.847e+00,8.944e+00,8.716e+00,1.086e+01,1.145e+01,9.875e+00,1.115e+01,1.181e+01,1.181e+01,1.265e+01,1.370e+01,1.219e+01,1.316e+01,1.322e+01,1.383e+01,1.215e+01,1.048e+01,1.413e+01,1.430e+01,1.101e+01,1.421e+01,1.510e+01,1.598e+01,1.850e+01,1.563e+01,1.585e+01,1.661e+01,1.866e+01,1.644e+01,1.741e+01,1.664e+01,1.923e+01,1.794e+01,1.355e+01,1.773e+01
9.987e-03,2.843e-02,4.590e-01,9.767e-01,1.455e+00,1.670e+00,2.302e+00,2.317e+00,2.390e+00,2.815e+00,2.181e+00,3.401e+00,3.690e+00,3.272e+00,2.839e+00,5.068e+00,2.662e+00,5.203e+00,4.852e+00,4.379e+00,5.289e+00,4.763e+00,5.390e+00,6.885e+00,6.307e+00,6.401e+00,6.476e+00,7.440e+00,6.464e+00,7.655e+00,9.117e+00,9.206e+00,7.735e+00,8.890e+00,9.862e+00,9.064e+00,9.625e+00,1.193e+01,1.015e+01,1.263e+01,1.345e+01,9.253e+00,1.193e+01,1.202e+01,1.177e+01,1.346e+01,1.254e+01,1.101e+01,1.539e+01,1.359e+01,1.476e+01,1.519e+01,1.648e+01,1.529e+01,1.708e+01,1.503e+01,1.564e+01,1.496e+01,1.584e+01,1.607e+01,1.921e+01,1.653e+01,1.759e+01,2.002e+01,1.732e+01,2.133e+01,1.831e+01,1.869e+01,1.775e+01,2.159e+01,1.758e+01,1.927e+01,2.036e+01,2.234e+01,1.979e+01,1.712e+01,2.015e+01
4.754e-02,2.914e-02,7.617e-01,1.576e+00,1.750e+00,2.155e+00,2.574e+00,2.396e+00,2.713e+00,2.425e+00,2.103e+00,3.146e+00,2.633e+00,2.791e+00,2.042e+00,4.324e+00,2.406e+00,4.128e+00,3.611e+00,4.499e+00,4.495e+00,5.509e+00,5.396e+00,6.205e+00,6.885e+00,6.404e+00,6.869e+00,8.106e+00,6.763e+00,6.785e+00,8.788e+00,7.250e+00,7.878e+00,6.573e+00,8.777e+00,8.884e+00,9.509e+00,1.021e+01,1.095e+01,1.211e+01,1.312e+01,1.014e+01,1.219e+01,1.107e+01,1.246e+01,1.276e+01,1.365e+01,1.127e+01,1.331e+01,1.329e+01,1.574e+01,1.441e+01,1.555e+01,1.471e+01,1.540e+01,1.451e+01,1.473e+01,1.450e+01,1.461e+01,1.598e+01,1.735e+01,1.567e+01,1.763e+01,1.952e+01,1.774e+01,1.984e+01,1.746e+01,1.813e+01,1.698e+01,2.177e+01,1.999e+01,1.853e+01,1.777e+01,2.048e+01,2.022e+01,1.599e+01,1.972e+01
3.769e-02,8.424e-03,4.326e-01,1.168e+00,1.285e+00,1.523e+00,1.922e+00,1.932e+00,2.402e+00,2.283e+00,2.484e+00,2.876e+00,3.331e+00,3.258e+00,2.382e+00,5.328e+00,2.753e+00,4.892e+00,4.532e+00,4.796e+00,4.627e+00,6.153e+00,6.248e+00,6.557e+00,7.165e+00,6.887e+00,6.890e+00,7.154e+00,7.033e+00,7.801e+00,8.809e+00,8.981e+00,6.986e+00,7.006e+00,9.049e+00,9.263e+00,9.664e+00,1.147e+01,9.846e+00,1.075e+01,1.310e+01,8.835e+00,1.167e+01,9.909e+00,1.142e+01,1.369e+01,1.264e+01,1.151e+01,1.388e+01,1.339e+01,1.714e+01,1.487e+01,1.538e+01,1.393e+01,1.642e+01,1.570e+01,1.564e+01,1.484e+01,1.455e+01,1.729e+01,1.708e+01,1.480e+01,1.908e+01,1.917e+01,1.724e+01,1.970e+01,1.838e+01,1.825e+01,1.963e+01,2.255e+01,1.881e+01,1.857e+01,1.977e+01,2.127e+01,2.001e+01,1.472e+01,1.977e+01
1.473e-02,2.758e-02,4.732e-01,1.126e+00,1.530e+00,1.665e+00,2.311e+00,2.324e+00,2.092e+00,1.944e+00,1.846e+00,3.180e+00,2.446e+00,2.819e+00,1.986e+00,4.439e+00,2.976e+00,4.251e+00,3.706e+00,3.950e+00,4.451e+00,5.832e+00,7.057e+00,6.271e+00,6.612e+00,7.285e+00,6.609e+00,7.373e+00,7.819e+00,7.743e+00,8.289e+00,8.540e+00,8.049e+00,8.199e+00,1.060e+01,1.057e+01,1.062e+01,1.033e+01,1.001e+01,1.233e+01,1.178e+01,8.917e+00,9.933e+00,1.020e+01,1.189e+01,1.186e+01,1.237e+01,1.060e+01,1.256e+01,1.253e+01,1.402e+01,1.369e+01,1.438e+01,1.367e+01,1.521e+01,1.378e+01,1.587e+01,1.430e+01,1.337e+01,1.650e+01,1.689e+01,1.478e+01,1.640e+01,1.917e+01,1.554e+01,2.001e+01,1.649e+01,1.812e+01,1.777e+01,2.077e+01,1.713e+01,1.682e+01,1.784e+01,2.083e+01,1.971e+01,1.490e+01,1.954e+01
