3.953e-01,2.342e-01,9.269e-01,4.515e-02,7.007e-01,5.454e-01,8.739e-01,1.952e-02,5.938e-02,3.040e-01,5.628e-01,9.883e-01,4.696e-01,8.497e-01,4.592e-01,6.376e-01,5.025e-01,6.768e-01,7.881e-01,5.776e-01,5.489e-01,6.576e-02,8.642e-01,7.633e-02,4.894e-01,9.769e-01,2.445e-02,3.155e-01,9.447e-01,8.401e-01,3.424e-02,5.555e-01,3.492e-01,5.495e-01,3.205e-01,2.977e-01,8.044e-01,5.263e-01,4.006e-01,5.967e-01,1.300e-01,9.133e-01,1.594e-01,2.958e-01,6.632e-01,3.865e-03,8.148e-01,8.511e-01,6.688e-01,8.778e-01,5.750e-01,9.055e-01,4.320e-01,2.242e-03,6.312e-01,7.154e-01,2.358e-01,1.972e-01,8.750e-01,5.952e-01,2.907e-01,4.839e-02,4.646e-01,5.981e-03,5.901e-01,1.451e-01,4.695e-01,5.629e-01,6.268e-01,5.685e-01,7.594e-01,9.482e-01,8.295e-01,5.684e-01,6.292e-01
5.517e-03,2.942e-01,1.443e-01,6.075e-01,6.130e-01,6.562e-01,8.105e-01,3.067e-01,5.891e-01,5.377e-02,7.610e-02,1.619e-01,6.749e-01,3.660e-01,4.203e-01,6.630e-01,8.553e-01,3.372e-01,9.322e-01,3.239e-02,2.842e-01,9.177e-01,5.076e-02,8.252e-01,5.319e-01,2.268e-01,7.870e-01,6.166e-01,4.098e-01,5.711e-01,8.838e-01,9.123e-01,4.399e-01,2.648e-01,9.366e-01,1.611e-01,3.392e-01,6.195e-01,1.894e-01,4.961e-01,9.187e-01,3.363e-01,4.398e-01,2.279e-01,1.405e-01,7.668e-01,9.035e-01,2.180e-01,7.469e-01,7.360e-01,3.612e-01,3.296e-01,3.211e-01,5.497e-01,2.941e-01,6.342e-01,5.537e-01,7.781e-02,6.004e-01,5.540e-01,2.598e-01,5.862e-01,9.440e-01,7.217e-03,2.527e-01,9.797e-02,9.178e-01,5.442e-01,5.828e-01,2.749e-01,1.230e-02,7.938e-01,1.355e-01,2.041e-01,9.143e-01
3.423e-01,2.401e-01,1.000e+00,1.231e-01,1.551e+00,1.307e+00,9.068e-01,6.835e-01,4.790e-01,4.050e-01,1.044e+00,1.570e+00,1.005e+00,1.412e+00,1.433e+00,8.506e-01,8.113e-01,6.981e-01,1.228e+00,6.786e-01,1.027e+00,4.613e-01,1.032e+00,3.522e-01,1.082e+00,1.359e+00,1.079e+00,6.803e-01,1.681e+00,1.297e+00,2.311e-01,1.460e+00,5.400e-01,9.938e-01,1.074e+00,7.416e-01,8.497e-01,7.508e-01,1.070e+00,1.525e+00,9.699e-01,1.426e+00,1.978e-01,8.576e-01,1.531e+00,3.238e-01,1.660e+00,1.496e+00,1.469e+00,1.312e+00,6.884e-01,1.230e+00,1.089e+00,3.964e-01,1.511e+00,1.090e+00,8.548e-01,1.087e+00,1.292e+00,1.024e+00,3.757e-01,3.309e-01,1.394e+00,1.178e-01,1.136e+00,4.576e-01,8.090e-01,9.236e-01,1.264e+00,1.337e+00,1.513e+00,1.075e+00,8.613e-01,7.957e-01,1.550e+00
3.792e-01,3.722e-01,1.115e+00,1.170e+00,1.901e+00,2.058e+00,1.919e+00,1.142e+00,9.395e-01,1.411e+00,1.132e+00,2.056e+00,1.839e+00,1.998e+00,2.014e+00,1.967e+00,1.909e+00,9.665e-01,1.609e+00,1.252e+00,1.876e+00,1.603e+00,1.620e+00,1.002e+00,1.869e+00,1.852e+00,2.212e+00,1.327e+00,2.751e+00,2.136e+00,1.456e+00,2.529e+00,1.217e+00,1.349e+00,1.812e+00,1.171e+00,1.823e+00,1.879e+00,1.538e+00,2.185e+00,1.379e+00,2.546e+00,9.621e-01,9.917e-01,2.463e+00,7.089e-01,2.945e+00,1.892e+00,2.187e+00,2.581e+00,1.042e+00,2.207e+00,1.186e+00,1.505e+00,2.187e+00,2.053e+00,1.389e+00,1.775e+00,2.437e+00,1.842e+00,1.295e+00,8.384e-01,1.848e+00,8.067e-01,2.173e+00,9.298e-01,1.416e+00,1.201e+00,2.197e+00,1.896e+00,2.190e+00,1.850e+00,1.468e+00,9.099e-01,2.661e+00
1.791e-01,2.417e-01,5.830e-01,9.315e-01,1.951e+00,1.709e+00,2.106e+00,1.512e+00,1.513e+00,1.934e+00,1.232e+00,2.100e+00,2.231e+00,2.207e+00,2.006e+00,1.691e+00,1.773e+00,1.344e+00,1.269e+00,1.121e+00,2.219e+00,1.993e+00,1.356e+00,1.638e+00,1.941e+00,2.091e+00,2.619e+00,1.243e+00,2.752e+00,1.971e+00,1.477e+00,1.998e+00,9.389e-01,9.421e-01,1.341e+00,1.441e+00,1.683e+00,2.130e+00,1.153e+00,1.776e+00,1.877e+00,1.737e+00,1.181e+00,6.736e-01,2.075e+00,7.601e-01,2.593e+00,1.223e+00,1.746e+00,2.445e+00,7.337e-01,1.860e+00,8.935e-01,1.868e+00,1.925e+00,1.740e+00,1.022e+00,1.978e+00,2.266e+00,1.995e+00,1.173e+00,1.290e+00,2.073e+00,1.072e+00,1.884e+00,1.020e+00,1.424e+00,1.061e+00,2.031e+00,1.278e+00,2.358e+00,2.133e+00,1.760e+00,1.139e+00,2.536e+00
1.350e-01,1.791e-01,4.234e-01,3.239e-01,9.750e-01,1.739e+00,1.101e+00,1.346e+00,1.300e+00,1.554e+00,1.212e+00,1.820e+00,1.342e+00,1.829e+00,1.134e+00,9.687e-01,1.356e+00,1.024e+00,1.435e+00,1.345e+00,1.219e+00,1.260e+00,1.200e+00,1.077e+00,1.087e+00,1.087e+00,1.054e+00,1.363e+00,1.851e+00,8.971e-01,9.432e-01,1.117e+00,1.093e+00,6.867e-01,1.623e+00,9.090e-01,1.065e+00,1.400e+00,5.883e-01,1.693e+00,8.941e-01,8.728e-01,8.311e-01,1.221e+00,1.090e+00,1.372e+00,1.292e+00,9.019e-01,9.412e-01,1.158e+00,9.494e-01,8.975e-01,1.262e+00,1.040e+00,1.564e+00,1.137e+00,1.072e+00,1.036e+00,1.473e+00,9.975e-01,4.093e-01,9.696e-01,1.824e+00,1.245e+00,1.176e+00,1.003e+00,1.683e+00,7.231e-01,1.564e+00,1.143e+00,9.963e-01,1.223e+00,1.676e+00,1.083e+00,1.322e+00
1.164e-01,3.111e-01,5.580e-01,1.113e+00,2.085e+00,2.600e+00,2.117e+00,2.329e+00,2.221e+00,2.863e+00,1.978e+00,3.196e+00,2.650e+00,3.235e+00,2.622e+00,2.248e+00,3.091e+00,1.695e+00,2.585e+00,2.247e+00,2.919e+00,2.473e+00,2.084e+00,2.155e+00,2.256e+00,2.611e+00,3.076e+00,1.999e+00,3.208e+00,2.279e+00,2.488e+00,2.694e+00,1.544e+00,1.496e+00,2.742e+00,2.556e+00,1.884e+00,2.706e+00,1.560e+00,3.155e+00,2.990e+00,2.677e+00,1.904e+00,2.153e+00,2.587e+00,2.672e+00,3.744e+00,2.400e+00,2.594e+00,2.864e+00,1.336e+00,1.855e+00,2.447e+00,2.946e+00,2.754e+00,2.724e+00,2.039e+00,2.445e+00,2.910e+00,2.557e+00,1.164e+00,2.048e+00,3.726e+00,1.897e+00,2.800e+00,1.656e+00,2.527e+00,1.666e+00,3.001e+00,2.298e+00,2.971e+00,2.411e+00,2.970e+00,2.116e+00,3.075e+00
3.536e-01,3.677e-01,1.066e+00,4.297e-01,2.320e+00,2.354e+00,2.141e+00,2.493e+00,2.841e+00,2.581e+00,3.013e+00,4.040e+00,3.303e+00,3.742e+00,3.459e+00,2.023e+00,2.942e+00,2.500e+00,2.916e+00,2.413e+00,3.006e+00,2.152e+00,2.980e+00,1.967e+00,2.397e+00,3.709e+00,3.347e+00,2.732e+00,3.433e+00,2.384e+00,2.621e+00,3.140e+00,2.158e+00,2.537e+00,2.755e+00,3.143e+00,2.227e+00,3.172e+00,2.117e+00,3.565e+00,3.178e+00,3.325e+00,2.184e+00,2.220e+00,3.320e+00,3.054e+00,3.694e+00,2.875e+00,2.855e+00,3.519e+00,2.126e+00,2.161e+00,2.768e+00,2.862e+00,3.118e+00,2.778e+00,2.422e+00,2.200e+00,3.156e+00,3.330e+00,8.697e-01,1.863e+00,4.423e+00,1.945e+00,3.071e+00,1.691e+00,2.573e+00,2.639e+00,3.670e+00,2.715e+00,4.022e+00,2.704e+00,3.960e+00,2.796e+00,3.302e+00
2.790e-01,3.148e-01,8.333e-01,6.764e-01,1.648e+00,1.926e+00,1.686e+00,1.538e+00,2.575e+00,2.141e+00,2.416e+00,2.854e+00,2.782e+00,2.338e+00,2.678e+00,2.316e+00,2.269e+00,1.759e+00,2.205e+00,2.382e+00,2.764e+00,1.853e+00,2.496e+00,2.275e+00,2.321e+00,2.672e+00,2.683e+00,2.823e+00,3.076e+00,1.713e+00,1.990e+00,2.917e+00,1.888e+00,2.461e+00,2.506e+00,1.825e+00,2.351e+00,2.108e+00,1.509e+00,2.650e+00,2.037e+00,2.808e+00,1.280e+00,1.951e+00,2.297e+00,1.877e+00,2.797e+00,1.717e+00,2.801e+00,3.194e+00,1.483e+00,2.169e+00,2.455e+00,2.083e+00,2.214e+00,2.118e+00,1.914e+00,1.889e+00,2.751e+00,2.814e+00,1.276e+00,1.431e+00,2.660e+00,1.977e+00,2.090e+00,1.656e+00,1.856e+00,2.092e+00,3.252e+00,1.792e+00,2.975e+00,2.600e+00,2.115e+00,1.691e+00,3.154e+00
1.324e-01,2.662e-01,4.742e-01,4.941e-01,1.586e+00,1.454e+00,1.575e+00,1.439e+00,2.579e+00,1.921e+00,2.556e+00,3.238e+00,3.130e+00,2.141e+00,3.278e+00,2.448e+00,2.497e+00,1.962e+00,2.718e+00,2.624e+00,2.804e+00,2.777e+00,2.058e+00,3.326e+00,2.343e+00,2.969e+00,2.870e+00,3.188e+00,3.114e+00,2.305e+00,2.074e+00,3.323e+00,1.518e+00,2.912e+00,2.119e+00,1.689e+00,2.875e+00,2.580e+00,1.674e+00,2.090e+00,2.344e+00,2.119e+00,1.446e+00,1.533e+00,2.132e+00,1.658e+00,2.944e+00,1.314e+00,2.797e+00,2.804e+00,1.294e+00,2.503e+00,2.832e+00,1.972e+00,2.117e+00,2.033e+00,2.295e+00,2.406e+00,2.354e+00,3.132e+00,1.868e+00,2.096e+00,3.096e+00,2.078e+00,1.989e+00,1.644e+00,1.902e+00,2.615e+00,3.220e+00,2.147e+00,3.246e+00,2.781e+00,2.050e+00,1.735e+00,3.371e+00
3.535e-01,4.108e-01,1.093e+00,9.211e-01,2.291e+00,2.145e+00,2.141e+00,1.529e+00,1.641e+00,1.833e+00,2.337e+00,3.852e+00,3.249e+00,3.486e+00,3.186e+00,2.561e+00,3.029e+00,1.733e+00,2.742e+00,1.882e+00,2.959e+00,2.402e+00,2.332e+00,2.650e+00,2.244e+00,2.732e+00,3.645e+00,2.089e+00,3.784e+00,2.566e+00,2.105e+00,2.957e+00,2.223e+00,2.268e+00,2.749e+00,2.774e+00,3.173e+00,2.535e+00,2.366e+00,2.951e+00,3.234e+00,3.177e+00,1.891e+00,1.640e+00,2.871e+00,2.203e+00,4.100e+00,2.474e+00,3.254e+00,3.417e+00,1.375e+00,2.589e+00,2.554e+00,2.214e+00,3.236e+00,2.947e+00,2.354e+00,2.698e+00,3.464e+00,2.881e+00,2.115e+00,1.759e+00,3.533e+00,1.261e+00,2.946e+00,2.018e+00,2.170e+00,2.536e+00,2.840e+00,2.956e+00,3.831e+00,2.845e+00,3.049e+00,2.568e+00,3.371e+00
2.083e-01,1.718e-01,5.377e-01,4.452e-01,1.399e+00,1.275e+00,1.790e+00,1.462e+00,2.364e+00,2.816e+00,2.739e+00,4.673e+00,3.726e+00,3.937e+00,3.677e+00,2.926e+00,3.845e+00,2.764e+00,2.917e+00,3.343e+00,4.071e+00,2.608e+00,2.971e+00,3.460e+00,2.246e+00,3.576e+00,3.754e+00,2.618e+00,4.351e+00,2.637e+00,3.072e+00,3.113e+00,1.960e+00,3.374e+00,2.346e+00,2.986e+00,4.132e+00,3.466e+00,2.211e+00,2.550e+00,3.261e+00,3.608e+00,2.270e+00,2.788e+00,2.182e+00,2.556e+00,3.345e+00,2.528e+00,3.419e+00,3.227e+00,1.543e+00,2.943e+00,2.947e+00,3.013e+00,3.043e+00,2.961e+00,2.570e+00,2.772e+00,3.718e+00,3.793e+00,2.391e+00,2.792e+00,3.795e+00,3.037e+00,2.983e+00,2.851e+00,2.539e+00,2.798e+00,3.677e+00,2.677e+00,4.475e+00,3.190e+00,4.178e+00,3.624e+00,3.311e+00
2.338e-01,1.623e-01,5.880e-01,4.352e-01,1.389e+00,1.141e+00,1.695e+00,1.464e+00,2.398e+00,2.182e+00,2.859e+00,4.140e+00,4.098e+00,3.413e+00,3.988e+00,3.072e+00,3.189e+00,2.911e+00,2.949e+00,3.254e+00,3.519e+00,3.156e+00,3.666e+00,3.538e+00,2.527e+00,3.287e+00,4.330e+00,3.647e+00,3.912e+00,2.592e+00,2.737e+00,3.066e+00,2.753e+00,3.340e+00,2.524e+00,3.759e+00,4.718e+00,4.010e+00,2.659e+00,2.820e+00,3.577e+00,3.648e+00,2.622e+00,2.507e+00,2.818e+00,2.150e+00,3.485e+00,2.762e+00,2.952e+00,4.401e+00,2.391e+00,3.751e+00,3.239e+00,2.974e+00,3.554e+00,3.401e+00,3.122e+00,2.934e+00,3.879e+00,3.836e+00,2.577e+00,2.164e+00,4.146e+00,3.115e+00,3.581e+00,2.843e+00,2.151e+00,3.136e+00,3.797e+00,2.955e+00,4.782e+00,3.416e+00,3.920e+00,3.037e+00,3.599e+00
1.825e-01,1.800e-01,6.284e-01,5.206e-01,1.678e+00,1.966e+00,1.466e+00,2.216e+00,2.714e+00,2.559e+00,3.167e+00,4.929e+00,4.155e+00,4.897e+00,5.164e+00,3.375e+00,4.999e+00,3.284e+00,4.801e+00,4.631e+00,4.498e+00,3.410e+00,4.834e+00,3.635e+00,2.831e+00,4.014e+00,5.043e+00,4.443e+00,5.029e+00,3.332e+00,3.759e+00,4.771e+00,3.150e+00,4.455e+00,3.933e+00,4.591e+00,5.480e+00,4.854e+00,3.976e+00,4.524e+00,4.465e+00,5.581e+00,3.350e+00,3.959e+00,3.805e+00,3.526e+00,4.491e+00,4.885e+00,3.955e+00,4.580e+00,3.005e+00,4.209e+00,4.259e+00,4.417e+00,4.662e+00,3.894e+00,4.831e+00,4.124e+00,4.901e+00,4.491e+00,2.420e+00,3.512e+00,5.942e+00,4.578e+00,4.412e+00,3.374e+00,3.578e+00,3.562e+00,5.298e+00,4.904e+00,5.662e+00,3.214e+00,5.124e+00,4.453e+00,4.208e+00
2.685e-02,9.346e-02,1.855e-01,4.114e-01,1.312e+00,1.618e+00,1.358e+00,2.064e+00,2.406e+00,2.289e+00,2.734e+00,4.082e+00,3.832e+00,3.610e+00,4.787e+00,3.550e+00,3.717e+00,2.888e+00,4.066e+00,3.915e+00,4.009e+00,4.132e+00,3.692e+00,4.221e+00,2.760e+00,3.680e+00,5.099e+00,4.055e+00,4.243e+00,2.550e+00,3.730e+00,3.136e+00,3.278e+00,3.473e+00,3.046e+00,3.982e+00,4.123e+00,4.684e+00,2.657e+00,3.837e+00,4.640e+00,3.309e+00,3.508e+00,2.779e+00,3.484e+00,3.339e+00,4.104e+00,3.514e+00,2.936e+00,3.859e+00,3.001e+00,3.232e+00,3.935e+00,3.992e+00,4.159e+00,3.667e+00,4.061e+00,3.828e+00,3.747e+00,3.862e+00,3.081e+00,2.545e+00,5.356e+00,3.893e+00,4.237e+00,3.248e+00,3.224e+00,3.444e+00,3.650e+00,4.096e+00,5.051e+00,3.408e+00,4.270e+00,3.105e+00,3.918e+00
1.420e-01,1.824e-01,3.937e-01,4.962e-01,1.271e+00,1.768e+00,1.770e+00,1.977e+00,2.336e+00,2.572e+00,2.272e+00,3.497e+00,3.144e+00,3.436e+00,3.425e+00,3.687e+00,3.647e+00,3.373e+00,3.860e+00,3.392e+00,3.801e+00,3.524e+00,3.542e+00,3.849e+00,2.781e+00,3.675e+00,4.171e+00,3.740e+00,4.186e+00,3.236e+00,3.211e+00,2.688e+00,3.262e+00,3.056e+00,2.744e+00,3.469e+00,4.415e+00,4.785e+00,2.561e+00,3.543e+00,3.436e+00,3.592e+00,2.797e+00,3.190e+00,3.139e+00,2.838e+00,3.696e+00,3.072e+00,2.798e+00,3.515e+00,2.696e+00,3.362e+00,3.093e+00,3.760e+00,4.129e+00,2.999e+00,3.626e+00,2.861e+00,3.592e+00,4.064e+00,2.850e+00,2.419e+00,4.716e+00,4.277e+00,4.192e+00,2.470e+00,3.747e+00,2.692e+00,4.081e+00,3.820e+00,4.545e+00,3.610e+00,4.595e+00,3.536e+00,3.887e+00
1.877e-01,2.609e-01,6.361e-01,1.149e+00,1.512e+00,1.727e+00,1.672e+00,1.524e+00,2.447e+00,2.600e+00,2.798e+00,4.040e+00,3.689e+00,3.299e+00,4.757e+00,5.051e+00,5.566e+00,3.449e+00,5.578e+00,5.515e+00,5.519e+00,4.201e+00,4.454e+00,5.580e+00,4.400e+00,4.950e+00,6.088e+00,5.236e+00,5.695e+00,4.962e+00,4.287e+00,5.145e+00,4.145e+00,4.723e+00,3.864e+00,4.809e+00,5.913e+00,5.531e+00,3.750e+00,5.206e+00,4.649e+00,6.450e+00,3.535e+00,4.356e+00,4.862e+00,3.161e+00,6.315e+00,4.753e+00,5.567e+00,5.652e+00,3.569e+00,4.696e+00,5.156e+00,4.693e+00,5.170e+00,4.164e+00,4.794e+00,4.898e+00,4.566e+00,5.568e+00,4.750e+00,3.906e+00,5.242e+00,5.494e+00,5.842e+00,3.627e+00,3.867e+00,4.755e+00,5.453e+00,5.929e+00,6.672e+00,4.287e+00,4.190e+00,4.215e+00,5.321e+00
2.401e-01,1.796e-01,7.364e-01,1.241e-01,1.431e+00,1.511e+00,9.750e-01,1.360e+00,1.937e+00,1.514e+00,2.435e+00,3.273e+00,2.637e+00,2.699e+00,4.157e+00,3.745e+00,3.413e+00,2.967e+00,4.803e+00,3.868e+00,4.103e+00,3.092e+00,4.461e+00,4.213e+00,3.365e+00,4.662e+00,4.951e+00,4.750e+00,4.419e+00,3.498e+00,3.644e+00,4.070e+00,3.006e+00,4.467e+00,2.900e+00,3.496e+00,4.845e+00,4.583e+00,3.457e+00,4.191e+00,3.746e+00,4.952e+00,2.505e+00,3.789e+00,4.448e+00,2.795e+00,4.237e+00,4.093e+00,4.299e+00,4.292e+00,3.199e+00,3.666e+00,4.101e+00,3.209e+00,4.929e+00,3.507e+00,4.439e+00,4.113e+00,3.223e+00,4.575e+00,3.945e+00,3.014e+00,4.944e+00,4.492e+00,4.574e+00,2.940e+00,3.777e+00,3.680e+00,4.902e+00,5.227e+00,5.203e+00,3.831e+00,4.160e+00,3.349e+00,4.961e+00
2.846e-01,3.825e-01,8.856e-01,5.070e-01,2.141e+00,2.546e+00,2.180e+00,2.364e+00,2.716e+00,2.655e+00,3.375e+00,5.821e+00,4.457e+00,5.052e+00,5.427e+00,4.414e+00,5.562e+00,4.084e+00,6.456e+00,4.962e+00,5.260e+00,5.131e+00,4.879e+00,5.697e+00,4.162e+00,5.159e+00,6.720e+00,5.192e+00,6.884e+00,5.713e+00,4.802e+00,5.689e+00,4.091e+00,5.020e+00,4.848e+00,4.378e+00,6.148e+00,6.168e+00,4.558e+00,5.143e+00,5.626e+00,5.564e+00,3.652e+00,4.926e+00,5.158e+00,4.394e+00,5.716e+00,4.779e+00,5.522e+00,4.235e+00,3.799e+00,4.232e+00,4.813e+00,5.005e+00,6.349e+00,4.444e+00,5.596e+00,5.061e+00,5.344e+00,5.529e+00,4.668e+00,4.979e+00,7.440e+00,5.475e+00,5.987e+00,3.823e+00,5.746e+00,5.267e+00,6.059e+00,6.276e+00,6.536e+00,4.954e+00,5.936e+00,5.340e+00,5.769e+00
2.766e-01,2.708e-01,8.711e-01,3.461e-01,1.663e+00,2.097e+00,1.316e+00,1.784e+00,1.875e+00,1.847e+00,2.882e+00,4.778e+00,3.428e+00,3.835e+00,4.969e+00,4.209e+00,4.425e+00,3.208e+00,5.327e+00,4.504e+00,4.988e+00,4.166e+00,4.894e+00,5.237e+00,3.554e+00,4.749e+00,5.347e+00,5.298e+00,5.935e+00,4.752e+00,3.952e+00,4.549e+00,4.394e+00,4.723e+00,4.384e+00,3.797e+00,5.185e+00,5.119e+00,4.145e+00,4.540e+00,4.372e+00,5.346e+00,3.754e+00,4.354e+00,4.954e+00,3.684e+00,4.965e+00,5.347e+00,5.198e+00,3.926e+00,4.074e+00,4.595e+00,4.814e+00,4.343e+00,5.883e+00,3.979e+00,5.643e+00,4.136e+00,4.465e+00,5.039e+00,4.918e+00,3.539e+00,6.736e+00,5.065e+00,5.366e+00,3.887e+00,4.847e+00,4.434e+00,5.431e+00,6.131e+00,6.563e+00,3.950e+00,5.368e+00,4.604e+00,5.087e+00
1.155e-01,1.201e-01,4.014e-01,8.016e-01,1.118e+00,2.117e+00,1.359e+00,2.211e+00,2.372e+00,2.592e+00,2.685e+00,4.317e+00,3.693e+00,3.883e+00,5.015e+00,4.632e+00,4.803e+00,3.580e+00,5.416e+00,5.005e+00,5.883e+00,5.785e+00,6.557e+00,5.496e+00,5.063e+00,5.675e+00,7.186e+00,6.531e+00,6.349e+00,5.572e+00,6.030e+00,5.530e+00,6.026e+00,5.804e+00,5.001e+00,5.328e+00,7.008e+00,7.433e+00,5.613e+00,5.650e+00,5.312e+00,6.763e+00,5.206e+00,5.694e+00,6.992e+00,4.964e+00,5.986e+00,5.851e+00,6.158e+00,6.002e+00,5.698e+00,5.019e+00,4.833e+00,6.311e+00,7.601e+00,5.473e+00,6.928e+00,5.327e+00,6.088e+00,6.422e+00,6.137e+00,4.744e+00,7.369e+00,7.120e+00,6.931e+00,5.160e+00,6.017e+00,4.936e+00,6.795e+00,7.263e+00,7.113e+00,5.085e+00,7.026e+00,5.498e+00,5.995e+00
8.507e-02,2.053e-01,3.215e-01,4.614e-01,1.399e+00,1.517e+00,1.586e+00,1.588e+00,1.787e+00,1.952e+00,1.882e+00,3.101e+00,2.677e+00,3.344e+00,2.914e+00,2.315e+00,3.454e+00,2.322e+00,3.872e+00,3.276e+00,4.013e+00,3.980e+00,4.836e+00,4.732e+00,3.074e+00,3.592e+00,4.324e+00,4.087e+00,4.492e+00,4.303e+00,3.667e+00,4.195e+00,4.009e+00,3.235e+00,4.310e+00,3.630e+00,4.951e+00,4.122e+00,3.973e+00,3.413e+00,4.107e+00,3.961e+00,3.673e+00,3.540e+00,4.010e+00,3.237e+00,4.030e+00,4.686e+00,4.746e+00,4.555e+00,3.135e+00,3.287e+00,3.185e+00,4.313e+00,5.077e+00,3.974e+00,4.291e+00,3.948e+00,4.430e+00,3.882e+00,3.556e+00,4.656e+00,5.808e+00,4.537e+00,4.014e+00,3.789e+00,4.263e+00,3.366e+00,4.872e+00,4.365e+00,5.360e+00,3.796e+00,5.227e+00,4.505e+00,3.827e+00
1.098e-01,3.258e-01,4.076e-01,7.897e-01,1.384e+00,1.630e+00,1.783e+00,1.760e+00,2.974e+00,2.315e+00,2.778e+00,3.574e+00,3.746e+00,3.141e+00,3.929e+00,4.105e+00,4.579e+00,3.505e+00,5.074e+00,4.535e+00,5.642e+00,5.018e+00,7.093e+00,7.678e+00,5.884e+00,5.999e+00,7.828e+00,7.182e+00,6.160e+00,6.207e+00,6.030e+00,5.689e+00,7.073e+00,5.594e+00,5.846e+00,5.651e+00,6.878e+00,6.809e+00,4.936e+00,5.640e+00,6.405e+00,6.310e+00,5.309e+00,5.342e+00,6.789e+00,4.932e+00,6.073e+00,6.569e+00,7.324e+00,7.372e+00,5.463e+00,5.125e+00,5.086e+00,6.234e+00,7.408e+00,5.697e+00,5.780e+00,4.606e+00,5.330e+00,6.512e+00,5.916e+00,5.970e+00,7.497e+00,7.089e+00,6.774e+00,5.475e+00,5.572e+00,5.720e+00,6.781e+00,6.255e+00,8.420e+00,6.064e+00,6.318e+00,5.728e+00,6.081e+00
3.250e-01,3.555e-01,9.918e-01,9.379e-01,2.260e+00,2.216e+00,2.313e+00,2.029e+00,2.635e+00,2.986e+00,3.317e+00,5.104e+00,4.197e+00,4.757e+00,5.153e+00,4.994e+00,5.448e+00,3.627e+00,6.158e+00,4.944e+00,6.600e+00,5.600e+00,7.625e+00,7.838e+00,6.500e+00,7.268e+00,9.082e+00,7.032e+00,7.382e+00,7.090e+00,6.510e+00,7.565e+00,6.895e+00,6.674e+00,5.925e+00,6.485e+00,8.695e+00,7.457e+00,7.046e+00,7.343e+00,8.514e+00,7.353e+00,5.505e+00,6.491e+00,8.110e+00,5.847e+00,8.040e+00,8.194e+00,8.292e+00,7.762e+00,5.564e+00,6.525e+00,6.092e+00,7.166e+00,8.836e+00,6.903e+00,7.190e+00,6.532e+00,6.878e+00,7.333e+00,6.178e+00,6.634e+00,8.344e+00,7.418e+00,8.285e+00,6.132e+00,6.685e+00,6.193e+00,7.560e+00,8.040e+00,9.761e+00,7.999e+00,7.550e+00,6.952e+00,7.805e+00
8.783e-03,1.162e-01,1.174e-01,8.850e-01,1.078e+00,1.298e+00,1.473e+00,1.813e+00,2.589e+00,2.420e+00,2.424e+00,3.230e+00,3.509e+00,2.676e+00,4.080e+00,3.413e+00,4.105e+00,2.889e+00,4.602e+00,4.765e+00,5.377e+00,5.266e+00,6.523e+00,6.450e+00,6.758e+00,6.257e+00,8.414e+00,7.394e+00,6.576e+00,5.824e+00,6.591e+00,6.804e+00,6.494e+00,5.162e+00,4.980e+00,6.029e+00,6.814e+00,7.645e+00,5.693e+00,6.539e+00,7.161e+00,6.750e+00,6.056e+00,5.816e+00,8.209e+00,4.947e+00,6.592e+00,6.099e+00,6.878e+00,7.194e+00,6.642e+00,5.076e+00,5.395e+00,7.002e+00,7.091e+00,6.133e+00,6.245e+00,6.184e+00,6.200e+00,6.161e+00,5.896e+00,6.121e+00,7.440e+00,6.979e+00,7.607e+00,6.191e+00,4.970e+00,6.308e+00,7.074e+00,7.067e+00,7.680e+00,6.527e+00,5.693e+00,4.870e+00,6.144e+00
2.165e-01,4.162e-01,6.771e-01,7.539e-01,1.251e+00,1.535e+00,1.582e+00,1.195e+00,2.330e+00,1.956e+00,2.588e+00,3.900e+00,3.317e+00,3.458e+00,4.135e+00,4.442e+00,5.158e+00,3.329e+00,6.071e+00,4.860e+00,5.510e+00,5.306e+00,6.600e+00,6.953e+00,5.915e+00,7.216e+00,6.825e+00,7.369e+00,6.677e+00,6.520e+00,7.299e+00,8.070e+00,7.525e+00,6.658e+00,6.504e+00,5.665e+00,8.521e+00,7.920e+00,7.055e+00,6.665e+00,7.107e+00,7.274e+00,6.391e+00,6.820e+00,7.412e+00,5.554e+00,7.607e+00,7.064e+00,8.040e+00,7.173e+00,6.564e+00,6.543e+00,6.196e+00,7.255e+00,7.346e+00,7.247e+00,7.360e+00,5.990e+00,6.888e+00,7.341e+00,6.516e+00,7.435e+00,7.949e+00,7.305e+00,7.770e+00,6.759e+00,6.760e+00,6.339e+00,8.514e+00,8.034e+00,8.237e+00,7.775e+00,7.028e+00,6.938e+00,6.834e+00
1.189e-01,8.363e-02,4.305e-01,4.562e-01,1.492e+00,1.687e+00,1.338e+00,1.856e+00,2.149e+00,2.578e+00,2.871e+00,4.402e+00,3.537e+00,4.210e+00,4.737e+00,3.689e+00,5.166e+00,3.123e+00,5.946e+00,5.926e+00,6.337e+00,5.365e+00,6.588e+00,6.289e+00,5.496e+00,6.304e+00,7.450e+00,6.786e+00,7.021e+00,6.639e+00,6.176e+00,7.295e+00,6.939e+00,5.605e+00,6.540e+00,6.633e+00,7.217e+00,7.896e+00,6.188e+00,6.596e+00,7.587e+00,7.610e+00,6.191e+00,5.892e+00,7.811e+00,5.044e+00,7.613e+00,7.355e+00,7.591e+00,7.064e+00,6.448e+00,5.531e+00,6.770e+00,7.556e+00,7.563e+00,6.199e+00,6.681e+00,7.788e+00,7.001e+00,6.987e+00,6.821e+00,7.452e+00,8.153e+00,7.684e+00,7.435e+00,6.875e+00,6.330e+00,6.588e+00,7.702e+00,8.419e+00,8.415e+00,6.700e+00,7.201e+00,6.715e+00,5.606e+00
6.624e-02,2.863e-01,2.702e-01,9.508e-01,8.639e-01,1.123e+00,1.388e+00,1.232e+00,2.359e+00,1.788e+00,2.140e+00,2.917e+00,3.362e+00,2.910e+00,4.181e+00,4.714e+00,4.961e+00,3.462e+00,5.809e+00,5.141e+00,5.621e+00,5.050e+00,6.758e+00,7.298e+00,5.592e+00,5.786e+00,8.022e+00,7.990e+00,7.386e+00,6.709e+00,7.873e+00,8.494e+00,8.568e+00,6.466e+00,7.144e+00,6.608e+00,7.572e+00,8.349e+00,6.246e+00,7.456e+00,8.369e+00,8.163e+00,6.305e+00,6.902e+00,8.049e+00,5.805e+00,7.478e+00,8.060e+00,7.886e+00,7.347e+00,7.717e+00,6.808e+00,6.974e+00,8.806e+00,7.380e+00,6.783e+00,7.695e+00,6.716e+00,7.316e+00,7.810e+00,6.735e+00,7.183e+00,8.566e+00,8.697e+00,8.300e+00,7.253e+00,7.369e+00,7.422e+00,8.227e+00,8.677e+00,9.386e+00,8.112e+00,6.962e+00,6.529e+00,7.138e+00
3.616e-01,3.327e-01,1.022e+00,3.358e-01,1.970e+00,1.765e+00,1.825e+00,1.429e+00,2.175e+00,2.048e+00,2.936e+00,4.494e+00,3.611e+00,4.002e+00,4.324e+00,3.737e+00,4.359e+00,3.191e+00,5.522e+00,4.774e+00,5.683e+00,4.447e+00,6.801e+00,6.655e+00,5.335e+00,6.061e+00,7.136e+00,6.609e+00,7.228e+00,7.373e+00,5.654e+00,6.703e+00,6.456e+00,5.618e+00,6.591e+00,6.000e+00,7.265e+00,7.005e+00,6.375e+00,6.237e+00,7.647e+00,7.613e+00,5.248e+00,6.101e+00,7.091e+00,4.758e+00,6.695e+00,7.198e+00,7.977e+00,6.243e+00,6.146e+00,6.173e+00,6.604e+00,7.270e+00,7.363e+00,6.414e+00,6.964e+00,6.163e+00,6.899e+00,7.126e+00,6.835e+00,6.732e+00,7.979e+00,7.310e+00,7.407e+00,6.514e+00,5.940e+00,5.930e+00,7.698e+00,7.670e+00,9.254e+00,6.910e+00,6.320e+00,6.475e+00,6.642e+00
9.189e-02,2.658e-01,4.550e-01,7.467e-01,2.072e+00,2.089e+00,2.017e+00,2.538e+00,3.755e+00,3.114e+00,3.563e+00,4.930e+00,4.697e+00,4.367e+00,5.302e+00,4.524e+00,5.108e+00,4.069e+00,5.590e+00,4.709e+00,6.461e+00,5.435e+00,6.972e+00,7.176e+00,6.911e+00,7.914e+00,9.320e+00,8.363e+00,8.225e+00,8.261e+00,9.664e+00,9.309e+00,8.227e+00,8.065e+00,7.126e+00,8.661e+00,9.170e+00,1.009e+01,8.560e+00,8.685e+00,1.052e+01,9.530e+00,7.806e+00,8.963e+00,1.030e+01,7.934e+00,9.322e+00,7.853e+00,1.029e+01,8.716e+00,8.339e+00,7.660e+00,8.111e+00,9.646e+00,9.490e+00,8.525e+00,9.066e+00,8.315e+00,9.229e+00,1.011e+01,7.492e+00,8.636e+00,1.026e+01,8.971e+00,1.020e+01,8.657e+00,7.681e+00,8.472e+00,1.052e+01,1.044e+01,1.036e+01,9.205e+00,9.361e+00,8.235e+00,9.984e+00
1.220e-01,1.017e-01,3.215e-01,2.778e-01,1.016e+00,1.056e+00,1.280e+00,1.492e+00,2.452e+00,2.229e+00,2.599e+00,3.742e+00,3.291e+00,3.347e+00,3.777e+00,3.303e+00,4.411e+00,3.408e+00,4.511e+00,4.631e+00,5.699e+00,4.614e+00,5.685e+00,6.038e+00,5.334e+00,6.552e+00,6.560e+00,6.630e+00,7.094e+00,6.747e+00,7.003e+00,7.418e+00,8.081e+00,6.174e+00,6.597e+00,7.138e+00,7.611e+00,8.282e+00,7.407e+00,7.370e+00,7.223e+00,8.811e+00,7.189e+00,7.548e+00,7.272e+00,5.688e+00,7.499e+00,6.859e+00,8.612e+00,6.505e+00,7.997e+00,6.762e+00,6.490e+00,8.299e+00,7.414e+00,6.242e+00,7.665e+00,6.737e+00,8.019e+00,8.503e+00,7.247e+00,7.649e+00,8.093e+00,8.413e+00,8.543e+00,7.711e+00,6.553e+00,6.995e+00,8.539e+00,8.698e+00,9.746e+00,7.241e+00,7.926e+00,8.164e+00,6.505e+00
3.709e-01,4.040e-01,9.649e-01,1.047e+00,1.757e+00,2.374e+00,2.643e+00,2.283e+00,3.492e+00,3.651e+00,3.636e+00,5.021e+00,4.587e+00,4.936e+00,5.397e+00,5.613e+00,6.012e+00,4.401e+00,6.632e+00,6.147e+00,6.513e+00,5.164e+00,7.243e+00,7.041e+00,5.568e+00,7.512e+00,7.517e+00,7.900e+00,8.336e+00,6.649e+00,8.524e+00,8.424e+00,9.165e+00,7.931e+00,7.522e+00,8.012e+00,9.525e+00,9.839e+00,7.735e+00,9.619e+00,8.463e+00,1.011e+01,8.101e+00,7.112e+00,8.594e+00,7.470e+00,9.469e+00,8.595e+00,8.873e+00,8.744e+00,8.618e+00,8.316e+00,8.182e+00,9.721e+00,8.113e+00,8.522e+00,8.593e+00,7.940e+00,9.134e+00,9.104e+00,7.939e+00,7.263e+00,9.516e+00,9.525e+00,9.365e+00,7.955e+00,7.626e+00,7.577e+00,9.891e+00,1.017e+01,1.071e+01,9.325e+00,8.750e+00,7.486e+00,8.297e+00
9.325e-03,2.685e-02,1.936e-01,1.671e-01,1.049e+00,1.654e+00,6.535e-01,1.979e+00,2.052e+00,1.940e+00,2.453e+00,3.593e+00,3.005e+00,3.529e+00,4.291e+00,3.167e+00,3.717e+00,2.727e+00,4.935e+00,4.577e+00,4.991e+00,4.644e+00,7.011e+00,5.693e+00,4.755e+00,5.703e+00,7.213e+00,6.951e+00,6.352e+00,6.374e+00,7.136e+00,6.963e+00,8.183e+00,7.785e+00,8.163e+00,7.918e+00,7.513e+00,8.092e+00,8.961e+00,8.756e+00,9.375e+00,8.933e+00,8.371e+00,8.683e+00,8.757e+00,7.292e+00,8.038e+00,1.001e+01,8.980e+00,7.993e+00,8.818e+00,7.934e+00,7.101e+00,9.637e+00,9.503e+00,8.102e+00,8.362e+00,7.895e+00,8.177e+00,7.502e+00,7.857e+00,8.252e+00,1.056e+01,9.461e+00,9.583e+00,7.727e+00,7.698e+00,7.619e+00,9.330e+00,9.555e+00,9.561e+00,7.737e+00,8.000e+00,8.229e+00,8.133e+00
3.761e-01,3.137e-01,9.822e-01,2.599e-01,1.401e+00,1.955e+00,1.668e+00,1.753e+00,2.160e+00,2.460e+00,2.866e+00,4.843e+00,3.354e+00,4.749e+00,4.892e+00,4.158e+00,5.705e+00,3.921e+00,6.488e+00,5.828e+00,5.682e+00,4.166e+00,6.383e+00,6.077e+00,5.183e+00,6.950e+00,6.874e+00,6.949e+00,7.980e+00,7.313e+00,8.098e+00,7.968e+00,7.793e+00,7.526e+00,7.325e+00,7.769e+00,8.274e+00,1.030e+01,6.873e+00,9.231e+00,9.272e+00,9.123e+00,7.314e+00,7.461e+00,9.206e+00,7.161e+00,8.310e+00,9.135e+00,8.577e+00,7.108e+00,8.524e+00,8.065e+00,8.706e+00,9.695e+00,8.409e+00,7.900e+00,8.363e+00,8.237e+00,8.644e+00,8.633e+00,7.234e+00,8.550e+00,9.857e+00,9.669e+00,9.103e+00,8.253e+00,8.104e+00,8.115e+00,8.437e+00,1.122e+01,9.896e+00,7.913e+00,9.459e+00,8.773e+00,7.397e+00
3.446e-01,4.829e-01,1.059e+00,1.150e+00,2.530e+00,2.521e+00,2.826e+00,2.120e+00,2.465e+00,2.990e+00,2.579e+00,4.853e+00,4.042e+00,4.618e+00,5.112e+00,4.625e+00,5.282e+00,3.603e+00,5.506e+00,4.797e+00,5.991e+00,5.833e+00,6.569e+00,6.852e+00,5.952e+00,7.341e+00,7.651e+00,6.573e+00,8.199e+00,8.104e+00,8.327e+00,9.531e+00,8.612e+00,9.103e+00,8.444e+00,8.444e+00,9.828e+00,1.012e+01,9.517e+00,9.919e+00,1.025e+01,9.308e+00,8.810e+00,8.527e+00,1.061e+01,7.789e+00,1.109e+01,1.104e+01,1.027e+01,9.441e+00,9.190e+00,1.086e+01,7.638e+00,1.074e+01,1.011e+01,9.785e+00,9.246e+00,8.452e+00,9.878e+00,9.762e+00,7.808e+00,9.842e+00,1.179e+01,1.026e+01,1.010e+01,8.800e+00,9.394e+00,9.407e+00,9.439e+00,1.017e+01,1.090e+01,1.087e+01,1.022e+01,9.946e+00,9.307e+00
3.190e-01,3.041e-01,8.522e-01,3.274e-01,1.503e+00,1.495e+00,1.685e+00,1.257e+00,1.679e+00,1.866e+00,2.197e+00,3.880e+00,2.995e+00,3.939e+00,3.365e+00,3.349e+00,4.188e+00,3.297e+00,5.130e+00,3.840e+00,4.674e+00,3.896e+00,5.943e+00,5.207e+00,4.520e+00,5.054e+00,6.304e+00,5.554e+00,6.288e+00,6.320e+00,5.615e+00,6.493e+00,5.720e+00,6.498e+00,6.183e+00,7.474e+00,8.952e+00,8.144e+00,7.486e+00,8.098e+00,8.215e+00,8.314e+00,5.648e+00,7.267e+00,8.494e+00,6.078e+00,7.647e+00,8.514e+00,8.285e+00,7.839e+00,7.093e+00,7.455e+00,6.917e+00,7.933e+00,8.464e+00,7.428e+00,7.587e+00,6.856e+00,8.152e+00,8.194e+00,7.066e+00,7.579e+00,9.373e+00,8.776e+00,8.095e+00,6.872e+00,8.152e+00,8.285e+00,7.409e+00,8.890e+00,8.046e+00,8.238e+00,9.636e+00,8.841e+00,7.579e+00
3.869e-01,5.007e-01,1.076e+00,6.697e-01,2.083e+00,2.403e+00,2.501e+00,1.863e+00,2.231e+00,2.197e+00,2.459e+00,4.183e+00,3.569e+00,4.085e+00,3.965e+00,4.246e+00,4.517e+00,3.858e+00,5.906e+00,4.143e+00,4.685e+00,5.073e+00,5.326e+00,5.494e+00,5.077e+00,6.189e+00,6.290e+00,6.313e+00,7.781e+00,7.374e+00,7.524e+00,7.926e+00,7.651e+00,7.139e+00,7.607e+00,6.813e+00,8.503e+00,1.018e+01,9.286e+00,9.833e+00,8.680e+00,9.154e+00,7.198e+00,9.305e+00,8.982e+00,6.404e+00,8.860e+00,8.718e+00,9.240e+00,8.057e+00,9.372e+00,8.537e+00,7.435e+00,9.482e+00,9.385e+00,8.991e+00,8.712e+00,8.186e+00,9.264e+00,8.582e+00,8.622e+00,8.345e+00,9.817e+00,9.182e+00,1.031e+01,7.620e+00,9.288e+00,8.777e+00,9.814e+00,1.045e+01,9.395e+00,9.712e+00,8.965e+00,8.475e+00,9.643e+00
2.286e-01,2.061e-01,7.178e-01,3.230e-01,1.934e+00,1.643e+00,1.664e+00,1.799e+00,2.647e+00,2.525e+00,3.035e+00,4.721e+00,3.978e+00,4.006e+00,4.747e+00,3.876e+00,4.921e+00,3.973e+00,5.454e+00,5.279e+00,5.940e+00,4.231e+00,6.395e+00,6.847e+00,5.818e+00,7.276e+00,8.244e+00,7.739e+00,8.081e+00,7.671e+00,8.396e+00,9.207e+00,7.796e+00,7.927e+00,7.900e+00,8.958e+00,8.680e+00,1.087e+01,9.054e+00,1.082e+01,1.131e+01,1.094e+01,9.018e+00,1.125e+01,1.038e+01,7.084e+00,1.036e+01,1.102e+01,1.109e+01,9.765e+00,9.859e+00,9.796e+00,9.699e+00,1.003e+01,1.054e+01,9.086e+00,9.443e+00,9.558e+00,9.926e+00,1.040e+01,9.632e+00,1.114e+01,1.187e+01,1.002e+01,1.213e+01,1.002e+01,9.322e+00,1.062e+01,1.151e+01,1.176e+01,1.169e+01,1.016e+01,1.049e+01,1.037e+01,1.037e+01
3.531e-01,4.848e-01,1.080e+00,9.899e-01,1.950e+00,2.010e+00,1.996e+00,1.511e+00,2.339e+00,1.724e+00,2.633e+00,3.971e+00,3.972e+00,3.787e+00,4.835e+00,4.642e+00,5.262e+00,3.675e+00,6.313e+00,5.341e+00,5.895e+00,5.370e+00,7.199e+00,6.995e+00,5.720e+00,6.230e+00,8.553e+00,7.677e+00,7.882e+00,8.286e+00,8.439e+00,9.571e+00,9.340e+00,7.949e+00,9.847e+00,9.430e+00,9.191e+00,1.045e+01,1.091e+01,1.124e+01,1.119e+01,1.211e+01,8.841e+00,1.113e+01,1.081e+01,7.630e+00,1.103e+01,1.289e+01,1.226e+01,1.067e+01,1.115e+01,1.067e+01,9.996e+00,1.117e+01,1.177e+01,1.008e+01,1.083e+01,9.799e+00,1.117e+01,1.158e+01,1.044e+01,1.091e+01,1.270e+01,1.082e+01,1.259e+01,9.434e+00,1.094e+01,1.193e+01,1.111e+01,1.187e+01,1.203e+01,1.086e+01,1.150e+01,1.047e+01,1.069e+01
3.004e-01,2.734e-01,8.614e-01,3.484e-01,1.961e+00,1.688e+00,1.858e+00,1.623e+00,2.635e+00,2.342e+00,2.739e+00,4.189e+00,3.726e+00,4.103e+00,4.403e+00,4.277e+00,4.555e+00,4.074e+00,5.280e+00,4.560e+00,5.928e+00,4.357e+00,6.338e+00,5.641e+00,5.509e+00,6.467e+00,6.705e+00,6.705e+00,7.822e+00,7.021e+00,7.621e+00,8.570e+00,7.430e+00,8.629e+00,7.232e+00,7.928e+00,9.495e+00,1.074e+01,1.050e+01,1.136e+01,1.013e+01,1.200e+01,8.336e+00,1.224e+01,9.790e+00,7.286e+00,1.037e+01,1.144e+01,1.217e+01,1.002e+01,1.121e+01,9.468e+00,9.551e+00,1.134e+01,1.075e+01,9.583e+00,1.094e+01,9.847e+00,1.133e+01,1.196e+01,1.045e+01,9.900e+00,1.173e+01,1.132e+01,1.176e+01,9.249e+00,1.027e+01,1.072e+01,1.152e+01,1.232e+01,1.100e+01,1.128e+01,1.155e+01,1.116e+01,1.150e+01
1.012e-01,3.072e-01,4.004e-01,8.773e-01,1.262e+00,1.965e+00,1.716e+00,2.110e+00,3.180e+00,2.837e+00,3.249e+00,4.431e+00,4.206e+00,4.382e+00,4.376e+00,3.807e+00,5.272e+00,3.334e+00,5.681e+00,5.100e+00,5.417e+00,4.807e+00,7.208e+00,6.953e+00,5.438e+00,6.087e+00,8.030e+00,8.129e+00,6.868e+00,6.272e+00,8.086e+00,8.546e+00,9.374e+00,8.790e+00,9.241e+00,1.024e+01,1.069e+01,1.123e+01,1.087e+01,1.293e+01,1.191e+01,1.212e+01,1.084e+01,1.132e+01,1.076e+01,1.078e+01,1.239e+01,1.276e+01,1.279e+01,1.254e+01,1.307e+01,1.080e+01,1.054e+01,1.277e+01,1.130e+01,1.164e+01,1.201e+01,9.576e+00,1.085e+01,1.139e+01,1.143e+01,1.108e+01,1.276e+01,1.298e+01,1.251e+01,1.082e+01,1.128e+01,1.140e+01,1.112e+01,1.217e+01,1.174e+01,1.224e+01,1.254e+01,1.237e+01,1.087e+01
1.095e-02,3.446e-02,6.005e-02,7.666e-01,6.231e-01,1.659e+00,1.225e+00,1.918e+00,2.862e+00,3.081e+00,2.806e+00,4.250e+00,3.759e+00,4.045e+00,4.258e+00,3.683e+00,4.676e+00,2.954e+00,4.257e+00,4.771e+00,5.394e+00,4.560e+00,6.176e+00,5.958e+00,4.234e+00,5.407e+00,6.646e+00,6.904e+00,6.660e+00,6.029e+00,8.242e+00,8.053e+00,8.003e+00,7.791e+00,7.979e+00,7.953e+00,9.549e+00,9.744e+00,9.677e+00,1.017e+01,9.848e+00,1.119e+01,9.720e+00,1.027e+01,1.041e+01,9.453e+00,9.786e+00,1.072e+01,1.111e+01,1.091e+01,1.000e+01,1.018e+01,1.013e+01,1.178e+01,1.009e+01,1.012e+01,1.107e+01,8.880e+00,1.058e+01,1.144e+01,1.038e+01,1.124e+01,1.195e+01,1.202e+01,1.171e+01,1.126e+01,1.106e+01,9.805e+00,1.207e+01,1.151e+01,1.017e+01,9.462e+00,1.188e+01,1.132e+01,9.880e+00
3.095e-01,4.687e-01,9.074e-01,7.917e-01,1.874e+00,1.795e+00,2.202e+00,1.575e+00,2.926e+00,2.355e+00,3.252e+00,5.136e+00,4.593e+00,4.506e+00,5.232e+00,4.713e+00,6.051e+00,4.135e+00,6.032e+00,5.476e+00,6.194e+00,4.526e+00,6.231e+00,8.013e+00,5.587e+00,6.346e+00,8.081e+00,7.424e+00,7.936e+00,7.121e+00,6.744e+00,7.448e+00,7.496e+00,8.021e+00,7.291e+00,7.867e+00,9.701e+00,9.522e+00,9.575e+00,1.119e+01,1.029e+01,1.119e+01,9.477e+00,1.044e+01,9.426e+00,8.840e+00,1.103e+01,1.216e+01,1.215e+01,1.121e+01,1.074e+01,1.099e+01,1.023e+01,1.117e+01,1.070e+01,9.810e+00,1.121e+01,8.538e+00,9.490e+00,1.172e+01,1.169e+01,9.934e+00,1.232e+01,1.224e+01,1.189e+01,1.013e+01,1.041e+01,1.141e+01,1.078e+01,1.208e+01,1.225e+01,1.124e+01,1.103e+01,1.178e+01,1.161e+01
8.669e-02,3.371e-01,3.747e-01,1.259e+00,1.737e+00,2.548e+00,2.502e+00,2.510e+00,3.136e+00,3.670e+00,2.874e+00,4.896e+00,4.350e+00,4.876e+00,4.725e+00,4.932e+00,6.074e+00,4.144e+00,6.283e+00,5.668e+00,6.466e+00,6.332e+00,7.596e+00,7.985e+00,6.578e+00,7.110e+00,8.151e+00,8.422e+00,8.905e+00,8.493e+00,8.853e+00,9.159e+00,9.121e+00,8.585e+00,8.310e+00,8.851e+00,1.125e+01,1.111e+01,1.032e+01,1.128e+01,1.030e+01,1.069e+01,1.084e+01,1.069e+01,1.242e+01,1.101e+01,1.217e+01,1.270e+01,1.269e+01,1.223e+01,1.137e+01,1.194e+01,1.046e+01,1.292e+01,1.146e+01,1.220e+01,1.250e+01,1.088e+01,1.161e+01,1.238e+01,1.096e+01,1.218e+01,1.381e+01,1.294e+01,1.315e+01,1.097e+01,1.143e+01,1.092e+01,1.275e+01,1.354e+01,1.277e+01,1.285e+01,1.225e+01,1.140e+01,1.286e+01
2.542e-01,1.509e-01,7.448e-01,8.255e-01,1.327e+00,2.407e+00,1.456e+00,2.174e+00,2.819e+00,3.009e+00,3.113e+00,4.711e+00,3.968e+00,4.442e+00,4.886e+00,4.148e+00,5.173e+00,3.557e+00,5.273e+00,5.539e+00,5.617e+00,4.859e+00,7.717e+00,5.578e+00,5.579e+00,6.306e+00,7.333e+00,7.420e+00,7.800e+00,6.414e+00,7.781e+00,8.985e+00,8.529e+00,8.990e+00,7.972e+00,7.953e+00,1.021e+01,1.058e+01,1.004e+01,1.156e+01,8.703e+00,1.149e+01,1.040e+01,1.104e+01,1.283e+01,1.052e+01,1.236e+01,1.380e+01,1.304e+01,1.351e+01,1.206e+01,1.178e+01,1.093e+01,1.267e+01,1.193e+01,1.235e+01,1.258e+01,1.105e+01,1.192e+01,1.277e+01,1.211e+01,1.286e+01,1.319e+01,1.246e+01,1.300e+01,1.076e+01,1.189e+01,1.132e+01,1.365e+01,1.358e+01,1.274e+01,1.203e+01,1.349e+01,1.189e+01,1.188e+01
3.919e-01,2.969e-01,1.067e+00,4.000e-01,1.737e+00,1.632e+00,1.694e+00,1.324e+00,1.598e+00,2.057e+00,2.219e+00,3.724e+00,2.635e+00,3.457e+00,3.132e+00,2.764e+00,3.602e+00,2.568e+00,3.566e+00,3.521e+00,4.607e+00,2.922e+00,5.257e+00,4.574e+00,4.676e+00,5.500e+00,5.226e+00,5.055e+00,6.736e+00,6.400e+00,6.307e+00,6.987e+00,7.099e+00,7.289e+00,6.990e+00,7.605e+00,7.506e+00,8.075e+00,9.004e+00,9.426e+00,8.611e+00,1.060e+01,7.894e+00,8.955e+00,1.183e+01,9.141e+00,1.009e+01,1.216e+01,1.196e+01,1.106e+01,1.011e+01,1.094e+01,1.068e+01,1.138e+01,1.015e+01,1.016e+01,1.027e+01,1.044e+01,1.052e+01,1.097e+01,9.668e+00,1.107e+01,1.207e+01,1.103e+01,1.052e+01,1.023e+01,1.083e+01,1.163e+01,1.080e+01,1.253e+01,1.139e+01,1.154e+01,1.143e+01,1.114e+01,1.044e+01
3.721e-02,1.046e-01,1.459e-01,7.124e-01,5.182e-01,8.933e-01,8.530e-01,7.902e-01,1.195e+00,1.250e+00,1.011e+00,1.661e+00,1.953e+00,1.408e+00,2.738e+00,3.330e+00,2.607e+00,2.155e+00,3.454e+00,3.151e+00,2.996e+00,3.625e+00,4.246e+00,4.152e+00,3.687e+00,4.017e+00,4.970e+00,5.342e+00,5.266e+00,5.323e+00,6.805e+00,7.232e+00,6.214e+00,6.149e+00,6.178e+00,5.794e+00,7.222e+00,9.066e+00,7.898e+00,8.881e+00,8.063e+00,8.262e+00,7.710e+00,8.763e+00,1.121e+01,7.709e+00,9.801e+00,1.083e+01,1.058e+01,1.040e+01,1.024e+01,1.057e+01,1.039e+01,1.159e+01,9.236e+00,1.111e+01,1.063e+01,1.065e+01,9.312e+00,1.104e+01,1.023e+01,1.039e+01,1.184e+01,1.116e+01,1.142e+01,9.279e+00,1.058e+01,1.098e+01,1.085e+01,1.159e+01,9.550e+00,1.141e+01,1.003e+01,9.253e+00,1.136e+01
5.182e-02,5.487e-02,1.509e-01,4.547e-01,9.106e-01,1.293e+00,1.296e+00,1.426e+00,1.502e+00,2.128e+00,2.014e+00,4.144e+00,3.225e+00,3.544e+00,4.438e+00,4.283e+00,4.387e+00,3.318e+00,4.956e+00,4.195e+00,5.132e+00,5.817e+00,5.431e+00,6.480e+00,5.431e+00,6.735e+00,7.371e+00,6.666e+00,8.162e+00,7.890e+00,9.437e+00,9.508e+00,9.498e+00,8.821e+00,7.558e+00,8.104e+00,1.086e+01,1.278e+01,1.079e+01,1.132e+01,1.092e+01,1.047e+01,1.074e+01,1.077e+01,1.309e+01,1.023e+01,1.294e+01,1.276e+01,1.346e+01,1.211e+01,1.385e+01,1.232e+01,1.320e+01,1.438e+01,1.231e+01,1.320e+01,1.451e+01,1.288e+01,1.324e+01,1.347e+01,1.436e+01,1.419e+01,1.403e+01,1.340e+01,1.435e+01,1.287e+01,1.350e+01,1.281e+01,1.351e+01,1.537e+01,1.413e+01,1.470e+01,1.462e+01,1.282e+01,1.239e+01
3.001e-01,3.129e-01,9.053e-01,1.024e+00,1.903e+00,2.235e+00,2.048e+00,1.986e+00,2.327e+00,2.459e+00,2.599e+00,3.775e+00,3.664e+00,4.094e+00,3.926e+00,3.424e+00,4.263e+00,2.914e+00,4.647e+00,4.191e+00,4.863e+00,4.381e+00,7.304e+00,5.448e+00,5.504e+00,5.595e+00,7.005e+00,6.714e+00,6.482e+00,6.252e+00,6.471e+00,7.428e+00,7.401e+00,6.498e+00,7.215e+00,8.614e+00,9.211e+00,8.967e+00,9.655e+00,9.555e+00,9.338e+00,1.034e+01,9.902e+00,9.723e+00,1.194e+01,9.840e+00,1.246e+01,1.247e+01,1.302e+01,1.386e+01,1.218e+01,1.233e+01,1.156e+01,1.255e+01,1.253e+01,1.231e+01,1.276e+01,1.236e+01,1.241e+01,1.249e+01,1.133e+01,1.247e+01,1.348e+01,1.176e+01,1.319e+01,1.063e+01,1.115e+01,1.250e+01,1.298e+01,1.271e+01,1.280e+01,1.349e+01,1.380e+01,1.193e+01,1.239e+01
2.992e-01,1.774e-01,7.660e-01,1.938e-01,1.506e+00,1.451e+00,1.644e+00,1.438e+00,1.483e+00,2.216e+00,2.239e+00,4.176e+00,2.939e+00,3.863e+00,4.498e+00,3.995e+00,4.283e+00,3.475e+00,5.506e+00,4.939e+00,5.391e+00,4.656e+00,7.225e+00,6.485e+00,5.235e+00,6.608e+00,6.383e+00,6.446e+00,7.137e+00,7.773e+00,6.805e+00,6.446e+00,5.927e+00,7.271e+00,5.829e+00,6.985e+00,9.024e+00,9.354e+00,9.459e+00,8.743e+00,9.233e+00,9.269e+00,8.985e+00,9.869e+00,1.143e+01,8.482e+00,1.055e+01,1.296e+01,1.260e+01,1.285e+01,1.215e+01,1.201e+01,1.260e+01,1.296e+01,1.260e+01,1.268e+01,1.307e+01,1.262e+01,1.215e+01,1.246e+01,1.262e+01,1.304e+01,1.346e+01,1.287e+01,1.430e+01,1.085e+01,1.165e+01,1.212e+01,1.335e+01,1.359e+01,1.399e+01,1.358e+01,1.330e+01,1.230e+01,1.372e+01
9.744e-02,1.877e-01,3.631e-01,1.003e+00,1.041e+00,1.876e+00,1.412e+00,1.802e+00,2.678e+00,2.519e+00,2.733e+00,4.274e+00,3.843e+00,3.449e+00,4.518e+00,4.001e+00,4.906e+00,3.185e+00,4.841e+00,4.783e+00,5.437e+00,5.009e+00,6.851e+00,7.170e+00,5.727e+00,6.469e+00,8.463e+00,8.221e+00,8.147e+00,7.862e+00,9.211e+00,9.703e+00,9.449e+00,9.002e+00,8.606e+00,8.187e+00,9.980e+00,1.032e+01,1.023e+01,1.026e+01,9.610e+00,1.161e+01,9.510e+00,1.058e+01,1.169e+01,9.773e+00,1.153e+01,1.114e+01,1.350e+01,1.195e+01,1.353e+01,1.196e+01,1.081e+01,1.322e+01,1.289e+01,1.217e+01,1.273e+01,1.087e+01,1.130e+01,1.276e+01,1.307e+01,1.223e+01,1.216e+01,1.505e+01,1.328e+01,1.207e+01,1.280e+01,1.186e+01,1.321e+01,1.255e+01,1.346e+01,1.222e+01,1.177e+01,1.277e+01,1.195e+01
3.494e-01,4.077e-01,1.049e+00,8.739e-01,2.506e+00,2.475e+00,2.626e+00,2.126e+00,2.353e+00,2.866e+00,2.756e+00,4.711e+00,3.997e+00,4.457e+00,4.996e+00,4.773e+00,4.940e+00,3.818e+00,6.234e+00,5.360e+00,6.211e+00,5.789e+00,7.784e+00,7.791e+00,6.082e+00,6.647e+00,8.335e+00,7.369e+00,8.113e+00,8.555e+00,7.195e+00,8.212e+00,7.558e+00,8.148e+00,8.633e+00,9.338e+00,9.804e+00,1.020e+01,1.005e+01,1.133e+01,1.213e+01,1.104e+01,9.950e+00,1.098e+01,1.317e+01,1.019e+01,1.314e+01,1.497e+01,1.435e+01,1.410e+01,1.327e+01,1.460e+01,1.407e+01,1.501e+01,1.484e+01,1.473e+01,1.381e+01,1.369e+01,1.453e+01,1.407e+01,1.343e+01,1.438e+01,1.659e+01,1.496e+01,1.582e+01,1.230e+01,1.477e+01,1.509e+01,1.452e+01,1.450e+01,1.661e+01,1.550e+01,1.392e+01,1.461e+01,1.480e+01
6.816e-03,2.376e-01,1.453e-01,9.703e-01,9.507e-01,1.490e+00,1.491e+00,1.580e+00,2.642e+00,2.604e+00,2.173e+00,2.873e+00,3.071e+00,2.780e+00,3.603e+00,4.147e+00,4.522e+00,3.117e+00,5.056e+00,4.969e+00,5.379e+00,4.689e+00,6.888e+00,6.693e+00,5.550e+00,6.202e+00,7.001e+00,7.544e+00,6.425e+00,6.771e+00,8.619e+00,8.061e+00,8.935e+00,8.312e+00,8.441e+00,8.967e+00,9.053e+00,1.049e+01,9.022e+00,1.013e+01,1.030e+01,1.147e+01,9.999e+00,9.854e+00,1.060e+01,9.431e+00,1.157e+01,1.159e+01,1.275e+01,1.264e+01,1.313e+01,1.179e+01,1.266e+01,1.399e+01,1.163e+01,1.284e+01,1.202e+01,1.208e+01,1.211e+01,1.298e+01,1.297e+01,1.258e+01,1.398e+01,1.354e+01,1.315e+01,1.211e+01,1.194e+01,1.318e+01,1.391e+01,1.320e+01,1.315e+01,1.407e+01,1.292e+01,1.212e+01,1.159e+01
1.615e-01,3.458e-01,6.209e-01,6.407e-01,1.497e+00,1.469e+00,1.251e+00,1.176e+00,1.977e+00,1.120e+00,1.879e+00,2.847e+00,2.775e+00,2.626e+00,3.990e+00,3.605e+00,4.096e+00,2.808e+00,4.535e+00,3.757e+00,4.659e+00,4.223e+00,4.996e+00,5.594e+00,4.677e+00,5.503e+00,5.996e+00,5.982e+00,5.732e+00,6.444e+00,7.047e+00,8.165e+00,7.451e+00,7.500e+00,7.158e+00,6.368e+00,7.752e+00,9.245e+00,8.596e+00,9.257e+00,8.748e+00,9.037e+00,8.477e+00,8.973e+00,1.010e+01,8.317e+00,1.014e+01,1.224e+01,1.240e+01,1.121e+01,1.168e+01,1.151e+01,1.136e+01,1.218e+01,1.247e+01,1.164e+01,1.194e+01,1.219e+01,1.245e+01,1.329e+01,1.222e+01,1.236e+01,1.309e+01,1.184e+01,1.314e+01,1.022e+01,1.232e+01,1.353e+01,1.281e+01,1.346e+01,1.292e+01,1.343e+01,1.361e+01,1.200e+01,1.247e+01
1.379e-01,1.594e-01,5.104e-01,5.266e-01,1.746e+00,1.576e+00,1.490e+00,1.655e+00,1.928e+00,1.953e+00,2.476e+00,4.021e+00,3.516e+00,4.051e+00,4.127e+00,3.749e+00,4.163e+00,3.014e+00,4.235e+00,3.447e+00,5.094e+00,3.990e+00,5.400e+00,6.059e+00,4.289e+00,5.452e+00,6.865e+00,5.885e+00,6.641e+00,6.692e+00,6.130e+00,6.984e+00,7.856e+00,7.186e+00,7.203e+00,8.316e+00,8.675e+00,8.893e+00,9.606e+00,9.515e+00,1.030e+01,1.039e+01,1.029e+01,9.809e+00,1.057e+01,9.239e+00,1.215e+01,1.152e+01,1.210e+01,1.227e+01,1.165e+01,1.307e+01,1.160e+01,1.329e+01,1.364e+01,1.251e+01,1.334e+01,1.278e+01,1.329e+01,1.338e+01,1.348e+01,1.287e+01,1.484e+01,1.279e+01,1.599e+01,1.232e+01,1.293e+01,1.454e+01,1.453e+01,1.511e+01,1.550e+01,1.580e+01,1.466e+01,1.427e+01,1.399e+01
2.818e-01,2.350e-01,8.538e-01,4.463e-01,2.166e+00,1.880e+00,1.875e+00,1.732e+00,2.572e+00,2.368e+00,3.075e+00,4.832e+00,4.285e+00,3.986e+00,5.282e+00,4.804e+00,4.601e+00,4.063e+00,5.883e+00,5.052e+00,5.831e+00,5.302e+00,7.007e+00,7.453e+00,6.580e+00,7.496e+00,8.987e+00,8.197e+00,9.249e+00,8.764e+00,8.756e+00,1.032e+01,8.564e+00,9.485e+00,8.375e+00,9.075e+00,1.103e+01,1.096e+01,1.096e+01,1.133e+01,1.156e+01,1.122e+01,8.875e+00,1.127e+01,1.267e+01,8.872e+00,1.200e+01,1.238e+01,1.344e+01,1.222e+01,1.232e+01,1.312e+01,1.219e+01,1.405e+01,1.346e+01,1.398e+01,1.321e+01,1.416e+01,1.296e+01,1.403e+01,1.330e+01,1.348e+01,1.531e+01,1.470e+01,1.546e+01,1.231e+01,1.318e+01,1.407e+01,1.492e+01,1.540e+01,1.464e+01,1.521e+01,1.423e+01,1.326e+01,1.513e+01
3.197e-01,3.763e-01,8.546e-01,7.445e-01,1.661e+00,1.463e+00,2.137e+00,1.233e+00,1.878e+00,2.105e+00,2.425e+00,3.971e+00,3.361e+00,3.571e+00,3.681e+00,3.896e+00,4.716e+00,3.368e+00,5.821e+00,4.386e+00,5.012e+00,5.047e+00,6.494e+00,6.767e+00,5.736e+00,6.834e+00,7.576e+00,6.835e+00,7.533e+00,8.479e+00,8.070e+00,9.056e+00,8.223e+00,8.179e+00,7.945e+00,8.527e+00,1.074e+01,1.128e+01,1.055e+01,1.056e+01,1.063e+01,1.124e+01,9.790e+00,1.003e+01,1.378e+01,9.802e+00,1.298e+01,1.181e+01,1.335e+01,1.445e+01,1.241e+01,1.270e+01,1.274e+01,1.377e+01,1.390e+01,1.438e+01,1.312e+01,1.381e+01,1.458e+01,1.291e+01,1.481e+01,1.568e+01,1.552e+01,1.421e+01,1.545e+01,1.327e+01,1.431e+01,1.569e+01,1.547e+01,1.642e+01,1.497e+01,1.659e+01,1.507e+01,1.420e+01,1.364e+01
3.188e-01,2.596e-01,7.839e-01,8.061e-01,1.002e+00,1.528e+00,1.677e+00,1.343e+00,2.104e+00,2.346e+00,2.770e+00,4.773e+00,4.078e+00,4.369e+00,5.041e+00,4.518e+00,5.407e+00,3.587e+00,5.431e+00,5.272e+00,5.133e+00,4.331e+00,6.092e+00,5.977e+00,4.717e+00,5.630e+00,6.995e+00,6.689e+00,7.851e+00,6.140e+00,8.031e+00,8.026e+00,7.262e+00,7.569e+00,6.614e+00,7.944e+00,9.670e+00,9.203e+00,9.672e+00,9.917e+00,9.485e+00,1.171e+01,9.373e+00,1.021e+01,1.152e+01,9.972e+00,1.100e+01,1.225e+01,1.183e+01,1.324e+01,1.227e+01,1.286e+01,1.391e+01,1.373e+01,1.300e+01,1.443e+01,1.467e+01,1.485e+01,1.526e+01,1.389e+01,1.418e+01,1.439e+01,1.644e+01,1.459e+01,1.628e+01,1.484e+01,1.389e+01,1.582e+01,1.667e+01,1.793e+01,1.628e+01,1.599e+01,1.676e+01,1.386e+01,1.455e+01
2.440e-01,4.092e-01,8.496e-01,1.147e+00,2.395e+00,2.548e+00,2.448e+00,2.343e+00,3.105e+00,2.663e+00,3.067e+00,4.706e+00,4.651e+00,4.553e+00,5.997e+00,5.230e+00,5.937e+00,4.300e+00,7.174e+00,6.106e+00,6.922e+00,6.507e+00,8.581e+00,8.240e+00,6.916e+00,7.587e+00,9.703e+00,9.211e+00,9.327e+00,8.999e+00,9.305e+00,1.061e+01,9.021e+00,9.473e+00,9.502e+00,9.248e+00,1.044e+01,1.207e+01,1.108e+01,1.250e+01,1.210e+01,1.267e+01,1.049e+01,1.192e+01,1.347e+01,9.448e+00,1.327e+01,1.531e+01,1.525e+01,1.453e+01,1.472e+01,1.323e+01,1.376e+01,1.561e+01,1.565e+01,1.515e+01,1.557e+01,1.654e+01,1.674e+01,1.665e+01,1.612e+01,1.613e+01,1.843e+01,1.735e+01,1.797e+01,1.301e+01,1.617e+01,1.695e+01,1.744e+01,1.819e+01,1.848e+01,1.698e+01,1.673e+01,1.482e+01,1.713e+01
2.393e-01,3.802e-01,8.256e-01,1.222e+00,2.278e+00,2.450e+00,2.387e+00,2.317e+00,2.735e+00,2.632e+00,2.844e+00,4.445e+00,4.229e+00,3.688e+00,5.309e+00,4.673e+00,4.712e+00,3.510e+00,4.973e+00,4.483e+00,5.458e+00,5.825e+00,6.242e+00,6.368e+00,6.230e+00,7.350e+00,7.501e+00,7.463e+00,7.363e+00,7.497e+00,8.069e+00,8.918e+00,8.295e+00,7.913e+00,7.719e+00,7.592e+00,8.816e+00,1.089e+01,8.911e+00,9.618e+00,9.878e+00,1.075e+01,9.913e+00,9.267e+00,1.249e+01,9.406e+00,1.320e+01,1.225e+01,1.353e+01,1.344e+01,1.366e+01,1.284e+01,1.272e+01,1.469e+01,1.307e+01,1.455e+01,1.376e+01,1.358e+01,1.451e+01,1.544e+01,1.465e+01,1.446e+01,1.703e+01,1.551e+01,1.609e+01,1.298e+01,1.471e+01,1.577e+01,1.590e+01,1.686e+01,1.688e+01,1.725e+01,1.475e+01,1.479e+01,1.419e+01
3.332e-01,3.288e-01,9.855e-01,1.087e+00,2.260e+00,2.393e+00,2.460e+00,2.327e+00,3.090e+00,3.103e+00,3.292e+00,5.033e+00,4.819e+00,4.612e+00,5.687e+00,4.813e+00,5.380e+00,3.987e+00,5.328e+00,5.543e+00,6.543e+00,5.328e+00,7.047e+00,6.410e+00,5.814e+00,7.078e+00,8.466e+00,7.171e+00,8.070e+00,6.589e+00,7.657e+00,7.877e+00,7.927e+00,7.357e+00,7.694e+00,7.706e+00,8.081e+00,9.999e+00,8.053e+00,9.744e+00,9.142e+00,1.023e+01,8.467e+00,8.640e+00,1.103e+01,7.293e+00,1.106e+01,1.153e+01,1.118e+01,1.285e+01,1.186e+01,1.097e+01,1.163e+01,1.371e+01,1.267e+01,1.361e+01,1.187e+01,1.236e+01,1.373e+01,1.411e+01,1.405e+01,1.268e+01,1.613e+01,1.541e+01,1.537e+01,1.216e+01,1.357e+01,1.373e+01,1.579e+01,1.512e+01,1.633e+01,1.451e+01,1.541e+01,1.395e+01,1.329e+01
9.099e-02,1.219e-01,2.618e-01,2.469e-01,8.227e-01,8.098e-01,1.041e+00,1.374e+00,2.331e+00,1.908e+00,2.549e+00,3.959e+00,3.507e+00,3.343e+00,4.217e+00,3.609e+00,4.489e+00,3.649e+00,4.426e+00,4.221e+00,4.747e+00,4.135e+00,5.129e+00,5.660e+00,4.223e+00,5.803e+00,6.426e+00,6.101e+00,5.870e+00,6.544e+00,7.107e+00,6.947e+00,7.308e+00,7.884e+00,6.207e+00,7.556e+00,8.403e+00,9.372e+00,8.682e+00,9.093e+00,9.396e+00,9.387e+00,9.529e+00,9.812e+00,9.132e+00,9.144e+00,1.061e+01,1.065e+01,1.194e+01,1.031e+01,1.152e+01,1.106e+01,1.062e+01,1.269e+01,1.153e+01,1.164e+01,1.212e+01,1.093e+01,1.222e+01,1.287e+01,1.251e+01,1.316e+01,1.450e+01,1.427e+01,1.448e+01,1.148e+01,1.338e+01,1.269e+01,1.413e+01,1.455e+01,1.424e+01,1.313e+01,1.344e+01,1.432e+01,1.250e+01
2.009e-01,1.216e-01,5.145e-01,7.590e-01,1.011e+00,1.610e+00,1.559e+00,1.806e+00,2.803e+00,3.265e+00,3.366e+00,5.274e+00,4.255e+00,4.083e+00,4.793e+00,4.176e+00,5.129e+00,3.506e+00,4.985e+00,5.480e+00,5.724e+00,4.715e+00,6.648e+00,6.434e+00,5.672e+00,6.785e+00,7.615e+00,7.494e+00,7.594e+00,6.296e+00,7.593e+00,8.504e+00,7.767e+00,8.207e+00,6.905e+00,8.128e+00,9.974e+00,1.014e+01,1.005e+01,1.028e+01,9.234e+00,1.155e+01,1.013e+01,1.095e+01,1.153e+01,1.020e+01,1.229e+01,1.160e+01,1.297e+01,1.247e+01,1.294e+01,1.265e+01,1.236e+01,1.383e+01,1.335e+01,1.400e+01,1.416e+01,1.402e+01,1.353e+01,1.481e+01,1.502e+01,1.518e+01,1.785e+01,1.656e+01,1.765e+01,1.373e+01,1.492e+01,1.606e+01,1.747e+01,1.770e+01,1.639e+01,1.736e+01,1.811e+01,1.598e+01,1.560e+01
3.933e-01,2.439e-01,1.027e+00,8.816e-01,1.968e+00,2.327e+00,2.357e+00,1.872e+00,1.811e+00,2.878e+00,2.594e+00,4.501e+00,3.653e+00,4.432e+00,3.999e+00,3.632e+00,4.851e+00,3.315e+00,5.351e+00,5.216e+00,5.503e+00,5.202e+00,7.020e+00,6.411e+00,5.882e+00,5.885e+00,7.578e+00,6.773e+00,7.948e+00,8.119e+00,6.608e+00,8.399e+00,8.400e+00,8.078e+00,7.804e+00,8.441e+00,9.981e+00,1.050e+01,1.054e+01,1.080e+01,9.688e+00,1.092e+01,9.475e+00,1.013e+01,1.241e+01,9.220e+00,1.233e+01,1.348e+01,1.386e+01,1.401e+01,1.430e+01,1.378e+01,1.286e+01,1.426e+01,1.491e+01,1.423e+01,1.310e+01,1.526e+01,1.515e+01,1.425e+01,1.447e+01,1.544e+01,1.627e+01,1.656e+01,1.669e+01,1.303e+01,1.613e+01,1.505e+01,1.713e+01,1.695e+01,1.710e+01,1.692e+01,1.612e+01,1.665e+01,1.469e+01
6.869e-02,1.257e-01,3.710e-01,4.629e-01,1.614e+00,1.870e+00,1.246e+00,2.031e+00,2.575e+00,2.003e+00,2.658e+00,3.544e+00,3.555e+00,3.756e+00,4.067e+00,3.131e+00,3.848e+00,2.936e+00,4.289e+00,3.713e+00,4.501e+00,3.727e+00,6.060e+00,5.599e+00,4.568e+00,5.137e+00,7.182e+00,6.660e+00,6.290e+00,6.209e+00,6.480e+00,7.140e+00,7.950e+00,7.537e+00,7.570e+00,8.146e+00,8.622e+00,9.664e+00,9.474e+00,1.051e+01,9.914e+00,1.023e+01,9.862e+00,9.499e+00,1.124e+01,1.023e+01,1.128e+01,1.214e+01,1.225e+01,1.308e+01,1.257e+01,1.283e+01,1.223e+01,1.401e+01,1.312e+01,1.311e+01,1.303e+01,1.308e+01,1.321e+01,1.343e+01,1.415e+01,1.417e+01,1.608e+01,1.557e+01,1.679e+01,1.379e+01,1.544e+01,1.453e+01,1.704e+01,1.762e+01,1.689e+01,1.709e+01,1.678e+01,1.563e+01,1.568e+01
1.119e-01,2.747e-01,3.595e-01,7.724e-01,8.652e-01,1.744e+00,1.448e+00,1.478e+00,2.379e+00,2.183e+00,2.070e+00,3.327e+00,3.266e+00,3.219e+00,4.109e+00,4.413e+00,4.647e+00,3.433e+00,5.351e+00,5.263e+00,5.379e+00,4.884e+00,6.346e+00,6.528e+00,4.937e+00,5.239e+00,6.763e+00,7.272e+00,6.904e+00,6.485e+00,7.487e+00,7.189e+00,7.843e+00,7.437e+00,7.910e+00,7.295e+00,8.388e+00,1.017e+01,8.377e+00,9.662e+00,9.598e+00,1.020e+01,9.557e+00,1.038e+01,1.111e+01,1.004e+01,1.110e+01,1.225e+01,1.242e+01,1.254e+01,1.317e+01,1.280e+01,1.322e+01,1.491e+01,1.307e+01,1.371e+01,1.401e+01,1.369e+01,1.367e+01,1.433e+01,1.479e+01,1.527e+01,1.845e+01,1.706e+01,1.693e+01,1.539e+01,1.691e+01,1.708e+01,1.726e+01,1.915e+01,1.631e+01,1.830e+01,1.825e+01,1.720e+01,1.667e+01
1.191e-01,2.640e-01,5.211e-01,7.033e-01,1.942e+00,2.289e+00,1.851e+00,2.415e+00,2.968e+00,2.759e+00,3.224e+00,4.954e+00,4.251e+00,4.808e+00,4.797e+00,4.067e+00,5.744e+00,3.935e+00,6.273e+00,5.141e+00,6.134e+00,5.657e+00,7.573e+00,7.595e+00,6.445e+00,6.838e+00,9.090e+00,7.681e+00,7.944e+00,8.854e+00,7.862e+00,8.637e+00,8.539e+00,8.201e+00,9.024e+00,9.437e+00,1.010e+01,1.051e+01,1.049e+01,1.064e+01,1.126e+01,1.198e+01,9.428e+00,1.115e+01,1.222e+01,1.065e+01,1.259e+01,1.289e+01,1.459e+01,1.317e+01,1.246e+01,1.130e+01,1.223e+01,1.415e+01,1.361e+01,1.311e+01,1.375e+01,1.385e+01,1.324e+01,1.425e+01,1.407e+01,1.544e+01,1.914e+01,1.756e+01,1.735e+01,1.398e+01,1.575e+01,1.634e+01,1.745e+01,1.890e+01,1.779e+01,1.717e+01,1.770e+01,1.793e+01,1.738e+01
2.969e-01,1.960e-01,7.617e-01,4.083e-01,1.366e+00,1.890e+00,1.707e+00,2.008e+00,2.743e+00,2.810e+00,3.107e+00,4.216e+00,3.587e+00,3.726e+00,4.352e+00,4.209e+00,4.066e+00,3.700e+00,5.496e+00,5.087e+00,5.682e+00,5.431e+00,8.600e+00,6.756e+00,5.925e+00,6.649e+00,7.357e+00,7.860e+00,7.188e+00,7.937e+00,7.712e+00,8.089e+00,8.458e+00,8.251e+00,8.194e+00,8.594e+00,1.031e+01,1.114e+01,1.063e+01,1.086e+01,1.034e+01,1.152e+01,9.676e+00,1.133e+01,1.271e+01,9.394e+00,1.174e+01,1.299e+01,1.318e+01,1.296e+01,1.288e+01,1.149e+01,1.286e+01,1.426e+01,1.356e+01,1.372e+01,1.429e+01,1.283e+01,1.449e+01,1.454e+01,1.418e+01,1.444e+01,1.927e+01,1.694e+01,1.745e+01,1.434e+01,1.516e+01,1.555e+01,1.907e+01,1.885e+01,1.813e+01,1.761e+01,1.908e+01,1.768e+01,1.650e+01
3.915e-01,3.919e-01,1.008e+00,9.447e-01,1.906e+00,1.918e+00,2.632e+00,1.702e+00,2.648e+00,3.162e+00,2.971e+00,4.512e+00,4.018e+00,4.353e+00,4.560e+00,5.398e+00,5.760e+00,4.390e+00,6.494e+00,6.183e+00,7.327e+00,6.310e+00,8.018e+00,7.915e+00,6.560e+00,7.872e+00,7.682e+00,7.836e+00,8.371e+00,9.403e+00,7.956e+00,8.293e+00,9.372e+00,7.490e+00,8.451e+00,9.088e+00,1.017e+01,1.135e+01,1.007e+01,1.022e+01,1.036e+01,1.162e+01,1.034e+01,1.086e+01,1.279e+01,9.127e+00,1.347e+01,1.294e+01,1.366e+01,1.404e+01,1.310e+01,1.268e+01,1.357e+01,1.510e+01,1.317e+01,1.426e+01,1.441e+01,1.348e+01,1.481e+01,1.634e+01,1.484e+01,1.550e+01,1.773e+01,1.650e+01,1.766e+01,1.455e+01,1.565e+01,1.539e+01,1.909e+01,1.881e+01,1.943e+01,1.809e+01,1.834e+01,1.808e+01,1.658e+01
4.116e-03,9.681e-03,1.677e-01,1.467e-01,1.480e+00,1.550e+00,1.081e+00,1.947e+00,2.626e+00,2.507e+00,2.793e+00,3.791e+00,3.356e+00,3.088e+00,4.338e+00,3.199e+00,3.977e+00,3.142e+00,5.135e+00,5.453e+00,5.524e+00,4.915e+00,6.306e+00,6.707e+00,5.275e+00,5.950e+00,7.381e+00,7.128e+00,6.770e+00,6.963e+00,6.573e+00,7.500e+00,6.790e+00,7.151e+00,7.363e+00,7.796e+00,7.994e+00,9.021e+00,9.380e+00,1.044e+01,9.943e+00,9.546e+00,8.997e+00,1.063e+01,1.073e+01,7.874e+00,1.051e+01,1.187e+01,1.196e+01,1.195e+01,1.202e+01,1.066e+01,1.206e+01,1.274e+01,1.264e+01,1.237e+01,1.196e+01,1.244e+01,1.254e+01,1.316e+01,1.380e+01,1.487e+01,1.705e+01,1.542e+01,1.629e+01,1.332e+01,1.440e+01,1.494e+01,1.725e+01,1.723e+01,1.650e+01,1.583e+01,1.553e+01,1.678e+01,1.537e+01
2.435e-01,4.323e-01,7.346e-01,1.263e+00,1.648e+00,1.921e+00,2.307e+00,1.658e+00,2.272e+00,2.388e+00,2.544e+00,4.393e+00,3.973e+00,3.620e+00,4.815e+00,4.824e+00,5.411e+00,3.549e+00,5.971e+00,5.110e+00,6.008e+00,5.932e+00,6.888e+00,7.986e+00,6.451e+00,7.236e+00,8.849e+00,8.170e+00,7.889e+00,8.486e+00,8.764e+00,9.302e+00,9.348e+00,8.200e+00,8.224e+00,7.952e+00,1.015e+01,1.207e+01,1.012e+01,1.141e+01,1.109e+01,1.105e+01,1.117e+01,1.001e+01,1.266e+01,1.041e+01,1.315e+01,1.410e+01,1.458e+01,1.351e+01,1.352e+01,1.356e+01,1.377e+01,1.451e+01,1.413e+01,1.468e+01,1.418e+01,1.479e+01,1.498e+01,1.556e+01,1.651e+01,1.576e+01,1.908e+01,1.655e+01,1.930e+01,1.521e+01,1.726e+01,1.874e+01,1.912e+01,2.186e+01,2.104e+01,2.213e+01,2.093e+01,1.832e+01,1.913e+01
2.672e-04,7.342e-02,1.599e-01,3.325e-01,1.077e+00,1.596e+00,8.472e-01,1.590e+00,1.794e+00,1.737e+00,1.911e+00,3.285e+00,2.776e+00,3.130e+00,3.781e+00,3.126e+00,4.045e+00,2.841e+00,4.472e+00,4.183e+00,4.376e+00,4.901e+00,5.612e+00,5.564e+00,5.268e+00,4.945e+00,6.253e+00,5.533e+00,5.861e+00,6.717e+00,6.089e+00,6.882e+00,7.000e+00,8.166e+00,6.552e+00,6.381e+00,8.659e+00,8.938e+00,8.535e+00,8.731e+00,8.501e+00,8.076e+00,8.248e+00,9.007e+00,1.017e+01,8.030e+00,9.448e+00,1.114e+01,1.124e+01,1.140e+01,1.088e+01,1.118e+01,1.090e+01,1.160e+01,1.220e+01,1.157e+01,1.069e+01,1.158e+01,1.218e+01,1.125e+01,1.051e+01,1.229e+01,1.361e+01,1.329e+01,1.366e+01,1.178e+01,1.272e+01,1.335e+01,1.445e+01,1.509e+01,1.558e+01,1.501e+01,1.422e+01,1.473e+01,1.297e+01
2.021e-01,1.975e-01,6.801e-01,8.435e-01,1.517e+00,2.221e+00,1.427e+00,2.101e+00,2.297e+00,2.163e+00,2.373e+00,3.329e+00,3.057e+00,3.105e+00,3.686e+00,2.729e+00,3.878e+00,2.617e+00,4.019e+00,3.849e+00,4.001e+00,3.979e+00,5.478e+00,4.278e+00,5.310e+00,5.030e+00,6.763e+00,5.868e+00,6.497e+00,6.714e+00,7.210e+00,7.947e+00,7.526e+00,7.284e+00,7.399e+00,8.456e+00,8.142e+00,1.000e+01,1.020e+01,1.155e+01,9.601e+00,1.187e+01,9.504e+00,1.101e+01,1.334e+01,9.888e+00,1.228e+01,1.254e+01,1.289e+01,1.395e+01,1.328e+01,1.144e+01,1.312e+01,1.389e+01,1.314e+01,1.378e+01,1.474e+01,1.386e+01,1.481e+01,1.499e+01,1.404e+01,1.566e+01,1.794e+01,1.602e+01,1.757e+01,1.442e+01,1.536e+01,1.661e+01,1.925e+01,1.998e+01,1.927e+01,1.833e+01,1.936e+01,1.841e+01,1.716e+01
3.061e-01,4.066e-01,8.515e-01,6.619e-01,1.741e+00,1.495e+00,2.074e+00,1.378e+00,2.252e+00,1.810e+00,2.368e+00,4.034e+00,3.686e+00,3.827e+00,4.947e+00,4.005e+00,5.488e+00,3.855e+00,6.029e+00,5.447e+00,6.076e+00,5.549e+00,6.019e+00,6.856e+00,5.876e+00,6.710e+00,7.378e+00,7.185e+00,7.474e+00,7.458e+00,7.605e+00,9.083e+00,7.810e+00,8.740e+00,7.043e+00,6.956e+00,9.245e+00,1.031e+01,9.573e+00,9.952e+00,9.857e+00,1.092e+01,1.003e+01,9.902e+00,1.141e+01,9.814e+00,1.159e+01,1.336e+01,1.413e+01,1.404e+01,1.327e+01,1.280e+01,1.296e+01,1.345e+01,1.319e+01,1.333e+01,1.367e+01,1.495e+01,1.487e+01,1.441e+01,1.469e+01,1.621e+01,1.867e+01,1.612e+01,1.669e+01,1.430e+01,1.735e+01,1.860e+01,1.849e+01,2.073e+01,1.815e+01,1.970e+01,1.855e+01,1.848e+01,1.794e+01
3.160e-01,3.167e-01,9.254e-01,6.777e-01,2.120e+00,2.221e+00,2.196e+00,1.872e+00,2.688e+00,2.897e+00,2.863e+00,4.622e+00,3.966e+00,4.315e+00,4.637e+00,4.358e+00,5.241e+00,3.892e+00,5.539e+00,5.535e+00,6.231e+00,4.864e+00,6.600e+00,7.212e+00,6.463e+00,7.006e+00,8.193e+00,7.203e+00,8.244e+00,7.258e+00,7.116e+00,8.257e+00,7.628e+00,7.605e+00,7.646e+00,7.584e+00,9.313e+00,1.036e+01,8.948e+00,1.095e+01,1.052e+01,1.013e+01,8.906e+00,1.095e+01,1.146e+01,8.402e+00,1.205e+01,1.262e+01,1.333e+01,1.402e+01,1.349e+01,1.216e+01,1.312e+01,1.433e+01,1.435e+01,1.429e+01,1.311e+01,1.355e+01,1.479e+01,1.332e+01,1.442e+01,1.423e+01,1.696e+01,1.754e+01,1.729e+01,1.485e+01,1.681e+01,1.658e+01,1.835e+01,1.840e+01,1.900e+01,2.000e+01,1.766e+01,1.965e+01,1.903e+01
