4.405e-01,7.078e-03,3.708e-01,2.825e-01,4.232e-01,7.709e-03,7.675e-01,3.903e-01,9.303e-02,3.017e-01,8.990e-01,2.151e-02,3.940e-01,3.006e-01,3.289e-02,5.106e-01,4.554e-01,9.541e-01,8.127e-01,5.965e-01,1.488e-01,2.609e-01,1.416e-01,1.177e-01,1.072e-01,6.291e-01,3.404e-01,7.567e-01,7.145e-01,5.337e-01,9.645e-01,7.310e-01,5.771e-01,8.046e-01,5.504e-01,7.823e-01,7.672e-01,7.478e-01,2.968e-01,2.968e-01,1.200e-01,6.609e-01,7.461e-01,9.370e-01,4.427e-02,5.080e-01,5.041e-01,2.810e-01,6.713e-01,2.639e-01,3.436e-01,8.696e-02,7.568e-01,1.421e-02,5.592e-01,6.482e-01,3.039e-01,5.401e-01,4.944e-01,1.039e-01,1.080e-01,9.110e-02,1.353e-01,1.212e-01,6.672e-01,4.909e-01,8.427e-01,1.878e-01,8.505e-01,9.924e-01,3.679e-01,2.596e-01
2.945e-01,5.289e-01,1.044e+00,2.209e-01,5.495e-01,1.844e-01,1.043e+00,3.909e-01,1.422e-01,1.103e+00,1.165e+00,5.291e-01,6.455e-01,2.354e-01,5.537e-01,1.277e+00,6.384e-01,8.196e-01,9.531e-01,1.109e+00,7.920e-01,9.547e-01,2.165e-01,9.907e-01,3.621e-01,5.840e-01,3.598e-01,1.007e+00,1.140e+00,5.896e-01,1.594e+00,1.263e+00,1.185e+00,1.262e+00,5.799e-01,7.941e-01,1.122e+00,7.475e-01,7.841e-01,8.606e-01,1.035e+00,5.834e-01,7.721e-01,9.477e-01,1.005e+00,7.324e-01,1.256e+00,8.457e-01,9.454e-01,7.645e-01,3.780e-01,2.314e-01,8.859e-01,2.427e-01,6.268e-01,6.318e-01,1.160e+00,1.021e+00,4.450e-01,8.996e-01,3.736e-01,8.004e-01,8.370e-01,9.883e-01,5.781e-01,1.063e+00,1.456e+00,3.954e-01,1.324e+00,8.117e-01,4.511e-01,8.065e-01
7.862e-02,1.522e-01,6.888e-01,7.418e-01,8.077e-01,3.116e-01,1.118e+00,2.801e-01,7.275e-02,5.417e-01,1.098e+00,9.098e-01,6.319e-01,2.982e-01,2.475e-01,9.758e-01,5.681e-01,4.706e-01,4.120e-01,1.189e+00,6.983e-01,8.266e-01,1.014e+00,1.033e+00,1.421e-01,5.849e-01,9.731e-01,1.104e+00,5.884e-01,5.874e-01,1.416e+00,1.329e+00,3.782e-01,1.084e+00,8.130e-01,1.108e+00,1.171e+00,1.136e+00,2.303e-01,6.253e-01,3.454e-01,1.015e+00,2.678e-01,5.281e-01,7.778e-01,8.107e-01,4.288e-01,5.114e-01,1.004e+00,4.155e-01,1.054e+00,5.602e-01,1.028e+00,1.009e+00,5.594e-01,8.458e-01,3.958e-01,6.020e-01,3.447e-01,8.364e-01,9.497e-01,5.585e-01,3.900e-01,9.318e-01,8.911e-01,1.285e+00,1.165e+00,7.245e-01,5.659e-01,4.033e-01,8.160e-01,4.056e-01
3.826e-01,3.492e-01,1.088e+00,1.135e+00,1.281e+00,9.223e-01,2.419e+00,6.686e-01,1.029e+00,1.941e+00,1.678e+00,1.016e+00,9.394e-01,8.927e-01,5.629e-01,1.908e+00,1.037e+00,1.331e+00,1.097e+00,2.088e+00,1.402e+00,1.699e+00,1.215e+00,1.457e+00,8.226e-01,1.911e+00,1.864e+00,2.375e+00,1.264e+00,9.383e-01,2.740e+00,2.586e+00,1.752e+00,1.775e+00,1.347e+00,2.169e+00,2.267e+00,2.227e+00,1.432e+00,1.426e+00,8.047e-01,1.402e+00,9.058e-01,1.787e+00,1.948e+00,1.509e+00,1.230e+00,9.867e-01,1.693e+00,1.726e+00,1.412e+00,8.628e-01,2.212e+00,9.330e-01,1.253e+00,1.503e+00,1.177e+00,1.660e+00,1.467e+00,1.728e+00,9.487e-01,8.953e-01,1.421e+00,1.436e+00,2.013e+00,1.836e+00,2.607e+00,1.449e+00,1.443e+00,1.169e+00,1.541e+00,1.551e+00
1.844e-02,3.077e-01,7.491e-01,7.928e-01,1.780e+00,1.636e+00,2.189e+00,4.208e-01,1.071e+00,1.741e+00,1.407e+00,1.597e+00,1.529e+00,9.306e-01,1.276e+00,2.039e+00,1.354e+00,1.179e+00,1.007e+00,2.030e+00,1.806e+00,2.249e+00,1.901e+00,1.395e+00,5.887e-01,1.711e+00,1.366e+00,2.295e+00,1.405e+00,5.155e-01,2.279e+00,2.038e+00,1.879e+00,2.041e+00,8.806e-01,2.114e+00,1.862e+00,1.711e+00,1.459e+00,1.267e+00,1.178e+00,9.654e-01,5.922e-01,1.781e+00,2.386e+00,9.717e-01,1.101e+00,7.774e-01,1.362e+00,1.307e+00,1.061e+00,1.604e+00,2.141e+00,1.763e+00,6.997e-01,1.124e+00,1.502e+00,1.439e+00,1.276e+00,1.720e+00,1.113e+00,1.580e+00,1.953e+00,1.693e+00,1.405e+00,1.888e+00,1.705e+00,1.822e+00,1.472e+00,7.396e-01,1.160e+00,2.001e+00
2.256e-01,4.522e-01,1.234e+00,9.273e-01,2.023e+00,2.411e+00,3.340e+00,1.484e+00,1.653e+00,2.505e+00,2.564e+00,2.370e+00,2.015e+00,1.756e+00,2.244e+00,2.663e+00,2.524e+00,2.175e+00,2.005e+00,3.378e+00,2.505e+00,2.772e+00,2.763e+00,2.170e+00,5.946e-01,2.243e+00,2.332e+00,3.503e+00,2.063e+00,1.173e+00,3.007e+00,2.510e+00,2.762e+00,3.224e+00,1.985e+00,2.900e+00,3.151e+00,2.088e+00,2.145e+00,1.510e+00,2.159e+00,2.011e+00,1.835e+00,3.021e+00,3.008e+00,1.865e+00,2.044e+00,1.987e+00,2.552e+00,1.738e+00,1.541e+00,2.165e+00,3.212e+00,2.305e+00,1.214e+00,1.920e+00,1.820e+00,2.333e+00,1.253e+00,2.029e+00,1.785e+00,2.415e+00,2.059e+00,2.317e+00,2.163e+00,2.774e+00,3.138e+00,2.127e+00,2.263e+00,1.409e+00,1.551e+00,2.030e+00
3.769e-01,9.122e-02,5.296e-01,7.955e-01,1.115e+00,1.744e+00,2.954e+00,2.036e+00,1.996e+00,2.810e+00,2.108e+00,2.010e+00,1.268e+00,2.483e+00,1.334e+00,2.145e+00,1.881e+00,1.994e+00,1.526e+00,2.670e+00,2.399e+00,1.612e+00,1.881e+00,1.078e+00,7.360e-01,3.133e+00,2.421e+00,3.139e+00,2.085e+00,8.880e-01,2.952e+00,1.975e+00,2.256e+00,2.768e+00,1.902e+00,2.443e+00,3.312e+00,2.031e+00,2.259e+00,1.520e+00,1.862e+00,2.086e+00,2.124e+00,3.474e+00,2.354e+00,1.534e+00,1.717e+00,1.415e+00,2.112e+00,2.632e+00,1.223e+00,1.601e+00,2.649e+00,1.841e+00,1.423e+00,2.495e+00,1.672e+00,2.769e+00,2.158e+00,2.081e+00,1.399e+00,1.674e+00,1.722e+00,1.783e+00,2.186e+00,2.384e+00,2.671e+00,2.004e+00,2.376e+00,1.413e+00,2.210e+00,1.559e+00
1.361e-02,2.888e-01,5.222e-01,3.229e-01,6.073e-01,8.493e-01,1.335e+00,1.289e+00,1.156e+00,2.501e+00,1.698e+00,1.730e+00,1.558e+00,1.247e+00,1.074e+00,1.787e+00,1.724e+00,1.471e+00,7.814e-01,1.781e+00,1.691e+00,1.084e+00,1.686e+00,1.802e+00,1.036e+00,1.855e+00,1.351e+00,1.979e+00,1.968e+00,9.846e-01,2.018e+00,1.147e+00,1.906e+00,2.239e+00,1.039e+00,1.212e+00,2.097e+00,1.692e+00,1.522e+00,1.807e+00,1.501e+00,9.884e-01,1.703e+00,2.264e+00,2.354e+00,7.577e-01,1.062e+00,1.093e+00,1.158e+00,1.601e+00,1.160e+00,9.360e-01,1.143e+00,1.962e+00,6.552e-01,1.866e+00,2.150e+00,1.462e+00,1.901e+00,2.125e+00,8.561e-01,2.003e+00,1.989e+00,1.755e+00,1.630e+00,1.366e+00,1.494e+00,1.350e+00,1.942e+00,3.913e-01,1.985e+00,1.692e+00
2.969e-01,5.038e-02,6.026e-01,8.308e-01,1.183e+00,1.384e+00,2.531e+00,2.144e+00,2.318e+00,3.546e+00,3.257e+00,3.206e+00,2.573e+00,2.638e+00,1.914e+00,2.992e+00,3.256e+00,2.634e+00,2.012e+00,3.603e+00,2.556e+00,2.331e+00,2.888e+00,2.711e+00,1.614e+00,3.896e+00,3.181e+00,3.362e+00,3.401e+00,1.993e+00,3.065e+00,2.198e+00,2.350e+00,3.673e+00,2.711e+00,3.201e+00,3.773e+00,2.848e+00,2.176e+00,1.971e+00,2.098e+00,2.401e+00,2.919e+00,4.123e+00,3.457e+00,2.367e+00,1.675e+00,2.073e+00,3.107e+00,2.911e+00,2.275e+00,2.217e+00,2.935e+00,3.120e+00,1.406e+00,3.937e+00,3.062e+00,3.141e+00,2.925e+00,3.005e+00,2.062e+00,2.947e+00,2.369e+00,3.089e+00,2.914e+00,2.422e+00,2.692e+00,2.092e+00,3.114e+00,2.055e+00,2.995e+00,2.186e+00
6.553e-02,5.711e-02,2.363e-01,5.414e-01,9.729e-01,1.184e+00,1.845e+00,1.605e+00,2.032e+00,3.648e+00,2.606e+00,2.918e+00,2.527e+00,2.585e+00,1.785e+00,3.170e+00,2.541e+00,2.751e+00,2.120e+00,3.455e+00,3.151e+00,2.591e+00,2.623e+00,2.849e+00,2.117e+00,4.282e+00,2.774e+00,2.920e+00,3.184e+00,1.435e+00,2.946e+00,2.567e+00,3.069e+00,3.338e+00,1.857e+00,2.852e+00,3.222e+00,2.442e+00,2.317e+00,2.438e+00,2.258e+00,2.395e+00,2.813e+00,3.754e+00,3.331e+00,1.709e+00,1.443e+00,2.112e+00,2.619e+00,2.959e+00,2.188e+00,2.811e+00,2.837e+00,3.239e+00,1.422e+00,4.064e+00,3.176e+00,2.867e+00,3.712e+00,2.907e+00,2.354e+00,2.914e+00,3.462e+00,3.312e+00,3.063e+00,2.261e+00,1.823e+00,2.333e+00,3.633e+00,1.334e+00,3.581e+00,2.460e+00
1.560e-02,2.540e-01,7.229e-01,5.989e-01,1.057e+00,7.709e-01,1.422e+00,7.374e-01,7.894e-01,1.887e+00,2.477e+00,2.103e+00,2.366e+00,1.815e+00,1.569e+00,2.231e+00,2.619e+00,2.128e+00,2.306e+00,3.098e+00,2.231e+00,2.065e+00,2.176e+00,2.535e+00,1.721e+00,2.838e+00,2.510e+00,2.715e+00,1.997e+00,1.763e+00,2.182e+00,2.540e+00,2.619e+00,2.533e+00,1.432e+00,2.690e+00,2.378e+00,1.744e+00,1.855e+00,2.411e+00,2.404e+00,1.934e+00,2.201e+00,1.942e+00,2.512e+00,1.369e+00,1.837e+00,2.047e+00,2.325e+00,2.218e+00,2.190e+00,2.087e+00,2.577e+00,2.232e+00,1.867e+00,3.026e+00,2.053e+00,2.252e+00,2.345e+00,1.820e+00,2.596e+00,2.716e+00,2.275e+00,3.279e+00,1.872e+00,2.035e+00,2.030e+00,2.370e+00,2.814e+00,8.803e-01,2.169e+00,1.785e+00
1.017e-02,3.073e-01,7.918e-01,6.611e-01,8.936e-01,1.099e+00,1.833e+00,1.453e+00,1.180e+00,2.547e+00,2.252e+00,2.966e+00,2.672e+00,2.327e+00,2.082e+00,2.623e+00,2.597e+00,1.792e+00,2.165e+00,3.202e+00,2.247e+00,2.290e+00,2.684e+00,3.386e+00,1.490e+00,2.204e+00,2.595e+00,2.983e+00,2.592e+00,1.414e+00,3.295e+00,2.766e+00,2.994e+00,3.652e+00,2.178e+00,1.831e+00,2.962e+00,2.595e+00,2.258e+00,2.439e+00,2.216e+00,2.115e+00,2.629e+00,2.532e+00,2.999e+00,1.864e+00,1.357e+00,2.590e+00,2.057e+00,1.859e+00,2.519e+00,1.519e+00,2.124e+00,2.977e+00,1.633e+00,3.326e+00,2.793e+00,1.811e+00,2.779e+00,3.082e+00,2.107e+00,2.731e+00,2.726e+00,2.371e+00,3.001e+00,2.725e+00,2.999e+00,2.335e+00,2.986e+00,1.004e+00,2.627e+00,1.818e+00
3.236e-01,4.844e-01,1.142e+00,8.074e-01,1.412e+00,1.409e+00,2.539e+00,8.925e-01,1.499e+00,2.775e+00,2.328e+00,2.333e+00,3.339e+00,2.333e+00,3.178e+00,4.006e+00,2.297e+00,2.787e+00,3.660e+00,4.403e+00,3.019e+00,3.573e+00,2.661e+00,3.646e+00,2.544e+00,3.380e+00,2.985e+00,4.009e+00,3.051e+00,1.953e+00,3.921e+00,4.564e+00,3.984e+00,4.254e+00,2.630e+00,3.885e+00,3.950e+00,2.637e+00,2.824e+00,2.590e+00,2.307e+00,2.895e+00,3.031e+00,3.487e+00,3.552e+00,2.485e+00,2.866e+00,3.541e+00,3.301e+00,2.948e+00,3.135e+00,2.451e+00,3.647e+00,2.723e+00,2.015e+00,3.962e+00,2.675e+00,2.757e+00,3.745e+00,2.840e+00,3.087e+00,3.159e+00,3.667e+00,3.077e+00,4.155e+00,3.446e+00,4.431e+00,2.968e+00,4.194e+00,2.921e+00,2.532e+00,2.638e+00
1.273e-01,1.654e-02,2.115e-01,3.824e-01,1.065e+00,1.592e+00,1.898e+00,1.495e+00,2.221e+00,3.261e+00,2.993e+00,3.327e+00,3.706e+00,4.185e+00,3.903e+00,4.267e+00,4.035e+00,3.778e+00,4.712e+00,5.260e+00,3.432e+00,4.217e+00,3.791e+00,4.718e+00,3.761e+00,4.713e+00,4.326e+00,4.048e+00,4.411e+00,2.301e+00,3.342e+00,4.203e+00,4.502e+00,5.073e+00,3.398e+00,4.371e+00,3.994e+00,2.953e+00,3.435e+00,3.656e+00,3.278e+00,3.748e+00,4.722e+00,4.617e+00,3.851e+00,2.528e+00,3.168e+00,3.629e+00,3.560e+00,4.031e+00,3.106e+00,3.860e+00,4.059e+00,3.735e+00,2.329e+00,5.955e+00,3.768e+00,3.573e+00,4.613e+00,3.010e+00,3.438e+00,4.844e+00,4.910e+00,4.794e+00,4.434e+00,3.516e+00,3.472e+00,3.783e+00,5.015e+00,2.822e+00,4.123e+00,3.299e+00
1.981e-01,1.098e-01,5.468e-01,5.535e-01,1.099e+00,8.134e-01,1.666e+00,1.391e+00,9.201e-01,2.387e+00,2.496e+00,2.659e+00,3.469e+00,2.730e+00,3.505e+00,4.367e+00,3.065e+00,3.456e+00,3.725e+00,4.637e+00,3.638e+00,2.686e+00,3.962e+00,3.659e+00,2.918e+00,4.181e+00,3.177e+00,3.534e+00,4.620e+00,2.574e+00,4.311e+00,4.195e+00,4.029e+00,5.395e+00,3.158e+00,3.812e+00,4.765e+00,2.708e+00,3.149e+00,3.175e+00,2.196e+00,3.646e+00,4.059e+00,4.322e+00,3.511e+00,1.790e+00,2.981e+00,2.970e+00,3.291e+00,2.900e+00,3.997e+00,3.366e+00,2.962e+00,4.559e+00,1.846e+00,4.675e+00,3.058e+00,2.695e+00,4.227e+00,3.463e+00,3.975e+00,4.295e+00,4.268e+00,3.303e+00,4.317e+00,4.400e+00,3.990e+00,3.897e+00,4.823e+00,2.911e+00,4.290e+00,2.681e+00
4.392e-01,1.915e-01,9.021e-01,7.669e-01,1.044e+00,1.046e+00,2.480e+00,1.893e+00,1.309e+00,2.493e+00,2.797e+00,2.491e+00,2.523e+00,3.054e+00,2.947e+00,4.681e+00,3.385e+00,3.044e+00,3.783e+00,5.294e+00,3.623e+00,2.709e+00,4.095e+00,4.104e+00,2.555e+00,3.731e+00,3.433e+00,4.634e+00,4.685e+00,3.004e+00,4.012e+00,4.649e+00,3.271e+00,5.505e+00,3.851e+00,4.070e+00,5.074e+00,3.385e+00,3.044e+00,3.198e+00,2.704e+00,4.770e+00,3.903e+00,4.760e+00,3.165e+00,2.350e+00,3.479e+00,3.203e+00,3.600e+00,3.342e+00,3.846e+00,2.840e+00,3.162e+00,3.562e+00,2.761e+00,4.843e+00,2.935e+00,3.955e+00,4.139e+00,3.657e+00,3.964e+00,4.527e+00,3.221e+00,4.068e+00,3.937e+00,4.884e+00,4.749e+00,3.464e+00,4.298e+00,3.936e+00,4.251e+00,2.422e+00
1.755e-01,3.277e-01,6.587e-01,3.336e-01,1.307e+00,1.621e+00,2.164e+00,1.572e+00,1.627e+00,3.017e+00,2.823e+00,2.410e+00,3.293e+00,3.065e+00,3.470e+00,3.835e+00,4.450e+00,4.400e+00,4.296e+00,5.191e+00,3.977e+00,3.003e+00,3.731e+00,4.165e+00,3.875e+00,4.406e+00,3.686e+00,4.956e+00,4.372e+00,2.987e+00,4.462e+00,3.750e+00,4.627e+00,5.550e+00,2.957e+00,4.680e+00,4.995e+00,2.641e+00,4.029e+00,4.414e+00,3.389e+00,3.529e+00,4.825e+00,5.346e+00,4.028e+00,1.509e+00,4.570e+00,3.076e+00,2.953e+00,4.661e+00,2.922e+00,3.486e+00,4.044e+00,3.804e+00,2.305e+00,4.976e+00,3.929e+00,4.341e+00,3.999e+00,3.830e+00,4.064e+00,4.859e+00,4.602e+00,4.330e+00,3.421e+00,4.364e+00,4.339e+00,4.965e+00,5.383e+00,2.371e+00,3.557e+00,3.793e+00
6.604e-02,5.092e-02,2.222e-01,3.141e-01,1.246e+00,1.443e+00,1.817e+00,1.700e+00,1.684e+00,3.182e+00,2.655e+00,3.409e+00,3.787e+00,3.358e+00,3.680e+00,5.154e+00,4.653e+00,4.791e+00,4.762e+00,6.670e+00,4.964e+00,4.065e+00,5.321e+00,5.929e+00,3.876e+00,5.370e+00,4.441e+00,5.399e+00,6.410e+00,3.310e+00,4.797e+00,5.741e+00,4.842e+00,7.510e+00,4.154e+00,5.400e+00,6.213e+00,3.850e+00,4.643e+00,4.576e+00,4.134e+00,4.857e+00,5.815e+00,6.845e+00,4.729e+00,2.155e+00,4.250e+00,4.669e+00,4.305e+00,4.562e+00,5.261e+00,5.123e+00,4.040e+00,5.988e+00,3.577e+00,6.328e+00,5.629e+00,5.316e+00,5.837e+00,6.021e+00,5.247e+00,6.066e+00,5.794e+00,4.764e+00,4.607e+00,6.192e+00,5.071e+00,5.517e+00,5.868e+00,4.193e+00,5.933e+00,4.275e+00
4.005e-01,1.336e-01,6.008e-01,6.621e-01,1.256e+00,1.178e+00,2.241e+00,1.505e+00,1.693e+00,2.915e+00,2.885e+00,2.403e+00,3.079e+00,2.968e+00,2.652e+00,3.632e+00,4.040e+00,4.554e+00,4.944e+00,5.606e+00,4.337e+00,4.171e+00,3.993e+00,4.804e+00,3.560e+00,5.691e+00,4.752e+00,5.108e+00,5.291e+00,3.818e+00,5.201e+00,4.889e+00,4.179e+00,6.458e+00,3.870e+00,6.134e+00,5.878e+00,4.151e+00,4.555e+00,4.568e+00,3.995e+00,3.952e+00,5.804e+00,5.938e+00,4.593e+00,2.214e+00,4.497e+00,3.835e+00,4.751e+00,5.211e+00,4.204e+00,4.350e+00,4.888e+00,4.810e+00,3.810e+00,5.738e+00,5.269e+00,5.605e+00,5.441e+00,4.653e+00,4.217e+00,4.667e+00,4.868e+00,4.399e+00,4.058e+00,5.642e+00,5.802e+00,5.378e+00,5.782e+00,4.300e+00,5.008e+00,4.617e+00
1.504e-02,1.710e-01,3.991e-01,4.924e-01,1.227e+00,1.393e+00,1.916e+00,1.340e+00,1.514e+00,2.939e+00,2.283e+00,2.836e+00,3.311e+00,2.999e+00,2.992e+00,4.122e+00,3.092e+00,3.468e+00,3.700e+00,5.774e+00,4.028e+00,3.487e+00,4.054e+00,5.210e+00,3.541e+00,4.850e+00,4.332e+00,4.679e+00,4.818e+00,2.345e+00,4.423e+00,4.707e+00,4.586e+00,5.948e+00,3.707e+00,5.275e+00,4.891e+00,3.092e+00,3.940e+00,3.947e+00,3.942e+00,4.661e+00,4.672e+00,5.239e+00,3.904e+00,1.934e+00,3.738e+00,4.173e+00,4.115e+00,4.064e+00,3.710e+00,4.161e+00,3.767e+00,5.168e+00,3.308e+00,5.852e+00,4.655e+00,4.250e+00,4.896e+00,4.781e+00,4.699e+00,4.993e+00,5.235e+00,4.685e+00,4.823e+00,5.153e+00,4.048e+00,5.047e+00,5.257e+00,3.084e+00,4.670e+00,3.955e+00
4.030e-01,5.779e-02,6.962e-01,8.564e-01,1.753e+00,2.070e+00,3.112e+00,1.881e+00,1.790e+00,2.531e+00,3.258e+00,3.239e+00,3.883e+00,4.442e+00,4.680e+00,5.571e+00,5.711e+00,5.263e+00,6.511e+00,8.814e+00,6.216e+00,5.005e+00,7.153e+00,7.224e+00,4.764e+00,7.036e+00,7.025e+00,7.301e+00,7.137e+00,4.626e+00,6.102e+00,7.382e+00,7.013e+00,9.291e+00,6.837e+00,8.019e+00,8.286e+00,5.113e+00,6.255e+00,5.974e+00,5.413e+00,7.563e+00,7.199e+00,7.766e+00,5.388e+00,4.220e+00,6.801e+00,6.051e+00,7.084e+00,6.316e+00,6.720e+00,6.533e+00,6.627e+00,6.935e+00,6.320e+00,8.541e+00,6.049e+00,7.116e+00,6.003e+00,6.686e+00,7.542e+00,7.995e+00,6.623e+00,6.104e+00,7.081e+00,8.564e+00,7.999e+00,8.074e+00,7.267e+00,6.142e+00,7.106e+00,5.796e+00
2.018e-02,3.156e-01,5.628e-01,5.454e-01,8.470e-01,1.549e+00,2.134e+00,1.423e+00,1.905e+00,3.257e+00,2.184e+00,2.912e+00,3.459e+00,3.951e+00,4.585e+00,5.014e+00,3.878e+00,4.034e+00,5.354e+00,7.194e+00,5.319e+00,4.787e+00,5.531e+00,7.040e+00,5.888e+00,6.829e+00,7.169e+00,5.472e+00,6.478e+00,4.393e+00,6.279e+00,6.713e+00,6.378e+00,8.171e+00,5.897e+00,7.160e+00,6.994e+00,4.932e+00,5.668e+00,5.921e+00,4.892e+00,5.796e+00,6.938e+00,6.319e+00,5.962e+00,3.799e+00,6.493e+00,6.113e+00,6.430e+00,6.499e+00,5.936e+00,5.823e+00,6.004e+00,6.725e+00,5.101e+00,7.791e+00,6.221e+00,6.153e+00,5.777e+00,6.562e+00,6.582e+00,7.533e+00,7.065e+00,6.044e+00,6.782e+00,7.878e+00,7.529e+00,6.947e+00,7.113e+00,4.484e+00,7.011e+00,6.069e+00
3.591e-01,1.352e-01,7.985e-01,9.194e-01,1.573e+00,1.135e+00,2.542e+00,1.704e+00,1.461e+00,3.031e+00,3.155e+00,3.110e+00,3.727e+00,3.173e+00,3.664e+00,5.299e+00,3.677e+00,4.495e+00,4.783e+00,6.942e+00,4.978e+00,4.240e+00,5.541e+00,6.639e+00,5.286e+00,7.263e+00,6.572e+00,5.545e+00,7.645e+00,5.425e+00,6.458e+00,7.330e+00,5.578e+00,9.124e+00,5.477e+00,8.399e+00,8.130e+00,5.637e+00,5.462e+00,4.779e+00,4.805e+00,6.105e+00,7.303e+00,7.808e+00,5.515e+00,4.103e+00,6.507e+00,6.160e+00,7.165e+00,5.691e+00,6.716e+00,5.969e+00,5.703e+00,7.479e+00,4.767e+00,7.641e+00,6.281e+00,7.063e+00,5.778e+00,6.840e+00,6.608e+00,6.983e+00,6.697e+00,5.859e+00,6.386e+00,7.966e+00,6.980e+00,6.630e+00,6.821e+00,6.029e+00,7.718e+00,5.990e+00
3.400e-01,3.700e-01,1.092e+00,7.661e-01,1.759e+00,1.722e+00,3.003e+00,2.313e+00,2.024e+00,3.909e+00,3.978e+00,3.819e+00,4.256e+00,4.102e+00,3.915e+00,5.538e+00,5.241e+00,4.944e+00,5.422e+00,7.182e+00,5.547e+00,4.810e+00,6.116e+00,7.000e+00,5.484e+00,7.123e+00,6.424e+00,6.952e+00,8.500e+00,6.116e+00,6.892e+00,6.668e+00,6.280e+00,1.023e+01,6.597e+00,7.425e+00,7.769e+00,6.844e+00,5.286e+00,6.849e+00,5.694e+00,6.383e+00,7.325e+00,8.351e+00,6.430e+00,4.551e+00,7.755e+00,6.212e+00,6.650e+00,7.514e+00,6.724e+00,5.564e+00,6.502e+00,7.583e+00,5.543e+00,8.882e+00,7.783e+00,7.774e+00,6.488e+00,7.420e+00,6.486e+00,8.132e+00,7.258e+00,6.910e+00,5.913e+00,8.268e+00,7.965e+00,6.987e+00,7.665e+00,5.832e+00,7.281e+00,7.274e+00
3.536e-01,4.506e-01,1.267e+00,9.677e-01,2.103e+00,1.852e+00,3.221e+00,1.635e+00,1.865e+00,3.685e+00,3.751e+00,3.766e+00,4.411e+00,3.580e+00,3.942e+00,5.419e+00,4.377e+00,4.842e+00,5.611e+00,7.412e+00,5.669e+00,5.558e+00,5.635e+00,7.400e+00,6.380e+00,7.746e+00,6.739e+00,6.922e+00,8.122e+00,6.585e+00,7.601e+00,8.437e+00,7.299e+00,1.053e+01,6.562e+00,8.439e+00,8.379e+00,6.288e+00,6.632e+00,6.599e+00,6.553e+00,7.260e+00,8.240e+00,8.757e+00,6.741e+00,6.160e+00,7.847e+00,7.629e+00,7.941e+00,7.641e+00,6.965e+00,6.615e+00,7.763e+00,7.468e+00,5.948e+00,9.262e+00,8.062e+00,8.098e+00,6.948e+00,7.674e+00,7.052e+00,7.619e+00,8.172e+00,7.315e+00,7.715e+00,8.037e+00,8.606e+00,7.314e+00,8.140e+00,6.363e+00,8.011e+00,8.076e+00
3.434e-01,1.081e-01,5.539e-01,5.544e-01,1.182e+00,1.708e+00,2.668e+00,2.114e+00,2.416e+00,3.681e+00,3.749e+00,3.744e+00,4.112e+00,4.881e+00,4.783e+00,5.350e+00,5.055e+00,5.223e+00,6.297e+00,7.920e+00,5.451e+00,5.143e+00,5.526e+00,6.765e+00,6.872e+00,9.684e+00,8.867e+00,6.381e+00,9.468e+00,6.792e+00,7.113e+00,8.674e+00,8.462e+00,1.029e+01,8.178e+00,8.953e+00,8.102e+00,6.035e+00,7.436e+00,6.612e+00,7.684e+00,8.157e+00,9.394e+00,9.312e+00,7.288e+00,6.803e+00,8.470e+00,8.422e+00,8.897e+00,9.020e+00,8.128e+00,8.143e+00,8.396e+00,8.273e+00,6.697e+00,1.021e+01,8.196e+00,8.985e+00,7.408e+00,7.497e+00,8.331e+00,8.783e+00,8.585e+00,8.252e+00,8.501e+00,8.613e+00,8.823e+00,8.338e+00,8.946e+00,6.599e+00,8.693e+00,8.011e+00
3.098e-01,1.964e-01,7.588e-01,5.812e-01,1.640e+00,1.598e+00,2.426e+00,1.815e+00,1.687e+00,3.285e+00,3.757e+00,3.030e+00,4.314e+00,3.066e+00,3.436e+00,4.749e+00,5.008e+00,4.940e+00,5.116e+00,6.548e+00,5.070e+00,3.948e+00,5.627e+00,6.476e+00,5.892e+00,6.878e+00,6.275e+00,7.197e+00,7.730e+00,7.908e+00,6.625e+00,7.309e+00,6.581e+00,9.308e+00,5.636e+00,7.771e+00,7.653e+00,6.486e+00,5.408e+00,6.362e+00,5.998e+00,6.667e+00,8.117e+00,8.027e+00,6.576e+00,5.145e+00,7.016e+00,6.687e+00,7.422e+00,7.181e+00,6.679e+00,6.228e+00,6.735e+00,7.415e+00,5.619e+00,8.997e+00,7.190e+00,7.745e+00,7.205e+00,6.825e+00,7.070e+00,8.271e+00,6.959e+00,6.797e+00,6.169e+00,7.301e+00,7.698e+00,6.422e+00,7.696e+00,5.511e+00,7.537e+00,7.083e+00
1.107e-01,8.723e-03,4.535e-01,8.426e-01,1.168e+00,1.444e+00,2.316e+00,1.644e+00,1.941e+00,3.054e+00,2.866e+00,3.099e+00,3.072e+00,3.505e+00,3.848e+00,4.936e+00,4.108e+00,4.390e+00,4.723e+00,6.829e+00,5.470e+00,4.235e+00,5.674e+00,6.547e+00,5.412e+00,6.537e+00,6.292e+00,6.427e+00,7.145e+00,5.540e+00,6.211e+00,7.416e+00,6.248e+00,8.097e+00,6.212e+00,8.028e+00,8.810e+00,5.422e+00,5.517e+00,5.068e+00,4.766e+00,6.905e+00,7.083e+00,7.688e+00,5.339e+00,5.353e+00,6.504e+00,5.773e+00,7.648e+00,7.463e+00,6.656e+00,7.009e+00,6.317e+00,6.972e+00,4.809e+00,8.815e+00,5.608e+00,7.757e+00,5.631e+00,6.161e+00,7.349e+00,7.354e+00,6.926e+00,6.052e+00,7.397e+00,7.356e+00,7.043e+00,6.991e+00,7.167e+00,5.612e+00,7.870e+00,5.579e+00
2.236e-01,2.077e-01,7.321e-01,6.400e-01,1.588e+00,1.331e+00,2.236e+00,1.355e+00,1.763e+00,3.001e+00,3.229e+00,3.517e+00,3.745e+00,3.777e+00,3.994e+00,5.291e+00,4.743e+00,4.272e+00,5.381e+00,6.924e+00,5.117e+00,5.138e+00,5.678e+00,6.807e+00,6.410e+00,7.433e+00,7.306e+00,6.551e+00,1.006e+01,7.841e+00,7.751e+00,9.022e+00,6.939e+00,1.002e+01,7.406e+00,9.053e+00,8.817e+00,6.678e+00,6.943e+00,7.090e+00,7.045e+00,7.576e+00,9.089e+00,8.600e+00,7.484e+00,6.470e+00,7.880e+00,7.403e+00,9.609e+00,8.919e+00,8.066e+00,8.031e+00,7.296e+00,8.112e+00,7.458e+00,1.032e+01,8.685e+00,9.529e+00,7.866e+00,8.143e+00,8.171e+00,9.489e+00,8.808e+00,7.636e+00,7.113e+00,8.842e+00,8.834e+00,7.710e+00,8.357e+00,7.383e+00,9.304e+00,8.392e+00
1.486e-01,1.684e-02,2.028e-01,5.114e-01,9.196e-01,1.248e+00,1.879e+00,1.434e+00,1.561e+00,2.493e+00,2.013e+00,2.057e+00,2.629e+00,2.899e+00,2.897e+00,4.132e+00,4.019e+00,3.604e+00,4.059e+00,5.805e+00,4.686e+00,2.923e+00,4.935e+00,5.297e+00,5.047e+00,6.032e+00,5.269e+00,6.180e+00,6.889e+00,6.803e+00,6.312e+00,6.644e+00,6.667e+00,8.296e+00,6.455e+00,6.970e+00,7.706e+00,5.496e+00,6.184e+00,5.419e+00,4.950e+00,6.822e+00,6.453e+00,7.716e+00,5.879e+00,4.508e+00,6.265e+00,5.706e+00,6.357e+00,7.604e+00,6.280e+00,6.341e+00,5.941e+00,7.130e+00,5.809e+00,8.132e+00,6.502e+00,7.240e+00,7.429e+00,6.708e+00,7.213e+00,7.181e+00,7.005e+00,5.898e+00,6.060e+00,7.348e+00,7.166e+00,7.114e+00,7.174e+00,5.861e+00,7.142e+00,6.590e+00
4.279e-01,3.285e-01,1.064e+00,1.027e+00,1.913e+00,2.330e+00,3.715e+00,2.237e+00,2.292e+00,3.697e+00,3.400e+00,3.429e+00,3.587e+00,3.754e+00,3.819e+00,5.099e+00,5.132e+00,4.628e+00,5.239e+00,7.270e+00,5.815e+00,4.733e+00,6.260e+00,6.684e+00,5.333e+00,8.108e+00,7.568e+00,7.586e+00,9.088e+00,6.973e+00,8.422e+00,8.911e+00,8.759e+00,1.108e+01,7.653e+00,9.209e+00,9.639e+00,8.531e+00,7.738e+00,7.195e+00,6.626e+00,8.195e+00,8.389e+00,9.406e+00,7.719e+00,7.107e+00,8.502e+00,8.094e+00,8.708e+00,8.731e+00,9.403e+00,7.725e+00,8.202e+00,8.589e+00,7.742e+00,9.418e+00,8.073e+00,1.027e+01,7.765e+00,8.944e+00,8.765e+00,8.713e+00,8.436e+00,6.922e+00,8.593e+00,9.747e+00,1.007e+01,8.803e+00,8.394e+00,7.622e+00,8.963e+00,8.914e+00
6.070e-03,4.021e-03,3.662e-01,7.112e-01,1.419e+00,1.946e+00,2.405e+00,1.892e+00,2.234e+00,3.157e+00,3.303e+00,3.411e+00,3.424e+00,3.445e+00,3.170e+00,3.835e+00,5.339e+00,4.297e+00,4.430e+00,6.589e+00,5.252e+00,4.135e+00,6.125e+00,6.653e+00,5.264e+00,6.685e+00,6.466e+00,6.999e+00,7.578e+00,7.200e+00,6.756e+00,7.938e+00,7.154e+00,1.029e+01,8.081e+00,1.025e+01,1.041e+01,7.011e+00,7.824e+00,7.561e+00,6.639e+00,8.053e+00,9.038e+00,9.019e+00,7.254e+00,6.305e+00,7.622e+00,7.744e+00,9.194e+00,9.126e+00,8.445e+00,8.651e+00,7.943e+00,8.878e+00,8.313e+00,1.039e+01,8.215e+00,1.079e+01,8.775e+00,8.304e+00,9.738e+00,9.455e+00,8.910e+00,8.051e+00,7.378e+00,9.029e+00,8.764e+00,8.158e+00,8.856e+00,8.117e+00,8.877e+00,9.403e+00
2.914e-01,5.091e-02,5.228e-01,7.931e-01,9.731e-01,1.513e+00,2.635e+00,2.419e+00,2.228e+00,3.865e+00,3.462e+00,3.679e+00,3.709e+00,4.637e+00,4.237e+00,5.575e+00,5.088e+00,4.927e+00,6.023e+00,7.748e+00,6.406e+00,4.987e+00,6.841e+00,7.822e+00,6.172e+00,8.180e+00,7.534e+00,6.858e+00,8.957e+00,7.209e+00,8.177e+00,8.704e+00,8.291e+00,1.187e+01,9.384e+00,1.051e+01,1.052e+01,8.222e+00,8.387e+00,8.705e+00,7.106e+00,1.003e+01,1.032e+01,9.996e+00,8.329e+00,7.327e+00,8.823e+00,8.381e+00,9.410e+00,9.081e+00,9.900e+00,8.615e+00,8.622e+00,9.999e+00,8.367e+00,1.148e+01,8.478e+00,1.091e+01,1.011e+01,8.736e+00,9.946e+00,1.052e+01,9.962e+00,8.889e+00,1.018e+01,1.042e+01,9.773e+00,9.077e+00,9.880e+00,8.455e+00,1.047e+01,9.423e+00
1.916e-01,4.942e-01,1.238e+00,8.246e-01,1.568e+00,1.356e+00,2.622e+00,1.588e+00,1.531e+00,3.219e+00,3.245e+00,3.306e+00,3.442e+00,2.770e+00,3.439e+00,4.891e+00,4.780e+00,4.209e+00,4.633e+00,6.785e+00,5.657e+00,4.210e+00,5.653e+00,6.877e+00,6.227e+00,7.432e+00,6.925e+00,7.031e+00,9.244e+00,7.935e+00,8.700e+00,9.348e+00,7.814e+00,1.234e+01,8.931e+00,1.134e+01,1.133e+01,8.403e+00,8.402e+00,8.937e+00,8.241e+00,8.887e+00,9.813e+00,1.009e+01,9.349e+00,7.847e+00,1.008e+01,9.188e+00,1.011e+01,1.024e+01,1.035e+01,9.131e+00,8.681e+00,9.873e+00,8.946e+00,1.056e+01,9.286e+00,1.234e+01,8.667e+00,9.921e+00,1.127e+01,1.028e+01,1.009e+01,9.123e+00,8.833e+00,1.130e+01,1.063e+01,9.813e+00,1.014e+01,8.283e+00,9.264e+00,1.075e+01
1.501e-02,2.847e-01,5.400e-01,6.220e-01,1.246e+00,1.506e+00,1.988e+00,6.483e-01,1.766e+00,2.690e+00,1.702e+00,2.392e+00,2.584e+00,2.768e+00,3.086e+00,4.582e+00,3.560e+00,2.942e+00,4.505e+00,6.386e+00,4.852e+00,4.904e+00,5.116e+00,7.131e+00,5.826e+00,6.417e+00,6.681e+00,6.278e+00,7.893e+00,6.930e+00,7.146e+00,8.351e+00,7.293e+00,9.651e+00,8.447e+00,1.038e+01,8.710e+00,8.339e+00,7.189e+00,7.082e+00,7.599e+00,8.022e+00,8.006e+00,8.354e+00,8.447e+00,7.227e+00,8.375e+00,8.623e+00,9.269e+00,9.422e+00,8.773e+00,8.027e+00,8.359e+00,9.242e+00,7.838e+00,1.041e+01,9.050e+00,1.044e+01,8.276e+00,8.561e+00,9.738e+00,9.213e+00,9.953e+00,7.994e+00,8.331e+00,9.645e+00,9.170e+00,8.743e+00,8.521e+00,7.304e+00,8.470e+00,9.898e+00
2.679e-01,1.510e-01,6.240e-01,5.387e-01,8.388e-01,4.951e-01,1.560e+00,1.477e+00,1.246e+00,2.875e+00,2.935e+00,3.204e+00,4.112e+00,3.683e+00,3.843e+00,5.204e+00,3.911e+00,4.515e+00,5.666e+00,7.095e+00,4.913e+00,4.598e+00,5.150e+00,7.176e+00,6.262e+00,6.937e+00,6.210e+00,6.306e+00,8.940e+00,6.611e+00,7.710e+00,8.910e+00,6.967e+00,1.106e+01,8.447e+00,1.011e+01,9.584e+00,7.093e+00,7.605e+00,8.462e+00,7.340e+00,9.423e+00,9.438e+00,9.111e+00,7.350e+00,7.033e+00,8.196e+00,8.650e+00,9.505e+00,9.079e+00,9.344e+00,7.977e+00,7.193e+00,8.748e+00,7.630e+00,1.158e+01,9.101e+00,9.056e+00,9.955e+00,8.894e+00,9.342e+00,9.559e+00,9.712e+00,8.840e+00,9.785e+00,9.606e+00,9.349e+00,8.750e+00,9.480e+00,8.638e+00,9.370e+00,8.812e+00
9.074e-02,2.758e-01,8.097e-01,9.410e-01,1.159e+00,1.736e+00,2.739e+00,1.970e+00,2.123e+00,3.804e+00,2.969e+00,3.119e+00,3.481e+00,3.212e+00,3.574e+00,5.209e+00,3.822e+00,4.211e+00,4.320e+00,7.024e+00,5.640e+00,4.410e+00,6.260e+00,7.044e+00,5.046e+00,6.696e+00,6.340e+00,6.599e+00,6.948e+00,5.767e+00,6.074e+00,7.813e+00,6.468e+00,1.056e+01,8.077e+00,9.969e+00,1.106e+01,8.564e+00,7.423e+00,7.848e+00,7.937e+00,8.485e+00,8.241e+00,1.035e+01,9.299e+00,7.377e+00,8.442e+00,9.126e+00,1.010e+01,9.212e+00,9.565e+00,8.235e+00,8.597e+00,9.331e+00,7.900e+00,1.123e+01,9.072e+00,9.902e+00,8.752e+00,8.840e+00,9.784e+00,1.028e+01,9.581e+00,8.274e+00,9.597e+00,9.522e+00,9.356e+00,9.068e+00,8.370e+00,7.336e+00,9.579e+00,9.859e+00
1.583e-01,1.187e-01,3.787e-01,2.905e-01,8.763e-01,1.589e+00,2.035e+00,1.797e+00,2.094e+00,3.133e+00,2.696e+00,2.799e+00,2.903e+00,2.833e+00,3.659e+00,4.187e+00,4.211e+00,4.056e+00,4.608e+00,6.638e+00,5.381e+00,4.135e+00,5.308e+00,5.578e+00,4.684e+00,7.238e+00,5.968e+00,5.438e+00,7.494e+00,5.848e+00,6.070e+00,6.951e+00,6.421e+00,9.544e+00,7.617e+00,1.028e+01,9.711e+00,6.589e+00,8.641e+00,7.858e+00,7.759e+00,9.257e+00,9.649e+00,9.173e+00,8.599e+00,6.348e+00,7.659e+00,8.866e+00,1.039e+01,8.891e+00,8.657e+00,9.296e+00,8.014e+00,9.000e+00,7.719e+00,1.075e+01,8.755e+00,1.033e+01,8.741e+00,8.348e+00,1.125e+01,9.840e+00,9.061e+00,8.839e+00,8.521e+00,9.537e+00,9.015e+00,9.231e+00,9.018e+00,9.018e+00,8.250e+00,9.985e+00
3.392e-01,1.456e-01,8.852e-01,9.179e-01,1.437e+00,1.328e+00,2.722e+00,2.088e+00,1.694e+00,3.318e+00,4.038e+00,3.922e+00,3.816e+00,3.946e+00,3.476e+00,5.248e+00,5.943e+00,5.221e+00,5.833e+00,8.285e+00,6.362e+00,4.507e+00,6.603e+00,7.917e+00,6.599e+00,9.190e+00,8.596e+00,7.774e+00,9.816e+00,8.727e+00,8.943e+00,1.097e+01,9.554e+00,1.333e+01,1.046e+01,1.217e+01,1.265e+01,9.901e+00,1.067e+01,9.656e+00,1.056e+01,1.195e+01,1.164e+01,1.192e+01,1.061e+01,1.039e+01,1.155e+01,1.151e+01,1.239e+01,1.144e+01,1.263e+01,1.116e+01,1.104e+01,1.183e+01,1.159e+01,1.419e+01,1.155e+01,1.440e+01,1.117e+01,1.152e+01,1.443e+01,1.255e+01,1.170e+01,1.122e+01,1.128e+01,1.328e+01,1.223e+01,1.228e+01,1.186e+01,1.027e+01,1.125e+01,1.229e+01
6.215e-02,2.761e-01,7.787e-01,6.071e-01,1.326e+00,1.720e+00,2.496e+00,1.853e+00,1.791e+00,3.047e+00,3.196e+00,3.456e+00,3.304e+00,3.706e+00,3.937e+00,4.499e+00,4.657e+00,4.220e+00,4.717e+00,6.976e+00,5.432e+00,4.126e+00,5.493e+00,6.232e+00,4.815e+00,6.536e+00,6.261e+00,6.096e+00,7.414e+00,5.001e+00,6.420e+00,7.054e+00,6.744e+00,1.010e+01,7.835e+00,1.079e+01,1.071e+01,7.066e+00,8.176e+00,8.235e+00,9.382e+00,8.946e+00,9.215e+00,1.005e+01,9.392e+00,7.454e+00,9.724e+00,9.071e+00,1.044e+01,1.026e+01,9.907e+00,9.500e+00,8.804e+00,9.818e+00,9.306e+00,1.131e+01,8.478e+00,1.193e+01,7.943e+00,8.200e+00,1.134e+01,1.038e+01,1.002e+01,8.829e+00,9.415e+00,1.029e+01,9.542e+00,1.069e+01,9.668e+00,8.071e+00,8.992e+00,9.917e+00
4.012e-02,4.686e-01,9.593e-01,5.777e-01,1.073e+00,9.836e-01,1.787e+00,1.113e+00,1.205e+00,2.789e+00,2.458e+00,2.490e+00,3.447e+00,2.799e+00,3.581e+00,4.798e+00,3.747e+00,3.816e+00,4.667e+00,6.669e+00,5.200e+00,4.247e+00,5.615e+00,7.910e+00,6.970e+00,6.248e+00,6.581e+00,7.147e+00,8.911e+00,8.008e+00,8.176e+00,9.557e+00,7.519e+00,1.230e+01,8.730e+00,1.211e+01,1.215e+01,9.345e+00,9.436e+00,1.062e+01,9.489e+00,1.184e+01,1.147e+01,1.186e+01,1.025e+01,9.250e+00,1.143e+01,1.088e+01,1.249e+01,1.254e+01,1.150e+01,1.082e+01,8.986e+00,1.134e+01,1.031e+01,1.463e+01,1.143e+01,1.267e+01,1.145e+01,1.097e+01,1.353e+01,1.354e+01,1.194e+01,1.084e+01,1.054e+01,1.233e+01,1.118e+01,1.219e+01,1.160e+01,1.051e+01,1.094e+01,1.323e+01
1.260e-01,1.942e-01,4.314e-01,5.149e-01,1.389e+00,2.106e+00,2.468e+00,1.331e+00,2.493e+00,3.323e+00,2.777e+00,3.246e+00,3.830e+00,3.817e+00,3.772e+00,4.073e+00,4.807e+00,3.718e+00,5.022e+00,6.230e+00,4.833e+00,4.809e+00,5.047e+00,6.104e+00,5.617e+00,7.169e+00,6.540e+00,6.595e+00,7.954e+00,7.112e+00,6.823e+00,8.183e+00,8.704e+00,1.075e+01,8.078e+00,1.039e+01,9.811e+00,8.528e+00,9.245e+00,8.789e+00,8.760e+00,1.022e+01,1.050e+01,9.966e+00,1.012e+01,8.913e+00,1.015e+01,1.035e+01,1.153e+01,1.118e+01,1.089e+01,1.024e+01,9.564e+00,1.004e+01,1.009e+01,1.296e+01,1.001e+01,1.242e+01,1.102e+01,9.107e+00,1.158e+01,1.114e+01,1.173e+01,9.888e+00,9.861e+00,1.015e+01,1.090e+01,1.081e+01,1.048e+01,9.482e+00,8.650e+00,1.239e+01
1.880e-01,2.995e-01,9.959e-01,1.023e+00,1.231e+00,1.275e+00,2.437e+00,1.480e+00,1.897e+00,3.281e+00,3.175e+00,3.132e+00,3.236e+00,2.771e+00,3.035e+00,4.098e+00,4.661e+00,4.452e+00,4.410e+00,7.217e+00,4.377e+00,4.243e+00,5.108e+00,7.345e+00,5.778e+00,6.755e+00,7.631e+00,6.522e+00,7.917e+00,6.673e+00,7.626e+00,8.436e+00,7.223e+00,1.002e+01,8.762e+00,1.049e+01,1.081e+01,8.368e+00,8.954e+00,7.977e+00,9.403e+00,9.317e+00,1.069e+01,1.114e+01,1.088e+01,8.571e+00,1.100e+01,1.164e+01,1.265e+01,1.160e+01,1.161e+01,1.069e+01,1.075e+01,1.157e+01,1.172e+01,1.268e+01,1.161e+01,1.294e+01,1.003e+01,1.017e+01,1.311e+01,1.101e+01,1.100e+01,1.033e+01,1.042e+01,1.186e+01,1.255e+01,1.209e+01,1.125e+01,9.182e+00,9.893e+00,1.214e+01
2.755e-01,2.291e-01,9.518e-01,9.435e-01,1.102e+00,1.037e+00,2.490e+00,2.043e+00,1.984e+00,3.674e+00,3.597e+00,3.660e+00,3.591e+00,3.855e+00,4.160e+00,5.564e+00,4.629e+00,4.842e+00,5.302e+00,7.796e+00,5.789e+00,4.831e+00,6.147e+00,7.360e+00,6.456e+00,8.517e+00,8.340e+00,6.573e+00,1.024e+01,7.754e+00,8.785e+00,9.530e+00,7.453e+00,1.260e+01,1.066e+01,1.185e+01,1.146e+01,8.753e+00,9.289e+00,9.959e+00,9.952e+00,1.300e+01,1.273e+01,1.279e+01,1.211e+01,1.064e+01,1.270e+01,1.177e+01,1.418e+01,1.437e+01,1.343e+01,1.280e+01,1.123e+01,1.364e+01,1.068e+01,1.525e+01,1.192e+01,1.364e+01,1.213e+01,1.137e+01,1.444e+01,1.368e+01,1.290e+01,1.242e+01,1.273e+01,1.375e+01,1.391e+01,1.253e+01,1.279e+01,1.134e+01,1.206e+01,1.388e+01
5.984e-02,2.703e-01,5.749e-01,3.921e-01,8.235e-01,1.299e+00,1.797e+00,1.590e+00,1.486e+00,2.819e+00,2.246e+00,2.515e+00,2.924e+00,3.027e+00,3.944e+00,4.791e+00,4.373e+00,4.021e+00,4.454e+00,6.373e+00,4.819e+00,3.576e+00,5.709e+00,6.895e+00,5.844e+00,5.874e+00,5.827e+00,6.161e+00,8.152e+00,6.742e+00,7.091e+00,8.685e+00,7.966e+00,1.148e+01,8.982e+00,1.034e+01,1.112e+01,8.520e+00,9.213e+00,8.580e+00,8.413e+00,1.033e+01,1.073e+01,1.139e+01,1.025e+01,9.244e+00,1.256e+01,1.202e+01,1.146e+01,1.206e+01,1.219e+01,1.171e+01,9.223e+00,1.281e+01,1.001e+01,1.287e+01,1.118e+01,1.289e+01,1.096e+01,1.036e+01,1.334e+01,1.245e+01,1.246e+01,1.140e+01,1.181e+01,1.282e+01,1.287e+01,1.154e+01,1.184e+01,1.126e+01,1.113e+01,1.341e+01
4.239e-02,5.100e-01,9.271e-01,6.564e-01,1.626e+00,2.597e+00,3.273e+00,1.856e+00,2.897e+00,4.396e+00,3.334e+00,4.197e+00,4.457e+00,4.825e+00,5.221e+00,6.131e+00,5.252e+00,4.535e+00,6.577e+00,8.033e+00,6.620e+00,6.650e+00,6.400e+00,8.080e+00,6.474e+00,8.472e+00,8.158e+00,7.617e+00,8.586e+00,7.552e+00,8.132e+00,9.715e+00,8.777e+00,1.250e+01,8.753e+00,1.262e+01,1.195e+01,1.003e+01,9.981e+00,9.783e+00,1.068e+01,1.079e+01,1.132e+01,1.268e+01,1.354e+01,9.971e+00,1.364e+01,1.368e+01,1.468e+01,1.465e+01,1.261e+01,1.370e+01,1.284e+01,1.356e+01,1.184e+01,1.535e+01,1.299e+01,1.492e+01,1.343e+01,1.213e+01,1.477e+01,1.479e+01,1.404e+01,1.402e+01,1.108e+01,1.387e+01,1.446e+01,1.370e+01,1.330e+01,1.123e+01,1.121e+01,1.492e+01
6.100e-02,1.735e-01,5.933e-01,9.667e-01,1.023e+00,1.751e+00,2.716e+00,1.781e+00,2.665e+00,3.802e+00,2.928e+00,3.525e+00,3.306e+00,4.242e+00,4.055e+00,4.739e+00,4.021e+00,3.536e+00,4.393e+00,6.311e+00,4.925e+00,4.545e+00,5.228e+00,5.880e+00,5.583e+00,7.434e+00,7.568e+00,6.181e+00,8.272e+00,6.147e+00,6.761e+00,8.375e+00,7.361e+00,9.902e+00,9.024e+00,1.145e+01,1.034e+01,8.411e+00,8.849e+00,9.415e+00,1.027e+01,1.104e+01,1.099e+01,1.079e+01,1.277e+01,1.097e+01,1.272e+01,1.260e+01,1.507e+01,1.411e+01,1.450e+01,1.311e+01,1.087e+01,1.295e+01,1.213e+01,1.500e+01,1.124e+01,1.411e+01,1.277e+01,1.095e+01,1.362e+01,1.390e+01,1.445e+01,1.344e+01,1.352e+01,1.296e+01,1.393e+01,1.269e+01,1.248e+01,1.104e+01,1.121e+01,1.437e+01
3.876e-01,1.679e-01,8.623e-01,1.118e+00,1.717e+00,1.634e+00,2.897e+00,1.622e+00,1.749e+00,3.252e+00,3.202e+00,2.681e+00,3.521e+00,3.140e+00,3.664e+00,4.792e+00,4.622e+00,5.471e+00,5.061e+00,7.111e+00,4.705e+00,4.202e+00,5.601e+00,7.249e+00,7.179e+00,7.348e+00,7.737e+00,7.072e+00,8.612e+00,8.388e+00,9.261e+00,1.081e+01,8.488e+00,1.227e+01,9.673e+00,1.188e+01,1.269e+01,9.608e+00,1.001e+01,9.122e+00,8.936e+00,1.158e+01,1.292e+01,1.326e+01,1.054e+01,1.042e+01,1.317e+01,1.338e+01,1.486e+01,1.460e+01,1.399e+01,1.360e+01,1.217e+01,1.472e+01,1.172e+01,1.653e+01,1.312e+01,1.504e+01,1.402e+01,1.256e+01,1.458e+01,1.337e+01,1.494e+01,1.189e+01,1.319e+01,1.350e+01,1.555e+01,1.343e+01,1.274e+01,1.136e+01,1.312e+01,1.608e+01
2.069e-01,2.365e-01,5.418e-01,5.754e-01,1.342e+00,1.863e+00,2.544e+00,1.650e+00,2.178e+00,3.604e+00,2.631e+00,2.830e+00,3.645e+00,3.797e+00,4.093e+00,5.443e+00,4.229e+00,4.554e+00,5.438e+00,7.151e+00,5.350e+00,4.979e+00,5.744e+00,7.569e+00,6.713e+00,7.094e+00,6.566e+00,7.585e+00,9.498e+00,7.293e+00,7.879e+00,9.622e+00,8.687e+00,1.149e+01,8.870e+00,1.138e+01,1.121e+01,9.377e+00,1.038e+01,9.225e+00,9.655e+00,1.187e+01,1.174e+01,1.292e+01,1.105e+01,1.000e+01,1.339e+01,1.277e+01,1.530e+01,1.390e+01,1.371e+01,1.268e+01,1.189e+01,1.356e+01,1.188e+01,1.556e+01,1.264e+01,1.542e+01,1.465e+01,1.217e+01,1.451e+01,1.547e+01,1.418e+01,1.358e+01,1.441e+01,1.196e+01,1.395e+01,1.385e+01,1.217e+01,1.201e+01,1.243e+01,1.500e+01
1.280e-01,1.347e-01,3.969e-01,3.149e-01,1.080e+00,1.659e+00,2.098e+00,1.736e+00,1.632e+00,2.674e+00,2.660e+00,2.941e+00,3.588e+00,3.862e+00,4.088e+00,4.676e+00,4.731e+00,4.441e+00,5.665e+00,6.759e+00,5.333e+00,4.284e+00,5.450e+00,6.099e+00,5.479e+00,6.416e+00,6.154e+00,6.675e+00,7.325e+00,6.932e+00,7.460e+00,8.148e+00,6.970e+00,1.098e+01,8.337e+00,1.032e+01,1.033e+01,8.177e+00,9.833e+00,9.418e+00,9.802e+00,1.143e+01,1.161e+01,1.189e+01,1.155e+01,8.997e+00,1.305e+01,1.243e+01,1.283e+01,1.315e+01,1.232e+01,1.332e+01,1.218e+01,1.341e+01,1.235e+01,1.531e+01,1.233e+01,1.417e+01,1.401e+01,1.124e+01,1.521e+01,1.522e+01,1.297e+01,1.402e+01,1.200e+01,1.404e+01,1.394e+01,1.334e+01,1.288e+01,1.204e+01,1.061e+01,1.400e+01
2.638e-01,3.852e-01,9.169e-01,4.842e-01,1.356e+00,1.234e+00,2.239e+00,1.490e+00,1.311e+00,2.743e+00,2.527e+00,2.756e+00,3.101e+00,2.972e+00,3.437e+00,5.006e+00,3.448e+00,3.231e+00,4.253e+00,5.459e+00,4.721e+00,3.941e+00,4.890e+00,5.273e+00,4.146e+00,5.664e+00,5.655e+00,5.761e+00,8.030e+00,6.387e+00,7.339e+00,8.448e+00,6.260e+00,9.675e+00,8.029e+00,9.603e+00,1.015e+01,8.261e+00,8.212e+00,7.650e+00,9.151e+00,9.280e+00,1.061e+01,1.078e+01,1.092e+01,8.339e+00,1.159e+01,1.080e+01,1.347e+01,1.240e+01,1.293e+01,1.169e+01,1.105e+01,1.437e+01,1.141e+01,1.363e+01,1.241e+01,1.463e+01,1.328e+01,1.174e+01,1.401e+01,1.469e+01,1.278e+01,1.209e+01,1.117e+01,1.304e+01,1.379e+01,1.153e+01,1.296e+01,1.112e+01,1.110e+01,1.390e+01
4.263e-01,6.435e-02,6.952e-01,7.629e-01,9.011e-01,9.248e-01,2.259e+00,1.926e+00,1.218e+00,2.551e+00,3.027e+00,2.344e+00,2.722e+00,3.223e+00,2.726e+00,4.491e+00,3.825e+00,4.061e+00,4.438e+00,6.276e+00,4.740e+00,2.945e+00,5.125e+00,5.748e+00,4.315e+00,5.943e+00,5.885e+00,6.092e+00,6.714e+00,5.082e+00,6.041e+00,7.079e+00,6.029e+00,8.585e+00,7.205e+00,8.786e+00,8.780e+00,7.471e+00,7.009e+00,7.338e+00,7.719e+00,1.077e+01,9.250e+00,9.791e+00,8.191e+00,8.227e+00,1.003e+01,9.970e+00,1.215e+01,1.052e+01,1.248e+01,1.102e+01,1.097e+01,1.313e+01,1.109e+01,1.425e+01,1.151e+01,1.300e+01,1.321e+01,1.032e+01,1.466e+01,1.415e+01,1.100e+01,1.246e+01,1.348e+01,1.195e+01,1.256e+01,1.175e+01,1.216e+01,1.060e+01,1.115e+01,1.195e+01
6.638e-02,3.518e-02,1.500e-01,2.509e-01,4.062e-01,8.139e-01,1.027e+00,6.932e-01,1.331e+00,1.614e+00,1.421e+00,1.662e+00,2.467e+00,2.678e+00,3.338e+00,3.931e+00,3.279e+00,2.485e+00,4.473e+00,5.256e+00,3.753e+00,3.752e+00,4.561e+00,5.238e+00,4.282e+00,5.197e+00,5.309e+00,4.602e+00,6.016e+00,5.552e+00,4.723e+00,6.646e+00,5.141e+00,8.637e+00,7.578e+00,9.437e+00,8.132e+00,7.252e+00,6.621e+00,6.852e+00,7.181e+00,8.799e+00,8.770e+00,8.681e+00,9.181e+00,7.509e+00,1.051e+01,1.076e+01,1.212e+01,1.149e+01,1.237e+01,1.228e+01,1.112e+01,1.422e+01,1.206e+01,1.415e+01,1.195e+01,1.332e+01,1.492e+01,1.066e+01,1.480e+01,1.399e+01,1.256e+01,1.365e+01,1.206e+01,1.278e+01,1.397e+01,1.186e+01,1.199e+01,1.239e+01,1.067e+01,1.355e+01
1.275e-01,5.321e-02,2.159e-01,3.759e-01,1.171e+00,1.438e+00,1.900e+00,1.200e+00,1.896e+00,2.854e+00,2.238e+00,2.964e+00,2.706e+00,3.358e+00,3.429e+00,4.861e+00,4.102e+00,3.661e+00,4.479e+00,6.332e+00,4.556e+00,4.187e+00,4.632e+00,5.996e+00,4.896e+00,6.569e+00,6.287e+00,5.467e+00,8.248e+00,5.336e+00,6.273e+00,8.403e+00,7.137e+00,8.630e+00,7.187e+00,1.000e+01,9.448e+00,7.773e+00,8.806e+00,6.468e+00,8.813e+00,1.006e+01,1.019e+01,1.079e+01,9.536e+00,8.633e+00,1.046e+01,1.137e+01,1.255e+01,1.128e+01,1.149e+01,1.208e+01,1.055e+01,1.332e+01,1.057e+01,1.534e+01,1.238e+01,1.412e+01,1.258e+01,1.097e+01,1.553e+01,1.325e+01,1.295e+01,1.201e+01,1.194e+01,1.208e+01,1.226e+01,1.282e+01,1.132e+01,1.137e+01,1.162e+01,1.300e+01
1.717e-01,5.208e-01,1.075e+00,8.175e-01,1.780e+00,2.146e+00,3.215e+00,1.668e+00,2.513e+00,4.191e+00,3.237e+00,4.082e+00,4.538e+00,4.160e+00,4.654e+00,5.725e+00,5.007e+00,4.880e+00,5.841e+00,7.961e+00,5.777e+00,5.673e+00,5.439e+00,7.920e+00,6.374e+00,7.632e+00,7.888e+00,7.812e+00,8.782e+00,7.224e+00,8.978e+00,1.047e+01,8.743e+00,1.147e+01,7.974e+00,1.107e+01,1.120e+01,8.167e+00,9.526e+00,8.158e+00,9.070e+00,9.577e+00,1.128e+01,1.222e+01,1.130e+01,8.927e+00,1.281e+01,1.349e+01,1.436e+01,1.495e+01,1.285e+01,1.337e+01,1.241e+01,1.519e+01,1.294e+01,1.649e+01,1.440e+01,1.637e+01,1.530e+01,1.427e+01,1.693e+01,1.461e+01,1.495e+01,1.382e+01,1.368e+01,1.367e+01,1.678e+01,1.412e+01,1.317e+01,1.265e+01,1.350e+01,1.557e+01
3.873e-01,1.623e-01,7.637e-01,8.469e-01,1.557e+00,1.265e+00,2.509e+00,1.436e+00,1.964e+00,3.231e+00,3.415e+00,3.560e+00,3.849e+00,3.821e+00,3.293e+00,5.126e+00,5.090e+00,3.779e+00,5.697e+00,6.919e+00,5.315e+00,5.184e+00,5.577e+00,6.996e+00,5.069e+00,7.155e+00,6.235e+00,6.853e+00,7.945e+00,7.045e+00,7.500e+00,9.126e+00,7.951e+00,1.026e+01,9.047e+00,1.220e+01,1.144e+01,9.874e+00,1.020e+01,8.254e+00,9.603e+00,1.063e+01,1.068e+01,1.118e+01,1.084e+01,1.029e+01,1.130e+01,1.193e+01,1.393e+01,1.155e+01,1.272e+01,1.158e+01,1.201e+01,1.305e+01,1.319e+01,1.665e+01,1.494e+01,1.670e+01,1.575e+01,1.335e+01,1.650e+01,1.496e+01,1.430e+01,1.468e+01,1.292e+01,1.270e+01,1.415e+01,1.352e+01,1.314e+01,1.325e+01,1.221e+01,1.534e+01
1.299e-01,9.886e-02,2.616e-01,2.360e-01,4.244e-01,7.216e-01,1.302e+00,1.398e+00,1.312e+00,2.253e+00,1.642e+00,2.015e+00,2.086e+00,2.335e+00,2.757e+00,3.277e+00,3.020e+00,3.346e+00,3.744e+00,4.714e+00,4.370e+00,3.151e+00,4.117e+00,4.817e+00,4.864e+00,6.103e+00,5.463e+00,4.604e+00,7.571e+00,6.223e+00,6.420e+00,6.851e+00,5.055e+00,9.820e+00,6.869e+00,9.082e+00,1.012e+01,7.186e+00,7.496e+00,7.188e+00,7.164e+00,7.849e+00,9.756e+00,9.742e+00,9.228e+00,6.831e+00,1.151e+01,1.034e+01,1.271e+01,1.212e+01,1.126e+01,1.231e+01,1.074e+01,1.406e+01,1.169e+01,1.455e+01,1.311e+01,1.536e+01,1.400e+01,1.244e+01,1.503e+01,1.390e+01,1.466e+01,1.292e+01,1.368e+01,1.410e+01,1.601e+01,1.286e+01,1.246e+01,1.266e+01,1.255e+01,1.557e+01
3.832e-01,2.424e-01,6.881e-01,6.615e-01,1.510e+00,2.032e+00,2.958e+00,1.680e+00,2.258e+00,3.293e+00,3.014e+00,2.997e+00,4.379e+00,4.378e+00,4.516e+00,5.011e+00,4.681e+00,4.396e+00,5.734e+00,7.163e+00,5.190e+00,4.530e+00,5.495e+00,6.291e+00,5.941e+00,7.741e+00,7.342e+00,7.222e+00,8.078e+00,6.025e+00,7.325e+00,8.588e+00,8.784e+00,1.102e+01,8.481e+00,1.104e+01,9.887e+00,8.549e+00,8.894e+00,9.615e+00,9.100e+00,1.024e+01,1.069e+01,1.089e+01,1.095e+01,8.442e+00,1.243e+01,1.247e+01,1.271e+01,1.376e+01,1.212e+01,1.234e+01,1.283e+01,1.373e+01,1.302e+01,1.673e+01,1.305e+01,1.547e+01,1.461e+01,1.261e+01,1.740e+01,1.490e+01,1.587e+01,1.541e+01,1.606e+01,1.414e+01,1.674e+01,1.472e+01,1.441e+01,1.401e+01,1.234e+01,1.654e+01
2.950e-01,5.160e-01,1.064e+00,6.241e-01,9.816e-01,1.357e+00,2.675e+00,2.166e+00,2.036e+00,4.078e+00,2.985e+00,3.175e+00,2.746e+00,3.647e+00,3.214e+00,4.704e+00,3.986e+00,4.209e+00,4.914e+00,6.875e+00,5.839e+00,4.850e+00,5.205e+00,7.168e+00,5.139e+00,7.723e+00,7.009e+00,6.375e+00,9.046e+00,6.206e+00,8.613e+00,8.528e+00,8.678e+00,1.160e+01,9.741e+00,1.118e+01,1.191e+01,9.411e+00,9.870e+00,9.031e+00,1.013e+01,1.046e+01,1.084e+01,1.246e+01,1.122e+01,9.227e+00,1.236e+01,1.221e+01,1.475e+01,1.454e+01,1.241e+01,1.355e+01,1.313e+01,1.570e+01,1.373e+01,1.672e+01,1.563e+01,1.633e+01,1.587e+01,1.448e+01,1.765e+01,1.556e+01,1.638e+01,1.456e+01,1.472e+01,1.481e+01,1.681e+01,1.579e+01,1.525e+01,1.312e+01,1.492e+01,1.686e+01
1.432e-01,4.769e-01,9.707e-01,4.414e-01,9.374e-01,1.221e+00,2.172e+00,1.643e+00,1.620e+00,3.314e+00,2.753e+00,3.292e+00,3.090e+00,3.717e+00,4.161e+00,5.313e+00,3.851e+00,3.792e+00,5.238e+00,6.675e+00,5.108e+00,4.695e+00,4.610e+00,6.260e+00,5.399e+00,6.010e+00,5.746e+00,5.767e+00,8.003e+00,5.761e+00,7.924e+00,8.233e+00,6.853e+00,9.978e+00,8.571e+00,9.689e+00,9.911e+00,7.260e+00,8.969e+00,8.219e+00,9.133e+00,9.556e+00,1.025e+01,1.003e+01,1.004e+01,7.953e+00,1.110e+01,1.217e+01,1.251e+01,1.232e+01,1.143e+01,1.262e+01,1.178e+01,1.338e+01,1.192e+01,1.508e+01,1.370e+01,1.453e+01,1.391e+01,1.148e+01,1.582e+01,1.538e+01,1.449e+01,1.525e+01,1.486e+01,1.486e+01,1.551e+01,1.325e+01,1.426e+01,1.301e+01,1.275e+01,1.473e+01
8.456e-02,2.469e-01,8.286e-01,8.738e-01,1.832e+00,1.853e+00,2.744e+00,1.456e+00,1.436e+00,2.719e+00,3.014e+00,3.716e+00,3.862e+00,3.900e+00,3.545e+00,4.411e+00,3.967e+00,4.210e+00,5.447e+00,7.146e+00,5.902e+00,5.494e+00,5.926e+00,7.482e+00,5.523e+00,7.507e+00,7.627e+00,7.460e+00,8.778e+00,6.986e+00,8.497e+00,1.031e+01,8.769e+00,1.213e+01,9.228e+00,1.186e+01,1.156e+01,9.137e+00,9.396e+00,8.897e+00,1.026e+01,1.037e+01,1.109e+01,1.141e+01,1.042e+01,1.020e+01,1.356e+01,1.360e+01,1.510e+01,1.338e+01,1.313e+01,1.366e+01,1.301e+01,1.566e+01,1.398e+01,1.652e+01,1.503e+01,1.707e+01,1.545e+01,1.450e+01,1.812e+01,1.765e+01,1.717e+01,1.730e+01,1.801e+01,1.640e+01,1.864e+01,1.633e+01,1.552e+01,1.363e+01,1.606e+01,1.842e+01
4.056e-01,2.549e-01,1.027e+00,9.394e-01,1.787e+00,1.416e+00,2.639e+00,1.435e+00,1.308e+00,2.935e+00,3.426e+00,2.438e+00,3.405e+00,2.531e+00,3.299e+00,4.482e+00,3.849e+00,5.174e+00,5.191e+00,6.330e+00,5.364e+00,4.763e+00,5.500e+00,5.994e+00,5.047e+00,7.024e+00,5.756e+00,5.761e+00,7.431e+00,6.845e+00,7.289e+00,7.834e+00,7.112e+00,1.064e+01,8.248e+00,1.078e+01,1.048e+01,8.166e+00,8.676e+00,8.459e+00,8.864e+00,9.415e+00,1.064e+01,1.105e+01,1.037e+01,8.055e+00,1.110e+01,1.089e+01,1.294e+01,1.161e+01,1.222e+01,1.230e+01,1.192e+01,1.385e+01,1.216e+01,1.517e+01,1.324e+01,1.441e+01,1.444e+01,1.185e+01,1.578e+01,1.469e+01,1.607e+01,1.428e+01,1.447e+01,1.406e+01,1.705e+01,1.479e+01,1.439e+01,1.279e+01,1.416e+01,1.727e+01
3.126e-01,1.648e-01,5.870e-01,4.998e-01,6.972e-01,1.317e+00,2.281e+00,1.870e+00,1.815e+00,2.734e+00,2.754e+00,2.345e+00,2.180e+00,3.212e+00,2.431e+00,2.846e+00,3.865e+00,3.987e+00,4.437e+00,5.481e+00,4.218e+00,3.368e+00,3.565e+00,5.099e+00,5.167e+00,6.751e+00,6.982e+00,5.855e+00,6.616e+00,6.258e+00,6.689e+00,7.268e+00,5.872e+00,9.276e+00,7.345e+00,9.710e+00,8.564e+00,6.847e+00,7.684e+00,7.892e+00,8.657e+00,8.366e+00,1.050e+01,9.925e+00,9.245e+00,7.707e+00,1.180e+01,1.088e+01,1.108e+01,1.242e+01,9.756e+00,1.161e+01,1.216e+01,1.208e+01,1.165e+01,1.340e+01,1.201e+01,1.475e+01,1.254e+01,1.176e+01,1.453e+01,1.366e+01,1.352e+01,1.584e+01,1.336e+01,1.403e+01,1.636e+01,1.371e+01,1.336e+01,1.159e+01,1.189e+01,1.551e+01
3.845e-01,2.965e-01,8.478e-01,8.206e-01,1.030e+00,8.485e-01,2.355e+00,1.747e+00,1.505e+00,3.429e+00,2.868e+00,2.510e+00,2.989e+00,3.428e+00,3.130e+00,4.954e+00,4.013e+00,4.356e+00,4.797e+00,6.742e+00,5.574e+00,3.734e+00,5.457e+00,7.086e+00,6.207e+00,7.302e+00,7.028e+00,6.808e+00,8.921e+00,7.415e+00,8.887e+00,9.344e+00,8.243e+00,1.115e+01,8.096e+00,1.135e+01,1.219e+01,9.414e+00,9.588e+00,9.475e+00,8.523e+00,1.100e+01,1.086e+01,1.131e+01,1.016e+01,8.774e+00,1.208e+01,1.084e+01,1.368e+01,1.269e+01,1.223e+01,1.164e+01,1.111e+01,1.405e+01,1.313e+01,1.697e+01,1.338e+01,1.626e+01,1.571e+01,1.407e+01,1.760e+01,1.632e+01,1.618e+01,1.541e+01,1.636e+01,1.606e+01,1.724e+01,1.616e+01,1.651e+01,1.426e+01,1.577e+01,1.736e+01
2.080e-02,3.838e-01,8.445e-01,8.795e-01,1.061e+00,1.824e+00,2.570e+00,1.597e+00,2.469e+00,3.903e+00,2.834e+00,3.458e+00,4.226e+00,3.772e+00,4.464e+00,5.214e+00,4.975e+00,4.584e+00,5.868e+00,8.211e+00,5.262e+00,5.586e+00,5.996e+00,8.621e+00,6.419e+00,7.007e+00,8.014e+00,7.382e+00,7.829e+00,7.279e+00,7.696e+00,8.591e+00,7.308e+00,1.059e+01,8.685e+00,1.067e+01,9.971e+00,8.910e+00,8.835e+00,8.801e+00,8.593e+00,9.571e+00,1.033e+01,1.046e+01,1.077e+01,7.894e+00,1.099e+01,1.260e+01,1.287e+01,1.288e+01,1.250e+01,1.183e+01,1.170e+01,1.484e+01,1.195e+01,1.683e+01,1.486e+01,1.490e+01,1.519e+01,1.442e+01,1.706e+01,1.648e+01,1.584e+01,1.607e+01,1.560e+01,1.476e+01,1.936e+01,1.619e+01,1.557e+01,1.408e+01,1.427e+01,1.677e+01
8.110e-02,9.055e-02,2.297e-01,3.668e-01,9.599e-01,1.224e+00,1.641e+00,1.043e+00,1.810e+00,2.616e+00,1.977e+00,2.811e+00,3.154e+00,3.250e+00,3.775e+00,4.930e+00,4.450e+00,3.768e+00,5.029e+00,6.906e+00,4.999e+00,4.568e+00,5.342e+00,6.312e+00,5.273e+00,6.927e+00,6.498e+00,6.148e+00,8.718e+00,6.029e+00,6.778e+00,8.791e+00,7.194e+00,9.506e+00,8.464e+00,9.948e+00,9.777e+00,7.462e+00,9.694e+00,7.698e+00,9.694e+00,1.066e+01,1.101e+01,1.143e+01,1.141e+01,9.313e+00,1.183e+01,1.194e+01,1.468e+01,1.338e+01,1.429e+01,1.414e+01,1.241e+01,1.501e+01,1.334e+01,1.634e+01,1.376e+01,1.588e+01,1.606e+01,1.400e+01,1.688e+01,1.766e+01,1.691e+01,1.600e+01,1.719e+01,1.674e+01,1.946e+01,1.699e+01,1.753e+01,1.536e+01,1.511e+01,1.914e+01
8.688e-02,3.671e-01,9.455e-01,7.323e-01,1.664e+00,2.175e+00,3.000e+00,2.288e+00,2.393e+00,4.325e+00,4.018e+00,4.112e+00,4.093e+00,3.697e+00,3.975e+00,5.433e+00,5.792e+00,5.163e+00,5.350e+00,7.821e+00,6.351e+00,5.036e+00,6.532e+00,7.347e+00,5.284e+00,8.195e+00,7.551e+00,7.500e+00,9.059e+00,7.589e+00,8.047e+00,9.170e+00,8.776e+00,1.236e+01,9.862e+00,1.235e+01,1.133e+01,9.515e+00,9.600e+00,9.809e+00,1.073e+01,1.143e+01,1.159e+01,1.234e+01,1.301e+01,1.018e+01,1.321e+01,1.350e+01,1.473e+01,1.404e+01,1.478e+01,1.414e+01,1.316e+01,1.674e+01,1.347e+01,1.639e+01,1.490e+01,1.748e+01,1.639e+01,1.452e+01,1.884e+01,1.682e+01,1.711e+01,1.768e+01,1.660e+01,1.720e+01,1.971e+01,1.686e+01,1.791e+01,1.470e+01,1.536e+01,2.065e+01
2.533e-01,3.009e-01,9.261e-01,7.526e-01,1.156e+00,1.372e+00,2.448e+00,1.655e+00,1.459e+00,2.761e+00,2.950e+00,3.012e+00,3.245e+00,3.416e+00,3.179e+00,4.204e+00,4.507e+00,4.256e+00,5.018e+00,6.624e+00,4.802e+00,4.048e+00,5.082e+00,6.963e+00,6.147e+00,6.150e+00,6.672e+00,6.834e+00,7.404e+00,7.045e+00,7.221e+00,8.740e+00,6.735e+00,1.067e+01,8.680e+00,1.031e+01,1.036e+01,8.676e+00,9.236e+00,9.686e+00,1.005e+01,1.028e+01,1.177e+01,1.088e+01,1.019e+01,9.167e+00,1.247e+01,1.244e+01,1.276e+01,1.271e+01,1.310e+01,1.044e+01,1.215e+01,1.339e+01,1.246e+01,1.625e+01,1.435e+01,1.680e+01,1.395e+01,1.391e+01,1.686e+01,1.559e+01,1.590e+01,1.614e+01,1.510e+01,1.558e+01,1.989e+01,1.661e+01,1.714e+01,1.450e+01,1.431e+01,1.996e+01
5.957e-02,3.061e-01,6.460e-01,6.249e-01,1.208e+00,1.707e+00,2.262e+00,9.808e-01,1.736e+00,2.538e+00,2.030e+00,2.172e+00,2.277e+00,2.497e+00,3.097e+00,3.474e+00,3.589e+00,3.542e+00,3.838e+00,5.517e+00,3.877e+00,3.764e+00,3.878e+00,5.014e+00,4.788e+00,5.725e+00,5.670e+00,4.952e+00,5.989e+00,5.015e+00,5.528e+00,7.137e+00,6.068e+00,7.938e+00,6.112e+00,9.148e+00,8.529e+00,6.139e+00,8.300e+00,6.645e+00,7.516e+00,8.182e+00,8.287e+00,9.124e+00,8.708e+00,7.838e+00,9.854e+00,9.252e+00,1.092e+01,9.746e+00,1.013e+01,1.019e+01,1.042e+01,1.021e+01,9.975e+00,1.221e+01,1.161e+01,1.383e+01,1.192e+01,1.187e+01,1.452e+01,1.457e+01,1.333e+01,1.433e+01,1.428e+01,1.262e+01,1.694e+01,1.448e+01,1.380e+01,1.253e+01,1.332e+01,1.752e+01
2.828e-02,3.194e-01,8.496e-01,8.836e-01,1.864e+00,2.309e+00,3.079e+00,1.651e+00,2.168e+00,3.444e+00,2.862e+00,3.836e+00,4.137e+00,3.679e+00,4.936e+00,5.809e+00,4.516e+00,4.077e+00,4.908e+00,7.138e+00,5.845e+00,4.973e+00,6.390e+00,6.165e+00,5.223e+00,7.319e+00,7.483e+00,7.126e+00,9.324e+00,7.022e+00,8.384e+00,9.698e+00,8.210e+00,1.075e+01,8.847e+00,1.076e+01,1.086e+01,8.119e+00,8.901e+00,8.245e+00,9.221e+00,9.690e+00,9.987e+00,1.071e+01,1.269e+01,9.238e+00,1.237e+01,1.231e+01,1.519e+01,1.327e+01,1.411e+01,1.432e+01,1.288e+01,1.566e+01,1.403e+01,1.586e+01,1.403e+01,1.568e+01,1.616e+01,1.426e+01,1.759e+01,1.794e+01,1.760e+01,1.714e+01,1.818e+01,1.838e+01,2.104e+01,1.757e+01,1.790e+01,1.598e+01,1.656e+01,2.105e+01
2.728e-02,2.991e-01,6.676e-01,7.201e-01,9.825e-01,1.466e+00,2.125e+00,9.969e-01,1.769e+00,2.874e+00,2.180e+00,2.591e+00,2.941e+00,3.302e+00,3.553e+00,4.224e+00,3.249e+00,3.491e+00,4.453e+00,5.960e+00,4.183e+00,4.232e+00,4.153e+00,6.634e+00,6.079e+00,5.540e+00,5.824e+00,5.827e+00,6.224e+00,5.651e+00,6.574e+00,8.606e+00,7.428e+00,9.949e+00,7.758e+00,1.062e+01,1.066e+01,7.797e+00,8.553e+00,8.320e+00,8.025e+00,9.879e+00,9.169e+00,1.045e+01,9.619e+00,8.894e+00,1.153e+01,1.218e+01,1.405e+01,1.376e+01,1.239e+01,1.327e+01,1.284e+01,1.312e+01,1.332e+01,1.710e+01,1.334e+01,1.587e+01,1.629e+01,1.435e+01,1.828e+01,1.738e+01,1.851e+01,1.781e+01,1.781e+01,1.562e+01,1.895e+01,1.778e+01,1.621e+01,1.435e+01,1.538e+01,2.091e+01
7.727e-02,1.532e-01,3.906e-01,3.756e-01,5.201e-01,1.126e+00,1.701e+00,1.671e+00,1.657e+00,2.732e+00,2.446e+00,2.251e+00,2.328e+00,3.193e+00,3.321e+00,3.695e+00,4.354e+00,4.050e+00,4.136e+00,6.023e+00,4.365e+00,2.861e+00,4.538e+00,5.337e+00,6.020e+00,6.723e+00,6.844e+00,5.787e+00,8.055e+00,6.905e+00,6.893e+00,7.727e+00,6.925e+00,9.477e+00,8.588e+00,9.767e+00,9.664e+00,7.026e+00,8.884e+00,8.353e+00,9.172e+00,1.025e+01,1.132e+01,1.004e+01,9.568e+00,8.623e+00,1.185e+01,1.104e+01,1.270e+01,1.313e+01,1.260e+01,1.186e+01,1.059e+01,1.268e+01,1.149e+01,1.470e+01,1.198e+01,1.448e+01,1.273e+01,1.120e+01,1.466e+01,1.437e+01,1.458e+01,1.422e+01,1.420e+01,1.446e+01,1.690e+01,1.437e+01,1.452e+01,1.213e+01,1.408e+01,1.884e+01
