2.907e-01,4.028e-01,7.922e-01,7.400e-01,6.095e-01,8.380e-01,4.843e-01,6.077e-02,3.295e-01,1.909e-01,9.448e-01,8.646e-01,8.906e-01,9.593e-01,1.338e-01,8.656e-01,6.268e-01,7.494e-01,2.561e-02,5.019e-01,5.953e-01,3.744e-01,1.956e-01,8.049e-01,9.665e-01,3.729e-01,2.571e-01,9.521e-01,2.372e-01,8.143e-01,9.468e-01,8.197e-01,3.939e-01,6.722e-01,6.362e-01,3.316e-01,4.629e-01,1.466e-02,1.800e-01,9.304e-01,3.391e-01,9.382e-01,5.588e-01,7.954e-01,8.586e-01,2.255e-01,8.428e-01,9.441e-02,4.070e-01,7.298e-01,4.912e-01,8.591e-01,2.799e-01,8.715e-01,5.864e-01,4.118e-01,5.695e-01,7.994e-01,2.506e-01,1.831e-01,7.748e-01,5.470e-01,3.631e-01,7.179e-01,9.577e-01,6.539e-01,7.929e-01,4.820e-01,6.385e-01,7.738e-01,8.873e-01,5.842e-01,2.310e-01,8.250e-01,5.784e-01,8.000e-01,2.147e-02,8.446e-01,9.775e-01,8.456e-01,9.842e-01,7.712e-01,8.209e-01,5.919e-01,3.013e-01,4.092e-01
2.708e-01,9.890e-01,1.021e+00,1.242e+00,7.040e-01,1.739e+00,1.008e+00,3.912e-01,1.040e+00,3.740e-01,1.673e+00,1.170e+00,1.721e+00,1.564e+00,7.076e-01,9.697e-01,1.552e+00,9.978e-01,9.045e-01,4.938e-01,9.088e-01,6.403e-01,4.631e-01,1.615e+00,1.628e+00,7.904e-01,5.190e-01,1.427e+00,7.275e-01,1.681e+00,1.133e+00,1.574e+00,8.483e-01,1.509e+00,1.218e+00,7.056e-01,6.682e-01,6.117e-01,9.044e-01,1.663e+00,1.242e+00,1.835e+00,5.531e-01,1.028e+00,1.268e+00,5.264e-01,9.687e-01,1.820e-01,1.204e+00,1.581e+00,1.163e+00,1.288e+00,8.483e-01,1.122e+00,1.240e+00,6.363e-01,6.083e-01,8.848e-01,1.090e+00,1.027e+00,1.412e+00,6.498e-01,5.670e-01,9.688e-01,9.980e-01,1.018e+00,1.170e+00,1.182e+00,1.287e+00,1.056e+00,1.062e+00,6.200e-01,7.872e-01,1.514e+00,1.201e+00,1.715e+00,6.902e-01,1.563e+00,1.599e+00,9.923e-01,1.737e+00,8.815e-01,1.510e+00,1.108e+00,1.101e+00,1.074e+00
2.358e-01,6.666e-01,1.393e+00,1.581e+00,7.034e-01,1.488e+00,1.336e+00,4.586e-01,7.382e-01,7.750e-01,1.917e+00,1.186e+00,1.323e+00,1.890e+00,8.838e-01,9.483e-01,1.745e+00,9.500e-01,1.440e+00,8.279e-01,1.274e+00,1.181e+00,1.113e+00,1.257e+00,2.090e+00,1.012e+00,8.110e-01,1.317e+00,1.291e+00,1.992e+00,1.523e+00,1.199e+00,9.710e-01,1.709e+00,1.481e+00,5.001e-01,9.095e-01,5.410e-01,1.335e+00,1.817e+00,1.210e+00,1.594e+00,1.411e+00,1.764e+00,1.795e+00,3.980e-01,8.574e-01,1.078e+00,1.551e+00,1.760e+00,1.660e+00,1.341e+00,1.495e+00,9.526e-01,1.611e+00,1.248e+00,1.137e+00,8.363e-01,1.542e+00,1.583e+00,1.319e+00,1.454e+00,5.024e-01,1.476e+00,1.171e+00,9.437e-01,1.480e+00,8.638e-01,1.437e+00,9.684e-01,1.769e+00,8.070e-01,1.043e+00,1.128e+00,1.827e+00,1.941e+00,8.187e-01,1.751e+00,1.456e+00,1.423e+00,1.832e+00,1.142e+00,1.980e+00,8.314e-01,8.920e-01,1.632e+00
8.738e-05,1.526e-01,5.895e-01,1.046e+00,1.055e+00,6.859e-01,8.989e-01,1.271e+00,1.237e+00,1.404e+00,1.713e+00,1.057e+00,6.663e-01,1.753e+00,1.062e+00,2.420e-01,1.227e+00,1.142e+00,1.222e+00,4.634e-01,8.393e-01,7.195e-01,1.702e+00,1.048e+00,1.381e+00,6.792e-01,8.980e-01,1.174e+00,1.521e+00,1.453e+00,1.070e+00,1.073e+00,7.905e-01,1.319e+00,1.300e+00,3.140e-01,1.270e+00,6.010e-01,1.123e+00,1.001e+00,1.302e+00,1.086e+00,1.556e+00,9.860e-01,8.839e-01,7.283e-01,9.677e-01,1.784e+00,1.637e+00,1.634e+00,1.462e+00,9.810e-01,1.755e+00,1.944e-01,1.277e+00,1.306e+00,1.147e+00,9.214e-01,1.521e+00,1.784e+00,9.628e-01,9.656e-01,5.738e-01,1.439e+00,8.964e-01,6.979e-01,1.387e+00,1.031e+00,1.597e+00,7.471e-01,8.672e-01,3.754e-01,8.471e-01,2.896e-01,1.516e+00,1.164e+00,1.168e+00,1.652e+00,6.215e-01,1.154e+00,8.953e-01,9.221e-01,1.136e+00,1.120e+00,3.987e-01,1.580e+00
9.279e-02,6.936e-01,1.005e+00,1.354e+00,6.723e-01,2.334e+00,1.550e+00,1.477e+00,1.918e+00,1.169e+00,1.796e+00,1.637e+00,1.792e+00,2.057e+00,1.422e+00,7.174e-01,2.649e+00,9.837e-01,2.157e+00,1.029e+00,1.500e+00,1.921e+00,1.399e+00,1.938e+00,2.009e+00,1.679e+00,7.888e-01,1.863e+00,1.747e+00,2.402e+00,1.412e+00,1.757e+00,1.075e+00,1.761e+00,2.289e+00,1.304e+00,1.486e+00,1.270e+00,2.015e+00,1.861e+00,1.729e+00,1.841e+00,1.937e+00,2.152e+00,1.705e+00,1.291e+00,9.677e-01,1.583e+00,1.739e+00,2.288e+00,2.070e+00,1.674e+00,1.808e+00,6.654e-01,1.752e+00,1.444e+00,1.113e+00,1.121e+00,2.336e+00,2.106e+00,1.740e+00,2.082e+00,5.617e-01,1.317e+00,7.941e-01,1.155e+00,1.578e+00,1.738e+00,1.555e+00,1.326e+00,1.366e+00,9.531e-01,1.534e+00,1.825e+00,2.425e+00,2.290e+00,1.714e+00,1.852e+00,1.986e+00,1.403e+00,1.975e+00,1.028e+00,2.650e+00,1.177e+00,1.491e+00,2.528e+00
4.364e-02,2.276e-01,4.278e-01,7.340e-01,8.511e-01,1.908e+00,1.687e+00,1.573e+00,2.435e+00,2.060e+00,1.349e+00,1.972e+00,1.547e+00,1.692e+00,1.710e+00,7.686e-01,1.640e+00,1.148e+00,2.051e+00,1.007e+00,9.291e-01,1.723e+00,2.128e+00,1.657e+00,2.037e+00,1.461e+00,9.902e-01,2.004e+00,2.092e+00,1.652e+00,1.977e+00,2.247e+00,1.121e+00,1.816e+00,2.578e+00,1.232e+00,1.429e+00,1.158e+00,1.464e+00,1.808e+00,1.528e+00,1.297e+00,2.493e+00,1.629e+00,1.219e+00,1.205e+00,1.939e+00,1.841e+00,1.837e+00,2.454e+00,1.860e+00,1.471e+00,1.601e+00,1.211e+00,1.216e+00,1.475e+00,1.697e+00,1.672e+00,1.906e+00,1.822e+00,1.696e+00,2.060e+00,1.494e+00,1.697e+00,1.588e+00,1.158e+00,1.265e+00,1.442e+00,1.723e+00,1.416e+00,7.153e-01,1.574e+00,1.453e+00,1.529e+00,1.974e+00,2.018e+00,1.663e+00,2.071e+00,1.550e+00,1.446e+00,1.924e+00,1.811e+00,2.068e+00,2.003e+00,1.185e+00,2.403e+00
1.333e-01,2.375e-01,7.658e-01,9.438e-01,7.679e-01,1.287e+00,2.217e+00,1.751e+00,1.786e+00,1.930e+00,2.182e+00,2.161e+00,2.055e+00,2.372e+00,1.276e+00,1.358e+00,2.108e+00,1.170e+00,1.743e+00,9.518e-01,1.820e+00,1.345e+00,1.706e+00,1.907e+00,2.029e+00,1.540e+00,1.125e+00,1.859e+00,1.542e+00,1.532e+00,2.557e+00,2.008e+00,9.752e-01,2.270e+00,2.556e+00,1.440e+00,1.133e+00,1.594e+00,1.284e+00,1.990e+00,2.033e+00,1.444e+00,2.768e+00,2.183e+00,2.059e+00,8.708e-01,2.027e+00,2.071e+00,1.709e+00,2.608e+00,1.588e+00,1.398e+00,1.511e+00,1.342e+00,1.670e+00,1.749e+00,1.997e+00,1.652e+00,1.786e+00,1.706e+00,1.911e+00,2.494e+00,1.531e+00,1.734e+00,1.383e+00,1.556e+00,1.837e+00,1.457e+00,1.690e+00,1.169e+00,1.300e+00,1.168e+00,1.097e+00,1.674e+00,1.869e+00,2.541e+00,1.732e+00,2.144e+00,1.271e+00,1.533e+00,1.872e+00,2.093e+00,2.413e+00,1.701e+00,1.226e+00,1.899e+00
1.360e-01,3.988e-01,5.303e-01,6.639e-01,5.366e-01,1.485e+00,1.424e+00,1.523e+00,1.916e+00,1.867e+00,1.635e+00,1.590e+00,2.300e+00,1.846e+00,1.412e+00,1.411e+00,2.135e+00,1.146e+00,1.647e+00,1.510e+00,1.044e+00,1.103e+00,1.445e+00,2.239e+00,1.789e+00,1.673e+00,1.062e+00,2.051e+00,2.240e+00,2.084e+00,2.377e+00,2.359e+00,1.742e+00,1.736e+00,2.060e+00,1.637e+00,1.204e+00,1.434e+00,1.043e+00,2.031e+00,1.962e+00,2.087e+00,2.208e+00,1.805e+00,2.010e+00,8.855e-01,2.272e+00,1.031e+00,1.478e+00,2.334e+00,1.805e+00,1.498e+00,1.358e+00,1.745e+00,1.330e+00,1.154e+00,1.884e+00,1.791e+00,1.502e+00,1.387e+00,1.490e+00,1.654e+00,2.122e+00,1.832e+00,2.089e+00,1.036e+00,1.247e+00,1.503e+00,1.885e+00,1.215e+00,8.436e-01,1.924e+00,1.059e+00,1.995e+00,1.315e+00,2.380e+00,1.091e+00,2.434e+00,1.524e+00,1.086e+00,2.031e+00,1.883e+00,1.833e+00,2.482e+00,1.988e+00,1.959e+00
2.619e-01,9.457e-01,1.428e+00,1.968e+00,1.610e+00,2.831e+00,2.584e+00,2.564e+00,3.473e+00,3.233e+00,3.625e+00,3.147e+00,3.329e+00,3.877e+00,2.803e+00,2.288e+00,4.150e+00,3.059e+00,3.209e+00,2.541e+00,2.430e+00,2.744e+00,3.264e+00,3.701e+00,4.132e+00,3.285e+00,2.544e+00,4.035e+00,3.395e+00,3.446e+00,3.715e+00,3.486e+00,2.252e+00,4.185e+00,3.893e+00,2.244e+00,2.703e+00,2.300e+00,2.752e+00,4.000e+00,4.103e+00,4.089e+00,4.018e+00,3.590e+00,3.009e+00,2.698e+00,2.957e+00,2.585e+00,3.010e+00,4.529e+00,3.693e+00,3.564e+00,3.006e+00,2.256e+00,3.236e+00,2.587e+00,2.654e+00,2.791e+00,3.726e+00,3.086e+00,3.422e+00,2.967e+00,2.295e+00,3.673e+00,3.324e+00,3.079e+00,2.879e+00,3.750e+00,3.379e+00,2.951e+00,2.342e+00,2.114e+00,1.998e+00,3.013e+00,3.094e+00,4.050e+00,2.609e+00,4.650e+00,3.207e+00,3.238e+00,3.202e+00,3.554e+00,4.219e+00,3.774e+00,3.096e+00,3.650e+00
1.404e-01,4.052e-01,7.464e-01,9.378e-01,6.969e-01,1.665e+00,2.166e+00,1.986e+00,2.165e+00,2.590e+00,2.816e+00,3.082e+00,2.984e+00,2.499e+00,1.716e+00,2.178e+00,3.155e+00,1.861e+00,2.797e+00,1.549e+00,1.842e+00,1.982e+00,2.066e+00,2.476e+00,2.366e+00,2.706e+00,1.389e+00,2.882e+00,2.374e+00,2.835e+00,2.774e+00,2.731e+00,2.086e+00,2.763e+00,3.338e+00,2.723e+00,1.828e+00,1.955e+00,2.025e+00,3.210e+00,2.656e+00,2.816e+00,3.129e+00,2.504e+00,2.982e+00,1.237e+00,2.806e+00,2.825e+00,2.383e+00,3.018e+00,2.333e+00,2.686e+00,2.146e+00,1.978e+00,2.501e+00,1.889e+00,2.629e+00,2.232e+00,2.468e+00,2.660e+00,2.833e+00,3.210e+00,2.857e+00,2.338e+00,1.958e+00,2.421e+00,2.025e+00,2.072e+00,2.938e+00,2.101e+00,1.994e+00,1.823e+00,1.559e+00,2.951e+00,2.034e+00,3.899e+00,2.295e+00,3.384e+00,1.800e+00,2.424e+00,2.756e+00,2.244e+00,2.696e+00,3.019e+00,2.893e+00,2.344e+00
3.834e-02,2.985e-01,5.877e-01,1.050e+00,1.165e+00,1.823e+00,2.556e+00,3.022e+00,3.182e+00,3.546e+00,3.932e+00,4.370e+00,4.133e+00,3.433e+00,3.067e+00,2.403e+00,3.935e+00,2.815e+00,4.309e+00,2.617e+00,2.533e+00,3.086e+00,3.123e+00,4.002e+00,3.291e+00,3.779e+00,2.559e+00,3.755e+00,4.027e+00,3.251e+00,4.106e+00,3.908e+00,3.029e+00,4.155e+00,4.635e+00,3.856e+00,2.733e+00,3.479e+00,2.652e+00,3.927e+00,3.716e+00,3.237e+00,4.244e+00,2.875e+00,3.370e+00,2.565e+00,3.410e+00,4.086e+00,3.656e+00,4.160e+00,3.807e+00,3.804e+00,3.776e+00,1.985e+00,3.533e+00,2.518e+00,3.837e+00,2.963e+00,3.857e+00,3.466e+00,4.131e+00,3.918e+00,3.571e+00,3.033e+00,3.144e+00,3.304e+00,3.452e+00,3.697e+00,3.850e+00,2.759e+00,2.643e+00,2.175e+00,2.470e+00,3.706e+00,3.461e+00,4.330e+00,3.070e+00,4.990e+00,2.653e+00,3.411e+00,3.496e+00,2.906e+00,3.182e+00,4.461e+00,4.041e+00,3.290e+00
7.973e-03,4.264e-01,3.431e-01,6.236e-01,4.522e-01,1.934e+00,1.811e+00,1.633e+00,2.461e+00,2.247e+00,1.787e+00,2.839e+00,2.433e+00,2.731e+00,2.837e+00,1.658e+00,3.348e+00,2.222e+00,2.840e+00,1.880e+00,1.404e+00,2.284e+00,2.327e+00,2.508e+00,3.235e+00,3.066e+00,2.347e+00,2.667e+00,2.401e+00,2.843e+00,2.159e+00,3.024e+00,2.028e+00,3.548e+00,4.002e+00,2.152e+00,2.359e+00,2.532e+00,2.548e+00,2.855e+00,3.016e+00,2.540e+00,2.954e+00,2.936e+00,2.411e+00,2.238e+00,2.639e+00,2.344e+00,2.107e+00,3.173e+00,2.962e+00,2.797e+00,1.901e+00,1.856e+00,2.591e+00,2.412e+00,2.217e+00,2.104e+00,3.177e+00,3.082e+00,2.599e+00,3.199e+00,2.287e+00,2.478e+00,2.409e+00,2.937e+00,1.386e+00,2.645e+00,2.567e+00,2.760e+00,1.834e+00,1.960e+00,2.547e+00,2.436e+00,2.372e+00,3.248e+00,2.729e+00,2.906e+00,2.355e+00,2.151e+00,2.496e+00,2.692e+00,3.013e+00,2.741e+00,3.379e+00,3.101e+00
2.807e-01,6.400e-01,1.041e+00,1.367e+00,1.381e+00,1.790e+00,2.329e+00,2.296e+00,2.744e+00,3.069e+00,3.766e+00,4.005e+00,4.524e+00,5.425e+00,3.868e+00,3.126e+00,4.854e+00,4.309e+00,3.766e+00,3.865e+00,2.870e+00,3.197e+00,3.178e+00,4.865e+00,4.637e+00,3.723e+00,4.082e+00,4.350e+00,3.616e+00,3.814e+00,4.517e+00,4.596e+00,4.095e+00,5.419e+00,4.847e+00,3.752e+00,3.228e+00,3.969e+00,2.731e+00,4.705e+00,5.148e+00,4.326e+00,4.246e+00,4.247e+00,4.180e+00,3.070e+00,4.305e+00,2.872e+00,3.819e+00,4.434e+00,4.395e+00,4.804e+00,3.918e+00,3.063e+00,4.301e+00,4.038e+00,4.027e+00,3.509e+00,3.910e+00,3.690e+00,4.603e+00,3.768e+00,4.201e+00,4.799e+00,4.658e+00,4.648e+00,3.756e+00,4.739e+00,4.801e+00,4.257e+00,3.868e+00,3.226e+00,2.716e+00,3.940e+00,3.020e+00,4.364e+00,3.567e+00,5.867e+00,4.019e+00,4.268e+00,4.318e+00,4.299e+00,4.488e+00,5.100e+00,4.584e+00,3.849e+00
7.393e-02,1.294e-01,5.399e-01,7.738e-01,7.875e-01,6.718e-01,7.461e-01,1.419e+00,1.526e+00,2.196e+00,1.937e+00,1.720e+00,1.951e+00,3.181e+00,2.709e+00,2.189e+00,3.194e+00,3.203e+00,2.431e+00,2.784e+00,2.094e+00,2.272e+00,2.634e+00,3.282e+00,2.967e+00,2.646e+00,3.257e+00,2.977e+00,2.791e+00,2.571e+00,2.312e+00,2.583e+00,2.919e+00,3.652e+00,2.532e+00,2.065e+00,2.945e+00,2.070e+00,2.421e+00,3.724e+00,3.462e+00,3.031e+00,3.227e+00,3.513e+00,2.504e+00,2.961e+00,2.602e+00,1.843e+00,2.825e+00,3.141e+00,2.920e+00,3.531e+00,3.139e+00,2.364e+00,2.958e+00,2.621e+00,2.341e+00,2.333e+00,3.006e+00,3.054e+00,2.802e+00,2.677e+00,2.914e+00,4.242e+00,3.755e+00,3.022e+00,2.871e+00,3.752e+00,3.764e+00,2.678e+00,2.860e+00,2.882e+00,2.250e+00,2.130e+00,2.062e+00,2.873e+00,2.625e+00,4.357e+00,2.419e+00,2.753e+00,2.162e+00,2.901e+00,3.297e+00,3.454e+00,3.506e+00,3.321e+00
2.760e-01,7.772e-01,1.167e+00,1.364e+00,9.186e-01,2.696e+00,2.528e+00,1.773e+00,2.633e+00,2.538e+00,3.137e+00,4.161e+00,3.754e+00,3.701e+00,3.331e+00,3.344e+00,4.457e+00,3.768e+00,3.997e+00,3.030e+00,2.880e+00,3.209e+00,3.015e+00,4.350e+00,4.640e+00,4.006e+00,3.430e+00,4.525e+00,3.521e+00,4.617e+00,4.169e+00,4.535e+00,3.463e+00,4.719e+00,5.189e+00,3.865e+00,3.059e+00,3.705e+00,3.080e+00,4.971e+00,3.671e+00,4.234e+00,4.561e+00,4.332e+00,4.561e+00,2.480e+00,4.285e+00,3.102e+00,3.516e+00,4.746e+00,3.663e+00,4.858e+00,3.627e+00,3.404e+00,4.087e+00,3.805e+00,4.053e+00,3.052e+00,4.557e+00,4.394e+00,4.911e+00,4.850e+00,3.220e+00,3.983e+00,3.424e+00,3.992e+00,3.594e+00,3.251e+00,4.423e+00,4.170e+00,3.546e+00,3.302e+00,3.358e+00,4.568e+00,4.007e+00,5.024e+00,3.865e+00,4.933e+00,3.755e+00,3.852e+00,4.411e+00,3.522e+00,4.512e+00,3.900e+00,4.213e+00,3.859e+00
3.759e-02,1.067e-01,6.530e-01,9.429e-01,8.599e-01,1.378e+00,1.241e+00,1.639e+00,1.930e+00,2.335e+00,2.140e+00,2.525e+00,1.800e+00,2.436e+00,2.506e+00,2.831e+00,3.925e+00,3.077e+00,3.598e+00,3.335e+00,2.593e+00,3.695e+00,3.055e+00,3.067e+00,3.292e+00,3.395e+00,3.432e+00,3.979e+00,3.417e+00,3.498e+00,2.987e+00,2.518e+00,3.030e+00,3.151e+00,4.195e+00,2.678e+00,3.164e+00,3.058e+00,2.905e+00,3.636e+00,3.315e+00,3.073e+00,4.043e+00,3.375e+00,3.724e+00,3.276e+00,3.183e+00,3.653e+00,3.070e+00,4.269e+00,3.375e+00,4.091e+00,4.502e+00,1.833e+00,3.392e+00,3.695e+00,3.014e+00,2.377e+00,4.330e+00,3.786e+00,4.089e+00,3.786e+00,2.220e+00,3.813e+00,2.631e+00,3.061e+00,3.277e+00,3.097e+00,4.259e+00,3.431e+00,3.050e+00,2.358e+00,2.616e+00,3.376e+00,3.399e+00,4.099e+00,3.444e+00,4.115e+00,2.950e+00,3.937e+00,3.360e+00,3.115e+00,4.326e+00,3.796e+00,2.851e+00,4.004e+00
8.684e-02,3.384e-01,7.446e-01,1.024e+00,8.280e-01,2.121e+00,2.238e+00,2.781e+00,3.169e+00,3.274e+00,2.754e+00,3.227e+00,3.624e+00,4.240e+00,3.781e+00,3.469e+00,6.039e+00,4.113e+00,4.674e+00,4.712e+00,3.331e+00,4.697e+00,4.461e+00,5.054e+00,5.240e+00,5.540e+00,4.848e+00,5.286e+00,4.650e+00,5.190e+00,4.823e+00,4.476e+00,4.865e+00,5.247e+00,6.459e+00,4.348e+00,4.677e+00,4.830e+00,3.579e+00,4.234e+00,5.205e+00,4.112e+00,5.529e+00,5.840e+00,5.394e+00,4.703e+00,4.674e+00,4.338e+00,3.956e+00,5.644e+00,5.171e+00,4.423e+00,4.816e+00,3.556e+00,4.825e+00,4.875e+00,4.314e+00,4.042e+00,5.939e+00,4.258e+00,4.383e+00,4.884e+00,4.015e+00,5.409e+00,4.468e+00,4.097e+00,3.398e+00,4.463e+00,5.230e+00,4.035e+00,3.962e+00,4.009e+00,3.567e+00,4.948e+00,4.725e+00,5.309e+00,4.459e+00,5.589e+00,4.645e+00,3.977e+00,4.577e+00,5.404e+00,5.620e+00,6.134e+00,5.357e+00,5.879e+00
2.601e-01,6.204e-01,1.206e+00,1.590e+00,1.459e+00,2.097e+00,2.076e+00,2.115e+00,2.758e+00,3.029e+00,3.383e+00,3.314e+00,3.627e+00,4.237e+00,3.391e+00,2.849e+00,4.267e+00,4.149e+00,4.120e+00,4.316e+00,3.552e+00,3.347e+00,4.334e+00,5.117e+00,5.585e+00,3.852e+00,4.683e+00,4.551e+00,4.375e+00,5.369e+00,4.826e+00,4.672e+00,4.718e+00,5.015e+00,4.898e+00,3.915e+00,4.041e+00,3.797e+00,3.427e+00,4.919e+00,4.154e+00,4.696e+00,4.846e+00,5.015e+00,4.935e+00,2.851e+00,4.568e+00,4.071e+00,5.083e+00,4.749e+00,4.986e+00,4.430e+00,5.137e+00,4.193e+00,4.645e+00,4.006e+00,4.373e+00,3.870e+00,5.141e+00,3.928e+00,4.938e+00,3.789e+00,4.342e+00,5.249e+00,5.170e+00,3.585e+00,4.372e+00,4.163e+00,5.205e+00,4.426e+00,4.420e+00,4.367e+00,2.804e+00,4.500e+00,4.740e+00,4.825e+00,3.476e+00,5.735e+00,4.769e+00,3.837e+00,4.596e+00,4.740e+00,4.143e+00,5.336e+00,5.004e+00,5.150e+00
2.652e-01,6.355e-01,1.331e+00,1.592e+00,1.149e+00,2.230e+00,2.004e+00,1.831e+00,2.091e+00,1.887e+00,2.877e+00,3.101e+00,3.293e+00,4.458e+00,2.798e+00,2.945e+00,5.230e+00,3.660e+00,4.184e+00,4.785e+00,4.885e+00,5.189e+00,3.871e+00,5.002e+00,6.016e+00,4.309e+00,5.365e+00,5.153e+00,3.603e+00,5.808e+00,4.272e+00,4.515e+00,5.057e+00,5.569e+00,6.018e+00,4.211e+00,4.390e+00,4.762e+00,3.902e+00,4.270e+00,4.309e+00,4.121e+00,5.020e+00,5.917e+00,6.201e+00,4.435e+00,4.177e+00,5.173e+00,4.709e+00,4.680e+00,5.451e+00,4.784e+00,5.803e+00,4.055e+00,5.461e+00,4.982e+00,4.402e+00,3.826e+00,6.268e+00,4.240e+00,4.963e+00,5.030e+00,4.386e+00,5.133e+00,4.539e+00,4.346e+00,4.818e+00,5.081e+00,6.041e+00,5.138e+00,5.657e+00,3.775e+00,3.644e+00,5.773e+00,5.074e+00,5.257e+00,4.374e+00,5.606e+00,6.183e+00,4.206e+00,5.550e+00,5.076e+00,5.367e+00,5.356e+00,4.990e+00,5.874e+00
2.443e-01,3.738e-01,8.979e-01,1.196e+00,1.420e+00,1.304e+00,1.813e+00,1.867e+00,2.022e+00,2.317e+00,2.913e+00,3.035e+00,2.861e+00,4.138e+00,2.670e+00,3.168e+00,4.178e+00,4.208e+00,3.289e+00,3.518e+00,4.322e+00,3.996e+00,4.441e+00,5.100e+00,5.043e+00,4.217e+00,4.786e+00,4.764e+00,3.374e+00,4.672e+00,4.720e+00,4.368e+00,4.353e+00,4.755e+00,5.110e+00,3.932e+00,5.010e+00,4.279e+00,3.091e+00,4.596e+00,4.684e+00,4.423e+00,5.390e+00,5.715e+00,5.436e+00,3.816e+00,4.985e+00,4.252e+00,4.978e+00,5.521e+00,4.439e+00,4.379e+00,5.352e+00,3.869e+00,5.192e+00,5.090e+00,3.878e+00,3.959e+00,5.184e+00,4.110e+00,5.415e+00,4.617e+00,4.491e+00,5.748e+00,4.066e+00,4.688e+00,5.011e+00,4.521e+00,6.253e+00,4.210e+00,4.554e+00,3.776e+00,3.719e+00,5.128e+00,4.272e+00,4.719e+00,4.998e+00,5.679e+00,4.781e+00,3.944e+00,4.889e+00,5.296e+00,4.645e+00,5.840e+00,4.338e+00,5.322e+00
5.881e-03,4.202e-01,5.489e-01,1.018e+00,9.127e-01,1.559e+00,1.512e+00,1.917e+00,2.433e+00,2.643e+00,2.431e+00,2.494e+00,2.580e+00,3.725e+00,3.491e+00,3.197e+00,4.966e+00,4.267e+00,4.501e+00,4.606e+00,4.983e+00,5.184e+00,5.220e+00,5.475e+00,6.401e+00,5.683e+00,5.942e+00,5.706e+00,4.887e+00,5.590e+00,5.254e+00,4.924e+00,5.230e+00,5.955e+00,5.707e+00,4.577e+00,5.431e+00,6.065e+00,4.692e+00,5.628e+00,5.934e+00,5.462e+00,6.241e+00,6.188e+00,6.457e+00,5.331e+00,5.284e+00,5.444e+00,5.647e+00,6.927e+00,6.145e+00,5.955e+00,7.248e+00,4.457e+00,6.290e+00,5.669e+00,4.176e+00,4.101e+00,6.693e+00,5.474e+00,6.174e+00,4.811e+00,4.884e+00,7.124e+00,4.592e+00,4.947e+00,5.908e+00,5.882e+00,7.327e+00,5.533e+00,5.092e+00,4.981e+00,5.282e+00,6.464e+00,5.094e+00,6.040e+00,6.312e+00,6.988e+00,6.248e+00,5.174e+00,5.893e+00,6.146e+00,5.551e+00,6.745e+00,6.307e+00,6.657e+00
2.077e-02,2.327e-01,5.527e-01,7.731e-01,4.267e-01,1.070e+00,1.679e+00,1.294e+00,1.528e+00,1.880e+00,2.166e+00,2.612e+00,2.523e+00,3.205e+00,3.042e+00,2.091e+00,3.398e+00,2.995e+00,3.643e+00,3.074e+00,3.708e+00,4.232e+00,4.506e+00,4.376e+00,5.550e+00,4.981e+00,4.951e+00,3.659e+00,4.228e+00,4.604e+00,3.770e+00,4.374e+00,4.361e+00,6.214e+00,5.416e+00,4.372e+00,4.650e+00,4.761e+00,4.061e+00,4.717e+00,3.947e+00,3.756e+00,4.502e+00,5.414e+00,4.555e+00,4.135e+00,3.696e+00,3.829e+00,4.681e+00,4.987e+00,5.200e+00,4.512e+00,4.777e+00,3.909e+00,4.790e+00,4.614e+00,4.005e+00,3.306e+00,4.994e+00,3.846e+00,4.145e+00,5.208e+00,4.461e+00,4.971e+00,4.498e+00,4.105e+00,4.740e+00,4.312e+00,5.517e+00,3.679e+00,5.155e+00,3.660e+00,4.572e+00,4.162e+00,4.925e+00,4.914e+00,4.162e+00,5.200e+00,5.077e+00,3.554e+00,4.676e+00,4.750e+00,3.912e+00,4.788e+00,5.772e+00,5.404e+00
2.048e-01,6.899e-01,7.794e-01,9.586e-01,6.382e-01,1.512e+00,1.854e+00,1.547e+00,1.834e+00,1.759e+00,2.480e+00,2.619e+00,3.283e+00,4.116e+00,2.882e+00,3.469e+00,4.774e+00,3.432e+00,3.125e+00,4.073e+00,4.682e+00,3.839e+00,3.691e+00,5.582e+00,6.336e+00,5.024e+00,5.441e+00,5.225e+00,3.340e+00,5.711e+00,4.490e+00,4.884e+00,5.368e+00,6.548e+00,6.049e+00,4.734e+00,5.088e+00,6.280e+00,4.856e+00,6.010e+00,5.338e+00,5.434e+00,4.753e+00,6.268e+00,6.664e+00,5.218e+00,5.534e+00,4.125e+00,4.876e+00,6.699e+00,5.597e+00,5.203e+00,5.255e+00,5.458e+00,5.665e+00,5.791e+00,3.577e+00,4.483e+00,5.111e+00,4.654e+00,5.807e+00,5.232e+00,5.370e+00,5.593e+00,5.481e+00,5.457e+00,5.048e+00,5.531e+00,6.027e+00,5.558e+00,5.779e+00,4.905e+00,4.492e+00,5.873e+00,4.562e+00,6.308e+00,5.221e+00,5.696e+00,6.237e+00,4.251e+00,6.100e+00,6.163e+00,5.718e+00,5.506e+00,6.324e+00,6.208e+00
1.329e-01,3.842e-01,6.519e-01,7.456e-01,3.940e-01,1.212e+00,1.458e+00,1.342e+00,1.731e+00,2.267e+00,2.264e+00,2.562e+00,2.945e+00,3.066e+00,3.172e+00,2.987e+00,4.069e+00,4.003e+00,3.957e+00,4.835e+00,4.357e+00,4.155e+00,4.755e+00,6.299e+00,8.027e+00,6.470e+00,6.732e+00,6.145e+00,5.473e+00,6.691e+00,5.767e+00,5.736e+00,6.978e+00,7.050e+00,6.464e+00,5.946e+00,5.935e+00,6.767e+00,5.007e+00,6.816e+00,4.653e+00,6.921e+00,5.941e+00,7.330e+00,7.540e+00,5.719e+00,5.298e+00,4.877e+00,4.890e+00,6.834e+00,6.743e+00,6.400e+00,6.404e+00,6.097e+00,6.945e+00,5.364e+00,5.399e+00,4.607e+00,6.981e+00,5.158e+00,6.347e+00,5.850e+00,6.691e+00,6.831e+00,6.396e+00,5.454e+00,4.946e+00,5.287e+00,6.973e+00,6.152e+00,6.208e+00,5.621e+00,4.463e+00,7.089e+00,5.044e+00,6.233e+00,4.932e+00,7.401e+00,7.225e+00,4.711e+00,5.891e+00,6.186e+00,5.258e+00,6.054e+00,7.489e+00,5.630e+00
8.954e-04,2.092e-01,1.593e-01,4.505e-01,6.943e-01,1.489e+00,9.644e-01,1.680e+00,2.213e+00,2.205e+00,2.172e+00,3.266e+00,2.701e+00,2.141e+00,2.789e+00,2.036e+00,3.264e+00,3.051e+00,3.813e+00,3.479e+00,2.872e+00,3.862e+00,3.714e+00,4.444e+00,5.605e+00,5.574e+00,5.342e+00,4.804e+00,4.605e+00,5.448e+00,4.021e+00,4.527e+00,4.920e+00,5.975e+00,5.777e+00,5.006e+00,5.034e+00,5.526e+00,4.352e+00,4.765e+00,3.766e+00,5.119e+00,4.242e+00,4.762e+00,4.604e+00,5.389e+00,4.584e+00,5.333e+00,4.969e+00,5.038e+00,5.656e+00,5.917e+00,5.659e+00,3.513e+00,5.276e+00,4.151e+00,4.541e+00,4.171e+00,5.981e+00,4.262e+00,5.883e+00,4.644e+00,5.405e+00,5.026e+00,5.250e+00,4.017e+00,4.968e+00,4.548e+00,6.200e+00,5.447e+00,4.505e+00,3.766e+00,4.499e+00,5.966e+00,4.607e+00,5.763e+00,4.046e+00,5.933e+00,5.805e+00,5.170e+00,5.217e+00,4.001e+00,3.458e+00,5.004e+00,6.117e+00,4.707e+00
2.661e-01,8.101e-01,1.464e+00,1.901e+00,1.470e+00,2.934e+00,2.593e+00,2.458e+00,3.163e+00,3.029e+00,3.527e+00,3.520e+00,3.522e+00,4.052e+00,3.379e+00,3.398e+00,4.942e+00,4.553e+00,4.733e+00,3.767e+00,5.079e+00,5.199e+00,6.581e+00,6.895e+00,8.694e+00,8.373e+00,6.608e+00,8.333e+00,6.345e+00,9.196e+00,7.405e+00,7.545e+00,7.645e+00,8.980e+00,8.307e+00,7.323e+00,8.310e+00,7.884e+00,7.166e+00,8.419e+00,5.830e+00,8.191e+00,7.751e+00,8.772e+00,8.821e+00,7.164e+00,8.315e+00,7.025e+00,8.019e+00,9.379e+00,7.646e+00,8.528e+00,8.435e+00,7.096e+00,8.394e+00,7.478e+00,6.809e+00,7.256e+00,8.510e+00,6.935e+00,8.314e+00,7.788e+00,7.929e+00,9.182e+00,7.480e+00,6.072e+00,7.937e+00,5.715e+00,9.270e+00,7.248e+00,7.721e+00,7.243e+00,7.171e+00,8.464e+00,8.437e+00,8.963e+00,7.641e+00,9.190e+00,8.801e+00,7.227e+00,8.961e+00,7.215e+00,6.897e+00,8.079e+00,8.111e+00,8.674e+00
2.569e-01,5.773e-01,1.242e+00,1.614e+00,1.501e+00,2.251e+00,2.021e+00,2.154e+00,2.625e+00,2.380e+00,3.316e+00,3.516e+00,3.605e+00,4.476e+00,3.642e+00,3.823e+00,5.384e+00,4.937e+00,4.933e+00,4.896e+00,4.849e+00,5.959e+00,5.513e+00,6.684e+00,7.367e+00,7.227e+00,7.857e+00,7.777e+00,6.675e+00,7.727e+00,7.356e+00,6.394e+00,7.161e+00,8.698e+00,8.267e+00,7.325e+00,7.846e+00,7.783e+00,6.776e+00,7.250e+00,6.370e+00,7.577e+00,7.375e+00,7.867e+00,8.196e+00,7.816e+00,7.156e+00,6.564e+00,7.435e+00,8.704e+00,7.311e+00,8.782e+00,8.550e+00,6.133e+00,7.990e+00,8.550e+00,7.166e+00,6.586e+00,8.509e+00,6.747e+00,8.593e+00,7.453e+00,6.790e+00,8.686e+00,6.964e+00,6.277e+00,8.218e+00,6.745e+00,8.646e+00,7.634e+00,8.316e+00,6.571e+00,6.190e+00,8.065e+00,8.206e+00,8.630e+00,7.190e+00,9.050e+00,9.084e+00,8.216e+00,9.101e+00,7.141e+00,7.824e+00,7.947e+00,7.252e+00,8.630e+00
1.263e-01,5.228e-01,1.004e+00,1.503e+00,1.313e+00,1.539e+00,1.680e+00,1.607e+00,1.938e+00,2.236e+00,3.328e+00,3.125e+00,3.072e+00,3.748e+00,3.110e+00,3.111e+00,4.108e+00,3.881e+00,4.696e+00,4.391e+00,5.407e+00,5.476e+00,5.257e+00,5.978e+00,7.346e+00,6.105e+00,6.896e+00,7.197e+00,5.873e+00,7.280e+00,6.458e+00,6.746e+00,6.594e+00,7.837e+00,6.989e+00,6.765e+00,6.824e+00,7.701e+00,6.473e+00,6.920e+00,5.729e+00,7.531e+00,6.296e+00,6.815e+00,8.432e+00,6.968e+00,7.057e+00,7.535e+00,7.569e+00,8.049e+00,7.509e+00,7.946e+00,9.814e+00,6.151e+00,7.544e+00,7.186e+00,5.894e+00,5.629e+00,7.750e+00,6.558e+00,8.052e+00,6.569e+00,6.888e+00,8.050e+00,7.049e+00,6.207e+00,8.966e+00,7.021e+00,1.001e+01,7.405e+00,7.357e+00,5.513e+00,6.437e+00,8.553e+00,7.239e+00,7.922e+00,7.370e+00,8.586e+00,8.588e+00,7.609e+00,8.420e+00,6.768e+00,6.134e+00,7.796e+00,7.172e+00,7.285e+00
4.546e-02,2.566e-01,6.419e-01,7.847e-01,2.777e-01,1.244e+00,1.645e+00,8.478e-01,1.635e+00,2.137e+00,1.757e+00,2.324e+00,2.393e+00,3.384e+00,3.781e+00,2.704e+00,3.688e+00,3.688e+00,4.246e+00,4.559e+00,4.168e+00,4.828e+00,4.958e+00,5.254e+00,7.861e+00,6.844e+00,7.465e+00,6.645e+00,5.969e+00,6.701e+00,7.216e+00,6.721e+00,7.547e+00,8.824e+00,7.374e+00,7.206e+00,7.506e+00,8.185e+00,7.302e+00,8.323e+00,5.570e+00,7.864e+00,6.826e+00,8.149e+00,8.948e+00,7.507e+00,6.916e+00,7.116e+00,7.071e+00,8.008e+00,7.308e+00,8.668e+00,9.266e+00,7.342e+00,8.069e+00,7.837e+00,6.208e+00,6.478e+00,8.474e+00,6.825e+00,8.525e+00,7.750e+00,7.322e+00,8.982e+00,8.852e+00,6.738e+00,8.076e+00,6.723e+00,8.815e+00,8.029e+00,8.031e+00,6.766e+00,6.229e+00,7.995e+00,7.837e+00,8.285e+00,7.334e+00,8.502e+00,8.656e+00,7.882e+00,7.813e+00,7.622e+00,6.972e+00,7.277e+00,8.425e+00,7.296e+00
1.764e-01,7.694e-01,1.076e+00,1.348e+00,7.114e-01,2.506e+00,2.260e+00,2.147e+00,2.697e+00,2.520e+00,3.222e+00,3.640e+00,4.244e+00,4.115e+00,3.971e+00,4.097e+00,6.111e+00,4.455e+00,5.383e+00,5.259e+00,5.175e+00,5.956e+00,5.145e+00,7.441e+00,8.172e+00,8.310e+00,8.018e+00,8.487e+00,7.349e+00,9.277e+00,8.891e+00,8.108e+00,8.428e+00,9.095e+00,9.309e+00,8.474e+00,8.815e+00,9.958e+00,7.270e+00,8.465e+00,7.306e+00,9.424e+00,9.172e+00,1.015e+01,1.114e+01,9.174e+00,8.140e+00,8.172e+00,7.322e+00,1.036e+01,8.740e+00,9.509e+00,9.962e+00,7.685e+00,9.907e+00,8.561e+00,7.412e+00,7.857e+00,1.030e+01,8.796e+00,9.426e+00,9.053e+00,8.290e+00,9.921e+00,8.228e+00,7.656e+00,8.636e+00,8.272e+00,1.007e+01,8.707e+00,9.026e+00,7.350e+00,8.155e+00,1.140e+01,8.372e+00,9.925e+00,8.635e+00,1.069e+01,1.063e+01,8.335e+00,1.030e+01,8.182e+00,8.251e+00,9.177e+00,9.929e+00,9.555e+00
2.341e-01,8.617e-01,1.459e+00,1.845e+00,1.112e+00,2.816e+00,3.342e+00,2.391e+00,3.337e+00,3.419e+00,4.128e+00,4.181e+00,4.882e+00,4.987e+00,4.305e+00,3.639e+00,5.417e+00,4.143e+00,5.743e+00,4.753e+00,5.164e+00,5.986e+00,5.142e+00,7.208e+00,8.375e+00,7.219e+00,6.839e+00,7.627e+00,7.548e+00,6.669e+00,9.873e+00,8.670e+00,8.240e+00,1.034e+01,8.961e+00,8.455e+00,7.628e+00,9.538e+00,7.540e+00,1.093e+01,7.993e+00,8.934e+00,9.244e+00,1.000e+01,1.040e+01,9.394e+00,6.666e+00,8.752e+00,7.256e+00,1.129e+01,8.592e+00,1.026e+01,1.011e+01,8.057e+00,1.025e+01,8.443e+00,7.456e+00,8.007e+00,9.715e+00,9.472e+00,1.013e+01,8.966e+00,8.708e+00,1.018e+01,8.270e+00,8.241e+00,9.528e+00,9.657e+00,9.948e+00,8.066e+00,9.155e+00,7.635e+00,7.339e+00,1.133e+01,7.757e+00,1.060e+01,8.441e+00,1.225e+01,1.038e+01,9.613e+00,9.719e+00,8.700e+00,9.311e+00,8.450e+00,1.009e+01,8.440e+00
5.793e-02,4.259e-01,6.884e-01,1.002e+00,6.799e-01,1.471e+00,1.891e+00,2.156e+00,2.115e+00,2.242e+00,3.008e+00,2.974e+00,3.432e+00,3.485e+00,2.833e+00,2.540e+00,4.369e+00,3.339e+00,4.369e+00,4.105e+00,5.322e+00,5.270e+00,4.925e+00,6.102e+00,6.747e+00,6.801e+00,6.417e+00,6.258e+00,5.581e+00,6.921e+00,6.868e+00,6.702e+00,7.300e+00,8.860e+00,7.650e+00,8.146e+00,8.057e+00,8.533e+00,6.902e+00,7.319e+00,6.006e+00,7.838e+00,7.275e+00,8.302e+00,8.521e+00,7.430e+00,6.614e+00,7.744e+00,7.530e+00,8.523e+00,7.986e+00,7.872e+00,8.358e+00,6.490e+00,8.773e+00,7.087e+00,6.333e+00,6.810e+00,8.252e+00,6.844e+00,8.325e+00,8.042e+00,8.143e+00,8.168e+00,7.194e+00,7.049e+00,8.691e+00,7.976e+00,8.230e+00,6.889e+00,8.162e+00,5.989e+00,6.509e+00,9.118e+00,7.286e+00,7.930e+00,7.018e+00,8.960e+00,8.983e+00,6.616e+00,7.940e+00,6.742e+00,6.349e+00,8.038e+00,8.725e+00,7.958e+00
2.212e-01,3.544e-01,8.768e-01,9.619e-01,7.399e-01,1.044e+00,1.557e+00,1.734e+00,1.575e+00,2.126e+00,2.836e+00,2.609e+00,3.402e+00,3.506e+00,2.531e+00,3.282e+00,4.386e+00,3.925e+00,3.956e+00,4.854e+00,4.709e+00,4.578e+00,4.265e+00,6.112e+00,6.647e+00,6.184e+00,7.455e+00,6.576e+00,6.236e+00,7.108e+00,7.116e+00,7.147e+00,8.084e+00,8.842e+00,8.769e+00,8.603e+00,8.490e+00,8.616e+00,7.340e+00,7.766e+00,5.615e+00,9.147e+00,7.575e+00,8.751e+00,9.691e+00,7.788e+00,6.854e+00,8.522e+00,7.085e+00,8.500e+00,8.026e+00,9.389e+00,9.514e+00,7.624e+00,8.897e+00,7.237e+00,7.994e+00,7.836e+00,8.925e+00,7.470e+00,7.718e+00,8.735e+00,8.384e+00,1.036e+01,7.205e+00,7.486e+00,8.610e+00,7.534e+00,8.906e+00,7.574e+00,9.551e+00,7.147e+00,5.318e+00,9.562e+00,7.605e+00,9.416e+00,6.121e+00,1.014e+01,1.095e+01,7.537e+00,8.557e+00,7.566e+00,7.729e+00,9.165e+00,9.962e+00,8.483e+00
2.816e-01,6.651e-01,1.445e+00,1.674e+00,1.080e+00,2.380e+00,2.454e+00,2.370e+00,2.778e+00,3.114e+00,3.886e+00,3.950e+00,4.643e+00,4.853e+00,4.019e+00,4.224e+00,6.262e+00,5.030e+00,5.874e+00,6.302e+00,5.933e+00,6.568e+00,5.890e+00,7.860e+00,9.792e+00,8.684e+00,8.702e+00,9.156e+00,7.645e+00,9.138e+00,9.014e+00,8.572e+00,9.408e+00,1.131e+01,1.079e+01,1.042e+01,1.005e+01,1.091e+01,9.484e+00,9.932e+00,8.051e+00,1.045e+01,9.698e+00,1.092e+01,1.214e+01,1.038e+01,8.993e+00,1.029e+01,9.196e+00,1.098e+01,1.093e+01,1.157e+01,1.142e+01,8.998e+00,1.136e+01,9.542e+00,8.469e+00,9.206e+00,1.103e+01,9.421e+00,1.066e+01,9.860e+00,9.395e+00,1.137e+01,1.031e+01,9.104e+00,1.060e+01,9.343e+00,1.152e+01,9.488e+00,1.096e+01,8.732e+00,8.260e+00,1.233e+01,9.300e+00,1.172e+01,8.929e+00,1.271e+01,1.276e+01,1.042e+01,1.100e+01,9.606e+00,9.414e+00,1.087e+01,1.161e+01,1.041e+01
1.953e-02,1.345e-01,6.720e-01,9.762e-01,7.860e-01,1.852e+00,1.960e+00,1.633e+00,2.609e+00,3.152e+00,2.338e+00,3.143e+00,2.554e+00,3.052e+00,3.515e+00,2.881e+00,4.161e+00,3.542e+00,5.078e+00,4.147e+00,3.884e+00,6.102e+00,5.697e+00,4.972e+00,6.929e+00,6.776e+00,6.329e+00,6.216e+00,6.665e+00,6.057e+00,6.914e+00,6.462e+00,7.395e+00,8.318e+00,9.198e+00,7.768e+00,9.158e+00,8.124e+00,7.346e+00,8.633e+00,5.901e+00,7.934e+00,8.808e+00,9.326e+00,8.653e+00,8.362e+00,6.713e+00,8.867e+00,8.093e+00,1.002e+01,8.798e+00,9.404e+00,9.765e+00,7.129e+00,9.069e+00,8.312e+00,7.138e+00,7.813e+00,9.004e+00,8.824e+00,8.228e+00,9.520e+00,8.146e+00,1.032e+01,7.599e+00,7.444e+00,7.967e+00,8.278e+00,9.277e+00,7.815e+00,8.455e+00,6.645e+00,6.895e+00,9.059e+00,7.950e+00,9.797e+00,7.230e+00,1.015e+01,9.192e+00,8.653e+00,8.728e+00,8.420e+00,7.633e+00,9.100e+00,9.081e+00,9.474e+00
1.246e-02,1.740e-02,1.581e-01,4.382e-01,8.701e-01,1.025e+00,1.613e+00,2.251e+00,2.472e+00,2.893e+00,2.343e+00,3.158e+00,2.748e+00,3.759e+00,3.433e+00,2.846e+00,4.399e+00,4.581e+00,4.006e+00,3.915e+00,4.400e+00,5.035e+00,5.505e+00,5.785e+00,7.142e+00,7.299e+00,7.285e+00,6.726e+00,5.526e+00,6.510e+00,6.888e+00,6.968e+00,7.405e+00,9.417e+00,8.249e+00,8.317e+00,8.769e+00,9.548e+00,6.168e+00,8.660e+00,7.675e+00,8.364e+00,9.182e+00,9.939e+00,8.901e+00,9.378e+00,7.393e+00,9.374e+00,7.014e+00,8.989e+00,8.126e+00,9.536e+00,9.353e+00,6.454e+00,9.518e+00,8.518e+00,7.589e+00,8.099e+00,9.223e+00,8.105e+00,8.875e+00,8.584e+00,8.611e+00,1.007e+01,8.153e+00,8.209e+00,9.102e+00,8.250e+00,1.083e+01,7.803e+00,8.105e+00,6.806e+00,8.006e+00,1.015e+01,7.335e+00,8.774e+00,8.222e+00,1.066e+01,9.421e+00,8.648e+00,7.780e+00,8.179e+00,6.701e+00,8.983e+00,9.337e+00,8.194e+00
2.505e-01,7.275e-01,1.184e+00,1.387e+00,8.030e-01,1.983e+00,2.526e+00,2.008e+00,2.412e+00,2.884e+00,3.496e+00,3.547e+00,3.958e+00,3.965e+00,3.254e+00,4.113e+00,5.353e+00,3.918e+00,4.354e+00,4.598e+00,4.350e+00,3.926e+00,4.137e+00,5.917e+00,7.136e+00,6.432e+00,7.102e+00,6.205e+00,5.531e+00,7.579e+00,6.955e+00,6.762e+00,7.053e+00,8.803e+00,9.552e+00,8.241e+00,9.066e+00,9.741e+00,7.231e+00,8.750e+00,7.871e+00,9.718e+00,9.783e+00,1.061e+01,1.093e+01,8.046e+00,9.902e+00,9.160e+00,8.358e+00,1.115e+01,1.033e+01,1.030e+01,9.575e+00,7.861e+00,1.054e+01,9.255e+00,9.672e+00,9.075e+00,9.525e+00,8.656e+00,1.003e+01,9.676e+00,9.124e+00,9.777e+00,9.135e+00,8.935e+00,8.535e+00,8.174e+00,9.683e+00,9.070e+00,8.560e+00,7.463e+00,7.785e+00,1.018e+01,8.366e+00,1.035e+01,6.791e+00,1.062e+01,1.043e+01,8.997e+00,9.336e+00,9.075e+00,7.998e+00,1.018e+01,9.344e+00,9.983e+00
1.280e-01,3.031e-01,6.606e-01,9.566e-01,1.026e+00,1.466e+00,1.674e+00,1.741e+00,2.376e+00,2.956e+00,2.679e+00,3.277e+00,2.926e+00,3.624e+00,3.357e+00,2.641e+00,3.857e+00,3.780e+00,3.707e+00,3.895e+00,3.527e+00,4.011e+00,5.059e+00,5.316e+00,7.652e+00,6.685e+00,6.305e+00,6.866e+00,5.974e+00,7.433e+00,6.689e+00,7.868e+00,7.866e+00,9.193e+00,9.463e+00,8.853e+00,9.883e+00,9.794e+00,9.320e+00,9.961e+00,6.971e+00,1.041e+01,9.051e+00,1.051e+01,1.093e+01,9.029e+00,9.036e+00,1.058e+01,7.995e+00,1.050e+01,1.015e+01,1.106e+01,1.038e+01,8.859e+00,1.031e+01,9.175e+00,7.874e+00,9.457e+00,9.090e+00,9.460e+00,9.016e+00,9.489e+00,9.789e+00,1.042e+01,9.810e+00,9.460e+00,8.900e+00,8.305e+00,1.081e+01,9.079e+00,9.753e+00,8.698e+00,8.387e+00,1.025e+01,8.976e+00,1.031e+01,8.083e+00,1.098e+01,1.153e+01,9.537e+00,8.959e+00,9.202e+00,7.473e+00,1.089e+01,1.113e+01,1.045e+01
2.223e-01,8.944e-01,1.325e+00,1.895e+00,1.534e+00,2.166e+00,2.284e+00,2.134e+00,2.569e+00,2.583e+00,3.749e+00,3.171e+00,3.569e+00,4.679e+00,3.092e+00,2.842e+00,4.776e+00,4.118e+00,4.214e+00,3.338e+00,3.935e+00,4.194e+00,4.688e+00,5.505e+00,6.500e+00,5.604e+00,5.521e+00,6.399e+00,5.542e+00,6.972e+00,6.597e+00,6.998e+00,7.590e+00,8.896e+00,8.692e+00,8.286e+00,8.566e+00,9.099e+00,8.454e+00,9.557e+00,7.727e+00,9.746e+00,8.282e+00,8.926e+00,1.004e+01,8.314e+00,7.958e+00,9.132e+00,8.933e+00,1.066e+01,9.134e+00,1.036e+01,1.069e+01,7.695e+00,9.850e+00,9.751e+00,7.725e+00,8.691e+00,9.190e+00,1.002e+01,9.778e+00,8.787e+00,8.905e+00,1.031e+01,7.621e+00,8.199e+00,9.781e+00,8.059e+00,1.038e+01,8.456e+00,9.475e+00,8.016e+00,7.796e+00,9.416e+00,9.172e+00,1.017e+01,7.929e+00,1.139e+01,1.106e+01,1.003e+01,9.279e+00,8.172e+00,8.729e+00,9.563e+00,9.695e+00,1.015e+01
2.037e-01,7.913e-01,1.347e+00,1.613e+00,7.230e-01,2.538e+00,3.045e+00,2.049e+00,2.559e+00,2.709e+00,3.765e+00,4.032e+00,4.551e+00,4.206e+00,3.369e+00,3.339e+00,5.368e+00,3.443e+00,5.634e+00,4.700e+00,5.624e+00,6.212e+00,5.762e+00,6.858e+00,8.927e+00,8.023e+00,6.694e+00,6.942e+00,6.669e+00,8.035e+00,8.118e+00,7.898e+00,8.326e+00,9.818e+00,1.033e+01,9.521e+00,9.276e+00,1.041e+01,8.636e+00,9.959e+00,8.034e+00,9.849e+00,9.037e+00,1.119e+01,1.144e+01,8.880e+00,8.404e+00,1.019e+01,9.087e+00,1.212e+01,1.102e+01,9.926e+00,1.065e+01,8.986e+00,1.127e+01,9.484e+00,8.879e+00,8.540e+00,1.041e+01,9.580e+00,1.049e+01,1.020e+01,1.034e+01,9.907e+00,8.398e+00,8.937e+00,1.001e+01,8.471e+00,1.058e+01,8.583e+00,1.038e+01,8.223e+00,8.227e+00,1.139e+01,1.018e+01,1.099e+01,8.158e+00,1.149e+01,1.198e+01,8.924e+00,1.053e+01,9.798e+00,8.570e+00,1.054e+01,1.094e+01,1.051e+01
2.260e-01,9.018e-01,1.205e+00,1.583e+00,1.066e+00,2.703e+00,2.160e+00,1.567e+00,2.813e+00,2.700e+00,3.299e+00,3.707e+00,3.866e+00,3.724e+00,3.545e+00,3.494e+00,5.166e+00,3.991e+00,5.468e+00,5.327e+00,5.069e+00,6.796e+00,5.432e+00,5.942e+00,8.367e+00,7.134e+00,7.112e+00,7.691e+00,6.749e+00,7.205e+00,7.100e+00,8.661e+00,7.611e+00,1.060e+01,1.062e+01,9.338e+00,9.205e+00,9.852e+00,1.003e+01,1.006e+01,8.731e+00,1.075e+01,9.459e+00,1.097e+01,1.217e+01,1.164e+01,9.239e+00,1.090e+01,1.007e+01,1.269e+01,1.252e+01,1.230e+01,1.313e+01,1.098e+01,1.176e+01,1.048e+01,9.767e+00,9.772e+00,1.249e+01,1.076e+01,1.112e+01,1.063e+01,1.101e+01,1.098e+01,1.012e+01,1.107e+01,1.160e+01,1.152e+01,1.259e+01,1.092e+01,1.052e+01,9.285e+00,9.580e+00,1.258e+01,1.045e+01,1.157e+01,8.654e+00,1.284e+01,1.463e+01,1.196e+01,1.048e+01,1.077e+01,1.064e+01,1.296e+01,1.214e+01,1.131e+01
2.810e-01,8.461e-01,1.257e+00,1.661e+00,1.389e+00,2.209e+00,1.836e+00,2.034e+00,2.446e+00,2.482e+00,3.441e+00,3.337e+00,3.603e+00,4.341e+00,3.152e+00,3.194e+00,4.711e+00,3.996e+00,3.523e+00,3.589e+00,4.173e+00,3.720e+00,4.403e+00,5.759e+00,6.979e+00,6.460e+00,6.161e+00,6.717e+00,5.784e+00,7.954e+00,7.190e+00,7.376e+00,7.649e+00,9.161e+00,8.896e+00,8.455e+00,1.006e+01,9.456e+00,8.771e+00,9.799e+00,8.011e+00,1.095e+01,1.006e+01,1.057e+01,1.261e+01,9.566e+00,1.017e+01,1.086e+01,1.031e+01,1.148e+01,1.105e+01,1.164e+01,1.158e+01,1.017e+01,1.192e+01,1.114e+01,9.873e+00,1.140e+01,1.153e+01,1.122e+01,1.167e+01,1.072e+01,1.078e+01,1.067e+01,1.116e+01,9.476e+00,1.119e+01,9.038e+00,1.208e+01,9.626e+00,1.062e+01,9.393e+00,1.040e+01,1.071e+01,1.014e+01,1.214e+01,8.988e+00,1.236e+01,1.185e+01,1.051e+01,1.089e+01,9.653e+00,8.742e+00,1.220e+01,1.151e+01,1.136e+01
1.508e-01,2.300e-01,9.924e-01,1.284e+00,1.206e+00,2.163e+00,2.063e+00,2.221e+00,2.683e+00,2.821e+00,2.541e+00,3.146e+00,2.830e+00,4.109e+00,3.496e+00,3.231e+00,4.762e+00,4.338e+00,4.696e+00,5.186e+00,5.851e+00,6.134e+00,6.219e+00,6.526e+00,8.634e+00,7.565e+00,7.628e+00,8.032e+00,6.857e+00,8.212e+00,7.931e+00,8.129e+00,8.816e+00,9.664e+00,1.008e+01,1.024e+01,1.098e+01,1.099e+01,9.768e+00,1.020e+01,7.970e+00,1.070e+01,1.196e+01,1.212e+01,1.283e+01,1.003e+01,1.144e+01,1.208e+01,1.044e+01,1.247e+01,1.274e+01,1.211e+01,1.405e+01,9.889e+00,1.251e+01,1.249e+01,1.080e+01,1.108e+01,1.223e+01,1.120e+01,1.245e+01,1.260e+01,1.109e+01,1.211e+01,1.159e+01,1.009e+01,1.280e+01,9.572e+00,1.270e+01,1.122e+01,1.188e+01,1.096e+01,1.023e+01,1.182e+01,1.223e+01,1.162e+01,1.025e+01,1.268e+01,1.341e+01,1.135e+01,1.073e+01,1.044e+01,9.852e+00,1.265e+01,1.161e+01,1.303e+01
4.073e-02,1.856e-01,5.048e-01,8.164e-01,8.825e-01,1.699e+00,2.056e+00,2.346e+00,2.916e+00,3.365e+00,3.059e+00,3.984e+00,3.752e+00,3.941e+00,3.922e+00,3.420e+00,5.267e+00,4.072e+00,5.217e+00,4.931e+00,3.879e+00,5.689e+00,4.579e+00,5.230e+00,6.325e+00,6.600e+00,5.814e+00,6.844e+00,5.455e+00,5.701e+00,6.426e+00,6.262e+00,6.533e+00,7.912e+00,8.590e+00,7.767e+00,7.581e+00,9.158e+00,6.912e+00,8.947e+00,8.385e+00,9.075e+00,9.728e+00,1.075e+01,1.117e+01,1.087e+01,9.321e+00,1.141e+01,7.997e+00,1.101e+01,1.175e+01,1.140e+01,1.194e+01,8.107e+00,1.116e+01,1.074e+01,9.160e+00,1.001e+01,1.096e+01,1.035e+01,1.133e+01,1.062e+01,9.802e+00,1.049e+01,9.899e+00,1.087e+01,1.029e+01,9.851e+00,1.103e+01,9.945e+00,1.020e+01,8.345e+00,8.391e+00,1.051e+01,9.686e+00,1.089e+01,8.926e+00,1.298e+01,1.188e+01,1.017e+01,9.740e+00,9.484e+00,9.088e+00,1.304e+01,1.101e+01,1.093e+01
1.261e-01,7.627e-01,9.755e-01,1.395e+00,8.666e-01,1.651e+00,2.059e+00,1.828e+00,2.127e+00,2.527e+00,3.858e+00,3.974e+00,3.971e+00,4.096e+00,3.555e+00,2.926e+00,4.894e+00,4.010e+00,4.650e+00,4.112e+00,4.531e+00,4.960e+00,4.725e+00,5.900e+00,7.515e+00,7.090e+00,6.114e+00,6.628e+00,5.808e+00,7.460e+00,6.985e+00,7.082e+00,7.625e+00,9.100e+00,8.111e+00,8.161e+00,7.904e+00,9.449e+00,7.199e+00,9.950e+00,8.055e+00,9.823e+00,9.619e+00,1.034e+01,1.266e+01,1.001e+01,9.150e+00,1.100e+01,8.480e+00,1.145e+01,1.191e+01,1.114e+01,1.204e+01,9.572e+00,1.305e+01,1.095e+01,9.642e+00,9.696e+00,1.126e+01,1.108e+01,1.192e+01,1.156e+01,1.046e+01,9.250e+00,1.109e+01,1.148e+01,1.015e+01,1.034e+01,1.155e+01,1.039e+01,1.115e+01,7.949e+00,1.042e+01,1.164e+01,9.096e+00,1.084e+01,8.819e+00,1.307e+01,1.194e+01,1.067e+01,1.038e+01,9.519e+00,8.177e+00,1.234e+01,1.169e+01,1.002e+01
2.713e-01,6.171e-01,1.197e+00,1.462e+00,1.199e+00,1.946e+00,1.780e+00,1.903e+00,2.166e+00,2.537e+00,3.690e+00,3.873e+00,3.928e+00,3.758e+00,3.059e+00,3.888e+00,4.801e+00,4.033e+00,4.597e+00,5.148e+00,5.906e+00,6.046e+00,5.206e+00,7.015e+00,8.485e+00,7.942e+00,8.371e+00,8.444e+00,7.889e+00,8.914e+00,8.640e+00,8.947e+00,8.795e+00,1.051e+01,1.020e+01,1.025e+01,1.061e+01,1.130e+01,1.041e+01,1.200e+01,9.100e+00,1.269e+01,1.136e+01,1.325e+01,1.530e+01,1.365e+01,1.226e+01,1.428e+01,1.165e+01,1.497e+01,1.452e+01,1.607e+01,1.720e+01,1.252e+01,1.492e+01,1.342e+01,1.250e+01,1.192e+01,1.441e+01,1.350e+01,1.511e+01,1.399e+01,1.323e+01,1.420e+01,1.366e+01,1.322e+01,1.548e+01,1.279e+01,1.597e+01,1.384e+01,1.397e+01,1.139e+01,1.194e+01,1.585e+01,1.268e+01,1.503e+01,1.072e+01,1.656e+01,1.757e+01,1.428e+01,1.311e+01,1.275e+01,1.118e+01,1.563e+01,1.458e+01,1.382e+01
9.957e-02,2.580e-01,7.553e-01,9.938e-01,8.328e-01,1.656e+00,1.866e+00,2.606e+00,2.538e+00,2.846e+00,3.016e+00,3.458e+00,3.635e+00,4.196e+00,3.599e+00,3.266e+00,5.491e+00,4.264e+00,4.570e+00,5.586e+00,5.706e+00,5.978e+00,6.026e+00,7.315e+00,8.839e+00,8.833e+00,7.933e+00,8.365e+00,7.722e+00,9.146e+00,8.892e+00,8.535e+00,9.455e+00,9.760e+00,1.060e+01,1.075e+01,1.152e+01,1.189e+01,1.004e+01,1.135e+01,8.564e+00,1.191e+01,1.183e+01,1.332e+01,1.530e+01,1.228e+01,1.141e+01,1.342e+01,1.009e+01,1.385e+01,1.384e+01,1.457e+01,1.577e+01,1.191e+01,1.467e+01,1.385e+01,1.089e+01,1.249e+01,1.372e+01,1.306e+01,1.362e+01,1.358e+01,1.153e+01,1.360e+01,1.290e+01,1.308e+01,1.334e+01,1.137e+01,1.397e+01,1.261e+01,1.290e+01,1.121e+01,1.118e+01,1.403e+01,1.261e+01,1.398e+01,1.069e+01,1.498e+01,1.554e+01,1.221e+01,1.181e+01,1.314e+01,1.114e+01,1.465e+01,1.421e+01,1.354e+01
5.055e-02,5.769e-01,9.452e-01,1.418e+00,9.238e-01,2.300e+00,2.506e+00,2.192e+00,2.941e+00,3.111e+00,3.278e+00,3.487e+00,3.408e+00,3.619e+00,3.603e+00,2.951e+00,4.708e+00,3.575e+00,5.127e+00,3.610e+00,4.108e+00,5.023e+00,5.000e+00,5.762e+00,7.078e+00,6.958e+00,5.775e+00,6.701e+00,6.187e+00,6.653e+00,7.548e+00,7.567e+00,8.215e+00,9.693e+00,1.010e+01,8.830e+00,1.016e+01,1.047e+01,9.443e+00,1.182e+01,8.021e+00,1.083e+01,1.039e+01,1.208e+01,1.259e+01,1.126e+01,9.905e+00,1.333e+01,1.143e+01,1.501e+01,1.318e+01,1.455e+01,1.408e+01,1.107e+01,1.442e+01,1.291e+01,1.134e+01,1.106e+01,1.251e+01,1.312e+01,1.357e+01,1.313e+01,1.193e+01,1.364e+01,1.098e+01,1.309e+01,1.221e+01,1.168e+01,1.229e+01,1.144e+01,1.115e+01,9.960e+00,1.026e+01,1.330e+01,1.128e+01,1.317e+01,1.015e+01,1.436e+01,1.329e+01,1.265e+01,1.132e+01,1.233e+01,1.145e+01,1.466e+01,1.266e+01,1.298e+01
9.717e-02,3.879e-01,6.531e-01,9.811e-01,9.135e-01,1.303e+00,1.845e+00,2.574e+00,2.233e+00,2.734e+00,3.387e+00,3.346e+00,3.985e+00,4.409e+00,2.937e+00,2.774e+00,4.861e+00,3.537e+00,3.881e+00,3.735e+00,4.151e+00,4.397e+00,4.067e+00,5.494e+00,5.445e+00,5.878e+00,5.951e+00,5.840e+00,6.038e+00,6.820e+00,6.782e+00,7.008e+00,6.906e+00,8.483e+00,7.951e+00,8.662e+00,8.254e+00,9.558e+00,7.383e+00,9.237e+00,9.036e+00,1.040e+01,1.048e+01,1.146e+01,1.252e+01,1.088e+01,1.054e+01,1.224e+01,1.093e+01,1.337e+01,1.456e+01,1.454e+01,1.394e+01,1.052e+01,1.394e+01,1.464e+01,1.221e+01,1.159e+01,1.218e+01,1.234e+01,1.443e+01,1.248e+01,1.275e+01,1.295e+01,1.167e+01,1.211e+01,1.329e+01,1.267e+01,1.355e+01,1.267e+01,1.202e+01,9.899e+00,1.117e+01,1.336e+01,1.000e+01,1.322e+01,1.122e+01,1.601e+01,1.471e+01,1.296e+01,1.219e+01,1.201e+01,1.098e+01,1.442e+01,1.340e+01,1.358e+01
3.588e-02,4.130e-01,8.236e-01,1.139e+00,5.779e-01,1.777e+00,2.107e+00,1.815e+00,2.186e+00,2.267e+00,2.723e+00,2.813e+00,3.119e+00,2.898e+00,2.934e+00,2.262e+00,3.961e+00,2.832e+00,4.700e+00,3.915e+00,4.114e+00,4.509e+00,4.401e+00,5.161e+00,6.526e+00,5.902e+00,5.048e+00,5.382e+00,5.354e+00,5.998e+00,7.002e+00,6.016e+00,7.244e+00,8.375e+00,8.410e+00,8.461e+00,8.261e+00,9.570e+00,8.316e+00,9.251e+00,7.073e+00,8.489e+00,9.422e+00,1.059e+01,1.214e+01,1.030e+01,9.764e+00,1.231e+01,1.103e+01,1.327e+01,1.474e+01,1.295e+01,1.371e+01,1.195e+01,1.408e+01,1.336e+01,1.071e+01,1.228e+01,1.220e+01,1.217e+01,1.456e+01,1.239e+01,1.096e+01,1.228e+01,1.273e+01,1.097e+01,1.331e+01,1.032e+01,1.173e+01,1.113e+01,1.217e+01,1.080e+01,1.111e+01,1.262e+01,1.225e+01,1.292e+01,1.075e+01,1.469e+01,1.418e+01,1.166e+01,1.196e+01,1.107e+01,1.087e+01,1.371e+01,1.259e+01,1.370e+01
2.614e-01,8.347e-01,1.079e+00,1.456e+00,1.315e+00,2.718e+00,2.363e+00,2.184e+00,3.155e+00,3.084e+00,3.949e+00,4.766e+00,4.619e+00,3.980e+00,3.529e+00,3.049e+00,4.784e+00,4.236e+00,5.094e+00,3.807e+00,3.551e+00,5.166e+00,4.839e+00,6.098e+00,6.987e+00,7.343e+00,5.565e+00,6.987e+00,5.873e+00,6.928e+00,7.137e+00,7.747e+00,7.829e+00,9.017e+00,9.399e+00,8.819e+00,9.100e+00,8.090e+00,7.751e+00,9.420e+00,6.579e+00,9.570e+00,7.667e+00,9.864e+00,1.039e+01,9.572e+00,9.085e+00,1.034e+01,1.025e+01,1.204e+01,1.331e+01,1.410e+01,1.143e+01,1.131e+01,1.368e+01,1.197e+01,1.079e+01,1.154e+01,1.138e+01,1.061e+01,1.342e+01,1.117e+01,1.203e+01,1.248e+01,1.166e+01,1.204e+01,1.048e+01,1.162e+01,1.126e+01,1.145e+01,1.061e+01,8.570e+00,8.879e+00,1.257e+01,1.046e+01,1.234e+01,1.050e+01,1.386e+01,1.271e+01,1.132e+01,1.153e+01,1.068e+01,1.046e+01,1.373e+01,1.226e+01,1.135e+01
8.918e-02,3.782e-01,6.709e-01,9.069e-01,6.014e-01,1.301e+00,1.806e+00,1.463e+00,2.059e+00,2.573e+00,2.449e+00,2.621e+00,2.809e+00,3.299e+00,3.309e+00,3.323e+00,4.332e+00,3.672e+00,4.133e+00,4.372e+00,4.379e+00,5.057e+00,5.317e+00,5.811e+00,7.745e+00,6.965e+00,7.581e+00,6.517e+00,6.693e+00,6.688e+00,6.974e+00,6.258e+00,7.341e+00,9.325e+00,8.717e+00,8.080e+00,9.118e+00,9.271e+00,8.538e+00,9.880e+00,8.374e+00,1.021e+01,1.020e+01,1.208e+01,1.217e+01,1.134e+01,1.008e+01,1.141e+01,1.025e+01,1.464e+01,1.575e+01,1.502e+01,1.393e+01,1.370e+01,1.608e+01,1.572e+01,1.244e+01,1.269e+01,1.338e+01,1.314e+01,1.464e+01,1.408e+01,1.275e+01,1.520e+01,1.436e+01,1.380e+01,1.432e+01,1.170e+01,1.362e+01,1.316e+01,1.342e+01,1.139e+01,1.195e+01,1.391e+01,1.139e+01,1.410e+01,1.131e+01,1.545e+01,1.474e+01,1.293e+01,1.255e+01,1.358e+01,1.246e+01,1.578e+01,1.446e+01,1.472e+01
3.450e-02,3.765e-01,7.635e-01,1.144e+00,7.834e-01,1.655e+00,2.157e+00,1.815e+00,2.293e+00,2.543e+00,2.917e+00,3.305e+00,3.538e+00,4.418e+00,4.402e+00,3.763e+00,5.133e+00,4.499e+00,5.487e+00,5.056e+00,5.263e+00,6.122e+00,5.752e+00,7.005e+00,7.555e+00,7.348e+00,7.841e+00,7.037e+00,6.868e+00,7.513e+00,7.973e+00,8.121e+00,8.864e+00,1.050e+01,1.064e+01,9.338e+00,1.066e+01,1.160e+01,9.787e+00,1.095e+01,8.883e+00,1.063e+01,1.032e+01,1.188e+01,1.291e+01,1.145e+01,1.151e+01,1.225e+01,1.285e+01,1.563e+01,1.604e+01,1.693e+01,1.753e+01,1.369e+01,1.751e+01,1.700e+01,1.388e+01,1.415e+01,1.564e+01,1.514e+01,1.682e+01,1.568e+01,1.339e+01,1.752e+01,1.467e+01,1.526e+01,1.663e+01,1.346e+01,1.590e+01,1.459e+01,1.476e+01,1.191e+01,1.423e+01,1.474e+01,1.434e+01,1.545e+01,1.417e+01,1.702e+01,1.598e+01,1.519e+01,1.510e+01,1.471e+01,1.476e+01,1.662e+01,1.519e+01,1.617e+01
2.579e-01,8.965e-01,1.123e+00,1.474e+00,1.173e+00,2.647e+00,2.170e+00,2.217e+00,2.868e+00,2.463e+00,3.694e+00,4.405e+00,4.693e+00,4.924e+00,4.245e+00,4.142e+00,6.055e+00,4.943e+00,5.249e+00,5.882e+00,6.236e+00,6.533e+00,5.114e+00,7.601e+00,8.587e+00,7.928e+00,8.294e+00,8.093e+00,7.375e+00,8.293e+00,8.668e+00,8.127e+00,8.336e+00,1.023e+01,9.959e+00,9.071e+00,9.357e+00,1.097e+01,8.648e+00,1.096e+01,8.821e+00,1.121e+01,1.094e+01,1.205e+01,1.400e+01,1.183e+01,1.064e+01,1.206e+01,1.123e+01,1.402e+01,1.446e+01,1.606e+01,1.572e+01,1.427e+01,1.733e+01,1.558e+01,1.376e+01,1.455e+01,1.592e+01,1.446e+01,1.553e+01,1.521e+01,1.202e+01,1.562e+01,1.383e+01,1.480e+01,1.493e+01,1.492e+01,1.457e+01,1.581e+01,1.534e+01,1.141e+01,1.383e+01,1.630e+01,1.336e+01,1.602e+01,1.272e+01,1.780e+01,1.695e+01,1.372e+01,1.595e+01,1.466e+01,1.323e+01,1.593e+01,1.547e+01,1.417e+01
6.118e-02,6.838e-01,8.455e-01,1.192e+00,5.037e-01,1.846e+00,1.493e+00,1.199e+00,1.846e+00,1.983e+00,2.577e+00,2.702e+00,2.953e+00,3.021e+00,3.002e+00,2.459e+00,4.328e+00,3.216e+00,4.610e+00,4.017e+00,4.103e+00,5.562e+00,4.466e+00,4.654e+00,6.671e+00,6.486e+00,5.434e+00,6.824e+00,5.498e+00,6.896e+00,6.010e+00,7.662e+00,6.885e+00,9.415e+00,8.745e+00,9.374e+00,8.578e+00,9.917e+00,8.556e+00,9.186e+00,8.252e+00,1.010e+01,9.433e+00,1.084e+01,1.238e+01,1.075e+01,9.439e+00,1.183e+01,9.771e+00,1.220e+01,1.492e+01,1.459e+01,1.452e+01,1.201e+01,1.534e+01,1.400e+01,1.249e+01,1.324e+01,1.324e+01,1.324e+01,1.339e+01,1.301e+01,1.152e+01,1.423e+01,1.288e+01,1.482e+01,1.498e+01,1.308e+01,1.433e+01,1.374e+01,1.406e+01,9.923e+00,1.282e+01,1.500e+01,1.176e+01,1.356e+01,1.204e+01,1.612e+01,1.616e+01,1.385e+01,1.310e+01,1.219e+01,1.246e+01,1.513e+01,1.484e+01,1.379e+01
1.660e-01,2.647e-01,7.518e-01,9.122e-01,8.542e-01,1.715e+00,1.799e+00,1.258e+00,2.179e+00,2.647e+00,2.295e+00,3.416e+00,2.958e+00,3.926e+00,3.873e+00,3.812e+00,4.722e+00,4.716e+00,4.941e+00,5.133e+00,4.570e+00,5.519e+00,5.094e+00,6.071e+00,8.062e+00,6.301e+00,7.673e+00,7.474e+00,5.624e+00,6.883e+00,6.693e+00,7.519e+00,7.922e+00,9.122e+00,8.980e+00,8.185e+00,8.643e+00,9.132e+00,8.532e+00,1.078e+01,8.240e+00,1.004e+01,9.769e+00,1.265e+01,1.296e+01,1.203e+01,1.056e+01,1.238e+01,1.015e+01,1.341e+01,1.375e+01,1.479e+01,1.461e+01,1.363e+01,1.548e+01,1.562e+01,1.311e+01,1.301e+01,1.447e+01,1.415e+01,1.583e+01,1.399e+01,1.337e+01,1.525e+01,1.474e+01,1.453e+01,1.413e+01,1.336e+01,1.485e+01,1.502e+01,1.299e+01,1.232e+01,1.269e+01,1.475e+01,1.227e+01,1.393e+01,1.243e+01,1.557e+01,1.524e+01,1.432e+01,1.227e+01,1.472e+01,1.354e+01,1.500e+01,1.441e+01,1.378e+01
2.338e-01,9.289e-01,9.798e-01,1.414e+00,1.297e+00,2.632e+00,1.763e+00,2.386e+00,2.886e+00,2.215e+00,3.336e+00,3.664e+00,4.314e+00,4.542e+00,3.521e+00,2.915e+00,5.259e+00,4.587e+00,4.565e+00,5.006e+00,5.524e+00,5.676e+00,5.326e+00,7.797e+00,8.468e+00,7.669e+00,7.491e+00,8.187e+00,7.050e+00,8.846e+00,8.135e+00,9.459e+00,9.234e+00,9.574e+00,1.026e+01,1.080e+01,1.115e+01,1.113e+01,8.944e+00,1.068e+01,8.756e+00,1.282e+01,1.102e+01,1.385e+01,1.490e+01,1.267e+01,1.190e+01,1.369e+01,1.192e+01,1.526e+01,1.731e+01,1.710e+01,1.816e+01,1.564e+01,1.940e+01,1.714e+01,1.620e+01,1.713e+01,1.808e+01,1.681e+01,1.829e+01,1.695e+01,1.500e+01,1.845e+01,1.670e+01,1.667e+01,1.877e+01,1.643e+01,1.773e+01,1.811e+01,1.675e+01,1.251e+01,1.411e+01,1.774e+01,1.620e+01,1.679e+01,1.512e+01,1.964e+01,1.961e+01,1.570e+01,1.623e+01,1.546e+01,1.473e+01,1.849e+01,1.811e+01,1.562e+01
1.352e-02,5.698e-01,4.632e-01,1.001e+00,1.051e+00,1.991e+00,2.129e+00,2.727e+00,3.094e+00,2.849e+00,3.162e+00,3.318e+00,3.485e+00,3.722e+00,3.146e+00,3.327e+00,5.353e+00,4.074e+00,4.953e+00,4.469e+00,5.654e+00,5.762e+00,5.122e+00,6.130e+00,6.789e+00,6.820e+00,7.326e+00,7.592e+00,5.936e+00,7.234e+00,7.503e+00,7.127e+00,7.188e+00,9.697e+00,8.574e+00,8.669e+00,8.462e+00,9.814e+00,8.377e+00,1.015e+01,9.854e+00,9.628e+00,1.101e+01,1.115e+01,1.284e+01,1.244e+01,1.001e+01,1.260e+01,1.130e+01,1.359e+01,1.364e+01,1.387e+01,1.565e+01,1.364e+01,1.633e+01,1.475e+01,1.414e+01,1.411e+01,1.684e+01,1.428e+01,1.678e+01,1.512e+01,1.347e+01,1.509e+01,1.432e+01,1.455e+01,1.675e+01,1.558e+01,1.629e+01,1.676e+01,1.506e+01,1.208e+01,1.369e+01,1.596e+01,1.412e+01,1.479e+01,1.382e+01,1.804e+01,1.735e+01,1.531e+01,1.485e+01,1.450e+01,1.355e+01,1.536e+01,1.567e+01,1.516e+01
3.902e-02,1.305e-01,5.623e-01,6.631e-01,2.794e-01,1.266e+00,1.560e+00,1.177e+00,1.882e+00,2.445e+00,1.853e+00,2.588e+00,2.845e+00,3.441e+00,3.973e+00,3.115e+00,4.581e+00,3.997e+00,4.885e+00,5.238e+00,3.606e+00,5.543e+00,4.704e+00,5.188e+00,7.062e+00,6.795e+00,7.952e+00,6.452e+00,6.650e+00,6.417e+00,7.478e+00,7.134e+00,7.354e+00,9.741e+00,9.083e+00,8.073e+00,8.533e+00,9.658e+00,8.161e+00,9.457e+00,8.681e+00,9.562e+00,9.912e+00,1.167e+01,1.234e+01,1.204e+01,9.841e+00,1.192e+01,1.013e+01,1.281e+01,1.476e+01,1.524e+01,1.496e+01,1.260e+01,1.597e+01,1.616e+01,1.530e+01,1.493e+01,1.699e+01,1.444e+01,1.642e+01,1.548e+01,1.309e+01,1.756e+01,1.604e+01,1.514e+01,1.555e+01,1.549e+01,1.573e+01,1.655e+01,1.556e+01,1.271e+01,1.441e+01,1.618e+01,1.458e+01,1.573e+01,1.441e+01,1.809e+01,1.887e+01,1.628e+01,1.566e+01,1.558e+01,1.450e+01,1.604e+01,1.692e+01,1.476e+01
1.785e-01,8.520e-01,1.215e+00,1.665e+00,1.086e+00,2.110e+00,2.425e+00,2.430e+00,2.510e+00,2.415e+00,4.051e+00,3.798e+00,4.486e+00,4.740e+00,3.492e+00,3.057e+00,5.289e+00,3.528e+00,4.469e+00,4.196e+00,4.533e+00,4.232e+00,3.517e+00,6.032e+00,6.347e+00,5.626e+00,5.479e+00,5.990e+00,5.091e+00,6.647e+00,6.407e+00,7.060e+00,6.586e+00,8.557e+00,8.025e+00,6.970e+00,6.645e+00,8.761e+00,7.670e+00,8.938e+00,8.177e+00,8.820e+00,8.381e+00,9.710e+00,1.138e+01,1.001e+01,8.679e+00,1.020e+01,9.589e+00,1.261e+01,1.365e+01,1.288e+01,1.355e+01,1.172e+01,1.416e+01,1.261e+01,1.228e+01,1.278e+01,1.432e+01,1.387e+01,1.561e+01,1.350e+01,1.212e+01,1.371e+01,1.303e+01,1.367e+01,1.367e+01,1.342e+01,1.341e+01,1.462e+01,1.419e+01,1.005e+01,1.218e+01,1.343e+01,1.262e+01,1.283e+01,1.197e+01,1.527e+01,1.658e+01,1.318e+01,1.301e+01,1.178e+01,1.308e+01,1.408e+01,1.496e+01,1.323e+01
1.117e-02,6.130e-01,7.486e-01,1.362e+00,1.113e+00,2.000e+00,2.629e+00,3.046e+00,3.261e+00,3.285e+00,3.348e+00,2.671e+00,3.779e+00,4.716e+00,3.550e+00,2.619e+00,4.794e+00,3.454e+00,4.366e+00,3.759e+00,4.929e+00,4.210e+00,5.308e+00,6.404e+00,6.593e+00,5.729e+00,5.921e+00,6.555e+00,6.074e+00,7.260e+00,6.860e+00,8.009e+00,7.574e+00,9.039e+00,8.967e+00,9.084e+00,9.534e+00,1.041e+01,9.579e+00,1.103e+01,9.173e+00,1.103e+01,1.136e+01,1.241e+01,1.326e+01,1.085e+01,1.131e+01,1.255e+01,1.169e+01,1.449e+01,1.433e+01,1.398e+01,1.545e+01,1.302e+01,1.614e+01,1.564e+01,1.376e+01,1.506e+01,1.452e+01,1.440e+01,1.576e+01,1.608e+01,1.402e+01,1.698e+01,1.533e+01,1.464e+01,1.689e+01,1.463e+01,1.603e+01,1.523e+01,1.564e+01,1.261e+01,1.423e+01,1.499e+01,1.452e+01,1.630e+01,1.387e+01,1.866e+01,1.712e+01,1.594e+01,1.507e+01,1.455e+01,1.455e+01,1.727e+01,1.628e+01,1.694e+01
2.125e-01,6.994e-01,8.433e-01,1.131e+00,9.514e-01,1.954e+00,2.601e+00,2.079e+00,2.937e+00,3.301e+00,3.626e+00,4.155e+00,4.403e+00,4.236e+00,4.124e+00,4.332e+00,5.335e+00,4.762e+00,4.984e+00,5.159e+00,4.790e+00,5.121e+00,5.708e+00,7.227e+00,8.632e+00,7.590e+00,8.022e+00,7.067e+00,6.906e+00,7.753e+00,7.779e+00,7.886e+00,7.984e+00,1.010e+01,1.010e+01,8.309e+00,8.709e+00,1.008e+01,7.721e+00,1.054e+01,8.727e+00,9.989e+00,1.008e+01,1.164e+01,1.195e+01,1.066e+01,1.078e+01,1.067e+01,9.457e+00,1.417e+01,1.397e+01,1.357e+01,1.302e+01,1.241e+01,1.576e+01,1.448e+01,1.275e+01,1.416e+01,1.443e+01,1.308e+01,1.515e+01,1.612e+01,1.365e+01,1.554e+01,1.468e+01,1.511e+01,1.415e+01,1.439e+01,1.403e+01,1.589e+01,1.534e+01,1.191e+01,1.420e+01,1.495e+01,1.247e+01,1.633e+01,1.238e+01,1.807e+01,1.663e+01,1.402e+01,1.553e+01,1.474e+01,1.269e+01,1.604e+01,1.704e+01,1.464e+01
8.217e-03,2.859e-02,1.118e-01,1.905e-01,2.348e-01,4.178e-01,9.380e-01,9.396e-01,1.163e+00,1.817e+00,1.472e+00,2.031e+00,1.918e+00,2.480e+00,2.422e+00,3.019e+00,3.948e+00,3.607e+00,3.758e+00,4.122e+00,3.863e+00,4.882e+00,3.854e+00,3.909e+00,5.364e+00,5.237e+00,5.962e+00,5.833e+00,3.881e+00,5.022e+00,4.742e+00,5.320e+00,6.087e+00,7.615e+00,7.244e+00,7.421e+00,6.828e+00,8.320e+00,6.377e+00,7.118e+00,7.133e+00,8.161e+00,8.618e+00,9.712e+00,9.713e+00,9.338e+00,8.307e+00,1.064e+01,8.635e+00,1.099e+01,1.300e+01,1.216e+01,1.287e+01,1.110e+01,1.358e+01,1.309e+01,1.282e+01,1.175e+01,1.302e+01,1.219e+01,1.343e+01,1.435e+01,1.246e+01,1.550e+01,1.385e+01,1.482e+01,1.498e+01,1.440e+01,1.372e+01,1.691e+01,1.505e+01,1.075e+01,1.311e+01,1.550e+01,1.210e+01,1.292e+01,1.294e+01,1.595e+01,1.661e+01,1.494e+01,1.309e+01,1.363e+01,1.290e+01,1.566e+01,1.568e+01,1.425e+01
2.707e-01,7.891e-01,1.001e+00,1.249e+00,1.014e+00,2.007e+00,1.679e+00,1.760e+00,2.131e+00,1.756e+00,2.965e+00,3.093e+00,4.008e+00,4.322e+00,3.213e+00,3.279e+00,4.755e+00,4.034e+00,3.971e+00,4.491e+00,4.519e+00,4.167e+00,3.473e+00,6.166e+00,5.821e+00,5.144e+00,5.932e+00,5.724e+00,4.279e+00,6.246e+00,6.010e+00,7.051e+00,7.044e+00,8.671e+00,8.060e+00,7.551e+00,7.833e+00,8.997e+00,8.161e+00,9.829e+00,7.951e+00,9.229e+00,8.000e+00,1.035e+01,1.087e+01,9.776e+00,9.877e+00,9.983e+00,9.944e+00,1.171e+01,1.160e+01,1.260e+01,1.344e+01,1.151e+01,1.343e+01,1.212e+01,1.122e+01,1.171e+01,1.253e+01,1.199e+01,1.349e+01,1.358e+01,1.213e+01,1.466e+01,1.387e+01,1.437e+01,1.456e+01,1.221e+01,1.295e+01,1.428e+01,1.360e+01,1.194e+01,1.188e+01,1.404e+01,1.177e+01,1.331e+01,1.069e+01,1.587e+01,1.624e+01,1.419e+01,1.274e+01,1.156e+01,1.293e+01,1.461e+01,1.408e+01,1.396e+01
1.528e-02,1.549e-01,6.458e-01,1.002e+00,9.202e-01,1.541e+00,1.354e+00,2.454e+00,2.320e+00,2.704e+00,2.882e+00,3.348e+00,2.953e+00,3.551e+00,3.535e+00,2.814e+00,4.880e+00,4.439e+00,4.473e+00,3.727e+00,3.930e+00,4.543e+00,5.180e+00,5.813e+00,6.557e+00,7.551e+00,6.184e+00,7.083e+00,6.309e+00,7.750e+00,6.660e+00,7.148e+00,7.686e+00,9.116e+00,9.124e+00,9.397e+00,1.046e+01,9.536e+00,9.062e+00,9.161e+00,7.464e+00,1.023e+01,9.856e+00,1.090e+01,1.180e+01,1.043e+01,9.980e+00,1.247e+01,1.099e+01,1.295e+01,1.379e+01,1.402e+01,1.334e+01,1.179e+01,1.516e+01,1.370e+01,1.333e+01,1.293e+01,1.393e+01,1.330e+01,1.492e+01,1.466e+01,1.256e+01,1.535e+01,1.493e+01,1.478e+01,1.583e+01,1.356e+01,1.477e+01,1.562e+01,1.512e+01,1.199e+01,1.420e+01,1.520e+01,1.401e+01,1.445e+01,1.453e+01,1.816e+01,1.697e+01,1.460e+01,1.452e+01,1.376e+01,1.328e+01,1.708e+01,1.571e+01,1.581e+01
3.952e-02,4.954e-01,7.275e-01,1.181e+00,9.377e-01,2.119e+00,2.482e+00,2.573e+00,3.131e+00,3.323e+00,3.093e+00,3.311e+00,3.292e+00,3.777e+00,3.653e+00,3.603e+00,5.070e+00,3.874e+00,4.674e+00,4.293e+00,4.843e+00,4.820e+00,5.580e+00,6.550e+00,8.358e+00,7.484e+00,7.915e+00,7.570e+00,7.301e+00,7.931e+00,7.254e+00,7.814e+00,7.884e+00,1.046e+01,1.013e+01,8.428e+00,9.403e+00,1.027e+01,1.006e+01,1.091e+01,8.710e+00,1.125e+01,1.007e+01,1.141e+01,1.244e+01,1.191e+01,1.091e+01,1.193e+01,1.125e+01,1.584e+01,1.534e+01,1.570e+01,1.487e+01,1.434e+01,1.523e+01,1.602e+01,1.361e+01,1.359e+01,1.508e+01,1.523e+01,1.593e+01,1.531e+01,1.445e+01,1.693e+01,1.552e+01,1.541e+01,1.555e+01,1.462e+01,1.583e+01,1.739e+01,1.501e+01,1.413e+01,1.394e+01,1.610e+01,1.374e+01,1.723e+01,1.365e+01,1.826e+01,1.877e+01,1.592e+01,1.537e+01,1.518e+01,1.609e+01,1.667e+01,1.645e+01,1.603e+01
1.764e-01,2.922e-01,5.322e-01,6.035e-01,6.514e-01,1.390e+00,1.619e+00,1.263e+00,1.974e+00,2.169e+00,2.305e+00,3.523e+00,3.415e+00,3.865e+00,3.967e+00,3.763e+00,4.360e+00,4.453e+00,4.343e+00,5.717e+00,5.656e+00,5.849e+00,4.945e+00,7.021e+00,8.349e+00,7.232e+00,9.017e+00,7.736e+00,6.792e+00,7.597e+00,8.446e+00,8.981e+00,8.277e+00,1.024e+01,9.538e+00,9.631e+00,9.952e+00,1.142e+01,9.507e+00,1.189e+01,9.495e+00,1.215e+01,1.191e+01,1.443e+01,1.451e+01,1.335e+01,1.147e+01,1.273e+01,1.037e+01,1.476e+01,1.538e+01,1.637e+01,1.636e+01,1.442e+01,1.640e+01,1.606e+01,1.521e+01,1.536e+01,1.703e+01,1.498e+01,1.796e+01,1.675e+01,1.578e+01,1.744e+01,1.762e+01,1.762e+01,1.872e+01,1.882e+01,1.746e+01,1.977e+01,1.826e+01,1.557e+01,1.593e+01,1.849e+01,1.634e+01,1.680e+01,1.481e+01,1.928e+01,2.163e+01,1.734e+01,1.649e+01,1.701e+01,1.626e+01,1.906e+01,1.883e+01,1.659e+01
1.088e-01,7.632e-01,9.323e-01,1.380e+00,9.343e-01,2.299e+00,2.507e+00,2.561e+00,3.083e+00,3.282e+00,3.608e+00,3.891e+00,4.048e+00,4.869e+00,4.265e+00,4.007e+00,6.338e+00,5.190e+00,5.396e+00,5.153e+00,5.983e+00,6.075e+00,6.207e+00,7.063e+00,8.394e+00,8.156e+00,7.690e+00,8.051e+00,6.801e+00,8.301e+00,8.200e+00,8.975e+00,8.412e+00,1.101e+01,1.010e+01,1.012e+01,1.027e+01,1.058e+01,9.717e+00,1.078e+01,9.597e+00,1.132e+01,1.089e+01,1.214e+01,1.309e+01,1.043e+01,1.042e+01,1.202e+01,1.036e+01,1.361e+01,1.398e+01,1.464e+01,1.433e+01,1.307e+01,1.620e+01,1.474e+01,1.343e+01,1.441e+01,1.678e+01,1.584e+01,1.712e+01,1.708e+01,1.398e+01,1.819e+01,1.720e+01,1.754e+01,1.771e+01,1.753e+01,1.848e+01,1.852e+01,1.785e+01,1.459e+01,1.732e+01,1.825e+01,1.605e+01,1.867e+01,1.681e+01,1.921e+01,2.014e+01,1.735e+01,1.561e+01,1.658e+01,1.609e+01,1.858e+01,1.914e+01,1.746e+01
1.823e-01,5.965e-01,8.925e-01,1.269e+00,1.206e+00,2.324e+00,1.949e+00,1.884e+00,2.735e+00,2.502e+00,3.034e+00,3.885e+00,4.007e+00,4.373e+00,4.262e+00,3.181e+00,4.709e+00,4.676e+00,5.222e+00,5.767e+00,5.701e+00,5.811e+00,5.385e+00,7.254e+00,8.772e+00,6.606e+00,8.529e+00,7.696e+00,7.504e+00,8.559e+00,8.595e+00,9.111e+00,8.515e+00,1.059e+01,1.051e+01,1.043e+01,1.050e+01,1.251e+01,9.847e+00,1.080e+01,9.610e+00,1.284e+01,1.265e+01,1.334e+01,1.464e+01,1.208e+01,1.135e+01,1.383e+01,1.230e+01,1.428e+01,1.557e+01,1.539e+01,1.642e+01,1.313e+01,1.535e+01,1.423e+01,1.483e+01,1.406e+01,1.655e+01,1.548e+01,1.654e+01,1.624e+01,1.459e+01,1.757e+01,1.654e+01,1.583e+01,1.782e+01,1.616e+01,1.891e+01,1.941e+01,1.830e+01,1.526e+01,1.688e+01,1.865e+01,1.686e+01,1.676e+01,1.501e+01,2.124e+01,2.309e+01,1.791e+01,1.752e+01,1.567e+01,1.477e+01,2.002e+01,1.815e+01,1.805e+01
1.580e-02,2.254e-01,5.857e-01,9.942e-01,1.016e+00,2.056e+00,2.691e+00,3.017e+00,3.484e+00,3.665e+00,3.262e+00,3.881e+00,3.900e+00,4.315e+00,4.320e+00,3.360e+00,5.245e+00,4.783e+00,5.596e+00,4.782e+00,5.136e+00,5.771e+00,6.041e+00,7.393e+00,7.388e+00,7.584e+00,7.309e+00,7.162e+00,7.028e+00,6.503e+00,8.098e+00,7.360e+00,7.350e+00,8.391e+00,9.412e+00,8.582e+00,9.645e+00,9.991e+00,8.752e+00,1.073e+01,9.006e+00,1.130e+01,1.206e+01,1.325e+01,1.271e+01,1.148e+01,1.078e+01,1.215e+01,1.104e+01,1.478e+01,1.400e+01,1.430e+01,1.545e+01,1.152e+01,1.503e+01,1.464e+01,1.281e+01,1.359e+01,1.591e+01,1.435e+01,1.729e+01,1.668e+01,1.421e+01,1.753e+01,1.450e+01,1.562e+01,1.579e+01,1.476e+01,1.616e+01,1.702e+01,1.692e+01,1.476e+01,1.493e+01,1.516e+01,1.583e+01,1.770e+01,1.487e+01,2.036e+01,1.933e+01,1.710e+01,1.505e+01,1.569e+01,1.653e+01,1.881e+01,1.783e+01,1.814e+01
3.264e-02,6.360e-01,8.025e-01,1.324e+00,9.386e-01,2.245e+00,2.810e+00,2.852e+00,3.354e+00,3.661e+00,3.809e+00,3.755e+00,3.983e+00,3.533e+00,3.546e+00,3.247e+00,5.185e+00,4.198e+00,5.615e+00,4.061e+00,4.579e+00,5.311e+00,6.068e+00,6.188e+00,7.928e+00,8.000e+00,7.144e+00,8.225e+00,7.500e+00,8.456e+00,8.147e+00,8.904e+00,8.057e+00,1.105e+01,1.040e+01,1.078e+01,9.531e+00,1.094e+01,9.357e+00,1.000e+01,9.707e+00,1.167e+01,1.174e+01,1.263e+01,1.398e+01,1.266e+01,1.229e+01,1.431e+01,1.192e+01,1.582e+01,1.762e+01,1.698e+01,1.690e+01,1.474e+01,1.790e+01,1.625e+01,1.611e+01,1.568e+01,1.655e+01,1.628e+01,1.676e+01,1.659e+01,1.512e+01,1.799e+01,1.723e+01,1.650e+01,1.852e+01,1.638e+01,1.834e+01,1.737e+01,1.756e+01,1.449e+01,1.701e+01,2.119e+01,1.618e+01,1.928e+01,1.583e+01,2.074e+01,2.007e+01,1.926e+01,1.641e+01,1.639e+01,1.619e+01,2.095e+01,1.919e+01,1.691e+01
1.746e-01,2.815e-01,6.467e-01,8.947e-01,1.169e+00,1.997e+00,1.802e+00,2.007e+00,2.827e+00,2.996e+00,2.592e+00,3.691e+00,3.267e+00,3.742e+00,3.694e+00,3.715e+00,4.752e+00,4.643e+00,4.603e+00,4.844e+00,4.413e+00,5.460e+00,5.720e+00,6.580e+00,7.933e+00,7.166e+00,7.657e+00,7.619e+00,7.011e+00,7.793e+00,7.894e+00,9.016e+00,9.114e+00,1.019e+01,1.074e+01,1.024e+01,1.104e+01,1.043e+01,8.872e+00,1.100e+01,8.143e+00,1.118e+01,1.069e+01,1.301e+01,1.353e+01,1.295e+01,1.202e+01,1.405e+01,1.114e+01,1.540e+01,1.555e+01,1.534e+01,1.564e+01,1.439e+01,1.646e+01,1.671e+01,1.585e+01,1.643e+01,1.608e+01,1.587e+01,1.826e+01,1.744e+01,1.534e+01,1.878e+01,1.812e+01,1.770e+01,1.822e+01,1.767e+01,1.882e+01,1.994e+01,1.999e+01,1.723e+01,1.701e+01,2.047e+01,1.787e+01,1.959e+01,1.671e+01,2.256e+01,2.333e+01,2.009e+01,1.898e+01,1.950e+01,1.891e+01,2.104e+01,2.046e+01,1.910e+01
7.093e-02,3.047e-01,6.490e-01,9.682e-01,8.954e-01,1.891e+00,2.127e+00,2.504e+00,2.815e+00,3.054e+00,3.100e+00,3.682e+00,3.907e+00,3.979e+00,3.519e+00,2.696e+00,4.609e+00,3.578e+00,4.756e+00,4.504e+00,4.638e+00,5.442e+00,5.523e+00,6.430e+00,7.199e+00,6.936e+00,7.235e+00,6.192e+00,7.460e+00,7.618e+00,7.798e+00,8.120e+00,8.278e+00,9.782e+00,9.946e+00,1.007e+01,1.043e+01,1.069e+01,9.128e+00,1.147e+01,9.201e+00,1.147e+01,1.134e+01,1.337e+01,1.289e+01,1.187e+01,1.008e+01,1.336e+01,1.110e+01,1.456e+01,1.535e+01,1.488e+01,1.544e+01,1.336e+01,1.650e+01,1.582e+01,1.450e+01,1.454e+01,1.512e+01,1.588e+01,1.672e+01,1.783e+01,1.473e+01,1.877e+01,1.706e+01,1.717e+01,1.862e+01,1.612e+01,1.799e+01,1.875e+01,2.007e+01,1.674e+01,1.696e+01,2.151e+01,1.752e+01,1.985e+01,1.686e+01,2.196e+01,2.255e+01,2.040e+01,1.797e+01,1.827e+01,1.810e+01,2.157e+01,2.216e+01,1.938e+01
2.189e-01,8.232e-01,1.285e+00,1.596e+00,9.294e-01,2.718e+00,2.360e+00,2.087e+00,2.930e+00,3.030e+00,3.768e+00,4.184e+00,4.730e+00,4.591e+00,4.164e+00,3.893e+00,6.075e+00,4.501e+00,6.066e+00,5.689e+00,5.096e+00,6.707e+00,4.760e+00,6.532e+00,7.357e+00,6.884e+00,7.272e+00,7.002e+00,6.455e+00,7.009e+00,7.079e+00,7.387e+00,7.421e+00,1.025e+01,9.775e+00,9.056e+00,8.990e+00,1.028e+01,9.319e+00,1.127e+01,1.008e+01,1.104e+01,1.098e+01,1.265e+01,1.256e+01,1.203e+01,1.012e+01,1.259e+01,1.120e+01,1.387e+01,1.492e+01,1.585e+01,1.527e+01,1.203e+01,1.657e+01,1.502e+01,1.449e+01,1.427e+01,1.637e+01,1.572e+01,1.773e+01,1.696e+01,1.436e+01,1.803e+01,1.657e+01,1.724e+01,1.787e+01,1.786e+01,1.854e+01,1.941e+01,1.940e+01,1.536e+01,1.758e+01,1.989e+01,1.798e+01,1.970e+01,1.586e+01,2.365e+01,2.348e+01,2.066e+01,1.890e+01,1.778e+01,1.784e+01,2.131e+01,2.103e+01,1.923e+01
1.599e-01,8.288e-01,9.721e-01,1.303e+00,7.577e-01,2.658e+00,2.194e+00,1.804e+00,2.794e+00,2.361e+00,2.613e+00,3.021e+00,3.551e+00,3.676e+00,3.545e+00,3.028e+00,4.801e+00,3.514e+00,4.389e+00,3.607e+00,4.094e+00,5.213e+00,5.042e+00,5.720e+00,6.440e+00,6.851e+00,5.526e+00,6.383e+00,5.843e+00,7.038e+00,6.763e+00,7.516e+00,6.633e+00,7.904e+00,8.855e+00,7.890e+00,9.127e+00,8.660e+00,7.959e+00,8.979e+00,7.210e+00,9.086e+00,9.516e+00,1.133e+01,1.149e+01,1.013e+01,9.917e+00,1.013e+01,9.869e+00,1.282e+01,1.272e+01,1.323e+01,1.336e+01,1.130e+01,1.314e+01,1.298e+01,1.100e+01,1.291e+01,1.320e+01,1.217e+01,1.331e+01,1.370e+01,1.136e+01,1.619e+01,1.452e+01,1.461e+01,1.480e+01,1.454e+01,1.481e+01,1.592e+01,1.606e+01,1.433e+01,1.545e+01,1.652e+01,1.490e+01,1.782e+01,1.473e+01,1.957e+01,1.991e+01,1.665e+01,1.545e+01,1.657e+01,1.683e+01,1.837e+01,1.768e+01,1.791e+01
2.552e-01,7.647e-01,1.067e+00,1.248e+00,7.742e-01,2.136e+00,2.317e+00,2.153e+00,2.672e+00,2.718e+00,3.414e+00,3.712e+00,4.589e+00,4.530e+00,3.771e+00,3.699e+00,5.698e+00,4.151e+00,4.646e+00,5.666e+00,5.025e+00,5.675e+00,5.050e+00,7.169e+00,8.723e+00,7.781e+00,7.691e+00,7.257e+00,6.640e+00,7.738e+00,7.714e+00,8.385e+00,8.194e+00,1.044e+01,1.044e+01,9.718e+00,9.678e+00,1.135e+01,9.104e+00,1.120e+01,1.014e+01,1.170e+01,1.061e+01,1.371e+01,1.389e+01,1.281e+01,1.041e+01,1.189e+01,9.912e+00,1.390e+01,1.476e+01,1.454e+01,1.472e+01,1.252e+01,1.558e+01,1.452e+01,1.336e+01,1.465e+01,1.622e+01,1.373e+01,1.642e+01,1.579e+01,1.433e+01,1.628e+01,1.614e+01,1.675e+01,1.639e+01,1.593e+01,1.809e+01,1.839e+01,1.836e+01,1.443e+01,1.644e+01,1.881e+01,1.673e+01,1.962e+01,1.536e+01,2.222e+01,2.334e+01,1.941e+01,1.743e+01,1.809e+01,1.809e+01,2.010e+01,2.134e+01,1.809e+01
1.497e-01,4.435e-01,1.067e+00,1.352e+00,9.238e-01,1.923e+00,1.907e+00,1.714e+00,2.175e+00,2.348e+00,2.678e+00,2.964e+00,3.193e+00,4.362e+00,3.705e+00,2.740e+00,4.392e+00,3.866e+00,4.329e+00,4.380e+00,4.495e+00,4.935e+00,4.544e+00,5.664e+00,6.759e+00,5.194e+00,6.864e+00,6.241e+00,6.297e+00,6.750e+00,6.749e+00,7.602e+00,7.464e+00,9.919e+00,8.973e+00,8.949e+00,9.390e+00,9.278e+00,9.351e+00,9.983e+00,8.373e+00,1.034e+01,1.049e+01,1.185e+01,1.209e+01,1.083e+01,9.699e+00,1.133e+01,1.136e+01,1.299e+01,1.367e+01,1.384e+01,1.500e+01,1.373e+01,1.546e+01,1.447e+01,1.375e+01,1.320e+01,1.563e+01,1.650e+01,1.563e+01,1.650e+01,1.338e+01,1.686e+01,1.739e+01,1.600e+01,1.850e+01,1.679e+01,1.720e+01,1.886e+01,1.975e+01,1.546e+01,1.685e+01,1.940e+01,1.815e+01,1.873e+01,1.721e+01,2.271e+01,2.246e+01,2.133e+01,1.799e+01,1.786e+01,1.899e+01,2.004e+01,2.021e+01,1.799e+01
2.016e-01,5.930e-01,1.188e+00,1.650e+00,1.498e+00,2.550e+00,2.779e+00,2.474e+00,3.300e+00,3.399e+00,3.425e+00,3.946e+00,3.709e+00,5.320e+00,4.222e+00,3.166e+00,5.326e+00,4.975e+00,4.914e+00,4.004e+00,4.578e+00,5.526e+00,6.186e+00,6.202e+00,8.080e+00,7.149e+00,6.604e+00,7.895e+00,5.885e+00,7.703e+00,7.278e+00,8.918e+00,7.624e+00,1.031e+01,1.041e+01,9.226e+00,1.025e+01,9.733e+00,9.154e+00,9.850e+00,8.609e+00,1.042e+01,1.075e+01,1.292e+01,1.239e+01,1.099e+01,1.124e+01,1.219e+01,1.194e+01,1.341e+01,1.452e+01,1.485e+01,1.535e+01,1.339e+01,1.575e+01,1.511e+01,1.429e+01,1.496e+01,1.544e+01,1.558e+01,1.560e+01,1.741e+01,1.398e+01,1.937e+01,1.687e+01,1.724e+01,1.685e+01,1.821e+01,1.922e+01,2.022e+01,1.904e+01,1.519e+01,1.794e+01,2.009e+01,1.700e+01,2.000e+01,1.859e+01,2.222e+01,2.244e+01,2.109e+01,1.950e+01,1.901e+01,2.009e+01,2.140e+01,1.976e+01,1.904e+01
8.657e-02,2.256e-01,7.510e-01,9.337e-01,6.402e-01,1.987e+00,2.074e+00,1.941e+00,2.573e+00,2.775e+00,1.958e+00,2.669e+00,2.663e+00,3.608e+00,3.471e+00,2.603e+00,4.286e+00,3.521e+00,4.043e+00,4.112e+00,4.244e+00,4.570e+00,5.467e+00,5.325e+00,7.524e+00,6.836e+00,6.805e+00,6.490e+00,5.756e+00,7.753e+00,7.288e+00,7.417e+00,7.239e+00,9.413e+00,8.339e+00,7.727e+00,8.824e+00,9.398e+00,8.851e+00,1.068e+01,8.812e+00,1.055e+01,1.060e+01,1.390e+01,1.345e+01,1.252e+01,1.139e+01,1.333e+01,1.101e+01,1.416e+01,1.506e+01,1.496e+01,1.504e+01,1.520e+01,1.635e+01,1.636e+01,1.426e+01,1.523e+01,1.610e+01,1.569e+01,1.671e+01,1.554e+01,1.501e+01,1.726e+01,1.772e+01,1.599e+01,1.647e+01,1.600e+01,1.796e+01,1.886e+01,1.831e+01,1.745e+01,1.726e+01,1.973e+01,1.790e+01,1.940e+01,1.811e+01,2.229e+01,2.297e+01,2.115e+01,1.919e+01,1.868e+01,1.897e+01,2.207e+01,2.157e+01,1.972e+01
2.749e-01,6.871e-01,1.062e+00,1.326e+00,1.164e+00,2.205e+00,2.362e+00,1.889e+00,2.503e+00,2.381e+00,2.950e+00,3.507e+00,3.383e+00,3.962e+00,2.828e+00,2.743e+00,4.162e+00,3.398e+00,3.256e+00,3.114e+00,3.992e+00,3.924e+00,4.295e+00,4.905e+00,6.908e+00,5.748e+00,5.144e+00,6.618e+00,4.812e+00,7.009e+00,6.939e+00,7.987e+00,6.747e+00,9.352e+00,9.060e+00,8.154e+00,8.383e+00,9.104e+00,8.160e+00,8.414e+00,6.915e+00,8.941e+00,9.040e+00,1.065e+01,1.160e+01,9.855e+00,9.844e+00,1.157e+01,9.730e+00,1.232e+01,1.277e+01,1.334e+01,1.236e+01,1.273e+01,1.440e+01,1.374e+01,1.174e+01,1.373e+01,1.410e+01,1.396e+01,1.487e+01,1.461e+01,1.293e+01,1.659e+01,1.514e+01,1.542e+01,1.612e+01,1.521e+01,1.601e+01,1.853e+01,1.865e+01,1.581e+01,1.699e+01,1.892e+01,1.698e+01,1.849e+01,1.789e+01,2.211e+01,2.276e+01,2.133e+01,1.962e+01,1.947e+01,1.989e+01,2.093e+01,2.170e+01,1.913e+01
1.865e-01,4.993e-01,1.007e+00,1.143e+00,6.112e-01,2.035e+00,1.994e+00,1.582e+00,2.187e+00,2.707e+00,3.112e+00,3.922e+00,4.009e+00,3.609e+00,3.602e+00,3.763e+00,5.262e+00,4.024e+00,5.398e+00,5.153e+00,4.533e+00,5.756e+00,4.861e+00,6.057e+00,8.063e+00,7.784e+00,7.305e+00,7.298e+00,6.741e+00,7.965e+00,8.060e+00,7.891e+00,8.258e+00,9.862e+00,1.061e+01,9.851e+00,1.020e+01,1.121e+01,9.485e+00,1.076e+01,9.153e+00,1.149e+01,1.154e+01,1.296e+01,1.409e+01,1.178e+01,1.142e+01,1.335e+01,1.178e+01,1.375e+01,1.522e+01,1.451e+01,1.586e+01,1.308e+01,1.605e+01,1.523e+01,1.436e+01,1.505e+01,1.646e+01,1.566e+01,1.652e+01,1.708e+01,1.445e+01,1.744e+01,1.646e+01,1.698e+01,1.753e+01,1.647e+01,1.827e+01,1.989e+01,1.948e+01,1.697e+01,1.785e+01,2.094e+01,1.790e+01,2.075e+01,1.686e+01,2.372e+01,2.437e+01,2.189e+01,2.150e+01,1.988e+01,1.885e+01,2.283e+01,2.328e+01,2.149e+01
1.645e-01,6.095e-01,9.966e-01,1.198e+00,6.296e-01,2.070e+00,1.970e+00,2.187e+00,2.503e+00,2.735e+00,3.254e+00,3.412e+00,3.995e+00,3.626e+00,3.318e+00,3.514e+00,5.553e+00,4.082e+00,5.040e+00,5.050e+00,4.770e+00,5.552e+00,4.765e+00,6.343e+00,7.141e+00,7.207e+00,6.670e+00,7.040e+00,6.144e+00,7.505e+00,7.195e+00,6.694e+00,7.426e+00,9.016e+00,8.435e+00,8.219e+00,8.092e+00,9.216e+00,7.881e+00,9.999e+00,8.263e+00,1.078e+01,9.814e+00,1.239e+01,1.218e+01,1.118e+01,8.801e+00,1.193e+01,1.036e+01,1.329e+01,1.458e+01,1.438e+01,1.439e+01,1.353e+01,1.575e+01,1.497e+01,1.306e+01,1.422e+01,1.593e+01,1.529e+01,1.701e+01,1.673e+01,1.380e+01,1.770e+01,1.570e+01,1.524e+01,1.690e+01,1.584e+01,1.665e+01,1.768e+01,1.804e+01,1.426e+01,1.534e+01,1.857e+01,1.628e+01,1.909e+01,1.525e+01,2.082e+01,2.072e+01,1.835e+01,1.825e+01,1.867e+01,1.875e+01,2.054e+01,2.145e+01,1.957e+01
2.265e-01,6.217e-01,1.169e+00,1.466e+00,1.065e+00,1.651e+00,2.028e+00,2.192e+00,2.165e+00,2.756e+00,3.626e+00,3.305e+00,3.812e+00,4.326e+00,3.187e+00,3.524e+00,5.085e+00,4.483e+00,4.307e+00,4.430e+00,4.965e+00,4.438e+00,5.260e+00,6.363e+00,7.696e+00,7.136e+00,6.821e+00,7.016e+00,5.898e+00,8.645e+00,7.284e+00,7.827e+00,8.088e+00,1.025e+01,9.402e+00,8.707e+00,9.101e+00,1.068e+01,8.593e+00,9.825e+00,8.349e+00,1.125e+01,9.604e+00,1.198e+01,1.223e+01,1.033e+01,1.078e+01,1.147e+01,1.179e+01,1.324e+01,1.321e+01,1.397e+01,1.370e+01,1.130e+01,1.388e+01,1.373e+01,1.258e+01,1.356e+01,1.446e+01,1.355e+01,1.524e+01,1.464e+01,1.416e+01,1.680e+01,1.455e+01,1.448e+01,1.696e+01,1.620e+01,1.672e+01,1.821e+01,1.815e+01,1.545e+01,1.732e+01,1.848e+01,1.496e+01,2.039e+01,1.656e+01,2.234e+01,2.233e+01,1.965e+01,2.006e+01,1.906e+01,1.869e+01,2.088e+01,2.188e+01,2.089e+01
1.630e-01,3.302e-01,5.258e-01,6.233e-01,6.341e-01,1.153e+00,1.145e+00,1.466e+00,1.552e+00,1.863e+00,2.169e+00,2.483e+00,2.754e+00,2.851e+00,2.173e+00,3.429e+00,4.153e+00,3.447e+00,3.329e+00,3.872e+00,4.047e+00,4.290e+00,3.547e+00,5.280e+00,5.813e+00,6.114e+00,6.016e+00,6.633e+00,4.710e+00,6.506e+00,6.291e+00,6.742e+00,6.960e+00,8.007e+00,8.455e+00,8.765e+00,8.927e+00,1.012e+01,7.986e+00,1.005e+01,8.841e+00,1.010e+01,9.647e+00,1.091e+01,1.218e+01,1.113e+01,1.076e+01,1.122e+01,9.501e+00,1.300e+01,1.219e+01,1.391e+01,1.455e+01,1.088e+01,1.439e+01,1.328e+01,1.264e+01,1.327e+01,1.368e+01,1.438e+01,1.617e+01,1.367e+01,1.248e+01,1.650e+01,1.509e+01,1.576e+01,1.632e+01,1.465e+01,1.728e+01,1.849e+01,1.768e+01,1.323e+01,1.498e+01,1.876e+01,1.505e+01,1.754e+01,1.496e+01,2.132e+01,2.183e+01,2.074e+01,1.892e+01,1.772e+01,1.866e+01,1.994e+01,2.020e+01,1.825e+01
2.977e-02,8.249e-02,6.750e-01,8.763e-01,6.021e-01,1.557e+00,1.448e+00,1.867e+00,2.135e+00,2.649e+00,2.206e+00,2.592e+00,2.636e+00,3.017e+00,2.973e+00,2.998e+00,4.499e+00,3.057e+00,4.517e+00,5.113e+00,4.886e+00,5.828e+00,4.343e+00,5.524e+00,6.657e+00,6.167e+00,7.200e+00,6.756e+00,6.891e+00,6.484e+00,7.415e+00,6.970e+00,7.702e+00,8.322e+00,8.848e+00,8.896e+00,9.832e+00,1.030e+01,9.072e+00,1.003e+01,8.023e+00,1.179e+01,1.085e+01,1.237e+01,1.334e+01,1.191e+01,9.664e+00,1.358e+01,1.004e+01,1.339e+01,1.462e+01,1.477e+01,1.591e+01,1.310e+01,1.641e+01,1.580e+01,1.412e+01,1.440e+01,1.538e+01,1.479e+01,1.649e+01,1.666e+01,1.466e+01,1.848e+01,1.685e+01,1.658e+01,1.852e+01,1.724e+01,1.803e+01,1.929e+01,1.888e+01,1.571e+01,1.651e+01,1.960e+01,1.736e+01,1.968e+01,1.707e+01,2.310e+01,2.248e+01,2.269e+01,2.085e+01,1.956e+01,2.119e+01,2.413e+01,2.299e+01,2.290e+01
1.319e-01,3.969e-01,7.466e-01,1.111e+00,1.148e+00,1.692e+00,2.095e+00,2.257e+00,2.852e+00,3.349e+00,3.140e+00,3.271e+00,3.398e+00,3.970e+00,3.644e+00,3.471e+00,4.531e+00,4.637e+00,4.602e+00,4.514e+00,4.953e+00,5.490e+00,6.112e+00,6.271e+00,7.401e+00,7.623e+00,7.636e+00,8.330e+00,7.089e+00,7.752e+00,8.728e+00,8.567e+00,7.910e+00,1.061e+01,8.993e+00,9.774e+00,1.005e+01,9.815e+00,9.140e+00,1.025e+01,8.790e+00,1.178e+01,1.107e+01,1.215e+01,1.264e+01,1.117e+01,1.192e+01,1.165e+01,1.153e+01,1.341e+01,1.305e+01,1.395e+01,1.431e+01,1.188e+01,1.418e+01,1.509e+01,1.374e+01,1.462e+01,1.527e+01,1.448e+01,1.672e+01,1.661e+01,1.469e+01,1.771e+01,1.682e+01,1.629e+01,1.851e+01,1.784e+01,1.793e+01,1.990e+01,1.864e+01,1.572e+01,1.572e+01,1.887e+01,1.589e+01,2.028e+01,1.764e+01,2.257e+01,2.222e+01,2.055e+01,2.056e+01,1.781e+01,1.844e+01,2.192e+01,2.099e+01,1.966e+01
