7.688e-01,9.326e-01,6.862e-01,5.479e-01,8.779e-01,4.280e-01,3.459e-01,7.854e-01,8.640e-01,1.437e-01,3.296e-01,1.857e-01,4.148e-01,6.777e-01,5.169e-01,1.961e-01,2.833e-01,2.672e-01,8.931e-03,8.636e-01,3.852e-01,1.997e-01,3.781e-01,3.799e-01,4.786e-01,6.955e-01,4.305e-01,4.700e-01,1.146e-01,6.784e-01,9.387e-01,8.164e-01,9.880e-01,3.591e-01,3.101e-02,1.228e-01,5.176e-01,9.424e-01,6.915e-01,7.513e-01,5.865e-01,1.812e-01,9.027e-01,6.032e-01,3.322e-01,8.376e-01,9.431e-01,2.133e-01,7.476e-01,1.931e-01,7.612e-01,3.485e-02,1.546e-01,7.204e-01,9.509e-01,9.083e-01,5.373e-01,3.996e-01,8.094e-01,1.618e-02,6.043e-01,3.875e-01,3.589e-01,8.895e-01,9.207e-01,3.001e-01,9.135e-01,3.263e-01,4.180e-01,9.937e-01,3.593e-01,2.166e-01,7.631e-01,8.965e-01,7.895e-01,3.819e-01,7.367e-01,2.319e-02,8.546e-01,2.609e-01,3.773e-01,4.146e-01,5.771e-01,8.767e-01,6.353e-01,5.149e-01,5.066e-01,5.229e-02,5.875e-01,3.507e-02
4.668e-01,1.274e+00,8.485e-01,6.160e-01,5.836e-01,5.594e-01,2.534e-01,5.589e-01,7.112e-01,4.899e-01,3.220e-01,4.975e-01,1.053e+00,1.215e+00,7.653e-01,7.704e-01,4.621e-01,5.404e-01,2.529e-01,5.636e-01,4.063e-01,6.444e-01,4.745e-01,1.145e+00,5.452e-01,6.996e-01,1.219e+00,1.103e+00,1.042e+00,1.035e+00,1.267e+00,1.331e+00,1.151e+00,1.037e+00,4.854e-01,7.433e-01,7.897e-01,1.416e+00,1.126e+00,9.133e-01,1.025e+00,5.153e-01,1.248e+00,5.018e-01,1.198e+00,1.053e+00,1.471e+00,8.203e-01,1.379e+00,2.555e-01,9.317e-01,7.429e-01,6.628e-01,7.716e-01,8.396e-01,8.401e-01,5.770e-01,1.062e+00,7.118e-01,6.001e-01,4.148e-01,2.714e-01,5.822e-01,1.056e+00,1.267e+00,2.956e-01,6.566e-01,1.017e+00,9.767e-01,9.555e-01,1.082e+00,8.147e-01,5.485e-01,1.145e+00,8.820e-01,3.826e-01,5.707e-01,1.403e-01,1.147e+00,3.202e-01,8.916e-01,1.100e+00,1.081e+00,1.338e+00,9.734e-01,1.098e+00,4.473e-01,7.068e-01,7.856e-01,3.903e-01
2.530e-02,5.280e-01,5.886e-01,6.788e-01,8.357e-01,9.080e-01,1.465e-01,9.218e-01,8.423e-01,5.725e-01,9.987e-01,9.250e-01,8.370e-01,6.191e-01,4.697e-01,8.499e-01,2.814e-01,9.082e-01,1.056e+00,3.259e-01,1.587e-01,1.167e+00,9.389e-01,1.331e+00,3.970e-01,5.976e-01,6.889e-01,8.434e-01,1.209e+00,1.375e+00,5.947e-01,1.588e+00,1.348e+00,7.262e-01,6.317e-01,5.759e-01,8.679e-01,6.313e-01,5.762e-01,6.301e-01,1.281e+00,4.885e-01,1.274e+00,1.916e-01,1.522e+00,5.893e-01,1.206e+00,1.049e+00,1.215e+00,8.137e-01,1.144e+00,6.275e-01,6.234e-01,5.236e-01,1.104e+00,6.388e-01,9.864e-01,1.434e+00,3.794e-01,7.121e-01,4.227e-01,8.652e-01,8.150e-01,8.415e-01,5.841e-01,1.074e+00,2.774e-01,9.253e-01,1.146e+00,8.582e-01,1.377e+00,1.244e+00,1.039e+00,7.313e-01,8.635e-01,5.639e-01,5.518e-01,1.692e-01,8.868e-01,5.440e-01,1.409e+00,1.154e+00,6.521e-01,1.244e+00,1.344e+00,8.898e-01,6.193e-01,1.125e+00,9.978e-01,8.053e-01
5.008e-02,2.707e-01,3.532e-01,1.421e+00,1.516e+00,1.238e+00,6.652e-01,1.593e+00,1.523e+00,9.715e-01,1.667e+00,1.094e+00,1.430e+00,1.013e+00,3.660e-01,1.366e+00,7.856e-01,1.489e+00,1.027e+00,3.994e-01,2.206e-01,1.496e+00,1.160e+00,1.219e+00,8.208e-01,1.376e+00,7.532e-01,9.392e-01,6.776e-01,1.850e+00,1.011e+00,1.945e+00,1.428e+00,3.724e-01,7.123e-01,6.678e-01,1.182e+00,1.267e+00,1.129e+00,6.066e-01,1.163e+00,2.861e-01,8.835e-01,9.427e-01,1.091e+00,4.319e-01,1.693e+00,1.585e+00,8.901e-01,6.682e-01,1.057e+00,5.038e-01,9.746e-01,4.812e-01,1.599e+00,5.948e-01,1.449e+00,1.297e+00,6.214e-01,9.510e-01,7.733e-01,1.003e+00,6.332e-01,1.317e+00,5.903e-01,8.158e-01,9.401e-01,1.497e+00,1.260e+00,1.397e+00,1.776e+00,1.408e+00,8.751e-01,6.246e-01,1.250e+00,1.131e+00,1.192e+00,2.690e-01,1.510e+00,1.169e+00,1.226e+00,1.189e+00,1.119e+00,1.217e+00,1.130e+00,8.751e-01,1.414e+00,6.553e-01,6.758e-01,9.684e-01
7.617e-01,1.495e+00,1.242e+00,1.883e+00,2.584e+00,2.108e+00,9.476e-01,3.169e+00,2.629e+00,1.842e+00,1.900e+00,1.602e+00,2.212e+00,2.752e+00,1.165e+00,2.113e+00,1.831e+00,2.150e+00,1.998e+00,1.622e+00,1.346e+00,2.320e+00,2.193e+00,2.796e+00,1.932e+00,2.735e+00,1.782e+00,2.293e+00,1.615e+00,2.766e+00,3.011e+00,3.264e+00,3.392e+00,1.391e+00,1.055e+00,1.437e+00,2.796e+00,2.889e+00,2.908e+00,2.401e+00,2.274e+00,1.589e+00,2.257e+00,1.501e+00,2.294e+00,2.421e+00,2.878e+00,2.014e+00,2.875e+00,1.529e+00,2.738e+00,1.584e+00,2.040e+00,1.586e+00,3.374e+00,1.904e+00,2.771e+00,2.212e+00,2.334e+00,1.395e+00,2.216e+00,1.858e+00,2.068e+00,2.911e+00,2.336e+00,1.870e+00,1.893e+00,2.548e+00,2.453e+00,2.427e+00,2.452e+00,2.762e+00,1.940e+00,2.668e+00,2.866e+00,1.728e+00,1.913e+00,9.896e-01,3.216e+00,1.787e+00,2.890e+00,2.902e+00,2.173e+00,2.961e+00,2.883e+00,1.797e+00,2.184e+00,1.255e+00,2.111e+00,2.018e+00
2.349e-01,9.262e-01,6.272e-01,1.078e+00,1.142e+00,1.246e+00,1.234e+00,2.081e+00,1.797e+00,2.040e+00,1.368e+00,1.831e+00,2.214e+00,2.250e+00,1.619e+00,1.889e+00,1.901e+00,1.836e+00,1.275e+00,1.237e+00,7.679e-01,1.950e+00,1.080e+00,2.318e+00,1.829e+00,2.474e+00,1.734e+00,2.067e+00,1.969e+00,2.203e+00,1.939e+00,2.592e+00,2.074e+00,1.243e+00,1.009e+00,1.108e+00,2.454e+00,2.262e+00,2.242e+00,1.277e+00,2.104e+00,1.750e+00,1.625e+00,1.174e+00,2.203e+00,1.410e+00,1.836e+00,1.512e+00,2.438e+00,7.295e-01,2.036e+00,1.572e+00,1.677e+00,8.765e-01,2.079e+00,1.495e+00,1.475e+00,1.710e+00,1.244e+00,1.255e+00,1.624e+00,7.694e-01,1.220e+00,1.815e+00,1.499e+00,1.372e+00,1.007e+00,2.102e+00,1.701e+00,1.876e+00,1.944e+00,2.075e+00,6.730e-01,2.163e+00,2.213e+00,1.814e+00,1.223e+00,1.260e+00,2.323e+00,1.957e+00,1.868e+00,2.475e+00,2.202e+00,1.816e+00,2.188e+00,1.894e+00,2.085e+00,1.701e+00,1.265e+00,1.354e+00
1.106e-01,7.976e-01,5.405e-01,4.592e-01,3.624e-01,6.717e-01,1.620e+00,1.197e+00,1.305e+00,1.854e+00,1.668e+00,2.215e+00,1.554e+00,1.538e+00,1.487e+00,1.930e+00,2.102e+00,1.746e+00,1.140e+00,1.087e+00,6.372e-01,1.396e+00,1.312e+00,2.666e+00,1.641e+00,1.558e+00,2.230e+00,1.727e+00,2.162e+00,1.781e+00,1.316e+00,2.099e+00,1.345e+00,1.553e+00,1.749e+00,9.103e-01,2.232e+00,2.028e+00,2.005e+00,9.379e-01,2.161e+00,2.042e+00,2.242e+00,1.073e+00,2.501e+00,1.748e+00,1.237e+00,1.604e+00,1.950e+00,5.833e-01,1.551e+00,1.522e+00,1.215e+00,1.033e+00,1.751e+00,1.447e+00,1.574e+00,1.847e+00,1.202e+00,9.826e-01,1.186e+00,4.141e-01,1.130e+00,1.741e+00,1.675e+00,1.437e+00,6.389e-01,1.686e+00,1.383e+00,2.140e+00,1.815e+00,1.665e+00,5.100e-01,2.371e+00,2.194e+00,1.229e+00,1.528e+00,1.095e+00,2.296e+00,1.531e+00,1.587e+00,2.109e+00,1.874e+00,1.704e+00,2.473e+00,1.795e+00,1.946e+00,2.582e+00,1.545e+00,1.506e+00
7.292e-01,9.362e-01,6.843e-01,1.376e+00,1.934e+00,1.457e+00,2.023e+00,3.124e+00,3.277e+00,3.030e+00,3.205e+00,2.999e+00,2.945e+00,2.615e+00,2.020e+00,3.240e+00,3.348e+00,2.416e+00,1.996e+00,2.062e+00,2.300e+00,2.270e+00,2.504e+00,2.863e+00,2.986e+00,3.753e+00,2.162e+00,2.520e+00,1.760e+00,2.458e+00,3.005e+00,2.997e+00,2.718e+00,2.084e+00,2.363e+00,1.726e+00,4.126e+00,3.197e+00,3.472e+00,2.447e+00,2.386e+00,3.035e+00,3.069e+00,2.401e+00,2.384e+00,3.519e+00,2.704e+00,1.861e+00,2.508e+00,1.698e+00,3.168e+00,1.608e+00,2.555e+00,2.507e+00,4.028e+00,2.045e+00,3.160e+00,2.286e+00,2.570e+00,1.265e+00,2.792e+00,1.587e+00,2.245e+00,3.630e+00,2.658e+00,2.662e+00,2.562e+00,2.834e+00,2.217e+00,3.531e+00,2.505e+00,2.413e+00,1.857e+00,3.134e+00,4.115e+00,2.857e+00,2.666e+00,1.858e+00,3.846e+00,2.947e+00,2.328e+00,2.923e+00,3.117e+00,3.235e+00,3.051e+00,2.553e+00,3.653e+00,1.972e+00,2.327e+00,2.577e+00
3.322e-01,9.734e-01,7.959e-01,1.064e+00,1.291e+00,1.267e+00,1.347e+00,1.996e+00,2.145e+00,2.046e+00,2.789e+00,2.395e+00,2.193e+00,2.116e+00,1.522e+00,2.261e+00,2.250e+00,2.625e+00,2.305e+00,1.913e+00,1.719e+00,2.860e+00,2.686e+00,3.497e+00,2.568e+00,2.938e+00,2.473e+00,2.634e+00,2.298e+00,3.005e+00,2.136e+00,3.295e+00,2.627e+00,2.326e+00,2.230e+00,1.737e+00,3.022e+00,2.509e+00,2.361e+00,1.848e+00,2.297e+00,2.021e+00,3.140e+00,1.329e+00,3.452e+00,2.487e+00,2.600e+00,2.579e+00,2.591e+00,1.717e+00,2.452e+00,2.346e+00,2.277e+00,1.425e+00,2.721e+00,1.630e+00,3.102e+00,2.836e+00,2.092e+00,2.010e+00,2.487e+00,1.910e+00,2.353e+00,2.693e+00,2.543e+00,2.091e+00,1.980e+00,2.845e+00,2.539e+00,2.797e+00,2.275e+00,2.270e+00,1.324e+00,2.538e+00,2.633e+00,1.960e+00,1.998e+00,1.753e+00,2.703e+00,1.851e+00,2.861e+00,2.795e+00,2.174e+00,2.970e+00,2.668e+00,2.837e+00,2.983e+00,3.015e+00,2.602e+00,1.815e+00
1.487e-01,4.248e-01,3.248e-01,9.478e-01,1.013e+00,8.295e-01,5.638e-01,1.256e+00,1.424e+00,1.683e+00,2.545e+00,1.672e+00,2.274e+00,1.275e+00,7.945e-01,2.464e+00,1.889e+00,1.980e+00,1.098e+00,9.179e-01,1.763e+00,2.242e+00,1.823e+00,1.850e+00,1.701e+00,2.148e+00,1.566e+00,2.146e+00,8.479e-01,1.724e+00,2.109e+00,2.588e+00,1.381e+00,1.357e+00,1.208e+00,1.974e+00,2.489e+00,1.557e+00,1.641e+00,1.357e+00,1.343e+00,1.765e+00,1.665e+00,1.897e+00,1.603e+00,1.655e+00,2.579e+00,1.336e+00,1.800e+00,8.492e-01,1.561e+00,1.649e+00,1.529e+00,1.344e+00,1.822e+00,1.047e+00,2.298e+00,1.483e+00,9.657e-01,1.106e+00,1.669e+00,9.020e-01,1.316e+00,2.517e+00,2.054e+00,1.210e+00,1.577e+00,2.024e+00,1.717e+00,1.714e+00,2.264e+00,2.108e+00,8.610e-01,1.595e+00,1.721e+00,2.144e+00,1.744e+00,7.493e-01,2.156e+00,2.004e+00,1.627e+00,1.450e+00,2.349e+00,2.202e+00,1.494e+00,1.523e+00,2.004e+00,1.402e+00,1.029e+00,1.605e+00
4.693e-02,1.521e-01,2.497e-01,7.279e-01,1.199e+00,1.159e+00,8.973e-01,2.195e+00,2.010e+00,2.148e+00,2.892e+00,2.257e+00,2.425e+00,2.061e+00,1.498e+00,2.183e+00,2.487e+00,3.113e+00,2.767e+00,2.162e+00,2.290e+00,3.019e+00,3.308e+00,3.182e+00,2.477e+00,3.413e+00,1.833e+00,2.195e+00,2.057e+00,2.817e+00,2.574e+00,2.860e+00,2.495e+00,2.220e+00,2.713e+00,2.198e+00,3.340e+00,1.988e+00,2.173e+00,2.478e+00,2.160e+00,3.071e+00,2.377e+00,1.185e+00,2.561e+00,2.942e+00,2.441e+00,1.770e+00,2.713e+00,2.729e+00,3.366e+00,2.881e+00,2.906e+00,1.726e+00,3.371e+00,1.252e+00,2.993e+00,2.640e+00,2.118e+00,2.004e+00,3.427e+00,2.620e+00,2.960e+00,2.565e+00,1.899e+00,3.295e+00,2.331e+00,3.159e+00,2.827e+00,2.794e+00,1.845e+00,2.267e+00,2.338e+00,2.967e+00,2.851e+00,3.036e+00,2.405e+00,2.746e+00,2.983e+00,2.082e+00,3.080e+00,3.379e+00,2.832e+00,2.649e+00,2.428e+00,2.308e+00,2.903e+00,2.283e+00,3.110e+00,2.799e+00
4.962e-01,1.015e+00,7.652e-01,1.016e+00,1.491e+00,1.390e+00,1.413e+00,2.645e+00,2.535e+00,2.867e+00,3.543e+00,3.475e+00,3.785e+00,3.469e+00,3.100e+00,3.712e+00,4.361e+00,4.249e+00,3.756e+00,3.911e+00,3.098e+00,4.136e+00,4.411e+00,4.903e+00,4.248e+00,5.022e+00,3.795e+00,4.300e+00,3.559e+00,4.007e+00,4.550e+00,4.473e+00,3.893e+00,3.267e+00,3.322e+00,3.052e+00,4.877e+00,3.670e+00,3.238e+00,3.945e+00,3.450e+00,4.935e+00,3.981e+00,2.311e+00,3.803e+00,4.705e+00,3.753e+00,2.460e+00,4.772e+00,2.663e+00,4.426e+00,3.914e+00,4.293e+00,3.137e+00,4.141e+00,2.437e+00,4.461e+00,3.976e+00,2.874e+00,2.658e+00,4.939e+00,3.487e+00,3.709e+00,4.363e+00,3.666e+00,4.210e+00,3.287e+00,4.011e+00,4.457e+00,4.557e+00,3.546e+00,3.856e+00,3.114e+00,4.406e+00,4.037e+00,4.669e+00,3.590e+00,3.395e+00,4.674e+00,2.916e+00,4.321e+00,4.454e+00,4.233e+00,4.130e+00,3.597e+00,3.626e+00,3.971e+00,3.472e+00,3.888e+00,3.407e+00
1.773e-02,3.431e-01,2.448e-01,5.362e-01,7.820e-01,8.479e-01,9.446e-01,1.667e+00,1.719e+00,2.368e+00,2.954e+00,2.816e+00,3.529e+00,2.489e+00,2.198e+00,3.523e+00,4.455e+00,3.676e+00,3.990e+00,3.045e+00,3.562e+00,3.711e+00,4.077e+00,4.616e+00,4.167e+00,3.719e+00,3.866e+00,3.595e+00,3.342e+00,3.207e+00,4.290e+00,3.621e+00,3.217e+00,2.960e+00,3.532e+00,3.482e+00,4.598e+00,3.209e+00,2.734e+00,3.864e+00,2.737e+00,4.005e+00,3.864e+00,2.492e+00,3.275e+00,4.302e+00,2.846e+00,2.444e+00,3.145e+00,2.852e+00,3.874e+00,3.376e+00,3.603e+00,3.292e+00,2.977e+00,2.193e+00,4.386e+00,3.423e+00,2.207e+00,2.202e+00,4.266e+00,3.092e+00,3.149e+00,4.061e+00,3.036e+00,3.233e+00,2.813e+00,3.525e+00,3.345e+00,4.103e+00,3.063e+00,3.872e+00,2.807e+00,3.349e+00,3.185e+00,3.254e+00,2.592e+00,3.169e+00,3.959e+00,3.099e+00,3.564e+00,4.023e+00,3.512e+00,3.870e+00,3.255e+00,3.575e+00,3.472e+00,3.604e+00,3.468e+00,3.583e+00
2.630e-01,8.119e-01,5.960e-01,8.391e-01,1.032e+00,9.924e-01,6.328e-01,1.638e+00,1.883e+00,2.097e+00,2.898e+00,2.437e+00,3.736e+00,2.945e+00,2.243e+00,3.654e+00,4.170e+00,4.129e+00,4.107e+00,3.235e+00,3.344e+00,4.209e+00,4.628e+00,3.981e+00,3.831e+00,4.014e+00,3.979e+00,3.606e+00,3.583e+00,4.025e+00,4.972e+00,4.543e+00,3.687e+00,3.192e+00,3.398e+00,3.921e+00,4.594e+00,3.760e+00,2.429e+00,4.268e+00,3.543e+00,4.240e+00,4.255e+00,2.249e+00,3.985e+00,3.951e+00,3.647e+00,2.984e+00,4.160e+00,3.460e+00,5.019e+00,4.038e+00,4.018e+00,3.646e+00,3.409e+00,3.012e+00,3.812e+00,4.114e+00,2.585e+00,3.111e+00,4.506e+00,3.106e+00,3.952e+00,3.886e+00,2.945e+00,3.457e+00,3.153e+00,4.423e+00,4.278e+00,4.703e+00,3.150e+00,3.464e+00,3.575e+00,4.222e+00,3.025e+00,3.854e+00,3.323e+00,3.100e+00,3.890e+00,2.886e+00,3.415e+00,4.615e+00,4.362e+00,3.781e+00,3.112e+00,4.235e+00,3.334e+00,3.716e+00,3.676e+00,3.830e+00
5.410e-01,6.774e-01,5.166e-01,1.357e+00,1.567e+00,1.104e+00,1.334e+00,1.979e+00,2.076e+00,1.993e+00,3.061e+00,2.107e+00,3.076e+00,2.148e+00,1.768e+00,3.328e+00,3.759e+00,4.462e+00,2.932e+00,3.202e+00,2.824e+00,4.538e+00,3.412e+00,3.427e+00,3.616e+00,4.346e+00,3.929e+00,3.328e+00,2.351e+00,4.269e+00,4.123e+00,4.971e+00,3.658e+00,1.999e+00,2.541e+00,3.214e+00,4.272e+00,3.531e+00,3.032e+00,3.383e+00,3.054e+00,2.558e+00,3.459e+00,3.865e+00,3.175e+00,2.638e+00,3.215e+00,2.920e+00,2.937e+00,2.302e+00,3.845e+00,2.762e+00,2.465e+00,2.319e+00,3.400e+00,3.617e+00,3.987e+00,3.260e+00,2.763e+00,2.816e+00,4.345e+00,2.190e+00,3.188e+00,4.132e+00,3.357e+00,1.997e+00,2.971e+00,3.403e+00,3.177e+00,4.717e+00,3.226e+00,3.352e+00,2.010e+00,3.558e+00,2.757e+00,3.612e+00,3.880e+00,2.630e+00,3.961e+00,3.502e+00,3.096e+00,3.830e+00,4.361e+00,3.789e+00,3.427e+00,3.126e+00,4.180e+00,3.387e+00,2.821e+00,2.501e+00
3.885e-01,7.193e-01,7.029e-01,1.594e+00,1.920e+00,1.595e+00,1.590e+00,2.664e+00,3.052e+00,2.912e+00,4.716e+00,3.578e+00,4.495e+00,2.644e+00,2.587e+00,4.898e+00,4.496e+00,5.806e+00,4.666e+00,4.079e+00,4.306e+00,5.542e+00,4.937e+00,5.465e+00,4.379e+00,5.354e+00,5.006e+00,3.978e+00,4.263e+00,5.435e+00,5.237e+00,6.657e+00,4.228e+00,4.000e+00,4.336e+00,4.172e+00,5.648e+00,4.566e+00,3.699e+00,5.031e+00,4.665e+00,4.147e+00,5.224e+00,4.202e+00,4.748e+00,4.189e+00,4.980e+00,3.665e+00,4.654e+00,4.399e+00,5.432e+00,4.017e+00,4.377e+00,4.235e+00,5.658e+00,3.489e+00,5.207e+00,4.895e+00,3.182e+00,3.841e+00,4.984e+00,3.970e+00,4.887e+00,5.311e+00,3.359e+00,4.201e+00,4.531e+00,5.084e+00,4.603e+00,6.309e+00,5.065e+00,4.481e+00,4.794e+00,5.315e+00,4.236e+00,4.823e+00,4.736e+00,4.126e+00,5.152e+00,4.818e+00,4.478e+00,5.068e+00,5.310e+00,5.125e+00,4.341e+00,4.453e+00,5.083e+00,5.045e+00,4.798e+00,4.547e+00
4.627e-01,7.628e-01,6.754e-01,1.571e+00,2.132e+00,1.759e+00,1.787e+00,3.217e+00,3.139e+00,3.098e+00,3.891e+00,3.528e+00,3.834e+00,3.268e+00,2.556e+00,4.728e+00,5.593e+00,5.382e+00,4.766e+00,4.376e+00,4.241e+00,4.967e+00,5.047e+00,5.650e+00,4.414e+00,6.052e+00,5.219e+00,4.908e+00,3.744e+00,4.906e+00,5.865e+00,5.441e+00,4.836e+00,3.687e+00,4.199e+00,3.407e+00,6.257e+00,4.828e+00,4.383e+00,5.450e+00,4.737e+00,5.472e+00,5.096e+00,4.319e+00,4.796e+00,5.443e+00,3.868e+00,3.199e+00,4.745e+00,3.790e+00,5.331e+00,3.992e+00,4.469e+00,4.308e+00,5.282e+00,3.885e+00,5.554e+00,4.560e+00,4.455e+00,3.927e+00,5.216e+00,3.846e+00,4.535e+00,5.762e+00,4.295e+00,4.126e+00,3.630e+00,4.870e+00,4.624e+00,6.258e+00,4.904e+00,5.026e+00,3.992e+00,4.899e+00,4.826e+00,4.725e+00,5.327e+00,3.869e+00,6.227e+00,4.612e+00,4.742e+00,5.328e+00,4.794e+00,4.943e+00,4.479e+00,3.723e+00,5.233e+00,4.208e+00,4.251e+00,4.300e+00
4.878e-02,3.750e-01,3.948e-01,7.398e-01,1.185e+00,1.285e+00,1.229e+00,2.394e+00,2.137e+00,2.514e+00,2.836e+00,3.111e+00,3.154e+00,3.110e+00,2.524e+00,4.320e+00,4.983e+00,5.232e+00,6.339e+00,4.472e+00,4.236e+00,5.299e+00,5.237e+00,6.208e+00,5.322e+00,5.085e+00,5.728e+00,4.448e+00,5.017e+00,4.534e+00,5.857e+00,5.593e+00,4.602e+00,4.386e+00,4.209e+00,3.588e+00,5.509e+00,5.247e+00,3.942e+00,5.342e+00,4.521e+00,5.135e+00,5.250e+00,3.411e+00,5.891e+00,4.906e+00,3.217e+00,4.087e+00,5.759e+00,4.210e+00,5.573e+00,4.248e+00,5.765e+00,4.069e+00,5.550e+00,3.249e+00,5.425e+00,5.544e+00,4.542e+00,4.867e+00,5.509e+00,4.368e+00,5.068e+00,5.307e+00,3.280e+00,4.135e+00,3.561e+00,4.952e+00,5.052e+00,6.236e+00,4.750e+00,4.842e+00,5.047e+00,5.208e+00,4.262e+00,4.160e+00,4.381e+00,5.074e+00,4.537e+00,4.276e+00,5.293e+00,5.432e+00,3.906e+00,5.051e+00,4.932e+00,4.943e+00,5.243e+00,5.160e+00,5.153e+00,5.025e+00
2.016e-01,7.126e-01,5.354e-01,1.153e+00,1.399e+00,1.381e+00,1.293e+00,2.449e+00,2.371e+00,2.908e+00,3.169e+00,3.184e+00,3.521e+00,2.829e+00,2.562e+00,4.755e+00,4.735e+00,5.072e+00,5.208e+00,4.818e+00,4.388e+00,5.534e+00,4.590e+00,5.903e+00,5.337e+00,6.624e+00,5.827e+00,5.353e+00,4.121e+00,4.555e+00,6.287e+00,5.679e+00,4.551e+00,4.727e+00,4.508e+00,3.492e+00,5.829e+00,4.885e+00,5.543e+00,5.474e+00,4.708e+00,4.998e+00,4.933e+00,4.995e+00,5.557e+00,4.875e+00,4.546e+00,3.176e+00,5.334e+00,3.729e+00,5.436e+00,4.003e+00,5.441e+00,4.007e+00,5.611e+00,4.240e+00,5.481e+00,4.587e+00,4.727e+00,4.785e+00,4.980e+00,3.746e+00,5.251e+00,6.166e+00,5.093e+00,4.105e+00,3.865e+00,5.341e+00,5.306e+00,5.505e+00,5.683e+00,6.031e+00,4.290e+00,4.987e+00,5.217e+00,5.269e+00,5.439e+00,4.462e+00,6.210e+00,5.396e+00,5.337e+00,5.519e+00,5.502e+00,5.346e+00,4.762e+00,4.507e+00,5.654e+00,5.301e+00,4.650e+00,4.466e+00
4.261e-01,7.250e-01,6.905e-01,1.665e+00,2.176e+00,1.867e+00,2.164e+00,3.367e+00,3.273e+00,3.172e+00,4.098e+00,3.928e+00,3.738e+00,3.505e+00,2.871e+00,4.586e+00,5.683e+00,5.417e+00,5.679e+00,5.275e+00,4.446e+00,5.964e+00,6.105e+00,6.839e+00,6.373e+00,7.523e+00,5.453e+00,5.322e+00,4.886e+00,5.665e+00,6.224e+00,5.730e+00,6.160e+00,4.147e+00,4.933e+00,3.207e+00,6.238e+00,5.160e+00,5.427e+00,4.981e+00,5.975e+00,5.310e+00,6.231e+00,4.807e+00,6.330e+00,5.605e+00,4.206e+00,5.112e+00,5.824e+00,3.925e+00,6.584e+00,4.610e+00,5.661e+00,4.434e+00,5.314e+00,5.479e+00,6.865e+00,5.243e+00,5.426e+00,4.783e+00,5.701e+00,4.806e+00,5.258e+00,5.882e+00,5.657e+00,4.750e+00,4.764e+00,5.737e+00,6.456e+00,7.352e+00,5.054e+00,5.886e+00,5.048e+00,5.691e+00,5.540e+00,5.450e+00,5.586e+00,4.043e+00,6.558e+00,5.191e+00,5.270e+00,6.570e+00,5.252e+00,5.543e+00,5.514e+00,5.476e+00,6.867e+00,6.221e+00,5.303e+00,5.271e+00
1.420e-01,2.183e-01,2.329e-01,8.792e-01,1.130e+00,9.646e-01,9.878e-01,1.885e+00,2.213e+00,2.315e+00,3.293e+00,2.866e+00,3.145e+00,2.090e+00,2.149e+00,3.486e+00,3.573e+00,3.532e+00,4.111e+00,3.571e+00,4.194e+00,4.641e+00,4.676e+00,4.989e+00,5.794e+00,6.438e+00,3.782e+00,3.798e+00,3.481e+00,4.437e+00,4.931e+00,4.075e+00,4.807e+00,4.403e+00,4.378e+00,3.648e+00,5.037e+00,3.478e+00,4.490e+00,3.711e+00,3.703e+00,4.676e+00,4.722e+00,3.588e+00,4.521e+00,4.488e+00,3.774e+00,3.677e+00,4.895e+00,3.187e+00,5.604e+00,3.918e+00,4.855e+00,3.631e+00,4.479e+00,3.835e+00,4.910e+00,4.815e+00,4.402e+00,4.145e+00,5.039e+00,4.436e+00,4.712e+00,4.848e+00,3.992e+00,3.997e+00,4.429e+00,4.332e+00,5.540e+00,5.267e+00,4.241e+00,4.211e+00,4.912e+00,4.648e+00,4.919e+00,4.864e+00,3.652e+00,3.850e+00,4.672e+00,4.187e+00,4.054e+00,5.215e+00,4.907e+00,5.213e+00,4.221e+00,5.378e+00,5.222e+00,5.082e+00,4.288e+00,4.907e+00
3.489e-01,5.516e-01,4.602e-01,4.649e-01,9.206e-01,7.951e-01,6.267e-01,1.549e+00,1.292e+00,1.513e+00,1.732e+00,1.430e+00,1.818e+00,1.774e+00,1.060e+00,2.174e+00,3.040e+00,2.840e+00,3.398e+00,2.935e+00,2.974e+00,3.501e+00,4.126e+00,3.739e+00,4.681e+00,4.169e+00,4.015e+00,3.820e+00,2.535e+00,3.041e+00,4.910e+00,4.218e+00,3.351e+00,2.959e+00,2.806e+00,3.205e+00,3.755e+00,3.389e+00,3.287e+00,3.977e+00,3.712e+00,3.418e+00,3.750e+00,2.821e+00,4.039e+00,3.720e+00,2.759e+00,2.886e+00,4.153e+00,2.622e+00,4.378e+00,3.429e+00,3.164e+00,3.179e+00,3.684e+00,3.940e+00,4.205e+00,3.214e+00,3.422e+00,3.512e+00,3.827e+00,2.933e+00,4.000e+00,4.671e+00,3.367e+00,3.322e+00,2.710e+00,4.191e+00,3.737e+00,3.908e+00,2.844e+00,3.591e+00,3.795e+00,4.426e+00,3.611e+00,3.553e+00,3.238e+00,3.014e+00,4.449e+00,3.373e+00,3.144e+00,4.477e+00,3.699e+00,3.800e+00,4.224e+00,3.956e+00,4.000e+00,4.484e+00,3.577e+00,4.363e+00
5.529e-01,1.249e+00,8.814e-01,8.039e-01,1.145e+00,1.114e+00,1.561e+00,2.200e+00,2.451e+00,2.761e+00,3.055e+00,3.298e+00,3.246e+00,2.875e+00,2.824e+00,4.291e+00,4.308e+00,4.345e+00,4.612e+00,4.726e+00,4.650e+00,4.953e+00,5.433e+00,7.264e+00,6.380e+00,7.238e+00,6.999e+00,5.824e+00,5.391e+00,4.841e+00,6.837e+00,6.289e+00,5.390e+00,6.012e+00,6.286e+00,4.353e+00,5.800e+00,5.358e+00,6.611e+00,6.816e+00,6.498e+00,6.322e+00,6.272e+00,5.510e+00,6.731e+00,6.648e+00,5.146e+00,4.981e+00,7.038e+00,4.739e+00,6.658e+00,4.509e+00,5.947e+00,5.417e+00,7.115e+00,6.083e+00,6.523e+00,5.674e+00,5.913e+00,5.831e+00,5.220e+00,5.437e+00,6.280e+00,7.439e+00,5.945e+00,5.926e+00,5.355e+00,6.695e+00,6.798e+00,7.191e+00,5.963e+00,5.466e+00,6.893e+00,7.008e+00,6.990e+00,6.543e+00,6.054e+00,5.648e+00,7.698e+00,5.047e+00,6.107e+00,7.460e+00,6.855e+00,6.698e+00,6.727e+00,6.003e+00,6.469e+00,7.138e+00,6.473e+00,6.468e+00
4.467e-01,1.003e+00,8.097e-01,1.049e+00,1.489e+00,1.414e+00,1.519e+00,2.623e+00,2.714e+00,3.106e+00,3.778e+00,3.680e+00,4.012e+00,3.033e+00,3.099e+00,5.017e+00,5.532e+00,6.007e+00,5.729e+00,5.585e+00,5.880e+00,6.581e+00,6.117e+00,8.507e+00,7.564e+00,9.396e+00,7.825e+00,6.909e+00,6.255e+00,6.399e+00,7.859e+00,7.180e+00,7.376e+00,6.362e+00,6.454e+00,5.363e+00,7.805e+00,6.359e+00,7.657e+00,7.524e+00,6.656e+00,7.855e+00,7.777e+00,6.012e+00,7.028e+00,7.193e+00,5.415e+00,4.900e+00,7.645e+00,5.104e+00,8.215e+00,6.184e+00,6.044e+00,5.611e+00,7.971e+00,6.237e+00,6.885e+00,6.812e+00,6.989e+00,6.639e+00,7.201e+00,5.778e+00,7.056e+00,7.935e+00,6.143e+00,5.594e+00,6.189e+00,7.015e+00,7.771e+00,7.921e+00,6.832e+00,6.496e+00,6.905e+00,8.036e+00,6.935e+00,7.294e+00,7.290e+00,6.521e+00,8.748e+00,7.059e+00,6.982e+00,8.857e+00,7.381e+00,7.696e+00,7.234e+00,6.729e+00,7.730e+00,8.250e+00,7.434e+00,6.749e+00
1.464e-01,6.286e-01,5.046e-01,1.053e+00,1.114e+00,1.007e+00,5.436e-01,1.358e+00,1.560e+00,1.653e+00,2.726e+00,2.262e+00,3.143e+00,2.142e+00,2.068e+00,4.049e+00,3.965e+00,5.017e+00,4.636e+00,4.476e+00,4.994e+00,5.807e+00,4.690e+00,6.507e+00,5.714e+00,7.695e+00,6.650e+00,5.895e+00,5.845e+00,5.642e+00,5.981e+00,6.204e+00,5.608e+00,4.545e+00,5.146e+00,4.408e+00,5.790e+00,5.311e+00,4.841e+00,6.459e+00,5.689e+00,4.839e+00,6.248e+00,5.290e+00,6.079e+00,5.315e+00,4.806e+00,4.526e+00,6.449e+00,4.082e+00,5.925e+00,4.734e+00,5.444e+00,5.359e+00,5.443e+00,4.657e+00,7.088e+00,5.245e+00,5.517e+00,6.193e+00,5.580e+00,5.101e+00,6.291e+00,6.082e+00,5.863e+00,4.121e+00,5.075e+00,6.024e+00,6.432e+00,7.297e+00,5.615e+00,5.939e+00,5.702e+00,5.709e+00,4.347e+00,5.854e+00,5.437e+00,4.703e+00,6.629e+00,4.937e+00,5.606e+00,6.141e+00,5.671e+00,6.302e+00,4.656e+00,4.544e+00,5.649e+00,6.392e+00,6.085e+00,5.322e+00
5.466e-01,1.154e+00,8.911e-01,8.757e-01,1.149e+00,1.085e+00,9.789e-01,1.912e+00,2.220e+00,2.397e+00,2.928e+00,2.811e+00,3.175e+00,2.166e+00,2.444e+00,3.369e+00,3.082e+00,3.522e+00,3.592e+00,3.379e+00,3.562e+00,4.501e+00,3.858e+00,5.579e+00,5.322e+00,6.569e+00,5.923e+00,5.965e+00,4.938e+00,4.235e+00,6.034e+00,5.760e+00,5.500e+00,5.296e+00,4.889e+00,4.266e+00,5.672e+00,4.419e+00,5.047e+00,4.787e+00,5.172e+00,5.947e+00,6.238e+00,4.785e+00,6.700e+00,5.136e+00,5.573e+00,4.906e+00,6.873e+00,3.607e+00,5.611e+00,4.355e+00,4.844e+00,4.455e+00,6.724e+00,4.751e+00,5.510e+00,5.747e+00,5.144e+00,5.358e+00,5.324e+00,3.936e+00,4.989e+00,6.278e+00,4.881e+00,4.638e+00,4.725e+00,6.276e+00,5.802e+00,5.397e+00,5.591e+00,4.339e+00,5.108e+00,5.178e+00,5.296e+00,6.003e+00,5.671e+00,5.274e+00,6.268e+00,5.645e+00,5.246e+00,6.228e+00,5.794e+00,5.827e+00,5.987e+00,6.267e+00,5.976e+00,6.437e+00,5.982e+00,4.977e+00
4.737e-01,1.239e+00,8.707e-01,1.055e+00,1.265e+00,1.235e+00,1.541e+00,2.134e+00,2.169e+00,2.682e+00,3.222e+00,3.020e+00,3.595e+00,3.299e+00,2.395e+00,4.490e+00,5.424e+00,5.487e+00,4.919e+00,4.625e+00,4.893e+00,5.554e+00,5.801e+00,7.276e+00,6.735e+00,7.644e+00,7.600e+00,6.519e+00,6.713e+00,7.058e+00,8.251e+00,7.562e+00,6.703e+00,6.390e+00,6.379e+00,5.645e+00,7.327e+00,7.650e+00,5.785e+00,7.303e+00,6.586e+00,8.070e+00,7.203e+00,5.026e+00,8.411e+00,7.067e+00,5.369e+00,5.388e+00,8.480e+00,5.032e+00,7.553e+00,6.945e+00,5.792e+00,6.628e+00,7.108e+00,6.786e+00,6.783e+00,6.587e+00,7.743e+00,7.178e+00,7.559e+00,4.980e+00,6.636e+00,7.500e+00,6.203e+00,5.032e+00,4.925e+00,7.906e+00,6.969e+00,8.205e+00,6.020e+00,6.682e+00,6.247e+00,8.212e+00,6.090e+00,6.921e+00,6.853e+00,5.658e+00,8.519e+00,5.924e+00,6.408e+00,7.824e+00,7.334e+00,7.372e+00,7.226e+00,6.459e+00,7.013e+00,7.802e+00,6.752e+00,6.841e+00
7.972e-02,5.503e-01,4.891e-01,1.330e+00,1.640e+00,1.672e+00,1.440e+00,2.989e+00,2.931e+00,3.239e+00,3.473e+00,3.363e+00,4.244e+00,2.935e+00,2.646e+00,4.228e+00,4.589e+00,5.020e+00,4.986e+00,4.372e+00,5.403e+00,5.888e+00,5.344e+00,7.875e+00,7.388e+00,9.583e+00,6.726e+00,7.388e+00,8.023e+00,7.995e+00,8.186e+00,7.433e+00,7.611e+00,6.730e+00,7.161e+00,6.004e+00,8.620e+00,7.007e+00,7.162e+00,7.726e+00,7.841e+00,7.900e+00,8.139e+00,5.652e+00,8.327e+00,7.685e+00,5.913e+00,6.445e+00,8.421e+00,6.106e+00,9.286e+00,6.996e+00,6.287e+00,6.716e+00,8.091e+00,7.036e+00,7.533e+00,7.054e+00,8.016e+00,7.864e+00,7.801e+00,7.075e+00,7.711e+00,7.805e+00,5.631e+00,6.757e+00,7.029e+00,8.682e+00,8.041e+00,8.862e+00,7.121e+00,7.237e+00,8.045e+00,8.637e+00,8.003e+00,8.172e+00,6.488e+00,6.909e+00,9.519e+00,8.142e+00,7.186e+00,9.932e+00,8.184e+00,8.418e+00,8.248e+00,7.629e+00,7.864e+00,9.224e+00,8.159e+00,8.521e+00
6.674e-01,1.355e+00,1.098e+00,1.409e+00,1.978e+00,1.703e+00,1.116e+00,2.869e+00,3.046e+00,3.108e+00,4.100e+00,3.565e+00,4.249e+00,3.603e+00,2.835e+00,5.615e+00,5.514e+00,5.867e+00,6.517e+00,5.502e+00,5.996e+00,6.993e+00,6.847e+00,7.969e+00,8.169e+00,9.359e+00,8.103e+00,8.083e+00,7.468e+00,8.276e+00,9.917e+00,9.024e+00,8.143e+00,7.541e+00,6.588e+00,6.754e+00,9.546e+00,8.159e+00,7.680e+00,9.281e+00,7.174e+00,9.307e+00,8.958e+00,6.707e+00,9.837e+00,8.702e+00,6.883e+00,6.709e+00,9.778e+00,5.951e+00,9.617e+00,7.843e+00,7.384e+00,7.432e+00,9.910e+00,7.370e+00,8.332e+00,8.658e+00,8.454e+00,8.412e+00,8.612e+00,7.028e+00,8.758e+00,9.394e+00,7.126e+00,6.294e+00,7.365e+00,9.780e+00,9.481e+00,9.324e+00,8.569e+00,8.188e+00,8.070e+00,8.903e+00,7.989e+00,8.651e+00,8.592e+00,6.696e+00,9.211e+00,8.484e+00,7.747e+00,9.983e+00,8.655e+00,9.825e+00,8.775e+00,8.807e+00,9.359e+00,9.406e+00,8.424e+00,7.872e+00
2.895e-01,9.640e-01,7.208e-01,1.231e+00,1.326e+00,1.354e+00,1.723e+00,2.388e+00,2.783e+00,3.334e+00,4.141e+00,3.814e+00,4.337e+00,2.915e+00,2.854e+00,4.732e+00,5.151e+00,5.162e+00,4.703e+00,4.538e+00,5.086e+00,6.216e+00,5.968e+00,7.666e+00,8.264e+00,1.040e+01,8.070e+00,8.379e+00,7.742e+00,7.716e+00,9.199e+00,8.287e+00,8.869e+00,6.999e+00,8.384e+00,6.955e+00,9.673e+00,7.593e+00,8.117e+00,7.375e+00,8.068e+00,9.588e+00,9.700e+00,6.445e+00,9.516e+00,7.930e+00,7.927e+00,7.686e+00,9.543e+00,5.686e+00,9.438e+00,7.944e+00,6.523e+00,7.746e+00,9.213e+00,7.845e+00,9.018e+00,7.947e+00,8.151e+00,8.166e+00,8.442e+00,5.868e+00,8.749e+00,9.061e+00,8.339e+00,6.858e+00,7.309e+00,9.893e+00,9.627e+00,9.125e+00,7.896e+00,7.909e+00,7.846e+00,9.184e+00,8.500e+00,9.139e+00,8.143e+00,7.447e+00,1.084e+01,9.188e+00,7.302e+00,1.021e+01,9.087e+00,9.063e+00,8.550e+00,8.866e+00,9.184e+00,1.106e+01,9.406e+00,9.144e+00
3.473e-02,1.549e-01,2.896e-01,8.290e-01,1.152e+00,1.064e+00,1.326e+00,1.929e+00,2.167e+00,2.183e+00,3.213e+00,2.888e+00,2.861e+00,1.868e+00,1.865e+00,3.983e+00,4.429e+00,4.717e+00,4.989e+00,3.865e+00,4.855e+00,4.982e+00,4.936e+00,6.303e+00,5.344e+00,6.980e+00,6.273e+00,5.528e+00,6.408e+00,6.145e+00,7.564e+00,6.574e+00,7.015e+00,5.706e+00,7.627e+00,5.324e+00,8.671e+00,5.840e+00,6.023e+00,6.646e+00,6.958e+00,6.968e+00,8.669e+00,5.913e+00,8.079e+00,6.601e+00,5.287e+00,7.257e+00,7.588e+00,6.528e+00,7.173e+00,6.077e+00,5.468e+00,6.630e+00,7.509e+00,5.627e+00,8.421e+00,6.618e+00,7.445e+00,6.414e+00,6.719e+00,6.004e+00,7.666e+00,6.934e+00,6.000e+00,6.083e+00,6.328e+00,6.875e+00,7.060e+00,9.317e+00,7.149e+00,6.948e+00,7.476e+00,7.363e+00,7.105e+00,5.662e+00,6.143e+00,6.199e+00,7.491e+00,7.556e+00,6.554e+00,7.678e+00,6.244e+00,7.896e+00,7.403e+00,6.216e+00,7.272e+00,8.552e+00,7.876e+00,8.478e+00
3.691e-01,7.360e-01,6.224e-01,1.181e+00,1.519e+00,1.308e+00,1.417e+00,2.376e+00,2.753e+00,2.796e+00,4.119e+00,3.701e+00,4.222e+00,3.263e+00,3.148e+00,4.919e+00,5.693e+00,6.002e+00,6.512e+00,5.884e+00,5.368e+00,6.834e+00,7.398e+00,7.709e+00,8.338e+00,9.525e+00,8.332e+00,7.674e+00,7.336e+00,7.606e+00,9.079e+00,8.457e+00,8.054e+00,7.443e+00,8.951e+00,6.985e+00,9.035e+00,7.316e+00,7.254e+00,9.175e+00,8.552e+00,8.435e+00,9.048e+00,6.798e+00,9.352e+00,8.698e+00,7.439e+00,7.548e+00,9.609e+00,6.988e+00,9.461e+00,7.080e+00,8.066e+00,7.679e+00,8.761e+00,7.654e+00,1.034e+01,8.257e+00,8.645e+00,8.840e+00,9.066e+00,7.604e+00,9.197e+00,9.482e+00,8.169e+00,8.227e+00,7.561e+00,9.483e+00,1.007e+01,1.034e+01,7.574e+00,8.441e+00,9.628e+00,9.031e+00,8.245e+00,9.399e+00,9.182e+00,8.206e+00,9.855e+00,7.078e+00,7.839e+00,9.763e+00,9.299e+00,8.729e+00,8.964e+00,8.282e+00,8.492e+00,9.809e+00,9.792e+00,9.651e+00
2.364e-01,4.240e-01,4.865e-01,6.553e-01,1.174e+00,1.127e+00,1.104e+00,2.067e+00,1.796e+00,2.116e+00,3.225e+00,2.961e+00,2.822e+00,2.775e+00,2.511e+00,3.969e+00,5.072e+00,5.985e+00,6.468e+00,5.942e+00,4.722e+00,6.202e+00,6.661e+00,7.540e+00,7.113e+00,8.579e+00,7.826e+00,7.351e+00,7.317e+00,8.337e+00,9.257e+00,7.988e+00,8.384e+00,8.096e+00,9.070e+00,7.307e+00,9.486e+00,7.065e+00,7.339e+00,9.396e+00,8.431e+00,9.699e+00,9.377e+00,6.895e+00,1.109e+01,8.712e+00,7.477e+00,7.748e+00,1.047e+01,7.299e+00,9.894e+00,8.706e+00,7.636e+00,7.891e+00,9.219e+00,8.570e+00,9.753e+00,8.509e+00,9.682e+00,9.783e+00,1.003e+01,8.357e+00,1.045e+01,9.580e+00,8.133e+00,7.996e+00,7.581e+00,1.038e+01,1.089e+01,9.987e+00,8.500e+00,9.694e+00,9.751e+00,9.353e+00,8.125e+00,9.821e+00,1.068e+01,9.529e+00,9.873e+00,8.307e+00,9.192e+00,9.979e+00,9.762e+00,9.153e+00,9.875e+00,8.246e+00,8.677e+00,1.024e+01,1.075e+01,9.243e+00
5.430e-03,6.266e-01,4.560e-01,5.121e-01,5.396e-01,7.401e-01,5.297e-01,1.096e+00,1.344e+00,1.890e+00,2.584e+00,2.450e+00,2.901e+00,2.186e+00,2.144e+00,3.603e+00,3.293e+00,3.903e+00,4.047e+00,3.688e+00,3.915e+00,4.652e+00,4.569e+00,6.027e+00,5.011e+00,6.679e+00,6.017e+00,5.638e+00,6.418e+00,5.622e+00,6.993e+00,6.624e+00,6.617e+00,7.914e+00,8.670e+00,7.194e+00,7.761e+00,5.623e+00,6.982e+00,8.471e+00,7.905e+00,8.057e+00,8.072e+00,6.173e+00,9.570e+00,7.928e+00,7.411e+00,7.930e+00,9.445e+00,6.788e+00,8.208e+00,7.203e+00,6.837e+00,6.927e+00,7.586e+00,7.349e+00,8.472e+00,7.110e+00,7.482e+00,7.669e+00,6.683e+00,7.181e+00,8.646e+00,8.073e+00,7.898e+00,7.614e+00,6.752e+00,8.532e+00,9.849e+00,8.227e+00,7.790e+00,8.664e+00,8.032e+00,7.971e+00,7.416e+00,8.926e+00,8.373e+00,7.828e+00,7.734e+00,6.639e+00,7.950e+00,8.294e+00,9.019e+00,8.232e+00,8.700e+00,6.836e+00,7.870e+00,8.957e+00,8.710e+00,8.546e+00
2.915e-01,4.220e-01,3.728e-01,1.084e+00,1.562e+00,1.333e+00,1.837e+00,2.772e+00,2.785e+00,3.250e+00,4.213e+00,3.660e+00,4.115e+00,3.265e+00,2.574e+00,4.996e+00,5.924e+00,5.509e+00,5.258e+00,4.448e+00,4.645e+00,5.352e+00,5.958e+00,6.503e+00,6.681e+00,7.615e+00,6.511e+00,6.529e+00,6.906e+00,7.266e+00,8.553e+00,7.737e+00,6.898e+00,6.758e+00,8.224e+00,7.923e+00,1.080e+01,7.859e+00,7.592e+00,9.864e+00,9.048e+00,1.003e+01,9.313e+00,7.144e+00,1.002e+01,9.191e+00,7.679e+00,8.194e+00,9.507e+00,7.475e+00,1.034e+01,8.121e+00,7.051e+00,8.331e+00,8.945e+00,7.148e+00,1.039e+01,8.483e+00,8.080e+00,7.607e+00,9.218e+00,7.956e+00,9.417e+00,9.154e+00,8.476e+00,8.674e+00,8.152e+00,9.737e+00,9.682e+00,1.082e+01,8.228e+00,9.478e+00,8.507e+00,1.021e+01,9.670e+00,9.829e+00,9.730e+00,8.064e+00,9.614e+00,8.482e+00,7.413e+00,9.725e+00,1.022e+01,9.047e+00,9.831e+00,7.703e+00,9.379e+00,9.846e+00,8.808e+00,9.798e+00
5.589e-01,1.385e+00,1.108e+00,1.924e+00,2.330e+00,2.121e+00,2.302e+00,3.564e+00,3.728e+00,3.915e+00,5.365e+00,4.356e+00,5.270e+00,4.059e+00,3.193e+00,5.704e+00,6.733e+00,7.861e+00,6.999e+00,6.625e+00,7.179e+00,8.733e+00,8.329e+00,1.069e+01,9.734e+00,1.154e+01,1.004e+01,8.999e+00,8.889e+00,9.818e+00,1.089e+01,1.121e+01,1.054e+01,9.594e+00,1.079e+01,1.008e+01,1.140e+01,1.108e+01,1.099e+01,1.213e+01,1.195e+01,1.100e+01,1.266e+01,1.003e+01,1.375e+01,1.150e+01,1.018e+01,1.076e+01,1.220e+01,9.432e+00,1.317e+01,1.033e+01,9.041e+00,1.024e+01,1.181e+01,1.125e+01,1.285e+01,1.056e+01,1.087e+01,1.118e+01,1.165e+01,1.028e+01,1.218e+01,1.252e+01,1.176e+01,9.692e+00,9.829e+00,1.260e+01,1.269e+01,1.359e+01,1.073e+01,1.102e+01,1.137e+01,1.248e+01,1.094e+01,1.162e+01,1.201e+01,1.161e+01,1.295e+01,1.119e+01,1.092e+01,1.339e+01,1.266e+01,1.289e+01,1.264e+01,1.050e+01,1.314e+01,1.377e+01,1.202e+01,1.125e+01
6.535e-01,1.088e+00,9.204e-01,1.734e+00,2.254e+00,1.768e+00,1.505e+00,2.940e+00,2.924e+00,2.338e+00,3.341e+00,2.892e+00,3.346e+00,3.070e+00,2.520e+00,3.847e+00,4.388e+00,5.292e+00,5.098e+00,5.184e+00,3.887e+00,5.403e+00,5.702e+00,6.573e+00,6.712e+00,9.331e+00,7.285e+00,7.185e+00,6.481e+00,7.879e+00,9.136e+00,7.832e+00,8.778e+00,8.275e+00,9.079e+00,8.147e+00,1.020e+01,9.727e+00,9.331e+00,1.174e+01,9.877e+00,1.078e+01,1.038e+01,9.284e+00,1.196e+01,1.055e+01,1.004e+01,9.306e+00,1.150e+01,8.633e+00,1.102e+01,8.546e+00,8.323e+00,9.517e+00,1.137e+01,9.160e+00,1.099e+01,1.007e+01,1.100e+01,9.548e+00,1.154e+01,9.600e+00,1.133e+01,1.112e+01,1.084e+01,9.692e+00,9.328e+00,1.070e+01,1.190e+01,1.116e+01,1.070e+01,9.801e+00,1.044e+01,1.020e+01,1.126e+01,1.111e+01,1.237e+01,1.025e+01,1.222e+01,9.691e+00,9.485e+00,1.170e+01,1.142e+01,1.035e+01,1.145e+01,8.635e+00,1.071e+01,1.084e+01,1.037e+01,1.042e+01
6.284e-01,1.377e+00,9.397e-01,1.453e+00,1.511e+00,1.238e+00,1.363e+00,1.955e+00,2.384e+00,2.336e+00,3.259e+00,2.943e+00,3.890e+00,2.993e+00,2.714e+00,4.215e+00,4.216e+00,4.359e+00,3.932e+00,4.128e+00,3.680e+00,5.118e+00,5.103e+00,6.164e+00,6.800e+00,7.145e+00,6.868e+00,6.856e+00,6.011e+00,7.359e+00,8.035e+00,8.207e+00,6.597e+00,6.740e+00,6.673e+00,7.107e+00,7.811e+00,8.262e+00,7.259e+00,9.582e+00,7.907e+00,8.003e+00,9.000e+00,7.603e+00,1.037e+01,8.402e+00,7.900e+00,8.632e+00,9.708e+00,6.965e+00,8.161e+00,7.130e+00,6.969e+00,8.104e+00,8.362e+00,8.360e+00,9.099e+00,8.830e+00,7.810e+00,7.866e+00,9.161e+00,7.992e+00,8.799e+00,1.067e+01,8.526e+00,7.853e+00,7.994e+00,9.172e+00,9.807e+00,1.057e+01,9.657e+00,8.155e+00,8.841e+00,8.975e+00,9.910e+00,9.717e+00,7.704e+00,7.369e+00,9.412e+00,7.512e+00,8.406e+00,9.346e+00,9.594e+00,9.657e+00,9.380e+00,8.207e+00,8.976e+00,9.145e+00,6.896e+00,8.441e+00
6.942e-01,9.221e-01,9.191e-01,1.524e+00,2.075e+00,1.610e+00,1.337e+00,2.783e+00,3.134e+00,2.738e+00,4.499e+00,3.578e+00,3.950e+00,2.635e+00,2.798e+00,4.382e+00,4.469e+00,5.125e+00,4.628e+00,4.838e+00,4.620e+00,6.035e+00,5.885e+00,6.429e+00,6.438e+00,8.535e+00,6.198e+00,7.453e+00,6.864e+00,8.057e+00,8.118e+00,8.754e+00,7.215e+00,6.577e+00,6.688e+00,6.854e+00,9.334e+00,7.811e+00,7.230e+00,9.910e+00,9.822e+00,1.030e+01,1.076e+01,8.549e+00,1.194e+01,9.689e+00,8.108e+00,8.359e+00,1.144e+01,8.246e+00,9.809e+00,8.739e+00,7.515e+00,9.315e+00,9.708e+00,9.849e+00,9.539e+00,8.856e+00,8.951e+00,8.272e+00,9.590e+00,9.412e+00,9.419e+00,1.029e+01,9.094e+00,9.054e+00,8.484e+00,1.022e+01,1.095e+01,1.167e+01,1.066e+01,8.265e+00,9.770e+00,9.771e+00,9.794e+00,1.117e+01,9.235e+00,7.752e+00,9.459e+00,1.023e+01,8.771e+00,1.065e+01,1.026e+01,9.841e+00,1.001e+01,9.017e+00,1.090e+01,1.039e+01,9.012e+00,9.245e+00
5.693e-02,4.786e-01,5.243e-01,6.544e-01,9.141e-01,1.111e+00,1.004e+00,1.916e+00,2.077e+00,2.258e+00,2.942e+00,2.949e+00,3.211e+00,2.023e+00,2.709e+00,3.421e+00,3.919e+00,5.375e+00,5.179e+00,4.629e+00,5.271e+00,6.400e+00,5.378e+00,7.643e+00,6.662e+00,8.506e+00,7.068e+00,6.670e+00,7.417e+00,7.915e+00,8.174e+00,8.523e+00,8.470e+00,7.597e+00,9.031e+00,7.753e+00,9.874e+00,7.064e+00,8.963e+00,1.003e+01,1.067e+01,9.457e+00,1.141e+01,8.639e+00,1.252e+01,9.717e+00,7.845e+00,1.009e+01,1.183e+01,1.008e+01,1.139e+01,9.631e+00,8.149e+00,8.896e+00,9.473e+00,9.443e+00,1.090e+01,1.015e+01,9.721e+00,1.037e+01,1.052e+01,1.059e+01,1.183e+01,1.066e+01,9.638e+00,1.023e+01,9.325e+00,1.014e+01,1.173e+01,1.312e+01,1.098e+01,9.716e+00,1.266e+01,1.162e+01,1.135e+01,1.034e+01,8.009e+00,1.096e+01,9.286e+00,9.823e+00,1.103e+01,1.130e+01,1.018e+01,1.196e+01,1.147e+01,9.068e+00,1.022e+01,1.220e+01,1.134e+01,1.178e+01
1.421e-01,1.861e-01,2.347e-01,4.641e-01,9.765e-01,8.701e-01,8.063e-01,1.838e+00,1.784e+00,2.346e+00,3.343e+00,2.656e+00,3.294e+00,2.399e+00,2.017e+00,4.434e+00,5.343e+00,5.529e+00,5.772e+00,5.142e+00,6.224e+00,6.458e+00,6.880e+00,7.970e+00,8.057e+00,9.545e+00,7.972e+00,7.323e+00,7.541e+00,7.299e+00,9.241e+00,8.366e+00,8.553e+00,7.488e+00,8.711e+00,8.675e+00,9.464e+00,8.978e+00,9.451e+00,1.226e+01,1.087e+01,1.163e+01,1.239e+01,1.026e+01,1.347e+01,1.134e+01,8.807e+00,9.795e+00,1.251e+01,1.052e+01,1.240e+01,1.041e+01,8.995e+00,1.116e+01,1.127e+01,1.114e+01,1.151e+01,9.273e+00,1.054e+01,1.097e+01,1.256e+01,1.095e+01,1.274e+01,1.219e+01,1.085e+01,1.045e+01,1.039e+01,1.235e+01,1.329e+01,1.257e+01,1.055e+01,1.002e+01,1.269e+01,1.235e+01,1.082e+01,1.222e+01,1.112e+01,1.144e+01,1.251e+01,1.110e+01,1.105e+01,1.262e+01,1.153e+01,1.221e+01,1.145e+01,9.239e+00,1.276e+01,1.227e+01,1.133e+01,1.163e+01
4.501e-01,1.053e+00,7.976e-01,1.529e+00,1.890e+00,1.730e+00,1.462e+00,3.016e+00,2.826e+00,2.866e+00,2.853e+00,2.775e+00,3.651e+00,3.109e+00,2.355e+00,3.802e+00,4.151e+00,4.500e+00,4.598e+00,4.515e+00,4.651e+00,5.475e+00,4.937e+00,7.149e+00,7.253e+00,9.606e+00,6.878e+00,7.506e+00,7.356e+00,7.427e+00,9.241e+00,8.219e+00,9.418e+00,7.617e+00,8.341e+00,7.026e+00,9.543e+00,8.620e+00,9.838e+00,9.707e+00,9.944e+00,1.012e+01,1.174e+01,8.584e+00,1.302e+01,9.655e+00,1.095e+01,1.126e+01,1.300e+01,9.262e+00,1.197e+01,1.065e+01,8.994e+00,9.653e+00,1.191e+01,1.091e+01,1.076e+01,8.667e+00,1.061e+01,1.118e+01,1.161e+01,9.346e+00,1.210e+01,1.203e+01,1.046e+01,9.075e+00,1.082e+01,1.280e+01,1.329e+01,1.102e+01,1.041e+01,1.091e+01,1.220e+01,1.164e+01,1.152e+01,1.107e+01,1.065e+01,1.045e+01,1.302e+01,1.174e+01,1.119e+01,1.189e+01,1.055e+01,1.191e+01,1.126e+01,9.701e+00,1.165e+01,1.209e+01,1.174e+01,1.183e+01
6.353e-01,1.443e+00,1.049e+00,1.199e+00,1.606e+00,1.472e+00,1.472e+00,2.619e+00,2.765e+00,2.905e+00,3.317e+00,3.371e+00,3.839e+00,3.476e+00,3.019e+00,4.674e+00,4.620e+00,5.104e+00,5.078e+00,4.550e+00,4.613e+00,5.499e+00,5.281e+00,6.832e+00,6.227e+00,7.808e+00,7.259e+00,6.713e+00,7.125e+00,6.007e+00,8.165e+00,7.092e+00,7.616e+00,7.335e+00,7.664e+00,7.366e+00,8.353e+00,8.759e+00,9.145e+00,9.544e+00,9.630e+00,9.691e+00,1.132e+01,9.934e+00,1.276e+01,1.162e+01,9.713e+00,1.006e+01,1.191e+01,8.844e+00,1.155e+01,9.308e+00,9.024e+00,1.058e+01,1.089e+01,1.024e+01,1.016e+01,9.650e+00,1.010e+01,1.030e+01,1.072e+01,8.891e+00,1.131e+01,1.094e+01,1.045e+01,9.679e+00,8.923e+00,1.092e+01,1.195e+01,1.149e+01,1.061e+01,9.551e+00,1.054e+01,1.088e+01,1.012e+01,1.063e+01,1.093e+01,1.038e+01,1.045e+01,1.047e+01,1.011e+01,1.124e+01,1.146e+01,1.192e+01,1.188e+01,9.337e+00,1.135e+01,1.066e+01,1.154e+01,9.997e+00
3.109e-01,3.830e-01,3.668e-01,1.146e+00,1.523e+00,1.195e+00,1.507e+00,2.292e+00,2.435e+00,2.511e+00,3.773e+00,2.718e+00,2.673e+00,2.305e+00,1.451e+00,3.673e+00,3.910e+00,4.400e+00,4.108e+00,3.334e+00,3.776e+00,5.023e+00,5.523e+00,5.221e+00,6.576e+00,7.594e+00,6.201e+00,5.955e+00,4.397e+00,6.211e+00,7.829e+00,7.075e+00,7.011e+00,7.023e+00,7.876e+00,7.589e+00,9.058e+00,7.310e+00,8.172e+00,8.281e+00,8.013e+00,1.054e+01,1.001e+01,8.842e+00,1.212e+01,9.720e+00,1.014e+01,1.080e+01,1.285e+01,9.165e+00,1.085e+01,1.016e+01,8.662e+00,9.435e+00,1.187e+01,1.007e+01,1.056e+01,1.037e+01,1.027e+01,1.022e+01,1.197e+01,9.269e+00,1.153e+01,1.243e+01,1.043e+01,9.339e+00,9.371e+00,1.155e+01,1.237e+01,1.064e+01,1.001e+01,9.197e+00,1.053e+01,1.053e+01,1.186e+01,1.079e+01,1.109e+01,9.416e+00,1.068e+01,1.062e+01,1.025e+01,1.094e+01,1.112e+01,1.056e+01,1.100e+01,1.024e+01,1.219e+01,1.179e+01,1.055e+01,1.175e+01
2.377e-01,4.277e-01,4.821e-01,8.484e-01,1.277e+00,1.201e+00,1.549e+00,2.290e+00,2.287e+00,2.460e+00,3.206e+00,2.869e+00,2.321e+00,1.972e+00,1.781e+00,3.262e+00,3.369e+00,3.609e+00,3.467e+00,2.973e+00,2.627e+00,4.071e+00,4.269e+00,4.652e+00,4.710e+00,5.531e+00,4.808e+00,4.743e+00,4.893e+00,5.759e+00,5.464e+00,6.638e+00,5.289e+00,4.768e+00,5.996e+00,5.591e+00,6.874e+00,6.366e+00,6.364e+00,8.590e+00,8.224e+00,8.408e+00,8.981e+00,8.491e+00,1.242e+01,9.501e+00,8.874e+00,8.939e+00,1.120e+01,9.253e+00,1.072e+01,8.679e+00,8.049e+00,9.749e+00,1.100e+01,1.027e+01,9.987e+00,8.696e+00,7.723e+00,9.287e+00,1.108e+01,1.005e+01,1.098e+01,1.086e+01,9.410e+00,9.739e+00,7.928e+00,1.172e+01,1.147e+01,1.040e+01,9.299e+00,9.267e+00,1.082e+01,9.293e+00,1.100e+01,1.046e+01,1.002e+01,9.186e+00,1.017e+01,9.479e+00,1.028e+01,1.014e+01,1.046e+01,1.113e+01,1.039e+01,7.931e+00,1.071e+01,1.054e+01,9.299e+00,9.332e+00
6.211e-01,1.368e+00,1.005e+00,9.825e-01,1.162e+00,9.949e-01,1.292e+00,1.565e+00,2.109e+00,2.166e+00,3.706e+00,3.036e+00,3.485e+00,3.031e+00,2.609e+00,4.577e+00,5.003e+00,5.856e+00,5.368e+00,5.134e+00,5.302e+00,6.441e+00,6.635e+00,7.609e+00,6.975e+00,8.289e+00,8.473e+00,7.810e+00,7.284e+00,8.618e+00,9.517e+00,8.637e+00,8.609e+00,9.030e+00,8.846e+00,9.072e+00,1.046e+01,8.038e+00,8.762e+00,1.081e+01,1.013e+01,1.044e+01,1.241e+01,1.023e+01,1.389e+01,1.248e+01,1.140e+01,1.227e+01,1.373e+01,9.855e+00,1.225e+01,1.108e+01,9.957e+00,1.072e+01,1.193e+01,1.197e+01,1.255e+01,1.208e+01,1.136e+01,1.307e+01,1.275e+01,1.050e+01,1.328e+01,1.310e+01,1.131e+01,1.013e+01,1.143e+01,1.222e+01,1.401e+01,1.376e+01,1.138e+01,1.131e+01,1.259e+01,1.243e+01,1.120e+01,1.128e+01,1.263e+01,1.212e+01,1.096e+01,1.097e+01,1.133e+01,1.264e+01,1.240e+01,1.316e+01,1.306e+01,1.212e+01,1.196e+01,1.334e+01,1.232e+01,1.135e+01
1.852e-01,2.980e-01,3.674e-01,6.261e-01,1.154e+00,1.151e+00,1.719e+00,2.494e+00,2.450e+00,2.954e+00,3.676e+00,3.506e+00,3.234e+00,2.419e+00,2.439e+00,4.025e+00,5.080e+00,5.283e+00,5.433e+00,4.449e+00,4.575e+00,5.200e+00,5.526e+00,7.397e+00,6.139e+00,7.123e+00,7.261e+00,6.457e+00,6.861e+00,6.630e+00,8.332e+00,7.881e+00,6.936e+00,7.414e+00,8.497e+00,7.329e+00,9.621e+00,8.449e+00,7.804e+00,1.070e+01,9.329e+00,1.146e+01,1.031e+01,9.358e+00,1.271e+01,1.082e+01,8.941e+00,9.876e+00,1.194e+01,1.050e+01,1.167e+01,9.868e+00,8.874e+00,1.055e+01,1.282e+01,9.766e+00,1.088e+01,9.568e+00,1.005e+01,1.053e+01,1.223e+01,9.703e+00,1.043e+01,1.151e+01,9.722e+00,1.045e+01,9.913e+00,1.177e+01,1.074e+01,1.275e+01,1.028e+01,9.261e+00,1.107e+01,1.033e+01,1.080e+01,1.057e+01,1.146e+01,1.193e+01,1.068e+01,1.166e+01,1.103e+01,1.194e+01,1.136e+01,1.155e+01,1.257e+01,9.472e+00,1.331e+01,1.214e+01,1.077e+01,1.017e+01
6.928e-01,1.168e+00,1.052e+00,1.619e+00,2.303e+00,1.960e+00,1.702e+00,3.481e+00,3.584e+00,3.310e+00,4.630e+00,3.897e+00,4.799e+00,3.691e+00,3.242e+00,5.009e+00,5.686e+00,6.521e+00,6.310e+00,5.579e+00,5.588e+00,7.012e+00,6.842e+00,8.244e+00,7.617e+00,8.883e+00,8.243e+00,7.548e+00,7.144e+00,8.458e+00,8.804e+00,9.832e+00,7.846e+00,7.484e+00,8.216e+00,8.349e+00,1.034e+01,8.476e+00,7.380e+00,1.162e+01,1.027e+01,1.045e+01,1.123e+01,9.620e+00,1.317e+01,1.058e+01,1.022e+01,1.110e+01,1.457e+01,1.075e+01,1.392e+01,1.132e+01,1.040e+01,1.150e+01,1.286e+01,1.159e+01,1.213e+01,1.091e+01,9.938e+00,1.158e+01,1.397e+01,1.178e+01,1.253e+01,1.279e+01,1.120e+01,1.199e+01,1.186e+01,1.396e+01,1.257e+01,1.436e+01,1.129e+01,1.070e+01,1.270e+01,1.168e+01,1.218e+01,1.145e+01,1.222e+01,1.190e+01,1.141e+01,1.221e+01,1.243e+01,1.306e+01,1.301e+01,1.243e+01,1.336e+01,1.094e+01,1.337e+01,1.372e+01,1.209e+01,1.212e+01
7.612e-01,1.009e+00,9.306e-01,9.644e-01,1.596e+00,1.215e+00,1.060e+00,2.173e+00,2.262e+00,1.693e+00,3.057e+00,2.497e+00,3.076e+00,2.490e+00,2.684e+00,2.997e+00,4.372e+00,5.659e+00,5.341e+00,5.665e+00,5.144e+00,6.146e+00,5.871e+00,7.503e+00,6.780e+00,9.241e+00,7.525e+00,6.930e+00,7.794e+00,9.149e+00,9.346e+00,8.599e+00,1.017e+01,8.575e+00,9.836e+00,8.773e+00,1.094e+01,9.337e+00,8.555e+00,1.270e+01,1.128e+01,1.252e+01,1.323e+01,1.138e+01,1.590e+01,1.356e+01,1.357e+01,1.314e+01,1.742e+01,1.429e+01,1.686e+01,1.336e+01,1.250e+01,1.427e+01,1.525e+01,1.473e+01,1.497e+01,1.339e+01,1.399e+01,1.432e+01,1.891e+01,1.451e+01,1.584e+01,1.536e+01,1.520e+01,1.386e+01,1.420e+01,1.518e+01,1.667e+01,1.684e+01,1.254e+01,1.300e+01,1.702e+01,1.383e+01,1.488e+01,1.424e+01,1.512e+01,1.500e+01,1.401e+01,1.436e+01,1.593e+01,1.559e+01,1.486e+01,1.561e+01,1.482e+01,1.351e+01,1.562e+01,1.615e+01,1.506e+01,1.425e+01
2.579e-01,9.614e-01,6.702e-01,6.394e-01,8.553e-01,9.482e-01,9.937e-01,1.655e+00,1.767e+00,2.539e+00,3.115e+00,2.695e+00,3.263e+00,2.661e+00,1.873e+00,4.194e+00,4.276e+00,4.483e+00,4.171e+00,3.525e+00,4.900e+00,5.006e+00,5.422e+00,6.311e+00,5.829e+00,6.711e+00,6.626e+00,5.945e+00,5.967e+00,5.280e+00,7.784e+00,7.074e+00,6.315e+00,7.307e+00,7.279e+00,7.692e+00,8.321e+00,7.592e+00,8.388e+00,9.616e+00,9.559e+00,9.928e+00,1.031e+01,9.754e+00,1.233e+01,1.161e+01,1.042e+01,1.087e+01,1.423e+01,1.045e+01,1.284e+01,1.201e+01,1.113e+01,1.234e+01,1.214e+01,1.163e+01,1.268e+01,1.048e+01,1.137e+01,1.176e+01,1.265e+01,1.025e+01,1.330e+01,1.283e+01,1.360e+01,1.125e+01,1.145e+01,1.260e+01,1.436e+01,1.401e+01,1.098e+01,1.168e+01,1.254e+01,1.343e+01,1.200e+01,1.188e+01,1.218e+01,1.119e+01,1.066e+01,1.267e+01,1.148e+01,1.306e+01,1.327e+01,1.262e+01,1.354e+01,1.051e+01,1.335e+01,1.280e+01,1.230e+01,1.322e+01
7.370e-02,9.873e-02,1.270e-01,7.104e-01,9.865e-01,9.425e-01,1.096e+00,1.954e+00,1.790e+00,2.262e+00,2.659e+00,2.242e+00,2.490e+00,2.159e+00,1.629e+00,3.342e+00,4.024e+00,4.230e+00,3.911e+00,3.471e+00,3.930e+00,5.009e+00,4.135e+00,5.274e+00,5.141e+00,6.900e+00,5.388e+00,6.199e+00,6.097e+00,7.023e+00,6.847e+00,7.038e+00,6.395e+00,5.737e+00,6.374e+00,6.550e+00,9.190e+00,6.859e+00,7.122e+00,9.547e+00,8.926e+00,9.289e+00,9.481e+00,9.134e+00,1.261e+01,9.783e+00,8.494e+00,1.035e+01,1.309e+01,9.929e+00,1.240e+01,1.126e+01,1.079e+01,1.114e+01,1.120e+01,1.170e+01,1.268e+01,9.920e+00,1.119e+01,1.112e+01,1.449e+01,1.115e+01,1.297e+01,1.280e+01,1.333e+01,1.130e+01,1.168e+01,1.393e+01,1.404e+01,1.464e+01,1.131e+01,1.200e+01,1.187e+01,1.106e+01,1.290e+01,1.292e+01,1.233e+01,1.055e+01,1.101e+01,1.399e+01,1.236e+01,1.278e+01,1.214e+01,1.270e+01,1.268e+01,1.026e+01,1.412e+01,1.294e+01,1.099e+01,1.187e+01
1.381e-01,6.301e-01,4.984e-01,1.141e+00,1.409e+00,1.346e+00,1.508e+00,2.342e+00,2.371e+00,2.888e+00,3.696e+00,3.033e+00,3.314e+00,2.948e+00,1.797e+00,5.144e+00,4.708e+00,5.368e+00,5.274e+00,3.939e+00,4.191e+00,5.350e+00,5.560e+00,6.153e+00,5.966e+00,7.106e+00,7.056e+00,6.495e+00,6.604e+00,6.481e+00,9.254e+00,8.336e+00,7.535e+00,7.521e+00,8.879e+00,8.223e+00,1.007e+01,9.623e+00,1.006e+01,1.024e+01,1.008e+01,1.055e+01,1.182e+01,1.047e+01,1.355e+01,1.156e+01,1.225e+01,1.216e+01,1.392e+01,1.233e+01,1.365e+01,1.273e+01,1.153e+01,1.351e+01,1.536e+01,1.263e+01,1.346e+01,1.121e+01,1.246e+01,1.320e+01,1.471e+01,1.129e+01,1.498e+01,1.495e+01,1.308e+01,1.239e+01,1.274e+01,1.483e+01,1.600e+01,1.480e+01,1.299e+01,1.352e+01,1.376e+01,1.345e+01,1.390e+01,1.332e+01,1.476e+01,1.273e+01,1.403e+01,1.542e+01,1.307e+01,1.406e+01,1.387e+01,1.477e+01,1.453e+01,1.144e+01,1.497e+01,1.432e+01,1.372e+01,1.450e+01
1.704e-01,5.127e-01,3.873e-01,8.759e-01,1.095e+00,9.660e-01,8.532e-01,1.716e+00,1.958e+00,2.112e+00,2.637e+00,2.403e+00,2.728e+00,2.361e+00,1.763e+00,4.260e+00,4.391e+00,4.254e+00,4.507e+00,3.835e+00,4.707e+00,5.003e+00,5.115e+00,5.714e+00,5.952e+00,8.047e+00,6.881e+00,7.020e+00,6.090e+00,5.680e+00,7.657e+00,6.835e+00,6.575e+00,6.283e+00,6.808e+00,6.495e+00,8.631e+00,7.106e+00,7.790e+00,9.525e+00,9.213e+00,8.515e+00,1.005e+01,8.961e+00,1.082e+01,1.085e+01,8.918e+00,9.395e+00,1.186e+01,9.171e+00,1.065e+01,1.010e+01,1.100e+01,1.284e+01,1.189e+01,1.157e+01,1.313e+01,9.881e+00,1.097e+01,1.230e+01,1.151e+01,9.604e+00,1.338e+01,1.315e+01,1.255e+01,1.141e+01,1.109e+01,1.200e+01,1.389e+01,1.401e+01,1.101e+01,1.201e+01,1.271e+01,1.204e+01,1.086e+01,1.182e+01,1.132e+01,1.091e+01,1.146e+01,1.215e+01,1.026e+01,1.154e+01,1.057e+01,1.216e+01,1.172e+01,9.788e+00,1.274e+01,1.282e+01,1.214e+01,1.280e+01
5.089e-01,9.612e-01,8.513e-01,1.165e+00,1.730e+00,1.456e+00,9.488e-01,2.407e+00,2.458e+00,2.474e+00,4.119e+00,3.085e+00,3.667e+00,3.169e+00,2.449e+00,4.652e+00,4.990e+00,6.194e+00,6.062e+00,5.857e+00,5.837e+00,6.930e+00,7.434e+00,7.662e+00,7.598e+00,9.725e+00,8.086e+00,8.095e+00,7.648e+00,8.365e+00,1.016e+01,9.505e+00,9.351e+00,8.423e+00,9.456e+00,8.757e+00,9.892e+00,9.780e+00,9.051e+00,1.154e+01,1.046e+01,1.103e+01,1.197e+01,1.030e+01,1.389e+01,1.271e+01,1.214e+01,1.123e+01,1.464e+01,1.169e+01,1.433e+01,1.292e+01,1.243e+01,1.579e+01,1.471e+01,1.439e+01,1.543e+01,1.241e+01,1.377e+01,1.428e+01,1.560e+01,1.267e+01,1.691e+01,1.600e+01,1.608e+01,1.331e+01,1.298e+01,1.576e+01,1.769e+01,1.611e+01,1.281e+01,1.435e+01,1.607e+01,1.437e+01,1.331e+01,1.569e+01,1.438e+01,1.283e+01,1.459e+01,1.521e+01,1.393e+01,1.563e+01,1.397e+01,1.554e+01,1.438e+01,1.247e+01,1.564e+01,1.512e+01,1.622e+01,1.472e+01
3.320e-03,4.249e-02,1.334e-01,5.138e-01,8.252e-01,7.882e-01,1.079e+00,1.586e+00,1.683e+00,2.256e+00,3.643e+00,3.001e+00,2.739e+00,2.209e+00,1.947e+00,3.881e+00,4.996e+00,5.015e+00,4.924e+00,4.420e+00,4.853e+00,5.487e+00,6.106e+00,6.609e+00,6.550e+00,7.803e+00,6.438e+00,6.445e+00,5.031e+00,6.494e+00,7.907e+00,6.880e+00,7.045e+00,6.553e+00,7.911e+00,6.561e+00,9.575e+00,6.412e+00,6.876e+00,8.708e+00,7.593e+00,1.008e+01,9.000e+00,7.934e+00,1.018e+01,9.416e+00,7.795e+00,8.759e+00,1.172e+01,8.986e+00,1.054e+01,1.017e+01,9.055e+00,1.013e+01,1.052e+01,9.349e+00,1.210e+01,1.047e+01,1.177e+01,1.027e+01,1.304e+01,9.834e+00,1.219e+01,1.234e+01,1.243e+01,1.055e+01,1.033e+01,1.147e+01,1.309e+01,1.308e+01,1.019e+01,1.118e+01,1.218e+01,1.132e+01,1.246e+01,1.162e+01,1.098e+01,9.308e+00,1.087e+01,1.164e+01,1.142e+01,1.246e+01,1.075e+01,1.195e+01,1.165e+01,1.045e+01,1.199e+01,1.286e+01,1.127e+01,1.266e+01
3.672e-01,9.303e-01,6.255e-01,1.231e+00,1.413e+00,1.315e+00,1.299e+00,2.421e+00,2.550e+00,2.630e+00,2.465e+00,2.763e+00,3.629e+00,3.102e+00,2.539e+00,3.758e+00,4.235e+00,3.789e+00,4.665e+00,4.148e+00,4.304e+00,4.993e+00,5.188e+00,6.559e+00,7.251e+00,8.211e+00,6.662e+00,6.372e+00,6.402e+00,6.217e+00,8.295e+00,7.316e+00,7.977e+00,7.288e+00,8.175e+00,7.261e+00,8.380e+00,8.546e+00,8.975e+00,9.982e+00,1.005e+01,9.960e+00,1.015e+01,9.592e+00,1.247e+01,1.131e+01,1.114e+01,1.085e+01,1.452e+01,1.075e+01,1.337e+01,1.073e+01,1.241e+01,1.420e+01,1.370e+01,1.524e+01,1.423e+01,1.215e+01,1.268e+01,1.322e+01,1.531e+01,1.233e+01,1.413e+01,1.563e+01,1.496e+01,1.370e+01,1.254e+01,1.539e+01,1.724e+01,1.504e+01,1.294e+01,1.385e+01,1.664e+01,1.324e+01,1.479e+01,1.481e+01,1.299e+01,1.338e+01,1.404e+01,1.495e+01,1.335e+01,1.514e+01,1.349e+01,1.437e+01,1.476e+01,1.396e+01,1.485e+01,1.473e+01,1.490e+01,1.521e+01
7.140e-01,1.123e+00,9.411e-01,1.271e+00,1.748e+00,1.332e+00,8.823e-01,2.108e+00,2.084e+00,1.731e+00,3.129e+00,2.508e+00,3.413e+00,2.825e+00,2.562e+00,3.697e+00,4.491e+00,5.664e+00,5.452e+00,5.811e+00,5.239e+00,6.123e+00,5.962e+00,7.454e+00,6.775e+00,8.507e+00,7.150e+00,6.970e+00,6.920e+00,8.325e+00,9.437e+00,8.475e+00,8.779e+00,8.290e+00,7.846e+00,8.183e+00,9.544e+00,9.087e+00,9.053e+00,1.181e+01,1.039e+01,1.131e+01,1.206e+01,1.066e+01,1.423e+01,1.216e+01,1.152e+01,1.103e+01,1.459e+01,1.126e+01,1.318e+01,1.223e+01,1.132e+01,1.341e+01,1.372e+01,1.328e+01,1.439e+01,1.399e+01,1.392e+01,1.367e+01,1.622e+01,1.349e+01,1.517e+01,1.565e+01,1.483e+01,1.202e+01,1.378e+01,1.496e+01,1.747e+01,1.673e+01,1.401e+01,1.433e+01,1.532e+01,1.474e+01,1.447e+01,1.449e+01,1.382e+01,1.379e+01,1.315e+01,1.466e+01,1.421e+01,1.496e+01,1.470e+01,1.585e+01,1.427e+01,1.264e+01,1.541e+01,1.463e+01,1.482e+01,1.284e+01
4.788e-01,7.304e-01,7.629e-01,1.012e+00,1.700e+00,1.392e+00,1.054e+00,2.333e+00,2.111e+00,1.768e+00,2.978e+00,2.518e+00,2.498e+00,2.571e+00,2.109e+00,3.641e+00,4.152e+00,5.619e+00,6.143e+00,5.271e+00,4.220e+00,5.812e+00,6.508e+00,7.727e+00,7.018e+00,7.710e+00,8.066e+00,6.727e+00,6.609e+00,7.231e+00,8.760e+00,8.775e+00,8.211e+00,7.939e+00,9.010e+00,8.448e+00,9.154e+00,9.389e+00,9.476e+00,1.283e+01,1.053e+01,1.091e+01,1.122e+01,1.017e+01,1.352e+01,1.181e+01,1.114e+01,1.195e+01,1.424e+01,1.168e+01,1.476e+01,1.172e+01,1.290e+01,1.397e+01,1.647e+01,1.365e+01,1.560e+01,1.441e+01,1.365e+01,1.465e+01,1.660e+01,1.429e+01,1.718e+01,1.778e+01,1.628e+01,1.531e+01,1.462e+01,1.610e+01,1.875e+01,1.760e+01,1.432e+01,1.604e+01,1.684e+01,1.550e+01,1.655e+01,1.633e+01,1.660e+01,1.678e+01,1.477e+01,1.586e+01,1.535e+01,1.601e+01,1.468e+01,1.624e+01,1.611e+01,1.266e+01,1.742e+01,1.677e+01,1.628e+01,1.572e+01
3.732e-01,9.838e-01,7.209e-01,1.352e+00,1.634e+00,1.493e+00,1.839e+00,2.556e+00,2.455e+00,2.819e+00,3.724e+00,3.422e+00,3.632e+00,3.751e+00,2.609e+00,4.675e+00,5.884e+00,5.813e+00,5.664e+00,5.273e+00,4.841e+00,6.436e+00,7.060e+00,8.336e+00,8.336e+00,9.778e+00,8.798e+00,8.171e+00,7.112e+00,8.115e+00,9.706e+00,8.333e+00,9.104e+00,8.147e+00,9.169e+00,8.088e+00,1.003e+01,8.935e+00,9.203e+00,1.066e+01,1.021e+01,1.194e+01,1.101e+01,9.945e+00,1.419e+01,1.154e+01,1.133e+01,1.293e+01,1.584e+01,1.014e+01,1.342e+01,1.313e+01,1.274e+01,1.328e+01,1.310e+01,1.429e+01,1.549e+01,1.343e+01,1.570e+01,1.471e+01,1.819e+01,1.275e+01,1.594e+01,1.654e+01,1.658e+01,1.405e+01,1.382e+01,1.760e+01,1.800e+01,1.682e+01,1.460e+01,1.463e+01,1.443e+01,1.466e+01,1.630e+01,1.468e+01,1.421e+01,1.304e+01,1.582e+01,1.488e+01,1.557e+01,1.567e+01,1.571e+01,1.555e+01,1.582e+01,1.331e+01,1.585e+01,1.631e+01,1.485e+01,1.511e+01
6.514e-03,6.960e-01,5.215e-01,1.150e+00,1.115e+00,1.250e+00,1.186e+00,1.952e+00,2.327e+00,2.578e+00,3.472e+00,3.260e+00,4.537e+00,3.231e+00,2.931e+00,4.660e+00,5.114e+00,6.173e+00,6.883e+00,5.586e+00,5.605e+00,6.844e+00,7.006e+00,8.084e+00,8.151e+00,8.777e+00,8.309e+00,6.896e+00,8.443e+00,8.688e+00,1.048e+01,9.634e+00,8.798e+00,1.001e+01,1.071e+01,9.766e+00,1.055e+01,1.014e+01,9.685e+00,1.242e+01,1.113e+01,1.163e+01,1.306e+01,1.072e+01,1.566e+01,1.324e+01,1.271e+01,1.333e+01,1.598e+01,1.299e+01,1.545e+01,1.324e+01,1.309e+01,1.453e+01,1.560e+01,1.471e+01,1.509e+01,1.493e+01,1.356e+01,1.585e+01,1.748e+01,1.453e+01,1.746e+01,1.800e+01,1.419e+01,1.567e+01,1.429e+01,1.796e+01,1.923e+01,1.714e+01,1.558e+01,1.715e+01,1.860e+01,1.626e+01,1.610e+01,1.655e+01,1.599e+01,1.619e+01,1.523e+01,1.675e+01,1.556e+01,1.665e+01,1.633e+01,1.796e+01,1.644e+01,1.542e+01,1.809e+01,1.800e+01,1.725e+01,1.644e+01
7.106e-01,1.485e+00,1.024e+00,1.555e+00,1.851e+00,1.532e+00,1.759e+00,2.709e+00,3.149e+00,3.257e+00,4.410e+00,3.581e+00,4.664e+00,3.848e+00,2.905e+00,5.350e+00,6.041e+00,6.269e+00,5.354e+00,5.198e+00,5.867e+00,6.631e+00,6.477e+00,8.120e+00,7.235e+00,9.250e+00,8.705e+00,8.123e+00,7.611e+00,9.368e+00,1.056e+01,9.914e+00,9.275e+00,9.173e+00,1.013e+01,9.834e+00,1.250e+01,1.066e+01,1.034e+01,1.327e+01,1.089e+01,1.290e+01,1.264e+01,1.164e+01,1.470e+01,1.301e+01,1.135e+01,1.159e+01,1.462e+01,1.216e+01,1.330e+01,1.245e+01,1.131e+01,1.386e+01,1.473e+01,1.363e+01,1.516e+01,1.389e+01,1.524e+01,1.309e+01,1.685e+01,1.385e+01,1.651e+01,1.697e+01,1.711e+01,1.307e+01,1.367e+01,1.610e+01,1.760e+01,1.862e+01,1.514e+01,1.548e+01,1.476e+01,1.513e+01,1.671e+01,1.557e+01,1.541e+01,1.434e+01,1.524e+01,1.644e+01,1.495e+01,1.713e+01,1.667e+01,1.639e+01,1.641e+01,1.457e+01,1.615e+01,1.626e+01,1.542e+01,1.541e+01
2.597e-01,9.396e-01,7.084e-01,6.381e-01,9.217e-01,1.022e+00,1.130e+00,1.833e+00,2.169e+00,2.743e+00,3.736e+00,3.335e+00,3.721e+00,2.732e+00,2.679e+00,4.455e+00,5.038e+00,5.804e+00,5.770e+00,5.160e+00,5.775e+00,6.275e+00,6.304e+00,8.593e+00,7.374e+00,9.410e+00,9.116e+00,8.707e+00,8.686e+00,7.983e+00,1.007e+01,8.426e+00,8.797e+00,9.601e+00,1.096e+01,9.737e+00,1.138e+01,9.628e+00,9.826e+00,1.246e+01,1.108e+01,1.257e+01,1.306e+01,1.124e+01,1.492e+01,1.418e+01,1.220e+01,1.226e+01,1.569e+01,1.218e+01,1.627e+01,1.305e+01,1.333e+01,1.531e+01,1.558e+01,1.488e+01,1.610e+01,1.359e+01,1.480e+01,1.537e+01,1.902e+01,1.452e+01,1.929e+01,1.806e+01,1.789e+01,1.746e+01,1.594e+01,1.908e+01,1.854e+01,1.902e+01,1.562e+01,1.667e+01,1.798e+01,1.578e+01,1.738e+01,1.654e+01,1.795e+01,1.773e+01,1.686e+01,1.802e+01,1.770e+01,1.733e+01,1.809e+01,1.817e+01,1.774e+01,1.588e+01,1.845e+01,2.016e+01,1.957e+01,1.741e+01
2.640e-01,6.246e-01,6.375e-01,9.236e-01,1.423e+00,1.365e+00,1.238e+00,2.463e+00,2.518e+00,2.947e+00,3.820e+00,3.592e+00,3.889e+00,2.703e+00,2.588e+00,4.890e+00,5.518e+00,5.343e+00,6.168e+00,4.990e+00,5.057e+00,5.820e+00,6.270e+00,7.609e+00,7.190e+00,7.932e+00,7.650e+00,7.136e+00,6.483e+00,6.332e+00,9.135e+00,8.353e+00,8.023e+00,8.576e+00,9.436e+00,8.435e+00,1.025e+01,7.872e+00,9.411e+00,1.122e+01,1.145e+01,1.187e+01,1.236e+01,9.959e+00,1.420e+01,1.113e+01,1.130e+01,1.095e+01,1.471e+01,1.193e+01,1.432e+01,1.138e+01,1.146e+01,1.315e+01,1.243e+01,1.293e+01,1.501e+01,1.325e+01,1.288e+01,1.352e+01,1.745e+01,1.374e+01,1.710e+01,1.851e+01,1.662e+01,1.647e+01,1.431e+01,1.771e+01,1.904e+01,1.736e+01,1.558e+01,1.778e+01,1.833e+01,1.611e+01,1.766e+01,1.692e+01,1.600e+01,1.643e+01,1.566e+01,1.731e+01,1.686e+01,1.516e+01,1.645e+01,1.683e+01,1.631e+01,1.468e+01,1.799e+01,1.816e+01,1.747e+01,1.641e+01
4.175e-01,7.893e-01,6.995e-01,1.015e+00,1.441e+00,1.260e+00,1.165e+00,2.220e+00,2.281e+00,2.049e+00,2.432e+00,2.517e+00,2.414e+00,2.182e+00,1.931e+00,2.914e+00,3.584e+00,3.466e+00,4.289e+00,3.930e+00,4.015e+00,4.480e+00,4.950e+00,6.215e+00,6.125e+00,7.598e+00,6.255e+00,6.248e+00,5.944e+00,5.807e+00,8.015e+00,6.906e+00,7.827e+00,7.118e+00,8.487e+00,6.735e+00,8.470e+00,7.660e+00,8.608e+00,9.168e+00,9.918e+00,1.049e+01,1.147e+01,9.059e+00,1.326e+01,1.033e+01,9.972e+00,1.150e+01,1.400e+01,9.982e+00,1.233e+01,1.030e+01,1.094e+01,1.297e+01,1.357e+01,1.356e+01,1.377e+01,1.210e+01,1.380e+01,1.324e+01,1.514e+01,1.313e+01,1.655e+01,1.633e+01,1.693e+01,1.508e+01,1.459e+01,1.785e+01,1.829e+01,1.798e+01,1.437e+01,1.592e+01,1.666e+01,1.420e+01,1.794e+01,1.460e+01,1.477e+01,1.580e+01,1.519e+01,1.749e+01,1.528e+01,1.573e+01,1.558e+01,1.667e+01,1.542e+01,1.423e+01,1.766e+01,1.665e+01,1.677e+01,1.617e+01
7.378e-01,1.575e+00,1.177e+00,1.222e+00,1.540e+00,1.329e+00,1.433e+00,2.109e+00,2.367e+00,2.178e+00,3.195e+00,2.567e+00,3.471e+00,3.124e+00,2.325e+00,3.660e+00,4.583e+00,5.257e+00,4.702e+00,4.452e+00,4.298e+00,5.665e+00,5.648e+00,7.590e+00,6.760e+00,8.179e+00,8.321e+00,7.614e+00,7.317e+00,7.638e+00,8.458e+00,8.017e+00,8.803e+00,7.574e+00,8.939e+00,8.910e+00,9.497e+00,8.361e+00,9.323e+00,1.058e+01,1.109e+01,1.065e+01,1.397e+01,1.010e+01,1.529e+01,1.197e+01,1.265e+01,1.299e+01,1.481e+01,1.184e+01,1.513e+01,1.280e+01,1.125e+01,1.317e+01,1.476e+01,1.474e+01,1.420e+01,1.382e+01,1.365e+01,1.467e+01,1.742e+01,1.463e+01,1.833e+01,1.767e+01,1.747e+01,1.499e+01,1.535e+01,1.892e+01,2.032e+01,1.774e+01,1.463e+01,1.729e+01,1.671e+01,1.759e+01,1.790e+01,1.698e+01,1.720e+01,1.768e+01,1.684e+01,1.713e+01,1.720e+01,1.807e+01,1.734e+01,1.891e+01,1.635e+01,1.607e+01,1.742e+01,1.883e+01,1.759e+01,1.590e+01
4.766e-01,9.870e-01,7.686e-01,1.506e+00,1.914e+00,1.626e+00,1.224e+00,2.839e+00,2.938e+00,2.695e+00,3.183e+00,2.722e+00,4.200e+00,3.145e+00,2.485e+00,4.031e+00,4.788e+00,5.475e+00,5.351e+00,4.729e+00,5.221e+00,6.005e+00,6.064e+00,7.096e+00,7.039e+00,8.668e+00,7.499e+00,7.055e+00,6.610e+00,8.500e+00,1.050e+01,9.144e+00,8.909e+00,8.181e+00,9.026e+00,8.487e+00,1.090e+01,8.383e+00,1.002e+01,1.148e+01,9.837e+00,1.115e+01,1.101e+01,1.055e+01,1.281e+01,1.275e+01,1.133e+01,1.180e+01,1.481e+01,1.277e+01,1.462e+01,1.295e+01,1.203e+01,1.397e+01,1.566e+01,1.466e+01,1.373e+01,1.380e+01,1.414e+01,1.488e+01,1.762e+01,1.392e+01,1.787e+01,1.791e+01,1.679e+01,1.729e+01,1.699e+01,2.048e+01,2.012e+01,1.882e+01,1.609e+01,1.864e+01,1.965e+01,1.729e+01,1.893e+01,1.722e+01,1.714e+01,1.821e+01,1.631e+01,1.981e+01,1.681e+01,2.039e+01,1.740e+01,1.902e+01,1.879e+01,1.786e+01,1.937e+01,1.903e+01,1.765e+01,1.836e+01
4.799e-01,9.327e-01,8.184e-01,9.157e-01,1.491e+00,1.398e+00,1.166e+00,2.555e+00,2.454e+00,2.530e+00,3.023e+00,2.936e+00,3.304e+00,2.787e+00,2.542e+00,3.565e+00,4.561e+00,4.677e+00,5.503e+00,5.181e+00,4.902e+00,5.646e+00,5.747e+00,7.773e+00,7.186e+00,9.057e+00,7.460e+00,8.187e+00,8.176e+00,8.108e+00,1.010e+01,8.588e+00,9.366e+00,9.007e+00,9.524e+00,8.041e+00,1.091e+01,8.533e+00,1.001e+01,1.203e+01,1.115e+01,1.255e+01,1.303e+01,1.111e+01,1.639e+01,1.358e+01,1.312e+01,1.436e+01,1.742e+01,1.416e+01,1.623e+01,1.526e+01,1.391e+01,1.660e+01,1.652e+01,1.743e+01,1.671e+01,1.469e+01,1.591e+01,1.624e+01,1.908e+01,1.532e+01,1.871e+01,1.867e+01,1.872e+01,1.791e+01,1.752e+01,2.145e+01,2.228e+01,2.003e+01,1.655e+01,1.890e+01,1.943e+01,1.662e+01,1.957e+01,1.925e+01,1.741e+01,1.729e+01,1.750e+01,2.062e+01,1.954e+01,2.053e+01,1.818e+01,1.896e+01,2.032e+01,1.878e+01,2.060e+01,1.992e+01,1.948e+01,1.811e+01
7.673e-01,1.186e+00,8.785e-01,7.415e-01,1.227e+00,9.537e-01,8.126e-01,1.818e+00,1.709e+00,1.754e+00,2.240e+00,2.096e+00,2.725e+00,2.531e+00,2.273e+00,2.727e+00,3.480e+00,3.611e+00,3.309e+00,3.770e+00,3.852e+00,4.377e+00,4.335e+00,5.499e+00,6.129e+00,7.540e+00,5.784e+00,6.269e+00,5.822e+00,6.817e+00,8.228e+00,6.310e+00,7.723e+00,5.720e+00,6.340e+00,6.782e+00,9.319e+00,7.388e+00,7.257e+00,8.989e+00,7.658e+00,1.045e+01,1.044e+01,8.872e+00,1.193e+01,1.031e+01,9.790e+00,9.959e+00,1.386e+01,8.457e+00,1.178e+01,1.110e+01,1.027e+01,1.150e+01,1.362e+01,1.231e+01,1.318e+01,1.245e+01,1.345e+01,1.126e+01,1.654e+01,1.184e+01,1.584e+01,1.495e+01,1.579e+01,1.474e+01,1.456e+01,1.692e+01,2.010e+01,1.792e+01,1.525e+01,1.697e+01,1.644e+01,1.679e+01,1.797e+01,1.681e+01,1.462e+01,1.620e+01,1.645e+01,1.759e+01,1.605e+01,1.700e+01,1.625e+01,1.814e+01,1.657e+01,1.498e+01,1.660e+01,1.655e+01,1.594e+01,1.600e+01
2.912e-01,7.274e-01,5.215e-01,4.389e-01,6.398e-01,6.964e-01,1.023e+00,1.418e+00,1.613e+00,2.262e+00,2.841e+00,2.647e+00,2.729e+00,2.347e+00,2.178e+00,4.153e+00,4.567e+00,4.966e+00,5.133e+00,4.776e+00,5.272e+00,6.007e+00,5.634e+00,7.077e+00,6.561e+00,7.524e+00,7.105e+00,6.595e+00,6.033e+00,6.153e+00,8.738e+00,7.225e+00,7.668e+00,7.902e+00,8.803e+00,8.192e+00,9.378e+00,7.626e+00,9.630e+00,9.394e+00,1.054e+01,1.055e+01,1.208e+01,1.009e+01,1.398e+01,1.089e+01,1.185e+01,1.279e+01,1.447e+01,1.150e+01,1.536e+01,1.217e+01,1.279e+01,1.321e+01,1.405e+01,1.466e+01,1.584e+01,1.396e+01,1.421e+01,1.480e+01,1.763e+01,1.383e+01,1.801e+01,1.848e+01,1.773e+01,1.654e+01,1.602e+01,1.795e+01,2.201e+01,1.952e+01,1.627e+01,1.769e+01,1.861e+01,1.730e+01,1.926e+01,1.736e+01,1.723e+01,1.763e+01,1.648e+01,1.844e+01,1.808e+01,1.674e+01,1.866e+01,1.966e+01,1.691e+01,1.627e+01,1.940e+01,1.809e+01,1.722e+01,1.807e+01
5.072e-01,1.127e+00,7.653e-01,7.780e-01,9.411e-01,9.183e-01,1.635e+00,1.784e+00,1.980e+00,2.580e+00,3.240e+00,3.217e+00,3.650e+00,3.040e+00,2.858e+00,4.615e+00,5.428e+00,5.364e+00,4.994e+00,4.778e+00,4.642e+00,5.862e+00,5.591e+00,7.177e+00,7.251e+00,7.296e+00,7.927e+00,6.938e+00,6.816e+00,6.927e+00,8.533e+00,8.597e+00,7.301e+00,6.920e+00,7.508e+00,7.742e+00,9.459e+00,8.862e+00,7.475e+00,1.010e+01,9.336e+00,1.017e+01,1.092e+01,9.109e+00,1.218e+01,1.020e+01,9.596e+00,1.071e+01,1.335e+01,9.078e+00,1.223e+01,1.048e+01,9.676e+00,1.089e+01,1.199e+01,1.186e+01,1.309e+01,1.151e+01,1.193e+01,1.185e+01,1.574e+01,1.171e+01,1.457e+01,1.492e+01,1.494e+01,1.422e+01,1.368e+01,1.581e+01,1.927e+01,1.818e+01,1.553e+01,1.686e+01,1.619e+01,1.672e+01,1.775e+01,1.545e+01,1.519e+01,1.735e+01,1.723e+01,1.700e+01,1.605e+01,1.657e+01,1.753e+01,1.886e+01,1.683e+01,1.597e+01,1.762e+01,1.786e+01,1.711e+01,1.769e+01
3.285e-02,4.191e-01,2.649e-01,1.152e+00,1.064e+00,1.060e+00,1.351e+00,1.784e+00,1.736e+00,1.941e+00,2.223e+00,2.181e+00,2.883e+00,2.592e+00,1.970e+00,3.147e+00,3.963e+00,4.903e+00,4.494e+00,4.099e+00,3.342e+00,4.980e+00,5.110e+00,6.311e+00,6.420e+00,7.526e+00,6.843e+00,5.605e+00,5.217e+00,6.133e+00,8.056e+00,7.121e+00,6.929e+00,6.672e+00,8.197e+00,7.208e+00,8.245e+00,8.688e+00,8.882e+00,9.993e+00,9.480e+00,1.032e+01,1.006e+01,9.195e+00,1.231e+01,9.433e+00,1.011e+01,1.143e+01,1.430e+01,1.049e+01,1.331e+01,1.159e+01,1.170e+01,1.146e+01,1.368e+01,1.257e+01,1.215e+01,1.187e+01,1.278e+01,1.294e+01,1.559e+01,1.273e+01,1.560e+01,1.549e+01,1.502e+01,1.448e+01,1.383e+01,1.656e+01,1.988e+01,1.714e+01,1.623e+01,1.688e+01,1.735e+01,1.583e+01,1.836e+01,1.740e+01,1.692e+01,1.744e+01,1.676e+01,1.768e+01,1.691e+01,1.811e+01,1.713e+01,1.680e+01,1.628e+01,1.609e+01,1.792e+01,1.706e+01,1.562e+01,1.757e+01
3.930e-01,1.020e+00,9.238e-01,1.041e+00,1.589e+00,1.547e+00,1.299e+00,2.578e+00,2.535e+00,2.826e+00,3.931e+00,3.352e+00,3.487e+00,2.716e+00,2.499e+00,4.005e+00,4.141e+00,5.082e+00,4.222e+00,3.870e+00,4.513e+00,5.817e+00,5.525e+00,7.121e+00,6.285e+00,8.102e+00,6.647e+00,6.304e+00,7.042e+00,7.663e+00,7.575e+00,8.307e+00,8.693e+00,7.147e+00,8.659e+00,7.859e+00,8.999e+00,7.829e+00,8.323e+00,9.928e+00,9.541e+00,1.094e+01,1.053e+01,9.078e+00,1.332e+01,1.164e+01,1.194e+01,1.151e+01,1.437e+01,1.133e+01,1.324e+01,1.124e+01,1.084e+01,1.363e+01,1.313e+01,1.433e+01,1.512e+01,1.340e+01,1.347e+01,1.426e+01,1.781e+01,1.270e+01,1.649e+01,1.690e+01,1.704e+01,1.579e+01,1.383e+01,1.742e+01,1.913e+01,1.772e+01,1.459e+01,1.731e+01,1.793e+01,1.754e+01,1.811e+01,1.782e+01,1.491e+01,1.770e+01,1.772e+01,1.686e+01,1.756e+01,1.629e+01,1.812e+01,1.942e+01,1.816e+01,1.427e+01,1.708e+01,1.856e+01,1.853e+01,1.695e+01
6.651e-01,8.283e-01,6.734e-01,1.499e+00,1.971e+00,1.488e+00,2.142e+00,3.012e+00,3.296e+00,3.260e+00,4.407e+00,3.865e+00,4.412e+00,3.314e+00,3.061e+00,5.213e+00,6.165e+00,5.805e+00,5.232e+00,4.961e+00,4.904e+00,6.184e+00,6.043e+00,6.675e+00,7.323e+00,8.527e+00,7.306e+00,6.743e+00,6.819e+00,7.368e+00,8.878e+00,9.019e+00,9.031e+00,6.359e+00,8.578e+00,7.800e+00,9.789e+00,8.931e+00,8.518e+00,9.571e+00,9.539e+00,9.981e+00,1.254e+01,9.094e+00,1.294e+01,1.084e+01,1.134e+01,1.190e+01,1.412e+01,1.084e+01,1.428e+01,1.164e+01,1.197e+01,1.394e+01,1.500e+01,1.441e+01,1.551e+01,1.251e+01,1.347e+01,1.402e+01,1.846e+01,1.374e+01,1.796e+01,1.773e+01,1.739e+01,1.613e+01,1.534e+01,1.903e+01,2.126e+01,2.130e+01,1.609e+01,1.996e+01,1.769e+01,1.907e+01,2.136e+01,2.038e+01,1.851e+01,2.095e+01,1.983e+01,2.103e+01,1.921e+01,1.872e+01,2.050e+01,2.147e+01,1.939e+01,1.757e+01,2.074e+01,1.918e+01,1.868e+01,1.922e+01
2.289e-01,8.047e-01,5.615e-01,1.330e+00,1.573e+00,1.554e+00,1.520e+00,2.839e+00,2.768e+00,3.229e+00,3.234e+00,3.390e+00,3.809e+00,3.432e+00,2.839e+00,4.553e+00,5.213e+00,5.255e+00,5.505e+00,4.944e+00,4.859e+00,6.294e+00,5.601e+00,7.414e+00,7.749e+00,9.857e+00,7.722e+00,8.212e+00,7.822e+00,8.385e+00,1.002e+01,8.603e+00,9.140e+00,8.790e+00,9.966e+00,8.928e+00,1.152e+01,1.060e+01,1.131e+01,1.249e+01,1.149e+01,1.311e+01,1.307e+01,1.174e+01,1.675e+01,1.341e+01,1.210e+01,1.322e+01,1.660e+01,1.236e+01,1.582e+01,1.362e+01,1.386e+01,1.454e+01,1.558e+01,1.472e+01,1.573e+01,1.411e+01,1.644e+01,1.546e+01,1.860e+01,1.480e+01,1.895e+01,1.818e+01,1.963e+01,1.689e+01,1.613e+01,2.045e+01,2.317e+01,2.141e+01,1.852e+01,2.076e+01,1.906e+01,1.969e+01,2.293e+01,2.242e+01,2.046e+01,2.057e+01,1.995e+01,2.226e+01,2.192e+01,2.158e+01,2.311e+01,2.212e+01,2.120e+01,1.896e+01,2.284e+01,1.977e+01,2.040e+01,2.007e+01
3.111e-01,7.853e-01,6.302e-01,9.289e-01,1.197e+00,1.168e+00,1.173e+00,2.073e+00,2.225e+00,2.447e+00,3.358e+00,2.841e+00,3.749e+00,3.021e+00,2.535e+00,4.148e+00,5.083e+00,5.917e+00,5.826e+00,5.075e+00,5.338e+00,6.763e+00,6.569e+00,7.553e+00,7.509e+00,8.542e+00,8.027e+00,7.049e+00,6.789e+00,7.925e+00,9.069e+00,9.111e+00,8.014e+00,7.732e+00,8.119e+00,8.376e+00,1.002e+01,8.118e+00,7.743e+00,1.110e+01,9.960e+00,1.070e+01,1.093e+01,9.904e+00,1.315e+01,1.106e+01,1.022e+01,1.149e+01,1.426e+01,1.106e+01,1.395e+01,1.189e+01,1.090e+01,1.148e+01,1.322e+01,1.222e+01,1.280e+01,1.224e+01,1.168e+01,1.331e+01,1.614e+01,1.287e+01,1.643e+01,1.493e+01,1.383e+01,1.468e+01,1.470e+01,1.763e+01,1.878e+01,1.797e+01,1.416e+01,1.570e+01,1.733e+01,1.687e+01,1.711e+01,1.699e+01,1.714e+01,1.817e+01,1.666e+01,1.877e+01,1.740e+01,1.767e+01,1.917e+01,1.716e+01,1.805e+01,1.719e+01,1.967e+01,1.988e+01,1.811e+01,1.806e+01
3.303e-01,4.220e-01,3.579e-01,5.581e-01,9.860e-01,8.448e-01,1.041e+00,1.845e+00,1.685e+00,1.931e+00,2.312e+00,2.340e+00,2.477e+00,2.204e+00,2.117e+00,2.815e+00,4.010e+00,3.884e+00,3.651e+00,3.837e+00,3.568e+00,4.108e+00,4.800e+00,6.000e+00,6.455e+00,8.019e+00,6.466e+00,7.288e+00,7.043e+00,7.232e+00,8.270e+00,7.181e+00,6.885e+00,6.757e+00,7.573e+00,7.452e+00,9.550e+00,8.210e+00,7.904e+00,1.071e+01,9.892e+00,1.243e+01,1.060e+01,8.541e+00,1.222e+01,1.120e+01,8.781e+00,1.016e+01,1.406e+01,9.965e+00,1.321e+01,1.215e+01,9.653e+00,1.226e+01,1.312e+01,1.225e+01,1.222e+01,1.074e+01,1.309e+01,1.311e+01,1.651e+01,1.363e+01,1.529e+01,1.521e+01,1.417e+01,1.588e+01,1.396e+01,1.756e+01,1.862e+01,1.750e+01,1.567e+01,1.550e+01,1.687e+01,1.700e+01,1.853e+01,1.999e+01,1.965e+01,1.725e+01,1.952e+01,1.884e+01,1.758e+01,1.927e+01,2.079e+01,1.908e+01,1.952e+01,1.698e+01,2.050e+01,1.848e+01,1.737e+01,1.816e+01
6.973e-01,1.069e+00,9.373e-01,9.445e-01,1.710e+00,1.403e+00,1.127e+00,2.629e+00,2.670e+00,2.525e+00,3.709e+00,3.320e+00,3.552e+00,3.439e+00,2.881e+00,4.499e+00,5.293e+00,5.272e+00,5.877e+00,5.400e+00,5.274e+00,6.030e+00,6.919e+00,7.404e+00,7.572e+00,8.496e+00,7.020e+00,7.194e+00,6.529e+00,6.474e+00,8.698e+00,8.485e+00,8.653e+00,6.868e+00,7.662e+00,7.675e+00,9.306e+00,8.298e+00,8.354e+00,1.046e+01,1.021e+01,1.029e+01,1.243e+01,7.845e+00,1.252e+01,1.118e+01,1.077e+01,1.097e+01,1.425e+01,1.059e+01,1.482e+01,1.276e+01,1.278e+01,1.362e+01,1.445e+01,1.256e+01,1.518e+01,1.152e+01,1.280e+01,1.309e+01,1.682e+01,1.461e+01,1.914e+01,1.640e+01,1.703e+01,1.636e+01,1.588e+01,1.803e+01,2.186e+01,1.996e+01,1.488e+01,1.721e+01,1.934e+01,1.859e+01,1.905e+01,1.892e+01,1.790e+01,1.890e+01,1.905e+01,1.857e+01,2.069e+01,1.887e+01,1.880e+01,2.130e+01,1.808e+01,1.705e+01,2.036e+01,1.932e+01,2.005e+01,2.034e+01
7.406e-01,1.304e+00,1.002e+00,1.558e+00,2.078e+00,1.747e+00,1.675e+00,3.104e+00,2.915e+00,2.664e+00,3.135e+00,2.665e+00,3.083e+00,3.551e+00,2.324e+00,4.073e+00,4.586e+00,5.844e+00,5.341e+00,4.916e+00,4.585e+00,6.462e+00,5.616e+00,7.677e+00,7.351e+00,9.663e+00,8.709e+00,8.813e+00,8.150e+00,9.030e+00,9.949e+00,1.022e+01,9.687e+00,7.856e+00,8.048e+00,8.048e+00,1.102e+01,1.040e+01,9.392e+00,1.125e+01,9.712e+00,1.054e+01,1.166e+01,9.483e+00,1.342e+01,1.132e+01,1.095e+01,1.246e+01,1.554e+01,1.056e+01,1.389e+01,1.241e+01,1.152e+01,1.248e+01,1.630e+01,1.358e+01,1.562e+01,1.383e+01,1.570e+01,1.628e+01,1.922e+01,1.363e+01,1.776e+01,1.769e+01,1.556e+01,1.523e+01,1.586e+01,1.977e+01,1.983e+01,1.909e+01,1.611e+01,1.726e+01,1.730e+01,1.824e+01,1.891e+01,1.894e+01,2.101e+01,1.976e+01,2.042e+01,2.129e+01,1.927e+01,2.054e+01,2.124e+01,2.103e+01,2.086e+01,1.753e+01,2.196e+01,2.113e+01,2.037e+01,1.851e+01
1.272e-01,6.381e-01,5.454e-01,1.104e+00,1.368e+00,1.441e+00,1.450e+00,2.442e+00,2.135e+00,2.465e+00,2.905e+00,2.936e+00,3.337e+00,3.262e+00,2.555e+00,3.713e+00,4.736e+00,5.528e+00,5.549e+00,4.706e+00,4.003e+00,5.928e+00,5.839e+00,7.318e+00,7.038e+00,8.286e+00,7.370e+00,7.439e+00,8.025e+00,8.605e+00,8.873e+00,8.144e+00,8.503e+00,7.403e+00,8.696e+00,8.379e+00,1.035e+01,9.317e+00,8.969e+00,1.120e+01,1.121e+01,1.182e+01,1.274e+01,1.020e+01,1.567e+01,1.245e+01,1.252e+01,1.338e+01,1.588e+01,1.164e+01,1.547e+01,1.327e+01,1.326e+01,1.450e+01,1.562e+01,1.520e+01,1.668e+01,1.498e+01,1.523e+01,1.614e+01,1.947e+01,1.544e+01,2.011e+01,1.845e+01,1.819e+01,1.742e+01,1.624e+01,2.107e+01,2.356e+01,2.111e+01,1.750e+01,2.035e+01,2.118e+01,1.971e+01,2.134e+01,2.198e+01,2.114e+01,2.153e+01,2.261e+01,2.226e+01,2.207e+01,2.190e+01,2.271e+01,2.275e+01,2.207e+01,2.016e+01,2.248e+01,2.267e+01,2.270e+01,2.138e+01
2.188e-02,3.274e-01,3.863e-01,8.983e-01,1.177e+00,1.153e+00,1.310e+00,1.988e+00,2.257e+00,2.673e+00,4.027e+00,3.574e+00,3.853e+00,2.686e+00,2.392e+00,5.325e+00,5.988e+00,6.162e+00,6.850e+00,5.264e+00,5.658e+00,6.302e+00,7.062e+00,8.075e+00,7.780e+00,8.292e+00,8.535e+00,7.296e+00,7.608e+00,7.558e+00,1.012e+01,9.130e+00,8.041e+00,8.504e+00,9.752e+00,8.084e+00,1.039e+01,8.765e+00,8.114e+00,1.063e+01,9.791e+00,1.124e+01,1.151e+01,8.618e+00,1.274e+01,1.122e+01,9.982e+00,1.046e+01,1.332e+01,1.108e+01,1.345e+01,1.172e+01,1.123e+01,1.278e+01,1.333e+01,1.130e+01,1.303e+01,1.164e+01,1.240e+01,1.318e+01,1.452e+01,1.207e+01,1.568e+01,1.494e+01,1.395e+01,1.410e+01,1.302e+01,1.611e+01,1.761e+01,1.723e+01,1.410e+01,1.801e+01,1.699e+01,1.767e+01,1.640e+01,1.736e+01,1.706e+01,1.712e+01,1.792e+01,1.901e+01,1.852e+01,1.754e+01,1.787e+01,1.877e+01,1.845e+01,1.578e+01,1.933e+01,2.065e+01,1.888e+01,1.899e+01
5.144e-01,7.800e-01,6.158e-01,8.366e-01,1.420e+00,1.133e+00,1.121e+00,2.309e+00,2.360e+00,2.699e+00,3.530e+00,3.008e+00,3.242e+00,2.758e+00,2.283e+00,4.511e+00,5.124e+00,5.010e+00,4.802e+00,4.729e+00,5.132e+00,5.364e+00,5.838e+00,5.975e+00,6.270e+00,7.862e+00,6.485e+00,6.232e+00,5.061e+00,6.201e+00,8.462e+00,7.239e+00,7.028e+00,6.625e+00,8.109e+00,7.476e+00,9.961e+00,7.999e+00,8.454e+00,1.100e+01,9.477e+00,1.081e+01,1.068e+01,1.018e+01,1.244e+01,1.199e+01,1.126e+01,9.150e+00,1.393e+01,1.109e+01,1.388e+01,1.101e+01,1.238e+01,1.381e+01,1.439e+01,1.261e+01,1.550e+01,1.222e+01,1.306e+01,1.274e+01,1.737e+01,1.281e+01,1.758e+01,1.775e+01,1.719e+01,1.624e+01,1.469e+01,1.752e+01,2.013e+01,1.921e+01,1.494e+01,1.838e+01,1.945e+01,1.729e+01,1.952e+01,1.984e+01,1.949e+01,1.855e+01,1.964e+01,1.869e+01,2.035e+01,1.856e+01,2.094e+01,2.143e+01,1.899e+01,1.655e+01,2.066e+01,1.948e+01,1.909e+01,1.958e+01
2.100e-01,2.578e-01,4.108e-01,5.786e-01,1.269e+00,1.132e+00,4.973e-01,2.119e+00,1.851e+00,1.851e+00,2.420e+00,2.445e+00,2.642e+00,2.058e+00,2.110e+00,2.736e+00,3.571e+00,3.653e+00,4.717e+00,3.912e+00,3.959e+00,4.331e+00,5.175e+00,5.577e+00,5.627e+00,6.310e+00,4.732e+00,5.432e+00,5.853e+00,5.378e+00,7.616e+00,6.100e+00,7.284e+00,5.829e+00,7.763e+00,6.432e+00,7.888e+00,6.431e+00,7.410e+00,8.689e+00,8.966e+00,8.963e+00,9.433e+00,8.307e+00,1.098e+01,1.061e+01,9.556e+00,1.071e+01,1.181e+01,1.076e+01,1.379e+01,1.080e+01,1.022e+01,1.335e+01,1.215e+01,1.185e+01,1.336e+01,1.156e+01,1.238e+01,1.302e+01,1.566e+01,1.308e+01,1.602e+01,1.591e+01,1.560e+01,1.616e+01,1.522e+01,1.735e+01,1.959e+01,1.829e+01,1.523e+01,1.846e+01,1.887e+01,1.620e+01,1.929e+01,1.945e+01,1.750e+01,1.955e+01,1.904e+01,1.997e+01,1.924e+01,2.009e+01,2.088e+01,2.219e+01,2.159e+01,1.862e+01,2.112e+01,2.049e+01,2.073e+01,2.165e+01
1.605e-02,3.044e-01,2.465e-01,6.358e-01,7.420e-01,8.584e-01,1.252e+00,1.769e+00,2.083e+00,2.503e+00,3.051e+00,3.027e+00,3.277e+00,2.497e+00,2.632e+00,4.045e+00,4.804e+00,5.343e+00,5.097e+00,4.464e+00,4.581e+00,5.814e+00,5.517e+00,6.242e+00,6.182e+00,8.628e+00,7.331e+00,6.867e+00,6.742e+00,6.524e+00,7.702e+00,6.741e+00,7.266e+00,6.694e+00,7.860e+00,6.840e+00,8.676e+00,7.288e+00,7.537e+00,9.367e+00,9.322e+00,1.041e+01,1.064e+01,9.660e+00,1.272e+01,1.119e+01,1.018e+01,1.089e+01,1.338e+01,1.057e+01,1.364e+01,1.117e+01,1.182e+01,1.333e+01,1.402e+01,1.292e+01,1.282e+01,1.299e+01,1.242e+01,1.442e+01,1.643e+01,1.227e+01,1.716e+01,1.612e+01,1.572e+01,1.499e+01,1.462e+01,1.865e+01,1.926e+01,1.860e+01,1.376e+01,1.601e+01,1.714e+01,1.538e+01,1.731e+01,1.916e+01,1.799e+01,1.881e+01,1.898e+01,1.945e+01,1.908e+01,2.045e+01,1.974e+01,2.023e+01,1.890e+01,1.958e+01,2.229e+01,2.055e+01,1.995e+01,1.889e+01
4.866e-01,9.024e-01,6.376e-01,1.082e+00,1.197e+00,8.872e-01,1.251e+00,1.482e+00,1.811e+00,1.496e+00,2.106e+00,2.177e+00,2.577e+00,2.127e+00,2.092e+00,3.759e+00,3.827e+00,4.152e+00,4.347e+00,4.338e+00,3.602e+00,4.323e+00,4.646e+00,6.737e+00,6.560e+00,8.040e+00,8.337e+00,7.032e+00,7.163e+00,7.174e+00,8.552e+00,8.020e+00,7.632e+00,7.977e+00,8.028e+00,7.209e+00,8.413e+00,9.045e+00,8.585e+00,1.193e+01,8.869e+00,1.014e+01,1.035e+01,9.677e+00,1.237e+01,1.139e+01,1.113e+01,1.126e+01,1.403e+01,1.026e+01,1.200e+01,1.031e+01,1.125e+01,1.260e+01,1.471e+01,1.328e+01,1.456e+01,1.329e+01,1.413e+01,1.420e+01,1.779e+01,1.434e+01,1.719e+01,1.771e+01,1.635e+01,1.549e+01,1.572e+01,1.930e+01,2.128e+01,1.902e+01,1.765e+01,1.898e+01,1.860e+01,1.847e+01,2.043e+01,1.997e+01,2.132e+01,2.153e+01,2.254e+01,2.096e+01,2.059e+01,2.129e+01,2.405e+01,2.346e+01,2.334e+01,2.061e+01,2.326e+01,2.333e+01,2.242e+01,2.126e+01
2.479e-01,6.140e-01,4.953e-01,8.483e-01,9.965e-01,9.648e-01,1.206e+00,1.673e+00,1.674e+00,2.024e+00,2.893e+00,2.742e+00,3.475e+00,2.798e+00,2.588e+00,3.957e+00,4.772e+00,5.164e+00,5.231e+00,4.958e+00,3.935e+00,5.530e+00,5.769e+00,6.748e+00,6.648e+00,7.598e+00,7.210e+00,7.018e+00,7.137e+00,7.222e+00,8.676e+00,7.401e+00,7.675e+00,6.649e+00,7.847e+00,7.871e+00,8.907e+00,7.151e+00,8.106e+00,9.459e+00,1.041e+01,1.054e+01,1.200e+01,8.935e+00,1.327e+01,1.009e+01,1.125e+01,1.160e+01,1.365e+01,9.669e+00,1.376e+01,1.130e+01,1.143e+01,1.224e+01,1.200e+01,1.403e+01,1.373e+01,1.166e+01,1.016e+01,1.216e+01,1.555e+01,1.322e+01,1.659e+01,1.558e+01,1.620e+01,1.483e+01,1.437e+01,1.839e+01,2.185e+01,1.824e+01,1.569e+01,1.779e+01,1.871e+01,1.707e+01,1.686e+01,1.818e+01,1.745e+01,1.798e+01,1.829e+01,1.948e+01,1.846e+01,1.922e+01,2.133e+01,1.953e+01,1.857e+01,2.051e+01,2.063e+01,2.149e+01,2.149e+01,1.923e+01
7.638e-01,1.375e+00,1.074e+00,1.142e+00,1.525e+00,1.199e+00,8.784e-01,1.822e+00,1.875e+00,1.259e+00,1.977e+00,1.971e+00,2.411e+00,2.634e+00,2.213e+00,2.890e+00,3.392e+00,4.199e+00,4.468e+00,4.626e+00,3.759e+00,4.552e+00,4.772e+00,6.868e+00,5.654e+00,6.933e+00,6.875e+00,6.901e+00,6.630e+00,6.913e+00,8.332e+00,7.601e+00,7.448e+00,7.416e+00,7.355e+00,6.859e+00,8.619e+00,7.711e+00,8.074e+00,1.024e+01,9.988e+00,9.727e+00,1.133e+01,8.095e+00,1.267e+01,9.885e+00,1.012e+01,1.140e+01,1.316e+01,9.307e+00,1.207e+01,1.017e+01,9.767e+00,1.049e+01,1.253e+01,1.087e+01,1.252e+01,1.174e+01,1.199e+01,1.272e+01,1.397e+01,1.344e+01,1.444e+01,1.521e+01,1.363e+01,1.379e+01,1.484e+01,1.608e+01,1.895e+01,1.657e+01,1.525e+01,1.608e+01,1.696e+01,1.633e+01,1.749e+01,1.805e+01,1.830e+01,1.806e+01,1.761e+01,1.780e+01,1.826e+01,1.841e+01,1.942e+01,2.031e+01,1.815e+01,1.794e+01,2.165e+01,1.887e+01,1.975e+01,1.946e+01
6.744e-01,1.484e+00,1.102e+00,1.384e+00,1.582e+00,1.290e+00,7.557e-01,1.855e+00,2.406e+00,1.828e+00,3.066e+00,2.614e+00,4.157e+00,3.222e+00,2.945e+00,3.862e+00,4.282e+00,5.509e+00,5.520e+00,5.038e+00,5.260e+00,6.337e+00,6.347e+00,7.958e+00,7.483e+00,8.781e+00,8.298e+00,7.971e+00,8.014e+00,8.029e+00,9.318e+00,8.552e+00,8.424e+00,8.183e+00,7.968e+00,8.268e+00,9.328e+00,8.345e+00,8.830e+00,1.091e+01,1.028e+01,1.027e+01,1.195e+01,9.110e+00,1.258e+01,1.192e+01,1.073e+01,1.205e+01,1.419e+01,1.058e+01,1.421e+01,1.186e+01,1.169e+01,1.200e+01,1.322e+01,1.143e+01,1.438e+01,1.494e+01,1.308e+01,1.404e+01,1.673e+01,1.412e+01,1.589e+01,1.694e+01,1.542e+01,1.539e+01,1.645e+01,1.887e+01,2.157e+01,1.938e+01,1.630e+01,1.619e+01,1.899e+01,1.857e+01,1.835e+01,1.901e+01,1.784e+01,1.776e+01,1.785e+01,1.847e+01,1.866e+01,2.040e+01,2.110e+01,2.109e+01,2.034e+01,2.008e+01,2.257e+01,2.167e+01,2.138e+01,2.101e+01
5.647e-01,1.313e+00,1.144e+00,1.641e+00,2.236e+00,2.086e+00,1.882e+00,3.577e+00,3.732e+00,3.801e+00,4.868e+00,4.461e+00,4.525e+00,3.557e+00,3.235e+00,4.843e+00,5.332e+00,5.301e+00,5.124e+00,4.818e+00,5.055e+00,6.328e+00,6.117e+00,7.554e+00,7.315e+00,9.564e+00,6.825e+00,7.942e+00,7.193e+00,7.791e+00,7.893e+00,8.138e+00,8.141e+00,6.789e+00,7.541e+00,6.887e+00,9.954e+00,7.969e+00,7.768e+00,9.375e+00,9.248e+00,9.999e+00,1.054e+01,8.550e+00,1.251e+01,1.092e+01,9.925e+00,9.451e+00,1.260e+01,8.591e+00,1.292e+01,1.026e+01,1.012e+01,1.160e+01,1.236e+01,1.071e+01,1.341e+01,1.184e+01,1.166e+01,1.133e+01,1.500e+01,1.170e+01,1.541e+01,1.468e+01,1.596e+01,1.421e+01,1.351e+01,1.723e+01,1.792e+01,1.670e+01,1.458e+01,1.690e+01,1.479e+01,1.547e+01,1.793e+01,1.823e+01,1.746e+01,1.640e+01,1.977e+01,1.840e+01,1.808e+01,1.915e+01,1.991e+01,2.124e+01,1.834e+01,1.820e+01,2.210e+01,1.978e+01,2.050e+01,1.963e+01
5.486e-02,6.048e-01,4.521e-01,7.475e-01,6.735e-01,7.734e-01,8.476e-01,1.167e+00,1.690e+00,1.797e+00,2.729e+00,2.577e+00,3.259e+00,2.172e+00,2.480e+00,3.710e+00,3.726e+00,5.064e+00,5.206e+00,4.605e+00,4.515e+00,5.445e+00,5.283e+00,6.456e+00,6.177e+00,7.286e+00,6.716e+00,5.019e+00,6.388e+00,7.438e+00,7.908e+00,6.996e+00,6.736e+00,7.908e+00,9.150e+00,7.458e+00,8.465e+00,7.796e+00,8.547e+00,1.024e+01,9.043e+00,1.043e+01,9.739e+00,1.003e+01,1.360e+01,1.108e+01,1.158e+01,1.147e+01,1.341e+01,1.220e+01,1.475e+01,1.230e+01,1.175e+01,1.321e+01,1.355e+01,1.166e+01,1.205e+01,1.320e+01,1.292e+01,1.372e+01,1.525e+01,1.399e+01,1.630e+01,1.461e+01,1.544e+01,1.331e+01,1.466e+01,1.741e+01,1.976e+01,1.869e+01,1.535e+01,1.671e+01,1.680e+01,1.547e+01,1.919e+01,1.846e+01,1.631e+01,1.817e+01,1.881e+01,1.908e+01,1.922e+01,1.954e+01,2.181e+01,2.186e+01,1.944e+01,1.928e+01,2.141e+01,2.080e+01,2.215e+01,2.203e+01
4.850e-02,6.471e-01,5.841e-01,1.077e+00,1.227e+00,1.357e+00,1.006e+00,2.101e+00,2.188e+00,2.633e+00,3.422e+00,3.042e+00,3.780e+00,2.531e+00,2.430e+00,4.219e+00,4.245e+00,5.090e+00,4.796e+00,3.905e+00,4.730e+00,6.244e+00,4.761e+00,7.665e+00,6.199e+00,7.937e+00,6.922e+00,6.622e+00,6.710e+00,7.014e+00,7.242e+00,8.073e+00,8.607e+00,7.145e+00,8.005e+00,7.741e+00,8.664e+00,7.403e+00,8.655e+00,9.594e+00,9.287e+00,9.770e+00,1.050e+01,9.386e+00,1.329e+01,9.612e+00,1.125e+01,1.172e+01,1.315e+01,1.119e+01,1.278e+01,1.151e+01,1.162e+01,1.305e+01,1.309e+01,1.344e+01,1.345e+01,1.242e+01,1.244e+01,1.290e+01,1.605e+01,1.288e+01,1.724e+01,1.645e+01,1.704e+01,1.311e+01,1.552e+01,1.769e+01,2.071e+01,1.854e+01,1.635e+01,1.742e+01,1.776e+01,1.617e+01,1.862e+01,1.934e+01,1.625e+01,1.884e+01,1.915e+01,2.080e+01,2.261e+01,2.012e+01,2.129e+01,2.187e+01,2.021e+01,2.068e+01,2.285e+01,2.310e+01,2.302e+01,2.226e+01
