7.963e-02,7.649e-01,4.089e-01,7.443e-01,1.203e-01,1.125e-01,8.168e-01,4.876e-01,4.670e-01,1.113e-01,7.286e-01,2.017e-01,2.516e-01,2.900e-01,3.142e-01,1.526e-01,7.076e-01,3.918e-01,2.569e-01,8.320e-01,9.720e-01,8.523e-01,1.644e-01,9.188e-01,8.229e-01,4.866e-01,8.300e-01,4.224e-01,5.364e-01,1.662e-01,9.022e-01,2.369e-01,6.174e-01,4.980e-01,7.655e-02,4.911e-01,2.620e-01,9.586e-01,8.182e-01,4.213e-02,2.986e-01,7.459e-01,6.577e-01,1.286e-01,4.993e-01,7.095e-01,5.503e-01,3.789e-01,3.842e-01,1.932e-02,2.154e-01,1.536e-01,8.257e-02,5.106e-01,5.282e-01,3.562e-02,7.873e-01,7.188e-01,2.587e-01
3.980e-02,8.285e-01,1.082e+00,1.015e+00,2.398e-01,1.799e-01,5.534e-01,1.095e+00,6.668e-01,3.639e-01,9.415e-01,3.404e-01,5.746e-01,3.343e-01,6.408e-01,3.796e-01,7.286e-01,7.573e-01,7.270e-01,4.179e-01,9.206e-01,6.384e-01,1.030e-01,8.439e-01,1.229e+00,7.515e-01,1.343e+00,5.118e-01,1.258e+00,4.552e-01,9.529e-01,7.281e-01,1.092e+00,6.642e-01,5.995e-01,4.046e-01,8.602e-01,7.513e-01,8.050e-01,2.255e-01,6.970e-01,9.712e-01,5.520e-01,5.213e-01,1.109e+00,4.498e-01,4.550e-01,9.351e-01,7.749e-01,7.896e-01,1.116e-01,6.096e-01,7.255e-01,3.110e-01,7.596e-01,5.549e-01,6.549e-01,8.049e-01,6.586e-01
4.880e-02,5.827e-01,4.902e-01,1.568e+00,3.725e-01,1.155e-01,1.107e+00,1.038e+00,9.162e-01,9.871e-01,9.202e-01,4.207e-01,9.609e-01,4.239e-01,1.210e+00,1.729e-01,8.921e-01,9.523e-01,5.736e-01,5.193e-01,1.551e+00,1.368e+00,8.153e-01,1.305e+00,1.660e+00,1.226e+00,1.247e+00,3.943e-01,1.337e+00,8.623e-01,1.596e+00,6.693e-01,6.522e-01,8.667e-01,4.641e-01,6.260e-01,1.234e+00,1.439e+00,1.144e+00,2.824e-01,7.854e-01,1.110e+00,9.139e-01,6.234e-01,8.285e-01,5.135e-01,6.103e-01,1.072e+00,8.679e-01,3.234e-01,4.964e-01,5.225e-01,4.936e-01,9.330e-01,6.770e-01,1.069e+00,7.287e-01,1.493e+00,5.193e-01
3.697e-02,6.836e-01,8.472e-01,2.035e+00,3.863e-01,1.079e+00,1.719e+00,2.162e+00,1.401e+00,9.473e-01,1.562e+00,1.100e+00,1.321e+00,1.011e+00,2.080e+00,3.411e-01,8.856e-01,1.587e+00,9.942e-01,8.117e-01,1.712e+00,1.482e+00,9.987e-01,1.383e+00,2.608e+00,1.218e+00,2.354e+00,1.014e+00,2.398e+00,1.697e+00,1.563e+00,1.088e+00,1.669e+00,1.295e+00,1.637e+00,8.317e-01,1.860e+00,1.297e+00,1.981e+00,9.593e-01,1.036e+00,1.773e+00,1.467e+00,1.021e+00,1.588e+00,1.113e+00,6.384e-01,1.462e+00,1.642e+00,8.718e-01,1.023e+00,1.108e+00,1.148e+00,1.630e+00,1.036e+00,1.920e+00,1.179e+00,1.716e+00,1.585e+00
3.757e-02,4.081e-01,2.906e-01,1.109e+00,7.716e-01,1.763e+00,1.481e+00,2.199e+00,1.752e+00,5.019e-01,1.858e+00,1.003e+00,7.677e-01,1.245e+00,1.951e+00,6.071e-01,9.153e-01,1.667e+00,1.247e+00,1.441e+00,1.720e+00,1.777e+00,7.624e-01,1.717e+00,1.667e+00,1.485e+00,2.225e+00,6.895e-01,1.702e+00,1.684e+00,1.016e+00,1.468e+00,1.219e+00,1.397e+00,1.549e+00,1.290e+00,1.094e+00,1.504e+00,1.873e+00,1.556e+00,1.040e+00,1.081e+00,1.979e+00,1.035e+00,1.252e+00,1.733e+00,1.098e+00,1.491e+00,1.385e+00,1.020e+00,1.536e+00,7.336e-01,5.321e-01,2.048e+00,1.050e+00,1.582e+00,1.186e+00,1.216e+00,1.097e+00
2.956e-02,4.112e-01,4.112e-01,1.346e+00,7.262e-01,1.664e+00,1.466e+00,2.517e+00,2.576e+00,1.706e+00,1.910e+00,1.004e+00,1.627e+00,1.437e+00,2.152e+00,1.477e+00,1.211e+00,1.874e+00,1.954e+00,1.483e+00,2.700e+00,2.546e+00,9.093e-01,2.058e+00,2.515e+00,1.694e+00,2.970e+00,1.033e+00,2.200e+00,2.052e+00,2.141e+00,1.859e+00,1.679e+00,2.094e+00,1.784e+00,1.687e+00,1.602e+00,1.682e+00,2.756e+00,1.572e+00,2.082e+00,2.105e+00,2.080e+00,1.980e+00,2.222e+00,2.368e+00,1.739e+00,2.364e+00,1.707e+00,1.341e+00,1.404e+00,1.202e+00,7.532e-01,2.290e+00,1.867e+00,2.398e+00,1.209e+00,1.412e+00,1.982e+00
3.031e-02,3.465e-01,2.670e-01,1.023e+00,4.046e-01,1.483e+00,1.460e+00,2.846e+00,1.569e+00,1.410e+00,1.555e+00,1.625e+00,1.770e+00,1.724e+00,1.893e+00,1.533e+00,9.591e-01,2.140e+00,1.874e+00,1.232e+00,2.130e+00,1.559e+00,1.315e+00,1.507e+00,2.367e+00,1.662e+00,2.827e+00,1.693e+00,2.545e+00,2.329e+00,1.874e+00,2.022e+00,1.661e+00,1.402e+00,1.870e+00,1.524e+00,1.458e+00,1.051e+00,1.937e+00,1.829e+00,9.085e-01,1.386e+00,2.472e+00,9.947e-01,1.535e+00,2.399e+00,9.117e-01,1.412e+00,1.374e+00,8.687e-01,1.205e+00,1.746e+00,1.138e+00,2.311e+00,1.593e+00,2.295e+00,1.663e+00,1.477e+00,1.931e+00
2.885e-02,2.807e-01,1.602e-01,7.206e-01,4.715e-01,9.316e-01,9.034e-01,2.257e+00,2.197e+00,1.114e+00,1.469e+00,1.097e+00,1.486e+00,1.867e+00,1.469e+00,9.966e-01,1.090e+00,1.859e+00,1.983e+00,1.904e+00,2.457e+00,1.516e+00,1.321e+00,1.871e+00,2.333e+00,1.688e+00,2.769e+00,8.372e-01,2.071e+00,2.028e+00,1.898e+00,1.420e+00,1.496e+00,2.167e+00,1.445e+00,2.091e+00,8.980e-01,1.212e+00,1.506e+00,2.009e+00,1.594e+00,1.268e+00,1.984e+00,1.759e+00,2.039e+00,1.646e+00,1.033e+00,1.595e+00,1.718e+00,9.650e-01,1.497e+00,1.695e+00,1.177e+00,2.475e+00,1.616e+00,1.464e+00,1.263e+00,1.549e+00,1.223e+00
2.955e-02,6.877e-01,9.506e-01,1.293e+00,5.678e-01,9.216e-01,1.055e+00,2.801e+00,2.198e+00,2.254e+00,1.662e+00,1.550e+00,2.746e+00,2.031e+00,2.298e+00,2.315e+00,2.134e+00,2.793e+00,2.608e+00,1.658e+00,2.548e+00,1.901e+00,1.651e+00,1.958e+00,2.639e+00,3.027e+00,2.930e+00,2.206e+00,3.246e+00,2.247e+00,2.208e+00,2.289e+00,1.789e+00,2.272e+00,2.057e+00,1.997e+00,1.880e+00,1.381e+00,2.533e+00,2.507e+00,1.692e+00,1.984e+00,2.598e+00,1.647e+00,2.570e+00,2.123e+00,1.576e+00,2.389e+00,1.943e+00,1.704e+00,1.226e+00,2.571e+00,2.114e+00,2.650e+00,2.078e+00,2.959e+00,1.921e+00,1.807e+00,1.970e+00
7.623e-02,1.085e+00,1.089e+00,1.876e+00,8.166e-01,2.007e+00,2.036e+00,3.722e+00,3.415e+00,2.257e+00,3.652e+00,2.391e+00,3.411e+00,3.350e+00,3.811e+00,2.067e+00,2.918e+00,3.417e+00,3.027e+00,3.026e+00,4.329e+00,3.634e+00,2.546e+00,3.389e+00,4.500e+00,3.777e+00,4.428e+00,2.745e+00,4.361e+00,3.469e+00,3.571e+00,3.324e+00,3.761e+00,3.563e+00,3.382e+00,2.935e+00,2.146e+00,2.550e+00,3.779e+00,3.242e+00,3.266e+00,2.892e+00,3.554e+00,2.674e+00,4.274e+00,3.340e+00,2.772e+00,3.136e+00,3.678e+00,2.519e+00,2.919e+00,2.569e+00,2.311e+00,4.648e+00,2.822e+00,3.617e+00,3.194e+00,2.693e+00,3.172e+00
5.264e-02,8.821e-01,1.017e+00,1.427e+00,6.724e-01,9.440e-01,1.197e+00,3.321e+00,3.066e+00,3.374e+00,2.875e+00,2.047e+00,3.866e+00,2.840e+00,3.062e+00,3.379e+00,3.619e+00,3.497e+00,4.361e+00,2.603e+00,4.436e+00,3.269e+00,3.096e+00,3.307e+00,4.406e+00,4.754e+00,4.554e+00,2.962e+00,4.907e+00,3.718e+00,4.552e+00,3.581e+00,3.402e+00,4.076e+00,2.395e+00,3.755e+00,2.302e+00,2.898e+00,3.552e+00,3.003e+00,3.752e+00,3.213e+00,3.350e+00,2.988e+00,4.336e+00,3.268e+00,2.923e+00,4.137e+00,3.074e+00,2.527e+00,2.060e+00,4.006e+00,3.061e+00,4.273e+00,3.789e+00,4.555e+00,2.575e+00,2.961e+00,3.721e+00
6.188e-02,7.968e-01,7.226e-01,1.713e+00,7.160e-01,1.735e+00,1.873e+00,3.117e+00,2.798e+00,1.927e+00,3.034e+00,2.409e+00,2.617e+00,3.281e+00,4.100e+00,2.350e+00,2.873e+00,3.429e+00,3.740e+00,3.110e+00,4.127e+00,3.968e+00,3.160e+00,3.243e+00,4.491e+00,4.028e+00,4.529e+00,2.174e+00,4.466e+00,3.706e+00,3.672e+00,3.016e+00,4.030e+00,4.110e+00,3.515e+00,3.177e+00,2.219e+00,2.666e+00,3.398e+00,3.111e+00,3.827e+00,2.965e+00,3.350e+00,2.446e+00,3.781e+00,3.187e+00,2.491e+00,3.282e+00,3.940e+00,2.641e+00,2.587e+00,3.214e+00,2.705e+00,4.096e+00,3.176e+00,3.989e+00,3.162e+00,3.270e+00,3.216e+00
1.801e-02,5.445e-01,8.381e-01,1.717e+00,9.297e-01,1.218e+00,1.299e+00,3.402e+00,2.905e+00,2.694e+00,3.370e+00,2.526e+00,3.848e+00,4.385e+00,4.503e+00,2.501e+00,3.696e+00,3.887e+00,4.813e+00,2.720e+00,5.229e+00,4.109e+00,4.926e+00,3.917e+00,6.055e+00,5.634e+00,5.853e+00,2.097e+00,5.351e+00,4.503e+00,5.179e+00,4.845e+00,4.944e+00,5.388e+00,4.233e+00,4.411e+00,2.811e+00,3.221e+00,3.688e+00,3.786e+00,5.473e+00,2.979e+00,3.550e+00,3.263e+00,5.055e+00,3.611e+00,2.956e+00,4.037e+00,4.682e+00,3.219e+00,3.027e+00,4.239e+00,4.095e+00,5.154e+00,3.761e+00,5.498e+00,3.329e+00,3.996e+00,4.007e+00
7.742e-02,8.914e-01,7.008e-01,1.835e+00,8.437e-01,1.146e+00,1.759e+00,3.317e+00,2.973e+00,2.175e+00,3.216e+00,2.403e+00,3.054e+00,4.006e+00,4.542e+00,2.689e+00,4.079e+00,4.542e+00,4.060e+00,3.826e+00,4.873e+00,4.023e+00,3.960e+00,4.281e+00,5.201e+00,5.646e+00,5.064e+00,2.958e+00,5.536e+00,4.231e+00,4.547e+00,4.142e+00,4.175e+00,4.736e+00,3.485e+00,4.157e+00,3.038e+00,3.793e+00,3.878e+00,4.045e+00,4.511e+00,3.472e+00,4.259e+00,3.172e+00,4.819e+00,3.235e+00,3.151e+00,4.036e+00,4.860e+00,3.455e+00,3.661e+00,4.350e+00,3.302e+00,5.597e+00,3.604e+00,4.283e+00,3.244e+00,4.858e+00,3.343e+00
6.966e-02,1.059e+00,1.127e+00,1.714e+00,3.399e-01,9.427e-01,1.580e+00,2.714e+00,1.958e+00,2.366e+00,2.780e+00,2.362e+00,3.976e+00,3.966e+00,4.140e+00,3.322e+00,4.533e+00,4.317e+00,3.296e+00,2.759e+00,4.440e+00,3.346e+00,4.937e+00,3.550e+00,5.298e+00,4.935e+00,5.340e+00,4.442e+00,5.205e+00,3.986e+00,4.616e+00,5.154e+00,4.929e+00,4.071e+00,4.386e+00,3.329e+00,3.188e+00,2.873e+00,4.991e+00,3.703e+00,4.544e+00,3.536e+00,4.045e+00,3.067e+00,5.139e+00,4.384e+00,3.924e+00,3.484e+00,4.236e+00,3.194e+00,3.159e+00,4.173e+00,3.752e+00,5.618e+00,3.287e+00,5.621e+00,4.069e+00,3.647e+00,4.395e+00
5.651e-02,9.426e-01,1.088e+00,2.249e+00,6.888e-01,1.401e+00,2.008e+00,4.011e+00,3.156e+00,3.370e+00,3.180e+00,2.728e+00,4.733e+00,4.141e+00,4.437e+00,3.341e+00,4.092e+00,5.401e+00,3.654e+00,2.943e+00,5.678e+00,3.843e+00,4.631e+00,4.025e+00,6.027e+00,5.879e+00,5.730e+00,4.004e+00,6.072e+00,4.365e+00,5.648e+00,5.187e+00,4.925e+00,4.894e+00,4.721e+00,3.477e+00,3.591e+00,3.697e+00,5.204e+00,4.260e+00,4.497e+00,3.581e+00,5.007e+00,3.232e+00,5.704e+00,4.896e+00,3.854e+00,4.341e+00,4.291e+00,3.405e+00,3.826e+00,4.824e+00,3.716e+00,6.330e+00,3.617e+00,6.164e+00,4.005e+00,4.689e+00,4.362e+00
3.034e-02,4.252e-01,4.306e-01,1.562e+00,8.264e-01,1.651e+00,1.621e+00,2.544e+00,2.277e+00,1.633e+00,3.140e+00,2.066e+00,2.558e+00,3.453e+00,4.694e+00,2.865e+00,4.720e+00,5.542e+00,3.486e+00,3.996e+00,5.120e+00,4.909e+00,5.298e+00,5.024e+00,6.069e+00,5.944e+00,5.727e+00,3.911e+00,5.847e+00,5.345e+00,5.655e+00,5.221e+00,5.755e+00,5.298e+00,5.456e+00,4.035e+00,4.232e+00,5.055e+00,5.659e+00,4.106e+00,5.693e+00,3.905e+00,5.166e+00,4.413e+00,5.680e+00,5.103e+00,4.521e+00,5.057e+00,5.597e+00,4.651e+00,5.442e+00,4.612e+00,3.452e+00,6.600e+00,4.083e+00,6.625e+00,3.695e+00,5.352e+00,4.702e+00
2.523e-02,6.585e-01,9.622e-01,2.209e+00,1.003e+00,1.984e+00,2.036e+00,4.255e+00,3.038e+00,2.738e+00,3.557e+00,2.809e+00,3.961e+00,3.921e+00,4.659e+00,2.461e+00,3.415e+00,4.968e+00,4.224e+00,2.986e+00,5.180e+00,4.840e+00,5.152e+00,4.494e+00,6.129e+00,5.969e+00,6.364e+00,3.111e+00,6.140e+00,5.076e+00,5.412e+00,4.926e+00,5.352e+00,4.622e+00,5.112e+00,4.483e+00,4.128e+00,3.962e+00,5.146e+00,4.063e+00,4.981e+00,3.449e+00,5.415e+00,3.960e+00,5.635e+00,4.358e+00,3.764e+00,4.983e+00,4.914e+00,3.535e+00,4.651e+00,4.100e+00,4.407e+00,6.117e+00,3.756e+00,6.629e+00,3.705e+00,4.424e+00,4.119e+00
4.661e-02,5.147e-01,3.800e-01,1.173e+00,5.319e-01,8.944e-01,1.142e+00,1.953e+00,2.359e+00,1.800e+00,2.169e+00,1.597e+00,2.053e+00,2.909e+00,3.784e+00,3.235e+00,3.806e+00,4.085e+00,3.958e+00,3.494e+00,5.124e+00,5.088e+00,4.782e+00,4.427e+00,4.495e+00,5.166e+00,5.967e+00,3.220e+00,5.040e+00,4.532e+00,5.334e+00,4.812e+00,4.536e+00,4.923e+00,3.884e+00,4.773e+00,3.639e+00,4.011e+00,5.061e+00,3.820e+00,6.175e+00,4.170e+00,4.457e+00,4.960e+00,5.270e+00,4.260e+00,4.837e+00,5.355e+00,4.742e+00,3.737e+00,4.429e+00,4.607e+00,3.444e+00,5.797e+00,3.941e+00,5.391e+00,3.568e+00,4.738e+00,3.862e+00
2.683e-02,4.035e-01,4.330e-01,1.164e+00,4.316e-01,7.170e-01,1.069e+00,2.093e+00,1.460e+00,1.755e+00,1.521e+00,1.392e+00,2.407e+00,2.372e+00,2.636e+00,2.084e+00,2.904e+00,3.498e+00,2.493e+00,2.831e+00,3.767e+00,4.511e+00,4.477e+00,4.413e+00,5.129e+00,4.695e+00,4.365e+00,4.101e+00,4.938e+00,4.038e+00,4.294e+00,3.954e+00,3.468e+00,3.314e+00,3.929e+00,4.439e+00,4.516e+00,3.353e+00,4.656e+00,3.833e+00,3.964e+00,3.842e+00,4.059e+00,3.720e+00,4.038e+00,4.363e+00,3.228e+00,3.851e+00,3.739e+00,3.290e+00,3.727e+00,3.119e+00,3.446e+00,4.982e+00,3.574e+00,4.995e+00,2.970e+00,3.367e+00,3.239e+00
3.085e-02,7.321e-01,1.024e+00,1.788e+00,8.388e-01,1.641e+00,1.552e+00,3.140e+00,2.894e+00,2.131e+00,2.535e+00,2.005e+00,2.989e+00,3.768e+00,4.284e+00,2.970e+00,3.694e+00,4.726e+00,4.336e+00,3.871e+00,5.777e+00,6.308e+00,5.344e+00,5.358e+00,7.326e+00,6.980e+00,6.536e+00,4.224e+00,6.336e+00,5.629e+00,5.573e+00,5.410e+00,5.927e+00,6.317e+00,5.972e+00,6.136e+00,5.911e+00,4.042e+00,6.338e+00,5.239e+00,6.512e+00,5.606e+00,5.477e+00,4.714e+00,6.512e+00,5.883e+00,4.279e+00,5.918e+00,5.667e+00,5.067e+00,5.091e+00,4.917e+00,4.939e+00,5.910e+00,4.674e+00,7.056e+00,4.515e+00,4.512e+00,5.006e+00
3.174e-02,3.231e-01,2.018e-01,8.992e-01,2.055e-01,9.974e-01,1.153e+00,2.119e+00,1.847e+00,1.229e+00,2.099e+00,1.840e+00,2.287e+00,3.169e+00,2.821e+00,1.738e+00,2.834e+00,3.208e+00,3.228e+00,3.267e+00,4.666e+00,4.191e+00,4.596e+00,4.657e+00,6.469e+00,4.702e+00,5.552e+00,3.698e+00,5.506e+00,4.585e+00,5.573e+00,4.195e+00,5.177e+00,5.939e+00,5.045e+00,5.127e+00,3.565e+00,3.942e+00,4.088e+00,4.367e+00,4.752e+00,3.801e+00,3.689e+00,4.053e+00,4.538e+00,4.659e+00,2.940e+00,4.211e+00,5.143e+00,2.966e+00,4.162e+00,4.714e+00,3.822e+00,5.775e+00,3.975e+00,5.282e+00,4.019e+00,4.523e+00,4.327e+00
5.281e-02,5.946e-01,4.517e-01,1.402e+00,6.452e-01,1.181e+00,1.487e+00,2.297e+00,1.825e+00,1.410e+00,2.430e+00,1.976e+00,2.431e+00,3.553e+00,3.944e+00,2.412e+00,3.771e+00,4.473e+00,3.574e+00,3.836e+00,5.381e+00,6.180e+00,6.483e+00,6.847e+00,7.384e+00,7.579e+00,6.691e+00,5.122e+00,6.600e+00,5.486e+00,6.320e+00,6.536e+00,6.334e+00,6.740e+00,6.410e+00,6.506e+00,5.881e+00,5.227e+00,5.772e+00,5.518e+00,6.082e+00,4.959e+00,6.022e+00,5.469e+00,6.500e+00,6.267e+00,4.926e+00,6.234e+00,6.779e+00,4.982e+00,6.287e+00,5.088e+00,4.757e+00,6.887e+00,5.174e+00,7.086e+00,5.200e+00,5.608e+00,5.053e+00
7.186e-02,8.638e-01,7.125e-01,1.218e+00,4.608e-01,9.954e-01,1.355e+00,3.055e+00,2.869e+00,2.648e+00,2.944e+00,2.554e+00,3.898e+00,4.630e+00,4.200e+00,3.860e+00,5.097e+00,5.588e+00,5.317e+00,5.155e+00,6.506e+00,6.358e+00,6.851e+00,7.235e+00,8.629e+00,8.482e+00,8.088e+00,6.203e+00,9.059e+00,6.192e+00,8.211e+00,6.327e+00,7.457e+00,8.472e+00,6.398e+00,7.558e+00,5.411e+00,6.104e+00,6.640e+00,6.328e+00,7.853e+00,5.955e+00,6.356e+00,5.970e+00,7.822e+00,7.628e+00,6.032e+00,7.414e+00,7.378e+00,5.565e+00,6.091e+00,6.986e+00,6.522e+00,8.362e+00,6.695e+00,8.446e+00,5.168e+00,6.750e+00,6.065e+00
2.163e-02,4.326e-01,5.568e-01,9.055e-01,4.116e-01,8.808e-01,8.454e-01,2.130e+00,2.024e+00,2.196e+00,2.663e+00,2.177e+00,3.370e+00,3.941e+00,3.878e+00,2.899e+00,4.132e+00,3.975e+00,4.518e+00,3.632e+00,6.124e+00,6.111e+00,6.558e+00,5.938e+00,8.477e+00,8.071e+00,7.581e+00,5.179e+00,7.876e+00,7.048e+00,7.469e+00,6.672e+00,7.381e+00,7.430e+00,6.349e+00,8.021e+00,6.190e+00,5.137e+00,5.880e+00,5.687e+00,8.146e+00,5.449e+00,5.932e+00,5.560e+00,7.549e+00,7.100e+00,5.935e+00,6.603e+00,6.834e+00,5.898e+00,6.644e+00,6.573e+00,6.210e+00,7.573e+00,6.290e+00,8.131e+00,5.363e+00,5.160e+00,6.462e+00
1.241e-03,2.845e-01,5.458e-01,9.079e-01,6.625e-01,1.386e+00,9.564e-01,2.682e+00,2.178e+00,1.682e+00,1.908e+00,2.160e+00,2.898e+00,4.260e+00,4.429e+00,3.809e+00,4.455e+00,6.022e+00,3.879e+00,4.100e+00,5.212e+00,4.990e+00,5.880e+00,5.778e+00,7.005e+00,7.933e+00,7.777e+00,5.880e+00,7.362e+00,6.005e+00,5.879e+00,7.199e+00,7.111e+00,7.178e+00,7.575e+00,5.842e+00,6.231e+00,4.929e+00,6.785e+00,7.053e+00,6.498e+00,5.566e+00,7.436e+00,5.923e+00,7.331e+00,7.291e+00,6.006e+00,6.405e+00,7.611e+00,6.249e+00,6.740e+00,7.083e+00,5.795e+00,7.861e+00,5.719e+00,8.438e+00,5.607e+00,6.154e+00,5.824e+00
2.184e-03,4.031e-01,7.711e-01,1.173e+00,4.348e-01,6.859e-01,7.208e-01,2.140e+00,2.356e+00,2.598e+00,1.575e+00,1.461e+00,3.168e+00,3.042e+00,3.427e+00,3.761e+00,3.795e+00,4.510e+00,3.865e+00,2.581e+00,4.966e+00,4.282e+00,5.132e+00,4.006e+00,5.976e+00,6.794e+00,8.184e+00,4.857e+00,7.201e+00,5.651e+00,6.370e+00,5.891e+00,7.416e+00,6.460e+00,5.387e+00,5.853e+00,5.792e+00,4.557e+00,6.975e+00,5.183e+00,7.761e+00,6.033e+00,6.821e+00,6.412e+00,8.218e+00,6.426e+00,6.849e+00,6.929e+00,5.980e+00,5.323e+00,6.286e+00,6.468e+00,6.153e+00,7.126e+00,6.125e+00,8.717e+00,4.399e+00,5.274e+00,6.551e+00
5.386e-03,4.802e-01,8.838e-01,1.563e+00,4.643e-01,3.966e-01,8.724e-01,2.651e+00,2.471e+00,2.888e+00,2.453e+00,2.238e+00,3.838e+00,3.562e+00,4.257e+00,3.192e+00,4.211e+00,5.227e+00,3.931e+00,3.227e+00,5.709e+00,4.816e+00,5.750e+00,5.231e+00,7.453e+00,8.208e+00,6.403e+00,5.715e+00,8.903e+00,6.463e+00,7.272e+00,5.935e+00,7.121e+00,7.191e+00,6.298e+00,7.169e+00,6.288e+00,5.897e+00,5.546e+00,5.667e+00,7.077e+00,5.262e+00,6.265e+00,5.617e+00,7.699e+00,5.656e+00,6.025e+00,7.718e+00,6.976e+00,5.923e+00,6.980e+00,7.323e+00,6.374e+00,8.680e+00,6.390e+00,8.784e+00,5.630e+00,6.741e+00,6.019e+00
3.564e-02,6.930e-01,8.831e-01,1.720e+00,7.261e-01,1.164e+00,1.435e+00,3.159e+00,2.532e+00,2.015e+00,3.261e+00,2.176e+00,3.444e+00,3.892e+00,4.036e+00,2.306e+00,4.216e+00,5.021e+00,3.817e+00,3.474e+00,6.643e+00,5.342e+00,6.045e+00,7.083e+00,8.535e+00,8.461e+00,8.969e+00,6.496e+00,1.023e+01,7.149e+00,9.607e+00,8.426e+00,9.030e+00,9.901e+00,8.034e+00,8.823e+00,6.466e+00,7.526e+00,6.633e+00,6.713e+00,8.269e+00,5.895e+00,7.409e+00,8.164e+00,9.881e+00,8.050e+00,7.621e+00,8.705e+00,8.633e+00,6.248e+00,8.807e+00,7.681e+00,6.651e+00,1.027e+01,7.436e+00,1.041e+01,7.238e+00,8.041e+00,7.978e+00
8.471e-03,8.557e-02,5.811e-02,9.294e-01,7.099e-01,1.844e+00,1.341e+00,2.936e+00,2.687e+00,1.339e+00,2.508e+00,1.894e+00,2.293e+00,3.245e+00,3.304e+00,2.220e+00,2.876e+00,4.155e+00,3.585e+00,3.513e+00,5.185e+00,4.622e+00,5.891e+00,5.798e+00,6.560e+00,6.647e+00,8.858e+00,4.847e+00,8.015e+00,7.160e+00,6.892e+00,7.371e+00,7.517e+00,7.589e+00,6.682e+00,7.997e+00,5.697e+00,5.884e+00,6.877e+00,7.553e+00,7.528e+00,5.713e+00,8.048e+00,7.678e+00,8.766e+00,7.780e+00,6.868e+00,7.249e+00,6.814e+00,6.071e+00,7.996e+00,7.241e+00,6.653e+00,9.487e+00,7.187e+00,8.600e+00,5.978e+00,6.554e+00,7.106e+00
2.003e-02,3.668e-01,4.521e-01,9.389e-01,7.542e-01,1.339e+00,1.031e+00,2.885e+00,2.646e+00,2.722e+00,2.528e+00,2.071e+00,3.589e+00,3.891e+00,3.815e+00,3.452e+00,3.884e+00,4.645e+00,4.104e+00,3.141e+00,5.778e+00,4.945e+00,4.587e+00,4.513e+00,6.011e+00,6.641e+00,6.317e+00,4.259e+00,6.128e+00,5.265e+00,6.563e+00,7.017e+00,6.307e+00,7.148e+00,5.823e+00,6.499e+00,4.442e+00,4.692e+00,6.635e+00,5.446e+00,7.215e+00,5.113e+00,6.403e+00,5.383e+00,7.540e+00,6.434e+00,5.247e+00,5.534e+00,5.687e+00,5.382e+00,6.014e+00,5.662e+00,5.116e+00,7.610e+00,5.438e+00,8.130e+00,5.356e+00,5.179e+00,6.591e+00
7.089e-02,8.668e-01,7.437e-01,2.293e+00,6.168e-01,1.381e+00,2.195e+00,2.780e+00,2.282e+00,1.699e+00,2.415e+00,1.835e+00,2.803e+00,3.242e+00,3.882e+00,2.236e+00,3.736e+00,4.316e+00,3.022e+00,3.609e+00,5.240e+00,5.605e+00,6.008e+00,6.527e+00,8.201e+00,6.229e+00,8.212e+00,5.692e+00,8.396e+00,6.595e+00,7.794e+00,7.067e+00,8.441e+00,7.602e+00,7.879e+00,7.839e+00,6.718e+00,7.282e+00,8.570e+00,6.520e+00,8.497e+00,6.713e+00,7.986e+00,7.153e+00,7.541e+00,8.115e+00,7.323e+00,7.223e+00,7.321e+00,5.997e+00,7.516e+00,6.659e+00,7.783e+00,9.408e+00,7.280e+00,9.737e+00,6.709e+00,7.479e+00,6.642e+00
7.041e-02,8.096e-01,6.349e-01,2.038e+00,3.959e-01,1.274e+00,2.094e+00,3.171e+00,2.467e+00,2.742e+00,2.675e+00,2.489e+00,3.948e+00,4.166e+00,4.411e+00,3.299e+00,4.316e+00,5.317e+00,3.666e+00,3.823e+00,6.318e+00,5.940e+00,6.026e+00,5.762e+00,8.632e+00,6.791e+00,8.461e+00,6.082e+00,8.568e+00,7.401e+00,8.694e+00,7.468e+00,9.873e+00,7.924e+00,8.223e+00,8.627e+00,6.835e+00,7.167e+00,9.607e+00,6.579e+00,9.431e+00,7.085e+00,9.069e+00,6.922e+00,1.001e+01,8.857e+00,7.498e+00,7.679e+00,8.385e+00,7.121e+00,8.766e+00,7.983e+00,7.587e+00,9.933e+00,7.688e+00,1.062e+01,7.907e+00,8.489e+00,8.781e+00
4.058e-02,6.114e-01,6.461e-01,9.109e-01,5.686e-01,9.970e-01,9.655e-01,2.521e+00,1.939e+00,1.893e+00,2.258e+00,1.731e+00,2.483e+00,2.572e+00,2.710e+00,2.450e+00,2.805e+00,3.712e+00,3.117e+00,2.977e+00,5.015e+00,5.177e+00,4.361e+00,5.556e+00,6.470e+00,6.731e+00,7.123e+00,5.490e+00,7.900e+00,6.420e+00,7.269e+00,6.972e+00,8.315e+00,7.728e+00,7.332e+00,8.163e+00,6.693e+00,6.590e+00,7.886e+00,6.489e+00,8.267e+00,6.192e+00,8.512e+00,7.631e+00,8.962e+00,8.267e+00,8.546e+00,8.659e+00,7.393e+00,7.127e+00,8.135e+00,7.609e+00,7.608e+00,8.940e+00,8.183e+00,9.107e+00,6.739e+00,7.150e+00,6.897e+00
7.330e-02,9.981e-01,9.616e-01,1.935e+00,7.188e-01,1.700e+00,2.011e+00,3.892e+00,3.657e+00,3.085e+00,2.885e+00,2.622e+00,4.220e+00,4.569e+00,4.510e+00,3.849e+00,4.272e+00,5.182e+00,4.773e+00,4.411e+00,6.328e+00,5.993e+00,5.412e+00,6.318e+00,8.315e+00,7.506e+00,8.683e+00,6.143e+00,9.021e+00,6.765e+00,8.117e+00,7.536e+00,9.091e+00,1.020e+01,8.980e+00,9.655e+00,7.501e+00,6.918e+00,1.039e+01,8.540e+00,9.616e+00,8.814e+00,9.307e+00,7.766e+00,1.109e+01,9.567e+00,8.526e+00,9.566e+00,9.443e+00,7.930e+00,8.197e+00,9.847e+00,9.284e+00,1.030e+01,8.691e+00,1.124e+01,8.689e+00,8.925e+00,9.257e+00
3.192e-02,4.322e-01,4.125e-01,6.395e-01,5.440e-01,9.195e-01,7.674e-01,2.291e+00,2.034e+00,1.350e+00,2.214e+00,1.879e+00,2.249e+00,3.521e+00,3.260e+00,2.636e+00,3.399e+00,3.912e+00,3.797e+00,3.465e+00,5.094e+00,4.468e+00,4.750e+00,5.444e+00,6.479e+00,6.742e+00,6.825e+00,5.179e+00,7.227e+00,6.135e+00,6.898e+00,7.590e+00,8.097e+00,8.737e+00,6.797e+00,8.334e+00,5.099e+00,6.436e+00,7.246e+00,7.235e+00,8.646e+00,6.184e+00,8.114e+00,7.318e+00,8.735e+00,7.803e+00,6.206e+00,8.011e+00,8.364e+00,6.580e+00,7.605e+00,7.956e+00,7.859e+00,9.156e+00,7.749e+00,8.510e+00,6.998e+00,7.612e+00,8.205e+00
1.892e-02,3.486e-01,4.285e-01,6.140e-01,6.727e-01,1.115e+00,7.220e-01,2.648e+00,2.342e+00,2.348e+00,2.376e+00,1.922e+00,3.057e+00,3.517e+00,3.154e+00,3.130e+00,3.305e+00,4.213e+00,4.360e+00,3.135e+00,5.470e+00,5.453e+00,5.243e+00,5.685e+00,6.792e+00,6.961e+00,8.223e+00,4.564e+00,8.394e+00,5.678e+00,8.410e+00,6.641e+00,9.039e+00,8.790e+00,7.796e+00,8.859e+00,5.737e+00,7.791e+00,7.923e+00,7.242e+00,9.398e+00,5.688e+00,8.752e+00,8.622e+00,1.001e+01,8.208e+00,9.099e+00,9.424e+00,8.527e+00,6.908e+00,8.358e+00,8.066e+00,8.388e+00,9.097e+00,8.473e+00,1.080e+01,6.635e+00,7.445e+00,7.930e+00
2.957e-02,5.508e-01,6.887e-01,1.547e+00,7.011e-01,1.067e+00,1.297e+00,3.201e+00,3.121e+00,2.800e+00,2.492e+00,2.149e+00,3.496e+00,3.559e+00,3.912e+00,3.451e+00,3.996e+00,4.630e+00,4.632e+00,3.647e+00,6.082e+00,5.336e+00,5.433e+00,6.106e+00,7.371e+00,7.472e+00,8.685e+00,5.591e+00,8.777e+00,6.934e+00,8.170e+00,7.177e+00,7.783e+00,9.409e+00,7.725e+00,8.416e+00,7.061e+00,6.936e+00,8.715e+00,8.271e+00,8.539e+00,7.662e+00,9.415e+00,9.190e+00,1.068e+01,7.780e+00,9.438e+00,9.857e+00,8.887e+00,7.020e+00,7.932e+00,9.640e+00,8.522e+00,1.019e+01,9.282e+00,1.012e+01,7.622e+00,7.778e+00,8.470e+00
2.293e-02,5.979e-01,8.743e-01,1.973e+00,8.602e-01,1.565e+00,1.683e+00,3.528e+00,3.007e+00,2.171e+00,3.017e+00,2.505e+00,3.022e+00,3.702e+00,4.581e+00,2.847e+00,4.041e+00,5.090e+00,5.134e+00,4.510e+00,6.300e+00,6.658e+00,6.652e+00,6.948e+00,8.804e+00,8.008e+00,9.304e+00,5.934e+00,1.008e+01,8.395e+00,8.509e+00,7.124e+00,9.637e+00,9.505e+00,8.507e+00,1.034e+01,8.114e+00,8.093e+00,1.029e+01,8.962e+00,1.115e+01,8.752e+00,9.902e+00,9.742e+00,1.114e+01,9.619e+00,8.671e+00,1.196e+01,1.090e+01,8.811e+00,9.868e+00,9.943e+00,1.108e+01,1.139e+01,1.079e+01,1.173e+01,8.199e+00,9.953e+00,1.017e+01
6.838e-02,7.489e-01,5.411e-01,1.395e+00,6.771e-01,1.020e+00,1.451e+00,2.785e+00,2.589e+00,2.293e+00,2.602e+00,2.188e+00,3.029e+00,3.739e+00,3.949e+00,3.439e+00,4.384e+00,4.644e+00,4.563e+00,4.379e+00,6.715e+00,6.380e+00,6.134e+00,7.092e+00,8.497e+00,8.452e+00,9.261e+00,6.489e+00,9.811e+00,7.531e+00,8.975e+00,7.712e+00,8.864e+00,9.541e+00,7.704e+00,9.877e+00,7.364e+00,7.615e+00,8.249e+00,8.990e+00,9.328e+00,9.120e+00,9.527e+00,8.937e+00,1.117e+01,1.023e+01,8.991e+00,9.821e+00,9.539e+00,7.950e+00,9.175e+00,9.809e+00,7.827e+00,1.066e+01,9.849e+00,1.083e+01,8.900e+00,8.921e+00,9.475e+00
1.806e-02,5.598e-01,8.552e-01,1.228e+00,5.333e-01,1.287e+00,1.104e+00,2.480e+00,2.121e+00,1.639e+00,2.907e+00,1.960e+00,2.778e+00,3.123e+00,3.614e+00,2.051e+00,3.378e+00,3.751e+00,3.274e+00,2.861e+00,4.903e+00,4.437e+00,4.311e+00,5.095e+00,7.572e+00,7.097e+00,7.339e+00,5.477e+00,8.775e+00,7.059e+00,7.481e+00,7.189e+00,8.898e+00,8.975e+00,8.264e+00,8.768e+00,7.383e+00,7.249e+00,8.884e+00,8.731e+00,1.015e+01,9.048e+00,1.021e+01,9.174e+00,1.186e+01,9.303e+00,9.109e+00,1.162e+01,1.004e+01,1.005e+01,1.008e+01,1.053e+01,1.041e+01,1.179e+01,9.821e+00,1.199e+01,9.268e+00,9.519e+00,9.900e+00
4.151e-02,6.582e-01,7.329e-01,1.503e+00,4.495e-01,6.827e-01,1.252e+00,2.738e+00,2.302e+00,2.715e+00,2.637e+00,2.175e+00,3.635e+00,3.208e+00,3.817e+00,3.272e+00,4.263e+00,4.696e+00,3.907e+00,3.074e+00,5.071e+00,4.341e+00,5.562e+00,5.232e+00,6.638e+00,7.695e+00,7.656e+00,5.751e+00,8.346e+00,6.491e+00,7.182e+00,6.713e+00,7.954e+00,7.579e+00,6.673e+00,8.004e+00,6.817e+00,6.810e+00,8.477e+00,7.275e+00,8.723e+00,8.760e+00,1.003e+01,9.627e+00,1.132e+01,8.504e+00,8.902e+00,1.088e+01,9.051e+00,8.260e+00,9.843e+00,9.835e+00,9.293e+00,1.085e+01,8.678e+00,1.143e+01,8.099e+00,8.576e+00,9.243e+00
6.122e-02,8.690e-01,8.752e-01,1.896e+00,6.200e-01,1.362e+00,1.854e+00,3.152e+00,2.258e+00,1.999e+00,3.260e+00,2.263e+00,3.100e+00,3.224e+00,3.978e+00,2.371e+00,4.094e+00,4.915e+00,3.339e+00,3.631e+00,5.553e+00,4.948e+00,4.897e+00,5.973e+00,7.887e+00,7.194e+00,7.284e+00,5.364e+00,9.125e+00,6.501e+00,8.076e+00,6.715e+00,8.905e+00,8.341e+00,8.082e+00,8.578e+00,7.134e+00,8.622e+00,9.593e+00,8.159e+00,9.861e+00,8.752e+00,1.086e+01,9.526e+00,1.192e+01,1.047e+01,9.737e+00,1.125e+01,1.037e+01,1.040e+01,1.128e+01,1.129e+01,9.823e+00,1.196e+01,1.015e+01,1.151e+01,9.347e+00,1.056e+01,9.720e+00
6.967e-02,1.050e+00,1.114e+00,1.685e+00,4.838e-01,6.699e-01,1.314e+00,2.273e+00,2.323e+00,2.570e+00,2.672e+00,1.817e+00,3.676e+00,3.723e+00,4.015e+00,3.183e+00,4.919e+00,4.485e+00,3.672e+00,3.758e+00,5.564e+00,5.650e+00,4.832e+00,6.152e+00,8.262e+00,7.595e+00,7.624e+00,6.684e+00,9.445e+00,6.471e+00,8.835e+00,7.750e+00,9.655e+00,9.845e+00,8.869e+00,9.547e+00,7.734e+00,8.372e+00,1.064e+01,9.327e+00,1.062e+01,1.074e+01,1.024e+01,1.133e+01,1.422e+01,1.044e+01,9.859e+00,1.167e+01,1.134e+01,1.092e+01,1.090e+01,1.091e+01,1.166e+01,1.216e+01,1.085e+01,1.372e+01,1.079e+01,1.125e+01,1.167e+01
2.057e-02,5.493e-01,8.095e-01,1.470e+00,6.486e-01,6.378e-01,1.026e+00,3.154e+00,2.354e+00,2.373e+00,2.389e+00,2.326e+00,3.333e+00,3.792e+00,3.803e+00,3.257e+00,4.316e+00,5.055e+00,5.310e+00,4.053e+00,5.787e+00,5.628e+00,7.157e+00,6.627e+00,7.954e+00,7.662e+00,9.088e+00,5.494e+00,8.649e+00,7.647e+00,8.191e+00,7.876e+00,8.846e+00,8.226e+00,7.414e+00,9.230e+00,7.297e+00,7.136e+00,9.410e+00,9.083e+00,1.030e+01,8.127e+00,1.039e+01,9.781e+00,1.188e+01,9.636e+00,9.609e+00,1.119e+01,1.016e+01,9.979e+00,1.045e+01,1.070e+01,1.224e+01,1.113e+01,1.178e+01,1.173e+01,9.240e+00,1.067e+01,1.032e+01
3.103e-02,7.064e-01,9.657e-01,1.479e+00,4.603e-01,1.302e+00,1.345e+00,3.305e+00,2.718e+00,1.814e+00,2.594e+00,2.183e+00,2.709e+00,3.290e+00,3.558e+00,2.664e+00,3.096e+00,4.539e+00,3.770e+00,3.667e+00,5.479e+00,5.042e+00,5.148e+00,5.960e+00,7.003e+00,6.217e+00,8.265e+00,5.490e+00,9.093e+00,6.902e+00,8.070e+00,7.776e+00,8.891e+00,8.718e+00,8.101e+00,9.660e+00,6.778e+00,7.135e+00,9.611e+00,8.411e+00,1.094e+01,9.563e+00,1.123e+01,1.058e+01,1.442e+01,1.112e+01,1.118e+01,1.263e+01,1.197e+01,1.274e+01,1.246e+01,1.235e+01,1.181e+01,1.320e+01,1.216e+01,1.215e+01,1.172e+01,1.074e+01,1.152e+01
1.014e-03,4.276e-01,8.293e-01,1.021e+00,4.060e-01,9.375e-01,7.516e-01,2.357e+00,2.308e+00,1.685e+00,2.217e+00,1.909e+00,3.099e+00,3.775e+00,3.703e+00,2.302e+00,3.754e+00,4.397e+00,3.330e+00,3.777e+00,4.688e+00,4.659e+00,4.785e+00,5.108e+00,7.523e+00,7.026e+00,6.763e+00,5.801e+00,8.801e+00,6.927e+00,6.724e+00,6.594e+00,9.007e+00,8.034e+00,8.724e+00,9.681e+00,7.827e+00,7.133e+00,9.633e+00,9.582e+00,9.610e+00,9.698e+00,1.085e+01,9.918e+00,1.400e+01,1.065e+01,1.111e+01,1.250e+01,1.163e+01,1.200e+01,1.306e+01,1.329e+01,1.261e+01,1.266e+01,1.213e+01,1.236e+01,1.227e+01,1.102e+01,1.149e+01
4.902e-02,6.887e-01,6.851e-01,1.151e+00,3.068e-01,5.146e-01,1.031e+00,2.802e+00,2.337e+00,2.636e+00,2.113e+00,2.415e+00,3.476e+00,3.898e+00,3.826e+00,3.834e+00,4.221e+00,5.434e+00,4.574e+00,4.422e+00,6.610e+00,6.532e+00,6.643e+00,6.847e+00,8.065e+00,8.717e+00,8.441e+00,6.942e+00,9.901e+00,7.934e+00,9.113e+00,8.578e+00,9.465e+00,9.606e+00,9.394e+00,1.107e+01,8.809e+00,7.580e+00,1.032e+01,9.621e+00,1.043e+01,1.038e+01,1.155e+01,1.051e+01,1.456e+01,1.155e+01,1.211e+01,1.393e+01,1.250e+01,1.328e+01,1.343e+01,1.437e+01,1.229e+01,1.423e+01,1.326e+01,1.368e+01,1.323e+01,1.223e+01,1.222e+01
7.265e-03,1.747e-01,2.554e-01,9.561e-01,7.166e-01,9.119e-01,8.737e-01,2.967e+00,2.628e+00,2.429e+00,2.063e+00,1.767e+00,2.926e+00,2.708e+00,2.787e+00,2.820e+00,2.954e+00,4.280e+00,3.260e+00,3.008e+00,5.806e+00,4.481e+00,4.959e+00,5.076e+00,5.898e+00,6.212e+00,5.906e+00,4.959e+00,7.167e+00,6.806e+00,7.222e+00,7.549e+00,7.020e+00,7.966e+00,7.042e+00,8.823e+00,6.246e+00,6.829e+00,8.753e+00,9.571e+00,9.341e+00,8.085e+00,1.049e+01,9.973e+00,1.245e+01,1.008e+01,1.053e+01,1.260e+01,1.002e+01,1.226e+01,1.218e+01,1.310e+01,1.105e+01,1.345e+01,1.207e+01,1.212e+01,1.232e+01,1.150e+01,1.054e+01
6.066e-02,9.318e-01,1.007e+00,1.740e+00,8.629e-01,1.181e+00,1.502e+00,2.906e+00,2.339e+00,1.870e+00,2.880e+00,1.713e+00,2.663e+00,2.898e+00,3.343e+00,2.063e+00,3.291e+00,3.494e+00,3.676e+00,2.810e+00,5.413e+00,5.070e+00,4.676e+00,5.939e+00,6.834e+00,7.564e+00,7.919e+00,5.071e+00,8.499e+00,6.334e+00,7.260e+00,7.405e+00,7.849e+00,8.114e+00,6.877e+00,1.005e+01,7.328e+00,7.440e+00,8.580e+00,7.548e+00,9.329e+00,8.781e+00,9.607e+00,9.295e+00,1.238e+01,9.897e+00,1.007e+01,1.377e+01,1.141e+01,1.155e+01,1.251e+01,1.237e+01,1.117e+01,1.265e+01,1.205e+01,1.248e+01,1.152e+01,1.087e+01,1.233e+01
3.711e-02,4.862e-01,4.592e-01,1.718e+00,4.877e-01,1.000e+00,1.632e+00,2.718e+00,1.878e+00,2.612e+00,2.403e+00,2.555e+00,3.785e+00,3.988e+00,4.526e+00,2.929e+00,3.738e+00,4.550e+00,3.630e+00,2.792e+00,5.734e+00,5.546e+00,6.311e+00,5.959e+00,7.636e+00,8.342e+00,7.789e+00,5.903e+00,8.673e+00,6.330e+00,7.829e+00,7.840e+00,7.897e+00,8.319e+00,7.883e+00,7.744e+00,7.136e+00,6.696e+00,7.917e+00,8.662e+00,8.322e+00,7.665e+00,9.666e+00,8.797e+00,1.103e+01,9.445e+00,9.164e+00,1.057e+01,1.049e+01,9.502e+00,1.093e+01,1.178e+01,9.867e+00,1.189e+01,9.553e+00,1.246e+01,1.009e+01,1.053e+01,9.966e+00
6.891e-02,8.035e-01,6.396e-01,1.574e+00,7.530e-01,1.543e+00,1.780e+00,3.773e+00,3.546e+00,2.983e+00,3.495e+00,2.819e+00,4.246e+00,4.978e+00,4.975e+00,4.128e+00,5.432e+00,6.122e+00,5.257e+00,5.125e+00,7.846e+00,6.534e+00,6.188e+00,7.264e+00,9.126e+00,9.147e+00,9.717e+00,7.125e+00,1.038e+01,8.397e+00,1.004e+01,9.383e+00,1.077e+01,1.153e+01,9.415e+00,1.061e+01,8.129e+00,9.229e+00,1.219e+01,1.169e+01,1.254e+01,1.225e+01,1.369e+01,1.207e+01,1.565e+01,1.322e+01,1.231e+01,1.545e+01,1.327e+01,1.306e+01,1.483e+01,1.670e+01,1.349e+01,1.701e+01,1.531e+01,1.623e+01,1.473e+01,1.529e+01,1.471e+01
2.122e-02,4.457e-01,5.983e-01,1.852e+00,7.697e-01,1.639e+00,1.733e+00,3.145e+00,2.927e+00,1.922e+00,2.942e+00,2.365e+00,3.284e+00,4.424e+00,4.944e+00,2.924e+00,4.453e+00,5.427e+00,4.727e+00,4.103e+00,6.959e+00,6.149e+00,7.371e+00,7.302e+00,9.040e+00,9.151e+00,9.428e+00,6.180e+00,9.633e+00,8.062e+00,8.861e+00,9.216e+00,8.977e+00,1.106e+01,8.867e+00,9.848e+00,7.907e+00,7.743e+00,9.850e+00,9.641e+00,1.109e+01,8.576e+00,1.022e+01,9.973e+00,1.304e+01,1.021e+01,1.043e+01,1.343e+01,1.183e+01,1.147e+01,1.292e+01,1.428e+01,1.364e+01,1.601e+01,1.267e+01,1.526e+01,1.340e+01,1.325e+01,1.298e+01
1.612e-02,2.556e-01,2.831e-01,7.977e-01,4.575e-01,1.427e+00,1.134e+00,2.961e+00,2.232e+00,2.087e+00,2.469e+00,2.168e+00,3.103e+00,3.859e+00,3.618e+00,3.011e+00,3.679e+00,4.903e+00,3.642e+00,3.441e+00,5.897e+00,4.861e+00,4.555e+00,5.739e+00,7.438e+00,7.481e+00,8.003e+00,5.964e+00,8.591e+00,6.733e+00,8.091e+00,8.192e+00,8.599e+00,9.118e+00,8.501e+00,8.592e+00,7.034e+00,7.292e+00,9.466e+00,9.467e+00,9.395e+00,9.055e+00,1.137e+01,1.055e+01,1.370e+01,1.078e+01,9.745e+00,1.245e+01,1.171e+01,1.127e+01,1.214e+01,1.349e+01,1.073e+01,1.506e+01,1.224e+01,1.343e+01,1.251e+01,1.293e+01,1.315e+01
3.771e-02,7.026e-01,8.684e-01,1.597e+00,3.553e-01,1.039e+00,1.484e+00,3.311e+00,2.409e+00,2.493e+00,2.750e+00,2.929e+00,3.852e+00,4.245e+00,4.590e+00,3.038e+00,4.171e+00,5.068e+00,4.476e+00,4.126e+00,5.901e+00,5.765e+00,5.475e+00,5.474e+00,7.567e+00,7.400e+00,7.857e+00,6.583e+00,9.820e+00,7.528e+00,8.434e+00,7.383e+00,8.996e+00,9.396e+00,8.726e+00,9.841e+00,7.784e+00,7.110e+00,9.778e+00,9.377e+00,1.014e+01,9.052e+00,1.087e+01,1.092e+01,1.338e+01,9.414e+00,1.044e+01,1.247e+01,1.205e+01,1.088e+01,1.283e+01,1.373e+01,1.325e+01,1.512e+01,1.375e+01,1.436e+01,1.366e+01,1.342e+01,1.257e+01
4.993e-02,8.849e-01,1.057e+00,1.303e+00,5.908e-01,7.440e-01,9.832e-01,2.599e+00,2.666e+00,2.180e+00,2.596e+00,2.117e+00,3.348e+00,3.990e+00,3.990e+00,3.681e+00,4.851e+00,5.155e+00,4.733e+00,4.335e+00,6.519e+00,5.523e+00,6.404e+00,6.227e+00,7.616e+00,8.251e+00,7.988e+00,5.984e+00,8.387e+00,7.241e+00,7.825e+00,8.625e+00,8.914e+00,9.992e+00,8.209e+00,1.025e+01,7.147e+00,7.353e+00,1.072e+01,9.341e+00,1.116e+01,9.951e+00,1.056e+01,1.012e+01,1.433e+01,1.146e+01,1.115e+01,1.346e+01,1.278e+01,1.346e+01,1.292e+01,1.482e+01,1.425e+01,1.544e+01,1.427e+01,1.474e+01,1.483e+01,1.453e+01,1.343e+01
7.055e-02,7.526e-01,5.112e-01,8.976e-01,1.676e-01,2.866e-01,9.718e-01,2.139e+00,1.675e+00,1.982e+00,1.937e+00,1.669e+00,2.683e+00,2.654e+00,2.380e+00,2.618e+00,3.213e+00,3.435e+00,2.957e+00,2.815e+00,5.291e+00,4.044e+00,3.953e+00,4.566e+00,6.212e+00,6.191e+00,6.405e+00,5.194e+00,7.176e+00,5.853e+00,7.053e+00,6.092e+00,7.510e+00,6.928e+00,5.902e+00,8.005e+00,6.358e+00,6.102e+00,8.113e+00,6.295e+00,8.659e+00,7.987e+00,8.929e+00,7.690e+00,1.073e+01,9.185e+00,9.186e+00,1.018e+01,9.104e+00,9.220e+00,1.044e+01,1.160e+01,1.042e+01,1.267e+01,1.173e+01,1.133e+01,1.301e+01,1.251e+01,1.077e+01
4.507e-02,8.480e-01,1.057e+00,1.933e+00,4.410e-01,9.523e-01,1.520e+00,2.382e+00,2.259e+00,2.204e+00,2.629e+00,2.149e+00,3.074e+00,3.136e+00,4.327e+00,3.270e+00,4.452e+00,5.024e+00,3.915e+00,3.585e+00,5.892e+00,5.372e+00,5.652e+00,5.660e+00,7.465e+00,7.032e+00,7.635e+00,5.767e+00,8.865e+00,6.561e+00,8.182e+00,6.829e+00,9.109e+00,9.075e+00,7.832e+00,8.564e+00,6.281e+00,7.978e+00,9.488e+00,7.402e+00,1.080e+01,8.951e+00,9.557e+00,9.452e+00,1.265e+01,1.047e+01,1.045e+01,1.269e+01,1.117e+01,1.115e+01,1.178e+01,1.268e+01,1.142e+01,1.342e+01,1.149e+01,1.422e+01,1.281e+01,1.388e+01,1.251e+01
4.862e-02,5.002e-01,3.189e-01,1.248e+00,2.196e-01,1.240e+00,1.597e+00,3.248e+00,2.647e+00,2.585e+00,2.514e+00,2.900e+00,3.610e+00,4.130e+00,4.119e+00,3.130e+00,3.124e+00,4.162e+00,3.788e+00,3.782e+00,5.661e+00,5.345e+00,5.326e+00,5.422e+00,7.545e+00,6.575e+00,7.938e+00,6.088e+00,8.616e+00,7.204e+00,7.435e+00,7.655e+00,8.932e+00,7.909e+00,7.627e+00,8.780e+00,6.764e+00,6.298e+00,9.000e+00,9.150e+00,9.241e+00,9.496e+00,1.123e+01,9.389e+00,1.274e+01,1.041e+01,1.091e+01,1.079e+01,1.125e+01,1.166e+01,1.263e+01,1.261e+01,1.276e+01,1.420e+01,1.445e+01,1.338e+01,1.469e+01,1.233e+01,1.401e+01
