1.579e-01,2.939e-01,1.854e-01,6.300e-01,1.018e-02,2.747e-01,7.277e-01,2.102e-01,2.279e-01,9.587e-01,5.417e-01,9.244e-01,9.412e-01,3.490e-01,5.354e-01,7.419e-01,8.608e-01,1.185e-01,6.896e-01,2.359e-01,7.974e-01,4.065e-01,8.064e-01,7.102e-01,8.455e-01,5.678e-02,4.845e-01,8.986e-01,3.648e-01,9.957e-01,3.123e-01,4.378e-02,2.540e-01,6.640e-01,4.474e-01,3.350e-01,2.811e-01,5.898e-01,2.300e-01,1.186e-01,1.903e-01,9.617e-01,1.187e-01,5.554e-01,1.400e-01,5.532e-01,9.100e-01,4.108e-01,3.472e-02,8.419e-01,8.746e-01,4.417e-01,1.168e-01,6.970e-01,9.192e-01,4.692e-01,5.804e-01,5.502e-02,9.487e-01,4.258e-01,2.313e-01,6.139e-01,4.074e-01,2.083e-01,3.494e-01,9.346e-01,6.450e-01,5.276e-01,8.560e-01,8.870e-01,7.463e-01,1.390e-02,1.861e-01,4.096e-01,3.101e-01,1.362e-01,1.939e-01,8.198e-01
1.132e-02,5.501e-01,5.505e-01,4.414e-01,1.592e-01,5.204e-01,7.688e-01,6.668e-01,1.131e-01,4.329e-01,6.013e-01,5.487e-01,7.132e-01,9.551e-01,1.877e-01,2.855e-01,8.864e-01,1.648e-01,5.540e-01,9.461e-02,7.210e-01,3.831e-01,7.004e-01,3.671e-01,6.621e-01,7.219e-01,3.643e-01,2.989e-01,1.911e-01,2.309e-01,8.796e-01,5.496e-01,8.785e-01,3.440e-01,3.458e-02,6.555e-01,7.860e-01,7.413e-01,7.725e-01,3.482e-01,3.950e-01,1.748e-01,7.812e-01,8.677e-01,1.086e-01,8.771e-02,1.393e-01,8.710e-01,6.987e-01,3.813e-01,6.100e-01,2.285e-01,6.683e-01,1.022e+00,6.424e-01,8.901e-01,8.208e-01,9.347e-01,1.065e+00,5.826e-01,7.520e-01,8.031e-01,1.627e-01,1.612e-02,9.173e-01,4.284e-01,7.835e-01,3.451e-01,1.721e-01,4.810e-01,4.197e-01,7.461e-02,7.132e-01,2.782e-01,1.022e+00,7.359e-01,5.075e-01,7.842e-01
4.784e-02,2.080e-01,4.468e-01,7.939e-01,3.904e-01,7.365e-01,8.826e-01,6.734e-01,2.614e-01,6.212e-01,1.027e+00,1.127e+00,8.501e-01,8.833e-01,5.363e-01,1.117e+00,1.183e+00,8.735e-01,7.091e-01,1.332e-01,4.639e-01,5.279e-01,6.885e-01,8.240e-01,9.580e-01,4.608e-01,4.179e-01,1.071e+00,8.138e-01,8.853e-01,1.179e+00,7.837e-01,1.018e+00,1.024e+00,2.158e-01,9.159e-01,1.251e+00,8.509e-01,1.130e+00,9.650e-01,8.627e-01,7.343e-01,2.557e-01,7.360e-01,4.963e-01,6.794e-01,6.360e-01,1.028e+00,6.025e-01,1.098e+00,1.068e+00,8.187e-01,3.492e-01,1.241e+00,1.136e+00,1.244e+00,1.106e+00,3.203e-01,1.258e+00,1.226e+00,3.950e-01,8.533e-01,7.098e-01,2.042e-01,1.074e+00,9.034e-01,1.151e+00,5.440e-01,9.779e-01,4.521e-01,3.428e-01,7.309e-01,5.632e-01,4.881e-01,3.966e-01,9.425e-01,8.227e-01,8.141e-01
6.804e-02,4.051e-01,4.186e-01,9.298e-01,1.007e+00,5.827e-01,1.728e+00,6.786e-01,2.172e-01,1.090e+00,7.920e-01,1.677e+00,1.456e+00,1.709e+00,1.329e+00,8.715e-01,1.053e+00,6.437e-01,7.070e-01,8.340e-01,8.142e-01,1.187e+00,8.676e-01,1.468e+00,1.240e+00,1.319e+00,4.900e-01,1.303e+00,5.652e-01,1.245e+00,1.437e+00,5.310e-01,8.303e-01,1.315e+00,3.691e-01,1.098e+00,1.402e+00,1.655e+00,1.633e+00,1.242e+00,7.236e-01,8.693e-01,1.429e+00,9.713e-01,2.060e-01,3.836e-01,8.661e-01,1.544e+00,1.216e+00,1.676e+00,8.371e-01,7.161e-01,1.216e+00,1.126e+00,1.377e+00,1.270e+00,1.093e+00,1.519e+00,1.595e+00,9.937e-01,1.382e+00,1.037e+00,6.839e-01,6.940e-01,8.349e-01,1.451e+00,1.433e+00,1.072e+00,9.866e-01,1.160e+00,1.425e+00,5.597e-01,1.188e+00,1.202e+00,1.602e+00,1.124e+00,1.151e+00,1.073e+00
1.034e-01,7.141e-01,8.664e-01,1.289e+00,1.247e+00,1.601e+00,2.460e+00,1.189e+00,9.413e-01,2.235e+00,1.909e+00,2.637e+00,2.408e+00,2.232e+00,1.082e+00,1.898e+00,2.500e+00,1.938e+00,1.937e+00,1.346e+00,1.460e+00,1.331e+00,1.800e+00,1.517e+00,1.747e+00,1.290e+00,1.726e+00,2.293e+00,1.012e+00,1.908e+00,2.155e+00,1.972e+00,2.357e+00,2.444e+00,9.439e-01,1.772e+00,2.580e+00,2.214e+00,2.698e+00,1.855e+00,1.221e+00,1.905e+00,1.960e+00,2.354e+00,8.193e-01,8.205e-01,1.218e+00,2.240e+00,2.111e+00,2.433e+00,1.783e+00,1.876e+00,1.832e+00,2.738e+00,1.868e+00,2.037e+00,2.793e+00,2.204e+00,2.591e+00,1.964e+00,1.458e+00,2.489e+00,1.567e+00,4.418e-01,1.815e+00,1.717e+00,2.058e+00,1.177e+00,1.636e+00,1.655e+00,1.599e+00,1.163e+00,1.663e+00,1.535e+00,2.336e+00,2.069e+00,1.905e+00,1.635e+00
6.582e-02,5.415e-01,7.308e-01,1.070e+00,1.012e+00,1.582e+00,2.717e+00,1.566e+00,8.802e-01,2.514e+00,1.888e+00,2.984e+00,2.851e+00,2.505e+00,1.662e+00,1.763e+00,2.829e+00,2.176e+00,2.373e+00,1.120e+00,1.171e+00,1.269e+00,2.319e+00,1.665e+00,2.039e+00,1.088e+00,2.130e+00,2.355e+00,9.153e-01,1.940e+00,1.989e+00,2.605e+00,2.870e+00,2.292e+00,1.567e+00,2.475e+00,2.386e+00,2.486e+00,2.541e+00,1.717e+00,1.937e+00,2.385e+00,1.686e+00,2.473e+00,1.486e+00,1.009e+00,1.269e+00,1.947e+00,2.562e+00,2.841e+00,2.231e+00,2.156e+00,1.560e+00,2.575e+00,1.906e+00,2.469e+00,2.708e+00,1.808e+00,2.481e+00,1.892e+00,1.583e+00,2.032e+00,1.354e+00,1.047e+00,2.302e+00,2.194e+00,2.531e+00,1.176e+00,1.464e+00,1.404e+00,1.850e+00,1.331e+00,2.086e+00,1.812e+00,2.640e+00,2.505e+00,2.212e+00,1.503e+00
1.352e-01,4.712e-01,4.253e-01,9.455e-01,6.842e-01,9.325e-01,2.896e+00,1.835e+00,1.177e+00,3.233e+00,1.599e+00,2.632e+00,3.275e+00,1.970e+00,2.695e+00,1.656e+00,3.039e+00,1.292e+00,2.781e+00,1.470e+00,2.148e+00,1.715e+00,2.940e+00,1.847e+00,2.383e+00,1.451e+00,2.206e+00,2.806e+00,1.379e+00,2.425e+00,2.141e+00,2.401e+00,2.355e+00,1.726e+00,1.749e+00,1.895e+00,1.922e+00,2.122e+00,2.579e+00,1.442e+00,2.163e+00,2.872e+00,1.633e+00,1.816e+00,1.605e+00,1.757e+00,1.704e+00,1.927e+00,2.479e+00,3.186e+00,2.115e+00,2.366e+00,1.421e+00,2.579e+00,2.234e+00,2.734e+00,2.501e+00,1.826e+00,2.847e+00,1.276e+00,1.762e+00,1.429e+00,1.136e+00,1.926e+00,2.181e+00,2.940e+00,2.854e+00,1.720e+00,1.827e+00,2.348e+00,2.881e+00,9.212e-01,2.262e+00,1.703e+00,3.075e+00,2.230e+00,1.826e+00,1.803e+00
2.842e-02,2.447e-01,3.871e-01,6.661e-01,1.018e+00,1.033e+00,1.997e+00,1.106e+00,1.421e+00,2.723e+00,1.533e+00,2.159e+00,2.837e+00,1.830e+00,2.054e+00,2.138e+00,2.272e+00,1.954e+00,2.011e+00,2.148e+00,1.812e+00,1.516e+00,2.336e+00,2.136e+00,1.644e+00,1.582e+00,2.074e+00,2.085e+00,1.837e+00,1.941e+00,2.097e+00,2.287e+00,2.395e+00,2.468e+00,1.511e+00,2.237e+00,2.467e+00,2.195e+00,2.921e+00,2.100e+00,2.068e+00,1.779e+00,1.610e+00,2.028e+00,1.148e+00,1.535e+00,1.045e+00,2.389e+00,2.215e+00,2.268e+00,1.916e+00,2.102e+00,2.095e+00,2.165e+00,1.594e+00,2.059e+00,2.686e+00,1.949e+00,2.613e+00,1.862e+00,1.726e+00,1.639e+00,2.199e+00,1.620e+00,2.069e+00,2.397e+00,2.161e+00,1.088e+00,1.425e+00,1.377e+00,1.732e+00,2.064e+00,2.267e+00,1.797e+00,2.786e+00,2.276e+00,1.863e+00,1.589e+00
9.327e-02,4.122e-01,5.311e-01,1.013e+00,7.592e-01,1.054e+00,2.217e+00,1.322e+00,1.926e+00,2.793e+00,2.280e+00,2.617e+00,2.834e+00,2.629e+00,3.017e+00,2.025e+00,3.148e+00,1.729e+00,2.710e+00,1.334e+00,2.589e+00,1.851e+00,2.833e+00,2.848e+00,2.084e+00,1.975e+00,2.122e+00,2.376e+00,2.307e+00,2.829e+00,2.663e+00,2.335e+00,2.980e+00,2.306e+00,1.605e+00,2.854e+00,2.519e+00,2.312e+00,2.657e+00,2.232e+00,2.812e+00,2.872e+00,1.279e+00,2.661e+00,2.141e+00,1.635e+00,1.635e+00,2.647e+00,2.198e+00,2.792e+00,3.064e+00,2.714e+00,2.101e+00,2.280e+00,2.391e+00,3.171e+00,2.611e+00,2.010e+00,3.408e+00,2.615e+00,1.761e+00,2.118e+00,1.883e+00,1.909e+00,2.859e+00,3.141e+00,3.326e+00,1.565e+00,2.416e+00,1.665e+00,2.761e+00,1.683e+00,2.523e+00,2.199e+00,2.975e+00,2.702e+00,2.152e+00,1.721e+00
5.596e-02,1.663e-01,2.277e-01,7.996e-01,1.548e+00,1.072e+00,2.906e+00,1.221e+00,1.783e+00,3.593e+00,2.577e+00,3.271e+00,4.402e+00,2.815e+00,3.656e+00,2.925e+00,3.190e+00,2.713e+00,2.643e+00,2.904e+00,2.563e+00,2.651e+00,3.566e+00,3.162e+00,2.560e+00,2.823e+00,2.993e+00,3.475e+00,2.573e+00,3.521e+00,3.141e+00,2.707e+00,2.950e+00,3.137e+00,3.043e+00,3.541e+00,3.806e+00,4.023e+00,4.251e+00,3.241e+00,3.455e+00,2.879e+00,2.667e+00,2.836e+00,1.924e+00,1.949e+00,2.097e+00,3.466e+00,3.428e+00,3.468e+00,2.501e+00,3.064e+00,3.216e+00,3.170e+00,2.777e+00,2.863e+00,3.948e+00,2.850e+00,3.093e+00,2.303e+00,3.341e+00,2.856e+00,2.982e+00,3.404e+00,2.837e+00,4.156e+00,3.883e+00,1.809e+00,2.227e+00,2.286e+00,3.224e+00,2.837e+00,3.783e+00,2.987e+00,4.724e+00,3.601e+00,2.789e+00,2.517e+00
1.210e-01,6.785e-01,7.199e-01,1.167e+00,1.192e+00,1.376e+00,2.800e+00,1.527e+00,2.125e+00,3.313e+00,2.923e+00,3.105e+00,3.904e+00,3.549e+00,2.933e+00,3.038e+00,4.385e+00,2.896e+00,3.317e+00,2.798e+00,3.800e+00,2.390e+00,3.492e+00,2.464e+00,2.709e+00,2.728e+00,2.755e+00,4.207e+00,2.845e+00,3.836e+00,3.601e+00,3.610e+00,3.221e+00,2.586e+00,2.207e+00,2.924e+00,4.367e+00,3.200e+00,4.236e+00,2.953e+00,3.228e+00,3.950e+00,3.367e+00,3.948e+00,2.563e+00,2.635e+00,2.263e+00,3.907e+00,3.096e+00,3.423e+00,3.075e+00,3.487e+00,3.281e+00,4.110e+00,2.934e+00,3.684e+00,4.401e+00,3.750e+00,4.015e+00,3.518e+00,3.115e+00,3.882e+00,3.121e+00,2.076e+00,2.961e+00,3.811e+00,3.981e+00,2.077e+00,3.098e+00,3.458e+00,3.297e+00,2.100e+00,3.722e+00,2.207e+00,4.078e+00,3.461e+00,2.838e+00,2.434e+00
5.476e-02,2.150e-01,4.240e-01,8.495e-01,6.209e-01,8.306e-01,1.688e+00,1.250e+00,1.387e+00,1.984e+00,2.125e+00,2.591e+00,2.875e+00,2.894e+00,3.091e+00,2.793e+00,3.068e+00,2.117e+00,2.993e+00,1.610e+00,2.716e+00,1.721e+00,3.119e+00,2.739e+00,2.920e+00,1.850e+00,2.401e+00,3.596e+00,2.512e+00,2.829e+00,3.220e+00,2.850e+00,2.788e+00,1.940e+00,1.703e+00,3.047e+00,3.483e+00,2.244e+00,2.897e+00,2.373e+00,3.185e+00,2.503e+00,1.533e+00,2.245e+00,2.712e+00,2.930e+00,1.774e+00,2.861e+00,2.543e+00,3.115e+00,2.966e+00,3.108e+00,1.945e+00,3.223e+00,3.248e+00,3.335e+00,3.041e+00,2.497e+00,2.806e+00,2.870e+00,2.379e+00,2.433e+00,2.748e+00,2.455e+00,2.427e+00,2.967e+00,3.661e+00,2.359e+00,2.483e+00,2.571e+00,2.741e+00,2.235e+00,3.170e+00,1.801e+00,2.380e+00,2.508e+00,2.573e+00,1.667e+00
7.293e-02,3.530e-01,4.295e-01,9.028e-01,7.837e-01,8.072e-01,2.169e+00,1.298e+00,1.586e+00,2.313e+00,1.946e+00,2.868e+00,3.093e+00,3.659e+00,3.937e+00,2.975e+00,3.958e+00,2.902e+00,3.382e+00,2.084e+00,3.649e+00,2.424e+00,3.896e+00,3.315e+00,3.342e+00,2.717e+00,2.329e+00,3.888e+00,2.298e+00,3.897e+00,3.579e+00,3.575e+00,2.883e+00,2.215e+00,2.330e+00,3.681e+00,3.258e+00,2.672e+00,3.204e+00,2.999e+00,3.070e+00,4.043e+00,2.758e+00,3.782e+00,3.702e+00,2.693e+00,1.860e+00,3.837e+00,3.471e+00,3.640e+00,3.952e+00,3.943e+00,2.391e+00,2.996e+00,3.159e+00,4.371e+00,2.965e+00,3.208e+00,4.029e+00,3.539e+00,2.514e+00,3.129e+00,3.098e+00,2.665e+00,2.842e+00,3.384e+00,4.220e+00,3.086e+00,3.262e+00,2.892e+00,3.785e+00,1.796e+00,3.456e+00,2.372e+00,2.809e+00,3.180e+00,2.925e+00,1.709e+00
1.287e-01,7.095e-01,7.284e-01,1.184e+00,1.200e+00,1.593e+00,3.135e+00,1.506e+00,2.173e+00,3.759e+00,2.782e+00,4.072e+00,4.343e+00,4.275e+00,4.715e+00,3.768e+00,4.760e+00,3.932e+00,4.682e+00,3.396e+00,3.972e+00,3.055e+00,4.835e+00,3.772e+00,3.585e+00,3.306e+00,4.162e+00,4.906e+00,3.170e+00,4.659e+00,4.161e+00,4.382e+00,5.059e+00,3.917e+00,3.650e+00,4.877e+00,4.343e+00,4.209e+00,3.956e+00,3.028e+00,4.202e+00,4.574e+00,2.857e+00,4.660e+00,3.200e+00,3.255e+00,2.547e+00,4.421e+00,4.166e+00,4.170e+00,4.603e+00,4.122e+00,3.696e+00,3.929e+00,4.393e+00,4.217e+00,4.317e+00,4.078e+00,5.153e+00,4.044e+00,3.494e+00,3.930e+00,3.935e+00,3.533e+00,3.607e+00,4.107e+00,5.278e+00,2.725e+00,3.039e+00,3.367e+00,4.496e+00,2.972e+00,4.321e+00,3.642e+00,4.285e+00,4.002e+00,4.368e+00,2.510e+00
4.472e-04,4.913e-01,5.358e-01,6.153e-01,8.965e-01,8.431e-01,2.054e+00,1.380e+00,1.239e+00,2.429e+00,1.640e+00,2.424e+00,3.620e+00,3.436e+00,3.901e+00,3.410e+00,4.079e+00,3.473e+00,3.757e+00,4.452e+00,3.602e+00,2.392e+00,4.429e+00,2.808e+00,3.110e+00,3.772e+00,3.353e+00,4.731e+00,3.755e+00,3.810e+00,4.177e+00,4.707e+00,3.642e+00,2.690e+00,2.982e+00,4.148e+00,4.268e+00,3.509e+00,4.013e+00,3.386e+00,4.422e+00,2.777e+00,4.089e+00,3.995e+00,2.285e+00,3.840e+00,2.169e+00,4.282e+00,3.405e+00,2.839e+00,2.883e+00,2.900e+00,3.999e+00,4.431e+00,3.720e+00,3.661e+00,4.078e+00,4.453e+00,3.788e+00,3.407e+00,4.425e+00,2.883e+00,4.608e+00,3.947e+00,2.726e+00,3.357e+00,4.352e+00,3.097e+00,2.672e+00,3.603e+00,3.402e+00,3.038e+00,4.910e+00,2.703e+00,4.496e+00,3.833e+00,3.596e+00,2.775e+00
3.618e-02,4.801e-01,7.278e-01,1.198e+00,1.306e+00,1.302e+00,2.679e+00,1.720e+00,2.239e+00,3.055e+00,2.985e+00,3.191e+00,3.852e+00,3.889e+00,4.487e+00,4.322e+00,5.476e+00,3.413e+00,4.285e+00,3.748e+00,5.000e+00,3.303e+00,4.713e+00,4.241e+00,3.635e+00,3.975e+00,3.401e+00,5.168e+00,4.045e+00,4.946e+00,5.800e+00,4.826e+00,4.669e+00,3.670e+00,3.267e+00,5.165e+00,5.433e+00,3.791e+00,4.878e+00,4.522e+00,4.571e+00,4.636e+00,3.580e+00,4.688e+00,3.276e+00,3.567e+00,2.798e+00,5.052e+00,4.290e+00,4.217e+00,4.332e+00,4.262e+00,4.149e+00,4.598e+00,3.944e+00,5.407e+00,4.742e+00,4.061e+00,5.618e+00,4.675e+00,3.607e+00,4.679e+00,4.555e+00,4.235e+00,4.878e+00,5.044e+00,5.815e+00,3.079e+00,4.042e+00,3.705e+00,4.527e+00,3.147e+00,4.428e+00,3.538e+00,4.459e+00,5.219e+00,4.014e+00,3.053e+00
1.173e-01,2.346e-01,3.076e-01,8.267e-01,6.956e-01,9.803e-01,2.248e+00,1.293e+00,1.517e+00,2.990e+00,1.805e+00,2.985e+00,3.629e+00,3.017e+00,3.880e+00,4.009e+00,5.804e+00,4.449e+00,4.251e+00,3.846e+00,4.837e+00,2.994e+00,5.160e+00,4.002e+00,3.766e+00,3.236e+00,3.733e+00,5.837e+00,3.532e+00,4.858e+00,4.519e+00,5.161e+00,3.649e+00,3.305e+00,4.176e+00,4.221e+00,4.275e+00,3.949e+00,3.607e+00,3.465e+00,4.723e+00,5.297e+00,4.025e+00,4.699e+00,3.902e+00,4.511e+00,3.227e+00,4.489e+00,3.749e+00,4.308e+00,4.456e+00,4.979e+00,3.323e+00,4.474e+00,3.560e+00,5.031e+00,3.900e+00,3.941e+00,5.263e+00,3.860e+00,3.231e+00,4.258e+00,5.188e+00,3.586e+00,3.978e+00,4.636e+00,4.708e+00,3.214e+00,3.697e+00,4.678e+00,4.734e+00,3.323e+00,4.512e+00,3.685e+00,3.348e+00,4.211e+00,3.518e+00,2.816e+00
2.231e-02,1.016e-01,3.376e-01,8.878e-01,1.185e+00,9.158e-01,2.113e+00,1.136e+00,1.283e+00,2.319e+00,1.936e+00,2.799e+00,3.461e+00,3.421e+00,4.451e+00,4.591e+00,4.996e+00,5.356e+00,4.132e+00,5.100e+00,4.258e+00,3.690e+00,4.805e+00,3.754e+00,4.243e+00,4.270e+00,3.167e+00,5.994e+00,3.993e+00,5.979e+00,5.671e+00,5.280e+00,3.979e+00,4.430e+00,4.963e+00,5.421e+00,4.974e+00,4.448e+00,4.390e+00,5.106e+00,4.868e+00,5.442e+00,4.153e+00,5.618e+00,3.311e+00,4.518e+00,3.002e+00,5.319e+00,4.135e+00,3.757e+00,4.753e+00,4.068e+00,4.353e+00,4.213e+00,4.345e+00,4.767e+00,4.195e+00,3.689e+00,5.758e+00,5.495e+00,4.593e+00,4.237e+00,5.362e+00,4.552e+00,4.295e+00,5.032e+00,6.051e+00,3.259e+00,4.179e+00,4.209e+00,3.912e+00,4.015e+00,5.168e+00,4.364e+00,4.418e+00,5.533e+00,5.157e+00,2.968e+00
5.140e-02,1.864e-01,3.950e-01,9.297e-01,8.750e-01,9.680e-01,2.565e+00,1.811e+00,1.916e+00,3.169e+00,2.202e+00,2.968e+00,3.811e+00,3.524e+00,4.896e+00,4.414e+00,5.762e+00,4.639e+00,5.613e+00,5.191e+00,5.544e+00,4.356e+00,5.663e+00,3.976e+00,5.205e+00,4.297e+00,3.799e+00,6.219e+00,4.833e+00,6.000e+00,5.934e+00,6.722e+00,5.047e+00,4.545e+00,5.276e+00,5.917e+00,5.012e+00,4.763e+00,5.054e+00,5.459e+00,5.815e+00,6.762e+00,4.306e+00,6.230e+00,4.466e+00,5.000e+00,3.721e+00,5.128e+00,4.480e+00,4.974e+00,5.656e+00,4.785e+00,3.915e+00,4.524e+00,4.596e+00,5.918e+00,4.766e+00,4.366e+00,6.288e+00,5.420e+00,4.842e+00,4.045e+00,5.241e+00,5.497e+00,5.331e+00,5.838e+00,7.169e+00,3.533e+00,5.038e+00,4.620e+00,5.357e+00,3.851e+00,5.534e+00,4.974e+00,5.090e+00,6.288e+00,5.224e+00,3.491e+00
3.294e-02,7.178e-02,9.078e-02,2.629e-01,5.863e-01,6.668e-01,1.762e+00,1.048e+00,1.822e+00,2.735e+00,2.232e+00,2.206e+00,3.490e+00,2.563e+00,3.310e+00,3.381e+00,4.925e+00,3.268e+00,3.758e+00,4.190e+00,4.561e+00,3.295e+00,4.927e+00,3.580e+00,3.455e+00,3.721e+00,4.033e+00,5.398e+00,3.788e+00,4.969e+00,4.348e+00,5.232e+00,4.149e+00,3.208e+00,4.608e+00,4.189e+00,4.897e+00,4.046e+00,4.726e+00,4.193e+00,4.653e+00,5.020e+00,3.736e+00,5.174e+00,3.526e+00,3.931e+00,3.736e+00,4.446e+00,3.986e+00,3.806e+00,3.642e+00,4.175e+00,3.716e+00,4.749e+00,3.120e+00,4.139e+00,4.376e+00,3.275e+00,4.089e+00,4.182e+00,3.862e+00,4.334e+00,4.367e+00,4.484e+00,4.061e+00,4.688e+00,4.969e+00,2.886e+00,4.182e+00,4.103e+00,3.975e+00,3.123e+00,4.557e+00,3.421e+00,4.796e+00,5.412e+00,3.630e+00,2.692e+00
2.251e-03,2.237e-01,3.007e-01,3.200e-01,7.762e-01,9.935e-01,1.609e+00,7.570e-01,1.626e+00,2.264e+00,2.173e+00,2.321e+00,3.082e+00,2.900e+00,2.757e+00,2.842e+00,3.596e+00,4.286e+00,3.758e+00,3.829e+00,4.086e+00,3.669e+00,4.724e+00,3.255e+00,4.583e+00,4.429e+00,3.668e+00,4.711e+00,3.314e+00,4.942e+00,3.911e+00,4.944e+00,4.584e+00,4.559e+00,5.576e+00,4.503e+00,4.876e+00,4.882e+00,4.477e+00,5.383e+00,4.752e+00,4.798e+00,4.501e+00,6.591e+00,4.012e+00,3.536e+00,3.348e+00,5.291e+00,4.397e+00,3.901e+00,4.715e+00,4.907e+00,4.211e+00,4.272e+00,3.734e+00,3.565e+00,4.310e+00,4.162e+00,4.057e+00,5.609e+00,5.334e+00,4.392e+00,4.778e+00,3.572e+00,3.512e+00,4.280e+00,5.893e+00,2.999e+00,3.889e+00,3.522e+00,3.810e+00,3.621e+00,4.913e+00,4.641e+00,5.146e+00,5.886e+00,4.547e+00,2.397e+00
1.437e-01,7.880e-01,8.608e-01,1.413e+00,8.597e-01,1.322e+00,2.982e+00,2.005e+00,1.611e+00,3.597e+00,2.279e+00,3.242e+00,4.434e+00,3.562e+00,3.863e+00,3.874e+00,5.143e+00,3.319e+00,4.278e+00,4.149e+00,4.693e+00,3.528e+00,5.976e+00,4.090e+00,5.211e+00,4.314e+00,4.385e+00,5.182e+00,5.069e+00,5.122e+00,5.099e+00,5.794e+00,4.996e+00,3.754e+00,3.982e+00,5.085e+00,4.940e+00,4.447e+00,4.696e+00,4.942e+00,5.021e+00,4.999e+00,4.669e+00,4.980e+00,3.380e+00,4.269e+00,4.098e+00,4.841e+00,4.122e+00,4.739e+00,5.050e+00,3.915e+00,4.158e+00,5.707e+00,4.552e+00,5.181e+00,5.396e+00,4.482e+00,6.134e+00,5.088e+00,5.215e+00,4.121e+00,5.471e+00,4.312e+00,4.858e+00,5.749e+00,5.880e+00,3.390e+00,3.811e+00,5.010e+00,4.551e+00,3.627e+00,5.134e+00,4.120e+00,4.861e+00,4.873e+00,4.188e+00,4.251e+00
7.553e-02,1.880e-01,1.619e-01,6.615e-01,8.346e-01,5.174e-01,1.970e+00,9.157e-01,1.354e+00,2.582e+00,1.282e+00,2.659e+00,3.414e+00,3.129e+00,3.971e+00,3.480e+00,3.847e+00,3.797e+00,3.616e+00,3.817e+00,4.606e+00,3.805e+00,5.904e+00,4.763e+00,5.748e+00,5.279e+00,3.764e+00,5.051e+00,4.571e+00,5.616e+00,5.274e+00,5.518e+00,4.510e+00,4.887e+00,5.770e+00,5.420e+00,5.032e+00,4.312e+00,3.887e+00,6.327e+00,5.058e+00,6.209e+00,5.050e+00,6.068e+00,5.006e+00,4.602e+00,4.201e+00,6.099e+00,5.028e+00,5.564e+00,5.825e+00,5.574e+00,5.010e+00,4.911e+00,4.638e+00,5.435e+00,4.342e+00,4.930e+00,6.557e+00,6.023e+00,5.891e+00,5.162e+00,6.402e+00,4.788e+00,4.200e+00,5.634e+00,6.577e+00,4.504e+00,4.044e+00,5.012e+00,5.582e+00,3.966e+00,4.956e+00,5.775e+00,4.649e+00,5.769e+00,4.451e+00,3.719e+00
5.854e-02,4.159e-01,6.131e-01,1.166e+00,1.282e+00,1.147e+00,2.479e+00,1.427e+00,2.003e+00,2.890e+00,2.599e+00,3.093e+00,3.686e+00,3.642e+00,4.244e+00,4.108e+00,5.366e+00,3.735e+00,4.365e+00,4.240e+00,5.180e+00,4.079e+00,5.890e+00,5.833e+00,5.617e+00,5.934e+00,4.605e+00,6.588e+00,5.376e+00,5.881e+00,6.615e+00,6.149e+00,6.031e+00,5.142e+00,5.119e+00,6.383e+00,6.384e+00,5.182e+00,6.108e+00,6.819e+00,5.708e+00,5.596e+00,5.327e+00,5.708e+00,4.832e+00,4.525e+00,4.834e+00,6.377e+00,5.229e+00,5.665e+00,5.530e+00,4.951e+00,4.896e+00,6.816e+00,5.278e+00,6.823e+00,5.733e+00,5.944e+00,6.363e+00,6.484e+00,5.764e+00,5.586e+00,5.906e+00,5.868e+00,6.063e+00,6.200e+00,6.455e+00,4.901e+00,5.600e+00,5.245e+00,5.761e+00,4.596e+00,5.534e+00,5.600e+00,5.974e+00,6.182e+00,5.459e+00,4.717e+00
1.467e-01,3.630e-01,4.226e-01,1.189e+00,9.588e-01,8.646e-01,2.362e+00,1.247e+00,2.088e+00,3.058e+00,2.310e+00,2.972e+00,3.373e+00,3.162e+00,5.518e+00,4.370e+00,5.924e+00,4.322e+00,5.686e+00,5.168e+00,6.297e+00,5.084e+00,6.934e+00,5.867e+00,6.860e+00,7.137e+00,5.790e+00,7.415e+00,6.919e+00,7.577e+00,7.565e+00,7.551e+00,6.736e+00,6.110e+00,6.920e+00,7.034e+00,6.283e+00,6.040e+00,6.146e+00,7.222e+00,7.105e+00,7.016e+00,5.532e+00,7.363e+00,6.011e+00,5.713e+00,5.913e+00,7.967e+00,5.494e+00,6.247e+00,7.162e+00,6.519e+00,5.960e+00,7.450e+00,6.716e+00,7.931e+00,5.581e+00,7.174e+00,8.052e+00,6.837e+00,7.014e+00,6.058e+00,7.799e+00,7.562e+00,5.606e+00,6.220e+00,8.241e+00,6.039e+00,7.054e+00,6.072e+00,7.839e+00,5.330e+00,6.613e+00,7.652e+00,6.864e+00,7.124e+00,6.444e+00,5.341e+00
7.632e-02,3.741e-01,3.304e-01,5.901e-01,6.074e-01,7.817e-01,2.257e+00,1.429e+00,1.411e+00,3.123e+00,2.112e+00,2.434e+00,4.113e+00,2.520e+00,4.219e+00,3.669e+00,5.183e+00,3.801e+00,4.629e+00,4.931e+00,5.148e+00,4.322e+00,6.653e+00,4.611e+00,5.538e+00,6.990e+00,5.316e+00,7.118e+00,6.226e+00,5.570e+00,6.602e+00,7.188e+00,6.731e+00,6.136e+00,7.335e+00,6.538e+00,6.908e+00,6.576e+00,5.864e+00,7.189e+00,7.863e+00,6.149e+00,6.161e+00,6.480e+00,4.851e+00,6.142e+00,6.134e+00,6.863e+00,4.995e+00,5.966e+00,5.770e+00,5.127e+00,5.638e+00,7.612e+00,5.625e+00,6.135e+00,6.284e+00,6.514e+00,6.180e+00,5.130e+00,7.858e+00,5.387e+00,7.414e+00,7.243e+00,5.929e+00,6.093e+00,7.649e+00,4.892e+00,5.136e+00,6.052e+00,6.629e+00,4.908e+00,6.791e+00,6.281e+00,7.887e+00,7.670e+00,5.634e+00,6.342e+00
1.497e-01,6.969e-01,7.676e-01,1.380e+00,9.050e-01,1.257e+00,2.833e+00,1.771e+00,1.682e+00,3.286e+00,3.080e+00,3.042e+00,4.293e+00,2.996e+00,4.038e+00,4.162e+00,5.695e+00,3.754e+00,4.872e+00,4.522e+00,5.603e+00,4.568e+00,6.735e+00,4.757e+00,6.347e+00,6.461e+00,5.113e+00,7.287e+00,6.623e+00,7.076e+00,8.135e+00,6.941e+00,6.589e+00,6.072e+00,6.663e+00,6.497e+00,7.559e+00,6.207e+00,5.836e+00,7.627e+00,7.626e+00,6.595e+00,6.214e+00,7.169e+00,4.744e+00,5.928e+00,6.443e+00,7.674e+00,5.686e+00,6.291e+00,6.224e+00,5.909e+00,6.253e+00,8.256e+00,6.231e+00,6.618e+00,6.545e+00,6.016e+00,7.647e+00,7.343e+00,7.916e+00,6.407e+00,7.198e+00,6.749e+00,6.428e+00,7.560e+00,9.098e+00,5.171e+00,5.959e+00,7.015e+00,6.395e+00,4.782e+00,7.090e+00,6.471e+00,7.954e+00,8.050e+00,6.196e+00,6.010e+00
3.616e-02,2.845e-01,4.423e-01,7.134e-01,5.504e-01,9.204e-01,1.966e+00,1.441e+00,9.503e-01,2.066e+00,2.269e+00,2.569e+00,3.344e+00,2.696e+00,3.417e+00,3.563e+00,5.115e+00,3.552e+00,4.002e+00,3.380e+00,5.104e+00,4.352e+00,6.297e+00,5.219e+00,6.633e+00,6.575e+00,5.815e+00,7.838e+00,6.543e+00,6.760e+00,8.451e+00,7.611e+00,7.711e+00,6.721e+00,8.441e+00,6.983e+00,8.303e+00,6.599e+00,5.527e+00,7.291e+00,8.405e+00,6.546e+00,6.338e+00,6.764e+00,6.565e+00,7.131e+00,7.146e+00,8.423e+00,6.354e+00,7.013e+00,7.271e+00,7.124e+00,6.050e+00,8.982e+00,6.329e+00,6.667e+00,6.726e+00,6.704e+00,7.211e+00,7.649e+00,8.633e+00,7.501e+00,7.706e+00,7.429e+00,7.361e+00,7.587e+00,8.965e+00,5.157e+00,5.833e+00,7.554e+00,6.788e+00,5.706e+00,7.730e+00,7.490e+00,7.089e+00,7.997e+00,7.235e+00,5.738e+00
3.273e-02,4.271e-01,5.955e-01,9.639e-01,1.317e+00,1.366e+00,2.713e+00,1.429e+00,1.233e+00,2.525e+00,2.431e+00,3.342e+00,3.858e+00,4.032e+00,4.499e+00,4.380e+00,6.439e+00,6.123e+00,5.462e+00,5.691e+00,5.645e+00,5.600e+00,7.675e+00,5.526e+00,7.800e+00,8.002e+00,6.936e+00,9.199e+00,8.089e+00,8.734e+00,1.014e+01,1.102e+01,8.743e+00,7.644e+00,9.424e+00,9.328e+00,9.430e+00,8.350e+00,7.259e+00,9.203e+00,9.696e+00,8.735e+00,8.701e+00,9.289e+00,8.295e+00,7.631e+00,8.269e+00,9.957e+00,8.364e+00,8.345e+00,8.158e+00,8.526e+00,8.311e+00,1.086e+01,7.480e+00,9.012e+00,8.837e+00,9.767e+00,9.284e+00,9.801e+00,1.002e+01,8.418e+00,9.478e+00,8.956e+00,8.045e+00,8.058e+00,1.042e+01,7.019e+00,7.461e+00,9.101e+00,8.856e+00,7.729e+00,9.655e+00,9.975e+00,9.441e+00,9.202e+00,9.451e+00,7.064e+00
3.844e-02,3.359e-01,3.753e-01,4.808e-01,6.613e-01,9.507e-01,1.756e+00,9.705e-01,2.041e+00,2.839e+00,2.253e+00,2.337e+00,3.252e+00,2.617e+00,4.109e+00,3.608e+00,4.908e+00,4.215e+00,5.500e+00,5.404e+00,5.497e+00,4.932e+00,7.447e+00,4.977e+00,7.204e+00,7.202e+00,7.109e+00,6.785e+00,7.691e+00,8.145e+00,8.465e+00,1.002e+01,8.962e+00,7.339e+00,8.536e+00,9.092e+00,7.535e+00,7.281e+00,6.509e+00,9.189e+00,8.291e+00,7.444e+00,6.964e+00,9.574e+00,6.743e+00,6.768e+00,7.664e+00,8.492e+00,7.061e+00,6.827e+00,8.618e+00,7.423e+00,7.803e+00,9.324e+00,6.695e+00,7.423e+00,7.891e+00,8.051e+00,8.788e+00,9.019e+00,9.679e+00,7.527e+00,9.824e+00,8.928e+00,7.110e+00,7.870e+00,1.048e+01,6.467e+00,7.729e+00,7.522e+00,8.306e+00,6.906e+00,9.073e+00,8.910e+00,9.144e+00,8.942e+00,8.666e+00,6.107e+00
6.083e-03,3.981e-01,6.489e-01,1.004e+00,1.340e+00,1.344e+00,2.423e+00,1.322e+00,9.632e-01,1.990e+00,2.220e+00,2.998e+00,3.260e+00,3.503e+00,3.024e+00,3.480e+00,4.829e+00,4.643e+00,3.401e+00,3.533e+00,4.226e+00,4.018e+00,5.476e+00,5.194e+00,6.250e+00,6.719e+00,4.753e+00,7.034e+00,4.488e+00,6.106e+00,8.199e+00,7.634e+00,7.268e+00,7.579e+00,7.494e+00,7.817e+00,8.549e+00,7.000e+00,6.827e+00,8.230e+00,7.019e+00,6.640e+00,7.665e+00,7.748e+00,6.172e+00,6.114e+00,6.293e+00,9.094e+00,7.335e+00,7.910e+00,7.485e+00,7.983e+00,7.305e+00,9.074e+00,6.236e+00,7.926e+00,7.385e+00,7.852e+00,7.644e+00,9.070e+00,8.163e+00,6.963e+00,7.926e+00,6.100e+00,6.594e+00,6.281e+00,8.417e+00,6.841e+00,6.261e+00,7.030e+00,7.585e+00,6.158e+00,7.520e+00,7.749e+00,8.521e+00,8.521e+00,7.423e+00,6.232e+00
1.791e-02,4.064e-01,5.066e-01,7.470e-01,7.917e-01,8.987e-01,2.371e+00,1.675e+00,1.849e+00,2.806e+00,2.674e+00,2.919e+00,4.016e+00,3.757e+00,5.185e+00,4.275e+00,6.314e+00,4.175e+00,5.364e+00,4.617e+00,6.969e+00,5.652e+00,7.694e+00,6.568e+00,7.537e+00,7.891e+00,6.501e+00,8.034e+00,6.835e+00,7.392e+00,9.729e+00,1.034e+01,9.846e+00,7.746e+00,9.195e+00,1.084e+01,1.037e+01,8.784e+00,7.520e+00,9.003e+00,1.008e+01,8.693e+00,8.606e+00,8.517e+00,8.051e+00,8.639e+00,7.995e+00,9.532e+00,8.848e+00,9.159e+00,9.590e+00,8.976e+00,8.337e+00,1.027e+01,7.951e+00,9.796e+00,8.694e+00,8.932e+00,1.035e+01,9.680e+00,1.007e+01,8.583e+00,1.005e+01,9.433e+00,9.735e+00,9.258e+00,1.226e+01,7.591e+00,6.893e+00,8.676e+00,1.076e+01,8.091e+00,9.465e+00,9.512e+00,9.773e+00,9.630e+00,9.351e+00,7.981e+00
4.548e-02,3.359e-01,5.178e-01,9.586e-01,1.001e+00,1.085e+00,2.431e+00,1.544e+00,1.487e+00,2.921e+00,2.647e+00,3.287e+00,4.607e+00,3.733e+00,5.122e+00,4.888e+00,5.472e+00,5.496e+00,4.986e+00,4.979e+00,5.661e+00,5.228e+00,7.383e+00,5.722e+00,6.976e+00,6.811e+00,5.239e+00,7.592e+00,6.326e+00,7.695e+00,8.855e+00,7.974e+00,7.737e+00,8.470e+00,8.909e+00,9.235e+00,7.996e+00,8.156e+00,7.353e+00,8.453e+00,8.943e+00,7.443e+00,7.630e+00,9.001e+00,7.451e+00,8.411e+00,6.435e+00,1.054e+01,7.272e+00,7.783e+00,8.897e+00,9.322e+00,8.085e+00,9.796e+00,8.672e+00,8.166e+00,8.031e+00,7.683e+00,9.818e+00,9.503e+00,8.878e+00,7.589e+00,9.048e+00,8.570e+00,7.623e+00,8.008e+00,1.060e+01,7.647e+00,7.305e+00,8.050e+00,8.183e+00,7.373e+00,9.781e+00,8.166e+00,8.627e+00,9.375e+00,8.635e+00,6.864e+00
1.492e-01,5.010e-01,6.497e-01,1.412e+00,1.300e+00,1.397e+00,2.604e+00,1.148e+00,1.005e+00,2.492e+00,2.460e+00,3.519e+00,3.571e+00,3.165e+00,3.727e+00,4.189e+00,4.513e+00,4.066e+00,4.097e+00,3.995e+00,3.768e+00,3.575e+00,5.119e+00,4.169e+00,5.174e+00,5.120e+00,4.905e+00,7.600e+00,5.758e+00,6.879e+00,8.428e+00,8.334e+00,7.477e+00,7.812e+00,7.157e+00,8.672e+00,9.324e+00,6.878e+00,6.097e+00,7.310e+00,8.699e+00,7.158e+00,7.478e+00,7.558e+00,6.715e+00,8.603e+00,6.964e+00,9.352e+00,7.180e+00,8.036e+00,7.573e+00,7.967e+00,7.284e+00,1.036e+01,8.266e+00,7.040e+00,8.091e+00,7.963e+00,8.506e+00,8.538e+00,8.149e+00,7.843e+00,8.496e+00,7.742e+00,6.473e+00,7.230e+00,1.028e+01,7.605e+00,6.889e+00,8.808e+00,7.885e+00,6.507e+00,8.549e+00,7.928e+00,8.086e+00,7.219e+00,9.186e+00,6.982e+00
1.025e-01,2.278e-01,2.249e-01,8.549e-01,1.039e+00,7.642e-01,2.485e+00,1.168e+00,2.034e+00,3.250e+00,1.963e+00,3.295e+00,3.736e+00,3.770e+00,5.059e+00,3.700e+00,4.906e+00,3.745e+00,4.423e+00,4.565e+00,4.998e+00,4.513e+00,6.265e+00,6.107e+00,5.719e+00,6.374e+00,5.617e+00,7.368e+00,6.654e+00,7.051e+00,7.089e+00,8.270e+00,7.992e+00,6.818e+00,7.235e+00,8.561e+00,8.154e+00,7.147e+00,6.712e+00,8.398e+00,9.246e+00,8.227e+00,6.659e+00,7.587e+00,7.681e+00,8.047e+00,7.566e+00,9.409e+00,7.715e+00,7.751e+00,7.850e+00,7.875e+00,7.384e+00,9.414e+00,7.826e+00,8.328e+00,7.675e+00,7.768e+00,9.391e+00,9.477e+00,8.322e+00,7.163e+00,8.271e+00,8.859e+00,7.524e+00,8.337e+00,9.380e+00,7.331e+00,7.141e+00,8.538e+00,8.049e+00,6.633e+00,8.393e+00,8.686e+00,7.222e+00,7.148e+00,9.089e+00,6.334e+00
1.510e-01,4.760e-01,3.816e-01,9.010e-01,6.904e-01,7.544e-01,2.243e+00,1.205e+00,1.219e+00,2.862e+00,1.685e+00,2.688e+00,3.506e+00,2.457e+00,4.117e+00,3.952e+00,4.671e+00,3.278e+00,5.035e+00,4.895e+00,5.272e+00,3.893e+00,5.777e+00,4.333e+00,5.810e+00,5.502e+00,4.855e+00,7.105e+00,5.093e+00,6.002e+00,6.650e+00,6.799e+00,6.662e+00,6.491e+00,6.927e+00,7.728e+00,7.315e+00,7.145e+00,5.670e+00,7.879e+00,7.817e+00,6.649e+00,6.678e+00,6.950e+00,5.405e+00,7.483e+00,6.515e+00,8.420e+00,6.537e+00,7.063e+00,6.815e+00,6.864e+00,7.426e+00,8.616e+00,7.665e+00,6.804e+00,7.168e+00,7.148e+00,7.837e+00,7.880e+00,7.775e+00,6.374e+00,8.091e+00,8.045e+00,6.240e+00,7.254e+00,9.092e+00,6.598e+00,6.894e+00,8.112e+00,8.329e+00,5.780e+00,7.792e+00,8.139e+00,7.287e+00,7.082e+00,7.369e+00,6.494e+00
1.109e-01,3.862e-01,5.041e-01,1.095e+00,7.275e-01,1.059e+00,2.325e+00,1.308e+00,1.155e+00,2.736e+00,2.481e+00,3.641e+00,4.571e+00,3.923e+00,5.125e+00,5.317e+00,6.028e+00,5.074e+00,5.575e+00,5.458e+00,6.311e+00,5.332e+00,8.108e+00,6.935e+00,8.241e+00,8.115e+00,6.500e+00,9.442e+00,7.893e+00,8.443e+00,9.761e+00,1.044e+01,9.784e+00,9.431e+00,1.024e+01,1.136e+01,1.096e+01,1.018e+01,8.361e+00,1.066e+01,1.150e+01,9.401e+00,8.958e+00,1.138e+01,8.865e+00,1.029e+01,9.491e+00,1.251e+01,9.262e+00,9.970e+00,1.099e+01,1.020e+01,8.789e+00,1.247e+01,9.941e+00,9.599e+00,1.017e+01,1.017e+01,1.065e+01,1.121e+01,1.134e+01,9.805e+00,1.226e+01,1.165e+01,9.559e+00,1.058e+01,1.344e+01,9.272e+00,9.694e+00,1.021e+01,1.060e+01,9.358e+00,1.165e+01,1.073e+01,1.019e+01,1.108e+01,1.059e+01,8.664e+00
8.913e-02,6.526e-01,8.060e-01,1.139e+00,1.052e+00,1.611e+00,2.686e+00,1.555e+00,1.873e+00,3.093e+00,2.954e+00,3.343e+00,3.767e+00,3.383e+00,3.097e+00,3.256e+00,4.624e+00,3.808e+00,4.315e+00,3.092e+00,3.818e+00,2.852e+00,5.016e+00,3.572e+00,5.005e+00,4.651e+00,4.463e+00,5.622e+00,5.199e+00,6.141e+00,6.671e+00,7.247e+00,6.801e+00,6.575e+00,6.520e+00,7.594e+00,7.179e+00,7.158e+00,6.134e+00,7.689e+00,8.445e+00,7.764e+00,6.767e+00,8.350e+00,7.692e+00,6.980e+00,6.177e+00,8.660e+00,7.450e+00,6.781e+00,7.592e+00,7.700e+00,8.231e+00,9.985e+00,7.421e+00,7.820e+00,8.881e+00,7.769e+00,8.874e+00,8.101e+00,7.963e+00,8.353e+00,7.588e+00,7.395e+00,7.730e+00,7.283e+00,8.794e+00,6.484e+00,6.950e+00,7.158e+00,7.313e+00,6.325e+00,9.163e+00,8.112e+00,8.746e+00,7.420e+00,8.204e+00,6.552e+00
9.002e-02,3.480e-01,3.358e-01,8.678e-01,1.219e+00,9.925e-01,2.715e+00,1.193e+00,1.727e+00,3.046e+00,2.643e+00,3.490e+00,4.241e+00,3.889e+00,4.303e+00,3.517e+00,5.477e+00,4.483e+00,4.825e+00,4.654e+00,5.477e+00,5.306e+00,7.369e+00,6.371e+00,7.925e+00,7.687e+00,6.982e+00,8.637e+00,8.036e+00,8.623e+00,9.516e+00,9.559e+00,8.648e+00,8.330e+00,9.783e+00,9.882e+00,9.964e+00,1.035e+01,8.789e+00,1.120e+01,1.173e+01,1.075e+01,1.070e+01,1.055e+01,1.143e+01,9.827e+00,1.020e+01,1.317e+01,1.002e+01,1.067e+01,1.085e+01,1.064e+01,1.070e+01,1.395e+01,1.024e+01,1.041e+01,1.039e+01,1.197e+01,1.093e+01,1.183e+01,1.239e+01,1.023e+01,1.048e+01,1.144e+01,1.041e+01,1.125e+01,1.218e+01,9.741e+00,9.965e+00,1.225e+01,1.077e+01,9.430e+00,1.372e+01,1.237e+01,1.167e+01,1.031e+01,1.161e+01,8.900e+00
1.050e-01,3.108e-01,4.768e-01,1.006e+00,9.739e-01,1.173e+00,2.113e+00,1.166e+00,1.912e+00,2.884e+00,2.838e+00,2.748e+00,3.632e+00,2.665e+00,4.176e+00,4.362e+00,5.131e+00,4.310e+00,3.956e+00,3.740e+00,5.381e+00,4.562e+00,6.117e+00,4.888e+00,5.203e+00,6.313e+00,4.762e+00,7.044e+00,6.029e+00,6.947e+00,8.068e+00,7.432e+00,7.138e+00,7.686e+00,7.790e+00,7.873e+00,8.976e+00,7.599e+00,6.644e+00,9.649e+00,9.766e+00,8.714e+00,8.062e+00,8.851e+00,9.103e+00,8.762e+00,8.048e+00,1.135e+01,7.982e+00,9.303e+00,9.125e+00,1.016e+01,8.392e+00,1.050e+01,8.184e+00,7.575e+00,9.222e+00,8.812e+00,8.877e+00,9.332e+00,8.096e+00,8.267e+00,9.130e+00,8.030e+00,7.952e+00,8.592e+00,1.046e+01,7.497e+00,7.795e+00,9.398e+00,9.481e+00,6.841e+00,8.944e+00,8.707e+00,9.002e+00,9.223e+00,8.260e+00,7.850e+00
1.482e-01,6.932e-01,6.691e-01,1.303e+00,1.279e+00,1.229e+00,3.124e+00,1.618e+00,1.763e+00,3.366e+00,2.780e+00,3.512e+00,4.366e+00,3.934e+00,4.294e+00,4.288e+00,6.880e+00,4.817e+00,5.377e+00,5.464e+00,6.330e+00,4.348e+00,6.459e+00,4.856e+00,5.874e+00,6.623e+00,5.381e+00,8.465e+00,6.891e+00,7.744e+00,9.722e+00,9.974e+00,7.888e+00,7.854e+00,8.125e+00,9.773e+00,1.068e+01,8.777e+00,7.305e+00,1.044e+01,1.186e+01,1.180e+01,1.107e+01,1.142e+01,1.041e+01,1.029e+01,9.942e+00,1.260e+01,9.010e+00,1.074e+01,1.038e+01,1.103e+01,1.120e+01,1.404e+01,9.991e+00,9.901e+00,1.083e+01,1.280e+01,1.151e+01,1.126e+01,1.143e+01,1.081e+01,1.162e+01,1.015e+01,1.059e+01,1.169e+01,1.362e+01,9.270e+00,9.522e+00,1.281e+01,1.213e+01,9.539e+00,1.243e+01,1.159e+01,1.196e+01,1.200e+01,1.113e+01,9.629e+00
6.587e-02,4.737e-01,6.432e-01,9.576e-01,6.258e-01,1.254e+00,2.325e+00,1.598e+00,1.684e+00,3.031e+00,2.424e+00,2.993e+00,3.797e+00,3.265e+00,4.234e+00,3.844e+00,5.462e+00,4.119e+00,4.645e+00,4.312e+00,4.993e+00,4.057e+00,6.228e+00,5.707e+00,5.808e+00,6.748e+00,5.339e+00,7.056e+00,6.364e+00,6.203e+00,7.857e+00,8.605e+00,9.578e+00,8.911e+00,8.710e+00,1.025e+01,9.179e+00,8.832e+00,7.910e+00,9.122e+00,1.097e+01,1.037e+01,9.270e+00,1.079e+01,9.793e+00,1.004e+01,9.107e+00,1.252e+01,8.781e+00,1.006e+01,1.136e+01,1.038e+01,1.011e+01,1.233e+01,1.055e+01,9.650e+00,1.039e+01,1.077e+01,1.125e+01,1.123e+01,9.736e+00,9.467e+00,1.085e+01,1.113e+01,1.110e+01,1.030e+01,1.211e+01,9.303e+00,8.938e+00,9.155e+00,1.096e+01,1.031e+01,1.091e+01,1.120e+01,1.127e+01,1.141e+01,1.136e+01,9.068e+00
7.185e-02,4.705e-01,5.988e-01,8.998e-01,4.977e-01,9.124e-01,1.493e+00,1.005e+00,7.696e-01,1.707e+00,1.617e+00,1.847e+00,2.548e+00,2.143e+00,2.727e+00,3.189e+00,4.155e+00,3.445e+00,3.455e+00,3.748e+00,4.107e+00,3.077e+00,4.715e+00,3.277e+00,5.020e+00,5.061e+00,4.006e+00,5.270e+00,5.538e+00,5.798e+00,6.806e+00,7.672e+00,6.271e+00,6.444e+00,6.913e+00,8.037e+00,7.129e+00,6.477e+00,5.325e+00,7.876e+00,8.140e+00,7.677e+00,9.702e+00,9.632e+00,8.515e+00,8.838e+00,8.059e+00,1.081e+01,6.911e+00,8.608e+00,1.070e+01,8.300e+00,8.820e+00,1.024e+01,8.489e+00,7.617e+00,8.735e+00,9.761e+00,9.141e+00,9.675e+00,9.186e+00,8.749e+00,1.012e+01,8.909e+00,8.105e+00,8.912e+00,1.061e+01,7.611e+00,8.272e+00,9.095e+00,8.782e+00,7.609e+00,9.218e+00,9.299e+00,9.444e+00,7.976e+00,9.702e+00,8.029e+00
1.268e-02,1.011e-01,2.244e-01,5.668e-01,1.155e+00,7.698e-01,2.003e+00,1.128e+00,2.419e+00,3.119e+00,2.225e+00,2.278e+00,3.411e+00,2.852e+00,4.795e+00,3.970e+00,4.750e+00,4.840e+00,4.760e+00,5.370e+00,5.723e+00,5.417e+00,6.834e+00,5.655e+00,6.984e+00,8.251e+00,5.910e+00,7.751e+00,8.122e+00,8.469e+00,9.641e+00,9.429e+00,8.912e+00,9.234e+00,9.657e+00,9.237e+00,9.380e+00,8.675e+00,8.964e+00,1.189e+01,1.151e+01,1.197e+01,1.074e+01,1.318e+01,1.244e+01,1.153e+01,1.117e+01,1.449e+01,1.115e+01,1.177e+01,1.365e+01,1.253e+01,1.200e+01,1.375e+01,1.151e+01,1.100e+01,1.172e+01,1.305e+01,1.341e+01,1.306e+01,1.225e+01,1.113e+01,1.229e+01,1.305e+01,1.194e+01,1.243e+01,1.350e+01,1.101e+01,1.102e+01,1.181e+01,1.182e+01,1.074e+01,1.281e+01,1.271e+01,1.304e+01,1.274e+01,1.359e+01,1.003e+01
3.799e-02,3.175e-01,4.930e-01,7.308e-01,7.100e-01,9.630e-01,1.659e+00,1.189e+00,1.321e+00,2.271e+00,2.263e+00,2.332e+00,3.627e+00,2.858e+00,3.407e+00,4.182e+00,5.063e+00,4.676e+00,4.304e+00,4.911e+00,5.374e+00,4.671e+00,7.067e+00,4.951e+00,7.070e+00,6.740e+00,5.851e+00,7.295e+00,6.886e+00,7.242e+00,8.174e+00,9.318e+00,7.526e+00,7.309e+00,8.557e+00,8.771e+00,9.543e+00,7.724e+00,7.655e+00,1.018e+01,1.010e+01,9.653e+00,1.029e+01,1.067e+01,1.088e+01,1.019e+01,9.514e+00,1.219e+01,9.162e+00,9.801e+00,1.201e+01,1.024e+01,1.010e+01,1.409e+01,1.019e+01,8.634e+00,1.131e+01,1.082e+01,1.059e+01,1.167e+01,1.153e+01,1.095e+01,1.192e+01,1.047e+01,1.086e+01,1.063e+01,1.302e+01,9.172e+00,9.494e+00,1.098e+01,9.511e+00,1.033e+01,1.190e+01,1.078e+01,1.131e+01,1.081e+01,1.073e+01,9.579e+00
1.765e-02,2.922e-01,4.033e-01,8.319e-01,1.314e+00,8.540e-01,2.189e+00,1.035e+00,1.282e+00,2.088e+00,1.828e+00,2.930e+00,3.302e+00,3.989e+00,4.293e+00,3.735e+00,4.841e+00,4.849e+00,4.286e+00,4.964e+00,5.234e+00,4.980e+00,6.215e+00,5.502e+00,6.251e+00,7.025e+00,5.083e+00,7.597e+00,6.261e+00,7.103e+00,8.732e+00,8.746e+00,7.543e+00,7.650e+00,7.683e+00,9.126e+00,9.542e+00,9.111e+00,7.136e+00,1.040e+01,1.062e+01,9.546e+00,9.860e+00,1.020e+01,1.004e+01,1.043e+01,1.026e+01,1.242e+01,9.995e+00,1.020e+01,1.060e+01,1.125e+01,1.143e+01,1.260e+01,1.084e+01,9.172e+00,1.052e+01,1.179e+01,1.159e+01,1.253e+01,1.138e+01,1.073e+01,1.134e+01,1.029e+01,1.060e+01,1.117e+01,1.328e+01,1.014e+01,9.700e+00,1.194e+01,1.196e+01,1.096e+01,1.250e+01,1.176e+01,1.094e+01,1.172e+01,1.129e+01,8.337e+00
1.442e-01,3.708e-01,4.479e-01,9.959e-01,5.139e-01,1.111e+00,2.515e+00,1.643e+00,2.115e+00,3.661e+00,2.600e+00,3.484e+00,4.226e+00,3.164e+00,4.763e+00,3.859e+00,5.075e+00,3.898e+00,5.746e+00,4.257e+00,4.854e+00,4.141e+00,7.372e+00,5.661e+00,7.408e+00,6.508e+00,6.827e+00,7.857e+00,7.512e+00,8.065e+00,9.122e+00,1.038e+01,9.696e+00,9.123e+00,9.223e+00,1.088e+01,9.269e+00,8.269e+00,7.450e+00,1.123e+01,1.166e+01,1.168e+01,9.794e+00,1.209e+01,1.353e+01,1.244e+01,1.296e+01,1.452e+01,1.067e+01,1.337e+01,1.505e+01,1.295e+01,1.323e+01,1.616e+01,1.283e+01,1.116e+01,1.257e+01,1.303e+01,1.363e+01,1.442e+01,1.328e+01,1.202e+01,1.339e+01,1.323e+01,1.270e+01,1.278e+01,1.527e+01,1.263e+01,1.243e+01,1.289e+01,1.300e+01,1.257e+01,1.440e+01,1.378e+01,1.370e+01,1.286e+01,1.403e+01,1.210e+01
2.071e-02,2.664e-01,4.048e-01,6.526e-01,7.258e-01,9.246e-01,1.961e+00,1.246e+00,1.167e+00,2.252e+00,1.786e+00,2.921e+00,3.528e+00,3.450e+00,3.706e+00,4.021e+00,5.513e+00,4.624e+00,4.918e+00,4.527e+00,5.720e+00,4.462e+00,6.536e+00,5.719e+00,7.059e+00,5.605e+00,5.871e+00,7.442e+00,5.474e+00,6.858e+00,9.243e+00,9.485e+00,7.682e+00,7.806e+00,8.442e+00,1.004e+01,9.548e+00,8.530e+00,6.871e+00,9.308e+00,1.008e+01,9.074e+00,9.696e+00,1.062e+01,9.804e+00,1.047e+01,9.953e+00,1.308e+01,1.102e+01,1.121e+01,1.182e+01,1.237e+01,1.104e+01,1.306e+01,9.677e+00,1.165e+01,1.003e+01,1.127e+01,1.188e+01,1.310e+01,1.112e+01,1.085e+01,1.150e+01,1.089e+01,1.050e+01,1.070e+01,1.322e+01,1.100e+01,9.699e+00,1.328e+01,1.170e+01,1.045e+01,1.265e+01,1.184e+01,1.168e+01,1.098e+01,1.247e+01,8.882e+00
5.737e-02,4.788e-01,5.845e-01,8.182e-01,7.144e-01,1.108e+00,2.006e+00,1.247e+00,1.558e+00,2.541e+00,2.403e+00,2.718e+00,3.580e+00,3.272e+00,3.271e+00,3.521e+00,4.889e+00,3.944e+00,3.839e+00,3.493e+00,4.777e+00,3.369e+00,5.330e+00,4.471e+00,5.849e+00,5.433e+00,5.062e+00,6.145e+00,5.466e+00,6.229e+00,7.739e+00,7.866e+00,7.934e+00,7.323e+00,7.792e+00,9.623e+00,9.023e+00,8.294e+00,7.302e+00,8.699e+00,9.683e+00,8.987e+00,9.387e+00,1.091e+01,9.921e+00,1.004e+01,1.010e+01,1.396e+01,1.096e+01,1.159e+01,1.381e+01,1.325e+01,1.326e+01,1.473e+01,1.173e+01,1.212e+01,1.327e+01,1.235e+01,1.402e+01,1.516e+01,1.176e+01,1.239e+01,1.357e+01,1.245e+01,1.163e+01,1.201e+01,1.357e+01,1.098e+01,1.094e+01,1.194e+01,1.151e+01,1.267e+01,1.310e+01,1.303e+01,1.239e+01,1.059e+01,1.325e+01,1.034e+01
1.131e-01,3.801e-01,4.655e-01,1.143e+00,1.109e+00,1.128e+00,2.806e+00,1.424e+00,1.483e+00,3.218e+00,1.968e+00,3.724e+00,4.080e+00,3.631e+00,4.443e+00,3.901e+00,5.146e+00,4.126e+00,4.798e+00,3.985e+00,4.836e+00,3.863e+00,5.911e+00,6.062e+00,6.605e+00,5.450e+00,5.536e+00,7.226e+00,5.078e+00,6.419e+00,7.929e+00,8.016e+00,7.388e+00,7.550e+00,7.239e+00,9.759e+00,8.620e+00,9.054e+00,7.321e+00,8.830e+00,9.829e+00,9.033e+00,9.404e+00,9.627e+00,1.017e+01,1.029e+01,9.352e+00,1.313e+01,1.064e+01,1.218e+01,1.285e+01,1.217e+01,1.103e+01,1.363e+01,1.164e+01,1.265e+01,1.151e+01,1.336e+01,1.246e+01,1.368e+01,1.158e+01,1.135e+01,1.223e+01,1.231e+01,1.128e+01,1.247e+01,1.417e+01,1.200e+01,1.142e+01,1.297e+01,1.322e+01,1.223e+01,1.434e+01,1.314e+01,1.325e+01,1.077e+01,1.292e+01,1.034e+01
9.850e-02,4.453e-01,4.194e-01,8.634e-01,1.212e+00,1.194e+00,2.876e+00,1.314e+00,1.930e+00,3.669e+00,2.341e+00,3.374e+00,4.444e+00,3.668e+00,4.758e+00,4.550e+00,6.366e+00,5.818e+00,5.477e+00,5.782e+00,6.562e+00,5.422e+00,7.444e+00,5.593e+00,6.945e+00,7.356e+00,6.067e+00,8.265e+00,6.430e+00,7.989e+00,8.602e+00,9.595e+00,8.991e+00,8.828e+00,9.694e+00,1.020e+01,9.131e+00,9.191e+00,7.249e+00,1.112e+01,1.064e+01,1.189e+01,1.136e+01,1.211e+01,1.122e+01,1.030e+01,1.158e+01,1.346e+01,1.087e+01,1.229e+01,1.447e+01,1.403e+01,1.316e+01,1.437e+01,1.192e+01,1.201e+01,1.288e+01,1.394e+01,1.460e+01,1.452e+01,1.311e+01,1.315e+01,1.438e+01,1.308e+01,1.341e+01,1.328e+01,1.514e+01,1.150e+01,1.091e+01,1.331e+01,1.397e+01,1.240e+01,1.303e+01,1.351e+01,1.310e+01,1.410e+01,1.474e+01,1.112e+01
1.153e-01,5.810e-01,5.462e-01,9.356e-01,8.468e-01,1.193e+00,2.924e+00,1.675e+00,1.830e+00,3.654e+00,2.140e+00,3.498e+00,4.291e+00,3.729e+00,4.220e+00,3.949e+00,5.844e+00,4.444e+00,5.708e+00,5.239e+00,6.181e+00,5.125e+00,7.514e+00,5.929e+00,8.202e+00,6.693e+00,7.210e+00,8.222e+00,6.636e+00,8.402e+00,9.503e+00,1.072e+01,1.009e+01,9.153e+00,9.826e+00,1.138e+01,1.009e+01,9.880e+00,8.033e+00,1.108e+01,1.070e+01,1.095e+01,1.086e+01,1.261e+01,1.122e+01,1.209e+01,1.189e+01,1.367e+01,1.179e+01,1.257e+01,1.509e+01,1.455e+01,1.426e+01,1.565e+01,1.247e+01,1.292e+01,1.409e+01,1.359e+01,1.558e+01,1.563e+01,1.307e+01,1.299e+01,1.410e+01,1.390e+01,1.409e+01,1.369e+01,1.547e+01,1.268e+01,1.236e+01,1.407e+01,1.474e+01,1.297e+01,1.495e+01,1.482e+01,1.467e+01,1.373e+01,1.506e+01,1.156e+01
7.741e-02,3.526e-01,5.237e-01,9.660e-01,8.495e-01,1.112e+00,1.899e+00,1.031e+00,1.475e+00,2.538e+00,2.581e+00,2.856e+00,3.821e+00,2.965e+00,4.491e+00,4.739e+00,5.635e+00,5.350e+00,4.896e+00,4.839e+00,5.597e+00,4.565e+00,6.945e+00,5.655e+00,6.634e+00,7.021e+00,5.457e+00,7.627e+00,6.619e+00,7.611e+00,9.470e+00,8.919e+00,8.154e+00,8.800e+00,9.171e+00,1.054e+01,9.466e+00,9.174e+00,7.494e+00,1.102e+01,1.116e+01,9.893e+00,1.020e+01,1.230e+01,1.125e+01,1.157e+01,1.179e+01,1.429e+01,1.104e+01,1.254e+01,1.460e+01,1.389e+01,1.424e+01,1.612e+01,1.361e+01,1.344e+01,1.461e+01,1.455e+01,1.444e+01,1.528e+01,1.430e+01,1.277e+01,1.518e+01,1.385e+01,1.373e+01,1.346e+01,1.657e+01,1.310e+01,1.228e+01,1.363e+01,1.362e+01,1.380e+01,1.521e+01,1.438e+01,1.416e+01,1.436e+01,1.399e+01,1.355e+01
5.096e-02,3.303e-01,4.325e-01,7.218e-01,6.616e-01,1.006e+00,2.213e+00,1.417e+00,1.734e+00,2.844e+00,2.285e+00,2.770e+00,3.495e+00,3.025e+00,4.096e+00,3.262e+00,4.504e+00,3.245e+00,3.964e+00,3.435e+00,4.368e+00,3.626e+00,5.782e+00,4.859e+00,5.443e+00,6.134e+00,5.206e+00,6.010e+00,5.844e+00,6.240e+00,7.411e+00,8.997e+00,9.020e+00,7.722e+00,7.699e+00,1.019e+01,9.463e+00,7.910e+00,7.503e+00,8.899e+00,1.022e+01,9.088e+00,8.787e+00,1.092e+01,1.074e+01,9.841e+00,9.551e+00,1.372e+01,1.032e+01,1.145e+01,1.288e+01,1.347e+01,1.261e+01,1.559e+01,1.347e+01,1.331e+01,1.387e+01,1.373e+01,1.383e+01,1.566e+01,1.200e+01,1.206e+01,1.460e+01,1.334e+01,1.241e+01,1.220e+01,1.661e+01,1.216e+01,1.286e+01,1.231e+01,1.391e+01,1.262e+01,1.359e+01,1.362e+01,1.396e+01,1.419e+01,1.348e+01,1.187e+01
5.778e-02,5.183e-01,6.323e-01,9.581e-01,1.152e+00,1.430e+00,2.895e+00,1.631e+00,1.844e+00,3.223e+00,3.073e+00,3.739e+00,4.529e+00,4.091e+00,4.725e+00,4.306e+00,6.292e+00,5.133e+00,5.519e+00,4.635e+00,6.131e+00,5.550e+00,7.972e+00,6.551e+00,7.845e+00,7.796e+00,7.135e+00,8.714e+00,6.553e+00,8.088e+00,1.012e+01,1.083e+01,1.080e+01,9.801e+00,1.022e+01,1.239e+01,1.125e+01,1.107e+01,9.410e+00,1.215e+01,1.244e+01,1.193e+01,1.208e+01,1.271e+01,1.315e+01,1.235e+01,1.276e+01,1.504e+01,1.287e+01,1.360e+01,1.478e+01,1.475e+01,1.410e+01,1.733e+01,1.366e+01,1.474e+01,1.526e+01,1.521e+01,1.561e+01,1.569e+01,1.476e+01,1.420e+01,1.512e+01,1.445e+01,1.595e+01,1.405e+01,1.792e+01,1.459e+01,1.297e+01,1.523e+01,1.509e+01,1.428e+01,1.629e+01,1.529e+01,1.522e+01,1.601e+01,1.623e+01,1.337e+01
1.331e-01,3.146e-01,3.420e-01,8.870e-01,9.842e-01,1.020e+00,2.314e+00,1.176e+00,1.716e+00,3.299e+00,2.154e+00,3.054e+00,4.128e+00,2.984e+00,3.627e+00,4.708e+00,5.978e+00,4.654e+00,5.371e+00,5.951e+00,6.865e+00,5.167e+00,6.976e+00,6.287e+00,7.683e+00,7.184e+00,6.360e+00,9.566e+00,7.626e+00,7.997e+00,9.409e+00,1.038e+01,9.318e+00,1.014e+01,1.044e+01,1.011e+01,1.083e+01,1.002e+01,9.250e+00,1.039e+01,1.169e+01,1.104e+01,1.164e+01,1.238e+01,1.166e+01,1.275e+01,1.112e+01,1.444e+01,1.060e+01,1.256e+01,1.287e+01,1.420e+01,1.269e+01,1.677e+01,1.348e+01,1.445e+01,1.412e+01,1.582e+01,1.494e+01,1.503e+01,1.373e+01,1.409e+01,1.468e+01,1.436e+01,1.413e+01,1.437e+01,1.617e+01,1.305e+01,1.366e+01,1.488e+01,1.539e+01,1.377e+01,1.532e+01,1.523e+01,1.539e+01,1.500e+01,1.461e+01,1.302e+01
7.427e-02,1.386e-01,3.057e-01,9.237e-01,1.303e+00,1.148e+00,2.455e+00,1.086e+00,2.154e+00,3.232e+00,2.811e+00,3.642e+00,4.237e+00,3.810e+00,5.546e+00,5.105e+00,6.021e+00,5.739e+00,5.247e+00,5.076e+00,5.921e+00,5.236e+00,7.598e+00,6.554e+00,7.131e+00,7.450e+00,6.434e+00,8.375e+00,6.858e+00,8.633e+00,9.586e+00,9.566e+00,9.133e+00,8.751e+00,9.315e+00,1.112e+01,1.042e+01,9.872e+00,8.399e+00,1.219e+01,1.138e+01,1.230e+01,1.105e+01,1.304e+01,1.287e+01,1.216e+01,1.301e+01,1.602e+01,1.293e+01,1.418e+01,1.618e+01,1.599e+01,1.540e+01,1.682e+01,1.470e+01,1.504e+01,1.703e+01,1.756e+01,1.635e+01,1.788e+01,1.543e+01,1.572e+01,1.715e+01,1.685e+01,1.681e+01,1.615e+01,1.928e+01,1.504e+01,1.534e+01,1.694e+01,1.763e+01,1.709e+01,1.782e+01,1.745e+01,1.631e+01,1.706e+01,1.736e+01,1.499e+01
5.135e-02,3.925e-01,5.244e-01,7.489e-01,9.356e-01,1.267e+00,2.499e+00,1.681e+00,1.962e+00,3.572e+00,2.759e+00,2.729e+00,4.346e+00,2.591e+00,4.291e+00,4.132e+00,4.671e+00,4.149e+00,4.611e+00,4.688e+00,4.503e+00,4.459e+00,6.284e+00,4.448e+00,5.508e+00,6.362e+00,5.740e+00,7.481e+00,6.271e+00,6.791e+00,8.467e+00,9.094e+00,9.054e+00,8.665e+00,8.421e+00,9.990e+00,1.004e+01,9.705e+00,9.093e+00,1.058e+01,1.145e+01,1.000e+01,1.007e+01,1.068e+01,1.126e+01,1.187e+01,1.041e+01,1.382e+01,1.112e+01,1.192e+01,1.286e+01,1.187e+01,1.200e+01,1.569e+01,1.283e+01,1.153e+01,1.488e+01,1.429e+01,1.330e+01,1.440e+01,1.297e+01,1.141e+01,1.354e+01,1.405e+01,1.381e+01,1.285e+01,1.584e+01,1.225e+01,1.317e+01,1.451e+01,1.297e+01,1.303e+01,1.572e+01,1.349e+01,1.620e+01,1.394e+01,1.487e+01,1.296e+01
3.084e-02,4.684e-01,5.305e-01,5.996e-01,2.900e-01,8.466e-01,1.848e+00,1.474e+00,1.101e+00,2.166e+00,2.209e+00,2.667e+00,3.746e+00,3.382e+00,3.766e+00,3.362e+00,4.550e+00,3.267e+00,4.258e+00,3.164e+00,4.481e+00,2.890e+00,5.597e+00,4.377e+00,6.082e+00,5.579e+00,5.211e+00,7.089e+00,5.830e+00,6.183e+00,8.101e+00,8.302e+00,8.409e+00,7.292e+00,8.270e+00,1.027e+01,9.764e+00,9.104e+00,7.329e+00,9.568e+00,1.206e+01,9.455e+00,1.026e+01,1.085e+01,1.176e+01,1.165e+01,1.076e+01,1.513e+01,1.113e+01,1.164e+01,1.431e+01,1.441e+01,1.316e+01,1.717e+01,1.413e+01,1.300e+01,1.519e+01,1.657e+01,1.474e+01,1.679e+01,1.532e+01,1.401e+01,1.570e+01,1.560e+01,1.631e+01,1.443e+01,1.740e+01,1.424e+01,1.371e+01,1.545e+01,1.599e+01,1.514e+01,1.817e+01,1.563e+01,1.611e+01,1.551e+01,1.467e+01,1.470e+01
6.645e-02,2.089e-01,2.445e-01,8.014e-01,1.479e+00,8.978e-01,2.350e+00,8.295e-01,2.085e+00,3.171e+00,2.589e+00,3.315e+00,4.293e+00,3.826e+00,4.585e+00,4.053e+00,4.645e+00,4.246e+00,3.728e+00,4.621e+00,4.854e+00,4.178e+00,5.597e+00,5.494e+00,5.578e+00,6.371e+00,5.917e+00,7.253e+00,6.690e+00,7.239e+00,8.255e+00,8.361e+00,7.636e+00,7.602e+00,7.857e+00,9.462e+00,9.995e+00,9.707e+00,8.051e+00,9.947e+00,1.107e+01,9.513e+00,9.851e+00,9.571e+00,1.088e+01,1.119e+01,1.091e+01,1.406e+01,1.113e+01,1.118e+01,1.251e+01,1.238e+01,1.404e+01,1.565e+01,1.287e+01,1.349e+01,1.438e+01,1.512e+01,1.483e+01,1.681e+01,1.588e+01,1.397e+01,1.580e+01,1.455e+01,1.540e+01,1.450e+01,1.673e+01,1.317e+01,1.381e+01,1.628e+01,1.509e+01,1.496e+01,1.788e+01,1.665e+01,1.627e+01,1.456e+01,1.583e+01,1.522e+01
9.726e-02,4.356e-01,5.773e-01,1.030e+00,6.387e-01,1.039e+00,2.051e+00,1.379e+00,1.500e+00,2.476e+00,2.735e+00,2.681e+00,3.544e+00,2.803e+00,4.139e+00,4.375e+00,5.288e+00,3.472e+00,4.303e+00,3.894e+00,4.953e+00,4.003e+00,5.912e+00,4.657e+00,5.610e+00,5.438e+00,5.422e+00,7.132e+00,5.850e+00,7.047e+00,8.206e+00,7.882e+00,7.396e+00,6.419e+00,7.048e+00,8.734e+00,8.933e+00,7.205e+00,7.041e+00,8.703e+00,9.742e+00,9.246e+00,7.569e+00,9.372e+00,1.025e+01,9.767e+00,9.893e+00,1.280e+01,1.000e+01,9.604e+00,1.179e+01,1.155e+01,1.082e+01,1.476e+01,1.206e+01,1.209e+01,1.281e+01,1.291e+01,1.370e+01,1.508e+01,1.254e+01,1.404e+01,1.397e+01,1.369e+01,1.480e+01,1.330e+01,1.650e+01,1.253e+01,1.381e+01,1.512e+01,1.387e+01,1.281e+01,1.544e+01,1.476e+01,1.483e+01,1.463e+01,1.522e+01,1.370e+01
2.512e-02,6.101e-02,1.362e-01,4.814e-01,8.131e-01,5.944e-01,1.802e+00,9.990e-01,1.397e+00,2.142e+00,1.575e+00,2.027e+00,2.447e+00,2.309e+00,3.252e+00,2.580e+00,4.671e+00,3.185e+00,3.447e+00,3.514e+00,4.602e+00,3.791e+00,5.057e+00,4.523e+00,5.100e+00,5.949e+00,5.021e+00,6.319e+00,6.003e+00,6.313e+00,7.598e+00,8.413e+00,7.564e+00,6.864e+00,7.731e+00,8.562e+00,8.338e+00,7.629e+00,6.677e+00,9.417e+00,9.845e+00,9.902e+00,9.896e+00,1.061e+01,1.081e+01,9.935e+00,1.149e+01,1.304e+01,1.036e+01,1.152e+01,1.220e+01,1.291e+01,1.189e+01,1.520e+01,1.129e+01,1.372e+01,1.355e+01,1.617e+01,1.402e+01,1.575e+01,1.393e+01,1.494e+01,1.621e+01,1.438e+01,1.664e+01,1.510e+01,1.727e+01,1.339e+01,1.511e+01,1.821e+01,1.691e+01,1.451e+01,1.703e+01,1.695e+01,1.600e+01,1.621e+01,1.707e+01,1.467e+01
1.371e-01,4.579e-01,6.194e-01,1.264e+00,1.146e+00,1.411e+00,2.386e+00,1.105e+00,1.995e+00,3.202e+00,2.986e+00,3.627e+00,4.364e+00,3.901e+00,4.830e+00,5.396e+00,6.336e+00,6.124e+00,5.870e+00,6.301e+00,6.220e+00,5.337e+00,7.867e+00,6.566e+00,7.558e+00,8.034e+00,6.180e+00,9.261e+00,7.720e+00,8.581e+00,9.071e+00,9.971e+00,9.166e+00,9.689e+00,9.847e+00,1.081e+01,1.058e+01,9.443e+00,8.605e+00,1.142e+01,1.144e+01,1.126e+01,1.105e+01,1.269e+01,1.076e+01,1.141e+01,1.154e+01,1.516e+01,1.114e+01,1.260e+01,1.367e+01,1.382e+01,1.347e+01,1.721e+01,1.416e+01,1.483e+01,1.498e+01,1.613e+01,1.595e+01,1.766e+01,1.567e+01,1.636e+01,1.730e+01,1.696e+01,1.704e+01,1.490e+01,1.849e+01,1.544e+01,1.736e+01,1.775e+01,1.796e+01,1.680e+01,1.788e+01,1.816e+01,1.900e+01,1.715e+01,1.746e+01,1.696e+01
4.858e-02,2.870e-01,3.636e-01,7.638e-01,8.631e-01,8.090e-01,2.019e+00,1.057e+00,1.507e+00,2.380e+00,1.735e+00,2.535e+00,2.822e+00,2.911e+00,3.882e+00,3.224e+00,5.185e+00,3.419e+00,4.445e+00,4.123e+00,5.299e+00,4.040e+00,5.499e+00,5.321e+00,4.970e+00,6.017e+00,4.715e+00,6.573e+00,6.564e+00,5.922e+00,8.837e+00,8.697e+00,8.490e+00,8.537e+00,7.931e+00,1.023e+01,9.167e+00,9.314e+00,6.948e+00,1.003e+01,1.207e+01,1.048e+01,9.930e+00,1.069e+01,1.038e+01,1.059e+01,1.113e+01,1.374e+01,1.034e+01,1.187e+01,1.250e+01,1.383e+01,1.337e+01,1.440e+01,1.251e+01,1.499e+01,1.461e+01,1.735e+01,1.630e+01,1.596e+01,1.404e+01,1.445e+01,1.697e+01,1.709e+01,1.778e+01,1.595e+01,1.893e+01,1.447e+01,1.598e+01,1.728e+01,1.865e+01,1.561e+01,1.794e+01,1.820e+01,1.843e+01,1.783e+01,1.715e+01,1.658e+01
1.497e-01,6.103e-01,5.629e-01,1.105e+00,9.463e-01,1.139e+00,2.981e+00,1.692e+00,1.476e+00,3.356e+00,2.503e+00,3.011e+00,4.021e+00,2.679e+00,3.528e+00,3.391e+00,5.288e+00,2.895e+00,4.505e+00,3.800e+00,5.052e+00,4.040e+00,5.913e+00,3.924e+00,5.543e+00,5.083e+00,5.000e+00,6.472e+00,6.015e+00,6.400e+00,7.860e+00,8.208e+00,6.837e+00,6.551e+00,7.395e+00,7.805e+00,8.021e+00,7.560e+00,6.467e+00,8.045e+00,9.592e+00,9.585e+00,8.723e+00,9.201e+00,9.698e+00,9.380e+00,1.054e+01,1.187e+01,1.011e+01,1.164e+01,1.173e+01,1.250e+01,1.221e+01,1.433e+01,1.120e+01,1.233e+01,1.316e+01,1.328e+01,1.391e+01,1.393e+01,1.299e+01,1.369e+01,1.351e+01,1.473e+01,1.559e+01,1.313e+01,1.575e+01,1.326e+01,1.329e+01,1.541e+01,1.657e+01,1.346e+01,1.548e+01,1.519e+01,1.600e+01,1.435e+01,1.495e+01,1.648e+01
8.264e-02,3.864e-01,3.375e-01,7.557e-01,1.294e+00,1.018e+00,2.361e+00,7.458e-01,1.907e+00,2.855e+00,2.303e+00,3.200e+00,3.484e+00,3.517e+00,3.959e+00,3.355e+00,4.951e+00,3.924e+00,4.535e+00,4.185e+00,5.774e+00,4.877e+00,6.276e+00,6.090e+00,6.947e+00,6.909e+00,6.351e+00,7.278e+00,6.119e+00,7.161e+00,7.868e+00,9.015e+00,8.903e+00,8.131e+00,8.897e+00,1.045e+01,9.643e+00,9.898e+00,8.093e+00,1.115e+01,1.108e+01,1.138e+01,1.158e+01,1.230e+01,1.319e+01,1.048e+01,1.287e+01,1.412e+01,1.223e+01,1.266e+01,1.406e+01,1.460e+01,1.395e+01,1.598e+01,1.363e+01,1.436e+01,1.523e+01,1.777e+01,1.481e+01,1.622e+01,1.492e+01,1.542e+01,1.608e+01,1.578e+01,1.718e+01,1.597e+01,1.734e+01,1.460e+01,1.512e+01,1.722e+01,1.718e+01,1.539e+01,1.771e+01,1.836e+01,1.607e+01,1.679e+01,1.875e+01,1.509e+01
8.132e-02,1.921e-01,2.813e-01,8.154e-01,1.245e+00,1.009e+00,2.279e+00,9.938e-01,1.877e+00,2.802e+00,2.123e+00,2.771e+00,3.019e+00,2.842e+00,3.815e+00,3.654e+00,5.410e+00,4.360e+00,4.952e+00,5.160e+00,5.499e+00,4.385e+00,6.010e+00,4.811e+00,6.152e+00,6.876e+00,5.970e+00,8.258e+00,7.733e+00,7.992e+00,9.903e+00,1.049e+01,8.719e+00,9.165e+00,9.413e+00,9.647e+00,1.086e+01,8.488e+00,7.866e+00,1.142e+01,1.275e+01,1.297e+01,1.217e+01,1.289e+01,1.312e+01,1.250e+01,1.290e+01,1.493e+01,1.207e+01,1.310e+01,1.460e+01,1.516e+01,1.469e+01,1.763e+01,1.368e+01,1.385e+01,1.559e+01,1.772e+01,1.603e+01,1.621e+01,1.536e+01,1.544e+01,1.655e+01,1.650e+01,1.785e+01,1.602e+01,1.934e+01,1.551e+01,1.606e+01,1.757e+01,1.787e+01,1.712e+01,1.910e+01,1.913e+01,1.833e+01,1.886e+01,1.857e+01,1.595e+01
1.279e-01,3.678e-01,5.346e-01,1.364e+00,1.509e+00,1.481e+00,3.416e+00,1.732e+00,1.630e+00,3.831e+00,2.815e+00,4.367e+00,5.254e+00,4.159e+00,5.108e+00,5.473e+00,6.819e+00,5.984e+00,6.031e+00,5.902e+00,6.403e+00,5.963e+00,8.428e+00,6.516e+00,8.229e+00,6.817e+00,6.704e+00,9.070e+00,7.323e+00,8.831e+00,1.042e+01,1.102e+01,9.227e+00,1.006e+01,1.045e+01,1.174e+01,1.046e+01,1.031e+01,8.792e+00,1.142e+01,1.193e+01,1.233e+01,1.148e+01,1.210e+01,1.190e+01,1.198e+01,1.213e+01,1.392e+01,1.218e+01,1.392e+01,1.522e+01,1.569e+01,1.437e+01,1.743e+01,1.504e+01,1.507e+01,1.629e+01,1.610e+01,1.764e+01,1.664e+01,1.509e+01,1.529e+01,1.762e+01,1.654e+01,1.816e+01,1.573e+01,1.939e+01,1.657e+01,1.703e+01,1.814e+01,1.927e+01,1.763e+01,1.947e+01,1.900e+01,1.929e+01,1.912e+01,1.920e+01,1.731e+01
5.506e-02,4.249e-01,5.415e-01,9.804e-01,9.653e-01,1.041e+00,2.671e+00,1.712e+00,1.755e+00,3.240e+00,2.354e+00,3.500e+00,4.501e+00,4.140e+00,5.354e+00,4.407e+00,6.008e+00,4.620e+00,5.543e+00,5.022e+00,5.838e+00,4.480e+00,7.029e+00,6.199e+00,6.640e+00,6.821e+00,5.931e+00,8.139e+00,7.023e+00,6.807e+00,9.434e+00,9.360e+00,8.961e+00,8.431e+00,8.356e+00,1.128e+01,9.835e+00,9.362e+00,7.622e+00,1.104e+01,1.182e+01,9.739e+00,1.047e+01,1.048e+01,1.112e+01,1.119e+01,1.048e+01,1.410e+01,1.002e+01,1.246e+01,1.329e+01,1.373e+01,1.336e+01,1.567e+01,1.290e+01,1.393e+01,1.457e+01,1.607e+01,1.411e+01,1.580e+01,1.439e+01,1.204e+01,1.525e+01,1.574e+01,1.594e+01,1.436e+01,1.694e+01,1.455e+01,1.557e+01,1.819e+01,1.833e+01,1.644e+01,1.891e+01,1.725e+01,1.756e+01,1.708e+01,1.706e+01,1.654e+01
8.760e-02,3.551e-01,5.628e-01,1.124e+00,8.993e-01,1.166e+00,2.087e+00,1.146e+00,1.274e+00,2.379e+00,2.351e+00,3.429e+00,3.875e+00,3.801e+00,4.203e+00,4.567e+00,5.124e+00,5.070e+00,4.697e+00,4.200e+00,4.653e+00,4.100e+00,6.937e+00,5.938e+00,7.445e+00,6.911e+00,6.017e+00,8.467e+00,7.664e+00,8.104e+00,1.049e+01,1.049e+01,9.313e+00,9.343e+00,9.262e+00,1.145e+01,1.073e+01,9.208e+00,7.826e+00,1.178e+01,1.163e+01,1.160e+01,1.077e+01,1.253e+01,1.265e+01,1.238e+01,1.269e+01,1.534e+01,1.159e+01,1.333e+01,1.596e+01,1.525e+01,1.401e+01,1.828e+01,1.481e+01,1.526e+01,1.671e+01,1.771e+01,1.634e+01,1.758e+01,1.543e+01,1.560e+01,1.831e+01,1.722e+01,1.892e+01,1.609e+01,1.964e+01,1.650e+01,1.788e+01,1.947e+01,1.969e+01,1.890e+01,2.053e+01,1.936e+01,1.899e+01,1.896e+01,2.024e+01,1.810e+01
5.675e-03,1.128e-01,1.541e-01,4.555e-01,1.350e+00,9.757e-01,2.968e+00,1.610e+00,2.303e+00,3.870e+00,2.257e+00,3.383e+00,4.492e+00,3.762e+00,5.789e+00,4.157e+00,6.071e+00,5.548e+00,6.080e+00,6.152e+00,5.732e+00,5.128e+00,7.593e+00,5.420e+00,6.709e+00,7.681e+00,7.159e+00,8.614e+00,7.614e+00,8.523e+00,1.038e+01,1.121e+01,9.828e+00,9.718e+00,9.977e+00,1.120e+01,9.777e+00,1.005e+01,9.099e+00,1.188e+01,1.283e+01,1.140e+01,1.150e+01,1.316e+01,1.284e+01,1.263e+01,1.251e+01,1.559e+01,1.249e+01,1.375e+01,1.488e+01,1.614e+01,1.614e+01,1.763e+01,1.496e+01,1.641e+01,1.690e+01,1.819e+01,1.758e+01,1.781e+01,1.669e+01,1.488e+01,1.855e+01,1.836e+01,1.654e+01,1.652e+01,1.947e+01,1.609e+01,1.807e+01,2.010e+01,2.086e+01,1.792e+01,2.233e+01,1.913e+01,2.210e+01,1.961e+01,1.985e+01,1.811e+01
6.503e-03,2.980e-01,3.846e-01,4.922e-01,8.294e-01,8.030e-01,1.355e+00,6.669e-01,9.508e-01,1.679e+00,1.265e+00,2.002e+00,2.541e+00,2.694e+00,2.664e+00,3.233e+00,4.405e+00,3.990e+00,4.090e+00,5.158e+00,4.659e+00,4.052e+00,5.685e+00,4.799e+00,5.964e+00,6.267e+00,5.585e+00,7.068e+00,7.012e+00,6.288e+00,7.795e+00,9.408e+00,7.917e+00,7.434e+00,7.992e+00,8.906e+00,8.360e+00,8.021e+00,7.101e+00,9.526e+00,9.549e+00,8.380e+00,9.918e+00,1.027e+01,9.728e+00,9.757e+00,1.032e+01,1.235e+01,9.222e+00,1.018e+01,1.112e+01,1.073e+01,1.197e+01,1.537e+01,1.128e+01,1.260e+01,1.349e+01,1.499e+01,1.252e+01,1.513e+01,1.417e+01,1.256e+01,1.526e+01,1.438e+01,1.426e+01,1.250e+01,1.514e+01,1.277e+01,1.486e+01,1.725e+01,1.519e+01,1.493e+01,1.795e+01,1.671e+01,1.646e+01,1.503e+01,1.700e+01,1.550e+01
8.937e-02,2.588e-01,3.988e-01,8.266e-01,7.251e-01,1.123e+00,2.131e+00,1.239e+00,1.275e+00,2.558e+00,1.924e+00,2.809e+00,3.013e+00,2.572e+00,3.634e+00,3.771e+00,5.675e+00,4.797e+00,5.011e+00,4.719e+00,4.969e+00,3.993e+00,5.763e+00,4.905e+00,6.336e+00,5.849e+00,6.097e+00,8.410e+00,6.644e+00,7.658e+00,8.601e+00,9.469e+00,8.777e+00,8.244e+00,9.269e+00,9.966e+00,9.718e+00,8.478e+00,7.022e+00,9.271e+00,1.151e+01,1.044e+01,9.980e+00,1.148e+01,1.210e+01,1.174e+01,1.111e+01,1.503e+01,1.084e+01,1.191e+01,1.357e+01,1.396e+01,1.331e+01,1.794e+01,1.460e+01,1.441e+01,1.473e+01,1.598e+01,1.508e+01,1.711e+01,1.427e+01,1.524e+01,1.575e+01,1.607e+01,1.679e+01,1.642e+01,1.942e+01,1.424e+01,1.761e+01,1.901e+01,1.782e+01,1.724e+01,1.994e+01,1.959e+01,1.830e+01,1.793e+01,2.063e+01,1.644e+01
3.107e-02,4.264e-01,4.602e-01,5.262e-01,7.198e-01,1.011e+00,1.887e+00,1.077e+00,2.143e+00,2.912e+00,2.292e+00,2.680e+00,3.682e+00,3.615e+00,4.178e+00,3.832e+00,5.414e+00,5.068e+00,4.739e+00,4.679e+00,5.313e+00,4.130e+00,6.369e+00,5.271e+00,6.065e+00,6.350e+00,6.089e+00,7.301e+00,6.480e+00,7.623e+00,8.472e+00,9.098e+00,8.289e+00,7.063e+00,7.930e+00,9.169e+00,8.143e+00,8.130e+00,6.836e+00,9.097e+00,9.635e+00,9.675e+00,8.902e+00,1.136e+01,1.139e+01,1.062e+01,1.086e+01,1.321e+01,1.041e+01,1.097e+01,1.393e+01,1.315e+01,1.316e+01,1.537e+01,1.206e+01,1.415e+01,1.448e+01,1.677e+01,1.572e+01,1.818e+01,1.499e+01,1.466e+01,1.617e+01,1.567e+01,1.810e+01,1.615e+01,1.780e+01,1.454e+01,1.654e+01,1.814e+01,1.794e+01,1.814e+01,2.072e+01,1.816e+01,1.975e+01,1.878e+01,1.989e+01,1.676e+01
1.312e-02,3.918e-01,6.139e-01,8.548e-01,8.544e-01,1.041e+00,2.043e+00,1.596e+00,1.287e+00,2.323e+00,2.417e+00,1.979e+00,3.226e+00,2.226e+00,3.587e+00,3.617e+00,4.579e+00,3.459e+00,3.704e+00,4.108e+00,4.743e+00,4.525e+00,5.945e+00,4.149e+00,5.998e+00,7.038e+00,5.425e+00,6.573e+00,6.748e+00,6.614e+00,8.448e+00,8.719e+00,8.488e+00,7.219e+00,7.676e+00,8.912e+00,9.361e+00,8.315e+00,7.991e+00,1.017e+01,1.026e+01,9.404e+00,9.777e+00,1.139e+01,1.106e+01,1.103e+01,1.162e+01,1.349e+01,1.074e+01,1.156e+01,1.330e+01,1.314e+01,1.349e+01,1.666e+01,1.389e+01,1.305e+01,1.514e+01,1.520e+01,1.463e+01,1.596e+01,1.484e+01,1.425e+01,1.639e+01,1.677e+01,1.699e+01,1.647e+01,1.871e+01,1.454e+01,1.691e+01,1.726e+01,1.841e+01,1.838e+01,2.045e+01,1.839e+01,2.105e+01,2.020e+01,2.200e+01,1.867e+01
3.605e-02,3.350e-01,3.499e-01,4.152e-01,6.398e-01,1.008e+00,1.935e+00,1.040e+00,1.468e+00,2.498e+00,1.814e+00,2.453e+00,2.923e+00,2.624e+00,2.608e+00,2.570e+00,4.334e+00,3.663e+00,4.733e+00,4.047e+00,4.292e+00,3.694e+00,5.514e+00,3.606e+00,5.584e+00,4.544e+00,5.330e+00,5.880e+00,5.015e+00,6.027e+00,6.743e+00,9.214e+00,7.409e+00,6.541e+00,7.547e+00,8.887e+00,8.159e+00,7.912e+00,6.012e+00,9.614e+00,9.612e+00,1.013e+01,9.101e+00,1.093e+01,1.068e+01,9.515e+00,1.016e+01,1.046e+01,1.020e+01,1.083e+01,1.254e+01,1.158e+01,1.155e+01,1.508e+01,1.034e+01,1.167e+01,1.348e+01,1.414e+01,1.249e+01,1.335e+01,1.364e+01,1.301e+01,1.359e+01,1.412e+01,1.733e+01,1.489e+01,1.718e+01,1.319e+01,1.447e+01,1.647e+01,1.637e+01,1.640e+01,1.915e+01,1.740e+01,1.930e+01,1.740e+01,1.942e+01,1.645e+01
1.500e-01,4.200e-01,5.653e-01,1.191e+00,5.097e-01,9.911e-01,1.937e+00,1.342e+00,1.865e+00,2.660e+00,2.763e+00,2.944e+00,3.584e+00,3.227e+00,4.250e+00,4.567e+00,5.228e+00,3.288e+00,5.213e+00,4.203e+00,5.884e+00,4.469e+00,6.188e+00,5.525e+00,6.793e+00,5.980e+00,5.501e+00,8.213e+00,6.937e+00,7.016e+00,9.230e+00,8.939e+00,8.681e+00,8.073e+00,7.793e+00,9.799e+00,1.059e+01,8.884e+00,8.240e+00,9.843e+00,1.107e+01,1.033e+01,8.295e+00,1.018e+01,1.033e+01,1.117e+01,1.132e+01,1.372e+01,1.083e+01,1.225e+01,1.310e+01,1.352e+01,1.270e+01,1.645e+01,1.385e+01,1.455e+01,1.591e+01,1.550e+01,1.502e+01,1.704e+01,1.429e+01,1.360e+01,1.595e+01,1.648e+01,1.801e+01,1.532e+01,1.921e+01,1.516e+01,1.732e+01,1.854e+01,1.974e+01,1.905e+01,2.117e+01,1.900e+01,2.010e+01,1.932e+01,2.084e+01,1.966e+01
1.633e-05,2.634e-01,5.235e-01,8.462e-01,1.214e+00,1.138e+00,2.292e+00,1.566e+00,2.076e+00,2.968e+00,2.273e+00,2.595e+00,3.376e+00,3.047e+00,3.968e+00,3.678e+00,4.653e+00,3.563e+00,4.325e+00,4.430e+00,4.807e+00,3.521e+00,5.299e+00,4.587e+00,5.443e+00,6.681e+00,5.136e+00,6.806e+00,6.598e+00,5.851e+00,7.942e+00,9.185e+00,8.681e+00,7.882e+00,7.045e+00,9.673e+00,1.003e+01,7.975e+00,7.896e+00,1.122e+01,1.094e+01,9.779e+00,1.127e+01,1.137e+01,1.255e+01,1.167e+01,1.179e+01,1.418e+01,1.119e+01,1.291e+01,1.396e+01,1.296e+01,1.481e+01,1.641e+01,1.385e+01,1.388e+01,1.532e+01,1.596e+01,1.512e+01,1.762e+01,1.517e+01,1.384e+01,1.796e+01,1.613e+01,1.796e+01,1.577e+01,1.900e+01,1.534e+01,1.757e+01,1.744e+01,1.738e+01,1.730e+01,1.904e+01,1.851e+01,1.968e+01,1.888e+01,2.168e+01,2.034e+01
