2.114e-01,2.910e-01,2.991e-01,9.514e-01,2.230e-01,6.916e-01,2.452e-01,5.409e-01,6.187e-01,8.220e-01,2.405e-01,7.434e-01,4.971e-01,1.237e-01,4.038e-01,9.146e-01,8.530e-01,2.590e-01,8.283e-01,4.910e-01,7.831e-01,8.277e-01,7.254e-01,3.737e-01,5.361e-01,1.551e-01,4.450e-01,2.062e-01,3.356e-01,5.270e-01,8.277e-01,1.149e-01,2.863e-01,1.070e-01,1.306e-02,8.327e-01,6.245e-01,2.321e-02,2.981e-02,5.122e-01,2.150e-01,9.993e-01,1.453e-02,2.494e-01,5.886e-01,5.984e-01,8.888e-01,3.437e-01,8.583e-02,2.982e-01,6.022e-01
1.076e-01,3.112e-01,7.710e-01,5.854e-01,4.514e-01,6.291e-01,4.355e-01,6.501e-01,3.799e-01,1.335e+00,5.077e-01,9.136e-01,9.646e-01,6.801e-01,4.301e-01,1.309e+00,1.284e+00,4.913e-01,1.131e+00,1.141e+00,1.025e+00,4.241e-01,8.125e-01,1.058e+00,5.070e-01,6.012e-01,1.226e+00,2.016e-01,4.801e-01,8.267e-01,1.213e+00,1.010e-01,3.681e-01,8.196e-01,5.159e-01,4.456e-01,8.097e-01,3.658e-01,6.375e-01,4.142e-01,1.962e-01,5.168e-01,2.427e-01,1.071e+00,6.156e-01,1.032e+00,5.242e-01,9.497e-01,5.835e-01,1.033e+00,8.350e-01
1.305e-01,2.488e-01,1.103e+00,1.061e+00,5.261e-01,1.117e+00,7.041e-01,9.615e-01,1.325e+00,9.579e-01,9.063e-01,1.653e+00,1.382e+00,1.325e+00,3.681e-01,1.828e+00,1.468e+00,5.974e-01,1.482e+00,1.145e+00,1.726e+00,9.242e-01,8.057e-01,1.045e+00,1.416e+00,3.759e-01,1.541e+00,1.126e+00,6.552e-01,1.494e+00,9.174e-01,4.361e-01,6.811e-01,6.159e-01,5.446e-01,7.021e-01,8.414e-01,8.880e-01,3.888e-01,8.967e-01,7.666e-01,7.770e-01,2.070e-01,5.672e-01,1.483e+00,1.446e+00,8.494e-01,1.004e+00,5.347e-01,1.555e+00,6.926e-01
4.099e-02,1.060e-01,7.643e-01,1.531e+00,6.044e-01,1.638e+00,8.286e-01,1.226e+00,1.538e+00,1.378e+00,9.984e-01,1.326e+00,1.521e+00,1.942e+00,4.704e-01,1.894e+00,9.224e-01,8.431e-01,1.740e+00,1.057e+00,1.238e+00,8.201e-01,6.139e-01,1.643e+00,1.577e+00,1.179e+00,1.681e+00,9.341e-01,1.295e+00,1.670e+00,1.026e+00,1.127e+00,7.165e-01,4.638e-01,1.323e+00,1.095e+00,1.424e+00,1.385e+00,7.732e-01,8.323e-01,1.077e+00,9.138e-01,5.732e-01,8.487e-01,1.495e+00,1.390e+00,5.728e-01,1.352e+00,5.978e-01,2.045e+00,5.413e-01
1.682e-01,3.396e-01,1.171e+00,1.319e+00,8.206e-01,2.289e+00,1.524e+00,1.844e+00,2.024e+00,1.784e+00,1.686e+00,2.049e+00,2.476e+00,1.914e+00,9.715e-01,3.105e+00,1.968e+00,1.334e+00,2.647e+00,1.613e+00,2.544e+00,1.641e+00,1.374e+00,1.784e+00,2.142e+00,1.156e+00,1.990e+00,1.061e+00,1.011e+00,2.280e+00,1.509e+00,1.390e+00,1.027e+00,1.414e+00,1.537e+00,1.888e+00,1.994e+00,1.566e+00,1.045e+00,1.088e+00,1.640e+00,1.899e+00,7.341e-01,1.302e+00,2.096e+00,2.189e+00,1.089e+00,1.856e+00,8.974e-01,2.494e+00,1.203e+00
1.338e-01,2.342e-01,7.107e-01,1.717e+00,7.831e-01,3.480e+00,2.472e+00,2.303e+00,2.614e+00,2.845e+00,1.609e+00,1.739e+00,2.449e+00,2.348e+00,1.711e+00,3.136e+00,1.448e+00,1.941e+00,3.267e+00,1.467e+00,2.809e+00,2.552e+00,1.459e+00,2.121e+00,2.351e+00,1.768e+00,2.056e+00,1.724e+00,1.753e+00,2.563e+00,1.579e+00,2.474e+00,1.497e+00,1.784e+00,2.243e+00,2.882e+00,2.968e+00,2.702e+00,1.769e+00,1.064e+00,2.038e+00,3.036e+00,1.707e+00,1.644e+00,2.430e+00,1.931e+00,1.893e+00,2.742e+00,1.065e+00,2.650e+00,1.444e+00
2.879e-02,1.558e-01,8.867e-01,6.392e-01,5.680e-01,1.660e+00,2.237e+00,2.209e+00,1.996e+00,1.599e+00,2.041e+00,1.492e+00,2.385e+00,1.646e+00,1.284e+00,2.818e+00,1.335e+00,1.590e+00,2.671e+00,1.258e+00,1.907e+00,1.962e+00,1.543e+00,1.584e+00,1.741e+00,1.638e+00,1.879e+00,1.833e+00,1.139e+00,2.576e+00,1.552e+00,1.399e+00,1.667e+00,1.759e+00,1.795e+00,1.978e+00,1.886e+00,1.952e+00,1.997e+00,8.480e-01,1.536e+00,1.793e+00,1.713e+00,1.996e+00,1.820e+00,2.210e+00,9.255e-01,2.022e+00,9.265e-01,2.711e+00,1.395e+00
1.267e-01,2.212e-01,8.074e-01,1.355e+00,6.665e-01,2.716e+00,2.763e+00,2.760e+00,2.782e+00,2.930e+00,3.149e+00,2.560e+00,3.388e+00,2.342e+00,2.461e+00,4.295e+00,2.207e+00,2.385e+00,4.263e+00,1.615e+00,2.685e+00,2.893e+00,2.459e+00,2.217e+00,2.592e+00,2.689e+00,2.107e+00,3.074e+00,2.202e+00,3.926e+00,1.992e+00,2.875e+00,2.869e+00,2.612e+00,2.605e+00,3.545e+00,2.949e+00,3.194e+00,2.853e+00,1.303e+00,2.859e+00,3.715e+00,2.039e+00,2.627e+00,3.414e+00,2.581e+00,2.243e+00,3.479e+00,1.735e+00,3.176e+00,1.953e+00
1.128e-01,2.905e-01,1.274e+00,1.807e+00,8.503e-01,2.641e+00,2.500e+00,2.604e+00,3.114e+00,4.231e+00,2.942e+00,3.370e+00,3.496e+00,3.827e+00,2.836e+00,4.720e+00,2.960e+00,2.734e+00,5.123e+00,2.717e+00,2.731e+00,3.410e+00,2.939e+00,3.640e+00,3.471e+00,3.335e+00,2.910e+00,4.052e+00,3.409e+00,4.440e+00,2.951e+00,3.418e+00,3.165e+00,2.485e+00,3.353e+00,3.339e+00,3.123e+00,4.125e+00,3.265e+00,1.569e+00,3.207e+00,3.320e+00,1.933e+00,2.840e+00,4.113e+00,3.162e+00,2.269e+00,4.150e+00,2.649e+00,4.407e+00,2.702e+00
1.459e-01,2.493e-01,4.335e-01,1.108e+00,4.139e-01,1.570e+00,1.257e+00,1.340e+00,1.676e+00,2.706e+00,1.426e+00,1.975e+00,2.354e+00,2.352e+00,2.545e+00,2.538e+00,2.130e+00,1.771e+00,3.535e+00,2.323e+00,1.717e+00,3.185e+00,2.228e+00,2.716e+00,2.862e+00,2.240e+00,1.952e+00,2.668e+00,2.100e+00,2.452e+00,2.490e+00,1.971e+00,1.557e+00,1.932e+00,1.962e+00,2.562e+00,2.220e+00,2.494e+00,2.235e+00,1.546e+00,2.131e+00,2.624e+00,1.303e+00,1.671e+00,2.828e+00,1.919e+00,2.166e+00,2.953e+00,1.387e+00,2.379e+00,1.932e+00
7.119e-02,2.442e-01,1.157e+00,1.208e+00,7.155e-01,2.349e+00,2.065e+00,1.818e+00,2.147e+00,3.040e+00,2.473e+00,2.635e+00,3.128e+00,3.211e+00,3.055e+00,3.911e+00,2.962e+00,2.540e+00,4.333e+00,2.762e+00,3.549e+00,3.719e+00,2.816e+00,3.408e+00,3.307e+00,2.755e+00,3.154e+00,3.209e+00,2.558e+00,3.441e+00,2.864e+00,2.916e+00,2.475e+00,2.829e+00,3.011e+00,2.992e+00,3.206e+00,4.080e+00,2.559e+00,1.864e+00,2.866e+00,3.330e+00,2.218e+00,2.455e+00,3.915e+00,2.867e+00,3.230e+00,3.553e+00,2.476e+00,3.608e+00,2.639e+00
4.625e-02,1.943e-01,7.843e-01,9.452e-01,5.455e-01,1.291e+00,1.487e+00,1.675e+00,1.453e+00,1.924e+00,2.187e+00,2.153e+00,3.595e+00,2.186e+00,3.163e+00,3.282e+00,2.476e+00,2.642e+00,4.183e+00,2.703e+00,2.813e+00,2.922e+00,2.315e+00,2.783e+00,3.122e+00,2.837e+00,3.136e+00,2.448e+00,2.131e+00,2.797e+00,3.025e+00,2.040e+00,2.378e+00,2.546e+00,2.394e+00,2.789e+00,3.200e+00,3.303e+00,2.440e+00,1.610e+00,2.272e+00,3.221e+00,2.704e+00,2.352e+00,3.101e+00,2.878e+00,2.375e+00,2.507e+00,1.764e+00,3.676e+00,2.361e+00
1.533e-01,2.486e-01,6.445e-01,1.869e+00,6.326e-01,2.282e+00,1.413e+00,1.719e+00,2.011e+00,3.009e+00,2.497e+00,2.666e+00,4.075e+00,2.908e+00,3.696e+00,4.027e+00,3.264e+00,2.598e+00,5.006e+00,3.226e+00,2.914e+00,3.904e+00,3.175e+00,3.275e+00,3.780e+00,4.045e+00,3.551e+00,3.014e+00,3.764e+00,3.769e+00,3.015e+00,3.772e+00,3.201e+00,2.673e+00,2.745e+00,4.332e+00,4.253e+00,4.217e+00,3.079e+00,2.479e+00,3.573e+00,4.483e+00,2.304e+00,3.092e+00,3.872e+00,2.547e+00,3.910e+00,3.783e+00,2.208e+00,3.692e+00,2.614e+00
4.694e-02,1.462e-01,5.857e-01,9.423e-01,4.863e-01,1.787e+00,1.965e+00,1.930e+00,2.073e+00,3.111e+00,2.551e+00,2.569e+00,3.834e+00,2.954e+00,3.610e+00,4.074e+00,2.718e+00,3.060e+00,5.484e+00,3.000e+00,3.105e+00,3.900e+00,3.532e+00,3.498e+00,3.797e+00,4.457e+00,3.331e+00,4.425e+00,4.115e+00,3.967e+00,2.808e+00,3.714e+00,4.343e+00,3.203e+00,3.699e+00,4.135e+00,3.836e+00,4.559e+00,3.716e+00,1.980e+00,3.270e+00,4.140e+00,2.904e+00,3.500e+00,3.779e+00,2.762e+00,2.919e+00,4.300e+00,2.782e+00,4.899e+00,2.713e+00
1.152e-01,3.107e-01,9.402e-01,1.465e+00,8.444e-01,2.351e+00,2.304e+00,2.743e+00,2.530e+00,3.561e+00,3.881e+00,3.187e+00,4.799e+00,3.537e+00,4.028e+00,6.707e+00,3.761e+00,3.490e+00,6.503e+00,3.871e+00,4.281e+00,5.227e+00,4.851e+00,4.770e+00,4.324e+00,5.528e+00,4.504e+00,4.631e+00,4.526e+00,5.455e+00,3.888e+00,4.536e+00,5.624e+00,4.509e+00,5.150e+00,5.374e+00,5.352e+00,5.106e+00,4.184e+00,2.886e+00,4.205e+00,5.123e+00,3.762e+00,4.964e+00,5.104e+00,4.320e+00,3.833e+00,5.658e+00,3.635e+00,6.429e+00,4.176e+00
5.419e-02,1.813e-01,7.147e-01,9.608e-01,5.030e-01,1.938e+00,2.219e+00,1.983e+00,1.866e+00,2.982e+00,2.895e+00,2.287e+00,3.477e+00,2.563e+00,3.494e+00,5.000e+00,3.315e+00,2.770e+00,5.447e+00,3.255e+00,3.849e+00,4.894e+00,4.572e+00,3.644e+00,3.177e+00,4.806e+00,3.885e+00,4.918e+00,4.030e+00,4.436e+00,2.886e+00,4.104e+00,5.364e+00,4.307e+00,3.821e+00,5.071e+00,4.626e+00,5.329e+00,3.822e+00,2.488e+00,4.026e+00,4.362e+00,3.682e+00,4.842e+00,4.040e+00,3.562e+00,4.570e+00,4.793e+00,3.073e+00,5.201e+00,3.624e+00
8.969e-02,2.346e-01,1.161e+00,1.075e+00,7.335e-01,2.411e+00,2.198e+00,2.112e+00,2.594e+00,3.063e+00,3.167e+00,3.397e+00,4.494e+00,3.624e+00,4.000e+00,5.842e+00,4.444e+00,4.347e+00,6.481e+00,4.623e+00,5.658e+00,5.609e+00,5.436e+00,5.210e+00,5.413e+00,5.412e+00,4.602e+00,5.452e+00,4.723e+00,5.265e+00,4.060e+00,4.759e+00,6.144e+00,5.116e+00,5.220e+00,5.166e+00,5.209e+00,6.277e+00,4.253e+00,3.226e+00,5.646e+00,5.140e+00,4.097e+00,4.689e+00,5.434e+00,4.983e+00,4.335e+00,4.728e+00,4.569e+00,6.394e+00,4.167e+00
4.399e-02,1.423e-01,6.837e-01,5.870e-01,4.339e-01,1.462e+00,1.209e+00,1.064e+00,1.524e+00,2.319e+00,1.624e+00,2.101e+00,2.915e+00,2.664e+00,2.765e+00,3.346e+00,2.989e+00,2.790e+00,5.123e+00,4.409e+00,4.218e+00,4.580e+00,4.023e+00,4.599e+00,4.630e+00,4.171e+00,3.805e+00,4.662e+00,3.971e+00,4.335e+00,2.785e+00,4.207e+00,4.026e+00,4.201e+00,4.148e+00,4.255e+00,3.963e+00,4.116e+00,3.384e+00,2.971e+00,4.670e+00,3.784e+00,3.278e+00,3.801e+00,3.725e+00,3.334e+00,3.212e+00,4.288e+00,3.002e+00,4.179e+00,3.207e+00
1.349e-01,2.200e-01,7.872e-01,1.530e+00,6.952e-01,2.500e+00,2.405e+00,2.689e+00,2.939e+00,2.709e+00,3.115e+00,2.733e+00,4.366e+00,3.063e+00,3.374e+00,5.645e+00,3.701e+00,3.514e+00,6.774e+00,4.946e+00,5.116e+00,6.340e+00,6.011e+00,4.630e+00,5.633e+00,5.785e+00,4.246e+00,5.355e+00,5.419e+00,6.171e+00,3.981e+00,4.616e+00,6.674e+00,4.416e+00,5.455e+00,6.274e+00,5.791e+00,5.933e+00,4.894e+00,3.922e+00,5.768e+00,5.175e+00,4.038e+00,5.679e+00,4.579e+00,5.125e+00,4.319e+00,4.906e+00,3.853e+00,6.970e+00,4.096e+00
6.780e-02,2.252e-01,9.978e-01,1.236e+00,7.704e-01,2.245e+00,1.901e+00,2.104e+00,2.136e+00,3.004e+00,3.061e+00,3.069e+00,5.096e+00,3.416e+00,4.114e+00,5.320e+00,4.109e+00,4.014e+00,7.093e+00,6.107e+00,6.060e+00,6.071e+00,5.989e+00,6.138e+00,6.030e+00,6.272e+00,5.746e+00,5.527e+00,6.029e+00,6.599e+00,5.010e+00,6.053e+00,6.371e+00,6.119e+00,5.547e+00,6.466e+00,6.590e+00,5.658e+00,5.570e+00,4.214e+00,6.100e+00,6.501e+00,4.806e+00,5.782e+00,6.006e+00,4.893e+00,4.478e+00,6.263e+00,4.641e+00,6.362e+00,4.352e+00
8.041e-02,1.542e-01,7.349e-01,1.202e+00,5.007e-01,1.630e+00,1.395e+00,1.515e+00,1.996e+00,2.030e+00,2.130e+00,2.344e+00,2.869e+00,2.747e+00,2.894e+00,4.840e+00,3.140e+00,3.200e+00,5.067e+00,3.984e+00,5.260e+00,6.014e+00,4.927e+00,4.666e+00,4.807e+00,4.516e+00,4.530e+00,5.282e+00,4.274e+00,5.011e+00,3.946e+00,5.034e+00,5.968e+00,4.868e+00,5.389e+00,5.352e+00,5.585e+00,5.303e+00,3.650e+00,3.391e+00,4.631e+00,4.729e+00,4.608e+00,4.497e+00,5.091e+00,4.761e+00,4.270e+00,4.102e+00,4.696e+00,6.451e+00,4.801e+00
1.646e-01,3.312e-01,1.163e+00,1.626e+00,8.998e-01,2.752e+00,2.041e+00,2.379e+00,2.713e+00,3.029e+00,3.191e+00,3.429e+00,4.554e+00,3.425e+00,3.561e+00,5.426e+00,3.784e+00,3.589e+00,6.755e+00,4.795e+00,6.015e+00,6.665e+00,5.039e+00,5.828e+00,6.327e+00,5.353e+00,5.168e+00,5.732e+00,4.867e+00,6.282e+00,4.838e+00,5.839e+00,5.460e+00,5.632e+00,5.754e+00,6.555e+00,5.970e+00,6.019e+00,4.328e+00,4.443e+00,5.582e+00,6.146e+00,4.320e+00,4.818e+00,6.352e+00,5.403e+00,4.164e+00,4.948e+00,4.781e+00,7.280e+00,4.515e+00
7.367e-02,1.661e-01,7.691e-01,7.763e-01,4.126e-01,1.760e+00,2.017e+00,1.666e+00,2.129e+00,2.883e+00,2.030e+00,2.486e+00,3.288e+00,2.817e+00,3.338e+00,3.894e+00,3.085e+00,3.042e+00,5.824e+00,4.937e+00,4.971e+00,6.942e+00,5.518e+00,6.243e+00,5.845e+00,6.213e+00,5.017e+00,7.766e+00,5.956e+00,6.363e+00,4.958e+00,6.807e+00,6.702e+00,6.695e+00,4.831e+00,6.751e+00,5.308e+00,5.999e+00,5.825e+00,5.240e+00,6.072e+00,5.698e+00,5.553e+00,5.618e+00,6.331e+00,4.896e+00,4.346e+00,6.057e+00,5.128e+00,6.258e+00,4.564e+00
1.561e-01,2.241e-01,8.053e-01,1.254e+00,5.305e-01,1.889e+00,1.268e+00,1.415e+00,2.195e+00,2.101e+00,1.860e+00,2.558e+00,3.418e+00,2.835e+00,2.983e+00,4.102e+00,3.349e+00,3.004e+00,5.590e+00,5.005e+00,5.447e+00,6.774e+00,5.371e+00,6.407e+00,6.638e+00,5.992e+00,5.631e+00,5.738e+00,6.290e+00,5.690e+00,4.838e+00,5.712e+00,5.989e+00,5.204e+00,5.393e+00,6.707e+00,6.274e+00,5.897e+00,5.205e+00,4.820e+00,5.635e+00,5.897e+00,4.620e+00,4.639e+00,5.628e+00,4.675e+00,5.130e+00,5.173e+00,4.582e+00,6.832e+00,4.397e+00
1.597e-01,2.326e-01,3.091e-01,1.331e+00,3.828e-01,1.946e+00,1.941e+00,1.905e+00,2.195e+00,2.946e+00,2.048e+00,2.007e+00,2.492e+00,2.171e+00,3.069e+00,4.582e+00,2.608e+00,2.942e+00,4.986e+00,3.771e+00,4.448e+00,7.001e+00,5.492e+00,5.926e+00,5.791e+00,6.784e+00,4.928e+00,7.250e+00,6.569e+00,6.438e+00,5.891e+00,7.597e+00,7.145e+00,6.163e+00,6.087e+00,7.801e+00,7.134e+00,6.763e+00,6.744e+00,5.003e+00,6.075e+00,6.797e+00,5.981e+00,5.789e+00,7.000e+00,5.643e+00,5.746e+00,6.253e+00,6.259e+00,7.620e+00,6.172e+00
2.091e-01,3.179e-01,4.624e-01,1.198e+00,5.310e-01,1.921e+00,1.638e+00,1.992e+00,2.252e+00,2.664e+00,2.275e+00,2.310e+00,3.266e+00,2.480e+00,2.882e+00,4.612e+00,3.142e+00,2.929e+00,5.430e+00,3.844e+00,4.341e+00,6.297e+00,5.430e+00,5.517e+00,5.962e+00,6.858e+00,5.378e+00,6.993e+00,6.803e+00,6.716e+00,5.294e+00,6.820e+00,6.870e+00,5.447e+00,6.822e+00,7.641e+00,6.575e+00,6.385e+00,6.734e+00,4.652e+00,6.674e+00,6.506e+00,4.396e+00,5.846e+00,6.188e+00,5.962e+00,5.139e+00,5.821e+00,5.634e+00,7.904e+00,6.135e+00
1.423e-01,3.433e-01,1.401e+00,1.947e+00,9.211e-01,2.897e+00,2.945e+00,3.046e+00,3.147e+00,4.186e+00,3.691e+00,3.702e+00,5.036e+00,4.003e+00,4.133e+00,6.380e+00,4.333e+00,3.438e+00,7.755e+00,5.491e+00,5.615e+00,7.181e+00,5.911e+00,6.779e+00,6.445e+00,7.111e+00,7.826e+00,8.622e+00,6.607e+00,9.027e+00,5.724e+00,7.350e+00,7.888e+00,7.098e+00,6.985e+00,8.765e+00,7.538e+00,7.833e+00,7.312e+00,5.107e+00,7.377e+00,7.341e+00,5.972e+00,7.173e+00,7.979e+00,6.521e+00,6.485e+00,8.403e+00,4.830e+00,8.892e+00,6.386e+00
1.263e-01,3.272e-01,8.167e-01,7.303e-01,5.532e-01,1.902e+00,2.179e+00,1.915e+00,1.800e+00,2.860e+00,2.204e+00,2.257e+00,3.744e+00,2.385e+00,3.865e+00,5.224e+00,3.910e+00,3.597e+00,6.293e+00,5.312e+00,5.803e+00,7.537e+00,6.053e+00,6.346e+00,5.950e+00,6.882e+00,6.677e+00,7.506e+00,6.529e+00,7.263e+00,6.532e+00,6.144e+00,8.163e+00,7.630e+00,7.239e+00,7.853e+00,8.005e+00,8.237e+00,6.631e+00,5.660e+00,6.999e+00,7.437e+00,6.474e+00,7.171e+00,6.510e+00,6.609e+00,6.632e+00,6.563e+00,5.596e+00,8.790e+00,7.114e+00
1.011e-01,1.660e-01,7.509e-01,1.330e+00,6.107e-01,2.421e+00,2.221e+00,2.272e+00,2.709e+00,2.850e+00,3.106e+00,3.013e+00,4.201e+00,3.328e+00,3.849e+00,5.878e+00,3.761e+00,3.824e+00,6.556e+00,4.855e+00,5.685e+00,7.114e+00,5.909e+00,6.843e+00,6.723e+00,7.225e+00,6.335e+00,7.904e+00,8.027e+00,7.910e+00,6.808e+00,7.835e+00,9.104e+00,7.411e+00,7.987e+00,9.022e+00,8.544e+00,8.296e+00,7.571e+00,6.324e+00,8.130e+00,8.275e+00,7.113e+00,6.532e+00,7.606e+00,7.401e+00,7.011e+00,7.308e+00,6.655e+00,9.573e+00,6.885e+00
1.705e-02,1.439e-01,5.816e-01,5.474e-01,5.296e-01,1.456e+00,1.867e+00,2.048e+00,1.794e+00,2.627e+00,3.615e+00,2.665e+00,4.724e+00,3.183e+00,4.355e+00,5.353e+00,3.752e+00,3.402e+00,7.123e+00,5.124e+00,5.126e+00,6.934e+00,6.054e+00,6.609e+00,6.674e+00,7.614e+00,7.001e+00,7.298e+00,7.554e+00,9.467e+00,6.626e+00,8.081e+00,9.057e+00,7.153e+00,8.985e+00,9.056e+00,9.113e+00,8.387e+00,8.555e+00,5.489e+00,7.616e+00,8.656e+00,6.165e+00,7.617e+00,7.150e+00,7.271e+00,6.827e+00,8.259e+00,6.239e+00,9.870e+00,7.363e+00
1.682e-01,2.942e-01,1.088e+00,1.295e+00,6.894e-01,2.617e+00,2.293e+00,2.157e+00,2.850e+00,3.050e+00,2.255e+00,3.026e+00,4.288e+00,3.565e+00,3.672e+00,5.108e+00,4.033e+00,3.247e+00,7.595e+00,6.384e+00,6.896e+00,8.689e+00,6.529e+00,6.898e+00,8.416e+00,7.534e+00,8.334e+00,9.850e+00,8.878e+00,9.953e+00,6.854e+00,9.532e+00,9.688e+00,8.633e+00,1.001e+01,1.092e+01,1.070e+01,9.125e+00,9.727e+00,7.614e+00,9.797e+00,9.952e+00,7.562e+00,8.094e+00,9.363e+00,8.964e+00,8.924e+00,1.027e+01,7.496e+00,1.176e+01,8.885e+00
1.906e-02,2.762e-02,3.620e-01,4.270e-01,3.227e-01,1.973e+00,1.867e+00,1.436e+00,1.830e+00,2.015e+00,2.443e+00,2.039e+00,3.295e+00,2.376e+00,3.466e+00,4.490e+00,2.964e+00,2.965e+00,5.969e+00,4.587e+00,5.536e+00,6.744e+00,5.486e+00,5.400e+00,5.766e+00,6.310e+00,5.172e+00,7.180e+00,6.443e+00,7.283e+00,4.601e+00,8.775e+00,8.467e+00,7.388e+00,7.835e+00,8.280e+00,7.960e+00,7.869e+00,7.465e+00,5.100e+00,8.493e+00,8.210e+00,6.949e+00,6.891e+00,7.370e+00,7.460e+00,6.284e+00,7.441e+00,6.243e+00,8.539e+00,7.334e+00
1.364e-01,2.034e-01,8.145e-01,1.101e+00,5.293e-01,2.045e+00,1.932e+00,1.974e+00,2.504e+00,2.587e+00,3.117e+00,3.193e+00,3.950e+00,3.151e+00,3.724e+00,5.293e+00,3.803e+00,3.496e+00,7.247e+00,5.649e+00,6.513e+00,7.474e+00,6.778e+00,6.649e+00,7.126e+00,6.506e+00,5.260e+00,8.003e+00,7.198e+00,9.044e+00,6.469e+00,8.646e+00,9.722e+00,8.187e+00,9.278e+00,9.656e+00,9.753e+00,8.703e+00,7.901e+00,6.426e+00,8.890e+00,1.018e+01,7.290e+00,7.080e+00,9.096e+00,8.524e+00,6.912e+00,9.260e+00,7.624e+00,9.949e+00,7.486e+00
4.023e-02,1.632e-01,9.392e-01,1.059e+00,6.101e-01,1.927e+00,1.604e+00,1.552e+00,1.973e+00,3.053e+00,2.525e+00,2.891e+00,4.072e+00,3.374e+00,3.724e+00,5.036e+00,3.924e+00,3.625e+00,6.109e+00,5.210e+00,5.464e+00,6.272e+00,5.351e+00,5.709e+00,6.102e+00,6.435e+00,6.480e+00,6.945e+00,7.118e+00,7.856e+00,5.709e+00,7.779e+00,9.072e+00,7.835e+00,8.562e+00,8.311e+00,9.228e+00,8.979e+00,8.226e+00,5.859e+00,7.324e+00,9.127e+00,6.507e+00,7.125e+00,8.008e+00,7.644e+00,7.340e+00,8.214e+00,7.620e+00,1.009e+01,7.029e+00
7.284e-02,1.542e-01,4.799e-01,7.066e-01,3.406e-01,1.274e+00,1.580e+00,1.563e+00,1.734e+00,2.816e+00,2.573e+00,2.554e+00,3.527e+00,2.725e+00,3.649e+00,4.270e+00,3.543e+00,3.172e+00,6.943e+00,5.922e+00,5.556e+00,7.192e+00,6.866e+00,6.452e+00,6.976e+00,7.056e+00,5.828e+00,8.480e+00,7.879e+00,9.575e+00,7.027e+00,9.347e+00,1.050e+01,8.894e+00,9.978e+00,1.000e+01,1.037e+01,9.845e+00,1.012e+01,7.633e+00,9.794e+00,1.027e+01,8.352e+00,8.638e+00,9.212e+00,9.377e+00,7.929e+00,9.450e+00,8.546e+00,1.121e+01,8.720e+00
1.143e-01,2.518e-01,8.762e-01,1.627e+00,7.935e-01,2.875e+00,2.129e+00,2.200e+00,2.522e+00,3.459e+00,2.692e+00,2.953e+00,4.489e+00,3.330e+00,3.822e+00,5.135e+00,3.930e+00,4.079e+00,7.354e+00,6.039e+00,6.409e+00,7.204e+00,6.707e+00,8.099e+00,7.546e+00,8.374e+00,7.166e+00,7.448e+00,9.084e+00,9.100e+00,7.660e+00,9.840e+00,1.024e+01,9.174e+00,9.550e+00,1.172e+01,1.204e+01,1.092e+01,1.103e+01,7.513e+00,1.058e+01,1.168e+01,8.916e+00,8.469e+00,1.003e+01,9.965e+00,9.261e+00,9.832e+00,8.848e+00,1.181e+01,8.187e+00
1.144e-01,2.353e-01,1.076e+00,1.837e+00,8.250e-01,2.886e+00,1.979e+00,2.097e+00,2.717e+00,3.681e+00,3.283e+00,3.656e+00,4.570e+00,3.994e+00,4.168e+00,6.241e+00,4.413e+00,4.212e+00,7.248e+00,5.431e+00,6.509e+00,6.986e+00,6.017e+00,7.580e+00,7.331e+00,7.501e+00,7.382e+00,7.736e+00,7.426e+00,9.163e+00,6.393e+00,9.366e+00,1.006e+01,8.783e+00,1.019e+01,1.056e+01,1.224e+01,1.118e+01,1.001e+01,7.072e+00,1.045e+01,1.198e+01,9.495e+00,8.137e+00,1.037e+01,9.746e+00,9.619e+00,1.018e+01,9.269e+00,1.176e+01,9.519e+00
1.296e-02,1.324e-01,9.539e-01,5.057e-01,4.760e-01,1.575e+00,1.577e+00,1.228e+00,1.649e+00,2.705e+00,2.091e+00,2.565e+00,3.030e+00,2.777e+00,2.870e+00,3.591e+00,3.129e+00,2.906e+00,4.680e+00,4.356e+00,4.649e+00,5.479e+00,4.772e+00,5.475e+00,5.699e+00,5.950e+00,5.286e+00,7.112e+00,7.024e+00,6.755e+00,5.946e+00,7.207e+00,8.150e+00,7.722e+00,7.815e+00,7.811e+00,8.555e+00,9.538e+00,9.626e+00,7.376e+00,9.196e+00,8.663e+00,7.381e+00,7.133e+00,9.546e+00,9.219e+00,8.200e+00,8.127e+00,8.853e+00,9.853e+00,8.146e+00
1.285e-01,3.346e-01,9.205e-01,8.782e-01,5.890e-01,1.384e+00,1.901e+00,2.119e+00,1.946e+00,3.148e+00,3.136e+00,2.789e+00,3.662e+00,2.583e+00,3.327e+00,5.111e+00,3.664e+00,3.513e+00,6.121e+00,4.770e+00,5.321e+00,6.083e+00,6.041e+00,5.587e+00,5.476e+00,6.211e+00,5.500e+00,6.724e+00,6.996e+00,8.822e+00,6.709e+00,8.922e+00,9.740e+00,8.167e+00,9.788e+00,8.903e+00,1.010e+01,8.620e+00,1.019e+01,7.188e+00,9.523e+00,1.084e+01,8.066e+00,8.918e+00,9.391e+00,1.006e+01,7.506e+00,9.278e+00,9.413e+00,1.040e+01,1.005e+01
1.312e-01,2.726e-01,6.448e-01,1.611e+00,7.220e-01,2.810e+00,2.782e+00,2.845e+00,2.844e+00,3.672e+00,2.814e+00,2.495e+00,4.325e+00,3.406e+00,3.944e+00,5.563e+00,3.410e+00,3.265e+00,7.411e+00,5.552e+00,5.319e+00,7.549e+00,6.367e+00,6.558e+00,6.929e+00,7.491e+00,6.905e+00,7.639e+00,8.371e+00,8.911e+00,7.105e+00,8.904e+00,1.012e+01,7.827e+00,1.010e+01,1.132e+01,1.209e+01,1.119e+01,1.105e+01,8.333e+00,1.099e+01,1.243e+01,9.721e+00,1.045e+01,1.001e+01,1.089e+01,1.076e+01,1.160e+01,8.893e+00,1.319e+01,1.099e+01
1.828e-01,2.554e-01,4.277e-01,9.339e-01,3.134e-01,1.593e+00,1.512e+00,1.445e+00,1.676e+00,2.531e+00,2.447e+00,2.581e+00,3.868e+00,2.238e+00,4.113e+00,4.323e+00,3.865e+00,3.336e+00,7.049e+00,5.325e+00,5.979e+00,7.508e+00,6.511e+00,6.226e+00,7.558e+00,7.888e+00,6.961e+00,9.263e+00,8.154e+00,9.676e+00,6.628e+00,9.548e+00,1.068e+01,9.048e+00,9.788e+00,1.075e+01,1.071e+01,1.051e+01,1.042e+01,7.857e+00,1.078e+01,1.223e+01,8.638e+00,1.015e+01,9.971e+00,9.090e+00,1.006e+01,1.017e+01,9.213e+00,1.183e+01,9.304e+00
1.026e-01,2.367e-01,1.120e+00,1.141e+00,6.230e-01,2.195e+00,2.415e+00,2.223e+00,2.727e+00,3.514e+00,3.197e+00,3.700e+00,4.864e+00,3.732e+00,4.678e+00,5.267e+00,4.423e+00,4.060e+00,7.331e+00,5.521e+00,5.929e+00,7.917e+00,6.170e+00,7.027e+00,7.299e+00,7.437e+00,7.108e+00,9.415e+00,8.419e+00,9.024e+00,7.975e+00,9.192e+00,9.945e+00,9.319e+00,9.408e+00,1.106e+01,1.106e+01,1.176e+01,1.021e+01,8.469e+00,1.128e+01,1.280e+01,9.902e+00,8.954e+00,1.229e+01,1.026e+01,9.809e+00,1.010e+01,1.024e+01,1.237e+01,1.072e+01
8.386e-02,2.111e-01,1.100e+00,8.910e-01,7.040e-01,1.985e+00,1.748e+00,1.902e+00,2.260e+00,1.952e+00,2.200e+00,2.682e+00,3.887e+00,2.990e+00,2.661e+00,3.877e+00,2.849e+00,2.677e+00,5.663e+00,4.506e+00,5.022e+00,5.513e+00,4.548e+00,5.190e+00,6.530e+00,5.788e+00,5.551e+00,7.063e+00,6.555e+00,7.385e+00,5.575e+00,7.241e+00,7.689e+00,7.035e+00,8.403e+00,8.540e+00,9.327e+00,9.384e+00,9.167e+00,7.458e+00,1.026e+01,1.070e+01,8.093e+00,8.626e+00,1.069e+01,1.113e+01,8.900e+00,1.063e+01,9.404e+00,1.251e+01,9.340e+00
1.621e-01,3.068e-01,9.399e-01,1.083e+00,6.785e-01,2.535e+00,2.733e+00,2.674e+00,2.854e+00,2.934e+00,2.895e+00,2.907e+00,4.050e+00,2.779e+00,3.440e+00,5.627e+00,3.470e+00,3.858e+00,6.533e+00,4.461e+00,6.021e+00,7.049e+00,5.671e+00,6.626e+00,6.835e+00,7.206e+00,7.047e+00,8.554e+00,7.967e+00,9.216e+00,7.211e+00,9.066e+00,1.044e+01,8.615e+00,1.019e+01,1.123e+01,1.165e+01,1.101e+01,1.094e+01,8.283e+00,1.166e+01,1.228e+01,1.027e+01,1.030e+01,1.167e+01,1.265e+01,1.063e+01,1.130e+01,1.045e+01,1.348e+01,1.258e+01
1.893e-01,3.638e-01,1.085e+00,1.987e+00,9.116e-01,2.936e+00,1.993e+00,2.314e+00,2.919e+00,3.815e+00,2.552e+00,3.389e+00,4.730e+00,4.072e+00,4.002e+00,5.448e+00,4.154e+00,3.492e+00,7.068e+00,5.943e+00,5.889e+00,7.920e+00,5.951e+00,7.370e+00,7.506e+00,7.219e+00,7.625e+00,7.187e+00,7.965e+00,8.839e+00,7.050e+00,8.513e+00,8.759e+00,7.818e+00,9.290e+00,1.058e+01,1.217e+01,9.850e+00,1.047e+01,7.297e+00,1.021e+01,1.233e+01,9.169e+00,9.337e+00,1.124e+01,1.170e+01,1.140e+01,1.238e+01,1.076e+01,1.352e+01,1.204e+01
2.016e-01,3.567e-01,7.915e-01,1.889e+00,7.551e-01,2.459e+00,1.643e+00,2.036e+00,2.208e+00,3.036e+00,2.690e+00,2.837e+00,4.511e+00,3.113e+00,4.136e+00,5.446e+00,4.297e+00,3.730e+00,6.391e+00,5.253e+00,5.623e+00,7.580e+00,6.194e+00,7.021e+00,7.423e+00,8.270e+00,7.353e+00,7.615e+00,7.792e+00,8.180e+00,7.414e+00,8.977e+00,9.627e+00,9.318e+00,9.772e+00,1.032e+01,1.116e+01,1.101e+01,1.114e+01,8.546e+00,1.085e+01,1.226e+01,1.004e+01,1.064e+01,1.235e+01,1.311e+01,1.213e+01,1.143e+01,1.205e+01,1.383e+01,1.352e+01
1.259e-01,1.961e-01,6.858e-01,1.324e+00,5.902e-01,2.004e+00,2.080e+00,2.427e+00,2.774e+00,2.402e+00,3.032e+00,2.689e+00,4.032e+00,3.117e+00,3.393e+00,5.280e+00,3.360e+00,3.577e+00,6.447e+00,4.339e+00,4.884e+00,6.756e+00,5.782e+00,6.235e+00,6.272e+00,6.803e+00,5.455e+00,6.402e+00,7.190e+00,7.354e+00,5.787e+00,7.853e+00,8.804e+00,6.371e+00,8.251e+00,9.668e+00,1.041e+01,9.847e+00,9.618e+00,7.840e+00,1.105e+01,1.195e+01,9.419e+00,9.529e+00,1.103e+01,1.110e+01,1.149e+01,1.122e+01,1.136e+01,1.306e+01,1.131e+01
6.530e-02,2.306e-01,7.163e-01,7.781e-01,6.596e-01,1.795e+00,1.566e+00,1.825e+00,1.582e+00,2.688e+00,2.824e+00,2.468e+00,3.798e+00,2.770e+00,3.083e+00,5.208e+00,3.454e+00,3.135e+00,6.615e+00,5.451e+00,5.888e+00,6.641e+00,6.192e+00,7.193e+00,6.840e+00,7.699e+00,6.870e+00,8.406e+00,7.333e+00,9.205e+00,6.429e+00,8.813e+00,1.007e+01,9.673e+00,1.033e+01,1.074e+01,1.070e+01,1.081e+01,1.090e+01,8.052e+00,1.082e+01,1.142e+01,9.391e+00,1.102e+01,1.121e+01,1.203e+01,1.029e+01,1.165e+01,1.096e+01,1.337e+01,1.169e+01
4.947e-02,1.895e-01,8.048e-01,1.040e+00,6.235e-01,1.783e+00,2.035e+00,2.191e+00,2.222e+00,2.720e+00,2.672e+00,2.493e+00,4.350e+00,3.138e+00,3.757e+00,5.511e+00,3.859e+00,3.871e+00,7.442e+00,6.203e+00,6.342e+00,7.902e+00,6.947e+00,7.061e+00,7.638e+00,8.204e+00,7.552e+00,8.241e+00,8.671e+00,9.448e+00,7.206e+00,9.681e+00,1.133e+01,9.764e+00,1.159e+01,1.138e+01,1.366e+01,1.208e+01,1.245e+01,8.621e+00,1.222e+01,1.442e+01,1.186e+01,1.311e+01,1.223e+01,1.418e+01,1.357e+01,1.399e+01,1.381e+01,1.778e+01,1.566e+01
2.062e-01,3.881e-01,1.059e+00,1.803e+00,8.419e-01,2.385e+00,1.723e+00,2.225e+00,2.578e+00,3.337e+00,3.031e+00,3.379e+00,4.622e+00,3.655e+00,3.947e+00,5.803e+00,4.698e+00,3.956e+00,7.485e+00,6.548e+00,6.331e+00,7.992e+00,6.905e+00,7.618e+00,7.685e+00,7.642e+00,6.851e+00,7.996e+00,7.858e+00,8.816e+00,7.253e+00,8.693e+00,8.759e+00,8.203e+00,9.031e+00,9.982e+00,1.026e+01,9.971e+00,1.007e+01,8.550e+00,1.211e+01,1.147e+01,8.789e+00,1.041e+01,1.173e+01,1.208e+01,1.120e+01,1.118e+01,1.156e+01,1.367e+01,1.312e+01
7.957e-02,1.831e-01,4.598e-01,6.126e-01,4.007e-01,1.220e+00,1.199e+00,1.349e+00,1.195e+00,1.969e+00,2.575e+00,2.187e+00,3.616e+00,1.984e+00,3.459e+00,4.298e+00,3.109e+00,2.780e+00,4.730e+00,3.401e+00,3.836e+00,4.880e+00,4.247e+00,4.082e+00,4.260e+00,5.174e+00,4.099e+00,5.008e+00,5.585e+00,5.772e+00,5.488e+00,6.581e+00,7.574e+00,6.643e+00,6.552e+00,7.646e+00,8.645e+00,7.943e+00,7.779e+00,6.866e+00,8.284e+00,9.985e+00,7.666e+00,8.339e+00,8.693e+00,9.361e+00,1.029e+01,9.693e+00,1.058e+01,1.094e+01,1.101e+01
