7.837e-01,9.628e-01,2.394e-01,7.099e-01,9.937e-01,4.742e-02,4.201e-01,9.015e-01,6.019e-01,7.105e-01,4.537e-02,8.037e-01,9.598e-01,5.756e-01,7.392e-01,6.967e-03,1.742e-01,7.378e-01,5.423e-01,6.219e-01,1.548e-02,3.919e-01,4.727e-01,4.774e-01,9.661e-01,8.023e-01,4.154e-01,4.734e-02,6.282e-02,1.761e-01,2.509e-01,2.589e-01,9.837e-01,4.734e-02,5.424e-01,5.672e-03,9.515e-01,4.864e-01,2.395e-01,9.334e-02,9.230e-01,1.831e-01,8.306e-01,5.343e-01,6.806e-01,8.694e-01,3.133e-01,3.681e-01
3.156e-01,8.509e-01,1.032e+00,3.183e-01,1.338e+00,7.574e-02,1.169e+00,1.273e+00,2.808e-01,1.264e+00,6.573e-01,1.160e+00,9.243e-01,5.368e-01,4.673e-01,5.949e-01,2.108e-01,5.815e-01,5.622e-01,3.091e-01,8.644e-01,2.999e-01,9.652e-01,1.160e+00,6.863e-01,3.259e-01,1.077e+00,8.225e-01,8.330e-01,4.949e-01,4.621e-01,8.231e-01,1.149e+00,9.039e-01,1.036e+00,7.155e-01,1.049e+00,9.352e-01,9.921e-01,9.088e-01,1.264e+00,1.012e+00,1.075e+00,5.580e-01,1.199e+00,6.877e-01,3.005e-01,3.866e-01
3.306e-01,8.337e-01,1.295e+00,1.239e+00,1.498e+00,6.644e-01,1.495e+00,1.611e+00,4.494e-01,1.859e+00,8.030e-01,1.379e+00,9.830e-01,1.428e+00,5.804e-01,8.476e-01,5.262e-01,1.267e+00,5.757e-01,1.245e+00,1.768e+00,8.275e-01,1.192e+00,1.592e+00,1.291e+00,1.011e+00,1.693e+00,1.624e+00,1.420e+00,9.340e-01,1.201e+00,1.569e+00,1.582e+00,1.392e+00,1.761e+00,1.570e+00,1.673e+00,1.717e+00,1.437e+00,1.806e+00,2.211e+00,1.565e+00,1.408e+00,9.814e-01,1.450e+00,1.638e+00,1.070e+00,4.283e-01
1.814e-01,2.556e-01,3.889e-01,1.811e+00,9.331e-01,1.344e+00,1.481e+00,1.018e+00,8.059e-01,1.306e+00,3.100e-01,1.105e+00,7.503e-01,1.632e+00,9.338e-01,1.138e+00,4.812e-01,8.542e-01,1.030e+00,9.284e-01,1.837e+00,9.120e-01,8.370e-01,1.409e+00,8.518e-01,1.356e+00,1.499e+00,8.416e-01,1.126e+00,8.738e-01,1.491e+00,9.941e-01,1.600e+00,1.095e+00,1.389e+00,1.570e+00,1.528e+00,1.600e+00,1.423e+00,1.610e+00,1.740e+00,8.075e-01,7.921e-01,1.249e+00,1.042e+00,1.293e+00,1.068e+00,1.054e+00
6.907e-02,2.401e-01,6.625e-01,1.724e+00,1.499e+00,1.984e+00,2.287e+00,1.848e+00,1.104e+00,1.517e+00,1.080e+00,1.164e+00,1.192e+00,1.923e+00,1.154e+00,1.312e+00,1.261e+00,1.793e+00,1.658e+00,1.312e+00,2.611e+00,1.601e+00,1.367e+00,2.078e+00,1.287e+00,1.945e+00,1.813e+00,1.193e+00,1.974e+00,1.356e+00,2.001e+00,2.032e+00,2.423e+00,1.931e+00,1.749e+00,1.869e+00,2.114e+00,2.718e+00,1.681e+00,2.091e+00,2.434e+00,1.133e+00,1.400e+00,2.140e+00,1.701e+00,2.155e+00,1.776e+00,1.272e+00
5.436e-01,7.168e-01,3.309e-01,7.067e-01,1.239e+00,1.269e+00,1.492e+00,1.396e+00,1.335e+00,1.525e+00,1.422e+00,1.466e+00,1.897e+00,1.031e+00,8.759e-01,1.012e+00,1.119e+00,1.912e+00,1.587e+00,1.542e+00,1.372e+00,1.742e+00,1.142e+00,1.410e+00,1.227e+00,1.745e+00,8.556e-01,1.164e+00,1.351e+00,5.994e-01,8.222e-01,1.733e+00,2.259e+00,1.108e+00,1.447e+00,4.797e-01,2.051e+00,2.108e+00,1.474e+00,9.337e-01,1.597e+00,7.248e-01,2.071e+00,1.356e+00,1.484e+00,2.046e+00,1.535e+00,1.335e+00
6.506e-01,9.709e-01,6.388e-01,1.313e+00,1.797e+00,1.334e+00,2.763e+00,2.165e+00,2.295e+00,2.420e+00,1.611e+00,2.249e+00,2.789e+00,1.735e+00,1.632e+00,1.656e+00,1.071e+00,2.371e+00,2.170e+00,1.429e+00,2.647e+00,2.246e+00,1.859e+00,2.073e+00,1.944e+00,2.444e+00,1.874e+00,1.420e+00,1.928e+00,1.215e+00,1.554e+00,2.082e+00,2.800e+00,1.978e+00,2.619e+00,1.835e+00,2.421e+00,2.530e+00,2.143e+00,1.924e+00,2.329e+00,1.594e+00,2.528e+00,1.828e+00,2.726e+00,2.084e+00,2.040e+00,1.550e+00
2.968e-01,6.522e-01,7.209e-01,6.789e-01,1.360e+00,8.837e-01,2.237e+00,2.139e+00,1.648e+00,2.149e+00,1.755e+00,1.939e+00,2.451e+00,1.518e+00,1.626e+00,1.395e+00,8.710e-01,2.274e+00,2.342e+00,1.690e+00,2.884e+00,2.036e+00,1.823e+00,1.794e+00,1.817e+00,2.505e+00,2.103e+00,1.484e+00,2.214e+00,1.738e+00,2.063e+00,2.270e+00,2.079e+00,2.034e+00,2.517e+00,1.594e+00,1.815e+00,2.115e+00,2.776e+00,2.181e+00,1.742e+00,2.129e+00,2.134e+00,2.091e+00,2.514e+00,1.907e+00,2.413e+00,2.040e+00
1.772e-01,2.204e-01,3.180e-01,1.561e+00,9.921e-01,1.749e+00,2.268e+00,1.581e+00,2.292e+00,2.219e+00,2.344e+00,2.530e+00,2.749e+00,2.349e+00,1.866e+00,2.149e+00,1.084e+00,3.140e+00,2.355e+00,2.144e+00,3.963e+00,2.426e+00,1.876e+00,2.210e+00,1.838e+00,3.175e+00,1.968e+00,1.799e+00,2.586e+00,1.512e+00,2.365e+00,3.065e+00,2.325e+00,1.966e+00,3.137e+00,2.823e+00,2.954e+00,3.040e+00,3.008e+00,2.770e+00,2.520e+00,1.608e+00,2.274e+00,2.125e+00,2.752e+00,2.796e+00,2.663e+00,2.416e+00
5.932e-01,1.106e+00,1.221e+00,1.355e+00,2.167e+00,1.264e+00,2.522e+00,2.892e+00,1.640e+00,2.840e+00,2.868e+00,2.464e+00,2.902e+00,2.621e+00,2.040e+00,1.384e+00,2.082e+00,3.757e+00,2.759e+00,3.193e+00,3.816e+00,2.356e+00,2.842e+00,3.161e+00,3.181e+00,3.431e+00,2.775e+00,2.494e+00,3.297e+00,2.920e+00,2.897e+00,3.210e+00,3.519e+00,3.146e+00,3.405e+00,2.895e+00,3.568e+00,3.592e+00,3.009e+00,3.453e+00,3.510e+00,2.357e+00,2.957e+00,3.227e+00,3.820e+00,4.003e+00,2.995e+00,2.161e+00
6.676e-01,1.194e+00,1.083e+00,1.751e+00,2.409e+00,1.668e+00,2.908e+00,2.800e+00,1.915e+00,2.719e+00,3.081e+00,3.787e+00,3.645e+00,2.996e+00,2.584e+00,2.617e+00,1.519e+00,3.634e+00,3.530e+00,2.986e+00,4.058e+00,3.082e+00,2.793e+00,3.411e+00,3.056e+00,3.349e+00,3.221e+00,2.226e+00,3.153e+00,2.452e+00,2.784e+00,2.928e+00,3.977e+00,3.343e+00,3.932e+00,2.645e+00,3.503e+00,3.925e+00,4.167e+00,3.541e+00,3.450e+00,2.009e+00,3.210e+00,3.442e+00,3.971e+00,3.607e+00,3.152e+00,3.425e+00
1.875e-01,6.599e-01,1.232e+00,1.128e+00,1.489e+00,1.085e+00,2.235e+00,1.997e+00,1.397e+00,2.837e+00,3.785e+00,3.604e+00,3.495e+00,3.807e+00,2.655e+00,3.102e+00,2.126e+00,4.453e+00,3.372e+00,4.083e+00,5.416e+00,3.815e+00,3.779e+00,3.795e+00,3.204e+00,3.465e+00,3.140e+00,3.851e+00,3.597e+00,3.106e+00,3.617e+00,3.480e+00,3.723e+00,4.595e+00,4.600e+00,3.831e+00,4.149e+00,4.056e+00,4.590e+00,4.824e+00,4.012e+00,2.662e+00,3.395e+00,3.710e+00,5.162e+00,4.041e+00,3.865e+00,2.959e+00
1.320e-02,2.571e-01,5.087e-01,9.072e-01,1.335e+00,1.840e+00,2.443e+00,1.991e+00,1.576e+00,2.316e+00,3.731e+00,3.272e+00,3.801e+00,3.230e+00,3.782e+00,3.325e+00,2.886e+00,4.145e+00,4.446e+00,4.378e+00,5.030e+00,4.485e+00,3.568e+00,3.662e+00,2.772e+00,4.186e+00,3.426e+00,3.207e+00,4.436e+00,3.849e+00,4.626e+00,3.747e+00,4.342e+00,5.076e+00,4.819e+00,3.578e+00,4.524e+00,4.212e+00,5.718e+00,4.273e+00,3.416e+00,2.604e+00,3.857e+00,4.244e+00,5.235e+00,4.330e+00,4.164e+00,4.334e+00
3.943e-01,8.532e-01,9.317e-01,1.001e+00,1.913e+00,1.589e+00,2.881e+00,2.571e+00,2.061e+00,2.847e+00,3.412e+00,3.393e+00,3.826e+00,3.395e+00,3.578e+00,2.813e+00,2.664e+00,4.355e+00,3.848e+00,3.610e+00,4.265e+00,3.677e+00,3.747e+00,4.147e+00,2.933e+00,3.645e+00,3.128e+00,3.434e+00,4.265e+00,3.406e+00,3.327e+00,4.322e+00,4.132e+00,4.299e+00,4.288e+00,3.785e+00,4.638e+00,4.778e+00,4.790e+00,3.966e+00,3.442e+00,3.116e+00,4.471e+00,3.960e+00,5.146e+00,4.325e+00,3.885e+00,3.702e+00
4.334e-01,8.587e-01,8.087e-01,1.328e+00,1.704e+00,1.515e+00,2.525e+00,1.929e+00,1.819e+00,2.673e+00,2.836e+00,3.731e+00,3.649e+00,3.084e+00,4.198e+00,3.829e+00,2.668e+00,3.897e+00,3.654e+00,3.263e+00,4.445e+00,3.631e+00,3.868e+00,3.868e+00,3.146e+00,3.933e+00,3.030e+00,3.252e+00,4.203e+00,2.597e+00,3.964e+00,3.693e+00,3.810e+00,4.412e+00,4.997e+00,3.081e+00,4.124e+00,4.226e+00,5.675e+00,3.822e+00,3.379e+00,2.543e+00,4.504e+00,3.162e+00,5.176e+00,3.899e+00,3.708e+00,3.758e+00
5.193e-01,1.012e+00,1.244e+00,1.559e+00,2.132e+00,1.603e+00,2.776e+00,2.919e+00,1.967e+00,2.970e+00,3.235e+00,3.352e+00,3.927e+00,3.801e+00,3.841e+00,3.208e+00,3.350e+00,5.362e+00,4.121e+00,4.568e+00,5.320e+00,4.837e+00,4.234e+00,4.489e+00,3.940e+00,4.565e+00,4.320e+00,3.947e+00,5.124e+00,3.530e+00,4.665e+00,5.255e+00,5.006e+00,5.541e+00,5.542e+00,4.360e+00,5.254e+00,5.136e+00,5.113e+00,5.153e+00,4.449e+00,3.375e+00,5.198e+00,4.165e+00,5.596e+00,5.559e+00,5.133e+00,3.741e+00
7.108e-01,9.974e-01,5.065e-01,1.194e+00,1.432e+00,9.246e-01,1.930e+00,1.837e+00,2.149e+00,2.655e+00,2.912e+00,3.239e+00,3.749e+00,3.265e+00,4.492e+00,2.751e+00,3.118e+00,4.782e+00,3.834e+00,4.712e+00,4.943e+00,3.250e+00,4.393e+00,4.460e+00,3.611e+00,5.175e+00,3.345e+00,3.744e+00,4.519e+00,4.158e+00,4.713e+00,4.900e+00,3.665e+00,4.338e+00,5.558e+00,4.502e+00,5.363e+00,4.262e+00,5.468e+00,3.841e+00,3.902e+00,2.836e+00,5.523e+00,3.726e+00,5.741e+00,4.857e+00,4.099e+00,3.441e+00
1.270e-01,2.379e-01,5.264e-01,1.586e+00,1.027e+00,1.540e+00,1.897e+00,1.415e+00,1.615e+00,2.105e+00,2.681e+00,2.591e+00,2.793e+00,3.115e+00,3.018e+00,2.779e+00,2.567e+00,4.730e+00,3.592e+00,4.583e+00,5.287e+00,3.806e+00,3.462e+00,4.212e+00,2.869e+00,4.096e+00,3.885e+00,3.386e+00,3.899e+00,3.180e+00,4.802e+00,4.747e+00,3.986e+00,4.779e+00,4.708e+00,5.052e+00,5.196e+00,3.917e+00,5.177e+00,4.281e+00,3.886e+00,2.101e+00,4.434e+00,4.022e+00,4.553e+00,5.022e+00,4.186e+00,2.778e+00
5.398e-01,1.055e+00,1.269e+00,2.015e+00,2.410e+00,2.201e+00,3.690e+00,3.310e+00,2.671e+00,3.848e+00,3.495e+00,3.819e+00,4.326e+00,4.442e+00,4.549e+00,4.019e+00,3.794e+00,6.396e+00,5.783e+00,6.280e+00,7.969e+00,5.901e+00,5.737e+00,6.702e+00,4.865e+00,7.129e+00,6.195e+00,5.942e+00,5.886e+00,5.320e+00,6.629e+00,7.320e+00,6.181e+00,6.915e+00,7.401e+00,5.830e+00,6.860e+00,6.661e+00,8.108e+00,6.302e+00,5.569e+00,4.141e+00,7.004e+00,6.636e+00,6.771e+00,6.682e+00,7.250e+00,4.461e+00
6.614e-01,1.176e+00,1.130e+00,1.743e+00,2.298e+00,1.523e+00,3.172e+00,2.915e+00,2.235e+00,3.163e+00,2.560e+00,3.143e+00,3.708e+00,3.464e+00,3.866e+00,3.136e+00,3.142e+00,4.801e+00,4.422e+00,4.451e+00,6.306e+00,5.402e+00,4.800e+00,5.443e+00,4.369e+00,6.050e+00,5.833e+00,4.238e+00,5.349e+00,4.580e+00,5.536e+00,5.360e+00,5.655e+00,5.725e+00,6.085e+00,4.611e+00,5.442e+00,5.211e+00,5.878e+00,4.949e+00,4.572e+00,3.369e+00,5.598e+00,5.509e+00,6.041e+00,5.710e+00,6.064e+00,4.113e+00
4.276e-01,5.505e-01,4.548e-01,1.245e+00,1.112e+00,1.439e+00,1.810e+00,1.578e+00,1.656e+00,2.373e+00,2.982e+00,2.585e+00,3.109e+00,3.207e+00,3.746e+00,3.139e+00,4.233e+00,5.232e+00,4.004e+00,5.494e+00,6.400e+00,5.945e+00,4.691e+00,5.376e+00,5.462e+00,6.745e+00,5.259e+00,5.780e+00,5.426e+00,5.456e+00,6.100e+00,5.663e+00,5.692e+00,6.105e+00,7.041e+00,5.289e+00,5.816e+00,6.064e+00,6.048e+00,5.641e+00,4.818e+00,2.954e+00,6.157e+00,5.427e+00,6.585e+00,6.687e+00,6.546e+00,4.266e+00
4.036e-01,8.454e-01,8.846e-01,9.845e-01,1.926e+00,1.327e+00,2.478e+00,2.439e+00,1.690e+00,2.134e+00,3.131e+00,3.355e+00,3.805e+00,3.782e+00,4.194e+00,3.400e+00,3.122e+00,5.048e+00,4.578e+00,4.119e+00,6.438e+00,6.618e+00,5.566e+00,5.787e+00,5.119e+00,5.884e+00,6.385e+00,5.446e+00,5.852e+00,4.935e+00,6.170e+00,5.708e+00,6.846e+00,6.168e+00,6.599e+00,5.061e+00,6.116e+00,6.158e+00,6.054e+00,5.794e+00,5.517e+00,3.898e+00,5.408e+00,6.588e+00,7.840e+00,6.265e+00,7.221e+00,6.110e+00
6.064e-01,8.725e-01,5.665e-01,1.163e+00,1.639e+00,1.598e+00,2.619e+00,2.078e+00,2.523e+00,2.687e+00,3.558e+00,3.688e+00,4.072e+00,2.790e+00,2.556e+00,2.868e+00,2.156e+00,5.108e+00,4.380e+00,4.997e+00,5.806e+00,5.529e+00,4.734e+00,6.072e+00,4.442e+00,6.297e+00,5.491e+00,5.512e+00,5.435e+00,4.854e+00,5.347e+00,5.693e+00,5.983e+00,5.132e+00,6.720e+00,4.599e+00,5.999e+00,5.599e+00,6.425e+00,4.825e+00,4.725e+00,3.224e+00,5.682e+00,6.364e+00,5.695e+00,6.366e+00,6.981e+00,4.745e+00
1.068e-01,4.594e-01,9.814e-01,1.577e+00,1.499e+00,1.969e+00,3.119e+00,2.353e+00,2.243e+00,3.394e+00,3.208e+00,3.370e+00,3.721e+00,3.799e+00,4.195e+00,3.868e+00,3.627e+00,5.191e+00,4.604e+00,5.288e+00,6.836e+00,5.217e+00,5.372e+00,6.963e+00,4.697e+00,6.588e+00,5.971e+00,6.226e+00,7.026e+00,6.412e+00,7.438e+00,7.101e+00,6.045e+00,6.339e+00,8.112e+00,5.918e+00,6.412e+00,6.830e+00,7.619e+00,7.024e+00,5.074e+00,4.884e+00,7.421e+00,6.339e+00,6.920e+00,6.782e+00,7.603e+00,5.717e+00
2.514e-03,3.102e-01,7.470e-01,7.703e-01,1.173e+00,1.103e+00,1.784e+00,1.400e+00,8.950e-01,1.750e+00,2.559e+00,2.136e+00,2.337e+00,2.298e+00,3.421e+00,2.784e+00,3.482e+00,4.079e+00,3.299e+00,4.062e+00,4.668e+00,3.617e+00,4.406e+00,5.338e+00,3.940e+00,4.765e+00,4.953e+00,5.153e+00,6.393e+00,5.587e+00,6.086e+00,5.589e+00,4.982e+00,6.612e+00,6.888e+00,5.393e+00,5.665e+00,5.402e+00,6.505e+00,4.962e+00,4.215e+00,3.313e+00,5.386e+00,5.408e+00,5.913e+00,5.589e+00,5.206e+00,3.632e+00
1.895e-01,4.106e-01,5.335e-01,1.350e+00,1.335e+00,1.794e+00,2.903e+00,1.821e+00,2.618e+00,2.726e+00,3.227e+00,3.687e+00,3.976e+00,3.664e+00,3.635e+00,4.030e+00,2.492e+00,5.400e+00,4.908e+00,4.461e+00,7.631e+00,6.407e+00,5.610e+00,6.427e+00,4.548e+00,7.414e+00,7.235e+00,6.864e+00,6.933e+00,5.976e+00,6.947e+00,7.859e+00,7.083e+00,7.146e+00,8.764e+00,7.465e+00,7.638e+00,7.033e+00,8.883e+00,6.797e+00,6.323e+00,4.903e+00,6.200e+00,8.377e+00,8.481e+00,6.539e+00,8.315e+00,6.433e+00
7.572e-01,1.098e+00,7.774e-01,1.454e+00,1.985e+00,1.391e+00,2.746e+00,2.872e+00,2.704e+00,2.938e+00,3.316e+00,3.452e+00,4.484e+00,4.342e+00,4.708e+00,3.021e+00,3.239e+00,6.034e+00,4.883e+00,5.491e+00,7.071e+00,6.218e+00,5.814e+00,6.494e+00,5.833e+00,8.205e+00,7.184e+00,7.521e+00,7.134e+00,8.222e+00,8.288e+00,8.812e+00,7.510e+00,7.109e+00,1.032e+01,7.231e+00,8.771e+00,8.218e+00,8.861e+00,7.449e+00,7.302e+00,5.934e+00,7.548e+00,9.791e+00,9.213e+00,7.387e+00,9.520e+00,6.781e+00
3.172e-01,4.485e-01,5.404e-01,1.658e+00,1.326e+00,1.807e+00,2.103e+00,2.045e+00,1.629e+00,2.337e+00,3.255e+00,2.979e+00,3.388e+00,3.663e+00,4.363e+00,3.018e+00,3.880e+00,5.349e+00,4.304e+00,5.971e+00,6.543e+00,6.218e+00,5.056e+00,6.793e+00,6.217e+00,7.763e+00,6.865e+00,8.006e+00,7.602e+00,9.220e+00,9.626e+00,7.695e+00,7.181e+00,7.098e+00,9.403e+00,7.517e+00,8.244e+00,8.698e+00,8.861e+00,7.436e+00,6.168e+00,4.916e+00,8.163e+00,8.675e+00,8.479e+00,8.534e+00,9.511e+00,7.575e+00
7.345e-01,1.176e+00,9.786e-01,1.453e+00,1.947e+00,1.241e+00,2.368e+00,2.337e+00,1.759e+00,2.780e+00,2.573e+00,2.964e+00,3.352e+00,3.071e+00,3.588e+00,2.806e+00,3.280e+00,4.837e+00,3.867e+00,4.622e+00,5.289e+00,5.150e+00,5.099e+00,5.988e+00,5.514e+00,5.889e+00,6.413e+00,6.422e+00,6.168e+00,6.249e+00,7.520e+00,7.103e+00,7.352e+00,6.671e+00,8.676e+00,5.849e+00,8.020e+00,6.526e+00,7.411e+00,6.765e+00,6.847e+00,4.721e+00,7.692e+00,7.894e+00,7.798e+00,7.074e+00,7.587e+00,6.417e+00
1.010e-01,2.435e-01,4.452e-01,1.445e+00,1.014e+00,1.753e+00,2.590e+00,1.598e+00,2.140e+00,2.866e+00,2.943e+00,3.029e+00,3.290e+00,3.316e+00,3.009e+00,3.272e+00,2.336e+00,4.051e+00,4.175e+00,4.568e+00,6.979e+00,5.277e+00,4.454e+00,5.442e+00,4.103e+00,6.440e+00,5.892e+00,7.016e+00,5.443e+00,7.718e+00,8.552e+00,7.308e+00,6.958e+00,5.897e+00,8.461e+00,7.316e+00,7.650e+00,6.904e+00,9.092e+00,6.866e+00,6.570e+00,4.541e+00,7.507e+00,7.922e+00,7.694e+00,6.323e+00,8.811e+00,7.591e+00
2.769e-01,5.387e-01,5.785e-01,6.113e-01,1.069e+00,1.058e+00,2.176e+00,1.823e+00,2.223e+00,2.703e+00,3.265e+00,2.920e+00,3.805e+00,2.903e+00,4.543e+00,3.198e+00,3.795e+00,5.622e+00,4.411e+00,5.659e+00,6.960e+00,6.032e+00,6.059e+00,7.059e+00,6.052e+00,8.554e+00,7.108e+00,8.892e+00,8.334e+00,8.864e+00,9.650e+00,9.881e+00,8.036e+00,8.547e+00,1.154e+01,9.472e+00,9.175e+00,9.291e+00,1.082e+01,8.319e+00,7.625e+00,6.891e+00,9.301e+00,9.216e+00,1.079e+01,8.306e+00,1.035e+01,8.315e+00
3.971e-01,5.289e-01,3.439e-01,1.650e+00,1.472e+00,2.101e+00,2.914e+00,1.976e+00,2.503e+00,2.709e+00,2.523e+00,2.881e+00,3.678e+00,3.523e+00,4.658e+00,3.754e+00,4.063e+00,5.440e+00,5.182e+00,5.712e+00,6.771e+00,6.498e+00,5.545e+00,7.516e+00,4.827e+00,7.705e+00,7.011e+00,8.077e+00,7.420e+00,8.781e+00,1.014e+01,1.005e+01,8.841e+00,9.252e+00,1.159e+01,9.711e+00,1.132e+01,9.812e+00,1.046e+01,8.271e+00,7.643e+00,6.595e+00,1.083e+01,9.883e+00,9.220e+00,8.506e+00,1.109e+01,8.880e+00
6.241e-02,4.466e-01,8.831e-01,5.136e-01,1.180e+00,1.092e+00,1.915e+00,1.704e+00,1.189e+00,2.347e+00,3.585e+00,3.084e+00,3.114e+00,2.871e+00,3.034e+00,3.175e+00,3.092e+00,5.059e+00,4.506e+00,5.527e+00,6.805e+00,5.462e+00,5.397e+00,6.281e+00,5.520e+00,6.257e+00,7.076e+00,8.090e+00,6.291e+00,7.752e+00,8.754e+00,8.264e+00,8.332e+00,7.835e+00,1.051e+01,8.044e+00,8.446e+00,8.591e+00,9.957e+00,7.688e+00,7.568e+00,6.179e+00,9.048e+00,9.017e+00,8.850e+00,7.512e+00,9.512e+00,8.504e+00
5.593e-01,1.117e+00,1.126e+00,1.189e+00,2.292e+00,1.694e+00,2.975e+00,2.919e+00,2.184e+00,3.300e+00,4.523e+00,4.207e+00,4.451e+00,3.353e+00,3.993e+00,3.624e+00,3.733e+00,5.843e+00,5.219e+00,5.803e+00,7.450e+00,5.470e+00,5.440e+00,6.554e+00,6.042e+00,8.283e+00,6.919e+00,7.378e+00,7.923e+00,8.550e+00,8.268e+00,9.663e+00,8.670e+00,1.000e+01,1.239e+01,9.513e+00,9.490e+00,1.060e+01,1.228e+01,9.356e+00,8.843e+00,7.594e+00,1.031e+01,1.074e+01,1.099e+01,9.275e+00,1.038e+01,1.024e+01
5.365e-01,8.344e-01,8.034e-01,1.637e+00,1.815e+00,1.636e+00,2.667e+00,2.562e+00,2.366e+00,2.892e+00,3.373e+00,3.308e+00,4.117e+00,4.572e+00,5.328e+00,3.750e+00,4.548e+00,6.598e+00,5.016e+00,5.730e+00,7.526e+00,6.715e+00,6.105e+00,7.518e+00,6.368e+00,7.985e+00,7.072e+00,8.093e+00,8.066e+00,8.952e+00,9.763e+00,1.030e+01,9.527e+00,1.009e+01,1.295e+01,1.094e+01,1.121e+01,1.172e+01,1.096e+01,1.077e+01,9.502e+00,8.635e+00,1.086e+01,1.175e+01,1.111e+01,1.101e+01,1.118e+01,1.008e+01
7.037e-01,9.819e-01,4.754e-01,1.434e+00,1.743e+00,1.596e+00,2.343e+00,1.954e+00,2.085e+00,2.495e+00,3.130e+00,3.652e+00,3.894e+00,2.978e+00,3.274e+00,2.985e+00,2.482e+00,4.265e+00,4.275e+00,4.719e+00,4.679e+00,4.988e+00,3.776e+00,5.205e+00,4.502e+00,5.250e+00,5.637e+00,5.353e+00,4.730e+00,5.724e+00,5.813e+00,6.379e+00,7.629e+00,6.784e+00,9.394e+00,7.568e+00,8.364e+00,8.862e+00,8.930e+00,7.364e+00,6.788e+00,6.270e+00,8.210e+00,8.859e+00,8.513e+00,7.439e+00,8.858e+00,8.227e+00
7.326e-01,1.165e+00,9.561e-01,2.078e+00,2.088e+00,1.587e+00,2.705e+00,2.580e+00,2.011e+00,3.274e+00,3.080e+00,3.821e+00,4.064e+00,4.155e+00,4.422e+00,3.401e+00,2.934e+00,5.413e+00,5.239e+00,6.215e+00,6.796e+00,5.465e+00,5.298e+00,6.224e+00,4.920e+00,6.951e+00,6.593e+00,5.914e+00,5.652e+00,6.585e+00,8.171e+00,7.982e+00,8.198e+00,8.552e+00,1.047e+01,9.270e+00,1.013e+01,9.164e+00,1.118e+01,9.658e+00,9.842e+00,7.804e+00,9.653e+00,1.175e+01,1.067e+01,9.850e+00,9.673e+00,9.359e+00
4.356e-01,7.023e-01,6.409e-01,1.161e+00,1.439e+00,1.269e+00,2.334e+00,2.245e+00,2.332e+00,2.569e+00,2.952e+00,3.068e+00,3.800e+00,3.624e+00,4.103e+00,2.881e+00,2.717e+00,5.336e+00,4.321e+00,4.814e+00,6.949e+00,5.699e+00,4.952e+00,5.649e+00,4.927e+00,7.430e+00,6.467e+00,6.766e+00,6.527e+00,7.656e+00,8.144e+00,9.058e+00,7.086e+00,7.227e+00,1.011e+01,8.670e+00,9.117e+00,8.925e+00,1.084e+01,9.064e+00,9.229e+00,7.652e+00,9.375e+00,1.162e+01,1.065e+01,9.357e+00,9.661e+00,9.238e+00
6.236e-01,9.677e-01,7.048e-01,1.063e+00,1.802e+00,1.427e+00,2.735e+00,2.264e+00,2.335e+00,2.808e+00,3.477e+00,3.319e+00,3.923e+00,2.870e+00,3.327e+00,3.135e+00,3.625e+00,5.661e+00,4.653e+00,5.084e+00,6.333e+00,6.156e+00,5.617e+00,7.141e+00,6.121e+00,7.248e+00,7.299e+00,7.134e+00,7.215e+00,7.532e+00,8.271e+00,8.606e+00,9.285e+00,8.814e+00,1.142e+01,8.946e+00,9.933e+00,9.938e+00,1.108e+01,9.370e+00,8.805e+00,8.405e+00,1.161e+01,1.192e+01,1.087e+01,1.032e+01,1.205e+01,1.001e+01
2.359e-01,2.938e-01,1.223e-01,8.144e-01,9.071e-01,1.311e+00,1.901e+00,1.561e+00,1.964e+00,1.976e+00,3.569e+00,3.196e+00,3.698e+00,3.123e+00,3.239e+00,3.271e+00,2.985e+00,5.503e+00,5.212e+00,5.393e+00,6.461e+00,6.002e+00,4.997e+00,6.096e+00,5.303e+00,6.529e+00,6.801e+00,6.160e+00,5.857e+00,6.333e+00,7.270e+00,7.159e+00,7.814e+00,7.831e+00,9.547e+00,7.609e+00,7.795e+00,8.403e+00,1.072e+01,9.672e+00,7.926e+00,7.158e+00,9.400e+00,1.130e+01,1.009e+01,1.007e+01,1.024e+01,1.018e+01
1.489e-02,4.287e-01,1.086e+00,8.020e-01,1.413e+00,1.288e+00,2.353e+00,2.155e+00,1.710e+00,2.633e+00,3.864e+00,3.162e+00,3.404e+00,3.538e+00,3.418e+00,2.888e+00,3.026e+00,5.751e+00,4.187e+00,5.134e+00,6.957e+00,5.187e+00,5.849e+00,7.373e+00,5.506e+00,6.574e+00,7.453e+00,8.695e+00,8.078e+00,9.081e+00,9.524e+00,9.816e+00,8.060e+00,8.002e+00,1.081e+01,1.001e+01,1.101e+01,1.065e+01,1.176e+01,1.016e+01,9.372e+00,1.001e+01,1.174e+01,1.342e+01,1.211e+01,1.178e+01,1.275e+01,1.144e+01
4.079e-01,5.333e-01,4.882e-01,1.587e+00,1.275e+00,1.459e+00,2.032e+00,2.001e+00,1.987e+00,2.153e+00,2.931e+00,3.083e+00,3.671e+00,3.914e+00,5.111e+00,3.523e+00,4.185e+00,6.195e+00,4.740e+00,6.054e+00,6.534e+00,6.200e+00,5.666e+00,7.022e+00,5.814e+00,7.698e+00,7.053e+00,7.197e+00,7.863e+00,8.457e+00,9.876e+00,9.765e+00,8.141e+00,8.982e+00,1.158e+01,9.375e+00,1.041e+01,1.043e+01,1.206e+01,1.060e+01,9.776e+00,1.031e+01,1.387e+01,1.388e+01,1.229e+01,1.378e+01,1.366e+01,1.233e+01
5.283e-01,1.077e+00,1.299e+00,1.410e+00,2.047e+00,1.108e+00,2.390e+00,2.579e+00,1.764e+00,2.802e+00,3.076e+00,3.296e+00,3.490e+00,4.069e+00,4.456e+00,3.556e+00,3.743e+00,6.027e+00,4.202e+00,4.311e+00,7.052e+00,5.303e+00,6.218e+00,6.956e+00,5.897e+00,7.147e+00,6.265e+00,7.005e+00,7.166e+00,6.701e+00,8.686e+00,9.248e+00,8.773e+00,8.770e+00,1.148e+01,1.019e+01,1.091e+01,1.114e+01,1.052e+01,1.132e+01,1.094e+01,1.037e+01,1.225e+01,1.346e+01,1.319e+01,1.194e+01,1.202e+01,1.171e+01
6.723e-01,1.231e+00,1.044e+00,1.484e+00,2.313e+00,1.518e+00,3.340e+00,2.811e+00,2.745e+00,3.356e+00,3.364e+00,4.093e+00,4.417e+00,3.051e+00,3.492e+00,3.530e+00,2.646e+00,5.390e+00,5.222e+00,4.859e+00,7.231e+00,5.563e+00,5.631e+00,7.202e+00,5.351e+00,7.828e+00,7.915e+00,7.938e+00,7.721e+00,8.281e+00,9.180e+00,1.015e+01,9.573e+00,9.627e+00,1.287e+01,1.154e+01,1.218e+01,1.157e+01,1.189e+01,1.099e+01,1.097e+01,1.096e+01,1.309e+01,1.498e+01,1.404e+01,1.255e+01,1.321e+01,1.415e+01
2.073e-01,5.609e-01,9.601e-01,1.607e+00,1.768e+00,1.758e+00,2.625e+00,2.518e+00,1.700e+00,2.707e+00,3.331e+00,2.990e+00,3.392e+00,3.784e+00,4.189e+00,3.066e+00,3.778e+00,5.613e+00,4.714e+00,5.553e+00,7.018e+00,5.569e+00,5.961e+00,7.400e+00,5.689e+00,7.173e+00,7.932e+00,7.191e+00,8.256e+00,8.624e+00,9.942e+00,9.225e+00,8.789e+00,8.654e+00,1.082e+01,9.212e+00,1.020e+01,9.431e+00,1.151e+01,9.942e+00,9.743e+00,9.720e+00,1.152e+01,1.412e+01,1.255e+01,1.303e+01,1.333e+01,1.237e+01
3.082e-01,4.201e-01,4.055e-01,1.765e+00,1.151e+00,1.663e+00,2.030e+00,1.605e+00,1.953e+00,2.555e+00,2.950e+00,3.003e+00,3.329e+00,3.979e+00,4.699e+00,3.520e+00,3.933e+00,5.348e+00,4.396e+00,5.335e+00,6.746e+00,5.878e+00,5.986e+00,7.391e+00,5.412e+00,7.857e+00,7.115e+00,7.559e+00,8.131e+00,7.712e+00,8.399e+00,8.516e+00,8.325e+00,8.697e+00,1.160e+01,1.026e+01,1.109e+01,1.109e+01,1.072e+01,1.056e+01,9.005e+00,9.593e+00,1.029e+01,1.338e+01,1.205e+01,1.278e+01,1.342e+01,1.244e+01
3.252e-01,7.410e-01,9.292e-01,1.362e+00,1.795e+00,1.819e+00,2.625e+00,2.135e+00,1.836e+00,2.722e+00,2.685e+00,3.011e+00,3.213e+00,3.250e+00,4.082e+00,3.516e+00,3.440e+00,5.028e+00,4.237e+00,4.325e+00,6.700e+00,5.972e+00,5.369e+00,6.733e+00,5.076e+00,6.669e+00,7.107e+00,7.216e+00,6.967e+00,6.904e+00,8.512e+00,8.785e+00,8.356e+00,8.345e+00,1.019e+01,9.561e+00,1.065e+01,1.127e+01,1.095e+01,9.640e+00,9.117e+00,9.629e+00,1.171e+01,1.383e+01,1.231e+01,1.327e+01,1.300e+01,1.218e+01
4.448e-01,9.160e-01,9.965e-01,1.628e+00,1.950e+00,1.380e+00,3.031e+00,2.440e+00,2.162e+00,2.900e+00,2.526e+00,3.418e+00,3.686e+00,3.105e+00,4.214e+00,3.502e+00,2.637e+00,4.097e+00,3.977e+00,3.945e+00,6.101e+00,4.732e+00,4.736e+00,5.112e+00,4.722e+00,6.162e+00,6.026e+00,5.299e+00,5.711e+00,5.728e+00,7.337e+00,7.048e+00,6.866e+00,8.242e+00,1.113e+01,8.312e+00,8.818e+00,9.349e+00,1.136e+01,1.034e+01,9.945e+00,1.067e+01,1.115e+01,1.382e+01,1.261e+01,1.159e+01,1.224e+01,1.294e+01
